{
  "message": "Animes com classificação etária: A10",
  "age_rating": "A10",
  "data": [
    {
      "id": 405,
      "nome": "Bishoujo Yuugi Unit Crane Game Girls Galaxy",
      "link": "https://animefire.plus/animes/bishoujo-yuugi-unit-crane-game-girls-galaxy-todos-os-episodios",
      "texto_original": "Bishoujo Yuugi Unit Crane Game Girls Galaxy",
      "rating": 4.77,
      "classificacao_etaria": "A10",
      "imagem_original": "https://animefire.plus/img/animes/bishoujo-yuugi-unit-crane-game-girls-galaxy.webp",
      "imagem_pasta": "https://animefire.plus/img/animes/bishoujo-yuugi-unit-crane-game-girls-galaxy/",
      "secao": "legendados",
      "pagina": 146,
      "total_episodios": 3,
      "link_video": "https://animefire.plus/video/bishoujo-yuugi-unit-crane-game-girls-galaxy"
    },
    {
      "id": 435,
      "nome": "Blue Dragon (Dublado)",
      "link": "https://animefire.plus/animes/blue-dragon-dublado-todos-os-episodios",
      "texto_original": "Blue Dragon (Dublado)",
      "rating": 6.43,
      "classificacao_etaria": "A10",
      "imagem_original": "https://animefire.plus/img/animes/blue-dragon.webp",
      "imagem_pasta": "https://animefire.plus/img/animes/blue-dragon/",
      "secao": "dublados",
      "pagina": 21,
      "total_episodios": 0,
      "link_video": "https://animefire.plus/video/blue-dragon-dublado"
    },
    {
      "id": 436,
      "nome": "Blue Dragon: Tenkai no Shichi Ryuu",
      "link": "https://animefire.plus/animes/blue-dragon-tenkai-no-shichi-ryuu-todos-os-episodios",
      "texto_original": "Blue Dragon: Tenkai no Shichi Ryuu",
      "rating": 6.67,
      "classificacao_etaria": "A10",
      "imagem_original": "https://animefire.plus/img/animes/blue-dragon-tenkai-no-shichi-ryuu.webp",
      "imagem_pasta": "https://animefire.plus/img/animes/blue-dragon-tenkai-no-shichi-ryuu/",
      "secao": "legendados",
      "pagina": 115,
      "total_episodios": 26,
      "link_video": "https://animefire.plus/video/blue-dragon-tenkai-no-shichi-ryuu"
    },
    {
      "id": 485,
      "nome": "Bouken Ou Beet",
      "link": "https://animefire.plus/animes/bouken-ou-beet-todos-os-episodios",
      "texto_original": "Bouken Ou Beet",
      "rating": 7.03,
      "classificacao_etaria": "A10",
      "imagem_original": "https://animefire.plus/img/animes/bouken-ou-beet.webp",
      "imagem_pasta": "https://animefire.plus/img/animes/bouken-ou-beet/",
      "secao": "legendados",
      "pagina": 123,
      "total_episodios": 52,
      "link_video": "https://animefire.plus/video/bouken-ou-beet"
    },
    {
      "id": 486,
      "nome": "Bouken Ou Beet Excellion",
      "link": "https://animefire.plus/animes/bouken-ou-beet-excellion-todos-os-episodios",
      "texto_original": "Bouken Ou Beet Excellion",
      "rating": 6.78,
      "classificacao_etaria": "A10",
      "imagem_original": "https://animefire.plus/img/animes/bouken-ou-beet-excellion.webp",
      "imagem_pasta": "https://animefire.plus/img/animes/bouken-ou-beet-excellion/",
      "secao": "legendados",
      "pagina": 125,
      "total_episodios": 24,
      "link_video": "https://animefire.plus/video/bouken-ou-beet-excellion"
    },
    {
      "id": 555,
      "nome": "Capeta",
      "link": "https://animefire.plus/animes/capeta-todos-os-episodios",
      "texto_original": "Capeta",
      "rating": 7.84,
      "classificacao_etaria": "A10",
      "imagem_original": "https://animefire.plus/img/animes/capeta.webp",
      "imagem_pasta": "https://animefire.plus/img/animes/capeta/",
      "secao": "legendados",
      "pagina": 55,
      "total_episodios": 52,
      "link_video": "https://animefire.plus/video/capeta"
    },
    {
      "id": 561,
      "nome": "Cardcaptor Sakura (Dublado)",
      "link": "https://animefire.plus/animes/cardcaptor-sakura-dublado-todos-os-episodios",
      "texto_original": "Cardcaptor Sakura (Dublado)",
      "rating": 8.2,
      "classificacao_etaria": "A10",
      "imagem_original": "https://animefire.plus/img/animes/cardcaptor-sakura.webp",
      "imagem_pasta": "https://animefire.plus/img/animes/cardcaptor-sakura/",
      "secao": "dublados",
      "pagina": 27,
      "total_episodios": 15,
      "link_video": "https://animefire.plus/video/cardcaptor-sakura-dublado"
    },
    {
      "id": 562,
      "nome": "Cardcaptor Sakura: Clear Card-hen",
      "link": "https://animefire.plus/animes/cardcaptor-sakura-clear-card-hen-todos-os-episodios",
      "texto_original": "Cardcaptor Sakura: Clear Card-hen",
      "rating": 7.87,
      "classificacao_etaria": "A10",
      "imagem_original": "https://animefire.plus/img/animes/cardcaptor-sakura-clear-card-hen.webp",
      "imagem_pasta": "https://animefire.plus/img/animes/cardcaptor-sakura-clear-card-hen/",
      "secao": "legendados",
      "pagina": 106,
      "total_episodios": 22,
      "link_video": "https://animefire.plus/video/cardcaptor-sakura-clear-card-hen"
    },
    {
      "id": 602,
      "nome": "Chicchana Yukitsukai Sugar",
      "link": "https://animefire.plus/animes/chicchana-yukitsukai-sugar-todos-os-episodios",
      "texto_original": "Chicchana Yukitsukai Sugar",
      "rating": 7.15,
      "classificacao_etaria": "A10",
      "imagem_original": "https://animefire.plus/img/animes/chicchana-yukitsukai-sugar.webp",
      "imagem_pasta": "https://animefire.plus/img/animes/chicchana-yukitsukai-sugar/",
      "secao": "legendados",
      "pagina": 152,
      "total_episodios": 24,
      "link_video": "https://animefire.plus/video/chicchana-yukitsukai-sugar"
    },
    {
      "id": 619,
      "nome": "Chocolate Underground",
      "link": "https://animefire.plus/animes/chocolate-underground-todos-os-episodios",
      "texto_original": "Chocolate Underground",
      "rating": 6.22,
      "classificacao_etaria": "A10",
      "imagem_original": "https://animefire.plus/img/animes/chocolate-underground.webp",
      "imagem_pasta": "https://animefire.plus/img/animes/chocolate-underground/",
      "secao": "legendados",
      "pagina": 122,
      "total_episodios": 13,
      "link_video": "https://animefire.plus/video/chocolate-underground"
    },
    {
      "id": 816,
      "nome": "Digimon Adventure (2020)",
      "link": "https://animefire.plus/animes/digimon-adventure-2020-todos-os-episodios",
      "texto_original": "Digimon Adventure (2020)",
      "rating": 6.78,
      "classificacao_etaria": "A10",
      "imagem_original": "https://animefire.plus/img/animes/digimon-adventure-2020.webp",
      "imagem_pasta": "https://animefire.plus/img/animes/digimon-adventure-2020/",
      "secao": "legendados,lancamentos",
      "pagina": 81,
      "total_episodios": 0,
      "link_video": "https://animefire.plus/video/digimon-adventure-2020"
    },
    {
      "id": 817,
      "nome": "Digimon Adventure (Dublado)",
      "link": "https://animefire.plus/animes/digimon-adventure-dublado-todos-os-episodios",
      "texto_original": "Digimon Adventure (Dublado)",
      "rating": 7.8,
      "classificacao_etaria": "A10",
      "imagem_original": "https://animefire.plus/img/animes/digimon-adventure.webp",
      "imagem_pasta": "https://animefire.plus/img/animes/digimon-adventure/",
      "secao": "dublados,legendados",
      "pagina": 20,
      "total_episodios": 54,
      "link_video": "https://animefire.plus/video/digimon-adventure-dublado"
    },
    {
      "id": 818,
      "nome": "Digimon Adventure 02 (Dublado)",
      "link": "https://animefire.plus/animes/digimon-adventure-02-dublado-todos-os-episodios",
      "texto_original": "Digimon Adventure 02 (Dublado)",
      "rating": 7.33,
      "classificacao_etaria": "A10",
      "imagem_original": "https://animefire.plus/img/animes/digimon-adventure-02.webp",
      "imagem_pasta": "https://animefire.plus/img/animes/digimon-adventure-02/",
      "secao": "dublados,legendados",
      "pagina": 27,
      "total_episodios": 50,
      "link_video": "https://animefire.plus/video/digimon-adventure-02-dublado"
    },
    {
      "id": 821,
      "nome": "Digimon Frontier (Dublado)",
      "link": "https://animefire.plus/animes/digimon-frontier-dublado-todos-os-episodios",
      "texto_original": "Digimon Frontier (Dublado)",
      "rating": 7.18,
      "classificacao_etaria": "A10",
      "imagem_original": "https://animefire.plus/img/animes/digimon-frontier.webp",
      "imagem_pasta": "https://animefire.plus/img/animes/digimon-frontier/",
      "secao": "dublados,legendados",
      "pagina": 21,
      "total_episodios": 50,
      "link_video": "https://animefire.plus/video/digimon-frontier-dublado"
    },
    {
      "id": 823,
      "nome": "Digimon Savers (Dublado)",
      "link": "https://animefire.plus/animes/digimon-savers-dublado-todos-os-episodios",
      "texto_original": "Digimon Savers (Dublado)",
      "rating": 7.06,
      "classificacao_etaria": "A10",
      "imagem_original": "https://animefire.plus/img/animes/digimon-savers.webp",
      "imagem_pasta": "https://animefire.plus/img/animes/digimon-savers/",
      "secao": "dublados",
      "pagina": 27,
      "total_episodios": 13,
      "link_video": "https://animefire.plus/video/digimon-savers-dublado"
    },
    {
      "id": 824,
      "nome": "Digimon Tamers",
      "link": "https://animefire.plus/animes/digimon-tamers-todos-os-episodios",
      "texto_original": "Digimon Tamers",
      "rating": 7.66,
      "classificacao_etaria": "A10",
      "imagem_original": "https://animefire.plus/img/animes/digimon-tamers.webp",
      "imagem_pasta": "https://animefire.plus/img/animes/digimon-tamers/",
      "secao": "legendados",
      "pagina": 134,
      "total_episodios": 0,
      "link_video": "https://animefire.plus/video/digimon-tamers"
    },
    {
      "id": 825,
      "nome": "Digimon Universe: Appli Monsters",
      "link": "https://animefire.plus/animes/digimon-universe-appli-monsters-todos-os-episodios",
      "texto_original": "Digimon Universe: Appli Monsters",
      "rating": 6.7,
      "classificacao_etaria": "A10",
      "imagem_original": "https://animefire.plus/img/animes/digimon-universe-appli-monsters.webp",
      "imagem_pasta": "https://animefire.plus/img/animes/digimon-universe-appli-monsters/",
      "secao": "legendados",
      "pagina": 65,
      "total_episodios": 52,
      "link_video": "https://animefire.plus/video/digimon-universe-appli-monsters"
    },
    {
      "id": 826,
      "nome": "Digimon Xros Wars",
      "link": "https://animefire.plus/animes/digimon-xros-wars-todos-os-episodios",
      "texto_original": "Digimon Xros Wars",
      "rating": 6.76,
      "classificacao_etaria": "A10",
      "imagem_original": "https://animefire.plus/img/animes/digimon-xros-wars.webp",
      "imagem_pasta": "https://animefire.plus/img/animes/digimon-xros-wars/",
      "secao": "legendados",
      "pagina": 55,
      "total_episodios": 29,
      "link_video": "https://animefire.plus/video/digimon-xros-wars"
    },
    {
      "id": 827,
      "nome": "Digimon Xros Wars: Aku no Death General to Nanatsu no Oukoku",
      "link": "https://animefire.plus/animes/digimon-xros-wars-aku-no-death-general-to-nanatsu-no-oukoku-todos-os-episodios",
      "texto_original": "Digimon Xros Wars: Aku no Death General to Nanatsu no Oukoku",
      "rating": 7.32,
      "classificacao_etaria": "A10",
      "imagem_original": "https://animefire.plus/img/animes/digimon-xros-wars-aku-no-death-general-to-nanatsu-no-oukoku.webp",
      "imagem_pasta": "https://animefire.plus/img/animes/digimon-xros-wars-aku-no-death-general-to-nanatsu-no-oukoku/",
      "secao": "legendados",
      "pagina": 148,
      "total_episodios": 0,
      "link_video": "https://animefire.plus/video/digimon-xros-wars-aku-no-death-general-to-nanatsu-no-oukoku"
    },
    {
      "id": 828,
      "nome": "Digimon Xros Wars: Toki wo Kakeru Shounen Hunter-tachi",
      "link": "https://animefire.plus/animes/digimon-xros-wars-toki-wo-kakeru-shounen-hunter-tachi-todos-os-episodios",
      "texto_original": "Digimon Xros Wars: Toki wo Kakeru Shounen Hunter-tachi",
      "rating": 6.47,
      "classificacao_etaria": "A10",
      "imagem_original": "https://animefire.plus/img/animes/digimon-xros-wars-toki-wo-kakeru-shounen-hunter-tachi.webp",
      "imagem_pasta": "https://animefire.plus/img/animes/digimon-xros-wars-toki-wo-kakeru-shounen-hunter-tachi/",
      "secao": "legendados",
      "pagina": 55,
      "total_episodios": 25,
      "link_video": "https://animefire.plus/video/digimon-xros-wars-toki-wo-kakeru-shounen-hunter-tachi"
    }
  ],
  "pagination": {
    "current_page": 2,
    "per_page": 20,
    "total_items": 119,
    "total_pages": 6,
    "has_next": true,
    "has_prev": true
  }
}
