{
  "message": "Animes com classificação etária: A10",
  "age_rating": "A10",
  "data": [
    {
      "id": 19,
      "nome": "12-sai.: Chicchana Mune no Tokimeki 2nd Season",
      "link": "https://animefire.plus/animes/12-sai-chicchana-mune-no-tokimeki-2nd-season-todos-os-episodios",
      "texto_original": "12-sai.: Chicchana Mune no Tokimeki 2nd Season",
      "rating": 6.77,
      "classificacao_etaria": "A10",
      "imagem_original": "https://animefire.plus/img/animes/12-sai-chicchana-mune-no-tokimeki-2nd-season.webp",
      "imagem_pasta": "https://animefire.plus/img/animes/12-sai-chicchana-mune-no-tokimeki-2nd-season/",
      "secao": "legendados",
      "pagina": 137,
      "total_episodios": 8,
      "link_video": "https://animefire.plus/video/12-sai-chicchana-mune-no-tokimeki-2nd-season"
    },
    {
      "id": 54,
      "nome": "Abciee Shuugyou Nikki",
      "link": "https://animefire.plus/animes/abciee-shuugyou-nikki-todos-os-episodios",
      "texto_original": "Abciee Shuugyou Nikki",
      "rating": 5.43,
      "classificacao_etaria": "A10",
      "imagem_original": "https://animefire.plus/img/animes/abciee-shuugyou-nikki.webp",
      "imagem_pasta": "https://animefire.plus/img/animes/abciee-shuugyou-nikki/",
      "secao": "legendados",
      "pagina": 48,
      "total_episodios": 12,
      "link_video": "https://animefire.plus/video/abciee-shuugyou-nikki"
    },
    {
      "id": 85,
      "nome": "Ai Tenshi Densetsu Wedding Peach",
      "link": "https://animefire.plus/animes/ai-tenshi-densetsu-wedding-peach-todos-os-episodios",
      "texto_original": "Ai Tenshi Densetsu Wedding Peach",
      "rating": 6.77,
      "classificacao_etaria": "A10",
      "imagem_original": "https://animefire.plus/img/animes/ai-tenshi-densetsu-wedding-peach.webp",
      "imagem_pasta": "https://animefire.plus/img/animes/ai-tenshi-densetsu-wedding-peach/",
      "secao": "legendados",
      "pagina": 158,
      "total_episodios": 34,
      "link_video": "https://animefire.plus/video/ai-tenshi-densetsu-wedding-peach"
    },
    {
      "id": 93,
      "nome": "Aikatsu Friends!",
      "link": "https://animefire.plus/animes/aikatsu-friends-todos-os-episodios",
      "texto_original": "Aikatsu Friends!",
      "rating": 7.55,
      "classificacao_etaria": "A10",
      "imagem_original": "https://animefire.plus/img/animes/aikatsu-friends.webp",
      "imagem_pasta": "https://animefire.plus/img/animes/aikatsu-friends/",
      "secao": "legendados",
      "pagina": 168,
      "total_episodios": 22,
      "link_video": "https://animefire.plus/video/aikatsu-friends"
    },
    {
      "id": 94,
      "nome": "Aikatsu on Parade!",
      "link": "https://animefire.plus/animes/aikatsu-on-parade-todos-os-episodios",
      "texto_original": "Aikatsu on Parade!",
      "rating": 6.83,
      "classificacao_etaria": "A10",
      "imagem_original": "https://animefire.plus/img/animes/aikatsu-on-parade.webp",
      "imagem_pasta": "https://animefire.plus/img/animes/aikatsu-on-parade/",
      "secao": "legendados",
      "pagina": 109,
      "total_episodios": 3,
      "link_video": "https://animefire.plus/video/aikatsu-on-parade"
    },
    {
      "id": 95,
      "nome": "Aikatsu Stars!",
      "link": "https://animefire.plus/animes/aikatsu-stars-todos-os-episodios",
      "texto_original": "Aikatsu Stars!",
      "rating": 7.63,
      "classificacao_etaria": "A10",
      "imagem_original": "https://animefire.plus/img/animes/aikatsu-stars.webp",
      "imagem_pasta": "https://animefire.plus/img/animes/aikatsu-stars/",
      "secao": "legendados",
      "pagina": 88,
      "total_episodios": 100,
      "link_video": "https://animefire.plus/video/aikatsu-stars"
    },
    {
      "id": 96,
      "nome": "Aikatsu!",
      "link": "https://animefire.plus/animes/aikatsu-todos-os-episodios",
      "texto_original": "Aikatsu!",
      "rating": 7.45,
      "classificacao_etaria": "A10",
      "imagem_original": "https://animefire.plus/img/animes/aikatsu.webp",
      "imagem_pasta": "https://animefire.plus/img/animes/aikatsu/",
      "secao": "legendados",
      "pagina": 178,
      "total_episodios": 26,
      "link_video": "https://animefire.plus/video/aikatsu"
    },
    {
      "id": 97,
      "nome": "Aikatsu!: Nerawareta Mahou no Aikatsu! Card",
      "link": "https://animefire.plus/animes/aikatsu-nerawareta-mahou-no-aikatsu-card-todos-os-episodios",
      "texto_original": "Aikatsu!: Nerawareta Mahou no Aikatsu! Card",
      "rating": 7.29,
      "classificacao_etaria": "A10",
      "imagem_original": "https://animefire.plus/img/animes/aikatsu-nerawareta-mahou-no-aikatsu-card.webp",
      "imagem_pasta": "https://animefire.plus/img/animes/aikatsu-nerawareta-mahou-no-aikatsu-card/",
      "secao": "legendados",
      "pagina": 88,
      "total_episodios": 1,
      "link_video": "https://animefire.plus/video/aikatsu-nerawareta-mahou-no-aikatsu-card"
    },
    {
      "id": 211,
      "nome": "Aoi Umi no Tristia",
      "link": "https://animefire.plus/animes/aoi-umi-no-tristia-todos-os-episodios",
      "texto_original": "Aoi Umi no Tristia",
      "rating": 5.71,
      "classificacao_etaria": "A10",
      "imagem_original": "https://animefire.plus/img/animes/aoi-umi-no-tristia.webp",
      "imagem_pasta": "https://animefire.plus/img/animes/aoi-umi-no-tristia/",
      "secao": "legendados",
      "pagina": 56,
      "total_episodios": 2,
      "link_video": "https://animefire.plus/video/aoi-umi-no-tristia"
    },
    {
      "id": 254,
      "nome": "Asagiri no Miko",
      "link": "https://animefire.plus/animes/asagiri-no-miko-todos-os-episodios",
      "texto_original": "Asagiri no Miko",
      "rating": 6.24,
      "classificacao_etaria": "A10",
      "imagem_original": "https://animefire.plus/img/animes/asagiri-no-miko.webp",
      "imagem_pasta": "https://animefire.plus/img/animes/asagiri-no-miko/",
      "secao": "legendados",
      "pagina": 137,
      "total_episodios": 13,
      "link_video": "https://animefire.plus/video/asagiri-no-miko"
    },
    {
      "id": 255,
      "nome": "Asateer: Mirai no Mukashi Banashi",
      "link": "https://animefire.plus/animes/asateer-mirai-no-mukashi-banashi-todos-os-episodios",
      "texto_original": "Asateer: Mirai no Mukashi Banashi",
      "rating": 5.89,
      "classificacao_etaria": "A10",
      "imagem_original": "https://animefire.plus/img/animes/asateer-mirai-no-mukashi-banashi.webp",
      "imagem_pasta": "https://animefire.plus/img/animes/asateer-mirai-no-mukashi-banashi/",
      "secao": "legendados,lancamentos",
      "pagina": 81,
      "total_episodios": 0,
      "link_video": "https://animefire.plus/video/asateer-mirai-no-mukashi-banashi"
    },
    {
      "id": 256,
      "nome": "Asatir 2: Mirai no Mukashi Banashi",
      "link": "https://animefire.plus/animes/asatir-2-mirai-no-mukashi-banashi-todos-os-episodios",
      "texto_original": "Asatir 2: Mirai no Mukashi Banashi",
      "rating": 6.37,
      "classificacao_etaria": "A10",
      "imagem_original": "https://animefire.plus/img/animes/asatir-2-mirai-no-mukashi-banashi.webp",
      "imagem_pasta": "https://animefire.plus/img/animes/asatir-2-mirai-no-mukashi-banashi/",
      "secao": "legendados",
      "pagina": 8,
      "total_episodios": 13,
      "link_video": "https://animefire.plus/video/asatir-2-mirai-no-mukashi-banashi"
    },
    {
      "id": 257,
      "nome": "Asatir: Mirai No Mukashi Banashi",
      "link": "https://animefire.plus/animes/asatir-mirai-no-mukashi-banashi-todos-os-episodios",
      "texto_original": "Asatir: Mirai No Mukashi Banashi",
      "rating": 5.89,
      "classificacao_etaria": "A10",
      "imagem_original": "https://animefire.plus/img/animes/asatir-mirai-no-mukashi-banashi.webp",
      "imagem_pasta": "https://animefire.plus/img/animes/asatir-mirai-no-mukashi-banashi/",
      "secao": "legendados,lancamentos",
      "pagina": 60,
      "total_episodios": 1,
      "link_video": "https://animefire.plus/video/asatir-mirai-no-mukashi-banashi"
    },
    {
      "id": 323,
      "nome": "Bakuten Shoot Beyblade (Dublado)",
      "link": "https://animefire.plus/animes/bakuten-shoot-beyblade-dublado-todos-os-episodios",
      "texto_original": "Bakuten Shoot Beyblade (Dublado)",
      "rating": 6.8,
      "classificacao_etaria": "A10",
      "imagem_original": "https://animefire.plus/img/animes/bakuten-shoot-beyblade.webp",
      "imagem_pasta": "https://animefire.plus/img/animes/bakuten-shoot-beyblade/",
      "secao": "dublados",
      "pagina": 27,
      "total_episodios": 51,
      "link_video": "https://animefire.plus/video/bakuten-shoot-beyblade-dublado"
    },
    {
      "id": 324,
      "nome": "Bakuten Shoot Beyblade 2002 (Dublado)",
      "link": "https://animefire.plus/animes/bakuten-shoot-beyblade-2002-dublado-todos-os-episodios",
      "texto_original": "Bakuten Shoot Beyblade 2002 (Dublado)",
      "rating": 6.75,
      "classificacao_etaria": "A10",
      "imagem_original": "https://animefire.plus/img/animes/bakuten-shoot-beyblade-2002.webp",
      "imagem_pasta": "https://animefire.plus/img/animes/bakuten-shoot-beyblade-2002/",
      "secao": "dublados",
      "pagina": 28,
      "total_episodios": 0,
      "link_video": "https://animefire.plus/video/bakuten-shoot-beyblade-2002-dublado"
    },
    {
      "id": 325,
      "nome": "Bakuten Shoot Beyblade G Revolution (Dublado)",
      "link": "https://animefire.plus/animes/bakuten-shoot-beyblade-g-revolution-dublado-todos-os-episodios",
      "texto_original": "Bakuten Shoot Beyblade G Revolution (Dublado)",
      "rating": 7.01,
      "classificacao_etaria": "A10",
      "imagem_original": "https://animefire.plus/img/animes/bakuten-shoot-beyblade-g-revolution.webp",
      "imagem_pasta": "https://animefire.plus/img/animes/bakuten-shoot-beyblade-g-revolution/",
      "secao": "dublados",
      "pagina": 27,
      "total_episodios": 11,
      "link_video": "https://animefire.plus/video/bakuten-shoot-beyblade-g-revolution-dublado"
    },
    {
      "id": 360,
      "nome": "Battle Spirits: Burning Soul",
      "link": "https://animefire.plus/animes/battle-spirits-burning-soul-todos-os-episodios",
      "texto_original": "Battle Spirits: Burning Soul",
      "rating": 6.84,
      "classificacao_etaria": "A10",
      "imagem_original": "https://animefire.plus/img/animes/battle-spirits-burning-soul.webp",
      "imagem_pasta": "https://animefire.plus/img/animes/battle-spirits-burning-soul/",
      "secao": "legendados",
      "pagina": 174,
      "total_episodios": 51,
      "link_video": "https://animefire.plus/video/battle-spirits-burning-soul"
    },
    {
      "id": 379,
      "nome": "Beyblade Burst",
      "link": "https://animefire.plus/animes/beyblade-burst-todos-os-episodios",
      "texto_original": "Beyblade Burst",
      "rating": 6.58,
      "classificacao_etaria": "A10",
      "imagem_original": "https://animefire.plus/img/animes/beyblade-burst.webp",
      "imagem_pasta": "https://animefire.plus/img/animes/beyblade-burst/",
      "secao": "legendados",
      "pagina": 173,
      "total_episodios": 2,
      "link_video": "https://animefire.plus/video/beyblade-burst"
    },
    {
      "id": 381,
      "nome": "Beyblade Burst Sparking",
      "link": "https://animefire.plus/animes/beyblade-burst-sparking-todos-os-episodios",
      "texto_original": "Beyblade Burst Sparking",
      "rating": 6.29,
      "classificacao_etaria": "A10",
      "imagem_original": "https://animefire.plus/img/animes/beyblade-burst-sparking.webp",
      "imagem_pasta": "https://animefire.plus/img/animes/beyblade-burst-sparking/",
      "secao": "legendados",
      "pagina": 50,
      "total_episodios": 1,
      "link_video": "https://animefire.plus/video/beyblade-burst-sparking"
    },
    {
      "id": 404,
      "nome": "Bishoujo Yuugi Unit Crane Game Girls",
      "link": "https://animefire.plus/animes/bishoujo-yuugi-unit-crane-game-girls-todos-os-episodios",
      "texto_original": "Bishoujo Yuugi Unit Crane Game Girls",
      "rating": 4.44,
      "classificacao_etaria": "A10",
      "imagem_original": "https://animefire.plus/img/animes/bishoujo-yuugi-unit-crane-game-girls.webp",
      "imagem_pasta": "https://animefire.plus/img/animes/bishoujo-yuugi-unit-crane-game-girls/",
      "secao": "legendados",
      "pagina": 119,
      "total_episodios": 13,
      "link_video": "https://animefire.plus/video/bishoujo-yuugi-unit-crane-game-girls"
    }
  ],
  "pagination": {
    "current_page": 1,
    "per_page": 20,
    "total_items": 119,
    "total_pages": 6,
    "has_next": true,
    "has_prev": false
  }
}
