{
  "message": "Animes com classificação etária: A14",
  "age_rating": "A14",
  "data": [
    {
      "id": 3065,
      "nome": "Radiant 2nd Season (Dublado)",
      "link": "https://animefire.plus/animes/radiant-2-dublado-todos-os-episodios",
      "texto_original": "Radiant 2nd Season (Dublado)",
      "rating": 7.62,
      "classificacao_etaria": "A14",
      "imagem_original": "https://animefire.plus/img/animes/radiant-2.webp",
      "imagem_pasta": "https://animefire.plus/img/animes/radiant-2/",
      "secao": "dublados",
      "pagina": 18,
      "total_episodios": 21,
      "link_video": "https://animefire.plus/video/radiant-2-dublado"
    },
    {
      "id": 3066,
      "nome": "Ragna Crimson (Dublado)",
      "link": "https://animefire.plus/animes/ragna-crimson-dublado-todos-os-episodios",
      "texto_original": "Ragna Crimson (Dublado)",
      "rating": 7.55,
      "classificacao_etaria": "A14",
      "imagem_original": "https://animefire.plus/img/animes/ragna-crimson.webp",
      "imagem_pasta": "https://animefire.plus/img/animes/ragna-crimson/",
      "secao": "dublados,legendados,lancamentos",
      "pagina": 5,
      "total_episodios": 24,
      "link_video": "https://animefire.plus/video/ragna-crimson-dublado"
    },
    {
      "id": 3067,
      "nome": "Ragnarök The Animation (Dublado)",
      "link": "https://animefire.plus/animes/ragnaroek-the-animation-dublado-todos-os-episodios",
      "texto_original": "Ragnarök The Animation (Dublado)",
      "rating": 6.49,
      "classificacao_etaria": "A14",
      "imagem_original": "https://animefire.plus/img/animes/ragnaroek-the-animation.webp",
      "imagem_pasta": "https://animefire.plus/img/animes/ragnaroek-the-animation/",
      "secao": "dublados,legendados",
      "pagina": 23,
      "total_episodios": 26,
      "link_video": "https://animefire.plus/video/ragnaroek-the-animation-dublado"
    },
    {
      "id": 3068,
      "nome": "RahXephon",
      "link": "https://animefire.plus/animes/rahxephon-todos-os-episodios",
      "texto_original": "RahXephon",
      "rating": 7.48,
      "classificacao_etaria": "A14",
      "imagem_original": "https://animefire.plus/img/animes/rahxephon.webp",
      "imagem_pasta": "https://animefire.plus/img/animes/rahxephon/",
      "secao": "legendados",
      "pagina": 115,
      "total_episodios": 26,
      "link_video": "https://animefire.plus/video/rahxephon"
    },
    {
      "id": 3069,
      "nome": "Rail Romanesque",
      "link": "https://animefire.plus/animes/rail-romanesque-todos-os-episodios",
      "texto_original": "Rail Romanesque",
      "rating": null,
      "classificacao_etaria": "A14",
      "imagem_original": "https://animefire.plus/img/animes/rail-romanesque.webp",
      "imagem_pasta": "https://animefire.plus/img/animes/rail-romanesque/",
      "secao": "legendados",
      "pagina": 52,
      "total_episodios": 12,
      "link_video": "https://animefire.plus/video/rail-romanesque"
    },
    {
      "id": 3070,
      "nome": "Rail Wars!",
      "link": "https://animefire.plus/animes/rail-wars-todos-os-episodios",
      "texto_original": "Rail Wars!",
      "rating": 6.46,
      "classificacao_etaria": "A14",
      "imagem_original": "https://animefire.plus/img/animes/rail-wars.webp",
      "imagem_pasta": "https://animefire.plus/img/animes/rail-wars/",
      "secao": "legendados",
      "pagina": 151,
      "total_episodios": 8,
      "link_video": "https://animefire.plus/video/rail-wars"
    },
    {
      "id": 3073,
      "nome": "Raise wa Tanin ga Ii",
      "link": "https://animefire.plus/animes/raise-wa-tanin-ga-ii-todos-os-episodios",
      "texto_original": "Raise wa Tanin ga Ii",
      "rating": 7.18,
      "classificacao_etaria": "A14",
      "imagem_original": "https://animefire.plus/img/animes/raise-wa-tanin-ga-ii.webp",
      "imagem_pasta": "https://animefire.plus/img/animes/raise-wa-tanin-ga-ii/",
      "secao": "legendados",
      "pagina": 9,
      "total_episodios": 12,
      "link_video": "https://animefire.plus/video/raise-wa-tanin-ga-ii"
    },
    {
      "id": 3075,
      "nome": "Rakugo Tennyo Oyui",
      "link": "https://animefire.plus/animes/rakugo-tennyo-oyui-todos-os-episodios",
      "texto_original": "Rakugo Tennyo Oyui",
      "rating": 6.09,
      "classificacao_etaria": "A14",
      "imagem_original": "https://animefire.plus/img/animes/rakugo-tennyo-oyui.webp",
      "imagem_pasta": "https://animefire.plus/img/animes/rakugo-tennyo-oyui/",
      "secao": "legendados",
      "pagina": 166,
      "total_episodios": 12,
      "link_video": "https://animefire.plus/video/rakugo-tennyo-oyui"
    },
    {
      "id": 3076,
      "nome": "Ramen Akaneko",
      "link": "https://animefire.plus/animes/ramen-akaneko-todos-os-episodios",
      "texto_original": "Ramen Akaneko",
      "rating": 7.38,
      "classificacao_etaria": "A14",
      "imagem_original": "https://animefire.plus/img/animes/ramen-akaneko.webp",
      "imagem_pasta": "https://animefire.plus/img/animes/ramen-akaneko/",
      "secao": "legendados",
      "pagina": 12,
      "total_episodios": 12,
      "link_video": "https://animefire.plus/video/ramen-akaneko"
    },
    {
      "id": 3077,
      "nome": "Ramen Daisuki Koizumi-san",
      "link": "https://animefire.plus/animes/ramen-daisuki-koizumi-san-todos-os-episodios",
      "texto_original": "Ramen Daisuki Koizumi-san",
      "rating": 6.54,
      "classificacao_etaria": "A14",
      "imagem_original": "https://animefire.plus/img/animes/ramen-daisuki-koizumi-san.webp",
      "imagem_pasta": "https://animefire.plus/img/animes/ramen-daisuki-koizumi-san/",
      "secao": "legendados",
      "pagina": 133,
      "total_episodios": 12,
      "link_video": "https://animefire.plus/video/ramen-daisuki-koizumi-san"
    },
    {
      "id": 3078,
      "nome": "Rang Wo Men Shao Ba",
      "link": "https://animefire.plus/animes/rang-wo-men-shao-ba-todos-os-episodios",
      "texto_original": "Rang Wo Men Shao Ba",
      "rating": 6.03,
      "classificacao_etaria": "A14",
      "imagem_original": "https://animefire.plus/img/animes/rang-wo-men-shao-ba.webp",
      "imagem_pasta": "https://animefire.plus/img/animes/rang-wo-men-shao-ba/",
      "secao": "legendados",
      "pagina": 82,
      "total_episodios": 2,
      "link_video": "https://animefire.plus/video/rang-wo-men-shao-ba"
    },
    {
      "id": 3079,
      "nome": "Ranma ½ (2024)",
      "link": "https://animefire.plus/animes/ranma-2024-todos-os-episodios",
      "texto_original": "Ranma ½ (2024)",
      "rating": 8.01,
      "classificacao_etaria": "A14",
      "imagem_original": "https://animefire.plus/img/animes/ranma-2024.webp",
      "imagem_pasta": "https://animefire.plus/img/animes/ranma-2024/",
      "secao": "legendados",
      "pagina": 11,
      "total_episodios": 12,
      "link_video": "https://animefire.plus/video/ranma-2024"
    },
    {
      "id": 3082,
      "nome": "Ray The Animation",
      "link": "https://animefire.plus/animes/ray-the-animation-todos-os-episodios",
      "texto_original": "Ray The Animation",
      "rating": 6.72,
      "classificacao_etaria": "A14",
      "imagem_original": "https://animefire.plus/img/animes/ray-the-animation.webp",
      "imagem_pasta": "https://animefire.plus/img/animes/ray-the-animation/",
      "secao": "legendados",
      "pagina": 131,
      "total_episodios": 13,
      "link_video": "https://animefire.plus/video/ray-the-animation"
    },
    {
      "id": 3084,
      "nome": "RDG: Red Data Girl",
      "link": "https://animefire.plus/animes/rdg-red-data-girl-todos-os-episodios",
      "texto_original": "RDG: Red Data Girl",
      "rating": 6.65,
      "classificacao_etaria": "A14",
      "imagem_original": "https://animefire.plus/img/animes/rdg-red-data-girl.webp",
      "imagem_pasta": "https://animefire.plus/img/animes/rdg-red-data-girl/",
      "secao": "legendados",
      "pagina": 175,
      "total_episodios": 4,
      "link_video": "https://animefire.plus/video/rdg-red-data-girl"
    },
    {
      "id": 3085,
      "nome": "Re-Kan!",
      "link": "https://animefire.plus/animes/re-kan-todos-os-episodios",
      "texto_original": "Re-Kan!",
      "rating": 6.8,
      "classificacao_etaria": "A14",
      "imagem_original": "https://animefire.plus/img/animes/re-kan.webp",
      "imagem_pasta": "https://animefire.plus/img/animes/re-kan/",
      "secao": "legendados",
      "pagina": 91,
      "total_episodios": 4,
      "link_video": "https://animefire.plus/video/re-kan"
    },
    {
      "id": 3086,
      "nome": "Re-Main (Dublado)",
      "link": "https://animefire.plus/animes/re-main-dublado-todos-os-episodios",
      "texto_original": "Re-Main (Dublado)",
      "rating": 7.19,
      "classificacao_etaria": "A14",
      "imagem_original": "https://animefire.plus/img/animes/re-main.webp",
      "imagem_pasta": "https://animefire.plus/img/animes/re-main/",
      "secao": "dublados,legendados",
      "pagina": 11,
      "total_episodios": 12,
      "link_video": "https://animefire.plus/video/re-main-dublado"
    },
    {
      "id": 3089,
      "nome": "Re:Monster (Dublado)",
      "link": "https://animefire.plus/animes/re-monster-dublado-todos-os-episodios",
      "texto_original": "Re:Monster (Dublado)",
      "rating": 6.55,
      "classificacao_etaria": "A14",
      "imagem_original": "https://animefire.plus/img/animes/re-monster.webp",
      "imagem_pasta": "https://animefire.plus/img/animes/re-monster/",
      "secao": "dublados,legendados,lancamentos",
      "pagina": 3,
      "total_episodios": 12,
      "link_video": "https://animefire.plus/video/re-monster-dublado"
    },
    {
      "id": 3090,
      "nome": "Re:Stage! Dream Days♪",
      "link": "https://animefire.plus/animes/re-stage-dream-days-todos-os-episodios",
      "texto_original": "Re:Stage! Dream Days♪",
      "rating": 6.69,
      "classificacao_etaria": "A14",
      "imagem_original": "https://animefire.plus/img/animes/re-stage-dream-days.webp",
      "imagem_pasta": "https://animefire.plus/img/animes/re-stage-dream-days/",
      "secao": "legendados",
      "pagina": 158,
      "total_episodios": 4,
      "link_video": "https://animefire.plus/video/re-stage-dream-days"
    },
    {
      "id": 3091,
      "nome": "Re:Zero kara Hajimeru Isekai Seikatsu - Memory Snow",
      "link": "https://animefire.plus/animes/re-zero-kara-hajimeru-isekai-seikatsu---memory-snow-todos-os-episodios",
      "texto_original": "Re:Zero kara Hajimeru Isekai Seikatsu - Memory Snow",
      "rating": 7.65,
      "classificacao_etaria": "A14",
      "imagem_original": "https://animefire.plus/img/animes/re-zero-kara-hajimeru-isekai-seikatsu---memory-snow.webp",
      "imagem_pasta": "https://animefire.plus/img/animes/re-zero-kara-hajimeru-isekai-seikatsu---memory-snow/",
      "secao": "legendados",
      "pagina": 98,
      "total_episodios": 1,
      "link_video": "https://animefire.plus/video/re-zero-kara-hajimeru-isekai-seikatsu---memory-snow"
    },
    {
      "id": 3097,
      "nome": "Rebirth",
      "link": "https://animefire.plus/animes/rebirth-todos-os-episodios",
      "texto_original": "Rebirth",
      "rating": 5.37,
      "classificacao_etaria": "A14",
      "imagem_original": "https://animefire.plus/img/animes/rebirth.webp",
      "imagem_pasta": "https://animefire.plus/img/animes/rebirth/",
      "secao": "legendados,lancamentos",
      "pagina": 92,
      "total_episodios": 0,
      "link_video": "https://animefire.plus/video/rebirth"
    }
  ],
  "pagination": {
    "current_page": 102,
    "per_page": 20,
    "total_items": 2988,
    "total_pages": 150,
    "has_next": true,
    "has_prev": true
  }
}
