{
  "message": "Animes com classificação etária: A14",
  "age_rating": "A14",
  "data": [
    {
      "id": 2248,
      "nome": "Love Lab",
      "link": "https://animefire.plus/animes/love-lab-todos-os-episodios",
      "texto_original": "Love Lab",
      "rating": 7.43,
      "classificacao_etaria": "A14",
      "imagem_original": "https://animefire.plus/img/animes/love-lab.webp",
      "imagem_pasta": "https://animefire.plus/img/animes/love-lab/",
      "secao": "legendados",
      "pagina": 140,
      "total_episodios": 6,
      "link_video": "https://animefire.plus/video/love-lab"
    },
    {
      "id": 2249,
      "nome": "Love Live! Nijigasaki Gakuen School Idol Doukoukai",
      "link": "https://animefire.plus/animes/love-live-nijigasaki-gakuen-school-idol-doukoukai-todos-os-episodios",
      "texto_original": "Love Live! Nijigasaki Gakuen School Idol Doukoukai",
      "rating": null,
      "classificacao_etaria": "A14",
      "imagem_original": "https://animefire.plus/img/animes/love-live-nijigasaki-gakuen-school-idol-doukoukai.webp",
      "imagem_pasta": "https://animefire.plus/img/animes/love-live-nijigasaki-gakuen-school-idol-doukoukai/",
      "secao": "legendados",
      "pagina": 52,
      "total_episodios": 13,
      "link_video": "https://animefire.plus/video/love-live-nijigasaki-gakuen-school-idol-doukoukai"
    },
    {
      "id": 2250,
      "nome": "Love Live! Nijigasaki Gakuen School Idol Doukoukai 2nd Season",
      "link": "https://animefire.plus/animes/love-live-nijigasaki-gakuen-school-idol-doukoukai-2-todos-os-episodios",
      "texto_original": "Love Live! Nijigasaki Gakuen School Idol Doukoukai 2nd Season",
      "rating": 7.66,
      "classificacao_etaria": "A14",
      "imagem_original": "https://animefire.plus/img/animes/love-live-nijigasaki-gakuen-school-idol-doukoukai-2.webp",
      "imagem_pasta": "https://animefire.plus/img/animes/love-live-nijigasaki-gakuen-school-idol-doukoukai-2/",
      "secao": "legendados",
      "pagina": 34,
      "total_episodios": 13,
      "link_video": "https://animefire.plus/video/love-live-nijigasaki-gakuen-school-idol-doukoukai-2"
    },
    {
      "id": 2251,
      "nome": "Love Live! Nijigasaki Gakuen School Idol Doukoukai: Next Sky",
      "link": "https://animefire.plus/animes/love-live-nijigasaki-gakuen-school-idol-doukoukai-next-sky-todos-os-episodios",
      "texto_original": "Love Live! Nijigasaki Gakuen School Idol Doukoukai: Next Sky",
      "rating": 7.29,
      "classificacao_etaria": "A14",
      "imagem_original": "https://animefire.plus/img/animes/love-live-nijigasaki-gakuen-school-idol-doukoukai-next-sky.webp",
      "imagem_pasta": "https://animefire.plus/img/animes/love-live-nijigasaki-gakuen-school-idol-doukoukai-next-sky/",
      "secao": "legendados",
      "pagina": 18,
      "total_episodios": 1,
      "link_video": "https://animefire.plus/video/love-live-nijigasaki-gakuen-school-idol-doukoukai-next-sky"
    },
    {
      "id": 2252,
      "nome": "Love Live! School Idol Project",
      "link": "https://animefire.plus/animes/love-live-school-idol-project-todos-os-episodios",
      "texto_original": "Love Live! School Idol Project",
      "rating": 7.57,
      "classificacao_etaria": "A14",
      "imagem_original": "https://animefire.plus/img/animes/love-live-school-idol-project.webp",
      "imagem_pasta": "https://animefire.plus/img/animes/love-live-school-idol-project/",
      "secao": "legendados",
      "pagina": 175,
      "total_episodios": 6,
      "link_video": "https://animefire.plus/video/love-live-school-idol-project"
    },
    {
      "id": 2253,
      "nome": "Love Live! School Idol Project 2nd Season",
      "link": "https://animefire.plus/animes/love-live-school-idol-project-2nd-season-todos-os-episodios",
      "texto_original": "Love Live! School Idol Project 2nd Season",
      "rating": 7.93,
      "classificacao_etaria": "A14",
      "imagem_original": "https://animefire.plus/img/animes/love-live-school-idol-project-2nd-season.webp",
      "imagem_pasta": "https://animefire.plus/img/animes/love-live-school-idol-project-2nd-season/",
      "secao": "legendados",
      "pagina": 137,
      "total_episodios": 13,
      "link_video": "https://animefire.plus/video/love-live-school-idol-project-2nd-season"
    },
    {
      "id": 2254,
      "nome": "Love Live! Sunshine!!",
      "link": "https://animefire.plus/animes/love-live-sunshine-todos-os-episodios",
      "texto_original": "Love Live! Sunshine!!",
      "rating": 7.5,
      "classificacao_etaria": "A14",
      "imagem_original": "https://animefire.plus/img/animes/love-live-sunshine.webp",
      "imagem_pasta": "https://animefire.plus/img/animes/love-live-sunshine/",
      "secao": "legendados",
      "pagina": 140,
      "total_episodios": 0,
      "link_video": "https://animefire.plus/video/love-live-sunshine"
    },
    {
      "id": 2255,
      "nome": "Love Live! Sunshine!! 2nd Season",
      "link": "https://animefire.plus/animes/love-live-sunshine-2nd-season-todos-os-episodios",
      "texto_original": "Love Live! Sunshine!! 2nd Season",
      "rating": 7.65,
      "classificacao_etaria": "A14",
      "imagem_original": "https://animefire.plus/img/animes/love-live-sunshine-2nd-season.webp",
      "imagem_pasta": "https://animefire.plus/img/animes/love-live-sunshine-2nd-season/",
      "secao": "legendados",
      "pagina": 90,
      "total_episodios": 0,
      "link_video": "https://animefire.plus/video/love-live-sunshine-2nd-season"
    },
    {
      "id": 2256,
      "nome": "Love Live! Superstar!!",
      "link": "https://animefire.plus/animes/love-live-superstar-todos-os-episodios",
      "texto_original": "Love Live! Superstar!!",
      "rating": 7.92,
      "classificacao_etaria": "A14",
      "imagem_original": "https://animefire.plus/img/animes/love-live-superstar.webp",
      "imagem_pasta": "https://animefire.plus/img/animes/love-live-superstar/",
      "secao": "legendados",
      "pagina": 40,
      "total_episodios": 12,
      "link_video": "https://animefire.plus/video/love-live-superstar"
    },
    {
      "id": 2257,
      "nome": "Love Live! Superstar!! 2nd Season",
      "link": "https://animefire.plus/animes/love-live-superstar-2nd-season-todos-os-episodios",
      "texto_original": "Love Live! Superstar!! 2nd Season",
      "rating": 7.67,
      "classificacao_etaria": "A14",
      "imagem_original": "https://animefire.plus/img/animes/love-live-superstar-2nd-season.webp",
      "imagem_pasta": "https://animefire.plus/img/animes/love-live-superstar-2nd-season/",
      "secao": "legendados",
      "pagina": 30,
      "total_episodios": 12,
      "link_video": "https://animefire.plus/video/love-live-superstar-2nd-season"
    },
    {
      "id": 2258,
      "nome": "Love Live! Superstar!! 3rd Season",
      "link": "https://animefire.plus/animes/love-live-superstar-3rd-season-todos-os-episodios",
      "texto_original": "Love Live! Superstar!! 3rd Season",
      "rating": 7.89,
      "classificacao_etaria": "A14",
      "imagem_original": "https://animefire.plus/img/animes/love-live-superstar-3rd-season.webp",
      "imagem_pasta": "https://animefire.plus/img/animes/love-live-superstar-3rd-season/",
      "secao": "legendados",
      "pagina": 9,
      "total_episodios": 12,
      "link_video": "https://animefire.plus/video/love-live-superstar-3rd-season"
    },
    {
      "id": 2259,
      "nome": "Love Stage!!",
      "link": "https://animefire.plus/animes/love-stage-todos-os-episodios",
      "texto_original": "Love Stage!!",
      "rating": 7.56,
      "classificacao_etaria": "A14",
      "imagem_original": "https://animefire.plus/img/animes/love-stage.webp",
      "imagem_pasta": "https://animefire.plus/img/animes/love-stage/",
      "secao": "legendados",
      "pagina": 165,
      "total_episodios": 4,
      "link_video": "https://animefire.plus/video/love-stage"
    },
    {
      "id": 2261,
      "nome": "Loveless",
      "link": "https://animefire.plus/animes/loveless-todos-os-episodios",
      "texto_original": "Loveless",
      "rating": 7.06,
      "classificacao_etaria": "A14",
      "imagem_original": "https://animefire.plus/img/animes/loveless.webp",
      "imagem_pasta": "https://animefire.plus/img/animes/loveless/",
      "secao": "legendados",
      "pagina": 136,
      "total_episodios": 12,
      "link_video": "https://animefire.plus/video/loveless"
    },
    {
      "id": 2262,
      "nome": "Lovely★Complex",
      "link": "https://animefire.plus/animes/lovely-complex-todos-os-episodios",
      "texto_original": "Lovely★Complex",
      "rating": 8.15,
      "classificacao_etaria": "A14",
      "imagem_original": "https://animefire.plus/img/animes/lovely-complex.webp",
      "imagem_pasta": "https://animefire.plus/img/animes/lovely-complex/",
      "secao": "legendados",
      "pagina": 154,
      "total_episodios": 24,
      "link_video": "https://animefire.plus/video/lovely-complex"
    },
    {
      "id": 2263,
      "nome": "Lu Shidai",
      "link": "https://animefire.plus/animes/lu-shidai-todos-os-episodios",
      "texto_original": "Lu Shidai",
      "rating": 6.68,
      "classificacao_etaria": "A14",
      "imagem_original": "https://animefire.plus/img/animes/lu-shidai.webp",
      "imagem_pasta": "https://animefire.plus/img/animes/lu-shidai/",
      "secao": "legendados",
      "pagina": 167,
      "total_episodios": 27,
      "link_video": "https://animefire.plus/video/lu-shidai"
    },
    {
      "id": 2264,
      "nome": "Luck & Logic",
      "link": "https://animefire.plus/animes/luck-logic-todos-os-episodios",
      "texto_original": "Luck & Logic",
      "rating": 6.2,
      "classificacao_etaria": "A14",
      "imagem_original": "https://animefire.plus/img/animes/luck-logic.webp",
      "imagem_pasta": "https://animefire.plus/img/animes/luck-logic/",
      "secao": "legendados",
      "pagina": 141,
      "total_episodios": 1,
      "link_video": "https://animefire.plus/video/luck-logic"
    },
    {
      "id": 2265,
      "nome": "Lucky☆Star",
      "link": "https://animefire.plus/animes/lucky-star-todos-os-episodios",
      "texto_original": "Lucky☆Star",
      "rating": 7.82,
      "classificacao_etaria": "A14",
      "imagem_original": "https://animefire.plus/img/animes/lucky-star.webp",
      "imagem_pasta": "https://animefire.plus/img/animes/lucky-star/",
      "secao": "legendados",
      "pagina": 135,
      "total_episodios": 24,
      "link_video": "https://animefire.plus/video/lucky-star"
    },
    {
      "id": 2266,
      "nome": "Lucky☆Star: Original na Visual to Animation",
      "link": "https://animefire.plus/animes/lucky-star-original-na-visual-to-animation-todos-os-episodios",
      "texto_original": "Lucky☆Star: Original na Visual to Animation",
      "rating": 7.84,
      "classificacao_etaria": "A14",
      "imagem_original": "https://animefire.plus/img/animes/lucky-star-original-na-visual-to-animation.webp",
      "imagem_pasta": "https://animefire.plus/img/animes/lucky-star-original-na-visual-to-animation/",
      "secao": "legendados",
      "pagina": 78,
      "total_episodios": 1,
      "link_video": "https://animefire.plus/video/lucky-star-original-na-visual-to-animation"
    },
    {
      "id": 2268,
      "nome": "Lupin III",
      "link": "https://animefire.plus/animes/lupin-iii-todos-os-episodios",
      "texto_original": "Lupin III",
      "rating": 7.69,
      "classificacao_etaria": "A14",
      "imagem_original": "https://animefire.plus/img/animes/lupin-iii.webp",
      "imagem_pasta": "https://animefire.plus/img/animes/lupin-iii/",
      "secao": "legendados",
      "pagina": 83,
      "total_episodios": 23,
      "link_video": "https://animefire.plus/video/lupin-iii"
    },
    {
      "id": 2269,
      "nome": "Lupin III (2015)",
      "link": "https://animefire.plus/animes/lupin-iii-2015-todos-os-episodios",
      "texto_original": "Lupin III (2015)",
      "rating": 7.94,
      "classificacao_etaria": "A14",
      "imagem_original": "https://animefire.plus/img/animes/lupin-iii-2015.webp",
      "imagem_pasta": "https://animefire.plus/img/animes/lupin-iii-2015/",
      "secao": "legendados",
      "pagina": 76,
      "total_episodios": 26,
      "link_video": "https://animefire.plus/video/lupin-iii-2015"
    }
  ],
  "pagination": {
    "current_page": 74,
    "per_page": 20,
    "total_items": 2988,
    "total_pages": 150,
    "has_next": true,
    "has_prev": true
  }
}
