{
  "message": "Animes com classificação etária: A14",
  "age_rating": "A14",
  "data": [
    {
      "id": 1059,
      "nome": "Futari Solo Camp",
      "link": "https://animefire.plus/animes/futari-solo-camp-todos-os-episodios",
      "texto_original": "Futari Solo Camp",
      "rating": 6.52,
      "classificacao_etaria": "A14",
      "imagem_original": "https://animefire.plus/img/animes/futari-solo-camp.webp",
      "imagem_pasta": "https://animefire.plus/img/animes/futari-solo-camp/",
      "secao": "legendados,lancamentos",
      "pagina": 1,
      "total_episodios": 4,
      "link_video": "https://animefire.plus/video/futari-solo-camp"
    },
    {
      "id": 1060,
      "nome": "Futari wa Milky Holmes",
      "link": "https://animefire.plus/animes/futari-wa-milky-holmes-todos-os-episodios",
      "texto_original": "Futari wa Milky Holmes",
      "rating": 5.82,
      "classificacao_etaria": "A14",
      "imagem_original": "https://animefire.plus/img/animes/futari-wa-milky-holmes.webp",
      "imagem_pasta": "https://animefire.plus/img/animes/futari-wa-milky-holmes/",
      "secao": "legendados",
      "pagina": 83,
      "total_episodios": 12,
      "link_video": "https://animefire.plus/video/futari-wa-milky-holmes"
    },
    {
      "id": 1064,
      "nome": "Futsal Boys!!!!!",
      "link": "https://animefire.plus/animes/futsal-boys-todos-os-episodios",
      "texto_original": "Futsal Boys!!!!!",
      "rating": 5.46,
      "classificacao_etaria": "A14",
      "imagem_original": "https://animefire.plus/img/animes/futsal-boys.webp",
      "imagem_pasta": "https://animefire.plus/img/animes/futsal-boys/",
      "secao": "legendados",
      "pagina": 35,
      "total_episodios": 12,
      "link_video": "https://animefire.plus/video/futsal-boys"
    },
    {
      "id": 1065,
      "nome": "Futsuu no Joshikousei ga [Locodol] Yattemita.",
      "link": "https://animefire.plus/animes/futsuu-no-joshikousei-ga-locodol-yattemita-todos-os-episodios",
      "texto_original": "Futsuu no Joshikousei ga [Locodol] Yattemita.",
      "rating": 6.93,
      "classificacao_etaria": "A14",
      "imagem_original": "https://animefire.plus/img/animes/futsuu-no-joshikousei-ga-locodol-yattemita.webp",
      "imagem_pasta": "https://animefire.plus/img/animes/futsuu-no-joshikousei-ga-locodol-yattemita/",
      "secao": "legendados",
      "pagina": 116,
      "total_episodios": 0,
      "link_video": "https://animefire.plus/video/futsuu-no-joshikousei-ga-locodol-yattemita"
    },
    {
      "id": 1067,
      "nome": "Fuufu Ijou, Koibito Miman. (Dublado)",
      "link": "https://animefire.plus/animes/fuufu-ijou-koibito-miman-dublado-todos-os-episodios",
      "texto_original": "Fuufu Ijou, Koibito Miman. (Dublado)",
      "rating": 7.59,
      "classificacao_etaria": "A14",
      "imagem_original": "https://animefire.plus/img/animes/fuufu-ijou-koibito-miman.webp",
      "imagem_pasta": "https://animefire.plus/img/animes/fuufu-ijou-koibito-miman/",
      "secao": "dublados,legendados",
      "pagina": 9,
      "total_episodios": 12,
      "link_video": "https://animefire.plus/video/fuufu-ijou-koibito-miman-dublado"
    },
    {
      "id": 1070,
      "nome": "Fuuto Tantei (Dublado)",
      "link": "https://animefire.plus/animes/fuuto-tantei-dublado-todos-os-episodios",
      "texto_original": "Fuuto Tantei (Dublado)",
      "rating": 7.32,
      "classificacao_etaria": "A14",
      "imagem_original": "https://animefire.plus/img/animes/fuuto-tantei.webp",
      "imagem_pasta": "https://animefire.plus/img/animes/fuuto-tantei/",
      "secao": "dublados,legendados",
      "pagina": 10,
      "total_episodios": 12,
      "link_video": "https://animefire.plus/video/fuuto-tantei-dublado"
    },
    {
      "id": 1074,
      "nome": "Gabriel DropOut",
      "link": "https://animefire.plus/animes/gabriel-dropout-todos-os-episodios",
      "texto_original": "Gabriel DropOut",
      "rating": 7.57,
      "classificacao_etaria": "A14",
      "imagem_original": "https://animefire.plus/img/animes/gabriel-dropout.webp",
      "imagem_pasta": "https://animefire.plus/img/animes/gabriel-dropout/",
      "secao": "legendados",
      "pagina": 107,
      "total_episodios": 12,
      "link_video": "https://animefire.plus/video/gabriel-dropout"
    },
    {
      "id": 1075,
      "nome": "Gachiakuta (Dublado)",
      "link": "https://animefire.plus/animes/gachiakuta-dublado-todos-os-episodios",
      "texto_original": "Gachiakuta (Dublado)",
      "rating": 8.07,
      "classificacao_etaria": "A14",
      "imagem_original": "https://animefire.plus/img/animes/gachiakuta.webp",
      "imagem_pasta": "https://animefire.plus/img/animes/gachiakuta/",
      "secao": "dublados,legendados,lancamentos",
      "pagina": 1,
      "total_episodios": 4,
      "link_video": "https://animefire.plus/video/gachiakuta-dublado"
    },
    {
      "id": 1076,
      "nome": "Gad Guard",
      "link": "https://animefire.plus/animes/gad-guard-todos-os-episodios",
      "texto_original": "Gad Guard",
      "rating": 6.76,
      "classificacao_etaria": "A14",
      "imagem_original": "https://animefire.plus/img/animes/gad-guard.webp",
      "imagem_pasta": "https://animefire.plus/img/animes/gad-guard/",
      "secao": "legendados",
      "pagina": 170,
      "total_episodios": 26,
      "link_video": "https://animefire.plus/video/gad-guard"
    },
    {
      "id": 1078,
      "nome": "Gaikotsu Shotenin Honda-san",
      "link": "https://animefire.plus/animes/gaikotsu-shotenin-honda-san-todos-os-episodios",
      "texto_original": "Gaikotsu Shotenin Honda-san",
      "rating": 7.4,
      "classificacao_etaria": "A14",
      "imagem_original": "https://animefire.plus/img/animes/gaikotsu-shotenin-honda-san.webp",
      "imagem_pasta": "https://animefire.plus/img/animes/gaikotsu-shotenin-honda-san/",
      "secao": "legendados",
      "pagina": 126,
      "total_episodios": 12,
      "link_video": "https://animefire.plus/video/gaikotsu-shotenin-honda-san"
    },
    {
      "id": 1080,
      "nome": "Gakkou no Kaidan (Dublado)",
      "link": "https://animefire.plus/animes/gakkou-no-kaidan-dublado-todos-os-episodios",
      "texto_original": "Gakkou no Kaidan (Dublado)",
      "rating": 7.7,
      "classificacao_etaria": "A14",
      "imagem_original": "https://animefire.plus/img/animes/gakkou-no-kaidan.webp",
      "imagem_pasta": "https://animefire.plus/img/animes/gakkou-no-kaidan/",
      "secao": "dublados",
      "pagina": 22,
      "total_episodios": 20,
      "link_video": "https://animefire.plus/video/gakkou-no-kaidan-dublado"
    },
    {
      "id": 1083,
      "nome": "Gakuen Babysitters",
      "link": "https://animefire.plus/animes/gakuen-babysitters-todos-os-episodios",
      "texto_original": "Gakuen Babysitters",
      "rating": 7.91,
      "classificacao_etaria": "A14",
      "imagem_original": "https://animefire.plus/img/animes/gakuen-babysitters.webp",
      "imagem_pasta": "https://animefire.plus/img/animes/gakuen-babysitters/",
      "secao": "legendados",
      "pagina": 102,
      "total_episodios": 12,
      "link_video": "https://animefire.plus/video/gakuen-babysitters"
    },
    {
      "id": 1084,
      "nome": "Gakuen Babysitters Special",
      "link": "https://animefire.plus/animes/gakuen-babysitters-special-todos-os-episodios",
      "texto_original": "Gakuen Babysitters Special",
      "rating": 7.59,
      "classificacao_etaria": "A14",
      "imagem_original": "https://animefire.plus/img/animes/gakuen-babysitters-special.webp",
      "imagem_pasta": "https://animefire.plus/img/animes/gakuen-babysitters-special/",
      "secao": "legendados",
      "pagina": 88,
      "total_episodios": 1,
      "link_video": "https://animefire.plus/video/gakuen-babysitters-special"
    },
    {
      "id": 1085,
      "nome": "Gakuen Basara",
      "link": "https://animefire.plus/animes/gakuen-basara-todos-os-episodios",
      "texto_original": "Gakuen Basara",
      "rating": 6.22,
      "classificacao_etaria": "A14",
      "imagem_original": "https://animefire.plus/img/animes/gakuen-basara.webp",
      "imagem_pasta": "https://animefire.plus/img/animes/gakuen-basara/",
      "secao": "legendados",
      "pagina": 151,
      "total_episodios": 12,
      "link_video": "https://animefire.plus/video/gakuen-basara"
    },
    {
      "id": 1086,
      "nome": "Gakuen Handsome",
      "link": "https://animefire.plus/animes/gakuen-handsome-todos-os-episodios",
      "texto_original": "Gakuen Handsome",
      "rating": 6.52,
      "classificacao_etaria": "A14",
      "imagem_original": "https://animefire.plus/img/animes/gakuen-handsome.webp",
      "imagem_pasta": "https://animefire.plus/img/animes/gakuen-handsome/",
      "secao": "legendados",
      "pagina": 171,
      "total_episodios": 7,
      "link_video": "https://animefire.plus/video/gakuen-handsome"
    },
    {
      "id": 1087,
      "nome": "Gakuen Heaven",
      "link": "https://animefire.plus/animes/gakuen-heaven-todos-os-episodios",
      "texto_original": "Gakuen Heaven",
      "rating": 6.69,
      "classificacao_etaria": "A14",
      "imagem_original": "https://animefire.plus/img/animes/gakuen-heaven.webp",
      "imagem_pasta": "https://animefire.plus/img/animes/gakuen-heaven/",
      "secao": "legendados",
      "pagina": 105,
      "total_episodios": 13,
      "link_video": "https://animefire.plus/video/gakuen-heaven"
    },
    {
      "id": 1090,
      "nome": "Gakusen Toshi Asterisk",
      "link": "https://animefire.plus/animes/gakusen-toshi-asterisk-todos-os-episodios",
      "texto_original": "Gakusen Toshi Asterisk",
      "rating": 7.09,
      "classificacao_etaria": "A14",
      "imagem_original": "https://animefire.plus/img/animes/gakusen-toshi-asterisk.webp",
      "imagem_pasta": "https://animefire.plus/img/animes/gakusen-toshi-asterisk/",
      "secao": "legendados",
      "pagina": 105,
      "total_episodios": 12,
      "link_video": "https://animefire.plus/video/gakusen-toshi-asterisk"
    },
    {
      "id": 1091,
      "nome": "Gakusen Toshi Asterisk 2nd Season",
      "link": "https://animefire.plus/animes/gakusen-toshi-asterisk-2nd-season-todos-os-episodios",
      "texto_original": "Gakusen Toshi Asterisk 2nd Season",
      "rating": 7.28,
      "classificacao_etaria": "A14",
      "imagem_original": "https://animefire.plus/img/animes/gakusen-toshi-asterisk-2nd-season.webp",
      "imagem_pasta": "https://animefire.plus/img/animes/gakusen-toshi-asterisk-2nd-season/",
      "secao": "legendados",
      "pagina": 106,
      "total_episodios": 12,
      "link_video": "https://animefire.plus/video/gakusen-toshi-asterisk-2nd-season"
    },
    {
      "id": 1092,
      "nome": "Gal to Kyouryuu",
      "link": "https://animefire.plus/animes/gal-to-kyouryuu-todos-os-episodios",
      "texto_original": "Gal to Kyouryuu",
      "rating": 6.45,
      "classificacao_etaria": "A14",
      "imagem_original": "https://animefire.plus/img/animes/gal-to-kyouryuu.webp",
      "imagem_pasta": "https://animefire.plus/img/animes/gal-to-kyouryuu/",
      "secao": "legendados",
      "pagina": 81,
      "total_episodios": 1,
      "link_video": "https://animefire.plus/video/gal-to-kyouryuu"
    },
    {
      "id": 1093,
      "nome": "Gal-gaku.: Hijiri Girls Square Gakuin",
      "link": "https://animefire.plus/animes/gal-gaku-hijiri-girls-square-gakuin-todos-os-episodios",
      "texto_original": "Gal-gaku.: Hijiri Girls Square Gakuin",
      "rating": 5.43,
      "classificacao_etaria": "A14",
      "imagem_original": "https://animefire.plus/img/animes/gal-gaku-hijiri-girls-square-gakuin.webp",
      "imagem_pasta": "https://animefire.plus/img/animes/gal-gaku-hijiri-girls-square-gakuin/",
      "secao": "legendados,lancamentos",
      "pagina": 58,
      "total_episodios": 5,
      "link_video": "https://animefire.plus/video/gal-gaku-hijiri-girls-square-gakuin"
    }
  ],
  "pagination": {
    "current_page": 35,
    "per_page": 20,
    "total_items": 2988,
    "total_pages": 150,
    "has_next": true,
    "has_prev": true
  }
}
