{
  "message": "Animes com classificação etária: A14",
  "age_rating": "A14",
  "data": [
    {
      "id": 1899,
      "nome": "Karasu wa Aruji wo Erabanai",
      "link": "https://animefire.plus/animes/karasu-wa-aruji-wo-erabanai-todos-os-episodios",
      "texto_original": "Karasu wa Aruji wo Erabanai",
      "rating": 8.05,
      "classificacao_etaria": "A14",
      "imagem_original": "https://animefire.plus/img/animes/karasu-wa-aruji-wo-erabanai.webp",
      "imagem_pasta": "https://animefire.plus/img/animes/karasu-wa-aruji-wo-erabanai/",
      "secao": "legendados",
      "pagina": 13,
      "total_episodios": 20,
      "link_video": "https://animefire.plus/video/karasu-wa-aruji-wo-erabanai"
    },
    {
      "id": 1900,
      "nome": "Karen Senki",
      "link": "https://animefire.plus/animes/karen-senki-todos-os-episodios",
      "texto_original": "Karen Senki",
      "rating": 5.82,
      "classificacao_etaria": "A14",
      "imagem_original": "https://animefire.plus/img/animes/karen-senki.webp",
      "imagem_pasta": "https://animefire.plus/img/animes/karen-senki/",
      "secao": "legendados",
      "pagina": 178,
      "total_episodios": 4,
      "link_video": "https://animefire.plus/video/karen-senki"
    },
    {
      "id": 1901,
      "nome": "Kareshi Kanojo no Jijou",
      "link": "https://animefire.plus/animes/kareshi-kanojo-no-jijou-todos-os-episodios",
      "texto_original": "Kareshi Kanojo no Jijou",
      "rating": 7.64,
      "classificacao_etaria": "A14",
      "imagem_original": "https://animefire.plus/img/animes/kareshi-kanojo-no-jijou.webp",
      "imagem_pasta": "https://animefire.plus/img/animes/kareshi-kanojo-no-jijou/",
      "secao": "legendados",
      "pagina": 171,
      "total_episodios": 14,
      "link_video": "https://animefire.plus/video/kareshi-kanojo-no-jijou"
    },
    {
      "id": 1902,
      "nome": "Karin",
      "link": "https://animefire.plus/animes/karin-todos-os-episodios",
      "texto_original": "Karin",
      "rating": 7.25,
      "classificacao_etaria": "A14",
      "imagem_original": "https://animefire.plus/img/animes/karin.webp",
      "imagem_pasta": "https://animefire.plus/img/animes/karin/",
      "secao": "legendados",
      "pagina": 161,
      "total_episodios": 24,
      "link_video": "https://animefire.plus/video/karin"
    },
    {
      "id": 1903,
      "nome": "Karneval",
      "link": "https://animefire.plus/animes/karneval-todos-os-episodios",
      "texto_original": "Karneval",
      "rating": 7.27,
      "classificacao_etaria": "A14",
      "imagem_original": "https://animefire.plus/img/animes/karneval.webp",
      "imagem_pasta": "https://animefire.plus/img/animes/karneval/",
      "secao": "legendados",
      "pagina": 161,
      "total_episodios": 9,
      "link_video": "https://animefire.plus/video/karneval"
    },
    {
      "id": 1904,
      "nome": "Karneval (TV)",
      "link": "https://animefire.plus/animes/karneval-tv-todos-os-episodios",
      "texto_original": "Karneval (TV)",
      "rating": 7.19,
      "classificacao_etaria": "A14",
      "imagem_original": "https://animefire.plus/img/animes/karneval-tv.webp",
      "imagem_pasta": "https://animefire.plus/img/animes/karneval-tv/",
      "secao": "legendados",
      "pagina": 72,
      "total_episodios": 13,
      "link_video": "https://animefire.plus/video/karneval-tv"
    },
    {
      "id": 1905,
      "nome": "Kashimashi: Girl Meets Girl",
      "link": "https://animefire.plus/animes/kashimashi-girl-meets-girl-todos-os-episodios",
      "texto_original": "Kashimashi: Girl Meets Girl",
      "rating": 6.72,
      "classificacao_etaria": "A14",
      "imagem_original": "https://animefire.plus/img/animes/kashimashi-girl-meets-girl.webp",
      "imagem_pasta": "https://animefire.plus/img/animes/kashimashi-girl-meets-girl/",
      "secao": "legendados",
      "pagina": 171,
      "total_episodios": 0,
      "link_video": "https://animefire.plus/video/kashimashi-girl-meets-girl"
    },
    {
      "id": 1906,
      "nome": "Katainaka no Ossan, Kensei ni Naru (Dublado)",
      "link": "https://animefire.plus/animes/katainaka-no-ossan-kensei-ni-naru-dublado-todos-os-episodios",
      "texto_original": "Katainaka no Ossan, Kensei ni Naru (Dublado)",
      "rating": 7.02,
      "classificacao_etaria": "A14",
      "imagem_original": "https://animefire.plus/img/animes/katainaka-no-ossan-kensei-ni-naru.webp",
      "imagem_pasta": "https://animefire.plus/img/animes/katainaka-no-ossan-kensei-ni-naru/",
      "secao": "dublados,legendados,lancamentos",
      "pagina": 1,
      "total_episodios": 12,
      "link_video": "https://animefire.plus/video/katainaka-no-ossan-kensei-ni-naru-dublado"
    },
    {
      "id": 1908,
      "nome": "Katekyo Hitman Reborn!",
      "link": "https://animefire.plus/animes/katekyo-hitman-reborn-todos-os-episodios",
      "texto_original": "Katekyo Hitman Reborn!",
      "rating": 8.27,
      "classificacao_etaria": "A14",
      "imagem_original": "https://animefire.plus/img/animes/katekyo-hitman-reborn.webp",
      "imagem_pasta": "https://animefire.plus/img/animes/katekyo-hitman-reborn/",
      "secao": "legendados",
      "pagina": 152,
      "total_episodios": 104,
      "link_video": "https://animefire.plus/video/katekyo-hitman-reborn"
    },
    {
      "id": 1910,
      "nome": "Katsugeki/Touken Ranbu",
      "link": "https://animefire.plus/animes/katsugeki-touken-ranbu-todos-os-episodios",
      "texto_original": "Katsugeki/Touken Ranbu",
      "rating": 6.79,
      "classificacao_etaria": "A14",
      "imagem_original": "https://animefire.plus/img/animes/katsugeki-touken-ranbu.webp",
      "imagem_pasta": "https://animefire.plus/img/animes/katsugeki-touken-ranbu/",
      "secao": "legendados",
      "pagina": 106,
      "total_episodios": 13,
      "link_video": "https://animefire.plus/video/katsugeki-touken-ranbu"
    },
    {
      "id": 1912,
      "nome": "Katsute Mahou Shoujo to Aku wa Tekitai shiteita.",
      "link": "https://animefire.plus/animes/katsute-mahou-shoujo-to-aku-wa-tekitai-shiteita-todos-os-episodios",
      "texto_original": "Katsute Mahou Shoujo to Aku wa Tekitai shiteita.",
      "rating": 7.56,
      "classificacao_etaria": "A14",
      "imagem_original": "https://animefire.plus/img/animes/katsute-mahou-shoujo-to-aku-wa-tekitai-shiteita.webp",
      "imagem_pasta": "https://animefire.plus/img/animes/katsute-mahou-shoujo-to-aku-wa-tekitai-shiteita/",
      "secao": "legendados",
      "pagina": 13,
      "total_episodios": 12,
      "link_video": "https://animefire.plus/video/katsute-mahou-shoujo-to-aku-wa-tekitai-shiteita"
    },
    {
      "id": 1914,
      "nome": "Kawagoe Boys Sing",
      "link": "https://animefire.plus/animes/kawagoe-boys-sing-todos-os-episodios",
      "texto_original": "Kawagoe Boys Sing",
      "rating": 5.66,
      "classificacao_etaria": "A14",
      "imagem_original": "https://animefire.plus/img/animes/kawagoe-boys-sing.webp",
      "imagem_pasta": "https://animefire.plus/img/animes/kawagoe-boys-sing/",
      "secao": "legendados",
      "pagina": 19,
      "total_episodios": 12,
      "link_video": "https://animefire.plus/video/kawagoe-boys-sing"
    },
    {
      "id": 1915,
      "nome": "Kawaii dake ja Nai Shikimori-san (Dublado)",
      "link": "https://animefire.plus/animes/kawaii-dake-ja-nai-shikimori-san-dublado-todos-os-episodios",
      "texto_original": "Kawaii dake ja Nai Shikimori-san (Dublado)",
      "rating": 6.94,
      "classificacao_etaria": "A14",
      "imagem_original": "https://animefire.plus/img/animes/kawaii-dake-ja-nai-shikimori-san.webp",
      "imagem_pasta": "https://animefire.plus/img/animes/kawaii-dake-ja-nai-shikimori-san/",
      "secao": "dublados,legendados",
      "pagina": 11,
      "total_episodios": 12,
      "link_video": "https://animefire.plus/video/kawaii-dake-ja-nai-shikimori-san-dublado"
    },
    {
      "id": 1916,
      "nome": "Kawaikereba Hentai demo Suki ni Natte Kuremasu ka?",
      "link": "https://animefire.plus/animes/kawaikereba-hentai-demo-suki-ni-natte-kuremasu-ka-todos-os-episodios",
      "texto_original": "Kawaikereba Hentai demo Suki ni Natte Kuremasu ka?",
      "rating": 6.6,
      "classificacao_etaria": "A14",
      "imagem_original": "https://animefire.plus/img/animes/kawaikereba-hentai-demo-suki-ni-natte-kuremasu-ka.webp",
      "imagem_pasta": "https://animefire.plus/img/animes/kawaikereba-hentai-demo-suki-ni-natte-kuremasu-ka/",
      "secao": "legendados",
      "pagina": 162,
      "total_episodios": 5,
      "link_video": "https://animefire.plus/video/kawaikereba-hentai-demo-suki-ni-natte-kuremasu-ka"
    },
    {
      "id": 1917,
      "nome": "Kawaisugi Crisis",
      "link": "https://animefire.plus/animes/kawaisugi-crisis-todos-os-episodios",
      "texto_original": "Kawaisugi Crisis",
      "rating": 6.81,
      "classificacao_etaria": "A14",
      "imagem_original": "https://animefire.plus/img/animes/kawaisugi-crisis.jpg",
      "imagem_pasta": "https://animefire.plus/img/animes/kawaisugi-crisis/",
      "secao": "legendados",
      "pagina": 24,
      "total_episodios": 12,
      "link_video": "https://animefire.plus/video/kawaisugi-crisis"
    },
    {
      "id": 1918,
      "nome": "Kaze ga Tsuyoku Fuiteiru",
      "link": "https://animefire.plus/animes/kaze-ga-tsuyoku-fuiteiru-todos-os-episodios",
      "texto_original": "Kaze ga Tsuyoku Fuiteiru",
      "rating": 8.52,
      "classificacao_etaria": "A14",
      "imagem_original": "https://animefire.plus/img/animes/kaze-ga-tsuyoku-fuiteiru.webp",
      "imagem_pasta": "https://animefire.plus/img/animes/kaze-ga-tsuyoku-fuiteiru/",
      "secao": "legendados",
      "pagina": 162,
      "total_episodios": 23,
      "link_video": "https://animefire.plus/video/kaze-ga-tsuyoku-fuiteiru"
    },
    {
      "id": 1920,
      "nome": "Kaze no Stigma",
      "link": "https://animefire.plus/animes/kaze-no-stigma-todos-os-episodios",
      "texto_original": "Kaze no Stigma",
      "rating": 7.4,
      "classificacao_etaria": "A14",
      "imagem_original": "https://animefire.plus/img/animes/kaze-no-stigma.webp",
      "imagem_pasta": "https://animefire.plus/img/animes/kaze-no-stigma/",
      "secao": "legendados",
      "pagina": 120,
      "total_episodios": 24,
      "link_video": "https://animefire.plus/video/kaze-no-stigma"
    },
    {
      "id": 1921,
      "nome": "Kazemakase Tsukikage Ran (Dublado)",
      "link": "https://animefire.plus/animes/kazemakase-tsukikage-ran-dublado-todos-os-episodios",
      "texto_original": "Kazemakase Tsukikage Ran (Dublado)",
      "rating": 7.16,
      "classificacao_etaria": "A14",
      "imagem_original": "https://animefire.plus/img/animes/kazemakase-tsukikage-ran.webp",
      "imagem_pasta": "https://animefire.plus/img/animes/kazemakase-tsukikage-ran/",
      "secao": "dublados",
      "pagina": 27,
      "total_episodios": 13,
      "link_video": "https://animefire.plus/video/kazemakase-tsukikage-ran-dublado"
    },
    {
      "id": 1923,
      "nome": "Keijo!!!!!!!!",
      "link": "https://animefire.plus/animes/keijo-todos-os-episodios",
      "texto_original": "Keijo!!!!!!!!",
      "rating": 7.24,
      "classificacao_etaria": "A14",
      "imagem_original": "https://animefire.plus/img/animes/keijo.webp",
      "imagem_pasta": "https://animefire.plus/img/animes/keijo/",
      "secao": "legendados",
      "pagina": 154,
      "total_episodios": 1,
      "link_video": "https://animefire.plus/video/keijo"
    },
    {
      "id": 1924,
      "nome": "Keikenzumi na Kimi to, Keiken Zero na Ore ga, Otsukiai suru Hanashi.",
      "link": "https://animefire.plus/animes/keikenzumi-na-kimi-to-keiken-zero-na-ore-ga-otsukiai-suru-hanashi-todos-os-episodios",
      "texto_original": "Keikenzumi na Kimi to, Keiken Zero na Ore ga, Otsukiai suru Hanashi.",
      "rating": 6.76,
      "classificacao_etaria": "A14",
      "imagem_original": "https://animefire.plus/img/animes/keikenzumi-na-kimi-to-keiken-zero-na-ore-ga-otsukiai-suru-hanashi.webp",
      "imagem_pasta": "https://animefire.plus/img/animes/keikenzumi-na-kimi-to-keiken-zero-na-ore-ga-otsukiai-suru-hanashi/",
      "secao": "legendados",
      "pagina": 21,
      "total_episodios": 12,
      "link_video": "https://animefire.plus/video/keikenzumi-na-kimi-to-keiken-zero-na-ore-ga-otsukiai-suru-hanashi"
    }
  ],
  "pagination": {
    "current_page": 62,
    "per_page": 20,
    "total_items": 2988,
    "total_pages": 150,
    "has_next": true,
    "has_prev": true
  }
}
