{
  "message": "Animes com classificação etária: A14",
  "age_rating": "A14",
  "data": [
    {
      "id": 973,
      "nome": "Fairy Tail: 100-nen Quest",
      "link": "https://animefire.plus/animes/fairy-tail-100-nen-quest-todos-os-episodios",
      "texto_original": "Fairy Tail: 100-nen Quest",
      "rating": 7.61,
      "classificacao_etaria": "A14",
      "imagem_original": "https://animefire.plus/img/animes/fairy-tail-100-nen-quest.webp",
      "imagem_pasta": "https://animefire.plus/img/animes/fairy-tail-100-nen-quest/",
      "secao": "legendados,lancamentos",
      "pagina": 11,
      "total_episodios": 14,
      "link_video": "https://animefire.plus/video/fairy-tail-100-nen-quest"
    },
    {
      "id": 974,
      "nome": "Fairy Tail: Final Series",
      "link": "https://animefire.plus/animes/fairy-tail-final-series-todos-os-episodios",
      "texto_original": "Fairy Tail: Final Series",
      "rating": 8.07,
      "classificacao_etaria": "A14",
      "imagem_original": "https://animefire.plus/img/animes/fairy-tail-final-series.webp",
      "imagem_pasta": "https://animefire.plus/img/animes/fairy-tail-final-series/",
      "secao": "legendados",
      "pagina": 113,
      "total_episodios": 33,
      "link_video": "https://animefire.plus/video/fairy-tail-final-series"
    },
    {
      "id": 975,
      "nome": "Fanren Xiu Xian Chuan Zhi Fanren Feng Qi Tian Nan",
      "link": "https://animefire.plus/animes/fanren-xiu-xian-chuan-zhi-fanren-feng-qi-tian-nan-todos-os-episodios",
      "texto_original": "Fanren Xiu Xian Chuan Zhi Fanren Feng Qi Tian Nan",
      "rating": null,
      "classificacao_etaria": "A14",
      "imagem_original": "https://animefire.plus/img/animes/fanren-xiu-xian-chuan-zhi-fanren-feng-qi-tian-nan.webp",
      "imagem_pasta": "https://animefire.plus/img/animes/fanren-xiu-xian-chuan-zhi-fanren-feng-qi-tian-nan/",
      "secao": "legendados",
      "pagina": 57,
      "total_episodios": 17,
      "link_video": "https://animefire.plus/video/fanren-xiu-xian-chuan-zhi-fanren-feng-qi-tian-nan"
    },
    {
      "id": 976,
      "nome": "Fantasista Doll",
      "link": "https://animefire.plus/animes/fantasista-doll-todos-os-episodios",
      "texto_original": "Fantasista Doll",
      "rating": 6.21,
      "classificacao_etaria": "A14",
      "imagem_original": "https://animefire.plus/img/animes/fantasista-doll.webp",
      "imagem_pasta": "https://animefire.plus/img/animes/fantasista-doll/",
      "secao": "legendados",
      "pagina": 127,
      "total_episodios": 5,
      "link_video": "https://animefire.plus/video/fantasista-doll"
    },
    {
      "id": 977,
      "nome": "Fantastic Children",
      "link": "https://animefire.plus/animes/fantastic-children-todos-os-episodios",
      "texto_original": "Fantastic Children",
      "rating": 7.62,
      "classificacao_etaria": "A14",
      "imagem_original": "https://animefire.plus/img/animes/fantastic-children.webp",
      "imagem_pasta": "https://animefire.plus/img/animes/fantastic-children/",
      "secao": "legendados",
      "pagina": 98,
      "total_episodios": 26,
      "link_video": "https://animefire.plus/video/fantastic-children"
    },
    {
      "id": 978,
      "nome": "Fantasy Bishoujo Juniku Ojisan to",
      "link": "https://animefire.plus/animes/fantasy-bishoujo-juniku-ojisan-to-todos-os-episodios",
      "texto_original": "Fantasy Bishoujo Juniku Ojisan to",
      "rating": 7.12,
      "classificacao_etaria": "A14",
      "imagem_original": "https://animefire.plus/img/animes/fantasy-bishoujo-juniku-ojisan-to.webp",
      "imagem_pasta": "https://animefire.plus/img/animes/fantasy-bishoujo-juniku-ojisan-to/",
      "secao": "legendados",
      "pagina": 36,
      "total_episodios": 12,
      "link_video": "https://animefire.plus/video/fantasy-bishoujo-juniku-ojisan-to"
    },
    {
      "id": 979,
      "nome": "Farmagia",
      "link": "https://animefire.plus/animes/farmagia-todos-os-episodios",
      "texto_original": "Farmagia",
      "rating": 5.65,
      "classificacao_etaria": "A14",
      "imagem_original": "https://animefire.plus/img/animes/farmagia.webp",
      "imagem_pasta": "https://animefire.plus/img/animes/farmagia/",
      "secao": "legendados",
      "pagina": 7,
      "total_episodios": 12,
      "link_video": "https://animefire.plus/video/farmagia"
    },
    {
      "id": 982,
      "nome": "Fatal Fury: Legend of the Hungry Wolf (Dublado)",
      "link": "https://animefire.plus/animes/fatal-fury-legend-of-the-hungry-wolf-dublado-todos-os-episodios",
      "texto_original": "Fatal Fury: Legend of the Hungry Wolf (Dublado)",
      "rating": 6.47,
      "classificacao_etaria": "A14",
      "imagem_original": "https://animefire.plus/img/animes/fatal-fury-legend-of-the-hungry-wolf.webp",
      "imagem_pasta": "https://animefire.plus/img/animes/fatal-fury-legend-of-the-hungry-wolf/",
      "secao": "dublados",
      "pagina": 21,
      "total_episodios": 1,
      "link_video": "https://animefire.plus/video/fatal-fury-legend-of-the-hungry-wolf-dublado"
    },
    {
      "id": 986,
      "nome": "Fate/Grand Carnival",
      "link": "https://animefire.plus/animes/fate-grand-carnival-todos-os-episodios",
      "texto_original": "Fate/Grand Carnival",
      "rating": 8.18,
      "classificacao_etaria": "A14",
      "imagem_original": "https://animefire.plus/img/animes/fate-grand-carnival.webp",
      "imagem_pasta": "https://animefire.plus/img/animes/fate-grand-carnival/",
      "secao": "legendados,lancamentos",
      "pagina": 48,
      "total_episodios": 2,
      "link_video": "https://animefire.plus/video/fate-grand-carnival"
    },
    {
      "id": 987,
      "nome": "Fate/Grand Order: First Order",
      "link": "https://animefire.plus/animes/fate-grand-order-first-order-todos-os-episodios",
      "texto_original": "Fate/Grand Order: First Order",
      "rating": 6.85,
      "classificacao_etaria": "A14",
      "imagem_original": "https://animefire.plus/img/animes/fate-grand-order-first-order.webp",
      "imagem_pasta": "https://animefire.plus/img/animes/fate-grand-order-first-order/",
      "secao": "legendados",
      "pagina": 82,
      "total_episodios": 1,
      "link_video": "https://animefire.plus/video/fate-grand-order-first-order"
    },
    {
      "id": 988,
      "nome": "Fate/Grand Order: Himuro no Tenchi - 7-nin no Saikyou Ijin-hen",
      "link": "https://animefire.plus/animes/fate-grand-order-himuro-no-tenchi---7-nin-no-saikyou-ijin-hen-todos-os-episodios",
      "texto_original": "Fate/Grand Order: Himuro no Tenchi - 7-nin no Saikyou Ijin-hen",
      "rating": 6.37,
      "classificacao_etaria": "A14",
      "imagem_original": "https://animefire.plus/img/animes/fate-grand-order-himuro-no-tenchi---7-nin-no-saikyou-ijin-hen.webp",
      "imagem_pasta": "https://animefire.plus/img/animes/fate-grand-order-himuro-no-tenchi---7-nin-no-saikyou-ijin-hen/",
      "secao": "legendados",
      "pagina": 73,
      "total_episodios": 1,
      "link_video": "https://animefire.plus/video/fate-grand-order-himuro-no-tenchi---7-nin-no-saikyou-ijin-hen"
    },
    {
      "id": 989,
      "nome": "Fate/Grand Order: Moonlight/Lostroom",
      "link": "https://animefire.plus/animes/fate-grand-order-moonlight-lostroom-todos-os-episodios",
      "texto_original": "Fate/Grand Order: Moonlight/Lostroom",
      "rating": 6.27,
      "classificacao_etaria": "A14",
      "imagem_original": "https://animefire.plus/img/animes/fate-grand-order-moonlight-lostroom.webp",
      "imagem_pasta": "https://animefire.plus/img/animes/fate-grand-order-moonlight-lostroom/",
      "secao": "legendados",
      "pagina": 97,
      "total_episodios": 1,
      "link_video": "https://animefire.plus/video/fate-grand-order-moonlight-lostroom"
    },
    {
      "id": 990,
      "nome": "Fate/Grand Order: Zettai Majuu Sensen Babylonia",
      "link": "https://animefire.plus/animes/fate-grand-order-zettai-majuu-sensen-babylonia-todos-os-episodios",
      "texto_original": "Fate/Grand Order: Zettai Majuu Sensen Babylonia",
      "rating": 7.95,
      "classificacao_etaria": "A14",
      "imagem_original": "https://animefire.plus/img/animes/fate-grand-order-zettai-majuu-sensen-babylonia.webp",
      "imagem_pasta": "https://animefire.plus/img/animes/fate-grand-order-zettai-majuu-sensen-babylonia/",
      "secao": "legendados",
      "pagina": 110,
      "total_episodios": 1,
      "link_video": "https://animefire.plus/video/fate-grand-order-zettai-majuu-sensen-babylonia"
    },
    {
      "id": 991,
      "nome": "Fate/Grand Order: Zettai Majuu Sensen Babylonia - Initium Iter",
      "link": "https://animefire.plus/animes/fate-grand-order-zettai-majuu-sensen-babylonia---initium-iter-todos-os-episodios",
      "texto_original": "Fate/Grand Order: Zettai Majuu Sensen Babylonia - Initium Iter",
      "rating": 7.21,
      "classificacao_etaria": "A14",
      "imagem_original": "https://animefire.plus/img/animes/fate-grand-order-zettai-majuu-sensen-babylonia---initium-iter.webp",
      "imagem_pasta": "https://animefire.plus/img/animes/fate-grand-order-zettai-majuu-sensen-babylonia---initium-iter/",
      "secao": "legendados",
      "pagina": 105,
      "total_episodios": 1,
      "link_video": "https://animefire.plus/video/fate-grand-order-zettai-majuu-sensen-babylonia---initium-iter"
    },
    {
      "id": 992,
      "nome": "Fate/kaleid liner Prisma☆Illya",
      "link": "https://animefire.plus/animes/fate-kaleid-liner-prisma-illya-todos-os-episodios",
      "texto_original": "Fate/kaleid liner Prisma☆Illya",
      "rating": 7.18,
      "classificacao_etaria": "A14",
      "imagem_original": "https://animefire.plus/img/animes/fate-kaleid-liner-prisma-illya.webp",
      "imagem_pasta": "https://animefire.plus/img/animes/fate-kaleid-liner-prisma-illya/",
      "secao": "legendados",
      "pagina": 89,
      "total_episodios": 5,
      "link_video": "https://animefire.plus/video/fate-kaleid-liner-prisma-illya"
    },
    {
      "id": 993,
      "nome": "Fate/kaleid Liner Prisma☆Illya 2wei Herz!",
      "link": "https://animefire.plus/animes/fate-kaleid-liner-prisma-illya-2wei-herz-todos-os-episodios",
      "texto_original": "Fate/kaleid Liner Prisma☆Illya 2wei Herz!",
      "rating": 7.35,
      "classificacao_etaria": "A14",
      "imagem_original": "https://animefire.plus/img/animes/fate-kaleid-liner-prisma-illya-2wei-herz.webp",
      "imagem_pasta": "https://animefire.plus/img/animes/fate-kaleid-liner-prisma-illya-2wei-herz/",
      "secao": "legendados",
      "pagina": 98,
      "total_episodios": 10,
      "link_video": "https://animefire.plus/video/fate-kaleid-liner-prisma-illya-2wei-herz"
    },
    {
      "id": 994,
      "nome": "Fate/kaleid liner Prisma☆Illya 2wei!",
      "link": "https://animefire.plus/animes/fate-kaleid-liner-prisma-illya-2wei-todos-os-episodios",
      "texto_original": "Fate/kaleid liner Prisma☆Illya 2wei!",
      "rating": 7.37,
      "classificacao_etaria": "A14",
      "imagem_original": "https://animefire.plus/img/animes/fate-kaleid-liner-prisma-illya-2wei.webp",
      "imagem_pasta": "https://animefire.plus/img/animes/fate-kaleid-liner-prisma-illya-2wei/",
      "secao": "legendados",
      "pagina": 89,
      "total_episodios": 10,
      "link_video": "https://animefire.plus/video/fate-kaleid-liner-prisma-illya-2wei"
    },
    {
      "id": 995,
      "nome": "Fate/kaleid liner Prisma☆Illya 3rei!!",
      "link": "https://animefire.plus/animes/fate-kaleid-liner-prisma-illya-3rei-todos-os-episodios",
      "texto_original": "Fate/kaleid liner Prisma☆Illya 3rei!!",
      "rating": 7.62,
      "classificacao_etaria": "A14",
      "imagem_original": "https://animefire.plus/img/animes/fate-kaleid-liner-prisma-illya-3rei.webp",
      "imagem_pasta": "https://animefire.plus/img/animes/fate-kaleid-liner-prisma-illya-3rei/",
      "secao": "legendados",
      "pagina": 89,
      "total_episodios": 12,
      "link_video": "https://animefire.plus/video/fate-kaleid-liner-prisma-illya-3rei"
    },
    {
      "id": 996,
      "nome": "Fate/Prototype",
      "link": "https://animefire.plus/animes/fate-prototype-todos-os-episodios",
      "texto_original": "Fate/Prototype",
      "rating": 6.79,
      "classificacao_etaria": "A14",
      "imagem_original": "https://animefire.plus/img/animes/fate-prototype.webp",
      "imagem_pasta": "https://animefire.plus/img/animes/fate-prototype/",
      "secao": "legendados",
      "pagina": 73,
      "total_episodios": 1,
      "link_video": "https://animefire.plus/video/fate-prototype"
    },
    {
      "id": 1004,
      "nome": "Fate/Zero: Onegai! Einzbern Soudanshitsu",
      "link": "https://animefire.plus/animes/fate-zero-onegai-einzbern-soudanshitsu-todos-os-episodios",
      "texto_original": "Fate/Zero: Onegai! Einzbern Soudanshitsu",
      "rating": 6.72,
      "classificacao_etaria": "A14",
      "imagem_original": "https://animefire.plus/img/animes/fate-zero-onegai-einzbern-soudanshitsu.webp",
      "imagem_pasta": "https://animefire.plus/img/animes/fate-zero-onegai-einzbern-soudanshitsu/",
      "secao": "legendados",
      "pagina": 145,
      "total_episodios": 6,
      "link_video": "https://animefire.plus/video/fate-zero-onegai-einzbern-soudanshitsu"
    }
  ],
  "pagination": {
    "current_page": 32,
    "per_page": 20,
    "total_items": 2988,
    "total_pages": 150,
    "has_next": true,
    "has_prev": true
  }
}
