{
  "message": "Animes com classificação etária: A14",
  "age_rating": "A14",
  "data": [
    {
      "id": 3502,
      "nome": "Shoukoku no Altair",
      "link": "https://animefire.plus/animes/shoukoku-no-altair-todos-os-episodios",
      "texto_original": "Shoukoku no Altair",
      "rating": 7.57,
      "classificacao_etaria": "A14",
      "imagem_original": "https://animefire.plus/img/animes/shoukoku-no-altair.webp",
      "imagem_pasta": "https://animefire.plus/img/animes/shoukoku-no-altair/",
      "secao": "legendados",
      "pagina": 149,
      "total_episodios": 21,
      "link_video": "https://animefire.plus/video/shoukoku-no-altair"
    },
    {
      "id": 3503,
      "nome": "Shoumetsu Toshi",
      "link": "https://animefire.plus/animes/shoumetsu-toshi-todos-os-episodios",
      "texto_original": "Shoumetsu Toshi",
      "rating": 5.46,
      "classificacao_etaria": "A14",
      "imagem_original": "https://animefire.plus/img/animes/shoumetsu-toshi.webp",
      "imagem_pasta": "https://animefire.plus/img/animes/shoumetsu-toshi/",
      "secao": "legendados",
      "pagina": 125,
      "total_episodios": 7,
      "link_video": "https://animefire.plus/video/shoumetsu-toshi"
    },
    {
      "id": 3504,
      "nome": "Shounen Hollywood: Holly Stage for 49",
      "link": "https://animefire.plus/animes/shounen-hollywood-holly-stage-for-49-todos-os-episodios",
      "texto_original": "Shounen Hollywood: Holly Stage for 49",
      "rating": 6.14,
      "classificacao_etaria": "A14",
      "imagem_original": "https://animefire.plus/img/animes/shounen-hollywood-holly-stage-for-49.webp",
      "imagem_pasta": "https://animefire.plus/img/animes/shounen-hollywood-holly-stage-for-49/",
      "secao": "legendados",
      "pagina": 179,
      "total_episodios": 13,
      "link_video": "https://animefire.plus/video/shounen-hollywood-holly-stage-for-49"
    },
    {
      "id": 3505,
      "nome": "Shounen Maid",
      "link": "https://animefire.plus/animes/shounen-maid-todos-os-episodios",
      "texto_original": "Shounen Maid",
      "rating": 7.39,
      "classificacao_etaria": "A14",
      "imagem_original": "https://animefire.plus/img/animes/shounen-maid.webp",
      "imagem_pasta": "https://animefire.plus/img/animes/shounen-maid/",
      "secao": "legendados",
      "pagina": 148,
      "total_episodios": 12,
      "link_video": "https://animefire.plus/video/shounen-maid"
    },
    {
      "id": 3506,
      "nome": "Shounen Onmyouji",
      "link": "https://animefire.plus/animes/shounen-onmyouji-todos-os-episodios",
      "texto_original": "Shounen Onmyouji",
      "rating": 7.65,
      "classificacao_etaria": "A14",
      "imagem_original": "https://animefire.plus/img/animes/shounen-onmyouji.webp",
      "imagem_pasta": "https://animefire.plus/img/animes/shounen-onmyouji/",
      "secao": "legendados",
      "pagina": 122,
      "total_episodios": 21,
      "link_video": "https://animefire.plus/video/shounen-onmyouji"
    },
    {
      "id": 3508,
      "nome": "Shoushimin Series",
      "link": "https://animefire.plus/animes/shoushimin-series-todos-os-episodios",
      "texto_original": "Shoushimin Series",
      "rating": 7.34,
      "classificacao_etaria": "A14",
      "imagem_original": "https://animefire.plus/img/animes/shoushimin-series.webp",
      "imagem_pasta": "https://animefire.plus/img/animes/shoushimin-series/",
      "secao": "legendados",
      "pagina": 13,
      "total_episodios": 10,
      "link_video": "https://animefire.plus/video/shoushimin-series"
    },
    {
      "id": 3509,
      "nome": "Shoushimin Series 2nd Season",
      "link": "https://animefire.plus/animes/shoushimin-series-2nd-season-todos-os-episodios",
      "texto_original": "Shoushimin Series 2nd Season",
      "rating": 8.06,
      "classificacao_etaria": "A14",
      "imagem_original": "https://animefire.plus/img/animes/shoushimin-series-2nd-season.webp",
      "imagem_pasta": "https://animefire.plus/img/animes/shoushimin-series-2nd-season/",
      "secao": "legendados",
      "pagina": 5,
      "total_episodios": 12,
      "link_video": "https://animefire.plus/video/shoushimin-series-2nd-season"
    },
    {
      "id": 3510,
      "nome": "Shouwa Genroku Rakugo Shinjuu",
      "link": "https://animefire.plus/animes/shouwa-genroku-rakugo-shinjuu-todos-os-episodios",
      "texto_original": "Shouwa Genroku Rakugo Shinjuu",
      "rating": 8.6,
      "classificacao_etaria": "A14",
      "imagem_original": "https://animefire.plus/img/animes/shouwa-genroku-rakugo-shinjuu.webp",
      "imagem_pasta": "https://animefire.plus/img/animes/shouwa-genroku-rakugo-shinjuu/",
      "secao": "legendados",
      "pagina": 102,
      "total_episodios": 13,
      "link_video": "https://animefire.plus/video/shouwa-genroku-rakugo-shinjuu"
    },
    {
      "id": 3511,
      "nome": "Shouwa Genroku Rakugo Shinjuu: Sukeroku Futatabi-hen",
      "link": "https://animefire.plus/animes/shouwa-genroku-rakugo-shinjuu-sukeroku-futatabi-hen-todos-os-episodios",
      "texto_original": "Shouwa Genroku Rakugo Shinjuu: Sukeroku Futatabi-hen",
      "rating": 8.81,
      "classificacao_etaria": "A14",
      "imagem_original": "https://animefire.plus/img/animes/shouwa-genroku-rakugo-shinjuu-sukeroku-futatabi-hen.webp",
      "imagem_pasta": "https://animefire.plus/img/animes/shouwa-genroku-rakugo-shinjuu-sukeroku-futatabi-hen/",
      "secao": "legendados",
      "pagina": 65,
      "total_episodios": 12,
      "link_video": "https://animefire.plus/video/shouwa-genroku-rakugo-shinjuu-sukeroku-futatabi-hen"
    },
    {
      "id": 3512,
      "nome": "Shouxi Yu Ling Shi",
      "link": "https://animefire.plus/animes/shouxi-yu-ling-shi-todos-os-episodios",
      "texto_original": "Shouxi Yu Ling Shi",
      "rating": 6.52,
      "classificacao_etaria": "A14",
      "imagem_original": "https://animefire.plus/img/animes/shouxi-yu-ling-shi.webp",
      "imagem_pasta": "https://animefire.plus/img/animes/shouxi-yu-ling-shi/",
      "secao": "legendados,lancamentos",
      "pagina": 58,
      "total_episodios": 8,
      "link_video": "https://animefire.plus/video/shouxi-yu-ling-shi"
    },
    {
      "id": 3513,
      "nome": "Show By Rock!!",
      "link": "https://animefire.plus/animes/show-by-rock-todos-os-episodios",
      "texto_original": "Show By Rock!!",
      "rating": 7.12,
      "classificacao_etaria": "A14",
      "imagem_original": "https://animefire.plus/img/animes/show-by-rock.webp",
      "imagem_pasta": "https://animefire.plus/img/animes/show-by-rock/",
      "secao": "legendados",
      "pagina": 120,
      "total_episodios": 0,
      "link_video": "https://animefire.plus/video/show-by-rock"
    },
    {
      "id": 3514,
      "nome": "Show By Rock!! Mashumairesh!!",
      "link": "https://animefire.plus/animes/show-by-rock-mashumairesh-todos-os-episodios",
      "texto_original": "Show By Rock!! Mashumairesh!!",
      "rating": 6.91,
      "classificacao_etaria": "A14",
      "imagem_original": "https://animefire.plus/img/animes/show-by-rock-mashumairesh.webp",
      "imagem_pasta": "https://animefire.plus/img/animes/show-by-rock-mashumairesh/",
      "secao": "legendados",
      "pagina": 93,
      "total_episodios": 0,
      "link_video": "https://animefire.plus/video/show-by-rock-mashumairesh"
    },
    {
      "id": 3515,
      "nome": "Show by Rock!! Stars!!",
      "link": "https://animefire.plus/animes/show-by-rock-stars-todos-os-episodios",
      "texto_original": "Show by Rock!! Stars!!",
      "rating": 7.14,
      "classificacao_etaria": "A14",
      "imagem_original": "https://animefire.plus/img/animes/show-by-rock-stars.webp",
      "imagem_pasta": "https://animefire.plus/img/animes/show-by-rock-stars/",
      "secao": "legendados",
      "pagina": 49,
      "total_episodios": 12,
      "link_video": "https://animefire.plus/video/show-by-rock-stars"
    },
    {
      "id": 3517,
      "nome": "Shuffle! Memories",
      "link": "https://animefire.plus/animes/shuffle-memories-todos-os-episodios",
      "texto_original": "Shuffle! Memories",
      "rating": 6.61,
      "classificacao_etaria": "A14",
      "imagem_original": "https://animefire.plus/img/animes/shuffle-memories.webp",
      "imagem_pasta": "https://animefire.plus/img/animes/shuffle-memories/",
      "secao": "legendados",
      "pagina": 132,
      "total_episodios": 12,
      "link_video": "https://animefire.plus/video/shuffle-memories"
    },
    {
      "id": 3521,
      "nome": "Shuumatsu Nani Shitemasu ka? Isogashii Desu ka? Sukutte Moratte Ii Desu ka?",
      "link": "https://animefire.plus/animes/shuumatsu-nani-shitemasu-ka-isogashii-desu-ka-sukutte-moratte-ii-desu-ka-todos-os-episodios",
      "texto_original": "Shuumatsu Nani Shitemasu ka? Isogashii Desu ka? Sukutte Moratte Ii Desu ka?",
      "rating": 7.83,
      "classificacao_etaria": "A14",
      "imagem_original": "https://animefire.plus/img/animes/shuumatsu-nani-shitemasu-ka-isogashii-desu-ka-sukutte-moratte-ii-desu-ka.webp",
      "imagem_pasta": "https://animefire.plus/img/animes/shuumatsu-nani-shitemasu-ka-isogashii-desu-ka-sukutte-moratte-ii-desu-ka/",
      "secao": "legendados",
      "pagina": 155,
      "total_episodios": 12,
      "link_video": "https://animefire.plus/video/shuumatsu-nani-shitemasu-ka-isogashii-desu-ka-sukutte-moratte-ii-desu-ka"
    },
    {
      "id": 3526,
      "nome": "Shuumatsu Train Doko e Iku?",
      "link": "https://animefire.plus/animes/shuumatsu-train-doko-e-iku-todos-os-episodios",
      "texto_original": "Shuumatsu Train Doko e Iku?",
      "rating": 7.37,
      "classificacao_etaria": "A14",
      "imagem_original": "https://animefire.plus/img/animes/shuumatsu-train-doko-e-iku.webp",
      "imagem_pasta": "https://animefire.plus/img/animes/shuumatsu-train-doko-e-iku/",
      "secao": "legendados",
      "pagina": 14,
      "total_episodios": 12,
      "link_video": "https://animefire.plus/video/shuumatsu-train-doko-e-iku"
    },
    {
      "id": 3527,
      "nome": "Shy (Dublado)",
      "link": "https://animefire.plus/animes/shy-dublado-todos-os-episodios",
      "texto_original": "Shy (Dublado)",
      "rating": 6.71,
      "classificacao_etaria": "A14",
      "imagem_original": "https://animefire.plus/img/animes/shy.webp",
      "imagem_pasta": "https://animefire.plus/img/animes/shy/",
      "secao": "dublados",
      "pagina": 5,
      "total_episodios": 12,
      "link_video": "https://animefire.plus/video/shy-dublado"
    },
    {
      "id": 3528,
      "nome": "Shy 2nd Season",
      "link": "https://animefire.plus/animes/shy-2nd-season-todos-os-episodios",
      "texto_original": "Shy 2nd Season",
      "rating": 6.92,
      "classificacao_etaria": "A14",
      "imagem_original": "https://animefire.plus/img/animes/shy-2nd-season.webp",
      "imagem_pasta": "https://animefire.plus/img/animes/shy-2nd-season/",
      "secao": "legendados",
      "pagina": 12,
      "total_episodios": 12,
      "link_video": "https://animefire.plus/video/shy-2nd-season"
    },
    {
      "id": 3533,
      "nome": "Silent Möbius",
      "link": "https://animefire.plus/animes/silent-moebius-todos-os-episodios",
      "texto_original": "Silent Möbius",
      "rating": 6.88,
      "classificacao_etaria": "A14",
      "imagem_original": "https://animefire.plus/img/animes/silent-moebius.webp",
      "imagem_pasta": "https://animefire.plus/img/animes/silent-moebius/",
      "secao": "legendados",
      "pagina": 136,
      "total_episodios": 26,
      "link_video": "https://animefire.plus/video/silent-moebius"
    },
    {
      "id": 3534,
      "nome": "Silent Witch: Chinmoku no Majo no Kakushigoto",
      "link": "https://animefire.plus/animes/silent-witch-chinmoku-no-majo-no-kakushigoto-todos-os-episodios",
      "texto_original": "Silent Witch: Chinmoku no Majo no Kakushigoto",
      "rating": 7.98,
      "classificacao_etaria": "A14",
      "imagem_original": "https://animefire.plus/img/animes/silent-witch-chinmoku-no-majo-no-kakushigoto.webp",
      "imagem_pasta": "https://animefire.plus/img/animes/silent-witch-chinmoku-no-majo-no-kakushigoto/",
      "secao": "legendados,lancamentos",
      "pagina": 3,
      "total_episodios": 5,
      "link_video": "https://animefire.plus/video/silent-witch-chinmoku-no-majo-no-kakushigoto"
    }
  ],
  "pagination": {
    "current_page": 118,
    "per_page": 20,
    "total_items": 2988,
    "total_pages": 150,
    "has_next": true,
    "has_prev": true
  }
}
