{
  "message": "Animes com classificação etária: A14",
  "age_rating": "A14",
  "data": [
    {
      "id": 3171,
      "nome": "Ryuu no Haisha",
      "link": "https://animefire.plus/animes/ryuu-no-haisha-todos-os-episodios",
      "texto_original": "Ryuu no Haisha",
      "rating": 7.46,
      "classificacao_etaria": "A14",
      "imagem_original": "https://animefire.plus/img/animes/ryuu-no-haisha.webp",
      "imagem_pasta": "https://animefire.plus/img/animes/ryuu-no-haisha/",
      "secao": "legendados",
      "pagina": 71,
      "total_episodios": 1,
      "link_video": "https://animefire.plus/video/ryuu-no-haisha"
    },
    {
      "id": 3172,
      "nome": "Ryuugajou Nanana no Maizoukin",
      "link": "https://animefire.plus/animes/ryuugajou-nanana-no-maizoukin-todos-os-episodios",
      "texto_original": "Ryuugajou Nanana no Maizoukin",
      "rating": 7.27,
      "classificacao_etaria": "A14",
      "imagem_original": "https://animefire.plus/img/animes/ryuugajou-nanana-no-maizoukin.webp",
      "imagem_pasta": "https://animefire.plus/img/animes/ryuugajou-nanana-no-maizoukin/",
      "secao": "legendados",
      "pagina": 163,
      "total_episodios": 11,
      "link_video": "https://animefire.plus/video/ryuugajou-nanana-no-maizoukin"
    },
    {
      "id": 3173,
      "nome": "Ryuuou no Oshigoto!",
      "link": "https://animefire.plus/animes/ryuuou-no-oshigoto-todos-os-episodios",
      "texto_original": "Ryuuou no Oshigoto!",
      "rating": 7.05,
      "classificacao_etaria": "A14",
      "imagem_original": "https://animefire.plus/img/animes/ryuuou-no-oshigoto.webp",
      "imagem_pasta": "https://animefire.plus/img/animes/ryuuou-no-oshigoto/",
      "secao": "legendados",
      "pagina": 102,
      "total_episodios": 12,
      "link_video": "https://animefire.plus/video/ryuuou-no-oshigoto"
    },
    {
      "id": 3176,
      "nome": "Ryuuseiki Gakusaver",
      "link": "https://animefire.plus/animes/ryuuseiki-gakusaver-todos-os-episodios",
      "texto_original": "Ryuuseiki Gakusaver",
      "rating": 6.49,
      "classificacao_etaria": "A14",
      "imagem_original": "https://animefire.plus/img/animes/ryuuseiki-gakusaver.webp",
      "imagem_pasta": "https://animefire.plus/img/animes/ryuuseiki-gakusaver/",
      "secao": "legendados",
      "pagina": 56,
      "total_episodios": 6,
      "link_video": "https://animefire.plus/video/ryuuseiki-gakusaver"
    },
    {
      "id": 3177,
      "nome": "Ryza no Atelier: Tokoyami no Joou to Himitsu no Kakurega",
      "link": "https://animefire.plus/animes/ryza-no-atelier-tokoyami-no-joou-to-himitsu-no-kakurega-todos-os-episodios",
      "texto_original": "Ryza no Atelier: Tokoyami no Joou to Himitsu no Kakurega",
      "rating": 6.41,
      "classificacao_etaria": "A14",
      "imagem_original": "https://animefire.plus/img/animes/ryza-no-atelier-tokoyami-no-joou-to-himitsu-no-kakurega.jpg",
      "imagem_pasta": "https://animefire.plus/img/animes/ryza-no-atelier-tokoyami-no-joou-to-himitsu-no-kakurega/",
      "secao": "legendados",
      "pagina": 23,
      "total_episodios": 12,
      "link_video": "https://animefire.plus/video/ryza-no-atelier-tokoyami-no-joou-to-himitsu-no-kakurega"
    },
    {
      "id": 3179,
      "nome": "s.CRY.ed",
      "link": "https://animefire.plus/animes/s-cry-ed-todos-os-episodios",
      "texto_original": "s.CRY.ed",
      "rating": 7.42,
      "classificacao_etaria": "A14",
      "imagem_original": "https://animefire.plus/img/animes/s-cry-ed.webp",
      "imagem_pasta": "https://animefire.plus/img/animes/s-cry-ed/",
      "secao": "legendados",
      "pagina": 175,
      "total_episodios": 25,
      "link_video": "https://animefire.plus/video/s-cry-ed"
    },
    {
      "id": 3180,
      "nome": "Sabage-bu!",
      "link": "https://animefire.plus/animes/sabage-bu-todos-os-episodios",
      "texto_original": "Sabage-bu!",
      "rating": 7.43,
      "classificacao_etaria": "A14",
      "imagem_original": "https://animefire.plus/img/animes/sabage-bu.webp",
      "imagem_pasta": "https://animefire.plus/img/animes/sabage-bu/",
      "secao": "legendados",
      "pagina": 111,
      "total_episodios": 12,
      "link_video": "https://animefire.plus/video/sabage-bu"
    },
    {
      "id": 3181,
      "nome": "Sabage-bu! Specials",
      "link": "https://animefire.plus/animes/sabage-bu-specials-todos-os-episodios",
      "texto_original": "Sabage-bu! Specials",
      "rating": 7.32,
      "classificacao_etaria": "A14",
      "imagem_original": "https://animefire.plus/img/animes/sabage-bu-specials.webp",
      "imagem_pasta": "https://animefire.plus/img/animes/sabage-bu-specials/",
      "secao": "legendados",
      "pagina": 85,
      "total_episodios": 6,
      "link_video": "https://animefire.plus/video/sabage-bu-specials"
    },
    {
      "id": 3182,
      "nome": "Saber Marionette J (Dublado)",
      "link": "https://animefire.plus/animes/saber-marionette-j-dublado-todos-os-episodios",
      "texto_original": "Saber Marionette J (Dublado)",
      "rating": 7.37,
      "classificacao_etaria": "A14",
      "imagem_original": "https://animefire.plus/img/animes/saber-marionette-j.webp",
      "imagem_pasta": "https://animefire.plus/img/animes/saber-marionette-j/",
      "secao": "dublados,legendados",
      "pagina": 21,
      "total_episodios": 24,
      "link_video": "https://animefire.plus/video/saber-marionette-j-dublado"
    },
    {
      "id": 3183,
      "nome": "Sabiiro no Armor: Reimei",
      "link": "https://animefire.plus/animes/sabiiro-no-armor-reimei-todos-os-episodios",
      "texto_original": "Sabiiro no Armor: Reimei",
      "rating": 3.8,
      "classificacao_etaria": "A14",
      "imagem_original": "https://animefire.plus/img/animes/sabiiro-no-armor-reimei.webp",
      "imagem_pasta": "https://animefire.plus/img/animes/sabiiro-no-armor-reimei/",
      "secao": "legendados",
      "pagina": 35,
      "total_episodios": 12,
      "link_video": "https://animefire.plus/video/sabiiro-no-armor-reimei"
    },
    {
      "id": 3184,
      "nome": "Sabikui Bisco (Dublado)",
      "link": "https://animefire.plus/animes/sabikui-bisco-dublado-todos-os-episodios",
      "texto_original": "Sabikui Bisco (Dublado)",
      "rating": 7.14,
      "classificacao_etaria": "A14",
      "imagem_original": "https://animefire.plus/img/animes/sabikui-bisco.webp",
      "imagem_pasta": "https://animefire.plus/img/animes/sabikui-bisco/",
      "secao": "dublados,legendados",
      "pagina": 12,
      "total_episodios": 12,
      "link_video": "https://animefire.plus/video/sabikui-bisco-dublado"
    },
    {
      "id": 3185,
      "nome": "Sacred Seven",
      "link": "https://animefire.plus/animes/sacred-seven-todos-os-episodios",
      "texto_original": "Sacred Seven",
      "rating": 6.7,
      "classificacao_etaria": "A14",
      "imagem_original": "https://animefire.plus/img/animes/sacred-seven.webp",
      "imagem_pasta": "https://animefire.plus/img/animes/sacred-seven/",
      "secao": "legendados",
      "pagina": 149,
      "total_episodios": 12,
      "link_video": "https://animefire.plus/video/sacred-seven"
    },
    {
      "id": 3186,
      "nome": "Saenai Heroine no Sodatekata",
      "link": "https://animefire.plus/animes/saekano-how-to-raise-a-boring-girlfriend-todos-os-episodios",
      "texto_original": "Saenai Heroine no Sodatekata",
      "rating": 7.58,
      "classificacao_etaria": "A14",
      "imagem_original": "https://animefire.plus/img/animes/saekano-how-to-raise-a-boring-girlfriend.webp",
      "imagem_pasta": "https://animefire.plus/img/animes/saekano-how-to-raise-a-boring-girlfriend/",
      "secao": "legendados",
      "pagina": 62,
      "total_episodios": 13,
      "link_video": "https://animefire.plus/video/saekano-how-to-raise-a-boring-girlfriend"
    },
    {
      "id": 3187,
      "nome": "Saenai Heroine no Sodatekata ♭",
      "link": "https://animefire.plus/animes/saenai-heroine-no-sodatekata-todos-os-episodios",
      "texto_original": "Saenai Heroine no Sodatekata ♭",
      "rating": 7.87,
      "classificacao_etaria": "A14",
      "imagem_original": "https://animefire.plus/img/animes/saenai-heroine-no-sodatekata.webp",
      "imagem_pasta": "https://animefire.plus/img/animes/saenai-heroine-no-sodatekata/",
      "secao": "legendados",
      "pagina": 145,
      "total_episodios": 11,
      "link_video": "https://animefire.plus/video/saenai-heroine-no-sodatekata"
    },
    {
      "id": 3188,
      "nome": "Saihate no Paladin (Dublado)",
      "link": "https://animefire.plus/animes/saihate-no-paladin-dublado-todos-os-episodios",
      "texto_original": "Saihate no Paladin (Dublado)",
      "rating": 6.88,
      "classificacao_etaria": "A14",
      "imagem_original": "https://animefire.plus/img/animes/saihate-no-paladin.webp",
      "imagem_pasta": "https://animefire.plus/img/animes/saihate-no-paladin/",
      "secao": "dublados,legendados",
      "pagina": 14,
      "total_episodios": 12,
      "link_video": "https://animefire.plus/video/saihate-no-paladin-dublado"
    },
    {
      "id": 3189,
      "nome": "Saihate no Paladin: Tetsusabi no Yama no Ou (Dublado)",
      "link": "https://animefire.plus/animes/saihate-no-paladin-tetsusabi-no-yama-no-ou-dublado-todos-os-episodios",
      "texto_original": "Saihate no Paladin: Tetsusabi no Yama no Ou (Dublado)",
      "rating": 7.43,
      "classificacao_etaria": "A14",
      "imagem_original": "https://animefire.plus/img/animes/saihate-no-paladin-tetsusabi-no-yama-no-ou.webp",
      "imagem_pasta": "https://animefire.plus/img/animes/saihate-no-paladin-tetsusabi-no-yama-no-ou/",
      "secao": "dublados,legendados",
      "pagina": 5,
      "total_episodios": 12,
      "link_video": "https://animefire.plus/video/saihate-no-paladin-tetsusabi-no-yama-no-ou-dublado"
    },
    {
      "id": 3190,
      "nome": "Saijaku Muhai no Bahamut",
      "link": "https://animefire.plus/animes/saijaku-muhai-no-bahamut-todos-os-episodios",
      "texto_original": "Saijaku Muhai no Bahamut",
      "rating": 6.84,
      "classificacao_etaria": "A14",
      "imagem_original": "https://animefire.plus/img/animes/saijaku-muhai-no-bahamut.webp",
      "imagem_pasta": "https://animefire.plus/img/animes/saijaku-muhai-no-bahamut/",
      "secao": "legendados",
      "pagina": 158,
      "total_episodios": 1,
      "link_video": "https://animefire.plus/video/saijaku-muhai-no-bahamut"
    },
    {
      "id": 3191,
      "nome": "Saijaku Tamer wa Gomi Hiroi no Tabi wo Hajimemashita. (Dublado)",
      "link": "https://animefire.plus/animes/saijaku-tamer-wa-gomi-hiroi-no-tabi-wo-hajimemashita-dublado-todos-os-episodios",
      "texto_original": "Saijaku Tamer wa Gomi Hiroi no Tabi wo Hajimemashita. (Dublado)",
      "rating": 7.56,
      "classificacao_etaria": "A14",
      "imagem_original": "https://animefire.plus/img/animes/saijaku-tamer-wa-gomi-hiroi-no-tabi-wo-hajimemashita.webp",
      "imagem_pasta": "https://animefire.plus/img/animes/saijaku-tamer-wa-gomi-hiroi-no-tabi-wo-hajimemashita/",
      "secao": "dublados,legendados",
      "pagina": 4,
      "total_episodios": 12,
      "link_video": "https://animefire.plus/video/saijaku-tamer-wa-gomi-hiroi-no-tabi-wo-hajimemashita-dublado"
    },
    {
      "id": 3192,
      "nome": "Saiki Kusuo no Ψ-nan",
      "link": "https://animefire.plus/animes/saiki-kusuo-no--nan-todos-os-episodios",
      "texto_original": "Saiki Kusuo no Ψ-nan",
      "rating": 8.49,
      "classificacao_etaria": "A14",
      "imagem_original": "https://animefire.plus/img/animes/saiki-kusuo-no--nan.webp",
      "imagem_pasta": "https://animefire.plus/img/animes/saiki-kusuo-no--nan/",
      "secao": "legendados",
      "pagina": 58,
      "total_episodios": 4,
      "link_video": "https://animefire.plus/video/saiki-kusuo-no--nan"
    },
    {
      "id": 3193,
      "nome": "Saiki Kusuo no Ψ-nan 2",
      "link": "https://animefire.plus/animes/saiki-kusuo-no--nan-2-todos-os-episodios",
      "texto_original": "Saiki Kusuo no Ψ-nan 2",
      "rating": 8.54,
      "classificacao_etaria": "A14",
      "imagem_original": "https://animefire.plus/img/animes/saiki-kusuo-no--nan-2.webp",
      "imagem_pasta": "https://animefire.plus/img/animes/saiki-kusuo-no--nan-2/",
      "secao": "legendados",
      "pagina": 58,
      "total_episodios": 24,
      "link_video": "https://animefire.plus/video/saiki-kusuo-no--nan-2"
    }
  ],
  "pagination": {
    "current_page": 106,
    "per_page": 20,
    "total_items": 2988,
    "total_pages": 150,
    "has_next": true,
    "has_prev": true
  }
}
