{
  "message": "Animes com classificação etária: A14",
  "age_rating": "A14",
  "data": [
    {
      "id": 2657,
      "nome": "Nanatsu no Maken ga Shihai suru",
      "link": "https://animefire.plus/animes/nanatsu-no-maken-ga-shihai-suru-todos-os-episodios",
      "texto_original": "Nanatsu no Maken ga Shihai suru",
      "rating": 6.56,
      "classificacao_etaria": "A14",
      "imagem_original": "https://animefire.plus/img/animes/nanatsu-no-maken-ga-shihai-suru.jpg",
      "imagem_pasta": "https://animefire.plus/img/animes/nanatsu-no-maken-ga-shihai-suru/",
      "secao": "legendados",
      "pagina": 23,
      "total_episodios": 15,
      "link_video": "https://animefire.plus/video/nanatsu-no-maken-ga-shihai-suru"
    },
    {
      "id": 2658,
      "nome": "Nanatsu no Taizai (Dublado)",
      "link": "https://animefire.plus/animes/nanatsu-no-taizai-dublado-todos-os-episodios",
      "texto_original": "Nanatsu no Taizai (Dublado)",
      "rating": 8.18,
      "classificacao_etaria": "A14",
      "imagem_original": "https://animefire.plus/img/animes/nanatsu-no-taizai.webp",
      "imagem_pasta": "https://animefire.plus/img/animes/nanatsu-no-taizai/",
      "secao": "dublados,legendados",
      "pagina": 26,
      "total_episodios": 24,
      "link_video": "https://animefire.plus/video/nanatsu-no-taizai-dublado"
    },
    {
      "id": 2659,
      "nome": "Nanatsu no Taizai Movie: Tenkuu no Torawarebito",
      "link": "https://animefire.plus/animes/nanatsu-no-taizai-movie-tenkuu-no-torawarebito-todos-os-episodios",
      "texto_original": "Nanatsu no Taizai Movie: Tenkuu no Torawarebito",
      "rating": 7.66,
      "classificacao_etaria": "A14",
      "imagem_original": "https://animefire.plus/img/animes/nanatsu-no-taizai-movie-tenkuu-no-torawarebito.webp",
      "imagem_pasta": "https://animefire.plus/img/animes/nanatsu-no-taizai-movie-tenkuu-no-torawarebito/",
      "secao": "legendados",
      "pagina": 106,
      "total_episodios": 3,
      "link_video": "https://animefire.plus/video/nanatsu-no-taizai-movie-tenkuu-no-torawarebito"
    },
    {
      "id": 2660,
      "nome": "Nanatsu no Taizai OVA",
      "link": "https://animefire.plus/animes/nanatsu-no-taizai-ova-todos-os-episodios",
      "texto_original": "Nanatsu no Taizai OVA",
      "rating": 7.57,
      "classificacao_etaria": "A14",
      "imagem_original": "https://animefire.plus/img/animes/nanatsu-no-taizai-ova.webp",
      "imagem_pasta": "https://animefire.plus/img/animes/nanatsu-no-taizai-ova/",
      "secao": "legendados",
      "pagina": 43,
      "total_episodios": 2,
      "link_video": "https://animefire.plus/video/nanatsu-no-taizai-ova"
    },
    {
      "id": 2661,
      "nome": "Nanatsu no Taizai: Eiyuu-tachi wa Hashagu",
      "link": "https://animefire.plus/animes/nanatsu-no-taizai-eiyuu-tachi-wa-hashagu-todos-os-episodios",
      "texto_original": "Nanatsu no Taizai: Eiyuu-tachi wa Hashagu",
      "rating": 7.22,
      "classificacao_etaria": "A14",
      "imagem_original": "https://animefire.plus/img/animes/nanatsu-no-taizai-eiyuu-tachi-wa-hashagu.webp",
      "imagem_pasta": "https://animefire.plus/img/animes/nanatsu-no-taizai-eiyuu-tachi-wa-hashagu/",
      "secao": "legendados",
      "pagina": 84,
      "total_episodios": 1,
      "link_video": "https://animefire.plus/video/nanatsu-no-taizai-eiyuu-tachi-wa-hashagu"
    },
    {
      "id": 2662,
      "nome": "Nanatsu no Taizai: Ensa no Edinburgh (Dublado)",
      "link": "https://animefire.plus/animes/nanatsu-no-taizai-ensa-no-edinburgh-dublado-todos-os-episodios",
      "texto_original": "Nanatsu no Taizai: Ensa no Edinburgh (Dublado)",
      "rating": 6.21,
      "classificacao_etaria": "A14",
      "imagem_original": "https://animefire.plus/img/animes/nanatsu-no-taizai-ensa-no-edinburgh.webp",
      "imagem_pasta": "https://animefire.plus/img/animes/nanatsu-no-taizai-ensa-no-edinburgh/",
      "secao": "dublados,legendados",
      "pagina": 8,
      "total_episodios": 1,
      "link_video": "https://animefire.plus/video/nanatsu-no-taizai-ensa-no-edinburgh-dublado"
    },
    {
      "id": 2663,
      "nome": "Nanatsu no Taizai: Ensa no Edinburgh Part 2 (Dublado)",
      "link": "https://animefire.plus/animes/nanatsu-no-taizai-ensa-no-edinburgh-part-2-dublado-todos-os-episodios",
      "texto_original": "Nanatsu no Taizai: Ensa no Edinburgh Part 2 (Dublado)",
      "rating": 6.56,
      "classificacao_etaria": "A14",
      "imagem_original": "https://animefire.plus/img/animes/nanatsu-no-taizai-ensa-no-edinburgh-part-2.webp",
      "imagem_pasta": "https://animefire.plus/img/animes/nanatsu-no-taizai-ensa-no-edinburgh-part-2/",
      "secao": "dublados,legendados",
      "pagina": 6,
      "total_episodios": 1,
      "link_video": "https://animefire.plus/video/nanatsu-no-taizai-ensa-no-edinburgh-part-2-dublado"
    },
    {
      "id": 2664,
      "nome": "Nanatsu no Taizai: Fundo no Shinpan (Dublado)",
      "link": "https://animefire.plus/animes/nanatsu-no-taizai-fundo-no-shinpan-dublado-todos-os-episodios",
      "texto_original": "Nanatsu no Taizai: Fundo no Shinpan (Dublado)",
      "rating": 6.57,
      "classificacao_etaria": "A14",
      "imagem_original": "https://animefire.plus/img/animes/nanatsu-no-taizai-fundo-no-shinpan.webp",
      "imagem_pasta": "https://animefire.plus/img/animes/nanatsu-no-taizai-fundo-no-shinpan/",
      "secao": "dublados,legendados,lancamentos",
      "pagina": 16,
      "total_episodios": 24,
      "link_video": "https://animefire.plus/video/nanatsu-no-taizai-fundo-no-shinpan-dublado"
    },
    {
      "id": 2665,
      "nome": "Nanatsu no Taizai: Imashime no Fukkatsu (Dublado)",
      "link": "https://animefire.plus/animes/nanatsu-no-taizai-imashime-no-fukkatsu-dublado-todos-os-episodios",
      "texto_original": "Nanatsu no Taizai: Imashime no Fukkatsu (Dublado)",
      "rating": 8.22,
      "classificacao_etaria": "A14",
      "imagem_original": "https://animefire.plus/img/animes/nanatsu-no-taizai-imashime-no-fukkatsu.webp",
      "imagem_pasta": "https://animefire.plus/img/animes/nanatsu-no-taizai-imashime-no-fukkatsu/",
      "secao": "dublados,legendados",
      "pagina": 26,
      "total_episodios": 24,
      "link_video": "https://animefire.plus/video/nanatsu-no-taizai-imashime-no-fukkatsu-dublado"
    },
    {
      "id": 2666,
      "nome": "Nanatsu no Taizai: Kamigami no Gekirin (Dublado)",
      "link": "https://animefire.plus/animes/nanatsu-no-taizai-kamigami-no-gekirin-dublado-todos-os-episodios",
      "texto_original": "Nanatsu no Taizai: Kamigami no Gekirin (Dublado)",
      "rating": 6.38,
      "classificacao_etaria": "A14",
      "imagem_original": "https://animefire.plus/img/animes/nanatsu-no-taizai-kamigami-no-gekirin.webp",
      "imagem_pasta": "https://animefire.plus/img/animes/nanatsu-no-taizai-kamigami-no-gekirin/",
      "secao": "dublados,legendados",
      "pagina": 19,
      "total_episodios": 24,
      "link_video": "https://animefire.plus/video/nanatsu-no-taizai-kamigami-no-gekirin-dublado"
    },
    {
      "id": 2667,
      "nome": "Nanatsu no Taizai: Mokushiroku no Yonkishi (Dublado)",
      "link": "https://animefire.plus/animes/nanatsu-no-taizai-mokushiroku-no-yonkishi-dublado-todos-os-episodios",
      "texto_original": "Nanatsu no Taizai: Mokushiroku no Yonkishi (Dublado)",
      "rating": 7.26,
      "classificacao_etaria": "A14",
      "imagem_original": "https://animefire.plus/img/animes/nanatsu-no-taizai-mokushiroku-no-yonkishi.webp",
      "imagem_pasta": "https://animefire.plus/img/animes/nanatsu-no-taizai-mokushiroku-no-yonkishi/",
      "secao": "dublados,legendados",
      "pagina": 3,
      "total_episodios": 24,
      "link_video": "https://animefire.plus/video/nanatsu-no-taizai-mokushiroku-no-yonkishi-dublado"
    },
    {
      "id": 2668,
      "nome": "Nanatsu no Taizai: Mokushiroku no Yonkishi 2nd Season",
      "link": "https://animefire.plus/animes/nanatsu-no-taizai-mokushiroku-no-yonkishi-2nd-season-todos-os-episodios",
      "texto_original": "Nanatsu no Taizai: Mokushiroku no Yonkishi 2nd Season",
      "rating": 7.43,
      "classificacao_etaria": "A14",
      "imagem_original": "https://animefire.plus/img/animes/nanatsu-no-taizai-mokushiroku-no-yonkishi-2nd-season.webp",
      "imagem_pasta": "https://animefire.plus/img/animes/nanatsu-no-taizai-mokushiroku-no-yonkishi-2nd-season/",
      "secao": "legendados,lancamentos",
      "pagina": 9,
      "total_episodios": 0,
      "link_video": "https://animefire.plus/video/nanatsu-no-taizai-mokushiroku-no-yonkishi-2nd-season"
    },
    {
      "id": 2669,
      "nome": "Nanatsu no Taizai: Seisen no Shirushi",
      "link": "https://animefire.plus/animes/nanatsu-no-taizai-seisen-no-shirushi-todos-os-episodios",
      "texto_original": "Nanatsu no Taizai: Seisen no Shirushi",
      "rating": 7.39,
      "classificacao_etaria": "A14",
      "imagem_original": "https://animefire.plus/img/animes/nanatsu-no-taizai-seisen-no-shirushi.webp",
      "imagem_pasta": "https://animefire.plus/img/animes/nanatsu-no-taizai-seisen-no-shirushi/",
      "secao": "legendados",
      "pagina": 161,
      "total_episodios": 4,
      "link_video": "https://animefire.plus/video/nanatsu-no-taizai-seisen-no-shirushi"
    },
    {
      "id": 2670,
      "nome": "Nanbaka",
      "link": "https://animefire.plus/animes/nanbaka-todos-os-episodios",
      "texto_original": "Nanbaka",
      "rating": 7.41,
      "classificacao_etaria": "A14",
      "imagem_original": "https://animefire.plus/img/animes/nanbaka.webp",
      "imagem_pasta": "https://animefire.plus/img/animes/nanbaka/",
      "secao": "legendados",
      "pagina": 95,
      "total_episodios": 13,
      "link_video": "https://animefire.plus/video/nanbaka"
    },
    {
      "id": 2671,
      "nome": "Nanbaka 2",
      "link": "https://animefire.plus/animes/nanbaka-2-todos-os-episodios",
      "texto_original": "Nanbaka 2",
      "rating": 7.61,
      "classificacao_etaria": "A14",
      "imagem_original": "https://animefire.plus/img/animes/nanbaka-2.webp",
      "imagem_pasta": "https://animefire.plus/img/animes/nanbaka-2/",
      "secao": "legendados",
      "pagina": 104,
      "total_episodios": 12,
      "link_video": "https://animefire.plus/video/nanbaka-2"
    },
    {
      "id": 2674,
      "nome": "Nanocore",
      "link": "https://animefire.plus/animes/nanocore-todos-os-episodios",
      "texto_original": "Nanocore",
      "rating": 6.31,
      "classificacao_etaria": "A14",
      "imagem_original": "https://animefire.plus/img/animes/nanocore.webp",
      "imagem_pasta": "https://animefire.plus/img/animes/nanocore/",
      "secao": "legendados",
      "pagina": 172,
      "total_episodios": 10,
      "link_video": "https://animefire.plus/video/nanocore"
    },
    {
      "id": 2675,
      "nome": "Nanocore 2nd Season",
      "link": "https://animefire.plus/animes/nanocore-2nd-season-todos-os-episodios",
      "texto_original": "Nanocore 2nd Season",
      "rating": 6.65,
      "classificacao_etaria": "A14",
      "imagem_original": "https://animefire.plus/img/animes/nanocore-2nd-season.webp",
      "imagem_pasta": "https://animefire.plus/img/animes/nanocore-2nd-season/",
      "secao": "legendados",
      "pagina": 175,
      "total_episodios": 10,
      "link_video": "https://animefire.plus/video/nanocore-2nd-season"
    },
    {
      "id": 2676,
      "nome": "Narue no Sekai",
      "link": "https://animefire.plus/animes/narue-no-sekai-todos-os-episodios",
      "texto_original": "Narue no Sekai",
      "rating": 6.64,
      "classificacao_etaria": "A14",
      "imagem_original": "https://animefire.plus/img/animes/narue-no-sekai.webp",
      "imagem_pasta": "https://animefire.plus/img/animes/narue-no-sekai/",
      "secao": "legendados",
      "pagina": 164,
      "total_episodios": 12,
      "link_video": "https://animefire.plus/video/narue-no-sekai"
    },
    {
      "id": 2678,
      "nome": "Naruto (Dublado)",
      "link": "https://animefire.plus/animes/naruto-dublado-todos-os-episodios",
      "texto_original": "Naruto (Dublado)",
      "rating": 7.88,
      "classificacao_etaria": "A14",
      "imagem_original": "https://animefire.plus/img/animes/naruto.webp",
      "imagem_pasta": "https://animefire.plus/img/animes/naruto/",
      "secao": "dublados,legendados",
      "pagina": 20,
      "total_episodios": 211,
      "link_video": "https://animefire.plus/video/naruto-dublado"
    },
    {
      "id": 2679,
      "nome": "Naruto SD: Rock Lee no Seishun Full-Power Ninden",
      "link": "https://animefire.plus/animes/naruto-sd-rock-lee-no-seishun-full-power-ninden-todos-os-episodios",
      "texto_original": "Naruto SD: Rock Lee no Seishun Full-Power Ninden",
      "rating": 7.15,
      "classificacao_etaria": "A14",
      "imagem_original": "https://animefire.plus/img/animes/naruto-sd-rock-lee-no-seishun-full-power-ninden.webp",
      "imagem_pasta": "https://animefire.plus/img/animes/naruto-sd-rock-lee-no-seishun-full-power-ninden/",
      "secao": "legendados",
      "pagina": 50,
      "total_episodios": 51,
      "link_video": "https://animefire.plus/video/naruto-sd-rock-lee-no-seishun-full-power-ninden"
    }
  ],
  "pagination": {
    "current_page": 88,
    "per_page": 20,
    "total_items": 2988,
    "total_pages": 150,
    "has_next": true,
    "has_prev": true
  }
}
