{
  "message": "Animes com classificação etária: A14",
  "age_rating": "A14",
  "data": [
    {
      "id": 735,
      "nome": "Dance Dance Danseur (Dublado)",
      "link": "https://animefire.plus/animes/dance-dance-danseur-dublado-todos-os-episodios",
      "texto_original": "Dance Dance Danseur (Dublado)",
      "rating": 7.81,
      "classificacao_etaria": "A14",
      "imagem_original": "https://animefire.plus/img/animes/dance-dance-danseur.webp",
      "imagem_pasta": "https://animefire.plus/img/animes/dance-dance-danseur/",
      "secao": "dublados,legendados",
      "pagina": 11,
      "total_episodios": 11,
      "link_video": "https://animefire.plus/video/dance-dance-danseur-dublado"
    },
    {
      "id": 738,
      "nome": "Danchigai",
      "link": "https://animefire.plus/animes/danchigai-todos-os-episodios",
      "texto_original": "Danchigai",
      "rating": 6.63,
      "classificacao_etaria": "A14",
      "imagem_original": "https://animefire.plus/img/animes/danchigai.webp",
      "imagem_pasta": "https://animefire.plus/img/animes/danchigai/",
      "secao": "legendados",
      "pagina": 104,
      "total_episodios": 12,
      "link_video": "https://animefire.plus/video/danchigai"
    },
    {
      "id": 744,
      "nome": "Danjo no Yuujou wa Seiritsu suru? (Iya, Shinai!!)",
      "link": "https://animefire.plus/animes/danjo-no-yuujou-wa-seiritsu-suru-iya-shinai-todos-os-episodios",
      "texto_original": "Danjo no Yuujou wa Seiritsu suru? (Iya, Shinai!!)",
      "rating": 6.61,
      "classificacao_etaria": "A14",
      "imagem_original": "https://animefire.plus/img/animes/danjo-no-yuujou-wa-seiritsu-suru-iya-shinai.webp",
      "imagem_pasta": "https://animefire.plus/img/animes/danjo-no-yuujou-wa-seiritsu-suru-iya-shinai/",
      "secao": "legendados",
      "pagina": 6,
      "total_episodios": 12,
      "link_video": "https://animefire.plus/video/danjo-no-yuujou-wa-seiritsu-suru-iya-shinai"
    },
    {
      "id": 745,
      "nome": "Danna ga Nani wo Itteiru ka Wakaranai Ken",
      "link": "https://animefire.plus/animes/danna-ga-nani-wo-itteiru-ka-wakaranai-ken-todos-os-episodios",
      "texto_original": "Danna ga Nani wo Itteiru ka Wakaranai Ken",
      "rating": 7.48,
      "classificacao_etaria": "A14",
      "imagem_original": "https://animefire.plus/img/animes/danna-ga-nani-wo-itteiru-ka-wakaranai-ken.webp",
      "imagem_pasta": "https://animefire.plus/img/animes/danna-ga-nani-wo-itteiru-ka-wakaranai-ken/",
      "secao": "legendados",
      "pagina": 145,
      "total_episodios": 2,
      "link_video": "https://animefire.plus/video/danna-ga-nani-wo-itteiru-ka-wakaranai-ken"
    },
    {
      "id": 746,
      "nome": "Danna ga Nani wo Itteiru ka Wakaranai Ken 2 Sure-me",
      "link": "https://animefire.plus/animes/danna-ga-nani-wo-itteiru-ka-wakaranai-ken-2-sure-me-todos-os-episodios",
      "texto_original": "Danna ga Nani wo Itteiru ka Wakaranai Ken 2 Sure-me",
      "rating": 7.43,
      "classificacao_etaria": "A14",
      "imagem_original": "https://animefire.plus/img/animes/danna-ga-nani-wo-itteiru-ka-wakaranai-ken-2-sure-me.webp",
      "imagem_pasta": "https://animefire.plus/img/animes/danna-ga-nani-wo-itteiru-ka-wakaranai-ken-2-sure-me/",
      "secao": "legendados",
      "pagina": 66,
      "total_episodios": 13,
      "link_video": "https://animefire.plus/video/danna-ga-nani-wo-itteiru-ka-wakaranai-ken-2-sure-me"
    },
    {
      "id": 748,
      "nome": "Danshi Koukousei no Nichijou",
      "link": "https://animefire.plus/animes/danshi-koukousei-no-nichijou-todos-os-episodios",
      "texto_original": "Danshi Koukousei no Nichijou",
      "rating": 8.32,
      "classificacao_etaria": "A14",
      "imagem_original": "https://animefire.plus/img/animes/danshi-koukousei-no-nichijou.webp",
      "imagem_pasta": "https://animefire.plus/img/animes/danshi-koukousei-no-nichijou/",
      "secao": "legendados",
      "pagina": 113,
      "total_episodios": 9,
      "link_video": "https://animefire.plus/video/danshi-koukousei-no-nichijou"
    },
    {
      "id": 755,
      "nome": "Darling in the FranXX (Dublado)",
      "link": "https://animefire.plus/animes/darling-in-the-franxx-dublado-todos-os-episodios",
      "texto_original": "Darling in the FranXX (Dublado)",
      "rating": 7.52,
      "classificacao_etaria": "A14",
      "imagem_original": "https://animefire.plus/img/animes/darling-in-the-franxx.webp",
      "imagem_pasta": "https://animefire.plus/img/animes/darling-in-the-franxx/",
      "secao": "dublados,legendados",
      "pagina": 26,
      "total_episodios": 0,
      "link_video": "https://animefire.plus/video/darling-in-the-franxx-dublado"
    },
    {
      "id": 762,
      "nome": "Days (TV): Touin Gakuen-sen!",
      "link": "https://animefire.plus/animes/days-tv-touin-gakuen-sen-todos-os-episodios",
      "texto_original": "Days (TV): Touin Gakuen-sen!",
      "rating": 7.63,
      "classificacao_etaria": "A14",
      "imagem_original": "https://animefire.plus/img/animes/days-tv-touin-gakuen-sen.webp",
      "imagem_pasta": "https://animefire.plus/img/animes/days-tv-touin-gakuen-sen/",
      "secao": "legendados",
      "pagina": 163,
      "total_episodios": 3,
      "link_video": "https://animefire.plus/video/days-tv-touin-gakuen-sen"
    },
    {
      "id": 764,
      "nome": "Dead Dead Demons Dededede Destruction (ONA)",
      "link": "https://animefire.plus/animes/dead-dead-demons-dededede-destruction-ona-todos-os-episodios",
      "texto_original": "Dead Dead Demons Dededede Destruction (ONA)",
      "rating": 7.92,
      "classificacao_etaria": "A14",
      "imagem_original": "https://animefire.plus/img/animes/dead-dead-demons-dededede-destruction-ona.webp",
      "imagem_pasta": "https://animefire.plus/img/animes/dead-dead-demons-dededede-destruction-ona/",
      "secao": "legendados",
      "pagina": 12,
      "total_episodios": 17,
      "link_video": "https://animefire.plus/video/dead-dead-demons-dededede-destruction-ona"
    },
    {
      "id": 765,
      "nome": "Dead Heat",
      "link": "https://animefire.plus/animes/dead-heat-todos-os-episodios",
      "texto_original": "Dead Heat",
      "rating": 5.54,
      "classificacao_etaria": "A14",
      "imagem_original": "https://animefire.plus/img/animes/dead-heat.webp",
      "imagem_pasta": "https://animefire.plus/img/animes/dead-heat/",
      "secao": "legendados",
      "pagina": 70,
      "total_episodios": 1,
      "link_video": "https://animefire.plus/video/dead-heat"
    },
    {
      "id": 770,
      "nome": "Deaimon",
      "link": "https://animefire.plus/animes/deaimon-todos-os-episodios",
      "texto_original": "Deaimon",
      "rating": 7.55,
      "classificacao_etaria": "A14",
      "imagem_original": "https://animefire.plus/img/animes/deaimon.webp",
      "imagem_pasta": "https://animefire.plus/img/animes/deaimon/",
      "secao": "legendados",
      "pagina": 34,
      "total_episodios": 12,
      "link_video": "https://animefire.plus/video/deaimon"
    },
    {
      "id": 771,
      "nome": "Dear Boys (Dublado)",
      "link": "https://animefire.plus/animes/dear-boys-dublado-todos-os-episodios",
      "texto_original": "Dear Boys (Dublado)",
      "rating": 6.88,
      "classificacao_etaria": "A14",
      "imagem_original": "https://animefire.plus/img/animes/dear-boys.webp",
      "imagem_pasta": "https://animefire.plus/img/animes/dear-boys/",
      "secao": "dublados",
      "pagina": 22,
      "total_episodios": 26,
      "link_video": "https://animefire.plus/video/dear-boys-dublado"
    },
    {
      "id": 775,
      "nome": "Death March kara Hajimaru Isekai Kyousoukyoku (Dublado)",
      "link": "https://animefire.plus/animes/death-march-kara-hajimaru-isekai-kyousoukyoku-dublado-todos-os-episodios",
      "texto_original": "Death March kara Hajimaru Isekai Kyousoukyoku (Dublado)",
      "rating": 6.84,
      "classificacao_etaria": "A14",
      "imagem_original": "https://animefire.plus/img/animes/death-march-kara-hajimaru-isekai-kyousoukyoku.webp",
      "imagem_pasta": "https://animefire.plus/img/animes/death-march-kara-hajimaru-isekai-kyousoukyoku/",
      "secao": "dublados,legendados",
      "pagina": 28,
      "total_episodios": 12,
      "link_video": "https://animefire.plus/video/death-march-kara-hajimaru-isekai-kyousoukyoku-dublado"
    },
    {
      "id": 779,
      "nome": "Deca-Dence (Dublado)",
      "link": "https://animefire.plus/animes/deca-dence-dublado-todos-os-episodios",
      "texto_original": "Deca-Dence (Dublado)",
      "rating": 7.42,
      "classificacao_etaria": "A14",
      "imagem_original": "https://animefire.plus/img/animes/deca-dence.webp",
      "imagem_pasta": "https://animefire.plus/img/animes/deca-dence/",
      "secao": "dublados,legendados",
      "pagina": 15,
      "total_episodios": 12,
      "link_video": "https://animefire.plus/video/deca-dence-dublado"
    },
    {
      "id": 780,
      "nome": "Deep Insanity: The Lost Child (Dublado)",
      "link": "https://animefire.plus/animes/deep-insanity-the-lost-child-dublado-todos-os-episodios",
      "texto_original": "Deep Insanity: The Lost Child (Dublado)",
      "rating": 5.6,
      "classificacao_etaria": "A14",
      "imagem_original": "https://animefire.plus/img/animes/deep-insanity-the-lost-child.webp",
      "imagem_pasta": "https://animefire.plus/img/animes/deep-insanity-the-lost-child/",
      "secao": "dublados,legendados",
      "pagina": 14,
      "total_episodios": 12,
      "link_video": "https://animefire.plus/video/deep-insanity-the-lost-child-dublado"
    },
    {
      "id": 781,
      "nome": "Deji Meets Girl",
      "link": "https://animefire.plus/animes/deji-meets-girl-todos-os-episodios",
      "texto_original": "Deji Meets Girl",
      "rating": 6.17,
      "classificacao_etaria": "A14",
      "imagem_original": "https://animefire.plus/img/animes/deji-meets-girl.webp",
      "imagem_pasta": "https://animefire.plus/img/animes/deji-meets-girl/",
      "secao": "legendados,lancamentos",
      "pagina": 39,
      "total_episodios": 0,
      "link_video": "https://animefire.plus/video/deji-meets-girl"
    },
    {
      "id": 782,
      "nome": "Dekin no Mogura",
      "link": "https://animefire.plus/animes/dekin-no-mogura-todos-os-episodios",
      "texto_original": "Dekin no Mogura",
      "rating": 6.16,
      "classificacao_etaria": "A14",
      "imagem_original": "https://animefire.plus/img/animes/dekin-no-mogura.webp",
      "imagem_pasta": "https://animefire.plus/img/animes/dekin-no-mogura/",
      "secao": "legendados,lancamentos",
      "pagina": 2,
      "total_episodios": 5,
      "link_video": "https://animefire.plus/video/dekin-no-mogura"
    },
    {
      "id": 783,
      "nome": "Dekiru Neko wa Kyou mo Yuuutsu",
      "link": "https://animefire.plus/animes/dekiru-neko-wa-kyou-mo-yuuutsu-todos-os-episodios",
      "texto_original": "Dekiru Neko wa Kyou mo Yuuutsu",
      "rating": 7.64,
      "classificacao_etaria": "A14",
      "imagem_original": "https://animefire.plus/img/animes/dekiru-neko-wa-kyou-mo-yuuutsu.jpg",
      "imagem_pasta": "https://animefire.plus/img/animes/dekiru-neko-wa-kyou-mo-yuuutsu/",
      "secao": "legendados,lancamentos",
      "pagina": 22,
      "total_episodios": 10,
      "link_video": "https://animefire.plus/video/dekiru-neko-wa-kyou-mo-yuuutsu"
    },
    {
      "id": 784,
      "nome": "Dekisokonai to Yobareta Motoeiyuu wa Jikka kara Tsuihou sareta node Sukikatte ni Ikiru Koto ni Shita",
      "link": "https://animefire.plus/animes/dekisokonai-to-yobareta-motoeiyuu-wa-jikka-kara-tsuihou-sareta-node-sukikatte-ni-ikiru-koto-ni-shita-todos-os-episodios",
      "texto_original": "Dekisokonai to Yobareta Motoeiyuu wa Jikka kara Tsuihou sareta node Sukikatte ni Ikiru Koto ni Shita",
      "rating": 5.22,
      "classificacao_etaria": "A14",
      "imagem_original": "https://animefire.plus/img/animes/dekisokonai-to-yobareta-motoeiyuu-wa-jikka-kara-tsuihou-sareta-node-sukikatte-ni-ikiru-koto-ni-shita.webp",
      "imagem_pasta": "https://animefire.plus/img/animes/dekisokonai-to-yobareta-motoeiyuu-wa-jikka-kara-tsuihou-sareta-node-sukikatte-ni-ikiru-koto-ni-shita/",
      "secao": "legendados",
      "pagina": 14,
      "total_episodios": 12,
      "link_video": "https://animefire.plus/video/dekisokonai-to-yobareta-motoeiyuu-wa-jikka-kara-tsuihou-sareta-node-sukikatte-ni-ikiru-koto-ni-shita"
    },
    {
      "id": 785,
      "nome": "Dekoboko Majo no Oyako Jijou (Dublado)",
      "link": "https://animefire.plus/animes/dekoboko-majo-no-oyako-jijou-dublado-todos-os-episodios",
      "texto_original": "Dekoboko Majo no Oyako Jijou (Dublado)",
      "rating": 6.76,
      "classificacao_etaria": "A14",
      "imagem_original": "https://animefire.plus/img/animes/dekoboko-majo-no-oyako-jijou.webp",
      "imagem_pasta": "https://animefire.plus/img/animes/dekoboko-majo-no-oyako-jijou/",
      "secao": "dublados,legendados,lancamentos",
      "pagina": 5,
      "total_episodios": 12,
      "link_video": "https://animefire.plus/video/dekoboko-majo-no-oyako-jijou-dublado"
    }
  ],
  "pagination": {
    "current_page": 25,
    "per_page": 20,
    "total_items": 2988,
    "total_pages": 150,
    "has_next": true,
    "has_prev": true
  }
}
