{
  "message": "Animes com classificação etária: A14",
  "age_rating": "A14",
  "data": [
    {
      "id": 2078,
      "nome": "Kono Danshi, Ningyo Hiroimashita.",
      "link": "https://animefire.plus/animes/kono-danshi-ningyo-hiroimashita-todos-os-episodios",
      "texto_original": "Kono Danshi, Ningyo Hiroimashita.",
      "rating": 7.54,
      "classificacao_etaria": "A14",
      "imagem_original": "https://animefire.plus/img/animes/kono-danshi-ningyo-hiroimashita.webp",
      "imagem_pasta": "https://animefire.plus/img/animes/kono-danshi-ningyo-hiroimashita/",
      "secao": "legendados",
      "pagina": 86,
      "total_episodios": 1,
      "link_video": "https://animefire.plus/video/kono-danshi-ningyo-hiroimashita"
    },
    {
      "id": 2079,
      "nome": "Kono Healer, Mendokusai",
      "link": "https://animefire.plus/animes/kono-healer-mendokusai-todos-os-episodios",
      "texto_original": "Kono Healer, Mendokusai",
      "rating": 6.34,
      "classificacao_etaria": "A14",
      "imagem_original": "https://animefire.plus/img/animes/kono-healer-mendokusai.webp",
      "imagem_pasta": "https://animefire.plus/img/animes/kono-healer-mendokusai/",
      "secao": "legendados",
      "pagina": 33,
      "total_episodios": 12,
      "link_video": "https://animefire.plus/video/kono-healer-mendokusai"
    },
    {
      "id": 2080,
      "nome": "Kono Kaisha ni Suki na Hito ga Imasu",
      "link": "https://animefire.plus/animes/kono-kaisha-ni-suki-na-hito-ga-imasu-todos-os-episodios",
      "texto_original": "Kono Kaisha ni Suki na Hito ga Imasu",
      "rating": 7.53,
      "classificacao_etaria": "A14",
      "imagem_original": "https://animefire.plus/img/animes/kono-kaisha-ni-suki-na-hito-ga-imasu.webp",
      "imagem_pasta": "https://animefire.plus/img/animes/kono-kaisha-ni-suki-na-hito-ga-imasu/",
      "secao": "legendados",
      "pagina": 8,
      "total_episodios": 12,
      "link_video": "https://animefire.plus/video/kono-kaisha-ni-suki-na-hito-ga-imasu"
    },
    {
      "id": 2083,
      "nome": "Kono Oto Tomare! (Dublado)",
      "link": "https://animefire.plus/animes/kono-oto-tomare-dublado-todos-os-episodios",
      "texto_original": "Kono Oto Tomare! (Dublado)",
      "rating": 7.89,
      "classificacao_etaria": "A14",
      "imagem_original": "https://animefire.plus/img/animes/kono-oto-tomare.webp",
      "imagem_pasta": "https://animefire.plus/img/animes/kono-oto-tomare/",
      "secao": "dublados,legendados",
      "pagina": 13,
      "total_episodios": 13,
      "link_video": "https://animefire.plus/video/kono-oto-tomare-dublado"
    },
    {
      "id": 2084,
      "nome": "Kono Oto Tomare! 2nd Season (Dublado)",
      "link": "https://animefire.plus/animes/kono-oto-tomare-2nd-season-dublado-todos-os-episodios",
      "texto_original": "Kono Oto Tomare! 2nd Season (Dublado)",
      "rating": 8.42,
      "classificacao_etaria": "A14",
      "imagem_original": "https://animefire.plus/img/animes/kono-oto-tomare-2nd-season.webp",
      "imagem_pasta": "https://animefire.plus/img/animes/kono-oto-tomare-2nd-season/",
      "secao": "dublados,legendados",
      "pagina": 13,
      "total_episodios": 13,
      "link_video": "https://animefire.plus/video/kono-oto-tomare-2nd-season-dublado"
    },
    {
      "id": 2085,
      "nome": "Kono Sekai wa Fukanzen Sugiru",
      "link": "https://animefire.plus/animes/kono-sekai-wa-fukanzen-sugiru-todos-os-episodios",
      "texto_original": "Kono Sekai wa Fukanzen Sugiru",
      "rating": 6.53,
      "classificacao_etaria": "A14",
      "imagem_original": "https://animefire.plus/img/animes/kono-sekai-wa-fukanzen-sugiru.webp",
      "imagem_pasta": "https://animefire.plus/img/animes/kono-sekai-wa-fukanzen-sugiru/",
      "secao": "legendados",
      "pagina": 12,
      "total_episodios": 13,
      "link_video": "https://animefire.plus/video/kono-sekai-wa-fukanzen-sugiru"
    },
    {
      "id": 2086,
      "nome": "Kono Subarashii Sekai ni Bakuen wo! (Dublado)",
      "link": "https://animefire.plus/animes/kono-subarashii-sekai-ni-bakuen-wo-dublado-todos-os-episodios",
      "texto_original": "Kono Subarashii Sekai ni Bakuen wo! (Dublado)",
      "rating": 7.51,
      "classificacao_etaria": "A14",
      "imagem_original": "https://animefire.plus/img/animes/kono-subarashii-sekai-ni-bakuen-wo.webp",
      "imagem_pasta": "https://animefire.plus/img/animes/kono-subarashii-sekai-ni-bakuen-wo/",
      "secao": "dublados,legendados",
      "pagina": 7,
      "total_episodios": 12,
      "link_video": "https://animefire.plus/video/kono-subarashii-sekai-ni-bakuen-wo-dublado"
    },
    {
      "id": 2087,
      "nome": "Kono Subarashii Sekai ni Shukufuku wo! (Dublado)",
      "link": "https://animefire.plus/animes/kono-subarashii-sekai-ni-shukufuku-wo-dublado-todos-os-episodios",
      "texto_original": "Kono Subarashii Sekai ni Shukufuku wo! (Dublado)",
      "rating": 8.18,
      "classificacao_etaria": "A14",
      "imagem_original": "https://animefire.plus/img/animes/kono-subarashii-sekai-ni-shukufuku-wo.webp",
      "imagem_pasta": "https://animefire.plus/img/animes/kono-subarashii-sekai-ni-shukufuku-wo/",
      "secao": "dublados,legendados",
      "pagina": 26,
      "total_episodios": 10,
      "link_video": "https://animefire.plus/video/kono-subarashii-sekai-ni-shukufuku-wo-dublado"
    },
    {
      "id": 2088,
      "nome": "Kono Subarashii Sekai ni Shukufuku wo! 2 (Dublado)",
      "link": "https://animefire.plus/animes/kono-subarashii-sekai-ni-shukufuku-wo-2-dublado-todos-os-episodios",
      "texto_original": "Kono Subarashii Sekai ni Shukufuku wo! 2 (Dublado)",
      "rating": 8.36,
      "classificacao_etaria": "A14",
      "imagem_original": "https://animefire.plus/img/animes/kono-subarashii-sekai-ni-shukufuku-wo-2.webp",
      "imagem_pasta": "https://animefire.plus/img/animes/kono-subarashii-sekai-ni-shukufuku-wo-2/",
      "secao": "dublados,legendados",
      "pagina": 26,
      "total_episodios": 10,
      "link_video": "https://animefire.plus/video/kono-subarashii-sekai-ni-shukufuku-wo-2-dublado"
    },
    {
      "id": 2089,
      "nome": "Kono Subarashii Sekai ni Shukufuku wo! 2: Kono Subarashii Geijutsu ni Shukufuku wo! (Dublado)",
      "link": "https://animefire.plus/animes/kono-subarashii-sekai-ni-shukufuku-wo-2-kono-subarashii-geijutsu-ni-shukufuku-wo-dublado-todos-os-episodios",
      "texto_original": "Kono Subarashii Sekai ni Shukufuku wo! 2: Kono Subarashii Geijutsu ni Shukufuku wo! (Dublado)",
      "rating": 8.11,
      "classificacao_etaria": "A14",
      "imagem_original": "https://animefire.plus/img/animes/kono-subarashii-sekai-ni-shukufuku-wo-2-kono-subarashii-geijutsu-ni-shukufuku-wo.webp",
      "imagem_pasta": "https://animefire.plus/img/animes/kono-subarashii-sekai-ni-shukufuku-wo-2-kono-subarashii-geijutsu-ni-shukufuku-wo/",
      "secao": "dublados",
      "pagina": 24,
      "total_episodios": 1,
      "link_video": "https://animefire.plus/video/kono-subarashii-sekai-ni-shukufuku-wo-2-kono-subarashii-geijutsu-ni-shukufuku-wo-dublado"
    },
    {
      "id": 2090,
      "nome": "Kono Subarashii Sekai ni Shukufuku wo! 3 (Dublado)",
      "link": "https://animefire.plus/animes/kono-subarashii-sekai-ni-shukufuku-wo-3-dublado-todos-os-episodios",
      "texto_original": "Kono Subarashii Sekai ni Shukufuku wo! 3 (Dublado)",
      "rating": 8.35,
      "classificacao_etaria": "A14",
      "imagem_original": "https://animefire.plus/img/animes/kono-subarashii-sekai-ni-shukufuku-wo-3.webp",
      "imagem_pasta": "https://animefire.plus/img/animes/kono-subarashii-sekai-ni-shukufuku-wo-3/",
      "secao": "dublados,legendados",
      "pagina": 2,
      "total_episodios": 11,
      "link_video": "https://animefire.plus/video/kono-subarashii-sekai-ni-shukufuku-wo-3-dublado"
    },
    {
      "id": 2091,
      "nome": "Kono Subarashii Sekai ni Shukufuku wo! 3: Bonus Stage",
      "link": "https://animefire.plus/animes/kono-subarashii-sekai-ni-shukufuku-wo-3-bonus-stage-todos-os-episodios",
      "texto_original": "Kono Subarashii Sekai ni Shukufuku wo! 3: Bonus Stage",
      "rating": 8.17,
      "classificacao_etaria": "A14",
      "imagem_original": "https://animefire.plus/img/animes/kono-subarashii-sekai-ni-shukufuku-wo-3-bonus-stage.webp",
      "imagem_pasta": "https://animefire.plus/img/animes/kono-subarashii-sekai-ni-shukufuku-wo-3-bonus-stage/",
      "secao": "legendados,lancamentos",
      "pagina": 3,
      "total_episodios": 0,
      "link_video": "https://animefire.plus/video/kono-subarashii-sekai-ni-shukufuku-wo-3-bonus-stage"
    },
    {
      "id": 2092,
      "nome": "Kono Yo no Hate de Koi wo Utau Shoujo YU-NO",
      "link": "https://animefire.plus/animes/kono-yo-no-hate-de-koi-wo-utau-shoujo-yu-no-todos-os-episodios",
      "texto_original": "Kono Yo no Hate de Koi wo Utau Shoujo YU-NO",
      "rating": 6.58,
      "classificacao_etaria": "A14",
      "imagem_original": "https://animefire.plus/img/animes/kono-yo-no-hate-de-koi-wo-utau-shoujo-yu-no.webp",
      "imagem_pasta": "https://animefire.plus/img/animes/kono-yo-no-hate-de-koi-wo-utau-shoujo-yu-no/",
      "secao": "legendados",
      "pagina": 114,
      "total_episodios": 0,
      "link_video": "https://animefire.plus/video/kono-yo-no-hate-de-koi-wo-utau-shoujo-yu-no"
    },
    {
      "id": 2094,
      "nome": "Konohana Kitan",
      "link": "https://animefire.plus/animes/konohana-kitan-todos-os-episodios",
      "texto_original": "Konohana Kitan",
      "rating": 7.66,
      "classificacao_etaria": "A14",
      "imagem_original": "https://animefire.plus/img/animes/konohana-kitan.webp",
      "imagem_pasta": "https://animefire.plus/img/animes/konohana-kitan/",
      "secao": "legendados",
      "pagina": 106,
      "total_episodios": 12,
      "link_video": "https://animefire.plus/video/konohana-kitan"
    },
    {
      "id": 2095,
      "nome": "Konyaku Haki sareta Reijou wo Hirotta Ore ga, Ikenai Koto wo Oshiekomu",
      "link": "https://animefire.plus/animes/konyaku-haki-sareta-reijou-wo-hirotta-ore-ga-ikenai-koto-wo-oshiekomu-todos-os-episodios",
      "texto_original": "Konyaku Haki sareta Reijou wo Hirotta Ore ga, Ikenai Koto wo Oshiekomu",
      "rating": 7.15,
      "classificacao_etaria": "A14",
      "imagem_original": "https://animefire.plus/img/animes/konyaku-haki-sareta-reijou-wo-hirotta-ore-ga-ikenai-koto-wo-oshiekomu.webp",
      "imagem_pasta": "https://animefire.plus/img/animes/konyaku-haki-sareta-reijou-wo-hirotta-ore-ga-ikenai-koto-wo-oshiekomu/",
      "secao": "legendados",
      "pagina": 20,
      "total_episodios": 12,
      "link_video": "https://animefire.plus/video/konyaku-haki-sareta-reijou-wo-hirotta-ore-ga-ikenai-koto-wo-oshiekomu"
    },
    {
      "id": 2096,
      "nome": "Koori Zokusei Danshi to Cool na Douryou Joshi",
      "link": "https://animefire.plus/animes/koori-zokusei-danshi-to-cool-na-douryou-joshi-todos-os-episodios",
      "texto_original": "Koori Zokusei Danshi to Cool na Douryou Joshi",
      "rating": 7.31,
      "classificacao_etaria": "A14",
      "imagem_original": "https://animefire.plus/img/animes/koori-zokusei-danshi-to-cool-na-douryou-joshi.webp",
      "imagem_pasta": "https://animefire.plus/img/animes/koori-zokusei-danshi-to-cool-na-douryou-joshi/",
      "secao": "legendados",
      "pagina": 26,
      "total_episodios": 12,
      "link_video": "https://animefire.plus/video/koori-zokusei-danshi-to-cool-na-douryou-joshi"
    },
    {
      "id": 2100,
      "nome": "Koro-sensei Quest!",
      "link": "https://animefire.plus/animes/koro-sensei-quest-todos-os-episodios",
      "texto_original": "Koro-sensei Quest!",
      "rating": 7.25,
      "classificacao_etaria": "A14",
      "imagem_original": "https://animefire.plus/img/animes/koro-sensei-quest.webp",
      "imagem_pasta": "https://animefire.plus/img/animes/koro-sensei-quest/",
      "secao": "legendados",
      "pagina": 169,
      "total_episodios": 12,
      "link_video": "https://animefire.plus/video/koro-sensei-quest"
    },
    {
      "id": 2102,
      "nome": "Kotarou wa Hitorigurashi (Dublado)",
      "link": "https://animefire.plus/animes/kotarou-wa-hitorigurashi-dublado-todos-os-episodios",
      "texto_original": "Kotarou wa Hitorigurashi (Dublado)",
      "rating": 8.16,
      "classificacao_etaria": "A14",
      "imagem_original": "https://animefire.plus/img/animes/kotarou-wa-hitorigurashi.webp",
      "imagem_pasta": "https://animefire.plus/img/animes/kotarou-wa-hitorigurashi/",
      "secao": "dublados,legendados",
      "pagina": 12,
      "total_episodios": 10,
      "link_video": "https://animefire.plus/video/kotarou-wa-hitorigurashi-dublado"
    },
    {
      "id": 2103,
      "nome": "Kotoura-san",
      "link": "https://animefire.plus/animes/kotoura-san-todos-os-episodios",
      "texto_original": "Kotoura-san",
      "rating": 7.33,
      "classificacao_etaria": "A14",
      "imagem_original": "https://animefire.plus/img/animes/kotoura-san.webp",
      "imagem_pasta": "https://animefire.plus/img/animes/kotoura-san/",
      "secao": "legendados",
      "pagina": 121,
      "total_episodios": 12,
      "link_video": "https://animefire.plus/video/kotoura-san"
    },
    {
      "id": 2104,
      "nome": "Koufuku Graffiti",
      "link": "https://animefire.plus/animes/koufuku-graffiti-todos-os-episodios",
      "texto_original": "Koufuku Graffiti",
      "rating": 6.83,
      "classificacao_etaria": "A14",
      "imagem_original": "https://animefire.plus/img/animes/koufuku-graffiti.webp",
      "imagem_pasta": "https://animefire.plus/img/animes/koufuku-graffiti/",
      "secao": "legendados",
      "pagina": 112,
      "total_episodios": 3,
      "link_video": "https://animefire.plus/video/koufuku-graffiti"
    }
  ],
  "pagination": {
    "current_page": 68,
    "per_page": 20,
    "total_items": 2988,
    "total_pages": 150,
    "has_next": true,
    "has_prev": true
  }
}
