{
  "message": "Animes com classificação etária: A14",
  "age_rating": "A14",
  "data": [
    {
      "id": 469,
      "nome": "Boku wa Tomodachi ga Sukunai Episode 0",
      "link": "https://animefire.plus/animes/boku-wa-tomodachi-ga-sukunai-episode-0-todos-os-episodios",
      "texto_original": "Boku wa Tomodachi ga Sukunai Episode 0",
      "rating": 6.74,
      "classificacao_etaria": "A14",
      "imagem_original": "https://animefire.plus/img/animes/boku-wa-tomodachi-ga-sukunai-episode-0.webp",
      "imagem_pasta": "https://animefire.plus/img/animes/boku-wa-tomodachi-ga-sukunai-episode-0/",
      "secao": "legendados",
      "pagina": 43,
      "total_episodios": 1,
      "link_video": "https://animefire.plus/video/boku-wa-tomodachi-ga-sukunai-episode-0"
    },
    {
      "id": 470,
      "nome": "Boku wa Tomodachi ga Sukunai Next",
      "link": "https://animefire.plus/animes/boku-wa-tomodachi-ga-sukunai-next-todos-os-episodios",
      "texto_original": "Boku wa Tomodachi ga Sukunai Next",
      "rating": 7.53,
      "classificacao_etaria": "A14",
      "imagem_original": "https://animefire.plus/img/animes/boku-wa-tomodachi-ga-sukunai-next.webp",
      "imagem_pasta": "https://animefire.plus/img/animes/boku-wa-tomodachi-ga-sukunai-next/",
      "secao": "legendados",
      "pagina": 125,
      "total_episodios": 0,
      "link_video": "https://animefire.plus/video/boku-wa-tomodachi-ga-sukunai-next"
    },
    {
      "id": 471,
      "nome": "Bokura ga Ita",
      "link": "https://animefire.plus/animes/bokura-ga-ita-todos-os-episodios",
      "texto_original": "Bokura ga Ita",
      "rating": 7.43,
      "classificacao_etaria": "A14",
      "imagem_original": "https://animefire.plus/img/animes/bokura-ga-ita.webp",
      "imagem_pasta": "https://animefire.plus/img/animes/bokura-ga-ita/",
      "secao": "legendados",
      "pagina": 148,
      "total_episodios": 26,
      "link_video": "https://animefire.plus/video/bokura-ga-ita"
    },
    {
      "id": 472,
      "nome": "Bokura no Ameiro Protocol",
      "link": "https://animefire.plus/animes/bokura-no-ameiro-protocol-todos-os-episodios",
      "texto_original": "Bokura no Ameiro Protocol",
      "rating": 6.09,
      "classificacao_etaria": "A14",
      "imagem_original": "https://animefire.plus/img/animes/bokura-no-ameiro-protocol.webp",
      "imagem_pasta": "https://animefire.plus/img/animes/bokura-no-ameiro-protocol/",
      "secao": "legendados",
      "pagina": 19,
      "total_episodios": 12,
      "link_video": "https://animefire.plus/video/bokura-no-ameiro-protocol"
    },
    {
      "id": 473,
      "nome": "Bokura wa Minna Kawai-sou",
      "link": "https://animefire.plus/animes/bokura-wa-minna-kawai-sou-todos-os-episodios",
      "texto_original": "Bokura wa Minna Kawai-sou",
      "rating": 7.8,
      "classificacao_etaria": "A14",
      "imagem_original": "https://animefire.plus/img/animes/bokura-wa-minna-kawai-sou.webp",
      "imagem_pasta": "https://animefire.plus/img/animes/bokura-wa-minna-kawai-sou/",
      "secao": "legendados",
      "pagina": 166,
      "total_episodios": 12,
      "link_video": "https://animefire.plus/video/bokura-wa-minna-kawai-sou"
    },
    {
      "id": 477,
      "nome": "Bokutachi no Remake",
      "link": "https://animefire.plus/animes/bokutachi-no-remake-todos-os-episodios",
      "texto_original": "Bokutachi no Remake",
      "rating": 7.39,
      "classificacao_etaria": "A14",
      "imagem_original": "https://animefire.plus/img/animes/bokutachi-no-remake.webp",
      "imagem_pasta": "https://animefire.plus/img/animes/bokutachi-no-remake/",
      "secao": "legendados",
      "pagina": 41,
      "total_episodios": 12,
      "link_video": "https://animefire.plus/video/bokutachi-no-remake"
    },
    {
      "id": 478,
      "nome": "Bokutachi wa Benkyou ga Dekinai",
      "link": "https://animefire.plus/animes/bokutachi-wa-benkyou-ga-dekinai-todos-os-episodios",
      "texto_original": "Bokutachi wa Benkyou ga Dekinai",
      "rating": 7.33,
      "classificacao_etaria": "A14",
      "imagem_original": "https://animefire.plus/img/animes/bokutachi-wa-benkyou-ga-dekinai.webp",
      "imagem_pasta": "https://animefire.plus/img/animes/bokutachi-wa-benkyou-ga-dekinai/",
      "secao": "legendados",
      "pagina": 173,
      "total_episodios": 8,
      "link_video": "https://animefire.plus/video/bokutachi-wa-benkyou-ga-dekinai"
    },
    {
      "id": 479,
      "nome": "Bokutachi wa Benkyou ga Dekinai 2",
      "link": "https://animefire.plus/animes/bokutachi-wa-benkyou-ga-dekinai-2-todos-os-episodios",
      "texto_original": "Bokutachi wa Benkyou ga Dekinai 2",
      "rating": 7.36,
      "classificacao_etaria": "A14",
      "imagem_original": "https://animefire.plus/img/animes/bokutachi-wa-benkyou-ga-dekinai-2.webp",
      "imagem_pasta": "https://animefire.plus/img/animes/bokutachi-wa-benkyou-ga-dekinai-2/",
      "secao": "legendados",
      "pagina": 110,
      "total_episodios": 0,
      "link_video": "https://animefire.plus/video/bokutachi-wa-benkyou-ga-dekinai-2"
    },
    {
      "id": 480,
      "nome": "Bokutachi wa Benkyou ga Dekinai OVA",
      "link": "https://animefire.plus/animes/bokutachi-wa-benkyou-ga-dekinai-ova-todos-os-episodios",
      "texto_original": "Bokutachi wa Benkyou ga Dekinai OVA",
      "rating": 7.36,
      "classificacao_etaria": "A14",
      "imagem_original": "https://animefire.plus/img/animes/bokutachi-wa-benkyou-ga-dekinai-ova.webp",
      "imagem_pasta": "https://animefire.plus/img/animes/bokutachi-wa-benkyou-ga-dekinai-ova/",
      "secao": "legendados",
      "pagina": 80,
      "total_episodios": 2,
      "link_video": "https://animefire.plus/video/bokutachi-wa-benkyou-ga-dekinai-ova"
    },
    {
      "id": 483,
      "nome": "Boruto: Naruto Next Generations (Dublado)",
      "link": "https://animefire.plus/animes/boruto-naruto-next-generations-dublado-todos-os-episodios",
      "texto_original": "Boruto: Naruto Next Generations (Dublado)",
      "rating": 5.9,
      "classificacao_etaria": "A14",
      "imagem_original": "https://animefire.plus/img/animes/boruto-naruto-next-generations.webp",
      "imagem_pasta": "https://animefire.plus/img/animes/boruto-naruto-next-generations/",
      "secao": "dublados,legendados,lancamentos",
      "pagina": 13,
      "total_episodios": 104,
      "link_video": "https://animefire.plus/video/boruto-naruto-next-generations-dublado"
    },
    {
      "id": 484,
      "nome": "Botsuraku Yotei no Kizoku dakedo, Hima Datta kara Mahou wo Kiwametemita",
      "link": "https://animefire.plus/animes/botsuraku-yotei-no-kizoku-dakedo-hima-datta-kara-mahou-wo-kiwametemita-todos-os-episodios",
      "texto_original": "Botsuraku Yotei no Kizoku dakedo, Hima Datta kara Mahou wo Kiwametemita",
      "rating": 6.08,
      "classificacao_etaria": "A14",
      "imagem_original": "https://animefire.plus/img/animes/botsuraku-yotei-no-kizoku-dakedo-hima-datta-kara-mahou-wo-kiwametemita.webp",
      "imagem_pasta": "https://animefire.plus/img/animes/botsuraku-yotei-no-kizoku-dakedo-hima-datta-kara-mahou-wo-kiwametemita/",
      "secao": "legendados",
      "pagina": 7,
      "total_episodios": 12,
      "link_video": "https://animefire.plus/video/botsuraku-yotei-no-kizoku-dakedo-hima-datta-kara-mahou-wo-kiwametemita"
    },
    {
      "id": 487,
      "nome": "Boukensha ni Naritai to Miyako ni Deteitta Musume ga S-Rank ni Natteta",
      "link": "https://animefire.plus/animes/boukensha-ni-naritai-to-miyako-ni-deteitta-musume-ga-s-rank-ni-natteta-todos-os-episodios",
      "texto_original": "Boukensha ni Naritai to Miyako ni Deteitta Musume ga S-Rank ni Natteta",
      "rating": 6.76,
      "classificacao_etaria": "A14",
      "imagem_original": "https://animefire.plus/img/animes/boukensha-ni-naritai-to-miyako-ni-deteitta-musume-ga-s-rank-ni-natteta.webp",
      "imagem_pasta": "https://animefire.plus/img/animes/boukensha-ni-naritai-to-miyako-ni-deteitta-musume-ga-s-rank-ni-natteta/",
      "secao": "legendados",
      "pagina": 21,
      "total_episodios": 13,
      "link_video": "https://animefire.plus/video/boukensha-ni-naritai-to-miyako-ni-deteitta-musume-ga-s-rank-ni-natteta"
    },
    {
      "id": 488,
      "nome": "Boukyaku Battery",
      "link": "https://animefire.plus/animes/boukyaku-battery-todos-os-episodios",
      "texto_original": "Boukyaku Battery",
      "rating": 6.2,
      "classificacao_etaria": "A14",
      "imagem_original": "https://animefire.plus/img/animes/boukyaku-battery.webp",
      "imagem_pasta": "https://animefire.plus/img/animes/boukyaku-battery/",
      "secao": "legendados",
      "pagina": 14,
      "total_episodios": 0,
      "link_video": "https://animefire.plus/video/boukyaku-battery"
    },
    {
      "id": 489,
      "nome": "Boukyaku Battery (TV)",
      "link": "https://animefire.plus/animes/boukyaku-battery-tv-todos-os-episodios",
      "texto_original": "Boukyaku Battery (TV)",
      "rating": 7.52,
      "classificacao_etaria": "A14",
      "imagem_original": "https://animefire.plus/img/animes/boukyaku-battery-tv.webp",
      "imagem_pasta": "https://animefire.plus/img/animes/boukyaku-battery-tv/",
      "secao": "legendados",
      "pagina": 14,
      "total_episodios": 12,
      "link_video": "https://animefire.plus/video/boukyaku-battery-tv"
    },
    {
      "id": 490,
      "nome": "Bounen no Xamdou",
      "link": "https://animefire.plus/animes/bounen-no-xamdou-todos-os-episodios",
      "texto_original": "Bounen no Xamdou",
      "rating": 7.74,
      "classificacao_etaria": "A14",
      "imagem_original": "https://animefire.plus/img/animes/bounen-no-xamdou.webp",
      "imagem_pasta": "https://animefire.plus/img/animes/bounen-no-xamdou/",
      "secao": "legendados",
      "pagina": 175,
      "total_episodios": 26,
      "link_video": "https://animefire.plus/video/bounen-no-xamdou"
    },
    {
      "id": 491,
      "nome": "Boushoku no Berserk",
      "link": "https://animefire.plus/animes/boushoku-no-berserk-todos-os-episodios",
      "texto_original": "Boushoku no Berserk",
      "rating": 6.73,
      "classificacao_etaria": "A14",
      "imagem_original": "https://animefire.plus/img/animes/boushoku-no-berserk.webp",
      "imagem_pasta": "https://animefire.plus/img/animes/boushoku-no-berserk/",
      "secao": "legendados",
      "pagina": 20,
      "total_episodios": 12,
      "link_video": "https://animefire.plus/video/boushoku-no-berserk"
    },
    {
      "id": 492,
      "nome": "Boys Be...",
      "link": "https://animefire.plus/animes/boys-be-todos-os-episodios",
      "texto_original": "Boys Be...",
      "rating": 6.46,
      "classificacao_etaria": "A14",
      "imagem_original": "https://animefire.plus/img/animes/boys-be.webp",
      "imagem_pasta": "https://animefire.plus/img/animes/boys-be/",
      "secao": "legendados",
      "pagina": 54,
      "total_episodios": 13,
      "link_video": "https://animefire.plus/video/boys-be"
    },
    {
      "id": 493,
      "nome": "Brain Powerd",
      "link": "https://animefire.plus/animes/brain-powerd-todos-os-episodios",
      "texto_original": "Brain Powerd",
      "rating": 6.15,
      "classificacao_etaria": "A14",
      "imagem_original": "https://animefire.plus/img/animes/brain-powerd.webp",
      "imagem_pasta": "https://animefire.plus/img/animes/brain-powerd/",
      "secao": "legendados",
      "pagina": 170,
      "total_episodios": 26,
      "link_video": "https://animefire.plus/video/brain-powerd"
    },
    {
      "id": 499,
      "nome": "Breakers",
      "link": "https://animefire.plus/animes/breakers-todos-os-episodios",
      "texto_original": "Breakers",
      "rating": 6.35,
      "classificacao_etaria": "A14",
      "imagem_original": "https://animefire.plus/img/animes/breakers.webp",
      "imagem_pasta": "https://animefire.plus/img/animes/breakers/",
      "secao": "legendados",
      "pagina": 92,
      "total_episodios": 0,
      "link_video": "https://animefire.plus/video/breakers"
    },
    {
      "id": 501,
      "nome": "Bronze: Kouji Nanjo Cathexis",
      "link": "https://animefire.plus/animes/bronze-kouji-nanjo-cathexis-todos-os-episodios",
      "texto_original": "Bronze: Kouji Nanjo Cathexis",
      "rating": 6.32,
      "classificacao_etaria": "A14",
      "imagem_original": "https://animefire.plus/img/animes/bronze-kouji-nanjo-cathexis.webp",
      "imagem_pasta": "https://animefire.plus/img/animes/bronze-kouji-nanjo-cathexis/",
      "secao": "legendados",
      "pagina": 86,
      "total_episodios": 1,
      "link_video": "https://animefire.plus/video/bronze-kouji-nanjo-cathexis"
    }
  ],
  "pagination": {
    "current_page": 16,
    "per_page": 20,
    "total_items": 2988,
    "total_pages": 150,
    "has_next": true,
    "has_prev": true
  }
}
