{
  "message": "Animes com classificação etária: A14",
  "age_rating": "A14",
  "data": [
    {
      "id": 3148,
      "nome": "Rokuhoudou Yotsuiro Biyori",
      "link": "https://animefire.plus/animes/rokuhoudou-yotsuiro-biyori-todos-os-episodios",
      "texto_original": "Rokuhoudou Yotsuiro Biyori",
      "rating": 7.64,
      "classificacao_etaria": "A14",
      "imagem_original": "https://animefire.plus/img/animes/rokuhoudou-yotsuiro-biyori.webp",
      "imagem_pasta": "https://animefire.plus/img/animes/rokuhoudou-yotsuiro-biyori/",
      "secao": "legendados",
      "pagina": 152,
      "total_episodios": 9,
      "link_video": "https://animefire.plus/video/rokuhoudou-yotsuiro-biyori"
    },
    {
      "id": 3149,
      "nome": "Rokujouma no Shinryakusha!?",
      "link": "https://animefire.plus/animes/rokujouma-no-shinryakusha-todos-os-episodios",
      "texto_original": "Rokujouma no Shinryakusha!?",
      "rating": 7.27,
      "classificacao_etaria": "A14",
      "imagem_original": "https://animefire.plus/img/animes/rokujouma-no-shinryakusha.webp",
      "imagem_pasta": "https://animefire.plus/img/animes/rokujouma-no-shinryakusha/",
      "secao": "legendados",
      "pagina": 161,
      "total_episodios": 2,
      "link_video": "https://animefire.plus/video/rokujouma-no-shinryakusha"
    },
    {
      "id": 3150,
      "nome": "Rolling☆Girls",
      "link": "https://animefire.plus/animes/rolling-girls-todos-os-episodios",
      "texto_original": "Rolling☆Girls",
      "rating": 6.6,
      "classificacao_etaria": "A14",
      "imagem_original": "https://animefire.plus/img/animes/rolling-girls.webp",
      "imagem_pasta": "https://animefire.plus/img/animes/rolling-girls/",
      "secao": "legendados",
      "pagina": 56,
      "total_episodios": 12,
      "link_video": "https://animefire.plus/video/rolling-girls"
    },
    {
      "id": 3151,
      "nome": "Romantic Killer (Dublado)",
      "link": "https://animefire.plus/animes/romantic-killer-dublado-todos-os-episodios",
      "texto_original": "Romantic Killer (Dublado)",
      "rating": 7.94,
      "classificacao_etaria": "A14",
      "imagem_original": "https://animefire.plus/img/animes/romantic-killer.webp",
      "imagem_pasta": "https://animefire.plus/img/animes/romantic-killer/",
      "secao": "dublados,legendados",
      "pagina": 9,
      "total_episodios": 12,
      "link_video": "https://animefire.plus/video/romantic-killer-dublado"
    },
    {
      "id": 3153,
      "nome": "Romeo no Aoi Sora",
      "link": "https://animefire.plus/animes/romeo-no-aoi-sora-todos-os-episodios",
      "texto_original": "Romeo no Aoi Sora",
      "rating": 8.31,
      "classificacao_etaria": "A14",
      "imagem_original": "https://animefire.plus/img/animes/romeo-no-aoi-sora.webp",
      "imagem_pasta": "https://animefire.plus/img/animes/romeo-no-aoi-sora/",
      "secao": "legendados",
      "pagina": 121,
      "total_episodios": 33,
      "link_video": "https://animefire.plus/video/romeo-no-aoi-sora"
    },
    {
      "id": 3154,
      "nome": "Romeo x Juliet",
      "link": "https://animefire.plus/animes/romeo-x-juliet-todos-os-episodios",
      "texto_original": "Romeo x Juliet",
      "rating": 7.76,
      "classificacao_etaria": "A14",
      "imagem_original": "https://animefire.plus/img/animes/romeo-x-juliet.webp",
      "imagem_pasta": "https://animefire.plus/img/animes/romeo-x-juliet/",
      "secao": "legendados",
      "pagina": 133,
      "total_episodios": 24,
      "link_video": "https://animefire.plus/video/romeo-x-juliet"
    },
    {
      "id": 3155,
      "nome": "Room Mate",
      "link": "https://animefire.plus/animes/room-mate-todos-os-episodios",
      "texto_original": "Room Mate",
      "rating": 4.87,
      "classificacao_etaria": "A14",
      "imagem_original": "https://animefire.plus/img/animes/room-mate.webp",
      "imagem_pasta": "https://animefire.plus/img/animes/room-mate/",
      "secao": "legendados",
      "pagina": 114,
      "total_episodios": 12,
      "link_video": "https://animefire.plus/video/room-mate"
    },
    {
      "id": 3157,
      "nome": "Rosario to Vampire Capu2",
      "link": "https://animefire.plus/animes/rosario-to-vampire-capu2-todos-os-episodios",
      "texto_original": "Rosario to Vampire Capu2",
      "rating": 7.13,
      "classificacao_etaria": "A14",
      "imagem_original": "https://animefire.plus/img/animes/rosario-to-vampire-capu2.webp",
      "imagem_pasta": "https://animefire.plus/img/animes/rosario-to-vampire-capu2/",
      "secao": "legendados",
      "pagina": 144,
      "total_episodios": 13,
      "link_video": "https://animefire.plus/video/rosario-to-vampire-capu2"
    },
    {
      "id": 3158,
      "nome": "Rougo ni Sonaete Isekai de 8-manmai no Kinka wo Tamemasu (Dublado)",
      "link": "https://animefire.plus/animes/rougo-ni-sonaete-isekai-de-8-manmai-no-kinka-wo-tamemasu-dublado-todos-os-episodios",
      "texto_original": "Rougo ni Sonaete Isekai de 8-manmai no Kinka wo Tamemasu (Dublado)",
      "rating": 6.94,
      "classificacao_etaria": "A14",
      "imagem_original": "https://animefire.plus/img/animes/rougo-ni-sonaete-isekai-de-8-manmai-no-kinka-wo-tamemasu.webp",
      "imagem_pasta": "https://animefire.plus/img/animes/rougo-ni-sonaete-isekai-de-8-manmai-no-kinka-wo-tamemasu/",
      "secao": "dublados,legendados",
      "pagina": 5,
      "total_episodios": 12,
      "link_video": "https://animefire.plus/video/rougo-ni-sonaete-isekai-de-8-manmai-no-kinka-wo-tamemasu-dublado"
    },
    {
      "id": 3159,
      "nome": "Rozen Maiden",
      "link": "https://animefire.plus/animes/rozen-maiden-todos-os-episodios",
      "texto_original": "Rozen Maiden",
      "rating": 7.51,
      "classificacao_etaria": "A14",
      "imagem_original": "https://animefire.plus/img/animes/rozen-maiden.webp",
      "imagem_pasta": "https://animefire.plus/img/animes/rozen-maiden/",
      "secao": "legendados",
      "pagina": 128,
      "total_episodios": 1,
      "link_video": "https://animefire.plus/video/rozen-maiden"
    },
    {
      "id": 3160,
      "nome": "Rozen Maiden (2013)",
      "link": "https://animefire.plus/animes/rozen-maiden-2013-todos-os-episodios",
      "texto_original": "Rozen Maiden (2013)",
      "rating": 7.4,
      "classificacao_etaria": "A14",
      "imagem_original": "https://animefire.plus/img/animes/rozen-maiden-2013.webp",
      "imagem_pasta": "https://animefire.plus/img/animes/rozen-maiden-2013/",
      "secao": "legendados",
      "pagina": 111,
      "total_episodios": 4,
      "link_video": "https://animefire.plus/video/rozen-maiden-2013"
    },
    {
      "id": 3161,
      "nome": "Rozen Maiden: Träumend",
      "link": "https://animefire.plus/animes/rozen-maiden-traeumend-todos-os-episodios",
      "texto_original": "Rozen Maiden: Träumend",
      "rating": 7.72,
      "classificacao_etaria": "A14",
      "imagem_original": "https://animefire.plus/img/animes/rozen-maiden-traeumend.webp",
      "imagem_pasta": "https://animefire.plus/img/animes/rozen-maiden-traeumend/",
      "secao": "legendados",
      "pagina": 129,
      "total_episodios": 0,
      "link_video": "https://animefire.plus/video/rozen-maiden-traeumend"
    },
    {
      "id": 3162,
      "nome": "RPG Fudousan",
      "link": "https://animefire.plus/animes/rpg-fudousan-todos-os-episodios",
      "texto_original": "RPG Fudousan",
      "rating": 6.69,
      "classificacao_etaria": "A14",
      "imagem_original": "https://animefire.plus/img/animes/rpg-fudousan.webp",
      "imagem_pasta": "https://animefire.plus/img/animes/rpg-fudousan/",
      "secao": "legendados",
      "pagina": 34,
      "total_episodios": 12,
      "link_video": "https://animefire.plus/video/rpg-fudousan"
    },
    {
      "id": 3163,
      "nome": "Rumiko Takahashi Anthology",
      "link": "https://animefire.plus/animes/rumiko-takahashi-anthology-todos-os-episodios",
      "texto_original": "Rumiko Takahashi Anthology",
      "rating": 7.3,
      "classificacao_etaria": "A14",
      "imagem_original": "https://animefire.plus/img/animes/rumiko-takahashi-anthology.webp",
      "imagem_pasta": "https://animefire.plus/img/animes/rumiko-takahashi-anthology/",
      "secao": "legendados",
      "pagina": 179,
      "total_episodios": 13,
      "link_video": "https://animefire.plus/video/rumiko-takahashi-anthology"
    },
    {
      "id": 3164,
      "nome": "Runway de Waratte",
      "link": "https://animefire.plus/animes/runway-de-waratte-todos-os-episodios",
      "texto_original": "Runway de Waratte",
      "rating": 7.65,
      "classificacao_etaria": "A14",
      "imagem_original": "https://animefire.plus/img/animes/runway-de-waratte.webp",
      "imagem_pasta": "https://animefire.plus/img/animes/runway-de-waratte/",
      "secao": "legendados",
      "pagina": 92,
      "total_episodios": 0,
      "link_video": "https://animefire.plus/video/runway-de-waratte"
    },
    {
      "id": 3165,
      "nome": "Ruri no Houseki",
      "link": "https://animefire.plus/animes/ruri-no-houseki-todos-os-episodios",
      "texto_original": "Ruri no Houseki",
      "rating": 7.68,
      "classificacao_etaria": "A14",
      "imagem_original": "https://animefire.plus/img/animes/ruri-no-houseki.webp",
      "imagem_pasta": "https://animefire.plus/img/animes/ruri-no-houseki/",
      "secao": "legendados,lancamentos",
      "pagina": 2,
      "total_episodios": 5,
      "link_video": "https://animefire.plus/video/ruri-no-houseki"
    },
    {
      "id": 3167,
      "nome": "Rurouni Kenshin: Meiji Kenkaku Romantan (2023) (Dublado)",
      "link": "https://animefire.plus/animes/rurouni-kenshin-meiji-kenkaku-romantan-2023-dublado-todos-os-episodios",
      "texto_original": "Rurouni Kenshin: Meiji Kenkaku Romantan (2023) (Dublado)",
      "rating": 7.63,
      "classificacao_etaria": "A14",
      "imagem_original": "https://animefire.plus/img/animes/rurouni-kenshin-meiji-kenkaku-romantan-2023.webp",
      "imagem_pasta": "https://animefire.plus/img/animes/rurouni-kenshin-meiji-kenkaku-romantan-2023/",
      "secao": "dublados,legendados",
      "pagina": 6,
      "total_episodios": 24,
      "link_video": "https://animefire.plus/video/rurouni-kenshin-meiji-kenkaku-romantan-2023-dublado"
    },
    {
      "id": 3168,
      "nome": "Rurouni Kenshin: Meiji Kenkaku Romantan (Dublado)",
      "link": "https://animefire.plus/animes/rurouni-kenshin-meiji-kenkaku-romantan-dublado-todos-os-episodios",
      "texto_original": "Rurouni Kenshin: Meiji Kenkaku Romantan (Dublado)",
      "rating": 8.32,
      "classificacao_etaria": "A14",
      "imagem_original": "https://animefire.plus/img/animes/rurouni-kenshin-meiji-kenkaku-romantan.webp",
      "imagem_pasta": "https://animefire.plus/img/animes/rurouni-kenshin-meiji-kenkaku-romantan/",
      "secao": "dublados",
      "pagina": 20,
      "total_episodios": 95,
      "link_video": "https://animefire.plus/video/rurouni-kenshin-meiji-kenkaku-romantan-dublado"
    },
    {
      "id": 3169,
      "nome": "RWBY: Hyousetsu Teikoku",
      "link": "https://animefire.plus/animes/rwby-hyousetsu-teikoku-todos-os-episodios",
      "texto_original": "RWBY: Hyousetsu Teikoku",
      "rating": 6.35,
      "classificacao_etaria": "A14",
      "imagem_original": "https://animefire.plus/img/animes/rwby-hyousetsu-teikoku.webp",
      "imagem_pasta": "https://animefire.plus/img/animes/rwby-hyousetsu-teikoku/",
      "secao": "legendados",
      "pagina": 32,
      "total_episodios": 12,
      "link_video": "https://animefire.plus/video/rwby-hyousetsu-teikoku"
    },
    {
      "id": 3170,
      "nome": "Ryman's Club",
      "link": "https://animefire.plus/animes/ryman-s-club-todos-os-episodios",
      "texto_original": "Ryman's Club",
      "rating": 7.34,
      "classificacao_etaria": "A14",
      "imagem_original": "https://animefire.plus/img/animes/ryman-s-club.webp",
      "imagem_pasta": "https://animefire.plus/img/animes/ryman-s-club/",
      "secao": "legendados",
      "pagina": 35,
      "total_episodios": 12,
      "link_video": "https://animefire.plus/video/ryman-s-club"
    }
  ],
  "pagination": {
    "current_page": 105,
    "per_page": 20,
    "total_items": 2988,
    "total_pages": 150,
    "has_next": true,
    "has_prev": true
  }
}
