{
  "message": "Animes com classificação etária: A14",
  "age_rating": "A14",
  "data": [
    {
      "id": 3873,
      "nome": "Toji no Miko",
      "link": "https://animefire.plus/animes/toji-no-miko-todos-os-episodios",
      "texto_original": "Toji no Miko",
      "rating": 6.94,
      "classificacao_etaria": "A14",
      "imagem_original": "https://animefire.plus/img/animes/toji-no-miko.webp",
      "imagem_pasta": "https://animefire.plus/img/animes/toji-no-miko/",
      "secao": "legendados",
      "pagina": 175,
      "total_episodios": 25,
      "link_video": "https://animefire.plus/video/toji-no-miko"
    },
    {
      "id": 3874,
      "nome": "Toji no Miko: Kizamishi Issen no Tomoshibi OVA",
      "link": "https://animefire.plus/animes/toji-no-miko-kizamishi-issen-no-tomoshibi-ova-todos-os-episodios",
      "texto_original": "Toji no Miko: Kizamishi Issen no Tomoshibi OVA",
      "rating": 6.61,
      "classificacao_etaria": "A14",
      "imagem_original": "https://animefire.plus/img/animes/toji-no-miko-kizamishi-issen-no-tomoshibi-ova.webp",
      "imagem_pasta": "https://animefire.plus/img/animes/toji-no-miko-kizamishi-issen-no-tomoshibi-ova/",
      "secao": "legendados",
      "pagina": 50,
      "total_episodios": 2,
      "link_video": "https://animefire.plus/video/toji-no-miko-kizamishi-issen-no-tomoshibi-ova"
    },
    {
      "id": 3876,
      "nome": "Tokidoki Bosotto Russia-go de Dereru Tonari no Alya-san",
      "link": "https://animefire.plus/animes/tokidoki-bosotto-russia-go-de-dereru-tonari-no-alya-san-todos-os-episodios",
      "texto_original": "Tokidoki Bosotto Russia-go de Dereru Tonari no Alya-san",
      "rating": 7.57,
      "classificacao_etaria": "A14",
      "imagem_original": "https://animefire.plus/img/animes/tokidoki-bosotto-russia-go-de-dereru-tonari-no-alya-san.webp",
      "imagem_pasta": "https://animefire.plus/img/animes/tokidoki-bosotto-russia-go-de-dereru-tonari-no-alya-san/",
      "secao": "legendados",
      "pagina": 13,
      "total_episodios": 12,
      "link_video": "https://animefire.plus/video/tokidoki-bosotto-russia-go-de-dereru-tonari-no-alya-san"
    },
    {
      "id": 3877,
      "nome": "Tokimeki Memorial: Only Love",
      "link": "https://animefire.plus/animes/tokimeki-memorial-only-love-todos-os-episodios",
      "texto_original": "Tokimeki Memorial: Only Love",
      "rating": 7.13,
      "classificacao_etaria": "A14",
      "imagem_original": "https://animefire.plus/img/animes/tokimeki-memorial-only-love.webp",
      "imagem_pasta": "https://animefire.plus/img/animes/tokimeki-memorial-only-love/",
      "secao": "legendados",
      "pagina": 165,
      "total_episodios": 0,
      "link_video": "https://animefire.plus/video/tokimeki-memorial-only-love"
    },
    {
      "id": 3880,
      "nome": "Tokyo 24-ku",
      "link": "https://animefire.plus/animes/tokyo-24-ku-todos-os-episodios",
      "texto_original": "Tokyo 24-ku",
      "rating": 6.34,
      "classificacao_etaria": "A14",
      "imagem_original": "https://animefire.plus/img/animes/tokyo-24-ku.webp",
      "imagem_pasta": "https://animefire.plus/img/animes/tokyo-24-ku/",
      "secao": "legendados",
      "pagina": 35,
      "total_episodios": 12,
      "link_video": "https://animefire.plus/video/tokyo-24-ku"
    },
    {
      "id": 3887,
      "nome": "Tokyo Magnitude 8.0",
      "link": "https://animefire.plus/animes/tokyo-magnitude-8-0-todos-os-episodios",
      "texto_original": "Tokyo Magnitude 8.0",
      "rating": 8.13,
      "classificacao_etaria": "A14",
      "imagem_original": "https://animefire.plus/img/animes/tokyo-magnitude-8-0.webp",
      "imagem_pasta": "https://animefire.plus/img/animes/tokyo-magnitude-8-0/",
      "secao": "legendados",
      "pagina": 172,
      "total_episodios": 11,
      "link_video": "https://animefire.plus/video/tokyo-magnitude-8-0"
    },
    {
      "id": 3890,
      "nome": "Tokyo Marble Chocolate",
      "link": "https://animefire.plus/animes/tokyo-marble-chocolate-todos-os-episodios",
      "texto_original": "Tokyo Marble Chocolate",
      "rating": 7.24,
      "classificacao_etaria": "A14",
      "imagem_original": "https://animefire.plus/img/animes/tokyo-marble-chocolate.webp",
      "imagem_pasta": "https://animefire.plus/img/animes/tokyo-marble-chocolate/",
      "secao": "legendados",
      "pagina": 63,
      "total_episodios": 2,
      "link_video": "https://animefire.plus/video/tokyo-marble-chocolate"
    },
    {
      "id": 3891,
      "nome": "Tokyo Mew Mew",
      "link": "https://animefire.plus/animes/tokyo-mew-mew-todos-os-episodios",
      "texto_original": "Tokyo Mew Mew",
      "rating": 6.99,
      "classificacao_etaria": "A14",
      "imagem_original": "https://animefire.plus/img/animes/tokyo-mew-mew.webp",
      "imagem_pasta": "https://animefire.plus/img/animes/tokyo-mew-mew/",
      "secao": "legendados",
      "pagina": 54,
      "total_episodios": 52,
      "link_video": "https://animefire.plus/video/tokyo-mew-mew"
    },
    {
      "id": 3892,
      "nome": "Tokyo Mew Mew New ♡",
      "link": "https://animefire.plus/animes/tokyo-mew-mew-new-todos-os-episodios",
      "texto_original": "Tokyo Mew Mew New ♡",
      "rating": 6.61,
      "classificacao_etaria": "A14",
      "imagem_original": "https://animefire.plus/img/animes/tokyo-mew-mew-new.webp",
      "imagem_pasta": "https://animefire.plus/img/animes/tokyo-mew-mew-new/",
      "secao": "legendados",
      "pagina": 31,
      "total_episodios": 12,
      "link_video": "https://animefire.plus/video/tokyo-mew-mew-new"
    },
    {
      "id": 3893,
      "nome": "Tokyo Ravens",
      "link": "https://animefire.plus/animes/tokyo-ravens-todos-os-episodios",
      "texto_original": "Tokyo Ravens",
      "rating": 7.68,
      "classificacao_etaria": "A14",
      "imagem_original": "https://animefire.plus/img/animes/tokyo-ravens.webp",
      "imagem_pasta": "https://animefire.plus/img/animes/tokyo-ravens/",
      "secao": "legendados",
      "pagina": 127,
      "total_episodios": 5,
      "link_video": "https://animefire.plus/video/tokyo-ravens"
    },
    {
      "id": 3898,
      "nome": "Tokyo Underground",
      "link": "https://animefire.plus/animes/tokyo-underground-todos-os-episodios",
      "texto_original": "Tokyo Underground",
      "rating": 6.68,
      "classificacao_etaria": "A14",
      "imagem_original": "https://animefire.plus/img/animes/tokyo-underground.webp",
      "imagem_pasta": "https://animefire.plus/img/animes/tokyo-underground/",
      "secao": "legendados",
      "pagina": 146,
      "total_episodios": 26,
      "link_video": "https://animefire.plus/video/tokyo-underground"
    },
    {
      "id": 3899,
      "nome": "Tomo-chan wa Onnanoko!",
      "link": "https://animefire.plus/animes/tomo-chan-wa-onnanoko-todos-os-episodios",
      "texto_original": "Tomo-chan wa Onnanoko!",
      "rating": 7.73,
      "classificacao_etaria": "A14",
      "imagem_original": "https://animefire.plus/img/animes/tomo-chan-wa-onnanoko.webp",
      "imagem_pasta": "https://animefire.plus/img/animes/tomo-chan-wa-onnanoko/",
      "secao": "legendados",
      "pagina": 27,
      "total_episodios": 13,
      "link_video": "https://animefire.plus/video/tomo-chan-wa-onnanoko"
    },
    {
      "id": 3901,
      "nome": "Tonagura!",
      "link": "https://animefire.plus/animes/tonagura-todos-os-episodios",
      "texto_original": "Tonagura!",
      "rating": 6.81,
      "classificacao_etaria": "A14",
      "imagem_original": "https://animefire.plus/img/animes/tonagura.webp",
      "imagem_pasta": "https://animefire.plus/img/animes/tonagura/",
      "secao": "legendados",
      "pagina": 117,
      "total_episodios": 1,
      "link_video": "https://animefire.plus/video/tonagura"
    },
    {
      "id": 3902,
      "nome": "Tonari no Kaibutsu-kun",
      "link": "https://animefire.plus/animes/tonari-no-kaibutsu-kun-todos-os-episodios",
      "texto_original": "Tonari no Kaibutsu-kun",
      "rating": 7.67,
      "classificacao_etaria": "A14",
      "imagem_original": "https://animefire.plus/img/animes/tonari-no-kaibutsu-kun.webp",
      "imagem_pasta": "https://animefire.plus/img/animes/tonari-no-kaibutsu-kun/",
      "secao": "legendados",
      "pagina": 132,
      "total_episodios": 0,
      "link_video": "https://animefire.plus/video/tonari-no-kaibutsu-kun"
    },
    {
      "id": 3903,
      "nome": "Tonari no Kyuuketsuki-san",
      "link": "https://animefire.plus/animes/tonari-no-kyuuketsuki-san-todos-os-episodios",
      "texto_original": "Tonari no Kyuuketsuki-san",
      "rating": 7.18,
      "classificacao_etaria": "A14",
      "imagem_original": "https://animefire.plus/img/animes/tonari-no-kyuuketsuki-san.webp",
      "imagem_pasta": "https://animefire.plus/img/animes/tonari-no-kyuuketsuki-san/",
      "secao": "legendados",
      "pagina": 136,
      "total_episodios": 12,
      "link_video": "https://animefire.plus/video/tonari-no-kyuuketsuki-san"
    },
    {
      "id": 3907,
      "nome": "Tonari no Youkai-san",
      "link": "https://animefire.plus/animes/tonari-no-youkai-san-todos-os-episodios",
      "texto_original": "Tonari no Youkai-san",
      "rating": 7.28,
      "classificacao_etaria": "A14",
      "imagem_original": "https://animefire.plus/img/animes/tonari-no-youkai-san.webp",
      "imagem_pasta": "https://animefire.plus/img/animes/tonari-no-youkai-san/",
      "secao": "legendados",
      "pagina": 14,
      "total_episodios": 13,
      "link_video": "https://animefire.plus/video/tonari-no-youkai-san"
    },
    {
      "id": 3908,
      "nome": "Tondemo Skill de Isekai Hourou Meshi",
      "link": "https://animefire.plus/animes/tondemo-skill-de-isekai-hourou-meshi-todos-os-episodios",
      "texto_original": "Tondemo Skill de Isekai Hourou Meshi",
      "rating": 7.64,
      "classificacao_etaria": "A14",
      "imagem_original": "https://animefire.plus/img/animes/tondemo-skill-de-isekai-hourou-meshi.webp",
      "imagem_pasta": "https://animefire.plus/img/animes/tondemo-skill-de-isekai-hourou-meshi/",
      "secao": "legendados",
      "pagina": 26,
      "total_episodios": 12,
      "link_video": "https://animefire.plus/video/tondemo-skill-de-isekai-hourou-meshi"
    },
    {
      "id": 3909,
      "nome": "Tong Ling Fei",
      "link": "https://animefire.plus/animes/tong-ling-fei-todos-os-episodios",
      "texto_original": "Tong Ling Fei",
      "rating": 8.04,
      "classificacao_etaria": "A14",
      "imagem_original": "https://animefire.plus/img/animes/tong-ling-fei.webp",
      "imagem_pasta": "https://animefire.plus/img/animes/tong-ling-fei/",
      "secao": "legendados",
      "pagina": 128,
      "total_episodios": 16,
      "link_video": "https://animefire.plus/video/tong-ling-fei"
    },
    {
      "id": 3911,
      "nome": "Tonikaku Kawaii (Dublado)",
      "link": "https://animefire.plus/animes/tonikaku-kawaii-dublado-todos-os-episodios",
      "texto_original": "Tonikaku Kawaii (Dublado)",
      "rating": 7.96,
      "classificacao_etaria": "A14",
      "imagem_original": "https://animefire.plus/img/animes/tonikaku-kawaii.webp",
      "imagem_pasta": "https://animefire.plus/img/animes/tonikaku-kawaii/",
      "secao": "dublados,legendados,lancamentos",
      "pagina": 19,
      "total_episodios": 11,
      "link_video": "https://animefire.plus/video/tonikaku-kawaii-dublado"
    },
    {
      "id": 3912,
      "nome": "Tonikaku Kawaii 2nd Season (Dublado)",
      "link": "https://animefire.plus/animes/tonikaku-kawaii-2nd-season-dublado-todos-os-episodios",
      "texto_original": "Tonikaku Kawaii 2nd Season (Dublado)",
      "rating": 7.62,
      "classificacao_etaria": "A14",
      "imagem_original": "https://animefire.plus/img/animes/tonikaku-kawaii-2nd-season.webp",
      "imagem_pasta": "https://animefire.plus/img/animes/tonikaku-kawaii-2nd-season/",
      "secao": "dublados,legendados",
      "pagina": 7,
      "total_episodios": 12,
      "link_video": "https://animefire.plus/video/tonikaku-kawaii-2nd-season-dublado"
    }
  ],
  "pagination": {
    "current_page": 132,
    "per_page": 20,
    "total_items": 2988,
    "total_pages": 150,
    "has_next": true,
    "has_prev": true
  }
}
