{
  "message": "Animes com classificação etária: A14",
  "age_rating": "A14",
  "data": [
    {
      "id": 81,
      "nome": "Ai Monogatari: 9 Love Stories",
      "link": "https://animefire.plus/animes/ai-monogatari-9-love-stories-todos-os-episodios",
      "texto_original": "Ai Monogatari: 9 Love Stories",
      "rating": 6.63,
      "classificacao_etaria": "A14",
      "imagem_original": "https://animefire.plus/img/animes/ai-monogatari-9-love-stories.webp",
      "imagem_pasta": "https://animefire.plus/img/animes/ai-monogatari-9-love-stories/",
      "secao": "legendados",
      "pagina": 78,
      "total_episodios": 1,
      "link_video": "https://animefire.plus/video/ai-monogatari-9-love-stories"
    },
    {
      "id": 82,
      "nome": "AI no Idenshi",
      "link": "https://animefire.plus/animes/ai-no-idenshi-todos-os-episodios",
      "texto_original": "AI no Idenshi",
      "rating": 6.52,
      "classificacao_etaria": "A14",
      "imagem_original": "https://animefire.plus/img/animes/aI-no-idenshi.jpg",
      "imagem_pasta": "https://animefire.plus/img/animes/aI-no-idenshi/",
      "secao": "legendados",
      "pagina": 22,
      "total_episodios": 12,
      "link_video": "https://animefire.plus/video/ai-no-idenshi"
    },
    {
      "id": 84,
      "nome": "Ai Tenchi Muyou!",
      "link": "https://animefire.plus/animes/ai-tenchi-muyou-todos-os-episodios",
      "texto_original": "Ai Tenchi Muyou!",
      "rating": 6.27,
      "classificacao_etaria": "A14",
      "imagem_original": "https://animefire.plus/img/animes/ai-tenchi-muyou.webp",
      "imagem_pasta": "https://animefire.plus/img/animes/ai-tenchi-muyou/",
      "secao": "legendados",
      "pagina": 178,
      "total_episodios": 0,
      "link_video": "https://animefire.plus/video/ai-tenchi-muyou"
    },
    {
      "id": 86,
      "nome": "Ai Tenshi Densetsu Wedding Peach DX",
      "link": "https://animefire.plus/animes/ai-tenshi-densetsu-wedding-peach-dx-todos-os-episodios",
      "texto_original": "Ai Tenshi Densetsu Wedding Peach DX",
      "rating": 6.7,
      "classificacao_etaria": "A14",
      "imagem_original": "https://animefire.plus/img/animes/ai-tenshi-densetsu-wedding-peach-dx.webp",
      "imagem_pasta": "https://animefire.plus/img/animes/ai-tenshi-densetsu-wedding-peach-dx/",
      "secao": "legendados",
      "pagina": 84,
      "total_episodios": 1,
      "link_video": "https://animefire.plus/video/ai-tenshi-densetsu-wedding-peach-dx"
    },
    {
      "id": 87,
      "nome": "Ai Yori Aoshi",
      "link": "https://animefire.plus/animes/ai-yori-aoshi-todos-os-episodios",
      "texto_original": "Ai Yori Aoshi",
      "rating": 7.19,
      "classificacao_etaria": "A14",
      "imagem_original": "https://animefire.plus/img/animes/ai-yori-aoshi.webp",
      "imagem_pasta": "https://animefire.plus/img/animes/ai-yori-aoshi/",
      "secao": "legendados",
      "pagina": 166,
      "total_episodios": 24,
      "link_video": "https://animefire.plus/video/ai-yori-aoshi"
    },
    {
      "id": 88,
      "nome": "Ai Yori Aoshi: Enishi",
      "link": "https://animefire.plus/animes/ai-yori-aoshi-enishi-todos-os-episodios",
      "texto_original": "Ai Yori Aoshi: Enishi",
      "rating": 7.21,
      "classificacao_etaria": "A14",
      "imagem_original": "https://animefire.plus/img/animes/ai-yori-aoshi-enishi.webp",
      "imagem_pasta": "https://animefire.plus/img/animes/ai-yori-aoshi-enishi/",
      "secao": "legendados",
      "pagina": 118,
      "total_episodios": 12,
      "link_video": "https://animefire.plus/video/ai-yori-aoshi-enishi"
    },
    {
      "id": 101,
      "nome": "Aishen Qiaokeli-ing...",
      "link": "https://animefire.plus/animes/aishen-qiaokeli-ing-todos-os-episodios",
      "texto_original": "Aishen Qiaokeli-ing...",
      "rating": 7.06,
      "classificacao_etaria": "A14",
      "imagem_original": "https://animefire.plus/img/animes/aishen-qiaokeli-ing.webp",
      "imagem_pasta": "https://animefire.plus/img/animes/aishen-qiaokeli-ing/",
      "secao": "legendados",
      "pagina": 57,
      "total_episodios": 15,
      "link_video": "https://animefire.plus/video/aishen-qiaokeli-ing"
    },
    {
      "id": 102,
      "nome": "Aishen Qiaokeli-ing... 2nd Season",
      "link": "https://animefire.plus/animes/aishen-qiaokeli-ing-2nd-season-todos-os-episodios",
      "texto_original": "Aishen Qiaokeli-ing... 2nd Season",
      "rating": 7.43,
      "classificacao_etaria": "A14",
      "imagem_original": "https://animefire.plus/img/animes/aishen-qiaokeli-ing-2nd-season.webp",
      "imagem_pasta": "https://animefire.plus/img/animes/aishen-qiaokeli-ing-2nd-season/",
      "secao": "legendados",
      "pagina": 109,
      "total_episodios": 16,
      "link_video": "https://animefire.plus/video/aishen-qiaokeli-ing-2nd-season"
    },
    {
      "id": 103,
      "nome": "Aishiteruze Baby★★",
      "link": "https://animefire.plus/animes/aishiteruze-baby-todos-os-episodios",
      "texto_original": "Aishiteruze Baby★★",
      "rating": 7.54,
      "classificacao_etaria": "A14",
      "imagem_original": "https://animefire.plus/img/animes/aishiteruze-baby.webp",
      "imagem_pasta": "https://animefire.plus/img/animes/aishiteruze-baby/",
      "secao": "legendados",
      "pagina": 146,
      "total_episodios": 26,
      "link_video": "https://animefire.plus/video/aishiteruze-baby"
    },
    {
      "id": 107,
      "nome": "Akagami no Shirayuki-hime",
      "link": "https://animefire.plus/animes/akagami-no-shirayuki-hime-todos-os-episodios",
      "texto_original": "Akagami no Shirayuki-hime",
      "rating": 7.9,
      "classificacao_etaria": "A14",
      "imagem_original": "https://animefire.plus/img/animes/akagami-no-shirayuki-hime.webp",
      "imagem_pasta": "https://animefire.plus/img/animes/akagami-no-shirayuki-hime/",
      "secao": "legendados",
      "pagina": 178,
      "total_episodios": 12,
      "link_video": "https://animefire.plus/video/akagami-no-shirayuki-hime"
    },
    {
      "id": 108,
      "nome": "Akagami no Shirayuki-hime 2nd Season",
      "link": "https://animefire.plus/animes/akagami-no-shirayuki-hime-2nd-season-todos-os-episodios",
      "texto_original": "Akagami no Shirayuki-hime 2nd Season",
      "rating": 8.11,
      "classificacao_etaria": "A14",
      "imagem_original": "https://animefire.plus/img/animes/akagami-no-shirayuki-hime-2nd-season.webp",
      "imagem_pasta": "https://animefire.plus/img/animes/akagami-no-shirayuki-hime-2nd-season/",
      "secao": "legendados",
      "pagina": 158,
      "total_episodios": 0,
      "link_video": "https://animefire.plus/video/akagami-no-shirayuki-hime-2nd-season"
    },
    {
      "id": 109,
      "nome": "Akagami no Shirayuki-hime: Nandemonai Takaramono, Kono Page",
      "link": "https://animefire.plus/animes/akagami-no-shirayuki-hime-nandemonai-takaramono-kono-page-todos-os-episodios",
      "texto_original": "Akagami no Shirayuki-hime: Nandemonai Takaramono, Kono Page",
      "rating": 7.74,
      "classificacao_etaria": "A14",
      "imagem_original": "https://animefire.plus/img/animes/akagami-no-shirayuki-hime-nandemonai-takaramono-kono-page.webp",
      "imagem_pasta": "https://animefire.plus/img/animes/akagami-no-shirayuki-hime-nandemonai-takaramono-kono-page/",
      "secao": "legendados",
      "pagina": 78,
      "total_episodios": 1,
      "link_video": "https://animefire.plus/video/akagami-no-shirayuki-hime-nandemonai-takaramono-kono-page"
    },
    {
      "id": 111,
      "nome": "Akahori Gedou Hour Rabuge",
      "link": "https://animefire.plus/animes/akahori-gedou-hour-rabuge-todos-os-episodios",
      "texto_original": "Akahori Gedou Hour Rabuge",
      "rating": 6.25,
      "classificacao_etaria": "A14",
      "imagem_original": "https://animefire.plus/img/animes/akahori-gedou-hour-rabuge.webp",
      "imagem_pasta": "https://animefire.plus/img/animes/akahori-gedou-hour-rabuge/",
      "secao": "legendados",
      "pagina": 118,
      "total_episodios": 13,
      "link_video": "https://animefire.plus/video/akahori-gedou-hour-rabuge"
    },
    {
      "id": 113,
      "nome": "Akai Koudan Zillion (Dublado)",
      "link": "https://animefire.plus/animes/akai-koudan-zillion-dublado-todos-os-episodios",
      "texto_original": "Akai Koudan Zillion (Dublado)",
      "rating": 6.61,
      "classificacao_etaria": "A14",
      "imagem_original": "https://animefire.plus/img/animes/akai-koudan-zillion.webp",
      "imagem_pasta": "https://animefire.plus/img/animes/akai-koudan-zillion/",
      "secao": "dublados",
      "pagina": 23,
      "total_episodios": 20,
      "link_video": "https://animefire.plus/video/akai-koudan-zillion-dublado"
    },
    {
      "id": 115,
      "nome": "Akame ga Kill!: AkaKill! Gekijou",
      "link": "https://animefire.plus/animes/akame-ga-kill-akakill-gekijou-todos-os-episodios",
      "texto_original": "Akame ga Kill!: AkaKill! Gekijou",
      "rating": 6.62,
      "classificacao_etaria": "A14",
      "imagem_original": "https://animefire.plus/img/animes/akame-ga-kill-akakill-gekijou.webp",
      "imagem_pasta": "https://animefire.plus/img/animes/akame-ga-kill-akakill-gekijou/",
      "secao": "legendados",
      "pagina": 89,
      "total_episodios": 24,
      "link_video": "https://animefire.plus/video/akame-ga-kill-akakill-gekijou"
    },
    {
      "id": 117,
      "nome": "Akanesasu Shoujo",
      "link": "https://animefire.plus/animes/akanesasu-shoujo-todos-os-episodios",
      "texto_original": "Akanesasu Shoujo",
      "rating": 6.57,
      "classificacao_etaria": "A14",
      "imagem_original": "https://animefire.plus/img/animes/akanesasu-shoujo.webp",
      "imagem_pasta": "https://animefire.plus/img/animes/akanesasu-shoujo/",
      "secao": "legendados",
      "pagina": 153,
      "total_episodios": 12,
      "link_video": "https://animefire.plus/video/akanesasu-shoujo"
    },
    {
      "id": 118,
      "nome": "Akatsuki No Yona",
      "link": "https://animefire.plus/animes/akatsuki-no-yona-todos-os-episodios",
      "texto_original": "Akatsuki No Yona",
      "rating": 8.15,
      "classificacao_etaria": "A14",
      "imagem_original": "https://animefire.plus/img/animes/akatsuki-no-yona.webp",
      "imagem_pasta": "https://animefire.plus/img/animes/akatsuki-no-yona/",
      "secao": "legendados",
      "pagina": 149,
      "total_episodios": 0,
      "link_video": "https://animefire.plus/video/akatsuki-no-yona"
    },
    {
      "id": 119,
      "nome": "Akatsuki no Yona OVA",
      "link": "https://animefire.plus/animes/akatsuki-no-yona-ova-todos-os-episodios",
      "texto_original": "Akatsuki no Yona OVA",
      "rating": 8.16,
      "classificacao_etaria": "A14",
      "imagem_original": "https://animefire.plus/img/animes/akatsuki-no-yona-ova.webp",
      "imagem_pasta": "https://animefire.plus/img/animes/akatsuki-no-yona-ova/",
      "secao": "legendados",
      "pagina": 152,
      "total_episodios": 3,
      "link_video": "https://animefire.plus/video/akatsuki-no-yona-ova"
    },
    {
      "id": 120,
      "nome": "AKB0048",
      "link": "https://animefire.plus/animes/akb0048-todos-os-episodios",
      "texto_original": "AKB0048",
      "rating": 7.48,
      "classificacao_etaria": "A14",
      "imagem_original": "https://animefire.plus/img/animes/akb0048.webp",
      "imagem_pasta": "https://animefire.plus/img/animes/akb0048/",
      "secao": "legendados",
      "pagina": 128,
      "total_episodios": 13,
      "link_video": "https://animefire.plus/video/akb0048"
    },
    {
      "id": 121,
      "nome": "AKB0048: Next Stage",
      "link": "https://animefire.plus/animes/akb0048-next-stage-todos-os-episodios",
      "texto_original": "AKB0048: Next Stage",
      "rating": 7.75,
      "classificacao_etaria": "A14",
      "imagem_original": "https://animefire.plus/img/animes/akb0048-next-stage.webp",
      "imagem_pasta": "https://animefire.plus/img/animes/akb0048-next-stage/",
      "secao": "legendados",
      "pagina": 159,
      "total_episodios": 13,
      "link_video": "https://animefire.plus/video/akb0048-next-stage"
    }
  ],
  "pagination": {
    "current_page": 4,
    "per_page": 20,
    "total_items": 2988,
    "total_pages": 150,
    "has_next": true,
    "has_prev": true
  }
}
