{
  "message": "Animes com classificação etária: A14",
  "age_rating": "A14",
  "data": [
    {
      "id": 4247,
      "nome": "Yoroiden Samurai Troopers Kikoutei Densetsu",
      "link": "https://animefire.plus/animes/yoroiden-samurai-troopers-kikoutei-densetsu-todos-os-episodios",
      "texto_original": "Yoroiden Samurai Troopers Kikoutei Densetsu",
      "rating": 6.59,
      "classificacao_etaria": "A14",
      "imagem_original": "https://animefire.plus/img/animes/yoroiden-samurai-troopers-kikoutei-densetsu.webp",
      "imagem_pasta": "https://animefire.plus/img/animes/yoroiden-samurai-troopers-kikoutei-densetsu/",
      "secao": "legendados",
      "pagina": 79,
      "total_episodios": 4,
      "link_video": "https://animefire.plus/video/yoroiden-samurai-troopers-kikoutei-densetsu"
    },
    {
      "id": 4249,
      "nome": "Yoru no Kurage wa Oyogenai",
      "link": "https://animefire.plus/animes/yoru-no-kurage-wa-oyogenai-todos-os-episodios",
      "texto_original": "Yoru no Kurage wa Oyogenai",
      "rating": 7.75,
      "classificacao_etaria": "A14",
      "imagem_original": "https://animefire.plus/img/animes/yoru-no-kurage-wa-oyogenai.webp",
      "imagem_pasta": "https://animefire.plus/img/animes/yoru-no-kurage-wa-oyogenai/",
      "secao": "legendados",
      "pagina": 15,
      "total_episodios": 12,
      "link_video": "https://animefire.plus/video/yoru-no-kurage-wa-oyogenai"
    },
    {
      "id": 4250,
      "nome": "Yoru no Yatterman",
      "link": "https://animefire.plus/animes/yoru-no-yatterman-todos-os-episodios",
      "texto_original": "Yoru no Yatterman",
      "rating": 6.54,
      "classificacao_etaria": "A14",
      "imagem_original": "https://animefire.plus/img/animes/yoru-no-yatterman.webp",
      "imagem_pasta": "https://animefire.plus/img/animes/yoru-no-yatterman/",
      "secao": "legendados",
      "pagina": 95,
      "total_episodios": 8,
      "link_video": "https://animefire.plus/video/yoru-no-yatterman"
    },
    {
      "id": 4254,
      "nome": "Youjo Senki: Sabaku no Pasta Daisakusen",
      "link": "https://animefire.plus/animes/youjo-senki-sabaku-no-pasta-daisakusen-todos-os-episodios",
      "texto_original": "Youjo Senki: Sabaku no Pasta Daisakusen",
      "rating": 7.46,
      "classificacao_etaria": "A14",
      "imagem_original": "https://animefire.plus/img/animes/youjo-senki-sabaku-no-pasta-daisakusen.webp",
      "imagem_pasta": "https://animefire.plus/img/animes/youjo-senki-sabaku-no-pasta-daisakusen/",
      "secao": "legendados",
      "pagina": 40,
      "total_episodios": 1,
      "link_video": "https://animefire.plus/video/youjo-senki-sabaku-no-pasta-daisakusen"
    },
    {
      "id": 4255,
      "nome": "Youjo Shachou",
      "link": "https://animefire.plus/animes/youjo-shachou-todos-os-episodios",
      "texto_original": "Youjo Shachou",
      "rating": 6.59,
      "classificacao_etaria": "A14",
      "imagem_original": "https://animefire.plus/img/animes/youjo-shachou.webp",
      "imagem_pasta": "https://animefire.plus/img/animes/youjo-shachou/",
      "secao": "legendados,lancamentos",
      "pagina": 48,
      "total_episodios": 1,
      "link_video": "https://animefire.plus/video/youjo-shachou"
    },
    {
      "id": 4256,
      "nome": "Youkai Apartment no Yuuga na Nichijou",
      "link": "https://animefire.plus/animes/youkai-apartment-no-yuuga-na-nichijou-todos-os-episodios",
      "texto_original": "Youkai Apartment no Yuuga na Nichijou",
      "rating": 7.2,
      "classificacao_etaria": "A14",
      "imagem_original": "https://animefire.plus/img/animes/youkai-apartment-no-yuuga-na-nichijou.webp",
      "imagem_pasta": "https://animefire.plus/img/animes/youkai-apartment-no-yuuga-na-nichijou/",
      "secao": "legendados",
      "pagina": 117,
      "total_episodios": 17,
      "link_video": "https://animefire.plus/video/youkai-apartment-no-yuuga-na-nichijou"
    },
    {
      "id": 4257,
      "nome": "Youkai Gakkou no Sensei Hajimemashita!",
      "link": "https://animefire.plus/animes/youkai-gakkou-no-sensei-hajimemashita-todos-os-episodios",
      "texto_original": "Youkai Gakkou no Sensei Hajimemashita!",
      "rating": 7.27,
      "classificacao_etaria": "A14",
      "imagem_original": "https://animefire.plus/img/animes/youkai-gakkou-no-sensei-hajimemashita.webp",
      "imagem_pasta": "https://animefire.plus/img/animes/youkai-gakkou-no-sensei-hajimemashita/",
      "secao": "legendados",
      "pagina": 10,
      "total_episodios": 24,
      "link_video": "https://animefire.plus/video/youkai-gakkou-no-sensei-hajimemashita"
    },
    {
      "id": 4259,
      "nome": "Youkoso Jitsuryoku Shijou Shugi no Kyoushitsu e (Dublado)",
      "link": "https://animefire.plus/animes/youkoso-jitsuryoku-shijou-shugi-no-kyoushitsu-e-dublado-todos-os-episodios",
      "texto_original": "Youkoso Jitsuryoku Shijou Shugi no Kyoushitsu e (Dublado)",
      "rating": 7.86,
      "classificacao_etaria": "A14",
      "imagem_original": "https://animefire.plus/img/animes/youkoso-jitsuryoku-shijou-shugi-no-kyoushitsu-e.webp",
      "imagem_pasta": "https://animefire.plus/img/animes/youkoso-jitsuryoku-shijou-shugi-no-kyoushitsu-e/",
      "secao": "dublados",
      "pagina": 10,
      "total_episodios": 12,
      "link_video": "https://animefire.plus/video/youkoso-jitsuryoku-shijou-shugi-no-kyoushitsu-e-dublado"
    },
    {
      "id": 4260,
      "nome": "Youkoso Jitsuryoku Shijou Shugi no Kyoushitsu e (TV)",
      "link": "https://animefire.plus/animes/youkoso-jitsuryoku-shijou-shugi-no-kyoushitsu-e-tv-todos-os-episodios",
      "texto_original": "Youkoso Jitsuryoku Shijou Shugi no Kyoushitsu e (TV)",
      "rating": 7.91,
      "classificacao_etaria": "A14",
      "imagem_original": "https://animefire.plus/img/animes/youkoso-jitsuryoku-shijou-shugi-no-kyoushitsu-e-tv.webp",
      "imagem_pasta": "https://animefire.plus/img/animes/youkoso-jitsuryoku-shijou-shugi-no-kyoushitsu-e-tv/",
      "secao": "legendados",
      "pagina": 91,
      "total_episodios": 0,
      "link_video": "https://animefire.plus/video/youkoso-jitsuryoku-shijou-shugi-no-kyoushitsu-e-tv"
    },
    {
      "id": 4261,
      "nome": "Youkoso Jitsuryoku Shijou Shugi no Kyoushitsu e (TV) 2nd Season (Dublado)",
      "link": "https://animefire.plus/animes/youkoso-jitsuryoku-shijou-shugi-no-kyoushitsu-e-tv-2nd-season-dublado-todos-os-episodios",
      "texto_original": "Youkoso Jitsuryoku Shijou Shugi no Kyoushitsu e (TV) 2nd Season (Dublado)",
      "rating": 8.07,
      "classificacao_etaria": "A14",
      "imagem_original": "https://animefire.plus/img/animes/youkoso-jitsuryoku-shijou-shugi-no-kyoushitsu-e-tv-2nd-season.webp",
      "imagem_pasta": "https://animefire.plus/img/animes/youkoso-jitsuryoku-shijou-shugi-no-kyoushitsu-e-tv-2nd-season/",
      "secao": "dublados,legendados,lancamentos",
      "pagina": 10,
      "total_episodios": 13,
      "link_video": "https://animefire.plus/video/youkoso-jitsuryoku-shijou-shugi-no-kyoushitsu-e-tv-2nd-season-dublado"
    },
    {
      "id": 4262,
      "nome": "Youkoso Jitsuryoku Shijou Shugi no Kyoushitsu e 2nd Season (Dublado)",
      "link": "https://animefire.plus/animes/youkoso-jitsuryoku-shijou-shugi-no-kyoushitsu-e-2nd-season-dublado-todos-os-episodios",
      "texto_original": "Youkoso Jitsuryoku Shijou Shugi no Kyoushitsu e 2nd Season (Dublado)",
      "rating": 8.07,
      "classificacao_etaria": "A14",
      "imagem_original": "https://animefire.plus/img/animes/youkoso-jitsuryoku-shijou-shugi-no-kyoushitsu-e-2nd-season.webp",
      "imagem_pasta": "https://animefire.plus/img/animes/youkoso-jitsuryoku-shijou-shugi-no-kyoushitsu-e-2nd-season/",
      "secao": "dublados",
      "pagina": 8,
      "total_episodios": 13,
      "link_video": "https://animefire.plus/video/youkoso-jitsuryoku-shijou-shugi-no-kyoushitsu-e-2nd-season-dublado"
    },
    {
      "id": 4264,
      "nome": "Youkoso Jitsuryoku Shijou Shugi no Kyoushitsu e 3rd Season (Dublado)",
      "link": "https://animefire.plus/animes/youkoso-jitsuryoku-shijou-shugi-no-kyoushitsu-e-3-dublado-todos-os-episodios",
      "texto_original": "Youkoso Jitsuryoku Shijou Shugi no Kyoushitsu e 3rd Season (Dublado)",
      "rating": 7.95,
      "classificacao_etaria": "A14",
      "imagem_original": "https://animefire.plus/img/animes/youkoso-jitsuryoku-shijou-shugi-no-kyoushitsu-e-3.webp",
      "imagem_pasta": "https://animefire.plus/img/animes/youkoso-jitsuryoku-shijou-shugi-no-kyoushitsu-e-3/",
      "secao": "dublados,lancamentos",
      "pagina": 3,
      "total_episodios": 10,
      "link_video": "https://animefire.plus/video/youkoso-jitsuryoku-shijou-shugi-no-kyoushitsu-e-3-dublado"
    },
    {
      "id": 4265,
      "nome": "Young Black Jack",
      "link": "https://animefire.plus/animes/young-black-jack-todos-os-episodios",
      "texto_original": "Young Black Jack",
      "rating": 7.29,
      "classificacao_etaria": "A14",
      "imagem_original": "https://animefire.plus/img/animes/young-black-jack.webp",
      "imagem_pasta": "https://animefire.plus/img/animes/young-black-jack/",
      "secao": "legendados",
      "pagina": 114,
      "total_episodios": 12,
      "link_video": "https://animefire.plus/video/young-black-jack"
    },
    {
      "id": 4266,
      "nome": "Your Forma",
      "link": "https://animefire.plus/animes/your-forma-todos-os-episodios",
      "texto_original": "Your Forma",
      "rating": 6.25,
      "classificacao_etaria": "A14",
      "imagem_original": "https://animefire.plus/img/animes/your-forma.webp",
      "imagem_pasta": "https://animefire.plus/img/animes/your-forma/",
      "secao": "legendados",
      "pagina": 5,
      "total_episodios": 13,
      "link_video": "https://animefire.plus/video/your-forma"
    },
    {
      "id": 4267,
      "nome": "Yowai 5000-nen no Soushoku Dragon, Iwarenaki Jaryuu Nintei",
      "link": "https://animefire.plus/animes/yowai-5000-nen-no-soushoku-dragon-iwarenaki-jaryuu-nintei-todos-os-episodios",
      "texto_original": "Yowai 5000-nen no Soushoku Dragon, Iwarenaki Jaryuu Nintei",
      "rating": 6.74,
      "classificacao_etaria": "A14",
      "imagem_original": "https://animefire.plus/img/animes/yowai-5000-nen-no-soushoku-dragon-iwarenaki-jaryuu-nintei.webp",
      "imagem_pasta": "https://animefire.plus/img/animes/yowai-5000-nen-no-soushoku-dragon-iwarenaki-jaryuu-nintei/",
      "secao": "legendados",
      "pagina": 30,
      "total_episodios": 12,
      "link_video": "https://animefire.plus/video/yowai-5000-nen-no-soushoku-dragon-iwarenaki-jaryuu-nintei"
    },
    {
      "id": 4268,
      "nome": "Yowamushi Pedal",
      "link": "https://animefire.plus/animes/yowamushi-pedal-todos-os-episodios",
      "texto_original": "Yowamushi Pedal",
      "rating": 8.04,
      "classificacao_etaria": "A14",
      "imagem_original": "https://animefire.plus/img/animes/yowamushi-pedal.webp",
      "imagem_pasta": "https://animefire.plus/img/animes/yowamushi-pedal/",
      "secao": "legendados",
      "pagina": 63,
      "total_episodios": 38,
      "link_video": "https://animefire.plus/video/yowamushi-pedal"
    },
    {
      "id": 4269,
      "nome": "Yowamushi Pedal: Grande Road",
      "link": "https://animefire.plus/animes/yowamushi-pedal-grande-road-todos-os-episodios",
      "texto_original": "Yowamushi Pedal: Grande Road",
      "rating": 8.16,
      "classificacao_etaria": "A14",
      "imagem_original": "https://animefire.plus/img/animes/yowamushi-pedal-grande-road.webp",
      "imagem_pasta": "https://animefire.plus/img/animes/yowamushi-pedal-grande-road/",
      "secao": "legendados",
      "pagina": 76,
      "total_episodios": 24,
      "link_video": "https://animefire.plus/video/yowamushi-pedal-grande-road"
    },
    {
      "id": 4270,
      "nome": "Yowamushi Pedal: Limit Break",
      "link": "https://animefire.plus/animes/yowamushi-pedal-limit-break-todos-os-episodios",
      "texto_original": "Yowamushi Pedal: Limit Break",
      "rating": 7.39,
      "classificacao_etaria": "A14",
      "imagem_original": "https://animefire.plus/img/animes/yowamushi-pedal-limit-break.webp",
      "imagem_pasta": "https://animefire.plus/img/animes/yowamushi-pedal-limit-break/",
      "secao": "legendados,lancamentos",
      "pagina": 29,
      "total_episodios": 1,
      "link_video": "https://animefire.plus/video/yowamushi-pedal-limit-break"
    },
    {
      "id": 4271,
      "nome": "Yowamushi Pedal: New Generation",
      "link": "https://animefire.plus/animes/yowamushi-pedal-new-generation-todos-os-episodios",
      "texto_original": "Yowamushi Pedal: New Generation",
      "rating": 7.75,
      "classificacao_etaria": "A14",
      "imagem_original": "https://animefire.plus/img/animes/yowamushi-pedal-new-generation.webp",
      "imagem_pasta": "https://animefire.plus/img/animes/yowamushi-pedal-new-generation/",
      "secao": "legendados",
      "pagina": 64,
      "total_episodios": 25,
      "link_video": "https://animefire.plus/video/yowamushi-pedal-new-generation"
    },
    {
      "id": 4272,
      "nome": "Yozakura Quartet",
      "link": "https://animefire.plus/animes/yozakura-quartet-todos-os-episodios",
      "texto_original": "Yozakura Quartet",
      "rating": 6.89,
      "classificacao_etaria": "A14",
      "imagem_original": "https://animefire.plus/img/animes/yozakura-quartet.webp",
      "imagem_pasta": "https://animefire.plus/img/animes/yozakura-quartet/",
      "secao": "legendados",
      "pagina": 136,
      "total_episodios": 12,
      "link_video": "https://animefire.plus/video/yozakura-quartet"
    }
  ],
  "pagination": {
    "current_page": 146,
    "per_page": 20,
    "total_items": 2988,
    "total_pages": 150,
    "has_next": true,
    "has_prev": true
  }
}
