{
  "message": "Animes com classificação etária: A14",
  "age_rating": "A14",
  "data": [
    {
      "id": 585,
      "nome": "Casshern: Robot Hunter",
      "link": "https://animefire.plus/animes/casshern-robot-hunter-todos-os-episodios",
      "texto_original": "Casshern: Robot Hunter",
      "rating": 6.36,
      "classificacao_etaria": "A14",
      "imagem_original": "https://animefire.plus/img/animes/casshern-robot-hunter.webp",
      "imagem_pasta": "https://animefire.plus/img/animes/casshern-robot-hunter/",
      "secao": "legendados",
      "pagina": 55,
      "total_episodios": 4,
      "link_video": "https://animefire.plus/video/casshern-robot-hunter"
    },
    {
      "id": 586,
      "nome": "Cencoroll",
      "link": "https://animefire.plus/animes/cencoroll-todos-os-episodios",
      "texto_original": "Cencoroll",
      "rating": 7.24,
      "classificacao_etaria": "A14",
      "imagem_original": "https://animefire.plus/img/animes/cencoroll.webp",
      "imagem_pasta": "https://animefire.plus/img/animes/cencoroll/",
      "secao": "legendados",
      "pagina": 83,
      "total_episodios": 0,
      "link_video": "https://animefire.plus/video/cencoroll"
    },
    {
      "id": 588,
      "nome": "Cestvs: The Roman Fighter",
      "link": "https://animefire.plus/animes/cestvs-the-roman-fighter-todos-os-episodios",
      "texto_original": "Cestvs: The Roman Fighter",
      "rating": 5.96,
      "classificacao_etaria": "A14",
      "imagem_original": "https://animefire.plus/img/animes/cestvs-the-roman-fighter.webp",
      "imagem_pasta": "https://animefire.plus/img/animes/cestvs-the-roman-fighter/",
      "secao": "legendados",
      "pagina": 45,
      "total_episodios": 11,
      "link_video": "https://animefire.plus/video/cestvs-the-roman-fighter"
    },
    {
      "id": 589,
      "nome": "Chain Chronicle: Haecceitas no Hikari",
      "link": "https://animefire.plus/animes/chain-chronicle-haecceitas-no-hikari-todos-os-episodios",
      "texto_original": "Chain Chronicle: Haecceitas no Hikari",
      "rating": 6.79,
      "classificacao_etaria": "A14",
      "imagem_original": "https://animefire.plus/img/animes/chain-chronicle-haecceitas-no-hikari.webp",
      "imagem_pasta": "https://animefire.plus/img/animes/chain-chronicle-haecceitas-no-hikari/",
      "secao": "legendados",
      "pagina": 95,
      "total_episodios": 12,
      "link_video": "https://animefire.plus/video/chain-chronicle-haecceitas-no-hikari"
    },
    {
      "id": 591,
      "nome": "Chao Neng Lifang: Chaofan Pian",
      "link": "https://animefire.plus/animes/chao-neng-lifang-chaofan-pian-todos-os-episodios",
      "texto_original": "Chao Neng Lifang: Chaofan Pian",
      "rating": 7.23,
      "classificacao_etaria": "A14",
      "imagem_original": "https://animefire.plus/img/animes/chao-neng-lifang-chaofan-pian.webp",
      "imagem_pasta": "https://animefire.plus/img/animes/chao-neng-lifang-chaofan-pian/",
      "secao": "legendados",
      "pagina": 3,
      "total_episodios": 12,
      "link_video": "https://animefire.plus/video/chao-neng-lifang-chaofan-pian"
    },
    {
      "id": 595,
      "nome": "Charlotte",
      "link": "https://animefire.plus/animes/charlotte-todos-os-episodios",
      "texto_original": "Charlotte",
      "rating": 7.9,
      "classificacao_etaria": "A14",
      "imagem_original": "https://animefire.plus/img/animes/charlotte.webp",
      "imagem_pasta": "https://animefire.plus/img/animes/charlotte/",
      "secao": "legendados",
      "pagina": 98,
      "total_episodios": 13,
      "link_video": "https://animefire.plus/video/charlotte"
    },
    {
      "id": 596,
      "nome": "Charlotte: Tsuyoimono-tachi",
      "link": "https://animefire.plus/animes/charlotte-tsuyoimono-tachi-todos-os-episodios",
      "texto_original": "Charlotte: Tsuyoimono-tachi",
      "rating": 7.51,
      "classificacao_etaria": "A14",
      "imagem_original": "https://animefire.plus/img/animes/charlotte-tsuyoimono-tachi.webp",
      "imagem_pasta": "https://animefire.plus/img/animes/charlotte-tsuyoimono-tachi/",
      "secao": "legendados",
      "pagina": 71,
      "total_episodios": 1,
      "link_video": "https://animefire.plus/video/charlotte-tsuyoimono-tachi"
    },
    {
      "id": 597,
      "nome": "Cheat Kusushi no Slow Life: Isekai ni Tsukurou Drugstore",
      "link": "https://animefire.plus/animes/cheat-kusushi-no-slow-life-isekai-ni-tsukurou-drugstore-todos-os-episodios",
      "texto_original": "Cheat Kusushi no Slow Life: Isekai ni Tsukurou Drugstore",
      "rating": 6.45,
      "classificacao_etaria": "A14",
      "imagem_original": "https://animefire.plus/img/animes/cheat-kusushi-no-slow-life-isekai-ni-tsukurou-drugstore.webp",
      "imagem_pasta": "https://animefire.plus/img/animes/cheat-kusushi-no-slow-life-isekai-ni-tsukurou-drugstore/",
      "secao": "legendados",
      "pagina": 41,
      "total_episodios": 12,
      "link_video": "https://animefire.plus/video/cheat-kusushi-no-slow-life-isekai-ni-tsukurou-drugstore"
    },
    {
      "id": 598,
      "nome": "Cheating Craft",
      "link": "https://animefire.plus/animes/cheating-craft-todos-os-episodios",
      "texto_original": "Cheating Craft",
      "rating": 5.54,
      "classificacao_etaria": "A14",
      "imagem_original": "https://animefire.plus/img/animes/cheating-craft.webp",
      "imagem_pasta": "https://animefire.plus/img/animes/cheating-craft/",
      "secao": "legendados",
      "pagina": 131,
      "total_episodios": 11,
      "link_video": "https://animefire.plus/video/cheating-craft"
    },
    {
      "id": 599,
      "nome": "Cheer Danshi!!",
      "link": "https://animefire.plus/animes/cheer-danshi-todos-os-episodios",
      "texto_original": "Cheer Danshi!!",
      "rating": 6.81,
      "classificacao_etaria": "A14",
      "imagem_original": "https://animefire.plus/img/animes/cheer-danshi.webp",
      "imagem_pasta": "https://animefire.plus/img/animes/cheer-danshi/",
      "secao": "legendados",
      "pagina": 162,
      "total_episodios": 0,
      "link_video": "https://animefire.plus/video/cheer-danshi"
    },
    {
      "id": 601,
      "nome": "Chiba Pedal: Yowamushi Pedal to Manabu Jitensha Koutsuu Anzen",
      "link": "https://animefire.plus/animes/chiba-pedal-yowamushi-pedal-to-manabu-jitensha-koutsuu-anzen-todos-os-episodios",
      "texto_original": "Chiba Pedal: Yowamushi Pedal to Manabu Jitensha Koutsuu Anzen",
      "rating": 6.31,
      "classificacao_etaria": "A14",
      "imagem_original": "https://animefire.plus/img/animes/chiba-pedal-yowamushi-pedal-to-manabu-jitensha-koutsuu-anzen.webp",
      "imagem_pasta": "https://animefire.plus/img/animes/chiba-pedal-yowamushi-pedal-to-manabu-jitensha-koutsuu-anzen/",
      "secao": "legendados",
      "pagina": 86,
      "total_episodios": 6,
      "link_video": "https://animefire.plus/video/chiba-pedal-yowamushi-pedal-to-manabu-jitensha-koutsuu-anzen"
    },
    {
      "id": 603,
      "nome": "Chihayafuru",
      "link": "https://animefire.plus/animes/chihayafuru-todos-os-episodios",
      "texto_original": "Chihayafuru",
      "rating": 8.27,
      "classificacao_etaria": "A14",
      "imagem_original": "https://animefire.plus/img/animes/chihayafuru.webp",
      "imagem_pasta": "https://animefire.plus/img/animes/chihayafuru/",
      "secao": "legendados",
      "pagina": 144,
      "total_episodios": 25,
      "link_video": "https://animefire.plus/video/chihayafuru"
    },
    {
      "id": 604,
      "nome": "Chihayafuru 2",
      "link": "https://animefire.plus/animes/chihayafuru-2-todos-os-episodios",
      "texto_original": "Chihayafuru 2",
      "rating": 8.45,
      "classificacao_etaria": "A14",
      "imagem_original": "https://animefire.plus/img/animes/chihayafuru-2.webp",
      "imagem_pasta": "https://animefire.plus/img/animes/chihayafuru-2/",
      "secao": "legendados",
      "pagina": 163,
      "total_episodios": 25,
      "link_video": "https://animefire.plus/video/chihayafuru-2"
    },
    {
      "id": 605,
      "nome": "Chihayafuru 3",
      "link": "https://animefire.plus/animes/chihayafuru-3-todos-os-episodios",
      "texto_original": "Chihayafuru 3",
      "rating": 8.52,
      "classificacao_etaria": "A14",
      "imagem_original": "https://animefire.plus/img/animes/chihayafuru-3.webp",
      "imagem_pasta": "https://animefire.plus/img/animes/chihayafuru-3/",
      "secao": "legendados",
      "pagina": 95,
      "total_episodios": 0,
      "link_video": "https://animefire.plus/video/chihayafuru-3"
    },
    {
      "id": 608,
      "nome": "Chikyuu Shoujo Arjuna (Dublado)",
      "link": "https://animefire.plus/animes/chikyuu-shoujo-arjuna-dublado-todos-os-episodios",
      "texto_original": "Chikyuu Shoujo Arjuna (Dublado)",
      "rating": 6.91,
      "classificacao_etaria": "A14",
      "imagem_original": "https://animefire.plus/img/animes/chikyuu-shoujo-arjuna.webp",
      "imagem_pasta": "https://animefire.plus/img/animes/chikyuu-shoujo-arjuna/",
      "secao": "dublados,legendados",
      "pagina": 27,
      "total_episodios": 9,
      "link_video": "https://animefire.plus/video/chikyuu-shoujo-arjuna-dublado"
    },
    {
      "id": 609,
      "nome": "Chikyuugai Shounen Shoujo",
      "link": "https://animefire.plus/animes/chikyuugai-shounen-shoujo-todos-os-episodios",
      "texto_original": "Chikyuugai Shounen Shoujo",
      "rating": 6.82,
      "classificacao_etaria": "A14",
      "imagem_original": "https://animefire.plus/img/animes/chikyuugai-shounen-shoujo.webp",
      "imagem_pasta": "https://animefire.plus/img/animes/chikyuugai-shounen-shoujo/",
      "secao": "legendados",
      "pagina": 35,
      "total_episodios": 1,
      "link_video": "https://animefire.plus/video/chikyuugai-shounen-shoujo"
    },
    {
      "id": 611,
      "nome": "Chio-chan no Tsuugakuro",
      "link": "https://animefire.plus/animes/chio-chan-no-tsuugakuro-todos-os-episodios",
      "texto_original": "Chio-chan no Tsuugakuro",
      "rating": 7.5,
      "classificacao_etaria": "A14",
      "imagem_original": "https://animefire.plus/img/animes/chio-chan-no-tsuugakuro.webp",
      "imagem_pasta": "https://animefire.plus/img/animes/chio-chan-no-tsuugakuro/",
      "secao": "legendados",
      "pagina": 146,
      "total_episodios": 12,
      "link_video": "https://animefire.plus/video/chio-chan-no-tsuugakuro"
    },
    {
      "id": 612,
      "nome": "Chiryokumaru",
      "link": "https://animefire.plus/animes/chiryokumaru-todos-os-episodios",
      "texto_original": "Chiryokumaru",
      "rating": 5.18,
      "classificacao_etaria": "A14",
      "imagem_original": "https://animefire.plus/img/animes/chiryokumaru.webp",
      "imagem_pasta": "https://animefire.plus/img/animes/chiryokumaru/",
      "secao": "legendados",
      "pagina": 70,
      "total_episodios": 1,
      "link_video": "https://animefire.plus/video/chiryokumaru"
    },
    {
      "id": 613,
      "nome": "Chitose Get You!!",
      "link": "https://animefire.plus/animes/chitose-get-you-todos-os-episodios",
      "texto_original": "Chitose Get You!!",
      "rating": 6.35,
      "classificacao_etaria": "A14",
      "imagem_original": "https://animefire.plus/img/animes/chitose-get-you.webp",
      "imagem_pasta": "https://animefire.plus/img/animes/chitose-get-you/",
      "secao": "legendados",
      "pagina": 167,
      "total_episodios": 0,
      "link_video": "https://animefire.plus/video/chitose-get-you"
    },
    {
      "id": 615,
      "nome": "Chiyu Mahou no Machigatta Tsukaikata (Dublado)",
      "link": "https://animefire.plus/animes/chiyu-mahou-no-machigatta-tsukaikata-dublado-todos-os-episodios",
      "texto_original": "Chiyu Mahou no Machigatta Tsukaikata (Dublado)",
      "rating": 7.53,
      "classificacao_etaria": "A14",
      "imagem_original": "https://animefire.plus/img/animes/chiyu-mahou-no-machigatta-tsukaikata.webp",
      "imagem_pasta": "https://animefire.plus/img/animes/chiyu-mahou-no-machigatta-tsukaikata/",
      "secao": "dublados,legendados,lancamentos",
      "pagina": 3,
      "total_episodios": 13,
      "link_video": "https://animefire.plus/video/chiyu-mahou-no-machigatta-tsukaikata-dublado"
    }
  ],
  "pagination": {
    "current_page": 20,
    "per_page": 20,
    "total_items": 2988,
    "total_pages": 150,
    "has_next": true,
    "has_prev": true
  }
}
