{
  "message": "Animes com classificação etária: A14",
  "age_rating": "A14",
  "data": [
    {
      "id": 2326,
      "nome": "Mahou Senshi Louie",
      "link": "https://animefire.plus/animes/mahou-senshi-louie-todos-os-episodios",
      "texto_original": "Mahou Senshi Louie",
      "rating": 7.22,
      "classificacao_etaria": "A14",
      "imagem_original": "https://animefire.plus/img/animes/mahou-senshi-louie.webp",
      "imagem_pasta": "https://animefire.plus/img/animes/mahou-senshi-louie/",
      "secao": "legendados",
      "pagina": 126,
      "total_episodios": 8,
      "link_video": "https://animefire.plus/video/mahou-senshi-louie"
    },
    {
      "id": 2327,
      "nome": "Mahou Sensou",
      "link": "https://animefire.plus/animes/mahou-sensou-todos-os-episodios",
      "texto_original": "Mahou Sensou",
      "rating": 6.14,
      "classificacao_etaria": "A14",
      "imagem_original": "https://animefire.plus/img/animes/mahou-sensou.webp",
      "imagem_pasta": "https://animefire.plus/img/animes/mahou-sensou/",
      "secao": "legendados",
      "pagina": 122,
      "total_episodios": 12,
      "link_video": "https://animefire.plus/video/mahou-sensou"
    },
    {
      "id": 2330,
      "nome": "Mahou Shoujo Lyrical Nanoha",
      "link": "https://animefire.plus/animes/mahou-shoujo-lyrical-nanoha-todos-os-episodios",
      "texto_original": "Mahou Shoujo Lyrical Nanoha",
      "rating": 7.47,
      "classificacao_etaria": "A14",
      "imagem_original": "https://animefire.plus/img/animes/mahou-shoujo-lyrical-nanoha.webp",
      "imagem_pasta": "https://animefire.plus/img/animes/mahou-shoujo-lyrical-nanoha/",
      "secao": "legendados",
      "pagina": 153,
      "total_episodios": 13,
      "link_video": "https://animefire.plus/video/mahou-shoujo-lyrical-nanoha"
    },
    {
      "id": 2331,
      "nome": "Mahou Shoujo Lyrical Nanoha A's",
      "link": "https://animefire.plus/animes/mahou-shoujo-lyrical-nanoha-a-s-todos-os-episodios",
      "texto_original": "Mahou Shoujo Lyrical Nanoha A's",
      "rating": 8.04,
      "classificacao_etaria": "A14",
      "imagem_original": "https://animefire.plus/img/animes/mahou-shoujo-lyrical-nanoha-a-s.webp",
      "imagem_pasta": "https://animefire.plus/img/animes/mahou-shoujo-lyrical-nanoha-a-s/",
      "secao": "legendados",
      "pagina": 147,
      "total_episodios": 13,
      "link_video": "https://animefire.plus/video/mahou-shoujo-lyrical-nanoha-a-s"
    },
    {
      "id": 2332,
      "nome": "Mahou Shoujo Lyrical Nanoha StrikerS",
      "link": "https://animefire.plus/animes/mahou-shoujo-lyrical-nanoha-strikers-todos-os-episodios",
      "texto_original": "Mahou Shoujo Lyrical Nanoha StrikerS",
      "rating": 7.7,
      "classificacao_etaria": "A14",
      "imagem_original": "https://animefire.plus/img/animes/mahou-shoujo-lyrical-nanoha-strikers.webp",
      "imagem_pasta": "https://animefire.plus/img/animes/mahou-shoujo-lyrical-nanoha-strikers/",
      "secao": "legendados",
      "pagina": 121,
      "total_episodios": 12,
      "link_video": "https://animefire.plus/video/mahou-shoujo-lyrical-nanoha-strikers"
    },
    {
      "id": 2333,
      "nome": "Mahou Shoujo Lyrical Nanoha ViVid",
      "link": "https://animefire.plus/animes/mahou-shoujo-lyrical-nanoha-vivid-todos-os-episodios",
      "texto_original": "Mahou Shoujo Lyrical Nanoha ViVid",
      "rating": 6.76,
      "classificacao_etaria": "A14",
      "imagem_original": "https://animefire.plus/img/animes/mahou-shoujo-lyrical-nanoha-vivid.webp",
      "imagem_pasta": "https://animefire.plus/img/animes/mahou-shoujo-lyrical-nanoha-vivid/",
      "secao": "legendados",
      "pagina": 60,
      "total_episodios": 0,
      "link_video": "https://animefire.plus/video/mahou-shoujo-lyrical-nanoha-vivid"
    },
    {
      "id": 2334,
      "nome": "Mahou Shoujo Madoka★Magica",
      "link": "https://animefire.plus/animes/mahou-shoujo-madoka-magica-todos-os-episodios",
      "texto_original": "Mahou Shoujo Madoka★Magica",
      "rating": 8.43,
      "classificacao_etaria": "A14",
      "imagem_original": "https://animefire.plus/img/animes/mahou-shoujo-madoka-magica.webp",
      "imagem_pasta": "https://animefire.plus/img/animes/mahou-shoujo-madoka-magica/",
      "secao": "legendados",
      "pagina": 172,
      "total_episodios": 12,
      "link_video": "https://animefire.plus/video/mahou-shoujo-madoka-magica"
    },
    {
      "id": 2335,
      "nome": "Mahou Shoujo Magical Destroyers",
      "link": "https://animefire.plus/animes/mahou-shoujo-magical-destroyers-todos-os-episodios",
      "texto_original": "Mahou Shoujo Magical Destroyers",
      "rating": 6.25,
      "classificacao_etaria": "A14",
      "imagem_original": "https://animefire.plus/img/animes/mahou-shoujo-magical-destroyers.jpg",
      "imagem_pasta": "https://animefire.plus/img/animes/mahou-shoujo-magical-destroyers/",
      "secao": "legendados",
      "pagina": 23,
      "total_episodios": 12,
      "link_video": "https://animefire.plus/video/mahou-shoujo-magical-destroyers"
    },
    {
      "id": 2336,
      "nome": "Mahou Shoujo Nante Mou Ii Desukara.",
      "link": "https://animefire.plus/animes/mahou-shoujo-nante-mou-ii-desukara-todos-os-episodios",
      "texto_original": "Mahou Shoujo Nante Mou Ii Desukara.",
      "rating": 5.97,
      "classificacao_etaria": "A14",
      "imagem_original": "https://animefire.plus/img/animes/mahou-shoujo-nante-mou-ii-desukara.webp",
      "imagem_pasta": "https://animefire.plus/img/animes/mahou-shoujo-nante-mou-ii-desukara/",
      "secao": "legendados",
      "pagina": 140,
      "total_episodios": 1,
      "link_video": "https://animefire.plus/video/mahou-shoujo-nante-mou-ii-desukara"
    },
    {
      "id": 2337,
      "nome": "Mahou Shoujo Nante Mou Ii Desukara. Second Season",
      "link": "https://animefire.plus/animes/mahou-shoujo-nante-mou-ii-desukara-second-season-todos-os-episodios",
      "texto_original": "Mahou Shoujo Nante Mou Ii Desukara. Second Season",
      "rating": 6.08,
      "classificacao_etaria": "A14",
      "imagem_original": "https://animefire.plus/img/animes/mahou-shoujo-nante-mou-ii-desukara-second-season.webp",
      "imagem_pasta": "https://animefire.plus/img/animes/mahou-shoujo-nante-mou-ii-desukara-second-season/",
      "secao": "legendados",
      "pagina": 78,
      "total_episodios": 12,
      "link_video": "https://animefire.plus/video/mahou-shoujo-nante-mou-ii-desukara-second-season"
    },
    {
      "id": 2339,
      "nome": "Mahou Shoujo Ore",
      "link": "https://animefire.plus/animes/mahou-shoujo-ore-todos-os-episodios",
      "texto_original": "Mahou Shoujo Ore",
      "rating": 6.7,
      "classificacao_etaria": "A14",
      "imagem_original": "https://animefire.plus/img/animes/mahou-shoujo-ore.webp",
      "imagem_pasta": "https://animefire.plus/img/animes/mahou-shoujo-ore/",
      "secao": "legendados",
      "pagina": 121,
      "total_episodios": 12,
      "link_video": "https://animefire.plus/video/mahou-shoujo-ore"
    },
    {
      "id": 2341,
      "nome": "Mahou Shoujo Taisen",
      "link": "https://animefire.plus/animes/mahou-shoujo-taisen-todos-os-episodios",
      "texto_original": "Mahou Shoujo Taisen",
      "rating": 5.79,
      "classificacao_etaria": "A14",
      "imagem_original": "https://animefire.plus/img/animes/mahou-shoujo-taisen.webp",
      "imagem_pasta": "https://animefire.plus/img/animes/mahou-shoujo-taisen/",
      "secao": "legendados",
      "pagina": 159,
      "total_episodios": 11,
      "link_video": "https://animefire.plus/video/mahou-shoujo-taisen"
    },
    {
      "id": 2343,
      "nome": "Mahou Shoujo? Naria☆Girls",
      "link": "https://animefire.plus/animes/mahou-shoujo-naria-girls-todos-os-episodios",
      "texto_original": "Mahou Shoujo? Naria☆Girls",
      "rating": 3.84,
      "classificacao_etaria": "A14",
      "imagem_original": "https://animefire.plus/img/animes/mahou-shoujo-naria-girls.webp",
      "imagem_pasta": "https://animefire.plus/img/animes/mahou-shoujo-naria-girls/",
      "secao": "legendados",
      "pagina": 98,
      "total_episodios": 12,
      "link_video": "https://animefire.plus/video/mahou-shoujo-naria-girls"
    },
    {
      "id": 2344,
      "nome": "Mahoujin Guruguru (2017)",
      "link": "https://animefire.plus/animes/mahoujin-guruguru-2017-todos-os-episodios",
      "texto_original": "Mahoujin Guruguru (2017)",
      "rating": 7.89,
      "classificacao_etaria": "A14",
      "imagem_original": "https://animefire.plus/img/animes/mahoujin-guruguru-2017.webp",
      "imagem_pasta": "https://animefire.plus/img/animes/mahoujin-guruguru-2017/",
      "secao": "legendados",
      "pagina": 76,
      "total_episodios": 24,
      "link_video": "https://animefire.plus/video/mahoujin-guruguru-2017"
    },
    {
      "id": 2345,
      "nome": "Mahouka Koukou No Rettousei",
      "link": "https://animefire.plus/animes/mahouka-koukou-no-rettousei-todos-os-episodios",
      "texto_original": "Mahouka Koukou No Rettousei",
      "rating": 7.69,
      "classificacao_etaria": "A14",
      "imagem_original": "https://animefire.plus/img/animes/mahouka-koukou-no-rettousei.webp",
      "imagem_pasta": "https://animefire.plus/img/animes/mahouka-koukou-no-rettousei/",
      "secao": "legendados",
      "pagina": 100,
      "total_episodios": 26,
      "link_video": "https://animefire.plus/video/mahouka-koukou-no-rettousei"
    },
    {
      "id": 2347,
      "nome": "Mahouka Koukou no Rettousei: Raihousha-hen",
      "link": "https://animefire.plus/animes/mahouka-koukou-no-rettousei-raihousha-hen-todos-os-episodios",
      "texto_original": "Mahouka Koukou no Rettousei: Raihousha-hen",
      "rating": null,
      "classificacao_etaria": "A14",
      "imagem_original": "https://animefire.plus/img/animes/mahouka-koukou-no-rettousei-raihousha-hen.webp",
      "imagem_pasta": "https://animefire.plus/img/animes/mahouka-koukou-no-rettousei-raihousha-hen/",
      "secao": "legendados",
      "pagina": 53,
      "total_episodios": 13,
      "link_video": "https://animefire.plus/video/mahouka-koukou-no-rettousei-raihousha-hen"
    },
    {
      "id": 2348,
      "nome": "Mahouka Koukou no Rettousei: Tsuioku-hen",
      "link": "https://animefire.plus/animes/mahouka-koukou-no-rettousei-tsuioku-hen-todos-os-episodios",
      "texto_original": "Mahouka Koukou no Rettousei: Tsuioku-hen",
      "rating": 7.66,
      "classificacao_etaria": "A14",
      "imagem_original": "https://animefire.plus/img/animes/mahouka-koukou-no-rettousei-tsuioku-hen.webp",
      "imagem_pasta": "https://animefire.plus/img/animes/mahouka-koukou-no-rettousei-tsuioku-hen/",
      "secao": "legendados",
      "pagina": 36,
      "total_episodios": 1,
      "link_video": "https://animefire.plus/video/mahouka-koukou-no-rettousei-tsuioku-hen"
    },
    {
      "id": 2349,
      "nome": "Mahouka Koukou no Yuutousei",
      "link": "https://animefire.plus/animes/mahouka-koukou-no-yuutousei-todos-os-episodios",
      "texto_original": "Mahouka Koukou no Yuutousei",
      "rating": 6.68,
      "classificacao_etaria": "A14",
      "imagem_original": "https://animefire.plus/img/animes/mahouka-koukou-no-yuutousei.webp",
      "imagem_pasta": "https://animefire.plus/img/animes/mahouka-koukou-no-yuutousei/",
      "secao": "legendados",
      "pagina": 45,
      "total_episodios": 0,
      "link_video": "https://animefire.plus/video/mahouka-koukou-no-yuutousei"
    },
    {
      "id": 2350,
      "nome": "Mahoutsukai ni Narenakatta Onnanoko no Hanashi",
      "link": "https://animefire.plus/animes/mahoutsukai-ni-narenakatta-onnanoko-no-hanashi-todos-os-episodios",
      "texto_original": "Mahoutsukai ni Narenakatta Onnanoko no Hanashi",
      "rating": 6.16,
      "classificacao_etaria": "A14",
      "imagem_original": "https://animefire.plus/img/animes/mahoutsukai-ni-narenakatta-onnanoko-no-hanashi.webp",
      "imagem_pasta": "https://animefire.plus/img/animes/mahoutsukai-ni-narenakatta-onnanoko-no-hanashi/",
      "secao": "legendados",
      "pagina": 10,
      "total_episodios": 12,
      "link_video": "https://animefire.plus/video/mahoutsukai-ni-narenakatta-onnanoko-no-hanashi"
    },
    {
      "id": 2352,
      "nome": "Mahoutsukai no Yakusoku",
      "link": "https://animefire.plus/animes/mahoutsukai-no-yakusoku-todos-os-episodios",
      "texto_original": "Mahoutsukai no Yakusoku",
      "rating": 5.49,
      "classificacao_etaria": "A14",
      "imagem_original": "https://animefire.plus/img/animes/mahoutsukai-no-yakusoku.webp",
      "imagem_pasta": "https://animefire.plus/img/animes/mahoutsukai-no-yakusoku/",
      "secao": "legendados",
      "pagina": 7,
      "total_episodios": 12,
      "link_video": "https://animefire.plus/video/mahoutsukai-no-yakusoku"
    }
  ],
  "pagination": {
    "current_page": 77,
    "per_page": 20,
    "total_items": 2988,
    "total_pages": 150,
    "has_next": true,
    "has_prev": true
  }
}
