{
  "message": "Animes com classificação etária: A14",
  "age_rating": "A14",
  "data": [
    {
      "id": 1212,
      "nome": "Gokujo.: Gokurakuin Joshikou Ryou Monogatari",
      "link": "https://animefire.plus/animes/gokujo-gokurakuin-joshikou-ryou-monogatari-todos-os-episodios",
      "texto_original": "Gokujo.: Gokurakuin Joshikou Ryou Monogatari",
      "rating": 6.21,
      "classificacao_etaria": "A14",
      "imagem_original": "https://animefire.plus/img/animes/gokujo-gokurakuin-joshikou-ryou-monogatari.webp",
      "imagem_pasta": "https://animefire.plus/img/animes/gokujo-gokurakuin-joshikou-ryou-monogatari/",
      "secao": "legendados",
      "pagina": 76,
      "total_episodios": 12,
      "link_video": "https://animefire.plus/video/gokujo-gokurakuin-joshikou-ryou-monogatari"
    },
    {
      "id": 1216,
      "nome": "Gokushufudou (Dublado)",
      "link": "https://animefire.plus/animes/gokushufudou-dublado-todos-os-episodios",
      "texto_original": "Gokushufudou (Dublado)",
      "rating": 7.26,
      "classificacao_etaria": "A14",
      "imagem_original": "https://animefire.plus/img/animes/gokushufudou.webp",
      "imagem_pasta": "https://animefire.plus/img/animes/gokushufudou/",
      "secao": "dublados,legendados",
      "pagina": 18,
      "total_episodios": 6,
      "link_video": "https://animefire.plus/video/gokushufudou-dublado"
    },
    {
      "id": 1217,
      "nome": "Gokushufudou Part 2 (Dublado)",
      "link": "https://animefire.plus/animes/gokushufudou-part-2-dublado-todos-os-episodios",
      "texto_original": "Gokushufudou Part 2 (Dublado)",
      "rating": 7.54,
      "classificacao_etaria": "A14",
      "imagem_original": "https://animefire.plus/img/animes/gokushufudou-part-2.webp",
      "imagem_pasta": "https://animefire.plus/img/animes/gokushufudou-part-2/",
      "secao": "dublados,legendados",
      "pagina": 15,
      "total_episodios": 5,
      "link_video": "https://animefire.plus/video/gokushufudou-part-2-dublado"
    },
    {
      "id": 1218,
      "nome": "Gokushufudou Season 2 (Dublado)",
      "link": "https://animefire.plus/animes/gokushufudou-season-2-dublado-todos-os-episodios",
      "texto_original": "Gokushufudou Season 2 (Dublado)",
      "rating": 7.57,
      "classificacao_etaria": "A14",
      "imagem_original": "https://animefire.plus/img/animes/gokushufudou-season-2.webp",
      "imagem_pasta": "https://animefire.plus/img/animes/gokushufudou-season-2/",
      "secao": "dublados,legendados",
      "pagina": 8,
      "total_episodios": 5,
      "link_video": "https://animefire.plus/video/gokushufudou-season-2-dublado"
    },
    {
      "id": 1226,
      "nome": "Golden Time",
      "link": "https://animefire.plus/animes/golden-time-todos-os-episodios",
      "texto_original": "Golden Time",
      "rating": 7.87,
      "classificacao_etaria": "A14",
      "imagem_original": "https://animefire.plus/img/animes/golden-time.webp",
      "imagem_pasta": "https://animefire.plus/img/animes/golden-time/",
      "secao": "legendados",
      "pagina": 162,
      "total_episodios": 6,
      "link_video": "https://animefire.plus/video/golden-time"
    },
    {
      "id": 1230,
      "nome": "Gorilla no Kami kara Kago sareta Reijou wa Ouritsu Kishidan de Kawaigarareru",
      "link": "https://animefire.plus/animes/gorilla-no-kami-kara-kago-sareta-reijou-wa-ouritsu-kishidan-de-kawaigarareru-todos-os-episodios",
      "texto_original": "Gorilla no Kami kara Kago sareta Reijou wa Ouritsu Kishidan de Kawaigarareru",
      "rating": 6.52,
      "classificacao_etaria": "A14",
      "imagem_original": "https://animefire.plus/img/animes/gorilla-no-kami-kara-kago-sareta-reijou-wa-ouritsu-kishidan-de-kawaigarareru.webp",
      "imagem_pasta": "https://animefire.plus/img/animes/gorilla-no-kami-kara-kago-sareta-reijou-wa-ouritsu-kishidan-de-kawaigarareru/",
      "secao": "legendados",
      "pagina": 5,
      "total_episodios": 12,
      "link_video": "https://animefire.plus/video/gorilla-no-kami-kara-kago-sareta-reijou-wa-ouritsu-kishidan-de-kawaigarareru"
    },
    {
      "id": 1234,
      "nome": "Goukon ni Ittara Onna ga Inakatta Hanashi",
      "link": "https://animefire.plus/animes/goukon-ni-ittara-onna-ga-inakatta-hanashi-todos-os-episodios",
      "texto_original": "Goukon ni Ittara Onna ga Inakatta Hanashi",
      "rating": 7.4,
      "classificacao_etaria": "A14",
      "imagem_original": "https://animefire.plus/img/animes/goukon-ni-ittara-onna-ga-inakatta-hanashi.webp",
      "imagem_pasta": "https://animefire.plus/img/animes/goukon-ni-ittara-onna-ga-inakatta-hanashi/",
      "secao": "legendados",
      "pagina": 9,
      "total_episodios": 12,
      "link_video": "https://animefire.plus/video/goukon-ni-ittara-onna-ga-inakatta-hanashi"
    },
    {
      "id": 1235,
      "nome": "Granbelm",
      "link": "https://animefire.plus/animes/granbelm-todos-os-episodios",
      "texto_original": "Granbelm",
      "rating": 6.75,
      "classificacao_etaria": "A14",
      "imagem_original": "https://animefire.plus/img/animes/granbelm.webp",
      "imagem_pasta": "https://animefire.plus/img/animes/granbelm/",
      "secao": "legendados",
      "pagina": 174,
      "total_episodios": 7,
      "link_video": "https://animefire.plus/video/granbelm"
    },
    {
      "id": 1236,
      "nome": "Granblue Fantasy The Animation",
      "link": "https://animefire.plus/animes/granblue-fantasy-the-animation-todos-os-episodios",
      "texto_original": "Granblue Fantasy The Animation",
      "rating": 6.8,
      "classificacao_etaria": "A14",
      "imagem_original": "https://animefire.plus/img/animes/granblue-fantasy-the-animation.webp",
      "imagem_pasta": "https://animefire.plus/img/animes/granblue-fantasy-the-animation/",
      "secao": "legendados",
      "pagina": 110,
      "total_episodios": 13,
      "link_video": "https://animefire.plus/video/granblue-fantasy-the-animation"
    },
    {
      "id": 1237,
      "nome": "Granblue Fantasy The Animation Season 2",
      "link": "https://animefire.plus/animes/granblue-fantasy-the-animation-season-2-todos-os-episodios",
      "texto_original": "Granblue Fantasy The Animation Season 2",
      "rating": 6.78,
      "classificacao_etaria": "A14",
      "imagem_original": "https://animefire.plus/img/animes/granblue-fantasy-the-animation-season-2.webp",
      "imagem_pasta": "https://animefire.plus/img/animes/granblue-fantasy-the-animation-season-2/",
      "secao": "legendados",
      "pagina": 110,
      "total_episodios": 13,
      "link_video": "https://animefire.plus/video/granblue-fantasy-the-animation-season-2"
    },
    {
      "id": 1238,
      "nome": "Granblue Fantasy The Animation: Kabocha no Lantern",
      "link": "https://animefire.plus/animes/granblue-fantasy-the-animation-kabocha-no-lantern-todos-os-episodios",
      "texto_original": "Granblue Fantasy The Animation: Kabocha no Lantern",
      "rating": 6.67,
      "classificacao_etaria": "A14",
      "imagem_original": "https://animefire.plus/img/animes/granblue-fantasy-the-animation-kabocha-no-lantern.webp",
      "imagem_pasta": "https://animefire.plus/img/animes/granblue-fantasy-the-animation-kabocha-no-lantern/",
      "secao": "legendados",
      "pagina": 88,
      "total_episodios": 1,
      "link_video": "https://animefire.plus/video/granblue-fantasy-the-animation-kabocha-no-lantern"
    },
    {
      "id": 1241,
      "nome": "Grand Blue",
      "link": "https://animefire.plus/animes/grand-blue-todos-os-episodios",
      "texto_original": "Grand Blue",
      "rating": 8.42,
      "classificacao_etaria": "A14",
      "imagem_original": "https://animefire.plus/img/animes/grand-blue.webp",
      "imagem_pasta": "https://animefire.plus/img/animes/grand-blue/",
      "secao": "legendados",
      "pagina": 142,
      "total_episodios": 12,
      "link_video": "https://animefire.plus/video/grand-blue"
    },
    {
      "id": 1242,
      "nome": "Grand Blue Season 2",
      "link": "https://animefire.plus/animes/grand-blue-season-2-todos-os-episodios",
      "texto_original": "Grand Blue Season 2",
      "rating": 8.72,
      "classificacao_etaria": "A14",
      "imagem_original": "https://animefire.plus/img/animes/grand-blue-season-2.webp",
      "imagem_pasta": "https://animefire.plus/img/animes/grand-blue-season-2/",
      "secao": "legendados,lancamentos",
      "pagina": 3,
      "total_episodios": 4,
      "link_video": "https://animefire.plus/video/grand-blue-season-2"
    },
    {
      "id": 1245,
      "nome": "Grappler Baki (TV)",
      "link": "https://animefire.plus/animes/grappler-baki-tv-todos-os-episodios",
      "texto_original": "Grappler Baki (TV)",
      "rating": 7.49,
      "classificacao_etaria": "A14",
      "imagem_original": "https://animefire.plus/img/animes/grappler-baki-tv.webp",
      "imagem_pasta": "https://animefire.plus/img/animes/grappler-baki-tv/",
      "secao": "legendados",
      "pagina": 173,
      "total_episodios": 24,
      "link_video": "https://animefire.plus/video/grappler-baki-tv"
    },
    {
      "id": 1247,
      "nome": "Gravitation",
      "link": "https://animefire.plus/animes/gravitation-todos-os-episodios",
      "texto_original": "Gravitation",
      "rating": 7.16,
      "classificacao_etaria": "A14",
      "imagem_original": "https://animefire.plus/img/animes/gravitation.webp",
      "imagem_pasta": "https://animefire.plus/img/animes/gravitation/",
      "secao": "legendados",
      "pagina": 97,
      "total_episodios": 13,
      "link_video": "https://animefire.plus/video/gravitation"
    },
    {
      "id": 1252,
      "nome": "Green Green OVA",
      "link": "https://animefire.plus/animes/green-green-ova-todos-os-episodios",
      "texto_original": "Green Green OVA",
      "rating": 6.03,
      "classificacao_etaria": "A14",
      "imagem_original": "https://animefire.plus/img/animes/green-green-ova.webp",
      "imagem_pasta": "https://animefire.plus/img/animes/green-green-ova/",
      "secao": "legendados",
      "pagina": 70,
      "total_episodios": 1,
      "link_video": "https://animefire.plus/video/green-green-ova"
    },
    {
      "id": 1254,
      "nome": "Grenadier: Hohoemi No Senshi",
      "link": "https://animefire.plus/animes/grenadier-hohoemi-no-senshi-todos-os-episodios",
      "texto_original": "Grenadier: Hohoemi No Senshi",
      "rating": 6.78,
      "classificacao_etaria": "A14",
      "imagem_original": "https://animefire.plus/img/animes/grenadier-hohoemi-no-senshi.webp",
      "imagem_pasta": "https://animefire.plus/img/animes/grenadier-hohoemi-no-senshi/",
      "secao": "legendados",
      "pagina": 101,
      "total_episodios": 12,
      "link_video": "https://animefire.plus/video/grenadier-hohoemi-no-senshi"
    },
    {
      "id": 1255,
      "nome": "Grendizer U",
      "link": "https://animefire.plus/animes/grendizer-u-todos-os-episodios",
      "texto_original": "Grendizer U",
      "rating": null,
      "classificacao_etaria": "A14",
      "imagem_original": "https://animefire.plus/img/animes/grendizer-u.webp",
      "imagem_pasta": "https://animefire.plus/img/animes/grendizer-u/",
      "secao": "legendados,lancamentos",
      "pagina": 12,
      "total_episodios": 4,
      "link_video": "https://animefire.plus/video/grendizer-u"
    },
    {
      "id": 1256,
      "nome": "Grimms Notes The Animation",
      "link": "https://animefire.plus/animes/grimms-notes-the-animation-todos-os-episodios",
      "texto_original": "Grimms Notes The Animation",
      "rating": 5.99,
      "classificacao_etaria": "A14",
      "imagem_original": "https://animefire.plus/img/animes/grimms-notes-the-animation.webp",
      "imagem_pasta": "https://animefire.plus/img/animes/grimms-notes-the-animation/",
      "secao": "legendados",
      "pagina": 101,
      "total_episodios": 0,
      "link_video": "https://animefire.plus/video/grimms-notes-the-animation"
    },
    {
      "id": 1261,
      "nome": "Groove Adventure Rave",
      "link": "https://animefire.plus/animes/groove-adventure-rave-todos-os-episodios",
      "texto_original": "Groove Adventure Rave",
      "rating": 7.36,
      "classificacao_etaria": "A14",
      "imagem_original": "https://animefire.plus/img/animes/groove-adventure-rave.webp",
      "imagem_pasta": "https://animefire.plus/img/animes/groove-adventure-rave/",
      "secao": "legendados",
      "pagina": 128,
      "total_episodios": 0,
      "link_video": "https://animefire.plus/video/groove-adventure-rave"
    }
  ],
  "pagination": {
    "current_page": 40,
    "per_page": 20,
    "total_items": 2988,
    "total_pages": 150,
    "has_next": true,
    "has_prev": true
  }
}
