{
  "message": "Animes com classificação etária: A14",
  "age_rating": "A14",
  "data": [
    {
      "id": 2406,
      "nome": "Mangirl!",
      "link": "https://animefire.plus/animes/mangirl-todos-os-episodios",
      "texto_original": "Mangirl!",
      "rating": 5.97,
      "classificacao_etaria": "A14",
      "imagem_original": "https://animefire.plus/img/animes/mangirl.webp",
      "imagem_pasta": "https://animefire.plus/img/animes/mangirl/",
      "secao": "legendados",
      "pagina": 167,
      "total_episodios": 2,
      "link_video": "https://animefire.plus/video/mangirl"
    },
    {
      "id": 2408,
      "nome": "Maou 2099",
      "link": "https://animefire.plus/animes/maou-2099-todos-os-episodios",
      "texto_original": "Maou 2099",
      "rating": 7.44,
      "classificacao_etaria": "A14",
      "imagem_original": "https://animefire.plus/img/animes/maou-2099.webp",
      "imagem_pasta": "https://animefire.plus/img/animes/maou-2099/",
      "secao": "legendados",
      "pagina": 11,
      "total_episodios": 12,
      "link_video": "https://animefire.plus/video/maou-2099"
    },
    {
      "id": 2414,
      "nome": "Maou no Ore ga Dorei Elf wo Yome ni Shitanda ga, Dou Medereba Ii?",
      "link": "https://animefire.plus/animes/maou-no-ore-ga-dorei-elf-wo-yome-ni-shitanda-ga-dou-medereba-ii-todos-os-episodios",
      "texto_original": "Maou no Ore ga Dorei Elf wo Yome ni Shitanda ga, Dou Medereba Ii?",
      "rating": 7.29,
      "classificacao_etaria": "A14",
      "imagem_original": "https://animefire.plus/img/animes/maou-no-ore-ga-dorei-elf-wo-yome-ni-shitanda-ga-dou-medereba-ii.webp",
      "imagem_pasta": "https://animefire.plus/img/animes/maou-no-ore-ga-dorei-elf-wo-yome-ni-shitanda-ga-dou-medereba-ii/",
      "secao": "legendados",
      "pagina": 15,
      "total_episodios": 12,
      "link_video": "https://animefire.plus/video/maou-no-ore-ga-dorei-elf-wo-yome-ni-shitanda-ga-dou-medereba-ii"
    },
    {
      "id": 2415,
      "nome": "Maou-sama, Retry!",
      "link": "https://animefire.plus/animes/maou-sama-retry-todos-os-episodios",
      "texto_original": "Maou-sama, Retry!",
      "rating": 6.51,
      "classificacao_etaria": "A14",
      "imagem_original": "https://animefire.plus/img/animes/maou-sama-retry.webp",
      "imagem_pasta": "https://animefire.plus/img/animes/maou-sama-retry/",
      "secao": "legendados",
      "pagina": 145,
      "total_episodios": 6,
      "link_video": "https://animefire.plus/video/maou-sama-retry"
    },
    {
      "id": 2416,
      "nome": "Maou-sama, Retry! R",
      "link": "https://animefire.plus/animes/maou-sama-retry-r-todos-os-episodios",
      "texto_original": "Maou-sama, Retry! R",
      "rating": 5.92,
      "classificacao_etaria": "A14",
      "imagem_original": "https://animefire.plus/img/animes/maou-sama-retry-r.webp",
      "imagem_pasta": "https://animefire.plus/img/animes/maou-sama-retry-r/",
      "secao": "legendados",
      "pagina": 9,
      "total_episodios": 12,
      "link_video": "https://animefire.plus/video/maou-sama-retry-r"
    },
    {
      "id": 2417,
      "nome": "Maougun Saikyou no Majutsushi wa Ningen datta",
      "link": "https://animefire.plus/animes/maougun-saikyou-no-majutsushi-wa-ningen-datta-todos-os-episodios",
      "texto_original": "Maougun Saikyou no Majutsushi wa Ningen datta",
      "rating": 6.41,
      "classificacao_etaria": "A14",
      "imagem_original": "https://animefire.plus/img/animes/maougun-saikyou-no-majutsushi-wa-ningen-datta.webp",
      "imagem_pasta": "https://animefire.plus/img/animes/maougun-saikyou-no-majutsushi-wa-ningen-datta/",
      "secao": "legendados",
      "pagina": 13,
      "total_episodios": 12,
      "link_video": "https://animefire.plus/video/maougun-saikyou-no-majutsushi-wa-ningen-datta"
    },
    {
      "id": 2418,
      "nome": "Maoujou de Oyasumi",
      "link": "https://animefire.plus/animes/maoujou-de-oyasumi-todos-os-episodios",
      "texto_original": "Maoujou de Oyasumi",
      "rating": null,
      "classificacao_etaria": "A14",
      "imagem_original": "https://animefire.plus/img/animes/maoujou-de-oyasumi.webp",
      "imagem_pasta": "https://animefire.plus/img/animes/maoujou-de-oyasumi/",
      "secao": "legendados",
      "pagina": 52,
      "total_episodios": 12,
      "link_video": "https://animefire.plus/video/maoujou-de-oyasumi"
    },
    {
      "id": 2419,
      "nome": "Maoyuu Maou Yuusha",
      "link": "https://animefire.plus/animes/maoyuu-maou-yuusha-todos-os-episodios",
      "texto_original": "Maoyuu Maou Yuusha",
      "rating": 7.4,
      "classificacao_etaria": "A14",
      "imagem_original": "https://animefire.plus/img/animes/maoyuu-maou-yuusha.webp",
      "imagem_pasta": "https://animefire.plus/img/animes/maoyuu-maou-yuusha/",
      "secao": "legendados",
      "pagina": 100,
      "total_episodios": 12,
      "link_video": "https://animefire.plus/video/maoyuu-maou-yuusha"
    },
    {
      "id": 2420,
      "nome": "Märchen Mädchen",
      "link": "https://animefire.plus/animes/maerchen-maedchen-todos-os-episodios",
      "texto_original": "Märchen Mädchen",
      "rating": 5.45,
      "classificacao_etaria": "A14",
      "imagem_original": "https://animefire.plus/img/animes/maerchen-maedchen.webp",
      "imagem_pasta": "https://animefire.plus/img/animes/maerchen-maedchen/",
      "secao": "legendados",
      "pagina": 113,
      "total_episodios": 12,
      "link_video": "https://animefire.plus/video/maerchen-maedchen"
    },
    {
      "id": 2421,
      "nome": "Marginal#4: Kiss Kara Tsukuru Big Bang",
      "link": "https://animefire.plus/animes/marginal-4-kiss-kara-tsukuru-big-bang-todos-os-episodios",
      "texto_original": "Marginal#4: Kiss Kara Tsukuru Big Bang",
      "rating": 6.79,
      "classificacao_etaria": "A14",
      "imagem_original": "https://animefire.plus/img/animes/marginal-4-kiss-kara-tsukuru-big-bang.webp",
      "imagem_pasta": "https://animefire.plus/img/animes/marginal-4-kiss-kara-tsukuru-big-bang/",
      "secao": "legendados",
      "pagina": 107,
      "total_episodios": 0,
      "link_video": "https://animefire.plus/video/marginal-4-kiss-kara-tsukuru-big-bang"
    },
    {
      "id": 2422,
      "nome": "Maria-sama ga Miteru",
      "link": "https://animefire.plus/animes/maria-sama-ga-miteru-todos-os-episodios",
      "texto_original": "Maria-sama ga Miteru",
      "rating": 7.42,
      "classificacao_etaria": "A14",
      "imagem_original": "https://animefire.plus/img/animes/maria-sama-ga-miteru.webp",
      "imagem_pasta": "https://animefire.plus/img/animes/maria-sama-ga-miteru/",
      "secao": "legendados",
      "pagina": 138,
      "total_episodios": 0,
      "link_video": "https://animefire.plus/video/maria-sama-ga-miteru"
    },
    {
      "id": 2423,
      "nome": "Maria-sama ga Miteru 4th",
      "link": "https://animefire.plus/animes/maria-sama-ga-miteru-4th-todos-os-episodios",
      "texto_original": "Maria-sama ga Miteru 4th",
      "rating": 7.89,
      "classificacao_etaria": "A14",
      "imagem_original": "https://animefire.plus/img/animes/maria-sama-ga-miteru-4th.webp",
      "imagem_pasta": "https://animefire.plus/img/animes/maria-sama-ga-miteru-4th/",
      "secao": "legendados",
      "pagina": 166,
      "total_episodios": 0,
      "link_video": "https://animefire.plus/video/maria-sama-ga-miteru-4th"
    },
    {
      "id": 2424,
      "nome": "Maria-sama ga Miteru: Haru",
      "link": "https://animefire.plus/animes/maria-sama-ga-miteru-haru-todos-os-episodios",
      "texto_original": "Maria-sama ga Miteru: Haru",
      "rating": 7.76,
      "classificacao_etaria": "A14",
      "imagem_original": "https://animefire.plus/img/animes/maria-sama-ga-miteru-haru.webp",
      "imagem_pasta": "https://animefire.plus/img/animes/maria-sama-ga-miteru-haru/",
      "secao": "legendados",
      "pagina": 152,
      "total_episodios": 0,
      "link_video": "https://animefire.plus/video/maria-sama-ga-miteru-haru"
    },
    {
      "id": 2425,
      "nome": "Maria†Holic",
      "link": "https://animefire.plus/animes/maria-holic-todos-os-episodios",
      "texto_original": "Maria†Holic",
      "rating": 7.11,
      "classificacao_etaria": "A14",
      "imagem_original": "https://animefire.plus/img/animes/maria-holic.webp",
      "imagem_pasta": "https://animefire.plus/img/animes/maria-holic/",
      "secao": "legendados",
      "pagina": 136,
      "total_episodios": 12,
      "link_video": "https://animefire.plus/video/maria-holic"
    },
    {
      "id": 2426,
      "nome": "Maria†Holic Alive",
      "link": "https://animefire.plus/animes/maria-holic-alive-todos-os-episodios",
      "texto_original": "Maria†Holic Alive",
      "rating": 7.03,
      "classificacao_etaria": "A14",
      "imagem_original": "https://animefire.plus/img/animes/maria-holic-alive.webp",
      "imagem_pasta": "https://animefire.plus/img/animes/maria-holic-alive/",
      "secao": "legendados",
      "pagina": 178,
      "total_episodios": 0,
      "link_video": "https://animefire.plus/video/maria-holic-alive"
    },
    {
      "id": 2427,
      "nome": "Marmalade Boy",
      "link": "https://animefire.plus/animes/marmalade-boy-todos-os-episodios",
      "texto_original": "Marmalade Boy",
      "rating": 7.6,
      "classificacao_etaria": "A14",
      "imagem_original": "https://animefire.plus/img/animes/marmalade-boy.webp",
      "imagem_pasta": "https://animefire.plus/img/animes/marmalade-boy/",
      "secao": "legendados",
      "pagina": 121,
      "total_episodios": 65,
      "link_video": "https://animefire.plus/video/marmalade-boy"
    },
    {
      "id": 2428,
      "nome": "Mars Red (Dublado)",
      "link": "https://animefire.plus/animes/mars-red-dublado-todos-os-episodios",
      "texto_original": "Mars Red (Dublado)",
      "rating": 6.58,
      "classificacao_etaria": "A14",
      "imagem_original": "https://animefire.plus/img/animes/mars-red.webp",
      "imagem_pasta": "https://animefire.plus/img/animes/mars-red/",
      "secao": "dublados,legendados",
      "pagina": 14,
      "total_episodios": 13,
      "link_video": "https://animefire.plus/video/mars-red-dublado"
    },
    {
      "id": 2431,
      "nome": "Masamune Datenicle",
      "link": "https://animefire.plus/animes/masamune-datenicle-todos-os-episodios",
      "texto_original": "Masamune Datenicle",
      "rating": 6.03,
      "classificacao_etaria": "A14",
      "imagem_original": "https://animefire.plus/img/animes/masamune-datenicle.webp",
      "imagem_pasta": "https://animefire.plus/img/animes/masamune-datenicle/",
      "secao": "legendados",
      "pagina": 143,
      "total_episodios": 6,
      "link_video": "https://animefire.plus/video/masamune-datenicle"
    },
    {
      "id": 2432,
      "nome": "Masamune-kun no Revenge (Dublado)",
      "link": "https://animefire.plus/animes/masamune-kun-no-revenge-dublado-todos-os-episodios",
      "texto_original": "Masamune-kun no Revenge (Dublado)",
      "rating": 6.74,
      "classificacao_etaria": "A14",
      "imagem_original": "https://animefire.plus/img/animes/masamune-kun-no-revenge.webp",
      "imagem_pasta": "https://animefire.plus/img/animes/masamune-kun-no-revenge/",
      "secao": "dublados,legendados",
      "pagina": 7,
      "total_episodios": 12,
      "link_video": "https://animefire.plus/video/masamune-kun-no-revenge-dublado"
    },
    {
      "id": 2433,
      "nome": "Masamune-kun no Revenge OVA",
      "link": "https://animefire.plus/animes/masamune-kun-no-revenge-ova-todos-os-episodios",
      "texto_original": "Masamune-kun no Revenge OVA",
      "rating": 6.6,
      "classificacao_etaria": "A14",
      "imagem_original": "https://animefire.plus/img/animes/masamune-kun-no-revenge-ova.webp",
      "imagem_pasta": "https://animefire.plus/img/animes/masamune-kun-no-revenge-ova/",
      "secao": "legendados",
      "pagina": 84,
      "total_episodios": 1,
      "link_video": "https://animefire.plus/video/masamune-kun-no-revenge-ova"
    }
  ],
  "pagination": {
    "current_page": 80,
    "per_page": 20,
    "total_items": 2988,
    "total_pages": 150,
    "has_next": true,
    "has_prev": true
  }
}
