{
  "message": "Animes com classificação etária: A14",
  "age_rating": "A14",
  "data": [
    {
      "id": 330,
      "nome": "Bamboo Blade",
      "link": "https://animefire.plus/animes/bamboo-blade-todos-os-episodios",
      "texto_original": "Bamboo Blade",
      "rating": 7.38,
      "classificacao_etaria": "A14",
      "imagem_original": "https://animefire.plus/img/animes/bamboo-blade.webp",
      "imagem_pasta": "https://animefire.plus/img/animes/bamboo-blade/",
      "secao": "legendados",
      "pagina": 155,
      "total_episodios": 20,
      "link_video": "https://animefire.plus/video/bamboo-blade"
    },
    {
      "id": 333,
      "nome": "BanG Dream!",
      "link": "https://animefire.plus/animes/bang-dream-todos-os-episodios",
      "texto_original": "BanG Dream!",
      "rating": 7.02,
      "classificacao_etaria": "A14",
      "imagem_original": "https://animefire.plus/img/animes/bang-dream.webp",
      "imagem_pasta": "https://animefire.plus/img/animes/bang-dream/",
      "secao": "legendados",
      "pagina": 132,
      "total_episodios": 0,
      "link_video": "https://animefire.plus/video/bang-dream"
    },
    {
      "id": 334,
      "nome": "BanG Dream! 2nd Season",
      "link": "https://animefire.plus/animes/bang-dream-2nd-season-todos-os-episodios",
      "texto_original": "BanG Dream! 2nd Season",
      "rating": 7.6,
      "classificacao_etaria": "A14",
      "imagem_original": "https://animefire.plus/img/animes/bang-dream-2nd-season.webp",
      "imagem_pasta": "https://animefire.plus/img/animes/bang-dream-2nd-season/",
      "secao": "legendados",
      "pagina": 109,
      "total_episodios": 13,
      "link_video": "https://animefire.plus/video/bang-dream-2nd-season"
    },
    {
      "id": 335,
      "nome": "BanG Dream! 3rd Season",
      "link": "https://animefire.plus/animes/bang-dream-3rd-season-todos-os-episodios",
      "texto_original": "BanG Dream! 3rd Season",
      "rating": 8.05,
      "classificacao_etaria": "A14",
      "imagem_original": "https://animefire.plus/img/animes/bang-dream-3rd-season.webp",
      "imagem_pasta": "https://animefire.plus/img/animes/bang-dream-3rd-season/",
      "secao": "legendados",
      "pagina": 93,
      "total_episodios": 13,
      "link_video": "https://animefire.plus/video/bang-dream-3rd-season"
    },
    {
      "id": 336,
      "nome": "BanG Dream! Ave Mujica",
      "link": "https://animefire.plus/animes/bang-dream-ave-mujica-todos-os-episodios",
      "texto_original": "BanG Dream! Ave Mujica",
      "rating": 8.06,
      "classificacao_etaria": "A14",
      "imagem_original": "https://animefire.plus/img/animes/bang-dream-ave-mujica.webp",
      "imagem_pasta": "https://animefire.plus/img/animes/bang-dream-ave-mujica/",
      "secao": "legendados",
      "pagina": 7,
      "total_episodios": 13,
      "link_video": "https://animefire.plus/video/bang-dream-ave-mujica"
    },
    {
      "id": 337,
      "nome": "BanG Dream! Garupa☆Pico",
      "link": "https://animefire.plus/animes/bang-dream-garupa-pico-todos-os-episodios",
      "texto_original": "BanG Dream! Garupa☆Pico",
      "rating": 7.82,
      "classificacao_etaria": "A14",
      "imagem_original": "https://animefire.plus/img/animes/bang-dream-garupa-pico.webp",
      "imagem_pasta": "https://animefire.plus/img/animes/bang-dream-garupa-pico/",
      "secao": "legendados",
      "pagina": 59,
      "total_episodios": 12,
      "link_video": "https://animefire.plus/video/bang-dream-garupa-pico"
    },
    {
      "id": 338,
      "nome": "BanG Dream! Garupa☆Pico: Oomori",
      "link": "https://animefire.plus/animes/bang-dream-garupa-pico-oomori-todos-os-episodios",
      "texto_original": "BanG Dream! Garupa☆Pico: Oomori",
      "rating": 7.63,
      "classificacao_etaria": "A14",
      "imagem_original": "https://animefire.plus/img/animes/bang-dream-garupa-pico-oomori.webp",
      "imagem_pasta": "https://animefire.plus/img/animes/bang-dream-garupa-pico-oomori/",
      "secao": "legendados,lancamentos",
      "pagina": 79,
      "total_episodios": 1,
      "link_video": "https://animefire.plus/video/bang-dream-garupa-pico-oomori"
    },
    {
      "id": 339,
      "nome": "BanG Dream! Morfonication",
      "link": "https://animefire.plus/animes/bang-dream-morfonication-todos-os-episodios",
      "texto_original": "BanG Dream! Morfonication",
      "rating": 7.57,
      "classificacao_etaria": "A14",
      "imagem_original": "https://animefire.plus/img/animes/bang-dream-morfonication.webp",
      "imagem_pasta": "https://animefire.plus/img/animes/bang-dream-morfonication/",
      "secao": "legendados",
      "pagina": 30,
      "total_episodios": 1,
      "link_video": "https://animefire.plus/video/bang-dream-morfonication"
    },
    {
      "id": 342,
      "nome": "Barakamon",
      "link": "https://animefire.plus/animes/barakamon-todos-os-episodios",
      "texto_original": "Barakamon",
      "rating": 8.45,
      "classificacao_etaria": "A14",
      "imagem_original": "https://animefire.plus/img/animes/barakamon.webp",
      "imagem_pasta": "https://animefire.plus/img/animes/barakamon/",
      "secao": "legendados",
      "pagina": 175,
      "total_episodios": 3,
      "link_video": "https://animefire.plus/video/barakamon"
    },
    {
      "id": 343,
      "nome": "Baraou no Souretsu (Dublado)",
      "link": "https://animefire.plus/animes/baraou-no-souretsu-dublado-todos-os-episodios",
      "texto_original": "Baraou no Souretsu (Dublado)",
      "rating": 6.39,
      "classificacao_etaria": "A14",
      "imagem_original": "https://animefire.plus/img/animes/baraou-no-souretsu.webp",
      "imagem_pasta": "https://animefire.plus/img/animes/baraou-no-souretsu/",
      "secao": "dublados,legendados",
      "pagina": 12,
      "total_episodios": 24,
      "link_video": "https://animefire.plus/video/baraou-no-souretsu-dublado"
    },
    {
      "id": 344,
      "nome": "Barom One (Dublado)",
      "link": "https://animefire.plus/animes/barom-one-dublado-todos-os-episodios",
      "texto_original": "Barom One (Dublado)",
      "rating": 5.39,
      "classificacao_etaria": "A14",
      "imagem_original": "https://animefire.plus/img/animes/barom-one.webp",
      "imagem_pasta": "https://animefire.plus/img/animes/barom-one/",
      "secao": "dublados,legendados",
      "pagina": 26,
      "total_episodios": 13,
      "link_video": "https://animefire.plus/video/barom-one-dublado"
    },
    {
      "id": 345,
      "nome": "Bartender",
      "link": "https://animefire.plus/animes/bartender-todos-os-episodios",
      "texto_original": "Bartender",
      "rating": 7.4,
      "classificacao_etaria": "A14",
      "imagem_original": "https://animefire.plus/img/animes/bartender.webp",
      "imagem_pasta": "https://animefire.plus/img/animes/bartender/",
      "secao": "legendados",
      "pagina": 77,
      "total_episodios": 1,
      "link_video": "https://animefire.plus/video/bartender"
    },
    {
      "id": 346,
      "nome": "Bartender: Kami no Glass",
      "link": "https://animefire.plus/animes/bartender-kami-no-glass-todos-os-episodios",
      "texto_original": "Bartender: Kami no Glass",
      "rating": 7.38,
      "classificacao_etaria": "A14",
      "imagem_original": "https://animefire.plus/img/animes/bartender-kami-no-glass.webp",
      "imagem_pasta": "https://animefire.plus/img/animes/bartender-kami-no-glass/",
      "secao": "legendados",
      "pagina": 15,
      "total_episodios": 12,
      "link_video": "https://animefire.plus/video/bartender-kami-no-glass"
    },
    {
      "id": 349,
      "nome": "Basquash!",
      "link": "https://animefire.plus/animes/basquash-todos-os-episodios",
      "texto_original": "Basquash!",
      "rating": 7.31,
      "classificacao_etaria": "A14",
      "imagem_original": "https://animefire.plus/img/animes/basquash.webp",
      "imagem_pasta": "https://animefire.plus/img/animes/basquash/",
      "secao": "legendados",
      "pagina": 102,
      "total_episodios": 8,
      "link_video": "https://animefire.plus/video/basquash"
    },
    {
      "id": 355,
      "nome": "Battery",
      "link": "https://animefire.plus/animes/battery-todos-os-episodios",
      "texto_original": "Battery",
      "rating": 5.76,
      "classificacao_etaria": "A14",
      "imagem_original": "https://animefire.plus/img/animes/battery.webp",
      "imagem_pasta": "https://animefire.plus/img/animes/battery/",
      "secao": "legendados",
      "pagina": 148,
      "total_episodios": 7,
      "link_video": "https://animefire.plus/video/battery"
    },
    {
      "id": 356,
      "nome": "Battle Athletess Daiundoukai ReSTART!",
      "link": "https://animefire.plus/animes/battle-athletess-daiundoukai-restart-todos-os-episodios",
      "texto_original": "Battle Athletess Daiundoukai ReSTART!",
      "rating": 5.11,
      "classificacao_etaria": "A14",
      "imagem_original": "https://animefire.plus/img/animes/battle-athletess-daiundoukai-restart.webp",
      "imagem_pasta": "https://animefire.plus/img/animes/battle-athletess-daiundoukai-restart/",
      "secao": "legendados",
      "pagina": 45,
      "total_episodios": 12,
      "link_video": "https://animefire.plus/video/battle-athletess-daiundoukai-restart"
    },
    {
      "id": 357,
      "nome": "Battle Girl High School",
      "link": "https://animefire.plus/animes/battle-girl-high-school-todos-os-episodios",
      "texto_original": "Battle Girl High School",
      "rating": 5.9,
      "classificacao_etaria": "A14",
      "imagem_original": "https://animefire.plus/img/animes/battle-girl-high-school.webp",
      "imagem_pasta": "https://animefire.plus/img/animes/battle-girl-high-school/",
      "secao": "legendados",
      "pagina": 173,
      "total_episodios": 12,
      "link_video": "https://animefire.plus/video/battle-girl-high-school"
    },
    {
      "id": 358,
      "nome": "Battle Programmer Shirase",
      "link": "https://animefire.plus/animes/battle-programmer-shirase-todos-os-episodios",
      "texto_original": "Battle Programmer Shirase",
      "rating": 7,
      "classificacao_etaria": "A14",
      "imagem_original": "https://animefire.plus/img/animes/battle-programmer-shirase.webp",
      "imagem_pasta": "https://animefire.plus/img/animes/battle-programmer-shirase/",
      "secao": "legendados",
      "pagina": 165,
      "total_episodios": 5,
      "link_video": "https://animefire.plus/video/battle-programmer-shirase"
    },
    {
      "id": 361,
      "nome": "Battle Spirits: Ryuuko no Ken (Dublado)",
      "link": "https://animefire.plus/animes/battle-spirits-ryuuko-no-ken-dublado-todos-os-episodios",
      "texto_original": "Battle Spirits: Ryuuko no Ken (Dublado)",
      "rating": 4.86,
      "classificacao_etaria": "A14",
      "imagem_original": "https://animefire.plus/img/animes/battle-spirits-ryuuko-no-ken.webp",
      "imagem_pasta": "https://animefire.plus/img/animes/battle-spirits-ryuuko-no-ken/",
      "secao": "dublados",
      "pagina": 22,
      "total_episodios": 1,
      "link_video": "https://animefire.plus/video/battle-spirits-ryuuko-no-ken-dublado"
    },
    {
      "id": 362,
      "nome": "Bean Bandit",
      "link": "https://animefire.plus/animes/bean-bandit-todos-os-episodios",
      "texto_original": "Bean Bandit",
      "rating": 5.09,
      "classificacao_etaria": "A14",
      "imagem_original": "https://animefire.plus/img/animes/bean-bandit.webp",
      "imagem_pasta": "https://animefire.plus/img/animes/bean-bandit/",
      "secao": "legendados",
      "pagina": 33,
      "total_episodios": 1,
      "link_video": "https://animefire.plus/video/bean-bandit"
    }
  ],
  "pagination": {
    "current_page": 12,
    "per_page": 20,
    "total_items": 2988,
    "total_pages": 150,
    "has_next": true,
    "has_prev": true
  }
}
