{
  "message": "Animes com classificação etária: A14",
  "age_rating": "A14",
  "data": [
    {
      "id": 3557,
      "nome": "Slow Loop",
      "link": "https://animefire.plus/animes/slow-loop-todos-os-episodios",
      "texto_original": "Slow Loop",
      "rating": 7.25,
      "classificacao_etaria": "A14",
      "imagem_original": "https://animefire.plus/img/animes/slow-loop.webp",
      "imagem_pasta": "https://animefire.plus/img/animes/slow-loop/",
      "secao": "legendados",
      "pagina": 36,
      "total_episodios": 12,
      "link_video": "https://animefire.plus/video/slow-loop"
    },
    {
      "id": 3558,
      "nome": "Slow Start",
      "link": "https://animefire.plus/animes/slow-start-todos-os-episodios",
      "texto_original": "Slow Start",
      "rating": 7.11,
      "classificacao_etaria": "A14",
      "imagem_original": "https://animefire.plus/img/animes/slow-start.webp",
      "imagem_pasta": "https://animefire.plus/img/animes/slow-start/",
      "secao": "legendados",
      "pagina": 107,
      "total_episodios": 12,
      "link_video": "https://animefire.plus/video/slow-start"
    },
    {
      "id": 3560,
      "nome": "Snack Basue",
      "link": "https://animefire.plus/animes/snack-basue-todos-os-episodios",
      "texto_original": "Snack Basue",
      "rating": 6.5,
      "classificacao_etaria": "A14",
      "imagem_original": "https://animefire.plus/img/animes/snack-basue.webp",
      "imagem_pasta": "https://animefire.plus/img/animes/snack-basue/",
      "secao": "legendados",
      "pagina": 16,
      "total_episodios": 13,
      "link_video": "https://animefire.plus/video/snack-basue"
    },
    {
      "id": 3561,
      "nome": "So Ra No Wo To",
      "link": "https://animefire.plus/animes/so-ra-no-wo-to-todos-os-episodios",
      "texto_original": "So Ra No Wo To",
      "rating": 7.58,
      "classificacao_etaria": "A14",
      "imagem_original": "https://animefire.plus/img/animes/so-ra-no-wo-to.webp",
      "imagem_pasta": "https://animefire.plus/img/animes/so-ra-no-wo-to/",
      "secao": "legendados",
      "pagina": 140,
      "total_episodios": 12,
      "link_video": "https://animefire.plus/video/so-ra-no-wo-to"
    },
    {
      "id": 3564,
      "nome": "Sol Levante",
      "link": "https://animefire.plus/animes/sol-levante-todos-os-episodios",
      "texto_original": "Sol Levante",
      "rating": 5.14,
      "classificacao_etaria": "A14",
      "imagem_original": "https://animefire.plus/img/animes/sol-levante.webp",
      "imagem_pasta": "https://animefire.plus/img/animes/sol-levante/",
      "secao": "legendados",
      "pagina": 53,
      "total_episodios": 1,
      "link_video": "https://animefire.plus/video/sol-levante"
    },
    {
      "id": 3565,
      "nome": "Sola",
      "link": "https://animefire.plus/animes/sola-todos-os-episodios",
      "texto_original": "Sola",
      "rating": 7.28,
      "classificacao_etaria": "A14",
      "imagem_original": "https://animefire.plus/img/animes/sola.webp",
      "imagem_pasta": "https://animefire.plus/img/animes/sola/",
      "secao": "legendados",
      "pagina": 174,
      "total_episodios": 13,
      "link_video": "https://animefire.plus/video/sola"
    },
    {
      "id": 3567,
      "nome": "Somali to Mori no Kamisama",
      "link": "https://animefire.plus/animes/somali-to-mori-no-kamisama-todos-os-episodios",
      "texto_original": "Somali to Mori no Kamisama",
      "rating": 7.82,
      "classificacao_etaria": "A14",
      "imagem_original": "https://animefire.plus/img/animes/somali-to-mori-no-kamisama.webp",
      "imagem_pasta": "https://animefire.plus/img/animes/somali-to-mori-no-kamisama/",
      "secao": "legendados",
      "pagina": 93,
      "total_episodios": 0,
      "link_video": "https://animefire.plus/video/somali-to-mori-no-kamisama"
    },
    {
      "id": 3568,
      "nome": "SoniAni: Super Sonico The Animation",
      "link": "https://animefire.plus/animes/soniani-super-sonico-the-animation-todos-os-episodios",
      "texto_original": "SoniAni: Super Sonico The Animation",
      "rating": 6.18,
      "classificacao_etaria": "A14",
      "imagem_original": "https://animefire.plus/img/animes/soniani-super-sonico-the-animation.webp",
      "imagem_pasta": "https://animefire.plus/img/animes/soniani-super-sonico-the-animation/",
      "secao": "legendados",
      "pagina": 115,
      "total_episodios": 12,
      "link_video": "https://animefire.plus/video/soniani-super-sonico-the-animation"
    },
    {
      "id": 3569,
      "nome": "Sonny Boy (Dublado)",
      "link": "https://animefire.plus/animes/sonny-boy-dublado-todos-os-episodios",
      "texto_original": "Sonny Boy (Dublado)",
      "rating": 7.83,
      "classificacao_etaria": "A14",
      "imagem_original": "https://animefire.plus/img/animes/sonny-boy.webp",
      "imagem_pasta": "https://animefire.plus/img/animes/sonny-boy/",
      "secao": "dublados,legendados",
      "pagina": 16,
      "total_episodios": 12,
      "link_video": "https://animefire.plus/video/sonny-boy-dublado"
    },
    {
      "id": 3570,
      "nome": "Sono Bisque Doll wa Koi wo Suru (Dublado)",
      "link": "https://animefire.plus/animes/sono-bisque-doll-wa-koi-wo-suru-dublado-todos-os-episodios",
      "texto_original": "Sono Bisque Doll wa Koi wo Suru (Dublado)",
      "rating": 8.15,
      "classificacao_etaria": "A14",
      "imagem_original": "https://animefire.plus/img/animes/sono-bisque-doll-wa-koi-wo-suru.webp",
      "imagem_pasta": "https://animefire.plus/img/animes/sono-bisque-doll-wa-koi-wo-suru/",
      "secao": "dublados,legendados",
      "pagina": 12,
      "total_episodios": 12,
      "link_video": "https://animefire.plus/video/sono-bisque-doll-wa-koi-wo-suru-dublado"
    },
    {
      "id": 3571,
      "nome": "Sono Bisque Doll wa Koi wo Suru Season 2",
      "link": "https://animefire.plus/animes/sono-bisque-doll-wa-koi-wo-suru-season-2-todos-os-episodios",
      "texto_original": "Sono Bisque Doll wa Koi wo Suru Season 2",
      "rating": 8.39,
      "classificacao_etaria": "A14",
      "imagem_original": "https://animefire.plus/img/animes/sono-bisque-doll-wa-koi-wo-suru-season-2.webp",
      "imagem_pasta": "https://animefire.plus/img/animes/sono-bisque-doll-wa-koi-wo-suru-season-2/",
      "secao": "legendados,lancamentos",
      "pagina": 3,
      "total_episodios": 5,
      "link_video": "https://animefire.plus/video/sono-bisque-doll-wa-koi-wo-suru-season-2"
    },
    {
      "id": 3572,
      "nome": "Sono Toki, Kanojo wa.",
      "link": "https://animefire.plus/animes/sono-toki-kanojo-wa-todos-os-episodios",
      "texto_original": "Sono Toki, Kanojo wa.",
      "rating": 5.71,
      "classificacao_etaria": "A14",
      "imagem_original": "https://animefire.plus/img/animes/sono-toki-kanojo-wa.webp",
      "imagem_pasta": "https://animefire.plus/img/animes/sono-toki-kanojo-wa/",
      "secao": "legendados",
      "pagina": 169,
      "total_episodios": 12,
      "link_video": "https://animefire.plus/video/sono-toki-kanojo-wa"
    },
    {
      "id": 3573,
      "nome": "Sora no Manimani",
      "link": "https://animefire.plus/animes/sora-no-manimani-todos-os-episodios",
      "texto_original": "Sora no Manimani",
      "rating": 7.13,
      "classificacao_etaria": "A14",
      "imagem_original": "https://animefire.plus/img/animes/sora-no-manimani.webp",
      "imagem_pasta": "https://animefire.plus/img/animes/sora-no-manimani/",
      "secao": "legendados",
      "pagina": 130,
      "total_episodios": 12,
      "link_video": "https://animefire.plus/video/sora-no-manimani"
    },
    {
      "id": 3574,
      "nome": "Sora no Method",
      "link": "https://animefire.plus/animes/sora-no-method-todos-os-episodios",
      "texto_original": "Sora no Method",
      "rating": 6.81,
      "classificacao_etaria": "A14",
      "imagem_original": "https://animefire.plus/img/animes/sora-no-method.webp",
      "imagem_pasta": "https://animefire.plus/img/animes/sora-no-method/",
      "secao": "legendados",
      "pagina": 127,
      "total_episodios": 13,
      "link_video": "https://animefire.plus/video/sora-no-method"
    },
    {
      "id": 3575,
      "nome": "Sora no Otoshimono",
      "link": "https://animefire.plus/animes/sora-no-otoshimono-todos-os-episodios",
      "texto_original": "Sora no Otoshimono",
      "rating": 7.52,
      "classificacao_etaria": "A14",
      "imagem_original": "https://animefire.plus/img/animes/sora-no-otoshimono.webp",
      "imagem_pasta": "https://animefire.plus/img/animes/sora-no-otoshimono/",
      "secao": "legendados",
      "pagina": 130,
      "total_episodios": 13,
      "link_video": "https://animefire.plus/video/sora-no-otoshimono"
    },
    {
      "id": 3576,
      "nome": "Sora no Otoshimono: Forte",
      "link": "https://animefire.plus/animes/sora-no-otoshimono-forte-todos-os-episodios",
      "texto_original": "Sora no Otoshimono: Forte",
      "rating": 7.69,
      "classificacao_etaria": "A14",
      "imagem_original": "https://animefire.plus/img/animes/sora-no-otoshimono-forte.webp",
      "imagem_pasta": "https://animefire.plus/img/animes/sora-no-otoshimono-forte/",
      "secao": "legendados",
      "pagina": 135,
      "total_episodios": 12,
      "link_video": "https://animefire.plus/video/sora-no-otoshimono-forte"
    },
    {
      "id": 3577,
      "nome": "Sora to Umi no Aida",
      "link": "https://animefire.plus/animes/sora-to-umi-no-aida-todos-os-episodios",
      "texto_original": "Sora to Umi no Aida",
      "rating": 5.74,
      "classificacao_etaria": "A14",
      "imagem_original": "https://animefire.plus/img/animes/sora-to-umi-no-aida.webp",
      "imagem_pasta": "https://animefire.plus/img/animes/sora-to-umi-no-aida/",
      "secao": "legendados",
      "pagina": 129,
      "total_episodios": 12,
      "link_video": "https://animefire.plus/video/sora-to-umi-no-aida"
    },
    {
      "id": 3578,
      "nome": "Sora yori mo Tooi Basho",
      "link": "https://animefire.plus/animes/sora-yori-mo-tooi-basho-todos-os-episodios",
      "texto_original": "Sora yori mo Tooi Basho",
      "rating": 8.64,
      "classificacao_etaria": "A14",
      "imagem_original": "https://animefire.plus/img/animes/sora-yori-mo-tooi-basho.webp",
      "imagem_pasta": "https://animefire.plus/img/animes/sora-yori-mo-tooi-basho/",
      "secao": "legendados",
      "pagina": 157,
      "total_episodios": 12,
      "link_video": "https://animefire.plus/video/sora-yori-mo-tooi-basho"
    },
    {
      "id": 3579,
      "nome": "Sorairo Utility",
      "link": "https://animefire.plus/animes/sorairo-utility-todos-os-episodios",
      "texto_original": "Sorairo Utility",
      "rating": 6.52,
      "classificacao_etaria": "A14",
      "imagem_original": "https://animefire.plus/img/animes/sorairo-utility.webp",
      "imagem_pasta": "https://animefire.plus/img/animes/sorairo-utility/",
      "secao": "legendados",
      "pagina": 35,
      "total_episodios": 1,
      "link_video": "https://animefire.plus/video/sorairo-utility"
    },
    {
      "id": 3580,
      "nome": "Sorairo Utility (TV)",
      "link": "https://animefire.plus/animes/sorairo-utility-tv-todos-os-episodios",
      "texto_original": "Sorairo Utility (TV)",
      "rating": 7.13,
      "classificacao_etaria": "A14",
      "imagem_original": "https://animefire.plus/img/animes/sorairo-utility-tv.webp",
      "imagem_pasta": "https://animefire.plus/img/animes/sorairo-utility-tv/",
      "secao": "legendados",
      "pagina": 7,
      "total_episodios": 12,
      "link_video": "https://animefire.plus/video/sorairo-utility-tv"
    }
  ],
  "pagination": {
    "current_page": 120,
    "per_page": 20,
    "total_items": 2988,
    "total_pages": 150,
    "has_next": true,
    "has_prev": true
  }
}
