{
  "message": "Animes com classificação etária: A14",
  "age_rating": "A14",
  "data": [
    {
      "id": 1874,
      "nome": "Kannagi",
      "link": "https://animefire.plus/animes/kannagi-todos-os-episodios",
      "texto_original": "Kannagi",
      "rating": 7.37,
      "classificacao_etaria": "A14",
      "imagem_original": "https://animefire.plus/img/animes/kannagi.webp",
      "imagem_pasta": "https://animefire.plus/img/animes/kannagi/",
      "secao": "legendados",
      "pagina": 152,
      "total_episodios": 12,
      "link_video": "https://animefire.plus/video/kannagi"
    },
    {
      "id": 1875,
      "nome": "Kannazuki no Miko",
      "link": "https://animefire.plus/animes/kannazuki-no-miko-todos-os-episodios",
      "texto_original": "Kannazuki no Miko",
      "rating": 6.97,
      "classificacao_etaria": "A14",
      "imagem_original": "https://animefire.plus/img/animes/kannazuki-no-miko.webp",
      "imagem_pasta": "https://animefire.plus/img/animes/kannazuki-no-miko/",
      "secao": "legendados",
      "pagina": 116,
      "total_episodios": 0,
      "link_video": "https://animefire.plus/video/kannazuki-no-miko"
    },
    {
      "id": 1876,
      "nome": "Kanojo ga Flag wo Oraretara",
      "link": "https://animefire.plus/animes/kanojo-ga-flag-wo-oraretara-todos-os-episodios",
      "texto_original": "Kanojo ga Flag wo Oraretara",
      "rating": 6.56,
      "classificacao_etaria": "A14",
      "imagem_original": "https://animefire.plus/img/animes/kanojo-ga-flag-wo-oraretara.webp",
      "imagem_pasta": "https://animefire.plus/img/animes/kanojo-ga-flag-wo-oraretara/",
      "secao": "legendados",
      "pagina": 117,
      "total_episodios": 9,
      "link_video": "https://animefire.plus/video/kanojo-ga-flag-wo-oraretara"
    },
    {
      "id": 1877,
      "nome": "Kanojo ga Koushaku-tei ni Itta Riyuu (Dublado)",
      "link": "https://animefire.plus/animes/kanojo-ga-koushaku-tei-ni-itta-riyuu-dublado-todos-os-episodios",
      "texto_original": "Kanojo ga Koushaku-tei ni Itta Riyuu (Dublado)",
      "rating": 7.53,
      "classificacao_etaria": "A14",
      "imagem_original": "https://animefire.plus/img/animes/kanojo-ga-koushaku-tei-ni-itta-riyuu.webp",
      "imagem_pasta": "https://animefire.plus/img/animes/kanojo-ga-koushaku-tei-ni-itta-riyuu/",
      "secao": "dublados,legendados",
      "pagina": 6,
      "total_episodios": 12,
      "link_video": "https://animefire.plus/video/kanojo-ga-koushaku-tei-ni-itta-riyuu-dublado"
    },
    {
      "id": 1878,
      "nome": "Kanojo mo Kanojo (Dublado)",
      "link": "https://animefire.plus/animes/kanojo-mo-kanojo-dublado-todos-os-episodios",
      "texto_original": "Kanojo mo Kanojo (Dublado)",
      "rating": 6.52,
      "classificacao_etaria": "A14",
      "imagem_original": "https://animefire.plus/img/animes/kanojo-mo-kanojo.webp",
      "imagem_pasta": "https://animefire.plus/img/animes/kanojo-mo-kanojo/",
      "secao": "dublados,legendados",
      "pagina": 4,
      "total_episodios": 12,
      "link_video": "https://animefire.plus/video/kanojo-mo-kanojo-dublado"
    },
    {
      "id": 1879,
      "nome": "Kanojo mo Kanojo Season 2 (Dublado)",
      "link": "https://animefire.plus/animes/kanojo-mo-kanojo-season-2-dublado-todos-os-episodios",
      "texto_original": "Kanojo mo Kanojo Season 2 (Dublado)",
      "rating": 7.01,
      "classificacao_etaria": "A14",
      "imagem_original": "https://animefire.plus/img/animes/kanojo-mo-kanojo-season-2.webp",
      "imagem_pasta": "https://animefire.plus/img/animes/kanojo-mo-kanojo-season-2/",
      "secao": "dublados,legendados",
      "pagina": 5,
      "total_episodios": 12,
      "link_video": "https://animefire.plus/video/kanojo-mo-kanojo-season-2-dublado"
    },
    {
      "id": 1881,
      "nome": "Kanojo, Okarishimasu (Dublado)",
      "link": "https://animefire.plus/animes/kanojo-okarishimasu-dublado-todos-os-episodios",
      "texto_original": "Kanojo, Okarishimasu (Dublado)",
      "rating": 7.19,
      "classificacao_etaria": "A14",
      "imagem_original": "https://animefire.plus/img/animes/kanojo-okarishimasu.webp",
      "imagem_pasta": "https://animefire.plus/img/animes/kanojo-okarishimasu/",
      "secao": "dublados,legendados",
      "pagina": 10,
      "total_episodios": 12,
      "link_video": "https://animefire.plus/video/kanojo-okarishimasu-dublado"
    },
    {
      "id": 1882,
      "nome": "Kanojo, Okarishimasu 2nd Season (Dublado)",
      "link": "https://animefire.plus/animes/kanojo-okarishimasu-2nd-season-dublado-todos-os-episodios",
      "texto_original": "Kanojo, Okarishimasu 2nd Season (Dublado)",
      "rating": 6.75,
      "classificacao_etaria": "A14",
      "imagem_original": "https://animefire.plus/img/animes/kanojo-okarishimasu-2nd-season.webp",
      "imagem_pasta": "https://animefire.plus/img/animes/kanojo-okarishimasu-2nd-season/",
      "secao": "dublados,legendados",
      "pagina": 10,
      "total_episodios": 12,
      "link_video": "https://animefire.plus/video/kanojo-okarishimasu-2nd-season-dublado"
    },
    {
      "id": 1883,
      "nome": "Kanojo, Okarishimasu 3rd Season (Dublado)",
      "link": "https://animefire.plus/animes/kanojo-okarishimasu-3rd-season-dublado-todos-os-episodios",
      "texto_original": "Kanojo, Okarishimasu 3rd Season (Dublado)",
      "rating": 7.01,
      "classificacao_etaria": "A14",
      "imagem_original": "https://animefire.plus/img/animes/kanojo-okarishimasu-3rd-season.webp",
      "imagem_pasta": "https://animefire.plus/img/animes/kanojo-okarishimasu-3rd-season/",
      "secao": "dublados,legendados,lancamentos",
      "pagina": 6,
      "total_episodios": 12,
      "link_video": "https://animefire.plus/video/kanojo-okarishimasu-3rd-season-dublado"
    },
    {
      "id": 1884,
      "nome": "Kanojo, Okarishimasu 4th Season",
      "link": "https://animefire.plus/animes/kanojo-okarishimasu-4th-season-todos-os-episodios",
      "texto_original": "Kanojo, Okarishimasu 4th Season",
      "rating": 6.2,
      "classificacao_etaria": "A14",
      "imagem_original": "https://animefire.plus/img/animes/kanojo-okarishimasu-4th-season.webp",
      "imagem_pasta": "https://animefire.plus/img/animes/kanojo-okarishimasu-4th-season/",
      "secao": "legendados,lancamentos",
      "pagina": 3,
      "total_episodios": 5,
      "link_video": "https://animefire.plus/video/kanojo-okarishimasu-4th-season"
    },
    {
      "id": 1887,
      "nome": "Kanon (2006)",
      "link": "https://animefire.plus/animes/kanon-2006-todos-os-episodios",
      "texto_original": "Kanon (2006)",
      "rating": 8.07,
      "classificacao_etaria": "A14",
      "imagem_original": "https://animefire.plus/img/animes/kanon-2006.webp",
      "imagem_pasta": "https://animefire.plus/img/animes/kanon-2006/",
      "secao": "legendados",
      "pagina": 128,
      "total_episodios": 24,
      "link_video": "https://animefire.plus/video/kanon-2006"
    },
    {
      "id": 1889,
      "nome": "Kanpekisugite Kawaige ga Nai to Konyaku Haki sareta Seijo wa Ringoku ni Urareru",
      "link": "https://animefire.plus/animes/kanpekisugite-kawaige-ga-nai-to-konyaku-haki-sareta-seijo-wa-ringoku-ni-urareru-todos-os-episodios",
      "texto_original": "Kanpekisugite Kawaige ga Nai to Konyaku Haki sareta Seijo wa Ringoku ni Urareru",
      "rating": 7.26,
      "classificacao_etaria": "A14",
      "imagem_original": "https://animefire.plus/img/animes/kanpekisugite-kawaige-ga-nai-to-konyaku-haki-sareta-seijo-wa-ringoku-ni-urareru.webp",
      "imagem_pasta": "https://animefire.plus/img/animes/kanpekisugite-kawaige-ga-nai-to-konyaku-haki-sareta-seijo-wa-ringoku-ni-urareru/",
      "secao": "legendados",
      "pagina": 5,
      "total_episodios": 12,
      "link_video": "https://animefire.plus/video/kanpekisugite-kawaige-ga-nai-to-konyaku-haki-sareta-seijo-wa-ringoku-ni-urareru"
    },
    {
      "id": 1890,
      "nome": "Kantai Collection: KanColle",
      "link": "https://animefire.plus/animes/kantai-collection-kancolle-todos-os-episodios",
      "texto_original": "Kantai Collection: KanColle",
      "rating": 6.93,
      "classificacao_etaria": "A14",
      "imagem_original": "https://animefire.plus/img/animes/kantai-collection-kancolle.webp",
      "imagem_pasta": "https://animefire.plus/img/animes/kantai-collection-kancolle/",
      "secao": "legendados",
      "pagina": 73,
      "total_episodios": 12,
      "link_video": "https://animefire.plus/video/kantai-collection-kancolle"
    },
    {
      "id": 1891,
      "nome": "Kaoru Hana wa Rin to Saku",
      "link": "https://animefire.plus/animes/kaoru-hana-wa-rin-to-saku-todos-os-episodios",
      "texto_original": "Kaoru Hana wa Rin to Saku",
      "rating": 8.75,
      "classificacao_etaria": "A14",
      "imagem_original": "https://animefire.plus/img/animes/kaoru-hana-wa-rin-to-saku.webp",
      "imagem_pasta": "https://animefire.plus/img/animes/kaoru-hana-wa-rin-to-saku/",
      "secao": "legendados,lancamentos",
      "pagina": 3,
      "total_episodios": 4,
      "link_video": "https://animefire.plus/video/kaoru-hana-wa-rin-to-saku"
    },
    {
      "id": 1892,
      "nome": "Kara no Kyoukai 8: Shuushou",
      "link": "https://animefire.plus/animes/kara-no-kyoukai-8-shuushou-todos-os-episodios",
      "texto_original": "Kara no Kyoukai 8: Shuushou",
      "rating": 7.22,
      "classificacao_etaria": "A14",
      "imagem_original": "https://animefire.plus/img/animes/kara-no-kyoukai-8-shuushou.webp",
      "imagem_pasta": "https://animefire.plus/img/animes/kara-no-kyoukai-8-shuushou/",
      "secao": "legendados",
      "pagina": 77,
      "total_episodios": 1,
      "link_video": "https://animefire.plus/video/kara-no-kyoukai-8-shuushou"
    },
    {
      "id": 1893,
      "nome": "Karakai Jouzu no Takagi-san",
      "link": "https://animefire.plus/animes/karakai-jouzu-no-takagi-san-todos-os-episodios",
      "texto_original": "Karakai Jouzu no Takagi-san",
      "rating": 7.89,
      "classificacao_etaria": "A14",
      "imagem_original": "https://animefire.plus/img/animes/karakai-jouzu-no-takagi-san.webp",
      "imagem_pasta": "https://animefire.plus/img/animes/karakai-jouzu-no-takagi-san/",
      "secao": "legendados",
      "pagina": 144,
      "total_episodios": 12,
      "link_video": "https://animefire.plus/video/karakai-jouzu-no-takagi-san"
    },
    {
      "id": 1894,
      "nome": "Karakai Jouzu no Takagi-san 2 (Dublado)",
      "link": "https://animefire.plus/animes/karakai-jouzu-no-takagi-san-2-dublado-todos-os-episodios",
      "texto_original": "Karakai Jouzu no Takagi-san 2 (Dublado)",
      "rating": 8.24,
      "classificacao_etaria": "A14",
      "imagem_original": "https://animefire.plus/img/animes/karakai-jouzu-no-takagi-san-2.webp",
      "imagem_pasta": "https://animefire.plus/img/animes/karakai-jouzu-no-takagi-san-2/",
      "secao": "dublados,legendados",
      "pagina": 22,
      "total_episodios": 12,
      "link_video": "https://animefire.plus/video/karakai-jouzu-no-takagi-san-2-dublado"
    },
    {
      "id": 1895,
      "nome": "Karakai Jouzu no Takagi-san 3",
      "link": "https://animefire.plus/animes/karakai-jouzu-no-takagi-san-3-todos-os-episodios",
      "texto_original": "Karakai Jouzu no Takagi-san 3",
      "rating": 8.38,
      "classificacao_etaria": "A14",
      "imagem_original": "https://animefire.plus/img/animes/karakai-jouzu-no-takagi-san-3.webp",
      "imagem_pasta": "https://animefire.plus/img/animes/karakai-jouzu-no-takagi-san-3/",
      "secao": "legendados",
      "pagina": 36,
      "total_episodios": 12,
      "link_video": "https://animefire.plus/video/karakai-jouzu-no-takagi-san-3"
    },
    {
      "id": 1896,
      "nome": "Karakuri Circus (TV)",
      "link": "https://animefire.plus/animes/karakuri-circus-tv-todos-os-episodios",
      "texto_original": "Karakuri Circus (TV)",
      "rating": 7.09,
      "classificacao_etaria": "A14",
      "imagem_original": "https://animefire.plus/img/animes/karakuri-circus-tv.webp",
      "imagem_pasta": "https://animefire.plus/img/animes/karakuri-circus-tv/",
      "secao": "legendados",
      "pagina": 40,
      "total_episodios": 1,
      "link_video": "https://animefire.plus/video/karakuri-circus-tv"
    },
    {
      "id": 1897,
      "nome": "Karaoke Iko!",
      "link": "https://animefire.plus/animes/karaoke-iko-todos-os-episodios",
      "texto_original": "Karaoke Iko!",
      "rating": 7.28,
      "classificacao_etaria": "A14",
      "imagem_original": "https://animefire.plus/img/animes/karaoke-iko.webp",
      "imagem_pasta": "https://animefire.plus/img/animes/karaoke-iko/",
      "secao": "legendados,lancamentos",
      "pagina": 1,
      "total_episodios": 2,
      "link_video": "https://animefire.plus/video/karaoke-iko"
    }
  ],
  "pagination": {
    "current_page": 61,
    "per_page": 20,
    "total_items": 2988,
    "total_pages": 150,
    "has_next": true,
    "has_prev": true
  }
}
