{
  "message": "Animes com classificação etária: A14",
  "age_rating": "A14",
  "data": [
    {
      "id": 2270,
      "nome": "Lupin III vs. Cat's Eye",
      "link": "https://animefire.plus/animes/lupin-iii-vs-cat-s-eye-todos-os-episodios",
      "texto_original": "Lupin III vs. Cat's Eye",
      "rating": 6.57,
      "classificacao_etaria": "A14",
      "imagem_original": "https://animefire.plus/img/animes/lupin-iii-vs-cat-s-eye.webp",
      "imagem_pasta": "https://animefire.plus/img/animes/lupin-iii-vs-cat-s-eye/",
      "secao": "legendados",
      "pagina": 25,
      "total_episodios": 1,
      "link_video": "https://animefire.plus/video/lupin-iii-vs-cat-s-eye"
    },
    {
      "id": 2271,
      "nome": "Lupin III vs. Detective Conan",
      "link": "https://animefire.plus/animes/lupin-iii-vs-detective-conan-todos-os-episodios",
      "texto_original": "Lupin III vs. Detective Conan",
      "rating": 7.81,
      "classificacao_etaria": "A14",
      "imagem_original": "https://animefire.plus/img/animes/lupin-iii-vs-detective-conan.webp",
      "imagem_pasta": "https://animefire.plus/img/animes/lupin-iii-vs-detective-conan/",
      "secao": "legendados",
      "pagina": 65,
      "total_episodios": 1,
      "link_video": "https://animefire.plus/video/lupin-iii-vs-detective-conan"
    },
    {
      "id": 2272,
      "nome": "Lupin III: Goodbye Partner",
      "link": "https://animefire.plus/animes/lupin-iii-goodbye-partner-todos-os-episodios",
      "texto_original": "Lupin III: Goodbye Partner",
      "rating": 6.83,
      "classificacao_etaria": "A14",
      "imagem_original": "https://animefire.plus/img/animes/lupin-iii-goodbye-partner.webp",
      "imagem_pasta": "https://animefire.plus/img/animes/lupin-iii-goodbye-partner/",
      "secao": "legendados",
      "pagina": 56,
      "total_episodios": 1,
      "link_video": "https://animefire.plus/video/lupin-iii-goodbye-partner"
    },
    {
      "id": 2273,
      "nome": "Lupin III: Lupin wa Ima mo Moete Iru ka?",
      "link": "https://animefire.plus/animes/lupin-iii-lupin-wa-ima-mo-moete-iru-ka-todos-os-episodios",
      "texto_original": "Lupin III: Lupin wa Ima mo Moete Iru ka?",
      "rating": 7.02,
      "classificacao_etaria": "A14",
      "imagem_original": "https://animefire.plus/img/animes/lupin-iii-lupin-wa-ima-mo-moete-iru-ka.webp",
      "imagem_pasta": "https://animefire.plus/img/animes/lupin-iii-lupin-wa-ima-mo-moete-iru-ka/",
      "secao": "legendados",
      "pagina": 87,
      "total_episodios": 1,
      "link_video": "https://animefire.plus/video/lupin-iii-lupin-wa-ima-mo-moete-iru-ka"
    },
    {
      "id": 2274,
      "nome": "Lupin III: Part 5 (Dublado)",
      "link": "https://animefire.plus/animes/lupin-iii-part-5-dublado-todos-os-episodios",
      "texto_original": "Lupin III: Part 5 (Dublado)",
      "rating": 8.13,
      "classificacao_etaria": "A14",
      "imagem_original": "https://animefire.plus/img/animes/lupin-iii-part-5.webp",
      "imagem_pasta": "https://animefire.plus/img/animes/lupin-iii-part-5/",
      "secao": "dublados,legendados",
      "pagina": 4,
      "total_episodios": 24,
      "link_video": "https://animefire.plus/video/lupin-iii-part-5-dublado"
    },
    {
      "id": 2275,
      "nome": "Lupin III: Part 6 - Jidai",
      "link": "https://animefire.plus/animes/lupin-iii-part-6---jidai-todos-os-episodios",
      "texto_original": "Lupin III: Part 6 - Jidai",
      "rating": 7.33,
      "classificacao_etaria": "A14",
      "imagem_original": "https://animefire.plus/img/animes/lupin-iii-part-6---jidai.webp",
      "imagem_pasta": "https://animefire.plus/img/animes/lupin-iii-part-6---jidai/",
      "secao": "legendados",
      "pagina": 37,
      "total_episodios": 1,
      "link_video": "https://animefire.plus/video/lupin-iii-part-6---jidai"
    },
    {
      "id": 2276,
      "nome": "Lupin III: Part 6 (Dublado)",
      "link": "https://animefire.plus/animes/lupin-iii-part-6-dublado-todos-os-episodios",
      "texto_original": "Lupin III: Part 6 (Dublado)",
      "rating": 7.2,
      "classificacao_etaria": "A14",
      "imagem_original": "https://animefire.plus/img/animes/lupin-iii-part-6.webp",
      "imagem_pasta": "https://animefire.plus/img/animes/lupin-iii-part-6/",
      "secao": "dublados,legendados",
      "pagina": 11,
      "total_episodios": 25,
      "link_video": "https://animefire.plus/video/lupin-iii-part-6-dublado"
    },
    {
      "id": 2277,
      "nome": "Lupin III: Part II",
      "link": "https://animefire.plus/animes/lupin-iii-part-ii-todos-os-episodios",
      "texto_original": "Lupin III: Part II",
      "rating": 7.79,
      "classificacao_etaria": "A14",
      "imagem_original": "https://animefire.plus/img/animes/lupin-iii-part-ii.webp",
      "imagem_pasta": "https://animefire.plus/img/animes/lupin-iii-part-ii/",
      "secao": "legendados",
      "pagina": 44,
      "total_episodios": 155,
      "link_video": "https://animefire.plus/video/lupin-iii-part-ii"
    },
    {
      "id": 2278,
      "nome": "Lupin III: Prison of the Past",
      "link": "https://animefire.plus/animes/lupin-iii-prison-of-the-past-todos-os-episodios",
      "texto_original": "Lupin III: Prison of the Past",
      "rating": 6.79,
      "classificacao_etaria": "A14",
      "imagem_original": "https://animefire.plus/img/animes/lupin-iii-prison-of-the-past.webp",
      "imagem_pasta": "https://animefire.plus/img/animes/lupin-iii-prison-of-the-past/",
      "secao": "legendados",
      "pagina": 68,
      "total_episodios": 1,
      "link_video": "https://animefire.plus/video/lupin-iii-prison-of-the-past"
    },
    {
      "id": 2280,
      "nome": "Lupin VIII",
      "link": "https://animefire.plus/animes/lupin-viii-todos-os-episodios",
      "texto_original": "Lupin VIII",
      "rating": 5.68,
      "classificacao_etaria": "A14",
      "imagem_original": "https://animefire.plus/img/animes/lupin-viii.webp",
      "imagem_pasta": "https://animefire.plus/img/animes/lupin-viii/",
      "secao": "legendados",
      "pagina": 87,
      "total_episodios": 1,
      "link_video": "https://animefire.plus/video/lupin-viii"
    },
    {
      "id": 2282,
      "nome": "Lv1 Maou to One Room Yuusha",
      "link": "https://animefire.plus/animes/lv1-maou-to-one-room-yuusha-todos-os-episodios",
      "texto_original": "Lv1 Maou to One Room Yuusha",
      "rating": 7.14,
      "classificacao_etaria": "A14",
      "imagem_original": "https://animefire.plus/img/animes/lv1-maou-to-one-room-yuusha.jpg",
      "imagem_pasta": "https://animefire.plus/img/animes/lv1-maou-to-one-room-yuusha/",
      "secao": "legendados",
      "pagina": 22,
      "total_episodios": 12,
      "link_video": "https://animefire.plus/video/lv1-maou-to-one-room-yuusha"
    },
    {
      "id": 2283,
      "nome": "Lv2 kara Cheat datta Motoyuusha Kouho no Mattari Isekai Life",
      "link": "https://animefire.plus/animes/lv2-kara-cheat-datta-motoyuusha-kouho-no-mattari-isekai-life-todos-os-episodios",
      "texto_original": "Lv2 kara Cheat datta Motoyuusha Kouho no Mattari Isekai Life",
      "rating": 6.82,
      "classificacao_etaria": "A14",
      "imagem_original": "https://animefire.plus/img/animes/lv2-kara-cheat-datta-motoyuusha-kouho-no-mattari-isekai-life.webp",
      "imagem_pasta": "https://animefire.plus/img/animes/lv2-kara-cheat-datta-motoyuusha-kouho-no-mattari-isekai-life/",
      "secao": "legendados",
      "pagina": 15,
      "total_episodios": 12,
      "link_video": "https://animefire.plus/video/lv2-kara-cheat-datta-motoyuusha-kouho-no-mattari-isekai-life"
    },
    {
      "id": 2284,
      "nome": "Lycoris Recoil (Dublado)",
      "link": "https://animefire.plus/animes/lycoris-recoil-dublado-todos-os-episodios",
      "texto_original": "Lycoris Recoil (Dublado)",
      "rating": 8.15,
      "classificacao_etaria": "A14",
      "imagem_original": "https://animefire.plus/img/animes/lycoris-recoil.webp",
      "imagem_pasta": "https://animefire.plus/img/animes/lycoris-recoil/",
      "secao": "dublados,legendados",
      "pagina": 10,
      "total_episodios": 13,
      "link_video": "https://animefire.plus/video/lycoris-recoil-dublado"
    },
    {
      "id": 2285,
      "nome": "Lycoris Recoil: Friends Are Thieves of Time.",
      "link": "https://animefire.plus/animes/lycoris-recoil-friends-are-thieves-of-time-todos-os-episodios",
      "texto_original": "Lycoris Recoil: Friends Are Thieves of Time.",
      "rating": 7.72,
      "classificacao_etaria": "A14",
      "imagem_original": "https://animefire.plus/img/animes/lycoris-recoil-friends-are-thieves-of-time.webp",
      "imagem_pasta": "https://animefire.plus/img/animes/lycoris-recoil-friends-are-thieves-of-time/",
      "secao": "legendados",
      "pagina": 4,
      "total_episodios": 6,
      "link_video": "https://animefire.plus/video/lycoris-recoil-friends-are-thieves-of-time"
    },
    {
      "id": 2289,
      "nome": "Machikado Mazoku",
      "link": "https://animefire.plus/animes/machikado-mazoku-todos-os-episodios",
      "texto_original": "Machikado Mazoku",
      "rating": 7.68,
      "classificacao_etaria": "A14",
      "imagem_original": "https://animefire.plus/img/animes/machikado-mazoku.webp",
      "imagem_pasta": "https://animefire.plus/img/animes/machikado-mazoku/",
      "secao": "legendados",
      "pagina": 119,
      "total_episodios": 2,
      "link_video": "https://animefire.plus/video/machikado-mazoku"
    },
    {
      "id": 2290,
      "nome": "Machikado Mazoku: 2-choume",
      "link": "https://animefire.plus/animes/machikado-mazoku-2-choume-todos-os-episodios",
      "texto_original": "Machikado Mazoku: 2-choume",
      "rating": 7.84,
      "classificacao_etaria": "A14",
      "imagem_original": "https://animefire.plus/img/animes/machikado-mazoku-2-choume.webp",
      "imagem_pasta": "https://animefire.plus/img/animes/machikado-mazoku-2-choume/",
      "secao": "legendados,lancamentos",
      "pagina": 34,
      "total_episodios": 4,
      "link_video": "https://animefire.plus/video/machikado-mazoku-2-choume"
    },
    {
      "id": 2292,
      "nome": "Macross (Dublado)",
      "link": "https://animefire.plus/animes/macross-dublado-todos-os-episodios",
      "texto_original": "Macross (Dublado)",
      "rating": 7.96,
      "classificacao_etaria": "A14",
      "imagem_original": "https://animefire.plus/img/animes/macross.webp",
      "imagem_pasta": "https://animefire.plus/img/animes/macross/",
      "secao": "dublados,legendados",
      "pagina": 22,
      "total_episodios": 36,
      "link_video": "https://animefire.plus/video/macross-dublado"
    },
    {
      "id": 2293,
      "nome": "Macross 7",
      "link": "https://animefire.plus/animes/macross-7-todos-os-episodios",
      "texto_original": "Macross 7",
      "rating": 7.14,
      "classificacao_etaria": "A14",
      "imagem_original": "https://animefire.plus/img/animes/macross-7.webp",
      "imagem_pasta": "https://animefire.plus/img/animes/macross-7/",
      "secao": "legendados",
      "pagina": 60,
      "total_episodios": 49,
      "link_video": "https://animefire.plus/video/macross-7"
    },
    {
      "id": 2294,
      "nome": "Macross F",
      "link": "https://animefire.plus/animes/macross-f-todos-os-episodios",
      "texto_original": "Macross F",
      "rating": 7.96,
      "classificacao_etaria": "A14",
      "imagem_original": "https://animefire.plus/img/animes/macross-f.webp",
      "imagem_pasta": "https://animefire.plus/img/animes/macross-f/",
      "secao": "legendados",
      "pagina": 176,
      "total_episodios": 0,
      "link_video": "https://animefire.plus/video/macross-f"
    },
    {
      "id": 2299,
      "nome": "Madlax",
      "link": "https://animefire.plus/animes/madlax-todos-os-episodios",
      "texto_original": "Madlax",
      "rating": 7.12,
      "classificacao_etaria": "A14",
      "imagem_original": "https://animefire.plus/img/animes/madlax.webp",
      "imagem_pasta": "https://animefire.plus/img/animes/madlax/",
      "secao": "legendados",
      "pagina": 142,
      "total_episodios": 26,
      "link_video": "https://animefire.plus/video/madlax"
    }
  ],
  "pagination": {
    "current_page": 75,
    "per_page": 20,
    "total_items": 2988,
    "total_pages": 150,
    "has_next": true,
    "has_prev": true
  }
}
