{
  "message": "Animes com classificação etária: A14",
  "age_rating": "A14",
  "data": [
    {
      "id": 2105,
      "nome": "Koujo Denka no Kateikyoushi",
      "link": "https://animefire.plus/animes/koujo-denka-no-kateikyoushi-todos-os-episodios",
      "texto_original": "Koujo Denka no Kateikyoushi",
      "rating": 6.67,
      "classificacao_etaria": "A14",
      "imagem_original": "https://animefire.plus/img/animes/koujo-denka-no-kateikyoushi.webp",
      "imagem_pasta": "https://animefire.plus/img/animes/koujo-denka-no-kateikyoushi/",
      "secao": "legendados,lancamentos",
      "pagina": 2,
      "total_episodios": 5,
      "link_video": "https://animefire.plus/video/koujo-denka-no-kateikyoushi"
    },
    {
      "id": 2109,
      "nome": "Koukaku no Pandora",
      "link": "https://animefire.plus/animes/koukaku-no-pandora-todos-os-episodios",
      "texto_original": "Koukaku no Pandora",
      "rating": 6.59,
      "classificacao_etaria": "A14",
      "imagem_original": "https://animefire.plus/img/animes/koukaku-no-pandora.webp",
      "imagem_pasta": "https://animefire.plus/img/animes/koukaku-no-pandora/",
      "secao": "legendados",
      "pagina": 169,
      "total_episodios": 12,
      "link_video": "https://animefire.plus/video/koukaku-no-pandora"
    },
    {
      "id": 2110,
      "nome": "Koukyoushihen Eureka Seven",
      "link": "https://animefire.plus/animes/koukyoushihen-eureka-seven-todos-os-episodios",
      "texto_original": "Koukyoushihen Eureka Seven",
      "rating": 8.13,
      "classificacao_etaria": "A14",
      "imagem_original": "https://animefire.plus/img/animes/koukyoushihen-eureka-seven.webp",
      "imagem_pasta": "https://animefire.plus/img/animes/koukyoushihen-eureka-seven/",
      "secao": "legendados",
      "pagina": 119,
      "total_episodios": 5,
      "link_video": "https://animefire.plus/video/koukyoushihen-eureka-seven"
    },
    {
      "id": 2111,
      "nome": "Koukyoushihen Eureka Seven: New Order",
      "link": "https://animefire.plus/animes/koukyoushihen-eureka-seven-new-order-todos-os-episodios",
      "texto_original": "Koukyoushihen Eureka Seven: New Order",
      "rating": 6.64,
      "classificacao_etaria": "A14",
      "imagem_original": "https://animefire.plus/img/animes/koukyoushihen-eureka-seven-new-order.webp",
      "imagem_pasta": "https://animefire.plus/img/animes/koukyoushihen-eureka-seven-new-order/",
      "secao": "legendados",
      "pagina": 86,
      "total_episodios": 1,
      "link_video": "https://animefire.plus/video/koukyoushihen-eureka-seven-new-order"
    },
    {
      "id": 2112,
      "nome": "Koukyuu no Karasu",
      "link": "https://animefire.plus/animes/koukyuu-no-karasu-todos-os-episodios",
      "texto_original": "Koukyuu no Karasu",
      "rating": 7.54,
      "classificacao_etaria": "A14",
      "imagem_original": "https://animefire.plus/img/animes/koukyuu-no-karasu.webp",
      "imagem_pasta": "https://animefire.plus/img/animes/koukyuu-no-karasu/",
      "secao": "legendados",
      "pagina": 29,
      "total_episodios": 13,
      "link_video": "https://animefire.plus/video/koukyuu-no-karasu"
    },
    {
      "id": 2113,
      "nome": "Koume-chan ga Iku!",
      "link": "https://animefire.plus/animes/koume-chan-ga-iku-todos-os-episodios",
      "texto_original": "Koume-chan ga Iku!",
      "rating": 5.95,
      "classificacao_etaria": "A14",
      "imagem_original": "https://animefire.plus/img/animes/koume-chan-ga-iku.webp",
      "imagem_pasta": "https://animefire.plus/img/animes/koume-chan-ga-iku/",
      "secao": "legendados",
      "pagina": 44,
      "total_episodios": 12,
      "link_video": "https://animefire.plus/video/koume-chan-ga-iku"
    },
    {
      "id": 2114,
      "nome": "Koutetsu Sangokushi",
      "link": "https://animefire.plus/animes/koutetsu-sangokushi-todos-os-episodios",
      "texto_original": "Koutetsu Sangokushi",
      "rating": 6.37,
      "classificacao_etaria": "A14",
      "imagem_original": "https://animefire.plus/img/animes/koutetsu-sangokushi.webp",
      "imagem_pasta": "https://animefire.plus/img/animes/koutetsu-sangokushi/",
      "secao": "legendados",
      "pagina": 161,
      "total_episodios": 2,
      "link_video": "https://animefire.plus/video/koutetsu-sangokushi"
    },
    {
      "id": 2118,
      "nome": "Koutetsushin Jeeg",
      "link": "https://animefire.plus/animes/koutetsushin-jeeg-todos-os-episodios",
      "texto_original": "Koutetsushin Jeeg",
      "rating": 7.02,
      "classificacao_etaria": "A14",
      "imagem_original": "https://animefire.plus/img/animes/koutetsushin-jeeg.webp",
      "imagem_pasta": "https://animefire.plus/img/animes/koutetsushin-jeeg/",
      "secao": "legendados",
      "pagina": 125,
      "total_episodios": 13,
      "link_video": "https://animefire.plus/video/koutetsushin-jeeg"
    },
    {
      "id": 2119,
      "nome": "Kouya no Kotobuki Hikoutai",
      "link": "https://animefire.plus/animes/kouya-no-kotobuki-hikoutai-todos-os-episodios",
      "texto_original": "Kouya no Kotobuki Hikoutai",
      "rating": 6.86,
      "classificacao_etaria": "A14",
      "imagem_original": "https://animefire.plus/img/animes/kouya-no-kotobuki-hikoutai.webp",
      "imagem_pasta": "https://animefire.plus/img/animes/kouya-no-kotobuki-hikoutai/",
      "secao": "legendados",
      "pagina": 102,
      "total_episodios": 12,
      "link_video": "https://animefire.plus/video/kouya-no-kotobuki-hikoutai"
    },
    {
      "id": 2120,
      "nome": "Kowabon",
      "link": "https://animefire.plus/animes/kowabon-todos-os-episodios",
      "texto_original": "Kowabon",
      "rating": 5.25,
      "classificacao_etaria": "A14",
      "imagem_original": "https://animefire.plus/img/animes/kowabon.webp",
      "imagem_pasta": "https://animefire.plus/img/animes/kowabon/",
      "secao": "legendados",
      "pagina": 59,
      "total_episodios": 13,
      "link_video": "https://animefire.plus/video/kowabon"
    },
    {
      "id": 2121,
      "nome": "Kowloon Generic Romance",
      "link": "https://animefire.plus/animes/kowloon-generic-romance-todos-os-episodios",
      "texto_original": "Kowloon Generic Romance",
      "rating": 7.39,
      "classificacao_etaria": "A14",
      "imagem_original": "https://animefire.plus/img/animes/kowloon-generic-romance.webp",
      "imagem_pasta": "https://animefire.plus/img/animes/kowloon-generic-romance/",
      "secao": "legendados",
      "pagina": 5,
      "total_episodios": 13,
      "link_video": "https://animefire.plus/video/kowloon-generic-romance"
    },
    {
      "id": 2125,
      "nome": "Kubo-san wa Mob wo Yurusanai",
      "link": "https://animefire.plus/animes/kubo-san-wa-mob-wo-yurusanai-todos-os-episodios",
      "texto_original": "Kubo-san wa Mob wo Yurusanai",
      "rating": 7.55,
      "classificacao_etaria": "A14",
      "imagem_original": "https://animefire.plus/img/animes/kubo-san-wa-mob-wo-yurusanai.webp",
      "imagem_pasta": "https://animefire.plus/img/animes/kubo-san-wa-mob-wo-yurusanai/",
      "secao": "legendados",
      "pagina": 28,
      "total_episodios": 12,
      "link_video": "https://animefire.plus/video/kubo-san-wa-mob-wo-yurusanai"
    },
    {
      "id": 2126,
      "nome": "Kud Wafter",
      "link": "https://animefire.plus/animes/kud-wafter-todos-os-episodios",
      "texto_original": "Kud Wafter",
      "rating": 7.05,
      "classificacao_etaria": "A14",
      "imagem_original": "https://animefire.plus/img/animes/kud-wafter.webp",
      "imagem_pasta": "https://animefire.plus/img/animes/kud-wafter/",
      "secao": "legendados",
      "pagina": 35,
      "total_episodios": 1,
      "link_video": "https://animefire.plus/video/kud-wafter"
    },
    {
      "id": 2128,
      "nome": "Kujibiki Unbalance",
      "link": "https://animefire.plus/animes/kujibiki-unbalance-todos-os-episodios",
      "texto_original": "Kujibiki Unbalance",
      "rating": 6.13,
      "classificacao_etaria": "A14",
      "imagem_original": "https://animefire.plus/img/animes/kujibiki-unbalance.webp",
      "imagem_pasta": "https://animefire.plus/img/animes/kujibiki-unbalance/",
      "secao": "legendados",
      "pagina": 66,
      "total_episodios": 3,
      "link_video": "https://animefire.plus/video/kujibiki-unbalance"
    },
    {
      "id": 2129,
      "nome": "Kujira no Kora wa Sajou ni Utau (Dublado)",
      "link": "https://animefire.plus/animes/kujira-no-kora-wa-sajou-ni-utau-dublado-todos-os-episodios",
      "texto_original": "Kujira no Kora wa Sajou ni Utau (Dublado)",
      "rating": 7.26,
      "classificacao_etaria": "A14",
      "imagem_original": "https://animefire.plus/img/animes/kujira-no-kora-wa-sajou-ni-utau.webp",
      "imagem_pasta": "https://animefire.plus/img/animes/kujira-no-kora-wa-sajou-ni-utau/",
      "secao": "dublados,legendados",
      "pagina": 24,
      "total_episodios": 12,
      "link_video": "https://animefire.plus/video/kujira-no-kora-wa-sajou-ni-utau-dublado"
    },
    {
      "id": 2130,
      "nome": "Kuma Kuma Kuma Bear",
      "link": "https://animefire.plus/animes/kuma-kuma-kuma-bear-todos-os-episodios",
      "texto_original": "Kuma Kuma Kuma Bear",
      "rating": 6.86,
      "classificacao_etaria": "A14",
      "imagem_original": "https://animefire.plus/img/animes/kuma-kuma-kuma-bear.webp",
      "imagem_pasta": "https://animefire.plus/img/animes/kuma-kuma-kuma-bear/",
      "secao": "legendados",
      "pagina": 51,
      "total_episodios": 0,
      "link_video": "https://animefire.plus/video/kuma-kuma-kuma-bear"
    },
    {
      "id": 2131,
      "nome": "Kuma Kuma Kuma Bear Punch!",
      "link": "https://animefire.plus/animes/kuma-kuma-kuma-bear-punch-todos-os-episodios",
      "texto_original": "Kuma Kuma Kuma Bear Punch!",
      "rating": 7.28,
      "classificacao_etaria": "A14",
      "imagem_original": "https://animefire.plus/img/animes/kuma-kuma-kuma-bear-punch.jpg",
      "imagem_pasta": "https://animefire.plus/img/animes/kuma-kuma-kuma-bear-punch/",
      "secao": "legendados",
      "pagina": 24,
      "total_episodios": 12,
      "link_video": "https://animefire.plus/video/kuma-kuma-kuma-bear-punch"
    },
    {
      "id": 2132,
      "nome": "Kuma Miko",
      "link": "https://animefire.plus/animes/kuma-miko-todos-os-episodios",
      "texto_original": "Kuma Miko",
      "rating": 6.33,
      "classificacao_etaria": "A14",
      "imagem_original": "https://animefire.plus/img/animes/kuma-miko.webp",
      "imagem_pasta": "https://animefire.plus/img/animes/kuma-miko/",
      "secao": "legendados",
      "pagina": 166,
      "total_episodios": 5,
      "link_video": "https://animefire.plus/video/kuma-miko"
    },
    {
      "id": 2133,
      "nome": "Kuma Miko Specials",
      "link": "https://animefire.plus/animes/kuma-miko-specials-todos-os-episodios",
      "texto_original": "Kuma Miko Specials",
      "rating": 6.53,
      "classificacao_etaria": "A14",
      "imagem_original": "https://animefire.plus/img/animes/kuma-miko-specials.webp",
      "imagem_pasta": "https://animefire.plus/img/animes/kuma-miko-specials/",
      "secao": "legendados",
      "pagina": 86,
      "total_episodios": 2,
      "link_video": "https://animefire.plus/video/kuma-miko-specials"
    },
    {
      "id": 2134,
      "nome": "Kumichou Musume to Sewagakari",
      "link": "https://animefire.plus/animes/kumichou-musume-to-sewagakari-todos-os-episodios",
      "texto_original": "Kumichou Musume to Sewagakari",
      "rating": 7.74,
      "classificacao_etaria": "A14",
      "imagem_original": "https://animefire.plus/img/animes/kumichou-musume-to-sewagakari.webp",
      "imagem_pasta": "https://animefire.plus/img/animes/kumichou-musume-to-sewagakari/",
      "secao": "legendados",
      "pagina": 31,
      "total_episodios": 12,
      "link_video": "https://animefire.plus/video/kumichou-musume-to-sewagakari"
    }
  ],
  "pagination": {
    "current_page": 69,
    "per_page": 20,
    "total_items": 2988,
    "total_pages": 150,
    "has_next": true,
    "has_prev": true
  }
}
