{
  "message": "Animes com classificação etária: A14",
  "age_rating": "A14",
  "data": [
    {
      "id": 1498,
      "nome": "Hisone to Maso-tan (Dublado)",
      "link": "https://animefire.plus/animes/hisone-to-maso-tan-dublado-todos-os-episodios",
      "texto_original": "Hisone to Maso-tan (Dublado)",
      "rating": 7.45,
      "classificacao_etaria": "A14",
      "imagem_original": "https://animefire.plus/img/animes/hisone-to-maso-tan.webp",
      "imagem_pasta": "https://animefire.plus/img/animes/hisone-to-maso-tan/",
      "secao": "dublados,legendados",
      "pagina": 24,
      "total_episodios": 12,
      "link_video": "https://animefire.plus/video/hisone-to-maso-tan-dublado"
    },
    {
      "id": 1500,
      "nome": "Hitohira",
      "link": "https://animefire.plus/animes/hitohira-todos-os-episodios",
      "texto_original": "Hitohira",
      "rating": 6.82,
      "classificacao_etaria": "A14",
      "imagem_original": "https://animefire.plus/img/animes/hitohira.webp",
      "imagem_pasta": "https://animefire.plus/img/animes/hitohira/",
      "secao": "legendados",
      "pagina": 102,
      "total_episodios": 12,
      "link_video": "https://animefire.plus/video/hitohira"
    },
    {
      "id": 1506,
      "nome": "Hitoribocchi no Isekai Kouryaku",
      "link": "https://animefire.plus/animes/hitoribocchi-no-isekai-kouryaku-todos-os-episodios",
      "texto_original": "Hitoribocchi no Isekai Kouryaku",
      "rating": 6.57,
      "classificacao_etaria": "A14",
      "imagem_original": "https://animefire.plus/img/animes/hitoribocchi-no-isekai-kouryaku.webp",
      "imagem_pasta": "https://animefire.plus/img/animes/hitoribocchi-no-isekai-kouryaku/",
      "secao": "legendados",
      "pagina": 11,
      "total_episodios": 12,
      "link_video": "https://animefire.plus/video/hitoribocchi-no-isekai-kouryaku"
    },
    {
      "id": 1507,
      "nome": "Hitoribocchi no Marumaru Seikatsu",
      "link": "https://animefire.plus/animes/hitoribocchi-no-marumaru-seikatsu-todos-os-episodios",
      "texto_original": "Hitoribocchi no Marumaru Seikatsu",
      "rating": 7.51,
      "classificacao_etaria": "A14",
      "imagem_original": "https://animefire.plus/img/animes/hitoribocchi-no-marumaru-seikatsu.webp",
      "imagem_pasta": "https://animefire.plus/img/animes/hitoribocchi-no-marumaru-seikatsu/",
      "secao": "legendados",
      "pagina": 138,
      "total_episodios": 0,
      "link_video": "https://animefire.plus/video/hitoribocchi-no-marumaru-seikatsu"
    },
    {
      "id": 1508,
      "nome": "Hitorijime My Hero",
      "link": "https://animefire.plus/animes/hitorijime-my-hero-todos-os-episodios",
      "texto_original": "Hitorijime My Hero",
      "rating": 7.6,
      "classificacao_etaria": "A14",
      "imagem_original": "https://animefire.plus/img/animes/hitorijime-my-hero.webp",
      "imagem_pasta": "https://animefire.plus/img/animes/hitorijime-my-hero/",
      "secao": "legendados",
      "pagina": 120,
      "total_episodios": 12,
      "link_video": "https://animefire.plus/video/hitorijime-my-hero"
    },
    {
      "id": 1512,
      "nome": "Hiyokoi",
      "link": "https://animefire.plus/animes/hiyokoi-todos-os-episodios",
      "texto_original": "Hiyokoi",
      "rating": 7.36,
      "classificacao_etaria": "A14",
      "imagem_original": "https://animefire.plus/img/animes/hiyokoi.webp",
      "imagem_pasta": "https://animefire.plus/img/animes/hiyokoi/",
      "secao": "legendados",
      "pagina": 56,
      "total_episodios": 1,
      "link_video": "https://animefire.plus/video/hiyokoi"
    },
    {
      "id": 1516,
      "nome": "Honey Lemon Soda",
      "link": "https://animefire.plus/animes/honey-lemon-soda-todos-os-episodios",
      "texto_original": "Honey Lemon Soda",
      "rating": 7.17,
      "classificacao_etaria": "A14",
      "imagem_original": "https://animefire.plus/img/animes/honey-lemon-soda.webp",
      "imagem_pasta": "https://animefire.plus/img/animes/honey-lemon-soda/",
      "secao": "legendados",
      "pagina": 7,
      "total_episodios": 12,
      "link_video": "https://animefire.plus/video/honey-lemon-soda"
    },
    {
      "id": 1518,
      "nome": "Honoo no Mirage",
      "link": "https://animefire.plus/animes/honoo-no-mirage-todos-os-episodios",
      "texto_original": "Honoo no Mirage",
      "rating": 6.67,
      "classificacao_etaria": "A14",
      "imagem_original": "https://animefire.plus/img/animes/honoo-no-mirage.webp",
      "imagem_pasta": "https://animefire.plus/img/animes/honoo-no-mirage/",
      "secao": "legendados",
      "pagina": 119,
      "total_episodios": 13,
      "link_video": "https://animefire.plus/video/honoo-no-mirage"
    },
    {
      "id": 1519,
      "nome": "Honzuki no Gekokujou: Shisho ni Naru Tame ni wa Shudan wo Erandeiraremasen",
      "link": "https://animefire.plus/animes/honzuki-no-gekokujou-shisho-ni-naru-tame-ni-wa-shudan-wo-erandeiraremasen-todos-os-episodios",
      "texto_original": "Honzuki no Gekokujou: Shisho ni Naru Tame ni wa Shudan wo Erandeiraremasen",
      "rating": 8.03,
      "classificacao_etaria": "A14",
      "imagem_original": "https://animefire.plus/img/animes/honzuki-no-gekokujou-shisho-ni-naru-tame-ni-wa-shudan-wo-erandeiraremasen.webp",
      "imagem_pasta": "https://animefire.plus/img/animes/honzuki-no-gekokujou-shisho-ni-naru-tame-ni-wa-shudan-wo-erandeiraremasen/",
      "secao": "legendados",
      "pagina": 111,
      "total_episodios": 14,
      "link_video": "https://animefire.plus/video/honzuki-no-gekokujou-shisho-ni-naru-tame-ni-wa-shudan-wo-erandeiraremasen"
    },
    {
      "id": 1520,
      "nome": "Honzuki no Gekokujou: Shisho ni Naru Tame ni wa Shudan wo Erandeiraremasen 2nd Season",
      "link": "https://animefire.plus/animes/honzuki-no-gekokujou-shisho-ni-naru-tame-ni-wa-shudan-wo-erandeiraremasen-2nd-season-todos-os-episodios",
      "texto_original": "Honzuki no Gekokujou: Shisho ni Naru Tame ni wa Shudan wo Erandeiraremasen 2nd Season",
      "rating": 8.16,
      "classificacao_etaria": "A14",
      "imagem_original": "https://animefire.plus/img/animes/honzuki-no-gekokujou-shisho-ni-naru-tame-ni-wa-shudan-wo-erandeiraremasen-2nd-season.webp",
      "imagem_pasta": "https://animefire.plus/img/animes/honzuki-no-gekokujou-shisho-ni-naru-tame-ni-wa-shudan-wo-erandeiraremasen-2nd-season/",
      "secao": "legendados",
      "pagina": 81,
      "total_episodios": 1,
      "link_video": "https://animefire.plus/video/honzuki-no-gekokujou-shisho-ni-naru-tame-ni-wa-shudan-wo-erandeiraremasen-2nd-season"
    },
    {
      "id": 1521,
      "nome": "Honzuki no Gekokujou: Shisho ni Naru Tame ni wa Shudan wo Erandeiraremasen 3rd Season",
      "link": "https://animefire.plus/animes/honzuki-no-gekokujou-shisho-ni-naru-tame-ni-wa-shudan-wo-erandeiraremasen-3rd-season-todos-os-episodios",
      "texto_original": "Honzuki no Gekokujou: Shisho ni Naru Tame ni wa Shudan wo Erandeiraremasen 3rd Season",
      "rating": 8.07,
      "classificacao_etaria": "A14",
      "imagem_original": "https://animefire.plus/img/animes/honzuki-no-gekokujou-shisho-ni-naru-tame-ni-wa-shudan-wo-erandeiraremasen-3rd-season.webp",
      "imagem_pasta": "https://animefire.plus/img/animes/honzuki-no-gekokujou-shisho-ni-naru-tame-ni-wa-shudan-wo-erandeiraremasen-3rd-season/",
      "secao": "legendados",
      "pagina": 34,
      "total_episodios": 10,
      "link_video": "https://animefire.plus/video/honzuki-no-gekokujou-shisho-ni-naru-tame-ni-wa-shudan-wo-erandeiraremasen-3rd-season"
    },
    {
      "id": 1522,
      "nome": "Hoozuki no Reitetsu",
      "link": "https://animefire.plus/animes/hoozuki-no-reitetsu-todos-os-episodios",
      "texto_original": "Hoozuki no Reitetsu",
      "rating": 7.81,
      "classificacao_etaria": "A14",
      "imagem_original": "https://animefire.plus/img/animes/hoozuki-no-reitetsu.webp",
      "imagem_pasta": "https://animefire.plus/img/animes/hoozuki-no-reitetsu/",
      "secao": "legendados",
      "pagina": 63,
      "total_episodios": 13,
      "link_video": "https://animefire.plus/video/hoozuki-no-reitetsu"
    },
    {
      "id": 1523,
      "nome": "Hoozuki no Reitetsu 2nd Season",
      "link": "https://animefire.plus/animes/hoozuki-no-reitetsu-2nd-season-todos-os-episodios",
      "texto_original": "Hoozuki no Reitetsu 2nd Season",
      "rating": 7.88,
      "classificacao_etaria": "A14",
      "imagem_original": "https://animefire.plus/img/animes/hoozuki-no-reitetsu-2nd-season.webp",
      "imagem_pasta": "https://animefire.plus/img/animes/hoozuki-no-reitetsu-2nd-season/",
      "secao": "legendados",
      "pagina": 63,
      "total_episodios": 26,
      "link_video": "https://animefire.plus/video/hoozuki-no-reitetsu-2nd-season"
    },
    {
      "id": 1524,
      "nome": "Hoozuki no Reitetsu 2nd Season: Sono Ni",
      "link": "https://animefire.plus/animes/hoozuki-no-reitetsu-2nd-season-sono-ni-todos-os-episodios",
      "texto_original": "Hoozuki no Reitetsu 2nd Season: Sono Ni",
      "rating": 7.85,
      "classificacao_etaria": "A14",
      "imagem_original": "https://animefire.plus/img/animes/hoozuki-no-reitetsu-2nd-season-sono-ni.webp",
      "imagem_pasta": "https://animefire.plus/img/animes/hoozuki-no-reitetsu-2nd-season-sono-ni/",
      "secao": "legendados",
      "pagina": 120,
      "total_episodios": 13,
      "link_video": "https://animefire.plus/video/hoozuki-no-reitetsu-2nd-season-sono-ni"
    },
    {
      "id": 1525,
      "nome": "Hori-san to Miyamura-kun",
      "link": "https://animefire.plus/animes/hori-san-to-miyamura-kun-todos-os-episodios",
      "texto_original": "Hori-san to Miyamura-kun",
      "rating": 7.36,
      "classificacao_etaria": "A14",
      "imagem_original": "https://animefire.plus/img/animes/hori-san-to-miyamura-kun.webp",
      "imagem_pasta": "https://animefire.plus/img/animes/hori-san-to-miyamura-kun/",
      "secao": "legendados",
      "pagina": 61,
      "total_episodios": 3,
      "link_video": "https://animefire.plus/video/hori-san-to-miyamura-kun"
    },
    {
      "id": 1526,
      "nome": "Horimiya (Dublado)",
      "link": "https://animefire.plus/animes/horimiya-dublado-todos-os-episodios",
      "texto_original": "Horimiya (Dublado)",
      "rating": 8.19,
      "classificacao_etaria": "A14",
      "imagem_original": "https://animefire.plus/img/animes/horimiya.webp",
      "imagem_pasta": "https://animefire.plus/img/animes/horimiya/",
      "secao": "dublados,legendados",
      "pagina": 15,
      "total_episodios": 13,
      "link_video": "https://animefire.plus/video/horimiya-dublado"
    },
    {
      "id": 1527,
      "nome": "Horimiya: Piece (Dublado)",
      "link": "https://animefire.plus/animes/horimiya-piece-dublado-todos-os-episodios",
      "texto_original": "Horimiya: Piece (Dublado)",
      "rating": 8.14,
      "classificacao_etaria": "A14",
      "imagem_original": "https://animefire.plus/img/animes/horimiya-piece.webp",
      "imagem_pasta": "https://animefire.plus/img/animes/horimiya-piece/",
      "secao": "dublados,legendados",
      "pagina": 6,
      "total_episodios": 13,
      "link_video": "https://animefire.plus/video/horimiya-piece-dublado"
    },
    {
      "id": 1528,
      "nome": "Hortensia Saga (TV)",
      "link": "https://animefire.plus/animes/hortensia-saga-tv-todos-os-episodios",
      "texto_original": "Hortensia Saga (TV)",
      "rating": 5.84,
      "classificacao_etaria": "A14",
      "imagem_original": "https://animefire.plus/img/animes/hortensia-saga-tv.webp",
      "imagem_pasta": "https://animefire.plus/img/animes/hortensia-saga-tv/",
      "secao": "legendados",
      "pagina": 49,
      "total_episodios": 12,
      "link_video": "https://animefire.plus/video/hortensia-saga-tv"
    },
    {
      "id": 1529,
      "nome": "Hoshi no Samidare (Dublado)",
      "link": "https://animefire.plus/animes/hoshi-no-samidare-dublado-todos-os-episodios",
      "texto_original": "Hoshi no Samidare (Dublado)",
      "rating": 5.63,
      "classificacao_etaria": "A14",
      "imagem_original": "https://animefire.plus/img/animes/hoshi-no-samidare.webp",
      "imagem_pasta": "https://animefire.plus/img/animes/hoshi-no-samidare/",
      "secao": "dublados,legendados",
      "pagina": 10,
      "total_episodios": 24,
      "link_video": "https://animefire.plus/video/hoshi-no-samidare-dublado"
    },
    {
      "id": 1530,
      "nome": "Hoshiai no Sora",
      "link": "https://animefire.plus/animes/hoshiai-no-sora-todos-os-episodios",
      "texto_original": "Hoshiai no Sora",
      "rating": 7.52,
      "classificacao_etaria": "A14",
      "imagem_original": "https://animefire.plus/img/animes/hoshiai-no-sora.webp",
      "imagem_pasta": "https://animefire.plus/img/animes/hoshiai-no-sora/",
      "secao": "legendados",
      "pagina": 110,
      "total_episodios": 1,
      "link_video": "https://animefire.plus/video/hoshiai-no-sora"
    }
  ],
  "pagination": {
    "current_page": 49,
    "per_page": 20,
    "total_items": 2988,
    "total_pages": 150,
    "has_next": true,
    "has_prev": true
  }
}
