{
  "message": "Animes com classificação etária: A14",
  "age_rating": "A14",
  "data": [
    {
      "id": 1715,
      "nome": "Jibaku Shounen Hanako-kun 2 Part 2",
      "link": "https://animefire.plus/animes/jibaku-shounen-hanako-kun-2-part-2-todos-os-episodios",
      "texto_original": "Jibaku Shounen Hanako-kun 2 Part 2",
      "rating": 7.92,
      "classificacao_etaria": "A14",
      "imagem_original": "https://animefire.plus/img/animes/jibaku-shounen-hanako-kun-2-part-2.webp",
      "imagem_pasta": "https://animefire.plus/img/animes/jibaku-shounen-hanako-kun-2-part-2/",
      "secao": "legendados,lancamentos",
      "pagina": 2,
      "total_episodios": 5,
      "link_video": "https://animefire.plus/video/jibaku-shounen-hanako-kun-2-part-2"
    },
    {
      "id": 1716,
      "nome": "Jibaku-kun",
      "link": "https://animefire.plus/animes/jibaku-kun-todos-os-episodios",
      "texto_original": "Jibaku-kun",
      "rating": 7.49,
      "classificacao_etaria": "A14",
      "imagem_original": "https://animefire.plus/img/animes/jibaku-kun.webp",
      "imagem_pasta": "https://animefire.plus/img/animes/jibaku-kun/",
      "secao": "legendados",
      "pagina": 179,
      "total_episodios": 26,
      "link_video": "https://animefire.plus/video/jibaku-kun"
    },
    {
      "id": 1717,
      "nome": "Jidou Hanbaiki ni Umarekawatta Ore wa Meikyuu wo Samayou (Dublado)",
      "link": "https://animefire.plus/animes/jidou-hanbaiki-ni-umarekawatta-ore-wa-meikyuu-wo-samayou-dublado-todos-os-episodios",
      "texto_original": "Jidou Hanbaiki ni Umarekawatta Ore wa Meikyuu wo Samayou (Dublado)",
      "rating": 6.45,
      "classificacao_etaria": "A14",
      "imagem_original": "https://animefire.plus/img/animes/jidou-hanbaiki-ni-umarekawatta-ore-wa-meikyuu-wo-samayou.webp",
      "imagem_pasta": "https://animefire.plus/img/animes/jidou-hanbaiki-ni-umarekawatta-ore-wa-meikyuu-wo-samayou/",
      "secao": "dublados,legendados",
      "pagina": 6,
      "total_episodios": 12,
      "link_video": "https://animefire.plus/video/jidou-hanbaiki-ni-umarekawatta-ore-wa-meikyuu-wo-samayou-dublado"
    },
    {
      "id": 1718,
      "nome": "Jidou Hanbaiki ni Umarekawatta Ore wa Meikyuu wo Samayou 2nd Season",
      "link": "https://animefire.plus/animes/jidou-hanbaiki-ni-umarekawatta-ore-wa-meikyuu-wo-samayou-2nd-season-todos-os-episodios",
      "texto_original": "Jidou Hanbaiki ni Umarekawatta Ore wa Meikyuu wo Samayou 2nd Season",
      "rating": 6.61,
      "classificacao_etaria": "A14",
      "imagem_original": "https://animefire.plus/img/animes/jidou-hanbaiki-ni-umarekawatta-ore-wa-meikyuu-wo-samayou-2nd-season.webp",
      "imagem_pasta": "https://animefire.plus/img/animes/jidou-hanbaiki-ni-umarekawatta-ore-wa-meikyuu-wo-samayou-2nd-season/",
      "secao": "legendados,lancamentos",
      "pagina": 1,
      "total_episodios": 5,
      "link_video": "https://animefire.plus/video/jidou-hanbaiki-ni-umarekawatta-ore-wa-meikyuu-wo-samayou-2nd-season"
    },
    {
      "id": 1719,
      "nome": "Jie Mo Ren",
      "link": "https://animefire.plus/animes/jie-mo-ren-todos-os-episodios",
      "texto_original": "Jie Mo Ren",
      "rating": 6.34,
      "classificacao_etaria": "A14",
      "imagem_original": "https://animefire.plus/img/animes/jie-mo-ren.webp",
      "imagem_pasta": "https://animefire.plus/img/animes/jie-mo-ren/",
      "secao": "legendados",
      "pagina": 147,
      "total_episodios": 14,
      "link_video": "https://animefire.plus/video/jie-mo-ren"
    },
    {
      "id": 1720,
      "nome": "Jie Yao",
      "link": "https://animefire.plus/animes/jie-yao-todos-os-episodios",
      "texto_original": "Jie Yao",
      "rating": 7.01,
      "classificacao_etaria": "A14",
      "imagem_original": "https://animefire.plus/img/animes/jie-yao.webp",
      "imagem_pasta": "https://animefire.plus/img/animes/jie-yao/",
      "secao": "legendados",
      "pagina": 90,
      "total_episodios": 0,
      "link_video": "https://animefire.plus/video/jie-yao"
    },
    {
      "id": 1721,
      "nome": "Jigoku Sensei Nube",
      "link": "https://animefire.plus/animes/jigoku-sensei-nube-todos-os-episodios",
      "texto_original": "Jigoku Sensei Nube",
      "rating": 7.62,
      "classificacao_etaria": "A14",
      "imagem_original": "https://animefire.plus/img/animes/jigoku-sensei-nube.webp",
      "imagem_pasta": "https://animefire.plus/img/animes/jigoku-sensei-nube/",
      "secao": "legendados",
      "pagina": 122,
      "total_episodios": 49,
      "link_video": "https://animefire.plus/video/jigoku-sensei-nube"
    },
    {
      "id": 1722,
      "nome": "Jigoku Sensei Nube (2025)",
      "link": "https://animefire.plus/animes/jigoku-sensei-nube-2025-todos-os-episodios",
      "texto_original": "Jigoku Sensei Nube (2025)",
      "rating": 6.69,
      "classificacao_etaria": "A14",
      "imagem_original": "https://animefire.plus/img/animes/jigoku-sensei-nube-2025.webp",
      "imagem_pasta": "https://animefire.plus/img/animes/jigoku-sensei-nube-2025/",
      "secao": "legendados,lancamentos",
      "pagina": 2,
      "total_episodios": 2,
      "link_video": "https://animefire.plus/video/jigoku-sensei-nube-2025"
    },
    {
      "id": 1728,
      "nome": "Jiisan Baasan Wakagaeru",
      "link": "https://animefire.plus/animes/jiisan-baasan-wakagaeru-todos-os-episodios",
      "texto_original": "Jiisan Baasan Wakagaeru",
      "rating": 7.46,
      "classificacao_etaria": "A14",
      "imagem_original": "https://animefire.plus/img/animes/jiisan-baasan-wakagaeru.webp",
      "imagem_pasta": "https://animefire.plus/img/animes/jiisan-baasan-wakagaeru/",
      "secao": "legendados",
      "pagina": 15,
      "total_episodios": 11,
      "link_video": "https://animefire.plus/video/jiisan-baasan-wakagaeru"
    },
    {
      "id": 1729,
      "nome": "Jijou o Shiranai Tenkousei ga Guigui Kuru",
      "link": "https://animefire.plus/animes/jijou-o-shiranai-tenkousei-ga-guigui-kuru-todos-os-episodios",
      "texto_original": "Jijou o Shiranai Tenkousei ga Guigui Kuru",
      "rating": 7.51,
      "classificacao_etaria": "A14",
      "imagem_original": "https://animefire.plus/img/animes/jijou-o-shiranai-tenkousei-ga-guigui-kuru.jpg",
      "imagem_pasta": "https://animefire.plus/img/animes/jijou-o-shiranai-tenkousei-ga-guigui-kuru/",
      "secao": "legendados",
      "pagina": 24,
      "total_episodios": 13,
      "link_video": "https://animefire.plus/video/jijou-o-shiranai-tenkousei-ga-guigui-kuru"
    },
    {
      "id": 1730,
      "nome": "Jikan no Shihaisha",
      "link": "https://animefire.plus/animes/jikan-no-shihaisha-todos-os-episodios",
      "texto_original": "Jikan no Shihaisha",
      "rating": 6.41,
      "classificacao_etaria": "A14",
      "imagem_original": "https://animefire.plus/img/animes/jikan-no-shihaisha.webp",
      "imagem_pasta": "https://animefire.plus/img/animes/jikan-no-shihaisha/",
      "secao": "legendados",
      "pagina": 152,
      "total_episodios": 13,
      "link_video": "https://animefire.plus/video/jikan-no-shihaisha"
    },
    {
      "id": 1732,
      "nome": "Jin Tian Kai Shi Zuo Ming Xing",
      "link": "https://animefire.plus/animes/jin-tian-kai-shi-zuo-ming-xing-todos-os-episodios",
      "texto_original": "Jin Tian Kai Shi Zuo Ming Xing",
      "rating": 7.04,
      "classificacao_etaria": "A14",
      "imagem_original": "https://animefire.plus/img/animes/jin-tian-kai-shi-zuo-ming-xing.webp",
      "imagem_pasta": "https://animefire.plus/img/animes/jin-tian-kai-shi-zuo-ming-xing/",
      "secao": "legendados",
      "pagina": 80,
      "total_episodios": 13,
      "link_video": "https://animefire.plus/video/jin-tian-kai-shi-zuo-ming-xing"
    },
    {
      "id": 1733,
      "nome": "Jingai-san no Yome",
      "link": "https://animefire.plus/animes/jingai-san-no-yome-todos-os-episodios",
      "texto_original": "Jingai-san no Yome",
      "rating": 5.64,
      "classificacao_etaria": "A14",
      "imagem_original": "https://animefire.plus/img/animes/jingai-san-no-yome.webp",
      "imagem_pasta": "https://animefire.plus/img/animes/jingai-san-no-yome/",
      "secao": "legendados",
      "pagina": 123,
      "total_episodios": 12,
      "link_video": "https://animefire.plus/video/jingai-san-no-yome"
    },
    {
      "id": 1735,
      "nome": "Jinrui wa Suitai Shimashita",
      "link": "https://animefire.plus/animes/jinrui-wa-suitai-shimashita-todos-os-episodios",
      "texto_original": "Jinrui wa Suitai Shimashita",
      "rating": 7.84,
      "classificacao_etaria": "A14",
      "imagem_original": "https://animefire.plus/img/animes/jinrui-wa-suitai-shimashita.webp",
      "imagem_pasta": "https://animefire.plus/img/animes/jinrui-wa-suitai-shimashita/",
      "secao": "legendados",
      "pagina": 175,
      "total_episodios": 8,
      "link_video": "https://animefire.plus/video/jinrui-wa-suitai-shimashita"
    },
    {
      "id": 1736,
      "nome": "Jinsei",
      "link": "https://animefire.plus/animes/jinsei-todos-os-episodios",
      "texto_original": "Jinsei",
      "rating": 6.54,
      "classificacao_etaria": "A14",
      "imagem_original": "https://animefire.plus/img/animes/jinsei.webp",
      "imagem_pasta": "https://animefire.plus/img/animes/jinsei/",
      "secao": "legendados",
      "pagina": 153,
      "total_episodios": 4,
      "link_video": "https://animefire.plus/video/jinsei"
    },
    {
      "id": 1737,
      "nome": "Jitsu wa Ore, Saikyou deshita?",
      "link": "https://animefire.plus/animes/jitsu-wa-ore-saikyou-deshita-todos-os-episodios",
      "texto_original": "Jitsu wa Ore, Saikyou deshita?",
      "rating": 6.48,
      "classificacao_etaria": "A14",
      "imagem_original": "https://animefire.plus/img/animes/jitsu-wa-ore-saikyou-deshita.jpg",
      "imagem_pasta": "https://animefire.plus/img/animes/jitsu-wa-ore-saikyou-deshita/",
      "secao": "legendados",
      "pagina": 23,
      "total_episodios": 12,
      "link_video": "https://animefire.plus/video/jitsu-wa-ore-saikyou-deshita"
    },
    {
      "id": 1738,
      "nome": "Jitsu Wa Watashi Wa",
      "link": "https://animefire.plus/animes/jitsu-wa-watashi-wa-todos-os-episodios",
      "texto_original": "Jitsu Wa Watashi Wa",
      "rating": 7.03,
      "classificacao_etaria": "A14",
      "imagem_original": "https://animefire.plus/img/animes/jitsu-wa-watashi-wa.webp",
      "imagem_pasta": "https://animefire.plus/img/animes/jitsu-wa-watashi-wa/",
      "secao": "legendados",
      "pagina": 95,
      "total_episodios": 13,
      "link_video": "https://animefire.plus/video/jitsu-wa-watashi-wa"
    },
    {
      "id": 1749,
      "nome": "Joshikausei",
      "link": "https://animefire.plus/animes/joshikausei-todos-os-episodios",
      "texto_original": "Joshikausei",
      "rating": 5.76,
      "classificacao_etaria": "A14",
      "imagem_original": "https://animefire.plus/img/animes/joshikausei.webp",
      "imagem_pasta": "https://animefire.plus/img/animes/joshikausei/",
      "secao": "legendados",
      "pagina": 138,
      "total_episodios": 0,
      "link_video": "https://animefire.plus/video/joshikausei"
    },
    {
      "id": 1750,
      "nome": "Joshikousei no Mudazukai",
      "link": "https://animefire.plus/animes/joshikousei-no-mudazukai-todos-os-episodios",
      "texto_original": "Joshikousei no Mudazukai",
      "rating": 7.71,
      "classificacao_etaria": "A14",
      "imagem_original": "https://animefire.plus/img/animes/joshikousei-no-mudazukai.webp",
      "imagem_pasta": "https://animefire.plus/img/animes/joshikousei-no-mudazukai/",
      "secao": "legendados",
      "pagina": 112,
      "total_episodios": 5,
      "link_video": "https://animefire.plus/video/joshikousei-no-mudazukai"
    },
    {
      "id": 1751,
      "nome": "Joshiraku",
      "link": "https://animefire.plus/animes/joshiraku-todos-os-episodios",
      "texto_original": "Joshiraku",
      "rating": 7.52,
      "classificacao_etaria": "A14",
      "imagem_original": "https://animefire.plus/img/animes/joshiraku.webp",
      "imagem_pasta": "https://animefire.plus/img/animes/joshiraku/",
      "secao": "legendados",
      "pagina": 149,
      "total_episodios": 4,
      "link_video": "https://animefire.plus/video/joshiraku"
    }
  ],
  "pagination": {
    "current_page": 56,
    "per_page": 20,
    "total_items": 2988,
    "total_pages": 150,
    "has_next": true,
    "has_prev": true
  }
}
