{
  "message": "Animes com classificação etária: A14",
  "age_rating": "A14",
  "data": [
    {
      "id": 647,
      "nome": "Chuunibyou demo Koi ga Shitai!: Depth of Field - Ai to Nikushimi Gekijou",
      "link": "https://animefire.plus/animes/chuunibyou-demo-koi-ga-shitai-depth-of-field---ai-to-nikushimi-gekijou-todos-os-episodios",
      "texto_original": "Chuunibyou demo Koi ga Shitai!: Depth of Field - Ai to Nikushimi Gekijou",
      "rating": 6.72,
      "classificacao_etaria": "A14",
      "imagem_original": "https://animefire.plus/img/animes/chuunibyou-demo-koi-ga-shitai-depth-of-field---ai-to-nikushimi-gekijou.webp",
      "imagem_pasta": "https://animefire.plus/img/animes/chuunibyou-demo-koi-ga-shitai-depth-of-field---ai-to-nikushimi-gekijou/",
      "secao": "legendados",
      "pagina": 44,
      "total_episodios": 7,
      "link_video": "https://animefire.plus/video/chuunibyou-demo-koi-ga-shitai-depth-of-field---ai-to-nikushimi-gekijou"
    },
    {
      "id": 648,
      "nome": "Chuunibyou demo Koi ga Shitai!: Kirameki no... Slapstick Noel",
      "link": "https://animefire.plus/animes/chuunibyou-demo-koi-ga-shitai-kirameki-no-slapstick-noel-todos-os-episodios",
      "texto_original": "Chuunibyou demo Koi ga Shitai!: Kirameki no... Slapstick Noel",
      "rating": 7.51,
      "classificacao_etaria": "A14",
      "imagem_original": "https://animefire.plus/img/animes/chuunibyou-demo-koi-ga-shitai-kirameki-no-slapstick-noel.webp",
      "imagem_pasta": "https://animefire.plus/img/animes/chuunibyou-demo-koi-ga-shitai-kirameki-no-slapstick-noel/",
      "secao": "legendados",
      "pagina": 44,
      "total_episodios": 1,
      "link_video": "https://animefire.plus/video/chuunibyou-demo-koi-ga-shitai-kirameki-no-slapstick-noel"
    },
    {
      "id": 649,
      "nome": "Chuuzenji-sensei Mononoke Kougiroku: Sensei ga Nazo wo Hodoite Shimau kara.",
      "link": "https://animefire.plus/animes/chuuzenji-sensei-mononoke-kougiroku-sensei-ga-nazo-wo-hodoite-shimau-kara-todos-os-episodios",
      "texto_original": "Chuuzenji-sensei Mononoke Kougiroku: Sensei ga Nazo wo Hodoite Shimau kara.",
      "rating": 6.52,
      "classificacao_etaria": "A14",
      "imagem_original": "https://animefire.plus/img/animes/chuuzenji-sensei-mononoke-kougiroku-sensei-ga-nazo-wo-hodoite-shimau-kara.webp",
      "imagem_pasta": "https://animefire.plus/img/animes/chuuzenji-sensei-mononoke-kougiroku-sensei-ga-nazo-wo-hodoite-shimau-kara/",
      "secao": "legendados",
      "pagina": 4,
      "total_episodios": 12,
      "link_video": "https://animefire.plus/video/chuuzenji-sensei-mononoke-kougiroku-sensei-ga-nazo-wo-hodoite-shimau-kara"
    },
    {
      "id": 650,
      "nome": "Cinderella Boy",
      "link": "https://animefire.plus/animes/cinderella-boy-todos-os-episodios",
      "texto_original": "Cinderella Boy",
      "rating": 6.35,
      "classificacao_etaria": "A14",
      "imagem_original": "https://animefire.plus/img/animes/cinderella-boy.webp",
      "imagem_pasta": "https://animefire.plus/img/animes/cinderella-boy/",
      "secao": "legendados",
      "pagina": 96,
      "total_episodios": 0,
      "link_video": "https://animefire.plus/video/cinderella-boy"
    },
    {
      "id": 651,
      "nome": "Cinderella Girls Gekijou",
      "link": "https://animefire.plus/animes/cinderella-girls-gekijou-todos-os-episodios",
      "texto_original": "Cinderella Girls Gekijou",
      "rating": 6.56,
      "classificacao_etaria": "A14",
      "imagem_original": "https://animefire.plus/img/animes/cinderella-girls-gekijou.webp",
      "imagem_pasta": "https://animefire.plus/img/animes/cinderella-girls-gekijou/",
      "secao": "legendados",
      "pagina": 63,
      "total_episodios": 52,
      "link_video": "https://animefire.plus/video/cinderella-girls-gekijou"
    },
    {
      "id": 652,
      "nome": "Cinderella Girls Gekijou 3rd Season",
      "link": "https://animefire.plus/animes/cinderella-girls-gekijou-3rd-season-todos-os-episodios",
      "texto_original": "Cinderella Girls Gekijou 3rd Season",
      "rating": 6.56,
      "classificacao_etaria": "A14",
      "imagem_original": "https://animefire.plus/img/animes/cinderella-girls-gekijou-3rd-season.webp",
      "imagem_pasta": "https://animefire.plus/img/animes/cinderella-girls-gekijou-3rd-season/",
      "secao": "legendados",
      "pagina": 177,
      "total_episodios": 13,
      "link_video": "https://animefire.plus/video/cinderella-girls-gekijou-3rd-season"
    },
    {
      "id": 654,
      "nome": "Circlet Princess",
      "link": "https://animefire.plus/animes/circlet-princess-todos-os-episodios",
      "texto_original": "Circlet Princess",
      "rating": 6,
      "classificacao_etaria": "A14",
      "imagem_original": "https://animefire.plus/img/animes/circlet-princess.webp",
      "imagem_pasta": "https://animefire.plus/img/animes/circlet-princess/",
      "secao": "legendados",
      "pagina": 111,
      "total_episodios": 12,
      "link_video": "https://animefire.plus/video/circlet-princess"
    },
    {
      "id": 655,
      "nome": "Citrus",
      "link": "https://animefire.plus/animes/citrus-todos-os-episodios",
      "texto_original": "Citrus",
      "rating": 6.77,
      "classificacao_etaria": "A14",
      "imagem_original": "https://animefire.plus/img/animes/citrus.webp",
      "imagem_pasta": "https://animefire.plus/img/animes/citrus/",
      "secao": "legendados",
      "pagina": 100,
      "total_episodios": 12,
      "link_video": "https://animefire.plus/video/citrus"
    },
    {
      "id": 656,
      "nome": "City Hunter",
      "link": "https://animefire.plus/animes/city-hunter-todos-os-episodios",
      "texto_original": "City Hunter",
      "rating": 7.93,
      "classificacao_etaria": "A14",
      "imagem_original": "https://animefire.plus/img/animes/city-hunter.webp",
      "imagem_pasta": "https://animefire.plus/img/animes/city-hunter/",
      "secao": "legendados",
      "pagina": 42,
      "total_episodios": 51,
      "link_video": "https://animefire.plus/video/city-hunter"
    },
    {
      "id": 657,
      "nome": "City Hunter 3",
      "link": "https://animefire.plus/animes/city-hunter-3-todos-os-episodios",
      "texto_original": "City Hunter 3",
      "rating": 7.9,
      "classificacao_etaria": "A14",
      "imagem_original": "https://animefire.plus/img/animes/city-hunter-3.webp",
      "imagem_pasta": "https://animefire.plus/img/animes/city-hunter-3/",
      "secao": "legendados",
      "pagina": 104,
      "total_episodios": 13,
      "link_video": "https://animefire.plus/video/city-hunter-3"
    },
    {
      "id": 658,
      "nome": "City the Animation (Dublado)",
      "link": "https://animefire.plus/animes/city-the-animation-dublado-todos-os-episodios",
      "texto_original": "City the Animation (Dublado)",
      "rating": 7.84,
      "classificacao_etaria": "A14",
      "imagem_original": "https://animefire.plus/img/animes/city-the-animation.webp",
      "imagem_pasta": "https://animefire.plus/img/animes/city-the-animation/",
      "secao": "dublados,legendados,lancamentos",
      "pagina": 1,
      "total_episodios": 5,
      "link_video": "https://animefire.plus/video/city-the-animation-dublado"
    },
    {
      "id": 660,
      "nome": "Clannad",
      "link": "https://animefire.plus/animes/clannad-todos-os-episodios",
      "texto_original": "Clannad",
      "rating": 8.18,
      "classificacao_etaria": "A14",
      "imagem_original": "https://animefire.plus/img/animes/clannad.webp",
      "imagem_pasta": "https://animefire.plus/img/animes/clannad/",
      "secao": "legendados",
      "pagina": 155,
      "total_episodios": 23,
      "link_video": "https://animefire.plus/video/clannad"
    },
    {
      "id": 661,
      "nome": "Clannad: After Story",
      "link": "https://animefire.plus/animes/clannad-after-story-todos-os-episodios",
      "texto_original": "Clannad: After Story",
      "rating": 8.98,
      "classificacao_etaria": "A14",
      "imagem_original": "https://animefire.plus/img/animes/clannad-after-story.webp",
      "imagem_pasta": "https://animefire.plus/img/animes/clannad-after-story/",
      "secao": "legendados",
      "pagina": 122,
      "total_episodios": 24,
      "link_video": "https://animefire.plus/video/clannad-after-story"
    },
    {
      "id": 662,
      "nome": "Class no Daikirai na Joshi to Kekkon suru Koto ni Natta.",
      "link": "https://animefire.plus/animes/class-no-daikirai-na-joshi-to-kekkon-suru-koto-ni-natta-todos-os-episodios",
      "texto_original": "Class no Daikirai na Joshi to Kekkon suru Koto ni Natta.",
      "rating": 6.77,
      "classificacao_etaria": "A14",
      "imagem_original": "https://animefire.plus/img/animes/class-no-daikirai-na-joshi-to-kekkon-suru-koto-ni-natta.webp",
      "imagem_pasta": "https://animefire.plus/img/animes/class-no-daikirai-na-joshi-to-kekkon-suru-koto-ni-natta/",
      "secao": "legendados",
      "pagina": 8,
      "total_episodios": 12,
      "link_video": "https://animefire.plus/video/class-no-daikirai-na-joshi-to-kekkon-suru-koto-ni-natta"
    },
    {
      "id": 663,
      "nome": "Classic★Stars",
      "link": "https://animefire.plus/animes/classic-stars-todos-os-episodios",
      "texto_original": "Classic★Stars",
      "rating": 5.66,
      "classificacao_etaria": "A14",
      "imagem_original": "https://animefire.plus/img/animes/classic-stars.webp",
      "imagem_pasta": "https://animefire.plus/img/animes/classic-stars/",
      "secao": "legendados",
      "pagina": 4,
      "total_episodios": 13,
      "link_video": "https://animefire.plus/video/classic-stars"
    },
    {
      "id": 664,
      "nome": "Classroom☆Crisis",
      "link": "https://animefire.plus/animes/classroom-crisis-todos-os-episodios",
      "texto_original": "Classroom☆Crisis",
      "rating": 7.1,
      "classificacao_etaria": "A14",
      "imagem_original": "https://animefire.plus/img/animes/classroom-crisis.webp",
      "imagem_pasta": "https://animefire.plus/img/animes/classroom-crisis/",
      "secao": "legendados",
      "pagina": 94,
      "total_episodios": 13,
      "link_video": "https://animefire.plus/video/classroom-crisis"
    },
    {
      "id": 668,
      "nome": "Clione no Akari",
      "link": "https://animefire.plus/animes/clione-no-akari-todos-os-episodios",
      "texto_original": "Clione no Akari",
      "rating": 5.43,
      "classificacao_etaria": "A14",
      "imagem_original": "https://animefire.plus/img/animes/clione-no-akari.webp",
      "imagem_pasta": "https://animefire.plus/img/animes/clione-no-akari/",
      "secao": "legendados",
      "pagina": 121,
      "total_episodios": 12,
      "link_video": "https://animefire.plus/video/clione-no-akari"
    },
    {
      "id": 669,
      "nome": "Clockwork Planet",
      "link": "https://animefire.plus/animes/clockwork-planet-todos-os-episodios",
      "texto_original": "Clockwork Planet",
      "rating": 6.51,
      "classificacao_etaria": "A14",
      "imagem_original": "https://animefire.plus/img/animes/clockwork-planet.webp",
      "imagem_pasta": "https://animefire.plus/img/animes/clockwork-planet/",
      "secao": "legendados",
      "pagina": 74,
      "total_episodios": 11,
      "link_video": "https://animefire.plus/video/clockwork-planet"
    },
    {
      "id": 670,
      "nome": "Clover",
      "link": "https://animefire.plus/animes/clover-todos-os-episodios",
      "texto_original": "Clover",
      "rating": 6.8,
      "classificacao_etaria": "A14",
      "imagem_original": "https://animefire.plus/img/animes/clover.webp",
      "imagem_pasta": "https://animefire.plus/img/animes/clover/",
      "secao": "legendados",
      "pagina": 41,
      "total_episodios": 0,
      "link_video": "https://animefire.plus/video/clover"
    },
    {
      "id": 671,
      "nome": "CMFU Xueyuan: Wangzi Peng Peng Qiu",
      "link": "https://animefire.plus/animes/cmfu-xueyuan-wangzi-peng-peng-qiu-todos-os-episodios",
      "texto_original": "CMFU Xueyuan: Wangzi Peng Peng Qiu",
      "rating": 6.32,
      "classificacao_etaria": "A14",
      "imagem_original": "https://animefire.plus/img/animes/cmfu-xueyuan-wangzi-peng-peng-qiu.webp",
      "imagem_pasta": "https://animefire.plus/img/animes/cmfu-xueyuan-wangzi-peng-peng-qiu/",
      "secao": "legendados",
      "pagina": 86,
      "total_episodios": 24,
      "link_video": "https://animefire.plus/video/cmfu-xueyuan-wangzi-peng-peng-qiu"
    }
  ],
  "pagination": {
    "current_page": 22,
    "per_page": 20,
    "total_items": 2988,
    "total_pages": 150,
    "has_next": true,
    "has_prev": true
  }
}
