{
  "message": "Animes com classificação etária: A14",
  "age_rating": "A14",
  "data": [
    {
      "id": 3241,
      "nome": "Salaryman ga Isekai ni Ittara Shitennou ni Natta Hanashi",
      "link": "https://animefire.plus/animes/salaryman-ga-isekai-ni-ittara-shitennou-ni-natta-hanashi-todos-os-episodios",
      "texto_original": "Salaryman ga Isekai ni Ittara Shitennou ni Natta Hanashi",
      "rating": 6.59,
      "classificacao_etaria": "A14",
      "imagem_original": "https://animefire.plus/img/animes/salaryman-ga-isekai-ni-ittara-shitennou-ni-natta-hanashi.webp",
      "imagem_pasta": "https://animefire.plus/img/animes/salaryman-ga-isekai-ni-ittara-shitennou-ni-natta-hanashi/",
      "secao": "legendados",
      "pagina": 8,
      "total_episodios": 12,
      "link_video": "https://animefire.plus/video/salaryman-ga-isekai-ni-ittara-shitennou-ni-natta-hanashi"
    },
    {
      "id": 3242,
      "nome": "Samurai 7",
      "link": "https://animefire.plus/animes/samurai-7-todos-os-episodios",
      "texto_original": "Samurai 7",
      "rating": 7.55,
      "classificacao_etaria": "A14",
      "imagem_original": "https://animefire.plus/img/animes/samurai-7.webp",
      "imagem_pasta": "https://animefire.plus/img/animes/samurai-7/",
      "secao": "legendados",
      "pagina": 112,
      "total_episodios": 25,
      "link_video": "https://animefire.plus/video/samurai-7"
    },
    {
      "id": 3244,
      "nome": "Samurai Deeper Kyou",
      "link": "https://animefire.plus/animes/samurai-deeper-kyou-todos-os-episodios",
      "texto_original": "Samurai Deeper Kyou",
      "rating": 6.98,
      "classificacao_etaria": "A14",
      "imagem_original": "https://animefire.plus/img/animes/samurai-deeper-kyou.webp",
      "imagem_pasta": "https://animefire.plus/img/animes/samurai-deeper-kyou/",
      "secao": "legendados",
      "pagina": 120,
      "total_episodios": 26,
      "link_video": "https://animefire.plus/video/samurai-deeper-kyou"
    },
    {
      "id": 3246,
      "nome": "Samurai Girl Real Bout High School",
      "link": "https://animefire.plus/animes/samurai-girl-real-bout-high-school-todos-os-episodios",
      "texto_original": "Samurai Girl Real Bout High School",
      "rating": 6.01,
      "classificacao_etaria": "A14",
      "imagem_original": "https://animefire.plus/img/animes/samurai-girl-real-bout-high-school.webp",
      "imagem_pasta": "https://animefire.plus/img/animes/samurai-girl-real-bout-high-school/",
      "secao": "legendados",
      "pagina": 131,
      "total_episodios": 13,
      "link_video": "https://animefire.plus/video/samurai-girl-real-bout-high-school"
    },
    {
      "id": 3249,
      "nome": "Sand Land: The Series",
      "link": "https://animefire.plus/animes/sand-land-the-series-todos-os-episodios",
      "texto_original": "Sand Land: The Series",
      "rating": 7.56,
      "classificacao_etaria": "A14",
      "imagem_original": "https://animefire.plus/img/animes/sand-land-the-series.webp",
      "imagem_pasta": "https://animefire.plus/img/animes/sand-land-the-series/",
      "secao": "legendados,lancamentos",
      "pagina": 15,
      "total_episodios": 1,
      "link_video": "https://animefire.plus/video/sand-land-the-series"
    },
    {
      "id": 3253,
      "nome": "Sanrio Danshi",
      "link": "https://animefire.plus/animes/sanrio-danshi-todos-os-episodios",
      "texto_original": "Sanrio Danshi",
      "rating": 6.65,
      "classificacao_etaria": "A14",
      "imagem_original": "https://animefire.plus/img/animes/sanrio-danshi.webp",
      "imagem_pasta": "https://animefire.plus/img/animes/sanrio-danshi/",
      "secao": "legendados",
      "pagina": 98,
      "total_episodios": 12,
      "link_video": "https://animefire.plus/video/sanrio-danshi"
    },
    {
      "id": 3254,
      "nome": "Sansha Sanyou",
      "link": "https://animefire.plus/animes/sansha-sanyou-todos-os-episodios",
      "texto_original": "Sansha Sanyou",
      "rating": 7.16,
      "classificacao_etaria": "A14",
      "imagem_original": "https://animefire.plus/img/animes/sansha-sanyou.webp",
      "imagem_pasta": "https://animefire.plus/img/animes/sansha-sanyou/",
      "secao": "legendados",
      "pagina": 169,
      "total_episodios": 2,
      "link_video": "https://animefire.plus/video/sansha-sanyou"
    },
    {
      "id": 3256,
      "nome": "Saraiya Goyou",
      "link": "https://animefire.plus/animes/saraiya-goyou-todos-os-episodios",
      "texto_original": "Saraiya Goyou",
      "rating": 7.86,
      "classificacao_etaria": "A14",
      "imagem_original": "https://animefire.plus/img/animes/saraiya-goyou.webp",
      "imagem_pasta": "https://animefire.plus/img/animes/saraiya-goyou/",
      "secao": "legendados",
      "pagina": 179,
      "total_episodios": 12,
      "link_video": "https://animefire.plus/video/saraiya-goyou"
    },
    {
      "id": 3257,
      "nome": "Sarazanmai",
      "link": "https://animefire.plus/animes/sarazanmai-todos-os-episodios",
      "texto_original": "Sarazanmai",
      "rating": 7.54,
      "classificacao_etaria": "A14",
      "imagem_original": "https://animefire.plus/img/animes/sarazanmai.webp",
      "imagem_pasta": "https://animefire.plus/img/animes/sarazanmai/",
      "secao": "legendados",
      "pagina": 157,
      "total_episodios": 5,
      "link_video": "https://animefire.plus/video/sarazanmai"
    },
    {
      "id": 3259,
      "nome": "Sasaki to Miyano (Dublado)",
      "link": "https://animefire.plus/animes/sasaki-to-miyano-dublado-todos-os-episodios",
      "texto_original": "Sasaki to Miyano (Dublado)",
      "rating": 8.19,
      "classificacao_etaria": "A14",
      "imagem_original": "https://animefire.plus/img/animes/sasaki-to-miyano.webp",
      "imagem_pasta": "https://animefire.plus/img/animes/sasaki-to-miyano/",
      "secao": "dublados,legendados",
      "pagina": 9,
      "total_episodios": 13,
      "link_video": "https://animefire.plus/video/sasaki-to-miyano-dublado"
    },
    {
      "id": 3260,
      "nome": "Sasaki to Miyano: Koi ni Kizuku Mae no Chotto Shita Hanashi.",
      "link": "https://animefire.plus/animes/sasaki-to-miyano-koi-ni-kizuku-mae-no-chotto-shita-hanashi-todos-os-episodios",
      "texto_original": "Sasaki to Miyano: Koi ni Kizuku Mae no Chotto Shita Hanashi.",
      "rating": 7.63,
      "classificacao_etaria": "A14",
      "imagem_original": "https://animefire.plus/img/animes/sasaki-to-miyano-koi-ni-kizuku-mae-no-chotto-shita-hanashi.webp",
      "imagem_pasta": "https://animefire.plus/img/animes/sasaki-to-miyano-koi-ni-kizuku-mae-no-chotto-shita-hanashi/",
      "secao": "legendados",
      "pagina": 32,
      "total_episodios": 1,
      "link_video": "https://animefire.plus/video/sasaki-to-miyano-koi-ni-kizuku-mae-no-chotto-shita-hanashi"
    },
    {
      "id": 3262,
      "nome": "Sasameki Koto",
      "link": "https://animefire.plus/animes/sasameki-koto-todos-os-episodios",
      "texto_original": "Sasameki Koto",
      "rating": 7.15,
      "classificacao_etaria": "A14",
      "imagem_original": "https://animefire.plus/img/animes/sasameki-koto.webp",
      "imagem_pasta": "https://animefire.plus/img/animes/sasameki-koto/",
      "secao": "legendados",
      "pagina": 113,
      "total_episodios": 12,
      "link_video": "https://animefire.plus/video/sasameki-koto"
    },
    {
      "id": 3263,
      "nome": "Sasami-san@Ganbaranai",
      "link": "https://animefire.plus/animes/sasami-sanatganbaranai-todos-os-episodios",
      "texto_original": "Sasami-san@Ganbaranai",
      "rating": 6.7,
      "classificacao_etaria": "A14",
      "imagem_original": "https://animefire.plus/img/animes/sasami-sanatganbaranai.webp",
      "imagem_pasta": "https://animefire.plus/img/animes/sasami-sanatganbaranai/",
      "secao": "legendados",
      "pagina": 139,
      "total_episodios": 12,
      "link_video": "https://animefire.plus/video/sasami-sanatganbaranai"
    },
    {
      "id": 3265,
      "nome": "Sasayaku You ni Koi wo Utau",
      "link": "https://animefire.plus/animes/sasayaku-you-ni-koi-wo-utau-todos-os-episodios",
      "texto_original": "Sasayaku You ni Koi wo Utau",
      "rating": 6.66,
      "classificacao_etaria": "A14",
      "imagem_original": "https://animefire.plus/img/animes/sasayaku-you-ni-koi-wo-utau.webp",
      "imagem_pasta": "https://animefire.plus/img/animes/sasayaku-you-ni-koi-wo-utau/",
      "secao": "legendados",
      "pagina": 12,
      "total_episodios": 12,
      "link_video": "https://animefire.plus/video/sasayaku-you-ni-koi-wo-utau"
    },
    {
      "id": 3268,
      "nome": "Sayonara Watashi no Cramer",
      "link": "https://animefire.plus/animes/sayonara-watashi-no-cramer-todos-os-episodios",
      "texto_original": "Sayonara Watashi no Cramer",
      "rating": 6.1,
      "classificacao_etaria": "A14",
      "imagem_original": "https://animefire.plus/img/animes/sayonara-watashi-no-cramer.webp",
      "imagem_pasta": "https://animefire.plus/img/animes/sayonara-watashi-no-cramer/",
      "secao": "legendados",
      "pagina": 46,
      "total_episodios": 13,
      "link_video": "https://animefire.plus/video/sayonara-watashi-no-cramer"
    },
    {
      "id": 3271,
      "nome": "Sayounara Ryuusei, Konnichiwa Jinsei",
      "link": "https://animefire.plus/animes/sayounara-ryuusei-konnichiwa-jinsei-todos-os-episodios",
      "texto_original": "Sayounara Ryuusei, Konnichiwa Jinsei",
      "rating": 6.34,
      "classificacao_etaria": "A14",
      "imagem_original": "https://animefire.plus/img/animes/sayounara-ryuusei-konnichiwa-jinsei.webp",
      "imagem_pasta": "https://animefire.plus/img/animes/sayounara-ryuusei-konnichiwa-jinsei/",
      "secao": "legendados",
      "pagina": 10,
      "total_episodios": 12,
      "link_video": "https://animefire.plus/video/sayounara-ryuusei-konnichiwa-jinsei"
    },
    {
      "id": 3272,
      "nome": "Scared Rider Xechs",
      "link": "https://animefire.plus/animes/scared-rider-xechs-todos-os-episodios",
      "texto_original": "Scared Rider Xechs",
      "rating": 5.3,
      "classificacao_etaria": "A14",
      "imagem_original": "https://animefire.plus/img/animes/scared-rider-xechs.webp",
      "imagem_pasta": "https://animefire.plus/img/animes/scared-rider-xechs/",
      "secao": "legendados",
      "pagina": 132,
      "total_episodios": 1,
      "link_video": "https://animefire.plus/video/scared-rider-xechs"
    },
    {
      "id": 3273,
      "nome": "Scarlet Nexus (Dublado)",
      "link": "https://animefire.plus/animes/scarlet-nexus-dublado-todos-os-episodios",
      "texto_original": "Scarlet Nexus (Dublado)",
      "rating": 5.72,
      "classificacao_etaria": "A14",
      "imagem_original": "https://animefire.plus/img/animes/scarlet-nexus.webp",
      "imagem_pasta": "https://animefire.plus/img/animes/scarlet-nexus/",
      "secao": "dublados,legendados",
      "pagina": 16,
      "total_episodios": 26,
      "link_video": "https://animefire.plus/video/scarlet-nexus-dublado"
    },
    {
      "id": 3275,
      "nome": "School Rumble",
      "link": "https://animefire.plus/animes/school-rumble-todos-os-episodios",
      "texto_original": "School Rumble",
      "rating": 8,
      "classificacao_etaria": "A14",
      "imagem_original": "https://animefire.plus/img/animes/school-rumble.webp",
      "imagem_pasta": "https://animefire.plus/img/animes/school-rumble/",
      "secao": "legendados",
      "pagina": 127,
      "total_episodios": 26,
      "link_video": "https://animefire.plus/video/school-rumble"
    },
    {
      "id": 3276,
      "nome": "School Rumble Ni Gakki",
      "link": "https://animefire.plus/animes/school-rumble-ni-gakki-todos-os-episodios",
      "texto_original": "School Rumble Ni Gakki",
      "rating": 8.09,
      "classificacao_etaria": "A14",
      "imagem_original": "https://animefire.plus/img/animes/school-rumble-ni-gakki.webp",
      "imagem_pasta": "https://animefire.plus/img/animes/school-rumble-ni-gakki/",
      "secao": "legendados",
      "pagina": 125,
      "total_episodios": 26,
      "link_video": "https://animefire.plus/video/school-rumble-ni-gakki"
    }
  ],
  "pagination": {
    "current_page": 109,
    "per_page": 20,
    "total_items": 2988,
    "total_pages": 150,
    "has_next": true,
    "has_prev": true
  }
}
