{
  "message": "Animes com classificação etária: A14",
  "age_rating": "A14",
  "data": [
    {
      "id": 2889,
      "nome": "Ore no Nounai Sentakushi ga, Gakuen Love Comedy wo Zenryoku de Jama Shiteiru OVA",
      "link": "https://animefire.plus/animes/ore-no-nounai-sentakushi-ga-gakuen-love-comedy-wo-zenryoku-de-jama-shiteiru-ova-todos-os-episodios",
      "texto_original": "Ore no Nounai Sentakushi ga, Gakuen Love Comedy wo Zenryoku de Jama Shiteiru OVA",
      "rating": 7.27,
      "classificacao_etaria": "A14",
      "imagem_original": "https://animefire.plus/img/animes/ore-no-nounai-sentakushi-ga-gakuen-love-comedy-wo-zenryoku-de-jama-shiteiru-ova.webp",
      "imagem_pasta": "https://animefire.plus/img/animes/ore-no-nounai-sentakushi-ga-gakuen-love-comedy-wo-zenryoku-de-jama-shiteiru-ova/",
      "secao": "legendados",
      "pagina": 75,
      "total_episodios": 1,
      "link_video": "https://animefire.plus/video/ore-no-nounai-sentakushi-ga-gakuen-love-comedy-wo-zenryoku-de-jama-shiteiru-ova"
    },
    {
      "id": 2890,
      "nome": "Ore wa Seikan Kokka no Akutoku Ryoushu!",
      "link": "https://animefire.plus/animes/ore-wa-seikan-kokka-no-akutoku-ryoushu-todos-os-episodios",
      "texto_original": "Ore wa Seikan Kokka no Akutoku Ryoushu!",
      "rating": 7.02,
      "classificacao_etaria": "A14",
      "imagem_original": "https://animefire.plus/img/animes/ore-wa-seikan-kokka-no-akutoku-ryoushu.webp",
      "imagem_pasta": "https://animefire.plus/img/animes/ore-wa-seikan-kokka-no-akutoku-ryoushu/",
      "secao": "legendados",
      "pagina": 5,
      "total_episodios": 12,
      "link_video": "https://animefire.plus/video/ore-wa-seikan-kokka-no-akutoku-ryoushu"
    },
    {
      "id": 2891,
      "nome": "Ore wa Subete wo \"Parry\" suru: Gyaku Kanchigai no Sekai Saikyou wa Boukensha ni Naritai",
      "link": "https://animefire.plus/animes/ore-wa-subete-wo-parry-suru-gyaku-kanchigai-no-sekai-saikyou-wa-boukensha-ni-naritai-todos-os-episodios",
      "texto_original": "Ore wa Subete wo \"Parry\" suru: Gyaku Kanchigai no Sekai Saikyou wa Boukensha ni Naritai",
      "rating": 6.89,
      "classificacao_etaria": "A14",
      "imagem_original": "https://animefire.plus/img/animes/ore-wa-subete-wo-parry-suru-gyaku-kanchigai-no-sekai-saikyou-wa-boukensha-ni-naritai.webp",
      "imagem_pasta": "https://animefire.plus/img/animes/ore-wa-subete-wo-parry-suru-gyaku-kanchigai-no-sekai-saikyou-wa-boukensha-ni-naritai/",
      "secao": "legendados",
      "pagina": 13,
      "total_episodios": 12,
      "link_video": "https://animefire.plus/video/ore-wa-subete-wo-parry-suru-gyaku-kanchigai-no-sekai-saikyou-wa-boukensha-ni-naritai"
    },
    {
      "id": 2892,
      "nome": "Ore wo Suki nano wa Omae dake ka yo",
      "link": "https://animefire.plus/animes/ore-wo-suki-nano-wa-omae-dake-ka-yo-todos-os-episodios",
      "texto_original": "Ore wo Suki nano wa Omae dake ka yo",
      "rating": 7.39,
      "classificacao_etaria": "A14",
      "imagem_original": "https://animefire.plus/img/animes/ore-wo-suki-nano-wa-omae-dake-ka-yo.webp",
      "imagem_pasta": "https://animefire.plus/img/animes/ore-wo-suki-nano-wa-omae-dake-ka-yo/",
      "secao": "legendados",
      "pagina": 111,
      "total_episodios": 0,
      "link_video": "https://animefire.plus/video/ore-wo-suki-nano-wa-omae-dake-ka-yo"
    },
    {
      "id": 2893,
      "nome": "Ore wo Suki nano wa Omae dake ka yo: Oretachi no Game Set",
      "link": "https://animefire.plus/animes/ore-wo-suki-nano-wa-omae-dake-ka-yo-oretachi-no-game-set-todos-os-episodios",
      "texto_original": "Ore wo Suki nano wa Omae dake ka yo: Oretachi no Game Set",
      "rating": null,
      "classificacao_etaria": "A14",
      "imagem_original": "https://animefire.plus/img/animes/ore-wo-suki-nano-wa-omae-dake-ka-yo-oretachi-no-game-set.webp",
      "imagem_pasta": "https://animefire.plus/img/animes/ore-wo-suki-nano-wa-omae-dake-ka-yo-oretachi-no-game-set/",
      "secao": "legendados",
      "pagina": 56,
      "total_episodios": 1,
      "link_video": "https://animefire.plus/video/ore-wo-suki-nano-wa-omae-dake-ka-yo-oretachi-no-game-set"
    },
    {
      "id": 2894,
      "nome": "Ore, Twintail ni Narimasu.",
      "link": "https://animefire.plus/animes/ore-twintail-ni-narimasu-todos-os-episodios",
      "texto_original": "Ore, Twintail ni Narimasu.",
      "rating": 6.66,
      "classificacao_etaria": "A14",
      "imagem_original": "https://animefire.plus/img/animes/ore-twintail-ni-narimasu.webp",
      "imagem_pasta": "https://animefire.plus/img/animes/ore-twintail-ni-narimasu/",
      "secao": "legendados",
      "pagina": 147,
      "total_episodios": 0,
      "link_video": "https://animefire.plus/video/ore-twintail-ni-narimasu"
    },
    {
      "id": 2895,
      "nome": "Orenchi no Furo Jijou",
      "link": "https://animefire.plus/animes/orenchi-no-furo-jijou-todos-os-episodios",
      "texto_original": "Orenchi no Furo Jijou",
      "rating": 7.1,
      "classificacao_etaria": "A14",
      "imagem_original": "https://animefire.plus/img/animes/orenchi-no-furo-jijou.webp",
      "imagem_pasta": "https://animefire.plus/img/animes/orenchi-no-furo-jijou/",
      "secao": "legendados",
      "pagina": 170,
      "total_episodios": 1,
      "link_video": "https://animefire.plus/video/orenchi-no-furo-jijou"
    },
    {
      "id": 2897,
      "nome": "Orient (Dublado)",
      "link": "https://animefire.plus/animes/orient-dublado-todos-os-episodios",
      "texto_original": "Orient (Dublado)",
      "rating": 6.61,
      "classificacao_etaria": "A14",
      "imagem_original": "https://animefire.plus/img/animes/orient.webp",
      "imagem_pasta": "https://animefire.plus/img/animes/orient/",
      "secao": "dublados,legendados",
      "pagina": 12,
      "total_episodios": 12,
      "link_video": "https://animefire.plus/video/orient-dublado"
    },
    {
      "id": 2898,
      "nome": "Orient: Awajishima Gekitou-hen",
      "link": "https://animefire.plus/animes/orient-awajishima-gekitou-hen-todos-os-episodios",
      "texto_original": "Orient: Awajishima Gekitou-hen",
      "rating": 7.05,
      "classificacao_etaria": "A14",
      "imagem_original": "https://animefire.plus/img/animes/orient-awajishima-gekitou-hen.webp",
      "imagem_pasta": "https://animefire.plus/img/animes/orient-awajishima-gekitou-hen/",
      "secao": "legendados,lancamentos",
      "pagina": 30,
      "total_episodios": 3,
      "link_video": "https://animefire.plus/video/orient-awajishima-gekitou-hen"
    },
    {
      "id": 2899,
      "nome": "Oroka na Tenshi wa Akuma to Odoru",
      "link": "https://animefire.plus/animes/oroka-na-tenshi-wa-akuma-to-odoru-todos-os-episodios",
      "texto_original": "Oroka na Tenshi wa Akuma to Odoru",
      "rating": 6.91,
      "classificacao_etaria": "A14",
      "imagem_original": "https://animefire.plus/img/animes/oroka-na-tenshi-wa-akuma-to-odoru.webp",
      "imagem_pasta": "https://animefire.plus/img/animes/oroka-na-tenshi-wa-akuma-to-odoru/",
      "secao": "legendados",
      "pagina": 18,
      "total_episodios": 12,
      "link_video": "https://animefire.plus/video/oroka-na-tenshi-wa-akuma-to-odoru"
    },
    {
      "id": 2901,
      "nome": "Osake wa Fuufu ni Natte kara",
      "link": "https://animefire.plus/animes/osake-wa-fuufu-ni-natte-kara-todos-os-episodios",
      "texto_original": "Osake wa Fuufu ni Natte kara",
      "rating": 6.98,
      "classificacao_etaria": "A14",
      "imagem_original": "https://animefire.plus/img/animes/osake-wa-fuufu-ni-natte-kara.webp",
      "imagem_pasta": "https://animefire.plus/img/animes/osake-wa-fuufu-ni-natte-kara/",
      "secao": "legendados",
      "pagina": 165,
      "total_episodios": 13,
      "link_video": "https://animefire.plus/video/osake-wa-fuufu-ni-natte-kara"
    },
    {
      "id": 2902,
      "nome": "Osake wa Fuufu ni Natte kara: Yuzu Atsukan",
      "link": "https://animefire.plus/animes/osake-wa-fuufu-ni-natte-kara-yuzu-atsukan-todos-os-episodios",
      "texto_original": "Osake wa Fuufu ni Natte kara: Yuzu Atsukan",
      "rating": 7.03,
      "classificacao_etaria": "A14",
      "imagem_original": "https://animefire.plus/img/animes/osake-wa-fuufu-ni-natte-kara-yuzu-atsukan.webp",
      "imagem_pasta": "https://animefire.plus/img/animes/osake-wa-fuufu-ni-natte-kara-yuzu-atsukan/",
      "secao": "legendados",
      "pagina": 89,
      "total_episodios": 1,
      "link_video": "https://animefire.plus/video/osake-wa-fuufu-ni-natte-kara-yuzu-atsukan"
    },
    {
      "id": 2903,
      "nome": "Osananajimi ga Zettai ni Makenai Love Comedy",
      "link": "https://animefire.plus/animes/osananajimi-ga-zettai-ni-makenai-love-comedy-todos-os-episodios",
      "texto_original": "Osananajimi ga Zettai ni Makenai Love Comedy",
      "rating": 6.07,
      "classificacao_etaria": "A14",
      "imagem_original": "https://animefire.plus/img/animes/osananajimi-ga-zettai-ni-makenai-love-comedy.webp",
      "imagem_pasta": "https://animefire.plus/img/animes/osananajimi-ga-zettai-ni-makenai-love-comedy/",
      "secao": "legendados",
      "pagina": 47,
      "total_episodios": 12,
      "link_video": "https://animefire.plus/video/osananajimi-ga-zettai-ni-makenai-love-comedy"
    },
    {
      "id": 2904,
      "nome": "Oshi ga Budoukan Ittekuretara Shinu",
      "link": "https://animefire.plus/animes/oshi-ga-budoukan-ittekuretara-shinu-todos-os-episodios",
      "texto_original": "Oshi ga Budoukan Ittekuretara Shinu",
      "rating": 7.45,
      "classificacao_etaria": "A14",
      "imagem_original": "https://animefire.plus/img/animes/oshi-ga-budoukan-ittekuretara-shinu.webp",
      "imagem_pasta": "https://animefire.plus/img/animes/oshi-ga-budoukan-ittekuretara-shinu/",
      "secao": "legendados",
      "pagina": 92,
      "total_episodios": 0,
      "link_video": "https://animefire.plus/video/oshi-ga-budoukan-ittekuretara-shinu"
    },
    {
      "id": 2905,
      "nome": "Oshi no Ko",
      "link": "https://animefire.plus/animes/oshi-no-ko-todos-os-episodios",
      "texto_original": "Oshi no Ko",
      "rating": 8.57,
      "classificacao_etaria": "A14",
      "imagem_original": "https://animefire.plus/img/animes/oshi-no-ko.jpg",
      "imagem_pasta": "https://animefire.plus/img/animes/oshi-no-ko/",
      "secao": "legendados",
      "pagina": 23,
      "total_episodios": 11,
      "link_video": "https://animefire.plus/video/oshi-no-ko"
    },
    {
      "id": 2906,
      "nome": "Oshiete! Galko-chan",
      "link": "https://animefire.plus/animes/oshiete-galko-chan-todos-os-episodios",
      "texto_original": "Oshiete! Galko-chan",
      "rating": 7.18,
      "classificacao_etaria": "A14",
      "imagem_original": "https://animefire.plus/img/animes/oshiete-galko-chan.webp",
      "imagem_pasta": "https://animefire.plus/img/animes/oshiete-galko-chan/",
      "secao": "legendados",
      "pagina": 152,
      "total_episodios": 5,
      "link_video": "https://animefire.plus/video/oshiete-galko-chan"
    },
    {
      "id": 2913,
      "nome": "Otogizoushi",
      "link": "https://animefire.plus/animes/otogizoushi-todos-os-episodios",
      "texto_original": "Otogizoushi",
      "rating": 7.03,
      "classificacao_etaria": "A14",
      "imagem_original": "https://animefire.plus/img/animes/otogizoushi.webp",
      "imagem_pasta": "https://animefire.plus/img/animes/otogizoushi/",
      "secao": "legendados",
      "pagina": 122,
      "total_episodios": 0,
      "link_video": "https://animefire.plus/video/otogizoushi"
    },
    {
      "id": 2914,
      "nome": "Otome Game no Hametsu Flag shika Nai Akuyaku Reijou ni Tensei shiteshimatta...",
      "link": "https://animefire.plus/animes/otome-game-no-hametsu-flag-shika-nai-akuyaku-reijou-ni-tensei-shiteshimatta-todos-os-episodios",
      "texto_original": "Otome Game no Hametsu Flag shika Nai Akuyaku Reijou ni Tensei shiteshimatta...",
      "rating": 7.49,
      "classificacao_etaria": "A14",
      "imagem_original": "https://animefire.plus/img/animes/otome-game-no-hametsu-flag-shika-nai-akuyaku-reijou-ni-tensei-shiteshimatta.webp",
      "imagem_pasta": "https://animefire.plus/img/animes/otome-game-no-hametsu-flag-shika-nai-akuyaku-reijou-ni-tensei-shiteshimatta/",
      "secao": "legendados",
      "pagina": 81,
      "total_episodios": 12,
      "link_video": "https://animefire.plus/video/otome-game-no-hametsu-flag-shika-nai-akuyaku-reijou-ni-tensei-shiteshimatta"
    },
    {
      "id": 2915,
      "nome": "Otome Game no Hametsu Flag shika Nai Akuyaku Reijou ni Tensei shiteshimatta... OVA",
      "link": "https://animefire.plus/animes/otome-game-no-hametsu-flag-shika-nai-akuyaku-reijou-ni-tensei-shiteshimatta-ova-todos-os-episodios",
      "texto_original": "Otome Game no Hametsu Flag shika Nai Akuyaku Reijou ni Tensei shiteshimatta... OVA",
      "rating": 6.87,
      "classificacao_etaria": "A14",
      "imagem_original": "https://animefire.plus/img/animes/otome-game-no-hametsu-flag-shika-nai-akuyaku-reijou-ni-tensei-shiteshimatta-ova.webp",
      "imagem_pasta": "https://animefire.plus/img/animes/otome-game-no-hametsu-flag-shika-nai-akuyaku-reijou-ni-tensei-shiteshimatta-ova/",
      "secao": "legendados",
      "pagina": 36,
      "total_episodios": 1,
      "link_video": "https://animefire.plus/video/otome-game-no-hametsu-flag-shika-nai-akuyaku-reijou-ni-tensei-shiteshimatta-ova"
    },
    {
      "id": 2916,
      "nome": "Otome Game no Hametsu Flag shika Nai Akuyaku Reijou ni Tensei shiteshimatta... X",
      "link": "https://animefire.plus/animes/otome-game-no-hametsu-flag-shika-nai-akuyaku-reijou-ni-tensei-shiteshimatta-x-todos-os-episodios",
      "texto_original": "Otome Game no Hametsu Flag shika Nai Akuyaku Reijou ni Tensei shiteshimatta... X",
      "rating": 7.25,
      "classificacao_etaria": "A14",
      "imagem_original": "https://animefire.plus/img/animes/otome-game-no-hametsu-flag-shika-nai-akuyaku-reijou-ni-tensei-shiteshimatta-x.webp",
      "imagem_pasta": "https://animefire.plus/img/animes/otome-game-no-hametsu-flag-shika-nai-akuyaku-reijou-ni-tensei-shiteshimatta-x/",
      "secao": "legendados",
      "pagina": 45,
      "total_episodios": 12,
      "link_video": "https://animefire.plus/video/otome-game-no-hametsu-flag-shika-nai-akuyaku-reijou-ni-tensei-shiteshimatta-x"
    }
  ],
  "pagination": {
    "current_page": 97,
    "per_page": 20,
    "total_items": 2988,
    "total_pages": 150,
    "has_next": true,
    "has_prev": true
  }
}
