{
  "message": "Animes com classificação etária: A14",
  "age_rating": "A14",
  "data": [
    {
      "id": 1991,
      "nome": "Kimi to Boku.",
      "link": "https://animefire.plus/animes/kimi-to-boku-todos-os-episodios",
      "texto_original": "Kimi to Boku.",
      "rating": 7.78,
      "classificacao_etaria": "A14",
      "imagem_original": "https://animefire.plus/img/animes/kimi-to-boku.webp",
      "imagem_pasta": "https://animefire.plus/img/animes/kimi-to-boku/",
      "secao": "legendados",
      "pagina": 159,
      "total_episodios": 12,
      "link_video": "https://animefire.plus/video/kimi-to-boku"
    },
    {
      "id": 1992,
      "nome": "Kimi to Boku. 2",
      "link": "https://animefire.plus/animes/kimi-to-boku-2-todos-os-episodios",
      "texto_original": "Kimi to Boku. 2",
      "rating": 8.01,
      "classificacao_etaria": "A14",
      "imagem_original": "https://animefire.plus/img/animes/kimi-to-boku-2.webp",
      "imagem_pasta": "https://animefire.plus/img/animes/kimi-to-boku-2/",
      "secao": "legendados",
      "pagina": 64,
      "total_episodios": 13,
      "link_video": "https://animefire.plus/video/kimi-to-boku-2"
    },
    {
      "id": 1994,
      "nome": "Kimi wa Houkago Insomnia",
      "link": "https://animefire.plus/animes/kimi-wa-houkago-insomnia-todos-os-episodios",
      "texto_original": "Kimi wa Houkago Insomnia",
      "rating": 8.08,
      "classificacao_etaria": "A14",
      "imagem_original": "https://animefire.plus/img/animes/kimi-wa-houkago-insomnia.jpg",
      "imagem_pasta": "https://animefire.plus/img/animes/kimi-wa-houkago-insomnia/",
      "secao": "legendados",
      "pagina": 24,
      "total_episodios": 13,
      "link_video": "https://animefire.plus/video/kimi-wa-houkago-insomnia"
    },
    {
      "id": 1995,
      "nome": "Kimi wa Meido-sama. (Dublado)",
      "link": "https://animefire.plus/animes/kimi-wa-meido-sama-dublado-todos-os-episodios",
      "texto_original": "Kimi wa Meido-sama. (Dublado)",
      "rating": 7.07,
      "classificacao_etaria": "A14",
      "imagem_original": "https://animefire.plus/img/animes/kimi-wa-meido-sama.webp",
      "imagem_pasta": "https://animefire.plus/img/animes/kimi-wa-meido-sama/",
      "secao": "dublados,legendados,lancamentos",
      "pagina": 2,
      "total_episodios": 12,
      "link_video": "https://animefire.plus/video/kimi-wa-meido-sama-dublado"
    },
    {
      "id": 1996,
      "nome": "KimiKiss Pure Rouge",
      "link": "https://animefire.plus/animes/kimikiss-pure-rouge-todos-os-episodios",
      "texto_original": "KimiKiss Pure Rouge",
      "rating": 7.4,
      "classificacao_etaria": "A14",
      "imagem_original": "https://animefire.plus/img/animes/kimikiss-pure-rouge.webp",
      "imagem_pasta": "https://animefire.plus/img/animes/kimikiss-pure-rouge/",
      "secao": "legendados",
      "pagina": 130,
      "total_episodios": 24,
      "link_video": "https://animefire.plus/video/kimikiss-pure-rouge"
    },
    {
      "id": 1999,
      "nome": "King of Fighters: Another Day (Dublado)",
      "link": "https://animefire.plus/animes/king-of-fighters-another-day-dublado-todos-os-episodios",
      "texto_original": "King of Fighters: Another Day (Dublado)",
      "rating": 6.33,
      "classificacao_etaria": "A14",
      "imagem_original": "https://animefire.plus/img/animes/king-of-fighters-another-day.webp",
      "imagem_pasta": "https://animefire.plus/img/animes/king-of-fighters-another-day/",
      "secao": "dublados",
      "pagina": 21,
      "total_episodios": 4,
      "link_video": "https://animefire.plus/video/king-of-fighters-another-day-dublado"
    },
    {
      "id": 2000,
      "nome": "King of Prism: Shiny Seven Stars",
      "link": "https://animefire.plus/animes/king-of-prism-shiny-seven-stars-todos-os-episodios",
      "texto_original": "King of Prism: Shiny Seven Stars",
      "rating": 6.4,
      "classificacao_etaria": "A14",
      "imagem_original": "https://animefire.plus/img/animes/king-of-prism-shiny-seven-stars.webp",
      "imagem_pasta": "https://animefire.plus/img/animes/king-of-prism-shiny-seven-stars/",
      "secao": "legendados",
      "pagina": 126,
      "total_episodios": 12,
      "link_video": "https://animefire.plus/video/king-of-prism-shiny-seven-stars"
    },
    {
      "id": 2001,
      "nome": "King's Raid: Ishi wo Tsugumono-tachi",
      "link": "https://animefire.plus/animes/king-s-raid-ishi-wo-tsugumono-tachi-todos-os-episodios",
      "texto_original": "King's Raid: Ishi wo Tsugumono-tachi",
      "rating": null,
      "classificacao_etaria": "A14",
      "imagem_original": "https://animefire.plus/img/animes/king-s-raid-ishi-wo-tsugumono-tachi.webp",
      "imagem_pasta": "https://animefire.plus/img/animes/king-s-raid-ishi-wo-tsugumono-tachi/",
      "secao": "legendados",
      "pagina": 52,
      "total_episodios": 26,
      "link_video": "https://animefire.plus/video/king-s-raid-ishi-wo-tsugumono-tachi"
    },
    {
      "id": 2007,
      "nome": "Kiniro Mosaic",
      "link": "https://animefire.plus/animes/kiniro-mosaic-todos-os-episodios",
      "texto_original": "Kiniro Mosaic",
      "rating": 7.33,
      "classificacao_etaria": "A14",
      "imagem_original": "https://animefire.plus/img/animes/kiniro-mosaic.webp",
      "imagem_pasta": "https://animefire.plus/img/animes/kiniro-mosaic/",
      "secao": "legendados",
      "pagina": 158,
      "total_episodios": 6,
      "link_video": "https://animefire.plus/video/kiniro-mosaic"
    },
    {
      "id": 2008,
      "nome": "Kinnikuman: Kanpeki Chоujin Shiso-hen Season 2",
      "link": "https://animefire.plus/animes/kinnikuman-kanpeki-choujin-shiso-hen-season-2-todos-os-episodios",
      "texto_original": "Kinnikuman: Kanpeki Chоujin Shiso-hen Season 2",
      "rating": 6.87,
      "classificacao_etaria": "A14",
      "imagem_original": "https://animefire.plus/img/animes/kinnikuman-kanpeki-choujin-shiso-hen-season-2.webp",
      "imagem_pasta": "https://animefire.plus/img/animes/kinnikuman-kanpeki-choujin-shiso-hen-season-2/",
      "secao": "legendados,lancamentos",
      "pagina": 6,
      "total_episodios": 1,
      "link_video": "https://animefire.plus/video/kinnikuman-kanpeki-choujin-shiso-hen-season-2"
    },
    {
      "id": 2011,
      "nome": "Kinoko Inu",
      "link": "https://animefire.plus/animes/kinoko-inu-todos-os-episodios",
      "texto_original": "Kinoko Inu",
      "rating": 6.89,
      "classificacao_etaria": "A14",
      "imagem_original": "https://animefire.plus/img/animes/kinoko-inu.webp",
      "imagem_pasta": "https://animefire.plus/img/animes/kinoko-inu/",
      "secao": "legendados",
      "pagina": 9,
      "total_episodios": 12,
      "link_video": "https://animefire.plus/video/kinoko-inu"
    },
    {
      "id": 2012,
      "nome": "Kinsou no Vermeil: Gakeppuchi Majutsushi wa Saikyou no Yakusai to Mahou Sekai wo Tsukisusumu",
      "link": "https://animefire.plus/animes/kinsou-no-vermeil-gakeppuchi-majutsushi-wa-saikyou-no-yakusai-to-mahou-sekai-wo-tsukisusumu-todos-os-episodios",
      "texto_original": "Kinsou no Vermeil: Gakeppuchi Majutsushi wa Saikyou no Yakusai to Mahou Sekai wo Tsukisusumu",
      "rating": 6.8,
      "classificacao_etaria": "A14",
      "imagem_original": "https://animefire.plus/img/animes/kinsou-no-vermeil-gakeppuchi-majutsushi-wa-saikyou-no-yakusai-to-mahou-sekai-wo-tsukisusumu.webp",
      "imagem_pasta": "https://animefire.plus/img/animes/kinsou-no-vermeil-gakeppuchi-majutsushi-wa-saikyou-no-yakusai-to-mahou-sekai-wo-tsukisusumu/",
      "secao": "legendados",
      "pagina": 31,
      "total_episodios": 12,
      "link_video": "https://animefire.plus/video/kinsou-no-vermeil-gakeppuchi-majutsushi-wa-saikyou-no-yakusai-to-mahou-sekai-wo-tsukisusumu"
    },
    {
      "id": 2016,
      "nome": "Kisaki Kyouiku kara Nigetai Watashi",
      "link": "https://animefire.plus/animes/kisaki-kyouiku-kara-nigetai-watashi-todos-os-episodios",
      "texto_original": "Kisaki Kyouiku kara Nigetai Watashi",
      "rating": 5.65,
      "classificacao_etaria": "A14",
      "imagem_original": "https://animefire.plus/img/animes/kisaki-kyouiku-kara-nigetai-watashi.webp",
      "imagem_pasta": "https://animefire.plus/img/animes/kisaki-kyouiku-kara-nigetai-watashi/",
      "secao": "legendados",
      "pagina": 7,
      "total_episodios": 12,
      "link_video": "https://animefire.plus/video/kisaki-kyouiku-kara-nigetai-watashi"
    },
    {
      "id": 2019,
      "nome": "Kishin Douji Zenki",
      "link": "https://animefire.plus/animes/kishin-douji-zenki-todos-os-episodios",
      "texto_original": "Kishin Douji Zenki",
      "rating": 7.06,
      "classificacao_etaria": "A14",
      "imagem_original": "https://animefire.plus/img/animes/kishin-douji-zenki.webp",
      "imagem_pasta": "https://animefire.plus/img/animes/kishin-douji-zenki/",
      "secao": "legendados",
      "pagina": 169,
      "total_episodios": 21,
      "link_video": "https://animefire.plus/video/kishin-douji-zenki"
    },
    {
      "id": 2020,
      "nome": "Kishin Houkou Demonbane",
      "link": "https://animefire.plus/animes/kishin-houkou-demonbane-todos-os-episodios",
      "texto_original": "Kishin Houkou Demonbane",
      "rating": 6.08,
      "classificacao_etaria": "A14",
      "imagem_original": "https://animefire.plus/img/animes/kishin-houkou-demonbane.webp",
      "imagem_pasta": "https://animefire.plus/img/animes/kishin-houkou-demonbane/",
      "secao": "legendados",
      "pagina": 61,
      "total_episodios": 0,
      "link_video": "https://animefire.plus/video/kishin-houkou-demonbane"
    },
    {
      "id": 2022,
      "nome": "Kishin Taisen Gigantic Formula",
      "link": "https://animefire.plus/animes/kishin-taisen-gigantic-formula-todos-os-episodios",
      "texto_original": "Kishin Taisen Gigantic Formula",
      "rating": 6.92,
      "classificacao_etaria": "A14",
      "imagem_original": "https://animefire.plus/img/animes/kishin-taisen-gigantic-formula.webp",
      "imagem_pasta": "https://animefire.plus/img/animes/kishin-taisen-gigantic-formula/",
      "secao": "legendados",
      "pagina": 167,
      "total_episodios": 20,
      "link_video": "https://animefire.plus/video/kishin-taisen-gigantic-formula"
    },
    {
      "id": 2023,
      "nome": "Kishuku Gakkou no Juliet",
      "link": "https://animefire.plus/animes/kishuku-gakkou-no-juliet-todos-os-episodios",
      "texto_original": "Kishuku Gakkou no Juliet",
      "rating": 7.61,
      "classificacao_etaria": "A14",
      "imagem_original": "https://animefire.plus/img/animes/kishuku-gakkou-no-juliet.webp",
      "imagem_pasta": "https://animefire.plus/img/animes/kishuku-gakkou-no-juliet/",
      "secao": "legendados",
      "pagina": 167,
      "total_episodios": 12,
      "link_video": "https://animefire.plus/video/kishuku-gakkou-no-juliet"
    },
    {
      "id": 2024,
      "nome": "Kiss Dum: Engage Planet",
      "link": "https://animefire.plus/animes/kiss-dum-engage-planet-todos-os-episodios",
      "texto_original": "Kiss Dum: Engage Planet",
      "rating": 6.69,
      "classificacao_etaria": "A14",
      "imagem_original": "https://animefire.plus/img/animes/kiss-dum-engage-planet.webp",
      "imagem_pasta": "https://animefire.plus/img/animes/kiss-dum-engage-planet/",
      "secao": "legendados",
      "pagina": 176,
      "total_episodios": 21,
      "link_video": "https://animefire.plus/video/kiss-dum-engage-planet"
    },
    {
      "id": 2026,
      "nome": "Kiss x Sis (TV)",
      "link": "https://animefire.plus/animes/kiss-x-sis-tv-todos-os-episodios",
      "texto_original": "Kiss x Sis (TV)",
      "rating": 6.78,
      "classificacao_etaria": "A14",
      "imagem_original": "https://animefire.plus/img/animes/kiss-x-sis-tv.webp",
      "imagem_pasta": "https://animefire.plus/img/animes/kiss-x-sis-tv/",
      "secao": "legendados",
      "pagina": 73,
      "total_episodios": 12,
      "link_video": "https://animefire.plus/video/kiss-x-sis-tv"
    },
    {
      "id": 2027,
      "nome": "Kitakubu Katsudou Kiroku",
      "link": "https://animefire.plus/animes/kitakubu-katsudou-kiroku-todos-os-episodios",
      "texto_original": "Kitakubu Katsudou Kiroku",
      "rating": 6.82,
      "classificacao_etaria": "A14",
      "imagem_original": "https://animefire.plus/img/animes/kitakubu-katsudou-kiroku.webp",
      "imagem_pasta": "https://animefire.plus/img/animes/kitakubu-katsudou-kiroku/",
      "secao": "legendados",
      "pagina": 124,
      "total_episodios": 12,
      "link_video": "https://animefire.plus/video/kitakubu-katsudou-kiroku"
    }
  ],
  "pagination": {
    "current_page": 65,
    "per_page": 20,
    "total_items": 2988,
    "total_pages": 150,
    "has_next": true,
    "has_prev": true
  }
}
