{
  "message": "Animes com classificação etária: A14",
  "age_rating": "A14",
  "data": [
    {
      "id": 837,
      "nome": "Dog Days",
      "link": "https://animefire.plus/animes/dog-days-todos-os-episodios",
      "texto_original": "Dog Days",
      "rating": 7.02,
      "classificacao_etaria": "A14",
      "imagem_original": "https://animefire.plus/img/animes/dog-days.webp",
      "imagem_pasta": "https://animefire.plus/img/animes/dog-days/",
      "secao": "legendados",
      "pagina": 57,
      "total_episodios": 13,
      "link_video": "https://animefire.plus/video/dog-days"
    },
    {
      "id": 838,
      "nome": "Dog Days'",
      "link": "https://animefire.plus/animes/dog-days-2-todos-os-episodios",
      "texto_original": "Dog Days'",
      "rating": 7.14,
      "classificacao_etaria": "A14",
      "imagem_original": "https://animefire.plus/img/animes/dog-days-2.webp",
      "imagem_pasta": "https://animefire.plus/img/animes/dog-days-2/",
      "secao": "legendados",
      "pagina": 57,
      "total_episodios": 13,
      "link_video": "https://animefire.plus/video/dog-days-2"
    },
    {
      "id": 839,
      "nome": "Dog Days''",
      "link": "https://animefire.plus/animes/dog-days-3-todos-os-episodios",
      "texto_original": "Dog Days''",
      "rating": 7.03,
      "classificacao_etaria": "A14",
      "imagem_original": "https://animefire.plus/img/animes/dog-days-3.webp",
      "imagem_pasta": "https://animefire.plus/img/animes/dog-days-3/",
      "secao": "legendados",
      "pagina": 57,
      "total_episodios": 0,
      "link_video": "https://animefire.plus/video/dog-days-3"
    },
    {
      "id": 844,
      "nome": "Dolls' Frontline",
      "link": "https://animefire.plus/animes/dolls-frontline-todos-os-episodios",
      "texto_original": "Dolls' Frontline",
      "rating": 5.86,
      "classificacao_etaria": "A14",
      "imagem_original": "https://animefire.plus/img/animes/dolls-frontline.webp",
      "imagem_pasta": "https://animefire.plus/img/animes/dolls-frontline/",
      "secao": "legendados",
      "pagina": 37,
      "total_episodios": 12,
      "link_video": "https://animefire.plus/video/dolls-frontline"
    },
    {
      "id": 846,
      "nome": "Donten ni Warau",
      "link": "https://animefire.plus/animes/donten-ni-warau-todos-os-episodios",
      "texto_original": "Donten ni Warau",
      "rating": 7.59,
      "classificacao_etaria": "A14",
      "imagem_original": "https://animefire.plus/img/animes/donten-ni-warau.webp",
      "imagem_pasta": "https://animefire.plus/img/animes/donten-ni-warau/",
      "secao": "legendados",
      "pagina": 120,
      "total_episodios": 0,
      "link_video": "https://animefire.plus/video/donten-ni-warau"
    },
    {
      "id": 853,
      "nome": "Dosanko Gal wa Namara Menkoi (Dublado)",
      "link": "https://animefire.plus/animes/dosanko-gal-wa-namara-menkoi-dublado-todos-os-episodios",
      "texto_original": "Dosanko Gal wa Namara Menkoi (Dublado)",
      "rating": 7.04,
      "classificacao_etaria": "A14",
      "imagem_original": "https://animefire.plus/img/animes/dosanko-gal-wa-namara-menkoi.webp",
      "imagem_pasta": "https://animefire.plus/img/animes/dosanko-gal-wa-namara-menkoi/",
      "secao": "dublados,legendados,lancamentos",
      "pagina": 3,
      "total_episodios": 12,
      "link_video": "https://animefire.plus/video/dosanko-gal-wa-namara-menkoi-dublado"
    },
    {
      "id": 854,
      "nome": "Dou Shen Ji",
      "link": "https://animefire.plus/animes/dou-shen-ji-todos-os-episodios",
      "texto_original": "Dou Shen Ji",
      "rating": 5.81,
      "classificacao_etaria": "A14",
      "imagem_original": "https://animefire.plus/img/animes/dou-shen-ji.webp",
      "imagem_pasta": "https://animefire.plus/img/animes/dou-shen-ji/",
      "secao": "legendados",
      "pagina": 37,
      "total_episodios": 12,
      "link_video": "https://animefire.plus/video/dou-shen-ji"
    },
    {
      "id": 855,
      "nome": "Double Circle",
      "link": "https://animefire.plus/animes/double-circle-todos-os-episodios",
      "texto_original": "Double Circle",
      "rating": 4.94,
      "classificacao_etaria": "A14",
      "imagem_original": "https://animefire.plus/img/animes/double-circle.webp",
      "imagem_pasta": "https://animefire.plus/img/animes/double-circle/",
      "secao": "legendados",
      "pagina": 113,
      "total_episodios": 6,
      "link_video": "https://animefire.plus/video/double-circle"
    },
    {
      "id": 858,
      "nome": "Double-J",
      "link": "https://animefire.plus/animes/double-j-todos-os-episodios",
      "texto_original": "Double-J",
      "rating": 5.55,
      "classificacao_etaria": "A14",
      "imagem_original": "https://animefire.plus/img/animes/double-j.webp",
      "imagem_pasta": "https://animefire.plus/img/animes/double-j/",
      "secao": "legendados",
      "pagina": 99,
      "total_episodios": 0,
      "link_video": "https://animefire.plus/video/double-j"
    },
    {
      "id": 859,
      "nome": "Doujin Work",
      "link": "https://animefire.plus/animes/doujin-work-todos-os-episodios",
      "texto_original": "Doujin Work",
      "rating": 6.83,
      "classificacao_etaria": "A14",
      "imagem_original": "https://animefire.plus/img/animes/doujin-work.webp",
      "imagem_pasta": "https://animefire.plus/img/animes/doujin-work/",
      "secao": "legendados",
      "pagina": 102,
      "total_episodios": 12,
      "link_video": "https://animefire.plus/video/doujin-work"
    },
    {
      "id": 860,
      "nome": "Doukyonin wa Hiza, Tokidoki, Atama no Ue.",
      "link": "https://animefire.plus/animes/doukyonin-wa-hiza-tokidoki-atama-no-ue-todos-os-episodios",
      "texto_original": "Doukyonin wa Hiza, Tokidoki, Atama no Ue.",
      "rating": 7.81,
      "classificacao_etaria": "A14",
      "imagem_original": "https://animefire.plus/img/animes/doukyonin-wa-hiza-tokidoki-atama-no-ue.webp",
      "imagem_pasta": "https://animefire.plus/img/animes/doukyonin-wa-hiza-tokidoki-atama-no-ue/",
      "secao": "legendados",
      "pagina": 60,
      "total_episodios": 12,
      "link_video": "https://animefire.plus/video/doukyonin-wa-hiza-tokidoki-atama-no-ue"
    },
    {
      "id": 861,
      "nome": "Douluo Dalu",
      "link": "https://animefire.plus/animes/douluo-dalu-todos-os-episodios",
      "texto_original": "Douluo Dalu",
      "rating": 7.87,
      "classificacao_etaria": "A14",
      "imagem_original": "https://animefire.plus/img/animes/douluo-dalu.webp",
      "imagem_pasta": "https://animefire.plus/img/animes/douluo-dalu/",
      "secao": "legendados",
      "pagina": 87,
      "total_episodios": 26,
      "link_video": "https://animefire.plus/video/douluo-dalu"
    },
    {
      "id": 862,
      "nome": "Douluo Dalu 2nd Season",
      "link": "https://animefire.plus/animes/douluo-dalu-2nd-season-todos-os-episodios",
      "texto_original": "Douluo Dalu 2nd Season",
      "rating": 7.92,
      "classificacao_etaria": "A14",
      "imagem_original": "https://animefire.plus/img/animes/douluo-dalu-2nd-season.webp",
      "imagem_pasta": "https://animefire.plus/img/animes/douluo-dalu-2nd-season/",
      "secao": "legendados",
      "pagina": 82,
      "total_episodios": 11,
      "link_video": "https://animefire.plus/video/douluo-dalu-2nd-season"
    },
    {
      "id": 863,
      "nome": "Doupo Cangqiong",
      "link": "https://animefire.plus/animes/doupo-cangqiong-todos-os-episodios",
      "texto_original": "Doupo Cangqiong",
      "rating": 7.36,
      "classificacao_etaria": "A14",
      "imagem_original": "https://animefire.plus/img/animes/doupo-cangqiong.webp",
      "imagem_pasta": "https://animefire.plus/img/animes/doupo-cangqiong/",
      "secao": "legendados",
      "pagina": 59,
      "total_episodios": 13,
      "link_video": "https://animefire.plus/video/doupo-cangqiong"
    },
    {
      "id": 864,
      "nome": "Doupo Cangqiong 2nd Season Specials",
      "link": "https://animefire.plus/animes/doupo-cangqiong-2nd-season-specials-todos-os-episodios",
      "texto_original": "Doupo Cangqiong 2nd Season Specials",
      "rating": 7.3,
      "classificacao_etaria": "A14",
      "imagem_original": "https://animefire.plus/img/animes/doupo-cangqiong-2nd-season-specials.webp",
      "imagem_pasta": "https://animefire.plus/img/animes/doupo-cangqiong-2nd-season-specials/",
      "secao": "legendados",
      "pagina": 87,
      "total_episodios": 3,
      "link_video": "https://animefire.plus/video/doupo-cangqiong-2nd-season-specials"
    },
    {
      "id": 865,
      "nome": "Doupo Cangqiong Specials",
      "link": "https://animefire.plus/animes/doupo-cangqiong-specials-todos-os-episodios",
      "texto_original": "Doupo Cangqiong Specials",
      "rating": 7.43,
      "classificacao_etaria": "A14",
      "imagem_original": "https://animefire.plus/img/animes/doupo-cangqiong-specials.webp",
      "imagem_pasta": "https://animefire.plus/img/animes/doupo-cangqiong-specials/",
      "secao": "legendados",
      "pagina": 83,
      "total_episodios": 2,
      "link_video": "https://animefire.plus/video/doupo-cangqiong-specials"
    },
    {
      "id": 866,
      "nome": "Douse, Koishite Shimaunda.",
      "link": "https://animefire.plus/animes/douse-koishite-shimaunda-todos-os-episodios",
      "texto_original": "Douse, Koishite Shimaunda.",
      "rating": 6.09,
      "classificacao_etaria": "A14",
      "imagem_original": "https://animefire.plus/img/animes/douse-koishite-shimaunda.webp",
      "imagem_pasta": "https://animefire.plus/img/animes/douse-koishite-shimaunda/",
      "secao": "legendados",
      "pagina": 7,
      "total_episodios": 12,
      "link_video": "https://animefire.plus/video/douse-koishite-shimaunda"
    },
    {
      "id": 867,
      "nome": "Dr. Stone (Dublado)",
      "link": "https://animefire.plus/animes/dr-stone-dublado-todos-os-episodios",
      "texto_original": "Dr. Stone (Dublado)",
      "rating": 8.35,
      "classificacao_etaria": "A14",
      "imagem_original": "https://animefire.plus/img/animes/dr-stone.webp",
      "imagem_pasta": "https://animefire.plus/img/animes/dr-stone/",
      "secao": "dublados,legendados",
      "pagina": 20,
      "total_episodios": 24,
      "link_video": "https://animefire.plus/video/dr-stone-dublado"
    },
    {
      "id": 868,
      "nome": "Dr. Stone: New World (Dublado)",
      "link": "https://animefire.plus/animes/dr-stone-new-world-dublado-todos-os-episodios",
      "texto_original": "Dr. Stone: New World (Dublado)",
      "rating": 8.15,
      "classificacao_etaria": "A14",
      "imagem_original": "https://animefire.plus/img/animes/dr-stone-new-world.webp",
      "imagem_pasta": "https://animefire.plus/img/animes/dr-stone-new-world/",
      "secao": "dublados,legendados",
      "pagina": 7,
      "total_episodios": 11,
      "link_video": "https://animefire.plus/video/dr-stone-new-world-dublado"
    },
    {
      "id": 869,
      "nome": "Dr. Stone: New World Part 2 (Dublado)",
      "link": "https://animefire.plus/animes/dr-stone-new-world-part-2-dublado-todos-os-episodios",
      "texto_original": "Dr. Stone: New World Part 2 (Dublado)",
      "rating": 8.34,
      "classificacao_etaria": "A14",
      "imagem_original": "https://animefire.plus/img/animes/dr-stone-new-world-part-2.webp",
      "imagem_pasta": "https://animefire.plus/img/animes/dr-stone-new-world-part-2/",
      "secao": "dublados,legendados",
      "pagina": 5,
      "total_episodios": 11,
      "link_video": "https://animefire.plus/video/dr-stone-new-world-part-2-dublado"
    }
  ],
  "pagination": {
    "current_page": 27,
    "per_page": 20,
    "total_items": 2988,
    "total_pages": 150,
    "has_next": true,
    "has_prev": true
  }
}
