{
  "message": "Animes com classificação etária: A14",
  "age_rating": "A14",
  "data": [
    {
      "id": 402,
      "nome": "Bishoujo Senshi Sailor Moon: Sailor Stars - Hero Club",
      "link": "https://animefire.plus/animes/bishoujo-senshi-sailor-moon-sailor-stars---hero-club-todos-os-episodios",
      "texto_original": "Bishoujo Senshi Sailor Moon: Sailor Stars - Hero Club",
      "rating": 7.25,
      "classificacao_etaria": "A14",
      "imagem_original": "https://animefire.plus/img/animes/bishoujo-senshi-sailor-moon-sailor-stars---hero-club.webp",
      "imagem_pasta": "https://animefire.plus/img/animes/bishoujo-senshi-sailor-moon-sailor-stars---hero-club/",
      "secao": "legendados",
      "pagina": 72,
      "total_episodios": 3,
      "link_video": "https://animefire.plus/video/bishoujo-senshi-sailor-moon-sailor-stars---hero-club"
    },
    {
      "id": 403,
      "nome": "Bishoujo Yuugekitai Battle Skipper",
      "link": "https://animefire.plus/animes/bishoujo-yuugekitai-battle-skipper-todos-os-episodios",
      "texto_original": "Bishoujo Yuugekitai Battle Skipper",
      "rating": 5.23,
      "classificacao_etaria": "A14",
      "imagem_original": "https://animefire.plus/img/animes/bishoujo-yuugekitai-battle-skipper.webp",
      "imagem_pasta": "https://animefire.plus/img/animes/bishoujo-yuugekitai-battle-skipper/",
      "secao": "legendados",
      "pagina": 77,
      "total_episodios": 3,
      "link_video": "https://animefire.plus/video/bishoujo-yuugekitai-battle-skipper"
    },
    {
      "id": 406,
      "nome": "Bishounen Tanteidan",
      "link": "https://animefire.plus/animes/bishounen-tanteidan-todos-os-episodios",
      "texto_original": "Bishounen Tanteidan",
      "rating": 7.07,
      "classificacao_etaria": "A14",
      "imagem_original": "https://animefire.plus/img/animes/bishounen-tanteidan.webp",
      "imagem_pasta": "https://animefire.plus/img/animes/bishounen-tanteidan/",
      "secao": "legendados",
      "pagina": 46,
      "total_episodios": 12,
      "link_video": "https://animefire.plus/video/bishounen-tanteidan"
    },
    {
      "id": 409,
      "nome": "Black Cat (Dublado)",
      "link": "https://animefire.plus/animes/black-cat-dublado-todos-os-episodios",
      "texto_original": "Black Cat (Dublado)",
      "rating": 7.41,
      "classificacao_etaria": "A14",
      "imagem_original": "https://animefire.plus/img/animes/black-cat.webp",
      "imagem_pasta": "https://animefire.plus/img/animes/black-cat/",
      "secao": "dublados,legendados",
      "pagina": 22,
      "total_episodios": 24,
      "link_video": "https://animefire.plus/video/black-cat-dublado"
    },
    {
      "id": 410,
      "nome": "Black Clover (Dublado)",
      "link": "https://animefire.plus/animes/black-clover-dublado-todos-os-episodios",
      "texto_original": "Black Clover (Dublado)",
      "rating": 7.27,
      "classificacao_etaria": "A14",
      "imagem_original": "https://animefire.plus/img/animes/black-clover.webp",
      "imagem_pasta": "https://animefire.plus/img/animes/black-clover/",
      "secao": "dublados,legendados",
      "pagina": 20,
      "total_episodios": 170,
      "link_video": "https://animefire.plus/video/black-clover-dublado"
    },
    {
      "id": 413,
      "nome": "Black Lagoon Omake",
      "link": "https://animefire.plus/animes/black-lagoon-omake-todos-os-episodios",
      "texto_original": "Black Lagoon Omake",
      "rating": 6.81,
      "classificacao_etaria": "A14",
      "imagem_original": "https://animefire.plus/img/animes/black-lagoon-omake.webp",
      "imagem_pasta": "https://animefire.plus/img/animes/black-lagoon-omake/",
      "secao": "legendados",
      "pagina": 43,
      "total_episodios": 5,
      "link_video": "https://animefire.plus/video/black-lagoon-omake"
    },
    {
      "id": 416,
      "nome": "Black★Rock Shooter (TV)",
      "link": "https://animefire.plus/animes/black-rock-shooter-tv-todos-os-episodios",
      "texto_original": "Black★Rock Shooter (TV)",
      "rating": 6.95,
      "classificacao_etaria": "A14",
      "imagem_original": "https://animefire.plus/img/animes/black-rock-shooter-tv.webp",
      "imagem_pasta": "https://animefire.plus/img/animes/black-rock-shooter-tv/",
      "secao": "legendados",
      "pagina": 143,
      "total_episodios": 8,
      "link_video": "https://animefire.plus/video/black-rock-shooter-tv"
    },
    {
      "id": 423,
      "nome": "Bleach (Dublado)",
      "link": "https://animefire.plus/animes/bleach-dublado-todos-os-episodios",
      "texto_original": "Bleach (Dublado)",
      "rating": 7.81,
      "classificacao_etaria": "A14",
      "imagem_original": "https://animefire.plus/img/animes/bleach.webp",
      "imagem_pasta": "https://animefire.plus/img/animes/bleach/",
      "secao": "dublados,legendados",
      "pagina": 21,
      "total_episodios": 366,
      "link_video": "https://animefire.plus/video/bleach-dublado"
    },
    {
      "id": 424,
      "nome": "Bleach Colorful!: Gotei Juusan Yatai Daisakusen!",
      "link": "https://animefire.plus/animes/bleach-colorful-gotei-juusan-yatai-daisakusen-todos-os-episodios",
      "texto_original": "Bleach Colorful!: Gotei Juusan Yatai Daisakusen!",
      "rating": 6.5,
      "classificacao_etaria": "A14",
      "imagem_original": "https://animefire.plus/img/animes/bleach-colorful-gotei-juusan-yatai-daisakusen.webp",
      "imagem_pasta": "https://animefire.plus/img/animes/bleach-colorful-gotei-juusan-yatai-daisakusen/",
      "secao": "legendados",
      "pagina": 86,
      "total_episodios": 1,
      "link_video": "https://animefire.plus/video/bleach-colorful-gotei-juusan-yatai-daisakusen"
    },
    {
      "id": 429,
      "nome": "Blend S",
      "link": "https://animefire.plus/animes/blend-s-todos-os-episodios",
      "texto_original": "Blend S",
      "rating": 7.52,
      "classificacao_etaria": "A14",
      "imagem_original": "https://animefire.plus/img/animes/blend-s.webp",
      "imagem_pasta": "https://animefire.plus/img/animes/blend-s/",
      "secao": "legendados",
      "pagina": 121,
      "total_episodios": 12,
      "link_video": "https://animefire.plus/video/blend-s"
    },
    {
      "id": 430,
      "nome": "Blood Lad",
      "link": "https://animefire.plus/animes/blood-lad-todos-os-episodios",
      "texto_original": "Blood Lad",
      "rating": 7.47,
      "classificacao_etaria": "A14",
      "imagem_original": "https://animefire.plus/img/animes/blood-lad.webp",
      "imagem_pasta": "https://animefire.plus/img/animes/blood-lad/",
      "secao": "legendados",
      "pagina": 124,
      "total_episodios": 0,
      "link_video": "https://animefire.plus/video/blood-lad"
    },
    {
      "id": 434,
      "nome": "Blue Archive the Animation",
      "link": "https://animefire.plus/animes/blue-archive-the-animation-todos-os-episodios",
      "texto_original": "Blue Archive the Animation",
      "rating": 7.36,
      "classificacao_etaria": "A14",
      "imagem_original": "https://animefire.plus/img/animes/blue-archive-the-animation.webp",
      "imagem_pasta": "https://animefire.plus/img/animes/blue-archive-the-animation/",
      "secao": "legendados",
      "pagina": 15,
      "total_episodios": 12,
      "link_video": "https://animefire.plus/video/blue-archive-the-animation"
    },
    {
      "id": 437,
      "nome": "Blue Drop: Tenshi-tachi no Gikyoku",
      "link": "https://animefire.plus/animes/blue-drop-tenshi-tachi-no-gikyoku-todos-os-episodios",
      "texto_original": "Blue Drop: Tenshi-tachi no Gikyoku",
      "rating": 6.75,
      "classificacao_etaria": "A14",
      "imagem_original": "https://animefire.plus/img/animes/blue-drop-tenshi-tachi-no-gikyoku.webp",
      "imagem_pasta": "https://animefire.plus/img/animes/blue-drop-tenshi-tachi-no-gikyoku/",
      "secao": "legendados",
      "pagina": 75,
      "total_episodios": 13,
      "link_video": "https://animefire.plus/video/blue-drop-tenshi-tachi-no-gikyoku"
    },
    {
      "id": 439,
      "nome": "Blue Lock (Dublado)",
      "link": "https://animefire.plus/animes/blue-lock-dublado-todos-os-episodios",
      "texto_original": "Blue Lock (Dublado)",
      "rating": 8.17,
      "classificacao_etaria": "A14",
      "imagem_original": "https://animefire.plus/img/animes/blue-lock.webp",
      "imagem_pasta": "https://animefire.plus/img/animes/blue-lock/",
      "secao": "dublados,legendados,lancamentos",
      "pagina": 8,
      "total_episodios": 24,
      "link_video": "https://animefire.plus/video/blue-lock-dublado"
    },
    {
      "id": 440,
      "nome": "Blue Lock vs. U-20 Japan (Dublado)",
      "link": "https://animefire.plus/animes/blue-lock-vs-u-20-japan-dublado-todos-os-episodios",
      "texto_original": "Blue Lock vs. U-20 Japan (Dublado)",
      "rating": 7.55,
      "classificacao_etaria": "A14",
      "imagem_original": "https://animefire.plus/img/animes/blue-lock-vs-u-20-japan.webp",
      "imagem_pasta": "https://animefire.plus/img/animes/blue-lock-vs-u-20-japan/",
      "secao": "dublados,legendados,lancamentos",
      "pagina": 2,
      "total_episodios": 14,
      "link_video": "https://animefire.plus/video/blue-lock-vs-u-20-japan-dublado"
    },
    {
      "id": 441,
      "nome": "Blue Period (Dublado)",
      "link": "https://animefire.plus/animes/blue-period-dublado-todos-os-episodios",
      "texto_original": "Blue Period (Dublado)",
      "rating": 7.79,
      "classificacao_etaria": "A14",
      "imagem_original": "https://animefire.plus/img/animes/blue-period.webp",
      "imagem_pasta": "https://animefire.plus/img/animes/blue-period/",
      "secao": "dublados,legendados",
      "pagina": 12,
      "total_episodios": 12,
      "link_video": "https://animefire.plus/video/blue-period-dublado"
    },
    {
      "id": 442,
      "nome": "Blue Reflection Ray (Dublado)",
      "link": "https://animefire.plus/animes/blue-reflection-ray-dublado-todos-os-episodios",
      "texto_original": "Blue Reflection Ray (Dublado)",
      "rating": 5.87,
      "classificacao_etaria": "A14",
      "imagem_original": "https://animefire.plus/img/animes/blue-reflection-ray.webp",
      "imagem_pasta": "https://animefire.plus/img/animes/blue-reflection-ray/",
      "secao": "dublados,legendados",
      "pagina": 10,
      "total_episodios": 24,
      "link_video": "https://animefire.plus/video/blue-reflection-ray-dublado"
    },
    {
      "id": 443,
      "nome": "Blue Seed",
      "link": "https://animefire.plus/animes/blue-seed-todos-os-episodios",
      "texto_original": "Blue Seed",
      "rating": 7.09,
      "classificacao_etaria": "A14",
      "imagem_original": "https://animefire.plus/img/animes/blue-seed.webp",
      "imagem_pasta": "https://animefire.plus/img/animes/blue-seed/",
      "secao": "legendados",
      "pagina": 100,
      "total_episodios": 26,
      "link_video": "https://animefire.plus/video/blue-seed"
    },
    {
      "id": 445,
      "nome": "BNA (Dublado)",
      "link": "https://animefire.plus/animes/bna-dublado-todos-os-episodios",
      "texto_original": "BNA (Dublado)",
      "rating": 7.45,
      "classificacao_etaria": "A14",
      "imagem_original": "https://animefire.plus/img/animes/bna.webp",
      "imagem_pasta": "https://animefire.plus/img/animes/bna/",
      "secao": "dublados",
      "pagina": 21,
      "total_episodios": 12,
      "link_video": "https://animefire.plus/video/bna-dublado"
    },
    {
      "id": 446,
      "nome": "Bocchi the Rock!",
      "link": "https://animefire.plus/animes/bocchi-the-rock-todos-os-episodios",
      "texto_original": "Bocchi the Rock!",
      "rating": 8.75,
      "classificacao_etaria": "A14",
      "imagem_original": "https://animefire.plus/img/animes/bocchi-the-rock.webp",
      "imagem_pasta": "https://animefire.plus/img/animes/bocchi-the-rock/",
      "secao": "legendados",
      "pagina": 29,
      "total_episodios": 12,
      "link_video": "https://animefire.plus/video/bocchi-the-rock"
    }
  ],
  "pagination": {
    "current_page": 14,
    "per_page": 20,
    "total_items": 2988,
    "total_pages": 150,
    "has_next": true,
    "has_prev": true
  }
}
