{
  "message": "Animes com classificação etária: A14",
  "age_rating": "A14",
  "data": [
    {
      "id": 3415,
      "nome": "Shin Chuuka Ichiban! 2nd Season",
      "link": "https://animefire.plus/animes/shin-chuuka-ichiban-2nd-season-todos-os-episodios",
      "texto_original": "Shin Chuuka Ichiban! 2nd Season",
      "rating": 6.68,
      "classificacao_etaria": "A14",
      "imagem_original": "https://animefire.plus/img/animes/shin-chuuka-ichiban-2nd-season.webp",
      "imagem_pasta": "https://animefire.plus/img/animes/shin-chuuka-ichiban-2nd-season/",
      "secao": "legendados,lancamentos",
      "pagina": 48,
      "total_episodios": 6,
      "link_video": "https://animefire.plus/video/shin-chuuka-ichiban-2nd-season"
    },
    {
      "id": 3419,
      "nome": "Shin Koihime†Musou: Live Revolution",
      "link": "https://animefire.plus/animes/shin-koihime-musou-live-revolution-todos-os-episodios",
      "texto_original": "Shin Koihime†Musou: Live Revolution",
      "rating": 6.61,
      "classificacao_etaria": "A14",
      "imagem_original": "https://animefire.plus/img/animes/shin-koihime-musou-live-revolution.webp",
      "imagem_pasta": "https://animefire.plus/img/animes/shin-koihime-musou-live-revolution/",
      "secao": "legendados",
      "pagina": 72,
      "total_episodios": 1,
      "link_video": "https://animefire.plus/video/shin-koihime-musou-live-revolution"
    },
    {
      "id": 3421,
      "nome": "Shin no Nakama ja Nai to Yuusha no Party wo Oidasareta node, Henkyou de Slow Life suru Koto ni Shima",
      "link": "https://animefire.plus/animes/shin-no-nakama-ja-nai-to-yuusha-no-party-wo-oidasareta-node-henkyou-de-slow-life-suru-koto-ni-shima-todos-os-episodios",
      "texto_original": "Shin no Nakama ja Nai to Yuusha no Party wo Oidasareta node, Henkyou de Slow Life suru Koto ni Shima",
      "rating": 6.92,
      "classificacao_etaria": "A14",
      "imagem_original": "https://animefire.plus/img/animes/shin-no-nakama-ja-nai-to-yuusha-no-party-wo-oidasareta-node-henkyou-de-slow-life-suru-koto-ni-shima.webp",
      "imagem_pasta": "https://animefire.plus/img/animes/shin-no-nakama-ja-nai-to-yuusha-no-party-wo-oidasareta-node-henkyou-de-slow-life-suru-koto-ni-shima/",
      "secao": "legendados",
      "pagina": 39,
      "total_episodios": 13,
      "link_video": "https://animefire.plus/video/shin-no-nakama-ja-nai-to-yuusha-no-party-wo-oidasareta-node-henkyou-de-slow-life-suru-koto-ni-shima"
    },
    {
      "id": 3422,
      "nome": "Shin no Nakama ja Nai to Yuusha no Party wo Oidasareta node, Henkyou de Slow Life suru Koto ni Shimashita (Dublado)",
      "link": "https://animefire.plus/animes/shin-no-nakama-ja-nai-to-yuusha-no-party-wo-oidasareta-node-henkyou-de-slow-life-suru-koto-ni-shimashita-dublado-todos-os-episodios",
      "texto_original": "Shin no Nakama ja Nai to Yuusha no Party wo Oidasareta node, Henkyou de Slow Life suru Koto ni Shimashita (Dublado)",
      "rating": 6.92,
      "classificacao_etaria": "A14",
      "imagem_original": "https://animefire.plus/img/animes/shin-no-nakama-ja-nai-to-yuusha-no-party-wo-oidasareta-node-henkyou-de-slow-life-suru-koto-ni-shimashita.webp",
      "imagem_pasta": "https://animefire.plus/img/animes/shin-no-nakama-ja-nai-to-yuusha-no-party-wo-oidasareta-node-henkyou-de-slow-life-suru-koto-ni-shimashita/",
      "secao": "dublados,lancamentos",
      "pagina": 14,
      "total_episodios": 4,
      "link_video": "https://animefire.plus/video/shin-no-nakama-ja-nai-to-yuusha-no-party-wo-oidasareta-node-henkyou-de-slow-life-suru-koto-ni-shimashita-dublado"
    },
    {
      "id": 3423,
      "nome": "Shin no Nakama ja Nai to Yuusha no Party wo Oidasareta node, Henkyou de Slow Life suru Koto ni Shimashita 2nd",
      "link": "https://animefire.plus/animes/shin-no-nakama-ja-nai-to-yuusha-no-party-wo-oidasareta-node-henkyou-de-slow-life-suru-koto-ni-shimashita-2nd-todos-os-episodios",
      "texto_original": "Shin no Nakama ja Nai to Yuusha no Party wo Oidasareta node, Henkyou de Slow Life suru Koto ni Shimashita 2nd",
      "rating": 6.76,
      "classificacao_etaria": "A14",
      "imagem_original": "https://animefire.plus/img/animes/shin-no-nakama-ja-nai-to-yuusha-no-party-wo-oidasareta-node-henkyou-de-slow-life-suru-koto-ni-shimashita-2nd.webp",
      "imagem_pasta": "https://animefire.plus/img/animes/shin-no-nakama-ja-nai-to-yuusha-no-party-wo-oidasareta-node-henkyou-de-slow-life-suru-koto-ni-shimashita-2nd/",
      "secao": "legendados",
      "pagina": 16,
      "total_episodios": 12,
      "link_video": "https://animefire.plus/video/shin-no-nakama-ja-nai-to-yuusha-no-party-wo-oidasareta-node-henkyou-de-slow-life-suru-koto-ni-shimashita-2nd"
    },
    {
      "id": 3424,
      "nome": "Shin Sakura Taisen the Animation",
      "link": "https://animefire.plus/animes/shin-sakura-taisen-the-animation-todos-os-episodios",
      "texto_original": "Shin Sakura Taisen the Animation",
      "rating": 5.81,
      "classificacao_etaria": "A14",
      "imagem_original": "https://animefire.plus/img/animes/shin-sakura-taisen-the-animation.webp",
      "imagem_pasta": "https://animefire.plus/img/animes/shin-sakura-taisen-the-animation/",
      "secao": "legendados",
      "pagina": 81,
      "total_episodios": 1,
      "link_video": "https://animefire.plus/video/shin-sakura-taisen-the-animation"
    },
    {
      "id": 3425,
      "nome": "Shin Samurai-den Yaiba",
      "link": "https://animefire.plus/animes/shin-samurai-den-yaiba-todos-os-episodios",
      "texto_original": "Shin Samurai-den Yaiba",
      "rating": 7.28,
      "classificacao_etaria": "A14",
      "imagem_original": "https://animefire.plus/img/animes/shin-samurai-den-yaiba.webp",
      "imagem_pasta": "https://animefire.plus/img/animes/shin-samurai-den-yaiba/",
      "secao": "legendados,lancamentos",
      "pagina": 5,
      "total_episodios": 16,
      "link_video": "https://animefire.plus/video/shin-samurai-den-yaiba"
    },
    {
      "id": 3426,
      "nome": "Shin Shinka no Mi: Shiranai Uchi ni Kachigumi Jinsei (Dublado)",
      "link": "https://animefire.plus/animes/shin-shinka-no-mi-shiranai-uchi-ni-kachigumi-jinsei-dublado-todos-os-episodios",
      "texto_original": "Shin Shinka no Mi: Shiranai Uchi ni Kachigumi Jinsei (Dublado)",
      "rating": 5.47,
      "classificacao_etaria": "A14",
      "imagem_original": "https://animefire.plus/img/animes/shin-shinka-no-mi-shiranai-uchi-ni-kachigumi-jinsei.webp",
      "imagem_pasta": "https://animefire.plus/img/animes/shin-shinka-no-mi-shiranai-uchi-ni-kachigumi-jinsei/",
      "secao": "dublados,legendados",
      "pagina": 5,
      "total_episodios": 12,
      "link_video": "https://animefire.plus/video/shin-shinka-no-mi-shiranai-uchi-ni-kachigumi-jinsei-dublado"
    },
    {
      "id": 3427,
      "nome": "Shin Shirayuki-hime Densetsu Prétear",
      "link": "https://animefire.plus/animes/shin-shirayuki-hime-densetsu-pretear-todos-os-episodios",
      "texto_original": "Shin Shirayuki-hime Densetsu Prétear",
      "rating": 7.28,
      "classificacao_etaria": "A14",
      "imagem_original": "https://animefire.plus/img/animes/shin-shirayuki-hime-densetsu-pretear.webp",
      "imagem_pasta": "https://animefire.plus/img/animes/shin-shirayuki-hime-densetsu-pretear/",
      "secao": "legendados",
      "pagina": 137,
      "total_episodios": 13,
      "link_video": "https://animefire.plus/video/shin-shirayuki-hime-densetsu-pretear"
    },
    {
      "id": 3428,
      "nome": "Shin Strange+",
      "link": "https://animefire.plus/animes/shin-strange-todos-os-episodios",
      "texto_original": "Shin Strange+",
      "rating": 6.3,
      "classificacao_etaria": "A14",
      "imagem_original": "https://animefire.plus/img/animes/shin-strange.webp",
      "imagem_pasta": "https://animefire.plus/img/animes/shin-strange/",
      "secao": "legendados",
      "pagina": 104,
      "total_episodios": 12,
      "link_video": "https://animefire.plus/video/shin-strange"
    },
    {
      "id": 3429,
      "nome": "Shin Tennis no Ouji-sama (Dublado)",
      "link": "https://animefire.plus/animes/shin-tennis-no-ouji-sama-dublado-todos-os-episodios",
      "texto_original": "Shin Tennis no Ouji-sama (Dublado)",
      "rating": 7.55,
      "classificacao_etaria": "A14",
      "imagem_original": "https://animefire.plus/img/animes/shin-tennis-no-ouji-sama.webp",
      "imagem_pasta": "https://animefire.plus/img/animes/shin-tennis-no-ouji-sama/",
      "secao": "dublados,legendados",
      "pagina": 15,
      "total_episodios": 13,
      "link_video": "https://animefire.plus/video/shin-tennis-no-ouji-sama-dublado"
    },
    {
      "id": 3430,
      "nome": "Shin Tennis no Ouji-sama OVA vs. Genius 10",
      "link": "https://animefire.plus/animes/shin-tennis-no-ouji-sama-ova-vs-genius-10-todos-os-episodios",
      "texto_original": "Shin Tennis no Ouji-sama OVA vs. Genius 10",
      "rating": 7.63,
      "classificacao_etaria": "A14",
      "imagem_original": "https://animefire.plus/img/animes/shin-tennis-no-ouji-sama-ova-vs-genius-10.webp",
      "imagem_pasta": "https://animefire.plus/img/animes/shin-tennis-no-ouji-sama-ova-vs-genius-10/",
      "secao": "legendados",
      "pagina": 55,
      "total_episodios": 10,
      "link_video": "https://animefire.plus/video/shin-tennis-no-ouji-sama-ova-vs-genius-10"
    },
    {
      "id": 3431,
      "nome": "Shin Tennis no Ouji-sama Specials",
      "link": "https://animefire.plus/animes/shin-tennis-no-ouji-sama-specials-todos-os-episodios",
      "texto_original": "Shin Tennis no Ouji-sama Specials",
      "rating": 7.52,
      "classificacao_etaria": "A14",
      "imagem_original": "https://animefire.plus/img/animes/shin-tennis-no-ouji-sama-specials.webp",
      "imagem_pasta": "https://animefire.plus/img/animes/shin-tennis-no-ouji-sama-specials/",
      "secao": "legendados",
      "pagina": 55,
      "total_episodios": 7,
      "link_video": "https://animefire.plus/video/shin-tennis-no-ouji-sama-specials"
    },
    {
      "id": 3432,
      "nome": "Shin Tennis no Ouji-sama: Hyoutei vs. Rikkai - Game of Future (Dublado)",
      "link": "https://animefire.plus/animes/shin-tennis-no-ouji-sama-hyoutei-vs-rikkai---game-of-future-dublado-todos-os-episodios",
      "texto_original": "Shin Tennis no Ouji-sama: Hyoutei vs. Rikkai - Game of Future (Dublado)",
      "rating": 7.11,
      "classificacao_etaria": "A14",
      "imagem_original": "https://animefire.plus/img/animes/shin-tennis-no-ouji-sama-hyoutei-vs-rikkai---game-of-future.webp",
      "imagem_pasta": "https://animefire.plus/img/animes/shin-tennis-no-ouji-sama-hyoutei-vs-rikkai---game-of-future/",
      "secao": "dublados",
      "pagina": 16,
      "total_episodios": 2,
      "link_video": "https://animefire.plus/video/shin-tennis-no-ouji-sama-hyoutei-vs-rikkai---game-of-future-dublado"
    },
    {
      "id": 3433,
      "nome": "Shin Tennis no Ouji-sama: U-17 World Cup",
      "link": "https://animefire.plus/animes/shin-tennis-no-ouji-sama-u-17-world-cup-todos-os-episodios",
      "texto_original": "Shin Tennis no Ouji-sama: U-17 World Cup",
      "rating": 6.79,
      "classificacao_etaria": "A14",
      "imagem_original": "https://animefire.plus/img/animes/shin-tennis-no-ouji-sama-u-17-world-cup.webp",
      "imagem_pasta": "https://animefire.plus/img/animes/shin-tennis-no-ouji-sama-u-17-world-cup/",
      "secao": "legendados",
      "pagina": 31,
      "total_episodios": 13,
      "link_video": "https://animefire.plus/video/shin-tennis-no-ouji-sama-u-17-world-cup"
    },
    {
      "id": 3434,
      "nome": "Shin Tennis no Oujisama: U-17 World Cup Semifinal",
      "link": "https://animefire.plus/animes/shin-tennis-no-oujisama-u-17-world-cup-semifinal-todos-os-episodios",
      "texto_original": "Shin Tennis no Oujisama: U-17 World Cup Semifinal",
      "rating": 6.66,
      "classificacao_etaria": "A14",
      "imagem_original": "https://animefire.plus/img/animes/shin-tennis-no-oujisama-u-17-world-cup-semifinal.webp",
      "imagem_pasta": "https://animefire.plus/img/animes/shin-tennis-no-oujisama-u-17-world-cup-semifinal/",
      "secao": "legendados,lancamentos",
      "pagina": 9,
      "total_episodios": 3,
      "link_video": "https://animefire.plus/video/shin-tennis-no-oujisama-u-17-world-cup-semifinal"
    },
    {
      "id": 3435,
      "nome": "Shin Yaranai ka",
      "link": "https://animefire.plus/animes/shin-yaranai-ka-todos-os-episodios",
      "texto_original": "Shin Yaranai ka",
      "rating": 5.29,
      "classificacao_etaria": "A14",
      "imagem_original": "https://animefire.plus/img/animes/shin-yaranai-ka.webp",
      "imagem_pasta": "https://animefire.plus/img/animes/shin-yaranai-ka/",
      "secao": "legendados,lancamentos",
      "pagina": 14,
      "total_episodios": 0,
      "link_video": "https://animefire.plus/video/shin-yaranai-ka"
    },
    {
      "id": 3437,
      "nome": "Shine Post",
      "link": "https://animefire.plus/animes/shine-post-todos-os-episodios",
      "texto_original": "Shine Post",
      "rating": 7.49,
      "classificacao_etaria": "A14",
      "imagem_original": "https://animefire.plus/img/animes/shine-post.webp",
      "imagem_pasta": "https://animefire.plus/img/animes/shine-post/",
      "secao": "legendados",
      "pagina": 30,
      "total_episodios": 12,
      "link_video": "https://animefire.plus/video/shine-post"
    },
    {
      "id": 3451,
      "nome": "Shingeki! Kyojin Chuugakkou",
      "link": "https://animefire.plus/animes/shingeki-kyojin-chuugakkou-todos-os-episodios",
      "texto_original": "Shingeki! Kyojin Chuugakkou",
      "rating": 7.07,
      "classificacao_etaria": "A14",
      "imagem_original": "https://animefire.plus/img/animes/shingeki-kyojin-chuugakkou.webp",
      "imagem_pasta": "https://animefire.plus/img/animes/shingeki-kyojin-chuugakkou/",
      "secao": "legendados",
      "pagina": 99,
      "total_episodios": 12,
      "link_video": "https://animefire.plus/video/shingeki-kyojin-chuugakkou"
    },
    {
      "id": 3453,
      "nome": "Shinigami Bocchan to Kuro Maid (Dublado)",
      "link": "https://animefire.plus/animes/shinigami-bocchan-to-kuro-maid-dublado-todos-os-episodios",
      "texto_original": "Shinigami Bocchan to Kuro Maid (Dublado)",
      "rating": 7.59,
      "classificacao_etaria": "A14",
      "imagem_original": "https://animefire.plus/img/animes/shinigami-bocchan-to-kuro-maid.webp",
      "imagem_pasta": "https://animefire.plus/img/animes/shinigami-bocchan-to-kuro-maid/",
      "secao": "dublados,legendados",
      "pagina": 12,
      "total_episodios": 12,
      "link_video": "https://animefire.plus/video/shinigami-bocchan-to-kuro-maid-dublado"
    }
  ],
  "pagination": {
    "current_page": 115,
    "per_page": 20,
    "total_items": 2988,
    "total_pages": 150,
    "has_next": true,
    "has_prev": true
  }
}
