{
  "message": "Animes com classificação etária: A14",
  "age_rating": "A14",
  "data": [
    {
      "id": 3581,
      "nome": "Sore dake ga Neck",
      "link": "https://animefire.plus/animes/sore-dake-ga-neck-todos-os-episodios",
      "texto_original": "Sore dake ga Neck",
      "rating": null,
      "classificacao_etaria": "A14",
      "imagem_original": "https://animefire.plus/img/animes/sore-dake-ga-neck.webp",
      "imagem_pasta": "https://animefire.plus/img/animes/sore-dake-ga-neck/",
      "secao": "legendados",
      "pagina": 51,
      "total_episodios": 2,
      "link_video": "https://animefire.plus/video/sore-dake-ga-neck"
    },
    {
      "id": 3582,
      "nome": "Sore Ga Seiyuu!",
      "link": "https://animefire.plus/animes/sore-ga-seiyuu-todos-os-episodios",
      "texto_original": "Sore Ga Seiyuu!",
      "rating": 7.09,
      "classificacao_etaria": "A14",
      "imagem_original": "https://animefire.plus/img/animes/sore-ga-seiyuu.webp",
      "imagem_pasta": "https://animefire.plus/img/animes/sore-ga-seiyuu/",
      "secao": "legendados",
      "pagina": 96,
      "total_episodios": 13,
      "link_video": "https://animefire.plus/video/sore-ga-seiyuu"
    },
    {
      "id": 3583,
      "nome": "Soredemo Ayumu wa Yosetekuru",
      "link": "https://animefire.plus/animes/soredemo-ayumu-wa-yosetekuru-todos-os-episodios",
      "texto_original": "Soredemo Ayumu wa Yosetekuru",
      "rating": 7.01,
      "classificacao_etaria": "A14",
      "imagem_original": "https://animefire.plus/img/animes/soredemo-ayumu-wa-yosetekuru.webp",
      "imagem_pasta": "https://animefire.plus/img/animes/soredemo-ayumu-wa-yosetekuru/",
      "secao": "legendados",
      "pagina": 32,
      "total_episodios": 12,
      "link_video": "https://animefire.plus/video/soredemo-ayumu-wa-yosetekuru"
    },
    {
      "id": 3584,
      "nome": "Soredemo Machi wa Mawatteiru",
      "link": "https://animefire.plus/animes/soredemo-machi-wa-mawatteiru-todos-os-episodios",
      "texto_original": "Soredemo Machi wa Mawatteiru",
      "rating": 7.46,
      "classificacao_etaria": "A14",
      "imagem_original": "https://animefire.plus/img/animes/soredemo-machi-wa-mawatteiru.webp",
      "imagem_pasta": "https://animefire.plus/img/animes/soredemo-machi-wa-mawatteiru/",
      "secao": "legendados",
      "pagina": 159,
      "total_episodios": 12,
      "link_video": "https://animefire.plus/video/soredemo-machi-wa-mawatteiru"
    },
    {
      "id": 3585,
      "nome": "Soredemo Sekai Wa Utsukushii",
      "link": "https://animefire.plus/animes/soredemo-sekai-wa-utsukushii-todos-os-episodios",
      "texto_original": "Soredemo Sekai Wa Utsukushii",
      "rating": 7.78,
      "classificacao_etaria": "A14",
      "imagem_original": "https://animefire.plus/img/animes/soredemo-sekai-wa-utsukushii.webp",
      "imagem_pasta": "https://animefire.plus/img/animes/soredemo-sekai-wa-utsukushii/",
      "secao": "legendados",
      "pagina": 108,
      "total_episodios": 12,
      "link_video": "https://animefire.plus/video/soredemo-sekai-wa-utsukushii"
    },
    {
      "id": 3586,
      "nome": "Sorette♡Dakara ne!",
      "link": "https://animefire.plus/animes/sorette-dakara-ne-todos-os-episodios",
      "texto_original": "Sorette♡Dakara ne!",
      "rating": 5.04,
      "classificacao_etaria": "A14",
      "imagem_original": "https://animefire.plus/img/animes/sorette-dakara-ne.webp",
      "imagem_pasta": "https://animefire.plus/img/animes/sorette-dakara-ne/",
      "secao": "legendados",
      "pagina": 43,
      "total_episodios": 1,
      "link_video": "https://animefire.plus/video/sorette-dakara-ne"
    },
    {
      "id": 3587,
      "nome": "Soukou Musume Senki",
      "link": "https://animefire.plus/animes/soukou-musume-senki-todos-os-episodios",
      "texto_original": "Soukou Musume Senki",
      "rating": 5.78,
      "classificacao_etaria": "A14",
      "imagem_original": "https://animefire.plus/img/animes/soukou-musume-senki.webp",
      "imagem_pasta": "https://animefire.plus/img/animes/soukou-musume-senki/",
      "secao": "legendados",
      "pagina": 48,
      "total_episodios": 12,
      "link_video": "https://animefire.plus/video/soukou-musume-senki"
    },
    {
      "id": 3589,
      "nome": "Soukyuu no Fafner: Dead Aggressor",
      "link": "https://animefire.plus/animes/soukyuu-no-fafner-dead-aggressor-todos-os-episodios",
      "texto_original": "Soukyuu no Fafner: Dead Aggressor",
      "rating": 7.35,
      "classificacao_etaria": "A14",
      "imagem_original": "https://animefire.plus/img/animes/soukyuu-no-fafner-dead-aggressor.webp",
      "imagem_pasta": "https://animefire.plus/img/animes/soukyuu-no-fafner-dead-aggressor/",
      "secao": "legendados",
      "pagina": 117,
      "total_episodios": 25,
      "link_video": "https://animefire.plus/video/soukyuu-no-fafner-dead-aggressor"
    },
    {
      "id": 3590,
      "nome": "Soukyuu no Fafner: Right of Left - Single Program",
      "link": "https://animefire.plus/animes/soukyuu-no-fafner-right-of-left---single-program-todos-os-episodios",
      "texto_original": "Soukyuu no Fafner: Right of Left - Single Program",
      "rating": 7.42,
      "classificacao_etaria": "A14",
      "imagem_original": "https://animefire.plus/img/animes/soukyuu-no-fafner-right-of-left---single-program.webp",
      "imagem_pasta": "https://animefire.plus/img/animes/soukyuu-no-fafner-right-of-left---single-program/",
      "secao": "legendados",
      "pagina": 77,
      "total_episodios": 1,
      "link_video": "https://animefire.plus/video/soukyuu-no-fafner-right-of-left---single-program"
    },
    {
      "id": 3591,
      "nome": "Soul Buster",
      "link": "https://animefire.plus/animes/soul-buster-todos-os-episodios",
      "texto_original": "Soul Buster",
      "rating": 5.84,
      "classificacao_etaria": "A14",
      "imagem_original": "https://animefire.plus/img/animes/soul-buster.webp",
      "imagem_pasta": "https://animefire.plus/img/animes/soul-buster/",
      "secao": "legendados",
      "pagina": 61,
      "total_episodios": 12,
      "link_video": "https://animefire.plus/video/soul-buster"
    },
    {
      "id": 3592,
      "nome": "Soul Eater (Dublado)",
      "link": "https://animefire.plus/animes/soul-eater-dublado-todos-os-episodios",
      "texto_original": "Soul Eater (Dublado)",
      "rating": 7.85,
      "classificacao_etaria": "A14",
      "imagem_original": "https://animefire.plus/img/animes/soul-eater.webp",
      "imagem_pasta": "https://animefire.plus/img/animes/soul-eater/",
      "secao": "dublados,legendados",
      "pagina": 13,
      "total_episodios": 51,
      "link_video": "https://animefire.plus/video/soul-eater-dublado"
    },
    {
      "id": 3593,
      "nome": "Soul Eater NOT!",
      "link": "https://animefire.plus/animes/soul-eater-not-todos-os-episodios",
      "texto_original": "Soul Eater NOT!",
      "rating": 6.16,
      "classificacao_etaria": "A14",
      "imagem_original": "https://animefire.plus/img/animes/soul-eater-not.webp",
      "imagem_pasta": "https://animefire.plus/img/animes/soul-eater-not/",
      "secao": "legendados",
      "pagina": 170,
      "total_episodios": 11,
      "link_video": "https://animefire.plus/video/soul-eater-not"
    },
    {
      "id": 3595,
      "nome": "Sounan Desu ka?",
      "link": "https://animefire.plus/animes/sounan-desu-ka-todos-os-episodios",
      "texto_original": "Sounan Desu ka?",
      "rating": 6.62,
      "classificacao_etaria": "A14",
      "imagem_original": "https://animefire.plus/img/animes/sounan-desu-ka.webp",
      "imagem_pasta": "https://animefire.plus/img/animes/sounan-desu-ka/",
      "secao": "legendados",
      "pagina": 120,
      "total_episodios": 0,
      "link_video": "https://animefire.plus/video/sounan-desu-ka"
    },
    {
      "id": 3597,
      "nome": "Sousei no Aquarion",
      "link": "https://animefire.plus/animes/sousei-no-aquarion-todos-os-episodios",
      "texto_original": "Sousei no Aquarion",
      "rating": 7.16,
      "classificacao_etaria": "A14",
      "imagem_original": "https://animefire.plus/img/animes/sousei-no-aquarion.webp",
      "imagem_pasta": "https://animefire.plus/img/animes/sousei-no-aquarion/",
      "secao": "legendados",
      "pagina": 170,
      "total_episodios": 26,
      "link_video": "https://animefire.plus/video/sousei-no-aquarion"
    },
    {
      "id": 3598,
      "nome": "Sousei no Aquarion: Myth of Emotions",
      "link": "https://animefire.plus/animes/sousei-no-aquarion-myth-of-emotions-todos-os-episodios",
      "texto_original": "Sousei no Aquarion: Myth of Emotions",
      "rating": 5.42,
      "classificacao_etaria": "A14",
      "imagem_original": "https://animefire.plus/img/animes/sousei-no-aquarion-myth-of-emotions.webp",
      "imagem_pasta": "https://animefire.plus/img/animes/sousei-no-aquarion-myth-of-emotions/",
      "secao": "legendados",
      "pagina": 6,
      "total_episodios": 12,
      "link_video": "https://animefire.plus/video/sousei-no-aquarion-myth-of-emotions"
    },
    {
      "id": 3599,
      "nome": "Sousei no Onmyouji",
      "link": "https://animefire.plus/animes/sousei-no-onmyouji-todos-os-episodios",
      "texto_original": "Sousei no Onmyouji",
      "rating": 7.41,
      "classificacao_etaria": "A14",
      "imagem_original": "https://animefire.plus/img/animes/sousei-no-onmyouji.webp",
      "imagem_pasta": "https://animefire.plus/img/animes/sousei-no-onmyouji/",
      "secao": "legendados",
      "pagina": 95,
      "total_episodios": 50,
      "link_video": "https://animefire.plus/video/sousei-no-onmyouji"
    },
    {
      "id": 3600,
      "nome": "Soushin Shoujo Matoi",
      "link": "https://animefire.plus/animes/soushin-shoujo-matoi-todos-os-episodios",
      "texto_original": "Soushin Shoujo Matoi",
      "rating": 6.76,
      "classificacao_etaria": "A14",
      "imagem_original": "https://animefire.plus/img/animes/soushin-shoujo-matoi.webp",
      "imagem_pasta": "https://animefire.plus/img/animes/soushin-shoujo-matoi/",
      "secao": "legendados",
      "pagina": 156,
      "total_episodios": 10,
      "link_video": "https://animefire.plus/video/soushin-shoujo-matoi"
    },
    {
      "id": 3601,
      "nome": "Sousou no Frieren (Dublado)",
      "link": "https://animefire.plus/animes/sousou-no-frieren-dublado-todos-os-episodios",
      "texto_original": "Sousou no Frieren (Dublado)",
      "rating": 9.3,
      "classificacao_etaria": "A14",
      "imagem_original": "https://animefire.plus/img/animes/sousou-no-frieren.webp",
      "imagem_pasta": "https://animefire.plus/img/animes/sousou-no-frieren/",
      "secao": "dublados,legendados",
      "pagina": 5,
      "total_episodios": 28,
      "link_video": "https://animefire.plus/video/sousou-no-frieren-dublado"
    },
    {
      "id": 3602,
      "nome": "Soutai Sekai",
      "link": "https://animefire.plus/animes/soutai-sekai-todos-os-episodios",
      "texto_original": "Soutai Sekai",
      "rating": 5.89,
      "classificacao_etaria": "A14",
      "imagem_original": "https://animefire.plus/img/animes/soutai-sekai.webp",
      "imagem_pasta": "https://animefire.plus/img/animes/soutai-sekai/",
      "secao": "legendados",
      "pagina": 86,
      "total_episodios": 2,
      "link_video": "https://animefire.plus/video/soutai-sekai"
    },
    {
      "id": 3606,
      "nome": "Space☆Dandy",
      "link": "https://animefire.plus/animes/space-dandy-todos-os-episodios",
      "texto_original": "Space☆Dandy",
      "rating": 7.89,
      "classificacao_etaria": "A14",
      "imagem_original": "https://animefire.plus/img/animes/space-dandy.webp",
      "imagem_pasta": "https://animefire.plus/img/animes/space-dandy/",
      "secao": "legendados",
      "pagina": 135,
      "total_episodios": 13,
      "link_video": "https://animefire.plus/video/space-dandy"
    }
  ],
  "pagination": {
    "current_page": 121,
    "per_page": 20,
    "total_items": 2988,
    "total_pages": 150,
    "has_next": true,
    "has_prev": true
  }
}
