{
  "message": "Animes com classificação etária: A14",
  "age_rating": "A14",
  "data": [
    {
      "id": 3098,
      "nome": "Recorder to Randoseru Do♪",
      "link": "https://animefire.plus/animes/recorder-to-randoseru-do-todos-os-episodios",
      "texto_original": "Recorder to Randoseru Do♪",
      "rating": 6.75,
      "classificacao_etaria": "A14",
      "imagem_original": "https://animefire.plus/img/animes/recorder-to-randoseru-do.webp",
      "imagem_pasta": "https://animefire.plus/img/animes/recorder-to-randoseru-do/",
      "secao": "legendados",
      "pagina": 117,
      "total_episodios": 0,
      "link_video": "https://animefire.plus/video/recorder-to-randoseru-do"
    },
    {
      "id": 3099,
      "nome": "Recorder to Randoseru Mi☆",
      "link": "https://animefire.plus/animes/recorder-to-randoseru-mi-todos-os-episodios",
      "texto_original": "Recorder to Randoseru Mi☆",
      "rating": 6.75,
      "classificacao_etaria": "A14",
      "imagem_original": "https://animefire.plus/img/animes/recorder-to-randoseru-mi.webp",
      "imagem_pasta": "https://animefire.plus/img/animes/recorder-to-randoseru-mi/",
      "secao": "legendados",
      "pagina": 174,
      "total_episodios": 12,
      "link_video": "https://animefire.plus/video/recorder-to-randoseru-mi"
    },
    {
      "id": 3100,
      "nome": "Recorder To Randoseru Re♪",
      "link": "https://animefire.plus/animes/recorder-to-randoseru-re-todos-os-episodios",
      "texto_original": "Recorder To Randoseru Re♪",
      "rating": 6.93,
      "classificacao_etaria": "A14",
      "imagem_original": "https://animefire.plus/img/animes/recorder-to-randoseru-re.webp",
      "imagem_pasta": "https://animefire.plus/img/animes/recorder-to-randoseru-re/",
      "secao": "legendados",
      "pagina": 100,
      "total_episodios": 0,
      "link_video": "https://animefire.plus/video/recorder-to-randoseru-re"
    },
    {
      "id": 3102,
      "nome": "Regalia: The Three Sacred Stars",
      "link": "https://animefire.plus/animes/regalia-the-three-sacred-stars-todos-os-episodios",
      "texto_original": "Regalia: The Three Sacred Stars",
      "rating": 6.02,
      "classificacao_etaria": "A14",
      "imagem_original": "https://animefire.plus/img/animes/regalia-the-three-sacred-stars.webp",
      "imagem_pasta": "https://animefire.plus/img/animes/regalia-the-three-sacred-stars/",
      "secao": "legendados",
      "pagina": 172,
      "total_episodios": 0,
      "link_video": "https://animefire.plus/video/regalia-the-three-sacred-stars"
    },
    {
      "id": 3103,
      "nome": "Reikenzan: Eichi e no Shikaku",
      "link": "https://animefire.plus/animes/reikenzan-eichi-e-no-shikaku-todos-os-episodios",
      "texto_original": "Reikenzan: Eichi e no Shikaku",
      "rating": 7.03,
      "classificacao_etaria": "A14",
      "imagem_original": "https://animefire.plus/img/animes/reikenzan-eichi-e-no-shikaku.webp",
      "imagem_pasta": "https://animefire.plus/img/animes/reikenzan-eichi-e-no-shikaku/",
      "secao": "legendados",
      "pagina": 151,
      "total_episodios": 12,
      "link_video": "https://animefire.plus/video/reikenzan-eichi-e-no-shikaku"
    },
    {
      "id": 3104,
      "nome": "Reikenzan: Hoshikuzu-tachi no Utage",
      "link": "https://animefire.plus/animes/reikenzan-hoshikuzu-tachi-no-utage-todos-os-episodios",
      "texto_original": "Reikenzan: Hoshikuzu-tachi no Utage",
      "rating": 7.21,
      "classificacao_etaria": "A14",
      "imagem_original": "https://animefire.plus/img/animes/reikenzan-hoshikuzu-tachi-no-utage.webp",
      "imagem_pasta": "https://animefire.plus/img/animes/reikenzan-hoshikuzu-tachi-no-utage/",
      "secao": "legendados",
      "pagina": 166,
      "total_episodios": 12,
      "link_video": "https://animefire.plus/video/reikenzan-hoshikuzu-tachi-no-utage"
    },
    {
      "id": 3105,
      "nome": "Rekishi ni Nokoru Akujo ni Naru zo",
      "link": "https://animefire.plus/animes/rekishi-ni-nokoru-akujo-ni-naru-zo-todos-os-episodios",
      "texto_original": "Rekishi ni Nokoru Akujo ni Naru zo",
      "rating": 7.33,
      "classificacao_etaria": "A14",
      "imagem_original": "https://animefire.plus/img/animes/rekishi-ni-nokoru-akujo-ni-naru-zo.webp",
      "imagem_pasta": "https://animefire.plus/img/animes/rekishi-ni-nokoru-akujo-ni-naru-zo/",
      "secao": "legendados",
      "pagina": 11,
      "total_episodios": 13,
      "link_video": "https://animefire.plus/video/rekishi-ni-nokoru-akujo-ni-naru-zo"
    },
    {
      "id": 3106,
      "nome": "Rekka no Honoo",
      "link": "https://animefire.plus/animes/rekka-no-honoo-todos-os-episodios",
      "texto_original": "Rekka no Honoo",
      "rating": 7.41,
      "classificacao_etaria": "A14",
      "imagem_original": "https://animefire.plus/img/animes/rekka-no-honoo.webp",
      "imagem_pasta": "https://animefire.plus/img/animes/rekka-no-honoo/",
      "secao": "legendados",
      "pagina": 162,
      "total_episodios": 42,
      "link_video": "https://animefire.plus/video/rekka-no-honoo"
    },
    {
      "id": 3107,
      "nome": "Release the Spyce",
      "link": "https://animefire.plus/animes/release-the-spyce-todos-os-episodios",
      "texto_original": "Release the Spyce",
      "rating": 7.09,
      "classificacao_etaria": "A14",
      "imagem_original": "https://animefire.plus/img/animes/release-the-spyce.webp",
      "imagem_pasta": "https://animefire.plus/img/animes/release-the-spyce/",
      "secao": "legendados",
      "pagina": 156,
      "total_episodios": 12,
      "link_video": "https://animefire.plus/video/release-the-spyce"
    },
    {
      "id": 3108,
      "nome": "Relic Armor Legaciam",
      "link": "https://animefire.plus/animes/relic-armor-legaciam-todos-os-episodios",
      "texto_original": "Relic Armor Legaciam",
      "rating": 5.66,
      "classificacao_etaria": "A14",
      "imagem_original": "https://animefire.plus/img/animes/relic-armor-legaciam.webp",
      "imagem_pasta": "https://animefire.plus/img/animes/relic-armor-legaciam/",
      "secao": "legendados",
      "pagina": 70,
      "total_episodios": 1,
      "link_video": "https://animefire.plus/video/relic-armor-legaciam"
    },
    {
      "id": 3109,
      "nome": "ReLIFE",
      "link": "https://animefire.plus/animes/relife-todos-os-episodios",
      "texto_original": "ReLIFE",
      "rating": 8.09,
      "classificacao_etaria": "A14",
      "imagem_original": "https://animefire.plus/img/animes/relife.webp",
      "imagem_pasta": "https://animefire.plus/img/animes/relife/",
      "secao": "legendados",
      "pagina": 79,
      "total_episodios": 13,
      "link_video": "https://animefire.plus/video/relife"
    },
    {
      "id": 3110,
      "nome": "ReLIFE: Kanketsu-hen",
      "link": "https://animefire.plus/animes/relife-kanketsu-hen-todos-os-episodios",
      "texto_original": "ReLIFE: Kanketsu-hen",
      "rating": 8.32,
      "classificacao_etaria": "A14",
      "imagem_original": "https://animefire.plus/img/animes/relife-kanketsu-hen.webp",
      "imagem_pasta": "https://animefire.plus/img/animes/relife-kanketsu-hen/",
      "secao": "legendados",
      "pagina": 164,
      "total_episodios": 4,
      "link_video": "https://animefire.plus/video/relife-kanketsu-hen"
    },
    {
      "id": 3111,
      "nome": "Renai Boukun",
      "link": "https://animefire.plus/animes/renai-boukun-todos-os-episodios",
      "texto_original": "Renai Boukun",
      "rating": 6.86,
      "classificacao_etaria": "A14",
      "imagem_original": "https://animefire.plus/img/animes/renai-boukun.webp",
      "imagem_pasta": "https://animefire.plus/img/animes/renai-boukun/",
      "secao": "legendados",
      "pagina": 143,
      "total_episodios": 12,
      "link_video": "https://animefire.plus/video/renai-boukun"
    },
    {
      "id": 3114,
      "nome": "Renmei Kuugun Koukuu Mahou Ongakutai Luminous Witches",
      "link": "https://animefire.plus/animes/renmei-kuugun-koukuu-mahou-ongakutai-luminous-witches-todos-os-episodios",
      "texto_original": "Renmei Kuugun Koukuu Mahou Ongakutai Luminous Witches",
      "rating": 6.69,
      "classificacao_etaria": "A14",
      "imagem_original": "https://animefire.plus/img/animes/renmei-kuugun-koukuu-mahou-ongakutai-luminous-witches.webp",
      "imagem_pasta": "https://animefire.plus/img/animes/renmei-kuugun-koukuu-mahou-ongakutai-luminous-witches/",
      "secao": "legendados",
      "pagina": 31,
      "total_episodios": 12,
      "link_video": "https://animefire.plus/video/renmei-kuugun-koukuu-mahou-ongakutai-luminous-witches"
    },
    {
      "id": 3115,
      "nome": "Rental Magica",
      "link": "https://animefire.plus/animes/rental-magica-todos-os-episodios",
      "texto_original": "Rental Magica",
      "rating": 7.12,
      "classificacao_etaria": "A14",
      "imagem_original": "https://animefire.plus/img/animes/rental-magica.webp",
      "imagem_pasta": "https://animefire.plus/img/animes/rental-magica/",
      "secao": "legendados",
      "pagina": 141,
      "total_episodios": 24,
      "link_video": "https://animefire.plus/video/rental-magica"
    },
    {
      "id": 3116,
      "nome": "RErideD: Tokigoe no Derrida",
      "link": "https://animefire.plus/animes/rerided-tokigoe-no-derrida-todos-os-episodios",
      "texto_original": "RErideD: Tokigoe no Derrida",
      "rating": 5.8,
      "classificacao_etaria": "A14",
      "imagem_original": "https://animefire.plus/img/animes/rerided-tokigoe-no-derrida.webp",
      "imagem_pasta": "https://animefire.plus/img/animes/rerided-tokigoe-no-derrida/",
      "secao": "legendados",
      "pagina": 135,
      "total_episodios": 12,
      "link_video": "https://animefire.plus/video/rerided-tokigoe-no-derrida"
    },
    {
      "id": 3118,
      "nome": "Revisions (Dublado)",
      "link": "https://animefire.plus/animes/revisions-dublado-todos-os-episodios",
      "texto_original": "Revisions (Dublado)",
      "rating": 6.17,
      "classificacao_etaria": "A14",
      "imagem_original": "https://animefire.plus/img/animes/revisions.webp",
      "imagem_pasta": "https://animefire.plus/img/animes/revisions/",
      "secao": "dublados,legendados",
      "pagina": 25,
      "total_episodios": 12,
      "link_video": "https://animefire.plus/video/revisions-dublado"
    },
    {
      "id": 3119,
      "nome": "Rewrite",
      "link": "https://animefire.plus/animes/rewrite-todos-os-episodios",
      "texto_original": "Rewrite",
      "rating": 6.74,
      "classificacao_etaria": "A14",
      "imagem_original": "https://animefire.plus/img/animes/rewrite.webp",
      "imagem_pasta": "https://animefire.plus/img/animes/rewrite/",
      "secao": "legendados",
      "pagina": 64,
      "total_episodios": 24,
      "link_video": "https://animefire.plus/video/rewrite"
    },
    {
      "id": 3121,
      "nome": "RideBack",
      "link": "https://animefire.plus/animes/rideback-todos-os-episodios",
      "texto_original": "RideBack",
      "rating": 7.33,
      "classificacao_etaria": "A14",
      "imagem_original": "https://animefire.plus/img/animes/rideback.webp",
      "imagem_pasta": "https://animefire.plus/img/animes/rideback/",
      "secao": "legendados",
      "pagina": 130,
      "total_episodios": 12,
      "link_video": "https://animefire.plus/video/rideback"
    },
    {
      "id": 3123,
      "nome": "Rifle Is Beautiful",
      "link": "https://animefire.plus/animes/rifle-is-beautiful-todos-os-episodios",
      "texto_original": "Rifle Is Beautiful",
      "rating": 6.19,
      "classificacao_etaria": "A14",
      "imagem_original": "https://animefire.plus/img/animes/rifle-is-beautiful.webp",
      "imagem_pasta": "https://animefire.plus/img/animes/rifle-is-beautiful/",
      "secao": "legendados",
      "pagina": 109,
      "total_episodios": 1,
      "link_video": "https://animefire.plus/video/rifle-is-beautiful"
    }
  ],
  "pagination": {
    "current_page": 103,
    "per_page": 20,
    "total_items": 2988,
    "total_pages": 150,
    "has_next": true,
    "has_prev": true
  }
}
