{
  "message": "Animes com classificação etária: A14",
  "age_rating": "A14",
  "data": [
    {
      "id": 1556,
      "nome": "Huyao Xiao Hongniang: Qian Yan",
      "link": "https://animefire.plus/animes/huyao-xiao-hongniang-qian-yan-todos-os-episodios",
      "texto_original": "Huyao Xiao Hongniang: Qian Yan",
      "rating": 7.67,
      "classificacao_etaria": "A14",
      "imagem_original": "https://animefire.plus/img/animes/huyao-xiao-hongniang-qian-yan.webp",
      "imagem_pasta": "https://animefire.plus/img/animes/huyao-xiao-hongniang-qian-yan/",
      "secao": "legendados",
      "pagina": 123,
      "total_episodios": 15,
      "link_video": "https://animefire.plus/video/huyao-xiao-hongniang-qian-yan"
    },
    {
      "id": 1559,
      "nome": "Huyao Xiao Hongniang: Zhu Ye",
      "link": "https://animefire.plus/animes/huyao-xiao-hongniang-zhu-ye-todos-os-episodios",
      "texto_original": "Huyao Xiao Hongniang: Zhu Ye",
      "rating": 7.48,
      "classificacao_etaria": "A14",
      "imagem_original": "https://animefire.plus/img/animes/huyao-xiao-hongniang-zhu-ye.webp",
      "imagem_pasta": "https://animefire.plus/img/animes/huyao-xiao-hongniang-zhu-ye/",
      "secao": "legendados",
      "pagina": 112,
      "total_episodios": 12,
      "link_video": "https://animefire.plus/video/huyao-xiao-hongniang-zhu-ye"
    },
    {
      "id": 1563,
      "nome": "Hyakko",
      "link": "https://animefire.plus/animes/hyakko-todos-os-episodios",
      "texto_original": "Hyakko",
      "rating": 7.29,
      "classificacao_etaria": "A14",
      "imagem_original": "https://animefire.plus/img/animes/hyakko.webp",
      "imagem_pasta": "https://animefire.plus/img/animes/hyakko/",
      "secao": "legendados",
      "pagina": 109,
      "total_episodios": 13,
      "link_video": "https://animefire.plus/video/hyakko"
    },
    {
      "id": 1564,
      "nome": "Hyakko Extra",
      "link": "https://animefire.plus/animes/hyakko-extra-todos-os-episodios",
      "texto_original": "Hyakko Extra",
      "rating": 6.78,
      "classificacao_etaria": "A14",
      "imagem_original": "https://animefire.plus/img/animes/hyakko-extra.webp",
      "imagem_pasta": "https://animefire.plus/img/animes/hyakko-extra/",
      "secao": "legendados",
      "pagina": 71,
      "total_episodios": 1,
      "link_video": "https://animefire.plus/video/hyakko-extra"
    },
    {
      "id": 1565,
      "nome": "Hyakujuu-Ou GoLion",
      "link": "https://animefire.plus/animes/hyakujuu-ou-golion-todos-os-episodios",
      "texto_original": "Hyakujuu-Ou GoLion",
      "rating": 6.82,
      "classificacao_etaria": "A14",
      "imagem_original": "https://animefire.plus/img/animes/hyakujuu-ou-golion.webp",
      "imagem_pasta": "https://animefire.plus/img/animes/hyakujuu-ou-golion/",
      "secao": "legendados",
      "pagina": 43,
      "total_episodios": 28,
      "link_video": "https://animefire.plus/video/hyakujuu-ou-golion"
    },
    {
      "id": 1566,
      "nome": "Hyakuren no Haou to Seiyaku no Valkyria",
      "link": "https://animefire.plus/animes/hyakuren-no-haou-to-seiyaku-no-valkyria-todos-os-episodios",
      "texto_original": "Hyakuren no Haou to Seiyaku no Valkyria",
      "rating": 6.07,
      "classificacao_etaria": "A14",
      "imagem_original": "https://animefire.plus/img/animes/hyakuren-no-haou-to-seiyaku-no-valkyria.webp",
      "imagem_pasta": "https://animefire.plus/img/animes/hyakuren-no-haou-to-seiyaku-no-valkyria/",
      "secao": "legendados",
      "pagina": 132,
      "total_episodios": 12,
      "link_video": "https://animefire.plus/video/hyakuren-no-haou-to-seiyaku-no-valkyria"
    },
    {
      "id": 1567,
      "nome": "Hybrid Child",
      "link": "https://animefire.plus/animes/hybrid-child-todos-os-episodios",
      "texto_original": "Hybrid Child",
      "rating": 7.84,
      "classificacao_etaria": "A14",
      "imagem_original": "https://animefire.plus/img/animes/hybrid-child.webp",
      "imagem_pasta": "https://animefire.plus/img/animes/hybrid-child/",
      "secao": "legendados",
      "pagina": 80,
      "total_episodios": 4,
      "link_video": "https://animefire.plus/video/hybrid-child"
    },
    {
      "id": 1568,
      "nome": "Hyouka",
      "link": "https://animefire.plus/animes/hyouka-todos-os-episodios",
      "texto_original": "Hyouka",
      "rating": 8.15,
      "classificacao_etaria": "A14",
      "imagem_original": "https://animefire.plus/img/animes/hyouka.webp",
      "imagem_pasta": "https://animefire.plus/img/animes/hyouka/",
      "secao": "legendados",
      "pagina": 172,
      "total_episodios": 22,
      "link_video": "https://animefire.plus/video/hyouka"
    },
    {
      "id": 1569,
      "nome": "Hyouken no Majutsushi ga Sekai wo Suberu (Dublado)",
      "link": "https://animefire.plus/animes/hyouken-no-majutsushi-ga-sekai-wo-suberu-dublado-todos-os-episodios",
      "texto_original": "Hyouken no Majutsushi ga Sekai wo Suberu (Dublado)",
      "rating": 6.36,
      "classificacao_etaria": "A14",
      "imagem_original": "https://animefire.plus/img/animes/hyouken-no-majutsushi-ga-sekai-wo-suberu.webp",
      "imagem_pasta": "https://animefire.plus/img/animes/hyouken-no-majutsushi-ga-sekai-wo-suberu/",
      "secao": "dublados,legendados",
      "pagina": 4,
      "total_episodios": 12,
      "link_video": "https://animefire.plus/video/hyouken-no-majutsushi-ga-sekai-wo-suberu-dublado"
    },
    {
      "id": 1572,
      "nome": "I My Me! Strawberry Eggs",
      "link": "https://animefire.plus/animes/i-my-me-strawberry-eggs-todos-os-episodios",
      "texto_original": "I My Me! Strawberry Eggs",
      "rating": 6.87,
      "classificacao_etaria": "A14",
      "imagem_original": "https://animefire.plus/img/animes/i-my-me-strawberry-eggs.webp",
      "imagem_pasta": "https://animefire.plus/img/animes/i-my-me-strawberry-eggs/",
      "secao": "legendados",
      "pagina": 99,
      "total_episodios": 0,
      "link_video": "https://animefire.plus/video/i-my-me-strawberry-eggs"
    },
    {
      "id": 1576,
      "nome": "I★Chu: Halfway Through the Idol",
      "link": "https://animefire.plus/animes/i-chu-halfway-through-the-idol-todos-os-episodios",
      "texto_original": "I★Chu: Halfway Through the Idol",
      "rating": 6.57,
      "classificacao_etaria": "A14",
      "imagem_original": "https://animefire.plus/img/animes/i-chu-halfway-through-the-idol.webp",
      "imagem_pasta": "https://animefire.plus/img/animes/i-chu-halfway-through-the-idol/",
      "secao": "legendados",
      "pagina": 48,
      "total_episodios": 12,
      "link_video": "https://animefire.plus/video/i-chu-halfway-through-the-idol"
    },
    {
      "id": 1578,
      "nome": "Ichigo 100%",
      "link": "https://animefire.plus/animes/ichigo-100-todos-os-episodios",
      "texto_original": "Ichigo 100%",
      "rating": 6.75,
      "classificacao_etaria": "A14",
      "imagem_original": "https://animefire.plus/img/animes/ichigo-100.webp",
      "imagem_pasta": "https://animefire.plus/img/animes/ichigo-100/",
      "secao": "legendados",
      "pagina": 156,
      "total_episodios": 12,
      "link_video": "https://animefire.plus/video/ichigo-100"
    },
    {
      "id": 1579,
      "nome": "Ichigo 100% Special 2",
      "link": "https://animefire.plus/animes/ichigo-100-special-2-todos-os-episodios",
      "texto_original": "Ichigo 100% Special 2",
      "rating": 6.92,
      "classificacao_etaria": "A14",
      "imagem_original": "https://animefire.plus/img/animes/ichigo-100-special-2.webp",
      "imagem_pasta": "https://animefire.plus/img/animes/ichigo-100-special-2/",
      "secao": "legendados",
      "pagina": 82,
      "total_episodios": 1,
      "link_video": "https://animefire.plus/video/ichigo-100-special-2"
    },
    {
      "id": 1580,
      "nome": "Ichigo Mashimaro",
      "link": "https://animefire.plus/animes/ichigo-mashimaro-todos-os-episodios",
      "texto_original": "Ichigo Mashimaro",
      "rating": 7.71,
      "classificacao_etaria": "A14",
      "imagem_original": "https://animefire.plus/img/animes/ichigo-mashimaro.webp",
      "imagem_pasta": "https://animefire.plus/img/animes/ichigo-mashimaro/",
      "secao": "legendados",
      "pagina": 123,
      "total_episodios": 12,
      "link_video": "https://animefire.plus/video/ichigo-mashimaro"
    },
    {
      "id": 1581,
      "nome": "Ichigo Mashimaro Encore",
      "link": "https://animefire.plus/animes/ichigo-mashimaro-encore-todos-os-episodios",
      "texto_original": "Ichigo Mashimaro Encore",
      "rating": 7.72,
      "classificacao_etaria": "A14",
      "imagem_original": "https://animefire.plus/img/animes/ichigo-mashimaro-encore.webp",
      "imagem_pasta": "https://animefire.plus/img/animes/ichigo-mashimaro-encore/",
      "secao": "legendados",
      "pagina": 67,
      "total_episodios": 2,
      "link_video": "https://animefire.plus/video/ichigo-mashimaro-encore"
    },
    {
      "id": 1583,
      "nome": "ID-0 (Dublado)",
      "link": "https://animefire.plus/animes/id-0-dublado-todos-os-episodios",
      "texto_original": "ID-0 (Dublado)",
      "rating": 6.64,
      "classificacao_etaria": "A14",
      "imagem_original": "https://animefire.plus/img/animes/id-0.webp",
      "imagem_pasta": "https://animefire.plus/img/animes/id-0/",
      "secao": "dublados,legendados",
      "pagina": 21,
      "total_episodios": 12,
      "link_video": "https://animefire.plus/video/id-0-dublado"
    },
    {
      "id": 1585,
      "nome": "Idol Jihen",
      "link": "https://animefire.plus/animes/idol-jihen-todos-os-episodios",
      "texto_original": "Idol Jihen",
      "rating": 5.7,
      "classificacao_etaria": "A14",
      "imagem_original": "https://animefire.plus/img/animes/idol-jihen.webp",
      "imagem_pasta": "https://animefire.plus/img/animes/idol-jihen/",
      "secao": "legendados",
      "pagina": 176,
      "total_episodios": 1,
      "link_video": "https://animefire.plus/video/idol-jihen"
    },
    {
      "id": 1586,
      "nome": "Idol Land PriPara",
      "link": "https://animefire.plus/animes/idol-land-pripara-todos-os-episodios",
      "texto_original": "Idol Land PriPara",
      "rating": 7.41,
      "classificacao_etaria": "A14",
      "imagem_original": "https://animefire.plus/img/animes/idol-land-pripara.webp",
      "imagem_pasta": "https://animefire.plus/img/animes/idol-land-pripara/",
      "secao": "legendados,lancamentos",
      "pagina": 35,
      "total_episodios": 0,
      "link_video": "https://animefire.plus/video/idol-land-pripara"
    },
    {
      "id": 1587,
      "nome": "Idol Memories",
      "link": "https://animefire.plus/animes/idol-memories-todos-os-episodios",
      "texto_original": "Idol Memories",
      "rating": 5.36,
      "classificacao_etaria": "A14",
      "imagem_original": "https://animefire.plus/img/animes/idol-memories.webp",
      "imagem_pasta": "https://animefire.plus/img/animes/idol-memories/",
      "secao": "legendados",
      "pagina": 142,
      "total_episodios": 3,
      "link_video": "https://animefire.plus/video/idol-memories"
    },
    {
      "id": 1589,
      "nome": "IDOLiSH7",
      "link": "https://animefire.plus/animes/idolish7-todos-os-episodios",
      "texto_original": "IDOLiSH7",
      "rating": 8.04,
      "classificacao_etaria": "A14",
      "imagem_original": "https://animefire.plus/img/animes/idolish7.webp",
      "imagem_pasta": "https://animefire.plus/img/animes/idolish7/",
      "secao": "legendados",
      "pagina": 105,
      "total_episodios": 17,
      "link_video": "https://animefire.plus/video/idolish7"
    }
  ],
  "pagination": {
    "current_page": 51,
    "per_page": 20,
    "total_items": 2988,
    "total_pages": 150,
    "has_next": true,
    "has_prev": true
  }
}
