{
  "message": "Animes com classificação etária: A14",
  "age_rating": "A14",
  "data": [
    {
      "id": 2524,
      "nome": "Miru: Watashi no Mirai",
      "link": "https://animefire.plus/animes/miru-watashi-no-mirai-todos-os-episodios",
      "texto_original": "Miru: Watashi no Mirai",
      "rating": 5.2,
      "classificacao_etaria": "A14",
      "imagem_original": "https://animefire.plus/img/animes/miru-watashi-no-mirai.webp",
      "imagem_pasta": "https://animefire.plus/img/animes/miru-watashi-no-mirai/",
      "secao": "legendados,lancamentos",
      "pagina": 4,
      "total_episodios": 0,
      "link_video": "https://animefire.plus/video/miru-watashi-no-mirai"
    },
    {
      "id": 2527,
      "nome": "Mitsuboshi Colors",
      "link": "https://animefire.plus/animes/mitsuboshi-colors-todos-os-episodios",
      "texto_original": "Mitsuboshi Colors",
      "rating": 7.49,
      "classificacao_etaria": "A14",
      "imagem_original": "https://animefire.plus/img/animes/mitsuboshi-colors.webp",
      "imagem_pasta": "https://animefire.plus/img/animes/mitsuboshi-colors/",
      "secao": "legendados",
      "pagina": 161,
      "total_episodios": 12,
      "link_video": "https://animefire.plus/video/mitsuboshi-colors"
    },
    {
      "id": 2528,
      "nome": "Mitsudomoe",
      "link": "https://animefire.plus/animes/mitsudomoe-todos-os-episodios",
      "texto_original": "Mitsudomoe",
      "rating": 7.66,
      "classificacao_etaria": "A14",
      "imagem_original": "https://animefire.plus/img/animes/mitsudomoe.webp",
      "imagem_pasta": "https://animefire.plus/img/animes/mitsudomoe/",
      "secao": "legendados",
      "pagina": 103,
      "total_episodios": 1,
      "link_video": "https://animefire.plus/video/mitsudomoe"
    },
    {
      "id": 2529,
      "nome": "Mitsudomoe Zouryouchuu!",
      "link": "https://animefire.plus/animes/mitsudomoe-zouryouchuu-todos-os-episodios",
      "texto_original": "Mitsudomoe Zouryouchuu!",
      "rating": 7.77,
      "classificacao_etaria": "A14",
      "imagem_original": "https://animefire.plus/img/animes/mitsudomoe-zouryouchuu.webp",
      "imagem_pasta": "https://animefire.plus/img/animes/mitsudomoe-zouryouchuu/",
      "secao": "legendados",
      "pagina": 176,
      "total_episodios": 8,
      "link_video": "https://animefire.plus/video/mitsudomoe-zouryouchuu"
    },
    {
      "id": 2530,
      "nome": "Mix - Meisei Story 2nd Season",
      "link": "https://animefire.plus/animes/mix-meisei-story-2nd-season-todos-os-episodios",
      "texto_original": "Mix - Meisei Story 2nd Season",
      "rating": 6.98,
      "classificacao_etaria": "A14",
      "imagem_original": "https://animefire.plus/img/animes/mix-meisei-story-2nd-season.jpg",
      "imagem_pasta": "https://animefire.plus/img/animes/mix-meisei-story-2nd-season/",
      "secao": "legendados,lancamentos",
      "pagina": 25,
      "total_episodios": 18,
      "link_video": "https://animefire.plus/video/mix-meisei-story-2nd-season"
    },
    {
      "id": 2531,
      "nome": "Miyakawa-ke no Kuufuku",
      "link": "https://animefire.plus/animes/miyakawa-ke-no-kuufuku-todos-os-episodios",
      "texto_original": "Miyakawa-ke no Kuufuku",
      "rating": 6.54,
      "classificacao_etaria": "A14",
      "imagem_original": "https://animefire.plus/img/animes/miyakawa-ke-no-kuufuku.webp",
      "imagem_pasta": "https://animefire.plus/img/animes/miyakawa-ke-no-kuufuku/",
      "secao": "legendados",
      "pagina": 88,
      "total_episodios": 1,
      "link_video": "https://animefire.plus/video/miyakawa-ke-no-kuufuku"
    },
    {
      "id": 2532,
      "nome": "Mizu no Kotoba",
      "link": "https://animefire.plus/animes/mizu-no-kotoba-todos-os-episodios",
      "texto_original": "Mizu no Kotoba",
      "rating": 6.85,
      "classificacao_etaria": "A14",
      "imagem_original": "https://animefire.plus/img/animes/mizu-no-kotoba.webp",
      "imagem_pasta": "https://animefire.plus/img/animes/mizu-no-kotoba/",
      "secao": "legendados",
      "pagina": 77,
      "total_episodios": 1,
      "link_video": "https://animefire.plus/video/mizu-no-kotoba"
    },
    {
      "id": 2533,
      "nome": "Mizu Zokusei no Mahoutsukai",
      "link": "https://animefire.plus/animes/mizu-zokusei-no-mahoutsukai-todos-os-episodios",
      "texto_original": "Mizu Zokusei no Mahoutsukai",
      "rating": 7.21,
      "classificacao_etaria": "A14",
      "imagem_original": "https://animefire.plus/img/animes/mizu-zokusei-no-mahoutsukai.webp",
      "imagem_pasta": "https://animefire.plus/img/animes/mizu-zokusei-no-mahoutsukai/",
      "secao": "legendados,lancamentos",
      "pagina": 2,
      "total_episodios": 5,
      "link_video": "https://animefire.plus/video/mizu-zokusei-no-mahoutsukai"
    },
    {
      "id": 2534,
      "nome": "Mizuiro (2003)",
      "link": "https://animefire.plus/animes/mizuiro-2003-todos-os-episodios",
      "texto_original": "Mizuiro (2003)",
      "rating": 6.39,
      "classificacao_etaria": "A14",
      "imagem_original": "https://animefire.plus/img/animes/mizuiro-2003.webp",
      "imagem_pasta": "https://animefire.plus/img/animes/mizuiro-2003/",
      "secao": "legendados",
      "pagina": 44,
      "total_episodios": 2,
      "link_video": "https://animefire.plus/video/mizuiro-2003"
    },
    {
      "id": 2538,
      "nome": "Mob kara Hajimaru Tansaku Eiyuutan",
      "link": "https://animefire.plus/animes/mob-kara-hajimaru-tansaku-eiyuutan-todos-os-episodios",
      "texto_original": "Mob kara Hajimaru Tansaku Eiyuutan",
      "rating": 5.82,
      "classificacao_etaria": "A14",
      "imagem_original": "https://animefire.plus/img/animes/mob-kara-hajimaru-tansaku-eiyuutan.webp",
      "imagem_pasta": "https://animefire.plus/img/animes/mob-kara-hajimaru-tansaku-eiyuutan/",
      "secao": "legendados",
      "pagina": 12,
      "total_episodios": 12,
      "link_video": "https://animefire.plus/video/mob-kara-hajimaru-tansaku-eiyuutan"
    },
    {
      "id": 2539,
      "nome": "Mob Psycho 100 (Dublado)",
      "link": "https://animefire.plus/animes/mob-psycho-100-dublado-todos-os-episodios",
      "texto_original": "Mob Psycho 100 (Dublado)",
      "rating": 8.5,
      "classificacao_etaria": "A14",
      "imagem_original": "https://animefire.plus/img/animes/mob-psycho-100.webp",
      "imagem_pasta": "https://animefire.plus/img/animes/mob-psycho-100/",
      "secao": "dublados,legendados",
      "pagina": 20,
      "total_episodios": 0,
      "link_video": "https://animefire.plus/video/mob-psycho-100-dublado"
    },
    {
      "id": 2540,
      "nome": "Mob Psycho 100 II (Dublado)",
      "link": "https://animefire.plus/animes/mob-psycho-100-ii-dublado-todos-os-episodios",
      "texto_original": "Mob Psycho 100 II (Dublado)",
      "rating": 8.88,
      "classificacao_etaria": "A14",
      "imagem_original": "https://animefire.plus/img/animes/mob-psycho-100-ii.webp",
      "imagem_pasta": "https://animefire.plus/img/animes/mob-psycho-100-ii/",
      "secao": "dublados,legendados",
      "pagina": 23,
      "total_episodios": 13,
      "link_video": "https://animefire.plus/video/mob-psycho-100-ii-dublado"
    },
    {
      "id": 2541,
      "nome": "Mob Psycho 100 III (Dublado)",
      "link": "https://animefire.plus/animes/mob-psycho-100-iii-dublado-todos-os-episodios",
      "texto_original": "Mob Psycho 100 III (Dublado)",
      "rating": 8.71,
      "classificacao_etaria": "A14",
      "imagem_original": "https://animefire.plus/img/animes/mob-psycho-100-iii.webp",
      "imagem_pasta": "https://animefire.plus/img/animes/mob-psycho-100-iii/",
      "secao": "dublados,legendados",
      "pagina": 9,
      "total_episodios": 12,
      "link_video": "https://animefire.plus/video/mob-psycho-100-iii-dublado"
    },
    {
      "id": 2542,
      "nome": "Mobile Fighter G Gundam",
      "link": "https://animefire.plus/animes/mobile-fighter-g-gundam-todos-os-episodios",
      "texto_original": "Mobile Fighter G Gundam",
      "rating": 7.57,
      "classificacao_etaria": "A14",
      "imagem_original": "https://animefire.plus/img/animes/mobile-fighter-g-gundam.webp",
      "imagem_pasta": "https://animefire.plus/img/animes/mobile-fighter-g-gundam/",
      "secao": "legendados",
      "pagina": 74,
      "total_episodios": 49,
      "link_video": "https://animefire.plus/video/mobile-fighter-g-gundam"
    },
    {
      "id": 2545,
      "nome": "Mobile Suit Gundam 0083: Stardust Memory",
      "link": "https://animefire.plus/animes/mobile-suit-gundam-0083-stardust-memory-todos-os-episodios",
      "texto_original": "Mobile Suit Gundam 0083: Stardust Memory",
      "rating": 7.29,
      "classificacao_etaria": "A14",
      "imagem_original": "https://animefire.plus/img/animes/mobile-suit-gundam-0083-stardust-memory.webp",
      "imagem_pasta": "https://animefire.plus/img/animes/mobile-suit-gundam-0083-stardust-memory/",
      "secao": "legendados",
      "pagina": 42,
      "total_episodios": 13,
      "link_video": "https://animefire.plus/video/mobile-suit-gundam-0083-stardust-memory"
    },
    {
      "id": 2546,
      "nome": "Mobile Suit Gundam AGE",
      "link": "https://animefire.plus/animes/mobile-suit-gundam-age-todos-os-episodios",
      "texto_original": "Mobile Suit Gundam AGE",
      "rating": 6.55,
      "classificacao_etaria": "A14",
      "imagem_original": "https://animefire.plus/img/animes/mobile-suit-gundam-age.webp",
      "imagem_pasta": "https://animefire.plus/img/animes/mobile-suit-gundam-age/",
      "secao": "legendados",
      "pagina": 151,
      "total_episodios": 1,
      "link_video": "https://animefire.plus/video/mobile-suit-gundam-age"
    },
    {
      "id": 2551,
      "nome": "Mobile Suit Gundam Unicorn RE:0096",
      "link": "https://animefire.plus/animes/mobile-suit-gundam-unicorn-re-0096-todos-os-episodios",
      "texto_original": "Mobile Suit Gundam Unicorn RE:0096",
      "rating": 7.59,
      "classificacao_etaria": "A14",
      "imagem_original": "https://animefire.plus/img/animes/mobile-suit-gundam-unicorn-re-0096.webp",
      "imagem_pasta": "https://animefire.plus/img/animes/mobile-suit-gundam-unicorn-re-0096/",
      "secao": "legendados",
      "pagina": 170,
      "total_episodios": 2,
      "link_video": "https://animefire.plus/video/mobile-suit-gundam-unicorn-re-0096"
    },
    {
      "id": 2552,
      "nome": "Mobile Suit Gundam Wing (Dublado)",
      "link": "https://animefire.plus/animes/mobile-suit-gundam-wing-dublado-todos-os-episodios",
      "texto_original": "Mobile Suit Gundam Wing (Dublado)",
      "rating": 7.81,
      "classificacao_etaria": "A14",
      "imagem_original": "https://animefire.plus/img/animes/mobile-suit-gundam-wing.webp",
      "imagem_pasta": "https://animefire.plus/img/animes/mobile-suit-gundam-wing/",
      "secao": "dublados",
      "pagina": 27,
      "total_episodios": 12,
      "link_video": "https://animefire.plus/video/mobile-suit-gundam-wing-dublado"
    },
    {
      "id": 2553,
      "nome": "Mobile Suit Gundam-san",
      "link": "https://animefire.plus/animes/mobile-suit-gundam-san-todos-os-episodios",
      "texto_original": "Mobile Suit Gundam-san",
      "rating": 6.21,
      "classificacao_etaria": "A14",
      "imagem_original": "https://animefire.plus/img/animes/mobile-suit-gundam-san.webp",
      "imagem_pasta": "https://animefire.plus/img/animes/mobile-suit-gundam-san/",
      "secao": "legendados",
      "pagina": 101,
      "total_episodios": 13,
      "link_video": "https://animefire.plus/video/mobile-suit-gundam-san"
    },
    {
      "id": 2556,
      "nome": "Mobile Suit Gundam: The 08th MS Team",
      "link": "https://animefire.plus/animes/mobile-suit-gundam-the-08th-ms-team-todos-os-episodios",
      "texto_original": "Mobile Suit Gundam: The 08th MS Team",
      "rating": 8.03,
      "classificacao_etaria": "A14",
      "imagem_original": "https://animefire.plus/img/animes/mobile-suit-gundam-the-08th-ms-team.webp",
      "imagem_pasta": "https://animefire.plus/img/animes/mobile-suit-gundam-the-08th-ms-team/",
      "secao": "legendados",
      "pagina": 55,
      "total_episodios": 12,
      "link_video": "https://animefire.plus/video/mobile-suit-gundam-the-08th-ms-team"
    }
  ],
  "pagination": {
    "current_page": 84,
    "per_page": 20,
    "total_items": 2988,
    "total_pages": 150,
    "has_next": true,
    "has_prev": true
  }
}
