{
  "message": "Animes com classificação etária: A14",
  "age_rating": "A14",
  "data": [
    {
      "id": 1464,
      "nome": "Highspeed Etoile",
      "link": "https://animefire.plus/animes/highspeed-etoile-todos-os-episodios",
      "texto_original": "Highspeed Etoile",
      "rating": 6.14,
      "classificacao_etaria": "A14",
      "imagem_original": "https://animefire.plus/img/animes/highspeed-etoile.webp",
      "imagem_pasta": "https://animefire.plus/img/animes/highspeed-etoile/",
      "secao": "legendados",
      "pagina": 14,
      "total_episodios": 12,
      "link_video": "https://animefire.plus/video/highspeed-etoile"
    },
    {
      "id": 1471,
      "nome": "Higurashi no Naku Koro ni Rei",
      "link": "https://animefire.plus/animes/higurashi-no-naku-koro-ni-rei-todos-os-episodios",
      "texto_original": "Higurashi no Naku Koro ni Rei",
      "rating": 7.51,
      "classificacao_etaria": "A14",
      "imagem_original": "https://animefire.plus/img/animes/higurashi-no-naku-koro-ni-rei.webp",
      "imagem_pasta": "https://animefire.plus/img/animes/higurashi-no-naku-koro-ni-rei/",
      "secao": "legendados",
      "pagina": 168,
      "total_episodios": 5,
      "link_video": "https://animefire.plus/video/higurashi-no-naku-koro-ni-rei"
    },
    {
      "id": 1473,
      "nome": "Hiiro no Kakera",
      "link": "https://animefire.plus/animes/hiiro-no-kakera-todos-os-episodios",
      "texto_original": "Hiiro no Kakera",
      "rating": 6.86,
      "classificacao_etaria": "A14",
      "imagem_original": "https://animefire.plus/img/animes/hiiro-no-kakera.webp",
      "imagem_pasta": "https://animefire.plus/img/animes/hiiro-no-kakera/",
      "secao": "legendados",
      "pagina": 159,
      "total_episodios": 13,
      "link_video": "https://animefire.plus/video/hiiro-no-kakera"
    },
    {
      "id": 1474,
      "nome": "Hiiro no Kakera Dai Ni Shou",
      "link": "https://animefire.plus/animes/hiiro-no-kakera-dai-ni-shou-todos-os-episodios",
      "texto_original": "Hiiro no Kakera Dai Ni Shou",
      "rating": 7.34,
      "classificacao_etaria": "A14",
      "imagem_original": "https://animefire.plus/img/animes/hiiro-no-kakera-dai-ni-shou.webp",
      "imagem_pasta": "https://animefire.plus/img/animes/hiiro-no-kakera-dai-ni-shou/",
      "secao": "legendados",
      "pagina": 143,
      "total_episodios": 13,
      "link_video": "https://animefire.plus/video/hiiro-no-kakera-dai-ni-shou"
    },
    {
      "id": 1476,
      "nome": "Hikari no Ou",
      "link": "https://animefire.plus/animes/hikari-no-ou-todos-os-episodios",
      "texto_original": "Hikari no Ou",
      "rating": 6.33,
      "classificacao_etaria": "A14",
      "imagem_original": "https://animefire.plus/img/animes/hikari-no-ou.webp",
      "imagem_pasta": "https://animefire.plus/img/animes/hikari-no-ou/",
      "secao": "legendados",
      "pagina": 26,
      "total_episodios": 10,
      "link_video": "https://animefire.plus/video/hikari-no-ou"
    },
    {
      "id": 1477,
      "nome": "Hikari no Ou 2nd Season",
      "link": "https://animefire.plus/animes/hikari-no-ou-2-todos-os-episodios",
      "texto_original": "Hikari no Ou 2nd Season",
      "rating": 5.9,
      "classificacao_etaria": "A14",
      "imagem_original": "https://animefire.plus/img/animes/hikari-no-ou-2.webp",
      "imagem_pasta": "https://animefire.plus/img/animes/hikari-no-ou-2/",
      "secao": "legendados",
      "pagina": 16,
      "total_episodios": 10,
      "link_video": "https://animefire.plus/video/hikari-no-ou-2"
    },
    {
      "id": 1478,
      "nome": "Hikari To Mizu No Daphne",
      "link": "https://animefire.plus/animes/hikari-to-mizu-no-daphne-todos-os-episodios",
      "texto_original": "Hikari To Mizu No Daphne",
      "rating": 6.81,
      "classificacao_etaria": "A14",
      "imagem_original": "https://animefire.plus/img/animes/hikari-to-mizu-no-daphne.webp",
      "imagem_pasta": "https://animefire.plus/img/animes/hikari-to-mizu-no-daphne/",
      "secao": "legendados",
      "pagina": 98,
      "total_episodios": 0,
      "link_video": "https://animefire.plus/video/hikari-to-mizu-no-daphne"
    },
    {
      "id": 1480,
      "nome": "Hikaru no Go (Dublado)",
      "link": "https://animefire.plus/animes/hikaru-no-go-dublado-todos-os-episodios",
      "texto_original": "Hikaru no Go (Dublado)",
      "rating": 8.07,
      "classificacao_etaria": "A14",
      "imagem_original": "https://animefire.plus/img/animes/hikaru-no-go.webp",
      "imagem_pasta": "https://animefire.plus/img/animes/hikaru-no-go/",
      "secao": "dublados",
      "pagina": 3,
      "total_episodios": 10,
      "link_video": "https://animefire.plus/video/hikaru-no-go-dublado"
    },
    {
      "id": 1481,
      "nome": "Hikikomari Kyuuketsuki no Monmon",
      "link": "https://animefire.plus/animes/hikikomari-kyuuketsuki-no-monmon-todos-os-episodios",
      "texto_original": "Hikikomari Kyuuketsuki no Monmon",
      "rating": 7.14,
      "classificacao_etaria": "A14",
      "imagem_original": "https://animefire.plus/img/animes/hikikomari-kyuuketsuki-no-monmon.webp",
      "imagem_pasta": "https://animefire.plus/img/animes/hikikomari-kyuuketsuki-no-monmon/",
      "secao": "legendados",
      "pagina": 20,
      "total_episodios": 12,
      "link_video": "https://animefire.plus/video/hikikomari-kyuuketsuki-no-monmon"
    },
    {
      "id": 1482,
      "nome": "Himawari!",
      "link": "https://animefire.plus/animes/himawari-todos-os-episodios",
      "texto_original": "Himawari!",
      "rating": 6.39,
      "classificacao_etaria": "A14",
      "imagem_original": "https://animefire.plus/img/animes/himawari.webp",
      "imagem_pasta": "https://animefire.plus/img/animes/himawari/",
      "secao": "legendados",
      "pagina": 108,
      "total_episodios": 13,
      "link_video": "https://animefire.plus/video/himawari"
    },
    {
      "id": 1483,
      "nome": "Himegoto",
      "link": "https://animefire.plus/animes/himegoto-todos-os-episodios",
      "texto_original": "Himegoto",
      "rating": 6.03,
      "classificacao_etaria": "A14",
      "imagem_original": "https://animefire.plus/img/animes/himegoto.webp",
      "imagem_pasta": "https://animefire.plus/img/animes/himegoto/",
      "secao": "legendados",
      "pagina": 137,
      "total_episodios": 10,
      "link_video": "https://animefire.plus/video/himegoto"
    },
    {
      "id": 1484,
      "nome": "Himesama \"Goumon\" no Jikan desu",
      "link": "https://animefire.plus/animes/himesama-goumon-no-jikan-desu-todos-os-episodios",
      "texto_original": "Himesama \"Goumon\" no Jikan desu",
      "rating": 7.23,
      "classificacao_etaria": "A14",
      "imagem_original": "https://animefire.plus/img/animes/himesama-goumon-no-jikan-desu.webp",
      "imagem_pasta": "https://animefire.plus/img/animes/himesama-goumon-no-jikan-desu/",
      "secao": "legendados",
      "pagina": 17,
      "total_episodios": 12,
      "link_video": "https://animefire.plus/video/himesama-goumon-no-jikan-desu"
    },
    {
      "id": 1485,
      "nome": "Himiko-Den",
      "link": "https://animefire.plus/animes/himiko-den-todos-os-episodios",
      "texto_original": "Himiko-Den",
      "rating": 6.31,
      "classificacao_etaria": "A14",
      "imagem_original": "https://animefire.plus/img/animes/himiko-den.webp",
      "imagem_pasta": "https://animefire.plus/img/animes/himiko-den/",
      "secao": "legendados",
      "pagina": 96,
      "total_episodios": 12,
      "link_video": "https://animefire.plus/video/himiko-den"
    },
    {
      "id": 1488,
      "nome": "Himote House",
      "link": "https://animefire.plus/animes/himote-house-todos-os-episodios",
      "texto_original": "Himote House",
      "rating": 5.8,
      "classificacao_etaria": "A14",
      "imagem_original": "https://animefire.plus/img/animes/himote-house.webp",
      "imagem_pasta": "https://animefire.plus/img/animes/himote-house/",
      "secao": "legendados",
      "pagina": 115,
      "total_episodios": 12,
      "link_video": "https://animefire.plus/video/himote-house"
    },
    {
      "id": 1489,
      "nome": "Himouto! Umaru-chan",
      "link": "https://animefire.plus/animes/himouto-umaru-chan-todos-os-episodios",
      "texto_original": "Himouto! Umaru-chan",
      "rating": 7.34,
      "classificacao_etaria": "A14",
      "imagem_original": "https://animefire.plus/img/animes/himouto-umaru-chan.webp",
      "imagem_pasta": "https://animefire.plus/img/animes/himouto-umaru-chan/",
      "secao": "legendados",
      "pagina": 163,
      "total_episodios": 0,
      "link_video": "https://animefire.plus/video/himouto-umaru-chan"
    },
    {
      "id": 1490,
      "nome": "Himouto! Umaru-chan R",
      "link": "https://animefire.plus/animes/himouto-umaru-chan-r-todos-os-episodios",
      "texto_original": "Himouto! Umaru-chan R",
      "rating": 7.47,
      "classificacao_etaria": "A14",
      "imagem_original": "https://animefire.plus/img/animes/himouto-umaru-chan-r.webp",
      "imagem_pasta": "https://animefire.plus/img/animes/himouto-umaru-chan-r/",
      "secao": "legendados",
      "pagina": 111,
      "total_episodios": 12,
      "link_video": "https://animefire.plus/video/himouto-umaru-chan-r"
    },
    {
      "id": 1491,
      "nome": "Hina Logi: From Luck & Logic",
      "link": "https://animefire.plus/animes/hina-logi-from-luck-logic-todos-os-episodios",
      "texto_original": "Hina Logi: From Luck & Logic",
      "rating": 6.7,
      "classificacao_etaria": "A14",
      "imagem_original": "https://animefire.plus/img/animes/hina-logi-from-luck-logic.webp",
      "imagem_pasta": "https://animefire.plus/img/animes/hina-logi-from-luck-logic/",
      "secao": "legendados",
      "pagina": 59,
      "total_episodios": 12,
      "link_video": "https://animefire.plus/video/hina-logi-from-luck-logic"
    },
    {
      "id": 1492,
      "nome": "Hinako Note",
      "link": "https://animefire.plus/animes/hinako-note-todos-os-episodios",
      "texto_original": "Hinako Note",
      "rating": 6.82,
      "classificacao_etaria": "A14",
      "imagem_original": "https://animefire.plus/img/animes/hinako-note.webp",
      "imagem_pasta": "https://animefire.plus/img/animes/hinako-note/",
      "secao": "legendados",
      "pagina": 104,
      "total_episodios": 12,
      "link_video": "https://animefire.plus/video/hinako-note"
    },
    {
      "id": 1493,
      "nome": "Hinamatsuri",
      "link": "https://animefire.plus/animes/hinamatsuri-todos-os-episodios",
      "texto_original": "Hinamatsuri",
      "rating": 8.31,
      "classificacao_etaria": "A14",
      "imagem_original": "https://animefire.plus/img/animes/hinamatsuri.webp",
      "imagem_pasta": "https://animefire.plus/img/animes/hinamatsuri/",
      "secao": "legendados",
      "pagina": 143,
      "total_episodios": 13,
      "link_video": "https://animefire.plus/video/hinamatsuri"
    },
    {
      "id": 1495,
      "nome": "Hinomaruzumou",
      "link": "https://animefire.plus/animes/hinomaruzumou-todos-os-episodios",
      "texto_original": "Hinomaruzumou",
      "rating": 7.73,
      "classificacao_etaria": "A14",
      "imagem_original": "https://animefire.plus/img/animes/hinomaruzumou.webp",
      "imagem_pasta": "https://animefire.plus/img/animes/hinomaruzumou/",
      "secao": "legendados",
      "pagina": 132,
      "total_episodios": 19,
      "link_video": "https://animefire.plus/video/hinomaruzumou"
    }
  ],
  "pagination": {
    "current_page": 48,
    "per_page": 20,
    "total_items": 2988,
    "total_pages": 150,
    "has_next": true,
    "has_prev": true
  }
}
