{
  "message": "Animes com classificação etária: A14",
  "age_rating": "A14",
  "data": [
    {
      "id": 59,
      "nome": "Accel World",
      "link": "https://animefire.plus/animes/accel-world-todos-os-episodios",
      "texto_original": "Accel World",
      "rating": 7.47,
      "classificacao_etaria": "A14",
      "imagem_original": "https://animefire.plus/img/animes/accel-world.webp",
      "imagem_pasta": "https://animefire.plus/img/animes/accel-world/",
      "secao": "legendados",
      "pagina": 164,
      "total_episodios": 0,
      "link_video": "https://animefire.plus/video/accel-world"
    },
    {
      "id": 60,
      "nome": "Acchi Kocchi (TV)",
      "link": "https://animefire.plus/animes/acchi-kocchi-tv-todos-os-episodios",
      "texto_original": "Acchi Kocchi (TV)",
      "rating": 7.59,
      "classificacao_etaria": "A14",
      "imagem_original": "https://animefire.plus/img/animes/acchi-kocchi-tv.webp",
      "imagem_pasta": "https://animefire.plus/img/animes/acchi-kocchi-tv/",
      "secao": "legendados",
      "pagina": 154,
      "total_episodios": 0,
      "link_video": "https://animefire.plus/video/acchi-kocchi-tv"
    },
    {
      "id": 61,
      "nome": "Ace wo Nerae!",
      "link": "https://animefire.plus/animes/ace-wo-nerae-todos-os-episodios",
      "texto_original": "Ace wo Nerae!",
      "rating": 7.01,
      "classificacao_etaria": "A14",
      "imagem_original": "https://animefire.plus/img/animes/ace-wo-nerae.webp",
      "imagem_pasta": "https://animefire.plus/img/animes/ace-wo-nerae/",
      "secao": "legendados",
      "pagina": 72,
      "total_episodios": 26,
      "link_video": "https://animefire.plus/video/ace-wo-nerae"
    },
    {
      "id": 62,
      "nome": "Ace wo Nerae! 2",
      "link": "https://animefire.plus/animes/ace-wo-nerae-2-todos-os-episodios",
      "texto_original": "Ace wo Nerae! 2",
      "rating": 6.82,
      "classificacao_etaria": "A14",
      "imagem_original": "https://animefire.plus/img/animes/ace-wo-nerae-2.webp",
      "imagem_pasta": "https://animefire.plus/img/animes/ace-wo-nerae-2/",
      "secao": "legendados",
      "pagina": 55,
      "total_episodios": 13,
      "link_video": "https://animefire.plus/video/ace-wo-nerae-2"
    },
    {
      "id": 63,
      "nome": "Acro Trip",
      "link": "https://animefire.plus/animes/acro-trip-todos-os-episodios",
      "texto_original": "Acro Trip",
      "rating": 6.72,
      "classificacao_etaria": "A14",
      "imagem_original": "https://animefire.plus/img/animes/acro-trip.webp",
      "imagem_pasta": "https://animefire.plus/img/animes/acro-trip/",
      "secao": "legendados",
      "pagina": 9,
      "total_episodios": 12,
      "link_video": "https://animefire.plus/video/acro-trip"
    },
    {
      "id": 64,
      "nome": "Action Heroine Cheer Fruits",
      "link": "https://animefire.plus/animes/action-heroine-cheer-fruits-todos-os-episodios",
      "texto_original": "Action Heroine Cheer Fruits",
      "rating": 6.57,
      "classificacao_etaria": "A14",
      "imagem_original": "https://animefire.plus/img/animes/action-heroine-cheer-fruits.webp",
      "imagem_pasta": "https://animefire.plus/img/animes/action-heroine-cheer-fruits/",
      "secao": "legendados",
      "pagina": 149,
      "total_episodios": 12,
      "link_video": "https://animefire.plus/video/action-heroine-cheer-fruits"
    },
    {
      "id": 65,
      "nome": "Actors: Songs Connection",
      "link": "https://animefire.plus/animes/actors-songs-connection-todos-os-episodios",
      "texto_original": "Actors: Songs Connection",
      "rating": 6.23,
      "classificacao_etaria": "A14",
      "imagem_original": "https://animefire.plus/img/animes/actors-songs-connection.webp",
      "imagem_pasta": "https://animefire.plus/img/animes/actors-songs-connection/",
      "secao": "legendados",
      "pagina": 109,
      "total_episodios": 6,
      "link_video": "https://animefire.plus/video/actors-songs-connection"
    },
    {
      "id": 66,
      "nome": "Adachi to Shimamura (Dublado)",
      "link": "https://animefire.plus/animes/adachi-to-shimamura-dublado-todos-os-episodios",
      "texto_original": "Adachi to Shimamura (Dublado)",
      "rating": 7.13,
      "classificacao_etaria": "A14",
      "imagem_original": "https://animefire.plus/img/animes/adachi-to-shimamura.webp",
      "imagem_pasta": "https://animefire.plus/img/animes/adachi-to-shimamura/",
      "secao": "dublados,legendados",
      "pagina": 15,
      "total_episodios": 12,
      "link_video": "https://animefire.plus/video/adachi-to-shimamura-dublado"
    },
    {
      "id": 67,
      "nome": "Adesugata Mahou no Sannin Musume",
      "link": "https://animefire.plus/animes/adesugata-mahou-no-sannin-musume-todos-os-episodios",
      "texto_original": "Adesugata Mahou no Sannin Musume",
      "rating": 5.43,
      "classificacao_etaria": "A14",
      "imagem_original": "https://animefire.plus/img/animes/adesugata-mahou-no-sannin-musume.webp",
      "imagem_pasta": "https://animefire.plus/img/animes/adesugata-mahou-no-sannin-musume/",
      "secao": "legendados",
      "pagina": 83,
      "total_episodios": 1,
      "link_video": "https://animefire.plus/video/adesugata-mahou-no-sannin-musume"
    },
    {
      "id": 68,
      "nome": "Africa no Salaryman (TV)",
      "link": "https://animefire.plus/animes/africa-no-salaryman-tv-todos-os-episodios",
      "texto_original": "Africa no Salaryman (TV)",
      "rating": 6.52,
      "classificacao_etaria": "A14",
      "imagem_original": "https://animefire.plus/img/animes/africa-no-salaryman-tv.webp",
      "imagem_pasta": "https://animefire.plus/img/animes/africa-no-salaryman-tv/",
      "secao": "legendados",
      "pagina": 109,
      "total_episodios": 12,
      "link_video": "https://animefire.plus/video/africa-no-salaryman-tv"
    },
    {
      "id": 70,
      "nome": "After War Gundam X",
      "link": "https://animefire.plus/animes/after-war-gundam-x-todos-os-episodios",
      "texto_original": "After War Gundam X",
      "rating": 7.37,
      "classificacao_etaria": "A14",
      "imagem_original": "https://animefire.plus/img/animes/after-war-gundam-x.webp",
      "imagem_pasta": "https://animefire.plus/img/animes/after-war-gundam-x/",
      "secao": "legendados",
      "pagina": 168,
      "total_episodios": 39,
      "link_video": "https://animefire.plus/video/after-war-gundam-x"
    },
    {
      "id": 72,
      "nome": "Aggressive Retsuko (ONA) (Dublado)",
      "link": "https://animefire.plus/animes/aggressive-retsuko-ona-dublado-todos-os-episodios",
      "texto_original": "Aggressive Retsuko (ONA) (Dublado)",
      "rating": 7.77,
      "classificacao_etaria": "A14",
      "imagem_original": "https://animefire.plus/img/animes/aggressive-retsuko-ona.webp",
      "imagem_pasta": "https://animefire.plus/img/animes/aggressive-retsuko-ona/",
      "secao": "dublados,legendados",
      "pagina": 24,
      "total_episodios": 10,
      "link_video": "https://animefire.plus/video/aggressive-retsuko-ona-dublado"
    },
    {
      "id": 73,
      "nome": "Aggressive Retsuko (ONA) 2nd Season (Dublado)",
      "link": "https://animefire.plus/animes/aggressive-retsuko-ona-2nd-season-dublado-todos-os-episodios",
      "texto_original": "Aggressive Retsuko (ONA) 2nd Season (Dublado)",
      "rating": 7.8,
      "classificacao_etaria": "A14",
      "imagem_original": "https://animefire.plus/img/animes/aggressive-retsuko-ona-2nd-season.webp",
      "imagem_pasta": "https://animefire.plus/img/animes/aggressive-retsuko-ona-2nd-season/",
      "secao": "dublados,legendados",
      "pagina": 20,
      "total_episodios": 10,
      "link_video": "https://animefire.plus/video/aggressive-retsuko-ona-2nd-season-dublado"
    },
    {
      "id": 74,
      "nome": "Aggressive Retsuko: We Wish You a Metal Christmas (Dublado)",
      "link": "https://animefire.plus/animes/aggressive-retsuko-we-wish-you-a-metal-christmas-dublado-todos-os-episodios",
      "texto_original": "Aggressive Retsuko: We Wish You a Metal Christmas (Dublado)",
      "rating": 7.33,
      "classificacao_etaria": "A14",
      "imagem_original": "https://animefire.plus/img/animes/aggressive-retsuko-we-wish-you-a-metal-christmas.webp",
      "imagem_pasta": "https://animefire.plus/img/animes/aggressive-retsuko-we-wish-you-a-metal-christmas/",
      "secao": "dublados,legendados",
      "pagina": 24,
      "total_episodios": 1,
      "link_video": "https://animefire.plus/video/aggressive-retsuko-we-wish-you-a-metal-christmas-dublado"
    },
    {
      "id": 75,
      "nome": "Aguu: Tensai Ningyou",
      "link": "https://animefire.plus/animes/aguu-tensai-ningyou-todos-os-episodios",
      "texto_original": "Aguu: Tensai Ningyou",
      "rating": 5.64,
      "classificacao_etaria": "A14",
      "imagem_original": "https://animefire.plus/img/animes/aguu-tensai-ningyou.webp",
      "imagem_pasta": "https://animefire.plus/img/animes/aguu-tensai-ningyou/",
      "secao": "legendados",
      "pagina": 155,
      "total_episodios": 8,
      "link_video": "https://animefire.plus/video/aguu-tensai-ningyou"
    },
    {
      "id": 76,
      "nome": "Aharen-san wa Hakarenai",
      "link": "https://animefire.plus/animes/aharen-san-wa-hakarenai-todos-os-episodios",
      "texto_original": "Aharen-san wa Hakarenai",
      "rating": 7.28,
      "classificacao_etaria": "A14",
      "imagem_original": "https://animefire.plus/img/animes/aharen-san-wa-hakarenai.webp",
      "imagem_pasta": "https://animefire.plus/img/animes/aharen-san-wa-hakarenai/",
      "secao": "legendados",
      "pagina": 34,
      "total_episodios": 12,
      "link_video": "https://animefire.plus/video/aharen-san-wa-hakarenai"
    },
    {
      "id": 77,
      "nome": "Aharen-san wa Hakarenai Season 2",
      "link": "https://animefire.plus/animes/aharen-san-wa-hakarenai-season-2-todos-os-episodios",
      "texto_original": "Aharen-san wa Hakarenai Season 2",
      "rating": 7.49,
      "classificacao_etaria": "A14",
      "imagem_original": "https://animefire.plus/img/animes/aharen-san-wa-hakarenai-season-2.webp",
      "imagem_pasta": "https://animefire.plus/img/animes/aharen-san-wa-hakarenai-season-2/",
      "secao": "legendados",
      "pagina": 6,
      "total_episodios": 12,
      "link_video": "https://animefire.plus/video/aharen-san-wa-hakarenai-season-2"
    },
    {
      "id": 78,
      "nome": "Ahiru no Sora",
      "link": "https://animefire.plus/animes/ahiru-no-sora-todos-os-episodios",
      "texto_original": "Ahiru no Sora",
      "rating": 7.36,
      "classificacao_etaria": "A14",
      "imagem_original": "https://animefire.plus/img/animes/ahiru-no-sora.webp",
      "imagem_pasta": "https://animefire.plus/img/animes/ahiru-no-sora/",
      "secao": "legendados",
      "pagina": 111,
      "total_episodios": 15,
      "link_video": "https://animefire.plus/video/ahiru-no-sora"
    },
    {
      "id": 79,
      "nome": "Aho Girl",
      "link": "https://animefire.plus/animes/aho-girl-todos-os-episodios",
      "texto_original": "Aho Girl",
      "rating": 7.14,
      "classificacao_etaria": "A14",
      "imagem_original": "https://animefire.plus/img/animes/aho-girl.webp",
      "imagem_pasta": "https://animefire.plus/img/animes/aho-girl/",
      "secao": "legendados",
      "pagina": 167,
      "total_episodios": 12,
      "link_video": "https://animefire.plus/video/aho-girl"
    },
    {
      "id": 80,
      "nome": "Ai Mai! Moe Can Change!",
      "link": "https://animefire.plus/animes/ai-mai-moe-can-change-todos-os-episodios",
      "texto_original": "Ai Mai! Moe Can Change!",
      "rating": 5.58,
      "classificacao_etaria": "A14",
      "imagem_original": "https://animefire.plus/img/animes/ai-mai-moe-can-change.webp",
      "imagem_pasta": "https://animefire.plus/img/animes/ai-mai-moe-can-change/",
      "secao": "legendados",
      "pagina": 65,
      "total_episodios": 1,
      "link_video": "https://animefire.plus/video/ai-mai-moe-can-change"
    }
  ],
  "pagination": {
    "current_page": 3,
    "per_page": 20,
    "total_items": 2988,
    "total_pages": 150,
    "has_next": true,
    "has_prev": true
  }
}
