{
  "message": "Animes com classificação etária: A14",
  "age_rating": "A14",
  "data": [
    {
      "id": 448,
      "nome": "Boku no Hero Academia (Dublado)",
      "link": "https://animefire.plus/animes/boku-no-hero-academia-dublado-todos-os-episodios",
      "texto_original": "Boku no Hero Academia (Dublado)",
      "rating": 8.16,
      "classificacao_etaria": "A14",
      "imagem_original": "https://animefire.plus/img/animes/boku-no-hero-academia.webp",
      "imagem_pasta": "https://animefire.plus/img/animes/boku-no-hero-academia/",
      "secao": "dublados,legendados",
      "pagina": 20,
      "total_episodios": 13,
      "link_video": "https://animefire.plus/video/boku-no-hero-academia-dublado"
    },
    {
      "id": 449,
      "nome": "Boku no Hero Academia 2nd Season",
      "link": "https://animefire.plus/animes/boku-no-hero-academia-2nd-season-todos-os-episodios",
      "texto_original": "Boku no Hero Academia 2nd Season",
      "rating": 8.65,
      "classificacao_etaria": "A14",
      "imagem_original": "https://animefire.plus/img/animes/boku-no-hero-academia-2nd-season.webp",
      "imagem_pasta": "https://animefire.plus/img/animes/boku-no-hero-academia-2nd-season/",
      "secao": "legendados",
      "pagina": 137,
      "total_episodios": 0,
      "link_video": "https://animefire.plus/video/boku-no-hero-academia-2nd-season"
    },
    {
      "id": 450,
      "nome": "Boku no Hero Academia 2nd Season (Dublado)",
      "link": "https://animefire.plus/animes/boku-no-hero-academia-2-dublado-todos-os-episodios",
      "texto_original": "Boku no Hero Academia 2nd Season (Dublado)",
      "rating": 8.39,
      "classificacao_etaria": "A14",
      "imagem_original": "https://animefire.plus/img/animes/boku-no-hero-academia-2.webp",
      "imagem_pasta": "https://animefire.plus/img/animes/boku-no-hero-academia-2/",
      "secao": "dublados",
      "pagina": 19,
      "total_episodios": 25,
      "link_video": "https://animefire.plus/video/boku-no-hero-academia-2-dublado"
    },
    {
      "id": 451,
      "nome": "Boku no Hero Academia 3rd Season",
      "link": "https://animefire.plus/animes/boku-no-hero-academia-3rd-season-todos-os-episodios",
      "texto_original": "Boku no Hero Academia 3rd Season",
      "rating": 8.62,
      "classificacao_etaria": "A14",
      "imagem_original": "https://animefire.plus/img/animes/boku-no-hero-academia-3rd-season.webp",
      "imagem_pasta": "https://animefire.plus/img/animes/boku-no-hero-academia-3rd-season/",
      "secao": "legendados",
      "pagina": 122,
      "total_episodios": 0,
      "link_video": "https://animefire.plus/video/boku-no-hero-academia-3rd-season"
    },
    {
      "id": 452,
      "nome": "Boku no Hero Academia 3rd Season (Dublado)",
      "link": "https://animefire.plus/animes/boku-no-hero-academia-3-dublado-todos-os-episodios",
      "texto_original": "Boku no Hero Academia 3rd Season (Dublado)",
      "rating": 8.31,
      "classificacao_etaria": "A14",
      "imagem_original": "https://animefire.plus/img/animes/boku-no-hero-academia-3.webp",
      "imagem_pasta": "https://animefire.plus/img/animes/boku-no-hero-academia-3/",
      "secao": "dublados",
      "pagina": 19,
      "total_episodios": 25,
      "link_video": "https://animefire.plus/video/boku-no-hero-academia-3-dublado"
    },
    {
      "id": 453,
      "nome": "Boku no Hero Academia 4th Season",
      "link": "https://animefire.plus/animes/boku-no-hero-academia-4th-season-todos-os-episodios",
      "texto_original": "Boku no Hero Academia 4th Season",
      "rating": 8.06,
      "classificacao_etaria": "A14",
      "imagem_original": "https://animefire.plus/img/animes/boku-no-hero-academia-4th-season.webp",
      "imagem_pasta": "https://animefire.plus/img/animes/boku-no-hero-academia-4th-season/",
      "secao": "legendados",
      "pagina": 109,
      "total_episodios": 0,
      "link_video": "https://animefire.plus/video/boku-no-hero-academia-4th-season"
    },
    {
      "id": 454,
      "nome": "Boku no Hero Academia 4th Season (Dublado)",
      "link": "https://animefire.plus/animes/boku-no-hero-academia-4-dublado-todos-os-episodios",
      "texto_original": "Boku no Hero Academia 4th Season (Dublado)",
      "rating": 8.11,
      "classificacao_etaria": "A14",
      "imagem_original": "https://animefire.plus/img/animes/boku-no-hero-academia-4.webp",
      "imagem_pasta": "https://animefire.plus/img/animes/boku-no-hero-academia-4/",
      "secao": "dublados",
      "pagina": 19,
      "total_episodios": 25,
      "link_video": "https://animefire.plus/video/boku-no-hero-academia-4-dublado"
    },
    {
      "id": 455,
      "nome": "Boku no Hero Academia 5th Season",
      "link": "https://animefire.plus/animes/boku-no-hero-academia-5th-season-todos-os-episodios",
      "texto_original": "Boku no Hero Academia 5th Season",
      "rating": 7.35,
      "classificacao_etaria": "A14",
      "imagem_original": "https://animefire.plus/img/animes/boku-no-hero-academia-5th-season.webp",
      "imagem_pasta": "https://animefire.plus/img/animes/boku-no-hero-academia-5th-season/",
      "secao": "legendados",
      "pagina": 46,
      "total_episodios": 0,
      "link_video": "https://animefire.plus/video/boku-no-hero-academia-5th-season"
    },
    {
      "id": 456,
      "nome": "Boku no Hero Academia 5th Season (Dublado)",
      "link": "https://animefire.plus/animes/boku-no-hero-academia-5-dublado-todos-os-episodios",
      "texto_original": "Boku no Hero Academia 5th Season (Dublado)",
      "rating": 7.35,
      "classificacao_etaria": "A14",
      "imagem_original": "https://animefire.plus/img/animes/boku-no-hero-academia-5.webp",
      "imagem_pasta": "https://animefire.plus/img/animes/boku-no-hero-academia-5/",
      "secao": "dublados",
      "pagina": 18,
      "total_episodios": 1,
      "link_video": "https://animefire.plus/video/boku-no-hero-academia-5-dublado"
    },
    {
      "id": 457,
      "nome": "Boku no Hero Academia 6th Season (Dublado)",
      "link": "https://animefire.plus/animes/boku-no-hero-academia-6th-season-dublado-todos-os-episodios",
      "texto_original": "Boku no Hero Academia 6th Season (Dublado)",
      "rating": 8.23,
      "classificacao_etaria": "A14",
      "imagem_original": "https://animefire.plus/img/animes/boku-no-hero-academia-6th-season.webp",
      "imagem_pasta": "https://animefire.plus/img/animes/boku-no-hero-academia-6th-season/",
      "secao": "dublados,legendados,lancamentos",
      "pagina": 9,
      "total_episodios": 25,
      "link_video": "https://animefire.plus/video/boku-no-hero-academia-6th-season-dublado"
    },
    {
      "id": 458,
      "nome": "Boku no Hero Academia 7th Season",
      "link": "https://animefire.plus/animes/boku-no-hero-academia-7th-season-todos-os-episodios",
      "texto_original": "Boku no Hero Academia 7th Season",
      "rating": null,
      "classificacao_etaria": "A14",
      "imagem_original": "https://animefire.plus/img/animes/boku-no-hero-academia-7th-season.webp",
      "imagem_pasta": "https://animefire.plus/img/animes/boku-no-hero-academia-7th-season/",
      "secao": "legendados",
      "pagina": 19,
      "total_episodios": 21,
      "link_video": "https://animefire.plus/video/boku-no-hero-academia-7th-season"
    },
    {
      "id": 459,
      "nome": "Boku no Hero Academia: Ikinokore! Kesshi no Survival Kunren (Dublado)",
      "link": "https://animefire.plus/animes/boku-no-hero-academia-ikinokore-kesshi-no-survival-kunren-dublado-todos-os-episodios",
      "texto_original": "Boku no Hero Academia: Ikinokore! Kesshi no Survival Kunren (Dublado)",
      "rating": 7.1,
      "classificacao_etaria": "A14",
      "imagem_original": "https://animefire.plus/img/animes/boku-no-hero-academia-ikinokore-kesshi-no-survival-kunren.webp",
      "imagem_pasta": "https://animefire.plus/img/animes/boku-no-hero-academia-ikinokore-kesshi-no-survival-kunren/",
      "secao": "dublados,legendados",
      "pagina": 18,
      "total_episodios": 2,
      "link_video": "https://animefire.plus/video/boku-no-hero-academia-ikinokore-kesshi-no-survival-kunren-dublado"
    },
    {
      "id": 460,
      "nome": "Boku no Hero Academia: Memories (Dublado)",
      "link": "https://animefire.plus/animes/boku-no-hero-academia-memories-dublado-todos-os-episodios",
      "texto_original": "Boku no Hero Academia: Memories (Dublado)",
      "rating": 6.66,
      "classificacao_etaria": "A14",
      "imagem_original": "https://animefire.plus/img/animes/boku-no-hero-academia-memories.webp",
      "imagem_pasta": "https://animefire.plus/img/animes/boku-no-hero-academia-memories/",
      "secao": "dublados",
      "pagina": 2,
      "total_episodios": 0,
      "link_video": "https://animefire.plus/video/boku-no-hero-academia-memories-dublado"
    },
    {
      "id": 461,
      "nome": "Boku no Imouto wa \"Osaka Okan\"",
      "link": "https://animefire.plus/animes/boku-no-imouto-wa-osaka-okan-todos-os-episodios",
      "texto_original": "Boku no Imouto wa \"Osaka Okan\"",
      "rating": 5.85,
      "classificacao_etaria": "A14",
      "imagem_original": "https://animefire.plus/img/animes/boku-no-imouto-wa-osaka-okan.webp",
      "imagem_pasta": "https://animefire.plus/img/animes/boku-no-imouto-wa-osaka-okan/",
      "secao": "legendados",
      "pagina": 123,
      "total_episodios": 0,
      "link_video": "https://animefire.plus/video/boku-no-imouto-wa-osaka-okan"
    },
    {
      "id": 462,
      "nome": "Boku no Kanojo ga Majimesugiru Sho-bitch na Ken",
      "link": "https://animefire.plus/animes/boku-no-kanojo-ga-majimesugiru-sho-bitch-na-ken-todos-os-episodios",
      "texto_original": "Boku no Kanojo ga Majimesugiru Sho-bitch na Ken",
      "rating": 6.45,
      "classificacao_etaria": "A14",
      "imagem_original": "https://animefire.plus/img/animes/boku-no-kanojo-ga-majimesugiru-sho-bitch-na-ken.webp",
      "imagem_pasta": "https://animefire.plus/img/animes/boku-no-kanojo-ga-majimesugiru-sho-bitch-na-ken/",
      "secao": "legendados",
      "pagina": 141,
      "total_episodios": 10,
      "link_video": "https://animefire.plus/video/boku-no-kanojo-ga-majimesugiru-sho-bitch-na-ken"
    },
    {
      "id": 463,
      "nome": "Boku no Kokoro no Yabai Yatsu",
      "link": "https://animefire.plus/animes/boku-no-kokoro-no-yabai-yatsu-todos-os-episodios",
      "texto_original": "Boku no Kokoro no Yabai Yatsu",
      "rating": 8.22,
      "classificacao_etaria": "A14",
      "imagem_original": "https://animefire.plus/img/animes/boku-no-kokoro-no-yabai-yatsu.jpg",
      "imagem_pasta": "https://animefire.plus/img/animes/boku-no-kokoro-no-yabai-yatsu/",
      "secao": "legendados",
      "pagina": 25,
      "total_episodios": 12,
      "link_video": "https://animefire.plus/video/boku-no-kokoro-no-yabai-yatsu"
    },
    {
      "id": 464,
      "nome": "Boku no Kokoro no Yabai Yatsu Season 2",
      "link": "https://animefire.plus/animes/boku-no-kokoro-no-yabai-yatsu-season-2-todos-os-episodios",
      "texto_original": "Boku no Kokoro no Yabai Yatsu Season 2",
      "rating": 8.73,
      "classificacao_etaria": "A14",
      "imagem_original": "https://animefire.plus/img/animes/boku-no-kokoro-no-yabai-yatsu-season-2.webp",
      "imagem_pasta": "https://animefire.plus/img/animes/boku-no-kokoro-no-yabai-yatsu-season-2/",
      "secao": "legendados",
      "pagina": 17,
      "total_episodios": 13,
      "link_video": "https://animefire.plus/video/boku-no-kokoro-no-yabai-yatsu-season-2"
    },
    {
      "id": 465,
      "nome": "Boku no Tonari ni Ankoku Hakaishin ga Imasu.",
      "link": "https://animefire.plus/animes/boku-no-tonari-ni-ankoku-hakaishin-ga-imasu-todos-os-episodios",
      "texto_original": "Boku no Tonari ni Ankoku Hakaishin ga Imasu.",
      "rating": 6.64,
      "classificacao_etaria": "A14",
      "imagem_original": "https://animefire.plus/img/animes/boku-no-tonari-ni-ankoku-hakaishin-ga-imasu.webp",
      "imagem_pasta": "https://animefire.plus/img/animes/boku-no-tonari-ni-ankoku-hakaishin-ga-imasu/",
      "secao": "legendados",
      "pagina": 92,
      "total_episodios": 5,
      "link_video": "https://animefire.plus/video/boku-no-tonari-ni-ankoku-hakaishin-ga-imasu"
    },
    {
      "id": 466,
      "nome": "Boku no Tsuma wa Kanjou ga Nai",
      "link": "https://animefire.plus/animes/boku-no-tsuma-wa-kanjou-ga-nai-todos-os-episodios",
      "texto_original": "Boku no Tsuma wa Kanjou ga Nai",
      "rating": 6.75,
      "classificacao_etaria": "A14",
      "imagem_original": "https://animefire.plus/img/animes/boku-no-tsuma-wa-kanjou-ga-nai.webp",
      "imagem_pasta": "https://animefire.plus/img/animes/boku-no-tsuma-wa-kanjou-ga-nai/",
      "secao": "legendados",
      "pagina": 12,
      "total_episodios": 12,
      "link_video": "https://animefire.plus/video/boku-no-tsuma-wa-kanjou-ga-nai"
    },
    {
      "id": 467,
      "nome": "Boku to Roboko",
      "link": "https://animefire.plus/animes/boku-to-roboko-todos-os-episodios",
      "texto_original": "Boku to Roboko",
      "rating": 6.83,
      "classificacao_etaria": "A14",
      "imagem_original": "https://animefire.plus/img/animes/boku-to-roboko.webp",
      "imagem_pasta": "https://animefire.plus/img/animes/boku-to-roboko/",
      "secao": "legendados,lancamentos",
      "pagina": 26,
      "total_episodios": 1,
      "link_video": "https://animefire.plus/video/boku-to-roboko"
    }
  ],
  "pagination": {
    "current_page": 15,
    "per_page": 20,
    "total_items": 2988,
    "total_pages": 150,
    "has_next": true,
    "has_prev": true
  }
}
