{
  "message": "Animes com classificação etária: A14",
  "age_rating": "A14",
  "data": [
    {
      "id": 2196,
      "nome": "Kyuuketsuki Sugu Shinu (Dublado)",
      "link": "https://animefire.plus/animes/kyuuketsuki-sugu-shinu-dublado-todos-os-episodios",
      "texto_original": "Kyuuketsuki Sugu Shinu (Dublado)",
      "rating": 7.27,
      "classificacao_etaria": "A14",
      "imagem_original": "https://animefire.plus/img/animes/kyuuketsuki-sugu-shinu.webp",
      "imagem_pasta": "https://animefire.plus/img/animes/kyuuketsuki-sugu-shinu/",
      "secao": "dublados,legendados",
      "pagina": 14,
      "total_episodios": 12,
      "link_video": "https://animefire.plus/video/kyuuketsuki-sugu-shinu-dublado"
    },
    {
      "id": 2197,
      "nome": "Kyuuketsuki Sugu Shinu 2",
      "link": "https://animefire.plus/animes/kyuuketsuki-sugu-shinu-2-todos-os-episodios",
      "texto_original": "Kyuuketsuki Sugu Shinu 2",
      "rating": 7.45,
      "classificacao_etaria": "A14",
      "imagem_original": "https://animefire.plus/img/animes/kyuuketsuki-sugu-shinu-2.webp",
      "imagem_pasta": "https://animefire.plus/img/animes/kyuuketsuki-sugu-shinu-2/",
      "secao": "legendados",
      "pagina": 25,
      "total_episodios": 12,
      "link_video": "https://animefire.plus/video/kyuuketsuki-sugu-shinu-2"
    },
    {
      "id": 2198,
      "nome": "Kyuukyoku Shinka shita Full Dive RPG ga Genjitsu yori mo Kusoge Dattara (Dublado)",
      "link": "https://animefire.plus/animes/kyuukyoku-shinka-shita-full-dive-rpg-ga-genjitsu-yori-mo-kusoge-dattara-dublado-todos-os-episodios",
      "texto_original": "Kyuukyoku Shinka shita Full Dive RPG ga Genjitsu yori mo Kusoge Dattara (Dublado)",
      "rating": 6.47,
      "classificacao_etaria": "A14",
      "imagem_original": "https://animefire.plus/img/animes/kyuukyoku-shinka-shita-full-dive-rpg-ga-genjitsu-yori-mo-kusoge-dattara.webp",
      "imagem_pasta": "https://animefire.plus/img/animes/kyuukyoku-shinka-shita-full-dive-rpg-ga-genjitsu-yori-mo-kusoge-dattara/",
      "secao": "dublados,legendados",
      "pagina": 15,
      "total_episodios": 12,
      "link_video": "https://animefire.plus/video/kyuukyoku-shinka-shita-full-dive-rpg-ga-genjitsu-yori-mo-kusoge-dattara-dublado"
    },
    {
      "id": 2201,
      "nome": "Ladyspo",
      "link": "https://animefire.plus/animes/ladyspo-todos-os-episodios",
      "texto_original": "Ladyspo",
      "rating": 4.28,
      "classificacao_etaria": "A14",
      "imagem_original": "https://animefire.plus/img/animes/ladyspo.webp",
      "imagem_pasta": "https://animefire.plus/img/animes/ladyspo/",
      "secao": "legendados",
      "pagina": 87,
      "total_episodios": 12,
      "link_video": "https://animefire.plus/video/ladyspo"
    },
    {
      "id": 2202,
      "nome": "Lamune",
      "link": "https://animefire.plus/animes/lamune-todos-os-episodios",
      "texto_original": "Lamune",
      "rating": 6.89,
      "classificacao_etaria": "A14",
      "imagem_original": "https://animefire.plus/img/animes/lamune.webp",
      "imagem_pasta": "https://animefire.plus/img/animes/lamune/",
      "secao": "legendados",
      "pagina": 172,
      "total_episodios": 12,
      "link_video": "https://animefire.plus/video/lamune"
    },
    {
      "id": 2203,
      "nome": "Lan Mo De Hua",
      "link": "https://animefire.plus/animes/lan-mo-de-hua-todos-os-episodios",
      "texto_original": "Lan Mo De Hua",
      "rating": 6.74,
      "classificacao_etaria": "A14",
      "imagem_original": "https://animefire.plus/img/animes/lan-mo-de-hua.webp",
      "imagem_pasta": "https://animefire.plus/img/animes/lan-mo-de-hua/",
      "secao": "legendados",
      "pagina": 151,
      "total_episodios": 9,
      "link_video": "https://animefire.plus/video/lan-mo-de-hua"
    },
    {
      "id": 2204,
      "nome": "Lapis Re:LiGHTs",
      "link": "https://animefire.plus/animes/lapis-re-lights-todos-os-episodios",
      "texto_original": "Lapis Re:LiGHTs",
      "rating": null,
      "classificacao_etaria": "A14",
      "imagem_original": "https://animefire.plus/img/animes/lapis-re-lights.webp",
      "imagem_pasta": "https://animefire.plus/img/animes/lapis-re-lights/",
      "secao": "legendados",
      "pagina": 58,
      "total_episodios": 0,
      "link_video": "https://animefire.plus/video/lapis-re-lights"
    },
    {
      "id": 2205,
      "nome": "Last Exile",
      "link": "https://animefire.plus/animes/last-exile-todos-os-episodios",
      "texto_original": "Last Exile",
      "rating": 7.88,
      "classificacao_etaria": "A14",
      "imagem_original": "https://animefire.plus/img/animes/last-exile.webp",
      "imagem_pasta": "https://animefire.plus/img/animes/last-exile/",
      "secao": "legendados",
      "pagina": 124,
      "total_episodios": 26,
      "link_video": "https://animefire.plus/video/last-exile"
    },
    {
      "id": 2206,
      "nome": "Last Exile: Ginyoku no Fam",
      "link": "https://animefire.plus/animes/last-exile-ginyoku-no-fam-todos-os-episodios",
      "texto_original": "Last Exile: Ginyoku no Fam",
      "rating": 7.12,
      "classificacao_etaria": "A14",
      "imagem_original": "https://animefire.plus/img/animes/last-exile-ginyoku-no-fam.webp",
      "imagem_pasta": "https://animefire.plus/img/animes/last-exile-ginyoku-no-fam/",
      "secao": "legendados",
      "pagina": 132,
      "total_episodios": 21,
      "link_video": "https://animefire.plus/video/last-exile-ginyoku-no-fam"
    },
    {
      "id": 2207,
      "nome": "Last Period: Owarinaki Rasen no Monogatari",
      "link": "https://animefire.plus/animes/last-period-owarinaki-rasen-no-monogatari-todos-os-episodios",
      "texto_original": "Last Period: Owarinaki Rasen no Monogatari",
      "rating": 6.54,
      "classificacao_etaria": "A14",
      "imagem_original": "https://animefire.plus/img/animes/last-period-owarinaki-rasen-no-monogatari.webp",
      "imagem_pasta": "https://animefire.plus/img/animes/last-period-owarinaki-rasen-no-monogatari/",
      "secao": "legendados",
      "pagina": 137,
      "total_episodios": 12,
      "link_video": "https://animefire.plus/video/last-period-owarinaki-rasen-no-monogatari"
    },
    {
      "id": 2209,
      "nome": "Lazarus (Dublado)",
      "link": "https://animefire.plus/animes/lazarus-dublado-todos-os-episodios",
      "texto_original": "Lazarus (Dublado)",
      "rating": 7.56,
      "classificacao_etaria": "A14",
      "imagem_original": "https://animefire.plus/img/animes/lazarus.webp",
      "imagem_pasta": "https://animefire.plus/img/animes/lazarus/",
      "secao": "dublados,legendados,lancamentos",
      "pagina": 1,
      "total_episodios": 13,
      "link_video": "https://animefire.plus/video/lazarus-dublado"
    },
    {
      "id": 2211,
      "nome": "Leadale no Daichi nite (Dublado)",
      "link": "https://animefire.plus/animes/leadale-no-daichi-nite-dublado-todos-os-episodios",
      "texto_original": "Leadale no Daichi nite (Dublado)",
      "rating": 6.95,
      "classificacao_etaria": "A14",
      "imagem_original": "https://animefire.plus/img/animes/leadale-no-daichi-nite.webp",
      "imagem_pasta": "https://animefire.plus/img/animes/leadale-no-daichi-nite/",
      "secao": "dublados,legendados",
      "pagina": 12,
      "total_episodios": 12,
      "link_video": "https://animefire.plus/video/leadale-no-daichi-nite-dublado"
    },
    {
      "id": 2215,
      "nome": "Level 1 dakedo Unique Skill de Saikyou desu (Dublado)",
      "link": "https://animefire.plus/animes/level-1-dakedo-unique-skill-de-saikyou-desu-dublado-todos-os-episodios",
      "texto_original": "Level 1 dakedo Unique Skill de Saikyou desu (Dublado)",
      "rating": 6.21,
      "classificacao_etaria": "A14",
      "imagem_original": "https://animefire.plus/img/animes/level-1-dakedo-unique-skill-de-saikyou-desu.webp",
      "imagem_pasta": "https://animefire.plus/img/animes/level-1-dakedo-unique-skill-de-saikyou-desu/",
      "secao": "dublados,legendados",
      "pagina": 7,
      "total_episodios": 12,
      "link_video": "https://animefire.plus/video/level-1-dakedo-unique-skill-de-saikyou-desu-dublado"
    },
    {
      "id": 2217,
      "nome": "Levius (Dublado)",
      "link": "https://animefire.plus/animes/levius-dublado-todos-os-episodios",
      "texto_original": "Levius (Dublado)",
      "rating": 7.27,
      "classificacao_etaria": "A14",
      "imagem_original": "https://animefire.plus/img/animes/levius.webp",
      "imagem_pasta": "https://animefire.plus/img/animes/levius/",
      "secao": "dublados,legendados",
      "pagina": 25,
      "total_episodios": 12,
      "link_video": "https://animefire.plus/video/levius-dublado"
    },
    {
      "id": 2218,
      "nome": "Li Shi Zhentan Shiwusuo: A Day in Lungmen",
      "link": "https://animefire.plus/animes/li-shi-zhentan-shiwusuo-a-day-in-lungmen-todos-os-episodios",
      "texto_original": "Li Shi Zhentan Shiwusuo: A Day in Lungmen",
      "rating": 6.53,
      "classificacao_etaria": "A14",
      "imagem_original": "https://animefire.plus/img/animes/li-shi-zhentan-shiwusuo-a-day-in-lungmen.webp",
      "imagem_pasta": "https://animefire.plus/img/animes/li-shi-zhentan-shiwusuo-a-day-in-lungmen/",
      "secao": "legendados",
      "pagina": 26,
      "total_episodios": 6,
      "link_video": "https://animefire.plus/video/li-shi-zhentan-shiwusuo-a-day-in-lungmen"
    },
    {
      "id": 2219,
      "nome": "Liar Liar",
      "link": "https://animefire.plus/animes/liar-liar-todos-os-episodios",
      "texto_original": "Liar Liar",
      "rating": 6.32,
      "classificacao_etaria": "A14",
      "imagem_original": "https://animefire.plus/img/animes/liar-liar.jpg",
      "imagem_pasta": "https://animefire.plus/img/animes/liar-liar/",
      "secao": "legendados,lancamentos",
      "pagina": 23,
      "total_episodios": 11,
      "link_video": "https://animefire.plus/video/liar-liar"
    },
    {
      "id": 2220,
      "nome": "Lie Huo Jiao Chou",
      "link": "https://animefire.plus/animes/lie-huo-jiao-chou-todos-os-episodios",
      "texto_original": "Lie Huo Jiao Chou",
      "rating": 7.28,
      "classificacao_etaria": "A14",
      "imagem_original": "https://animefire.plus/img/animes/lie-huo-jiao-chou.webp",
      "imagem_pasta": "https://animefire.plus/img/animes/lie-huo-jiao-chou/",
      "secao": "legendados",
      "pagina": 37,
      "total_episodios": 12,
      "link_video": "https://animefire.plus/video/lie-huo-jiao-chou"
    },
    {
      "id": 2221,
      "nome": "Ling Jian Zun",
      "link": "https://animefire.plus/animes/ling-jian-zun-todos-os-episodios",
      "texto_original": "Ling Jian Zun",
      "rating": 6.89,
      "classificacao_etaria": "A14",
      "imagem_original": "https://animefire.plus/img/animes/ling-jian-zun.webp",
      "imagem_pasta": "https://animefire.plus/img/animes/ling-jian-zun/",
      "secao": "legendados",
      "pagina": 80,
      "total_episodios": 30,
      "link_video": "https://animefire.plus/video/ling-jian-zun"
    },
    {
      "id": 2222,
      "nome": "Ling Qi",
      "link": "https://animefire.plus/animes/ling-qi-todos-os-episodios",
      "texto_original": "Ling Qi",
      "rating": 7.21,
      "classificacao_etaria": "A14",
      "imagem_original": "https://animefire.plus/img/animes/ling-qi.webp",
      "imagem_pasta": "https://animefire.plus/img/animes/ling-qi/",
      "secao": "legendados",
      "pagina": 176,
      "total_episodios": 10,
      "link_video": "https://animefire.plus/video/ling-qi"
    },
    {
      "id": 2223,
      "nome": "Ling Qi 2",
      "link": "https://animefire.plus/animes/ling-qi-2-todos-os-episodios",
      "texto_original": "Ling Qi 2",
      "rating": 7.62,
      "classificacao_etaria": "A14",
      "imagem_original": "https://animefire.plus/img/animes/ling-qi-2.webp",
      "imagem_pasta": "https://animefire.plus/img/animes/ling-qi-2/",
      "secao": "legendados",
      "pagina": 151,
      "total_episodios": 12,
      "link_video": "https://animefire.plus/video/ling-qi-2"
    }
  ],
  "pagination": {
    "current_page": 72,
    "per_page": 20,
    "total_items": 2988,
    "total_pages": 150,
    "has_next": true,
    "has_prev": true
  }
}
