{
  "message": "Animes com classificação etária: A14",
  "age_rating": "A14",
  "data": [
    {
      "id": 2761,
      "nome": "Nobunaga No Shinobi",
      "link": "https://animefire.plus/animes/nobunaga-no-shinobi-todos-os-episodios",
      "texto_original": "Nobunaga No Shinobi",
      "rating": 7.09,
      "classificacao_etaria": "A14",
      "imagem_original": "https://animefire.plus/img/animes/nobunaga-no-shinobi.webp",
      "imagem_pasta": "https://animefire.plus/img/animes/nobunaga-no-shinobi/",
      "secao": "legendados",
      "pagina": 59,
      "total_episodios": 59,
      "link_video": "https://animefire.plus/video/nobunaga-no-shinobi"
    },
    {
      "id": 2762,
      "nome": "Nobunaga no Shinobi: Anegawa Ishiyama-hen",
      "link": "https://animefire.plus/animes/nobunaga-no-shinobi-anegawa-ishiyama-hen-todos-os-episodios",
      "texto_original": "Nobunaga no Shinobi: Anegawa Ishiyama-hen",
      "rating": 7.05,
      "classificacao_etaria": "A14",
      "imagem_original": "https://animefire.plus/img/animes/nobunaga-no-shinobi-anegawa-ishiyama-hen.webp",
      "imagem_pasta": "https://animefire.plus/img/animes/nobunaga-no-shinobi-anegawa-ishiyama-hen/",
      "secao": "legendados",
      "pagina": 124,
      "total_episodios": 20,
      "link_video": "https://animefire.plus/video/nobunaga-no-shinobi-anegawa-ishiyama-hen"
    },
    {
      "id": 2766,
      "nome": "Nodame Cantabile (Dublado)",
      "link": "https://animefire.plus/animes/nodame-cantabile-dublado-todos-os-episodios",
      "texto_original": "Nodame Cantabile (Dublado)",
      "rating": 8.38,
      "classificacao_etaria": "A14",
      "imagem_original": "https://animefire.plus/img/animes/nodame-cantabile.webp",
      "imagem_pasta": "https://animefire.plus/img/animes/nodame-cantabile/",
      "secao": "dublados,legendados",
      "pagina": 27,
      "total_episodios": 22,
      "link_video": "https://animefire.plus/video/nodame-cantabile-dublado"
    },
    {
      "id": 2767,
      "nome": "Nodame Cantabile: Finale",
      "link": "https://animefire.plus/animes/nodame-cantabile-finale-todos-os-episodios",
      "texto_original": "Nodame Cantabile: Finale",
      "rating": 8.32,
      "classificacao_etaria": "A14",
      "imagem_original": "https://animefire.plus/img/animes/nodame-cantabile-finale.webp",
      "imagem_pasta": "https://animefire.plus/img/animes/nodame-cantabile-finale/",
      "secao": "legendados",
      "pagina": 177,
      "total_episodios": 11,
      "link_video": "https://animefire.plus/video/nodame-cantabile-finale"
    },
    {
      "id": 2768,
      "nome": "Nodame Cantabile: Paris-hen",
      "link": "https://animefire.plus/animes/nodame-cantabile-paris-hen-todos-os-episodios",
      "texto_original": "Nodame Cantabile: Paris-hen",
      "rating": 8.21,
      "classificacao_etaria": "A14",
      "imagem_original": "https://animefire.plus/img/animes/nodame-cantabile-paris-hen.webp",
      "imagem_pasta": "https://animefire.plus/img/animes/nodame-cantabile-paris-hen/",
      "secao": "legendados",
      "pagina": 132,
      "total_episodios": 11,
      "link_video": "https://animefire.plus/video/nodame-cantabile-paris-hen"
    },
    {
      "id": 2769,
      "nome": "Noein: Mou Hitori no Kimi e",
      "link": "https://animefire.plus/animes/noein-mou-hitori-no-kimi-e-todos-os-episodios",
      "texto_original": "Noein: Mou Hitori no Kimi e",
      "rating": 7.68,
      "classificacao_etaria": "A14",
      "imagem_original": "https://animefire.plus/img/animes/noein-mou-hitori-no-kimi-e.webp",
      "imagem_pasta": "https://animefire.plus/img/animes/noein-mou-hitori-no-kimi-e/",
      "secao": "legendados",
      "pagina": 173,
      "total_episodios": 24,
      "link_video": "https://animefire.plus/video/noein-mou-hitori-no-kimi-e"
    },
    {
      "id": 2770,
      "nome": "Nogizaka Haruka no Himitsu",
      "link": "https://animefire.plus/animes/nogizaka-haruka-no-himitsu-todos-os-episodios",
      "texto_original": "Nogizaka Haruka no Himitsu",
      "rating": 7.3,
      "classificacao_etaria": "A14",
      "imagem_original": "https://animefire.plus/img/animes/nogizaka-haruka-no-himitsu.webp",
      "imagem_pasta": "https://animefire.plus/img/animes/nogizaka-haruka-no-himitsu/",
      "secao": "legendados",
      "pagina": 168,
      "total_episodios": 12,
      "link_video": "https://animefire.plus/video/nogizaka-haruka-no-himitsu"
    },
    {
      "id": 2771,
      "nome": "Nogizaka Haruka no Himitsu: Purezza",
      "link": "https://animefire.plus/animes/nogizaka-haruka-no-himitsu-purezza-todos-os-episodios",
      "texto_original": "Nogizaka Haruka no Himitsu: Purezza",
      "rating": 7.26,
      "classificacao_etaria": "A14",
      "imagem_original": "https://animefire.plus/img/animes/nogizaka-haruka-no-himitsu-purezza.webp",
      "imagem_pasta": "https://animefire.plus/img/animes/nogizaka-haruka-no-himitsu-purezza/",
      "secao": "legendados",
      "pagina": 131,
      "total_episodios": 0,
      "link_video": "https://animefire.plus/video/nogizaka-haruka-no-himitsu-purezza"
    },
    {
      "id": 2772,
      "nome": "Noir (Dublado)",
      "link": "https://animefire.plus/animes/noir-dublado-todos-os-episodios",
      "texto_original": "Noir (Dublado)",
      "rating": 7.32,
      "classificacao_etaria": "A14",
      "imagem_original": "https://animefire.plus/img/animes/noir.webp",
      "imagem_pasta": "https://animefire.plus/img/animes/noir/",
      "secao": "dublados,legendados",
      "pagina": 22,
      "total_episodios": 26,
      "link_video": "https://animefire.plus/video/noir-dublado"
    },
    {
      "id": 2773,
      "nome": "Nokemono-tachi no Yoru",
      "link": "https://animefire.plus/animes/nokemono-tachi-no-yoru-todos-os-episodios",
      "texto_original": "Nokemono-tachi no Yoru",
      "rating": 6.61,
      "classificacao_etaria": "A14",
      "imagem_original": "https://animefire.plus/img/animes/nokemono-tachi-no-yoru.webp",
      "imagem_pasta": "https://animefire.plus/img/animes/nokemono-tachi-no-yoru/",
      "secao": "legendados",
      "pagina": 26,
      "total_episodios": 13,
      "link_video": "https://animefire.plus/video/nokemono-tachi-no-yoru"
    },
    {
      "id": 2775,
      "nome": "Non Non Biyori",
      "link": "https://animefire.plus/animes/non-non-biyori-todos-os-episodios",
      "texto_original": "Non Non Biyori",
      "rating": 8,
      "classificacao_etaria": "A14",
      "imagem_original": "https://animefire.plus/img/animes/non-non-biyori.webp",
      "imagem_pasta": "https://animefire.plus/img/animes/non-non-biyori/",
      "secao": "legendados",
      "pagina": 132,
      "total_episodios": 12,
      "link_video": "https://animefire.plus/video/non-non-biyori"
    },
    {
      "id": 2776,
      "nome": "Non Non Biyori Movie: Vacation",
      "link": "https://animefire.plus/animes/non-non-biyori-movie-vacation-todos-os-episodios",
      "texto_original": "Non Non Biyori Movie: Vacation",
      "rating": 8.26,
      "classificacao_etaria": "A14",
      "imagem_original": "https://animefire.plus/img/animes/non-non-biyori-movie-vacation.webp",
      "imagem_pasta": "https://animefire.plus/img/animes/non-non-biyori-movie-vacation/",
      "secao": "legendados",
      "pagina": 108,
      "total_episodios": 2,
      "link_video": "https://animefire.plus/video/non-non-biyori-movie-vacation"
    },
    {
      "id": 2777,
      "nome": "Non Non Biyori Nonstop",
      "link": "https://animefire.plus/animes/non-non-biyori-nonstop-todos-os-episodios",
      "texto_original": "Non Non Biyori Nonstop",
      "rating": 8.35,
      "classificacao_etaria": "A14",
      "imagem_original": "https://animefire.plus/img/animes/non-non-biyori-nonstop.webp",
      "imagem_pasta": "https://animefire.plus/img/animes/non-non-biyori-nonstop/",
      "secao": "legendados",
      "pagina": 49,
      "total_episodios": 12,
      "link_video": "https://animefire.plus/video/non-non-biyori-nonstop"
    },
    {
      "id": 2778,
      "nome": "Non Non Biyori Repeat",
      "link": "https://animefire.plus/animes/non-non-biyori-repeat-todos-os-episodios",
      "texto_original": "Non Non Biyori Repeat",
      "rating": 8.2,
      "classificacao_etaria": "A14",
      "imagem_original": "https://animefire.plus/img/animes/non-non-biyori-repeat.webp",
      "imagem_pasta": "https://animefire.plus/img/animes/non-non-biyori-repeat/",
      "secao": "legendados",
      "pagina": 73,
      "total_episodios": 13,
      "link_video": "https://animefire.plus/video/non-non-biyori-repeat"
    },
    {
      "id": 2779,
      "nome": "Nora to Oujo to Noraneko Heart",
      "link": "https://animefire.plus/animes/nora-to-oujo-to-noraneko-heart-todos-os-episodios",
      "texto_original": "Nora to Oujo to Noraneko Heart",
      "rating": 5.42,
      "classificacao_etaria": "A14",
      "imagem_original": "https://animefire.plus/img/animes/nora-to-oujo-to-noraneko-heart.webp",
      "imagem_pasta": "https://animefire.plus/img/animes/nora-to-oujo-to-noraneko-heart/",
      "secao": "legendados",
      "pagina": 64,
      "total_episodios": 12,
      "link_video": "https://animefire.plus/video/nora-to-oujo-to-noraneko-heart"
    },
    {
      "id": 2780,
      "nome": "Noragami (Dublado)",
      "link": "https://animefire.plus/animes/noragami-dublado-todos-os-episodios",
      "texto_original": "Noragami (Dublado)",
      "rating": 7.98,
      "classificacao_etaria": "A14",
      "imagem_original": "https://animefire.plus/img/animes/noragami.webp",
      "imagem_pasta": "https://animefire.plus/img/animes/noragami/",
      "secao": "dublados,legendados",
      "pagina": 14,
      "total_episodios": 12,
      "link_video": "https://animefire.plus/video/noragami-dublado"
    },
    {
      "id": 2781,
      "nome": "Noragami Aragoto (Dublado)",
      "link": "https://animefire.plus/animes/noragami-aragoto-dublado-todos-os-episodios",
      "texto_original": "Noragami Aragoto (Dublado)",
      "rating": 8.18,
      "classificacao_etaria": "A14",
      "imagem_original": "https://animefire.plus/img/animes/noragami-aragoto.webp",
      "imagem_pasta": "https://animefire.plus/img/animes/noragami-aragoto/",
      "secao": "dublados,legendados",
      "pagina": 13,
      "total_episodios": 13,
      "link_video": "https://animefire.plus/video/noragami-aragoto-dublado"
    },
    {
      "id": 2782,
      "nome": "Noragami Aragoto OVA",
      "link": "https://animefire.plus/animes/noragami-aragoto-ova-todos-os-episodios",
      "texto_original": "Noragami Aragoto OVA",
      "rating": 7.98,
      "classificacao_etaria": "A14",
      "imagem_original": "https://animefire.plus/img/animes/noragami-aragoto-ova.webp",
      "imagem_pasta": "https://animefire.plus/img/animes/noragami-aragoto-ova/",
      "secao": "legendados",
      "pagina": 62,
      "total_episodios": 1,
      "link_video": "https://animefire.plus/video/noragami-aragoto-ova"
    },
    {
      "id": 2783,
      "nome": "Noragami OVA",
      "link": "https://animefire.plus/animes/noragami-ova-todos-os-episodios",
      "texto_original": "Noragami OVA",
      "rating": 7.82,
      "classificacao_etaria": "A14",
      "imagem_original": "https://animefire.plus/img/animes/noragami-ova.webp",
      "imagem_pasta": "https://animefire.plus/img/animes/noragami-ova/",
      "secao": "legendados",
      "pagina": 62,
      "total_episodios": 2,
      "link_video": "https://animefire.plus/video/noragami-ova"
    },
    {
      "id": 2784,
      "nome": "Norn9: Norn+Nonet",
      "link": "https://animefire.plus/animes/norn9-norn-nonet-todos-os-episodios",
      "texto_original": "Norn9: Norn+Nonet",
      "rating": 6.68,
      "classificacao_etaria": "A14",
      "imagem_original": "https://animefire.plus/img/animes/norn9-norn-nonet.webp",
      "imagem_pasta": "https://animefire.plus/img/animes/norn9-norn-nonet/",
      "secao": "legendados",
      "pagina": 136,
      "total_episodios": 0,
      "link_video": "https://animefire.plus/video/norn9-norn-nonet"
    }
  ],
  "pagination": {
    "current_page": 92,
    "per_page": 20,
    "total_items": 2988,
    "total_pages": 150,
    "has_next": true,
    "has_prev": true
  }
}
