{
  "message": "Animes com classificação etária: A14",
  "age_rating": "A14",
  "data": [
    {
      "id": 3945,
      "nome": "Tsue to Tsurugi no Wistoria",
      "link": "https://animefire.plus/animes/tsue-to-tsurugi-no-wistoria-todos-os-episodios",
      "texto_original": "Tsue to Tsurugi no Wistoria",
      "rating": 7.87,
      "classificacao_etaria": "A14",
      "imagem_original": "https://animefire.plus/img/animes/tsue-to-tsurugi-no-wistoria.webp",
      "imagem_pasta": "https://animefire.plus/img/animes/tsue-to-tsurugi-no-wistoria/",
      "secao": "legendados",
      "pagina": 13,
      "total_episodios": 12,
      "link_video": "https://animefire.plus/video/tsue-to-tsurugi-no-wistoria"
    },
    {
      "id": 3949,
      "nome": "Tsuihousha Shokudou e Youkoso!",
      "link": "https://animefire.plus/animes/tsuihousha-shokudou-e-youkoso-todos-os-episodios",
      "texto_original": "Tsuihousha Shokudou e Youkoso!",
      "rating": 7.19,
      "classificacao_etaria": "A14",
      "imagem_original": "https://animefire.plus/img/animes/tsuihousha-shokudou-e-youkoso.webp",
      "imagem_pasta": "https://animefire.plus/img/animes/tsuihousha-shokudou-e-youkoso/",
      "secao": "legendados,lancamentos",
      "pagina": 2,
      "total_episodios": 5,
      "link_video": "https://animefire.plus/video/tsuihousha-shokudou-e-youkoso"
    },
    {
      "id": 3950,
      "nome": "Tsuki ga Kirei",
      "link": "https://animefire.plus/animes/tsuki-ga-kirei-todos-os-episodios",
      "texto_original": "Tsuki ga Kirei",
      "rating": 8.28,
      "classificacao_etaria": "A14",
      "imagem_original": "https://animefire.plus/img/animes/tsuki-ga-kirei.webp",
      "imagem_pasta": "https://animefire.plus/img/animes/tsuki-ga-kirei/",
      "secao": "legendados",
      "pagina": 99,
      "total_episodios": 12,
      "link_video": "https://animefire.plus/video/tsuki-ga-kirei"
    },
    {
      "id": 3951,
      "nome": "Tsuki ga Michibiku Isekai Douchuu (Dublado)",
      "link": "https://animefire.plus/animes/tsuki-ga-michibiku-isekai-douchuu-dublado-todos-os-episodios",
      "texto_original": "Tsuki ga Michibiku Isekai Douchuu (Dublado)",
      "rating": 7.71,
      "classificacao_etaria": "A14",
      "imagem_original": "https://animefire.plus/img/animes/tsuki-ga-michibiku-isekai-douchuu.webp",
      "imagem_pasta": "https://animefire.plus/img/animes/tsuki-ga-michibiku-isekai-douchuu/",
      "secao": "dublados,legendados",
      "pagina": 10,
      "total_episodios": 12,
      "link_video": "https://animefire.plus/video/tsuki-ga-michibiku-isekai-douchuu-dublado"
    },
    {
      "id": 3952,
      "nome": "Tsuki ga Michibiku Isekai Douchuu 2nd Season",
      "link": "https://animefire.plus/animes/tsuki-ga-michibiku-isekai-douchuu-2nd-season-todos-os-episodios",
      "texto_original": "Tsuki ga Michibiku Isekai Douchuu 2nd Season",
      "rating": 7.84,
      "classificacao_etaria": "A14",
      "imagem_original": "https://animefire.plus/img/animes/tsuki-ga-michibiku-isekai-douchuu-2nd-season.webp",
      "imagem_pasta": "https://animefire.plus/img/animes/tsuki-ga-michibiku-isekai-douchuu-2nd-season/",
      "secao": "legendados",
      "pagina": 17,
      "total_episodios": 4,
      "link_video": "https://animefire.plus/video/tsuki-ga-michibiku-isekai-douchuu-2nd-season"
    },
    {
      "id": 3953,
      "nome": "Tsuki ga Michibiku Isekai Douchuu 2nd Season (Dublado)",
      "link": "https://animefire.plus/animes/tsuki-ga-michibiku-isekai-douchuu-2-dublado-todos-os-episodios",
      "texto_original": "Tsuki ga Michibiku Isekai Douchuu 2nd Season (Dublado)",
      "rating": 7.84,
      "classificacao_etaria": "A14",
      "imagem_original": "https://animefire.plus/img/animes/tsuki-ga-michibiku-isekai-douchuu-2.webp",
      "imagem_pasta": "https://animefire.plus/img/animes/tsuki-ga-michibiku-isekai-douchuu-2/",
      "secao": "dublados,lancamentos",
      "pagina": 3,
      "total_episodios": 11,
      "link_video": "https://animefire.plus/video/tsuki-ga-michibiku-isekai-douchuu-2-dublado"
    },
    {
      "id": 3954,
      "nome": "Tsuki to Laika to Nosferatu (Dublado)",
      "link": "https://animefire.plus/animes/tsuki-to-laika-to-nosferatu-dublado-todos-os-episodios",
      "texto_original": "Tsuki to Laika to Nosferatu (Dublado)",
      "rating": 7.32,
      "classificacao_etaria": "A14",
      "imagem_original": "https://animefire.plus/img/animes/tsuki-to-laika-to-nosferatu.webp",
      "imagem_pasta": "https://animefire.plus/img/animes/tsuki-to-laika-to-nosferatu/",
      "secao": "dublados,legendados",
      "pagina": 14,
      "total_episodios": 12,
      "link_video": "https://animefire.plus/video/tsuki-to-laika-to-nosferatu-dublado"
    },
    {
      "id": 3955,
      "nome": "Tsuki Wa Higashi Ni Hi Wa Nishi Ni: Operation Sanctuary",
      "link": "https://animefire.plus/animes/tsuki-wa-higashi-ni-hi-wa-nishi-ni-operation-sanctuary-todos-os-episodios",
      "texto_original": "Tsuki Wa Higashi Ni Hi Wa Nishi Ni: Operation Sanctuary",
      "rating": 6.22,
      "classificacao_etaria": "A14",
      "imagem_original": "https://animefire.plus/img/animes/tsuki-wa-higashi-ni-hi-wa-nishi-ni-operation-sanctuary.webp",
      "imagem_pasta": "https://animefire.plus/img/animes/tsuki-wa-higashi-ni-hi-wa-nishi-ni-operation-sanctuary/",
      "secao": "legendados",
      "pagina": 108,
      "total_episodios": 0,
      "link_video": "https://animefire.plus/video/tsuki-wa-higashi-ni-hi-wa-nishi-ni-operation-sanctuary"
    },
    {
      "id": 3957,
      "nome": "Tsukipro The Animation",
      "link": "https://animefire.plus/animes/tsukipro-the-animation-todos-os-episodios",
      "texto_original": "Tsukipro The Animation",
      "rating": 6.75,
      "classificacao_etaria": "A14",
      "imagem_original": "https://animefire.plus/img/animes/tsukipro-the-animation.webp",
      "imagem_pasta": "https://animefire.plus/img/animes/tsukipro-the-animation/",
      "secao": "legendados",
      "pagina": 74,
      "total_episodios": 13,
      "link_video": "https://animefire.plus/video/tsukipro-the-animation"
    },
    {
      "id": 3958,
      "nome": "Tsukipro The Animation 2",
      "link": "https://animefire.plus/animes/tsukipro-the-animation-2-todos-os-episodios",
      "texto_original": "Tsukipro The Animation 2",
      "rating": 6.41,
      "classificacao_etaria": "A14",
      "imagem_original": "https://animefire.plus/img/animes/tsukipro-the-animation-2.webp",
      "imagem_pasta": "https://animefire.plus/img/animes/tsukipro-the-animation-2/",
      "secao": "legendados,lancamentos",
      "pagina": 40,
      "total_episodios": 8,
      "link_video": "https://animefire.plus/video/tsukipro-the-animation-2"
    },
    {
      "id": 3959,
      "nome": "Tsukiuta. The Animation",
      "link": "https://animefire.plus/animes/tsukiuta-the-animation-todos-os-episodios",
      "texto_original": "Tsukiuta. The Animation",
      "rating": 7.06,
      "classificacao_etaria": "A14",
      "imagem_original": "https://animefire.plus/img/animes/tsukiuta-the-animation.webp",
      "imagem_pasta": "https://animefire.plus/img/animes/tsukiuta-the-animation/",
      "secao": "legendados",
      "pagina": 171,
      "total_episodios": 10,
      "link_video": "https://animefire.plus/video/tsukiuta-the-animation"
    },
    {
      "id": 3960,
      "nome": "Tsukiuta. The Animation 2",
      "link": "https://animefire.plus/animes/tsukiuta-the-animation-2-todos-os-episodios",
      "texto_original": "Tsukiuta. The Animation 2",
      "rating": null,
      "classificacao_etaria": "A14",
      "imagem_original": "https://animefire.plus/img/animes/tsukiuta-the-animation-2.webp",
      "imagem_pasta": "https://animefire.plus/img/animes/tsukiuta-the-animation-2/",
      "secao": "legendados",
      "pagina": 51,
      "total_episodios": 13,
      "link_video": "https://animefire.plus/video/tsukiuta-the-animation-2"
    },
    {
      "id": 3961,
      "nome": "Tsukumogami Kashimasu",
      "link": "https://animefire.plus/animes/tsukumogami-kashimasu-todos-os-episodios",
      "texto_original": "Tsukumogami Kashimasu",
      "rating": 6.76,
      "classificacao_etaria": "A14",
      "imagem_original": "https://animefire.plus/img/animes/tsukumogami-kashimasu.webp",
      "imagem_pasta": "https://animefire.plus/img/animes/tsukumogami-kashimasu/",
      "secao": "legendados",
      "pagina": 169,
      "total_episodios": 12,
      "link_video": "https://animefire.plus/video/tsukumogami-kashimasu"
    },
    {
      "id": 3962,
      "nome": "Tsukuyomi: Moon Phase",
      "link": "https://animefire.plus/animes/tsukuyomi-moon-phase-todos-os-episodios",
      "texto_original": "Tsukuyomi: Moon Phase",
      "rating": 7.07,
      "classificacao_etaria": "A14",
      "imagem_original": "https://animefire.plus/img/animes/tsukuyomi-moon-phase.webp",
      "imagem_pasta": "https://animefire.plus/img/animes/tsukuyomi-moon-phase/",
      "secao": "legendados",
      "pagina": 164,
      "total_episodios": 26,
      "link_video": "https://animefire.plus/video/tsukuyomi-moon-phase"
    },
    {
      "id": 3963,
      "nome": "Tsuma, Shougakusei ni Naru.",
      "link": "https://animefire.plus/animes/tsuma-shougakusei-ni-naru-todos-os-episodios",
      "texto_original": "Tsuma, Shougakusei ni Naru.",
      "rating": 7.54,
      "classificacao_etaria": "A14",
      "imagem_original": "https://animefire.plus/img/animes/tsuma-shougakusei-ni-naru.webp",
      "imagem_pasta": "https://animefire.plus/img/animes/tsuma-shougakusei-ni-naru/",
      "secao": "legendados",
      "pagina": 9,
      "total_episodios": 12,
      "link_video": "https://animefire.plus/video/tsuma-shougakusei-ni-naru"
    },
    {
      "id": 3964,
      "nome": "Tsundere Akuyaku Reijou Liselotte to Jikkyou no Endou-kun to Kaisetsu no Kobayashi-san",
      "link": "https://animefire.plus/animes/tsundere-akuyaku-reijou-liselotte-to-jikkyou-no-endou-kun-to-kaisetsu-no-kobayashi-san-todos-os-episodios",
      "texto_original": "Tsundere Akuyaku Reijou Liselotte to Jikkyou no Endou-kun to Kaisetsu no Kobayashi-san",
      "rating": 7.23,
      "classificacao_etaria": "A14",
      "imagem_original": "https://animefire.plus/img/animes/tsundere-akuyaku-reijou-liselotte-to-jikkyou-no-endou-kun-to-kaisetsu-no-kobayashi-san.webp",
      "imagem_pasta": "https://animefire.plus/img/animes/tsundere-akuyaku-reijou-liselotte-to-jikkyou-no-endou-kun-to-kaisetsu-no-kobayashi-san/",
      "secao": "legendados",
      "pagina": 27,
      "total_episodios": 12,
      "link_video": "https://animefire.plus/video/tsundere-akuyaku-reijou-liselotte-to-jikkyou-no-endou-kun-to-kaisetsu-no-kobayashi-san"
    },
    {
      "id": 3965,
      "nome": "Tsurezure Children",
      "link": "https://animefire.plus/animes/tsurezure-children-todos-os-episodios",
      "texto_original": "Tsurezure Children",
      "rating": 7.76,
      "classificacao_etaria": "A14",
      "imagem_original": "https://animefire.plus/img/animes/tsurezure-children.webp",
      "imagem_pasta": "https://animefire.plus/img/animes/tsurezure-children/",
      "secao": "legendados",
      "pagina": 76,
      "total_episodios": 12,
      "link_video": "https://animefire.plus/video/tsurezure-children"
    },
    {
      "id": 3966,
      "nome": "Tsuritama",
      "link": "https://animefire.plus/animes/tsuritama-todos-os-episodios",
      "texto_original": "Tsuritama",
      "rating": 7.72,
      "classificacao_etaria": "A14",
      "imagem_original": "https://animefire.plus/img/animes/tsuritama.webp",
      "imagem_pasta": "https://animefire.plus/img/animes/tsuritama/",
      "secao": "legendados",
      "pagina": 60,
      "total_episodios": 12,
      "link_video": "https://animefire.plus/video/tsuritama"
    },
    {
      "id": 3967,
      "nome": "Tsuritama: Harikitte Contest",
      "link": "https://animefire.plus/animes/tsuritama-harikitte-contest-todos-os-episodios",
      "texto_original": "Tsuritama: Harikitte Contest",
      "rating": 6,
      "classificacao_etaria": "A14",
      "imagem_original": "https://animefire.plus/img/animes/tsuritama-harikitte-contest.webp",
      "imagem_pasta": "https://animefire.plus/img/animes/tsuritama-harikitte-contest/",
      "secao": "legendados",
      "pagina": 83,
      "total_episodios": 1,
      "link_video": "https://animefire.plus/video/tsuritama-harikitte-contest"
    },
    {
      "id": 3968,
      "nome": "Tsurune: Kazemai Koukou Kyuudoubu",
      "link": "https://animefire.plus/animes/tsurune-kazemai-koukou-kyuudoubu-todos-os-episodios",
      "texto_original": "Tsurune: Kazemai Koukou Kyuudoubu",
      "rating": 7.6,
      "classificacao_etaria": "A14",
      "imagem_original": "https://animefire.plus/img/animes/tsurune-kazemai-koukou-kyuudoubu.webp",
      "imagem_pasta": "https://animefire.plus/img/animes/tsurune-kazemai-koukou-kyuudoubu/",
      "secao": "legendados",
      "pagina": 107,
      "total_episodios": 13,
      "link_video": "https://animefire.plus/video/tsurune-kazemai-koukou-kyuudoubu"
    }
  ],
  "pagination": {
    "current_page": 134,
    "per_page": 20,
    "total_items": 2988,
    "total_pages": 150,
    "has_next": true,
    "has_prev": true
  }
}
