{
  "message": "Animes com classificação etária: A14",
  "age_rating": "A14",
  "data": [
    {
      "id": 2588,
      "nome": "Monsters: Ippyaku Sanjou Hiryuu Jigoku (Dublado)",
      "link": "https://animefire.plus/animes/monsters-ippyaku-sanjou-hiryuu-jigoku-dublado-todos-os-episodios",
      "texto_original": "Monsters: Ippyaku Sanjou Hiryuu Jigoku (Dublado)",
      "rating": 7.7,
      "classificacao_etaria": "A14",
      "imagem_original": "https://animefire.plus/img/animes/monsters-ippyaku-sanjou-hiryuu-jigoku.webp",
      "imagem_pasta": "https://animefire.plus/img/animes/monsters-ippyaku-sanjou-hiryuu-jigoku/",
      "secao": "dublados,legendados",
      "pagina": 3,
      "total_episodios": 1,
      "link_video": "https://animefire.plus/video/monsters-ippyaku-sanjou-hiryuu-jigoku-dublado"
    },
    {
      "id": 2591,
      "nome": "Morita-san wa Mukuchi.",
      "link": "https://animefire.plus/animes/miss-morita-is-taciturn-tv-todos-os-episodios",
      "texto_original": "Morita-san wa Mukuchi.",
      "rating": 6.55,
      "classificacao_etaria": "A14",
      "imagem_original": "https://animefire.plus/img/animes/miss-morita-is-taciturn-tv.webp",
      "imagem_pasta": "https://animefire.plus/img/animes/miss-morita-is-taciturn-tv/",
      "secao": "legendados",
      "pagina": 53,
      "total_episodios": 13,
      "link_video": "https://animefire.plus/video/miss-morita-is-taciturn-tv"
    },
    {
      "id": 2592,
      "nome": "Morita-san wa Mukuchi. 2",
      "link": "https://animefire.plus/animes/morita-san-wa-mukuchi-2-todos-os-episodios",
      "texto_original": "Morita-san wa Mukuchi. 2",
      "rating": 6.72,
      "classificacao_etaria": "A14",
      "imagem_original": "https://animefire.plus/img/animes/morita-san-wa-mukuchi-2.webp",
      "imagem_pasta": "https://animefire.plus/img/animes/morita-san-wa-mukuchi-2/",
      "secao": "legendados",
      "pagina": 116,
      "total_episodios": 13,
      "link_video": "https://animefire.plus/video/morita-san-wa-mukuchi-2"
    },
    {
      "id": 2593,
      "nome": "Moshidora",
      "link": "https://animefire.plus/animes/moshidora-todos-os-episodios",
      "texto_original": "Moshidora",
      "rating": 6.95,
      "classificacao_etaria": "A14",
      "imagem_original": "https://animefire.plus/img/animes/moshidora.webp",
      "imagem_pasta": "https://animefire.plus/img/animes/moshidora/",
      "secao": "legendados",
      "pagina": 120,
      "total_episodios": 10,
      "link_video": "https://animefire.plus/video/moshidora"
    },
    {
      "id": 2595,
      "nome": "Mou Hitotsu no Mirai wo.",
      "link": "https://animefire.plus/animes/mou-hitotsu-no-mirai-wo-todos-os-episodios",
      "texto_original": "Mou Hitotsu no Mirai wo.",
      "rating": 6.1,
      "classificacao_etaria": "A14",
      "imagem_original": "https://animefire.plus/img/animes/mou-hitotsu-no-mirai-wo.webp",
      "imagem_pasta": "https://animefire.plus/img/animes/mou-hitotsu-no-mirai-wo/",
      "secao": "legendados",
      "pagina": 169,
      "total_episodios": 3,
      "link_video": "https://animefire.plus/video/mou-hitotsu-no-mirai-wo"
    },
    {
      "id": 2596,
      "nome": "Mou Ippon!",
      "link": "https://animefire.plus/animes/mou-ippon-todos-os-episodios",
      "texto_original": "Mou Ippon!",
      "rating": 7.08,
      "classificacao_etaria": "A14",
      "imagem_original": "https://animefire.plus/img/animes/mou-ippon.webp",
      "imagem_pasta": "https://animefire.plus/img/animes/mou-ippon/",
      "secao": "legendados",
      "pagina": 25,
      "total_episodios": 13,
      "link_video": "https://animefire.plus/video/mou-ippon"
    },
    {
      "id": 2597,
      "nome": "Mouretsu Pirates",
      "link": "https://animefire.plus/animes/mouretsu-pirates-todos-os-episodios",
      "texto_original": "Mouretsu Pirates",
      "rating": 7.21,
      "classificacao_etaria": "A14",
      "imagem_original": "https://animefire.plus/img/animes/mouretsu-pirates.webp",
      "imagem_pasta": "https://animefire.plus/img/animes/mouretsu-pirates/",
      "secao": "legendados",
      "pagina": 141,
      "total_episodios": 0,
      "link_video": "https://animefire.plus/video/mouretsu-pirates"
    },
    {
      "id": 2601,
      "nome": "Mousou Kagaku Series: Wandaba Style",
      "link": "https://animefire.plus/animes/mousou-kagaku-series-wandaba-style-todos-os-episodios",
      "texto_original": "Mousou Kagaku Series: Wandaba Style",
      "rating": 6.09,
      "classificacao_etaria": "A14",
      "imagem_original": "https://animefire.plus/img/animes/mousou-kagaku-series-wandaba-style.webp",
      "imagem_pasta": "https://animefire.plus/img/animes/mousou-kagaku-series-wandaba-style/",
      "secao": "legendados",
      "pagina": 128,
      "total_episodios": 12,
      "link_video": "https://animefire.plus/video/mousou-kagaku-series-wandaba-style"
    },
    {
      "id": 2604,
      "nome": "Mugen No Ryvius",
      "link": "https://animefire.plus/animes/mugen-no-ryvius-todos-os-episodios",
      "texto_original": "Mugen No Ryvius",
      "rating": 7.53,
      "classificacao_etaria": "A14",
      "imagem_original": "https://animefire.plus/img/animes/mugen-no-ryvius.webp",
      "imagem_pasta": "https://animefire.plus/img/animes/mugen-no-ryvius/",
      "secao": "legendados",
      "pagina": 155,
      "total_episodios": 26,
      "link_video": "https://animefire.plus/video/mugen-no-ryvius"
    },
    {
      "id": 2605,
      "nome": "Mugyutto! Black Clover",
      "link": "https://animefire.plus/animes/mugyutto-black-clover-todos-os-episodios",
      "texto_original": "Mugyutto! Black Clover",
      "rating": 6.28,
      "classificacao_etaria": "A14",
      "imagem_original": "https://animefire.plus/img/animes/mugyutto-black-clover.webp",
      "imagem_pasta": "https://animefire.plus/img/animes/mugyutto-black-clover/",
      "secao": "legendados",
      "pagina": 80,
      "total_episodios": 8,
      "link_video": "https://animefire.plus/video/mugyutto-black-clover"
    },
    {
      "id": 2606,
      "nome": "Muhyo to Rouji no Mahouritsu Soudan Jimusho",
      "link": "https://animefire.plus/animes/muhyo-to-rouji-no-mahouritsu-soudan-jimusho-todos-os-episodios",
      "texto_original": "Muhyo to Rouji no Mahouritsu Soudan Jimusho",
      "rating": 6.72,
      "classificacao_etaria": "A14",
      "imagem_original": "https://animefire.plus/img/animes/muhyo-to-rouji-no-mahouritsu-soudan-jimusho.webp",
      "imagem_pasta": "https://animefire.plus/img/animes/muhyo-to-rouji-no-mahouritsu-soudan-jimusho/",
      "secao": "legendados",
      "pagina": 122,
      "total_episodios": 12,
      "link_video": "https://animefire.plus/video/muhyo-to-rouji-no-mahouritsu-soudan-jimusho"
    },
    {
      "id": 2607,
      "nome": "Muhyo to Rouji no Mahouritsu Soudan Jimusho 2nd Season",
      "link": "https://animefire.plus/animes/muhyo-to-rouji-no-mahouritsu-soudan-jimusho-2nd-season-todos-os-episodios",
      "texto_original": "Muhyo to Rouji no Mahouritsu Soudan Jimusho 2nd Season",
      "rating": 6.84,
      "classificacao_etaria": "A14",
      "imagem_original": "https://animefire.plus/img/animes/muhyo-to-rouji-no-mahouritsu-soudan-jimusho-2nd-season.webp",
      "imagem_pasta": "https://animefire.plus/img/animes/muhyo-to-rouji-no-mahouritsu-soudan-jimusho-2nd-season/",
      "secao": "legendados",
      "pagina": 58,
      "total_episodios": 5,
      "link_video": "https://animefire.plus/video/muhyo-to-rouji-no-mahouritsu-soudan-jimusho-2nd-season"
    },
    {
      "id": 2608,
      "nome": "Mujaki No Rakuen",
      "link": "https://animefire.plus/animes/mujaki-no-rakuen-todos-os-episodios",
      "texto_original": "Mujaki No Rakuen",
      "rating": 6.02,
      "classificacao_etaria": "A14",
      "imagem_original": "https://animefire.plus/img/animes/mujaki-no-rakuen.webp",
      "imagem_pasta": "https://animefire.plus/img/animes/mujaki-no-rakuen/",
      "secao": "legendados",
      "pagina": 109,
      "total_episodios": 3,
      "link_video": "https://animefire.plus/video/mujaki-no-rakuen"
    },
    {
      "id": 2611,
      "nome": "Murai no Koi",
      "link": "https://animefire.plus/animes/murai-no-koi-todos-os-episodios",
      "texto_original": "Murai no Koi",
      "rating": 7.52,
      "classificacao_etaria": "A14",
      "imagem_original": "https://animefire.plus/img/animes/murai-no-koi.webp",
      "imagem_pasta": "https://animefire.plus/img/animes/murai-no-koi/",
      "secao": "legendados",
      "pagina": 9,
      "total_episodios": 12,
      "link_video": "https://animefire.plus/video/murai-no-koi"
    },
    {
      "id": 2613,
      "nome": "Murenase! Seton Gakuen",
      "link": "https://animefire.plus/animes/murenase-seton-gakuen-todos-os-episodios",
      "texto_original": "Murenase! Seton Gakuen",
      "rating": 7.08,
      "classificacao_etaria": "A14",
      "imagem_original": "https://animefire.plus/img/animes/murenase-seton-gakuen.webp",
      "imagem_pasta": "https://animefire.plus/img/animes/murenase-seton-gakuen/",
      "secao": "legendados",
      "pagina": 93,
      "total_episodios": 12,
      "link_video": "https://animefire.plus/video/murenase-seton-gakuen"
    },
    {
      "id": 2614,
      "nome": "Musaigen no Phantom World",
      "link": "https://animefire.plus/animes/musaigen-no-phantom-world-todos-os-episodios",
      "texto_original": "Musaigen no Phantom World",
      "rating": 6.98,
      "classificacao_etaria": "A14",
      "imagem_original": "https://animefire.plus/img/animes/musaigen-no-phantom-world.webp",
      "imagem_pasta": "https://animefire.plus/img/animes/musaigen-no-phantom-world/",
      "secao": "legendados",
      "pagina": 159,
      "total_episodios": 3,
      "link_video": "https://animefire.plus/video/musaigen-no-phantom-world"
    },
    {
      "id": 2616,
      "nome": "Mushibugyou",
      "link": "https://animefire.plus/animes/mushibugyou-todos-os-episodios",
      "texto_original": "Mushibugyou",
      "rating": 7.42,
      "classificacao_etaria": "A14",
      "imagem_original": "https://animefire.plus/img/animes/mushibugyou.webp",
      "imagem_pasta": "https://animefire.plus/img/animes/mushibugyou/",
      "secao": "legendados",
      "pagina": 106,
      "total_episodios": 26,
      "link_video": "https://animefire.plus/video/mushibugyou"
    },
    {
      "id": 2617,
      "nome": "Mushibugyou OVA",
      "link": "https://animefire.plus/animes/mushibugyou-ova-todos-os-episodios",
      "texto_original": "Mushibugyou OVA",
      "rating": 7.14,
      "classificacao_etaria": "A14",
      "imagem_original": "https://animefire.plus/img/animes/mushibugyou-ova.webp",
      "imagem_pasta": "https://animefire.plus/img/animes/mushibugyou-ova/",
      "secao": "legendados",
      "pagina": 128,
      "total_episodios": 3,
      "link_video": "https://animefire.plus/video/mushibugyou-ova"
    },
    {
      "id": 2618,
      "nome": "Mushikaburi-hime",
      "link": "https://animefire.plus/animes/mushikaburi-hime-todos-os-episodios",
      "texto_original": "Mushikaburi-hime",
      "rating": 6.87,
      "classificacao_etaria": "A14",
      "imagem_original": "https://animefire.plus/img/animes/mushikaburi-hime.webp",
      "imagem_pasta": "https://animefire.plus/img/animes/mushikaburi-hime/",
      "secao": "legendados",
      "pagina": 29,
      "total_episodios": 12,
      "link_video": "https://animefire.plus/video/mushikaburi-hime"
    },
    {
      "id": 2620,
      "nome": "Mushishi (Dublado)",
      "link": "https://animefire.plus/animes/mushishi-dublado-todos-os-episodios",
      "texto_original": "Mushishi (Dublado)",
      "rating": 8.71,
      "classificacao_etaria": "A14",
      "imagem_original": "https://animefire.plus/img/animes/mushishi.webp",
      "imagem_pasta": "https://animefire.plus/img/animes/mushishi/",
      "secao": "dublados,legendados",
      "pagina": 25,
      "total_episodios": 26,
      "link_video": "https://animefire.plus/video/mushishi-dublado"
    }
  ],
  "pagination": {
    "current_page": 86,
    "per_page": 20,
    "total_items": 2988,
    "total_pages": 150,
    "has_next": true,
    "has_prev": true
  }
}
