{
  "message": "Animes com classificação etária: A14",
  "age_rating": "A14",
  "data": [
    {
      "id": 3358,
      "nome": "Senyuu.",
      "link": "https://animefire.plus/animes/senyuu-todos-os-episodios",
      "texto_original": "Senyuu.",
      "rating": 7.4,
      "classificacao_etaria": "A14",
      "imagem_original": "https://animefire.plus/img/animes/senyuu.webp",
      "imagem_pasta": "https://animefire.plus/img/animes/senyuu/",
      "secao": "legendados",
      "pagina": 91,
      "total_episodios": 13,
      "link_video": "https://animefire.plus/video/senyuu"
    },
    {
      "id": 3359,
      "nome": "Senyuu. 2",
      "link": "https://animefire.plus/animes/senyuu-2-todos-os-episodios",
      "texto_original": "Senyuu. 2",
      "rating": 7.53,
      "classificacao_etaria": "A14",
      "imagem_original": "https://animefire.plus/img/animes/senyuu-2.webp",
      "imagem_pasta": "https://animefire.plus/img/animes/senyuu-2/",
      "secao": "legendados",
      "pagina": 91,
      "total_episodios": 13,
      "link_video": "https://animefire.plus/video/senyuu-2"
    },
    {
      "id": 3360,
      "nome": "Seraphim Call",
      "link": "https://animefire.plus/animes/seraphim-call-todos-os-episodios",
      "texto_original": "Seraphim Call",
      "rating": 6.09,
      "classificacao_etaria": "A14",
      "imagem_original": "https://animefire.plus/img/animes/seraphim-call.webp",
      "imagem_pasta": "https://animefire.plus/img/animes/seraphim-call/",
      "secao": "legendados",
      "pagina": 140,
      "total_episodios": 12,
      "link_video": "https://animefire.plus/video/seraphim-call"
    },
    {
      "id": 3363,
      "nome": "Servamp Specials",
      "link": "https://animefire.plus/animes/servamp-specials-todos-os-episodios",
      "texto_original": "Servamp Specials",
      "rating": 7.1,
      "classificacao_etaria": "A14",
      "imagem_original": "https://animefire.plus/img/animes/servamp-specials.webp",
      "imagem_pasta": "https://animefire.plus/img/animes/servamp-specials/",
      "secao": "legendados",
      "pagina": 120,
      "total_episodios": 4,
      "link_video": "https://animefire.plus/video/servamp-specials"
    },
    {
      "id": 3364,
      "nome": "Servant x Service",
      "link": "https://animefire.plus/animes/servant-x-service-todos-os-episodios",
      "texto_original": "Servant x Service",
      "rating": 7.73,
      "classificacao_etaria": "A14",
      "imagem_original": "https://animefire.plus/img/animes/servant-x-service.webp",
      "imagem_pasta": "https://animefire.plus/img/animes/servant-x-service/",
      "secao": "legendados",
      "pagina": 82,
      "total_episodios": 13,
      "link_video": "https://animefire.plus/video/servant-x-service"
    },
    {
      "id": 3365,
      "nome": "Seto no Hanayome",
      "link": "https://animefire.plus/animes/seto-no-hanayome-todos-os-episodios",
      "texto_original": "Seto no Hanayome",
      "rating": 7.81,
      "classificacao_etaria": "A14",
      "imagem_original": "https://animefire.plus/img/animes/seto-no-hanayome.webp",
      "imagem_pasta": "https://animefire.plus/img/animes/seto-no-hanayome/",
      "secao": "legendados",
      "pagina": 62,
      "total_episodios": 26,
      "link_video": "https://animefire.plus/video/seto-no-hanayome"
    },
    {
      "id": 3367,
      "nome": "Sewayaki Kitsune no Senko-san",
      "link": "https://animefire.plus/animes/sewayaki-kitsune-no-senko-san-todos-os-episodios",
      "texto_original": "Sewayaki Kitsune no Senko-san",
      "rating": 7.36,
      "classificacao_etaria": "A14",
      "imagem_original": "https://animefire.plus/img/animes/sewayaki-kitsune-no-senko-san.webp",
      "imagem_pasta": "https://animefire.plus/img/animes/sewayaki-kitsune-no-senko-san/",
      "secao": "legendados",
      "pagina": 140,
      "total_episodios": 5,
      "link_video": "https://animefire.plus/video/sewayaki-kitsune-no-senko-san"
    },
    {
      "id": 3369,
      "nome": "Shachiku-san wa Youjo Yuurei ni Iyasaretai.",
      "link": "https://animefire.plus/animes/shachiku-san-wa-youjo-yuurei-ni-iyasaretai-todos-os-episodios",
      "texto_original": "Shachiku-san wa Youjo Yuurei ni Iyasaretai.",
      "rating": 7.11,
      "classificacao_etaria": "A14",
      "imagem_original": "https://animefire.plus/img/animes/shachiku-san-wa-youjo-yuurei-ni-iyasaretai.webp",
      "imagem_pasta": "https://animefire.plus/img/animes/shachiku-san-wa-youjo-yuurei-ni-iyasaretai/",
      "secao": "legendados",
      "pagina": 33,
      "total_episodios": 12,
      "link_video": "https://animefire.plus/video/shachiku-san-wa-youjo-yuurei-ni-iyasaretai"
    },
    {
      "id": 3370,
      "nome": "Shachou, Battle no Jikan Desu!",
      "link": "https://animefire.plus/animes/shachou-battle-no-jikan-desu-todos-os-episodios",
      "texto_original": "Shachou, Battle no Jikan Desu!",
      "rating": 5.87,
      "classificacao_etaria": "A14",
      "imagem_original": "https://animefire.plus/img/animes/shachou-battle-no-jikan-desu.webp",
      "imagem_pasta": "https://animefire.plus/img/animes/shachou-battle-no-jikan-desu/",
      "secao": "legendados",
      "pagina": 81,
      "total_episodios": 1,
      "link_video": "https://animefire.plus/video/shachou-battle-no-jikan-desu"
    },
    {
      "id": 3371,
      "nome": "Shadows House (Dublado)",
      "link": "https://animefire.plus/animes/shadows-house-dublado-todos-os-episodios",
      "texto_original": "Shadows House (Dublado)",
      "rating": 7.8,
      "classificacao_etaria": "A14",
      "imagem_original": "https://animefire.plus/img/animes/shadows-house.webp",
      "imagem_pasta": "https://animefire.plus/img/animes/shadows-house/",
      "secao": "dublados,legendados",
      "pagina": 13,
      "total_episodios": 13,
      "link_video": "https://animefire.plus/video/shadows-house-dublado"
    },
    {
      "id": 3372,
      "nome": "Shadows House 2nd Season (Dublado)",
      "link": "https://animefire.plus/animes/shadows-house-2nd-season-dublado-todos-os-episodios",
      "texto_original": "Shadows House 2nd Season (Dublado)",
      "rating": 8.01,
      "classificacao_etaria": "A14",
      "imagem_original": "https://animefire.plus/img/animes/shadows-house-2nd-season.webp",
      "imagem_pasta": "https://animefire.plus/img/animes/shadows-house-2nd-season/",
      "secao": "dublados,legendados",
      "pagina": 10,
      "total_episodios": 12,
      "link_video": "https://animefire.plus/video/shadows-house-2nd-season-dublado"
    },
    {
      "id": 3374,
      "nome": "Shadowverse (TV)",
      "link": "https://animefire.plus/animes/shadowverse-tv-todos-os-episodios",
      "texto_original": "Shadowverse (TV)",
      "rating": 5.1,
      "classificacao_etaria": "A14",
      "imagem_original": "https://animefire.plus/img/animes/shadowverse-tv.webp",
      "imagem_pasta": "https://animefire.plus/img/animes/shadowverse-tv/",
      "secao": "legendados,lancamentos",
      "pagina": 81,
      "total_episodios": 7,
      "link_video": "https://animefire.plus/video/shadowverse-tv"
    },
    {
      "id": 3375,
      "nome": "Shadowverse Flame",
      "link": "https://animefire.plus/animes/shadowverse-flame-todos-os-episodios",
      "texto_original": "Shadowverse Flame",
      "rating": 6.73,
      "classificacao_etaria": "A14",
      "imagem_original": "https://animefire.plus/img/animes/shadowverse-flame.webp",
      "imagem_pasta": "https://animefire.plus/img/animes/shadowverse-flame/",
      "secao": "legendados,lancamentos",
      "pagina": 34,
      "total_episodios": 98,
      "link_video": "https://animefire.plus/video/shadowverse-flame"
    },
    {
      "id": 3376,
      "nome": "Shakugan no Shana",
      "link": "https://animefire.plus/animes/shakugan-no-shana-todos-os-episodios",
      "texto_original": "Shakugan no Shana",
      "rating": 7.62,
      "classificacao_etaria": "A14",
      "imagem_original": "https://animefire.plus/img/animes/shakugan-no-shana.webp",
      "imagem_pasta": "https://animefire.plus/img/animes/shakugan-no-shana/",
      "secao": "legendados",
      "pagina": 166,
      "total_episodios": 24,
      "link_video": "https://animefire.plus/video/shakugan-no-shana"
    },
    {
      "id": 3377,
      "nome": "Shakugan no Shana II (Second)",
      "link": "https://animefire.plus/animes/shakugan-no-shana-ii-second-todos-os-episodios",
      "texto_original": "Shakugan no Shana II (Second)",
      "rating": 7.69,
      "classificacao_etaria": "A14",
      "imagem_original": "https://animefire.plus/img/animes/shakugan-no-shana-ii-second.webp",
      "imagem_pasta": "https://animefire.plus/img/animes/shakugan-no-shana-ii-second/",
      "secao": "legendados",
      "pagina": 119,
      "total_episodios": 24,
      "link_video": "https://animefire.plus/video/shakugan-no-shana-ii-second"
    },
    {
      "id": 3378,
      "nome": "Shakugan no Shana III (Final)",
      "link": "https://animefire.plus/animes/shakugan-no-shana-iii-final-todos-os-episodios",
      "texto_original": "Shakugan no Shana III (Final)",
      "rating": 7.64,
      "classificacao_etaria": "A14",
      "imagem_original": "https://animefire.plus/img/animes/shakugan-no-shana-iii-final.webp",
      "imagem_pasta": "https://animefire.plus/img/animes/shakugan-no-shana-iii-final/",
      "secao": "legendados",
      "pagina": 112,
      "total_episodios": 24,
      "link_video": "https://animefire.plus/video/shakugan-no-shana-iii-final"
    },
    {
      "id": 3379,
      "nome": "Shakugan no Shana-tan II (Second)",
      "link": "https://animefire.plus/animes/shakugan-no-shana-tan-ii-second-todos-os-episodios",
      "texto_original": "Shakugan no Shana-tan II (Second)",
      "rating": 7.22,
      "classificacao_etaria": "A14",
      "imagem_original": "https://animefire.plus/img/animes/shakugan-no-shana-tan-ii-second.webp",
      "imagem_pasta": "https://animefire.plus/img/animes/shakugan-no-shana-tan-ii-second/",
      "secao": "legendados",
      "pagina": 71,
      "total_episodios": 3,
      "link_video": "https://animefire.plus/video/shakugan-no-shana-tan-ii-second"
    },
    {
      "id": 3380,
      "nome": "Shakugan no Shana-tan III (Final): Final Destruction",
      "link": "https://animefire.plus/animes/shakugan-no-shana-tan-iii-final-final-destruction-todos-os-episodios",
      "texto_original": "Shakugan no Shana-tan III (Final): Final Destruction",
      "rating": 7.09,
      "classificacao_etaria": "A14",
      "imagem_original": "https://animefire.plus/img/animes/shakugan-no-shana-tan-iii-final-final-destruction.webp",
      "imagem_pasta": "https://animefire.plus/img/animes/shakugan-no-shana-tan-iii-final-final-destruction/",
      "secao": "legendados",
      "pagina": 78,
      "total_episodios": 2,
      "link_video": "https://animefire.plus/video/shakugan-no-shana-tan-iii-final-final-destruction"
    },
    {
      "id": 3381,
      "nome": "Shakunetsu Kabaddi",
      "link": "https://animefire.plus/animes/shakunetsu-kabaddi-todos-os-episodios",
      "texto_original": "Shakunetsu Kabaddi",
      "rating": 7.01,
      "classificacao_etaria": "A14",
      "imagem_original": "https://animefire.plus/img/animes/shakunetsu-kabaddi.webp",
      "imagem_pasta": "https://animefire.plus/img/animes/shakunetsu-kabaddi/",
      "secao": "legendados",
      "pagina": 47,
      "total_episodios": 12,
      "link_video": "https://animefire.plus/video/shakunetsu-kabaddi"
    },
    {
      "id": 3382,
      "nome": "Shakunetsu no Takkyuu Musume",
      "link": "https://animefire.plus/animes/shakunetsu-no-takkyuu-musume-todos-os-episodios",
      "texto_original": "Shakunetsu no Takkyuu Musume",
      "rating": 7.14,
      "classificacao_etaria": "A14",
      "imagem_original": "https://animefire.plus/img/animes/shakunetsu-no-takkyuu-musume.webp",
      "imagem_pasta": "https://animefire.plus/img/animes/shakunetsu-no-takkyuu-musume/",
      "secao": "legendados",
      "pagina": 143,
      "total_episodios": 10,
      "link_video": "https://animefire.plus/video/shakunetsu-no-takkyuu-musume"
    }
  ],
  "pagination": {
    "current_page": 113,
    "per_page": 20,
    "total_items": 2988,
    "total_pages": 150,
    "has_next": true,
    "has_prev": true
  }
}
