{
  "message": "Animes com classificação etária: A14",
  "age_rating": "A14",
  "data": [
    {
      "id": 870,
      "nome": "Dr. Stone: Ryuusui (Dublado)",
      "link": "https://animefire.plus/animes/dr-stone-ryuusui-dublado-todos-os-episodios",
      "texto_original": "Dr. Stone: Ryuusui (Dublado)",
      "rating": 8.13,
      "classificacao_etaria": "A14",
      "imagem_original": "https://animefire.plus/img/animes/dr-stone-ryuusui.webp",
      "imagem_pasta": "https://animefire.plus/img/animes/dr-stone-ryuusui/",
      "secao": "dublados,legendados",
      "pagina": 9,
      "total_episodios": 1,
      "link_video": "https://animefire.plus/video/dr-stone-ryuusui-dublado"
    },
    {
      "id": 871,
      "nome": "Dr. Stone: Science Future (Dublado)",
      "link": "https://animefire.plus/animes/dr-stone-science-future-dublado-todos-os-episodios",
      "texto_original": "Dr. Stone: Science Future (Dublado)",
      "rating": 8.24,
      "classificacao_etaria": "A14",
      "imagem_original": "https://animefire.plus/img/animes/dr-stone-science-future.webp",
      "imagem_pasta": "https://animefire.plus/img/animes/dr-stone-science-future/",
      "secao": "dublados,legendados,lancamentos",
      "pagina": 1,
      "total_episodios": 12,
      "link_video": "https://animefire.plus/video/dr-stone-science-future-dublado"
    },
    {
      "id": 872,
      "nome": "Dr. Stone: Science Future Part 2",
      "link": "https://animefire.plus/animes/dr-stone-science-future-part-2-todos-os-episodios",
      "texto_original": "Dr. Stone: Science Future Part 2",
      "rating": 8.22,
      "classificacao_etaria": "A14",
      "imagem_original": "https://animefire.plus/img/animes/dr-stone-science-future-part-2.webp",
      "imagem_pasta": "https://animefire.plus/img/animes/dr-stone-science-future-part-2/",
      "secao": "legendados,lancamentos",
      "pagina": 1,
      "total_episodios": 4,
      "link_video": "https://animefire.plus/video/dr-stone-science-future-part-2"
    },
    {
      "id": 873,
      "nome": "Dr. Stone: Stone Wars (Dublado)",
      "link": "https://animefire.plus/animes/dr-stone-stone-wars-dublado-todos-os-episodios",
      "texto_original": "Dr. Stone: Stone Wars (Dublado)",
      "rating": 8.16,
      "classificacao_etaria": "A14",
      "imagem_original": "https://animefire.plus/img/animes/dr-stone-stone-wars.webp",
      "imagem_pasta": "https://animefire.plus/img/animes/dr-stone-stone-wars/",
      "secao": "dublados,legendados",
      "pagina": 18,
      "total_episodios": 11,
      "link_video": "https://animefire.plus/video/dr-stone-stone-wars-dublado"
    },
    {
      "id": 874,
      "nome": "Dragon Ball (Dublado)",
      "link": "https://animefire.plus/animes/dragon-ball-dublado-todos-os-episodios",
      "texto_original": "Dragon Ball (Dublado)",
      "rating": 7.98,
      "classificacao_etaria": "A14",
      "imagem_original": "https://animefire.plus/img/animes/dragon-ball.webp",
      "imagem_pasta": "https://animefire.plus/img/animes/dragon-ball/",
      "secao": "dublados",
      "pagina": 17,
      "total_episodios": 153,
      "link_video": "https://animefire.plus/video/dragon-ball-dublado"
    },
    {
      "id": 875,
      "nome": "Dragon Ball Daima (Dublado)",
      "link": "https://animefire.plus/animes/dragon-ball-daima-dublado-todos-os-episodios",
      "texto_original": "Dragon Ball Daima (Dublado)",
      "rating": 7.63,
      "classificacao_etaria": "A14",
      "imagem_original": "https://animefire.plus/img/animes/dragon-ball-daima.webp",
      "imagem_pasta": "https://animefire.plus/img/animes/dragon-ball-daima/",
      "secao": "dublados,legendados",
      "pagina": 1,
      "total_episodios": 20,
      "link_video": "https://animefire.plus/video/dragon-ball-daima-dublado"
    },
    {
      "id": 876,
      "nome": "Dragon Ball GT (Dublado)",
      "link": "https://animefire.plus/animes/dragon-ball-gt-dublado-todos-os-episodios",
      "texto_original": "Dragon Ball GT (Dublado)",
      "rating": 6.64,
      "classificacao_etaria": "A14",
      "imagem_original": "https://animefire.plus/img/animes/dragon-ball-gt.webp",
      "imagem_pasta": "https://animefire.plus/img/animes/dragon-ball-gt/",
      "secao": "dublados",
      "pagina": 26,
      "total_episodios": 61,
      "link_video": "https://animefire.plus/video/dragon-ball-gt-dublado"
    },
    {
      "id": 877,
      "nome": "Dragon Ball Heroes (Dublado)",
      "link": "https://animefire.plus/animes/dragon-ball-heroes-dublado-todos-os-episodios",
      "texto_original": "Dragon Ball Heroes (Dublado)",
      "rating": 5.62,
      "classificacao_etaria": "A14",
      "imagem_original": "https://animefire.plus/img/animes/dragon-ball-heroes.webp",
      "imagem_pasta": "https://animefire.plus/img/animes/dragon-ball-heroes/",
      "secao": "dublados,legendados,lancamentos",
      "pagina": 26,
      "total_episodios": 16,
      "link_video": "https://animefire.plus/video/dragon-ball-heroes-dublado"
    },
    {
      "id": 878,
      "nome": "Dragon Ball Kai (Dublado)",
      "link": "https://animefire.plus/animes/dragon-ball-kai-dublado-todos-os-episodios",
      "texto_original": "Dragon Ball Kai (Dublado)",
      "rating": 7.79,
      "classificacao_etaria": "A14",
      "imagem_original": "https://animefire.plus/img/animes/dragon-ball-kai.webp",
      "imagem_pasta": "https://animefire.plus/img/animes/dragon-ball-kai/",
      "secao": "dublados",
      "pagina": 21,
      "total_episodios": 26,
      "link_video": "https://animefire.plus/video/dragon-ball-kai-dublado"
    },
    {
      "id": 879,
      "nome": "Dragon Ball Super (Dublado)",
      "link": "https://animefire.plus/animes/dragon-ball-super-dublado-todos-os-episodios",
      "texto_original": "Dragon Ball Super (Dublado)",
      "rating": 7.66,
      "classificacao_etaria": "A14",
      "imagem_original": "https://animefire.plus/img/animes/dragon-ball-super.webp",
      "imagem_pasta": "https://animefire.plus/img/animes/dragon-ball-super/",
      "secao": "dublados",
      "pagina": 27,
      "total_episodios": 0,
      "link_video": "https://animefire.plus/video/dragon-ball-super-dublado"
    },
    {
      "id": 880,
      "nome": "Dragon Ball Z (Dublado)",
      "link": "https://animefire.plus/animes/dragon-ball-z-dublado-todos-os-episodios",
      "texto_original": "Dragon Ball Z (Dublado)",
      "rating": 8.15,
      "classificacao_etaria": "A14",
      "imagem_original": "https://animefire.plus/img/animes/dragon-ball-z.webp",
      "imagem_pasta": "https://animefire.plus/img/animes/dragon-ball-z/",
      "secao": "dublados",
      "pagina": 17,
      "total_episodios": 291,
      "link_video": "https://animefire.plus/video/dragon-ball-z-dublado"
    },
    {
      "id": 881,
      "nome": "Dragon Crisis!",
      "link": "https://animefire.plus/animes/dragon-crisis-todos-os-episodios",
      "texto_original": "Dragon Crisis!",
      "rating": 6.82,
      "classificacao_etaria": "A14",
      "imagem_original": "https://animefire.plus/img/animes/dragon-crisis.webp",
      "imagem_pasta": "https://animefire.plus/img/animes/dragon-crisis/",
      "secao": "legendados",
      "pagina": 161,
      "total_episodios": 12,
      "link_video": "https://animefire.plus/video/dragon-crisis"
    },
    {
      "id": 883,
      "nome": "Dragon Fist",
      "link": "https://animefire.plus/animes/dragon-fist-todos-os-episodios",
      "texto_original": "Dragon Fist",
      "rating": 4.76,
      "classificacao_etaria": "A14",
      "imagem_original": "https://animefire.plus/img/animes/dragon-fist.webp",
      "imagem_pasta": "https://animefire.plus/img/animes/dragon-fist/",
      "secao": "legendados",
      "pagina": 87,
      "total_episodios": 1,
      "link_video": "https://animefire.plus/video/dragon-fist"
    },
    {
      "id": 884,
      "nome": "Dragon Quest: Dai no Daibouken (2020)",
      "link": "https://animefire.plus/animes/dragon-quest-dai-no-daibouken-2020-todos-os-episodios",
      "texto_original": "Dragon Quest: Dai no Daibouken (2020)",
      "rating": null,
      "classificacao_etaria": "A14",
      "imagem_original": "https://animefire.plus/img/animes/dragon-quest-dai-no-daibouken-2020.webp",
      "imagem_pasta": "https://animefire.plus/img/animes/dragon-quest-dai-no-daibouken-2020/",
      "secao": "legendados",
      "pagina": 52,
      "total_episodios": 100,
      "link_video": "https://animefire.plus/video/dragon-quest-dai-no-daibouken-2020"
    },
    {
      "id": 886,
      "nome": "Dragon, Ie wo Kau. (Dublado)",
      "link": "https://animefire.plus/animes/dragon-ie-wo-kau-dublado-todos-os-episodios",
      "texto_original": "Dragon, Ie wo Kau. (Dublado)",
      "rating": 6.42,
      "classificacao_etaria": "A14",
      "imagem_original": "https://animefire.plus/img/animes/dragon-ie-wo-kau.webp",
      "imagem_pasta": "https://animefire.plus/img/animes/dragon-ie-wo-kau/",
      "secao": "dublados,legendados",
      "pagina": 13,
      "total_episodios": 12,
      "link_video": "https://animefire.plus/video/dragon-ie-wo-kau-dublado"
    },
    {
      "id": 888,
      "nome": "Dragonaut: The Resonance",
      "link": "https://animefire.plus/animes/dragonaut-the-resonance-todos-os-episodios",
      "texto_original": "Dragonaut: The Resonance",
      "rating": 6.73,
      "classificacao_etaria": "A14",
      "imagem_original": "https://animefire.plus/img/animes/dragonaut-the-resonance.webp",
      "imagem_pasta": "https://animefire.plus/img/animes/dragonaut-the-resonance/",
      "secao": "legendados",
      "pagina": 145,
      "total_episodios": 25,
      "link_video": "https://animefire.plus/video/dragonaut-the-resonance"
    },
    {
      "id": 889,
      "nome": "DRAMAtical Murder",
      "link": "https://animefire.plus/animes/dramatical-murder-todos-os-episodios",
      "texto_original": "DRAMAtical Murder",
      "rating": 6.18,
      "classificacao_etaria": "A14",
      "imagem_original": "https://animefire.plus/img/animes/dramatical-murder.webp",
      "imagem_pasta": "https://animefire.plus/img/animes/dramatical-murder/",
      "secao": "legendados",
      "pagina": 92,
      "total_episodios": 12,
      "link_video": "https://animefire.plus/video/dramatical-murder"
    },
    {
      "id": 890,
      "nome": "Dream Festival!",
      "link": "https://animefire.plus/animes/dream-festival-todos-os-episodios",
      "texto_original": "Dream Festival!",
      "rating": 6.9,
      "classificacao_etaria": "A14",
      "imagem_original": "https://animefire.plus/img/animes/dream-festival.webp",
      "imagem_pasta": "https://animefire.plus/img/animes/dream-festival/",
      "secao": "legendados",
      "pagina": 144,
      "total_episodios": 12,
      "link_video": "https://animefire.plus/video/dream-festival"
    },
    {
      "id": 891,
      "nome": "Dream Festival! R",
      "link": "https://animefire.plus/animes/dream-festival-r-todos-os-episodios",
      "texto_original": "Dream Festival! R",
      "rating": 6.93,
      "classificacao_etaria": "A14",
      "imagem_original": "https://animefire.plus/img/animes/dream-festival-r.webp",
      "imagem_pasta": "https://animefire.plus/img/animes/dream-festival-r/",
      "secao": "legendados",
      "pagina": 63,
      "total_episodios": 12,
      "link_video": "https://animefire.plus/video/dream-festival-r"
    },
    {
      "id": 894,
      "nome": "Druaga No Tou: The Aegis Of Uruk",
      "link": "https://animefire.plus/animes/druaga-no-tou-the-aegis-of-uruk-todos-os-episodios",
      "texto_original": "Druaga No Tou: The Aegis Of Uruk",
      "rating": 7.25,
      "classificacao_etaria": "A14",
      "imagem_original": "https://animefire.plus/img/animes/druaga-no-tou-the-aegis-of-uruk.webp",
      "imagem_pasta": "https://animefire.plus/img/animes/druaga-no-tou-the-aegis-of-uruk/",
      "secao": "legendados",
      "pagina": 99,
      "total_episodios": 12,
      "link_video": "https://animefire.plus/video/druaga-no-tou-the-aegis-of-uruk"
    }
  ],
  "pagination": {
    "current_page": 28,
    "per_page": 20,
    "total_items": 2988,
    "total_pages": 150,
    "has_next": true,
    "has_prev": true
  }
}
