{
  "message": "Animes com classificação etária: A14",
  "age_rating": "A14",
  "data": [
    {
      "id": 1,
      "nome": ".Hack//Liminality",
      "link": "https://animefire.plus/animes/hack-liminality-todos-os-episodios",
      "texto_original": ".Hack//Liminality",
      "rating": 6.67,
      "classificacao_etaria": "A14",
      "imagem_original": "https://animefire.plus/img/animes/hack-liminality.webp",
      "imagem_pasta": "https://animefire.plus/img/animes/hack-liminality/",
      "secao": "legendados",
      "pagina": 169,
      "total_episodios": 0,
      "link_video": "https://animefire.plus/video/hack-liminality"
    },
    {
      "id": 2,
      "nome": ".hack//Quantum",
      "link": "https://animefire.plus/animes/hack-quantum-todos-os-episodios",
      "texto_original": ".hack//Quantum",
      "rating": 7.25,
      "classificacao_etaria": "A14",
      "imagem_original": "https://animefire.plus/img/animes/hack-quantum.webp",
      "imagem_pasta": "https://animefire.plus/img/animes/hack-quantum/",
      "secao": "legendados",
      "pagina": 171,
      "total_episodios": 3,
      "link_video": "https://animefire.plus/video/hack-quantum"
    },
    {
      "id": 3,
      "nome": ".hack//Roots",
      "link": "https://animefire.plus/animes/hack-roots-todos-os-episodios",
      "texto_original": ".hack//Roots",
      "rating": 7,
      "classificacao_etaria": "A14",
      "imagem_original": "https://animefire.plus/img/animes/hack-roots.webp",
      "imagem_pasta": "https://animefire.plus/img/animes/hack-roots/",
      "secao": "legendados",
      "pagina": 152,
      "total_episodios": 26,
      "link_video": "https://animefire.plus/video/hack-roots"
    },
    {
      "id": 4,
      "nome": ".hack//Sign",
      "link": "https://animefire.plus/animes/hack-sign-todos-os-episodios",
      "texto_original": ".hack//Sign",
      "rating": 7.07,
      "classificacao_etaria": "A14",
      "imagem_original": "https://animefire.plus/img/animes/hack-sign.webp",
      "imagem_pasta": "https://animefire.plus/img/animes/hack-sign/",
      "secao": "legendados",
      "pagina": 142,
      "total_episodios": 26,
      "link_video": "https://animefire.plus/video/hack-sign"
    },
    {
      "id": 5,
      "nome": ".hack//Tasogare no Udewa Densetsu",
      "link": "https://animefire.plus/animes/hack-tasogare-no-udewa-densetsu-todos-os-episodios",
      "texto_original": ".hack//Tasogare no Udewa Densetsu",
      "rating": 6.68,
      "classificacao_etaria": "A14",
      "imagem_original": "https://animefire.plus/img/animes/hack-tasogare-no-udewa-densetsu.webp",
      "imagem_pasta": "https://animefire.plus/img/animes/hack-tasogare-no-udewa-densetsu/",
      "secao": "legendados",
      "pagina": 169,
      "total_episodios": 1,
      "link_video": "https://animefire.plus/video/hack-tasogare-no-udewa-densetsu"
    },
    {
      "id": 6,
      "nome": "\"Bungaku Shoujo\" Memoire",
      "link": "https://animefire.plus/animes/bungaku-shoujo-memoire-todos-os-episodios",
      "texto_original": "\"Bungaku Shoujo\" Memoire",
      "rating": 7.33,
      "classificacao_etaria": "A14",
      "imagem_original": "https://animefire.plus/img/animes/bungaku-shoujo-memoire.webp",
      "imagem_pasta": "https://animefire.plus/img/animes/bungaku-shoujo-memoire/",
      "secao": "legendados",
      "pagina": 42,
      "total_episodios": 3,
      "link_video": "https://animefire.plus/video/bungaku-shoujo-memoire"
    },
    {
      "id": 7,
      "nome": "\"Bungaku Shoujo\" Movie",
      "link": "https://animefire.plus/animes/bungaku-shoujo-movie-todos-os-episodios",
      "texto_original": "\"Bungaku Shoujo\" Movie",
      "rating": 7.49,
      "classificacao_etaria": "A14",
      "imagem_original": "https://animefire.plus/img/animes/bungaku-shoujo-movie.webp",
      "imagem_pasta": "https://animefire.plus/img/animes/bungaku-shoujo-movie/",
      "secao": "legendados",
      "pagina": 146,
      "total_episodios": 3,
      "link_video": "https://animefire.plus/video/bungaku-shoujo-movie"
    },
    {
      "id": 8,
      "nome": "\"Oshi no Ko\" 2nd Season",
      "link": "https://animefire.plus/animes/oshi-no-ko-2nd-season-todos-os-episodios",
      "texto_original": "\"Oshi no Ko\" 2nd Season",
      "rating": 8.56,
      "classificacao_etaria": "A14",
      "imagem_original": "https://animefire.plus/img/animes/oshi-no-ko-2nd-season.webp",
      "imagem_pasta": "https://animefire.plus/img/animes/oshi-no-ko-2nd-season/",
      "secao": "legendados",
      "pagina": 12,
      "total_episodios": 13,
      "link_video": "https://animefire.plus/video/oshi-no-ko-2nd-season"
    },
    {
      "id": 9,
      "nome": "\"Oshi no Ko\" Season 2",
      "link": "https://animefire.plus/animes/oshi-no-ko-season-2-todos-os-episodios",
      "texto_original": "\"Oshi no Ko\" Season 2",
      "rating": null,
      "classificacao_etaria": "A14",
      "imagem_original": "https://animefire.plus/img/animes/oshi-no-ko-season-2.webp",
      "imagem_pasta": "https://animefire.plus/img/animes/oshi-no-ko-season-2/",
      "secao": "legendados,lancamentos",
      "pagina": 19,
      "total_episodios": 0,
      "link_video": "https://animefire.plus/video/oshi-no-ko-season-2"
    },
    {
      "id": 10,
      "nome": "#Compass 2.0: Sentou Setsuri Kaiseki System",
      "link": "https://animefire.plus/animes/compass-2-0-sentou-setsuri-kaiseki-system-todos-os-episodios",
      "texto_original": "#Compass 2.0: Sentou Setsuri Kaiseki System",
      "rating": 5.9,
      "classificacao_etaria": "A14",
      "imagem_original": "https://animefire.plus/img/animes/compass-2-0-sentou-setsuri-kaiseki-system.webp",
      "imagem_pasta": "https://animefire.plus/img/animes/compass-2-0-sentou-setsuri-kaiseki-system/",
      "secao": "legendados",
      "pagina": 4,
      "total_episodios": 12,
      "link_video": "https://animefire.plus/video/compass-2-0-sentou-setsuri-kaiseki-system"
    },
    {
      "id": 12,
      "nome": "07-Ghost",
      "link": "https://animefire.plus/animes/07-ghost-todos-os-episodios",
      "texto_original": "07-Ghost",
      "rating": 7.33,
      "classificacao_etaria": "A14",
      "imagem_original": "https://animefire.plus/img/animes/07-ghost.webp",
      "imagem_pasta": "https://animefire.plus/img/animes/07-ghost/",
      "secao": "legendados",
      "pagina": 145,
      "total_episodios": 25,
      "link_video": "https://animefire.plus/video/07-ghost"
    },
    {
      "id": 15,
      "nome": "100-man no Inochi no Ue ni Ore wa Tatteiru (Dublado)",
      "link": "https://animefire.plus/animes/100-man-no-inochi-no-ue-ni-ore-wa-tatteiru-dublado-todos-os-episodios",
      "texto_original": "100-man no Inochi no Ue ni Ore wa Tatteiru (Dublado)",
      "rating": 6.27,
      "classificacao_etaria": "A14",
      "imagem_original": "https://animefire.plus/img/animes/100-man-no-inochi-no-ue-ni-ore-wa-tatteiru.webp",
      "imagem_pasta": "https://animefire.plus/img/animes/100-man-no-inochi-no-ue-ni-ore-wa-tatteiru/",
      "secao": "dublados,legendados",
      "pagina": 20,
      "total_episodios": 12,
      "link_video": "https://animefire.plus/video/100-man-no-inochi-no-ue-ni-ore-wa-tatteiru-dublado"
    },
    {
      "id": 16,
      "nome": "100-man no Inochi no Ue ni Ore wa Tatteiru 2nd Season",
      "link": "https://animefire.plus/animes/100-man-no-inochi-no-ue-ni-ore-wa-tatteiru-2nd-season-todos-os-episodios",
      "texto_original": "100-man no Inochi no Ue ni Ore wa Tatteiru 2nd Season",
      "rating": 6.79,
      "classificacao_etaria": "A14",
      "imagem_original": "https://animefire.plus/img/animes/100-man-no-inochi-no-ue-ni-ore-wa-tatteiru-2nd-season.webp",
      "imagem_pasta": "https://animefire.plus/img/animes/100-man-no-inochi-no-ue-ni-ore-wa-tatteiru-2nd-season/",
      "secao": "legendados",
      "pagina": 41,
      "total_episodios": 7,
      "link_video": "https://animefire.plus/video/100-man-no-inochi-no-ue-ni-ore-wa-tatteiru-2nd-season"
    },
    {
      "id": 17,
      "nome": "100-man no Inochi no Ue ni Ore wa Tatteiru 2nd Season (Dublado)",
      "link": "https://animefire.plus/animes/100-man-no-inochi-no-ue-ni-ore-wa-tatteiru-2-dublado-todos-os-episodios",
      "texto_original": "100-man no Inochi no Ue ni Ore wa Tatteiru 2nd Season (Dublado)",
      "rating": 6.79,
      "classificacao_etaria": "A14",
      "imagem_original": "https://animefire.plus/img/animes/100-man-no-inochi-no-ue-ni-ore-wa-tatteiru-2.webp",
      "imagem_pasta": "https://animefire.plus/img/animes/100-man-no-inochi-no-ue-ni-ore-wa-tatteiru-2/",
      "secao": "dublados",
      "pagina": 16,
      "total_episodios": 5,
      "link_video": "https://animefire.plus/video/100-man-no-inochi-no-ue-ni-ore-wa-tatteiru-2-dublado"
    },
    {
      "id": 20,
      "nome": "16bit Sensation: Another Layer",
      "link": "https://animefire.plus/animes/16bit-sensation-another-layer-todos-os-episodios",
      "texto_original": "16bit Sensation: Another Layer",
      "rating": 6.89,
      "classificacao_etaria": "A14",
      "imagem_original": "https://animefire.plus/img/animes/16bit-sensation-another-layer.webp",
      "imagem_pasta": "https://animefire.plus/img/animes/16bit-sensation-another-layer/",
      "secao": "legendados",
      "pagina": 20,
      "total_episodios": 13,
      "link_video": "https://animefire.plus/video/16bit-sensation-another-layer"
    },
    {
      "id": 21,
      "nome": "180 Byou de Kimi no Mimi wo Shiawase ni Dekiru ka?",
      "link": "https://animefire.plus/animes/180-byou-de-kimi-no-mimi-wo-shiawase-ni-dekiru-ka-todos-os-episodios",
      "texto_original": "180 Byou de Kimi no Mimi wo Shiawase ni Dekiru ka?",
      "rating": 5.3,
      "classificacao_etaria": "A14",
      "imagem_original": "https://animefire.plus/img/animes/180-byou-de-kimi-no-mimi-wo-shiawase-ni-dekiru-ka.webp",
      "imagem_pasta": "https://animefire.plus/img/animes/180-byou-de-kimi-no-mimi-wo-shiawase-ni-dekiru-ka/",
      "secao": "legendados,lancamentos",
      "pagina": 38,
      "total_episodios": 6,
      "link_video": "https://animefire.plus/video/180-byou-de-kimi-no-mimi-wo-shiawase-ni-dekiru-ka"
    },
    {
      "id": 23,
      "nome": "2.43: Seiin Koukou Danshi Volley-bu",
      "link": "https://animefire.plus/animes/2-43-seiin-koukou-danshi-volley-bu-todos-os-episodios",
      "texto_original": "2.43: Seiin Koukou Danshi Volley-bu",
      "rating": 6.14,
      "classificacao_etaria": "A14",
      "imagem_original": "https://animefire.plus/img/animes/2-43-seiin-koukou-danshi-volley-bu.webp",
      "imagem_pasta": "https://animefire.plus/img/animes/2-43-seiin-koukou-danshi-volley-bu/",
      "secao": "legendados",
      "pagina": 49,
      "total_episodios": 12,
      "link_video": "https://animefire.plus/video/2-43-seiin-koukou-danshi-volley-bu"
    },
    {
      "id": 24,
      "nome": "2.5-jigen no Ririsa",
      "link": "https://animefire.plus/animes/2-5-jigen-no-ririsa-todos-os-episodios",
      "texto_original": "2.5-jigen no Ririsa",
      "rating": 7.42,
      "classificacao_etaria": "A14",
      "imagem_original": "https://animefire.plus/img/animes/2-5-jigen-no-ririsa.webp",
      "imagem_pasta": "https://animefire.plus/img/animes/2-5-jigen-no-ririsa/",
      "secao": "legendados",
      "pagina": 13,
      "total_episodios": 24,
      "link_video": "https://animefire.plus/video/2-5-jigen-no-ririsa"
    },
    {
      "id": 25,
      "nome": "22/7",
      "link": "https://animefire.plus/animes/22-7-todos-os-episodios",
      "texto_original": "22/7",
      "rating": 6.81,
      "classificacao_etaria": "A14",
      "imagem_original": "https://animefire.plus/img/animes/22-7.webp",
      "imagem_pasta": "https://animefire.plus/img/animes/22-7/",
      "secao": "legendados",
      "pagina": 92,
      "total_episodios": 11,
      "link_video": "https://animefire.plus/video/22-7"
    },
    {
      "id": 26,
      "nome": "22/7: 8＋3=?",
      "link": "https://animefire.plus/animes/22-7-8-3-todos-os-episodios",
      "texto_original": "22/7: 8＋3=?",
      "rating": 6.6,
      "classificacao_etaria": "A14",
      "imagem_original": "https://animefire.plus/img/animes/22-7-8-3.webp",
      "imagem_pasta": "https://animefire.plus/img/animes/22-7-8-3/",
      "secao": "legendados",
      "pagina": 53,
      "total_episodios": 1,
      "link_video": "https://animefire.plus/video/22-7-8-3"
    }
  ],
  "pagination": {
    "current_page": 1,
    "per_page": 20,
    "total_items": 2988,
    "total_pages": 150,
    "has_next": true,
    "has_prev": false
  }
}
