{
  "message": "Animes com classificação etária: A16",
  "age_rating": "A16",
  "data": [
    {
      "id": 638,
      "nome": "Chu Feng: B.E.E",
      "link": "https://animefire.plus/animes/chu-feng-b-e-e-todos-os-episodios",
      "texto_original": "Chu Feng: B.E.E",
      "rating": 5.99,
      "classificacao_etaria": "A16",
      "imagem_original": "https://animefire.plus/img/animes/chu-feng-b-e-e.webp",
      "imagem_pasta": "https://animefire.plus/img/animes/chu-feng-b-e-e/",
      "secao": "legendados",
      "pagina": 154,
      "total_episodios": 6,
      "link_video": "https://animefire.plus/video/chu-feng-b-e-e"
    },
    {
      "id": 667,
      "nome": "Clevatess: Majuu no Ou to Akago to Shikabane no Yuusha (Dublado)",
      "link": "https://animefire.plus/animes/clevatess-majuu-no-ou-to-akago-to-shikabane-no-yuusha-dublado-todos-os-episodios",
      "texto_original": "Clevatess: Majuu no Ou to Akago to Shikabane no Yuusha (Dublado)",
      "rating": 7.92,
      "classificacao_etaria": "A16",
      "imagem_original": "https://animefire.plus/img/animes/clevatess-majuu-no-ou-to-akago-to-shikabane-no-yuusha.webp",
      "imagem_pasta": "https://animefire.plus/img/animes/clevatess-majuu-no-ou-to-akago-to-shikabane-no-yuusha/",
      "secao": "dublados,legendados,lancamentos",
      "pagina": 1,
      "total_episodios": 5,
      "link_video": "https://animefire.plus/video/clevatess-majuu-no-ou-to-akago-to-shikabane-no-yuusha-dublado"
    },
    {
      "id": 674,
      "nome": "Code Geass: Dakkan no Rozé",
      "link": "https://animefire.plus/animes/code-geass-dakkan-no-roze-todos-os-episodios",
      "texto_original": "Code Geass: Dakkan no Rozé",
      "rating": 6.52,
      "classificacao_etaria": "A16",
      "imagem_original": "https://animefire.plus/img/animes/code-geass-dakkan-no-roze.webp",
      "imagem_pasta": "https://animefire.plus/img/animes/code-geass-dakkan-no-roze/",
      "secao": "legendados",
      "pagina": 12,
      "total_episodios": 12,
      "link_video": "https://animefire.plus/video/code-geass-dakkan-no-roze"
    },
    {
      "id": 675,
      "nome": "Code Geass: Hangyaku no Lelouch",
      "link": "https://animefire.plus/animes/code-geass-hangyaku-no-lelouch-todos-os-episodios",
      "texto_original": "Code Geass: Hangyaku no Lelouch",
      "rating": 8.77,
      "classificacao_etaria": "A16",
      "imagem_original": "https://animefire.plus/img/animes/code-geass-hangyaku-no-lelouch.webp",
      "imagem_pasta": "https://animefire.plus/img/animes/code-geass-hangyaku-no-lelouch/",
      "secao": "legendados",
      "pagina": 154,
      "total_episodios": 25,
      "link_video": "https://animefire.plus/video/code-geass-hangyaku-no-lelouch"
    },
    {
      "id": 676,
      "nome": "Code Geass: Hangyaku no Lelouch R2",
      "link": "https://animefire.plus/animes/code-geass-hangyaku-no-lelouch-r2-todos-os-episodios",
      "texto_original": "Code Geass: Hangyaku no Lelouch R2",
      "rating": 8.93,
      "classificacao_etaria": "A16",
      "imagem_original": "https://animefire.plus/img/animes/code-geass-hangyaku-no-lelouch-r2.webp",
      "imagem_pasta": "https://animefire.plus/img/animes/code-geass-hangyaku-no-lelouch-r2/",
      "secao": "legendados",
      "pagina": 176,
      "total_episodios": 25,
      "link_video": "https://animefire.plus/video/code-geass-hangyaku-no-lelouch-r2"
    },
    {
      "id": 678,
      "nome": "Code:Breaker",
      "link": "https://animefire.plus/animes/code-breaker-todos-os-episodios",
      "texto_original": "Code:Breaker",
      "rating": 6.93,
      "classificacao_etaria": "A16",
      "imagem_original": "https://animefire.plus/img/animes/code-breaker.webp",
      "imagem_pasta": "https://animefire.plus/img/animes/code-breaker/",
      "secao": "legendados",
      "pagina": 163,
      "total_episodios": 13,
      "link_video": "https://animefire.plus/video/code-breaker"
    },
    {
      "id": 690,
      "nome": "Cop Craft",
      "link": "https://animefire.plus/animes/cop-craft-todos-os-episodios",
      "texto_original": "Cop Craft",
      "rating": 6.74,
      "classificacao_etaria": "A16",
      "imagem_original": "https://animefire.plus/img/animes/cop-craft.webp",
      "imagem_pasta": "https://animefire.plus/img/animes/cop-craft/",
      "secao": "legendados",
      "pagina": 129,
      "total_episodios": 5,
      "link_video": "https://animefire.plus/video/cop-craft"
    },
    {
      "id": 693,
      "nome": "Corpse Party: Missing Footage",
      "link": "https://animefire.plus/animes/corpse-party-missing-footage-todos-os-episodios",
      "texto_original": "Corpse Party: Missing Footage",
      "rating": 6.25,
      "classificacao_etaria": "A16",
      "imagem_original": "https://animefire.plus/img/animes/corpse-party-missing-footage.webp",
      "imagem_pasta": "https://animefire.plus/img/animes/corpse-party-missing-footage/",
      "secao": "legendados",
      "pagina": 102,
      "total_episodios": 0,
      "link_video": "https://animefire.plus/video/corpse-party-missing-footage"
    },
    {
      "id": 694,
      "nome": "Corpse Party: Tortured Souls - Bougyakusareta Tamashii no Jukyou",
      "link": "https://animefire.plus/animes/corpse-party-tortured-souls---bougyakusareta-tamashii-no-jukyou-todos-os-episodios",
      "texto_original": "Corpse Party: Tortured Souls - Bougyakusareta Tamashii no Jukyou",
      "rating": 6.87,
      "classificacao_etaria": "A16",
      "imagem_original": "https://animefire.plus/img/animes/corpse-party-tortured-souls---bougyakusareta-tamashii-no-jukyou.webp",
      "imagem_pasta": "https://animefire.plus/img/animes/corpse-party-tortured-souls---bougyakusareta-tamashii-no-jukyou/",
      "secao": "legendados",
      "pagina": 105,
      "total_episodios": 4,
      "link_video": "https://animefire.plus/video/corpse-party-tortured-souls---bougyakusareta-tamashii-no-jukyou"
    },
    {
      "id": 698,
      "nome": "Cossette no Shouzou",
      "link": "https://animefire.plus/animes/cossette-no-shouzou-todos-os-episodios",
      "texto_original": "Cossette no Shouzou",
      "rating": 6.87,
      "classificacao_etaria": "A16",
      "imagem_original": "https://animefire.plus/img/animes/cossette-no-shouzou.webp",
      "imagem_pasta": "https://animefire.plus/img/animes/cossette-no-shouzou/",
      "secao": "legendados",
      "pagina": 57,
      "total_episodios": 3,
      "link_video": "https://animefire.plus/video/cossette-no-shouzou"
    },
    {
      "id": 699,
      "nome": "Cowboy Bebop (Dublado)",
      "link": "https://animefire.plus/animes/cowboy-bebop-dublado-todos-os-episodios",
      "texto_original": "Cowboy Bebop (Dublado)",
      "rating": 8.77,
      "classificacao_etaria": "A16",
      "imagem_original": "https://animefire.plus/img/animes/cowboy-bebop.webp",
      "imagem_pasta": "https://animefire.plus/img/animes/cowboy-bebop/",
      "secao": "dublados,legendados",
      "pagina": 15,
      "total_episodios": 3,
      "link_video": "https://animefire.plus/video/cowboy-bebop-dublado"
    },
    {
      "id": 701,
      "nome": "Cross Ange: Tenshi to Ryuu no Rondo",
      "link": "https://animefire.plus/animes/cross-ange-tenshi-to-ryuu-no-rondo-todos-os-episodios",
      "texto_original": "Cross Ange: Tenshi to Ryuu no Rondo",
      "rating": 7.44,
      "classificacao_etaria": "A16",
      "imagem_original": "https://animefire.plus/img/animes/cross-ange-tenshi-to-ryuu-no-rondo.webp",
      "imagem_pasta": "https://animefire.plus/img/animes/cross-ange-tenshi-to-ryuu-no-rondo/",
      "secao": "legendados",
      "pagina": 76,
      "total_episodios": 25,
      "link_video": "https://animefire.plus/video/cross-ange-tenshi-to-ryuu-no-rondo"
    },
    {
      "id": 705,
      "nome": "Crystal Blaze",
      "link": "https://animefire.plus/animes/crystal-blaze-todos-os-episodios",
      "texto_original": "Crystal Blaze",
      "rating": 6.19,
      "classificacao_etaria": "A16",
      "imagem_original": "https://animefire.plus/img/animes/crystal-blaze.webp",
      "imagem_pasta": "https://animefire.plus/img/animes/crystal-blaze/",
      "secao": "legendados",
      "pagina": 123,
      "total_episodios": 12,
      "link_video": "https://animefire.plus/video/crystal-blaze"
    },
    {
      "id": 708,
      "nome": "Cutie Honey Universe",
      "link": "https://animefire.plus/animes/cutie-honey-universe-todos-os-episodios",
      "texto_original": "Cutie Honey Universe",
      "rating": 5.5,
      "classificacao_etaria": "A16",
      "imagem_original": "https://animefire.plus/img/animes/cutie-honey-universe.webp",
      "imagem_pasta": "https://animefire.plus/img/animes/cutie-honey-universe/",
      "secao": "legendados",
      "pagina": 155,
      "total_episodios": 12,
      "link_video": "https://animefire.plus/video/cutie-honey-universe"
    },
    {
      "id": 718,
      "nome": "D.Gray-man Hallow",
      "link": "https://animefire.plus/animes/d-gray-man-hallow-todos-os-episodios",
      "texto_original": "D.Gray-man Hallow",
      "rating": 7.82,
      "classificacao_etaria": "A16",
      "imagem_original": "https://animefire.plus/img/animes/d-gray-man-hallow.webp",
      "imagem_pasta": "https://animefire.plus/img/animes/d-gray-man-hallow/",
      "secao": "legendados",
      "pagina": 90,
      "total_episodios": 13,
      "link_video": "https://animefire.plus/video/d-gray-man-hallow"
    },
    {
      "id": 727,
      "nome": "Dai Mahou Touge",
      "link": "https://animefire.plus/animes/dai-mahou-touge-todos-os-episodios",
      "texto_original": "Dai Mahou Touge",
      "rating": 7.02,
      "classificacao_etaria": "A16",
      "imagem_original": "https://animefire.plus/img/animes/dai-mahou-touge.webp",
      "imagem_pasta": "https://animefire.plus/img/animes/dai-mahou-touge/",
      "secao": "legendados",
      "pagina": 99,
      "total_episodios": 4,
      "link_video": "https://animefire.plus/video/dai-mahou-touge"
    },
    {
      "id": 737,
      "nome": "Dance with Devils",
      "link": "https://animefire.plus/animes/dance-with-devils-todos-os-episodios",
      "texto_original": "Dance with Devils",
      "rating": 6.64,
      "classificacao_etaria": "A16",
      "imagem_original": "https://animefire.plus/img/animes/dance-with-devils.webp",
      "imagem_pasta": "https://animefire.plus/img/animes/dance-with-devils/",
      "secao": "legendados",
      "pagina": 118,
      "total_episodios": 12,
      "link_video": "https://animefire.plus/video/dance-with-devils"
    },
    {
      "id": 739,
      "nome": "Dandadan (Dublado)",
      "link": "https://animefire.plus/animes/dandadan-dublado-todos-os-episodios",
      "texto_original": "Dandadan (Dublado)",
      "rating": 8.48,
      "classificacao_etaria": "A16",
      "imagem_original": "https://animefire.plus/img/animes/dandadan.webp",
      "imagem_pasta": "https://animefire.plus/img/animes/dandadan/",
      "secao": "dublados,legendados",
      "pagina": 2,
      "total_episodios": 12,
      "link_video": "https://animefire.plus/video/dandadan-dublado"
    },
    {
      "id": 740,
      "nome": "Dandadan 2nd Season (Dublado)",
      "link": "https://animefire.plus/animes/dandadan-2nd-season-dublado-todos-os-episodios",
      "texto_original": "Dandadan 2nd Season (Dublado)",
      "rating": 8.49,
      "classificacao_etaria": "A16",
      "imagem_original": "https://animefire.plus/img/animes/dandadan-2nd-season.webp",
      "imagem_pasta": "https://animefire.plus/img/animes/dandadan-2nd-season/",
      "secao": "dublados,legendados,lancamentos",
      "pagina": 1,
      "total_episodios": 5,
      "link_video": "https://animefire.plus/video/dandadan-2nd-season-dublado"
    },
    {
      "id": 741,
      "nome": "Danganronpa 3: The End of Kibougamine Gakuen - Mirai-hen",
      "link": "https://animefire.plus/animes/danganronpa-3-the-end-of-kibougamine-gakuen---mirai-hen-todos-os-episodios",
      "texto_original": "Danganronpa 3: The End of Kibougamine Gakuen - Mirai-hen",
      "rating": 7.57,
      "classificacao_etaria": "A16",
      "imagem_original": "https://animefire.plus/img/animes/danganronpa-3-the-end-of-kibougamine-gakuen---mirai-hen.webp",
      "imagem_pasta": "https://animefire.plus/img/animes/danganronpa-3-the-end-of-kibougamine-gakuen---mirai-hen/",
      "secao": "legendados",
      "pagina": 155,
      "total_episodios": 0,
      "link_video": "https://animefire.plus/video/danganronpa-3-the-end-of-kibougamine-gakuen---mirai-hen"
    }
  ],
  "pagination": {
    "current_page": 6,
    "per_page": 20,
    "total_items": 708,
    "total_pages": 36,
    "has_next": true,
    "has_prev": true
  }
}
