{
  "message": "Animes com classificação etária: A16",
  "age_rating": "A16",
  "data": [
    {
      "id": 1343,
      "nome": "Hametsu no Mars",
      "link": "https://animefire.plus/animes/hametsu-no-mars-todos-os-episodios",
      "texto_original": "Hametsu no Mars",
      "rating": 2.31,
      "classificacao_etaria": "A16",
      "imagem_original": "https://animefire.plus/img/animes/hametsu-no-mars.webp",
      "imagem_pasta": "https://animefire.plus/img/animes/hametsu-no-mars/",
      "secao": "legendados",
      "pagina": 89,
      "total_episodios": 1,
      "link_video": "https://animefire.plus/video/hametsu-no-mars"
    },
    {
      "id": 1344,
      "nome": "Hametsu no Oukoku",
      "link": "https://animefire.plus/animes/hametsu-no-oukoku-todos-os-episodios",
      "texto_original": "Hametsu no Oukoku",
      "rating": 6.22,
      "classificacao_etaria": "A16",
      "imagem_original": "https://animefire.plus/img/animes/hametsu-no-oukoku.webp",
      "imagem_pasta": "https://animefire.plus/img/animes/hametsu-no-oukoku/",
      "secao": "legendados",
      "pagina": 21,
      "total_episodios": 12,
      "link_video": "https://animefire.plus/video/hametsu-no-oukoku"
    },
    {
      "id": 1351,
      "nome": "Hanamonogatari",
      "link": "https://animefire.plus/animes/hanamonogatari-todos-os-episodios",
      "texto_original": "Hanamonogatari",
      "rating": 8.05,
      "classificacao_etaria": "A16",
      "imagem_original": "https://animefire.plus/img/animes/hanamonogatari.webp",
      "imagem_pasta": "https://animefire.plus/img/animes/hanamonogatari/",
      "secao": "legendados",
      "pagina": 175,
      "total_episodios": 5,
      "link_video": "https://animefire.plus/video/hanamonogatari"
    },
    {
      "id": 1367,
      "nome": "Hanma Baki: Son of Ogre (Dublado)",
      "link": "https://animefire.plus/animes/hanma-baki-son-of-ogre-dublado-todos-os-episodios",
      "texto_original": "Hanma Baki: Son of Ogre (Dublado)",
      "rating": 7.64,
      "classificacao_etaria": "A16",
      "imagem_original": "https://animefire.plus/img/animes/hanma-baki-son-of-ogre.webp",
      "imagem_pasta": "https://animefire.plus/img/animes/hanma-baki-son-of-ogre/",
      "secao": "dublados,legendados",
      "pagina": 15,
      "total_episodios": 12,
      "link_video": "https://animefire.plus/video/hanma-baki-son-of-ogre-dublado"
    },
    {
      "id": 1368,
      "nome": "Hanma Baki: Son of Ogre 2nd Season (Dublado)",
      "link": "https://animefire.plus/animes/hanma-baki-son-of-ogre-2nd-season-dublado-todos-os-episodios",
      "texto_original": "Hanma Baki: Son of Ogre 2nd Season (Dublado)",
      "rating": 7.94,
      "classificacao_etaria": "A16",
      "imagem_original": "https://animefire.plus/img/animes/hanma-baki-son-of-ogre-2nd-season.webp",
      "imagem_pasta": "https://animefire.plus/img/animes/hanma-baki-son-of-ogre-2nd-season/",
      "secao": "dublados,legendados",
      "pagina": 6,
      "total_episodios": 27,
      "link_video": "https://animefire.plus/video/hanma-baki-son-of-ogre-2nd-season-dublado"
    },
    {
      "id": 1375,
      "nome": "Happy Sugar Life",
      "link": "https://animefire.plus/animes/happy-sugar-life-todos-os-episodios",
      "texto_original": "Happy Sugar Life",
      "rating": 7.04,
      "classificacao_etaria": "A16",
      "imagem_original": "https://animefire.plus/img/animes/happy-sugar-life.webp",
      "imagem_pasta": "https://animefire.plus/img/animes/happy-sugar-life/",
      "secao": "legendados",
      "pagina": 142,
      "total_episodios": 12,
      "link_video": "https://animefire.plus/video/happy-sugar-life"
    },
    {
      "id": 1379,
      "nome": "Hashi no Mukou",
      "link": "https://animefire.plus/animes/hashi-no-mukou-todos-os-episodios",
      "texto_original": "Hashi no Mukou",
      "rating": 5.94,
      "classificacao_etaria": "A16",
      "imagem_original": "https://animefire.plus/img/animes/hashi-no-mukou.webp",
      "imagem_pasta": "https://animefire.plus/img/animes/hashi-no-mukou/",
      "secao": "legendados",
      "pagina": 56,
      "total_episodios": 1,
      "link_video": "https://animefire.plus/video/hashi-no-mukou"
    },
    {
      "id": 1405,
      "nome": "Heartcatch Precure!",
      "link": "https://animefire.plus/animes/heartcatch-precure-todos-os-episodios",
      "texto_original": "Heartcatch Precure!",
      "rating": 7.82,
      "classificacao_etaria": "A16",
      "imagem_original": "https://animefire.plus/img/animes/heartcatch-precure.webp",
      "imagem_pasta": "https://animefire.plus/img/animes/heartcatch-precure/",
      "secao": "legendados",
      "pagina": 67,
      "total_episodios": 49,
      "link_video": "https://animefire.plus/video/heartcatch-precure"
    },
    {
      "id": 1410,
      "nome": "Heion Sedai no Idaten-tachi",
      "link": "https://animefire.plus/animes/heion-sedai-no-idaten-tachi-todos-os-episodios",
      "texto_original": "Heion Sedai no Idaten-tachi",
      "rating": 7.61,
      "classificacao_etaria": "A16",
      "imagem_original": "https://animefire.plus/img/animes/heion-sedai-no-idaten-tachi.webp",
      "imagem_pasta": "https://animefire.plus/img/animes/heion-sedai-no-idaten-tachi/",
      "secao": "legendados",
      "pagina": 45,
      "total_episodios": 11,
      "link_video": "https://animefire.plus/video/heion-sedai-no-idaten-tachi"
    },
    {
      "id": 1414,
      "nome": "Hellsing (Dublado)",
      "link": "https://animefire.plus/animes/hellsing-dublado-todos-os-episodios",
      "texto_original": "Hellsing (Dublado)",
      "rating": 7.58,
      "classificacao_etaria": "A16",
      "imagem_original": "https://animefire.plus/img/animes/hellsing.webp",
      "imagem_pasta": "https://animefire.plus/img/animes/hellsing/",
      "secao": "dublados,legendados",
      "pagina": 26,
      "total_episodios": 13,
      "link_video": "https://animefire.plus/video/hellsing-dublado"
    },
    {
      "id": 1415,
      "nome": "Hellsing Ultimate",
      "link": "https://animefire.plus/animes/hellsing-ultimate-todos-os-episodios",
      "texto_original": "Hellsing Ultimate",
      "rating": 8.44,
      "classificacao_etaria": "A16",
      "imagem_original": "https://animefire.plus/img/animes/hellsing-ultimate.webp",
      "imagem_pasta": "https://animefire.plus/img/animes/hellsing-ultimate/",
      "secao": "legendados",
      "pagina": 72,
      "total_episodios": 13,
      "link_video": "https://animefire.plus/video/hellsing-ultimate"
    },
    {
      "id": 1416,
      "nome": "Hellsing: The Dawn",
      "link": "https://animefire.plus/animes/hellsing-the-dawn-todos-os-episodios",
      "texto_original": "Hellsing: The Dawn",
      "rating": 7.28,
      "classificacao_etaria": "A16",
      "imagem_original": "https://animefire.plus/img/animes/hellsing-the-dawn.webp",
      "imagem_pasta": "https://animefire.plus/img/animes/hellsing-the-dawn/",
      "secao": "legendados",
      "pagina": 96,
      "total_episodios": 3,
      "link_video": "https://animefire.plus/video/hellsing-the-dawn"
    },
    {
      "id": 1421,
      "nome": "Heppoko Jikken Animation Excel♥Saga (Dublado)",
      "link": "https://animefire.plus/animes/heppoko-jikken-animation-excel-saga-dublado-todos-os-episodios",
      "texto_original": "Heppoko Jikken Animation Excel♥Saga (Dublado)",
      "rating": 7.51,
      "classificacao_etaria": "A16",
      "imagem_original": "https://animefire.plus/img/animes/heppoko-jikken-animation-excel-saga.webp",
      "imagem_pasta": "https://animefire.plus/img/animes/heppoko-jikken-animation-excel-saga/",
      "secao": "dublados,legendados",
      "pagina": 22,
      "total_episodios": 26,
      "link_video": "https://animefire.plus/video/heppoko-jikken-animation-excel-saga-dublado"
    },
    {
      "id": 1423,
      "nome": "Hero Mask (2019) (Dublado)",
      "link": "https://animefire.plus/animes/hero-mask-2019-dublado-todos-os-episodios",
      "texto_original": "Hero Mask (2019) (Dublado)",
      "rating": 6.61,
      "classificacao_etaria": "A16",
      "imagem_original": "https://animefire.plus/img/animes/hero-mask-2019.webp",
      "imagem_pasta": "https://animefire.plus/img/animes/hero-mask-2019/",
      "secao": "dublados,legendados",
      "pagina": 21,
      "total_episodios": 9,
      "link_video": "https://animefire.plus/video/hero-mask-2019-dublado"
    },
    {
      "id": 1424,
      "nome": "Hero Mask (Dublado)",
      "link": "https://animefire.plus/animes/hero-mask-dublado-todos-os-episodios",
      "texto_original": "Hero Mask (Dublado)",
      "rating": 6.39,
      "classificacao_etaria": "A16",
      "imagem_original": "https://animefire.plus/img/animes/hero-mask.webp",
      "imagem_pasta": "https://animefire.plus/img/animes/hero-mask/",
      "secao": "dublados,legendados",
      "pagina": 25,
      "total_episodios": 15,
      "link_video": "https://animefire.plus/video/hero-mask-dublado"
    },
    {
      "id": 1448,
      "nome": "Higashi No Eden",
      "link": "https://animefire.plus/animes/higashi-no-eden-todos-os-episodios",
      "texto_original": "Higashi No Eden",
      "rating": 7.9,
      "classificacao_etaria": "A16",
      "imagem_original": "https://animefire.plus/img/animes/higashi-no-eden.webp",
      "imagem_pasta": "https://animefire.plus/img/animes/higashi-no-eden/",
      "secao": "legendados",
      "pagina": 104,
      "total_episodios": 11,
      "link_video": "https://animefire.plus/video/higashi-no-eden"
    },
    {
      "id": 1452,
      "nome": "High Card",
      "link": "https://animefire.plus/animes/high-card-todos-os-episodios",
      "texto_original": "High Card",
      "rating": 7.16,
      "classificacao_etaria": "A16",
      "imagem_original": "https://animefire.plus/img/animes/high-card.webp",
      "imagem_pasta": "https://animefire.plus/img/animes/high-card/",
      "secao": "legendados",
      "pagina": 27,
      "total_episodios": 12,
      "link_video": "https://animefire.plus/video/high-card"
    },
    {
      "id": 1453,
      "nome": "High Card Season 2",
      "link": "https://animefire.plus/animes/high-card-season-2-todos-os-episodios",
      "texto_original": "High Card Season 2",
      "rating": 7.03,
      "classificacao_etaria": "A16",
      "imagem_original": "https://animefire.plus/img/animes/high-card-season-2.webp",
      "imagem_pasta": "https://animefire.plus/img/animes/high-card-season-2/",
      "secao": "legendados",
      "pagina": 17,
      "total_episodios": 12,
      "link_video": "https://animefire.plus/video/high-card-season-2"
    },
    {
      "id": 1465,
      "nome": "Higurashi no Naku Koro ni",
      "link": "https://animefire.plus/animes/higurashi-no-naku-koro-ni-todos-os-episodios",
      "texto_original": "Higurashi no Naku Koro ni",
      "rating": 8.06,
      "classificacao_etaria": "A16",
      "imagem_original": "https://animefire.plus/img/animes/higurashi-no-naku-koro-ni.webp",
      "imagem_pasta": "https://animefire.plus/img/animes/higurashi-no-naku-koro-ni/",
      "secao": "legendados",
      "pagina": 116,
      "total_episodios": 26,
      "link_video": "https://animefire.plus/video/higurashi-no-naku-koro-ni"
    },
    {
      "id": 1466,
      "nome": "Higurashi no Naku Koro ni (2020)",
      "link": "https://animefire.plus/animes/higurashi-no-naku-koro-ni-2020-todos-os-episodios",
      "texto_original": "Higurashi no Naku Koro ni (2020)",
      "rating": null,
      "classificacao_etaria": "A16",
      "imagem_original": "https://animefire.plus/img/animes/higurashi-no-naku-koro-ni-2020.webp",
      "imagem_pasta": "https://animefire.plus/img/animes/higurashi-no-naku-koro-ni-2020/",
      "secao": "legendados",
      "pagina": 52,
      "total_episodios": 24,
      "link_video": "https://animefire.plus/video/higurashi-no-naku-koro-ni-2020"
    }
  ],
  "pagination": {
    "current_page": 14,
    "per_page": 20,
    "total_items": 708,
    "total_pages": 36,
    "has_next": true,
    "has_prev": true
  }
}
