{
  "message": "Animes com classificação etária: A16",
  "age_rating": "A16",
  "data": [
    {
      "id": 3780,
      "nome": "Tenjou Tenge",
      "link": "https://animefire.plus/animes/tenjou-tenge-todos-os-episodios",
      "texto_original": "Tenjou Tenge",
      "rating": 7.03,
      "classificacao_etaria": "A16",
      "imagem_original": "https://animefire.plus/img/animes/tenjou-tenge.webp",
      "imagem_pasta": "https://animefire.plus/img/animes/tenjou-tenge/",
      "secao": "legendados",
      "pagina": 128,
      "total_episodios": 15,
      "link_video": "https://animefire.plus/video/tenjou-tenge"
    },
    {
      "id": 3784,
      "nome": "Tenkuu Shinpan (Dublado)",
      "link": "https://animefire.plus/animes/tenkuu-shinpan-dublado-todos-os-episodios",
      "texto_original": "Tenkuu Shinpan (Dublado)",
      "rating": 6.68,
      "classificacao_etaria": "A16",
      "imagem_original": "https://animefire.plus/img/animes/tenkuu-shinpan.webp",
      "imagem_pasta": "https://animefire.plus/img/animes/tenkuu-shinpan/",
      "secao": "dublados,legendados",
      "pagina": 18,
      "total_episodios": 12,
      "link_video": "https://animefire.plus/video/tenkuu-shinpan-dublado"
    },
    {
      "id": 3814,
      "nome": "Teppen",
      "link": "https://animefire.plus/animes/teppen-todos-os-episodios",
      "texto_original": "Teppen",
      "rating": null,
      "classificacao_etaria": "A16",
      "imagem_original": "https://animefire.plus/img/animes/teppen.webp",
      "imagem_pasta": "https://animefire.plus/img/animes/teppen/",
      "secao": "legendados",
      "pagina": 32,
      "total_episodios": 0,
      "link_video": "https://animefire.plus/video/teppen"
    },
    {
      "id": 3816,
      "nome": "Terminator 0",
      "link": "https://animefire.plus/animes/terminator-0-todos-os-episodios",
      "texto_original": "Terminator 0",
      "rating": 7.1,
      "classificacao_etaria": "A16",
      "imagem_original": "https://animefire.plus/img/animes/terminator-0.webp",
      "imagem_pasta": "https://animefire.plus/img/animes/terminator-0/",
      "secao": "legendados",
      "pagina": 10,
      "total_episodios": 8,
      "link_video": "https://animefire.plus/video/terminator-0"
    },
    {
      "id": 3817,
      "nome": "Terra Formars",
      "link": "https://animefire.plus/animes/terra-formars-todos-os-episodios",
      "texto_original": "Terra Formars",
      "rating": 7.11,
      "classificacao_etaria": "A16",
      "imagem_original": "https://animefire.plus/img/animes/terra-formars.webp",
      "imagem_pasta": "https://animefire.plus/img/animes/terra-formars/",
      "secao": "legendados",
      "pagina": 99,
      "total_episodios": 0,
      "link_video": "https://animefire.plus/video/terra-formars"
    },
    {
      "id": 3818,
      "nome": "Terra Formars Revenge",
      "link": "https://animefire.plus/animes/terra-formars-revenge-todos-os-episodios",
      "texto_original": "Terra Formars Revenge",
      "rating": 6.82,
      "classificacao_etaria": "A16",
      "imagem_original": "https://animefire.plus/img/animes/terra-formars-revenge.webp",
      "imagem_pasta": "https://animefire.plus/img/animes/terra-formars-revenge/",
      "secao": "legendados",
      "pagina": 97,
      "total_episodios": 1,
      "link_video": "https://animefire.plus/video/terra-formars-revenge"
    },
    {
      "id": 3822,
      "nome": "Tetsuwan Birdy Decode:02",
      "link": "https://animefire.plus/animes/tetsuwan-birdy-decode-02-todos-os-episodios",
      "texto_original": "Tetsuwan Birdy Decode:02",
      "rating": 7.79,
      "classificacao_etaria": "A16",
      "imagem_original": "https://animefire.plus/img/animes/tetsuwan-birdy-decode-02.webp",
      "imagem_pasta": "https://animefire.plus/img/animes/tetsuwan-birdy-decode-02/",
      "secao": "legendados",
      "pagina": 166,
      "total_episodios": 2,
      "link_video": "https://animefire.plus/video/tetsuwan-birdy-decode-02"
    },
    {
      "id": 3824,
      "nome": "The Animatrix (Dublado)",
      "link": "https://animefire.plus/animes/the-animatrix-dublado-todos-os-episodios",
      "texto_original": "The Animatrix (Dublado)",
      "rating": 7.32,
      "classificacao_etaria": "A16",
      "imagem_original": "https://animefire.plus/img/animes/the-animatrix.webp",
      "imagem_pasta": "https://animefire.plus/img/animes/the-animatrix/",
      "secao": "dublados,legendados",
      "pagina": 27,
      "total_episodios": 9,
      "link_video": "https://animefire.plus/video/the-animatrix-dublado"
    },
    {
      "id": 3843,
      "nome": "The Third: Aoi Hitomi No Shoujo",
      "link": "https://animefire.plus/animes/the-third-aoi-hitomi-no-shoujo-todos-os-episodios",
      "texto_original": "The Third: Aoi Hitomi No Shoujo",
      "rating": 7.37,
      "classificacao_etaria": "A16",
      "imagem_original": "https://animefire.plus/img/animes/the-third-aoi-hitomi-no-shoujo.webp",
      "imagem_pasta": "https://animefire.plus/img/animes/the-third-aoi-hitomi-no-shoujo/",
      "secao": "legendados",
      "pagina": 108,
      "total_episodios": 15,
      "link_video": "https://animefire.plus/video/the-third-aoi-hitomi-no-shoujo"
    },
    {
      "id": 3859,
      "nome": "Toaru Kagaku no Accelerator",
      "link": "https://animefire.plus/animes/toaru-kagaku-no-accelerator-todos-os-episodios",
      "texto_original": "Toaru Kagaku no Accelerator",
      "rating": 7.18,
      "classificacao_etaria": "A16",
      "imagem_original": "https://animefire.plus/img/animes/toaru-kagaku-no-accelerator.webp",
      "imagem_pasta": "https://animefire.plus/img/animes/toaru-kagaku-no-accelerator/",
      "secao": "legendados",
      "pagina": 176,
      "total_episodios": 2,
      "link_video": "https://animefire.plus/video/toaru-kagaku-no-accelerator"
    },
    {
      "id": 3861,
      "nome": "Toaru Kagaku no Railgun S",
      "link": "https://animefire.plus/animes/toaru-kagaku-no-railgun-s-todos-os-episodios",
      "texto_original": "Toaru Kagaku no Railgun S",
      "rating": 8.11,
      "classificacao_etaria": "A16",
      "imagem_original": "https://animefire.plus/img/animes/toaru-kagaku-no-railgun-s.webp",
      "imagem_pasta": "https://animefire.plus/img/animes/toaru-kagaku-no-railgun-s/",
      "secao": "legendados",
      "pagina": 150,
      "total_episodios": 0,
      "link_video": "https://animefire.plus/video/toaru-kagaku-no-railgun-s"
    },
    {
      "id": 3864,
      "nome": "Toaru Kagaku no Railgun T",
      "link": "https://animefire.plus/animes/toaru-kagaku-no-railgun-t-todos-os-episodios",
      "texto_original": "Toaru Kagaku no Railgun T",
      "rating": 8.25,
      "classificacao_etaria": "A16",
      "imagem_original": "https://animefire.plus/img/animes/toaru-kagaku-no-railgun-t.webp",
      "imagem_pasta": "https://animefire.plus/img/animes/toaru-kagaku-no-railgun-t/",
      "secao": "legendados",
      "pagina": 92,
      "total_episodios": 1,
      "link_video": "https://animefire.plus/video/toaru-kagaku-no-railgun-t"
    },
    {
      "id": 3865,
      "nome": "Toaru Majutsu no Index (Dublado)",
      "link": "https://animefire.plus/animes/toaru-majutsu-no-index-dublado-todos-os-episodios",
      "texto_original": "Toaru Majutsu no Index (Dublado)",
      "rating": 7.49,
      "classificacao_etaria": "A16",
      "imagem_original": "https://animefire.plus/img/animes/toaru-majutsu-no-index.webp",
      "imagem_pasta": "https://animefire.plus/img/animes/toaru-majutsu-no-index/",
      "secao": "dublados,legendados",
      "pagina": 20,
      "total_episodios": 24,
      "link_video": "https://animefire.plus/video/toaru-majutsu-no-index-dublado"
    },
    {
      "id": 3866,
      "nome": "Toaru Majutsu no Index II",
      "link": "https://animefire.plus/animes/toaru-majutsu-no-index-ii-todos-os-episodios",
      "texto_original": "Toaru Majutsu no Index II",
      "rating": 7.74,
      "classificacao_etaria": "A16",
      "imagem_original": "https://animefire.plus/img/animes/toaru-majutsu-no-index-ii.webp",
      "imagem_pasta": "https://animefire.plus/img/animes/toaru-majutsu-no-index-ii/",
      "secao": "legendados",
      "pagina": 170,
      "total_episodios": 18,
      "link_video": "https://animefire.plus/video/toaru-majutsu-no-index-ii"
    },
    {
      "id": 3872,
      "nome": "Togainu no Chi",
      "link": "https://animefire.plus/animes/togainu-no-chi-todos-os-episodios",
      "texto_original": "Togainu no Chi",
      "rating": 6.38,
      "classificacao_etaria": "A16",
      "imagem_original": "https://animefire.plus/img/animes/togainu-no-chi.webp",
      "imagem_pasta": "https://animefire.plus/img/animes/togainu-no-chi/",
      "secao": "legendados",
      "pagina": 175,
      "total_episodios": 12,
      "link_video": "https://animefire.plus/video/togainu-no-chi"
    },
    {
      "id": 3879,
      "nome": "Tokkou",
      "link": "https://animefire.plus/animes/tokkou-todos-os-episodios",
      "texto_original": "Tokkou",
      "rating": 6.65,
      "classificacao_etaria": "A16",
      "imagem_original": "https://animefire.plus/img/animes/tokkou.webp",
      "imagem_pasta": "https://animefire.plus/img/animes/tokkou/",
      "secao": "legendados",
      "pagina": 150,
      "total_episodios": 13,
      "link_video": "https://animefire.plus/video/tokkou"
    },
    {
      "id": 3881,
      "nome": "Tokyo Ghoul (Dublado)",
      "link": "https://animefire.plus/animes/tokyo-ghoul-dublado-todos-os-episodios",
      "texto_original": "Tokyo Ghoul (Dublado)",
      "rating": 7.82,
      "classificacao_etaria": "A16",
      "imagem_original": "https://animefire.plus/img/animes/tokyo-ghoul.webp",
      "imagem_pasta": "https://animefire.plus/img/animes/tokyo-ghoul/",
      "secao": "dublados,legendados",
      "pagina": 19,
      "total_episodios": 12,
      "link_video": "https://animefire.plus/video/tokyo-ghoul-dublado"
    },
    {
      "id": 3882,
      "nome": "Tokyo Ghoul √A (Dublado)",
      "link": "https://animefire.plus/animes/tokyo-ghoul-a-dublado-todos-os-episodios",
      "texto_original": "Tokyo Ghoul √A (Dublado)",
      "rating": 7.1,
      "classificacao_etaria": "A16",
      "imagem_original": "https://animefire.plus/img/animes/tokyo-ghoul-a.webp",
      "imagem_pasta": "https://animefire.plus/img/animes/tokyo-ghoul-a/",
      "secao": "dublados,legendados",
      "pagina": 19,
      "total_episodios": 12,
      "link_video": "https://animefire.plus/video/tokyo-ghoul-a-dublado"
    },
    {
      "id": 3883,
      "nome": "Tokyo Ghoul: \"Jack\" (Dublado)",
      "link": "https://animefire.plus/animes/tokyo-ghoul-jack-dublado-todos-os-episodios",
      "texto_original": "Tokyo Ghoul: \"Jack\" (Dublado)",
      "rating": 7.35,
      "classificacao_etaria": "A16",
      "imagem_original": "https://animefire.plus/img/animes/tokyo-ghoul-jack.webp",
      "imagem_pasta": "https://animefire.plus/img/animes/tokyo-ghoul-jack/",
      "secao": "dublados",
      "pagina": 17,
      "total_episodios": 1,
      "link_video": "https://animefire.plus/video/tokyo-ghoul-jack-dublado"
    },
    {
      "id": 3884,
      "nome": "Tokyo Ghoul: \"Pinto\" (Dublado)",
      "link": "https://animefire.plus/animes/tokyo-ghoul-pinto-dublado-todos-os-episodios",
      "texto_original": "Tokyo Ghoul: \"Pinto\" (Dublado)",
      "rating": 7.24,
      "classificacao_etaria": "A16",
      "imagem_original": "https://animefire.plus/img/animes/tokyo-ghoul-pinto.webp",
      "imagem_pasta": "https://animefire.plus/img/animes/tokyo-ghoul-pinto/",
      "secao": "dublados",
      "pagina": 17,
      "total_episodios": 1,
      "link_video": "https://animefire.plus/video/tokyo-ghoul-pinto-dublado"
    }
  ],
  "pagination": {
    "current_page": 32,
    "per_page": 20,
    "total_items": 708,
    "total_pages": 36,
    "has_next": true,
    "has_prev": true
  }
}
