{
  "message": "Animes com classificação etária: A16",
  "age_rating": "A16",
  "data": [
    {
      "id": 3045,
      "nome": "Pumpkin Scissors",
      "link": "https://animefire.plus/animes/pumpkin-scissors-todos-os-episodios",
      "texto_original": "Pumpkin Scissors",
      "rating": 7.21,
      "classificacao_etaria": "A16",
      "imagem_original": "https://animefire.plus/img/animes/pumpkin-scissors.webp",
      "imagem_pasta": "https://animefire.plus/img/animes/pumpkin-scissors/",
      "secao": "legendados",
      "pagina": 115,
      "total_episodios": 0,
      "link_video": "https://animefire.plus/video/pumpkin-scissors"
    },
    {
      "id": 3047,
      "nome": "Puniru wa Kawaii Slime",
      "link": "https://animefire.plus/animes/puniru-wa-kawaii-slime-todos-os-episodios",
      "texto_original": "Puniru wa Kawaii Slime",
      "rating": 6.91,
      "classificacao_etaria": "A16",
      "imagem_original": "https://animefire.plus/img/animes/puniru-wa-kawaii-slime.webp",
      "imagem_pasta": "https://animefire.plus/img/animes/puniru-wa-kawaii-slime/",
      "secao": "legendados",
      "pagina": 9,
      "total_episodios": 12,
      "link_video": "https://animefire.plus/video/puniru-wa-kawaii-slime"
    },
    {
      "id": 3049,
      "nome": "Pupa",
      "link": "https://animefire.plus/animes/pupa-todos-os-episodios",
      "texto_original": "Pupa",
      "rating": 3.63,
      "classificacao_etaria": "A16",
      "imagem_original": "https://animefire.plus/img/animes/pupa.webp",
      "imagem_pasta": "https://animefire.plus/img/animes/pupa/",
      "secao": "legendados",
      "pagina": 173,
      "total_episodios": 12,
      "link_video": "https://animefire.plus/video/pupa"
    },
    {
      "id": 3072,
      "nome": "Rainbow: Nisha Rokubou no Shichinin",
      "link": "https://animefire.plus/animes/rainbow-nisha-rokubou-no-shichinin-todos-os-episodios",
      "texto_original": "Rainbow: Nisha Rokubou no Shichinin",
      "rating": 8.56,
      "classificacao_etaria": "A16",
      "imagem_original": "https://animefire.plus/img/animes/rainbow-nisha-rokubou-no-shichinin.webp",
      "imagem_pasta": "https://animefire.plus/img/animes/rainbow-nisha-rokubou-no-shichinin/",
      "secao": "legendados",
      "pagina": 141,
      "total_episodios": 26,
      "link_video": "https://animefire.plus/video/rainbow-nisha-rokubou-no-shichinin"
    },
    {
      "id": 3074,
      "nome": "Rakudai Kishi No Cavalry",
      "link": "https://animefire.plus/animes/rakudai-kishi-no-cavalry-todos-os-episodios",
      "texto_original": "Rakudai Kishi No Cavalry",
      "rating": 7.71,
      "classificacao_etaria": "A16",
      "imagem_original": "https://animefire.plus/img/animes/rakudai-kishi-no-cavalry.webp",
      "imagem_pasta": "https://animefire.plus/img/animes/rakudai-kishi-no-cavalry/",
      "secao": "legendados",
      "pagina": 99,
      "total_episodios": 12,
      "link_video": "https://animefire.plus/video/rakudai-kishi-no-cavalry"
    },
    {
      "id": 3081,
      "nome": "Ranpo Kitan: Game of Laplace",
      "link": "https://animefire.plus/animes/ranpo-kitan-game-of-laplace-todos-os-episodios",
      "texto_original": "Ranpo Kitan: Game of Laplace",
      "rating": 6.67,
      "classificacao_etaria": "A16",
      "imagem_original": "https://animefire.plus/img/animes/ranpo-kitan-game-of-laplace.webp",
      "imagem_pasta": "https://animefire.plus/img/animes/ranpo-kitan-game-of-laplace/",
      "secao": "legendados",
      "pagina": 178,
      "total_episodios": 0,
      "link_video": "https://animefire.plus/video/ranpo-kitan-game-of-laplace"
    },
    {
      "id": 3083,
      "nome": "RD Sennou Chousashitsu",
      "link": "https://animefire.plus/animes/rd-sennou-chousashitsu-todos-os-episodios",
      "texto_original": "RD Sennou Chousashitsu",
      "rating": 7.17,
      "classificacao_etaria": "A16",
      "imagem_original": "https://animefire.plus/img/animes/rd-sennou-chousashitsu.webp",
      "imagem_pasta": "https://animefire.plus/img/animes/rd-sennou-chousashitsu/",
      "secao": "legendados",
      "pagina": 161,
      "total_episodios": 26,
      "link_video": "https://animefire.plus/video/rd-sennou-chousashitsu"
    },
    {
      "id": 3087,
      "nome": "Re:␣Hamatora",
      "link": "https://animefire.plus/animes/re-hamatora-todos-os-episodios",
      "texto_original": "Re:␣Hamatora",
      "rating": 7.45,
      "classificacao_etaria": "A16",
      "imagem_original": "https://animefire.plus/img/animes/re-hamatora.webp",
      "imagem_pasta": "https://animefire.plus/img/animes/re-hamatora/",
      "secao": "legendados",
      "pagina": 91,
      "total_episodios": 12,
      "link_video": "https://animefire.plus/video/re-hamatora"
    },
    {
      "id": 3088,
      "nome": "Re:Creators",
      "link": "https://animefire.plus/animes/re-creators-todos-os-episodios",
      "texto_original": "Re:Creators",
      "rating": 7.64,
      "classificacao_etaria": "A16",
      "imagem_original": "https://animefire.plus/img/animes/re-creators.webp",
      "imagem_pasta": "https://animefire.plus/img/animes/re-creators/",
      "secao": "legendados",
      "pagina": 121,
      "total_episodios": 22,
      "link_video": "https://animefire.plus/video/re-creators"
    },
    {
      "id": 3092,
      "nome": "Re:Zero kara Hajimeru Isekai Seikatsu (Dublado)",
      "link": "https://animefire.plus/animes/re-zero-kara-hajimeru-isekai-seikatsu-dublado-todos-os-episodios",
      "texto_original": "Re:Zero kara Hajimeru Isekai Seikatsu (Dublado)",
      "rating": 8.35,
      "classificacao_etaria": "A16",
      "imagem_original": "https://animefire.plus/img/animes/re-zero-kara-hajimeru-isekai-seikatsu.webp",
      "imagem_pasta": "https://animefire.plus/img/animes/re-zero-kara-hajimeru-isekai-seikatsu/",
      "secao": "dublados,legendados",
      "pagina": 26,
      "total_episodios": 26,
      "link_video": "https://animefire.plus/video/re-zero-kara-hajimeru-isekai-seikatsu-dublado"
    },
    {
      "id": 3093,
      "nome": "Re:Zero kara Hajimeru Isekai Seikatsu 2nd Season (Dublado)",
      "link": "https://animefire.plus/animes/re-zero-kara-hajimeru-isekai-seikatsu-2nd-season-dublado-todos-os-episodios",
      "texto_original": "Re:Zero kara Hajimeru Isekai Seikatsu 2nd Season (Dublado)",
      "rating": 8.43,
      "classificacao_etaria": "A16",
      "imagem_original": "https://animefire.plus/img/animes/re-zero-kara-hajimeru-isekai-seikatsu-2nd-season.webp",
      "imagem_pasta": "https://animefire.plus/img/animes/re-zero-kara-hajimeru-isekai-seikatsu-2nd-season/",
      "secao": "dublados,legendados",
      "pagina": 16,
      "total_episodios": 13,
      "link_video": "https://animefire.plus/video/re-zero-kara-hajimeru-isekai-seikatsu-2nd-season-dublado"
    },
    {
      "id": 3094,
      "nome": "Re:Zero kara Hajimeru Isekai Seikatsu 2nd Season Part 2",
      "link": "https://animefire.plus/animes/re-zero-kara-hajimeru-isekai-seikatsu-2nd-season-part-2-todos-os-episodios",
      "texto_original": "Re:Zero kara Hajimeru Isekai Seikatsu 2nd Season Part 2",
      "rating": 8.42,
      "classificacao_etaria": "A16",
      "imagem_original": "https://animefire.plus/img/animes/re-zero-kara-hajimeru-isekai-seikatsu-2nd-season-part-2.webp",
      "imagem_pasta": "https://animefire.plus/img/animes/re-zero-kara-hajimeru-isekai-seikatsu-2nd-season-part-2/",
      "secao": "legendados",
      "pagina": 50,
      "total_episodios": 8,
      "link_video": "https://animefire.plus/video/re-zero-kara-hajimeru-isekai-seikatsu-2nd-season-part-2"
    },
    {
      "id": 3095,
      "nome": "Re:Zero kara Hajimeru Isekai Seikatsu 3rd Season",
      "link": "https://animefire.plus/animes/re-zero-kara-hajimeru-isekai-seikatsu-3rd-season-todos-os-episodios",
      "texto_original": "Re:Zero kara Hajimeru Isekai Seikatsu 3rd Season",
      "rating": 8.45,
      "classificacao_etaria": "A16",
      "imagem_original": "https://animefire.plus/img/animes/re-zero-kara-hajimeru-isekai-seikatsu-3rd-season.webp",
      "imagem_pasta": "https://animefire.plus/img/animes/re-zero-kara-hajimeru-isekai-seikatsu-3rd-season/",
      "secao": "legendados",
      "pagina": 11,
      "total_episodios": 16,
      "link_video": "https://animefire.plus/video/re-zero-kara-hajimeru-isekai-seikatsu-3rd-season"
    },
    {
      "id": 3101,
      "nome": "Red Garden",
      "link": "https://animefire.plus/animes/red-garden-todos-os-episodios",
      "texto_original": "Red Garden",
      "rating": 7.15,
      "classificacao_etaria": "A16",
      "imagem_original": "https://animefire.plus/img/animes/red-garden.webp",
      "imagem_pasta": "https://animefire.plus/img/animes/red-garden/",
      "secao": "legendados",
      "pagina": 131,
      "total_episodios": 22,
      "link_video": "https://animefire.plus/video/red-garden"
    },
    {
      "id": 3117,
      "nome": "Revenger",
      "link": "https://animefire.plus/animes/revenger-todos-os-episodios",
      "texto_original": "Revenger",
      "rating": 6.67,
      "classificacao_etaria": "A16",
      "imagem_original": "https://animefire.plus/img/animes/revenger.webp",
      "imagem_pasta": "https://animefire.plus/img/animes/revenger/",
      "secao": "legendados",
      "pagina": 27,
      "total_episodios": 12,
      "link_video": "https://animefire.plus/video/revenger"
    },
    {
      "id": 3120,
      "nome": "Rhea Gall Force",
      "link": "https://animefire.plus/animes/rhea-gall-force-todos-os-episodios",
      "texto_original": "Rhea Gall Force",
      "rating": 6.3,
      "classificacao_etaria": "A16",
      "imagem_original": "https://animefire.plus/img/animes/rhea-gall-force.webp",
      "imagem_pasta": "https://animefire.plus/img/animes/rhea-gall-force/",
      "secao": "legendados",
      "pagina": 56,
      "total_episodios": 1,
      "link_video": "https://animefire.plus/video/rhea-gall-force"
    },
    {
      "id": 3146,
      "nome": "Rokudenashi Majutsu Koushi to Akashic Records (Dublado)",
      "link": "https://animefire.plus/animes/rokudenashi-majutsu-koushi-to-akashic-records-dublado-todos-os-episodios",
      "texto_original": "Rokudenashi Majutsu Koushi to Akashic Records (Dublado)",
      "rating": 7.29,
      "classificacao_etaria": "A16",
      "imagem_original": "https://animefire.plus/img/animes/rokudenashi-majutsu-koushi-to-akashic-records.webp",
      "imagem_pasta": "https://animefire.plus/img/animes/rokudenashi-majutsu-koushi-to-akashic-records/",
      "secao": "dublados,legendados",
      "pagina": 23,
      "total_episodios": 12,
      "link_video": "https://animefire.plus/video/rokudenashi-majutsu-koushi-to-akashic-records-dublado"
    },
    {
      "id": 3166,
      "nome": "Rurouni Kenshin: Meiji Kenkaku Romantan - Kyoto Douran (Dublado)",
      "link": "https://animefire.plus/animes/rurouni-kenshin-meiji-kenkaku-romantan---kyoto-douran-dublado-todos-os-episodios",
      "texto_original": "Rurouni Kenshin: Meiji Kenkaku Romantan - Kyoto Douran (Dublado)",
      "rating": 7.77,
      "classificacao_etaria": "A16",
      "imagem_original": "https://animefire.plus/img/animes/rurouni-kenshin-meiji-kenkaku-romantan---kyoto-douran.webp",
      "imagem_pasta": "https://animefire.plus/img/animes/rurouni-kenshin-meiji-kenkaku-romantan---kyoto-douran/",
      "secao": "dublados,legendados,lancamentos",
      "pagina": 2,
      "total_episodios": 23,
      "link_video": "https://animefire.plus/video/rurouni-kenshin-meiji-kenkaku-romantan---kyoto-douran-dublado"
    },
    {
      "id": 3175,
      "nome": "Ryuusei Sentai Musumet (Dublado)",
      "link": "https://animefire.plus/animes/ryuusei-sentai-musumet-dublado-todos-os-episodios",
      "texto_original": "Ryuusei Sentai Musumet (Dublado)",
      "rating": 5.94,
      "classificacao_etaria": "A16",
      "imagem_original": "https://animefire.plus/img/animes/ryuusei-sentai-musumet.webp",
      "imagem_pasta": "https://animefire.plus/img/animes/ryuusei-sentai-musumet/",
      "secao": "dublados",
      "pagina": 26,
      "total_episodios": 0,
      "link_video": "https://animefire.plus/video/ryuusei-sentai-musumet-dublado"
    },
    {
      "id": 3214,
      "nome": "Saishuu Heiki Kanojo (Dublado)",
      "link": "https://animefire.plus/animes/saishuu-heiki-kanojo-dublado-todos-os-episodios",
      "texto_original": "Saishuu Heiki Kanojo (Dublado)",
      "rating": 7.2,
      "classificacao_etaria": "A16",
      "imagem_original": "https://animefire.plus/img/animes/saishuu-heiki-kanojo.webp",
      "imagem_pasta": "https://animefire.plus/img/animes/saishuu-heiki-kanojo/",
      "secao": "dublados,legendados",
      "pagina": 25,
      "total_episodios": 13,
      "link_video": "https://animefire.plus/video/saishuu-heiki-kanojo-dublado"
    }
  ],
  "pagination": {
    "current_page": 27,
    "per_page": 20,
    "total_items": 708,
    "total_pages": 36,
    "has_next": true,
    "has_prev": true
  }
}
