{
  "message": "Animes com classificação etária: A16",
  "age_rating": "A16",
  "data": [
    {
      "id": 504,
      "nome": "Btooom!",
      "link": "https://animefire.plus/animes/btooom-todos-os-episodios",
      "texto_original": "Btooom!",
      "rating": 7.53,
      "classificacao_etaria": "A16",
      "imagem_original": "https://animefire.plus/img/animes/btooom.webp",
      "imagem_pasta": "https://animefire.plus/img/animes/btooom/",
      "secao": "legendados",
      "pagina": 155,
      "total_episodios": 12,
      "link_video": "https://animefire.plus/video/btooom"
    },
    {
      "id": 506,
      "nome": "Bubblegum Crisis Tokyo 2040",
      "link": "https://animefire.plus/animes/bubblegum-crisis-tokyo-2040-todos-os-episodios",
      "texto_original": "Bubblegum Crisis Tokyo 2040",
      "rating": 7.16,
      "classificacao_etaria": "A16",
      "imagem_original": "https://animefire.plus/img/animes/bubblegum-crisis-tokyo-2040.webp",
      "imagem_pasta": "https://animefire.plus/img/animes/bubblegum-crisis-tokyo-2040/",
      "secao": "legendados",
      "pagina": 139,
      "total_episodios": 26,
      "link_video": "https://animefire.plus/video/bubblegum-crisis-tokyo-2040"
    },
    {
      "id": 518,
      "nome": "Bungou Stray Dogs (Dublado)",
      "link": "https://animefire.plus/animes/bungou-stray-dogs-dublado-todos-os-episodios",
      "texto_original": "Bungou Stray Dogs (Dublado)",
      "rating": 7.83,
      "classificacao_etaria": "A16",
      "imagem_original": "https://animefire.plus/img/animes/bungou-stray-dogs.webp",
      "imagem_pasta": "https://animefire.plus/img/animes/bungou-stray-dogs/",
      "secao": "dublados,legendados",
      "pagina": 28,
      "total_episodios": 0,
      "link_video": "https://animefire.plus/video/bungou-stray-dogs-dublado"
    },
    {
      "id": 519,
      "nome": "Bungou Stray Dogs 2nd season (Dublado)",
      "link": "https://animefire.plus/animes/bungou-stray-dogs-2nd-season-dublado-todos-os-episodios",
      "texto_original": "Bungou Stray Dogs 2nd season (Dublado)",
      "rating": 8.25,
      "classificacao_etaria": "A16",
      "imagem_original": "https://animefire.plus/img/animes/bungou-stray-dogs-2nd-season.webp",
      "imagem_pasta": "https://animefire.plus/img/animes/bungou-stray-dogs-2nd-season/",
      "secao": "dublados,legendados",
      "pagina": 23,
      "total_episodios": 0,
      "link_video": "https://animefire.plus/video/bungou-stray-dogs-2nd-season-dublado"
    },
    {
      "id": 520,
      "nome": "Bungou Stray Dogs 3rd Season (Dublado)",
      "link": "https://animefire.plus/animes/bungou-stray-dogs-3rd-season-dublado-todos-os-episodios",
      "texto_original": "Bungou Stray Dogs 3rd Season (Dublado)",
      "rating": 8.22,
      "classificacao_etaria": "A16",
      "imagem_original": "https://animefire.plus/img/animes/bungou-stray-dogs-3rd-season.webp",
      "imagem_pasta": "https://animefire.plus/img/animes/bungou-stray-dogs-3rd-season/",
      "secao": "dublados,legendados",
      "pagina": 8,
      "total_episodios": 12,
      "link_video": "https://animefire.plus/video/bungou-stray-dogs-3rd-season-dublado"
    },
    {
      "id": 521,
      "nome": "Bungou Stray Dogs 4th Season",
      "link": "https://animefire.plus/animes/bungou-stray-dogs-4th-season-todos-os-episodios",
      "texto_original": "Bungou Stray Dogs 4th Season",
      "rating": 8.43,
      "classificacao_etaria": "A16",
      "imagem_original": "https://animefire.plus/img/animes/bungou-stray-dogs-4th-season.webp",
      "imagem_pasta": "https://animefire.plus/img/animes/bungou-stray-dogs-4th-season/",
      "secao": "legendados,lancamentos",
      "pagina": 27,
      "total_episodios": 14,
      "link_video": "https://animefire.plus/video/bungou-stray-dogs-4th-season"
    },
    {
      "id": 522,
      "nome": "Bungou Stray Dogs 4th Season (Dublado)",
      "link": "https://animefire.plus/animes/bungou-stray-dogs-4-dublado-todos-os-episodios",
      "texto_original": "Bungou Stray Dogs 4th Season (Dublado)",
      "rating": 8.43,
      "classificacao_etaria": "A16",
      "imagem_original": "https://animefire.plus/img/animes/bungou-stray-dogs-4.webp",
      "imagem_pasta": "https://animefire.plus/img/animes/bungou-stray-dogs-4/",
      "secao": "dublados,lancamentos",
      "pagina": 7,
      "total_episodios": 0,
      "link_video": "https://animefire.plus/video/bungou-stray-dogs-4-dublado"
    },
    {
      "id": 523,
      "nome": "Bungou Stray Dogs 5th Season (Dublado)",
      "link": "https://animefire.plus/animes/bungou-stray-dogs-5th-season-dublado-todos-os-episodios",
      "texto_original": "Bungou Stray Dogs 5th Season (Dublado)",
      "rating": 8.62,
      "classificacao_etaria": "A16",
      "imagem_original": "https://animefire.plus/img/animes/bungou-stray-dogs-5th-season.webp",
      "imagem_pasta": "https://animefire.plus/img/animes/bungou-stray-dogs-5th-season/",
      "secao": "dublados,legendados",
      "pagina": 6,
      "total_episodios": 11,
      "link_video": "https://animefire.plus/video/bungou-stray-dogs-5th-season-dublado"
    },
    {
      "id": 529,
      "nome": "Burn Up Scramble",
      "link": "https://animefire.plus/animes/burn-up-scramble-todos-os-episodios",
      "texto_original": "Burn Up Scramble",
      "rating": 6.28,
      "classificacao_etaria": "A16",
      "imagem_original": "https://animefire.plus/img/animes/burn-up-scramble.webp",
      "imagem_pasta": "https://animefire.plus/img/animes/burn-up-scramble/",
      "secao": "legendados",
      "pagina": 160,
      "total_episodios": 12,
      "link_video": "https://animefire.plus/video/burn-up-scramble"
    },
    {
      "id": 545,
      "nome": "C Danchi (Dublado)",
      "link": "https://animefire.plus/animes/c-danchi-dublado-todos-os-episodios",
      "texto_original": "C Danchi (Dublado)",
      "rating": 5.44,
      "classificacao_etaria": "A16",
      "imagem_original": "https://animefire.plus/img/animes/c-danchi.webp",
      "imagem_pasta": "https://animefire.plus/img/animes/c-danchi/",
      "secao": "dublados,legendados",
      "pagina": 9,
      "total_episodios": 4,
      "link_video": "https://animefire.plus/video/c-danchi-dublado"
    },
    {
      "id": 549,
      "nome": "Canaan",
      "link": "https://animefire.plus/animes/canaan-todos-os-episodios",
      "texto_original": "Canaan",
      "rating": 7.33,
      "classificacao_etaria": "A16",
      "imagem_original": "https://animefire.plus/img/animes/canaan.webp",
      "imagem_pasta": "https://animefire.plus/img/animes/canaan/",
      "secao": "legendados",
      "pagina": 137,
      "total_episodios": 13,
      "link_video": "https://animefire.plus/video/canaan"
    },
    {
      "id": 554,
      "nome": "Cannon Busters",
      "link": "https://animefire.plus/animes/cannon-busters-todos-os-episodios",
      "texto_original": "Cannon Busters",
      "rating": 6.47,
      "classificacao_etaria": "A16",
      "imagem_original": "https://animefire.plus/img/animes/cannon-busters.webp",
      "imagem_pasta": "https://animefire.plus/img/animes/cannon-busters/",
      "secao": "legendados",
      "pagina": 170,
      "total_episodios": 12,
      "link_video": "https://animefire.plus/video/cannon-busters"
    },
    {
      "id": 584,
      "nome": "Casshern Sins",
      "link": "https://animefire.plus/animes/casshern-sins-todos-os-episodios",
      "texto_original": "Casshern Sins",
      "rating": 7.58,
      "classificacao_etaria": "A16",
      "imagem_original": "https://animefire.plus/img/animes/casshern-sins.webp",
      "imagem_pasta": "https://animefire.plus/img/animes/casshern-sins/",
      "secao": "legendados",
      "pagina": 120,
      "total_episodios": 24,
      "link_video": "https://animefire.plus/video/casshern-sins"
    },
    {
      "id": 590,
      "nome": "Chainsaw Man (Dublado)",
      "link": "https://animefire.plus/animes/chainsaw-man-dublado-todos-os-episodios",
      "texto_original": "Chainsaw Man (Dublado)",
      "rating": 8.44,
      "classificacao_etaria": "A16",
      "imagem_original": "https://animefire.plus/img/animes/chainsaw-man.webp",
      "imagem_pasta": "https://animefire.plus/img/animes/chainsaw-man/",
      "secao": "dublados,legendados",
      "pagina": 9,
      "total_episodios": 12,
      "link_video": "https://animefire.plus/video/chainsaw-man-dublado"
    },
    {
      "id": 592,
      "nome": "Chao You Bing",
      "link": "https://animefire.plus/animes/chao-you-bing-todos-os-episodios",
      "texto_original": "Chao You Bing",
      "rating": 5.86,
      "classificacao_etaria": "A16",
      "imagem_original": "https://animefire.plus/img/animes/chao-you-bing.webp",
      "imagem_pasta": "https://animefire.plus/img/animes/chao-you-bing/",
      "secao": "legendados",
      "pagina": 163,
      "total_episodios": 4,
      "link_video": "https://animefire.plus/video/chao-you-bing"
    },
    {
      "id": 593,
      "nome": "Chaos Dragon: Sekiryuu Seneki",
      "link": "https://animefire.plus/animes/chaos-dragon-sekiryuu-seneki-todos-os-episodios",
      "texto_original": "Chaos Dragon: Sekiryuu Seneki",
      "rating": 5.76,
      "classificacao_etaria": "A16",
      "imagem_original": "https://animefire.plus/img/animes/chaos-dragon-sekiryuu-seneki.webp",
      "imagem_pasta": "https://animefire.plus/img/animes/chaos-dragon-sekiryuu-seneki/",
      "secao": "legendados",
      "pagina": 173,
      "total_episodios": 1,
      "link_video": "https://animefire.plus/video/chaos-dragon-sekiryuu-seneki"
    },
    {
      "id": 594,
      "nome": "ChäoS;HEAd",
      "link": "https://animefire.plus/animes/chaeos-head-todos-os-episodios",
      "texto_original": "ChäoS;HEAd",
      "rating": 6.47,
      "classificacao_etaria": "A16",
      "imagem_original": "https://animefire.plus/img/animes/chaeos-head.webp",
      "imagem_pasta": "https://animefire.plus/img/animes/chaeos-head/",
      "secao": "legendados",
      "pagina": 155,
      "total_episodios": 12,
      "link_video": "https://animefire.plus/video/chaeos-head"
    },
    {
      "id": 600,
      "nome": "Chi.: Chikyuu no Undou ni Tsuite",
      "link": "https://animefire.plus/animes/chi-chikyuu-no-undou-ni-tsuite-todos-os-episodios",
      "texto_original": "Chi.: Chikyuu no Undou ni Tsuite",
      "rating": 8.71,
      "classificacao_etaria": "A16",
      "imagem_original": "https://animefire.plus/img/animes/chi-chikyuu-no-undou-ni-tsuite.webp",
      "imagem_pasta": "https://animefire.plus/img/animes/chi-chikyuu-no-undou-ni-tsuite/",
      "secao": "legendados,lancamentos",
      "pagina": 9,
      "total_episodios": 6,
      "link_video": "https://animefire.plus/video/chi-chikyuu-no-undou-ni-tsuite"
    },
    {
      "id": 635,
      "nome": "Chrno Crusade",
      "link": "https://animefire.plus/animes/chrno-crusade-todos-os-episodios",
      "texto_original": "Chrno Crusade",
      "rating": 7.74,
      "classificacao_etaria": "A16",
      "imagem_original": "https://animefire.plus/img/animes/chrno-crusade.webp",
      "imagem_pasta": "https://animefire.plus/img/animes/chrno-crusade/",
      "secao": "legendados",
      "pagina": 168,
      "total_episodios": 3,
      "link_video": "https://animefire.plus/video/chrno-crusade"
    },
    {
      "id": 637,
      "nome": "Chrome Shelled Regios",
      "link": "https://animefire.plus/animes/chrome-shelled-regios-todos-os-episodios",
      "texto_original": "Chrome Shelled Regios",
      "rating": 7.47,
      "classificacao_etaria": "A16",
      "imagem_original": "https://animefire.plus/img/animes/chrome-shelled-regios.webp",
      "imagem_pasta": "https://animefire.plus/img/animes/chrome-shelled-regios/",
      "secao": "legendados",
      "pagina": 130,
      "total_episodios": 24,
      "link_video": "https://animefire.plus/video/chrome-shelled-regios"
    }
  ],
  "pagination": {
    "current_page": 5,
    "per_page": 20,
    "total_items": 708,
    "total_pages": 36,
    "has_next": true,
    "has_prev": true
  }
}
