{
  "message": "Animes com classificação etária: A16",
  "age_rating": "A16",
  "data": [
    {
      "id": 742,
      "nome": "Danganronpa 3: The End of Kibougamine Gakuen - Zetsubou-hen",
      "link": "https://animefire.plus/animes/danganronpa-3-the-end-of-kibougamine-gakuen---zetsubou-hen-todos-os-episodios",
      "texto_original": "Danganronpa 3: The End of Kibougamine Gakuen - Zetsubou-hen",
      "rating": 7.68,
      "classificacao_etaria": "A16",
      "imagem_original": "https://animefire.plus/img/animes/danganronpa-3-the-end-of-kibougamine-gakuen---zetsubou-hen.webp",
      "imagem_pasta": "https://animefire.plus/img/animes/danganronpa-3-the-end-of-kibougamine-gakuen---zetsubou-hen/",
      "secao": "legendados",
      "pagina": 172,
      "total_episodios": 1,
      "link_video": "https://animefire.plus/video/danganronpa-3-the-end-of-kibougamine-gakuen---zetsubou-hen"
    },
    {
      "id": 743,
      "nome": "Danganronpa: Kibou no Gakuen to Zetsubou no Koukousei The Animation",
      "link": "https://animefire.plus/animes/danganronpa-kibou-no-gakuen-to-zetsubou-no-koukousei-the-animation-todos-os-episodios",
      "texto_original": "Danganronpa: Kibou no Gakuen to Zetsubou no Koukousei The Animation",
      "rating": 7.44,
      "classificacao_etaria": "A16",
      "imagem_original": "https://animefire.plus/img/animes/danganronpa-kibou-no-gakuen-to-zetsubou-no-koukousei-the-animation.webp",
      "imagem_pasta": "https://animefire.plus/img/animes/danganronpa-kibou-no-gakuen-to-zetsubou-no-koukousei-the-animation/",
      "secao": "legendados",
      "pagina": 140,
      "total_episodios": 13,
      "link_video": "https://animefire.plus/video/danganronpa-kibou-no-gakuen-to-zetsubou-no-koukousei-the-animation"
    },
    {
      "id": 747,
      "nome": "Dansai Bunri no Crime Edge",
      "link": "https://animefire.plus/animes/dansai-bunri-no-crime-edge-todos-os-episodios",
      "texto_original": "Dansai Bunri no Crime Edge",
      "rating": 6.79,
      "classificacao_etaria": "A16",
      "imagem_original": "https://animefire.plus/img/animes/dansai-bunri-no-crime-edge.webp",
      "imagem_pasta": "https://animefire.plus/img/animes/dansai-bunri-no-crime-edge/",
      "secao": "legendados",
      "pagina": 133,
      "total_episodios": 13,
      "link_video": "https://animefire.plus/video/dansai-bunri-no-crime-edge"
    },
    {
      "id": 749,
      "nome": "Dantalian No Shoka",
      "link": "https://animefire.plus/animes/dantalian-no-shoka-todos-os-episodios",
      "texto_original": "Dantalian No Shoka",
      "rating": 7.3,
      "classificacao_etaria": "A16",
      "imagem_original": "https://animefire.plus/img/animes/dantalian-no-shoka.webp",
      "imagem_pasta": "https://animefire.plus/img/animes/dantalian-no-shoka/",
      "secao": "legendados",
      "pagina": 101,
      "total_episodios": 12,
      "link_video": "https://animefire.plus/video/dantalian-no-shoka"
    },
    {
      "id": 751,
      "nome": "Dark Gathering",
      "link": "https://animefire.plus/animes/dark-gathering-todos-os-episodios",
      "texto_original": "Dark Gathering",
      "rating": 7.84,
      "classificacao_etaria": "A16",
      "imagem_original": "https://animefire.plus/img/animes/dark-gathering.jpg",
      "imagem_pasta": "https://animefire.plus/img/animes/dark-gathering/",
      "secao": "legendados",
      "pagina": 22,
      "total_episodios": 25,
      "link_video": "https://animefire.plus/video/dark-gathering"
    },
    {
      "id": 752,
      "nome": "Darker than Black: Kuro no Keiyakusha",
      "link": "https://animefire.plus/animes/darker-than-black-kuro-no-keiyakusha-todos-os-episodios",
      "texto_original": "Darker than Black: Kuro no Keiyakusha",
      "rating": 8.18,
      "classificacao_etaria": "A16",
      "imagem_original": "https://animefire.plus/img/animes/darker-than-black-kuro-no-keiyakusha.webp",
      "imagem_pasta": "https://animefire.plus/img/animes/darker-than-black-kuro-no-keiyakusha/",
      "secao": "legendados",
      "pagina": 163,
      "total_episodios": 26,
      "link_video": "https://animefire.plus/video/darker-than-black-kuro-no-keiyakusha"
    },
    {
      "id": 753,
      "nome": "Darker than Black: Kuro no Keiyakusha Gaiden",
      "link": "https://animefire.plus/animes/darker-than-black-kuro-no-keiyakusha-gaiden-todos-os-episodios",
      "texto_original": "Darker than Black: Kuro no Keiyakusha Gaiden",
      "rating": 8,
      "classificacao_etaria": "A16",
      "imagem_original": "https://animefire.plus/img/animes/darker-than-black-kuro-no-keiyakusha-gaiden.webp",
      "imagem_pasta": "https://animefire.plus/img/animes/darker-than-black-kuro-no-keiyakusha-gaiden/",
      "secao": "legendados",
      "pagina": 69,
      "total_episodios": 1,
      "link_video": "https://animefire.plus/video/darker-than-black-kuro-no-keiyakusha-gaiden"
    },
    {
      "id": 754,
      "nome": "Darker than Black: Ryuusei no Gemini",
      "link": "https://animefire.plus/animes/darker-than-black-ryuusei-no-gemini-todos-os-episodios",
      "texto_original": "Darker than Black: Ryuusei no Gemini",
      "rating": 7.54,
      "classificacao_etaria": "A16",
      "imagem_original": "https://animefire.plus/img/animes/darker-than-black-ryuusei-no-gemini.webp",
      "imagem_pasta": "https://animefire.plus/img/animes/darker-than-black-ryuusei-no-gemini/",
      "secao": "legendados",
      "pagina": 152,
      "total_episodios": 12,
      "link_video": "https://animefire.plus/video/darker-than-black-ryuusei-no-gemini"
    },
    {
      "id": 756,
      "nome": "Darwin's Game",
      "link": "https://animefire.plus/animes/darwin-s-game-todos-os-episodios",
      "texto_original": "Darwin's Game",
      "rating": 7.3,
      "classificacao_etaria": "A16",
      "imagem_original": "https://animefire.plus/img/animes/darwin-s-game.webp",
      "imagem_pasta": "https://animefire.plus/img/animes/darwin-s-game/",
      "secao": "legendados",
      "pagina": 93,
      "total_episodios": 10,
      "link_video": "https://animefire.plus/video/darwin-s-game"
    },
    {
      "id": 757,
      "nome": "Date A Live",
      "link": "https://animefire.plus/animes/date-a-live-todos-os-episodios",
      "texto_original": "Date A Live",
      "rating": 7.41,
      "classificacao_etaria": "A16",
      "imagem_original": "https://animefire.plus/img/animes/date-a-live.webp",
      "imagem_pasta": "https://animefire.plus/img/animes/date-a-live/",
      "secao": "legendados",
      "pagina": 132,
      "total_episodios": 5,
      "link_video": "https://animefire.plus/video/date-a-live"
    },
    {
      "id": 758,
      "nome": "Date A Live II (Dublado)",
      "link": "https://animefire.plus/animes/date-a-live-ii-dublado-todos-os-episodios",
      "texto_original": "Date A Live II (Dublado)",
      "rating": 7.2,
      "classificacao_etaria": "A16",
      "imagem_original": "https://animefire.plus/img/animes/date-a-live-ii.webp",
      "imagem_pasta": "https://animefire.plus/img/animes/date-a-live-ii/",
      "secao": "dublados,legendados",
      "pagina": 9,
      "total_episodios": 7,
      "link_video": "https://animefire.plus/video/date-a-live-ii-dublado"
    },
    {
      "id": 759,
      "nome": "Date A Live III (Dublado)",
      "link": "https://animefire.plus/animes/date-a-live-iii-dublado-todos-os-episodios",
      "texto_original": "Date A Live III (Dublado)",
      "rating": 7.19,
      "classificacao_etaria": "A16",
      "imagem_original": "https://animefire.plus/img/animes/date-a-live-iii.webp",
      "imagem_pasta": "https://animefire.plus/img/animes/date-a-live-iii/",
      "secao": "dublados,legendados",
      "pagina": 8,
      "total_episodios": 12,
      "link_video": "https://animefire.plus/video/date-a-live-iii-dublado"
    },
    {
      "id": 760,
      "nome": "Date A Live IV",
      "link": "https://animefire.plus/animes/date-a-live-iv-todos-os-episodios",
      "texto_original": "Date A Live IV",
      "rating": 7.74,
      "classificacao_etaria": "A16",
      "imagem_original": "https://animefire.plus/img/animes/date-a-live-iv.webp",
      "imagem_pasta": "https://animefire.plus/img/animes/date-a-live-iv/",
      "secao": "legendados,lancamentos",
      "pagina": 39,
      "total_episodios": 5,
      "link_video": "https://animefire.plus/video/date-a-live-iv"
    },
    {
      "id": 761,
      "nome": "Date A Live V",
      "link": "https://animefire.plus/animes/date-a-live-v-todos-os-episodios",
      "texto_original": "Date A Live V",
      "rating": 7.69,
      "classificacao_etaria": "A16",
      "imagem_original": "https://animefire.plus/img/animes/date-a-live-v.webp",
      "imagem_pasta": "https://animefire.plus/img/animes/date-a-live-v/",
      "secao": "legendados",
      "pagina": 15,
      "total_episodios": 12,
      "link_video": "https://animefire.plus/video/date-a-live-v"
    },
    {
      "id": 766,
      "nome": "Dead Mount Death Play",
      "link": "https://animefire.plus/animes/dead-mount-death-play-todos-os-episodios",
      "texto_original": "Dead Mount Death Play",
      "rating": 7.27,
      "classificacao_etaria": "A16",
      "imagem_original": "https://animefire.plus/img/animes/dead-mount-death-play.jpg",
      "imagem_pasta": "https://animefire.plus/img/animes/dead-mount-death-play/",
      "secao": "legendados",
      "pagina": 24,
      "total_episodios": 12,
      "link_video": "https://animefire.plus/video/dead-mount-death-play"
    },
    {
      "id": 767,
      "nome": "Dead Mount Death Play Part 2",
      "link": "https://animefire.plus/animes/dead-mount-death-play-part-2-todos-os-episodios",
      "texto_original": "Dead Mount Death Play Part 2",
      "rating": 7.48,
      "classificacao_etaria": "A16",
      "imagem_original": "https://animefire.plus/img/animes/dead-mount-death-play-part-2.webp",
      "imagem_pasta": "https://animefire.plus/img/animes/dead-mount-death-play-part-2/",
      "secao": "legendados",
      "pagina": 19,
      "total_episodios": 12,
      "link_video": "https://animefire.plus/video/dead-mount-death-play-part-2"
    },
    {
      "id": 768,
      "nome": "Deadman Wonderland",
      "link": "https://animefire.plus/animes/deadman-wonderland-todos-os-episodios",
      "texto_original": "Deadman Wonderland",
      "rating": 7.36,
      "classificacao_etaria": "A16",
      "imagem_original": "https://animefire.plus/img/animes/deadman-wonderland.webp",
      "imagem_pasta": "https://animefire.plus/img/animes/deadman-wonderland/",
      "secao": "legendados",
      "pagina": 171,
      "total_episodios": 12,
      "link_video": "https://animefire.plus/video/deadman-wonderland"
    },
    {
      "id": 769,
      "nome": "Deadman Wonderland: Akai Knife Tsukai",
      "link": "https://animefire.plus/animes/deadman-wonderland-akai-knife-tsukai-todos-os-episodios",
      "texto_original": "Deadman Wonderland: Akai Knife Tsukai",
      "rating": 7.02,
      "classificacao_etaria": "A16",
      "imagem_original": "https://animefire.plus/img/animes/deadman-wonderland-akai-knife-tsukai.webp",
      "imagem_pasta": "https://animefire.plus/img/animes/deadman-wonderland-akai-knife-tsukai/",
      "secao": "legendados",
      "pagina": 62,
      "total_episodios": 1,
      "link_video": "https://animefire.plus/video/deadman-wonderland-akai-knife-tsukai"
    },
    {
      "id": 774,
      "nome": "Death Billiards",
      "link": "https://animefire.plus/animes/death-billiards-todos-os-episodios",
      "texto_original": "Death Billiards",
      "rating": 7.98,
      "classificacao_etaria": "A16",
      "imagem_original": "https://animefire.plus/img/animes/death-billiards.webp",
      "imagem_pasta": "https://animefire.plus/img/animes/death-billiards/",
      "secao": "legendados",
      "pagina": 106,
      "total_episodios": 1,
      "link_video": "https://animefire.plus/video/death-billiards"
    },
    {
      "id": 776,
      "nome": "Death Note (Dublado)",
      "link": "https://animefire.plus/animes/death-note-dublado-todos-os-episodios",
      "texto_original": "Death Note (Dublado)",
      "rating": 8.66,
      "classificacao_etaria": "A16",
      "imagem_original": "https://animefire.plus/img/animes/death-note.webp",
      "imagem_pasta": "https://animefire.plus/img/animes/death-note/",
      "secao": "dublados,legendados",
      "pagina": 26,
      "total_episodios": 37,
      "link_video": "https://animefire.plus/video/death-note-dublado"
    }
  ],
  "pagination": {
    "current_page": 7,
    "per_page": 20,
    "total_items": 708,
    "total_pages": 36,
    "has_next": true,
    "has_prev": true
  }
}
