{
  "message": "Animes com classificação etária: A16",
  "age_rating": "A16",
  "data": [
    {
      "id": 1742,
      "nome": "JoJo no Kimyou na Bouken Part 4: Diamond wa Kudakenai",
      "link": "https://animefire.plus/animes/jojo-no-kimyou-na-bouken-part-4-diamond-wa-kudakenai-todos-os-episodios",
      "texto_original": "JoJo no Kimyou na Bouken Part 4: Diamond wa Kudakenai",
      "rating": 8.59,
      "classificacao_etaria": "A16",
      "imagem_original": "https://animefire.plus/img/animes/jojo-no-kimyou-na-bouken-part-4-diamond-wa-kudakenai.webp",
      "imagem_pasta": "https://animefire.plus/img/animes/jojo-no-kimyou-na-bouken-part-4-diamond-wa-kudakenai/",
      "secao": "legendados",
      "pagina": 90,
      "total_episodios": 39,
      "link_video": "https://animefire.plus/video/jojo-no-kimyou-na-bouken-part-4-diamond-wa-kudakenai"
    },
    {
      "id": 1743,
      "nome": "JoJo no Kimyou na Bouken Part 5: Ougon no Kaze (Dublado)",
      "link": "https://animefire.plus/animes/jojo-no-kimyou-na-bouken-part-5-ougon-no-kaze-dublado-todos-os-episodios",
      "texto_original": "JoJo no Kimyou na Bouken Part 5: Ougon no Kaze (Dublado)",
      "rating": 8.58,
      "classificacao_etaria": "A16",
      "imagem_original": "https://animefire.plus/img/animes/jojo-no-kimyou-na-bouken-part-5-ougon-no-kaze.webp",
      "imagem_pasta": "https://animefire.plus/img/animes/jojo-no-kimyou-na-bouken-part-5-ougon-no-kaze/",
      "secao": "dublados,legendados",
      "pagina": 5,
      "total_episodios": 41,
      "link_video": "https://animefire.plus/video/jojo-no-kimyou-na-bouken-part-5-ougon-no-kaze-dublado"
    },
    {
      "id": 1744,
      "nome": "JoJo no Kimyou na Bouken Part 6: Stone Ocean (Dublado)",
      "link": "https://animefire.plus/animes/jojo-no-kimyou-na-bouken-part-6-stone-ocean-dublado-todos-os-episodios",
      "texto_original": "JoJo no Kimyou na Bouken Part 6: Stone Ocean (Dublado)",
      "rating": 8.08,
      "classificacao_etaria": "A16",
      "imagem_original": "https://animefire.plus/img/animes/jojo-no-kimyou-na-bouken-part-6-stone-ocean.webp",
      "imagem_pasta": "https://animefire.plus/img/animes/jojo-no-kimyou-na-bouken-part-6-stone-ocean/",
      "secao": "dublados,legendados,lancamentos",
      "pagina": 13,
      "total_episodios": 38,
      "link_video": "https://animefire.plus/video/jojo-no-kimyou-na-bouken-part-6-stone-ocean-dublado"
    },
    {
      "id": 1746,
      "nome": "Joker Game (Dublado)",
      "link": "https://animefire.plus/animes/joker-game-dublado-todos-os-episodios",
      "texto_original": "Joker Game (Dublado)",
      "rating": 7.08,
      "classificacao_etaria": "A16",
      "imagem_original": "https://animefire.plus/img/animes/joker-game.webp",
      "imagem_pasta": "https://animefire.plus/img/animes/joker-game/",
      "secao": "dublados,legendados",
      "pagina": 24,
      "total_episodios": 12,
      "link_video": "https://animefire.plus/video/joker-game-dublado"
    },
    {
      "id": 1753,
      "nome": "Jouran: The Princess of Snow and Blood",
      "link": "https://animefire.plus/animes/jouran-the-princess-of-snow-and-blood-todos-os-episodios",
      "texto_original": "Jouran: The Princess of Snow and Blood",
      "rating": 6.11,
      "classificacao_etaria": "A16",
      "imagem_original": "https://animefire.plus/img/animes/jouran-the-princess-of-snow-and-blood.webp",
      "imagem_pasta": "https://animefire.plus/img/animes/jouran-the-princess-of-snow-and-blood/",
      "secao": "legendados",
      "pagina": 47,
      "total_episodios": 12,
      "link_video": "https://animefire.plus/video/jouran-the-princess-of-snow-and-blood"
    },
    {
      "id": 1754,
      "nome": "Jujutsu Kaisen (Dublado)",
      "link": "https://animefire.plus/animes/jujutsu-kaisen-dublado-todos-os-episodios",
      "texto_original": "Jujutsu Kaisen (Dublado)",
      "rating": 8.66,
      "classificacao_etaria": "A16",
      "imagem_original": "https://animefire.plus/img/animes/jujutsu-kaisen.webp",
      "imagem_pasta": "https://animefire.plus/img/animes/jujutsu-kaisen/",
      "secao": "dublados",
      "pagina": 8,
      "total_episodios": 24,
      "link_video": "https://animefire.plus/video/jujutsu-kaisen-dublado"
    },
    {
      "id": 1755,
      "nome": "Jujutsu Kaisen (TV) (Dublado)",
      "link": "https://animefire.plus/animes/jujutsu-kaisen-tv-dublado-todos-os-episodios",
      "texto_original": "Jujutsu Kaisen (TV) (Dublado)",
      "rating": 8.39,
      "classificacao_etaria": "A16",
      "imagem_original": "https://animefire.plus/img/animes/jujutsu-kaisen-tv.webp",
      "imagem_pasta": "https://animefire.plus/img/animes/jujutsu-kaisen-tv/",
      "secao": "dublados,legendados",
      "pagina": 19,
      "total_episodios": 11,
      "link_video": "https://animefire.plus/video/jujutsu-kaisen-tv-dublado"
    },
    {
      "id": 1756,
      "nome": "Jujutsu Kaisen 2nd Season (Dublado)",
      "link": "https://animefire.plus/animes/jujutsu-kaisen-2nd-season-dublado-todos-os-episodios",
      "texto_original": "Jujutsu Kaisen 2nd Season (Dublado)",
      "rating": 8.74,
      "classificacao_etaria": "A16",
      "imagem_original": "https://animefire.plus/img/animes/jujutsu-kaisen-2nd-season.webp",
      "imagem_pasta": "https://animefire.plus/img/animes/jujutsu-kaisen-2nd-season/",
      "secao": "dublados,legendados",
      "pagina": 6,
      "total_episodios": 23,
      "link_video": "https://animefire.plus/video/jujutsu-kaisen-2nd-season-dublado"
    },
    {
      "id": 1761,
      "nome": "Junketsu no Maria",
      "link": "https://animefire.plus/animes/junketsu-no-maria-todos-os-episodios",
      "texto_original": "Junketsu no Maria",
      "rating": 7.21,
      "classificacao_etaria": "A16",
      "imagem_original": "https://animefire.plus/img/animes/junketsu-no-maria.webp",
      "imagem_pasta": "https://animefire.plus/img/animes/junketsu-no-maria/",
      "secao": "legendados",
      "pagina": 138,
      "total_episodios": 2,
      "link_video": "https://animefire.plus/video/junketsu-no-maria"
    },
    {
      "id": 1763,
      "nome": "Juubee Ninpuuchou: Ryuuhougyoku-hen",
      "link": "https://animefire.plus/animes/juubee-ninpuuchou-ryuuhougyoku-hen-todos-os-episodios",
      "texto_original": "Juubee Ninpuuchou: Ryuuhougyoku-hen",
      "rating": 6.7,
      "classificacao_etaria": "A16",
      "imagem_original": "https://animefire.plus/img/animes/juubee-ninpuuchou-ryuuhougyoku-hen.webp",
      "imagem_pasta": "https://animefire.plus/img/animes/juubee-ninpuuchou-ryuuhougyoku-hen/",
      "secao": "legendados",
      "pagina": 57,
      "total_episodios": 13,
      "link_video": "https://animefire.plus/video/juubee-ninpuuchou-ryuuhougyoku-hen"
    },
    {
      "id": 1767,
      "nome": "Juuni Taisen",
      "link": "https://animefire.plus/animes/juuni-taisen-todos-os-episodios",
      "texto_original": "Juuni Taisen",
      "rating": 6.64,
      "classificacao_etaria": "A16",
      "imagem_original": "https://animefire.plus/img/animes/juuni-taisen.webp",
      "imagem_pasta": "https://animefire.plus/img/animes/juuni-taisen/",
      "secao": "legendados",
      "pagina": 137,
      "total_episodios": 12,
      "link_video": "https://animefire.plus/video/juuni-taisen"
    },
    {
      "id": 1773,
      "nome": "Jyu Oh Sei",
      "link": "https://animefire.plus/animes/jyu-oh-sei-todos-os-episodios",
      "texto_original": "Jyu Oh Sei",
      "rating": 7.32,
      "classificacao_etaria": "A16",
      "imagem_original": "https://animefire.plus/img/animes/jyu-oh-sei.webp",
      "imagem_pasta": "https://animefire.plus/img/animes/jyu-oh-sei/",
      "secao": "legendados",
      "pagina": 147,
      "total_episodios": 11,
      "link_video": "https://animefire.plus/video/jyu-oh-sei"
    },
    {
      "id": 1777,
      "nome": "Kabukichou Sherlock",
      "link": "https://animefire.plus/animes/kabukichou-sherlock-todos-os-episodios",
      "texto_original": "Kabukichou Sherlock",
      "rating": 6.91,
      "classificacao_etaria": "A16",
      "imagem_original": "https://animefire.plus/img/animes/kabukichou-sherlock.webp",
      "imagem_pasta": "https://animefire.plus/img/animes/kabukichou-sherlock/",
      "secao": "legendados",
      "pagina": 110,
      "total_episodios": 0,
      "link_video": "https://animefire.plus/video/kabukichou-sherlock"
    },
    {
      "id": 1783,
      "nome": "Kage no Jitsuryokusha ni Naritakute! (Dublado)",
      "link": "https://animefire.plus/animes/kage-no-jitsuryokusha-ni-naritakute-dublado-todos-os-episodios",
      "texto_original": "Kage no Jitsuryokusha ni Naritakute! (Dublado)",
      "rating": 8.25,
      "classificacao_etaria": "A16",
      "imagem_original": "https://animefire.plus/img/animes/kage-no-jitsuryokusha-ni-naritakute.webp",
      "imagem_pasta": "https://animefire.plus/img/animes/kage-no-jitsuryokusha-ni-naritakute/",
      "secao": "dublados,legendados,lancamentos",
      "pagina": 8,
      "total_episodios": 20,
      "link_video": "https://animefire.plus/video/kage-no-jitsuryokusha-ni-naritakute-dublado"
    },
    {
      "id": 1784,
      "nome": "Kage no Jitsuryokusha ni Naritakute! 2nd Season (Dublado)",
      "link": "https://animefire.plus/animes/kage-no-jitsuryokusha-ni-naritakute-2nd-season-dublado-todos-os-episodios",
      "texto_original": "Kage no Jitsuryokusha ni Naritakute! 2nd Season (Dublado)",
      "rating": 8.28,
      "classificacao_etaria": "A16",
      "imagem_original": "https://animefire.plus/img/animes/kage-no-jitsuryokusha-ni-naritakute-2nd-season.webp",
      "imagem_pasta": "https://animefire.plus/img/animes/kage-no-jitsuryokusha-ni-naritakute-2nd-season/",
      "secao": "dublados,legendados,lancamentos",
      "pagina": 5,
      "total_episodios": 12,
      "link_video": "https://animefire.plus/video/kage-no-jitsuryokusha-ni-naritakute-2nd-season-dublado"
    },
    {
      "id": 1786,
      "nome": "Kagewani",
      "link": "https://animefire.plus/animes/kagewani-todos-os-episodios",
      "texto_original": "Kagewani",
      "rating": 6.47,
      "classificacao_etaria": "A16",
      "imagem_original": "https://animefire.plus/img/animes/kagewani.webp",
      "imagem_pasta": "https://animefire.plus/img/animes/kagewani/",
      "secao": "legendados",
      "pagina": 104,
      "total_episodios": 13,
      "link_video": "https://animefire.plus/video/kagewani"
    },
    {
      "id": 1787,
      "nome": "Kagewani: Shou",
      "link": "https://animefire.plus/animes/kagewani-shou-todos-os-episodios",
      "texto_original": "Kagewani: Shou",
      "rating": 6.5,
      "classificacao_etaria": "A16",
      "imagem_original": "https://animefire.plus/img/animes/kagewani-shou.webp",
      "imagem_pasta": "https://animefire.plus/img/animes/kagewani-shou/",
      "secao": "legendados",
      "pagina": 103,
      "total_episodios": 13,
      "link_video": "https://animefire.plus/video/kagewani-shou"
    },
    {
      "id": 1798,
      "nome": "Kai Doh Maru",
      "link": "https://animefire.plus/animes/kai-doh-maru-todos-os-episodios",
      "texto_original": "Kai Doh Maru",
      "rating": 5.64,
      "classificacao_etaria": "A16",
      "imagem_original": "https://animefire.plus/img/animes/kai-doh-maru.webp",
      "imagem_pasta": "https://animefire.plus/img/animes/kai-doh-maru/",
      "secao": "legendados",
      "pagina": 86,
      "total_episodios": 1,
      "link_video": "https://animefire.plus/video/kai-doh-maru"
    },
    {
      "id": 1802,
      "nome": "Kaibutsu Oujo (OVA)",
      "link": "https://animefire.plus/animes/kaibutsu-oujo-ova-todos-os-episodios",
      "texto_original": "Kaibutsu Oujo (OVA)",
      "rating": 7.1,
      "classificacao_etaria": "A16",
      "imagem_original": "https://animefire.plus/img/animes/kaibutsu-oujo-ova.webp",
      "imagem_pasta": "https://animefire.plus/img/animes/kaibutsu-oujo-ova/",
      "secao": "legendados",
      "pagina": 71,
      "total_episodios": 1,
      "link_video": "https://animefire.plus/video/kaibutsu-oujo-ova"
    },
    {
      "id": 1817,
      "nome": "Kakegurui (Dublado)",
      "link": "https://animefire.plus/animes/kakegurui-dublado-todos-os-episodios",
      "texto_original": "Kakegurui (Dublado)",
      "rating": 7.55,
      "classificacao_etaria": "A16",
      "imagem_original": "https://animefire.plus/img/animes/kakegurui.webp",
      "imagem_pasta": "https://animefire.plus/img/animes/kakegurui/",
      "secao": "dublados,legendados",
      "pagina": 26,
      "total_episodios": 12,
      "link_video": "https://animefire.plus/video/kakegurui-dublado"
    }
  ],
  "pagination": {
    "current_page": 17,
    "per_page": 20,
    "total_items": 708,
    "total_pages": 36,
    "has_next": true,
    "has_prev": true
  }
}
