{
  "message": "Animes com classificação etária: A16",
  "age_rating": "A16",
  "data": [
    {
      "id": 1977,
      "nome": "Kimetsu no Yaiba: Hashira Geiko-hen",
      "link": "https://animefire.plus/animes/kimetsu-no-yaiba-hashira-geiko-hen-todos-os-episodios",
      "texto_original": "Kimetsu no Yaiba: Hashira Geiko-hen",
      "rating": null,
      "classificacao_etaria": "A16",
      "imagem_original": "https://animefire.plus/img/animes/kimetsu-no-yaiba-hashira-geiko-hen.webp",
      "imagem_pasta": "https://animefire.plus/img/animes/kimetsu-no-yaiba-hashira-geiko-hen/",
      "secao": "legendados",
      "pagina": 19,
      "total_episodios": 8,
      "link_video": "https://animefire.plus/video/kimetsu-no-yaiba-hashira-geiko-hen"
    },
    {
      "id": 1978,
      "nome": "Kimetsu no Yaiba: Katanakaji no Sato-hen (Dublado)",
      "link": "https://animefire.plus/animes/kimetsu-no-yaiba-katanakaji-no-sato-hen-dublado-todos-os-episodios",
      "texto_original": "Kimetsu no Yaiba: Katanakaji no Sato-hen (Dublado)",
      "rating": 8.18,
      "classificacao_etaria": "A16",
      "imagem_original": "https://animefire.plus/img/animes/kimetsu-no-yaiba-katanakaji-no-sato-hen.webp",
      "imagem_pasta": "https://animefire.plus/img/animes/kimetsu-no-yaiba-katanakaji-no-sato-hen/",
      "secao": "dublados,legendados",
      "pagina": 5,
      "total_episodios": 11,
      "link_video": "https://animefire.plus/video/kimetsu-no-yaiba-katanakaji-no-sato-hen-dublado"
    },
    {
      "id": 1979,
      "nome": "Kimetsu no Yaiba: Mugen Ressha-hen (Dublado)",
      "link": "https://animefire.plus/animes/kimetsu-no-yaiba-mugen-ressha-hen-dublado-todos-os-episodios",
      "texto_original": "Kimetsu no Yaiba: Mugen Ressha-hen (Dublado)",
      "rating": 8.35,
      "classificacao_etaria": "A16",
      "imagem_original": "https://animefire.plus/img/animes/kimetsu-no-yaiba-mugen-ressha-hen.webp",
      "imagem_pasta": "https://animefire.plus/img/animes/kimetsu-no-yaiba-mugen-ressha-hen/",
      "secao": "dublados,legendados",
      "pagina": 10,
      "total_episodios": 7,
      "link_video": "https://animefire.plus/video/kimetsu-no-yaiba-mugen-ressha-hen-dublado"
    },
    {
      "id": 1980,
      "nome": "Kimetsu no Yaiba: Yuukaku-hen (Dublado)",
      "link": "https://animefire.plus/animes/kimetsu-no-yaiba-yuukaku-hen-dublado-todos-os-episodios",
      "texto_original": "Kimetsu no Yaiba: Yuukaku-hen (Dublado)",
      "rating": 8.71,
      "classificacao_etaria": "A16",
      "imagem_original": "https://animefire.plus/img/animes/kimetsu-no-yaiba-yuukaku-hen.webp",
      "imagem_pasta": "https://animefire.plus/img/animes/kimetsu-no-yaiba-yuukaku-hen/",
      "secao": "dublados,legendados",
      "pagina": 13,
      "total_episodios": 11,
      "link_video": "https://animefire.plus/video/kimetsu-no-yaiba-yuukaku-hen-dublado"
    },
    {
      "id": 1997,
      "nome": "Kindaichi Shounen No Jikenbo Returns",
      "link": "https://animefire.plus/animes/kindaichi-shounen-no-jikenbo-returns-todos-os-episodios",
      "texto_original": "Kindaichi Shounen No Jikenbo Returns",
      "rating": 7.59,
      "classificacao_etaria": "A16",
      "imagem_original": "https://animefire.plus/img/animes/kindaichi-shounen-no-jikenbo-returns.webp",
      "imagem_pasta": "https://animefire.plus/img/animes/kindaichi-shounen-no-jikenbo-returns/",
      "secao": "legendados",
      "pagina": 96,
      "total_episodios": 3,
      "link_video": "https://animefire.plus/video/kindaichi-shounen-no-jikenbo-returns"
    },
    {
      "id": 1998,
      "nome": "Kindaichi Shounen no Jikenbo Returns 2nd Season",
      "link": "https://animefire.plus/animes/kindaichi-shounen-no-jikenbo-returns-2nd-season-todos-os-episodios",
      "texto_original": "Kindaichi Shounen no Jikenbo Returns 2nd Season",
      "rating": 7.68,
      "classificacao_etaria": "A16",
      "imagem_original": "https://animefire.plus/img/animes/kindaichi-shounen-no-jikenbo-returns-2nd-season.webp",
      "imagem_pasta": "https://animefire.plus/img/animes/kindaichi-shounen-no-jikenbo-returns-2nd-season/",
      "secao": "legendados",
      "pagina": 74,
      "total_episodios": 22,
      "link_video": "https://animefire.plus/video/kindaichi-shounen-no-jikenbo-returns-2nd-season"
    },
    {
      "id": 2002,
      "nome": "Kingdom",
      "link": "https://animefire.plus/animes/kingdom-todos-os-episodios",
      "texto_original": "Kingdom",
      "rating": 8.14,
      "classificacao_etaria": "A16",
      "imagem_original": "https://animefire.plus/img/animes/kingdom.webp",
      "imagem_pasta": "https://animefire.plus/img/animes/kingdom/",
      "secao": "legendados",
      "pagina": 141,
      "total_episodios": 5,
      "link_video": "https://animefire.plus/video/kingdom"
    },
    {
      "id": 2003,
      "nome": "Kingdom 2nd Season",
      "link": "https://animefire.plus/animes/kingdom-2nd-season-todos-os-episodios",
      "texto_original": "Kingdom 2nd Season",
      "rating": 8.43,
      "classificacao_etaria": "A16",
      "imagem_original": "https://animefire.plus/img/animes/kingdom-2nd-season.webp",
      "imagem_pasta": "https://animefire.plus/img/animes/kingdom-2nd-season/",
      "secao": "legendados",
      "pagina": 177,
      "total_episodios": 21,
      "link_video": "https://animefire.plus/video/kingdom-2nd-season"
    },
    {
      "id": 2005,
      "nome": "Kingdom 4th Season",
      "link": "https://animefire.plus/animes/kingdom-4-todos-os-episodios",
      "texto_original": "Kingdom 4th Season",
      "rating": 8.73,
      "classificacao_etaria": "A16",
      "imagem_original": "https://animefire.plus/img/animes/kingdom-4.webp",
      "imagem_pasta": "https://animefire.plus/img/animes/kingdom-4/",
      "secao": "legendados",
      "pagina": 33,
      "total_episodios": 26,
      "link_video": "https://animefire.plus/video/kingdom-4"
    },
    {
      "id": 2006,
      "nome": "Kingdom 5th Season",
      "link": "https://animefire.plus/animes/kingdom-5th-season-todos-os-episodios",
      "texto_original": "Kingdom 5th Season",
      "rating": 8.72,
      "classificacao_etaria": "A16",
      "imagem_original": "https://animefire.plus/img/animes/kingdom-5th-season.webp",
      "imagem_pasta": "https://animefire.plus/img/animes/kingdom-5th-season/",
      "secao": "legendados",
      "pagina": 17,
      "total_episodios": 13,
      "link_video": "https://animefire.plus/video/kingdom-5th-season"
    },
    {
      "id": 2009,
      "nome": "Kino no Tabi: The Beautiful World",
      "link": "https://animefire.plus/animes/kino-no-tabi-the-beautiful-world-todos-os-episodios",
      "texto_original": "Kino no Tabi: The Beautiful World",
      "rating": 8.4,
      "classificacao_etaria": "A16",
      "imagem_original": "https://animefire.plus/img/animes/kino-no-tabi-the-beautiful-world.webp",
      "imagem_pasta": "https://animefire.plus/img/animes/kino-no-tabi-the-beautiful-world/",
      "secao": "legendados",
      "pagina": 124,
      "total_episodios": 13,
      "link_video": "https://animefire.plus/video/kino-no-tabi-the-beautiful-world"
    },
    {
      "id": 2010,
      "nome": "Kino no Tabi: The Beautiful World - The Animated Series",
      "link": "https://animefire.plus/animes/kino-no-tabi-the-beautiful-world---the-animated-series-todos-os-episodios",
      "texto_original": "Kino no Tabi: The Beautiful World - The Animated Series",
      "rating": 7.62,
      "classificacao_etaria": "A16",
      "imagem_original": "https://animefire.plus/img/animes/kino-no-tabi-the-beautiful-world---the-animated-series.webp",
      "imagem_pasta": "https://animefire.plus/img/animes/kino-no-tabi-the-beautiful-world---the-animated-series/",
      "secao": "legendados",
      "pagina": 98,
      "total_episodios": 12,
      "link_video": "https://animefire.plus/video/kino-no-tabi-the-beautiful-world---the-animated-series"
    },
    {
      "id": 2017,
      "nome": "Kiseijuu: Sei no Kakuritsu (Dublado)",
      "link": "https://animefire.plus/animes/kiseijuu-sei-no-kakuritsu-dublado-todos-os-episodios",
      "texto_original": "Kiseijuu: Sei no Kakuritsu (Dublado)",
      "rating": 8.46,
      "classificacao_etaria": "A16",
      "imagem_original": "https://animefire.plus/img/animes/kiseijuu-sei-no-kakuritsu.webp",
      "imagem_pasta": "https://animefire.plus/img/animes/kiseijuu-sei-no-kakuritsu/",
      "secao": "dublados,legendados",
      "pagina": 23,
      "total_episodios": 24,
      "link_video": "https://animefire.plus/video/kiseijuu-sei-no-kakuritsu-dublado"
    },
    {
      "id": 2018,
      "nome": "Kishibe Rohan wa Ugokanai (Dublado)",
      "link": "https://animefire.plus/animes/kishibe-rohan-wa-ugokanai-dublado-todos-os-episodios",
      "texto_original": "Kishibe Rohan wa Ugokanai (Dublado)",
      "rating": 7.61,
      "classificacao_etaria": "A16",
      "imagem_original": "https://animefire.plus/img/animes/kishibe-rohan-wa-ugokanai.webp",
      "imagem_pasta": "https://animefire.plus/img/animes/kishibe-rohan-wa-ugokanai/",
      "secao": "dublados,legendados",
      "pagina": 18,
      "total_episodios": 9,
      "link_video": "https://animefire.plus/video/kishibe-rohan-wa-ugokanai-dublado"
    },
    {
      "id": 2021,
      "nome": "Kishin Houkou Demonbane (TV)",
      "link": "https://animefire.plus/animes/kishin-houkou-demonbane-tv-todos-os-episodios",
      "texto_original": "Kishin Houkou Demonbane (TV)",
      "rating": 6.61,
      "classificacao_etaria": "A16",
      "imagem_original": "https://animefire.plus/img/animes/kishin-houkou-demonbane-tv.webp",
      "imagem_pasta": "https://animefire.plus/img/animes/kishin-houkou-demonbane-tv/",
      "secao": "legendados",
      "pagina": 82,
      "total_episodios": 0,
      "link_video": "https://animefire.plus/video/kishin-houkou-demonbane-tv"
    },
    {
      "id": 2029,
      "nome": "Kitsutsuki Tanteidokoro",
      "link": "https://animefire.plus/animes/kitsutsuki-tanteidokoro-todos-os-episodios",
      "texto_original": "Kitsutsuki Tanteidokoro",
      "rating": 6.03,
      "classificacao_etaria": "A16",
      "imagem_original": "https://animefire.plus/img/animes/kitsutsuki-tanteidokoro.webp",
      "imagem_pasta": "https://animefire.plus/img/animes/kitsutsuki-tanteidokoro/",
      "secao": "legendados",
      "pagina": 80,
      "total_episodios": 1,
      "link_video": "https://animefire.plus/video/kitsutsuki-tanteidokoro"
    },
    {
      "id": 2044,
      "nome": "Kodomo no Jikan (TV)",
      "link": "https://animefire.plus/animes/kodomo-no-jikan-tv-todos-os-episodios",
      "texto_original": "Kodomo no Jikan (TV)",
      "rating": 6.97,
      "classificacao_etaria": "A16",
      "imagem_original": "https://animefire.plus/img/animes/kodomo-no-jikan-tv.webp",
      "imagem_pasta": "https://animefire.plus/img/animes/kodomo-no-jikan-tv/",
      "secao": "legendados",
      "pagina": 154,
      "total_episodios": 12,
      "link_video": "https://animefire.plus/video/kodomo-no-jikan-tv"
    },
    {
      "id": 2047,
      "nome": "Koi Kaze",
      "link": "https://animefire.plus/animes/koi-kaze-todos-os-episodios",
      "texto_original": "Koi Kaze",
      "rating": 7.24,
      "classificacao_etaria": "A16",
      "imagem_original": "https://animefire.plus/img/animes/koi-kaze.webp",
      "imagem_pasta": "https://animefire.plus/img/animes/koi-kaze/",
      "secao": "legendados",
      "pagina": 173,
      "total_episodios": 13,
      "link_video": "https://animefire.plus/video/koi-kaze"
    },
    {
      "id": 2065,
      "nome": "Kokkoku",
      "link": "https://animefire.plus/animes/kokkoku-todos-os-episodios",
      "texto_original": "Kokkoku",
      "rating": 7.14,
      "classificacao_etaria": "A16",
      "imagem_original": "https://animefire.plus/img/animes/kokkoku.webp",
      "imagem_pasta": "https://animefire.plus/img/animes/kokkoku/",
      "secao": "legendados",
      "pagina": 138,
      "total_episodios": 12,
      "link_video": "https://animefire.plus/video/kokkoku"
    },
    {
      "id": 2098,
      "nome": "Kore wa Zombie Desu ka?",
      "link": "https://animefire.plus/animes/kore-wa-zombie-desu-ka-todos-os-episodios",
      "texto_original": "Kore wa Zombie Desu ka?",
      "rating": 7.54,
      "classificacao_etaria": "A16",
      "imagem_original": "https://animefire.plus/img/animes/kore-wa-zombie-desu-ka.webp",
      "imagem_pasta": "https://animefire.plus/img/animes/kore-wa-zombie-desu-ka/",
      "secao": "legendados",
      "pagina": 143,
      "total_episodios": 12,
      "link_video": "https://animefire.plus/video/kore-wa-zombie-desu-ka"
    }
  ],
  "pagination": {
    "current_page": 19,
    "per_page": 20,
    "total_items": 708,
    "total_pages": 36,
    "has_next": true,
    "has_prev": true
  }
}
