{
  "message": "Animes com classificação etária: A16",
  "age_rating": "A16",
  "data": [
    {
      "id": 4150,
      "nome": "Wonder Egg Priority (Dublado)",
      "link": "https://animefire.plus/animes/wonder-egg-priority-dublado-todos-os-episodios",
      "texto_original": "Wonder Egg Priority (Dublado)",
      "rating": 7.55,
      "classificacao_etaria": "A16",
      "imagem_original": "https://animefire.plus/img/animes/wonder-egg-priority.webp",
      "imagem_pasta": "https://animefire.plus/img/animes/wonder-egg-priority/",
      "secao": "dublados,legendados",
      "pagina": 15,
      "total_episodios": 12,
      "link_video": "https://animefire.plus/video/wonder-egg-priority-dublado"
    },
    {
      "id": 4151,
      "nome": "Wonder Egg Priority Special",
      "link": "https://animefire.plus/animes/wonder-egg-priority-special-todos-os-episodios",
      "texto_original": "Wonder Egg Priority Special",
      "rating": 5.15,
      "classificacao_etaria": "A16",
      "imagem_original": "https://animefire.plus/img/animes/wonder-egg-priority-special.webp",
      "imagem_pasta": "https://animefire.plus/img/animes/wonder-egg-priority-special/",
      "secao": "legendados",
      "pagina": 38,
      "total_episodios": 1,
      "link_video": "https://animefire.plus/video/wonder-egg-priority-special"
    },
    {
      "id": 4163,
      "nome": "Wu Shan Wu Xing",
      "link": "https://animefire.plus/animes/wu-shan-wu-xing-todos-os-episodios",
      "texto_original": "Wu Shan Wu Xing",
      "rating": 8.02,
      "classificacao_etaria": "A16",
      "imagem_original": "https://animefire.plus/img/animes/wu-shan-wu-xing.webp",
      "imagem_pasta": "https://animefire.plus/img/animes/wu-shan-wu-xing/",
      "secao": "legendados",
      "pagina": 48,
      "total_episodios": 3,
      "link_video": "https://animefire.plus/video/wu-shan-wu-xing"
    },
    {
      "id": 4189,
      "nome": "Yakusoku no Neverland",
      "link": "https://animefire.plus/animes/yakusoku-no-neverland-todos-os-episodios",
      "texto_original": "Yakusoku no Neverland",
      "rating": 8.65,
      "classificacao_etaria": "A16",
      "imagem_original": "https://animefire.plus/img/animes/yakusoku-no-neverland.webp",
      "imagem_pasta": "https://animefire.plus/img/animes/yakusoku-no-neverland/",
      "secao": "legendados",
      "pagina": 165,
      "total_episodios": 6,
      "link_video": "https://animefire.plus/video/yakusoku-no-neverland"
    },
    {
      "id": 4190,
      "nome": "Yakusoku no Neverland 2nd Season",
      "link": "https://animefire.plus/animes/yakusoku-no-neverland-2nd-season-todos-os-episodios",
      "texto_original": "Yakusoku no Neverland 2nd Season",
      "rating": 5.25,
      "classificacao_etaria": "A16",
      "imagem_original": "https://animefire.plus/img/animes/yakusoku-no-neverland-2nd-season.webp",
      "imagem_pasta": "https://animefire.plus/img/animes/yakusoku-no-neverland-2nd-season/",
      "secao": "legendados",
      "pagina": 48,
      "total_episodios": 11,
      "link_video": "https://animefire.plus/video/yakusoku-no-neverland-2nd-season"
    },
    {
      "id": 4201,
      "nome": "Yami no Matsuei",
      "link": "https://animefire.plus/animes/yami-no-matsuei-todos-os-episodios",
      "texto_original": "Yami no Matsuei",
      "rating": 7.17,
      "classificacao_etaria": "A16",
      "imagem_original": "https://animefire.plus/img/animes/yami-no-matsuei.webp",
      "imagem_pasta": "https://animefire.plus/img/animes/yami-no-matsuei/",
      "secao": "legendados",
      "pagina": 146,
      "total_episodios": 13,
      "link_video": "https://animefire.plus/video/yami-no-matsuei"
    },
    {
      "id": 4221,
      "nome": "Yaoguai Mingdan 2nd Season",
      "link": "https://animefire.plus/animes/yaoguai-mingdan-2nd-season-todos-os-episodios",
      "texto_original": "Yaoguai Mingdan 2nd Season",
      "rating": 7.78,
      "classificacao_etaria": "A16",
      "imagem_original": "https://animefire.plus/img/animes/yaoguai-mingdan-2nd-season.webp",
      "imagem_pasta": "https://animefire.plus/img/animes/yaoguai-mingdan-2nd-season/",
      "secao": "legendados",
      "pagina": 82,
      "total_episodios": 21,
      "link_video": "https://animefire.plus/video/yaoguai-mingdan-2nd-season"
    },
    {
      "id": 4224,
      "nome": "Yasuke (Dublado)",
      "link": "https://animefire.plus/animes/yasuke-dublado-todos-os-episodios",
      "texto_original": "Yasuke (Dublado)",
      "rating": 5.75,
      "classificacao_etaria": "A16",
      "imagem_original": "https://animefire.plus/img/animes/yasuke.webp",
      "imagem_pasta": "https://animefire.plus/img/animes/yasuke/",
      "secao": "dublados,legendados",
      "pagina": 18,
      "total_episodios": 6,
      "link_video": "https://animefire.plus/video/yasuke-dublado"
    },
    {
      "id": 4237,
      "nome": "Yingxiong Zai Lin",
      "link": "https://animefire.plus/animes/yingxiong-zai-lin-todos-os-episodios",
      "texto_original": "Yingxiong Zai Lin",
      "rating": null,
      "classificacao_etaria": "A16",
      "imagem_original": "https://animefire.plus/img/animes/yingxiong-zai-lin.webp",
      "imagem_pasta": "https://animefire.plus/img/animes/yingxiong-zai-lin/",
      "secao": "legendados,lancamentos",
      "pagina": 50,
      "total_episodios": 9,
      "link_video": "https://animefire.plus/video/yingxiong-zai-lin"
    },
    {
      "id": 4244,
      "nome": "Yondemasu yo, Azazel-san. (TV)",
      "link": "https://animefire.plus/animes/yondemasu-yo-azazel-san-tv-todos-os-episodios",
      "texto_original": "Yondemasu yo, Azazel-san. (TV)",
      "rating": 7.6,
      "classificacao_etaria": "A16",
      "imagem_original": "https://animefire.plus/img/animes/yondemasu-yo-azazel-san-tv.webp",
      "imagem_pasta": "https://animefire.plus/img/animes/yondemasu-yo-azazel-san-tv/",
      "secao": "legendados",
      "pagina": 122,
      "total_episodios": 3,
      "link_video": "https://animefire.plus/video/yondemasu-yo-azazel-san-tv"
    },
    {
      "id": 4245,
      "nome": "Yondemasu Yo, Azazel-san. Z",
      "link": "https://animefire.plus/animes/yondemasu-yo-azazel-san-z-todos-os-episodios",
      "texto_original": "Yondemasu Yo, Azazel-san. Z",
      "rating": 7.63,
      "classificacao_etaria": "A16",
      "imagem_original": "https://animefire.plus/img/animes/yondemasu-yo-azazel-san-z.webp",
      "imagem_pasta": "https://animefire.plus/img/animes/yondemasu-yo-azazel-san-z/",
      "secao": "legendados",
      "pagina": 107,
      "total_episodios": 3,
      "link_video": "https://animefire.plus/video/yondemasu-yo-azazel-san-z"
    },
    {
      "id": 4252,
      "nome": "Youjo Senki (Dublado)",
      "link": "https://animefire.plus/animes/youjo-senki-dublado-todos-os-episodios",
      "texto_original": "Youjo Senki (Dublado)",
      "rating": 8.11,
      "classificacao_etaria": "A16",
      "imagem_original": "https://animefire.plus/img/animes/youjo-senki.webp",
      "imagem_pasta": "https://animefire.plus/img/animes/youjo-senki/",
      "secao": "dublados,legendados",
      "pagina": 26,
      "total_episodios": 12,
      "link_video": "https://animefire.plus/video/youjo-senki-dublado"
    },
    {
      "id": 4253,
      "nome": "Youjo Senki II",
      "link": "https://animefire.plus/animes/youjo-senki-ii-todos-os-episodios",
      "texto_original": "Youjo Senki II",
      "rating": null,
      "classificacao_etaria": "A16",
      "imagem_original": "https://animefire.plus/img/animes/youjo-senki-ii.webp",
      "imagem_pasta": "https://animefire.plus/img/animes/youjo-senki-ii/",
      "secao": "legendados,lancamentos",
      "pagina": 19,
      "total_episodios": 0,
      "link_video": "https://animefire.plus/video/youjo-senki-ii"
    },
    {
      "id": 4298,
      "nome": "Yuri Kuma Arashi",
      "link": "https://animefire.plus/animes/yuri-kuma-arashi-todos-os-episodios",
      "texto_original": "Yuri Kuma Arashi",
      "rating": 7.14,
      "classificacao_etaria": "A16",
      "imagem_original": "https://animefire.plus/img/animes/yuri-kuma-arashi.webp",
      "imagem_pasta": "https://animefire.plus/img/animes/yuri-kuma-arashi/",
      "secao": "legendados",
      "pagina": 137,
      "total_episodios": 5,
      "link_video": "https://animefire.plus/video/yuri-kuma-arashi"
    },
    {
      "id": 4310,
      "nome": "Yuugo: Koushounin",
      "link": "https://animefire.plus/animes/yuugo-koushounin-todos-os-episodios",
      "texto_original": "Yuugo: Koushounin",
      "rating": 7.21,
      "classificacao_etaria": "A16",
      "imagem_original": "https://animefire.plus/img/animes/yuugo-koushounin.webp",
      "imagem_pasta": "https://animefire.plus/img/animes/yuugo-koushounin/",
      "secao": "legendados",
      "pagina": 157,
      "total_episodios": 13,
      "link_video": "https://animefire.plus/video/yuugo-koushounin"
    },
    {
      "id": 4311,
      "nome": "Yuukai Anna",
      "link": "https://animefire.plus/animes/yuukai-anna-todos-os-episodios",
      "texto_original": "Yuukai Anna",
      "rating": 5.09,
      "classificacao_etaria": "A16",
      "imagem_original": "https://animefire.plus/img/animes/yuukai-anna.webp",
      "imagem_pasta": "https://animefire.plus/img/animes/yuukai-anna/",
      "secao": "legendados",
      "pagina": 89,
      "total_episodios": 1,
      "link_video": "https://animefire.plus/video/yuukai-anna"
    },
    {
      "id": 4317,
      "nome": "Yuukoku no Moriarty (Dublado)",
      "link": "https://animefire.plus/animes/yuukoku-no-moriarty-dublado-todos-os-episodios",
      "texto_original": "Yuukoku no Moriarty (Dublado)",
      "rating": 8.12,
      "classificacao_etaria": "A16",
      "imagem_original": "https://animefire.plus/img/animes/yuukoku-no-moriarty.webp",
      "imagem_pasta": "https://animefire.plus/img/animes/yuukoku-no-moriarty/",
      "secao": "dublados,legendados",
      "pagina": 13,
      "total_episodios": 11,
      "link_video": "https://animefire.plus/video/yuukoku-no-moriarty-dublado"
    },
    {
      "id": 4318,
      "nome": "Yuukoku no Moriarty 2nd Season",
      "link": "https://animefire.plus/animes/yuukoku-no-moriarty-2nd-season-todos-os-episodios",
      "texto_original": "Yuukoku no Moriarty 2nd Season",
      "rating": 8.28,
      "classificacao_etaria": "A16",
      "imagem_original": "https://animefire.plus/img/animes/yuukoku-no-moriarty-2nd-season.webp",
      "imagem_pasta": "https://animefire.plus/img/animes/yuukoku-no-moriarty-2nd-season/",
      "secao": "legendados",
      "pagina": 47,
      "total_episodios": 13,
      "link_video": "https://animefire.plus/video/yuukoku-no-moriarty-2nd-season"
    },
    {
      "id": 4319,
      "nome": "Yuukoku no Moriarty Part 2 (Dublado)",
      "link": "https://animefire.plus/animes/yuukoku-no-moriarty-part-2-dublado-todos-os-episodios",
      "texto_original": "Yuukoku no Moriarty Part 2 (Dublado)",
      "rating": 8.29,
      "classificacao_etaria": "A16",
      "imagem_original": "https://animefire.plus/img/animes/yuukoku-no-moriarty-part-2.webp",
      "imagem_pasta": "https://animefire.plus/img/animes/yuukoku-no-moriarty-part-2/",
      "secao": "dublados",
      "pagina": 8,
      "total_episodios": 13,
      "link_video": "https://animefire.plus/video/yuukoku-no-moriarty-part-2-dublado"
    },
    {
      "id": 4331,
      "nome": "Zan Sayonara Zetsubou Sensei",
      "link": "https://animefire.plus/animes/zan-sayonara-zetsubou-sensei-todos-os-episodios",
      "texto_original": "Zan Sayonara Zetsubou Sensei",
      "rating": 7.95,
      "classificacao_etaria": "A16",
      "imagem_original": "https://animefire.plus/img/animes/zan-sayonara-zetsubou-sensei.webp",
      "imagem_pasta": "https://animefire.plus/img/animes/zan-sayonara-zetsubou-sensei/",
      "secao": "legendados",
      "pagina": 163,
      "total_episodios": 1,
      "link_video": "https://animefire.plus/video/zan-sayonara-zetsubou-sensei"
    }
  ],
  "pagination": {
    "current_page": 35,
    "per_page": 20,
    "total_items": 708,
    "total_pages": 36,
    "has_next": true,
    "has_prev": true
  }
}
