{
  "message": "Animes com classificação etária: A16",
  "age_rating": "A16",
  "data": [
    {
      "id": 3604,
      "nome": "Souten no Ken",
      "link": "https://animefire.plus/animes/souten-no-ken-todos-os-episodios",
      "texto_original": "Souten no Ken",
      "rating": 6.75,
      "classificacao_etaria": "A16",
      "imagem_original": "https://animefire.plus/img/animes/souten-no-ken.webp",
      "imagem_pasta": "https://animefire.plus/img/animes/souten-no-ken/",
      "secao": "legendados",
      "pagina": 168,
      "total_episodios": 26,
      "link_video": "https://animefire.plus/video/souten-no-ken"
    },
    {
      "id": 3605,
      "nome": "Souten no Ken: Regenesis",
      "link": "https://animefire.plus/animes/souten-no-ken-regenesis-todos-os-episodios",
      "texto_original": "Souten no Ken: Regenesis",
      "rating": 5.7,
      "classificacao_etaria": "A16",
      "imagem_original": "https://animefire.plus/img/animes/souten-no-ken-regenesis.webp",
      "imagem_pasta": "https://animefire.plus/img/animes/souten-no-ken-regenesis/",
      "secao": "legendados",
      "pagina": 62,
      "total_episodios": 12,
      "link_video": "https://animefire.plus/video/souten-no-ken-regenesis"
    },
    {
      "id": 3612,
      "nome": "Spriggan (ONA) (Dublado)",
      "link": "https://animefire.plus/animes/spriggan-ona-dublado-todos-os-episodios",
      "texto_original": "Spriggan (ONA) (Dublado)",
      "rating": 6.86,
      "classificacao_etaria": "A16",
      "imagem_original": "https://animefire.plus/img/animes/spriggan-ona.webp",
      "imagem_pasta": "https://animefire.plus/img/animes/spriggan-ona/",
      "secao": "dublados,legendados",
      "pagina": 10,
      "total_episodios": 6,
      "link_video": "https://animefire.plus/video/spriggan-ona-dublado"
    },
    {
      "id": 3638,
      "nome": "Strait Jacket",
      "link": "https://animefire.plus/animes/strait-jacket-todos-os-episodios",
      "texto_original": "Strait Jacket",
      "rating": 6.86,
      "classificacao_etaria": "A16",
      "imagem_original": "https://animefire.plus/img/animes/strait-jacket.webp",
      "imagem_pasta": "https://animefire.plus/img/animes/strait-jacket/",
      "secao": "legendados",
      "pagina": 78,
      "total_episodios": 3,
      "link_video": "https://animefire.plus/video/strait-jacket"
    },
    {
      "id": 3659,
      "nome": "Subete ga F ni Naru",
      "link": "https://animefire.plus/animes/subete-ga-f-ni-naru-todos-os-episodios",
      "texto_original": "Subete ga F ni Naru",
      "rating": 7.29,
      "classificacao_etaria": "A16",
      "imagem_original": "https://animefire.plus/img/animes/subete-ga-f-ni-naru.webp",
      "imagem_pasta": "https://animefire.plus/img/animes/subete-ga-f-ni-naru/",
      "secao": "legendados",
      "pagina": 68,
      "total_episodios": 11,
      "link_video": "https://animefire.plus/video/subete-ga-f-ni-naru"
    },
    {
      "id": 3667,
      "nome": "Sukeban Deka (Dublado)",
      "link": "https://animefire.plus/animes/sukeban-deka-dublado-todos-os-episodios",
      "texto_original": "Sukeban Deka (Dublado)",
      "rating": 6.51,
      "classificacao_etaria": "A16",
      "imagem_original": "https://animefire.plus/img/animes/sukeban-deka.webp",
      "imagem_pasta": "https://animefire.plus/img/animes/sukeban-deka/",
      "secao": "dublados",
      "pagina": 22,
      "total_episodios": 2,
      "link_video": "https://animefire.plus/video/sukeban-deka-dublado"
    },
    {
      "id": 3672,
      "nome": "Summertime Render (Dublado)",
      "link": "https://animefire.plus/animes/summertime-render-dublado-todos-os-episodios",
      "texto_original": "Summertime Render (Dublado)",
      "rating": 8.47,
      "classificacao_etaria": "A16",
      "imagem_original": "https://animefire.plus/img/animes/summertime-render.webp",
      "imagem_pasta": "https://animefire.plus/img/animes/summertime-render/",
      "secao": "dublados,legendados,lancamentos",
      "pagina": 10,
      "total_episodios": 25,
      "link_video": "https://animefire.plus/video/summertime-render-dublado"
    },
    {
      "id": 3676,
      "nome": "Super Danganronpa 2.5: Komaeda Nagito to Sekai no Hakaimono",
      "link": "https://animefire.plus/animes/super-danganronpa-2-5-komaeda-nagito-to-sekai-no-hakaimono-todos-os-episodios",
      "texto_original": "Super Danganronpa 2.5: Komaeda Nagito to Sekai no Hakaimono",
      "rating": 7.35,
      "classificacao_etaria": "A16",
      "imagem_original": "https://animefire.plus/img/animes/super-danganronpa-2-5-komaeda-nagito-to-sekai-no-hakaimono.webp",
      "imagem_pasta": "https://animefire.plus/img/animes/super-danganronpa-2-5-komaeda-nagito-to-sekai-no-hakaimono/",
      "secao": "legendados",
      "pagina": 174,
      "total_episodios": 1,
      "link_video": "https://animefire.plus/video/super-danganronpa-2-5-komaeda-nagito-to-sekai-no-hakaimono"
    },
    {
      "id": 3683,
      "nome": "Supernatural The Animation",
      "link": "https://animefire.plus/animes/supernatural-the-animation-todos-os-episodios",
      "texto_original": "Supernatural The Animation",
      "rating": 7.1,
      "classificacao_etaria": "A16",
      "imagem_original": "https://animefire.plus/img/animes/supernatural-the-animation.webp",
      "imagem_pasta": "https://animefire.plus/img/animes/supernatural-the-animation/",
      "secao": "legendados",
      "pagina": 159,
      "total_episodios": 22,
      "link_video": "https://animefire.plus/video/supernatural-the-animation"
    },
    {
      "id": 3695,
      "nome": "Sword Art Online: Alicization - War of Underworld",
      "link": "https://animefire.plus/animes/sword-art-online-alicization---war-of-underworld-todos-os-episodios",
      "texto_original": "Sword Art Online: Alicization - War of Underworld",
      "rating": 7.63,
      "classificacao_etaria": "A16",
      "imagem_original": "https://animefire.plus/img/animes/sword-art-online-alicization---war-of-underworld.webp",
      "imagem_pasta": "https://animefire.plus/img/animes/sword-art-online-alicization---war-of-underworld/",
      "secao": "legendados",
      "pagina": 109,
      "total_episodios": 0,
      "link_video": "https://animefire.plus/video/sword-art-online-alicization---war-of-underworld"
    },
    {
      "id": 3696,
      "nome": "Sword Art Online: Alicization - War of Underworld 2nd Season",
      "link": "https://animefire.plus/animes/sword-art-online-alicization---war-of-underworld-2nd-season-todos-os-episodios",
      "texto_original": "Sword Art Online: Alicization - War of Underworld 2nd Season",
      "rating": null,
      "classificacao_etaria": "A16",
      "imagem_original": "https://animefire.plus/img/animes/sword-art-online-alicization---war-of-underworld-2nd-season.webp",
      "imagem_pasta": "https://animefire.plus/img/animes/sword-art-online-alicization---war-of-underworld-2nd-season/",
      "secao": "legendados",
      "pagina": 57,
      "total_episodios": 11,
      "link_video": "https://animefire.plus/video/sword-art-online-alicization---war-of-underworld-2nd-season"
    },
    {
      "id": 3697,
      "nome": "Sword Art Online: Alicization (Dublado)",
      "link": "https://animefire.plus/animes/sword-art-online-alicization-dublado-todos-os-episodios",
      "texto_original": "Sword Art Online: Alicization (Dublado)",
      "rating": 7.56,
      "classificacao_etaria": "A16",
      "imagem_original": "https://animefire.plus/img/animes/sword-art-online-alicization.webp",
      "imagem_pasta": "https://animefire.plus/img/animes/sword-art-online-alicization/",
      "secao": "dublados,legendados",
      "pagina": 12,
      "total_episodios": 24,
      "link_video": "https://animefire.plus/video/sword-art-online-alicization-dublado"
    },
    {
      "id": 3700,
      "nome": "Sword Gai: The Animation",
      "link": "https://animefire.plus/animes/sword-gai-the-animation-todos-os-episodios",
      "texto_original": "Sword Gai: The Animation",
      "rating": 6.08,
      "classificacao_etaria": "A16",
      "imagem_original": "https://animefire.plus/img/animes/sword-gai-the-animation.webp",
      "imagem_pasta": "https://animefire.plus/img/animes/sword-gai-the-animation/",
      "secao": "legendados",
      "pagina": 176,
      "total_episodios": 12,
      "link_video": "https://animefire.plus/video/sword-gai-the-animation"
    },
    {
      "id": 3701,
      "nome": "Sword Gai: The Animation Part II",
      "link": "https://animefire.plus/animes/sword-gai-the-animation-part-ii-todos-os-episodios",
      "texto_original": "Sword Gai: The Animation Part II",
      "rating": 6.07,
      "classificacao_etaria": "A16",
      "imagem_original": "https://animefire.plus/img/animes/sword-gai-the-animation-part-ii.webp",
      "imagem_pasta": "https://animefire.plus/img/animes/sword-gai-the-animation-part-ii/",
      "secao": "legendados",
      "pagina": 124,
      "total_episodios": 12,
      "link_video": "https://animefire.plus/video/sword-gai-the-animation-part-ii"
    },
    {
      "id": 3704,
      "nome": "Taboo Tattoo",
      "link": "https://animefire.plus/animes/taboo-tattoo-todos-os-episodios",
      "texto_original": "Taboo Tattoo",
      "rating": 5.93,
      "classificacao_etaria": "A16",
      "imagem_original": "https://animefire.plus/img/animes/taboo-tattoo.webp",
      "imagem_pasta": "https://animefire.plus/img/animes/taboo-tattoo/",
      "secao": "legendados",
      "pagina": 104,
      "total_episodios": 12,
      "link_video": "https://animefire.plus/video/taboo-tattoo"
    },
    {
      "id": 3713,
      "nome": "Taimadou Gakuen 35 Shiken Shoutai",
      "link": "https://animefire.plus/animes/taimadou-gakuen-35-shiken-shoutai-todos-os-episodios",
      "texto_original": "Taimadou Gakuen 35 Shiken Shoutai",
      "rating": 7.03,
      "classificacao_etaria": "A16",
      "imagem_original": "https://animefire.plus/img/animes/taimadou-gakuen-35-shiken-shoutai.webp",
      "imagem_pasta": "https://animefire.plus/img/animes/taimadou-gakuen-35-shiken-shoutai/",
      "secao": "legendados",
      "pagina": 144,
      "total_episodios": 12,
      "link_video": "https://animefire.plus/video/taimadou-gakuen-35-shiken-shoutai"
    },
    {
      "id": 3751,
      "nome": "Tasogare Otome x Amnesia",
      "link": "https://animefire.plus/animes/tasogare-otome-x-amnesia-todos-os-episodios",
      "texto_original": "Tasogare Otome x Amnesia",
      "rating": 7.92,
      "classificacao_etaria": "A16",
      "imagem_original": "https://animefire.plus/img/animes/tasogare-otome-x-amnesia.webp",
      "imagem_pasta": "https://animefire.plus/img/animes/tasogare-otome-x-amnesia/",
      "secao": "legendados",
      "pagina": 118,
      "total_episodios": 0,
      "link_video": "https://animefire.plus/video/tasogare-otome-x-amnesia"
    },
    {
      "id": 3756,
      "nome": "Tatakau Shisho: The Book of Bantorra",
      "link": "https://animefire.plus/animes/tatakau-shisho-the-book-of-bantorra-todos-os-episodios",
      "texto_original": "Tatakau Shisho: The Book of Bantorra",
      "rating": 7.3,
      "classificacao_etaria": "A16",
      "imagem_original": "https://animefire.plus/img/animes/tatakau-shisho-the-book-of-bantorra.webp",
      "imagem_pasta": "https://animefire.plus/img/animes/tatakau-shisho-the-book-of-bantorra/",
      "secao": "legendados",
      "pagina": 111,
      "total_episodios": 27,
      "link_video": "https://animefire.plus/video/tatakau-shisho-the-book-of-bantorra"
    },
    {
      "id": 3771,
      "nome": "Tekken: Bloodline (Dublado)",
      "link": "https://animefire.plus/animes/tekken-bloodline-dublado-todos-os-episodios",
      "texto_original": "Tekken: Bloodline (Dublado)",
      "rating": 6.44,
      "classificacao_etaria": "A16",
      "imagem_original": "https://animefire.plus/img/animes/tekken-bloodline.webp",
      "imagem_pasta": "https://animefire.plus/img/animes/tekken-bloodline/",
      "secao": "dublados,legendados",
      "pagina": 10,
      "total_episodios": 6,
      "link_video": "https://animefire.plus/video/tekken-bloodline-dublado"
    },
    {
      "id": 3779,
      "nome": "Tengoku Daimakyou (Dublado)",
      "link": "https://animefire.plus/animes/tengoku-daimakyou-dublado-todos-os-episodios",
      "texto_original": "Tengoku Daimakyou (Dublado)",
      "rating": 8.21,
      "classificacao_etaria": "A16",
      "imagem_original": "https://animefire.plus/img/animes/tengoku-daimakyou.jpg",
      "imagem_pasta": "https://animefire.plus/img/animes/tengoku-daimakyou/",
      "secao": "dublados,legendados",
      "pagina": 7,
      "total_episodios": 13,
      "link_video": "https://animefire.plus/video/tengoku-daimakyou-dublado"
    }
  ],
  "pagination": {
    "current_page": 31,
    "per_page": 20,
    "total_items": 708,
    "total_pages": 36,
    "has_next": true,
    "has_prev": true
  }
}
