{
  "message": "Animes com classificação etária: A16",
  "age_rating": "A16",
  "data": [
    {
      "id": 310,
      "nome": "Baki 2nd Season",
      "link": "https://animefire.plus/animes/baki-2nd-season-todos-os-episodios",
      "texto_original": "Baki 2nd Season",
      "rating": 7.47,
      "classificacao_etaria": "A16",
      "imagem_original": "https://animefire.plus/img/animes/baki-2nd-season.webp",
      "imagem_pasta": "https://animefire.plus/img/animes/baki-2nd-season/",
      "secao": "legendados",
      "pagina": 61,
      "total_episodios": 13,
      "link_video": "https://animefire.plus/video/baki-2nd-season"
    },
    {
      "id": 321,
      "nome": "Bakuretsu Hunters",
      "link": "https://animefire.plus/animes/bakuretsu-hunters-todos-os-episodios",
      "texto_original": "Bakuretsu Hunters",
      "rating": 6.78,
      "classificacao_etaria": "A16",
      "imagem_original": "https://animefire.plus/img/animes/bakuretsu-hunters.webp",
      "imagem_pasta": "https://animefire.plus/img/animes/bakuretsu-hunters/",
      "secao": "legendados",
      "pagina": 122,
      "total_episodios": 26,
      "link_video": "https://animefire.plus/video/bakuretsu-hunters"
    },
    {
      "id": 331,
      "nome": "Banana Fish",
      "link": "https://animefire.plus/animes/banana-fish-todos-os-episodios",
      "texto_original": "Banana Fish",
      "rating": 8.32,
      "classificacao_etaria": "A16",
      "imagem_original": "https://animefire.plus/img/animes/banana-fish.webp",
      "imagem_pasta": "https://animefire.plus/img/animes/banana-fish/",
      "secao": "legendados",
      "pagina": 119,
      "total_episodios": 24,
      "link_video": "https://animefire.plus/video/banana-fish"
    },
    {
      "id": 341,
      "nome": "Baoh Raihousha",
      "link": "https://animefire.plus/animes/baoh-raihousha-todos-os-episodios",
      "texto_original": "Baoh Raihousha",
      "rating": 6.12,
      "classificacao_etaria": "A16",
      "imagem_original": "https://animefire.plus/img/animes/baoh-raihousha.webp",
      "imagem_pasta": "https://animefire.plus/img/animes/baoh-raihousha/",
      "secao": "legendados",
      "pagina": 57,
      "total_episodios": 1,
      "link_video": "https://animefire.plus/video/baoh-raihousha"
    },
    {
      "id": 347,
      "nome": "Basilisk: Kouga Ninpou Chou (Dublado)",
      "link": "https://animefire.plus/animes/basilisk-kouga-ninpou-chou-dublado-todos-os-episodios",
      "texto_original": "Basilisk: Kouga Ninpou Chou (Dublado)",
      "rating": 7.63,
      "classificacao_etaria": "A16",
      "imagem_original": "https://animefire.plus/img/animes/basilisk-kouga-ninpou-chou.webp",
      "imagem_pasta": "https://animefire.plus/img/animes/basilisk-kouga-ninpou-chou/",
      "secao": "dublados,legendados",
      "pagina": 27,
      "total_episodios": 25,
      "link_video": "https://animefire.plus/video/basilisk-kouga-ninpou-chou-dublado"
    },
    {
      "id": 348,
      "nome": "Basilisk: Ouka Ninpouchou",
      "link": "https://animefire.plus/animes/basilisk-ouka-ninpouchou-todos-os-episodios",
      "texto_original": "Basilisk: Ouka Ninpouchou",
      "rating": 5.52,
      "classificacao_etaria": "A16",
      "imagem_original": "https://animefire.plus/img/animes/basilisk-ouka-ninpouchou.webp",
      "imagem_pasta": "https://animefire.plus/img/animes/basilisk-ouka-ninpouchou/",
      "secao": "legendados",
      "pagina": 100,
      "total_episodios": 24,
      "link_video": "https://animefire.plus/video/basilisk-ouka-ninpouchou"
    },
    {
      "id": 363,
      "nome": "Beastars (Dublado)",
      "link": "https://animefire.plus/animes/beastars-dublado-todos-os-episodios",
      "texto_original": "Beastars (Dublado)",
      "rating": 8.09,
      "classificacao_etaria": "A16",
      "imagem_original": "https://animefire.plus/img/animes/beastars.webp",
      "imagem_pasta": "https://animefire.plus/img/animes/beastars/",
      "secao": "dublados,legendados",
      "pagina": 25,
      "total_episodios": 12,
      "link_video": "https://animefire.plus/video/beastars-dublado"
    },
    {
      "id": 364,
      "nome": "Beastars 2nd Season (Dublado)",
      "link": "https://animefire.plus/animes/beastars-2nd-season-dublado-todos-os-episodios",
      "texto_original": "Beastars 2nd Season (Dublado)",
      "rating": 7.78,
      "classificacao_etaria": "A16",
      "imagem_original": "https://animefire.plus/img/animes/beastars-2nd-season.webp",
      "imagem_pasta": "https://animefire.plus/img/animes/beastars-2nd-season/",
      "secao": "dublados,legendados",
      "pagina": 16,
      "total_episodios": 12,
      "link_video": "https://animefire.plus/video/beastars-2nd-season-dublado"
    },
    {
      "id": 365,
      "nome": "Beastars Final Season",
      "link": "https://animefire.plus/animes/beastars-final-season-todos-os-episodios",
      "texto_original": "Beastars Final Season",
      "rating": null,
      "classificacao_etaria": "A16",
      "imagem_original": "https://animefire.plus/img/animes/beastars-final-season.webp",
      "imagem_pasta": "https://animefire.plus/img/animes/beastars-final-season/",
      "secao": "legendados,lancamentos",
      "pagina": 9,
      "total_episodios": 0,
      "link_video": "https://animefire.plus/video/beastars-final-season"
    },
    {
      "id": 369,
      "nome": "Beck",
      "link": "https://animefire.plus/animes/beck-todos-os-episodios",
      "texto_original": "Beck",
      "rating": 8.35,
      "classificacao_etaria": "A16",
      "imagem_original": "https://animefire.plus/img/animes/beck.webp",
      "imagem_pasta": "https://animefire.plus/img/animes/beck/",
      "secao": "legendados",
      "pagina": 153,
      "total_episodios": 26,
      "link_video": "https://animefire.plus/video/beck"
    },
    {
      "id": 373,
      "nome": "Benriya Saitou-san, Isekai ni Iku",
      "link": "https://animefire.plus/animes/benriya-saitou-san-isekai-ni-iku-todos-os-episodios",
      "texto_original": "Benriya Saitou-san, Isekai ni Iku",
      "rating": 7.38,
      "classificacao_etaria": "A16",
      "imagem_original": "https://animefire.plus/img/animes/benriya-saitou-san-isekai-ni-iku.webp",
      "imagem_pasta": "https://animefire.plus/img/animes/benriya-saitou-san-isekai-ni-iku/",
      "secao": "legendados",
      "pagina": 26,
      "total_episodios": 12,
      "link_video": "https://animefire.plus/video/benriya-saitou-san-isekai-ni-iku"
    },
    {
      "id": 377,
      "nome": "Berserk 2nd Season",
      "link": "https://animefire.plus/animes/berserk-2nd-season-todos-os-episodios",
      "texto_original": "Berserk 2nd Season",
      "rating": 6.98,
      "classificacao_etaria": "A16",
      "imagem_original": "https://animefire.plus/img/animes/berserk-2nd-season.webp",
      "imagem_pasta": "https://animefire.plus/img/animes/berserk-2nd-season/",
      "secao": "legendados",
      "pagina": 171,
      "total_episodios": 13,
      "link_video": "https://animefire.plus/video/berserk-2nd-season"
    },
    {
      "id": 382,
      "nome": "Biao Ren: Blades of the Guardians",
      "link": "https://animefire.plus/animes/biao-ren-blades-of-the-guardians-todos-os-episodios",
      "texto_original": "Biao Ren: Blades of the Guardians",
      "rating": 7.56,
      "classificacao_etaria": "A16",
      "imagem_original": "https://animefire.plus/img/animes/biao-ren-blades-of-the-guardians.webp",
      "imagem_pasta": "https://animefire.plus/img/animes/biao-ren-blades-of-the-guardians/",
      "secao": "legendados",
      "pagina": 18,
      "total_episodios": 15,
      "link_video": "https://animefire.plus/video/biao-ren-blades-of-the-guardians"
    },
    {
      "id": 407,
      "nome": "Black Blood Brothers",
      "link": "https://animefire.plus/animes/black-blood-brothers-todos-os-episodios",
      "texto_original": "Black Blood Brothers",
      "rating": 7.21,
      "classificacao_etaria": "A16",
      "imagem_original": "https://animefire.plus/img/animes/black-blood-brothers.webp",
      "imagem_pasta": "https://animefire.plus/img/animes/black-blood-brothers/",
      "secao": "legendados",
      "pagina": 151,
      "total_episodios": 6,
      "link_video": "https://animefire.plus/video/black-blood-brothers"
    },
    {
      "id": 408,
      "nome": "Black Bullet",
      "link": "https://animefire.plus/animes/black-bullet-todos-os-episodios",
      "texto_original": "Black Bullet",
      "rating": 7.33,
      "classificacao_etaria": "A16",
      "imagem_original": "https://animefire.plus/img/animes/black-bullet.webp",
      "imagem_pasta": "https://animefire.plus/img/animes/black-bullet/",
      "secao": "legendados",
      "pagina": 134,
      "total_episodios": 13,
      "link_video": "https://animefire.plus/video/black-bullet"
    },
    {
      "id": 412,
      "nome": "Black Lagoon",
      "link": "https://animefire.plus/animes/black-lagoon-todos-os-episodios",
      "texto_original": "Black Lagoon",
      "rating": 8.11,
      "classificacao_etaria": "A16",
      "imagem_original": "https://animefire.plus/img/animes/black-lagoon.webp",
      "imagem_pasta": "https://animefire.plus/img/animes/black-lagoon/",
      "secao": "legendados",
      "pagina": 112,
      "total_episodios": 12,
      "link_video": "https://animefire.plus/video/black-lagoon"
    },
    {
      "id": 414,
      "nome": "Black Lagoon: The Second Barrage",
      "link": "https://animefire.plus/animes/black-lagoon-the-second-barrage-todos-os-episodios",
      "texto_original": "Black Lagoon: The Second Barrage",
      "rating": 8.25,
      "classificacao_etaria": "A16",
      "imagem_original": "https://animefire.plus/img/animes/black-lagoon-the-second-barrage.webp",
      "imagem_pasta": "https://animefire.plus/img/animes/black-lagoon-the-second-barrage/",
      "secao": "legendados",
      "pagina": 162,
      "total_episodios": 12,
      "link_video": "https://animefire.plus/video/black-lagoon-the-second-barrage"
    },
    {
      "id": 415,
      "nome": "Black Magic M-66",
      "link": "https://animefire.plus/animes/black-magic-m-66-todos-os-episodios",
      "texto_original": "Black Magic M-66",
      "rating": 6.39,
      "classificacao_etaria": "A16",
      "imagem_original": "https://animefire.plus/img/animes/black-magic-m-66.webp",
      "imagem_pasta": "https://animefire.plus/img/animes/black-magic-m-66/",
      "secao": "legendados",
      "pagina": 56,
      "total_episodios": 1,
      "link_video": "https://animefire.plus/video/black-magic-m-66"
    },
    {
      "id": 417,
      "nome": "Blade",
      "link": "https://animefire.plus/animes/blade-todos-os-episodios",
      "texto_original": "Blade",
      "rating": 6.3,
      "classificacao_etaria": "A16",
      "imagem_original": "https://animefire.plus/img/animes/blade.webp",
      "imagem_pasta": "https://animefire.plus/img/animes/blade/",
      "secao": "legendados",
      "pagina": 135,
      "total_episodios": 12,
      "link_video": "https://animefire.plus/video/blade"
    },
    {
      "id": 418,
      "nome": "Blade & Soul",
      "link": "https://animefire.plus/animes/blade-soul-todos-os-episodios",
      "texto_original": "Blade & Soul",
      "rating": 6.17,
      "classificacao_etaria": "A16",
      "imagem_original": "https://animefire.plus/img/animes/blade-soul.webp",
      "imagem_pasta": "https://animefire.plus/img/animes/blade-soul/",
      "secao": "legendados",
      "pagina": 112,
      "total_episodios": 13,
      "link_video": "https://animefire.plus/video/blade-soul"
    }
  ],
  "pagination": {
    "current_page": 3,
    "per_page": 20,
    "total_items": 708,
    "total_pages": 36,
    "has_next": true,
    "has_prev": true
  }
}
