{
  "message": "Animes com classificação etária: A16",
  "age_rating": "A16",
  "data": [
    {
      "id": 2756,
      "nome": "No.6",
      "link": "https://animefire.plus/animes/no-6-todos-os-episodios",
      "texto_original": "No.6",
      "rating": 7.69,
      "classificacao_etaria": "A16",
      "imagem_original": "https://animefire.plus/img/animes/no-6.webp",
      "imagem_pasta": "https://animefire.plus/img/animes/no-6/",
      "secao": "legendados",
      "pagina": 161,
      "total_episodios": 11,
      "link_video": "https://animefire.plus/video/no-6"
    },
    {
      "id": 2757,
      "nome": "Noblesse (Dublado)",
      "link": "https://animefire.plus/animes/noblesse-dublado-todos-os-episodios",
      "texto_original": "Noblesse (Dublado)",
      "rating": 6.6,
      "classificacao_etaria": "A16",
      "imagem_original": "https://animefire.plus/img/animes/noblesse.webp",
      "imagem_pasta": "https://animefire.plus/img/animes/noblesse/",
      "secao": "dublados,legendados",
      "pagina": 20,
      "total_episodios": 13,
      "link_video": "https://animefire.plus/video/noblesse-dublado"
    },
    {
      "id": 2758,
      "nome": "Noblesse: Awakening",
      "link": "https://animefire.plus/animes/noblesse-awakening-todos-os-episodios",
      "texto_original": "Noblesse: Awakening",
      "rating": 7.67,
      "classificacao_etaria": "A16",
      "imagem_original": "https://animefire.plus/img/animes/noblesse-awakening.webp",
      "imagem_pasta": "https://animefire.plus/img/animes/noblesse-awakening/",
      "secao": "legendados",
      "pagina": 153,
      "total_episodios": 1,
      "link_video": "https://animefire.plus/video/noblesse-awakening"
    },
    {
      "id": 2759,
      "nome": "Noblesse: Pamyeol-ui Sijak",
      "link": "https://animefire.plus/animes/noblesse-pamyeol-ui-sijak-todos-os-episodios",
      "texto_original": "Noblesse: Pamyeol-ui Sijak",
      "rating": 7.43,
      "classificacao_etaria": "A16",
      "imagem_original": "https://animefire.plus/img/animes/noblesse-pamyeol-ui-sijak.webp",
      "imagem_pasta": "https://animefire.plus/img/animes/noblesse-pamyeol-ui-sijak/",
      "secao": "legendados",
      "pagina": 51,
      "total_episodios": 1,
      "link_video": "https://animefire.plus/video/noblesse-pamyeol-ui-sijak"
    },
    {
      "id": 2763,
      "nome": "Nobunaga the Fool",
      "link": "https://animefire.plus/animes/nobunaga-the-fool-todos-os-episodios",
      "texto_original": "Nobunaga the Fool",
      "rating": 6.76,
      "classificacao_etaria": "A16",
      "imagem_original": "https://animefire.plus/img/animes/nobunaga-the-fool.webp",
      "imagem_pasta": "https://animefire.plus/img/animes/nobunaga-the-fool/",
      "secao": "legendados",
      "pagina": 142,
      "total_episodios": 24,
      "link_video": "https://animefire.plus/video/nobunaga-the-fool"
    },
    {
      "id": 2765,
      "nome": "Nobunagun",
      "link": "https://animefire.plus/animes/nobunagun-todos-os-episodios",
      "texto_original": "Nobunagun",
      "rating": 6.77,
      "classificacao_etaria": "A16",
      "imagem_original": "https://animefire.plus/img/animes/nobunagun.webp",
      "imagem_pasta": "https://animefire.plus/img/animes/nobunagun/",
      "secao": "legendados",
      "pagina": 171,
      "total_episodios": 13,
      "link_video": "https://animefire.plus/video/nobunagun"
    },
    {
      "id": 2774,
      "nome": "Nomad: Megalo Box 2 (Dublado)",
      "link": "https://animefire.plus/animes/nomad-megalo-box-2-dublado-todos-os-episodios",
      "texto_original": "Nomad: Megalo Box 2 (Dublado)",
      "rating": 8.18,
      "classificacao_etaria": "A16",
      "imagem_original": "https://animefire.plus/img/animes/nomad-megalo-box-2.webp",
      "imagem_pasta": "https://animefire.plus/img/animes/nomad-megalo-box-2/",
      "secao": "dublados,legendados",
      "pagina": 17,
      "total_episodios": 13,
      "link_video": "https://animefire.plus/video/nomad-megalo-box-2-dublado"
    },
    {
      "id": 2838,
      "nome": "One Punch Man (Dublado)",
      "link": "https://animefire.plus/animes/one-punch-man-dublado-todos-os-episodios",
      "texto_original": "One Punch Man (Dublado)",
      "rating": 8.7,
      "classificacao_etaria": "A16",
      "imagem_original": "https://animefire.plus/img/animes/one-punch-man.webp",
      "imagem_pasta": "https://animefire.plus/img/animes/one-punch-man/",
      "secao": "dublados,legendados",
      "pagina": 28,
      "total_episodios": 12,
      "link_video": "https://animefire.plus/video/one-punch-man-dublado"
    },
    {
      "id": 2839,
      "nome": "One Punch Man 2nd Season (Dublado)",
      "link": "https://animefire.plus/animes/one-punch-man-2nd-season-dublado-todos-os-episodios",
      "texto_original": "One Punch Man 2nd Season (Dublado)",
      "rating": 7.44,
      "classificacao_etaria": "A16",
      "imagem_original": "https://animefire.plus/img/animes/one-punch-man-2nd-season.webp",
      "imagem_pasta": "https://animefire.plus/img/animes/one-punch-man-2nd-season/",
      "secao": "dublados,legendados",
      "pagina": 13,
      "total_episodios": 12,
      "link_video": "https://animefire.plus/video/one-punch-man-2nd-season-dublado"
    },
    {
      "id": 2840,
      "nome": "One Punch Man 2nd Season Commemorative Special",
      "link": "https://animefire.plus/animes/one-punch-man-2nd-season-commemorative-special-todos-os-episodios",
      "texto_original": "One Punch Man 2nd Season Commemorative Special",
      "rating": 6.71,
      "classificacao_etaria": "A16",
      "imagem_original": "https://animefire.plus/img/animes/one-punch-man-2nd-season-commemorative-special.webp",
      "imagem_pasta": "https://animefire.plus/img/animes/one-punch-man-2nd-season-commemorative-special/",
      "secao": "legendados",
      "pagina": 89,
      "total_episodios": 1,
      "link_video": "https://animefire.plus/video/one-punch-man-2nd-season-commemorative-special"
    },
    {
      "id": 2841,
      "nome": "One Punch Man 3",
      "link": "https://animefire.plus/animes/one-punch-man-3-todos-os-episodios",
      "texto_original": "One Punch Man 3",
      "rating": null,
      "classificacao_etaria": "A16",
      "imagem_original": "https://animefire.plus/img/animes/one-punch-man-3.webp",
      "imagem_pasta": "https://animefire.plus/img/animes/one-punch-man-3/",
      "secao": "legendados,lancamentos",
      "pagina": 19,
      "total_episodios": 0,
      "link_video": "https://animefire.plus/video/one-punch-man-3"
    },
    {
      "id": 2851,
      "nome": "Onihei",
      "link": "https://animefire.plus/animes/onihei-todos-os-episodios",
      "texto_original": "Onihei",
      "rating": 7.35,
      "classificacao_etaria": "A16",
      "imagem_original": "https://animefire.plus/img/animes/onihei.webp",
      "imagem_pasta": "https://animefire.plus/img/animes/onihei/",
      "secao": "legendados",
      "pagina": 149,
      "total_episodios": 6,
      "link_video": "https://animefire.plus/video/onihei"
    },
    {
      "id": 2857,
      "nome": "Onimusha (Dublado)",
      "link": "https://animefire.plus/animes/onimusha-dublado-todos-os-episodios",
      "texto_original": "Onimusha (Dublado)",
      "rating": 6.55,
      "classificacao_etaria": "A16",
      "imagem_original": "https://animefire.plus/img/animes/onimusha.webp",
      "imagem_pasta": "https://animefire.plus/img/animes/onimusha/",
      "secao": "dublados,legendados",
      "pagina": 4,
      "total_episodios": 8,
      "link_video": "https://animefire.plus/video/onimusha-dublado"
    },
    {
      "id": 2880,
      "nome": "Ore dake Level Up na Ken (Dublado)",
      "link": "https://animefire.plus/animes/ore-dake-level-up-na-ken-dublado-todos-os-episodios",
      "texto_original": "Ore dake Level Up na Ken (Dublado)",
      "rating": 8.24,
      "classificacao_etaria": "A16",
      "imagem_original": "https://animefire.plus/img/animes/ore-dake-level-up-na-ken.webp",
      "imagem_pasta": "https://animefire.plus/img/animes/ore-dake-level-up-na-ken/",
      "secao": "dublados,legendados",
      "pagina": 4,
      "total_episodios": 12,
      "link_video": "https://animefire.plus/video/ore-dake-level-up-na-ken-dublado"
    },
    {
      "id": 2881,
      "nome": "Ore dake Level Up na Ken Season 2: Arise from the Shadow (Dublado)",
      "link": "https://animefire.plus/animes/ore-dake-level-up-na-ken-season-2-arise-from-the-shadow-dublado-todos-os-episodios",
      "texto_original": "Ore dake Level Up na Ken Season 2: Arise from the Shadow (Dublado)",
      "rating": 8.68,
      "classificacao_etaria": "A16",
      "imagem_original": "https://animefire.plus/img/animes/ore-dake-level-up-na-ken-season-2-arise-from-the-shadow.webp",
      "imagem_pasta": "https://animefire.plus/img/animes/ore-dake-level-up-na-ken-season-2-arise-from-the-shadow/",
      "secao": "dublados,legendados",
      "pagina": 1,
      "total_episodios": 13,
      "link_video": "https://animefire.plus/video/ore-dake-level-up-na-ken-season-2-arise-from-the-shadow-dublado"
    },
    {
      "id": 2907,
      "nome": "Osomatsu-san",
      "link": "https://animefire.plus/animes/osomatsu-san-todos-os-episodios",
      "texto_original": "Osomatsu-san",
      "rating": 8.06,
      "classificacao_etaria": "A16",
      "imagem_original": "https://animefire.plus/img/animes/osomatsu-san.webp",
      "imagem_pasta": "https://animefire.plus/img/animes/osomatsu-san/",
      "secao": "legendados",
      "pagina": 75,
      "total_episodios": 26,
      "link_video": "https://animefire.plus/video/osomatsu-san"
    },
    {
      "id": 2908,
      "nome": "Osomatsu-san 2nd Season",
      "link": "https://animefire.plus/animes/osomatsu-san-2nd-season-todos-os-episodios",
      "texto_original": "Osomatsu-san 2nd Season",
      "rating": 7.61,
      "classificacao_etaria": "A16",
      "imagem_original": "https://animefire.plus/img/animes/osomatsu-san-2nd-season.webp",
      "imagem_pasta": "https://animefire.plus/img/animes/osomatsu-san-2nd-season/",
      "secao": "legendados",
      "pagina": 51,
      "total_episodios": 25,
      "link_video": "https://animefire.plus/video/osomatsu-san-2nd-season"
    },
    {
      "id": 2909,
      "nome": "Osomatsu-san 3rd Season",
      "link": "https://animefire.plus/animes/osomatsu-san-3rd-season-todos-os-episodios",
      "texto_original": "Osomatsu-san 3rd Season",
      "rating": null,
      "classificacao_etaria": "A16",
      "imagem_original": "https://animefire.plus/img/animes/osomatsu-san-3rd-season.webp",
      "imagem_pasta": "https://animefire.plus/img/animes/osomatsu-san-3rd-season/",
      "secao": "legendados",
      "pagina": 51,
      "total_episodios": 25,
      "link_video": "https://animefire.plus/video/osomatsu-san-3rd-season"
    },
    {
      "id": 2910,
      "nome": "Osomatsu-san 4th Season",
      "link": "https://animefire.plus/animes/osomatsu-san-4th-season-todos-os-episodios",
      "texto_original": "Osomatsu-san 4th Season",
      "rating": 6.67,
      "classificacao_etaria": "A16",
      "imagem_original": "https://animefire.plus/img/animes/osomatsu-san-4th-season.webp",
      "imagem_pasta": "https://animefire.plus/img/animes/osomatsu-san-4th-season/",
      "secao": "legendados,lancamentos",
      "pagina": 1,
      "total_episodios": 4,
      "link_video": "https://animefire.plus/video/osomatsu-san-4th-season"
    },
    {
      "id": 2911,
      "nome": "Osomatsu-san: Ouma de Kobanashi",
      "link": "https://animefire.plus/animes/osomatsu-san-ouma-de-kobanashi-todos-os-episodios",
      "texto_original": "Osomatsu-san: Ouma de Kobanashi",
      "rating": 7.31,
      "classificacao_etaria": "A16",
      "imagem_original": "https://animefire.plus/img/animes/osomatsu-san-ouma-de-kobanashi.webp",
      "imagem_pasta": "https://animefire.plus/img/animes/osomatsu-san-ouma-de-kobanashi/",
      "secao": "legendados",
      "pagina": 89,
      "total_episodios": 1,
      "link_video": "https://animefire.plus/video/osomatsu-san-ouma-de-kobanashi"
    }
  ],
  "pagination": {
    "current_page": 25,
    "per_page": 20,
    "total_items": 708,
    "total_pages": 36,
    "has_next": true,
    "has_prev": true
  }
}
