{
  "message": "Animes com classificação etária: A16",
  "age_rating": "A16",
  "data": [
    {
      "id": 1250,
      "nome": "Great Teacher Onizuka",
      "link": "https://animefire.plus/animes/great-teacher-onizuka-todos-os-episodios",
      "texto_original": "Great Teacher Onizuka",
      "rating": 8.7,
      "classificacao_etaria": "A16",
      "imagem_original": "https://animefire.plus/img/animes/great-teacher-onizuka.webp",
      "imagem_pasta": "https://animefire.plus/img/animes/great-teacher-onizuka/",
      "secao": "legendados",
      "pagina": 57,
      "total_episodios": 43,
      "link_video": "https://animefire.plus/video/great-teacher-onizuka"
    },
    {
      "id": 1259,
      "nome": "Grisaia No Rakuen",
      "link": "https://animefire.plus/animes/grisaia-no-rakuen-todos-os-episodios",
      "texto_original": "Grisaia No Rakuen",
      "rating": 7.98,
      "classificacao_etaria": "A16",
      "imagem_original": "https://animefire.plus/img/animes/grisaia-no-rakuen.webp",
      "imagem_pasta": "https://animefire.plus/img/animes/grisaia-no-rakuen/",
      "secao": "legendados",
      "pagina": 91,
      "total_episodios": 10,
      "link_video": "https://animefire.plus/video/grisaia-no-rakuen"
    },
    {
      "id": 1260,
      "nome": "Grisaia: Phantom Trigger",
      "link": "https://animefire.plus/animes/grisaia-phantom-trigger-todos-os-episodios",
      "texto_original": "Grisaia: Phantom Trigger",
      "rating": 6.38,
      "classificacao_etaria": "A16",
      "imagem_original": "https://animefire.plus/img/animes/grisaia-phantom-trigger.webp",
      "imagem_pasta": "https://animefire.plus/img/animes/grisaia-phantom-trigger/",
      "secao": "legendados",
      "pagina": 8,
      "total_episodios": 13,
      "link_video": "https://animefire.plus/video/grisaia-phantom-trigger"
    },
    {
      "id": 1263,
      "nome": "Guardian Hearts-Power UP!",
      "link": "https://animefire.plus/animes/guardian-hearts-power-up-todos-os-episodios",
      "texto_original": "Guardian Hearts-Power UP!",
      "rating": 5.94,
      "classificacao_etaria": "A16",
      "imagem_original": "https://animefire.plus/img/animes/guardian-hearts-power-up.webp",
      "imagem_pasta": "https://animefire.plus/img/animes/guardian-hearts-power-up/",
      "secao": "legendados",
      "pagina": 70,
      "total_episodios": 2,
      "link_video": "https://animefire.plus/video/guardian-hearts-power-up"
    },
    {
      "id": 1267,
      "nome": "Guilty Crown",
      "link": "https://animefire.plus/animes/guilty-crown-todos-os-episodios",
      "texto_original": "Guilty Crown",
      "rating": 7.68,
      "classificacao_etaria": "A16",
      "imagem_original": "https://animefire.plus/img/animes/guilty-crown.webp",
      "imagem_pasta": "https://animefire.plus/img/animes/guilty-crown/",
      "secao": "legendados",
      "pagina": 127,
      "total_episodios": 22,
      "link_video": "https://animefire.plus/video/guilty-crown"
    },
    {
      "id": 1268,
      "nome": "Guilty Crown: 4-koma Gekijou",
      "link": "https://animefire.plus/animes/guilty-crown-4-koma-gekijou-todos-os-episodios",
      "texto_original": "Guilty Crown: 4-koma Gekijou",
      "rating": 7.07,
      "classificacao_etaria": "A16",
      "imagem_original": "https://animefire.plus/img/animes/guilty-crown-4-koma-gekijou.webp",
      "imagem_pasta": "https://animefire.plus/img/animes/guilty-crown-4-koma-gekijou/",
      "secao": "legendados",
      "pagina": 88,
      "total_episodios": 0,
      "link_video": "https://animefire.plus/video/guilty-crown-4-koma-gekijou"
    },
    {
      "id": 1270,
      "nome": "Guimi Zhi Zhu: Xiaochou Pian",
      "link": "https://animefire.plus/animes/guimi-zhi-zhu-xiaochou-pian-todos-os-episodios",
      "texto_original": "Guimi Zhi Zhu: Xiaochou Pian",
      "rating": 8.46,
      "classificacao_etaria": "A16",
      "imagem_original": "https://animefire.plus/img/animes/guimi-zhi-zhu-xiaochou-pian.webp",
      "imagem_pasta": "https://animefire.plus/img/animes/guimi-zhi-zhu-xiaochou-pian/",
      "secao": "legendados,lancamentos",
      "pagina": 1,
      "total_episodios": 7,
      "link_video": "https://animefire.plus/video/guimi-zhi-zhu-xiaochou-pian"
    },
    {
      "id": 1281,
      "nome": "Gungrave",
      "link": "https://animefire.plus/animes/gungrave-todos-os-episodios",
      "texto_original": "Gungrave",
      "rating": 7.9,
      "classificacao_etaria": "A16",
      "imagem_original": "https://animefire.plus/img/animes/gungrave.webp",
      "imagem_pasta": "https://animefire.plus/img/animes/gungrave/",
      "secao": "legendados",
      "pagina": 101,
      "total_episodios": 26,
      "link_video": "https://animefire.plus/video/gungrave"
    },
    {
      "id": 1285,
      "nome": "Gunslinger Girl",
      "link": "https://animefire.plus/animes/gunslinger-girl-todos-os-episodios",
      "texto_original": "Gunslinger Girl",
      "rating": 7.48,
      "classificacao_etaria": "A16",
      "imagem_original": "https://animefire.plus/img/animes/gunslinger-girl.webp",
      "imagem_pasta": "https://animefire.plus/img/animes/gunslinger-girl/",
      "secao": "legendados",
      "pagina": 101,
      "total_episodios": 13,
      "link_video": "https://animefire.plus/video/gunslinger-girl"
    },
    {
      "id": 1286,
      "nome": "Gunslinger Girl: Il Teatrino",
      "link": "https://animefire.plus/animes/gunslinger-girl-il-teatrino-todos-os-episodios",
      "texto_original": "Gunslinger Girl: Il Teatrino",
      "rating": 7.19,
      "classificacao_etaria": "A16",
      "imagem_original": "https://animefire.plus/img/animes/gunslinger-girl-il-teatrino.webp",
      "imagem_pasta": "https://animefire.plus/img/animes/gunslinger-girl-il-teatrino/",
      "secao": "legendados",
      "pagina": 71,
      "total_episodios": 13,
      "link_video": "https://animefire.plus/video/gunslinger-girl-il-teatrino"
    },
    {
      "id": 1287,
      "nome": "Gunslinger Girl: Il Teatrino OVA",
      "link": "https://animefire.plus/animes/gunslinger-girl-il-teatrino-ova-todos-os-episodios",
      "texto_original": "Gunslinger Girl: Il Teatrino OVA",
      "rating": 7.02,
      "classificacao_etaria": "A16",
      "imagem_original": "https://animefire.plus/img/animes/gunslinger-girl-il-teatrino-ova.webp",
      "imagem_pasta": "https://animefire.plus/img/animes/gunslinger-girl-il-teatrino-ova/",
      "secao": "legendados",
      "pagina": 71,
      "total_episodios": 1,
      "link_video": "https://animefire.plus/video/gunslinger-girl-il-teatrino-ova"
    },
    {
      "id": 1295,
      "nome": "Gyakkyou Burai Kaiji: Hakairoku-hen",
      "link": "https://animefire.plus/animes/gyakkyou-burai-kaiji-hakairoku-hen-todos-os-episodios",
      "texto_original": "Gyakkyou Burai Kaiji: Hakairoku-hen",
      "rating": 8.27,
      "classificacao_etaria": "A16",
      "imagem_original": "https://animefire.plus/img/animes/gyakkyou-burai-kaiji-hakairoku-hen.webp",
      "imagem_pasta": "https://animefire.plus/img/animes/gyakkyou-burai-kaiji-hakairoku-hen/",
      "secao": "legendados",
      "pagina": 151,
      "total_episodios": 26,
      "link_video": "https://animefire.plus/video/gyakkyou-burai-kaiji-hakairoku-hen"
    },
    {
      "id": 1296,
      "nome": "Gyakkyou Burai Kaiji: Ultimate Survivor",
      "link": "https://animefire.plus/animes/gyakkyou-burai-kaiji-ultimate-survivor-todos-os-episodios",
      "texto_original": "Gyakkyou Burai Kaiji: Ultimate Survivor",
      "rating": 8.31,
      "classificacao_etaria": "A16",
      "imagem_original": "https://animefire.plus/img/animes/gyakkyou-burai-kaiji-ultimate-survivor.webp",
      "imagem_pasta": "https://animefire.plus/img/animes/gyakkyou-burai-kaiji-ultimate-survivor/",
      "secao": "legendados",
      "pagina": 121,
      "total_episodios": 26,
      "link_video": "https://animefire.plus/video/gyakkyou-burai-kaiji-ultimate-survivor"
    },
    {
      "id": 1305,
      "nome": "Hai To Gensou No Grimgar",
      "link": "https://animefire.plus/animes/hai-to-gensou-no-grimgar-todos-os-episodios",
      "texto_original": "Hai To Gensou No Grimgar",
      "rating": 7.8,
      "classificacao_etaria": "A16",
      "imagem_original": "https://animefire.plus/img/animes/hai-to-gensou-no-grimgar.webp",
      "imagem_pasta": "https://animefire.plus/img/animes/hai-to-gensou-no-grimgar/",
      "secao": "legendados",
      "pagina": 97,
      "total_episodios": 12,
      "link_video": "https://animefire.plus/video/hai-to-gensou-no-grimgar"
    },
    {
      "id": 1327,
      "nome": "Hakata Tonkotsu Ramens",
      "link": "https://animefire.plus/animes/hakata-tonkotsu-ramens-todos-os-episodios",
      "texto_original": "Hakata Tonkotsu Ramens",
      "rating": 7.5,
      "classificacao_etaria": "A16",
      "imagem_original": "https://animefire.plus/img/animes/hakata-tonkotsu-ramens.webp",
      "imagem_pasta": "https://animefire.plus/img/animes/hakata-tonkotsu-ramens/",
      "secao": "legendados",
      "pagina": 102,
      "total_episodios": 0,
      "link_video": "https://animefire.plus/video/hakata-tonkotsu-ramens"
    },
    {
      "id": 1333,
      "nome": "Hakuouki",
      "link": "https://animefire.plus/animes/hakuouki-todos-os-episodios",
      "texto_original": "Hakuouki",
      "rating": 7.51,
      "classificacao_etaria": "A16",
      "imagem_original": "https://animefire.plus/img/animes/hakuouki.webp",
      "imagem_pasta": "https://animefire.plus/img/animes/hakuouki/",
      "secao": "legendados",
      "pagina": 96,
      "total_episodios": 12,
      "link_video": "https://animefire.plus/video/hakuouki"
    },
    {
      "id": 1334,
      "nome": "Hakuouki Hekketsuroku",
      "link": "https://animefire.plus/animes/hakuouki-hekketsuroku-todos-os-episodios",
      "texto_original": "Hakuouki Hekketsuroku",
      "rating": 7.7,
      "classificacao_etaria": "A16",
      "imagem_original": "https://animefire.plus/img/animes/hakuouki-hekketsuroku.webp",
      "imagem_pasta": "https://animefire.plus/img/animes/hakuouki-hekketsuroku/",
      "secao": "legendados",
      "pagina": 111,
      "total_episodios": 10,
      "link_video": "https://animefire.plus/video/hakuouki-hekketsuroku"
    },
    {
      "id": 1336,
      "nome": "Hakuouki OVA (2021)",
      "link": "https://animefire.plus/animes/hakuouki-ova-2021-todos-os-episodios",
      "texto_original": "Hakuouki OVA (2021)",
      "rating": 7.05,
      "classificacao_etaria": "A16",
      "imagem_original": "https://animefire.plus/img/animes/hakuouki-ova-2021.webp",
      "imagem_pasta": "https://animefire.plus/img/animes/hakuouki-ova-2021/",
      "secao": "legendados,lancamentos",
      "pagina": 36,
      "total_episodios": 2,
      "link_video": "https://animefire.plus/video/hakuouki-ova-2021"
    },
    {
      "id": 1337,
      "nome": "Hakuouki Reimeiroku",
      "link": "https://animefire.plus/animes/hakuouki-reimeiroku-todos-os-episodios",
      "texto_original": "Hakuouki Reimeiroku",
      "rating": 7.58,
      "classificacao_etaria": "A16",
      "imagem_original": "https://animefire.plus/img/animes/hakuouki-reimeiroku.webp",
      "imagem_pasta": "https://animefire.plus/img/animes/hakuouki-reimeiroku/",
      "secao": "legendados",
      "pagina": 111,
      "total_episodios": 5,
      "link_video": "https://animefire.plus/video/hakuouki-reimeiroku"
    },
    {
      "id": 1342,
      "nome": "Hamatora The Animation",
      "link": "https://animefire.plus/animes/hamatora-the-animation-todos-os-episodios",
      "texto_original": "Hamatora The Animation",
      "rating": 7.36,
      "classificacao_etaria": "A16",
      "imagem_original": "https://animefire.plus/img/animes/hamatora-the-animation.webp",
      "imagem_pasta": "https://animefire.plus/img/animes/hamatora-the-animation/",
      "secao": "legendados",
      "pagina": 91,
      "total_episodios": 12,
      "link_video": "https://animefire.plus/video/hamatora-the-animation"
    }
  ],
  "pagination": {
    "current_page": 13,
    "per_page": 20,
    "total_items": 708,
    "total_pages": 36,
    "has_next": true,
    "has_prev": true
  }
}
