{
  "message": "Animes com classificação etária: A16",
  "age_rating": "A16",
  "data": [
    {
      "id": 2625,
      "nome": "Mushoku Tensei II: Isekai Ittara Honki Dasu (Dublado)",
      "link": "https://animefire.plus/animes/mushoku-tensei-ii-isekai-ittara-honki-dasu-dublado-todos-os-episodios",
      "texto_original": "Mushoku Tensei II: Isekai Ittara Honki Dasu (Dublado)",
      "rating": 8.22,
      "classificacao_etaria": "A16",
      "imagem_original": "https://animefire.plus/img/animes/mushoku-tensei-ii-isekai-ittara-honki-dasu.webp",
      "imagem_pasta": "https://animefire.plus/img/animes/mushoku-tensei-ii-isekai-ittara-honki-dasu/",
      "secao": "dublados",
      "pagina": 6,
      "total_episodios": 12,
      "link_video": "https://animefire.plus/video/mushoku-tensei-ii-isekai-ittara-honki-dasu-dublado"
    },
    {
      "id": 2626,
      "nome": "Mushoku Tensei II: Isekai Ittara Honki Dasu Part 2",
      "link": "https://animefire.plus/animes/mushoku-tensei-ii-isekai-ittara-honki-dasu-part-2-todos-os-episodios",
      "texto_original": "Mushoku Tensei II: Isekai Ittara Honki Dasu Part 2",
      "rating": 8.41,
      "classificacao_etaria": "A16",
      "imagem_original": "https://animefire.plus/img/animes/mushoku-tensei-ii-isekai-ittara-honki-dasu-part-2.webp",
      "imagem_pasta": "https://animefire.plus/img/animes/mushoku-tensei-ii-isekai-ittara-honki-dasu-part-2/",
      "secao": "legendados",
      "pagina": 15,
      "total_episodios": 12,
      "link_video": "https://animefire.plus/video/mushoku-tensei-ii-isekai-ittara-honki-dasu-part-2"
    },
    {
      "id": 2627,
      "nome": "Mushoku Tensei: Isekai Ittara Honki Dasu (Dublado)",
      "link": "https://animefire.plus/animes/mushoku-tensei-isekai-ittara-honki-dasu-dublado-todos-os-episodios",
      "texto_original": "Mushoku Tensei: Isekai Ittara Honki Dasu (Dublado)",
      "rating": 8.35,
      "classificacao_etaria": "A16",
      "imagem_original": "https://animefire.plus/img/animes/mushoku-tensei-isekai-ittara-honki-dasu.webp",
      "imagem_pasta": "https://animefire.plus/img/animes/mushoku-tensei-isekai-ittara-honki-dasu/",
      "secao": "dublados,legendados",
      "pagina": 16,
      "total_episodios": 11,
      "link_video": "https://animefire.plus/video/mushoku-tensei-isekai-ittara-honki-dasu-dublado"
    },
    {
      "id": 2628,
      "nome": "Mushoku Tensei: Isekai Ittara Honki Dasu 2nd Season (Dublado)",
      "link": "https://animefire.plus/animes/mushoku-tensei-isekai-ittara-honki-dasu-2nd-season-dublado-todos-os-episodios",
      "texto_original": "Mushoku Tensei: Isekai Ittara Honki Dasu 2nd Season (Dublado)",
      "rating": 8.63,
      "classificacao_etaria": "A16",
      "imagem_original": "https://animefire.plus/img/animes/mushoku-tensei-isekai-ittara-honki-dasu-2nd-season.webp",
      "imagem_pasta": "https://animefire.plus/img/animes/mushoku-tensei-isekai-ittara-honki-dasu-2nd-season/",
      "secao": "dublados,legendados",
      "pagina": 14,
      "total_episodios": 12,
      "link_video": "https://animefire.plus/video/mushoku-tensei-isekai-ittara-honki-dasu-2nd-season-dublado"
    },
    {
      "id": 2629,
      "nome": "Mushoku Tensei: Isekai Ittara Honki Dasu Special (Dublado)",
      "link": "https://animefire.plus/animes/mushoku-tensei-isekai-ittara-honki-dasu-special-dublado-todos-os-episodios",
      "texto_original": "Mushoku Tensei: Isekai Ittara Honki Dasu Special (Dublado)",
      "rating": 7.79,
      "classificacao_etaria": "A16",
      "imagem_original": "https://animefire.plus/img/animes/mushoku-tensei-isekai-ittara-honki-dasu-special.webp",
      "imagem_pasta": "https://animefire.plus/img/animes/mushoku-tensei-isekai-ittara-honki-dasu-special/",
      "secao": "dublados,legendados",
      "pagina": 10,
      "total_episodios": 1,
      "link_video": "https://animefire.plus/video/mushoku-tensei-isekai-ittara-honki-dasu-special-dublado"
    },
    {
      "id": 2649,
      "nome": "Nami Yo Kiitekure",
      "link": "https://animefire.plus/animes/nami-yo-kiitekure-todos-os-episodios",
      "texto_original": "Nami Yo Kiitekure",
      "rating": 7.37,
      "classificacao_etaria": "A16",
      "imagem_original": "https://animefire.plus/img/animes/nami-yo-kiitekure.webp",
      "imagem_pasta": "https://animefire.plus/img/animes/nami-yo-kiitekure/",
      "secao": "legendados",
      "pagina": 60,
      "total_episodios": 8,
      "link_video": "https://animefire.plus/video/nami-yo-kiitekure"
    },
    {
      "id": 2677,
      "nome": "Narutaru: Mukuro Naru Hoshi Tama Taru Ko",
      "link": "https://animefire.plus/animes/narutaru-mukuro-naru-hoshi-tama-taru-ko-todos-os-episodios",
      "texto_original": "Narutaru: Mukuro Naru Hoshi Tama Taru Ko",
      "rating": 6.15,
      "classificacao_etaria": "A16",
      "imagem_original": "https://animefire.plus/img/animes/narutaru-mukuro-naru-hoshi-tama-taru-ko.webp",
      "imagem_pasta": "https://animefire.plus/img/animes/narutaru-mukuro-naru-hoshi-tama-taru-ko/",
      "secao": "legendados",
      "pagina": 177,
      "total_episodios": 13,
      "link_video": "https://animefire.plus/video/narutaru-mukuro-naru-hoshi-tama-taru-ko"
    },
    {
      "id": 2703,
      "nome": "Needless",
      "link": "https://animefire.plus/animes/needless-todos-os-episodios",
      "texto_original": "Needless",
      "rating": 7.35,
      "classificacao_etaria": "A16",
      "imagem_original": "https://animefire.plus/img/animes/needless.webp",
      "imagem_pasta": "https://animefire.plus/img/animes/needless/",
      "secao": "legendados",
      "pagina": 116,
      "total_episodios": 24,
      "link_video": "https://animefire.plus/video/needless"
    },
    {
      "id": 2706,
      "nome": "Nejimaki Seirei Senki: Tenkyou No Alderamin",
      "link": "https://animefire.plus/animes/nejimaki-seirei-senki-tenkyou-no-alderamin-todos-os-episodios",
      "texto_original": "Nejimaki Seirei Senki: Tenkyou No Alderamin",
      "rating": 7.84,
      "classificacao_etaria": "A16",
      "imagem_original": "https://animefire.plus/img/animes/nejimaki-seirei-senki-tenkyou-no-alderamin.webp",
      "imagem_pasta": "https://animefire.plus/img/animes/nejimaki-seirei-senki-tenkyou-no-alderamin/",
      "secao": "legendados",
      "pagina": 102,
      "total_episodios": 0,
      "link_video": "https://animefire.plus/video/nejimaki-seirei-senki-tenkyou-no-alderamin"
    },
    {
      "id": 2711,
      "nome": "Nekomonogatari: Kuro",
      "link": "https://animefire.plus/animes/nekomonogatari-kuro-todos-os-episodios",
      "texto_original": "Nekomonogatari: Kuro",
      "rating": 8.03,
      "classificacao_etaria": "A16",
      "imagem_original": "https://animefire.plus/img/animes/nekomonogatari-kuro.webp",
      "imagem_pasta": "https://animefire.plus/img/animes/nekomonogatari-kuro/",
      "secao": "legendados",
      "pagina": 148,
      "total_episodios": 4,
      "link_video": "https://animefire.plus/video/nekomonogatari-kuro"
    },
    {
      "id": 2716,
      "nome": "Neppuu Kairiku Bushi Road",
      "link": "https://animefire.plus/animes/neppuu-kairiku-bushi-road-todos-os-episodios",
      "texto_original": "Neppuu Kairiku Bushi Road",
      "rating": 7.26,
      "classificacao_etaria": "A16",
      "imagem_original": "https://animefire.plus/img/animes/neppuu-kairiku-bushi-road.webp",
      "imagem_pasta": "https://animefire.plus/img/animes/neppuu-kairiku-bushi-road/",
      "secao": "legendados",
      "pagina": 82,
      "total_episodios": 1,
      "link_video": "https://animefire.plus/video/neppuu-kairiku-bushi-road"
    },
    {
      "id": 2722,
      "nome": "New Panty & Stocking with Garterbelt",
      "link": "https://animefire.plus/animes/new-panty-stocking-with-garterbelt-todos-os-episodios",
      "texto_original": "New Panty & Stocking with Garterbelt",
      "rating": 7.35,
      "classificacao_etaria": "A16",
      "imagem_original": "https://animefire.plus/img/animes/new-panty-stocking-with-garterbelt.webp",
      "imagem_pasta": "https://animefire.plus/img/animes/new-panty-stocking-with-garterbelt/",
      "secao": "legendados,lancamentos",
      "pagina": 1,
      "total_episodios": 4,
      "link_video": "https://animefire.plus/video/new-panty-stocking-with-garterbelt"
    },
    {
      "id": 2729,
      "nome": "Nige Jouzu no Wakagimi",
      "link": "https://animefire.plus/animes/nige-jouzu-no-wakagimi-todos-os-episodios",
      "texto_original": "Nige Jouzu no Wakagimi",
      "rating": 7.8,
      "classificacao_etaria": "A16",
      "imagem_original": "https://animefire.plus/img/animes/nige-jouzu-no-wakagimi.webp",
      "imagem_pasta": "https://animefire.plus/img/animes/nige-jouzu-no-wakagimi/",
      "secao": "legendados",
      "pagina": 13,
      "total_episodios": 12,
      "link_video": "https://animefire.plus/video/nige-jouzu-no-wakagimi"
    },
    {
      "id": 2730,
      "nome": "Night Head 2041",
      "link": "https://animefire.plus/animes/night-head-2041-todos-os-episodios",
      "texto_original": "Night Head 2041",
      "rating": 6.5,
      "classificacao_etaria": "A16",
      "imagem_original": "https://animefire.plus/img/animes/night-head-2041.webp",
      "imagem_pasta": "https://animefire.plus/img/animes/night-head-2041/",
      "secao": "legendados",
      "pagina": 40,
      "total_episodios": 12,
      "link_video": "https://animefire.plus/video/night-head-2041"
    },
    {
      "id": 2731,
      "nome": "Night Head Genesis",
      "link": "https://animefire.plus/animes/night-head-genesis-todos-os-episodios",
      "texto_original": "Night Head Genesis",
      "rating": 6.83,
      "classificacao_etaria": "A16",
      "imagem_original": "https://animefire.plus/img/animes/night-head-genesis.webp",
      "imagem_pasta": "https://animefire.plus/img/animes/night-head-genesis/",
      "secao": "legendados",
      "pagina": 147,
      "total_episodios": 24,
      "link_video": "https://animefire.plus/video/night-head-genesis"
    },
    {
      "id": 2734,
      "nome": "Nihon Chinbotsu 2020 (Dublado)",
      "link": "https://animefire.plus/animes/nihon-chinbotsu-2020-dublado-todos-os-episodios",
      "texto_original": "Nihon Chinbotsu 2020 (Dublado)",
      "rating": 6.67,
      "classificacao_etaria": "A16",
      "imagem_original": "https://animefire.plus/img/animes/nihon-chinbotsu-2020.webp",
      "imagem_pasta": "https://animefire.plus/img/animes/nihon-chinbotsu-2020/",
      "secao": "dublados,legendados",
      "pagina": 20,
      "total_episodios": 10,
      "link_video": "https://animefire.plus/video/nihon-chinbotsu-2020-dublado"
    },
    {
      "id": 2743,
      "nome": "Ninja Kamui (Dublado)",
      "link": "https://animefire.plus/animes/ninja-kamui-dublado-todos-os-episodios",
      "texto_original": "Ninja Kamui (Dublado)",
      "rating": 6.97,
      "classificacao_etaria": "A16",
      "imagem_original": "https://animefire.plus/img/animes/ninja-kamui.webp",
      "imagem_pasta": "https://animefire.plus/img/animes/ninja-kamui/",
      "secao": "dublados,legendados,lancamentos",
      "pagina": 3,
      "total_episodios": 13,
      "link_video": "https://animefire.plus/video/ninja-kamui-dublado"
    },
    {
      "id": 2744,
      "nome": "Ninja Ryuukenden",
      "link": "https://animefire.plus/animes/ninja-ryuukenden-todos-os-episodios",
      "texto_original": "Ninja Ryuukenden",
      "rating": 5.68,
      "classificacao_etaria": "A16",
      "imagem_original": "https://animefire.plus/img/animes/ninja-ryuukenden.webp",
      "imagem_pasta": "https://animefire.plus/img/animes/ninja-ryuukenden/",
      "secao": "legendados",
      "pagina": 77,
      "total_episodios": 1,
      "link_video": "https://animefire.plus/video/ninja-ryuukenden"
    },
    {
      "id": 2745,
      "nome": "Ninja Slayer From Animation",
      "link": "https://animefire.plus/animes/ninja-slayer-from-animation-todos-os-episodios",
      "texto_original": "Ninja Slayer From Animation",
      "rating": 6.59,
      "classificacao_etaria": "A16",
      "imagem_original": "https://animefire.plus/img/animes/ninja-slayer-from-animation.webp",
      "imagem_pasta": "https://animefire.plus/img/animes/ninja-slayer-from-animation/",
      "secao": "legendados",
      "pagina": 150,
      "total_episodios": 4,
      "link_video": "https://animefire.plus/video/ninja-slayer-from-animation"
    },
    {
      "id": 2749,
      "nome": "Nisemonogatari",
      "link": "https://animefire.plus/animes/nisemonogatari-todos-os-episodios",
      "texto_original": "Nisemonogatari",
      "rating": 8.2,
      "classificacao_etaria": "A16",
      "imagem_original": "https://animefire.plus/img/animes/nisemonogatari.webp",
      "imagem_pasta": "https://animefire.plus/img/animes/nisemonogatari/",
      "secao": "legendados",
      "pagina": 148,
      "total_episodios": 1,
      "link_video": "https://animefire.plus/video/nisemonogatari"
    }
  ],
  "pagination": {
    "current_page": 24,
    "per_page": 20,
    "total_items": 708,
    "total_pages": 36,
    "has_next": true,
    "has_prev": true
  }
}
