{
  "message": "Animes com classificação etária: A16",
  "age_rating": "A16",
  "data": [
    {
      "id": 11,
      "nome": "009-1 (Dublado)",
      "link": "https://animefire.plus/animes/009-1-dublado-todos-os-episodios",
      "texto_original": "009-1 (Dublado)",
      "rating": 6.29,
      "classificacao_etaria": "A16",
      "imagem_original": "https://animefire.plus/img/animes/009-1.webp",
      "imagem_pasta": "https://animefire.plus/img/animes/009-1/",
      "secao": "dublados,legendados",
      "pagina": 21,
      "total_episodios": 13,
      "link_video": "https://animefire.plus/video/009-1-dublado"
    },
    {
      "id": 18,
      "nome": "11eyes",
      "link": "https://animefire.plus/animes/11eyes-todos-os-episodios",
      "texto_original": "11eyes",
      "rating": 6.13,
      "classificacao_etaria": "A16",
      "imagem_original": "https://animefire.plus/img/animes/11eyes.webp",
      "imagem_pasta": "https://animefire.plus/img/animes/11eyes/",
      "secao": "legendados",
      "pagina": 40,
      "total_episodios": 12,
      "link_video": "https://animefire.plus/video/11eyes"
    },
    {
      "id": 22,
      "nome": "18if",
      "link": "https://animefire.plus/animes/18if-todos-os-episodios",
      "texto_original": "18if",
      "rating": 6.28,
      "classificacao_etaria": "A16",
      "imagem_original": "https://animefire.plus/img/animes/18if.webp",
      "imagem_pasta": "https://animefire.plus/img/animes/18if/",
      "secao": "legendados",
      "pagina": 125,
      "total_episodios": 0,
      "link_video": "https://animefire.plus/video/18if"
    },
    {
      "id": 31,
      "nome": "30-Sai No Hoken Taiiku",
      "link": "https://animefire.plus/animes/30-sai-no-hoken-taiiku-todos-os-episodios",
      "texto_original": "30-Sai No Hoken Taiiku",
      "rating": 6.77,
      "classificacao_etaria": "A16",
      "imagem_original": "https://animefire.plus/img/animes/30-sai-no-hoken-taiiku.webp",
      "imagem_pasta": "https://animefire.plus/img/animes/30-sai-no-hoken-taiiku/",
      "secao": "legendados",
      "pagina": 109,
      "total_episodios": 0,
      "link_video": "https://animefire.plus/video/30-sai-no-hoken-taiiku"
    },
    {
      "id": 34,
      "nome": "3x3 Eyes",
      "link": "https://animefire.plus/animes/3x3-eyes-todos-os-episodios",
      "texto_original": "3x3 Eyes",
      "rating": 6.88,
      "classificacao_etaria": "A16",
      "imagem_original": "https://animefire.plus/img/animes/3x3-eyes.webp",
      "imagem_pasta": "https://animefire.plus/img/animes/3x3-eyes/",
      "secao": "legendados",
      "pagina": 135,
      "total_episodios": 0,
      "link_video": "https://animefire.plus/video/3x3-eyes"
    },
    {
      "id": 41,
      "nome": "86 (Dublado)",
      "link": "https://animefire.plus/animes/86-dublado-todos-os-episodios",
      "texto_original": "86 (Dublado)",
      "rating": 8.33,
      "classificacao_etaria": "A16",
      "imagem_original": "https://animefire.plus/img/animes/86.webp",
      "imagem_pasta": "https://animefire.plus/img/animes/86/",
      "secao": "dublados",
      "pagina": 17,
      "total_episodios": 11,
      "link_video": "https://animefire.plus/video/86-dublado"
    },
    {
      "id": 42,
      "nome": "86 2nd Season",
      "link": "https://animefire.plus/animes/86-2nd-season-todos-os-episodios",
      "texto_original": "86 2nd Season",
      "rating": 8.72,
      "classificacao_etaria": "A16",
      "imagem_original": "https://animefire.plus/img/animes/86-2nd-season.webp",
      "imagem_pasta": "https://animefire.plus/img/animes/86-2nd-season/",
      "secao": "legendados",
      "pagina": 38,
      "total_episodios": 12,
      "link_video": "https://animefire.plus/video/86-2nd-season"
    },
    {
      "id": 44,
      "nome": "91 Days",
      "link": "https://animefire.plus/animes/91-days-todos-os-episodios",
      "texto_original": "91 Days",
      "rating": 7.88,
      "classificacao_etaria": "A16",
      "imagem_original": "https://animefire.plus/img/animes/91-days.webp",
      "imagem_pasta": "https://animefire.plus/img/animes/91-days/",
      "secao": "legendados",
      "pagina": 171,
      "total_episodios": 0,
      "link_video": "https://animefire.plus/video/91-days"
    },
    {
      "id": 48,
      "nome": "A.I.C.O.: Incarnation (Dublado)",
      "link": "https://animefire.plus/animes/a-i-c-o-incarnation-dublado-todos-os-episodios",
      "texto_original": "A.I.C.O.: Incarnation (Dublado)",
      "rating": 6.76,
      "classificacao_etaria": "A16",
      "imagem_original": "https://animefire.plus/img/animes/a-i-c-o-incarnation.webp",
      "imagem_pasta": "https://animefire.plus/img/animes/a-i-c-o-incarnation/",
      "secao": "dublados,legendados",
      "pagina": 24,
      "total_episodios": 12,
      "link_video": "https://animefire.plus/video/a-i-c-o-incarnation-dublado"
    },
    {
      "id": 56,
      "nome": "Absolute Duo",
      "link": "https://animefire.plus/animes/absolute-duo-todos-os-episodios",
      "texto_original": "Absolute Duo",
      "rating": 6.71,
      "classificacao_etaria": "A16",
      "imagem_original": "https://animefire.plus/img/animes/absolute-duo.webp",
      "imagem_pasta": "https://animefire.plus/img/animes/absolute-duo/",
      "secao": "legendados",
      "pagina": 120,
      "total_episodios": 4,
      "link_video": "https://animefire.plus/video/absolute-duo"
    },
    {
      "id": 100,
      "nome": "Air Master",
      "link": "https://animefire.plus/animes/air-master-todos-os-episodios",
      "texto_original": "Air Master",
      "rating": 7.04,
      "classificacao_etaria": "A16",
      "imagem_original": "https://animefire.plus/img/animes/air-master.webp",
      "imagem_pasta": "https://animefire.plus/img/animes/air-master/",
      "secao": "legendados",
      "pagina": 59,
      "total_episodios": 26,
      "link_video": "https://animefire.plus/video/air-master"
    },
    {
      "id": 105,
      "nome": "Ajin (Dublado)",
      "link": "https://animefire.plus/animes/ajin-dublado-todos-os-episodios",
      "texto_original": "Ajin (Dublado)",
      "rating": 7.6,
      "classificacao_etaria": "A16",
      "imagem_original": "https://animefire.plus/img/animes/ajin.webp",
      "imagem_pasta": "https://animefire.plus/img/animes/ajin/",
      "secao": "dublados,legendados",
      "pagina": 26,
      "total_episodios": 13,
      "link_video": "https://animefire.plus/video/ajin-dublado"
    },
    {
      "id": 106,
      "nome": "Ajin 2nd Season",
      "link": "https://animefire.plus/animes/ajin-2nd-season-todos-os-episodios",
      "texto_original": "Ajin 2nd Season",
      "rating": 7.82,
      "classificacao_etaria": "A16",
      "imagem_original": "https://animefire.plus/img/animes/ajin-2nd-season.webp",
      "imagem_pasta": "https://animefire.plus/img/animes/ajin-2nd-season/",
      "secao": "legendados",
      "pagina": 136,
      "total_episodios": 13,
      "link_video": "https://animefire.plus/video/ajin-2nd-season"
    },
    {
      "id": 114,
      "nome": "Akame ga Kill! (Dublado)",
      "link": "https://animefire.plus/animes/akame-ga-kill-dublado-todos-os-episodios",
      "texto_original": "Akame ga Kill! (Dublado)",
      "rating": 7.66,
      "classificacao_etaria": "A16",
      "imagem_original": "https://animefire.plus/img/animes/akame-ga-kill.webp",
      "imagem_pasta": "https://animefire.plus/img/animes/akame-ga-kill/",
      "secao": "dublados,legendados",
      "pagina": 25,
      "total_episodios": 24,
      "link_video": "https://animefire.plus/video/akame-ga-kill-dublado"
    },
    {
      "id": 124,
      "nome": "Akiba Maid Sensou",
      "link": "https://animefire.plus/animes/akiba-maid-sensou-todos-os-episodios",
      "texto_original": "Akiba Maid Sensou",
      "rating": 7.58,
      "classificacao_etaria": "A16",
      "imagem_original": "https://animefire.plus/img/animes/akiba-maid-sensou.webp",
      "imagem_pasta": "https://animefire.plus/img/animes/akiba-maid-sensou/",
      "secao": "legendados",
      "pagina": 28,
      "total_episodios": 12,
      "link_video": "https://animefire.plus/video/akiba-maid-sensou"
    },
    {
      "id": 129,
      "nome": "Aku no Hana",
      "link": "https://animefire.plus/animes/aku-no-hana-todos-os-episodios",
      "texto_original": "Aku no Hana",
      "rating": 7.17,
      "classificacao_etaria": "A16",
      "imagem_original": "https://animefire.plus/img/animes/aku-no-hana.webp",
      "imagem_pasta": "https://animefire.plus/img/animes/aku-no-hana/",
      "secao": "legendados",
      "pagina": 154,
      "total_episodios": 13,
      "link_video": "https://animefire.plus/video/aku-no-hana"
    },
    {
      "id": 130,
      "nome": "Akudama Drive (Dublado)",
      "link": "https://animefire.plus/animes/akudama-drive-dublado-todos-os-episodios",
      "texto_original": "Akudama Drive (Dublado)",
      "rating": 7.65,
      "classificacao_etaria": "A16",
      "imagem_original": "https://animefire.plus/img/animes/akudama-drive.webp",
      "imagem_pasta": "https://animefire.plus/img/animes/akudama-drive/",
      "secao": "dublados,legendados",
      "pagina": 14,
      "total_episodios": 12,
      "link_video": "https://animefire.plus/video/akudama-drive-dublado"
    },
    {
      "id": 132,
      "nome": "Akuma no Riddle",
      "link": "https://animefire.plus/animes/akuma-no-riddle-todos-os-episodios",
      "texto_original": "Akuma no Riddle",
      "rating": 6.74,
      "classificacao_etaria": "A16",
      "imagem_original": "https://animefire.plus/img/animes/akuma-no-riddle.webp",
      "imagem_pasta": "https://animefire.plus/img/animes/akuma-no-riddle/",
      "secao": "legendados",
      "pagina": 170,
      "total_episodios": 3,
      "link_video": "https://animefire.plus/video/akuma-no-riddle"
    },
    {
      "id": 133,
      "nome": "Akuma-kun (ONA) (Dublado)",
      "link": "https://animefire.plus/animes/akuma-kun-ona-dublado-todos-os-episodios",
      "texto_original": "Akuma-kun (ONA) (Dublado)",
      "rating": 6.7,
      "classificacao_etaria": "A16",
      "imagem_original": "https://animefire.plus/img/animes/akuma-kun-ona.webp",
      "imagem_pasta": "https://animefire.plus/img/animes/akuma-kun-ona/",
      "secao": "dublados,legendados",
      "pagina": 4,
      "total_episodios": 12,
      "link_video": "https://animefire.plus/video/akuma-kun-ona-dublado"
    },
    {
      "id": 137,
      "nome": "Aldnoah.Zero",
      "link": "https://animefire.plus/animes/aldnoah-zero-todos-os-episodios",
      "texto_original": "Aldnoah.Zero",
      "rating": 7.53,
      "classificacao_etaria": "A16",
      "imagem_original": "https://animefire.plus/img/animes/aldnoah-zero.webp",
      "imagem_pasta": "https://animefire.plus/img/animes/aldnoah-zero/",
      "secao": "legendados",
      "pagina": 170,
      "total_episodios": 12,
      "link_video": "https://animefire.plus/video/aldnoah-zero"
    }
  ],
  "pagination": {
    "current_page": 1,
    "per_page": 20,
    "total_items": 708,
    "total_pages": 36,
    "has_next": true,
    "has_prev": false
  }
}
