{
  "message": "Animes com classificação etária: A18",
  "age_rating": "A18",
  "data": [
    {
      "id": 378,
      "nome": "Berserk: Ougon Jidai-hen - Memorial Edition (Dublado)",
      "link": "https://animefire.plus/animes/berserk-ougon-jidai-hen---memorial-edition-dublado-todos-os-episodios",
      "texto_original": "Berserk: Ougon Jidai-hen - Memorial Edition (Dublado)",
      "rating": 7.9,
      "classificacao_etaria": "A18",
      "imagem_original": "https://animefire.plus/img/animes/berserk-ougon-jidai-hen---memorial-edition.webp",
      "imagem_pasta": "https://animefire.plus/img/animes/berserk-ougon-jidai-hen---memorial-edition/",
      "secao": "dublados,legendados",
      "pagina": 9,
      "total_episodios": 13,
      "link_video": "https://animefire.plus/video/berserk-ougon-jidai-hen---memorial-edition-dublado"
    },
    {
      "id": 383,
      "nome": "Big Order",
      "link": "https://animefire.plus/animes/big-order-todos-os-episodios",
      "texto_original": "Big Order",
      "rating": 5.85,
      "classificacao_etaria": "A18",
      "imagem_original": "https://animefire.plus/img/animes/big-order.webp",
      "imagem_pasta": "https://animefire.plus/img/animes/big-order/",
      "secao": "legendados",
      "pagina": 62,
      "total_episodios": 10,
      "link_video": "https://animefire.plus/video/big-order"
    },
    {
      "id": 384,
      "nome": "Big Order (TV)",
      "link": "https://animefire.plus/animes/big-order-tv-todos-os-episodios",
      "texto_original": "Big Order (TV)",
      "rating": 5.45,
      "classificacao_etaria": "A18",
      "imagem_original": "https://animefire.plus/img/animes/big-order-tv.webp",
      "imagem_pasta": "https://animefire.plus/img/animes/big-order-tv/",
      "secao": "legendados",
      "pagina": 79,
      "total_episodios": 10,
      "link_video": "https://animefire.plus/video/big-order-tv"
    },
    {
      "id": 386,
      "nome": "Bikini Warriors",
      "link": "https://animefire.plus/animes/bikini-warriors-todos-os-episodios",
      "texto_original": "Bikini Warriors",
      "rating": 5.28,
      "classificacao_etaria": "A18",
      "imagem_original": "https://animefire.plus/img/animes/bikini-warriors.webp",
      "imagem_pasta": "https://animefire.plus/img/animes/bikini-warriors/",
      "secao": "legendados",
      "pagina": 103,
      "total_episodios": 0,
      "link_video": "https://animefire.plus/video/bikini-warriors"
    },
    {
      "id": 394,
      "nome": "Bio Hunter",
      "link": "https://animefire.plus/animes/bio-hunter-todos-os-episodios",
      "texto_original": "Bio Hunter",
      "rating": 5.96,
      "classificacao_etaria": "A18",
      "imagem_original": "https://animefire.plus/img/animes/bio-hunter.webp",
      "imagem_pasta": "https://animefire.plus/img/animes/bio-hunter/",
      "secao": "legendados",
      "pagina": 66,
      "total_episodios": 1,
      "link_video": "https://animefire.plus/video/bio-hunter"
    },
    {
      "id": 411,
      "nome": "Black Jack",
      "link": "https://animefire.plus/animes/black-jack-todos-os-episodios",
      "texto_original": "Black Jack",
      "rating": 7.83,
      "classificacao_etaria": "A18",
      "imagem_original": "https://animefire.plus/img/animes/black-jack.webp",
      "imagem_pasta": "https://animefire.plus/img/animes/black-jack/",
      "secao": "legendados",
      "pagina": 175,
      "total_episodios": 0,
      "link_video": "https://animefire.plus/video/black-jack"
    },
    {
      "id": 438,
      "nome": "Blue Gender",
      "link": "https://animefire.plus/animes/blue-gender-todos-os-episodios",
      "texto_original": "Blue Gender",
      "rating": 7.1,
      "classificacao_etaria": "A18",
      "imagem_original": "https://animefire.plus/img/animes/blue-gender.webp",
      "imagem_pasta": "https://animefire.plus/img/animes/blue-gender/",
      "secao": "legendados",
      "pagina": 173,
      "total_episodios": 26,
      "link_video": "https://animefire.plus/video/blue-gender"
    },
    {
      "id": 468,
      "nome": "Boku wa Tomodachi ga Sukunai",
      "link": "https://animefire.plus/animes/boku-wa-tomodachi-ga-sukunai-todos-os-episodios",
      "texto_original": "Boku wa Tomodachi ga Sukunai",
      "rating": 7.41,
      "classificacao_etaria": "A18",
      "imagem_original": "https://animefire.plus/img/animes/boku-wa-tomodachi-ga-sukunai.webp",
      "imagem_pasta": "https://animefire.plus/img/animes/boku-wa-tomodachi-ga-sukunai/",
      "secao": "legendados",
      "pagina": 115,
      "total_episodios": 0,
      "link_video": "https://animefire.plus/video/boku-wa-tomodachi-ga-sukunai"
    },
    {
      "id": 481,
      "nome": "Boogiepop wa Warawanai",
      "link": "https://animefire.plus/animes/boogiepop-wa-warawanai-todos-os-episodios",
      "texto_original": "Boogiepop wa Warawanai",
      "rating": 7.21,
      "classificacao_etaria": "A18",
      "imagem_original": "https://animefire.plus/img/animes/boogiepop-wa-warawanai.webp",
      "imagem_pasta": "https://animefire.plus/img/animes/boogiepop-wa-warawanai/",
      "secao": "legendados",
      "pagina": 163,
      "total_episodios": 8,
      "link_video": "https://animefire.plus/video/boogiepop-wa-warawanai"
    },
    {
      "id": 497,
      "nome": "Brave Witches",
      "link": "https://animefire.plus/animes/brave-witches-todos-os-episodios",
      "texto_original": "Brave Witches",
      "rating": 6.86,
      "classificacao_etaria": "A18",
      "imagem_original": "https://animefire.plus/img/animes/brave-witches.webp",
      "imagem_pasta": "https://animefire.plus/img/animes/brave-witches/",
      "secao": "legendados",
      "pagina": 90,
      "total_episodios": 12,
      "link_video": "https://animefire.plus/video/brave-witches"
    },
    {
      "id": 510,
      "nome": "Bucchigiri",
      "link": "https://animefire.plus/animes/butchgiri-todos-os-episodios",
      "texto_original": "Bucchigiri",
      "rating": 5.96,
      "classificacao_etaria": "A18",
      "imagem_original": "https://animefire.plus/img/animes/butchgiri.webp",
      "imagem_pasta": "https://animefire.plus/img/animes/butchgiri/",
      "secao": "legendados",
      "pagina": 16,
      "total_episodios": 0,
      "link_video": "https://animefire.plus/video/butchgiri"
    },
    {
      "id": 530,
      "nome": "Burn Up!",
      "link": "https://animefire.plus/animes/burn-up-todos-os-episodios",
      "texto_original": "Burn Up!",
      "rating": 6.09,
      "classificacao_etaria": "A18",
      "imagem_original": "https://animefire.plus/img/animes/burn-up.webp",
      "imagem_pasta": "https://animefire.plus/img/animes/burn-up/",
      "secao": "legendados",
      "pagina": 45,
      "total_episodios": 1,
      "link_video": "https://animefire.plus/video/burn-up"
    },
    {
      "id": 531,
      "nome": "Burn Up! W (Dublado)",
      "link": "https://animefire.plus/animes/burn-up-w-dublado-todos-os-episodios",
      "texto_original": "Burn Up! W (Dublado)",
      "rating": 6.44,
      "classificacao_etaria": "A18",
      "imagem_original": "https://animefire.plus/img/animes/burn-up-w.webp",
      "imagem_pasta": "https://animefire.plus/img/animes/burn-up-w/",
      "secao": "dublados",
      "pagina": 26,
      "total_episodios": 0,
      "link_video": "https://animefire.plus/video/burn-up-w-dublado"
    },
    {
      "id": 540,
      "nome": "Buttobi!! CPU",
      "link": "https://animefire.plus/animes/buttobi-cpu-todos-os-episodios",
      "texto_original": "Buttobi!! CPU",
      "rating": 6.33,
      "classificacao_etaria": "A18",
      "imagem_original": "https://animefire.plus/img/animes/buttobi-cpu.webp",
      "imagem_pasta": "https://animefire.plus/img/animes/buttobi-cpu/",
      "secao": "legendados",
      "pagina": 176,
      "total_episodios": 3,
      "link_video": "https://animefire.plus/video/buttobi-cpu"
    },
    {
      "id": 587,
      "nome": "Centaur no Nayami",
      "link": "https://animefire.plus/animes/centaur-no-nayami-todos-os-episodios",
      "texto_original": "Centaur no Nayami",
      "rating": 6.54,
      "classificacao_etaria": "A18",
      "imagem_original": "https://animefire.plus/img/animes/centaur-no-nayami.webp",
      "imagem_pasta": "https://animefire.plus/img/animes/centaur-no-nayami/",
      "secao": "legendados",
      "pagina": 94,
      "total_episodios": 12,
      "link_video": "https://animefire.plus/video/centaur-no-nayami"
    },
    {
      "id": 614,
      "nome": "Chivas 1-2-3",
      "link": "https://animefire.plus/animes/chivas-1-2-3-todos-os-episodios",
      "texto_original": "Chivas 1-2-3",
      "rating": 6.06,
      "classificacao_etaria": "A18",
      "imagem_original": "https://animefire.plus/img/animes/chivas-1-2-3.webp",
      "imagem_pasta": "https://animefire.plus/img/animes/chivas-1-2-3/",
      "secao": "legendados",
      "pagina": 68,
      "total_episodios": 2,
      "link_video": "https://animefire.plus/video/chivas-1-2-3"
    },
    {
      "id": 620,
      "nome": "Chocotto Sister",
      "link": "https://animefire.plus/animes/chocotto-sister-todos-os-episodios",
      "texto_original": "Chocotto Sister",
      "rating": 6.78,
      "classificacao_etaria": "A18",
      "imagem_original": "https://animefire.plus/img/animes/chocotto-sister.webp",
      "imagem_pasta": "https://animefire.plus/img/animes/chocotto-sister/",
      "secao": "legendados",
      "pagina": 42,
      "total_episodios": 24,
      "link_video": "https://animefire.plus/video/chocotto-sister"
    },
    {
      "id": 621,
      "nome": "Chotto dake Ai ga Omoi Dark Elf ga Isekai kara Oikaketekita",
      "link": "https://animefire.plus/animes/chotto-dake-ai-ga-omoi-dark-elf-ga-isekai-kara-oikaketekita-todos-os-episodios",
      "texto_original": "Chotto dake Ai ga Omoi Dark Elf ga Isekai kara Oikaketekita",
      "rating": 5.52,
      "classificacao_etaria": "A18",
      "imagem_original": "https://animefire.plus/img/animes/chotto-dake-ai-ga-omoi-dark-elf-ga-isekai-kara-oikaketekita.webp",
      "imagem_pasta": "https://animefire.plus/img/animes/chotto-dake-ai-ga-omoi-dark-elf-ga-isekai-kara-oikaketekita/",
      "secao": "legendados",
      "pagina": 3,
      "total_episodios": 12,
      "link_video": "https://animefire.plus/video/chotto-dake-ai-ga-omoi-dark-elf-ga-isekai-kara-oikaketekita"
    },
    {
      "id": 623,
      "nome": "Chou Kousoku Gran Doll",
      "link": "https://animefire.plus/animes/chou-kousoku-gran-doll-todos-os-episodios",
      "texto_original": "Chou Kousoku Gran Doll",
      "rating": 5.56,
      "classificacao_etaria": "A18",
      "imagem_original": "https://animefire.plus/img/animes/chou-kousoku-gran-doll.webp",
      "imagem_pasta": "https://animefire.plus/img/animes/chou-kousoku-gran-doll/",
      "secao": "legendados",
      "pagina": 72,
      "total_episodios": 3,
      "link_video": "https://animefire.plus/video/chou-kousoku-gran-doll"
    },
    {
      "id": 628,
      "nome": "Choujikuu Kidan Southern Cross",
      "link": "https://animefire.plus/animes/choujikuu-kidan-southern-cross-todos-os-episodios",
      "texto_original": "Choujikuu Kidan Southern Cross",
      "rating": 6.67,
      "classificacao_etaria": "A18",
      "imagem_original": "https://animefire.plus/img/animes/choujikuu-kidan-southern-cross.webp",
      "imagem_pasta": "https://animefire.plus/img/animes/choujikuu-kidan-southern-cross/",
      "secao": "legendados",
      "pagina": 100,
      "total_episodios": 24,
      "link_video": "https://animefire.plus/video/choujikuu-kidan-southern-cross"
    }
  ],
  "pagination": {
    "current_page": 3,
    "per_page": 20,
    "total_items": 374,
    "total_pages": 19,
    "has_next": true,
    "has_prev": true
  }
}
