{
  "message": "Animes com classificação etária: A18",
  "age_rating": "A18",
  "data": [
    {
      "id": 3298,
      "nome": "Seikon no Qwaser",
      "link": "https://animefire.plus/animes/seikon-no-qwaser-todos-os-episodios",
      "texto_original": "Seikon no Qwaser",
      "rating": 6.34,
      "classificacao_etaria": "A18",
      "imagem_original": "https://animefire.plus/img/animes/seikon-no-qwaser.webp",
      "imagem_pasta": "https://animefire.plus/img/animes/seikon-no-qwaser/",
      "secao": "legendados",
      "pagina": 18,
      "total_episodios": 24,
      "link_video": "https://animefire.plus/video/seikon-no-qwaser"
    },
    {
      "id": 3299,
      "nome": "Seikon no Qwaser II",
      "link": "https://animefire.plus/animes/seikon-no-qwaser-ii-todos-os-episodios",
      "texto_original": "Seikon no Qwaser II",
      "rating": 6.55,
      "classificacao_etaria": "A18",
      "imagem_original": "https://animefire.plus/img/animes/seikon-no-qwaser-ii.webp",
      "imagem_pasta": "https://animefire.plus/img/animes/seikon-no-qwaser-ii/",
      "secao": "legendados",
      "pagina": 115,
      "total_episodios": 12,
      "link_video": "https://animefire.plus/video/seikon-no-qwaser-ii"
    },
    {
      "id": 3316,
      "nome": "Sekai de Ichiban Tsuyoku Naritai!",
      "link": "https://animefire.plus/animes/sekai-de-ichiban-tsuyoku-naritai-todos-os-episodios",
      "texto_original": "Sekai de Ichiban Tsuyoku Naritai!",
      "rating": 5.9,
      "classificacao_etaria": "A18",
      "imagem_original": "https://animefire.plus/img/animes/sekai-de-ichiban-tsuyoku-naritai.webp",
      "imagem_pasta": "https://animefire.plus/img/animes/sekai-de-ichiban-tsuyoku-naritai/",
      "secao": "legendados",
      "pagina": 117,
      "total_episodios": 4,
      "link_video": "https://animefire.plus/video/sekai-de-ichiban-tsuyoku-naritai"
    },
    {
      "id": 3317,
      "nome": "Sekai de Ichiban Tsuyoku Naritai! Specials",
      "link": "https://animefire.plus/animes/sekai-de-ichiban-tsuyoku-naritai-specials-todos-os-episodios",
      "texto_original": "Sekai de Ichiban Tsuyoku Naritai! Specials",
      "rating": 5.77,
      "classificacao_etaria": "A18",
      "imagem_original": "https://animefire.plus/img/animes/sekai-de-ichiban-tsuyoku-naritai-specials.webp",
      "imagem_pasta": "https://animefire.plus/img/animes/sekai-de-ichiban-tsuyoku-naritai-specials/",
      "secao": "legendados",
      "pagina": 54,
      "total_episodios": 1,
      "link_video": "https://animefire.plus/video/sekai-de-ichiban-tsuyoku-naritai-specials"
    },
    {
      "id": 3323,
      "nome": "Sekirei",
      "link": "https://animefire.plus/animes/sekirei-todos-os-episodios",
      "texto_original": "Sekirei",
      "rating": 7.27,
      "classificacao_etaria": "A18",
      "imagem_original": "https://animefire.plus/img/animes/sekirei.webp",
      "imagem_pasta": "https://animefire.plus/img/animes/sekirei/",
      "secao": "legendados",
      "pagina": 116,
      "total_episodios": 12,
      "link_video": "https://animefire.plus/video/sekirei"
    },
    {
      "id": 3324,
      "nome": "Sekirei: Pure Engagement",
      "link": "https://animefire.plus/animes/sekirei-pure-engagement-todos-os-episodios",
      "texto_original": "Sekirei: Pure Engagement",
      "rating": 7.49,
      "classificacao_etaria": "A18",
      "imagem_original": "https://animefire.plus/img/animes/sekirei-pure-engagement.webp",
      "imagem_pasta": "https://animefire.plus/img/animes/sekirei-pure-engagement/",
      "secao": "legendados",
      "pagina": 154,
      "total_episodios": 14,
      "link_video": "https://animefire.plus/video/sekirei-pure-engagement"
    },
    {
      "id": 3335,
      "nome": "Sengoku Otome: Momoiro Paradox",
      "link": "https://animefire.plus/animes/sengoku-otome-momoiro-paradox-todos-os-episodios",
      "texto_original": "Sengoku Otome: Momoiro Paradox",
      "rating": 6.66,
      "classificacao_etaria": "A18",
      "imagem_original": "https://animefire.plus/img/animes/sengoku-otome-momoiro-paradox.webp",
      "imagem_pasta": "https://animefire.plus/img/animes/sengoku-otome-momoiro-paradox/",
      "secao": "legendados",
      "pagina": 115,
      "total_episodios": 12,
      "link_video": "https://animefire.plus/video/sengoku-otome-momoiro-paradox"
    },
    {
      "id": 3351,
      "nome": "Senran Kagura Shinovi Master: Tokyo Youma-hen",
      "link": "https://animefire.plus/animes/senran-kagura-shinovi-master-tokyo-youma-hen-todos-os-episodios",
      "texto_original": "Senran Kagura Shinovi Master: Tokyo Youma-hen",
      "rating": 6.36,
      "classificacao_etaria": "A18",
      "imagem_original": "https://animefire.plus/img/animes/senran-kagura-shinovi-master-tokyo-youma-hen.webp",
      "imagem_pasta": "https://animefire.plus/img/animes/senran-kagura-shinovi-master-tokyo-youma-hen/",
      "secao": "legendados",
      "pagina": 157,
      "total_episodios": 12,
      "link_video": "https://animefire.plus/video/senran-kagura-shinovi-master-tokyo-youma-hen"
    },
    {
      "id": 3368,
      "nome": "Sex Pistols",
      "link": "https://animefire.plus/animes/sex-pistols-todos-os-episodios",
      "texto_original": "Sex Pistols",
      "rating": 6.83,
      "classificacao_etaria": "A18",
      "imagem_original": "https://animefire.plus/img/animes/sex-pistols.webp",
      "imagem_pasta": "https://animefire.plus/img/animes/sex-pistols/",
      "secao": "legendados",
      "pagina": 96,
      "total_episodios": 2,
      "link_video": "https://animefire.plus/video/sex-pistols"
    },
    {
      "id": 3403,
      "nome": "Shigurui",
      "link": "https://animefire.plus/animes/shigurui-todos-os-episodios",
      "texto_original": "Shigurui",
      "rating": 7.47,
      "classificacao_etaria": "A18",
      "imagem_original": "https://animefire.plus/img/animes/shigurui.webp",
      "imagem_pasta": "https://animefire.plus/img/animes/shigurui/",
      "secao": "legendados",
      "pagina": 151,
      "total_episodios": 12,
      "link_video": "https://animefire.plus/video/shigurui"
    },
    {
      "id": 3406,
      "nome": "Shijou Saikyou no Deshi Kenichi OVA",
      "link": "https://animefire.plus/animes/shijou-saikyou-no-deshi-kenichi-ova-todos-os-episodios",
      "texto_original": "Shijou Saikyou no Deshi Kenichi OVA",
      "rating": 7.96,
      "classificacao_etaria": "A18",
      "imagem_original": "https://animefire.plus/img/animes/shijou-saikyou-no-deshi-kenichi-ova.webp",
      "imagem_pasta": "https://animefire.plus/img/animes/shijou-saikyou-no-deshi-kenichi-ova/",
      "secao": "legendados",
      "pagina": 65,
      "total_episodios": 1,
      "link_video": "https://animefire.plus/video/shijou-saikyou-no-deshi-kenichi-ova"
    },
    {
      "id": 3413,
      "nome": "Shimoneta to Iu Gainen ga Sonzai Shinai Taikutsu na Sekai",
      "link": "https://animefire.plus/animes/shimoneta-to-iu-gainen-ga-sonzai-shinai-taikutsu-na-sekai-todos-os-episodios",
      "texto_original": "Shimoneta to Iu Gainen ga Sonzai Shinai Taikutsu na Sekai",
      "rating": 7.46,
      "classificacao_etaria": "A18",
      "imagem_original": "https://animefire.plus/img/animes/shimoneta-to-iu-gainen-ga-sonzai-shinai-taikutsu-na-sekai.webp",
      "imagem_pasta": "https://animefire.plus/img/animes/shimoneta-to-iu-gainen-ga-sonzai-shinai-taikutsu-na-sekai/",
      "secao": "legendados",
      "pagina": 125,
      "total_episodios": 1,
      "link_video": "https://animefire.plus/video/shimoneta-to-iu-gainen-ga-sonzai-shinai-taikutsu-na-sekai"
    },
    {
      "id": 3416,
      "nome": "Shin Cutey Honey",
      "link": "https://animefire.plus/animes/shin-cutey-honey-todos-os-episodios",
      "texto_original": "Shin Cutey Honey",
      "rating": 6.67,
      "classificacao_etaria": "A18",
      "imagem_original": "https://animefire.plus/img/animes/shin-cutey-honey.webp",
      "imagem_pasta": "https://animefire.plus/img/animes/shin-cutey-honey/",
      "secao": "legendados",
      "pagina": 83,
      "total_episodios": 8,
      "link_video": "https://animefire.plus/video/shin-cutey-honey"
    },
    {
      "id": 3417,
      "nome": "Shin Ikkitousen",
      "link": "https://animefire.plus/animes/shin-ikkitousen-todos-os-episodios",
      "texto_original": "Shin Ikkitousen",
      "rating": 5.83,
      "classificacao_etaria": "A18",
      "imagem_original": "https://animefire.plus/img/animes/shin-ikkitousen.webp",
      "imagem_pasta": "https://animefire.plus/img/animes/shin-ikkitousen/",
      "secao": "legendados",
      "pagina": 34,
      "total_episodios": 3,
      "link_video": "https://animefire.plus/video/shin-ikkitousen"
    },
    {
      "id": 3418,
      "nome": "Shin Koihime†Musou",
      "link": "https://animefire.plus/animes/shin-koihime-musou-todos-os-episodios",
      "texto_original": "Shin Koihime†Musou",
      "rating": 6.91,
      "classificacao_etaria": "A18",
      "imagem_original": "https://animefire.plus/img/animes/shin-koihime-musou.webp",
      "imagem_pasta": "https://animefire.plus/img/animes/shin-koihime-musou/",
      "secao": "legendados",
      "pagina": 175,
      "total_episodios": 12,
      "link_video": "https://animefire.plus/video/shin-koihime-musou"
    },
    {
      "id": 3420,
      "nome": "Shin Kujakuou",
      "link": "https://animefire.plus/animes/shin-kujakuou-todos-os-episodios",
      "texto_original": "Shin Kujakuou",
      "rating": 6.06,
      "classificacao_etaria": "A18",
      "imagem_original": "https://animefire.plus/img/animes/shin-kujakuou.webp",
      "imagem_pasta": "https://animefire.plus/img/animes/shin-kujakuou/",
      "secao": "legendados",
      "pagina": 83,
      "total_episodios": 2,
      "link_video": "https://animefire.plus/video/shin-kujakuou"
    },
    {
      "id": 3464,
      "nome": "Shinmai Maou No Testament",
      "link": "https://animefire.plus/animes/shinmai-maou-no-testament-todos-os-episodios",
      "texto_original": "Shinmai Maou No Testament",
      "rating": 7,
      "classificacao_etaria": "A18",
      "imagem_original": "https://animefire.plus/img/animes/shinmai-maou-no-testament.webp",
      "imagem_pasta": "https://animefire.plus/img/animes/shinmai-maou-no-testament/",
      "secao": "legendados",
      "pagina": 97,
      "total_episodios": 4,
      "link_video": "https://animefire.plus/video/shinmai-maou-no-testament"
    },
    {
      "id": 3465,
      "nome": "Shinmai Maou no Testament Burst",
      "link": "https://animefire.plus/animes/shinmai-maou-no-testament-burst-todos-os-episodios",
      "texto_original": "Shinmai Maou no Testament Burst",
      "rating": 7.07,
      "classificacao_etaria": "A18",
      "imagem_original": "https://animefire.plus/img/animes/shinmai-maou-no-testament-burst.webp",
      "imagem_pasta": "https://animefire.plus/img/animes/shinmai-maou-no-testament-burst/",
      "secao": "legendados",
      "pagina": 94,
      "total_episodios": 0,
      "link_video": "https://animefire.plus/video/shinmai-maou-no-testament-burst"
    },
    {
      "id": 3466,
      "nome": "Shinmai Maou no Testament Departures",
      "link": "https://animefire.plus/animes/shinmai-maou-no-testament-departures-todos-os-episodios",
      "texto_original": "Shinmai Maou no Testament Departures",
      "rating": 7.01,
      "classificacao_etaria": "A18",
      "imagem_original": "https://animefire.plus/img/animes/shinmai-maou-no-testament-departures.webp",
      "imagem_pasta": "https://animefire.plus/img/animes/shinmai-maou-no-testament-departures/",
      "secao": "legendados",
      "pagina": 59,
      "total_episodios": 0,
      "link_video": "https://animefire.plus/video/shinmai-maou-no-testament-departures"
    },
    {
      "id": 3496,
      "nome": "Shonan Junai Gumi!",
      "link": "https://animefire.plus/animes/shonan-junai-gumi-todos-os-episodios",
      "texto_original": "Shonan Junai Gumi!",
      "rating": 7.49,
      "classificacao_etaria": "A18",
      "imagem_original": "https://animefire.plus/img/animes/shonan-junai-gumi.webp",
      "imagem_pasta": "https://animefire.plus/img/animes/shonan-junai-gumi/",
      "secao": "legendados",
      "pagina": 54,
      "total_episodios": 5,
      "link_video": "https://animefire.plus/video/shonan-junai-gumi"
    }
  ],
  "pagination": {
    "current_page": 16,
    "per_page": 20,
    "total_items": 374,
    "total_pages": 19,
    "has_next": true,
    "has_prev": true
  }
}
