{
  "message": "Animes com classificação etária: A18",
  "age_rating": "A18",
  "data": [
    {
      "id": 843,
      "nome": "Dokyuu Hentai HxEros OVA",
      "link": "https://animefire.plus/animes/dokyuu-hentai-hxeros-ova-todos-os-episodios",
      "texto_original": "Dokyuu Hentai HxEros OVA",
      "rating": 6.2,
      "classificacao_etaria": "A18",
      "imagem_original": "https://animefire.plus/img/animes/dokyuu-hentai-hxeros-ova.webp",
      "imagem_pasta": "https://animefire.plus/img/animes/dokyuu-hentai-hxeros-ova/",
      "secao": "legendados",
      "pagina": 50,
      "total_episodios": 2,
      "link_video": "https://animefire.plus/video/dokyuu-hentai-hxeros-ova"
    },
    {
      "id": 845,
      "nome": "Domestic na Kanojo",
      "link": "https://animefire.plus/animes/domestic-na-kanojo-todos-os-episodios",
      "texto_original": "Domestic na Kanojo",
      "rating": 6.77,
      "classificacao_etaria": "A18",
      "imagem_original": "https://animefire.plus/img/animes/domestic-na-kanojo.webp",
      "imagem_pasta": "https://animefire.plus/img/animes/domestic-na-kanojo/",
      "secao": "legendados",
      "pagina": 98,
      "total_episodios": 12,
      "link_video": "https://animefire.plus/video/domestic-na-kanojo"
    },
    {
      "id": 849,
      "nome": "Dorohedoro: Ma no Omake",
      "link": "https://animefire.plus/animes/dorohedoro-ma-no-omake-todos-os-episodios",
      "texto_original": "Dorohedoro: Ma no Omake",
      "rating": 7.11,
      "classificacao_etaria": "A18",
      "imagem_original": "https://animefire.plus/img/animes/dorohedoro-ma-no-omake.webp",
      "imagem_pasta": "https://animefire.plus/img/animes/dorohedoro-ma-no-omake/",
      "secao": "legendados",
      "pagina": 59,
      "total_episodios": 6,
      "link_video": "https://animefire.plus/video/dorohedoro-ma-no-omake"
    },
    {
      "id": 887,
      "nome": "Dragon's Dogma",
      "link": "https://animefire.plus/animes/dragon-s-dogma-todos-os-episodios",
      "texto_original": "Dragon's Dogma",
      "rating": 5.86,
      "classificacao_etaria": "A18",
      "imagem_original": "https://animefire.plus/img/animes/dragon-s-dogma.webp",
      "imagem_pasta": "https://animefire.plus/img/animes/dragon-s-dogma/",
      "secao": "legendados",
      "pagina": 42,
      "total_episodios": 7,
      "link_video": "https://animefire.plus/video/dragon-s-dogma"
    },
    {
      "id": 917,
      "nome": "Ebiten: Kouritsu Ebisugawa Koukou Tenmonbu",
      "link": "https://animefire.plus/animes/ebiten-kouritsu-ebisugawa-koukou-tenmonbu-todos-os-episodios",
      "texto_original": "Ebiten: Kouritsu Ebisugawa Koukou Tenmonbu",
      "rating": 6.27,
      "classificacao_etaria": "A18",
      "imagem_original": "https://animefire.plus/img/animes/ebiten-kouritsu-ebisugawa-koukou-tenmonbu.webp",
      "imagem_pasta": "https://animefire.plus/img/animes/ebiten-kouritsu-ebisugawa-koukou-tenmonbu/",
      "secao": "legendados",
      "pagina": 99,
      "total_episodios": 10,
      "link_video": "https://animefire.plus/video/ebiten-kouritsu-ebisugawa-koukou-tenmonbu"
    },
    {
      "id": 940,
      "nome": "Elf-san wa Yaserarenai.",
      "link": "https://animefire.plus/animes/elf-san-wa-yaserarenai-todos-os-episodios",
      "texto_original": "Elf-san wa Yaserarenai.",
      "rating": 5.6,
      "classificacao_etaria": "A18",
      "imagem_original": "https://animefire.plus/img/animes/elf-san-wa-yaserarenai.webp",
      "imagem_pasta": "https://animefire.plus/img/animes/elf-san-wa-yaserarenai/",
      "secao": "legendados",
      "pagina": 12,
      "total_episodios": 12,
      "link_video": "https://animefire.plus/video/elf-san-wa-yaserarenai"
    },
    {
      "id": 941,
      "nome": "Elfen Lied",
      "link": "https://animefire.plus/animes/elfen-lied-todos-os-episodios",
      "texto_original": "Elfen Lied",
      "rating": 7.7,
      "classificacao_etaria": "A18",
      "imagem_original": "https://animefire.plus/img/animes/elfen-lied.webp",
      "imagem_pasta": "https://animefire.plus/img/animes/elfen-lied/",
      "secao": "legendados",
      "pagina": 130,
      "total_episodios": 13,
      "link_video": "https://animefire.plus/video/elfen-lied"
    },
    {
      "id": 1006,
      "nome": "Fight Ippatsu! Juuden-Chan!!",
      "link": "https://animefire.plus/animes/fight-ippatsu-juuden-chan-todos-os-episodios",
      "texto_original": "Fight Ippatsu! Juuden-Chan!!",
      "rating": 6.73,
      "classificacao_etaria": "A18",
      "imagem_original": "https://animefire.plus/img/animes/fight-ippatsu-juuden-chan.webp",
      "imagem_pasta": "https://animefire.plus/img/animes/fight-ippatsu-juuden-chan/",
      "secao": "legendados",
      "pagina": 98,
      "total_episodios": 1,
      "link_video": "https://animefire.plus/video/fight-ippatsu-juuden-chan"
    },
    {
      "id": 1027,
      "nome": "Freezing",
      "link": "https://animefire.plus/animes/freezing-todos-os-episodios",
      "texto_original": "Freezing",
      "rating": 7.06,
      "classificacao_etaria": "A18",
      "imagem_original": "https://animefire.plus/img/animes/freezing.webp",
      "imagem_pasta": "https://animefire.plus/img/animes/freezing/",
      "secao": "legendados",
      "pagina": 134,
      "total_episodios": 12,
      "link_video": "https://animefire.plus/video/freezing"
    },
    {
      "id": 1028,
      "nome": "Freezing Vibration",
      "link": "https://animefire.plus/animes/freezing-vibration-todos-os-episodios",
      "texto_original": "Freezing Vibration",
      "rating": 6.97,
      "classificacao_etaria": "A18",
      "imagem_original": "https://animefire.plus/img/animes/freezing-vibration.webp",
      "imagem_pasta": "https://animefire.plus/img/animes/freezing-vibration/",
      "secao": "legendados",
      "pagina": 132,
      "total_episodios": 4,
      "link_video": "https://animefire.plus/video/freezing-vibration"
    },
    {
      "id": 1058,
      "nome": "Futari Ecchi (2014)",
      "link": "https://animefire.plus/animes/futari-ecchi-2014-todos-os-episodios",
      "texto_original": "Futari Ecchi (2014)",
      "rating": 6.23,
      "classificacao_etaria": "A18",
      "imagem_original": "https://animefire.plus/img/animes/futari-ecchi-2014.webp",
      "imagem_pasta": "https://animefire.plus/img/animes/futari-ecchi-2014/",
      "secao": "legendados",
      "pagina": 70,
      "total_episodios": 1,
      "link_video": "https://animefire.plus/video/futari-ecchi-2014"
    },
    {
      "id": 1063,
      "nome": "Futoku no Guild",
      "link": "https://animefire.plus/animes/futoku-no-guild-todos-os-episodios",
      "texto_original": "Futoku no Guild",
      "rating": 6.54,
      "classificacao_etaria": "A18",
      "imagem_original": "https://animefire.plus/img/animes/futoku-no-guild.webp",
      "imagem_pasta": "https://animefire.plus/img/animes/futoku-no-guild/",
      "secao": "legendados",
      "pagina": 29,
      "total_episodios": 12,
      "link_video": "https://animefire.plus/video/futoku-no-guild"
    },
    {
      "id": 1068,
      "nome": "Fuuka",
      "link": "https://animefire.plus/animes/fuuka-todos-os-episodios",
      "texto_original": "Fuuka",
      "rating": 6.71,
      "classificacao_etaria": "A18",
      "imagem_original": "https://animefire.plus/img/animes/fuuka.webp",
      "imagem_pasta": "https://animefire.plus/img/animes/fuuka/",
      "secao": "legendados",
      "pagina": 111,
      "total_episodios": 12,
      "link_video": "https://animefire.plus/video/fuuka"
    },
    {
      "id": 1088,
      "nome": "Gakuen Tokusou Hikaruon",
      "link": "https://animefire.plus/animes/gakuen-tokusou-hikaruon-todos-os-episodios",
      "texto_original": "Gakuen Tokusou Hikaruon",
      "rating": 5.56,
      "classificacao_etaria": "A18",
      "imagem_original": "https://animefire.plus/img/animes/gakuen-tokusou-hikaruon.webp",
      "imagem_pasta": "https://animefire.plus/img/animes/gakuen-tokusou-hikaruon/",
      "secao": "legendados",
      "pagina": 44,
      "total_episodios": 1,
      "link_video": "https://animefire.plus/video/gakuen-tokusou-hikaruon"
    },
    {
      "id": 1098,
      "nome": "Gall Force 3: Stardust War",
      "link": "https://animefire.plus/animes/gall-force-3-stardust-war-todos-os-episodios",
      "texto_original": "Gall Force 3: Stardust War",
      "rating": 6.36,
      "classificacao_etaria": "A18",
      "imagem_original": "https://animefire.plus/img/animes/gall-force-3-stardust-war.webp",
      "imagem_pasta": "https://animefire.plus/img/animes/gall-force-3-stardust-war/",
      "secao": "legendados",
      "pagina": 42,
      "total_episodios": 1,
      "link_video": "https://animefire.plus/video/gall-force-3-stardust-war"
    },
    {
      "id": 1099,
      "nome": "Gall Force: The Revolution",
      "link": "https://animefire.plus/animes/gall-force-the-revolution-todos-os-episodios",
      "texto_original": "Gall Force: The Revolution",
      "rating": 6.05,
      "classificacao_etaria": "A18",
      "imagem_original": "https://animefire.plus/img/animes/gall-force-the-revolution.webp",
      "imagem_pasta": "https://animefire.plus/img/animes/gall-force-the-revolution/",
      "secao": "legendados",
      "pagina": 158,
      "total_episodios": 4,
      "link_video": "https://animefire.plus/video/gall-force-the-revolution"
    },
    {
      "id": 1107,
      "nome": "Gantz (Dublado)",
      "link": "https://animefire.plus/animes/gantz-dublado-todos-os-episodios",
      "texto_original": "Gantz (Dublado)",
      "rating": 7.09,
      "classificacao_etaria": "A18",
      "imagem_original": "https://animefire.plus/img/animes/gantz.webp",
      "imagem_pasta": "https://animefire.plus/img/animes/gantz/",
      "secao": "dublados,legendados",
      "pagina": 21,
      "total_episodios": 26,
      "link_video": "https://animefire.plus/video/gantz-dublado"
    },
    {
      "id": 1108,
      "nome": "Gantz 2nd Stage",
      "link": "https://animefire.plus/animes/gantz-2nd-stage-todos-os-episodios",
      "texto_original": "Gantz 2nd Stage",
      "rating": 7.13,
      "classificacao_etaria": "A18",
      "imagem_original": "https://animefire.plus/img/animes/gantz-2nd-stage.webp",
      "imagem_pasta": "https://animefire.plus/img/animes/gantz-2nd-stage/",
      "secao": "legendados",
      "pagina": 63,
      "total_episodios": 13,
      "link_video": "https://animefire.plus/video/gantz-2nd-stage"
    },
    {
      "id": 1109,
      "nome": "Garo Movie: Divine Flame",
      "link": "https://animefire.plus/animes/garo-movie-divine-flame-todos-os-episodios",
      "texto_original": "Garo Movie: Divine Flame",
      "rating": 7.71,
      "classificacao_etaria": "A18",
      "imagem_original": "https://animefire.plus/img/animes/garo-movie-divine-flame.webp",
      "imagem_pasta": "https://animefire.plus/img/animes/garo-movie-divine-flame/",
      "secao": "legendados",
      "pagina": 96,
      "total_episodios": 2,
      "link_video": "https://animefire.plus/video/garo-movie-divine-flame"
    },
    {
      "id": 1124,
      "nome": "Gekkan Mousou Kagaku",
      "link": "https://animefire.plus/animes/gekkan-mousou-kagaku-todos-os-episodios",
      "texto_original": "Gekkan Mousou Kagaku",
      "rating": 5.4,
      "classificacao_etaria": "A18",
      "imagem_original": "https://animefire.plus/img/animes/gekkan-mousou-kagaku.webp",
      "imagem_pasta": "https://animefire.plus/img/animes/gekkan-mousou-kagaku/",
      "secao": "legendados",
      "pagina": 16,
      "total_episodios": 12,
      "link_video": "https://animefire.plus/video/gekkan-mousou-kagaku"
    }
  ],
  "pagination": {
    "current_page": 5,
    "per_page": 20,
    "total_items": 374,
    "total_pages": 19,
    "has_next": true,
    "has_prev": true
  }
}
