{
  "message": "Animes com classificação etária: A18",
  "age_rating": "A18",
  "data": [
    {
      "id": 1455,
      "nome": "High School DxD BorN",
      "link": "https://animefire.plus/animes/high-school-dxd-born-todos-os-episodios",
      "texto_original": "High School DxD BorN",
      "rating": 7.58,
      "classificacao_etaria": "A18",
      "imagem_original": "https://animefire.plus/img/animes/high-school-dxd-born.webp",
      "imagem_pasta": "https://animefire.plus/img/animes/high-school-dxd-born/",
      "secao": "legendados",
      "pagina": 94,
      "total_episodios": 0,
      "link_video": "https://animefire.plus/video/high-school-dxd-born"
    },
    {
      "id": 1456,
      "nome": "High School DxD Hero",
      "link": "https://animefire.plus/animes/high-school-dxd-hero-todos-os-episodios",
      "texto_original": "High School DxD Hero",
      "rating": 7.48,
      "classificacao_etaria": "A18",
      "imagem_original": "https://animefire.plus/img/animes/high-school-dxd-hero.webp",
      "imagem_pasta": "https://animefire.plus/img/animes/high-school-dxd-hero/",
      "secao": "legendados",
      "pagina": 112,
      "total_episodios": 0,
      "link_video": "https://animefire.plus/video/high-school-dxd-hero"
    },
    {
      "id": 1457,
      "nome": "High School DxD Hero: Taiikukan-ura no Holy",
      "link": "https://animefire.plus/animes/high-school-dxd-hero-taiikukan-ura-no-holy-todos-os-episodios",
      "texto_original": "High School DxD Hero: Taiikukan-ura no Holy",
      "rating": 6.91,
      "classificacao_etaria": "A18",
      "imagem_original": "https://animefire.plus/img/animes/high-school-dxd-hero-taiikukan-ura-no-holy.webp",
      "imagem_pasta": "https://animefire.plus/img/animes/high-school-dxd-hero-taiikukan-ura-no-holy/",
      "secao": "legendados",
      "pagina": 82,
      "total_episodios": 1,
      "link_video": "https://animefire.plus/video/high-school-dxd-hero-taiikukan-ura-no-holy"
    },
    {
      "id": 1458,
      "nome": "High School DxD New",
      "link": "https://animefire.plus/animes/high-school-dxd-new-todos-os-episodios",
      "texto_original": "High School DxD New",
      "rating": 7.71,
      "classificacao_etaria": "A18",
      "imagem_original": "https://animefire.plus/img/animes/high-school-dxd-new.webp",
      "imagem_pasta": "https://animefire.plus/img/animes/high-school-dxd-new/",
      "secao": "legendados",
      "pagina": 169,
      "total_episodios": 0,
      "link_video": "https://animefire.plus/video/high-school-dxd-new"
    },
    {
      "id": 1463,
      "nome": "Highschool of the Dead",
      "link": "https://animefire.plus/animes/highschool-of-the-dead-todos-os-episodios",
      "texto_original": "Highschool of the Dead",
      "rating": 7.3,
      "classificacao_etaria": "A18",
      "imagem_original": "https://animefire.plus/img/animes/highschool-of-the-dead.webp",
      "imagem_pasta": "https://animefire.plus/img/animes/highschool-of-the-dead/",
      "secao": "legendados",
      "pagina": 140,
      "total_episodios": 12,
      "link_video": "https://animefire.plus/video/highschool-of-the-dead"
    },
    {
      "id": 1499,
      "nome": "Hit Wo Nerae!",
      "link": "https://animefire.plus/animes/hit-wo-nerae-todos-os-episodios",
      "texto_original": "Hit Wo Nerae!",
      "rating": 5.56,
      "classificacao_etaria": "A18",
      "imagem_original": "https://animefire.plus/img/animes/hit-wo-nerae.webp",
      "imagem_pasta": "https://animefire.plus/img/animes/hit-wo-nerae/",
      "secao": "legendados",
      "pagina": 99,
      "total_episodios": 8,
      "link_video": "https://animefire.plus/video/hit-wo-nerae"
    },
    {
      "id": 1509,
      "nome": "Hitozuma no Kuchibiru wa Kan Chuuhai no Aji ga Shite",
      "link": "https://animefire.plus/animes/hitozuma-no-kuchibiru-wa-kan-chuuhai-no-aji-ga-shite-todos-os-episodios",
      "texto_original": "Hitozuma no Kuchibiru wa Kan Chuuhai no Aji ga Shite",
      "rating": 5.8,
      "classificacao_etaria": "A18",
      "imagem_original": "https://animefire.plus/img/animes/hitozuma-no-kuchibiru-wa-kan-chuuhai-no-aji-ga-shite.webp",
      "imagem_pasta": "https://animefire.plus/img/animes/hitozuma-no-kuchibiru-wa-kan-chuuhai-no-aji-ga-shite/",
      "secao": "legendados,lancamentos",
      "pagina": 3,
      "total_episodios": 0,
      "link_video": "https://animefire.plus/video/hitozuma-no-kuchibiru-wa-kan-chuuhai-no-aji-ga-shite"
    },
    {
      "id": 1513,
      "nome": "Hokuto No Ken",
      "link": "https://animefire.plus/animes/hokuto-no-ken-todos-os-episodios",
      "texto_original": "Hokuto No Ken",
      "rating": 8.01,
      "classificacao_etaria": "A18",
      "imagem_original": "https://animefire.plus/img/animes/hokuto-no-ken.webp",
      "imagem_pasta": "https://animefire.plus/img/animes/hokuto-no-ken/",
      "secao": "legendados",
      "pagina": 60,
      "total_episodios": 107,
      "link_video": "https://animefire.plus/video/hokuto-no-ken"
    },
    {
      "id": 1515,
      "nome": "Holy Knight",
      "link": "https://animefire.plus/animes/holy-knight-todos-os-episodios",
      "texto_original": "Holy Knight",
      "rating": 6.07,
      "classificacao_etaria": "A18",
      "imagem_original": "https://animefire.plus/img/animes/holy-knight.webp",
      "imagem_pasta": "https://animefire.plus/img/animes/holy-knight/",
      "secao": "legendados",
      "pagina": 61,
      "total_episodios": 0,
      "link_video": "https://animefire.plus/video/holy-knight"
    },
    {
      "id": 1534,
      "nome": "Hoshizora e Kakaru Hashi",
      "link": "https://animefire.plus/animes/hoshizora-e-kakaru-hashi-todos-os-episodios",
      "texto_original": "Hoshizora e Kakaru Hashi",
      "rating": 6.92,
      "classificacao_etaria": "A18",
      "imagem_original": "https://animefire.plus/img/animes/hoshizora-e-kakaru-hashi.webp",
      "imagem_pasta": "https://animefire.plus/img/animes/hoshizora-e-kakaru-hashi/",
      "secao": "legendados",
      "pagina": 138,
      "total_episodios": 12,
      "link_video": "https://animefire.plus/video/hoshizora-e-kakaru-hashi"
    },
    {
      "id": 1560,
      "nome": "Hyakka Ryouran: Samurai After",
      "link": "https://animefire.plus/animes/hyakka-ryouran-samurai-after-todos-os-episodios",
      "texto_original": "Hyakka Ryouran: Samurai After",
      "rating": 6.72,
      "classificacao_etaria": "A18",
      "imagem_original": "https://animefire.plus/img/animes/hyakka-ryouran-samurai-after.webp",
      "imagem_pasta": "https://animefire.plus/img/animes/hyakka-ryouran-samurai-after/",
      "secao": "legendados",
      "pagina": 74,
      "total_episodios": 4,
      "link_video": "https://animefire.plus/video/hyakka-ryouran-samurai-after"
    },
    {
      "id": 1561,
      "nome": "Hyakka Ryouran: Samurai Bride",
      "link": "https://animefire.plus/animes/hyakka-ryouran-samurai-bride-todos-os-episodios",
      "texto_original": "Hyakka Ryouran: Samurai Bride",
      "rating": 6.85,
      "classificacao_etaria": "A18",
      "imagem_original": "https://animefire.plus/img/animes/hyakka-ryouran-samurai-bride.webp",
      "imagem_pasta": "https://animefire.plus/img/animes/hyakka-ryouran-samurai-bride/",
      "secao": "legendados",
      "pagina": 156,
      "total_episodios": 12,
      "link_video": "https://animefire.plus/video/hyakka-ryouran-samurai-bride"
    },
    {
      "id": 1562,
      "nome": "Hyakka Ryouran: Samurai Girls",
      "link": "https://animefire.plus/animes/hyakka-ryouran-samurai-girls-todos-os-episodios",
      "texto_original": "Hyakka Ryouran: Samurai Girls",
      "rating": 6.91,
      "classificacao_etaria": "A18",
      "imagem_original": "https://animefire.plus/img/animes/hyakka-ryouran-samurai-girls.webp",
      "imagem_pasta": "https://animefire.plus/img/animes/hyakka-ryouran-samurai-girls/",
      "secao": "legendados",
      "pagina": 139,
      "total_episodios": 12,
      "link_video": "https://animefire.plus/video/hyakka-ryouran-samurai-girls"
    },
    {
      "id": 1574,
      "nome": "I''s Pure",
      "link": "https://animefire.plus/animes/i-s-pure-todos-os-episodios",
      "texto_original": "I''s Pure",
      "rating": 6.89,
      "classificacao_etaria": "A18",
      "imagem_original": "https://animefire.plus/img/animes/i-s-pure.webp",
      "imagem_pasta": "https://animefire.plus/img/animes/i-s-pure/",
      "secao": "legendados",
      "pagina": 43,
      "total_episodios": 6,
      "link_video": "https://animefire.plus/video/i-s-pure"
    },
    {
      "id": 1575,
      "nome": "I''s Pure Bonus",
      "link": "https://animefire.plus/animes/i-s-pure-bonus-todos-os-episodios",
      "texto_original": "I''s Pure Bonus",
      "rating": 6.45,
      "classificacao_etaria": "A18",
      "imagem_original": "https://animefire.plus/img/animes/i-s-pure-bonus.webp",
      "imagem_pasta": "https://animefire.plus/img/animes/i-s-pure-bonus/",
      "secao": "legendados",
      "pagina": 43,
      "total_episodios": 5,
      "link_video": "https://animefire.plus/video/i-s-pure-bonus"
    },
    {
      "id": 1577,
      "nome": "Ichiban Ushiro no Daimaou",
      "link": "https://animefire.plus/animes/ichiban-ushiro-no-daimaou-todos-os-episodios",
      "texto_original": "Ichiban Ushiro no Daimaou",
      "rating": 7.08,
      "classificacao_etaria": "A18",
      "imagem_original": "https://animefire.plus/img/animes/ichiban-ushiro-no-daimaou.webp",
      "imagem_pasta": "https://animefire.plus/img/animes/ichiban-ushiro-no-daimaou/",
      "secao": "legendados",
      "pagina": 124,
      "total_episodios": 12,
      "link_video": "https://animefire.plus/video/ichiban-ushiro-no-daimaou"
    },
    {
      "id": 1582,
      "nome": "Iczer-Girl Iczelion",
      "link": "https://animefire.plus/animes/iczer-girl-iczelion-todos-os-episodios",
      "texto_original": "Iczer-Girl Iczelion",
      "rating": 5.68,
      "classificacao_etaria": "A18",
      "imagem_original": "https://animefire.plus/img/animes/iczer-girl-iczelion.webp",
      "imagem_pasta": "https://animefire.plus/img/animes/iczer-girl-iczelion/",
      "secao": "legendados",
      "pagina": 67,
      "total_episodios": 2,
      "link_video": "https://animefire.plus/video/iczer-girl-iczelion"
    },
    {
      "id": 1600,
      "nome": "Ike! Ina-chuu Takkyuubu",
      "link": "https://animefire.plus/animes/ike-ina-chuu-takkyuubu-todos-os-episodios",
      "texto_original": "Ike! Ina-chuu Takkyuubu",
      "rating": 7.58,
      "classificacao_etaria": "A18",
      "imagem_original": "https://animefire.plus/img/animes/ike-ina-chuu-takkyuubu.webp",
      "imagem_pasta": "https://animefire.plus/img/animes/ike-ina-chuu-takkyuubu/",
      "secao": "legendados",
      "pagina": 55,
      "total_episodios": 26,
      "link_video": "https://animefire.plus/video/ike-ina-chuu-takkyuubu"
    },
    {
      "id": 1603,
      "nome": "Ikkitousen (Dublado)",
      "link": "https://animefire.plus/animes/ikkitousen-dublado-todos-os-episodios",
      "texto_original": "Ikkitousen (Dublado)",
      "rating": 6.48,
      "classificacao_etaria": "A18",
      "imagem_original": "https://animefire.plus/img/animes/ikkitousen.webp",
      "imagem_pasta": "https://animefire.plus/img/animes/ikkitousen/",
      "secao": "dublados,legendados",
      "pagina": 21,
      "total_episodios": 0,
      "link_video": "https://animefire.plus/video/ikkitousen-dublado"
    },
    {
      "id": 1604,
      "nome": "Ikkitousen: Dragon Destiny",
      "link": "https://animefire.plus/animes/ikkitousen-dragon-destiny-todos-os-episodios",
      "texto_original": "Ikkitousen: Dragon Destiny",
      "rating": 6.89,
      "classificacao_etaria": "A18",
      "imagem_original": "https://animefire.plus/img/animes/ikkitousen-dragon-destiny.webp",
      "imagem_pasta": "https://animefire.plus/img/animes/ikkitousen-dragon-destiny/",
      "secao": "legendados",
      "pagina": 168,
      "total_episodios": 12,
      "link_video": "https://animefire.plus/video/ikkitousen-dragon-destiny"
    }
  ],
  "pagination": {
    "current_page": 7,
    "per_page": 20,
    "total_items": 374,
    "total_pages": 19,
    "has_next": true,
    "has_prev": true
  }
}
