{
  "message": "Animes com classificação etária: A18",
  "age_rating": "A18",
  "data": [
    {
      "id": 1981,
      "nome": "Kimi ga Aruji de Shitsuji ga Ore de",
      "link": "https://animefire.plus/animes/kimi-ga-aruji-de-shitsuji-ga-ore-de-todos-os-episodios",
      "texto_original": "Kimi ga Aruji de Shitsuji ga Ore de",
      "rating": 7.25,
      "classificacao_etaria": "A18",
      "imagem_original": "https://animefire.plus/img/animes/kimi-ga-aruji-de-shitsuji-ga-ore-de.webp",
      "imagem_pasta": "https://animefire.plus/img/animes/kimi-ga-aruji-de-shitsuji-ga-ore-de/",
      "secao": "legendados",
      "pagina": 119,
      "total_episodios": 13,
      "link_video": "https://animefire.plus/video/kimi-ga-aruji-de-shitsuji-ga-ore-de"
    },
    {
      "id": 1982,
      "nome": "Kimi ga Nozomu Eien",
      "link": "https://animefire.plus/animes/kimi-ga-nozomu-eien-todos-os-episodios",
      "texto_original": "Kimi ga Nozomu Eien",
      "rating": 7.32,
      "classificacao_etaria": "A18",
      "imagem_original": "https://animefire.plus/img/animes/kimi-ga-nozomu-eien.webp",
      "imagem_pasta": "https://animefire.plus/img/animes/kimi-ga-nozomu-eien/",
      "secao": "legendados",
      "pagina": 171,
      "total_episodios": 14,
      "link_video": "https://animefire.plus/video/kimi-ga-nozomu-eien"
    },
    {
      "id": 1986,
      "nome": "Kimi no Iru Machi",
      "link": "https://animefire.plus/animes/kimi-no-iru-machi-todos-os-episodios",
      "texto_original": "Kimi no Iru Machi",
      "rating": 7.08,
      "classificacao_etaria": "A18",
      "imagem_original": "https://animefire.plus/img/animes/kimi-no-iru-machi.webp",
      "imagem_pasta": "https://animefire.plus/img/animes/kimi-no-iru-machi/",
      "secao": "legendados",
      "pagina": 155,
      "total_episodios": 12,
      "link_video": "https://animefire.plus/video/kimi-no-iru-machi"
    },
    {
      "id": 2014,
      "nome": "Kirara",
      "link": "https://animefire.plus/animes/kirara-todos-os-episodios",
      "texto_original": "Kirara",
      "rating": 6.21,
      "classificacao_etaria": "A18",
      "imagem_original": "https://animefire.plus/img/animes/kirara.webp",
      "imagem_pasta": "https://animefire.plus/img/animes/kirara/",
      "secao": "legendados",
      "pagina": 66,
      "total_episodios": 1,
      "link_video": "https://animefire.plus/video/kirara"
    },
    {
      "id": 2025,
      "nome": "Kiss x Sis",
      "link": "https://animefire.plus/animes/kiss-x-sis-todos-os-episodios",
      "texto_original": "Kiss x Sis",
      "rating": 7.11,
      "classificacao_etaria": "A18",
      "imagem_original": "https://animefire.plus/img/animes/kiss-x-sis.webp",
      "imagem_pasta": "https://animefire.plus/img/animes/kiss-x-sis/",
      "secao": "legendados",
      "pagina": 154,
      "total_episodios": 12,
      "link_video": "https://animefire.plus/video/kiss-x-sis"
    },
    {
      "id": 2046,
      "nome": "Koharu Biyori",
      "link": "https://animefire.plus/animes/koharu-biyori-todos-os-episodios",
      "texto_original": "Koharu Biyori",
      "rating": 6.66,
      "classificacao_etaria": "A18",
      "imagem_original": "https://animefire.plus/img/animes/koharu-biyori.webp",
      "imagem_pasta": "https://animefire.plus/img/animes/koharu-biyori/",
      "secao": "legendados",
      "pagina": 61,
      "total_episodios": 0,
      "link_video": "https://animefire.plus/video/koharu-biyori"
    },
    {
      "id": 2048,
      "nome": "Koi Koi 7",
      "link": "https://animefire.plus/animes/koi-koi-7-todos-os-episodios",
      "texto_original": "Koi Koi 7",
      "rating": 5.88,
      "classificacao_etaria": "A18",
      "imagem_original": "https://animefire.plus/img/animes/koi-koi-7.webp",
      "imagem_pasta": "https://animefire.plus/img/animes/koi-koi-7/",
      "secao": "legendados",
      "pagina": 128,
      "total_episodios": 13,
      "link_video": "https://animefire.plus/video/koi-koi-7"
    },
    {
      "id": 2058,
      "nome": "Koihime†Musou",
      "link": "https://animefire.plus/animes/koihime-musou-todos-os-episodios",
      "texto_original": "Koihime†Musou",
      "rating": 6.82,
      "classificacao_etaria": "A18",
      "imagem_original": "https://animefire.plus/img/animes/koihime-musou.webp",
      "imagem_pasta": "https://animefire.plus/img/animes/koihime-musou/",
      "secao": "legendados",
      "pagina": 127,
      "total_episodios": 12,
      "link_video": "https://animefire.plus/video/koihime-musou"
    },
    {
      "id": 2059,
      "nome": "Koihime†Musou OVA Omake",
      "link": "https://animefire.plus/animes/koihime-musou-ova-omake-todos-os-episodios",
      "texto_original": "Koihime†Musou OVA Omake",
      "rating": 6.24,
      "classificacao_etaria": "A18",
      "imagem_original": "https://animefire.plus/img/animes/koihime-musou-ova-omake.webp",
      "imagem_pasta": "https://animefire.plus/img/animes/koihime-musou-ova-omake/",
      "secao": "legendados",
      "pagina": 71,
      "total_episodios": 1,
      "link_video": "https://animefire.plus/video/koihime-musou-ova-omake"
    },
    {
      "id": 2081,
      "nome": "Kono Minikuku mo Utsukushii Sekai",
      "link": "https://animefire.plus/animes/kono-minikuku-mo-utsukushii-sekai-todos-os-episodios",
      "texto_original": "Kono Minikuku mo Utsukushii Sekai",
      "rating": 6.84,
      "classificacao_etaria": "A18",
      "imagem_original": "https://animefire.plus/img/animes/kono-minikuku-mo-utsukushii-sekai.webp",
      "imagem_pasta": "https://animefire.plus/img/animes/kono-minikuku-mo-utsukushii-sekai/",
      "secao": "legendados",
      "pagina": 131,
      "total_episodios": 0,
      "link_video": "https://animefire.plus/video/kono-minikuku-mo-utsukushii-sekai"
    },
    {
      "id": 2082,
      "nome": "Kono Naka ni Hitori, Imouto ga Iru!",
      "link": "https://animefire.plus/animes/kono-naka-ni-hitori-imouto-ga-iru-todos-os-episodios",
      "texto_original": "Kono Naka ni Hitori, Imouto ga Iru!",
      "rating": 6.74,
      "classificacao_etaria": "A18",
      "imagem_original": "https://animefire.plus/img/animes/kono-naka-ni-hitori-imouto-ga-iru.webp",
      "imagem_pasta": "https://animefire.plus/img/animes/kono-naka-ni-hitori-imouto-ga-iru/",
      "secao": "legendados",
      "pagina": 140,
      "total_episodios": 4,
      "link_video": "https://animefire.plus/video/kono-naka-ni-hitori-imouto-ga-iru"
    },
    {
      "id": 2093,
      "nome": "Kono Yo no Hate de Koi wo Utau Shoujo YU-NO Special",
      "link": "https://animefire.plus/animes/kono-yo-no-hate-de-koi-wo-utau-shoujo-yu-no-special-todos-os-episodios",
      "texto_original": "Kono Yo no Hate de Koi wo Utau Shoujo YU-NO Special",
      "rating": 6.33,
      "classificacao_etaria": "A18",
      "imagem_original": "https://animefire.plus/img/animes/kono-yo-no-hate-de-koi-wo-utau-shoujo-yu-no-special.webp",
      "imagem_pasta": "https://animefire.plus/img/animes/kono-yo-no-hate-de-koi-wo-utau-shoujo-yu-no-special/",
      "secao": "legendados",
      "pagina": 59,
      "total_episodios": 1,
      "link_video": "https://animefire.plus/video/kono-yo-no-hate-de-koi-wo-utau-shoujo-yu-no-special"
    },
    {
      "id": 2097,
      "nome": "Kore ga Watashi no Goshujinsama",
      "link": "https://animefire.plus/animes/kore-ga-watashi-no-goshujinsama-todos-os-episodios",
      "texto_original": "Kore ga Watashi no Goshujinsama",
      "rating": 6.58,
      "classificacao_etaria": "A18",
      "imagem_original": "https://animefire.plus/img/animes/kore-ga-watashi-no-goshujinsama.webp",
      "imagem_pasta": "https://animefire.plus/img/animes/kore-ga-watashi-no-goshujinsama/",
      "secao": "legendados",
      "pagina": 71,
      "total_episodios": 12,
      "link_video": "https://animefire.plus/video/kore-ga-watashi-no-goshujinsama"
    },
    {
      "id": 2115,
      "nome": "Koutetsu Tenshi Kurumi",
      "link": "https://animefire.plus/animes/koutetsu-tenshi-kurumi-todos-os-episodios",
      "texto_original": "Koutetsu Tenshi Kurumi",
      "rating": 6.85,
      "classificacao_etaria": "A18",
      "imagem_original": "https://animefire.plus/img/animes/koutetsu-tenshi-kurumi.webp",
      "imagem_pasta": "https://animefire.plus/img/animes/koutetsu-tenshi-kurumi/",
      "secao": "legendados",
      "pagina": 165,
      "total_episodios": 0,
      "link_video": "https://animefire.plus/video/koutetsu-tenshi-kurumi"
    },
    {
      "id": 2116,
      "nome": "Koutetsu Tenshi Kurumi 2",
      "link": "https://animefire.plus/animes/koutetsu-tenshi-kurumi-2-todos-os-episodios",
      "texto_original": "Koutetsu Tenshi Kurumi 2",
      "rating": 6.36,
      "classificacao_etaria": "A18",
      "imagem_original": "https://animefire.plus/img/animes/koutetsu-tenshi-kurumi-2.webp",
      "imagem_pasta": "https://animefire.plus/img/animes/koutetsu-tenshi-kurumi-2/",
      "secao": "legendados",
      "pagina": 118,
      "total_episodios": 0,
      "link_video": "https://animefire.plus/video/koutetsu-tenshi-kurumi-2"
    },
    {
      "id": 2127,
      "nome": "Kujakuou",
      "link": "https://animefire.plus/animes/kujakuou-todos-os-episodios",
      "texto_original": "Kujakuou",
      "rating": 6.04,
      "classificacao_etaria": "A18",
      "imagem_original": "https://animefire.plus/img/animes/kujakuou.webp",
      "imagem_pasta": "https://animefire.plus/img/animes/kujakuou/",
      "secao": "legendados",
      "pagina": 164,
      "total_episodios": 3,
      "link_video": "https://animefire.plus/video/kujakuou"
    },
    {
      "id": 2145,
      "nome": "Kuro Gal ni Natta kara Shinyuu to shitemita.",
      "link": "https://animefire.plus/animes/kuro-gal-ni-natta-kara-shinyuu-to-shitemita-todos-os-episodios",
      "texto_original": "Kuro Gal ni Natta kara Shinyuu to shitemita.",
      "rating": 6.2,
      "classificacao_etaria": "A18",
      "imagem_original": "https://animefire.plus/img/animes/kuro-gal-ni-natta-kara-shinyuu-to-shitemita.webp",
      "imagem_pasta": "https://animefire.plus/img/animes/kuro-gal-ni-natta-kara-shinyuu-to-shitemita/",
      "secao": "legendados,lancamentos",
      "pagina": 47,
      "total_episodios": 0,
      "link_video": "https://animefire.plus/video/kuro-gal-ni-natta-kara-shinyuu-to-shitemita"
    },
    {
      "id": 2167,
      "nome": "Kuttsukiboshi",
      "link": "https://animefire.plus/animes/kuttsukiboshi-todos-os-episodios",
      "texto_original": "Kuttsukiboshi",
      "rating": 6.1,
      "classificacao_etaria": "A18",
      "imagem_original": "https://animefire.plus/img/animes/kuttsukiboshi.webp",
      "imagem_pasta": "https://animefire.plus/img/animes/kuttsukiboshi/",
      "secao": "legendados",
      "pagina": 44,
      "total_episodios": 2,
      "link_video": "https://animefire.plus/video/kuttsukiboshi"
    },
    {
      "id": 2172,
      "nome": "Kuzu no Honkai",
      "link": "https://animefire.plus/animes/kuzu-no-honkai-todos-os-episodios",
      "texto_original": "Kuzu no Honkai",
      "rating": 7.48,
      "classificacao_etaria": "A18",
      "imagem_original": "https://animefire.plus/img/animes/kuzu-no-honkai.webp",
      "imagem_pasta": "https://animefire.plus/img/animes/kuzu-no-honkai/",
      "secao": "legendados",
      "pagina": 121,
      "total_episodios": 2,
      "link_video": "https://animefire.plus/video/kuzu-no-honkai"
    },
    {
      "id": 2173,
      "nome": "Kyochuu Rettou",
      "link": "https://animefire.plus/animes/kyochuu-rettou-todos-os-episodios",
      "texto_original": "Kyochuu Rettou",
      "rating": 4.53,
      "classificacao_etaria": "A18",
      "imagem_original": "https://animefire.plus/img/animes/kyochuu-rettou.webp",
      "imagem_pasta": "https://animefire.plus/img/animes/kyochuu-rettou/",
      "secao": "legendados",
      "pagina": 87,
      "total_episodios": 1,
      "link_video": "https://animefire.plus/video/kyochuu-rettou"
    }
  ],
  "pagination": {
    "current_page": 10,
    "per_page": 20,
    "total_items": 374,
    "total_pages": 19,
    "has_next": true,
    "has_prev": true
  }
}
