{
  "message": "Animes com classificação etária: A18",
  "age_rating": "A18",
  "data": [
    {
      "id": 2794,
      "nome": "Nurarihyon no Mago OVA",
      "link": "https://animefire.plus/animes/nurarihyon-no-mago-ova-todos-os-episodios",
      "texto_original": "Nurarihyon no Mago OVA",
      "rating": 7.76,
      "classificacao_etaria": "A18",
      "imagem_original": "https://animefire.plus/img/animes/nurarihyon-no-mago-ova.webp",
      "imagem_pasta": "https://animefire.plus/img/animes/nurarihyon-no-mago-ova/",
      "secao": "legendados",
      "pagina": 88,
      "total_episodios": 2,
      "link_video": "https://animefire.plus/video/nurarihyon-no-mago-ova"
    },
    {
      "id": 2815,
      "nome": "Okusama ga Seitokaichou!",
      "link": "https://animefire.plus/animes/okusama-ga-seitokaichou-todos-os-episodios",
      "texto_original": "Okusama ga Seitokaichou!",
      "rating": 6.8,
      "classificacao_etaria": "A18",
      "imagem_original": "https://animefire.plus/img/animes/okusama-ga-seitokaichou.webp",
      "imagem_pasta": "https://animefire.plus/img/animes/okusama-ga-seitokaichou/",
      "secao": "legendados",
      "pagina": 140,
      "total_episodios": 0,
      "link_video": "https://animefire.plus/video/okusama-ga-seitokaichou"
    },
    {
      "id": 2816,
      "nome": "Okusama ga Seitokaichou!: Seitokaichou to Ofuro Asobi",
      "link": "https://animefire.plus/animes/okusama-ga-seitokaichou-seitokaichou-to-ofuro-asobi-todos-os-episodios",
      "texto_original": "Okusama ga Seitokaichou!: Seitokaichou to Ofuro Asobi",
      "rating": 6.82,
      "classificacao_etaria": "A18",
      "imagem_original": "https://animefire.plus/img/animes/okusama-ga-seitokaichou-seitokaichou-to-ofuro-asobi.webp",
      "imagem_pasta": "https://animefire.plus/img/animes/okusama-ga-seitokaichou-seitokaichou-to-ofuro-asobi/",
      "secao": "legendados",
      "pagina": 59,
      "total_episodios": 1,
      "link_video": "https://animefire.plus/video/okusama-ga-seitokaichou-seitokaichou-to-ofuro-asobi"
    },
    {
      "id": 2817,
      "nome": "Okusama ga Seitokaichou!+!",
      "link": "https://animefire.plus/animes/my-wife-is-the-student-council-president-todos-os-episodios",
      "texto_original": "Okusama ga Seitokaichou!+!",
      "rating": 6.7,
      "classificacao_etaria": "A18",
      "imagem_original": "https://animefire.plus/img/animes/my-wife-is-the-student-council-president.webp",
      "imagem_pasta": "https://animefire.plus/img/animes/my-wife-is-the-student-council-president/",
      "secao": "legendados",
      "pagina": 59,
      "total_episodios": 12,
      "link_video": "https://animefire.plus/video/my-wife-is-the-student-council-president"
    },
    {
      "id": 2822,
      "nome": "Omamori Himari",
      "link": "https://animefire.plus/animes/omamori-himari-todos-os-episodios",
      "texto_original": "Omamori Himari",
      "rating": 7.06,
      "classificacao_etaria": "A18",
      "imagem_original": "https://animefire.plus/img/animes/omamori-himari.webp",
      "imagem_pasta": "https://animefire.plus/img/animes/omamori-himari/",
      "secao": "legendados",
      "pagina": 124,
      "total_episodios": 0,
      "link_video": "https://animefire.plus/video/omamori-himari"
    },
    {
      "id": 2852,
      "nome": "Oniichan dakedo Ai sae Areba Kankeinai yo ne!",
      "link": "https://animefire.plus/animes/oniichan-dakedo-ai-sae-areba-kankeinai-yo-ne-todos-os-episodios",
      "texto_original": "Oniichan dakedo Ai sae Areba Kankeinai yo ne!",
      "rating": 6.67,
      "classificacao_etaria": "A18",
      "imagem_original": "https://animefire.plus/img/animes/oniichan-dakedo-ai-sae-areba-kankeinai-yo-ne.webp",
      "imagem_pasta": "https://animefire.plus/img/animes/oniichan-dakedo-ai-sae-areba-kankeinai-yo-ne/",
      "secao": "legendados",
      "pagina": 160,
      "total_episodios": 0,
      "link_video": "https://animefire.plus/video/oniichan-dakedo-ai-sae-areba-kankeinai-yo-ne"
    },
    {
      "id": 2853,
      "nome": "Oniichan dakedo Ai sae Areba Kankeinai yo ne! Specials",
      "link": "https://animefire.plus/animes/oniichan-dakedo-ai-sae-areba-kankeinai-yo-ne-specials-todos-os-episodios",
      "texto_original": "Oniichan dakedo Ai sae Areba Kankeinai yo ne! Specials",
      "rating": 6.29,
      "classificacao_etaria": "A18",
      "imagem_original": "https://animefire.plus/img/animes/oniichan-dakedo-ai-sae-areba-kankeinai-yo-ne-specials.webp",
      "imagem_pasta": "https://animefire.plus/img/animes/oniichan-dakedo-ai-sae-areba-kankeinai-yo-ne-specials/",
      "secao": "legendados",
      "pagina": 57,
      "total_episodios": 6,
      "link_video": "https://animefire.plus/video/oniichan-dakedo-ai-sae-areba-kankeinai-yo-ne-specials"
    },
    {
      "id": 2883,
      "nome": "Ore ga Suki nano wa Imouto dakedo Imouto ja Nai",
      "link": "https://animefire.plus/animes/ore-ga-suki-nano-wa-imouto-dakedo-imouto-ja-nai-todos-os-episodios",
      "texto_original": "Ore ga Suki nano wa Imouto dakedo Imouto ja Nai",
      "rating": 5.11,
      "classificacao_etaria": "A18",
      "imagem_original": "https://animefire.plus/img/animes/ore-ga-suki-nano-wa-imouto-dakedo-imouto-ja-nai.webp",
      "imagem_pasta": "https://animefire.plus/img/animes/ore-ga-suki-nano-wa-imouto-dakedo-imouto-ja-nai/",
      "secao": "legendados",
      "pagina": 97,
      "total_episodios": 10,
      "link_video": "https://animefire.plus/video/ore-ga-suki-nano-wa-imouto-dakedo-imouto-ja-nai"
    },
    {
      "id": 2896,
      "nome": "Oretachi ni Tsubasa wa Nai: Under the Innocent Sky.",
      "link": "https://animefire.plus/animes/oretachi-ni-tsubasa-wa-nai-under-the-innocent-sky-todos-os-episodios",
      "texto_original": "Oretachi ni Tsubasa wa Nai: Under the Innocent Sky.",
      "rating": 6.78,
      "classificacao_etaria": "A18",
      "imagem_original": "https://animefire.plus/img/animes/oretachi-ni-tsubasa-wa-nai-under-the-innocent-sky.webp",
      "imagem_pasta": "https://animefire.plus/img/animes/oretachi-ni-tsubasa-wa-nai-under-the-innocent-sky/",
      "secao": "legendados",
      "pagina": 130,
      "total_episodios": 0,
      "link_video": "https://animefire.plus/video/oretachi-ni-tsubasa-wa-nai-under-the-innocent-sky"
    },
    {
      "id": 2900,
      "nome": "Oruchuban Ebichu",
      "link": "https://animefire.plus/animes/oruchuban-ebichu-todos-os-episodios",
      "texto_original": "Oruchuban Ebichu",
      "rating": 7.48,
      "classificacao_etaria": "A18",
      "imagem_original": "https://animefire.plus/img/animes/oruchuban-ebichu.webp",
      "imagem_pasta": "https://animefire.plus/img/animes/oruchuban-ebichu/",
      "secao": "legendados",
      "pagina": 143,
      "total_episodios": 12,
      "link_video": "https://animefire.plus/video/oruchuban-ebichu"
    },
    {
      "id": 2912,
      "nome": "Otaku no Video",
      "link": "https://animefire.plus/animes/otaku-no-video-todos-os-episodios",
      "texto_original": "Otaku no Video",
      "rating": 7.16,
      "classificacao_etaria": "A18",
      "imagem_original": "https://animefire.plus/img/animes/otaku-no-video.webp",
      "imagem_pasta": "https://animefire.plus/img/animes/otaku-no-video/",
      "secao": "legendados",
      "pagina": 66,
      "total_episodios": 2,
      "link_video": "https://animefire.plus/video/otaku-no-video"
    },
    {
      "id": 2964,
      "nome": "Penguin Musume♥Heart",
      "link": "https://animefire.plus/animes/penguin-musume-heart-todos-os-episodios",
      "texto_original": "Penguin Musume♥Heart",
      "rating": 6.81,
      "classificacao_etaria": "A18",
      "imagem_original": "https://animefire.plus/img/animes/penguin-musume-heart.webp",
      "imagem_pasta": "https://animefire.plus/img/animes/penguin-musume-heart/",
      "secao": "legendados",
      "pagina": 133,
      "total_episodios": 22,
      "link_video": "https://animefire.plus/video/penguin-musume-heart"
    },
    {
      "id": 2969,
      "nome": "Peter Grill to Kenja no Jikan",
      "link": "https://animefire.plus/animes/peter-grill-to-kenja-no-jikan-todos-os-episodios",
      "texto_original": "Peter Grill to Kenja no Jikan",
      "rating": 5.51,
      "classificacao_etaria": "A18",
      "imagem_original": "https://animefire.plus/img/animes/peter-grill-to-kenja-no-jikan.webp",
      "imagem_pasta": "https://animefire.plus/img/animes/peter-grill-to-kenja-no-jikan/",
      "secao": "legendados",
      "pagina": 58,
      "total_episodios": 12,
      "link_video": "https://animefire.plus/video/peter-grill-to-kenja-no-jikan"
    },
    {
      "id": 2970,
      "nome": "Peter Grill to Kenja no Jikan: Super Extra",
      "link": "https://animefire.plus/animes/peter-grill-to-kenja-no-jikan-super-extra-todos-os-episodios",
      "texto_original": "Peter Grill to Kenja no Jikan: Super Extra",
      "rating": 5.94,
      "classificacao_etaria": "A18",
      "imagem_original": "https://animefire.plus/img/animes/peter-grill-to-kenja-no-jikan-super-extra.webp",
      "imagem_pasta": "https://animefire.plus/img/animes/peter-grill-to-kenja-no-jikan-super-extra/",
      "secao": "legendados",
      "pagina": 29,
      "total_episodios": 12,
      "link_video": "https://animefire.plus/video/peter-grill-to-kenja-no-jikan-super-extra"
    },
    {
      "id": 2971,
      "nome": "Petshop of Horrors",
      "link": "https://animefire.plus/animes/petshop-of-horrors-todos-os-episodios",
      "texto_original": "Petshop of Horrors",
      "rating": 7.33,
      "classificacao_etaria": "A18",
      "imagem_original": "https://animefire.plus/img/animes/petshop-of-horrors.webp",
      "imagem_pasta": "https://animefire.plus/img/animes/petshop-of-horrors/",
      "secao": "legendados",
      "pagina": 113,
      "total_episodios": 4,
      "link_video": "https://animefire.plus/video/petshop-of-horrors"
    },
    {
      "id": 2975,
      "nome": "Phantom: Requiem for the Phantom",
      "link": "https://animefire.plus/animes/phantom-requiem-for-the-phantom-todos-os-episodios",
      "texto_original": "Phantom: Requiem for the Phantom",
      "rating": 8.08,
      "classificacao_etaria": "A18",
      "imagem_original": "https://animefire.plus/img/animes/phantom-requiem-for-the-phantom.webp",
      "imagem_pasta": "https://animefire.plus/img/animes/phantom-requiem-for-the-phantom/",
      "secao": "legendados",
      "pagina": 137,
      "total_episodios": 26,
      "link_video": "https://animefire.plus/video/phantom-requiem-for-the-phantom"
    },
    {
      "id": 2990,
      "nome": "Plastic Little",
      "link": "https://animefire.plus/animes/plastic-little-todos-os-episodios",
      "texto_original": "Plastic Little",
      "rating": 6.17,
      "classificacao_etaria": "A18",
      "imagem_original": "https://animefire.plus/img/animes/plastic-little.webp",
      "imagem_pasta": "https://animefire.plus/img/animes/plastic-little/",
      "secao": "legendados",
      "pagina": 66,
      "total_episodios": 1,
      "link_video": "https://animefire.plus/video/plastic-little"
    },
    {
      "id": 3014,
      "nome": "Popotan",
      "link": "https://animefire.plus/animes/popotan-todos-os-episodios",
      "texto_original": "Popotan",
      "rating": 6.36,
      "classificacao_etaria": "A18",
      "imagem_original": "https://animefire.plus/img/animes/popotan.webp",
      "imagem_pasta": "https://animefire.plus/img/animes/popotan/",
      "secao": "legendados",
      "pagina": 132,
      "total_episodios": 12,
      "link_video": "https://animefire.plus/video/popotan"
    },
    {
      "id": 3027,
      "nome": "Princess Lover!",
      "link": "https://animefire.plus/animes/princess-lover-todos-os-episodios",
      "texto_original": "Princess Lover!",
      "rating": 6.92,
      "classificacao_etaria": "A18",
      "imagem_original": "https://animefire.plus/img/animes/princess-lover.webp",
      "imagem_pasta": "https://animefire.plus/img/animes/princess-lover/",
      "secao": "legendados",
      "pagina": 151,
      "total_episodios": 12,
      "link_video": "https://animefire.plus/video/princess-lover"
    },
    {
      "id": 3028,
      "nome": "Princess Minerva",
      "link": "https://animefire.plus/animes/princess-minerva-todos-os-episodios",
      "texto_original": "Princess Minerva",
      "rating": 5.58,
      "classificacao_etaria": "A18",
      "imagem_original": "https://animefire.plus/img/animes/princess-minerva.webp",
      "imagem_pasta": "https://animefire.plus/img/animes/princess-minerva/",
      "secao": "legendados",
      "pagina": 69,
      "total_episodios": 1,
      "link_video": "https://animefire.plus/video/princess-minerva"
    }
  ],
  "pagination": {
    "current_page": 14,
    "per_page": 20,
    "total_items": 374,
    "total_pages": 19,
    "has_next": true,
    "has_prev": true
  }
}
