{
  "message": "Animes com classificação etária: A18",
  "age_rating": "A18",
  "data": [
    {
      "id": 631,
      "nome": "Choujuushin Gravion Zwei",
      "link": "https://animefire.plus/animes/choujuushin-gravion-zwei-todos-os-episodios",
      "texto_original": "Choujuushin Gravion Zwei",
      "rating": 6.7,
      "classificacao_etaria": "A18",
      "imagem_original": "https://animefire.plus/img/animes/choujuushin-gravion-zwei.webp",
      "imagem_pasta": "https://animefire.plus/img/animes/choujuushin-gravion-zwei/",
      "secao": "legendados",
      "pagina": 119,
      "total_episodios": 12,
      "link_video": "https://animefire.plus/video/choujuushin-gravion-zwei"
    },
    {
      "id": 639,
      "nome": "Chu-Bra!!",
      "link": "https://animefire.plus/animes/chu-bra-todos-os-episodios",
      "texto_original": "Chu-Bra!!",
      "rating": 6.28,
      "classificacao_etaria": "A18",
      "imagem_original": "https://animefire.plus/img/animes/chu-bra.webp",
      "imagem_pasta": "https://animefire.plus/img/animes/chu-bra/",
      "secao": "legendados",
      "pagina": 131,
      "total_episodios": 12,
      "link_video": "https://animefire.plus/video/chu-bra"
    },
    {
      "id": 665,
      "nome": "Claymore (Dublado)",
      "link": "https://animefire.plus/animes/claymore-dublado-todos-os-episodios",
      "texto_original": "Claymore (Dublado)",
      "rating": 7.78,
      "classificacao_etaria": "A18",
      "imagem_original": "https://animefire.plus/img/animes/claymore.webp",
      "imagem_pasta": "https://animefire.plus/img/animes/claymore/",
      "secao": "dublados,legendados",
      "pagina": 18,
      "total_episodios": 26,
      "link_video": "https://animefire.plus/video/claymore-dublado"
    },
    {
      "id": 666,
      "nome": "Cleopatra D.C.",
      "link": "https://animefire.plus/animes/cleopatra-d-c-todos-os-episodios",
      "texto_original": "Cleopatra D.C.",
      "rating": 5.95,
      "classificacao_etaria": "A18",
      "imagem_original": "https://animefire.plus/img/animes/cleopatra-d-c.webp",
      "imagem_pasta": "https://animefire.plus/img/animes/cleopatra-d-c/",
      "secao": "legendados",
      "pagina": 117,
      "total_episodios": 3,
      "link_video": "https://animefire.plus/video/cleopatra-d-c"
    },
    {
      "id": 672,
      "nome": "Cobra The Animation",
      "link": "https://animefire.plus/animes/cobra-the-animation-todos-os-episodios",
      "texto_original": "Cobra The Animation",
      "rating": 7.17,
      "classificacao_etaria": "A18",
      "imagem_original": "https://animefire.plus/img/animes/cobra-the-animation.webp",
      "imagem_pasta": "https://animefire.plus/img/animes/cobra-the-animation/",
      "secao": "legendados",
      "pagina": 164,
      "total_episodios": 13,
      "link_video": "https://animefire.plus/video/cobra-the-animation"
    },
    {
      "id": 680,
      "nome": "Colorful",
      "link": "https://animefire.plus/animes/colorful-todos-os-episodios",
      "texto_original": "Colorful",
      "rating": 6.1,
      "classificacao_etaria": "A18",
      "imagem_original": "https://animefire.plus/img/animes/colorful.webp",
      "imagem_pasta": "https://animefire.plus/img/animes/colorful/",
      "secao": "legendados",
      "pagina": 60,
      "total_episodios": 16,
      "link_video": "https://animefire.plus/video/colorful"
    },
    {
      "id": 688,
      "nome": "Concrete Revolutio: Choujin Gensou - The Last Song",
      "link": "https://animefire.plus/animes/concrete-revolutio-choujin-gensou---the-last-song-todos-os-episodios",
      "texto_original": "Concrete Revolutio: Choujin Gensou - The Last Song",
      "rating": 7.12,
      "classificacao_etaria": "A18",
      "imagem_original": "https://animefire.plus/img/animes/concrete-revolutio-choujin-gensou---the-last-song.webp",
      "imagem_pasta": "https://animefire.plus/img/animes/concrete-revolutio-choujin-gensou---the-last-song/",
      "secao": "legendados",
      "pagina": 124,
      "total_episodios": 6,
      "link_video": "https://animefire.plus/video/concrete-revolutio-choujin-gensou---the-last-song"
    },
    {
      "id": 709,
      "nome": "Cyberpunk: Edgerunners (Dublado)",
      "link": "https://animefire.plus/animes/cyberpunk-edgerunners-dublado-todos-os-episodios",
      "texto_original": "Cyberpunk: Edgerunners (Dublado)",
      "rating": 8.6,
      "classificacao_etaria": "A18",
      "imagem_original": "https://animefire.plus/img/animes/cyberpunk-edgerunners.webp",
      "imagem_pasta": "https://animefire.plus/img/animes/cyberpunk-edgerunners/",
      "secao": "dublados,legendados",
      "pagina": 9,
      "total_episodios": 10,
      "link_video": "https://animefire.plus/video/cyberpunk-edgerunners-dublado"
    },
    {
      "id": 730,
      "nome": "Dakara Boku wa, H ga Dekinai.",
      "link": "https://animefire.plus/animes/dakara-boku-wa-h-ga-dekinai-todos-os-episodios",
      "texto_original": "Dakara Boku wa, H ga Dekinai.",
      "rating": 6.79,
      "classificacao_etaria": "A18",
      "imagem_original": "https://animefire.plus/img/animes/dakara-boku-wa-h-ga-dekinai.webp",
      "imagem_pasta": "https://animefire.plus/img/animes/dakara-boku-wa-h-ga-dekinai/",
      "secao": "legendados",
      "pagina": 95,
      "total_episodios": 0,
      "link_video": "https://animefire.plus/video/dakara-boku-wa-h-ga-dekinai"
    },
    {
      "id": 736,
      "nome": "Dance In The Vampire Bund",
      "link": "https://animefire.plus/animes/dance-in-the-vampire-bund-todos-os-episodios",
      "texto_original": "Dance In The Vampire Bund",
      "rating": 7.13,
      "classificacao_etaria": "A18",
      "imagem_original": "https://animefire.plus/img/animes/dance-in-the-vampire-bund.webp",
      "imagem_pasta": "https://animefire.plus/img/animes/dance-in-the-vampire-bund/",
      "secao": "legendados",
      "pagina": 101,
      "total_episodios": 12,
      "link_video": "https://animefire.plus/video/dance-in-the-vampire-bund"
    },
    {
      "id": 763,
      "nome": "De:vadasy",
      "link": "https://animefire.plus/animes/de-vadasy-todos-os-episodios",
      "texto_original": "De:vadasy",
      "rating": 4.8,
      "classificacao_etaria": "A18",
      "imagem_original": "https://animefire.plus/img/animes/de-vadasy.webp",
      "imagem_pasta": "https://animefire.plus/img/animes/de-vadasy/",
      "secao": "legendados",
      "pagina": 69,
      "total_episodios": 3,
      "link_video": "https://animefire.plus/video/de-vadasy"
    },
    {
      "id": 772,
      "nome": "DearS",
      "link": "https://animefire.plus/animes/dears-todos-os-episodios",
      "texto_original": "DearS",
      "rating": 6.71,
      "classificacao_etaria": "A18",
      "imagem_original": "https://animefire.plus/img/animes/dears.webp",
      "imagem_pasta": "https://animefire.plus/img/animes/dears/",
      "secao": "legendados",
      "pagina": 162,
      "total_episodios": 12,
      "link_video": "https://animefire.plus/video/dears"
    },
    {
      "id": 773,
      "nome": "DearS: Kin no Tama Desu no?",
      "link": "https://animefire.plus/animes/dears-kin-no-tama-desu-no-todos-os-episodios",
      "texto_original": "DearS: Kin no Tama Desu no?",
      "rating": 6.83,
      "classificacao_etaria": "A18",
      "imagem_original": "https://animefire.plus/img/animes/dears-kin-no-tama-desu-no.webp",
      "imagem_pasta": "https://animefire.plus/img/animes/dears-kin-no-tama-desu-no/",
      "secao": "legendados",
      "pagina": 43,
      "total_episodios": 1,
      "link_video": "https://animefire.plus/video/dears-kin-no-tama-desu-no"
    },
    {
      "id": 800,
      "nome": "Detonator Orgun",
      "link": "https://animefire.plus/animes/detonator-orgun-todos-os-episodios",
      "texto_original": "Detonator Orgun",
      "rating": 6.5,
      "classificacao_etaria": "A18",
      "imagem_original": "https://animefire.plus/img/animes/detonator-orgun.webp",
      "imagem_pasta": "https://animefire.plus/img/animes/detonator-orgun/",
      "secao": "legendados",
      "pagina": 77,
      "total_episodios": 3,
      "link_video": "https://animefire.plus/video/detonator-orgun"
    },
    {
      "id": 804,
      "nome": "Devilman Lady",
      "link": "https://animefire.plus/animes/devilman-lady-todos-os-episodios",
      "texto_original": "Devilman Lady",
      "rating": 6.76,
      "classificacao_etaria": "A18",
      "imagem_original": "https://animefire.plus/img/animes/devilman-lady.webp",
      "imagem_pasta": "https://animefire.plus/img/animes/devilman-lady/",
      "secao": "legendados",
      "pagina": 98,
      "total_episodios": 26,
      "link_video": "https://animefire.plus/video/devilman-lady"
    },
    {
      "id": 805,
      "nome": "Devilman: Crybaby (Dublado)",
      "link": "https://animefire.plus/animes/devilman-crybaby-dublado-todos-os-episodios",
      "texto_original": "Devilman: Crybaby (Dublado)",
      "rating": 7.9,
      "classificacao_etaria": "A18",
      "imagem_original": "https://animefire.plus/img/animes/devilman-crybaby.webp",
      "imagem_pasta": "https://animefire.plus/img/animes/devilman-crybaby/",
      "secao": "dublados,legendados",
      "pagina": 21,
      "total_episodios": 10,
      "link_video": "https://animefire.plus/video/devilman-crybaby-dublado"
    },
    {
      "id": 830,
      "nome": "Dirty Pair",
      "link": "https://animefire.plus/animes/dirty-pair-todos-os-episodios",
      "texto_original": "Dirty Pair",
      "rating": 7.18,
      "classificacao_etaria": "A18",
      "imagem_original": "https://animefire.plus/img/animes/dirty-pair.webp",
      "imagem_pasta": "https://animefire.plus/img/animes/dirty-pair/",
      "secao": "legendados",
      "pagina": 77,
      "total_episodios": 26,
      "link_video": "https://animefire.plus/video/dirty-pair"
    },
    {
      "id": 832,
      "nome": "Divergence Eve",
      "link": "https://animefire.plus/animes/divergence-eve-todos-os-episodios",
      "texto_original": "Divergence Eve",
      "rating": 6,
      "classificacao_etaria": "A18",
      "imagem_original": "https://animefire.plus/img/animes/divergence-eve.webp",
      "imagem_pasta": "https://animefire.plus/img/animes/divergence-eve/",
      "secao": "legendados",
      "pagina": 103,
      "total_episodios": 0,
      "link_video": "https://animefire.plus/video/divergence-eve"
    },
    {
      "id": 840,
      "nome": "Dogeza de Tanondemita",
      "link": "https://animefire.plus/animes/dogeza-de-tanondemita-todos-os-episodios",
      "texto_original": "Dogeza de Tanondemita",
      "rating": null,
      "classificacao_etaria": "A18",
      "imagem_original": "https://animefire.plus/img/animes/dogeza-de-tanondemita.webp",
      "imagem_pasta": "https://animefire.plus/img/animes/dogeza-de-tanondemita/",
      "secao": "legendados",
      "pagina": 51,
      "total_episodios": 12,
      "link_video": "https://animefire.plus/video/dogeza-de-tanondemita"
    },
    {
      "id": 842,
      "nome": "Dokyuu Hentai HxEros",
      "link": "https://animefire.plus/animes/dokyuu-hentai-hxeros-todos-os-episodios",
      "texto_original": "Dokyuu Hentai HxEros",
      "rating": 5.74,
      "classificacao_etaria": "A18",
      "imagem_original": "https://animefire.plus/img/animes/dokyuu-hentai-hxeros.webp",
      "imagem_pasta": "https://animefire.plus/img/animes/dokyuu-hentai-hxeros/",
      "secao": "legendados",
      "pagina": 58,
      "total_episodios": 12,
      "link_video": "https://animefire.plus/video/dokyuu-hentai-hxeros"
    }
  ],
  "pagination": {
    "current_page": 4,
    "per_page": 20,
    "total_items": 374,
    "total_pages": 19,
    "has_next": true,
    "has_prev": true
  }
}
