{
  "message": "Animes com classificação etária: A18",
  "age_rating": "A18",
  "data": [
    {
      "id": 3516,
      "nome": "Shuffle!",
      "link": "https://animefire.plus/animes/shuffle-todos-os-episodios",
      "texto_original": "Shuffle!",
      "rating": 7.19,
      "classificacao_etaria": "A18",
      "imagem_original": "https://animefire.plus/img/animes/shuffle.webp",
      "imagem_pasta": "https://animefire.plus/img/animes/shuffle/",
      "secao": "legendados",
      "pagina": 115,
      "total_episodios": 24,
      "link_video": "https://animefire.plus/video/shuffle"
    },
    {
      "id": 3520,
      "nome": "Shukufuku No Campanella",
      "link": "https://animefire.plus/animes/shukufuku-no-campanella-todos-os-episodios",
      "texto_original": "Shukufuku No Campanella",
      "rating": 6.36,
      "classificacao_etaria": "A18",
      "imagem_original": "https://animefire.plus/img/animes/shukufuku-no-campanella.webp",
      "imagem_pasta": "https://animefire.plus/img/animes/shukufuku-no-campanella/",
      "secao": "legendados",
      "pagina": 108,
      "total_episodios": 12,
      "link_video": "https://animefire.plus/video/shukufuku-no-campanella"
    },
    {
      "id": 3522,
      "nome": "Shuumatsu no Harem",
      "link": "https://animefire.plus/animes/shuumatsu-no-harem-todos-os-episodios",
      "texto_original": "Shuumatsu no Harem",
      "rating": 5.9,
      "classificacao_etaria": "A18",
      "imagem_original": "https://animefire.plus/img/animes/shuumatsu-no-harem.webp",
      "imagem_pasta": "https://animefire.plus/img/animes/shuumatsu-no-harem/",
      "secao": "legendados",
      "pagina": 39,
      "total_episodios": 11,
      "link_video": "https://animefire.plus/video/shuumatsu-no-harem"
    },
    {
      "id": 3531,
      "nome": "Sidonia no Kishi (Dublado)",
      "link": "https://animefire.plus/animes/sidonia-no-kishi-dublado-todos-os-episodios",
      "texto_original": "Sidonia no Kishi (Dublado)",
      "rating": 7.65,
      "classificacao_etaria": "A18",
      "imagem_original": "https://animefire.plus/img/animes/sidonia-no-kishi.webp",
      "imagem_pasta": "https://animefire.plus/img/animes/sidonia-no-kishi/",
      "secao": "dublados,legendados",
      "pagina": 8,
      "total_episodios": 12,
      "link_video": "https://animefire.plus/video/sidonia-no-kishi-dublado"
    },
    {
      "id": 3536,
      "nome": "Sin: Nanatsu no Taizai",
      "link": "https://animefire.plus/animes/sin-nanatsu-no-taizai-todos-os-episodios",
      "texto_original": "Sin: Nanatsu no Taizai",
      "rating": 5.75,
      "classificacao_etaria": "A18",
      "imagem_original": "https://animefire.plus/img/animes/sin-nanatsu-no-taizai.webp",
      "imagem_pasta": "https://animefire.plus/img/animes/sin-nanatsu-no-taizai/",
      "secao": "legendados",
      "pagina": 103,
      "total_episodios": 12,
      "link_video": "https://animefire.plus/video/sin-nanatsu-no-taizai"
    },
    {
      "id": 3562,
      "nome": "Softenni",
      "link": "https://animefire.plus/animes/softenni-todos-os-episodios",
      "texto_original": "Softenni",
      "rating": 6.57,
      "classificacao_etaria": "A18",
      "imagem_original": "https://animefire.plus/img/animes/softenni.webp",
      "imagem_pasta": "https://animefire.plus/img/animes/softenni/",
      "secao": "legendados",
      "pagina": 179,
      "total_episodios": 12,
      "link_video": "https://animefire.plus/video/softenni"
    },
    {
      "id": 3588,
      "nome": "Soukou no Strain",
      "link": "https://animefire.plus/animes/soukou-no-strain-todos-os-episodios",
      "texto_original": "Soukou no Strain",
      "rating": 7.1,
      "classificacao_etaria": "A18",
      "imagem_original": "https://animefire.plus/img/animes/soukou-no-strain.webp",
      "imagem_pasta": "https://animefire.plus/img/animes/soukou-no-strain/",
      "secao": "legendados",
      "pagina": 123,
      "total_episodios": 13,
      "link_video": "https://animefire.plus/video/soukou-no-strain"
    },
    {
      "id": 3596,
      "nome": "Souryo to Majiwaru Shikiyoku no Yoru ni...",
      "link": "https://animefire.plus/animes/souryo-to-majiwaru-shikiyoku-no-yoru-ni-todos-os-episodios",
      "texto_original": "Souryo to Majiwaru Shikiyoku no Yoru ni...",
      "rating": 4.64,
      "classificacao_etaria": "A18",
      "imagem_original": "https://animefire.plus/img/animes/souryo-to-majiwaru-shikiyoku-no-yoru-ni.webp",
      "imagem_pasta": "https://animefire.plus/img/animes/souryo-to-majiwaru-shikiyoku-no-yoru-ni/",
      "secao": "legendados",
      "pagina": 141,
      "total_episodios": 9,
      "link_video": "https://animefire.plus/video/souryo-to-majiwaru-shikiyoku-no-yoru-ni"
    },
    {
      "id": 3603,
      "nome": "Souten Kouro",
      "link": "https://animefire.plus/animes/souten-kouro-todos-os-episodios",
      "texto_original": "Souten Kouro",
      "rating": 7.31,
      "classificacao_etaria": "A18",
      "imagem_original": "https://animefire.plus/img/animes/souten-kouro.webp",
      "imagem_pasta": "https://animefire.plus/img/animes/souten-kouro/",
      "secao": "legendados",
      "pagina": 86,
      "total_episodios": 26,
      "link_video": "https://animefire.plus/video/souten-kouro"
    },
    {
      "id": 3610,
      "nome": "Speed Grapher",
      "link": "https://animefire.plus/animes/speed-grapher-todos-os-episodios",
      "texto_original": "Speed Grapher",
      "rating": 7.41,
      "classificacao_etaria": "A18",
      "imagem_original": "https://animefire.plus/img/animes/speed-grapher.webp",
      "imagem_pasta": "https://animefire.plus/img/animes/speed-grapher/",
      "secao": "legendados",
      "pagina": 165,
      "total_episodios": 24,
      "link_video": "https://animefire.plus/video/speed-grapher"
    },
    {
      "id": 3645,
      "nome": "Strike the Blood",
      "link": "https://animefire.plus/animes/strike-the-blood-todos-os-episodios",
      "texto_original": "Strike the Blood",
      "rating": 7.3,
      "classificacao_etaria": "A18",
      "imagem_original": "https://animefire.plus/img/animes/strike-the-blood.webp",
      "imagem_pasta": "https://animefire.plus/img/animes/strike-the-blood/",
      "secao": "legendados",
      "pagina": 126,
      "total_episodios": 4,
      "link_video": "https://animefire.plus/video/strike-the-blood"
    },
    {
      "id": 3646,
      "nome": "Strike the Blood Final",
      "link": "https://animefire.plus/animes/strike-the-blood-final-todos-os-episodios",
      "texto_original": "Strike the Blood Final",
      "rating": 6.89,
      "classificacao_etaria": "A18",
      "imagem_original": "https://animefire.plus/img/animes/strike-the-blood-final.webp",
      "imagem_pasta": "https://animefire.plus/img/animes/strike-the-blood-final/",
      "secao": "legendados,lancamentos",
      "pagina": 35,
      "total_episodios": 0,
      "link_video": "https://animefire.plus/video/strike-the-blood-final"
    },
    {
      "id": 3647,
      "nome": "Strike The Blood II",
      "link": "https://animefire.plus/animes/strike-the-blood-ii-todos-os-episodios",
      "texto_original": "Strike The Blood II",
      "rating": 7.25,
      "classificacao_etaria": "A18",
      "imagem_original": "https://animefire.plus/img/animes/strike-the-blood-ii.webp",
      "imagem_pasta": "https://animefire.plus/img/animes/strike-the-blood-ii/",
      "secao": "legendados",
      "pagina": 106,
      "total_episodios": 8,
      "link_video": "https://animefire.plus/video/strike-the-blood-ii"
    },
    {
      "id": 3648,
      "nome": "Strike the Blood III",
      "link": "https://animefire.plus/animes/strike-the-blood-iii-todos-os-episodios",
      "texto_original": "Strike the Blood III",
      "rating": 7.45,
      "classificacao_etaria": "A18",
      "imagem_original": "https://animefire.plus/img/animes/strike-the-blood-iii.webp",
      "imagem_pasta": "https://animefire.plus/img/animes/strike-the-blood-iii/",
      "secao": "legendados",
      "pagina": 175,
      "total_episodios": 0,
      "link_video": "https://animefire.plus/video/strike-the-blood-iii"
    },
    {
      "id": 3649,
      "nome": "Strike the Blood IV",
      "link": "https://animefire.plus/animes/strike-the-blood-iv-todos-os-episodios",
      "texto_original": "Strike the Blood IV",
      "rating": 7.06,
      "classificacao_etaria": "A18",
      "imagem_original": "https://animefire.plus/img/animes/strike-the-blood-iv.webp",
      "imagem_pasta": "https://animefire.plus/img/animes/strike-the-blood-iv/",
      "secao": "legendados",
      "pagina": 80,
      "total_episodios": 12,
      "link_video": "https://animefire.plus/video/strike-the-blood-iv"
    },
    {
      "id": 3650,
      "nome": "Strike the Blood: Kieta Seisou-hen",
      "link": "https://animefire.plus/animes/strike-the-blood-kieta-seisou-hen-todos-os-episodios",
      "texto_original": "Strike the Blood: Kieta Seisou-hen",
      "rating": 6.89,
      "classificacao_etaria": "A18",
      "imagem_original": "https://animefire.plus/img/animes/strike-the-blood-kieta-seisou-hen.webp",
      "imagem_pasta": "https://animefire.plus/img/animes/strike-the-blood-kieta-seisou-hen/",
      "secao": "legendados",
      "pagina": 91,
      "total_episodios": 1,
      "link_video": "https://animefire.plus/video/strike-the-blood-kieta-seisou-hen"
    },
    {
      "id": 3651,
      "nome": "Strike the Blood: Valkyria no Oukoku-hen",
      "link": "https://animefire.plus/animes/strike-the-blood-valkyria-no-oukoku-hen-todos-os-episodios",
      "texto_original": "Strike the Blood: Valkyria no Oukoku-hen",
      "rating": 7.32,
      "classificacao_etaria": "A18",
      "imagem_original": "https://animefire.plus/img/animes/strike-the-blood-valkyria-no-oukoku-hen.webp",
      "imagem_pasta": "https://animefire.plus/img/animes/strike-the-blood-valkyria-no-oukoku-hen/",
      "secao": "legendados",
      "pagina": 56,
      "total_episodios": 2,
      "link_video": "https://animefire.plus/video/strike-the-blood-valkyria-no-oukoku-hen"
    },
    {
      "id": 3652,
      "nome": "Strike Witches",
      "link": "https://animefire.plus/animes/strike-witches-todos-os-episodios",
      "texto_original": "Strike Witches",
      "rating": 7.08,
      "classificacao_etaria": "A18",
      "imagem_original": "https://animefire.plus/img/animes/strike-witches.webp",
      "imagem_pasta": "https://animefire.plus/img/animes/strike-witches/",
      "secao": "legendados",
      "pagina": 134,
      "total_episodios": 12,
      "link_video": "https://animefire.plus/video/strike-witches"
    },
    {
      "id": 3653,
      "nome": "Strike Witches 2",
      "link": "https://animefire.plus/animes/strike-witches-2-todos-os-episodios",
      "texto_original": "Strike Witches 2",
      "rating": 7.38,
      "classificacao_etaria": "A18",
      "imagem_original": "https://animefire.plus/img/animes/strike-witches-2.webp",
      "imagem_pasta": "https://animefire.plus/img/animes/strike-witches-2/",
      "secao": "legendados",
      "pagina": 131,
      "total_episodios": 12,
      "link_video": "https://animefire.plus/video/strike-witches-2"
    },
    {
      "id": 3656,
      "nome": "Strike Witches: Operation Victory Arrow",
      "link": "https://animefire.plus/animes/strike-witches-operation-victory-arrow-todos-os-episodios",
      "texto_original": "Strike Witches: Operation Victory Arrow",
      "rating": 7.36,
      "classificacao_etaria": "A18",
      "imagem_original": "https://animefire.plus/img/animes/strike-witches-operation-victory-arrow.webp",
      "imagem_pasta": "https://animefire.plus/img/animes/strike-witches-operation-victory-arrow/",
      "secao": "legendados",
      "pagina": 44,
      "total_episodios": 3,
      "link_video": "https://animefire.plus/video/strike-witches-operation-victory-arrow"
    }
  ],
  "pagination": {
    "current_page": 17,
    "per_page": 20,
    "total_items": 374,
    "total_pages": 19,
    "has_next": true,
    "has_prev": true
  }
}
