{
  "message": "Animes com classificação etária: A18",
  "age_rating": "A18",
  "data": [
    {
      "id": 14,
      "nome": "1+2=Paradise",
      "link": "https://animefire.plus/animes/1-2-paradise-todos-os-episodios",
      "texto_original": "1+2=Paradise",
      "rating": 5.06,
      "classificacao_etaria": "A18",
      "imagem_original": "https://animefire.plus/img/animes/1-2-paradise.webp",
      "imagem_pasta": "https://animefire.plus/img/animes/1-2-paradise/",
      "secao": "legendados",
      "pagina": 109,
      "total_episodios": 0,
      "link_video": "https://animefire.plus/video/1-2-paradise"
    },
    {
      "id": 27,
      "nome": "25-sai no Joshikousei",
      "link": "https://animefire.plus/animes/25-sai-no-joshikousei-todos-os-episodios",
      "texto_original": "25-sai no Joshikousei",
      "rating": 5.55,
      "classificacao_etaria": "A18",
      "imagem_original": "https://animefire.plus/img/animes/25-sai-no-joshikousei.webp",
      "imagem_pasta": "https://animefire.plus/img/animes/25-sai-no-joshikousei/",
      "secao": "legendados",
      "pagina": 61,
      "total_episodios": 12,
      "link_video": "https://animefire.plus/video/25-sai-no-joshikousei"
    },
    {
      "id": 39,
      "nome": "7 Seeds (Dublado)",
      "link": "https://animefire.plus/animes/7-seeds-dublado-todos-os-episodios",
      "texto_original": "7 Seeds (Dublado)",
      "rating": 6.52,
      "classificacao_etaria": "A18",
      "imagem_original": "https://animefire.plus/img/animes/7-seeds.webp",
      "imagem_pasta": "https://animefire.plus/img/animes/7-seeds/",
      "secao": "dublados,legendados",
      "pagina": 23,
      "total_episodios": 12,
      "link_video": "https://animefire.plus/video/7-seeds-dublado"
    },
    {
      "id": 40,
      "nome": "7 Seeds 2nd Season (Dublado)",
      "link": "https://animefire.plus/animes/7-seeds-2nd-season-dublado-todos-os-episodios",
      "texto_original": "7 Seeds 2nd Season (Dublado)",
      "rating": 7.17,
      "classificacao_etaria": "A18",
      "imagem_original": "https://animefire.plus/img/animes/7-seeds-2nd-season.webp",
      "imagem_pasta": "https://animefire.plus/img/animes/7-seeds-2nd-season/",
      "secao": "dublados,legendados",
      "pagina": 23,
      "total_episodios": 12,
      "link_video": "https://animefire.plus/video/7-seeds-2nd-season-dublado"
    },
    {
      "id": 55,
      "nome": "Abenobashi Mahou☆Shoutengai",
      "link": "https://animefire.plus/animes/abenobashi-mahou-shoutengai-todos-os-episodios",
      "texto_original": "Abenobashi Mahou☆Shoutengai",
      "rating": 7.32,
      "classificacao_etaria": "A18",
      "imagem_original": "https://animefire.plus/img/animes/abenobashi-mahou-shoutengai.webp",
      "imagem_pasta": "https://animefire.plus/img/animes/abenobashi-mahou-shoutengai/",
      "secao": "legendados",
      "pagina": 159,
      "total_episodios": 13,
      "link_video": "https://animefire.plus/video/abenobashi-mahou-shoutengai"
    },
    {
      "id": 69,
      "nome": "Afro Samurai (Dublado)",
      "link": "https://animefire.plus/animes/afro-samurai-dublado-todos-os-episodios",
      "texto_original": "Afro Samurai (Dublado)",
      "rating": 7.37,
      "classificacao_etaria": "A18",
      "imagem_original": "https://animefire.plus/img/animes/afro-samurai.webp",
      "imagem_pasta": "https://animefire.plus/img/animes/afro-samurai/",
      "secao": "dublados,legendados",
      "pagina": 23,
      "total_episodios": 5,
      "link_video": "https://animefire.plus/video/afro-samurai-dublado"
    },
    {
      "id": 83,
      "nome": "Ai No Kusabi (2012)",
      "link": "https://animefire.plus/animes/ai-no-kusabi-2012-todos-os-episodios",
      "texto_original": "Ai No Kusabi (2012)",
      "rating": 6.72,
      "classificacao_etaria": "A18",
      "imagem_original": "https://animefire.plus/img/animes/ai-no-kusabi-2012.webp",
      "imagem_pasta": "https://animefire.plus/img/animes/ai-no-kusabi-2012/",
      "secao": "legendados",
      "pagina": 60,
      "total_episodios": 4,
      "link_video": "https://animefire.plus/video/ai-no-kusabi-2012"
    },
    {
      "id": 89,
      "nome": "AIKa",
      "link": "https://animefire.plus/animes/aika-todos-os-episodios",
      "texto_original": "AIKa",
      "rating": 5.99,
      "classificacao_etaria": "A18",
      "imagem_original": "https://animefire.plus/img/animes/aika.webp",
      "imagem_pasta": "https://animefire.plus/img/animes/aika/",
      "secao": "legendados",
      "pagina": 117,
      "total_episodios": 7,
      "link_video": "https://animefire.plus/video/aika"
    },
    {
      "id": 90,
      "nome": "AIKa R-16: Virgin Mission",
      "link": "https://animefire.plus/animes/aika-r-16-virgin-mission-todos-os-episodios",
      "texto_original": "AIKa R-16: Virgin Mission",
      "rating": 6,
      "classificacao_etaria": "A18",
      "imagem_original": "https://animefire.plus/img/animes/aika-r-16-virgin-mission.webp",
      "imagem_pasta": "https://animefire.plus/img/animes/aika-r-16-virgin-mission/",
      "secao": "legendados",
      "pagina": 60,
      "total_episodios": 3,
      "link_video": "https://animefire.plus/video/aika-r-16-virgin-mission"
    },
    {
      "id": 91,
      "nome": "Aika Zero",
      "link": "https://animefire.plus/animes/aika-zero-todos-os-episodios",
      "texto_original": "Aika Zero",
      "rating": 5.99,
      "classificacao_etaria": "A18",
      "imagem_original": "https://animefire.plus/img/animes/aika-zero.webp",
      "imagem_pasta": "https://animefire.plus/img/animes/aika-zero/",
      "secao": "legendados",
      "pagina": 111,
      "total_episodios": 2,
      "link_video": "https://animefire.plus/video/aika-zero"
    },
    {
      "id": 92,
      "nome": "AIKa Zero Picture Drama",
      "link": "https://animefire.plus/animes/aika-zero-picture-drama-todos-os-episodios",
      "texto_original": "AIKa Zero Picture Drama",
      "rating": 5.57,
      "classificacao_etaria": "A18",
      "imagem_original": "https://animefire.plus/img/animes/aika-zero-picture-drama.webp",
      "imagem_pasta": "https://animefire.plus/img/animes/aika-zero-picture-drama/",
      "secao": "legendados",
      "pagina": 44,
      "total_episodios": 3,
      "link_video": "https://animefire.plus/video/aika-zero-picture-drama"
    },
    {
      "id": 98,
      "nome": "Air Gear",
      "link": "https://animefire.plus/animes/air-gear-todos-os-episodios",
      "texto_original": "Air Gear",
      "rating": 7.62,
      "classificacao_etaria": "A18",
      "imagem_original": "https://animefire.plus/img/animes/air-gear.webp",
      "imagem_pasta": "https://animefire.plus/img/animes/air-gear/",
      "secao": "legendados",
      "pagina": 113,
      "total_episodios": 25,
      "link_video": "https://animefire.plus/video/air-gear"
    },
    {
      "id": 99,
      "nome": "Air Gear: Kuro no Hane to Nemuri no Mori - Break on the Sky",
      "link": "https://animefire.plus/animes/air-gear-kuro-no-hane-to-nemuri-no-mori---break-on-the-sky-todos-os-episodios",
      "texto_original": "Air Gear: Kuro no Hane to Nemuri no Mori - Break on the Sky",
      "rating": 7.69,
      "classificacao_etaria": "A18",
      "imagem_original": "https://animefire.plus/img/animes/air-gear-kuro-no-hane-to-nemuri-no-mori---break-on-the-sky.webp",
      "imagem_pasta": "https://animefire.plus/img/animes/air-gear-kuro-no-hane-to-nemuri-no-mori---break-on-the-sky/",
      "secao": "legendados",
      "pagina": 92,
      "total_episodios": 3,
      "link_video": "https://animefire.plus/video/air-gear-kuro-no-hane-to-nemuri-no-mori---break-on-the-sky"
    },
    {
      "id": 112,
      "nome": "Akai Hayate",
      "link": "https://animefire.plus/animes/akai-hayate-todos-os-episodios",
      "texto_original": "Akai Hayate",
      "rating": 5.48,
      "classificacao_etaria": "A18",
      "imagem_original": "https://animefire.plus/img/animes/akai-hayate.webp",
      "imagem_pasta": "https://animefire.plus/img/animes/akai-hayate/",
      "secao": "legendados",
      "pagina": 76,
      "total_episodios": 4,
      "link_video": "https://animefire.plus/video/akai-hayate"
    },
    {
      "id": 116,
      "nome": "Akaneiro ni Somaru Saka",
      "link": "https://animefire.plus/animes/akaneiro-ni-somaru-saka-todos-os-episodios",
      "texto_original": "Akaneiro ni Somaru Saka",
      "rating": 6.57,
      "classificacao_etaria": "A18",
      "imagem_original": "https://animefire.plus/img/animes/akaneiro-ni-somaru-saka.webp",
      "imagem_pasta": "https://animefire.plus/img/animes/akaneiro-ni-somaru-saka/",
      "secao": "legendados",
      "pagina": 123,
      "total_episodios": 0,
      "link_video": "https://animefire.plus/video/akaneiro-ni-somaru-saka"
    },
    {
      "id": 123,
      "nome": "Aki-Sora",
      "link": "https://animefire.plus/animes/aki-sora-todos-os-episodios",
      "texto_original": "Aki-Sora",
      "rating": 6.2,
      "classificacao_etaria": "A18",
      "imagem_original": "https://animefire.plus/img/animes/aki-sora.webp",
      "imagem_pasta": "https://animefire.plus/img/animes/aki-sora/",
      "secao": "legendados",
      "pagina": 128,
      "total_episodios": 3,
      "link_video": "https://animefire.plus/video/aki-sora"
    },
    {
      "id": 138,
      "nome": "Alexander Senki",
      "link": "https://animefire.plus/animes/alexander-senki-todos-os-episodios",
      "texto_original": "Alexander Senki",
      "rating": 5.79,
      "classificacao_etaria": "A18",
      "imagem_original": "https://animefire.plus/img/animes/alexander-senki.webp",
      "imagem_pasta": "https://animefire.plus/img/animes/alexander-senki/",
      "secao": "legendados",
      "pagina": 119,
      "total_episodios": 13,
      "link_video": "https://animefire.plus/video/alexander-senki"
    },
    {
      "id": 148,
      "nome": "Amaenaide yo!!",
      "link": "https://animefire.plus/animes/amaenaide-yo-todos-os-episodios",
      "texto_original": "Amaenaide yo!!",
      "rating": 6.58,
      "classificacao_etaria": "A18",
      "imagem_original": "https://animefire.plus/img/animes/amaenaide-yo.webp",
      "imagem_pasta": "https://animefire.plus/img/animes/amaenaide-yo/",
      "secao": "legendados",
      "pagina": 166,
      "total_episodios": 13,
      "link_video": "https://animefire.plus/video/amaenaide-yo"
    },
    {
      "id": 149,
      "nome": "Amaenaide yo!! Katsu!!",
      "link": "https://animefire.plus/animes/amaenaide-yo-katsu-todos-os-episodios",
      "texto_original": "Amaenaide yo!! Katsu!!",
      "rating": 6.8,
      "classificacao_etaria": "A18",
      "imagem_original": "https://animefire.plus/img/animes/amaenaide-yo-katsu.webp",
      "imagem_pasta": "https://animefire.plus/img/animes/amaenaide-yo-katsu/",
      "secao": "legendados",
      "pagina": 145,
      "total_episodios": 13,
      "link_video": "https://animefire.plus/video/amaenaide-yo-katsu"
    },
    {
      "id": 168,
      "nome": "Ange Vierge",
      "link": "https://animefire.plus/animes/ange-vierge-todos-os-episodios",
      "texto_original": "Ange Vierge",
      "rating": 6.09,
      "classificacao_etaria": "A18",
      "imagem_original": "https://animefire.plus/img/animes/ange-vierge.webp",
      "imagem_pasta": "https://animefire.plus/img/animes/ange-vierge/",
      "secao": "legendados",
      "pagina": 90,
      "total_episodios": 12,
      "link_video": "https://animefire.plus/video/ange-vierge"
    }
  ],
  "pagination": {
    "current_page": 1,
    "per_page": 20,
    "total_items": 374,
    "total_pages": 19,
    "has_next": true,
    "has_prev": false
  }
}
