{
  "message": "Lista de animes",
  "data": [
    {
      "id": 2581,
      "nome": "Monster Hunter Stories: Ride On",
      "link": "https://animefire.plus/animes/monster-hunter-stories-ride-on-todos-os-episodios",
      "texto_original": "Monster Hunter Stories: Ride On",
      "rating": 6.31,
      "classificacao_etaria": "A14",
      "imagem_original": "https://animefire.plus/img/animes/monster-hunter-stories-ride-on.webp",
      "imagem_pasta": "https://animefire.plus/img/animes/monster-hunter-stories-ride-on/",
      "secao": "legendados",
      "pagina": 127,
      "total_episodios": 4,
      "link_video": "https://animefire.plus/video/monster-hunter-stories-ride-on"
    },
    {
      "id": 2582,
      "nome": "Monster Musume no Iru Nichijou",
      "link": "https://animefire.plus/animes/monster-musume-no-iru-nichijou-todos-os-episodios",
      "texto_original": "Monster Musume no Iru Nichijou",
      "rating": 7.25,
      "classificacao_etaria": "A18",
      "imagem_original": "https://animefire.plus/img/animes/monster-musume-no-iru-nichijou.webp",
      "imagem_pasta": "https://animefire.plus/img/animes/monster-musume-no-iru-nichijou/",
      "secao": "legendados",
      "pagina": 176,
      "total_episodios": 3,
      "link_video": "https://animefire.plus/video/monster-musume-no-iru-nichijou"
    },
    {
      "id": 2583,
      "nome": "Monster Musume no Iru Nichijou OVA",
      "link": "https://animefire.plus/animes/monster-musume-no-iru-nichijou-ova-todos-os-episodios",
      "texto_original": "Monster Musume no Iru Nichijou OVA",
      "rating": 7.26,
      "classificacao_etaria": "A18",
      "imagem_original": "https://animefire.plus/img/animes/monster-musume-no-iru-nichijou-ova.webp",
      "imagem_pasta": "https://animefire.plus/img/animes/monster-musume-no-iru-nichijou-ova/",
      "secao": "legendados",
      "pagina": 88,
      "total_episodios": 2,
      "link_video": "https://animefire.plus/video/monster-musume-no-iru-nichijou-ova"
    },
    {
      "id": 2584,
      "nome": "Monster Musume no Iru Nichijou: Hobo Mainichi ◯◯! Namappoi Douga",
      "link": "https://animefire.plus/animes/monster-musume-no-iru-nichijou-hobo-mainichi-namappoi-douga-todos-os-episodios",
      "texto_original": "Monster Musume no Iru Nichijou: Hobo Mainichi ◯◯! Namappoi Douga",
      "rating": 6.56,
      "classificacao_etaria": "A14",
      "imagem_original": "https://animefire.plus/img/animes/monster-musume-no-iru-nichijou-hobo-mainichi-namappoi-douga.webp",
      "imagem_pasta": "https://animefire.plus/img/animes/monster-musume-no-iru-nichijou-hobo-mainichi-namappoi-douga/",
      "secao": "legendados",
      "pagina": 78,
      "total_episodios": 1,
      "link_video": "https://animefire.plus/video/monster-musume-no-iru-nichijou-hobo-mainichi-namappoi-douga"
    },
    {
      "id": 2585,
      "nome": "Monster Musume no Oishasan",
      "link": "https://animefire.plus/animes/monster-musume-no-oishasan-todos-os-episodios",
      "texto_original": "Monster Musume no Oishasan",
      "rating": null,
      "classificacao_etaria": "A14",
      "imagem_original": "https://animefire.plus/img/animes/monster-musume-no-oishasan.webp",
      "imagem_pasta": "https://animefire.plus/img/animes/monster-musume-no-oishasan/",
      "secao": "legendados",
      "pagina": 58,
      "total_episodios": 12,
      "link_video": "https://animefire.plus/video/monster-musume-no-oishasan"
    },
    {
      "id": 2586,
      "nome": "Monster Strike",
      "link": "https://animefire.plus/animes/monster-strike-todos-os-episodios",
      "texto_original": "Monster Strike",
      "rating": 6.52,
      "classificacao_etaria": "A14",
      "imagem_original": "https://animefire.plus/img/animes/monster-strike.webp",
      "imagem_pasta": "https://animefire.plus/img/animes/monster-strike/",
      "secao": "legendados",
      "pagina": 64,
      "total_episodios": 51,
      "link_video": "https://animefire.plus/video/monster-strike"
    },
    {
      "id": 2587,
      "nome": "Monster Strike: Mermaid Rhapsody",
      "link": "https://animefire.plus/animes/monster-strike-mermaid-rhapsody-todos-os-episodios",
      "texto_original": "Monster Strike: Mermaid Rhapsody",
      "rating": 6.73,
      "classificacao_etaria": "A14",
      "imagem_original": "https://animefire.plus/img/animes/monster-strike-mermaid-rhapsody.webp",
      "imagem_pasta": "https://animefire.plus/img/animes/monster-strike-mermaid-rhapsody/",
      "secao": "legendados",
      "pagina": 44,
      "total_episodios": 1,
      "link_video": "https://animefire.plus/video/monster-strike-mermaid-rhapsody"
    },
    {
      "id": 2588,
      "nome": "Monsters: Ippyaku Sanjou Hiryuu Jigoku (Dublado)",
      "link": "https://animefire.plus/animes/monsters-ippyaku-sanjou-hiryuu-jigoku-dublado-todos-os-episodios",
      "texto_original": "Monsters: Ippyaku Sanjou Hiryuu Jigoku (Dublado)",
      "rating": 7.7,
      "classificacao_etaria": "A14",
      "imagem_original": "https://animefire.plus/img/animes/monsters-ippyaku-sanjou-hiryuu-jigoku.webp",
      "imagem_pasta": "https://animefire.plus/img/animes/monsters-ippyaku-sanjou-hiryuu-jigoku/",
      "secao": "dublados,legendados",
      "pagina": 3,
      "total_episodios": 1,
      "link_video": "https://animefire.plus/video/monsters-ippyaku-sanjou-hiryuu-jigoku-dublado"
    },
    {
      "id": 2589,
      "nome": "Moonrakers",
      "link": "https://animefire.plus/animes/moonrakers-todos-os-episodios",
      "texto_original": "Moonrakers",
      "rating": 5.63,
      "classificacao_etaria": "A16",
      "imagem_original": "https://animefire.plus/img/animes/moonrakers.webp",
      "imagem_pasta": "https://animefire.plus/img/animes/moonrakers/",
      "secao": "legendados",
      "pagina": 78,
      "total_episodios": 0,
      "link_video": "https://animefire.plus/video/moonrakers"
    },
    {
      "id": 2590,
      "nome": "Moonrise",
      "link": "https://animefire.plus/animes/moonrise-todos-os-episodios",
      "texto_original": "Moonrise",
      "rating": null,
      "classificacao_etaria": "A16",
      "imagem_original": "https://animefire.plus/img/animes/moonrise.webp",
      "imagem_pasta": "https://animefire.plus/img/animes/moonrise/",
      "secao": "legendados,lancamentos",
      "pagina": 4,
      "total_episodios": 3,
      "link_video": "https://animefire.plus/video/moonrise"
    },
    {
      "id": 2591,
      "nome": "Morita-san wa Mukuchi.",
      "link": "https://animefire.plus/animes/miss-morita-is-taciturn-tv-todos-os-episodios",
      "texto_original": "Morita-san wa Mukuchi.",
      "rating": 6.55,
      "classificacao_etaria": "A14",
      "imagem_original": "https://animefire.plus/img/animes/miss-morita-is-taciturn-tv.webp",
      "imagem_pasta": "https://animefire.plus/img/animes/miss-morita-is-taciturn-tv/",
      "secao": "legendados",
      "pagina": 53,
      "total_episodios": 13,
      "link_video": "https://animefire.plus/video/miss-morita-is-taciturn-tv"
    },
    {
      "id": 2592,
      "nome": "Morita-san wa Mukuchi. 2",
      "link": "https://animefire.plus/animes/morita-san-wa-mukuchi-2-todos-os-episodios",
      "texto_original": "Morita-san wa Mukuchi. 2",
      "rating": 6.72,
      "classificacao_etaria": "A14",
      "imagem_original": "https://animefire.plus/img/animes/morita-san-wa-mukuchi-2.webp",
      "imagem_pasta": "https://animefire.plus/img/animes/morita-san-wa-mukuchi-2/",
      "secao": "legendados",
      "pagina": 116,
      "total_episodios": 13,
      "link_video": "https://animefire.plus/video/morita-san-wa-mukuchi-2"
    },
    {
      "id": 2593,
      "nome": "Moshidora",
      "link": "https://animefire.plus/animes/moshidora-todos-os-episodios",
      "texto_original": "Moshidora",
      "rating": 6.95,
      "classificacao_etaria": "A14",
      "imagem_original": "https://animefire.plus/img/animes/moshidora.webp",
      "imagem_pasta": "https://animefire.plus/img/animes/moshidora/",
      "secao": "legendados",
      "pagina": 120,
      "total_episodios": 10,
      "link_video": "https://animefire.plus/video/moshidora"
    },
    {
      "id": 2594,
      "nome": "Motto To LOVE-Ru",
      "link": "https://animefire.plus/animes/motto-to-love-ru-todos-os-episodios",
      "texto_original": "Motto To LOVE-Ru",
      "rating": 7.47,
      "classificacao_etaria": "A18",
      "imagem_original": "https://animefire.plus/img/animes/motto-to-love-ru.webp",
      "imagem_pasta": "https://animefire.plus/img/animes/motto-to-love-ru/",
      "secao": "legendados",
      "pagina": 163,
      "total_episodios": 2,
      "link_video": "https://animefire.plus/video/motto-to-love-ru"
    },
    {
      "id": 2595,
      "nome": "Mou Hitotsu no Mirai wo.",
      "link": "https://animefire.plus/animes/mou-hitotsu-no-mirai-wo-todos-os-episodios",
      "texto_original": "Mou Hitotsu no Mirai wo.",
      "rating": 6.1,
      "classificacao_etaria": "A14",
      "imagem_original": "https://animefire.plus/img/animes/mou-hitotsu-no-mirai-wo.webp",
      "imagem_pasta": "https://animefire.plus/img/animes/mou-hitotsu-no-mirai-wo/",
      "secao": "legendados",
      "pagina": 169,
      "total_episodios": 3,
      "link_video": "https://animefire.plus/video/mou-hitotsu-no-mirai-wo"
    },
    {
      "id": 2596,
      "nome": "Mou Ippon!",
      "link": "https://animefire.plus/animes/mou-ippon-todos-os-episodios",
      "texto_original": "Mou Ippon!",
      "rating": 7.08,
      "classificacao_etaria": "A14",
      "imagem_original": "https://animefire.plus/img/animes/mou-ippon.webp",
      "imagem_pasta": "https://animefire.plus/img/animes/mou-ippon/",
      "secao": "legendados",
      "pagina": 25,
      "total_episodios": 13,
      "link_video": "https://animefire.plus/video/mou-ippon"
    },
    {
      "id": 2597,
      "nome": "Mouretsu Pirates",
      "link": "https://animefire.plus/animes/mouretsu-pirates-todos-os-episodios",
      "texto_original": "Mouretsu Pirates",
      "rating": 7.21,
      "classificacao_etaria": "A14",
      "imagem_original": "https://animefire.plus/img/animes/mouretsu-pirates.webp",
      "imagem_pasta": "https://animefire.plus/img/animes/mouretsu-pirates/",
      "secao": "legendados",
      "pagina": 141,
      "total_episodios": 0,
      "link_video": "https://animefire.plus/video/mouretsu-pirates"
    },
    {
      "id": 2598,
      "nome": "Mouryou no Hako",
      "link": "https://animefire.plus/animes/mouryou-no-hako-todos-os-episodios",
      "texto_original": "Mouryou no Hako",
      "rating": 7.25,
      "classificacao_etaria": "A16",
      "imagem_original": "https://animefire.plus/img/animes/mouryou-no-hako.webp",
      "imagem_pasta": "https://animefire.plus/img/animes/mouryou-no-hako/",
      "secao": "legendados",
      "pagina": 151,
      "total_episodios": 13,
      "link_video": "https://animefire.plus/video/mouryou-no-hako"
    },
    {
      "id": 2599,
      "nome": "Mouse",
      "link": "https://animefire.plus/animes/mouse-todos-os-episodios",
      "texto_original": "Mouse",
      "rating": 6.11,
      "classificacao_etaria": "A18",
      "imagem_original": "https://animefire.plus/img/animes/mouse.webp",
      "imagem_pasta": "https://animefire.plus/img/animes/mouse/",
      "secao": "legendados",
      "pagina": 119,
      "total_episodios": 12,
      "link_video": "https://animefire.plus/video/mouse"
    },
    {
      "id": 2600,
      "nome": "Mousou Dairinin",
      "link": "https://animefire.plus/animes/mousou-dairinin-todos-os-episodios",
      "texto_original": "Mousou Dairinin",
      "rating": 7.72,
      "classificacao_etaria": "A18",
      "imagem_original": "https://animefire.plus/img/animes/mousou-dairinin.webp",
      "imagem_pasta": "https://animefire.plus/img/animes/mousou-dairinin/",
      "secao": "legendados",
      "pagina": 111,
      "total_episodios": 13,
      "link_video": "https://animefire.plus/video/mousou-dairinin"
    }
  ],
  "pagination": {
    "current_page": 130,
    "per_page": 20,
    "total_items": 4368,
    "total_pages": 219,
    "has_next": true,
    "has_prev": true
  }
}
