{
  "message": "Lista de animes",
  "data": [
    {
      "id": 2361,
      "nome": "Mahoutsukai Sally (Movie)",
      "link": "https://animefire.plus/animes/mahoutsukai-sally-movie-todos-os-episodios",
      "texto_original": "Mahoutsukai Sally (Movie)",
      "rating": 5.95,
      "classificacao_etaria": null,
      "imagem_original": "https://animefire.plus/img/animes/mahoutsukai-sally-movie.webp",
      "imagem_pasta": "https://animefire.plus/img/animes/mahoutsukai-sally-movie/",
      "secao": "legendados",
      "pagina": 83,
      "total_episodios": 1,
      "link_video": "https://animefire.plus/video/mahoutsukai-sally-movie"
    },
    {
      "id": 2362,
      "nome": "Mahoutsukai Tai!",
      "link": "https://animefire.plus/animes/mahoutsukai-tai-todos-os-episodios",
      "texto_original": "Mahoutsukai Tai!",
      "rating": 6.86,
      "classificacao_etaria": "A14",
      "imagem_original": "https://animefire.plus/img/animes/mahoutsukai-tai.webp",
      "imagem_pasta": "https://animefire.plus/img/animes/mahoutsukai-tai/",
      "secao": "legendados",
      "pagina": 148,
      "total_episodios": 0,
      "link_video": "https://animefire.plus/video/mahoutsukai-tai"
    },
    {
      "id": 2363,
      "nome": "Mahoutsukai Tai! (TV)",
      "link": "https://animefire.plus/animes/mahoutsukai-tai-tv-todos-os-episodios",
      "texto_original": "Mahoutsukai Tai! (TV)",
      "rating": 6.81,
      "classificacao_etaria": "A14",
      "imagem_original": "https://animefire.plus/img/animes/mahoutsukai-tai-tv.webp",
      "imagem_pasta": "https://animefire.plus/img/animes/mahoutsukai-tai-tv/",
      "secao": "legendados",
      "pagina": 78,
      "total_episodios": 13,
      "link_video": "https://animefire.plus/video/mahoutsukai-tai-tv"
    },
    {
      "id": 2364,
      "nome": "Mai-HiME",
      "link": "https://animefire.plus/animes/mai-hime-todos-os-episodios",
      "texto_original": "Mai-HiME",
      "rating": 7.52,
      "classificacao_etaria": "A14",
      "imagem_original": "https://animefire.plus/img/animes/mai-hime.webp",
      "imagem_pasta": "https://animefire.plus/img/animes/mai-hime/",
      "secao": "legendados",
      "pagina": 172,
      "total_episodios": 26,
      "link_video": "https://animefire.plus/video/mai-hime"
    },
    {
      "id": 2365,
      "nome": "Mai-Otome",
      "link": "https://animefire.plus/animes/mai-otome-todos-os-episodios",
      "texto_original": "Mai-Otome",
      "rating": 7.35,
      "classificacao_etaria": "A14",
      "imagem_original": "https://animefire.plus/img/animes/mai-otome.webp",
      "imagem_pasta": "https://animefire.plus/img/animes/mai-otome/",
      "secao": "legendados",
      "pagina": 120,
      "total_episodios": 26,
      "link_video": "https://animefire.plus/video/mai-otome"
    },
    {
      "id": 2366,
      "nome": "Mai-Otome 0: S.ifr",
      "link": "https://animefire.plus/animes/mai-otome-0-s-ifr-todos-os-episodios",
      "texto_original": "Mai-Otome 0: S.ifr",
      "rating": 7.41,
      "classificacao_etaria": "A18",
      "imagem_original": "https://animefire.plus/img/animes/mai-otome-0-s-ifr.webp",
      "imagem_pasta": "https://animefire.plus/img/animes/mai-otome-0-s-ifr/",
      "secao": "legendados",
      "pagina": 68,
      "total_episodios": 3,
      "link_video": "https://animefire.plus/video/mai-otome-0-s-ifr"
    },
    {
      "id": 2367,
      "nome": "Mai-Otome Zwei",
      "link": "https://animefire.plus/animes/mai-otome-zwei-todos-os-episodios",
      "texto_original": "Mai-Otome Zwei",
      "rating": 7.29,
      "classificacao_etaria": "A18",
      "imagem_original": "https://animefire.plus/img/animes/mai-otome-zwei.webp",
      "imagem_pasta": "https://animefire.plus/img/animes/mai-otome-zwei/",
      "secao": "legendados",
      "pagina": 68,
      "total_episodios": 4,
      "link_video": "https://animefire.plus/video/mai-otome-zwei"
    },
    {
      "id": 2368,
      "nome": "Maiko-san Chi no Makanai-san",
      "link": "https://animefire.plus/animes/maiko-san-chi-no-makanai-san-todos-os-episodios",
      "texto_original": "Maiko-san Chi no Makanai-san",
      "rating": 7.04,
      "classificacao_etaria": "A14",
      "imagem_original": "https://animefire.plus/img/animes/maiko-san-chi-no-makanai-san.webp",
      "imagem_pasta": "https://animefire.plus/img/animes/maiko-san-chi-no-makanai-san/",
      "secao": "legendados",
      "pagina": 48,
      "total_episodios": 12,
      "link_video": "https://animefire.plus/video/maiko-san-chi-no-makanai-san"
    },
    {
      "id": 2369,
      "nome": "Mairimashita! Iruma-kun (Dublado)",
      "link": "https://animefire.plus/animes/mairimashita-iruma-kun-dublado-todos-os-episodios",
      "texto_original": "Mairimashita! Iruma-kun (Dublado)",
      "rating": 7.75,
      "classificacao_etaria": "A14",
      "imagem_original": "https://animefire.plus/img/animes/mairimashita-iruma-kun.webp",
      "imagem_pasta": "https://animefire.plus/img/animes/mairimashita-iruma-kun/",
      "secao": "dublados,legendados",
      "pagina": 8,
      "total_episodios": 23,
      "link_video": "https://animefire.plus/video/mairimashita-iruma-kun-dublado"
    },
    {
      "id": 2370,
      "nome": "Mairimashita! Iruma-kun 2nd Season (Dublado)",
      "link": "https://animefire.plus/animes/mairimashita-iruma-kun-2nd-season-dublado-todos-os-episodios",
      "texto_original": "Mairimashita! Iruma-kun 2nd Season (Dublado)",
      "rating": 8.02,
      "classificacao_etaria": "A14",
      "imagem_original": "https://animefire.plus/img/animes/mairimashita-iruma-kun-2nd-season.webp",
      "imagem_pasta": "https://animefire.plus/img/animes/mairimashita-iruma-kun-2nd-season/",
      "secao": "dublados,legendados",
      "pagina": 6,
      "total_episodios": 21,
      "link_video": "https://animefire.plus/video/mairimashita-iruma-kun-2nd-season-dublado"
    },
    {
      "id": 2371,
      "nome": "Mairimashita! Iruma-kun 3rd Season (Dublado)",
      "link": "https://animefire.plus/animes/mairimashita-iruma-kun-3rd-season-dublado-todos-os-episodios",
      "texto_original": "Mairimashita! Iruma-kun 3rd Season (Dublado)",
      "rating": 7.82,
      "classificacao_etaria": "A14",
      "imagem_original": "https://animefire.plus/img/animes/mairimashita-iruma-kun-3rd-season.webp",
      "imagem_pasta": "https://animefire.plus/img/animes/mairimashita-iruma-kun-3rd-season/",
      "secao": "dublados,legendados",
      "pagina": 6,
      "total_episodios": 21,
      "link_video": "https://animefire.plus/video/mairimashita-iruma-kun-3rd-season-dublado"
    },
    {
      "id": 2372,
      "nome": "Maison Ikkoku",
      "link": "https://animefire.plus/animes/maison-ikkoku-todos-os-episodios",
      "texto_original": "Maison Ikkoku",
      "rating": 8.19,
      "classificacao_etaria": "A18",
      "imagem_original": "https://animefire.plus/img/animes/maison-ikkoku.webp",
      "imagem_pasta": "https://animefire.plus/img/animes/maison-ikkoku/",
      "secao": "legendados",
      "pagina": 59,
      "total_episodios": 0,
      "link_video": "https://animefire.plus/video/maison-ikkoku"
    },
    {
      "id": 2373,
      "nome": "Maji de Watashi ni Koi Shinasai!",
      "link": "https://animefire.plus/animes/maji-de-watashi-ni-koi-shinasai-todos-os-episodios",
      "texto_original": "Maji de Watashi ni Koi Shinasai!",
      "rating": 6.66,
      "classificacao_etaria": "A18",
      "imagem_original": "https://animefire.plus/img/animes/maji-de-watashi-ni-koi-shinasai.webp",
      "imagem_pasta": "https://animefire.plus/img/animes/maji-de-watashi-ni-koi-shinasai/",
      "secao": "legendados",
      "pagina": 12,
      "total_episodios": 12,
      "link_video": "https://animefire.plus/video/maji-de-watashi-ni-koi-shinasai"
    },
    {
      "id": 2374,
      "nome": "Majimoji Rurumo",
      "link": "https://animefire.plus/animes/majimoji-rurumo-todos-os-episodios",
      "texto_original": "Majimoji Rurumo",
      "rating": 6.9,
      "classificacao_etaria": "A14",
      "imagem_original": "https://animefire.plus/img/animes/majimoji-rurumo.webp",
      "imagem_pasta": "https://animefire.plus/img/animes/majimoji-rurumo/",
      "secao": "legendados",
      "pagina": 164,
      "total_episodios": 5,
      "link_video": "https://animefire.plus/video/majimoji-rurumo"
    },
    {
      "id": 2375,
      "nome": "Majimoji Rurumo: Kanketsu-hen",
      "link": "https://animefire.plus/animes/majimoji-rurumo-kanketsu-hen-todos-os-episodios",
      "texto_original": "Majimoji Rurumo: Kanketsu-hen",
      "rating": 7.43,
      "classificacao_etaria": "A14",
      "imagem_original": "https://animefire.plus/img/animes/majimoji-rurumo-kanketsu-hen.webp",
      "imagem_pasta": "https://animefire.plus/img/animes/majimoji-rurumo-kanketsu-hen/",
      "secao": "legendados",
      "pagina": 88,
      "total_episodios": 2,
      "link_video": "https://animefire.plus/video/majimoji-rurumo-kanketsu-hen"
    },
    {
      "id": 2376,
      "nome": "Majin Tantei Nougami Neuro",
      "link": "https://animefire.plus/animes/majin-tantei-nougami-neuro-todos-os-episodios",
      "texto_original": "Majin Tantei Nougami Neuro",
      "rating": 7.69,
      "classificacao_etaria": "A16",
      "imagem_original": "https://animefire.plus/img/animes/majin-tantei-nougami-neuro.webp",
      "imagem_pasta": "https://animefire.plus/img/animes/majin-tantei-nougami-neuro/",
      "secao": "legendados",
      "pagina": 127,
      "total_episodios": 25,
      "link_video": "https://animefire.plus/video/majin-tantei-nougami-neuro"
    },
    {
      "id": 2377,
      "nome": "Majo no Tabitabi (Dublado)",
      "link": "https://animefire.plus/animes/majo-no-tabitabi-dublado-todos-os-episodios",
      "texto_original": "Majo no Tabitabi (Dublado)",
      "rating": 7.55,
      "classificacao_etaria": "A16",
      "imagem_original": "https://animefire.plus/img/animes/majo-no-tabitabi.webp",
      "imagem_pasta": "https://animefire.plus/img/animes/majo-no-tabitabi/",
      "secao": "dublados,legendados",
      "pagina": 13,
      "total_episodios": 12,
      "link_video": "https://animefire.plus/video/majo-no-tabitabi-dublado"
    },
    {
      "id": 2378,
      "nome": "Majo to Yajuu",
      "link": "https://animefire.plus/animes/majo-to-yajuu-todos-os-episodios",
      "texto_original": "Majo to Yajuu",
      "rating": 7.44,
      "classificacao_etaria": "A16",
      "imagem_original": "https://animefire.plus/img/animes/majo-to-yajuu.webp",
      "imagem_pasta": "https://animefire.plus/img/animes/majo-to-yajuu/",
      "secao": "legendados",
      "pagina": 18,
      "total_episodios": 12,
      "link_video": "https://animefire.plus/video/majo-to-yajuu"
    },
    {
      "id": 2379,
      "nome": "Major 2nd",
      "link": "https://animefire.plus/animes/major-2nd-todos-os-episodios",
      "texto_original": "Major 2nd",
      "rating": 7.63,
      "classificacao_etaria": "A14",
      "imagem_original": "https://animefire.plus/img/animes/major-2nd.webp",
      "imagem_pasta": "https://animefire.plus/img/animes/major-2nd/",
      "secao": "legendados",
      "pagina": 157,
      "total_episodios": 25,
      "link_video": "https://animefire.plus/video/major-2nd"
    },
    {
      "id": 2380,
      "nome": "Major 2nd (TV) 2nd Season",
      "link": "https://animefire.plus/animes/major-2nd-tv-2nd-season-todos-os-episodios",
      "texto_original": "Major 2nd (TV) 2nd Season",
      "rating": 7.6,
      "classificacao_etaria": "A14",
      "imagem_original": "https://animefire.plus/img/animes/major-2nd-tv-2nd-season.webp",
      "imagem_pasta": "https://animefire.plus/img/animes/major-2nd-tv-2nd-season/",
      "secao": "legendados",
      "pagina": 81,
      "total_episodios": 1,
      "link_video": "https://animefire.plus/video/major-2nd-tv-2nd-season"
    }
  ],
  "pagination": {
    "current_page": 119,
    "per_page": 20,
    "total_items": 4368,
    "total_pages": 219,
    "has_next": true,
    "has_prev": true
  }
}
