{
  "message": "Lista de animes",
  "data": [
    {
      "id": 3081,
      "nome": "Ranpo Kitan: Game of Laplace",
      "link": "https://animefire.plus/animes/ranpo-kitan-game-of-laplace-todos-os-episodios",
      "texto_original": "Ranpo Kitan: Game of Laplace",
      "rating": 6.67,
      "classificacao_etaria": "A16",
      "imagem_original": "https://animefire.plus/img/animes/ranpo-kitan-game-of-laplace.webp",
      "imagem_pasta": "https://animefire.plus/img/animes/ranpo-kitan-game-of-laplace/",
      "secao": "legendados",
      "pagina": 178,
      "total_episodios": 0,
      "link_video": "https://animefire.plus/video/ranpo-kitan-game-of-laplace"
    },
    {
      "id": 3082,
      "nome": "Ray The Animation",
      "link": "https://animefire.plus/animes/ray-the-animation-todos-os-episodios",
      "texto_original": "Ray The Animation",
      "rating": 6.72,
      "classificacao_etaria": "A14",
      "imagem_original": "https://animefire.plus/img/animes/ray-the-animation.webp",
      "imagem_pasta": "https://animefire.plus/img/animes/ray-the-animation/",
      "secao": "legendados",
      "pagina": 131,
      "total_episodios": 13,
      "link_video": "https://animefire.plus/video/ray-the-animation"
    },
    {
      "id": 3083,
      "nome": "RD Sennou Chousashitsu",
      "link": "https://animefire.plus/animes/rd-sennou-chousashitsu-todos-os-episodios",
      "texto_original": "RD Sennou Chousashitsu",
      "rating": 7.17,
      "classificacao_etaria": "A16",
      "imagem_original": "https://animefire.plus/img/animes/rd-sennou-chousashitsu.webp",
      "imagem_pasta": "https://animefire.plus/img/animes/rd-sennou-chousashitsu/",
      "secao": "legendados",
      "pagina": 161,
      "total_episodios": 26,
      "link_video": "https://animefire.plus/video/rd-sennou-chousashitsu"
    },
    {
      "id": 3084,
      "nome": "RDG: Red Data Girl",
      "link": "https://animefire.plus/animes/rdg-red-data-girl-todos-os-episodios",
      "texto_original": "RDG: Red Data Girl",
      "rating": 6.65,
      "classificacao_etaria": "A14",
      "imagem_original": "https://animefire.plus/img/animes/rdg-red-data-girl.webp",
      "imagem_pasta": "https://animefire.plus/img/animes/rdg-red-data-girl/",
      "secao": "legendados",
      "pagina": 175,
      "total_episodios": 4,
      "link_video": "https://animefire.plus/video/rdg-red-data-girl"
    },
    {
      "id": 3085,
      "nome": "Re-Kan!",
      "link": "https://animefire.plus/animes/re-kan-todos-os-episodios",
      "texto_original": "Re-Kan!",
      "rating": 6.8,
      "classificacao_etaria": "A14",
      "imagem_original": "https://animefire.plus/img/animes/re-kan.webp",
      "imagem_pasta": "https://animefire.plus/img/animes/re-kan/",
      "secao": "legendados",
      "pagina": 91,
      "total_episodios": 4,
      "link_video": "https://animefire.plus/video/re-kan"
    },
    {
      "id": 3086,
      "nome": "Re-Main (Dublado)",
      "link": "https://animefire.plus/animes/re-main-dublado-todos-os-episodios",
      "texto_original": "Re-Main (Dublado)",
      "rating": 7.19,
      "classificacao_etaria": "A14",
      "imagem_original": "https://animefire.plus/img/animes/re-main.webp",
      "imagem_pasta": "https://animefire.plus/img/animes/re-main/",
      "secao": "dublados,legendados",
      "pagina": 11,
      "total_episodios": 12,
      "link_video": "https://animefire.plus/video/re-main-dublado"
    },
    {
      "id": 3087,
      "nome": "Re:␣Hamatora",
      "link": "https://animefire.plus/animes/re-hamatora-todos-os-episodios",
      "texto_original": "Re:␣Hamatora",
      "rating": 7.45,
      "classificacao_etaria": "A16",
      "imagem_original": "https://animefire.plus/img/animes/re-hamatora.webp",
      "imagem_pasta": "https://animefire.plus/img/animes/re-hamatora/",
      "secao": "legendados",
      "pagina": 91,
      "total_episodios": 12,
      "link_video": "https://animefire.plus/video/re-hamatora"
    },
    {
      "id": 3088,
      "nome": "Re:Creators",
      "link": "https://animefire.plus/animes/re-creators-todos-os-episodios",
      "texto_original": "Re:Creators",
      "rating": 7.64,
      "classificacao_etaria": "A16",
      "imagem_original": "https://animefire.plus/img/animes/re-creators.webp",
      "imagem_pasta": "https://animefire.plus/img/animes/re-creators/",
      "secao": "legendados",
      "pagina": 121,
      "total_episodios": 22,
      "link_video": "https://animefire.plus/video/re-creators"
    },
    {
      "id": 3089,
      "nome": "Re:Monster (Dublado)",
      "link": "https://animefire.plus/animes/re-monster-dublado-todos-os-episodios",
      "texto_original": "Re:Monster (Dublado)",
      "rating": 6.55,
      "classificacao_etaria": "A14",
      "imagem_original": "https://animefire.plus/img/animes/re-monster.webp",
      "imagem_pasta": "https://animefire.plus/img/animes/re-monster/",
      "secao": "dublados,legendados,lancamentos",
      "pagina": 3,
      "total_episodios": 12,
      "link_video": "https://animefire.plus/video/re-monster-dublado"
    },
    {
      "id": 3090,
      "nome": "Re:Stage! Dream Days♪",
      "link": "https://animefire.plus/animes/re-stage-dream-days-todos-os-episodios",
      "texto_original": "Re:Stage! Dream Days♪",
      "rating": 6.69,
      "classificacao_etaria": "A14",
      "imagem_original": "https://animefire.plus/img/animes/re-stage-dream-days.webp",
      "imagem_pasta": "https://animefire.plus/img/animes/re-stage-dream-days/",
      "secao": "legendados",
      "pagina": 158,
      "total_episodios": 4,
      "link_video": "https://animefire.plus/video/re-stage-dream-days"
    },
    {
      "id": 3091,
      "nome": "Re:Zero kara Hajimeru Isekai Seikatsu - Memory Snow",
      "link": "https://animefire.plus/animes/re-zero-kara-hajimeru-isekai-seikatsu---memory-snow-todos-os-episodios",
      "texto_original": "Re:Zero kara Hajimeru Isekai Seikatsu - Memory Snow",
      "rating": 7.65,
      "classificacao_etaria": "A14",
      "imagem_original": "https://animefire.plus/img/animes/re-zero-kara-hajimeru-isekai-seikatsu---memory-snow.webp",
      "imagem_pasta": "https://animefire.plus/img/animes/re-zero-kara-hajimeru-isekai-seikatsu---memory-snow/",
      "secao": "legendados",
      "pagina": 98,
      "total_episodios": 1,
      "link_video": "https://animefire.plus/video/re-zero-kara-hajimeru-isekai-seikatsu---memory-snow"
    },
    {
      "id": 3092,
      "nome": "Re:Zero kara Hajimeru Isekai Seikatsu (Dublado)",
      "link": "https://animefire.plus/animes/re-zero-kara-hajimeru-isekai-seikatsu-dublado-todos-os-episodios",
      "texto_original": "Re:Zero kara Hajimeru Isekai Seikatsu (Dublado)",
      "rating": 8.35,
      "classificacao_etaria": "A16",
      "imagem_original": "https://animefire.plus/img/animes/re-zero-kara-hajimeru-isekai-seikatsu.webp",
      "imagem_pasta": "https://animefire.plus/img/animes/re-zero-kara-hajimeru-isekai-seikatsu/",
      "secao": "dublados,legendados",
      "pagina": 26,
      "total_episodios": 26,
      "link_video": "https://animefire.plus/video/re-zero-kara-hajimeru-isekai-seikatsu-dublado"
    },
    {
      "id": 3093,
      "nome": "Re:Zero kara Hajimeru Isekai Seikatsu 2nd Season (Dublado)",
      "link": "https://animefire.plus/animes/re-zero-kara-hajimeru-isekai-seikatsu-2nd-season-dublado-todos-os-episodios",
      "texto_original": "Re:Zero kara Hajimeru Isekai Seikatsu 2nd Season (Dublado)",
      "rating": 8.43,
      "classificacao_etaria": "A16",
      "imagem_original": "https://animefire.plus/img/animes/re-zero-kara-hajimeru-isekai-seikatsu-2nd-season.webp",
      "imagem_pasta": "https://animefire.plus/img/animes/re-zero-kara-hajimeru-isekai-seikatsu-2nd-season/",
      "secao": "dublados,legendados",
      "pagina": 16,
      "total_episodios": 13,
      "link_video": "https://animefire.plus/video/re-zero-kara-hajimeru-isekai-seikatsu-2nd-season-dublado"
    },
    {
      "id": 3094,
      "nome": "Re:Zero kara Hajimeru Isekai Seikatsu 2nd Season Part 2",
      "link": "https://animefire.plus/animes/re-zero-kara-hajimeru-isekai-seikatsu-2nd-season-part-2-todos-os-episodios",
      "texto_original": "Re:Zero kara Hajimeru Isekai Seikatsu 2nd Season Part 2",
      "rating": 8.42,
      "classificacao_etaria": "A16",
      "imagem_original": "https://animefire.plus/img/animes/re-zero-kara-hajimeru-isekai-seikatsu-2nd-season-part-2.webp",
      "imagem_pasta": "https://animefire.plus/img/animes/re-zero-kara-hajimeru-isekai-seikatsu-2nd-season-part-2/",
      "secao": "legendados",
      "pagina": 50,
      "total_episodios": 8,
      "link_video": "https://animefire.plus/video/re-zero-kara-hajimeru-isekai-seikatsu-2nd-season-part-2"
    },
    {
      "id": 3095,
      "nome": "Re:Zero kara Hajimeru Isekai Seikatsu 3rd Season",
      "link": "https://animefire.plus/animes/re-zero-kara-hajimeru-isekai-seikatsu-3rd-season-todos-os-episodios",
      "texto_original": "Re:Zero kara Hajimeru Isekai Seikatsu 3rd Season",
      "rating": 8.45,
      "classificacao_etaria": "A16",
      "imagem_original": "https://animefire.plus/img/animes/re-zero-kara-hajimeru-isekai-seikatsu-3rd-season.webp",
      "imagem_pasta": "https://animefire.plus/img/animes/re-zero-kara-hajimeru-isekai-seikatsu-3rd-season/",
      "secao": "legendados",
      "pagina": 11,
      "total_episodios": 16,
      "link_video": "https://animefire.plus/video/re-zero-kara-hajimeru-isekai-seikatsu-3rd-season"
    },
    {
      "id": 3096,
      "nome": "Re:Zero kara Hajimeru Isekai Seikatsu: Shin Henshuu-ban",
      "link": "https://animefire.plus/animes/re-zero-kara-hajimeru-isekai-seikatsu-shin-henshuu-ban-todos-os-episodios",
      "texto_original": "Re:Zero kara Hajimeru Isekai Seikatsu: Shin Henshuu-ban",
      "rating": null,
      "classificacao_etaria": null,
      "imagem_original": "https://animefire.plus/img/animes/re-zero-kara-hajimeru-isekai-seikatsu-shin-henshuu-ban.webp",
      "imagem_pasta": "https://animefire.plus/img/animes/re-zero-kara-hajimeru-isekai-seikatsu-shin-henshuu-ban/",
      "secao": "legendados,lancamentos",
      "pagina": 93,
      "total_episodios": 13,
      "link_video": "https://animefire.plus/video/re-zero-kara-hajimeru-isekai-seikatsu-shin-henshuu-ban"
    },
    {
      "id": 3097,
      "nome": "Rebirth",
      "link": "https://animefire.plus/animes/rebirth-todos-os-episodios",
      "texto_original": "Rebirth",
      "rating": 5.37,
      "classificacao_etaria": "A14",
      "imagem_original": "https://animefire.plus/img/animes/rebirth.webp",
      "imagem_pasta": "https://animefire.plus/img/animes/rebirth/",
      "secao": "legendados,lancamentos",
      "pagina": 92,
      "total_episodios": 0,
      "link_video": "https://animefire.plus/video/rebirth"
    },
    {
      "id": 3098,
      "nome": "Recorder to Randoseru Do♪",
      "link": "https://animefire.plus/animes/recorder-to-randoseru-do-todos-os-episodios",
      "texto_original": "Recorder to Randoseru Do♪",
      "rating": 6.75,
      "classificacao_etaria": "A14",
      "imagem_original": "https://animefire.plus/img/animes/recorder-to-randoseru-do.webp",
      "imagem_pasta": "https://animefire.plus/img/animes/recorder-to-randoseru-do/",
      "secao": "legendados",
      "pagina": 117,
      "total_episodios": 0,
      "link_video": "https://animefire.plus/video/recorder-to-randoseru-do"
    },
    {
      "id": 3099,
      "nome": "Recorder to Randoseru Mi☆",
      "link": "https://animefire.plus/animes/recorder-to-randoseru-mi-todos-os-episodios",
      "texto_original": "Recorder to Randoseru Mi☆",
      "rating": 6.75,
      "classificacao_etaria": "A14",
      "imagem_original": "https://animefire.plus/img/animes/recorder-to-randoseru-mi.webp",
      "imagem_pasta": "https://animefire.plus/img/animes/recorder-to-randoseru-mi/",
      "secao": "legendados",
      "pagina": 174,
      "total_episodios": 12,
      "link_video": "https://animefire.plus/video/recorder-to-randoseru-mi"
    },
    {
      "id": 3100,
      "nome": "Recorder To Randoseru Re♪",
      "link": "https://animefire.plus/animes/recorder-to-randoseru-re-todos-os-episodios",
      "texto_original": "Recorder To Randoseru Re♪",
      "rating": 6.93,
      "classificacao_etaria": "A14",
      "imagem_original": "https://animefire.plus/img/animes/recorder-to-randoseru-re.webp",
      "imagem_pasta": "https://animefire.plus/img/animes/recorder-to-randoseru-re/",
      "secao": "legendados",
      "pagina": 100,
      "total_episodios": 0,
      "link_video": "https://animefire.plus/video/recorder-to-randoseru-re"
    }
  ],
  "pagination": {
    "current_page": 155,
    "per_page": 20,
    "total_items": 4368,
    "total_pages": 219,
    "has_next": true,
    "has_prev": true
  }
}
