{
  "message": "Lista de animes",
  "data": [
    {
      "id": 1461,
      "nome": "High Score Girl II (Dublado)",
      "link": "https://animefire.plus/animes/high-score-girl-ii-dublado-todos-os-episodios",
      "texto_original": "High Score Girl II (Dublado)",
      "rating": 8.21,
      "classificacao_etaria": "A14",
      "imagem_original": "https://animefire.plus/img/animes/high-score-girl-ii.webp",
      "imagem_pasta": "https://animefire.plus/img/animes/high-score-girl-ii/",
      "secao": "dublados,legendados",
      "pagina": 23,
      "total_episodios": 9,
      "link_video": "https://animefire.plus/video/high-score-girl-ii-dublado"
    },
    {
      "id": 1462,
      "nome": "High Score Girl: Extra Stage (Dublado)",
      "link": "https://animefire.plus/animes/high-score-girl-extra-stage-dublado-todos-os-episodios",
      "texto_original": "High Score Girl: Extra Stage (Dublado)",
      "rating": 8.07,
      "classificacao_etaria": "A14",
      "imagem_original": "https://animefire.plus/img/animes/high-score-girl-extra-stage.webp",
      "imagem_pasta": "https://animefire.plus/img/animes/high-score-girl-extra-stage/",
      "secao": "dublados,legendados",
      "pagina": 24,
      "total_episodios": 3,
      "link_video": "https://animefire.plus/video/high-score-girl-extra-stage-dublado"
    },
    {
      "id": 1463,
      "nome": "Highschool of the Dead",
      "link": "https://animefire.plus/animes/highschool-of-the-dead-todos-os-episodios",
      "texto_original": "Highschool of the Dead",
      "rating": 7.3,
      "classificacao_etaria": "A18",
      "imagem_original": "https://animefire.plus/img/animes/highschool-of-the-dead.webp",
      "imagem_pasta": "https://animefire.plus/img/animes/highschool-of-the-dead/",
      "secao": "legendados",
      "pagina": 140,
      "total_episodios": 12,
      "link_video": "https://animefire.plus/video/highschool-of-the-dead"
    },
    {
      "id": 1464,
      "nome": "Highspeed Etoile",
      "link": "https://animefire.plus/animes/highspeed-etoile-todos-os-episodios",
      "texto_original": "Highspeed Etoile",
      "rating": 6.14,
      "classificacao_etaria": "A14",
      "imagem_original": "https://animefire.plus/img/animes/highspeed-etoile.webp",
      "imagem_pasta": "https://animefire.plus/img/animes/highspeed-etoile/",
      "secao": "legendados",
      "pagina": 14,
      "total_episodios": 12,
      "link_video": "https://animefire.plus/video/highspeed-etoile"
    },
    {
      "id": 1465,
      "nome": "Higurashi no Naku Koro ni",
      "link": "https://animefire.plus/animes/higurashi-no-naku-koro-ni-todos-os-episodios",
      "texto_original": "Higurashi no Naku Koro ni",
      "rating": 8.06,
      "classificacao_etaria": "A16",
      "imagem_original": "https://animefire.plus/img/animes/higurashi-no-naku-koro-ni.webp",
      "imagem_pasta": "https://animefire.plus/img/animes/higurashi-no-naku-koro-ni/",
      "secao": "legendados",
      "pagina": 116,
      "total_episodios": 26,
      "link_video": "https://animefire.plus/video/higurashi-no-naku-koro-ni"
    },
    {
      "id": 1466,
      "nome": "Higurashi no Naku Koro ni (2020)",
      "link": "https://animefire.plus/animes/higurashi-no-naku-koro-ni-2020-todos-os-episodios",
      "texto_original": "Higurashi no Naku Koro ni (2020)",
      "rating": null,
      "classificacao_etaria": "A16",
      "imagem_original": "https://animefire.plus/img/animes/higurashi-no-naku-koro-ni-2020.webp",
      "imagem_pasta": "https://animefire.plus/img/animes/higurashi-no-naku-koro-ni-2020/",
      "secao": "legendados",
      "pagina": 52,
      "total_episodios": 24,
      "link_video": "https://animefire.plus/video/higurashi-no-naku-koro-ni-2020"
    },
    {
      "id": 1467,
      "nome": "Higurashi no Naku Koro ni Gou (Dublado)",
      "link": "https://animefire.plus/animes/higurashi-no-naku-koro-ni-gou-dublado-todos-os-episodios",
      "texto_original": "Higurashi no Naku Koro ni Gou (Dublado)",
      "rating": 7.22,
      "classificacao_etaria": "A16",
      "imagem_original": "https://animefire.plus/img/animes/higurashi-no-naku-koro-ni-gou.webp",
      "imagem_pasta": "https://animefire.plus/img/animes/higurashi-no-naku-koro-ni-gou/",
      "secao": "dublados",
      "pagina": 14,
      "total_episodios": 24,
      "link_video": "https://animefire.plus/video/higurashi-no-naku-koro-ni-gou-dublado"
    },
    {
      "id": 1468,
      "nome": "Higurashi no Naku Koro ni Kai",
      "link": "https://animefire.plus/animes/higurashi-no-naku-koro-ni-kai-todos-os-episodios",
      "texto_original": "Higurashi no Naku Koro ni Kai",
      "rating": 8.31,
      "classificacao_etaria": "A16",
      "imagem_original": "https://animefire.plus/img/animes/higurashi-no-naku-koro-ni-kai.webp",
      "imagem_pasta": "https://animefire.plus/img/animes/higurashi-no-naku-koro-ni-kai/",
      "secao": "legendados",
      "pagina": 126,
      "total_episodios": 24,
      "link_video": "https://animefire.plus/video/higurashi-no-naku-koro-ni-kai"
    },
    {
      "id": 1469,
      "nome": "Higurashi no Naku Koro ni Kaku: Outbreak",
      "link": "https://animefire.plus/animes/higurashi-no-naku-koro-ni-kaku-outbreak-todos-os-episodios",
      "texto_original": "Higurashi no Naku Koro ni Kaku: Outbreak",
      "rating": 7.28,
      "classificacao_etaria": "A16",
      "imagem_original": "https://animefire.plus/img/animes/higurashi-no-naku-koro-ni-kaku-outbreak.webp",
      "imagem_pasta": "https://animefire.plus/img/animes/higurashi-no-naku-koro-ni-kaku-outbreak/",
      "secao": "legendados",
      "pagina": 62,
      "total_episodios": 1,
      "link_video": "https://animefire.plus/video/higurashi-no-naku-koro-ni-kaku-outbreak"
    },
    {
      "id": 1470,
      "nome": "Higurashi no Naku Koro ni Kira",
      "link": "https://animefire.plus/animes/higurashi-no-naku-koro-ni-kira-todos-os-episodios",
      "texto_original": "Higurashi no Naku Koro ni Kira",
      "rating": 6.55,
      "classificacao_etaria": "A16",
      "imagem_original": "https://animefire.plus/img/animes/higurashi-no-naku-koro-ni-kira.webp",
      "imagem_pasta": "https://animefire.plus/img/animes/higurashi-no-naku-koro-ni-kira/",
      "secao": "legendados",
      "pagina": 62,
      "total_episodios": 1,
      "link_video": "https://animefire.plus/video/higurashi-no-naku-koro-ni-kira"
    },
    {
      "id": 1471,
      "nome": "Higurashi no Naku Koro ni Rei",
      "link": "https://animefire.plus/animes/higurashi-no-naku-koro-ni-rei-todos-os-episodios",
      "texto_original": "Higurashi no Naku Koro ni Rei",
      "rating": 7.51,
      "classificacao_etaria": "A14",
      "imagem_original": "https://animefire.plus/img/animes/higurashi-no-naku-koro-ni-rei.webp",
      "imagem_pasta": "https://animefire.plus/img/animes/higurashi-no-naku-koro-ni-rei/",
      "secao": "legendados",
      "pagina": 168,
      "total_episodios": 5,
      "link_video": "https://animefire.plus/video/higurashi-no-naku-koro-ni-rei"
    },
    {
      "id": 1472,
      "nome": "Higurashi no Naku Koro ni Sotsu",
      "link": "https://animefire.plus/animes/higurashi-no-naku-koro-ni-sotsu-todos-os-episodios",
      "texto_original": "Higurashi no Naku Koro ni Sotsu",
      "rating": 6.73,
      "classificacao_etaria": "A16",
      "imagem_original": "https://animefire.plus/img/animes/higurashi-no-naku-koro-ni-sotsu.webp",
      "imagem_pasta": "https://animefire.plus/img/animes/higurashi-no-naku-koro-ni-sotsu/",
      "secao": "legendados",
      "pagina": 41,
      "total_episodios": 15,
      "link_video": "https://animefire.plus/video/higurashi-no-naku-koro-ni-sotsu"
    },
    {
      "id": 1473,
      "nome": "Hiiro no Kakera",
      "link": "https://animefire.plus/animes/hiiro-no-kakera-todos-os-episodios",
      "texto_original": "Hiiro no Kakera",
      "rating": 6.86,
      "classificacao_etaria": "A14",
      "imagem_original": "https://animefire.plus/img/animes/hiiro-no-kakera.webp",
      "imagem_pasta": "https://animefire.plus/img/animes/hiiro-no-kakera/",
      "secao": "legendados",
      "pagina": 159,
      "total_episodios": 13,
      "link_video": "https://animefire.plus/video/hiiro-no-kakera"
    },
    {
      "id": 1474,
      "nome": "Hiiro no Kakera Dai Ni Shou",
      "link": "https://animefire.plus/animes/hiiro-no-kakera-dai-ni-shou-todos-os-episodios",
      "texto_original": "Hiiro no Kakera Dai Ni Shou",
      "rating": 7.34,
      "classificacao_etaria": "A14",
      "imagem_original": "https://animefire.plus/img/animes/hiiro-no-kakera-dai-ni-shou.webp",
      "imagem_pasta": "https://animefire.plus/img/animes/hiiro-no-kakera-dai-ni-shou/",
      "secao": "legendados",
      "pagina": 143,
      "total_episodios": 13,
      "link_video": "https://animefire.plus/video/hiiro-no-kakera-dai-ni-shou"
    },
    {
      "id": 1475,
      "nome": "Hikari no Densetsu",
      "link": "https://animefire.plus/animes/hikari-no-densetsu-todos-os-episodios",
      "texto_original": "Hikari no Densetsu",
      "rating": 6.68,
      "classificacao_etaria": "A10",
      "imagem_original": "https://animefire.plus/img/animes/hikari-no-densetsu.webp",
      "imagem_pasta": "https://animefire.plus/img/animes/hikari-no-densetsu/",
      "secao": "legendados",
      "pagina": 151,
      "total_episodios": 19,
      "link_video": "https://animefire.plus/video/hikari-no-densetsu"
    },
    {
      "id": 1476,
      "nome": "Hikari no Ou",
      "link": "https://animefire.plus/animes/hikari-no-ou-todos-os-episodios",
      "texto_original": "Hikari no Ou",
      "rating": 6.33,
      "classificacao_etaria": "A14",
      "imagem_original": "https://animefire.plus/img/animes/hikari-no-ou.webp",
      "imagem_pasta": "https://animefire.plus/img/animes/hikari-no-ou/",
      "secao": "legendados",
      "pagina": 26,
      "total_episodios": 10,
      "link_video": "https://animefire.plus/video/hikari-no-ou"
    },
    {
      "id": 1477,
      "nome": "Hikari no Ou 2nd Season",
      "link": "https://animefire.plus/animes/hikari-no-ou-2-todos-os-episodios",
      "texto_original": "Hikari no Ou 2nd Season",
      "rating": 5.9,
      "classificacao_etaria": "A14",
      "imagem_original": "https://animefire.plus/img/animes/hikari-no-ou-2.webp",
      "imagem_pasta": "https://animefire.plus/img/animes/hikari-no-ou-2/",
      "secao": "legendados",
      "pagina": 16,
      "total_episodios": 10,
      "link_video": "https://animefire.plus/video/hikari-no-ou-2"
    },
    {
      "id": 1478,
      "nome": "Hikari To Mizu No Daphne",
      "link": "https://animefire.plus/animes/hikari-to-mizu-no-daphne-todos-os-episodios",
      "texto_original": "Hikari To Mizu No Daphne",
      "rating": 6.81,
      "classificacao_etaria": "A14",
      "imagem_original": "https://animefire.plus/img/animes/hikari-to-mizu-no-daphne.webp",
      "imagem_pasta": "https://animefire.plus/img/animes/hikari-to-mizu-no-daphne/",
      "secao": "legendados",
      "pagina": 98,
      "total_episodios": 0,
      "link_video": "https://animefire.plus/video/hikari-to-mizu-no-daphne"
    },
    {
      "id": 1479,
      "nome": "Hikaru ga Shinda Natsu",
      "link": "https://animefire.plus/animes/hikaru-ga-shinda-natsu-todos-os-episodios",
      "texto_original": "Hikaru ga Shinda Natsu",
      "rating": 8.18,
      "classificacao_etaria": "A16",
      "imagem_original": "https://animefire.plus/img/animes/hikaru-ga-shinda-natsu.webp",
      "imagem_pasta": "https://animefire.plus/img/animes/hikaru-ga-shinda-natsu/",
      "secao": "legendados,lancamentos",
      "pagina": 3,
      "total_episodios": 5,
      "link_video": "https://animefire.plus/video/hikaru-ga-shinda-natsu"
    },
    {
      "id": 1480,
      "nome": "Hikaru no Go (Dublado)",
      "link": "https://animefire.plus/animes/hikaru-no-go-dublado-todos-os-episodios",
      "texto_original": "Hikaru no Go (Dublado)",
      "rating": 8.07,
      "classificacao_etaria": "A14",
      "imagem_original": "https://animefire.plus/img/animes/hikaru-no-go.webp",
      "imagem_pasta": "https://animefire.plus/img/animes/hikaru-no-go/",
      "secao": "dublados",
      "pagina": 3,
      "total_episodios": 10,
      "link_video": "https://animefire.plus/video/hikaru-no-go-dublado"
    }
  ],
  "pagination": {
    "current_page": 74,
    "per_page": 20,
    "total_items": 4368,
    "total_pages": 219,
    "has_next": true,
    "has_prev": true
  }
}
