{
  "message": "Lista de animes",
  "data": [
    {
      "id": 4241,
      "nome": "Yojouhan Time Machine Blues",
      "link": "https://animefire.plus/animes/yojouhan-time-machine-blues-todos-os-episodios",
      "texto_original": "Yojouhan Time Machine Blues",
      "rating": 8.18,
      "classificacao_etaria": "A14",
      "imagem_original": "https://animefire.plus/img/animes/yojouhan-time-machine-blues.webp",
      "imagem_pasta": "https://animefire.plus/img/animes/yojouhan-time-machine-blues/",
      "secao": "legendados,lancamentos",
      "pagina": 28,
      "total_episodios": 4,
      "link_video": "https://animefire.plus/video/yojouhan-time-machine-blues"
    },
    {
      "id": 4242,
      "nome": "Yoku Wakaru Gendai Mahou",
      "link": "https://animefire.plus/animes/yoku-wakaru-gendai-mahou-todos-os-episodios",
      "texto_original": "Yoku Wakaru Gendai Mahou",
      "rating": 6.5,
      "classificacao_etaria": "A14",
      "imagem_original": "https://animefire.plus/img/animes/yoku-wakaru-gendai-mahou.webp",
      "imagem_pasta": "https://animefire.plus/img/animes/yoku-wakaru-gendai-mahou/",
      "secao": "legendados",
      "pagina": 103,
      "total_episodios": 0,
      "link_video": "https://animefire.plus/video/yoku-wakaru-gendai-mahou"
    },
    {
      "id": 4243,
      "nome": "Yomigaeru Sora: Rescue Wings",
      "link": "https://animefire.plus/animes/yomigaeru-sora-rescue-wings-todos-os-episodios",
      "texto_original": "Yomigaeru Sora: Rescue Wings",
      "rating": 7.48,
      "classificacao_etaria": "A14",
      "imagem_original": "https://animefire.plus/img/animes/yomigaeru-sora-rescue-wings.webp",
      "imagem_pasta": "https://animefire.plus/img/animes/yomigaeru-sora-rescue-wings/",
      "secao": "legendados",
      "pagina": 104,
      "total_episodios": 12,
      "link_video": "https://animefire.plus/video/yomigaeru-sora-rescue-wings"
    },
    {
      "id": 4244,
      "nome": "Yondemasu yo, Azazel-san. (TV)",
      "link": "https://animefire.plus/animes/yondemasu-yo-azazel-san-tv-todos-os-episodios",
      "texto_original": "Yondemasu yo, Azazel-san. (TV)",
      "rating": 7.6,
      "classificacao_etaria": "A16",
      "imagem_original": "https://animefire.plus/img/animes/yondemasu-yo-azazel-san-tv.webp",
      "imagem_pasta": "https://animefire.plus/img/animes/yondemasu-yo-azazel-san-tv/",
      "secao": "legendados",
      "pagina": 122,
      "total_episodios": 3,
      "link_video": "https://animefire.plus/video/yondemasu-yo-azazel-san-tv"
    },
    {
      "id": 4245,
      "nome": "Yondemasu Yo, Azazel-san. Z",
      "link": "https://animefire.plus/animes/yondemasu-yo-azazel-san-z-todos-os-episodios",
      "texto_original": "Yondemasu Yo, Azazel-san. Z",
      "rating": 7.63,
      "classificacao_etaria": "A16",
      "imagem_original": "https://animefire.plus/img/animes/yondemasu-yo-azazel-san-z.webp",
      "imagem_pasta": "https://animefire.plus/img/animes/yondemasu-yo-azazel-san-z/",
      "secao": "legendados",
      "pagina": 107,
      "total_episodios": 3,
      "link_video": "https://animefire.plus/video/yondemasu-yo-azazel-san-z"
    },
    {
      "id": 4246,
      "nome": "Yoroiden Samurai Troopers Gaiden",
      "link": "https://animefire.plus/animes/yoroiden-samurai-troopers-gaiden-todos-os-episodios",
      "texto_original": "Yoroiden Samurai Troopers Gaiden",
      "rating": 6.63,
      "classificacao_etaria": "A14",
      "imagem_original": "https://animefire.plus/img/animes/yoroiden-samurai-troopers-gaiden.webp",
      "imagem_pasta": "https://animefire.plus/img/animes/yoroiden-samurai-troopers-gaiden/",
      "secao": "legendados",
      "pagina": 79,
      "total_episodios": 2,
      "link_video": "https://animefire.plus/video/yoroiden-samurai-troopers-gaiden"
    },
    {
      "id": 4247,
      "nome": "Yoroiden Samurai Troopers Kikoutei Densetsu",
      "link": "https://animefire.plus/animes/yoroiden-samurai-troopers-kikoutei-densetsu-todos-os-episodios",
      "texto_original": "Yoroiden Samurai Troopers Kikoutei Densetsu",
      "rating": 6.59,
      "classificacao_etaria": "A14",
      "imagem_original": "https://animefire.plus/img/animes/yoroiden-samurai-troopers-kikoutei-densetsu.webp",
      "imagem_pasta": "https://animefire.plus/img/animes/yoroiden-samurai-troopers-kikoutei-densetsu/",
      "secao": "legendados",
      "pagina": 79,
      "total_episodios": 4,
      "link_video": "https://animefire.plus/video/yoroiden-samurai-troopers-kikoutei-densetsu"
    },
    {
      "id": 4248,
      "nome": "Yoru no Kuni",
      "link": "https://animefire.plus/animes/yoru-no-kuni-todos-os-episodios",
      "texto_original": "Yoru no Kuni",
      "rating": 7.44,
      "classificacao_etaria": null,
      "imagem_original": "https://animefire.plus/img/animes/yoru-no-kuni.webp",
      "imagem_pasta": "https://animefire.plus/img/animes/yoru-no-kuni/",
      "secao": "legendados",
      "pagina": 45,
      "total_episodios": 3,
      "link_video": "https://animefire.plus/video/yoru-no-kuni"
    },
    {
      "id": 4249,
      "nome": "Yoru no Kurage wa Oyogenai",
      "link": "https://animefire.plus/animes/yoru-no-kurage-wa-oyogenai-todos-os-episodios",
      "texto_original": "Yoru no Kurage wa Oyogenai",
      "rating": 7.75,
      "classificacao_etaria": "A14",
      "imagem_original": "https://animefire.plus/img/animes/yoru-no-kurage-wa-oyogenai.webp",
      "imagem_pasta": "https://animefire.plus/img/animes/yoru-no-kurage-wa-oyogenai/",
      "secao": "legendados",
      "pagina": 15,
      "total_episodios": 12,
      "link_video": "https://animefire.plus/video/yoru-no-kurage-wa-oyogenai"
    },
    {
      "id": 4250,
      "nome": "Yoru no Yatterman",
      "link": "https://animefire.plus/animes/yoru-no-yatterman-todos-os-episodios",
      "texto_original": "Yoru no Yatterman",
      "rating": 6.54,
      "classificacao_etaria": "A14",
      "imagem_original": "https://animefire.plus/img/animes/yoru-no-yatterman.webp",
      "imagem_pasta": "https://animefire.plus/img/animes/yoru-no-yatterman/",
      "secao": "legendados",
      "pagina": 95,
      "total_episodios": 8,
      "link_video": "https://animefire.plus/video/yoru-no-yatterman"
    },
    {
      "id": 4251,
      "nome": "Yosuga no Sora: In Solitude, Where We Are Least Alone.",
      "link": "https://animefire.plus/animes/yosuga-no-sora-in-solitude-where-we-are-least-alone-todos-os-episodios",
      "texto_original": "Yosuga no Sora: In Solitude, Where We Are Least Alone.",
      "rating": 6.5,
      "classificacao_etaria": "A18",
      "imagem_original": "https://animefire.plus/img/animes/yosuga-no-sora-in-solitude-where-we-are-least-alone.webp",
      "imagem_pasta": "https://animefire.plus/img/animes/yosuga-no-sora-in-solitude-where-we-are-least-alone/",
      "secao": "legendados",
      "pagina": 172,
      "total_episodios": 12,
      "link_video": "https://animefire.plus/video/yosuga-no-sora-in-solitude-where-we-are-least-alone"
    },
    {
      "id": 4252,
      "nome": "Youjo Senki (Dublado)",
      "link": "https://animefire.plus/animes/youjo-senki-dublado-todos-os-episodios",
      "texto_original": "Youjo Senki (Dublado)",
      "rating": 8.11,
      "classificacao_etaria": "A16",
      "imagem_original": "https://animefire.plus/img/animes/youjo-senki.webp",
      "imagem_pasta": "https://animefire.plus/img/animes/youjo-senki/",
      "secao": "dublados,legendados",
      "pagina": 26,
      "total_episodios": 12,
      "link_video": "https://animefire.plus/video/youjo-senki-dublado"
    },
    {
      "id": 4253,
      "nome": "Youjo Senki II",
      "link": "https://animefire.plus/animes/youjo-senki-ii-todos-os-episodios",
      "texto_original": "Youjo Senki II",
      "rating": null,
      "classificacao_etaria": "A16",
      "imagem_original": "https://animefire.plus/img/animes/youjo-senki-ii.webp",
      "imagem_pasta": "https://animefire.plus/img/animes/youjo-senki-ii/",
      "secao": "legendados,lancamentos",
      "pagina": 19,
      "total_episodios": 0,
      "link_video": "https://animefire.plus/video/youjo-senki-ii"
    },
    {
      "id": 4254,
      "nome": "Youjo Senki: Sabaku no Pasta Daisakusen",
      "link": "https://animefire.plus/animes/youjo-senki-sabaku-no-pasta-daisakusen-todos-os-episodios",
      "texto_original": "Youjo Senki: Sabaku no Pasta Daisakusen",
      "rating": 7.46,
      "classificacao_etaria": "A14",
      "imagem_original": "https://animefire.plus/img/animes/youjo-senki-sabaku-no-pasta-daisakusen.webp",
      "imagem_pasta": "https://animefire.plus/img/animes/youjo-senki-sabaku-no-pasta-daisakusen/",
      "secao": "legendados",
      "pagina": 40,
      "total_episodios": 1,
      "link_video": "https://animefire.plus/video/youjo-senki-sabaku-no-pasta-daisakusen"
    },
    {
      "id": 4255,
      "nome": "Youjo Shachou",
      "link": "https://animefire.plus/animes/youjo-shachou-todos-os-episodios",
      "texto_original": "Youjo Shachou",
      "rating": 6.59,
      "classificacao_etaria": "A14",
      "imagem_original": "https://animefire.plus/img/animes/youjo-shachou.webp",
      "imagem_pasta": "https://animefire.plus/img/animes/youjo-shachou/",
      "secao": "legendados,lancamentos",
      "pagina": 48,
      "total_episodios": 1,
      "link_video": "https://animefire.plus/video/youjo-shachou"
    },
    {
      "id": 4256,
      "nome": "Youkai Apartment no Yuuga na Nichijou",
      "link": "https://animefire.plus/animes/youkai-apartment-no-yuuga-na-nichijou-todos-os-episodios",
      "texto_original": "Youkai Apartment no Yuuga na Nichijou",
      "rating": 7.2,
      "classificacao_etaria": "A14",
      "imagem_original": "https://animefire.plus/img/animes/youkai-apartment-no-yuuga-na-nichijou.webp",
      "imagem_pasta": "https://animefire.plus/img/animes/youkai-apartment-no-yuuga-na-nichijou/",
      "secao": "legendados",
      "pagina": 117,
      "total_episodios": 17,
      "link_video": "https://animefire.plus/video/youkai-apartment-no-yuuga-na-nichijou"
    },
    {
      "id": 4257,
      "nome": "Youkai Gakkou no Sensei Hajimemashita!",
      "link": "https://animefire.plus/animes/youkai-gakkou-no-sensei-hajimemashita-todos-os-episodios",
      "texto_original": "Youkai Gakkou no Sensei Hajimemashita!",
      "rating": 7.27,
      "classificacao_etaria": "A14",
      "imagem_original": "https://animefire.plus/img/animes/youkai-gakkou-no-sensei-hajimemashita.webp",
      "imagem_pasta": "https://animefire.plus/img/animes/youkai-gakkou-no-sensei-hajimemashita/",
      "secao": "legendados",
      "pagina": 10,
      "total_episodios": 24,
      "link_video": "https://animefire.plus/video/youkai-gakkou-no-sensei-hajimemashita"
    },
    {
      "id": 4258,
      "nome": "Youkai Watch",
      "link": "https://animefire.plus/animes/youkai-watch-todos-os-episodios",
      "texto_original": "Youkai Watch",
      "rating": 7.01,
      "classificacao_etaria": null,
      "imagem_original": "https://animefire.plus/img/animes/youkai-watch.webp",
      "imagem_pasta": "https://animefire.plus/img/animes/youkai-watch/",
      "secao": "legendados",
      "pagina": 167,
      "total_episodios": 46,
      "link_video": "https://animefire.plus/video/youkai-watch"
    },
    {
      "id": 4259,
      "nome": "Youkoso Jitsuryoku Shijou Shugi no Kyoushitsu e (Dublado)",
      "link": "https://animefire.plus/animes/youkoso-jitsuryoku-shijou-shugi-no-kyoushitsu-e-dublado-todos-os-episodios",
      "texto_original": "Youkoso Jitsuryoku Shijou Shugi no Kyoushitsu e (Dublado)",
      "rating": 7.86,
      "classificacao_etaria": "A14",
      "imagem_original": "https://animefire.plus/img/animes/youkoso-jitsuryoku-shijou-shugi-no-kyoushitsu-e.webp",
      "imagem_pasta": "https://animefire.plus/img/animes/youkoso-jitsuryoku-shijou-shugi-no-kyoushitsu-e/",
      "secao": "dublados",
      "pagina": 10,
      "total_episodios": 12,
      "link_video": "https://animefire.plus/video/youkoso-jitsuryoku-shijou-shugi-no-kyoushitsu-e-dublado"
    },
    {
      "id": 4260,
      "nome": "Youkoso Jitsuryoku Shijou Shugi no Kyoushitsu e (TV)",
      "link": "https://animefire.plus/animes/youkoso-jitsuryoku-shijou-shugi-no-kyoushitsu-e-tv-todos-os-episodios",
      "texto_original": "Youkoso Jitsuryoku Shijou Shugi no Kyoushitsu e (TV)",
      "rating": 7.91,
      "classificacao_etaria": "A14",
      "imagem_original": "https://animefire.plus/img/animes/youkoso-jitsuryoku-shijou-shugi-no-kyoushitsu-e-tv.webp",
      "imagem_pasta": "https://animefire.plus/img/animes/youkoso-jitsuryoku-shijou-shugi-no-kyoushitsu-e-tv/",
      "secao": "legendados",
      "pagina": 91,
      "total_episodios": 0,
      "link_video": "https://animefire.plus/video/youkoso-jitsuryoku-shijou-shugi-no-kyoushitsu-e-tv"
    }
  ],
  "pagination": {
    "current_page": 213,
    "per_page": 20,
    "total_items": 4368,
    "total_pages": 219,
    "has_next": true,
    "has_prev": true
  }
}
