{
  "message": "Lista de animes",
  "data": [
    {
      "id": 441,
      "nome": "Blue Period (Dublado)",
      "link": "https://animefire.plus/animes/blue-period-dublado-todos-os-episodios",
      "texto_original": "Blue Period (Dublado)",
      "rating": 7.79,
      "classificacao_etaria": "A14",
      "imagem_original": "https://animefire.plus/img/animes/blue-period.webp",
      "imagem_pasta": "https://animefire.plus/img/animes/blue-period/",
      "secao": "dublados,legendados",
      "pagina": 12,
      "total_episodios": 12,
      "link_video": "https://animefire.plus/video/blue-period-dublado"
    },
    {
      "id": 442,
      "nome": "Blue Reflection Ray (Dublado)",
      "link": "https://animefire.plus/animes/blue-reflection-ray-dublado-todos-os-episodios",
      "texto_original": "Blue Reflection Ray (Dublado)",
      "rating": 5.87,
      "classificacao_etaria": "A14",
      "imagem_original": "https://animefire.plus/img/animes/blue-reflection-ray.webp",
      "imagem_pasta": "https://animefire.plus/img/animes/blue-reflection-ray/",
      "secao": "dublados,legendados",
      "pagina": 10,
      "total_episodios": 24,
      "link_video": "https://animefire.plus/video/blue-reflection-ray-dublado"
    },
    {
      "id": 443,
      "nome": "Blue Seed",
      "link": "https://animefire.plus/animes/blue-seed-todos-os-episodios",
      "texto_original": "Blue Seed",
      "rating": 7.09,
      "classificacao_etaria": "A14",
      "imagem_original": "https://animefire.plus/img/animes/blue-seed.webp",
      "imagem_pasta": "https://animefire.plus/img/animes/blue-seed/",
      "secao": "legendados",
      "pagina": 100,
      "total_episodios": 26,
      "link_video": "https://animefire.plus/video/blue-seed"
    },
    {
      "id": 444,
      "nome": "Blue Seed 2",
      "link": "https://animefire.plus/animes/blue-seed-2-todos-os-episodios",
      "texto_original": "Blue Seed 2",
      "rating": 6.45,
      "classificacao_etaria": "A16",
      "imagem_original": "https://animefire.plus/img/animes/blue-seed-2.webp",
      "imagem_pasta": "https://animefire.plus/img/animes/blue-seed-2/",
      "secao": "legendados",
      "pagina": 54,
      "total_episodios": 1,
      "link_video": "https://animefire.plus/video/blue-seed-2"
    },
    {
      "id": 445,
      "nome": "BNA (Dublado)",
      "link": "https://animefire.plus/animes/bna-dublado-todos-os-episodios",
      "texto_original": "BNA (Dublado)",
      "rating": 7.45,
      "classificacao_etaria": "A14",
      "imagem_original": "https://animefire.plus/img/animes/bna.webp",
      "imagem_pasta": "https://animefire.plus/img/animes/bna/",
      "secao": "dublados",
      "pagina": 21,
      "total_episodios": 12,
      "link_video": "https://animefire.plus/video/bna-dublado"
    },
    {
      "id": 446,
      "nome": "Bocchi the Rock!",
      "link": "https://animefire.plus/animes/bocchi-the-rock-todos-os-episodios",
      "texto_original": "Bocchi the Rock!",
      "rating": 8.75,
      "classificacao_etaria": "A14",
      "imagem_original": "https://animefire.plus/img/animes/bocchi-the-rock.webp",
      "imagem_pasta": "https://animefire.plus/img/animes/bocchi-the-rock/",
      "secao": "legendados",
      "pagina": 29,
      "total_episodios": 12,
      "link_video": "https://animefire.plus/video/bocchi-the-rock"
    },
    {
      "id": 447,
      "nome": "Boku dake ga Inai Machi",
      "link": "https://animefire.plus/animes/boku-dake-ga-inai-machi-todos-os-episodios",
      "texto_original": "Boku dake ga Inai Machi",
      "rating": 8.53,
      "classificacao_etaria": "A16",
      "imagem_original": "https://animefire.plus/img/animes/boku-dake-ga-inai-machi.webp",
      "imagem_pasta": "https://animefire.plus/img/animes/boku-dake-ga-inai-machi/",
      "secao": "legendados",
      "pagina": 118,
      "total_episodios": 0,
      "link_video": "https://animefire.plus/video/boku-dake-ga-inai-machi"
    },
    {
      "id": 448,
      "nome": "Boku no Hero Academia (Dublado)",
      "link": "https://animefire.plus/animes/boku-no-hero-academia-dublado-todos-os-episodios",
      "texto_original": "Boku no Hero Academia (Dublado)",
      "rating": 8.16,
      "classificacao_etaria": "A14",
      "imagem_original": "https://animefire.plus/img/animes/boku-no-hero-academia.webp",
      "imagem_pasta": "https://animefire.plus/img/animes/boku-no-hero-academia/",
      "secao": "dublados,legendados",
      "pagina": 20,
      "total_episodios": 13,
      "link_video": "https://animefire.plus/video/boku-no-hero-academia-dublado"
    },
    {
      "id": 449,
      "nome": "Boku no Hero Academia 2nd Season",
      "link": "https://animefire.plus/animes/boku-no-hero-academia-2nd-season-todos-os-episodios",
      "texto_original": "Boku no Hero Academia 2nd Season",
      "rating": 8.65,
      "classificacao_etaria": "A14",
      "imagem_original": "https://animefire.plus/img/animes/boku-no-hero-academia-2nd-season.webp",
      "imagem_pasta": "https://animefire.plus/img/animes/boku-no-hero-academia-2nd-season/",
      "secao": "legendados",
      "pagina": 137,
      "total_episodios": 0,
      "link_video": "https://animefire.plus/video/boku-no-hero-academia-2nd-season"
    },
    {
      "id": 450,
      "nome": "Boku no Hero Academia 2nd Season (Dublado)",
      "link": "https://animefire.plus/animes/boku-no-hero-academia-2-dublado-todos-os-episodios",
      "texto_original": "Boku no Hero Academia 2nd Season (Dublado)",
      "rating": 8.39,
      "classificacao_etaria": "A14",
      "imagem_original": "https://animefire.plus/img/animes/boku-no-hero-academia-2.webp",
      "imagem_pasta": "https://animefire.plus/img/animes/boku-no-hero-academia-2/",
      "secao": "dublados",
      "pagina": 19,
      "total_episodios": 25,
      "link_video": "https://animefire.plus/video/boku-no-hero-academia-2-dublado"
    },
    {
      "id": 451,
      "nome": "Boku no Hero Academia 3rd Season",
      "link": "https://animefire.plus/animes/boku-no-hero-academia-3rd-season-todos-os-episodios",
      "texto_original": "Boku no Hero Academia 3rd Season",
      "rating": 8.62,
      "classificacao_etaria": "A14",
      "imagem_original": "https://animefire.plus/img/animes/boku-no-hero-academia-3rd-season.webp",
      "imagem_pasta": "https://animefire.plus/img/animes/boku-no-hero-academia-3rd-season/",
      "secao": "legendados",
      "pagina": 122,
      "total_episodios": 0,
      "link_video": "https://animefire.plus/video/boku-no-hero-academia-3rd-season"
    },
    {
      "id": 452,
      "nome": "Boku no Hero Academia 3rd Season (Dublado)",
      "link": "https://animefire.plus/animes/boku-no-hero-academia-3-dublado-todos-os-episodios",
      "texto_original": "Boku no Hero Academia 3rd Season (Dublado)",
      "rating": 8.31,
      "classificacao_etaria": "A14",
      "imagem_original": "https://animefire.plus/img/animes/boku-no-hero-academia-3.webp",
      "imagem_pasta": "https://animefire.plus/img/animes/boku-no-hero-academia-3/",
      "secao": "dublados",
      "pagina": 19,
      "total_episodios": 25,
      "link_video": "https://animefire.plus/video/boku-no-hero-academia-3-dublado"
    },
    {
      "id": 453,
      "nome": "Boku no Hero Academia 4th Season",
      "link": "https://animefire.plus/animes/boku-no-hero-academia-4th-season-todos-os-episodios",
      "texto_original": "Boku no Hero Academia 4th Season",
      "rating": 8.06,
      "classificacao_etaria": "A14",
      "imagem_original": "https://animefire.plus/img/animes/boku-no-hero-academia-4th-season.webp",
      "imagem_pasta": "https://animefire.plus/img/animes/boku-no-hero-academia-4th-season/",
      "secao": "legendados",
      "pagina": 109,
      "total_episodios": 0,
      "link_video": "https://animefire.plus/video/boku-no-hero-academia-4th-season"
    },
    {
      "id": 454,
      "nome": "Boku no Hero Academia 4th Season (Dublado)",
      "link": "https://animefire.plus/animes/boku-no-hero-academia-4-dublado-todos-os-episodios",
      "texto_original": "Boku no Hero Academia 4th Season (Dublado)",
      "rating": 8.11,
      "classificacao_etaria": "A14",
      "imagem_original": "https://animefire.plus/img/animes/boku-no-hero-academia-4.webp",
      "imagem_pasta": "https://animefire.plus/img/animes/boku-no-hero-academia-4/",
      "secao": "dublados",
      "pagina": 19,
      "total_episodios": 25,
      "link_video": "https://animefire.plus/video/boku-no-hero-academia-4-dublado"
    },
    {
      "id": 455,
      "nome": "Boku no Hero Academia 5th Season",
      "link": "https://animefire.plus/animes/boku-no-hero-academia-5th-season-todos-os-episodios",
      "texto_original": "Boku no Hero Academia 5th Season",
      "rating": 7.35,
      "classificacao_etaria": "A14",
      "imagem_original": "https://animefire.plus/img/animes/boku-no-hero-academia-5th-season.webp",
      "imagem_pasta": "https://animefire.plus/img/animes/boku-no-hero-academia-5th-season/",
      "secao": "legendados",
      "pagina": 46,
      "total_episodios": 0,
      "link_video": "https://animefire.plus/video/boku-no-hero-academia-5th-season"
    },
    {
      "id": 456,
      "nome": "Boku no Hero Academia 5th Season (Dublado)",
      "link": "https://animefire.plus/animes/boku-no-hero-academia-5-dublado-todos-os-episodios",
      "texto_original": "Boku no Hero Academia 5th Season (Dublado)",
      "rating": 7.35,
      "classificacao_etaria": "A14",
      "imagem_original": "https://animefire.plus/img/animes/boku-no-hero-academia-5.webp",
      "imagem_pasta": "https://animefire.plus/img/animes/boku-no-hero-academia-5/",
      "secao": "dublados",
      "pagina": 18,
      "total_episodios": 1,
      "link_video": "https://animefire.plus/video/boku-no-hero-academia-5-dublado"
    },
    {
      "id": 457,
      "nome": "Boku no Hero Academia 6th Season (Dublado)",
      "link": "https://animefire.plus/animes/boku-no-hero-academia-6th-season-dublado-todos-os-episodios",
      "texto_original": "Boku no Hero Academia 6th Season (Dublado)",
      "rating": 8.23,
      "classificacao_etaria": "A14",
      "imagem_original": "https://animefire.plus/img/animes/boku-no-hero-academia-6th-season.webp",
      "imagem_pasta": "https://animefire.plus/img/animes/boku-no-hero-academia-6th-season/",
      "secao": "dublados,legendados,lancamentos",
      "pagina": 9,
      "total_episodios": 25,
      "link_video": "https://animefire.plus/video/boku-no-hero-academia-6th-season-dublado"
    },
    {
      "id": 458,
      "nome": "Boku no Hero Academia 7th Season",
      "link": "https://animefire.plus/animes/boku-no-hero-academia-7th-season-todos-os-episodios",
      "texto_original": "Boku no Hero Academia 7th Season",
      "rating": null,
      "classificacao_etaria": "A14",
      "imagem_original": "https://animefire.plus/img/animes/boku-no-hero-academia-7th-season.webp",
      "imagem_pasta": "https://animefire.plus/img/animes/boku-no-hero-academia-7th-season/",
      "secao": "legendados",
      "pagina": 19,
      "total_episodios": 21,
      "link_video": "https://animefire.plus/video/boku-no-hero-academia-7th-season"
    },
    {
      "id": 459,
      "nome": "Boku no Hero Academia: Ikinokore! Kesshi no Survival Kunren (Dublado)",
      "link": "https://animefire.plus/animes/boku-no-hero-academia-ikinokore-kesshi-no-survival-kunren-dublado-todos-os-episodios",
      "texto_original": "Boku no Hero Academia: Ikinokore! Kesshi no Survival Kunren (Dublado)",
      "rating": 7.1,
      "classificacao_etaria": "A14",
      "imagem_original": "https://animefire.plus/img/animes/boku-no-hero-academia-ikinokore-kesshi-no-survival-kunren.webp",
      "imagem_pasta": "https://animefire.plus/img/animes/boku-no-hero-academia-ikinokore-kesshi-no-survival-kunren/",
      "secao": "dublados,legendados",
      "pagina": 18,
      "total_episodios": 2,
      "link_video": "https://animefire.plus/video/boku-no-hero-academia-ikinokore-kesshi-no-survival-kunren-dublado"
    },
    {
      "id": 460,
      "nome": "Boku no Hero Academia: Memories (Dublado)",
      "link": "https://animefire.plus/animes/boku-no-hero-academia-memories-dublado-todos-os-episodios",
      "texto_original": "Boku no Hero Academia: Memories (Dublado)",
      "rating": 6.66,
      "classificacao_etaria": "A14",
      "imagem_original": "https://animefire.plus/img/animes/boku-no-hero-academia-memories.webp",
      "imagem_pasta": "https://animefire.plus/img/animes/boku-no-hero-academia-memories/",
      "secao": "dublados",
      "pagina": 2,
      "total_episodios": 0,
      "link_video": "https://animefire.plus/video/boku-no-hero-academia-memories-dublado"
    }
  ],
  "pagination": {
    "current_page": 23,
    "per_page": 20,
    "total_items": 4368,
    "total_pages": 219,
    "has_next": true,
    "has_prev": true
  }
}
