{
  "message": "Lista de animes",
  "data": [
    {
      "id": 361,
      "nome": "Battle Spirits: Ryuuko no Ken (Dublado)",
      "link": "https://animefire.plus/animes/battle-spirits-ryuuko-no-ken-dublado-todos-os-episodios",
      "texto_original": "Battle Spirits: Ryuuko no Ken (Dublado)",
      "rating": 4.86,
      "classificacao_etaria": "A14",
      "imagem_original": "https://animefire.plus/img/animes/battle-spirits-ryuuko-no-ken.webp",
      "imagem_pasta": "https://animefire.plus/img/animes/battle-spirits-ryuuko-no-ken/",
      "secao": "dublados",
      "pagina": 22,
      "total_episodios": 1,
      "link_video": "https://animefire.plus/video/battle-spirits-ryuuko-no-ken-dublado"
    },
    {
      "id": 362,
      "nome": "Bean Bandit",
      "link": "https://animefire.plus/animes/bean-bandit-todos-os-episodios",
      "texto_original": "Bean Bandit",
      "rating": 5.09,
      "classificacao_etaria": "A14",
      "imagem_original": "https://animefire.plus/img/animes/bean-bandit.webp",
      "imagem_pasta": "https://animefire.plus/img/animes/bean-bandit/",
      "secao": "legendados",
      "pagina": 33,
      "total_episodios": 1,
      "link_video": "https://animefire.plus/video/bean-bandit"
    },
    {
      "id": 363,
      "nome": "Beastars (Dublado)",
      "link": "https://animefire.plus/animes/beastars-dublado-todos-os-episodios",
      "texto_original": "Beastars (Dublado)",
      "rating": 8.09,
      "classificacao_etaria": "A16",
      "imagem_original": "https://animefire.plus/img/animes/beastars.webp",
      "imagem_pasta": "https://animefire.plus/img/animes/beastars/",
      "secao": "dublados,legendados",
      "pagina": 25,
      "total_episodios": 12,
      "link_video": "https://animefire.plus/video/beastars-dublado"
    },
    {
      "id": 364,
      "nome": "Beastars 2nd Season (Dublado)",
      "link": "https://animefire.plus/animes/beastars-2nd-season-dublado-todos-os-episodios",
      "texto_original": "Beastars 2nd Season (Dublado)",
      "rating": 7.78,
      "classificacao_etaria": "A16",
      "imagem_original": "https://animefire.plus/img/animes/beastars-2nd-season.webp",
      "imagem_pasta": "https://animefire.plus/img/animes/beastars-2nd-season/",
      "secao": "dublados,legendados",
      "pagina": 16,
      "total_episodios": 12,
      "link_video": "https://animefire.plus/video/beastars-2nd-season-dublado"
    },
    {
      "id": 365,
      "nome": "Beastars Final Season",
      "link": "https://animefire.plus/animes/beastars-final-season-todos-os-episodios",
      "texto_original": "Beastars Final Season",
      "rating": null,
      "classificacao_etaria": "A16",
      "imagem_original": "https://animefire.plus/img/animes/beastars-final-season.webp",
      "imagem_pasta": "https://animefire.plus/img/animes/beastars-final-season/",
      "secao": "legendados,lancamentos",
      "pagina": 9,
      "total_episodios": 0,
      "link_video": "https://animefire.plus/video/beastars-final-season"
    },
    {
      "id": 366,
      "nome": "Beatless",
      "link": "https://animefire.plus/animes/beatless-todos-os-episodios",
      "texto_original": "Beatless",
      "rating": 6.27,
      "classificacao_etaria": "A14",
      "imagem_original": "https://animefire.plus/img/animes/beatless.webp",
      "imagem_pasta": "https://animefire.plus/img/animes/beatless/",
      "secao": "legendados",
      "pagina": 113,
      "total_episodios": 18,
      "link_video": "https://animefire.plus/video/beatless"
    },
    {
      "id": 367,
      "nome": "Beatless Final Stage",
      "link": "https://animefire.plus/animes/beatless-final-stage-todos-os-episodios",
      "texto_original": "Beatless Final Stage",
      "rating": 6.87,
      "classificacao_etaria": "A14",
      "imagem_original": "https://animefire.plus/img/animes/beatless-final-stage.webp",
      "imagem_pasta": "https://animefire.plus/img/animes/beatless-final-stage/",
      "secao": "legendados",
      "pagina": 159,
      "total_episodios": 4,
      "link_video": "https://animefire.plus/video/beatless-final-stage"
    },
    {
      "id": 368,
      "nome": "Beatless Intermission",
      "link": "https://animefire.plus/animes/beatless-intermission-todos-os-episodios",
      "texto_original": "Beatless Intermission",
      "rating": 5.35,
      "classificacao_etaria": "A14",
      "imagem_original": "https://animefire.plus/img/animes/beatless-intermission.webp",
      "imagem_pasta": "https://animefire.plus/img/animes/beatless-intermission/",
      "secao": "legendados",
      "pagina": 134,
      "total_episodios": 4,
      "link_video": "https://animefire.plus/video/beatless-intermission"
    },
    {
      "id": 369,
      "nome": "Beck",
      "link": "https://animefire.plus/animes/beck-todos-os-episodios",
      "texto_original": "Beck",
      "rating": 8.35,
      "classificacao_etaria": "A16",
      "imagem_original": "https://animefire.plus/img/animes/beck.webp",
      "imagem_pasta": "https://animefire.plus/img/animes/beck/",
      "secao": "legendados",
      "pagina": 153,
      "total_episodios": 26,
      "link_video": "https://animefire.plus/video/beck"
    },
    {
      "id": 370,
      "nome": "Beelzebub",
      "link": "https://animefire.plus/animes/beelzebub-todos-os-episodios",
      "texto_original": "Beelzebub",
      "rating": 8.01,
      "classificacao_etaria": "A14",
      "imagem_original": "https://animefire.plus/img/animes/beelzebub.webp",
      "imagem_pasta": "https://animefire.plus/img/animes/beelzebub/",
      "secao": "legendados",
      "pagina": 158,
      "total_episodios": 53,
      "link_video": "https://animefire.plus/video/beelzebub"
    },
    {
      "id": 371,
      "nome": "Beelzebub-jou no Okinimesu mama.",
      "link": "https://animefire.plus/animes/beelzebub-jou-no-okinimesu-mama-todos-os-episodios",
      "texto_original": "Beelzebub-jou no Okinimesu mama.",
      "rating": 7.35,
      "classificacao_etaria": "A14",
      "imagem_original": "https://animefire.plus/img/animes/beelzebub-jou-no-okinimesu-mama.webp",
      "imagem_pasta": "https://animefire.plus/img/animes/beelzebub-jou-no-okinimesu-mama/",
      "secao": "legendados",
      "pagina": 145,
      "total_episodios": 12,
      "link_video": "https://animefire.plus/video/beelzebub-jou-no-okinimesu-mama"
    },
    {
      "id": 372,
      "nome": "Ben-To",
      "link": "https://animefire.plus/animes/ben-to-todos-os-episodios",
      "texto_original": "Ben-To",
      "rating": 7.38,
      "classificacao_etaria": "A14",
      "imagem_original": "https://animefire.plus/img/animes/ben-to.webp",
      "imagem_pasta": "https://animefire.plus/img/animes/ben-to/",
      "secao": "legendados",
      "pagina": 165,
      "total_episodios": 0,
      "link_video": "https://animefire.plus/video/ben-to"
    },
    {
      "id": 373,
      "nome": "Benriya Saitou-san, Isekai ni Iku",
      "link": "https://animefire.plus/animes/benriya-saitou-san-isekai-ni-iku-todos-os-episodios",
      "texto_original": "Benriya Saitou-san, Isekai ni Iku",
      "rating": 7.38,
      "classificacao_etaria": "A16",
      "imagem_original": "https://animefire.plus/img/animes/benriya-saitou-san-isekai-ni-iku.webp",
      "imagem_pasta": "https://animefire.plus/img/animes/benriya-saitou-san-isekai-ni-iku/",
      "secao": "legendados",
      "pagina": 26,
      "total_episodios": 12,
      "link_video": "https://animefire.plus/video/benriya-saitou-san-isekai-ni-iku"
    },
    {
      "id": 374,
      "nome": "Bermuda Triangle: Colorful Pastrale",
      "link": "https://animefire.plus/animes/bermuda-triangle-colorful-pastrale-todos-os-episodios",
      "texto_original": "Bermuda Triangle: Colorful Pastrale",
      "rating": 5.46,
      "classificacao_etaria": "A14",
      "imagem_original": "https://animefire.plus/img/animes/bermuda-triangle-colorful-pastrale.webp",
      "imagem_pasta": "https://animefire.plus/img/animes/bermuda-triangle-colorful-pastrale/",
      "secao": "legendados",
      "pagina": 99,
      "total_episodios": 12,
      "link_video": "https://animefire.plus/video/bermuda-triangle-colorful-pastrale"
    },
    {
      "id": 375,
      "nome": "Bernard-jou Iwaku.",
      "link": "https://animefire.plus/animes/bernard-jou-iwaku-todos-os-episodios",
      "texto_original": "Bernard-jou Iwaku.",
      "rating": 6.01,
      "classificacao_etaria": "A14",
      "imagem_original": "https://animefire.plus/img/animes/bernard-jou-iwaku.webp",
      "imagem_pasta": "https://animefire.plus/img/animes/bernard-jou-iwaku/",
      "secao": "legendados",
      "pagina": 179,
      "total_episodios": 3,
      "link_video": "https://animefire.plus/video/bernard-jou-iwaku"
    },
    {
      "id": 376,
      "nome": "Berserk",
      "link": "https://animefire.plus/animes/berserk-todos-os-episodios",
      "texto_original": "Berserk",
      "rating": 6.51,
      "classificacao_etaria": "A18",
      "imagem_original": "https://animefire.plus/img/animes/berserk.webp",
      "imagem_pasta": "https://animefire.plus/img/animes/berserk/",
      "secao": "legendados",
      "pagina": 66,
      "total_episodios": 12,
      "link_video": "https://animefire.plus/video/berserk"
    },
    {
      "id": 377,
      "nome": "Berserk 2nd Season",
      "link": "https://animefire.plus/animes/berserk-2nd-season-todos-os-episodios",
      "texto_original": "Berserk 2nd Season",
      "rating": 6.98,
      "classificacao_etaria": "A16",
      "imagem_original": "https://animefire.plus/img/animes/berserk-2nd-season.webp",
      "imagem_pasta": "https://animefire.plus/img/animes/berserk-2nd-season/",
      "secao": "legendados",
      "pagina": 171,
      "total_episodios": 13,
      "link_video": "https://animefire.plus/video/berserk-2nd-season"
    },
    {
      "id": 378,
      "nome": "Berserk: Ougon Jidai-hen - Memorial Edition (Dublado)",
      "link": "https://animefire.plus/animes/berserk-ougon-jidai-hen---memorial-edition-dublado-todos-os-episodios",
      "texto_original": "Berserk: Ougon Jidai-hen - Memorial Edition (Dublado)",
      "rating": 7.9,
      "classificacao_etaria": "A18",
      "imagem_original": "https://animefire.plus/img/animes/berserk-ougon-jidai-hen---memorial-edition.webp",
      "imagem_pasta": "https://animefire.plus/img/animes/berserk-ougon-jidai-hen---memorial-edition/",
      "secao": "dublados,legendados",
      "pagina": 9,
      "total_episodios": 13,
      "link_video": "https://animefire.plus/video/berserk-ougon-jidai-hen---memorial-edition-dublado"
    },
    {
      "id": 379,
      "nome": "Beyblade Burst",
      "link": "https://animefire.plus/animes/beyblade-burst-todos-os-episodios",
      "texto_original": "Beyblade Burst",
      "rating": 6.58,
      "classificacao_etaria": "A10",
      "imagem_original": "https://animefire.plus/img/animes/beyblade-burst.webp",
      "imagem_pasta": "https://animefire.plus/img/animes/beyblade-burst/",
      "secao": "legendados",
      "pagina": 173,
      "total_episodios": 2,
      "link_video": "https://animefire.plus/video/beyblade-burst"
    },
    {
      "id": 380,
      "nome": "Beyblade Burst Dynamite Battle",
      "link": "https://animefire.plus/animes/beyblade-burst-dynamite-battle-todos-os-episodios",
      "texto_original": "Beyblade Burst Dynamite Battle",
      "rating": 6.23,
      "classificacao_etaria": null,
      "imagem_original": "https://animefire.plus/img/animes/beyblade-burst-dynamite-battle.webp",
      "imagem_pasta": "https://animefire.plus/img/animes/beyblade-burst-dynamite-battle/",
      "secao": "legendados,lancamentos",
      "pagina": 45,
      "total_episodios": 1,
      "link_video": "https://animefire.plus/video/beyblade-burst-dynamite-battle"
    }
  ],
  "pagination": {
    "current_page": 19,
    "per_page": 20,
    "total_items": 4368,
    "total_pages": 219,
    "has_next": true,
    "has_prev": true
  }
}
