{
  "message": "Lista de animes",
  "data": [
    {
      "id": 981,
      "nome": "Fatal Fury 2: The New Battle (Dublado)",
      "link": "https://animefire.plus/animes/fatal-fury-2-the-new-battle-dublado-todos-os-episodios",
      "texto_original": "Fatal Fury 2: The New Battle (Dublado)",
      "rating": 6.76,
      "classificacao_etaria": "A16",
      "imagem_original": "https://animefire.plus/img/animes/fatal-fury-2-the-new-battle.webp",
      "imagem_pasta": "https://animefire.plus/img/animes/fatal-fury-2-the-new-battle/",
      "secao": "dublados",
      "pagina": 21,
      "total_episodios": 1,
      "link_video": "https://animefire.plus/video/fatal-fury-2-the-new-battle-dublado"
    },
    {
      "id": 982,
      "nome": "Fatal Fury: Legend of the Hungry Wolf (Dublado)",
      "link": "https://animefire.plus/animes/fatal-fury-legend-of-the-hungry-wolf-dublado-todos-os-episodios",
      "texto_original": "Fatal Fury: Legend of the Hungry Wolf (Dublado)",
      "rating": 6.47,
      "classificacao_etaria": "A14",
      "imagem_original": "https://animefire.plus/img/animes/fatal-fury-legend-of-the-hungry-wolf.webp",
      "imagem_pasta": "https://animefire.plus/img/animes/fatal-fury-legend-of-the-hungry-wolf/",
      "secao": "dublados",
      "pagina": 21,
      "total_episodios": 1,
      "link_video": "https://animefire.plus/video/fatal-fury-legend-of-the-hungry-wolf-dublado"
    },
    {
      "id": 983,
      "nome": "Fate/Apocrypha (Dublado)",
      "link": "https://animefire.plus/animes/fate-apocrypha-dublado-todos-os-episodios",
      "texto_original": "Fate/Apocrypha (Dublado)",
      "rating": 7.16,
      "classificacao_etaria": "A16",
      "imagem_original": "https://animefire.plus/img/animes/fate-apocrypha.webp",
      "imagem_pasta": "https://animefire.plus/img/animes/fate-apocrypha/",
      "secao": "dublados,legendados",
      "pagina": 17,
      "total_episodios": 25,
      "link_video": "https://animefire.plus/video/fate-apocrypha-dublado"
    },
    {
      "id": 984,
      "nome": "Fate/Extra: Last Encore - Illustrias Tendousetsu",
      "link": "https://animefire.plus/animes/fate-extra-last-encore---illustrias-tendousetsu-todos-os-episodios",
      "texto_original": "Fate/Extra: Last Encore - Illustrias Tendousetsu",
      "rating": 6.65,
      "classificacao_etaria": "A16",
      "imagem_original": "https://animefire.plus/img/animes/fate-extra-last-encore---illustrias-tendousetsu.webp",
      "imagem_pasta": "https://animefire.plus/img/animes/fate-extra-last-encore---illustrias-tendousetsu/",
      "secao": "legendados",
      "pagina": 89,
      "total_episodios": 3,
      "link_video": "https://animefire.plus/video/fate-extra-last-encore---illustrias-tendousetsu"
    },
    {
      "id": 985,
      "nome": "Fate/Extra: Last Encore (Dublado)",
      "link": "https://animefire.plus/animes/fate-extra-last-encore-dublado-todos-os-episodios",
      "texto_original": "Fate/Extra: Last Encore (Dublado)",
      "rating": 6.38,
      "classificacao_etaria": "A16",
      "imagem_original": "https://animefire.plus/img/animes/fate-extra-last-encore.webp",
      "imagem_pasta": "https://animefire.plus/img/animes/fate-extra-last-encore/",
      "secao": "dublados,legendados",
      "pagina": 24,
      "total_episodios": 10,
      "link_video": "https://animefire.plus/video/fate-extra-last-encore-dublado"
    },
    {
      "id": 986,
      "nome": "Fate/Grand Carnival",
      "link": "https://animefire.plus/animes/fate-grand-carnival-todos-os-episodios",
      "texto_original": "Fate/Grand Carnival",
      "rating": 8.18,
      "classificacao_etaria": "A14",
      "imagem_original": "https://animefire.plus/img/animes/fate-grand-carnival.webp",
      "imagem_pasta": "https://animefire.plus/img/animes/fate-grand-carnival/",
      "secao": "legendados,lancamentos",
      "pagina": 48,
      "total_episodios": 2,
      "link_video": "https://animefire.plus/video/fate-grand-carnival"
    },
    {
      "id": 987,
      "nome": "Fate/Grand Order: First Order",
      "link": "https://animefire.plus/animes/fate-grand-order-first-order-todos-os-episodios",
      "texto_original": "Fate/Grand Order: First Order",
      "rating": 6.85,
      "classificacao_etaria": "A14",
      "imagem_original": "https://animefire.plus/img/animes/fate-grand-order-first-order.webp",
      "imagem_pasta": "https://animefire.plus/img/animes/fate-grand-order-first-order/",
      "secao": "legendados",
      "pagina": 82,
      "total_episodios": 1,
      "link_video": "https://animefire.plus/video/fate-grand-order-first-order"
    },
    {
      "id": 988,
      "nome": "Fate/Grand Order: Himuro no Tenchi - 7-nin no Saikyou Ijin-hen",
      "link": "https://animefire.plus/animes/fate-grand-order-himuro-no-tenchi---7-nin-no-saikyou-ijin-hen-todos-os-episodios",
      "texto_original": "Fate/Grand Order: Himuro no Tenchi - 7-nin no Saikyou Ijin-hen",
      "rating": 6.37,
      "classificacao_etaria": "A14",
      "imagem_original": "https://animefire.plus/img/animes/fate-grand-order-himuro-no-tenchi---7-nin-no-saikyou-ijin-hen.webp",
      "imagem_pasta": "https://animefire.plus/img/animes/fate-grand-order-himuro-no-tenchi---7-nin-no-saikyou-ijin-hen/",
      "secao": "legendados",
      "pagina": 73,
      "total_episodios": 1,
      "link_video": "https://animefire.plus/video/fate-grand-order-himuro-no-tenchi---7-nin-no-saikyou-ijin-hen"
    },
    {
      "id": 989,
      "nome": "Fate/Grand Order: Moonlight/Lostroom",
      "link": "https://animefire.plus/animes/fate-grand-order-moonlight-lostroom-todos-os-episodios",
      "texto_original": "Fate/Grand Order: Moonlight/Lostroom",
      "rating": 6.27,
      "classificacao_etaria": "A14",
      "imagem_original": "https://animefire.plus/img/animes/fate-grand-order-moonlight-lostroom.webp",
      "imagem_pasta": "https://animefire.plus/img/animes/fate-grand-order-moonlight-lostroom/",
      "secao": "legendados",
      "pagina": 97,
      "total_episodios": 1,
      "link_video": "https://animefire.plus/video/fate-grand-order-moonlight-lostroom"
    },
    {
      "id": 990,
      "nome": "Fate/Grand Order: Zettai Majuu Sensen Babylonia",
      "link": "https://animefire.plus/animes/fate-grand-order-zettai-majuu-sensen-babylonia-todos-os-episodios",
      "texto_original": "Fate/Grand Order: Zettai Majuu Sensen Babylonia",
      "rating": 7.95,
      "classificacao_etaria": "A14",
      "imagem_original": "https://animefire.plus/img/animes/fate-grand-order-zettai-majuu-sensen-babylonia.webp",
      "imagem_pasta": "https://animefire.plus/img/animes/fate-grand-order-zettai-majuu-sensen-babylonia/",
      "secao": "legendados",
      "pagina": 110,
      "total_episodios": 1,
      "link_video": "https://animefire.plus/video/fate-grand-order-zettai-majuu-sensen-babylonia"
    },
    {
      "id": 991,
      "nome": "Fate/Grand Order: Zettai Majuu Sensen Babylonia - Initium Iter",
      "link": "https://animefire.plus/animes/fate-grand-order-zettai-majuu-sensen-babylonia---initium-iter-todos-os-episodios",
      "texto_original": "Fate/Grand Order: Zettai Majuu Sensen Babylonia - Initium Iter",
      "rating": 7.21,
      "classificacao_etaria": "A14",
      "imagem_original": "https://animefire.plus/img/animes/fate-grand-order-zettai-majuu-sensen-babylonia---initium-iter.webp",
      "imagem_pasta": "https://animefire.plus/img/animes/fate-grand-order-zettai-majuu-sensen-babylonia---initium-iter/",
      "secao": "legendados",
      "pagina": 105,
      "total_episodios": 1,
      "link_video": "https://animefire.plus/video/fate-grand-order-zettai-majuu-sensen-babylonia---initium-iter"
    },
    {
      "id": 992,
      "nome": "Fate/kaleid liner Prisma☆Illya",
      "link": "https://animefire.plus/animes/fate-kaleid-liner-prisma-illya-todos-os-episodios",
      "texto_original": "Fate/kaleid liner Prisma☆Illya",
      "rating": 7.18,
      "classificacao_etaria": "A14",
      "imagem_original": "https://animefire.plus/img/animes/fate-kaleid-liner-prisma-illya.webp",
      "imagem_pasta": "https://animefire.plus/img/animes/fate-kaleid-liner-prisma-illya/",
      "secao": "legendados",
      "pagina": 89,
      "total_episodios": 5,
      "link_video": "https://animefire.plus/video/fate-kaleid-liner-prisma-illya"
    },
    {
      "id": 993,
      "nome": "Fate/kaleid Liner Prisma☆Illya 2wei Herz!",
      "link": "https://animefire.plus/animes/fate-kaleid-liner-prisma-illya-2wei-herz-todos-os-episodios",
      "texto_original": "Fate/kaleid Liner Prisma☆Illya 2wei Herz!",
      "rating": 7.35,
      "classificacao_etaria": "A14",
      "imagem_original": "https://animefire.plus/img/animes/fate-kaleid-liner-prisma-illya-2wei-herz.webp",
      "imagem_pasta": "https://animefire.plus/img/animes/fate-kaleid-liner-prisma-illya-2wei-herz/",
      "secao": "legendados",
      "pagina": 98,
      "total_episodios": 10,
      "link_video": "https://animefire.plus/video/fate-kaleid-liner-prisma-illya-2wei-herz"
    },
    {
      "id": 994,
      "nome": "Fate/kaleid liner Prisma☆Illya 2wei!",
      "link": "https://animefire.plus/animes/fate-kaleid-liner-prisma-illya-2wei-todos-os-episodios",
      "texto_original": "Fate/kaleid liner Prisma☆Illya 2wei!",
      "rating": 7.37,
      "classificacao_etaria": "A14",
      "imagem_original": "https://animefire.plus/img/animes/fate-kaleid-liner-prisma-illya-2wei.webp",
      "imagem_pasta": "https://animefire.plus/img/animes/fate-kaleid-liner-prisma-illya-2wei/",
      "secao": "legendados",
      "pagina": 89,
      "total_episodios": 10,
      "link_video": "https://animefire.plus/video/fate-kaleid-liner-prisma-illya-2wei"
    },
    {
      "id": 995,
      "nome": "Fate/kaleid liner Prisma☆Illya 3rei!!",
      "link": "https://animefire.plus/animes/fate-kaleid-liner-prisma-illya-3rei-todos-os-episodios",
      "texto_original": "Fate/kaleid liner Prisma☆Illya 3rei!!",
      "rating": 7.62,
      "classificacao_etaria": "A14",
      "imagem_original": "https://animefire.plus/img/animes/fate-kaleid-liner-prisma-illya-3rei.webp",
      "imagem_pasta": "https://animefire.plus/img/animes/fate-kaleid-liner-prisma-illya-3rei/",
      "secao": "legendados",
      "pagina": 89,
      "total_episodios": 12,
      "link_video": "https://animefire.plus/video/fate-kaleid-liner-prisma-illya-3rei"
    },
    {
      "id": 996,
      "nome": "Fate/Prototype",
      "link": "https://animefire.plus/animes/fate-prototype-todos-os-episodios",
      "texto_original": "Fate/Prototype",
      "rating": 6.79,
      "classificacao_etaria": "A14",
      "imagem_original": "https://animefire.plus/img/animes/fate-prototype.webp",
      "imagem_pasta": "https://animefire.plus/img/animes/fate-prototype/",
      "secao": "legendados",
      "pagina": 73,
      "total_episodios": 1,
      "link_video": "https://animefire.plus/video/fate-prototype"
    },
    {
      "id": 997,
      "nome": "Fate/Stay Night (Dublado)",
      "link": "https://animefire.plus/animes/fate-stay-night-dublado-todos-os-episodios",
      "texto_original": "Fate/Stay Night (Dublado)",
      "rating": 7.46,
      "classificacao_etaria": "A16",
      "imagem_original": "https://animefire.plus/img/animes/fate-stay-night.webp",
      "imagem_pasta": "https://animefire.plus/img/animes/fate-stay-night/",
      "secao": "dublados,legendados",
      "pagina": 26,
      "total_episodios": 24,
      "link_video": "https://animefire.plus/video/fate-stay-night-dublado"
    },
    {
      "id": 998,
      "nome": "Fate/stay night: Unlimited Blade Works",
      "link": "https://animefire.plus/animes/fate-stay-night-unlimited-blade-works-todos-os-episodios",
      "texto_original": "Fate/stay night: Unlimited Blade Works",
      "rating": 8.28,
      "classificacao_etaria": "A16",
      "imagem_original": "https://animefire.plus/img/animes/fate-stay-night-unlimited-blade-works.webp",
      "imagem_pasta": "https://animefire.plus/img/animes/fate-stay-night-unlimited-blade-works/",
      "secao": "legendados",
      "pagina": 90,
      "total_episodios": 12,
      "link_video": "https://animefire.plus/video/fate-stay-night-unlimited-blade-works"
    },
    {
      "id": 999,
      "nome": "Fate/stay night: Unlimited Blade Works 2nd Season",
      "link": "https://animefire.plus/animes/fate-stay-night-unlimited-blade-works-2nd-season-todos-os-episodios",
      "texto_original": "Fate/stay night: Unlimited Blade Works 2nd Season",
      "rating": 8.35,
      "classificacao_etaria": "A16",
      "imagem_original": "https://animefire.plus/img/animes/fate-stay-night-unlimited-blade-works-2nd-season.webp",
      "imagem_pasta": "https://animefire.plus/img/animes/fate-stay-night-unlimited-blade-works-2nd-season/",
      "secao": "legendados",
      "pagina": 73,
      "total_episodios": 14,
      "link_video": "https://animefire.plus/video/fate-stay-night-unlimited-blade-works-2nd-season"
    },
    {
      "id": 1000,
      "nome": "Fate/strange Fake",
      "link": "https://animefire.plus/animes/fate-strange-fake-todos-os-episodios",
      "texto_original": "Fate/strange Fake",
      "rating": null,
      "classificacao_etaria": "A16",
      "imagem_original": "https://animefire.plus/img/animes/fate-strange-fake.webp",
      "imagem_pasta": "https://animefire.plus/img/animes/fate-strange-fake/",
      "secao": "legendados,lancamentos",
      "pagina": 8,
      "total_episodios": 1,
      "link_video": "https://animefire.plus/video/fate-strange-fake"
    }
  ],
  "pagination": {
    "current_page": 50,
    "per_page": 20,
    "total_items": 4368,
    "total_pages": 219,
    "has_next": true,
    "has_prev": true
  }
}
