{
  "message": "Lista de animes",
  "data": [
    {
      "id": 2641,
      "nome": "Nagareboshi Lens",
      "link": "https://animefire.plus/animes/nagareboshi-lens-todos-os-episodios",
      "texto_original": "Nagareboshi Lens",
      "rating": 6.72,
      "classificacao_etaria": null,
      "imagem_original": "https://animefire.plus/img/animes/nagareboshi-lens.webp",
      "imagem_pasta": "https://animefire.plus/img/animes/nagareboshi-lens/",
      "secao": "legendados",
      "pagina": 106,
      "total_episodios": 1,
      "link_video": "https://animefire.plus/video/nagareboshi-lens"
    },
    {
      "id": 2642,
      "nome": "Nagasarete Airantou",
      "link": "https://animefire.plus/animes/nagasarete-airantou-todos-os-episodios",
      "texto_original": "Nagasarete Airantou",
      "rating": 7.36,
      "classificacao_etaria": "A14",
      "imagem_original": "https://animefire.plus/img/animes/nagasarete-airantou.webp",
      "imagem_pasta": "https://animefire.plus/img/animes/nagasarete-airantou/",
      "secao": "legendados",
      "pagina": 154,
      "total_episodios": 26,
      "link_video": "https://animefire.plus/video/nagasarete-airantou"
    },
    {
      "id": 2643,
      "nome": "Nagato Yuki-chan no Shoushitsu",
      "link": "https://animefire.plus/animes/nagato-yuki-chan-no-shoushitsu-todos-os-episodios",
      "texto_original": "Nagato Yuki-chan no Shoushitsu",
      "rating": 6.74,
      "classificacao_etaria": "A14",
      "imagem_original": "https://animefire.plus/img/animes/nagato-yuki-chan-no-shoushitsu.webp",
      "imagem_pasta": "https://animefire.plus/img/animes/nagato-yuki-chan-no-shoushitsu/",
      "secao": "legendados",
      "pagina": 76,
      "total_episodios": 16,
      "link_video": "https://animefire.plus/video/nagato-yuki-chan-no-shoushitsu"
    },
    {
      "id": 2644,
      "nome": "Nageki no Bourei wa Intai shitai",
      "link": "https://animefire.plus/animes/nageki-no-bourei-wa-intai-shitai-todos-os-episodios",
      "texto_original": "Nageki no Bourei wa Intai shitai",
      "rating": 7.04,
      "classificacao_etaria": "A14",
      "imagem_original": "https://animefire.plus/img/animes/nageki-no-bourei-wa-intai-shitai.webp",
      "imagem_pasta": "https://animefire.plus/img/animes/nageki-no-bourei-wa-intai-shitai/",
      "secao": "legendados",
      "pagina": 11,
      "total_episodios": 13,
      "link_video": "https://animefire.plus/video/nageki-no-bourei-wa-intai-shitai"
    },
    {
      "id": 2645,
      "nome": "Nagi no Asu kara",
      "link": "https://animefire.plus/animes/nagi-no-asu-kara-todos-os-episodios",
      "texto_original": "Nagi no Asu kara",
      "rating": 8.2,
      "classificacao_etaria": "A14",
      "imagem_original": "https://animefire.plus/img/animes/nagi-no-asu-kara.webp",
      "imagem_pasta": "https://animefire.plus/img/animes/nagi-no-asu-kara/",
      "secao": "legendados",
      "pagina": 136,
      "total_episodios": 5,
      "link_video": "https://animefire.plus/video/nagi-no-asu-kara"
    },
    {
      "id": 2646,
      "nome": "Najica Dengeki Sakusen",
      "link": "https://animefire.plus/animes/najica-dengeki-sakusen-todos-os-episodios",
      "texto_original": "Najica Dengeki Sakusen",
      "rating": 6.05,
      "classificacao_etaria": "A18",
      "imagem_original": "https://animefire.plus/img/animes/najica-dengeki-sakusen.webp",
      "imagem_pasta": "https://animefire.plus/img/animes/najica-dengeki-sakusen/",
      "secao": "legendados",
      "pagina": 154,
      "total_episodios": 12,
      "link_video": "https://animefire.plus/video/najica-dengeki-sakusen"
    },
    {
      "id": 2647,
      "nome": "Nakanohito Genome [Jikkyouchuu]",
      "link": "https://animefire.plus/animes/nakanohito-genome-jikkyouchuu-todos-os-episodios",
      "texto_original": "Nakanohito Genome [Jikkyouchuu]",
      "rating": 6.87,
      "classificacao_etaria": "A14",
      "imagem_original": "https://animefire.plus/img/animes/nakanohito-genome-jikkyouchuu.webp",
      "imagem_pasta": "https://animefire.plus/img/animes/nakanohito-genome-jikkyouchuu/",
      "secao": "legendados",
      "pagina": 157,
      "total_episodios": 2,
      "link_video": "https://animefire.plus/video/nakanohito-genome-jikkyouchuu"
    },
    {
      "id": 2648,
      "nome": "Nakanohito Genome [Jikkyouchuu]: Knots of Memories",
      "link": "https://animefire.plus/animes/nakanohito-genome-jikkyouchuu-knots-of-memories-todos-os-episodios",
      "texto_original": "Nakanohito Genome [Jikkyouchuu]: Knots of Memories",
      "rating": 6.79,
      "classificacao_etaria": "A14",
      "imagem_original": "https://animefire.plus/img/animes/nakanohito-genome-jikkyouchuu-knots-of-memories.webp",
      "imagem_pasta": "https://animefire.plus/img/animes/nakanohito-genome-jikkyouchuu-knots-of-memories/",
      "secao": "legendados",
      "pagina": 42,
      "total_episodios": 1,
      "link_video": "https://animefire.plus/video/nakanohito-genome-jikkyouchuu-knots-of-memories"
    },
    {
      "id": 2649,
      "nome": "Nami Yo Kiitekure",
      "link": "https://animefire.plus/animes/nami-yo-kiitekure-todos-os-episodios",
      "texto_original": "Nami Yo Kiitekure",
      "rating": 7.37,
      "classificacao_etaria": "A16",
      "imagem_original": "https://animefire.plus/img/animes/nami-yo-kiitekure.webp",
      "imagem_pasta": "https://animefire.plus/img/animes/nami-yo-kiitekure/",
      "secao": "legendados",
      "pagina": 60,
      "total_episodios": 8,
      "link_video": "https://animefire.plus/video/nami-yo-kiitekure"
    },
    {
      "id": 2650,
      "nome": "Namu Amida Butsu!: Rendai Utena",
      "link": "https://animefire.plus/animes/namu-amida-butsu-rendai-utena-todos-os-episodios",
      "texto_original": "Namu Amida Butsu!: Rendai Utena",
      "rating": 6.07,
      "classificacao_etaria": "A14",
      "imagem_original": "https://animefire.plus/img/animes/namu-amida-butsu-rendai-utena.webp",
      "imagem_pasta": "https://animefire.plus/img/animes/namu-amida-butsu-rendai-utena/",
      "secao": "legendados",
      "pagina": 142,
      "total_episodios": 0,
      "link_video": "https://animefire.plus/video/namu-amida-butsu-rendai-utena"
    },
    {
      "id": 2651,
      "nome": "Nana",
      "link": "https://animefire.plus/animes/nana-todos-os-episodios",
      "texto_original": "Nana",
      "rating": 8.48,
      "classificacao_etaria": "A18",
      "imagem_original": "https://animefire.plus/img/animes/nana.webp",
      "imagem_pasta": "https://animefire.plus/img/animes/nana/",
      "secao": "legendados",
      "pagina": 150,
      "total_episodios": 11,
      "link_video": "https://animefire.plus/video/nana"
    },
    {
      "id": 2652,
      "nome": "Nana Maru San Batsu",
      "link": "https://animefire.plus/animes/nana-maru-san-batsu-todos-os-episodios",
      "texto_original": "Nana Maru San Batsu",
      "rating": 6.79,
      "classificacao_etaria": "A14",
      "imagem_original": "https://animefire.plus/img/animes/nana-maru-san-batsu.webp",
      "imagem_pasta": "https://animefire.plus/img/animes/nana-maru-san-batsu/",
      "secao": "legendados",
      "pagina": 169,
      "total_episodios": 12,
      "link_video": "https://animefire.plus/video/nana-maru-san-batsu"
    },
    {
      "id": 2653,
      "nome": "Nana Toshi Monogatari: Hokkyokukai Sensen",
      "link": "https://animefire.plus/animes/nana-toshi-monogatari-hokkyokukai-sensen-todos-os-episodios",
      "texto_original": "Nana Toshi Monogatari: Hokkyokukai Sensen",
      "rating": 6.3,
      "classificacao_etaria": "A14",
      "imagem_original": "https://animefire.plus/img/animes/nana-toshi-monogatari-hokkyokukai-sensen.webp",
      "imagem_pasta": "https://animefire.plus/img/animes/nana-toshi-monogatari-hokkyokukai-sensen/",
      "secao": "legendados",
      "pagina": 72,
      "total_episodios": 2,
      "link_video": "https://animefire.plus/video/nana-toshi-monogatari-hokkyokukai-sensen"
    },
    {
      "id": 2654,
      "nome": "Nanaka 6/17",
      "link": "https://animefire.plus/animes/nanaka-6-17-todos-os-episodios",
      "texto_original": "Nanaka 6/17",
      "rating": 6.7,
      "classificacao_etaria": "A14",
      "imagem_original": "https://animefire.plus/img/animes/nanaka-6-17.webp",
      "imagem_pasta": "https://animefire.plus/img/animes/nanaka-6-17/",
      "secao": "legendados",
      "pagina": 141,
      "total_episodios": 12,
      "link_video": "https://animefire.plus/video/nanaka-6-17"
    },
    {
      "id": 2655,
      "nome": "Nanatsu no Bitoku",
      "link": "https://animefire.plus/animes/nanatsu-no-bitoku-todos-os-episodios",
      "texto_original": "Nanatsu no Bitoku",
      "rating": 5.27,
      "classificacao_etaria": "A18",
      "imagem_original": "https://animefire.plus/img/animes/nanatsu-no-bitoku.webp",
      "imagem_pasta": "https://animefire.plus/img/animes/nanatsu-no-bitoku/",
      "secao": "legendados",
      "pagina": 146,
      "total_episodios": 7,
      "link_video": "https://animefire.plus/video/nanatsu-no-bitoku"
    },
    {
      "id": 2656,
      "nome": "Nanatsu no Bitoku Specials",
      "link": "https://animefire.plus/animes/nanatsu-no-bitoku-specials-todos-os-episodios",
      "texto_original": "Nanatsu no Bitoku Specials",
      "rating": 5.52,
      "classificacao_etaria": "A18",
      "imagem_original": "https://animefire.plus/img/animes/nanatsu-no-bitoku-specials.webp",
      "imagem_pasta": "https://animefire.plus/img/animes/nanatsu-no-bitoku-specials/",
      "secao": "legendados",
      "pagina": 84,
      "total_episodios": 2,
      "link_video": "https://animefire.plus/video/nanatsu-no-bitoku-specials"
    },
    {
      "id": 2657,
      "nome": "Nanatsu no Maken ga Shihai suru",
      "link": "https://animefire.plus/animes/nanatsu-no-maken-ga-shihai-suru-todos-os-episodios",
      "texto_original": "Nanatsu no Maken ga Shihai suru",
      "rating": 6.56,
      "classificacao_etaria": "A14",
      "imagem_original": "https://animefire.plus/img/animes/nanatsu-no-maken-ga-shihai-suru.jpg",
      "imagem_pasta": "https://animefire.plus/img/animes/nanatsu-no-maken-ga-shihai-suru/",
      "secao": "legendados",
      "pagina": 23,
      "total_episodios": 15,
      "link_video": "https://animefire.plus/video/nanatsu-no-maken-ga-shihai-suru"
    },
    {
      "id": 2658,
      "nome": "Nanatsu no Taizai (Dublado)",
      "link": "https://animefire.plus/animes/nanatsu-no-taizai-dublado-todos-os-episodios",
      "texto_original": "Nanatsu no Taizai (Dublado)",
      "rating": 8.18,
      "classificacao_etaria": "A14",
      "imagem_original": "https://animefire.plus/img/animes/nanatsu-no-taizai.webp",
      "imagem_pasta": "https://animefire.plus/img/animes/nanatsu-no-taizai/",
      "secao": "dublados,legendados",
      "pagina": 26,
      "total_episodios": 24,
      "link_video": "https://animefire.plus/video/nanatsu-no-taizai-dublado"
    },
    {
      "id": 2659,
      "nome": "Nanatsu no Taizai Movie: Tenkuu no Torawarebito",
      "link": "https://animefire.plus/animes/nanatsu-no-taizai-movie-tenkuu-no-torawarebito-todos-os-episodios",
      "texto_original": "Nanatsu no Taizai Movie: Tenkuu no Torawarebito",
      "rating": 7.66,
      "classificacao_etaria": "A14",
      "imagem_original": "https://animefire.plus/img/animes/nanatsu-no-taizai-movie-tenkuu-no-torawarebito.webp",
      "imagem_pasta": "https://animefire.plus/img/animes/nanatsu-no-taizai-movie-tenkuu-no-torawarebito/",
      "secao": "legendados",
      "pagina": 106,
      "total_episodios": 3,
      "link_video": "https://animefire.plus/video/nanatsu-no-taizai-movie-tenkuu-no-torawarebito"
    },
    {
      "id": 2660,
      "nome": "Nanatsu no Taizai OVA",
      "link": "https://animefire.plus/animes/nanatsu-no-taizai-ova-todos-os-episodios",
      "texto_original": "Nanatsu no Taizai OVA",
      "rating": 7.57,
      "classificacao_etaria": "A14",
      "imagem_original": "https://animefire.plus/img/animes/nanatsu-no-taizai-ova.webp",
      "imagem_pasta": "https://animefire.plus/img/animes/nanatsu-no-taizai-ova/",
      "secao": "legendados",
      "pagina": 43,
      "total_episodios": 2,
      "link_video": "https://animefire.plus/video/nanatsu-no-taizai-ova"
    }
  ],
  "pagination": {
    "current_page": 133,
    "per_page": 20,
    "total_items": 4368,
    "total_pages": 219,
    "has_next": true,
    "has_prev": true
  }
}
