{
  "message": "Lista de animes",
  "data": [
    {
      "id": 561,
      "nome": "Cardcaptor Sakura (Dublado)",
      "link": "https://animefire.plus/animes/cardcaptor-sakura-dublado-todos-os-episodios",
      "texto_original": "Cardcaptor Sakura (Dublado)",
      "rating": 8.2,
      "classificacao_etaria": "A10",
      "imagem_original": "https://animefire.plus/img/animes/cardcaptor-sakura.webp",
      "imagem_pasta": "https://animefire.plus/img/animes/cardcaptor-sakura/",
      "secao": "dublados",
      "pagina": 27,
      "total_episodios": 15,
      "link_video": "https://animefire.plus/video/cardcaptor-sakura-dublado"
    },
    {
      "id": 562,
      "nome": "Cardcaptor Sakura: Clear Card-hen",
      "link": "https://animefire.plus/animes/cardcaptor-sakura-clear-card-hen-todos-os-episodios",
      "texto_original": "Cardcaptor Sakura: Clear Card-hen",
      "rating": 7.87,
      "classificacao_etaria": "A10",
      "imagem_original": "https://animefire.plus/img/animes/cardcaptor-sakura-clear-card-hen.webp",
      "imagem_pasta": "https://animefire.plus/img/animes/cardcaptor-sakura-clear-card-hen/",
      "secao": "legendados",
      "pagina": 106,
      "total_episodios": 22,
      "link_video": "https://animefire.plus/video/cardcaptor-sakura-clear-card-hen"
    },
    {
      "id": 563,
      "nome": "Cardfight!! Vanguard (2018)",
      "link": "https://animefire.plus/animes/cardfight-vanguard-2018-todos-os-episodios",
      "texto_original": "Cardfight!! Vanguard (2018)",
      "rating": 7.1,
      "classificacao_etaria": "A14",
      "imagem_original": "https://animefire.plus/img/animes/cardfight-vanguard-2018.webp",
      "imagem_pasta": "https://animefire.plus/img/animes/cardfight-vanguard-2018/",
      "secao": "legendados",
      "pagina": 143,
      "total_episodios": 52,
      "link_video": "https://animefire.plus/video/cardfight-vanguard-2018"
    },
    {
      "id": 564,
      "nome": "Cardfight!! Vanguard G",
      "link": "https://animefire.plus/animes/cardfight-vanguard-g-todos-os-episodios",
      "texto_original": "Cardfight!! Vanguard G",
      "rating": 6.62,
      "classificacao_etaria": "A14",
      "imagem_original": "https://animefire.plus/img/animes/cardfight-vanguard-g.webp",
      "imagem_pasta": "https://animefire.plus/img/animes/cardfight-vanguard-g/",
      "secao": "legendados",
      "pagina": 66,
      "total_episodios": 48,
      "link_video": "https://animefire.plus/video/cardfight-vanguard-g"
    },
    {
      "id": 565,
      "nome": "Cardfight!! Vanguard G: GIRS Crisis-hen",
      "link": "https://animefire.plus/animes/cardfight-vanguard-g-girs-crisis-hen-todos-os-episodios",
      "texto_original": "Cardfight!! Vanguard G: GIRS Crisis-hen",
      "rating": 6.73,
      "classificacao_etaria": "A14",
      "imagem_original": "https://animefire.plus/img/animes/cardfight-vanguard-g-girs-crisis-hen.webp",
      "imagem_pasta": "https://animefire.plus/img/animes/cardfight-vanguard-g-girs-crisis-hen/",
      "secao": "legendados",
      "pagina": 59,
      "total_episodios": 26,
      "link_video": "https://animefire.plus/video/cardfight-vanguard-g-girs-crisis-hen"
    },
    {
      "id": 566,
      "nome": "Cardfight!! Vanguard G: Next",
      "link": "https://animefire.plus/animes/cardfight-vanguard-g-next-todos-os-episodios",
      "texto_original": "Cardfight!! Vanguard G: Next",
      "rating": 6.66,
      "classificacao_etaria": "A14",
      "imagem_original": "https://animefire.plus/img/animes/cardfight-vanguard-g-next.webp",
      "imagem_pasta": "https://animefire.plus/img/animes/cardfight-vanguard-g-next/",
      "secao": "legendados",
      "pagina": 59,
      "total_episodios": 52,
      "link_video": "https://animefire.plus/video/cardfight-vanguard-g-next"
    },
    {
      "id": 567,
      "nome": "Cardfight!! Vanguard G: Stride Gate-hen",
      "link": "https://animefire.plus/animes/cardfight-vanguard-g-stride-gate-hen-todos-os-episodios",
      "texto_original": "Cardfight!! Vanguard G: Stride Gate-hen",
      "rating": 6.85,
      "classificacao_etaria": "A14",
      "imagem_original": "https://animefire.plus/img/animes/cardfight-vanguard-g-stride-gate-hen.webp",
      "imagem_pasta": "https://animefire.plus/img/animes/cardfight-vanguard-g-stride-gate-hen/",
      "secao": "legendados",
      "pagina": 107,
      "total_episodios": 24,
      "link_video": "https://animefire.plus/video/cardfight-vanguard-g-stride-gate-hen"
    },
    {
      "id": 568,
      "nome": "Cardfight!! Vanguard G: Z",
      "link": "https://animefire.plus/animes/cardfight-vanguard-g-z-todos-os-episodios",
      "texto_original": "Cardfight!! Vanguard G: Z",
      "rating": 6.59,
      "classificacao_etaria": "A14",
      "imagem_original": "https://animefire.plus/img/animes/cardfight-vanguard-g-z.webp",
      "imagem_pasta": "https://animefire.plus/img/animes/cardfight-vanguard-g-z/",
      "secao": "legendados",
      "pagina": 175,
      "total_episodios": 16,
      "link_video": "https://animefire.plus/video/cardfight-vanguard-g-z"
    },
    {
      "id": 569,
      "nome": "Cardfight!! Vanguard Gaiden: If",
      "link": "https://animefire.plus/animes/cardfight-vanguard-gaiden-if-todos-os-episodios",
      "texto_original": "Cardfight!! Vanguard Gaiden: If",
      "rating": 6.41,
      "classificacao_etaria": "A14",
      "imagem_original": "https://animefire.plus/img/animes/cardfight-vanguard-gaiden-if.webp",
      "imagem_pasta": "https://animefire.plus/img/animes/cardfight-vanguard-gaiden-if/",
      "secao": "legendados,lancamentos",
      "pagina": 61,
      "total_episodios": 4,
      "link_video": "https://animefire.plus/video/cardfight-vanguard-gaiden-if"
    },
    {
      "id": 570,
      "nome": "Cardfight!! Vanguard: Asia Circuit-hen",
      "link": "https://animefire.plus/animes/cardfight-vanguard-asia-circuit-hen-todos-os-episodios",
      "texto_original": "Cardfight!! Vanguard: Asia Circuit-hen",
      "rating": 6.98,
      "classificacao_etaria": "A14",
      "imagem_original": "https://animefire.plus/img/animes/cardfight-vanguard-asia-circuit-hen.webp",
      "imagem_pasta": "https://animefire.plus/img/animes/cardfight-vanguard-asia-circuit-hen/",
      "secao": "legendados",
      "pagina": 172,
      "total_episodios": 0,
      "link_video": "https://animefire.plus/video/cardfight-vanguard-asia-circuit-hen"
    },
    {
      "id": 571,
      "nome": "Cardfight!! Vanguard: Divinez",
      "link": "https://animefire.plus/animes/cardfight-vanguard-divinez-todos-os-episodios",
      "texto_original": "Cardfight!! Vanguard: Divinez",
      "rating": 7.07,
      "classificacao_etaria": "A14",
      "imagem_original": "https://animefire.plus/img/animes/cardfight-vanguard-divinez.webp",
      "imagem_pasta": "https://animefire.plus/img/animes/cardfight-vanguard-divinez/",
      "secao": "legendados",
      "pagina": 16,
      "total_episodios": 13,
      "link_video": "https://animefire.plus/video/cardfight-vanguard-divinez"
    },
    {
      "id": 572,
      "nome": "Cardfight!! Vanguard: Divinez Deluxe Kesshou-hen",
      "link": "https://animefire.plus/animes/cardfight-vanguard-divinez-deluxe-kesshou-hen-todos-os-episodios",
      "texto_original": "Cardfight!! Vanguard: Divinez Deluxe Kesshou-hen",
      "rating": null,
      "classificacao_etaria": "A14",
      "imagem_original": "https://animefire.plus/img/animes/cardfight-vanguard-divinez-deluxe-kesshou-hen.webp",
      "imagem_pasta": "https://animefire.plus/img/animes/cardfight-vanguard-divinez-deluxe-kesshou-hen/",
      "secao": "legendados,lancamentos",
      "pagina": 1,
      "total_episodios": 0,
      "link_video": "https://animefire.plus/video/cardfight-vanguard-divinez-deluxe-kesshou-hen"
    },
    {
      "id": 573,
      "nome": "Cardfight!! Vanguard: Divinez Deluxe-hen",
      "link": "https://animefire.plus/animes/cardfight-vanguard-divinez-deluxe-hen-todos-os-episodios",
      "texto_original": "Cardfight!! Vanguard: Divinez Deluxe-hen",
      "rating": null,
      "classificacao_etaria": "A14",
      "imagem_original": "https://animefire.plus/img/animes/cardfight-vanguard-divinez-deluxe-hen.webp",
      "imagem_pasta": "https://animefire.plus/img/animes/cardfight-vanguard-divinez-deluxe-hen/",
      "secao": "legendados,lancamentos",
      "pagina": 6,
      "total_episodios": 0,
      "link_video": "https://animefire.plus/video/cardfight-vanguard-divinez-deluxe-hen"
    },
    {
      "id": 574,
      "nome": "Cardfight!! Vanguard: Divinez Season 2",
      "link": "https://animefire.plus/animes/cardfight-vanguard-divinez-season-2-todos-os-episodios",
      "texto_original": "Cardfight!! Vanguard: Divinez Season 2",
      "rating": 7.11,
      "classificacao_etaria": "A14",
      "imagem_original": "https://animefire.plus/img/animes/cardfight-vanguard-divinez-season-2.webp",
      "imagem_pasta": "https://animefire.plus/img/animes/cardfight-vanguard-divinez-season-2/",
      "secao": "legendados",
      "pagina": 12,
      "total_episodios": 13,
      "link_video": "https://animefire.plus/video/cardfight-vanguard-divinez-season-2"
    },
    {
      "id": 575,
      "nome": "Cardfight!! Vanguard: Legion Mate-hen",
      "link": "https://animefire.plus/animes/cardfight-vanguard-legion-mate-hen-todos-os-episodios",
      "texto_original": "Cardfight!! Vanguard: Legion Mate-hen",
      "rating": 6.98,
      "classificacao_etaria": "A14",
      "imagem_original": "https://animefire.plus/img/animes/cardfight-vanguard-legion-mate-hen.webp",
      "imagem_pasta": "https://animefire.plus/img/animes/cardfight-vanguard-legion-mate-hen/",
      "secao": "legendados",
      "pagina": 130,
      "total_episodios": 0,
      "link_video": "https://animefire.plus/video/cardfight-vanguard-legion-mate-hen"
    },
    {
      "id": 576,
      "nome": "Cardfight!! Vanguard: Link Joker-hen",
      "link": "https://animefire.plus/animes/cardfight-vanguard-link-joker-hen-todos-os-episodios",
      "texto_original": "Cardfight!! Vanguard: Link Joker-hen",
      "rating": 7.32,
      "classificacao_etaria": "A14",
      "imagem_original": "https://animefire.plus/img/animes/cardfight-vanguard-link-joker-hen.webp",
      "imagem_pasta": "https://animefire.plus/img/animes/cardfight-vanguard-link-joker-hen/",
      "secao": "legendados",
      "pagina": 178,
      "total_episodios": 0,
      "link_video": "https://animefire.plus/video/cardfight-vanguard-link-joker-hen"
    },
    {
      "id": 577,
      "nome": "Cardfight!! Vanguard: overDress",
      "link": "https://animefire.plus/animes/cardfight-vanguard-overdress-todos-os-episodios",
      "texto_original": "Cardfight!! Vanguard: overDress",
      "rating": 5.97,
      "classificacao_etaria": "A14",
      "imagem_original": "https://animefire.plus/img/animes/cardfight-vanguard-overdress.webp",
      "imagem_pasta": "https://animefire.plus/img/animes/cardfight-vanguard-overdress/",
      "secao": "legendados",
      "pagina": 46,
      "total_episodios": 12,
      "link_video": "https://animefire.plus/video/cardfight-vanguard-overdress"
    },
    {
      "id": 578,
      "nome": "Cardfight!! Vanguard: overDress Season 2",
      "link": "https://animefire.plus/animes/cardfight-vanguard-overdress-season-2-todos-os-episodios",
      "texto_original": "Cardfight!! Vanguard: overDress Season 2",
      "rating": 6.7,
      "classificacao_etaria": "A14",
      "imagem_original": "https://animefire.plus/img/animes/cardfight-vanguard-overdress-season-2.webp",
      "imagem_pasta": "https://animefire.plus/img/animes/cardfight-vanguard-overdress-season-2/",
      "secao": "legendados",
      "pagina": 38,
      "total_episodios": 13,
      "link_video": "https://animefire.plus/video/cardfight-vanguard-overdress-season-2"
    },
    {
      "id": 579,
      "nome": "Cardfight!! Vanguard: will+Dress",
      "link": "https://animefire.plus/animes/cardfight-vanguard-will-dress-todos-os-episodios",
      "texto_original": "Cardfight!! Vanguard: will+Dress",
      "rating": 6.85,
      "classificacao_etaria": "A14",
      "imagem_original": "https://animefire.plus/img/animes/cardfight-vanguard-will-dress.webp",
      "imagem_pasta": "https://animefire.plus/img/animes/cardfight-vanguard-will-dress/",
      "secao": "legendados",
      "pagina": 31,
      "total_episodios": 13,
      "link_video": "https://animefire.plus/video/cardfight-vanguard-will-dress"
    },
    {
      "id": 580,
      "nome": "Cardfight!! Vanguard: will+Dress Season 2",
      "link": "https://animefire.plus/animes/cardfight-vanguard-will-dress-season-2-todos-os-episodios",
      "texto_original": "Cardfight!! Vanguard: will+Dress Season 2",
      "rating": 6.73,
      "classificacao_etaria": "A14",
      "imagem_original": "https://animefire.plus/img/animes/cardfight-vanguard-will-dress-season-2.webp",
      "imagem_pasta": "https://animefire.plus/img/animes/cardfight-vanguard-will-dress-season-2/",
      "secao": "legendados,lancamentos",
      "pagina": 25,
      "total_episodios": 4,
      "link_video": "https://animefire.plus/video/cardfight-vanguard-will-dress-season-2"
    }
  ],
  "pagination": {
    "current_page": 29,
    "per_page": 20,
    "total_items": 4368,
    "total_pages": 219,
    "has_next": true,
    "has_prev": true
  }
}
