{
  "message": "Lista de animes",
  "data": [
    {
      "id": 2681,
      "nome": "Natsu e no Tobira",
      "link": "https://animefire.plus/animes/natsu-e-no-tobira-todos-os-episodios",
      "texto_original": "Natsu e no Tobira",
      "rating": 6.13,
      "classificacao_etaria": "A14",
      "imagem_original": "https://animefire.plus/img/animes/natsu-e-no-tobira.webp",
      "imagem_pasta": "https://animefire.plus/img/animes/natsu-e-no-tobira/",
      "secao": "legendados",
      "pagina": 88,
      "total_episodios": 1,
      "link_video": "https://animefire.plus/video/natsu-e-no-tobira"
    },
    {
      "id": 2682,
      "nome": "Natsu no Arashi!",
      "link": "https://animefire.plus/animes/natsu-no-arashi-todos-os-episodios",
      "texto_original": "Natsu no Arashi!",
      "rating": 7.33,
      "classificacao_etaria": "A14",
      "imagem_original": "https://animefire.plus/img/animes/natsu-no-arashi.webp",
      "imagem_pasta": "https://animefire.plus/img/animes/natsu-no-arashi/",
      "secao": "legendados",
      "pagina": 128,
      "total_episodios": 13,
      "link_video": "https://animefire.plus/video/natsu-no-arashi"
    },
    {
      "id": 2683,
      "nome": "Natsu no Arashi! Akinaichuu",
      "link": "https://animefire.plus/animes/natsu-no-arashi-akinaichuu-todos-os-episodios",
      "texto_original": "Natsu no Arashi! Akinaichuu",
      "rating": 7.38,
      "classificacao_etaria": "A14",
      "imagem_original": "https://animefire.plus/img/animes/natsu-no-arashi-akinaichuu.webp",
      "imagem_pasta": "https://animefire.plus/img/animes/natsu-no-arashi-akinaichuu/",
      "secao": "legendados",
      "pagina": 164,
      "total_episodios": 13,
      "link_video": "https://animefire.plus/video/natsu-no-arashi-akinaichuu"
    },
    {
      "id": 2684,
      "nome": "Natsu-iro Kiseki",
      "link": "https://animefire.plus/animes/natsu-iro-kiseki-todos-os-episodios",
      "texto_original": "Natsu-iro Kiseki",
      "rating": 7.04,
      "classificacao_etaria": "A14",
      "imagem_original": "https://animefire.plus/img/animes/natsu-iro-kiseki.webp",
      "imagem_pasta": "https://animefire.plus/img/animes/natsu-iro-kiseki/",
      "secao": "legendados",
      "pagina": 128,
      "total_episodios": 0,
      "link_video": "https://animefire.plus/video/natsu-iro-kiseki"
    },
    {
      "id": 2685,
      "nome": "Natsume Yuujinchou",
      "link": "https://animefire.plus/animes/natsume-yuujinchou-todos-os-episodios",
      "texto_original": "Natsume Yuujinchou",
      "rating": 8.38,
      "classificacao_etaria": "A14",
      "imagem_original": "https://animefire.plus/img/animes/natsume-yuujinchou.webp",
      "imagem_pasta": "https://animefire.plus/img/animes/natsume-yuujinchou/",
      "secao": "legendados",
      "pagina": 104,
      "total_episodios": 13,
      "link_video": "https://animefire.plus/video/natsume-yuujinchou"
    },
    {
      "id": 2686,
      "nome": "Natsume Yuujinchou Go",
      "link": "https://animefire.plus/animes/natsume-yuujinchou-go-todos-os-episodios",
      "texto_original": "Natsume Yuujinchou Go",
      "rating": 8.62,
      "classificacao_etaria": "A14",
      "imagem_original": "https://animefire.plus/img/animes/natsume-yuujinchou-go.webp",
      "imagem_pasta": "https://animefire.plus/img/animes/natsume-yuujinchou-go/",
      "secao": "legendados",
      "pagina": 148,
      "total_episodios": 11,
      "link_video": "https://animefire.plus/video/natsume-yuujinchou-go"
    },
    {
      "id": 2687,
      "nome": "Natsume Yuujinchou Go Specials",
      "link": "https://animefire.plus/animes/natsume-yuujinchou-go-specials-todos-os-episodios",
      "texto_original": "Natsume Yuujinchou Go Specials",
      "rating": 8.34,
      "classificacao_etaria": "A14",
      "imagem_original": "https://animefire.plus/img/animes/natsume-yuujinchou-go-specials.webp",
      "imagem_pasta": "https://animefire.plus/img/animes/natsume-yuujinchou-go-specials/",
      "secao": "legendados",
      "pagina": 84,
      "total_episodios": 2,
      "link_video": "https://animefire.plus/video/natsume-yuujinchou-go-specials"
    },
    {
      "id": 2688,
      "nome": "Natsume Yuujinchou Roku",
      "link": "https://animefire.plus/animes/natsume-yuujinchou-roku-todos-os-episodios",
      "texto_original": "Natsume Yuujinchou Roku",
      "rating": 8.7,
      "classificacao_etaria": "A14",
      "imagem_original": "https://animefire.plus/img/animes/natsume-yuujinchou-roku.webp",
      "imagem_pasta": "https://animefire.plus/img/animes/natsume-yuujinchou-roku/",
      "secao": "legendados",
      "pagina": 156,
      "total_episodios": 11,
      "link_video": "https://animefire.plus/video/natsume-yuujinchou-roku"
    },
    {
      "id": 2689,
      "nome": "Natsume Yuujinchou Roku Specials",
      "link": "https://animefire.plus/animes/natsume-yuujinchou-roku-specials-todos-os-episodios",
      "texto_original": "Natsume Yuujinchou Roku Specials",
      "rating": 8.42,
      "classificacao_etaria": "A14",
      "imagem_original": "https://animefire.plus/img/animes/natsume-yuujinchou-roku-specials.webp",
      "imagem_pasta": "https://animefire.plus/img/animes/natsume-yuujinchou-roku-specials/",
      "secao": "legendados",
      "pagina": 84,
      "total_episodios": 2,
      "link_video": "https://animefire.plus/video/natsume-yuujinchou-roku-specials"
    },
    {
      "id": 2690,
      "nome": "Natsume Yuujinchou San",
      "link": "https://animefire.plus/animes/natsume-yuujinchou-san-todos-os-episodios",
      "texto_original": "Natsume Yuujinchou San",
      "rating": 8.62,
      "classificacao_etaria": "A14",
      "imagem_original": "https://animefire.plus/img/animes/natsume-yuujinchou-san.webp",
      "imagem_pasta": "https://animefire.plus/img/animes/natsume-yuujinchou-san/",
      "secao": "legendados",
      "pagina": 74,
      "total_episodios": 13,
      "link_video": "https://animefire.plus/video/natsume-yuujinchou-san"
    },
    {
      "id": 2691,
      "nome": "Natsume Yuujinchou Shi",
      "link": "https://animefire.plus/animes/natsume-yuujinchou-shi-todos-os-episodios",
      "texto_original": "Natsume Yuujinchou Shi",
      "rating": 8.7,
      "classificacao_etaria": "A14",
      "imagem_original": "https://animefire.plus/img/animes/natsume-yuujinchou-shi.webp",
      "imagem_pasta": "https://animefire.plus/img/animes/natsume-yuujinchou-shi/",
      "secao": "legendados",
      "pagina": 90,
      "total_episodios": 13,
      "link_video": "https://animefire.plus/video/natsume-yuujinchou-shi"
    },
    {
      "id": 2692,
      "nome": "Natsume Yuujinchou Shichi",
      "link": "https://animefire.plus/animes/natsume-yuujinchou-shichi-todos-os-episodios",
      "texto_original": "Natsume Yuujinchou Shichi",
      "rating": 8.57,
      "classificacao_etaria": "A14",
      "imagem_original": "https://animefire.plus/img/animes/natsume-yuujinchou-shichi.webp",
      "imagem_pasta": "https://animefire.plus/img/animes/natsume-yuujinchou-shichi/",
      "secao": "legendados",
      "pagina": 10,
      "total_episodios": 12,
      "link_video": "https://animefire.plus/video/natsume-yuujinchou-shichi"
    },
    {
      "id": 2693,
      "nome": "Natsume Yuujinchou: Itsuka Yuki no Hi ni",
      "link": "https://animefire.plus/animes/natsume-yuujinchou-itsuka-yuki-no-hi-ni-todos-os-episodios",
      "texto_original": "Natsume Yuujinchou: Itsuka Yuki no Hi ni",
      "rating": 8.37,
      "classificacao_etaria": "A14",
      "imagem_original": "https://animefire.plus/img/animes/natsume-yuujinchou-itsuka-yuki-no-hi-ni.webp",
      "imagem_pasta": "https://animefire.plus/img/animes/natsume-yuujinchou-itsuka-yuki-no-hi-ni/",
      "secao": "legendados",
      "pagina": 64,
      "total_episodios": 1,
      "link_video": "https://animefire.plus/video/natsume-yuujinchou-itsuka-yuki-no-hi-ni"
    },
    {
      "id": 2694,
      "nome": "Natsume Yuujinchou: Nyanko-sensei to Hajimete no Otsukai",
      "link": "https://animefire.plus/animes/natsume-yuujinchou-nyanko-sensei-to-hajimete-no-otsukai-todos-os-episodios",
      "texto_original": "Natsume Yuujinchou: Nyanko-sensei to Hajimete no Otsukai",
      "rating": 7.67,
      "classificacao_etaria": "A14",
      "imagem_original": "https://animefire.plus/img/animes/natsume-yuujinchou-nyanko-sensei-to-hajimete-no-otsukai.webp",
      "imagem_pasta": "https://animefire.plus/img/animes/natsume-yuujinchou-nyanko-sensei-to-hajimete-no-otsukai/",
      "secao": "legendados",
      "pagina": 88,
      "total_episodios": 1,
      "link_video": "https://animefire.plus/video/natsume-yuujinchou-nyanko-sensei-to-hajimete-no-otsukai"
    },
    {
      "id": 2695,
      "nome": "Natsunagu!",
      "link": "https://animefire.plus/animes/natsunagu-todos-os-episodios",
      "texto_original": "Natsunagu!",
      "rating": 5.84,
      "classificacao_etaria": "A14",
      "imagem_original": "https://animefire.plus/img/animes/natsunagu.webp",
      "imagem_pasta": "https://animefire.plus/img/animes/natsunagu/",
      "secao": "legendados",
      "pagina": 93,
      "total_episodios": 0,
      "link_video": "https://animefire.plus/video/natsunagu"
    },
    {
      "id": 2696,
      "nome": "Natsuyuki Rendezvous",
      "link": "https://animefire.plus/animes/natsuyuki-rendezvous-todos-os-episodios",
      "texto_original": "Natsuyuki Rendezvous",
      "rating": 7.33,
      "classificacao_etaria": "A14",
      "imagem_original": "https://animefire.plus/img/animes/natsuyuki-rendezvous.webp",
      "imagem_pasta": "https://animefire.plus/img/animes/natsuyuki-rendezvous/",
      "secao": "legendados",
      "pagina": 160,
      "total_episodios": 0,
      "link_video": "https://animefire.plus/video/natsuyuki-rendezvous"
    },
    {
      "id": 2697,
      "nome": "Nayuta",
      "link": "https://animefire.plus/animes/nayuta-todos-os-episodios",
      "texto_original": "Nayuta",
      "rating": 5.6,
      "classificacao_etaria": "A14",
      "imagem_original": "https://animefire.plus/img/animes/nayuta.webp",
      "imagem_pasta": "https://animefire.plus/img/animes/nayuta/",
      "secao": "legendados",
      "pagina": 69,
      "total_episodios": 1,
      "link_video": "https://animefire.plus/video/nayuta"
    },
    {
      "id": 2698,
      "nome": "Naze Boku no Sekai wo Daremo Oboeteinai no ka?",
      "link": "https://animefire.plus/animes/naze-boku-no-sekai-wo-daremo-oboeteinai-no-ka-todos-os-episodios",
      "texto_original": "Naze Boku no Sekai wo Daremo Oboeteinai no ka?",
      "rating": 6.23,
      "classificacao_etaria": "A14",
      "imagem_original": "https://animefire.plus/img/animes/naze-boku-no-sekai-wo-daremo-oboeteinai-no-ka.webp",
      "imagem_pasta": "https://animefire.plus/img/animes/naze-boku-no-sekai-wo-daremo-oboeteinai-no-ka/",
      "secao": "legendados",
      "pagina": 13,
      "total_episodios": 12,
      "link_video": "https://animefire.plus/video/naze-boku-no-sekai-wo-daremo-oboeteinai-no-ka"
    },
    {
      "id": 2699,
      "nome": "Nazo no Kanojo X",
      "link": "https://animefire.plus/animes/nazo-no-kanojo-x-todos-os-episodios",
      "texto_original": "Nazo no Kanojo X",
      "rating": 7.33,
      "classificacao_etaria": "A14",
      "imagem_original": "https://animefire.plus/img/animes/nazo-no-kanojo-x.webp",
      "imagem_pasta": "https://animefire.plus/img/animes/nazo-no-kanojo-x/",
      "secao": "legendados",
      "pagina": 140,
      "total_episodios": 0,
      "link_video": "https://animefire.plus/video/nazo-no-kanojo-x"
    },
    {
      "id": 2700,
      "nome": "Nazotoki wa Dinner no Ato de (Dublado)",
      "link": "https://animefire.plus/animes/nazotoki-wa-dinner-no-ato-de-dublado-todos-os-episodios",
      "texto_original": "Nazotoki wa Dinner no Ato de (Dublado)",
      "rating": 6.48,
      "classificacao_etaria": "A14",
      "imagem_original": "https://animefire.plus/img/animes/nazotoki-wa-dinner-no-ato-de.webp",
      "imagem_pasta": "https://animefire.plus/img/animes/nazotoki-wa-dinner-no-ato-de/",
      "secao": "dublados,legendados",
      "pagina": 1,
      "total_episodios": 12,
      "link_video": "https://animefire.plus/video/nazotoki-wa-dinner-no-ato-de-dublado"
    }
  ],
  "pagination": {
    "current_page": 135,
    "per_page": 20,
    "total_items": 4368,
    "total_pages": 219,
    "has_next": true,
    "has_prev": true
  }
}
