{
  "message": "Lista de animes",
  "data": [
    {
      "id": 1121,
      "nome": "Gekai Elise",
      "link": "https://animefire.plus/animes/gekai-elise-todos-os-episodios",
      "texto_original": "Gekai Elise",
      "rating": 7.26,
      "classificacao_etaria": "A14",
      "imagem_original": "https://animefire.plus/img/animes/gekai-elise.webp",
      "imagem_pasta": "https://animefire.plus/img/animes/gekai-elise/",
      "secao": "legendados",
      "pagina": 18,
      "total_episodios": 12,
      "link_video": "https://animefire.plus/video/gekai-elise"
    },
    {
      "id": 1122,
      "nome": "Gekidol",
      "link": "https://animefire.plus/animes/gekidol-todos-os-episodios",
      "texto_original": "Gekidol",
      "rating": 5.5,
      "classificacao_etaria": "A14",
      "imagem_original": "https://animefire.plus/img/animes/gekidol.webp",
      "imagem_pasta": "https://animefire.plus/img/animes/gekidol/",
      "secao": "legendados",
      "pagina": 48,
      "total_episodios": 12,
      "link_video": "https://animefire.plus/video/gekidol"
    },
    {
      "id": 1123,
      "nome": "Gekiganger 3: The Movie",
      "link": "https://animefire.plus/animes/gekiganger-3-the-movie-todos-os-episodios",
      "texto_original": "Gekiganger 3: The Movie",
      "rating": 6.51,
      "classificacao_etaria": "A14",
      "imagem_original": "https://animefire.plus/img/animes/gekiganger-3-the-movie.webp",
      "imagem_pasta": "https://animefire.plus/img/animes/gekiganger-3-the-movie/",
      "secao": "legendados",
      "pagina": 71,
      "total_episodios": 1,
      "link_video": "https://animefire.plus/video/gekiganger-3-the-movie"
    },
    {
      "id": 1124,
      "nome": "Gekkan Mousou Kagaku",
      "link": "https://animefire.plus/animes/gekkan-mousou-kagaku-todos-os-episodios",
      "texto_original": "Gekkan Mousou Kagaku",
      "rating": 5.4,
      "classificacao_etaria": "A18",
      "imagem_original": "https://animefire.plus/img/animes/gekkan-mousou-kagaku.webp",
      "imagem_pasta": "https://animefire.plus/img/animes/gekkan-mousou-kagaku/",
      "secao": "legendados",
      "pagina": 16,
      "total_episodios": 12,
      "link_video": "https://animefire.plus/video/gekkan-mousou-kagaku"
    },
    {
      "id": 1125,
      "nome": "Gekkan Shoujo Nozaki-kun (Dublado)",
      "link": "https://animefire.plus/animes/gekkan-shoujo-nozaki-kun-dublado-todos-os-episodios",
      "texto_original": "Gekkan Shoujo Nozaki-kun (Dublado)",
      "rating": 8.05,
      "classificacao_etaria": "A14",
      "imagem_original": "https://animefire.plus/img/animes/gekkan-shoujo-nozaki-kun.webp",
      "imagem_pasta": "https://animefire.plus/img/animes/gekkan-shoujo-nozaki-kun/",
      "secao": "dublados,legendados",
      "pagina": 23,
      "total_episodios": 12,
      "link_video": "https://animefire.plus/video/gekkan-shoujo-nozaki-kun-dublado"
    },
    {
      "id": 1126,
      "nome": "Genei wo Kakeru Taiyou",
      "link": "https://animefire.plus/animes/genei-wo-kakeru-taiyou-todos-os-episodios",
      "texto_original": "Genei wo Kakeru Taiyou",
      "rating": 6.48,
      "classificacao_etaria": "A16",
      "imagem_original": "https://animefire.plus/img/animes/genei-wo-kakeru-taiyou.webp",
      "imagem_pasta": "https://animefire.plus/img/animes/genei-wo-kakeru-taiyou/",
      "secao": "legendados",
      "pagina": 152,
      "total_episodios": 4,
      "link_video": "https://animefire.plus/video/genei-wo-kakeru-taiyou"
    },
    {
      "id": 1127,
      "nome": "Generator Gawl",
      "link": "https://animefire.plus/animes/generator-gawl-todos-os-episodios",
      "texto_original": "Generator Gawl",
      "rating": 7.04,
      "classificacao_etaria": "A14",
      "imagem_original": "https://animefire.plus/img/animes/generator-gawl.webp",
      "imagem_pasta": "https://animefire.plus/img/animes/generator-gawl/",
      "secao": "legendados",
      "pagina": 105,
      "total_episodios": 12,
      "link_video": "https://animefire.plus/video/generator-gawl"
    },
    {
      "id": 1128,
      "nome": "Geneshaft",
      "link": "https://animefire.plus/animes/geneshaft-todos-os-episodios",
      "texto_original": "Geneshaft",
      "rating": 6.4,
      "classificacao_etaria": "A14",
      "imagem_original": "https://animefire.plus/img/animes/geneshaft.webp",
      "imagem_pasta": "https://animefire.plus/img/animes/geneshaft/",
      "secao": "legendados",
      "pagina": 70,
      "total_episodios": 13,
      "link_video": "https://animefire.plus/video/geneshaft"
    },
    {
      "id": 1129,
      "nome": "Genji Monogatari Sennenki",
      "link": "https://animefire.plus/animes/genji-monogatari-sennenki-todos-os-episodios",
      "texto_original": "Genji Monogatari Sennenki",
      "rating": 6.95,
      "classificacao_etaria": "A14",
      "imagem_original": "https://animefire.plus/img/animes/genji-monogatari-sennenki.webp",
      "imagem_pasta": "https://animefire.plus/img/animes/genji-monogatari-sennenki/",
      "secao": "legendados",
      "pagina": 66,
      "total_episodios": 11,
      "link_video": "https://animefire.plus/video/genji-monogatari-sennenki"
    },
    {
      "id": 1130,
      "nome": "Genjitsu no Yohane: Sunshine in the Mirror",
      "link": "https://animefire.plus/animes/genjitsu-no-yohane-sunshine-in-the-mirror-todos-os-episodios",
      "texto_original": "Genjitsu no Yohane: Sunshine in the Mirror",
      "rating": 6.85,
      "classificacao_etaria": "A14",
      "imagem_original": "https://animefire.plus/img/animes/genjitsu-no-yohane-sunshine-in-the-mirror.jpg",
      "imagem_pasta": "https://animefire.plus/img/animes/genjitsu-no-yohane-sunshine-in-the-mirror/",
      "secao": "legendados",
      "pagina": 23,
      "total_episodios": 13,
      "link_video": "https://animefire.plus/video/genjitsu-no-yohane-sunshine-in-the-mirror"
    },
    {
      "id": 1131,
      "nome": "Genjitsu Shugi Yuusha no Oukoku Saikenki (Dublado)",
      "link": "https://animefire.plus/animes/genjitsu-shugi-yuusha-no-oukoku-saikenki-dublado-todos-os-episodios",
      "texto_original": "Genjitsu Shugi Yuusha no Oukoku Saikenki (Dublado)",
      "rating": 7.25,
      "classificacao_etaria": "A14",
      "imagem_original": "https://animefire.plus/img/animes/genjitsu-shugi-yuusha-no-oukoku-saikenki.webp",
      "imagem_pasta": "https://animefire.plus/img/animes/genjitsu-shugi-yuusha-no-oukoku-saikenki/",
      "secao": "dublados,legendados",
      "pagina": 16,
      "total_episodios": 13,
      "link_video": "https://animefire.plus/video/genjitsu-shugi-yuusha-no-oukoku-saikenki-dublado"
    },
    {
      "id": 1132,
      "nome": "Genjitsu Shugi Yuusha no Oukoku Saikenki 2nd Season",
      "link": "https://animefire.plus/animes/genjitsu-shugi-yuusha-no-oukoku-saikenki-2nd-season-todos-os-episodios",
      "texto_original": "Genjitsu Shugi Yuusha no Oukoku Saikenki 2nd Season",
      "rating": 7.43,
      "classificacao_etaria": "A14",
      "imagem_original": "https://animefire.plus/img/animes/genjitsu-shugi-yuusha-no-oukoku-saikenki-2nd-season.webp",
      "imagem_pasta": "https://animefire.plus/img/animes/genjitsu-shugi-yuusha-no-oukoku-saikenki-2nd-season/",
      "secao": "legendados",
      "pagina": 37,
      "total_episodios": 13,
      "link_video": "https://animefire.plus/video/genjitsu-shugi-yuusha-no-oukoku-saikenki-2nd-season"
    },
    {
      "id": 1133,
      "nome": "Genjitsu Shugi Yuusha no Oukoku Saikenki Part 2 (Dublado)",
      "link": "https://animefire.plus/animes/genjitsu-shugi-yuusha-no-oukoku-saikenki-part-2-dublado-todos-os-episodios",
      "texto_original": "Genjitsu Shugi Yuusha no Oukoku Saikenki Part 2 (Dublado)",
      "rating": 7.43,
      "classificacao_etaria": "A14",
      "imagem_original": "https://animefire.plus/img/animes/genjitsu-shugi-yuusha-no-oukoku-saikenki-part-2.webp",
      "imagem_pasta": "https://animefire.plus/img/animes/genjitsu-shugi-yuusha-no-oukoku-saikenki-part-2/",
      "secao": "dublados",
      "pagina": 12,
      "total_episodios": 12,
      "link_video": "https://animefire.plus/video/genjitsu-shugi-yuusha-no-oukoku-saikenki-part-2-dublado"
    },
    {
      "id": 1134,
      "nome": "Genma Taisen: Shinwa Zenya no Shou (Dublado)",
      "link": "https://animefire.plus/animes/genma-taisen-shinwa-zenya-no-shou-dublado-todos-os-episodios",
      "texto_original": "Genma Taisen: Shinwa Zenya no Shou (Dublado)",
      "rating": 5.22,
      "classificacao_etaria": "A14",
      "imagem_original": "https://animefire.plus/img/animes/genma-taisen-shinwa-zenya-no-shou.webp",
      "imagem_pasta": "https://animefire.plus/img/animes/genma-taisen-shinwa-zenya-no-shou/",
      "secao": "dublados,legendados",
      "pagina": 26,
      "total_episodios": 0,
      "link_video": "https://animefire.plus/video/genma-taisen-shinwa-zenya-no-shou-dublado"
    },
    {
      "id": 1135,
      "nome": "Genocyber (Dublado)",
      "link": "https://animefire.plus/animes/genocyber-dublado-todos-os-episodios",
      "texto_original": "Genocyber (Dublado)",
      "rating": 5.87,
      "classificacao_etaria": "A16",
      "imagem_original": "https://animefire.plus/img/animes/genocyber.webp",
      "imagem_pasta": "https://animefire.plus/img/animes/genocyber/",
      "secao": "dublados",
      "pagina": 21,
      "total_episodios": 3,
      "link_video": "https://animefire.plus/video/genocyber-dublado"
    },
    {
      "id": 1136,
      "nome": "Genshiken",
      "link": "https://animefire.plus/animes/genshiken-todos-os-episodios",
      "texto_original": "Genshiken",
      "rating": 7.68,
      "classificacao_etaria": "A14",
      "imagem_original": "https://animefire.plus/img/animes/genshiken.webp",
      "imagem_pasta": "https://animefire.plus/img/animes/genshiken/",
      "secao": "legendados",
      "pagina": 79,
      "total_episodios": 12,
      "link_video": "https://animefire.plus/video/genshiken"
    },
    {
      "id": 1137,
      "nome": "Genshiken 2",
      "link": "https://animefire.plus/animes/genshiken-2-todos-os-episodios",
      "texto_original": "Genshiken 2",
      "rating": 7.79,
      "classificacao_etaria": "A16",
      "imagem_original": "https://animefire.plus/img/animes/genshiken-2.webp",
      "imagem_pasta": "https://animefire.plus/img/animes/genshiken-2/",
      "secao": "legendados",
      "pagina": 63,
      "total_episodios": 12,
      "link_video": "https://animefire.plus/video/genshiken-2"
    },
    {
      "id": 1138,
      "nome": "Genshiken Nidaime",
      "link": "https://animefire.plus/animes/genshiken-nidaime-todos-os-episodios",
      "texto_original": "Genshiken Nidaime",
      "rating": 7.48,
      "classificacao_etaria": "A16",
      "imagem_original": "https://animefire.plus/img/animes/genshiken-nidaime.webp",
      "imagem_pasta": "https://animefire.plus/img/animes/genshiken-nidaime/",
      "secao": "legendados",
      "pagina": 63,
      "total_episodios": 13,
      "link_video": "https://animefire.plus/video/genshiken-nidaime"
    },
    {
      "id": 1139,
      "nome": "Genshiken Nidaime OVA",
      "link": "https://animefire.plus/animes/genshiken-nidaime-ova-todos-os-episodios",
      "texto_original": "Genshiken Nidaime OVA",
      "rating": 7.2,
      "classificacao_etaria": "A16",
      "imagem_original": "https://animefire.plus/img/animes/genshiken-nidaime-ova.webp",
      "imagem_pasta": "https://animefire.plus/img/animes/genshiken-nidaime-ova/",
      "secao": "legendados",
      "pagina": 84,
      "total_episodios": 1,
      "link_video": "https://animefire.plus/video/genshiken-nidaime-ova"
    },
    {
      "id": 1140,
      "nome": "Genshiken Nidaime Specials",
      "link": "https://animefire.plus/animes/genshiken-nidaime-specials-todos-os-episodios",
      "texto_original": "Genshiken Nidaime Specials",
      "rating": 6.89,
      "classificacao_etaria": "A16",
      "imagem_original": "https://animefire.plus/img/animes/genshiken-nidaime-specials.webp",
      "imagem_pasta": "https://animefire.plus/img/animes/genshiken-nidaime-specials/",
      "secao": "legendados",
      "pagina": 129,
      "total_episodios": 4,
      "link_video": "https://animefire.plus/video/genshiken-nidaime-specials"
    }
  ],
  "pagination": {
    "current_page": 57,
    "per_page": 20,
    "total_items": 4368,
    "total_pages": 219,
    "has_next": true,
    "has_prev": true
  }
}
