{
  "message": "Lista de animes",
  "data": [
    {
      "id": 681,
      "nome": "Colorful (Movie)",
      "link": "https://animefire.plus/animes/colorful-movie-todos-os-episodios",
      "texto_original": "Colorful (Movie)",
      "rating": 7.93,
      "classificacao_etaria": "A14",
      "imagem_original": "https://animefire.plus/img/animes/colorful-movie.webp",
      "imagem_pasta": "https://animefire.plus/img/animes/colorful-movie/",
      "secao": "legendados",
      "pagina": 156,
      "total_episodios": 5,
      "link_video": "https://animefire.plus/video/colorful-movie"
    },
    {
      "id": 682,
      "nome": "Comet Lucifer",
      "link": "https://animefire.plus/animes/comet-lucifer-todos-os-episodios",
      "texto_original": "Comet Lucifer",
      "rating": 5.93,
      "classificacao_etaria": "A14",
      "imagem_original": "https://animefire.plus/img/animes/comet-lucifer.webp",
      "imagem_pasta": "https://animefire.plus/img/animes/comet-lucifer/",
      "secao": "legendados",
      "pagina": 111,
      "total_episodios": 12,
      "link_video": "https://animefire.plus/video/comet-lucifer"
    },
    {
      "id": 683,
      "nome": "Comic Girls",
      "link": "https://animefire.plus/animes/comic-girls-todos-os-episodios",
      "texto_original": "Comic Girls",
      "rating": 7.54,
      "classificacao_etaria": "A14",
      "imagem_original": "https://animefire.plus/img/animes/comic-girls.webp",
      "imagem_pasta": "https://animefire.plus/img/animes/comic-girls/",
      "secao": "legendados",
      "pagina": 133,
      "total_episodios": 12,
      "link_video": "https://animefire.plus/video/comic-girls"
    },
    {
      "id": 684,
      "nome": "Comic Party",
      "link": "https://animefire.plus/animes/comic-party-todos-os-episodios",
      "texto_original": "Comic Party",
      "rating": 6.64,
      "classificacao_etaria": "A14",
      "imagem_original": "https://animefire.plus/img/animes/comic-party.webp",
      "imagem_pasta": "https://animefire.plus/img/animes/comic-party/",
      "secao": "legendados",
      "pagina": 99,
      "total_episodios": 13,
      "link_video": "https://animefire.plus/video/comic-party"
    },
    {
      "id": 685,
      "nome": "Comic Party Revolution",
      "link": "https://animefire.plus/animes/comic-party-revolution-todos-os-episodios",
      "texto_original": "Comic Party Revolution",
      "rating": 6.62,
      "classificacao_etaria": "A14",
      "imagem_original": "https://animefire.plus/img/animes/comic-party-revolution.webp",
      "imagem_pasta": "https://animefire.plus/img/animes/comic-party-revolution/",
      "secao": "legendados",
      "pagina": 146,
      "total_episodios": 7,
      "link_video": "https://animefire.plus/video/comic-party-revolution"
    },
    {
      "id": 686,
      "nome": "Conception",
      "link": "https://animefire.plus/animes/conception-todos-os-episodios",
      "texto_original": "Conception",
      "rating": 5.03,
      "classificacao_etaria": "A14",
      "imagem_original": "https://animefire.plus/img/animes/conception.webp",
      "imagem_pasta": "https://animefire.plus/img/animes/conception/",
      "secao": "legendados",
      "pagina": 138,
      "total_episodios": 12,
      "link_video": "https://animefire.plus/video/conception"
    },
    {
      "id": 687,
      "nome": "Concrete Revolutio: Choujin Gensou",
      "link": "https://animefire.plus/animes/concrete-revolutio-choujin-gensou-todos-os-episodios",
      "texto_original": "Concrete Revolutio: Choujin Gensou",
      "rating": 6.77,
      "classificacao_etaria": "A14",
      "imagem_original": "https://animefire.plus/img/animes/concrete-revolutio-choujin-gensou.webp",
      "imagem_pasta": "https://animefire.plus/img/animes/concrete-revolutio-choujin-gensou/",
      "secao": "legendados",
      "pagina": 107,
      "total_episodios": 13,
      "link_video": "https://animefire.plus/video/concrete-revolutio-choujin-gensou"
    },
    {
      "id": 688,
      "nome": "Concrete Revolutio: Choujin Gensou - The Last Song",
      "link": "https://animefire.plus/animes/concrete-revolutio-choujin-gensou---the-last-song-todos-os-episodios",
      "texto_original": "Concrete Revolutio: Choujin Gensou - The Last Song",
      "rating": 7.12,
      "classificacao_etaria": "A18",
      "imagem_original": "https://animefire.plus/img/animes/concrete-revolutio-choujin-gensou---the-last-song.webp",
      "imagem_pasta": "https://animefire.plus/img/animes/concrete-revolutio-choujin-gensou---the-last-song/",
      "secao": "legendados",
      "pagina": 124,
      "total_episodios": 6,
      "link_video": "https://animefire.plus/video/concrete-revolutio-choujin-gensou---the-last-song"
    },
    {
      "id": 689,
      "nome": "Cool Doji Danshi",
      "link": "https://animefire.plus/animes/cool-doji-danshi-todos-os-episodios",
      "texto_original": "Cool Doji Danshi",
      "rating": 7.86,
      "classificacao_etaria": "A14",
      "imagem_original": "https://animefire.plus/img/animes/cool-doji-danshi.webp",
      "imagem_pasta": "https://animefire.plus/img/animes/cool-doji-danshi/",
      "secao": "legendados",
      "pagina": 29,
      "total_episodios": 24,
      "link_video": "https://animefire.plus/video/cool-doji-danshi"
    },
    {
      "id": 690,
      "nome": "Cop Craft",
      "link": "https://animefire.plus/animes/cop-craft-todos-os-episodios",
      "texto_original": "Cop Craft",
      "rating": 6.74,
      "classificacao_etaria": "A16",
      "imagem_original": "https://animefire.plus/img/animes/cop-craft.webp",
      "imagem_pasta": "https://animefire.plus/img/animes/cop-craft/",
      "secao": "legendados",
      "pagina": 129,
      "total_episodios": 5,
      "link_video": "https://animefire.plus/video/cop-craft"
    },
    {
      "id": 691,
      "nome": "Copihan",
      "link": "https://animefire.plus/animes/copihan-todos-os-episodios",
      "texto_original": "Copihan",
      "rating": 5.49,
      "classificacao_etaria": "A14",
      "imagem_original": "https://animefire.plus/img/animes/copihan.webp",
      "imagem_pasta": "https://animefire.plus/img/animes/copihan/",
      "secao": "legendados",
      "pagina": 172,
      "total_episodios": 3,
      "link_video": "https://animefire.plus/video/copihan"
    },
    {
      "id": 692,
      "nome": "Coppelion",
      "link": "https://animefire.plus/animes/coppelion-todos-os-episodios",
      "texto_original": "Coppelion",
      "rating": 6.53,
      "classificacao_etaria": "A14",
      "imagem_original": "https://animefire.plus/img/animes/coppelion.webp",
      "imagem_pasta": "https://animefire.plus/img/animes/coppelion/",
      "secao": "legendados",
      "pagina": 113,
      "total_episodios": 6,
      "link_video": "https://animefire.plus/video/coppelion"
    },
    {
      "id": 693,
      "nome": "Corpse Party: Missing Footage",
      "link": "https://animefire.plus/animes/corpse-party-missing-footage-todos-os-episodios",
      "texto_original": "Corpse Party: Missing Footage",
      "rating": 6.25,
      "classificacao_etaria": "A16",
      "imagem_original": "https://animefire.plus/img/animes/corpse-party-missing-footage.webp",
      "imagem_pasta": "https://animefire.plus/img/animes/corpse-party-missing-footage/",
      "secao": "legendados",
      "pagina": 102,
      "total_episodios": 0,
      "link_video": "https://animefire.plus/video/corpse-party-missing-footage"
    },
    {
      "id": 694,
      "nome": "Corpse Party: Tortured Souls - Bougyakusareta Tamashii no Jukyou",
      "link": "https://animefire.plus/animes/corpse-party-tortured-souls---bougyakusareta-tamashii-no-jukyou-todos-os-episodios",
      "texto_original": "Corpse Party: Tortured Souls - Bougyakusareta Tamashii no Jukyou",
      "rating": 6.87,
      "classificacao_etaria": "A16",
      "imagem_original": "https://animefire.plus/img/animes/corpse-party-tortured-souls---bougyakusareta-tamashii-no-jukyou.webp",
      "imagem_pasta": "https://animefire.plus/img/animes/corpse-party-tortured-souls---bougyakusareta-tamashii-no-jukyou/",
      "secao": "legendados",
      "pagina": 105,
      "total_episodios": 4,
      "link_video": "https://animefire.plus/video/corpse-party-tortured-souls---bougyakusareta-tamashii-no-jukyou"
    },
    {
      "id": 695,
      "nome": "Cosmic Break",
      "link": "https://animefire.plus/animes/cosmic-break-todos-os-episodios",
      "texto_original": "Cosmic Break",
      "rating": 6.09,
      "classificacao_etaria": "A14",
      "imagem_original": "https://animefire.plus/img/animes/cosmic-break.webp",
      "imagem_pasta": "https://animefire.plus/img/animes/cosmic-break/",
      "secao": "legendados",
      "pagina": 141,
      "total_episodios": 3,
      "link_video": "https://animefire.plus/video/cosmic-break"
    },
    {
      "id": 696,
      "nome": "Cosmo Police Justy",
      "link": "https://animefire.plus/animes/cosmo-police-justy-todos-os-episodios",
      "texto_original": "Cosmo Police Justy",
      "rating": 5.54,
      "classificacao_etaria": "A14",
      "imagem_original": "https://animefire.plus/img/animes/cosmo-police-justy.webp",
      "imagem_pasta": "https://animefire.plus/img/animes/cosmo-police-justy/",
      "secao": "legendados",
      "pagina": 65,
      "total_episodios": 1,
      "link_video": "https://animefire.plus/video/cosmo-police-justy"
    },
    {
      "id": 697,
      "nome": "Cosmo Warrior Zero",
      "link": "https://animefire.plus/animes/cosmo-warrior-zero-todos-os-episodios",
      "texto_original": "Cosmo Warrior Zero",
      "rating": 6.63,
      "classificacao_etaria": "A14",
      "imagem_original": "https://animefire.plus/img/animes/cosmo-warrior-zero.webp",
      "imagem_pasta": "https://animefire.plus/img/animes/cosmo-warrior-zero/",
      "secao": "legendados",
      "pagina": 96,
      "total_episodios": 15,
      "link_video": "https://animefire.plus/video/cosmo-warrior-zero"
    },
    {
      "id": 698,
      "nome": "Cossette no Shouzou",
      "link": "https://animefire.plus/animes/cossette-no-shouzou-todos-os-episodios",
      "texto_original": "Cossette no Shouzou",
      "rating": 6.87,
      "classificacao_etaria": "A16",
      "imagem_original": "https://animefire.plus/img/animes/cossette-no-shouzou.webp",
      "imagem_pasta": "https://animefire.plus/img/animes/cossette-no-shouzou/",
      "secao": "legendados",
      "pagina": 57,
      "total_episodios": 3,
      "link_video": "https://animefire.plus/video/cossette-no-shouzou"
    },
    {
      "id": 699,
      "nome": "Cowboy Bebop (Dublado)",
      "link": "https://animefire.plus/animes/cowboy-bebop-dublado-todos-os-episodios",
      "texto_original": "Cowboy Bebop (Dublado)",
      "rating": 8.77,
      "classificacao_etaria": "A16",
      "imagem_original": "https://animefire.plus/img/animes/cowboy-bebop.webp",
      "imagem_pasta": "https://animefire.plus/img/animes/cowboy-bebop/",
      "secao": "dublados,legendados",
      "pagina": 15,
      "total_episodios": 3,
      "link_video": "https://animefire.plus/video/cowboy-bebop-dublado"
    },
    {
      "id": 700,
      "nome": "Coyote Ragtime Show",
      "link": "https://animefire.plus/animes/coyote-ragtime-show-todos-os-episodios",
      "texto_original": "Coyote Ragtime Show",
      "rating": 6.7,
      "classificacao_etaria": "A14",
      "imagem_original": "https://animefire.plus/img/animes/coyote-ragtime-show.webp",
      "imagem_pasta": "https://animefire.plus/img/animes/coyote-ragtime-show/",
      "secao": "legendados",
      "pagina": 100,
      "total_episodios": 12,
      "link_video": "https://animefire.plus/video/coyote-ragtime-show"
    }
  ],
  "pagination": {
    "current_page": 35,
    "per_page": 20,
    "total_items": 4368,
    "total_pages": 219,
    "has_next": true,
    "has_prev": true
  }
}
