{
  "message": "Lista de animes",
  "data": [
    {
      "id": 3181,
      "nome": "Sabage-bu! Specials",
      "link": "https://animefire.plus/animes/sabage-bu-specials-todos-os-episodios",
      "texto_original": "Sabage-bu! Specials",
      "rating": 7.32,
      "classificacao_etaria": "A14",
      "imagem_original": "https://animefire.plus/img/animes/sabage-bu-specials.webp",
      "imagem_pasta": "https://animefire.plus/img/animes/sabage-bu-specials/",
      "secao": "legendados",
      "pagina": 85,
      "total_episodios": 6,
      "link_video": "https://animefire.plus/video/sabage-bu-specials"
    },
    {
      "id": 3182,
      "nome": "Saber Marionette J (Dublado)",
      "link": "https://animefire.plus/animes/saber-marionette-j-dublado-todos-os-episodios",
      "texto_original": "Saber Marionette J (Dublado)",
      "rating": 7.37,
      "classificacao_etaria": "A14",
      "imagem_original": "https://animefire.plus/img/animes/saber-marionette-j.webp",
      "imagem_pasta": "https://animefire.plus/img/animes/saber-marionette-j/",
      "secao": "dublados,legendados",
      "pagina": 21,
      "total_episodios": 24,
      "link_video": "https://animefire.plus/video/saber-marionette-j-dublado"
    },
    {
      "id": 3183,
      "nome": "Sabiiro no Armor: Reimei",
      "link": "https://animefire.plus/animes/sabiiro-no-armor-reimei-todos-os-episodios",
      "texto_original": "Sabiiro no Armor: Reimei",
      "rating": 3.8,
      "classificacao_etaria": "A14",
      "imagem_original": "https://animefire.plus/img/animes/sabiiro-no-armor-reimei.webp",
      "imagem_pasta": "https://animefire.plus/img/animes/sabiiro-no-armor-reimei/",
      "secao": "legendados",
      "pagina": 35,
      "total_episodios": 12,
      "link_video": "https://animefire.plus/video/sabiiro-no-armor-reimei"
    },
    {
      "id": 3184,
      "nome": "Sabikui Bisco (Dublado)",
      "link": "https://animefire.plus/animes/sabikui-bisco-dublado-todos-os-episodios",
      "texto_original": "Sabikui Bisco (Dublado)",
      "rating": 7.14,
      "classificacao_etaria": "A14",
      "imagem_original": "https://animefire.plus/img/animes/sabikui-bisco.webp",
      "imagem_pasta": "https://animefire.plus/img/animes/sabikui-bisco/",
      "secao": "dublados,legendados",
      "pagina": 12,
      "total_episodios": 12,
      "link_video": "https://animefire.plus/video/sabikui-bisco-dublado"
    },
    {
      "id": 3185,
      "nome": "Sacred Seven",
      "link": "https://animefire.plus/animes/sacred-seven-todos-os-episodios",
      "texto_original": "Sacred Seven",
      "rating": 6.7,
      "classificacao_etaria": "A14",
      "imagem_original": "https://animefire.plus/img/animes/sacred-seven.webp",
      "imagem_pasta": "https://animefire.plus/img/animes/sacred-seven/",
      "secao": "legendados",
      "pagina": 149,
      "total_episodios": 12,
      "link_video": "https://animefire.plus/video/sacred-seven"
    },
    {
      "id": 3186,
      "nome": "Saenai Heroine no Sodatekata",
      "link": "https://animefire.plus/animes/saekano-how-to-raise-a-boring-girlfriend-todos-os-episodios",
      "texto_original": "Saenai Heroine no Sodatekata",
      "rating": 7.58,
      "classificacao_etaria": "A14",
      "imagem_original": "https://animefire.plus/img/animes/saekano-how-to-raise-a-boring-girlfriend.webp",
      "imagem_pasta": "https://animefire.plus/img/animes/saekano-how-to-raise-a-boring-girlfriend/",
      "secao": "legendados",
      "pagina": 62,
      "total_episodios": 13,
      "link_video": "https://animefire.plus/video/saekano-how-to-raise-a-boring-girlfriend"
    },
    {
      "id": 3187,
      "nome": "Saenai Heroine no Sodatekata ♭",
      "link": "https://animefire.plus/animes/saenai-heroine-no-sodatekata-todos-os-episodios",
      "texto_original": "Saenai Heroine no Sodatekata ♭",
      "rating": 7.87,
      "classificacao_etaria": "A14",
      "imagem_original": "https://animefire.plus/img/animes/saenai-heroine-no-sodatekata.webp",
      "imagem_pasta": "https://animefire.plus/img/animes/saenai-heroine-no-sodatekata/",
      "secao": "legendados",
      "pagina": 145,
      "total_episodios": 11,
      "link_video": "https://animefire.plus/video/saenai-heroine-no-sodatekata"
    },
    {
      "id": 3188,
      "nome": "Saihate no Paladin (Dublado)",
      "link": "https://animefire.plus/animes/saihate-no-paladin-dublado-todos-os-episodios",
      "texto_original": "Saihate no Paladin (Dublado)",
      "rating": 6.88,
      "classificacao_etaria": "A14",
      "imagem_original": "https://animefire.plus/img/animes/saihate-no-paladin.webp",
      "imagem_pasta": "https://animefire.plus/img/animes/saihate-no-paladin/",
      "secao": "dublados,legendados",
      "pagina": 14,
      "total_episodios": 12,
      "link_video": "https://animefire.plus/video/saihate-no-paladin-dublado"
    },
    {
      "id": 3189,
      "nome": "Saihate no Paladin: Tetsusabi no Yama no Ou (Dublado)",
      "link": "https://animefire.plus/animes/saihate-no-paladin-tetsusabi-no-yama-no-ou-dublado-todos-os-episodios",
      "texto_original": "Saihate no Paladin: Tetsusabi no Yama no Ou (Dublado)",
      "rating": 7.43,
      "classificacao_etaria": "A14",
      "imagem_original": "https://animefire.plus/img/animes/saihate-no-paladin-tetsusabi-no-yama-no-ou.webp",
      "imagem_pasta": "https://animefire.plus/img/animes/saihate-no-paladin-tetsusabi-no-yama-no-ou/",
      "secao": "dublados,legendados",
      "pagina": 5,
      "total_episodios": 12,
      "link_video": "https://animefire.plus/video/saihate-no-paladin-tetsusabi-no-yama-no-ou-dublado"
    },
    {
      "id": 3190,
      "nome": "Saijaku Muhai no Bahamut",
      "link": "https://animefire.plus/animes/saijaku-muhai-no-bahamut-todos-os-episodios",
      "texto_original": "Saijaku Muhai no Bahamut",
      "rating": 6.84,
      "classificacao_etaria": "A14",
      "imagem_original": "https://animefire.plus/img/animes/saijaku-muhai-no-bahamut.webp",
      "imagem_pasta": "https://animefire.plus/img/animes/saijaku-muhai-no-bahamut/",
      "secao": "legendados",
      "pagina": 158,
      "total_episodios": 1,
      "link_video": "https://animefire.plus/video/saijaku-muhai-no-bahamut"
    },
    {
      "id": 3191,
      "nome": "Saijaku Tamer wa Gomi Hiroi no Tabi wo Hajimemashita. (Dublado)",
      "link": "https://animefire.plus/animes/saijaku-tamer-wa-gomi-hiroi-no-tabi-wo-hajimemashita-dublado-todos-os-episodios",
      "texto_original": "Saijaku Tamer wa Gomi Hiroi no Tabi wo Hajimemashita. (Dublado)",
      "rating": 7.56,
      "classificacao_etaria": "A14",
      "imagem_original": "https://animefire.plus/img/animes/saijaku-tamer-wa-gomi-hiroi-no-tabi-wo-hajimemashita.webp",
      "imagem_pasta": "https://animefire.plus/img/animes/saijaku-tamer-wa-gomi-hiroi-no-tabi-wo-hajimemashita/",
      "secao": "dublados,legendados",
      "pagina": 4,
      "total_episodios": 12,
      "link_video": "https://animefire.plus/video/saijaku-tamer-wa-gomi-hiroi-no-tabi-wo-hajimemashita-dublado"
    },
    {
      "id": 3192,
      "nome": "Saiki Kusuo no Ψ-nan",
      "link": "https://animefire.plus/animes/saiki-kusuo-no--nan-todos-os-episodios",
      "texto_original": "Saiki Kusuo no Ψ-nan",
      "rating": 8.49,
      "classificacao_etaria": "A14",
      "imagem_original": "https://animefire.plus/img/animes/saiki-kusuo-no--nan.webp",
      "imagem_pasta": "https://animefire.plus/img/animes/saiki-kusuo-no--nan/",
      "secao": "legendados",
      "pagina": 58,
      "total_episodios": 4,
      "link_video": "https://animefire.plus/video/saiki-kusuo-no--nan"
    },
    {
      "id": 3193,
      "nome": "Saiki Kusuo no Ψ-nan 2",
      "link": "https://animefire.plus/animes/saiki-kusuo-no--nan-2-todos-os-episodios",
      "texto_original": "Saiki Kusuo no Ψ-nan 2",
      "rating": 8.54,
      "classificacao_etaria": "A14",
      "imagem_original": "https://animefire.plus/img/animes/saiki-kusuo-no--nan-2.webp",
      "imagem_pasta": "https://animefire.plus/img/animes/saiki-kusuo-no--nan-2/",
      "secao": "legendados",
      "pagina": 58,
      "total_episodios": 24,
      "link_video": "https://animefire.plus/video/saiki-kusuo-no--nan-2"
    },
    {
      "id": 3194,
      "nome": "Saiki Kusuo no Ψ-nan: Kanketsu-hen",
      "link": "https://animefire.plus/animes/saiki-kusuo-no--nan-kanketsu-hen-todos-os-episodios",
      "texto_original": "Saiki Kusuo no Ψ-nan: Kanketsu-hen",
      "rating": 8.29,
      "classificacao_etaria": "A14",
      "imagem_original": "https://animefire.plus/img/animes/saiki-kusuo-no--nan-kanketsu-hen.webp",
      "imagem_pasta": "https://animefire.plus/img/animes/saiki-kusuo-no--nan-kanketsu-hen/",
      "secao": "legendados",
      "pagina": 116,
      "total_episodios": 2,
      "link_video": "https://animefire.plus/video/saiki-kusuo-no--nan-kanketsu-hen"
    },
    {
      "id": 3195,
      "nome": "Saiki Kusuo no Ψ-nan: Ψ-shidou-hen (Dublado)",
      "link": "https://animefire.plus/animes/saiki-kusuo-no--nan--shidou-hen-dublado-todos-os-episodios",
      "texto_original": "Saiki Kusuo no Ψ-nan: Ψ-shidou-hen (Dublado)",
      "rating": 8.18,
      "classificacao_etaria": "A14",
      "imagem_original": "https://animefire.plus/img/animes/saiki-kusuo-no--nan--shidou-hen.webp",
      "imagem_pasta": "https://animefire.plus/img/animes/saiki-kusuo-no--nan--shidou-hen/",
      "secao": "dublados",
      "pagina": 20,
      "total_episodios": 6,
      "link_video": "https://animefire.plus/video/saiki-kusuo-no--nan--shidou-hen-dublado"
    },
    {
      "id": 3196,
      "nome": "Saikin Yatotta Maid ga Ayashii",
      "link": "https://animefire.plus/animes/saikin-yatotta-maid-ga-ayashii-todos-os-episodios",
      "texto_original": "Saikin Yatotta Maid ga Ayashii",
      "rating": 6.57,
      "classificacao_etaria": "A14",
      "imagem_original": "https://animefire.plus/img/animes/saikin-yatotta-maid-ga-ayashii.webp",
      "imagem_pasta": "https://animefire.plus/img/animes/saikin-yatotta-maid-ga-ayashii/",
      "secao": "legendados",
      "pagina": 30,
      "total_episodios": 11,
      "link_video": "https://animefire.plus/video/saikin-yatotta-maid-ga-ayashii"
    },
    {
      "id": 3197,
      "nome": "Saikin, Imouto no Yousu ga Chotto Okashiinda ga.",
      "link": "https://animefire.plus/animes/saikin-imouto-no-yousu-ga-chotto-okashiinda-ga-todos-os-episodios",
      "texto_original": "Saikin, Imouto no Yousu ga Chotto Okashiinda ga.",
      "rating": 6.38,
      "classificacao_etaria": "A14",
      "imagem_original": "https://animefire.plus/img/animes/saikin-imouto-no-yousu-ga-chotto-okashiinda-ga.webp",
      "imagem_pasta": "https://animefire.plus/img/animes/saikin-imouto-no-yousu-ga-chotto-okashiinda-ga/",
      "secao": "legendados",
      "pagina": 112,
      "total_episodios": 12,
      "link_video": "https://animefire.plus/video/saikin-imouto-no-yousu-ga-chotto-okashiinda-ga"
    },
    {
      "id": 3198,
      "nome": "Saikyou no Ousama, Nidome no Jinsei wa Nani wo Suru?",
      "link": "https://animefire.plus/animes/saikyou-no-ousama-nidome-no-jinsei-wa-nani-wo-suru-todos-os-episodios",
      "texto_original": "Saikyou no Ousama, Nidome no Jinsei wa Nani wo Suru?",
      "rating": 6.14,
      "classificacao_etaria": "A14",
      "imagem_original": "https://animefire.plus/img/animes/saikyou-no-ousama-nidome-no-jinsei-wa-nani-wo-suru.webp",
      "imagem_pasta": "https://animefire.plus/img/animes/saikyou-no-ousama-nidome-no-jinsei-wa-nani-wo-suru/",
      "secao": "legendados",
      "pagina": 6,
      "total_episodios": 12,
      "link_video": "https://animefire.plus/video/saikyou-no-ousama-nidome-no-jinsei-wa-nani-wo-suru"
    },
    {
      "id": 3199,
      "nome": "Saikyou no Shienshoku \"Wajutsushi\" de Aru Ore wa Sekai Saikyou Clan wo Shitagaeru",
      "link": "https://animefire.plus/animes/saikyou-no-shienshoku-wajutsushi-de-aru-ore-wa-sekai-saikyou-clan-wo-shitagaeru-todos-os-episodios",
      "texto_original": "Saikyou no Shienshoku \"Wajutsushi\" de Aru Ore wa Sekai Saikyou Clan wo Shitagaeru",
      "rating": 7.6,
      "classificacao_etaria": "A14",
      "imagem_original": "https://animefire.plus/img/animes/saikyou-no-shienshoku-wajutsushi-de-aru-ore-wa-sekai-saikyou-clan-wo-shitagaeru.webp",
      "imagem_pasta": "https://animefire.plus/img/animes/saikyou-no-shienshoku-wajutsushi-de-aru-ore-wa-sekai-saikyou-clan-wo-shitagaeru/",
      "secao": "legendados",
      "pagina": 11,
      "total_episodios": 12,
      "link_video": "https://animefire.plus/video/saikyou-no-shienshoku-wajutsushi-de-aru-ore-wa-sekai-saikyou-clan-wo-shitagaeru"
    },
    {
      "id": 3200,
      "nome": "Saikyou Onmyouji no Isekai Tenseiki",
      "link": "https://animefire.plus/animes/saikyou-onmyouji-no-isekai-tenseiki-todos-os-episodios",
      "texto_original": "Saikyou Onmyouji no Isekai Tenseiki",
      "rating": 7.11,
      "classificacao_etaria": "A14",
      "imagem_original": "https://animefire.plus/img/animes/saikyou-onmyouji-no-isekai-tenseiki.webp",
      "imagem_pasta": "https://animefire.plus/img/animes/saikyou-onmyouji-no-isekai-tenseiki/",
      "secao": "legendados",
      "pagina": 27,
      "total_episodios": 13,
      "link_video": "https://animefire.plus/video/saikyou-onmyouji-no-isekai-tenseiki"
    }
  ],
  "pagination": {
    "current_page": 160,
    "per_page": 20,
    "total_items": 4368,
    "total_pages": 219,
    "has_next": true,
    "has_prev": true
  }
}
