{
  "message": "Lista de animes",
  "data": [
    {
      "id": 81,
      "nome": "Ai Monogatari: 9 Love Stories",
      "link": "https://animefire.plus/animes/ai-monogatari-9-love-stories-todos-os-episodios",
      "texto_original": "Ai Monogatari: 9 Love Stories",
      "rating": 6.63,
      "classificacao_etaria": "A14",
      "imagem_original": "https://animefire.plus/img/animes/ai-monogatari-9-love-stories.webp",
      "imagem_pasta": "https://animefire.plus/img/animes/ai-monogatari-9-love-stories/",
      "secao": "legendados",
      "pagina": 78,
      "total_episodios": 1,
      "link_video": "https://animefire.plus/video/ai-monogatari-9-love-stories"
    },
    {
      "id": 82,
      "nome": "AI no Idenshi",
      "link": "https://animefire.plus/animes/ai-no-idenshi-todos-os-episodios",
      "texto_original": "AI no Idenshi",
      "rating": 6.52,
      "classificacao_etaria": "A14",
      "imagem_original": "https://animefire.plus/img/animes/aI-no-idenshi.jpg",
      "imagem_pasta": "https://animefire.plus/img/animes/aI-no-idenshi/",
      "secao": "legendados",
      "pagina": 22,
      "total_episodios": 12,
      "link_video": "https://animefire.plus/video/ai-no-idenshi"
    },
    {
      "id": 83,
      "nome": "Ai No Kusabi (2012)",
      "link": "https://animefire.plus/animes/ai-no-kusabi-2012-todos-os-episodios",
      "texto_original": "Ai No Kusabi (2012)",
      "rating": 6.72,
      "classificacao_etaria": "A18",
      "imagem_original": "https://animefire.plus/img/animes/ai-no-kusabi-2012.webp",
      "imagem_pasta": "https://animefire.plus/img/animes/ai-no-kusabi-2012/",
      "secao": "legendados",
      "pagina": 60,
      "total_episodios": 4,
      "link_video": "https://animefire.plus/video/ai-no-kusabi-2012"
    },
    {
      "id": 84,
      "nome": "Ai Tenchi Muyou!",
      "link": "https://animefire.plus/animes/ai-tenchi-muyou-todos-os-episodios",
      "texto_original": "Ai Tenchi Muyou!",
      "rating": 6.27,
      "classificacao_etaria": "A14",
      "imagem_original": "https://animefire.plus/img/animes/ai-tenchi-muyou.webp",
      "imagem_pasta": "https://animefire.plus/img/animes/ai-tenchi-muyou/",
      "secao": "legendados",
      "pagina": 178,
      "total_episodios": 0,
      "link_video": "https://animefire.plus/video/ai-tenchi-muyou"
    },
    {
      "id": 85,
      "nome": "Ai Tenshi Densetsu Wedding Peach",
      "link": "https://animefire.plus/animes/ai-tenshi-densetsu-wedding-peach-todos-os-episodios",
      "texto_original": "Ai Tenshi Densetsu Wedding Peach",
      "rating": 6.77,
      "classificacao_etaria": "A10",
      "imagem_original": "https://animefire.plus/img/animes/ai-tenshi-densetsu-wedding-peach.webp",
      "imagem_pasta": "https://animefire.plus/img/animes/ai-tenshi-densetsu-wedding-peach/",
      "secao": "legendados",
      "pagina": 158,
      "total_episodios": 34,
      "link_video": "https://animefire.plus/video/ai-tenshi-densetsu-wedding-peach"
    },
    {
      "id": 86,
      "nome": "Ai Tenshi Densetsu Wedding Peach DX",
      "link": "https://animefire.plus/animes/ai-tenshi-densetsu-wedding-peach-dx-todos-os-episodios",
      "texto_original": "Ai Tenshi Densetsu Wedding Peach DX",
      "rating": 6.7,
      "classificacao_etaria": "A14",
      "imagem_original": "https://animefire.plus/img/animes/ai-tenshi-densetsu-wedding-peach-dx.webp",
      "imagem_pasta": "https://animefire.plus/img/animes/ai-tenshi-densetsu-wedding-peach-dx/",
      "secao": "legendados",
      "pagina": 84,
      "total_episodios": 1,
      "link_video": "https://animefire.plus/video/ai-tenshi-densetsu-wedding-peach-dx"
    },
    {
      "id": 87,
      "nome": "Ai Yori Aoshi",
      "link": "https://animefire.plus/animes/ai-yori-aoshi-todos-os-episodios",
      "texto_original": "Ai Yori Aoshi",
      "rating": 7.19,
      "classificacao_etaria": "A14",
      "imagem_original": "https://animefire.plus/img/animes/ai-yori-aoshi.webp",
      "imagem_pasta": "https://animefire.plus/img/animes/ai-yori-aoshi/",
      "secao": "legendados",
      "pagina": 166,
      "total_episodios": 24,
      "link_video": "https://animefire.plus/video/ai-yori-aoshi"
    },
    {
      "id": 88,
      "nome": "Ai Yori Aoshi: Enishi",
      "link": "https://animefire.plus/animes/ai-yori-aoshi-enishi-todos-os-episodios",
      "texto_original": "Ai Yori Aoshi: Enishi",
      "rating": 7.21,
      "classificacao_etaria": "A14",
      "imagem_original": "https://animefire.plus/img/animes/ai-yori-aoshi-enishi.webp",
      "imagem_pasta": "https://animefire.plus/img/animes/ai-yori-aoshi-enishi/",
      "secao": "legendados",
      "pagina": 118,
      "total_episodios": 12,
      "link_video": "https://animefire.plus/video/ai-yori-aoshi-enishi"
    },
    {
      "id": 89,
      "nome": "AIKa",
      "link": "https://animefire.plus/animes/aika-todos-os-episodios",
      "texto_original": "AIKa",
      "rating": 5.99,
      "classificacao_etaria": "A18",
      "imagem_original": "https://animefire.plus/img/animes/aika.webp",
      "imagem_pasta": "https://animefire.plus/img/animes/aika/",
      "secao": "legendados",
      "pagina": 117,
      "total_episodios": 7,
      "link_video": "https://animefire.plus/video/aika"
    },
    {
      "id": 90,
      "nome": "AIKa R-16: Virgin Mission",
      "link": "https://animefire.plus/animes/aika-r-16-virgin-mission-todos-os-episodios",
      "texto_original": "AIKa R-16: Virgin Mission",
      "rating": 6,
      "classificacao_etaria": "A18",
      "imagem_original": "https://animefire.plus/img/animes/aika-r-16-virgin-mission.webp",
      "imagem_pasta": "https://animefire.plus/img/animes/aika-r-16-virgin-mission/",
      "secao": "legendados",
      "pagina": 60,
      "total_episodios": 3,
      "link_video": "https://animefire.plus/video/aika-r-16-virgin-mission"
    },
    {
      "id": 91,
      "nome": "Aika Zero",
      "link": "https://animefire.plus/animes/aika-zero-todos-os-episodios",
      "texto_original": "Aika Zero",
      "rating": 5.99,
      "classificacao_etaria": "A18",
      "imagem_original": "https://animefire.plus/img/animes/aika-zero.webp",
      "imagem_pasta": "https://animefire.plus/img/animes/aika-zero/",
      "secao": "legendados",
      "pagina": 111,
      "total_episodios": 2,
      "link_video": "https://animefire.plus/video/aika-zero"
    },
    {
      "id": 92,
      "nome": "AIKa Zero Picture Drama",
      "link": "https://animefire.plus/animes/aika-zero-picture-drama-todos-os-episodios",
      "texto_original": "AIKa Zero Picture Drama",
      "rating": 5.57,
      "classificacao_etaria": "A18",
      "imagem_original": "https://animefire.plus/img/animes/aika-zero-picture-drama.webp",
      "imagem_pasta": "https://animefire.plus/img/animes/aika-zero-picture-drama/",
      "secao": "legendados",
      "pagina": 44,
      "total_episodios": 3,
      "link_video": "https://animefire.plus/video/aika-zero-picture-drama"
    },
    {
      "id": 93,
      "nome": "Aikatsu Friends!",
      "link": "https://animefire.plus/animes/aikatsu-friends-todos-os-episodios",
      "texto_original": "Aikatsu Friends!",
      "rating": 7.55,
      "classificacao_etaria": "A10",
      "imagem_original": "https://animefire.plus/img/animes/aikatsu-friends.webp",
      "imagem_pasta": "https://animefire.plus/img/animes/aikatsu-friends/",
      "secao": "legendados",
      "pagina": 168,
      "total_episodios": 22,
      "link_video": "https://animefire.plus/video/aikatsu-friends"
    },
    {
      "id": 94,
      "nome": "Aikatsu on Parade!",
      "link": "https://animefire.plus/animes/aikatsu-on-parade-todos-os-episodios",
      "texto_original": "Aikatsu on Parade!",
      "rating": 6.83,
      "classificacao_etaria": "A10",
      "imagem_original": "https://animefire.plus/img/animes/aikatsu-on-parade.webp",
      "imagem_pasta": "https://animefire.plus/img/animes/aikatsu-on-parade/",
      "secao": "legendados",
      "pagina": 109,
      "total_episodios": 3,
      "link_video": "https://animefire.plus/video/aikatsu-on-parade"
    },
    {
      "id": 95,
      "nome": "Aikatsu Stars!",
      "link": "https://animefire.plus/animes/aikatsu-stars-todos-os-episodios",
      "texto_original": "Aikatsu Stars!",
      "rating": 7.63,
      "classificacao_etaria": "A10",
      "imagem_original": "https://animefire.plus/img/animes/aikatsu-stars.webp",
      "imagem_pasta": "https://animefire.plus/img/animes/aikatsu-stars/",
      "secao": "legendados",
      "pagina": 88,
      "total_episodios": 100,
      "link_video": "https://animefire.plus/video/aikatsu-stars"
    },
    {
      "id": 96,
      "nome": "Aikatsu!",
      "link": "https://animefire.plus/animes/aikatsu-todos-os-episodios",
      "texto_original": "Aikatsu!",
      "rating": 7.45,
      "classificacao_etaria": "A10",
      "imagem_original": "https://animefire.plus/img/animes/aikatsu.webp",
      "imagem_pasta": "https://animefire.plus/img/animes/aikatsu/",
      "secao": "legendados",
      "pagina": 178,
      "total_episodios": 26,
      "link_video": "https://animefire.plus/video/aikatsu"
    },
    {
      "id": 97,
      "nome": "Aikatsu!: Nerawareta Mahou no Aikatsu! Card",
      "link": "https://animefire.plus/animes/aikatsu-nerawareta-mahou-no-aikatsu-card-todos-os-episodios",
      "texto_original": "Aikatsu!: Nerawareta Mahou no Aikatsu! Card",
      "rating": 7.29,
      "classificacao_etaria": "A10",
      "imagem_original": "https://animefire.plus/img/animes/aikatsu-nerawareta-mahou-no-aikatsu-card.webp",
      "imagem_pasta": "https://animefire.plus/img/animes/aikatsu-nerawareta-mahou-no-aikatsu-card/",
      "secao": "legendados",
      "pagina": 88,
      "total_episodios": 1,
      "link_video": "https://animefire.plus/video/aikatsu-nerawareta-mahou-no-aikatsu-card"
    },
    {
      "id": 98,
      "nome": "Air Gear",
      "link": "https://animefire.plus/animes/air-gear-todos-os-episodios",
      "texto_original": "Air Gear",
      "rating": 7.62,
      "classificacao_etaria": "A18",
      "imagem_original": "https://animefire.plus/img/animes/air-gear.webp",
      "imagem_pasta": "https://animefire.plus/img/animes/air-gear/",
      "secao": "legendados",
      "pagina": 113,
      "total_episodios": 25,
      "link_video": "https://animefire.plus/video/air-gear"
    },
    {
      "id": 99,
      "nome": "Air Gear: Kuro no Hane to Nemuri no Mori - Break on the Sky",
      "link": "https://animefire.plus/animes/air-gear-kuro-no-hane-to-nemuri-no-mori---break-on-the-sky-todos-os-episodios",
      "texto_original": "Air Gear: Kuro no Hane to Nemuri no Mori - Break on the Sky",
      "rating": 7.69,
      "classificacao_etaria": "A18",
      "imagem_original": "https://animefire.plus/img/animes/air-gear-kuro-no-hane-to-nemuri-no-mori---break-on-the-sky.webp",
      "imagem_pasta": "https://animefire.plus/img/animes/air-gear-kuro-no-hane-to-nemuri-no-mori---break-on-the-sky/",
      "secao": "legendados",
      "pagina": 92,
      "total_episodios": 3,
      "link_video": "https://animefire.plus/video/air-gear-kuro-no-hane-to-nemuri-no-mori---break-on-the-sky"
    },
    {
      "id": 100,
      "nome": "Air Master",
      "link": "https://animefire.plus/animes/air-master-todos-os-episodios",
      "texto_original": "Air Master",
      "rating": 7.04,
      "classificacao_etaria": "A16",
      "imagem_original": "https://animefire.plus/img/animes/air-master.webp",
      "imagem_pasta": "https://animefire.plus/img/animes/air-master/",
      "secao": "legendados",
      "pagina": 59,
      "total_episodios": 26,
      "link_video": "https://animefire.plus/video/air-master"
    }
  ],
  "pagination": {
    "current_page": 5,
    "per_page": 20,
    "total_items": 4368,
    "total_pages": 219,
    "has_next": true,
    "has_prev": true
  }
}
