{
  "message": "Lista de animes",
  "data": [
    {
      "id": 3681,
      "nome": "Super Robot Taisen OG: The Inspector",
      "link": "https://animefire.plus/animes/super-robot-taisen-og-the-inspector-todos-os-episodios",
      "texto_original": "Super Robot Taisen OG: The Inspector",
      "rating": 7.31,
      "classificacao_etaria": "A14",
      "imagem_original": "https://animefire.plus/img/animes/super-robot-taisen-og-the-inspector.webp",
      "imagem_pasta": "https://animefire.plus/img/animes/super-robot-taisen-og-the-inspector/",
      "secao": "legendados",
      "pagina": 130,
      "total_episodios": 26,
      "link_video": "https://animefire.plus/video/super-robot-taisen-og-the-inspector"
    },
    {
      "id": 3682,
      "nome": "Super Seisyun Brothers",
      "link": "https://animefire.plus/animes/super-seisyun-brothers-todos-os-episodios",
      "texto_original": "Super Seisyun Brothers",
      "rating": 6.88,
      "classificacao_etaria": "A14",
      "imagem_original": "https://animefire.plus/img/animes/super-seisyun-brothers.webp",
      "imagem_pasta": "https://animefire.plus/img/animes/super-seisyun-brothers/",
      "secao": "legendados",
      "pagina": 170,
      "total_episodios": 7,
      "link_video": "https://animefire.plus/video/super-seisyun-brothers"
    },
    {
      "id": 3683,
      "nome": "Supernatural The Animation",
      "link": "https://animefire.plus/animes/supernatural-the-animation-todos-os-episodios",
      "texto_original": "Supernatural The Animation",
      "rating": 7.1,
      "classificacao_etaria": "A16",
      "imagem_original": "https://animefire.plus/img/animes/supernatural-the-animation.webp",
      "imagem_pasta": "https://animefire.plus/img/animes/supernatural-the-animation/",
      "secao": "legendados",
      "pagina": 159,
      "total_episodios": 22,
      "link_video": "https://animefire.plus/video/supernatural-the-animation"
    },
    {
      "id": 3684,
      "nome": "Sushi Police",
      "link": "https://animefire.plus/animes/sushi-police-todos-os-episodios",
      "texto_original": "Sushi Police",
      "rating": 4.69,
      "classificacao_etaria": "A14",
      "imagem_original": "https://animefire.plus/img/animes/sushi-police.webp",
      "imagem_pasta": "https://animefire.plus/img/animes/sushi-police/",
      "secao": "legendados",
      "pagina": 149,
      "total_episodios": 1,
      "link_video": "https://animefire.plus/video/sushi-police"
    },
    {
      "id": 3685,
      "nome": "Suzakinishi The Animation",
      "link": "https://animefire.plus/animes/suzakinishi-the-animation-todos-os-episodios",
      "texto_original": "Suzakinishi The Animation",
      "rating": 5.48,
      "classificacao_etaria": "A14",
      "imagem_original": "https://animefire.plus/img/animes/suzakinishi-the-animation.webp",
      "imagem_pasta": "https://animefire.plus/img/animes/suzakinishi-the-animation/",
      "secao": "legendados",
      "pagina": 117,
      "total_episodios": 1,
      "link_video": "https://animefire.plus/video/suzakinishi-the-animation"
    },
    {
      "id": 3686,
      "nome": "Suzuka",
      "link": "https://animefire.plus/animes/suzuka-todos-os-episodios",
      "texto_original": "Suzuka",
      "rating": 7.3,
      "classificacao_etaria": "A14",
      "imagem_original": "https://animefire.plus/img/animes/suzuka.webp",
      "imagem_pasta": "https://animefire.plus/img/animes/suzuka/",
      "secao": "legendados",
      "pagina": 129,
      "total_episodios": 22,
      "link_video": "https://animefire.plus/video/suzuka"
    },
    {
      "id": 3687,
      "nome": "Suzumiya Haruhi No Yuuutsu",
      "link": "https://animefire.plus/animes/suzumiya-haruhi-no-yuuutsu-todos-os-episodios",
      "texto_original": "Suzumiya Haruhi No Yuuutsu",
      "rating": 7.95,
      "classificacao_etaria": "A14",
      "imagem_original": "https://animefire.plus/img/animes/suzumiya-haruhi-no-yuuutsu.webp",
      "imagem_pasta": "https://animefire.plus/img/animes/suzumiya-haruhi-no-yuuutsu/",
      "secao": "legendados",
      "pagina": 99,
      "total_episodios": 14,
      "link_video": "https://animefire.plus/video/suzumiya-haruhi-no-yuuutsu"
    },
    {
      "id": 3688,
      "nome": "Suzumiya Haruhi no Yuuutsu (2009)",
      "link": "https://animefire.plus/animes/suzumiya-haruhi-no-yuuutsu-2009-todos-os-episodios",
      "texto_original": "Suzumiya Haruhi no Yuuutsu (2009)",
      "rating": 7.26,
      "classificacao_etaria": "A14",
      "imagem_original": "https://animefire.plus/img/animes/suzumiya-haruhi-no-yuuutsu-2009.webp",
      "imagem_pasta": "https://animefire.plus/img/animes/suzumiya-haruhi-no-yuuutsu-2009/",
      "secao": "legendados",
      "pagina": 165,
      "total_episodios": 19,
      "link_video": "https://animefire.plus/video/suzumiya-haruhi-no-yuuutsu-2009"
    },
    {
      "id": 3689,
      "nome": "Sweet Valerian",
      "link": "https://animefire.plus/animes/sweet-valerian-todos-os-episodios",
      "texto_original": "Sweet Valerian",
      "rating": 5.79,
      "classificacao_etaria": null,
      "imagem_original": "https://animefire.plus/img/animes/sweet-valerian.webp",
      "imagem_pasta": "https://animefire.plus/img/animes/sweet-valerian/",
      "secao": "legendados",
      "pagina": 102,
      "total_episodios": 0,
      "link_video": "https://animefire.plus/video/sweet-valerian"
    },
    {
      "id": 3690,
      "nome": "Sword Art Online (Dublado)",
      "link": "https://animefire.plus/animes/sword-art-online-dublado-todos-os-episodios",
      "texto_original": "Sword Art Online (Dublado)",
      "rating": 7.2,
      "classificacao_etaria": "A14",
      "imagem_original": "https://animefire.plus/img/animes/sword-art-online.webp",
      "imagem_pasta": "https://animefire.plus/img/animes/sword-art-online/",
      "secao": "dublados,legendados",
      "pagina": 13,
      "total_episodios": 25,
      "link_video": "https://animefire.plus/video/sword-art-online-dublado"
    },
    {
      "id": 3691,
      "nome": "Sword Art Online Alternative: Gun Gale Online",
      "link": "https://animefire.plus/animes/sword-art-online-alternative-gun-gale-online-todos-os-episodios",
      "texto_original": "Sword Art Online Alternative: Gun Gale Online",
      "rating": 7.29,
      "classificacao_etaria": "A14",
      "imagem_original": "https://animefire.plus/img/animes/sword-art-online-alternative-gun-gale-online.webp",
      "imagem_pasta": "https://animefire.plus/img/animes/sword-art-online-alternative-gun-gale-online/",
      "secao": "legendados",
      "pagina": 165,
      "total_episodios": 1,
      "link_video": "https://animefire.plus/video/sword-art-online-alternative-gun-gale-online"
    },
    {
      "id": 3692,
      "nome": "Sword Art Online Alternative: Gun Gale Online II",
      "link": "https://animefire.plus/animes/sword-art-online-alternative-gun-gale-online-ii-todos-os-episodios",
      "texto_original": "Sword Art Online Alternative: Gun Gale Online II",
      "rating": 7.14,
      "classificacao_etaria": "A14",
      "imagem_original": "https://animefire.plus/img/animes/sword-art-online-alternative-gun-gale-online-ii.webp",
      "imagem_pasta": "https://animefire.plus/img/animes/sword-art-online-alternative-gun-gale-online-ii/",
      "secao": "legendados",
      "pagina": 10,
      "total_episodios": 12,
      "link_video": "https://animefire.plus/video/sword-art-online-alternative-gun-gale-online-ii"
    },
    {
      "id": 3693,
      "nome": "Sword Art Online II (Dublado)",
      "link": "https://animefire.plus/animes/sword-art-online-ii-dublado-todos-os-episodios",
      "texto_original": "Sword Art Online II (Dublado)",
      "rating": 6.72,
      "classificacao_etaria": "A14",
      "imagem_original": "https://animefire.plus/img/animes/sword-art-online-ii.webp",
      "imagem_pasta": "https://animefire.plus/img/animes/sword-art-online-ii/",
      "secao": "dublados,legendados",
      "pagina": 13,
      "total_episodios": 24,
      "link_video": "https://animefire.plus/video/sword-art-online-ii-dublado"
    },
    {
      "id": 3694,
      "nome": "Sword Art Online II: Sword Art Offline II",
      "link": "https://animefire.plus/animes/sword-art-online-ii-sword-art-offline-ii-todos-os-episodios",
      "texto_original": "Sword Art Online II: Sword Art Offline II",
      "rating": 6.56,
      "classificacao_etaria": "A14",
      "imagem_original": "https://animefire.plus/img/animes/sword-art-online-ii-sword-art-offline-ii.webp",
      "imagem_pasta": "https://animefire.plus/img/animes/sword-art-online-ii-sword-art-offline-ii/",
      "secao": "legendados",
      "pagina": 54,
      "total_episodios": 1,
      "link_video": "https://animefire.plus/video/sword-art-online-ii-sword-art-offline-ii"
    },
    {
      "id": 3695,
      "nome": "Sword Art Online: Alicization - War of Underworld",
      "link": "https://animefire.plus/animes/sword-art-online-alicization---war-of-underworld-todos-os-episodios",
      "texto_original": "Sword Art Online: Alicization - War of Underworld",
      "rating": 7.63,
      "classificacao_etaria": "A16",
      "imagem_original": "https://animefire.plus/img/animes/sword-art-online-alicization---war-of-underworld.webp",
      "imagem_pasta": "https://animefire.plus/img/animes/sword-art-online-alicization---war-of-underworld/",
      "secao": "legendados",
      "pagina": 109,
      "total_episodios": 0,
      "link_video": "https://animefire.plus/video/sword-art-online-alicization---war-of-underworld"
    },
    {
      "id": 3696,
      "nome": "Sword Art Online: Alicization - War of Underworld 2nd Season",
      "link": "https://animefire.plus/animes/sword-art-online-alicization---war-of-underworld-2nd-season-todos-os-episodios",
      "texto_original": "Sword Art Online: Alicization - War of Underworld 2nd Season",
      "rating": null,
      "classificacao_etaria": "A16",
      "imagem_original": "https://animefire.plus/img/animes/sword-art-online-alicization---war-of-underworld-2nd-season.webp",
      "imagem_pasta": "https://animefire.plus/img/animes/sword-art-online-alicization---war-of-underworld-2nd-season/",
      "secao": "legendados",
      "pagina": 57,
      "total_episodios": 11,
      "link_video": "https://animefire.plus/video/sword-art-online-alicization---war-of-underworld-2nd-season"
    },
    {
      "id": 3697,
      "nome": "Sword Art Online: Alicization (Dublado)",
      "link": "https://animefire.plus/animes/sword-art-online-alicization-dublado-todos-os-episodios",
      "texto_original": "Sword Art Online: Alicization (Dublado)",
      "rating": 7.56,
      "classificacao_etaria": "A16",
      "imagem_original": "https://animefire.plus/img/animes/sword-art-online-alicization.webp",
      "imagem_pasta": "https://animefire.plus/img/animes/sword-art-online-alicization/",
      "secao": "dublados,legendados",
      "pagina": 12,
      "total_episodios": 24,
      "link_video": "https://animefire.plus/video/sword-art-online-alicization-dublado"
    },
    {
      "id": 3698,
      "nome": "Sword Art Online: Extra Edition",
      "link": "https://animefire.plus/animes/sword-art-online-extra-edition-todos-os-episodios",
      "texto_original": "Sword Art Online: Extra Edition",
      "rating": 6.7,
      "classificacao_etaria": "A14",
      "imagem_original": "https://animefire.plus/img/animes/sword-art-online-extra-edition.webp",
      "imagem_pasta": "https://animefire.plus/img/animes/sword-art-online-extra-edition/",
      "secao": "legendados",
      "pagina": 79,
      "total_episodios": 0,
      "link_video": "https://animefire.plus/video/sword-art-online-extra-edition"
    },
    {
      "id": 3699,
      "nome": "Sword Art Online: Sword Art Offline",
      "link": "https://animefire.plus/animes/sword-art-online-sword-art-offline-todos-os-episodios",
      "texto_original": "Sword Art Online: Sword Art Offline",
      "rating": 6.25,
      "classificacao_etaria": "A14",
      "imagem_original": "https://animefire.plus/img/animes/sword-art-online-sword-art-offline.webp",
      "imagem_pasta": "https://animefire.plus/img/animes/sword-art-online-sword-art-offline/",
      "secao": "legendados",
      "pagina": 87,
      "total_episodios": 9,
      "link_video": "https://animefire.plus/video/sword-art-online-sword-art-offline"
    },
    {
      "id": 3700,
      "nome": "Sword Gai: The Animation",
      "link": "https://animefire.plus/animes/sword-gai-the-animation-todos-os-episodios",
      "texto_original": "Sword Gai: The Animation",
      "rating": 6.08,
      "classificacao_etaria": "A16",
      "imagem_original": "https://animefire.plus/img/animes/sword-gai-the-animation.webp",
      "imagem_pasta": "https://animefire.plus/img/animes/sword-gai-the-animation/",
      "secao": "legendados",
      "pagina": 176,
      "total_episodios": 12,
      "link_video": "https://animefire.plus/video/sword-gai-the-animation"
    }
  ],
  "pagination": {
    "current_page": 185,
    "per_page": 20,
    "total_items": 4368,
    "total_pages": 219,
    "has_next": true,
    "has_prev": true
  }
}
