{
  "message": "Lista de animes",
  "data": [
    {
      "id": 261,
      "nome": "Ashita no Nadja (Dublado)",
      "link": "https://animefire.plus/animes/ashita-no-nadja-dublado-todos-os-episodios",
      "texto_original": "Ashita no Nadja (Dublado)",
      "rating": 7.6,
      "classificacao_etaria": null,
      "imagem_original": "https://animefire.plus/img/animes/ashita-no-nadja.webp",
      "imagem_pasta": "https://animefire.plus/img/animes/ashita-no-nadja/",
      "secao": "dublados,legendados",
      "pagina": 22,
      "total_episodios": 50,
      "link_video": "https://animefire.plus/video/ashita-no-nadja-dublado"
    },
    {
      "id": 262,
      "nome": "Asobi Asobase",
      "link": "https://animefire.plus/animes/asobi-asobase-todos-os-episodios",
      "texto_original": "Asobi Asobase",
      "rating": 8.23,
      "classificacao_etaria": "A14",
      "imagem_original": "https://animefire.plus/img/animes/asobi-asobase.webp",
      "imagem_pasta": "https://animefire.plus/img/animes/asobi-asobase/",
      "secao": "legendados",
      "pagina": 170,
      "total_episodios": 12,
      "link_video": "https://animefire.plus/video/asobi-asobase"
    },
    {
      "id": 263,
      "nome": "Asobi Asobase OVA",
      "link": "https://animefire.plus/animes/asobi-asobase-ova-todos-os-episodios",
      "texto_original": "Asobi Asobase OVA",
      "rating": 7.51,
      "classificacao_etaria": "A14",
      "imagem_original": "https://animefire.plus/img/animes/asobi-asobase-ova.webp",
      "imagem_pasta": "https://animefire.plus/img/animes/asobi-asobase-ova/",
      "secao": "legendados",
      "pagina": 85,
      "total_episodios": 1,
      "link_video": "https://animefire.plus/video/asobi-asobase-ova"
    },
    {
      "id": 264,
      "nome": "Asobi Asobase Specials",
      "link": "https://animefire.plus/animes/asobi-asobase-specials-todos-os-episodios",
      "texto_original": "Asobi Asobase Specials",
      "rating": 7.59,
      "classificacao_etaria": "A14",
      "imagem_original": "https://animefire.plus/img/animes/asobi-asobase-specials.webp",
      "imagem_pasta": "https://animefire.plus/img/animes/asobi-asobase-specials/",
      "secao": "legendados",
      "pagina": 85,
      "total_episodios": 2,
      "link_video": "https://animefire.plus/video/asobi-asobase-specials"
    },
    {
      "id": 265,
      "nome": "Asobi ni Iku yo!",
      "link": "https://animefire.plus/animes/asobi-ni-iku-yo-todos-os-episodios",
      "texto_original": "Asobi ni Iku yo!",
      "rating": 6.77,
      "classificacao_etaria": "A18",
      "imagem_original": "https://animefire.plus/img/animes/asobi-ni-iku-yo.webp",
      "imagem_pasta": "https://animefire.plus/img/animes/asobi-ni-iku-yo/",
      "secao": "legendados",
      "pagina": 122,
      "total_episodios": 12,
      "link_video": "https://animefire.plus/video/asobi-ni-iku-yo"
    },
    {
      "id": 266,
      "nome": "Assassins Pride",
      "link": "https://animefire.plus/animes/assassins-pride-todos-os-episodios",
      "texto_original": "Assassins Pride",
      "rating": 5.94,
      "classificacao_etaria": "A14",
      "imagem_original": "https://animefire.plus/img/animes/assassins-pride.webp",
      "imagem_pasta": "https://animefire.plus/img/animes/assassins-pride/",
      "secao": "legendados",
      "pagina": 110,
      "total_episodios": 1,
      "link_video": "https://animefire.plus/video/assassins-pride"
    },
    {
      "id": 267,
      "nome": "Assault Lily: Bouquet",
      "link": "https://animefire.plus/animes/assault-lily-bouquet-todos-os-episodios",
      "texto_original": "Assault Lily: Bouquet",
      "rating": null,
      "classificacao_etaria": "A14",
      "imagem_original": "https://animefire.plus/img/animes/assault-lily-bouquet.webp",
      "imagem_pasta": "https://animefire.plus/img/animes/assault-lily-bouquet/",
      "secao": "legendados",
      "pagina": 52,
      "total_episodios": 12,
      "link_video": "https://animefire.plus/video/assault-lily-bouquet"
    },
    {
      "id": 268,
      "nome": "Astarotte no Omocha!",
      "link": "https://animefire.plus/animes/astarotte-no-omocha-todos-os-episodios",
      "texto_original": "Astarotte no Omocha!",
      "rating": 6.69,
      "classificacao_etaria": "A14",
      "imagem_original": "https://animefire.plus/img/animes/astarotte-no-omocha.webp",
      "imagem_pasta": "https://animefire.plus/img/animes/astarotte-no-omocha/",
      "secao": "legendados",
      "pagina": 93,
      "total_episodios": 12,
      "link_video": "https://animefire.plus/video/astarotte-no-omocha"
    },
    {
      "id": 269,
      "nome": "Astro Note",
      "link": "https://animefire.plus/animes/astro-note-todos-os-episodios",
      "texto_original": "Astro Note",
      "rating": 6.55,
      "classificacao_etaria": "A14",
      "imagem_original": "https://animefire.plus/img/animes/astro-note.webp",
      "imagem_pasta": "https://animefire.plus/img/animes/astro-note/",
      "secao": "legendados",
      "pagina": 14,
      "total_episodios": 12,
      "link_video": "https://animefire.plus/video/astro-note"
    },
    {
      "id": 270,
      "nome": "Asu no Yoichi!",
      "link": "https://animefire.plus/animes/asu-no-yoichi-todos-os-episodios",
      "texto_original": "Asu no Yoichi!",
      "rating": 6.91,
      "classificacao_etaria": "A14",
      "imagem_original": "https://animefire.plus/img/animes/asu-no-yoichi.webp",
      "imagem_pasta": "https://animefire.plus/img/animes/asu-no-yoichi/",
      "secao": "legendados",
      "pagina": 150,
      "total_episodios": 12,
      "link_video": "https://animefire.plus/video/asu-no-yoichi"
    },
    {
      "id": 271,
      "nome": "Asura Cryin'",
      "link": "https://animefire.plus/animes/asura-cryin-todos-os-episodios",
      "texto_original": "Asura Cryin'",
      "rating": 7.02,
      "classificacao_etaria": "A14",
      "imagem_original": "https://animefire.plus/img/animes/asura-cryin.webp",
      "imagem_pasta": "https://animefire.plus/img/animes/asura-cryin/",
      "secao": "legendados",
      "pagina": 172,
      "total_episodios": 13,
      "link_video": "https://animefire.plus/video/asura-cryin"
    },
    {
      "id": 272,
      "nome": "Atarashii Joushi wa Do Tennen",
      "link": "https://animefire.plus/animes/atarashii-joushi-wa-do-tennen-todos-os-episodios",
      "texto_original": "Atarashii Joushi wa Do Tennen",
      "rating": 7.92,
      "classificacao_etaria": "A14",
      "imagem_original": "https://animefire.plus/img/animes/atarashii-joushi-wa-do-tennen.webp",
      "imagem_pasta": "https://animefire.plus/img/animes/atarashii-joushi-wa-do-tennen/",
      "secao": "legendados",
      "pagina": 20,
      "total_episodios": 12,
      "link_video": "https://animefire.plus/video/atarashii-joushi-wa-do-tennen"
    },
    {
      "id": 273,
      "nome": "Atasha Kawajiri Kodama Da yo: Dangerous Lifehacker no Tadareta Seikatsu",
      "link": "https://animefire.plus/animes/atasha-kawajiri-kodama-da-yo-dangerous-lifehacker-no-tadareta-seikatsu-todos-os-episodios",
      "texto_original": "Atasha Kawajiri Kodama Da yo: Dangerous Lifehacker no Tadareta Seikatsu",
      "rating": 5.72,
      "classificacao_etaria": "A14",
      "imagem_original": "https://animefire.plus/img/animes/atasha-kawajiri-kodama-da-yo-dangerous-lifehacker-no-tadareta-seikatsu.webp",
      "imagem_pasta": "https://animefire.plus/img/animes/atasha-kawajiri-kodama-da-yo-dangerous-lifehacker-no-tadareta-seikatsu/",
      "secao": "legendados,lancamentos",
      "pagina": 35,
      "total_episodios": 11,
      "link_video": "https://animefire.plus/video/atasha-kawajiri-kodama-da-yo-dangerous-lifehacker-no-tadareta-seikatsu"
    },
    {
      "id": 274,
      "nome": "Atom: The Beginning",
      "link": "https://animefire.plus/animes/atom-the-beginning-todos-os-episodios",
      "texto_original": "Atom: The Beginning",
      "rating": 6.91,
      "classificacao_etaria": "A14",
      "imagem_original": "https://animefire.plus/img/animes/atom-the-beginning.webp",
      "imagem_pasta": "https://animefire.plus/img/animes/atom-the-beginning/",
      "secao": "legendados",
      "pagina": 163,
      "total_episodios": 12,
      "link_video": "https://animefire.plus/video/atom-the-beginning"
    },
    {
      "id": 275,
      "nome": "Atri: My Dear Moments",
      "link": "https://animefire.plus/animes/atri-my-dear-moments-todos-os-episodios",
      "texto_original": "Atri: My Dear Moments",
      "rating": 7.19,
      "classificacao_etaria": "A14",
      "imagem_original": "https://animefire.plus/img/animes/atri-my-dear-moments.webp",
      "imagem_pasta": "https://animefire.plus/img/animes/atri-my-dear-moments/",
      "secao": "legendados",
      "pagina": 13,
      "total_episodios": 13,
      "link_video": "https://animefire.plus/video/atri-my-dear-moments"
    },
    {
      "id": 276,
      "nome": "Avatar: A Lenda de Korra Livro 1 (Dublado)",
      "link": "https://animefire.plus/animes/avatar-a-lenda-de-korra-livro-1-dublado-todos-os-episodios",
      "texto_original": "Avatar: A Lenda de Korra Livro 1 (Dublado)",
      "rating": 8.05,
      "classificacao_etaria": null,
      "imagem_original": "https://animefire.plus/img/animes/avatar-a-lenda-de-korra-livro-1-dublado.webp",
      "imagem_pasta": "https://animefire.plus/img/animes/avatar-a-lenda-de-korra-livro-1-dublado/",
      "secao": "dublados",
      "pagina": 27,
      "total_episodios": 12,
      "link_video": "https://animefire.plus/video/avatar-a-lenda-de-korra-livro-1-dublado"
    },
    {
      "id": 277,
      "nome": "Avatar: A Lenda de Korra Livro 2 (Dublado)",
      "link": "https://animefire.plus/animes/avatar-a-lenda-de-korra-livro-2-dublado-todos-os-episodios",
      "texto_original": "Avatar: A Lenda de Korra Livro 2 (Dublado)",
      "rating": 8.05,
      "classificacao_etaria": null,
      "imagem_original": "https://animefire.plus/img/animes/avatar-a-lenda-de-korra-livro-2-dublado.webp",
      "imagem_pasta": "https://animefire.plus/img/animes/avatar-a-lenda-de-korra-livro-2-dublado/",
      "secao": "dublados",
      "pagina": 27,
      "total_episodios": 0,
      "link_video": "https://animefire.plus/video/avatar-a-lenda-de-korra-livro-2-dublado"
    },
    {
      "id": 278,
      "nome": "Avatar: A Lenda de Korra Livro 3 (Dublado)",
      "link": "https://animefire.plus/animes/avatar-a-lenda-de-korra-livro-3-dublado-todos-os-episodios",
      "texto_original": "Avatar: A Lenda de Korra Livro 3 (Dublado)",
      "rating": 8.05,
      "classificacao_etaria": null,
      "imagem_original": "https://animefire.plus/img/animes/avatar-a-lenda-de-korra-livro-3-dublado.webp",
      "imagem_pasta": "https://animefire.plus/img/animes/avatar-a-lenda-de-korra-livro-3-dublado/",
      "secao": "dublados",
      "pagina": 27,
      "total_episodios": 0,
      "link_video": "https://animefire.plus/video/avatar-a-lenda-de-korra-livro-3-dublado"
    },
    {
      "id": 279,
      "nome": "Avatar: A Lenda de Korra Livro 4",
      "link": "https://animefire.plus/animes/avatar-a-lenda-de-korra-livro-4-todos-os-episodios",
      "texto_original": "Avatar: A Lenda de Korra Livro 4",
      "rating": 8.05,
      "classificacao_etaria": null,
      "imagem_original": "https://animefire.plus/img/animes/avatar-a-lenda-de-korra-livro-4.webp",
      "imagem_pasta": "https://animefire.plus/img/animes/avatar-a-lenda-de-korra-livro-4/",
      "secao": "legendados",
      "pagina": 114,
      "total_episodios": 0,
      "link_video": "https://animefire.plus/video/avatar-a-lenda-de-korra-livro-4"
    },
    {
      "id": 280,
      "nome": "Avenger",
      "link": "https://animefire.plus/animes/avenger-todos-os-episodios",
      "texto_original": "Avenger",
      "rating": 5.96,
      "classificacao_etaria": "A16",
      "imagem_original": "https://animefire.plus/img/animes/avenger.webp",
      "imagem_pasta": "https://animefire.plus/img/animes/avenger/",
      "secao": "legendados",
      "pagina": 179,
      "total_episodios": 13,
      "link_video": "https://animefire.plus/video/avenger"
    }
  ],
  "pagination": {
    "current_page": 14,
    "per_page": 20,
    "total_items": 4368,
    "total_pages": 219,
    "has_next": true,
    "has_prev": true
  }
}
