{
  "message": "Lista de animes",
  "data": [
    {
      "id": 2121,
      "nome": "Kowloon Generic Romance",
      "link": "https://animefire.plus/animes/kowloon-generic-romance-todos-os-episodios",
      "texto_original": "Kowloon Generic Romance",
      "rating": 7.39,
      "classificacao_etaria": "A14",
      "imagem_original": "https://animefire.plus/img/animes/kowloon-generic-romance.webp",
      "imagem_pasta": "https://animefire.plus/img/animes/kowloon-generic-romance/",
      "secao": "legendados",
      "pagina": 5,
      "total_episodios": 13,
      "link_video": "https://animefire.plus/video/kowloon-generic-romance"
    },
    {
      "id": 2122,
      "nome": "Koyomimonogatari",
      "link": "https://animefire.plus/animes/koyomimonogatari-todos-os-episodios",
      "texto_original": "Koyomimonogatari",
      "rating": 7.75,
      "classificacao_etaria": "A16",
      "imagem_original": "https://animefire.plus/img/animes/koyomimonogatari.webp",
      "imagem_pasta": "https://animefire.plus/img/animes/koyomimonogatari/",
      "secao": "legendados",
      "pagina": 134,
      "total_episodios": 12,
      "link_video": "https://animefire.plus/video/koyomimonogatari"
    },
    {
      "id": 2123,
      "nome": "Ku Pao Ying Xiong",
      "link": "https://animefire.plus/animes/ku-pao-ying-xiong-todos-os-episodios",
      "texto_original": "Ku Pao Ying Xiong",
      "rating": 5.9,
      "classificacao_etaria": null,
      "imagem_original": "https://animefire.plus/img/animes/ku-pao-ying-xiong.webp",
      "imagem_pasta": "https://animefire.plus/img/animes/ku-pao-ying-xiong/",
      "secao": "legendados",
      "pagina": 86,
      "total_episodios": 13,
      "link_video": "https://animefire.plus/video/ku-pao-ying-xiong"
    },
    {
      "id": 2124,
      "nome": "Kubikiri Cycle: Aoiro Savant to Zaregototsukai",
      "link": "https://animefire.plus/animes/kubikiri-cycle-aoiro-savant-to-zaregototsukai-todos-os-episodios",
      "texto_original": "Kubikiri Cycle: Aoiro Savant to Zaregototsukai",
      "rating": 7.89,
      "classificacao_etaria": "A16",
      "imagem_original": "https://animefire.plus/img/animes/kubikiri-cycle-aoiro-savant-to-zaregototsukai.webp",
      "imagem_pasta": "https://animefire.plus/img/animes/kubikiri-cycle-aoiro-savant-to-zaregototsukai/",
      "secao": "legendados",
      "pagina": 164,
      "total_episodios": 6,
      "link_video": "https://animefire.plus/video/kubikiri-cycle-aoiro-savant-to-zaregototsukai"
    },
    {
      "id": 2125,
      "nome": "Kubo-san wa Mob wo Yurusanai",
      "link": "https://animefire.plus/animes/kubo-san-wa-mob-wo-yurusanai-todos-os-episodios",
      "texto_original": "Kubo-san wa Mob wo Yurusanai",
      "rating": 7.55,
      "classificacao_etaria": "A14",
      "imagem_original": "https://animefire.plus/img/animes/kubo-san-wa-mob-wo-yurusanai.webp",
      "imagem_pasta": "https://animefire.plus/img/animes/kubo-san-wa-mob-wo-yurusanai/",
      "secao": "legendados",
      "pagina": 28,
      "total_episodios": 12,
      "link_video": "https://animefire.plus/video/kubo-san-wa-mob-wo-yurusanai"
    },
    {
      "id": 2126,
      "nome": "Kud Wafter",
      "link": "https://animefire.plus/animes/kud-wafter-todos-os-episodios",
      "texto_original": "Kud Wafter",
      "rating": 7.05,
      "classificacao_etaria": "A14",
      "imagem_original": "https://animefire.plus/img/animes/kud-wafter.webp",
      "imagem_pasta": "https://animefire.plus/img/animes/kud-wafter/",
      "secao": "legendados",
      "pagina": 35,
      "total_episodios": 1,
      "link_video": "https://animefire.plus/video/kud-wafter"
    },
    {
      "id": 2127,
      "nome": "Kujakuou",
      "link": "https://animefire.plus/animes/kujakuou-todos-os-episodios",
      "texto_original": "Kujakuou",
      "rating": 6.04,
      "classificacao_etaria": "A18",
      "imagem_original": "https://animefire.plus/img/animes/kujakuou.webp",
      "imagem_pasta": "https://animefire.plus/img/animes/kujakuou/",
      "secao": "legendados",
      "pagina": 164,
      "total_episodios": 3,
      "link_video": "https://animefire.plus/video/kujakuou"
    },
    {
      "id": 2128,
      "nome": "Kujibiki Unbalance",
      "link": "https://animefire.plus/animes/kujibiki-unbalance-todos-os-episodios",
      "texto_original": "Kujibiki Unbalance",
      "rating": 6.13,
      "classificacao_etaria": "A14",
      "imagem_original": "https://animefire.plus/img/animes/kujibiki-unbalance.webp",
      "imagem_pasta": "https://animefire.plus/img/animes/kujibiki-unbalance/",
      "secao": "legendados",
      "pagina": 66,
      "total_episodios": 3,
      "link_video": "https://animefire.plus/video/kujibiki-unbalance"
    },
    {
      "id": 2129,
      "nome": "Kujira no Kora wa Sajou ni Utau (Dublado)",
      "link": "https://animefire.plus/animes/kujira-no-kora-wa-sajou-ni-utau-dublado-todos-os-episodios",
      "texto_original": "Kujira no Kora wa Sajou ni Utau (Dublado)",
      "rating": 7.26,
      "classificacao_etaria": "A14",
      "imagem_original": "https://animefire.plus/img/animes/kujira-no-kora-wa-sajou-ni-utau.webp",
      "imagem_pasta": "https://animefire.plus/img/animes/kujira-no-kora-wa-sajou-ni-utau/",
      "secao": "dublados,legendados",
      "pagina": 24,
      "total_episodios": 12,
      "link_video": "https://animefire.plus/video/kujira-no-kora-wa-sajou-ni-utau-dublado"
    },
    {
      "id": 2130,
      "nome": "Kuma Kuma Kuma Bear",
      "link": "https://animefire.plus/animes/kuma-kuma-kuma-bear-todos-os-episodios",
      "texto_original": "Kuma Kuma Kuma Bear",
      "rating": 6.86,
      "classificacao_etaria": "A14",
      "imagem_original": "https://animefire.plus/img/animes/kuma-kuma-kuma-bear.webp",
      "imagem_pasta": "https://animefire.plus/img/animes/kuma-kuma-kuma-bear/",
      "secao": "legendados",
      "pagina": 51,
      "total_episodios": 0,
      "link_video": "https://animefire.plus/video/kuma-kuma-kuma-bear"
    },
    {
      "id": 2131,
      "nome": "Kuma Kuma Kuma Bear Punch!",
      "link": "https://animefire.plus/animes/kuma-kuma-kuma-bear-punch-todos-os-episodios",
      "texto_original": "Kuma Kuma Kuma Bear Punch!",
      "rating": 7.28,
      "classificacao_etaria": "A14",
      "imagem_original": "https://animefire.plus/img/animes/kuma-kuma-kuma-bear-punch.jpg",
      "imagem_pasta": "https://animefire.plus/img/animes/kuma-kuma-kuma-bear-punch/",
      "secao": "legendados",
      "pagina": 24,
      "total_episodios": 12,
      "link_video": "https://animefire.plus/video/kuma-kuma-kuma-bear-punch"
    },
    {
      "id": 2132,
      "nome": "Kuma Miko",
      "link": "https://animefire.plus/animes/kuma-miko-todos-os-episodios",
      "texto_original": "Kuma Miko",
      "rating": 6.33,
      "classificacao_etaria": "A14",
      "imagem_original": "https://animefire.plus/img/animes/kuma-miko.webp",
      "imagem_pasta": "https://animefire.plus/img/animes/kuma-miko/",
      "secao": "legendados",
      "pagina": 166,
      "total_episodios": 5,
      "link_video": "https://animefire.plus/video/kuma-miko"
    },
    {
      "id": 2133,
      "nome": "Kuma Miko Specials",
      "link": "https://animefire.plus/animes/kuma-miko-specials-todos-os-episodios",
      "texto_original": "Kuma Miko Specials",
      "rating": 6.53,
      "classificacao_etaria": "A14",
      "imagem_original": "https://animefire.plus/img/animes/kuma-miko-specials.webp",
      "imagem_pasta": "https://animefire.plus/img/animes/kuma-miko-specials/",
      "secao": "legendados",
      "pagina": 86,
      "total_episodios": 2,
      "link_video": "https://animefire.plus/video/kuma-miko-specials"
    },
    {
      "id": 2134,
      "nome": "Kumichou Musume to Sewagakari",
      "link": "https://animefire.plus/animes/kumichou-musume-to-sewagakari-todos-os-episodios",
      "texto_original": "Kumichou Musume to Sewagakari",
      "rating": 7.74,
      "classificacao_etaria": "A14",
      "imagem_original": "https://animefire.plus/img/animes/kumichou-musume-to-sewagakari.webp",
      "imagem_pasta": "https://animefire.plus/img/animes/kumichou-musume-to-sewagakari/",
      "secao": "legendados",
      "pagina": 31,
      "total_episodios": 12,
      "link_video": "https://animefire.plus/video/kumichou-musume-to-sewagakari"
    },
    {
      "id": 2135,
      "nome": "Kumo Desu ga, Nani ka? (Dublado)",
      "link": "https://animefire.plus/animes/kumo-desu-ga-nani-ka-dublado-todos-os-episodios",
      "texto_original": "Kumo Desu ga, Nani ka? (Dublado)",
      "rating": 7.45,
      "classificacao_etaria": "A14",
      "imagem_original": "https://animefire.plus/img/animes/kumo-desu-ga-nani-ka.webp",
      "imagem_pasta": "https://animefire.plus/img/animes/kumo-desu-ga-nani-ka/",
      "secao": "dublados,legendados,lancamentos",
      "pagina": 18,
      "total_episodios": 24,
      "link_video": "https://animefire.plus/video/kumo-desu-ga-nani-ka-dublado"
    },
    {
      "id": 2136,
      "nome": "Kunoichi Tsubaki no Mune no Uchi",
      "link": "https://animefire.plus/animes/kunoichi-tsubaki-no-mune-no-uchi-todos-os-episodios",
      "texto_original": "Kunoichi Tsubaki no Mune no Uchi",
      "rating": 7.1,
      "classificacao_etaria": "A14",
      "imagem_original": "https://animefire.plus/img/animes/kunoichi-tsubaki-no-mune-no-uchi.webp",
      "imagem_pasta": "https://animefire.plus/img/animes/kunoichi-tsubaki-no-mune-no-uchi/",
      "secao": "legendados",
      "pagina": 33,
      "total_episodios": 13,
      "link_video": "https://animefire.plus/video/kunoichi-tsubaki-no-mune-no-uchi"
    },
    {
      "id": 2137,
      "nome": "Kurage no Shokudou",
      "link": "https://animefire.plus/animes/kurage-no-shokudou-todos-os-episodios",
      "texto_original": "Kurage no Shokudou",
      "rating": 6.27,
      "classificacao_etaria": "A14",
      "imagem_original": "https://animefire.plus/img/animes/kurage-no-shokudou.webp",
      "imagem_pasta": "https://animefire.plus/img/animes/kurage-no-shokudou/",
      "secao": "legendados",
      "pagina": 79,
      "total_episodios": 1,
      "link_video": "https://animefire.plus/video/kurage-no-shokudou"
    },
    {
      "id": 2138,
      "nome": "Kuragehime",
      "link": "https://animefire.plus/animes/kuragehime-todos-os-episodios",
      "texto_original": "Kuragehime",
      "rating": 8.19,
      "classificacao_etaria": "A14",
      "imagem_original": "https://animefire.plus/img/animes/kuragehime.webp",
      "imagem_pasta": "https://animefire.plus/img/animes/kuragehime/",
      "secao": "legendados",
      "pagina": 141,
      "total_episodios": 8,
      "link_video": "https://animefire.plus/video/kuragehime"
    },
    {
      "id": 2139,
      "nome": "Kuragehime: Eiyuu Retsuden☆",
      "link": "https://animefire.plus/animes/kuragehime-eiyuu-retsuden-todos-os-episodios",
      "texto_original": "Kuragehime: Eiyuu Retsuden☆",
      "rating": 6.6,
      "classificacao_etaria": "A14",
      "imagem_original": "https://animefire.plus/img/animes/kuragehime-eiyuu-retsuden.webp",
      "imagem_pasta": "https://animefire.plus/img/animes/kuragehime-eiyuu-retsuden/",
      "secao": "legendados",
      "pagina": 77,
      "total_episodios": 4,
      "link_video": "https://animefire.plus/video/kuragehime-eiyuu-retsuden"
    },
    {
      "id": 2140,
      "nome": "Kurau Phantom Memory",
      "link": "https://animefire.plus/animes/kurau-phantom-memory-todos-os-episodios",
      "texto_original": "Kurau Phantom Memory",
      "rating": 7.4,
      "classificacao_etaria": "A14",
      "imagem_original": "https://animefire.plus/img/animes/kurau-phantom-memory.webp",
      "imagem_pasta": "https://animefire.plus/img/animes/kurau-phantom-memory/",
      "secao": "legendados",
      "pagina": 178,
      "total_episodios": 24,
      "link_video": "https://animefire.plus/video/kurau-phantom-memory"
    }
  ],
  "pagination": {
    "current_page": 107,
    "per_page": 20,
    "total_items": 4368,
    "total_pages": 219,
    "has_next": true,
    "has_prev": true
  }
}
