{
  "message": "Lista de animes",
  "data": [
    {
      "id": 861,
      "nome": "Douluo Dalu",
      "link": "https://animefire.plus/animes/douluo-dalu-todos-os-episodios",
      "texto_original": "Douluo Dalu",
      "rating": 7.87,
      "classificacao_etaria": "A14",
      "imagem_original": "https://animefire.plus/img/animes/douluo-dalu.webp",
      "imagem_pasta": "https://animefire.plus/img/animes/douluo-dalu/",
      "secao": "legendados",
      "pagina": 87,
      "total_episodios": 26,
      "link_video": "https://animefire.plus/video/douluo-dalu"
    },
    {
      "id": 862,
      "nome": "Douluo Dalu 2nd Season",
      "link": "https://animefire.plus/animes/douluo-dalu-2nd-season-todos-os-episodios",
      "texto_original": "Douluo Dalu 2nd Season",
      "rating": 7.92,
      "classificacao_etaria": "A14",
      "imagem_original": "https://animefire.plus/img/animes/douluo-dalu-2nd-season.webp",
      "imagem_pasta": "https://animefire.plus/img/animes/douluo-dalu-2nd-season/",
      "secao": "legendados",
      "pagina": 82,
      "total_episodios": 11,
      "link_video": "https://animefire.plus/video/douluo-dalu-2nd-season"
    },
    {
      "id": 863,
      "nome": "Doupo Cangqiong",
      "link": "https://animefire.plus/animes/doupo-cangqiong-todos-os-episodios",
      "texto_original": "Doupo Cangqiong",
      "rating": 7.36,
      "classificacao_etaria": "A14",
      "imagem_original": "https://animefire.plus/img/animes/doupo-cangqiong.webp",
      "imagem_pasta": "https://animefire.plus/img/animes/doupo-cangqiong/",
      "secao": "legendados",
      "pagina": 59,
      "total_episodios": 13,
      "link_video": "https://animefire.plus/video/doupo-cangqiong"
    },
    {
      "id": 864,
      "nome": "Doupo Cangqiong 2nd Season Specials",
      "link": "https://animefire.plus/animes/doupo-cangqiong-2nd-season-specials-todos-os-episodios",
      "texto_original": "Doupo Cangqiong 2nd Season Specials",
      "rating": 7.3,
      "classificacao_etaria": "A14",
      "imagem_original": "https://animefire.plus/img/animes/doupo-cangqiong-2nd-season-specials.webp",
      "imagem_pasta": "https://animefire.plus/img/animes/doupo-cangqiong-2nd-season-specials/",
      "secao": "legendados",
      "pagina": 87,
      "total_episodios": 3,
      "link_video": "https://animefire.plus/video/doupo-cangqiong-2nd-season-specials"
    },
    {
      "id": 865,
      "nome": "Doupo Cangqiong Specials",
      "link": "https://animefire.plus/animes/doupo-cangqiong-specials-todos-os-episodios",
      "texto_original": "Doupo Cangqiong Specials",
      "rating": 7.43,
      "classificacao_etaria": "A14",
      "imagem_original": "https://animefire.plus/img/animes/doupo-cangqiong-specials.webp",
      "imagem_pasta": "https://animefire.plus/img/animes/doupo-cangqiong-specials/",
      "secao": "legendados",
      "pagina": 83,
      "total_episodios": 2,
      "link_video": "https://animefire.plus/video/doupo-cangqiong-specials"
    },
    {
      "id": 866,
      "nome": "Douse, Koishite Shimaunda.",
      "link": "https://animefire.plus/animes/douse-koishite-shimaunda-todos-os-episodios",
      "texto_original": "Douse, Koishite Shimaunda.",
      "rating": 6.09,
      "classificacao_etaria": "A14",
      "imagem_original": "https://animefire.plus/img/animes/douse-koishite-shimaunda.webp",
      "imagem_pasta": "https://animefire.plus/img/animes/douse-koishite-shimaunda/",
      "secao": "legendados",
      "pagina": 7,
      "total_episodios": 12,
      "link_video": "https://animefire.plus/video/douse-koishite-shimaunda"
    },
    {
      "id": 867,
      "nome": "Dr. Stone (Dublado)",
      "link": "https://animefire.plus/animes/dr-stone-dublado-todos-os-episodios",
      "texto_original": "Dr. Stone (Dublado)",
      "rating": 8.35,
      "classificacao_etaria": "A14",
      "imagem_original": "https://animefire.plus/img/animes/dr-stone.webp",
      "imagem_pasta": "https://animefire.plus/img/animes/dr-stone/",
      "secao": "dublados,legendados",
      "pagina": 20,
      "total_episodios": 24,
      "link_video": "https://animefire.plus/video/dr-stone-dublado"
    },
    {
      "id": 868,
      "nome": "Dr. Stone: New World (Dublado)",
      "link": "https://animefire.plus/animes/dr-stone-new-world-dublado-todos-os-episodios",
      "texto_original": "Dr. Stone: New World (Dublado)",
      "rating": 8.15,
      "classificacao_etaria": "A14",
      "imagem_original": "https://animefire.plus/img/animes/dr-stone-new-world.webp",
      "imagem_pasta": "https://animefire.plus/img/animes/dr-stone-new-world/",
      "secao": "dublados,legendados",
      "pagina": 7,
      "total_episodios": 11,
      "link_video": "https://animefire.plus/video/dr-stone-new-world-dublado"
    },
    {
      "id": 869,
      "nome": "Dr. Stone: New World Part 2 (Dublado)",
      "link": "https://animefire.plus/animes/dr-stone-new-world-part-2-dublado-todos-os-episodios",
      "texto_original": "Dr. Stone: New World Part 2 (Dublado)",
      "rating": 8.34,
      "classificacao_etaria": "A14",
      "imagem_original": "https://animefire.plus/img/animes/dr-stone-new-world-part-2.webp",
      "imagem_pasta": "https://animefire.plus/img/animes/dr-stone-new-world-part-2/",
      "secao": "dublados,legendados",
      "pagina": 5,
      "total_episodios": 11,
      "link_video": "https://animefire.plus/video/dr-stone-new-world-part-2-dublado"
    },
    {
      "id": 870,
      "nome": "Dr. Stone: Ryuusui (Dublado)",
      "link": "https://animefire.plus/animes/dr-stone-ryuusui-dublado-todos-os-episodios",
      "texto_original": "Dr. Stone: Ryuusui (Dublado)",
      "rating": 8.13,
      "classificacao_etaria": "A14",
      "imagem_original": "https://animefire.plus/img/animes/dr-stone-ryuusui.webp",
      "imagem_pasta": "https://animefire.plus/img/animes/dr-stone-ryuusui/",
      "secao": "dublados,legendados",
      "pagina": 9,
      "total_episodios": 1,
      "link_video": "https://animefire.plus/video/dr-stone-ryuusui-dublado"
    },
    {
      "id": 871,
      "nome": "Dr. Stone: Science Future (Dublado)",
      "link": "https://animefire.plus/animes/dr-stone-science-future-dublado-todos-os-episodios",
      "texto_original": "Dr. Stone: Science Future (Dublado)",
      "rating": 8.24,
      "classificacao_etaria": "A14",
      "imagem_original": "https://animefire.plus/img/animes/dr-stone-science-future.webp",
      "imagem_pasta": "https://animefire.plus/img/animes/dr-stone-science-future/",
      "secao": "dublados,legendados,lancamentos",
      "pagina": 1,
      "total_episodios": 12,
      "link_video": "https://animefire.plus/video/dr-stone-science-future-dublado"
    },
    {
      "id": 872,
      "nome": "Dr. Stone: Science Future Part 2",
      "link": "https://animefire.plus/animes/dr-stone-science-future-part-2-todos-os-episodios",
      "texto_original": "Dr. Stone: Science Future Part 2",
      "rating": 8.22,
      "classificacao_etaria": "A14",
      "imagem_original": "https://animefire.plus/img/animes/dr-stone-science-future-part-2.webp",
      "imagem_pasta": "https://animefire.plus/img/animes/dr-stone-science-future-part-2/",
      "secao": "legendados,lancamentos",
      "pagina": 1,
      "total_episodios": 4,
      "link_video": "https://animefire.plus/video/dr-stone-science-future-part-2"
    },
    {
      "id": 873,
      "nome": "Dr. Stone: Stone Wars (Dublado)",
      "link": "https://animefire.plus/animes/dr-stone-stone-wars-dublado-todos-os-episodios",
      "texto_original": "Dr. Stone: Stone Wars (Dublado)",
      "rating": 8.16,
      "classificacao_etaria": "A14",
      "imagem_original": "https://animefire.plus/img/animes/dr-stone-stone-wars.webp",
      "imagem_pasta": "https://animefire.plus/img/animes/dr-stone-stone-wars/",
      "secao": "dublados,legendados",
      "pagina": 18,
      "total_episodios": 11,
      "link_video": "https://animefire.plus/video/dr-stone-stone-wars-dublado"
    },
    {
      "id": 874,
      "nome": "Dragon Ball (Dublado)",
      "link": "https://animefire.plus/animes/dragon-ball-dublado-todos-os-episodios",
      "texto_original": "Dragon Ball (Dublado)",
      "rating": 7.98,
      "classificacao_etaria": "A14",
      "imagem_original": "https://animefire.plus/img/animes/dragon-ball.webp",
      "imagem_pasta": "https://animefire.plus/img/animes/dragon-ball/",
      "secao": "dublados",
      "pagina": 17,
      "total_episodios": 153,
      "link_video": "https://animefire.plus/video/dragon-ball-dublado"
    },
    {
      "id": 875,
      "nome": "Dragon Ball Daima (Dublado)",
      "link": "https://animefire.plus/animes/dragon-ball-daima-dublado-todos-os-episodios",
      "texto_original": "Dragon Ball Daima (Dublado)",
      "rating": 7.63,
      "classificacao_etaria": "A14",
      "imagem_original": "https://animefire.plus/img/animes/dragon-ball-daima.webp",
      "imagem_pasta": "https://animefire.plus/img/animes/dragon-ball-daima/",
      "secao": "dublados,legendados",
      "pagina": 1,
      "total_episodios": 20,
      "link_video": "https://animefire.plus/video/dragon-ball-daima-dublado"
    },
    {
      "id": 876,
      "nome": "Dragon Ball GT (Dublado)",
      "link": "https://animefire.plus/animes/dragon-ball-gt-dublado-todos-os-episodios",
      "texto_original": "Dragon Ball GT (Dublado)",
      "rating": 6.64,
      "classificacao_etaria": "A14",
      "imagem_original": "https://animefire.plus/img/animes/dragon-ball-gt.webp",
      "imagem_pasta": "https://animefire.plus/img/animes/dragon-ball-gt/",
      "secao": "dublados",
      "pagina": 26,
      "total_episodios": 61,
      "link_video": "https://animefire.plus/video/dragon-ball-gt-dublado"
    },
    {
      "id": 877,
      "nome": "Dragon Ball Heroes (Dublado)",
      "link": "https://animefire.plus/animes/dragon-ball-heroes-dublado-todos-os-episodios",
      "texto_original": "Dragon Ball Heroes (Dublado)",
      "rating": 5.62,
      "classificacao_etaria": "A14",
      "imagem_original": "https://animefire.plus/img/animes/dragon-ball-heroes.webp",
      "imagem_pasta": "https://animefire.plus/img/animes/dragon-ball-heroes/",
      "secao": "dublados,legendados,lancamentos",
      "pagina": 26,
      "total_episodios": 16,
      "link_video": "https://animefire.plus/video/dragon-ball-heroes-dublado"
    },
    {
      "id": 878,
      "nome": "Dragon Ball Kai (Dublado)",
      "link": "https://animefire.plus/animes/dragon-ball-kai-dublado-todos-os-episodios",
      "texto_original": "Dragon Ball Kai (Dublado)",
      "rating": 7.79,
      "classificacao_etaria": "A14",
      "imagem_original": "https://animefire.plus/img/animes/dragon-ball-kai.webp",
      "imagem_pasta": "https://animefire.plus/img/animes/dragon-ball-kai/",
      "secao": "dublados",
      "pagina": 21,
      "total_episodios": 26,
      "link_video": "https://animefire.plus/video/dragon-ball-kai-dublado"
    },
    {
      "id": 879,
      "nome": "Dragon Ball Super (Dublado)",
      "link": "https://animefire.plus/animes/dragon-ball-super-dublado-todos-os-episodios",
      "texto_original": "Dragon Ball Super (Dublado)",
      "rating": 7.66,
      "classificacao_etaria": "A14",
      "imagem_original": "https://animefire.plus/img/animes/dragon-ball-super.webp",
      "imagem_pasta": "https://animefire.plus/img/animes/dragon-ball-super/",
      "secao": "dublados",
      "pagina": 27,
      "total_episodios": 0,
      "link_video": "https://animefire.plus/video/dragon-ball-super-dublado"
    },
    {
      "id": 880,
      "nome": "Dragon Ball Z (Dublado)",
      "link": "https://animefire.plus/animes/dragon-ball-z-dublado-todos-os-episodios",
      "texto_original": "Dragon Ball Z (Dublado)",
      "rating": 8.15,
      "classificacao_etaria": "A14",
      "imagem_original": "https://animefire.plus/img/animes/dragon-ball-z.webp",
      "imagem_pasta": "https://animefire.plus/img/animes/dragon-ball-z/",
      "secao": "dublados",
      "pagina": 17,
      "total_episodios": 291,
      "link_video": "https://animefire.plus/video/dragon-ball-z-dublado"
    }
  ],
  "pagination": {
    "current_page": 44,
    "per_page": 20,
    "total_items": 4368,
    "total_pages": 219,
    "has_next": true,
    "has_prev": true
  }
}
