{
  "message": "Lista de animes",
  "data": [
    {
      "id": 2461,
      "nome": "Medaka Box",
      "link": "https://animefire.plus/animes/medaka-box-todos-os-episodios",
      "texto_original": "Medaka Box",
      "rating": 7.15,
      "classificacao_etaria": "A14",
      "imagem_original": "https://animefire.plus/img/animes/medaka-box.webp",
      "imagem_pasta": "https://animefire.plus/img/animes/medaka-box/",
      "secao": "legendados",
      "pagina": 177,
      "total_episodios": 0,
      "link_video": "https://animefire.plus/video/medaka-box"
    },
    {
      "id": 2462,
      "nome": "Medaka Box Abnormal",
      "link": "https://animefire.plus/animes/medaka-box-abnormal-todos-os-episodios",
      "texto_original": "Medaka Box Abnormal",
      "rating": 7.53,
      "classificacao_etaria": "A14",
      "imagem_original": "https://animefire.plus/img/animes/medaka-box-abnormal.webp",
      "imagem_pasta": "https://animefire.plus/img/animes/medaka-box-abnormal/",
      "secao": "legendados",
      "pagina": 125,
      "total_episodios": 0,
      "link_video": "https://animefire.plus/video/medaka-box-abnormal"
    },
    {
      "id": 2463,
      "nome": "Medarot (Dublado)",
      "link": "https://animefire.plus/animes/medarot-dublado-todos-os-episodios",
      "texto_original": "Medarot (Dublado)",
      "rating": 7.12,
      "classificacao_etaria": "A10",
      "imagem_original": "https://animefire.plus/img/animes/medarot.webp",
      "imagem_pasta": "https://animefire.plus/img/animes/medarot/",
      "secao": "dublados",
      "pagina": 26,
      "total_episodios": 52,
      "link_video": "https://animefire.plus/video/medarot-dublado"
    },
    {
      "id": 2464,
      "nome": "Megalo Box",
      "link": "https://animefire.plus/animes/megalo-box-todos-os-episodios",
      "texto_original": "Megalo Box",
      "rating": 8.02,
      "classificacao_etaria": "A16",
      "imagem_original": "https://animefire.plus/img/animes/megalo-box.webp",
      "imagem_pasta": "https://animefire.plus/img/animes/megalo-box/",
      "secao": "legendados",
      "pagina": 95,
      "total_episodios": 13,
      "link_video": "https://animefire.plus/video/megalo-box"
    },
    {
      "id": 2465,
      "nome": "Megami Kouhosei (Dublado)",
      "link": "https://animefire.plus/animes/megami-kouhosei-dublado-todos-os-episodios",
      "texto_original": "Megami Kouhosei (Dublado)",
      "rating": 6.49,
      "classificacao_etaria": "A14",
      "imagem_original": "https://animefire.plus/img/animes/megami-kouhosei.webp",
      "imagem_pasta": "https://animefire.plus/img/animes/megami-kouhosei/",
      "secao": "dublados,legendados",
      "pagina": 26,
      "total_episodios": 12,
      "link_video": "https://animefire.plus/video/megami-kouhosei-dublado"
    },
    {
      "id": 2466,
      "nome": "Megami no Café Terrace",
      "link": "https://animefire.plus/animes/megami-no-cafe-terrace-todos-os-episodios",
      "texto_original": "Megami no Café Terrace",
      "rating": 7.31,
      "classificacao_etaria": "A14",
      "imagem_original": "https://animefire.plus/img/animes/megami-no-cafe-terrace.jpg",
      "imagem_pasta": "https://animefire.plus/img/animes/megami-no-cafe-terrace/",
      "secao": "legendados",
      "pagina": 23,
      "total_episodios": 12,
      "link_video": "https://animefire.plus/video/megami-no-cafe-terrace"
    },
    {
      "id": 2467,
      "nome": "Megami no Café Terrace 2nd Season",
      "link": "https://animefire.plus/animes/megami-no-cafe-terrace-2nd-season-todos-os-episodios",
      "texto_original": "Megami no Café Terrace 2nd Season",
      "rating": 7.39,
      "classificacao_etaria": "A14",
      "imagem_original": "https://animefire.plus/img/animes/megami-no-cafe-terrace-2nd-season.webp",
      "imagem_pasta": "https://animefire.plus/img/animes/megami-no-cafe-terrace-2nd-season/",
      "secao": "legendados",
      "pagina": 12,
      "total_episodios": 12,
      "link_video": "https://animefire.plus/video/megami-no-cafe-terrace-2nd-season"
    },
    {
      "id": 2468,
      "nome": "Megami Paradise",
      "link": "https://animefire.plus/animes/megami-paradise-todos-os-episodios",
      "texto_original": "Megami Paradise",
      "rating": 5.54,
      "classificacao_etaria": "A18",
      "imagem_original": "https://animefire.plus/img/animes/megami-paradise.webp",
      "imagem_pasta": "https://animefire.plus/img/animes/megami-paradise/",
      "secao": "legendados",
      "pagina": 68,
      "total_episodios": 2,
      "link_video": "https://animefire.plus/video/megami-paradise"
    },
    {
      "id": 2469,
      "nome": "Megami-ryou no Ryoubo-kun.",
      "link": "https://animefire.plus/animes/megami-ryou-no-ryoubo-kun-todos-os-episodios",
      "texto_original": "Megami-ryou no Ryoubo-kun.",
      "rating": 6.49,
      "classificacao_etaria": "A18",
      "imagem_original": "https://animefire.plus/img/animes/megami-ryou-no-ryoubo-kun.webp",
      "imagem_pasta": "https://animefire.plus/img/animes/megami-ryou-no-ryoubo-kun/",
      "secao": "legendados",
      "pagina": 41,
      "total_episodios": 10,
      "link_video": "https://animefire.plus/video/megami-ryou-no-ryoubo-kun"
    },
    {
      "id": 2470,
      "nome": "Meganebu!",
      "link": "https://animefire.plus/animes/meganebu-todos-os-episodios",
      "texto_original": "Meganebu!",
      "rating": 6.35,
      "classificacao_etaria": "A14",
      "imagem_original": "https://animefire.plus/img/animes/meganebu.webp",
      "imagem_pasta": "https://animefire.plus/img/animes/meganebu/",
      "secao": "legendados",
      "pagina": 172,
      "total_episodios": 2,
      "link_video": "https://animefire.plus/video/meganebu"
    },
    {
      "id": 2471,
      "nome": "Megaton-kyuu Musashi",
      "link": "https://animefire.plus/animes/megaton-kyuu-musashi-todos-os-episodios",
      "texto_original": "Megaton-kyuu Musashi",
      "rating": 6.28,
      "classificacao_etaria": "A14",
      "imagem_original": "https://animefire.plus/img/animes/megaton-kyuu-musashi.webp",
      "imagem_pasta": "https://animefire.plus/img/animes/megaton-kyuu-musashi/",
      "secao": "legendados",
      "pagina": 13,
      "total_episodios": 1,
      "link_video": "https://animefire.plus/video/megaton-kyuu-musashi"
    },
    {
      "id": 2472,
      "nome": "Megumi no Daigo: Kyuukoku no Orange",
      "link": "https://animefire.plus/animes/megumi-no-daigo-kyuukoku-no-orange-todos-os-episodios",
      "texto_original": "Megumi no Daigo: Kyuukoku no Orange",
      "rating": 6.71,
      "classificacao_etaria": "A14",
      "imagem_original": "https://animefire.plus/img/animes/megumi-no-daigo-kyuukoku-no-orange.webp",
      "imagem_pasta": "https://animefire.plus/img/animes/megumi-no-daigo-kyuukoku-no-orange/",
      "secao": "legendados",
      "pagina": 21,
      "total_episodios": 23,
      "link_video": "https://animefire.plus/video/megumi-no-daigo-kyuukoku-no-orange"
    },
    {
      "id": 2473,
      "nome": "Meiji Gekken: 1874",
      "link": "https://animefire.plus/animes/meiji-gekken-1874-todos-os-episodios",
      "texto_original": "Meiji Gekken: 1874",
      "rating": 6.32,
      "classificacao_etaria": "A16",
      "imagem_original": "https://animefire.plus/img/animes/meiji-gekken-1874.webp",
      "imagem_pasta": "https://animefire.plus/img/animes/meiji-gekken-1874/",
      "secao": "legendados",
      "pagina": 16,
      "total_episodios": 10,
      "link_video": "https://animefire.plus/video/meiji-gekken-1874"
    },
    {
      "id": 2474,
      "nome": "Meiji Tokyo Renka",
      "link": "https://animefire.plus/animes/meiji-tokyo-renka-todos-os-episodios",
      "texto_original": "Meiji Tokyo Renka",
      "rating": 6.93,
      "classificacao_etaria": "A14",
      "imagem_original": "https://animefire.plus/img/animes/meiji-tokyo-renka.webp",
      "imagem_pasta": "https://animefire.plus/img/animes/meiji-tokyo-renka/",
      "secao": "legendados",
      "pagina": 100,
      "total_episodios": 12,
      "link_video": "https://animefire.plus/video/meiji-tokyo-renka"
    },
    {
      "id": 2475,
      "nome": "Meikyuu Black Company (Dublado)",
      "link": "https://animefire.plus/animes/meikyuu-black-company-dublado-todos-os-episodios",
      "texto_original": "Meikyuu Black Company (Dublado)",
      "rating": 7.22,
      "classificacao_etaria": "A14",
      "imagem_original": "https://animefire.plus/img/animes/meikyuu-black-company.webp",
      "imagem_pasta": "https://animefire.plus/img/animes/meikyuu-black-company/",
      "secao": "dublados,legendados",
      "pagina": 16,
      "total_episodios": 12,
      "link_video": "https://animefire.plus/video/meikyuu-black-company-dublado"
    },
    {
      "id": 2476,
      "nome": "Meiou Project Zeorymer",
      "link": "https://animefire.plus/animes/meiou-project-zeorymer-todos-os-episodios",
      "texto_original": "Meiou Project Zeorymer",
      "rating": 6.2,
      "classificacao_etaria": "A18",
      "imagem_original": "https://animefire.plus/img/animes/meiou-project-zeorymer.webp",
      "imagem_pasta": "https://animefire.plus/img/animes/meiou-project-zeorymer/",
      "secao": "legendados",
      "pagina": 76,
      "total_episodios": 4,
      "link_video": "https://animefire.plus/video/meiou-project-zeorymer"
    },
    {
      "id": 2477,
      "nome": "Mekakucity Actors",
      "link": "https://animefire.plus/animes/mekakucity-actors-todos-os-episodios",
      "texto_original": "Mekakucity Actors",
      "rating": 7.17,
      "classificacao_etaria": "A14",
      "imagem_original": "https://animefire.plus/img/animes/mekakucity-actors.webp",
      "imagem_pasta": "https://animefire.plus/img/animes/mekakucity-actors/",
      "secao": "legendados",
      "pagina": 148,
      "total_episodios": 12,
      "link_video": "https://animefire.plus/video/mekakucity-actors"
    },
    {
      "id": 2478,
      "nome": "Melty Lancer",
      "link": "https://animefire.plus/animes/melty-lancer-todos-os-episodios",
      "texto_original": "Melty Lancer",
      "rating": 5.96,
      "classificacao_etaria": "A14",
      "imagem_original": "https://animefire.plus/img/animes/melty-lancer.webp",
      "imagem_pasta": "https://animefire.plus/img/animes/melty-lancer/",
      "secao": "legendados",
      "pagina": 66,
      "total_episodios": 6,
      "link_video": "https://animefire.plus/video/melty-lancer"
    },
    {
      "id": 2479,
      "nome": "Meng Qi Shi Shen",
      "link": "https://animefire.plus/animes/meng-qi-shi-shen-todos-os-episodios",
      "texto_original": "Meng Qi Shi Shen",
      "rating": 7.42,
      "classificacao_etaria": "A14",
      "imagem_original": "https://animefire.plus/img/animes/meng-qi-shi-shen.webp",
      "imagem_pasta": "https://animefire.plus/img/animes/meng-qi-shi-shen/",
      "secao": "legendados",
      "pagina": 170,
      "total_episodios": 12,
      "link_video": "https://animefire.plus/video/meng-qi-shi-shen"
    },
    {
      "id": 2480,
      "nome": "Meng Qi Shi Shen: Huanxi Zhui Hun",
      "link": "https://animefire.plus/animes/meng-qi-shi-shen-huanxi-zhui-hun-todos-os-episodios",
      "texto_original": "Meng Qi Shi Shen: Huanxi Zhui Hun",
      "rating": 7.49,
      "classificacao_etaria": "A14",
      "imagem_original": "https://animefire.plus/img/animes/meng-qi-shi-shen-huanxi-zhui-hun.webp",
      "imagem_pasta": "https://animefire.plus/img/animes/meng-qi-shi-shen-huanxi-zhui-hun/",
      "secao": "legendados,lancamentos",
      "pagina": 30,
      "total_episodios": 11,
      "link_video": "https://animefire.plus/video/meng-qi-shi-shen-huanxi-zhui-hun"
    }
  ],
  "pagination": {
    "current_page": 124,
    "per_page": 20,
    "total_items": 4368,
    "total_pages": 219,
    "has_next": true,
    "has_prev": true
  }
}
