{
  "message": "Lista de animes",
  "data": [
    {
      "id": 4281,
      "nome": "Yu☆Gi☆Oh! Zexal Second",
      "link": "https://animefire.plus/animes/yu-gi-oh-zexal-second-todos-os-episodios",
      "texto_original": "Yu☆Gi☆Oh! Zexal Second",
      "rating": 6.88,
      "classificacao_etaria": "A14",
      "imagem_original": "https://animefire.plus/img/animes/yu-gi-oh-zexal-second.webp",
      "imagem_pasta": "https://animefire.plus/img/animes/yu-gi-oh-zexal-second/",
      "secao": "legendados",
      "pagina": 56,
      "total_episodios": 73,
      "link_video": "https://animefire.plus/video/yu-gi-oh-zexal-second"
    },
    {
      "id": 4282,
      "nome": "Yu☆Gi☆Oh!: Duel Monsters GX (Dublado)",
      "link": "https://animefire.plus/animes/yu-gi-oh-duel-monsters-gx-dublado-todos-os-episodios",
      "texto_original": "Yu☆Gi☆Oh!: Duel Monsters GX (Dublado)",
      "rating": 7.23,
      "classificacao_etaria": "A14",
      "imagem_original": "https://animefire.plus/img/animes/yu-gi-oh-duel-monsters-gx.webp",
      "imagem_pasta": "https://animefire.plus/img/animes/yu-gi-oh-duel-monsters-gx/",
      "secao": "dublados",
      "pagina": 27,
      "total_episodios": 20,
      "link_video": "https://animefire.plus/video/yu-gi-oh-duel-monsters-gx-dublado"
    },
    {
      "id": 4283,
      "nome": "Yu☆Gi☆Oh!: Go Rush!!",
      "link": "https://animefire.plus/animes/yu-gi-oh-go-rush-todos-os-episodios",
      "texto_original": "Yu☆Gi☆Oh!: Go Rush!!",
      "rating": 6.17,
      "classificacao_etaria": "A14",
      "imagem_original": "https://animefire.plus/img/animes/yu-gi-oh-go-rush.webp",
      "imagem_pasta": "https://animefire.plus/img/animes/yu-gi-oh-go-rush/",
      "secao": "legendados,lancamentos",
      "pagina": 33,
      "total_episodios": 2,
      "link_video": "https://animefire.plus/video/yu-gi-oh-go-rush"
    },
    {
      "id": 4284,
      "nome": "Yu☆Gi☆Oh!: Sevens",
      "link": "https://animefire.plus/animes/yu-gi-oh-sevens-todos-os-episodios",
      "texto_original": "Yu☆Gi☆Oh!: Sevens",
      "rating": 5.4,
      "classificacao_etaria": "A14",
      "imagem_original": "https://animefire.plus/img/animes/yu-gi-oh-sevens.webp",
      "imagem_pasta": "https://animefire.plus/img/animes/yu-gi-oh-sevens/",
      "secao": "legendados,lancamentos",
      "pagina": 81,
      "total_episodios": 9,
      "link_video": "https://animefire.plus/video/yu-gi-oh-sevens"
    },
    {
      "id": 4285,
      "nome": "Yubisaki kara Honki no Netsujou 2: Koibito wa Shouboushi",
      "link": "https://animefire.plus/animes/yubisaki-kara-honki-no-netsujou-2-koibito-wa-shouboushi-todos-os-episodios",
      "texto_original": "Yubisaki kara Honki no Netsujou 2: Koibito wa Shouboushi",
      "rating": 6.31,
      "classificacao_etaria": "A18",
      "imagem_original": "https://animefire.plus/img/animes/yubisaki-kara-honki-no-netsujou-2-koibito-wa-shouboushi.webp",
      "imagem_pasta": "https://animefire.plus/img/animes/yubisaki-kara-honki-no-netsujou-2-koibito-wa-shouboushi/",
      "secao": "legendados,lancamentos",
      "pagina": 40,
      "total_episodios": 0,
      "link_video": "https://animefire.plus/video/yubisaki-kara-honki-no-netsujou-2-koibito-wa-shouboushi"
    },
    {
      "id": 4286,
      "nome": "Yubisaki to Renren",
      "link": "https://animefire.plus/animes/yubisaki-to-renren-todos-os-episodios",
      "texto_original": "Yubisaki to Renren",
      "rating": 8.2,
      "classificacao_etaria": "A14",
      "imagem_original": "https://animefire.plus/img/animes/yubisaki-to-renren.webp",
      "imagem_pasta": "https://animefire.plus/img/animes/yubisaki-to-renren/",
      "secao": "legendados",
      "pagina": 18,
      "total_episodios": 12,
      "link_video": "https://animefire.plus/video/yubisaki-to-renren"
    },
    {
      "id": 4287,
      "nome": "Yume Oukoku to Nemureru 100-nin no Ouji-sama",
      "link": "https://animefire.plus/animes/yume-oukoku-to-nemureru-100-nin-no-ouji-sama-todos-os-episodios",
      "texto_original": "Yume Oukoku to Nemureru 100-nin no Ouji-sama",
      "rating": 5.99,
      "classificacao_etaria": "A14",
      "imagem_original": "https://animefire.plus/img/animes/yume-oukoku-to-nemureru-100-nin-no-ouji-sama.webp",
      "imagem_pasta": "https://animefire.plus/img/animes/yume-oukoku-to-nemureru-100-nin-no-ouji-sama/",
      "secao": "legendados",
      "pagina": 163,
      "total_episodios": 11,
      "link_video": "https://animefire.plus/video/yume-oukoku-to-nemureru-100-nin-no-ouji-sama"
    },
    {
      "id": 4288,
      "nome": "Yume Tsukai",
      "link": "https://animefire.plus/animes/yume-tsukai-todos-os-episodios",
      "texto_original": "Yume Tsukai",
      "rating": 6.49,
      "classificacao_etaria": "A10",
      "imagem_original": "https://animefire.plus/img/animes/yume-tsukai.webp",
      "imagem_pasta": "https://animefire.plus/img/animes/yume-tsukai/",
      "secao": "legendados",
      "pagina": 164,
      "total_episodios": 12,
      "link_video": "https://animefire.plus/video/yume-tsukai"
    },
    {
      "id": 4289,
      "nome": "Yume-iro Pâtissière",
      "link": "https://animefire.plus/animes/yume-iro-patissiere-todos-os-episodios",
      "texto_original": "Yume-iro Pâtissière",
      "rating": 8.01,
      "classificacao_etaria": null,
      "imagem_original": "https://animefire.plus/img/animes/yume-iro-patissiere.webp",
      "imagem_pasta": "https://animefire.plus/img/animes/yume-iro-patissiere/",
      "secao": "legendados",
      "pagina": 144,
      "total_episodios": 50,
      "link_video": "https://animefire.plus/video/yume-iro-patissiere"
    },
    {
      "id": 4290,
      "nome": "Yume-iro Pâtissière SP Professional",
      "link": "https://animefire.plus/animes/yume-iro-patissiere-sp-professional-todos-os-episodios",
      "texto_original": "Yume-iro Pâtissière SP Professional",
      "rating": 7.74,
      "classificacao_etaria": null,
      "imagem_original": "https://animefire.plus/img/animes/yume-iro-patissiere-sp-professional.webp",
      "imagem_pasta": "https://animefire.plus/img/animes/yume-iro-patissiere-sp-professional/",
      "secao": "legendados",
      "pagina": 166,
      "total_episodios": 13,
      "link_video": "https://animefire.plus/video/yume-iro-patissiere-sp-professional"
    },
    {
      "id": 4291,
      "nome": "Yumedamaya Kidan",
      "link": "https://animefire.plus/animes/yumedamaya-kidan-todos-os-episodios",
      "texto_original": "Yumedamaya Kidan",
      "rating": 6.57,
      "classificacao_etaria": "A10",
      "imagem_original": "https://animefire.plus/img/animes/yumedamaya-kidan.webp",
      "imagem_pasta": "https://animefire.plus/img/animes/yumedamaya-kidan/",
      "secao": "legendados",
      "pagina": 70,
      "total_episodios": 1,
      "link_video": "https://animefire.plus/video/yumedamaya-kidan"
    },
    {
      "id": 4292,
      "nome": "Yumekui Merry",
      "link": "https://animefire.plus/animes/yumekui-merry-todos-os-episodios",
      "texto_original": "Yumekui Merry",
      "rating": 7.01,
      "classificacao_etaria": "A14",
      "imagem_original": "https://animefire.plus/img/animes/yumekui-merry.webp",
      "imagem_pasta": "https://animefire.plus/img/animes/yumekui-merry/",
      "secao": "legendados",
      "pagina": 112,
      "total_episodios": 13,
      "link_video": "https://animefire.plus/video/yumekui-merry"
    },
    {
      "id": 4293,
      "nome": "Yumemiru Danshi wa Genjitsushugisha",
      "link": "https://animefire.plus/animes/yumemiru-danshi-wa-genjitsushugisha-todos-os-episodios",
      "texto_original": "Yumemiru Danshi wa Genjitsushugisha",
      "rating": 6.62,
      "classificacao_etaria": "A14",
      "imagem_original": "https://animefire.plus/img/animes/yumemiru-danshi-wa-genjitsushugisha.jpg",
      "imagem_pasta": "https://animefire.plus/img/animes/yumemiru-danshi-wa-genjitsushugisha/",
      "secao": "legendados",
      "pagina": 22,
      "total_episodios": 12,
      "link_video": "https://animefire.plus/video/yumemiru-danshi-wa-genjitsushugisha"
    },
    {
      "id": 4294,
      "nome": "Yumeria",
      "link": "https://animefire.plus/animes/yumeria-todos-os-episodios",
      "texto_original": "Yumeria",
      "rating": 6.19,
      "classificacao_etaria": "A14",
      "imagem_original": "https://animefire.plus/img/animes/yumeria.webp",
      "imagem_pasta": "https://animefire.plus/img/animes/yumeria/",
      "secao": "legendados",
      "pagina": 133,
      "total_episodios": 12,
      "link_video": "https://animefire.plus/video/yumeria"
    },
    {
      "id": 4295,
      "nome": "Yuragi-sou no Yuuna-san",
      "link": "https://animefire.plus/animes/yuragi-sou-no-yuuna-san-todos-os-episodios",
      "texto_original": "Yuragi-sou no Yuuna-san",
      "rating": 7.22,
      "classificacao_etaria": "A18",
      "imagem_original": "https://animefire.plus/img/animes/yuragi-sou-no-yuuna-san.webp",
      "imagem_pasta": "https://animefire.plus/img/animes/yuragi-sou-no-yuuna-san/",
      "secao": "legendados",
      "pagina": 128,
      "total_episodios": 12,
      "link_video": "https://animefire.plus/video/yuragi-sou-no-yuuna-san"
    },
    {
      "id": 4296,
      "nome": "Yuragi-sou no Yuuna-san OVA",
      "link": "https://animefire.plus/animes/yuragi-sou-no-yuuna-san-ova-todos-os-episodios",
      "texto_original": "Yuragi-sou no Yuuna-san OVA",
      "rating": 7.15,
      "classificacao_etaria": "A18",
      "imagem_original": "https://animefire.plus/img/animes/yuragi-sou-no-yuuna-san-ova.webp",
      "imagem_pasta": "https://animefire.plus/img/animes/yuragi-sou-no-yuuna-san-ova/",
      "secao": "legendados",
      "pagina": 107,
      "total_episodios": 4,
      "link_video": "https://animefire.plus/video/yuragi-sou-no-yuuna-san-ova"
    },
    {
      "id": 4297,
      "nome": "Yurei Deco",
      "link": "https://animefire.plus/animes/yurei-deco-todos-os-episodios",
      "texto_original": "Yurei Deco",
      "rating": 6.03,
      "classificacao_etaria": "A14",
      "imagem_original": "https://animefire.plus/img/animes/yurei-deco.webp",
      "imagem_pasta": "https://animefire.plus/img/animes/yurei-deco/",
      "secao": "legendados",
      "pagina": 31,
      "total_episodios": 12,
      "link_video": "https://animefire.plus/video/yurei-deco"
    },
    {
      "id": 4298,
      "nome": "Yuri Kuma Arashi",
      "link": "https://animefire.plus/animes/yuri-kuma-arashi-todos-os-episodios",
      "texto_original": "Yuri Kuma Arashi",
      "rating": 7.14,
      "classificacao_etaria": "A16",
      "imagem_original": "https://animefire.plus/img/animes/yuri-kuma-arashi.webp",
      "imagem_pasta": "https://animefire.plus/img/animes/yuri-kuma-arashi/",
      "secao": "legendados",
      "pagina": 137,
      "total_episodios": 5,
      "link_video": "https://animefire.plus/video/yuri-kuma-arashi"
    },
    {
      "id": 4299,
      "nome": "Yuri!!! on Ice",
      "link": "https://animefire.plus/animes/yuri-on-ice-todos-os-episodios",
      "texto_original": "Yuri!!! on Ice",
      "rating": 8.11,
      "classificacao_etaria": "A14",
      "imagem_original": "https://animefire.plus/img/animes/yuri-on-ice.webp",
      "imagem_pasta": "https://animefire.plus/img/animes/yuri-on-ice/",
      "secao": "legendados",
      "pagina": 116,
      "total_episodios": 1,
      "link_video": "https://animefire.plus/video/yuri-on-ice"
    },
    {
      "id": 4300,
      "nome": "Yuru Camp△ (Dublado)",
      "link": "https://animefire.plus/animes/yuru-camp-dublado-todos-os-episodios",
      "texto_original": "Yuru Camp△ (Dublado)",
      "rating": 8.27,
      "classificacao_etaria": "A14",
      "imagem_original": "https://animefire.plus/img/animes/yuru-camp.webp",
      "imagem_pasta": "https://animefire.plus/img/animes/yuru-camp/",
      "secao": "dublados,legendados",
      "pagina": 11,
      "total_episodios": 12,
      "link_video": "https://animefire.plus/video/yuru-camp-dublado"
    }
  ],
  "pagination": {
    "current_page": 215,
    "per_page": 20,
    "total_items": 4368,
    "total_pages": 219,
    "has_next": true,
    "has_prev": true
  }
}
