{
  "message": "Lista de animes",
  "data": [
    {
      "id": 661,
      "nome": "Clannad: After Story",
      "link": "https://animefire.plus/animes/clannad-after-story-todos-os-episodios",
      "texto_original": "Clannad: After Story",
      "rating": 8.98,
      "classificacao_etaria": "A14",
      "imagem_original": "https://animefire.plus/img/animes/clannad-after-story.webp",
      "imagem_pasta": "https://animefire.plus/img/animes/clannad-after-story/",
      "secao": "legendados",
      "pagina": 122,
      "total_episodios": 24,
      "link_video": "https://animefire.plus/video/clannad-after-story"
    },
    {
      "id": 662,
      "nome": "Class no Daikirai na Joshi to Kekkon suru Koto ni Natta.",
      "link": "https://animefire.plus/animes/class-no-daikirai-na-joshi-to-kekkon-suru-koto-ni-natta-todos-os-episodios",
      "texto_original": "Class no Daikirai na Joshi to Kekkon suru Koto ni Natta.",
      "rating": 6.77,
      "classificacao_etaria": "A14",
      "imagem_original": "https://animefire.plus/img/animes/class-no-daikirai-na-joshi-to-kekkon-suru-koto-ni-natta.webp",
      "imagem_pasta": "https://animefire.plus/img/animes/class-no-daikirai-na-joshi-to-kekkon-suru-koto-ni-natta/",
      "secao": "legendados",
      "pagina": 8,
      "total_episodios": 12,
      "link_video": "https://animefire.plus/video/class-no-daikirai-na-joshi-to-kekkon-suru-koto-ni-natta"
    },
    {
      "id": 663,
      "nome": "Classic★Stars",
      "link": "https://animefire.plus/animes/classic-stars-todos-os-episodios",
      "texto_original": "Classic★Stars",
      "rating": 5.66,
      "classificacao_etaria": "A14",
      "imagem_original": "https://animefire.plus/img/animes/classic-stars.webp",
      "imagem_pasta": "https://animefire.plus/img/animes/classic-stars/",
      "secao": "legendados",
      "pagina": 4,
      "total_episodios": 13,
      "link_video": "https://animefire.plus/video/classic-stars"
    },
    {
      "id": 664,
      "nome": "Classroom☆Crisis",
      "link": "https://animefire.plus/animes/classroom-crisis-todos-os-episodios",
      "texto_original": "Classroom☆Crisis",
      "rating": 7.1,
      "classificacao_etaria": "A14",
      "imagem_original": "https://animefire.plus/img/animes/classroom-crisis.webp",
      "imagem_pasta": "https://animefire.plus/img/animes/classroom-crisis/",
      "secao": "legendados",
      "pagina": 94,
      "total_episodios": 13,
      "link_video": "https://animefire.plus/video/classroom-crisis"
    },
    {
      "id": 665,
      "nome": "Claymore (Dublado)",
      "link": "https://animefire.plus/animes/claymore-dublado-todos-os-episodios",
      "texto_original": "Claymore (Dublado)",
      "rating": 7.78,
      "classificacao_etaria": "A18",
      "imagem_original": "https://animefire.plus/img/animes/claymore.webp",
      "imagem_pasta": "https://animefire.plus/img/animes/claymore/",
      "secao": "dublados,legendados",
      "pagina": 18,
      "total_episodios": 26,
      "link_video": "https://animefire.plus/video/claymore-dublado"
    },
    {
      "id": 666,
      "nome": "Cleopatra D.C.",
      "link": "https://animefire.plus/animes/cleopatra-d-c-todos-os-episodios",
      "texto_original": "Cleopatra D.C.",
      "rating": 5.95,
      "classificacao_etaria": "A18",
      "imagem_original": "https://animefire.plus/img/animes/cleopatra-d-c.webp",
      "imagem_pasta": "https://animefire.plus/img/animes/cleopatra-d-c/",
      "secao": "legendados",
      "pagina": 117,
      "total_episodios": 3,
      "link_video": "https://animefire.plus/video/cleopatra-d-c"
    },
    {
      "id": 667,
      "nome": "Clevatess: Majuu no Ou to Akago to Shikabane no Yuusha (Dublado)",
      "link": "https://animefire.plus/animes/clevatess-majuu-no-ou-to-akago-to-shikabane-no-yuusha-dublado-todos-os-episodios",
      "texto_original": "Clevatess: Majuu no Ou to Akago to Shikabane no Yuusha (Dublado)",
      "rating": 7.92,
      "classificacao_etaria": "A16",
      "imagem_original": "https://animefire.plus/img/animes/clevatess-majuu-no-ou-to-akago-to-shikabane-no-yuusha.webp",
      "imagem_pasta": "https://animefire.plus/img/animes/clevatess-majuu-no-ou-to-akago-to-shikabane-no-yuusha/",
      "secao": "dublados,legendados,lancamentos",
      "pagina": 1,
      "total_episodios": 5,
      "link_video": "https://animefire.plus/video/clevatess-majuu-no-ou-to-akago-to-shikabane-no-yuusha-dublado"
    },
    {
      "id": 668,
      "nome": "Clione no Akari",
      "link": "https://animefire.plus/animes/clione-no-akari-todos-os-episodios",
      "texto_original": "Clione no Akari",
      "rating": 5.43,
      "classificacao_etaria": "A14",
      "imagem_original": "https://animefire.plus/img/animes/clione-no-akari.webp",
      "imagem_pasta": "https://animefire.plus/img/animes/clione-no-akari/",
      "secao": "legendados",
      "pagina": 121,
      "total_episodios": 12,
      "link_video": "https://animefire.plus/video/clione-no-akari"
    },
    {
      "id": 669,
      "nome": "Clockwork Planet",
      "link": "https://animefire.plus/animes/clockwork-planet-todos-os-episodios",
      "texto_original": "Clockwork Planet",
      "rating": 6.51,
      "classificacao_etaria": "A14",
      "imagem_original": "https://animefire.plus/img/animes/clockwork-planet.webp",
      "imagem_pasta": "https://animefire.plus/img/animes/clockwork-planet/",
      "secao": "legendados",
      "pagina": 74,
      "total_episodios": 11,
      "link_video": "https://animefire.plus/video/clockwork-planet"
    },
    {
      "id": 670,
      "nome": "Clover",
      "link": "https://animefire.plus/animes/clover-todos-os-episodios",
      "texto_original": "Clover",
      "rating": 6.8,
      "classificacao_etaria": "A14",
      "imagem_original": "https://animefire.plus/img/animes/clover.webp",
      "imagem_pasta": "https://animefire.plus/img/animes/clover/",
      "secao": "legendados",
      "pagina": 41,
      "total_episodios": 0,
      "link_video": "https://animefire.plus/video/clover"
    },
    {
      "id": 671,
      "nome": "CMFU Xueyuan: Wangzi Peng Peng Qiu",
      "link": "https://animefire.plus/animes/cmfu-xueyuan-wangzi-peng-peng-qiu-todos-os-episodios",
      "texto_original": "CMFU Xueyuan: Wangzi Peng Peng Qiu",
      "rating": 6.32,
      "classificacao_etaria": "A14",
      "imagem_original": "https://animefire.plus/img/animes/cmfu-xueyuan-wangzi-peng-peng-qiu.webp",
      "imagem_pasta": "https://animefire.plus/img/animes/cmfu-xueyuan-wangzi-peng-peng-qiu/",
      "secao": "legendados",
      "pagina": 86,
      "total_episodios": 24,
      "link_video": "https://animefire.plus/video/cmfu-xueyuan-wangzi-peng-peng-qiu"
    },
    {
      "id": 672,
      "nome": "Cobra The Animation",
      "link": "https://animefire.plus/animes/cobra-the-animation-todos-os-episodios",
      "texto_original": "Cobra The Animation",
      "rating": 7.17,
      "classificacao_etaria": "A18",
      "imagem_original": "https://animefire.plus/img/animes/cobra-the-animation.webp",
      "imagem_pasta": "https://animefire.plus/img/animes/cobra-the-animation/",
      "secao": "legendados",
      "pagina": 164,
      "total_episodios": 13,
      "link_video": "https://animefire.plus/video/cobra-the-animation"
    },
    {
      "id": 673,
      "nome": "Cobra The Animation: The Psycho-Gun",
      "link": "https://animefire.plus/animes/cobra-the-animation-the-psycho-gun-todos-os-episodios",
      "texto_original": "Cobra The Animation: The Psycho-Gun",
      "rating": 7.02,
      "classificacao_etaria": "A14",
      "imagem_original": "https://animefire.plus/img/animes/cobra-the-animation-the-psycho-gun.webp",
      "imagem_pasta": "https://animefire.plus/img/animes/cobra-the-animation-the-psycho-gun/",
      "secao": "legendados",
      "pagina": 108,
      "total_episodios": 4,
      "link_video": "https://animefire.plus/video/cobra-the-animation-the-psycho-gun"
    },
    {
      "id": 674,
      "nome": "Code Geass: Dakkan no Rozé",
      "link": "https://animefire.plus/animes/code-geass-dakkan-no-roze-todos-os-episodios",
      "texto_original": "Code Geass: Dakkan no Rozé",
      "rating": 6.52,
      "classificacao_etaria": "A16",
      "imagem_original": "https://animefire.plus/img/animes/code-geass-dakkan-no-roze.webp",
      "imagem_pasta": "https://animefire.plus/img/animes/code-geass-dakkan-no-roze/",
      "secao": "legendados",
      "pagina": 12,
      "total_episodios": 12,
      "link_video": "https://animefire.plus/video/code-geass-dakkan-no-roze"
    },
    {
      "id": 675,
      "nome": "Code Geass: Hangyaku no Lelouch",
      "link": "https://animefire.plus/animes/code-geass-hangyaku-no-lelouch-todos-os-episodios",
      "texto_original": "Code Geass: Hangyaku no Lelouch",
      "rating": 8.77,
      "classificacao_etaria": "A16",
      "imagem_original": "https://animefire.plus/img/animes/code-geass-hangyaku-no-lelouch.webp",
      "imagem_pasta": "https://animefire.plus/img/animes/code-geass-hangyaku-no-lelouch/",
      "secao": "legendados",
      "pagina": 154,
      "total_episodios": 25,
      "link_video": "https://animefire.plus/video/code-geass-hangyaku-no-lelouch"
    },
    {
      "id": 676,
      "nome": "Code Geass: Hangyaku no Lelouch R2",
      "link": "https://animefire.plus/animes/code-geass-hangyaku-no-lelouch-r2-todos-os-episodios",
      "texto_original": "Code Geass: Hangyaku no Lelouch R2",
      "rating": 8.93,
      "classificacao_etaria": "A16",
      "imagem_original": "https://animefire.plus/img/animes/code-geass-hangyaku-no-lelouch-r2.webp",
      "imagem_pasta": "https://animefire.plus/img/animes/code-geass-hangyaku-no-lelouch-r2/",
      "secao": "legendados",
      "pagina": 176,
      "total_episodios": 25,
      "link_video": "https://animefire.plus/video/code-geass-hangyaku-no-lelouch-r2"
    },
    {
      "id": 677,
      "nome": "Code-E",
      "link": "https://animefire.plus/animes/code-e-todos-os-episodios",
      "texto_original": "Code-E",
      "rating": 6.48,
      "classificacao_etaria": null,
      "imagem_original": "https://animefire.plus/img/animes/code-e.webp",
      "imagem_pasta": "https://animefire.plus/img/animes/code-e/",
      "secao": "legendados",
      "pagina": 153,
      "total_episodios": 12,
      "link_video": "https://animefire.plus/video/code-e"
    },
    {
      "id": 678,
      "nome": "Code:Breaker",
      "link": "https://animefire.plus/animes/code-breaker-todos-os-episodios",
      "texto_original": "Code:Breaker",
      "rating": 6.93,
      "classificacao_etaria": "A16",
      "imagem_original": "https://animefire.plus/img/animes/code-breaker.webp",
      "imagem_pasta": "https://animefire.plus/img/animes/code-breaker/",
      "secao": "legendados",
      "pagina": 163,
      "total_episodios": 13,
      "link_video": "https://animefire.plus/video/code-breaker"
    },
    {
      "id": 679,
      "nome": "Code:Realize - Sousei no Himegimi",
      "link": "https://animefire.plus/animes/code-realize---sousei-no-himegimi-todos-os-episodios",
      "texto_original": "Code:Realize - Sousei no Himegimi",
      "rating": 6.7,
      "classificacao_etaria": "A14",
      "imagem_original": "https://animefire.plus/img/animes/code-realize---sousei-no-himegimi.webp",
      "imagem_pasta": "https://animefire.plus/img/animes/code-realize---sousei-no-himegimi/",
      "secao": "legendados",
      "pagina": 94,
      "total_episodios": 12,
      "link_video": "https://animefire.plus/video/code-realize---sousei-no-himegimi"
    },
    {
      "id": 680,
      "nome": "Colorful",
      "link": "https://animefire.plus/animes/colorful-todos-os-episodios",
      "texto_original": "Colorful",
      "rating": 6.1,
      "classificacao_etaria": "A18",
      "imagem_original": "https://animefire.plus/img/animes/colorful.webp",
      "imagem_pasta": "https://animefire.plus/img/animes/colorful/",
      "secao": "legendados",
      "pagina": 60,
      "total_episodios": 16,
      "link_video": "https://animefire.plus/video/colorful"
    }
  ],
  "pagination": {
    "current_page": 34,
    "per_page": 20,
    "total_items": 4368,
    "total_pages": 219,
    "has_next": true,
    "has_prev": true
  }
}
