{
  "message": "Lista de animes",
  "data": [
    {
      "id": 761,
      "nome": "Date A Live V",
      "link": "https://animefire.plus/animes/date-a-live-v-todos-os-episodios",
      "texto_original": "Date A Live V",
      "rating": 7.69,
      "classificacao_etaria": "A16",
      "imagem_original": "https://animefire.plus/img/animes/date-a-live-v.webp",
      "imagem_pasta": "https://animefire.plus/img/animes/date-a-live-v/",
      "secao": "legendados",
      "pagina": 15,
      "total_episodios": 12,
      "link_video": "https://animefire.plus/video/date-a-live-v"
    },
    {
      "id": 762,
      "nome": "Days (TV): Touin Gakuen-sen!",
      "link": "https://animefire.plus/animes/days-tv-touin-gakuen-sen-todos-os-episodios",
      "texto_original": "Days (TV): Touin Gakuen-sen!",
      "rating": 7.63,
      "classificacao_etaria": "A14",
      "imagem_original": "https://animefire.plus/img/animes/days-tv-touin-gakuen-sen.webp",
      "imagem_pasta": "https://animefire.plus/img/animes/days-tv-touin-gakuen-sen/",
      "secao": "legendados",
      "pagina": 163,
      "total_episodios": 3,
      "link_video": "https://animefire.plus/video/days-tv-touin-gakuen-sen"
    },
    {
      "id": 763,
      "nome": "De:vadasy",
      "link": "https://animefire.plus/animes/de-vadasy-todos-os-episodios",
      "texto_original": "De:vadasy",
      "rating": 4.8,
      "classificacao_etaria": "A18",
      "imagem_original": "https://animefire.plus/img/animes/de-vadasy.webp",
      "imagem_pasta": "https://animefire.plus/img/animes/de-vadasy/",
      "secao": "legendados",
      "pagina": 69,
      "total_episodios": 3,
      "link_video": "https://animefire.plus/video/de-vadasy"
    },
    {
      "id": 764,
      "nome": "Dead Dead Demons Dededede Destruction (ONA)",
      "link": "https://animefire.plus/animes/dead-dead-demons-dededede-destruction-ona-todos-os-episodios",
      "texto_original": "Dead Dead Demons Dededede Destruction (ONA)",
      "rating": 7.92,
      "classificacao_etaria": "A14",
      "imagem_original": "https://animefire.plus/img/animes/dead-dead-demons-dededede-destruction-ona.webp",
      "imagem_pasta": "https://animefire.plus/img/animes/dead-dead-demons-dededede-destruction-ona/",
      "secao": "legendados",
      "pagina": 12,
      "total_episodios": 17,
      "link_video": "https://animefire.plus/video/dead-dead-demons-dededede-destruction-ona"
    },
    {
      "id": 765,
      "nome": "Dead Heat",
      "link": "https://animefire.plus/animes/dead-heat-todos-os-episodios",
      "texto_original": "Dead Heat",
      "rating": 5.54,
      "classificacao_etaria": "A14",
      "imagem_original": "https://animefire.plus/img/animes/dead-heat.webp",
      "imagem_pasta": "https://animefire.plus/img/animes/dead-heat/",
      "secao": "legendados",
      "pagina": 70,
      "total_episodios": 1,
      "link_video": "https://animefire.plus/video/dead-heat"
    },
    {
      "id": 766,
      "nome": "Dead Mount Death Play",
      "link": "https://animefire.plus/animes/dead-mount-death-play-todos-os-episodios",
      "texto_original": "Dead Mount Death Play",
      "rating": 7.27,
      "classificacao_etaria": "A16",
      "imagem_original": "https://animefire.plus/img/animes/dead-mount-death-play.jpg",
      "imagem_pasta": "https://animefire.plus/img/animes/dead-mount-death-play/",
      "secao": "legendados",
      "pagina": 24,
      "total_episodios": 12,
      "link_video": "https://animefire.plus/video/dead-mount-death-play"
    },
    {
      "id": 767,
      "nome": "Dead Mount Death Play Part 2",
      "link": "https://animefire.plus/animes/dead-mount-death-play-part-2-todos-os-episodios",
      "texto_original": "Dead Mount Death Play Part 2",
      "rating": 7.48,
      "classificacao_etaria": "A16",
      "imagem_original": "https://animefire.plus/img/animes/dead-mount-death-play-part-2.webp",
      "imagem_pasta": "https://animefire.plus/img/animes/dead-mount-death-play-part-2/",
      "secao": "legendados",
      "pagina": 19,
      "total_episodios": 12,
      "link_video": "https://animefire.plus/video/dead-mount-death-play-part-2"
    },
    {
      "id": 768,
      "nome": "Deadman Wonderland",
      "link": "https://animefire.plus/animes/deadman-wonderland-todos-os-episodios",
      "texto_original": "Deadman Wonderland",
      "rating": 7.36,
      "classificacao_etaria": "A16",
      "imagem_original": "https://animefire.plus/img/animes/deadman-wonderland.webp",
      "imagem_pasta": "https://animefire.plus/img/animes/deadman-wonderland/",
      "secao": "legendados",
      "pagina": 171,
      "total_episodios": 12,
      "link_video": "https://animefire.plus/video/deadman-wonderland"
    },
    {
      "id": 769,
      "nome": "Deadman Wonderland: Akai Knife Tsukai",
      "link": "https://animefire.plus/animes/deadman-wonderland-akai-knife-tsukai-todos-os-episodios",
      "texto_original": "Deadman Wonderland: Akai Knife Tsukai",
      "rating": 7.02,
      "classificacao_etaria": "A16",
      "imagem_original": "https://animefire.plus/img/animes/deadman-wonderland-akai-knife-tsukai.webp",
      "imagem_pasta": "https://animefire.plus/img/animes/deadman-wonderland-akai-knife-tsukai/",
      "secao": "legendados",
      "pagina": 62,
      "total_episodios": 1,
      "link_video": "https://animefire.plus/video/deadman-wonderland-akai-knife-tsukai"
    },
    {
      "id": 770,
      "nome": "Deaimon",
      "link": "https://animefire.plus/animes/deaimon-todos-os-episodios",
      "texto_original": "Deaimon",
      "rating": 7.55,
      "classificacao_etaria": "A14",
      "imagem_original": "https://animefire.plus/img/animes/deaimon.webp",
      "imagem_pasta": "https://animefire.plus/img/animes/deaimon/",
      "secao": "legendados",
      "pagina": 34,
      "total_episodios": 12,
      "link_video": "https://animefire.plus/video/deaimon"
    },
    {
      "id": 771,
      "nome": "Dear Boys (Dublado)",
      "link": "https://animefire.plus/animes/dear-boys-dublado-todos-os-episodios",
      "texto_original": "Dear Boys (Dublado)",
      "rating": 6.88,
      "classificacao_etaria": "A14",
      "imagem_original": "https://animefire.plus/img/animes/dear-boys.webp",
      "imagem_pasta": "https://animefire.plus/img/animes/dear-boys/",
      "secao": "dublados",
      "pagina": 22,
      "total_episodios": 26,
      "link_video": "https://animefire.plus/video/dear-boys-dublado"
    },
    {
      "id": 772,
      "nome": "DearS",
      "link": "https://animefire.plus/animes/dears-todos-os-episodios",
      "texto_original": "DearS",
      "rating": 6.71,
      "classificacao_etaria": "A18",
      "imagem_original": "https://animefire.plus/img/animes/dears.webp",
      "imagem_pasta": "https://animefire.plus/img/animes/dears/",
      "secao": "legendados",
      "pagina": 162,
      "total_episodios": 12,
      "link_video": "https://animefire.plus/video/dears"
    },
    {
      "id": 773,
      "nome": "DearS: Kin no Tama Desu no?",
      "link": "https://animefire.plus/animes/dears-kin-no-tama-desu-no-todos-os-episodios",
      "texto_original": "DearS: Kin no Tama Desu no?",
      "rating": 6.83,
      "classificacao_etaria": "A18",
      "imagem_original": "https://animefire.plus/img/animes/dears-kin-no-tama-desu-no.webp",
      "imagem_pasta": "https://animefire.plus/img/animes/dears-kin-no-tama-desu-no/",
      "secao": "legendados",
      "pagina": 43,
      "total_episodios": 1,
      "link_video": "https://animefire.plus/video/dears-kin-no-tama-desu-no"
    },
    {
      "id": 774,
      "nome": "Death Billiards",
      "link": "https://animefire.plus/animes/death-billiards-todos-os-episodios",
      "texto_original": "Death Billiards",
      "rating": 7.98,
      "classificacao_etaria": "A16",
      "imagem_original": "https://animefire.plus/img/animes/death-billiards.webp",
      "imagem_pasta": "https://animefire.plus/img/animes/death-billiards/",
      "secao": "legendados",
      "pagina": 106,
      "total_episodios": 1,
      "link_video": "https://animefire.plus/video/death-billiards"
    },
    {
      "id": 775,
      "nome": "Death March kara Hajimaru Isekai Kyousoukyoku (Dublado)",
      "link": "https://animefire.plus/animes/death-march-kara-hajimaru-isekai-kyousoukyoku-dublado-todos-os-episodios",
      "texto_original": "Death March kara Hajimaru Isekai Kyousoukyoku (Dublado)",
      "rating": 6.84,
      "classificacao_etaria": "A14",
      "imagem_original": "https://animefire.plus/img/animes/death-march-kara-hajimaru-isekai-kyousoukyoku.webp",
      "imagem_pasta": "https://animefire.plus/img/animes/death-march-kara-hajimaru-isekai-kyousoukyoku/",
      "secao": "dublados,legendados",
      "pagina": 28,
      "total_episodios": 12,
      "link_video": "https://animefire.plus/video/death-march-kara-hajimaru-isekai-kyousoukyoku-dublado"
    },
    {
      "id": 776,
      "nome": "Death Note (Dublado)",
      "link": "https://animefire.plus/animes/death-note-dublado-todos-os-episodios",
      "texto_original": "Death Note (Dublado)",
      "rating": 8.66,
      "classificacao_etaria": "A16",
      "imagem_original": "https://animefire.plus/img/animes/death-note.webp",
      "imagem_pasta": "https://animefire.plus/img/animes/death-note/",
      "secao": "dublados,legendados",
      "pagina": 26,
      "total_episodios": 37,
      "link_video": "https://animefire.plus/video/death-note-dublado"
    },
    {
      "id": 777,
      "nome": "Death Parade",
      "link": "https://animefire.plus/animes/death-parade-todos-os-episodios",
      "texto_original": "Death Parade",
      "rating": 8.23,
      "classificacao_etaria": "A16",
      "imagem_original": "https://animefire.plus/img/animes/death-parade.webp",
      "imagem_pasta": "https://animefire.plus/img/animes/death-parade/",
      "secao": "legendados",
      "pagina": 166,
      "total_episodios": 3,
      "link_video": "https://animefire.plus/video/death-parade"
    },
    {
      "id": 778,
      "nome": "Deatte 5-byou de Battle (Dublado)",
      "link": "https://animefire.plus/animes/deatte-5-byou-de-battle-dublado-todos-os-episodios",
      "texto_original": "Deatte 5-byou de Battle (Dublado)",
      "rating": 6.75,
      "classificacao_etaria": "A16",
      "imagem_original": "https://animefire.plus/img/animes/deatte-5-byou-de-battle.webp",
      "imagem_pasta": "https://animefire.plus/img/animes/deatte-5-byou-de-battle/",
      "secao": "dublados,legendados",
      "pagina": 15,
      "total_episodios": 12,
      "link_video": "https://animefire.plus/video/deatte-5-byou-de-battle-dublado"
    },
    {
      "id": 779,
      "nome": "Deca-Dence (Dublado)",
      "link": "https://animefire.plus/animes/deca-dence-dublado-todos-os-episodios",
      "texto_original": "Deca-Dence (Dublado)",
      "rating": 7.42,
      "classificacao_etaria": "A14",
      "imagem_original": "https://animefire.plus/img/animes/deca-dence.webp",
      "imagem_pasta": "https://animefire.plus/img/animes/deca-dence/",
      "secao": "dublados,legendados",
      "pagina": 15,
      "total_episodios": 12,
      "link_video": "https://animefire.plus/video/deca-dence-dublado"
    },
    {
      "id": 780,
      "nome": "Deep Insanity: The Lost Child (Dublado)",
      "link": "https://animefire.plus/animes/deep-insanity-the-lost-child-dublado-todos-os-episodios",
      "texto_original": "Deep Insanity: The Lost Child (Dublado)",
      "rating": 5.6,
      "classificacao_etaria": "A14",
      "imagem_original": "https://animefire.plus/img/animes/deep-insanity-the-lost-child.webp",
      "imagem_pasta": "https://animefire.plus/img/animes/deep-insanity-the-lost-child/",
      "secao": "dublados,legendados",
      "pagina": 14,
      "total_episodios": 12,
      "link_video": "https://animefire.plus/video/deep-insanity-the-lost-child-dublado"
    }
  ],
  "pagination": {
    "current_page": 39,
    "per_page": 20,
    "total_items": 4368,
    "total_pages": 219,
    "has_next": true,
    "has_prev": true
  }
}
