{
  "message": "Lista de animes",
  "data": [
    {
      "id": 2841,
      "nome": "One Punch Man 3",
      "link": "https://animefire.plus/animes/one-punch-man-3-todos-os-episodios",
      "texto_original": "One Punch Man 3",
      "rating": null,
      "classificacao_etaria": "A16",
      "imagem_original": "https://animefire.plus/img/animes/one-punch-man-3.webp",
      "imagem_pasta": "https://animefire.plus/img/animes/one-punch-man-3/",
      "secao": "legendados,lancamentos",
      "pagina": 19,
      "total_episodios": 0,
      "link_video": "https://animefire.plus/video/one-punch-man-3"
    },
    {
      "id": 2842,
      "nome": "One Room",
      "link": "https://animefire.plus/animes/one-room-todos-os-episodios",
      "texto_original": "One Room",
      "rating": 5.7,
      "classificacao_etaria": "A14",
      "imagem_original": "https://animefire.plus/img/animes/one-room.webp",
      "imagem_pasta": "https://animefire.plus/img/animes/one-room/",
      "secao": "legendados",
      "pagina": 155,
      "total_episodios": 12,
      "link_video": "https://animefire.plus/video/one-room"
    },
    {
      "id": 2843,
      "nome": "One Room 2nd Season",
      "link": "https://animefire.plus/animes/one-room-2nd-season-todos-os-episodios",
      "texto_original": "One Room 2nd Season",
      "rating": 6.33,
      "classificacao_etaria": "A14",
      "imagem_original": "https://animefire.plus/img/animes/one-room-2nd-season.webp",
      "imagem_pasta": "https://animefire.plus/img/animes/one-room-2nd-season/",
      "secao": "legendados",
      "pagina": 162,
      "total_episodios": 12,
      "link_video": "https://animefire.plus/video/one-room-2nd-season"
    },
    {
      "id": 2844,
      "nome": "One Room Third Season",
      "link": "https://animefire.plus/animes/one-room-third-season-todos-os-episodios",
      "texto_original": "One Room Third Season",
      "rating": null,
      "classificacao_etaria": "A14",
      "imagem_original": "https://animefire.plus/img/animes/one-room-third-season.webp",
      "imagem_pasta": "https://animefire.plus/img/animes/one-room-third-season/",
      "secao": "legendados",
      "pagina": 51,
      "total_episodios": 12,
      "link_video": "https://animefire.plus/video/one-room-third-season"
    },
    {
      "id": 2845,
      "nome": "One Room, Hiatari Futsuu, Tenshi-tsuki.",
      "link": "https://animefire.plus/animes/one-room-hiatari-futsuu-tenshi-tsuki-todos-os-episodios",
      "texto_original": "One Room, Hiatari Futsuu, Tenshi-tsuki.",
      "rating": 7.03,
      "classificacao_etaria": "A14",
      "imagem_original": "https://animefire.plus/img/animes/one-room-hiatari-futsuu-tenshi-tsuki.webp",
      "imagem_pasta": "https://animefire.plus/img/animes/one-room-hiatari-futsuu-tenshi-tsuki/",
      "secao": "legendados",
      "pagina": 14,
      "total_episodios": 12,
      "link_video": "https://animefire.plus/video/one-room-hiatari-futsuu-tenshi-tsuki"
    },
    {
      "id": 2846,
      "nome": "Oneechan ga Kita",
      "link": "https://animefire.plus/animes/oneechan-ga-kita-todos-os-episodios",
      "texto_original": "Oneechan ga Kita",
      "rating": 6.46,
      "classificacao_etaria": "A14",
      "imagem_original": "https://animefire.plus/img/animes/oneechan-ga-kita.webp",
      "imagem_pasta": "https://animefire.plus/img/animes/oneechan-ga-kita/",
      "secao": "legendados",
      "pagina": 171,
      "total_episodios": 12,
      "link_video": "https://animefire.plus/video/oneechan-ga-kita"
    },
    {
      "id": 2847,
      "nome": "Onegai☆Teacher",
      "link": "https://animefire.plus/animes/onegai-teacher-todos-os-episodios",
      "texto_original": "Onegai☆Teacher",
      "rating": 7.27,
      "classificacao_etaria": "A14",
      "imagem_original": "https://animefire.plus/img/animes/onegai-teacher.webp",
      "imagem_pasta": "https://animefire.plus/img/animes/onegai-teacher/",
      "secao": "legendados",
      "pagina": 112,
      "total_episodios": 12,
      "link_video": "https://animefire.plus/video/onegai-teacher"
    },
    {
      "id": 2848,
      "nome": "Onegai☆Twins",
      "link": "https://animefire.plus/animes/onegai-twins-todos-os-episodios",
      "texto_original": "Onegai☆Twins",
      "rating": 6.96,
      "classificacao_etaria": "A14",
      "imagem_original": "https://animefire.plus/img/animes/onegai-twins.webp",
      "imagem_pasta": "https://animefire.plus/img/animes/onegai-twins/",
      "secao": "legendados",
      "pagina": 178,
      "total_episodios": 12,
      "link_video": "https://animefire.plus/video/onegai-twins"
    },
    {
      "id": 2849,
      "nome": "Ongaku Shoujo (TV)",
      "link": "https://animefire.plus/animes/ongaku-shoujo-tv-todos-os-episodios",
      "texto_original": "Ongaku Shoujo (TV)",
      "rating": 6.02,
      "classificacao_etaria": "A14",
      "imagem_original": "https://animefire.plus/img/animes/ongaku-shoujo-tv.webp",
      "imagem_pasta": "https://animefire.plus/img/animes/ongaku-shoujo-tv/",
      "secao": "legendados",
      "pagina": 127,
      "total_episodios": 12,
      "link_video": "https://animefire.plus/video/ongaku-shoujo-tv"
    },
    {
      "id": 2850,
      "nome": "Onigiri",
      "link": "https://animefire.plus/animes/onigiri-todos-os-episodios",
      "texto_original": "Onigiri",
      "rating": 5.42,
      "classificacao_etaria": "A14",
      "imagem_original": "https://animefire.plus/img/animes/onigiri.webp",
      "imagem_pasta": "https://animefire.plus/img/animes/onigiri/",
      "secao": "legendados",
      "pagina": 127,
      "total_episodios": 10,
      "link_video": "https://animefire.plus/video/onigiri"
    },
    {
      "id": 2851,
      "nome": "Onihei",
      "link": "https://animefire.plus/animes/onihei-todos-os-episodios",
      "texto_original": "Onihei",
      "rating": 7.35,
      "classificacao_etaria": "A16",
      "imagem_original": "https://animefire.plus/img/animes/onihei.webp",
      "imagem_pasta": "https://animefire.plus/img/animes/onihei/",
      "secao": "legendados",
      "pagina": 149,
      "total_episodios": 6,
      "link_video": "https://animefire.plus/video/onihei"
    },
    {
      "id": 2852,
      "nome": "Oniichan dakedo Ai sae Areba Kankeinai yo ne!",
      "link": "https://animefire.plus/animes/oniichan-dakedo-ai-sae-areba-kankeinai-yo-ne-todos-os-episodios",
      "texto_original": "Oniichan dakedo Ai sae Areba Kankeinai yo ne!",
      "rating": 6.67,
      "classificacao_etaria": "A18",
      "imagem_original": "https://animefire.plus/img/animes/oniichan-dakedo-ai-sae-areba-kankeinai-yo-ne.webp",
      "imagem_pasta": "https://animefire.plus/img/animes/oniichan-dakedo-ai-sae-areba-kankeinai-yo-ne/",
      "secao": "legendados",
      "pagina": 160,
      "total_episodios": 0,
      "link_video": "https://animefire.plus/video/oniichan-dakedo-ai-sae-areba-kankeinai-yo-ne"
    },
    {
      "id": 2853,
      "nome": "Oniichan dakedo Ai sae Areba Kankeinai yo ne! Specials",
      "link": "https://animefire.plus/animes/oniichan-dakedo-ai-sae-areba-kankeinai-yo-ne-specials-todos-os-episodios",
      "texto_original": "Oniichan dakedo Ai sae Areba Kankeinai yo ne! Specials",
      "rating": 6.29,
      "classificacao_etaria": "A18",
      "imagem_original": "https://animefire.plus/img/animes/oniichan-dakedo-ai-sae-areba-kankeinai-yo-ne-specials.webp",
      "imagem_pasta": "https://animefire.plus/img/animes/oniichan-dakedo-ai-sae-areba-kankeinai-yo-ne-specials/",
      "secao": "legendados",
      "pagina": 57,
      "total_episodios": 6,
      "link_video": "https://animefire.plus/video/oniichan-dakedo-ai-sae-areba-kankeinai-yo-ne-specials"
    },
    {
      "id": 2854,
      "nome": "Oniichan no Koto nanka Zenzen Suki ja Nai n da kara ne!!",
      "link": "https://animefire.plus/animes/oniichan-no-koto-nanka-zenzen-suki-ja-nai-n-da-kara-ne-todos-os-episodios",
      "texto_original": "Oniichan no Koto nanka Zenzen Suki ja Nai n da kara ne!!",
      "rating": 6.24,
      "classificacao_etaria": "A14",
      "imagem_original": "https://animefire.plus/img/animes/oniichan-no-koto-nanka-zenzen-suki-ja-nai-n-da-kara-ne.webp",
      "imagem_pasta": "https://animefire.plus/img/animes/oniichan-no-koto-nanka-zenzen-suki-ja-nai-n-da-kara-ne/",
      "secao": "legendados",
      "pagina": 142,
      "total_episodios": 13,
      "link_video": "https://animefire.plus/video/oniichan-no-koto-nanka-zenzen-suki-ja-nai-n-da-kara-ne"
    },
    {
      "id": 2855,
      "nome": "Oniichan wa Oshimai!",
      "link": "https://animefire.plus/animes/oniichan-wa-oshimai-todos-os-episodios",
      "texto_original": "Oniichan wa Oshimai!",
      "rating": 7.65,
      "classificacao_etaria": "A14",
      "imagem_original": "https://animefire.plus/img/animes/oniichan-wa-oshimai.webp",
      "imagem_pasta": "https://animefire.plus/img/animes/oniichan-wa-oshimai/",
      "secao": "legendados",
      "pagina": 27,
      "total_episodios": 12,
      "link_video": "https://animefire.plus/video/oniichan-wa-oshimai"
    },
    {
      "id": 2856,
      "nome": "Oniisama e...",
      "link": "https://animefire.plus/animes/oniisama-e-todos-os-episodios",
      "texto_original": "Oniisama e...",
      "rating": 7.78,
      "classificacao_etaria": "A14",
      "imagem_original": "https://animefire.plus/img/animes/oniisama-e.webp",
      "imagem_pasta": "https://animefire.plus/img/animes/oniisama-e/",
      "secao": "legendados",
      "pagina": 55,
      "total_episodios": 39,
      "link_video": "https://animefire.plus/video/oniisama-e"
    },
    {
      "id": 2857,
      "nome": "Onimusha (Dublado)",
      "link": "https://animefire.plus/animes/onimusha-dublado-todos-os-episodios",
      "texto_original": "Onimusha (Dublado)",
      "rating": 6.55,
      "classificacao_etaria": "A16",
      "imagem_original": "https://animefire.plus/img/animes/onimusha.webp",
      "imagem_pasta": "https://animefire.plus/img/animes/onimusha/",
      "secao": "dublados,legendados",
      "pagina": 4,
      "total_episodios": 8,
      "link_video": "https://animefire.plus/video/onimusha-dublado"
    },
    {
      "id": 2858,
      "nome": "Onipan!",
      "link": "https://animefire.plus/animes/onipan-todos-os-episodios",
      "texto_original": "Onipan!",
      "rating": 6.5,
      "classificacao_etaria": "A10",
      "imagem_original": "https://animefire.plus/img/animes/onipan.webp",
      "imagem_pasta": "https://animefire.plus/img/animes/onipan/",
      "secao": "legendados,lancamentos",
      "pagina": 33,
      "total_episodios": 6,
      "link_video": "https://animefire.plus/video/onipan"
    },
    {
      "id": 2859,
      "nome": "Onmyou Kaiten Re:Birth",
      "link": "https://animefire.plus/animes/onmyou-kaiten-re-birth-todos-os-episodios",
      "texto_original": "Onmyou Kaiten Re:Birth",
      "rating": 6.51,
      "classificacao_etaria": "A14",
      "imagem_original": "https://animefire.plus/img/animes/onmyou-kaiten-re-birth.webp",
      "imagem_pasta": "https://animefire.plus/img/animes/onmyou-kaiten-re-birth/",
      "secao": "legendados,lancamentos",
      "pagina": 1,
      "total_episodios": 5,
      "link_video": "https://animefire.plus/video/onmyou-kaiten-re-birth"
    },
    {
      "id": 2860,
      "nome": "Onmyou Taisenki",
      "link": "https://animefire.plus/animes/onmyou-taisenki-todos-os-episodios",
      "texto_original": "Onmyou Taisenki",
      "rating": 7.26,
      "classificacao_etaria": "A14",
      "imagem_original": "https://animefire.plus/img/animes/onmyou-taisenki.webp",
      "imagem_pasta": "https://animefire.plus/img/animes/onmyou-taisenki/",
      "secao": "legendados",
      "pagina": 178,
      "total_episodios": 4,
      "link_video": "https://animefire.plus/video/onmyou-taisenki"
    }
  ],
  "pagination": {
    "current_page": 143,
    "per_page": 20,
    "total_items": 4368,
    "total_pages": 219,
    "has_next": true,
    "has_prev": true
  }
}
