{
  "message": "Lista de animes",
  "data": [
    {
      "id": 721,
      "nome": "D4DJ All Mix",
      "link": "https://animefire.plus/animes/d4dj-all-mix-todos-os-episodios",
      "texto_original": "D4DJ All Mix",
      "rating": 7.4,
      "classificacao_etaria": "A14",
      "imagem_original": "https://animefire.plus/img/animes/d4dj-all-mix.webp",
      "imagem_pasta": "https://animefire.plus/img/animes/d4dj-all-mix/",
      "secao": "legendados",
      "pagina": 25,
      "total_episodios": 12,
      "link_video": "https://animefire.plus/video/d4dj-all-mix"
    },
    {
      "id": 722,
      "nome": "D4DJ Double Mix",
      "link": "https://animefire.plus/animes/d4dj-double-mix-todos-os-episodios",
      "texto_original": "D4DJ Double Mix",
      "rating": 7.29,
      "classificacao_etaria": "A14",
      "imagem_original": "https://animefire.plus/img/animes/d4dj-double-mix.webp",
      "imagem_pasta": "https://animefire.plus/img/animes/d4dj-double-mix/",
      "secao": "legendados",
      "pagina": 26,
      "total_episodios": 1,
      "link_video": "https://animefire.plus/video/d4dj-double-mix"
    },
    {
      "id": 723,
      "nome": "D4DJ: First Mix",
      "link": "https://animefire.plus/animes/d4dj-first-mix-todos-os-episodios",
      "texto_original": "D4DJ: First Mix",
      "rating": null,
      "classificacao_etaria": "A14",
      "imagem_original": "https://animefire.plus/img/animes/d4dj-first-mix.webp",
      "imagem_pasta": "https://animefire.plus/img/animes/d4dj-first-mix/",
      "secao": "legendados",
      "pagina": 50,
      "total_episodios": 13,
      "link_video": "https://animefire.plus/video/d4dj-first-mix"
    },
    {
      "id": 724,
      "nome": "Da Wang Rao Ming",
      "link": "https://animefire.plus/animes/da-wang-rao-ming-todos-os-episodios",
      "texto_original": "Da Wang Rao Ming",
      "rating": 7.52,
      "classificacao_etaria": "A14",
      "imagem_original": "https://animefire.plus/img/animes/da-wang-rao-ming.webp",
      "imagem_pasta": "https://animefire.plus/img/animes/da-wang-rao-ming/",
      "secao": "legendados",
      "pagina": 32,
      "total_episodios": 1,
      "link_video": "https://animefire.plus/video/da-wang-rao-ming"
    },
    {
      "id": 725,
      "nome": "Dagashi Kashi",
      "link": "https://animefire.plus/animes/dagashi-kashi-todos-os-episodios",
      "texto_original": "Dagashi Kashi",
      "rating": 6.7,
      "classificacao_etaria": "A14",
      "imagem_original": "https://animefire.plus/img/animes/dagashi-kashi.webp",
      "imagem_pasta": "https://animefire.plus/img/animes/dagashi-kashi/",
      "secao": "legendados",
      "pagina": 171,
      "total_episodios": 0,
      "link_video": "https://animefire.plus/video/dagashi-kashi"
    },
    {
      "id": 726,
      "nome": "Dagashi Kashi 2",
      "link": "https://animefire.plus/animes/dagashi-kashi-2-todos-os-episodios",
      "texto_original": "Dagashi Kashi 2",
      "rating": 6.99,
      "classificacao_etaria": "A14",
      "imagem_original": "https://animefire.plus/img/animes/dagashi-kashi-2.webp",
      "imagem_pasta": "https://animefire.plus/img/animes/dagashi-kashi-2/",
      "secao": "legendados",
      "pagina": 127,
      "total_episodios": 7,
      "link_video": "https://animefire.plus/video/dagashi-kashi-2"
    },
    {
      "id": 727,
      "nome": "Dai Mahou Touge",
      "link": "https://animefire.plus/animes/dai-mahou-touge-todos-os-episodios",
      "texto_original": "Dai Mahou Touge",
      "rating": 7.02,
      "classificacao_etaria": "A16",
      "imagem_original": "https://animefire.plus/img/animes/dai-mahou-touge.webp",
      "imagem_pasta": "https://animefire.plus/img/animes/dai-mahou-touge/",
      "secao": "legendados",
      "pagina": 99,
      "total_episodios": 4,
      "link_video": "https://animefire.plus/video/dai-mahou-touge"
    },
    {
      "id": 728,
      "nome": "Daimajuu Gekitou: Hagane no Oni",
      "link": "https://animefire.plus/animes/daimajuu-gekitou-hagane-no-oni-todos-os-episodios",
      "texto_original": "Daimajuu Gekitou: Hagane no Oni",
      "rating": 5.29,
      "classificacao_etaria": "A14",
      "imagem_original": "https://animefire.plus/img/animes/daimajuu-gekitou-hagane-no-oni.webp",
      "imagem_pasta": "https://animefire.plus/img/animes/daimajuu-gekitou-hagane-no-oni/",
      "secao": "legendados",
      "pagina": 77,
      "total_episodios": 1,
      "link_video": "https://animefire.plus/video/daimajuu-gekitou-hagane-no-oni"
    },
    {
      "id": 729,
      "nome": "Daitoshokan No Hitsujikai",
      "link": "https://animefire.plus/animes/daitoshokan-no-hitsujikai-todos-os-episodios",
      "texto_original": "Daitoshokan No Hitsujikai",
      "rating": 7.02,
      "classificacao_etaria": "A14",
      "imagem_original": "https://animefire.plus/img/animes/daitoshokan-no-hitsujikai.webp",
      "imagem_pasta": "https://animefire.plus/img/animes/daitoshokan-no-hitsujikai/",
      "secao": "legendados",
      "pagina": 96,
      "total_episodios": 2,
      "link_video": "https://animefire.plus/video/daitoshokan-no-hitsujikai"
    },
    {
      "id": 730,
      "nome": "Dakara Boku wa, H ga Dekinai.",
      "link": "https://animefire.plus/animes/dakara-boku-wa-h-ga-dekinai-todos-os-episodios",
      "texto_original": "Dakara Boku wa, H ga Dekinai.",
      "rating": 6.79,
      "classificacao_etaria": "A18",
      "imagem_original": "https://animefire.plus/img/animes/dakara-boku-wa-h-ga-dekinai.webp",
      "imagem_pasta": "https://animefire.plus/img/animes/dakara-boku-wa-h-ga-dekinai/",
      "secao": "legendados",
      "pagina": 95,
      "total_episodios": 0,
      "link_video": "https://animefire.plus/video/dakara-boku-wa-h-ga-dekinai"
    },
    {
      "id": 731,
      "nome": "Dakaretai Otoko 1-i ni Odosarete Imasu.",
      "link": "https://animefire.plus/animes/dakaretai-otoko-1-i-ni-odosarete-imasu-todos-os-episodios",
      "texto_original": "Dakaretai Otoko 1-i ni Odosarete Imasu.",
      "rating": 7.52,
      "classificacao_etaria": "A14",
      "imagem_original": "https://animefire.plus/img/animes/dakaretai-otoko-1-i-ni-odosarete-imasu.webp",
      "imagem_pasta": "https://animefire.plus/img/animes/dakaretai-otoko-1-i-ni-odosarete-imasu/",
      "secao": "legendados",
      "pagina": 139,
      "total_episodios": 13,
      "link_video": "https://animefire.plus/video/dakaretai-otoko-1-i-ni-odosarete-imasu"
    },
    {
      "id": 732,
      "nome": "Dallos",
      "link": "https://animefire.plus/animes/dallos-todos-os-episodios",
      "texto_original": "Dallos",
      "rating": 5.99,
      "classificacao_etaria": "A14",
      "imagem_original": "https://animefire.plus/img/animes/dallos.webp",
      "imagem_pasta": "https://animefire.plus/img/animes/dallos/",
      "secao": "legendados",
      "pagina": 54,
      "total_episodios": 4,
      "link_video": "https://animefire.plus/video/dallos"
    },
    {
      "id": 733,
      "nome": "Dame x Prince Anime Caravan",
      "link": "https://animefire.plus/animes/dame-x-prince-anime-caravan-todos-os-episodios",
      "texto_original": "Dame x Prince Anime Caravan",
      "rating": 6.59,
      "classificacao_etaria": "A14",
      "imagem_original": "https://animefire.plus/img/animes/dame-x-prince-anime-caravan.webp",
      "imagem_pasta": "https://animefire.plus/img/animes/dame-x-prince-anime-caravan/",
      "secao": "legendados",
      "pagina": 72,
      "total_episodios": 12,
      "link_video": "https://animefire.plus/video/dame-x-prince-anime-caravan"
    },
    {
      "id": 734,
      "nome": "Danball Senki W",
      "link": "https://animefire.plus/animes/danball-senki-w-todos-os-episodios",
      "texto_original": "Danball Senki W",
      "rating": 7.24,
      "classificacao_etaria": null,
      "imagem_original": "https://animefire.plus/img/animes/danball-senki-w.webp",
      "imagem_pasta": "https://animefire.plus/img/animes/danball-senki-w/",
      "secao": "legendados",
      "pagina": 127,
      "total_episodios": 1,
      "link_video": "https://animefire.plus/video/danball-senki-w"
    },
    {
      "id": 735,
      "nome": "Dance Dance Danseur (Dublado)",
      "link": "https://animefire.plus/animes/dance-dance-danseur-dublado-todos-os-episodios",
      "texto_original": "Dance Dance Danseur (Dublado)",
      "rating": 7.81,
      "classificacao_etaria": "A14",
      "imagem_original": "https://animefire.plus/img/animes/dance-dance-danseur.webp",
      "imagem_pasta": "https://animefire.plus/img/animes/dance-dance-danseur/",
      "secao": "dublados,legendados",
      "pagina": 11,
      "total_episodios": 11,
      "link_video": "https://animefire.plus/video/dance-dance-danseur-dublado"
    },
    {
      "id": 736,
      "nome": "Dance In The Vampire Bund",
      "link": "https://animefire.plus/animes/dance-in-the-vampire-bund-todos-os-episodios",
      "texto_original": "Dance In The Vampire Bund",
      "rating": 7.13,
      "classificacao_etaria": "A18",
      "imagem_original": "https://animefire.plus/img/animes/dance-in-the-vampire-bund.webp",
      "imagem_pasta": "https://animefire.plus/img/animes/dance-in-the-vampire-bund/",
      "secao": "legendados",
      "pagina": 101,
      "total_episodios": 12,
      "link_video": "https://animefire.plus/video/dance-in-the-vampire-bund"
    },
    {
      "id": 737,
      "nome": "Dance with Devils",
      "link": "https://animefire.plus/animes/dance-with-devils-todos-os-episodios",
      "texto_original": "Dance with Devils",
      "rating": 6.64,
      "classificacao_etaria": "A16",
      "imagem_original": "https://animefire.plus/img/animes/dance-with-devils.webp",
      "imagem_pasta": "https://animefire.plus/img/animes/dance-with-devils/",
      "secao": "legendados",
      "pagina": 118,
      "total_episodios": 12,
      "link_video": "https://animefire.plus/video/dance-with-devils"
    },
    {
      "id": 738,
      "nome": "Danchigai",
      "link": "https://animefire.plus/animes/danchigai-todos-os-episodios",
      "texto_original": "Danchigai",
      "rating": 6.63,
      "classificacao_etaria": "A14",
      "imagem_original": "https://animefire.plus/img/animes/danchigai.webp",
      "imagem_pasta": "https://animefire.plus/img/animes/danchigai/",
      "secao": "legendados",
      "pagina": 104,
      "total_episodios": 12,
      "link_video": "https://animefire.plus/video/danchigai"
    },
    {
      "id": 739,
      "nome": "Dandadan (Dublado)",
      "link": "https://animefire.plus/animes/dandadan-dublado-todos-os-episodios",
      "texto_original": "Dandadan (Dublado)",
      "rating": 8.48,
      "classificacao_etaria": "A16",
      "imagem_original": "https://animefire.plus/img/animes/dandadan.webp",
      "imagem_pasta": "https://animefire.plus/img/animes/dandadan/",
      "secao": "dublados,legendados",
      "pagina": 2,
      "total_episodios": 12,
      "link_video": "https://animefire.plus/video/dandadan-dublado"
    },
    {
      "id": 740,
      "nome": "Dandadan 2nd Season (Dublado)",
      "link": "https://animefire.plus/animes/dandadan-2nd-season-dublado-todos-os-episodios",
      "texto_original": "Dandadan 2nd Season (Dublado)",
      "rating": 8.49,
      "classificacao_etaria": "A16",
      "imagem_original": "https://animefire.plus/img/animes/dandadan-2nd-season.webp",
      "imagem_pasta": "https://animefire.plus/img/animes/dandadan-2nd-season/",
      "secao": "dublados,legendados,lancamentos",
      "pagina": 1,
      "total_episodios": 5,
      "link_video": "https://animefire.plus/video/dandadan-2nd-season-dublado"
    }
  ],
  "pagination": {
    "current_page": 37,
    "per_page": 20,
    "total_items": 4368,
    "total_pages": 219,
    "has_next": true,
    "has_prev": true
  }
}
