{
  "message": "Lista de animes",
  "data": [
    {
      "id": 2341,
      "nome": "Mahou Shoujo Taisen",
      "link": "https://animefire.plus/animes/mahou-shoujo-taisen-todos-os-episodios",
      "texto_original": "Mahou Shoujo Taisen",
      "rating": 5.79,
      "classificacao_etaria": "A14",
      "imagem_original": "https://animefire.plus/img/animes/mahou-shoujo-taisen.webp",
      "imagem_pasta": "https://animefire.plus/img/animes/mahou-shoujo-taisen/",
      "secao": "legendados",
      "pagina": 159,
      "total_episodios": 11,
      "link_video": "https://animefire.plus/video/mahou-shoujo-taisen"
    },
    {
      "id": 2342,
      "nome": "Mahou Shoujo Tokushusen Asuka",
      "link": "https://animefire.plus/animes/mahou-shoujo-tokushusen-asuka-todos-os-episodios",
      "texto_original": "Mahou Shoujo Tokushusen Asuka",
      "rating": 6.34,
      "classificacao_etaria": "A16",
      "imagem_original": "https://animefire.plus/img/animes/mahou-shoujo-tokushusen-asuka.webp",
      "imagem_pasta": "https://animefire.plus/img/animes/mahou-shoujo-tokushusen-asuka/",
      "secao": "legendados",
      "pagina": 157,
      "total_episodios": 12,
      "link_video": "https://animefire.plus/video/mahou-shoujo-tokushusen-asuka"
    },
    {
      "id": 2343,
      "nome": "Mahou Shoujo? Naria☆Girls",
      "link": "https://animefire.plus/animes/mahou-shoujo-naria-girls-todos-os-episodios",
      "texto_original": "Mahou Shoujo? Naria☆Girls",
      "rating": 3.84,
      "classificacao_etaria": "A14",
      "imagem_original": "https://animefire.plus/img/animes/mahou-shoujo-naria-girls.webp",
      "imagem_pasta": "https://animefire.plus/img/animes/mahou-shoujo-naria-girls/",
      "secao": "legendados",
      "pagina": 98,
      "total_episodios": 12,
      "link_video": "https://animefire.plus/video/mahou-shoujo-naria-girls"
    },
    {
      "id": 2344,
      "nome": "Mahoujin Guruguru (2017)",
      "link": "https://animefire.plus/animes/mahoujin-guruguru-2017-todos-os-episodios",
      "texto_original": "Mahoujin Guruguru (2017)",
      "rating": 7.89,
      "classificacao_etaria": "A14",
      "imagem_original": "https://animefire.plus/img/animes/mahoujin-guruguru-2017.webp",
      "imagem_pasta": "https://animefire.plus/img/animes/mahoujin-guruguru-2017/",
      "secao": "legendados",
      "pagina": 76,
      "total_episodios": 24,
      "link_video": "https://animefire.plus/video/mahoujin-guruguru-2017"
    },
    {
      "id": 2345,
      "nome": "Mahouka Koukou No Rettousei",
      "link": "https://animefire.plus/animes/mahouka-koukou-no-rettousei-todos-os-episodios",
      "texto_original": "Mahouka Koukou No Rettousei",
      "rating": 7.69,
      "classificacao_etaria": "A14",
      "imagem_original": "https://animefire.plus/img/animes/mahouka-koukou-no-rettousei.webp",
      "imagem_pasta": "https://animefire.plus/img/animes/mahouka-koukou-no-rettousei/",
      "secao": "legendados",
      "pagina": 100,
      "total_episodios": 26,
      "link_video": "https://animefire.plus/video/mahouka-koukou-no-rettousei"
    },
    {
      "id": 2346,
      "nome": "Mahouka Koukou no Rettousei 3rd Season",
      "link": "https://animefire.plus/animes/mahouka-koukou-no-rettousei-3rd-season-todos-os-episodios",
      "texto_original": "Mahouka Koukou no Rettousei 3rd Season",
      "rating": 7.04,
      "classificacao_etaria": "A16",
      "imagem_original": "https://animefire.plus/img/animes/mahouka-koukou-no-rettousei-3rd-season.webp",
      "imagem_pasta": "https://animefire.plus/img/animes/mahouka-koukou-no-rettousei-3rd-season/",
      "secao": "legendados",
      "pagina": 15,
      "total_episodios": 13,
      "link_video": "https://animefire.plus/video/mahouka-koukou-no-rettousei-3rd-season"
    },
    {
      "id": 2347,
      "nome": "Mahouka Koukou no Rettousei: Raihousha-hen",
      "link": "https://animefire.plus/animes/mahouka-koukou-no-rettousei-raihousha-hen-todos-os-episodios",
      "texto_original": "Mahouka Koukou no Rettousei: Raihousha-hen",
      "rating": null,
      "classificacao_etaria": "A14",
      "imagem_original": "https://animefire.plus/img/animes/mahouka-koukou-no-rettousei-raihousha-hen.webp",
      "imagem_pasta": "https://animefire.plus/img/animes/mahouka-koukou-no-rettousei-raihousha-hen/",
      "secao": "legendados",
      "pagina": 53,
      "total_episodios": 13,
      "link_video": "https://animefire.plus/video/mahouka-koukou-no-rettousei-raihousha-hen"
    },
    {
      "id": 2348,
      "nome": "Mahouka Koukou no Rettousei: Tsuioku-hen",
      "link": "https://animefire.plus/animes/mahouka-koukou-no-rettousei-tsuioku-hen-todos-os-episodios",
      "texto_original": "Mahouka Koukou no Rettousei: Tsuioku-hen",
      "rating": 7.66,
      "classificacao_etaria": "A14",
      "imagem_original": "https://animefire.plus/img/animes/mahouka-koukou-no-rettousei-tsuioku-hen.webp",
      "imagem_pasta": "https://animefire.plus/img/animes/mahouka-koukou-no-rettousei-tsuioku-hen/",
      "secao": "legendados",
      "pagina": 36,
      "total_episodios": 1,
      "link_video": "https://animefire.plus/video/mahouka-koukou-no-rettousei-tsuioku-hen"
    },
    {
      "id": 2349,
      "nome": "Mahouka Koukou no Yuutousei",
      "link": "https://animefire.plus/animes/mahouka-koukou-no-yuutousei-todos-os-episodios",
      "texto_original": "Mahouka Koukou no Yuutousei",
      "rating": 6.68,
      "classificacao_etaria": "A14",
      "imagem_original": "https://animefire.plus/img/animes/mahouka-koukou-no-yuutousei.webp",
      "imagem_pasta": "https://animefire.plus/img/animes/mahouka-koukou-no-yuutousei/",
      "secao": "legendados",
      "pagina": 45,
      "total_episodios": 0,
      "link_video": "https://animefire.plus/video/mahouka-koukou-no-yuutousei"
    },
    {
      "id": 2350,
      "nome": "Mahoutsukai ni Narenakatta Onnanoko no Hanashi",
      "link": "https://animefire.plus/animes/mahoutsukai-ni-narenakatta-onnanoko-no-hanashi-todos-os-episodios",
      "texto_original": "Mahoutsukai ni Narenakatta Onnanoko no Hanashi",
      "rating": 6.16,
      "classificacao_etaria": "A14",
      "imagem_original": "https://animefire.plus/img/animes/mahoutsukai-ni-narenakatta-onnanoko-no-hanashi.webp",
      "imagem_pasta": "https://animefire.plus/img/animes/mahoutsukai-ni-narenakatta-onnanoko-no-hanashi/",
      "secao": "legendados",
      "pagina": 10,
      "total_episodios": 12,
      "link_video": "https://animefire.plus/video/mahoutsukai-ni-narenakatta-onnanoko-no-hanashi"
    },
    {
      "id": 2351,
      "nome": "Mahoutsukai ni Taisetsu na Koto: Natsu no Sora",
      "link": "https://animefire.plus/animes/mahoutsukai-ni-taisetsu-na-koto-natsu-no-sora-todos-os-episodios",
      "texto_original": "Mahoutsukai ni Taisetsu na Koto: Natsu no Sora",
      "rating": 7.34,
      "classificacao_etaria": null,
      "imagem_original": "https://animefire.plus/img/animes/mahoutsukai-ni-taisetsu-na-koto-natsu-no-sora.webp",
      "imagem_pasta": "https://animefire.plus/img/animes/mahoutsukai-ni-taisetsu-na-koto-natsu-no-sora/",
      "secao": "legendados",
      "pagina": 137,
      "total_episodios": 0,
      "link_video": "https://animefire.plus/video/mahoutsukai-ni-taisetsu-na-koto-natsu-no-sora"
    },
    {
      "id": 2352,
      "nome": "Mahoutsukai no Yakusoku",
      "link": "https://animefire.plus/animes/mahoutsukai-no-yakusoku-todos-os-episodios",
      "texto_original": "Mahoutsukai no Yakusoku",
      "rating": 5.49,
      "classificacao_etaria": "A14",
      "imagem_original": "https://animefire.plus/img/animes/mahoutsukai-no-yakusoku.webp",
      "imagem_pasta": "https://animefire.plus/img/animes/mahoutsukai-no-yakusoku/",
      "secao": "legendados",
      "pagina": 7,
      "total_episodios": 12,
      "link_video": "https://animefire.plus/video/mahoutsukai-no-yakusoku"
    },
    {
      "id": 2353,
      "nome": "Mahoutsukai No Yome (Dublado)",
      "link": "https://animefire.plus/animes/mahoutsukai-no-yome-dublado-todos-os-episodios",
      "texto_original": "Mahoutsukai No Yome (Dublado)",
      "rating": 8.15,
      "classificacao_etaria": "A14",
      "imagem_original": "https://animefire.plus/img/animes/mahoutsukai-no-yome.webp",
      "imagem_pasta": "https://animefire.plus/img/animes/mahoutsukai-no-yome/",
      "secao": "dublados,legendados",
      "pagina": 25,
      "total_episodios": 0,
      "link_video": "https://animefire.plus/video/mahoutsukai-no-yome-dublado"
    },
    {
      "id": 2354,
      "nome": "Mahoutsukai no Yome Season 2 (Dublado)",
      "link": "https://animefire.plus/animes/mahoutsukai-no-yome-season-2-dublado-todos-os-episodios",
      "texto_original": "Mahoutsukai no Yome Season 2 (Dublado)",
      "rating": 7.76,
      "classificacao_etaria": "A14",
      "imagem_original": "https://animefire.plus/img/animes/mahoutsukai-no-yome-season-2.webp",
      "imagem_pasta": "https://animefire.plus/img/animes/mahoutsukai-no-yome-season-2/",
      "secao": "dublados,legendados",
      "pagina": 6,
      "total_episodios": 12,
      "link_video": "https://animefire.plus/video/mahoutsukai-no-yome-season-2-dublado"
    },
    {
      "id": 2355,
      "nome": "Mahoutsukai no Yome Season 2 Part 2 (Dublado)",
      "link": "https://animefire.plus/animes/mahoutsukai-no-yome-season-2-part-2-dublado-todos-os-episodios",
      "texto_original": "Mahoutsukai no Yome Season 2 Part 2 (Dublado)",
      "rating": 7.9,
      "classificacao_etaria": "A14",
      "imagem_original": "https://animefire.plus/img/animes/mahoutsukai-no-yome-season-2-part-2.webp",
      "imagem_pasta": "https://animefire.plus/img/animes/mahoutsukai-no-yome-season-2-part-2/",
      "secao": "dublados,legendados",
      "pagina": 5,
      "total_episodios": 12,
      "link_video": "https://animefire.plus/video/mahoutsukai-no-yome-season-2-part-2-dublado"
    },
    {
      "id": 2356,
      "nome": "Mahoutsukai no Yome: Hoshi Matsu Hito (Dublado)",
      "link": "https://animefire.plus/animes/mahoutsukai-no-yome-hoshi-matsu-hito-dublado-todos-os-episodios",
      "texto_original": "Mahoutsukai no Yome: Hoshi Matsu Hito (Dublado)",
      "rating": 8.19,
      "classificacao_etaria": "A14",
      "imagem_original": "https://animefire.plus/img/animes/mahoutsukai-no-yome-hoshi-matsu-hito.webp",
      "imagem_pasta": "https://animefire.plus/img/animes/mahoutsukai-no-yome-hoshi-matsu-hito/",
      "secao": "dublados,legendados",
      "pagina": 24,
      "total_episodios": 3,
      "link_video": "https://animefire.plus/video/mahoutsukai-no-yome-hoshi-matsu-hito-dublado"
    },
    {
      "id": 2357,
      "nome": "Mahoutsukai no Yome: Nishi no Shounen to Seiran no Kishi (Dublado)",
      "link": "https://animefire.plus/animes/mahoutsukai-no-yome-nishi-no-shounen-to-seiran-no-kishi-dublado-todos-os-episodios",
      "texto_original": "Mahoutsukai no Yome: Nishi no Shounen to Seiran no Kishi (Dublado)",
      "rating": 7.56,
      "classificacao_etaria": "A14",
      "imagem_original": "https://animefire.plus/img/animes/mahoutsukai-no-yome-nishi-no-shounen-to-seiran-no-kishi.webp",
      "imagem_pasta": "https://animefire.plus/img/animes/mahoutsukai-no-yome-nishi-no-shounen-to-seiran-no-kishi/",
      "secao": "dublados,legendados",
      "pagina": 12,
      "total_episodios": 3,
      "link_video": "https://animefire.plus/video/mahoutsukai-no-yome-nishi-no-shounen-to-seiran-no-kishi-dublado"
    },
    {
      "id": 2358,
      "nome": "Mahoutsukai Precure!",
      "link": "https://animefire.plus/animes/mahoutsukai-precure-todos-os-episodios",
      "texto_original": "Mahoutsukai Precure!",
      "rating": 7.08,
      "classificacao_etaria": null,
      "imagem_original": "https://animefire.plus/img/animes/mahoutsukai-precure.webp",
      "imagem_pasta": "https://animefire.plus/img/animes/mahoutsukai-precure/",
      "secao": "legendados",
      "pagina": 67,
      "total_episodios": 47,
      "link_video": "https://animefire.plus/video/mahoutsukai-precure"
    },
    {
      "id": 2359,
      "nome": "Mahoutsukai Precure!! Mirai Days",
      "link": "https://animefire.plus/animes/mahoutsukai-precure-mirai-days-todos-os-episodios",
      "texto_original": "Mahoutsukai Precure!! Mirai Days",
      "rating": 7.17,
      "classificacao_etaria": null,
      "imagem_original": "https://animefire.plus/img/animes/mahoutsukai-precure-mirai-days.webp",
      "imagem_pasta": "https://animefire.plus/img/animes/mahoutsukai-precure-mirai-days/",
      "secao": "legendados,lancamentos",
      "pagina": 7,
      "total_episodios": 10,
      "link_video": "https://animefire.plus/video/mahoutsukai-precure-mirai-days"
    },
    {
      "id": 2360,
      "nome": "Mahoutsukai Reimeiki (Dublado)",
      "link": "https://animefire.plus/animes/mahoutsukai-reimeiki-dublado-todos-os-episodios",
      "texto_original": "Mahoutsukai Reimeiki (Dublado)",
      "rating": 6.39,
      "classificacao_etaria": "A14",
      "imagem_original": "https://animefire.plus/img/animes/mahoutsukai-reimeiki.webp",
      "imagem_pasta": "https://animefire.plus/img/animes/mahoutsukai-reimeiki/",
      "secao": "dublados,legendados",
      "pagina": 11,
      "total_episodios": 12,
      "link_video": "https://animefire.plus/video/mahoutsukai-reimeiki-dublado"
    }
  ],
  "pagination": {
    "current_page": 118,
    "per_page": 20,
    "total_items": 4368,
    "total_pages": 219,
    "has_next": true,
    "has_prev": true
  }
}
