{
  "message": "Lista de animes",
  "data": [
    {
      "id": 2261,
      "nome": "Loveless",
      "link": "https://animefire.plus/animes/loveless-todos-os-episodios",
      "texto_original": "Loveless",
      "rating": 7.06,
      "classificacao_etaria": "A14",
      "imagem_original": "https://animefire.plus/img/animes/loveless.webp",
      "imagem_pasta": "https://animefire.plus/img/animes/loveless/",
      "secao": "legendados",
      "pagina": 136,
      "total_episodios": 12,
      "link_video": "https://animefire.plus/video/loveless"
    },
    {
      "id": 2262,
      "nome": "Lovely★Complex",
      "link": "https://animefire.plus/animes/lovely-complex-todos-os-episodios",
      "texto_original": "Lovely★Complex",
      "rating": 8.15,
      "classificacao_etaria": "A14",
      "imagem_original": "https://animefire.plus/img/animes/lovely-complex.webp",
      "imagem_pasta": "https://animefire.plus/img/animes/lovely-complex/",
      "secao": "legendados",
      "pagina": 154,
      "total_episodios": 24,
      "link_video": "https://animefire.plus/video/lovely-complex"
    },
    {
      "id": 2263,
      "nome": "Lu Shidai",
      "link": "https://animefire.plus/animes/lu-shidai-todos-os-episodios",
      "texto_original": "Lu Shidai",
      "rating": 6.68,
      "classificacao_etaria": "A14",
      "imagem_original": "https://animefire.plus/img/animes/lu-shidai.webp",
      "imagem_pasta": "https://animefire.plus/img/animes/lu-shidai/",
      "secao": "legendados",
      "pagina": 167,
      "total_episodios": 27,
      "link_video": "https://animefire.plus/video/lu-shidai"
    },
    {
      "id": 2264,
      "nome": "Luck & Logic",
      "link": "https://animefire.plus/animes/luck-logic-todos-os-episodios",
      "texto_original": "Luck & Logic",
      "rating": 6.2,
      "classificacao_etaria": "A14",
      "imagem_original": "https://animefire.plus/img/animes/luck-logic.webp",
      "imagem_pasta": "https://animefire.plus/img/animes/luck-logic/",
      "secao": "legendados",
      "pagina": 141,
      "total_episodios": 1,
      "link_video": "https://animefire.plus/video/luck-logic"
    },
    {
      "id": 2265,
      "nome": "Lucky☆Star",
      "link": "https://animefire.plus/animes/lucky-star-todos-os-episodios",
      "texto_original": "Lucky☆Star",
      "rating": 7.82,
      "classificacao_etaria": "A14",
      "imagem_original": "https://animefire.plus/img/animes/lucky-star.webp",
      "imagem_pasta": "https://animefire.plus/img/animes/lucky-star/",
      "secao": "legendados",
      "pagina": 135,
      "total_episodios": 24,
      "link_video": "https://animefire.plus/video/lucky-star"
    },
    {
      "id": 2266,
      "nome": "Lucky☆Star: Original na Visual to Animation",
      "link": "https://animefire.plus/animes/lucky-star-original-na-visual-to-animation-todos-os-episodios",
      "texto_original": "Lucky☆Star: Original na Visual to Animation",
      "rating": 7.84,
      "classificacao_etaria": "A14",
      "imagem_original": "https://animefire.plus/img/animes/lucky-star-original-na-visual-to-animation.webp",
      "imagem_pasta": "https://animefire.plus/img/animes/lucky-star-original-na-visual-to-animation/",
      "secao": "legendados",
      "pagina": 78,
      "total_episodios": 1,
      "link_video": "https://animefire.plus/video/lucky-star-original-na-visual-to-animation"
    },
    {
      "id": 2267,
      "nome": "Luger Code 1951",
      "link": "https://animefire.plus/animes/luger-code-1951-todos-os-episodios",
      "texto_original": "Luger Code 1951",
      "rating": 6.49,
      "classificacao_etaria": "A16",
      "imagem_original": "https://animefire.plus/img/animes/luger-code-1951.webp",
      "imagem_pasta": "https://animefire.plus/img/animes/luger-code-1951/",
      "secao": "legendados",
      "pagina": 159,
      "total_episodios": 1,
      "link_video": "https://animefire.plus/video/luger-code-1951"
    },
    {
      "id": 2268,
      "nome": "Lupin III",
      "link": "https://animefire.plus/animes/lupin-iii-todos-os-episodios",
      "texto_original": "Lupin III",
      "rating": 7.69,
      "classificacao_etaria": "A14",
      "imagem_original": "https://animefire.plus/img/animes/lupin-iii.webp",
      "imagem_pasta": "https://animefire.plus/img/animes/lupin-iii/",
      "secao": "legendados",
      "pagina": 83,
      "total_episodios": 23,
      "link_video": "https://animefire.plus/video/lupin-iii"
    },
    {
      "id": 2269,
      "nome": "Lupin III (2015)",
      "link": "https://animefire.plus/animes/lupin-iii-2015-todos-os-episodios",
      "texto_original": "Lupin III (2015)",
      "rating": 7.94,
      "classificacao_etaria": "A14",
      "imagem_original": "https://animefire.plus/img/animes/lupin-iii-2015.webp",
      "imagem_pasta": "https://animefire.plus/img/animes/lupin-iii-2015/",
      "secao": "legendados",
      "pagina": 76,
      "total_episodios": 26,
      "link_video": "https://animefire.plus/video/lupin-iii-2015"
    },
    {
      "id": 2270,
      "nome": "Lupin III vs. Cat's Eye",
      "link": "https://animefire.plus/animes/lupin-iii-vs-cat-s-eye-todos-os-episodios",
      "texto_original": "Lupin III vs. Cat's Eye",
      "rating": 6.57,
      "classificacao_etaria": "A14",
      "imagem_original": "https://animefire.plus/img/animes/lupin-iii-vs-cat-s-eye.webp",
      "imagem_pasta": "https://animefire.plus/img/animes/lupin-iii-vs-cat-s-eye/",
      "secao": "legendados",
      "pagina": 25,
      "total_episodios": 1,
      "link_video": "https://animefire.plus/video/lupin-iii-vs-cat-s-eye"
    },
    {
      "id": 2271,
      "nome": "Lupin III vs. Detective Conan",
      "link": "https://animefire.plus/animes/lupin-iii-vs-detective-conan-todos-os-episodios",
      "texto_original": "Lupin III vs. Detective Conan",
      "rating": 7.81,
      "classificacao_etaria": "A14",
      "imagem_original": "https://animefire.plus/img/animes/lupin-iii-vs-detective-conan.webp",
      "imagem_pasta": "https://animefire.plus/img/animes/lupin-iii-vs-detective-conan/",
      "secao": "legendados",
      "pagina": 65,
      "total_episodios": 1,
      "link_video": "https://animefire.plus/video/lupin-iii-vs-detective-conan"
    },
    {
      "id": 2272,
      "nome": "Lupin III: Goodbye Partner",
      "link": "https://animefire.plus/animes/lupin-iii-goodbye-partner-todos-os-episodios",
      "texto_original": "Lupin III: Goodbye Partner",
      "rating": 6.83,
      "classificacao_etaria": "A14",
      "imagem_original": "https://animefire.plus/img/animes/lupin-iii-goodbye-partner.webp",
      "imagem_pasta": "https://animefire.plus/img/animes/lupin-iii-goodbye-partner/",
      "secao": "legendados",
      "pagina": 56,
      "total_episodios": 1,
      "link_video": "https://animefire.plus/video/lupin-iii-goodbye-partner"
    },
    {
      "id": 2273,
      "nome": "Lupin III: Lupin wa Ima mo Moete Iru ka?",
      "link": "https://animefire.plus/animes/lupin-iii-lupin-wa-ima-mo-moete-iru-ka-todos-os-episodios",
      "texto_original": "Lupin III: Lupin wa Ima mo Moete Iru ka?",
      "rating": 7.02,
      "classificacao_etaria": "A14",
      "imagem_original": "https://animefire.plus/img/animes/lupin-iii-lupin-wa-ima-mo-moete-iru-ka.webp",
      "imagem_pasta": "https://animefire.plus/img/animes/lupin-iii-lupin-wa-ima-mo-moete-iru-ka/",
      "secao": "legendados",
      "pagina": 87,
      "total_episodios": 1,
      "link_video": "https://animefire.plus/video/lupin-iii-lupin-wa-ima-mo-moete-iru-ka"
    },
    {
      "id": 2274,
      "nome": "Lupin III: Part 5 (Dublado)",
      "link": "https://animefire.plus/animes/lupin-iii-part-5-dublado-todos-os-episodios",
      "texto_original": "Lupin III: Part 5 (Dublado)",
      "rating": 8.13,
      "classificacao_etaria": "A14",
      "imagem_original": "https://animefire.plus/img/animes/lupin-iii-part-5.webp",
      "imagem_pasta": "https://animefire.plus/img/animes/lupin-iii-part-5/",
      "secao": "dublados,legendados",
      "pagina": 4,
      "total_episodios": 24,
      "link_video": "https://animefire.plus/video/lupin-iii-part-5-dublado"
    },
    {
      "id": 2275,
      "nome": "Lupin III: Part 6 - Jidai",
      "link": "https://animefire.plus/animes/lupin-iii-part-6---jidai-todos-os-episodios",
      "texto_original": "Lupin III: Part 6 - Jidai",
      "rating": 7.33,
      "classificacao_etaria": "A14",
      "imagem_original": "https://animefire.plus/img/animes/lupin-iii-part-6---jidai.webp",
      "imagem_pasta": "https://animefire.plus/img/animes/lupin-iii-part-6---jidai/",
      "secao": "legendados",
      "pagina": 37,
      "total_episodios": 1,
      "link_video": "https://animefire.plus/video/lupin-iii-part-6---jidai"
    },
    {
      "id": 2276,
      "nome": "Lupin III: Part 6 (Dublado)",
      "link": "https://animefire.plus/animes/lupin-iii-part-6-dublado-todos-os-episodios",
      "texto_original": "Lupin III: Part 6 (Dublado)",
      "rating": 7.2,
      "classificacao_etaria": "A14",
      "imagem_original": "https://animefire.plus/img/animes/lupin-iii-part-6.webp",
      "imagem_pasta": "https://animefire.plus/img/animes/lupin-iii-part-6/",
      "secao": "dublados,legendados",
      "pagina": 11,
      "total_episodios": 25,
      "link_video": "https://animefire.plus/video/lupin-iii-part-6-dublado"
    },
    {
      "id": 2277,
      "nome": "Lupin III: Part II",
      "link": "https://animefire.plus/animes/lupin-iii-part-ii-todos-os-episodios",
      "texto_original": "Lupin III: Part II",
      "rating": 7.79,
      "classificacao_etaria": "A14",
      "imagem_original": "https://animefire.plus/img/animes/lupin-iii-part-ii.webp",
      "imagem_pasta": "https://animefire.plus/img/animes/lupin-iii-part-ii/",
      "secao": "legendados",
      "pagina": 44,
      "total_episodios": 155,
      "link_video": "https://animefire.plus/video/lupin-iii-part-ii"
    },
    {
      "id": 2278,
      "nome": "Lupin III: Prison of the Past",
      "link": "https://animefire.plus/animes/lupin-iii-prison-of-the-past-todos-os-episodios",
      "texto_original": "Lupin III: Prison of the Past",
      "rating": 6.79,
      "classificacao_etaria": "A14",
      "imagem_original": "https://animefire.plus/img/animes/lupin-iii-prison-of-the-past.webp",
      "imagem_pasta": "https://animefire.plus/img/animes/lupin-iii-prison-of-the-past/",
      "secao": "legendados",
      "pagina": 68,
      "total_episodios": 1,
      "link_video": "https://animefire.plus/video/lupin-iii-prison-of-the-past"
    },
    {
      "id": 2279,
      "nome": "Lupin the Third: Mine Fujiko to Iu Onna",
      "link": "https://animefire.plus/animes/lupin-the-third-mine-fujiko-to-iu-onna-todos-os-episodios",
      "texto_original": "Lupin the Third: Mine Fujiko to Iu Onna",
      "rating": 7.81,
      "classificacao_etaria": "A18",
      "imagem_original": "https://animefire.plus/img/animes/lupin-the-third-mine-fujiko-to-iu-onna.webp",
      "imagem_pasta": "https://animefire.plus/img/animes/lupin-the-third-mine-fujiko-to-iu-onna/",
      "secao": "legendados",
      "pagina": 142,
      "total_episodios": 0,
      "link_video": "https://animefire.plus/video/lupin-the-third-mine-fujiko-to-iu-onna"
    },
    {
      "id": 2280,
      "nome": "Lupin VIII",
      "link": "https://animefire.plus/animes/lupin-viii-todos-os-episodios",
      "texto_original": "Lupin VIII",
      "rating": 5.68,
      "classificacao_etaria": "A14",
      "imagem_original": "https://animefire.plus/img/animes/lupin-viii.webp",
      "imagem_pasta": "https://animefire.plus/img/animes/lupin-viii/",
      "secao": "legendados",
      "pagina": 87,
      "total_episodios": 1,
      "link_video": "https://animefire.plus/video/lupin-viii"
    }
  ],
  "pagination": {
    "current_page": 114,
    "per_page": 20,
    "total_items": 4368,
    "total_pages": 219,
    "has_next": true,
    "has_prev": true
  }
}
