{
  "message": "Lista de animes",
  "data": [
    {
      "id": 2781,
      "nome": "Noragami Aragoto (Dublado)",
      "link": "https://animefire.plus/animes/noragami-aragoto-dublado-todos-os-episodios",
      "texto_original": "Noragami Aragoto (Dublado)",
      "rating": 8.18,
      "classificacao_etaria": "A14",
      "imagem_original": "https://animefire.plus/img/animes/noragami-aragoto.webp",
      "imagem_pasta": "https://animefire.plus/img/animes/noragami-aragoto/",
      "secao": "dublados,legendados",
      "pagina": 13,
      "total_episodios": 13,
      "link_video": "https://animefire.plus/video/noragami-aragoto-dublado"
    },
    {
      "id": 2782,
      "nome": "Noragami Aragoto OVA",
      "link": "https://animefire.plus/animes/noragami-aragoto-ova-todos-os-episodios",
      "texto_original": "Noragami Aragoto OVA",
      "rating": 7.98,
      "classificacao_etaria": "A14",
      "imagem_original": "https://animefire.plus/img/animes/noragami-aragoto-ova.webp",
      "imagem_pasta": "https://animefire.plus/img/animes/noragami-aragoto-ova/",
      "secao": "legendados",
      "pagina": 62,
      "total_episodios": 1,
      "link_video": "https://animefire.plus/video/noragami-aragoto-ova"
    },
    {
      "id": 2783,
      "nome": "Noragami OVA",
      "link": "https://animefire.plus/animes/noragami-ova-todos-os-episodios",
      "texto_original": "Noragami OVA",
      "rating": 7.82,
      "classificacao_etaria": "A14",
      "imagem_original": "https://animefire.plus/img/animes/noragami-ova.webp",
      "imagem_pasta": "https://animefire.plus/img/animes/noragami-ova/",
      "secao": "legendados",
      "pagina": 62,
      "total_episodios": 2,
      "link_video": "https://animefire.plus/video/noragami-ova"
    },
    {
      "id": 2784,
      "nome": "Norn9: Norn+Nonet",
      "link": "https://animefire.plus/animes/norn9-norn-nonet-todos-os-episodios",
      "texto_original": "Norn9: Norn+Nonet",
      "rating": 6.68,
      "classificacao_etaria": "A14",
      "imagem_original": "https://animefire.plus/img/animes/norn9-norn-nonet.webp",
      "imagem_pasta": "https://animefire.plus/img/animes/norn9-norn-nonet/",
      "secao": "legendados",
      "pagina": 136,
      "total_episodios": 0,
      "link_video": "https://animefire.plus/video/norn9-norn-nonet"
    },
    {
      "id": 2785,
      "nome": "Noumin Kanren no Skill bakka Agetetara Nazeka Tsuyoku Natta.",
      "link": "https://animefire.plus/animes/noumin-kanren-no-skill-bakka-agetetara-nazeka-tsuyoku-natta-todos-os-episodios",
      "texto_original": "Noumin Kanren no Skill bakka Agetetara Nazeka Tsuyoku Natta.",
      "rating": 5.96,
      "classificacao_etaria": "A14",
      "imagem_original": "https://animefire.plus/img/animes/noumin-kanren-no-skill-bakka-agetetara-nazeka-tsuyoku-natta.webp",
      "imagem_pasta": "https://animefire.plus/img/animes/noumin-kanren-no-skill-bakka-agetetara-nazeka-tsuyoku-natta/",
      "secao": "legendados",
      "pagina": 29,
      "total_episodios": 12,
      "link_video": "https://animefire.plus/video/noumin-kanren-no-skill-bakka-agetetara-nazeka-tsuyoku-natta"
    },
    {
      "id": 2786,
      "nome": "Nourin",
      "link": "https://animefire.plus/animes/nourin-todos-os-episodios",
      "texto_original": "Nourin",
      "rating": 6.91,
      "classificacao_etaria": "A14",
      "imagem_original": "https://animefire.plus/img/animes/nourin.webp",
      "imagem_pasta": "https://animefire.plus/img/animes/nourin/",
      "secao": "legendados",
      "pagina": 116,
      "total_episodios": 12,
      "link_video": "https://animefire.plus/video/nourin"
    },
    {
      "id": 2787,
      "nome": "Nozo x Kimi",
      "link": "https://animefire.plus/animes/nozo-x-kimi-todos-os-episodios",
      "texto_original": "Nozo x Kimi",
      "rating": 6.49,
      "classificacao_etaria": "A18",
      "imagem_original": "https://animefire.plus/img/animes/nozo-x-kimi.webp",
      "imagem_pasta": "https://animefire.plus/img/animes/nozo-x-kimi/",
      "secao": "legendados",
      "pagina": 61,
      "total_episodios": 3,
      "link_video": "https://animefire.plus/video/nozo-x-kimi"
    },
    {
      "id": 2788,
      "nome": "Nozomanu Fushi no Boukensha",
      "link": "https://animefire.plus/animes/nozomanu-fushi-no-boukensha-todos-os-episodios",
      "texto_original": "Nozomanu Fushi no Boukensha",
      "rating": 7.43,
      "classificacao_etaria": "A14",
      "imagem_original": "https://animefire.plus/img/animes/nozomanu-fushi-no-boukensha.webp",
      "imagem_pasta": "https://animefire.plus/img/animes/nozomanu-fushi-no-boukensha/",
      "secao": "legendados",
      "pagina": 18,
      "total_episodios": 12,
      "link_video": "https://animefire.plus/video/nozomanu-fushi-no-boukensha"
    },
    {
      "id": 2789,
      "nome": "Nu Wushen de Canzhuo",
      "link": "https://animefire.plus/animes/nu-wushen-de-canzhuo-todos-os-episodios",
      "texto_original": "Nu Wushen de Canzhuo",
      "rating": 6.89,
      "classificacao_etaria": "A14",
      "imagem_original": "https://animefire.plus/img/animes/nu-wushen-de-canzhuo.webp",
      "imagem_pasta": "https://animefire.plus/img/animes/nu-wushen-de-canzhuo/",
      "secao": "legendados",
      "pagina": 53,
      "total_episodios": 7,
      "link_video": "https://animefire.plus/video/nu-wushen-de-canzhuo"
    },
    {
      "id": 2790,
      "nome": "Null Peta",
      "link": "https://animefire.plus/animes/null-peta-todos-os-episodios",
      "texto_original": "Null Peta",
      "rating": 6.4,
      "classificacao_etaria": "A14",
      "imagem_original": "https://animefire.plus/img/animes/null-peta.webp",
      "imagem_pasta": "https://animefire.plus/img/animes/null-peta/",
      "secao": "legendados",
      "pagina": 110,
      "total_episodios": 0,
      "link_video": "https://animefire.plus/video/null-peta"
    },
    {
      "id": 2791,
      "nome": "Null Peta Special",
      "link": "https://animefire.plus/animes/null-peta-special-todos-os-episodios",
      "texto_original": "Null Peta Special",
      "rating": 5.62,
      "classificacao_etaria": "A14",
      "imagem_original": "https://animefire.plus/img/animes/null-peta-special.webp",
      "imagem_pasta": "https://animefire.plus/img/animes/null-peta-special/",
      "secao": "legendados",
      "pagina": 88,
      "total_episodios": 1,
      "link_video": "https://animefire.plus/video/null-peta-special"
    },
    {
      "id": 2792,
      "nome": "number24",
      "link": "https://animefire.plus/animes/number24-todos-os-episodios",
      "texto_original": "number24",
      "rating": 6.63,
      "classificacao_etaria": "A14",
      "imagem_original": "https://animefire.plus/img/animes/number24.webp",
      "imagem_pasta": "https://animefire.plus/img/animes/number24/",
      "secao": "legendados",
      "pagina": 93,
      "total_episodios": 0,
      "link_video": "https://animefire.plus/video/number24"
    },
    {
      "id": 2793,
      "nome": "Nurarihyon no Mago",
      "link": "https://animefire.plus/animes/nurarihyon-no-mago-todos-os-episodios",
      "texto_original": "Nurarihyon no Mago",
      "rating": 7.73,
      "classificacao_etaria": "A14",
      "imagem_original": "https://animefire.plus/img/animes/nurarihyon-no-mago.webp",
      "imagem_pasta": "https://animefire.plus/img/animes/nurarihyon-no-mago/",
      "secao": "legendados",
      "pagina": 143,
      "total_episodios": 26,
      "link_video": "https://animefire.plus/video/nurarihyon-no-mago"
    },
    {
      "id": 2794,
      "nome": "Nurarihyon no Mago OVA",
      "link": "https://animefire.plus/animes/nurarihyon-no-mago-ova-todos-os-episodios",
      "texto_original": "Nurarihyon no Mago OVA",
      "rating": 7.76,
      "classificacao_etaria": "A18",
      "imagem_original": "https://animefire.plus/img/animes/nurarihyon-no-mago-ova.webp",
      "imagem_pasta": "https://animefire.plus/img/animes/nurarihyon-no-mago-ova/",
      "secao": "legendados",
      "pagina": 88,
      "total_episodios": 2,
      "link_video": "https://animefire.plus/video/nurarihyon-no-mago-ova"
    },
    {
      "id": 2795,
      "nome": "Nurarihyon no Mago: Sennen Makyou",
      "link": "https://animefire.plus/animes/nurarihyon-no-mago-sennen-makyou-todos-os-episodios",
      "texto_original": "Nurarihyon no Mago: Sennen Makyou",
      "rating": 8.08,
      "classificacao_etaria": "A14",
      "imagem_original": "https://animefire.plus/img/animes/nurarihyon-no-mago-sennen-makyou.webp",
      "imagem_pasta": "https://animefire.plus/img/animes/nurarihyon-no-mago-sennen-makyou/",
      "secao": "legendados",
      "pagina": 152,
      "total_episodios": 25,
      "link_video": "https://animefire.plus/video/nurarihyon-no-mago-sennen-makyou"
    },
    {
      "id": 2796,
      "nome": "Nurse Witch Komugi-chan R",
      "link": "https://animefire.plus/animes/nurse-witch-komugi-chan-r-todos-os-episodios",
      "texto_original": "Nurse Witch Komugi-chan R",
      "rating": 5.99,
      "classificacao_etaria": "A14",
      "imagem_original": "https://animefire.plus/img/animes/nurse-witch-komugi-chan-r.webp",
      "imagem_pasta": "https://animefire.plus/img/animes/nurse-witch-komugi-chan-r/",
      "secao": "legendados",
      "pagina": 99,
      "total_episodios": 12,
      "link_video": "https://animefire.plus/video/nurse-witch-komugi-chan-r"
    },
    {
      "id": 2797,
      "nome": "Nyaight of the Living Cat",
      "link": "https://animefire.plus/animes/nyaight-of-the-living-cat-todos-os-episodios",
      "texto_original": "Nyaight of the Living Cat",
      "rating": 6.35,
      "classificacao_etaria": "A14",
      "imagem_original": "https://animefire.plus/img/animes/nyaight-of-the-living-cat.webp",
      "imagem_pasta": "https://animefire.plus/img/animes/nyaight-of-the-living-cat/",
      "secao": "legendados,lancamentos",
      "pagina": 2,
      "total_episodios": 5,
      "link_video": "https://animefire.plus/video/nyaight-of-the-living-cat"
    },
    {
      "id": 2798,
      "nome": "Nyan Koi!",
      "link": "https://animefire.plus/animes/nyan-koi-todos-os-episodios",
      "texto_original": "Nyan Koi!",
      "rating": 7.28,
      "classificacao_etaria": "A14",
      "imagem_original": "https://animefire.plus/img/animes/nyan-koi.webp",
      "imagem_pasta": "https://animefire.plus/img/animes/nyan-koi/",
      "secao": "legendados",
      "pagina": 162,
      "total_episodios": 12,
      "link_video": "https://animefire.plus/video/nyan-koi"
    },
    {
      "id": 2799,
      "nome": "Nyanko Days",
      "link": "https://animefire.plus/animes/nyanko-days-todos-os-episodios",
      "texto_original": "Nyanko Days",
      "rating": 6.66,
      "classificacao_etaria": "A14",
      "imagem_original": "https://animefire.plus/img/animes/nyanko-days.webp",
      "imagem_pasta": "https://animefire.plus/img/animes/nyanko-days/",
      "secao": "legendados",
      "pagina": 118,
      "total_episodios": 1,
      "link_video": "https://animefire.plus/video/nyanko-days"
    },
    {
      "id": 2800,
      "nome": "Nyanpire The Animation",
      "link": "https://animefire.plus/animes/nyanpire-the-animation-todos-os-episodios",
      "texto_original": "Nyanpire The Animation",
      "rating": 6.75,
      "classificacao_etaria": "A14",
      "imagem_original": "https://animefire.plus/img/animes/nyanpire-the-animation.webp",
      "imagem_pasta": "https://animefire.plus/img/animes/nyanpire-the-animation/",
      "secao": "legendados",
      "pagina": 146,
      "total_episodios": 0,
      "link_video": "https://animefire.plus/video/nyanpire-the-animation"
    }
  ],
  "pagination": {
    "current_page": 140,
    "per_page": 20,
    "total_items": 4368,
    "total_pages": 219,
    "has_next": true,
    "has_prev": true
  }
}
