{
  "message": "Lista de animes",
  "data": [
    {
      "id": 2741,
      "nome": "Ningen Fushin no Boukensha-tachi ga Sekai wo Sukuu you desu (Dublado)",
      "link": "https://animefire.plus/animes/ningen-fushin-no-boukensha-tachi-ga-sekai-wo-sukuu-you-desu-dublado-todos-os-episodios",
      "texto_original": "Ningen Fushin no Boukensha-tachi ga Sekai wo Sukuu you desu (Dublado)",
      "rating": 6.33,
      "classificacao_etaria": "A14",
      "imagem_original": "https://animefire.plus/img/animes/ningen-fushin-no-boukensha-tachi-ga-sekai-wo-sukuu-you-desu.webp",
      "imagem_pasta": "https://animefire.plus/img/animes/ningen-fushin-no-boukensha-tachi-ga-sekai-wo-sukuu-you-desu/",
      "secao": "dublados,legendados",
      "pagina": 6,
      "total_episodios": 12,
      "link_video": "https://animefire.plus/video/ningen-fushin-no-boukensha-tachi-ga-sekai-wo-sukuu-you-desu-dublado"
    },
    {
      "id": 2742,
      "nome": "Ninja Collection",
      "link": "https://animefire.plus/animes/ninja-collection-todos-os-episodios",
      "texto_original": "Ninja Collection",
      "rating": null,
      "classificacao_etaria": "A14",
      "imagem_original": "https://animefire.plus/img/animes/ninja-collection.webp",
      "imagem_pasta": "https://animefire.plus/img/animes/ninja-collection/",
      "secao": "legendados,lancamentos",
      "pagina": 57,
      "total_episodios": 11,
      "link_video": "https://animefire.plus/video/ninja-collection"
    },
    {
      "id": 2743,
      "nome": "Ninja Kamui (Dublado)",
      "link": "https://animefire.plus/animes/ninja-kamui-dublado-todos-os-episodios",
      "texto_original": "Ninja Kamui (Dublado)",
      "rating": 6.97,
      "classificacao_etaria": "A16",
      "imagem_original": "https://animefire.plus/img/animes/ninja-kamui.webp",
      "imagem_pasta": "https://animefire.plus/img/animes/ninja-kamui/",
      "secao": "dublados,legendados,lancamentos",
      "pagina": 3,
      "total_episodios": 13,
      "link_video": "https://animefire.plus/video/ninja-kamui-dublado"
    },
    {
      "id": 2744,
      "nome": "Ninja Ryuukenden",
      "link": "https://animefire.plus/animes/ninja-ryuukenden-todos-os-episodios",
      "texto_original": "Ninja Ryuukenden",
      "rating": 5.68,
      "classificacao_etaria": "A16",
      "imagem_original": "https://animefire.plus/img/animes/ninja-ryuukenden.webp",
      "imagem_pasta": "https://animefire.plus/img/animes/ninja-ryuukenden/",
      "secao": "legendados",
      "pagina": 77,
      "total_episodios": 1,
      "link_video": "https://animefire.plus/video/ninja-ryuukenden"
    },
    {
      "id": 2745,
      "nome": "Ninja Slayer From Animation",
      "link": "https://animefire.plus/animes/ninja-slayer-from-animation-todos-os-episodios",
      "texto_original": "Ninja Slayer From Animation",
      "rating": 6.59,
      "classificacao_etaria": "A16",
      "imagem_original": "https://animefire.plus/img/animes/ninja-slayer-from-animation.webp",
      "imagem_pasta": "https://animefire.plus/img/animes/ninja-slayer-from-animation/",
      "secao": "legendados",
      "pagina": 150,
      "total_episodios": 4,
      "link_video": "https://animefire.plus/video/ninja-slayer-from-animation"
    },
    {
      "id": 2746,
      "nome": "Ninja to Koroshiya no Futarigurashi",
      "link": "https://animefire.plus/animes/ninja-to-koroshiya-no-futarigurashi-todos-os-episodios",
      "texto_original": "Ninja to Koroshiya no Futarigurashi",
      "rating": 7.63,
      "classificacao_etaria": "A14",
      "imagem_original": "https://animefire.plus/img/animes/ninja-to-koroshiya-no-futarigurashi.webp",
      "imagem_pasta": "https://animefire.plus/img/animes/ninja-to-koroshiya-no-futarigurashi/",
      "secao": "legendados",
      "pagina": 4,
      "total_episodios": 12,
      "link_video": "https://animefire.plus/video/ninja-to-koroshiya-no-futarigurashi"
    },
    {
      "id": 2747,
      "nome": "Nisekoi",
      "link": "https://animefire.plus/animes/nisekoi-todos-os-episodios",
      "texto_original": "Nisekoi",
      "rating": 7.71,
      "classificacao_etaria": "A14",
      "imagem_original": "https://animefire.plus/img/animes/nisekoi.webp",
      "imagem_pasta": "https://animefire.plus/img/animes/nisekoi/",
      "secao": "legendados",
      "pagina": 79,
      "total_episodios": 20,
      "link_video": "https://animefire.plus/video/nisekoi"
    },
    {
      "id": 2748,
      "nome": "Nisekoi 2nd season",
      "link": "https://animefire.plus/animes/nisekoi-2nd-season-todos-os-episodios",
      "texto_original": "Nisekoi 2nd season",
      "rating": 7.43,
      "classificacao_etaria": "A14",
      "imagem_original": "https://animefire.plus/img/animes/nisekoi-2nd-season.webp",
      "imagem_pasta": "https://animefire.plus/img/animes/nisekoi-2nd-season/",
      "secao": "legendados",
      "pagina": 79,
      "total_episodios": 12,
      "link_video": "https://animefire.plus/video/nisekoi-2nd-season"
    },
    {
      "id": 2749,
      "nome": "Nisemonogatari",
      "link": "https://animefire.plus/animes/nisemonogatari-todos-os-episodios",
      "texto_original": "Nisemonogatari",
      "rating": 8.2,
      "classificacao_etaria": "A16",
      "imagem_original": "https://animefire.plus/img/animes/nisemonogatari.webp",
      "imagem_pasta": "https://animefire.plus/img/animes/nisemonogatari/",
      "secao": "legendados",
      "pagina": 148,
      "total_episodios": 1,
      "link_video": "https://animefire.plus/video/nisemonogatari"
    },
    {
      "id": 2750,
      "nome": "Nmeneko",
      "link": "https://animefire.plus/animes/nmeneko-todos-os-episodios",
      "texto_original": "Nmeneko",
      "rating": null,
      "classificacao_etaria": "A14",
      "imagem_original": "https://animefire.plus/img/animes/nmeneko.webp",
      "imagem_pasta": "https://animefire.plus/img/animes/nmeneko/",
      "secao": "legendados,lancamentos",
      "pagina": 4,
      "total_episodios": 0,
      "link_video": "https://animefire.plus/video/nmeneko"
    },
    {
      "id": 2751,
      "nome": "No Game No Life (Dublado)",
      "link": "https://animefire.plus/animes/no-game-no-life-dublado-todos-os-episodios",
      "texto_original": "No Game No Life (Dublado)",
      "rating": 8.29,
      "classificacao_etaria": "A14",
      "imagem_original": "https://animefire.plus/img/animes/no-game-no-life.webp",
      "imagem_pasta": "https://animefire.plus/img/animes/no-game-no-life/",
      "secao": "dublados,legendados",
      "pagina": 22,
      "total_episodios": 12,
      "link_video": "https://animefire.plus/video/no-game-no-life-dublado"
    },
    {
      "id": 2752,
      "nome": "No Game No Life Specials",
      "link": "https://animefire.plus/animes/no-game-no-life-specials-todos-os-episodios",
      "texto_original": "No Game No Life Specials",
      "rating": 6.76,
      "classificacao_etaria": "A14",
      "imagem_original": "https://animefire.plus/img/animes/no-game-no-life-specials.webp",
      "imagem_pasta": "https://animefire.plus/img/animes/no-game-no-life-specials/",
      "secao": "legendados",
      "pagina": 75,
      "total_episodios": 3,
      "link_video": "https://animefire.plus/video/no-game-no-life-specials"
    },
    {
      "id": 2753,
      "nome": "No Game No Life: Zero",
      "link": "https://animefire.plus/animes/no-game-no-life-zero-todos-os-episodios",
      "texto_original": "No Game No Life: Zero",
      "rating": 8.56,
      "classificacao_etaria": "A14",
      "imagem_original": "https://animefire.plus/img/animes/no-game-no-life-zero.webp",
      "imagem_pasta": "https://animefire.plus/img/animes/no-game-no-life-zero/",
      "secao": "legendados",
      "pagina": 105,
      "total_episodios": 4,
      "link_video": "https://animefire.plus/video/no-game-no-life-zero"
    },
    {
      "id": 2754,
      "nome": "No Guns Life",
      "link": "https://animefire.plus/animes/no-guns-life-todos-os-episodios",
      "texto_original": "No Guns Life",
      "rating": 6.89,
      "classificacao_etaria": "A14",
      "imagem_original": "https://animefire.plus/img/animes/no-guns-life.webp",
      "imagem_pasta": "https://animefire.plus/img/animes/no-guns-life/",
      "secao": "legendados",
      "pagina": 110,
      "total_episodios": 0,
      "link_video": "https://animefire.plus/video/no-guns-life"
    },
    {
      "id": 2755,
      "nome": "No Guns Life 2nd Season",
      "link": "https://animefire.plus/animes/no-guns-life-2nd-season-todos-os-episodios",
      "texto_original": "No Guns Life 2nd Season",
      "rating": null,
      "classificacao_etaria": "A14",
      "imagem_original": "https://animefire.plus/img/animes/no-guns-life-2nd-season.webp",
      "imagem_pasta": "https://animefire.plus/img/animes/no-guns-life-2nd-season/",
      "secao": "legendados",
      "pagina": 58,
      "total_episodios": 12,
      "link_video": "https://animefire.plus/video/no-guns-life-2nd-season"
    },
    {
      "id": 2756,
      "nome": "No.6",
      "link": "https://animefire.plus/animes/no-6-todos-os-episodios",
      "texto_original": "No.6",
      "rating": 7.69,
      "classificacao_etaria": "A16",
      "imagem_original": "https://animefire.plus/img/animes/no-6.webp",
      "imagem_pasta": "https://animefire.plus/img/animes/no-6/",
      "secao": "legendados",
      "pagina": 161,
      "total_episodios": 11,
      "link_video": "https://animefire.plus/video/no-6"
    },
    {
      "id": 2757,
      "nome": "Noblesse (Dublado)",
      "link": "https://animefire.plus/animes/noblesse-dublado-todos-os-episodios",
      "texto_original": "Noblesse (Dublado)",
      "rating": 6.6,
      "classificacao_etaria": "A16",
      "imagem_original": "https://animefire.plus/img/animes/noblesse.webp",
      "imagem_pasta": "https://animefire.plus/img/animes/noblesse/",
      "secao": "dublados,legendados",
      "pagina": 20,
      "total_episodios": 13,
      "link_video": "https://animefire.plus/video/noblesse-dublado"
    },
    {
      "id": 2758,
      "nome": "Noblesse: Awakening",
      "link": "https://animefire.plus/animes/noblesse-awakening-todos-os-episodios",
      "texto_original": "Noblesse: Awakening",
      "rating": 7.67,
      "classificacao_etaria": "A16",
      "imagem_original": "https://animefire.plus/img/animes/noblesse-awakening.webp",
      "imagem_pasta": "https://animefire.plus/img/animes/noblesse-awakening/",
      "secao": "legendados",
      "pagina": 153,
      "total_episodios": 1,
      "link_video": "https://animefire.plus/video/noblesse-awakening"
    },
    {
      "id": 2759,
      "nome": "Noblesse: Pamyeol-ui Sijak",
      "link": "https://animefire.plus/animes/noblesse-pamyeol-ui-sijak-todos-os-episodios",
      "texto_original": "Noblesse: Pamyeol-ui Sijak",
      "rating": 7.43,
      "classificacao_etaria": "A16",
      "imagem_original": "https://animefire.plus/img/animes/noblesse-pamyeol-ui-sijak.webp",
      "imagem_pasta": "https://animefire.plus/img/animes/noblesse-pamyeol-ui-sijak/",
      "secao": "legendados",
      "pagina": 51,
      "total_episodios": 1,
      "link_video": "https://animefire.plus/video/noblesse-pamyeol-ui-sijak"
    },
    {
      "id": 2760,
      "nome": "Nobunaga Concerto",
      "link": "https://animefire.plus/animes/nobunaga-concerto-todos-os-episodios",
      "texto_original": "Nobunaga Concerto",
      "rating": 7.69,
      "classificacao_etaria": "A14",
      "imagem_original": "https://animefire.plus/img/animes/nobunaga-concerto.webp",
      "imagem_pasta": "https://animefire.plus/img/animes/nobunaga-concerto/",
      "secao": "legendados",
      "pagina": 141,
      "total_episodios": 7,
      "link_video": "https://animefire.plus/video/nobunaga-concerto"
    }
  ],
  "pagination": {
    "current_page": 138,
    "per_page": 20,
    "total_items": 4368,
    "total_pages": 219,
    "has_next": true,
    "has_prev": true
  }
}
