{
  "message": "Lista de animes",
  "data": [
    {
      "id": 3981,
      "nome": "Twins Hinahima",
      "link": "https://animefire.plus/animes/twins-hinahima-todos-os-episodios",
      "texto_original": "Twins Hinahima",
      "rating": null,
      "classificacao_etaria": "A14",
      "imagem_original": "https://animefire.plus/img/animes/twins-hinahima.webp",
      "imagem_pasta": "https://animefire.plus/img/animes/twins-hinahima/",
      "secao": "legendados,lancamentos",
      "pagina": 4,
      "total_episodios": 0,
      "link_video": "https://animefire.plus/video/twins-hinahima"
    },
    {
      "id": 3982,
      "nome": "Two Car",
      "link": "https://animefire.plus/animes/two-car-todos-os-episodios",
      "texto_original": "Two Car",
      "rating": 5.73,
      "classificacao_etaria": "A14",
      "imagem_original": "https://animefire.plus/img/animes/two-car.webp",
      "imagem_pasta": "https://animefire.plus/img/animes/two-car/",
      "secao": "legendados",
      "pagina": 108,
      "total_episodios": 12,
      "link_video": "https://animefire.plus/video/two-car"
    },
    {
      "id": 3983,
      "nome": "Tytania",
      "link": "https://animefire.plus/animes/tytania-todos-os-episodios",
      "texto_original": "Tytania",
      "rating": 6.86,
      "classificacao_etaria": "A14",
      "imagem_original": "https://animefire.plus/img/animes/tytania.webp",
      "imagem_pasta": "https://animefire.plus/img/animes/tytania/",
      "secao": "legendados",
      "pagina": 176,
      "total_episodios": 26,
      "link_video": "https://animefire.plus/video/tytania"
    },
    {
      "id": 3984,
      "nome": "Übel Blatt",
      "link": "https://animefire.plus/animes/uebel-blatt-todos-os-episodios",
      "texto_original": "Übel Blatt",
      "rating": 6.3,
      "classificacao_etaria": "A16",
      "imagem_original": "https://animefire.plus/img/animes/uebel-blatt.webp",
      "imagem_pasta": "https://animefire.plus/img/animes/uebel-blatt/",
      "secao": "legendados",
      "pagina": 8,
      "total_episodios": 12,
      "link_video": "https://animefire.plus/video/uebel-blatt"
    },
    {
      "id": 3985,
      "nome": "Uchi no Kaisha no Chiisai Senpai no Hanashi (Dublado)",
      "link": "https://animefire.plus/animes/uchi-no-kaisha-no-chiisai-senpai-no-hanashi-dublado-todos-os-episodios",
      "texto_original": "Uchi no Kaisha no Chiisai Senpai no Hanashi (Dublado)",
      "rating": 6.9,
      "classificacao_etaria": "A14",
      "imagem_original": "https://animefire.plus/img/animes/uchi-no-kaisha-no-chiisai-senpai-no-hanashi.webp",
      "imagem_pasta": "https://animefire.plus/img/animes/uchi-no-kaisha-no-chiisai-senpai-no-hanashi/",
      "secao": "dublados,legendados",
      "pagina": 6,
      "total_episodios": 12,
      "link_video": "https://animefire.plus/video/uchi-no-kaisha-no-chiisai-senpai-no-hanashi-dublado"
    },
    {
      "id": 3986,
      "nome": "Uchi no Ko no Tame naraba, Ore wa Moshikashitara Maou mo Taoseru kamo Shirenai.",
      "link": "https://animefire.plus/animes/uchi-no-ko-no-tame-naraba-ore-wa-moshikashitara-maou-mo-taoseru-kamo-shirenai-todos-os-episodios",
      "texto_original": "Uchi no Ko no Tame naraba, Ore wa Moshikashitara Maou mo Taoseru kamo Shirenai.",
      "rating": 7.04,
      "classificacao_etaria": "A14",
      "imagem_original": "https://animefire.plus/img/animes/uchi-no-ko-no-tame-naraba-ore-wa-moshikashitara-maou-mo-taoseru-kamo-shirenai.webp",
      "imagem_pasta": "https://animefire.plus/img/animes/uchi-no-ko-no-tame-naraba-ore-wa-moshikashitara-maou-mo-taoseru-kamo-shirenai/",
      "secao": "legendados",
      "pagina": 103,
      "total_episodios": 12,
      "link_video": "https://animefire.plus/video/uchi-no-ko-no-tame-naraba-ore-wa-moshikashitara-maou-mo-taoseru-kamo-shirenai"
    },
    {
      "id": 3987,
      "nome": "Uchi no Maid ga Uzasugiru!",
      "link": "https://animefire.plus/animes/uchi-no-maid-ga-uzasugiru-todos-os-episodios",
      "texto_original": "Uchi no Maid ga Uzasugiru!",
      "rating": 7.14,
      "classificacao_etaria": "A14",
      "imagem_original": "https://animefire.plus/img/animes/uchi-no-maid-ga-uzasugiru.webp",
      "imagem_pasta": "https://animefire.plus/img/animes/uchi-no-maid-ga-uzasugiru/",
      "secao": "legendados",
      "pagina": 157,
      "total_episodios": 12,
      "link_video": "https://animefire.plus/video/uchi-no-maid-ga-uzasugiru"
    },
    {
      "id": 3988,
      "nome": "Uchi no Shishou wa Shippo ga Nai",
      "link": "https://animefire.plus/animes/uchi-no-shishou-wa-shippo-ga-nai-todos-os-episodios",
      "texto_original": "Uchi no Shishou wa Shippo ga Nai",
      "rating": 6.73,
      "classificacao_etaria": "A14",
      "imagem_original": "https://animefire.plus/img/animes/uchi-no-shishou-wa-shippo-ga-nai.webp",
      "imagem_pasta": "https://animefire.plus/img/animes/uchi-no-shishou-wa-shippo-ga-nai/",
      "secao": "legendados",
      "pagina": 28,
      "total_episodios": 13,
      "link_video": "https://animefire.plus/video/uchi-no-shishou-wa-shippo-ga-nai"
    },
    {
      "id": 3989,
      "nome": "Uchi Tama?! Uchi no Tama Shirimasen ka?",
      "link": "https://animefire.plus/animes/uchi-tama-uchi-no-tama-shirimasen-ka-todos-os-episodios",
      "texto_original": "Uchi Tama?! Uchi no Tama Shirimasen ka?",
      "rating": 6.9,
      "classificacao_etaria": "A14",
      "imagem_original": "https://animefire.plus/img/animes/uchi-tama-uchi-no-tama-shirimasen-ka.webp",
      "imagem_pasta": "https://animefire.plus/img/animes/uchi-tama-uchi-no-tama-shirimasen-ka/",
      "secao": "legendados",
      "pagina": 92,
      "total_episodios": 1,
      "link_video": "https://animefire.plus/video/uchi-tama-uchi-no-tama-shirimasen-ka"
    },
    {
      "id": 3990,
      "nome": "Uchouten Kazoku",
      "link": "https://animefire.plus/animes/uchouten-kazoku-todos-os-episodios",
      "texto_original": "Uchouten Kazoku",
      "rating": 7.94,
      "classificacao_etaria": "A14",
      "imagem_original": "https://animefire.plus/img/animes/uchouten-kazoku.webp",
      "imagem_pasta": "https://animefire.plus/img/animes/uchouten-kazoku/",
      "secao": "legendados",
      "pagina": 137,
      "total_episodios": 0,
      "link_video": "https://animefire.plus/video/uchouten-kazoku"
    },
    {
      "id": 3991,
      "nome": "Uchouten Kazoku 2",
      "link": "https://animefire.plus/animes/uchouten-kazoku-2-todos-os-episodios",
      "texto_original": "Uchouten Kazoku 2",
      "rating": 8.2,
      "classificacao_etaria": "A14",
      "imagem_original": "https://animefire.plus/img/animes/uchouten-kazoku-2.webp",
      "imagem_pasta": "https://animefire.plus/img/animes/uchouten-kazoku-2/",
      "secao": "legendados",
      "pagina": 133,
      "total_episodios": 12,
      "link_video": "https://animefire.plus/video/uchouten-kazoku-2"
    },
    {
      "id": 3992,
      "nome": "Uchuu Kaizoku Captain Herlock",
      "link": "https://animefire.plus/animes/uchuu-kaizoku-captain-herlock-todos-os-episodios",
      "texto_original": "Uchuu Kaizoku Captain Herlock",
      "rating": 7.7,
      "classificacao_etaria": "A14",
      "imagem_original": "https://animefire.plus/img/animes/uchuu-kaizoku-captain-herlock.webp",
      "imagem_pasta": "https://animefire.plus/img/animes/uchuu-kaizoku-captain-herlock/",
      "secao": "legendados",
      "pagina": 43,
      "total_episodios": 42,
      "link_video": "https://animefire.plus/video/uchuu-kaizoku-captain-herlock"
    },
    {
      "id": 3993,
      "nome": "Uchuu Kazoku Carlvinson",
      "link": "https://animefire.plus/animes/uchuu-kazoku-carlvinson-todos-os-episodios",
      "texto_original": "Uchuu Kazoku Carlvinson",
      "rating": 6.44,
      "classificacao_etaria": "A14",
      "imagem_original": "https://animefire.plus/img/animes/uchuu-kazoku-carlvinson.webp",
      "imagem_pasta": "https://animefire.plus/img/animes/uchuu-kazoku-carlvinson/",
      "secao": "legendados",
      "pagina": 54,
      "total_episodios": 1,
      "link_video": "https://animefire.plus/video/uchuu-kazoku-carlvinson"
    },
    {
      "id": 3994,
      "nome": "Uchuu Kyoudai",
      "link": "https://animefire.plus/animes/uchuu-kyoudai-todos-os-episodios",
      "texto_original": "Uchuu Kyoudai",
      "rating": 8.53,
      "classificacao_etaria": "A14",
      "imagem_original": "https://animefire.plus/img/animes/uchuu-kyoudai.webp",
      "imagem_pasta": "https://animefire.plus/img/animes/uchuu-kyoudai/",
      "secao": "legendados",
      "pagina": 68,
      "total_episodios": 99,
      "link_video": "https://animefire.plus/video/uchuu-kyoudai"
    },
    {
      "id": 3995,
      "nome": "Uchuu no Senshi",
      "link": "https://animefire.plus/animes/uchuu-no-senshi-todos-os-episodios",
      "texto_original": "Uchuu no Senshi",
      "rating": 6.21,
      "classificacao_etaria": "A16",
      "imagem_original": "https://animefire.plus/img/animes/uchuu-no-senshi.webp",
      "imagem_pasta": "https://animefire.plus/img/animes/uchuu-no-senshi/",
      "secao": "legendados",
      "pagina": 55,
      "total_episodios": 6,
      "link_video": "https://animefire.plus/video/uchuu-no-senshi"
    },
    {
      "id": 3996,
      "nome": "Uchuu no Stellvia",
      "link": "https://animefire.plus/animes/uchuu-no-stellvia-todos-os-episodios",
      "texto_original": "Uchuu no Stellvia",
      "rating": 7.44,
      "classificacao_etaria": "A14",
      "imagem_original": "https://animefire.plus/img/animes/uchuu-no-stellvia.webp",
      "imagem_pasta": "https://animefire.plus/img/animes/uchuu-no-stellvia/",
      "secao": "legendados",
      "pagina": 165,
      "total_episodios": 26,
      "link_video": "https://animefire.plus/video/uchuu-no-stellvia"
    },
    {
      "id": 3997,
      "nome": "Uchuu Patrol Luluco",
      "link": "https://animefire.plus/animes/uchuu-patrol-luluco-todos-os-episodios",
      "texto_original": "Uchuu Patrol Luluco",
      "rating": 7.66,
      "classificacao_etaria": "A14",
      "imagem_original": "https://animefire.plus/img/animes/uchuu-patrol-luluco.webp",
      "imagem_pasta": "https://animefire.plus/img/animes/uchuu-patrol-luluco/",
      "secao": "legendados",
      "pagina": 140,
      "total_episodios": 13,
      "link_video": "https://animefire.plus/video/uchuu-patrol-luluco"
    },
    {
      "id": 3998,
      "nome": "Uchuu Senkan Tiramisù",
      "link": "https://animefire.plus/animes/uchuu-senkan-tiramisu-todos-os-episodios",
      "texto_original": "Uchuu Senkan Tiramisù",
      "rating": 6.4,
      "classificacao_etaria": "A14",
      "imagem_original": "https://animefire.plus/img/animes/uchuu-senkan-tiramisu.webp",
      "imagem_pasta": "https://animefire.plus/img/animes/uchuu-senkan-tiramisu/",
      "secao": "legendados",
      "pagina": 150,
      "total_episodios": 4,
      "link_video": "https://animefire.plus/video/uchuu-senkan-tiramisu"
    },
    {
      "id": 3999,
      "nome": "Uchuu Senkan Tiramisù Specials",
      "link": "https://animefire.plus/animes/uchuu-senkan-tiramisu-specials-todos-os-episodios",
      "texto_original": "Uchuu Senkan Tiramisù Specials",
      "rating": 6.37,
      "classificacao_etaria": "A14",
      "imagem_original": "https://animefire.plus/img/animes/uchuu-senkan-tiramisu-specials.webp",
      "imagem_pasta": "https://animefire.plus/img/animes/uchuu-senkan-tiramisu-specials/",
      "secao": "legendados",
      "pagina": 118,
      "total_episodios": 3,
      "link_video": "https://animefire.plus/video/uchuu-senkan-tiramisu-specials"
    },
    {
      "id": 4000,
      "nome": "Uchuu Senkan Yamato 2199",
      "link": "https://animefire.plus/animes/uchuu-senkan-yamato-2199-todos-os-episodios",
      "texto_original": "Uchuu Senkan Yamato 2199",
      "rating": 8.39,
      "classificacao_etaria": "A14",
      "imagem_original": "https://animefire.plus/img/animes/uchuu-senkan-yamato-2199.webp",
      "imagem_pasta": "https://animefire.plus/img/animes/uchuu-senkan-yamato-2199/",
      "secao": "legendados",
      "pagina": 134,
      "total_episodios": 30,
      "link_video": "https://animefire.plus/video/uchuu-senkan-yamato-2199"
    }
  ],
  "pagination": {
    "current_page": 200,
    "per_page": 20,
    "total_items": 4368,
    "total_pages": 219,
    "has_next": true,
    "has_prev": true
  }
}
