{
  "message": "Lista de animes",
  "data": [
    {
      "id": 161,
      "nome": "Ame-iro Cocoa in Hawaii",
      "link": "https://animefire.plus/animes/ame-iro-cocoa-in-hawaii-todos-os-episodios",
      "texto_original": "Ame-iro Cocoa in Hawaii",
      "rating": 4.83,
      "classificacao_etaria": "A14",
      "imagem_original": "https://animefire.plus/img/animes/ame-iro-cocoa-in-hawaii.webp",
      "imagem_pasta": "https://animefire.plus/img/animes/ame-iro-cocoa-in-hawaii/",
      "secao": "legendados",
      "pagina": 135,
      "total_episodios": 1,
      "link_video": "https://animefire.plus/video/ame-iro-cocoa-in-hawaii"
    },
    {
      "id": 162,
      "nome": "Ame-iro Cocoa: Rainy Color e Youkoso!",
      "link": "https://animefire.plus/animes/ame-iro-cocoa-rainy-color-e-youkoso-todos-os-episodios",
      "texto_original": "Ame-iro Cocoa: Rainy Color e Youkoso!",
      "rating": 4.84,
      "classificacao_etaria": "A14",
      "imagem_original": "https://animefire.plus/img/animes/ame-iro-cocoa-rainy-color-e-youkoso.webp",
      "imagem_pasta": "https://animefire.plus/img/animes/ame-iro-cocoa-rainy-color-e-youkoso/",
      "secao": "legendados",
      "pagina": 147,
      "total_episodios": 12,
      "link_video": "https://animefire.plus/video/ame-iro-cocoa-rainy-color-e-youkoso"
    },
    {
      "id": 163,
      "nome": "Ameku Takao no Suiri Karte",
      "link": "https://animefire.plus/animes/ameku-takao-no-suiri-karte-todos-os-episodios",
      "texto_original": "Ameku Takao no Suiri Karte",
      "rating": 7.15,
      "classificacao_etaria": "A14",
      "imagem_original": "https://animefire.plus/img/animes/ameku-takao-no-suiri-karte.webp",
      "imagem_pasta": "https://animefire.plus/img/animes/ameku-takao-no-suiri-karte/",
      "secao": "legendados",
      "pagina": 7,
      "total_episodios": 12,
      "link_video": "https://animefire.plus/video/ameku-takao-no-suiri-karte"
    },
    {
      "id": 164,
      "nome": "Amnesia",
      "link": "https://animefire.plus/animes/amnesia-todos-os-episodios",
      "texto_original": "Amnesia",
      "rating": 6.29,
      "classificacao_etaria": "A14",
      "imagem_original": "https://animefire.plus/img/animes/amnesia.webp",
      "imagem_pasta": "https://animefire.plus/img/animes/amnesia/",
      "secao": "legendados",
      "pagina": 153,
      "total_episodios": 12,
      "link_video": "https://animefire.plus/video/amnesia"
    },
    {
      "id": 165,
      "nome": "Amon Saga",
      "link": "https://animefire.plus/animes/amon-saga-todos-os-episodios",
      "texto_original": "Amon Saga",
      "rating": 5.47,
      "classificacao_etaria": "A16",
      "imagem_original": "https://animefire.plus/img/animes/amon-saga.webp",
      "imagem_pasta": "https://animefire.plus/img/animes/amon-saga/",
      "secao": "legendados",
      "pagina": 42,
      "total_episodios": 1,
      "link_video": "https://animefire.plus/video/amon-saga"
    },
    {
      "id": 166,
      "nome": "Ane Log: Moyako Neesan no Honpen wo Tobidashite Tomaranai Monologue Specials",
      "link": "https://animefire.plus/animes/ane-log-moyako-neesan-no-honpen-wo-tobidashite-tomaranai-monologue-specials-todos-os-episodios",
      "texto_original": "Ane Log: Moyako Neesan no Honpen wo Tobidashite Tomaranai Monologue Specials",
      "rating": 5.35,
      "classificacao_etaria": "A14",
      "imagem_original": "https://animefire.plus/img/animes/ane-log-moyako-neesan-no-honpen-wo-tobidashite-tomaranai-monologue-specials.webp",
      "imagem_pasta": "https://animefire.plus/img/animes/ane-log-moyako-neesan-no-honpen-wo-tobidashite-tomaranai-monologue-specials/",
      "secao": "legendados",
      "pagina": 82,
      "total_episodios": 3,
      "link_video": "https://animefire.plus/video/ane-log-moyako-neesan-no-honpen-wo-tobidashite-tomaranai-monologue-specials"
    },
    {
      "id": 167,
      "nome": "Ane Log: Moyako Neesan no Tomaranai Monologue",
      "link": "https://animefire.plus/animes/ane-log-moyako-neesan-no-tomaranai-monologue-todos-os-episodios",
      "texto_original": "Ane Log: Moyako Neesan no Tomaranai Monologue",
      "rating": 6.22,
      "classificacao_etaria": "A14",
      "imagem_original": "https://animefire.plus/img/animes/ane-log-moyako-neesan-no-tomaranai-monologue.webp",
      "imagem_pasta": "https://animefire.plus/img/animes/ane-log-moyako-neesan-no-tomaranai-monologue/",
      "secao": "legendados",
      "pagina": 90,
      "total_episodios": 0,
      "link_video": "https://animefire.plus/video/ane-log-moyako-neesan-no-tomaranai-monologue"
    },
    {
      "id": 168,
      "nome": "Ange Vierge",
      "link": "https://animefire.plus/animes/ange-vierge-todos-os-episodios",
      "texto_original": "Ange Vierge",
      "rating": 6.09,
      "classificacao_etaria": "A18",
      "imagem_original": "https://animefire.plus/img/animes/ange-vierge.webp",
      "imagem_pasta": "https://animefire.plus/img/animes/ange-vierge/",
      "secao": "legendados",
      "pagina": 90,
      "total_episodios": 12,
      "link_video": "https://animefire.plus/video/ange-vierge"
    },
    {
      "id": 169,
      "nome": "Angel Beats! (Dublado)",
      "link": "https://animefire.plus/animes/angel-beats-dublado-todos-os-episodios",
      "texto_original": "Angel Beats! (Dublado)",
      "rating": 8.2,
      "classificacao_etaria": "A14",
      "imagem_original": "https://animefire.plus/img/animes/angel-beats.webp",
      "imagem_pasta": "https://animefire.plus/img/animes/angel-beats/",
      "secao": "dublados,legendados",
      "pagina": 21,
      "total_episodios": 0,
      "link_video": "https://animefire.plus/video/angel-beats-dublado"
    },
    {
      "id": 170,
      "nome": "Angel Cop",
      "link": "https://animefire.plus/animes/angel-cop-todos-os-episodios",
      "texto_original": "Angel Cop",
      "rating": 5.94,
      "classificacao_etaria": "A18",
      "imagem_original": "https://animefire.plus/img/animes/angel-cop.webp",
      "imagem_pasta": "https://animefire.plus/img/animes/angel-cop/",
      "secao": "legendados",
      "pagina": 53,
      "total_episodios": 6,
      "link_video": "https://animefire.plus/video/angel-cop"
    },
    {
      "id": 171,
      "nome": "Angolmois: Genkou Kassenki",
      "link": "https://animefire.plus/animes/angolmois-genkou-kassenki-todos-os-episodios",
      "texto_original": "Angolmois: Genkou Kassenki",
      "rating": 7.21,
      "classificacao_etaria": "A16",
      "imagem_original": "https://animefire.plus/img/animes/angolmois-genkou-kassenki.webp",
      "imagem_pasta": "https://animefire.plus/img/animes/angolmois-genkou-kassenki/",
      "secao": "legendados",
      "pagina": 117,
      "total_episodios": 12,
      "link_video": "https://animefire.plus/video/angolmois-genkou-kassenki"
    },
    {
      "id": 172,
      "nome": "Ani ni Tsukeru Kusuri wa Nai!",
      "link": "https://animefire.plus/animes/ani-ni-tsukeru-kusuri-wa-nai-todos-os-episodios",
      "texto_original": "Ani ni Tsukeru Kusuri wa Nai!",
      "rating": 7.46,
      "classificacao_etaria": "A14",
      "imagem_original": "https://animefire.plus/img/animes/ani-ni-tsukeru-kusuri-wa-nai.webp",
      "imagem_pasta": "https://animefire.plus/img/animes/ani-ni-tsukeru-kusuri-wa-nai/",
      "secao": "legendados",
      "pagina": 114,
      "total_episodios": 12,
      "link_video": "https://animefire.plus/video/ani-ni-tsukeru-kusuri-wa-nai"
    },
    {
      "id": 173,
      "nome": "Ani ni Tsukeru Kusuri wa Nai! 2",
      "link": "https://animefire.plus/animes/ani-ni-tsukeru-kusuri-wa-nai-2-todos-os-episodios",
      "texto_original": "Ani ni Tsukeru Kusuri wa Nai! 2",
      "rating": 7.71,
      "classificacao_etaria": "A14",
      "imagem_original": "https://animefire.plus/img/animes/ani-ni-tsukeru-kusuri-wa-nai-2.webp",
      "imagem_pasta": "https://animefire.plus/img/animes/ani-ni-tsukeru-kusuri-wa-nai-2/",
      "secao": "legendados",
      "pagina": 76,
      "total_episodios": 24,
      "link_video": "https://animefire.plus/video/ani-ni-tsukeru-kusuri-wa-nai-2"
    },
    {
      "id": 174,
      "nome": "Ani ni Tsukeru Kusuri wa Nai! 4",
      "link": "https://animefire.plus/animes/ani-ni-tsukeru-kusuri-wa-nai-4-todos-os-episodios",
      "texto_original": "Ani ni Tsukeru Kusuri wa Nai! 4",
      "rating": 6.77,
      "classificacao_etaria": "A14",
      "imagem_original": "https://animefire.plus/img/animes/ani-ni-tsukeru-kusuri-wa-nai-4.webp",
      "imagem_pasta": "https://animefire.plus/img/animes/ani-ni-tsukeru-kusuri-wa-nai-4/",
      "secao": "legendados",
      "pagina": 52,
      "total_episodios": 12,
      "link_video": "https://animefire.plus/video/ani-ni-tsukeru-kusuri-wa-nai-4"
    },
    {
      "id": 175,
      "nome": "Ani ni Tsukeru Kusuri wa Nai! 5",
      "link": "https://animefire.plus/animes/ani-ni-tsukeru-kusuri-wa-nai-5-todos-os-episodios",
      "texto_original": "Ani ni Tsukeru Kusuri wa Nai! 5",
      "rating": 7.34,
      "classificacao_etaria": "A14",
      "imagem_original": "https://animefire.plus/img/animes/ani-ni-tsukeru-kusuri-wa-nai-5.webp",
      "imagem_pasta": "https://animefire.plus/img/animes/ani-ni-tsukeru-kusuri-wa-nai-5/",
      "secao": "legendados,lancamentos",
      "pagina": 30,
      "total_episodios": 2,
      "link_video": "https://animefire.plus/video/ani-ni-tsukeru-kusuri-wa-nai-5"
    },
    {
      "id": 176,
      "nome": "Anima Yell!",
      "link": "https://animefire.plus/animes/anima-yell-todos-os-episodios",
      "texto_original": "Anima Yell!",
      "rating": 7.08,
      "classificacao_etaria": "A14",
      "imagem_original": "https://animefire.plus/img/animes/anima-yell.webp",
      "imagem_pasta": "https://animefire.plus/img/animes/anima-yell/",
      "secao": "legendados",
      "pagina": 161,
      "total_episodios": 12,
      "link_video": "https://animefire.plus/video/anima-yell"
    },
    {
      "id": 177,
      "nome": "Anime de Wakaru Shinryounaika",
      "link": "https://animefire.plus/animes/anime-de-wakaru-shinryounaika-todos-os-episodios",
      "texto_original": "Anime de Wakaru Shinryounaika",
      "rating": 6.63,
      "classificacao_etaria": "A14",
      "imagem_original": "https://animefire.plus/img/animes/anime-de-wakaru-shinryounaika.webp",
      "imagem_pasta": "https://animefire.plus/img/animes/anime-de-wakaru-shinryounaika/",
      "secao": "legendados",
      "pagina": 68,
      "total_episodios": 20,
      "link_video": "https://animefire.plus/video/anime-de-wakaru-shinryounaika"
    },
    {
      "id": 178,
      "nome": "Anime Tenchou",
      "link": "https://animefire.plus/animes/anime-tenchou-todos-os-episodios",
      "texto_original": "Anime Tenchou",
      "rating": 6.08,
      "classificacao_etaria": null,
      "imagem_original": "https://animefire.plus/img/animes/anime-tenchou.webp",
      "imagem_pasta": "https://animefire.plus/img/animes/anime-tenchou/",
      "secao": "legendados",
      "pagina": 85,
      "total_episodios": 1,
      "link_video": "https://animefire.plus/video/anime-tenchou"
    },
    {
      "id": 179,
      "nome": "Animegataris",
      "link": "https://animefire.plus/animes/animegataris-todos-os-episodios",
      "texto_original": "Animegataris",
      "rating": 6.55,
      "classificacao_etaria": "A14",
      "imagem_original": "https://animefire.plus/img/animes/animegataris.webp",
      "imagem_pasta": "https://animefire.plus/img/animes/animegataris/",
      "secao": "legendados",
      "pagina": 103,
      "total_episodios": 12,
      "link_video": "https://animefire.plus/video/animegataris"
    },
    {
      "id": 180,
      "nome": "Anitore! EX",
      "link": "https://animefire.plus/animes/anitore-ex-todos-os-episodios",
      "texto_original": "Anitore! EX",
      "rating": 5.5,
      "classificacao_etaria": "A14",
      "imagem_original": "https://animefire.plus/img/animes/anitore-ex.webp",
      "imagem_pasta": "https://animefire.plus/img/animes/anitore-ex/",
      "secao": "legendados",
      "pagina": 98,
      "total_episodios": 12,
      "link_video": "https://animefire.plus/video/anitore-ex"
    }
  ],
  "pagination": {
    "current_page": 9,
    "per_page": 20,
    "total_items": 4368,
    "total_pages": 219,
    "has_next": true,
    "has_prev": true
  }
}
