{
  "message": "Lista de animes",
  "data": [
    {
      "id": 4261,
      "nome": "Youkoso Jitsuryoku Shijou Shugi no Kyoushitsu e (TV) 2nd Season (Dublado)",
      "link": "https://animefire.plus/animes/youkoso-jitsuryoku-shijou-shugi-no-kyoushitsu-e-tv-2nd-season-dublado-todos-os-episodios",
      "texto_original": "Youkoso Jitsuryoku Shijou Shugi no Kyoushitsu e (TV) 2nd Season (Dublado)",
      "rating": 8.07,
      "classificacao_etaria": "A14",
      "imagem_original": "https://animefire.plus/img/animes/youkoso-jitsuryoku-shijou-shugi-no-kyoushitsu-e-tv-2nd-season.webp",
      "imagem_pasta": "https://animefire.plus/img/animes/youkoso-jitsuryoku-shijou-shugi-no-kyoushitsu-e-tv-2nd-season/",
      "secao": "dublados,legendados,lancamentos",
      "pagina": 10,
      "total_episodios": 13,
      "link_video": "https://animefire.plus/video/youkoso-jitsuryoku-shijou-shugi-no-kyoushitsu-e-tv-2nd-season-dublado"
    },
    {
      "id": 4262,
      "nome": "Youkoso Jitsuryoku Shijou Shugi no Kyoushitsu e 2nd Season (Dublado)",
      "link": "https://animefire.plus/animes/youkoso-jitsuryoku-shijou-shugi-no-kyoushitsu-e-2nd-season-dublado-todos-os-episodios",
      "texto_original": "Youkoso Jitsuryoku Shijou Shugi no Kyoushitsu e 2nd Season (Dublado)",
      "rating": 8.07,
      "classificacao_etaria": "A14",
      "imagem_original": "https://animefire.plus/img/animes/youkoso-jitsuryoku-shijou-shugi-no-kyoushitsu-e-2nd-season.webp",
      "imagem_pasta": "https://animefire.plus/img/animes/youkoso-jitsuryoku-shijou-shugi-no-kyoushitsu-e-2nd-season/",
      "secao": "dublados",
      "pagina": 8,
      "total_episodios": 13,
      "link_video": "https://animefire.plus/video/youkoso-jitsuryoku-shijou-shugi-no-kyoushitsu-e-2nd-season-dublado"
    },
    {
      "id": 4263,
      "nome": "Youkoso Jitsuryoku Shijou Shugi no Kyoushitsu e 3rd Season",
      "link": "https://animefire.plus/animes/youkoso-jitsuryoku-shijou-shugi-no-kyoushitsu-e-3rd-season-todos-os-episodios",
      "texto_original": "Youkoso Jitsuryoku Shijou Shugi no Kyoushitsu e 3rd Season",
      "rating": 7.95,
      "classificacao_etaria": null,
      "imagem_original": "https://animefire.plus/img/animes/youkoso-jitsuryoku-shijou-shugi-no-kyoushitsu-e-3rd-season.webp",
      "imagem_pasta": "https://animefire.plus/img/animes/youkoso-jitsuryoku-shijou-shugi-no-kyoushitsu-e-3rd-season/",
      "secao": "legendados",
      "pagina": 18,
      "total_episodios": 4,
      "link_video": "https://animefire.plus/video/youkoso-jitsuryoku-shijou-shugi-no-kyoushitsu-e-3rd-season"
    },
    {
      "id": 4264,
      "nome": "Youkoso Jitsuryoku Shijou Shugi no Kyoushitsu e 3rd Season (Dublado)",
      "link": "https://animefire.plus/animes/youkoso-jitsuryoku-shijou-shugi-no-kyoushitsu-e-3-dublado-todos-os-episodios",
      "texto_original": "Youkoso Jitsuryoku Shijou Shugi no Kyoushitsu e 3rd Season (Dublado)",
      "rating": 7.95,
      "classificacao_etaria": "A14",
      "imagem_original": "https://animefire.plus/img/animes/youkoso-jitsuryoku-shijou-shugi-no-kyoushitsu-e-3.webp",
      "imagem_pasta": "https://animefire.plus/img/animes/youkoso-jitsuryoku-shijou-shugi-no-kyoushitsu-e-3/",
      "secao": "dublados,lancamentos",
      "pagina": 3,
      "total_episodios": 10,
      "link_video": "https://animefire.plus/video/youkoso-jitsuryoku-shijou-shugi-no-kyoushitsu-e-3-dublado"
    },
    {
      "id": 4265,
      "nome": "Young Black Jack",
      "link": "https://animefire.plus/animes/young-black-jack-todos-os-episodios",
      "texto_original": "Young Black Jack",
      "rating": 7.29,
      "classificacao_etaria": "A14",
      "imagem_original": "https://animefire.plus/img/animes/young-black-jack.webp",
      "imagem_pasta": "https://animefire.plus/img/animes/young-black-jack/",
      "secao": "legendados",
      "pagina": 114,
      "total_episodios": 12,
      "link_video": "https://animefire.plus/video/young-black-jack"
    },
    {
      "id": 4266,
      "nome": "Your Forma",
      "link": "https://animefire.plus/animes/your-forma-todos-os-episodios",
      "texto_original": "Your Forma",
      "rating": 6.25,
      "classificacao_etaria": "A14",
      "imagem_original": "https://animefire.plus/img/animes/your-forma.webp",
      "imagem_pasta": "https://animefire.plus/img/animes/your-forma/",
      "secao": "legendados",
      "pagina": 5,
      "total_episodios": 13,
      "link_video": "https://animefire.plus/video/your-forma"
    },
    {
      "id": 4267,
      "nome": "Yowai 5000-nen no Soushoku Dragon, Iwarenaki Jaryuu Nintei",
      "link": "https://animefire.plus/animes/yowai-5000-nen-no-soushoku-dragon-iwarenaki-jaryuu-nintei-todos-os-episodios",
      "texto_original": "Yowai 5000-nen no Soushoku Dragon, Iwarenaki Jaryuu Nintei",
      "rating": 6.74,
      "classificacao_etaria": "A14",
      "imagem_original": "https://animefire.plus/img/animes/yowai-5000-nen-no-soushoku-dragon-iwarenaki-jaryuu-nintei.webp",
      "imagem_pasta": "https://animefire.plus/img/animes/yowai-5000-nen-no-soushoku-dragon-iwarenaki-jaryuu-nintei/",
      "secao": "legendados",
      "pagina": 30,
      "total_episodios": 12,
      "link_video": "https://animefire.plus/video/yowai-5000-nen-no-soushoku-dragon-iwarenaki-jaryuu-nintei"
    },
    {
      "id": 4268,
      "nome": "Yowamushi Pedal",
      "link": "https://animefire.plus/animes/yowamushi-pedal-todos-os-episodios",
      "texto_original": "Yowamushi Pedal",
      "rating": 8.04,
      "classificacao_etaria": "A14",
      "imagem_original": "https://animefire.plus/img/animes/yowamushi-pedal.webp",
      "imagem_pasta": "https://animefire.plus/img/animes/yowamushi-pedal/",
      "secao": "legendados",
      "pagina": 63,
      "total_episodios": 38,
      "link_video": "https://animefire.plus/video/yowamushi-pedal"
    },
    {
      "id": 4269,
      "nome": "Yowamushi Pedal: Grande Road",
      "link": "https://animefire.plus/animes/yowamushi-pedal-grande-road-todos-os-episodios",
      "texto_original": "Yowamushi Pedal: Grande Road",
      "rating": 8.16,
      "classificacao_etaria": "A14",
      "imagem_original": "https://animefire.plus/img/animes/yowamushi-pedal-grande-road.webp",
      "imagem_pasta": "https://animefire.plus/img/animes/yowamushi-pedal-grande-road/",
      "secao": "legendados",
      "pagina": 76,
      "total_episodios": 24,
      "link_video": "https://animefire.plus/video/yowamushi-pedal-grande-road"
    },
    {
      "id": 4270,
      "nome": "Yowamushi Pedal: Limit Break",
      "link": "https://animefire.plus/animes/yowamushi-pedal-limit-break-todos-os-episodios",
      "texto_original": "Yowamushi Pedal: Limit Break",
      "rating": 7.39,
      "classificacao_etaria": "A14",
      "imagem_original": "https://animefire.plus/img/animes/yowamushi-pedal-limit-break.webp",
      "imagem_pasta": "https://animefire.plus/img/animes/yowamushi-pedal-limit-break/",
      "secao": "legendados,lancamentos",
      "pagina": 29,
      "total_episodios": 1,
      "link_video": "https://animefire.plus/video/yowamushi-pedal-limit-break"
    },
    {
      "id": 4271,
      "nome": "Yowamushi Pedal: New Generation",
      "link": "https://animefire.plus/animes/yowamushi-pedal-new-generation-todos-os-episodios",
      "texto_original": "Yowamushi Pedal: New Generation",
      "rating": 7.75,
      "classificacao_etaria": "A14",
      "imagem_original": "https://animefire.plus/img/animes/yowamushi-pedal-new-generation.webp",
      "imagem_pasta": "https://animefire.plus/img/animes/yowamushi-pedal-new-generation/",
      "secao": "legendados",
      "pagina": 64,
      "total_episodios": 25,
      "link_video": "https://animefire.plus/video/yowamushi-pedal-new-generation"
    },
    {
      "id": 4272,
      "nome": "Yozakura Quartet",
      "link": "https://animefire.plus/animes/yozakura-quartet-todos-os-episodios",
      "texto_original": "Yozakura Quartet",
      "rating": 6.89,
      "classificacao_etaria": "A14",
      "imagem_original": "https://animefire.plus/img/animes/yozakura-quartet.webp",
      "imagem_pasta": "https://animefire.plus/img/animes/yozakura-quartet/",
      "secao": "legendados",
      "pagina": 136,
      "total_episodios": 12,
      "link_video": "https://animefire.plus/video/yozakura-quartet"
    },
    {
      "id": 4273,
      "nome": "Yozakura Quartet: Hana no Uta",
      "link": "https://animefire.plus/animes/yozakura-quartet-hana-no-uta-todos-os-episodios",
      "texto_original": "Yozakura Quartet: Hana no Uta",
      "rating": 7.55,
      "classificacao_etaria": "A14",
      "imagem_original": "https://animefire.plus/img/animes/yozakura-quartet-hana-no-uta.webp",
      "imagem_pasta": "https://animefire.plus/img/animes/yozakura-quartet-hana-no-uta/",
      "secao": "legendados",
      "pagina": 169,
      "total_episodios": 4,
      "link_video": "https://animefire.plus/video/yozakura-quartet-hana-no-uta"
    },
    {
      "id": 4274,
      "nome": "Yozakura-san Chi no Daisakusen",
      "link": "https://animefire.plus/animes/yozakura-san-chi-no-daisakusen-todos-os-episodios",
      "texto_original": "Yozakura-san Chi no Daisakusen",
      "rating": 7.56,
      "classificacao_etaria": "A14",
      "imagem_original": "https://animefire.plus/img/animes/yozakura-san-chi-no-daisakusen.webp",
      "imagem_pasta": "https://animefire.plus/img/animes/yozakura-san-chi-no-daisakusen/",
      "secao": "legendados,lancamentos",
      "pagina": 15,
      "total_episodios": 18,
      "link_video": "https://animefire.plus/video/yozakura-san-chi-no-daisakusen"
    },
    {
      "id": 4275,
      "nome": "Yu-Gi-Oh! Card Game: The Chronicles",
      "link": "https://animefire.plus/animes/yu-gi-oh-card-game-the-chronicles-todos-os-episodios",
      "texto_original": "Yu-Gi-Oh! Card Game: The Chronicles",
      "rating": null,
      "classificacao_etaria": "A14",
      "imagem_original": "https://animefire.plus/img/animes/yu-gi-oh-card-game-the-chronicles.webp",
      "imagem_pasta": "https://animefire.plus/img/animes/yu-gi-oh-card-game-the-chronicles/",
      "secao": "legendados,lancamentos",
      "pagina": 3,
      "total_episodios": 0,
      "link_video": "https://animefire.plus/video/yu-gi-oh-card-game-the-chronicles"
    },
    {
      "id": 4276,
      "nome": "Yu☆Gi☆Oh!",
      "link": "https://animefire.plus/animes/yu-gi-oh-todos-os-episodios",
      "texto_original": "Yu☆Gi☆Oh!",
      "rating": 7.29,
      "classificacao_etaria": "A14",
      "imagem_original": "https://animefire.plus/img/animes/yu-gi-oh.webp",
      "imagem_pasta": "https://animefire.plus/img/animes/yu-gi-oh/",
      "secao": "legendados",
      "pagina": 131,
      "total_episodios": 16,
      "link_video": "https://animefire.plus/video/yu-gi-oh"
    },
    {
      "id": 4277,
      "nome": "Yu☆Gi☆Oh! 5D's",
      "link": "https://animefire.plus/animes/yu-gi-oh-5d-s-todos-os-episodios",
      "texto_original": "Yu☆Gi☆Oh! 5D's",
      "rating": 7.51,
      "classificacao_etaria": "A14",
      "imagem_original": "https://animefire.plus/img/animes/yu-gi-oh-5d-s.webp",
      "imagem_pasta": "https://animefire.plus/img/animes/yu-gi-oh-5d-s/",
      "secao": "legendados",
      "pagina": 125,
      "total_episodios": 153,
      "link_video": "https://animefire.plus/video/yu-gi-oh-5d-s"
    },
    {
      "id": 4278,
      "nome": "Yu☆Gi☆Oh! Duel Monsters",
      "link": "https://animefire.plus/animes/yu-gi-oh-duel-monsters-todos-os-episodios",
      "texto_original": "Yu☆Gi☆Oh! Duel Monsters",
      "rating": 7.56,
      "classificacao_etaria": "A14",
      "imagem_original": "https://animefire.plus/img/animes/yu-gi-oh-duel-monsters.webp",
      "imagem_pasta": "https://animefire.plus/img/animes/yu-gi-oh-duel-monsters/",
      "secao": "legendados",
      "pagina": 137,
      "total_episodios": 40,
      "link_video": "https://animefire.plus/video/yu-gi-oh-duel-monsters"
    },
    {
      "id": 4279,
      "nome": "Yu☆Gi☆Oh! VRAINS (Dublado)",
      "link": "https://animefire.plus/animes/yu-gi-oh-vrains-dublado-todos-os-episodios",
      "texto_original": "Yu☆Gi☆Oh! VRAINS (Dublado)",
      "rating": 6.64,
      "classificacao_etaria": "A14",
      "imagem_original": "https://animefire.plus/img/animes/yu-gi-oh-vrains.webp",
      "imagem_pasta": "https://animefire.plus/img/animes/yu-gi-oh-vrains/",
      "secao": "dublados",
      "pagina": 18,
      "total_episodios": 2,
      "link_video": "https://animefire.plus/video/yu-gi-oh-vrains-dublado"
    },
    {
      "id": 4280,
      "nome": "Yu☆Gi☆Oh! Zexal",
      "link": "https://animefire.plus/animes/yu-gi-oh-zexal-todos-os-episodios",
      "texto_original": "Yu☆Gi☆Oh! Zexal",
      "rating": 6.47,
      "classificacao_etaria": "A14",
      "imagem_original": "https://animefire.plus/img/animes/yu-gi-oh-zexal.webp",
      "imagem_pasta": "https://animefire.plus/img/animes/yu-gi-oh-zexal/",
      "secao": "legendados",
      "pagina": 125,
      "total_episodios": 41,
      "link_video": "https://animefire.plus/video/yu-gi-oh-zexal"
    }
  ],
  "pagination": {
    "current_page": 214,
    "per_page": 20,
    "total_items": 4368,
    "total_pages": 219,
    "has_next": true,
    "has_prev": true
  }
}
