{
  "message": "Lista de animes",
  "data": [
    {
      "id": 3881,
      "nome": "Tokyo Ghoul (Dublado)",
      "link": "https://animefire.plus/animes/tokyo-ghoul-dublado-todos-os-episodios",
      "texto_original": "Tokyo Ghoul (Dublado)",
      "rating": 7.82,
      "classificacao_etaria": "A16",
      "imagem_original": "https://animefire.plus/img/animes/tokyo-ghoul.webp",
      "imagem_pasta": "https://animefire.plus/img/animes/tokyo-ghoul/",
      "secao": "dublados,legendados",
      "pagina": 19,
      "total_episodios": 12,
      "link_video": "https://animefire.plus/video/tokyo-ghoul-dublado"
    },
    {
      "id": 3882,
      "nome": "Tokyo Ghoul √A (Dublado)",
      "link": "https://animefire.plus/animes/tokyo-ghoul-a-dublado-todos-os-episodios",
      "texto_original": "Tokyo Ghoul √A (Dublado)",
      "rating": 7.1,
      "classificacao_etaria": "A16",
      "imagem_original": "https://animefire.plus/img/animes/tokyo-ghoul-a.webp",
      "imagem_pasta": "https://animefire.plus/img/animes/tokyo-ghoul-a/",
      "secao": "dublados,legendados",
      "pagina": 19,
      "total_episodios": 12,
      "link_video": "https://animefire.plus/video/tokyo-ghoul-a-dublado"
    },
    {
      "id": 3883,
      "nome": "Tokyo Ghoul: \"Jack\" (Dublado)",
      "link": "https://animefire.plus/animes/tokyo-ghoul-jack-dublado-todos-os-episodios",
      "texto_original": "Tokyo Ghoul: \"Jack\" (Dublado)",
      "rating": 7.35,
      "classificacao_etaria": "A16",
      "imagem_original": "https://animefire.plus/img/animes/tokyo-ghoul-jack.webp",
      "imagem_pasta": "https://animefire.plus/img/animes/tokyo-ghoul-jack/",
      "secao": "dublados",
      "pagina": 17,
      "total_episodios": 1,
      "link_video": "https://animefire.plus/video/tokyo-ghoul-jack-dublado"
    },
    {
      "id": 3884,
      "nome": "Tokyo Ghoul: \"Pinto\" (Dublado)",
      "link": "https://animefire.plus/animes/tokyo-ghoul-pinto-dublado-todos-os-episodios",
      "texto_original": "Tokyo Ghoul: \"Pinto\" (Dublado)",
      "rating": 7.24,
      "classificacao_etaria": "A16",
      "imagem_original": "https://animefire.plus/img/animes/tokyo-ghoul-pinto.webp",
      "imagem_pasta": "https://animefire.plus/img/animes/tokyo-ghoul-pinto/",
      "secao": "dublados",
      "pagina": 17,
      "total_episodios": 1,
      "link_video": "https://animefire.plus/video/tokyo-ghoul-pinto-dublado"
    },
    {
      "id": 3885,
      "nome": "Tokyo Ghoul:re (Dublado)",
      "link": "https://animefire.plus/animes/tokyo-ghoul-re-dublado-todos-os-episodios",
      "texto_original": "Tokyo Ghoul:re (Dublado)",
      "rating": 6.59,
      "classificacao_etaria": "A16",
      "imagem_original": "https://animefire.plus/img/animes/tokyo-ghoul-re.webp",
      "imagem_pasta": "https://animefire.plus/img/animes/tokyo-ghoul-re/",
      "secao": "dublados,legendados",
      "pagina": 19,
      "total_episodios": 12,
      "link_video": "https://animefire.plus/video/tokyo-ghoul-re-dublado"
    },
    {
      "id": 3886,
      "nome": "Tokyo Ghoul:re 2nd Season (Dublado)",
      "link": "https://animefire.plus/animes/tokyo-ghoul-re-2nd-season-dublado-todos-os-episodios",
      "texto_original": "Tokyo Ghoul:re 2nd Season (Dublado)",
      "rating": 6.33,
      "classificacao_etaria": "A16",
      "imagem_original": "https://animefire.plus/img/animes/tokyo-ghoul-re-2nd-season.webp",
      "imagem_pasta": "https://animefire.plus/img/animes/tokyo-ghoul-re-2nd-season/",
      "secao": "dublados,legendados",
      "pagina": 19,
      "total_episodios": 12,
      "link_video": "https://animefire.plus/video/tokyo-ghoul-re-2nd-season-dublado"
    },
    {
      "id": 3887,
      "nome": "Tokyo Magnitude 8.0",
      "link": "https://animefire.plus/animes/tokyo-magnitude-8-0-todos-os-episodios",
      "texto_original": "Tokyo Magnitude 8.0",
      "rating": 8.13,
      "classificacao_etaria": "A14",
      "imagem_original": "https://animefire.plus/img/animes/tokyo-magnitude-8-0.webp",
      "imagem_pasta": "https://animefire.plus/img/animes/tokyo-magnitude-8-0/",
      "secao": "legendados",
      "pagina": 172,
      "total_episodios": 11,
      "link_video": "https://animefire.plus/video/tokyo-magnitude-8-0"
    },
    {
      "id": 3888,
      "nome": "Tokyo Majin Gakuen Kenpucho: Tou",
      "link": "https://animefire.plus/animes/tokyo-majin-gakuen-kenpucho-tou-todos-os-episodios",
      "texto_original": "Tokyo Majin Gakuen Kenpucho: Tou",
      "rating": 7.23,
      "classificacao_etaria": "A16",
      "imagem_original": "https://animefire.plus/img/animes/tokyo-majin-gakuen-kenpucho-tou.webp",
      "imagem_pasta": "https://animefire.plus/img/animes/tokyo-majin-gakuen-kenpucho-tou/",
      "secao": "legendados",
      "pagina": 122,
      "total_episodios": 14,
      "link_video": "https://animefire.plus/video/tokyo-majin-gakuen-kenpucho-tou"
    },
    {
      "id": 3889,
      "nome": "Tokyo Majin Gakuen Kenpucho: Tou Dai Ni Maku",
      "link": "https://animefire.plus/animes/tokyo-majin-gakuen-kenpucho-tou-dai-ni-maku-todos-os-episodios",
      "texto_original": "Tokyo Majin Gakuen Kenpucho: Tou Dai Ni Maku",
      "rating": 7.34,
      "classificacao_etaria": "A16",
      "imagem_original": "https://animefire.plus/img/animes/tokyo-majin-gakuen-kenpucho-tou-dai-ni-maku.webp",
      "imagem_pasta": "https://animefire.plus/img/animes/tokyo-majin-gakuen-kenpucho-tou-dai-ni-maku/",
      "secao": "legendados",
      "pagina": 97,
      "total_episodios": 12,
      "link_video": "https://animefire.plus/video/tokyo-majin-gakuen-kenpucho-tou-dai-ni-maku"
    },
    {
      "id": 3890,
      "nome": "Tokyo Marble Chocolate",
      "link": "https://animefire.plus/animes/tokyo-marble-chocolate-todos-os-episodios",
      "texto_original": "Tokyo Marble Chocolate",
      "rating": 7.24,
      "classificacao_etaria": "A14",
      "imagem_original": "https://animefire.plus/img/animes/tokyo-marble-chocolate.webp",
      "imagem_pasta": "https://animefire.plus/img/animes/tokyo-marble-chocolate/",
      "secao": "legendados",
      "pagina": 63,
      "total_episodios": 2,
      "link_video": "https://animefire.plus/video/tokyo-marble-chocolate"
    },
    {
      "id": 3891,
      "nome": "Tokyo Mew Mew",
      "link": "https://animefire.plus/animes/tokyo-mew-mew-todos-os-episodios",
      "texto_original": "Tokyo Mew Mew",
      "rating": 6.99,
      "classificacao_etaria": "A14",
      "imagem_original": "https://animefire.plus/img/animes/tokyo-mew-mew.webp",
      "imagem_pasta": "https://animefire.plus/img/animes/tokyo-mew-mew/",
      "secao": "legendados",
      "pagina": 54,
      "total_episodios": 52,
      "link_video": "https://animefire.plus/video/tokyo-mew-mew"
    },
    {
      "id": 3892,
      "nome": "Tokyo Mew Mew New ♡",
      "link": "https://animefire.plus/animes/tokyo-mew-mew-new-todos-os-episodios",
      "texto_original": "Tokyo Mew Mew New ♡",
      "rating": 6.61,
      "classificacao_etaria": "A14",
      "imagem_original": "https://animefire.plus/img/animes/tokyo-mew-mew-new.webp",
      "imagem_pasta": "https://animefire.plus/img/animes/tokyo-mew-mew-new/",
      "secao": "legendados",
      "pagina": 31,
      "total_episodios": 12,
      "link_video": "https://animefire.plus/video/tokyo-mew-mew-new"
    },
    {
      "id": 3893,
      "nome": "Tokyo Ravens",
      "link": "https://animefire.plus/animes/tokyo-ravens-todos-os-episodios",
      "texto_original": "Tokyo Ravens",
      "rating": 7.68,
      "classificacao_etaria": "A14",
      "imagem_original": "https://animefire.plus/img/animes/tokyo-ravens.webp",
      "imagem_pasta": "https://animefire.plus/img/animes/tokyo-ravens/",
      "secao": "legendados",
      "pagina": 127,
      "total_episodios": 5,
      "link_video": "https://animefire.plus/video/tokyo-ravens"
    },
    {
      "id": 3894,
      "nome": "Tokyo Revengers (Dublado)",
      "link": "https://animefire.plus/animes/tokyo-revengers-dublado-todos-os-episodios",
      "texto_original": "Tokyo Revengers (Dublado)",
      "rating": 7.85,
      "classificacao_etaria": "A16",
      "imagem_original": "https://animefire.plus/img/animes/tokyo-revengers.webp",
      "imagem_pasta": "https://animefire.plus/img/animes/tokyo-revengers/",
      "secao": "dublados,legendados",
      "pagina": 17,
      "total_episodios": 24,
      "link_video": "https://animefire.plus/video/tokyo-revengers-dublado"
    },
    {
      "id": 3895,
      "nome": "Tokyo Revengers: Seiya Kessen-hen (Dublado)",
      "link": "https://animefire.plus/animes/tokyo-revengers-seiya-kessen-hen-dublado-todos-os-episodios",
      "texto_original": "Tokyo Revengers: Seiya Kessen-hen (Dublado)",
      "rating": 7.63,
      "classificacao_etaria": "A16",
      "imagem_original": "https://animefire.plus/img/animes/tokyo-revengers-seiya-kessen-hen.webp",
      "imagem_pasta": "https://animefire.plus/img/animes/tokyo-revengers-seiya-kessen-hen/",
      "secao": "dublados,legendados,lancamentos",
      "pagina": 7,
      "total_episodios": 12,
      "link_video": "https://animefire.plus/video/tokyo-revengers-seiya-kessen-hen-dublado"
    },
    {
      "id": 3896,
      "nome": "Tokyo Revengers: Tenjiku-hen",
      "link": "https://animefire.plus/animes/tokyo-revengers-tenjiku-hen-todos-os-episodios",
      "texto_original": "Tokyo Revengers: Tenjiku-hen",
      "rating": 7.82,
      "classificacao_etaria": "A16",
      "imagem_original": "https://animefire.plus/img/animes/tokyo-revengers-tenjiku-hen.webp",
      "imagem_pasta": "https://animefire.plus/img/animes/tokyo-revengers-tenjiku-hen/",
      "secao": "legendados",
      "pagina": 21,
      "total_episodios": 13,
      "link_video": "https://animefire.plus/video/tokyo-revengers-tenjiku-hen"
    },
    {
      "id": 3897,
      "nome": "Tokyo Tribe 2",
      "link": "https://animefire.plus/animes/tokyo-tribe-2-todos-os-episodios",
      "texto_original": "Tokyo Tribe 2",
      "rating": 6.83,
      "classificacao_etaria": "A18",
      "imagem_original": "https://animefire.plus/img/animes/tokyo-tribe-2.webp",
      "imagem_pasta": "https://animefire.plus/img/animes/tokyo-tribe-2/",
      "secao": "legendados",
      "pagina": 100,
      "total_episodios": 0,
      "link_video": "https://animefire.plus/video/tokyo-tribe-2"
    },
    {
      "id": 3898,
      "nome": "Tokyo Underground",
      "link": "https://animefire.plus/animes/tokyo-underground-todos-os-episodios",
      "texto_original": "Tokyo Underground",
      "rating": 6.68,
      "classificacao_etaria": "A14",
      "imagem_original": "https://animefire.plus/img/animes/tokyo-underground.webp",
      "imagem_pasta": "https://animefire.plus/img/animes/tokyo-underground/",
      "secao": "legendados",
      "pagina": 146,
      "total_episodios": 26,
      "link_video": "https://animefire.plus/video/tokyo-underground"
    },
    {
      "id": 3899,
      "nome": "Tomo-chan wa Onnanoko!",
      "link": "https://animefire.plus/animes/tomo-chan-wa-onnanoko-todos-os-episodios",
      "texto_original": "Tomo-chan wa Onnanoko!",
      "rating": 7.73,
      "classificacao_etaria": "A14",
      "imagem_original": "https://animefire.plus/img/animes/tomo-chan-wa-onnanoko.webp",
      "imagem_pasta": "https://animefire.plus/img/animes/tomo-chan-wa-onnanoko/",
      "secao": "legendados",
      "pagina": 27,
      "total_episodios": 13,
      "link_video": "https://animefire.plus/video/tomo-chan-wa-onnanoko"
    },
    {
      "id": 3900,
      "nome": "Tomodachi Game",
      "link": "https://animefire.plus/animes/tomodachi-game-todos-os-episodios",
      "texto_original": "Tomodachi Game",
      "rating": 7.71,
      "classificacao_etaria": "A16",
      "imagem_original": "https://animefire.plus/img/animes/tomodachi-game.webp",
      "imagem_pasta": "https://animefire.plus/img/animes/tomodachi-game/",
      "secao": "legendados",
      "pagina": 34,
      "total_episodios": 12,
      "link_video": "https://animefire.plus/video/tomodachi-game"
    }
  ],
  "pagination": {
    "current_page": 195,
    "per_page": 20,
    "total_items": 4368,
    "total_pages": 219,
    "has_next": true,
    "has_prev": true
  }
}
