{
  "message": "Lista de animes",
  "data": [
    {
      "id": 1521,
      "nome": "Honzuki no Gekokujou: Shisho ni Naru Tame ni wa Shudan wo Erandeiraremasen 3rd Season",
      "link": "https://animefire.plus/animes/honzuki-no-gekokujou-shisho-ni-naru-tame-ni-wa-shudan-wo-erandeiraremasen-3rd-season-todos-os-episodios",
      "texto_original": "Honzuki no Gekokujou: Shisho ni Naru Tame ni wa Shudan wo Erandeiraremasen 3rd Season",
      "rating": 8.07,
      "classificacao_etaria": "A14",
      "imagem_original": "https://animefire.plus/img/animes/honzuki-no-gekokujou-shisho-ni-naru-tame-ni-wa-shudan-wo-erandeiraremasen-3rd-season.webp",
      "imagem_pasta": "https://animefire.plus/img/animes/honzuki-no-gekokujou-shisho-ni-naru-tame-ni-wa-shudan-wo-erandeiraremasen-3rd-season/",
      "secao": "legendados",
      "pagina": 34,
      "total_episodios": 10,
      "link_video": "https://animefire.plus/video/honzuki-no-gekokujou-shisho-ni-naru-tame-ni-wa-shudan-wo-erandeiraremasen-3rd-season"
    },
    {
      "id": 1522,
      "nome": "Hoozuki no Reitetsu",
      "link": "https://animefire.plus/animes/hoozuki-no-reitetsu-todos-os-episodios",
      "texto_original": "Hoozuki no Reitetsu",
      "rating": 7.81,
      "classificacao_etaria": "A14",
      "imagem_original": "https://animefire.plus/img/animes/hoozuki-no-reitetsu.webp",
      "imagem_pasta": "https://animefire.plus/img/animes/hoozuki-no-reitetsu/",
      "secao": "legendados",
      "pagina": 63,
      "total_episodios": 13,
      "link_video": "https://animefire.plus/video/hoozuki-no-reitetsu"
    },
    {
      "id": 1523,
      "nome": "Hoozuki no Reitetsu 2nd Season",
      "link": "https://animefire.plus/animes/hoozuki-no-reitetsu-2nd-season-todos-os-episodios",
      "texto_original": "Hoozuki no Reitetsu 2nd Season",
      "rating": 7.88,
      "classificacao_etaria": "A14",
      "imagem_original": "https://animefire.plus/img/animes/hoozuki-no-reitetsu-2nd-season.webp",
      "imagem_pasta": "https://animefire.plus/img/animes/hoozuki-no-reitetsu-2nd-season/",
      "secao": "legendados",
      "pagina": 63,
      "total_episodios": 26,
      "link_video": "https://animefire.plus/video/hoozuki-no-reitetsu-2nd-season"
    },
    {
      "id": 1524,
      "nome": "Hoozuki no Reitetsu 2nd Season: Sono Ni",
      "link": "https://animefire.plus/animes/hoozuki-no-reitetsu-2nd-season-sono-ni-todos-os-episodios",
      "texto_original": "Hoozuki no Reitetsu 2nd Season: Sono Ni",
      "rating": 7.85,
      "classificacao_etaria": "A14",
      "imagem_original": "https://animefire.plus/img/animes/hoozuki-no-reitetsu-2nd-season-sono-ni.webp",
      "imagem_pasta": "https://animefire.plus/img/animes/hoozuki-no-reitetsu-2nd-season-sono-ni/",
      "secao": "legendados",
      "pagina": 120,
      "total_episodios": 13,
      "link_video": "https://animefire.plus/video/hoozuki-no-reitetsu-2nd-season-sono-ni"
    },
    {
      "id": 1525,
      "nome": "Hori-san to Miyamura-kun",
      "link": "https://animefire.plus/animes/hori-san-to-miyamura-kun-todos-os-episodios",
      "texto_original": "Hori-san to Miyamura-kun",
      "rating": 7.36,
      "classificacao_etaria": "A14",
      "imagem_original": "https://animefire.plus/img/animes/hori-san-to-miyamura-kun.webp",
      "imagem_pasta": "https://animefire.plus/img/animes/hori-san-to-miyamura-kun/",
      "secao": "legendados",
      "pagina": 61,
      "total_episodios": 3,
      "link_video": "https://animefire.plus/video/hori-san-to-miyamura-kun"
    },
    {
      "id": 1526,
      "nome": "Horimiya (Dublado)",
      "link": "https://animefire.plus/animes/horimiya-dublado-todos-os-episodios",
      "texto_original": "Horimiya (Dublado)",
      "rating": 8.19,
      "classificacao_etaria": "A14",
      "imagem_original": "https://animefire.plus/img/animes/horimiya.webp",
      "imagem_pasta": "https://animefire.plus/img/animes/horimiya/",
      "secao": "dublados,legendados",
      "pagina": 15,
      "total_episodios": 13,
      "link_video": "https://animefire.plus/video/horimiya-dublado"
    },
    {
      "id": 1527,
      "nome": "Horimiya: Piece (Dublado)",
      "link": "https://animefire.plus/animes/horimiya-piece-dublado-todos-os-episodios",
      "texto_original": "Horimiya: Piece (Dublado)",
      "rating": 8.14,
      "classificacao_etaria": "A14",
      "imagem_original": "https://animefire.plus/img/animes/horimiya-piece.webp",
      "imagem_pasta": "https://animefire.plus/img/animes/horimiya-piece/",
      "secao": "dublados,legendados",
      "pagina": 6,
      "total_episodios": 13,
      "link_video": "https://animefire.plus/video/horimiya-piece-dublado"
    },
    {
      "id": 1528,
      "nome": "Hortensia Saga (TV)",
      "link": "https://animefire.plus/animes/hortensia-saga-tv-todos-os-episodios",
      "texto_original": "Hortensia Saga (TV)",
      "rating": 5.84,
      "classificacao_etaria": "A14",
      "imagem_original": "https://animefire.plus/img/animes/hortensia-saga-tv.webp",
      "imagem_pasta": "https://animefire.plus/img/animes/hortensia-saga-tv/",
      "secao": "legendados",
      "pagina": 49,
      "total_episodios": 12,
      "link_video": "https://animefire.plus/video/hortensia-saga-tv"
    },
    {
      "id": 1529,
      "nome": "Hoshi no Samidare (Dublado)",
      "link": "https://animefire.plus/animes/hoshi-no-samidare-dublado-todos-os-episodios",
      "texto_original": "Hoshi no Samidare (Dublado)",
      "rating": 5.63,
      "classificacao_etaria": "A14",
      "imagem_original": "https://animefire.plus/img/animes/hoshi-no-samidare.webp",
      "imagem_pasta": "https://animefire.plus/img/animes/hoshi-no-samidare/",
      "secao": "dublados,legendados",
      "pagina": 10,
      "total_episodios": 24,
      "link_video": "https://animefire.plus/video/hoshi-no-samidare-dublado"
    },
    {
      "id": 1530,
      "nome": "Hoshiai no Sora",
      "link": "https://animefire.plus/animes/hoshiai-no-sora-todos-os-episodios",
      "texto_original": "Hoshiai no Sora",
      "rating": 7.52,
      "classificacao_etaria": "A14",
      "imagem_original": "https://animefire.plus/img/animes/hoshiai-no-sora.webp",
      "imagem_pasta": "https://animefire.plus/img/animes/hoshiai-no-sora/",
      "secao": "legendados",
      "pagina": 110,
      "total_episodios": 1,
      "link_video": "https://animefire.plus/video/hoshiai-no-sora"
    },
    {
      "id": 1531,
      "nome": "Hoshifuru Oukoku no Nina (Dublado)",
      "link": "https://animefire.plus/animes/hoshifuru-oukoku-no-nina-dublado-todos-os-episodios",
      "texto_original": "Hoshifuru Oukoku no Nina (Dublado)",
      "rating": 7.38,
      "classificacao_etaria": "A14",
      "imagem_original": "https://animefire.plus/img/animes/hoshifuru-oukoku-no-nina.webp",
      "imagem_pasta": "https://animefire.plus/img/animes/hoshifuru-oukoku-no-nina/",
      "secao": "dublados,legendados,lancamentos",
      "pagina": 2,
      "total_episodios": 12,
      "link_video": "https://animefire.plus/video/hoshifuru-oukoku-no-nina-dublado"
    },
    {
      "id": 1532,
      "nome": "Hoshikuzu Paradise",
      "link": "https://animefire.plus/animes/hoshikuzu-paradise-todos-os-episodios",
      "texto_original": "Hoshikuzu Paradise",
      "rating": 5.59,
      "classificacao_etaria": "A14",
      "imagem_original": "https://animefire.plus/img/animes/hoshikuzu-paradise.webp",
      "imagem_pasta": "https://animefire.plus/img/animes/hoshikuzu-paradise/",
      "secao": "legendados",
      "pagina": 69,
      "total_episodios": 1,
      "link_video": "https://animefire.plus/video/hoshikuzu-paradise"
    },
    {
      "id": 1533,
      "nome": "Hoshikuzu Telepath",
      "link": "https://animefire.plus/animes/hoshikuzu-telepath-todos-os-episodios",
      "texto_original": "Hoshikuzu Telepath",
      "rating": 7.15,
      "classificacao_etaria": "A14",
      "imagem_original": "https://animefire.plus/img/animes/hoshikuzu-telepath.webp",
      "imagem_pasta": "https://animefire.plus/img/animes/hoshikuzu-telepath/",
      "secao": "legendados",
      "pagina": 19,
      "total_episodios": 12,
      "link_video": "https://animefire.plus/video/hoshikuzu-telepath"
    },
    {
      "id": 1534,
      "nome": "Hoshizora e Kakaru Hashi",
      "link": "https://animefire.plus/animes/hoshizora-e-kakaru-hashi-todos-os-episodios",
      "texto_original": "Hoshizora e Kakaru Hashi",
      "rating": 6.92,
      "classificacao_etaria": "A18",
      "imagem_original": "https://animefire.plus/img/animes/hoshizora-e-kakaru-hashi.webp",
      "imagem_pasta": "https://animefire.plus/img/animes/hoshizora-e-kakaru-hashi/",
      "secao": "legendados",
      "pagina": 138,
      "total_episodios": 12,
      "link_video": "https://animefire.plus/video/hoshizora-e-kakaru-hashi"
    },
    {
      "id": 1535,
      "nome": "Hotaru Kagayaku",
      "link": "https://animefire.plus/animes/hotaru-kagayaku-todos-os-episodios",
      "texto_original": "Hotaru Kagayaku",
      "rating": null,
      "classificacao_etaria": null,
      "imagem_original": "https://animefire.plus/img/animes/hotaru-kagayaku.webp",
      "imagem_pasta": "https://animefire.plus/img/animes/hotaru-kagayaku/",
      "secao": "legendados",
      "pagina": 82,
      "total_episodios": 1,
      "link_video": "https://animefire.plus/video/hotaru-kagayaku"
    },
    {
      "id": 1536,
      "nome": "Hotarubi no Mori e",
      "link": "https://animefire.plus/animes/hotarubi-no-mori-e-todos-os-episodios",
      "texto_original": "Hotarubi no Mori e",
      "rating": 8.49,
      "classificacao_etaria": null,
      "imagem_original": "https://animefire.plus/img/animes/hotarubi-no-mori-e.webp",
      "imagem_pasta": "https://animefire.plus/img/animes/hotarubi-no-mori-e/",
      "secao": "legendados",
      "pagina": 104,
      "total_episodios": 1,
      "link_video": "https://animefire.plus/video/hotarubi-no-mori-e"
    },
    {
      "id": 1537,
      "nome": "Hotel Inhumans",
      "link": "https://animefire.plus/animes/hotel-inhumans-todos-os-episodios",
      "texto_original": "Hotel Inhumans",
      "rating": 6.54,
      "classificacao_etaria": "A14",
      "imagem_original": "https://animefire.plus/img/animes/hotel-inhumans.webp",
      "imagem_pasta": "https://animefire.plus/img/animes/hotel-inhumans/",
      "secao": "legendados,lancamentos",
      "pagina": 1,
      "total_episodios": 5,
      "link_video": "https://animefire.plus/video/hotel-inhumans"
    },
    {
      "id": 1538,
      "nome": "Houkago No Pleiades",
      "link": "https://animefire.plus/animes/houkago-no-pleiades-todos-os-episodios",
      "texto_original": "Houkago No Pleiades",
      "rating": 6.16,
      "classificacao_etaria": null,
      "imagem_original": "https://animefire.plus/img/animes/houkago-no-pleiades.webp",
      "imagem_pasta": "https://animefire.plus/img/animes/houkago-no-pleiades/",
      "secao": "legendados",
      "pagina": 59,
      "total_episodios": 12,
      "link_video": "https://animefire.plus/video/houkago-no-pleiades"
    },
    {
      "id": 1539,
      "nome": "Houkago Saikoro Club",
      "link": "https://animefire.plus/animes/houkago-saikoro-club-todos-os-episodios",
      "texto_original": "Houkago Saikoro Club",
      "rating": 6.72,
      "classificacao_etaria": "A14",
      "imagem_original": "https://animefire.plus/img/animes/houkago-saikoro-club.webp",
      "imagem_pasta": "https://animefire.plus/img/animes/houkago-saikoro-club/",
      "secao": "legendados",
      "pagina": 111,
      "total_episodios": 0,
      "link_video": "https://animefire.plus/video/houkago-saikoro-club"
    },
    {
      "id": 1540,
      "nome": "Houkago Shounen Hanako-kun",
      "link": "https://animefire.plus/animes/houkago-shounen-hanako-kun-todos-os-episodios",
      "texto_original": "Houkago Shounen Hanako-kun",
      "rating": 7.1,
      "classificacao_etaria": "A14",
      "imagem_original": "https://animefire.plus/img/animes/houkago-shounen-hanako-kun.webp",
      "imagem_pasta": "https://animefire.plus/img/animes/houkago-shounen-hanako-kun/",
      "secao": "legendados",
      "pagina": 19,
      "total_episodios": 4,
      "link_video": "https://animefire.plus/video/houkago-shounen-hanako-kun"
    }
  ],
  "pagination": {
    "current_page": 77,
    "per_page": 20,
    "total_items": 4368,
    "total_pages": 219,
    "has_next": true,
    "has_prev": true
  }
}
