{
  "message": "Lista de animes",
  "data": [
    {
      "id": 621,
      "nome": "Chotto dake Ai ga Omoi Dark Elf ga Isekai kara Oikaketekita",
      "link": "https://animefire.plus/animes/chotto-dake-ai-ga-omoi-dark-elf-ga-isekai-kara-oikaketekita-todos-os-episodios",
      "texto_original": "Chotto dake Ai ga Omoi Dark Elf ga Isekai kara Oikaketekita",
      "rating": 5.52,
      "classificacao_etaria": "A18",
      "imagem_original": "https://animefire.plus/img/animes/chotto-dake-ai-ga-omoi-dark-elf-ga-isekai-kara-oikaketekita.webp",
      "imagem_pasta": "https://animefire.plus/img/animes/chotto-dake-ai-ga-omoi-dark-elf-ga-isekai-kara-oikaketekita/",
      "secao": "legendados",
      "pagina": 3,
      "total_episodios": 12,
      "link_video": "https://animefire.plus/video/chotto-dake-ai-ga-omoi-dark-elf-ga-isekai-kara-oikaketekita"
    },
    {
      "id": 622,
      "nome": "Chou Henshin Cosprayers",
      "link": "https://animefire.plus/animes/chou-henshin-cosprayers-todos-os-episodios",
      "texto_original": "Chou Henshin Cosprayers",
      "rating": 4.93,
      "classificacao_etaria": "A14",
      "imagem_original": "https://animefire.plus/img/animes/chou-henshin-cosprayers.webp",
      "imagem_pasta": "https://animefire.plus/img/animes/chou-henshin-cosprayers/",
      "secao": "legendados",
      "pagina": 42,
      "total_episodios": 22,
      "link_video": "https://animefire.plus/video/chou-henshin-cosprayers"
    },
    {
      "id": 623,
      "nome": "Chou Kousoku Gran Doll",
      "link": "https://animefire.plus/animes/chou-kousoku-gran-doll-todos-os-episodios",
      "texto_original": "Chou Kousoku Gran Doll",
      "rating": 5.56,
      "classificacao_etaria": "A18",
      "imagem_original": "https://animefire.plus/img/animes/chou-kousoku-gran-doll.webp",
      "imagem_pasta": "https://animefire.plus/img/animes/chou-kousoku-gran-doll/",
      "secao": "legendados",
      "pagina": 72,
      "total_episodios": 3,
      "link_video": "https://animefire.plus/video/chou-kousoku-gran-doll"
    },
    {
      "id": 624,
      "nome": "Chou Yuu Sekai: Being the Reality",
      "link": "https://animefire.plus/animes/chou-yuu-sekai-being-the-reality-todos-os-episodios",
      "texto_original": "Chou Yuu Sekai: Being the Reality",
      "rating": 6.39,
      "classificacao_etaria": "A14",
      "imagem_original": "https://animefire.plus/img/animes/chou-yuu-sekai-being-the-reality.webp",
      "imagem_pasta": "https://animefire.plus/img/animes/chou-yuu-sekai-being-the-reality/",
      "secao": "legendados",
      "pagina": 176,
      "total_episodios": 13,
      "link_video": "https://animefire.plus/video/chou-yuu-sekai-being-the-reality"
    },
    {
      "id": 625,
      "nome": "Choujigen Game Neptune The Animation",
      "link": "https://animefire.plus/animes/choujigen-game-neptune-the-animation-todos-os-episodios",
      "texto_original": "Choujigen Game Neptune The Animation",
      "rating": 7.11,
      "classificacao_etaria": "A14",
      "imagem_original": "https://animefire.plus/img/animes/choujigen-game-neptune-the-animation.webp",
      "imagem_pasta": "https://animefire.plus/img/animes/choujigen-game-neptune-the-animation/",
      "secao": "legendados",
      "pagina": 118,
      "total_episodios": 12,
      "link_video": "https://animefire.plus/video/choujigen-game-neptune-the-animation"
    },
    {
      "id": 626,
      "nome": "Choujigen Game Neptune The Animation: Nep no Natsuyasumi",
      "link": "https://animefire.plus/animes/choujigen-game-neptune-the-animation-nep-no-natsuyasumi-todos-os-episodios",
      "texto_original": "Choujigen Game Neptune The Animation: Nep no Natsuyasumi",
      "rating": 7.17,
      "classificacao_etaria": "A14",
      "imagem_original": "https://animefire.plus/img/animes/choujigen-game-neptune-the-animation-nep-no-natsuyasumi.webp",
      "imagem_pasta": "https://animefire.plus/img/animes/choujigen-game-neptune-the-animation-nep-no-natsuyasumi/",
      "secao": "legendados",
      "pagina": 83,
      "total_episodios": 1,
      "link_video": "https://animefire.plus/video/choujigen-game-neptune-the-animation-nep-no-natsuyasumi"
    },
    {
      "id": 627,
      "nome": "Choujigen Game Neptune The Animation: Yakusoku no Eien - True End",
      "link": "https://animefire.plus/animes/choujigen-game-neptune-the-animation-yakusoku-no-eien---true-end-todos-os-episodios",
      "texto_original": "Choujigen Game Neptune The Animation: Yakusoku no Eien - True End",
      "rating": 7.3,
      "classificacao_etaria": "A14",
      "imagem_original": "https://animefire.plus/img/animes/choujigen-game-neptune-the-animation-yakusoku-no-eien---true-end.webp",
      "imagem_pasta": "https://animefire.plus/img/animes/choujigen-game-neptune-the-animation-yakusoku-no-eien---true-end/",
      "secao": "legendados",
      "pagina": 53,
      "total_episodios": 1,
      "link_video": "https://animefire.plus/video/choujigen-game-neptune-the-animation-yakusoku-no-eien---true-end"
    },
    {
      "id": 628,
      "nome": "Choujikuu Kidan Southern Cross",
      "link": "https://animefire.plus/animes/choujikuu-kidan-southern-cross-todos-os-episodios",
      "texto_original": "Choujikuu Kidan Southern Cross",
      "rating": 6.67,
      "classificacao_etaria": "A18",
      "imagem_original": "https://animefire.plus/img/animes/choujikuu-kidan-southern-cross.webp",
      "imagem_pasta": "https://animefire.plus/img/animes/choujikuu-kidan-southern-cross/",
      "secao": "legendados",
      "pagina": 100,
      "total_episodios": 24,
      "link_video": "https://animefire.plus/video/choujikuu-kidan-southern-cross"
    },
    {
      "id": 629,
      "nome": "Choujin Koukousei-tachi wa Isekai demo Yoyuu de Ikinuku you desu!",
      "link": "https://animefire.plus/animes/choujin-koukousei-tachi-wa-isekai-demo-yoyuu-de-ikinuku-you-desu-todos-os-episodios",
      "texto_original": "Choujin Koukousei-tachi wa Isekai demo Yoyuu de Ikinuku you desu!",
      "rating": 6.34,
      "classificacao_etaria": "A14",
      "imagem_original": "https://animefire.plus/img/animes/choujin-koukousei-tachi-wa-isekai-demo-yoyuu-de-ikinuku-you-desu.webp",
      "imagem_pasta": "https://animefire.plus/img/animes/choujin-koukousei-tachi-wa-isekai-demo-yoyuu-de-ikinuku-you-desu/",
      "secao": "legendados",
      "pagina": 111,
      "total_episodios": 0,
      "link_video": "https://animefire.plus/video/choujin-koukousei-tachi-wa-isekai-demo-yoyuu-de-ikinuku-you-desu"
    },
    {
      "id": 630,
      "nome": "Choujuushin Gravion",
      "link": "https://animefire.plus/animes/choujuushin-gravion-todos-os-episodios",
      "texto_original": "Choujuushin Gravion",
      "rating": 6.45,
      "classificacao_etaria": "A14",
      "imagem_original": "https://animefire.plus/img/animes/choujuushin-gravion.webp",
      "imagem_pasta": "https://animefire.plus/img/animes/choujuushin-gravion/",
      "secao": "legendados",
      "pagina": 157,
      "total_episodios": 13,
      "link_video": "https://animefire.plus/video/choujuushin-gravion"
    },
    {
      "id": 631,
      "nome": "Choujuushin Gravion Zwei",
      "link": "https://animefire.plus/animes/choujuushin-gravion-zwei-todos-os-episodios",
      "texto_original": "Choujuushin Gravion Zwei",
      "rating": 6.7,
      "classificacao_etaria": "A18",
      "imagem_original": "https://animefire.plus/img/animes/choujuushin-gravion-zwei.webp",
      "imagem_pasta": "https://animefire.plus/img/animes/choujuushin-gravion-zwei/",
      "secao": "legendados",
      "pagina": 119,
      "total_episodios": 12,
      "link_video": "https://animefire.plus/video/choujuushin-gravion-zwei"
    },
    {
      "id": 632,
      "nome": "Choukadou Girl ⅙",
      "link": "https://animefire.plus/animes/choukadou-girl-todos-os-episodios",
      "texto_original": "Choukadou Girl ⅙",
      "rating": 6,
      "classificacao_etaria": "A14",
      "imagem_original": "https://animefire.plus/img/animes/choukadou-girl.webp",
      "imagem_pasta": "https://animefire.plus/img/animes/choukadou-girl/",
      "secao": "legendados",
      "pagina": 167,
      "total_episodios": 12,
      "link_video": "https://animefire.plus/video/choukadou-girl"
    },
    {
      "id": 633,
      "nome": "Chousoku Henkei Gyrozetter",
      "link": "https://animefire.plus/animes/chousoku-henkei-gyrozetter-todos-os-episodios",
      "texto_original": "Chousoku Henkei Gyrozetter",
      "rating": 6.49,
      "classificacao_etaria": null,
      "imagem_original": "https://animefire.plus/img/animes/chousoku-henkei-gyrozetter.webp",
      "imagem_pasta": "https://animefire.plus/img/animes/chousoku-henkei-gyrozetter/",
      "secao": "legendados",
      "pagina": 114,
      "total_episodios": 0,
      "link_video": "https://animefire.plus/video/chousoku-henkei-gyrozetter"
    },
    {
      "id": 634,
      "nome": "Chouyaku Hyakuninisshu: Uta Koi.",
      "link": "https://animefire.plus/animes/chouyaku-hyakuninisshu-uta-koi-todos-os-episodios",
      "texto_original": "Chouyaku Hyakuninisshu: Uta Koi.",
      "rating": 7.48,
      "classificacao_etaria": "A14",
      "imagem_original": "https://animefire.plus/img/animes/chouyaku-hyakuninisshu-uta-koi.webp",
      "imagem_pasta": "https://animefire.plus/img/animes/chouyaku-hyakuninisshu-uta-koi/",
      "secao": "legendados",
      "pagina": 42,
      "total_episodios": 13,
      "link_video": "https://animefire.plus/video/chouyaku-hyakuninisshu-uta-koi"
    },
    {
      "id": 635,
      "nome": "Chrno Crusade",
      "link": "https://animefire.plus/animes/chrno-crusade-todos-os-episodios",
      "texto_original": "Chrno Crusade",
      "rating": 7.74,
      "classificacao_etaria": "A16",
      "imagem_original": "https://animefire.plus/img/animes/chrno-crusade.webp",
      "imagem_pasta": "https://animefire.plus/img/animes/chrno-crusade/",
      "secao": "legendados",
      "pagina": 168,
      "total_episodios": 3,
      "link_video": "https://animefire.plus/video/chrno-crusade"
    },
    {
      "id": 636,
      "nome": "Chrno Crusade: Az demo Wakaru Chrno Crusade Kouza",
      "link": "https://animefire.plus/animes/chrno-crusade-az-demo-wakaru-chrno-crusade-kouza-todos-os-episodios",
      "texto_original": "Chrno Crusade: Az demo Wakaru Chrno Crusade Kouza",
      "rating": 6.57,
      "classificacao_etaria": "A14",
      "imagem_original": "https://animefire.plus/img/animes/chrno-crusade-az-demo-wakaru-chrno-crusade-kouza.webp",
      "imagem_pasta": "https://animefire.plus/img/animes/chrno-crusade-az-demo-wakaru-chrno-crusade-kouza/",
      "secao": "legendados",
      "pagina": 70,
      "total_episodios": 11,
      "link_video": "https://animefire.plus/video/chrno-crusade-az-demo-wakaru-chrno-crusade-kouza"
    },
    {
      "id": 637,
      "nome": "Chrome Shelled Regios",
      "link": "https://animefire.plus/animes/chrome-shelled-regios-todos-os-episodios",
      "texto_original": "Chrome Shelled Regios",
      "rating": 7.47,
      "classificacao_etaria": "A16",
      "imagem_original": "https://animefire.plus/img/animes/chrome-shelled-regios.webp",
      "imagem_pasta": "https://animefire.plus/img/animes/chrome-shelled-regios/",
      "secao": "legendados",
      "pagina": 130,
      "total_episodios": 24,
      "link_video": "https://animefire.plus/video/chrome-shelled-regios"
    },
    {
      "id": 638,
      "nome": "Chu Feng: B.E.E",
      "link": "https://animefire.plus/animes/chu-feng-b-e-e-todos-os-episodios",
      "texto_original": "Chu Feng: B.E.E",
      "rating": 5.99,
      "classificacao_etaria": "A16",
      "imagem_original": "https://animefire.plus/img/animes/chu-feng-b-e-e.webp",
      "imagem_pasta": "https://animefire.plus/img/animes/chu-feng-b-e-e/",
      "secao": "legendados",
      "pagina": 154,
      "total_episodios": 6,
      "link_video": "https://animefire.plus/video/chu-feng-b-e-e"
    },
    {
      "id": 639,
      "nome": "Chu-Bra!!",
      "link": "https://animefire.plus/animes/chu-bra-todos-os-episodios",
      "texto_original": "Chu-Bra!!",
      "rating": 6.28,
      "classificacao_etaria": "A18",
      "imagem_original": "https://animefire.plus/img/animes/chu-bra.webp",
      "imagem_pasta": "https://animefire.plus/img/animes/chu-bra/",
      "secao": "legendados",
      "pagina": 131,
      "total_episodios": 12,
      "link_video": "https://animefire.plus/video/chu-bra"
    },
    {
      "id": 640,
      "nome": "Chuubyou Gekihatsu Boy",
      "link": "https://animefire.plus/animes/chuubyou-gekihatsu-boy-todos-os-episodios",
      "texto_original": "Chuubyou Gekihatsu Boy",
      "rating": 6.78,
      "classificacao_etaria": "A14",
      "imagem_original": "https://animefire.plus/img/animes/chuubyou-gekihatsu-boy.webp",
      "imagem_pasta": "https://animefire.plus/img/animes/chuubyou-gekihatsu-boy/",
      "secao": "legendados",
      "pagina": 110,
      "total_episodios": 0,
      "link_video": "https://animefire.plus/video/chuubyou-gekihatsu-boy"
    }
  ],
  "pagination": {
    "current_page": 32,
    "per_page": 20,
    "total_items": 4368,
    "total_pages": 219,
    "has_next": true,
    "has_prev": true
  }
}
