{
  "message": "Lista de animes",
  "data": [
    {
      "id": 2401,
      "nome": "Mamahaha no Tsurego ga Motokano datta",
      "link": "https://animefire.plus/animes/mamahaha-no-tsurego-ga-motokano-datta-todos-os-episodios",
      "texto_original": "Mamahaha no Tsurego ga Motokano datta",
      "rating": 6.73,
      "classificacao_etaria": "A14",
      "imagem_original": "https://animefire.plus/img/animes/mamahaha-no-tsurego-ga-motokano-datta.webp",
      "imagem_pasta": "https://animefire.plus/img/animes/mamahaha-no-tsurego-ga-motokano-datta/",
      "secao": "legendados",
      "pagina": 32,
      "total_episodios": 12,
      "link_video": "https://animefire.plus/video/mamahaha-no-tsurego-ga-motokano-datta"
    },
    {
      "id": 2402,
      "nome": "Mamoru-kun ni Megami no Shukufuku wo!",
      "link": "https://animefire.plus/animes/mamoru-kun-ni-megami-no-shukufuku-wo-todos-os-episodios",
      "texto_original": "Mamoru-kun ni Megami no Shukufuku wo!",
      "rating": 7.14,
      "classificacao_etaria": "A14",
      "imagem_original": "https://animefire.plus/img/animes/mamoru-kun-ni-megami-no-shukufuku-wo.webp",
      "imagem_pasta": "https://animefire.plus/img/animes/mamoru-kun-ni-megami-no-shukufuku-wo/",
      "secao": "legendados",
      "pagina": 153,
      "total_episodios": 24,
      "link_video": "https://animefire.plus/video/mamoru-kun-ni-megami-no-shukufuku-wo"
    },
    {
      "id": 2403,
      "nome": "Mamotte! Lollipop",
      "link": "https://animefire.plus/animes/mamotte-lollipop-todos-os-episodios",
      "texto_original": "Mamotte! Lollipop",
      "rating": 6.86,
      "classificacao_etaria": "A14",
      "imagem_original": "https://animefire.plus/img/animes/mamotte-lollipop.webp",
      "imagem_pasta": "https://animefire.plus/img/animes/mamotte-lollipop/",
      "secao": "legendados",
      "pagina": 99,
      "total_episodios": 5,
      "link_video": "https://animefire.plus/video/mamotte-lollipop"
    },
    {
      "id": 2404,
      "nome": "Manaria Friends",
      "link": "https://animefire.plus/animes/manaria-friends-todos-os-episodios",
      "texto_original": "Manaria Friends",
      "rating": 6.63,
      "classificacao_etaria": "A14",
      "imagem_original": "https://animefire.plus/img/animes/manaria-friends.webp",
      "imagem_pasta": "https://animefire.plus/img/animes/manaria-friends/",
      "secao": "legendados",
      "pagina": 108,
      "total_episodios": 10,
      "link_video": "https://animefire.plus/video/manaria-friends"
    },
    {
      "id": 2405,
      "nome": "Mangaka-san to Assistant-san to The Animation",
      "link": "https://animefire.plus/animes/mangaka-san-to-assistant-san-to-the-animation-todos-os-episodios",
      "texto_original": "Mangaka-san to Assistant-san to The Animation",
      "rating": 7.25,
      "classificacao_etaria": "A14",
      "imagem_original": "https://animefire.plus/img/animes/mangaka-san-to-assistant-san-to-the-animation.webp",
      "imagem_pasta": "https://animefire.plus/img/animes/mangaka-san-to-assistant-san-to-the-animation/",
      "secao": "legendados",
      "pagina": 79,
      "total_episodios": 12,
      "link_video": "https://animefire.plus/video/mangaka-san-to-assistant-san-to-the-animation"
    },
    {
      "id": 2406,
      "nome": "Mangirl!",
      "link": "https://animefire.plus/animes/mangirl-todos-os-episodios",
      "texto_original": "Mangirl!",
      "rating": 5.97,
      "classificacao_etaria": "A14",
      "imagem_original": "https://animefire.plus/img/animes/mangirl.webp",
      "imagem_pasta": "https://animefire.plus/img/animes/mangirl/",
      "secao": "legendados",
      "pagina": 167,
      "total_episodios": 2,
      "link_video": "https://animefire.plus/video/mangirl"
    },
    {
      "id": 2407,
      "nome": "Manyuu Hikenchou",
      "link": "https://animefire.plus/animes/manyuu-hikenchou-todos-os-episodios",
      "texto_original": "Manyuu Hikenchou",
      "rating": 6.19,
      "classificacao_etaria": "A18",
      "imagem_original": "https://animefire.plus/img/animes/manyuu-hikenchou.webp",
      "imagem_pasta": "https://animefire.plus/img/animes/manyuu-hikenchou/",
      "secao": "legendados",
      "pagina": 18,
      "total_episodios": 12,
      "link_video": "https://animefire.plus/video/manyuu-hikenchou"
    },
    {
      "id": 2408,
      "nome": "Maou 2099",
      "link": "https://animefire.plus/animes/maou-2099-todos-os-episodios",
      "texto_original": "Maou 2099",
      "rating": 7.44,
      "classificacao_etaria": "A14",
      "imagem_original": "https://animefire.plus/img/animes/maou-2099.webp",
      "imagem_pasta": "https://animefire.plus/img/animes/maou-2099/",
      "secao": "legendados",
      "pagina": 11,
      "total_episodios": 12,
      "link_video": "https://animefire.plus/video/maou-2099"
    },
    {
      "id": 2409,
      "nome": "Maou Dante",
      "link": "https://animefire.plus/animes/maou-dante-todos-os-episodios",
      "texto_original": "Maou Dante",
      "rating": 6.18,
      "classificacao_etaria": "A18",
      "imagem_original": "https://animefire.plus/img/animes/maou-dante.webp",
      "imagem_pasta": "https://animefire.plus/img/animes/maou-dante/",
      "secao": "legendados",
      "pagina": 123,
      "total_episodios": 13,
      "link_video": "https://animefire.plus/video/maou-dante"
    },
    {
      "id": 2410,
      "nome": "Maou Evelogia ni Mi wo Sasage yo",
      "link": "https://animefire.plus/animes/maou-evelogia-ni-mi-wo-sasage-yo-todos-os-episodios",
      "texto_original": "Maou Evelogia ni Mi wo Sasage yo",
      "rating": 5.98,
      "classificacao_etaria": "A18",
      "imagem_original": "https://animefire.plus/img/animes/maou-evelogia-ni-mi-wo-sasage-yo.webp",
      "imagem_pasta": "https://animefire.plus/img/animes/maou-evelogia-ni-mi-wo-sasage-yo/",
      "secao": "legendados,lancamentos",
      "pagina": 39,
      "total_episodios": 0,
      "link_video": "https://animefire.plus/video/maou-evelogia-ni-mi-wo-sasage-yo"
    },
    {
      "id": 2411,
      "nome": "Maou Gakuin no Futekigousha: Shijou Saikyou no Maou no Shiso, Tensei shite Shison-tachi no Gakkou e",
      "link": "https://animefire.plus/animes/maou-gakuin-no-futekigousha-shijou-saikyou-no-maou-no-shiso-tensei-shite-shison-tachi-no-gakkou-e-todos-os-episodios",
      "texto_original": "Maou Gakuin no Futekigousha: Shijou Saikyou no Maou no Shiso, Tensei shite Shison-tachi no Gakkou e",
      "rating": 7.34,
      "classificacao_etaria": "A16",
      "imagem_original": "https://animefire.plus/img/animes/maou-gakuin-no-futekigousha-shijou-saikyou-no-maou-no-shiso-tensei-shite-shison-tachi-no-gakkou-e.webp",
      "imagem_pasta": "https://animefire.plus/img/animes/maou-gakuin-no-futekigousha-shijou-saikyou-no-maou-no-shiso-tensei-shite-shison-tachi-no-gakkou-e/",
      "secao": "legendados",
      "pagina": 58,
      "total_episodios": 7,
      "link_video": "https://animefire.plus/video/maou-gakuin-no-futekigousha-shijou-saikyou-no-maou-no-shiso-tensei-shite-shison-tachi-no-gakkou-e"
    },
    {
      "id": 2412,
      "nome": "Maou Gakuin no Futekigousha: Shijou Saikyou no Maou no Shiso, Tensei shite Shison-tachi no Gakkou e Kayou II",
      "link": "https://animefire.plus/animes/maou-gakuin-no-futekigousha-shijou-saikyou-no-maou-no-shiso-tensei-shite-shison-tachi-no-gakkou-e-kayou-ii-todos-os-episodios",
      "texto_original": "Maou Gakuin no Futekigousha: Shijou Saikyou no Maou no Shiso, Tensei shite Shison-tachi no Gakkou e Kayou II",
      "rating": 6.85,
      "classificacao_etaria": "A16",
      "imagem_original": "https://animefire.plus/img/animes/maou-gakuin-no-futekigousha-shijou-saikyou-no-maou-no-shiso-tensei-shite-shison-tachi-no-gakkou-e-kayou-ii.webp",
      "imagem_pasta": "https://animefire.plus/img/animes/maou-gakuin-no-futekigousha-shijou-saikyou-no-maou-no-shiso-tensei-shite-shison-tachi-no-gakkou-e-kayou-ii/",
      "secao": "legendados,lancamentos",
      "pagina": 27,
      "total_episodios": 9,
      "link_video": "https://animefire.plus/video/maou-gakuin-no-futekigousha-shijou-saikyou-no-maou-no-shiso-tensei-shite-shison-tachi-no-gakkou-e-kayou-ii"
    },
    {
      "id": 2413,
      "nome": "Maou Gakuin no Futekigousha: Shijou Saikyou no Maou no Shiso, Tensei shite Shison-tachi no Gakkou e Kayou II Part 2",
      "link": "https://animefire.plus/animes/maou-gakuin-no-futekigousha-shijou-saikyou-no-maou-no-shiso-tensei-shite-shison-tachi-no-gakkou-e-kayou-ii-part-2-todos-os-episodios",
      "texto_original": "Maou Gakuin no Futekigousha: Shijou Saikyou no Maou no Shiso, Tensei shite Shison-tachi no Gakkou e Kayou II Part 2",
      "rating": 6.46,
      "classificacao_etaria": "A16",
      "imagem_original": "https://animefire.plus/img/animes/maou-gakuin-no-futekigousha-shijou-saikyou-no-maou-no-shiso-tensei-shite-shison-tachi-no-gakkou-e-kayou-ii-part-2.webp",
      "imagem_pasta": "https://animefire.plus/img/animes/maou-gakuin-no-futekigousha-shijou-saikyou-no-maou-no-shiso-tensei-shite-shison-tachi-no-gakkou-e-kayou-ii-part-2/",
      "secao": "legendados,lancamentos",
      "pagina": 16,
      "total_episodios": 0,
      "link_video": "https://animefire.plus/video/maou-gakuin-no-futekigousha-shijou-saikyou-no-maou-no-shiso-tensei-shite-shison-tachi-no-gakkou-e-kayou-ii-part-2"
    },
    {
      "id": 2414,
      "nome": "Maou no Ore ga Dorei Elf wo Yome ni Shitanda ga, Dou Medereba Ii?",
      "link": "https://animefire.plus/animes/maou-no-ore-ga-dorei-elf-wo-yome-ni-shitanda-ga-dou-medereba-ii-todos-os-episodios",
      "texto_original": "Maou no Ore ga Dorei Elf wo Yome ni Shitanda ga, Dou Medereba Ii?",
      "rating": 7.29,
      "classificacao_etaria": "A14",
      "imagem_original": "https://animefire.plus/img/animes/maou-no-ore-ga-dorei-elf-wo-yome-ni-shitanda-ga-dou-medereba-ii.webp",
      "imagem_pasta": "https://animefire.plus/img/animes/maou-no-ore-ga-dorei-elf-wo-yome-ni-shitanda-ga-dou-medereba-ii/",
      "secao": "legendados",
      "pagina": 15,
      "total_episodios": 12,
      "link_video": "https://animefire.plus/video/maou-no-ore-ga-dorei-elf-wo-yome-ni-shitanda-ga-dou-medereba-ii"
    },
    {
      "id": 2415,
      "nome": "Maou-sama, Retry!",
      "link": "https://animefire.plus/animes/maou-sama-retry-todos-os-episodios",
      "texto_original": "Maou-sama, Retry!",
      "rating": 6.51,
      "classificacao_etaria": "A14",
      "imagem_original": "https://animefire.plus/img/animes/maou-sama-retry.webp",
      "imagem_pasta": "https://animefire.plus/img/animes/maou-sama-retry/",
      "secao": "legendados",
      "pagina": 145,
      "total_episodios": 6,
      "link_video": "https://animefire.plus/video/maou-sama-retry"
    },
    {
      "id": 2416,
      "nome": "Maou-sama, Retry! R",
      "link": "https://animefire.plus/animes/maou-sama-retry-r-todos-os-episodios",
      "texto_original": "Maou-sama, Retry! R",
      "rating": 5.92,
      "classificacao_etaria": "A14",
      "imagem_original": "https://animefire.plus/img/animes/maou-sama-retry-r.webp",
      "imagem_pasta": "https://animefire.plus/img/animes/maou-sama-retry-r/",
      "secao": "legendados",
      "pagina": 9,
      "total_episodios": 12,
      "link_video": "https://animefire.plus/video/maou-sama-retry-r"
    },
    {
      "id": 2417,
      "nome": "Maougun Saikyou no Majutsushi wa Ningen datta",
      "link": "https://animefire.plus/animes/maougun-saikyou-no-majutsushi-wa-ningen-datta-todos-os-episodios",
      "texto_original": "Maougun Saikyou no Majutsushi wa Ningen datta",
      "rating": 6.41,
      "classificacao_etaria": "A14",
      "imagem_original": "https://animefire.plus/img/animes/maougun-saikyou-no-majutsushi-wa-ningen-datta.webp",
      "imagem_pasta": "https://animefire.plus/img/animes/maougun-saikyou-no-majutsushi-wa-ningen-datta/",
      "secao": "legendados",
      "pagina": 13,
      "total_episodios": 12,
      "link_video": "https://animefire.plus/video/maougun-saikyou-no-majutsushi-wa-ningen-datta"
    },
    {
      "id": 2418,
      "nome": "Maoujou de Oyasumi",
      "link": "https://animefire.plus/animes/maoujou-de-oyasumi-todos-os-episodios",
      "texto_original": "Maoujou de Oyasumi",
      "rating": null,
      "classificacao_etaria": "A14",
      "imagem_original": "https://animefire.plus/img/animes/maoujou-de-oyasumi.webp",
      "imagem_pasta": "https://animefire.plus/img/animes/maoujou-de-oyasumi/",
      "secao": "legendados",
      "pagina": 52,
      "total_episodios": 12,
      "link_video": "https://animefire.plus/video/maoujou-de-oyasumi"
    },
    {
      "id": 2419,
      "nome": "Maoyuu Maou Yuusha",
      "link": "https://animefire.plus/animes/maoyuu-maou-yuusha-todos-os-episodios",
      "texto_original": "Maoyuu Maou Yuusha",
      "rating": 7.4,
      "classificacao_etaria": "A14",
      "imagem_original": "https://animefire.plus/img/animes/maoyuu-maou-yuusha.webp",
      "imagem_pasta": "https://animefire.plus/img/animes/maoyuu-maou-yuusha/",
      "secao": "legendados",
      "pagina": 100,
      "total_episodios": 12,
      "link_video": "https://animefire.plus/video/maoyuu-maou-yuusha"
    },
    {
      "id": 2420,
      "nome": "M채rchen M채dchen",
      "link": "https://animefire.plus/animes/maerchen-maedchen-todos-os-episodios",
      "texto_original": "M채rchen M채dchen",
      "rating": 5.45,
      "classificacao_etaria": "A14",
      "imagem_original": "https://animefire.plus/img/animes/maerchen-maedchen.webp",
      "imagem_pasta": "https://animefire.plus/img/animes/maerchen-maedchen/",
      "secao": "legendados",
      "pagina": 113,
      "total_episodios": 12,
      "link_video": "https://animefire.plus/video/maerchen-maedchen"
    }
  ],
  "pagination": {
    "current_page": 121,
    "per_page": 20,
    "total_items": 4368,
    "total_pages": 219,
    "has_next": true,
    "has_prev": true
  }
}
