{
  "message": "Lista de animes",
  "data": [
    {
      "id": 3141,
      "nome": "RoboMasters the Animated Series",
      "link": "https://animefire.plus/animes/robomasters-the-animated-series-todos-os-episodios",
      "texto_original": "RoboMasters the Animated Series",
      "rating": 6.57,
      "classificacao_etaria": "A14",
      "imagem_original": "https://animefire.plus/img/animes/robomasters-the-animated-series.webp",
      "imagem_pasta": "https://animefire.plus/img/animes/robomasters-the-animated-series/",
      "secao": "legendados",
      "pagina": 172,
      "total_episodios": 6,
      "link_video": "https://animefire.plus/video/robomasters-the-animated-series"
    },
    {
      "id": 3142,
      "nome": "Robotics;Notes",
      "link": "https://animefire.plus/animes/robotics-notes-todos-os-episodios",
      "texto_original": "Robotics;Notes",
      "rating": 7.39,
      "classificacao_etaria": "A14",
      "imagem_original": "https://animefire.plus/img/animes/robotics-notes.webp",
      "imagem_pasta": "https://animefire.plus/img/animes/robotics-notes/",
      "secao": "legendados",
      "pagina": 175,
      "total_episodios": 0,
      "link_video": "https://animefire.plus/video/robotics-notes"
    },
    {
      "id": 3143,
      "nome": "Rock wa Lady no Tashinami deshite",
      "link": "https://animefire.plus/animes/rock-wa-lady-no-tashinami-deshite-todos-os-episodios",
      "texto_original": "Rock wa Lady no Tashinami deshite",
      "rating": 7.92,
      "classificacao_etaria": "A14",
      "imagem_original": "https://animefire.plus/img/animes/rock-wa-lady-no-tashinami-deshite.webp",
      "imagem_pasta": "https://animefire.plus/img/animes/rock-wa-lady-no-tashinami-deshite/",
      "secao": "legendados",
      "pagina": 5,
      "total_episodios": 13,
      "link_video": "https://animefire.plus/video/rock-wa-lady-no-tashinami-deshite"
    },
    {
      "id": 3144,
      "nome": "Rockman.EXE Axess",
      "link": "https://animefire.plus/animes/rockman-exe-axess-todos-os-episodios",
      "texto_original": "Rockman.EXE Axess",
      "rating": 7.23,
      "classificacao_etaria": "A10",
      "imagem_original": "https://animefire.plus/img/animes/rockman-exe-axess.webp",
      "imagem_pasta": "https://animefire.plus/img/animes/rockman-exe-axess/",
      "secao": "legendados",
      "pagina": 146,
      "total_episodios": 36,
      "link_video": "https://animefire.plus/video/rockman-exe-axess"
    },
    {
      "id": 3145,
      "nome": "Rokka no Yuusha (Dublado)",
      "link": "https://animefire.plus/animes/rokka-no-yuusha-dublado-todos-os-episodios",
      "texto_original": "Rokka no Yuusha (Dublado)",
      "rating": 7.43,
      "classificacao_etaria": "A14",
      "imagem_original": "https://animefire.plus/img/animes/rokka-no-yuusha.webp",
      "imagem_pasta": "https://animefire.plus/img/animes/rokka-no-yuusha/",
      "secao": "dublados,legendados",
      "pagina": 25,
      "total_episodios": 12,
      "link_video": "https://animefire.plus/video/rokka-no-yuusha-dublado"
    },
    {
      "id": 3146,
      "nome": "Rokudenashi Majutsu Koushi to Akashic Records (Dublado)",
      "link": "https://animefire.plus/animes/rokudenashi-majutsu-koushi-to-akashic-records-dublado-todos-os-episodios",
      "texto_original": "Rokudenashi Majutsu Koushi to Akashic Records (Dublado)",
      "rating": 7.29,
      "classificacao_etaria": "A16",
      "imagem_original": "https://animefire.plus/img/animes/rokudenashi-majutsu-koushi-to-akashic-records.webp",
      "imagem_pasta": "https://animefire.plus/img/animes/rokudenashi-majutsu-koushi-to-akashic-records/",
      "secao": "dublados,legendados",
      "pagina": 23,
      "total_episodios": 12,
      "link_video": "https://animefire.plus/video/rokudenashi-majutsu-koushi-to-akashic-records-dublado"
    },
    {
      "id": 3147,
      "nome": "Rokudou no Onna-tachi",
      "link": "https://animefire.plus/animes/rokudou-no-onna-tachi-todos-os-episodios",
      "texto_original": "Rokudou no Onna-tachi",
      "rating": 6.41,
      "classificacao_etaria": "A14",
      "imagem_original": "https://animefire.plus/img/animes/rokudou-no-onna-tachi.jpg",
      "imagem_pasta": "https://animefire.plus/img/animes/rokudou-no-onna-tachi/",
      "secao": "legendados",
      "pagina": 24,
      "total_episodios": 12,
      "link_video": "https://animefire.plus/video/rokudou-no-onna-tachi"
    },
    {
      "id": 3148,
      "nome": "Rokuhoudou Yotsuiro Biyori",
      "link": "https://animefire.plus/animes/rokuhoudou-yotsuiro-biyori-todos-os-episodios",
      "texto_original": "Rokuhoudou Yotsuiro Biyori",
      "rating": 7.64,
      "classificacao_etaria": "A14",
      "imagem_original": "https://animefire.plus/img/animes/rokuhoudou-yotsuiro-biyori.webp",
      "imagem_pasta": "https://animefire.plus/img/animes/rokuhoudou-yotsuiro-biyori/",
      "secao": "legendados",
      "pagina": 152,
      "total_episodios": 9,
      "link_video": "https://animefire.plus/video/rokuhoudou-yotsuiro-biyori"
    },
    {
      "id": 3149,
      "nome": "Rokujouma no Shinryakusha!?",
      "link": "https://animefire.plus/animes/rokujouma-no-shinryakusha-todos-os-episodios",
      "texto_original": "Rokujouma no Shinryakusha!?",
      "rating": 7.27,
      "classificacao_etaria": "A14",
      "imagem_original": "https://animefire.plus/img/animes/rokujouma-no-shinryakusha.webp",
      "imagem_pasta": "https://animefire.plus/img/animes/rokujouma-no-shinryakusha/",
      "secao": "legendados",
      "pagina": 161,
      "total_episodios": 2,
      "link_video": "https://animefire.plus/video/rokujouma-no-shinryakusha"
    },
    {
      "id": 3150,
      "nome": "Rolling☆Girls",
      "link": "https://animefire.plus/animes/rolling-girls-todos-os-episodios",
      "texto_original": "Rolling☆Girls",
      "rating": 6.6,
      "classificacao_etaria": "A14",
      "imagem_original": "https://animefire.plus/img/animes/rolling-girls.webp",
      "imagem_pasta": "https://animefire.plus/img/animes/rolling-girls/",
      "secao": "legendados",
      "pagina": 56,
      "total_episodios": 12,
      "link_video": "https://animefire.plus/video/rolling-girls"
    },
    {
      "id": 3151,
      "nome": "Romantic Killer (Dublado)",
      "link": "https://animefire.plus/animes/romantic-killer-dublado-todos-os-episodios",
      "texto_original": "Romantic Killer (Dublado)",
      "rating": 7.94,
      "classificacao_etaria": "A14",
      "imagem_original": "https://animefire.plus/img/animes/romantic-killer.webp",
      "imagem_pasta": "https://animefire.plus/img/animes/romantic-killer/",
      "secao": "dublados,legendados",
      "pagina": 9,
      "total_episodios": 12,
      "link_video": "https://animefire.plus/video/romantic-killer-dublado"
    },
    {
      "id": 3152,
      "nome": "Romantica Clock",
      "link": "https://animefire.plus/animes/romantica-clock-todos-os-episodios",
      "texto_original": "Romantica Clock",
      "rating": 5.72,
      "classificacao_etaria": null,
      "imagem_original": "https://animefire.plus/img/animes/romantica-clock.webp",
      "imagem_pasta": "https://animefire.plus/img/animes/romantica-clock/",
      "secao": "legendados",
      "pagina": 43,
      "total_episodios": 3,
      "link_video": "https://animefire.plus/video/romantica-clock"
    },
    {
      "id": 3153,
      "nome": "Romeo no Aoi Sora",
      "link": "https://animefire.plus/animes/romeo-no-aoi-sora-todos-os-episodios",
      "texto_original": "Romeo no Aoi Sora",
      "rating": 8.31,
      "classificacao_etaria": "A14",
      "imagem_original": "https://animefire.plus/img/animes/romeo-no-aoi-sora.webp",
      "imagem_pasta": "https://animefire.plus/img/animes/romeo-no-aoi-sora/",
      "secao": "legendados",
      "pagina": 121,
      "total_episodios": 33,
      "link_video": "https://animefire.plus/video/romeo-no-aoi-sora"
    },
    {
      "id": 3154,
      "nome": "Romeo x Juliet",
      "link": "https://animefire.plus/animes/romeo-x-juliet-todos-os-episodios",
      "texto_original": "Romeo x Juliet",
      "rating": 7.76,
      "classificacao_etaria": "A14",
      "imagem_original": "https://animefire.plus/img/animes/romeo-x-juliet.webp",
      "imagem_pasta": "https://animefire.plus/img/animes/romeo-x-juliet/",
      "secao": "legendados",
      "pagina": 133,
      "total_episodios": 24,
      "link_video": "https://animefire.plus/video/romeo-x-juliet"
    },
    {
      "id": 3155,
      "nome": "Room Mate",
      "link": "https://animefire.plus/animes/room-mate-todos-os-episodios",
      "texto_original": "Room Mate",
      "rating": 4.87,
      "classificacao_etaria": "A14",
      "imagem_original": "https://animefire.plus/img/animes/room-mate.webp",
      "imagem_pasta": "https://animefire.plus/img/animes/room-mate/",
      "secao": "legendados",
      "pagina": 114,
      "total_episodios": 12,
      "link_video": "https://animefire.plus/video/room-mate"
    },
    {
      "id": 3156,
      "nome": "Rosario to Vampire",
      "link": "https://animefire.plus/animes/rosario-to-vampire-todos-os-episodios",
      "texto_original": "Rosario to Vampire",
      "rating": 7.01,
      "classificacao_etaria": "A18",
      "imagem_original": "https://animefire.plus/img/animes/rosario-to-vampire.webp",
      "imagem_pasta": "https://animefire.plus/img/animes/rosario-to-vampire/",
      "secao": "legendados",
      "pagina": 163,
      "total_episodios": 13,
      "link_video": "https://animefire.plus/video/rosario-to-vampire"
    },
    {
      "id": 3157,
      "nome": "Rosario to Vampire Capu2",
      "link": "https://animefire.plus/animes/rosario-to-vampire-capu2-todos-os-episodios",
      "texto_original": "Rosario to Vampire Capu2",
      "rating": 7.13,
      "classificacao_etaria": "A14",
      "imagem_original": "https://animefire.plus/img/animes/rosario-to-vampire-capu2.webp",
      "imagem_pasta": "https://animefire.plus/img/animes/rosario-to-vampire-capu2/",
      "secao": "legendados",
      "pagina": 144,
      "total_episodios": 13,
      "link_video": "https://animefire.plus/video/rosario-to-vampire-capu2"
    },
    {
      "id": 3158,
      "nome": "Rougo ni Sonaete Isekai de 8-manmai no Kinka wo Tamemasu (Dublado)",
      "link": "https://animefire.plus/animes/rougo-ni-sonaete-isekai-de-8-manmai-no-kinka-wo-tamemasu-dublado-todos-os-episodios",
      "texto_original": "Rougo ni Sonaete Isekai de 8-manmai no Kinka wo Tamemasu (Dublado)",
      "rating": 6.94,
      "classificacao_etaria": "A14",
      "imagem_original": "https://animefire.plus/img/animes/rougo-ni-sonaete-isekai-de-8-manmai-no-kinka-wo-tamemasu.webp",
      "imagem_pasta": "https://animefire.plus/img/animes/rougo-ni-sonaete-isekai-de-8-manmai-no-kinka-wo-tamemasu/",
      "secao": "dublados,legendados",
      "pagina": 5,
      "total_episodios": 12,
      "link_video": "https://animefire.plus/video/rougo-ni-sonaete-isekai-de-8-manmai-no-kinka-wo-tamemasu-dublado"
    },
    {
      "id": 3159,
      "nome": "Rozen Maiden",
      "link": "https://animefire.plus/animes/rozen-maiden-todos-os-episodios",
      "texto_original": "Rozen Maiden",
      "rating": 7.51,
      "classificacao_etaria": "A14",
      "imagem_original": "https://animefire.plus/img/animes/rozen-maiden.webp",
      "imagem_pasta": "https://animefire.plus/img/animes/rozen-maiden/",
      "secao": "legendados",
      "pagina": 128,
      "total_episodios": 1,
      "link_video": "https://animefire.plus/video/rozen-maiden"
    },
    {
      "id": 3160,
      "nome": "Rozen Maiden (2013)",
      "link": "https://animefire.plus/animes/rozen-maiden-2013-todos-os-episodios",
      "texto_original": "Rozen Maiden (2013)",
      "rating": 7.4,
      "classificacao_etaria": "A14",
      "imagem_original": "https://animefire.plus/img/animes/rozen-maiden-2013.webp",
      "imagem_pasta": "https://animefire.plus/img/animes/rozen-maiden-2013/",
      "secao": "legendados",
      "pagina": 111,
      "total_episodios": 4,
      "link_video": "https://animefire.plus/video/rozen-maiden-2013"
    }
  ],
  "pagination": {
    "current_page": 158,
    "per_page": 20,
    "total_items": 4368,
    "total_pages": 219,
    "has_next": true,
    "has_prev": true
  }
}
