{
  "message": "Lista de animes",
  "data": [
    {
      "id": 2021,
      "nome": "Kishin Houkou Demonbane (TV)",
      "link": "https://animefire.plus/animes/kishin-houkou-demonbane-tv-todos-os-episodios",
      "texto_original": "Kishin Houkou Demonbane (TV)",
      "rating": 6.61,
      "classificacao_etaria": "A16",
      "imagem_original": "https://animefire.plus/img/animes/kishin-houkou-demonbane-tv.webp",
      "imagem_pasta": "https://animefire.plus/img/animes/kishin-houkou-demonbane-tv/",
      "secao": "legendados",
      "pagina": 82,
      "total_episodios": 0,
      "link_video": "https://animefire.plus/video/kishin-houkou-demonbane-tv"
    },
    {
      "id": 2022,
      "nome": "Kishin Taisen Gigantic Formula",
      "link": "https://animefire.plus/animes/kishin-taisen-gigantic-formula-todos-os-episodios",
      "texto_original": "Kishin Taisen Gigantic Formula",
      "rating": 6.92,
      "classificacao_etaria": "A14",
      "imagem_original": "https://animefire.plus/img/animes/kishin-taisen-gigantic-formula.webp",
      "imagem_pasta": "https://animefire.plus/img/animes/kishin-taisen-gigantic-formula/",
      "secao": "legendados",
      "pagina": 167,
      "total_episodios": 20,
      "link_video": "https://animefire.plus/video/kishin-taisen-gigantic-formula"
    },
    {
      "id": 2023,
      "nome": "Kishuku Gakkou no Juliet",
      "link": "https://animefire.plus/animes/kishuku-gakkou-no-juliet-todos-os-episodios",
      "texto_original": "Kishuku Gakkou no Juliet",
      "rating": 7.61,
      "classificacao_etaria": "A14",
      "imagem_original": "https://animefire.plus/img/animes/kishuku-gakkou-no-juliet.webp",
      "imagem_pasta": "https://animefire.plus/img/animes/kishuku-gakkou-no-juliet/",
      "secao": "legendados",
      "pagina": 167,
      "total_episodios": 12,
      "link_video": "https://animefire.plus/video/kishuku-gakkou-no-juliet"
    },
    {
      "id": 2024,
      "nome": "Kiss Dum: Engage Planet",
      "link": "https://animefire.plus/animes/kiss-dum-engage-planet-todos-os-episodios",
      "texto_original": "Kiss Dum: Engage Planet",
      "rating": 6.69,
      "classificacao_etaria": "A14",
      "imagem_original": "https://animefire.plus/img/animes/kiss-dum-engage-planet.webp",
      "imagem_pasta": "https://animefire.plus/img/animes/kiss-dum-engage-planet/",
      "secao": "legendados",
      "pagina": 176,
      "total_episodios": 21,
      "link_video": "https://animefire.plus/video/kiss-dum-engage-planet"
    },
    {
      "id": 2025,
      "nome": "Kiss x Sis",
      "link": "https://animefire.plus/animes/kiss-x-sis-todos-os-episodios",
      "texto_original": "Kiss x Sis",
      "rating": 7.11,
      "classificacao_etaria": "A18",
      "imagem_original": "https://animefire.plus/img/animes/kiss-x-sis.webp",
      "imagem_pasta": "https://animefire.plus/img/animes/kiss-x-sis/",
      "secao": "legendados",
      "pagina": 154,
      "total_episodios": 12,
      "link_video": "https://animefire.plus/video/kiss-x-sis"
    },
    {
      "id": 2026,
      "nome": "Kiss x Sis (TV)",
      "link": "https://animefire.plus/animes/kiss-x-sis-tv-todos-os-episodios",
      "texto_original": "Kiss x Sis (TV)",
      "rating": 6.78,
      "classificacao_etaria": "A14",
      "imagem_original": "https://animefire.plus/img/animes/kiss-x-sis-tv.webp",
      "imagem_pasta": "https://animefire.plus/img/animes/kiss-x-sis-tv/",
      "secao": "legendados",
      "pagina": 73,
      "total_episodios": 12,
      "link_video": "https://animefire.plus/video/kiss-x-sis-tv"
    },
    {
      "id": 2027,
      "nome": "Kitakubu Katsudou Kiroku",
      "link": "https://animefire.plus/animes/kitakubu-katsudou-kiroku-todos-os-episodios",
      "texto_original": "Kitakubu Katsudou Kiroku",
      "rating": 6.82,
      "classificacao_etaria": "A14",
      "imagem_original": "https://animefire.plus/img/animes/kitakubu-katsudou-kiroku.webp",
      "imagem_pasta": "https://animefire.plus/img/animes/kitakubu-katsudou-kiroku/",
      "secao": "legendados",
      "pagina": 124,
      "total_episodios": 12,
      "link_video": "https://animefire.plus/video/kitakubu-katsudou-kiroku"
    },
    {
      "id": 2028,
      "nome": "Kitsune no Koe",
      "link": "https://animefire.plus/animes/kitsune-no-koe-todos-os-episodios",
      "texto_original": "Kitsune no Koe",
      "rating": 6.62,
      "classificacao_etaria": "A14",
      "imagem_original": "https://animefire.plus/img/animes/kitsune-no-koe.webp",
      "imagem_pasta": "https://animefire.plus/img/animes/kitsune-no-koe/",
      "secao": "legendados",
      "pagina": 158,
      "total_episodios": 12,
      "link_video": "https://animefire.plus/video/kitsune-no-koe"
    },
    {
      "id": 2029,
      "nome": "Kitsutsuki Tanteidokoro",
      "link": "https://animefire.plus/animes/kitsutsuki-tanteidokoro-todos-os-episodios",
      "texto_original": "Kitsutsuki Tanteidokoro",
      "rating": 6.03,
      "classificacao_etaria": "A16",
      "imagem_original": "https://animefire.plus/img/animes/kitsutsuki-tanteidokoro.webp",
      "imagem_pasta": "https://animefire.plus/img/animes/kitsutsuki-tanteidokoro/",
      "secao": "legendados",
      "pagina": 80,
      "total_episodios": 1,
      "link_video": "https://animefire.plus/video/kitsutsuki-tanteidokoro"
    },
    {
      "id": 2030,
      "nome": "Kizetsu Yuusha to Ansatsu Hime",
      "link": "https://animefire.plus/animes/kizetsu-yuusha-to-ansatsu-hime-todos-os-episodios",
      "texto_original": "Kizetsu Yuusha to Ansatsu Hime",
      "rating": 6.38,
      "classificacao_etaria": "A14",
      "imagem_original": "https://animefire.plus/img/animes/kizetsu-yuusha-to-ansatsu-hime.webp",
      "imagem_pasta": "https://animefire.plus/img/animes/kizetsu-yuusha-to-ansatsu-hime/",
      "secao": "legendados,lancamentos",
      "pagina": 2,
      "total_episodios": 5,
      "link_video": "https://animefire.plus/video/kizetsu-yuusha-to-ansatsu-hime"
    },
    {
      "id": 2031,
      "nome": "Kiznaiver",
      "link": "https://animefire.plus/animes/kiznaiver-todos-os-episodios",
      "texto_original": "Kiznaiver",
      "rating": 7.54,
      "classificacao_etaria": "A14",
      "imagem_original": "https://animefire.plus/img/animes/kiznaiver.webp",
      "imagem_pasta": "https://animefire.plus/img/animes/kiznaiver/",
      "secao": "legendados",
      "pagina": 139,
      "total_episodios": 12,
      "link_video": "https://animefire.plus/video/kiznaiver"
    },
    {
      "id": 2032,
      "nome": "Kizu darake Seijo yori Houfuku wo Komete",
      "link": "https://animefire.plus/animes/kizu-darake-seijo-yori-houfuku-wo-komete-todos-os-episodios",
      "texto_original": "Kizu darake Seijo yori Houfuku wo Komete",
      "rating": 5.59,
      "classificacao_etaria": "A14",
      "imagem_original": "https://animefire.plus/img/animes/kizu-darake-seijo-yori-houfuku-wo-komete.webp",
      "imagem_pasta": "https://animefire.plus/img/animes/kizu-darake-seijo-yori-houfuku-wo-komete/",
      "secao": "legendados,lancamentos",
      "pagina": 1,
      "total_episodios": 0,
      "link_video": "https://animefire.plus/video/kizu-darake-seijo-yori-houfuku-wo-komete"
    },
    {
      "id": 2033,
      "nome": "KJ File (Zoku-hen)",
      "link": "https://animefire.plus/animes/kj-file-zoku-hen-todos-os-episodios",
      "texto_original": "KJ File (Zoku-hen)",
      "rating": 5.23,
      "classificacao_etaria": "A14",
      "imagem_original": "https://animefire.plus/img/animes/kj-file-zoku-hen.webp",
      "imagem_pasta": "https://animefire.plus/img/animes/kj-file-zoku-hen/",
      "secao": "legendados,lancamentos",
      "pagina": 26,
      "total_episodios": 0,
      "link_video": "https://animefire.plus/video/kj-file-zoku-hen"
    },
    {
      "id": 2034,
      "nome": "Knight's & Magic",
      "link": "https://animefire.plus/animes/knight-s-magic-todos-os-episodios",
      "texto_original": "Knight's & Magic",
      "rating": 7.28,
      "classificacao_etaria": "A14",
      "imagem_original": "https://animefire.plus/img/animes/knight-s-magic.webp",
      "imagem_pasta": "https://animefire.plus/img/animes/knight-s-magic/",
      "secao": "legendados",
      "pagina": 101,
      "total_episodios": 13,
      "link_video": "https://animefire.plus/video/knight-s-magic"
    },
    {
      "id": 2035,
      "nome": "Knights of the Zodiac: Saint Seiya - Battle for Sanctuary (Dublado)",
      "link": "https://animefire.plus/animes/knights-of-the-zodiac-saint-seiya---battle-for-sanctuary-dublado-todos-os-episodios",
      "texto_original": "Knights of the Zodiac: Saint Seiya - Battle for Sanctuary (Dublado)",
      "rating": 6.22,
      "classificacao_etaria": "A14",
      "imagem_original": "https://animefire.plus/img/animes/knights-of-the-zodiac-saint-seiya---battle-for-sanctuary.webp",
      "imagem_pasta": "https://animefire.plus/img/animes/knights-of-the-zodiac-saint-seiya---battle-for-sanctuary/",
      "secao": "dublados,legendados,lancamentos",
      "pagina": 8,
      "total_episodios": 12,
      "link_video": "https://animefire.plus/video/knights-of-the-zodiac-saint-seiya---battle-for-sanctuary-dublado"
    },
    {
      "id": 2036,
      "nome": "Knights of the Zodiac: Saint Seiya (Dublado)",
      "link": "https://animefire.plus/animes/knights-of-the-zodiac-saint-seiya-dublado-todos-os-episodios",
      "texto_original": "Knights of the Zodiac: Saint Seiya (Dublado)",
      "rating": 5.15,
      "classificacao_etaria": "A14",
      "imagem_original": "https://animefire.plus/img/animes/knights-of-the-zodiac-saint-seiya.webp",
      "imagem_pasta": "https://animefire.plus/img/animes/knights-of-the-zodiac-saint-seiya/",
      "secao": "dublados",
      "pagina": 24,
      "total_episodios": 12,
      "link_video": "https://animefire.plus/video/knights-of-the-zodiac-saint-seiya-dublado"
    },
    {
      "id": 2037,
      "nome": "Kobato.",
      "link": "https://animefire.plus/animes/kobato-todos-os-episodios",
      "texto_original": "Kobato.",
      "rating": 8.04,
      "classificacao_etaria": "A14",
      "imagem_original": "https://animefire.plus/img/animes/kobato.webp",
      "imagem_pasta": "https://animefire.plus/img/animes/kobato/",
      "secao": "legendados",
      "pagina": 123,
      "total_episodios": 23,
      "link_video": "https://animefire.plus/video/kobato"
    },
    {
      "id": 2038,
      "nome": "Kobayashi-san Chi no Maid Dragon (Dublado)",
      "link": "https://animefire.plus/animes/kobayashi-san-chi-no-maid-dragon-dublado-todos-os-episodios",
      "texto_original": "Kobayashi-san Chi no Maid Dragon (Dublado)",
      "rating": 8.14,
      "classificacao_etaria": "A14",
      "imagem_original": "https://animefire.plus/img/animes/kobayashi-san-chi-no-maid-dragon.webp",
      "imagem_pasta": "https://animefire.plus/img/animes/kobayashi-san-chi-no-maid-dragon/",
      "secao": "dublados,legendados",
      "pagina": 26,
      "total_episodios": 0,
      "link_video": "https://animefire.plus/video/kobayashi-san-chi-no-maid-dragon-dublado"
    },
    {
      "id": 2039,
      "nome": "Kobayashi-san Chi no Maid Dragon S (Dublado)",
      "link": "https://animefire.plus/animes/kobayashi-san-chi-no-maid-dragon-s-dublado-todos-os-episodios",
      "texto_original": "Kobayashi-san Chi no Maid Dragon S (Dublado)",
      "rating": 8.22,
      "classificacao_etaria": "A14",
      "imagem_original": "https://animefire.plus/img/animes/kobayashi-san-chi-no-maid-dragon-s.webp",
      "imagem_pasta": "https://animefire.plus/img/animes/kobayashi-san-chi-no-maid-dragon-s/",
      "secao": "dublados,legendados",
      "pagina": 16,
      "total_episodios": 12,
      "link_video": "https://animefire.plus/video/kobayashi-san-chi-no-maid-dragon-s-dublado"
    },
    {
      "id": 2040,
      "nome": "Kobayashi-san Chi no Maid Dragon S: Nippon no Omotenashi - Attend wa Dragon Desu (Dublado)",
      "link": "https://animefire.plus/animes/kobayashi-san-chi-no-maid-dragon-s-nippon-no-omotenashi---attend-wa-dragon-desu-dublado-todos-os-episodios",
      "texto_original": "Kobayashi-san Chi no Maid Dragon S: Nippon no Omotenashi - Attend wa Dragon Desu (Dublado)",
      "rating": 7.79,
      "classificacao_etaria": "A14",
      "imagem_original": "https://animefire.plus/img/animes/kobayashi-san-chi-no-maid-dragon-s-nippon-no-omotenashi---attend-wa-dragon-desu.webp",
      "imagem_pasta": "https://animefire.plus/img/animes/kobayashi-san-chi-no-maid-dragon-s-nippon-no-omotenashi---attend-wa-dragon-desu/",
      "secao": "dublados",
      "pagina": 10,
      "total_episodios": 1,
      "link_video": "https://animefire.plus/video/kobayashi-san-chi-no-maid-dragon-s-nippon-no-omotenashi---attend-wa-dragon-desu-dublado"
    }
  ],
  "pagination": {
    "current_page": 102,
    "per_page": 20,
    "total_items": 4368,
    "total_pages": 219,
    "has_next": true,
    "has_prev": true
  }
}
