{
  "message": "Lista de animes",
  "data": [
    {
      "id": 2821,
      "nome": "Omae wa Mada Gunma wo Shiranai",
      "link": "https://animefire.plus/animes/omae-wa-mada-gunma-wo-shiranai-todos-os-episodios",
      "texto_original": "Omae wa Mada Gunma wo Shiranai",
      "rating": 5.26,
      "classificacao_etaria": "A14",
      "imagem_original": "https://animefire.plus/img/animes/omae-wa-mada-gunma-wo-shiranai.webp",
      "imagem_pasta": "https://animefire.plus/img/animes/omae-wa-mada-gunma-wo-shiranai/",
      "secao": "legendados",
      "pagina": 136,
      "total_episodios": 12,
      "link_video": "https://animefire.plus/video/omae-wa-mada-gunma-wo-shiranai"
    },
    {
      "id": 2822,
      "nome": "Omamori Himari",
      "link": "https://animefire.plus/animes/omamori-himari-todos-os-episodios",
      "texto_original": "Omamori Himari",
      "rating": 7.06,
      "classificacao_etaria": "A18",
      "imagem_original": "https://animefire.plus/img/animes/omamori-himari.webp",
      "imagem_pasta": "https://animefire.plus/img/animes/omamori-himari/",
      "secao": "legendados",
      "pagina": 124,
      "total_episodios": 0,
      "link_video": "https://animefire.plus/video/omamori-himari"
    },
    {
      "id": 2823,
      "nome": "Omishi Mahou Gekijou: Risky★Safety",
      "link": "https://animefire.plus/animes/omishi-mahou-gekijou-risky-safety-todos-os-episodios",
      "texto_original": "Omishi Mahou Gekijou: Risky★Safety",
      "rating": 6.76,
      "classificacao_etaria": "A10",
      "imagem_original": "https://animefire.plus/img/animes/omishi-mahou-gekijou-risky-safety.webp",
      "imagem_pasta": "https://animefire.plus/img/animes/omishi-mahou-gekijou-risky-safety/",
      "secao": "legendados",
      "pagina": 144,
      "total_episodios": 24,
      "link_video": "https://animefire.plus/video/omishi-mahou-gekijou-risky-safety"
    },
    {
      "id": 2824,
      "nome": "Omoi No Kakera",
      "link": "https://animefire.plus/animes/omoi-no-kakera-todos-os-episodios",
      "texto_original": "Omoi No Kakera",
      "rating": 6.58,
      "classificacao_etaria": "A14",
      "imagem_original": "https://animefire.plus/img/animes/omoi-no-kakera.webp",
      "imagem_pasta": "https://animefire.plus/img/animes/omoi-no-kakera/",
      "secao": "legendados",
      "pagina": 101,
      "total_episodios": 1,
      "link_video": "https://animefire.plus/video/omoi-no-kakera"
    },
    {
      "id": 2825,
      "nome": "One Outs",
      "link": "https://animefire.plus/animes/one-outs-todos-os-episodios",
      "texto_original": "One Outs",
      "rating": 8.39,
      "classificacao_etaria": "A14",
      "imagem_original": "https://animefire.plus/img/animes/one-outs.webp",
      "imagem_pasta": "https://animefire.plus/img/animes/one-outs/",
      "secao": "legendados",
      "pagina": 114,
      "total_episodios": 25,
      "link_video": "https://animefire.plus/video/one-outs"
    },
    {
      "id": 2826,
      "nome": "One Piece (Dublado)",
      "link": "https://animefire.plus/animes/one-piece-dublado-todos-os-episodios",
      "texto_original": "One Piece (Dublado)",
      "rating": 8.49,
      "classificacao_etaria": "A14",
      "imagem_original": "https://animefire.plus/img/animes/one-piece.webp",
      "imagem_pasta": "https://animefire.plus/img/animes/one-piece/",
      "secao": "dublados,legendados,lancamentos",
      "pagina": 20,
      "total_episodios": 834,
      "link_video": "https://animefire.plus/video/one-piece-dublado"
    },
    {
      "id": 2827,
      "nome": "One Piece 3D2Y: Ace no shi wo Koete! Luffy Nakama Tono Chikai",
      "link": "https://animefire.plus/animes/one-piece-3d2y-ace-no-shi-wo-koete-luffy-nakama-tono-chikai-todos-os-episodios",
      "texto_original": "One Piece 3D2Y: Ace no shi wo Koete! Luffy Nakama Tono Chikai",
      "rating": 7.97,
      "classificacao_etaria": "A14",
      "imagem_original": "https://animefire.plus/img/animes/one-piece-3d2y-ace-no-shi-wo-koete-luffy-nakama-tono-chikai.webp",
      "imagem_pasta": "https://animefire.plus/img/animes/one-piece-3d2y-ace-no-shi-wo-koete-luffy-nakama-tono-chikai/",
      "secao": "legendados",
      "pagina": 77,
      "total_episodios": 1,
      "link_video": "https://animefire.plus/video/one-piece-3d2y-ace-no-shi-wo-koete-luffy-nakama-tono-chikai"
    },
    {
      "id": 2828,
      "nome": "One Piece Film: Strong World Episode 0",
      "link": "https://animefire.plus/animes/one-piece-film-strong-world-episode-0-todos-os-episodios",
      "texto_original": "One Piece Film: Strong World Episode 0",
      "rating": 8.04,
      "classificacao_etaria": "A14",
      "imagem_original": "https://animefire.plus/img/animes/one-piece-film-strong-world-episode-0.webp",
      "imagem_pasta": "https://animefire.plus/img/animes/one-piece-film-strong-world-episode-0/",
      "secao": "legendados",
      "pagina": 77,
      "total_episodios": 1,
      "link_video": "https://animefire.plus/video/one-piece-film-strong-world-episode-0"
    },
    {
      "id": 2829,
      "nome": "One Piece: Adventure of Nebulandia",
      "link": "https://animefire.plus/animes/one-piece-adventure-of-nebulandia-todos-os-episodios",
      "texto_original": "One Piece: Adventure of Nebulandia",
      "rating": 7.34,
      "classificacao_etaria": "A14",
      "imagem_original": "https://animefire.plus/img/animes/one-piece-adventure-of-nebulandia.webp",
      "imagem_pasta": "https://animefire.plus/img/animes/one-piece-adventure-of-nebulandia/",
      "secao": "legendados",
      "pagina": 74,
      "total_episodios": 0,
      "link_video": "https://animefire.plus/video/one-piece-adventure-of-nebulandia"
    },
    {
      "id": 2830,
      "nome": "One Piece: Episode of Luffy - Hand Island no Bouken",
      "link": "https://animefire.plus/animes/one-piece-episode-of-luffy---hand-island-no-bouken-todos-os-episodios",
      "texto_original": "One Piece: Episode of Luffy - Hand Island no Bouken",
      "rating": 7.7,
      "classificacao_etaria": "A14",
      "imagem_original": "https://animefire.plus/img/animes/one-piece-episode-of-luffy---hand-island-no-bouken.webp",
      "imagem_pasta": "https://animefire.plus/img/animes/one-piece-episode-of-luffy---hand-island-no-bouken/",
      "secao": "legendados",
      "pagina": 75,
      "total_episodios": 0,
      "link_video": "https://animefire.plus/video/one-piece-episode-of-luffy---hand-island-no-bouken"
    },
    {
      "id": 2831,
      "nome": "One Piece: Episode of Merry - Mou Hitori no Nakama no Monogatari",
      "link": "https://animefire.plus/animes/one-piece-episode-of-merry---mou-hitori-no-nakama-no-monogatari-todos-os-episodios",
      "texto_original": "One Piece: Episode of Merry - Mou Hitori no Nakama no Monogatari",
      "rating": 8.22,
      "classificacao_etaria": "A14",
      "imagem_original": "https://animefire.plus/img/animes/one-piece-episode-of-merry---mou-hitori-no-nakama-no-monogatari.webp",
      "imagem_pasta": "https://animefire.plus/img/animes/one-piece-episode-of-merry---mou-hitori-no-nakama-no-monogatari/",
      "secao": "legendados",
      "pagina": 75,
      "total_episodios": 0,
      "link_video": "https://animefire.plus/video/one-piece-episode-of-merry---mou-hitori-no-nakama-no-monogatari"
    },
    {
      "id": 2832,
      "nome": "One Piece: Episode of Nami - Koukaishi no Namida to Nakama no Kizuna",
      "link": "https://animefire.plus/animes/one-piece-episode-of-nami---koukaishi-no-namida-to-nakama-no-kizuna-todos-os-episodios",
      "texto_original": "One Piece: Episode of Nami - Koukaishi no Namida to Nakama no Kizuna",
      "rating": 8.17,
      "classificacao_etaria": "A14",
      "imagem_original": "https://animefire.plus/img/animes/one-piece-episode-of-nami---koukaishi-no-namida-to-nakama-no-kizuna.webp",
      "imagem_pasta": "https://animefire.plus/img/animes/one-piece-episode-of-nami---koukaishi-no-namida-to-nakama-no-kizuna/",
      "secao": "legendados",
      "pagina": 74,
      "total_episodios": 0,
      "link_video": "https://animefire.plus/video/one-piece-episode-of-nami---koukaishi-no-namida-to-nakama-no-kizuna"
    },
    {
      "id": 2833,
      "nome": "One Piece: Episode of Sorajima",
      "link": "https://animefire.plus/animes/one-piece-episode-of-sorajima-todos-os-episodios",
      "texto_original": "One Piece: Episode of Sorajima",
      "rating": 7.13,
      "classificacao_etaria": "A14",
      "imagem_original": "https://animefire.plus/img/animes/one-piece-episode-of-sorajima.webp",
      "imagem_pasta": "https://animefire.plus/img/animes/one-piece-episode-of-sorajima/",
      "secao": "legendados",
      "pagina": 75,
      "total_episodios": 0,
      "link_video": "https://animefire.plus/video/one-piece-episode-of-sorajima"
    },
    {
      "id": 2834,
      "nome": "One Piece: Gyojin Tou-hen",
      "link": "https://animefire.plus/animes/one-piece-gyojin-tou-hen-todos-os-episodios",
      "texto_original": "One Piece: Gyojin Tou-hen",
      "rating": 7.92,
      "classificacao_etaria": "A14",
      "imagem_original": "https://animefire.plus/img/animes/one-piece-gyojin-tou-hen.webp",
      "imagem_pasta": "https://animefire.plus/img/animes/one-piece-gyojin-tou-hen/",
      "secao": "legendados",
      "pagina": 8,
      "total_episodios": 21,
      "link_video": "https://animefire.plus/video/one-piece-gyojin-tou-hen"
    },
    {
      "id": 2835,
      "nome": "One Piece: Heart of Gold",
      "link": "https://animefire.plus/animes/one-piece-heart-of-gold-todos-os-episodios",
      "texto_original": "One Piece: Heart of Gold",
      "rating": 7.58,
      "classificacao_etaria": "A14",
      "imagem_original": "https://animefire.plus/img/animes/one-piece-heart-of-gold.webp",
      "imagem_pasta": "https://animefire.plus/img/animes/one-piece-heart-of-gold/",
      "secao": "legendados",
      "pagina": 78,
      "total_episodios": 1,
      "link_video": "https://animefire.plus/video/one-piece-heart-of-gold"
    },
    {
      "id": 2836,
      "nome": "One Piece: Taose! Kaizoku Ganzack",
      "link": "https://animefire.plus/animes/one-piece-taose-kaizoku-ganzack-todos-os-episodios",
      "texto_original": "One Piece: Taose! Kaizoku Ganzack",
      "rating": 6.76,
      "classificacao_etaria": "A10",
      "imagem_original": "https://animefire.plus/img/animes/one-piece-taose-kaizoku-ganzack.webp",
      "imagem_pasta": "https://animefire.plus/img/animes/one-piece-taose-kaizoku-ganzack/",
      "secao": "legendados",
      "pagina": 55,
      "total_episodios": 1,
      "link_video": "https://animefire.plus/video/one-piece-taose-kaizoku-ganzack"
    },
    {
      "id": 2837,
      "nome": "One Pound Gospel",
      "link": "https://animefire.plus/animes/one-pound-gospel-todos-os-episodios",
      "texto_original": "One Pound Gospel",
      "rating": 6.5,
      "classificacao_etaria": "A14",
      "imagem_original": "https://animefire.plus/img/animes/one-pound-gospel.webp",
      "imagem_pasta": "https://animefire.plus/img/animes/one-pound-gospel/",
      "secao": "legendados",
      "pagina": 66,
      "total_episodios": 1,
      "link_video": "https://animefire.plus/video/one-pound-gospel"
    },
    {
      "id": 2838,
      "nome": "One Punch Man (Dublado)",
      "link": "https://animefire.plus/animes/one-punch-man-dublado-todos-os-episodios",
      "texto_original": "One Punch Man (Dublado)",
      "rating": 8.7,
      "classificacao_etaria": "A16",
      "imagem_original": "https://animefire.plus/img/animes/one-punch-man.webp",
      "imagem_pasta": "https://animefire.plus/img/animes/one-punch-man/",
      "secao": "dublados,legendados",
      "pagina": 28,
      "total_episodios": 12,
      "link_video": "https://animefire.plus/video/one-punch-man-dublado"
    },
    {
      "id": 2839,
      "nome": "One Punch Man 2nd Season (Dublado)",
      "link": "https://animefire.plus/animes/one-punch-man-2nd-season-dublado-todos-os-episodios",
      "texto_original": "One Punch Man 2nd Season (Dublado)",
      "rating": 7.44,
      "classificacao_etaria": "A16",
      "imagem_original": "https://animefire.plus/img/animes/one-punch-man-2nd-season.webp",
      "imagem_pasta": "https://animefire.plus/img/animes/one-punch-man-2nd-season/",
      "secao": "dublados,legendados",
      "pagina": 13,
      "total_episodios": 12,
      "link_video": "https://animefire.plus/video/one-punch-man-2nd-season-dublado"
    },
    {
      "id": 2840,
      "nome": "One Punch Man 2nd Season Commemorative Special",
      "link": "https://animefire.plus/animes/one-punch-man-2nd-season-commemorative-special-todos-os-episodios",
      "texto_original": "One Punch Man 2nd Season Commemorative Special",
      "rating": 6.71,
      "classificacao_etaria": "A16",
      "imagem_original": "https://animefire.plus/img/animes/one-punch-man-2nd-season-commemorative-special.webp",
      "imagem_pasta": "https://animefire.plus/img/animes/one-punch-man-2nd-season-commemorative-special/",
      "secao": "legendados",
      "pagina": 89,
      "total_episodios": 1,
      "link_video": "https://animefire.plus/video/one-punch-man-2nd-season-commemorative-special"
    }
  ],
  "pagination": {
    "current_page": 142,
    "per_page": 20,
    "total_items": 4368,
    "total_pages": 219,
    "has_next": true,
    "has_prev": true
  }
}
