{
  "message": "Lista de animes",
  "data": [
    {
      "id": 641,
      "nome": "Chuubyou Gekihatsu Boy Special",
      "link": "https://animefire.plus/animes/chuubyou-gekihatsu-boy-special-todos-os-episodios",
      "texto_original": "Chuubyou Gekihatsu Boy Special",
      "rating": 6.83,
      "classificacao_etaria": "A14",
      "imagem_original": "https://animefire.plus/img/animes/chuubyou-gekihatsu-boy-special.webp",
      "imagem_pasta": "https://animefire.plus/img/animes/chuubyou-gekihatsu-boy-special/",
      "secao": "legendados",
      "pagina": 51,
      "total_episodios": 1,
      "link_video": "https://animefire.plus/video/chuubyou-gekihatsu-boy-special"
    },
    {
      "id": 642,
      "nome": "Chuukan Kanriroku Tonegawa",
      "link": "https://animefire.plus/animes/chuukan-kanriroku-tonegawa-todos-os-episodios",
      "texto_original": "Chuukan Kanriroku Tonegawa",
      "rating": 7.16,
      "classificacao_etaria": "A14",
      "imagem_original": "https://animefire.plus/img/animes/chuukan-kanriroku-tonegawa.webp",
      "imagem_pasta": "https://animefire.plus/img/animes/chuukan-kanriroku-tonegawa/",
      "secao": "legendados",
      "pagina": 134,
      "total_episodios": 18,
      "link_video": "https://animefire.plus/video/chuukan-kanriroku-tonegawa"
    },
    {
      "id": 643,
      "nome": "Chuunibyou demo Koi ga Shitai!",
      "link": "https://animefire.plus/animes/chuunibyou-demo-koi-ga-shitai-todos-os-episodios",
      "texto_original": "Chuunibyou demo Koi ga Shitai!",
      "rating": 7.86,
      "classificacao_etaria": "A14",
      "imagem_original": "https://animefire.plus/img/animes/chuunibyou-demo-koi-ga-shitai.webp",
      "imagem_pasta": "https://animefire.plus/img/animes/chuunibyou-demo-koi-ga-shitai/",
      "secao": "legendados",
      "pagina": 116,
      "total_episodios": 12,
      "link_video": "https://animefire.plus/video/chuunibyou-demo-koi-ga-shitai"
    },
    {
      "id": 644,
      "nome": "Chuunibyou demo Koi ga Shitai! Lite",
      "link": "https://animefire.plus/animes/chuunibyou-demo-koi-ga-shitai-lite-todos-os-episodios",
      "texto_original": "Chuunibyou demo Koi ga Shitai! Lite",
      "rating": 7.27,
      "classificacao_etaria": "A14",
      "imagem_original": "https://animefire.plus/img/animes/chuunibyou-demo-koi-ga-shitai-lite.webp",
      "imagem_pasta": "https://animefire.plus/img/animes/chuunibyou-demo-koi-ga-shitai-lite/",
      "secao": "legendados",
      "pagina": 54,
      "total_episodios": 1,
      "link_video": "https://animefire.plus/video/chuunibyou-demo-koi-ga-shitai-lite"
    },
    {
      "id": 645,
      "nome": "Chuunibyou demo Koi ga Shitai! Ren",
      "link": "https://animefire.plus/animes/chuunibyou-demo-koi-ga-shitai-ren-todos-os-episodios",
      "texto_original": "Chuunibyou demo Koi ga Shitai! Ren",
      "rating": 7.6,
      "classificacao_etaria": "A14",
      "imagem_original": "https://animefire.plus/img/animes/chuunibyou-demo-koi-ga-shitai-ren.webp",
      "imagem_pasta": "https://animefire.plus/img/animes/chuunibyou-demo-koi-ga-shitai-ren/",
      "secao": "legendados",
      "pagina": 114,
      "total_episodios": 12,
      "link_video": "https://animefire.plus/video/chuunibyou-demo-koi-ga-shitai-ren"
    },
    {
      "id": 646,
      "nome": "Chuunibyou demo Koi ga Shitai! Ren Specials",
      "link": "https://animefire.plus/animes/chuunibyou-demo-koi-ga-shitai-ren-specials-todos-os-episodios",
      "texto_original": "Chuunibyou demo Koi ga Shitai! Ren Specials",
      "rating": 7.11,
      "classificacao_etaria": "A14",
      "imagem_original": "https://animefire.plus/img/animes/chuunibyou-demo-koi-ga-shitai-ren-specials.webp",
      "imagem_pasta": "https://animefire.plus/img/animes/chuunibyou-demo-koi-ga-shitai-ren-specials/",
      "secao": "legendados",
      "pagina": 54,
      "total_episodios": 1,
      "link_video": "https://animefire.plus/video/chuunibyou-demo-koi-ga-shitai-ren-specials"
    },
    {
      "id": 647,
      "nome": "Chuunibyou demo Koi ga Shitai!: Depth of Field - Ai to Nikushimi Gekijou",
      "link": "https://animefire.plus/animes/chuunibyou-demo-koi-ga-shitai-depth-of-field---ai-to-nikushimi-gekijou-todos-os-episodios",
      "texto_original": "Chuunibyou demo Koi ga Shitai!: Depth of Field - Ai to Nikushimi Gekijou",
      "rating": 6.72,
      "classificacao_etaria": "A14",
      "imagem_original": "https://animefire.plus/img/animes/chuunibyou-demo-koi-ga-shitai-depth-of-field---ai-to-nikushimi-gekijou.webp",
      "imagem_pasta": "https://animefire.plus/img/animes/chuunibyou-demo-koi-ga-shitai-depth-of-field---ai-to-nikushimi-gekijou/",
      "secao": "legendados",
      "pagina": 44,
      "total_episodios": 7,
      "link_video": "https://animefire.plus/video/chuunibyou-demo-koi-ga-shitai-depth-of-field---ai-to-nikushimi-gekijou"
    },
    {
      "id": 648,
      "nome": "Chuunibyou demo Koi ga Shitai!: Kirameki no... Slapstick Noel",
      "link": "https://animefire.plus/animes/chuunibyou-demo-koi-ga-shitai-kirameki-no-slapstick-noel-todos-os-episodios",
      "texto_original": "Chuunibyou demo Koi ga Shitai!: Kirameki no... Slapstick Noel",
      "rating": 7.51,
      "classificacao_etaria": "A14",
      "imagem_original": "https://animefire.plus/img/animes/chuunibyou-demo-koi-ga-shitai-kirameki-no-slapstick-noel.webp",
      "imagem_pasta": "https://animefire.plus/img/animes/chuunibyou-demo-koi-ga-shitai-kirameki-no-slapstick-noel/",
      "secao": "legendados",
      "pagina": 44,
      "total_episodios": 1,
      "link_video": "https://animefire.plus/video/chuunibyou-demo-koi-ga-shitai-kirameki-no-slapstick-noel"
    },
    {
      "id": 649,
      "nome": "Chuuzenji-sensei Mononoke Kougiroku: Sensei ga Nazo wo Hodoite Shimau kara.",
      "link": "https://animefire.plus/animes/chuuzenji-sensei-mononoke-kougiroku-sensei-ga-nazo-wo-hodoite-shimau-kara-todos-os-episodios",
      "texto_original": "Chuuzenji-sensei Mononoke Kougiroku: Sensei ga Nazo wo Hodoite Shimau kara.",
      "rating": 6.52,
      "classificacao_etaria": "A14",
      "imagem_original": "https://animefire.plus/img/animes/chuuzenji-sensei-mononoke-kougiroku-sensei-ga-nazo-wo-hodoite-shimau-kara.webp",
      "imagem_pasta": "https://animefire.plus/img/animes/chuuzenji-sensei-mononoke-kougiroku-sensei-ga-nazo-wo-hodoite-shimau-kara/",
      "secao": "legendados",
      "pagina": 4,
      "total_episodios": 12,
      "link_video": "https://animefire.plus/video/chuuzenji-sensei-mononoke-kougiroku-sensei-ga-nazo-wo-hodoite-shimau-kara"
    },
    {
      "id": 650,
      "nome": "Cinderella Boy",
      "link": "https://animefire.plus/animes/cinderella-boy-todos-os-episodios",
      "texto_original": "Cinderella Boy",
      "rating": 6.35,
      "classificacao_etaria": "A14",
      "imagem_original": "https://animefire.plus/img/animes/cinderella-boy.webp",
      "imagem_pasta": "https://animefire.plus/img/animes/cinderella-boy/",
      "secao": "legendados",
      "pagina": 96,
      "total_episodios": 0,
      "link_video": "https://animefire.plus/video/cinderella-boy"
    },
    {
      "id": 651,
      "nome": "Cinderella Girls Gekijou",
      "link": "https://animefire.plus/animes/cinderella-girls-gekijou-todos-os-episodios",
      "texto_original": "Cinderella Girls Gekijou",
      "rating": 6.56,
      "classificacao_etaria": "A14",
      "imagem_original": "https://animefire.plus/img/animes/cinderella-girls-gekijou.webp",
      "imagem_pasta": "https://animefire.plus/img/animes/cinderella-girls-gekijou/",
      "secao": "legendados",
      "pagina": 63,
      "total_episodios": 52,
      "link_video": "https://animefire.plus/video/cinderella-girls-gekijou"
    },
    {
      "id": 652,
      "nome": "Cinderella Girls Gekijou 3rd Season",
      "link": "https://animefire.plus/animes/cinderella-girls-gekijou-3rd-season-todos-os-episodios",
      "texto_original": "Cinderella Girls Gekijou 3rd Season",
      "rating": 6.56,
      "classificacao_etaria": "A14",
      "imagem_original": "https://animefire.plus/img/animes/cinderella-girls-gekijou-3rd-season.webp",
      "imagem_pasta": "https://animefire.plus/img/animes/cinderella-girls-gekijou-3rd-season/",
      "secao": "legendados",
      "pagina": 177,
      "total_episodios": 13,
      "link_video": "https://animefire.plus/video/cinderella-girls-gekijou-3rd-season"
    },
    {
      "id": 653,
      "nome": "Cinderella Monogatari (Dublado)",
      "link": "https://animefire.plus/animes/cinderella-monogatari-dublado-todos-os-episodios",
      "texto_original": "Cinderella Monogatari (Dublado)",
      "rating": 7.43,
      "classificacao_etaria": null,
      "imagem_original": "https://animefire.plus/img/animes/cinderella-monogatari.webp",
      "imagem_pasta": "https://animefire.plus/img/animes/cinderella-monogatari/",
      "secao": "dublados",
      "pagina": 27,
      "total_episodios": 0,
      "link_video": "https://animefire.plus/video/cinderella-monogatari-dublado"
    },
    {
      "id": 654,
      "nome": "Circlet Princess",
      "link": "https://animefire.plus/animes/circlet-princess-todos-os-episodios",
      "texto_original": "Circlet Princess",
      "rating": 6,
      "classificacao_etaria": "A14",
      "imagem_original": "https://animefire.plus/img/animes/circlet-princess.webp",
      "imagem_pasta": "https://animefire.plus/img/animes/circlet-princess/",
      "secao": "legendados",
      "pagina": 111,
      "total_episodios": 12,
      "link_video": "https://animefire.plus/video/circlet-princess"
    },
    {
      "id": 655,
      "nome": "Citrus",
      "link": "https://animefire.plus/animes/citrus-todos-os-episodios",
      "texto_original": "Citrus",
      "rating": 6.77,
      "classificacao_etaria": "A14",
      "imagem_original": "https://animefire.plus/img/animes/citrus.webp",
      "imagem_pasta": "https://animefire.plus/img/animes/citrus/",
      "secao": "legendados",
      "pagina": 100,
      "total_episodios": 12,
      "link_video": "https://animefire.plus/video/citrus"
    },
    {
      "id": 656,
      "nome": "City Hunter",
      "link": "https://animefire.plus/animes/city-hunter-todos-os-episodios",
      "texto_original": "City Hunter",
      "rating": 7.93,
      "classificacao_etaria": "A14",
      "imagem_original": "https://animefire.plus/img/animes/city-hunter.webp",
      "imagem_pasta": "https://animefire.plus/img/animes/city-hunter/",
      "secao": "legendados",
      "pagina": 42,
      "total_episodios": 51,
      "link_video": "https://animefire.plus/video/city-hunter"
    },
    {
      "id": 657,
      "nome": "City Hunter 3",
      "link": "https://animefire.plus/animes/city-hunter-3-todos-os-episodios",
      "texto_original": "City Hunter 3",
      "rating": 7.9,
      "classificacao_etaria": "A14",
      "imagem_original": "https://animefire.plus/img/animes/city-hunter-3.webp",
      "imagem_pasta": "https://animefire.plus/img/animes/city-hunter-3/",
      "secao": "legendados",
      "pagina": 104,
      "total_episodios": 13,
      "link_video": "https://animefire.plus/video/city-hunter-3"
    },
    {
      "id": 658,
      "nome": "City the Animation (Dublado)",
      "link": "https://animefire.plus/animes/city-the-animation-dublado-todos-os-episodios",
      "texto_original": "City the Animation (Dublado)",
      "rating": 7.84,
      "classificacao_etaria": "A14",
      "imagem_original": "https://animefire.plus/img/animes/city-the-animation.webp",
      "imagem_pasta": "https://animefire.plus/img/animes/city-the-animation/",
      "secao": "dublados,legendados,lancamentos",
      "pagina": 1,
      "total_episodios": 5,
      "link_video": "https://animefire.plus/video/city-the-animation-dublado"
    },
    {
      "id": 659,
      "nome": "CLAMP Gakuen Tanteidan",
      "link": "https://animefire.plus/animes/clamp-gakuen-tanteidan-todos-os-episodios",
      "texto_original": "CLAMP Gakuen Tanteidan",
      "rating": 6.98,
      "classificacao_etaria": null,
      "imagem_original": "https://animefire.plus/img/animes/clamp-gakuen-tanteidan.webp",
      "imagem_pasta": "https://animefire.plus/img/animes/clamp-gakuen-tanteidan/",
      "secao": "legendados",
      "pagina": 96,
      "total_episodios": 26,
      "link_video": "https://animefire.plus/video/clamp-gakuen-tanteidan"
    },
    {
      "id": 660,
      "nome": "Clannad",
      "link": "https://animefire.plus/animes/clannad-todos-os-episodios",
      "texto_original": "Clannad",
      "rating": 8.18,
      "classificacao_etaria": "A14",
      "imagem_original": "https://animefire.plus/img/animes/clannad.webp",
      "imagem_pasta": "https://animefire.plus/img/animes/clannad/",
      "secao": "legendados",
      "pagina": 155,
      "total_episodios": 23,
      "link_video": "https://animefire.plus/video/clannad"
    }
  ],
  "pagination": {
    "current_page": 33,
    "per_page": 20,
    "total_items": 4368,
    "total_pages": 219,
    "has_next": true,
    "has_prev": true
  }
}
