{
  "message": "Lista de animes",
  "data": [
    {
      "id": 1801,
      "nome": "Kaibutsu Oujo",
      "link": "https://animefire.plus/animes/kaibutsu-oujo-todos-os-episodios",
      "texto_original": "Kaibutsu Oujo",
      "rating": 7.09,
      "classificacao_etaria": "A14",
      "imagem_original": "https://animefire.plus/img/animes/kaibutsu-oujo.webp",
      "imagem_pasta": "https://animefire.plus/img/animes/kaibutsu-oujo/",
      "secao": "legendados",
      "pagina": 165,
      "total_episodios": 25,
      "link_video": "https://animefire.plus/video/kaibutsu-oujo"
    },
    {
      "id": 1802,
      "nome": "Kaibutsu Oujo (OVA)",
      "link": "https://animefire.plus/animes/kaibutsu-oujo-ova-todos-os-episodios",
      "texto_original": "Kaibutsu Oujo (OVA)",
      "rating": 7.1,
      "classificacao_etaria": "A16",
      "imagem_original": "https://animefire.plus/img/animes/kaibutsu-oujo-ova.webp",
      "imagem_pasta": "https://animefire.plus/img/animes/kaibutsu-oujo-ova/",
      "secao": "legendados",
      "pagina": 71,
      "total_episodios": 1,
      "link_video": "https://animefire.plus/video/kaibutsu-oujo-ova"
    },
    {
      "id": 1803,
      "nome": "Kaichou wa Maid-sama!",
      "link": "https://animefire.plus/animes/kaichou-wa-maid-sama-todos-os-episodios",
      "texto_original": "Kaichou wa Maid-sama!",
      "rating": 8.18,
      "classificacao_etaria": "A14",
      "imagem_original": "https://animefire.plus/img/animes/kaichou-wa-maid-sama.webp",
      "imagem_pasta": "https://animefire.plus/img/animes/kaichou-wa-maid-sama/",
      "secao": "legendados",
      "pagina": 157,
      "total_episodios": 26,
      "link_video": "https://animefire.plus/video/kaichou-wa-maid-sama"
    },
    {
      "id": 1804,
      "nome": "Kaichuu!",
      "link": "https://animefire.plus/animes/kaichuu-todos-os-episodios",
      "texto_original": "Kaichuu!",
      "rating": 5.88,
      "classificacao_etaria": "A14",
      "imagem_original": "https://animefire.plus/img/animes/kaichuu.webp",
      "imagem_pasta": "https://animefire.plus/img/animes/kaichuu/",
      "secao": "legendados",
      "pagina": 64,
      "total_episodios": 4,
      "link_video": "https://animefire.plus/video/kaichuu"
    },
    {
      "id": 1805,
      "nome": "Kaidan Restaurant",
      "link": "https://animefire.plus/animes/kaidan-restaurant-todos-os-episodios",
      "texto_original": "Kaidan Restaurant",
      "rating": 7.33,
      "classificacao_etaria": "A10",
      "imagem_original": "https://animefire.plus/img/animes/kaidan-restaurant.webp",
      "imagem_pasta": "https://animefire.plus/img/animes/kaidan-restaurant/",
      "secao": "legendados",
      "pagina": 134,
      "total_episodios": 19,
      "link_video": "https://animefire.plus/video/kaidan-restaurant"
    },
    {
      "id": 1806,
      "nome": "Kaifuku Jutsushi no Yarinaoshi",
      "link": "https://animefire.plus/animes/kaifuku-jutsushi-no-yarinaoshi-todos-os-episodios",
      "texto_original": "Kaifuku Jutsushi no Yarinaoshi",
      "rating": 6.32,
      "classificacao_etaria": "A18",
      "imagem_original": "https://animefire.plus/img/animes/kaifuku-jutsushi-no-yarinaoshi.webp",
      "imagem_pasta": "https://animefire.plus/img/animes/kaifuku-jutsushi-no-yarinaoshi/",
      "secao": "legendados",
      "pagina": 48,
      "total_episodios": 12,
      "link_video": "https://animefire.plus/video/kaifuku-jutsushi-no-yarinaoshi"
    },
    {
      "id": 1807,
      "nome": "Kaii to Otome to Kamikakushi",
      "link": "https://animefire.plus/animes/kaii-to-otome-to-kamikakushi-todos-os-episodios",
      "texto_original": "Kaii to Otome to Kamikakushi",
      "rating": 6.76,
      "classificacao_etaria": "A14",
      "imagem_original": "https://animefire.plus/img/animes/kaii-to-otome-to-kamikakushi.webp",
      "imagem_pasta": "https://animefire.plus/img/animes/kaii-to-otome-to-kamikakushi/",
      "secao": "legendados",
      "pagina": 15,
      "total_episodios": 12,
      "link_video": "https://animefire.plus/video/kaii-to-otome-to-kamikakushi"
    },
    {
      "id": 1808,
      "nome": "Kaijin Kaihatsu-bu no Kuroitsu-san",
      "link": "https://animefire.plus/animes/kaijin-kaihatsu-bu-no-kuroitsu-san-todos-os-episodios",
      "texto_original": "Kaijin Kaihatsu-bu no Kuroitsu-san",
      "rating": 6.7,
      "classificacao_etaria": "A14",
      "imagem_original": "https://animefire.plus/img/animes/kaijin-kaihatsu-bu-no-kuroitsu-san.webp",
      "imagem_pasta": "https://animefire.plus/img/animes/kaijin-kaihatsu-bu-no-kuroitsu-san/",
      "secao": "legendados",
      "pagina": 36,
      "total_episodios": 12,
      "link_video": "https://animefire.plus/video/kaijin-kaihatsu-bu-no-kuroitsu-san"
    },
    {
      "id": 1809,
      "nome": "Kaijuu 8-gou (Dublado)",
      "link": "https://animefire.plus/animes/kaijuu-8-gou-dublado-todos-os-episodios",
      "texto_original": "Kaijuu 8-gou (Dublado)",
      "rating": 8.27,
      "classificacao_etaria": "A14",
      "imagem_original": "https://animefire.plus/img/animes/kaijuu-8-gou.webp",
      "imagem_pasta": "https://animefire.plus/img/animes/kaijuu-8-gou/",
      "secao": "dublados,legendados,lancamentos",
      "pagina": 3,
      "total_episodios": 12,
      "link_video": "https://animefire.plus/video/kaijuu-8-gou-dublado"
    },
    {
      "id": 1810,
      "nome": "Kaijuu 8-gou 2nd Season (Dublado)",
      "link": "https://animefire.plus/animes/kaijuu-8-gou-2nd-season-dublado-todos-os-episodios",
      "texto_original": "Kaijuu 8-gou 2nd Season (Dublado)",
      "rating": 7.92,
      "classificacao_etaria": "A14",
      "imagem_original": "https://animefire.plus/img/animes/kaijuu-8-gou-2nd-season.webp",
      "imagem_pasta": "https://animefire.plus/img/animes/kaijuu-8-gou-2nd-season/",
      "secao": "dublados,legendados,lancamentos",
      "pagina": 1,
      "total_episodios": 3,
      "link_video": "https://animefire.plus/video/kaijuu-8-gou-2nd-season-dublado"
    },
    {
      "id": 1811,
      "nome": "Kaijuu 8-gou: Hoshina no Kyuujitsu",
      "link": "https://animefire.plus/animes/kaijuu-8-gou-hoshina-no-kyuujitsu-todos-os-episodios",
      "texto_original": "Kaijuu 8-gou: Hoshina no Kyuujitsu",
      "rating": 6.77,
      "classificacao_etaria": "A14",
      "imagem_original": "https://animefire.plus/img/animes/kaijuu-8-gou-hoshina-no-kyuujitsu.webp",
      "imagem_pasta": "https://animefire.plus/img/animes/kaijuu-8-gou-hoshina-no-kyuujitsu/",
      "secao": "legendados",
      "pagina": 1,
      "total_episodios": 1,
      "link_video": "https://animefire.plus/video/kaijuu-8-gou-hoshina-no-kyuujitsu"
    },
    {
      "id": 1812,
      "nome": "Kaijuu Sekai Seifuku (TV)",
      "link": "https://animefire.plus/animes/kaijuu-sekai-seifuku-tv-todos-os-episodios",
      "texto_original": "Kaijuu Sekai Seifuku (TV)",
      "rating": null,
      "classificacao_etaria": null,
      "imagem_original": "https://animefire.plus/img/animes/kaijuu-sekai-seifuku-tv.webp",
      "imagem_pasta": "https://animefire.plus/img/animes/kaijuu-sekai-seifuku-tv/",
      "secao": "legendados,lancamentos",
      "pagina": 4,
      "total_episodios": 0,
      "link_video": "https://animefire.plus/video/kaijuu-sekai-seifuku-tv"
    },
    {
      "id": 1813,
      "nome": "Kaiketsu Jouki Tanteidan",
      "link": "https://animefire.plus/animes/kaiketsu-jouki-tanteidan-todos-os-episodios",
      "texto_original": "Kaiketsu Jouki Tanteidan",
      "rating": 6.72,
      "classificacao_etaria": "A14",
      "imagem_original": "https://animefire.plus/img/animes/kaiketsu-jouki-tanteidan.webp",
      "imagem_pasta": "https://animefire.plus/img/animes/kaiketsu-jouki-tanteidan/",
      "secao": "legendados",
      "pagina": 112,
      "total_episodios": 26,
      "link_video": "https://animefire.plus/video/kaiketsu-jouki-tanteidan"
    },
    {
      "id": 1814,
      "nome": "Kaiko sareta Ankoku Heishi (30-dai) no Slow na Second Life",
      "link": "https://animefire.plus/animes/kaiko-sareta-ankoku-heishi-30-dai-no-slow-na-second-life-todos-os-episodios",
      "texto_original": "Kaiko sareta Ankoku Heishi (30-dai) no Slow na Second Life",
      "rating": 7.01,
      "classificacao_etaria": "A14",
      "imagem_original": "https://animefire.plus/img/animes/kaiko-sareta-ankoku-heishi-30-dai-no-slow-na-second-life.webp",
      "imagem_pasta": "https://animefire.plus/img/animes/kaiko-sareta-ankoku-heishi-30-dai-no-slow-na-second-life/",
      "secao": "legendados",
      "pagina": 27,
      "total_episodios": 12,
      "link_video": "https://animefire.plus/video/kaiko-sareta-ankoku-heishi-30-dai-no-slow-na-second-life"
    },
    {
      "id": 1815,
      "nome": "Kaitou Joker",
      "link": "https://animefire.plus/animes/kaitou-joker-todos-os-episodios",
      "texto_original": "Kaitou Joker",
      "rating": 6.99,
      "classificacao_etaria": null,
      "imagem_original": "https://animefire.plus/img/animes/kaitou-joker.webp",
      "imagem_pasta": "https://animefire.plus/img/animes/kaitou-joker/",
      "secao": "legendados",
      "pagina": 163,
      "total_episodios": 0,
      "link_video": "https://animefire.plus/video/kaitou-joker"
    },
    {
      "id": 1816,
      "nome": "Kaizoku Oujo",
      "link": "https://animefire.plus/animes/kaizoku-oujo-todos-os-episodios",
      "texto_original": "Kaizoku Oujo",
      "rating": 7.07,
      "classificacao_etaria": "A14",
      "imagem_original": "https://animefire.plus/img/animes/kaizoku-oujo.webp",
      "imagem_pasta": "https://animefire.plus/img/animes/kaizoku-oujo/",
      "secao": "legendados",
      "pagina": 39,
      "total_episodios": 12,
      "link_video": "https://animefire.plus/video/kaizoku-oujo"
    },
    {
      "id": 1817,
      "nome": "Kakegurui (Dublado)",
      "link": "https://animefire.plus/animes/kakegurui-dublado-todos-os-episodios",
      "texto_original": "Kakegurui (Dublado)",
      "rating": 7.55,
      "classificacao_etaria": "A16",
      "imagem_original": "https://animefire.plus/img/animes/kakegurui.webp",
      "imagem_pasta": "https://animefire.plus/img/animes/kakegurui/",
      "secao": "dublados,legendados",
      "pagina": 26,
      "total_episodios": 12,
      "link_video": "https://animefire.plus/video/kakegurui-dublado"
    },
    {
      "id": 1818,
      "nome": "Kakegurui Twin (Dublado)",
      "link": "https://animefire.plus/animes/kakegurui-twin-dublado-todos-os-episodios",
      "texto_original": "Kakegurui Twin (Dublado)",
      "rating": 7.18,
      "classificacao_etaria": "A14",
      "imagem_original": "https://animefire.plus/img/animes/kakegurui-twin.webp",
      "imagem_pasta": "https://animefire.plus/img/animes/kakegurui-twin/",
      "secao": "dublados,legendados,lancamentos",
      "pagina": 10,
      "total_episodios": 6,
      "link_video": "https://animefire.plus/video/kakegurui-twin-dublado"
    },
    {
      "id": 1819,
      "nome": "Kakegurui××",
      "link": "https://animefire.plus/animes/kakegurui-xx-todos-os-episodios",
      "texto_original": "Kakegurui××",
      "rating": 7.33,
      "classificacao_etaria": "A16",
      "imagem_original": "https://animefire.plus/img/animes/kakegurui-xx.webp",
      "imagem_pasta": "https://animefire.plus/img/animes/kakegurui-xx/",
      "secao": "legendados",
      "pagina": 167,
      "total_episodios": 6,
      "link_video": "https://animefire.plus/video/kakegurui-xx"
    },
    {
      "id": 1820,
      "nome": "Kakegurui×× (Dublado)",
      "link": "https://animefire.plus/animes/kakegurui-2nd-season-dublado-todos-os-episodios",
      "texto_original": "Kakegurui×× (Dublado)",
      "rating": 7.4,
      "classificacao_etaria": "A16",
      "imagem_original": "https://animefire.plus/img/animes/kakegurui-2nd-season.webp",
      "imagem_pasta": "https://animefire.plus/img/animes/kakegurui-2nd-season/",
      "secao": "dublados",
      "pagina": 21,
      "total_episodios": 12,
      "link_video": "https://animefire.plus/video/kakegurui-2nd-season-dublado"
    }
  ],
  "pagination": {
    "current_page": 91,
    "per_page": 20,
    "total_items": 4368,
    "total_pages": 219,
    "has_next": true,
    "has_prev": true
  }
}
