{
  "message": "Lista de animes",
  "data": [
    {
      "id": 1421,
      "nome": "Heppoko Jikken Animation Excel♥Saga (Dublado)",
      "link": "https://animefire.plus/animes/heppoko-jikken-animation-excel-saga-dublado-todos-os-episodios",
      "texto_original": "Heppoko Jikken Animation Excel♥Saga (Dublado)",
      "rating": 7.51,
      "classificacao_etaria": "A16",
      "imagem_original": "https://animefire.plus/img/animes/heppoko-jikken-animation-excel-saga.webp",
      "imagem_pasta": "https://animefire.plus/img/animes/heppoko-jikken-animation-excel-saga/",
      "secao": "dublados,legendados",
      "pagina": 22,
      "total_episodios": 26,
      "link_video": "https://animefire.plus/video/heppoko-jikken-animation-excel-saga-dublado"
    },
    {
      "id": 1422,
      "nome": "Hero Bank",
      "link": "https://animefire.plus/animes/hero-bank-todos-os-episodios",
      "texto_original": "Hero Bank",
      "rating": 6.12,
      "classificacao_etaria": "A10",
      "imagem_original": "https://animefire.plus/img/animes/hero-bank.webp",
      "imagem_pasta": "https://animefire.plus/img/animes/hero-bank/",
      "secao": "legendados",
      "pagina": 158,
      "total_episodios": 17,
      "link_video": "https://animefire.plus/video/hero-bank"
    },
    {
      "id": 1423,
      "nome": "Hero Mask (2019) (Dublado)",
      "link": "https://animefire.plus/animes/hero-mask-2019-dublado-todos-os-episodios",
      "texto_original": "Hero Mask (2019) (Dublado)",
      "rating": 6.61,
      "classificacao_etaria": "A16",
      "imagem_original": "https://animefire.plus/img/animes/hero-mask-2019.webp",
      "imagem_pasta": "https://animefire.plus/img/animes/hero-mask-2019/",
      "secao": "dublados,legendados",
      "pagina": 21,
      "total_episodios": 9,
      "link_video": "https://animefire.plus/video/hero-mask-2019-dublado"
    },
    {
      "id": 1424,
      "nome": "Hero Mask (Dublado)",
      "link": "https://animefire.plus/animes/hero-mask-dublado-todos-os-episodios",
      "texto_original": "Hero Mask (Dublado)",
      "rating": 6.39,
      "classificacao_etaria": "A16",
      "imagem_original": "https://animefire.plus/img/animes/hero-mask.webp",
      "imagem_pasta": "https://animefire.plus/img/animes/hero-mask/",
      "secao": "dublados,legendados",
      "pagina": 25,
      "total_episodios": 15,
      "link_video": "https://animefire.plus/video/hero-mask-dublado"
    },
    {
      "id": 1425,
      "nome": "Heroic Age",
      "link": "https://animefire.plus/animes/heroic-age-todos-os-episodios",
      "texto_original": "Heroic Age",
      "rating": 7.61,
      "classificacao_etaria": "A14",
      "imagem_original": "https://animefire.plus/img/animes/heroic-age.webp",
      "imagem_pasta": "https://animefire.plus/img/animes/heroic-age/",
      "secao": "legendados",
      "pagina": 145,
      "total_episodios": 26,
      "link_video": "https://animefire.plus/video/heroic-age"
    },
    {
      "id": 1426,
      "nome": "Heroine Tarumono! Kiraware Heroine to Naisho no Oshigoto",
      "link": "https://animefire.plus/animes/heroine-tarumono-kiraware-heroine-to-naisho-no-oshigoto-todos-os-episodios",
      "texto_original": "Heroine Tarumono! Kiraware Heroine to Naisho no Oshigoto",
      "rating": 7.27,
      "classificacao_etaria": "A14",
      "imagem_original": "https://animefire.plus/img/animes/heroine-tarumono-kiraware-heroine-to-naisho-no-oshigoto.webp",
      "imagem_pasta": "https://animefire.plus/img/animes/heroine-tarumono-kiraware-heroine-to-naisho-no-oshigoto/",
      "secao": "legendados",
      "pagina": 33,
      "total_episodios": 12,
      "link_video": "https://animefire.plus/video/heroine-tarumono-kiraware-heroine-to-naisho-no-oshigoto"
    },
    {
      "id": 1427,
      "nome": "Heroman",
      "link": "https://animefire.plus/animes/heroman-todos-os-episodios",
      "texto_original": "Heroman",
      "rating": 6.86,
      "classificacao_etaria": "A14",
      "imagem_original": "https://animefire.plus/img/animes/heroman.webp",
      "imagem_pasta": "https://animefire.plus/img/animes/heroman/",
      "secao": "legendados",
      "pagina": 71,
      "total_episodios": 26,
      "link_video": "https://animefire.plus/video/heroman"
    },
    {
      "id": 1428,
      "nome": "Hetalia Axis Powers",
      "link": "https://animefire.plus/animes/hetalia-axis-powers-todos-os-episodios",
      "texto_original": "Hetalia Axis Powers",
      "rating": 7.62,
      "classificacao_etaria": "A14",
      "imagem_original": "https://animefire.plus/img/animes/hetalia-axis-powers.webp",
      "imagem_pasta": "https://animefire.plus/img/animes/hetalia-axis-powers/",
      "secao": "legendados",
      "pagina": 138,
      "total_episodios": 0,
      "link_video": "https://animefire.plus/video/hetalia-axis-powers"
    },
    {
      "id": 1429,
      "nome": "Hetalia Axis Powers Fan Disc",
      "link": "https://animefire.plus/animes/hetalia-axis-powers-fan-disc-todos-os-episodios",
      "texto_original": "Hetalia Axis Powers Fan Disc",
      "rating": 7.43,
      "classificacao_etaria": "A14",
      "imagem_original": "https://animefire.plus/img/animes/hetalia-axis-powers-fan-disc.webp",
      "imagem_pasta": "https://animefire.plus/img/animes/hetalia-axis-powers-fan-disc/",
      "secao": "legendados",
      "pagina": 111,
      "total_episodios": 3,
      "link_video": "https://animefire.plus/video/hetalia-axis-powers-fan-disc"
    },
    {
      "id": 1430,
      "nome": "Hetalia World Series Specials",
      "link": "https://animefire.plus/animes/hetalia-world-series-specials-todos-os-episodios",
      "texto_original": "Hetalia World Series Specials",
      "rating": 7.73,
      "classificacao_etaria": "A14",
      "imagem_original": "https://animefire.plus/img/animes/hetalia-world-series-specials.webp",
      "imagem_pasta": "https://animefire.plus/img/animes/hetalia-world-series-specials/",
      "secao": "legendados",
      "pagina": 160,
      "total_episodios": 4,
      "link_video": "https://animefire.plus/video/hetalia-world-series-specials"
    },
    {
      "id": 1431,
      "nome": "Hetalia World★Stars",
      "link": "https://animefire.plus/animes/hetalia-world-stars-todos-os-episodios",
      "texto_original": "Hetalia World★Stars",
      "rating": 6.86,
      "classificacao_etaria": "A14",
      "imagem_original": "https://animefire.plus/img/animes/hetalia-world-stars.webp",
      "imagem_pasta": "https://animefire.plus/img/animes/hetalia-world-stars/",
      "secao": "legendados",
      "pagina": 46,
      "total_episodios": 12,
      "link_video": "https://animefire.plus/video/hetalia-world-stars"
    },
    {
      "id": 1432,
      "nome": "Hetalia: The Beautiful World Specials",
      "link": "https://animefire.plus/animes/hetalia-the-beautiful-world-specials-todos-os-episodios",
      "texto_original": "Hetalia: The Beautiful World Specials",
      "rating": 7.78,
      "classificacao_etaria": "A14",
      "imagem_original": "https://animefire.plus/img/animes/hetalia-the-beautiful-world-specials.webp",
      "imagem_pasta": "https://animefire.plus/img/animes/hetalia-the-beautiful-world-specials/",
      "secao": "legendados",
      "pagina": 153,
      "total_episodios": 4,
      "link_video": "https://animefire.plus/video/hetalia-the-beautiful-world-specials"
    },
    {
      "id": 1433,
      "nome": "Hetalia: The World Twinkle",
      "link": "https://animefire.plus/animes/hetalia-the-world-twinkle-todos-os-episodios",
      "texto_original": "Hetalia: The World Twinkle",
      "rating": 7.53,
      "classificacao_etaria": "A14",
      "imagem_original": "https://animefire.plus/img/animes/hetalia-the-world-twinkle.webp",
      "imagem_pasta": "https://animefire.plus/img/animes/hetalia-the-world-twinkle/",
      "secao": "legendados",
      "pagina": 174,
      "total_episodios": 15,
      "link_video": "https://animefire.plus/video/hetalia-the-world-twinkle"
    },
    {
      "id": 1434,
      "nome": "Hetalia: The World Twinkle Extra Disc",
      "link": "https://animefire.plus/animes/hetalia-the-world-twinkle-extra-disc-todos-os-episodios",
      "texto_original": "Hetalia: The World Twinkle Extra Disc",
      "rating": 7.44,
      "classificacao_etaria": "A14",
      "imagem_original": "https://animefire.plus/img/animes/hetalia-the-world-twinkle-extra-disc.webp",
      "imagem_pasta": "https://animefire.plus/img/animes/hetalia-the-world-twinkle-extra-disc/",
      "secao": "legendados",
      "pagina": 82,
      "total_episodios": 1,
      "link_video": "https://animefire.plus/video/hetalia-the-world-twinkle-extra-disc"
    },
    {
      "id": 1435,
      "nome": "Hetalia: The World Twinkle Specials",
      "link": "https://animefire.plus/animes/hetalia-the-world-twinkle-specials-todos-os-episodios",
      "texto_original": "Hetalia: The World Twinkle Specials",
      "rating": 7.48,
      "classificacao_etaria": "A14",
      "imagem_original": "https://animefire.plus/img/animes/hetalia-the-world-twinkle-specials.webp",
      "imagem_pasta": "https://animefire.plus/img/animes/hetalia-the-world-twinkle-specials/",
      "secao": "legendados",
      "pagina": 164,
      "total_episodios": 3,
      "link_video": "https://animefire.plus/video/hetalia-the-world-twinkle-specials"
    },
    {
      "id": 1436,
      "nome": "Heya Camp△",
      "link": "https://animefire.plus/animes/heya-camp-todos-os-episodios",
      "texto_original": "Heya Camp△",
      "rating": 7.19,
      "classificacao_etaria": "A14",
      "imagem_original": "https://animefire.plus/img/animes/heya-camp.webp",
      "imagem_pasta": "https://animefire.plus/img/animes/heya-camp/",
      "secao": "legendados",
      "pagina": 93,
      "total_episodios": 4,
      "link_video": "https://animefire.plus/video/heya-camp"
    },
    {
      "id": 1437,
      "nome": "Hi☆sCoool! SeHa Girls",
      "link": "https://animefire.plus/animes/hi-scoool-seha-girls-todos-os-episodios",
      "texto_original": "Hi☆sCoool! SeHa Girls",
      "rating": 6.57,
      "classificacao_etaria": "A14",
      "imagem_original": "https://animefire.plus/img/animes/hi-scoool-seha-girls.webp",
      "imagem_pasta": "https://animefire.plus/img/animes/hi-scoool-seha-girls/",
      "secao": "legendados",
      "pagina": 98,
      "total_episodios": 13,
      "link_video": "https://animefire.plus/video/hi-scoool-seha-girls"
    },
    {
      "id": 1438,
      "nome": "Hibi wa Sugiredo Meshi Umashi",
      "link": "https://animefire.plus/animes/hibi-wa-sugiredo-meshi-umashi-todos-os-episodios",
      "texto_original": "Hibi wa Sugiredo Meshi Umashi",
      "rating": 7.77,
      "classificacao_etaria": "A14",
      "imagem_original": "https://animefire.plus/img/animes/hibi-wa-sugiredo-meshi-umashi.webp",
      "imagem_pasta": "https://animefire.plus/img/animes/hibi-wa-sugiredo-meshi-umashi/",
      "secao": "legendados",
      "pagina": 4,
      "total_episodios": 12,
      "link_video": "https://animefire.plus/video/hibi-wa-sugiredo-meshi-umashi"
    },
    {
      "id": 1439,
      "nome": "Hibike! Euphonium",
      "link": "https://animefire.plus/animes/hibike-euphonium-todos-os-episodios",
      "texto_original": "Hibike! Euphonium",
      "rating": 8.02,
      "classificacao_etaria": "A14",
      "imagem_original": "https://animefire.plus/img/animes/hibike-euphonium.webp",
      "imagem_pasta": "https://animefire.plus/img/animes/hibike-euphonium/",
      "secao": "legendados",
      "pagina": 82,
      "total_episodios": 13,
      "link_video": "https://animefire.plus/video/hibike-euphonium"
    },
    {
      "id": 1440,
      "nome": "Hibike! Euphonium 2",
      "link": "https://animefire.plus/animes/hibike-euphonium-2-todos-os-episodios",
      "texto_original": "Hibike! Euphonium 2",
      "rating": 8.3,
      "classificacao_etaria": "A14",
      "imagem_original": "https://animefire.plus/img/animes/hibike-euphonium-2.webp",
      "imagem_pasta": "https://animefire.plus/img/animes/hibike-euphonium-2/",
      "secao": "legendados",
      "pagina": 104,
      "total_episodios": 14,
      "link_video": "https://animefire.plus/video/hibike-euphonium-2"
    }
  ],
  "pagination": {
    "current_page": 72,
    "per_page": 20,
    "total_items": 4368,
    "total_pages": 219,
    "has_next": true,
    "has_prev": true
  }
}
