{
  "message": "Lista de animes",
  "data": [
    {
      "id": 3961,
      "nome": "Tsukumogami Kashimasu",
      "link": "https://animefire.plus/animes/tsukumogami-kashimasu-todos-os-episodios",
      "texto_original": "Tsukumogami Kashimasu",
      "rating": 6.76,
      "classificacao_etaria": "A14",
      "imagem_original": "https://animefire.plus/img/animes/tsukumogami-kashimasu.webp",
      "imagem_pasta": "https://animefire.plus/img/animes/tsukumogami-kashimasu/",
      "secao": "legendados",
      "pagina": 169,
      "total_episodios": 12,
      "link_video": "https://animefire.plus/video/tsukumogami-kashimasu"
    },
    {
      "id": 3962,
      "nome": "Tsukuyomi: Moon Phase",
      "link": "https://animefire.plus/animes/tsukuyomi-moon-phase-todos-os-episodios",
      "texto_original": "Tsukuyomi: Moon Phase",
      "rating": 7.07,
      "classificacao_etaria": "A14",
      "imagem_original": "https://animefire.plus/img/animes/tsukuyomi-moon-phase.webp",
      "imagem_pasta": "https://animefire.plus/img/animes/tsukuyomi-moon-phase/",
      "secao": "legendados",
      "pagina": 164,
      "total_episodios": 26,
      "link_video": "https://animefire.plus/video/tsukuyomi-moon-phase"
    },
    {
      "id": 3963,
      "nome": "Tsuma, Shougakusei ni Naru.",
      "link": "https://animefire.plus/animes/tsuma-shougakusei-ni-naru-todos-os-episodios",
      "texto_original": "Tsuma, Shougakusei ni Naru.",
      "rating": 7.54,
      "classificacao_etaria": "A14",
      "imagem_original": "https://animefire.plus/img/animes/tsuma-shougakusei-ni-naru.webp",
      "imagem_pasta": "https://animefire.plus/img/animes/tsuma-shougakusei-ni-naru/",
      "secao": "legendados",
      "pagina": 9,
      "total_episodios": 12,
      "link_video": "https://animefire.plus/video/tsuma-shougakusei-ni-naru"
    },
    {
      "id": 3964,
      "nome": "Tsundere Akuyaku Reijou Liselotte to Jikkyou no Endou-kun to Kaisetsu no Kobayashi-san",
      "link": "https://animefire.plus/animes/tsundere-akuyaku-reijou-liselotte-to-jikkyou-no-endou-kun-to-kaisetsu-no-kobayashi-san-todos-os-episodios",
      "texto_original": "Tsundere Akuyaku Reijou Liselotte to Jikkyou no Endou-kun to Kaisetsu no Kobayashi-san",
      "rating": 7.23,
      "classificacao_etaria": "A14",
      "imagem_original": "https://animefire.plus/img/animes/tsundere-akuyaku-reijou-liselotte-to-jikkyou-no-endou-kun-to-kaisetsu-no-kobayashi-san.webp",
      "imagem_pasta": "https://animefire.plus/img/animes/tsundere-akuyaku-reijou-liselotte-to-jikkyou-no-endou-kun-to-kaisetsu-no-kobayashi-san/",
      "secao": "legendados",
      "pagina": 27,
      "total_episodios": 12,
      "link_video": "https://animefire.plus/video/tsundere-akuyaku-reijou-liselotte-to-jikkyou-no-endou-kun-to-kaisetsu-no-kobayashi-san"
    },
    {
      "id": 3965,
      "nome": "Tsurezure Children",
      "link": "https://animefire.plus/animes/tsurezure-children-todos-os-episodios",
      "texto_original": "Tsurezure Children",
      "rating": 7.76,
      "classificacao_etaria": "A14",
      "imagem_original": "https://animefire.plus/img/animes/tsurezure-children.webp",
      "imagem_pasta": "https://animefire.plus/img/animes/tsurezure-children/",
      "secao": "legendados",
      "pagina": 76,
      "total_episodios": 12,
      "link_video": "https://animefire.plus/video/tsurezure-children"
    },
    {
      "id": 3966,
      "nome": "Tsuritama",
      "link": "https://animefire.plus/animes/tsuritama-todos-os-episodios",
      "texto_original": "Tsuritama",
      "rating": 7.72,
      "classificacao_etaria": "A14",
      "imagem_original": "https://animefire.plus/img/animes/tsuritama.webp",
      "imagem_pasta": "https://animefire.plus/img/animes/tsuritama/",
      "secao": "legendados",
      "pagina": 60,
      "total_episodios": 12,
      "link_video": "https://animefire.plus/video/tsuritama"
    },
    {
      "id": 3967,
      "nome": "Tsuritama: Harikitte Contest",
      "link": "https://animefire.plus/animes/tsuritama-harikitte-contest-todos-os-episodios",
      "texto_original": "Tsuritama: Harikitte Contest",
      "rating": 6,
      "classificacao_etaria": "A14",
      "imagem_original": "https://animefire.plus/img/animes/tsuritama-harikitte-contest.webp",
      "imagem_pasta": "https://animefire.plus/img/animes/tsuritama-harikitte-contest/",
      "secao": "legendados",
      "pagina": 83,
      "total_episodios": 1,
      "link_video": "https://animefire.plus/video/tsuritama-harikitte-contest"
    },
    {
      "id": 3968,
      "nome": "Tsurune: Kazemai Koukou Kyuudoubu",
      "link": "https://animefire.plus/animes/tsurune-kazemai-koukou-kyuudoubu-todos-os-episodios",
      "texto_original": "Tsurune: Kazemai Koukou Kyuudoubu",
      "rating": 7.6,
      "classificacao_etaria": "A14",
      "imagem_original": "https://animefire.plus/img/animes/tsurune-kazemai-koukou-kyuudoubu.webp",
      "imagem_pasta": "https://animefire.plus/img/animes/tsurune-kazemai-koukou-kyuudoubu/",
      "secao": "legendados",
      "pagina": 107,
      "total_episodios": 13,
      "link_video": "https://animefire.plus/video/tsurune-kazemai-koukou-kyuudoubu"
    },
    {
      "id": 3969,
      "nome": "Tsurune: Tsunagari no Issha",
      "link": "https://animefire.plus/animes/tsurune-tsunagari-no-issha-todos-os-episodios",
      "texto_original": "Tsurune: Tsunagari no Issha",
      "rating": 8.1,
      "classificacao_etaria": "A14",
      "imagem_original": "https://animefire.plus/img/animes/tsurune-tsunagari-no-issha.webp",
      "imagem_pasta": "https://animefire.plus/img/animes/tsurune-tsunagari-no-issha/",
      "secao": "legendados",
      "pagina": 26,
      "total_episodios": 13,
      "link_video": "https://animefire.plus/video/tsurune-tsunagari-no-issha"
    },
    {
      "id": 3970,
      "nome": "Tsuujou Kougeki ga Zentai Kougeki de Ni-kai Kougeki no Okaasan wa Suki Desu ka?",
      "link": "https://animefire.plus/animes/tsuujou-kougeki-ga-zentai-kougeki-de-ni-kai-kougeki-no-okaasan-wa-suki-desu-ka-todos-os-episodios",
      "texto_original": "Tsuujou Kougeki ga Zentai Kougeki de Ni-kai Kougeki no Okaasan wa Suki Desu ka?",
      "rating": 5.54,
      "classificacao_etaria": "A18",
      "imagem_original": "https://animefire.plus/img/animes/tsuujou-kougeki-ga-zentai-kougeki-de-ni-kai-kougeki-no-okaasan-wa-suki-desu-ka.webp",
      "imagem_pasta": "https://animefire.plus/img/animes/tsuujou-kougeki-ga-zentai-kougeki-de-ni-kai-kougeki-no-okaasan-wa-suki-desu-ka/",
      "secao": "legendados",
      "pagina": 120,
      "total_episodios": 12,
      "link_video": "https://animefire.plus/video/tsuujou-kougeki-ga-zentai-kougeki-de-ni-kai-kougeki-no-okaasan-wa-suki-desu-ka"
    },
    {
      "id": 3971,
      "nome": "Tsuyokiss",
      "link": "https://animefire.plus/animes/tsuyokiss-todos-os-episodios",
      "texto_original": "Tsuyokiss",
      "rating": 6.66,
      "classificacao_etaria": "A14",
      "imagem_original": "https://animefire.plus/img/animes/tsuyokiss.webp",
      "imagem_pasta": "https://animefire.plus/img/animes/tsuyokiss/",
      "secao": "legendados",
      "pagina": 156,
      "total_episodios": 10,
      "link_video": "https://animefire.plus/video/tsuyokiss"
    },
    {
      "id": 3972,
      "nome": "Tsuyokute New Saga",
      "link": "https://animefire.plus/animes/tsuyokute-new-saga-todos-os-episodios",
      "texto_original": "Tsuyokute New Saga",
      "rating": 6.69,
      "classificacao_etaria": "A14",
      "imagem_original": "https://animefire.plus/img/animes/tsuyokute-new-saga.webp",
      "imagem_pasta": "https://animefire.plus/img/animes/tsuyokute-new-saga/",
      "secao": "legendados,lancamentos",
      "pagina": 3,
      "total_episodios": 5,
      "link_video": "https://animefire.plus/video/tsuyokute-new-saga"
    },
    {
      "id": 3973,
      "nome": "Tu Bian Ying Xiong Leaf",
      "link": "https://animefire.plus/animes/tu-bian-ying-xiong-leaf-todos-os-episodios",
      "texto_original": "Tu Bian Ying Xiong Leaf",
      "rating": 7.16,
      "classificacao_etaria": "A14",
      "imagem_original": "https://animefire.plus/img/animes/tu-bian-ying-xiong-leaf.webp",
      "imagem_pasta": "https://animefire.plus/img/animes/tu-bian-ying-xiong-leaf/",
      "secao": "legendados",
      "pagina": 95,
      "total_episodios": 8,
      "link_video": "https://animefire.plus/video/tu-bian-ying-xiong-leaf"
    },
    {
      "id": 3974,
      "nome": "Tu Bian Yingxiong X (Dublado)",
      "link": "https://animefire.plus/animes/tu-bian-yingxiong-x-dublado-todos-os-episodios",
      "texto_original": "Tu Bian Yingxiong X (Dublado)",
      "rating": 8.44,
      "classificacao_etaria": "A14",
      "imagem_original": "https://animefire.plus/img/animes/tu-bian-yingxiong-x.webp",
      "imagem_pasta": "https://animefire.plus/img/animes/tu-bian-yingxiong-x/",
      "secao": "dublados,legendados,lancamentos",
      "pagina": 1,
      "total_episodios": 18,
      "link_video": "https://animefire.plus/video/tu-bian-yingxiong-x-dublado"
    },
    {
      "id": 3975,
      "nome": "Turkey!",
      "link": "https://animefire.plus/animes/turkey-todos-os-episodios",
      "texto_original": "Turkey!",
      "rating": 6.29,
      "classificacao_etaria": "A14",
      "imagem_original": "https://animefire.plus/img/animes/turkey.webp",
      "imagem_pasta": "https://animefire.plus/img/animes/turkey/",
      "secao": "legendados,lancamentos",
      "pagina": 2,
      "total_episodios": 4,
      "link_video": "https://animefire.plus/video/turkey"
    },
    {
      "id": 3976,
      "nome": "Turnover",
      "link": "https://animefire.plus/animes/turnover-todos-os-episodios",
      "texto_original": "Turnover",
      "rating": 5.73,
      "classificacao_etaria": null,
      "imagem_original": "https://animefire.plus/img/animes/turnover.webp",
      "imagem_pasta": "https://animefire.plus/img/animes/turnover/",
      "secao": "legendados",
      "pagina": 83,
      "total_episodios": 1,
      "link_video": "https://animefire.plus/video/turnover"
    },
    {
      "id": 3977,
      "nome": "TV Yarou Nanaana: Wakuwaku Doukutsu Land",
      "link": "https://animefire.plus/animes/tv-yarou-nanaana-wakuwaku-doukutsu-land-todos-os-episodios",
      "texto_original": "TV Yarou Nanaana: Wakuwaku Doukutsu Land",
      "rating": 6.06,
      "classificacao_etaria": "A14",
      "imagem_original": "https://animefire.plus/img/animes/tv-yarou-nanaana-wakuwaku-doukutsu-land.webp",
      "imagem_pasta": "https://animefire.plus/img/animes/tv-yarou-nanaana-wakuwaku-doukutsu-land/",
      "secao": "legendados",
      "pagina": 61,
      "total_episodios": 21,
      "link_video": "https://animefire.plus/video/tv-yarou-nanaana-wakuwaku-doukutsu-land"
    },
    {
      "id": 3978,
      "nome": "Twin Angel Break",
      "link": "https://animefire.plus/animes/twin-angel-break-todos-os-episodios",
      "texto_original": "Twin Angel Break",
      "rating": 5.94,
      "classificacao_etaria": "A14",
      "imagem_original": "https://animefire.plus/img/animes/twin-angel-break.webp",
      "imagem_pasta": "https://animefire.plus/img/animes/twin-angel-break/",
      "secao": "legendados",
      "pagina": 127,
      "total_episodios": 12,
      "link_video": "https://animefire.plus/video/twin-angel-break"
    },
    {
      "id": 3979,
      "nome": "Twinkle Heart: Gingakei made Todokanai",
      "link": "https://animefire.plus/animes/twinkle-heart-gingakei-made-todokanai-todos-os-episodios",
      "texto_original": "Twinkle Heart: Gingakei made Todokanai",
      "rating": 5.35,
      "classificacao_etaria": "A14",
      "imagem_original": "https://animefire.plus/img/animes/twinkle-heart-gingakei-made-todokanai.webp",
      "imagem_pasta": "https://animefire.plus/img/animes/twinkle-heart-gingakei-made-todokanai/",
      "secao": "legendados",
      "pagina": 69,
      "total_episodios": 1,
      "link_video": "https://animefire.plus/video/twinkle-heart-gingakei-made-todokanai"
    },
    {
      "id": 3980,
      "nome": "Twinkle Nora Rock Me!",
      "link": "https://animefire.plus/animes/twinkle-nora-rock-me-todos-os-episodios",
      "texto_original": "Twinkle Nora Rock Me!",
      "rating": 3.46,
      "classificacao_etaria": "A14",
      "imagem_original": "https://animefire.plus/img/animes/twinkle-nora-rock-me.webp",
      "imagem_pasta": "https://animefire.plus/img/animes/twinkle-nora-rock-me/",
      "secao": "legendados",
      "pagina": 87,
      "total_episodios": 1,
      "link_video": "https://animefire.plus/video/twinkle-nora-rock-me"
    }
  ],
  "pagination": {
    "current_page": 199,
    "per_page": 20,
    "total_items": 4368,
    "total_pages": 219,
    "has_next": true,
    "has_prev": true
  }
}
