{
  "message": "Lista de animes",
  "data": [
    {
      "id": 3741,
      "nome": "Tantei Kageki Milky Holmes TD",
      "link": "https://animefire.plus/animes/tantei-kageki-milky-holmes-td-todos-os-episodios",
      "texto_original": "Tantei Kageki Milky Holmes TD",
      "rating": 6.47,
      "classificacao_etaria": "A14",
      "imagem_original": "https://animefire.plus/img/animes/tantei-kageki-milky-holmes-td.webp",
      "imagem_pasta": "https://animefire.plus/img/animes/tantei-kageki-milky-holmes-td/",
      "secao": "legendados",
      "pagina": 126,
      "total_episodios": 1,
      "link_video": "https://animefire.plus/video/tantei-kageki-milky-holmes-td"
    },
    {
      "id": 3742,
      "nome": "Tantei Opera Milky Holmes",
      "link": "https://animefire.plus/animes/tantei-opera-milky-holmes-todos-os-episodios",
      "texto_original": "Tantei Opera Milky Holmes",
      "rating": 6.99,
      "classificacao_etaria": "A14",
      "imagem_original": "https://animefire.plus/img/animes/tantei-opera-milky-holmes.webp",
      "imagem_pasta": "https://animefire.plus/img/animes/tantei-opera-milky-holmes/",
      "secao": "legendados",
      "pagina": 97,
      "total_episodios": 0,
      "link_video": "https://animefire.plus/video/tantei-opera-milky-holmes"
    },
    {
      "id": 3743,
      "nome": "Tantei Opera Milky Holmes Dai 2 Maku",
      "link": "https://animefire.plus/animes/tantei-opera-milky-holmes-dai-2-maku-todos-os-episodios",
      "texto_original": "Tantei Opera Milky Holmes Dai 2 Maku",
      "rating": 7.27,
      "classificacao_etaria": "A14",
      "imagem_original": "https://animefire.plus/img/animes/tantei-opera-milky-holmes-dai-2-maku.webp",
      "imagem_pasta": "https://animefire.plus/img/animes/tantei-opera-milky-holmes-dai-2-maku/",
      "secao": "legendados",
      "pagina": 177,
      "total_episodios": 9,
      "link_video": "https://animefire.plus/video/tantei-opera-milky-holmes-dai-2-maku"
    },
    {
      "id": 3744,
      "nome": "Tantei Opera Milky Holmes: Alternative",
      "link": "https://animefire.plus/animes/tantei-opera-milky-holmes-alternative-todos-os-episodios",
      "texto_original": "Tantei Opera Milky Holmes: Alternative",
      "rating": 6.54,
      "classificacao_etaria": "A14",
      "imagem_original": "https://animefire.plus/img/animes/tantei-opera-milky-holmes-alternative.webp",
      "imagem_pasta": "https://animefire.plus/img/animes/tantei-opera-milky-holmes-alternative/",
      "secao": "legendados",
      "pagina": 83,
      "total_episodios": 2,
      "link_video": "https://animefire.plus/video/tantei-opera-milky-holmes-alternative"
    },
    {
      "id": 3745,
      "nome": "Tantei Opera Milky Holmes: Arsene Karei naru Yokubou",
      "link": "https://animefire.plus/animes/tantei-opera-milky-holmes-arsene-karei-naru-yokubou-todos-os-episodios",
      "texto_original": "Tantei Opera Milky Holmes: Arsene Karei naru Yokubou",
      "rating": 6.94,
      "classificacao_etaria": "A14",
      "imagem_original": "https://animefire.plus/img/animes/tantei-opera-milky-holmes-arsene-karei-naru-yokubou.webp",
      "imagem_pasta": "https://animefire.plus/img/animes/tantei-opera-milky-holmes-arsene-karei-naru-yokubou/",
      "secao": "legendados",
      "pagina": 87,
      "total_episodios": 1,
      "link_video": "https://animefire.plus/video/tantei-opera-milky-holmes-arsene-karei-naru-yokubou"
    },
    {
      "id": 3746,
      "nome": "Tantei Opera Milky Holmes: Psycho no Aisatsu",
      "link": "https://animefire.plus/animes/tantei-opera-milky-holmes-psycho-no-aisatsu-todos-os-episodios",
      "texto_original": "Tantei Opera Milky Holmes: Psycho no Aisatsu",
      "rating": 6.79,
      "classificacao_etaria": "A14",
      "imagem_original": "https://animefire.plus/img/animes/tantei-opera-milky-holmes-psycho-no-aisatsu.webp",
      "imagem_pasta": "https://animefire.plus/img/animes/tantei-opera-milky-holmes-psycho-no-aisatsu/",
      "secao": "legendados",
      "pagina": 83,
      "total_episodios": 1,
      "link_video": "https://animefire.plus/video/tantei-opera-milky-holmes-psycho-no-aisatsu"
    },
    {
      "id": 3747,
      "nome": "Tantei Opera Milky Holmes: Summer Special",
      "link": "https://animefire.plus/animes/tantei-opera-milky-holmes-summer-special-todos-os-episodios",
      "texto_original": "Tantei Opera Milky Holmes: Summer Special",
      "rating": 7,
      "classificacao_etaria": "A14",
      "imagem_original": "https://animefire.plus/img/animes/tantei-opera-milky-holmes-summer-special.webp",
      "imagem_pasta": "https://animefire.plus/img/animes/tantei-opera-milky-holmes-summer-special/",
      "secao": "legendados",
      "pagina": 87,
      "total_episodios": 1,
      "link_video": "https://animefire.plus/video/tantei-opera-milky-holmes-summer-special"
    },
    {
      "id": 3748,
      "nome": "Tantei Team KZ Jiken Note",
      "link": "https://animefire.plus/animes/tantei-team-kz-jiken-note-todos-os-episodios",
      "texto_original": "Tantei Team KZ Jiken Note",
      "rating": 6.25,
      "classificacao_etaria": "A10",
      "imagem_original": "https://animefire.plus/img/animes/tantei-team-kz-jiken-note.webp",
      "imagem_pasta": "https://animefire.plus/img/animes/tantei-team-kz-jiken-note/",
      "secao": "legendados",
      "pagina": 102,
      "total_episodios": 16,
      "link_video": "https://animefire.plus/video/tantei-team-kz-jiken-note"
    },
    {
      "id": 3749,
      "nome": "Tantei wa Mou, Shindeiru. (Dublado)",
      "link": "https://animefire.plus/animes/tantei-wa-mou-shindeiru-dublado-todos-os-episodios",
      "texto_original": "Tantei wa Mou, Shindeiru. (Dublado)",
      "rating": 6.42,
      "classificacao_etaria": "A14",
      "imagem_original": "https://animefire.plus/img/animes/tantei-wa-mou-shindeiru.webp",
      "imagem_pasta": "https://animefire.plus/img/animes/tantei-wa-mou-shindeiru/",
      "secao": "dublados,legendados",
      "pagina": 12,
      "total_episodios": 12,
      "link_video": "https://animefire.plus/video/tantei-wa-mou-shindeiru-dublado"
    },
    {
      "id": 3750,
      "nome": "Tari Tari",
      "link": "https://animefire.plus/animes/tari-tari-todos-os-episodios",
      "texto_original": "Tari Tari",
      "rating": 7.38,
      "classificacao_etaria": "A14",
      "imagem_original": "https://animefire.plus/img/animes/tari-tari.webp",
      "imagem_pasta": "https://animefire.plus/img/animes/tari-tari/",
      "secao": "legendados",
      "pagina": 125,
      "total_episodios": 7,
      "link_video": "https://animefire.plus/video/tari-tari"
    },
    {
      "id": 3751,
      "nome": "Tasogare Otome x Amnesia",
      "link": "https://animefire.plus/animes/tasogare-otome-x-amnesia-todos-os-episodios",
      "texto_original": "Tasogare Otome x Amnesia",
      "rating": 7.92,
      "classificacao_etaria": "A16",
      "imagem_original": "https://animefire.plus/img/animes/tasogare-otome-x-amnesia.webp",
      "imagem_pasta": "https://animefire.plus/img/animes/tasogare-otome-x-amnesia/",
      "secao": "legendados",
      "pagina": 118,
      "total_episodios": 0,
      "link_video": "https://animefire.plus/video/tasogare-otome-x-amnesia"
    },
    {
      "id": 3752,
      "nome": "Tasogare Out Focus",
      "link": "https://animefire.plus/animes/tasogare-out-focus-todos-os-episodios",
      "texto_original": "Tasogare Out Focus",
      "rating": 7.47,
      "classificacao_etaria": "A14",
      "imagem_original": "https://animefire.plus/img/animes/tasogare-out-focus.webp",
      "imagem_pasta": "https://animefire.plus/img/animes/tasogare-out-focus/",
      "secao": "legendados",
      "pagina": 13,
      "total_episodios": 12,
      "link_video": "https://animefire.plus/video/tasogare-out-focus"
    },
    {
      "id": 3753,
      "nome": "Tasokare Hotel",
      "link": "https://animefire.plus/animes/tasokare-hotel-todos-os-episodios",
      "texto_original": "Tasokare Hotel",
      "rating": 7.2,
      "classificacao_etaria": "A14",
      "imagem_original": "https://animefire.plus/img/animes/tasokare-hotel.webp",
      "imagem_pasta": "https://animefire.plus/img/animes/tasokare-hotel/",
      "secao": "legendados",
      "pagina": 7,
      "total_episodios": 12,
      "link_video": "https://animefire.plus/video/tasokare-hotel"
    },
    {
      "id": 3754,
      "nome": "Tasuuketsu",
      "link": "https://animefire.plus/animes/tasuuketsu-todos-os-episodios",
      "texto_original": "Tasuuketsu",
      "rating": 5.55,
      "classificacao_etaria": "A14",
      "imagem_original": "https://animefire.plus/img/animes/tasuuketsu.webp",
      "imagem_pasta": "https://animefire.plus/img/animes/tasuuketsu/",
      "secao": "legendados",
      "pagina": 12,
      "total_episodios": 24,
      "link_video": "https://animefire.plus/video/tasuuketsu"
    },
    {
      "id": 3755,
      "nome": "Tatakae!! Iczer-1",
      "link": "https://animefire.plus/animes/tatakae-iczer-1-todos-os-episodios",
      "texto_original": "Tatakae!! Iczer-1",
      "rating": 6.1,
      "classificacao_etaria": "A18",
      "imagem_original": "https://animefire.plus/img/animes/tatakae-iczer-1.webp",
      "imagem_pasta": "https://animefire.plus/img/animes/tatakae-iczer-1/",
      "secao": "legendados",
      "pagina": 76,
      "total_episodios": 3,
      "link_video": "https://animefire.plus/video/tatakae-iczer-1"
    },
    {
      "id": 3756,
      "nome": "Tatakau Shisho: The Book of Bantorra",
      "link": "https://animefire.plus/animes/tatakau-shisho-the-book-of-bantorra-todos-os-episodios",
      "texto_original": "Tatakau Shisho: The Book of Bantorra",
      "rating": 7.3,
      "classificacao_etaria": "A16",
      "imagem_original": "https://animefire.plus/img/animes/tatakau-shisho-the-book-of-bantorra.webp",
      "imagem_pasta": "https://animefire.plus/img/animes/tatakau-shisho-the-book-of-bantorra/",
      "secao": "legendados",
      "pagina": 111,
      "total_episodios": 27,
      "link_video": "https://animefire.plus/video/tatakau-shisho-the-book-of-bantorra"
    },
    {
      "id": 3757,
      "nome": "Tate no Yuusha no Nariagari (Dublado)",
      "link": "https://animefire.plus/animes/tate-no-yuusha-no-nariagari-dublado-todos-os-episodios",
      "texto_original": "Tate no Yuusha no Nariagari (Dublado)",
      "rating": 8.01,
      "classificacao_etaria": "A14",
      "imagem_original": "https://animefire.plus/img/animes/tate-no-yuusha-no-nariagari.webp",
      "imagem_pasta": "https://animefire.plus/img/animes/tate-no-yuusha-no-nariagari/",
      "secao": "dublados,legendados",
      "pagina": 16,
      "total_episodios": 25,
      "link_video": "https://animefire.plus/video/tate-no-yuusha-no-nariagari-dublado"
    },
    {
      "id": 3758,
      "nome": "Tate no Yuusha no Nariagari Season 2 (Dublado)",
      "link": "https://animefire.plus/animes/tate-no-yuusha-no-nariagari-season-2-dublado-todos-os-episodios",
      "texto_original": "Tate no Yuusha no Nariagari Season 2 (Dublado)",
      "rating": 6.53,
      "classificacao_etaria": "A14",
      "imagem_original": "https://animefire.plus/img/animes/tate-no-yuusha-no-nariagari-season-2.webp",
      "imagem_pasta": "https://animefire.plus/img/animes/tate-no-yuusha-no-nariagari-season-2/",
      "secao": "dublados,legendados",
      "pagina": 11,
      "total_episodios": 13,
      "link_video": "https://animefire.plus/video/tate-no-yuusha-no-nariagari-season-2-dublado"
    },
    {
      "id": 3759,
      "nome": "Tate no Yuusha no Nariagari Season 3 (Dublado)",
      "link": "https://animefire.plus/animes/tate-no-yuusha-no-nariagari-season-3-dublado-todos-os-episodios",
      "texto_original": "Tate no Yuusha no Nariagari Season 3 (Dublado)",
      "rating": 7.1,
      "classificacao_etaria": "A14",
      "imagem_original": "https://animefire.plus/img/animes/tate-no-yuusha-no-nariagari-season-3.webp",
      "imagem_pasta": "https://animefire.plus/img/animes/tate-no-yuusha-no-nariagari-season-3/",
      "secao": "dublados,legendados",
      "pagina": 5,
      "total_episodios": 12,
      "link_video": "https://animefire.plus/video/tate-no-yuusha-no-nariagari-season-3-dublado"
    },
    {
      "id": 3760,
      "nome": "Tate no Yuusha no Nariagari Season 4 (Dublado)",
      "link": "https://animefire.plus/animes/tate-no-yuusha-no-nariagari-season-4-dublado-todos-os-episodios",
      "texto_original": "Tate no Yuusha no Nariagari Season 4 (Dublado)",
      "rating": 7.34,
      "classificacao_etaria": "A14",
      "imagem_original": "https://animefire.plus/img/animes/tate-no-yuusha-no-nariagari-season-4.webp",
      "imagem_pasta": "https://animefire.plus/img/animes/tate-no-yuusha-no-nariagari-season-4/",
      "secao": "dublados,legendados,lancamentos",
      "pagina": 1,
      "total_episodios": 4,
      "link_video": "https://animefire.plus/video/tate-no-yuusha-no-nariagari-season-4-dublado"
    }
  ],
  "pagination": {
    "current_page": 188,
    "per_page": 20,
    "total_items": 4368,
    "total_pages": 219,
    "has_next": true,
    "has_prev": true
  }
}
