{
  "message": "Lista de animes",
  "data": [
    {
      "id": 1181,
      "nome": "Gintama.: Shirogane no Tamashii-hen - Kouhan-sen",
      "link": "https://animefire.plus/animes/gintama-shirogane-no-tamashii-hen---kouhan-sen-todos-os-episodios",
      "texto_original": "Gintama.: Shirogane no Tamashii-hen - Kouhan-sen",
      "rating": 8.84,
      "classificacao_etaria": "A14",
      "imagem_original": "https://animefire.plus/img/animes/gintama-shirogane-no-tamashii-hen---kouhan-sen.webp",
      "imagem_pasta": "https://animefire.plus/img/animes/gintama-shirogane-no-tamashii-hen---kouhan-sen/",
      "secao": "legendados",
      "pagina": 74,
      "total_episodios": 14,
      "link_video": "https://animefire.plus/video/gintama-shirogane-no-tamashii-hen---kouhan-sen"
    },
    {
      "id": 1182,
      "nome": "Gintama'",
      "link": "https://animefire.plus/animes/gintama-season-2-todos-os-episodios",
      "texto_original": "Gintama'",
      "rating": 9.09,
      "classificacao_etaria": "A14",
      "imagem_original": "https://animefire.plus/img/animes/gintama-season-2.webp",
      "imagem_pasta": "https://animefire.plus/img/animes/gintama-season-2/",
      "secao": "legendados",
      "pagina": 53,
      "total_episodios": 51,
      "link_video": "https://animefire.plus/video/gintama-season-2"
    },
    {
      "id": 1183,
      "nome": "Gintama': Enchousen",
      "link": "https://animefire.plus/animes/gintama-enchousen-todos-os-episodios",
      "texto_original": "Gintama': Enchousen",
      "rating": 9.04,
      "classificacao_etaria": "A14",
      "imagem_original": "https://animefire.plus/img/animes/gintama-enchousen.webp",
      "imagem_pasta": "https://animefire.plus/img/animes/gintama-enchousen/",
      "secao": "legendados",
      "pagina": 53,
      "total_episodios": 13,
      "link_video": "https://animefire.plus/video/gintama-enchousen"
    },
    {
      "id": 1184,
      "nome": "Gintama': Futon ni Haitte kara Buki Nokoshi ni Kizuite Neru ni Nerenai Toki mo Aru",
      "link": "https://animefire.plus/animes/gintama-futon-ni-haitte-kara-buki-nokoshi-ni-kizuite-neru-ni-nerenai-toki-mo-aru-todos-os-episodios",
      "texto_original": "Gintama': Futon ni Haitte kara Buki Nokoshi ni Kizuite Neru ni Nerenai Toki mo Aru",
      "rating": 8.11,
      "classificacao_etaria": "A14",
      "imagem_original": "https://animefire.plus/img/animes/gintama-futon-ni-haitte-kara-buki-nokoshi-ni-kizuite-neru-ni-nerenai-toki-mo-aru.webp",
      "imagem_pasta": "https://animefire.plus/img/animes/gintama-futon-ni-haitte-kara-buki-nokoshi-ni-kizuite-neru-ni-nerenai-toki-mo-aru/",
      "secao": "legendados",
      "pagina": 68,
      "total_episodios": 1,
      "link_video": "https://animefire.plus/video/gintama-futon-ni-haitte-kara-buki-nokoshi-ni-kizuite-neru-ni-nerenai-toki-mo-aru"
    },
    {
      "id": 1185,
      "nome": "Gintama째",
      "link": "https://animefire.plus/animes/gintama-season-4-todos-os-episodios",
      "texto_original": "Gintama째",
      "rating": 9.11,
      "classificacao_etaria": "A14",
      "imagem_original": "https://animefire.plus/img/animes/gintama-season-4.webp",
      "imagem_pasta": "https://animefire.plus/img/animes/gintama-season-4/",
      "secao": "legendados",
      "pagina": 53,
      "total_episodios": 51,
      "link_video": "https://animefire.plus/video/gintama-season-4"
    },
    {
      "id": 1186,
      "nome": "Gintama째: Umai-mono wa Atomawashi ni Suru to Yokodorisareru kara Yappari Saki ni Kue",
      "link": "https://animefire.plus/animes/gintama-umai-mono-wa-atomawashi-ni-suru-to-yokodorisareru-kara-yappari-saki-ni-kue-todos-os-episodios",
      "texto_original": "Gintama째: Umai-mono wa Atomawashi ni Suru to Yokodorisareru kara Yappari Saki ni Kue",
      "rating": 8.1,
      "classificacao_etaria": "A14",
      "imagem_original": "https://animefire.plus/img/animes/gintama-umai-mono-wa-atomawashi-ni-suru-to-yokodorisareru-kara-yappari-saki-ni-kue.webp",
      "imagem_pasta": "https://animefire.plus/img/animes/gintama-umai-mono-wa-atomawashi-ni-suru-to-yokodorisareru-kara-yappari-saki-ni-kue/",
      "secao": "legendados",
      "pagina": 68,
      "total_episodios": 1,
      "link_video": "https://animefire.plus/video/gintama-umai-mono-wa-atomawashi-ni-suru-to-yokodorisareru-kara-yappari-saki-ni-kue"
    },
    {
      "id": 1187,
      "nome": "Ginyuu Mokushiroku Meine Liebe",
      "link": "https://animefire.plus/animes/ginyuu-mokushiroku-meine-liebe-todos-os-episodios",
      "texto_original": "Ginyuu Mokushiroku Meine Liebe",
      "rating": 6.5,
      "classificacao_etaria": "A14",
      "imagem_original": "https://animefire.plus/img/animes/ginyuu-mokushiroku-meine-liebe.webp",
      "imagem_pasta": "https://animefire.plus/img/animes/ginyuu-mokushiroku-meine-liebe/",
      "secao": "legendados",
      "pagina": 105,
      "total_episodios": 13,
      "link_video": "https://animefire.plus/video/ginyuu-mokushiroku-meine-liebe"
    },
    {
      "id": 1188,
      "nome": "Ginyuu Mokushiroku Meine Liebe Wieder",
      "link": "https://animefire.plus/animes/ginyuu-mokushiroku-meine-liebe-wieder-todos-os-episodios",
      "texto_original": "Ginyuu Mokushiroku Meine Liebe Wieder",
      "rating": 6.76,
      "classificacao_etaria": "A14",
      "imagem_original": "https://animefire.plus/img/animes/ginyuu-mokushiroku-meine-liebe-wieder.webp",
      "imagem_pasta": "https://animefire.plus/img/animes/ginyuu-mokushiroku-meine-liebe-wieder/",
      "secao": "legendados",
      "pagina": 104,
      "total_episodios": 13,
      "link_video": "https://animefire.plus/video/ginyuu-mokushiroku-meine-liebe-wieder"
    },
    {
      "id": 1189,
      "nome": "Girls & Panzer",
      "link": "https://animefire.plus/animes/girls-panzer-todos-os-episodios",
      "texto_original": "Girls & Panzer",
      "rating": 7.63,
      "classificacao_etaria": "A14",
      "imagem_original": "https://animefire.plus/img/animes/girls-panzer.webp",
      "imagem_pasta": "https://animefire.plus/img/animes/girls-panzer/",
      "secao": "legendados",
      "pagina": 115,
      "total_episodios": 12,
      "link_video": "https://animefire.plus/video/girls-panzer"
    },
    {
      "id": 1190,
      "nome": "Girls Band Cry",
      "link": "https://animefire.plus/animes/girls-band-cry-todos-os-episodios",
      "texto_original": "Girls Band Cry",
      "rating": 8.22,
      "classificacao_etaria": "A14",
      "imagem_original": "https://animefire.plus/img/animes/girls-band-cry.webp",
      "imagem_pasta": "https://animefire.plus/img/animes/girls-band-cry/",
      "secao": "legendados,lancamentos",
      "pagina": 13,
      "total_episodios": 3,
      "link_video": "https://animefire.plus/video/girls-band-cry"
    },
    {
      "id": 1191,
      "nome": "Girls Bravo: First Season",
      "link": "https://animefire.plus/animes/girls-bravo-first-season-todos-os-episodios",
      "texto_original": "Girls Bravo: First Season",
      "rating": 6.57,
      "classificacao_etaria": "A18",
      "imagem_original": "https://animefire.plus/img/animes/girls-bravo-first-season.webp",
      "imagem_pasta": "https://animefire.plus/img/animes/girls-bravo-first-season/",
      "secao": "legendados",
      "pagina": 141,
      "total_episodios": 11,
      "link_video": "https://animefire.plus/video/girls-bravo-first-season"
    },
    {
      "id": 1192,
      "nome": "Girls Bravo: Second Season",
      "link": "https://animefire.plus/animes/girls-bravo-second-season-todos-os-episodios",
      "texto_original": "Girls Bravo: Second Season",
      "rating": 6.79,
      "classificacao_etaria": "A18",
      "imagem_original": "https://animefire.plus/img/animes/girls-bravo-second-season.webp",
      "imagem_pasta": "https://animefire.plus/img/animes/girls-bravo-second-season/",
      "secao": "legendados",
      "pagina": 133,
      "total_episodios": 13,
      "link_video": "https://animefire.plus/video/girls-bravo-second-season"
    },
    {
      "id": 1193,
      "nome": "Girly Air Force",
      "link": "https://animefire.plus/animes/girly-air-force-todos-os-episodios",
      "texto_original": "Girly Air Force",
      "rating": 6.18,
      "classificacao_etaria": "A14",
      "imagem_original": "https://animefire.plus/img/animes/girly-air-force.webp",
      "imagem_pasta": "https://animefire.plus/img/animes/girly-air-force/",
      "secao": "legendados",
      "pagina": 117,
      "total_episodios": 6,
      "link_video": "https://animefire.plus/video/girly-air-force"
    },
    {
      "id": 1194,
      "nome": "Given (Dublado)",
      "link": "https://animefire.plus/animes/given-dublado-todos-os-episodios",
      "texto_original": "Given (Dublado)",
      "rating": 8.34,
      "classificacao_etaria": "A14",
      "imagem_original": "https://animefire.plus/img/animes/given.webp",
      "imagem_pasta": "https://animefire.plus/img/animes/given/",
      "secao": "dublados,legendados",
      "pagina": 7,
      "total_episodios": 11,
      "link_video": "https://animefire.plus/video/given-dublado"
    },
    {
      "id": 1195,
      "nome": "Given: Uragawa no Sonzai",
      "link": "https://animefire.plus/animes/given-uragawa-no-sonzai-todos-os-episodios",
      "texto_original": "Given: Uragawa no Sonzai",
      "rating": 8.13,
      "classificacao_etaria": "A14",
      "imagem_original": "https://animefire.plus/img/animes/given-uragawa-no-sonzai.webp",
      "imagem_pasta": "https://animefire.plus/img/animes/given-uragawa-no-sonzai/",
      "secao": "legendados",
      "pagina": 38,
      "total_episodios": 1,
      "link_video": "https://animefire.plus/video/given-uragawa-no-sonzai"
    },
    {
      "id": 1196,
      "nome": "GJ-bu",
      "link": "https://animefire.plus/animes/gj-bu-todos-os-episodios",
      "texto_original": "GJ-bu",
      "rating": 7.41,
      "classificacao_etaria": "A14",
      "imagem_original": "https://animefire.plus/img/animes/gj-bu.webp",
      "imagem_pasta": "https://animefire.plus/img/animes/gj-bu/",
      "secao": "legendados",
      "pagina": 176,
      "total_episodios": 12,
      "link_video": "https://animefire.plus/video/gj-bu"
    },
    {
      "id": 1197,
      "nome": "Glass no Kamen (2005)",
      "link": "https://animefire.plus/animes/glass-no-kamen-2005-todos-os-episodios",
      "texto_original": "Glass no Kamen (2005)",
      "rating": 8.12,
      "classificacao_etaria": null,
      "imagem_original": "https://animefire.plus/img/animes/glass-no-kamen-2005.webp",
      "imagem_pasta": "https://animefire.plus/img/animes/glass-no-kamen-2005/",
      "secao": "legendados",
      "pagina": 66,
      "total_episodios": 51,
      "link_video": "https://animefire.plus/video/glass-no-kamen-2005"
    },
    {
      "id": 1198,
      "nome": "Glass no Kantai: La Legende du Vent de l'Univers",
      "link": "https://animefire.plus/animes/glass-no-kantai-la-legende-du-vent-de-l-univers-todos-os-episodios",
      "texto_original": "Glass no Kantai: La Legende du Vent de l'Univers",
      "rating": 6.63,
      "classificacao_etaria": "A14",
      "imagem_original": "https://animefire.plus/img/animes/glass-no-kantai-la-legende-du-vent-de-l-univers.webp",
      "imagem_pasta": "https://animefire.plus/img/animes/glass-no-kantai-la-legende-du-vent-de-l-univers/",
      "secao": "legendados",
      "pagina": 138,
      "total_episodios": 0,
      "link_video": "https://animefire.plus/video/glass-no-kantai-la-legende-du-vent-de-l-univers"
    },
    {
      "id": 1199,
      "nome": "Glasslip",
      "link": "https://animefire.plus/animes/glasslip-todos-os-episodios",
      "texto_original": "Glasslip",
      "rating": 5.53,
      "classificacao_etaria": "A14",
      "imagem_original": "https://animefire.plus/img/animes/glasslip.webp",
      "imagem_pasta": "https://animefire.plus/img/animes/glasslip/",
      "secao": "legendados",
      "pagina": 129,
      "total_episodios": 13,
      "link_video": "https://animefire.plus/video/glasslip"
    },
    {
      "id": 1200,
      "nome": "Gleipnir (Dublado)",
      "link": "https://animefire.plus/animes/gleipnir-dublado-todos-os-episodios",
      "texto_original": "Gleipnir (Dublado)",
      "rating": 7.01,
      "classificacao_etaria": "A16",
      "imagem_original": "https://animefire.plus/img/animes/gleipnir.webp",
      "imagem_pasta": "https://animefire.plus/img/animes/gleipnir/",
      "secao": "dublados,legendados",
      "pagina": 14,
      "total_episodios": 13,
      "link_video": "https://animefire.plus/video/gleipnir-dublado"
    }
  ],
  "pagination": {
    "current_page": 60,
    "per_page": 20,
    "total_items": 4368,
    "total_pages": 219,
    "has_next": true,
    "has_prev": true
  }
}
