{
  "message": "Lista de animes",
  "data": [
    {
      "id": 1701,
      "nome": "Izumo: Takeki Tsurugi no Senki",
      "link": "https://animefire.plus/animes/izumo-takeki-tsurugi-no-senki-todos-os-episodios",
      "texto_original": "Izumo: Takeki Tsurugi no Senki",
      "rating": 6.3,
      "classificacao_etaria": "A14",
      "imagem_original": "https://animefire.plus/img/animes/izumo-takeki-tsurugi-no-senki.webp",
      "imagem_pasta": "https://animefire.plus/img/animes/izumo-takeki-tsurugi-no-senki/",
      "secao": "legendados",
      "pagina": 160,
      "total_episodios": 12,
      "link_video": "https://animefire.plus/video/izumo-takeki-tsurugi-no-senki"
    },
    {
      "id": 1702,
      "nome": "Izure Saikyou no Renkinjutsushi? (Dublado)",
      "link": "https://animefire.plus/animes/izure-saikyou-no-renkinjutsushi-dublado-todos-os-episodios",
      "texto_original": "Izure Saikyou no Renkinjutsushi? (Dublado)",
      "rating": 6.61,
      "classificacao_etaria": "A14",
      "imagem_original": "https://animefire.plus/img/animes/izure-saikyou-no-renkinjutsushi.webp",
      "imagem_pasta": "https://animefire.plus/img/animes/izure-saikyou-no-renkinjutsushi/",
      "secao": "dublados,legendados,lancamentos",
      "pagina": 1,
      "total_episodios": 12,
      "link_video": "https://animefire.plus/video/izure-saikyou-no-renkinjutsushi-dublado"
    },
    {
      "id": 1703,
      "nome": "Jahy-sama wa Kujikenai! (Dublado)",
      "link": "https://animefire.plus/animes/jahy-sama-wa-kujikenai-dublado-todos-os-episodios",
      "texto_original": "Jahy-sama wa Kujikenai! (Dublado)",
      "rating": 7.01,
      "classificacao_etaria": "A14",
      "imagem_original": "https://animefire.plus/img/animes/jahy-sama-wa-kujikenai.webp",
      "imagem_pasta": "https://animefire.plus/img/animes/jahy-sama-wa-kujikenai/",
      "secao": "dublados,legendados",
      "pagina": 9,
      "total_episodios": 20,
      "link_video": "https://animefire.plus/video/jahy-sama-wa-kujikenai-dublado"
    },
    {
      "id": 1704,
      "nome": "Jaku-Chara Tomozaki-kun",
      "link": "https://animefire.plus/animes/jaku-chara-tomozaki-kun-todos-os-episodios",
      "texto_original": "Jaku-Chara Tomozaki-kun",
      "rating": 7.11,
      "classificacao_etaria": "A14",
      "imagem_original": "https://animefire.plus/img/animes/jaku-chara-tomozaki-kun.webp",
      "imagem_pasta": "https://animefire.plus/img/animes/jaku-chara-tomozaki-kun/",
      "secao": "legendados",
      "pagina": 49,
      "total_episodios": 14,
      "link_video": "https://animefire.plus/video/jaku-chara-tomozaki-kun"
    },
    {
      "id": 1705,
      "nome": "Jaku-Chara Tomozaki-kun 2nd Stage",
      "link": "https://animefire.plus/animes/jaku-chara-tomozaki-kun-2nd-stage-todos-os-episodios",
      "texto_original": "Jaku-Chara Tomozaki-kun 2nd Stage",
      "rating": 7.03,
      "classificacao_etaria": "A14",
      "imagem_original": "https://animefire.plus/img/animes/jaku-chara-tomozaki-kun-2nd-stage.webp",
      "imagem_pasta": "https://animefire.plus/img/animes/jaku-chara-tomozaki-kun-2nd-stage/",
      "secao": "legendados",
      "pagina": 18,
      "total_episodios": 13,
      "link_video": "https://animefire.plus/video/jaku-chara-tomozaki-kun-2nd-stage"
    },
    {
      "id": 1706,
      "nome": "Jantama Pong☆",
      "link": "https://animefire.plus/animes/jantama-pong-todos-os-episodios",
      "texto_original": "Jantama Pong☆",
      "rating": 6.08,
      "classificacao_etaria": "A14",
      "imagem_original": "https://animefire.plus/img/animes/jantama-pong.webp",
      "imagem_pasta": "https://animefire.plus/img/animes/jantama-pong/",
      "secao": "legendados,lancamentos",
      "pagina": 33,
      "total_episodios": 0,
      "link_video": "https://animefire.plus/video/jantama-pong"
    },
    {
      "id": 1707,
      "nome": "Jashin-chan Dropkick",
      "link": "https://animefire.plus/animes/jashin-chan-dropkick-todos-os-episodios",
      "texto_original": "Jashin-chan Dropkick",
      "rating": 6.91,
      "classificacao_etaria": "A14",
      "imagem_original": "https://animefire.plus/img/animes/jashin-chan-dropkick.webp",
      "imagem_pasta": "https://animefire.plus/img/animes/jashin-chan-dropkick/",
      "secao": "legendados",
      "pagina": 126,
      "total_episodios": 12,
      "link_video": "https://animefire.plus/video/jashin-chan-dropkick"
    },
    {
      "id": 1708,
      "nome": "Jashin-chan Dropkick 2nd Season",
      "link": "https://animefire.plus/animes/jashin-chan-dropkick-2nd-season-todos-os-episodios",
      "texto_original": "Jashin-chan Dropkick 2nd Season",
      "rating": 7.42,
      "classificacao_etaria": "A14",
      "imagem_original": "https://animefire.plus/img/animes/jashin-chan-dropkick-2nd-season.webp",
      "imagem_pasta": "https://animefire.plus/img/animes/jashin-chan-dropkick-2nd-season/",
      "secao": "legendados",
      "pagina": 81,
      "total_episodios": 12,
      "link_video": "https://animefire.plus/video/jashin-chan-dropkick-2nd-season"
    },
    {
      "id": 1709,
      "nome": "Jashin-chan Dropkick Episode 12",
      "link": "https://animefire.plus/animes/jashin-chan-dropkick-episode-12-todos-os-episodios",
      "texto_original": "Jashin-chan Dropkick Episode 12",
      "rating": 7.08,
      "classificacao_etaria": "A14",
      "imagem_original": "https://animefire.plus/img/animes/jashin-chan-dropkick-episode-12.webp",
      "imagem_pasta": "https://animefire.plus/img/animes/jashin-chan-dropkick-episode-12/",
      "secao": "legendados",
      "pagina": 86,
      "total_episodios": 1,
      "link_video": "https://animefire.plus/video/jashin-chan-dropkick-episode-12"
    },
    {
      "id": 1710,
      "nome": "Jashin-chan Dropkick X",
      "link": "https://animefire.plus/animes/jashin-chan-dropkick-x-todos-os-episodios",
      "texto_original": "Jashin-chan Dropkick X",
      "rating": 7.42,
      "classificacao_etaria": "A14",
      "imagem_original": "https://animefire.plus/img/animes/jashin-chan-dropkick-x.webp",
      "imagem_pasta": "https://animefire.plus/img/animes/jashin-chan-dropkick-x/",
      "secao": "legendados",
      "pagina": 31,
      "total_episodios": 12,
      "link_video": "https://animefire.plus/video/jashin-chan-dropkick-x"
    },
    {
      "id": 1711,
      "nome": "Ji Yao Lu: Qicheng Pian",
      "link": "https://animefire.plus/animes/ji-yao-lu-qicheng-pian-todos-os-episodios",
      "texto_original": "Ji Yao Lu: Qicheng Pian",
      "rating": 6.41,
      "classificacao_etaria": "A14",
      "imagem_original": "https://animefire.plus/img/animes/ji-yao-lu-qicheng-pian.webp",
      "imagem_pasta": "https://animefire.plus/img/animes/ji-yao-lu-qicheng-pian/",
      "secao": "legendados",
      "pagina": 8,
      "total_episodios": 12,
      "link_video": "https://animefire.plus/video/ji-yao-lu-qicheng-pian"
    },
    {
      "id": 1712,
      "nome": "Jian Wangchao",
      "link": "https://animefire.plus/animes/jian-wangchao-todos-os-episodios",
      "texto_original": "Jian Wangchao",
      "rating": 6.01,
      "classificacao_etaria": "A14",
      "imagem_original": "https://animefire.plus/img/animes/jian-wangchao.webp",
      "imagem_pasta": "https://animefire.plus/img/animes/jian-wangchao/",
      "secao": "legendados",
      "pagina": 61,
      "total_episodios": 7,
      "link_video": "https://animefire.plus/video/jian-wangchao"
    },
    {
      "id": 1713,
      "nome": "Jibaku Shounen Hanako-kun (Dublado)",
      "link": "https://animefire.plus/animes/jibaku-shounen-hanako-kun-dublado-todos-os-episodios",
      "texto_original": "Jibaku Shounen Hanako-kun (Dublado)",
      "rating": 7.83,
      "classificacao_etaria": "A14",
      "imagem_original": "https://animefire.plus/img/animes/jibaku-shounen-hanako-kun.webp",
      "imagem_pasta": "https://animefire.plus/img/animes/jibaku-shounen-hanako-kun/",
      "secao": "dublados,legendados",
      "pagina": 15,
      "total_episodios": 12,
      "link_video": "https://animefire.plus/video/jibaku-shounen-hanako-kun-dublado"
    },
    {
      "id": 1714,
      "nome": "Jibaku Shounen Hanako-kun 2",
      "link": "https://animefire.plus/animes/jibaku-shounen-hanako-kun-2-todos-os-episodios",
      "texto_original": "Jibaku Shounen Hanako-kun 2",
      "rating": 7.9,
      "classificacao_etaria": "A14",
      "imagem_original": "https://animefire.plus/img/animes/jibaku-shounen-hanako-kun-2.webp",
      "imagem_pasta": "https://animefire.plus/img/animes/jibaku-shounen-hanako-kun-2/",
      "secao": "legendados",
      "pagina": 8,
      "total_episodios": 12,
      "link_video": "https://animefire.plus/video/jibaku-shounen-hanako-kun-2"
    },
    {
      "id": 1715,
      "nome": "Jibaku Shounen Hanako-kun 2 Part 2",
      "link": "https://animefire.plus/animes/jibaku-shounen-hanako-kun-2-part-2-todos-os-episodios",
      "texto_original": "Jibaku Shounen Hanako-kun 2 Part 2",
      "rating": 7.92,
      "classificacao_etaria": "A14",
      "imagem_original": "https://animefire.plus/img/animes/jibaku-shounen-hanako-kun-2-part-2.webp",
      "imagem_pasta": "https://animefire.plus/img/animes/jibaku-shounen-hanako-kun-2-part-2/",
      "secao": "legendados,lancamentos",
      "pagina": 2,
      "total_episodios": 5,
      "link_video": "https://animefire.plus/video/jibaku-shounen-hanako-kun-2-part-2"
    },
    {
      "id": 1716,
      "nome": "Jibaku-kun",
      "link": "https://animefire.plus/animes/jibaku-kun-todos-os-episodios",
      "texto_original": "Jibaku-kun",
      "rating": 7.49,
      "classificacao_etaria": "A14",
      "imagem_original": "https://animefire.plus/img/animes/jibaku-kun.webp",
      "imagem_pasta": "https://animefire.plus/img/animes/jibaku-kun/",
      "secao": "legendados",
      "pagina": 179,
      "total_episodios": 26,
      "link_video": "https://animefire.plus/video/jibaku-kun"
    },
    {
      "id": 1717,
      "nome": "Jidou Hanbaiki ni Umarekawatta Ore wa Meikyuu wo Samayou (Dublado)",
      "link": "https://animefire.plus/animes/jidou-hanbaiki-ni-umarekawatta-ore-wa-meikyuu-wo-samayou-dublado-todos-os-episodios",
      "texto_original": "Jidou Hanbaiki ni Umarekawatta Ore wa Meikyuu wo Samayou (Dublado)",
      "rating": 6.45,
      "classificacao_etaria": "A14",
      "imagem_original": "https://animefire.plus/img/animes/jidou-hanbaiki-ni-umarekawatta-ore-wa-meikyuu-wo-samayou.webp",
      "imagem_pasta": "https://animefire.plus/img/animes/jidou-hanbaiki-ni-umarekawatta-ore-wa-meikyuu-wo-samayou/",
      "secao": "dublados,legendados",
      "pagina": 6,
      "total_episodios": 12,
      "link_video": "https://animefire.plus/video/jidou-hanbaiki-ni-umarekawatta-ore-wa-meikyuu-wo-samayou-dublado"
    },
    {
      "id": 1718,
      "nome": "Jidou Hanbaiki ni Umarekawatta Ore wa Meikyuu wo Samayou 2nd Season",
      "link": "https://animefire.plus/animes/jidou-hanbaiki-ni-umarekawatta-ore-wa-meikyuu-wo-samayou-2nd-season-todos-os-episodios",
      "texto_original": "Jidou Hanbaiki ni Umarekawatta Ore wa Meikyuu wo Samayou 2nd Season",
      "rating": 6.61,
      "classificacao_etaria": "A14",
      "imagem_original": "https://animefire.plus/img/animes/jidou-hanbaiki-ni-umarekawatta-ore-wa-meikyuu-wo-samayou-2nd-season.webp",
      "imagem_pasta": "https://animefire.plus/img/animes/jidou-hanbaiki-ni-umarekawatta-ore-wa-meikyuu-wo-samayou-2nd-season/",
      "secao": "legendados,lancamentos",
      "pagina": 1,
      "total_episodios": 5,
      "link_video": "https://animefire.plus/video/jidou-hanbaiki-ni-umarekawatta-ore-wa-meikyuu-wo-samayou-2nd-season"
    },
    {
      "id": 1719,
      "nome": "Jie Mo Ren",
      "link": "https://animefire.plus/animes/jie-mo-ren-todos-os-episodios",
      "texto_original": "Jie Mo Ren",
      "rating": 6.34,
      "classificacao_etaria": "A14",
      "imagem_original": "https://animefire.plus/img/animes/jie-mo-ren.webp",
      "imagem_pasta": "https://animefire.plus/img/animes/jie-mo-ren/",
      "secao": "legendados",
      "pagina": 147,
      "total_episodios": 14,
      "link_video": "https://animefire.plus/video/jie-mo-ren"
    },
    {
      "id": 1720,
      "nome": "Jie Yao",
      "link": "https://animefire.plus/animes/jie-yao-todos-os-episodios",
      "texto_original": "Jie Yao",
      "rating": 7.01,
      "classificacao_etaria": "A14",
      "imagem_original": "https://animefire.plus/img/animes/jie-yao.webp",
      "imagem_pasta": "https://animefire.plus/img/animes/jie-yao/",
      "secao": "legendados",
      "pagina": 90,
      "total_episodios": 0,
      "link_video": "https://animefire.plus/video/jie-yao"
    }
  ],
  "pagination": {
    "current_page": 86,
    "per_page": 20,
    "total_items": 4368,
    "total_pages": 219,
    "has_next": true,
    "has_prev": true
  }
}
