{
  "message": "Lista de animes",
  "data": [
    {
      "id": 3901,
      "nome": "Tonagura!",
      "link": "https://animefire.plus/animes/tonagura-todos-os-episodios",
      "texto_original": "Tonagura!",
      "rating": 6.81,
      "classificacao_etaria": "A14",
      "imagem_original": "https://animefire.plus/img/animes/tonagura.webp",
      "imagem_pasta": "https://animefire.plus/img/animes/tonagura/",
      "secao": "legendados",
      "pagina": 117,
      "total_episodios": 1,
      "link_video": "https://animefire.plus/video/tonagura"
    },
    {
      "id": 3902,
      "nome": "Tonari no Kaibutsu-kun",
      "link": "https://animefire.plus/animes/tonari-no-kaibutsu-kun-todos-os-episodios",
      "texto_original": "Tonari no Kaibutsu-kun",
      "rating": 7.67,
      "classificacao_etaria": "A14",
      "imagem_original": "https://animefire.plus/img/animes/tonari-no-kaibutsu-kun.webp",
      "imagem_pasta": "https://animefire.plus/img/animes/tonari-no-kaibutsu-kun/",
      "secao": "legendados",
      "pagina": 132,
      "total_episodios": 0,
      "link_video": "https://animefire.plus/video/tonari-no-kaibutsu-kun"
    },
    {
      "id": 3903,
      "nome": "Tonari no Kyuuketsuki-san",
      "link": "https://animefire.plus/animes/tonari-no-kyuuketsuki-san-todos-os-episodios",
      "texto_original": "Tonari no Kyuuketsuki-san",
      "rating": 7.18,
      "classificacao_etaria": "A14",
      "imagem_original": "https://animefire.plus/img/animes/tonari-no-kyuuketsuki-san.webp",
      "imagem_pasta": "https://animefire.plus/img/animes/tonari-no-kyuuketsuki-san/",
      "secao": "legendados",
      "pagina": 136,
      "total_episodios": 12,
      "link_video": "https://animefire.plus/video/tonari-no-kyuuketsuki-san"
    },
    {
      "id": 3904,
      "nome": "Tonari no Seki-kun",
      "link": "https://animefire.plus/animes/tonari-no-seki-kun-todos-os-episodios",
      "texto_original": "Tonari no Seki-kun",
      "rating": 7.62,
      "classificacao_etaria": null,
      "imagem_original": "https://animefire.plus/img/animes/tonari-no-seki-kun.webp",
      "imagem_pasta": "https://animefire.plus/img/animes/tonari-no-seki-kun/",
      "secao": "legendados",
      "pagina": 67,
      "total_episodios": 21,
      "link_video": "https://animefire.plus/video/tonari-no-seki-kun"
    },
    {
      "id": 3905,
      "nome": "Tonari no Seki-kun OVA",
      "link": "https://animefire.plus/animes/tonari-no-seki-kun-ova-todos-os-episodios",
      "texto_original": "Tonari no Seki-kun OVA",
      "rating": 7.44,
      "classificacao_etaria": null,
      "imagem_original": "https://animefire.plus/img/animes/tonari-no-seki-kun-ova.webp",
      "imagem_pasta": "https://animefire.plus/img/animes/tonari-no-seki-kun-ova/",
      "secao": "legendados",
      "pagina": 67,
      "total_episodios": 1,
      "link_video": "https://animefire.plus/video/tonari-no-seki-kun-ova"
    },
    {
      "id": 3906,
      "nome": "Tonari no Seki-kun Specials",
      "link": "https://animefire.plus/animes/tonari-no-seki-kun-specials-todos-os-episodios",
      "texto_original": "Tonari no Seki-kun Specials",
      "rating": 7.49,
      "classificacao_etaria": null,
      "imagem_original": "https://animefire.plus/img/animes/tonari-no-seki-kun-specials.webp",
      "imagem_pasta": "https://animefire.plus/img/animes/tonari-no-seki-kun-specials/",
      "secao": "legendados",
      "pagina": 67,
      "total_episodios": 2,
      "link_video": "https://animefire.plus/video/tonari-no-seki-kun-specials"
    },
    {
      "id": 3907,
      "nome": "Tonari no Youkai-san",
      "link": "https://animefire.plus/animes/tonari-no-youkai-san-todos-os-episodios",
      "texto_original": "Tonari no Youkai-san",
      "rating": 7.28,
      "classificacao_etaria": "A14",
      "imagem_original": "https://animefire.plus/img/animes/tonari-no-youkai-san.webp",
      "imagem_pasta": "https://animefire.plus/img/animes/tonari-no-youkai-san/",
      "secao": "legendados",
      "pagina": 14,
      "total_episodios": 13,
      "link_video": "https://animefire.plus/video/tonari-no-youkai-san"
    },
    {
      "id": 3908,
      "nome": "Tondemo Skill de Isekai Hourou Meshi",
      "link": "https://animefire.plus/animes/tondemo-skill-de-isekai-hourou-meshi-todos-os-episodios",
      "texto_original": "Tondemo Skill de Isekai Hourou Meshi",
      "rating": 7.64,
      "classificacao_etaria": "A14",
      "imagem_original": "https://animefire.plus/img/animes/tondemo-skill-de-isekai-hourou-meshi.webp",
      "imagem_pasta": "https://animefire.plus/img/animes/tondemo-skill-de-isekai-hourou-meshi/",
      "secao": "legendados",
      "pagina": 26,
      "total_episodios": 12,
      "link_video": "https://animefire.plus/video/tondemo-skill-de-isekai-hourou-meshi"
    },
    {
      "id": 3909,
      "nome": "Tong Ling Fei",
      "link": "https://animefire.plus/animes/tong-ling-fei-todos-os-episodios",
      "texto_original": "Tong Ling Fei",
      "rating": 8.04,
      "classificacao_etaria": "A14",
      "imagem_original": "https://animefire.plus/img/animes/tong-ling-fei.webp",
      "imagem_pasta": "https://animefire.plus/img/animes/tong-ling-fei/",
      "secao": "legendados",
      "pagina": 128,
      "total_episodios": 16,
      "link_video": "https://animefire.plus/video/tong-ling-fei"
    },
    {
      "id": 3910,
      "nome": "Tong Zhi Zhe",
      "link": "https://animefire.plus/animes/tong-zhi-zhe-todos-os-episodios",
      "texto_original": "Tong Zhi Zhe",
      "rating": 6.64,
      "classificacao_etaria": "A16",
      "imagem_original": "https://animefire.plus/img/animes/tong-zhi-zhe.webp",
      "imagem_pasta": "https://animefire.plus/img/animes/tong-zhi-zhe/",
      "secao": "legendados",
      "pagina": 160,
      "total_episodios": 10,
      "link_video": "https://animefire.plus/video/tong-zhi-zhe"
    },
    {
      "id": 3911,
      "nome": "Tonikaku Kawaii (Dublado)",
      "link": "https://animefire.plus/animes/tonikaku-kawaii-dublado-todos-os-episodios",
      "texto_original": "Tonikaku Kawaii (Dublado)",
      "rating": 7.96,
      "classificacao_etaria": "A14",
      "imagem_original": "https://animefire.plus/img/animes/tonikaku-kawaii.webp",
      "imagem_pasta": "https://animefire.plus/img/animes/tonikaku-kawaii/",
      "secao": "dublados,legendados,lancamentos",
      "pagina": 19,
      "total_episodios": 11,
      "link_video": "https://animefire.plus/video/tonikaku-kawaii-dublado"
    },
    {
      "id": 3912,
      "nome": "Tonikaku Kawaii 2nd Season (Dublado)",
      "link": "https://animefire.plus/animes/tonikaku-kawaii-2nd-season-dublado-todos-os-episodios",
      "texto_original": "Tonikaku Kawaii 2nd Season (Dublado)",
      "rating": 7.62,
      "classificacao_etaria": "A14",
      "imagem_original": "https://animefire.plus/img/animes/tonikaku-kawaii-2nd-season.webp",
      "imagem_pasta": "https://animefire.plus/img/animes/tonikaku-kawaii-2nd-season/",
      "secao": "dublados,legendados",
      "pagina": 7,
      "total_episodios": 12,
      "link_video": "https://animefire.plus/video/tonikaku-kawaii-2nd-season-dublado"
    },
    {
      "id": 3913,
      "nome": "Tonikaku Kawaii: Joshikou-hen (Dublado)",
      "link": "https://animefire.plus/animes/tonikaku-kawaii-joshikou-hen-dublado-todos-os-episodios",
      "texto_original": "Tonikaku Kawaii: Joshikou-hen (Dublado)",
      "rating": 7.76,
      "classificacao_etaria": "A14",
      "imagem_original": "https://animefire.plus/img/animes/tonikaku-kawaii-joshikou-hen.webp",
      "imagem_pasta": "https://animefire.plus/img/animes/tonikaku-kawaii-joshikou-hen/",
      "secao": "dublados,legendados",
      "pagina": 7,
      "total_episodios": 4,
      "link_video": "https://animefire.plus/video/tonikaku-kawaii-joshikou-hen-dublado"
    },
    {
      "id": 3914,
      "nome": "Tonikaku Kawaii: Seifuku (Dublado)",
      "link": "https://animefire.plus/animes/tonikaku-kawaii-seifuku-dublado-todos-os-episodios",
      "texto_original": "Tonikaku Kawaii: Seifuku (Dublado)",
      "rating": 7.72,
      "classificacao_etaria": "A14",
      "imagem_original": "https://animefire.plus/img/animes/tonikaku-kawaii-seifuku.webp",
      "imagem_pasta": "https://animefire.plus/img/animes/tonikaku-kawaii-seifuku/",
      "secao": "dublados,legendados",
      "pagina": 6,
      "total_episodios": 1,
      "link_video": "https://animefire.plus/video/tonikaku-kawaii-seifuku-dublado"
    },
    {
      "id": 3915,
      "nome": "Tonikaku Kawaii: SNS (Dublado)",
      "link": "https://animefire.plus/animes/tonikaku-kawaii-sns-dublado-todos-os-episodios",
      "texto_original": "Tonikaku Kawaii: SNS (Dublado)",
      "rating": 8.01,
      "classificacao_etaria": "A14",
      "imagem_original": "https://animefire.plus/img/animes/tonikaku-kawaii-sns.webp",
      "imagem_pasta": "https://animefire.plus/img/animes/tonikaku-kawaii-sns/",
      "secao": "dublados,legendados",
      "pagina": 15,
      "total_episodios": 1,
      "link_video": "https://animefire.plus/video/tonikaku-kawaii-sns-dublado"
    },
    {
      "id": 3916,
      "nome": "Top wo Nerae 2! Diebuster",
      "link": "https://animefire.plus/animes/top-wo-nerae-2-diebuster-todos-os-episodios",
      "texto_original": "Top wo Nerae 2! Diebuster",
      "rating": 7.66,
      "classificacao_etaria": "A18",
      "imagem_original": "https://animefire.plus/img/animes/top-wo-nerae-2-diebuster.webp",
      "imagem_pasta": "https://animefire.plus/img/animes/top-wo-nerae-2-diebuster/",
      "secao": "legendados",
      "pagina": 41,
      "total_episodios": 6,
      "link_video": "https://animefire.plus/video/top-wo-nerae-2-diebuster"
    },
    {
      "id": 3917,
      "nome": "Top wo Nerae! Gunbuster",
      "link": "https://animefire.plus/animes/top-wo-nerae-gunbuster-todos-os-episodios",
      "texto_original": "Top wo Nerae! Gunbuster",
      "rating": 7.89,
      "classificacao_etaria": "A18",
      "imagem_original": "https://animefire.plus/img/animes/top-wo-nerae-gunbuster.webp",
      "imagem_pasta": "https://animefire.plus/img/animes/top-wo-nerae-gunbuster/",
      "secao": "legendados",
      "pagina": 53,
      "total_episodios": 1,
      "link_video": "https://animefire.plus/video/top-wo-nerae-gunbuster"
    },
    {
      "id": 3918,
      "nome": "Toradora!",
      "link": "https://animefire.plus/animes/toradora-todos-os-episodios",
      "texto_original": "Toradora!",
      "rating": 8.36,
      "classificacao_etaria": "A14",
      "imagem_original": "https://animefire.plus/img/animes/toradora.webp",
      "imagem_pasta": "https://animefire.plus/img/animes/toradora/",
      "secao": "legendados",
      "pagina": 173,
      "total_episodios": 0,
      "link_video": "https://animefire.plus/video/toradora"
    },
    {
      "id": 3919,
      "nome": "Toradora!: Bentou no Gokui",
      "link": "https://animefire.plus/animes/toradora-bentou-no-gokui-todos-os-episodios",
      "texto_original": "Toradora!: Bentou no Gokui",
      "rating": 7.48,
      "classificacao_etaria": "A14",
      "imagem_original": "https://animefire.plus/img/animes/toradora-bentou-no-gokui.webp",
      "imagem_pasta": "https://animefire.plus/img/animes/toradora-bentou-no-gokui/",
      "secao": "legendados",
      "pagina": 71,
      "total_episodios": 1,
      "link_video": "https://animefire.plus/video/toradora-bentou-no-gokui"
    },
    {
      "id": 3920,
      "nome": "Toradora!: SOS! Kuishinbou Banbanzai",
      "link": "https://animefire.plus/animes/toradora-sos-kuishinbou-banbanzai-todos-os-episodios",
      "texto_original": "Toradora!: SOS! Kuishinbou Banbanzai",
      "rating": 6.38,
      "classificacao_etaria": "A14",
      "imagem_original": "https://animefire.plus/img/animes/toradora-sos-kuishinbou-banbanzai.webp",
      "imagem_pasta": "https://animefire.plus/img/animes/toradora-sos-kuishinbou-banbanzai/",
      "secao": "legendados",
      "pagina": 71,
      "total_episodios": 4,
      "link_video": "https://animefire.plus/video/toradora-sos-kuishinbou-banbanzai"
    }
  ],
  "pagination": {
    "current_page": 196,
    "per_page": 20,
    "total_items": 4368,
    "total_pages": 219,
    "has_next": true,
    "has_prev": true
  }
}
