{
  "message": "Lista de animes",
  "data": [
    {
      "id": 3461,
      "nome": "Shinkon Gattai Godannar!! 2nd Season",
      "link": "https://animefire.plus/animes/shinkon-gattai-godannar-2nd-season-todos-os-episodios",
      "texto_original": "Shinkon Gattai Godannar!! 2nd Season",
      "rating": 7,
      "classificacao_etaria": "A14",
      "imagem_original": "https://animefire.plus/img/animes/shinkon-gattai-godannar-2nd-season.webp",
      "imagem_pasta": "https://animefire.plus/img/animes/shinkon-gattai-godannar-2nd-season/",
      "secao": "legendados",
      "pagina": 69,
      "total_episodios": 13,
      "link_video": "https://animefire.plus/video/shinkon-gattai-godannar-2nd-season"
    },
    {
      "id": 3462,
      "nome": "Shinkyoku Soukai Polyphonica",
      "link": "https://animefire.plus/animes/shinkyoku-soukai-polyphonica-todos-os-episodios",
      "texto_original": "Shinkyoku Soukai Polyphonica",
      "rating": 6.9,
      "classificacao_etaria": "A14",
      "imagem_original": "https://animefire.plus/img/animes/shinkyoku-soukai-polyphonica.webp",
      "imagem_pasta": "https://animefire.plus/img/animes/shinkyoku-soukai-polyphonica/",
      "secao": "legendados",
      "pagina": 150,
      "total_episodios": 12,
      "link_video": "https://animefire.plus/video/shinkyoku-soukai-polyphonica"
    },
    {
      "id": 3463,
      "nome": "Shinkyoku Soukai Polyphonica Crimson S",
      "link": "https://animefire.plus/animes/shinkyoku-soukai-polyphonica-crimson-s-todos-os-episodios",
      "texto_original": "Shinkyoku Soukai Polyphonica Crimson S",
      "rating": 7.25,
      "classificacao_etaria": "A14",
      "imagem_original": "https://animefire.plus/img/animes/shinkyoku-soukai-polyphonica-crimson-s.webp",
      "imagem_pasta": "https://animefire.plus/img/animes/shinkyoku-soukai-polyphonica-crimson-s/",
      "secao": "legendados",
      "pagina": 137,
      "total_episodios": 0,
      "link_video": "https://animefire.plus/video/shinkyoku-soukai-polyphonica-crimson-s"
    },
    {
      "id": 3464,
      "nome": "Shinmai Maou No Testament",
      "link": "https://animefire.plus/animes/shinmai-maou-no-testament-todos-os-episodios",
      "texto_original": "Shinmai Maou No Testament",
      "rating": 7,
      "classificacao_etaria": "A18",
      "imagem_original": "https://animefire.plus/img/animes/shinmai-maou-no-testament.webp",
      "imagem_pasta": "https://animefire.plus/img/animes/shinmai-maou-no-testament/",
      "secao": "legendados",
      "pagina": 97,
      "total_episodios": 4,
      "link_video": "https://animefire.plus/video/shinmai-maou-no-testament"
    },
    {
      "id": 3465,
      "nome": "Shinmai Maou no Testament Burst",
      "link": "https://animefire.plus/animes/shinmai-maou-no-testament-burst-todos-os-episodios",
      "texto_original": "Shinmai Maou no Testament Burst",
      "rating": 7.07,
      "classificacao_etaria": "A18",
      "imagem_original": "https://animefire.plus/img/animes/shinmai-maou-no-testament-burst.webp",
      "imagem_pasta": "https://animefire.plus/img/animes/shinmai-maou-no-testament-burst/",
      "secao": "legendados",
      "pagina": 94,
      "total_episodios": 0,
      "link_video": "https://animefire.plus/video/shinmai-maou-no-testament-burst"
    },
    {
      "id": 3466,
      "nome": "Shinmai Maou no Testament Departures",
      "link": "https://animefire.plus/animes/shinmai-maou-no-testament-departures-todos-os-episodios",
      "texto_original": "Shinmai Maou no Testament Departures",
      "rating": 7.01,
      "classificacao_etaria": "A18",
      "imagem_original": "https://animefire.plus/img/animes/shinmai-maou-no-testament-departures.webp",
      "imagem_pasta": "https://animefire.plus/img/animes/shinmai-maou-no-testament-departures/",
      "secao": "legendados",
      "pagina": 59,
      "total_episodios": 0,
      "link_video": "https://animefire.plus/video/shinmai-maou-no-testament-departures"
    },
    {
      "id": 3467,
      "nome": "Shinmai Ossan Boukensha, Saikyou Party ni Shinu hodo Kitaerarete Muteki ni Naru.",
      "link": "https://animefire.plus/animes/shinmai-ossan-boukensha-saikyou-party-ni-shinu-hodo-kitaerarete-muteki-ni-naru-todos-os-episodios",
      "texto_original": "Shinmai Ossan Boukensha, Saikyou Party ni Shinu hodo Kitaerarete Muteki ni Naru.",
      "rating": 7.37,
      "classificacao_etaria": "A14",
      "imagem_original": "https://animefire.plus/img/animes/shinmai-ossan-boukensha-saikyou-party-ni-shinu-hodo-kitaerarete-muteki-ni-naru.webp",
      "imagem_pasta": "https://animefire.plus/img/animes/shinmai-ossan-boukensha-saikyou-party-ni-shinu-hodo-kitaerarete-muteki-ni-naru/",
      "secao": "legendados",
      "pagina": 12,
      "total_episodios": 12,
      "link_video": "https://animefire.plus/video/shinmai-ossan-boukensha-saikyou-party-ni-shinu-hodo-kitaerarete-muteki-ni-naru"
    },
    {
      "id": 3468,
      "nome": "Shinmai Renkinjutsushi no Tenpo Keiei",
      "link": "https://animefire.plus/animes/shinmai-renkinjutsushi-no-tenpo-keiei-todos-os-episodios",
      "texto_original": "Shinmai Renkinjutsushi no Tenpo Keiei",
      "rating": 6.62,
      "classificacao_etaria": "A14",
      "imagem_original": "https://animefire.plus/img/animes/shinmai-renkinjutsushi-no-tenpo-keiei.webp",
      "imagem_pasta": "https://animefire.plus/img/animes/shinmai-renkinjutsushi-no-tenpo-keiei/",
      "secao": "legendados",
      "pagina": 29,
      "total_episodios": 12,
      "link_video": "https://animefire.plus/video/shinmai-renkinjutsushi-no-tenpo-keiei"
    },
    {
      "id": 3469,
      "nome": "Shinobi no Ittoki (Dublado)",
      "link": "https://animefire.plus/animes/shinobi-no-ittoki-dublado-todos-os-episodios",
      "texto_original": "Shinobi no Ittoki (Dublado)",
      "rating": 6.06,
      "classificacao_etaria": "A14",
      "imagem_original": "https://animefire.plus/img/animes/shinobi-no-ittoki.webp",
      "imagem_pasta": "https://animefire.plus/img/animes/shinobi-no-ittoki/",
      "secao": "dublados,legendados",
      "pagina": 9,
      "total_episodios": 12,
      "link_video": "https://animefire.plus/video/shinobi-no-ittoki-dublado"
    },
    {
      "id": 3470,
      "nome": "Shinrei Tantei Yakumo",
      "link": "https://animefire.plus/animes/shinrei-tantei-yakumo-todos-os-episodios",
      "texto_original": "Shinrei Tantei Yakumo",
      "rating": 7.41,
      "classificacao_etaria": "A14",
      "imagem_original": "https://animefire.plus/img/animes/shinrei-tantei-yakumo.webp",
      "imagem_pasta": "https://animefire.plus/img/animes/shinrei-tantei-yakumo/",
      "secao": "legendados",
      "pagina": 129,
      "total_episodios": 13,
      "link_video": "https://animefire.plus/video/shinrei-tantei-yakumo"
    },
    {
      "id": 3471,
      "nome": "Shinreigari (Dublado)",
      "link": "https://animefire.plus/animes/shinreigari-dublado-todos-os-episodios",
      "texto_original": "Shinreigari (Dublado)",
      "rating": 7.47,
      "classificacao_etaria": "A14",
      "imagem_original": "https://animefire.plus/img/animes/shinreigari.webp",
      "imagem_pasta": "https://animefire.plus/img/animes/shinreigari/",
      "secao": "dublados,legendados",
      "pagina": 20,
      "total_episodios": 22,
      "link_video": "https://animefire.plus/video/shinreigari-dublado"
    },
    {
      "id": 3472,
      "nome": "Shinryaku! Ika Musume (Dublado)",
      "link": "https://animefire.plus/animes/shinryaku-ika-musume-dublado-todos-os-episodios",
      "texto_original": "Shinryaku! Ika Musume (Dublado)",
      "rating": 7.41,
      "classificacao_etaria": "A14",
      "imagem_original": "https://animefire.plus/img/animes/shinryaku-ika-musume.webp",
      "imagem_pasta": "https://animefire.plus/img/animes/shinryaku-ika-musume/",
      "secao": "dublados,legendados",
      "pagina": 5,
      "total_episodios": 12,
      "link_video": "https://animefire.plus/video/shinryaku-ika-musume-dublado"
    },
    {
      "id": 3473,
      "nome": "Shinryaku!? Ika Musume (Dublado)",
      "link": "https://animefire.plus/animes/the-invader-comes-from-the-bottom-of-the-sea-dublado-todos-os-episodios",
      "texto_original": "Shinryaku!? Ika Musume (Dublado)",
      "rating": 7.47,
      "classificacao_etaria": "A14",
      "imagem_original": "https://animefire.plus/img/animes/the-invader-comes-from-the-bottom-of-the-sea.webp",
      "imagem_pasta": "https://animefire.plus/img/animes/the-invader-comes-from-the-bottom-of-the-sea/",
      "secao": "dublados",
      "pagina": 4,
      "total_episodios": 12,
      "link_video": "https://animefire.plus/video/the-invader-comes-from-the-bottom-of-the-sea-dublado"
    },
    {
      "id": 3474,
      "nome": "Shinsekai Yori",
      "link": "https://animefire.plus/animes/shinsekai-yori-todos-os-episodios",
      "texto_original": "Shinsekai Yori",
      "rating": 8.42,
      "classificacao_etaria": "A16",
      "imagem_original": "https://animefire.plus/img/animes/shinsekai-yori.webp",
      "imagem_pasta": "https://animefire.plus/img/animes/shinsekai-yori/",
      "secao": "legendados",
      "pagina": 104,
      "total_episodios": 0,
      "link_video": "https://animefire.plus/video/shinsekai-yori"
    },
    {
      "id": 3475,
      "nome": "Shinya! Tensai Bakabon",
      "link": "https://animefire.plus/animes/shinya-tensai-bakabon-todos-os-episodios",
      "texto_original": "Shinya! Tensai Bakabon",
      "rating": 6.12,
      "classificacao_etaria": null,
      "imagem_original": "https://animefire.plus/img/animes/shinya-tensai-bakabon.webp",
      "imagem_pasta": "https://animefire.plus/img/animes/shinya-tensai-bakabon/",
      "secao": "legendados",
      "pagina": 138,
      "total_episodios": 12,
      "link_video": "https://animefire.plus/video/shinya-tensai-bakabon"
    },
    {
      "id": 3476,
      "nome": "Shion no Ou",
      "link": "https://animefire.plus/animes/shion-no-ou-todos-os-episodios",
      "texto_original": "Shion no Ou",
      "rating": 7.61,
      "classificacao_etaria": "A14",
      "imagem_original": "https://animefire.plus/img/animes/shion-no-ou.webp",
      "imagem_pasta": "https://animefire.plus/img/animes/shion-no-ou/",
      "secao": "legendados",
      "pagina": 128,
      "total_episodios": 22,
      "link_video": "https://animefire.plus/video/shion-no-ou"
    },
    {
      "id": 3477,
      "nome": "Shiro Seijo to Kuro Bokushi",
      "link": "https://animefire.plus/animes/shiro-seijo-to-kuro-bokushi-todos-os-episodios",
      "texto_original": "Shiro Seijo to Kuro Bokushi",
      "rating": 7.37,
      "classificacao_etaria": "A14",
      "imagem_original": "https://animefire.plus/img/animes/shiro-seijo-to-kuro-bokushi.webp",
      "imagem_pasta": "https://animefire.plus/img/animes/shiro-seijo-to-kuro-bokushi/",
      "secao": "legendados",
      "pagina": 22,
      "total_episodios": 12,
      "link_video": "https://animefire.plus/video/shiro-seijo-to-kuro-bokushi"
    },
    {
      "id": 3478,
      "nome": "Shirobako",
      "link": "https://animefire.plus/animes/shirobako-todos-os-episodios",
      "texto_original": "Shirobako",
      "rating": 8.41,
      "classificacao_etaria": "A14",
      "imagem_original": "https://animefire.plus/img/animes/shirobako.webp",
      "imagem_pasta": "https://animefire.plus/img/animes/shirobako/",
      "secao": "legendados",
      "pagina": 97,
      "total_episodios": 21,
      "link_video": "https://animefire.plus/video/shirobako"
    },
    {
      "id": 3479,
      "nome": "Shirobuta Kizoku desu ga Zense no Kioku ga Haeta node Hiyoko na Otouto Sodatemasu",
      "link": "https://animefire.plus/animes/shirobuta-kizoku-desu-ga-zense-no-kioku-ga-haeta-node-hiyoko-na-otouto-sodatemasu-todos-os-episodios",
      "texto_original": "Shirobuta Kizoku desu ga Zense no Kioku ga Haeta node Hiyoko na Otouto Sodatemasu",
      "rating": 6.75,
      "classificacao_etaria": "A14",
      "imagem_original": "https://animefire.plus/img/animes/shirobuta-kizoku-desu-ga-zense-no-kioku-ga-haeta-node-hiyoko-na-otouto-sodatemasu.webp",
      "imagem_pasta": "https://animefire.plus/img/animes/shirobuta-kizoku-desu-ga-zense-no-kioku-ga-haeta-node-hiyoko-na-otouto-sodatemasu/",
      "secao": "legendados",
      "pagina": 3,
      "total_episodios": 12,
      "link_video": "https://animefire.plus/video/shirobuta-kizoku-desu-ga-zense-no-kioku-ga-haeta-node-hiyoko-na-otouto-sodatemasu"
    },
    {
      "id": 3480,
      "nome": "Shirogane no Ishi: Argevollen",
      "link": "https://animefire.plus/animes/shirogane-no-ishi-argevollen-todos-os-episodios",
      "texto_original": "Shirogane no Ishi: Argevollen",
      "rating": 6.53,
      "classificacao_etaria": "A16",
      "imagem_original": "https://animefire.plus/img/animes/shirogane-no-ishi-argevollen.webp",
      "imagem_pasta": "https://animefire.plus/img/animes/shirogane-no-ishi-argevollen/",
      "secao": "legendados",
      "pagina": 138,
      "total_episodios": 2,
      "link_video": "https://animefire.plus/video/shirogane-no-ishi-argevollen"
    }
  ],
  "pagination": {
    "current_page": 174,
    "per_page": 20,
    "total_items": 4368,
    "total_pages": 219,
    "has_next": true,
    "has_prev": true
  }
}
