{
  "message": "Lista de animes",
  "data": [
    {
      "id": 4181,
      "nome": "Yagate Kimi ni Naru",
      "link": "https://animefire.plus/animes/yagate-kimi-ni-naru-todos-os-episodios",
      "texto_original": "Yagate Kimi ni Naru",
      "rating": 8.02,
      "classificacao_etaria": "A14",
      "imagem_original": "https://animefire.plus/img/animes/yagate-kimi-ni-naru.webp",
      "imagem_pasta": "https://animefire.plus/img/animes/yagate-kimi-ni-naru/",
      "secao": "legendados",
      "pagina": 135,
      "total_episodios": 13,
      "link_video": "https://animefire.plus/video/yagate-kimi-ni-naru"
    },
    {
      "id": 4182,
      "nome": "Yahari Ore no Seishun Love Comedy wa Machigatteiru.",
      "link": "https://animefire.plus/animes/yahari-ore-no-seishun-love-comedy-wa-machigatteiru-todos-os-episodios",
      "texto_original": "Yahari Ore no Seishun Love Comedy wa Machigatteiru.",
      "rating": 8.1,
      "classificacao_etaria": "A14",
      "imagem_original": "https://animefire.plus/img/animes/yahari-ore-no-seishun-love-comedy-wa-machigatteiru.webp",
      "imagem_pasta": "https://animefire.plus/img/animes/yahari-ore-no-seishun-love-comedy-wa-machigatteiru/",
      "secao": "legendados",
      "pagina": 122,
      "total_episodios": 13,
      "link_video": "https://animefire.plus/video/yahari-ore-no-seishun-love-comedy-wa-machigatteiru"
    },
    {
      "id": 4183,
      "nome": "Yahari Ore no Seishun Love Comedy wa Machigatteiru. Kan",
      "link": "https://animefire.plus/animes/yahari-ore-no-seishun-love-comedy-wa-machigatteiru-kan-todos-os-episodios",
      "texto_original": "Yahari Ore no Seishun Love Comedy wa Machigatteiru. Kan",
      "rating": null,
      "classificacao_etaria": "A14",
      "imagem_original": "https://animefire.plus/img/animes/yahari-ore-no-seishun-love-comedy-wa-machigatteiru-kan.webp",
      "imagem_pasta": "https://animefire.plus/img/animes/yahari-ore-no-seishun-love-comedy-wa-machigatteiru-kan/",
      "secao": "legendados",
      "pagina": 58,
      "total_episodios": 2,
      "link_video": "https://animefire.plus/video/yahari-ore-no-seishun-love-comedy-wa-machigatteiru-kan"
    },
    {
      "id": 4184,
      "nome": "Yahari Ore no Seishun Love Comedy wa Machigatteiru. Zoku",
      "link": "https://animefire.plus/animes/yahari-ore-no-seishun-love-comedy-wa-machigatteiru-zoku-todos-os-episodios",
      "texto_original": "Yahari Ore no Seishun Love Comedy wa Machigatteiru. Zoku",
      "rating": 8.29,
      "classificacao_etaria": "A14",
      "imagem_original": "https://animefire.plus/img/animes/yahari-ore-no-seishun-love-comedy-wa-machigatteiru-zoku.webp",
      "imagem_pasta": "https://animefire.plus/img/animes/yahari-ore-no-seishun-love-comedy-wa-machigatteiru-zoku/",
      "secao": "legendados",
      "pagina": 91,
      "total_episodios": 13,
      "link_video": "https://animefire.plus/video/yahari-ore-no-seishun-love-comedy-wa-machigatteiru-zoku"
    },
    {
      "id": 4185,
      "nome": "Yajikita Gakuen Douchuuki",
      "link": "https://animefire.plus/animes/yajikita-gakuen-douchuuki-todos-os-episodios",
      "texto_original": "Yajikita Gakuen Douchuuki",
      "rating": 5.79,
      "classificacao_etaria": "A14",
      "imagem_original": "https://animefire.plus/img/animes/yajikita-gakuen-douchuuki.webp",
      "imagem_pasta": "https://animefire.plus/img/animes/yajikita-gakuen-douchuuki/",
      "secao": "legendados",
      "pagina": 88,
      "total_episodios": 2,
      "link_video": "https://animefire.plus/video/yajikita-gakuen-douchuuki"
    },
    {
      "id": 4186,
      "nome": "Yakitate!! Japan",
      "link": "https://animefire.plus/animes/yakitate-japan-todos-os-episodios",
      "texto_original": "Yakitate!! Japan",
      "rating": 8.01,
      "classificacao_etaria": "A14",
      "imagem_original": "https://animefire.plus/img/animes/yakitate-japan.webp",
      "imagem_pasta": "https://animefire.plus/img/animes/yakitate-japan/",
      "secao": "legendados",
      "pagina": 113,
      "total_episodios": 24,
      "link_video": "https://animefire.plus/video/yakitate-japan"
    },
    {
      "id": 4187,
      "nome": "Yakunara Mug Cup mo",
      "link": "https://animefire.plus/animes/yakunara-mug-cup-mo-todos-os-episodios",
      "texto_original": "Yakunara Mug Cup mo",
      "rating": 6.54,
      "classificacao_etaria": "A14",
      "imagem_original": "https://animefire.plus/img/animes/yakunara-mug-cup-mo.webp",
      "imagem_pasta": "https://animefire.plus/img/animes/yakunara-mug-cup-mo/",
      "secao": "legendados",
      "pagina": 46,
      "total_episodios": 12,
      "link_video": "https://animefire.plus/video/yakunara-mug-cup-mo"
    },
    {
      "id": 4188,
      "nome": "Yakunara Mug Cup mo: Niban Gama",
      "link": "https://animefire.plus/animes/yakunara-mug-cup-mo-niban-gama-todos-os-episodios",
      "texto_original": "Yakunara Mug Cup mo: Niban Gama",
      "rating": 6.83,
      "classificacao_etaria": "A14",
      "imagem_original": "https://animefire.plus/img/animes/yakunara-mug-cup-mo-niban-gama.webp",
      "imagem_pasta": "https://animefire.plus/img/animes/yakunara-mug-cup-mo-niban-gama/",
      "secao": "legendados",
      "pagina": 38,
      "total_episodios": 12,
      "link_video": "https://animefire.plus/video/yakunara-mug-cup-mo-niban-gama"
    },
    {
      "id": 4189,
      "nome": "Yakusoku no Neverland",
      "link": "https://animefire.plus/animes/yakusoku-no-neverland-todos-os-episodios",
      "texto_original": "Yakusoku no Neverland",
      "rating": 8.65,
      "classificacao_etaria": "A16",
      "imagem_original": "https://animefire.plus/img/animes/yakusoku-no-neverland.webp",
      "imagem_pasta": "https://animefire.plus/img/animes/yakusoku-no-neverland/",
      "secao": "legendados",
      "pagina": 165,
      "total_episodios": 6,
      "link_video": "https://animefire.plus/video/yakusoku-no-neverland"
    },
    {
      "id": 4190,
      "nome": "Yakusoku no Neverland 2nd Season",
      "link": "https://animefire.plus/animes/yakusoku-no-neverland-2nd-season-todos-os-episodios",
      "texto_original": "Yakusoku no Neverland 2nd Season",
      "rating": 5.25,
      "classificacao_etaria": "A16",
      "imagem_original": "https://animefire.plus/img/animes/yakusoku-no-neverland-2nd-season.webp",
      "imagem_pasta": "https://animefire.plus/img/animes/yakusoku-no-neverland-2nd-season/",
      "secao": "legendados",
      "pagina": 48,
      "total_episodios": 11,
      "link_video": "https://animefire.plus/video/yakusoku-no-neverland-2nd-season"
    },
    {
      "id": 4191,
      "nome": "Yama no Susume",
      "link": "https://animefire.plus/animes/yama-no-susume-todos-os-episodios",
      "texto_original": "Yama no Susume",
      "rating": 6.84,
      "classificacao_etaria": "A14",
      "imagem_original": "https://animefire.plus/img/animes/yama-no-susume.webp",
      "imagem_pasta": "https://animefire.plus/img/animes/yama-no-susume/",
      "secao": "legendados",
      "pagina": 141,
      "total_episodios": 2,
      "link_video": "https://animefire.plus/video/yama-no-susume"
    },
    {
      "id": 4192,
      "nome": "Yama no Susume: Next Summit",
      "link": "https://animefire.plus/animes/yama-no-susume-next-summit-todos-os-episodios",
      "texto_original": "Yama no Susume: Next Summit",
      "rating": 7.64,
      "classificacao_etaria": "A14",
      "imagem_original": "https://animefire.plus/img/animes/yama-no-susume-next-summit.webp",
      "imagem_pasta": "https://animefire.plus/img/animes/yama-no-susume-next-summit/",
      "secao": "legendados",
      "pagina": 28,
      "total_episodios": 12,
      "link_video": "https://animefire.plus/video/yama-no-susume-next-summit"
    },
    {
      "id": 4193,
      "nome": "Yama no Susume: Omoide Present",
      "link": "https://animefire.plus/animes/yama-no-susume-omoide-present-todos-os-episodios",
      "texto_original": "Yama no Susume: Omoide Present",
      "rating": 7.4,
      "classificacao_etaria": "A14",
      "imagem_original": "https://animefire.plus/img/animes/yama-no-susume-omoide-present.webp",
      "imagem_pasta": "https://animefire.plus/img/animes/yama-no-susume-omoide-present/",
      "secao": "legendados",
      "pagina": 88,
      "total_episodios": 1,
      "link_video": "https://animefire.plus/video/yama-no-susume-omoide-present"
    },
    {
      "id": 4194,
      "nome": "Yama no Susume: Second Season",
      "link": "https://animefire.plus/animes/yama-no-susume-second-season-todos-os-episodios",
      "texto_original": "Yama no Susume: Second Season",
      "rating": 7.58,
      "classificacao_etaria": "A14",
      "imagem_original": "https://animefire.plus/img/animes/yama-no-susume-second-season.webp",
      "imagem_pasta": "https://animefire.plus/img/animes/yama-no-susume-second-season/",
      "secao": "legendados",
      "pagina": 125,
      "total_episodios": 24,
      "link_video": "https://animefire.plus/video/yama-no-susume-second-season"
    },
    {
      "id": 4195,
      "nome": "Yama no Susume: Third Season",
      "link": "https://animefire.plus/animes/yama-no-susume-third-season-todos-os-episodios",
      "texto_original": "Yama no Susume: Third Season",
      "rating": 7.61,
      "classificacao_etaria": "A14",
      "imagem_original": "https://animefire.plus/img/animes/yama-no-susume-third-season.webp",
      "imagem_pasta": "https://animefire.plus/img/animes/yama-no-susume-third-season/",
      "secao": "legendados",
      "pagina": 148,
      "total_episodios": 13,
      "link_video": "https://animefire.plus/video/yama-no-susume-third-season"
    },
    {
      "id": 4196,
      "nome": "Yamada-kun to 7-nin no Majo",
      "link": "https://animefire.plus/animes/yamada-kun-to-7-nin-no-majo-todos-os-episodios",
      "texto_original": "Yamada-kun to 7-nin no Majo",
      "rating": 7.78,
      "classificacao_etaria": "A14",
      "imagem_original": "https://animefire.plus/img/animes/yamada-kun-to-7-nin-no-majo.webp",
      "imagem_pasta": "https://animefire.plus/img/animes/yamada-kun-to-7-nin-no-majo/",
      "secao": "legendados",
      "pagina": 94,
      "total_episodios": 0,
      "link_video": "https://animefire.plus/video/yamada-kun-to-7-nin-no-majo"
    },
    {
      "id": 4197,
      "nome": "Yamada-kun to 7-nin no Majo (TV) (Dublado)",
      "link": "https://animefire.plus/animes/yamada-kun-to-7-nin-no-majo-tv-dublado-todos-os-episodios",
      "texto_original": "Yamada-kun to 7-nin no Majo (TV) (Dublado)",
      "rating": 7.74,
      "classificacao_etaria": "A14",
      "imagem_original": "https://animefire.plus/img/animes/yamada-kun-to-7-nin-no-majo-tv.webp",
      "imagem_pasta": "https://animefire.plus/img/animes/yamada-kun-to-7-nin-no-majo-tv/",
      "secao": "dublados",
      "pagina": 23,
      "total_episodios": 12,
      "link_video": "https://animefire.plus/video/yamada-kun-to-7-nin-no-majo-tv-dublado"
    },
    {
      "id": 4198,
      "nome": "Yamada-kun to 7-nin no Majo: Mou Hitotsu no Suzaku-sai",
      "link": "https://animefire.plus/animes/yamada-kun-to-7-nin-no-majo-mou-hitotsu-no-suzaku-sai-todos-os-episodios",
      "texto_original": "Yamada-kun to 7-nin no Majo: Mou Hitotsu no Suzaku-sai",
      "rating": 7.48,
      "classificacao_etaria": "A14",
      "imagem_original": "https://animefire.plus/img/animes/yamada-kun-to-7-nin-no-majo-mou-hitotsu-no-suzaku-sai.webp",
      "imagem_pasta": "https://animefire.plus/img/animes/yamada-kun-to-7-nin-no-majo-mou-hitotsu-no-suzaku-sai/",
      "secao": "legendados",
      "pagina": 54,
      "total_episodios": 2,
      "link_video": "https://animefire.plus/video/yamada-kun-to-7-nin-no-majo-mou-hitotsu-no-suzaku-sai"
    },
    {
      "id": 4199,
      "nome": "Yamada-kun to Lv999 no Koi o Suru",
      "link": "https://animefire.plus/animes/yamada-kun-to-lv999-no-koi-o-suru-todos-os-episodios",
      "texto_original": "Yamada-kun to Lv999 no Koi o Suru",
      "rating": 7.77,
      "classificacao_etaria": "A14",
      "imagem_original": "https://animefire.plus/img/animes/yamada-kun-to-lv999-no-koi-o-suru.jpg",
      "imagem_pasta": "https://animefire.plus/img/animes/yamada-kun-to-lv999-no-koi-o-suru/",
      "secao": "legendados",
      "pagina": 25,
      "total_episodios": 13,
      "link_video": "https://animefire.plus/video/yamada-kun-to-lv999-no-koi-o-suru"
    },
    {
      "id": 4200,
      "nome": "Yamato Nadeshiko Shichihenge♥",
      "link": "https://animefire.plus/animes/yamato-nadeshiko-shichihenge-todos-os-episodios",
      "texto_original": "Yamato Nadeshiko Shichihenge♥",
      "rating": 7.84,
      "classificacao_etaria": "A14",
      "imagem_original": "https://animefire.plus/img/animes/yamato-nadeshiko-shichihenge.webp",
      "imagem_pasta": "https://animefire.plus/img/animes/yamato-nadeshiko-shichihenge/",
      "secao": "legendados",
      "pagina": 146,
      "total_episodios": 11,
      "link_video": "https://animefire.plus/video/yamato-nadeshiko-shichihenge"
    }
  ],
  "pagination": {
    "current_page": 210,
    "per_page": 20,
    "total_items": 4368,
    "total_pages": 219,
    "has_next": true,
    "has_prev": true
  }
}
