{
  "message": "Lista de animes",
  "data": [
    {
      "id": 2521,
      "nome": "Mirai no Mirai",
      "link": "https://animefire.plus/animes/mirai-no-mirai-todos-os-episodios",
      "texto_original": "Mirai no Mirai",
      "rating": 7.45,
      "classificacao_etaria": null,
      "imagem_original": "https://animefire.plus/img/animes/mirai-no-mirai.webp",
      "imagem_pasta": "https://animefire.plus/img/animes/mirai-no-mirai/",
      "secao": "legendados",
      "pagina": 96,
      "total_episodios": 3,
      "link_video": "https://animefire.plus/video/mirai-no-mirai"
    },
    {
      "id": 2522,
      "nome": "Miru Tights",
      "link": "https://animefire.plus/animes/miru-tights-todos-os-episodios",
      "texto_original": "Miru Tights",
      "rating": 6.58,
      "classificacao_etaria": "A14",
      "imagem_original": "https://animefire.plus/img/animes/miru-tights.webp",
      "imagem_pasta": "https://animefire.plus/img/animes/miru-tights/",
      "secao": "legendados",
      "pagina": 112,
      "total_episodios": 0,
      "link_video": "https://animefire.plus/video/miru-tights"
    },
    {
      "id": 2523,
      "nome": "Miru Tights: Cosplay Satsuei Tights",
      "link": "https://animefire.plus/animes/miru-tights-cosplay-satsuei-tights-todos-os-episodios",
      "texto_original": "Miru Tights: Cosplay Satsuei Tights",
      "rating": 6.59,
      "classificacao_etaria": "A14",
      "imagem_original": "https://animefire.plus/img/animes/miru-tights-cosplay-satsuei-tights.webp",
      "imagem_pasta": "https://animefire.plus/img/animes/miru-tights-cosplay-satsuei-tights/",
      "secao": "legendados",
      "pagina": 88,
      "total_episodios": 1,
      "link_video": "https://animefire.plus/video/miru-tights-cosplay-satsuei-tights"
    },
    {
      "id": 2524,
      "nome": "Miru: Watashi no Mirai",
      "link": "https://animefire.plus/animes/miru-watashi-no-mirai-todos-os-episodios",
      "texto_original": "Miru: Watashi no Mirai",
      "rating": 5.2,
      "classificacao_etaria": "A14",
      "imagem_original": "https://animefire.plus/img/animes/miru-watashi-no-mirai.webp",
      "imagem_pasta": "https://animefire.plus/img/animes/miru-watashi-no-mirai/",
      "secao": "legendados,lancamentos",
      "pagina": 4,
      "total_episodios": 0,
      "link_video": "https://animefire.plus/video/miru-watashi-no-mirai"
    },
    {
      "id": 2525,
      "nome": "Mission-E",
      "link": "https://animefire.plus/animes/mission-e-todos-os-episodios",
      "texto_original": "Mission-E",
      "rating": 6.54,
      "classificacao_etaria": "A10",
      "imagem_original": "https://animefire.plus/img/animes/mission-e.webp",
      "imagem_pasta": "https://animefire.plus/img/animes/mission-e/",
      "secao": "legendados",
      "pagina": 118,
      "total_episodios": 12,
      "link_video": "https://animefire.plus/video/mission-e"
    },
    {
      "id": 2526,
      "nome": "Mitsuami no Kamisama",
      "link": "https://animefire.plus/animes/mitsuami-no-kamisama-todos-os-episodios",
      "texto_original": "Mitsuami no Kamisama",
      "rating": 6.78,
      "classificacao_etaria": null,
      "imagem_original": "https://animefire.plus/img/animes/mitsuami-no-kamisama.webp",
      "imagem_pasta": "https://animefire.plus/img/animes/mitsuami-no-kamisama/",
      "secao": "legendados",
      "pagina": 84,
      "total_episodios": 1,
      "link_video": "https://animefire.plus/video/mitsuami-no-kamisama"
    },
    {
      "id": 2527,
      "nome": "Mitsuboshi Colors",
      "link": "https://animefire.plus/animes/mitsuboshi-colors-todos-os-episodios",
      "texto_original": "Mitsuboshi Colors",
      "rating": 7.49,
      "classificacao_etaria": "A14",
      "imagem_original": "https://animefire.plus/img/animes/mitsuboshi-colors.webp",
      "imagem_pasta": "https://animefire.plus/img/animes/mitsuboshi-colors/",
      "secao": "legendados",
      "pagina": 161,
      "total_episodios": 12,
      "link_video": "https://animefire.plus/video/mitsuboshi-colors"
    },
    {
      "id": 2528,
      "nome": "Mitsudomoe",
      "link": "https://animefire.plus/animes/mitsudomoe-todos-os-episodios",
      "texto_original": "Mitsudomoe",
      "rating": 7.66,
      "classificacao_etaria": "A14",
      "imagem_original": "https://animefire.plus/img/animes/mitsudomoe.webp",
      "imagem_pasta": "https://animefire.plus/img/animes/mitsudomoe/",
      "secao": "legendados",
      "pagina": 103,
      "total_episodios": 1,
      "link_video": "https://animefire.plus/video/mitsudomoe"
    },
    {
      "id": 2529,
      "nome": "Mitsudomoe Zouryouchuu!",
      "link": "https://animefire.plus/animes/mitsudomoe-zouryouchuu-todos-os-episodios",
      "texto_original": "Mitsudomoe Zouryouchuu!",
      "rating": 7.77,
      "classificacao_etaria": "A14",
      "imagem_original": "https://animefire.plus/img/animes/mitsudomoe-zouryouchuu.webp",
      "imagem_pasta": "https://animefire.plus/img/animes/mitsudomoe-zouryouchuu/",
      "secao": "legendados",
      "pagina": 176,
      "total_episodios": 8,
      "link_video": "https://animefire.plus/video/mitsudomoe-zouryouchuu"
    },
    {
      "id": 2530,
      "nome": "Mix - Meisei Story 2nd Season",
      "link": "https://animefire.plus/animes/mix-meisei-story-2nd-season-todos-os-episodios",
      "texto_original": "Mix - Meisei Story 2nd Season",
      "rating": 6.98,
      "classificacao_etaria": "A14",
      "imagem_original": "https://animefire.plus/img/animes/mix-meisei-story-2nd-season.jpg",
      "imagem_pasta": "https://animefire.plus/img/animes/mix-meisei-story-2nd-season/",
      "secao": "legendados,lancamentos",
      "pagina": 25,
      "total_episodios": 18,
      "link_video": "https://animefire.plus/video/mix-meisei-story-2nd-season"
    },
    {
      "id": 2531,
      "nome": "Miyakawa-ke no Kuufuku",
      "link": "https://animefire.plus/animes/miyakawa-ke-no-kuufuku-todos-os-episodios",
      "texto_original": "Miyakawa-ke no Kuufuku",
      "rating": 6.54,
      "classificacao_etaria": "A14",
      "imagem_original": "https://animefire.plus/img/animes/miyakawa-ke-no-kuufuku.webp",
      "imagem_pasta": "https://animefire.plus/img/animes/miyakawa-ke-no-kuufuku/",
      "secao": "legendados",
      "pagina": 88,
      "total_episodios": 1,
      "link_video": "https://animefire.plus/video/miyakawa-ke-no-kuufuku"
    },
    {
      "id": 2532,
      "nome": "Mizu no Kotoba",
      "link": "https://animefire.plus/animes/mizu-no-kotoba-todos-os-episodios",
      "texto_original": "Mizu no Kotoba",
      "rating": 6.85,
      "classificacao_etaria": "A14",
      "imagem_original": "https://animefire.plus/img/animes/mizu-no-kotoba.webp",
      "imagem_pasta": "https://animefire.plus/img/animes/mizu-no-kotoba/",
      "secao": "legendados",
      "pagina": 77,
      "total_episodios": 1,
      "link_video": "https://animefire.plus/video/mizu-no-kotoba"
    },
    {
      "id": 2533,
      "nome": "Mizu Zokusei no Mahoutsukai",
      "link": "https://animefire.plus/animes/mizu-zokusei-no-mahoutsukai-todos-os-episodios",
      "texto_original": "Mizu Zokusei no Mahoutsukai",
      "rating": 7.21,
      "classificacao_etaria": "A14",
      "imagem_original": "https://animefire.plus/img/animes/mizu-zokusei-no-mahoutsukai.webp",
      "imagem_pasta": "https://animefire.plus/img/animes/mizu-zokusei-no-mahoutsukai/",
      "secao": "legendados,lancamentos",
      "pagina": 2,
      "total_episodios": 5,
      "link_video": "https://animefire.plus/video/mizu-zokusei-no-mahoutsukai"
    },
    {
      "id": 2534,
      "nome": "Mizuiro (2003)",
      "link": "https://animefire.plus/animes/mizuiro-2003-todos-os-episodios",
      "texto_original": "Mizuiro (2003)",
      "rating": 6.39,
      "classificacao_etaria": "A14",
      "imagem_original": "https://animefire.plus/img/animes/mizuiro-2003.webp",
      "imagem_pasta": "https://animefire.plus/img/animes/mizuiro-2003/",
      "secao": "legendados",
      "pagina": 44,
      "total_episodios": 2,
      "link_video": "https://animefire.plus/video/mizuiro-2003"
    },
    {
      "id": 2535,
      "nome": "Mnemosyne: Mnemosyne no Musume-tachi",
      "link": "https://animefire.plus/animes/mnemosyne-mnemosyne-no-musume-tachi-todos-os-episodios",
      "texto_original": "Mnemosyne: Mnemosyne no Musume-tachi",
      "rating": 7.4,
      "classificacao_etaria": "A18",
      "imagem_original": "https://animefire.plus/img/animes/mnemosyne-mnemosyne-no-musume-tachi.webp",
      "imagem_pasta": "https://animefire.plus/img/animes/mnemosyne-mnemosyne-no-musume-tachi/",
      "secao": "legendados",
      "pagina": 119,
      "total_episodios": 4,
      "link_video": "https://animefire.plus/video/mnemosyne-mnemosyne-no-musume-tachi"
    },
    {
      "id": 2536,
      "nome": "Mo Dao Zu Shi",
      "link": "https://animefire.plus/animes/mo-dao-zu-shi-todos-os-episodios",
      "texto_original": "Mo Dao Zu Shi",
      "rating": 8.56,
      "classificacao_etaria": "A16",
      "imagem_original": "https://animefire.plus/img/animes/mo-dao-zu-shi.webp",
      "imagem_pasta": "https://animefire.plus/img/animes/mo-dao-zu-shi/",
      "secao": "legendados",
      "pagina": 95,
      "total_episodios": 15,
      "link_video": "https://animefire.plus/video/mo-dao-zu-shi"
    },
    {
      "id": 2537,
      "nome": "Mo Dao Zu Shi 2nd Season",
      "link": "https://animefire.plus/animes/mo-dao-zu-shi-2nd-season-todos-os-episodios",
      "texto_original": "Mo Dao Zu Shi 2nd Season",
      "rating": 8.41,
      "classificacao_etaria": "A16",
      "imagem_original": "https://animefire.plus/img/animes/mo-dao-zu-shi-2nd-season.webp",
      "imagem_pasta": "https://animefire.plus/img/animes/mo-dao-zu-shi-2nd-season/",
      "secao": "legendados",
      "pagina": 51,
      "total_episodios": 8,
      "link_video": "https://animefire.plus/video/mo-dao-zu-shi-2nd-season"
    },
    {
      "id": 2538,
      "nome": "Mob kara Hajimaru Tansaku Eiyuutan",
      "link": "https://animefire.plus/animes/mob-kara-hajimaru-tansaku-eiyuutan-todos-os-episodios",
      "texto_original": "Mob kara Hajimaru Tansaku Eiyuutan",
      "rating": 5.82,
      "classificacao_etaria": "A14",
      "imagem_original": "https://animefire.plus/img/animes/mob-kara-hajimaru-tansaku-eiyuutan.webp",
      "imagem_pasta": "https://animefire.plus/img/animes/mob-kara-hajimaru-tansaku-eiyuutan/",
      "secao": "legendados",
      "pagina": 12,
      "total_episodios": 12,
      "link_video": "https://animefire.plus/video/mob-kara-hajimaru-tansaku-eiyuutan"
    },
    {
      "id": 2539,
      "nome": "Mob Psycho 100 (Dublado)",
      "link": "https://animefire.plus/animes/mob-psycho-100-dublado-todos-os-episodios",
      "texto_original": "Mob Psycho 100 (Dublado)",
      "rating": 8.5,
      "classificacao_etaria": "A14",
      "imagem_original": "https://animefire.plus/img/animes/mob-psycho-100.webp",
      "imagem_pasta": "https://animefire.plus/img/animes/mob-psycho-100/",
      "secao": "dublados,legendados",
      "pagina": 20,
      "total_episodios": 0,
      "link_video": "https://animefire.plus/video/mob-psycho-100-dublado"
    },
    {
      "id": 2540,
      "nome": "Mob Psycho 100 II (Dublado)",
      "link": "https://animefire.plus/animes/mob-psycho-100-ii-dublado-todos-os-episodios",
      "texto_original": "Mob Psycho 100 II (Dublado)",
      "rating": 8.88,
      "classificacao_etaria": "A14",
      "imagem_original": "https://animefire.plus/img/animes/mob-psycho-100-ii.webp",
      "imagem_pasta": "https://animefire.plus/img/animes/mob-psycho-100-ii/",
      "secao": "dublados,legendados",
      "pagina": 23,
      "total_episodios": 13,
      "link_video": "https://animefire.plus/video/mob-psycho-100-ii-dublado"
    }
  ],
  "pagination": {
    "current_page": 127,
    "per_page": 20,
    "total_items": 4368,
    "total_pages": 219,
    "has_next": true,
    "has_prev": true
  }
}
