{
  "message": "Lista de animes",
  "data": [
    {
      "id": 2081,
      "nome": "Kono Minikuku mo Utsukushii Sekai",
      "link": "https://animefire.plus/animes/kono-minikuku-mo-utsukushii-sekai-todos-os-episodios",
      "texto_original": "Kono Minikuku mo Utsukushii Sekai",
      "rating": 6.84,
      "classificacao_etaria": "A18",
      "imagem_original": "https://animefire.plus/img/animes/kono-minikuku-mo-utsukushii-sekai.webp",
      "imagem_pasta": "https://animefire.plus/img/animes/kono-minikuku-mo-utsukushii-sekai/",
      "secao": "legendados",
      "pagina": 131,
      "total_episodios": 0,
      "link_video": "https://animefire.plus/video/kono-minikuku-mo-utsukushii-sekai"
    },
    {
      "id": 2082,
      "nome": "Kono Naka ni Hitori, Imouto ga Iru!",
      "link": "https://animefire.plus/animes/kono-naka-ni-hitori-imouto-ga-iru-todos-os-episodios",
      "texto_original": "Kono Naka ni Hitori, Imouto ga Iru!",
      "rating": 6.74,
      "classificacao_etaria": "A18",
      "imagem_original": "https://animefire.plus/img/animes/kono-naka-ni-hitori-imouto-ga-iru.webp",
      "imagem_pasta": "https://animefire.plus/img/animes/kono-naka-ni-hitori-imouto-ga-iru/",
      "secao": "legendados",
      "pagina": 140,
      "total_episodios": 4,
      "link_video": "https://animefire.plus/video/kono-naka-ni-hitori-imouto-ga-iru"
    },
    {
      "id": 2083,
      "nome": "Kono Oto Tomare! (Dublado)",
      "link": "https://animefire.plus/animes/kono-oto-tomare-dublado-todos-os-episodios",
      "texto_original": "Kono Oto Tomare! (Dublado)",
      "rating": 7.89,
      "classificacao_etaria": "A14",
      "imagem_original": "https://animefire.plus/img/animes/kono-oto-tomare.webp",
      "imagem_pasta": "https://animefire.plus/img/animes/kono-oto-tomare/",
      "secao": "dublados,legendados",
      "pagina": 13,
      "total_episodios": 13,
      "link_video": "https://animefire.plus/video/kono-oto-tomare-dublado"
    },
    {
      "id": 2084,
      "nome": "Kono Oto Tomare! 2nd Season (Dublado)",
      "link": "https://animefire.plus/animes/kono-oto-tomare-2nd-season-dublado-todos-os-episodios",
      "texto_original": "Kono Oto Tomare! 2nd Season (Dublado)",
      "rating": 8.42,
      "classificacao_etaria": "A14",
      "imagem_original": "https://animefire.plus/img/animes/kono-oto-tomare-2nd-season.webp",
      "imagem_pasta": "https://animefire.plus/img/animes/kono-oto-tomare-2nd-season/",
      "secao": "dublados,legendados",
      "pagina": 13,
      "total_episodios": 13,
      "link_video": "https://animefire.plus/video/kono-oto-tomare-2nd-season-dublado"
    },
    {
      "id": 2085,
      "nome": "Kono Sekai wa Fukanzen Sugiru",
      "link": "https://animefire.plus/animes/kono-sekai-wa-fukanzen-sugiru-todos-os-episodios",
      "texto_original": "Kono Sekai wa Fukanzen Sugiru",
      "rating": 6.53,
      "classificacao_etaria": "A14",
      "imagem_original": "https://animefire.plus/img/animes/kono-sekai-wa-fukanzen-sugiru.webp",
      "imagem_pasta": "https://animefire.plus/img/animes/kono-sekai-wa-fukanzen-sugiru/",
      "secao": "legendados",
      "pagina": 12,
      "total_episodios": 13,
      "link_video": "https://animefire.plus/video/kono-sekai-wa-fukanzen-sugiru"
    },
    {
      "id": 2086,
      "nome": "Kono Subarashii Sekai ni Bakuen wo! (Dublado)",
      "link": "https://animefire.plus/animes/kono-subarashii-sekai-ni-bakuen-wo-dublado-todos-os-episodios",
      "texto_original": "Kono Subarashii Sekai ni Bakuen wo! (Dublado)",
      "rating": 7.51,
      "classificacao_etaria": "A14",
      "imagem_original": "https://animefire.plus/img/animes/kono-subarashii-sekai-ni-bakuen-wo.webp",
      "imagem_pasta": "https://animefire.plus/img/animes/kono-subarashii-sekai-ni-bakuen-wo/",
      "secao": "dublados,legendados",
      "pagina": 7,
      "total_episodios": 12,
      "link_video": "https://animefire.plus/video/kono-subarashii-sekai-ni-bakuen-wo-dublado"
    },
    {
      "id": 2087,
      "nome": "Kono Subarashii Sekai ni Shukufuku wo! (Dublado)",
      "link": "https://animefire.plus/animes/kono-subarashii-sekai-ni-shukufuku-wo-dublado-todos-os-episodios",
      "texto_original": "Kono Subarashii Sekai ni Shukufuku wo! (Dublado)",
      "rating": 8.18,
      "classificacao_etaria": "A14",
      "imagem_original": "https://animefire.plus/img/animes/kono-subarashii-sekai-ni-shukufuku-wo.webp",
      "imagem_pasta": "https://animefire.plus/img/animes/kono-subarashii-sekai-ni-shukufuku-wo/",
      "secao": "dublados,legendados",
      "pagina": 26,
      "total_episodios": 10,
      "link_video": "https://animefire.plus/video/kono-subarashii-sekai-ni-shukufuku-wo-dublado"
    },
    {
      "id": 2088,
      "nome": "Kono Subarashii Sekai ni Shukufuku wo! 2 (Dublado)",
      "link": "https://animefire.plus/animes/kono-subarashii-sekai-ni-shukufuku-wo-2-dublado-todos-os-episodios",
      "texto_original": "Kono Subarashii Sekai ni Shukufuku wo! 2 (Dublado)",
      "rating": 8.36,
      "classificacao_etaria": "A14",
      "imagem_original": "https://animefire.plus/img/animes/kono-subarashii-sekai-ni-shukufuku-wo-2.webp",
      "imagem_pasta": "https://animefire.plus/img/animes/kono-subarashii-sekai-ni-shukufuku-wo-2/",
      "secao": "dublados,legendados",
      "pagina": 26,
      "total_episodios": 10,
      "link_video": "https://animefire.plus/video/kono-subarashii-sekai-ni-shukufuku-wo-2-dublado"
    },
    {
      "id": 2089,
      "nome": "Kono Subarashii Sekai ni Shukufuku wo! 2: Kono Subarashii Geijutsu ni Shukufuku wo! (Dublado)",
      "link": "https://animefire.plus/animes/kono-subarashii-sekai-ni-shukufuku-wo-2-kono-subarashii-geijutsu-ni-shukufuku-wo-dublado-todos-os-episodios",
      "texto_original": "Kono Subarashii Sekai ni Shukufuku wo! 2: Kono Subarashii Geijutsu ni Shukufuku wo! (Dublado)",
      "rating": 8.11,
      "classificacao_etaria": "A14",
      "imagem_original": "https://animefire.plus/img/animes/kono-subarashii-sekai-ni-shukufuku-wo-2-kono-subarashii-geijutsu-ni-shukufuku-wo.webp",
      "imagem_pasta": "https://animefire.plus/img/animes/kono-subarashii-sekai-ni-shukufuku-wo-2-kono-subarashii-geijutsu-ni-shukufuku-wo/",
      "secao": "dublados",
      "pagina": 24,
      "total_episodios": 1,
      "link_video": "https://animefire.plus/video/kono-subarashii-sekai-ni-shukufuku-wo-2-kono-subarashii-geijutsu-ni-shukufuku-wo-dublado"
    },
    {
      "id": 2090,
      "nome": "Kono Subarashii Sekai ni Shukufuku wo! 3 (Dublado)",
      "link": "https://animefire.plus/animes/kono-subarashii-sekai-ni-shukufuku-wo-3-dublado-todos-os-episodios",
      "texto_original": "Kono Subarashii Sekai ni Shukufuku wo! 3 (Dublado)",
      "rating": 8.35,
      "classificacao_etaria": "A14",
      "imagem_original": "https://animefire.plus/img/animes/kono-subarashii-sekai-ni-shukufuku-wo-3.webp",
      "imagem_pasta": "https://animefire.plus/img/animes/kono-subarashii-sekai-ni-shukufuku-wo-3/",
      "secao": "dublados,legendados",
      "pagina": 2,
      "total_episodios": 11,
      "link_video": "https://animefire.plus/video/kono-subarashii-sekai-ni-shukufuku-wo-3-dublado"
    },
    {
      "id": 2091,
      "nome": "Kono Subarashii Sekai ni Shukufuku wo! 3: Bonus Stage",
      "link": "https://animefire.plus/animes/kono-subarashii-sekai-ni-shukufuku-wo-3-bonus-stage-todos-os-episodios",
      "texto_original": "Kono Subarashii Sekai ni Shukufuku wo! 3: Bonus Stage",
      "rating": 8.17,
      "classificacao_etaria": "A14",
      "imagem_original": "https://animefire.plus/img/animes/kono-subarashii-sekai-ni-shukufuku-wo-3-bonus-stage.webp",
      "imagem_pasta": "https://animefire.plus/img/animes/kono-subarashii-sekai-ni-shukufuku-wo-3-bonus-stage/",
      "secao": "legendados,lancamentos",
      "pagina": 3,
      "total_episodios": 0,
      "link_video": "https://animefire.plus/video/kono-subarashii-sekai-ni-shukufuku-wo-3-bonus-stage"
    },
    {
      "id": 2092,
      "nome": "Kono Yo no Hate de Koi wo Utau Shoujo YU-NO",
      "link": "https://animefire.plus/animes/kono-yo-no-hate-de-koi-wo-utau-shoujo-yu-no-todos-os-episodios",
      "texto_original": "Kono Yo no Hate de Koi wo Utau Shoujo YU-NO",
      "rating": 6.58,
      "classificacao_etaria": "A14",
      "imagem_original": "https://animefire.plus/img/animes/kono-yo-no-hate-de-koi-wo-utau-shoujo-yu-no.webp",
      "imagem_pasta": "https://animefire.plus/img/animes/kono-yo-no-hate-de-koi-wo-utau-shoujo-yu-no/",
      "secao": "legendados",
      "pagina": 114,
      "total_episodios": 0,
      "link_video": "https://animefire.plus/video/kono-yo-no-hate-de-koi-wo-utau-shoujo-yu-no"
    },
    {
      "id": 2093,
      "nome": "Kono Yo no Hate de Koi wo Utau Shoujo YU-NO Special",
      "link": "https://animefire.plus/animes/kono-yo-no-hate-de-koi-wo-utau-shoujo-yu-no-special-todos-os-episodios",
      "texto_original": "Kono Yo no Hate de Koi wo Utau Shoujo YU-NO Special",
      "rating": 6.33,
      "classificacao_etaria": "A18",
      "imagem_original": "https://animefire.plus/img/animes/kono-yo-no-hate-de-koi-wo-utau-shoujo-yu-no-special.webp",
      "imagem_pasta": "https://animefire.plus/img/animes/kono-yo-no-hate-de-koi-wo-utau-shoujo-yu-no-special/",
      "secao": "legendados",
      "pagina": 59,
      "total_episodios": 1,
      "link_video": "https://animefire.plus/video/kono-yo-no-hate-de-koi-wo-utau-shoujo-yu-no-special"
    },
    {
      "id": 2094,
      "nome": "Konohana Kitan",
      "link": "https://animefire.plus/animes/konohana-kitan-todos-os-episodios",
      "texto_original": "Konohana Kitan",
      "rating": 7.66,
      "classificacao_etaria": "A14",
      "imagem_original": "https://animefire.plus/img/animes/konohana-kitan.webp",
      "imagem_pasta": "https://animefire.plus/img/animes/konohana-kitan/",
      "secao": "legendados",
      "pagina": 106,
      "total_episodios": 12,
      "link_video": "https://animefire.plus/video/konohana-kitan"
    },
    {
      "id": 2095,
      "nome": "Konyaku Haki sareta Reijou wo Hirotta Ore ga, Ikenai Koto wo Oshiekomu",
      "link": "https://animefire.plus/animes/konyaku-haki-sareta-reijou-wo-hirotta-ore-ga-ikenai-koto-wo-oshiekomu-todos-os-episodios",
      "texto_original": "Konyaku Haki sareta Reijou wo Hirotta Ore ga, Ikenai Koto wo Oshiekomu",
      "rating": 7.15,
      "classificacao_etaria": "A14",
      "imagem_original": "https://animefire.plus/img/animes/konyaku-haki-sareta-reijou-wo-hirotta-ore-ga-ikenai-koto-wo-oshiekomu.webp",
      "imagem_pasta": "https://animefire.plus/img/animes/konyaku-haki-sareta-reijou-wo-hirotta-ore-ga-ikenai-koto-wo-oshiekomu/",
      "secao": "legendados",
      "pagina": 20,
      "total_episodios": 12,
      "link_video": "https://animefire.plus/video/konyaku-haki-sareta-reijou-wo-hirotta-ore-ga-ikenai-koto-wo-oshiekomu"
    },
    {
      "id": 2096,
      "nome": "Koori Zokusei Danshi to Cool na Douryou Joshi",
      "link": "https://animefire.plus/animes/koori-zokusei-danshi-to-cool-na-douryou-joshi-todos-os-episodios",
      "texto_original": "Koori Zokusei Danshi to Cool na Douryou Joshi",
      "rating": 7.31,
      "classificacao_etaria": "A14",
      "imagem_original": "https://animefire.plus/img/animes/koori-zokusei-danshi-to-cool-na-douryou-joshi.webp",
      "imagem_pasta": "https://animefire.plus/img/animes/koori-zokusei-danshi-to-cool-na-douryou-joshi/",
      "secao": "legendados",
      "pagina": 26,
      "total_episodios": 12,
      "link_video": "https://animefire.plus/video/koori-zokusei-danshi-to-cool-na-douryou-joshi"
    },
    {
      "id": 2097,
      "nome": "Kore ga Watashi no Goshujinsama",
      "link": "https://animefire.plus/animes/kore-ga-watashi-no-goshujinsama-todos-os-episodios",
      "texto_original": "Kore ga Watashi no Goshujinsama",
      "rating": 6.58,
      "classificacao_etaria": "A18",
      "imagem_original": "https://animefire.plus/img/animes/kore-ga-watashi-no-goshujinsama.webp",
      "imagem_pasta": "https://animefire.plus/img/animes/kore-ga-watashi-no-goshujinsama/",
      "secao": "legendados",
      "pagina": 71,
      "total_episodios": 12,
      "link_video": "https://animefire.plus/video/kore-ga-watashi-no-goshujinsama"
    },
    {
      "id": 2098,
      "nome": "Kore wa Zombie Desu ka?",
      "link": "https://animefire.plus/animes/kore-wa-zombie-desu-ka-todos-os-episodios",
      "texto_original": "Kore wa Zombie Desu ka?",
      "rating": 7.54,
      "classificacao_etaria": "A16",
      "imagem_original": "https://animefire.plus/img/animes/kore-wa-zombie-desu-ka.webp",
      "imagem_pasta": "https://animefire.plus/img/animes/kore-wa-zombie-desu-ka/",
      "secao": "legendados",
      "pagina": 143,
      "total_episodios": 12,
      "link_video": "https://animefire.plus/video/kore-wa-zombie-desu-ka"
    },
    {
      "id": 2099,
      "nome": "Kore wa Zombie Desu ka? of the Dead",
      "link": "https://animefire.plus/animes/kore-wa-zombie-desu-ka-of-the-dead-todos-os-episodios",
      "texto_original": "Kore wa Zombie Desu ka? of the Dead",
      "rating": 7.67,
      "classificacao_etaria": "A16",
      "imagem_original": "https://animefire.plus/img/animes/kore-wa-zombie-desu-ka-of-the-dead.webp",
      "imagem_pasta": "https://animefire.plus/img/animes/kore-wa-zombie-desu-ka-of-the-dead/",
      "secao": "legendados",
      "pagina": 129,
      "total_episodios": 10,
      "link_video": "https://animefire.plus/video/kore-wa-zombie-desu-ka-of-the-dead"
    },
    {
      "id": 2100,
      "nome": "Koro-sensei Quest!",
      "link": "https://animefire.plus/animes/koro-sensei-quest-todos-os-episodios",
      "texto_original": "Koro-sensei Quest!",
      "rating": 7.25,
      "classificacao_etaria": "A14",
      "imagem_original": "https://animefire.plus/img/animes/koro-sensei-quest.webp",
      "imagem_pasta": "https://animefire.plus/img/animes/koro-sensei-quest/",
      "secao": "legendados",
      "pagina": 169,
      "total_episodios": 12,
      "link_video": "https://animefire.plus/video/koro-sensei-quest"
    }
  ],
  "pagination": {
    "current_page": 105,
    "per_page": 20,
    "total_items": 4368,
    "total_pages": 219,
    "has_next": true,
    "has_prev": true
  }
}
