{
  "message": "Lista de animes",
  "data": [
    {
      "id": 1641,
      "nome": "Inukami!",
      "link": "https://animefire.plus/animes/inukami-todos-os-episodios",
      "texto_original": "Inukami!",
      "rating": 7.33,
      "classificacao_etaria": "A14",
      "imagem_original": "https://animefire.plus/img/animes/inukami.webp",
      "imagem_pasta": "https://animefire.plus/img/animes/inukami/",
      "secao": "legendados",
      "pagina": 117,
      "total_episodios": 26,
      "link_video": "https://animefire.plus/video/inukami"
    },
    {
      "id": 1642,
      "nome": "InuYasha (Dublado)",
      "link": "https://animefire.plus/animes/inuyasha-dublado-todos-os-episodios",
      "texto_original": "InuYasha (Dublado)",
      "rating": 7.91,
      "classificacao_etaria": "A14",
      "imagem_original": "https://animefire.plus/img/animes/inuyasha.webp",
      "imagem_pasta": "https://animefire.plus/img/animes/inuyasha/",
      "secao": "dublados,legendados",
      "pagina": 27,
      "total_episodios": 167,
      "link_video": "https://animefire.plus/video/inuyasha-dublado"
    },
    {
      "id": 1643,
      "nome": "InuYasha: Kanketsu-hen",
      "link": "https://animefire.plus/animes/inuyasha-kanketsu-hen-todos-os-episodios",
      "texto_original": "InuYasha: Kanketsu-hen",
      "rating": 8.3,
      "classificacao_etaria": "A14",
      "imagem_original": "https://animefire.plus/img/animes/inuyasha-kanketsu-hen.webp",
      "imagem_pasta": "https://animefire.plus/img/animes/inuyasha-kanketsu-hen/",
      "secao": "legendados",
      "pagina": 116,
      "total_episodios": 26,
      "link_video": "https://animefire.plus/video/inuyasha-kanketsu-hen"
    },
    {
      "id": 1644,
      "nome": "Inuyashiki",
      "link": "https://animefire.plus/animes/inuyashiki-todos-os-episodios",
      "texto_original": "Inuyashiki",
      "rating": 7.81,
      "classificacao_etaria": "A16",
      "imagem_original": "https://animefire.plus/img/animes/inuyashiki.webp",
      "imagem_pasta": "https://animefire.plus/img/animes/inuyashiki/",
      "secao": "legendados",
      "pagina": 168,
      "total_episodios": 11,
      "link_video": "https://animefire.plus/video/inuyashiki"
    },
    {
      "id": 1645,
      "nome": "Ippatsu Hicchuu!! Devander",
      "link": "https://animefire.plus/animes/ippatsu-hicchuu-devander-todos-os-episodios",
      "texto_original": "Ippatsu Hicchuu!! Devander",
      "rating": 5.62,
      "classificacao_etaria": null,
      "imagem_original": "https://animefire.plus/img/animes/ippatsu-hicchuu-devander.webp",
      "imagem_pasta": "https://animefire.plus/img/animes/ippatsu-hicchuu-devander/",
      "secao": "legendados",
      "pagina": 72,
      "total_episodios": 1,
      "link_video": "https://animefire.plus/video/ippatsu-hicchuu-devander"
    },
    {
      "id": 1646,
      "nome": "Iria: Zeiram The Animation",
      "link": "https://animefire.plus/animes/iria-zeiram-the-animation-todos-os-episodios",
      "texto_original": "Iria: Zeiram The Animation",
      "rating": 7.15,
      "classificacao_etaria": "A16",
      "imagem_original": "https://animefire.plus/img/animes/iria-zeiram-the-animation.webp",
      "imagem_pasta": "https://animefire.plus/img/animes/iria-zeiram-the-animation/",
      "secao": "legendados",
      "pagina": 133,
      "total_episodios": 6,
      "link_video": "https://animefire.plus/video/iria-zeiram-the-animation"
    },
    {
      "id": 1647,
      "nome": "Iriya no Sora, UFO no Natsu",
      "link": "https://animefire.plus/animes/iriya-no-sora-ufo-no-natsu-todos-os-episodios",
      "texto_original": "Iriya no Sora, UFO no Natsu",
      "rating": 7.01,
      "classificacao_etaria": "A18",
      "imagem_original": "https://animefire.plus/img/animes/iriya-no-sora-ufo-no-natsu.webp",
      "imagem_pasta": "https://animefire.plus/img/animes/iriya-no-sora-ufo-no-natsu/",
      "secao": "legendados",
      "pagina": 65,
      "total_episodios": 6,
      "link_video": "https://animefire.plus/video/iriya-no-sora-ufo-no-natsu"
    },
    {
      "id": 1648,
      "nome": "Iron Virgin Jun",
      "link": "https://animefire.plus/animes/iron-virgin-jun-todos-os-episodios",
      "texto_original": "Iron Virgin Jun",
      "rating": 4.58,
      "classificacao_etaria": "A16",
      "imagem_original": "https://animefire.plus/img/animes/iron-virgin-jun.webp",
      "imagem_pasta": "https://animefire.plus/img/animes/iron-virgin-jun/",
      "secao": "legendados",
      "pagina": 43,
      "total_episodios": 1,
      "link_video": "https://animefire.plus/video/iron-virgin-jun"
    },
    {
      "id": 1649,
      "nome": "Irozuku Sekai no Ashita kara",
      "link": "https://animefire.plus/animes/irozuku-sekai-no-ashita-kara-todos-os-episodios",
      "texto_original": "Irozuku Sekai no Ashita kara",
      "rating": 7.64,
      "classificacao_etaria": "A14",
      "imagem_original": "https://animefire.plus/img/animes/irozuku-sekai-no-ashita-kara.webp",
      "imagem_pasta": "https://animefire.plus/img/animes/irozuku-sekai-no-ashita-kara/",
      "secao": "legendados",
      "pagina": 170,
      "total_episodios": 13,
      "link_video": "https://animefire.plus/video/irozuku-sekai-no-ashita-kara"
    },
    {
      "id": 1650,
      "nome": "IS: Infinite Stratos",
      "link": "https://animefire.plus/animes/is-infinite-stratos-todos-os-episodios",
      "texto_original": "IS: Infinite Stratos",
      "rating": 6.97,
      "classificacao_etaria": "A14",
      "imagem_original": "https://animefire.plus/img/animes/is-infinite-stratos.webp",
      "imagem_pasta": "https://animefire.plus/img/animes/is-infinite-stratos/",
      "secao": "legendados",
      "pagina": 128,
      "total_episodios": 0,
      "link_video": "https://animefire.plus/video/is-infinite-stratos"
    },
    {
      "id": 1651,
      "nome": "IS: Infinite Stratos 2",
      "link": "https://animefire.plus/animes/is-infinite-stratos-2-todos-os-episodios",
      "texto_original": "IS: Infinite Stratos 2",
      "rating": 6.76,
      "classificacao_etaria": "A14",
      "imagem_original": "https://animefire.plus/img/animes/is-infinite-stratos-2.webp",
      "imagem_pasta": "https://animefire.plus/img/animes/is-infinite-stratos-2/",
      "secao": "legendados",
      "pagina": 150,
      "total_episodios": 12,
      "link_video": "https://animefire.plus/video/is-infinite-stratos-2"
    },
    {
      "id": 1652,
      "nome": "Isekai Cheat Magician",
      "link": "https://animefire.plus/animes/isekai-cheat-magician-todos-os-episodios",
      "texto_original": "Isekai Cheat Magician",
      "rating": 5.38,
      "classificacao_etaria": "A14",
      "imagem_original": "https://animefire.plus/img/animes/isekai-cheat-magician.webp",
      "imagem_pasta": "https://animefire.plus/img/animes/isekai-cheat-magician/",
      "secao": "legendados",
      "pagina": 154,
      "total_episodios": 3,
      "link_video": "https://animefire.plus/video/isekai-cheat-magician"
    },
    {
      "id": 1653,
      "nome": "Isekai de Cheat Skill wo Te ni Shita Ore wa, Genjitsu Sekai wo mo Musou Suru: Level Up wa Jinsei wo Kaeta (Dublado)",
      "link": "https://animefire.plus/animes/isekai-de-cheat-skill-wo-te-ni-shita-ore-wa-genjitsu-sekai-wo-mo-musou-suru-level-up-wa-jinsei-wo-kaeta-dublado-todos-os-episodios",
      "texto_original": "Isekai de Cheat Skill wo Te ni Shita Ore wa, Genjitsu Sekai wo mo Musou Suru: Level Up wa Jinsei wo Kaeta (Dublado)",
      "rating": 6.34,
      "classificacao_etaria": "A14",
      "imagem_original": "https://animefire.plus/img/animes/isekai-de-cheat-skill-wo-te-ni-shita-ore-wa-genjitsu-sekai-wo-mo-musou-suru-level-up-wa-jinsei-wo-kaeta.jpg",
      "imagem_pasta": "https://animefire.plus/img/animes/isekai-de-cheat-skill-wo-te-ni-shita-ore-wa-genjitsu-sekai-wo-mo-musou-suru-level-up-wa-jinsei-wo-kaeta/",
      "secao": "dublados,legendados",
      "pagina": 7,
      "total_episodios": 13,
      "link_video": "https://animefire.plus/video/isekai-de-cheat-skill-wo-te-ni-shita-ore-wa-genjitsu-sekai-wo-mo-musou-suru-level-up-wa-jinsei-wo-kaeta-dublado"
    },
    {
      "id": 1654,
      "nome": "Isekai de Mofumofu Nadenade suru Tame ni Ganbattemasu.",
      "link": "https://animefire.plus/animes/isekai-de-mofumofu-nadenade-suru-tame-ni-ganbattemasu-todos-os-episodios",
      "texto_original": "Isekai de Mofumofu Nadenade suru Tame ni Ganbattemasu.",
      "rating": 6.78,
      "classificacao_etaria": "A14",
      "imagem_original": "https://animefire.plus/img/animes/isekai-de-mofumofu-nadenade-suru-tame-ni-ganbattemasu.webp",
      "imagem_pasta": "https://animefire.plus/img/animes/isekai-de-mofumofu-nadenade-suru-tame-ni-ganbattemasu/",
      "secao": "legendados",
      "pagina": 17,
      "total_episodios": 12,
      "link_video": "https://animefire.plus/video/isekai-de-mofumofu-nadenade-suru-tame-ni-ganbattemasu"
    },
    {
      "id": 1655,
      "nome": "Isekai Izakaya: Koto Aitheria no Izakaya Nobu",
      "link": "https://animefire.plus/animes/isekai-izakaya-koto-aitheria-no-izakaya-nobu-todos-os-episodios",
      "texto_original": "Isekai Izakaya: Koto Aitheria no Izakaya Nobu",
      "rating": 7.37,
      "classificacao_etaria": "A14",
      "imagem_original": "https://animefire.plus/img/animes/isekai-izakaya-koto-aitheria-no-izakaya-nobu.webp",
      "imagem_pasta": "https://animefire.plus/img/animes/isekai-izakaya-koto-aitheria-no-izakaya-nobu/",
      "secao": "legendados",
      "pagina": 106,
      "total_episodios": 24,
      "link_video": "https://animefire.plus/video/isekai-izakaya-koto-aitheria-no-izakaya-nobu"
    },
    {
      "id": 1656,
      "nome": "Isekai Maou to Shoukan Shoujo no Dorei Majutsu",
      "link": "https://animefire.plus/animes/isekai-maou-to-shoukan-shoujo-no-dorei-majutsu-todos-os-episodios",
      "texto_original": "Isekai Maou to Shoukan Shoujo no Dorei Majutsu",
      "rating": 7.27,
      "classificacao_etaria": "A14",
      "imagem_original": "https://animefire.plus/img/animes/isekai-maou-to-shoukan-shoujo-no-dorei-majutsu.webp",
      "imagem_pasta": "https://animefire.plus/img/animes/isekai-maou-to-shoukan-shoujo-no-dorei-majutsu/",
      "secao": "legendados",
      "pagina": 166,
      "total_episodios": 12,
      "link_video": "https://animefire.plus/video/isekai-maou-to-shoukan-shoujo-no-dorei-majutsu"
    },
    {
      "id": 1657,
      "nome": "Isekai Maou to Shoukan Shoujo no Dorei Majutsu Ω",
      "link": "https://animefire.plus/animes/how-not-to-summon-a-demon-lord-todos-os-episodios",
      "texto_original": "Isekai Maou to Shoukan Shoujo no Dorei Majutsu Ω",
      "rating": 6.69,
      "classificacao_etaria": "A14",
      "imagem_original": "https://animefire.plus/img/animes/how-not-to-summon-a-demon-lord.webp",
      "imagem_pasta": "https://animefire.plus/img/animes/how-not-to-summon-a-demon-lord/",
      "secao": "legendados",
      "pagina": 48,
      "total_episodios": 2,
      "link_video": "https://animefire.plus/video/how-not-to-summon-a-demon-lord"
    },
    {
      "id": 1658,
      "nome": "Isekai Meikyuu de Harem wo",
      "link": "https://animefire.plus/animes/isekai-meikyuu-de-harem-wo-todos-os-episodios",
      "texto_original": "Isekai Meikyuu de Harem wo",
      "rating": 6.54,
      "classificacao_etaria": "A18",
      "imagem_original": "https://animefire.plus/img/animes/isekai-meikyuu-de-harem-wo.webp",
      "imagem_pasta": "https://animefire.plus/img/animes/isekai-meikyuu-de-harem-wo/",
      "secao": "legendados",
      "pagina": 31,
      "total_episodios": 12,
      "link_video": "https://animefire.plus/video/isekai-meikyuu-de-harem-wo"
    },
    {
      "id": 1659,
      "nome": "Isekai Meikyuu de Harem wo Specials",
      "link": "https://animefire.plus/animes/isekai-meikyuu-de-harem-wo-specials-todos-os-episodios",
      "texto_original": "Isekai Meikyuu de Harem wo Specials",
      "rating": 6.65,
      "classificacao_etaria": "A18",
      "imagem_original": "https://animefire.plus/img/animes/isekai-meikyuu-de-harem-wo-specials.webp",
      "imagem_pasta": "https://animefire.plus/img/animes/isekai-meikyuu-de-harem-wo-specials/",
      "secao": "legendados",
      "pagina": 25,
      "total_episodios": 2,
      "link_video": "https://animefire.plus/video/isekai-meikyuu-de-harem-wo-specials"
    },
    {
      "id": 1660,
      "nome": "Isekai Mokushiroku Mynoghra: Hametsu no Bunmei de Hajimeru Sekai Seifuku",
      "link": "https://animefire.plus/animes/isekai-mokushiroku-mynoghra-hametsu-no-bunmei-de-hajimeru-sekai-seifuku-todos-os-episodios",
      "texto_original": "Isekai Mokushiroku Mynoghra: Hametsu no Bunmei de Hajimeru Sekai Seifuku",
      "rating": 7,
      "classificacao_etaria": "A14",
      "imagem_original": "https://animefire.plus/img/animes/isekai-mokushiroku-mynoghra-hametsu-no-bunmei-de-hajimeru-sekai-seifuku.webp",
      "imagem_pasta": "https://animefire.plus/img/animes/isekai-mokushiroku-mynoghra-hametsu-no-bunmei-de-hajimeru-sekai-seifuku/",
      "secao": "legendados,lancamentos",
      "pagina": 3,
      "total_episodios": 5,
      "link_video": "https://animefire.plus/video/isekai-mokushiroku-mynoghra-hametsu-no-bunmei-de-hajimeru-sekai-seifuku"
    }
  ],
  "pagination": {
    "current_page": 83,
    "per_page": 20,
    "total_items": 4368,
    "total_pages": 219,
    "has_next": true,
    "has_prev": true
  }
}
