{
  "message": "Lista de animes",
  "data": [
    {
      "id": 1861,
      "nome": "Kamisama no Memochou",
      "link": "https://animefire.plus/animes/kamisama-no-memochou-todos-os-episodios",
      "texto_original": "Kamisama no Memochou",
      "rating": 7.61,
      "classificacao_etaria": "A16",
      "imagem_original": "https://animefire.plus/img/animes/kamisama-no-memochou.webp",
      "imagem_pasta": "https://animefire.plus/img/animes/kamisama-no-memochou/",
      "secao": "legendados",
      "pagina": 157,
      "total_episodios": 12,
      "link_video": "https://animefire.plus/video/kamisama-no-memochou"
    },
    {
      "id": 1862,
      "nome": "Kamitsubaki-shi Kensetsuchuu.",
      "link": "https://animefire.plus/animes/kamitsubaki-shi-kensetsuchuu-todos-os-episodios",
      "texto_original": "Kamitsubaki-shi Kensetsuchuu.",
      "rating": 5.5,
      "classificacao_etaria": "A14",
      "imagem_original": "https://animefire.plus/img/animes/kamitsubaki-shi-kensetsuchuu.webp",
      "imagem_pasta": "https://animefire.plus/img/animes/kamitsubaki-shi-kensetsuchuu/",
      "secao": "legendados,lancamentos",
      "pagina": 1,
      "total_episodios": 4,
      "link_video": "https://animefire.plus/video/kamitsubaki-shi-kensetsuchuu"
    },
    {
      "id": 1863,
      "nome": "Kamonohashi Ron no Kindan Suiri",
      "link": "https://animefire.plus/animes/kamonohashi-ron-no-kindan-suiri-todos-os-episodios",
      "texto_original": "Kamonohashi Ron no Kindan Suiri",
      "rating": 7.5,
      "classificacao_etaria": "A14",
      "imagem_original": "https://animefire.plus/img/animes/kamonohashi-ron-no-kindan-suiri.webp",
      "imagem_pasta": "https://animefire.plus/img/animes/kamonohashi-ron-no-kindan-suiri/",
      "secao": "legendados",
      "pagina": 20,
      "total_episodios": 13,
      "link_video": "https://animefire.plus/video/kamonohashi-ron-no-kindan-suiri"
    },
    {
      "id": 1864,
      "nome": "Kamonohashi Ron no Kindan Suiri 2nd Season",
      "link": "https://animefire.plus/animes/kamonohashi-ron-no-kindan-suiri-2nd-season-todos-os-episodios",
      "texto_original": "Kamonohashi Ron no Kindan Suiri 2nd Season",
      "rating": 7.61,
      "classificacao_etaria": "A14",
      "imagem_original": "https://animefire.plus/img/animes/kamonohashi-ron-no-kindan-suiri-2nd-season.webp",
      "imagem_pasta": "https://animefire.plus/img/animes/kamonohashi-ron-no-kindan-suiri-2nd-season/",
      "secao": "legendados",
      "pagina": 9,
      "total_episodios": 13,
      "link_video": "https://animefire.plus/video/kamonohashi-ron-no-kindan-suiri-2nd-season"
    },
    {
      "id": 1865,
      "nome": "Kämpfer",
      "link": "https://animefire.plus/animes/kaempfer-todos-os-episodios",
      "texto_original": "Kämpfer",
      "rating": 6.59,
      "classificacao_etaria": "A14",
      "imagem_original": "https://animefire.plus/img/animes/kaempfer.webp",
      "imagem_pasta": "https://animefire.plus/img/animes/kaempfer/",
      "secao": "legendados",
      "pagina": 116,
      "total_episodios": 12,
      "link_video": "https://animefire.plus/video/kaempfer"
    },
    {
      "id": 1866,
      "nome": "Kanamemo",
      "link": "https://animefire.plus/animes/kanamemo-todos-os-episodios",
      "texto_original": "Kanamemo",
      "rating": 6.94,
      "classificacao_etaria": "A14",
      "imagem_original": "https://animefire.plus/img/animes/kanamemo.webp",
      "imagem_pasta": "https://animefire.plus/img/animes/kanamemo/",
      "secao": "legendados",
      "pagina": 104,
      "total_episodios": 0,
      "link_video": "https://animefire.plus/video/kanamemo"
    },
    {
      "id": 1867,
      "nome": "Kanata no Astra",
      "link": "https://animefire.plus/animes/kanata-no-astra-todos-os-episodios",
      "texto_original": "Kanata no Astra",
      "rating": 8.17,
      "classificacao_etaria": "A14",
      "imagem_original": "https://animefire.plus/img/animes/kanata-no-astra.webp",
      "imagem_pasta": "https://animefire.plus/img/animes/kanata-no-astra/",
      "secao": "legendados",
      "pagina": 144,
      "total_episodios": 6,
      "link_video": "https://animefire.plus/video/kanata-no-astra"
    },
    {
      "id": 1868,
      "nome": "Kanchigai no Atelier Meister: Eiyuu Party no Moto Zatsuyougakari ga, Jitsu wa Sentou Igai ga SSS Rank Datta to Iu Yoku Aru Hanashi (Dublado)",
      "link": "https://animefire.plus/animes/kanchigai-no-atelier-meister-eiyuu-party-no-moto-zatsuyougakari-ga-jitsu-wa-sentou-igai-ga-sss-rank-datta-to-iu-yoku-aru-hanashi-dublado-todos-os-episodios",
      "texto_original": "Kanchigai no Atelier Meister: Eiyuu Party no Moto Zatsuyougakari ga, Jitsu wa Sentou Igai ga SSS Rank Datta to Iu Yoku Aru Hanashi (Dublado)",
      "rating": 6.45,
      "classificacao_etaria": "A14",
      "imagem_original": "https://animefire.plus/img/animes/kanchigai-no-atelier-meister-eiyuu-party-no-moto-zatsuyougakari-ga-jitsu-wa-sentou-igai-ga-sss-rank-datta-to-iu-yoku-aru-hanashi.webp",
      "imagem_pasta": "https://animefire.plus/img/animes/kanchigai-no-atelier-meister-eiyuu-party-no-moto-zatsuyougakari-ga-jitsu-wa-sentou-igai-ga-sss-rank-datta-to-iu-yoku-aru-hanashi/",
      "secao": "dublados,legendados,lancamentos",
      "pagina": 1,
      "total_episodios": 12,
      "link_video": "https://animefire.plus/video/kanchigai-no-atelier-meister-eiyuu-party-no-moto-zatsuyougakari-ga-jitsu-wa-sentou-igai-ga-sss-rank-datta-to-iu-yoku-aru-hanashi-dublado"
    },
    {
      "id": 1869,
      "nome": "KanColle: Itsuka Ano Umi de",
      "link": "https://animefire.plus/animes/kancolle-itsuka-ano-umi-de-todos-os-episodios",
      "texto_original": "KanColle: Itsuka Ano Umi de",
      "rating": 6.26,
      "classificacao_etaria": "A14",
      "imagem_original": "https://animefire.plus/img/animes/kancolle-itsuka-ano-umi-de.webp",
      "imagem_pasta": "https://animefire.plus/img/animes/kancolle-itsuka-ano-umi-de/",
      "secao": "legendados,lancamentos",
      "pagina": 30,
      "total_episodios": 6,
      "link_video": "https://animefire.plus/video/kancolle-itsuka-ano-umi-de"
    },
    {
      "id": 1870,
      "nome": "Kandagawa Jet Girls",
      "link": "https://animefire.plus/animes/kandagawa-jet-girls-todos-os-episodios",
      "texto_original": "Kandagawa Jet Girls",
      "rating": 5.66,
      "classificacao_etaria": "A18",
      "imagem_original": "https://animefire.plus/img/animes/kandagawa-jet-girls.webp",
      "imagem_pasta": "https://animefire.plus/img/animes/kandagawa-jet-girls/",
      "secao": "legendados",
      "pagina": 110,
      "total_episodios": 0,
      "link_video": "https://animefire.plus/video/kandagawa-jet-girls"
    },
    {
      "id": 1871,
      "nome": "Kandagawa Jet Girls OVA",
      "link": "https://animefire.plus/animes/kandagawa-jet-girls-ova-todos-os-episodios",
      "texto_original": "Kandagawa Jet Girls OVA",
      "rating": 5.6,
      "classificacao_etaria": "A14",
      "imagem_original": "https://animefire.plus/img/animes/kandagawa-jet-girls-ova.webp",
      "imagem_pasta": "https://animefire.plus/img/animes/kandagawa-jet-girls-ova/",
      "secao": "legendados",
      "pagina": 69,
      "total_episodios": 1,
      "link_video": "https://animefire.plus/video/kandagawa-jet-girls-ova"
    },
    {
      "id": 1872,
      "nome": "Kandagawa Jet Girls Recap",
      "link": "https://animefire.plus/animes/kandagawa-jet-girls-recap-todos-os-episodios",
      "texto_original": "Kandagawa Jet Girls Recap",
      "rating": 5.27,
      "classificacao_etaria": "A14",
      "imagem_original": "https://animefire.plus/img/animes/kandagawa-jet-girls-recap.webp",
      "imagem_pasta": "https://animefire.plus/img/animes/kandagawa-jet-girls-recap/",
      "secao": "legendados",
      "pagina": 86,
      "total_episodios": 1,
      "link_video": "https://animefire.plus/video/kandagawa-jet-girls-recap"
    },
    {
      "id": 1873,
      "nome": "Kankin Kuiki Level X",
      "link": "https://animefire.plus/animes/kankin-kuiki-level-x-todos-os-episodios",
      "texto_original": "Kankin Kuiki Level X",
      "rating": 6.4,
      "classificacao_etaria": "A16",
      "imagem_original": "https://animefire.plus/img/animes/kankin-kuiki-level-x.webp",
      "imagem_pasta": "https://animefire.plus/img/animes/kankin-kuiki-level-x/",
      "secao": "legendados,lancamentos",
      "pagina": 10,
      "total_episodios": 0,
      "link_video": "https://animefire.plus/video/kankin-kuiki-level-x"
    },
    {
      "id": 1874,
      "nome": "Kannagi",
      "link": "https://animefire.plus/animes/kannagi-todos-os-episodios",
      "texto_original": "Kannagi",
      "rating": 7.37,
      "classificacao_etaria": "A14",
      "imagem_original": "https://animefire.plus/img/animes/kannagi.webp",
      "imagem_pasta": "https://animefire.plus/img/animes/kannagi/",
      "secao": "legendados",
      "pagina": 152,
      "total_episodios": 12,
      "link_video": "https://animefire.plus/video/kannagi"
    },
    {
      "id": 1875,
      "nome": "Kannazuki no Miko",
      "link": "https://animefire.plus/animes/kannazuki-no-miko-todos-os-episodios",
      "texto_original": "Kannazuki no Miko",
      "rating": 6.97,
      "classificacao_etaria": "A14",
      "imagem_original": "https://animefire.plus/img/animes/kannazuki-no-miko.webp",
      "imagem_pasta": "https://animefire.plus/img/animes/kannazuki-no-miko/",
      "secao": "legendados",
      "pagina": 116,
      "total_episodios": 0,
      "link_video": "https://animefire.plus/video/kannazuki-no-miko"
    },
    {
      "id": 1876,
      "nome": "Kanojo ga Flag wo Oraretara",
      "link": "https://animefire.plus/animes/kanojo-ga-flag-wo-oraretara-todos-os-episodios",
      "texto_original": "Kanojo ga Flag wo Oraretara",
      "rating": 6.56,
      "classificacao_etaria": "A14",
      "imagem_original": "https://animefire.plus/img/animes/kanojo-ga-flag-wo-oraretara.webp",
      "imagem_pasta": "https://animefire.plus/img/animes/kanojo-ga-flag-wo-oraretara/",
      "secao": "legendados",
      "pagina": 117,
      "total_episodios": 9,
      "link_video": "https://animefire.plus/video/kanojo-ga-flag-wo-oraretara"
    },
    {
      "id": 1877,
      "nome": "Kanojo ga Koushaku-tei ni Itta Riyuu (Dublado)",
      "link": "https://animefire.plus/animes/kanojo-ga-koushaku-tei-ni-itta-riyuu-dublado-todos-os-episodios",
      "texto_original": "Kanojo ga Koushaku-tei ni Itta Riyuu (Dublado)",
      "rating": 7.53,
      "classificacao_etaria": "A14",
      "imagem_original": "https://animefire.plus/img/animes/kanojo-ga-koushaku-tei-ni-itta-riyuu.webp",
      "imagem_pasta": "https://animefire.plus/img/animes/kanojo-ga-koushaku-tei-ni-itta-riyuu/",
      "secao": "dublados,legendados",
      "pagina": 6,
      "total_episodios": 12,
      "link_video": "https://animefire.plus/video/kanojo-ga-koushaku-tei-ni-itta-riyuu-dublado"
    },
    {
      "id": 1878,
      "nome": "Kanojo mo Kanojo (Dublado)",
      "link": "https://animefire.plus/animes/kanojo-mo-kanojo-dublado-todos-os-episodios",
      "texto_original": "Kanojo mo Kanojo (Dublado)",
      "rating": 6.52,
      "classificacao_etaria": "A14",
      "imagem_original": "https://animefire.plus/img/animes/kanojo-mo-kanojo.webp",
      "imagem_pasta": "https://animefire.plus/img/animes/kanojo-mo-kanojo/",
      "secao": "dublados,legendados",
      "pagina": 4,
      "total_episodios": 12,
      "link_video": "https://animefire.plus/video/kanojo-mo-kanojo-dublado"
    },
    {
      "id": 1879,
      "nome": "Kanojo mo Kanojo Season 2 (Dublado)",
      "link": "https://animefire.plus/animes/kanojo-mo-kanojo-season-2-dublado-todos-os-episodios",
      "texto_original": "Kanojo mo Kanojo Season 2 (Dublado)",
      "rating": 7.01,
      "classificacao_etaria": "A14",
      "imagem_original": "https://animefire.plus/img/animes/kanojo-mo-kanojo-season-2.webp",
      "imagem_pasta": "https://animefire.plus/img/animes/kanojo-mo-kanojo-season-2/",
      "secao": "dublados,legendados",
      "pagina": 5,
      "total_episodios": 12,
      "link_video": "https://animefire.plus/video/kanojo-mo-kanojo-season-2-dublado"
    },
    {
      "id": 1880,
      "nome": "Kanojo To Kanojo No Neko: Everything Flows",
      "link": "https://animefire.plus/animes/kanojo-to-kanojo-no-neko-everything-flows-todos-os-episodios",
      "texto_original": "Kanojo To Kanojo No Neko: Everything Flows",
      "rating": 7.75,
      "classificacao_etaria": null,
      "imagem_original": "https://animefire.plus/img/animes/kanojo-to-kanojo-no-neko-everything-flows.webp",
      "imagem_pasta": "https://animefire.plus/img/animes/kanojo-to-kanojo-no-neko-everything-flows/",
      "secao": "legendados",
      "pagina": 98,
      "total_episodios": 4,
      "link_video": "https://animefire.plus/video/kanojo-to-kanojo-no-neko-everything-flows"
    }
  ],
  "pagination": {
    "current_page": 94,
    "per_page": 20,
    "total_items": 4368,
    "total_pages": 219,
    "has_next": true,
    "has_prev": true
  }
}
