{
  "message": "Lista de animes",
  "data": [
    {
      "id": 1281,
      "nome": "Gungrave",
      "link": "https://animefire.plus/animes/gungrave-todos-os-episodios",
      "texto_original": "Gungrave",
      "rating": 7.9,
      "classificacao_etaria": "A16",
      "imagem_original": "https://animefire.plus/img/animes/gungrave.webp",
      "imagem_pasta": "https://animefire.plus/img/animes/gungrave/",
      "secao": "legendados",
      "pagina": 101,
      "total_episodios": 26,
      "link_video": "https://animefire.plus/video/gungrave"
    },
    {
      "id": 1282,
      "nome": "Gunjou no Fanfare",
      "link": "https://animefire.plus/animes/gunjou-no-fanfare-todos-os-episodios",
      "texto_original": "Gunjou no Fanfare",
      "rating": 6.15,
      "classificacao_etaria": "A14",
      "imagem_original": "https://animefire.plus/img/animes/gunjou-no-fanfare.webp",
      "imagem_pasta": "https://animefire.plus/img/animes/gunjou-no-fanfare/",
      "secao": "legendados",
      "pagina": 33,
      "total_episodios": 13,
      "link_video": "https://animefire.plus/video/gunjou-no-fanfare"
    },
    {
      "id": 1283,
      "nome": "Gunjou no Magmell (Dublado)",
      "link": "https://animefire.plus/animes/gunjou-no-magmell-dublado-todos-os-episodios",
      "texto_original": "Gunjou no Magmell (Dublado)",
      "rating": 6.04,
      "classificacao_etaria": "A14",
      "imagem_original": "https://animefire.plus/img/animes/gunjou-no-magmell.webp",
      "imagem_pasta": "https://animefire.plus/img/animes/gunjou-no-magmell/",
      "secao": "dublados,legendados",
      "pagina": 22,
      "total_episodios": 13,
      "link_video": "https://animefire.plus/video/gunjou-no-magmell-dublado"
    },
    {
      "id": 1284,
      "nome": "Gunnm (Dublado)",
      "link": "https://animefire.plus/animes/gunnm-dublado-todos-os-episodios",
      "texto_original": "Gunnm (Dublado)",
      "rating": 7.1,
      "classificacao_etaria": "A18",
      "imagem_original": "https://animefire.plus/img/animes/gunnm.webp",
      "imagem_pasta": "https://animefire.plus/img/animes/gunnm/",
      "secao": "dublados,legendados",
      "pagina": 21,
      "total_episodios": 2,
      "link_video": "https://animefire.plus/video/gunnm-dublado"
    },
    {
      "id": 1285,
      "nome": "Gunslinger Girl",
      "link": "https://animefire.plus/animes/gunslinger-girl-todos-os-episodios",
      "texto_original": "Gunslinger Girl",
      "rating": 7.48,
      "classificacao_etaria": "A16",
      "imagem_original": "https://animefire.plus/img/animes/gunslinger-girl.webp",
      "imagem_pasta": "https://animefire.plus/img/animes/gunslinger-girl/",
      "secao": "legendados",
      "pagina": 101,
      "total_episodios": 13,
      "link_video": "https://animefire.plus/video/gunslinger-girl"
    },
    {
      "id": 1286,
      "nome": "Gunslinger Girl: Il Teatrino",
      "link": "https://animefire.plus/animes/gunslinger-girl-il-teatrino-todos-os-episodios",
      "texto_original": "Gunslinger Girl: Il Teatrino",
      "rating": 7.19,
      "classificacao_etaria": "A16",
      "imagem_original": "https://animefire.plus/img/animes/gunslinger-girl-il-teatrino.webp",
      "imagem_pasta": "https://animefire.plus/img/animes/gunslinger-girl-il-teatrino/",
      "secao": "legendados",
      "pagina": 71,
      "total_episodios": 13,
      "link_video": "https://animefire.plus/video/gunslinger-girl-il-teatrino"
    },
    {
      "id": 1287,
      "nome": "Gunslinger Girl: Il Teatrino OVA",
      "link": "https://animefire.plus/animes/gunslinger-girl-il-teatrino-ova-todos-os-episodios",
      "texto_original": "Gunslinger Girl: Il Teatrino OVA",
      "rating": 7.02,
      "classificacao_etaria": "A16",
      "imagem_original": "https://animefire.plus/img/animes/gunslinger-girl-il-teatrino-ova.webp",
      "imagem_pasta": "https://animefire.plus/img/animes/gunslinger-girl-il-teatrino-ova/",
      "secao": "legendados",
      "pagina": 71,
      "total_episodios": 1,
      "link_video": "https://animefire.plus/video/gunslinger-girl-il-teatrino-ova"
    },
    {
      "id": 1288,
      "nome": "Gunsmith Cats (Dublado)",
      "link": "https://animefire.plus/animes/gunsmith-cats-dublado-todos-os-episodios",
      "texto_original": "Gunsmith Cats (Dublado)",
      "rating": 7.27,
      "classificacao_etaria": "A14",
      "imagem_original": "https://animefire.plus/img/animes/gunsmith-cats.webp",
      "imagem_pasta": "https://animefire.plus/img/animes/gunsmith-cats/",
      "secao": "dublados",
      "pagina": 23,
      "total_episodios": 3,
      "link_video": "https://animefire.plus/video/gunsmith-cats-dublado"
    },
    {
      "id": 1289,
      "nome": "Guomin Laogong Dai Huijia",
      "link": "https://animefire.plus/animes/guomin-laogong-dai-huijia-todos-os-episodios",
      "texto_original": "Guomin Laogong Dai Huijia",
      "rating": 6.27,
      "classificacao_etaria": "A14",
      "imagem_original": "https://animefire.plus/img/animes/guomin-laogong-dai-huijia.webp",
      "imagem_pasta": "https://animefire.plus/img/animes/guomin-laogong-dai-huijia/",
      "secao": "legendados",
      "pagina": 153,
      "total_episodios": 12,
      "link_video": "https://animefire.plus/video/guomin-laogong-dai-huijia"
    },
    {
      "id": 1290,
      "nome": "Guomin Laogong Dai Huijia 2nd season",
      "link": "https://animefire.plus/animes/guomin-laogong-dai-huijia-2nd-season-todos-os-episodios",
      "texto_original": "Guomin Laogong Dai Huijia 2nd season",
      "rating": 6.66,
      "classificacao_etaria": "A14",
      "imagem_original": "https://animefire.plus/img/animes/guomin-laogong-dai-huijia-2nd-season.webp",
      "imagem_pasta": "https://animefire.plus/img/animes/guomin-laogong-dai-huijia-2nd-season/",
      "secao": "legendados",
      "pagina": 88,
      "total_episodios": 12,
      "link_video": "https://animefire.plus/video/guomin-laogong-dai-huijia-2nd-season"
    },
    {
      "id": 1291,
      "nome": "Guomin Laogong Dai Huijia 3rd Season",
      "link": "https://animefire.plus/animes/guomin-laogong-dai-huijia-3rd-season-todos-os-episodios",
      "texto_original": "Guomin Laogong Dai Huijia 3rd Season",
      "rating": 6.65,
      "classificacao_etaria": "A14",
      "imagem_original": "https://animefire.plus/img/animes/guomin-laogong-dai-huijia-3rd-season.webp",
      "imagem_pasta": "https://animefire.plus/img/animes/guomin-laogong-dai-huijia-3rd-season/",
      "secao": "legendados",
      "pagina": 132,
      "total_episodios": 12,
      "link_video": "https://animefire.plus/video/guomin-laogong-dai-huijia-3rd-season"
    },
    {
      "id": 1292,
      "nome": "Guomin Laogong Dai Huijia 4th Season",
      "link": "https://animefire.plus/animes/guomin-laogong-dai-huijia-4th-season-todos-os-episodios",
      "texto_original": "Guomin Laogong Dai Huijia 4th Season",
      "rating": 6.5,
      "classificacao_etaria": "A14",
      "imagem_original": "https://animefire.plus/img/animes/guomin-laogong-dai-huijia-4th-season.webp",
      "imagem_pasta": "https://animefire.plus/img/animes/guomin-laogong-dai-huijia-4th-season/",
      "secao": "legendados",
      "pagina": 88,
      "total_episodios": 12,
      "link_video": "https://animefire.plus/video/guomin-laogong-dai-huijia-4th-season"
    },
    {
      "id": 1293,
      "nome": "Guraburu!",
      "link": "https://animefire.plus/animes/guraburu-todos-os-episodios",
      "texto_original": "Guraburu!",
      "rating": null,
      "classificacao_etaria": "A14",
      "imagem_original": "https://animefire.plus/img/animes/guraburu.webp",
      "imagem_pasta": "https://animefire.plus/img/animes/guraburu/",
      "secao": "legendados",
      "pagina": 51,
      "total_episodios": 12,
      "link_video": "https://animefire.plus/video/guraburu"
    },
    {
      "id": 1294,
      "nome": "Gurazeni",
      "link": "https://animefire.plus/animes/gurazeni-todos-os-episodios",
      "texto_original": "Gurazeni",
      "rating": 6.38,
      "classificacao_etaria": "A14",
      "imagem_original": "https://animefire.plus/img/animes/gurazeni.webp",
      "imagem_pasta": "https://animefire.plus/img/animes/gurazeni/",
      "secao": "legendados",
      "pagina": 103,
      "total_episodios": 0,
      "link_video": "https://animefire.plus/video/gurazeni"
    },
    {
      "id": 1295,
      "nome": "Gyakkyou Burai Kaiji: Hakairoku-hen",
      "link": "https://animefire.plus/animes/gyakkyou-burai-kaiji-hakairoku-hen-todos-os-episodios",
      "texto_original": "Gyakkyou Burai Kaiji: Hakairoku-hen",
      "rating": 8.27,
      "classificacao_etaria": "A16",
      "imagem_original": "https://animefire.plus/img/animes/gyakkyou-burai-kaiji-hakairoku-hen.webp",
      "imagem_pasta": "https://animefire.plus/img/animes/gyakkyou-burai-kaiji-hakairoku-hen/",
      "secao": "legendados",
      "pagina": 151,
      "total_episodios": 26,
      "link_video": "https://animefire.plus/video/gyakkyou-burai-kaiji-hakairoku-hen"
    },
    {
      "id": 1296,
      "nome": "Gyakkyou Burai Kaiji: Ultimate Survivor",
      "link": "https://animefire.plus/animes/gyakkyou-burai-kaiji-ultimate-survivor-todos-os-episodios",
      "texto_original": "Gyakkyou Burai Kaiji: Ultimate Survivor",
      "rating": 8.31,
      "classificacao_etaria": "A16",
      "imagem_original": "https://animefire.plus/img/animes/gyakkyou-burai-kaiji-ultimate-survivor.webp",
      "imagem_pasta": "https://animefire.plus/img/animes/gyakkyou-burai-kaiji-ultimate-survivor/",
      "secao": "legendados",
      "pagina": 121,
      "total_episodios": 26,
      "link_video": "https://animefire.plus/video/gyakkyou-burai-kaiji-ultimate-survivor"
    },
    {
      "id": 1297,
      "nome": "Gyakuten Saiban: Sono \"Shinjitsu\", Igi Ari!",
      "link": "https://animefire.plus/animes/gyakuten-saiban-sono-shinjitsu-igi-ari-todos-os-episodios",
      "texto_original": "Gyakuten Saiban: Sono \"Shinjitsu\", Igi Ari!",
      "rating": 6.47,
      "classificacao_etaria": "A14",
      "imagem_original": "https://animefire.plus/img/animes/gyakuten-saiban-sono-shinjitsu-igi-ari.webp",
      "imagem_pasta": "https://animefire.plus/img/animes/gyakuten-saiban-sono-shinjitsu-igi-ari/",
      "secao": "legendados",
      "pagina": 116,
      "total_episodios": 9,
      "link_video": "https://animefire.plus/video/gyakuten-saiban-sono-shinjitsu-igi-ari"
    },
    {
      "id": 1298,
      "nome": "Gyakuten Sekai no Denchi Shoujo (Dublado)",
      "link": "https://animefire.plus/animes/gyakuten-sekai-no-denchi-shoujo-dublado-todos-os-episodios",
      "texto_original": "Gyakuten Sekai no Denchi Shoujo (Dublado)",
      "rating": 6.3,
      "classificacao_etaria": "A14",
      "imagem_original": "https://animefire.plus/img/animes/gyakuten-sekai-no-denchi-shoujo.webp",
      "imagem_pasta": "https://animefire.plus/img/animes/gyakuten-sekai-no-denchi-shoujo/",
      "secao": "dublados,legendados",
      "pagina": 14,
      "total_episodios": 12,
      "link_video": "https://animefire.plus/video/gyakuten-sekai-no-denchi-shoujo-dublado"
    },
    {
      "id": 1299,
      "nome": "H2O: Footprints In The Sand",
      "link": "https://animefire.plus/animes/h2o-footprints-in-the-sand-todos-os-episodios",
      "texto_original": "H2O: Footprints In The Sand",
      "rating": 7.16,
      "classificacao_etaria": "A14",
      "imagem_original": "https://animefire.plus/img/animes/h2o-footprints-in-the-sand.webp",
      "imagem_pasta": "https://animefire.plus/img/animes/h2o-footprints-in-the-sand/",
      "secao": "legendados",
      "pagina": 108,
      "total_episodios": 0,
      "link_video": "https://animefire.plus/video/h2o-footprints-in-the-sand"
    },
    {
      "id": 1300,
      "nome": "Hachi-nan tte, Sore wa Nai deshou!",
      "link": "https://animefire.plus/animes/hachi-nan-tte-sore-wa-nai-deshou-todos-os-episodios",
      "texto_original": "Hachi-nan tte, Sore wa Nai deshou!",
      "rating": 6.19,
      "classificacao_etaria": "A14",
      "imagem_original": "https://animefire.plus/img/animes/hachi-nan-tte-sore-wa-nai-deshou.webp",
      "imagem_pasta": "https://animefire.plus/img/animes/hachi-nan-tte-sore-wa-nai-deshou/",
      "secao": "legendados",
      "pagina": 81,
      "total_episodios": 2,
      "link_video": "https://animefire.plus/video/hachi-nan-tte-sore-wa-nai-deshou"
    }
  ],
  "pagination": {
    "current_page": 65,
    "per_page": 20,
    "total_items": 4368,
    "total_pages": 219,
    "has_next": true,
    "has_prev": true
  }
}
