{
  "message": "Lista de animes",
  "data": [
    {
      "id": 4161,
      "nome": "Wotaku ni Koi wa Muzukashii: Youth",
      "link": "https://animefire.plus/animes/wotaku-ni-koi-wa-muzukashii-youth-todos-os-episodios",
      "texto_original": "Wotaku ni Koi wa Muzukashii: Youth",
      "rating": 7.86,
      "classificacao_etaria": "A14",
      "imagem_original": "https://animefire.plus/img/animes/wotaku-ni-koi-wa-muzukashii-youth.webp",
      "imagem_pasta": "https://animefire.plus/img/animes/wotaku-ni-koi-wa-muzukashii-youth/",
      "secao": "legendados",
      "pagina": 88,
      "total_episodios": 1,
      "link_video": "https://animefire.plus/video/wotaku-ni-koi-wa-muzukashii-youth"
    },
    {
      "id": 4162,
      "nome": "Wu Geng Ji",
      "link": "https://animefire.plus/animes/wu-geng-ji-todos-os-episodios",
      "texto_original": "Wu Geng Ji",
      "rating": 7.6,
      "classificacao_etaria": "A14",
      "imagem_original": "https://animefire.plus/img/animes/wu-geng-ji.webp",
      "imagem_pasta": "https://animefire.plus/img/animes/wu-geng-ji/",
      "secao": "legendados",
      "pagina": 144,
      "total_episodios": 30,
      "link_video": "https://animefire.plus/video/wu-geng-ji"
    },
    {
      "id": 4163,
      "nome": "Wu Shan Wu Xing",
      "link": "https://animefire.plus/animes/wu-shan-wu-xing-todos-os-episodios",
      "texto_original": "Wu Shan Wu Xing",
      "rating": 8.02,
      "classificacao_etaria": "A16",
      "imagem_original": "https://animefire.plus/img/animes/wu-shan-wu-xing.webp",
      "imagem_pasta": "https://animefire.plus/img/animes/wu-shan-wu-xing/",
      "secao": "legendados",
      "pagina": 48,
      "total_episodios": 3,
      "link_video": "https://animefire.plus/video/wu-shan-wu-xing"
    },
    {
      "id": 4164,
      "nome": "Wu Shen Zhu Zai",
      "link": "https://animefire.plus/animes/wu-shen-zhu-zai-todos-os-episodios",
      "texto_original": "Wu Shen Zhu Zai",
      "rating": 7.07,
      "classificacao_etaria": "A14",
      "imagem_original": "https://animefire.plus/img/animes/wu-shen-zhu-zai.webp",
      "imagem_pasta": "https://animefire.plus/img/animes/wu-shen-zhu-zai/",
      "secao": "legendados",
      "pagina": 72,
      "total_episodios": 25,
      "link_video": "https://animefire.plus/video/wu-shen-zhu-zai"
    },
    {
      "id": 4165,
      "nome": "WWW.Working!!",
      "link": "https://animefire.plus/animes/www-working-todos-os-episodios",
      "texto_original": "WWW.Working!!",
      "rating": 7.52,
      "classificacao_etaria": "A14",
      "imagem_original": "https://animefire.plus/img/animes/www-working.webp",
      "imagem_pasta": "https://animefire.plus/img/animes/www-working/",
      "secao": "legendados",
      "pagina": 135,
      "total_episodios": 8,
      "link_video": "https://animefire.plus/video/www-working"
    },
    {
      "id": 4166,
      "nome": "X-Men",
      "link": "https://animefire.plus/animes/x-men-todos-os-episodios",
      "texto_original": "X-Men",
      "rating": 6.44,
      "classificacao_etaria": "A14",
      "imagem_original": "https://animefire.plus/img/animes/x-men.webp",
      "imagem_pasta": "https://animefire.plus/img/animes/x-men/",
      "secao": "legendados",
      "pagina": 139,
      "total_episodios": 0,
      "link_video": "https://animefire.plus/video/x-men"
    },
    {
      "id": 4167,
      "nome": "Xenosaga The Animation",
      "link": "https://animefire.plus/animes/xenosaga-the-animation-todos-os-episodios",
      "texto_original": "Xenosaga The Animation",
      "rating": 6.42,
      "classificacao_etaria": "A14",
      "imagem_original": "https://animefire.plus/img/animes/xenosaga-the-animation.webp",
      "imagem_pasta": "https://animefire.plus/img/animes/xenosaga-the-animation/",
      "secao": "legendados",
      "pagina": 135,
      "total_episodios": 12,
      "link_video": "https://animefire.plus/video/xenosaga-the-animation"
    },
    {
      "id": 4168,
      "nome": "Xia Gan Yi Dan Shen Jianxin",
      "link": "https://animefire.plus/animes/xia-gan-yi-dan-shen-jianxin-todos-os-episodios",
      "texto_original": "Xia Gan Yi Dan Shen Jianxin",
      "rating": 7.14,
      "classificacao_etaria": "A14",
      "imagem_original": "https://animefire.plus/img/animes/xia-gan-yi-dan-shen-jianxin.webp",
      "imagem_pasta": "https://animefire.plus/img/animes/xia-gan-yi-dan-shen-jianxin/",
      "secao": "legendados",
      "pagina": 81,
      "total_episodios": 12,
      "link_video": "https://animefire.plus/video/xia-gan-yi-dan-shen-jianxin"
    },
    {
      "id": 4169,
      "nome": "Xian Feng Jian Yu Lu",
      "link": "https://animefire.plus/animes/xian-feng-jian-yu-lu-todos-os-episodios",
      "texto_original": "Xian Feng Jian Yu Lu",
      "rating": null,
      "classificacao_etaria": null,
      "imagem_original": "https://animefire.plus/img/animes/xian-feng-jian-yu-lu.webp",
      "imagem_pasta": "https://animefire.plus/img/animes/xian-feng-jian-yu-lu/",
      "secao": "legendados,lancamentos",
      "pagina": 57,
      "total_episodios": 1,
      "link_video": "https://animefire.plus/video/xian-feng-jian-yu-lu"
    },
    {
      "id": 4170,
      "nome": "Xian Wang de Richang Shenghuo",
      "link": "https://animefire.plus/animes/xian-wang-de-richang-shenghuo-todos-os-episodios",
      "texto_original": "Xian Wang de Richang Shenghuo",
      "rating": 7.19,
      "classificacao_etaria": "A14",
      "imagem_original": "https://animefire.plus/img/animes/xian-wang-de-richang-shenghuo.webp",
      "imagem_pasta": "https://animefire.plus/img/animes/xian-wang-de-richang-shenghuo/",
      "secao": "legendados",
      "pagina": 91,
      "total_episodios": 15,
      "link_video": "https://animefire.plus/video/xian-wang-de-richang-shenghuo"
    },
    {
      "id": 4171,
      "nome": "Xian Wang de Richang Shenghuo 2nd Season",
      "link": "https://animefire.plus/animes/xian-wang-de-richang-shenghuo-2nd-season-todos-os-episodios",
      "texto_original": "Xian Wang de Richang Shenghuo 2nd Season",
      "rating": 7.38,
      "classificacao_etaria": "A14",
      "imagem_original": "https://animefire.plus/img/animes/xian-wang-de-richang-shenghuo-2nd-season.webp",
      "imagem_pasta": "https://animefire.plus/img/animes/xian-wang-de-richang-shenghuo-2nd-season/",
      "secao": "legendados,lancamentos",
      "pagina": 38,
      "total_episodios": 1,
      "link_video": "https://animefire.plus/video/xian-wang-de-richang-shenghuo-2nd-season"
    },
    {
      "id": 4172,
      "nome": "Xian Wang de Richang Shenghuo 3",
      "link": "https://animefire.plus/animes/xian-wang-de-richang-shenghuo-3-todos-os-episodios",
      "texto_original": "Xian Wang de Richang Shenghuo 3",
      "rating": 7.35,
      "classificacao_etaria": "A14",
      "imagem_original": "https://animefire.plus/img/animes/xian-wang-de-richang-shenghuo-3.webp",
      "imagem_pasta": "https://animefire.plus/img/animes/xian-wang-de-richang-shenghuo-3/",
      "secao": "legendados",
      "pagina": 28,
      "total_episodios": 12,
      "link_video": "https://animefire.plus/video/xian-wang-de-richang-shenghuo-3"
    },
    {
      "id": 4173,
      "nome": "Xian Wang de Richang Shenghuo 4",
      "link": "https://animefire.plus/animes/xian-wang-de-richang-shenghuo-4-todos-os-episodios",
      "texto_original": "Xian Wang de Richang Shenghuo 4",
      "rating": 7.48,
      "classificacao_etaria": "A14",
      "imagem_original": "https://animefire.plus/img/animes/xian-wang-de-richang-shenghuo-4.webp",
      "imagem_pasta": "https://animefire.plus/img/animes/xian-wang-de-richang-shenghuo-4/",
      "secao": "legendados",
      "pagina": 17,
      "total_episodios": 12,
      "link_video": "https://animefire.plus/video/xian-wang-de-richang-shenghuo-4"
    },
    {
      "id": 4174,
      "nome": "Xiaoke de Huatu Xie Hua",
      "link": "https://animefire.plus/animes/xiaoke-de-huatu-xie-hua-todos-os-episodios",
      "texto_original": "Xiaoke de Huatu Xie Hua",
      "rating": 6.84,
      "classificacao_etaria": null,
      "imagem_original": "https://animefire.plus/img/animes/xiaoke-de-huatu-xie-hua.webp",
      "imagem_pasta": "https://animefire.plus/img/animes/xiaoke-de-huatu-xie-hua/",
      "secao": "legendados",
      "pagina": 16,
      "total_episodios": 1,
      "link_video": "https://animefire.plus/video/xiaoke-de-huatu-xie-hua"
    },
    {
      "id": 4175,
      "nome": "Xie Wang Zhui Qi",
      "link": "https://animefire.plus/animes/xie-wang-zhui-qi-todos-os-episodios",
      "texto_original": "Xie Wang Zhui Qi",
      "rating": 6.7,
      "classificacao_etaria": "A14",
      "imagem_original": "https://animefire.plus/img/animes/xie-wang-zhui-qi.webp",
      "imagem_pasta": "https://animefire.plus/img/animes/xie-wang-zhui-qi/",
      "secao": "legendados",
      "pagina": 177,
      "total_episodios": 13,
      "link_video": "https://animefire.plus/video/xie-wang-zhui-qi"
    },
    {
      "id": 4176,
      "nome": "Xing Chen Bian",
      "link": "https://animefire.plus/animes/xing-chen-bian-todos-os-episodios",
      "texto_original": "Xing Chen Bian",
      "rating": 7.54,
      "classificacao_etaria": "A14",
      "imagem_original": "https://animefire.plus/img/animes/xing-chen-bian.webp",
      "imagem_pasta": "https://animefire.plus/img/animes/xing-chen-bian/",
      "secao": "legendados",
      "pagina": 60,
      "total_episodios": 10,
      "link_video": "https://animefire.plus/video/xing-chen-bian"
    },
    {
      "id": 4177,
      "nome": "xxxHOLiC",
      "link": "https://animefire.plus/animes/xxxholic-todos-os-episodios",
      "texto_original": "xxxHOLiC",
      "rating": 8.07,
      "classificacao_etaria": "A14",
      "imagem_original": "https://animefire.plus/img/animes/xxxholic.webp",
      "imagem_pasta": "https://animefire.plus/img/animes/xxxholic/",
      "secao": "legendados",
      "pagina": 128,
      "total_episodios": 24,
      "link_video": "https://animefire.plus/video/xxxholic"
    },
    {
      "id": 4178,
      "nome": "xxxHOLiC Kei",
      "link": "https://animefire.plus/animes/xxxholic-kei-todos-os-episodios",
      "texto_original": "xxxHOLiC Kei",
      "rating": 8.29,
      "classificacao_etaria": "A14",
      "imagem_original": "https://animefire.plus/img/animes/xxxholic-kei.webp",
      "imagem_pasta": "https://animefire.plus/img/animes/xxxholic-kei/",
      "secao": "legendados",
      "pagina": 163,
      "total_episodios": 13,
      "link_video": "https://animefire.plus/video/xxxholic-kei"
    },
    {
      "id": 4179,
      "nome": "XxxHOLiC Rou",
      "link": "https://animefire.plus/animes/xxxholic-rou-todos-os-episodios",
      "texto_original": "XxxHOLiC Rou",
      "rating": 8.23,
      "classificacao_etaria": "A14",
      "imagem_original": "https://animefire.plus/img/animes/xxxholic-rou.webp",
      "imagem_pasta": "https://animefire.plus/img/animes/xxxholic-rou/",
      "secao": "legendados",
      "pagina": 103,
      "total_episodios": 2,
      "link_video": "https://animefire.plus/video/xxxholic-rou"
    },
    {
      "id": 4180,
      "nome": "XxxHOLiC Shunmuki",
      "link": "https://animefire.plus/animes/xxxholic-shunmuki-todos-os-episodios",
      "texto_original": "XxxHOLiC Shunmuki",
      "rating": 8.13,
      "classificacao_etaria": "A14",
      "imagem_original": "https://animefire.plus/img/animes/xxxholic-shunmuki.webp",
      "imagem_pasta": "https://animefire.plus/img/animes/xxxholic-shunmuki/",
      "secao": "legendados",
      "pagina": 108,
      "total_episodios": 0,
      "link_video": "https://animefire.plus/video/xxxholic-shunmuki"
    }
  ],
  "pagination": {
    "current_page": 209,
    "per_page": 20,
    "total_items": 4368,
    "total_pages": 219,
    "has_next": true,
    "has_prev": true
  }
}
