{
  "message": "Lista de animes",
  "data": [
    {
      "id": 1001,
      "nome": "Fate/strange Fake: Whispers of Dawn",
      "link": "https://animefire.plus/animes/fate-strange-fake-whispers-of-dawn-todos-os-episodios",
      "texto_original": "Fate/strange Fake: Whispers of Dawn",
      "rating": 8.18,
      "classificacao_etaria": "A16",
      "imagem_original": "https://animefire.plus/img/animes/fate-strange-fake-whispers-of-dawn.webp",
      "imagem_pasta": "https://animefire.plus/img/animes/fate-strange-fake-whispers-of-dawn/",
      "secao": "legendados",
      "pagina": 21,
      "total_episodios": 1,
      "link_video": "https://animefire.plus/video/fate-strange-fake-whispers-of-dawn"
    },
    {
      "id": 1002,
      "nome": "Fate/Zero",
      "link": "https://animefire.plus/animes/fate-zero-todos-os-episodios",
      "texto_original": "Fate/Zero",
      "rating": 8.4,
      "classificacao_etaria": "A16",
      "imagem_original": "https://animefire.plus/img/animes/fate-zero.webp",
      "imagem_pasta": "https://animefire.plus/img/animes/fate-zero/",
      "secao": "legendados",
      "pagina": 89,
      "total_episodios": 13,
      "link_video": "https://animefire.plus/video/fate-zero"
    },
    {
      "id": 1003,
      "nome": "Fate/Zero 2nd Season",
      "link": "https://animefire.plus/animes/fate-zero-2nd-season-todos-os-episodios",
      "texto_original": "Fate/Zero 2nd Season",
      "rating": 8.55,
      "classificacao_etaria": "A16",
      "imagem_original": "https://animefire.plus/img/animes/fate-zero-2nd-season.webp",
      "imagem_pasta": "https://animefire.plus/img/animes/fate-zero-2nd-season/",
      "secao": "legendados",
      "pagina": 16,
      "total_episodios": 12,
      "link_video": "https://animefire.plus/video/fate-zero-2nd-season"
    },
    {
      "id": 1004,
      "nome": "Fate/Zero: Onegai! Einzbern Soudanshitsu",
      "link": "https://animefire.plus/animes/fate-zero-onegai-einzbern-soudanshitsu-todos-os-episodios",
      "texto_original": "Fate/Zero: Onegai! Einzbern Soudanshitsu",
      "rating": 6.72,
      "classificacao_etaria": "A14",
      "imagem_original": "https://animefire.plus/img/animes/fate-zero-onegai-einzbern-soudanshitsu.webp",
      "imagem_pasta": "https://animefire.plus/img/animes/fate-zero-onegai-einzbern-soudanshitsu/",
      "secao": "legendados",
      "pagina": 145,
      "total_episodios": 6,
      "link_video": "https://animefire.plus/video/fate-zero-onegai-einzbern-soudanshitsu"
    },
    {
      "id": 1005,
      "nome": "Fermat no Ryouri",
      "link": "https://animefire.plus/animes/fermat-no-ryouri-todos-os-episodios",
      "texto_original": "Fermat no Ryouri",
      "rating": 6.65,
      "classificacao_etaria": "A14",
      "imagem_original": "https://animefire.plus/img/animes/fermat-no-ryouri.webp",
      "imagem_pasta": "https://animefire.plus/img/animes/fermat-no-ryouri/",
      "secao": "legendados,lancamentos",
      "pagina": 2,
      "total_episodios": 4,
      "link_video": "https://animefire.plus/video/fermat-no-ryouri"
    },
    {
      "id": 1006,
      "nome": "Fight Ippatsu! Juuden-Chan!!",
      "link": "https://animefire.plus/animes/fight-ippatsu-juuden-chan-todos-os-episodios",
      "texto_original": "Fight Ippatsu! Juuden-Chan!!",
      "rating": 6.73,
      "classificacao_etaria": "A18",
      "imagem_original": "https://animefire.plus/img/animes/fight-ippatsu-juuden-chan.webp",
      "imagem_pasta": "https://animefire.plus/img/animes/fight-ippatsu-juuden-chan/",
      "secao": "legendados",
      "pagina": 98,
      "total_episodios": 1,
      "link_video": "https://animefire.plus/video/fight-ippatsu-juuden-chan"
    },
    {
      "id": 1007,
      "nome": "Fight League: Gear Gadget Generators",
      "link": "https://animefire.plus/animes/fight-league-gear-gadget-generators-todos-os-episodios",
      "texto_original": "Fight League: Gear Gadget Generators",
      "rating": 6.15,
      "classificacao_etaria": "A14",
      "imagem_original": "https://animefire.plus/img/animes/fight-league-gear-gadget-generators.webp",
      "imagem_pasta": "https://animefire.plus/img/animes/fight-league-gear-gadget-generators/",
      "secao": "legendados",
      "pagina": 174,
      "total_episodios": 0,
      "link_video": "https://animefire.plus/video/fight-league-gear-gadget-generators"
    },
    {
      "id": 1008,
      "nome": "Figure 17: Tsubasa & Hikaru",
      "link": "https://animefire.plus/animes/figure-17-tsubasa-hikaru-todos-os-episodios",
      "texto_original": "Figure 17: Tsubasa & Hikaru",
      "rating": 7.25,
      "classificacao_etaria": "A14",
      "imagem_original": "https://animefire.plus/img/animes/figure-17-tsubasa-hikaru.webp",
      "imagem_pasta": "https://animefire.plus/img/animes/figure-17-tsubasa-hikaru/",
      "secao": "legendados",
      "pagina": 69,
      "total_episodios": 13,
      "link_video": "https://animefire.plus/video/figure-17-tsubasa-hikaru"
    },
    {
      "id": 1009,
      "nome": "Final Approach",
      "link": "https://animefire.plus/animes/final-approach-todos-os-episodios",
      "texto_original": "Final Approach",
      "rating": 6.62,
      "classificacao_etaria": "A14",
      "imagem_original": "https://animefire.plus/img/animes/final-approach.webp",
      "imagem_pasta": "https://animefire.plus/img/animes/final-approach/",
      "secao": "legendados",
      "pagina": 97,
      "total_episodios": 12,
      "link_video": "https://animefire.plus/video/final-approach"
    },
    {
      "id": 1010,
      "nome": "Final Fantasy",
      "link": "https://animefire.plus/animes/final-fantasy-todos-os-episodios",
      "texto_original": "Final Fantasy",
      "rating": 6.1,
      "classificacao_etaria": "A14",
      "imagem_original": "https://animefire.plus/img/animes/final-fantasy.webp",
      "imagem_pasta": "https://animefire.plus/img/animes/final-fantasy/",
      "secao": "legendados",
      "pagina": 42,
      "total_episodios": 4,
      "link_video": "https://animefire.plus/video/final-fantasy"
    },
    {
      "id": 1011,
      "nome": "Final Fantasy: Unlimited",
      "link": "https://animefire.plus/animes/final-fantasy-unlimited-todos-os-episodios",
      "texto_original": "Final Fantasy: Unlimited",
      "rating": 6.27,
      "classificacao_etaria": "A14",
      "imagem_original": "https://animefire.plus/img/animes/final-fantasy-unlimited.webp",
      "imagem_pasta": "https://animefire.plus/img/animes/final-fantasy-unlimited/",
      "secao": "legendados",
      "pagina": 162,
      "total_episodios": 25,
      "link_video": "https://animefire.plus/video/final-fantasy-unlimited"
    },
    {
      "id": 1012,
      "nome": "Flag",
      "link": "https://animefire.plus/animes/flag-todos-os-episodios",
      "texto_original": "Flag",
      "rating": 7.27,
      "classificacao_etaria": "A14",
      "imagem_original": "https://animefire.plus/img/animes/flag.webp",
      "imagem_pasta": "https://animefire.plus/img/animes/flag/",
      "secao": "legendados",
      "pagina": 97,
      "total_episodios": 13,
      "link_video": "https://animefire.plus/video/flag"
    },
    {
      "id": 1013,
      "nome": "Flaglia: Natsuyasumi no Monogatari",
      "link": "https://animefire.plus/animes/flaglia-natsuyasumi-no-monogatari-todos-os-episodios",
      "texto_original": "Flaglia: Natsuyasumi no Monogatari",
      "rating": 5.13,
      "classificacao_etaria": "A14",
      "imagem_original": "https://animefire.plus/img/animes/flaglia-natsuyasumi-no-monogatari.webp",
      "imagem_pasta": "https://animefire.plus/img/animes/flaglia-natsuyasumi-no-monogatari/",
      "secao": "legendados,lancamentos",
      "pagina": 26,
      "total_episodios": 0,
      "link_video": "https://animefire.plus/video/flaglia-natsuyasumi-no-monogatari"
    },
    {
      "id": 1014,
      "nome": "FLCL",
      "link": "https://animefire.plus/animes/flcl-todos-os-episodios",
      "texto_original": "FLCL",
      "rating": 8.06,
      "classificacao_etaria": "A14",
      "imagem_original": "https://animefire.plus/img/animes/flcl.webp",
      "imagem_pasta": "https://animefire.plus/img/animes/flcl/",
      "secao": "legendados",
      "pagina": 108,
      "total_episodios": 6,
      "link_video": "https://animefire.plus/video/flcl"
    },
    {
      "id": 1015,
      "nome": "Flip Flappers",
      "link": "https://animefire.plus/animes/flip-flappers-todos-os-episodios",
      "texto_original": "Flip Flappers",
      "rating": 7.74,
      "classificacao_etaria": "A14",
      "imagem_original": "https://animefire.plus/img/animes/flip-flappers.webp",
      "imagem_pasta": "https://animefire.plus/img/animes/flip-flappers/",
      "secao": "legendados",
      "pagina": 168,
      "total_episodios": 13,
      "link_video": "https://animefire.plus/video/flip-flappers"
    },
    {
      "id": 1016,
      "nome": "Flying Witch",
      "link": "https://animefire.plus/animes/flying-witch-todos-os-episodios",
      "texto_original": "Flying Witch",
      "rating": 7.59,
      "classificacao_etaria": "A14",
      "imagem_original": "https://animefire.plus/img/animes/flying-witch.webp",
      "imagem_pasta": "https://animefire.plus/img/animes/flying-witch/",
      "secao": "legendados",
      "pagina": 136,
      "total_episodios": 12,
      "link_video": "https://animefire.plus/video/flying-witch"
    },
    {
      "id": 1017,
      "nome": "Food Court de, Mata Ashita.",
      "link": "https://animefire.plus/animes/food-court-de-mata-ashita-todos-os-episodios",
      "texto_original": "Food Court de, Mata Ashita.",
      "rating": 7.01,
      "classificacao_etaria": "A14",
      "imagem_original": "https://animefire.plus/img/animes/food-court-de-mata-ashita.webp",
      "imagem_pasta": "https://animefire.plus/img/animes/food-court-de-mata-ashita/",
      "secao": "legendados,lancamentos",
      "pagina": 2,
      "total_episodios": 4,
      "link_video": "https://animefire.plus/video/food-court-de-mata-ashita"
    },
    {
      "id": 1018,
      "nome": "Forest Fairy Five",
      "link": "https://animefire.plus/animes/forest-fairy-five-todos-os-episodios",
      "texto_original": "Forest Fairy Five",
      "rating": 3.26,
      "classificacao_etaria": "A10",
      "imagem_original": "https://animefire.plus/img/animes/forest-fairy-five.webp",
      "imagem_pasta": "https://animefire.plus/img/animes/forest-fairy-five/",
      "secao": "legendados",
      "pagina": 113,
      "total_episodios": 4,
      "link_video": "https://animefire.plus/video/forest-fairy-five"
    },
    {
      "id": 1019,
      "nome": "Fortune Arterial: Akai Yakusoku",
      "link": "https://animefire.plus/animes/fortune-arterial-akai-yakusoku-todos-os-episodios",
      "texto_original": "Fortune Arterial: Akai Yakusoku",
      "rating": 6.81,
      "classificacao_etaria": "A14",
      "imagem_original": "https://animefire.plus/img/animes/fortune-arterial-akai-yakusoku.webp",
      "imagem_pasta": "https://animefire.plus/img/animes/fortune-arterial-akai-yakusoku/",
      "secao": "legendados",
      "pagina": 143,
      "total_episodios": 12,
      "link_video": "https://animefire.plus/video/fortune-arterial-akai-yakusoku"
    },
    {
      "id": 1020,
      "nome": "Fractale",
      "link": "https://animefire.plus/animes/fractale-todos-os-episodios",
      "texto_original": "Fractale",
      "rating": 7,
      "classificacao_etaria": "A14",
      "imagem_original": "https://animefire.plus/img/animes/fractale.webp",
      "imagem_pasta": "https://animefire.plus/img/animes/fractale/",
      "secao": "legendados",
      "pagina": 108,
      "total_episodios": 11,
      "link_video": "https://animefire.plus/video/fractale"
    }
  ],
  "pagination": {
    "current_page": 51,
    "per_page": 20,
    "total_items": 4368,
    "total_pages": 219,
    "has_next": true,
    "has_prev": true
  }
}
