{
  "message": "Lista de animes",
  "data": [
    {
      "id": 4041,
      "nome": "Usagi Drop",
      "link": "https://animefire.plus/animes/usagi-drop-todos-os-episodios",
      "texto_original": "Usagi Drop",
      "rating": 8.49,
      "classificacao_etaria": "A14",
      "imagem_original": "https://animefire.plus/img/animes/usagi-drop.webp",
      "imagem_pasta": "https://animefire.plus/img/animes/usagi-drop/",
      "secao": "legendados",
      "pagina": 169,
      "total_episodios": 0,
      "link_video": "https://animefire.plus/video/usagi-drop"
    },
    {
      "id": 4042,
      "nome": "Usagi-chan de Cue!!",
      "link": "https://animefire.plus/animes/usagi-chan-de-cue-todos-os-episodios",
      "texto_original": "Usagi-chan de Cue!!",
      "rating": 5.7,
      "classificacao_etaria": "A18",
      "imagem_original": "https://animefire.plus/img/animes/usagi-chan-de-cue.webp",
      "imagem_pasta": "https://animefire.plus/img/animes/usagi-chan-de-cue/",
      "secao": "legendados",
      "pagina": 69,
      "total_episodios": 3,
      "link_video": "https://animefire.plus/video/usagi-chan-de-cue"
    },
    {
      "id": 4043,
      "nome": "Usakame",
      "link": "https://animefire.plus/animes/usakame-todos-os-episodios",
      "texto_original": "Usakame",
      "rating": 5.83,
      "classificacao_etaria": "A14",
      "imagem_original": "https://animefire.plus/img/animes/usakame.webp",
      "imagem_pasta": "https://animefire.plus/img/animes/usakame/",
      "secao": "legendados",
      "pagina": 159,
      "total_episodios": 9,
      "link_video": "https://animefire.plus/video/usakame"
    },
    {
      "id": 4044,
      "nome": "Ushinawareta Mirai wo Motomete",
      "link": "https://animefire.plus/animes/ushinawareta-mirai-wo-motomete-todos-os-episodios",
      "texto_original": "Ushinawareta Mirai wo Motomete",
      "rating": 6.83,
      "classificacao_etaria": "A14",
      "imagem_original": "https://animefire.plus/img/animes/ushinawareta-mirai-wo-motomete.webp",
      "imagem_pasta": "https://animefire.plus/img/animes/ushinawareta-mirai-wo-motomete/",
      "secao": "legendados",
      "pagina": 148,
      "total_episodios": 2,
      "link_video": "https://animefire.plus/video/ushinawareta-mirai-wo-motomete"
    },
    {
      "id": 4045,
      "nome": "Ushio To Tora (TV)",
      "link": "https://animefire.plus/animes/ushio-to-tora-tv-todos-os-episodios",
      "texto_original": "Ushio To Tora (TV)",
      "rating": 7.65,
      "classificacao_etaria": "A14",
      "imagem_original": "https://animefire.plus/img/animes/ushio-to-tora-tv.webp",
      "imagem_pasta": "https://animefire.plus/img/animes/ushio-to-tora-tv/",
      "secao": "legendados",
      "pagina": 100,
      "total_episodios": 2,
      "link_video": "https://animefire.plus/video/ushio-to-tora-tv"
    },
    {
      "id": 4046,
      "nome": "Ushio to Tora (TV) 2nd Season",
      "link": "https://animefire.plus/animes/ushio-to-tora-tv-2nd-season-todos-os-episodios",
      "texto_original": "Ushio to Tora (TV) 2nd Season",
      "rating": 8.03,
      "classificacao_etaria": "A14",
      "imagem_original": "https://animefire.plus/img/animes/ushio-to-tora-tv-2nd-season.webp",
      "imagem_pasta": "https://animefire.plus/img/animes/ushio-to-tora-tv-2nd-season/",
      "secao": "legendados",
      "pagina": 104,
      "total_episodios": 13,
      "link_video": "https://animefire.plus/video/ushio-to-tora-tv-2nd-season"
    },
    {
      "id": 4047,
      "nome": "Uta Kata",
      "link": "https://animefire.plus/animes/uta-kata-todos-os-episodios",
      "texto_original": "Uta Kata",
      "rating": 6.8,
      "classificacao_etaria": "A14",
      "imagem_original": "https://animefire.plus/img/animes/uta-kata.webp",
      "imagem_pasta": "https://animefire.plus/img/animes/uta-kata/",
      "secao": "legendados",
      "pagina": 120,
      "total_episodios": 13,
      "link_video": "https://animefire.plus/video/uta-kata"
    },
    {
      "id": 4048,
      "nome": "Uta no☆Prince-sama♪ Maji Love 1000%",
      "link": "https://animefire.plus/animes/uta-no-prince-sama-maji-love-1000-todos-os-episodios",
      "texto_original": "Uta no☆Prince-sama♪ Maji Love 1000%",
      "rating": 7.26,
      "classificacao_etaria": "A14",
      "imagem_original": "https://animefire.plus/img/animes/uta-no-prince-sama-maji-love-1000.webp",
      "imagem_pasta": "https://animefire.plus/img/animes/uta-no-prince-sama-maji-love-1000/",
      "secao": "legendados",
      "pagina": 131,
      "total_episodios": 13,
      "link_video": "https://animefire.plus/video/uta-no-prince-sama-maji-love-1000"
    },
    {
      "id": 4049,
      "nome": "Uta no☆Prince-sama♪ Maji Love Legend Star",
      "link": "https://animefire.plus/animes/uta-no-prince-sama-maji-love-legend-star-todos-os-episodios",
      "texto_original": "Uta no☆Prince-sama♪ Maji Love Legend Star",
      "rating": 7.35,
      "classificacao_etaria": "A14",
      "imagem_original": "https://animefire.plus/img/animes/uta-no-prince-sama-maji-love-legend-star.webp",
      "imagem_pasta": "https://animefire.plus/img/animes/uta-no-prince-sama-maji-love-legend-star/",
      "secao": "legendados",
      "pagina": 160,
      "total_episodios": 8,
      "link_video": "https://animefire.plus/video/uta-no-prince-sama-maji-love-legend-star"
    },
    {
      "id": 4050,
      "nome": "Utagoe wa Mille-Feuille",
      "link": "https://animefire.plus/animes/utagoe-wa-mille-feuille-todos-os-episodios",
      "texto_original": "Utagoe wa Mille-Feuille",
      "rating": 6.1,
      "classificacao_etaria": "A14",
      "imagem_original": "https://animefire.plus/img/animes/utagoe-wa-mille-feuille.webp",
      "imagem_pasta": "https://animefire.plus/img/animes/utagoe-wa-mille-feuille/",
      "secao": "legendados,lancamentos",
      "pagina": 1,
      "total_episodios": 0,
      "link_video": "https://animefire.plus/video/utagoe-wa-mille-feuille"
    },
    {
      "id": 4051,
      "nome": "Utawarerumono",
      "link": "https://animefire.plus/animes/utawarerumono-todos-os-episodios",
      "texto_original": "Utawarerumono",
      "rating": 7.72,
      "classificacao_etaria": "A16",
      "imagem_original": "https://animefire.plus/img/animes/utawarerumono.webp",
      "imagem_pasta": "https://animefire.plus/img/animes/utawarerumono/",
      "secao": "legendados",
      "pagina": 145,
      "total_episodios": 26,
      "link_video": "https://animefire.plus/video/utawarerumono"
    },
    {
      "id": 4052,
      "nome": "Utawarerumono: Futari no Hakuoro",
      "link": "https://animefire.plus/animes/utawarerumono-futari-no-hakuoro-todos-os-episodios",
      "texto_original": "Utawarerumono: Futari no Hakuoro",
      "rating": 7.51,
      "classificacao_etaria": "A14",
      "imagem_original": "https://animefire.plus/img/animes/utawarerumono-futari-no-hakuoro.webp",
      "imagem_pasta": "https://animefire.plus/img/animes/utawarerumono-futari-no-hakuoro/",
      "secao": "legendados",
      "pagina": 32,
      "total_episodios": 28,
      "link_video": "https://animefire.plus/video/utawarerumono-futari-no-hakuoro"
    },
    {
      "id": 4053,
      "nome": "Utawarerumono: Itsuwari No Kamen",
      "link": "https://animefire.plus/animes/utawarerumono-itsuwari-no-kamen-todos-os-episodios",
      "texto_original": "Utawarerumono: Itsuwari No Kamen",
      "rating": 7.31,
      "classificacao_etaria": "A14",
      "imagem_original": "https://animefire.plus/img/animes/utawarerumono-itsuwari-no-kamen.webp",
      "imagem_pasta": "https://animefire.plus/img/animes/utawarerumono-itsuwari-no-kamen/",
      "secao": "legendados",
      "pagina": 95,
      "total_episodios": 25,
      "link_video": "https://animefire.plus/video/utawarerumono-itsuwari-no-kamen"
    },
    {
      "id": 4054,
      "nome": "Utawarerumono: Tusukuru-koujo no Karei Naru Hibi",
      "link": "https://animefire.plus/animes/utawarerumono-tusukuru-koujo-no-karei-naru-hibi-todos-os-episodios",
      "texto_original": "Utawarerumono: Tusukuru-koujo no Karei Naru Hibi",
      "rating": 6.74,
      "classificacao_etaria": "A14",
      "imagem_original": "https://animefire.plus/img/animes/utawarerumono-tusukuru-koujo-no-karei-naru-hibi.webp",
      "imagem_pasta": "https://animefire.plus/img/animes/utawarerumono-tusukuru-koujo-no-karei-naru-hibi/",
      "secao": "legendados",
      "pagina": 83,
      "total_episodios": 1,
      "link_video": "https://animefire.plus/video/utawarerumono-tusukuru-koujo-no-karei-naru-hibi"
    },
    {
      "id": 4055,
      "nome": "Uzaki-chan wa Asobitai! (Dublado)",
      "link": "https://animefire.plus/animes/uzaki-chan-wa-asobitai-dublado-todos-os-episodios",
      "texto_original": "Uzaki-chan wa Asobitai! (Dublado)",
      "rating": 7,
      "classificacao_etaria": "A14",
      "imagem_original": "https://animefire.plus/img/animes/uzaki-chan-wa-asobitai.webp",
      "imagem_pasta": "https://animefire.plus/img/animes/uzaki-chan-wa-asobitai/",
      "secao": "dublados,legendados",
      "pagina": 9,
      "total_episodios": 12,
      "link_video": "https://animefire.plus/video/uzaki-chan-wa-asobitai-dublado"
    },
    {
      "id": 4056,
      "nome": "Uzaki-chan wa Asobitai! Double (Dublado)",
      "link": "https://animefire.plus/animes/uzaki-chan-wa-asobitai-double-dublado-todos-os-episodios",
      "texto_original": "Uzaki-chan wa Asobitai! Double (Dublado)",
      "rating": 7.24,
      "classificacao_etaria": "A14",
      "imagem_original": "https://animefire.plus/img/animes/uzaki-chan-wa-asobitai-double.webp",
      "imagem_pasta": "https://animefire.plus/img/animes/uzaki-chan-wa-asobitai-double/",
      "secao": "dublados,legendados",
      "pagina": 9,
      "total_episodios": 13,
      "link_video": "https://animefire.plus/video/uzaki-chan-wa-asobitai-double-dublado"
    },
    {
      "id": 4057,
      "nome": "Uzumaki (Dublado)",
      "link": "https://animefire.plus/animes/uzumaki-dublado-todos-os-episodios",
      "texto_original": "Uzumaki (Dublado)",
      "rating": 5.72,
      "classificacao_etaria": "A16",
      "imagem_original": "https://animefire.plus/img/animes/uzumaki.webp",
      "imagem_pasta": "https://animefire.plus/img/animes/uzumaki/",
      "secao": "dublados,legendados",
      "pagina": 2,
      "total_episodios": 4,
      "link_video": "https://animefire.plus/video/uzumaki-dublado"
    },
    {
      "id": 4058,
      "nome": "Val x Love",
      "link": "https://animefire.plus/animes/val-x-love-todos-os-episodios",
      "texto_original": "Val x Love",
      "rating": 5.89,
      "classificacao_etaria": "A16",
      "imagem_original": "https://animefire.plus/img/animes/val-x-love.webp",
      "imagem_pasta": "https://animefire.plus/img/animes/val-x-love/",
      "secao": "legendados",
      "pagina": 110,
      "total_episodios": 0,
      "link_video": "https://animefire.plus/video/val-x-love"
    },
    {
      "id": 4059,
      "nome": "Valkyrie Drive: Mermaid",
      "link": "https://animefire.plus/animes/valkyrie-drive-mermaid-todos-os-episodios",
      "texto_original": "Valkyrie Drive: Mermaid",
      "rating": 6.21,
      "classificacao_etaria": "A18",
      "imagem_original": "https://animefire.plus/img/animes/valkyrie-drive-mermaid.webp",
      "imagem_pasta": "https://animefire.plus/img/animes/valkyrie-drive-mermaid/",
      "secao": "legendados",
      "pagina": 91,
      "total_episodios": 0,
      "link_video": "https://animefire.plus/video/valkyrie-drive-mermaid"
    },
    {
      "id": 4060,
      "nome": "Vampire Dormitory",
      "link": "https://animefire.plus/animes/vampire-dormitory-todos-os-episodios",
      "texto_original": "Vampire Dormitory",
      "rating": 6.22,
      "classificacao_etaria": "A14",
      "imagem_original": "https://animefire.plus/img/animes/vampire-dormitory.webp",
      "imagem_pasta": "https://animefire.plus/img/animes/vampire-dormitory/",
      "secao": "legendados",
      "pagina": 15,
      "total_episodios": 12,
      "link_video": "https://animefire.plus/video/vampire-dormitory"
    }
  ],
  "pagination": {
    "current_page": 203,
    "per_page": 20,
    "total_items": 4368,
    "total_pages": 219,
    "has_next": true,
    "has_prev": true
  }
}
