{
  "message": "Lista de animes",
  "data": [
    {
      "id": 2861,
      "nome": "Onmyouji (Dublado)",
      "link": "https://animefire.plus/animes/onmyouji-dublado-todos-os-episodios",
      "texto_original": "Onmyouji (Dublado)",
      "rating": 6.98,
      "classificacao_etaria": "A14",
      "imagem_original": "https://animefire.plus/img/animes/onmyouji.webp",
      "imagem_pasta": "https://animefire.plus/img/animes/onmyouji/",
      "secao": "dublados,legendados",
      "pagina": 4,
      "total_episodios": 13,
      "link_video": "https://animefire.plus/video/onmyouji-dublado"
    },
    {
      "id": 2862,
      "nome": "Onsen Yousei Hakone-chan",
      "link": "https://animefire.plus/animes/onsen-yousei-hakone-chan-todos-os-episodios",
      "texto_original": "Onsen Yousei Hakone-chan",
      "rating": 5.9,
      "classificacao_etaria": "A14",
      "imagem_original": "https://animefire.plus/img/animes/onsen-yousei-hakone-chan.webp",
      "imagem_pasta": "https://animefire.plus/img/animes/onsen-yousei-hakone-chan/",
      "secao": "legendados",
      "pagina": 107,
      "total_episodios": 13,
      "link_video": "https://animefire.plus/video/onsen-yousei-hakone-chan"
    },
    {
      "id": 2863,
      "nome": "Ontama!",
      "link": "https://animefire.plus/animes/ontama-todos-os-episodios",
      "texto_original": "Ontama!",
      "rating": 6.74,
      "classificacao_etaria": null,
      "imagem_original": "https://animefire.plus/img/animes/ontama.webp",
      "imagem_pasta": "https://animefire.plus/img/animes/ontama/",
      "secao": "legendados",
      "pagina": 43,
      "total_episodios": 5,
      "link_video": "https://animefire.plus/video/ontama"
    },
    {
      "id": 2864,
      "nome": "Onyankopon",
      "link": "https://animefire.plus/animes/onyankopon-todos-os-episodios",
      "texto_original": "Onyankopon",
      "rating": 4.5,
      "classificacao_etaria": null,
      "imagem_original": "https://animefire.plus/img/animes/onyankopon.webp",
      "imagem_pasta": "https://animefire.plus/img/animes/onyankopon/",
      "secao": "legendados",
      "pagina": 147,
      "total_episodios": 11,
      "link_video": "https://animefire.plus/video/onyankopon"
    },
    {
      "id": 2865,
      "nome": "Ooi! Tonbo",
      "link": "https://animefire.plus/animes/ooi-tonbo-todos-os-episodios",
      "texto_original": "Ooi! Tonbo",
      "rating": 7.11,
      "classificacao_etaria": "A14",
      "imagem_original": "https://animefire.plus/img/animes/ooi-tonbo.webp",
      "imagem_pasta": "https://animefire.plus/img/animes/ooi-tonbo/",
      "secao": "legendados,lancamentos",
      "pagina": 14,
      "total_episodios": 1,
      "link_video": "https://animefire.plus/video/ooi-tonbo"
    },
    {
      "id": 2866,
      "nome": "Ooi! Tonbo 2nd Season",
      "link": "https://animefire.plus/animes/ooi-tonbo-2nd-season-todos-os-episodios",
      "texto_original": "Ooi! Tonbo 2nd Season",
      "rating": 7.31,
      "classificacao_etaria": "A14",
      "imagem_original": "https://animefire.plus/img/animes/ooi-tonbo-2nd-season.webp",
      "imagem_pasta": "https://animefire.plus/img/animes/ooi-tonbo-2nd-season/",
      "secao": "legendados,lancamentos",
      "pagina": 9,
      "total_episodios": 2,
      "link_video": "https://animefire.plus/video/ooi-tonbo-2nd-season"
    },
    {
      "id": 2867,
      "nome": "Ookami Shoujo to Kuro Ouji",
      "link": "https://animefire.plus/animes/ookami-shoujo-to-kuro-ouji-todos-os-episodios",
      "texto_original": "Ookami Shoujo to Kuro Ouji",
      "rating": 7.37,
      "classificacao_etaria": "A14",
      "imagem_original": "https://animefire.plus/img/animes/ookami-shoujo-to-kuro-ouji.webp",
      "imagem_pasta": "https://animefire.plus/img/animes/ookami-shoujo-to-kuro-ouji/",
      "secao": "legendados",
      "pagina": 123,
      "total_episodios": 12,
      "link_video": "https://animefire.plus/video/ookami-shoujo-to-kuro-ouji"
    },
    {
      "id": 2868,
      "nome": "Ookami to Koushinryou (Dublado)",
      "link": "https://animefire.plus/animes/ookami-to-koushinryou-dublado-todos-os-episodios",
      "texto_original": "Ookami to Koushinryou (Dublado)",
      "rating": 8.24,
      "classificacao_etaria": "A14",
      "imagem_original": "https://animefire.plus/img/animes/ookami-to-koushinryou.webp",
      "imagem_pasta": "https://animefire.plus/img/animes/ookami-to-koushinryou/",
      "secao": "dublados,legendados",
      "pagina": 13,
      "total_episodios": 13,
      "link_video": "https://animefire.plus/video/ookami-to-koushinryou-dublado"
    },
    {
      "id": 2869,
      "nome": "Ookami to Koushinryou II (Dublado)",
      "link": "https://animefire.plus/animes/ookami-to-koushinryou-ii-dublado-todos-os-episodios",
      "texto_original": "Ookami to Koushinryou II (Dublado)",
      "rating": 8.34,
      "classificacao_etaria": "A14",
      "imagem_original": "https://animefire.plus/img/animes/ookami-to-koushinryou-ii.webp",
      "imagem_pasta": "https://animefire.plus/img/animes/ookami-to-koushinryou-ii/",
      "secao": "dublados,legendados",
      "pagina": 13,
      "total_episodios": 12,
      "link_video": "https://animefire.plus/video/ookami-to-koushinryou-ii-dublado"
    },
    {
      "id": 2870,
      "nome": "Ookami to Koushinryou: Merchant Meets the Wise Wolf",
      "link": "https://animefire.plus/animes/ookami-to-koushinryou-merchant-meets-the-wise-wolf-todos-os-episodios",
      "texto_original": "Ookami to Koushinryou: Merchant Meets the Wise Wolf",
      "rating": 8.11,
      "classificacao_etaria": "A14",
      "imagem_original": "https://animefire.plus/img/animes/ookami-to-koushinryou-merchant-meets-the-wise-wolf.webp",
      "imagem_pasta": "https://animefire.plus/img/animes/ookami-to-koushinryou-merchant-meets-the-wise-wolf/",
      "secao": "legendados",
      "pagina": 15,
      "total_episodios": 13,
      "link_video": "https://animefire.plus/video/ookami-to-koushinryou-merchant-meets-the-wise-wolf"
    },
    {
      "id": 2871,
      "nome": "Ookami-san to Shichinin no Nakama-tachi",
      "link": "https://animefire.plus/animes/ookami-san-to-shichinin-no-nakama-tachi-todos-os-episodios",
      "texto_original": "Ookami-san to Shichinin no Nakama-tachi",
      "rating": 7.31,
      "classificacao_etaria": "A14",
      "imagem_original": "https://animefire.plus/img/animes/ookami-san-to-shichinin-no-nakama-tachi.webp",
      "imagem_pasta": "https://animefire.plus/img/animes/ookami-san-to-shichinin-no-nakama-tachi/",
      "secao": "legendados",
      "pagina": 149,
      "total_episodios": 0,
      "link_video": "https://animefire.plus/video/ookami-san-to-shichinin-no-nakama-tachi"
    },
    {
      "id": 2872,
      "nome": "Ookamikakushi",
      "link": "https://animefire.plus/animes/ookamikakushi-todos-os-episodios",
      "texto_original": "Ookamikakushi",
      "rating": 6.36,
      "classificacao_etaria": "A14",
      "imagem_original": "https://animefire.plus/img/animes/ookamikakushi.webp",
      "imagem_pasta": "https://animefire.plus/img/animes/ookamikakushi/",
      "secao": "legendados",
      "pagina": 57,
      "total_episodios": 12,
      "link_video": "https://animefire.plus/video/ookamikakushi"
    },
    {
      "id": 2873,
      "nome": "Ookiku Furikabutte",
      "link": "https://animefire.plus/animes/ookiku-furikabutte-todos-os-episodios",
      "texto_original": "Ookiku Furikabutte",
      "rating": 8.03,
      "classificacao_etaria": "A14",
      "imagem_original": "https://animefire.plus/img/animes/ookiku-furikabutte.webp",
      "imagem_pasta": "https://animefire.plus/img/animes/ookiku-furikabutte/",
      "secao": "legendados",
      "pagina": 117,
      "total_episodios": 25,
      "link_video": "https://animefire.plus/video/ookiku-furikabutte"
    },
    {
      "id": 2874,
      "nome": "Ookiku Furikabutte: Natsu no Taikai-hen",
      "link": "https://animefire.plus/animes/ookiku-furikabutte-natsu-no-taikai-hen-todos-os-episodios",
      "texto_original": "Ookiku Furikabutte: Natsu no Taikai-hen",
      "rating": 8.1,
      "classificacao_etaria": "A14",
      "imagem_original": "https://animefire.plus/img/animes/ookiku-furikabutte-natsu-no-taikai-hen.webp",
      "imagem_pasta": "https://animefire.plus/img/animes/ookiku-furikabutte-natsu-no-taikai-hen/",
      "secao": "legendados",
      "pagina": 157,
      "total_episodios": 13,
      "link_video": "https://animefire.plus/video/ookiku-furikabutte-natsu-no-taikai-hen"
    },
    {
      "id": 2875,
      "nome": "Ookiku Furikabutte: Natsu no Taikai-hen – Mokuhyou",
      "link": "https://animefire.plus/animes/ookiku-furikabutte-natsu-no-taikai-hen-mokuhyou-todos-os-episodios",
      "texto_original": "Ookiku Furikabutte: Natsu no Taikai-hen – Mokuhyou",
      "rating": 7.44,
      "classificacao_etaria": null,
      "imagem_original": "https://animefire.plus/img/animes/ookiku-furikabutte-natsu-no-taikai-hen-mokuhyou.webp",
      "imagem_pasta": "https://animefire.plus/img/animes/ookiku-furikabutte-natsu-no-taikai-hen-mokuhyou/",
      "secao": "legendados",
      "pagina": 89,
      "total_episodios": 1,
      "link_video": "https://animefire.plus/video/ookiku-furikabutte-natsu-no-taikai-hen-mokuhyou"
    },
    {
      "id": 2876,
      "nome": "Ooyukiumi no Kaina",
      "link": "https://animefire.plus/animes/ooyukiumi-no-kaina-todos-os-episodios",
      "texto_original": "Ooyukiumi no Kaina",
      "rating": 6.68,
      "classificacao_etaria": "A14",
      "imagem_original": "https://animefire.plus/img/animes/ooyukiumi-no-kaina.webp",
      "imagem_pasta": "https://animefire.plus/img/animes/ooyukiumi-no-kaina/",
      "secao": "legendados",
      "pagina": 27,
      "total_episodios": 11,
      "link_video": "https://animefire.plus/video/ooyukiumi-no-kaina"
    },
    {
      "id": 2877,
      "nome": "Opus.COLORs",
      "link": "https://animefire.plus/animes/opus-colors-todos-os-episodios",
      "texto_original": "Opus.COLORs",
      "rating": 5.75,
      "classificacao_etaria": "A14",
      "imagem_original": "https://animefire.plus/img/animes/opus-colors.jpg",
      "imagem_pasta": "https://animefire.plus/img/animes/opus-colors/",
      "secao": "legendados",
      "pagina": 24,
      "total_episodios": 12,
      "link_video": "https://animefire.plus/video/opus-colors"
    },
    {
      "id": 2878,
      "nome": "Orange (Dublado)",
      "link": "https://animefire.plus/animes/orange-dublado-todos-os-episodios",
      "texto_original": "Orange (Dublado)",
      "rating": 7.66,
      "classificacao_etaria": "A14",
      "imagem_original": "https://animefire.plus/img/animes/orange.webp",
      "imagem_pasta": "https://animefire.plus/img/animes/orange/",
      "secao": "dublados,legendados",
      "pagina": 25,
      "total_episodios": 13,
      "link_video": "https://animefire.plus/video/orange-dublado"
    },
    {
      "id": 2879,
      "nome": "Ore dake Haireru Kakushi Dungeon (Dublado)",
      "link": "https://animefire.plus/animes/ore-dake-haireru-kakushi-dungeon-dublado-todos-os-episodios",
      "texto_original": "Ore dake Haireru Kakushi Dungeon (Dublado)",
      "rating": 6.28,
      "classificacao_etaria": "A14",
      "imagem_original": "https://animefire.plus/img/animes/ore-dake-haireru-kakushi-dungeon.webp",
      "imagem_pasta": "https://animefire.plus/img/animes/ore-dake-haireru-kakushi-dungeon/",
      "secao": "dublados,legendados",
      "pagina": 18,
      "total_episodios": 12,
      "link_video": "https://animefire.plus/video/ore-dake-haireru-kakushi-dungeon-dublado"
    },
    {
      "id": 2880,
      "nome": "Ore dake Level Up na Ken (Dublado)",
      "link": "https://animefire.plus/animes/ore-dake-level-up-na-ken-dublado-todos-os-episodios",
      "texto_original": "Ore dake Level Up na Ken (Dublado)",
      "rating": 8.24,
      "classificacao_etaria": "A16",
      "imagem_original": "https://animefire.plus/img/animes/ore-dake-level-up-na-ken.webp",
      "imagem_pasta": "https://animefire.plus/img/animes/ore-dake-level-up-na-ken/",
      "secao": "dublados,legendados",
      "pagina": 4,
      "total_episodios": 12,
      "link_video": "https://animefire.plus/video/ore-dake-level-up-na-ken-dublado"
    }
  ],
  "pagination": {
    "current_page": 144,
    "per_page": 20,
    "total_items": 4368,
    "total_pages": 219,
    "has_next": true,
    "has_prev": true
  }
}
