{
  "message": "Lista de animes",
  "data": [
    {
      "id": 4121,
      "nome": "Watashi no Shiawase na Kekkon (Dublado)",
      "link": "https://animefire.plus/animes/watashi-no-shiawase-na-kekkon-dublado-todos-os-episodios",
      "texto_original": "Watashi no Shiawase na Kekkon (Dublado)",
      "rating": 7.71,
      "classificacao_etaria": "A14",
      "imagem_original": "https://animefire.plus/img/animes/watashi-no-shiawase-na-kekkon.webp",
      "imagem_pasta": "https://animefire.plus/img/animes/watashi-no-shiawase-na-kekkon/",
      "secao": "dublados,legendados,lancamentos",
      "pagina": 7,
      "total_episodios": 10,
      "link_video": "https://animefire.plus/video/watashi-no-shiawase-na-kekkon-dublado"
    },
    {
      "id": 4122,
      "nome": "Watashi no Shiawase na Kekkon 2nd Season (Dublado)",
      "link": "https://animefire.plus/animes/watashi-no-shiawase-na-kekkon-2nd-season-dublado-todos-os-episodios",
      "texto_original": "Watashi no Shiawase na Kekkon 2nd Season (Dublado)",
      "rating": 7.42,
      "classificacao_etaria": "A14",
      "imagem_original": "https://animefire.plus/img/animes/watashi-no-shiawase-na-kekkon-2nd-season.webp",
      "imagem_pasta": "https://animefire.plus/img/animes/watashi-no-shiawase-na-kekkon-2nd-season/",
      "secao": "dublados,legendados,lancamentos",
      "pagina": 2,
      "total_episodios": 13,
      "link_video": "https://animefire.plus/video/watashi-no-shiawase-na-kekkon-2nd-season-dublado"
    },
    {
      "id": 4123,
      "nome": "Watashi no Shiawase na Kekkon: Watashi no Shiawase na Katachi",
      "link": "https://animefire.plus/animes/watashi-no-shiawase-na-kekkon-watashi-no-shiawase-na-katachi-todos-os-episodios",
      "texto_original": "Watashi no Shiawase na Kekkon: Watashi no Shiawase na Katachi",
      "rating": 7.51,
      "classificacao_etaria": "A14",
      "imagem_original": "https://animefire.plus/img/animes/watashi-no-shiawase-na-kekkon-watashi-no-shiawase-na-katachi.webp",
      "imagem_pasta": "https://animefire.plus/img/animes/watashi-no-shiawase-na-kekkon-watashi-no-shiawase-na-katachi/",
      "secao": "legendados",
      "pagina": 14,
      "total_episodios": 1,
      "link_video": "https://animefire.plus/video/watashi-no-shiawase-na-kekkon-watashi-no-shiawase-na-katachi"
    },
    {
      "id": 4124,
      "nome": "Watashi no Yuri wa Oshigoto desu! (Dublado)",
      "link": "https://animefire.plus/animes/watashi-no-yuri-wa-oshigoto-desu-dublado-todos-os-episodios",
      "texto_original": "Watashi no Yuri wa Oshigoto desu! (Dublado)",
      "rating": 6.68,
      "classificacao_etaria": "A14",
      "imagem_original": "https://animefire.plus/img/animes/watashi-no-yuri-wa-oshigoto-desu.webp",
      "imagem_pasta": "https://animefire.plus/img/animes/watashi-no-yuri-wa-oshigoto-desu/",
      "secao": "dublados,legendados",
      "pagina": 7,
      "total_episodios": 12,
      "link_video": "https://animefire.plus/video/watashi-no-yuri-wa-oshigoto-desu-dublado"
    },
    {
      "id": 4125,
      "nome": "Watashi, Nouryoku wa Heikinchi de tte Itta yo ne!",
      "link": "https://animefire.plus/animes/watashi-nouryoku-wa-heikinchi-de-tte-itta-yo-ne-todos-os-episodios",
      "texto_original": "Watashi, Nouryoku wa Heikinchi de tte Itta yo ne!",
      "rating": 6.86,
      "classificacao_etaria": "A14",
      "imagem_original": "https://animefire.plus/img/animes/watashi-nouryoku-wa-heikinchi-de-tte-itta-yo-ne.webp",
      "imagem_pasta": "https://animefire.plus/img/animes/watashi-nouryoku-wa-heikinchi-de-tte-itta-yo-ne/",
      "secao": "legendados",
      "pagina": 110,
      "total_episodios": 12,
      "link_video": "https://animefire.plus/video/watashi-nouryoku-wa-heikinchi-de-tte-itta-yo-ne"
    },
    {
      "id": 4126,
      "nome": "Weiß Kreuz",
      "link": "https://animefire.plus/animes/weiss-kreuz-todos-os-episodios",
      "texto_original": "Weiß Kreuz",
      "rating": 6.79,
      "classificacao_etaria": "A14",
      "imagem_original": "https://animefire.plus/img/animes/weiss-kreuz.webp",
      "imagem_pasta": "https://animefire.plus/img/animes/weiss-kreuz/",
      "secao": "legendados",
      "pagina": 150,
      "total_episodios": 22,
      "link_video": "https://animefire.plus/video/weiss-kreuz"
    },
    {
      "id": 4127,
      "nome": "Whistle! (Dublado)",
      "link": "https://animefire.plus/animes/whistle-dublado-todos-os-episodios",
      "texto_original": "Whistle! (Dublado)",
      "rating": 7.42,
      "classificacao_etaria": null,
      "imagem_original": "https://animefire.plus/img/animes/whistle.webp",
      "imagem_pasta": "https://animefire.plus/img/animes/whistle/",
      "secao": "dublados",
      "pagina": 23,
      "total_episodios": 39,
      "link_video": "https://animefire.plus/video/whistle-dublado"
    },
    {
      "id": 4128,
      "nome": "White Album",
      "link": "https://animefire.plus/animes/white-album-todos-os-episodios",
      "texto_original": "White Album",
      "rating": 6.64,
      "classificacao_etaria": "A14",
      "imagem_original": "https://animefire.plus/img/animes/white-album.webp",
      "imagem_pasta": "https://animefire.plus/img/animes/white-album/",
      "secao": "legendados",
      "pagina": 138,
      "total_episodios": 13,
      "link_video": "https://animefire.plus/video/white-album"
    },
    {
      "id": 4129,
      "nome": "White Album 2",
      "link": "https://animefire.plus/animes/white-album-2-todos-os-episodios",
      "texto_original": "White Album 2",
      "rating": 7.83,
      "classificacao_etaria": "A14",
      "imagem_original": "https://animefire.plus/img/animes/white-album-2.webp",
      "imagem_pasta": "https://animefire.plus/img/animes/white-album-2/",
      "secao": "legendados",
      "pagina": 171,
      "total_episodios": 5,
      "link_video": "https://animefire.plus/video/white-album-2"
    },
    {
      "id": 4130,
      "nome": "White Album 2nd Season",
      "link": "https://animefire.plus/animes/white-album-2nd-season-todos-os-episodios",
      "texto_original": "White Album 2nd Season",
      "rating": 6.93,
      "classificacao_etaria": "A14",
      "imagem_original": "https://animefire.plus/img/animes/white-album-2nd-season.webp",
      "imagem_pasta": "https://animefire.plus/img/animes/white-album-2nd-season/",
      "secao": "legendados",
      "pagina": 98,
      "total_episodios": 13,
      "link_video": "https://animefire.plus/video/white-album-2nd-season"
    },
    {
      "id": 4131,
      "nome": "Wild Arms: Twilight Venom",
      "link": "https://animefire.plus/animes/wild-arms-twilight-venom-todos-os-episodios",
      "texto_original": "Wild Arms: Twilight Venom",
      "rating": 6.7,
      "classificacao_etaria": "A14",
      "imagem_original": "https://animefire.plus/img/animes/wild-arms-twilight-venom.webp",
      "imagem_pasta": "https://animefire.plus/img/animes/wild-arms-twilight-venom/",
      "secao": "legendados",
      "pagina": 126,
      "total_episodios": 22,
      "link_video": "https://animefire.plus/video/wild-arms-twilight-venom"
    },
    {
      "id": 4132,
      "nome": "Wind Breaker (Dublado)",
      "link": "https://animefire.plus/animes/wind-breaker-dublado-todos-os-episodios",
      "texto_original": "Wind Breaker (Dublado)",
      "rating": 7.73,
      "classificacao_etaria": "A14",
      "imagem_original": "https://animefire.plus/img/animes/wind-breaker.webp",
      "imagem_pasta": "https://animefire.plus/img/animes/wind-breaker/",
      "secao": "dublados,legendados,lancamentos",
      "pagina": 2,
      "total_episodios": 13,
      "link_video": "https://animefire.plus/video/wind-breaker-dublado"
    },
    {
      "id": 4133,
      "nome": "Wind Breaker Season 2 (Dublado)",
      "link": "https://animefire.plus/animes/wind-breaker-season-2-dublado-todos-os-episodios",
      "texto_original": "Wind Breaker Season 2 (Dublado)",
      "rating": 7.65,
      "classificacao_etaria": "A14",
      "imagem_original": "https://animefire.plus/img/animes/wind-breaker-season-2.webp",
      "imagem_pasta": "https://animefire.plus/img/animes/wind-breaker-season-2/",
      "secao": "dublados,legendados,lancamentos",
      "pagina": 1,
      "total_episodios": 12,
      "link_video": "https://animefire.plus/video/wind-breaker-season-2-dublado"
    },
    {
      "id": 4134,
      "nome": "Wind: A Breath of Heart (TV)",
      "link": "https://animefire.plus/animes/wind-a-breath-of-heart-tv-todos-os-episodios",
      "texto_original": "Wind: A Breath of Heart (TV)",
      "rating": 6.06,
      "classificacao_etaria": "A14",
      "imagem_original": "https://animefire.plus/img/animes/wind-a-breath-of-heart-tv.webp",
      "imagem_pasta": "https://animefire.plus/img/animes/wind-a-breath-of-heart-tv/",
      "secao": "legendados",
      "pagina": 155,
      "total_episodios": 13,
      "link_video": "https://animefire.plus/video/wind-a-breath-of-heart-tv"
    },
    {
      "id": 4135,
      "nome": "Witch Craft Works",
      "link": "https://animefire.plus/animes/witch-craft-works-todos-os-episodios",
      "texto_original": "Witch Craft Works",
      "rating": 7.18,
      "classificacao_etaria": "A14",
      "imagem_original": "https://animefire.plus/img/animes/witch-craft-works.webp",
      "imagem_pasta": "https://animefire.plus/img/animes/witch-craft-works/",
      "secao": "legendados",
      "pagina": 107,
      "total_episodios": 12,
      "link_video": "https://animefire.plus/video/witch-craft-works"
    },
    {
      "id": 4136,
      "nome": "Witch Hunter Robin",
      "link": "https://animefire.plus/animes/witch-hunter-robin-todos-os-episodios",
      "texto_original": "Witch Hunter Robin",
      "rating": 7.32,
      "classificacao_etaria": "A14",
      "imagem_original": "https://animefire.plus/img/animes/witch-hunter-robin.webp",
      "imagem_pasta": "https://animefire.plus/img/animes/witch-hunter-robin/",
      "secao": "legendados",
      "pagina": 156,
      "total_episodios": 26,
      "link_video": "https://animefire.plus/video/witch-hunter-robin"
    },
    {
      "id": 4137,
      "nome": "Witch Watch (Dublado)",
      "link": "https://animefire.plus/animes/witch-watch-dublado-todos-os-episodios",
      "texto_original": "Witch Watch (Dublado)",
      "rating": 7.4,
      "classificacao_etaria": "A14",
      "imagem_original": "https://animefire.plus/img/animes/witch-watch.webp",
      "imagem_pasta": "https://animefire.plus/img/animes/witch-watch/",
      "secao": "dublados,legendados,lancamentos",
      "pagina": 1,
      "total_episodios": 18,
      "link_video": "https://animefire.plus/video/witch-watch-dublado"
    },
    {
      "id": 4138,
      "nome": "Witchblade",
      "link": "https://animefire.plus/animes/witchblade-todos-os-episodios",
      "texto_original": "Witchblade",
      "rating": 7.34,
      "classificacao_etaria": "A16",
      "imagem_original": "https://animefire.plus/img/animes/witchblade.webp",
      "imagem_pasta": "https://animefire.plus/img/animes/witchblade/",
      "secao": "legendados",
      "pagina": 134,
      "total_episodios": 2,
      "link_video": "https://animefire.plus/video/witchblade"
    },
    {
      "id": 4139,
      "nome": "WIXOSS Diva(A)Live",
      "link": "https://animefire.plus/animes/wixoss-diva-a-live-todos-os-episodios",
      "texto_original": "WIXOSS Diva(A)Live",
      "rating": 5.6,
      "classificacao_etaria": "A14",
      "imagem_original": "https://animefire.plus/img/animes/wixoss-diva-a-live.webp",
      "imagem_pasta": "https://animefire.plus/img/animes/wixoss-diva-a-live/",
      "secao": "legendados",
      "pagina": 48,
      "total_episodios": 12,
      "link_video": "https://animefire.plus/video/wixoss-diva-a-live"
    },
    {
      "id": 4140,
      "nome": "Wizard Barristers: Benmashi Cecil",
      "link": "https://animefire.plus/animes/wizard-barristers-benmashi-cecil-todos-os-episodios",
      "texto_original": "Wizard Barristers: Benmashi Cecil",
      "rating": 6.22,
      "classificacao_etaria": "A14",
      "imagem_original": "https://animefire.plus/img/animes/wizard-barristers-benmashi-cecil.webp",
      "imagem_pasta": "https://animefire.plus/img/animes/wizard-barristers-benmashi-cecil/",
      "secao": "legendados",
      "pagina": 164,
      "total_episodios": 12,
      "link_video": "https://animefire.plus/video/wizard-barristers-benmashi-cecil"
    }
  ],
  "pagination": {
    "current_page": 207,
    "per_page": 20,
    "total_items": 4368,
    "total_pages": 219,
    "has_next": true,
    "has_prev": true
  }
}
