{
  "message": "Lista de animes",
  "data": [
    {
      "id": 701,
      "nome": "Cross Ange: Tenshi to Ryuu no Rondo",
      "link": "https://animefire.plus/animes/cross-ange-tenshi-to-ryuu-no-rondo-todos-os-episodios",
      "texto_original": "Cross Ange: Tenshi to Ryuu no Rondo",
      "rating": 7.44,
      "classificacao_etaria": "A16",
      "imagem_original": "https://animefire.plus/img/animes/cross-ange-tenshi-to-ryuu-no-rondo.webp",
      "imagem_pasta": "https://animefire.plus/img/animes/cross-ange-tenshi-to-ryuu-no-rondo/",
      "secao": "legendados",
      "pagina": 76,
      "total_episodios": 25,
      "link_video": "https://animefire.plus/video/cross-ange-tenshi-to-ryuu-no-rondo"
    },
    {
      "id": 702,
      "nome": "Cross Fight B-Daman (Dublado)",
      "link": "https://animefire.plus/animes/cross-fight-b-daman-dublado-todos-os-episodios",
      "texto_original": "Cross Fight B-Daman (Dublado)",
      "rating": 6.52,
      "classificacao_etaria": null,
      "imagem_original": "https://animefire.plus/img/animes/cross-fight-b-daman.webp",
      "imagem_pasta": "https://animefire.plus/img/animes/cross-fight-b-daman/",
      "secao": "dublados,legendados",
      "pagina": 25,
      "total_episodios": 10,
      "link_video": "https://animefire.plus/video/cross-fight-b-daman-dublado"
    },
    {
      "id": 703,
      "nome": "Cross Game",
      "link": "https://animefire.plus/animes/cross-game-todos-os-episodios",
      "texto_original": "Cross Game",
      "rating": 8.46,
      "classificacao_etaria": "A14",
      "imagem_original": "https://animefire.plus/img/animes/cross-game.webp",
      "imagem_pasta": "https://animefire.plus/img/animes/cross-game/",
      "secao": "legendados",
      "pagina": 178,
      "total_episodios": 50,
      "link_video": "https://animefire.plus/video/cross-game"
    },
    {
      "id": 704,
      "nome": "Cross Road",
      "link": "https://animefire.plus/animes/cross-road-todos-os-episodios",
      "texto_original": "Cross Road",
      "rating": 7.46,
      "classificacao_etaria": null,
      "imagem_original": "https://animefire.plus/img/animes/cross-road.webp",
      "imagem_pasta": "https://animefire.plus/img/animes/cross-road/",
      "secao": "legendados",
      "pagina": 87,
      "total_episodios": 1,
      "link_video": "https://animefire.plus/video/cross-road"
    },
    {
      "id": 705,
      "nome": "Crystal Blaze",
      "link": "https://animefire.plus/animes/crystal-blaze-todos-os-episodios",
      "texto_original": "Crystal Blaze",
      "rating": 6.19,
      "classificacao_etaria": "A16",
      "imagem_original": "https://animefire.plus/img/animes/crystal-blaze.webp",
      "imagem_pasta": "https://animefire.plus/img/animes/crystal-blaze/",
      "secao": "legendados",
      "pagina": 123,
      "total_episodios": 12,
      "link_video": "https://animefire.plus/video/crystal-blaze"
    },
    {
      "id": 706,
      "nome": "Cue!",
      "link": "https://animefire.plus/animes/cue-todos-os-episodios",
      "texto_original": "Cue!",
      "rating": 6.79,
      "classificacao_etaria": "A14",
      "imagem_original": "https://animefire.plus/img/animes/cue.webp",
      "imagem_pasta": "https://animefire.plus/img/animes/cue/",
      "secao": "legendados",
      "pagina": 35,
      "total_episodios": 24,
      "link_video": "https://animefire.plus/video/cue"
    },
    {
      "id": 707,
      "nome": "Cuticle Tantei Inaba",
      "link": "https://animefire.plus/animes/cuticle-tantei-inaba-todos-os-episodios",
      "texto_original": "Cuticle Tantei Inaba",
      "rating": 7.38,
      "classificacao_etaria": "A14",
      "imagem_original": "https://animefire.plus/img/animes/cuticle-tantei-inaba.webp",
      "imagem_pasta": "https://animefire.plus/img/animes/cuticle-tantei-inaba/",
      "secao": "legendados",
      "pagina": 112,
      "total_episodios": 0,
      "link_video": "https://animefire.plus/video/cuticle-tantei-inaba"
    },
    {
      "id": 708,
      "nome": "Cutie Honey Universe",
      "link": "https://animefire.plus/animes/cutie-honey-universe-todos-os-episodios",
      "texto_original": "Cutie Honey Universe",
      "rating": 5.5,
      "classificacao_etaria": "A16",
      "imagem_original": "https://animefire.plus/img/animes/cutie-honey-universe.webp",
      "imagem_pasta": "https://animefire.plus/img/animes/cutie-honey-universe/",
      "secao": "legendados",
      "pagina": 155,
      "total_episodios": 12,
      "link_video": "https://animefire.plus/video/cutie-honey-universe"
    },
    {
      "id": 709,
      "nome": "Cyberpunk: Edgerunners (Dublado)",
      "link": "https://animefire.plus/animes/cyberpunk-edgerunners-dublado-todos-os-episodios",
      "texto_original": "Cyberpunk: Edgerunners (Dublado)",
      "rating": 8.6,
      "classificacao_etaria": "A18",
      "imagem_original": "https://animefire.plus/img/animes/cyberpunk-edgerunners.webp",
      "imagem_pasta": "https://animefire.plus/img/animes/cyberpunk-edgerunners/",
      "secao": "dublados,legendados",
      "pagina": 9,
      "total_episodios": 10,
      "link_video": "https://animefire.plus/video/cyberpunk-edgerunners-dublado"
    },
    {
      "id": 710,
      "nome": "Cyclops Shoujo Saipuu",
      "link": "https://animefire.plus/animes/cyclops-shoujo-saipuu-todos-os-episodios",
      "texto_original": "Cyclops Shoujo Saipuu",
      "rating": 5.8,
      "classificacao_etaria": "A14",
      "imagem_original": "https://animefire.plus/img/animes/cyclops-shoujo-saipuu.webp",
      "imagem_pasta": "https://animefire.plus/img/animes/cyclops-shoujo-saipuu/",
      "secao": "legendados",
      "pagina": 43,
      "total_episodios": 12,
      "link_video": "https://animefire.plus/video/cyclops-shoujo-saipuu"
    },
    {
      "id": 711,
      "nome": "D_Cide Traumerei the Animation",
      "link": "https://animefire.plus/animes/d-cide-traumerei-the-animation-todos-os-episodios",
      "texto_original": "D_Cide Traumerei the Animation",
      "rating": 5.8,
      "classificacao_etaria": "A14",
      "imagem_original": "https://animefire.plus/img/animes/d-cide-traumerei-the-animation.webp",
      "imagem_pasta": "https://animefire.plus/img/animes/d-cide-traumerei-the-animation/",
      "secao": "legendados",
      "pagina": 40,
      "total_episodios": 13,
      "link_video": "https://animefire.plus/video/d-cide-traumerei-the-animation"
    },
    {
      "id": 712,
      "nome": "D-Frag!",
      "link": "https://animefire.plus/animes/d-frag-todos-os-episodios",
      "texto_original": "D-Frag!",
      "rating": 7.67,
      "classificacao_etaria": "A14",
      "imagem_original": "https://animefire.plus/img/animes/d-frag.webp",
      "imagem_pasta": "https://animefire.plus/img/animes/d-frag/",
      "secao": "legendados",
      "pagina": 107,
      "total_episodios": 12,
      "link_video": "https://animefire.plus/video/d-frag"
    },
    {
      "id": 713,
      "nome": "D.C.: Da Capo",
      "link": "https://animefire.plus/animes/d-c-da-capo-todos-os-episodios",
      "texto_original": "D.C.: Da Capo",
      "rating": 6.84,
      "classificacao_etaria": "A14",
      "imagem_original": "https://animefire.plus/img/animes/d-c-da-capo.webp",
      "imagem_pasta": "https://animefire.plus/img/animes/d-c-da-capo/",
      "secao": "legendados",
      "pagina": 127,
      "total_episodios": 26,
      "link_video": "https://animefire.plus/video/d-c-da-capo"
    },
    {
      "id": 714,
      "nome": "D.C.II S.S.: Da Capo II Second Season",
      "link": "https://animefire.plus/animes/d-c-ii-s-s-da-capo-ii-second-season-todos-os-episodios",
      "texto_original": "D.C.II S.S.: Da Capo II Second Season",
      "rating": 7.3,
      "classificacao_etaria": "A14",
      "imagem_original": "https://animefire.plus/img/animes/d-c-ii-s-s-da-capo-ii-second-season.webp",
      "imagem_pasta": "https://animefire.plus/img/animes/d-c-ii-s-s-da-capo-ii-second-season/",
      "secao": "legendados",
      "pagina": 125,
      "total_episodios": 13,
      "link_video": "https://animefire.plus/video/d-c-ii-s-s-da-capo-ii-second-season"
    },
    {
      "id": 715,
      "nome": "D.C.II: Da Capo II",
      "link": "https://animefire.plus/animes/d-c-ii-da-capo-ii-todos-os-episodios",
      "texto_original": "D.C.II: Da Capo II",
      "rating": 6.99,
      "classificacao_etaria": "A14",
      "imagem_original": "https://animefire.plus/img/animes/d-c-ii-da-capo-ii.webp",
      "imagem_pasta": "https://animefire.plus/img/animes/d-c-ii-da-capo-ii/",
      "secao": "legendados",
      "pagina": 124,
      "total_episodios": 13,
      "link_video": "https://animefire.plus/video/d-c-ii-da-capo-ii"
    },
    {
      "id": 716,
      "nome": "D.C.III: Da Capo III",
      "link": "https://animefire.plus/animes/d-c-iii-da-capo-iii-todos-os-episodios",
      "texto_original": "D.C.III: Da Capo III",
      "rating": 6.67,
      "classificacao_etaria": "A14",
      "imagem_original": "https://animefire.plus/img/animes/d-c-iii-da-capo-iii.webp",
      "imagem_pasta": "https://animefire.plus/img/animes/d-c-iii-da-capo-iii/",
      "secao": "legendados",
      "pagina": 140,
      "total_episodios": 1,
      "link_video": "https://animefire.plus/video/d-c-iii-da-capo-iii"
    },
    {
      "id": 717,
      "nome": "D.Gray-Man",
      "link": "https://animefire.plus/animes/d-gray-man-todos-os-episodios",
      "texto_original": "D.Gray-Man",
      "rating": 8.08,
      "classificacao_etaria": "A14",
      "imagem_original": "https://animefire.plus/img/animes/d-gray-man.webp",
      "imagem_pasta": "https://animefire.plus/img/animes/d-gray-man/",
      "secao": "legendados",
      "pagina": 60,
      "total_episodios": 100,
      "link_video": "https://animefire.plus/video/d-gray-man"
    },
    {
      "id": 718,
      "nome": "D.Gray-man Hallow",
      "link": "https://animefire.plus/animes/d-gray-man-hallow-todos-os-episodios",
      "texto_original": "D.Gray-man Hallow",
      "rating": 7.82,
      "classificacao_etaria": "A16",
      "imagem_original": "https://animefire.plus/img/animes/d-gray-man-hallow.webp",
      "imagem_pasta": "https://animefire.plus/img/animes/d-gray-man-hallow/",
      "secao": "legendados",
      "pagina": 90,
      "total_episodios": 13,
      "link_video": "https://animefire.plus/video/d-gray-man-hallow"
    },
    {
      "id": 719,
      "nome": "D.N.Angel",
      "link": "https://animefire.plus/animes/d-n-angel-todos-os-episodios",
      "texto_original": "D.N.Angel",
      "rating": 7.29,
      "classificacao_etaria": "A14",
      "imagem_original": "https://animefire.plus/img/animes/d-n-angel.webp",
      "imagem_pasta": "https://animefire.plus/img/animes/d-n-angel/",
      "secao": "legendados",
      "pagina": 153,
      "total_episodios": 26,
      "link_video": "https://animefire.plus/video/d-n-angel"
    },
    {
      "id": 720,
      "nome": "D4 Princess",
      "link": "https://animefire.plus/animes/d4-princess-todos-os-episodios",
      "texto_original": "D4 Princess",
      "rating": 6.13,
      "classificacao_etaria": "A14",
      "imagem_original": "https://animefire.plus/img/animes/d4-princess.webp",
      "imagem_pasta": "https://animefire.plus/img/animes/d4-princess/",
      "secao": "legendados",
      "pagina": 72,
      "total_episodios": 24,
      "link_video": "https://animefire.plus/video/d4-princess"
    }
  ],
  "pagination": {
    "current_page": 36,
    "per_page": 20,
    "total_items": 4368,
    "total_pages": 219,
    "has_next": true,
    "has_prev": true
  }
}
