{
  "message": "Lista de animes",
  "data": [
    {
      "id": 2901,
      "nome": "Osake wa Fuufu ni Natte kara",
      "link": "https://animefire.plus/animes/osake-wa-fuufu-ni-natte-kara-todos-os-episodios",
      "texto_original": "Osake wa Fuufu ni Natte kara",
      "rating": 6.98,
      "classificacao_etaria": "A14",
      "imagem_original": "https://animefire.plus/img/animes/osake-wa-fuufu-ni-natte-kara.webp",
      "imagem_pasta": "https://animefire.plus/img/animes/osake-wa-fuufu-ni-natte-kara/",
      "secao": "legendados",
      "pagina": 165,
      "total_episodios": 13,
      "link_video": "https://animefire.plus/video/osake-wa-fuufu-ni-natte-kara"
    },
    {
      "id": 2902,
      "nome": "Osake wa Fuufu ni Natte kara: Yuzu Atsukan",
      "link": "https://animefire.plus/animes/osake-wa-fuufu-ni-natte-kara-yuzu-atsukan-todos-os-episodios",
      "texto_original": "Osake wa Fuufu ni Natte kara: Yuzu Atsukan",
      "rating": 7.03,
      "classificacao_etaria": "A14",
      "imagem_original": "https://animefire.plus/img/animes/osake-wa-fuufu-ni-natte-kara-yuzu-atsukan.webp",
      "imagem_pasta": "https://animefire.plus/img/animes/osake-wa-fuufu-ni-natte-kara-yuzu-atsukan/",
      "secao": "legendados",
      "pagina": 89,
      "total_episodios": 1,
      "link_video": "https://animefire.plus/video/osake-wa-fuufu-ni-natte-kara-yuzu-atsukan"
    },
    {
      "id": 2903,
      "nome": "Osananajimi ga Zettai ni Makenai Love Comedy",
      "link": "https://animefire.plus/animes/osananajimi-ga-zettai-ni-makenai-love-comedy-todos-os-episodios",
      "texto_original": "Osananajimi ga Zettai ni Makenai Love Comedy",
      "rating": 6.07,
      "classificacao_etaria": "A14",
      "imagem_original": "https://animefire.plus/img/animes/osananajimi-ga-zettai-ni-makenai-love-comedy.webp",
      "imagem_pasta": "https://animefire.plus/img/animes/osananajimi-ga-zettai-ni-makenai-love-comedy/",
      "secao": "legendados",
      "pagina": 47,
      "total_episodios": 12,
      "link_video": "https://animefire.plus/video/osananajimi-ga-zettai-ni-makenai-love-comedy"
    },
    {
      "id": 2904,
      "nome": "Oshi ga Budoukan Ittekuretara Shinu",
      "link": "https://animefire.plus/animes/oshi-ga-budoukan-ittekuretara-shinu-todos-os-episodios",
      "texto_original": "Oshi ga Budoukan Ittekuretara Shinu",
      "rating": 7.45,
      "classificacao_etaria": "A14",
      "imagem_original": "https://animefire.plus/img/animes/oshi-ga-budoukan-ittekuretara-shinu.webp",
      "imagem_pasta": "https://animefire.plus/img/animes/oshi-ga-budoukan-ittekuretara-shinu/",
      "secao": "legendados",
      "pagina": 92,
      "total_episodios": 0,
      "link_video": "https://animefire.plus/video/oshi-ga-budoukan-ittekuretara-shinu"
    },
    {
      "id": 2905,
      "nome": "Oshi no Ko",
      "link": "https://animefire.plus/animes/oshi-no-ko-todos-os-episodios",
      "texto_original": "Oshi no Ko",
      "rating": 8.57,
      "classificacao_etaria": "A14",
      "imagem_original": "https://animefire.plus/img/animes/oshi-no-ko.jpg",
      "imagem_pasta": "https://animefire.plus/img/animes/oshi-no-ko/",
      "secao": "legendados",
      "pagina": 23,
      "total_episodios": 11,
      "link_video": "https://animefire.plus/video/oshi-no-ko"
    },
    {
      "id": 2906,
      "nome": "Oshiete! Galko-chan",
      "link": "https://animefire.plus/animes/oshiete-galko-chan-todos-os-episodios",
      "texto_original": "Oshiete! Galko-chan",
      "rating": 7.18,
      "classificacao_etaria": "A14",
      "imagem_original": "https://animefire.plus/img/animes/oshiete-galko-chan.webp",
      "imagem_pasta": "https://animefire.plus/img/animes/oshiete-galko-chan/",
      "secao": "legendados",
      "pagina": 152,
      "total_episodios": 5,
      "link_video": "https://animefire.plus/video/oshiete-galko-chan"
    },
    {
      "id": 2907,
      "nome": "Osomatsu-san",
      "link": "https://animefire.plus/animes/osomatsu-san-todos-os-episodios",
      "texto_original": "Osomatsu-san",
      "rating": 8.06,
      "classificacao_etaria": "A16",
      "imagem_original": "https://animefire.plus/img/animes/osomatsu-san.webp",
      "imagem_pasta": "https://animefire.plus/img/animes/osomatsu-san/",
      "secao": "legendados",
      "pagina": 75,
      "total_episodios": 26,
      "link_video": "https://animefire.plus/video/osomatsu-san"
    },
    {
      "id": 2908,
      "nome": "Osomatsu-san 2nd Season",
      "link": "https://animefire.plus/animes/osomatsu-san-2nd-season-todos-os-episodios",
      "texto_original": "Osomatsu-san 2nd Season",
      "rating": 7.61,
      "classificacao_etaria": "A16",
      "imagem_original": "https://animefire.plus/img/animes/osomatsu-san-2nd-season.webp",
      "imagem_pasta": "https://animefire.plus/img/animes/osomatsu-san-2nd-season/",
      "secao": "legendados",
      "pagina": 51,
      "total_episodios": 25,
      "link_video": "https://animefire.plus/video/osomatsu-san-2nd-season"
    },
    {
      "id": 2909,
      "nome": "Osomatsu-san 3rd Season",
      "link": "https://animefire.plus/animes/osomatsu-san-3rd-season-todos-os-episodios",
      "texto_original": "Osomatsu-san 3rd Season",
      "rating": null,
      "classificacao_etaria": "A16",
      "imagem_original": "https://animefire.plus/img/animes/osomatsu-san-3rd-season.webp",
      "imagem_pasta": "https://animefire.plus/img/animes/osomatsu-san-3rd-season/",
      "secao": "legendados",
      "pagina": 51,
      "total_episodios": 25,
      "link_video": "https://animefire.plus/video/osomatsu-san-3rd-season"
    },
    {
      "id": 2910,
      "nome": "Osomatsu-san 4th Season",
      "link": "https://animefire.plus/animes/osomatsu-san-4th-season-todos-os-episodios",
      "texto_original": "Osomatsu-san 4th Season",
      "rating": 6.67,
      "classificacao_etaria": "A16",
      "imagem_original": "https://animefire.plus/img/animes/osomatsu-san-4th-season.webp",
      "imagem_pasta": "https://animefire.plus/img/animes/osomatsu-san-4th-season/",
      "secao": "legendados,lancamentos",
      "pagina": 1,
      "total_episodios": 4,
      "link_video": "https://animefire.plus/video/osomatsu-san-4th-season"
    },
    {
      "id": 2911,
      "nome": "Osomatsu-san: Ouma de Kobanashi",
      "link": "https://animefire.plus/animes/osomatsu-san-ouma-de-kobanashi-todos-os-episodios",
      "texto_original": "Osomatsu-san: Ouma de Kobanashi",
      "rating": 7.31,
      "classificacao_etaria": "A16",
      "imagem_original": "https://animefire.plus/img/animes/osomatsu-san-ouma-de-kobanashi.webp",
      "imagem_pasta": "https://animefire.plus/img/animes/osomatsu-san-ouma-de-kobanashi/",
      "secao": "legendados",
      "pagina": 89,
      "total_episodios": 1,
      "link_video": "https://animefire.plus/video/osomatsu-san-ouma-de-kobanashi"
    },
    {
      "id": 2912,
      "nome": "Otaku no Video",
      "link": "https://animefire.plus/animes/otaku-no-video-todos-os-episodios",
      "texto_original": "Otaku no Video",
      "rating": 7.16,
      "classificacao_etaria": "A18",
      "imagem_original": "https://animefire.plus/img/animes/otaku-no-video.webp",
      "imagem_pasta": "https://animefire.plus/img/animes/otaku-no-video/",
      "secao": "legendados",
      "pagina": 66,
      "total_episodios": 2,
      "link_video": "https://animefire.plus/video/otaku-no-video"
    },
    {
      "id": 2913,
      "nome": "Otogizoushi",
      "link": "https://animefire.plus/animes/otogizoushi-todos-os-episodios",
      "texto_original": "Otogizoushi",
      "rating": 7.03,
      "classificacao_etaria": "A14",
      "imagem_original": "https://animefire.plus/img/animes/otogizoushi.webp",
      "imagem_pasta": "https://animefire.plus/img/animes/otogizoushi/",
      "secao": "legendados",
      "pagina": 122,
      "total_episodios": 0,
      "link_video": "https://animefire.plus/video/otogizoushi"
    },
    {
      "id": 2914,
      "nome": "Otome Game no Hametsu Flag shika Nai Akuyaku Reijou ni Tensei shiteshimatta...",
      "link": "https://animefire.plus/animes/otome-game-no-hametsu-flag-shika-nai-akuyaku-reijou-ni-tensei-shiteshimatta-todos-os-episodios",
      "texto_original": "Otome Game no Hametsu Flag shika Nai Akuyaku Reijou ni Tensei shiteshimatta...",
      "rating": 7.49,
      "classificacao_etaria": "A14",
      "imagem_original": "https://animefire.plus/img/animes/otome-game-no-hametsu-flag-shika-nai-akuyaku-reijou-ni-tensei-shiteshimatta.webp",
      "imagem_pasta": "https://animefire.plus/img/animes/otome-game-no-hametsu-flag-shika-nai-akuyaku-reijou-ni-tensei-shiteshimatta/",
      "secao": "legendados",
      "pagina": 81,
      "total_episodios": 12,
      "link_video": "https://animefire.plus/video/otome-game-no-hametsu-flag-shika-nai-akuyaku-reijou-ni-tensei-shiteshimatta"
    },
    {
      "id": 2915,
      "nome": "Otome Game no Hametsu Flag shika Nai Akuyaku Reijou ni Tensei shiteshimatta... OVA",
      "link": "https://animefire.plus/animes/otome-game-no-hametsu-flag-shika-nai-akuyaku-reijou-ni-tensei-shiteshimatta-ova-todos-os-episodios",
      "texto_original": "Otome Game no Hametsu Flag shika Nai Akuyaku Reijou ni Tensei shiteshimatta... OVA",
      "rating": 6.87,
      "classificacao_etaria": "A14",
      "imagem_original": "https://animefire.plus/img/animes/otome-game-no-hametsu-flag-shika-nai-akuyaku-reijou-ni-tensei-shiteshimatta-ova.webp",
      "imagem_pasta": "https://animefire.plus/img/animes/otome-game-no-hametsu-flag-shika-nai-akuyaku-reijou-ni-tensei-shiteshimatta-ova/",
      "secao": "legendados",
      "pagina": 36,
      "total_episodios": 1,
      "link_video": "https://animefire.plus/video/otome-game-no-hametsu-flag-shika-nai-akuyaku-reijou-ni-tensei-shiteshimatta-ova"
    },
    {
      "id": 2916,
      "nome": "Otome Game no Hametsu Flag shika Nai Akuyaku Reijou ni Tensei shiteshimatta... X",
      "link": "https://animefire.plus/animes/otome-game-no-hametsu-flag-shika-nai-akuyaku-reijou-ni-tensei-shiteshimatta-x-todos-os-episodios",
      "texto_original": "Otome Game no Hametsu Flag shika Nai Akuyaku Reijou ni Tensei shiteshimatta... X",
      "rating": 7.25,
      "classificacao_etaria": "A14",
      "imagem_original": "https://animefire.plus/img/animes/otome-game-no-hametsu-flag-shika-nai-akuyaku-reijou-ni-tensei-shiteshimatta-x.webp",
      "imagem_pasta": "https://animefire.plus/img/animes/otome-game-no-hametsu-flag-shika-nai-akuyaku-reijou-ni-tensei-shiteshimatta-x/",
      "secao": "legendados",
      "pagina": 45,
      "total_episodios": 12,
      "link_video": "https://animefire.plus/video/otome-game-no-hametsu-flag-shika-nai-akuyaku-reijou-ni-tensei-shiteshimatta-x"
    },
    {
      "id": 2917,
      "nome": "Otome Game Sekai wa Mob ni Kibishii Sekai desu",
      "link": "https://animefire.plus/animes/otome-game-sekai-wa-mob-ni-kibishii-sekai-desu-todos-os-episodios",
      "texto_original": "Otome Game Sekai wa Mob ni Kibishii Sekai desu",
      "rating": 7.32,
      "classificacao_etaria": "A14",
      "imagem_original": "https://animefire.plus/img/animes/otome-game-sekai-wa-mob-ni-kibishii-sekai-desu.webp",
      "imagem_pasta": "https://animefire.plus/img/animes/otome-game-sekai-wa-mob-ni-kibishii-sekai-desu/",
      "secao": "legendados",
      "pagina": 34,
      "total_episodios": 12,
      "link_video": "https://animefire.plus/video/otome-game-sekai-wa-mob-ni-kibishii-sekai-desu"
    },
    {
      "id": 2918,
      "nome": "Otome wa Boku ni Koishiteru",
      "link": "https://animefire.plus/animes/otome-wa-boku-ni-koishiteru-todos-os-episodios",
      "texto_original": "Otome wa Boku ni Koishiteru",
      "rating": 7.12,
      "classificacao_etaria": "A14",
      "imagem_original": "https://animefire.plus/img/animes/otome-wa-boku-ni-koishiteru.webp",
      "imagem_pasta": "https://animefire.plus/img/animes/otome-wa-boku-ni-koishiteru/",
      "secao": "legendados",
      "pagina": 134,
      "total_episodios": 12,
      "link_video": "https://animefire.plus/video/otome-wa-boku-ni-koishiteru"
    },
    {
      "id": 2919,
      "nome": "Otome wa Boku ni Koishiteru: Trinkle Stars The Animation",
      "link": "https://animefire.plus/animes/otome-wa-boku-ni-koishiteru-trinkle-stars-the-animation-todos-os-episodios",
      "texto_original": "Otome wa Boku ni Koishiteru: Trinkle Stars The Animation",
      "rating": 5.58,
      "classificacao_etaria": "A14",
      "imagem_original": "https://animefire.plus/img/animes/otome-wa-boku-ni-koishiteru-trinkle-stars-the-animation.webp",
      "imagem_pasta": "https://animefire.plus/img/animes/otome-wa-boku-ni-koishiteru-trinkle-stars-the-animation/",
      "secao": "legendados,lancamentos",
      "pagina": 38,
      "total_episodios": 0,
      "link_video": "https://animefire.plus/video/otome-wa-boku-ni-koishiteru-trinkle-stars-the-animation"
    },
    {
      "id": 2920,
      "nome": "Otome Youkai Zakuro",
      "link": "https://animefire.plus/animes/otome-youkai-zakuro-todos-os-episodios",
      "texto_original": "Otome Youkai Zakuro",
      "rating": 7.54,
      "classificacao_etaria": "A14",
      "imagem_original": "https://animefire.plus/img/animes/otome-youkai-zakuro.webp",
      "imagem_pasta": "https://animefire.plus/img/animes/otome-youkai-zakuro/",
      "secao": "legendados",
      "pagina": 150,
      "total_episodios": 13,
      "link_video": "https://animefire.plus/video/otome-youkai-zakuro"
    }
  ],
  "pagination": {
    "current_page": 146,
    "per_page": 20,
    "total_items": 4368,
    "total_pages": 219,
    "has_next": true,
    "has_prev": true
  }
}
