{
  "message": "Lista de animes",
  "data": [
    {
      "id": 2601,
      "nome": "Mousou Kagaku Series: Wandaba Style",
      "link": "https://animefire.plus/animes/mousou-kagaku-series-wandaba-style-todos-os-episodios",
      "texto_original": "Mousou Kagaku Series: Wandaba Style",
      "rating": 6.09,
      "classificacao_etaria": "A14",
      "imagem_original": "https://animefire.plus/img/animes/mousou-kagaku-series-wandaba-style.webp",
      "imagem_pasta": "https://animefire.plus/img/animes/mousou-kagaku-series-wandaba-style/",
      "secao": "legendados",
      "pagina": 128,
      "total_episodios": 12,
      "link_video": "https://animefire.plus/video/mousou-kagaku-series-wandaba-style"
    },
    {
      "id": 2602,
      "nome": "Muchuu sa, Kimi ni.",
      "link": "https://animefire.plus/animes/muchuu-sa-kimi-ni-todos-os-episodios",
      "texto_original": "Muchuu sa, Kimi ni.",
      "rating": null,
      "classificacao_etaria": null,
      "imagem_original": "https://animefire.plus/img/animes/muchuu-sa-kimi-ni.webp",
      "imagem_pasta": "https://animefire.plus/img/animes/muchuu-sa-kimi-ni/",
      "secao": "legendados,lancamentos",
      "pagina": 1,
      "total_episodios": 0,
      "link_video": "https://animefire.plus/video/muchuu-sa-kimi-ni"
    },
    {
      "id": 2603,
      "nome": "Mugen no Juunin: Immortal",
      "link": "https://animefire.plus/animes/mugen-no-juunin-immortal-todos-os-episodios",
      "texto_original": "Mugen no Juunin: Immortal",
      "rating": 7.36,
      "classificacao_etaria": "A16",
      "imagem_original": "https://animefire.plus/img/animes/mugen-no-juunin-immortal.webp",
      "imagem_pasta": "https://animefire.plus/img/animes/mugen-no-juunin-immortal/",
      "secao": "legendados",
      "pagina": 110,
      "total_episodios": 1,
      "link_video": "https://animefire.plus/video/mugen-no-juunin-immortal"
    },
    {
      "id": 2604,
      "nome": "Mugen No Ryvius",
      "link": "https://animefire.plus/animes/mugen-no-ryvius-todos-os-episodios",
      "texto_original": "Mugen No Ryvius",
      "rating": 7.53,
      "classificacao_etaria": "A14",
      "imagem_original": "https://animefire.plus/img/animes/mugen-no-ryvius.webp",
      "imagem_pasta": "https://animefire.plus/img/animes/mugen-no-ryvius/",
      "secao": "legendados",
      "pagina": 155,
      "total_episodios": 26,
      "link_video": "https://animefire.plus/video/mugen-no-ryvius"
    },
    {
      "id": 2605,
      "nome": "Mugyutto! Black Clover",
      "link": "https://animefire.plus/animes/mugyutto-black-clover-todos-os-episodios",
      "texto_original": "Mugyutto! Black Clover",
      "rating": 6.28,
      "classificacao_etaria": "A14",
      "imagem_original": "https://animefire.plus/img/animes/mugyutto-black-clover.webp",
      "imagem_pasta": "https://animefire.plus/img/animes/mugyutto-black-clover/",
      "secao": "legendados",
      "pagina": 80,
      "total_episodios": 8,
      "link_video": "https://animefire.plus/video/mugyutto-black-clover"
    },
    {
      "id": 2606,
      "nome": "Muhyo to Rouji no Mahouritsu Soudan Jimusho",
      "link": "https://animefire.plus/animes/muhyo-to-rouji-no-mahouritsu-soudan-jimusho-todos-os-episodios",
      "texto_original": "Muhyo to Rouji no Mahouritsu Soudan Jimusho",
      "rating": 6.72,
      "classificacao_etaria": "A14",
      "imagem_original": "https://animefire.plus/img/animes/muhyo-to-rouji-no-mahouritsu-soudan-jimusho.webp",
      "imagem_pasta": "https://animefire.plus/img/animes/muhyo-to-rouji-no-mahouritsu-soudan-jimusho/",
      "secao": "legendados",
      "pagina": 122,
      "total_episodios": 12,
      "link_video": "https://animefire.plus/video/muhyo-to-rouji-no-mahouritsu-soudan-jimusho"
    },
    {
      "id": 2607,
      "nome": "Muhyo to Rouji no Mahouritsu Soudan Jimusho 2nd Season",
      "link": "https://animefire.plus/animes/muhyo-to-rouji-no-mahouritsu-soudan-jimusho-2nd-season-todos-os-episodios",
      "texto_original": "Muhyo to Rouji no Mahouritsu Soudan Jimusho 2nd Season",
      "rating": 6.84,
      "classificacao_etaria": "A14",
      "imagem_original": "https://animefire.plus/img/animes/muhyo-to-rouji-no-mahouritsu-soudan-jimusho-2nd-season.webp",
      "imagem_pasta": "https://animefire.plus/img/animes/muhyo-to-rouji-no-mahouritsu-soudan-jimusho-2nd-season/",
      "secao": "legendados",
      "pagina": 58,
      "total_episodios": 5,
      "link_video": "https://animefire.plus/video/muhyo-to-rouji-no-mahouritsu-soudan-jimusho-2nd-season"
    },
    {
      "id": 2608,
      "nome": "Mujaki No Rakuen",
      "link": "https://animefire.plus/animes/mujaki-no-rakuen-todos-os-episodios",
      "texto_original": "Mujaki No Rakuen",
      "rating": 6.02,
      "classificacao_etaria": "A14",
      "imagem_original": "https://animefire.plus/img/animes/mujaki-no-rakuen.webp",
      "imagem_pasta": "https://animefire.plus/img/animes/mujaki-no-rakuen/",
      "secao": "legendados",
      "pagina": 109,
      "total_episodios": 3,
      "link_video": "https://animefire.plus/video/mujaki-no-rakuen"
    },
    {
      "id": 2609,
      "nome": "Mujin Wakusei Survive (Dublado)",
      "link": "https://animefire.plus/animes/mujin-wakusei-survive-dublado-todos-os-episodios",
      "texto_original": "Mujin Wakusei Survive (Dublado)",
      "rating": 7.74,
      "classificacao_etaria": null,
      "imagem_original": "https://animefire.plus/img/animes/mujin-wakusei-survive.webp",
      "imagem_pasta": "https://animefire.plus/img/animes/mujin-wakusei-survive/",
      "secao": "dublados,legendados",
      "pagina": 27,
      "total_episodios": 52,
      "link_video": "https://animefire.plus/video/mujin-wakusei-survive-dublado"
    },
    {
      "id": 2610,
      "nome": "Munou na Nana",
      "link": "https://animefire.plus/animes/munou-na-nana-todos-os-episodios",
      "texto_original": "Munou na Nana",
      "rating": null,
      "classificacao_etaria": "A16",
      "imagem_original": "https://animefire.plus/img/animes/munou-na-nana.webp",
      "imagem_pasta": "https://animefire.plus/img/animes/munou-na-nana/",
      "secao": "legendados",
      "pagina": 52,
      "total_episodios": 13,
      "link_video": "https://animefire.plus/video/munou-na-nana"
    },
    {
      "id": 2611,
      "nome": "Murai no Koi",
      "link": "https://animefire.plus/animes/murai-no-koi-todos-os-episodios",
      "texto_original": "Murai no Koi",
      "rating": 7.52,
      "classificacao_etaria": "A14",
      "imagem_original": "https://animefire.plus/img/animes/murai-no-koi.webp",
      "imagem_pasta": "https://animefire.plus/img/animes/murai-no-koi/",
      "secao": "legendados",
      "pagina": 9,
      "total_episodios": 12,
      "link_video": "https://animefire.plus/video/murai-no-koi"
    },
    {
      "id": 2612,
      "nome": "Murder Mystery of the Dead",
      "link": "https://animefire.plus/animes/murder-mystery-of-the-dead-todos-os-episodios",
      "texto_original": "Murder Mystery of the Dead",
      "rating": null,
      "classificacao_etaria": "A16",
      "imagem_original": "https://animefire.plus/img/animes/murder-mystery-of-the-dead.webp",
      "imagem_pasta": "https://animefire.plus/img/animes/murder-mystery-of-the-dead/",
      "secao": "legendados,lancamentos",
      "pagina": 10,
      "total_episodios": 0,
      "link_video": "https://animefire.plus/video/murder-mystery-of-the-dead"
    },
    {
      "id": 2613,
      "nome": "Murenase! Seton Gakuen",
      "link": "https://animefire.plus/animes/murenase-seton-gakuen-todos-os-episodios",
      "texto_original": "Murenase! Seton Gakuen",
      "rating": 7.08,
      "classificacao_etaria": "A14",
      "imagem_original": "https://animefire.plus/img/animes/murenase-seton-gakuen.webp",
      "imagem_pasta": "https://animefire.plus/img/animes/murenase-seton-gakuen/",
      "secao": "legendados",
      "pagina": 93,
      "total_episodios": 12,
      "link_video": "https://animefire.plus/video/murenase-seton-gakuen"
    },
    {
      "id": 2614,
      "nome": "Musaigen no Phantom World",
      "link": "https://animefire.plus/animes/musaigen-no-phantom-world-todos-os-episodios",
      "texto_original": "Musaigen no Phantom World",
      "rating": 6.98,
      "classificacao_etaria": "A14",
      "imagem_original": "https://animefire.plus/img/animes/musaigen-no-phantom-world.webp",
      "imagem_pasta": "https://animefire.plus/img/animes/musaigen-no-phantom-world/",
      "secao": "legendados",
      "pagina": 159,
      "total_episodios": 3,
      "link_video": "https://animefire.plus/video/musaigen-no-phantom-world"
    },
    {
      "id": 2615,
      "nome": "Musashino!",
      "link": "https://animefire.plus/animes/musashino-todos-os-episodios",
      "texto_original": "Musashino!",
      "rating": 4.65,
      "classificacao_etaria": "A10",
      "imagem_original": "https://animefire.plus/img/animes/musashino.webp",
      "imagem_pasta": "https://animefire.plus/img/animes/musashino/",
      "secao": "legendados",
      "pagina": 32,
      "total_episodios": 12,
      "link_video": "https://animefire.plus/video/musashino"
    },
    {
      "id": 2616,
      "nome": "Mushibugyou",
      "link": "https://animefire.plus/animes/mushibugyou-todos-os-episodios",
      "texto_original": "Mushibugyou",
      "rating": 7.42,
      "classificacao_etaria": "A14",
      "imagem_original": "https://animefire.plus/img/animes/mushibugyou.webp",
      "imagem_pasta": "https://animefire.plus/img/animes/mushibugyou/",
      "secao": "legendados",
      "pagina": 106,
      "total_episodios": 26,
      "link_video": "https://animefire.plus/video/mushibugyou"
    },
    {
      "id": 2617,
      "nome": "Mushibugyou OVA",
      "link": "https://animefire.plus/animes/mushibugyou-ova-todos-os-episodios",
      "texto_original": "Mushibugyou OVA",
      "rating": 7.14,
      "classificacao_etaria": "A14",
      "imagem_original": "https://animefire.plus/img/animes/mushibugyou-ova.webp",
      "imagem_pasta": "https://animefire.plus/img/animes/mushibugyou-ova/",
      "secao": "legendados",
      "pagina": 128,
      "total_episodios": 3,
      "link_video": "https://animefire.plus/video/mushibugyou-ova"
    },
    {
      "id": 2618,
      "nome": "Mushikaburi-hime",
      "link": "https://animefire.plus/animes/mushikaburi-hime-todos-os-episodios",
      "texto_original": "Mushikaburi-hime",
      "rating": 6.87,
      "classificacao_etaria": "A14",
      "imagem_original": "https://animefire.plus/img/animes/mushikaburi-hime.webp",
      "imagem_pasta": "https://animefire.plus/img/animes/mushikaburi-hime/",
      "secao": "legendados",
      "pagina": 29,
      "total_episodios": 12,
      "link_video": "https://animefire.plus/video/mushikaburi-hime"
    },
    {
      "id": 2619,
      "nome": "Mushikago no Cagaster (Dublado)",
      "link": "https://animefire.plus/animes/mushikago-no-cagaster-dublado-todos-os-episodios",
      "texto_original": "Mushikago no Cagaster (Dublado)",
      "rating": 6.57,
      "classificacao_etaria": "A16",
      "imagem_original": "https://animefire.plus/img/animes/mushikago-no-cagaster.webp",
      "imagem_pasta": "https://animefire.plus/img/animes/mushikago-no-cagaster/",
      "secao": "dublados,legendados",
      "pagina": 25,
      "total_episodios": 12,
      "link_video": "https://animefire.plus/video/mushikago-no-cagaster-dublado"
    },
    {
      "id": 2620,
      "nome": "Mushishi (Dublado)",
      "link": "https://animefire.plus/animes/mushishi-dublado-todos-os-episodios",
      "texto_original": "Mushishi (Dublado)",
      "rating": 8.71,
      "classificacao_etaria": "A14",
      "imagem_original": "https://animefire.plus/img/animes/mushishi.webp",
      "imagem_pasta": "https://animefire.plus/img/animes/mushishi/",
      "secao": "dublados,legendados",
      "pagina": 25,
      "total_episodios": 26,
      "link_video": "https://animefire.plus/video/mushishi-dublado"
    }
  ],
  "pagination": {
    "current_page": 131,
    "per_page": 20,
    "total_items": 4368,
    "total_pages": 219,
    "has_next": true,
    "has_prev": true
  }
}
