{
  "message": "Lista de animes",
  "data": [
    {
      "id": 841,
      "nome": "Dokidoki! Precure (Dublado)",
      "link": "https://animefire.plus/animes/dokidoki-precure-dublado-todos-os-episodios",
      "texto_original": "Dokidoki! Precure (Dublado)",
      "rating": 6.73,
      "classificacao_etaria": null,
      "imagem_original": "https://animefire.plus/img/animes/dokidoki-precure.webp",
      "imagem_pasta": "https://animefire.plus/img/animes/dokidoki-precure/",
      "secao": "dublados,legendados",
      "pagina": 22,
      "total_episodios": 30,
      "link_video": "https://animefire.plus/video/dokidoki-precure-dublado"
    },
    {
      "id": 842,
      "nome": "Dokyuu Hentai HxEros",
      "link": "https://animefire.plus/animes/dokyuu-hentai-hxeros-todos-os-episodios",
      "texto_original": "Dokyuu Hentai HxEros",
      "rating": 5.74,
      "classificacao_etaria": "A18",
      "imagem_original": "https://animefire.plus/img/animes/dokyuu-hentai-hxeros.webp",
      "imagem_pasta": "https://animefire.plus/img/animes/dokyuu-hentai-hxeros/",
      "secao": "legendados",
      "pagina": 58,
      "total_episodios": 12,
      "link_video": "https://animefire.plus/video/dokyuu-hentai-hxeros"
    },
    {
      "id": 843,
      "nome": "Dokyuu Hentai HxEros OVA",
      "link": "https://animefire.plus/animes/dokyuu-hentai-hxeros-ova-todos-os-episodios",
      "texto_original": "Dokyuu Hentai HxEros OVA",
      "rating": 6.2,
      "classificacao_etaria": "A18",
      "imagem_original": "https://animefire.plus/img/animes/dokyuu-hentai-hxeros-ova.webp",
      "imagem_pasta": "https://animefire.plus/img/animes/dokyuu-hentai-hxeros-ova/",
      "secao": "legendados",
      "pagina": 50,
      "total_episodios": 2,
      "link_video": "https://animefire.plus/video/dokyuu-hentai-hxeros-ova"
    },
    {
      "id": 844,
      "nome": "Dolls' Frontline",
      "link": "https://animefire.plus/animes/dolls-frontline-todos-os-episodios",
      "texto_original": "Dolls' Frontline",
      "rating": 5.86,
      "classificacao_etaria": "A14",
      "imagem_original": "https://animefire.plus/img/animes/dolls-frontline.webp",
      "imagem_pasta": "https://animefire.plus/img/animes/dolls-frontline/",
      "secao": "legendados",
      "pagina": 37,
      "total_episodios": 12,
      "link_video": "https://animefire.plus/video/dolls-frontline"
    },
    {
      "id": 845,
      "nome": "Domestic na Kanojo",
      "link": "https://animefire.plus/animes/domestic-na-kanojo-todos-os-episodios",
      "texto_original": "Domestic na Kanojo",
      "rating": 6.77,
      "classificacao_etaria": "A18",
      "imagem_original": "https://animefire.plus/img/animes/domestic-na-kanojo.webp",
      "imagem_pasta": "https://animefire.plus/img/animes/domestic-na-kanojo/",
      "secao": "legendados",
      "pagina": 98,
      "total_episodios": 12,
      "link_video": "https://animefire.plus/video/domestic-na-kanojo"
    },
    {
      "id": 846,
      "nome": "Donten ni Warau",
      "link": "https://animefire.plus/animes/donten-ni-warau-todos-os-episodios",
      "texto_original": "Donten ni Warau",
      "rating": 7.59,
      "classificacao_etaria": "A14",
      "imagem_original": "https://animefire.plus/img/animes/donten-ni-warau.webp",
      "imagem_pasta": "https://animefire.plus/img/animes/donten-ni-warau/",
      "secao": "legendados",
      "pagina": 120,
      "total_episodios": 0,
      "link_video": "https://animefire.plus/video/donten-ni-warau"
    },
    {
      "id": 847,
      "nome": "Dorei-ku The Animation",
      "link": "https://animefire.plus/animes/dorei-ku-the-animation-todos-os-episodios",
      "texto_original": "Dorei-ku The Animation",
      "rating": 6.12,
      "classificacao_etaria": "A16",
      "imagem_original": "https://animefire.plus/img/animes/dorei-ku-the-animation.webp",
      "imagem_pasta": "https://animefire.plus/img/animes/dorei-ku-the-animation/",
      "secao": "legendados",
      "pagina": 127,
      "total_episodios": 12,
      "link_video": "https://animefire.plus/video/dorei-ku-the-animation"
    },
    {
      "id": 848,
      "nome": "Dorohedoro (Dublado)",
      "link": "https://animefire.plus/animes/dorohedoro-dublado-todos-os-episodios",
      "texto_original": "Dorohedoro (Dublado)",
      "rating": 8.13,
      "classificacao_etaria": "A16",
      "imagem_original": "https://animefire.plus/img/animes/dorohedoro.webp",
      "imagem_pasta": "https://animefire.plus/img/animes/dorohedoro/",
      "secao": "dublados,legendados",
      "pagina": 20,
      "total_episodios": 12,
      "link_video": "https://animefire.plus/video/dorohedoro-dublado"
    },
    {
      "id": 849,
      "nome": "Dorohedoro: Ma no Omake",
      "link": "https://animefire.plus/animes/dorohedoro-ma-no-omake-todos-os-episodios",
      "texto_original": "Dorohedoro: Ma no Omake",
      "rating": 7.11,
      "classificacao_etaria": "A18",
      "imagem_original": "https://animefire.plus/img/animes/dorohedoro-ma-no-omake.webp",
      "imagem_pasta": "https://animefire.plus/img/animes/dorohedoro-ma-no-omake/",
      "secao": "legendados",
      "pagina": 59,
      "total_episodios": 6,
      "link_video": "https://animefire.plus/video/dorohedoro-ma-no-omake"
    },
    {
      "id": 850,
      "nome": "Dororo",
      "link": "https://animefire.plus/animes/dororo-todos-os-episodios",
      "texto_original": "Dororo",
      "rating": 8.21,
      "classificacao_etaria": "A16",
      "imagem_original": "https://animefire.plus/img/animes/dororo.webp",
      "imagem_pasta": "https://animefire.plus/img/animes/dororo/",
      "secao": "legendados",
      "pagina": 41,
      "total_episodios": 24,
      "link_video": "https://animefire.plus/video/dororo"
    },
    {
      "id": 851,
      "nome": "Dororo to Hyakkimaru",
      "link": "https://animefire.plus/animes/dororo-to-hyakkimaru-todos-os-episodios",
      "texto_original": "Dororo to Hyakkimaru",
      "rating": 7.14,
      "classificacao_etaria": "A16",
      "imagem_original": "https://animefire.plus/img/animes/dororo-to-hyakkimaru.webp",
      "imagem_pasta": "https://animefire.plus/img/animes/dororo-to-hyakkimaru/",
      "secao": "legendados",
      "pagina": 77,
      "total_episodios": 2,
      "link_video": "https://animefire.plus/video/dororo-to-hyakkimaru"
    },
    {
      "id": 852,
      "nome": "Dororon Enma-kun Meeramera",
      "link": "https://animefire.plus/animes/dororon-enma-kun-meeramera-todos-os-episodios",
      "texto_original": "Dororon Enma-kun Meeramera",
      "rating": 6.55,
      "classificacao_etaria": "A16",
      "imagem_original": "https://animefire.plus/img/animes/dororon-enma-kun-meeramera.webp",
      "imagem_pasta": "https://animefire.plus/img/animes/dororon-enma-kun-meeramera/",
      "secao": "legendados",
      "pagina": 59,
      "total_episodios": 12,
      "link_video": "https://animefire.plus/video/dororon-enma-kun-meeramera"
    },
    {
      "id": 853,
      "nome": "Dosanko Gal wa Namara Menkoi (Dublado)",
      "link": "https://animefire.plus/animes/dosanko-gal-wa-namara-menkoi-dublado-todos-os-episodios",
      "texto_original": "Dosanko Gal wa Namara Menkoi (Dublado)",
      "rating": 7.04,
      "classificacao_etaria": "A14",
      "imagem_original": "https://animefire.plus/img/animes/dosanko-gal-wa-namara-menkoi.webp",
      "imagem_pasta": "https://animefire.plus/img/animes/dosanko-gal-wa-namara-menkoi/",
      "secao": "dublados,legendados,lancamentos",
      "pagina": 3,
      "total_episodios": 12,
      "link_video": "https://animefire.plus/video/dosanko-gal-wa-namara-menkoi-dublado"
    },
    {
      "id": 854,
      "nome": "Dou Shen Ji",
      "link": "https://animefire.plus/animes/dou-shen-ji-todos-os-episodios",
      "texto_original": "Dou Shen Ji",
      "rating": 5.81,
      "classificacao_etaria": "A14",
      "imagem_original": "https://animefire.plus/img/animes/dou-shen-ji.webp",
      "imagem_pasta": "https://animefire.plus/img/animes/dou-shen-ji/",
      "secao": "legendados",
      "pagina": 37,
      "total_episodios": 12,
      "link_video": "https://animefire.plus/video/dou-shen-ji"
    },
    {
      "id": 855,
      "nome": "Double Circle",
      "link": "https://animefire.plus/animes/double-circle-todos-os-episodios",
      "texto_original": "Double Circle",
      "rating": 4.94,
      "classificacao_etaria": "A14",
      "imagem_original": "https://animefire.plus/img/animes/double-circle.webp",
      "imagem_pasta": "https://animefire.plus/img/animes/double-circle/",
      "secao": "legendados",
      "pagina": 113,
      "total_episodios": 6,
      "link_video": "https://animefire.plus/video/double-circle"
    },
    {
      "id": 856,
      "nome": "Double Decker! Doug & Kirill",
      "link": "https://animefire.plus/animes/double-decker-doug-kirill-todos-os-episodios",
      "texto_original": "Double Decker! Doug & Kirill",
      "rating": 6.97,
      "classificacao_etaria": "A16",
      "imagem_original": "https://animefire.plus/img/animes/double-decker-doug-kirill.webp",
      "imagem_pasta": "https://animefire.plus/img/animes/double-decker-doug-kirill/",
      "secao": "legendados",
      "pagina": 107,
      "total_episodios": 13,
      "link_video": "https://animefire.plus/video/double-decker-doug-kirill"
    },
    {
      "id": 857,
      "nome": "Double Decker! Doug & Kirill: Extra",
      "link": "https://animefire.plus/animes/double-decker-doug-kirill-extra-todos-os-episodios",
      "texto_original": "Double Decker! Doug & Kirill: Extra",
      "rating": 7.2,
      "classificacao_etaria": "A16",
      "imagem_original": "https://animefire.plus/img/animes/double-decker-doug-kirill-extra.webp",
      "imagem_pasta": "https://animefire.plus/img/animes/double-decker-doug-kirill-extra/",
      "secao": "legendados",
      "pagina": 87,
      "total_episodios": 0,
      "link_video": "https://animefire.plus/video/double-decker-doug-kirill-extra"
    },
    {
      "id": 858,
      "nome": "Double-J",
      "link": "https://animefire.plus/animes/double-j-todos-os-episodios",
      "texto_original": "Double-J",
      "rating": 5.55,
      "classificacao_etaria": "A14",
      "imagem_original": "https://animefire.plus/img/animes/double-j.webp",
      "imagem_pasta": "https://animefire.plus/img/animes/double-j/",
      "secao": "legendados",
      "pagina": 99,
      "total_episodios": 0,
      "link_video": "https://animefire.plus/video/double-j"
    },
    {
      "id": 859,
      "nome": "Doujin Work",
      "link": "https://animefire.plus/animes/doujin-work-todos-os-episodios",
      "texto_original": "Doujin Work",
      "rating": 6.83,
      "classificacao_etaria": "A14",
      "imagem_original": "https://animefire.plus/img/animes/doujin-work.webp",
      "imagem_pasta": "https://animefire.plus/img/animes/doujin-work/",
      "secao": "legendados",
      "pagina": 102,
      "total_episodios": 12,
      "link_video": "https://animefire.plus/video/doujin-work"
    },
    {
      "id": 860,
      "nome": "Doukyonin wa Hiza, Tokidoki, Atama no Ue.",
      "link": "https://animefire.plus/animes/doukyonin-wa-hiza-tokidoki-atama-no-ue-todos-os-episodios",
      "texto_original": "Doukyonin wa Hiza, Tokidoki, Atama no Ue.",
      "rating": 7.81,
      "classificacao_etaria": "A14",
      "imagem_original": "https://animefire.plus/img/animes/doukyonin-wa-hiza-tokidoki-atama-no-ue.webp",
      "imagem_pasta": "https://animefire.plus/img/animes/doukyonin-wa-hiza-tokidoki-atama-no-ue/",
      "secao": "legendados",
      "pagina": 60,
      "total_episodios": 12,
      "link_video": "https://animefire.plus/video/doukyonin-wa-hiza-tokidoki-atama-no-ue"
    }
  ],
  "pagination": {
    "current_page": 43,
    "per_page": 20,
    "total_items": 4368,
    "total_pages": 219,
    "has_next": true,
    "has_prev": true
  }
}
