{
  "message": "Lista de animes",
  "data": [
    {
      "id": 2621,
      "nome": "Mushishi Zoku Shou",
      "link": "https://animefire.plus/animes/mushishi-zoku-shou-todos-os-episodios",
      "texto_original": "Mushishi Zoku Shou",
      "rating": 8.74,
      "classificacao_etaria": "A14",
      "imagem_original": "https://animefire.plus/img/animes/mushishi-zoku-shou.webp",
      "imagem_pasta": "https://animefire.plus/img/animes/mushishi-zoku-shou/",
      "secao": "legendados",
      "pagina": 135,
      "total_episodios": 10,
      "link_video": "https://animefire.plus/video/mushishi-zoku-shou"
    },
    {
      "id": 2622,
      "nome": "Mushishi: Hihamukage",
      "link": "https://animefire.plus/animes/mushishi-hihamukage-todos-os-episodios",
      "texto_original": "Mushishi: Hihamukage",
      "rating": 8.6,
      "classificacao_etaria": "A14",
      "imagem_original": "https://animefire.plus/img/animes/mushishi-hihamukage.webp",
      "imagem_pasta": "https://animefire.plus/img/animes/mushishi-hihamukage/",
      "secao": "legendados",
      "pagina": 65,
      "total_episodios": 1,
      "link_video": "https://animefire.plus/video/mushishi-hihamukage"
    },
    {
      "id": 2623,
      "nome": "Mushoku Tensei II: Isekai Ittara Honki Dasu",
      "link": "https://animefire.plus/animes/mushoku-tensei-ii-sekai-ittara-honki-dasu-todos-os-episodios",
      "texto_original": "Mushoku Tensei II: Isekai Ittara Honki Dasu",
      "rating": 8.22,
      "classificacao_etaria": "A16",
      "imagem_original": "https://animefire.plus/img/animes/mushoku-tensei-II-sekai-ittara-honki-dasu.jpg",
      "imagem_pasta": "https://animefire.plus/img/animes/mushoku-tensei-II-sekai-ittara-honki-dasu/",
      "secao": "legendados",
      "pagina": 23,
      "total_episodios": 4,
      "link_video": "https://animefire.plus/video/mushoku-tensei-ii-sekai-ittara-honki-dasu"
    },
    {
      "id": 2624,
      "nome": "Mushoku Tensei II: Isekai Ittara Honki Dasu - Shugo Jutsushi Fitz (Dublado)",
      "link": "https://animefire.plus/animes/mushoku-tensei-ii-isekai-ittara-honki-dasu---shugo-jutsushi-fitz-dublado-todos-os-episodios",
      "texto_original": "Mushoku Tensei II: Isekai Ittara Honki Dasu - Shugo Jutsushi Fitz (Dublado)",
      "rating": 7.54,
      "classificacao_etaria": "A16",
      "imagem_original": "https://animefire.plus/img/animes/mushoku-tensei-ii-isekai-ittara-honki-dasu---shugo-jutsushi-fitz.webp",
      "imagem_pasta": "https://animefire.plus/img/animes/mushoku-tensei-ii-isekai-ittara-honki-dasu---shugo-jutsushi-fitz/",
      "secao": "dublados",
      "pagina": 6,
      "total_episodios": 0,
      "link_video": "https://animefire.plus/video/mushoku-tensei-ii-isekai-ittara-honki-dasu---shugo-jutsushi-fitz-dublado"
    },
    {
      "id": 2625,
      "nome": "Mushoku Tensei II: Isekai Ittara Honki Dasu (Dublado)",
      "link": "https://animefire.plus/animes/mushoku-tensei-ii-isekai-ittara-honki-dasu-dublado-todos-os-episodios",
      "texto_original": "Mushoku Tensei II: Isekai Ittara Honki Dasu (Dublado)",
      "rating": 8.22,
      "classificacao_etaria": "A16",
      "imagem_original": "https://animefire.plus/img/animes/mushoku-tensei-ii-isekai-ittara-honki-dasu.webp",
      "imagem_pasta": "https://animefire.plus/img/animes/mushoku-tensei-ii-isekai-ittara-honki-dasu/",
      "secao": "dublados",
      "pagina": 6,
      "total_episodios": 12,
      "link_video": "https://animefire.plus/video/mushoku-tensei-ii-isekai-ittara-honki-dasu-dublado"
    },
    {
      "id": 2626,
      "nome": "Mushoku Tensei II: Isekai Ittara Honki Dasu Part 2",
      "link": "https://animefire.plus/animes/mushoku-tensei-ii-isekai-ittara-honki-dasu-part-2-todos-os-episodios",
      "texto_original": "Mushoku Tensei II: Isekai Ittara Honki Dasu Part 2",
      "rating": 8.41,
      "classificacao_etaria": "A16",
      "imagem_original": "https://animefire.plus/img/animes/mushoku-tensei-ii-isekai-ittara-honki-dasu-part-2.webp",
      "imagem_pasta": "https://animefire.plus/img/animes/mushoku-tensei-ii-isekai-ittara-honki-dasu-part-2/",
      "secao": "legendados",
      "pagina": 15,
      "total_episodios": 12,
      "link_video": "https://animefire.plus/video/mushoku-tensei-ii-isekai-ittara-honki-dasu-part-2"
    },
    {
      "id": 2627,
      "nome": "Mushoku Tensei: Isekai Ittara Honki Dasu (Dublado)",
      "link": "https://animefire.plus/animes/mushoku-tensei-isekai-ittara-honki-dasu-dublado-todos-os-episodios",
      "texto_original": "Mushoku Tensei: Isekai Ittara Honki Dasu (Dublado)",
      "rating": 8.35,
      "classificacao_etaria": "A16",
      "imagem_original": "https://animefire.plus/img/animes/mushoku-tensei-isekai-ittara-honki-dasu.webp",
      "imagem_pasta": "https://animefire.plus/img/animes/mushoku-tensei-isekai-ittara-honki-dasu/",
      "secao": "dublados,legendados",
      "pagina": 16,
      "total_episodios": 11,
      "link_video": "https://animefire.plus/video/mushoku-tensei-isekai-ittara-honki-dasu-dublado"
    },
    {
      "id": 2628,
      "nome": "Mushoku Tensei: Isekai Ittara Honki Dasu 2nd Season (Dublado)",
      "link": "https://animefire.plus/animes/mushoku-tensei-isekai-ittara-honki-dasu-2nd-season-dublado-todos-os-episodios",
      "texto_original": "Mushoku Tensei: Isekai Ittara Honki Dasu 2nd Season (Dublado)",
      "rating": 8.63,
      "classificacao_etaria": "A16",
      "imagem_original": "https://animefire.plus/img/animes/mushoku-tensei-isekai-ittara-honki-dasu-2nd-season.webp",
      "imagem_pasta": "https://animefire.plus/img/animes/mushoku-tensei-isekai-ittara-honki-dasu-2nd-season/",
      "secao": "dublados,legendados",
      "pagina": 14,
      "total_episodios": 12,
      "link_video": "https://animefire.plus/video/mushoku-tensei-isekai-ittara-honki-dasu-2nd-season-dublado"
    },
    {
      "id": 2629,
      "nome": "Mushoku Tensei: Isekai Ittara Honki Dasu Special (Dublado)",
      "link": "https://animefire.plus/animes/mushoku-tensei-isekai-ittara-honki-dasu-special-dublado-todos-os-episodios",
      "texto_original": "Mushoku Tensei: Isekai Ittara Honki Dasu Special (Dublado)",
      "rating": 7.79,
      "classificacao_etaria": "A16",
      "imagem_original": "https://animefire.plus/img/animes/mushoku-tensei-isekai-ittara-honki-dasu-special.webp",
      "imagem_pasta": "https://animefire.plus/img/animes/mushoku-tensei-isekai-ittara-honki-dasu-special/",
      "secao": "dublados,legendados",
      "pagina": 10,
      "total_episodios": 1,
      "link_video": "https://animefire.plus/video/mushoku-tensei-isekai-ittara-honki-dasu-special-dublado"
    },
    {
      "id": 2630,
      "nome": "Muteki Choujin Zanbot 3",
      "link": "https://animefire.plus/animes/muteki-choujin-zanbot-3-todos-os-episodios",
      "texto_original": "Muteki Choujin Zanbot 3",
      "rating": 6.9,
      "classificacao_etaria": "A14",
      "imagem_original": "https://animefire.plus/img/animes/muteki-choujin-zanbot-3.webp",
      "imagem_pasta": "https://animefire.plus/img/animes/muteki-choujin-zanbot-3/",
      "secao": "legendados",
      "pagina": 54,
      "total_episodios": 23,
      "link_video": "https://animefire.plus/video/muteki-choujin-zanbot-3"
    },
    {
      "id": 2631,
      "nome": "Muteki Kanban Musume",
      "link": "https://animefire.plus/animes/muteki-kanban-musume-todos-os-episodios",
      "texto_original": "Muteki Kanban Musume",
      "rating": 7.17,
      "classificacao_etaria": "A14",
      "imagem_original": "https://animefire.plus/img/animes/muteki-kanban-musume.webp",
      "imagem_pasta": "https://animefire.plus/img/animes/muteki-kanban-musume/",
      "secao": "legendados",
      "pagina": 170,
      "total_episodios": 12,
      "link_video": "https://animefire.plus/video/muteki-kanban-musume"
    },
    {
      "id": 2632,
      "nome": "Muteking the Dancing Hero",
      "link": "https://animefire.plus/animes/muteking-the-dancing-hero-todos-os-episodios",
      "texto_original": "Muteking the Dancing Hero",
      "rating": 5.84,
      "classificacao_etaria": "A14",
      "imagem_original": "https://animefire.plus/img/animes/muteking-the-dancing-hero.webp",
      "imagem_pasta": "https://animefire.plus/img/animes/muteking-the-dancing-hero/",
      "secao": "legendados",
      "pagina": 38,
      "total_episodios": 12,
      "link_video": "https://animefire.plus/video/muteking-the-dancing-hero"
    },
    {
      "id": 2633,
      "nome": "Mutsu Enmei Ryuu Gaiden: Shura no Toki",
      "link": "https://animefire.plus/animes/mutsu-enmei-ryuu-gaiden-shura-no-toki-todos-os-episodios",
      "texto_original": "Mutsu Enmei Ryuu Gaiden: Shura no Toki",
      "rating": 7.63,
      "classificacao_etaria": "A14",
      "imagem_original": "https://animefire.plus/img/animes/mutsu-enmei-ryuu-gaiden-shura-no-toki.webp",
      "imagem_pasta": "https://animefire.plus/img/animes/mutsu-enmei-ryuu-gaiden-shura-no-toki/",
      "secao": "legendados",
      "pagina": 148,
      "total_episodios": 26,
      "link_video": "https://animefire.plus/video/mutsu-enmei-ryuu-gaiden-shura-no-toki"
    },
    {
      "id": 2634,
      "nome": "Muv-Luv Alternative",
      "link": "https://animefire.plus/animes/muv-luv-alternative-todos-os-episodios",
      "texto_original": "Muv-Luv Alternative",
      "rating": 5.83,
      "classificacao_etaria": "A18",
      "imagem_original": "https://animefire.plus/img/animes/muv-luv-alternative.webp",
      "imagem_pasta": "https://animefire.plus/img/animes/muv-luv-alternative/",
      "secao": "legendados",
      "pagina": 37,
      "total_episodios": 12,
      "link_video": "https://animefire.plus/video/muv-luv-alternative"
    },
    {
      "id": 2635,
      "nome": "Muv-Luv Alternative 2nd Season",
      "link": "https://animefire.plus/animes/muv-luv-alternative-2nd-season-todos-os-episodios",
      "texto_original": "Muv-Luv Alternative 2nd Season",
      "rating": 6.53,
      "classificacao_etaria": "A18",
      "imagem_original": "https://animefire.plus/img/animes/muv-luv-alternative-2nd-season.webp",
      "imagem_pasta": "https://animefire.plus/img/animes/muv-luv-alternative-2nd-season/",
      "secao": "legendados",
      "pagina": 28,
      "total_episodios": 12,
      "link_video": "https://animefire.plus/video/muv-luv-alternative-2nd-season"
    },
    {
      "id": 2636,
      "nome": "Muv-Luv Alternative: Total Eclipse (Dublado)",
      "link": "https://animefire.plus/animes/muv-luv-alternative-total-eclipse-dublado-todos-os-episodios",
      "texto_original": "Muv-Luv Alternative: Total Eclipse (Dublado)",
      "rating": 7.09,
      "classificacao_etaria": "A18",
      "imagem_original": "https://animefire.plus/img/animes/muv-luv-alternative-total-eclipse.webp",
      "imagem_pasta": "https://animefire.plus/img/animes/muv-luv-alternative-total-eclipse/",
      "secao": "dublados,legendados",
      "pagina": 4,
      "total_episodios": 24,
      "link_video": "https://animefire.plus/video/muv-luv-alternative-total-eclipse-dublado"
    },
    {
      "id": 2637,
      "nome": "Muzik Tiger In the Forest",
      "link": "https://animefire.plus/animes/muzik-tiger-in-the-forest-todos-os-episodios",
      "texto_original": "Muzik Tiger In the Forest",
      "rating": null,
      "classificacao_etaria": "A14",
      "imagem_original": "https://animefire.plus/img/animes/muzik-tiger-in-the-forest.webp",
      "imagem_pasta": "https://animefire.plus/img/animes/muzik-tiger-in-the-forest/",
      "secao": "legendados,lancamentos",
      "pagina": 4,
      "total_episodios": 0,
      "link_video": "https://animefire.plus/video/muzik-tiger-in-the-forest"
    },
    {
      "id": 2638,
      "nome": "Myself; Yourself",
      "link": "https://animefire.plus/animes/myself-yourself-todos-os-episodios",
      "texto_original": "Myself; Yourself",
      "rating": 7.3,
      "classificacao_etaria": "A14",
      "imagem_original": "https://animefire.plus/img/animes/myself-yourself.webp",
      "imagem_pasta": "https://animefire.plus/img/animes/myself-yourself/",
      "secao": "legendados",
      "pagina": 127,
      "total_episodios": 13,
      "link_video": "https://animefire.plus/video/myself-yourself"
    },
    {
      "id": 2639,
      "nome": "Na Nare Hana Nare",
      "link": "https://animefire.plus/animes/na-nare-hana-nare-todos-os-episodios",
      "texto_original": "Na Nare Hana Nare",
      "rating": 6.37,
      "classificacao_etaria": "A14",
      "imagem_original": "https://animefire.plus/img/animes/na-nare-hana-nare.webp",
      "imagem_pasta": "https://animefire.plus/img/animes/na-nare-hana-nare/",
      "secao": "legendados",
      "pagina": 11,
      "total_episodios": 12,
      "link_video": "https://animefire.plus/video/na-nare-hana-nare"
    },
    {
      "id": 2640,
      "nome": "Nabari no Ou",
      "link": "https://animefire.plus/animes/nabari-no-ou-todos-os-episodios",
      "texto_original": "Nabari no Ou",
      "rating": 7.37,
      "classificacao_etaria": "A14",
      "imagem_original": "https://animefire.plus/img/animes/nabari-no-ou.webp",
      "imagem_pasta": "https://animefire.plus/img/animes/nabari-no-ou/",
      "secao": "legendados",
      "pagina": 159,
      "total_episodios": 26,
      "link_video": "https://animefire.plus/video/nabari-no-ou"
    }
  ],
  "pagination": {
    "current_page": 132,
    "per_page": 20,
    "total_items": 4368,
    "total_pages": 219,
    "has_next": true,
    "has_prev": true
  }
}
