{
  "message": "Lista de animes",
  "data": [
    {
      "id": 3861,
      "nome": "Toaru Kagaku no Railgun S",
      "link": "https://animefire.plus/animes/toaru-kagaku-no-railgun-s-todos-os-episodios",
      "texto_original": "Toaru Kagaku no Railgun S",
      "rating": 8.11,
      "classificacao_etaria": "A16",
      "imagem_original": "https://animefire.plus/img/animes/toaru-kagaku-no-railgun-s.webp",
      "imagem_pasta": "https://animefire.plus/img/animes/toaru-kagaku-no-railgun-s/",
      "secao": "legendados",
      "pagina": 150,
      "total_episodios": 0,
      "link_video": "https://animefire.plus/video/toaru-kagaku-no-railgun-s"
    },
    {
      "id": 3862,
      "nome": "Toaru Kagaku no Railgun S: Daiji na Koto wa Zenbu Sentou ni Osowatta",
      "link": "https://animefire.plus/animes/toaru-kagaku-no-railgun-s-daiji-na-koto-wa-zenbu-sentou-ni-osowatta-todos-os-episodios",
      "texto_original": "Toaru Kagaku no Railgun S: Daiji na Koto wa Zenbu Sentou ni Osowatta",
      "rating": 6.81,
      "classificacao_etaria": "A14",
      "imagem_original": "https://animefire.plus/img/animes/toaru-kagaku-no-railgun-s-daiji-na-koto-wa-zenbu-sentou-ni-osowatta.webp",
      "imagem_pasta": "https://animefire.plus/img/animes/toaru-kagaku-no-railgun-s-daiji-na-koto-wa-zenbu-sentou-ni-osowatta/",
      "secao": "legendados",
      "pagina": 68,
      "total_episodios": 1,
      "link_video": "https://animefire.plus/video/toaru-kagaku-no-railgun-s-daiji-na-koto-wa-zenbu-sentou-ni-osowatta"
    },
    {
      "id": 3863,
      "nome": "Toaru Kagaku no Railgun S: Motto Marutto Railgun",
      "link": "https://animefire.plus/animes/toaru-kagaku-no-railgun-s-motto-marutto-railgun-todos-os-episodios",
      "texto_original": "Toaru Kagaku no Railgun S: Motto Marutto Railgun",
      "rating": 7.07,
      "classificacao_etaria": "A14",
      "imagem_original": "https://animefire.plus/img/animes/toaru-kagaku-no-railgun-s-motto-marutto-railgun.webp",
      "imagem_pasta": "https://animefire.plus/img/animes/toaru-kagaku-no-railgun-s-motto-marutto-railgun/",
      "secao": "legendados",
      "pagina": 68,
      "total_episodios": 2,
      "link_video": "https://animefire.plus/video/toaru-kagaku-no-railgun-s-motto-marutto-railgun"
    },
    {
      "id": 3864,
      "nome": "Toaru Kagaku no Railgun T",
      "link": "https://animefire.plus/animes/toaru-kagaku-no-railgun-t-todos-os-episodios",
      "texto_original": "Toaru Kagaku no Railgun T",
      "rating": 8.25,
      "classificacao_etaria": "A16",
      "imagem_original": "https://animefire.plus/img/animes/toaru-kagaku-no-railgun-t.webp",
      "imagem_pasta": "https://animefire.plus/img/animes/toaru-kagaku-no-railgun-t/",
      "secao": "legendados",
      "pagina": 92,
      "total_episodios": 1,
      "link_video": "https://animefire.plus/video/toaru-kagaku-no-railgun-t"
    },
    {
      "id": 3865,
      "nome": "Toaru Majutsu no Index (Dublado)",
      "link": "https://animefire.plus/animes/toaru-majutsu-no-index-dublado-todos-os-episodios",
      "texto_original": "Toaru Majutsu no Index (Dublado)",
      "rating": 7.49,
      "classificacao_etaria": "A16",
      "imagem_original": "https://animefire.plus/img/animes/toaru-majutsu-no-index.webp",
      "imagem_pasta": "https://animefire.plus/img/animes/toaru-majutsu-no-index/",
      "secao": "dublados,legendados",
      "pagina": 20,
      "total_episodios": 24,
      "link_video": "https://animefire.plus/video/toaru-majutsu-no-index-dublado"
    },
    {
      "id": 3866,
      "nome": "Toaru Majutsu no Index II",
      "link": "https://animefire.plus/animes/toaru-majutsu-no-index-ii-todos-os-episodios",
      "texto_original": "Toaru Majutsu no Index II",
      "rating": 7.74,
      "classificacao_etaria": "A16",
      "imagem_original": "https://animefire.plus/img/animes/toaru-majutsu-no-index-ii.webp",
      "imagem_pasta": "https://animefire.plus/img/animes/toaru-majutsu-no-index-ii/",
      "secao": "legendados",
      "pagina": 170,
      "total_episodios": 18,
      "link_video": "https://animefire.plus/video/toaru-majutsu-no-index-ii"
    },
    {
      "id": 3867,
      "nome": "Toaru Majutsu no Index III",
      "link": "https://animefire.plus/animes/toaru-majutsu-no-index-iii-todos-os-episodios",
      "texto_original": "Toaru Majutsu no Index III",
      "rating": 6.75,
      "classificacao_etaria": "A14",
      "imagem_original": "https://animefire.plus/img/animes/toaru-majutsu-no-index-iii.webp",
      "imagem_pasta": "https://animefire.plus/img/animes/toaru-majutsu-no-index-iii/",
      "secao": "legendados",
      "pagina": 89,
      "total_episodios": 1,
      "link_video": "https://animefire.plus/video/toaru-majutsu-no-index-iii"
    },
    {
      "id": 3868,
      "nome": "Toaru Majutsu no Index-tan",
      "link": "https://animefire.plus/animes/toaru-majutsu-no-index-tan-todos-os-episodios",
      "texto_original": "Toaru Majutsu no Index-tan",
      "rating": 6.98,
      "classificacao_etaria": "A14",
      "imagem_original": "https://animefire.plus/img/animes/toaru-majutsu-no-index-tan.webp",
      "imagem_pasta": "https://animefire.plus/img/animes/toaru-majutsu-no-index-tan/",
      "secao": "legendados",
      "pagina": 54,
      "total_episodios": 1,
      "link_video": "https://animefire.plus/video/toaru-majutsu-no-index-tan"
    },
    {
      "id": 3869,
      "nome": "Toaru Majutsu no Index-tan II",
      "link": "https://animefire.plus/animes/toaru-majutsu-no-index-tan-ii-todos-os-episodios",
      "texto_original": "Toaru Majutsu no Index-tan II",
      "rating": 6.99,
      "classificacao_etaria": "A14",
      "imagem_original": "https://animefire.plus/img/animes/toaru-majutsu-no-index-tan-ii.webp",
      "imagem_pasta": "https://animefire.plus/img/animes/toaru-majutsu-no-index-tan-ii/",
      "secao": "legendados",
      "pagina": 78,
      "total_episodios": 2,
      "link_video": "https://animefire.plus/video/toaru-majutsu-no-index-tan-ii"
    },
    {
      "id": 3870,
      "nome": "Toaru Majutsu no Index-tan Movie: Endymion no Kiseki - Ga Attari Nakattari",
      "link": "https://animefire.plus/animes/toaru-majutsu-no-index-tan-movie-endymion-no-kiseki---ga-attari-nakattari-todos-os-episodios",
      "texto_original": "Toaru Majutsu no Index-tan Movie: Endymion no Kiseki - Ga Attari Nakattari",
      "rating": 7.11,
      "classificacao_etaria": "A14",
      "imagem_original": "https://animefire.plus/img/animes/toaru-majutsu-no-index-tan-movie-endymion-no-kiseki---ga-attari-nakattari.webp",
      "imagem_pasta": "https://animefire.plus/img/animes/toaru-majutsu-no-index-tan-movie-endymion-no-kiseki---ga-attari-nakattari/",
      "secao": "legendados",
      "pagina": 54,
      "total_episodios": 1,
      "link_video": "https://animefire.plus/video/toaru-majutsu-no-index-tan-movie-endymion-no-kiseki---ga-attari-nakattari"
    },
    {
      "id": 3871,
      "nome": "Toaru Ossan no VRMMO Katsudouki",
      "link": "https://animefire.plus/animes/toaru-ossan-no-vrmmo-katsudouki-todos-os-episodios",
      "texto_original": "Toaru Ossan no VRMMO Katsudouki",
      "rating": 6.39,
      "classificacao_etaria": "A14",
      "imagem_original": "https://animefire.plus/img/animes/toaru-ossan-no-vrmmo-katsudouki.webp",
      "imagem_pasta": "https://animefire.plus/img/animes/toaru-ossan-no-vrmmo-katsudouki/",
      "secao": "legendados",
      "pagina": 20,
      "total_episodios": 12,
      "link_video": "https://animefire.plus/video/toaru-ossan-no-vrmmo-katsudouki"
    },
    {
      "id": 3872,
      "nome": "Togainu no Chi",
      "link": "https://animefire.plus/animes/togainu-no-chi-todos-os-episodios",
      "texto_original": "Togainu no Chi",
      "rating": 6.38,
      "classificacao_etaria": "A16",
      "imagem_original": "https://animefire.plus/img/animes/togainu-no-chi.webp",
      "imagem_pasta": "https://animefire.plus/img/animes/togainu-no-chi/",
      "secao": "legendados",
      "pagina": 175,
      "total_episodios": 12,
      "link_video": "https://animefire.plus/video/togainu-no-chi"
    },
    {
      "id": 3873,
      "nome": "Toji no Miko",
      "link": "https://animefire.plus/animes/toji-no-miko-todos-os-episodios",
      "texto_original": "Toji no Miko",
      "rating": 6.94,
      "classificacao_etaria": "A14",
      "imagem_original": "https://animefire.plus/img/animes/toji-no-miko.webp",
      "imagem_pasta": "https://animefire.plus/img/animes/toji-no-miko/",
      "secao": "legendados",
      "pagina": 175,
      "total_episodios": 25,
      "link_video": "https://animefire.plus/video/toji-no-miko"
    },
    {
      "id": 3874,
      "nome": "Toji no Miko: Kizamishi Issen no Tomoshibi OVA",
      "link": "https://animefire.plus/animes/toji-no-miko-kizamishi-issen-no-tomoshibi-ova-todos-os-episodios",
      "texto_original": "Toji no Miko: Kizamishi Issen no Tomoshibi OVA",
      "rating": 6.61,
      "classificacao_etaria": "A14",
      "imagem_original": "https://animefire.plus/img/animes/toji-no-miko-kizamishi-issen-no-tomoshibi-ova.webp",
      "imagem_pasta": "https://animefire.plus/img/animes/toji-no-miko-kizamishi-issen-no-tomoshibi-ova/",
      "secao": "legendados",
      "pagina": 50,
      "total_episodios": 2,
      "link_video": "https://animefire.plus/video/toji-no-miko-kizamishi-issen-no-tomoshibi-ova"
    },
    {
      "id": 3875,
      "nome": "Toki wa Meguru: Tokyo Station",
      "link": "https://animefire.plus/animes/toki-wa-meguru-tokyo-station-todos-os-episodios",
      "texto_original": "Toki wa Meguru: Tokyo Station",
      "rating": 6.59,
      "classificacao_etaria": null,
      "imagem_original": "https://animefire.plus/img/animes/toki-wa-meguru-tokyo-station.webp",
      "imagem_pasta": "https://animefire.plus/img/animes/toki-wa-meguru-tokyo-station/",
      "secao": "legendados",
      "pagina": 70,
      "total_episodios": 1,
      "link_video": "https://animefire.plus/video/toki-wa-meguru-tokyo-station"
    },
    {
      "id": 3876,
      "nome": "Tokidoki Bosotto Russia-go de Dereru Tonari no Alya-san",
      "link": "https://animefire.plus/animes/tokidoki-bosotto-russia-go-de-dereru-tonari-no-alya-san-todos-os-episodios",
      "texto_original": "Tokidoki Bosotto Russia-go de Dereru Tonari no Alya-san",
      "rating": 7.57,
      "classificacao_etaria": "A14",
      "imagem_original": "https://animefire.plus/img/animes/tokidoki-bosotto-russia-go-de-dereru-tonari-no-alya-san.webp",
      "imagem_pasta": "https://animefire.plus/img/animes/tokidoki-bosotto-russia-go-de-dereru-tonari-no-alya-san/",
      "secao": "legendados",
      "pagina": 13,
      "total_episodios": 12,
      "link_video": "https://animefire.plus/video/tokidoki-bosotto-russia-go-de-dereru-tonari-no-alya-san"
    },
    {
      "id": 3877,
      "nome": "Tokimeki Memorial: Only Love",
      "link": "https://animefire.plus/animes/tokimeki-memorial-only-love-todos-os-episodios",
      "texto_original": "Tokimeki Memorial: Only Love",
      "rating": 7.13,
      "classificacao_etaria": "A14",
      "imagem_original": "https://animefire.plus/img/animes/tokimeki-memorial-only-love.webp",
      "imagem_pasta": "https://animefire.plus/img/animes/tokimeki-memorial-only-love/",
      "secao": "legendados",
      "pagina": 165,
      "total_episodios": 0,
      "link_video": "https://animefire.plus/video/tokimeki-memorial-only-love"
    },
    {
      "id": 3878,
      "nome": "Tokimeki Tonight",
      "link": "https://animefire.plus/animes/tokimeki-tonight-todos-os-episodios",
      "texto_original": "Tokimeki Tonight",
      "rating": 7.35,
      "classificacao_etaria": "A10",
      "imagem_original": "https://animefire.plus/img/animes/tokimeki-tonight.webp",
      "imagem_pasta": "https://animefire.plus/img/animes/tokimeki-tonight/",
      "secao": "legendados",
      "pagina": 149,
      "total_episodios": 34,
      "link_video": "https://animefire.plus/video/tokimeki-tonight"
    },
    {
      "id": 3879,
      "nome": "Tokkou",
      "link": "https://animefire.plus/animes/tokkou-todos-os-episodios",
      "texto_original": "Tokkou",
      "rating": 6.65,
      "classificacao_etaria": "A16",
      "imagem_original": "https://animefire.plus/img/animes/tokkou.webp",
      "imagem_pasta": "https://animefire.plus/img/animes/tokkou/",
      "secao": "legendados",
      "pagina": 150,
      "total_episodios": 13,
      "link_video": "https://animefire.plus/video/tokkou"
    },
    {
      "id": 3880,
      "nome": "Tokyo 24-ku",
      "link": "https://animefire.plus/animes/tokyo-24-ku-todos-os-episodios",
      "texto_original": "Tokyo 24-ku",
      "rating": 6.34,
      "classificacao_etaria": "A14",
      "imagem_original": "https://animefire.plus/img/animes/tokyo-24-ku.webp",
      "imagem_pasta": "https://animefire.plus/img/animes/tokyo-24-ku/",
      "secao": "legendados",
      "pagina": 35,
      "total_episodios": 12,
      "link_video": "https://animefire.plus/video/tokyo-24-ku"
    }
  ],
  "pagination": {
    "current_page": 194,
    "per_page": 20,
    "total_items": 4368,
    "total_pages": 219,
    "has_next": true,
    "has_prev": true
  }
}
