{
  "message": "Lista de animes",
  "data": [
    {
      "id": 3921,
      "nome": "Toriko",
      "link": "https://animefire.plus/animes/toriko-todos-os-episodios",
      "texto_original": "Toriko",
      "rating": 7.61,
      "classificacao_etaria": "A14",
      "imagem_original": "https://animefire.plus/img/animes/toriko.webp",
      "imagem_pasta": "https://animefire.plus/img/animes/toriko/",
      "secao": "legendados",
      "pagina": 74,
      "total_episodios": 18,
      "link_video": "https://animefire.plus/video/toriko"
    },
    {
      "id": 3922,
      "nome": "Toshokan Sensou",
      "link": "https://animefire.plus/animes/toshokan-sensou-todos-os-episodios",
      "texto_original": "Toshokan Sensou",
      "rating": 7.54,
      "classificacao_etaria": "A14",
      "imagem_original": "https://animefire.plus/img/animes/toshokan-sensou.webp",
      "imagem_pasta": "https://animefire.plus/img/animes/toshokan-sensou/",
      "secao": "legendados",
      "pagina": 102,
      "total_episodios": 12,
      "link_video": "https://animefire.plus/video/toshokan-sensou"
    },
    {
      "id": 3923,
      "nome": "Totsukuni no Shoujo",
      "link": "https://animefire.plus/animes/totsukuni-no-shoujo-todos-os-episodios",
      "texto_original": "Totsukuni no Shoujo",
      "rating": 7.5,
      "classificacao_etaria": null,
      "imagem_original": "https://animefire.plus/img/animes/totsukuni-no-shoujo.webp",
      "imagem_pasta": "https://animefire.plus/img/animes/totsukuni-no-shoujo/",
      "secao": "legendados",
      "pagina": 87,
      "total_episodios": 1,
      "link_video": "https://animefire.plus/video/totsukuni-no-shoujo"
    },
    {
      "id": 3924,
      "nome": "Tougen Anki (Dublado)",
      "link": "https://animefire.plus/animes/tougen-anki-dublado-todos-os-episodios",
      "texto_original": "Tougen Anki (Dublado)",
      "rating": 7.04,
      "classificacao_etaria": "A14",
      "imagem_original": "https://animefire.plus/img/animes/tougen-anki.webp",
      "imagem_pasta": "https://animefire.plus/img/animes/tougen-anki/",
      "secao": "dublados,legendados,lancamentos",
      "pagina": 1,
      "total_episodios": 4,
      "link_video": "https://animefire.plus/video/tougen-anki-dublado"
    },
    {
      "id": 3925,
      "nome": "Touhai Densetsu Akagi: Yami ni Maiorita Tensai",
      "link": "https://animefire.plus/animes/touhai-densetsu-akagi-yami-ni-maiorita-tensai-todos-os-episodios",
      "texto_original": "Touhai Densetsu Akagi: Yami ni Maiorita Tensai",
      "rating": 7.98,
      "classificacao_etaria": "A16",
      "imagem_original": "https://animefire.plus/img/animes/touhai-densetsu-akagi-yami-ni-maiorita-tensai.webp",
      "imagem_pasta": "https://animefire.plus/img/animes/touhai-densetsu-akagi-yami-ni-maiorita-tensai/",
      "secao": "legendados",
      "pagina": 169,
      "total_episodios": 26,
      "link_video": "https://animefire.plus/video/touhai-densetsu-akagi-yami-ni-maiorita-tensai"
    },
    {
      "id": 3926,
      "nome": "Touhai: Ura Rate Mahjong Touhai Roku",
      "link": "https://animefire.plus/animes/touhai-ura-rate-mahjong-touhai-roku-todos-os-episodios",
      "texto_original": "Touhai: Ura Rate Mahjong Touhai Roku",
      "rating": 6.62,
      "classificacao_etaria": "A14",
      "imagem_original": "https://animefire.plus/img/animes/touhai-ura-rate-mahjong-touhai-roku.webp",
      "imagem_pasta": "https://animefire.plus/img/animes/touhai-ura-rate-mahjong-touhai-roku/",
      "secao": "legendados,lancamentos",
      "pagina": 10,
      "total_episodios": 5,
      "link_video": "https://animefire.plus/video/touhai-ura-rate-mahjong-touhai-roku"
    },
    {
      "id": 3927,
      "nome": "Touka Gettan",
      "link": "https://animefire.plus/animes/touka-gettan-todos-os-episodios",
      "texto_original": "Touka Gettan",
      "rating": 6.63,
      "classificacao_etaria": "A16",
      "imagem_original": "https://animefire.plus/img/animes/touka-gettan.webp",
      "imagem_pasta": "https://animefire.plus/img/animes/touka-gettan/",
      "secao": "legendados",
      "pagina": 121,
      "total_episodios": 26,
      "link_video": "https://animefire.plus/video/touka-gettan"
    },
    {
      "id": 3928,
      "nome": "Touken Ranbu Kai: Kyoden Moyuru Honnouji",
      "link": "https://animefire.plus/animes/touken-ranbu-kai-kyoden-moyuru-honnouji-todos-os-episodios",
      "texto_original": "Touken Ranbu Kai: Kyoden Moyuru Honnouji",
      "rating": 6.09,
      "classificacao_etaria": "A14",
      "imagem_original": "https://animefire.plus/img/animes/touken-ranbu-kai-kyoden-moyuru-honnouji.webp",
      "imagem_pasta": "https://animefire.plus/img/animes/touken-ranbu-kai-kyoden-moyuru-honnouji/",
      "secao": "legendados",
      "pagina": 14,
      "total_episodios": 8,
      "link_video": "https://animefire.plus/video/touken-ranbu-kai-kyoden-moyuru-honnouji"
    },
    {
      "id": 3929,
      "nome": "Touken Ranbu: Hanamaru",
      "link": "https://animefire.plus/animes/touken-ranbu-hanamaru-todos-os-episodios",
      "texto_original": "Touken Ranbu: Hanamaru",
      "rating": 6.89,
      "classificacao_etaria": "A14",
      "imagem_original": "https://animefire.plus/img/animes/touken-ranbu-hanamaru.webp",
      "imagem_pasta": "https://animefire.plus/img/animes/touken-ranbu-hanamaru/",
      "secao": "legendados",
      "pagina": 106,
      "total_episodios": 12,
      "link_video": "https://animefire.plus/video/touken-ranbu-hanamaru"
    },
    {
      "id": 3930,
      "nome": "Toutotsu ni Egypt Kami",
      "link": "https://animefire.plus/animes/toutotsu-ni-egypt-kami-todos-os-episodios",
      "texto_original": "Toutotsu ni Egypt Kami",
      "rating": null,
      "classificacao_etaria": null,
      "imagem_original": "https://animefire.plus/img/animes/toutotsu-ni-egypt-kami.webp",
      "imagem_pasta": "https://animefire.plus/img/animes/toutotsu-ni-egypt-kami/",
      "secao": "legendados",
      "pagina": 50,
      "total_episodios": 10,
      "link_video": "https://animefire.plus/video/toutotsu-ni-egypt-kami"
    },
    {
      "id": 3931,
      "nome": "Toutotsu ni Egypt Shin 2",
      "link": "https://animefire.plus/animes/toutotsu-ni-egypt-shin-2-todos-os-episodios",
      "texto_original": "Toutotsu ni Egypt Shin 2",
      "rating": 6.62,
      "classificacao_etaria": null,
      "imagem_original": "https://animefire.plus/img/animes/toutotsu-ni-egypt-shin-2.webp",
      "imagem_pasta": "https://animefire.plus/img/animes/toutotsu-ni-egypt-shin-2/",
      "secao": "legendados,lancamentos",
      "pagina": 25,
      "total_episodios": 5,
      "link_video": "https://animefire.plus/video/toutotsu-ni-egypt-shin-2"
    },
    {
      "id": 3932,
      "nome": "Triage X",
      "link": "https://animefire.plus/animes/triage-x-todos-os-episodios",
      "texto_original": "Triage X",
      "rating": 6.36,
      "classificacao_etaria": "A18",
      "imagem_original": "https://animefire.plus/img/animes/triage-x.webp",
      "imagem_pasta": "https://animefire.plus/img/animes/triage-x/",
      "secao": "legendados",
      "pagina": 73,
      "total_episodios": 0,
      "link_video": "https://animefire.plus/video/triage-x"
    },
    {
      "id": 3933,
      "nome": "Tribe Nine (Dublado)",
      "link": "https://animefire.plus/animes/tribe-nine-dublado-todos-os-episodios",
      "texto_original": "Tribe Nine (Dublado)",
      "rating": 6.08,
      "classificacao_etaria": "A16",
      "imagem_original": "https://animefire.plus/img/animes/tribe-nine.webp",
      "imagem_pasta": "https://animefire.plus/img/animes/tribe-nine/",
      "secao": "dublados,legendados",
      "pagina": 12,
      "total_episodios": 12,
      "link_video": "https://animefire.plus/video/tribe-nine-dublado"
    },
    {
      "id": 3934,
      "nome": "Trickster: Edogawa Ranpo \"Shounen Tanteidan\" yori",
      "link": "https://animefire.plus/animes/trickster-edogawa-ranpo-shounen-tanteidan-yori-todos-os-episodios",
      "texto_original": "Trickster: Edogawa Ranpo \"Shounen Tanteidan\" yori",
      "rating": 6.29,
      "classificacao_etaria": "A14",
      "imagem_original": "https://animefire.plus/img/animes/trickster-edogawa-ranpo-shounen-tanteidan-yori.webp",
      "imagem_pasta": "https://animefire.plus/img/animes/trickster-edogawa-ranpo-shounen-tanteidan-yori/",
      "secao": "legendados",
      "pagina": 167,
      "total_episodios": 7,
      "link_video": "https://animefire.plus/video/trickster-edogawa-ranpo-shounen-tanteidan-yori"
    },
    {
      "id": 3935,
      "nome": "Trigun (Dublado)",
      "link": "https://animefire.plus/animes/trigun-dublado-todos-os-episodios",
      "texto_original": "Trigun (Dublado)",
      "rating": 8.25,
      "classificacao_etaria": "A14",
      "imagem_original": "https://animefire.plus/img/animes/trigun.webp",
      "imagem_pasta": "https://animefire.plus/img/animes/trigun/",
      "secao": "dublados,legendados",
      "pagina": 22,
      "total_episodios": 26,
      "link_video": "https://animefire.plus/video/trigun-dublado"
    },
    {
      "id": 3936,
      "nome": "Trigun Stampede (Dublado)",
      "link": "https://animefire.plus/animes/trigun-stampede-dublado-todos-os-episodios",
      "texto_original": "Trigun Stampede (Dublado)",
      "rating": 7.83,
      "classificacao_etaria": "A14",
      "imagem_original": "https://animefire.plus/img/animes/trigun-stampede.webp",
      "imagem_pasta": "https://animefire.plus/img/animes/trigun-stampede/",
      "secao": "dublados,legendados",
      "pagina": 7,
      "total_episodios": 12,
      "link_video": "https://animefire.plus/video/trigun-stampede-dublado"
    },
    {
      "id": 3937,
      "nome": "Trillion Game",
      "link": "https://animefire.plus/animes/trillion-game-todos-os-episodios",
      "texto_original": "Trillion Game",
      "rating": 7.56,
      "classificacao_etaria": "A14",
      "imagem_original": "https://animefire.plus/img/animes/trillion-game.webp",
      "imagem_pasta": "https://animefire.plus/img/animes/trillion-game/",
      "secao": "legendados",
      "pagina": 9,
      "total_episodios": 26,
      "link_video": "https://animefire.plus/video/trillion-game"
    },
    {
      "id": 3938,
      "nome": "Trinity Seven",
      "link": "https://animefire.plus/animes/trinity-seven-todos-os-episodios",
      "texto_original": "Trinity Seven",
      "rating": 7.37,
      "classificacao_etaria": "A14",
      "imagem_original": "https://animefire.plus/img/animes/trinity-seven.webp",
      "imagem_pasta": "https://animefire.plus/img/animes/trinity-seven/",
      "secao": "legendados",
      "pagina": 100,
      "total_episodios": 12,
      "link_video": "https://animefire.plus/video/trinity-seven"
    },
    {
      "id": 3939,
      "nome": "Tropical-Rouge! Precure",
      "link": "https://animefire.plus/animes/tropical-rouge-precure-todos-os-episodios",
      "texto_original": "Tropical-Rouge! Precure",
      "rating": 7.4,
      "classificacao_etaria": null,
      "imagem_original": "https://animefire.plus/img/animes/tropical-rouge-precure.webp",
      "imagem_pasta": "https://animefire.plus/img/animes/tropical-rouge-precure/",
      "secao": "legendados",
      "pagina": 48,
      "total_episodios": 18,
      "link_video": "https://animefire.plus/video/tropical-rouge-precure"
    },
    {
      "id": 3940,
      "nome": "True Tears",
      "link": "https://animefire.plus/animes/true-tears-todos-os-episodios",
      "texto_original": "True Tears",
      "rating": 7.45,
      "classificacao_etaria": "A14",
      "imagem_original": "https://animefire.plus/img/animes/true-tears.webp",
      "imagem_pasta": "https://animefire.plus/img/animes/true-tears/",
      "secao": "legendados",
      "pagina": 168,
      "total_episodios": 13,
      "link_video": "https://animefire.plus/video/true-tears"
    }
  ],
  "pagination": {
    "current_page": 197,
    "per_page": 20,
    "total_items": 4368,
    "total_pages": 219,
    "has_next": true,
    "has_prev": true
  }
}
