{
  "message": "Lista de animes",
  "data": [
    {
      "id": 921,
      "nome": "Edomae Elf",
      "link": "https://animefire.plus/animes/edomae-elf-todos-os-episodios",
      "texto_original": "Edomae Elf",
      "rating": 7.25,
      "classificacao_etaria": "A14",
      "imagem_original": "https://animefire.plus/img/animes/edomae-elf.jpg",
      "imagem_pasta": "https://animefire.plus/img/animes/edomae-elf/",
      "secao": "legendados",
      "pagina": 23,
      "total_episodios": 12,
      "link_video": "https://animefire.plus/video/edomae-elf"
    },
    {
      "id": 922,
      "nome": "ef: A Tale of Melodies.",
      "link": "https://animefire.plus/animes/ef-a-tale-of-melodies-todos-os-episodios",
      "texto_original": "ef: A Tale of Melodies.",
      "rating": 8.09,
      "classificacao_etaria": "A14",
      "imagem_original": "https://animefire.plus/img/animes/ef-a-tale-of-melodies.webp",
      "imagem_pasta": "https://animefire.plus/img/animes/ef-a-tale-of-melodies/",
      "secao": "legendados",
      "pagina": 168,
      "total_episodios": 12,
      "link_video": "https://animefire.plus/video/ef-a-tale-of-melodies"
    },
    {
      "id": 923,
      "nome": "ef: A Tale of Memories.",
      "link": "https://animefire.plus/animes/ef-a-tale-of-memories-todos-os-episodios",
      "texto_original": "ef: A Tale of Memories.",
      "rating": 8.02,
      "classificacao_etaria": "A14",
      "imagem_original": "https://animefire.plus/img/animes/ef-a-tale-of-memories.webp",
      "imagem_pasta": "https://animefire.plus/img/animes/ef-a-tale-of-memories/",
      "secao": "legendados",
      "pagina": 173,
      "total_episodios": 12,
      "link_video": "https://animefire.plus/video/ef-a-tale-of-memories"
    },
    {
      "id": 924,
      "nome": "Egao no Daika",
      "link": "https://animefire.plus/animes/egao-no-daika-todos-os-episodios",
      "texto_original": "Egao no Daika",
      "rating": 6.06,
      "classificacao_etaria": "A14",
      "imagem_original": "https://animefire.plus/img/animes/egao-no-daika.webp",
      "imagem_pasta": "https://animefire.plus/img/animes/egao-no-daika/",
      "secao": "legendados",
      "pagina": 98,
      "total_episodios": 12,
      "link_video": "https://animefire.plus/video/egao-no-daika"
    },
    {
      "id": 925,
      "nome": "Eightman After (Dublado)",
      "link": "https://animefire.plus/animes/eightman-after-dublado-todos-os-episodios",
      "texto_original": "Eightman After (Dublado)",
      "rating": 6.3,
      "classificacao_etaria": "A16",
      "imagem_original": "https://animefire.plus/img/animes/eightman-after.webp",
      "imagem_pasta": "https://animefire.plus/img/animes/eightman-after/",
      "secao": "dublados",
      "pagina": 27,
      "total_episodios": 4,
      "link_video": "https://animefire.plus/video/eightman-after-dublado"
    },
    {
      "id": 926,
      "nome": "Eikoku Koi Monogatari Emma",
      "link": "https://animefire.plus/animes/eikoku-koi-monogatari-emma-todos-os-episodios",
      "texto_original": "Eikoku Koi Monogatari Emma",
      "rating": 7.68,
      "classificacao_etaria": null,
      "imagem_original": "https://animefire.plus/img/animes/eikoku-koi-monogatari-emma.webp",
      "imagem_pasta": "https://animefire.plus/img/animes/eikoku-koi-monogatari-emma/",
      "secao": "legendados",
      "pagina": 55,
      "total_episodios": 12,
      "link_video": "https://animefire.plus/video/eikoku-koi-monogatari-emma"
    },
    {
      "id": 927,
      "nome": "Eikoku Koi Monogatari Emma: Molders-hen",
      "link": "https://animefire.plus/animes/eikoku-koi-monogatari-emma-molders-hen-todos-os-episodios",
      "texto_original": "Eikoku Koi Monogatari Emma: Molders-hen",
      "rating": 7.89,
      "classificacao_etaria": null,
      "imagem_original": "https://animefire.plus/img/animes/eikoku-koi-monogatari-emma-molders-hen.webp",
      "imagem_pasta": "https://animefire.plus/img/animes/eikoku-koi-monogatari-emma-molders-hen/",
      "secao": "legendados",
      "pagina": 56,
      "total_episodios": 13,
      "link_video": "https://animefire.plus/video/eikoku-koi-monogatari-emma-molders-hen"
    },
    {
      "id": 928,
      "nome": "Eiyuu Kyoushitsu (Dublado)",
      "link": "https://animefire.plus/animes/eiyuu-kyoushitsu-dublado-todos-os-episodios",
      "texto_original": "Eiyuu Kyoushitsu (Dublado)",
      "rating": 6.05,
      "classificacao_etaria": "A14",
      "imagem_original": "https://animefire.plus/img/animes/eiyuu-kyoushitsu.webp",
      "imagem_pasta": "https://animefire.plus/img/animes/eiyuu-kyoushitsu/",
      "secao": "dublados,legendados,lancamentos",
      "pagina": 6,
      "total_episodios": 12,
      "link_video": "https://animefire.plus/video/eiyuu-kyoushitsu-dublado"
    },
    {
      "id": 929,
      "nome": "Eiyuuou, Bu wo Kiwameru Tame Tenseisu: Soshite, Sekai Saikyou no Minarai Kishi♀",
      "link": "https://animefire.plus/animes/eiyuuou-bu-wo-kiwameru-tame-tenseisu-soshite-sekai-saikyou-no-minarai-kishi-todos-os-episodios",
      "texto_original": "Eiyuuou, Bu wo Kiwameru Tame Tenseisu: Soshite, Sekai Saikyou no Minarai Kishi♀",
      "rating": 6.56,
      "classificacao_etaria": "A14",
      "imagem_original": "https://animefire.plus/img/animes/eiyuuou-bu-wo-kiwameru-tame-tenseisu-soshite-sekai-saikyou-no-minarai-kishi.webp",
      "imagem_pasta": "https://animefire.plus/img/animes/eiyuuou-bu-wo-kiwameru-tame-tenseisu-soshite-sekai-saikyou-no-minarai-kishi/",
      "secao": "legendados",
      "pagina": 27,
      "total_episodios": 12,
      "link_video": "https://animefire.plus/video/eiyuuou-bu-wo-kiwameru-tame-tenseisu-soshite-sekai-saikyou-no-minarai-kishi"
    },
    {
      "id": 930,
      "nome": "Eizouken ni wa Te wo Dasu na! (Dublado)",
      "link": "https://animefire.plus/animes/eizouken-ni-wa-te-wo-dasu-na-dublado-todos-os-episodios",
      "texto_original": "Eizouken ni wa Te wo Dasu na! (Dublado)",
      "rating": 8.14,
      "classificacao_etaria": "A14",
      "imagem_original": "https://animefire.plus/img/animes/eizouken-ni-wa-te-wo-dasu-na.webp",
      "imagem_pasta": "https://animefire.plus/img/animes/eizouken-ni-wa-te-wo-dasu-na/",
      "secao": "dublados,legendados",
      "pagina": 12,
      "total_episodios": 12,
      "link_video": "https://animefire.plus/video/eizouken-ni-wa-te-wo-dasu-na-dublado"
    },
    {
      "id": 931,
      "nome": "El Cazador de la Bruja",
      "link": "https://animefire.plus/animes/el-cazador-de-la-bruja-todos-os-episodios",
      "texto_original": "El Cazador de la Bruja",
      "rating": 7.28,
      "classificacao_etaria": "A14",
      "imagem_original": "https://animefire.plus/img/animes/el-cazador-de-la-bruja.webp",
      "imagem_pasta": "https://animefire.plus/img/animes/el-cazador-de-la-bruja/",
      "secao": "legendados",
      "pagina": 113,
      "total_episodios": 26,
      "link_video": "https://animefire.plus/video/el-cazador-de-la-bruja"
    },
    {
      "id": 932,
      "nome": "El Hazard 2: The Magnificent World",
      "link": "https://animefire.plus/animes/el-hazard-2-the-magnificent-world-todos-os-episodios",
      "texto_original": "El Hazard 2: The Magnificent World",
      "rating": 6.86,
      "classificacao_etaria": "A14",
      "imagem_original": "https://animefire.plus/img/animes/el-hazard-2-the-magnificent-world.webp",
      "imagem_pasta": "https://animefire.plus/img/animes/el-hazard-2-the-magnificent-world/",
      "secao": "legendados",
      "pagina": 63,
      "total_episodios": 1,
      "link_video": "https://animefire.plus/video/el-hazard-2-the-magnificent-world"
    },
    {
      "id": 933,
      "nome": "El Hazard: The Alternative World",
      "link": "https://animefire.plus/animes/el-hazard-the-alternative-world-todos-os-episodios",
      "texto_original": "El Hazard: The Alternative World",
      "rating": 6.89,
      "classificacao_etaria": "A14",
      "imagem_original": "https://animefire.plus/img/animes/el-hazard-the-alternative-world.webp",
      "imagem_pasta": "https://animefire.plus/img/animes/el-hazard-the-alternative-world/",
      "secao": "legendados",
      "pagina": 99,
      "total_episodios": 13,
      "link_video": "https://animefire.plus/video/el-hazard-the-alternative-world"
    },
    {
      "id": 934,
      "nome": "El Hazard: The Magnificent World",
      "link": "https://animefire.plus/animes/el-hazard-the-magnificent-world-todos-os-episodios",
      "texto_original": "El Hazard: The Magnificent World",
      "rating": 7.34,
      "classificacao_etaria": "A14",
      "imagem_original": "https://animefire.plus/img/animes/el-hazard-the-magnificent-world.webp",
      "imagem_pasta": "https://animefire.plus/img/animes/el-hazard-the-magnificent-world/",
      "secao": "legendados",
      "pagina": 63,
      "total_episodios": 7,
      "link_video": "https://animefire.plus/video/el-hazard-the-magnificent-world"
    },
    {
      "id": 935,
      "nome": "El Hazard: The Wanderers",
      "link": "https://animefire.plus/animes/el-hazard-the-wanderers-todos-os-episodios",
      "texto_original": "El Hazard: The Wanderers",
      "rating": 7.04,
      "classificacao_etaria": "A14",
      "imagem_original": "https://animefire.plus/img/animes/el-hazard-the-wanderers.webp",
      "imagem_pasta": "https://animefire.plus/img/animes/el-hazard-the-wanderers/",
      "secao": "legendados",
      "pagina": 95,
      "total_episodios": 0,
      "link_video": "https://animefire.plus/video/el-hazard-the-wanderers"
    },
    {
      "id": 936,
      "nome": "ēlDLIVE",
      "link": "https://animefire.plus/animes/eldlive-todos-os-episodios",
      "texto_original": "ēlDLIVE",
      "rating": 6.25,
      "classificacao_etaria": "A14",
      "imagem_original": "https://animefire.plus/img/animes/eldlive.webp",
      "imagem_pasta": "https://animefire.plus/img/animes/eldlive/",
      "secao": "legendados",
      "pagina": 154,
      "total_episodios": 1,
      "link_video": "https://animefire.plus/video/eldlive"
    },
    {
      "id": 937,
      "nome": "Element Hunters",
      "link": "https://animefire.plus/animes/element-hunters-todos-os-episodios",
      "texto_original": "Element Hunters",
      "rating": 6.69,
      "classificacao_etaria": null,
      "imagem_original": "https://animefire.plus/img/animes/element-hunters.webp",
      "imagem_pasta": "https://animefire.plus/img/animes/element-hunters/",
      "secao": "legendados",
      "pagina": 167,
      "total_episodios": 13,
      "link_video": "https://animefire.plus/video/element-hunters"
    },
    {
      "id": 938,
      "nome": "Elf wo Karu Mono-tachi",
      "link": "https://animefire.plus/animes/elf-wo-karu-mono-tachi-todos-os-episodios",
      "texto_original": "Elf wo Karu Mono-tachi",
      "rating": 7.08,
      "classificacao_etaria": "A14",
      "imagem_original": "https://animefire.plus/img/animes/elf-wo-karu-mono-tachi.webp",
      "imagem_pasta": "https://animefire.plus/img/animes/elf-wo-karu-mono-tachi/",
      "secao": "legendados",
      "pagina": 142,
      "total_episodios": 0,
      "link_video": "https://animefire.plus/video/elf-wo-karu-mono-tachi"
    },
    {
      "id": 939,
      "nome": "Elf wo Karu Mono-tachi II",
      "link": "https://animefire.plus/animes/elf-wo-karu-mono-tachi-ii-todos-os-episodios",
      "texto_original": "Elf wo Karu Mono-tachi II",
      "rating": 7.11,
      "classificacao_etaria": "A14",
      "imagem_original": "https://animefire.plus/img/animes/elf-wo-karu-mono-tachi-ii.webp",
      "imagem_pasta": "https://animefire.plus/img/animes/elf-wo-karu-mono-tachi-ii/",
      "secao": "legendados",
      "pagina": 172,
      "total_episodios": 0,
      "link_video": "https://animefire.plus/video/elf-wo-karu-mono-tachi-ii"
    },
    {
      "id": 940,
      "nome": "Elf-san wa Yaserarenai.",
      "link": "https://animefire.plus/animes/elf-san-wa-yaserarenai-todos-os-episodios",
      "texto_original": "Elf-san wa Yaserarenai.",
      "rating": 5.6,
      "classificacao_etaria": "A18",
      "imagem_original": "https://animefire.plus/img/animes/elf-san-wa-yaserarenai.webp",
      "imagem_pasta": "https://animefire.plus/img/animes/elf-san-wa-yaserarenai/",
      "secao": "legendados",
      "pagina": 12,
      "total_episodios": 12,
      "link_video": "https://animefire.plus/video/elf-san-wa-yaserarenai"
    }
  ],
  "pagination": {
    "current_page": 47,
    "per_page": 20,
    "total_items": 4368,
    "total_pages": 219,
    "has_next": true,
    "has_prev": true
  }
}
