{
  "message": "Lista de animes",
  "data": [
    {
      "id": 3701,
      "nome": "Sword Gai: The Animation Part II",
      "link": "https://animefire.plus/animes/sword-gai-the-animation-part-ii-todos-os-episodios",
      "texto_original": "Sword Gai: The Animation Part II",
      "rating": 6.07,
      "classificacao_etaria": "A16",
      "imagem_original": "https://animefire.plus/img/animes/sword-gai-the-animation-part-ii.webp",
      "imagem_pasta": "https://animefire.plus/img/animes/sword-gai-the-animation-part-ii/",
      "secao": "legendados",
      "pagina": 124,
      "total_episodios": 12,
      "link_video": "https://animefire.plus/video/sword-gai-the-animation-part-ii"
    },
    {
      "id": 3702,
      "nome": "Synduality: Noir",
      "link": "https://animefire.plus/animes/synduality-noir-todos-os-episodios",
      "texto_original": "Synduality: Noir",
      "rating": 6.81,
      "classificacao_etaria": "A14",
      "imagem_original": "https://animefire.plus/img/animes/synduality-noir.webp",
      "imagem_pasta": "https://animefire.plus/img/animes/synduality-noir/",
      "secao": "legendados,lancamentos",
      "pagina": 22,
      "total_episodios": 11,
      "link_video": "https://animefire.plus/video/synduality-noir"
    },
    {
      "id": 3703,
      "nome": "Synduality: Noir Part 2",
      "link": "https://animefire.plus/animes/synduality-noir-part-2-todos-os-episodios",
      "texto_original": "Synduality: Noir Part 2",
      "rating": 7.06,
      "classificacao_etaria": "A14",
      "imagem_original": "https://animefire.plus/img/animes/synduality-noir-part-2.webp",
      "imagem_pasta": "https://animefire.plus/img/animes/synduality-noir-part-2/",
      "secao": "legendados",
      "pagina": 16,
      "total_episodios": 12,
      "link_video": "https://animefire.plus/video/synduality-noir-part-2"
    },
    {
      "id": 3704,
      "nome": "Taboo Tattoo",
      "link": "https://animefire.plus/animes/taboo-tattoo-todos-os-episodios",
      "texto_original": "Taboo Tattoo",
      "rating": 5.93,
      "classificacao_etaria": "A16",
      "imagem_original": "https://animefire.plus/img/animes/taboo-tattoo.webp",
      "imagem_pasta": "https://animefire.plus/img/animes/taboo-tattoo/",
      "secao": "legendados",
      "pagina": 104,
      "total_episodios": 12,
      "link_video": "https://animefire.plus/video/taboo-tattoo"
    },
    {
      "id": 3705,
      "nome": "Tachibanakan Triangle",
      "link": "https://animefire.plus/animes/tachibanakan-triangle-todos-os-episodios",
      "texto_original": "Tachibanakan Triangle",
      "rating": 5.63,
      "classificacao_etaria": "A18",
      "imagem_original": "https://animefire.plus/img/animes/tachibanakan-triangle.webp",
      "imagem_pasta": "https://animefire.plus/img/animes/tachibanakan-triangle/",
      "secao": "legendados",
      "pagina": 156,
      "total_episodios": 12,
      "link_video": "https://animefire.plus/video/tachibanakan-triangle"
    },
    {
      "id": 3706,
      "nome": "Tactical Roar",
      "link": "https://animefire.plus/animes/tactical-roar-todos-os-episodios",
      "texto_original": "Tactical Roar",
      "rating": 6.49,
      "classificacao_etaria": "A14",
      "imagem_original": "https://animefire.plus/img/animes/tactical-roar.webp",
      "imagem_pasta": "https://animefire.plus/img/animes/tactical-roar/",
      "secao": "legendados",
      "pagina": 158,
      "total_episodios": 13,
      "link_video": "https://animefire.plus/video/tactical-roar"
    },
    {
      "id": 3707,
      "nome": "Tactics",
      "link": "https://animefire.plus/animes/tactics-todos-os-episodios",
      "texto_original": "Tactics",
      "rating": 7.28,
      "classificacao_etaria": "A14",
      "imagem_original": "https://animefire.plus/img/animes/tactics.webp",
      "imagem_pasta": "https://animefire.plus/img/animes/tactics/",
      "secao": "legendados",
      "pagina": 142,
      "total_episodios": 25,
      "link_video": "https://animefire.plus/video/tactics"
    },
    {
      "id": 3708,
      "nome": "Tada-kun wa Koi wo Shinai",
      "link": "https://animefire.plus/animes/tada-kun-wa-koi-wo-shinai-todos-os-episodios",
      "texto_original": "Tada-kun wa Koi wo Shinai",
      "rating": 7.6,
      "classificacao_etaria": "A14",
      "imagem_original": "https://animefire.plus/img/animes/tada-kun-wa-koi-wo-shinai.webp",
      "imagem_pasta": "https://animefire.plus/img/animes/tada-kun-wa-koi-wo-shinai/",
      "secao": "legendados",
      "pagina": 160,
      "total_episodios": 14,
      "link_video": "https://animefire.plus/video/tada-kun-wa-koi-wo-shinai"
    },
    {
      "id": 3709,
      "nome": "Tadaima, Okaeri",
      "link": "https://animefire.plus/animes/tadaima-okaeri-todos-os-episodios",
      "texto_original": "Tadaima, Okaeri",
      "rating": 7.74,
      "classificacao_etaria": "A14",
      "imagem_original": "https://animefire.plus/img/animes/tadaima-okaeri.webp",
      "imagem_pasta": "https://animefire.plus/img/animes/tadaima-okaeri/",
      "secao": "legendados",
      "pagina": 14,
      "total_episodios": 12,
      "link_video": "https://animefire.plus/video/tadaima-okaeri"
    },
    {
      "id": 3710,
      "nome": "Taiho Shichau zo",
      "link": "https://animefire.plus/animes/taiho-shichau-zo-todos-os-episodios",
      "texto_original": "Taiho Shichau zo",
      "rating": 7.46,
      "classificacao_etaria": "A14",
      "imagem_original": "https://animefire.plus/img/animes/taiho-shichau-zo.webp",
      "imagem_pasta": "https://animefire.plus/img/animes/taiho-shichau-zo/",
      "secao": "legendados",
      "pagina": 42,
      "total_episodios": 4,
      "link_video": "https://animefire.plus/video/taiho-shichau-zo"
    },
    {
      "id": 3711,
      "nome": "Taiho Shichau zo (TV)",
      "link": "https://animefire.plus/animes/taiho-shichau-zo-tv-todos-os-episodios",
      "texto_original": "Taiho Shichau zo (TV)",
      "rating": 7.54,
      "classificacao_etaria": "A14",
      "imagem_original": "https://animefire.plus/img/animes/taiho-shichau-zo-tv.webp",
      "imagem_pasta": "https://animefire.plus/img/animes/taiho-shichau-zo-tv/",
      "secao": "legendados",
      "pagina": 56,
      "total_episodios": 47,
      "link_video": "https://animefire.plus/video/taiho-shichau-zo-tv"
    },
    {
      "id": 3712,
      "nome": "Taiho Shichau zo: Second Season",
      "link": "https://animefire.plus/animes/taiho-shichau-zo-second-season-todos-os-episodios",
      "texto_original": "Taiho Shichau zo: Second Season",
      "rating": 7.41,
      "classificacao_etaria": "A14",
      "imagem_original": "https://animefire.plus/img/animes/taiho-shichau-zo-second-season.webp",
      "imagem_pasta": "https://animefire.plus/img/animes/taiho-shichau-zo-second-season/",
      "secao": "legendados",
      "pagina": 44,
      "total_episodios": 26,
      "link_video": "https://animefire.plus/video/taiho-shichau-zo-second-season"
    },
    {
      "id": 3713,
      "nome": "Taimadou Gakuen 35 Shiken Shoutai",
      "link": "https://animefire.plus/animes/taimadou-gakuen-35-shiken-shoutai-todos-os-episodios",
      "texto_original": "Taimadou Gakuen 35 Shiken Shoutai",
      "rating": 7.03,
      "classificacao_etaria": "A16",
      "imagem_original": "https://animefire.plus/img/animes/taimadou-gakuen-35-shiken-shoutai.webp",
      "imagem_pasta": "https://animefire.plus/img/animes/taimadou-gakuen-35-shiken-shoutai/",
      "secao": "legendados",
      "pagina": 144,
      "total_episodios": 12,
      "link_video": "https://animefire.plus/video/taimadou-gakuen-35-shiken-shoutai"
    },
    {
      "id": 3714,
      "nome": "Taishou Mebiusline: Chicchai-san",
      "link": "https://animefire.plus/animes/taishou-mebiusline-chicchai-san-todos-os-episodios",
      "texto_original": "Taishou Mebiusline: Chicchai-san",
      "rating": 4.74,
      "classificacao_etaria": "A14",
      "imagem_original": "https://animefire.plus/img/animes/taishou-mebiusline-chicchai-san.webp",
      "imagem_pasta": "https://animefire.plus/img/animes/taishou-mebiusline-chicchai-san/",
      "secao": "legendados",
      "pagina": 63,
      "total_episodios": 11,
      "link_video": "https://animefire.plus/video/taishou-mebiusline-chicchai-san"
    },
    {
      "id": 3715,
      "nome": "Taishou Otome Otogibanashi",
      "link": "https://animefire.plus/animes/taishou-otome-otogibanashi-todos-os-episodios",
      "texto_original": "Taishou Otome Otogibanashi",
      "rating": 7.79,
      "classificacao_etaria": "A14",
      "imagem_original": "https://animefire.plus/img/animes/taishou-otome-otogibanashi.webp",
      "imagem_pasta": "https://animefire.plus/img/animes/taishou-otome-otogibanashi/",
      "secao": "legendados",
      "pagina": 38,
      "total_episodios": 12,
      "link_video": "https://animefire.plus/video/taishou-otome-otogibanashi"
    },
    {
      "id": 3716,
      "nome": "Taishou Yakyuu Musume.",
      "link": "https://animefire.plus/animes/taishou-yakyuu-musume-todos-os-episodios",
      "texto_original": "Taishou Yakyuu Musume.",
      "rating": 7.38,
      "classificacao_etaria": "A14",
      "imagem_original": "https://animefire.plus/img/animes/taishou-yakyuu-musume.webp",
      "imagem_pasta": "https://animefire.plus/img/animes/taishou-yakyuu-musume/",
      "secao": "legendados",
      "pagina": 146,
      "total_episodios": 12,
      "link_video": "https://animefire.plus/video/taishou-yakyuu-musume"
    },
    {
      "id": 3717,
      "nome": "Taisou Zamurai",
      "link": "https://animefire.plus/animes/taisou-zamurai-todos-os-episodios",
      "texto_original": "Taisou Zamurai",
      "rating": null,
      "classificacao_etaria": "A14",
      "imagem_original": "https://animefire.plus/img/animes/taisou-zamurai.webp",
      "imagem_pasta": "https://animefire.plus/img/animes/taisou-zamurai/",
      "secao": "legendados",
      "pagina": 51,
      "total_episodios": 11,
      "link_video": "https://animefire.plus/video/taisou-zamurai"
    },
    {
      "id": 3718,
      "nome": "Takarajima",
      "link": "https://animefire.plus/animes/takarajima-todos-os-episodios",
      "texto_original": "Takarajima",
      "rating": 7.95,
      "classificacao_etaria": "A14",
      "imagem_original": "https://animefire.plus/img/animes/takarajima.webp",
      "imagem_pasta": "https://animefire.plus/img/animes/takarajima/",
      "secao": "legendados",
      "pagina": 77,
      "total_episodios": 26,
      "link_video": "https://animefire.plus/video/takarajima"
    },
    {
      "id": 3719,
      "nome": "Takarajima Memorial: Yuunagi to Yobareta Otoko",
      "link": "https://animefire.plus/animes/takarajima-memorial-yuunagi-to-yobareta-otoko-todos-os-episodios",
      "texto_original": "Takarajima Memorial: Yuunagi to Yobareta Otoko",
      "rating": 6.56,
      "classificacao_etaria": null,
      "imagem_original": "https://animefire.plus/img/animes/takarajima-memorial-yuunagi-to-yobareta-otoko.webp",
      "imagem_pasta": "https://animefire.plus/img/animes/takarajima-memorial-yuunagi-to-yobareta-otoko/",
      "secao": "legendados",
      "pagina": 78,
      "total_episodios": 1,
      "link_video": "https://animefire.plus/video/takarajima-memorial-yuunagi-to-yobareta-otoko"
    },
    {
      "id": 3720,
      "nome": "Takopii no Genzai",
      "link": "https://animefire.plus/animes/takopii-no-genzai-todos-os-episodios",
      "texto_original": "Takopii no Genzai",
      "rating": 8.99,
      "classificacao_etaria": "A14",
      "imagem_original": "https://animefire.plus/img/animes/takopii-no-genzai.webp",
      "imagem_pasta": "https://animefire.plus/img/animes/takopii-no-genzai/",
      "secao": "legendados,lancamentos",
      "pagina": 1,
      "total_episodios": 6,
      "link_video": "https://animefire.plus/video/takopii-no-genzai"
    }
  ],
  "pagination": {
    "current_page": 186,
    "per_page": 20,
    "total_items": 4368,
    "total_pages": 219,
    "has_next": true,
    "has_prev": true
  }
}
