{
  "message": "Lista de animes",
  "data": [
    {
      "id": 3241,
      "nome": "Salaryman ga Isekai ni Ittara Shitennou ni Natta Hanashi",
      "link": "https://animefire.plus/animes/salaryman-ga-isekai-ni-ittara-shitennou-ni-natta-hanashi-todos-os-episodios",
      "texto_original": "Salaryman ga Isekai ni Ittara Shitennou ni Natta Hanashi",
      "rating": 6.59,
      "classificacao_etaria": "A14",
      "imagem_original": "https://animefire.plus/img/animes/salaryman-ga-isekai-ni-ittara-shitennou-ni-natta-hanashi.webp",
      "imagem_pasta": "https://animefire.plus/img/animes/salaryman-ga-isekai-ni-ittara-shitennou-ni-natta-hanashi/",
      "secao": "legendados",
      "pagina": 8,
      "total_episodios": 12,
      "link_video": "https://animefire.plus/video/salaryman-ga-isekai-ni-ittara-shitennou-ni-natta-hanashi"
    },
    {
      "id": 3242,
      "nome": "Samurai 7",
      "link": "https://animefire.plus/animes/samurai-7-todos-os-episodios",
      "texto_original": "Samurai 7",
      "rating": 7.55,
      "classificacao_etaria": "A14",
      "imagem_original": "https://animefire.plus/img/animes/samurai-7.webp",
      "imagem_pasta": "https://animefire.plus/img/animes/samurai-7/",
      "secao": "legendados",
      "pagina": 112,
      "total_episodios": 25,
      "link_video": "https://animefire.plus/video/samurai-7"
    },
    {
      "id": 3243,
      "nome": "Samurai Champloo (Dublado)",
      "link": "https://animefire.plus/animes/samurai-champloo-dublado-todos-os-episodios",
      "texto_original": "Samurai Champloo (Dublado)",
      "rating": 8.5,
      "classificacao_etaria": "A16",
      "imagem_original": "https://animefire.plus/img/animes/samurai-champloo.webp",
      "imagem_pasta": "https://animefire.plus/img/animes/samurai-champloo/",
      "secao": "dublados,legendados",
      "pagina": 25,
      "total_episodios": 26,
      "link_video": "https://animefire.plus/video/samurai-champloo-dublado"
    },
    {
      "id": 3244,
      "nome": "Samurai Deeper Kyou",
      "link": "https://animefire.plus/animes/samurai-deeper-kyou-todos-os-episodios",
      "texto_original": "Samurai Deeper Kyou",
      "rating": 6.98,
      "classificacao_etaria": "A14",
      "imagem_original": "https://animefire.plus/img/animes/samurai-deeper-kyou.webp",
      "imagem_pasta": "https://animefire.plus/img/animes/samurai-deeper-kyou/",
      "secao": "legendados",
      "pagina": 120,
      "total_episodios": 26,
      "link_video": "https://animefire.plus/video/samurai-deeper-kyou"
    },
    {
      "id": 3245,
      "nome": "Samurai Flamenco",
      "link": "https://animefire.plus/animes/samurai-flamenco-todos-os-episodios",
      "texto_original": "Samurai Flamenco",
      "rating": 6.92,
      "classificacao_etaria": "A16",
      "imagem_original": "https://animefire.plus/img/animes/samurai-flamenco.webp",
      "imagem_pasta": "https://animefire.plus/img/animes/samurai-flamenco/",
      "secao": "legendados",
      "pagina": 65,
      "total_episodios": 22,
      "link_video": "https://animefire.plus/video/samurai-flamenco"
    },
    {
      "id": 3246,
      "nome": "Samurai Girl Real Bout High School",
      "link": "https://animefire.plus/animes/samurai-girl-real-bout-high-school-todos-os-episodios",
      "texto_original": "Samurai Girl Real Bout High School",
      "rating": 6.01,
      "classificacao_etaria": "A14",
      "imagem_original": "https://animefire.plus/img/animes/samurai-girl-real-bout-high-school.webp",
      "imagem_pasta": "https://animefire.plus/img/animes/samurai-girl-real-bout-high-school/",
      "secao": "legendados",
      "pagina": 131,
      "total_episodios": 13,
      "link_video": "https://animefire.plus/video/samurai-girl-real-bout-high-school"
    },
    {
      "id": 3247,
      "nome": "Samurai Gun",
      "link": "https://animefire.plus/animes/samurai-gun-todos-os-episodios",
      "texto_original": "Samurai Gun",
      "rating": 6.07,
      "classificacao_etaria": "A16",
      "imagem_original": "https://animefire.plus/img/animes/samurai-gun.webp",
      "imagem_pasta": "https://animefire.plus/img/animes/samurai-gun/",
      "secao": "legendados",
      "pagina": 124,
      "total_episodios": 12,
      "link_video": "https://animefire.plus/video/samurai-gun"
    },
    {
      "id": 3248,
      "nome": "Samurai Gun Special",
      "link": "https://animefire.plus/animes/samurai-gun-special-todos-os-episodios",
      "texto_original": "Samurai Gun Special",
      "rating": 5.94,
      "classificacao_etaria": "A16",
      "imagem_original": "https://animefire.plus/img/animes/samurai-gun-special.webp",
      "imagem_pasta": "https://animefire.plus/img/animes/samurai-gun-special/",
      "secao": "legendados",
      "pagina": 82,
      "total_episodios": 1,
      "link_video": "https://animefire.plus/video/samurai-gun-special"
    },
    {
      "id": 3249,
      "nome": "Sand Land: The Series",
      "link": "https://animefire.plus/animes/sand-land-the-series-todos-os-episodios",
      "texto_original": "Sand Land: The Series",
      "rating": 7.56,
      "classificacao_etaria": "A14",
      "imagem_original": "https://animefire.plus/img/animes/sand-land-the-series.webp",
      "imagem_pasta": "https://animefire.plus/img/animes/sand-land-the-series/",
      "secao": "legendados,lancamentos",
      "pagina": 15,
      "total_episodios": 1,
      "link_video": "https://animefire.plus/video/sand-land-the-series"
    },
    {
      "id": 3250,
      "nome": "Sanjougattai Transformers Go!",
      "link": "https://animefire.plus/animes/sanjougattai-transformers-go-todos-os-episodios",
      "texto_original": "Sanjougattai Transformers Go!",
      "rating": 5.25,
      "classificacao_etaria": "A10",
      "imagem_original": "https://animefire.plus/img/animes/sanjougattai-transformers-go.webp",
      "imagem_pasta": "https://animefire.plus/img/animes/sanjougattai-transformers-go/",
      "secao": "legendados",
      "pagina": 100,
      "total_episodios": 2,
      "link_video": "https://animefire.plus/video/sanjougattai-transformers-go"
    },
    {
      "id": 3251,
      "nome": "Sankaku Mado no Sotogawa wa Yoru",
      "link": "https://animefire.plus/animes/sankaku-mado-no-sotogawa-wa-yoru-todos-os-episodios",
      "texto_original": "Sankaku Mado no Sotogawa wa Yoru",
      "rating": 6.75,
      "classificacao_etaria": "A16",
      "imagem_original": "https://animefire.plus/img/animes/sankaku-mado-no-sotogawa-wa-yoru.webp",
      "imagem_pasta": "https://animefire.plus/img/animes/sankaku-mado-no-sotogawa-wa-yoru/",
      "secao": "legendados",
      "pagina": 39,
      "total_episodios": 12,
      "link_video": "https://animefire.plus/video/sankaku-mado-no-sotogawa-wa-yoru"
    },
    {
      "id": 3252,
      "nome": "Sankarea",
      "link": "https://animefire.plus/animes/sankarea-todos-os-episodios",
      "texto_original": "Sankarea",
      "rating": 7.46,
      "classificacao_etaria": "A18",
      "imagem_original": "https://animefire.plus/img/animes/sankarea.webp",
      "imagem_pasta": "https://animefire.plus/img/animes/sankarea/",
      "secao": "legendados",
      "pagina": 158,
      "total_episodios": 12,
      "link_video": "https://animefire.plus/video/sankarea"
    },
    {
      "id": 3253,
      "nome": "Sanrio Danshi",
      "link": "https://animefire.plus/animes/sanrio-danshi-todos-os-episodios",
      "texto_original": "Sanrio Danshi",
      "rating": 6.65,
      "classificacao_etaria": "A14",
      "imagem_original": "https://animefire.plus/img/animes/sanrio-danshi.webp",
      "imagem_pasta": "https://animefire.plus/img/animes/sanrio-danshi/",
      "secao": "legendados",
      "pagina": 98,
      "total_episodios": 12,
      "link_video": "https://animefire.plus/video/sanrio-danshi"
    },
    {
      "id": 3254,
      "nome": "Sansha Sanyou",
      "link": "https://animefire.plus/animes/sansha-sanyou-todos-os-episodios",
      "texto_original": "Sansha Sanyou",
      "rating": 7.16,
      "classificacao_etaria": "A14",
      "imagem_original": "https://animefire.plus/img/animes/sansha-sanyou.webp",
      "imagem_pasta": "https://animefire.plus/img/animes/sansha-sanyou/",
      "secao": "legendados",
      "pagina": 169,
      "total_episodios": 2,
      "link_video": "https://animefire.plus/video/sansha-sanyou"
    },
    {
      "id": 3255,
      "nome": "Sanzoku no Musume Ronja",
      "link": "https://animefire.plus/animes/sanzoku-no-musume-ronja-todos-os-episodios",
      "texto_original": "Sanzoku no Musume Ronja",
      "rating": 7.18,
      "classificacao_etaria": "A10",
      "imagem_original": "https://animefire.plus/img/animes/sanzoku-no-musume-ronja.webp",
      "imagem_pasta": "https://animefire.plus/img/animes/sanzoku-no-musume-ronja/",
      "secao": "legendados",
      "pagina": 75,
      "total_episodios": 25,
      "link_video": "https://animefire.plus/video/sanzoku-no-musume-ronja"
    },
    {
      "id": 3256,
      "nome": "Saraiya Goyou",
      "link": "https://animefire.plus/animes/saraiya-goyou-todos-os-episodios",
      "texto_original": "Saraiya Goyou",
      "rating": 7.86,
      "classificacao_etaria": "A14",
      "imagem_original": "https://animefire.plus/img/animes/saraiya-goyou.webp",
      "imagem_pasta": "https://animefire.plus/img/animes/saraiya-goyou/",
      "secao": "legendados",
      "pagina": 179,
      "total_episodios": 12,
      "link_video": "https://animefire.plus/video/saraiya-goyou"
    },
    {
      "id": 3257,
      "nome": "Sarazanmai",
      "link": "https://animefire.plus/animes/sarazanmai-todos-os-episodios",
      "texto_original": "Sarazanmai",
      "rating": 7.54,
      "classificacao_etaria": "A14",
      "imagem_original": "https://animefire.plus/img/animes/sarazanmai.webp",
      "imagem_pasta": "https://animefire.plus/img/animes/sarazanmai/",
      "secao": "legendados",
      "pagina": 157,
      "total_episodios": 5,
      "link_video": "https://animefire.plus/video/sarazanmai"
    },
    {
      "id": 3258,
      "nome": "Saredo Tsumibito wa Ryuu to Odoru",
      "link": "https://animefire.plus/animes/saredo-tsumibito-wa-ryuu-to-odoru-todos-os-episodios",
      "texto_original": "Saredo Tsumibito wa Ryuu to Odoru",
      "rating": 5.91,
      "classificacao_etaria": "A16",
      "imagem_original": "https://animefire.plus/img/animes/saredo-tsumibito-wa-ryuu-to-odoru.webp",
      "imagem_pasta": "https://animefire.plus/img/animes/saredo-tsumibito-wa-ryuu-to-odoru/",
      "secao": "legendados",
      "pagina": 153,
      "total_episodios": 12,
      "link_video": "https://animefire.plus/video/saredo-tsumibito-wa-ryuu-to-odoru"
    },
    {
      "id": 3259,
      "nome": "Sasaki to Miyano (Dublado)",
      "link": "https://animefire.plus/animes/sasaki-to-miyano-dublado-todos-os-episodios",
      "texto_original": "Sasaki to Miyano (Dublado)",
      "rating": 8.19,
      "classificacao_etaria": "A14",
      "imagem_original": "https://animefire.plus/img/animes/sasaki-to-miyano.webp",
      "imagem_pasta": "https://animefire.plus/img/animes/sasaki-to-miyano/",
      "secao": "dublados,legendados",
      "pagina": 9,
      "total_episodios": 13,
      "link_video": "https://animefire.plus/video/sasaki-to-miyano-dublado"
    },
    {
      "id": 3260,
      "nome": "Sasaki to Miyano: Koi ni Kizuku Mae no Chotto Shita Hanashi.",
      "link": "https://animefire.plus/animes/sasaki-to-miyano-koi-ni-kizuku-mae-no-chotto-shita-hanashi-todos-os-episodios",
      "texto_original": "Sasaki to Miyano: Koi ni Kizuku Mae no Chotto Shita Hanashi.",
      "rating": 7.63,
      "classificacao_etaria": "A14",
      "imagem_original": "https://animefire.plus/img/animes/sasaki-to-miyano-koi-ni-kizuku-mae-no-chotto-shita-hanashi.webp",
      "imagem_pasta": "https://animefire.plus/img/animes/sasaki-to-miyano-koi-ni-kizuku-mae-no-chotto-shita-hanashi/",
      "secao": "legendados",
      "pagina": 32,
      "total_episodios": 1,
      "link_video": "https://animefire.plus/video/sasaki-to-miyano-koi-ni-kizuku-mae-no-chotto-shita-hanashi"
    }
  ],
  "pagination": {
    "current_page": 163,
    "per_page": 20,
    "total_items": 4368,
    "total_pages": 219,
    "has_next": true,
    "has_prev": true
  }
}
