{
  "message": "Lista de animes",
  "data": [
    {
      "id": 521,
      "nome": "Bungou Stray Dogs 4th Season",
      "link": "https://animefire.plus/animes/bungou-stray-dogs-4th-season-todos-os-episodios",
      "texto_original": "Bungou Stray Dogs 4th Season",
      "rating": 8.43,
      "classificacao_etaria": "A16",
      "imagem_original": "https://animefire.plus/img/animes/bungou-stray-dogs-4th-season.webp",
      "imagem_pasta": "https://animefire.plus/img/animes/bungou-stray-dogs-4th-season/",
      "secao": "legendados,lancamentos",
      "pagina": 27,
      "total_episodios": 14,
      "link_video": "https://animefire.plus/video/bungou-stray-dogs-4th-season"
    },
    {
      "id": 522,
      "nome": "Bungou Stray Dogs 4th Season (Dublado)",
      "link": "https://animefire.plus/animes/bungou-stray-dogs-4-dublado-todos-os-episodios",
      "texto_original": "Bungou Stray Dogs 4th Season (Dublado)",
      "rating": 8.43,
      "classificacao_etaria": "A16",
      "imagem_original": "https://animefire.plus/img/animes/bungou-stray-dogs-4.webp",
      "imagem_pasta": "https://animefire.plus/img/animes/bungou-stray-dogs-4/",
      "secao": "dublados,lancamentos",
      "pagina": 7,
      "total_episodios": 0,
      "link_video": "https://animefire.plus/video/bungou-stray-dogs-4-dublado"
    },
    {
      "id": 523,
      "nome": "Bungou Stray Dogs 5th Season (Dublado)",
      "link": "https://animefire.plus/animes/bungou-stray-dogs-5th-season-dublado-todos-os-episodios",
      "texto_original": "Bungou Stray Dogs 5th Season (Dublado)",
      "rating": 8.62,
      "classificacao_etaria": "A16",
      "imagem_original": "https://animefire.plus/img/animes/bungou-stray-dogs-5th-season.webp",
      "imagem_pasta": "https://animefire.plus/img/animes/bungou-stray-dogs-5th-season/",
      "secao": "dublados,legendados",
      "pagina": 6,
      "total_episodios": 11,
      "link_video": "https://animefire.plus/video/bungou-stray-dogs-5th-season-dublado"
    },
    {
      "id": 524,
      "nome": "Bungou Stray Dogs Wan!",
      "link": "https://animefire.plus/animes/bungou-stray-dogs-wan-todos-os-episodios",
      "texto_original": "Bungou Stray Dogs Wan!",
      "rating": 7.98,
      "classificacao_etaria": "A14",
      "imagem_original": "https://animefire.plus/img/animes/bungou-stray-dogs-wan.webp",
      "imagem_pasta": "https://animefire.plus/img/animes/bungou-stray-dogs-wan/",
      "secao": "legendados",
      "pagina": 49,
      "total_episodios": 12,
      "link_video": "https://animefire.plus/video/bungou-stray-dogs-wan"
    },
    {
      "id": 525,
      "nome": "Bungou Stray Dogs: Hitori Ayumu (Dublado)",
      "link": "https://animefire.plus/animes/bungou-stray-dogs-hitori-ayumu-dublado-todos-os-episodios",
      "texto_original": "Bungou Stray Dogs: Hitori Ayumu (Dublado)",
      "rating": 7.71,
      "classificacao_etaria": "A14",
      "imagem_original": "https://animefire.plus/img/animes/bungou-stray-dogs-hitori-ayumu.webp",
      "imagem_pasta": "https://animefire.plus/img/animes/bungou-stray-dogs-hitori-ayumu/",
      "secao": "dublados,legendados",
      "pagina": 24,
      "total_episodios": 1,
      "link_video": "https://animefire.plus/video/bungou-stray-dogs-hitori-ayumu-dublado"
    },
    {
      "id": 526,
      "nome": "Bungou to Alchemist: Shinpan no Haguruma",
      "link": "https://animefire.plus/animes/bungou-to-alchemist-shinpan-no-haguruma-todos-os-episodios",
      "texto_original": "Bungou to Alchemist: Shinpan no Haguruma",
      "rating": 6.34,
      "classificacao_etaria": "A14",
      "imagem_original": "https://animefire.plus/img/animes/bungou-to-alchemist-shinpan-no-haguruma.webp",
      "imagem_pasta": "https://animefire.plus/img/animes/bungou-to-alchemist-shinpan-no-haguruma/",
      "secao": "legendados",
      "pagina": 81,
      "total_episodios": 2,
      "link_video": "https://animefire.plus/video/bungou-to-alchemist-shinpan-no-haguruma"
    },
    {
      "id": 527,
      "nome": "Burn the Witch #0.8",
      "link": "https://animefire.plus/animes/burn-the-witch-0-8-todos-os-episodios",
      "texto_original": "Burn the Witch #0.8",
      "rating": 7.46,
      "classificacao_etaria": "A14",
      "imagem_original": "https://animefire.plus/img/animes/burn-the-witch-0-8.webp",
      "imagem_pasta": "https://animefire.plus/img/animes/burn-the-witch-0-8/",
      "secao": "legendados",
      "pagina": 17,
      "total_episodios": 1,
      "link_video": "https://animefire.plus/video/burn-the-witch-0-8"
    },
    {
      "id": 528,
      "nome": "Burn Up Excess",
      "link": "https://animefire.plus/animes/burn-up-excess-todos-os-episodios",
      "texto_original": "Burn Up Excess",
      "rating": 6.64,
      "classificacao_etaria": "A14",
      "imagem_original": "https://animefire.plus/img/animes/burn-up-excess.webp",
      "imagem_pasta": "https://animefire.plus/img/animes/burn-up-excess/",
      "secao": "legendados",
      "pagina": 132,
      "total_episodios": 13,
      "link_video": "https://animefire.plus/video/burn-up-excess"
    },
    {
      "id": 529,
      "nome": "Burn Up Scramble",
      "link": "https://animefire.plus/animes/burn-up-scramble-todos-os-episodios",
      "texto_original": "Burn Up Scramble",
      "rating": 6.28,
      "classificacao_etaria": "A16",
      "imagem_original": "https://animefire.plus/img/animes/burn-up-scramble.webp",
      "imagem_pasta": "https://animefire.plus/img/animes/burn-up-scramble/",
      "secao": "legendados",
      "pagina": 160,
      "total_episodios": 12,
      "link_video": "https://animefire.plus/video/burn-up-scramble"
    },
    {
      "id": 530,
      "nome": "Burn Up!",
      "link": "https://animefire.plus/animes/burn-up-todos-os-episodios",
      "texto_original": "Burn Up!",
      "rating": 6.09,
      "classificacao_etaria": "A18",
      "imagem_original": "https://animefire.plus/img/animes/burn-up.webp",
      "imagem_pasta": "https://animefire.plus/img/animes/burn-up/",
      "secao": "legendados",
      "pagina": 45,
      "total_episodios": 1,
      "link_video": "https://animefire.plus/video/burn-up"
    },
    {
      "id": 531,
      "nome": "Burn Up! W (Dublado)",
      "link": "https://animefire.plus/animes/burn-up-w-dublado-todos-os-episodios",
      "texto_original": "Burn Up! W (Dublado)",
      "rating": 6.44,
      "classificacao_etaria": "A18",
      "imagem_original": "https://animefire.plus/img/animes/burn-up-w.webp",
      "imagem_pasta": "https://animefire.plus/img/animes/burn-up-w/",
      "secao": "dublados",
      "pagina": 26,
      "total_episodios": 0,
      "link_video": "https://animefire.plus/video/burn-up-w-dublado"
    },
    {
      "id": 532,
      "nome": "Bus Gamer",
      "link": "https://animefire.plus/animes/bus-gamer-todos-os-episodios",
      "texto_original": "Bus Gamer",
      "rating": 6.6,
      "classificacao_etaria": "A14",
      "imagem_original": "https://animefire.plus/img/animes/bus-gamer.webp",
      "imagem_pasta": "https://animefire.plus/img/animes/bus-gamer/",
      "secao": "legendados",
      "pagina": 127,
      "total_episodios": 3,
      "link_video": "https://animefire.plus/video/bus-gamer"
    },
    {
      "id": 533,
      "nome": "Busamen Gachi Fighter",
      "link": "https://animefire.plus/animes/busamen-gachi-fighter-todos-os-episodios",
      "texto_original": "Busamen Gachi Fighter",
      "rating": 6.5,
      "classificacao_etaria": "A14",
      "imagem_original": "https://animefire.plus/img/animes/busamen-gachi-fighter.webp",
      "imagem_pasta": "https://animefire.plus/img/animes/busamen-gachi-fighter/",
      "secao": "legendados,lancamentos",
      "pagina": 2,
      "total_episodios": 5,
      "link_video": "https://animefire.plus/video/busamen-gachi-fighter"
    },
    {
      "id": 534,
      "nome": "Busou Renkin",
      "link": "https://animefire.plus/animes/busou-renkin-todos-os-episodios",
      "texto_original": "Busou Renkin",
      "rating": 7.43,
      "classificacao_etaria": "A14",
      "imagem_original": "https://animefire.plus/img/animes/busou-renkin.webp",
      "imagem_pasta": "https://animefire.plus/img/animes/busou-renkin/",
      "secao": "legendados",
      "pagina": 132,
      "total_episodios": 26,
      "link_video": "https://animefire.plus/video/busou-renkin"
    },
    {
      "id": 535,
      "nome": "Busou Shinki",
      "link": "https://animefire.plus/animes/busou-shinki-todos-os-episodios",
      "texto_original": "Busou Shinki",
      "rating": 6.36,
      "classificacao_etaria": "A14",
      "imagem_original": "https://animefire.plus/img/animes/busou-shinki.webp",
      "imagem_pasta": "https://animefire.plus/img/animes/busou-shinki/",
      "secao": "legendados",
      "pagina": 134,
      "total_episodios": 12,
      "link_video": "https://animefire.plus/video/busou-shinki"
    },
    {
      "id": 536,
      "nome": "Busou Shoujo Machiavellianism",
      "link": "https://animefire.plus/animes/busou-shoujo-machiavellianism-todos-os-episodios",
      "texto_original": "Busou Shoujo Machiavellianism",
      "rating": 7.11,
      "classificacao_etaria": "A14",
      "imagem_original": "https://animefire.plus/img/animes/busou-shoujo-machiavellianism.webp",
      "imagem_pasta": "https://animefire.plus/img/animes/busou-shoujo-machiavellianism/",
      "secao": "legendados",
      "pagina": 145,
      "total_episodios": 12,
      "link_video": "https://animefire.plus/video/busou-shoujo-machiavellianism"
    },
    {
      "id": 537,
      "nome": "Busu ni Hanataba wo.",
      "link": "https://animefire.plus/animes/busu-ni-hanataba-wo-todos-os-episodios",
      "texto_original": "Busu ni Hanataba wo.",
      "rating": 6.69,
      "classificacao_etaria": "A14",
      "imagem_original": "https://animefire.plus/img/animes/busu-ni-hanataba-wo.webp",
      "imagem_pasta": "https://animefire.plus/img/animes/busu-ni-hanataba-wo/",
      "secao": "legendados,lancamentos",
      "pagina": 2,
      "total_episodios": 1,
      "link_video": "https://animefire.plus/video/busu-ni-hanataba-wo"
    },
    {
      "id": 538,
      "nome": "Buta no Liver wa Kanetsu Shiro",
      "link": "https://animefire.plus/animes/buta-no-liver-wa-kanetsu-shiro-todos-os-episodios",
      "texto_original": "Buta no Liver wa Kanetsu Shiro",
      "rating": 6.29,
      "classificacao_etaria": "A14",
      "imagem_original": "https://animefire.plus/img/animes/buta-no-liver-wa-kanetsu-shiro.webp",
      "imagem_pasta": "https://animefire.plus/img/animes/buta-no-liver-wa-kanetsu-shiro/",
      "secao": "legendados",
      "pagina": 20,
      "total_episodios": 12,
      "link_video": "https://animefire.plus/video/buta-no-liver-wa-kanetsu-shiro"
    },
    {
      "id": 539,
      "nome": "Butlers: Chitose Momotose Monogatari",
      "link": "https://animefire.plus/animes/butlers-chitose-momotose-monogatari-todos-os-episodios",
      "texto_original": "Butlers: Chitose Momotose Monogatari",
      "rating": 5.72,
      "classificacao_etaria": "A14",
      "imagem_original": "https://animefire.plus/img/animes/butlers-chitose-momotose-monogatari.webp",
      "imagem_pasta": "https://animefire.plus/img/animes/butlers-chitose-momotose-monogatari/",
      "secao": "legendados",
      "pagina": 138,
      "total_episodios": 12,
      "link_video": "https://animefire.plus/video/butlers-chitose-momotose-monogatari"
    },
    {
      "id": 540,
      "nome": "Buttobi!! CPU",
      "link": "https://animefire.plus/animes/buttobi-cpu-todos-os-episodios",
      "texto_original": "Buttobi!! CPU",
      "rating": 6.33,
      "classificacao_etaria": "A18",
      "imagem_original": "https://animefire.plus/img/animes/buttobi-cpu.webp",
      "imagem_pasta": "https://animefire.plus/img/animes/buttobi-cpu/",
      "secao": "legendados",
      "pagina": 176,
      "total_episodios": 3,
      "link_video": "https://animefire.plus/video/buttobi-cpu"
    }
  ],
  "pagination": {
    "current_page": 27,
    "per_page": 20,
    "total_items": 4368,
    "total_pages": 219,
    "has_next": true,
    "has_prev": true
  }
}
