{
  "message": "Lista de animes",
  "data": [
    {
      "id": 1981,
      "nome": "Kimi ga Aruji de Shitsuji ga Ore de",
      "link": "https://animefire.plus/animes/kimi-ga-aruji-de-shitsuji-ga-ore-de-todos-os-episodios",
      "texto_original": "Kimi ga Aruji de Shitsuji ga Ore de",
      "rating": 7.25,
      "classificacao_etaria": "A18",
      "imagem_original": "https://animefire.plus/img/animes/kimi-ga-aruji-de-shitsuji-ga-ore-de.webp",
      "imagem_pasta": "https://animefire.plus/img/animes/kimi-ga-aruji-de-shitsuji-ga-ore-de/",
      "secao": "legendados",
      "pagina": 119,
      "total_episodios": 13,
      "link_video": "https://animefire.plus/video/kimi-ga-aruji-de-shitsuji-ga-ore-de"
    },
    {
      "id": 1982,
      "nome": "Kimi ga Nozomu Eien",
      "link": "https://animefire.plus/animes/kimi-ga-nozomu-eien-todos-os-episodios",
      "texto_original": "Kimi ga Nozomu Eien",
      "rating": 7.32,
      "classificacao_etaria": "A18",
      "imagem_original": "https://animefire.plus/img/animes/kimi-ga-nozomu-eien.webp",
      "imagem_pasta": "https://animefire.plus/img/animes/kimi-ga-nozomu-eien/",
      "secao": "legendados",
      "pagina": 171,
      "total_episodios": 14,
      "link_video": "https://animefire.plus/video/kimi-ga-nozomu-eien"
    },
    {
      "id": 1983,
      "nome": "Kimi ni Todoke",
      "link": "https://animefire.plus/animes/kimi-ni-todoke-todos-os-episodios",
      "texto_original": "Kimi ni Todoke",
      "rating": 8.1,
      "classificacao_etaria": "A14",
      "imagem_original": "https://animefire.plus/img/animes/kimi-ni-todoke.webp",
      "imagem_pasta": "https://animefire.plus/img/animes/kimi-ni-todoke/",
      "secao": "legendados",
      "pagina": 159,
      "total_episodios": 25,
      "link_video": "https://animefire.plus/video/kimi-ni-todoke"
    },
    {
      "id": 1984,
      "nome": "Kimi ni Todoke 2nd Season",
      "link": "https://animefire.plus/animes/kimi-ni-todoke-2nd-season-todos-os-episodios",
      "texto_original": "Kimi ni Todoke 2nd Season",
      "rating": 8.1,
      "classificacao_etaria": "A14",
      "imagem_original": "https://animefire.plus/img/animes/kimi-ni-todoke-2nd-season.webp",
      "imagem_pasta": "https://animefire.plus/img/animes/kimi-ni-todoke-2nd-season/",
      "secao": "legendados",
      "pagina": 114,
      "total_episodios": 1,
      "link_video": "https://animefire.plus/video/kimi-ni-todoke-2nd-season"
    },
    {
      "id": 1985,
      "nome": "Kimi ni Todoke 2nd Season: Minitodo Gekijou",
      "link": "https://animefire.plus/animes/kimi-ni-todoke-2nd-season-minitodo-gekijou-todos-os-episodios",
      "texto_original": "Kimi ni Todoke 2nd Season: Minitodo Gekijou",
      "rating": 7.34,
      "classificacao_etaria": "A14",
      "imagem_original": "https://animefire.plus/img/animes/kimi-ni-todoke-2nd-season-minitodo-gekijou.webp",
      "imagem_pasta": "https://animefire.plus/img/animes/kimi-ni-todoke-2nd-season-minitodo-gekijou/",
      "secao": "legendados",
      "pagina": 83,
      "total_episodios": 4,
      "link_video": "https://animefire.plus/video/kimi-ni-todoke-2nd-season-minitodo-gekijou"
    },
    {
      "id": 1986,
      "nome": "Kimi no Iru Machi",
      "link": "https://animefire.plus/animes/kimi-no-iru-machi-todos-os-episodios",
      "texto_original": "Kimi no Iru Machi",
      "rating": 7.08,
      "classificacao_etaria": "A18",
      "imagem_original": "https://animefire.plus/img/animes/kimi-no-iru-machi.webp",
      "imagem_pasta": "https://animefire.plus/img/animes/kimi-no-iru-machi/",
      "secao": "legendados",
      "pagina": 155,
      "total_episodios": 12,
      "link_video": "https://animefire.plus/video/kimi-no-iru-machi"
    },
    {
      "id": 1987,
      "nome": "Kimi no Koto ga Daidaidaidaidaisuki na 100-nin no Kanojo",
      "link": "https://animefire.plus/animes/kimi-no-koto-ga-daidaidaidaidaisuki-na-100-nin-no-kanojo-todos-os-episodios",
      "texto_original": "Kimi no Koto ga Daidaidaidaidaisuki na 100-nin no Kanojo",
      "rating": 7.7,
      "classificacao_etaria": "A14",
      "imagem_original": "https://animefire.plus/img/animes/kimi-no-koto-ga-daidaidaidaidaisuki-na-100-nin-no-kanojo.webp",
      "imagem_pasta": "https://animefire.plus/img/animes/kimi-no-koto-ga-daidaidaidaidaisuki-na-100-nin-no-kanojo/",
      "secao": "legendados",
      "pagina": 19,
      "total_episodios": 12,
      "link_video": "https://animefire.plus/video/kimi-no-koto-ga-daidaidaidaidaisuki-na-100-nin-no-kanojo"
    },
    {
      "id": 1988,
      "nome": "Kimi no Koto ga Daidaidaidaidaisuki na 100-nin no Kanojo 2nd Season",
      "link": "https://animefire.plus/animes/kimi-no-koto-ga-daidaidaidaidaisuki-na-100-nin-no-kanojo-2nd-season-todos-os-episodios",
      "texto_original": "Kimi no Koto ga Daidaidaidaidaisuki na 100-nin no Kanojo 2nd Season",
      "rating": 7.94,
      "classificacao_etaria": "A14",
      "imagem_original": "https://animefire.plus/img/animes/kimi-no-koto-ga-daidaidaidaidaisuki-na-100-nin-no-kanojo-2nd-season.webp",
      "imagem_pasta": "https://animefire.plus/img/animes/kimi-no-koto-ga-daidaidaidaidaisuki-na-100-nin-no-kanojo-2nd-season/",
      "secao": "legendados",
      "pagina": 8,
      "total_episodios": 12,
      "link_video": "https://animefire.plus/video/kimi-no-koto-ga-daidaidaidaidaisuki-na-100-nin-no-kanojo-2nd-season"
    },
    {
      "id": 1989,
      "nome": "Kimi to Boku no Saigo no Senjou, Aruiwa Sekai ga Hajimaru Seisen (Dublado)",
      "link": "https://animefire.plus/animes/kimi-to-boku-no-saigo-no-senjou-aruiwa-sekai-ga-hajimaru-seisen-dublado-todos-os-episodios",
      "texto_original": "Kimi to Boku no Saigo no Senjou, Aruiwa Sekai ga Hajimaru Seisen (Dublado)",
      "rating": 6.59,
      "classificacao_etaria": "A14",
      "imagem_original": "https://animefire.plus/img/animes/kimi-to-boku-no-saigo-no-senjou-aruiwa-sekai-ga-hajimaru-seisen.webp",
      "imagem_pasta": "https://animefire.plus/img/animes/kimi-to-boku-no-saigo-no-senjou-aruiwa-sekai-ga-hajimaru-seisen/",
      "secao": "dublados,legendados",
      "pagina": 14,
      "total_episodios": 12,
      "link_video": "https://animefire.plus/video/kimi-to-boku-no-saigo-no-senjou-aruiwa-sekai-ga-hajimaru-seisen-dublado"
    },
    {
      "id": 1990,
      "nome": "Kimi to Boku no Saigo no Senjou, Aruiwa Sekai ga Hajimaru Seisen Season II",
      "link": "https://animefire.plus/animes/kimi-to-boku-no-saigo-no-senjou-aruiwa-sekai-ga-hajimaru-seisen-season-ii-todos-os-episodios",
      "texto_original": "Kimi to Boku no Saigo no Senjou, Aruiwa Sekai ga Hajimaru Seisen Season II",
      "rating": 6.75,
      "classificacao_etaria": "A14",
      "imagem_original": "https://animefire.plus/img/animes/kimi-to-boku-no-saigo-no-senjou-aruiwa-sekai-ga-hajimaru-seisen-season-ii.webp",
      "imagem_pasta": "https://animefire.plus/img/animes/kimi-to-boku-no-saigo-no-senjou-aruiwa-sekai-ga-hajimaru-seisen-season-ii/",
      "secao": "legendados",
      "pagina": 13,
      "total_episodios": 12,
      "link_video": "https://animefire.plus/video/kimi-to-boku-no-saigo-no-senjou-aruiwa-sekai-ga-hajimaru-seisen-season-ii"
    },
    {
      "id": 1991,
      "nome": "Kimi to Boku.",
      "link": "https://animefire.plus/animes/kimi-to-boku-todos-os-episodios",
      "texto_original": "Kimi to Boku.",
      "rating": 7.78,
      "classificacao_etaria": "A14",
      "imagem_original": "https://animefire.plus/img/animes/kimi-to-boku.webp",
      "imagem_pasta": "https://animefire.plus/img/animes/kimi-to-boku/",
      "secao": "legendados",
      "pagina": 159,
      "total_episodios": 12,
      "link_video": "https://animefire.plus/video/kimi-to-boku"
    },
    {
      "id": 1992,
      "nome": "Kimi to Boku. 2",
      "link": "https://animefire.plus/animes/kimi-to-boku-2-todos-os-episodios",
      "texto_original": "Kimi to Boku. 2",
      "rating": 8.01,
      "classificacao_etaria": "A14",
      "imagem_original": "https://animefire.plus/img/animes/kimi-to-boku-2.webp",
      "imagem_pasta": "https://animefire.plus/img/animes/kimi-to-boku-2/",
      "secao": "legendados",
      "pagina": 64,
      "total_episodios": 13,
      "link_video": "https://animefire.plus/video/kimi-to-boku-2"
    },
    {
      "id": 1993,
      "nome": "Kimi to Idol Precure♪",
      "link": "https://animefire.plus/animes/kimi-to-idol-precure-todos-os-episodios",
      "texto_original": "Kimi to Idol Precure♪",
      "rating": 7.43,
      "classificacao_etaria": null,
      "imagem_original": "https://animefire.plus/img/animes/kimi-to-idol-precure.webp",
      "imagem_pasta": "https://animefire.plus/img/animes/kimi-to-idol-precure/",
      "secao": "legendados,lancamentos",
      "pagina": 6,
      "total_episodios": 26,
      "link_video": "https://animefire.plus/video/kimi-to-idol-precure"
    },
    {
      "id": 1994,
      "nome": "Kimi wa Houkago Insomnia",
      "link": "https://animefire.plus/animes/kimi-wa-houkago-insomnia-todos-os-episodios",
      "texto_original": "Kimi wa Houkago Insomnia",
      "rating": 8.08,
      "classificacao_etaria": "A14",
      "imagem_original": "https://animefire.plus/img/animes/kimi-wa-houkago-insomnia.jpg",
      "imagem_pasta": "https://animefire.plus/img/animes/kimi-wa-houkago-insomnia/",
      "secao": "legendados",
      "pagina": 24,
      "total_episodios": 13,
      "link_video": "https://animefire.plus/video/kimi-wa-houkago-insomnia"
    },
    {
      "id": 1995,
      "nome": "Kimi wa Meido-sama. (Dublado)",
      "link": "https://animefire.plus/animes/kimi-wa-meido-sama-dublado-todos-os-episodios",
      "texto_original": "Kimi wa Meido-sama. (Dublado)",
      "rating": 7.07,
      "classificacao_etaria": "A14",
      "imagem_original": "https://animefire.plus/img/animes/kimi-wa-meido-sama.webp",
      "imagem_pasta": "https://animefire.plus/img/animes/kimi-wa-meido-sama/",
      "secao": "dublados,legendados,lancamentos",
      "pagina": 2,
      "total_episodios": 12,
      "link_video": "https://animefire.plus/video/kimi-wa-meido-sama-dublado"
    },
    {
      "id": 1996,
      "nome": "KimiKiss Pure Rouge",
      "link": "https://animefire.plus/animes/kimikiss-pure-rouge-todos-os-episodios",
      "texto_original": "KimiKiss Pure Rouge",
      "rating": 7.4,
      "classificacao_etaria": "A14",
      "imagem_original": "https://animefire.plus/img/animes/kimikiss-pure-rouge.webp",
      "imagem_pasta": "https://animefire.plus/img/animes/kimikiss-pure-rouge/",
      "secao": "legendados",
      "pagina": 130,
      "total_episodios": 24,
      "link_video": "https://animefire.plus/video/kimikiss-pure-rouge"
    },
    {
      "id": 1997,
      "nome": "Kindaichi Shounen No Jikenbo Returns",
      "link": "https://animefire.plus/animes/kindaichi-shounen-no-jikenbo-returns-todos-os-episodios",
      "texto_original": "Kindaichi Shounen No Jikenbo Returns",
      "rating": 7.59,
      "classificacao_etaria": "A16",
      "imagem_original": "https://animefire.plus/img/animes/kindaichi-shounen-no-jikenbo-returns.webp",
      "imagem_pasta": "https://animefire.plus/img/animes/kindaichi-shounen-no-jikenbo-returns/",
      "secao": "legendados",
      "pagina": 96,
      "total_episodios": 3,
      "link_video": "https://animefire.plus/video/kindaichi-shounen-no-jikenbo-returns"
    },
    {
      "id": 1998,
      "nome": "Kindaichi Shounen no Jikenbo Returns 2nd Season",
      "link": "https://animefire.plus/animes/kindaichi-shounen-no-jikenbo-returns-2nd-season-todos-os-episodios",
      "texto_original": "Kindaichi Shounen no Jikenbo Returns 2nd Season",
      "rating": 7.68,
      "classificacao_etaria": "A16",
      "imagem_original": "https://animefire.plus/img/animes/kindaichi-shounen-no-jikenbo-returns-2nd-season.webp",
      "imagem_pasta": "https://animefire.plus/img/animes/kindaichi-shounen-no-jikenbo-returns-2nd-season/",
      "secao": "legendados",
      "pagina": 74,
      "total_episodios": 22,
      "link_video": "https://animefire.plus/video/kindaichi-shounen-no-jikenbo-returns-2nd-season"
    },
    {
      "id": 1999,
      "nome": "King of Fighters: Another Day (Dublado)",
      "link": "https://animefire.plus/animes/king-of-fighters-another-day-dublado-todos-os-episodios",
      "texto_original": "King of Fighters: Another Day (Dublado)",
      "rating": 6.33,
      "classificacao_etaria": "A14",
      "imagem_original": "https://animefire.plus/img/animes/king-of-fighters-another-day.webp",
      "imagem_pasta": "https://animefire.plus/img/animes/king-of-fighters-another-day/",
      "secao": "dublados",
      "pagina": 21,
      "total_episodios": 4,
      "link_video": "https://animefire.plus/video/king-of-fighters-another-day-dublado"
    },
    {
      "id": 2000,
      "nome": "King of Prism: Shiny Seven Stars",
      "link": "https://animefire.plus/animes/king-of-prism-shiny-seven-stars-todos-os-episodios",
      "texto_original": "King of Prism: Shiny Seven Stars",
      "rating": 6.4,
      "classificacao_etaria": "A14",
      "imagem_original": "https://animefire.plus/img/animes/king-of-prism-shiny-seven-stars.webp",
      "imagem_pasta": "https://animefire.plus/img/animes/king-of-prism-shiny-seven-stars/",
      "secao": "legendados",
      "pagina": 126,
      "total_episodios": 12,
      "link_video": "https://animefire.plus/video/king-of-prism-shiny-seven-stars"
    }
  ],
  "pagination": {
    "current_page": 100,
    "per_page": 20,
    "total_items": 4368,
    "total_pages": 219,
    "has_next": true,
    "has_prev": true
  }
}
