{
  "message": "Lista de animes",
  "data": [
    {
      "id": 3941,
      "nome": "Try Knights",
      "link": "https://animefire.plus/animes/try-knights-todos-os-episodios",
      "texto_original": "Try Knights",
      "rating": 4.7,
      "classificacao_etaria": "A14",
      "imagem_original": "https://animefire.plus/img/animes/try-knights.webp",
      "imagem_pasta": "https://animefire.plus/img/animes/try-knights/",
      "secao": "legendados",
      "pagina": 118,
      "total_episodios": 1,
      "link_video": "https://animefire.plus/video/try-knights"
    },
    {
      "id": 3942,
      "nome": "Tsubasa Chronicle",
      "link": "https://animefire.plus/animes/tsubasa-chronicle-todos-os-episodios",
      "texto_original": "Tsubasa Chronicle",
      "rating": 7.62,
      "classificacao_etaria": "A14",
      "imagem_original": "https://animefire.plus/img/animes/tsubasa-chronicle.webp",
      "imagem_pasta": "https://animefire.plus/img/animes/tsubasa-chronicle/",
      "secao": "legendados",
      "pagina": 162,
      "total_episodios": 52,
      "link_video": "https://animefire.plus/video/tsubasa-chronicle"
    },
    {
      "id": 3943,
      "nome": "Tsubasa: Shunraiki",
      "link": "https://animefire.plus/animes/tsubasa-shunraiki-todos-os-episodios",
      "texto_original": "Tsubasa: Shunraiki",
      "rating": 8.15,
      "classificacao_etaria": "A16",
      "imagem_original": "https://animefire.plus/img/animes/tsubasa-shunraiki.webp",
      "imagem_pasta": "https://animefire.plus/img/animes/tsubasa-shunraiki/",
      "secao": "legendados",
      "pagina": 62,
      "total_episodios": 1,
      "link_video": "https://animefire.plus/video/tsubasa-shunraiki"
    },
    {
      "id": 3944,
      "nome": "Tsubasa: Tokyo Revelations",
      "link": "https://animefire.plus/animes/tsubasa-tokyo-revelations-todos-os-episodios",
      "texto_original": "Tsubasa: Tokyo Revelations",
      "rating": 8.34,
      "classificacao_etaria": "A16",
      "imagem_original": "https://animefire.plus/img/animes/tsubasa-tokyo-revelations.webp",
      "imagem_pasta": "https://animefire.plus/img/animes/tsubasa-tokyo-revelations/",
      "secao": "legendados",
      "pagina": 62,
      "total_episodios": 1,
      "link_video": "https://animefire.plus/video/tsubasa-tokyo-revelations"
    },
    {
      "id": 3945,
      "nome": "Tsue to Tsurugi no Wistoria",
      "link": "https://animefire.plus/animes/tsue-to-tsurugi-no-wistoria-todos-os-episodios",
      "texto_original": "Tsue to Tsurugi no Wistoria",
      "rating": 7.87,
      "classificacao_etaria": "A14",
      "imagem_original": "https://animefire.plus/img/animes/tsue-to-tsurugi-no-wistoria.webp",
      "imagem_pasta": "https://animefire.plus/img/animes/tsue-to-tsurugi-no-wistoria/",
      "secao": "legendados",
      "pagina": 13,
      "total_episodios": 12,
      "link_video": "https://animefire.plus/video/tsue-to-tsurugi-no-wistoria"
    },
    {
      "id": 3946,
      "nome": "Tsugu Tsugumomo",
      "link": "https://animefire.plus/animes/tsugu-tsugumomo-todos-os-episodios",
      "texto_original": "Tsugu Tsugumomo",
      "rating": 7.51,
      "classificacao_etaria": "A18",
      "imagem_original": "https://animefire.plus/img/animes/tsugu-tsugumomo.webp",
      "imagem_pasta": "https://animefire.plus/img/animes/tsugu-tsugumomo/",
      "secao": "legendados",
      "pagina": 60,
      "total_episodios": 1,
      "link_video": "https://animefire.plus/video/tsugu-tsugumomo"
    },
    {
      "id": 3947,
      "nome": "Tsugumomo",
      "link": "https://animefire.plus/animes/tsugumomo-todos-os-episodios",
      "texto_original": "Tsugumomo",
      "rating": 7.11,
      "classificacao_etaria": "A18",
      "imagem_original": "https://animefire.plus/img/animes/tsugumomo.webp",
      "imagem_pasta": "https://animefire.plus/img/animes/tsugumomo/",
      "secao": "legendados",
      "pagina": 106,
      "total_episodios": 12,
      "link_video": "https://animefire.plus/video/tsugumomo"
    },
    {
      "id": 3948,
      "nome": "Tsugumomo OVA",
      "link": "https://animefire.plus/animes/tsugumomo-ova-todos-os-episodios",
      "texto_original": "Tsugumomo OVA",
      "rating": 6.87,
      "classificacao_etaria": "A18",
      "imagem_original": "https://animefire.plus/img/animes/tsugumomo-ova.webp",
      "imagem_pasta": "https://animefire.plus/img/animes/tsugumomo-ova/",
      "secao": "legendados",
      "pagina": 87,
      "total_episodios": 1,
      "link_video": "https://animefire.plus/video/tsugumomo-ova"
    },
    {
      "id": 3949,
      "nome": "Tsuihousha Shokudou e Youkoso!",
      "link": "https://animefire.plus/animes/tsuihousha-shokudou-e-youkoso-todos-os-episodios",
      "texto_original": "Tsuihousha Shokudou e Youkoso!",
      "rating": 7.19,
      "classificacao_etaria": "A14",
      "imagem_original": "https://animefire.plus/img/animes/tsuihousha-shokudou-e-youkoso.webp",
      "imagem_pasta": "https://animefire.plus/img/animes/tsuihousha-shokudou-e-youkoso/",
      "secao": "legendados,lancamentos",
      "pagina": 2,
      "total_episodios": 5,
      "link_video": "https://animefire.plus/video/tsuihousha-shokudou-e-youkoso"
    },
    {
      "id": 3950,
      "nome": "Tsuki ga Kirei",
      "link": "https://animefire.plus/animes/tsuki-ga-kirei-todos-os-episodios",
      "texto_original": "Tsuki ga Kirei",
      "rating": 8.28,
      "classificacao_etaria": "A14",
      "imagem_original": "https://animefire.plus/img/animes/tsuki-ga-kirei.webp",
      "imagem_pasta": "https://animefire.plus/img/animes/tsuki-ga-kirei/",
      "secao": "legendados",
      "pagina": 99,
      "total_episodios": 12,
      "link_video": "https://animefire.plus/video/tsuki-ga-kirei"
    },
    {
      "id": 3951,
      "nome": "Tsuki ga Michibiku Isekai Douchuu (Dublado)",
      "link": "https://animefire.plus/animes/tsuki-ga-michibiku-isekai-douchuu-dublado-todos-os-episodios",
      "texto_original": "Tsuki ga Michibiku Isekai Douchuu (Dublado)",
      "rating": 7.71,
      "classificacao_etaria": "A14",
      "imagem_original": "https://animefire.plus/img/animes/tsuki-ga-michibiku-isekai-douchuu.webp",
      "imagem_pasta": "https://animefire.plus/img/animes/tsuki-ga-michibiku-isekai-douchuu/",
      "secao": "dublados,legendados",
      "pagina": 10,
      "total_episodios": 12,
      "link_video": "https://animefire.plus/video/tsuki-ga-michibiku-isekai-douchuu-dublado"
    },
    {
      "id": 3952,
      "nome": "Tsuki ga Michibiku Isekai Douchuu 2nd Season",
      "link": "https://animefire.plus/animes/tsuki-ga-michibiku-isekai-douchuu-2nd-season-todos-os-episodios",
      "texto_original": "Tsuki ga Michibiku Isekai Douchuu 2nd Season",
      "rating": 7.84,
      "classificacao_etaria": "A14",
      "imagem_original": "https://animefire.plus/img/animes/tsuki-ga-michibiku-isekai-douchuu-2nd-season.webp",
      "imagem_pasta": "https://animefire.plus/img/animes/tsuki-ga-michibiku-isekai-douchuu-2nd-season/",
      "secao": "legendados",
      "pagina": 17,
      "total_episodios": 4,
      "link_video": "https://animefire.plus/video/tsuki-ga-michibiku-isekai-douchuu-2nd-season"
    },
    {
      "id": 3953,
      "nome": "Tsuki ga Michibiku Isekai Douchuu 2nd Season (Dublado)",
      "link": "https://animefire.plus/animes/tsuki-ga-michibiku-isekai-douchuu-2-dublado-todos-os-episodios",
      "texto_original": "Tsuki ga Michibiku Isekai Douchuu 2nd Season (Dublado)",
      "rating": 7.84,
      "classificacao_etaria": "A14",
      "imagem_original": "https://animefire.plus/img/animes/tsuki-ga-michibiku-isekai-douchuu-2.webp",
      "imagem_pasta": "https://animefire.plus/img/animes/tsuki-ga-michibiku-isekai-douchuu-2/",
      "secao": "dublados,lancamentos",
      "pagina": 3,
      "total_episodios": 11,
      "link_video": "https://animefire.plus/video/tsuki-ga-michibiku-isekai-douchuu-2-dublado"
    },
    {
      "id": 3954,
      "nome": "Tsuki to Laika to Nosferatu (Dublado)",
      "link": "https://animefire.plus/animes/tsuki-to-laika-to-nosferatu-dublado-todos-os-episodios",
      "texto_original": "Tsuki to Laika to Nosferatu (Dublado)",
      "rating": 7.32,
      "classificacao_etaria": "A14",
      "imagem_original": "https://animefire.plus/img/animes/tsuki-to-laika-to-nosferatu.webp",
      "imagem_pasta": "https://animefire.plus/img/animes/tsuki-to-laika-to-nosferatu/",
      "secao": "dublados,legendados",
      "pagina": 14,
      "total_episodios": 12,
      "link_video": "https://animefire.plus/video/tsuki-to-laika-to-nosferatu-dublado"
    },
    {
      "id": 3955,
      "nome": "Tsuki Wa Higashi Ni Hi Wa Nishi Ni: Operation Sanctuary",
      "link": "https://animefire.plus/animes/tsuki-wa-higashi-ni-hi-wa-nishi-ni-operation-sanctuary-todos-os-episodios",
      "texto_original": "Tsuki Wa Higashi Ni Hi Wa Nishi Ni: Operation Sanctuary",
      "rating": 6.22,
      "classificacao_etaria": "A14",
      "imagem_original": "https://animefire.plus/img/animes/tsuki-wa-higashi-ni-hi-wa-nishi-ni-operation-sanctuary.webp",
      "imagem_pasta": "https://animefire.plus/img/animes/tsuki-wa-higashi-ni-hi-wa-nishi-ni-operation-sanctuary/",
      "secao": "legendados",
      "pagina": 108,
      "total_episodios": 0,
      "link_video": "https://animefire.plus/video/tsuki-wa-higashi-ni-hi-wa-nishi-ni-operation-sanctuary"
    },
    {
      "id": 3956,
      "nome": "Tsukimonogatari",
      "link": "https://animefire.plus/animes/tsukimonogatari-todos-os-episodios",
      "texto_original": "Tsukimonogatari",
      "rating": 8.18,
      "classificacao_etaria": "A16",
      "imagem_original": "https://animefire.plus/img/animes/tsukimonogatari.webp",
      "imagem_pasta": "https://animefire.plus/img/animes/tsukimonogatari/",
      "secao": "legendados",
      "pagina": 141,
      "total_episodios": 4,
      "link_video": "https://animefire.plus/video/tsukimonogatari"
    },
    {
      "id": 3957,
      "nome": "Tsukipro The Animation",
      "link": "https://animefire.plus/animes/tsukipro-the-animation-todos-os-episodios",
      "texto_original": "Tsukipro The Animation",
      "rating": 6.75,
      "classificacao_etaria": "A14",
      "imagem_original": "https://animefire.plus/img/animes/tsukipro-the-animation.webp",
      "imagem_pasta": "https://animefire.plus/img/animes/tsukipro-the-animation/",
      "secao": "legendados",
      "pagina": 74,
      "total_episodios": 13,
      "link_video": "https://animefire.plus/video/tsukipro-the-animation"
    },
    {
      "id": 3958,
      "nome": "Tsukipro The Animation 2",
      "link": "https://animefire.plus/animes/tsukipro-the-animation-2-todos-os-episodios",
      "texto_original": "Tsukipro The Animation 2",
      "rating": 6.41,
      "classificacao_etaria": "A14",
      "imagem_original": "https://animefire.plus/img/animes/tsukipro-the-animation-2.webp",
      "imagem_pasta": "https://animefire.plus/img/animes/tsukipro-the-animation-2/",
      "secao": "legendados,lancamentos",
      "pagina": 40,
      "total_episodios": 8,
      "link_video": "https://animefire.plus/video/tsukipro-the-animation-2"
    },
    {
      "id": 3959,
      "nome": "Tsukiuta. The Animation",
      "link": "https://animefire.plus/animes/tsukiuta-the-animation-todos-os-episodios",
      "texto_original": "Tsukiuta. The Animation",
      "rating": 7.06,
      "classificacao_etaria": "A14",
      "imagem_original": "https://animefire.plus/img/animes/tsukiuta-the-animation.webp",
      "imagem_pasta": "https://animefire.plus/img/animes/tsukiuta-the-animation/",
      "secao": "legendados",
      "pagina": 171,
      "total_episodios": 10,
      "link_video": "https://animefire.plus/video/tsukiuta-the-animation"
    },
    {
      "id": 3960,
      "nome": "Tsukiuta. The Animation 2",
      "link": "https://animefire.plus/animes/tsukiuta-the-animation-2-todos-os-episodios",
      "texto_original": "Tsukiuta. The Animation 2",
      "rating": null,
      "classificacao_etaria": "A14",
      "imagem_original": "https://animefire.plus/img/animes/tsukiuta-the-animation-2.webp",
      "imagem_pasta": "https://animefire.plus/img/animes/tsukiuta-the-animation-2/",
      "secao": "legendados",
      "pagina": 51,
      "total_episodios": 13,
      "link_video": "https://animefire.plus/video/tsukiuta-the-animation-2"
    }
  ],
  "pagination": {
    "current_page": 198,
    "per_page": 20,
    "total_items": 4368,
    "total_pages": 219,
    "has_next": true,
    "has_prev": true
  }
}
