{
  "message": "Lista de animes",
  "data": [
    {
      "id": 3761,
      "nome": "Tatoeba Last Dungeon Mae no Mura no Shounen ga Joban no Machi de Kurasu Youna Monogatari (Dublado)",
      "link": "https://animefire.plus/animes/tatoeba-last-dungeon-mae-no-mura-no-shounen-ga-joban-no-machi-de-kurasu-youna-monogatari-dublado-todos-os-episodios",
      "texto_original": "Tatoeba Last Dungeon Mae no Mura no Shounen ga Joban no Machi de Kurasu Youna Monogatari (Dublado)",
      "rating": 6.33,
      "classificacao_etaria": "A14",
      "imagem_original": "https://animefire.plus/img/animes/tatoeba-last-dungeon-mae-no-mura-no-shounen-ga-joban-no-machi-de-kurasu-youna-monogatari.webp",
      "imagem_pasta": "https://animefire.plus/img/animes/tatoeba-last-dungeon-mae-no-mura-no-shounen-ga-joban-no-machi-de-kurasu-youna-monogatari/",
      "secao": "dublados,legendados",
      "pagina": 15,
      "total_episodios": 12,
      "link_video": "https://animefire.plus/video/tatoeba-last-dungeon-mae-no-mura-no-shounen-ga-joban-no-machi-de-kurasu-youna-monogatari-dublado"
    },
    {
      "id": 3762,
      "nome": "Tattoon Master",
      "link": "https://animefire.plus/animes/tattoon-master-todos-os-episodios",
      "texto_original": "Tattoon Master",
      "rating": 6.16,
      "classificacao_etaria": "A14",
      "imagem_original": "https://animefire.plus/img/animes/tattoon-master.webp",
      "imagem_pasta": "https://animefire.plus/img/animes/tattoon-master/",
      "secao": "legendados",
      "pagina": 69,
      "total_episodios": 2,
      "link_video": "https://animefire.plus/video/tattoon-master"
    },
    {
      "id": 3763,
      "nome": "Tayutama: Kiss On My Deity",
      "link": "https://animefire.plus/animes/tayutama-kiss-on-my-deity-todos-os-episodios",
      "texto_original": "Tayutama: Kiss On My Deity",
      "rating": 6.84,
      "classificacao_etaria": "A14",
      "imagem_original": "https://animefire.plus/img/animes/tayutama-kiss-on-my-deity.webp",
      "imagem_pasta": "https://animefire.plus/img/animes/tayutama-kiss-on-my-deity/",
      "secao": "legendados",
      "pagina": 98,
      "total_episodios": 0,
      "link_video": "https://animefire.plus/video/tayutama-kiss-on-my-deity"
    },
    {
      "id": 3764,
      "nome": "Tearmoon Teikoku Monogatari: Dantoudai kara Hajimaru, Hime no Tensei Gyakuten Story",
      "link": "https://animefire.plus/animes/tearmoon-teikoku-monogatari-dantoudai-kara-hajimaru-hime-no-tensei-gyakuten-story-todos-os-episodios",
      "texto_original": "Tearmoon Teikoku Monogatari: Dantoudai kara Hajimaru, Hime no Tensei Gyakuten Story",
      "rating": 7.2,
      "classificacao_etaria": "A14",
      "imagem_original": "https://animefire.plus/img/animes/tearmoon-teikoku-monogatari-dantoudai-kara-hajimaru-hime-no-tensei-gyakuten-story.webp",
      "imagem_pasta": "https://animefire.plus/img/animes/tearmoon-teikoku-monogatari-dantoudai-kara-hajimaru-hime-no-tensei-gyakuten-story/",
      "secao": "legendados",
      "pagina": 19,
      "total_episodios": 12,
      "link_video": "https://animefire.plus/video/tearmoon-teikoku-monogatari-dantoudai-kara-hajimaru-hime-no-tensei-gyakuten-story"
    },
    {
      "id": 3765,
      "nome": "Tears to Tiara",
      "link": "https://animefire.plus/animes/tears-to-tiara-todos-os-episodios",
      "texto_original": "Tears to Tiara",
      "rating": 7.25,
      "classificacao_etaria": "A14",
      "imagem_original": "https://animefire.plus/img/animes/tears-to-tiara.webp",
      "imagem_pasta": "https://animefire.plus/img/animes/tears-to-tiara/",
      "secao": "legendados",
      "pagina": 153,
      "total_episodios": 26,
      "link_video": "https://animefire.plus/video/tears-to-tiara"
    },
    {
      "id": 3766,
      "nome": "Technoroid: Overmind",
      "link": "https://animefire.plus/animes/technoroid-overmind-todos-os-episodios",
      "texto_original": "Technoroid: Overmind",
      "rating": 6.52,
      "classificacao_etaria": "A14",
      "imagem_original": "https://animefire.plus/img/animes/technoroid-overmind.webp",
      "imagem_pasta": "https://animefire.plus/img/animes/technoroid-overmind/",
      "secao": "legendados",
      "pagina": 26,
      "total_episodios": 12,
      "link_video": "https://animefire.plus/video/technoroid-overmind"
    },
    {
      "id": 3767,
      "nome": "Tegamibachi (Dublado)",
      "link": "https://animefire.plus/animes/tegamibachi-dublado-todos-os-episodios",
      "texto_original": "Tegamibachi (Dublado)",
      "rating": 7.61,
      "classificacao_etaria": "A14",
      "imagem_original": "https://animefire.plus/img/animes/tegamibachi.webp",
      "imagem_pasta": "https://animefire.plus/img/animes/tegamibachi/",
      "secao": "dublados,legendados",
      "pagina": 3,
      "total_episodios": 3,
      "link_video": "https://animefire.plus/video/tegamibachi-dublado"
    },
    {
      "id": 3768,
      "nome": "Tegamibachi Reverse",
      "link": "https://animefire.plus/animes/tegamibachi-reverse-todos-os-episodios",
      "texto_original": "Tegamibachi Reverse",
      "rating": 7.84,
      "classificacao_etaria": "A14",
      "imagem_original": "https://animefire.plus/img/animes/tegamibachi-reverse.webp",
      "imagem_pasta": "https://animefire.plus/img/animes/tegamibachi-reverse/",
      "secao": "legendados",
      "pagina": 143,
      "total_episodios": 0,
      "link_video": "https://animefire.plus/video/tegamibachi-reverse"
    },
    {
      "id": 3769,
      "nome": "Teizokurei Daydream",
      "link": "https://animefire.plus/animes/teizokurei-daydream-todos-os-episodios",
      "texto_original": "Teizokurei Daydream",
      "rating": 6.27,
      "classificacao_etaria": "A18",
      "imagem_original": "https://animefire.plus/img/animes/teizokurei-daydream.webp",
      "imagem_pasta": "https://animefire.plus/img/animes/teizokurei-daydream/",
      "secao": "legendados",
      "pagina": 97,
      "total_episodios": 4,
      "link_video": "https://animefire.plus/video/teizokurei-daydream"
    },
    {
      "id": 3770,
      "nome": "Tejina-senpai",
      "link": "https://animefire.plus/animes/tejina-senpai-todos-os-episodios",
      "texto_original": "Tejina-senpai",
      "rating": 6.47,
      "classificacao_etaria": "A14",
      "imagem_original": "https://animefire.plus/img/animes/tejina-senpai.webp",
      "imagem_pasta": "https://animefire.plus/img/animes/tejina-senpai/",
      "secao": "legendados",
      "pagina": 148,
      "total_episodios": 0,
      "link_video": "https://animefire.plus/video/tejina-senpai"
    },
    {
      "id": 3771,
      "nome": "Tekken: Bloodline (Dublado)",
      "link": "https://animefire.plus/animes/tekken-bloodline-dublado-todos-os-episodios",
      "texto_original": "Tekken: Bloodline (Dublado)",
      "rating": 6.44,
      "classificacao_etaria": "A16",
      "imagem_original": "https://animefire.plus/img/animes/tekken-bloodline.webp",
      "imagem_pasta": "https://animefire.plus/img/animes/tekken-bloodline/",
      "secao": "dublados,legendados",
      "pagina": 10,
      "total_episodios": 6,
      "link_video": "https://animefire.plus/video/tekken-bloodline-dublado"
    },
    {
      "id": 3772,
      "nome": "Temple",
      "link": "https://animefire.plus/animes/temple-todos-os-episodios",
      "texto_original": "Temple",
      "rating": 6.7,
      "classificacao_etaria": "A14",
      "imagem_original": "https://animefire.plus/img/animes/temple.jpg",
      "imagem_pasta": "https://animefire.plus/img/animes/temple/",
      "secao": "legendados,lancamentos",
      "pagina": 22,
      "total_episodios": 10,
      "link_video": "https://animefire.plus/video/temple"
    },
    {
      "id": 3773,
      "nome": "Temple Specials",
      "link": "https://animefire.plus/animes/temple-specials-todos-os-episodios",
      "texto_original": "Temple Specials",
      "rating": 6.49,
      "classificacao_etaria": "A14",
      "imagem_original": "https://animefire.plus/img/animes/temple-specials.webp",
      "imagem_pasta": "https://animefire.plus/img/animes/temple-specials/",
      "secao": "legendados",
      "pagina": 17,
      "total_episodios": 1,
      "link_video": "https://animefire.plus/video/temple-specials"
    },
    {
      "id": 3774,
      "nome": "Tenchi Muyou! GXP",
      "link": "https://animefire.plus/animes/tenchi-muyou-gxp-todos-os-episodios",
      "texto_original": "Tenchi Muyou! GXP",
      "rating": 7.22,
      "classificacao_etaria": "A14",
      "imagem_original": "https://animefire.plus/img/animes/tenchi-muyou-gxp.webp",
      "imagem_pasta": "https://animefire.plus/img/animes/tenchi-muyou-gxp/",
      "secao": "legendados",
      "pagina": 164,
      "total_episodios": 26,
      "link_video": "https://animefire.plus/video/tenchi-muyou-gxp"
    },
    {
      "id": 3775,
      "nome": "Tenchi Muyou! Ryououki 4th Season",
      "link": "https://animefire.plus/animes/tenchi-muyou-ryououki-4-todos-os-episodios",
      "texto_original": "Tenchi Muyou! Ryououki 4th Season",
      "rating": 6.69,
      "classificacao_etaria": "A14",
      "imagem_original": "https://animefire.plus/img/animes/tenchi-muyou-ryououki-4.webp",
      "imagem_pasta": "https://animefire.plus/img/animes/tenchi-muyou-ryououki-4/",
      "secao": "legendados",
      "pagina": 54,
      "total_episodios": 0,
      "link_video": "https://animefire.plus/video/tenchi-muyou-ryououki-4"
    },
    {
      "id": 3776,
      "nome": "Tenchi Muyou! Ryououki 5th Season",
      "link": "https://animefire.plus/animes/tenchi-muyou-ryououki-5th-season-todos-os-episodios",
      "texto_original": "Tenchi Muyou! Ryououki 5th Season",
      "rating": 6.24,
      "classificacao_etaria": "A14",
      "imagem_original": "https://animefire.plus/img/animes/tenchi-muyou-ryououki-5th-season.webp",
      "imagem_pasta": "https://animefire.plus/img/animes/tenchi-muyou-ryououki-5th-season/",
      "secao": "legendados",
      "pagina": 90,
      "total_episodios": 0,
      "link_video": "https://animefire.plus/video/tenchi-muyou-ryououki-5th-season"
    },
    {
      "id": 3777,
      "nome": "Tenchi Souzou Design-bu",
      "link": "https://animefire.plus/animes/tenchi-souzou-design-bu-todos-os-episodios",
      "texto_original": "Tenchi Souzou Design-bu",
      "rating": 7.16,
      "classificacao_etaria": "A14",
      "imagem_original": "https://animefire.plus/img/animes/tenchi-souzou-design-bu.webp",
      "imagem_pasta": "https://animefire.plus/img/animes/tenchi-souzou-design-bu/",
      "secao": "legendados",
      "pagina": 49,
      "total_episodios": 13,
      "link_video": "https://animefire.plus/video/tenchi-souzou-design-bu"
    },
    {
      "id": 3778,
      "nome": "Tengen Toppa Gurren Lagann",
      "link": "https://animefire.plus/animes/tengen-toppa-gurren-lagann-todos-os-episodios",
      "texto_original": "Tengen Toppa Gurren Lagann",
      "rating": 8.7,
      "classificacao_etaria": "A14",
      "imagem_original": "https://animefire.plus/img/animes/tengen-toppa-gurren-lagann.webp",
      "imagem_pasta": "https://animefire.plus/img/animes/tengen-toppa-gurren-lagann/",
      "secao": "legendados",
      "pagina": 79,
      "total_episodios": 27,
      "link_video": "https://animefire.plus/video/tengen-toppa-gurren-lagann"
    },
    {
      "id": 3779,
      "nome": "Tengoku Daimakyou (Dublado)",
      "link": "https://animefire.plus/animes/tengoku-daimakyou-dublado-todos-os-episodios",
      "texto_original": "Tengoku Daimakyou (Dublado)",
      "rating": 8.21,
      "classificacao_etaria": "A16",
      "imagem_original": "https://animefire.plus/img/animes/tengoku-daimakyou.jpg",
      "imagem_pasta": "https://animefire.plus/img/animes/tengoku-daimakyou/",
      "secao": "dublados,legendados",
      "pagina": 7,
      "total_episodios": 13,
      "link_video": "https://animefire.plus/video/tengoku-daimakyou-dublado"
    },
    {
      "id": 3780,
      "nome": "Tenjou Tenge",
      "link": "https://animefire.plus/animes/tenjou-tenge-todos-os-episodios",
      "texto_original": "Tenjou Tenge",
      "rating": 7.03,
      "classificacao_etaria": "A16",
      "imagem_original": "https://animefire.plus/img/animes/tenjou-tenge.webp",
      "imagem_pasta": "https://animefire.plus/img/animes/tenjou-tenge/",
      "secao": "legendados",
      "pagina": 128,
      "total_episodios": 15,
      "link_video": "https://animefire.plus/video/tenjou-tenge"
    }
  ],
  "pagination": {
    "current_page": 189,
    "per_page": 20,
    "total_items": 4368,
    "total_pages": 219,
    "has_next": true,
    "has_prev": true
  }
}
