{
  "message": "Lista de animes",
  "data": [
    {
      "id": 2881,
      "nome": "Ore dake Level Up na Ken Season 2: Arise from the Shadow (Dublado)",
      "link": "https://animefire.plus/animes/ore-dake-level-up-na-ken-season-2-arise-from-the-shadow-dublado-todos-os-episodios",
      "texto_original": "Ore dake Level Up na Ken Season 2: Arise from the Shadow (Dublado)",
      "rating": 8.68,
      "classificacao_etaria": "A16",
      "imagem_original": "https://animefire.plus/img/animes/ore-dake-level-up-na-ken-season-2-arise-from-the-shadow.webp",
      "imagem_pasta": "https://animefire.plus/img/animes/ore-dake-level-up-na-ken-season-2-arise-from-the-shadow/",
      "secao": "dublados,legendados",
      "pagina": 1,
      "total_episodios": 13,
      "link_video": "https://animefire.plus/video/ore-dake-level-up-na-ken-season-2-arise-from-the-shadow-dublado"
    },
    {
      "id": 2882,
      "nome": "Ore ga Ojousama Gakkou ni \"Shomin Sample\" Toshite Gets♥Sareta Ken",
      "link": "https://animefire.plus/animes/ore-ga-ojousama-gakkou-ni-shomin-sample-toshite-gets-sareta-ken-todos-os-episodios",
      "texto_original": "Ore ga Ojousama Gakkou ni \"Shomin Sample\" Toshite Gets♥Sareta Ken",
      "rating": 6.99,
      "classificacao_etaria": "A14",
      "imagem_original": "https://animefire.plus/img/animes/ore-ga-ojousama-gakkou-ni-shomin-sample-toshite-gets-sareta-ken.webp",
      "imagem_pasta": "https://animefire.plus/img/animes/ore-ga-ojousama-gakkou-ni-shomin-sample-toshite-gets-sareta-ken/",
      "secao": "legendados",
      "pagina": 135,
      "total_episodios": 12,
      "link_video": "https://animefire.plus/video/ore-ga-ojousama-gakkou-ni-shomin-sample-toshite-gets-sareta-ken"
    },
    {
      "id": 2883,
      "nome": "Ore ga Suki nano wa Imouto dakedo Imouto ja Nai",
      "link": "https://animefire.plus/animes/ore-ga-suki-nano-wa-imouto-dakedo-imouto-ja-nai-todos-os-episodios",
      "texto_original": "Ore ga Suki nano wa Imouto dakedo Imouto ja Nai",
      "rating": 5.11,
      "classificacao_etaria": "A18",
      "imagem_original": "https://animefire.plus/img/animes/ore-ga-suki-nano-wa-imouto-dakedo-imouto-ja-nai.webp",
      "imagem_pasta": "https://animefire.plus/img/animes/ore-ga-suki-nano-wa-imouto-dakedo-imouto-ja-nai/",
      "secao": "legendados",
      "pagina": 97,
      "total_episodios": 10,
      "link_video": "https://animefire.plus/video/ore-ga-suki-nano-wa-imouto-dakedo-imouto-ja-nai"
    },
    {
      "id": 2884,
      "nome": "Ore Monogatari!!",
      "link": "https://animefire.plus/animes/ore-monogatari-todos-os-episodios",
      "texto_original": "Ore Monogatari!!",
      "rating": 8.04,
      "classificacao_etaria": "A14",
      "imagem_original": "https://animefire.plus/img/animes/ore-monogatari.webp",
      "imagem_pasta": "https://animefire.plus/img/animes/ore-monogatari/",
      "secao": "legendados",
      "pagina": 103,
      "total_episodios": 24,
      "link_video": "https://animefire.plus/video/ore-monogatari"
    },
    {
      "id": 2885,
      "nome": "Ore no Imouto ga Konnani Kawaii Wake ga Nai",
      "link": "https://animefire.plus/animes/ore-no-imouto-ga-konnani-kawaii-wake-ga-nai-todos-os-episodios",
      "texto_original": "Ore no Imouto ga Konnani Kawaii Wake ga Nai",
      "rating": 7.27,
      "classificacao_etaria": "A14",
      "imagem_original": "https://animefire.plus/img/animes/ore-no-imouto-ga-konnani-kawaii-wake-ga-nai.webp",
      "imagem_pasta": "https://animefire.plus/img/animes/ore-no-imouto-ga-konnani-kawaii-wake-ga-nai/",
      "secao": "legendados",
      "pagina": 154,
      "total_episodios": 12,
      "link_video": "https://animefire.plus/video/ore-no-imouto-ga-konnani-kawaii-wake-ga-nai"
    },
    {
      "id": 2886,
      "nome": "Ore no Imouto ga Konnani Kawaii Wake ga Nai.",
      "link": "https://animefire.plus/animes/oreimo-2-todos-os-episodios",
      "texto_original": "Ore no Imouto ga Konnani Kawaii Wake ga Nai.",
      "rating": 7.14,
      "classificacao_etaria": "A14",
      "imagem_original": "https://animefire.plus/img/animes/oreimo-2.webp",
      "imagem_pasta": "https://animefire.plus/img/animes/oreimo-2/",
      "secao": "legendados",
      "pagina": 59,
      "total_episodios": 0,
      "link_video": "https://animefire.plus/video/oreimo-2"
    },
    {
      "id": 2887,
      "nome": "Ore no Kanojo to Osananajimi ga Shuraba Sugiru",
      "link": "https://animefire.plus/animes/ore-no-kanojo-to-osananajimi-ga-shuraba-sugiru-todos-os-episodios",
      "texto_original": "Ore no Kanojo to Osananajimi ga Shuraba Sugiru",
      "rating": 7.23,
      "classificacao_etaria": "A14",
      "imagem_original": "https://animefire.plus/img/animes/ore-no-kanojo-to-osananajimi-ga-shuraba-sugiru.webp",
      "imagem_pasta": "https://animefire.plus/img/animes/ore-no-kanojo-to-osananajimi-ga-shuraba-sugiru/",
      "secao": "legendados",
      "pagina": 164,
      "total_episodios": 13,
      "link_video": "https://animefire.plus/video/ore-no-kanojo-to-osananajimi-ga-shuraba-sugiru"
    },
    {
      "id": 2888,
      "nome": "Ore no Nounai Sentakushi ga, Gakuen Love Comedy wo Zenryoku de Jama Shiteiru",
      "link": "https://animefire.plus/animes/ore-no-nounai-sentakushi-ga-gakuen-love-comedy-wo-zenryoku-de-jama-shiteiru-todos-os-episodios",
      "texto_original": "Ore no Nounai Sentakushi ga, Gakuen Love Comedy wo Zenryoku de Jama Shiteiru",
      "rating": 7.4,
      "classificacao_etaria": "A14",
      "imagem_original": "https://animefire.plus/img/animes/ore-no-nounai-sentakushi-ga-gakuen-love-comedy-wo-zenryoku-de-jama-shiteiru.webp",
      "imagem_pasta": "https://animefire.plus/img/animes/ore-no-nounai-sentakushi-ga-gakuen-love-comedy-wo-zenryoku-de-jama-shiteiru/",
      "secao": "legendados",
      "pagina": 135,
      "total_episodios": 4,
      "link_video": "https://animefire.plus/video/ore-no-nounai-sentakushi-ga-gakuen-love-comedy-wo-zenryoku-de-jama-shiteiru"
    },
    {
      "id": 2889,
      "nome": "Ore no Nounai Sentakushi ga, Gakuen Love Comedy wo Zenryoku de Jama Shiteiru OVA",
      "link": "https://animefire.plus/animes/ore-no-nounai-sentakushi-ga-gakuen-love-comedy-wo-zenryoku-de-jama-shiteiru-ova-todos-os-episodios",
      "texto_original": "Ore no Nounai Sentakushi ga, Gakuen Love Comedy wo Zenryoku de Jama Shiteiru OVA",
      "rating": 7.27,
      "classificacao_etaria": "A14",
      "imagem_original": "https://animefire.plus/img/animes/ore-no-nounai-sentakushi-ga-gakuen-love-comedy-wo-zenryoku-de-jama-shiteiru-ova.webp",
      "imagem_pasta": "https://animefire.plus/img/animes/ore-no-nounai-sentakushi-ga-gakuen-love-comedy-wo-zenryoku-de-jama-shiteiru-ova/",
      "secao": "legendados",
      "pagina": 75,
      "total_episodios": 1,
      "link_video": "https://animefire.plus/video/ore-no-nounai-sentakushi-ga-gakuen-love-comedy-wo-zenryoku-de-jama-shiteiru-ova"
    },
    {
      "id": 2890,
      "nome": "Ore wa Seikan Kokka no Akutoku Ryoushu!",
      "link": "https://animefire.plus/animes/ore-wa-seikan-kokka-no-akutoku-ryoushu-todos-os-episodios",
      "texto_original": "Ore wa Seikan Kokka no Akutoku Ryoushu!",
      "rating": 7.02,
      "classificacao_etaria": "A14",
      "imagem_original": "https://animefire.plus/img/animes/ore-wa-seikan-kokka-no-akutoku-ryoushu.webp",
      "imagem_pasta": "https://animefire.plus/img/animes/ore-wa-seikan-kokka-no-akutoku-ryoushu/",
      "secao": "legendados",
      "pagina": 5,
      "total_episodios": 12,
      "link_video": "https://animefire.plus/video/ore-wa-seikan-kokka-no-akutoku-ryoushu"
    },
    {
      "id": 2891,
      "nome": "Ore wa Subete wo \"Parry\" suru: Gyaku Kanchigai no Sekai Saikyou wa Boukensha ni Naritai",
      "link": "https://animefire.plus/animes/ore-wa-subete-wo-parry-suru-gyaku-kanchigai-no-sekai-saikyou-wa-boukensha-ni-naritai-todos-os-episodios",
      "texto_original": "Ore wa Subete wo \"Parry\" suru: Gyaku Kanchigai no Sekai Saikyou wa Boukensha ni Naritai",
      "rating": 6.89,
      "classificacao_etaria": "A14",
      "imagem_original": "https://animefire.plus/img/animes/ore-wa-subete-wo-parry-suru-gyaku-kanchigai-no-sekai-saikyou-wa-boukensha-ni-naritai.webp",
      "imagem_pasta": "https://animefire.plus/img/animes/ore-wa-subete-wo-parry-suru-gyaku-kanchigai-no-sekai-saikyou-wa-boukensha-ni-naritai/",
      "secao": "legendados",
      "pagina": 13,
      "total_episodios": 12,
      "link_video": "https://animefire.plus/video/ore-wa-subete-wo-parry-suru-gyaku-kanchigai-no-sekai-saikyou-wa-boukensha-ni-naritai"
    },
    {
      "id": 2892,
      "nome": "Ore wo Suki nano wa Omae dake ka yo",
      "link": "https://animefire.plus/animes/ore-wo-suki-nano-wa-omae-dake-ka-yo-todos-os-episodios",
      "texto_original": "Ore wo Suki nano wa Omae dake ka yo",
      "rating": 7.39,
      "classificacao_etaria": "A14",
      "imagem_original": "https://animefire.plus/img/animes/ore-wo-suki-nano-wa-omae-dake-ka-yo.webp",
      "imagem_pasta": "https://animefire.plus/img/animes/ore-wo-suki-nano-wa-omae-dake-ka-yo/",
      "secao": "legendados",
      "pagina": 111,
      "total_episodios": 0,
      "link_video": "https://animefire.plus/video/ore-wo-suki-nano-wa-omae-dake-ka-yo"
    },
    {
      "id": 2893,
      "nome": "Ore wo Suki nano wa Omae dake ka yo: Oretachi no Game Set",
      "link": "https://animefire.plus/animes/ore-wo-suki-nano-wa-omae-dake-ka-yo-oretachi-no-game-set-todos-os-episodios",
      "texto_original": "Ore wo Suki nano wa Omae dake ka yo: Oretachi no Game Set",
      "rating": null,
      "classificacao_etaria": "A14",
      "imagem_original": "https://animefire.plus/img/animes/ore-wo-suki-nano-wa-omae-dake-ka-yo-oretachi-no-game-set.webp",
      "imagem_pasta": "https://animefire.plus/img/animes/ore-wo-suki-nano-wa-omae-dake-ka-yo-oretachi-no-game-set/",
      "secao": "legendados",
      "pagina": 56,
      "total_episodios": 1,
      "link_video": "https://animefire.plus/video/ore-wo-suki-nano-wa-omae-dake-ka-yo-oretachi-no-game-set"
    },
    {
      "id": 2894,
      "nome": "Ore, Twintail ni Narimasu.",
      "link": "https://animefire.plus/animes/ore-twintail-ni-narimasu-todos-os-episodios",
      "texto_original": "Ore, Twintail ni Narimasu.",
      "rating": 6.66,
      "classificacao_etaria": "A14",
      "imagem_original": "https://animefire.plus/img/animes/ore-twintail-ni-narimasu.webp",
      "imagem_pasta": "https://animefire.plus/img/animes/ore-twintail-ni-narimasu/",
      "secao": "legendados",
      "pagina": 147,
      "total_episodios": 0,
      "link_video": "https://animefire.plus/video/ore-twintail-ni-narimasu"
    },
    {
      "id": 2895,
      "nome": "Orenchi no Furo Jijou",
      "link": "https://animefire.plus/animes/orenchi-no-furo-jijou-todos-os-episodios",
      "texto_original": "Orenchi no Furo Jijou",
      "rating": 7.1,
      "classificacao_etaria": "A14",
      "imagem_original": "https://animefire.plus/img/animes/orenchi-no-furo-jijou.webp",
      "imagem_pasta": "https://animefire.plus/img/animes/orenchi-no-furo-jijou/",
      "secao": "legendados",
      "pagina": 170,
      "total_episodios": 1,
      "link_video": "https://animefire.plus/video/orenchi-no-furo-jijou"
    },
    {
      "id": 2896,
      "nome": "Oretachi ni Tsubasa wa Nai: Under the Innocent Sky.",
      "link": "https://animefire.plus/animes/oretachi-ni-tsubasa-wa-nai-under-the-innocent-sky-todos-os-episodios",
      "texto_original": "Oretachi ni Tsubasa wa Nai: Under the Innocent Sky.",
      "rating": 6.78,
      "classificacao_etaria": "A18",
      "imagem_original": "https://animefire.plus/img/animes/oretachi-ni-tsubasa-wa-nai-under-the-innocent-sky.webp",
      "imagem_pasta": "https://animefire.plus/img/animes/oretachi-ni-tsubasa-wa-nai-under-the-innocent-sky/",
      "secao": "legendados",
      "pagina": 130,
      "total_episodios": 0,
      "link_video": "https://animefire.plus/video/oretachi-ni-tsubasa-wa-nai-under-the-innocent-sky"
    },
    {
      "id": 2897,
      "nome": "Orient (Dublado)",
      "link": "https://animefire.plus/animes/orient-dublado-todos-os-episodios",
      "texto_original": "Orient (Dublado)",
      "rating": 6.61,
      "classificacao_etaria": "A14",
      "imagem_original": "https://animefire.plus/img/animes/orient.webp",
      "imagem_pasta": "https://animefire.plus/img/animes/orient/",
      "secao": "dublados,legendados",
      "pagina": 12,
      "total_episodios": 12,
      "link_video": "https://animefire.plus/video/orient-dublado"
    },
    {
      "id": 2898,
      "nome": "Orient: Awajishima Gekitou-hen",
      "link": "https://animefire.plus/animes/orient-awajishima-gekitou-hen-todos-os-episodios",
      "texto_original": "Orient: Awajishima Gekitou-hen",
      "rating": 7.05,
      "classificacao_etaria": "A14",
      "imagem_original": "https://animefire.plus/img/animes/orient-awajishima-gekitou-hen.webp",
      "imagem_pasta": "https://animefire.plus/img/animes/orient-awajishima-gekitou-hen/",
      "secao": "legendados,lancamentos",
      "pagina": 30,
      "total_episodios": 3,
      "link_video": "https://animefire.plus/video/orient-awajishima-gekitou-hen"
    },
    {
      "id": 2899,
      "nome": "Oroka na Tenshi wa Akuma to Odoru",
      "link": "https://animefire.plus/animes/oroka-na-tenshi-wa-akuma-to-odoru-todos-os-episodios",
      "texto_original": "Oroka na Tenshi wa Akuma to Odoru",
      "rating": 6.91,
      "classificacao_etaria": "A14",
      "imagem_original": "https://animefire.plus/img/animes/oroka-na-tenshi-wa-akuma-to-odoru.webp",
      "imagem_pasta": "https://animefire.plus/img/animes/oroka-na-tenshi-wa-akuma-to-odoru/",
      "secao": "legendados",
      "pagina": 18,
      "total_episodios": 12,
      "link_video": "https://animefire.plus/video/oroka-na-tenshi-wa-akuma-to-odoru"
    },
    {
      "id": 2900,
      "nome": "Oruchuban Ebichu",
      "link": "https://animefire.plus/animes/oruchuban-ebichu-todos-os-episodios",
      "texto_original": "Oruchuban Ebichu",
      "rating": 7.48,
      "classificacao_etaria": "A18",
      "imagem_original": "https://animefire.plus/img/animes/oruchuban-ebichu.webp",
      "imagem_pasta": "https://animefire.plus/img/animes/oruchuban-ebichu/",
      "secao": "legendados",
      "pagina": 143,
      "total_episodios": 12,
      "link_video": "https://animefire.plus/video/oruchuban-ebichu"
    }
  ],
  "pagination": {
    "current_page": 145,
    "per_page": 20,
    "total_items": 4368,
    "total_pages": 219,
    "has_next": true,
    "has_prev": true
  }
}
