{
  "message": "Lista de animes",
  "data": [
    {
      "id": 3481,
      "nome": "Shiroi Suna no Aquatope",
      "link": "https://animefire.plus/animes/shiroi-suna-no-aquatope-todos-os-episodios",
      "texto_original": "Shiroi Suna no Aquatope",
      "rating": 7.51,
      "classificacao_etaria": "A14",
      "imagem_original": "https://animefire.plus/img/animes/shiroi-suna-no-aquatope.webp",
      "imagem_pasta": "https://animefire.plus/img/animes/shiroi-suna-no-aquatope/",
      "secao": "legendados",
      "pagina": 41,
      "total_episodios": 24,
      "link_video": "https://animefire.plus/video/shiroi-suna-no-aquatope"
    },
    {
      "id": 3482,
      "nome": "Shironeko Project: Zero Chronicle",
      "link": "https://animefire.plus/animes/shironeko-project-zero-chronicle-todos-os-episodios",
      "texto_original": "Shironeko Project: Zero Chronicle",
      "rating": 5.3,
      "classificacao_etaria": "A14",
      "imagem_original": "https://animefire.plus/img/animes/shironeko-project-zero-chronicle.webp",
      "imagem_pasta": "https://animefire.plus/img/animes/shironeko-project-zero-chronicle/",
      "secao": "legendados",
      "pagina": 81,
      "total_episodios": 0,
      "link_video": "https://animefire.plus/video/shironeko-project-zero-chronicle"
    },
    {
      "id": 3483,
      "nome": "Shishunki Bishoujo Gattai Robo Z-Mind",
      "link": "https://animefire.plus/animes/shishunki-bishoujo-gattai-robo-z-mind-todos-os-episodios",
      "texto_original": "Shishunki Bishoujo Gattai Robo Z-Mind",
      "rating": 5.9,
      "classificacao_etaria": "A14",
      "imagem_original": "https://animefire.plus/img/animes/shishunki-bishoujo-gattai-robo-z-mind.webp",
      "imagem_pasta": "https://animefire.plus/img/animes/shishunki-bishoujo-gattai-robo-z-mind/",
      "secao": "legendados",
      "pagina": 56,
      "total_episodios": 3,
      "link_video": "https://animefire.plus/video/shishunki-bishoujo-gattai-robo-z-mind"
    },
    {
      "id": 3484,
      "nome": "Shiunji-ke no Kodomotachi (Dublado)",
      "link": "https://animefire.plus/animes/shiunji-ke-no-kodomotachi-dublado-todos-os-episodios",
      "texto_original": "Shiunji-ke no Kodomotachi (Dublado)",
      "rating": 7.1,
      "classificacao_etaria": "A14",
      "imagem_original": "https://animefire.plus/img/animes/shiunji-ke-no-kodomotachi.webp",
      "imagem_pasta": "https://animefire.plus/img/animes/shiunji-ke-no-kodomotachi/",
      "secao": "dublados,legendados,lancamentos",
      "pagina": 1,
      "total_episodios": 12,
      "link_video": "https://animefire.plus/video/shiunji-ke-no-kodomotachi-dublado"
    },
    {
      "id": 3485,
      "nome": "Shiyan Pin Jiating",
      "link": "https://animefire.plus/animes/shiyan-pin-jiating-todos-os-episodios",
      "texto_original": "Shiyan Pin Jiating",
      "rating": 6.41,
      "classificacao_etaria": "A14",
      "imagem_original": "https://animefire.plus/img/animes/shiyan-pin-jiating.webp",
      "imagem_pasta": "https://animefire.plus/img/animes/shiyan-pin-jiating/",
      "secao": "legendados",
      "pagina": 114,
      "total_episodios": 12,
      "link_video": "https://animefire.plus/video/shiyan-pin-jiating"
    },
    {
      "id": 3486,
      "nome": "Shokei Shoujo no Virgin Road",
      "link": "https://animefire.plus/animes/shokei-shoujo-no-virgin-road-todos-os-episodios",
      "texto_original": "Shokei Shoujo no Virgin Road",
      "rating": 6.76,
      "classificacao_etaria": "A16",
      "imagem_original": "https://animefire.plus/img/animes/shokei-shoujo-no-virgin-road.webp",
      "imagem_pasta": "https://animefire.plus/img/animes/shokei-shoujo-no-virgin-road/",
      "secao": "legendados",
      "pagina": 34,
      "total_episodios": 12,
      "link_video": "https://animefire.plus/video/shokei-shoujo-no-virgin-road"
    },
    {
      "id": 3487,
      "nome": "Shokugeki no Souma (Dublado)",
      "link": "https://animefire.plus/animes/shokugeki-no-souma-dublado-todos-os-episodios",
      "texto_original": "Shokugeki no Souma (Dublado)",
      "rating": 8.33,
      "classificacao_etaria": "A14",
      "imagem_original": "https://animefire.plus/img/animes/shokugeki-no-souma.webp",
      "imagem_pasta": "https://animefire.plus/img/animes/shokugeki-no-souma/",
      "secao": "dublados,legendados",
      "pagina": 19,
      "total_episodios": 24,
      "link_video": "https://animefire.plus/video/shokugeki-no-souma-dublado"
    },
    {
      "id": 3488,
      "nome": "Shokugeki no Souma OVA",
      "link": "https://animefire.plus/animes/shokugeki-no-souma-ova-todos-os-episodios",
      "texto_original": "Shokugeki no Souma OVA",
      "rating": 7.35,
      "classificacao_etaria": "A14",
      "imagem_original": "https://animefire.plus/img/animes/shokugeki-no-souma-ova.webp",
      "imagem_pasta": "https://animefire.plus/img/animes/shokugeki-no-souma-ova/",
      "secao": "legendados",
      "pagina": 37,
      "total_episodios": 2,
      "link_video": "https://animefire.plus/video/shokugeki-no-souma-ova"
    },
    {
      "id": 3489,
      "nome": "Shokugeki no Souma: Gou no Sara",
      "link": "https://animefire.plus/animes/shokugeki-no-souma-gou-no-sara-todos-os-episodios",
      "texto_original": "Shokugeki no Souma: Gou no Sara",
      "rating": 7.35,
      "classificacao_etaria": "A14",
      "imagem_original": "https://animefire.plus/img/animes/shokugeki-no-souma-gou-no-sara.webp",
      "imagem_pasta": "https://animefire.plus/img/animes/shokugeki-no-souma-gou-no-sara/",
      "secao": "legendados",
      "pagina": 80,
      "total_episodios": 0,
      "link_video": "https://animefire.plus/video/shokugeki-no-souma-gou-no-sara"
    },
    {
      "id": 3490,
      "nome": "Shokugeki no Souma: Ni no Sara (Dublado)",
      "link": "https://animefire.plus/animes/shokugeki-no-souma-ni-no-sara-dublado-todos-os-episodios",
      "texto_original": "Shokugeki no Souma: Ni no Sara (Dublado)",
      "rating": 8.25,
      "classificacao_etaria": "A14",
      "imagem_original": "https://animefire.plus/img/animes/shokugeki-no-souma-ni-no-sara.webp",
      "imagem_pasta": "https://animefire.plus/img/animes/shokugeki-no-souma-ni-no-sara/",
      "secao": "dublados,legendados",
      "pagina": 19,
      "total_episodios": 13,
      "link_video": "https://animefire.plus/video/shokugeki-no-souma-ni-no-sara-dublado"
    },
    {
      "id": 3491,
      "nome": "Shokugeki no Souma: Ni no Sara OVA",
      "link": "https://animefire.plus/animes/shokugeki-no-souma-ni-no-sara-ova-todos-os-episodios",
      "texto_original": "Shokugeki no Souma: Ni no Sara OVA",
      "rating": 7.51,
      "classificacao_etaria": "A14",
      "imagem_original": "https://animefire.plus/img/animes/shokugeki-no-souma-ni-no-sara-ova.webp",
      "imagem_pasta": "https://animefire.plus/img/animes/shokugeki-no-souma-ni-no-sara-ova/",
      "secao": "legendados",
      "pagina": 43,
      "total_episodios": 2,
      "link_video": "https://animefire.plus/video/shokugeki-no-souma-ni-no-sara-ova"
    },
    {
      "id": 3492,
      "nome": "Shokugeki no Souma: San no Sara",
      "link": "https://animefire.plus/animes/shokugeki-no-souma-san-no-sara-todos-os-episodios",
      "texto_original": "Shokugeki no Souma: San no Sara",
      "rating": 8.41,
      "classificacao_etaria": "A14",
      "imagem_original": "https://animefire.plus/img/animes/shokugeki-no-souma-san-no-sara.webp",
      "imagem_pasta": "https://animefire.plus/img/animes/shokugeki-no-souma-san-no-sara/",
      "secao": "legendados",
      "pagina": 166,
      "total_episodios": 2,
      "link_video": "https://animefire.plus/video/shokugeki-no-souma-san-no-sara"
    },
    {
      "id": 3493,
      "nome": "Shokugeki no Souma: San no Sara - Kyokuseiryou no Erina",
      "link": "https://animefire.plus/animes/shokugeki-no-souma-san-no-sara---kyokuseiryou-no-erina-todos-os-episodios",
      "texto_original": "Shokugeki no Souma: San no Sara - Kyokuseiryou no Erina",
      "rating": 7.46,
      "classificacao_etaria": "A14",
      "imagem_original": "https://animefire.plus/img/animes/shokugeki-no-souma-san-no-sara---kyokuseiryou-no-erina.webp",
      "imagem_pasta": "https://animefire.plus/img/animes/shokugeki-no-souma-san-no-sara---kyokuseiryou-no-erina/",
      "secao": "legendados",
      "pagina": 37,
      "total_episodios": 1,
      "link_video": "https://animefire.plus/video/shokugeki-no-souma-san-no-sara---kyokuseiryou-no-erina"
    },
    {
      "id": 3494,
      "nome": "Shokugeki no Souma: San no Sara - Tootsuki Ressha-hen",
      "link": "https://animefire.plus/animes/shokugeki-no-souma-san-no-sara---tootsuki-ressha-hen-todos-os-episodios",
      "texto_original": "Shokugeki no Souma: San no Sara - Tootsuki Ressha-hen",
      "rating": 8.35,
      "classificacao_etaria": "A14",
      "imagem_original": "https://animefire.plus/img/animes/shokugeki-no-souma-san-no-sara---tootsuki-ressha-hen.webp",
      "imagem_pasta": "https://animefire.plus/img/animes/shokugeki-no-souma-san-no-sara---tootsuki-ressha-hen/",
      "secao": "legendados",
      "pagina": 122,
      "total_episodios": 0,
      "link_video": "https://animefire.plus/video/shokugeki-no-souma-san-no-sara---tootsuki-ressha-hen"
    },
    {
      "id": 3495,
      "nome": "Shokugeki no Souma: Shin no Sara",
      "link": "https://animefire.plus/animes/shokugeki-no-souma-shin-no-sara-todos-os-episodios",
      "texto_original": "Shokugeki no Souma: Shin no Sara",
      "rating": 7.76,
      "classificacao_etaria": "A14",
      "imagem_original": "https://animefire.plus/img/animes/shokugeki-no-souma-shin-no-sara.webp",
      "imagem_pasta": "https://animefire.plus/img/animes/shokugeki-no-souma-shin-no-sara/",
      "secao": "legendados",
      "pagina": 110,
      "total_episodios": 0,
      "link_video": "https://animefire.plus/video/shokugeki-no-souma-shin-no-sara"
    },
    {
      "id": 3496,
      "nome": "Shonan Junai Gumi!",
      "link": "https://animefire.plus/animes/shonan-junai-gumi-todos-os-episodios",
      "texto_original": "Shonan Junai Gumi!",
      "rating": 7.49,
      "classificacao_etaria": "A18",
      "imagem_original": "https://animefire.plus/img/animes/shonan-junai-gumi.webp",
      "imagem_pasta": "https://animefire.plus/img/animes/shonan-junai-gumi/",
      "secao": "legendados",
      "pagina": 54,
      "total_episodios": 5,
      "link_video": "https://animefire.plus/video/shonan-junai-gumi"
    },
    {
      "id": 3497,
      "nome": "Shoot! Goal to the Future",
      "link": "https://animefire.plus/animes/shoot-goal-to-the-future-todos-os-episodios",
      "texto_original": "Shoot! Goal to the Future",
      "rating": 5.29,
      "classificacao_etaria": "A14",
      "imagem_original": "https://animefire.plus/img/animes/shoot-goal-to-the-future.webp",
      "imagem_pasta": "https://animefire.plus/img/animes/shoot-goal-to-the-future/",
      "secao": "legendados",
      "pagina": 32,
      "total_episodios": 13,
      "link_video": "https://animefire.plus/video/shoot-goal-to-the-future"
    },
    {
      "id": 3498,
      "nome": "Shoujo Kakumei Utena",
      "link": "https://animefire.plus/animes/shoujo-kakumei-utena-todos-os-episodios",
      "texto_original": "Shoujo Kakumei Utena",
      "rating": 8.19,
      "classificacao_etaria": "A14",
      "imagem_original": "https://animefire.plus/img/animes/shoujo-kakumei-utena.webp",
      "imagem_pasta": "https://animefire.plus/img/animes/shoujo-kakumei-utena/",
      "secao": "legendados",
      "pagina": 72,
      "total_episodios": 39,
      "link_video": "https://animefire.plus/video/shoujo-kakumei-utena"
    },
    {
      "id": 3499,
      "nome": "Shoujo Shuumatsu Ryokou",
      "link": "https://animefire.plus/animes/shoujo-shuumatsu-ryokou-todos-os-episodios",
      "texto_original": "Shoujo Shuumatsu Ryokou",
      "rating": 8.19,
      "classificacao_etaria": "A14",
      "imagem_original": "https://animefire.plus/img/animes/shoujo-shuumatsu-ryokou.webp",
      "imagem_pasta": "https://animefire.plus/img/animes/shoujo-shuumatsu-ryokou/",
      "secao": "legendados",
      "pagina": 145,
      "total_episodios": 12,
      "link_video": "https://animefire.plus/video/shoujo-shuumatsu-ryokou"
    },
    {
      "id": 3500,
      "nome": "Shoujo-tachi wa Kouya wo Mezasu",
      "link": "https://animefire.plus/animes/shoujo-tachi-wa-kouya-wo-mezasu-todos-os-episodios",
      "texto_original": "Shoujo-tachi wa Kouya wo Mezasu",
      "rating": 6.38,
      "classificacao_etaria": "A14",
      "imagem_original": "https://animefire.plus/img/animes/shoujo-tachi-wa-kouya-wo-mezasu.webp",
      "imagem_pasta": "https://animefire.plus/img/animes/shoujo-tachi-wa-kouya-wo-mezasu/",
      "secao": "legendados",
      "pagina": 173,
      "total_episodios": 3,
      "link_video": "https://animefire.plus/video/shoujo-tachi-wa-kouya-wo-mezasu"
    }
  ],
  "pagination": {
    "current_page": 175,
    "per_page": 20,
    "total_items": 4368,
    "total_pages": 219,
    "has_next": true,
    "has_prev": true
  }
}
