{
  "message": "Lista de animes",
  "data": [
    {
      "id": 321,
      "nome": "Bakuretsu Hunters",
      "link": "https://animefire.plus/animes/bakuretsu-hunters-todos-os-episodios",
      "texto_original": "Bakuretsu Hunters",
      "rating": 6.78,
      "classificacao_etaria": "A16",
      "imagem_original": "https://animefire.plus/img/animes/bakuretsu-hunters.webp",
      "imagem_pasta": "https://animefire.plus/img/animes/bakuretsu-hunters/",
      "secao": "legendados",
      "pagina": 122,
      "total_episodios": 26,
      "link_video": "https://animefire.plus/video/bakuretsu-hunters"
    },
    {
      "id": 322,
      "nome": "Bakuretsu Tenshi",
      "link": "https://animefire.plus/animes/bakuretsu-tenshi-todos-os-episodios",
      "texto_original": "Bakuretsu Tenshi",
      "rating": 6.88,
      "classificacao_etaria": "A14",
      "imagem_original": "https://animefire.plus/img/animes/bakuretsu-tenshi.webp",
      "imagem_pasta": "https://animefire.plus/img/animes/bakuretsu-tenshi/",
      "secao": "legendados",
      "pagina": 172,
      "total_episodios": 24,
      "link_video": "https://animefire.plus/video/bakuretsu-tenshi"
    },
    {
      "id": 323,
      "nome": "Bakuten Shoot Beyblade (Dublado)",
      "link": "https://animefire.plus/animes/bakuten-shoot-beyblade-dublado-todos-os-episodios",
      "texto_original": "Bakuten Shoot Beyblade (Dublado)",
      "rating": 6.8,
      "classificacao_etaria": "A10",
      "imagem_original": "https://animefire.plus/img/animes/bakuten-shoot-beyblade.webp",
      "imagem_pasta": "https://animefire.plus/img/animes/bakuten-shoot-beyblade/",
      "secao": "dublados",
      "pagina": 27,
      "total_episodios": 51,
      "link_video": "https://animefire.plus/video/bakuten-shoot-beyblade-dublado"
    },
    {
      "id": 324,
      "nome": "Bakuten Shoot Beyblade 2002 (Dublado)",
      "link": "https://animefire.plus/animes/bakuten-shoot-beyblade-2002-dublado-todos-os-episodios",
      "texto_original": "Bakuten Shoot Beyblade 2002 (Dublado)",
      "rating": 6.75,
      "classificacao_etaria": "A10",
      "imagem_original": "https://animefire.plus/img/animes/bakuten-shoot-beyblade-2002.webp",
      "imagem_pasta": "https://animefire.plus/img/animes/bakuten-shoot-beyblade-2002/",
      "secao": "dublados",
      "pagina": 28,
      "total_episodios": 0,
      "link_video": "https://animefire.plus/video/bakuten-shoot-beyblade-2002-dublado"
    },
    {
      "id": 325,
      "nome": "Bakuten Shoot Beyblade G Revolution (Dublado)",
      "link": "https://animefire.plus/animes/bakuten-shoot-beyblade-g-revolution-dublado-todos-os-episodios",
      "texto_original": "Bakuten Shoot Beyblade G Revolution (Dublado)",
      "rating": 7.01,
      "classificacao_etaria": "A10",
      "imagem_original": "https://animefire.plus/img/animes/bakuten-shoot-beyblade-g-revolution.webp",
      "imagem_pasta": "https://animefire.plus/img/animes/bakuten-shoot-beyblade-g-revolution/",
      "secao": "dublados",
      "pagina": 27,
      "total_episodios": 11,
      "link_video": "https://animefire.plus/video/bakuten-shoot-beyblade-g-revolution-dublado"
    },
    {
      "id": 326,
      "nome": "Bakuten!!",
      "link": "https://animefire.plus/animes/bakuten-todos-os-episodios",
      "texto_original": "Bakuten!!",
      "rating": 7.49,
      "classificacao_etaria": "A14",
      "imagem_original": "https://animefire.plus/img/animes/bakuten.webp",
      "imagem_pasta": "https://animefire.plus/img/animes/bakuten/",
      "secao": "legendados",
      "pagina": 46,
      "total_episodios": 12,
      "link_video": "https://animefire.plus/video/bakuten"
    },
    {
      "id": 327,
      "nome": "Baldr Force Exe Resolution",
      "link": "https://animefire.plus/animes/baldr-force-exe-resolution-todos-os-episodios",
      "texto_original": "Baldr Force Exe Resolution",
      "rating": 6.5,
      "classificacao_etaria": "A18",
      "imagem_original": "https://animefire.plus/img/animes/baldr-force-exe-resolution.webp",
      "imagem_pasta": "https://animefire.plus/img/animes/baldr-force-exe-resolution/",
      "secao": "legendados",
      "pagina": 69,
      "total_episodios": 4,
      "link_video": "https://animefire.plus/video/baldr-force-exe-resolution"
    },
    {
      "id": 328,
      "nome": "Ballpark de Tsukamaete!",
      "link": "https://animefire.plus/animes/ballpark-de-tsukamaete-todos-os-episodios",
      "texto_original": "Ballpark de Tsukamaete!",
      "rating": 7.16,
      "classificacao_etaria": "A14",
      "imagem_original": "https://animefire.plus/img/animes/ballpark-de-tsukamaete.webp",
      "imagem_pasta": "https://animefire.plus/img/animes/ballpark-de-tsukamaete/",
      "secao": "legendados",
      "pagina": 4,
      "total_episodios": 12,
      "link_video": "https://animefire.plus/video/ballpark-de-tsukamaete"
    },
    {
      "id": 329,
      "nome": "Ballroom e Youkoso",
      "link": "https://animefire.plus/animes/ballroom-e-youkoso-todos-os-episodios",
      "texto_original": "Ballroom e Youkoso",
      "rating": 8.26,
      "classificacao_etaria": "A14",
      "imagem_original": "https://animefire.plus/img/animes/ballroom-e-youkoso.webp",
      "imagem_pasta": "https://animefire.plus/img/animes/ballroom-e-youkoso/",
      "secao": "legendados",
      "pagina": 80,
      "total_episodios": 0,
      "link_video": "https://animefire.plus/video/ballroom-e-youkoso"
    },
    {
      "id": 330,
      "nome": "Bamboo Blade",
      "link": "https://animefire.plus/animes/bamboo-blade-todos-os-episodios",
      "texto_original": "Bamboo Blade",
      "rating": 7.38,
      "classificacao_etaria": "A14",
      "imagem_original": "https://animefire.plus/img/animes/bamboo-blade.webp",
      "imagem_pasta": "https://animefire.plus/img/animes/bamboo-blade/",
      "secao": "legendados",
      "pagina": 155,
      "total_episodios": 20,
      "link_video": "https://animefire.plus/video/bamboo-blade"
    },
    {
      "id": 331,
      "nome": "Banana Fish",
      "link": "https://animefire.plus/animes/banana-fish-todos-os-episodios",
      "texto_original": "Banana Fish",
      "rating": 8.32,
      "classificacao_etaria": "A16",
      "imagem_original": "https://animefire.plus/img/animes/banana-fish.webp",
      "imagem_pasta": "https://animefire.plus/img/animes/banana-fish/",
      "secao": "legendados",
      "pagina": 119,
      "total_episodios": 24,
      "link_video": "https://animefire.plus/video/banana-fish"
    },
    {
      "id": 332,
      "nome": "Bananya",
      "link": "https://animefire.plus/animes/bananya-todos-os-episodios",
      "texto_original": "Bananya",
      "rating": 6.8,
      "classificacao_etaria": null,
      "imagem_original": "https://animefire.plus/img/animes/bananya.webp",
      "imagem_pasta": "https://animefire.plus/img/animes/bananya/",
      "secao": "legendados",
      "pagina": 100,
      "total_episodios": 13,
      "link_video": "https://animefire.plus/video/bananya"
    },
    {
      "id": 333,
      "nome": "BanG Dream!",
      "link": "https://animefire.plus/animes/bang-dream-todos-os-episodios",
      "texto_original": "BanG Dream!",
      "rating": 7.02,
      "classificacao_etaria": "A14",
      "imagem_original": "https://animefire.plus/img/animes/bang-dream.webp",
      "imagem_pasta": "https://animefire.plus/img/animes/bang-dream/",
      "secao": "legendados",
      "pagina": 132,
      "total_episodios": 0,
      "link_video": "https://animefire.plus/video/bang-dream"
    },
    {
      "id": 334,
      "nome": "BanG Dream! 2nd Season",
      "link": "https://animefire.plus/animes/bang-dream-2nd-season-todos-os-episodios",
      "texto_original": "BanG Dream! 2nd Season",
      "rating": 7.6,
      "classificacao_etaria": "A14",
      "imagem_original": "https://animefire.plus/img/animes/bang-dream-2nd-season.webp",
      "imagem_pasta": "https://animefire.plus/img/animes/bang-dream-2nd-season/",
      "secao": "legendados",
      "pagina": 109,
      "total_episodios": 13,
      "link_video": "https://animefire.plus/video/bang-dream-2nd-season"
    },
    {
      "id": 335,
      "nome": "BanG Dream! 3rd Season",
      "link": "https://animefire.plus/animes/bang-dream-3rd-season-todos-os-episodios",
      "texto_original": "BanG Dream! 3rd Season",
      "rating": 8.05,
      "classificacao_etaria": "A14",
      "imagem_original": "https://animefire.plus/img/animes/bang-dream-3rd-season.webp",
      "imagem_pasta": "https://animefire.plus/img/animes/bang-dream-3rd-season/",
      "secao": "legendados",
      "pagina": 93,
      "total_episodios": 13,
      "link_video": "https://animefire.plus/video/bang-dream-3rd-season"
    },
    {
      "id": 336,
      "nome": "BanG Dream! Ave Mujica",
      "link": "https://animefire.plus/animes/bang-dream-ave-mujica-todos-os-episodios",
      "texto_original": "BanG Dream! Ave Mujica",
      "rating": 8.06,
      "classificacao_etaria": "A14",
      "imagem_original": "https://animefire.plus/img/animes/bang-dream-ave-mujica.webp",
      "imagem_pasta": "https://animefire.plus/img/animes/bang-dream-ave-mujica/",
      "secao": "legendados",
      "pagina": 7,
      "total_episodios": 13,
      "link_video": "https://animefire.plus/video/bang-dream-ave-mujica"
    },
    {
      "id": 337,
      "nome": "BanG Dream! Garupa☆Pico",
      "link": "https://animefire.plus/animes/bang-dream-garupa-pico-todos-os-episodios",
      "texto_original": "BanG Dream! Garupa☆Pico",
      "rating": 7.82,
      "classificacao_etaria": "A14",
      "imagem_original": "https://animefire.plus/img/animes/bang-dream-garupa-pico.webp",
      "imagem_pasta": "https://animefire.plus/img/animes/bang-dream-garupa-pico/",
      "secao": "legendados",
      "pagina": 59,
      "total_episodios": 12,
      "link_video": "https://animefire.plus/video/bang-dream-garupa-pico"
    },
    {
      "id": 338,
      "nome": "BanG Dream! Garupa☆Pico: Oomori",
      "link": "https://animefire.plus/animes/bang-dream-garupa-pico-oomori-todos-os-episodios",
      "texto_original": "BanG Dream! Garupa☆Pico: Oomori",
      "rating": 7.63,
      "classificacao_etaria": "A14",
      "imagem_original": "https://animefire.plus/img/animes/bang-dream-garupa-pico-oomori.webp",
      "imagem_pasta": "https://animefire.plus/img/animes/bang-dream-garupa-pico-oomori/",
      "secao": "legendados,lancamentos",
      "pagina": 79,
      "total_episodios": 1,
      "link_video": "https://animefire.plus/video/bang-dream-garupa-pico-oomori"
    },
    {
      "id": 339,
      "nome": "BanG Dream! Morfonication",
      "link": "https://animefire.plus/animes/bang-dream-morfonication-todos-os-episodios",
      "texto_original": "BanG Dream! Morfonication",
      "rating": 7.57,
      "classificacao_etaria": "A14",
      "imagem_original": "https://animefire.plus/img/animes/bang-dream-morfonication.webp",
      "imagem_pasta": "https://animefire.plus/img/animes/bang-dream-morfonication/",
      "secao": "legendados",
      "pagina": 30,
      "total_episodios": 1,
      "link_video": "https://animefire.plus/video/bang-dream-morfonication"
    },
    {
      "id": 340,
      "nome": "Bannou Bunka Neko-Musume",
      "link": "https://animefire.plus/animes/bannou-bunka-neko-musume-todos-os-episodios",
      "texto_original": "Bannou Bunka Neko-Musume",
      "rating": 6.75,
      "classificacao_etaria": "A18",
      "imagem_original": "https://animefire.plus/img/animes/bannou-bunka-neko-musume.webp",
      "imagem_pasta": "https://animefire.plus/img/animes/bannou-bunka-neko-musume/",
      "secao": "legendados",
      "pagina": 106,
      "total_episodios": 12,
      "link_video": "https://animefire.plus/video/bannou-bunka-neko-musume"
    }
  ],
  "pagination": {
    "current_page": 17,
    "per_page": 20,
    "total_items": 4368,
    "total_pages": 219,
    "has_next": true,
    "has_prev": true
  }
}
