{
  "message": "Lista de animes",
  "data": [
    {
      "id": 2801,
      "nome": "Obey Me!",
      "link": "https://animefire.plus/animes/obey-me-todos-os-episodios",
      "texto_original": "Obey Me!",
      "rating": 7.13,
      "classificacao_etaria": "A14",
      "imagem_original": "https://animefire.plus/img/animes/obey-me.webp",
      "imagem_pasta": "https://animefire.plus/img/animes/obey-me/",
      "secao": "legendados",
      "pagina": 40,
      "total_episodios": 12,
      "link_video": "https://animefire.plus/video/obey-me"
    },
    {
      "id": 2802,
      "nome": "Obsolete",
      "link": "https://animefire.plus/animes/obsolete-todos-os-episodios",
      "texto_original": "Obsolete",
      "rating": 5.78,
      "classificacao_etaria": "A14",
      "imagem_original": "https://animefire.plus/img/animes/obsolete.webp",
      "imagem_pasta": "https://animefire.plus/img/animes/obsolete/",
      "secao": "legendados",
      "pagina": 94,
      "total_episodios": 0,
      "link_video": "https://animefire.plus/video/obsolete"
    },
    {
      "id": 2803,
      "nome": "Occultic;Nine",
      "link": "https://animefire.plus/animes/occultic-nine-todos-os-episodios",
      "texto_original": "Occultic;Nine",
      "rating": 6.98,
      "classificacao_etaria": "A14",
      "imagem_original": "https://animefire.plus/img/animes/occultic-nine.webp",
      "imagem_pasta": "https://animefire.plus/img/animes/occultic-nine/",
      "secao": "legendados",
      "pagina": 62,
      "total_episodios": 12,
      "link_video": "https://animefire.plus/video/occultic-nine"
    },
    {
      "id": 2804,
      "nome": "Ochikobore Fruit Tart",
      "link": "https://animefire.plus/animes/ochikobore-fruit-tart-todos-os-episodios",
      "texto_original": "Ochikobore Fruit Tart",
      "rating": null,
      "classificacao_etaria": "A14",
      "imagem_original": "https://animefire.plus/img/animes/ochikobore-fruit-tart.webp",
      "imagem_pasta": "https://animefire.plus/img/animes/ochikobore-fruit-tart/",
      "secao": "legendados",
      "pagina": 51,
      "total_episodios": 12,
      "link_video": "https://animefire.plus/video/ochikobore-fruit-tart"
    },
    {
      "id": 2805,
      "nome": "Oda Cinnamon Nobunaga",
      "link": "https://animefire.plus/animes/oda-cinnamon-nobunaga-todos-os-episodios",
      "texto_original": "Oda Cinnamon Nobunaga",
      "rating": 6.55,
      "classificacao_etaria": "A14",
      "imagem_original": "https://animefire.plus/img/animes/oda-cinnamon-nobunaga.webp",
      "imagem_pasta": "https://animefire.plus/img/animes/oda-cinnamon-nobunaga/",
      "secao": "legendados",
      "pagina": 92,
      "total_episodios": 0,
      "link_video": "https://animefire.plus/video/oda-cinnamon-nobunaga"
    },
    {
      "id": 2806,
      "nome": "Oda Nobuna no Yabou",
      "link": "https://animefire.plus/animes/oda-nobuna-no-yabou-todos-os-episodios",
      "texto_original": "Oda Nobuna no Yabou",
      "rating": 7.52,
      "classificacao_etaria": "A14",
      "imagem_original": "https://animefire.plus/img/animes/oda-nobuna-no-yabou.webp",
      "imagem_pasta": "https://animefire.plus/img/animes/oda-nobuna-no-yabou/",
      "secao": "legendados",
      "pagina": 73,
      "total_episodios": 12,
      "link_video": "https://animefire.plus/video/oda-nobuna-no-yabou"
    },
    {
      "id": 2807,
      "nome": "Odd Taxi (Dublado)",
      "link": "https://animefire.plus/animes/odd-taxi-dublado-todos-os-episodios",
      "texto_original": "Odd Taxi (Dublado)",
      "rating": 8.64,
      "classificacao_etaria": "A14",
      "imagem_original": "https://animefire.plus/img/animes/odd-taxi.webp",
      "imagem_pasta": "https://animefire.plus/img/animes/odd-taxi/",
      "secao": "dublados,legendados",
      "pagina": 4,
      "total_episodios": 13,
      "link_video": "https://animefire.plus/video/odd-taxi-dublado"
    },
    {
      "id": 2808,
      "nome": "Oemojisangjuui (Dublado)",
      "link": "https://animefire.plus/animes/oemojisangjuui-dublado-todos-os-episodios",
      "texto_original": "Oemojisangjuui (Dublado)",
      "rating": 7.41,
      "classificacao_etaria": "A14",
      "imagem_original": "https://animefire.plus/img/animes/oemojisangjuui.webp",
      "imagem_pasta": "https://animefire.plus/img/animes/oemojisangjuui/",
      "secao": "dublados",
      "pagina": 8,
      "total_episodios": 8,
      "link_video": "https://animefire.plus/video/oemojisangjuui-dublado"
    },
    {
      "id": 2809,
      "nome": "Oide yo Mahou Shoujo Mura (Fuhou Senkyo)",
      "link": "https://animefire.plus/animes/oide-yo-mahou-shoujo-mura-fuhou-senkyo-todos-os-episodios",
      "texto_original": "Oide yo Mahou Shoujo Mura (Fuhou Senkyo)",
      "rating": null,
      "classificacao_etaria": "A14",
      "imagem_original": "https://animefire.plus/img/animes/oide-yo-mahou-shoujo-mura-fuhou-senkyo.webp",
      "imagem_pasta": "https://animefire.plus/img/animes/oide-yo-mahou-shoujo-mura-fuhou-senkyo/",
      "secao": "legendados,lancamentos",
      "pagina": 3,
      "total_episodios": 0,
      "link_video": "https://animefire.plus/video/oide-yo-mahou-shoujo-mura-fuhou-senkyo"
    },
    {
      "id": 2810,
      "nome": "Ojamajo Doremi",
      "link": "https://animefire.plus/animes/ojamajo-doremi-todos-os-episodios",
      "texto_original": "Ojamajo Doremi",
      "rating": 7.2,
      "classificacao_etaria": null,
      "imagem_original": "https://animefire.plus/img/animes/ojamajo-doremi.webp",
      "imagem_pasta": "https://animefire.plus/img/animes/ojamajo-doremi/",
      "secao": "legendados",
      "pagina": 59,
      "total_episodios": 10,
      "link_video": "https://animefire.plus/video/ojamajo-doremi"
    },
    {
      "id": 2811,
      "nome": "Ojisan to Marshmallow",
      "link": "https://animefire.plus/animes/ojisan-to-marshmallow-todos-os-episodios",
      "texto_original": "Ojisan to Marshmallow",
      "rating": 6.63,
      "classificacao_etaria": "A14",
      "imagem_original": "https://animefire.plus/img/animes/ojisan-to-marshmallow.webp",
      "imagem_pasta": "https://animefire.plus/img/animes/ojisan-to-marshmallow/",
      "secao": "legendados",
      "pagina": 62,
      "total_episodios": 1,
      "link_video": "https://animefire.plus/video/ojisan-to-marshmallow"
    },
    {
      "id": 2812,
      "nome": "Ojou to Banken-kun",
      "link": "https://animefire.plus/animes/ojou-to-banken-kun-todos-os-episodios",
      "texto_original": "Ojou to Banken-kun",
      "rating": 5.67,
      "classificacao_etaria": "A14",
      "imagem_original": "https://animefire.plus/img/animes/ojou-to-banken-kun.webp",
      "imagem_pasta": "https://animefire.plus/img/animes/ojou-to-banken-kun/",
      "secao": "legendados",
      "pagina": 21,
      "total_episodios": 13,
      "link_video": "https://animefire.plus/video/ojou-to-banken-kun"
    },
    {
      "id": 2813,
      "nome": "Okashi na Tensei",
      "link": "https://animefire.plus/animes/okashi-na-tensei-todos-os-episodios",
      "texto_original": "Okashi na Tensei",
      "rating": 6.7,
      "classificacao_etaria": "A14",
      "imagem_original": "https://animefire.plus/img/animes/okashi-na-tensei.jpg",
      "imagem_pasta": "https://animefire.plus/img/animes/okashi-na-tensei/",
      "secao": "legendados",
      "pagina": 22,
      "total_episodios": 12,
      "link_video": "https://animefire.plus/video/okashi-na-tensei"
    },
    {
      "id": 2814,
      "nome": "Okinawa de Suki ni Natta Ko ga Hougen Sugite Tsurasugiru",
      "link": "https://animefire.plus/animes/okinawa-de-suki-ni-natta-ko-ga-hougen-sugite-tsurasugiru-todos-os-episodios",
      "texto_original": "Okinawa de Suki ni Natta Ko ga Hougen Sugite Tsurasugiru",
      "rating": 7.1,
      "classificacao_etaria": "A14",
      "imagem_original": "https://animefire.plus/img/animes/okinawa-de-suki-ni-natta-ko-ga-hougen-sugite-tsurasugiru.webp",
      "imagem_pasta": "https://animefire.plus/img/animes/okinawa-de-suki-ni-natta-ko-ga-hougen-sugite-tsurasugiru/",
      "secao": "legendados",
      "pagina": 8,
      "total_episodios": 12,
      "link_video": "https://animefire.plus/video/okinawa-de-suki-ni-natta-ko-ga-hougen-sugite-tsurasugiru"
    },
    {
      "id": 2815,
      "nome": "Okusama ga Seitokaichou!",
      "link": "https://animefire.plus/animes/okusama-ga-seitokaichou-todos-os-episodios",
      "texto_original": "Okusama ga Seitokaichou!",
      "rating": 6.8,
      "classificacao_etaria": "A18",
      "imagem_original": "https://animefire.plus/img/animes/okusama-ga-seitokaichou.webp",
      "imagem_pasta": "https://animefire.plus/img/animes/okusama-ga-seitokaichou/",
      "secao": "legendados",
      "pagina": 140,
      "total_episodios": 0,
      "link_video": "https://animefire.plus/video/okusama-ga-seitokaichou"
    },
    {
      "id": 2816,
      "nome": "Okusama ga Seitokaichou!: Seitokaichou to Ofuro Asobi",
      "link": "https://animefire.plus/animes/okusama-ga-seitokaichou-seitokaichou-to-ofuro-asobi-todos-os-episodios",
      "texto_original": "Okusama ga Seitokaichou!: Seitokaichou to Ofuro Asobi",
      "rating": 6.82,
      "classificacao_etaria": "A18",
      "imagem_original": "https://animefire.plus/img/animes/okusama-ga-seitokaichou-seitokaichou-to-ofuro-asobi.webp",
      "imagem_pasta": "https://animefire.plus/img/animes/okusama-ga-seitokaichou-seitokaichou-to-ofuro-asobi/",
      "secao": "legendados",
      "pagina": 59,
      "total_episodios": 1,
      "link_video": "https://animefire.plus/video/okusama-ga-seitokaichou-seitokaichou-to-ofuro-asobi"
    },
    {
      "id": 2817,
      "nome": "Okusama ga Seitokaichou!+!",
      "link": "https://animefire.plus/animes/my-wife-is-the-student-council-president-todos-os-episodios",
      "texto_original": "Okusama ga Seitokaichou!+!",
      "rating": 6.7,
      "classificacao_etaria": "A18",
      "imagem_original": "https://animefire.plus/img/animes/my-wife-is-the-student-council-president.webp",
      "imagem_pasta": "https://animefire.plus/img/animes/my-wife-is-the-student-council-president/",
      "secao": "legendados",
      "pagina": 59,
      "total_episodios": 12,
      "link_video": "https://animefire.plus/video/my-wife-is-the-student-council-president"
    },
    {
      "id": 2818,
      "nome": "Okusama wa Joshikousei (TV)",
      "link": "https://animefire.plus/animes/okusama-wa-joshikousei-tv-todos-os-episodios",
      "texto_original": "Okusama wa Joshikousei (TV)",
      "rating": 6.41,
      "classificacao_etaria": "A14",
      "imagem_original": "https://animefire.plus/img/animes/okusama-wa-joshikousei-tv.webp",
      "imagem_pasta": "https://animefire.plus/img/animes/okusama-wa-joshikousei-tv/",
      "secao": "legendados",
      "pagina": 159,
      "total_episodios": 13,
      "link_video": "https://animefire.plus/video/okusama-wa-joshikousei-tv"
    },
    {
      "id": 2819,
      "nome": "Okusama wa Mahou Shoujo",
      "link": "https://animefire.plus/animes/okusama-wa-mahou-shoujo-todos-os-episodios",
      "texto_original": "Okusama wa Mahou Shoujo",
      "rating": 6.36,
      "classificacao_etaria": "A14",
      "imagem_original": "https://animefire.plus/img/animes/okusama-wa-mahou-shoujo.webp",
      "imagem_pasta": "https://animefire.plus/img/animes/okusama-wa-mahou-shoujo/",
      "secao": "legendados",
      "pagina": 146,
      "total_episodios": 13,
      "link_video": "https://animefire.plus/video/okusama-wa-mahou-shoujo"
    },
    {
      "id": 2820,
      "nome": "Olympia Kyklos",
      "link": "https://animefire.plus/animes/olympia-kyklos-todos-os-episodios",
      "texto_original": "Olympia Kyklos",
      "rating": 7.02,
      "classificacao_etaria": "A14",
      "imagem_original": "https://animefire.plus/img/animes/olympia-kyklos.webp",
      "imagem_pasta": "https://animefire.plus/img/animes/olympia-kyklos/",
      "secao": "legendados,lancamentos",
      "pagina": 79,
      "total_episodios": 0,
      "link_video": "https://animefire.plus/video/olympia-kyklos"
    }
  ],
  "pagination": {
    "current_page": 141,
    "per_page": 20,
    "total_items": 4368,
    "total_pages": 219,
    "has_next": true,
    "has_prev": true
  }
}
