{
  "message": "Lista de animes",
  "data": [
    {
      "id": 3821,
      "nome": "Tetsuwan Birdy Decode",
      "link": "https://animefire.plus/animes/tetsuwan-birdy-decode-todos-os-episodios",
      "texto_original": "Tetsuwan Birdy Decode",
      "rating": 7.5,
      "classificacao_etaria": "A14",
      "imagem_original": "https://animefire.plus/img/animes/tetsuwan-birdy-decode.webp",
      "imagem_pasta": "https://animefire.plus/img/animes/tetsuwan-birdy-decode/",
      "secao": "legendados",
      "pagina": 106,
      "total_episodios": 13,
      "link_video": "https://animefire.plus/video/tetsuwan-birdy-decode"
    },
    {
      "id": 3822,
      "nome": "Tetsuwan Birdy Decode:02",
      "link": "https://animefire.plus/animes/tetsuwan-birdy-decode-02-todos-os-episodios",
      "texto_original": "Tetsuwan Birdy Decode:02",
      "rating": 7.79,
      "classificacao_etaria": "A16",
      "imagem_original": "https://animefire.plus/img/animes/tetsuwan-birdy-decode-02.webp",
      "imagem_pasta": "https://animefire.plus/img/animes/tetsuwan-birdy-decode-02/",
      "secao": "legendados",
      "pagina": 166,
      "total_episodios": 2,
      "link_video": "https://animefire.plus/video/tetsuwan-birdy-decode-02"
    },
    {
      "id": 3823,
      "nome": "Texhnolyze",
      "link": "https://animefire.plus/animes/texhnolyze-todos-os-episodios",
      "texto_original": "Texhnolyze",
      "rating": 7.76,
      "classificacao_etaria": "A18",
      "imagem_original": "https://animefire.plus/img/animes/texhnolyze.webp",
      "imagem_pasta": "https://animefire.plus/img/animes/texhnolyze/",
      "secao": "legendados",
      "pagina": 144,
      "total_episodios": 22,
      "link_video": "https://animefire.plus/video/texhnolyze"
    },
    {
      "id": 3824,
      "nome": "The Animatrix (Dublado)",
      "link": "https://animefire.plus/animes/the-animatrix-dublado-todos-os-episodios",
      "texto_original": "The Animatrix (Dublado)",
      "rating": 7.32,
      "classificacao_etaria": "A16",
      "imagem_original": "https://animefire.plus/img/animes/the-animatrix.webp",
      "imagem_pasta": "https://animefire.plus/img/animes/the-animatrix/",
      "secao": "dublados,legendados",
      "pagina": 27,
      "total_episodios": 9,
      "link_video": "https://animefire.plus/video/the-animatrix-dublado"
    },
    {
      "id": 3825,
      "nome": "The Big O",
      "link": "https://animefire.plus/animes/the-big-o-todos-os-episodios",
      "texto_original": "The Big O",
      "rating": 7.54,
      "classificacao_etaria": "A14",
      "imagem_original": "https://animefire.plus/img/animes/the-big-o.webp",
      "imagem_pasta": "https://animefire.plus/img/animes/the-big-o/",
      "secao": "legendados",
      "pagina": 69,
      "total_episodios": 14,
      "link_video": "https://animefire.plus/video/the-big-o"
    },
    {
      "id": 3826,
      "nome": "The Fable",
      "link": "https://animefire.plus/animes/the-fable-todos-os-episodios",
      "texto_original": "The Fable",
      "rating": 8.13,
      "classificacao_etaria": "A14",
      "imagem_original": "https://animefire.plus/img/animes/the-fable.webp",
      "imagem_pasta": "https://animefire.plus/img/animes/the-fable/",
      "secao": "legendados",
      "pagina": 14,
      "total_episodios": 25,
      "link_video": "https://animefire.plus/video/the-fable"
    },
    {
      "id": 3827,
      "nome": "The God of High School (Dublado)",
      "link": "https://animefire.plus/animes/the-god-of-high-school-dublado-todos-os-episodios",
      "texto_original": "The God of High School (Dublado)",
      "rating": 7.07,
      "classificacao_etaria": "A14",
      "imagem_original": "https://animefire.plus/img/animes/the-god-of-high-school.webp",
      "imagem_pasta": "https://animefire.plus/img/animes/the-god-of-high-school/",
      "secao": "dublados,legendados",
      "pagina": 8,
      "total_episodios": 13,
      "link_video": "https://animefire.plus/video/the-god-of-high-school-dublado"
    },
    {
      "id": 3828,
      "nome": "The iDOLM@STER",
      "link": "https://animefire.plus/animes/the-idolmaster-todos-os-episodios",
      "texto_original": "The iDOLM@STER",
      "rating": 7.65,
      "classificacao_etaria": "A14",
      "imagem_original": "https://animefire.plus/img/animes/the-idolmaster.webp",
      "imagem_pasta": "https://animefire.plus/img/animes/the-idolmaster/",
      "secao": "legendados",
      "pagina": 76,
      "total_episodios": 26,
      "link_video": "https://animefire.plus/video/the-idolmaster"
    },
    {
      "id": 3829,
      "nome": "The iDOLM@STER Cinderella Girls",
      "link": "https://animefire.plus/animes/the-idolmaster-cinderella-girls-todos-os-episodios",
      "texto_original": "The iDOLM@STER Cinderella Girls",
      "rating": 7.17,
      "classificacao_etaria": "A14",
      "imagem_original": "https://animefire.plus/img/animes/the-idolmaster-cinderella-girls.webp",
      "imagem_pasta": "https://animefire.plus/img/animes/the-idolmaster-cinderella-girls/",
      "secao": "legendados",
      "pagina": 76,
      "total_episodios": 13,
      "link_video": "https://animefire.plus/video/the-idolmaster-cinderella-girls"
    },
    {
      "id": 3830,
      "nome": "The iDOLM@STER Cinderella Girls: Anytime, Anywhere with Cinderella.",
      "link": "https://animefire.plus/animes/the-idolmaster-cinderella-girls-anytime-anywhere-with-cinderella-todos-os-episodios",
      "texto_original": "The iDOLM@STER Cinderella Girls: Anytime, Anywhere with Cinderella.",
      "rating": 7.34,
      "classificacao_etaria": "A14",
      "imagem_original": "https://animefire.plus/img/animes/the-idolmaster-cinderella-girls-anytime-anywhere-with-cinderella.webp",
      "imagem_pasta": "https://animefire.plus/img/animes/the-idolmaster-cinderella-girls-anytime-anywhere-with-cinderella/",
      "secao": "legendados",
      "pagina": 64,
      "total_episodios": 1,
      "link_video": "https://animefire.plus/video/the-idolmaster-cinderella-girls-anytime-anywhere-with-cinderella"
    },
    {
      "id": 3831,
      "nome": "The iDOLM@STER Million Live!",
      "link": "https://animefire.plus/animes/the-idolmaster-million-live-todos-os-episodios",
      "texto_original": "The iDOLM@STER Million Live!",
      "rating": 6.92,
      "classificacao_etaria": "A14",
      "imagem_original": "https://animefire.plus/img/animes/the-idolmaster-million-live.webp",
      "imagem_pasta": "https://animefire.plus/img/animes/the-idolmaster-million-live/",
      "secao": "legendados",
      "pagina": 19,
      "total_episodios": 12,
      "link_video": "https://animefire.plus/video/the-idolmaster-million-live"
    },
    {
      "id": 3832,
      "nome": "The iDOLM@STER Shiny Colors",
      "link": "https://animefire.plus/animes/the-idolmaster-shiny-colors-todos-os-episodios",
      "texto_original": "The iDOLM@STER Shiny Colors",
      "rating": 6.08,
      "classificacao_etaria": "A14",
      "imagem_original": "https://animefire.plus/img/animes/the-idolmaster-shiny-colors.webp",
      "imagem_pasta": "https://animefire.plus/img/animes/the-idolmaster-shiny-colors/",
      "secao": "legendados",
      "pagina": 14,
      "total_episodios": 12,
      "link_video": "https://animefire.plus/video/the-idolmaster-shiny-colors"
    },
    {
      "id": 3833,
      "nome": "The iDOLM@STER Shiny Colors 2nd Season",
      "link": "https://animefire.plus/animes/the-idolmaster-shiny-colors-2nd-season-todos-os-episodios",
      "texto_original": "The iDOLM@STER Shiny Colors 2nd Season",
      "rating": 6.33,
      "classificacao_etaria": "A14",
      "imagem_original": "https://animefire.plus/img/animes/the-idolmaster-shiny-colors-2nd-season.webp",
      "imagem_pasta": "https://animefire.plus/img/animes/the-idolmaster-shiny-colors-2nd-season/",
      "secao": "legendados",
      "pagina": 9,
      "total_episodios": 12,
      "link_video": "https://animefire.plus/video/the-idolmaster-shiny-colors-2nd-season"
    },
    {
      "id": 3834,
      "nome": "The iDOLM@STER SideM",
      "link": "https://animefire.plus/animes/the-idolmaster-sidem-todos-os-episodios",
      "texto_original": "The iDOLM@STER SideM",
      "rating": 7.25,
      "classificacao_etaria": "A14",
      "imagem_original": "https://animefire.plus/img/animes/the-idolmaster-sidem.webp",
      "imagem_pasta": "https://animefire.plus/img/animes/the-idolmaster-sidem/",
      "secao": "legendados",
      "pagina": 73,
      "total_episodios": 13,
      "link_video": "https://animefire.plus/video/the-idolmaster-sidem"
    },
    {
      "id": 3835,
      "nome": "The iDOLM@STER SideM: 315 Variety Pack! Made In Passion!",
      "link": "https://animefire.plus/animes/the-idolmatster-sidem-315-variety-pack-made-in-passion-todos-os-episodios",
      "texto_original": "The iDOLM@STER SideM: 315 Variety Pack! Made In Passion!",
      "rating": 6.53,
      "classificacao_etaria": "A14",
      "imagem_original": "https://animefire.plus/img/animes/the-idolmatster-sidem-315-variety-pack-made-in-passion.webp",
      "imagem_pasta": "https://animefire.plus/img/animes/the-idolmatster-sidem-315-variety-pack-made-in-passion/",
      "secao": "legendados",
      "pagina": 87,
      "total_episodios": 1,
      "link_video": "https://animefire.plus/video/the-idolmatster-sidem-315-variety-pack-made-in-passion"
    },
    {
      "id": 3836,
      "nome": "The iDOLM@STER SideM: Wake Atte Mini!",
      "link": "https://animefire.plus/animes/the-idolmatster-sidem-wake-atte-mini-todos-os-episodios",
      "texto_original": "The iDOLM@STER SideM: Wake Atte Mini!",
      "rating": 6.18,
      "classificacao_etaria": "A14",
      "imagem_original": "https://animefire.plus/img/animes/the-idolmatster-sidem-wake-atte-mini.webp",
      "imagem_pasta": "https://animefire.plus/img/animes/the-idolmatster-sidem-wake-atte-mini/",
      "secao": "legendados",
      "pagina": 87,
      "total_episodios": 1,
      "link_video": "https://animefire.plus/video/the-idolmatster-sidem-wake-atte-mini"
    },
    {
      "id": 3837,
      "nome": "The King of Fighters: Destiny",
      "link": "https://animefire.plus/animes/the-king-of-fighters-destiny-todos-os-episodios",
      "texto_original": "The King of Fighters: Destiny",
      "rating": 6.64,
      "classificacao_etaria": "A14",
      "imagem_original": "https://animefire.plus/img/animes/the-king-of-fighters-destiny.webp",
      "imagem_pasta": "https://animefire.plus/img/animes/the-king-of-fighters-destiny/",
      "secao": "legendados",
      "pagina": 59,
      "total_episodios": 24,
      "link_video": "https://animefire.plus/video/the-king-of-fighters-destiny"
    },
    {
      "id": 3838,
      "nome": "The Legend of Heroes: Sen no Kiseki - Northern War",
      "link": "https://animefire.plus/animes/the-legend-of-heroes-sen-no-kiseki---northern-war-todos-os-episodios",
      "texto_original": "The Legend of Heroes: Sen no Kiseki - Northern War",
      "rating": 5.63,
      "classificacao_etaria": "A14",
      "imagem_original": "https://animefire.plus/img/animes/the-legend-of-heroes-sen-no-kiseki---northern-war.webp",
      "imagem_pasta": "https://animefire.plus/img/animes/the-legend-of-heroes-sen-no-kiseki---northern-war/",
      "secao": "legendados,lancamentos",
      "pagina": 27,
      "total_episodios": 8,
      "link_video": "https://animefire.plus/video/the-legend-of-heroes-sen-no-kiseki---northern-war"
    },
    {
      "id": 3839,
      "nome": "The Marginal Service",
      "link": "https://animefire.plus/animes/the-marginal-service-todos-os-episodios",
      "texto_original": "The Marginal Service",
      "rating": 5.5,
      "classificacao_etaria": "A14",
      "imagem_original": "https://animefire.plus/img/animes/the-marginal-service.jpg",
      "imagem_pasta": "https://animefire.plus/img/animes/the-marginal-service/",
      "secao": "legendados",
      "pagina": 24,
      "total_episodios": 12,
      "link_video": "https://animefire.plus/video/the-marginal-service"
    },
    {
      "id": 3840,
      "nome": "The New Gate (Dublado)",
      "link": "https://animefire.plus/animes/the-new-gate-dublado-todos-os-episodios",
      "texto_original": "The New Gate (Dublado)",
      "rating": 6.45,
      "classificacao_etaria": "A14",
      "imagem_original": "https://animefire.plus/img/animes/the-new-gate.webp",
      "imagem_pasta": "https://animefire.plus/img/animes/the-new-gate/",
      "secao": "dublados,legendados,lancamentos",
      "pagina": 2,
      "total_episodios": 12,
      "link_video": "https://animefire.plus/video/the-new-gate-dublado"
    }
  ],
  "pagination": {
    "current_page": 192,
    "per_page": 20,
    "total_items": 4368,
    "total_pages": 219,
    "has_next": true,
    "has_prev": true
  }
}
