{
  "message": "Lista de animes",
  "data": [
    {
      "id": 2921,
      "nome": "Otona no Bouguya-san",
      "link": "https://animefire.plus/animes/otona-no-bouguya-san-todos-os-episodios",
      "texto_original": "Otona no Bouguya-san",
      "rating": 5.71,
      "classificacao_etaria": "A14",
      "imagem_original": "https://animefire.plus/img/animes/otona-no-bouguya-san.webp",
      "imagem_pasta": "https://animefire.plus/img/animes/otona-no-bouguya-san/",
      "secao": "legendados",
      "pagina": 105,
      "total_episodios": 12,
      "link_video": "https://animefire.plus/video/otona-no-bouguya-san"
    },
    {
      "id": 2922,
      "nome": "Otona no Bouguya-san 2nd Season",
      "link": "https://animefire.plus/animes/otona-no-bouguya-san-2-todos-os-episodios",
      "texto_original": "Otona no Bouguya-san 2nd Season",
      "rating": 5.49,
      "classificacao_etaria": "A14",
      "imagem_original": "https://animefire.plus/img/animes/otona-no-bouguya-san-2.webp",
      "imagem_pasta": "https://animefire.plus/img/animes/otona-no-bouguya-san-2/",
      "secao": "legendados",
      "pagina": 48,
      "total_episodios": 12,
      "link_video": "https://animefire.plus/video/otona-no-bouguya-san-2"
    },
    {
      "id": 2923,
      "nome": "Otonari ni Ginga (Dublado)",
      "link": "https://animefire.plus/animes/otonari-ni-ginga-dublado-todos-os-episodios",
      "texto_original": "Otonari ni Ginga (Dublado)",
      "rating": 7.15,
      "classificacao_etaria": "A14",
      "imagem_original": "https://animefire.plus/img/animes/otonari-ni-ginga.webp",
      "imagem_pasta": "https://animefire.plus/img/animes/otonari-ni-ginga/",
      "secao": "dublados,legendados",
      "pagina": 6,
      "total_episodios": 12,
      "link_video": "https://animefire.plus/video/otonari-ni-ginga-dublado"
    },
    {
      "id": 2924,
      "nome": "Otonari no Tenshi-sama ni Itsunomanika Dame Ningen ni Sareteita Ken",
      "link": "https://animefire.plus/animes/otonari-no-tenshi-sama-ni-itsunomanika-dame-ningen-ni-sareteita-ken-todos-os-episodios",
      "texto_original": "Otonari no Tenshi-sama ni Itsunomanika Dame Ningen ni Sareteita Ken",
      "rating": 7.84,
      "classificacao_etaria": "A14",
      "imagem_original": "https://animefire.plus/img/animes/otonari-no-tenshi-sama-ni-itsunomanika-dame-ningen-ni-sareteita-ken.webp",
      "imagem_pasta": "https://animefire.plus/img/animes/otonari-no-tenshi-sama-ni-itsunomanika-dame-ningen-ni-sareteita-ken/",
      "secao": "legendados",
      "pagina": 28,
      "total_episodios": 12,
      "link_video": "https://animefire.plus/video/otonari-no-tenshi-sama-ni-itsunomanika-dame-ningen-ni-sareteita-ken"
    },
    {
      "id": 2925,
      "nome": "Ou Dorobou Jing",
      "link": "https://animefire.plus/animes/ou-dorobou-jing-todos-os-episodios",
      "texto_original": "Ou Dorobou Jing",
      "rating": 7.29,
      "classificacao_etaria": "A14",
      "imagem_original": "https://animefire.plus/img/animes/ou-dorobou-jing.webp",
      "imagem_pasta": "https://animefire.plus/img/animes/ou-dorobou-jing/",
      "secao": "legendados",
      "pagina": 134,
      "total_episodios": 13,
      "link_video": "https://animefire.plus/video/ou-dorobou-jing"
    },
    {
      "id": 2926,
      "nome": "Ouran Koukou Host Club",
      "link": "https://animefire.plus/animes/ouran-koukou-host-club-todos-os-episodios",
      "texto_original": "Ouran Koukou Host Club",
      "rating": 8.31,
      "classificacao_etaria": "A14",
      "imagem_original": "https://animefire.plus/img/animes/ouran-koukou-host-club.webp",
      "imagem_pasta": "https://animefire.plus/img/animes/ouran-koukou-host-club/",
      "secao": "legendados",
      "pagina": 116,
      "total_episodios": 5,
      "link_video": "https://animefire.plus/video/ouran-koukou-host-club"
    },
    {
      "id": 2927,
      "nome": "Ouritsu Uchuugun: Honneamise no Tsubasa Pilot",
      "link": "https://animefire.plus/animes/ouritsu-uchuugun-honneamise-no-tsubasa-pilot-todos-os-episodios",
      "texto_original": "Ouritsu Uchuugun: Honneamise no Tsubasa Pilot",
      "rating": 6.05,
      "classificacao_etaria": "A14",
      "imagem_original": "https://animefire.plus/img/animes/ouritsu-uchuugun-honneamise-no-tsubasa-pilot.webp",
      "imagem_pasta": "https://animefire.plus/img/animes/ouritsu-uchuugun-honneamise-no-tsubasa-pilot/",
      "secao": "legendados",
      "pagina": 85,
      "total_episodios": 1,
      "link_video": "https://animefire.plus/video/ouritsu-uchuugun-honneamise-no-tsubasa-pilot"
    },
    {
      "id": 2928,
      "nome": "Ousama Game The Animation",
      "link": "https://animefire.plus/animes/ousama-game-the-animation-todos-os-episodios",
      "texto_original": "Ousama Game The Animation",
      "rating": 5.15,
      "classificacao_etaria": "A16",
      "imagem_original": "https://animefire.plus/img/animes/ousama-game-the-animation.webp",
      "imagem_pasta": "https://animefire.plus/img/animes/ousama-game-the-animation/",
      "secao": "legendados",
      "pagina": 95,
      "total_episodios": 12,
      "link_video": "https://animefire.plus/video/ousama-game-the-animation"
    },
    {
      "id": 2929,
      "nome": "Ousama Ranking (Dublado)",
      "link": "https://animefire.plus/animes/ousama-ranking-dublado-todos-os-episodios",
      "texto_original": "Ousama Ranking (Dublado)",
      "rating": 8.49,
      "classificacao_etaria": "A14",
      "imagem_original": "https://animefire.plus/img/animes/ousama-ranking.webp",
      "imagem_pasta": "https://animefire.plus/img/animes/ousama-ranking/",
      "secao": "dublados,legendados",
      "pagina": 14,
      "total_episodios": 23,
      "link_video": "https://animefire.plus/video/ousama-ranking-dublado"
    },
    {
      "id": 2930,
      "nome": "Oushitsu Kyoushi Heine",
      "link": "https://animefire.plus/animes/oushitsu-kyoushi-heine-todos-os-episodios",
      "texto_original": "Oushitsu Kyoushi Heine",
      "rating": 7.51,
      "classificacao_etaria": "A14",
      "imagem_original": "https://animefire.plus/img/animes/oushitsu-kyoushi-heine.webp",
      "imagem_pasta": "https://animefire.plus/img/animes/oushitsu-kyoushi-heine/",
      "secao": "legendados",
      "pagina": 64,
      "total_episodios": 12,
      "link_video": "https://animefire.plus/video/oushitsu-kyoushi-heine"
    },
    {
      "id": 2931,
      "nome": "Outbreak Company",
      "link": "https://animefire.plus/animes/outbreak-company-todos-os-episodios",
      "texto_original": "Outbreak Company",
      "rating": 7.44,
      "classificacao_etaria": "A14",
      "imagem_original": "https://animefire.plus/img/animes/outbreak-company.webp",
      "imagem_pasta": "https://animefire.plus/img/animes/outbreak-company/",
      "secao": "legendados",
      "pagina": 155,
      "total_episodios": 4,
      "link_video": "https://animefire.plus/video/outbreak-company"
    },
    {
      "id": 2932,
      "nome": "Over Drive",
      "link": "https://animefire.plus/animes/over-drive-todos-os-episodios",
      "texto_original": "Over Drive",
      "rating": 7.66,
      "classificacao_etaria": "A14",
      "imagem_original": "https://animefire.plus/img/animes/over-drive.webp",
      "imagem_pasta": "https://animefire.plus/img/animes/over-drive/",
      "secao": "legendados",
      "pagina": 159,
      "total_episodios": 26,
      "link_video": "https://animefire.plus/video/over-drive"
    },
    {
      "id": 2933,
      "nome": "Overlord (Dublado)",
      "link": "https://animefire.plus/animes/overlord-dublado-todos-os-episodios",
      "texto_original": "Overlord (Dublado)",
      "rating": 7.98,
      "classificacao_etaria": "A16",
      "imagem_original": "https://animefire.plus/img/animes/overlord.webp",
      "imagem_pasta": "https://animefire.plus/img/animes/overlord/",
      "secao": "dublados,legendados",
      "pagina": 19,
      "total_episodios": 13,
      "link_video": "https://animefire.plus/video/overlord-dublado"
    },
    {
      "id": 2934,
      "nome": "Overlord II (Dublado)",
      "link": "https://animefire.plus/animes/overlord-ii-dublado-todos-os-episodios",
      "texto_original": "Overlord II (Dublado)",
      "rating": 7.8,
      "classificacao_etaria": "A16",
      "imagem_original": "https://animefire.plus/img/animes/overlord-ii.webp",
      "imagem_pasta": "https://animefire.plus/img/animes/overlord-ii/",
      "secao": "dublados,legendados",
      "pagina": 19,
      "total_episodios": 13,
      "link_video": "https://animefire.plus/video/overlord-ii-dublado"
    },
    {
      "id": 2935,
      "nome": "Overlord III (Dublado)",
      "link": "https://animefire.plus/animes/overlord-iii-dublado-todos-os-episodios",
      "texto_original": "Overlord III (Dublado)",
      "rating": 7.98,
      "classificacao_etaria": "A16",
      "imagem_original": "https://animefire.plus/img/animes/overlord-iii.webp",
      "imagem_pasta": "https://animefire.plus/img/animes/overlord-iii/",
      "secao": "dublados,legendados",
      "pagina": 19,
      "total_episodios": 13,
      "link_video": "https://animefire.plus/video/overlord-iii-dublado"
    },
    {
      "id": 2936,
      "nome": "Overlord IV (Dublado)",
      "link": "https://animefire.plus/animes/overlord-iv-dublado-todos-os-episodios",
      "texto_original": "Overlord IV (Dublado)",
      "rating": 8.07,
      "classificacao_etaria": "A16",
      "imagem_original": "https://animefire.plus/img/animes/overlord-iv.webp",
      "imagem_pasta": "https://animefire.plus/img/animes/overlord-iv/",
      "secao": "dublados,legendados",
      "pagina": 10,
      "total_episodios": 13,
      "link_video": "https://animefire.plus/video/overlord-iv-dublado"
    },
    {
      "id": 2937,
      "nome": "Overlord: Ple Ple Pleiades",
      "link": "https://animefire.plus/animes/overlord-ple-ple-pleiades-todos-os-episodios",
      "texto_original": "Overlord: Ple Ple Pleiades",
      "rating": 7.07,
      "classificacao_etaria": "A14",
      "imagem_original": "https://animefire.plus/img/animes/overlord-ple-ple-pleiades.webp",
      "imagem_pasta": "https://animefire.plus/img/animes/overlord-ple-ple-pleiades/",
      "secao": "legendados",
      "pagina": 112,
      "total_episodios": 3,
      "link_video": "https://animefire.plus/video/overlord-ple-ple-pleiades"
    },
    {
      "id": 2938,
      "nome": "Overtake!",
      "link": "https://animefire.plus/animes/overtake-todos-os-episodios",
      "texto_original": "Overtake!",
      "rating": 7.52,
      "classificacao_etaria": "A14",
      "imagem_original": "https://animefire.plus/img/animes/overtake.webp",
      "imagem_pasta": "https://animefire.plus/img/animes/overtake/",
      "secao": "legendados",
      "pagina": 20,
      "total_episodios": 12,
      "link_video": "https://animefire.plus/video/overtake"
    },
    {
      "id": 2939,
      "nome": "Owari no Seraph (Dublado)",
      "link": "https://animefire.plus/animes/owari-no-seraph-dublado-todos-os-episodios",
      "texto_original": "Owari no Seraph (Dublado)",
      "rating": 7.49,
      "classificacao_etaria": "A16",
      "imagem_original": "https://animefire.plus/img/animes/owari-no-seraph.webp",
      "imagem_pasta": "https://animefire.plus/img/animes/owari-no-seraph/",
      "secao": "dublados,legendados",
      "pagina": 15,
      "total_episodios": 12,
      "link_video": "https://animefire.plus/video/owari-no-seraph-dublado"
    },
    {
      "id": 2940,
      "nome": "Owari no Seraph: Kyuuketsuki Shahar",
      "link": "https://animefire.plus/animes/owari-no-seraph-kyuuketsuki-shahar-todos-os-episodios",
      "texto_original": "Owari no Seraph: Kyuuketsuki Shahar",
      "rating": 7.18,
      "classificacao_etaria": "A16",
      "imagem_original": "https://animefire.plus/img/animes/owari-no-seraph-kyuuketsuki-shahar.webp",
      "imagem_pasta": "https://animefire.plus/img/animes/owari-no-seraph-kyuuketsuki-shahar/",
      "secao": "legendados",
      "pagina": 67,
      "total_episodios": 1,
      "link_video": "https://animefire.plus/video/owari-no-seraph-kyuuketsuki-shahar"
    }
  ],
  "pagination": {
    "current_page": 147,
    "per_page": 20,
    "total_items": 4368,
    "total_pages": 219,
    "has_next": true,
    "has_prev": true
  }
}
