{
  "message": "Lista de animes",
  "data": [
    {
      "id": 141,
      "nome": "Alice or Alice: Siscon Niisan to Futago no Imouto",
      "link": "https://animefire.plus/animes/alice-or-alice-siscon-niisan-to-futago-no-imouto-todos-os-episodios",
      "texto_original": "Alice or Alice: Siscon Niisan to Futago no Imouto",
      "rating": 5.4,
      "classificacao_etaria": "A14",
      "imagem_original": "https://animefire.plus/img/animes/alice-or-alice-siscon-niisan-to-futago-no-imouto.webp",
      "imagem_pasta": "https://animefire.plus/img/animes/alice-or-alice-siscon-niisan-to-futago-no-imouto/",
      "secao": "legendados",
      "pagina": 116,
      "total_episodios": 11,
      "link_video": "https://animefire.plus/video/alice-or-alice-siscon-niisan-to-futago-no-imouto"
    },
    {
      "id": 142,
      "nome": "Alice to Zouroku",
      "link": "https://animefire.plus/animes/alice-to-zouroku-todos-os-episodios",
      "texto_original": "Alice to Zouroku",
      "rating": 7.18,
      "classificacao_etaria": "A14",
      "imagem_original": "https://animefire.plus/img/animes/alice-to-zouroku.webp",
      "imagem_pasta": "https://animefire.plus/img/animes/alice-to-zouroku/",
      "secao": "legendados",
      "pagina": 139,
      "total_episodios": 12,
      "link_video": "https://animefire.plus/video/alice-to-zouroku"
    },
    {
      "id": 143,
      "nome": "Alien 9",
      "link": "https://animefire.plus/animes/alien-9-todos-os-episodios",
      "texto_original": "Alien 9",
      "rating": 6.68,
      "classificacao_etaria": "A16",
      "imagem_original": "https://animefire.plus/img/animes/alien-9.webp",
      "imagem_pasta": "https://animefire.plus/img/animes/alien-9/",
      "secao": "legendados",
      "pagina": 165,
      "total_episodios": 4,
      "link_video": "https://animefire.plus/video/alien-9"
    },
    {
      "id": 144,
      "nome": "All Out!!",
      "link": "https://animefire.plus/animes/all-out-todos-os-episodios",
      "texto_original": "All Out!!",
      "rating": 7.19,
      "classificacao_etaria": "A14",
      "imagem_original": "https://animefire.plus/img/animes/all-out.webp",
      "imagem_pasta": "https://animefire.plus/img/animes/all-out/",
      "secao": "legendados",
      "pagina": 111,
      "total_episodios": 25,
      "link_video": "https://animefire.plus/video/all-out"
    },
    {
      "id": 145,
      "nome": "Allison to Lillia",
      "link": "https://animefire.plus/animes/allison-to-lillia-todos-os-episodios",
      "texto_original": "Allison to Lillia",
      "rating": 7.38,
      "classificacao_etaria": "A14",
      "imagem_original": "https://animefire.plus/img/animes/allison-to-lillia.webp",
      "imagem_pasta": "https://animefire.plus/img/animes/allison-to-lillia/",
      "secao": "legendados",
      "pagina": 116,
      "total_episodios": 26,
      "link_video": "https://animefire.plus/video/allison-to-lillia"
    },
    {
      "id": 146,
      "nome": "Altered Carbon: Resleeved",
      "link": "https://animefire.plus/animes/altered-carbon-resleeved-todos-os-episodios",
      "texto_original": "Altered Carbon: Resleeved",
      "rating": 6.56,
      "classificacao_etaria": "A16",
      "imagem_original": "https://animefire.plus/img/animes/altered-carbon-resleeved.webp",
      "imagem_pasta": "https://animefire.plus/img/animes/altered-carbon-resleeved/",
      "secao": "legendados",
      "pagina": 78,
      "total_episodios": 1,
      "link_video": "https://animefire.plus/video/altered-carbon-resleeved"
    },
    {
      "id": 147,
      "nome": "Amaama to Inazuma",
      "link": "https://animefire.plus/animes/amaama-to-inazuma-todos-os-episodios",
      "texto_original": "Amaama to Inazuma",
      "rating": 7.57,
      "classificacao_etaria": "A14",
      "imagem_original": "https://animefire.plus/img/animes/amaama-to-inazuma.webp",
      "imagem_pasta": "https://animefire.plus/img/animes/amaama-to-inazuma/",
      "secao": "legendados",
      "pagina": 134,
      "total_episodios": 12,
      "link_video": "https://animefire.plus/video/amaama-to-inazuma"
    },
    {
      "id": 148,
      "nome": "Amaenaide yo!!",
      "link": "https://animefire.plus/animes/amaenaide-yo-todos-os-episodios",
      "texto_original": "Amaenaide yo!!",
      "rating": 6.58,
      "classificacao_etaria": "A18",
      "imagem_original": "https://animefire.plus/img/animes/amaenaide-yo.webp",
      "imagem_pasta": "https://animefire.plus/img/animes/amaenaide-yo/",
      "secao": "legendados",
      "pagina": 166,
      "total_episodios": 13,
      "link_video": "https://animefire.plus/video/amaenaide-yo"
    },
    {
      "id": 149,
      "nome": "Amaenaide yo!! Katsu!!",
      "link": "https://animefire.plus/animes/amaenaide-yo-katsu-todos-os-episodios",
      "texto_original": "Amaenaide yo!! Katsu!!",
      "rating": 6.8,
      "classificacao_etaria": "A18",
      "imagem_original": "https://animefire.plus/img/animes/amaenaide-yo-katsu.webp",
      "imagem_pasta": "https://animefire.plus/img/animes/amaenaide-yo-katsu/",
      "secao": "legendados",
      "pagina": 145,
      "total_episodios": 13,
      "link_video": "https://animefire.plus/video/amaenaide-yo-katsu"
    },
    {
      "id": 150,
      "nome": "Amagami SS",
      "link": "https://animefire.plus/animes/amagami-ss-todos-os-episodios",
      "texto_original": "Amagami SS",
      "rating": 7.47,
      "classificacao_etaria": "A14",
      "imagem_original": "https://animefire.plus/img/animes/amagami-ss.webp",
      "imagem_pasta": "https://animefire.plus/img/animes/amagami-ss/",
      "secao": "legendados",
      "pagina": 133,
      "total_episodios": 26,
      "link_video": "https://animefire.plus/video/amagami-ss"
    },
    {
      "id": 151,
      "nome": "Amagami SS+ Plus",
      "link": "https://animefire.plus/animes/amagami-ss-plus-todos-os-episodios",
      "texto_original": "Amagami SS+ Plus",
      "rating": 7.53,
      "classificacao_etaria": "A14",
      "imagem_original": "https://animefire.plus/img/animes/amagami-ss-plus.webp",
      "imagem_pasta": "https://animefire.plus/img/animes/amagami-ss-plus/",
      "secao": "legendados",
      "pagina": 158,
      "total_episodios": 3,
      "link_video": "https://animefire.plus/video/amagami-ss-plus"
    },
    {
      "id": 152,
      "nome": "Amagami SS+ Plus Picture Drama",
      "link": "https://animefire.plus/animes/amagami-ss-plus-picture-drama-todos-os-episodios",
      "texto_original": "Amagami SS+ Plus Picture Drama",
      "rating": 6.56,
      "classificacao_etaria": "A14",
      "imagem_original": "https://animefire.plus/img/animes/amagami-ss-plus-picture-drama.webp",
      "imagem_pasta": "https://animefire.plus/img/animes/amagami-ss-plus-picture-drama/",
      "secao": "legendados",
      "pagina": 69,
      "total_episodios": 1,
      "link_video": "https://animefire.plus/video/amagami-ss-plus-picture-drama"
    },
    {
      "id": 153,
      "nome": "Amagami SS+ Plus: Extra Episode+ Plus",
      "link": "https://animefire.plus/animes/amagami-ss-plus-extra-episode-plus-todos-os-episodios",
      "texto_original": "Amagami SS+ Plus: Extra Episode+ Plus",
      "rating": 7.25,
      "classificacao_etaria": "A14",
      "imagem_original": "https://animefire.plus/img/animes/amagami-ss-plus-extra-episode-plus.webp",
      "imagem_pasta": "https://animefire.plus/img/animes/amagami-ss-plus-extra-episode-plus/",
      "secao": "legendados",
      "pagina": 69,
      "total_episodios": 1,
      "link_video": "https://animefire.plus/video/amagami-ss-plus-extra-episode-plus"
    },
    {
      "id": 154,
      "nome": "Amagami-san Chi no Enmusubi (Dublado)",
      "link": "https://animefire.plus/animes/amagami-san-chi-no-enmusubi-dublado-todos-os-episodios",
      "texto_original": "Amagami-san Chi no Enmusubi (Dublado)",
      "rating": 7.55,
      "classificacao_etaria": "A14",
      "imagem_original": "https://animefire.plus/img/animes/amagami-san-chi-no-enmusubi.webp",
      "imagem_pasta": "https://animefire.plus/img/animes/amagami-san-chi-no-enmusubi/",
      "secao": "dublados,legendados,lancamentos",
      "pagina": 2,
      "total_episodios": 24,
      "link_video": "https://animefire.plus/video/amagami-san-chi-no-enmusubi-dublado"
    },
    {
      "id": 155,
      "nome": "Amagi Brilliant Park",
      "link": "https://animefire.plus/animes/amagi-brilliant-park-todos-os-episodios",
      "texto_original": "Amagi Brilliant Park",
      "rating": 7.6,
      "classificacao_etaria": "A14",
      "imagem_original": "https://animefire.plus/img/animes/amagi-brilliant-park.webp",
      "imagem_pasta": "https://animefire.plus/img/animes/amagi-brilliant-park/",
      "secao": "legendados",
      "pagina": 129,
      "total_episodios": 5,
      "link_video": "https://animefire.plus/video/amagi-brilliant-park"
    },
    {
      "id": 156,
      "nome": "Amanchu!",
      "link": "https://animefire.plus/animes/amanchu-todos-os-episodios",
      "texto_original": "Amanchu!",
      "rating": 7.3,
      "classificacao_etaria": "A14",
      "imagem_original": "https://animefire.plus/img/animes/amanchu.webp",
      "imagem_pasta": "https://animefire.plus/img/animes/amanchu/",
      "secao": "legendados",
      "pagina": 90,
      "total_episodios": 12,
      "link_video": "https://animefire.plus/video/amanchu"
    },
    {
      "id": 157,
      "nome": "Amanchu! Advance",
      "link": "https://animefire.plus/animes/amanchu-advance-todos-os-episodios",
      "texto_original": "Amanchu! Advance",
      "rating": 7.18,
      "classificacao_etaria": "A14",
      "imagem_original": "https://animefire.plus/img/animes/amanchu-advance.webp",
      "imagem_pasta": "https://animefire.plus/img/animes/amanchu-advance/",
      "secao": "legendados",
      "pagina": 117,
      "total_episodios": 11,
      "link_video": "https://animefire.plus/video/amanchu-advance"
    },
    {
      "id": 158,
      "nome": "Amatsuki",
      "link": "https://animefire.plus/animes/amatsuki-todos-os-episodios",
      "texto_original": "Amatsuki",
      "rating": 6.97,
      "classificacao_etaria": "A14",
      "imagem_original": "https://animefire.plus/img/animes/amatsuki.webp",
      "imagem_pasta": "https://animefire.plus/img/animes/amatsuki/",
      "secao": "legendados",
      "pagina": 133,
      "total_episodios": 12,
      "link_video": "https://animefire.plus/video/amatsuki"
    },
    {
      "id": 159,
      "nome": "Ame to Kimi to",
      "link": "https://animefire.plus/animes/ame-to-kimi-to-todos-os-episodios",
      "texto_original": "Ame to Kimi to",
      "rating": 7.45,
      "classificacao_etaria": "A14",
      "imagem_original": "https://animefire.plus/img/animes/ame-to-kimi-to.webp",
      "imagem_pasta": "https://animefire.plus/img/animes/ame-to-kimi-to/",
      "secao": "legendados,lancamentos",
      "pagina": 2,
      "total_episodios": 5,
      "link_video": "https://animefire.plus/video/ame-to-kimi-to"
    },
    {
      "id": 160,
      "nome": "Ame-iro Cocoa",
      "link": "https://animefire.plus/animes/ame-iro-cocoa-todos-os-episodios",
      "texto_original": "Ame-iro Cocoa",
      "rating": 4.76,
      "classificacao_etaria": "A14",
      "imagem_original": "https://animefire.plus/img/animes/ame-iro-cocoa.webp",
      "imagem_pasta": "https://animefire.plus/img/animes/ame-iro-cocoa/",
      "secao": "legendados",
      "pagina": 136,
      "total_episodios": 12,
      "link_video": "https://animefire.plus/video/ame-iro-cocoa"
    }
  ],
  "pagination": {
    "current_page": 8,
    "per_page": 20,
    "total_items": 4368,
    "total_pages": 219,
    "has_next": true,
    "has_prev": true
  }
}
