{
  "message": "Lista de animes",
  "data": [
    {
      "id": 2381,
      "nome": "Major S1",
      "link": "https://animefire.plus/animes/major-s1-todos-os-episodios",
      "texto_original": "Major S1",
      "rating": 8.35,
      "classificacao_etaria": "A14",
      "imagem_original": "https://animefire.plus/img/animes/major-s1.webp",
      "imagem_pasta": "https://animefire.plus/img/animes/major-s1/",
      "secao": "legendados",
      "pagina": 144,
      "total_episodios": 26,
      "link_video": "https://animefire.plus/video/major-s1"
    },
    {
      "id": 2382,
      "nome": "Major S2",
      "link": "https://animefire.plus/animes/major-s2-todos-os-episodios",
      "texto_original": "Major S2",
      "rating": 8.33,
      "classificacao_etaria": "A14",
      "imagem_original": "https://animefire.plus/img/animes/major-s2.webp",
      "imagem_pasta": "https://animefire.plus/img/animes/major-s2/",
      "secao": "legendados",
      "pagina": 151,
      "total_episodios": 26,
      "link_video": "https://animefire.plus/video/major-s2"
    },
    {
      "id": 2383,
      "nome": "Major S3",
      "link": "https://animefire.plus/animes/major-s3-todos-os-episodios",
      "texto_original": "Major S3",
      "rating": 8.34,
      "classificacao_etaria": "A14",
      "imagem_original": "https://animefire.plus/img/animes/major-s3.webp",
      "imagem_pasta": "https://animefire.plus/img/animes/major-s3/",
      "secao": "legendados",
      "pagina": 155,
      "total_episodios": 26,
      "link_video": "https://animefire.plus/video/major-s3"
    },
    {
      "id": 2384,
      "nome": "Major S4",
      "link": "https://animefire.plus/animes/major-s4-todos-os-episodios",
      "texto_original": "Major S4",
      "rating": 8.3,
      "classificacao_etaria": "A14",
      "imagem_original": "https://animefire.plus/img/animes/major-s4.webp",
      "imagem_pasta": "https://animefire.plus/img/animes/major-s4/",
      "secao": "legendados",
      "pagina": 129,
      "total_episodios": 26,
      "link_video": "https://animefire.plus/video/major-s4"
    },
    {
      "id": 2385,
      "nome": "Major S5",
      "link": "https://animefire.plus/animes/major-s5-todos-os-episodios",
      "texto_original": "Major S5",
      "rating": 8.48,
      "classificacao_etaria": "A14",
      "imagem_original": "https://animefire.plus/img/animes/major-s5.webp",
      "imagem_pasta": "https://animefire.plus/img/animes/major-s5/",
      "secao": "legendados",
      "pagina": 125,
      "total_episodios": 25,
      "link_video": "https://animefire.plus/video/major-s5"
    },
    {
      "id": 2386,
      "nome": "Major S6",
      "link": "https://animefire.plus/animes/major-s6-todos-os-episodios",
      "texto_original": "Major S6",
      "rating": 8.4,
      "classificacao_etaria": "A14",
      "imagem_original": "https://animefire.plus/img/animes/major-s6.webp",
      "imagem_pasta": "https://animefire.plus/img/animes/major-s6/",
      "secao": "legendados",
      "pagina": 118,
      "total_episodios": 25,
      "link_video": "https://animefire.plus/video/major-s6"
    },
    {
      "id": 2387,
      "nome": "Major: Message",
      "link": "https://animefire.plus/animes/major-message-todos-os-episodios",
      "texto_original": "Major: Message",
      "rating": 8.25,
      "classificacao_etaria": "A14",
      "imagem_original": "https://animefire.plus/img/animes/major-message.webp",
      "imagem_pasta": "https://animefire.plus/img/animes/major-message/",
      "secao": "legendados",
      "pagina": 73,
      "total_episodios": 1,
      "link_video": "https://animefire.plus/video/major-message"
    },
    {
      "id": 2388,
      "nome": "Major: World Series",
      "link": "https://animefire.plus/animes/major-world-series-todos-os-episodios",
      "texto_original": "Major: World Series",
      "rating": 8.38,
      "classificacao_etaria": "A14",
      "imagem_original": "https://animefire.plus/img/animes/major-world-series.webp",
      "imagem_pasta": "https://animefire.plus/img/animes/major-world-series/",
      "secao": "legendados",
      "pagina": 73,
      "total_episodios": 2,
      "link_video": "https://animefire.plus/video/major-world-series"
    },
    {
      "id": 2389,
      "nome": "Majutsushi Orphen",
      "link": "https://animefire.plus/animes/majutsushi-orphen-todos-os-episodios",
      "texto_original": "Majutsushi Orphen",
      "rating": 7.26,
      "classificacao_etaria": "A14",
      "imagem_original": "https://animefire.plus/img/animes/majutsushi-orphen.webp",
      "imagem_pasta": "https://animefire.plus/img/animes/majutsushi-orphen/",
      "secao": "legendados",
      "pagina": 152,
      "total_episodios": 24,
      "link_video": "https://animefire.plus/video/majutsushi-orphen"
    },
    {
      "id": 2390,
      "nome": "Majutsushi Orphen Hagure Tabi",
      "link": "https://animefire.plus/animes/majutsushi-orphen-hagure-tabi-todos-os-episodios",
      "texto_original": "Majutsushi Orphen Hagure Tabi",
      "rating": 5.78,
      "classificacao_etaria": "A14",
      "imagem_original": "https://animefire.plus/img/animes/majutsushi-orphen-hagure-tabi.webp",
      "imagem_pasta": "https://animefire.plus/img/animes/majutsushi-orphen-hagure-tabi/",
      "secao": "legendados,lancamentos",
      "pagina": 93,
      "total_episodios": 0,
      "link_video": "https://animefire.plus/video/majutsushi-orphen-hagure-tabi"
    },
    {
      "id": 2391,
      "nome": "Majutsushi Orphen Hagure Tabi: Kimluck-hen",
      "link": "https://animefire.plus/animes/majutsushi-orphen-hagure-tabi-kimluck-hen-todos-os-episodios",
      "texto_original": "Majutsushi Orphen Hagure Tabi: Kimluck-hen",
      "rating": 6.2,
      "classificacao_etaria": "A14",
      "imagem_original": "https://animefire.plus/img/animes/majutsushi-orphen-hagure-tabi-kimluck-hen.webp",
      "imagem_pasta": "https://animefire.plus/img/animes/majutsushi-orphen-hagure-tabi-kimluck-hen/",
      "secao": "legendados",
      "pagina": 49,
      "total_episodios": 11,
      "link_video": "https://animefire.plus/video/majutsushi-orphen-hagure-tabi-kimluck-hen"
    },
    {
      "id": 2392,
      "nome": "Majutsushi Orphen Hagure Tabi: Tennin no Isan",
      "link": "https://animefire.plus/animes/majutsushi-orphen-hagure-tabi-tennin-no-isan-todos-os-episodios",
      "texto_original": "Majutsushi Orphen Hagure Tabi: Tennin no Isan",
      "rating": 6.11,
      "classificacao_etaria": "A14",
      "imagem_original": "https://animefire.plus/img/animes/majutsushi-orphen-hagure-tabi-tennin-no-isan.webp",
      "imagem_pasta": "https://animefire.plus/img/animes/majutsushi-orphen-hagure-tabi-tennin-no-isan/",
      "secao": "legendados",
      "pagina": 81,
      "total_episodios": 0,
      "link_video": "https://animefire.plus/video/majutsushi-orphen-hagure-tabi-tennin-no-isan"
    },
    {
      "id": 2393,
      "nome": "Majutsushi Orphen Hagure Tabi: Urbanrama-hen",
      "link": "https://animefire.plus/animes/majutsushi-orphen-hagure-tabi-urbanrama-hen-todos-os-episodios",
      "texto_original": "Majutsushi Orphen Hagure Tabi: Urbanrama-hen",
      "rating": 6.15,
      "classificacao_etaria": "A14",
      "imagem_original": "https://animefire.plus/img/animes/majutsushi-orphen-hagure-tabi-urbanrama-hen.webp",
      "imagem_pasta": "https://animefire.plus/img/animes/majutsushi-orphen-hagure-tabi-urbanrama-hen/",
      "secao": "legendados,lancamentos",
      "pagina": 25,
      "total_episodios": 4,
      "link_video": "https://animefire.plus/video/majutsushi-orphen-hagure-tabi-urbanrama-hen"
    },
    {
      "id": 2394,
      "nome": "Makai Ouji: Devils And Realist",
      "link": "https://animefire.plus/animes/makai-ouji-devils-and-realist-todos-os-episodios",
      "texto_original": "Makai Ouji: Devils And Realist",
      "rating": 7.11,
      "classificacao_etaria": "A14",
      "imagem_original": "https://animefire.plus/img/animes/makai-ouji-devils-and-realist.webp",
      "imagem_pasta": "https://animefire.plus/img/animes/makai-ouji-devils-and-realist/",
      "secao": "legendados",
      "pagina": 80,
      "total_episodios": 12,
      "link_video": "https://animefire.plus/video/makai-ouji-devils-and-realist"
    },
    {
      "id": 2395,
      "nome": "Makai Senki Disgaea",
      "link": "https://animefire.plus/animes/makai-senki-disgaea-todos-os-episodios",
      "texto_original": "Makai Senki Disgaea",
      "rating": 6.82,
      "classificacao_etaria": "A14",
      "imagem_original": "https://animefire.plus/img/animes/makai-senki-disgaea.webp",
      "imagem_pasta": "https://animefire.plus/img/animes/makai-senki-disgaea/",
      "secao": "legendados",
      "pagina": 143,
      "total_episodios": 12,
      "link_video": "https://animefire.plus/video/makai-senki-disgaea"
    },
    {
      "id": 2396,
      "nome": "Make Heroine ga Oosugiru!",
      "link": "https://animefire.plus/animes/make-heroine-ga-oosugiru-todos-os-episodios",
      "texto_original": "Make Heroine ga Oosugiru!",
      "rating": 8.11,
      "classificacao_etaria": "A14",
      "imagem_original": "https://animefire.plus/img/animes/make-heroine-ga-oosugiru.webp",
      "imagem_pasta": "https://animefire.plus/img/animes/make-heroine-ga-oosugiru/",
      "secao": "legendados",
      "pagina": 13,
      "total_episodios": 12,
      "link_video": "https://animefire.plus/video/make-heroine-ga-oosugiru"
    },
    {
      "id": 2397,
      "nome": "Maken-Ki!",
      "link": "https://animefire.plus/animes/maken-ki-todos-os-episodios",
      "texto_original": "Maken-Ki!",
      "rating": 6.38,
      "classificacao_etaria": "A18",
      "imagem_original": "https://animefire.plus/img/animes/maken-ki.webp",
      "imagem_pasta": "https://animefire.plus/img/animes/maken-ki/",
      "secao": "legendados",
      "pagina": 40,
      "total_episodios": 12,
      "link_video": "https://animefire.plus/video/maken-ki"
    },
    {
      "id": 2398,
      "nome": "Maken-Ki! Two",
      "link": "https://animefire.plus/animes/maken-ki-two-todos-os-episodios",
      "texto_original": "Maken-Ki! Two",
      "rating": 6.33,
      "classificacao_etaria": "A18",
      "imagem_original": "https://animefire.plus/img/animes/maken-ki-two.webp",
      "imagem_pasta": "https://animefire.plus/img/animes/maken-ki-two/",
      "secao": "legendados",
      "pagina": 157,
      "total_episodios": 10,
      "link_video": "https://animefire.plus/video/maken-ki-two"
    },
    {
      "id": 2399,
      "nome": "Makeruna!! Aku no Gundan!",
      "link": "https://animefire.plus/animes/makeruna-aku-no-gundan-todos-os-episodios",
      "texto_original": "Makeruna!! Aku no Gundan!",
      "rating": 5.27,
      "classificacao_etaria": null,
      "imagem_original": "https://animefire.plus/img/animes/makeruna-aku-no-gundan.webp",
      "imagem_pasta": "https://animefire.plus/img/animes/makeruna-aku-no-gundan/",
      "secao": "legendados",
      "pagina": 121,
      "total_episodios": 12,
      "link_video": "https://animefire.plus/video/makeruna-aku-no-gundan"
    },
    {
      "id": 2400,
      "nome": "Makura no Danshi",
      "link": "https://animefire.plus/animes/makura-no-danshi-todos-os-episodios",
      "texto_original": "Makura no Danshi",
      "rating": 4.69,
      "classificacao_etaria": "A14",
      "imagem_original": "https://animefire.plus/img/animes/makura-no-danshi.webp",
      "imagem_pasta": "https://animefire.plus/img/animes/makura-no-danshi/",
      "secao": "legendados",
      "pagina": 135,
      "total_episodios": 12,
      "link_video": "https://animefire.plus/video/makura-no-danshi"
    }
  ],
  "pagination": {
    "current_page": 120,
    "per_page": 20,
    "total_items": 4368,
    "total_pages": 219,
    "has_next": true,
    "has_prev": true
  }
}
