{
  "message": "Lista de animes",
  "data": [
    {
      "id": 781,
      "nome": "Deji Meets Girl",
      "link": "https://animefire.plus/animes/deji-meets-girl-todos-os-episodios",
      "texto_original": "Deji Meets Girl",
      "rating": 6.17,
      "classificacao_etaria": "A14",
      "imagem_original": "https://animefire.plus/img/animes/deji-meets-girl.webp",
      "imagem_pasta": "https://animefire.plus/img/animes/deji-meets-girl/",
      "secao": "legendados,lancamentos",
      "pagina": 39,
      "total_episodios": 0,
      "link_video": "https://animefire.plus/video/deji-meets-girl"
    },
    {
      "id": 782,
      "nome": "Dekin no Mogura",
      "link": "https://animefire.plus/animes/dekin-no-mogura-todos-os-episodios",
      "texto_original": "Dekin no Mogura",
      "rating": 6.16,
      "classificacao_etaria": "A14",
      "imagem_original": "https://animefire.plus/img/animes/dekin-no-mogura.webp",
      "imagem_pasta": "https://animefire.plus/img/animes/dekin-no-mogura/",
      "secao": "legendados,lancamentos",
      "pagina": 2,
      "total_episodios": 5,
      "link_video": "https://animefire.plus/video/dekin-no-mogura"
    },
    {
      "id": 783,
      "nome": "Dekiru Neko wa Kyou mo Yuuutsu",
      "link": "https://animefire.plus/animes/dekiru-neko-wa-kyou-mo-yuuutsu-todos-os-episodios",
      "texto_original": "Dekiru Neko wa Kyou mo Yuuutsu",
      "rating": 7.64,
      "classificacao_etaria": "A14",
      "imagem_original": "https://animefire.plus/img/animes/dekiru-neko-wa-kyou-mo-yuuutsu.jpg",
      "imagem_pasta": "https://animefire.plus/img/animes/dekiru-neko-wa-kyou-mo-yuuutsu/",
      "secao": "legendados,lancamentos",
      "pagina": 22,
      "total_episodios": 10,
      "link_video": "https://animefire.plus/video/dekiru-neko-wa-kyou-mo-yuuutsu"
    },
    {
      "id": 784,
      "nome": "Dekisokonai to Yobareta Motoeiyuu wa Jikka kara Tsuihou sareta node Sukikatte ni Ikiru Koto ni Shita",
      "link": "https://animefire.plus/animes/dekisokonai-to-yobareta-motoeiyuu-wa-jikka-kara-tsuihou-sareta-node-sukikatte-ni-ikiru-koto-ni-shita-todos-os-episodios",
      "texto_original": "Dekisokonai to Yobareta Motoeiyuu wa Jikka kara Tsuihou sareta node Sukikatte ni Ikiru Koto ni Shita",
      "rating": 5.22,
      "classificacao_etaria": "A14",
      "imagem_original": "https://animefire.plus/img/animes/dekisokonai-to-yobareta-motoeiyuu-wa-jikka-kara-tsuihou-sareta-node-sukikatte-ni-ikiru-koto-ni-shita.webp",
      "imagem_pasta": "https://animefire.plus/img/animes/dekisokonai-to-yobareta-motoeiyuu-wa-jikka-kara-tsuihou-sareta-node-sukikatte-ni-ikiru-koto-ni-shita/",
      "secao": "legendados",
      "pagina": 14,
      "total_episodios": 12,
      "link_video": "https://animefire.plus/video/dekisokonai-to-yobareta-motoeiyuu-wa-jikka-kara-tsuihou-sareta-node-sukikatte-ni-ikiru-koto-ni-shita"
    },
    {
      "id": 785,
      "nome": "Dekoboko Majo no Oyako Jijou (Dublado)",
      "link": "https://animefire.plus/animes/dekoboko-majo-no-oyako-jijou-dublado-todos-os-episodios",
      "texto_original": "Dekoboko Majo no Oyako Jijou (Dublado)",
      "rating": 6.76,
      "classificacao_etaria": "A14",
      "imagem_original": "https://animefire.plus/img/animes/dekoboko-majo-no-oyako-jijou.webp",
      "imagem_pasta": "https://animefire.plus/img/animes/dekoboko-majo-no-oyako-jijou/",
      "secao": "dublados,legendados,lancamentos",
      "pagina": 5,
      "total_episodios": 12,
      "link_video": "https://animefire.plus/video/dekoboko-majo-no-oyako-jijou-dublado"
    },
    {
      "id": 786,
      "nome": "Delicious Party♡Precure",
      "link": "https://animefire.plus/animes/delicious-party-precure-todos-os-episodios",
      "texto_original": "Delicious Party♡Precure",
      "rating": 6.86,
      "classificacao_etaria": "A16",
      "imagem_original": "https://animefire.plus/img/animes/delicious-party-precure.webp",
      "imagem_pasta": "https://animefire.plus/img/animes/delicious-party-precure/",
      "secao": "legendados",
      "pagina": 35,
      "total_episodios": 45,
      "link_video": "https://animefire.plus/video/delicious-party-precure"
    },
    {
      "id": 787,
      "nome": "Delico's Nursery",
      "link": "https://animefire.plus/animes/delico-s-nursery-todos-os-episodios",
      "texto_original": "Delico's Nursery",
      "rating": 6.79,
      "classificacao_etaria": "A14",
      "imagem_original": "https://animefire.plus/img/animes/delico-s-nursery.webp",
      "imagem_pasta": "https://animefire.plus/img/animes/delico-s-nursery/",
      "secao": "legendados",
      "pagina": 11,
      "total_episodios": 13,
      "link_video": "https://animefire.plus/video/delico-s-nursery"
    },
    {
      "id": 788,
      "nome": "Deltora Quest",
      "link": "https://animefire.plus/animes/deltora-quest-todos-os-episodios",
      "texto_original": "Deltora Quest",
      "rating": 7.11,
      "classificacao_etaria": "A14",
      "imagem_original": "https://animefire.plus/img/animes/deltora-quest.webp",
      "imagem_pasta": "https://animefire.plus/img/animes/deltora-quest/",
      "secao": "legendados",
      "pagina": 168,
      "total_episodios": 65,
      "link_video": "https://animefire.plus/video/deltora-quest"
    },
    {
      "id": 789,
      "nome": "Demi-chan wa Kataritai (Dublado)",
      "link": "https://animefire.plus/animes/demi-chan-wa-kataritai-dublado-todos-os-episodios",
      "texto_original": "Demi-chan wa Kataritai (Dublado)",
      "rating": 7.7,
      "classificacao_etaria": "A14",
      "imagem_original": "https://animefire.plus/img/animes/demi-chan-wa-kataritai.webp",
      "imagem_pasta": "https://animefire.plus/img/animes/demi-chan-wa-kataritai/",
      "secao": "dublados,legendados",
      "pagina": 24,
      "total_episodios": 12,
      "link_video": "https://animefire.plus/video/demi-chan-wa-kataritai-dublado"
    },
    {
      "id": 790,
      "nome": "Demi-chan wa Kataritai: Demi-chan no Natsuyasumi (Dublado)",
      "link": "https://animefire.plus/animes/demi-chan-wa-kataritai-demi-chan-no-natsuyasumi-dublado-todos-os-episodios",
      "texto_original": "Demi-chan wa Kataritai: Demi-chan no Natsuyasumi (Dublado)",
      "rating": 7.57,
      "classificacao_etaria": "A14",
      "imagem_original": "https://animefire.plus/img/animes/demi-chan-wa-kataritai-demi-chan-no-natsuyasumi.webp",
      "imagem_pasta": "https://animefire.plus/img/animes/demi-chan-wa-kataritai-demi-chan-no-natsuyasumi/",
      "secao": "dublados",
      "pagina": 24,
      "total_episodios": 1,
      "link_video": "https://animefire.plus/video/demi-chan-wa-kataritai-demi-chan-no-natsuyasumi-dublado"
    },
    {
      "id": 791,
      "nome": "Denki-gai no Honya-san",
      "link": "https://animefire.plus/animes/denki-gai-no-honya-san-todos-os-episodios",
      "texto_original": "Denki-gai no Honya-san",
      "rating": 7.26,
      "classificacao_etaria": "A14",
      "imagem_original": "https://animefire.plus/img/animes/denki-gai-no-honya-san.webp",
      "imagem_pasta": "https://animefire.plus/img/animes/denki-gai-no-honya-san/",
      "secao": "legendados",
      "pagina": 124,
      "total_episodios": 0,
      "link_video": "https://animefire.plus/video/denki-gai-no-honya-san"
    },
    {
      "id": 792,
      "nome": "Dennou Coil",
      "link": "https://animefire.plus/animes/dennou-coil-todos-os-episodios",
      "texto_original": "Dennou Coil",
      "rating": 8.12,
      "classificacao_etaria": null,
      "imagem_original": "https://animefire.plus/img/animes/dennou-coil.webp",
      "imagem_pasta": "https://animefire.plus/img/animes/dennou-coil/",
      "secao": "legendados",
      "pagina": 108,
      "total_episodios": 0,
      "link_video": "https://animefire.plus/video/dennou-coil"
    },
    {
      "id": 793,
      "nome": "Denpa Kyoushi",
      "link": "https://animefire.plus/animes/denpa-kyoushi-todos-os-episodios",
      "texto_original": "Denpa Kyoushi",
      "rating": 6.42,
      "classificacao_etaria": "A14",
      "imagem_original": "https://animefire.plus/img/animes/denpa-kyoushi.webp",
      "imagem_pasta": "https://animefire.plus/img/animes/denpa-kyoushi/",
      "secao": "legendados",
      "pagina": 72,
      "total_episodios": 6,
      "link_video": "https://animefire.plus/video/denpa-kyoushi"
    },
    {
      "id": 794,
      "nome": "Denpa Kyoushi (TV)",
      "link": "https://animefire.plus/animes/denpa-kyoushi-tv-todos-os-episodios",
      "texto_original": "Denpa Kyoushi (TV)",
      "rating": 6.96,
      "classificacao_etaria": "A14",
      "imagem_original": "https://animefire.plus/img/animes/denpa-kyoushi-tv.webp",
      "imagem_pasta": "https://animefire.plus/img/animes/denpa-kyoushi-tv/",
      "secao": "legendados",
      "pagina": 94,
      "total_episodios": 6,
      "link_video": "https://animefire.plus/video/denpa-kyoushi-tv"
    },
    {
      "id": 795,
      "nome": "Denpa Onna To Seishun Otoko",
      "link": "https://animefire.plus/animes/denpa-onna-to-seishun-otoko-todos-os-episodios",
      "texto_original": "Denpa Onna To Seishun Otoko",
      "rating": 7.24,
      "classificacao_etaria": "A14",
      "imagem_original": "https://animefire.plus/img/animes/denpa-onna-to-seishun-otoko.webp",
      "imagem_pasta": "https://animefire.plus/img/animes/denpa-onna-to-seishun-otoko/",
      "secao": "legendados",
      "pagina": 105,
      "total_episodios": 12,
      "link_video": "https://animefire.plus/video/denpa-onna-to-seishun-otoko"
    },
    {
      "id": 796,
      "nome": "Denpa-teki na Kanojo",
      "link": "https://animefire.plus/animes/denpa-teki-na-kanojo-todos-os-episodios",
      "texto_original": "Denpa-teki na Kanojo",
      "rating": 7.64,
      "classificacao_etaria": "A16",
      "imagem_original": "https://animefire.plus/img/animes/denpa-teki-na-kanojo.webp",
      "imagem_pasta": "https://animefire.plus/img/animes/denpa-teki-na-kanojo/",
      "secao": "legendados",
      "pagina": 104,
      "total_episodios": 2,
      "link_video": "https://animefire.plus/video/denpa-teki-na-kanojo"
    },
    {
      "id": 797,
      "nome": "Densetsu no Yuusha no Densetsu",
      "link": "https://animefire.plus/animes/densetsu-no-yuusha-no-densetsu-todos-os-episodios",
      "texto_original": "Densetsu no Yuusha no Densetsu",
      "rating": 7.71,
      "classificacao_etaria": "A16",
      "imagem_original": "https://animefire.plus/img/animes/densetsu-no-yuusha-no-densetsu.webp",
      "imagem_pasta": "https://animefire.plus/img/animes/densetsu-no-yuusha-no-densetsu/",
      "secao": "legendados",
      "pagina": 144,
      "total_episodios": 24,
      "link_video": "https://animefire.plus/video/densetsu-no-yuusha-no-densetsu"
    },
    {
      "id": 798,
      "nome": "Detective Conan: Black History",
      "link": "https://animefire.plus/animes/detective-conan-black-history-todos-os-episodios",
      "texto_original": "Detective Conan: Black History",
      "rating": 7.63,
      "classificacao_etaria": "A14",
      "imagem_original": "https://animefire.plus/img/animes/detective-conan-black-history.webp",
      "imagem_pasta": "https://animefire.plus/img/animes/detective-conan-black-history/",
      "secao": "legendados",
      "pagina": 87,
      "total_episodios": 1,
      "link_video": "https://animefire.plus/video/detective-conan-black-history"
    },
    {
      "id": 799,
      "nome": "Detective Conan: The Fugitive Kogorou Mouri",
      "link": "https://animefire.plus/animes/detective-conan-the-fugitive-kogorou-mouri-todos-os-episodios",
      "texto_original": "Detective Conan: The Fugitive Kogorou Mouri",
      "rating": 7,
      "classificacao_etaria": "A14",
      "imagem_original": "https://animefire.plus/img/animes/detective-conan-the-fugitive-kogorou-mouri.webp",
      "imagem_pasta": "https://animefire.plus/img/animes/detective-conan-the-fugitive-kogorou-mouri/",
      "secao": "legendados",
      "pagina": 83,
      "total_episodios": 1,
      "link_video": "https://animefire.plus/video/detective-conan-the-fugitive-kogorou-mouri"
    },
    {
      "id": 800,
      "nome": "Detonator Orgun",
      "link": "https://animefire.plus/animes/detonator-orgun-todos-os-episodios",
      "texto_original": "Detonator Orgun",
      "rating": 6.5,
      "classificacao_etaria": "A18",
      "imagem_original": "https://animefire.plus/img/animes/detonator-orgun.webp",
      "imagem_pasta": "https://animefire.plus/img/animes/detonator-orgun/",
      "secao": "legendados",
      "pagina": 77,
      "total_episodios": 3,
      "link_video": "https://animefire.plus/video/detonator-orgun"
    }
  ],
  "pagination": {
    "current_page": 40,
    "per_page": 20,
    "total_items": 4368,
    "total_pages": 219,
    "has_next": true,
    "has_prev": true
  }
}
