{
  "message": "Lista de animes",
  "data": [
    {
      "id": 1441,
      "nome": "Hibike! Euphonium 3",
      "link": "https://animefire.plus/animes/hibike-euphonium-3-todos-os-episodios",
      "texto_original": "Hibike! Euphonium 3",
      "rating": 8.72,
      "classificacao_etaria": "A14",
      "imagem_original": "https://animefire.plus/img/animes/hibike-euphonium-3.webp",
      "imagem_pasta": "https://animefire.plus/img/animes/hibike-euphonium-3/",
      "secao": "legendados",
      "pagina": 15,
      "total_episodios": 12,
      "link_video": "https://animefire.plus/video/hibike-euphonium-3"
    },
    {
      "id": 1442,
      "nome": "Hibike! Euphonium: Suisougaku-bu no Nichijou",
      "link": "https://animefire.plus/animes/hibike-euphonium-suisougaku-bu-no-nichijou-todos-os-episodios",
      "texto_original": "Hibike! Euphonium: Suisougaku-bu no Nichijou",
      "rating": 6.76,
      "classificacao_etaria": "A14",
      "imagem_original": "https://animefire.plus/img/animes/hibike-euphonium-suisougaku-bu-no-nichijou.webp",
      "imagem_pasta": "https://animefire.plus/img/animes/hibike-euphonium-suisougaku-bu-no-nichijou/",
      "secao": "legendados",
      "pagina": 119,
      "total_episodios": 7,
      "link_video": "https://animefire.plus/video/hibike-euphonium-suisougaku-bu-no-nichijou"
    },
    {
      "id": 1443,
      "nome": "Hidamari Sketch",
      "link": "https://animefire.plus/animes/hidamari-sketch-todos-os-episodios",
      "texto_original": "Hidamari Sketch",
      "rating": 7.48,
      "classificacao_etaria": "A14",
      "imagem_original": "https://animefire.plus/img/animes/hidamari-sketch.webp",
      "imagem_pasta": "https://animefire.plus/img/animes/hidamari-sketch/",
      "secao": "legendados",
      "pagina": 101,
      "total_episodios": 0,
      "link_video": "https://animefire.plus/video/hidamari-sketch"
    },
    {
      "id": 1444,
      "nome": "Hidamari Sketch x 365",
      "link": "https://animefire.plus/animes/hidamari-sketch-x-365-todos-os-episodios",
      "texto_original": "Hidamari Sketch x 365",
      "rating": 7.84,
      "classificacao_etaria": "A14",
      "imagem_original": "https://animefire.plus/img/animes/hidamari-sketch-x-365.webp",
      "imagem_pasta": "https://animefire.plus/img/animes/hidamari-sketch-x-365/",
      "secao": "legendados",
      "pagina": 76,
      "total_episodios": 19,
      "link_video": "https://animefire.plus/video/hidamari-sketch-x-365"
    },
    {
      "id": 1445,
      "nome": "Hidamari Sketch x Honeycomb",
      "link": "https://animefire.plus/animes/hidamari-sketch-x-honeycomb-todos-os-episodios",
      "texto_original": "Hidamari Sketch x Honeycomb",
      "rating": 7.97,
      "classificacao_etaria": "A14",
      "imagem_original": "https://animefire.plus/img/animes/hidamari-sketch-x-honeycomb.webp",
      "imagem_pasta": "https://animefire.plus/img/animes/hidamari-sketch-x-honeycomb/",
      "secao": "legendados",
      "pagina": 131,
      "total_episodios": 0,
      "link_video": "https://animefire.plus/video/hidamari-sketch-x-honeycomb"
    },
    {
      "id": 1446,
      "nome": "Hidan no Aria",
      "link": "https://animefire.plus/animes/hidan-no-aria-todos-os-episodios",
      "texto_original": "Hidan no Aria",
      "rating": 7.03,
      "classificacao_etaria": "A14",
      "imagem_original": "https://animefire.plus/img/animes/hidan-no-aria.webp",
      "imagem_pasta": "https://animefire.plus/img/animes/hidan-no-aria/",
      "secao": "legendados",
      "pagina": 120,
      "total_episodios": 12,
      "link_video": "https://animefire.plus/video/hidan-no-aria"
    },
    {
      "id": 1447,
      "nome": "Hidan no Aria AA",
      "link": "https://animefire.plus/animes/hidan-no-aria-aa-todos-os-episodios",
      "texto_original": "Hidan no Aria AA",
      "rating": 6.35,
      "classificacao_etaria": "A14",
      "imagem_original": "https://animefire.plus/img/animes/hidan-no-aria-aa.webp",
      "imagem_pasta": "https://animefire.plus/img/animes/hidan-no-aria-aa/",
      "secao": "legendados",
      "pagina": 157,
      "total_episodios": 12,
      "link_video": "https://animefire.plus/video/hidan-no-aria-aa"
    },
    {
      "id": 1448,
      "nome": "Higashi No Eden",
      "link": "https://animefire.plus/animes/higashi-no-eden-todos-os-episodios",
      "texto_original": "Higashi No Eden",
      "rating": 7.9,
      "classificacao_etaria": "A16",
      "imagem_original": "https://animefire.plus/img/animes/higashi-no-eden.webp",
      "imagem_pasta": "https://animefire.plus/img/animes/higashi-no-eden/",
      "secao": "legendados",
      "pagina": 104,
      "total_episodios": 11,
      "link_video": "https://animefire.plus/video/higashi-no-eden"
    },
    {
      "id": 1449,
      "nome": "Hige wo Soru. Soshite Joshikousei wo Hirou.",
      "link": "https://animefire.plus/animes/hige-wo-soru-soshite-joshikousei-wo-hirou-todos-os-episodios",
      "texto_original": "Hige wo Soru. Soshite Joshikousei wo Hirou.",
      "rating": 7.27,
      "classificacao_etaria": "A14",
      "imagem_original": "https://animefire.plus/img/animes/hige-wo-soru-soshite-joshikousei-wo-hirou.webp",
      "imagem_pasta": "https://animefire.plus/img/animes/hige-wo-soru-soshite-joshikousei-wo-hirou/",
      "secao": "legendados",
      "pagina": 47,
      "total_episodios": 13,
      "link_video": "https://animefire.plus/video/hige-wo-soru-soshite-joshikousei-wo-hirou"
    },
    {
      "id": 1450,
      "nome": "Higeki no Genkyou to Naru Saikyou Gedou Last Boss Joou wa Tami no Tame ni Tsukushimasu.",
      "link": "https://animefire.plus/animes/higeki-no-genkyou-to-naru-saikyou-gedou-last-boss-joou-wa-tami-no-tame-ni-tsukushimasu-todos-os-episodios",
      "texto_original": "Higeki no Genkyou to Naru Saikyou Gedou Last Boss Joou wa Tami no Tame ni Tsukushimasu.",
      "rating": 7.12,
      "classificacao_etaria": "A14",
      "imagem_original": "https://animefire.plus/img/animes/higeki-no-genkyou-to-naru-saikyou-gedou-last-boss-joou-wa-tami-no-tame-ni-tsukushimasu.jpg",
      "imagem_pasta": "https://animefire.plus/img/animes/higeki-no-genkyou-to-naru-saikyou-gedou-last-boss-joou-wa-tami-no-tame-ni-tsukushimasu/",
      "secao": "legendados",
      "pagina": 22,
      "total_episodios": 12,
      "link_video": "https://animefire.plus/video/higeki-no-genkyou-to-naru-saikyou-gedou-last-boss-joou-wa-tami-no-tame-ni-tsukushimasu"
    },
    {
      "id": 1451,
      "nome": "Higepiyo",
      "link": "https://animefire.plus/animes/higepiyo-todos-os-episodios",
      "texto_original": "Higepiyo",
      "rating": 7.13,
      "classificacao_etaria": "A10",
      "imagem_original": "https://animefire.plus/img/animes/higepiyo.webp",
      "imagem_pasta": "https://animefire.plus/img/animes/higepiyo/",
      "secao": "legendados",
      "pagina": 78,
      "total_episodios": 30,
      "link_video": "https://animefire.plus/video/higepiyo"
    },
    {
      "id": 1452,
      "nome": "High Card",
      "link": "https://animefire.plus/animes/high-card-todos-os-episodios",
      "texto_original": "High Card",
      "rating": 7.16,
      "classificacao_etaria": "A16",
      "imagem_original": "https://animefire.plus/img/animes/high-card.webp",
      "imagem_pasta": "https://animefire.plus/img/animes/high-card/",
      "secao": "legendados",
      "pagina": 27,
      "total_episodios": 12,
      "link_video": "https://animefire.plus/video/high-card"
    },
    {
      "id": 1453,
      "nome": "High Card Season 2",
      "link": "https://animefire.plus/animes/high-card-season-2-todos-os-episodios",
      "texto_original": "High Card Season 2",
      "rating": 7.03,
      "classificacao_etaria": "A16",
      "imagem_original": "https://animefire.plus/img/animes/high-card-season-2.webp",
      "imagem_pasta": "https://animefire.plus/img/animes/high-card-season-2/",
      "secao": "legendados",
      "pagina": 17,
      "total_episodios": 12,
      "link_video": "https://animefire.plus/video/high-card-season-2"
    },
    {
      "id": 1454,
      "nome": "High School DxD",
      "link": "https://animefire.plus/animes/high-school-dxd-todos-os-episodios",
      "texto_original": "High School DxD",
      "rating": 7.56,
      "classificacao_etaria": "A18",
      "imagem_original": "https://animefire.plus/img/animes/high-school-dxd.webp",
      "imagem_pasta": "https://animefire.plus/img/animes/high-school-dxd/",
      "secao": "legendados",
      "pagina": 133,
      "total_episodios": 0,
      "link_video": "https://animefire.plus/video/high-school-dxd"
    },
    {
      "id": 1455,
      "nome": "High School DxD BorN",
      "link": "https://animefire.plus/animes/high-school-dxd-born-todos-os-episodios",
      "texto_original": "High School DxD BorN",
      "rating": 7.58,
      "classificacao_etaria": "A18",
      "imagem_original": "https://animefire.plus/img/animes/high-school-dxd-born.webp",
      "imagem_pasta": "https://animefire.plus/img/animes/high-school-dxd-born/",
      "secao": "legendados",
      "pagina": 94,
      "total_episodios": 0,
      "link_video": "https://animefire.plus/video/high-school-dxd-born"
    },
    {
      "id": 1456,
      "nome": "High School DxD Hero",
      "link": "https://animefire.plus/animes/high-school-dxd-hero-todos-os-episodios",
      "texto_original": "High School DxD Hero",
      "rating": 7.48,
      "classificacao_etaria": "A18",
      "imagem_original": "https://animefire.plus/img/animes/high-school-dxd-hero.webp",
      "imagem_pasta": "https://animefire.plus/img/animes/high-school-dxd-hero/",
      "secao": "legendados",
      "pagina": 112,
      "total_episodios": 0,
      "link_video": "https://animefire.plus/video/high-school-dxd-hero"
    },
    {
      "id": 1457,
      "nome": "High School DxD Hero: Taiikukan-ura no Holy",
      "link": "https://animefire.plus/animes/high-school-dxd-hero-taiikukan-ura-no-holy-todos-os-episodios",
      "texto_original": "High School DxD Hero: Taiikukan-ura no Holy",
      "rating": 6.91,
      "classificacao_etaria": "A18",
      "imagem_original": "https://animefire.plus/img/animes/high-school-dxd-hero-taiikukan-ura-no-holy.webp",
      "imagem_pasta": "https://animefire.plus/img/animes/high-school-dxd-hero-taiikukan-ura-no-holy/",
      "secao": "legendados",
      "pagina": 82,
      "total_episodios": 1,
      "link_video": "https://animefire.plus/video/high-school-dxd-hero-taiikukan-ura-no-holy"
    },
    {
      "id": 1458,
      "nome": "High School DxD New",
      "link": "https://animefire.plus/animes/high-school-dxd-new-todos-os-episodios",
      "texto_original": "High School DxD New",
      "rating": 7.71,
      "classificacao_etaria": "A18",
      "imagem_original": "https://animefire.plus/img/animes/high-school-dxd-new.webp",
      "imagem_pasta": "https://animefire.plus/img/animes/high-school-dxd-new/",
      "secao": "legendados",
      "pagina": 169,
      "total_episodios": 0,
      "link_video": "https://animefire.plus/video/high-school-dxd-new"
    },
    {
      "id": 1459,
      "nome": "High School Fleet",
      "link": "https://animefire.plus/animes/high-school-fleet-todos-os-episodios",
      "texto_original": "High School Fleet",
      "rating": 7.31,
      "classificacao_etaria": "A14",
      "imagem_original": "https://animefire.plus/img/animes/high-school-fleet.webp",
      "imagem_pasta": "https://animefire.plus/img/animes/high-school-fleet/",
      "secao": "legendados",
      "pagina": 64,
      "total_episodios": 12,
      "link_video": "https://animefire.plus/video/high-school-fleet"
    },
    {
      "id": 1460,
      "nome": "High Score Girl (Dublado)",
      "link": "https://animefire.plus/animes/high-score-girl-dublado-todos-os-episodios",
      "texto_original": "High Score Girl (Dublado)",
      "rating": 8.02,
      "classificacao_etaria": "A14",
      "imagem_original": "https://animefire.plus/img/animes/high-score-girl.webp",
      "imagem_pasta": "https://animefire.plus/img/animes/high-score-girl/",
      "secao": "dublados,legendados",
      "pagina": 24,
      "total_episodios": 12,
      "link_video": "https://animefire.plus/video/high-score-girl-dublado"
    }
  ],
  "pagination": {
    "current_page": 73,
    "per_page": 20,
    "total_items": 4368,
    "total_pages": 219,
    "has_next": true,
    "has_prev": true
  }
}
