{
  "message": "Lista de animes",
  "data": [
    {
      "id": 2201,
      "nome": "Ladyspo",
      "link": "https://animefire.plus/animes/ladyspo-todos-os-episodios",
      "texto_original": "Ladyspo",
      "rating": 4.28,
      "classificacao_etaria": "A14",
      "imagem_original": "https://animefire.plus/img/animes/ladyspo.webp",
      "imagem_pasta": "https://animefire.plus/img/animes/ladyspo/",
      "secao": "legendados",
      "pagina": 87,
      "total_episodios": 12,
      "link_video": "https://animefire.plus/video/ladyspo"
    },
    {
      "id": 2202,
      "nome": "Lamune",
      "link": "https://animefire.plus/animes/lamune-todos-os-episodios",
      "texto_original": "Lamune",
      "rating": 6.89,
      "classificacao_etaria": "A14",
      "imagem_original": "https://animefire.plus/img/animes/lamune.webp",
      "imagem_pasta": "https://animefire.plus/img/animes/lamune/",
      "secao": "legendados",
      "pagina": 172,
      "total_episodios": 12,
      "link_video": "https://animefire.plus/video/lamune"
    },
    {
      "id": 2203,
      "nome": "Lan Mo De Hua",
      "link": "https://animefire.plus/animes/lan-mo-de-hua-todos-os-episodios",
      "texto_original": "Lan Mo De Hua",
      "rating": 6.74,
      "classificacao_etaria": "A14",
      "imagem_original": "https://animefire.plus/img/animes/lan-mo-de-hua.webp",
      "imagem_pasta": "https://animefire.plus/img/animes/lan-mo-de-hua/",
      "secao": "legendados",
      "pagina": 151,
      "total_episodios": 9,
      "link_video": "https://animefire.plus/video/lan-mo-de-hua"
    },
    {
      "id": 2204,
      "nome": "Lapis Re:LiGHTs",
      "link": "https://animefire.plus/animes/lapis-re-lights-todos-os-episodios",
      "texto_original": "Lapis Re:LiGHTs",
      "rating": null,
      "classificacao_etaria": "A14",
      "imagem_original": "https://animefire.plus/img/animes/lapis-re-lights.webp",
      "imagem_pasta": "https://animefire.plus/img/animes/lapis-re-lights/",
      "secao": "legendados",
      "pagina": 58,
      "total_episodios": 0,
      "link_video": "https://animefire.plus/video/lapis-re-lights"
    },
    {
      "id": 2205,
      "nome": "Last Exile",
      "link": "https://animefire.plus/animes/last-exile-todos-os-episodios",
      "texto_original": "Last Exile",
      "rating": 7.88,
      "classificacao_etaria": "A14",
      "imagem_original": "https://animefire.plus/img/animes/last-exile.webp",
      "imagem_pasta": "https://animefire.plus/img/animes/last-exile/",
      "secao": "legendados",
      "pagina": 124,
      "total_episodios": 26,
      "link_video": "https://animefire.plus/video/last-exile"
    },
    {
      "id": 2206,
      "nome": "Last Exile: Ginyoku no Fam",
      "link": "https://animefire.plus/animes/last-exile-ginyoku-no-fam-todos-os-episodios",
      "texto_original": "Last Exile: Ginyoku no Fam",
      "rating": 7.12,
      "classificacao_etaria": "A14",
      "imagem_original": "https://animefire.plus/img/animes/last-exile-ginyoku-no-fam.webp",
      "imagem_pasta": "https://animefire.plus/img/animes/last-exile-ginyoku-no-fam/",
      "secao": "legendados",
      "pagina": 132,
      "total_episodios": 21,
      "link_video": "https://animefire.plus/video/last-exile-ginyoku-no-fam"
    },
    {
      "id": 2207,
      "nome": "Last Period: Owarinaki Rasen no Monogatari",
      "link": "https://animefire.plus/animes/last-period-owarinaki-rasen-no-monogatari-todos-os-episodios",
      "texto_original": "Last Period: Owarinaki Rasen no Monogatari",
      "rating": 6.54,
      "classificacao_etaria": "A14",
      "imagem_original": "https://animefire.plus/img/animes/last-period-owarinaki-rasen-no-monogatari.webp",
      "imagem_pasta": "https://animefire.plus/img/animes/last-period-owarinaki-rasen-no-monogatari/",
      "secao": "legendados",
      "pagina": 137,
      "total_episodios": 12,
      "link_video": "https://animefire.plus/video/last-period-owarinaki-rasen-no-monogatari"
    },
    {
      "id": 2208,
      "nome": "Layton Mystery Tanteisha: Katri no Nazotoki File",
      "link": "https://animefire.plus/animes/layton-mystery-tanteisha-katri-no-nazotoki-file-todos-os-episodios",
      "texto_original": "Layton Mystery Tanteisha: Katri no Nazotoki File",
      "rating": 7.33,
      "classificacao_etaria": "A10",
      "imagem_original": "https://animefire.plus/img/animes/layton-mystery-tanteisha-katri-no-nazotoki-file.webp",
      "imagem_pasta": "https://animefire.plus/img/animes/layton-mystery-tanteisha-katri-no-nazotoki-file/",
      "secao": "legendados",
      "pagina": 162,
      "total_episodios": 50,
      "link_video": "https://animefire.plus/video/layton-mystery-tanteisha-katri-no-nazotoki-file"
    },
    {
      "id": 2209,
      "nome": "Lazarus (Dublado)",
      "link": "https://animefire.plus/animes/lazarus-dublado-todos-os-episodios",
      "texto_original": "Lazarus (Dublado)",
      "rating": 7.56,
      "classificacao_etaria": "A14",
      "imagem_original": "https://animefire.plus/img/animes/lazarus.webp",
      "imagem_pasta": "https://animefire.plus/img/animes/lazarus/",
      "secao": "dublados,legendados,lancamentos",
      "pagina": 1,
      "total_episodios": 13,
      "link_video": "https://animefire.plus/video/lazarus-dublado"
    },
    {
      "id": 2210,
      "nome": "Le Chevalier D'Eon",
      "link": "https://animefire.plus/animes/le-chevalier-d-eon-todos-os-episodios",
      "texto_original": "Le Chevalier D'Eon",
      "rating": 7.25,
      "classificacao_etaria": "A16",
      "imagem_original": "https://animefire.plus/img/animes/le-chevalier-d-eon.webp",
      "imagem_pasta": "https://animefire.plus/img/animes/le-chevalier-d-eon/",
      "secao": "legendados",
      "pagina": 78,
      "total_episodios": 24,
      "link_video": "https://animefire.plus/video/le-chevalier-d-eon"
    },
    {
      "id": 2211,
      "nome": "Leadale no Daichi nite (Dublado)",
      "link": "https://animefire.plus/animes/leadale-no-daichi-nite-dublado-todos-os-episodios",
      "texto_original": "Leadale no Daichi nite (Dublado)",
      "rating": 6.95,
      "classificacao_etaria": "A14",
      "imagem_original": "https://animefire.plus/img/animes/leadale-no-daichi-nite.webp",
      "imagem_pasta": "https://animefire.plus/img/animes/leadale-no-daichi-nite/",
      "secao": "dublados,legendados",
      "pagina": 12,
      "total_episodios": 12,
      "link_video": "https://animefire.plus/video/leadale-no-daichi-nite-dublado"
    },
    {
      "id": 2212,
      "nome": "Legend of Duo",
      "link": "https://animefire.plus/animes/legend-of-duo-todos-os-episodios",
      "texto_original": "Legend of Duo",
      "rating": 5.02,
      "classificacao_etaria": "A16",
      "imagem_original": "https://animefire.plus/img/animes/legend-of-duo.webp",
      "imagem_pasta": "https://animefire.plus/img/animes/legend-of-duo/",
      "secao": "legendados",
      "pagina": 176,
      "total_episodios": 0,
      "link_video": "https://animefire.plus/video/legend-of-duo"
    },
    {
      "id": 2213,
      "nome": "Lemon Angel Project",
      "link": "https://animefire.plus/animes/lemon-angel-project-todos-os-episodios",
      "texto_original": "Lemon Angel Project",
      "rating": 6.71,
      "classificacao_etaria": "A10",
      "imagem_original": "https://animefire.plus/img/animes/lemon-angel-project.webp",
      "imagem_pasta": "https://animefire.plus/img/animes/lemon-angel-project/",
      "secao": "legendados",
      "pagina": 169,
      "total_episodios": 13,
      "link_video": "https://animefire.plus/video/lemon-angel-project"
    },
    {
      "id": 2214,
      "nome": "Let's Nupu Nupu",
      "link": "https://animefire.plus/animes/let-s-nupu-nupu-todos-os-episodios",
      "texto_original": "Let's Nupu Nupu",
      "rating": 6.25,
      "classificacao_etaria": "A18",
      "imagem_original": "https://animefire.plus/img/animes/let-s-nupu-nupu.webp",
      "imagem_pasta": "https://animefire.plus/img/animes/let-s-nupu-nupu/",
      "secao": "legendados",
      "pagina": 42,
      "total_episodios": 16,
      "link_video": "https://animefire.plus/video/let-s-nupu-nupu"
    },
    {
      "id": 2215,
      "nome": "Level 1 dakedo Unique Skill de Saikyou desu (Dublado)",
      "link": "https://animefire.plus/animes/level-1-dakedo-unique-skill-de-saikyou-desu-dublado-todos-os-episodios",
      "texto_original": "Level 1 dakedo Unique Skill de Saikyou desu (Dublado)",
      "rating": 6.21,
      "classificacao_etaria": "A14",
      "imagem_original": "https://animefire.plus/img/animes/level-1-dakedo-unique-skill-de-saikyou-desu.webp",
      "imagem_pasta": "https://animefire.plus/img/animes/level-1-dakedo-unique-skill-de-saikyou-desu/",
      "secao": "dublados,legendados",
      "pagina": 7,
      "total_episodios": 12,
      "link_video": "https://animefire.plus/video/level-1-dakedo-unique-skill-de-saikyou-desu-dublado"
    },
    {
      "id": 2216,
      "nome": "Level E (Dublado)",
      "link": "https://animefire.plus/animes/level-e-dublado-todos-os-episodios",
      "texto_original": "Level E (Dublado)",
      "rating": 7.41,
      "classificacao_etaria": "A16",
      "imagem_original": "https://animefire.plus/img/animes/level-e.webp",
      "imagem_pasta": "https://animefire.plus/img/animes/level-e/",
      "secao": "dublados,legendados",
      "pagina": 4,
      "total_episodios": 13,
      "link_video": "https://animefire.plus/video/level-e-dublado"
    },
    {
      "id": 2217,
      "nome": "Levius (Dublado)",
      "link": "https://animefire.plus/animes/levius-dublado-todos-os-episodios",
      "texto_original": "Levius (Dublado)",
      "rating": 7.27,
      "classificacao_etaria": "A14",
      "imagem_original": "https://animefire.plus/img/animes/levius.webp",
      "imagem_pasta": "https://animefire.plus/img/animes/levius/",
      "secao": "dublados,legendados",
      "pagina": 25,
      "total_episodios": 12,
      "link_video": "https://animefire.plus/video/levius-dublado"
    },
    {
      "id": 2218,
      "nome": "Li Shi Zhentan Shiwusuo: A Day in Lungmen",
      "link": "https://animefire.plus/animes/li-shi-zhentan-shiwusuo-a-day-in-lungmen-todos-os-episodios",
      "texto_original": "Li Shi Zhentan Shiwusuo: A Day in Lungmen",
      "rating": 6.53,
      "classificacao_etaria": "A14",
      "imagem_original": "https://animefire.plus/img/animes/li-shi-zhentan-shiwusuo-a-day-in-lungmen.webp",
      "imagem_pasta": "https://animefire.plus/img/animes/li-shi-zhentan-shiwusuo-a-day-in-lungmen/",
      "secao": "legendados",
      "pagina": 26,
      "total_episodios": 6,
      "link_video": "https://animefire.plus/video/li-shi-zhentan-shiwusuo-a-day-in-lungmen"
    },
    {
      "id": 2219,
      "nome": "Liar Liar",
      "link": "https://animefire.plus/animes/liar-liar-todos-os-episodios",
      "texto_original": "Liar Liar",
      "rating": 6.32,
      "classificacao_etaria": "A14",
      "imagem_original": "https://animefire.plus/img/animes/liar-liar.jpg",
      "imagem_pasta": "https://animefire.plus/img/animes/liar-liar/",
      "secao": "legendados,lancamentos",
      "pagina": 23,
      "total_episodios": 11,
      "link_video": "https://animefire.plus/video/liar-liar"
    },
    {
      "id": 2220,
      "nome": "Lie Huo Jiao Chou",
      "link": "https://animefire.plus/animes/lie-huo-jiao-chou-todos-os-episodios",
      "texto_original": "Lie Huo Jiao Chou",
      "rating": 7.28,
      "classificacao_etaria": "A14",
      "imagem_original": "https://animefire.plus/img/animes/lie-huo-jiao-chou.webp",
      "imagem_pasta": "https://animefire.plus/img/animes/lie-huo-jiao-chou/",
      "secao": "legendados",
      "pagina": 37,
      "total_episodios": 12,
      "link_video": "https://animefire.plus/video/lie-huo-jiao-chou"
    }
  ],
  "pagination": {
    "current_page": 111,
    "per_page": 20,
    "total_items": 4368,
    "total_pages": 219,
    "has_next": true,
    "has_prev": true
  }
}
