{
  "message": "Lista de animes",
  "data": [
    {
      "id": 3321,
      "nome": "Sekaiichi Hatsukoi",
      "link": "https://animefire.plus/animes/sekaiichi-hatsukoi-todos-os-episodios",
      "texto_original": "Sekaiichi Hatsukoi",
      "rating": 8.01,
      "classificacao_etaria": "A14",
      "imagem_original": "https://animefire.plus/img/animes/sekaiichi-hatsukoi.webp",
      "imagem_pasta": "https://animefire.plus/img/animes/sekaiichi-hatsukoi/",
      "secao": "legendados",
      "pagina": 161,
      "total_episodios": 5,
      "link_video": "https://animefire.plus/video/sekaiichi-hatsukoi"
    },
    {
      "id": 3322,
      "nome": "Sekaiichi Hatsukoi 2",
      "link": "https://animefire.plus/animes/sekaiichi-hatsukoi-2-todos-os-episodios",
      "texto_original": "Sekaiichi Hatsukoi 2",
      "rating": 8.18,
      "classificacao_etaria": "A14",
      "imagem_original": "https://animefire.plus/img/animes/sekaiichi-hatsukoi-2.webp",
      "imagem_pasta": "https://animefire.plus/img/animes/sekaiichi-hatsukoi-2/",
      "secao": "legendados",
      "pagina": 161,
      "total_episodios": 3,
      "link_video": "https://animefire.plus/video/sekaiichi-hatsukoi-2"
    },
    {
      "id": 3323,
      "nome": "Sekirei",
      "link": "https://animefire.plus/animes/sekirei-todos-os-episodios",
      "texto_original": "Sekirei",
      "rating": 7.27,
      "classificacao_etaria": "A18",
      "imagem_original": "https://animefire.plus/img/animes/sekirei.webp",
      "imagem_pasta": "https://animefire.plus/img/animes/sekirei/",
      "secao": "legendados",
      "pagina": 116,
      "total_episodios": 12,
      "link_video": "https://animefire.plus/video/sekirei"
    },
    {
      "id": 3324,
      "nome": "Sekirei: Pure Engagement",
      "link": "https://animefire.plus/animes/sekirei-pure-engagement-todos-os-episodios",
      "texto_original": "Sekirei: Pure Engagement",
      "rating": 7.49,
      "classificacao_etaria": "A18",
      "imagem_original": "https://animefire.plus/img/animes/sekirei-pure-engagement.webp",
      "imagem_pasta": "https://animefire.plus/img/animes/sekirei-pure-engagement/",
      "secao": "legendados",
      "pagina": 154,
      "total_episodios": 14,
      "link_video": "https://animefire.plus/video/sekirei-pure-engagement"
    },
    {
      "id": 3325,
      "nome": "Sekkou Boys",
      "link": "https://animefire.plus/animes/sekkou-boys-todos-os-episodios",
      "texto_original": "Sekkou Boys",
      "rating": 6.33,
      "classificacao_etaria": "A14",
      "imagem_original": "https://animefire.plus/img/animes/sekkou-boys.webp",
      "imagem_pasta": "https://animefire.plus/img/animes/sekkou-boys/",
      "secao": "legendados",
      "pagina": 97,
      "total_episodios": 12,
      "link_video": "https://animefire.plus/video/sekkou-boys"
    },
    {
      "id": 3326,
      "nome": "Selection Project",
      "link": "https://animefire.plus/animes/selection-project-todos-os-episodios",
      "texto_original": "Selection Project",
      "rating": 7.26,
      "classificacao_etaria": "A14",
      "imagem_original": "https://animefire.plus/img/animes/selection-project.webp",
      "imagem_pasta": "https://animefire.plus/img/animes/selection-project/",
      "secao": "legendados",
      "pagina": 38,
      "total_episodios": 13,
      "link_video": "https://animefire.plus/video/selection-project"
    },
    {
      "id": 3327,
      "nome": "Selector Infected WIXOSS",
      "link": "https://animefire.plus/animes/selector-infected-wixoss-todos-os-episodios",
      "texto_original": "Selector Infected WIXOSS",
      "rating": 7.33,
      "classificacao_etaria": "A16",
      "imagem_original": "https://animefire.plus/img/animes/selector-infected-wixoss.webp",
      "imagem_pasta": "https://animefire.plus/img/animes/selector-infected-wixoss/",
      "secao": "legendados",
      "pagina": 100,
      "total_episodios": 12,
      "link_video": "https://animefire.plus/video/selector-infected-wixoss"
    },
    {
      "id": 3328,
      "nome": "Selector Spread WIXOSS",
      "link": "https://animefire.plus/animes/selector-spread-wixoss-todos-os-episodios",
      "texto_original": "Selector Spread WIXOSS",
      "rating": 7.46,
      "classificacao_etaria": "A16",
      "imagem_original": "https://animefire.plus/img/animes/selector-spread-wixoss.webp",
      "imagem_pasta": "https://animefire.plus/img/animes/selector-spread-wixoss/",
      "secao": "legendados",
      "pagina": 104,
      "total_episodios": 1,
      "link_video": "https://animefire.plus/video/selector-spread-wixoss"
    },
    {
      "id": 3329,
      "nome": "Sengoku Basara",
      "link": "https://animefire.plus/animes/sengoku-basara-todos-os-episodios",
      "texto_original": "Sengoku Basara",
      "rating": 7.47,
      "classificacao_etaria": "A14",
      "imagem_original": "https://animefire.plus/img/animes/sengoku-basara.webp",
      "imagem_pasta": "https://animefire.plus/img/animes/sengoku-basara/",
      "secao": "legendados",
      "pagina": 130,
      "total_episodios": 7,
      "link_video": "https://animefire.plus/video/sengoku-basara"
    },
    {
      "id": 3330,
      "nome": "Sengoku Basara Two",
      "link": "https://animefire.plus/animes/sengoku-basara-two-todos-os-episodios",
      "texto_original": "Sengoku Basara Two",
      "rating": 7.63,
      "classificacao_etaria": "A14",
      "imagem_original": "https://animefire.plus/img/animes/sengoku-basara-two.webp",
      "imagem_pasta": "https://animefire.plus/img/animes/sengoku-basara-two/",
      "secao": "legendados",
      "pagina": 105,
      "total_episodios": 12,
      "link_video": "https://animefire.plus/video/sengoku-basara-two"
    },
    {
      "id": 3331,
      "nome": "Sengoku Basara Two: Ryuko, Itadaki no Chikai! Atsuki Mirai e Kakeru Tamashii!!",
      "link": "https://animefire.plus/animes/sengoku-basara-two-ryuko-itadaki-no-chikai-atsuki-mirai-e-kakeru-tamashii-todos-os-episodios",
      "texto_original": "Sengoku Basara Two: Ryuko, Itadaki no Chikai! Atsuki Mirai e Kakeru Tamashii!!",
      "rating": 7.29,
      "classificacao_etaria": "A14",
      "imagem_original": "https://animefire.plus/img/animes/sengoku-basara-two-ryuko-itadaki-no-chikai-atsuki-mirai-e-kakeru-tamashii.webp",
      "imagem_pasta": "https://animefire.plus/img/animes/sengoku-basara-two-ryuko-itadaki-no-chikai-atsuki-mirai-e-kakeru-tamashii/",
      "secao": "legendados",
      "pagina": 70,
      "total_episodios": 1,
      "link_video": "https://animefire.plus/video/sengoku-basara-two-ryuko-itadaki-no-chikai-atsuki-mirai-e-kakeru-tamashii"
    },
    {
      "id": 3332,
      "nome": "Sengoku Basara: Judge End",
      "link": "https://animefire.plus/animes/sengoku-basara-judge-end-todos-os-episodios",
      "texto_original": "Sengoku Basara: Judge End",
      "rating": 6.93,
      "classificacao_etaria": "A14",
      "imagem_original": "https://animefire.plus/img/animes/sengoku-basara-judge-end.webp",
      "imagem_pasta": "https://animefire.plus/img/animes/sengoku-basara-judge-end/",
      "secao": "legendados",
      "pagina": 176,
      "total_episodios": 6,
      "link_video": "https://animefire.plus/video/sengoku-basara-judge-end"
    },
    {
      "id": 3333,
      "nome": "Sengoku Collection",
      "link": "https://animefire.plus/animes/sengoku-collection-todos-os-episodios",
      "texto_original": "Sengoku Collection",
      "rating": 6.45,
      "classificacao_etaria": "A14",
      "imagem_original": "https://animefire.plus/img/animes/sengoku-collection.webp",
      "imagem_pasta": "https://animefire.plus/img/animes/sengoku-collection/",
      "secao": "legendados",
      "pagina": 55,
      "total_episodios": 26,
      "link_video": "https://animefire.plus/video/sengoku-collection"
    },
    {
      "id": 3334,
      "nome": "Sengoku Night Blood",
      "link": "https://animefire.plus/animes/sengoku-night-blood-todos-os-episodios",
      "texto_original": "Sengoku Night Blood",
      "rating": 6.16,
      "classificacao_etaria": "A14",
      "imagem_original": "https://animefire.plus/img/animes/sengoku-night-blood.webp",
      "imagem_pasta": "https://animefire.plus/img/animes/sengoku-night-blood/",
      "secao": "legendados",
      "pagina": 102,
      "total_episodios": 9,
      "link_video": "https://animefire.plus/video/sengoku-night-blood"
    },
    {
      "id": 3335,
      "nome": "Sengoku Otome: Momoiro Paradox",
      "link": "https://animefire.plus/animes/sengoku-otome-momoiro-paradox-todos-os-episodios",
      "texto_original": "Sengoku Otome: Momoiro Paradox",
      "rating": 6.66,
      "classificacao_etaria": "A18",
      "imagem_original": "https://animefire.plus/img/animes/sengoku-otome-momoiro-paradox.webp",
      "imagem_pasta": "https://animefire.plus/img/animes/sengoku-otome-momoiro-paradox/",
      "secao": "legendados",
      "pagina": 115,
      "total_episodios": 12,
      "link_video": "https://animefire.plus/video/sengoku-otome-momoiro-paradox"
    },
    {
      "id": 3336,
      "nome": "Sengoku Youko",
      "link": "https://animefire.plus/animes/sengoku-youko-todos-os-episodios",
      "texto_original": "Sengoku Youko",
      "rating": 6.99,
      "classificacao_etaria": "A14",
      "imagem_original": "https://animefire.plus/img/animes/sengoku-youko.webp",
      "imagem_pasta": "https://animefire.plus/img/animes/sengoku-youko/",
      "secao": "legendados",
      "pagina": 16,
      "total_episodios": 13,
      "link_video": "https://animefire.plus/video/sengoku-youko"
    },
    {
      "id": 3337,
      "nome": "Sengoku Youko: Senma Konton-hen",
      "link": "https://animefire.plus/animes/sengoku-youko-senma-konton-hen-todos-os-episodios",
      "texto_original": "Sengoku Youko: Senma Konton-hen",
      "rating": 7.58,
      "classificacao_etaria": "A14",
      "imagem_original": "https://animefire.plus/img/animes/sengoku-youko-senma-konton-hen.webp",
      "imagem_pasta": "https://animefire.plus/img/animes/sengoku-youko-senma-konton-hen/",
      "secao": "legendados",
      "pagina": 11,
      "total_episodios": 22,
      "link_video": "https://animefire.plus/video/sengoku-youko-senma-konton-hen"
    },
    {
      "id": 3338,
      "nome": "Senjou no Valkyria",
      "link": "https://animefire.plus/animes/senjou-no-valkyria-todos-os-episodios",
      "texto_original": "Senjou no Valkyria",
      "rating": 7.68,
      "classificacao_etaria": "A14",
      "imagem_original": "https://animefire.plus/img/animes/senjou-no-valkyria.webp",
      "imagem_pasta": "https://animefire.plus/img/animes/senjou-no-valkyria/",
      "secao": "legendados",
      "pagina": 126,
      "total_episodios": 26,
      "link_video": "https://animefire.plus/video/senjou-no-valkyria"
    },
    {
      "id": 3339,
      "nome": "Senjou no Valkyria 3: Tagatame no Juusou",
      "link": "https://animefire.plus/animes/senjou-no-valkyria-3-tagatame-no-juusou-todos-os-episodios",
      "texto_original": "Senjou no Valkyria 3: Tagatame no Juusou",
      "rating": 7.33,
      "classificacao_etaria": "A14",
      "imagem_original": "https://animefire.plus/img/animes/senjou-no-valkyria-3-tagatame-no-juusou.webp",
      "imagem_pasta": "https://animefire.plus/img/animes/senjou-no-valkyria-3-tagatame-no-juusou/",
      "secao": "legendados",
      "pagina": 86,
      "total_episodios": 2,
      "link_video": "https://animefire.plus/video/senjou-no-valkyria-3-tagatame-no-juusou"
    },
    {
      "id": 3340,
      "nome": "Senjou no Valkyria: SenVal Theater",
      "link": "https://animefire.plus/animes/senjou-no-valkyria-senval-theater-todos-os-episodios",
      "texto_original": "Senjou no Valkyria: SenVal Theater",
      "rating": 6.83,
      "classificacao_etaria": "A14",
      "imagem_original": "https://animefire.plus/img/animes/senjou-no-valkyria-senval-theater.webp",
      "imagem_pasta": "https://animefire.plus/img/animes/senjou-no-valkyria-senval-theater/",
      "secao": "legendados",
      "pagina": 140,
      "total_episodios": 9,
      "link_video": "https://animefire.plus/video/senjou-no-valkyria-senval-theater"
    }
  ],
  "pagination": {
    "current_page": 167,
    "per_page": 20,
    "total_items": 4368,
    "total_pages": 219,
    "has_next": true,
    "has_prev": true
  }
}
