{
  "message": "Lista de animes",
  "data": [
    {
      "id": 881,
      "nome": "Dragon Crisis!",
      "link": "https://animefire.plus/animes/dragon-crisis-todos-os-episodios",
      "texto_original": "Dragon Crisis!",
      "rating": 6.82,
      "classificacao_etaria": "A14",
      "imagem_original": "https://animefire.plus/img/animes/dragon-crisis.webp",
      "imagem_pasta": "https://animefire.plus/img/animes/dragon-crisis/",
      "secao": "legendados",
      "pagina": 161,
      "total_episodios": 12,
      "link_video": "https://animefire.plus/video/dragon-crisis"
    },
    {
      "id": 882,
      "nome": "Dragon Drive",
      "link": "https://animefire.plus/animes/dragon-drive-todos-os-episodios",
      "texto_original": "Dragon Drive",
      "rating": 6.81,
      "classificacao_etaria": "A10",
      "imagem_original": "https://animefire.plus/img/animes/dragon-drive.webp",
      "imagem_pasta": "https://animefire.plus/img/animes/dragon-drive/",
      "secao": "legendados",
      "pagina": 125,
      "total_episodios": 38,
      "link_video": "https://animefire.plus/video/dragon-drive"
    },
    {
      "id": 883,
      "nome": "Dragon Fist",
      "link": "https://animefire.plus/animes/dragon-fist-todos-os-episodios",
      "texto_original": "Dragon Fist",
      "rating": 4.76,
      "classificacao_etaria": "A14",
      "imagem_original": "https://animefire.plus/img/animes/dragon-fist.webp",
      "imagem_pasta": "https://animefire.plus/img/animes/dragon-fist/",
      "secao": "legendados",
      "pagina": 87,
      "total_episodios": 1,
      "link_video": "https://animefire.plus/video/dragon-fist"
    },
    {
      "id": 884,
      "nome": "Dragon Quest: Dai no Daibouken (2020)",
      "link": "https://animefire.plus/animes/dragon-quest-dai-no-daibouken-2020-todos-os-episodios",
      "texto_original": "Dragon Quest: Dai no Daibouken (2020)",
      "rating": null,
      "classificacao_etaria": "A14",
      "imagem_original": "https://animefire.plus/img/animes/dragon-quest-dai-no-daibouken-2020.webp",
      "imagem_pasta": "https://animefire.plus/img/animes/dragon-quest-dai-no-daibouken-2020/",
      "secao": "legendados",
      "pagina": 52,
      "total_episodios": 100,
      "link_video": "https://animefire.plus/video/dragon-quest-dai-no-daibouken-2020"
    },
    {
      "id": 885,
      "nome": "Dragon Quest: Dai no Daibouken (TV) (Dublado)",
      "link": "https://animefire.plus/animes/dragon-quest-dai-no-daibouken-tv-dublado-todos-os-episodios",
      "texto_original": "Dragon Quest: Dai no Daibouken (TV) (Dublado)",
      "rating": 7.65,
      "classificacao_etaria": null,
      "imagem_original": "https://animefire.plus/img/animes/dragon-quest-dai-no-daibouken-tv.webp",
      "imagem_pasta": "https://animefire.plus/img/animes/dragon-quest-dai-no-daibouken-tv/",
      "secao": "dublados",
      "pagina": 20,
      "total_episodios": 46,
      "link_video": "https://animefire.plus/video/dragon-quest-dai-no-daibouken-tv-dublado"
    },
    {
      "id": 886,
      "nome": "Dragon, Ie wo Kau. (Dublado)",
      "link": "https://animefire.plus/animes/dragon-ie-wo-kau-dublado-todos-os-episodios",
      "texto_original": "Dragon, Ie wo Kau. (Dublado)",
      "rating": 6.42,
      "classificacao_etaria": "A14",
      "imagem_original": "https://animefire.plus/img/animes/dragon-ie-wo-kau.webp",
      "imagem_pasta": "https://animefire.plus/img/animes/dragon-ie-wo-kau/",
      "secao": "dublados,legendados",
      "pagina": 13,
      "total_episodios": 12,
      "link_video": "https://animefire.plus/video/dragon-ie-wo-kau-dublado"
    },
    {
      "id": 887,
      "nome": "Dragon's Dogma",
      "link": "https://animefire.plus/animes/dragon-s-dogma-todos-os-episodios",
      "texto_original": "Dragon's Dogma",
      "rating": 5.86,
      "classificacao_etaria": "A18",
      "imagem_original": "https://animefire.plus/img/animes/dragon-s-dogma.webp",
      "imagem_pasta": "https://animefire.plus/img/animes/dragon-s-dogma/",
      "secao": "legendados",
      "pagina": 42,
      "total_episodios": 7,
      "link_video": "https://animefire.plus/video/dragon-s-dogma"
    },
    {
      "id": 888,
      "nome": "Dragonaut: The Resonance",
      "link": "https://animefire.plus/animes/dragonaut-the-resonance-todos-os-episodios",
      "texto_original": "Dragonaut: The Resonance",
      "rating": 6.73,
      "classificacao_etaria": "A14",
      "imagem_original": "https://animefire.plus/img/animes/dragonaut-the-resonance.webp",
      "imagem_pasta": "https://animefire.plus/img/animes/dragonaut-the-resonance/",
      "secao": "legendados",
      "pagina": 145,
      "total_episodios": 25,
      "link_video": "https://animefire.plus/video/dragonaut-the-resonance"
    },
    {
      "id": 889,
      "nome": "DRAMAtical Murder",
      "link": "https://animefire.plus/animes/dramatical-murder-todos-os-episodios",
      "texto_original": "DRAMAtical Murder",
      "rating": 6.18,
      "classificacao_etaria": "A14",
      "imagem_original": "https://animefire.plus/img/animes/dramatical-murder.webp",
      "imagem_pasta": "https://animefire.plus/img/animes/dramatical-murder/",
      "secao": "legendados",
      "pagina": 92,
      "total_episodios": 12,
      "link_video": "https://animefire.plus/video/dramatical-murder"
    },
    {
      "id": 890,
      "nome": "Dream Festival!",
      "link": "https://animefire.plus/animes/dream-festival-todos-os-episodios",
      "texto_original": "Dream Festival!",
      "rating": 6.9,
      "classificacao_etaria": "A14",
      "imagem_original": "https://animefire.plus/img/animes/dream-festival.webp",
      "imagem_pasta": "https://animefire.plus/img/animes/dream-festival/",
      "secao": "legendados",
      "pagina": 144,
      "total_episodios": 12,
      "link_video": "https://animefire.plus/video/dream-festival"
    },
    {
      "id": 891,
      "nome": "Dream Festival! R",
      "link": "https://animefire.plus/animes/dream-festival-r-todos-os-episodios",
      "texto_original": "Dream Festival! R",
      "rating": 6.93,
      "classificacao_etaria": "A14",
      "imagem_original": "https://animefire.plus/img/animes/dream-festival-r.webp",
      "imagem_pasta": "https://animefire.plus/img/animes/dream-festival-r/",
      "secao": "legendados",
      "pagina": 63,
      "total_episodios": 12,
      "link_video": "https://animefire.plus/video/dream-festival-r"
    },
    {
      "id": 892,
      "nome": "Drifters",
      "link": "https://animefire.plus/animes/drifters-todos-os-episodios",
      "texto_original": "Drifters",
      "rating": 8.02,
      "classificacao_etaria": "A16",
      "imagem_original": "https://animefire.plus/img/animes/drifters.webp",
      "imagem_pasta": "https://animefire.plus/img/animes/drifters/",
      "secao": "legendados",
      "pagina": 136,
      "total_episodios": 3,
      "link_video": "https://animefire.plus/video/drifters"
    },
    {
      "id": 893,
      "nome": "Drifters: Special Edition",
      "link": "https://animefire.plus/animes/drifters-special-edition-todos-os-episodios",
      "texto_original": "Drifters: Special Edition",
      "rating": 7.75,
      "classificacao_etaria": "A16",
      "imagem_original": "https://animefire.plus/img/animes/drifters-special-edition.webp",
      "imagem_pasta": "https://animefire.plus/img/animes/drifters-special-edition/",
      "secao": "legendados",
      "pagina": 87,
      "total_episodios": 2,
      "link_video": "https://animefire.plus/video/drifters-special-edition"
    },
    {
      "id": 894,
      "nome": "Druaga No Tou: The Aegis Of Uruk",
      "link": "https://animefire.plus/animes/druaga-no-tou-the-aegis-of-uruk-todos-os-episodios",
      "texto_original": "Druaga No Tou: The Aegis Of Uruk",
      "rating": 7.25,
      "classificacao_etaria": "A14",
      "imagem_original": "https://animefire.plus/img/animes/druaga-no-tou-the-aegis-of-uruk.webp",
      "imagem_pasta": "https://animefire.plus/img/animes/druaga-no-tou-the-aegis-of-uruk/",
      "secao": "legendados",
      "pagina": 99,
      "total_episodios": 12,
      "link_video": "https://animefire.plus/video/druaga-no-tou-the-aegis-of-uruk"
    },
    {
      "id": 895,
      "nome": "Druaga no Tou: The Sword of Uruk",
      "link": "https://animefire.plus/animes/druaga-no-tou-the-sword-of-uruk-todos-os-episodios",
      "texto_original": "Druaga no Tou: The Sword of Uruk",
      "rating": 7.27,
      "classificacao_etaria": "A14",
      "imagem_original": "https://animefire.plus/img/animes/druaga-no-tou-the-sword-of-uruk.webp",
      "imagem_pasta": "https://animefire.plus/img/animes/druaga-no-tou-the-sword-of-uruk/",
      "secao": "legendados",
      "pagina": 71,
      "total_episodios": 12,
      "link_video": "https://animefire.plus/video/druaga-no-tou-the-sword-of-uruk"
    },
    {
      "id": 896,
      "nome": "Duan Nao",
      "link": "https://animefire.plus/animes/duan-nao-todos-os-episodios",
      "texto_original": "Duan Nao",
      "rating": 6.56,
      "classificacao_etaria": "A16",
      "imagem_original": "https://animefire.plus/img/animes/duan-nao.webp",
      "imagem_pasta": "https://animefire.plus/img/animes/duan-nao/",
      "secao": "legendados",
      "pagina": 163,
      "total_episodios": 14,
      "link_video": "https://animefire.plus/video/duan-nao"
    },
    {
      "id": 897,
      "nome": "Dumbbell Nan Kilo Moteru?",
      "link": "https://animefire.plus/animes/dumbbell-nan-kilo-moteru-todos-os-episodios",
      "texto_original": "Dumbbell Nan Kilo Moteru?",
      "rating": 7.36,
      "classificacao_etaria": "A14",
      "imagem_original": "https://animefire.plus/img/animes/dumbbell-nan-kilo-moteru.webp",
      "imagem_pasta": "https://animefire.plus/img/animes/dumbbell-nan-kilo-moteru/",
      "secao": "legendados",
      "pagina": 164,
      "total_episodios": 4,
      "link_video": "https://animefire.plus/video/dumbbell-nan-kilo-moteru"
    },
    {
      "id": 898,
      "nome": "Dungeon Meshi (Dublado)",
      "link": "https://animefire.plus/animes/dungeon-meshi-dublado-todos-os-episodios",
      "texto_original": "Dungeon Meshi (Dublado)",
      "rating": 8.6,
      "classificacao_etaria": "A14",
      "imagem_original": "https://animefire.plus/img/animes/dungeon-meshi.webp",
      "imagem_pasta": "https://animefire.plus/img/animes/dungeon-meshi/",
      "secao": "dublados,legendados,lancamentos",
      "pagina": 3,
      "total_episodios": 24,
      "link_video": "https://animefire.plus/video/dungeon-meshi-dublado"
    },
    {
      "id": 899,
      "nome": "Dungeon ni Deai wo Motomeru no wa Machigatteiru Darou ka (Dublado)",
      "link": "https://animefire.plus/animes/dungeon-ni-deai-wo-motomeru-no-wa-machigatteiru-darou-ka-dublado-todos-os-episodios",
      "texto_original": "Dungeon ni Deai wo Motomeru no wa Machigatteiru Darou ka (Dublado)",
      "rating": 7.75,
      "classificacao_etaria": "A14",
      "imagem_original": "https://animefire.plus/img/animes/dungeon-ni-deai-wo-motomeru-no-wa-machigatteiru-darou-ka.webp",
      "imagem_pasta": "https://animefire.plus/img/animes/dungeon-ni-deai-wo-motomeru-no-wa-machigatteiru-darou-ka/",
      "secao": "dublados,legendados",
      "pagina": 25,
      "total_episodios": 13,
      "link_video": "https://animefire.plus/video/dungeon-ni-deai-wo-motomeru-no-wa-machigatteiru-darou-ka-dublado"
    },
    {
      "id": 900,
      "nome": "Dungeon ni Deai wo Motomeru no wa Machigatteiru Darou ka Gaiden: Sword Oratoria",
      "link": "https://animefire.plus/animes/dungeon-ni-deai-wo-motomeru-no-wa-machigatteiru-darou-ka-gaiden-sword-oratoria-todos-os-episodios",
      "texto_original": "Dungeon ni Deai wo Motomeru no wa Machigatteiru Darou ka Gaiden: Sword Oratoria",
      "rating": 7.13,
      "classificacao_etaria": "A14",
      "imagem_original": "https://animefire.plus/img/animes/dungeon-ni-deai-wo-motomeru-no-wa-machigatteiru-darou-ka-gaiden-sword-oratoria.webp",
      "imagem_pasta": "https://animefire.plus/img/animes/dungeon-ni-deai-wo-motomeru-no-wa-machigatteiru-darou-ka-gaiden-sword-oratoria/",
      "secao": "legendados",
      "pagina": 115,
      "total_episodios": 12,
      "link_video": "https://animefire.plus/video/dungeon-ni-deai-wo-motomeru-no-wa-machigatteiru-darou-ka-gaiden-sword-oratoria"
    }
  ],
  "pagination": {
    "current_page": 45,
    "per_page": 20,
    "total_items": 4368,
    "total_pages": 219,
    "has_next": true,
    "has_prev": true
  }
}
