{
  "message": "Lista de animes",
  "data": [
    {
      "id": 421,
      "nome": "Blassreiter",
      "link": "https://animefire.plus/animes/blassreiter-todos-os-episodios",
      "texto_original": "Blassreiter",
      "rating": 7,
      "classificacao_etaria": "A16",
      "imagem_original": "https://animefire.plus/img/animes/blassreiter.webp",
      "imagem_pasta": "https://animefire.plus/img/animes/blassreiter/",
      "secao": "legendados",
      "pagina": 114,
      "total_episodios": 24,
      "link_video": "https://animefire.plus/video/blassreiter"
    },
    {
      "id": 422,
      "nome": "BlazBlue: Alter Memory",
      "link": "https://animefire.plus/animes/blazblue-alter-memory-todos-os-episodios",
      "texto_original": "BlazBlue: Alter Memory",
      "rating": 6.21,
      "classificacao_etaria": "A16",
      "imagem_original": "https://animefire.plus/img/animes/blazblue-alter-memory.webp",
      "imagem_pasta": "https://animefire.plus/img/animes/blazblue-alter-memory/",
      "secao": "legendados",
      "pagina": 122,
      "total_episodios": 4,
      "link_video": "https://animefire.plus/video/blazblue-alter-memory"
    },
    {
      "id": 423,
      "nome": "Bleach (Dublado)",
      "link": "https://animefire.plus/animes/bleach-dublado-todos-os-episodios",
      "texto_original": "Bleach (Dublado)",
      "rating": 7.81,
      "classificacao_etaria": "A14",
      "imagem_original": "https://animefire.plus/img/animes/bleach.webp",
      "imagem_pasta": "https://animefire.plus/img/animes/bleach/",
      "secao": "dublados,legendados",
      "pagina": 21,
      "total_episodios": 366,
      "link_video": "https://animefire.plus/video/bleach-dublado"
    },
    {
      "id": 424,
      "nome": "Bleach Colorful!: Gotei Juusan Yatai Daisakusen!",
      "link": "https://animefire.plus/animes/bleach-colorful-gotei-juusan-yatai-daisakusen-todos-os-episodios",
      "texto_original": "Bleach Colorful!: Gotei Juusan Yatai Daisakusen!",
      "rating": 6.5,
      "classificacao_etaria": "A14",
      "imagem_original": "https://animefire.plus/img/animes/bleach-colorful-gotei-juusan-yatai-daisakusen.webp",
      "imagem_pasta": "https://animefire.plus/img/animes/bleach-colorful-gotei-juusan-yatai-daisakusen/",
      "secao": "legendados",
      "pagina": 86,
      "total_episodios": 1,
      "link_video": "https://animefire.plus/video/bleach-colorful-gotei-juusan-yatai-daisakusen"
    },
    {
      "id": 425,
      "nome": "Bleach: Sennen Kessen-hen - Ketsubetsu-tan",
      "link": "https://animefire.plus/animes/bleach-sennen-kessen-hen-ketsubetsu-tan-todos-os-episodios",
      "texto_original": "Bleach: Sennen Kessen-hen - Ketsubetsu-tan",
      "rating": 8.7,
      "classificacao_etaria": "A16",
      "imagem_original": "https://animefire.plus/img/animes/bleach-sennen-kessen-hen-ketsubetsu-tan.jpg",
      "imagem_pasta": "https://animefire.plus/img/animes/bleach-sennen-kessen-hen-ketsubetsu-tan/",
      "secao": "legendados",
      "pagina": 23,
      "total_episodios": 7,
      "link_video": "https://animefire.plus/video/bleach-sennen-kessen-hen-ketsubetsu-tan"
    },
    {
      "id": 426,
      "nome": "Bleach: Sennen Kessen-hen - Ketsubetsu-tan (Dublado)",
      "link": "https://animefire.plus/animes/bleach-sennen-kessen-hen---ketsubetsu-tan-dublado-todos-os-episodios",
      "texto_original": "Bleach: Sennen Kessen-hen - Ketsubetsu-tan (Dublado)",
      "rating": 8.7,
      "classificacao_etaria": "A16",
      "imagem_original": "https://animefire.plus/img/animes/bleach-sennen-kessen-hen---ketsubetsu-tan.webp",
      "imagem_pasta": "https://animefire.plus/img/animes/bleach-sennen-kessen-hen---ketsubetsu-tan/",
      "secao": "dublados",
      "pagina": 6,
      "total_episodios": 13,
      "link_video": "https://animefire.plus/video/bleach-sennen-kessen-hen---ketsubetsu-tan-dublado"
    },
    {
      "id": 427,
      "nome": "Bleach: Sennen Kessen-hen - Soukoku-tan (Dublado)",
      "link": "https://animefire.plus/animes/bleach-sennen-kessen-hen---soukoku-tan-dublado-todos-os-episodios",
      "texto_original": "Bleach: Sennen Kessen-hen - Soukoku-tan (Dublado)",
      "rating": 8.67,
      "classificacao_etaria": "A16",
      "imagem_original": "https://animefire.plus/img/animes/bleach-sennen-kessen-hen---soukoku-tan.webp",
      "imagem_pasta": "https://animefire.plus/img/animes/bleach-sennen-kessen-hen---soukoku-tan/",
      "secao": "dublados,legendados",
      "pagina": 2,
      "total_episodios": 14,
      "link_video": "https://animefire.plus/video/bleach-sennen-kessen-hen---soukoku-tan-dublado"
    },
    {
      "id": 428,
      "nome": "Bleach: Sennen Kessen-hen (Dublado)",
      "link": "https://animefire.plus/animes/bleach-sennen-kessen-hen-dublado-todos-os-episodios",
      "texto_original": "Bleach: Sennen Kessen-hen (Dublado)",
      "rating": 8.99,
      "classificacao_etaria": "A16",
      "imagem_original": "https://animefire.plus/img/animes/bleach-sennen-kessen-hen.webp",
      "imagem_pasta": "https://animefire.plus/img/animes/bleach-sennen-kessen-hen/",
      "secao": "dublados,legendados",
      "pagina": 9,
      "total_episodios": 13,
      "link_video": "https://animefire.plus/video/bleach-sennen-kessen-hen-dublado"
    },
    {
      "id": 429,
      "nome": "Blend S",
      "link": "https://animefire.plus/animes/blend-s-todos-os-episodios",
      "texto_original": "Blend S",
      "rating": 7.52,
      "classificacao_etaria": "A14",
      "imagem_original": "https://animefire.plus/img/animes/blend-s.webp",
      "imagem_pasta": "https://animefire.plus/img/animes/blend-s/",
      "secao": "legendados",
      "pagina": 121,
      "total_episodios": 12,
      "link_video": "https://animefire.plus/video/blend-s"
    },
    {
      "id": 430,
      "nome": "Blood Lad",
      "link": "https://animefire.plus/animes/blood-lad-todos-os-episodios",
      "texto_original": "Blood Lad",
      "rating": 7.47,
      "classificacao_etaria": "A14",
      "imagem_original": "https://animefire.plus/img/animes/blood-lad.webp",
      "imagem_pasta": "https://animefire.plus/img/animes/blood-lad/",
      "secao": "legendados",
      "pagina": 124,
      "total_episodios": 0,
      "link_video": "https://animefire.plus/video/blood-lad"
    },
    {
      "id": 431,
      "nome": "Blood-C",
      "link": "https://animefire.plus/animes/blood-c-todos-os-episodios",
      "texto_original": "Blood-C",
      "rating": 6.67,
      "classificacao_etaria": "A16",
      "imagem_original": "https://animefire.plus/img/animes/blood-c.webp",
      "imagem_pasta": "https://animefire.plus/img/animes/blood-c/",
      "secao": "legendados",
      "pagina": 158,
      "total_episodios": 12,
      "link_video": "https://animefire.plus/video/blood-c"
    },
    {
      "id": 432,
      "nome": "Blood+ (Dublado)",
      "link": "https://animefire.plus/animes/blood-dublado-todos-os-episodios",
      "texto_original": "Blood+ (Dublado)",
      "rating": 7.69,
      "classificacao_etaria": "A16",
      "imagem_original": "https://animefire.plus/img/animes/blood.webp",
      "imagem_pasta": "https://animefire.plus/img/animes/blood/",
      "secao": "dublados,legendados",
      "pagina": 22,
      "total_episodios": 50,
      "link_video": "https://animefire.plus/video/blood-dublado"
    },
    {
      "id": 433,
      "nome": "Bloodivores",
      "link": "https://animefire.plus/animes/bloodivores-todos-os-episodios",
      "texto_original": "Bloodivores",
      "rating": 5.64,
      "classificacao_etaria": "A16",
      "imagem_original": "https://animefire.plus/img/animes/bloodivores.webp",
      "imagem_pasta": "https://animefire.plus/img/animes/bloodivores/",
      "secao": "legendados",
      "pagina": 130,
      "total_episodios": 12,
      "link_video": "https://animefire.plus/video/bloodivores"
    },
    {
      "id": 434,
      "nome": "Blue Archive the Animation",
      "link": "https://animefire.plus/animes/blue-archive-the-animation-todos-os-episodios",
      "texto_original": "Blue Archive the Animation",
      "rating": 7.36,
      "classificacao_etaria": "A14",
      "imagem_original": "https://animefire.plus/img/animes/blue-archive-the-animation.webp",
      "imagem_pasta": "https://animefire.plus/img/animes/blue-archive-the-animation/",
      "secao": "legendados",
      "pagina": 15,
      "total_episodios": 12,
      "link_video": "https://animefire.plus/video/blue-archive-the-animation"
    },
    {
      "id": 435,
      "nome": "Blue Dragon (Dublado)",
      "link": "https://animefire.plus/animes/blue-dragon-dublado-todos-os-episodios",
      "texto_original": "Blue Dragon (Dublado)",
      "rating": 6.43,
      "classificacao_etaria": "A10",
      "imagem_original": "https://animefire.plus/img/animes/blue-dragon.webp",
      "imagem_pasta": "https://animefire.plus/img/animes/blue-dragon/",
      "secao": "dublados",
      "pagina": 21,
      "total_episodios": 0,
      "link_video": "https://animefire.plus/video/blue-dragon-dublado"
    },
    {
      "id": 436,
      "nome": "Blue Dragon: Tenkai no Shichi Ryuu",
      "link": "https://animefire.plus/animes/blue-dragon-tenkai-no-shichi-ryuu-todos-os-episodios",
      "texto_original": "Blue Dragon: Tenkai no Shichi Ryuu",
      "rating": 6.67,
      "classificacao_etaria": "A10",
      "imagem_original": "https://animefire.plus/img/animes/blue-dragon-tenkai-no-shichi-ryuu.webp",
      "imagem_pasta": "https://animefire.plus/img/animes/blue-dragon-tenkai-no-shichi-ryuu/",
      "secao": "legendados",
      "pagina": 115,
      "total_episodios": 26,
      "link_video": "https://animefire.plus/video/blue-dragon-tenkai-no-shichi-ryuu"
    },
    {
      "id": 437,
      "nome": "Blue Drop: Tenshi-tachi no Gikyoku",
      "link": "https://animefire.plus/animes/blue-drop-tenshi-tachi-no-gikyoku-todos-os-episodios",
      "texto_original": "Blue Drop: Tenshi-tachi no Gikyoku",
      "rating": 6.75,
      "classificacao_etaria": "A14",
      "imagem_original": "https://animefire.plus/img/animes/blue-drop-tenshi-tachi-no-gikyoku.webp",
      "imagem_pasta": "https://animefire.plus/img/animes/blue-drop-tenshi-tachi-no-gikyoku/",
      "secao": "legendados",
      "pagina": 75,
      "total_episodios": 13,
      "link_video": "https://animefire.plus/video/blue-drop-tenshi-tachi-no-gikyoku"
    },
    {
      "id": 438,
      "nome": "Blue Gender",
      "link": "https://animefire.plus/animes/blue-gender-todos-os-episodios",
      "texto_original": "Blue Gender",
      "rating": 7.1,
      "classificacao_etaria": "A18",
      "imagem_original": "https://animefire.plus/img/animes/blue-gender.webp",
      "imagem_pasta": "https://animefire.plus/img/animes/blue-gender/",
      "secao": "legendados",
      "pagina": 173,
      "total_episodios": 26,
      "link_video": "https://animefire.plus/video/blue-gender"
    },
    {
      "id": 439,
      "nome": "Blue Lock (Dublado)",
      "link": "https://animefire.plus/animes/blue-lock-dublado-todos-os-episodios",
      "texto_original": "Blue Lock (Dublado)",
      "rating": 8.17,
      "classificacao_etaria": "A14",
      "imagem_original": "https://animefire.plus/img/animes/blue-lock.webp",
      "imagem_pasta": "https://animefire.plus/img/animes/blue-lock/",
      "secao": "dublados,legendados,lancamentos",
      "pagina": 8,
      "total_episodios": 24,
      "link_video": "https://animefire.plus/video/blue-lock-dublado"
    },
    {
      "id": 440,
      "nome": "Blue Lock vs. U-20 Japan (Dublado)",
      "link": "https://animefire.plus/animes/blue-lock-vs-u-20-japan-dublado-todos-os-episodios",
      "texto_original": "Blue Lock vs. U-20 Japan (Dublado)",
      "rating": 7.55,
      "classificacao_etaria": "A14",
      "imagem_original": "https://animefire.plus/img/animes/blue-lock-vs-u-20-japan.webp",
      "imagem_pasta": "https://animefire.plus/img/animes/blue-lock-vs-u-20-japan/",
      "secao": "dublados,legendados,lancamentos",
      "pagina": 2,
      "total_episodios": 14,
      "link_video": "https://animefire.plus/video/blue-lock-vs-u-20-japan-dublado"
    }
  ],
  "pagination": {
    "current_page": 22,
    "per_page": 20,
    "total_items": 4368,
    "total_pages": 219,
    "has_next": true,
    "has_prev": true
  }
}
