{
  "message": "Lista de animes",
  "data": [
    {
      "id": 3641,
      "nome": "Stratos 4 Advance",
      "link": "https://animefire.plus/animes/stratos-4-advance-todos-os-episodios",
      "texto_original": "Stratos 4 Advance",
      "rating": 6.87,
      "classificacao_etaria": "A14",
      "imagem_original": "https://animefire.plus/img/animes/stratos-4-advance.webp",
      "imagem_pasta": "https://animefire.plus/img/animes/stratos-4-advance/",
      "secao": "legendados",
      "pagina": 79,
      "total_episodios": 8,
      "link_video": "https://animefire.plus/video/stratos-4-advance"
    },
    {
      "id": 3642,
      "nome": "Strawberry Panic",
      "link": "https://animefire.plus/animes/strawberry-panic-todos-os-episodios",
      "texto_original": "Strawberry Panic",
      "rating": 7.39,
      "classificacao_etaria": "A14",
      "imagem_original": "https://animefire.plus/img/animes/strawberry-panic.webp",
      "imagem_pasta": "https://animefire.plus/img/animes/strawberry-panic/",
      "secao": "legendados",
      "pagina": 123,
      "total_episodios": 26,
      "link_video": "https://animefire.plus/video/strawberry-panic"
    },
    {
      "id": 3643,
      "nome": "Street Fighter II V (Dublado)",
      "link": "https://animefire.plus/animes/street-fighter-ii-v-dublado-todos-os-episodios",
      "texto_original": "Street Fighter II V (Dublado)",
      "rating": 7.08,
      "classificacao_etaria": "A14",
      "imagem_original": "https://animefire.plus/img/animes/street-fighter-ii-v.webp",
      "imagem_pasta": "https://animefire.plus/img/animes/street-fighter-ii-v/",
      "secao": "dublados,legendados",
      "pagina": 22,
      "total_episodios": 29,
      "link_video": "https://animefire.plus/video/street-fighter-ii-v-dublado"
    },
    {
      "id": 3644,
      "nome": "Street Fighter IV: Aratanaru Kizuna",
      "link": "https://animefire.plus/animes/street-fighter-iv-aratanaru-kizuna-todos-os-episodios",
      "texto_original": "Street Fighter IV: Aratanaru Kizuna",
      "rating": 6.26,
      "classificacao_etaria": "A14",
      "imagem_original": "https://animefire.plus/img/animes/street-fighter-iv-aratanaru-kizuna.webp",
      "imagem_pasta": "https://animefire.plus/img/animes/street-fighter-iv-aratanaru-kizuna/",
      "secao": "legendados",
      "pagina": 58,
      "total_episodios": 1,
      "link_video": "https://animefire.plus/video/street-fighter-iv-aratanaru-kizuna"
    },
    {
      "id": 3645,
      "nome": "Strike the Blood",
      "link": "https://animefire.plus/animes/strike-the-blood-todos-os-episodios",
      "texto_original": "Strike the Blood",
      "rating": 7.3,
      "classificacao_etaria": "A18",
      "imagem_original": "https://animefire.plus/img/animes/strike-the-blood.webp",
      "imagem_pasta": "https://animefire.plus/img/animes/strike-the-blood/",
      "secao": "legendados",
      "pagina": 126,
      "total_episodios": 4,
      "link_video": "https://animefire.plus/video/strike-the-blood"
    },
    {
      "id": 3646,
      "nome": "Strike the Blood Final",
      "link": "https://animefire.plus/animes/strike-the-blood-final-todos-os-episodios",
      "texto_original": "Strike the Blood Final",
      "rating": 6.89,
      "classificacao_etaria": "A18",
      "imagem_original": "https://animefire.plus/img/animes/strike-the-blood-final.webp",
      "imagem_pasta": "https://animefire.plus/img/animes/strike-the-blood-final/",
      "secao": "legendados,lancamentos",
      "pagina": 35,
      "total_episodios": 0,
      "link_video": "https://animefire.plus/video/strike-the-blood-final"
    },
    {
      "id": 3647,
      "nome": "Strike The Blood II",
      "link": "https://animefire.plus/animes/strike-the-blood-ii-todos-os-episodios",
      "texto_original": "Strike The Blood II",
      "rating": 7.25,
      "classificacao_etaria": "A18",
      "imagem_original": "https://animefire.plus/img/animes/strike-the-blood-ii.webp",
      "imagem_pasta": "https://animefire.plus/img/animes/strike-the-blood-ii/",
      "secao": "legendados",
      "pagina": 106,
      "total_episodios": 8,
      "link_video": "https://animefire.plus/video/strike-the-blood-ii"
    },
    {
      "id": 3648,
      "nome": "Strike the Blood III",
      "link": "https://animefire.plus/animes/strike-the-blood-iii-todos-os-episodios",
      "texto_original": "Strike the Blood III",
      "rating": 7.45,
      "classificacao_etaria": "A18",
      "imagem_original": "https://animefire.plus/img/animes/strike-the-blood-iii.webp",
      "imagem_pasta": "https://animefire.plus/img/animes/strike-the-blood-iii/",
      "secao": "legendados",
      "pagina": 175,
      "total_episodios": 0,
      "link_video": "https://animefire.plus/video/strike-the-blood-iii"
    },
    {
      "id": 3649,
      "nome": "Strike the Blood IV",
      "link": "https://animefire.plus/animes/strike-the-blood-iv-todos-os-episodios",
      "texto_original": "Strike the Blood IV",
      "rating": 7.06,
      "classificacao_etaria": "A18",
      "imagem_original": "https://animefire.plus/img/animes/strike-the-blood-iv.webp",
      "imagem_pasta": "https://animefire.plus/img/animes/strike-the-blood-iv/",
      "secao": "legendados",
      "pagina": 80,
      "total_episodios": 12,
      "link_video": "https://animefire.plus/video/strike-the-blood-iv"
    },
    {
      "id": 3650,
      "nome": "Strike the Blood: Kieta Seisou-hen",
      "link": "https://animefire.plus/animes/strike-the-blood-kieta-seisou-hen-todos-os-episodios",
      "texto_original": "Strike the Blood: Kieta Seisou-hen",
      "rating": 6.89,
      "classificacao_etaria": "A18",
      "imagem_original": "https://animefire.plus/img/animes/strike-the-blood-kieta-seisou-hen.webp",
      "imagem_pasta": "https://animefire.plus/img/animes/strike-the-blood-kieta-seisou-hen/",
      "secao": "legendados",
      "pagina": 91,
      "total_episodios": 1,
      "link_video": "https://animefire.plus/video/strike-the-blood-kieta-seisou-hen"
    },
    {
      "id": 3651,
      "nome": "Strike the Blood: Valkyria no Oukoku-hen",
      "link": "https://animefire.plus/animes/strike-the-blood-valkyria-no-oukoku-hen-todos-os-episodios",
      "texto_original": "Strike the Blood: Valkyria no Oukoku-hen",
      "rating": 7.32,
      "classificacao_etaria": "A18",
      "imagem_original": "https://animefire.plus/img/animes/strike-the-blood-valkyria-no-oukoku-hen.webp",
      "imagem_pasta": "https://animefire.plus/img/animes/strike-the-blood-valkyria-no-oukoku-hen/",
      "secao": "legendados",
      "pagina": 56,
      "total_episodios": 2,
      "link_video": "https://animefire.plus/video/strike-the-blood-valkyria-no-oukoku-hen"
    },
    {
      "id": 3652,
      "nome": "Strike Witches",
      "link": "https://animefire.plus/animes/strike-witches-todos-os-episodios",
      "texto_original": "Strike Witches",
      "rating": 7.08,
      "classificacao_etaria": "A18",
      "imagem_original": "https://animefire.plus/img/animes/strike-witches.webp",
      "imagem_pasta": "https://animefire.plus/img/animes/strike-witches/",
      "secao": "legendados",
      "pagina": 134,
      "total_episodios": 12,
      "link_video": "https://animefire.plus/video/strike-witches"
    },
    {
      "id": 3653,
      "nome": "Strike Witches 2",
      "link": "https://animefire.plus/animes/strike-witches-2-todos-os-episodios",
      "texto_original": "Strike Witches 2",
      "rating": 7.38,
      "classificacao_etaria": "A18",
      "imagem_original": "https://animefire.plus/img/animes/strike-witches-2.webp",
      "imagem_pasta": "https://animefire.plus/img/animes/strike-witches-2/",
      "secao": "legendados",
      "pagina": 131,
      "total_episodios": 12,
      "link_video": "https://animefire.plus/video/strike-witches-2"
    },
    {
      "id": 3654,
      "nome": "Strike Witches OVA",
      "link": "https://animefire.plus/animes/strike-witches-ova-todos-os-episodios",
      "texto_original": "Strike Witches OVA",
      "rating": 6.28,
      "classificacao_etaria": "A14",
      "imagem_original": "https://animefire.plus/img/animes/strike-witches-ova.webp",
      "imagem_pasta": "https://animefire.plus/img/animes/strike-witches-ova/",
      "secao": "legendados",
      "pagina": 44,
      "total_episodios": 1,
      "link_video": "https://animefire.plus/video/strike-witches-ova"
    },
    {
      "id": 3655,
      "nome": "Strike Witches: 501 Butai Hasshin Shimasu!",
      "link": "https://animefire.plus/animes/strike-witches-501-butai-hasshin-shimasu-todos-os-episodios",
      "texto_original": "Strike Witches: 501 Butai Hasshin Shimasu!",
      "rating": 6.48,
      "classificacao_etaria": "A14",
      "imagem_original": "https://animefire.plus/img/animes/strike-witches-501-butai-hasshin-shimasu.webp",
      "imagem_pasta": "https://animefire.plus/img/animes/strike-witches-501-butai-hasshin-shimasu/",
      "secao": "legendados",
      "pagina": 159,
      "total_episodios": 12,
      "link_video": "https://animefire.plus/video/strike-witches-501-butai-hasshin-shimasu"
    },
    {
      "id": 3656,
      "nome": "Strike Witches: Operation Victory Arrow",
      "link": "https://animefire.plus/animes/strike-witches-operation-victory-arrow-todos-os-episodios",
      "texto_original": "Strike Witches: Operation Victory Arrow",
      "rating": 7.36,
      "classificacao_etaria": "A18",
      "imagem_original": "https://animefire.plus/img/animes/strike-witches-operation-victory-arrow.webp",
      "imagem_pasta": "https://animefire.plus/img/animes/strike-witches-operation-victory-arrow/",
      "secao": "legendados",
      "pagina": 44,
      "total_episodios": 3,
      "link_video": "https://animefire.plus/video/strike-witches-operation-victory-arrow"
    },
    {
      "id": 3657,
      "nome": "Strike Witches: Road to Berlin",
      "link": "https://animefire.plus/animes/strike-witches-road-to-berlin-todos-os-episodios",
      "texto_original": "Strike Witches: Road to Berlin",
      "rating": null,
      "classificacao_etaria": "A14",
      "imagem_original": "https://animefire.plus/img/animes/strike-witches-road-to-berlin.webp",
      "imagem_pasta": "https://animefire.plus/img/animes/strike-witches-road-to-berlin/",
      "secao": "legendados",
      "pagina": 51,
      "total_episodios": 12,
      "link_video": "https://animefire.plus/video/strike-witches-road-to-berlin"
    },
    {
      "id": 3658,
      "nome": "Subarashiki Kono Sekai The Animation (Dublado)",
      "link": "https://animefire.plus/animes/subarashiki-kono-sekai-the-animation-dublado-todos-os-episodios",
      "texto_original": "Subarashiki Kono Sekai The Animation (Dublado)",
      "rating": 6.15,
      "classificacao_etaria": "A14",
      "imagem_original": "https://animefire.plus/img/animes/subarashiki-kono-sekai-the-animation.webp",
      "imagem_pasta": "https://animefire.plus/img/animes/subarashiki-kono-sekai-the-animation/",
      "secao": "dublados,legendados",
      "pagina": 17,
      "total_episodios": 12,
      "link_video": "https://animefire.plus/video/subarashiki-kono-sekai-the-animation-dublado"
    },
    {
      "id": 3659,
      "nome": "Subete ga F ni Naru",
      "link": "https://animefire.plus/animes/subete-ga-f-ni-naru-todos-os-episodios",
      "texto_original": "Subete ga F ni Naru",
      "rating": 7.29,
      "classificacao_etaria": "A16",
      "imagem_original": "https://animefire.plus/img/animes/subete-ga-f-ni-naru.webp",
      "imagem_pasta": "https://animefire.plus/img/animes/subete-ga-f-ni-naru/",
      "secao": "legendados",
      "pagina": 68,
      "total_episodios": 11,
      "link_video": "https://animefire.plus/video/subete-ga-f-ni-naru"
    },
    {
      "id": 3660,
      "nome": "Submarine Super 99",
      "link": "https://animefire.plus/animes/submarine-super-99-todos-os-episodios",
      "texto_original": "Submarine Super 99",
      "rating": 6.35,
      "classificacao_etaria": "A14",
      "imagem_original": "https://animefire.plus/img/animes/submarine-super-99.webp",
      "imagem_pasta": "https://animefire.plus/img/animes/submarine-super-99/",
      "secao": "legendados",
      "pagina": 98,
      "total_episodios": 13,
      "link_video": "https://animefire.plus/video/submarine-super-99"
    }
  ],
  "pagination": {
    "current_page": 183,
    "per_page": 20,
    "total_items": 4368,
    "total_pages": 219,
    "has_next": true,
    "has_prev": true
  }
}
