{
  "message": "Lista de animes",
  "data": [
    {
      "id": 1761,
      "nome": "Junketsu no Maria",
      "link": "https://animefire.plus/animes/junketsu-no-maria-todos-os-episodios",
      "texto_original": "Junketsu no Maria",
      "rating": 7.21,
      "classificacao_etaria": "A16",
      "imagem_original": "https://animefire.plus/img/animes/junketsu-no-maria.webp",
      "imagem_pasta": "https://animefire.plus/img/animes/junketsu-no-maria/",
      "secao": "legendados",
      "pagina": 138,
      "total_episodios": 2,
      "link_video": "https://animefire.plus/video/junketsu-no-maria"
    },
    {
      "id": 1762,
      "nome": "Just Because!",
      "link": "https://animefire.plus/animes/just-because-todos-os-episodios",
      "texto_original": "Just Because!",
      "rating": 7.37,
      "classificacao_etaria": "A14",
      "imagem_original": "https://animefire.plus/img/animes/just-because.webp",
      "imagem_pasta": "https://animefire.plus/img/animes/just-because/",
      "secao": "legendados",
      "pagina": 148,
      "total_episodios": 12,
      "link_video": "https://animefire.plus/video/just-because"
    },
    {
      "id": 1763,
      "nome": "Juubee Ninpuuchou: Ryuuhougyoku-hen",
      "link": "https://animefire.plus/animes/juubee-ninpuuchou-ryuuhougyoku-hen-todos-os-episodios",
      "texto_original": "Juubee Ninpuuchou: Ryuuhougyoku-hen",
      "rating": 6.7,
      "classificacao_etaria": "A16",
      "imagem_original": "https://animefire.plus/img/animes/juubee-ninpuuchou-ryuuhougyoku-hen.webp",
      "imagem_pasta": "https://animefire.plus/img/animes/juubee-ninpuuchou-ryuuhougyoku-hen/",
      "secao": "legendados",
      "pagina": 57,
      "total_episodios": 13,
      "link_video": "https://animefire.plus/video/juubee-ninpuuchou-ryuuhougyoku-hen"
    },
    {
      "id": 1764,
      "nome": "Juubee-chan 2: Siberia Yagyuu no Gyakushuu",
      "link": "https://animefire.plus/animes/juubee-chan-2-siberia-yagyuu-no-gyakushuu-todos-os-episodios",
      "texto_original": "Juubee-chan 2: Siberia Yagyuu no Gyakushuu",
      "rating": 6.93,
      "classificacao_etaria": "A14",
      "imagem_original": "https://animefire.plus/img/animes/juubee-chan-2-siberia-yagyuu-no-gyakushuu.webp",
      "imagem_pasta": "https://animefire.plus/img/animes/juubee-chan-2-siberia-yagyuu-no-gyakushuu/",
      "secao": "legendados",
      "pagina": 168,
      "total_episodios": 13,
      "link_video": "https://animefire.plus/video/juubee-chan-2-siberia-yagyuu-no-gyakushuu"
    },
    {
      "id": 1765,
      "nome": "Juubee-chan: Lovely Gantai no Himitsu",
      "link": "https://animefire.plus/animes/juubee-chan-lovely-gantai-no-himitsu-todos-os-episodios",
      "texto_original": "Juubee-chan: Lovely Gantai no Himitsu",
      "rating": 6.71,
      "classificacao_etaria": "A14",
      "imagem_original": "https://animefire.plus/img/animes/juubee-chan-lovely-gantai-no-himitsu.webp",
      "imagem_pasta": "https://animefire.plus/img/animes/juubee-chan-lovely-gantai-no-himitsu/",
      "secao": "legendados",
      "pagina": 143,
      "total_episodios": 12,
      "link_video": "https://animefire.plus/video/juubee-chan-lovely-gantai-no-himitsu"
    },
    {
      "id": 1766,
      "nome": "Juuni Kokuki",
      "link": "https://animefire.plus/animes/juuni-kokuki-todos-os-episodios",
      "texto_original": "Juuni Kokuki",
      "rating": 8.08,
      "classificacao_etaria": "A14",
      "imagem_original": "https://animefire.plus/img/animes/juuni-kokuki.webp",
      "imagem_pasta": "https://animefire.plus/img/animes/juuni-kokuki/",
      "secao": "legendados",
      "pagina": 76,
      "total_episodios": 45,
      "link_video": "https://animefire.plus/video/juuni-kokuki"
    },
    {
      "id": 1767,
      "nome": "Juuni Taisen",
      "link": "https://animefire.plus/animes/juuni-taisen-todos-os-episodios",
      "texto_original": "Juuni Taisen",
      "rating": 6.64,
      "classificacao_etaria": "A16",
      "imagem_original": "https://animefire.plus/img/animes/juuni-taisen.webp",
      "imagem_pasta": "https://animefire.plus/img/animes/juuni-taisen/",
      "secao": "legendados",
      "pagina": 137,
      "total_episodios": 12,
      "link_video": "https://animefire.plus/video/juuni-taisen"
    },
    {
      "id": 1768,
      "nome": "Juuou Mujin No Fafnir",
      "link": "https://animefire.plus/animes/juuou-mujin-no-fafnir-todos-os-episodios",
      "texto_original": "Juuou Mujin No Fafnir",
      "rating": 6.39,
      "classificacao_etaria": "A14",
      "imagem_original": "https://animefire.plus/img/animes/juuou-mujin-no-fafnir.webp",
      "imagem_pasta": "https://animefire.plus/img/animes/juuou-mujin-no-fafnir/",
      "secao": "legendados",
      "pagina": 107,
      "total_episodios": 1,
      "link_video": "https://animefire.plus/video/juuou-mujin-no-fafnir"
    },
    {
      "id": 1769,
      "nome": "Juusenshi Gulkeeva",
      "link": "https://animefire.plus/animes/juusenshi-gulkeeva-todos-os-episodios",
      "texto_original": "Juusenshi Gulkeeva",
      "rating": 6.35,
      "classificacao_etaria": "A14",
      "imagem_original": "https://animefire.plus/img/animes/juusenshi-gulkeeva.webp",
      "imagem_pasta": "https://animefire.plus/img/animes/juusenshi-gulkeeva/",
      "secao": "legendados",
      "pagina": 68,
      "total_episodios": 26,
      "link_video": "https://animefire.plus/video/juusenshi-gulkeeva"
    },
    {
      "id": 1770,
      "nome": "Juushin Enbu: Hero Tales",
      "link": "https://animefire.plus/animes/juushin-enbu-hero-tales-todos-os-episodios",
      "texto_original": "Juushin Enbu: Hero Tales",
      "rating": 6.92,
      "classificacao_etaria": "A14",
      "imagem_original": "https://animefire.plus/img/animes/juushin-enbu-hero-tales.webp",
      "imagem_pasta": "https://animefire.plus/img/animes/juushin-enbu-hero-tales/",
      "secao": "legendados",
      "pagina": 148,
      "total_episodios": 26,
      "link_video": "https://animefire.plus/video/juushin-enbu-hero-tales"
    },
    {
      "id": 1771,
      "nome": "Juushinki Pandora (Dublado)",
      "link": "https://animefire.plus/animes/juushinki-pandora-dublado-todos-os-episodios",
      "texto_original": "Juushinki Pandora (Dublado)",
      "rating": 6.4,
      "classificacao_etaria": "A14",
      "imagem_original": "https://animefire.plus/img/animes/juushinki-pandora.webp",
      "imagem_pasta": "https://animefire.plus/img/animes/juushinki-pandora/",
      "secao": "dublados,legendados",
      "pagina": 24,
      "total_episodios": 26,
      "link_video": "https://animefire.plus/video/juushinki-pandora-dublado"
    },
    {
      "id": 1772,
      "nome": "Juusou Kikou Dancougar Nova",
      "link": "https://animefire.plus/animes/juusou-kikou-dancougar-nova-todos-os-episodios",
      "texto_original": "Juusou Kikou Dancougar Nova",
      "rating": 6,
      "classificacao_etaria": "A18",
      "imagem_original": "https://animefire.plus/img/animes/juusou-kikou-dancougar-nova.webp",
      "imagem_pasta": "https://animefire.plus/img/animes/juusou-kikou-dancougar-nova/",
      "secao": "legendados",
      "pagina": 78,
      "total_episodios": 12,
      "link_video": "https://animefire.plus/video/juusou-kikou-dancougar-nova"
    },
    {
      "id": 1773,
      "nome": "Jyu Oh Sei",
      "link": "https://animefire.plus/animes/jyu-oh-sei-todos-os-episodios",
      "texto_original": "Jyu Oh Sei",
      "rating": 7.32,
      "classificacao_etaria": "A16",
      "imagem_original": "https://animefire.plus/img/animes/jyu-oh-sei.webp",
      "imagem_pasta": "https://animefire.plus/img/animes/jyu-oh-sei/",
      "secao": "legendados",
      "pagina": 147,
      "total_episodios": 11,
      "link_video": "https://animefire.plus/video/jyu-oh-sei"
    },
    {
      "id": 1774,
      "nome": "K-On!",
      "link": "https://animefire.plus/animes/k-on-todos-os-episodios",
      "texto_original": "K-On!",
      "rating": 8.15,
      "classificacao_etaria": "A14",
      "imagem_original": "https://animefire.plus/img/animes/k-on.webp",
      "imagem_pasta": "https://animefire.plus/img/animes/k-on/",
      "secao": "legendados",
      "pagina": 143,
      "total_episodios": 14,
      "link_video": "https://animefire.plus/video/k-on"
    },
    {
      "id": 1775,
      "nome": "K-On!: Ura-On!",
      "link": "https://animefire.plus/animes/k-on-ura-on-todos-os-episodios",
      "texto_original": "K-On!: Ura-On!",
      "rating": 6.34,
      "classificacao_etaria": "A14",
      "imagem_original": "https://animefire.plus/img/animes/k-on-ura-on.webp",
      "imagem_pasta": "https://animefire.plus/img/animes/k-on-ura-on/",
      "secao": "legendados",
      "pagina": 66,
      "total_episodios": 2,
      "link_video": "https://animefire.plus/video/k-on-ura-on"
    },
    {
      "id": 1776,
      "nome": "K: Return Of Kings",
      "link": "https://animefire.plus/animes/k-return-of-kings-todos-os-episodios",
      "texto_original": "K: Return Of Kings",
      "rating": 7.74,
      "classificacao_etaria": "A14",
      "imagem_original": "https://animefire.plus/img/animes/k-return-of-kings.webp",
      "imagem_pasta": "https://animefire.plus/img/animes/k-return-of-kings/",
      "secao": "legendados",
      "pagina": 107,
      "total_episodios": 13,
      "link_video": "https://animefire.plus/video/k-return-of-kings"
    },
    {
      "id": 1777,
      "nome": "Kabukichou Sherlock",
      "link": "https://animefire.plus/animes/kabukichou-sherlock-todos-os-episodios",
      "texto_original": "Kabukichou Sherlock",
      "rating": 6.91,
      "classificacao_etaria": "A16",
      "imagem_original": "https://animefire.plus/img/animes/kabukichou-sherlock.webp",
      "imagem_pasta": "https://animefire.plus/img/animes/kabukichou-sherlock/",
      "secao": "legendados",
      "pagina": 110,
      "total_episodios": 0,
      "link_video": "https://animefire.plus/video/kabukichou-sherlock"
    },
    {
      "id": 1778,
      "nome": "Kabukichou Sherlock OVA",
      "link": "https://animefire.plus/animes/kabukichou-sherlock-ova-todos-os-episodios",
      "texto_original": "Kabukichou Sherlock OVA",
      "rating": 6.61,
      "classificacao_etaria": "A14",
      "imagem_original": "https://animefire.plus/img/animes/kabukichou-sherlock-ova.webp",
      "imagem_pasta": "https://animefire.plus/img/animes/kabukichou-sherlock-ova/",
      "secao": "legendados",
      "pagina": 50,
      "total_episodios": 1,
      "link_video": "https://animefire.plus/video/kabukichou-sherlock-ova"
    },
    {
      "id": 1779,
      "nome": "Kabushikigaisha Magi-Lumière",
      "link": "https://animefire.plus/animes/kabushikigaisha-magi-lumiere-todos-os-episodios",
      "texto_original": "Kabushikigaisha Magi-Lumière",
      "rating": 6.96,
      "classificacao_etaria": "A14",
      "imagem_original": "https://animefire.plus/img/animes/kabushikigaisha-magi-lumiere.webp",
      "imagem_pasta": "https://animefire.plus/img/animes/kabushikigaisha-magi-lumiere/",
      "secao": "legendados",
      "pagina": 10,
      "total_episodios": 12,
      "link_video": "https://animefire.plus/video/kabushikigaisha-magi-lumiere"
    },
    {
      "id": 1780,
      "nome": "Kachou Ouji",
      "link": "https://animefire.plus/animes/kachou-ouji-todos-os-episodios",
      "texto_original": "Kachou Ouji",
      "rating": 7.07,
      "classificacao_etaria": "A18",
      "imagem_original": "https://animefire.plus/img/animes/kachou-ouji.webp",
      "imagem_pasta": "https://animefire.plus/img/animes/kachou-ouji/",
      "secao": "legendados",
      "pagina": 168,
      "total_episodios": 0,
      "link_video": "https://animefire.plus/video/kachou-ouji"
    }
  ],
  "pagination": {
    "current_page": 89,
    "per_page": 20,
    "total_items": 4368,
    "total_pages": 219,
    "has_next": true,
    "has_prev": true
  }
}
