{
  "message": "Lista de animes",
  "data": [
    {
      "id": 821,
      "nome": "Digimon Frontier (Dublado)",
      "link": "https://animefire.plus/animes/digimon-frontier-dublado-todos-os-episodios",
      "texto_original": "Digimon Frontier (Dublado)",
      "rating": 7.18,
      "classificacao_etaria": "A10",
      "imagem_original": "https://animefire.plus/img/animes/digimon-frontier.webp",
      "imagem_pasta": "https://animefire.plus/img/animes/digimon-frontier/",
      "secao": "dublados,legendados",
      "pagina": 21,
      "total_episodios": 50,
      "link_video": "https://animefire.plus/video/digimon-frontier-dublado"
    },
    {
      "id": 822,
      "nome": "Digimon Ghost Game",
      "link": "https://animefire.plus/animes/digimon-ghost-game-todos-os-episodios",
      "texto_original": "Digimon Ghost Game",
      "rating": 6.73,
      "classificacao_etaria": "A14",
      "imagem_original": "https://animefire.plus/img/animes/digimon-ghost-game.webp",
      "imagem_pasta": "https://animefire.plus/img/animes/digimon-ghost-game/",
      "secao": "legendados",
      "pagina": 38,
      "total_episodios": 67,
      "link_video": "https://animefire.plus/video/digimon-ghost-game"
    },
    {
      "id": 823,
      "nome": "Digimon Savers (Dublado)",
      "link": "https://animefire.plus/animes/digimon-savers-dublado-todos-os-episodios",
      "texto_original": "Digimon Savers (Dublado)",
      "rating": 7.06,
      "classificacao_etaria": "A10",
      "imagem_original": "https://animefire.plus/img/animes/digimon-savers.webp",
      "imagem_pasta": "https://animefire.plus/img/animes/digimon-savers/",
      "secao": "dublados",
      "pagina": 27,
      "total_episodios": 13,
      "link_video": "https://animefire.plus/video/digimon-savers-dublado"
    },
    {
      "id": 824,
      "nome": "Digimon Tamers",
      "link": "https://animefire.plus/animes/digimon-tamers-todos-os-episodios",
      "texto_original": "Digimon Tamers",
      "rating": 7.66,
      "classificacao_etaria": "A10",
      "imagem_original": "https://animefire.plus/img/animes/digimon-tamers.webp",
      "imagem_pasta": "https://animefire.plus/img/animes/digimon-tamers/",
      "secao": "legendados",
      "pagina": 134,
      "total_episodios": 0,
      "link_video": "https://animefire.plus/video/digimon-tamers"
    },
    {
      "id": 825,
      "nome": "Digimon Universe: Appli Monsters",
      "link": "https://animefire.plus/animes/digimon-universe-appli-monsters-todos-os-episodios",
      "texto_original": "Digimon Universe: Appli Monsters",
      "rating": 6.7,
      "classificacao_etaria": "A10",
      "imagem_original": "https://animefire.plus/img/animes/digimon-universe-appli-monsters.webp",
      "imagem_pasta": "https://animefire.plus/img/animes/digimon-universe-appli-monsters/",
      "secao": "legendados",
      "pagina": 65,
      "total_episodios": 52,
      "link_video": "https://animefire.plus/video/digimon-universe-appli-monsters"
    },
    {
      "id": 826,
      "nome": "Digimon Xros Wars",
      "link": "https://animefire.plus/animes/digimon-xros-wars-todos-os-episodios",
      "texto_original": "Digimon Xros Wars",
      "rating": 6.76,
      "classificacao_etaria": "A10",
      "imagem_original": "https://animefire.plus/img/animes/digimon-xros-wars.webp",
      "imagem_pasta": "https://animefire.plus/img/animes/digimon-xros-wars/",
      "secao": "legendados",
      "pagina": 55,
      "total_episodios": 29,
      "link_video": "https://animefire.plus/video/digimon-xros-wars"
    },
    {
      "id": 827,
      "nome": "Digimon Xros Wars: Aku no Death General to Nanatsu no Oukoku",
      "link": "https://animefire.plus/animes/digimon-xros-wars-aku-no-death-general-to-nanatsu-no-oukoku-todos-os-episodios",
      "texto_original": "Digimon Xros Wars: Aku no Death General to Nanatsu no Oukoku",
      "rating": 7.32,
      "classificacao_etaria": "A10",
      "imagem_original": "https://animefire.plus/img/animes/digimon-xros-wars-aku-no-death-general-to-nanatsu-no-oukoku.webp",
      "imagem_pasta": "https://animefire.plus/img/animes/digimon-xros-wars-aku-no-death-general-to-nanatsu-no-oukoku/",
      "secao": "legendados",
      "pagina": 148,
      "total_episodios": 0,
      "link_video": "https://animefire.plus/video/digimon-xros-wars-aku-no-death-general-to-nanatsu-no-oukoku"
    },
    {
      "id": 828,
      "nome": "Digimon Xros Wars: Toki wo Kakeru Shounen Hunter-tachi",
      "link": "https://animefire.plus/animes/digimon-xros-wars-toki-wo-kakeru-shounen-hunter-tachi-todos-os-episodios",
      "texto_original": "Digimon Xros Wars: Toki wo Kakeru Shounen Hunter-tachi",
      "rating": 6.47,
      "classificacao_etaria": "A10",
      "imagem_original": "https://animefire.plus/img/animes/digimon-xros-wars-toki-wo-kakeru-shounen-hunter-tachi.webp",
      "imagem_pasta": "https://animefire.plus/img/animes/digimon-xros-wars-toki-wo-kakeru-shounen-hunter-tachi/",
      "secao": "legendados",
      "pagina": 55,
      "total_episodios": 25,
      "link_video": "https://animefire.plus/video/digimon-xros-wars-toki-wo-kakeru-shounen-hunter-tachi"
    },
    {
      "id": 829,
      "nome": "Dimension W",
      "link": "https://animefire.plus/animes/dimension-w-todos-os-episodios",
      "texto_original": "Dimension W",
      "rating": 7.29,
      "classificacao_etaria": "A16",
      "imagem_original": "https://animefire.plus/img/animes/dimension-w.webp",
      "imagem_pasta": "https://animefire.plus/img/animes/dimension-w/",
      "secao": "legendados",
      "pagina": 162,
      "total_episodios": 3,
      "link_video": "https://animefire.plus/video/dimension-w"
    },
    {
      "id": 830,
      "nome": "Dirty Pair",
      "link": "https://animefire.plus/animes/dirty-pair-todos-os-episodios",
      "texto_original": "Dirty Pair",
      "rating": 7.18,
      "classificacao_etaria": "A18",
      "imagem_original": "https://animefire.plus/img/animes/dirty-pair.webp",
      "imagem_pasta": "https://animefire.plus/img/animes/dirty-pair/",
      "secao": "legendados",
      "pagina": 77,
      "total_episodios": 26,
      "link_video": "https://animefire.plus/video/dirty-pair"
    },
    {
      "id": 831,
      "nome": "Dive!!",
      "link": "https://animefire.plus/animes/dive-todos-os-episodios",
      "texto_original": "Dive!!",
      "rating": 6.15,
      "classificacao_etaria": "A14",
      "imagem_original": "https://animefire.plus/img/animes/dive.webp",
      "imagem_pasta": "https://animefire.plus/img/animes/dive/",
      "secao": "legendados",
      "pagina": 138,
      "total_episodios": 12,
      "link_video": "https://animefire.plus/video/dive"
    },
    {
      "id": 832,
      "nome": "Divergence Eve",
      "link": "https://animefire.plus/animes/divergence-eve-todos-os-episodios",
      "texto_original": "Divergence Eve",
      "rating": 6,
      "classificacao_etaria": "A18",
      "imagem_original": "https://animefire.plus/img/animes/divergence-eve.webp",
      "imagem_pasta": "https://animefire.plus/img/animes/divergence-eve/",
      "secao": "legendados",
      "pagina": 103,
      "total_episodios": 0,
      "link_video": "https://animefire.plus/video/divergence-eve"
    },
    {
      "id": 833,
      "nome": "Divergence Eve 2: Misaki Chronicles",
      "link": "https://animefire.plus/animes/divergence-eve-2-misaki-chronicles-todos-os-episodios",
      "texto_original": "Divergence Eve 2: Misaki Chronicles",
      "rating": 6.35,
      "classificacao_etaria": "A14",
      "imagem_original": "https://animefire.plus/img/animes/divergence-eve-2-misaki-chronicles.webp",
      "imagem_pasta": "https://animefire.plus/img/animes/divergence-eve-2-misaki-chronicles/",
      "secao": "legendados",
      "pagina": 108,
      "total_episodios": 13,
      "link_video": "https://animefire.plus/video/divergence-eve-2-misaki-chronicles"
    },
    {
      "id": 834,
      "nome": "Divine Gate",
      "link": "https://animefire.plus/animes/divine-gate-todos-os-episodios",
      "texto_original": "Divine Gate",
      "rating": 5.75,
      "classificacao_etaria": "A14",
      "imagem_original": "https://animefire.plus/img/animes/divine-gate.webp",
      "imagem_pasta": "https://animefire.plus/img/animes/divine-gate/",
      "secao": "legendados",
      "pagina": 114,
      "total_episodios": 0,
      "link_video": "https://animefire.plus/video/divine-gate"
    },
    {
      "id": 835,
      "nome": "DNA² (Dublado)",
      "link": "https://animefire.plus/animes/dna-dublado-todos-os-episodios",
      "texto_original": "DNA² (Dublado)",
      "rating": 6.73,
      "classificacao_etaria": "A14",
      "imagem_original": "https://animefire.plus/img/animes/dna.webp",
      "imagem_pasta": "https://animefire.plus/img/animes/dna/",
      "secao": "dublados,legendados",
      "pagina": 25,
      "total_episodios": 12,
      "link_video": "https://animefire.plus/video/dna-dublado"
    },
    {
      "id": 836,
      "nome": "Do It Yourself!!",
      "link": "https://animefire.plus/animes/do-it-yourself-todos-os-episodios",
      "texto_original": "Do It Yourself!!",
      "rating": 7.45,
      "classificacao_etaria": "A14",
      "imagem_original": "https://animefire.plus/img/animes/do-it-yourself.webp",
      "imagem_pasta": "https://animefire.plus/img/animes/do-it-yourself/",
      "secao": "legendados",
      "pagina": 29,
      "total_episodios": 12,
      "link_video": "https://animefire.plus/video/do-it-yourself"
    },
    {
      "id": 837,
      "nome": "Dog Days",
      "link": "https://animefire.plus/animes/dog-days-todos-os-episodios",
      "texto_original": "Dog Days",
      "rating": 7.02,
      "classificacao_etaria": "A14",
      "imagem_original": "https://animefire.plus/img/animes/dog-days.webp",
      "imagem_pasta": "https://animefire.plus/img/animes/dog-days/",
      "secao": "legendados",
      "pagina": 57,
      "total_episodios": 13,
      "link_video": "https://animefire.plus/video/dog-days"
    },
    {
      "id": 838,
      "nome": "Dog Days'",
      "link": "https://animefire.plus/animes/dog-days-2-todos-os-episodios",
      "texto_original": "Dog Days'",
      "rating": 7.14,
      "classificacao_etaria": "A14",
      "imagem_original": "https://animefire.plus/img/animes/dog-days-2.webp",
      "imagem_pasta": "https://animefire.plus/img/animes/dog-days-2/",
      "secao": "legendados",
      "pagina": 57,
      "total_episodios": 13,
      "link_video": "https://animefire.plus/video/dog-days-2"
    },
    {
      "id": 839,
      "nome": "Dog Days''",
      "link": "https://animefire.plus/animes/dog-days-3-todos-os-episodios",
      "texto_original": "Dog Days''",
      "rating": 7.03,
      "classificacao_etaria": "A14",
      "imagem_original": "https://animefire.plus/img/animes/dog-days-3.webp",
      "imagem_pasta": "https://animefire.plus/img/animes/dog-days-3/",
      "secao": "legendados",
      "pagina": 57,
      "total_episodios": 0,
      "link_video": "https://animefire.plus/video/dog-days-3"
    },
    {
      "id": 840,
      "nome": "Dogeza de Tanondemita",
      "link": "https://animefire.plus/animes/dogeza-de-tanondemita-todos-os-episodios",
      "texto_original": "Dogeza de Tanondemita",
      "rating": null,
      "classificacao_etaria": "A18",
      "imagem_original": "https://animefire.plus/img/animes/dogeza-de-tanondemita.webp",
      "imagem_pasta": "https://animefire.plus/img/animes/dogeza-de-tanondemita/",
      "secao": "legendados",
      "pagina": 51,
      "total_episodios": 12,
      "link_video": "https://animefire.plus/video/dogeza-de-tanondemita"
    }
  ],
  "pagination": {
    "current_page": 42,
    "per_page": 20,
    "total_items": 4368,
    "total_pages": 219,
    "has_next": true,
    "has_prev": true
  }
}
