{
  "message": "Lista de animes",
  "data": [
    {
      "id": 1681,
      "nome": "Issho ni Sleeping: Sleeping with Hinako",
      "link": "https://animefire.plus/animes/issho-ni-sleeping-sleeping-with-hinako-todos-os-episodios",
      "texto_original": "Issho ni Sleeping: Sleeping with Hinako",
      "rating": 4.46,
      "classificacao_etaria": "A14",
      "imagem_original": "https://animefire.plus/img/animes/issho-ni-sleeping-sleeping-with-hinako.webp",
      "imagem_pasta": "https://animefire.plus/img/animes/issho-ni-sleeping-sleeping-with-hinako/",
      "secao": "legendados",
      "pagina": 90,
      "total_episodios": 1,
      "link_video": "https://animefire.plus/video/issho-ni-sleeping-sleeping-with-hinako"
    },
    {
      "id": 1682,
      "nome": "Isshun de Chiryou shiteita noni Yakutatazu to Tsuihou sareta Tensai Chiyushi, Yami Healer toshite Tanoshiku Ikiru",
      "link": "https://animefire.plus/animes/isshun-de-chiryou-shiteita-noni-yakutatazu-to-tsuihou-sareta-tensai-chiyushi-yami-healer-toshite-tanoshiku-ikiru-todos-os-episodios",
      "texto_original": "Isshun de Chiryou shiteita noni Yakutatazu to Tsuihou sareta Tensai Chiyushi, Yami Healer toshite Tanoshiku Ikiru",
      "rating": 6.86,
      "classificacao_etaria": "A14",
      "imagem_original": "https://animefire.plus/img/animes/isshun-de-chiryou-shiteita-noni-yakutatazu-to-tsuihou-sareta-tensai-chiyushi-yami-healer-toshite-tanoshiku-ikiru.webp",
      "imagem_pasta": "https://animefire.plus/img/animes/isshun-de-chiryou-shiteita-noni-yakutatazu-to-tsuihou-sareta-tensai-chiyushi-yami-healer-toshite-tanoshiku-ikiru/",
      "secao": "legendados",
      "pagina": 5,
      "total_episodios": 12,
      "link_video": "https://animefire.plus/video/isshun-de-chiryou-shiteita-noni-yakutatazu-to-tsuihou-sareta-tensai-chiyushi-yami-healer-toshite-tanoshiku-ikiru"
    },
    {
      "id": 1683,
      "nome": "Isshuukan Friends.",
      "link": "https://animefire.plus/animes/isshuukan-friends-todos-os-episodios",
      "texto_original": "Isshuukan Friends.",
      "rating": 7.63,
      "classificacao_etaria": "A14",
      "imagem_original": "https://animefire.plus/img/animes/isshuukan-friends.webp",
      "imagem_pasta": "https://animefire.plus/img/animes/isshuukan-friends/",
      "secao": "legendados",
      "pagina": 126,
      "total_episodios": 12,
      "link_video": "https://animefire.plus/video/isshuukan-friends"
    },
    {
      "id": 1684,
      "nome": "Isuca",
      "link": "https://animefire.plus/animes/isuca-todos-os-episodios",
      "texto_original": "Isuca",
      "rating": 6.13,
      "classificacao_etaria": "A18",
      "imagem_original": "https://animefire.plus/img/animes/isuca.webp",
      "imagem_pasta": "https://animefire.plus/img/animes/isuca/",
      "secao": "legendados",
      "pagina": 97,
      "total_episodios": 10,
      "link_video": "https://animefire.plus/video/isuca"
    },
    {
      "id": 1685,
      "nome": "Itai no wa Iya nano de Bougyoryoku ni Kyokufuri Shitai to Omoimasu.",
      "link": "https://animefire.plus/animes/itai-no-wa-iya-nano-de-bougyoryoku-ni-kyokufuri-shitai-to-omoimasu-todos-os-episodios",
      "texto_original": "Itai no wa Iya nano de Bougyoryoku ni Kyokufuri Shitai to Omoimasu.",
      "rating": 7.59,
      "classificacao_etaria": "A14",
      "imagem_original": "https://animefire.plus/img/animes/itai-no-wa-iya-nano-de-bougyoryoku-ni-kyokufuri-shitai-to-omoimasu.webp",
      "imagem_pasta": "https://animefire.plus/img/animes/itai-no-wa-iya-nano-de-bougyoryoku-ni-kyokufuri-shitai-to-omoimasu/",
      "secao": "legendados",
      "pagina": 93,
      "total_episodios": 10,
      "link_video": "https://animefire.plus/video/itai-no-wa-iya-nano-de-bougyoryoku-ni-kyokufuri-shitai-to-omoimasu"
    },
    {
      "id": 1686,
      "nome": "Itai no wa Iya nano de Bougyoryoku ni Kyokufuri Shitai to Omoimasu. 2",
      "link": "https://animefire.plus/animes/itai-no-wa-iya-nano-de-bougyoryoku-ni-kyokufuri-shitai-to-omoimasu-2-todos-os-episodios",
      "texto_original": "Itai no wa Iya nano de Bougyoryoku ni Kyokufuri Shitai to Omoimasu. 2",
      "rating": 7.22,
      "classificacao_etaria": "A14",
      "imagem_original": "https://animefire.plus/img/animes/itai-no-wa-iya-nano-de-bougyoryoku-ni-kyokufuri-shitai-to-omoimasu-2.webp",
      "imagem_pasta": "https://animefire.plus/img/animes/itai-no-wa-iya-nano-de-bougyoryoku-ni-kyokufuri-shitai-to-omoimasu-2/",
      "secao": "legendados",
      "pagina": 28,
      "total_episodios": 12,
      "link_video": "https://animefire.plus/video/itai-no-wa-iya-nano-de-bougyoryoku-ni-kyokufuri-shitai-to-omoimasu-2"
    },
    {
      "id": 1687,
      "nome": "Itazura na Kiss",
      "link": "https://animefire.plus/animes/itazura-na-kiss-todos-os-episodios",
      "texto_original": "Itazura na Kiss",
      "rating": 7.61,
      "classificacao_etaria": "A14",
      "imagem_original": "https://animefire.plus/img/animes/itazura-na-kiss.webp",
      "imagem_pasta": "https://animefire.plus/img/animes/itazura-na-kiss/",
      "secao": "legendados",
      "pagina": 80,
      "total_episodios": 25,
      "link_video": "https://animefire.plus/video/itazura-na-kiss"
    },
    {
      "id": 1688,
      "nome": "Itazuraguma no Gloomy",
      "link": "https://animefire.plus/animes/itazuraguma-no-gloomy-todos-os-episodios",
      "texto_original": "Itazuraguma no Gloomy",
      "rating": 5.28,
      "classificacao_etaria": "A16",
      "imagem_original": "https://animefire.plus/img/animes/itazuraguma-no-gloomy.webp",
      "imagem_pasta": "https://animefire.plus/img/animes/itazuraguma-no-gloomy/",
      "secao": "legendados",
      "pagina": 45,
      "total_episodios": 12,
      "link_video": "https://animefire.plus/video/itazuraguma-no-gloomy"
    },
    {
      "id": 1689,
      "nome": "Itoshi no Muco",
      "link": "https://animefire.plus/animes/itoshi-no-muco-todos-os-episodios",
      "texto_original": "Itoshi no Muco",
      "rating": 6.83,
      "classificacao_etaria": "A10",
      "imagem_original": "https://animefire.plus/img/animes/itoshi-no-muco.webp",
      "imagem_pasta": "https://animefire.plus/img/animes/itoshi-no-muco/",
      "secao": "legendados",
      "pagina": 174,
      "total_episodios": 25,
      "link_video": "https://animefire.plus/video/itoshi-no-muco"
    },
    {
      "id": 1690,
      "nome": "Itou Junji: Collection",
      "link": "https://animefire.plus/animes/itou-junji-collection-todos-os-episodios",
      "texto_original": "Itou Junji: Collection",
      "rating": 6.2,
      "classificacao_etaria": "A16",
      "imagem_original": "https://animefire.plus/img/animes/itou-junji-collection.webp",
      "imagem_pasta": "https://animefire.plus/img/animes/itou-junji-collection/",
      "secao": "legendados",
      "pagina": 148,
      "total_episodios": 12,
      "link_video": "https://animefire.plus/video/itou-junji-collection"
    },
    {
      "id": 1691,
      "nome": "Itou Junji: Maniac (Dublado)",
      "link": "https://animefire.plus/animes/itou-junji-maniac-dublado-todos-os-episodios",
      "texto_original": "Itou Junji: Maniac (Dublado)",
      "rating": 6.66,
      "classificacao_etaria": "A16",
      "imagem_original": "https://animefire.plus/img/animes/itou-junji-maniac.webp",
      "imagem_pasta": "https://animefire.plus/img/animes/itou-junji-maniac/",
      "secao": "dublados,legendados",
      "pagina": 8,
      "total_episodios": 12,
      "link_video": "https://animefire.plus/video/itou-junji-maniac-dublado"
    },
    {
      "id": 1692,
      "nome": "Itsudatte Bokura no Koi wa 10 cm Datta.",
      "link": "https://animefire.plus/animes/itsudatte-bokura-no-koi-wa-10-cm-datta-todos-os-episodios",
      "texto_original": "Itsudatte Bokura no Koi wa 10 cm Datta.",
      "rating": 7.65,
      "classificacao_etaria": "A14",
      "imagem_original": "https://animefire.plus/img/animes/itsudatte-bokura-no-koi-wa-10-cm-datta.webp",
      "imagem_pasta": "https://animefire.plus/img/animes/itsudatte-bokura-no-koi-wa-10-cm-datta/",
      "secao": "legendados",
      "pagina": 106,
      "total_episodios": 6,
      "link_video": "https://animefire.plus/video/itsudatte-bokura-no-koi-wa-10-cm-datta"
    },
    {
      "id": 1693,
      "nome": "Itsudatte My Santa!",
      "link": "https://animefire.plus/animes/itsudatte-my-santa-todos-os-episodios",
      "texto_original": "Itsudatte My Santa!",
      "rating": 6.02,
      "classificacao_etaria": "A18",
      "imagem_original": "https://animefire.plus/img/animes/itsudatte-my-santa.webp",
      "imagem_pasta": "https://animefire.plus/img/animes/itsudatte-my-santa/",
      "secao": "legendados",
      "pagina": 69,
      "total_episodios": 2,
      "link_video": "https://animefire.plus/video/itsudatte-my-santa"
    },
    {
      "id": 1694,
      "nome": "Itsuka Aeru Kimi ni",
      "link": "https://animefire.plus/animes/itsuka-aeru-kimi-ni-todos-os-episodios",
      "texto_original": "Itsuka Aeru Kimi ni",
      "rating": 5.75,
      "classificacao_etaria": null,
      "imagem_original": "https://animefire.plus/img/animes/itsuka-aeru-kimi-ni.webp",
      "imagem_pasta": "https://animefire.plus/img/animes/itsuka-aeru-kimi-ni/",
      "secao": "legendados",
      "pagina": 86,
      "total_episodios": 1,
      "link_video": "https://animefire.plus/video/itsuka-aeru-kimi-ni"
    },
    {
      "id": 1695,
      "nome": "Itsuka Tenma No Kuro Usagi",
      "link": "https://animefire.plus/animes/itsuka-tenma-no-kuro-usagi-todos-os-episodios",
      "texto_original": "Itsuka Tenma No Kuro Usagi",
      "rating": 6.71,
      "classificacao_etaria": "A18",
      "imagem_original": "https://animefire.plus/img/animes/itsuka-tenma-no-kuro-usagi.webp",
      "imagem_pasta": "https://animefire.plus/img/animes/itsuka-tenma-no-kuro-usagi/",
      "secao": "legendados",
      "pagina": 106,
      "total_episodios": 12,
      "link_video": "https://animefire.plus/video/itsuka-tenma-no-kuro-usagi"
    },
    {
      "id": 1696,
      "nome": "Itsuka Tenma no Kuro Usagi Picture Drama",
      "link": "https://animefire.plus/animes/itsuka-tenma-no-kuro-usagi-picture-drama-todos-os-episodios",
      "texto_original": "Itsuka Tenma no Kuro Usagi Picture Drama",
      "rating": 6.19,
      "classificacao_etaria": "A18",
      "imagem_original": "https://animefire.plus/img/animes/itsuka-tenma-no-kuro-usagi-picture-drama.webp",
      "imagem_pasta": "https://animefire.plus/img/animes/itsuka-tenma-no-kuro-usagi-picture-drama/",
      "secao": "legendados",
      "pagina": 70,
      "total_episodios": 6,
      "link_video": "https://animefire.plus/video/itsuka-tenma-no-kuro-usagi-picture-drama"
    },
    {
      "id": 1697,
      "nome": "Iwa Kakeru!: Sport Climbing Girls",
      "link": "https://animefire.plus/animes/iwa-kakeru-sport-climbing-girls-todos-os-episodios",
      "texto_original": "Iwa Kakeru!: Sport Climbing Girls",
      "rating": null,
      "classificacao_etaria": "A14",
      "imagem_original": "https://animefire.plus/img/animes/iwa-kakeru-sport-climbing-girls.webp",
      "imagem_pasta": "https://animefire.plus/img/animes/iwa-kakeru-sport-climbing-girls/",
      "secao": "legendados",
      "pagina": 52,
      "total_episodios": 12,
      "link_video": "https://animefire.plus/video/iwa-kakeru-sport-climbing-girls"
    },
    {
      "id": 1698,
      "nome": "Ixion Saga DT",
      "link": "https://animefire.plus/animes/ixion-saga-dt-todos-os-episodios",
      "texto_original": "Ixion Saga DT",
      "rating": 7.25,
      "classificacao_etaria": "A14",
      "imagem_original": "https://animefire.plus/img/animes/ixion-saga-dt.webp",
      "imagem_pasta": "https://animefire.plus/img/animes/ixion-saga-dt/",
      "secao": "legendados",
      "pagina": 74,
      "total_episodios": 25,
      "link_video": "https://animefire.plus/video/ixion-saga-dt"
    },
    {
      "id": 1699,
      "nome": "Iya na Kao sare nagara Opantsu Misete Moraitai",
      "link": "https://animefire.plus/animes/iya-na-kao-sare-nagara-opantsu-misete-moraitai-todos-os-episodios",
      "texto_original": "Iya na Kao sare nagara Opantsu Misete Moraitai",
      "rating": 5.79,
      "classificacao_etaria": "A14",
      "imagem_original": "https://animefire.plus/img/animes/iya-na-kao-sare-nagara-opantsu-misete-moraitai.webp",
      "imagem_pasta": "https://animefire.plus/img/animes/iya-na-kao-sare-nagara-opantsu-misete-moraitai/",
      "secao": "legendados",
      "pagina": 167,
      "total_episodios": 6,
      "link_video": "https://animefire.plus/video/iya-na-kao-sare-nagara-opantsu-misete-moraitai"
    },
    {
      "id": 1700,
      "nome": "Iya na Kao sare nagara Opantsu Misete Moraitai 2",
      "link": "https://animefire.plus/animes/iya-na-kao-sare-nagara-opantsu-misete-moraitai-2-todos-os-episodios",
      "texto_original": "Iya na Kao sare nagara Opantsu Misete Moraitai 2",
      "rating": 6.01,
      "classificacao_etaria": "A14",
      "imagem_original": "https://animefire.plus/img/animes/iya-na-kao-sare-nagara-opantsu-misete-moraitai-2.webp",
      "imagem_pasta": "https://animefire.plus/img/animes/iya-na-kao-sare-nagara-opantsu-misete-moraitai-2/",
      "secao": "legendados",
      "pagina": 89,
      "total_episodios": 6,
      "link_video": "https://animefire.plus/video/iya-na-kao-sare-nagara-opantsu-misete-moraitai-2"
    }
  ],
  "pagination": {
    "current_page": 85,
    "per_page": 20,
    "total_items": 4368,
    "total_pages": 219,
    "has_next": true,
    "has_prev": true
  }
}
