{
  "message": "Lista de animes",
  "data": [
    {
      "id": 3841,
      "nome": "The Reflection",
      "link": "https://animefire.plus/animes/the-reflection-todos-os-episodios",
      "texto_original": "The Reflection",
      "rating": 5.16,
      "classificacao_etaria": "A14",
      "imagem_original": "https://animefire.plus/img/animes/the-reflection.webp",
      "imagem_pasta": "https://animefire.plus/img/animes/the-reflection/",
      "secao": "legendados",
      "pagina": 64,
      "total_episodios": 12,
      "link_video": "https://animefire.plus/video/the-reflection"
    },
    {
      "id": 3842,
      "nome": "The SoulTaker: Tamashii-gari",
      "link": "https://animefire.plus/animes/the-soultaker-tamashii-gari-todos-os-episodios",
      "texto_original": "The SoulTaker: Tamashii-gari",
      "rating": 6.44,
      "classificacao_etaria": "A14",
      "imagem_original": "https://animefire.plus/img/animes/the-soultaker-tamashii-gari.webp",
      "imagem_pasta": "https://animefire.plus/img/animes/the-soultaker-tamashii-gari/",
      "secao": "legendados",
      "pagina": 129,
      "total_episodios": 13,
      "link_video": "https://animefire.plus/video/the-soultaker-tamashii-gari"
    },
    {
      "id": 3843,
      "nome": "The Third: Aoi Hitomi No Shoujo",
      "link": "https://animefire.plus/animes/the-third-aoi-hitomi-no-shoujo-todos-os-episodios",
      "texto_original": "The Third: Aoi Hitomi No Shoujo",
      "rating": 7.37,
      "classificacao_etaria": "A16",
      "imagem_original": "https://animefire.plus/img/animes/the-third-aoi-hitomi-no-shoujo.webp",
      "imagem_pasta": "https://animefire.plus/img/animes/the-third-aoi-hitomi-no-shoujo/",
      "secao": "legendados",
      "pagina": 108,
      "total_episodios": 15,
      "link_video": "https://animefire.plus/video/the-third-aoi-hitomi-no-shoujo"
    },
    {
      "id": 3844,
      "nome": "Tian Guan Cifu Er",
      "link": "https://animefire.plus/animes/tian-guan-cifu-er-todos-os-episodios",
      "texto_original": "Tian Guan Cifu Er",
      "rating": 8.65,
      "classificacao_etaria": "A14",
      "imagem_original": "https://animefire.plus/img/animes/tian-guan-cifu-er.webp",
      "imagem_pasta": "https://animefire.plus/img/animes/tian-guan-cifu-er/",
      "secao": "legendados",
      "pagina": 17,
      "total_episodios": 0,
      "link_video": "https://animefire.plus/video/tian-guan-cifu-er"
    },
    {
      "id": 3845,
      "nome": "Tide-Line Blue",
      "link": "https://animefire.plus/animes/tide-line-blue-todos-os-episodios",
      "texto_original": "Tide-Line Blue",
      "rating": 6.71,
      "classificacao_etaria": "A14",
      "imagem_original": "https://animefire.plus/img/animes/tide-line-blue.webp",
      "imagem_pasta": "https://animefire.plus/img/animes/tide-line-blue/",
      "secao": "legendados",
      "pagina": 141,
      "total_episodios": 13,
      "link_video": "https://animefire.plus/video/tide-line-blue"
    },
    {
      "id": 3846,
      "nome": "Tiger & Bunny (Dublado)",
      "link": "https://animefire.plus/animes/tiger-bunny-dublado-todos-os-episodios",
      "texto_original": "Tiger & Bunny (Dublado)",
      "rating": 7.94,
      "classificacao_etaria": "A14",
      "imagem_original": "https://animefire.plus/img/animes/tiger-bunny.webp",
      "imagem_pasta": "https://animefire.plus/img/animes/tiger-bunny/",
      "secao": "dublados,legendados",
      "pagina": 18,
      "total_episodios": 25,
      "link_video": "https://animefire.plus/video/tiger-bunny-dublado"
    },
    {
      "id": 3847,
      "nome": "Tiger & Bunny 2 (Dublado)",
      "link": "https://animefire.plus/animes/tiger-bunny-2-dublado-todos-os-episodios",
      "texto_original": "Tiger & Bunny 2 (Dublado)",
      "rating": 7.42,
      "classificacao_etaria": "A14",
      "imagem_original": "https://animefire.plus/img/animes/tiger-bunny-2.webp",
      "imagem_pasta": "https://animefire.plus/img/animes/tiger-bunny-2/",
      "secao": "dublados,legendados,lancamentos",
      "pagina": 11,
      "total_episodios": 13,
      "link_video": "https://animefire.plus/video/tiger-bunny-2-dublado"
    },
    {
      "id": 3848,
      "nome": "Time Bokan 24",
      "link": "https://animefire.plus/animes/time-bokan-24-todos-os-episodios",
      "texto_original": "Time Bokan 24",
      "rating": 5.89,
      "classificacao_etaria": "A14",
      "imagem_original": "https://animefire.plus/img/animes/time-bokan-24.webp",
      "imagem_pasta": "https://animefire.plus/img/animes/time-bokan-24/",
      "secao": "legendados",
      "pagina": 64,
      "total_episodios": 24,
      "link_video": "https://animefire.plus/video/time-bokan-24"
    },
    {
      "id": 3849,
      "nome": "Time Bokan: Gyakushuu no San Akunin",
      "link": "https://animefire.plus/animes/time-bokan-gyakushuu-no-san-akunin-todos-os-episodios",
      "texto_original": "Time Bokan: Gyakushuu no San Akunin",
      "rating": 5.77,
      "classificacao_etaria": "A14",
      "imagem_original": "https://animefire.plus/img/animes/time-bokan-gyakushuu-no-san-akunin.webp",
      "imagem_pasta": "https://animefire.plus/img/animes/time-bokan-gyakushuu-no-san-akunin/",
      "secao": "legendados",
      "pagina": 97,
      "total_episodios": 24,
      "link_video": "https://animefire.plus/video/time-bokan-gyakushuu-no-san-akunin"
    },
    {
      "id": 3850,
      "nome": "Time Travel Shoujo: Mari Waka to 8-nin no Kagakusha-tachi",
      "link": "https://animefire.plus/animes/time-travel-shoujo-mari-waka-to-8-nin-no-kagakusha-tachi-todos-os-episodios",
      "texto_original": "Time Travel Shoujo: Mari Waka to 8-nin no Kagakusha-tachi",
      "rating": 6.57,
      "classificacao_etaria": "A10",
      "imagem_original": "https://animefire.plus/img/animes/time-travel-shoujo-mari-waka-to-8-nin-no-kagakusha-tachi.webp",
      "imagem_pasta": "https://animefire.plus/img/animes/time-travel-shoujo-mari-waka-to-8-nin-no-kagakusha-tachi/",
      "secao": "legendados",
      "pagina": 177,
      "total_episodios": 0,
      "link_video": "https://animefire.plus/video/time-travel-shoujo-mari-waka-to-8-nin-no-kagakusha-tachi"
    },
    {
      "id": 3851,
      "nome": "To Be Hero",
      "link": "https://animefire.plus/animes/to-be-hero-todos-os-episodios",
      "texto_original": "To Be Hero",
      "rating": 7.04,
      "classificacao_etaria": "A14",
      "imagem_original": "https://animefire.plus/img/animes/to-be-hero.webp",
      "imagem_pasta": "https://animefire.plus/img/animes/to-be-hero/",
      "secao": "legendados",
      "pagina": 99,
      "total_episodios": 12,
      "link_video": "https://animefire.plus/video/to-be-hero"
    },
    {
      "id": 3852,
      "nome": "To Heart",
      "link": "https://animefire.plus/animes/to-heart-todos-os-episodios",
      "texto_original": "To Heart",
      "rating": 6.65,
      "classificacao_etaria": "A14",
      "imagem_original": "https://animefire.plus/img/animes/to-heart.webp",
      "imagem_pasta": "https://animefire.plus/img/animes/to-heart/",
      "secao": "legendados",
      "pagina": 161,
      "total_episodios": 13,
      "link_video": "https://animefire.plus/video/to-heart"
    },
    {
      "id": 3853,
      "nome": "To Heart 2",
      "link": "https://animefire.plus/animes/to-heart-2-todos-os-episodios",
      "texto_original": "To Heart 2",
      "rating": 6.58,
      "classificacao_etaria": "A14",
      "imagem_original": "https://animefire.plus/img/animes/to-heart-2.webp",
      "imagem_pasta": "https://animefire.plus/img/animes/to-heart-2/",
      "secao": "legendados",
      "pagina": 147,
      "total_episodios": 12,
      "link_video": "https://animefire.plus/video/to-heart-2"
    },
    {
      "id": 3854,
      "nome": "To Heart: Remember My Memories",
      "link": "https://animefire.plus/animes/to-heart-remember-my-memories-todos-os-episodios",
      "texto_original": "To Heart: Remember My Memories",
      "rating": 6.51,
      "classificacao_etaria": "A14",
      "imagem_original": "https://animefire.plus/img/animes/to-heart-remember-my-memories.webp",
      "imagem_pasta": "https://animefire.plus/img/animes/to-heart-remember-my-memories/",
      "secao": "legendados",
      "pagina": 137,
      "total_episodios": 13,
      "link_video": "https://animefire.plus/video/to-heart-remember-my-memories"
    },
    {
      "id": 3855,
      "nome": "To LOVE-Ru",
      "link": "https://animefire.plus/animes/to-love-ru-todos-os-episodios",
      "texto_original": "To LOVE-Ru",
      "rating": 7.21,
      "classificacao_etaria": "A18",
      "imagem_original": "https://animefire.plus/img/animes/to-love-ru.webp",
      "imagem_pasta": "https://animefire.plus/img/animes/to-love-ru/",
      "secao": "legendados",
      "pagina": 138,
      "total_episodios": 0,
      "link_video": "https://animefire.plus/video/to-love-ru"
    },
    {
      "id": 3856,
      "nome": "To LOVE-Ru Darkness",
      "link": "https://animefire.plus/animes/to-love-ru-darkness-todos-os-episodios",
      "texto_original": "To LOVE-Ru Darkness",
      "rating": 7.65,
      "classificacao_etaria": "A18",
      "imagem_original": "https://animefire.plus/img/animes/to-love-ru-darkness.webp",
      "imagem_pasta": "https://animefire.plus/img/animes/to-love-ru-darkness/",
      "secao": "legendados",
      "pagina": 116,
      "total_episodios": 0,
      "link_video": "https://animefire.plus/video/to-love-ru-darkness"
    },
    {
      "id": 3857,
      "nome": "To LOVE-Ru Darkness 2nd",
      "link": "https://animefire.plus/animes/to-love-ru-darkness-2nd-todos-os-episodios",
      "texto_original": "To LOVE-Ru Darkness 2nd",
      "rating": 7.65,
      "classificacao_etaria": "A18",
      "imagem_original": "https://animefire.plus/img/animes/to-love-ru-darkness-2nd.webp",
      "imagem_pasta": "https://animefire.plus/img/animes/to-love-ru-darkness-2nd/",
      "secao": "legendados",
      "pagina": 146,
      "total_episodios": 0,
      "link_video": "https://animefire.plus/video/to-love-ru-darkness-2nd"
    },
    {
      "id": 3858,
      "nome": "Toaru Hikuushi E No Koiuta",
      "link": "https://animefire.plus/animes/toaru-hikuushi-e-no-koiuta-todos-os-episodios",
      "texto_original": "Toaru Hikuushi E No Koiuta",
      "rating": 7.24,
      "classificacao_etaria": "A14",
      "imagem_original": "https://animefire.plus/img/animes/toaru-hikuushi-e-no-koiuta.webp",
      "imagem_pasta": "https://animefire.plus/img/animes/toaru-hikuushi-e-no-koiuta/",
      "secao": "legendados",
      "pagina": 101,
      "total_episodios": 13,
      "link_video": "https://animefire.plus/video/toaru-hikuushi-e-no-koiuta"
    },
    {
      "id": 3859,
      "nome": "Toaru Kagaku no Accelerator",
      "link": "https://animefire.plus/animes/toaru-kagaku-no-accelerator-todos-os-episodios",
      "texto_original": "Toaru Kagaku no Accelerator",
      "rating": 7.18,
      "classificacao_etaria": "A16",
      "imagem_original": "https://animefire.plus/img/animes/toaru-kagaku-no-accelerator.webp",
      "imagem_pasta": "https://animefire.plus/img/animes/toaru-kagaku-no-accelerator/",
      "secao": "legendados",
      "pagina": 176,
      "total_episodios": 2,
      "link_video": "https://animefire.plus/video/toaru-kagaku-no-accelerator"
    },
    {
      "id": 3860,
      "nome": "Toaru Kagaku no Railgun",
      "link": "https://animefire.plus/animes/toaru-kagaku-no-railgun-todos-os-episodios",
      "texto_original": "Toaru Kagaku no Railgun",
      "rating": 7.8,
      "classificacao_etaria": "A14",
      "imagem_original": "https://animefire.plus/img/animes/toaru-kagaku-no-railgun.webp",
      "imagem_pasta": "https://animefire.plus/img/animes/toaru-kagaku-no-railgun/",
      "secao": "legendados",
      "pagina": 138,
      "total_episodios": 24,
      "link_video": "https://animefire.plus/video/toaru-kagaku-no-railgun"
    }
  ],
  "pagination": {
    "current_page": 193,
    "per_page": 20,
    "total_items": 4368,
    "total_pages": 219,
    "has_next": true,
    "has_prev": true
  }
}
