{
  "message": "Lista de animes",
  "data": [
    {
      "id": 4061,
      "nome": "Vampire Holmes",
      "link": "https://animefire.plus/animes/vampire-holmes-todos-os-episodios",
      "texto_original": "Vampire Holmes",
      "rating": 3.5,
      "classificacao_etaria": "A14",
      "imagem_original": "https://animefire.plus/img/animes/vampire-holmes.webp",
      "imagem_pasta": "https://animefire.plus/img/animes/vampire-holmes/",
      "secao": "legendados",
      "pagina": 148,
      "total_episodios": 0,
      "link_video": "https://animefire.plus/video/vampire-holmes"
    },
    {
      "id": 4062,
      "nome": "Vampire Hunter",
      "link": "https://animefire.plus/animes/vampire-hunter-todos-os-episodios",
      "texto_original": "Vampire Hunter",
      "rating": 6.74,
      "classificacao_etaria": "A16",
      "imagem_original": "https://animefire.plus/img/animes/vampire-hunter.webp",
      "imagem_pasta": "https://animefire.plus/img/animes/vampire-hunter/",
      "secao": "legendados",
      "pagina": 172,
      "total_episodios": 4,
      "link_video": "https://animefire.plus/video/vampire-hunter"
    },
    {
      "id": 4063,
      "nome": "Vampire in the Garden (Dublado)",
      "link": "https://animefire.plus/animes/vampire-in-the-garden-dublado-todos-os-episodios",
      "texto_original": "Vampire in the Garden (Dublado)",
      "rating": 7.14,
      "classificacao_etaria": "A14",
      "imagem_original": "https://animefire.plus/img/animes/vampire-in-the-garden.webp",
      "imagem_pasta": "https://animefire.plus/img/animes/vampire-in-the-garden/",
      "secao": "dublados,legendados",
      "pagina": 11,
      "total_episodios": 5,
      "link_video": "https://animefire.plus/video/vampire-in-the-garden-dublado"
    },
    {
      "id": 4064,
      "nome": "Vampire Knight",
      "link": "https://animefire.plus/animes/vampire-knight-todos-os-episodios",
      "texto_original": "Vampire Knight",
      "rating": 7.25,
      "classificacao_etaria": "A14",
      "imagem_original": "https://animefire.plus/img/animes/vampire-knight.webp",
      "imagem_pasta": "https://animefire.plus/img/animes/vampire-knight/",
      "secao": "legendados",
      "pagina": 169,
      "total_episodios": 13,
      "link_video": "https://animefire.plus/video/vampire-knight"
    },
    {
      "id": 4065,
      "nome": "Vampire Knight: Guilty",
      "link": "https://animefire.plus/animes/vampire-knight-guilty-todos-os-episodios",
      "texto_original": "Vampire Knight: Guilty",
      "rating": 7.41,
      "classificacao_etaria": "A14",
      "imagem_original": "https://animefire.plus/img/animes/vampire-knight-guilty.webp",
      "imagem_pasta": "https://animefire.plus/img/animes/vampire-knight-guilty/",
      "secao": "legendados",
      "pagina": 155,
      "total_episodios": 13,
      "link_video": "https://animefire.plus/video/vampire-knight-guilty"
    },
    {
      "id": 4066,
      "nome": "Vandread",
      "link": "https://animefire.plus/animes/vandread-todos-os-episodios",
      "texto_original": "Vandread",
      "rating": 7.27,
      "classificacao_etaria": "A14",
      "imagem_original": "https://animefire.plus/img/animes/vandread.webp",
      "imagem_pasta": "https://animefire.plus/img/animes/vandread/",
      "secao": "legendados",
      "pagina": 134,
      "total_episodios": 13,
      "link_video": "https://animefire.plus/video/vandread"
    },
    {
      "id": 4067,
      "nome": "Vandread: The Second Stage",
      "link": "https://animefire.plus/animes/vandread-the-second-stage-todos-os-episodios",
      "texto_original": "Vandread: The Second Stage",
      "rating": 7.48,
      "classificacao_etaria": "A14",
      "imagem_original": "https://animefire.plus/img/animes/vandread-the-second-stage.webp",
      "imagem_pasta": "https://animefire.plus/img/animes/vandread-the-second-stage/",
      "secao": "legendados",
      "pagina": 165,
      "total_episodios": 13,
      "link_video": "https://animefire.plus/video/vandread-the-second-stage"
    },
    {
      "id": 4068,
      "nome": "Vanitas no Carte (Dublado)",
      "link": "https://animefire.plus/animes/vanitas-no-carte-dublado-todos-os-episodios",
      "texto_original": "Vanitas no Carte (Dublado)",
      "rating": 7.9,
      "classificacao_etaria": "A16",
      "imagem_original": "https://animefire.plus/img/animes/vanitas-no-carte.webp",
      "imagem_pasta": "https://animefire.plus/img/animes/vanitas-no-carte/",
      "secao": "dublados,legendados",
      "pagina": 16,
      "total_episodios": 12,
      "link_video": "https://animefire.plus/video/vanitas-no-carte-dublado"
    },
    {
      "id": 4069,
      "nome": "Vanitas no Karte 2nd Season",
      "link": "https://animefire.plus/animes/vanitas-no-karte-2nd-season-todos-os-episodios",
      "texto_original": "Vanitas no Karte 2nd Season",
      "rating": 8.19,
      "classificacao_etaria": "A16",
      "imagem_original": "https://animefire.plus/img/animes/vanitas-no-karte-2nd-season.webp",
      "imagem_pasta": "https://animefire.plus/img/animes/vanitas-no-karte-2nd-season/",
      "secao": "legendados",
      "pagina": 36,
      "total_episodios": 12,
      "link_video": "https://animefire.plus/video/vanitas-no-karte-2nd-season"
    },
    {
      "id": 4070,
      "nome": "Vanitas no Karte Part 2 (Dublado)",
      "link": "https://animefire.plus/animes/vanitas-no-karte-part-2-dublado-todos-os-episodios",
      "texto_original": "Vanitas no Karte Part 2 (Dublado)",
      "rating": 8.19,
      "classificacao_etaria": "A16",
      "imagem_original": "https://animefire.plus/img/animes/vanitas-no-karte-part-2.webp",
      "imagem_pasta": "https://animefire.plus/img/animes/vanitas-no-karte-part-2/",
      "secao": "dublados",
      "pagina": 12,
      "total_episodios": 13,
      "link_video": "https://animefire.plus/video/vanitas-no-karte-part-2-dublado"
    },
    {
      "id": 4071,
      "nome": "Vanquished Queens",
      "link": "https://animefire.plus/animes/vanquished-queens-todos-os-episodios",
      "texto_original": "Vanquished Queens",
      "rating": 6.1,
      "classificacao_etaria": "A18",
      "imagem_original": "https://animefire.plus/img/animes/vanquished-queens.webp",
      "imagem_pasta": "https://animefire.plus/img/animes/vanquished-queens/",
      "secao": "legendados",
      "pagina": 76,
      "total_episodios": 4,
      "link_video": "https://animefire.plus/video/vanquished-queens"
    },
    {
      "id": 4072,
      "nome": "Variable Geo",
      "link": "https://animefire.plus/animes/variable-geo-todos-os-episodios",
      "texto_original": "Variable Geo",
      "rating": 5.69,
      "classificacao_etaria": "A18",
      "imagem_original": "https://animefire.plus/img/animes/variable-geo.webp",
      "imagem_pasta": "https://animefire.plus/img/animes/variable-geo/",
      "secao": "legendados",
      "pagina": 138,
      "total_episodios": 3,
      "link_video": "https://animefire.plus/video/variable-geo"
    },
    {
      "id": 4073,
      "nome": "Vatican Kiseki Chousakan",
      "link": "https://animefire.plus/animes/vatican-kiseki-chousakan-todos-os-episodios",
      "texto_original": "Vatican Kiseki Chousakan",
      "rating": 6.43,
      "classificacao_etaria": "A16",
      "imagem_original": "https://animefire.plus/img/animes/vatican-kiseki-chousakan.webp",
      "imagem_pasta": "https://animefire.plus/img/animes/vatican-kiseki-chousakan/",
      "secao": "legendados",
      "pagina": 167,
      "total_episodios": 12,
      "link_video": "https://animefire.plus/video/vatican-kiseki-chousakan"
    },
    {
      "id": 4074,
      "nome": "Vazzrock the Animation",
      "link": "https://animefire.plus/animes/vazzrock-the-animation-todos-os-episodios",
      "texto_original": "Vazzrock the Animation",
      "rating": 5.45,
      "classificacao_etaria": "A14",
      "imagem_original": "https://animefire.plus/img/animes/vazzrock-the-animation.webp",
      "imagem_pasta": "https://animefire.plus/img/animes/vazzrock-the-animation/",
      "secao": "legendados",
      "pagina": 28,
      "total_episodios": 13,
      "link_video": "https://animefire.plus/video/vazzrock-the-animation"
    },
    {
      "id": 4075,
      "nome": "Venus Project: Climax",
      "link": "https://animefire.plus/animes/venus-project-climax-todos-os-episodios",
      "texto_original": "Venus Project: Climax",
      "rating": 5.41,
      "classificacao_etaria": "A14",
      "imagem_original": "https://animefire.plus/img/animes/venus-project-climax.webp",
      "imagem_pasta": "https://animefire.plus/img/animes/venus-project-climax/",
      "secao": "legendados",
      "pagina": 98,
      "total_episodios": 6,
      "link_video": "https://animefire.plus/video/venus-project-climax"
    },
    {
      "id": 4076,
      "nome": "Venus Versus Virus",
      "link": "https://animefire.plus/animes/venus-versus-virus-todos-os-episodios",
      "texto_original": "Venus Versus Virus",
      "rating": 6.47,
      "classificacao_etaria": "A14",
      "imagem_original": "https://animefire.plus/img/animes/venus-versus-virus.webp",
      "imagem_pasta": "https://animefire.plus/img/animes/venus-versus-virus/",
      "secao": "legendados",
      "pagina": 164,
      "total_episodios": 12,
      "link_video": "https://animefire.plus/video/venus-versus-virus"
    },
    {
      "id": 4077,
      "nome": "Video Girl Ai",
      "link": "https://animefire.plus/animes/video-girl-ai-todos-os-episodios",
      "texto_original": "Video Girl Ai",
      "rating": 7.23,
      "classificacao_etaria": "A18",
      "imagem_original": "https://animefire.plus/img/animes/video-girl-ai.webp",
      "imagem_pasta": "https://animefire.plus/img/animes/video-girl-ai/",
      "secao": "legendados",
      "pagina": 77,
      "total_episodios": 6,
      "link_video": "https://animefire.plus/video/video-girl-ai"
    },
    {
      "id": 4078,
      "nome": "Viewtiful Joe (Dublado)",
      "link": "https://animefire.plus/animes/viewtiful-joe-dublado-todos-os-episodios",
      "texto_original": "Viewtiful Joe (Dublado)",
      "rating": 6.76,
      "classificacao_etaria": "A14",
      "imagem_original": "https://animefire.plus/img/animes/viewtiful-joe.webp",
      "imagem_pasta": "https://animefire.plus/img/animes/viewtiful-joe/",
      "secao": "dublados",
      "pagina": 20,
      "total_episodios": 51,
      "link_video": "https://animefire.plus/video/viewtiful-joe-dublado"
    },
    {
      "id": 4079,
      "nome": "Vigilante: Boku no Hero Academia Illegals (Dublado)",
      "link": "https://animefire.plus/animes/vigilante-boku-no-hero-academia-illegals-dublado-todos-os-episodios",
      "texto_original": "Vigilante: Boku no Hero Academia Illegals (Dublado)",
      "rating": 7.62,
      "classificacao_etaria": "A14",
      "imagem_original": "https://animefire.plus/img/animes/vigilante-boku-no-hero-academia-illegals.webp",
      "imagem_pasta": "https://animefire.plus/img/animes/vigilante-boku-no-hero-academia-illegals/",
      "secao": "dublados,legendados,lancamentos",
      "pagina": 1,
      "total_episodios": 13,
      "link_video": "https://animefire.plus/video/vigilante-boku-no-hero-academia-illegals-dublado"
    },
    {
      "id": 4080,
      "nome": "Vinland Saga (Dublado)",
      "link": "https://animefire.plus/animes/vinland-saga-dublado-todos-os-episodios",
      "texto_original": "Vinland Saga (Dublado)",
      "rating": 8.72,
      "classificacao_etaria": "A16",
      "imagem_original": "https://animefire.plus/img/animes/vinland-saga.webp",
      "imagem_pasta": "https://animefire.plus/img/animes/vinland-saga/",
      "secao": "dublados,legendados",
      "pagina": 16,
      "total_episodios": 24,
      "link_video": "https://animefire.plus/video/vinland-saga-dublado"
    }
  ],
  "pagination": {
    "current_page": 204,
    "per_page": 20,
    "total_items": 4368,
    "total_pages": 219,
    "has_next": true,
    "has_prev": true
  }
}
