{
  "message": "Lista de animes",
  "data": [
    {
      "id": 381,
      "nome": "Beyblade Burst Sparking",
      "link": "https://animefire.plus/animes/beyblade-burst-sparking-todos-os-episodios",
      "texto_original": "Beyblade Burst Sparking",
      "rating": 6.29,
      "classificacao_etaria": "A10",
      "imagem_original": "https://animefire.plus/img/animes/beyblade-burst-sparking.webp",
      "imagem_pasta": "https://animefire.plus/img/animes/beyblade-burst-sparking/",
      "secao": "legendados",
      "pagina": 50,
      "total_episodios": 1,
      "link_video": "https://animefire.plus/video/beyblade-burst-sparking"
    },
    {
      "id": 382,
      "nome": "Biao Ren: Blades of the Guardians",
      "link": "https://animefire.plus/animes/biao-ren-blades-of-the-guardians-todos-os-episodios",
      "texto_original": "Biao Ren: Blades of the Guardians",
      "rating": 7.56,
      "classificacao_etaria": "A16",
      "imagem_original": "https://animefire.plus/img/animes/biao-ren-blades-of-the-guardians.webp",
      "imagem_pasta": "https://animefire.plus/img/animes/biao-ren-blades-of-the-guardians/",
      "secao": "legendados",
      "pagina": 18,
      "total_episodios": 15,
      "link_video": "https://animefire.plus/video/biao-ren-blades-of-the-guardians"
    },
    {
      "id": 383,
      "nome": "Big Order",
      "link": "https://animefire.plus/animes/big-order-todos-os-episodios",
      "texto_original": "Big Order",
      "rating": 5.85,
      "classificacao_etaria": "A18",
      "imagem_original": "https://animefire.plus/img/animes/big-order.webp",
      "imagem_pasta": "https://animefire.plus/img/animes/big-order/",
      "secao": "legendados",
      "pagina": 62,
      "total_episodios": 10,
      "link_video": "https://animefire.plus/video/big-order"
    },
    {
      "id": 384,
      "nome": "Big Order (TV)",
      "link": "https://animefire.plus/animes/big-order-tv-todos-os-episodios",
      "texto_original": "Big Order (TV)",
      "rating": 5.45,
      "classificacao_etaria": "A18",
      "imagem_original": "https://animefire.plus/img/animes/big-order-tv.webp",
      "imagem_pasta": "https://animefire.plus/img/animes/big-order-tv/",
      "secao": "legendados",
      "pagina": 79,
      "total_episodios": 10,
      "link_video": "https://animefire.plus/video/big-order-tv"
    },
    {
      "id": 385,
      "nome": "Bihada Ichizoku",
      "link": "https://animefire.plus/animes/bihada-ichizoku-todos-os-episodios",
      "texto_original": "Bihada Ichizoku",
      "rating": 5.8,
      "classificacao_etaria": "A14",
      "imagem_original": "https://animefire.plus/img/animes/bihada-ichizoku.webp",
      "imagem_pasta": "https://animefire.plus/img/animes/bihada-ichizoku/",
      "secao": "legendados",
      "pagina": 139,
      "total_episodios": 12,
      "link_video": "https://animefire.plus/video/bihada-ichizoku"
    },
    {
      "id": 386,
      "nome": "Bikini Warriors",
      "link": "https://animefire.plus/animes/bikini-warriors-todos-os-episodios",
      "texto_original": "Bikini Warriors",
      "rating": 5.28,
      "classificacao_etaria": "A18",
      "imagem_original": "https://animefire.plus/img/animes/bikini-warriors.webp",
      "imagem_pasta": "https://animefire.plus/img/animes/bikini-warriors/",
      "secao": "legendados",
      "pagina": 103,
      "total_episodios": 0,
      "link_video": "https://animefire.plus/video/bikini-warriors"
    },
    {
      "id": 387,
      "nome": "Binan Koukou Chikyuu Bouei-bu Haikara!",
      "link": "https://animefire.plus/animes/binan-koukou-chikyuu-bouei-bu-haikara-todos-os-episodios",
      "texto_original": "Binan Koukou Chikyuu Bouei-bu Haikara!",
      "rating": null,
      "classificacao_etaria": "A14",
      "imagem_original": "https://animefire.plus/img/animes/binan-koukou-chikyuu-bouei-bu-haikara.webp",
      "imagem_pasta": "https://animefire.plus/img/animes/binan-koukou-chikyuu-bouei-bu-haikara/",
      "secao": "legendados,lancamentos",
      "pagina": 1,
      "total_episodios": 0,
      "link_video": "https://animefire.plus/video/binan-koukou-chikyuu-bouei-bu-haikara"
    },
    {
      "id": 388,
      "nome": "Binan Koukou Chikyuu Boueibu Happy Kiss!",
      "link": "https://animefire.plus/animes/binan-koukou-chikyuu-boueibu-happy-kiss-todos-os-episodios",
      "texto_original": "Binan Koukou Chikyuu Boueibu Happy Kiss!",
      "rating": 6.58,
      "classificacao_etaria": "A14",
      "imagem_original": "https://animefire.plus/img/animes/binan-koukou-chikyuu-boueibu-happy-kiss.webp",
      "imagem_pasta": "https://animefire.plus/img/animes/binan-koukou-chikyuu-boueibu-happy-kiss/",
      "secao": "legendados",
      "pagina": 160,
      "total_episodios": 11,
      "link_video": "https://animefire.plus/video/binan-koukou-chikyuu-boueibu-happy-kiss"
    },
    {
      "id": 389,
      "nome": "Binan Koukou Chikyuu Boueibu LOVE!",
      "link": "https://animefire.plus/animes/binan-koukou-chikyuu-boueibu-love-todos-os-episodios",
      "texto_original": "Binan Koukou Chikyuu Boueibu LOVE!",
      "rating": 7,
      "classificacao_etaria": "A14",
      "imagem_original": "https://animefire.plus/img/animes/binan-koukou-chikyuu-boueibu-love.webp",
      "imagem_pasta": "https://animefire.plus/img/animes/binan-koukou-chikyuu-boueibu-love/",
      "secao": "legendados",
      "pagina": 143,
      "total_episodios": 8,
      "link_video": "https://animefire.plus/video/binan-koukou-chikyuu-boueibu-love"
    },
    {
      "id": 390,
      "nome": "Binbou Shimai Monogatari",
      "link": "https://animefire.plus/animes/binbou-shimai-monogatari-todos-os-episodios",
      "texto_original": "Binbou Shimai Monogatari",
      "rating": 6.92,
      "classificacao_etaria": null,
      "imagem_original": "https://animefire.plus/img/animes/binbou-shimai-monogatari.webp",
      "imagem_pasta": "https://animefire.plus/img/animes/binbou-shimai-monogatari/",
      "secao": "legendados",
      "pagina": 117,
      "total_episodios": 10,
      "link_video": "https://animefire.plus/video/binbou-shimai-monogatari"
    },
    {
      "id": 391,
      "nome": "Binbougami ga!",
      "link": "https://animefire.plus/animes/binbougami-ga-todos-os-episodios",
      "texto_original": "Binbougami ga!",
      "rating": 7.8,
      "classificacao_etaria": "A14",
      "imagem_original": "https://animefire.plus/img/animes/binbougami-ga.webp",
      "imagem_pasta": "https://animefire.plus/img/animes/binbougami-ga/",
      "secao": "legendados",
      "pagina": 119,
      "total_episodios": 12,
      "link_video": "https://animefire.plus/video/binbougami-ga"
    },
    {
      "id": 392,
      "nome": "Binchou-tan",
      "link": "https://animefire.plus/animes/binchou-tan-todos-os-episodios",
      "texto_original": "Binchou-tan",
      "rating": 6.96,
      "classificacao_etaria": null,
      "imagem_original": "https://animefire.plus/img/animes/binchou-tan.webp",
      "imagem_pasta": "https://animefire.plus/img/animes/binchou-tan/",
      "secao": "legendados",
      "pagina": 155,
      "total_episodios": 6,
      "link_video": "https://animefire.plus/video/binchou-tan"
    },
    {
      "id": 393,
      "nome": "Binzume Yousei",
      "link": "https://animefire.plus/animes/binzume-yousei-todos-os-episodios",
      "texto_original": "Binzume Yousei",
      "rating": 6.5,
      "classificacao_etaria": null,
      "imagem_original": "https://animefire.plus/img/animes/binzume-yousei.webp",
      "imagem_pasta": "https://animefire.plus/img/animes/binzume-yousei/",
      "secao": "legendados",
      "pagina": 141,
      "total_episodios": 13,
      "link_video": "https://animefire.plus/video/binzume-yousei"
    },
    {
      "id": 394,
      "nome": "Bio Hunter",
      "link": "https://animefire.plus/animes/bio-hunter-todos-os-episodios",
      "texto_original": "Bio Hunter",
      "rating": 5.96,
      "classificacao_etaria": "A18",
      "imagem_original": "https://animefire.plus/img/animes/bio-hunter.webp",
      "imagem_pasta": "https://animefire.plus/img/animes/bio-hunter/",
      "secao": "legendados",
      "pagina": 66,
      "total_episodios": 1,
      "link_video": "https://animefire.plus/video/bio-hunter"
    },
    {
      "id": 395,
      "nome": "Birdie Wing: Golf Girls' Story",
      "link": "https://animefire.plus/animes/birdie-wing-golf-girls-story-todos-os-episodios",
      "texto_original": "Birdie Wing: Golf Girls' Story",
      "rating": 7.48,
      "classificacao_etaria": "A14",
      "imagem_original": "https://animefire.plus/img/animes/birdie-wing-golf-girls-story.webp",
      "imagem_pasta": "https://animefire.plus/img/animes/birdie-wing-golf-girls-story/",
      "secao": "legendados",
      "pagina": 33,
      "total_episodios": 13,
      "link_video": "https://animefire.plus/video/birdie-wing-golf-girls-story"
    },
    {
      "id": 396,
      "nome": "Bishoujo Senshi Sailor Moon (Dublado)",
      "link": "https://animefire.plus/animes/bishoujo-senshi-sailor-moon-dublado-todos-os-episodios",
      "texto_original": "Bishoujo Senshi Sailor Moon (Dublado)",
      "rating": 7.74,
      "classificacao_etaria": "A14",
      "imagem_original": "https://animefire.plus/img/animes/bishoujo-senshi-sailor-moon.webp",
      "imagem_pasta": "https://animefire.plus/img/animes/bishoujo-senshi-sailor-moon/",
      "secao": "dublados,legendados",
      "pagina": 28,
      "total_episodios": 0,
      "link_video": "https://animefire.plus/video/bishoujo-senshi-sailor-moon-dublado"
    },
    {
      "id": 397,
      "nome": "Bishoujo Senshi Sailor Moon Crystal",
      "link": "https://animefire.plus/animes/bishoujo-senshi-sailor-moon-crystal-todos-os-episodios",
      "texto_original": "Bishoujo Senshi Sailor Moon Crystal",
      "rating": 7.05,
      "classificacao_etaria": "A14",
      "imagem_original": "https://animefire.plus/img/animes/bishoujo-senshi-sailor-moon-crystal.webp",
      "imagem_pasta": "https://animefire.plus/img/animes/bishoujo-senshi-sailor-moon-crystal/",
      "secao": "legendados",
      "pagina": 96,
      "total_episodios": 3,
      "link_video": "https://animefire.plus/video/bishoujo-senshi-sailor-moon-crystal"
    },
    {
      "id": 398,
      "nome": "Bishoujo Senshi Sailor Moon R",
      "link": "https://animefire.plus/animes/bishoujo-senshi-sailor-moon-r-todos-os-episodios",
      "texto_original": "Bishoujo Senshi Sailor Moon R",
      "rating": 7.7,
      "classificacao_etaria": "A14",
      "imagem_original": "https://animefire.plus/img/animes/bishoujo-senshi-sailor-moon-r.webp",
      "imagem_pasta": "https://animefire.plus/img/animes/bishoujo-senshi-sailor-moon-r/",
      "secao": "legendados",
      "pagina": 72,
      "total_episodios": 43,
      "link_video": "https://animefire.plus/video/bishoujo-senshi-sailor-moon-r"
    },
    {
      "id": 399,
      "nome": "Bishoujo Senshi Sailor Moon S",
      "link": "https://animefire.plus/animes/bishoujo-senshi-sailor-moon-s-todos-os-episodios",
      "texto_original": "Bishoujo Senshi Sailor Moon S",
      "rating": 7.86,
      "classificacao_etaria": "A14",
      "imagem_original": "https://animefire.plus/img/animes/bishoujo-senshi-sailor-moon-s.webp",
      "imagem_pasta": "https://animefire.plus/img/animes/bishoujo-senshi-sailor-moon-s/",
      "secao": "legendados",
      "pagina": 72,
      "total_episodios": 38,
      "link_video": "https://animefire.plus/video/bishoujo-senshi-sailor-moon-s"
    },
    {
      "id": 400,
      "nome": "Bishoujo Senshi Sailor Moon SuperS",
      "link": "https://animefire.plus/animes/bishoujo-senshi-sailor-moon-supers-todos-os-episodios",
      "texto_original": "Bishoujo Senshi Sailor Moon SuperS",
      "rating": 7.65,
      "classificacao_etaria": "A14",
      "imagem_original": "https://animefire.plus/img/animes/bishoujo-senshi-sailor-moon-supers.webp",
      "imagem_pasta": "https://animefire.plus/img/animes/bishoujo-senshi-sailor-moon-supers/",
      "secao": "legendados",
      "pagina": 133,
      "total_episodios": 39,
      "link_video": "https://animefire.plus/video/bishoujo-senshi-sailor-moon-supers"
    }
  ],
  "pagination": {
    "current_page": 20,
    "per_page": 20,
    "total_items": 4368,
    "total_pages": 219,
    "has_next": true,
    "has_prev": true
  }
}
