{
  "message": "Lista de animes",
  "data": [
    {
      "id": 801,
      "nome": "Detroit Metal City",
      "link": "https://animefire.plus/animes/detroit-metal-city-todos-os-episodios",
      "texto_original": "Detroit Metal City",
      "rating": 8.19,
      "classificacao_etaria": "A16",
      "imagem_original": "https://animefire.plus/img/animes/detroit-metal-city.webp",
      "imagem_pasta": "https://animefire.plus/img/animes/detroit-metal-city/",
      "secao": "legendados",
      "pagina": 114,
      "total_episodios": 0,
      "link_video": "https://animefire.plus/video/detroit-metal-city"
    },
    {
      "id": 802,
      "nome": "Devil May Cry",
      "link": "https://animefire.plus/animes/devil-may-cry-todos-os-episodios",
      "texto_original": "Devil May Cry",
      "rating": 7.08,
      "classificacao_etaria": "A16",
      "imagem_original": "https://animefire.plus/img/animes/devil-may-cry.webp",
      "imagem_pasta": "https://animefire.plus/img/animes/devil-may-cry/",
      "secao": "legendados",
      "pagina": 178,
      "total_episodios": 12,
      "link_video": "https://animefire.plus/video/devil-may-cry"
    },
    {
      "id": 803,
      "nome": "Devil Survivor 2 The Animation",
      "link": "https://animefire.plus/animes/devil-survivor-2-the-animation-todos-os-episodios",
      "texto_original": "Devil Survivor 2 The Animation",
      "rating": 6.99,
      "classificacao_etaria": "A16",
      "imagem_original": "https://animefire.plus/img/animes/devil-survivor-2-the-animation.webp",
      "imagem_pasta": "https://animefire.plus/img/animes/devil-survivor-2-the-animation/",
      "secao": "legendados",
      "pagina": 160,
      "total_episodios": 13,
      "link_video": "https://animefire.plus/video/devil-survivor-2-the-animation"
    },
    {
      "id": 804,
      "nome": "Devilman Lady",
      "link": "https://animefire.plus/animes/devilman-lady-todos-os-episodios",
      "texto_original": "Devilman Lady",
      "rating": 6.76,
      "classificacao_etaria": "A18",
      "imagem_original": "https://animefire.plus/img/animes/devilman-lady.webp",
      "imagem_pasta": "https://animefire.plus/img/animes/devilman-lady/",
      "secao": "legendados",
      "pagina": 98,
      "total_episodios": 26,
      "link_video": "https://animefire.plus/video/devilman-lady"
    },
    {
      "id": 805,
      "nome": "Devilman: Crybaby (Dublado)",
      "link": "https://animefire.plus/animes/devilman-crybaby-dublado-todos-os-episodios",
      "texto_original": "Devilman: Crybaby (Dublado)",
      "rating": 7.9,
      "classificacao_etaria": "A18",
      "imagem_original": "https://animefire.plus/img/animes/devilman-crybaby.webp",
      "imagem_pasta": "https://animefire.plus/img/animes/devilman-crybaby/",
      "secao": "dublados,legendados",
      "pagina": 21,
      "total_episodios": 10,
      "link_video": "https://animefire.plus/video/devilman-crybaby-dublado"
    },
    {
      "id": 806,
      "nome": "Devils Line",
      "link": "https://animefire.plus/animes/devils-line-todos-os-episodios",
      "texto_original": "Devils Line",
      "rating": 6.89,
      "classificacao_etaria": "A16",
      "imagem_original": "https://animefire.plus/img/animes/devils-line.webp",
      "imagem_pasta": "https://animefire.plus/img/animes/devils-line/",
      "secao": "legendados",
      "pagina": 160,
      "total_episodios": 12,
      "link_video": "https://animefire.plus/video/devils-line"
    },
    {
      "id": 807,
      "nome": "Devils Line: Anytime Anywhere",
      "link": "https://animefire.plus/animes/devils-line-anytime-anywhere-todos-os-episodios",
      "texto_original": "Devils Line: Anytime Anywhere",
      "rating": 6.88,
      "classificacao_etaria": "A16",
      "imagem_original": "https://animefire.plus/img/animes/devils-line-anytime-anywhere.webp",
      "imagem_pasta": "https://animefire.plus/img/animes/devils-line-anytime-anywhere/",
      "secao": "legendados",
      "pagina": 42,
      "total_episodios": 1,
      "link_video": "https://animefire.plus/video/devils-line-anytime-anywhere"
    },
    {
      "id": 808,
      "nome": "Di Gi Charat",
      "link": "https://animefire.plus/animes/di-gi-charat-todos-os-episodios",
      "texto_original": "Di Gi Charat",
      "rating": 6.79,
      "classificacao_etaria": null,
      "imagem_original": "https://animefire.plus/img/animes/di-gi-charat.webp",
      "imagem_pasta": "https://animefire.plus/img/animes/di-gi-charat/",
      "secao": "legendados",
      "pagina": 129,
      "total_episodios": 12,
      "link_video": "https://animefire.plus/video/di-gi-charat"
    },
    {
      "id": 809,
      "nome": "Di Wang Gong Lue",
      "link": "https://animefire.plus/animes/di-wang-gong-lue-todos-os-episodios",
      "texto_original": "Di Wang Gong Lue",
      "rating": 6.65,
      "classificacao_etaria": "A14",
      "imagem_original": "https://animefire.plus/img/animes/di-wang-gong-lue.webp",
      "imagem_pasta": "https://animefire.plus/img/animes/di-wang-gong-lue/",
      "secao": "legendados",
      "pagina": 155,
      "total_episodios": 20,
      "link_video": "https://animefire.plus/video/di-wang-gong-lue"
    },
    {
      "id": 810,
      "nome": "Diabolik Lovers",
      "link": "https://animefire.plus/animes/diabolik-lovers-todos-os-episodios",
      "texto_original": "Diabolik Lovers",
      "rating": 5.65,
      "classificacao_etaria": "A16",
      "imagem_original": "https://animefire.plus/img/animes/diabolik-lovers.webp",
      "imagem_pasta": "https://animefire.plus/img/animes/diabolik-lovers/",
      "secao": "legendados",
      "pagina": 160,
      "total_episodios": 6,
      "link_video": "https://animefire.plus/video/diabolik-lovers"
    },
    {
      "id": 811,
      "nome": "Diabolik Lovers More,Blood",
      "link": "https://animefire.plus/animes/diabolik-lovers-more-blood-todos-os-episodios",
      "texto_original": "Diabolik Lovers More,Blood",
      "rating": 5.83,
      "classificacao_etaria": "A16",
      "imagem_original": "https://animefire.plus/img/animes/diabolik-lovers-more-blood.webp",
      "imagem_pasta": "https://animefire.plus/img/animes/diabolik-lovers-more-blood/",
      "secao": "legendados",
      "pagina": 63,
      "total_episodios": 12,
      "link_video": "https://animefire.plus/video/diabolik-lovers-more-blood"
    },
    {
      "id": 812,
      "nome": "Diamond no Ace: Act II",
      "link": "https://animefire.plus/animes/diamond-no-ace-act-ii-todos-os-episodios",
      "texto_original": "Diamond no Ace: Act II",
      "rating": 8.23,
      "classificacao_etaria": "A14",
      "imagem_original": "https://animefire.plus/img/animes/diamond-no-ace-act-ii.webp",
      "imagem_pasta": "https://animefire.plus/img/animes/diamond-no-ace-act-ii/",
      "secao": "legendados",
      "pagina": 164,
      "total_episodios": 0,
      "link_video": "https://animefire.plus/video/diamond-no-ace-act-ii"
    },
    {
      "id": 813,
      "nome": "Diamond no Ace: Second Season OVA",
      "link": "https://animefire.plus/animes/diamond-no-ace-second-season-ova-todos-os-episodios",
      "texto_original": "Diamond no Ace: Second Season OVA",
      "rating": 7.57,
      "classificacao_etaria": "A14",
      "imagem_original": "https://animefire.plus/img/animes/diamond-no-ace-second-season-ova.webp",
      "imagem_pasta": "https://animefire.plus/img/animes/diamond-no-ace-second-season-ova/",
      "secao": "legendados",
      "pagina": 83,
      "total_episodios": 2,
      "link_video": "https://animefire.plus/video/diamond-no-ace-second-season-ova"
    },
    {
      "id": 814,
      "nome": "Dies Irae",
      "link": "https://animefire.plus/animes/dies-irae-todos-os-episodios",
      "texto_original": "Dies Irae",
      "rating": 5.49,
      "classificacao_etaria": "A16",
      "imagem_original": "https://animefire.plus/img/animes/dies-irae.webp",
      "imagem_pasta": "https://animefire.plus/img/animes/dies-irae/",
      "secao": "legendados",
      "pagina": 98,
      "total_episodios": 17,
      "link_video": "https://animefire.plus/video/dies-irae"
    },
    {
      "id": 815,
      "nome": "Dies Irae: To the Ring Reincarnation",
      "link": "https://animefire.plus/animes/dies-irae-to-the-ring-reincarnation-todos-os-episodios",
      "texto_original": "Dies Irae: To the Ring Reincarnation",
      "rating": 6.15,
      "classificacao_etaria": "A16",
      "imagem_original": "https://animefire.plus/img/animes/dies-irae-to-the-ring-reincarnation.webp",
      "imagem_pasta": "https://animefire.plus/img/animes/dies-irae-to-the-ring-reincarnation/",
      "secao": "legendados",
      "pagina": 171,
      "total_episodios": 6,
      "link_video": "https://animefire.plus/video/dies-irae-to-the-ring-reincarnation"
    },
    {
      "id": 816,
      "nome": "Digimon Adventure (2020)",
      "link": "https://animefire.plus/animes/digimon-adventure-2020-todos-os-episodios",
      "texto_original": "Digimon Adventure (2020)",
      "rating": 6.78,
      "classificacao_etaria": "A10",
      "imagem_original": "https://animefire.plus/img/animes/digimon-adventure-2020.webp",
      "imagem_pasta": "https://animefire.plus/img/animes/digimon-adventure-2020/",
      "secao": "legendados,lancamentos",
      "pagina": 81,
      "total_episodios": 0,
      "link_video": "https://animefire.plus/video/digimon-adventure-2020"
    },
    {
      "id": 817,
      "nome": "Digimon Adventure (Dublado)",
      "link": "https://animefire.plus/animes/digimon-adventure-dublado-todos-os-episodios",
      "texto_original": "Digimon Adventure (Dublado)",
      "rating": 7.8,
      "classificacao_etaria": "A10",
      "imagem_original": "https://animefire.plus/img/animes/digimon-adventure.webp",
      "imagem_pasta": "https://animefire.plus/img/animes/digimon-adventure/",
      "secao": "dublados,legendados",
      "pagina": 20,
      "total_episodios": 54,
      "link_video": "https://animefire.plus/video/digimon-adventure-dublado"
    },
    {
      "id": 818,
      "nome": "Digimon Adventure 02 (Dublado)",
      "link": "https://animefire.plus/animes/digimon-adventure-02-dublado-todos-os-episodios",
      "texto_original": "Digimon Adventure 02 (Dublado)",
      "rating": 7.33,
      "classificacao_etaria": "A10",
      "imagem_original": "https://animefire.plus/img/animes/digimon-adventure-02.webp",
      "imagem_pasta": "https://animefire.plus/img/animes/digimon-adventure-02/",
      "secao": "dublados,legendados",
      "pagina": 27,
      "total_episodios": 50,
      "link_video": "https://animefire.plus/video/digimon-adventure-02-dublado"
    },
    {
      "id": 819,
      "nome": "Digimon Adventure tri. 6: Bokura no Mirai",
      "link": "https://animefire.plus/animes/digimon-adventure-tri-6-bokura-no-mirai-todos-os-episodios",
      "texto_original": "Digimon Adventure tri. 6: Bokura no Mirai",
      "rating": 7.3,
      "classificacao_etaria": "A14",
      "imagem_original": "https://animefire.plus/img/animes/digimon-adventure-tri-6-bokura-no-mirai.webp",
      "imagem_pasta": "https://animefire.plus/img/animes/digimon-adventure-tri-6-bokura-no-mirai/",
      "secao": "legendados",
      "pagina": 148,
      "total_episodios": 5,
      "link_video": "https://animefire.plus/video/digimon-adventure-tri-6-bokura-no-mirai"
    },
    {
      "id": 820,
      "nome": "Digimon Adventure: 20 Shuunen Memorial Story",
      "link": "https://animefire.plus/animes/digimon-adventure-20-shuunen-memorial-story-todos-os-episodios",
      "texto_original": "Digimon Adventure: 20 Shuunen Memorial Story",
      "rating": 6.75,
      "classificacao_etaria": null,
      "imagem_original": "https://animefire.plus/img/animes/digimon-adventure-20-shuunen-memorial-story.webp",
      "imagem_pasta": "https://animefire.plus/img/animes/digimon-adventure-20-shuunen-memorial-story/",
      "secao": "legendados,lancamentos",
      "pagina": 91,
      "total_episodios": 0,
      "link_video": "https://animefire.plus/video/digimon-adventure-20-shuunen-memorial-story"
    }
  ],
  "pagination": {
    "current_page": 41,
    "per_page": 20,
    "total_items": 4368,
    "total_pages": 219,
    "has_next": true,
    "has_prev": true
  }
}
