{
  "message": "Lista de animes",
  "data": [
    {
      "id": 2441,
      "nome": "Masou Gakuen HxH",
      "link": "https://animefire.plus/animes/masou-gakuen-hxh-todos-os-episodios",
      "texto_original": "Masou Gakuen HxH",
      "rating": 6.38,
      "classificacao_etaria": "A18",
      "imagem_original": "https://animefire.plus/img/animes/masou-gakuen-hxh.webp",
      "imagem_pasta": "https://animefire.plus/img/animes/masou-gakuen-hxh/",
      "secao": "legendados",
      "pagina": 138,
      "total_episodios": 0,
      "link_video": "https://animefire.plus/video/masou-gakuen-hxh"
    },
    {
      "id": 2442,
      "nome": "Masou Kishin Cybuster",
      "link": "https://animefire.plus/animes/masou-kishin-cybuster-todos-os-episodios",
      "texto_original": "Masou Kishin Cybuster",
      "rating": 6.2,
      "classificacao_etaria": "A14",
      "imagem_original": "https://animefire.plus/img/animes/masou-kishin-cybuster.webp",
      "imagem_pasta": "https://animefire.plus/img/animes/masou-kishin-cybuster/",
      "secao": "legendados",
      "pagina": 135,
      "total_episodios": 26,
      "link_video": "https://animefire.plus/video/masou-kishin-cybuster"
    },
    {
      "id": 2443,
      "nome": "Master Keaton",
      "link": "https://animefire.plus/animes/master-keaton-todos-os-episodios",
      "texto_original": "Master Keaton",
      "rating": 7.67,
      "classificacao_etaria": "A16",
      "imagem_original": "https://animefire.plus/img/animes/master-keaton.webp",
      "imagem_pasta": "https://animefire.plus/img/animes/master-keaton/",
      "secao": "legendados",
      "pagina": 136,
      "total_episodios": 24,
      "link_video": "https://animefire.plus/video/master-keaton"
    },
    {
      "id": 2444,
      "nome": "Master Keaton OVA",
      "link": "https://animefire.plus/animes/master-keaton-ova-todos-os-episodios",
      "texto_original": "Master Keaton OVA",
      "rating": 7.84,
      "classificacao_etaria": "A16",
      "imagem_original": "https://animefire.plus/img/animes/master-keaton-ova.webp",
      "imagem_pasta": "https://animefire.plus/img/animes/master-keaton-ova/",
      "secao": "legendados",
      "pagina": 166,
      "total_episodios": 15,
      "link_video": "https://animefire.plus/video/master-keaton-ova"
    },
    {
      "id": 2445,
      "nome": "Master Mosquiton",
      "link": "https://animefire.plus/animes/master-mosquiton-todos-os-episodios",
      "texto_original": "Master Mosquiton",
      "rating": 6.73,
      "classificacao_etaria": "A14",
      "imagem_original": "https://animefire.plus/img/animes/master-mosquiton.webp",
      "imagem_pasta": "https://animefire.plus/img/animes/master-mosquiton/",
      "secao": "legendados",
      "pagina": 84,
      "total_episodios": 6,
      "link_video": "https://animefire.plus/video/master-mosquiton"
    },
    {
      "id": 2446,
      "nome": "Masuda Kousuke Gekijou: Gag Manga Biyori Go",
      "link": "https://animefire.plus/animes/masuda-kousuke-gekijou-gag-manga-biyori-go-todos-os-episodios",
      "texto_original": "Masuda Kousuke Gekijou: Gag Manga Biyori Go",
      "rating": 6.08,
      "classificacao_etaria": "A14",
      "imagem_original": "https://animefire.plus/img/animes/masuda-kousuke-gekijou-gag-manga-biyori-go.webp",
      "imagem_pasta": "https://animefire.plus/img/animes/masuda-kousuke-gekijou-gag-manga-biyori-go/",
      "secao": "legendados,lancamentos",
      "pagina": 4,
      "total_episodios": 0,
      "link_video": "https://animefire.plus/video/masuda-kousuke-gekijou-gag-manga-biyori-go"
    },
    {
      "id": 2447,
      "nome": "Matantei Loki Ragnarok",
      "link": "https://animefire.plus/animes/matantei-loki-ragnarok-todos-os-episodios",
      "texto_original": "Matantei Loki Ragnarok",
      "rating": 7.37,
      "classificacao_etaria": "A14",
      "imagem_original": "https://animefire.plus/img/animes/matantei-loki-ragnarok.webp",
      "imagem_pasta": "https://animefire.plus/img/animes/matantei-loki-ragnarok/",
      "secao": "legendados",
      "pagina": 156,
      "total_episodios": 26,
      "link_video": "https://animefire.plus/video/matantei-loki-ragnarok"
    },
    {
      "id": 2448,
      "nome": "Mato Seihei no Slave",
      "link": "https://animefire.plus/animes/mato-seihei-no-slave-todos-os-episodios",
      "texto_original": "Mato Seihei no Slave",
      "rating": 6.85,
      "classificacao_etaria": "A14",
      "imagem_original": "https://animefire.plus/img/animes/mato-seihei-no-slave.webp",
      "imagem_pasta": "https://animefire.plus/img/animes/mato-seihei-no-slave/",
      "secao": "legendados",
      "pagina": 18,
      "total_episodios": 12,
      "link_video": "https://animefire.plus/video/mato-seihei-no-slave"
    },
    {
      "id": 2449,
      "nome": "Mattaku Saikin no Tantei to Kitara",
      "link": "https://animefire.plus/animes/mattaku-saikin-no-tantei-to-kitara-todos-os-episodios",
      "texto_original": "Mattaku Saikin no Tantei to Kitara",
      "rating": 7.13,
      "classificacao_etaria": "A14",
      "imagem_original": "https://animefire.plus/img/animes/mattaku-saikin-no-tantei-to-kitara.webp",
      "imagem_pasta": "https://animefire.plus/img/animes/mattaku-saikin-no-tantei-to-kitara/",
      "secao": "legendados,lancamentos",
      "pagina": 2,
      "total_episodios": 5,
      "link_video": "https://animefire.plus/video/mattaku-saikin-no-tantei-to-kitara"
    },
    {
      "id": 2450,
      "nome": "Mawaru Penguindrum",
      "link": "https://animefire.plus/animes/mawaru-penguindrum-todos-os-episodios",
      "texto_original": "Mawaru Penguindrum",
      "rating": 8.01,
      "classificacao_etaria": "A16",
      "imagem_original": "https://animefire.plus/img/animes/mawaru-penguindrum.webp",
      "imagem_pasta": "https://animefire.plus/img/animes/mawaru-penguindrum/",
      "secao": "legendados",
      "pagina": 120,
      "total_episodios": 24,
      "link_video": "https://animefire.plus/video/mawaru-penguindrum"
    },
    {
      "id": 2451,
      "nome": "Mayo Chiki!",
      "link": "https://animefire.plus/animes/mayo-chiki-todos-os-episodios",
      "texto_original": "Mayo Chiki!",
      "rating": 7.44,
      "classificacao_etaria": "A18",
      "imagem_original": "https://animefire.plus/img/animes/mayo-chiki.webp",
      "imagem_pasta": "https://animefire.plus/img/animes/mayo-chiki/",
      "secao": "legendados",
      "pagina": 114,
      "total_episodios": 13,
      "link_video": "https://animefire.plus/video/mayo-chiki"
    },
    {
      "id": 2452,
      "nome": "Mayoi Neko Overrun!",
      "link": "https://animefire.plus/animes/mayoi-neko-overrun-todos-os-episodios",
      "texto_original": "Mayoi Neko Overrun!",
      "rating": 6.8,
      "classificacao_etaria": "A14",
      "imagem_original": "https://animefire.plus/img/animes/mayoi-neko-overrun.webp",
      "imagem_pasta": "https://animefire.plus/img/animes/mayoi-neko-overrun/",
      "secao": "legendados",
      "pagina": 118,
      "total_episodios": 13,
      "link_video": "https://animefire.plus/video/mayoi-neko-overrun"
    },
    {
      "id": 2453,
      "nome": "Mayoiga",
      "link": "https://animefire.plus/animes/mayoiga-todos-os-episodios",
      "texto_original": "Mayoiga",
      "rating": 5.62,
      "classificacao_etaria": "A16",
      "imagem_original": "https://animefire.plus/img/animes/mayoiga.webp",
      "imagem_pasta": "https://animefire.plus/img/animes/mayoiga/",
      "secao": "legendados",
      "pagina": 101,
      "total_episodios": 0,
      "link_video": "https://animefire.plus/video/mayoiga"
    },
    {
      "id": 2454,
      "nome": "Mayonaka no Occult Koumuin",
      "link": "https://animefire.plus/animes/mayonaka-no-occult-koumuin-todos-os-episodios",
      "texto_original": "Mayonaka no Occult Koumuin",
      "rating": 6.71,
      "classificacao_etaria": "A14",
      "imagem_original": "https://animefire.plus/img/animes/mayonaka-no-occult-koumuin.webp",
      "imagem_pasta": "https://animefire.plus/img/animes/mayonaka-no-occult-koumuin/",
      "secao": "legendados",
      "pagina": 147,
      "total_episodios": 0,
      "link_video": "https://animefire.plus/video/mayonaka-no-occult-koumuin"
    },
    {
      "id": 2455,
      "nome": "Mayonaka no Occult Koumuin: Fukurokouji to Ano Ko to Ore to",
      "link": "https://animefire.plus/animes/mayonaka-no-occult-koumuin-fukurokouji-to-ano-ko-to-ore-to-todos-os-episodios",
      "texto_original": "Mayonaka no Occult Koumuin: Fukurokouji to Ano Ko to Ore to",
      "rating": 6.79,
      "classificacao_etaria": "A14",
      "imagem_original": "https://animefire.plus/img/animes/mayonaka-no-occult-koumuin-fukurokouji-to-ano-ko-to-ore-to.webp",
      "imagem_pasta": "https://animefire.plus/img/animes/mayonaka-no-occult-koumuin-fukurokouji-to-ano-ko-to-ore-to/",
      "secao": "legendados",
      "pagina": 88,
      "total_episodios": 1,
      "link_video": "https://animefire.plus/video/mayonaka-no-occult-koumuin-fukurokouji-to-ano-ko-to-ore-to"
    },
    {
      "id": 2456,
      "nome": "Mayonaka no Occult Koumuin: Hitoribocchi no Kyuuketsuki",
      "link": "https://animefire.plus/animes/mayonaka-no-occult-koumuin-hitoribocchi-no-kyuuketsuki-todos-os-episodios",
      "texto_original": "Mayonaka no Occult Koumuin: Hitoribocchi no Kyuuketsuki",
      "rating": 7.15,
      "classificacao_etaria": "A14",
      "imagem_original": "https://animefire.plus/img/animes/mayonaka-no-occult-koumuin-hitoribocchi-no-kyuuketsuki.webp",
      "imagem_pasta": "https://animefire.plus/img/animes/mayonaka-no-occult-koumuin-hitoribocchi-no-kyuuketsuki/",
      "secao": "legendados",
      "pagina": 84,
      "total_episodios": 2,
      "link_video": "https://animefire.plus/video/mayonaka-no-occult-koumuin-hitoribocchi-no-kyuuketsuki"
    },
    {
      "id": 2457,
      "nome": "Mayonaka Punch",
      "link": "https://animefire.plus/animes/mayonaka-punch-todos-os-episodios",
      "texto_original": "Mayonaka Punch",
      "rating": 7.35,
      "classificacao_etaria": "A14",
      "imagem_original": "https://animefire.plus/img/animes/mayonaka-punch.webp",
      "imagem_pasta": "https://animefire.plus/img/animes/mayonaka-punch/",
      "secao": "legendados",
      "pagina": 11,
      "total_episodios": 12,
      "link_video": "https://animefire.plus/video/mayonaka-punch"
    },
    {
      "id": 2458,
      "nome": "Maze☆Bakunetsu Jikuu (TV)",
      "link": "https://animefire.plus/animes/maze-bakunetsu-jikuu-tv-todos-os-episodios",
      "texto_original": "Maze☆Bakunetsu Jikuu (TV)",
      "rating": 6.73,
      "classificacao_etaria": "A18",
      "imagem_original": "https://animefire.plus/img/animes/maze-bakunetsu-jikuu-tv.webp",
      "imagem_pasta": "https://animefire.plus/img/animes/maze-bakunetsu-jikuu-tv/",
      "secao": "legendados",
      "pagina": 150,
      "total_episodios": 0,
      "link_video": "https://animefire.plus/video/maze-bakunetsu-jikuu-tv"
    },
    {
      "id": 2459,
      "nome": "Mecha-ude",
      "link": "https://animefire.plus/animes/mecha-ude-todos-os-episodios",
      "texto_original": "Mecha-ude",
      "rating": 7.11,
      "classificacao_etaria": "A14",
      "imagem_original": "https://animefire.plus/img/animes/mecha-ude.webp",
      "imagem_pasta": "https://animefire.plus/img/animes/mecha-ude/",
      "secao": "legendados",
      "pagina": 106,
      "total_episodios": 1,
      "link_video": "https://animefire.plus/video/mecha-ude"
    },
    {
      "id": 2460,
      "nome": "Mecha-ude (TV)",
      "link": "https://animefire.plus/animes/mecha-ude-tv-todos-os-episodios",
      "texto_original": "Mecha-ude (TV)",
      "rating": 6.8,
      "classificacao_etaria": "A14",
      "imagem_original": "https://animefire.plus/img/animes/mecha-ude-tv.webp",
      "imagem_pasta": "https://animefire.plus/img/animes/mecha-ude-tv/",
      "secao": "legendados",
      "pagina": 10,
      "total_episodios": 12,
      "link_video": "https://animefire.plus/video/mecha-ude-tv"
    }
  ],
  "pagination": {
    "current_page": 123,
    "per_page": 20,
    "total_items": 4368,
    "total_pages": 219,
    "has_next": true,
    "has_prev": true
  }
}
