{
  "message": "Lista de animes",
  "data": [
    {
      "id": 901,
      "nome": "Dungeon ni Deai wo Motomeru no wa Machigatteiru Darou ka II",
      "link": "https://animefire.plus/animes/dungeon-ni-deai-wo-motomeru-no-wa-machigatteiru-darou-ka-ii-todos-os-episodios",
      "texto_original": "Dungeon ni Deai wo Motomeru no wa Machigatteiru Darou ka II",
      "rating": 7.24,
      "classificacao_etaria": "A14",
      "imagem_original": "https://animefire.plus/img/animes/dungeon-ni-deai-wo-motomeru-no-wa-machigatteiru-darou-ka-ii.webp",
      "imagem_pasta": "https://animefire.plus/img/animes/dungeon-ni-deai-wo-motomeru-no-wa-machigatteiru-darou-ka-ii/",
      "secao": "legendados",
      "pagina": 167,
      "total_episodios": 12,
      "link_video": "https://animefire.plus/video/dungeon-ni-deai-wo-motomeru-no-wa-machigatteiru-darou-ka-ii"
    },
    {
      "id": 902,
      "nome": "Dungeon ni Deai wo Motomeru no wa Machigatteiru Darou ka II: Past & Future",
      "link": "https://animefire.plus/animes/dungeon-ni-deai-wo-motomeru-no-wa-machigatteiru-darou-ka-ii-past-future-todos-os-episodios",
      "texto_original": "Dungeon ni Deai wo Motomeru no wa Machigatteiru Darou ka II: Past & Future",
      "rating": 6.68,
      "classificacao_etaria": "A14",
      "imagem_original": "https://animefire.plus/img/animes/dungeon-ni-deai-wo-motomeru-no-wa-machigatteiru-darou-ka-ii-past-future.webp",
      "imagem_pasta": "https://animefire.plus/img/animes/dungeon-ni-deai-wo-motomeru-no-wa-machigatteiru-darou-ka-ii-past-future/",
      "secao": "legendados",
      "pagina": 87,
      "total_episodios": 0,
      "link_video": "https://animefire.plus/video/dungeon-ni-deai-wo-motomeru-no-wa-machigatteiru-darou-ka-ii-past-future"
    },
    {
      "id": 903,
      "nome": "Dungeon ni Deai wo Motomeru no wa Machigatteiru Darou ka III",
      "link": "https://animefire.plus/animes/dungeon-ni-deai-wo-motomeru-no-wa-machigatteiru-darou-ka-iii-todos-os-episodios",
      "texto_original": "Dungeon ni Deai wo Motomeru no wa Machigatteiru Darou ka III",
      "rating": null,
      "classificacao_etaria": "A14",
      "imagem_original": "https://animefire.plus/img/animes/dungeon-ni-deai-wo-motomeru-no-wa-machigatteiru-darou-ka-iii.webp",
      "imagem_pasta": "https://animefire.plus/img/animes/dungeon-ni-deai-wo-motomeru-no-wa-machigatteiru-darou-ka-iii/",
      "secao": "legendados",
      "pagina": 53,
      "total_episodios": 12,
      "link_video": "https://animefire.plus/video/dungeon-ni-deai-wo-motomeru-no-wa-machigatteiru-darou-ka-iii"
    },
    {
      "id": 904,
      "nome": "Dungeon ni Deai wo Motomeru no wa Machigatteiru Darou ka III OVA",
      "link": "https://animefire.plus/animes/dungeon-ni-deai-wo-motomeru-no-wa-machigatteiru-darou-ka-iii-ova-todos-os-episodios",
      "texto_original": "Dungeon ni Deai wo Motomeru no wa Machigatteiru Darou ka III OVA",
      "rating": 6.91,
      "classificacao_etaria": "A14",
      "imagem_original": "https://animefire.plus/img/animes/dungeon-ni-deai-wo-motomeru-no-wa-machigatteiru-darou-ka-iii-ova.webp",
      "imagem_pasta": "https://animefire.plus/img/animes/dungeon-ni-deai-wo-motomeru-no-wa-machigatteiru-darou-ka-iii-ova/",
      "secao": "legendados",
      "pagina": 46,
      "total_episodios": 1,
      "link_video": "https://animefire.plus/video/dungeon-ni-deai-wo-motomeru-no-wa-machigatteiru-darou-ka-iii-ova"
    },
    {
      "id": 905,
      "nome": "Dungeon ni Deai wo Motomeru no wa Machigatteiru Darou ka IV: Fuka Shou - Yakusai-hen",
      "link": "https://animefire.plus/animes/dungeon-ni-deai-wo-motomeru-no-wa-machigatteiru-darou-ka-iv-fuka-shou---yakusai-hen-todos-os-episodios",
      "texto_original": "Dungeon ni Deai wo Motomeru no wa Machigatteiru Darou ka IV: Fuka Shou - Yakusai-hen",
      "rating": 8.25,
      "classificacao_etaria": "A16",
      "imagem_original": "https://animefire.plus/img/animes/dungeon-ni-deai-wo-motomeru-no-wa-machigatteiru-darou-ka-iv-fuka-shou---yakusai-hen.webp",
      "imagem_pasta": "https://animefire.plus/img/animes/dungeon-ni-deai-wo-motomeru-no-wa-machigatteiru-darou-ka-iv-fuka-shou---yakusai-hen/",
      "secao": "legendados",
      "pagina": 26,
      "total_episodios": 11,
      "link_video": "https://animefire.plus/video/dungeon-ni-deai-wo-motomeru-no-wa-machigatteiru-darou-ka-iv-fuka-shou---yakusai-hen"
    },
    {
      "id": 906,
      "nome": "Dungeon ni Deai wo Motomeru no wa Machigatteiru Darou ka IV: Shin Shou - Meikyuu-hen",
      "link": "https://animefire.plus/animes/dungeon-ni-deai-wo-motomeru-no-wa-machigatteiru-darou-ka-iv-shin-shou---meikyuu-hen-todos-os-episodios",
      "texto_original": "Dungeon ni Deai wo Motomeru no wa Machigatteiru Darou ka IV: Shin Shou - Meikyuu-hen",
      "rating": 7.75,
      "classificacao_etaria": "A16",
      "imagem_original": "https://animefire.plus/img/animes/dungeon-ni-deai-wo-motomeru-no-wa-machigatteiru-darou-ka-iv-shin-shou---meikyuu-hen.webp",
      "imagem_pasta": "https://animefire.plus/img/animes/dungeon-ni-deai-wo-motomeru-no-wa-machigatteiru-darou-ka-iv-shin-shou---meikyuu-hen/",
      "secao": "legendados",
      "pagina": 30,
      "total_episodios": 11,
      "link_video": "https://animefire.plus/video/dungeon-ni-deai-wo-motomeru-no-wa-machigatteiru-darou-ka-iv-shin-shou---meikyuu-hen"
    },
    {
      "id": 907,
      "nome": "Dungeon ni Deai wo Motomeru no wa Machigatteiru Darou ka V: Houjou no Megami-hen",
      "link": "https://animefire.plus/animes/dungeon-ni-deai-wo-motomeru-no-wa-machigatteiru-darou-ka-v-houjou-no-megami-hen-todos-os-episodios",
      "texto_original": "Dungeon ni Deai wo Motomeru no wa Machigatteiru Darou ka V: Houjou no Megami-hen",
      "rating": 7.9,
      "classificacao_etaria": "A14",
      "imagem_original": "https://animefire.plus/img/animes/dungeon-ni-deai-wo-motomeru-no-wa-machigatteiru-darou-ka-v-houjou-no-megami-hen.webp",
      "imagem_pasta": "https://animefire.plus/img/animes/dungeon-ni-deai-wo-motomeru-no-wa-machigatteiru-darou-ka-v-houjou-no-megami-hen/",
      "secao": "legendados",
      "pagina": 10,
      "total_episodios": 15,
      "link_video": "https://animefire.plus/video/dungeon-ni-deai-wo-motomeru-no-wa-machigatteiru-darou-ka-v-houjou-no-megami-hen"
    },
    {
      "id": 908,
      "nome": "Dungeon no Naka no Hito",
      "link": "https://animefire.plus/animes/dungeon-no-naka-no-hito-todos-os-episodios",
      "texto_original": "Dungeon no Naka no Hito",
      "rating": 7.12,
      "classificacao_etaria": "A14",
      "imagem_original": "https://animefire.plus/img/animes/dungeon-no-naka-no-hito.webp",
      "imagem_pasta": "https://animefire.plus/img/animes/dungeon-no-naka-no-hito/",
      "secao": "legendados",
      "pagina": 12,
      "total_episodios": 12,
      "link_video": "https://animefire.plus/video/dungeon-no-naka-no-hito"
    },
    {
      "id": 909,
      "nome": "Durarara!!",
      "link": "https://animefire.plus/animes/durarara-todos-os-episodios",
      "texto_original": "Durarara!!",
      "rating": 8.22,
      "classificacao_etaria": "A16",
      "imagem_original": "https://animefire.plus/img/animes/durarara.webp",
      "imagem_pasta": "https://animefire.plus/img/animes/durarara/",
      "secao": "legendados",
      "pagina": 61,
      "total_episodios": 26,
      "link_video": "https://animefire.plus/video/durarara"
    },
    {
      "id": 910,
      "nome": "Durarara!!x2 Ketsu",
      "link": "https://animefire.plus/animes/durarara-x2-ketsu-todos-os-episodios",
      "texto_original": "Durarara!!x2 Ketsu",
      "rating": 8.16,
      "classificacao_etaria": "A16",
      "imagem_original": "https://animefire.plus/img/animes/durarara-x2-ketsu.webp",
      "imagem_pasta": "https://animefire.plus/img/animes/durarara-x2-ketsu/",
      "secao": "legendados",
      "pagina": 128,
      "total_episodios": 12,
      "link_video": "https://animefire.plus/video/durarara-x2-ketsu"
    },
    {
      "id": 911,
      "nome": "Durarara!!x2 Shou",
      "link": "https://animefire.plus/animes/durarara-x2-shou-todos-os-episodios",
      "texto_original": "Durarara!!x2 Shou",
      "rating": 8.06,
      "classificacao_etaria": "A16",
      "imagem_original": "https://animefire.plus/img/animes/durarara-x2-shou.webp",
      "imagem_pasta": "https://animefire.plus/img/animes/durarara-x2-shou/",
      "secao": "legendados",
      "pagina": 61,
      "total_episodios": 12,
      "link_video": "https://animefire.plus/video/durarara-x2-shou"
    },
    {
      "id": 912,
      "nome": "Durarara!!x2 Ten",
      "link": "https://animefire.plus/animes/durarara-x2-ten-todos-os-episodios",
      "texto_original": "Durarara!!x2 Ten",
      "rating": 8.07,
      "classificacao_etaria": "A16",
      "imagem_original": "https://animefire.plus/img/animes/durarara-x2-ten.webp",
      "imagem_pasta": "https://animefire.plus/img/animes/durarara-x2-ten/",
      "secao": "legendados",
      "pagina": 103,
      "total_episodios": 12,
      "link_video": "https://animefire.plus/video/durarara-x2-ten"
    },
    {
      "id": 913,
      "nome": "Dynamic Chord",
      "link": "https://animefire.plus/animes/dynamic-chord-todos-os-episodios",
      "texto_original": "Dynamic Chord",
      "rating": 4.68,
      "classificacao_etaria": "A14",
      "imagem_original": "https://animefire.plus/img/animes/dynamic-chord.webp",
      "imagem_pasta": "https://animefire.plus/img/animes/dynamic-chord/",
      "secao": "legendados",
      "pagina": 164,
      "total_episodios": 10,
      "link_video": "https://animefire.plus/video/dynamic-chord"
    },
    {
      "id": 914,
      "nome": "Early Reins",
      "link": "https://animefire.plus/animes/early-reins-todos-os-episodios",
      "texto_original": "Early Reins",
      "rating": 5.93,
      "classificacao_etaria": "A16",
      "imagem_original": "https://animefire.plus/img/animes/early-reins.webp",
      "imagem_pasta": "https://animefire.plus/img/animes/early-reins/",
      "secao": "legendados",
      "pagina": 66,
      "total_episodios": 1,
      "link_video": "https://animefire.plus/video/early-reins"
    },
    {
      "id": 915,
      "nome": "Eat-Man",
      "link": "https://animefire.plus/animes/eat-man-todos-os-episodios",
      "texto_original": "Eat-Man",
      "rating": 6.57,
      "classificacao_etaria": "A16",
      "imagem_original": "https://animefire.plus/img/animes/eat-man.webp",
      "imagem_pasta": "https://animefire.plus/img/animes/eat-man/",
      "secao": "legendados",
      "pagina": 105,
      "total_episodios": 12,
      "link_video": "https://animefire.plus/video/eat-man"
    },
    {
      "id": 916,
      "nome": "Eat-Man '98",
      "link": "https://animefire.plus/animes/eat-man-98-todos-os-episodios",
      "texto_original": "Eat-Man '98",
      "rating": 6.84,
      "classificacao_etaria": "A14",
      "imagem_original": "https://animefire.plus/img/animes/eat-man-98.webp",
      "imagem_pasta": "https://animefire.plus/img/animes/eat-man-98/",
      "secao": "legendados",
      "pagina": 97,
      "total_episodios": 12,
      "link_video": "https://animefire.plus/video/eat-man-98"
    },
    {
      "id": 917,
      "nome": "Ebiten: Kouritsu Ebisugawa Koukou Tenmonbu",
      "link": "https://animefire.plus/animes/ebiten-kouritsu-ebisugawa-koukou-tenmonbu-todos-os-episodios",
      "texto_original": "Ebiten: Kouritsu Ebisugawa Koukou Tenmonbu",
      "rating": 6.27,
      "classificacao_etaria": "A18",
      "imagem_original": "https://animefire.plus/img/animes/ebiten-kouritsu-ebisugawa-koukou-tenmonbu.webp",
      "imagem_pasta": "https://animefire.plus/img/animes/ebiten-kouritsu-ebisugawa-koukou-tenmonbu/",
      "secao": "legendados",
      "pagina": 99,
      "total_episodios": 10,
      "link_video": "https://animefire.plus/video/ebiten-kouritsu-ebisugawa-koukou-tenmonbu"
    },
    {
      "id": 918,
      "nome": "Eden (ONA) (Dublado)",
      "link": "https://animefire.plus/animes/eden-ona-dublado-todos-os-episodios",
      "texto_original": "Eden (ONA) (Dublado)",
      "rating": 6.39,
      "classificacao_etaria": "A14",
      "imagem_original": "https://animefire.plus/img/animes/eden-ona.webp",
      "imagem_pasta": "https://animefire.plus/img/animes/eden-ona/",
      "secao": "dublados,legendados",
      "pagina": 17,
      "total_episodios": 3,
      "link_video": "https://animefire.plus/video/eden-ona-dublado"
    },
    {
      "id": 919,
      "nome": "Edens Zero (Dublado)",
      "link": "https://animefire.plus/animes/edens-zero-dublado-todos-os-episodios",
      "texto_original": "Edens Zero (Dublado)",
      "rating": 7.26,
      "classificacao_etaria": "A14",
      "imagem_original": "https://animefire.plus/img/animes/edens-zero.webp",
      "imagem_pasta": "https://animefire.plus/img/animes/edens-zero/",
      "secao": "dublados,legendados",
      "pagina": 16,
      "total_episodios": 25,
      "link_video": "https://animefire.plus/video/edens-zero-dublado"
    },
    {
      "id": 920,
      "nome": "Edens Zero 2nd Season",
      "link": "https://animefire.plus/animes/edens-zero-2nd-season-todos-os-episodios",
      "texto_original": "Edens Zero 2nd Season",
      "rating": 7.43,
      "classificacao_etaria": "A14",
      "imagem_original": "https://animefire.plus/img/animes/edens-zero-2nd-season.jpg",
      "imagem_pasta": "https://animefire.plus/img/animes/edens-zero-2nd-season/",
      "secao": "legendados",
      "pagina": 24,
      "total_episodios": 25,
      "link_video": "https://animefire.plus/video/edens-zero-2nd-season"
    }
  ],
  "pagination": {
    "current_page": 46,
    "per_page": 20,
    "total_items": 4368,
    "total_pages": 219,
    "has_next": true,
    "has_prev": true
  }
}
