{
  "message": "Lista de animes",
  "data": [
    {
      "id": 1841,
      "nome": "Kami nomi zo Shiru Sekai: Tenri-hen",
      "link": "https://animefire.plus/animes/kami-nomi-zo-shiru-sekai-tenri-hen-todos-os-episodios",
      "texto_original": "Kami nomi zo Shiru Sekai: Tenri-hen",
      "rating": 7.75,
      "classificacao_etaria": "A14",
      "imagem_original": "https://animefire.plus/img/animes/kami-nomi-zo-shiru-sekai-tenri-hen.webp",
      "imagem_pasta": "https://animefire.plus/img/animes/kami-nomi-zo-shiru-sekai-tenri-hen/",
      "secao": "legendados",
      "pagina": 64,
      "total_episodios": 1,
      "link_video": "https://animefire.plus/video/kami-nomi-zo-shiru-sekai-tenri-hen"
    },
    {
      "id": 1842,
      "nome": "Kami wa Game ni Ueteiru. (Dublado)",
      "link": "https://animefire.plus/animes/kami-wa-game-ni-ueteiru-dublado-todos-os-episodios",
      "texto_original": "Kami wa Game ni Ueteiru. (Dublado)",
      "rating": 6.26,
      "classificacao_etaria": "A14",
      "imagem_original": "https://animefire.plus/img/animes/kami-wa-game-ni-ueteiru.webp",
      "imagem_pasta": "https://animefire.plus/img/animes/kami-wa-game-ni-ueteiru/",
      "secao": "dublados,legendados,lancamentos",
      "pagina": 3,
      "total_episodios": 13,
      "link_video": "https://animefire.plus/video/kami-wa-game-ni-ueteiru-dublado"
    },
    {
      "id": 1843,
      "nome": "Kami-tachi ni Hirowareta Otoko (Dublado)",
      "link": "https://animefire.plus/animes/kami-tachi-ni-hirowareta-otoko-dublado-todos-os-episodios",
      "texto_original": "Kami-tachi ni Hirowareta Otoko (Dublado)",
      "rating": 6.98,
      "classificacao_etaria": "A14",
      "imagem_original": "https://animefire.plus/img/animes/kami-tachi-ni-hirowareta-otoko.webp",
      "imagem_pasta": "https://animefire.plus/img/animes/kami-tachi-ni-hirowareta-otoko/",
      "secao": "dublados,legendados",
      "pagina": 5,
      "total_episodios": 12,
      "link_video": "https://animefire.plus/video/kami-tachi-ni-hirowareta-otoko-dublado"
    },
    {
      "id": 1844,
      "nome": "Kami-tachi ni Hirowareta Otoko 2nd Season",
      "link": "https://animefire.plus/animes/kami-tachi-ni-hirowareta-otoko-2nd-season-todos-os-episodios",
      "texto_original": "Kami-tachi ni Hirowareta Otoko 2nd Season",
      "rating": 6.81,
      "classificacao_etaria": "A14",
      "imagem_original": "https://animefire.plus/img/animes/kami-tachi-ni-hirowareta-otoko-2nd-season.webp",
      "imagem_pasta": "https://animefire.plus/img/animes/kami-tachi-ni-hirowareta-otoko-2nd-season/",
      "secao": "legendados",
      "pagina": 28,
      "total_episodios": 12,
      "link_video": "https://animefire.plus/video/kami-tachi-ni-hirowareta-otoko-2nd-season"
    },
    {
      "id": 1845,
      "nome": "Kami-tachi ni Hirowareta Otoko 2nd Season (Dublado)",
      "link": "https://animefire.plus/animes/kami-tachi-ni-hirowareta-otoko-2-dublado-todos-os-episodios",
      "texto_original": "Kami-tachi ni Hirowareta Otoko 2nd Season (Dublado)",
      "rating": 6.81,
      "classificacao_etaria": "A14",
      "imagem_original": "https://animefire.plus/img/animes/kami-tachi-ni-hirowareta-otoko-2.webp",
      "imagem_pasta": "https://animefire.plus/img/animes/kami-tachi-ni-hirowareta-otoko-2/",
      "secao": "dublados",
      "pagina": 5,
      "total_episodios": 12,
      "link_video": "https://animefire.plus/video/kami-tachi-ni-hirowareta-otoko-2-dublado"
    },
    {
      "id": 1846,
      "nome": "Kamichama Karin",
      "link": "https://animefire.plus/animes/kamichama-karin-todos-os-episodios",
      "texto_original": "Kamichama Karin",
      "rating": 7.42,
      "classificacao_etaria": "A14",
      "imagem_original": "https://animefire.plus/img/animes/kamichama-karin.webp",
      "imagem_pasta": "https://animefire.plus/img/animes/kamichama-karin/",
      "secao": "legendados",
      "pagina": 115,
      "total_episodios": 26,
      "link_video": "https://animefire.plus/video/kamichama-karin"
    },
    {
      "id": 1847,
      "nome": "Kamichu!",
      "link": "https://animefire.plus/animes/kamichu-todos-os-episodios",
      "texto_original": "Kamichu!",
      "rating": 7.45,
      "classificacao_etaria": null,
      "imagem_original": "https://animefire.plus/img/animes/kamichu.webp",
      "imagem_pasta": "https://animefire.plus/img/animes/kamichu/",
      "secao": "legendados",
      "pagina": 151,
      "total_episodios": 16,
      "link_video": "https://animefire.plus/video/kamichu"
    },
    {
      "id": 1848,
      "nome": "Kamierabi",
      "link": "https://animefire.plus/animes/kamierabi-todos-os-episodios",
      "texto_original": "Kamierabi",
      "rating": 5.82,
      "classificacao_etaria": "A14",
      "imagem_original": "https://animefire.plus/img/animes/kamierabi.webp",
      "imagem_pasta": "https://animefire.plus/img/animes/kamierabi/",
      "secao": "legendados",
      "pagina": 20,
      "total_episodios": 12,
      "link_video": "https://animefire.plus/video/kamierabi"
    },
    {
      "id": 1849,
      "nome": "Kamierabi 2nd Season",
      "link": "https://animefire.plus/animes/kamierabi-2nd-season-todos-os-episodios",
      "texto_original": "Kamierabi 2nd Season",
      "rating": 6.19,
      "classificacao_etaria": "A14",
      "imagem_original": "https://animefire.plus/img/animes/kamierabi-2nd-season.webp",
      "imagem_pasta": "https://animefire.plus/img/animes/kamierabi-2nd-season/",
      "secao": "legendados",
      "pagina": 10,
      "total_episodios": 12,
      "link_video": "https://animefire.plus/video/kamierabi-2nd-season"
    },
    {
      "id": 1850,
      "nome": "Kamigami no Asobi",
      "link": "https://animefire.plus/animes/kamigami-no-asobi-todos-os-episodios",
      "texto_original": "Kamigami no Asobi",
      "rating": 7.26,
      "classificacao_etaria": "A14",
      "imagem_original": "https://animefire.plus/img/animes/kamigami-no-asobi.webp",
      "imagem_pasta": "https://animefire.plus/img/animes/kamigami-no-asobi/",
      "secao": "legendados",
      "pagina": 156,
      "total_episodios": 0,
      "link_video": "https://animefire.plus/video/kamigami-no-asobi"
    },
    {
      "id": 1851,
      "nome": "Kamikaze Kaitou Jeanne",
      "link": "https://animefire.plus/animes/kamikaze-kaitou-jeanne-todos-os-episodios",
      "texto_original": "Kamikaze Kaitou Jeanne",
      "rating": 7.52,
      "classificacao_etaria": "A14",
      "imagem_original": "https://animefire.plus/img/animes/kamikaze-kaitou-jeanne.webp",
      "imagem_pasta": "https://animefire.plus/img/animes/kamikaze-kaitou-jeanne/",
      "secao": "legendados",
      "pagina": 114,
      "total_episodios": 0,
      "link_video": "https://animefire.plus/video/kamikaze-kaitou-jeanne"
    },
    {
      "id": 1852,
      "nome": "Kaminaki Sekai no Kamisama Katsudou",
      "link": "https://animefire.plus/animes/kaminaki-sekai-no-kamisama-katsudou-todos-os-episodios",
      "texto_original": "Kaminaki Sekai no Kamisama Katsudou",
      "rating": 6.68,
      "classificacao_etaria": "A16",
      "imagem_original": "https://animefire.plus/img/animes/kaminaki-sekai-no-kamisama-katsudou.jpg",
      "imagem_pasta": "https://animefire.plus/img/animes/kaminaki-sekai-no-kamisama-katsudou/",
      "secao": "legendados",
      "pagina": 24,
      "total_episodios": 12,
      "link_video": "https://animefire.plus/video/kaminaki-sekai-no-kamisama-katsudou"
    },
    {
      "id": 1853,
      "nome": "Kamisama Dolls",
      "link": "https://animefire.plus/animes/kamisama-dolls-todos-os-episodios",
      "texto_original": "Kamisama Dolls",
      "rating": 7.08,
      "classificacao_etaria": "A16",
      "imagem_original": "https://animefire.plus/img/animes/kamisama-dolls.webp",
      "imagem_pasta": "https://animefire.plus/img/animes/kamisama-dolls/",
      "secao": "legendados",
      "pagina": 91,
      "total_episodios": 13,
      "link_video": "https://animefire.plus/video/kamisama-dolls"
    },
    {
      "id": 1854,
      "nome": "Kamisama Hajimemashita (Dublado)",
      "link": "https://animefire.plus/animes/kamisama-hajimemashita-dublado-todos-os-episodios",
      "texto_original": "Kamisama Hajimemashita (Dublado)",
      "rating": 8.1,
      "classificacao_etaria": "A14",
      "imagem_original": "https://animefire.plus/img/animes/kamisama-hajimemashita.webp",
      "imagem_pasta": "https://animefire.plus/img/animes/kamisama-hajimemashita/",
      "secao": "dublados,legendados",
      "pagina": 4,
      "total_episodios": 5,
      "link_video": "https://animefire.plus/video/kamisama-hajimemashita-dublado"
    },
    {
      "id": 1855,
      "nome": "Kamisama Hajimemashita: Kako-hen",
      "link": "https://animefire.plus/animes/kamisama-hajimemashita-kako-hen-todos-os-episodios",
      "texto_original": "Kamisama Hajimemashita: Kako-hen",
      "rating": 8.4,
      "classificacao_etaria": "A14",
      "imagem_original": "https://animefire.plus/img/animes/kamisama-hajimemashita-kako-hen.webp",
      "imagem_pasta": "https://animefire.plus/img/animes/kamisama-hajimemashita-kako-hen/",
      "secao": "legendados",
      "pagina": 56,
      "total_episodios": 1,
      "link_video": "https://animefire.plus/video/kamisama-hajimemashita-kako-hen"
    },
    {
      "id": 1856,
      "nome": "Kamisama Hajimemashita◎",
      "link": "https://animefire.plus/animes/kamisama-kiss-season-2-todos-os-episodios",
      "texto_original": "Kamisama Hajimemashita◎",
      "rating": 8.19,
      "classificacao_etaria": "A14",
      "imagem_original": "https://animefire.plus/img/animes/kamisama-kiss-season-2.webp",
      "imagem_pasta": "https://animefire.plus/img/animes/kamisama-kiss-season-2/",
      "secao": "legendados",
      "pagina": 72,
      "total_episodios": 12,
      "link_video": "https://animefire.plus/video/kamisama-kiss-season-2"
    },
    {
      "id": 1857,
      "nome": "Kamisama Kazoku",
      "link": "https://animefire.plus/animes/kamisama-kazoku-todos-os-episodios",
      "texto_original": "Kamisama Kazoku",
      "rating": 7.2,
      "classificacao_etaria": "A14",
      "imagem_original": "https://animefire.plus/img/animes/kamisama-kazoku.webp",
      "imagem_pasta": "https://animefire.plus/img/animes/kamisama-kazoku/",
      "secao": "legendados",
      "pagina": 144,
      "total_episodios": 13,
      "link_video": "https://animefire.plus/video/kamisama-kazoku"
    },
    {
      "id": 1858,
      "nome": "Kamisama Minarai: Himitsu no Cocotama",
      "link": "https://animefire.plus/animes/kamisama-minarai-himitsu-no-cocotama-todos-os-episodios",
      "texto_original": "Kamisama Minarai: Himitsu no Cocotama",
      "rating": 6.24,
      "classificacao_etaria": "A10",
      "imagem_original": "https://animefire.plus/img/animes/kamisama-minarai-himitsu-no-cocotama.webp",
      "imagem_pasta": "https://animefire.plus/img/animes/kamisama-minarai-himitsu-no-cocotama/",
      "secao": "legendados",
      "pagina": 133,
      "total_episodios": 1,
      "link_video": "https://animefire.plus/video/kamisama-minarai-himitsu-no-cocotama"
    },
    {
      "id": 1859,
      "nome": "Kamisama ni Natta Hi",
      "link": "https://animefire.plus/animes/kamisama-ni-natta-hi-todos-os-episodios",
      "texto_original": "Kamisama ni Natta Hi",
      "rating": null,
      "classificacao_etaria": "A14",
      "imagem_original": "https://animefire.plus/img/animes/kamisama-ni-natta-hi.webp",
      "imagem_pasta": "https://animefire.plus/img/animes/kamisama-ni-natta-hi/",
      "secao": "legendados",
      "pagina": 52,
      "total_episodios": 12,
      "link_video": "https://animefire.plus/video/kamisama-ni-natta-hi"
    },
    {
      "id": 1860,
      "nome": "Kamisama No Inai Nichiyoubi",
      "link": "https://animefire.plus/animes/kamisama-no-inai-nichiyoubi-todos-os-episodios",
      "texto_original": "Kamisama No Inai Nichiyoubi",
      "rating": 7.43,
      "classificacao_etaria": "A16",
      "imagem_original": "https://animefire.plus/img/animes/kamisama-no-inai-nichiyoubi.webp",
      "imagem_pasta": "https://animefire.plus/img/animes/kamisama-no-inai-nichiyoubi/",
      "secao": "legendados",
      "pagina": 96,
      "total_episodios": 9,
      "link_video": "https://animefire.plus/video/kamisama-no-inai-nichiyoubi"
    }
  ],
  "pagination": {
    "current_page": 93,
    "per_page": 20,
    "total_items": 4368,
    "total_pages": 219,
    "has_next": true,
    "has_prev": true
  }
}
