{
  "message": "Lista de animes",
  "data": [
    {
      "id": 1041,
      "nome": "Full Metal Panic!",
      "link": "https://animefire.plus/animes/full-metal-panic-todos-os-episodios",
      "texto_original": "Full Metal Panic!",
      "rating": 7.73,
      "classificacao_etaria": "A16",
      "imagem_original": "https://animefire.plus/img/animes/full-metal-panic.webp",
      "imagem_pasta": "https://animefire.plus/img/animes/full-metal-panic/",
      "secao": "legendados",
      "pagina": 167,
      "total_episodios": 24,
      "link_video": "https://animefire.plus/video/full-metal-panic"
    },
    {
      "id": 1042,
      "nome": "Full Metal Panic! Invisible Victory",
      "link": "https://animefire.plus/animes/full-metal-panic-invisible-victory-todos-os-episodios",
      "texto_original": "Full Metal Panic! Invisible Victory",
      "rating": 7.66,
      "classificacao_etaria": "A16",
      "imagem_original": "https://animefire.plus/img/animes/full-metal-panic-invisible-victory.webp",
      "imagem_pasta": "https://animefire.plus/img/animes/full-metal-panic-invisible-victory/",
      "secao": "legendados",
      "pagina": 134,
      "total_episodios": 12,
      "link_video": "https://animefire.plus/video/full-metal-panic-invisible-victory"
    },
    {
      "id": 1043,
      "nome": "Full Metal Panic! The Second Raid",
      "link": "https://animefire.plus/animes/full-metal-panic-the-second-raid-todos-os-episodios",
      "texto_original": "Full Metal Panic! The Second Raid",
      "rating": 8.01,
      "classificacao_etaria": "A16",
      "imagem_original": "https://animefire.plus/img/animes/full-metal-panic-the-second-raid.webp",
      "imagem_pasta": "https://animefire.plus/img/animes/full-metal-panic-the-second-raid/",
      "secao": "legendados",
      "pagina": 120,
      "total_episodios": 12,
      "link_video": "https://animefire.plus/video/full-metal-panic-the-second-raid"
    },
    {
      "id": 1044,
      "nome": "Full Metal Panic? Fumoffu",
      "link": "https://animefire.plus/animes/full-metal-panic-fumoffu-todos-os-episodios",
      "texto_original": "Full Metal Panic? Fumoffu",
      "rating": 8.13,
      "classificacao_etaria": "A14",
      "imagem_original": "https://animefire.plus/img/animes/full-metal-panic-fumoffu.webp",
      "imagem_pasta": "https://animefire.plus/img/animes/full-metal-panic-fumoffu/",
      "secao": "legendados",
      "pagina": 137,
      "total_episodios": 12,
      "link_video": "https://animefire.plus/video/full-metal-panic-fumoffu"
    },
    {
      "id": 1045,
      "nome": "Full Moon wo Sagashite",
      "link": "https://animefire.plus/animes/full-moon-wo-sagashite-todos-os-episodios",
      "texto_original": "Full Moon wo Sagashite",
      "rating": 8.03,
      "classificacao_etaria": "A14",
      "imagem_original": "https://animefire.plus/img/animes/full-moon-wo-sagashite.webp",
      "imagem_pasta": "https://animefire.plus/img/animes/full-moon-wo-sagashite/",
      "secao": "legendados",
      "pagina": 171,
      "total_episodios": 52,
      "link_video": "https://animefire.plus/video/full-moon-wo-sagashite"
    },
    {
      "id": 1046,
      "nome": "Fullmetal Alchemist (Dublado)",
      "link": "https://animefire.plus/animes/fullmetal-alchemist-dublado-todos-os-episodios",
      "texto_original": "Fullmetal Alchemist (Dublado)",
      "rating": 8.22,
      "classificacao_etaria": "A16",
      "imagem_original": "https://animefire.plus/img/animes/fullmetal-alchemist.webp",
      "imagem_pasta": "https://animefire.plus/img/animes/fullmetal-alchemist/",
      "secao": "dublados,legendados",
      "pagina": 21,
      "total_episodios": 51,
      "link_video": "https://animefire.plus/video/fullmetal-alchemist-dublado"
    },
    {
      "id": 1047,
      "nome": "Fullmetal Alchemist: Brotherhood (Dublado)",
      "link": "https://animefire.plus/animes/fullmetal-alchemist-brotherhood-dublado-todos-os-episodios",
      "texto_original": "Fullmetal Alchemist: Brotherhood (Dublado)",
      "rating": 9.23,
      "classificacao_etaria": "A16",
      "imagem_original": "https://animefire.plus/img/animes/fullmetal-alchemist-brotherhood.webp",
      "imagem_pasta": "https://animefire.plus/img/animes/fullmetal-alchemist-brotherhood/",
      "secao": "dublados",
      "pagina": 25,
      "total_episodios": 64,
      "link_video": "https://animefire.plus/video/fullmetal-alchemist-brotherhood-dublado"
    },
    {
      "id": 1048,
      "nome": "Fumetsu no Anata e (Dublado)",
      "link": "https://animefire.plus/animes/fumetsu-no-anata-e-dublado-todos-os-episodios",
      "texto_original": "Fumetsu no Anata e (Dublado)",
      "rating": 8.34,
      "classificacao_etaria": "A16",
      "imagem_original": "https://animefire.plus/img/animes/fumetsu-no-anata-e.webp",
      "imagem_pasta": "https://animefire.plus/img/animes/fumetsu-no-anata-e/",
      "secao": "dublados,legendados",
      "pagina": 17,
      "total_episodios": 20,
      "link_video": "https://animefire.plus/video/fumetsu-no-anata-e-dublado"
    },
    {
      "id": 1049,
      "nome": "Fumetsu no Anata e 2nd Season (Dublado)",
      "link": "https://animefire.plus/animes/fumetsu-no-anata-e-2nd-season-dublado-todos-os-episodios",
      "texto_original": "Fumetsu no Anata e 2nd Season (Dublado)",
      "rating": 8.1,
      "classificacao_etaria": "A16",
      "imagem_original": "https://animefire.plus/img/animes/fumetsu-no-anata-e-2nd-season.webp",
      "imagem_pasta": "https://animefire.plus/img/animes/fumetsu-no-anata-e-2nd-season/",
      "secao": "dublados,legendados",
      "pagina": 8,
      "total_episodios": 20,
      "link_video": "https://animefire.plus/video/fumetsu-no-anata-e-2nd-season-dublado"
    },
    {
      "id": 1050,
      "nome": "Fumikiri Jikan",
      "link": "https://animefire.plus/animes/fumikiri-jikan-todos-os-episodios",
      "texto_original": "Fumikiri Jikan",
      "rating": 6.45,
      "classificacao_etaria": "A14",
      "imagem_original": "https://animefire.plus/img/animes/fumikiri-jikan.webp",
      "imagem_pasta": "https://animefire.plus/img/animes/fumikiri-jikan/",
      "secao": "legendados",
      "pagina": 142,
      "total_episodios": 12,
      "link_video": "https://animefire.plus/video/fumikiri-jikan"
    },
    {
      "id": 1051,
      "nome": "Fumiko no Kokuhaku",
      "link": "https://animefire.plus/animes/fumiko-no-kokuhaku-todos-os-episodios",
      "texto_original": "Fumiko no Kokuhaku",
      "rating": 6.68,
      "classificacao_etaria": "A14",
      "imagem_original": "https://animefire.plus/img/animes/fumiko-no-kokuhaku.webp",
      "imagem_pasta": "https://animefire.plus/img/animes/fumiko-no-kokuhaku/",
      "secao": "legendados",
      "pagina": 54,
      "total_episodios": 1,
      "link_video": "https://animefire.plus/video/fumiko-no-kokuhaku"
    },
    {
      "id": 1052,
      "nome": "Fune wo Amu",
      "link": "https://animefire.plus/animes/fune-wo-amu-todos-os-episodios",
      "texto_original": "Fune wo Amu",
      "rating": 7.68,
      "classificacao_etaria": "A14",
      "imagem_original": "https://animefire.plus/img/animes/fune-wo-amu.webp",
      "imagem_pasta": "https://animefire.plus/img/animes/fune-wo-amu/",
      "secao": "legendados",
      "pagina": 133,
      "total_episodios": 11,
      "link_video": "https://animefire.plus/video/fune-wo-amu"
    },
    {
      "id": 1053,
      "nome": "Fushigi Na Somera-chan",
      "link": "https://animefire.plus/animes/fushigi-na-somera-chan-todos-os-episodios",
      "texto_original": "Fushigi Na Somera-chan",
      "rating": 5.91,
      "classificacao_etaria": "A14",
      "imagem_original": "https://animefire.plus/img/animes/fushigi-na-somera-chan.webp",
      "imagem_pasta": "https://animefire.plus/img/animes/fushigi-na-somera-chan/",
      "secao": "legendados",
      "pagina": 97,
      "total_episodios": 12,
      "link_video": "https://animefire.plus/video/fushigi-na-somera-chan"
    },
    {
      "id": 1054,
      "nome": "Fushigi no Umi no Nadia",
      "link": "https://animefire.plus/animes/fushigi-no-umi-no-nadia-todos-os-episodios",
      "texto_original": "Fushigi no Umi no Nadia",
      "rating": 7.56,
      "classificacao_etaria": "A14",
      "imagem_original": "https://animefire.plus/img/animes/fushigi-no-umi-no-nadia.webp",
      "imagem_pasta": "https://animefire.plus/img/animes/fushigi-no-umi-no-nadia/",
      "secao": "legendados",
      "pagina": 64,
      "total_episodios": 39,
      "link_video": "https://animefire.plus/video/fushigi-no-umi-no-nadia"
    },
    {
      "id": 1055,
      "nome": "Fushigi Yuugi",
      "link": "https://animefire.plus/animes/fushigi-yuugi-todos-os-episodios",
      "texto_original": "Fushigi Yuugi",
      "rating": 7.74,
      "classificacao_etaria": "A14",
      "imagem_original": "https://animefire.plus/img/animes/fushigi-yuugi.webp",
      "imagem_pasta": "https://animefire.plus/img/animes/fushigi-yuugi/",
      "secao": "legendados",
      "pagina": 150,
      "total_episodios": 52,
      "link_video": "https://animefire.plus/video/fushigi-yuugi"
    },
    {
      "id": 1056,
      "nome": "Futakoi",
      "link": "https://animefire.plus/animes/futakoi-todos-os-episodios",
      "texto_original": "Futakoi",
      "rating": 6.56,
      "classificacao_etaria": "A14",
      "imagem_original": "https://animefire.plus/img/animes/futakoi.webp",
      "imagem_pasta": "https://animefire.plus/img/animes/futakoi/",
      "secao": "legendados",
      "pagina": 174,
      "total_episodios": 13,
      "link_video": "https://animefire.plus/video/futakoi"
    },
    {
      "id": 1057,
      "nome": "Futakoi Alternative",
      "link": "https://animefire.plus/animes/futakoi-alternative-todos-os-episodios",
      "texto_original": "Futakoi Alternative",
      "rating": 6.97,
      "classificacao_etaria": "A14",
      "imagem_original": "https://animefire.plus/img/animes/futakoi-alternative.webp",
      "imagem_pasta": "https://animefire.plus/img/animes/futakoi-alternative/",
      "secao": "legendados",
      "pagina": 151,
      "total_episodios": 13,
      "link_video": "https://animefire.plus/video/futakoi-alternative"
    },
    {
      "id": 1058,
      "nome": "Futari Ecchi (2014)",
      "link": "https://animefire.plus/animes/futari-ecchi-2014-todos-os-episodios",
      "texto_original": "Futari Ecchi (2014)",
      "rating": 6.23,
      "classificacao_etaria": "A18",
      "imagem_original": "https://animefire.plus/img/animes/futari-ecchi-2014.webp",
      "imagem_pasta": "https://animefire.plus/img/animes/futari-ecchi-2014/",
      "secao": "legendados",
      "pagina": 70,
      "total_episodios": 1,
      "link_video": "https://animefire.plus/video/futari-ecchi-2014"
    },
    {
      "id": 1059,
      "nome": "Futari Solo Camp",
      "link": "https://animefire.plus/animes/futari-solo-camp-todos-os-episodios",
      "texto_original": "Futari Solo Camp",
      "rating": 6.52,
      "classificacao_etaria": "A14",
      "imagem_original": "https://animefire.plus/img/animes/futari-solo-camp.webp",
      "imagem_pasta": "https://animefire.plus/img/animes/futari-solo-camp/",
      "secao": "legendados,lancamentos",
      "pagina": 1,
      "total_episodios": 4,
      "link_video": "https://animefire.plus/video/futari-solo-camp"
    },
    {
      "id": 1060,
      "nome": "Futari wa Milky Holmes",
      "link": "https://animefire.plus/animes/futari-wa-milky-holmes-todos-os-episodios",
      "texto_original": "Futari wa Milky Holmes",
      "rating": 5.82,
      "classificacao_etaria": "A14",
      "imagem_original": "https://animefire.plus/img/animes/futari-wa-milky-holmes.webp",
      "imagem_pasta": "https://animefire.plus/img/animes/futari-wa-milky-holmes/",
      "secao": "legendados",
      "pagina": 83,
      "total_episodios": 12,
      "link_video": "https://animefire.plus/video/futari-wa-milky-holmes"
    }
  ],
  "pagination": {
    "current_page": 53,
    "per_page": 20,
    "total_items": 4368,
    "total_pages": 219,
    "has_next": true,
    "has_prev": true
  }
}
