{
  "message": "Lista de animes",
  "data": [
    {
      "id": 3381,
      "nome": "Shakunetsu Kabaddi",
      "link": "https://animefire.plus/animes/shakunetsu-kabaddi-todos-os-episodios",
      "texto_original": "Shakunetsu Kabaddi",
      "rating": 7.01,
      "classificacao_etaria": "A14",
      "imagem_original": "https://animefire.plus/img/animes/shakunetsu-kabaddi.webp",
      "imagem_pasta": "https://animefire.plus/img/animes/shakunetsu-kabaddi/",
      "secao": "legendados",
      "pagina": 47,
      "total_episodios": 12,
      "link_video": "https://animefire.plus/video/shakunetsu-kabaddi"
    },
    {
      "id": 3382,
      "nome": "Shakunetsu no Takkyuu Musume",
      "link": "https://animefire.plus/animes/shakunetsu-no-takkyuu-musume-todos-os-episodios",
      "texto_original": "Shakunetsu no Takkyuu Musume",
      "rating": 7.14,
      "classificacao_etaria": "A14",
      "imagem_original": "https://animefire.plus/img/animes/shakunetsu-no-takkyuu-musume.webp",
      "imagem_pasta": "https://animefire.plus/img/animes/shakunetsu-no-takkyuu-musume/",
      "secao": "legendados",
      "pagina": 143,
      "total_episodios": 10,
      "link_video": "https://animefire.plus/video/shakunetsu-no-takkyuu-musume"
    },
    {
      "id": 3383,
      "nome": "Shaman King (2021) (Dublado)",
      "link": "https://animefire.plus/animes/shaman-king-2021-dublado-todos-os-episodios",
      "texto_original": "Shaman King (2021) (Dublado)",
      "rating": 6.9,
      "classificacao_etaria": "A14",
      "imagem_original": "https://animefire.plus/img/animes/shaman-king-2021.webp",
      "imagem_pasta": "https://animefire.plus/img/animes/shaman-king-2021/",
      "secao": "dublados,legendados",
      "pagina": 16,
      "total_episodios": 52,
      "link_video": "https://animefire.plus/video/shaman-king-2021-dublado"
    },
    {
      "id": 3384,
      "nome": "Shaman King (Dublado)",
      "link": "https://animefire.plus/animes/shaman-king-dublado-todos-os-episodios",
      "texto_original": "Shaman King (Dublado)",
      "rating": 7.79,
      "classificacao_etaria": "A14",
      "imagem_original": "https://animefire.plus/img/animes/shaman-king.webp",
      "imagem_pasta": "https://animefire.plus/img/animes/shaman-king/",
      "secao": "dublados,legendados",
      "pagina": 22,
      "total_episodios": 64,
      "link_video": "https://animefire.plus/video/shaman-king-dublado"
    },
    {
      "id": 3385,
      "nome": "Shaman King: Flowers (Dublado)",
      "link": "https://animefire.plus/animes/shaman-king-flowers-dublado-todos-os-episodios",
      "texto_original": "Shaman King: Flowers (Dublado)",
      "rating": 6.57,
      "classificacao_etaria": "A14",
      "imagem_original": "https://animefire.plus/img/animes/shaman-king-flowers.webp",
      "imagem_pasta": "https://animefire.plus/img/animes/shaman-king-flowers/",
      "secao": "dublados,legendados,lancamentos",
      "pagina": 3,
      "total_episodios": 12,
      "link_video": "https://animefire.plus/video/shaman-king-flowers-dublado"
    },
    {
      "id": 3386,
      "nome": "Shangri-La",
      "link": "https://animefire.plus/animes/shangri-la-todos-os-episodios",
      "texto_original": "Shangri-La",
      "rating": 7.11,
      "classificacao_etaria": "A14",
      "imagem_original": "https://animefire.plus/img/animes/shangri-la.webp",
      "imagem_pasta": "https://animefire.plus/img/animes/shangri-la/",
      "secao": "legendados",
      "pagina": 151,
      "total_episodios": 24,
      "link_video": "https://animefire.plus/video/shangri-la"
    },
    {
      "id": 3387,
      "nome": "Shangri-La Frontier: Kusoge Hunter, Kamige ni Idoman to su (Dublado)",
      "link": "https://animefire.plus/animes/shangri-la-frontier-kusoge-hunter-kamige-ni-idoman-to-su-dublado-todos-os-episodios",
      "texto_original": "Shangri-La Frontier: Kusoge Hunter, Kamige ni Idoman to su (Dublado)",
      "rating": 8.1,
      "classificacao_etaria": "A14",
      "imagem_original": "https://animefire.plus/img/animes/shangri-la-frontier-kusoge-hunter-kamige-ni-idoman-to-su.webp",
      "imagem_pasta": "https://animefire.plus/img/animes/shangri-la-frontier-kusoge-hunter-kamige-ni-idoman-to-su/",
      "secao": "dublados,legendados",
      "pagina": 3,
      "total_episodios": 25,
      "link_video": "https://animefire.plus/video/shangri-la-frontier-kusoge-hunter-kamige-ni-idoman-to-su-dublado"
    },
    {
      "id": 3388,
      "nome": "Shangri-La Frontier: Kusoge Hunter, Kamige ni Idoman to su 2nd Season (Dublado)",
      "link": "https://animefire.plus/animes/shangri-la-frontier-kusoge-hunter-kamige-ni-idoman-to-su-2nd-season-dublado-todos-os-episodios",
      "texto_original": "Shangri-La Frontier: Kusoge Hunter, Kamige ni Idoman to su 2nd Season (Dublado)",
      "rating": 8.27,
      "classificacao_etaria": "A14",
      "imagem_original": "https://animefire.plus/img/animes/shangri-la-frontier-kusoge-hunter-kamige-ni-idoman-to-su-2nd-season.webp",
      "imagem_pasta": "https://animefire.plus/img/animes/shangri-la-frontier-kusoge-hunter-kamige-ni-idoman-to-su-2nd-season/",
      "secao": "dublados,legendados,lancamentos",
      "pagina": 2,
      "total_episodios": 25,
      "link_video": "https://animefire.plus/video/shangri-la-frontier-kusoge-hunter-kamige-ni-idoman-to-su-2nd-season-dublado"
    },
    {
      "id": 3389,
      "nome": "Shao Nu Qian Xian Ren Xing Xiao Ju Chang",
      "link": "https://animefire.plus/animes/shao-nu-qian-xian-ren-xing-xiao-ju-chang-todos-os-episodios",
      "texto_original": "Shao Nu Qian Xian Ren Xing Xiao Ju Chang",
      "rating": 6.73,
      "classificacao_etaria": "A14",
      "imagem_original": "https://animefire.plus/img/animes/shao-nu-qian-xian-ren-xing-xiao-ju-chang.webp",
      "imagem_pasta": "https://animefire.plus/img/animes/shao-nu-qian-xian-ren-xing-xiao-ju-chang/",
      "secao": "legendados",
      "pagina": 80,
      "total_episodios": 12,
      "link_video": "https://animefire.plus/video/shao-nu-qian-xian-ren-xing-xiao-ju-chang"
    },
    {
      "id": 3390,
      "nome": "Shelter",
      "link": "https://animefire.plus/animes/shelter-todos-os-episodios",
      "texto_original": "Shelter",
      "rating": 8.41,
      "classificacao_etaria": null,
      "imagem_original": "https://animefire.plus/img/animes/shelter.webp",
      "imagem_pasta": "https://animefire.plus/img/animes/shelter/",
      "secao": "legendados",
      "pagina": 119,
      "total_episodios": 1,
      "link_video": "https://animefire.plus/video/shelter"
    },
    {
      "id": 3391,
      "nome": "Shen Ming Zhi Zhou",
      "link": "https://animefire.plus/animes/shen-ming-zhi-zhou-todos-os-episodios",
      "texto_original": "Shen Ming Zhi Zhou",
      "rating": 6.51,
      "classificacao_etaria": "A14",
      "imagem_original": "https://animefire.plus/img/animes/shen-ming-zhi-zhou.webp",
      "imagem_pasta": "https://animefire.plus/img/animes/shen-ming-zhi-zhou/",
      "secao": "legendados",
      "pagina": 149,
      "total_episodios": 12,
      "link_video": "https://animefire.plus/video/shen-ming-zhi-zhou"
    },
    {
      "id": 3392,
      "nome": "Shenmue the Animation",
      "link": "https://animefire.plus/animes/shenmue-the-animation-todos-os-episodios",
      "texto_original": "Shenmue the Animation",
      "rating": 6.67,
      "classificacao_etaria": "A16",
      "imagem_original": "https://animefire.plus/img/animes/shenmue-the-animation.webp",
      "imagem_pasta": "https://animefire.plus/img/animes/shenmue-the-animation/",
      "secao": "legendados",
      "pagina": 34,
      "total_episodios": 13,
      "link_video": "https://animefire.plus/video/shenmue-the-animation"
    },
    {
      "id": 3393,
      "nome": "Shi Cao Lao Long Bei Guan Yi E Long Zhi Ming 2nd Season",
      "link": "https://animefire.plus/animes/shi-cao-lao-long-bei-guan-yi-e-long-zhi-ming-2nd-season-todos-os-episodios",
      "texto_original": "Shi Cao Lao Long Bei Guan Yi E Long Zhi Ming 2nd Season",
      "rating": 6.79,
      "classificacao_etaria": "A14",
      "imagem_original": "https://animefire.plus/img/animes/shi-cao-lao-long-bei-guan-yi-e-long-zhi-ming-2nd-season.webp",
      "imagem_pasta": "https://animefire.plus/img/animes/shi-cao-lao-long-bei-guan-yi-e-long-zhi-ming-2nd-season/",
      "secao": "legendados,lancamentos",
      "pagina": 9,
      "total_episodios": 4,
      "link_video": "https://animefire.plus/video/shi-cao-lao-long-bei-guan-yi-e-long-zhi-ming-2nd-season"
    },
    {
      "id": 3394,
      "nome": "Shi Xiong",
      "link": "https://animefire.plus/animes/shi-xiong-todos-os-episodios",
      "texto_original": "Shi Xiong",
      "rating": 6.79,
      "classificacao_etaria": "A16",
      "imagem_original": "https://animefire.plus/img/animes/shi-xiong.webp",
      "imagem_pasta": "https://animefire.plus/img/animes/shi-xiong/",
      "secao": "legendados",
      "pagina": 114,
      "total_episodios": 32,
      "link_video": "https://animefire.plus/video/shi-xiong"
    },
    {
      "id": 3395,
      "nome": "Shi Yi Chang An: Ming Yue Ji Shi You",
      "link": "https://animefire.plus/animes/shi-yi-chang-an-ming-yue-ji-shi-you-todos-os-episodios",
      "texto_original": "Shi Yi Chang An: Ming Yue Ji Shi You",
      "rating": null,
      "classificacao_etaria": "A14",
      "imagem_original": "https://animefire.plus/img/animes/shi-yi-chang-an-ming-yue-ji-shi-you.webp",
      "imagem_pasta": "https://animefire.plus/img/animes/shi-yi-chang-an-ming-yue-ji-shi-you/",
      "secao": "legendados,lancamentos",
      "pagina": 50,
      "total_episodios": 7,
      "link_video": "https://animefire.plus/video/shi-yi-chang-an-ming-yue-ji-shi-you"
    },
    {
      "id": 3396,
      "nome": "Shibuya♡Hachi Part 3",
      "link": "https://animefire.plus/animes/shibuya-hachi-part-3-todos-os-episodios",
      "texto_original": "Shibuya♡Hachi Part 3",
      "rating": null,
      "classificacao_etaria": null,
      "imagem_original": "https://animefire.plus/img/animes/shibuya-hachi-part-3.webp",
      "imagem_pasta": "https://animefire.plus/img/animes/shibuya-hachi-part-3/",
      "secao": "legendados,lancamentos",
      "pagina": 4,
      "total_episodios": 0,
      "link_video": "https://animefire.plus/video/shibuya-hachi-part-3"
    },
    {
      "id": 3397,
      "nome": "Shichisei no Subaru",
      "link": "https://animefire.plus/animes/shichisei-no-subaru-todos-os-episodios",
      "texto_original": "Shichisei no Subaru",
      "rating": 6.26,
      "classificacao_etaria": "A14",
      "imagem_original": "https://animefire.plus/img/animes/shichisei-no-subaru.webp",
      "imagem_pasta": "https://animefire.plus/img/animes/shichisei-no-subaru/",
      "secao": "legendados",
      "pagina": 144,
      "total_episodios": 12,
      "link_video": "https://animefire.plus/video/shichisei-no-subaru"
    },
    {
      "id": 3398,
      "nome": "Shigatsu Wa Kimi No Uso",
      "link": "https://animefire.plus/animes/shigatsu-wa-kimi-no-uso-todos-os-episodios",
      "texto_original": "Shigatsu Wa Kimi No Uso",
      "rating": 8.84,
      "classificacao_etaria": "A14",
      "imagem_original": "https://animefire.plus/img/animes/shigatsu-wa-kimi-no-uso.webp",
      "imagem_pasta": "https://animefire.plus/img/animes/shigatsu-wa-kimi-no-uso/",
      "secao": "legendados",
      "pagina": 97,
      "total_episodios": 0,
      "link_video": "https://animefire.plus/video/shigatsu-wa-kimi-no-uso"
    },
    {
      "id": 3399,
      "nome": "Shigatsu wa Kimi no Uso: Moments",
      "link": "https://animefire.plus/animes/shigatsu-wa-kimi-no-uso-moments-todos-os-episodios",
      "texto_original": "Shigatsu wa Kimi no Uso: Moments",
      "rating": 7.73,
      "classificacao_etaria": "A14",
      "imagem_original": "https://animefire.plus/img/animes/shigatsu-wa-kimi-no-uso-moments.webp",
      "imagem_pasta": "https://animefire.plus/img/animes/shigatsu-wa-kimi-no-uso-moments/",
      "secao": "legendados",
      "pagina": 54,
      "total_episodios": 1,
      "link_video": "https://animefire.plus/video/shigatsu-wa-kimi-no-uso-moments"
    },
    {
      "id": 3400,
      "nome": "Shigofumi",
      "link": "https://animefire.plus/animes/shigofumi-todos-os-episodios",
      "texto_original": "Shigofumi",
      "rating": 7.54,
      "classificacao_etaria": "A16",
      "imagem_original": "https://animefire.plus/img/animes/shigofumi.webp",
      "imagem_pasta": "https://animefire.plus/img/animes/shigofumi/",
      "secao": "legendados",
      "pagina": 157,
      "total_episodios": 12,
      "link_video": "https://animefire.plus/video/shigofumi"
    }
  ],
  "pagination": {
    "current_page": 170,
    "per_page": 20,
    "total_items": 4368,
    "total_pages": 219,
    "has_next": true,
    "has_prev": true
  }
}
