{
  "message": "Lista de animes",
  "data": [
    {
      "id": 3001,
      "nome": "Pokemon Best Wishes! Season 2",
      "link": "https://animefire.plus/animes/pokemon-best-wishes-season-2-todos-os-episodios",
      "texto_original": "Pokemon Best Wishes! Season 2",
      "rating": 6.59,
      "classificacao_etaria": "A10",
      "imagem_original": "https://animefire.plus/img/animes/pokemon-best-wishes-season-2.webp",
      "imagem_pasta": "https://animefire.plus/img/animes/pokemon-best-wishes-season-2/",
      "secao": "legendados",
      "pagina": 129,
      "total_episodios": 3,
      "link_video": "https://animefire.plus/video/pokemon-best-wishes-season-2"
    },
    {
      "id": 3002,
      "nome": "Pokemon Diamond & Pearl",
      "link": "https://animefire.plus/animes/pokemon-diamond-pearl-todos-os-episodios",
      "texto_original": "Pokemon Diamond & Pearl",
      "rating": 7.24,
      "classificacao_etaria": "A10",
      "imagem_original": "https://animefire.plus/img/animes/pokemon-diamond-pearl.webp",
      "imagem_pasta": "https://animefire.plus/img/animes/pokemon-diamond-pearl/",
      "secao": "legendados",
      "pagina": 126,
      "total_episodios": 186,
      "link_video": "https://animefire.plus/video/pokemon-diamond-pearl"
    },
    {
      "id": 3003,
      "nome": "Pokemon Legends Arceus: Yuki Hodo Kishi Futaai",
      "link": "https://animefire.plus/animes/pokemon-legends-arceus-yuki-hodo-kishi-futaai-todos-os-episodios",
      "texto_original": "Pokemon Legends Arceus: Yuki Hodo Kishi Futaai",
      "rating": 7.41,
      "classificacao_etaria": "A10",
      "imagem_original": "https://animefire.plus/img/animes/pokemon-legends-arceus-yuki-hodo-kishi-futaai.webp",
      "imagem_pasta": "https://animefire.plus/img/animes/pokemon-legends-arceus-yuki-hodo-kishi-futaai/",
      "secao": "legendados",
      "pagina": 32,
      "total_episodios": 3,
      "link_video": "https://animefire.plus/video/pokemon-legends-arceus-yuki-hodo-kishi-futaai"
    },
    {
      "id": 3004,
      "nome": "Pokemon Movie 21: Minna no Monogatari",
      "link": "https://animefire.plus/animes/pokemon-movie-21-minna-no-monogatari-todos-os-episodios",
      "texto_original": "Pokemon Movie 21: Minna no Monogatari",
      "rating": 7.37,
      "classificacao_etaria": "A10",
      "imagem_original": "https://animefire.plus/img/animes/pokemon-movie-21-minna-no-monogatari.webp",
      "imagem_pasta": "https://animefire.plus/img/animes/pokemon-movie-21-minna-no-monogatari/",
      "secao": "legendados",
      "pagina": 104,
      "total_episodios": 3,
      "link_video": "https://animefire.plus/video/pokemon-movie-21-minna-no-monogatari"
    },
    {
      "id": 3005,
      "nome": "Pokemon Sun & Moon",
      "link": "https://animefire.plus/animes/pokemon-sun-moon-todos-os-episodios",
      "texto_original": "Pokemon Sun & Moon",
      "rating": 6.79,
      "classificacao_etaria": "A10",
      "imagem_original": "https://animefire.plus/img/animes/pokemon-sun-moon.webp",
      "imagem_pasta": "https://animefire.plus/img/animes/pokemon-sun-moon/",
      "secao": "legendados",
      "pagina": 178,
      "total_episodios": 108,
      "link_video": "https://animefire.plus/video/pokemon-sun-moon"
    },
    {
      "id": 3006,
      "nome": "Pokemon XY (Dublado)",
      "link": "https://animefire.plus/animes/pokemon-xy-dublado-todos-os-episodios",
      "texto_original": "Pokemon XY (Dublado)",
      "rating": 7.4,
      "classificacao_etaria": "A10",
      "imagem_original": "https://animefire.plus/img/animes/pokemon-xy.webp",
      "imagem_pasta": "https://animefire.plus/img/animes/pokemon-xy/",
      "secao": "dublados,legendados",
      "pagina": 27,
      "total_episodios": 100,
      "link_video": "https://animefire.plus/video/pokemon-xy-dublado"
    },
    {
      "id": 3007,
      "nome": "Pokemon XY: Mega Evolution",
      "link": "https://animefire.plus/animes/pokemon-xy-mega-evolution-todos-os-episodios",
      "texto_original": "Pokemon XY: Mega Evolution",
      "rating": 7.5,
      "classificacao_etaria": "A10",
      "imagem_original": "https://animefire.plus/img/animes/pokemon-xy-mega-evolution.webp",
      "imagem_pasta": "https://animefire.plus/img/animes/pokemon-xy-mega-evolution/",
      "secao": "legendados",
      "pagina": 79,
      "total_episodios": 4,
      "link_video": "https://animefire.plus/video/pokemon-xy-mega-evolution"
    },
    {
      "id": 3008,
      "nome": "Pokemon XY&Z",
      "link": "https://animefire.plus/animes/pokemon-xy-z-todos-os-episodios",
      "texto_original": "Pokemon XY&Z",
      "rating": 7.7,
      "classificacao_etaria": "A10",
      "imagem_original": "https://animefire.plus/img/animes/pokemon-xy-z.webp",
      "imagem_pasta": "https://animefire.plus/img/animes/pokemon-xy-z/",
      "secao": "legendados",
      "pagina": 75,
      "total_episodios": 47,
      "link_video": "https://animefire.plus/video/pokemon-xy-z"
    },
    {
      "id": 3009,
      "nome": "Pokemon: Mezase Pokemon Master",
      "link": "https://animefire.plus/animes/pokemon-mezase-pokemon-master-todos-os-episodios",
      "texto_original": "Pokemon: Mezase Pokemon Master",
      "rating": 7.59,
      "classificacao_etaria": "A10",
      "imagem_original": "https://animefire.plus/img/animes/pokemon-mezase-pokemon-master.webp",
      "imagem_pasta": "https://animefire.plus/img/animes/pokemon-mezase-pokemon-master/",
      "secao": "legendados,lancamentos",
      "pagina": 25,
      "total_episodios": 2,
      "link_video": "https://animefire.plus/video/pokemon-mezase-pokemon-master"
    },
    {
      "id": 3010,
      "nome": "Pokemon: The Origin",
      "link": "https://animefire.plus/animes/pokemon-the-origin-todos-os-episodios",
      "texto_original": "Pokemon: The Origin",
      "rating": 7.86,
      "classificacao_etaria": "A10",
      "imagem_original": "https://animefire.plus/img/animes/pokemon-the-origin.webp",
      "imagem_pasta": "https://animefire.plus/img/animes/pokemon-the-origin/",
      "secao": "legendados",
      "pagina": 165,
      "total_episodios": 0,
      "link_video": "https://animefire.plus/video/pokemon-the-origin"
    },
    {
      "id": 3011,
      "nome": "Pon no Michi",
      "link": "https://animefire.plus/animes/pon-no-michi-todos-os-episodios",
      "texto_original": "Pon no Michi",
      "rating": 6.48,
      "classificacao_etaria": "A14",
      "imagem_original": "https://animefire.plus/img/animes/pon-no-michi.webp",
      "imagem_pasta": "https://animefire.plus/img/animes/pon-no-michi/",
      "secao": "legendados",
      "pagina": 17,
      "total_episodios": 12,
      "link_video": "https://animefire.plus/video/pon-no-michi"
    },
    {
      "id": 3012,
      "nome": "PopoloCrois",
      "link": "https://animefire.plus/animes/popolocrois-todos-os-episodios",
      "texto_original": "PopoloCrois",
      "rating": 7.09,
      "classificacao_etaria": "A10",
      "imagem_original": "https://animefire.plus/img/animes/popolocrois.webp",
      "imagem_pasta": "https://animefire.plus/img/animes/popolocrois/",
      "secao": "legendados",
      "pagina": 164,
      "total_episodios": 26,
      "link_video": "https://animefire.plus/video/popolocrois"
    },
    {
      "id": 3013,
      "nome": "Popolocrois Monogatari",
      "link": "https://animefire.plus/animes/popolocrois-monogatari-todos-os-episodios",
      "texto_original": "Popolocrois Monogatari",
      "rating": 7.17,
      "classificacao_etaria": "A10",
      "imagem_original": "https://animefire.plus/img/animes/popolocrois-monogatari.webp",
      "imagem_pasta": "https://animefire.plus/img/animes/popolocrois-monogatari/",
      "secao": "legendados",
      "pagina": 149,
      "total_episodios": 25,
      "link_video": "https://animefire.plus/video/popolocrois-monogatari"
    },
    {
      "id": 3014,
      "nome": "Popotan",
      "link": "https://animefire.plus/animes/popotan-todos-os-episodios",
      "texto_original": "Popotan",
      "rating": 6.36,
      "classificacao_etaria": "A18",
      "imagem_original": "https://animefire.plus/img/animes/popotan.webp",
      "imagem_pasta": "https://animefire.plus/img/animes/popotan/",
      "secao": "legendados",
      "pagina": 132,
      "total_episodios": 12,
      "link_video": "https://animefire.plus/video/popotan"
    },
    {
      "id": 3015,
      "nome": "Pops",
      "link": "https://animefire.plus/animes/pops-todos-os-episodios",
      "texto_original": "Pops",
      "rating": 5.61,
      "classificacao_etaria": "A14",
      "imagem_original": "https://animefire.plus/img/animes/pops.webp",
      "imagem_pasta": "https://animefire.plus/img/animes/pops/",
      "secao": "legendados",
      "pagina": 85,
      "total_episodios": 1,
      "link_video": "https://animefire.plus/video/pops"
    },
    {
      "id": 3016,
      "nome": "Poputepipikku",
      "link": "https://animefire.plus/animes/poputepipikku-todos-os-episodios",
      "texto_original": "Poputepipikku",
      "rating": 7.33,
      "classificacao_etaria": "A14",
      "imagem_original": "https://animefire.plus/img/animes/poputepipikku.webp",
      "imagem_pasta": "https://animefire.plus/img/animes/poputepipikku/",
      "secao": "legendados",
      "pagina": 155,
      "total_episodios": 12,
      "link_video": "https://animefire.plus/video/poputepipikku"
    },
    {
      "id": 3017,
      "nome": "Poputepipikku 2nd Season",
      "link": "https://animefire.plus/animes/poputepipikku-2nd-season-todos-os-episodios",
      "texto_original": "Poputepipikku 2nd Season",
      "rating": 7.53,
      "classificacao_etaria": "A14",
      "imagem_original": "https://animefire.plus/img/animes/poputepipikku-2nd-season.webp",
      "imagem_pasta": "https://animefire.plus/img/animes/poputepipikku-2nd-season/",
      "secao": "legendados",
      "pagina": 28,
      "total_episodios": 12,
      "link_video": "https://animefire.plus/video/poputepipikku-2nd-season"
    },
    {
      "id": 3018,
      "nome": "Potion-danomi de Ikinobimasu!",
      "link": "https://animefire.plus/animes/potion-danomi-de-ikinobimasu-todos-os-episodios",
      "texto_original": "Potion-danomi de Ikinobimasu!",
      "rating": 6.55,
      "classificacao_etaria": "A14",
      "imagem_original": "https://animefire.plus/img/animes/potion-danomi-de-ikinobimasu.webp",
      "imagem_pasta": "https://animefire.plus/img/animes/potion-danomi-de-ikinobimasu/",
      "secao": "legendados",
      "pagina": 20,
      "total_episodios": 12,
      "link_video": "https://animefire.plus/video/potion-danomi-de-ikinobimasu"
    },
    {
      "id": 3019,
      "nome": "Power Stone",
      "link": "https://animefire.plus/animes/power-stone-todos-os-episodios",
      "texto_original": "Power Stone",
      "rating": 6.54,
      "classificacao_etaria": "A10",
      "imagem_original": "https://animefire.plus/img/animes/power-stone.webp",
      "imagem_pasta": "https://animefire.plus/img/animes/power-stone/",
      "secao": "legendados",
      "pagina": 105,
      "total_episodios": 18,
      "link_video": "https://animefire.plus/video/power-stone"
    },
    {
      "id": 3020,
      "nome": "Poyopoyo Kansatsu Nikki",
      "link": "https://animefire.plus/animes/poyopoyo-kansatsu-nikki-todos-os-episodios",
      "texto_original": "Poyopoyo Kansatsu Nikki",
      "rating": 7.71,
      "classificacao_etaria": "A10",
      "imagem_original": "https://animefire.plus/img/animes/poyopoyo-kansatsu-nikki.webp",
      "imagem_pasta": "https://animefire.plus/img/animes/poyopoyo-kansatsu-nikki/",
      "secao": "legendados",
      "pagina": 74,
      "total_episodios": 52,
      "link_video": "https://animefire.plus/video/poyopoyo-kansatsu-nikki"
    }
  ],
  "pagination": {
    "current_page": 151,
    "per_page": 20,
    "total_items": 4368,
    "total_pages": 219,
    "has_next": true,
    "has_prev": true
  }
}
