{
  "message": "Lista de animes",
  "data": [
    {
      "id": 961,
      "nome": "Everyday Host",
      "link": "https://animefire.plus/animes/everyday-host-todos-os-episodios",
      "texto_original": "Everyday Host",
      "rating": null,
      "classificacao_etaria": "A14",
      "imagem_original": "https://animefire.plus/img/animes/everyday-host.webp",
      "imagem_pasta": "https://animefire.plus/img/animes/everyday-host/",
      "secao": "legendados,lancamentos",
      "pagina": 4,
      "total_episodios": 0,
      "link_video": "https://animefire.plus/video/everyday-host"
    },
    {
      "id": 962,
      "nome": "Evil or Live",
      "link": "https://animefire.plus/animes/evil-or-live-todos-os-episodios",
      "texto_original": "Evil or Live",
      "rating": 5.97,
      "classificacao_etaria": "A16",
      "imagem_original": "https://animefire.plus/img/animes/evil-or-live.webp",
      "imagem_pasta": "https://animefire.plus/img/animes/evil-or-live/",
      "secao": "legendados",
      "pagina": 107,
      "total_episodios": 12,
      "link_video": "https://animefire.plus/video/evil-or-live"
    },
    {
      "id": 963,
      "nome": "Ex-Arm",
      "link": "https://animefire.plus/animes/ex-arm-todos-os-episodios",
      "texto_original": "Ex-Arm",
      "rating": 2.89,
      "classificacao_etaria": "A14",
      "imagem_original": "https://animefire.plus/img/animes/ex-arm.webp",
      "imagem_pasta": "https://animefire.plus/img/animes/ex-arm/",
      "secao": "legendados",
      "pagina": 49,
      "total_episodios": 12,
      "link_video": "https://animefire.plus/video/ex-arm"
    },
    {
      "id": 964,
      "nome": "Extreme Hearts",
      "link": "https://animefire.plus/animes/extreme-hearts-todos-os-episodios",
      "texto_original": "Extreme Hearts",
      "rating": 6.54,
      "classificacao_etaria": "A14",
      "imagem_original": "https://animefire.plus/img/animes/extreme-hearts.webp",
      "imagem_pasta": "https://animefire.plus/img/animes/extreme-hearts/",
      "secao": "legendados",
      "pagina": 31,
      "total_episodios": 12,
      "link_video": "https://animefire.plus/video/extreme-hearts"
    },
    {
      "id": 965,
      "nome": "Eyeshield 21 (Dublado)",
      "link": "https://animefire.plus/animes/eyeshield-21-dublado-todos-os-episodios",
      "texto_original": "Eyeshield 21 (Dublado)",
      "rating": 7.92,
      "classificacao_etaria": "A14",
      "imagem_original": "https://animefire.plus/img/animes/eyeshield-21.webp",
      "imagem_pasta": "https://animefire.plus/img/animes/eyeshield-21/",
      "secao": "dublados,legendados",
      "pagina": 4,
      "total_episodios": 142,
      "link_video": "https://animefire.plus/video/eyeshield-21-dublado"
    },
    {
      "id": 966,
      "nome": "Fairy Gone",
      "link": "https://animefire.plus/animes/fairy-gone-todos-os-episodios",
      "texto_original": "Fairy Gone",
      "rating": 5.81,
      "classificacao_etaria": "A14",
      "imagem_original": "https://animefire.plus/img/animes/fairy-gone.webp",
      "imagem_pasta": "https://animefire.plus/img/animes/fairy-gone/",
      "secao": "legendados",
      "pagina": 136,
      "total_episodios": 0,
      "link_video": "https://animefire.plus/video/fairy-gone"
    },
    {
      "id": 967,
      "nome": "Fairy Gone 2nd Season",
      "link": "https://animefire.plus/animes/fairy-gone-2nd-season-todos-os-episodios",
      "texto_original": "Fairy Gone 2nd Season",
      "rating": 6.39,
      "classificacao_etaria": "A14",
      "imagem_original": "https://animefire.plus/img/animes/fairy-gone-2nd-season.webp",
      "imagem_pasta": "https://animefire.plus/img/animes/fairy-gone-2nd-season/",
      "secao": "legendados",
      "pagina": 110,
      "total_episodios": 12,
      "link_video": "https://animefire.plus/video/fairy-gone-2nd-season"
    },
    {
      "id": 968,
      "nome": "Fairy Ranmaru: Anata no Kokoro Otasuke Shimasu",
      "link": "https://animefire.plus/animes/fairy-ranmaru-anata-no-kokoro-otasuke-shimasu-todos-os-episodios",
      "texto_original": "Fairy Ranmaru: Anata no Kokoro Otasuke Shimasu",
      "rating": 5.9,
      "classificacao_etaria": "A14",
      "imagem_original": "https://animefire.plus/img/animes/fairy-ranmaru-anata-no-kokoro-otasuke-shimasu.webp",
      "imagem_pasta": "https://animefire.plus/img/animes/fairy-ranmaru-anata-no-kokoro-otasuke-shimasu/",
      "secao": "legendados",
      "pagina": 46,
      "total_episodios": 12,
      "link_video": "https://animefire.plus/video/fairy-ranmaru-anata-no-kokoro-otasuke-shimasu"
    },
    {
      "id": 969,
      "nome": "Fairy Tail (Dublado)",
      "link": "https://animefire.plus/animes/fairy-tail-dublado-todos-os-episodios",
      "texto_original": "Fairy Tail (Dublado)",
      "rating": 7.64,
      "classificacao_etaria": "A14",
      "imagem_original": "https://animefire.plus/img/animes/fairy-tail.webp",
      "imagem_pasta": "https://animefire.plus/img/animes/fairy-tail/",
      "secao": "dublados,legendados,lancamentos",
      "pagina": 18,
      "total_episodios": 5,
      "link_video": "https://animefire.plus/video/fairy-tail-dublado"
    },
    {
      "id": 970,
      "nome": "Fairy Tail OVA",
      "link": "https://animefire.plus/animes/fairy-tail-ova-todos-os-episodios",
      "texto_original": "Fairy Tail OVA",
      "rating": 7.59,
      "classificacao_etaria": "A14",
      "imagem_original": "https://animefire.plus/img/animes/fairy-tail-ova.webp",
      "imagem_pasta": "https://animefire.plus/img/animes/fairy-tail-ova/",
      "secao": "legendados",
      "pagina": 62,
      "total_episodios": 6,
      "link_video": "https://animefire.plus/video/fairy-tail-ova"
    },
    {
      "id": 971,
      "nome": "Fairy Tail OVA (2016)",
      "link": "https://animefire.plus/animes/fairy-tail-ova-2016-todos-os-episodios",
      "texto_original": "Fairy Tail OVA (2016)",
      "rating": 7.31,
      "classificacao_etaria": "A14",
      "imagem_original": "https://animefire.plus/img/animes/fairy-tail-ova-2016.webp",
      "imagem_pasta": "https://animefire.plus/img/animes/fairy-tail-ova-2016/",
      "secao": "legendados",
      "pagina": 64,
      "total_episodios": 3,
      "link_video": "https://animefire.plus/video/fairy-tail-ova-2016"
    },
    {
      "id": 972,
      "nome": "Fairy Tail: 100 Years Quest",
      "link": "https://animefire.plus/animes/fairy-tail-100-years-quest-todos-os-episodios",
      "texto_original": "Fairy Tail: 100 Years Quest",
      "rating": 7.61,
      "classificacao_etaria": "A14",
      "imagem_original": "https://animefire.plus/img/animes/fairy-tail-100-years-quest.webp",
      "imagem_pasta": "https://animefire.plus/img/animes/fairy-tail-100-years-quest/",
      "secao": "legendados,lancamentos",
      "pagina": 13,
      "total_episodios": 0,
      "link_video": "https://animefire.plus/video/fairy-tail-100-years-quest"
    },
    {
      "id": 973,
      "nome": "Fairy Tail: 100-nen Quest",
      "link": "https://animefire.plus/animes/fairy-tail-100-nen-quest-todos-os-episodios",
      "texto_original": "Fairy Tail: 100-nen Quest",
      "rating": 7.61,
      "classificacao_etaria": "A14",
      "imagem_original": "https://animefire.plus/img/animes/fairy-tail-100-nen-quest.webp",
      "imagem_pasta": "https://animefire.plus/img/animes/fairy-tail-100-nen-quest/",
      "secao": "legendados,lancamentos",
      "pagina": 11,
      "total_episodios": 14,
      "link_video": "https://animefire.plus/video/fairy-tail-100-nen-quest"
    },
    {
      "id": 974,
      "nome": "Fairy Tail: Final Series",
      "link": "https://animefire.plus/animes/fairy-tail-final-series-todos-os-episodios",
      "texto_original": "Fairy Tail: Final Series",
      "rating": 8.07,
      "classificacao_etaria": "A14",
      "imagem_original": "https://animefire.plus/img/animes/fairy-tail-final-series.webp",
      "imagem_pasta": "https://animefire.plus/img/animes/fairy-tail-final-series/",
      "secao": "legendados",
      "pagina": 113,
      "total_episodios": 33,
      "link_video": "https://animefire.plus/video/fairy-tail-final-series"
    },
    {
      "id": 975,
      "nome": "Fanren Xiu Xian Chuan Zhi Fanren Feng Qi Tian Nan",
      "link": "https://animefire.plus/animes/fanren-xiu-xian-chuan-zhi-fanren-feng-qi-tian-nan-todos-os-episodios",
      "texto_original": "Fanren Xiu Xian Chuan Zhi Fanren Feng Qi Tian Nan",
      "rating": null,
      "classificacao_etaria": "A14",
      "imagem_original": "https://animefire.plus/img/animes/fanren-xiu-xian-chuan-zhi-fanren-feng-qi-tian-nan.webp",
      "imagem_pasta": "https://animefire.plus/img/animes/fanren-xiu-xian-chuan-zhi-fanren-feng-qi-tian-nan/",
      "secao": "legendados",
      "pagina": 57,
      "total_episodios": 17,
      "link_video": "https://animefire.plus/video/fanren-xiu-xian-chuan-zhi-fanren-feng-qi-tian-nan"
    },
    {
      "id": 976,
      "nome": "Fantasista Doll",
      "link": "https://animefire.plus/animes/fantasista-doll-todos-os-episodios",
      "texto_original": "Fantasista Doll",
      "rating": 6.21,
      "classificacao_etaria": "A14",
      "imagem_original": "https://animefire.plus/img/animes/fantasista-doll.webp",
      "imagem_pasta": "https://animefire.plus/img/animes/fantasista-doll/",
      "secao": "legendados",
      "pagina": 127,
      "total_episodios": 5,
      "link_video": "https://animefire.plus/video/fantasista-doll"
    },
    {
      "id": 977,
      "nome": "Fantastic Children",
      "link": "https://animefire.plus/animes/fantastic-children-todos-os-episodios",
      "texto_original": "Fantastic Children",
      "rating": 7.62,
      "classificacao_etaria": "A14",
      "imagem_original": "https://animefire.plus/img/animes/fantastic-children.webp",
      "imagem_pasta": "https://animefire.plus/img/animes/fantastic-children/",
      "secao": "legendados",
      "pagina": 98,
      "total_episodios": 26,
      "link_video": "https://animefire.plus/video/fantastic-children"
    },
    {
      "id": 978,
      "nome": "Fantasy Bishoujo Juniku Ojisan to",
      "link": "https://animefire.plus/animes/fantasy-bishoujo-juniku-ojisan-to-todos-os-episodios",
      "texto_original": "Fantasy Bishoujo Juniku Ojisan to",
      "rating": 7.12,
      "classificacao_etaria": "A14",
      "imagem_original": "https://animefire.plus/img/animes/fantasy-bishoujo-juniku-ojisan-to.webp",
      "imagem_pasta": "https://animefire.plus/img/animes/fantasy-bishoujo-juniku-ojisan-to/",
      "secao": "legendados",
      "pagina": 36,
      "total_episodios": 12,
      "link_video": "https://animefire.plus/video/fantasy-bishoujo-juniku-ojisan-to"
    },
    {
      "id": 979,
      "nome": "Farmagia",
      "link": "https://animefire.plus/animes/farmagia-todos-os-episodios",
      "texto_original": "Farmagia",
      "rating": 5.65,
      "classificacao_etaria": "A14",
      "imagem_original": "https://animefire.plus/img/animes/farmagia.webp",
      "imagem_pasta": "https://animefire.plus/img/animes/farmagia/",
      "secao": "legendados",
      "pagina": 7,
      "total_episodios": 12,
      "link_video": "https://animefire.plus/video/farmagia"
    },
    {
      "id": 980,
      "nome": "FASTENING DAYS",
      "link": "https://animefire.plus/animes/fastening-days-todos-os-episodios",
      "texto_original": "FASTENING DAYS",
      "rating": 6.48,
      "classificacao_etaria": null,
      "imagem_original": "https://animefire.plus/img/animes/fastening-days.webp",
      "imagem_pasta": "https://animefire.plus/img/animes/fastening-days/",
      "secao": "legendados",
      "pagina": 87,
      "total_episodios": 1,
      "link_video": "https://animefire.plus/video/fastening-days"
    }
  ],
  "pagination": {
    "current_page": 49,
    "per_page": 20,
    "total_items": 4368,
    "total_pages": 219,
    "has_next": true,
    "has_prev": true
  }
}
