{
  "message": "Lista de animes",
  "data": [
    {
      "id": 3201,
      "nome": "Saikyou Tank no Meikyuu Kouryaku: Tairyoku 9999 no Rare Skill-mochi Tank, Yuusha Party wo Tsuihou sareru",
      "link": "https://animefire.plus/animes/saikyou-tank-no-meikyuu-kouryaku-tairyoku-9999-no-rare-skill-mochi-tank-yuusha-party-wo-tsuihou-sareru-todos-os-episodios",
      "texto_original": "Saikyou Tank no Meikyuu Kouryaku: Tairyoku 9999 no Rare Skill-mochi Tank, Yuusha Party wo Tsuihou sareru",
      "rating": 6.13,
      "classificacao_etaria": "A14",
      "imagem_original": "https://animefire.plus/img/animes/saikyou-tank-no-meikyuu-kouryaku-tairyoku-9999-no-rare-skill-mochi-tank-yuusha-party-wo-tsuihou-sareru.webp",
      "imagem_pasta": "https://animefire.plus/img/animes/saikyou-tank-no-meikyuu-kouryaku-tairyoku-9999-no-rare-skill-mochi-tank-yuusha-party-wo-tsuihou-sareru/",
      "secao": "legendados",
      "pagina": 17,
      "total_episodios": 2,
      "link_video": "https://animefire.plus/video/saikyou-tank-no-meikyuu-kouryaku-tairyoku-9999-no-rare-skill-mochi-tank-yuusha-party-wo-tsuihou-sareru"
    },
    {
      "id": 3202,
      "nome": "Sailor Victory",
      "link": "https://animefire.plus/animes/sailor-victory-todos-os-episodios",
      "texto_original": "Sailor Victory",
      "rating": 5.88,
      "classificacao_etaria": "A18",
      "imagem_original": "https://animefire.plus/img/animes/sailor-victory.webp",
      "imagem_pasta": "https://animefire.plus/img/animes/sailor-victory/",
      "secao": "legendados",
      "pagina": 145,
      "total_episodios": 13,
      "link_video": "https://animefire.plus/video/sailor-victory"
    },
    {
      "id": 3203,
      "nome": "Saint Beast: Kouin Jojishi Tenshi Tan",
      "link": "https://animefire.plus/animes/saint-beast-kouin-jojishi-tenshi-tan-todos-os-episodios",
      "texto_original": "Saint Beast: Kouin Jojishi Tenshi Tan",
      "rating": 6.42,
      "classificacao_etaria": "A14",
      "imagem_original": "https://animefire.plus/img/animes/saint-beast-kouin-jojishi-tenshi-tan.webp",
      "imagem_pasta": "https://animefire.plus/img/animes/saint-beast-kouin-jojishi-tenshi-tan/",
      "secao": "legendados",
      "pagina": 102,
      "total_episodios": 13,
      "link_video": "https://animefire.plus/video/saint-beast-kouin-jojishi-tenshi-tan"
    },
    {
      "id": 3204,
      "nome": "Saint Beast: Seijuu Kourin-hen",
      "link": "https://animefire.plus/animes/saint-beast-seijuu-kourin-hen-todos-os-episodios",
      "texto_original": "Saint Beast: Seijuu Kourin-hen",
      "rating": 6.06,
      "classificacao_etaria": "A14",
      "imagem_original": "https://animefire.plus/img/animes/saint-beast-seijuu-kourin-hen.webp",
      "imagem_pasta": "https://animefire.plus/img/animes/saint-beast-seijuu-kourin-hen/",
      "secao": "legendados",
      "pagina": 139,
      "total_episodios": 6,
      "link_video": "https://animefire.plus/video/saint-beast-seijuu-kourin-hen"
    },
    {
      "id": 3205,
      "nome": "Saint Seiya (Dublado)",
      "link": "https://animefire.plus/animes/saint-seiya-dublado-todos-os-episodios",
      "texto_original": "Saint Seiya (Dublado)",
      "rating": 7.92,
      "classificacao_etaria": "A14",
      "imagem_original": "https://animefire.plus/img/animes/saint-seiya.webp",
      "imagem_pasta": "https://animefire.plus/img/animes/saint-seiya/",
      "secao": "dublados,legendados",
      "pagina": 28,
      "total_episodios": 145,
      "link_video": "https://animefire.plus/video/saint-seiya-dublado"
    },
    {
      "id": 3206,
      "nome": "Saint Seiya Omega (Dublado)",
      "link": "https://animefire.plus/animes/saint-seiya-omega-dublado-todos-os-episodios",
      "texto_original": "Saint Seiya Omega (Dublado)",
      "rating": 6.3,
      "classificacao_etaria": "A14",
      "imagem_original": "https://animefire.plus/img/animes/saint-seiya-omega.webp",
      "imagem_pasta": "https://animefire.plus/img/animes/saint-seiya-omega/",
      "secao": "dublados",
      "pagina": 20,
      "total_episodios": 97,
      "link_video": "https://animefire.plus/video/saint-seiya-omega-dublado"
    },
    {
      "id": 3207,
      "nome": "Saint Seiya: Knights of the Zodiac - Battle Sanctuary Part 2",
      "link": "https://animefire.plus/animes/saint-seiya-knights-of-the-zodiac---battle-sanctuary-part-2-todos-os-episodios",
      "texto_original": "Saint Seiya: Knights of the Zodiac - Battle Sanctuary Part 2",
      "rating": 6.44,
      "classificacao_etaria": "A14",
      "imagem_original": "https://animefire.plus/img/animes/saint-seiya-knights-of-the-zodiac---battle-sanctuary-part-2.webp",
      "imagem_pasta": "https://animefire.plus/img/animes/saint-seiya-knights-of-the-zodiac---battle-sanctuary-part-2/",
      "secao": "legendados,lancamentos",
      "pagina": 14,
      "total_episodios": 2,
      "link_video": "https://animefire.plus/video/saint-seiya-knights-of-the-zodiac---battle-sanctuary-part-2"
    },
    {
      "id": 3208,
      "nome": "Saint Seiya: Meiou Hades Elysion-hen",
      "link": "https://animefire.plus/animes/saint-seiya-meiou-hades-elysion-hen-todos-os-episodios",
      "texto_original": "Saint Seiya: Meiou Hades Elysion-hen",
      "rating": 7.62,
      "classificacao_etaria": "A14",
      "imagem_original": "https://animefire.plus/img/animes/saint-seiya-meiou-hades-elysion-hen.webp",
      "imagem_pasta": "https://animefire.plus/img/animes/saint-seiya-meiou-hades-elysion-hen/",
      "secao": "legendados",
      "pagina": 71,
      "total_episodios": 6,
      "link_video": "https://animefire.plus/video/saint-seiya-meiou-hades-elysion-hen"
    },
    {
      "id": 3209,
      "nome": "Saint Seiya: Meiou Hades Meikai-hen",
      "link": "https://animefire.plus/animes/saint-seiya-meiou-hades-meikai-hen-todos-os-episodios",
      "texto_original": "Saint Seiya: Meiou Hades Meikai-hen",
      "rating": 7.79,
      "classificacao_etaria": "A14",
      "imagem_original": "https://animefire.plus/img/animes/saint-seiya-meiou-hades-meikai-hen.webp",
      "imagem_pasta": "https://animefire.plus/img/animes/saint-seiya-meiou-hades-meikai-hen/",
      "secao": "legendados",
      "pagina": 64,
      "total_episodios": 12,
      "link_video": "https://animefire.plus/video/saint-seiya-meiou-hades-meikai-hen"
    },
    {
      "id": 3210,
      "nome": "Saint Seiya: Saintia Shou",
      "link": "https://animefire.plus/animes/saint-seiya-saintia-shou-todos-os-episodios",
      "texto_original": "Saint Seiya: Saintia Shou",
      "rating": 5.7,
      "classificacao_etaria": "A14",
      "imagem_original": "https://animefire.plus/img/animes/saint-seiya-saintia-shou.webp",
      "imagem_pasta": "https://animefire.plus/img/animes/saint-seiya-saintia-shou/",
      "secao": "legendados",
      "pagina": 139,
      "total_episodios": 10,
      "link_video": "https://animefire.plus/video/saint-seiya-saintia-shou"
    },
    {
      "id": 3211,
      "nome": "Saint Seiya: Soul of Gold (Dublado)",
      "link": "https://animefire.plus/animes/saint-seiya-soul-of-gold-dublado-todos-os-episodios",
      "texto_original": "Saint Seiya: Soul of Gold (Dublado)",
      "rating": 7.07,
      "classificacao_etaria": "A14",
      "imagem_original": "https://animefire.plus/img/animes/saint-seiya-soul-of-gold.webp",
      "imagem_pasta": "https://animefire.plus/img/animes/saint-seiya-soul-of-gold/",
      "secao": "dublados",
      "pagina": 20,
      "total_episodios": 13,
      "link_video": "https://animefire.plus/video/saint-seiya-soul-of-gold-dublado"
    },
    {
      "id": 3212,
      "nome": "Saint Seiya: The Lost Canvas - Meiou Shinwa (Dublado)",
      "link": "https://animefire.plus/animes/saint-seiya-the-lost-canvas---meiou-shinwa-dublado-todos-os-episodios",
      "texto_original": "Saint Seiya: The Lost Canvas - Meiou Shinwa (Dublado)",
      "rating": 7.98,
      "classificacao_etaria": "A14",
      "imagem_original": "https://animefire.plus/img/animes/saint-seiya-the-lost-canvas---meiou-shinwa.webp",
      "imagem_pasta": "https://animefire.plus/img/animes/saint-seiya-the-lost-canvas---meiou-shinwa/",
      "secao": "dublados,legendados",
      "pagina": 17,
      "total_episodios": 13,
      "link_video": "https://animefire.plus/video/saint-seiya-the-lost-canvas---meiou-shinwa-dublado"
    },
    {
      "id": 3213,
      "nome": "Saint Seiya: The Lost Canvas - Meiou Shinwa 2 (Dublado)",
      "link": "https://animefire.plus/animes/saint-seiya-the-lost-canvas---meiou-shinwa-2-dublado-todos-os-episodios",
      "texto_original": "Saint Seiya: The Lost Canvas - Meiou Shinwa 2 (Dublado)",
      "rating": 8.1,
      "classificacao_etaria": "A14",
      "imagem_original": "https://animefire.plus/img/animes/saint-seiya-the-lost-canvas---meiou-shinwa-2.webp",
      "imagem_pasta": "https://animefire.plus/img/animes/saint-seiya-the-lost-canvas---meiou-shinwa-2/",
      "secao": "dublados,legendados",
      "pagina": 17,
      "total_episodios": 13,
      "link_video": "https://animefire.plus/video/saint-seiya-the-lost-canvas---meiou-shinwa-2-dublado"
    },
    {
      "id": 3214,
      "nome": "Saishuu Heiki Kanojo (Dublado)",
      "link": "https://animefire.plus/animes/saishuu-heiki-kanojo-dublado-todos-os-episodios",
      "texto_original": "Saishuu Heiki Kanojo (Dublado)",
      "rating": 7.2,
      "classificacao_etaria": "A16",
      "imagem_original": "https://animefire.plus/img/animes/saishuu-heiki-kanojo.webp",
      "imagem_pasta": "https://animefire.plus/img/animes/saishuu-heiki-kanojo/",
      "secao": "dublados,legendados",
      "pagina": 25,
      "total_episodios": 13,
      "link_video": "https://animefire.plus/video/saishuu-heiki-kanojo-dublado"
    },
    {
      "id": 3215,
      "nome": "Saiunkoku Monogatari",
      "link": "https://animefire.plus/animes/saiunkoku-monogatari-todos-os-episodios",
      "texto_original": "Saiunkoku Monogatari",
      "rating": 8.02,
      "classificacao_etaria": "A14",
      "imagem_original": "https://animefire.plus/img/animes/saiunkoku-monogatari.webp",
      "imagem_pasta": "https://animefire.plus/img/animes/saiunkoku-monogatari/",
      "secao": "legendados",
      "pagina": 129,
      "total_episodios": 39,
      "link_video": "https://animefire.plus/video/saiunkoku-monogatari"
    },
    {
      "id": 3216,
      "nome": "Saiunkoku Monogatari 2nd Season",
      "link": "https://animefire.plus/animes/saiunkoku-monogatari-2nd-season-todos-os-episodios",
      "texto_original": "Saiunkoku Monogatari 2nd Season",
      "rating": 8.14,
      "classificacao_etaria": "A14",
      "imagem_original": "https://animefire.plus/img/animes/saiunkoku-monogatari-2nd-season.webp",
      "imagem_pasta": "https://animefire.plus/img/animes/saiunkoku-monogatari-2nd-season/",
      "secao": "legendados",
      "pagina": 174,
      "total_episodios": 39,
      "link_video": "https://animefire.plus/video/saiunkoku-monogatari-2nd-season"
    },
    {
      "id": 3217,
      "nome": "Saiyuuki Gaiden",
      "link": "https://animefire.plus/animes/saiyuuki-gaiden-todos-os-episodios",
      "texto_original": "Saiyuuki Gaiden",
      "rating": 7.95,
      "classificacao_etaria": "A16",
      "imagem_original": "https://animefire.plus/img/animes/saiyuuki-gaiden.webp",
      "imagem_pasta": "https://animefire.plus/img/animes/saiyuuki-gaiden/",
      "secao": "legendados",
      "pagina": 152,
      "total_episodios": 3,
      "link_video": "https://animefire.plus/video/saiyuuki-gaiden"
    },
    {
      "id": 3218,
      "nome": "Saiyuuki Reload",
      "link": "https://animefire.plus/animes/saiyuuki-reload-todos-os-episodios",
      "texto_original": "Saiyuuki Reload",
      "rating": 7.49,
      "classificacao_etaria": "A14",
      "imagem_original": "https://animefire.plus/img/animes/saiyuuki-reload.webp",
      "imagem_pasta": "https://animefire.plus/img/animes/saiyuuki-reload/",
      "secao": "legendados",
      "pagina": 176,
      "total_episodios": 25,
      "link_video": "https://animefire.plus/video/saiyuuki-reload"
    },
    {
      "id": 3219,
      "nome": "Saiyuuki Reload Blast",
      "link": "https://animefire.plus/animes/saiyuuki-reload-blast-todos-os-episodios",
      "texto_original": "Saiyuuki Reload Blast",
      "rating": 7.33,
      "classificacao_etaria": "A14",
      "imagem_original": "https://animefire.plus/img/animes/saiyuuki-reload-blast.webp",
      "imagem_pasta": "https://animefire.plus/img/animes/saiyuuki-reload-blast/",
      "secao": "legendados",
      "pagina": 114,
      "total_episodios": 12,
      "link_video": "https://animefire.plus/video/saiyuuki-reload-blast"
    },
    {
      "id": 3220,
      "nome": "Saiyuuki Reload Gunlock",
      "link": "https://animefire.plus/animes/saiyuuki-reload-gunlock-todos-os-episodios",
      "texto_original": "Saiyuuki Reload Gunlock",
      "rating": 7.5,
      "classificacao_etaria": "A14",
      "imagem_original": "https://animefire.plus/img/animes/saiyuuki-reload-gunlock.webp",
      "imagem_pasta": "https://animefire.plus/img/animes/saiyuuki-reload-gunlock/",
      "secao": "legendados",
      "pagina": 176,
      "total_episodios": 26,
      "link_video": "https://animefire.plus/video/saiyuuki-reload-gunlock"
    }
  ],
  "pagination": {
    "current_page": 161,
    "per_page": 20,
    "total_items": 4368,
    "total_pages": 219,
    "has_next": true,
    "has_prev": true
  }
}
