{
  "message": "Lista de animes",
  "data": [
    {
      "id": 2421,
      "nome": "Marginal#4: Kiss Kara Tsukuru Big Bang",
      "link": "https://animefire.plus/animes/marginal-4-kiss-kara-tsukuru-big-bang-todos-os-episodios",
      "texto_original": "Marginal#4: Kiss Kara Tsukuru Big Bang",
      "rating": 6.79,
      "classificacao_etaria": "A14",
      "imagem_original": "https://animefire.plus/img/animes/marginal-4-kiss-kara-tsukuru-big-bang.webp",
      "imagem_pasta": "https://animefire.plus/img/animes/marginal-4-kiss-kara-tsukuru-big-bang/",
      "secao": "legendados",
      "pagina": 107,
      "total_episodios": 0,
      "link_video": "https://animefire.plus/video/marginal-4-kiss-kara-tsukuru-big-bang"
    },
    {
      "id": 2422,
      "nome": "Maria-sama ga Miteru",
      "link": "https://animefire.plus/animes/maria-sama-ga-miteru-todos-os-episodios",
      "texto_original": "Maria-sama ga Miteru",
      "rating": 7.42,
      "classificacao_etaria": "A14",
      "imagem_original": "https://animefire.plus/img/animes/maria-sama-ga-miteru.webp",
      "imagem_pasta": "https://animefire.plus/img/animes/maria-sama-ga-miteru/",
      "secao": "legendados",
      "pagina": 138,
      "total_episodios": 0,
      "link_video": "https://animefire.plus/video/maria-sama-ga-miteru"
    },
    {
      "id": 2423,
      "nome": "Maria-sama ga Miteru 4th",
      "link": "https://animefire.plus/animes/maria-sama-ga-miteru-4th-todos-os-episodios",
      "texto_original": "Maria-sama ga Miteru 4th",
      "rating": 7.89,
      "classificacao_etaria": "A14",
      "imagem_original": "https://animefire.plus/img/animes/maria-sama-ga-miteru-4th.webp",
      "imagem_pasta": "https://animefire.plus/img/animes/maria-sama-ga-miteru-4th/",
      "secao": "legendados",
      "pagina": 166,
      "total_episodios": 0,
      "link_video": "https://animefire.plus/video/maria-sama-ga-miteru-4th"
    },
    {
      "id": 2424,
      "nome": "Maria-sama ga Miteru: Haru",
      "link": "https://animefire.plus/animes/maria-sama-ga-miteru-haru-todos-os-episodios",
      "texto_original": "Maria-sama ga Miteru: Haru",
      "rating": 7.76,
      "classificacao_etaria": "A14",
      "imagem_original": "https://animefire.plus/img/animes/maria-sama-ga-miteru-haru.webp",
      "imagem_pasta": "https://animefire.plus/img/animes/maria-sama-ga-miteru-haru/",
      "secao": "legendados",
      "pagina": 152,
      "total_episodios": 0,
      "link_video": "https://animefire.plus/video/maria-sama-ga-miteru-haru"
    },
    {
      "id": 2425,
      "nome": "Maria†Holic",
      "link": "https://animefire.plus/animes/maria-holic-todos-os-episodios",
      "texto_original": "Maria†Holic",
      "rating": 7.11,
      "classificacao_etaria": "A14",
      "imagem_original": "https://animefire.plus/img/animes/maria-holic.webp",
      "imagem_pasta": "https://animefire.plus/img/animes/maria-holic/",
      "secao": "legendados",
      "pagina": 136,
      "total_episodios": 12,
      "link_video": "https://animefire.plus/video/maria-holic"
    },
    {
      "id": 2426,
      "nome": "Maria†Holic Alive",
      "link": "https://animefire.plus/animes/maria-holic-alive-todos-os-episodios",
      "texto_original": "Maria†Holic Alive",
      "rating": 7.03,
      "classificacao_etaria": "A14",
      "imagem_original": "https://animefire.plus/img/animes/maria-holic-alive.webp",
      "imagem_pasta": "https://animefire.plus/img/animes/maria-holic-alive/",
      "secao": "legendados",
      "pagina": 178,
      "total_episodios": 0,
      "link_video": "https://animefire.plus/video/maria-holic-alive"
    },
    {
      "id": 2427,
      "nome": "Marmalade Boy",
      "link": "https://animefire.plus/animes/marmalade-boy-todos-os-episodios",
      "texto_original": "Marmalade Boy",
      "rating": 7.6,
      "classificacao_etaria": "A14",
      "imagem_original": "https://animefire.plus/img/animes/marmalade-boy.webp",
      "imagem_pasta": "https://animefire.plus/img/animes/marmalade-boy/",
      "secao": "legendados",
      "pagina": 121,
      "total_episodios": 65,
      "link_video": "https://animefire.plus/video/marmalade-boy"
    },
    {
      "id": 2428,
      "nome": "Mars Red (Dublado)",
      "link": "https://animefire.plus/animes/mars-red-dublado-todos-os-episodios",
      "texto_original": "Mars Red (Dublado)",
      "rating": 6.58,
      "classificacao_etaria": "A14",
      "imagem_original": "https://animefire.plus/img/animes/mars-red.webp",
      "imagem_pasta": "https://animefire.plus/img/animes/mars-red/",
      "secao": "dublados,legendados",
      "pagina": 14,
      "total_episodios": 13,
      "link_video": "https://animefire.plus/video/mars-red-dublado"
    },
    {
      "id": 2429,
      "nome": "Marvel Disk Wars: The Avengers",
      "link": "https://animefire.plus/animes/marvel-disk-wars-the-avengers-todos-os-episodios",
      "texto_original": "Marvel Disk Wars: The Avengers",
      "rating": 6.03,
      "classificacao_etaria": "A10",
      "imagem_original": "https://animefire.plus/img/animes/marvel-disk-wars-the-avengers.webp",
      "imagem_pasta": "https://animefire.plus/img/animes/marvel-disk-wars-the-avengers/",
      "secao": "legendados",
      "pagina": 135,
      "total_episodios": 9,
      "link_video": "https://animefire.plus/video/marvel-disk-wars-the-avengers"
    },
    {
      "id": 2430,
      "nome": "Maryuu Senki",
      "link": "https://animefire.plus/animes/maryuu-senki-todos-os-episodios",
      "texto_original": "Maryuu Senki",
      "rating": 5.31,
      "classificacao_etaria": "A18",
      "imagem_original": "https://animefire.plus/img/animes/maryuu-senki.webp",
      "imagem_pasta": "https://animefire.plus/img/animes/maryuu-senki/",
      "secao": "legendados",
      "pagina": 77,
      "total_episodios": 3,
      "link_video": "https://animefire.plus/video/maryuu-senki"
    },
    {
      "id": 2431,
      "nome": "Masamune Datenicle",
      "link": "https://animefire.plus/animes/masamune-datenicle-todos-os-episodios",
      "texto_original": "Masamune Datenicle",
      "rating": 6.03,
      "classificacao_etaria": "A14",
      "imagem_original": "https://animefire.plus/img/animes/masamune-datenicle.webp",
      "imagem_pasta": "https://animefire.plus/img/animes/masamune-datenicle/",
      "secao": "legendados",
      "pagina": 143,
      "total_episodios": 6,
      "link_video": "https://animefire.plus/video/masamune-datenicle"
    },
    {
      "id": 2432,
      "nome": "Masamune-kun no Revenge (Dublado)",
      "link": "https://animefire.plus/animes/masamune-kun-no-revenge-dublado-todos-os-episodios",
      "texto_original": "Masamune-kun no Revenge (Dublado)",
      "rating": 6.74,
      "classificacao_etaria": "A14",
      "imagem_original": "https://animefire.plus/img/animes/masamune-kun-no-revenge.webp",
      "imagem_pasta": "https://animefire.plus/img/animes/masamune-kun-no-revenge/",
      "secao": "dublados,legendados",
      "pagina": 7,
      "total_episodios": 12,
      "link_video": "https://animefire.plus/video/masamune-kun-no-revenge-dublado"
    },
    {
      "id": 2433,
      "nome": "Masamune-kun no Revenge OVA",
      "link": "https://animefire.plus/animes/masamune-kun-no-revenge-ova-todos-os-episodios",
      "texto_original": "Masamune-kun no Revenge OVA",
      "rating": 6.6,
      "classificacao_etaria": "A14",
      "imagem_original": "https://animefire.plus/img/animes/masamune-kun-no-revenge-ova.webp",
      "imagem_pasta": "https://animefire.plus/img/animes/masamune-kun-no-revenge-ova/",
      "secao": "legendados",
      "pagina": 84,
      "total_episodios": 1,
      "link_video": "https://animefire.plus/video/masamune-kun-no-revenge-ova"
    },
    {
      "id": 2434,
      "nome": "Masamune-kun no Revenge R (Dublado)",
      "link": "https://animefire.plus/animes/masamune-kun-no-revenge-r-dublado-todos-os-episodios",
      "texto_original": "Masamune-kun no Revenge R (Dublado)",
      "rating": 7.23,
      "classificacao_etaria": "A14",
      "imagem_original": "https://animefire.plus/img/animes/masamune-kun-no-revenge-r.webp",
      "imagem_pasta": "https://animefire.plus/img/animes/masamune-kun-no-revenge-r/",
      "secao": "dublados,legendados",
      "pagina": 7,
      "total_episodios": 12,
      "link_video": "https://animefire.plus/video/masamune-kun-no-revenge-r-dublado"
    },
    {
      "id": 2435,
      "nome": "Mashin Souzouden Wataru",
      "link": "https://animefire.plus/animes/mashin-souzouden-wataru-todos-os-episodios",
      "texto_original": "Mashin Souzouden Wataru",
      "rating": null,
      "classificacao_etaria": null,
      "imagem_original": "https://animefire.plus/img/animes/mashin-souzouden-wataru.webp",
      "imagem_pasta": "https://animefire.plus/img/animes/mashin-souzouden-wataru/",
      "secao": "legendados,lancamentos",
      "pagina": 6,
      "total_episodios": 0,
      "link_video": "https://animefire.plus/video/mashin-souzouden-wataru"
    },
    {
      "id": 2436,
      "nome": "Mashiro no Oto",
      "link": "https://animefire.plus/animes/mashiro-no-oto-todos-os-episodios",
      "texto_original": "Mashiro no Oto",
      "rating": 7.53,
      "classificacao_etaria": "A14",
      "imagem_original": "https://animefire.plus/img/animes/mashiro-no-oto.webp",
      "imagem_pasta": "https://animefire.plus/img/animes/mashiro-no-oto/",
      "secao": "legendados",
      "pagina": 46,
      "total_episodios": 12,
      "link_video": "https://animefire.plus/video/mashiro-no-oto"
    },
    {
      "id": 2437,
      "nome": "Mashiro-iro Symphony: The Color of Lovers",
      "link": "https://animefire.plus/animes/mashiro-iro-symphony-the-color-of-lovers-todos-os-episodios",
      "texto_original": "Mashiro-iro Symphony: The Color of Lovers",
      "rating": 7.22,
      "classificacao_etaria": "A18",
      "imagem_original": "https://animefire.plus/img/animes/mashiro-iro-symphony-the-color-of-lovers.webp",
      "imagem_pasta": "https://animefire.plus/img/animes/mashiro-iro-symphony-the-color-of-lovers/",
      "secao": "legendados",
      "pagina": 126,
      "total_episodios": 12,
      "link_video": "https://animefire.plus/video/mashiro-iro-symphony-the-color-of-lovers"
    },
    {
      "id": 2438,
      "nome": "Mashle (Dublado)",
      "link": "https://animefire.plus/animes/mashle-dublado-todos-os-episodios",
      "texto_original": "Mashle (Dublado)",
      "rating": 7.62,
      "classificacao_etaria": "A14",
      "imagem_original": "https://animefire.plus/img/animes/mashle.jpg",
      "imagem_pasta": "https://animefire.plus/img/animes/mashle/",
      "secao": "dublados,legendados",
      "pagina": 7,
      "total_episodios": 12,
      "link_video": "https://animefire.plus/video/mashle-dublado"
    },
    {
      "id": 2439,
      "nome": "Mashle 2nd Season",
      "link": "https://animefire.plus/animes/mashle-2nd-season-todos-os-episodios",
      "texto_original": "Mashle 2nd Season",
      "rating": 7.79,
      "classificacao_etaria": "A14",
      "imagem_original": "https://animefire.plus/img/animes/mashle-2nd-season.webp",
      "imagem_pasta": "https://animefire.plus/img/animes/mashle-2nd-season/",
      "secao": "legendados",
      "pagina": 17,
      "total_episodios": 12,
      "link_video": "https://animefire.plus/video/mashle-2nd-season"
    },
    {
      "id": 2440,
      "nome": "Mashle: Shinkakusha Kouho Senbatsu Shiken-hen (Dublado)",
      "link": "https://animefire.plus/animes/mashle-shinkakusha-kouho-senbatsu-shiken-hen-dublado-todos-os-episodios",
      "texto_original": "Mashle: Shinkakusha Kouho Senbatsu Shiken-hen (Dublado)",
      "rating": 7.79,
      "classificacao_etaria": "A14",
      "imagem_original": "https://animefire.plus/img/animes/mashle-shinkakusha-kouho-senbatsu-shiken-hen.webp",
      "imagem_pasta": "https://animefire.plus/img/animes/mashle-shinkakusha-kouho-senbatsu-shiken-hen/",
      "secao": "dublados,lancamentos",
      "pagina": 3,
      "total_episodios": 8,
      "link_video": "https://animefire.plus/video/mashle-shinkakusha-kouho-senbatsu-shiken-hen-dublado"
    }
  ],
  "pagination": {
    "current_page": 122,
    "per_page": 20,
    "total_items": 4368,
    "total_pages": 219,
    "has_next": true,
    "has_prev": true
  }
}
