{
  "message": "Lista de animes",
  "data": [
    {
      "id": 4341,
      "nome": "Zegapain",
      "link": "https://animefire.plus/animes/zegapain-todos-os-episodios",
      "texto_original": "Zegapain",
      "rating": 7.39,
      "classificacao_etaria": "A14",
      "imagem_original": "https://animefire.plus/img/animes/zegapain.webp",
      "imagem_pasta": "https://animefire.plus/img/animes/zegapain/",
      "secao": "legendados",
      "pagina": 97,
      "total_episodios": 26,
      "link_video": "https://animefire.plus/video/zegapain"
    },
    {
      "id": 4342,
      "nome": "Zenonzard: The Animation",
      "link": "https://animefire.plus/animes/zenonzard-the-animation-todos-os-episodios",
      "texto_original": "Zenonzard: The Animation",
      "rating": 6.68,
      "classificacao_etaria": "A14",
      "imagem_original": "https://animefire.plus/img/animes/zenonzard-the-animation.webp",
      "imagem_pasta": "https://animefire.plus/img/animes/zenonzard-the-animation/",
      "secao": "legendados",
      "pagina": 91,
      "total_episodios": 8,
      "link_video": "https://animefire.plus/video/zenonzard-the-animation"
    },
    {
      "id": 4343,
      "nome": "Zenshuu. (Dublado)",
      "link": "https://animefire.plus/animes/zenshuu-dublado-todos-os-episodios",
      "texto_original": "Zenshuu. (Dublado)",
      "rating": 7.59,
      "classificacao_etaria": "A14",
      "imagem_original": "https://animefire.plus/img/animes/zenshuu.webp",
      "imagem_pasta": "https://animefire.plus/img/animes/zenshuu/",
      "secao": "dublados,legendados,lancamentos",
      "pagina": 2,
      "total_episodios": 12,
      "link_video": "https://animefire.plus/video/zenshuu-dublado"
    },
    {
      "id": 4344,
      "nome": "Zero kara Hajimeru Mahou no Sho",
      "link": "https://animefire.plus/animes/zero-kara-hajimeru-mahou-no-sho-todos-os-episodios",
      "texto_original": "Zero kara Hajimeru Mahou no Sho",
      "rating": 7.19,
      "classificacao_etaria": "A14",
      "imagem_original": "https://animefire.plus/img/animes/zero-kara-hajimeru-mahou-no-sho.webp",
      "imagem_pasta": "https://animefire.plus/img/animes/zero-kara-hajimeru-mahou-no-sho/",
      "secao": "legendados",
      "pagina": 116,
      "total_episodios": 12,
      "link_video": "https://animefire.plus/video/zero-kara-hajimeru-mahou-no-sho"
    },
    {
      "id": 4345,
      "nome": "Zero no Tsukaima",
      "link": "https://animefire.plus/animes/zero-no-tsukaima-todos-os-episodios",
      "texto_original": "Zero no Tsukaima",
      "rating": 7.48,
      "classificacao_etaria": "A14",
      "imagem_original": "https://animefire.plus/img/animes/zero-no-tsukaima.webp",
      "imagem_pasta": "https://animefire.plus/img/animes/zero-no-tsukaima/",
      "secao": "legendados",
      "pagina": 169,
      "total_episodios": 13,
      "link_video": "https://animefire.plus/video/zero-no-tsukaima"
    },
    {
      "id": 4346,
      "nome": "Zero no Tsukaima F",
      "link": "https://animefire.plus/animes/zero-no-tsukaima-f-todos-os-episodios",
      "texto_original": "Zero no Tsukaima F",
      "rating": 7.67,
      "classificacao_etaria": "A14",
      "imagem_original": "https://animefire.plus/img/animes/zero-no-tsukaima-f.webp",
      "imagem_pasta": "https://animefire.plus/img/animes/zero-no-tsukaima-f/",
      "secao": "legendados",
      "pagina": 156,
      "total_episodios": 6,
      "link_video": "https://animefire.plus/video/zero-no-tsukaima-f"
    },
    {
      "id": 4347,
      "nome": "Zero no Tsukaima: Futatsuki no Kishi",
      "link": "https://animefire.plus/animes/zero-no-tsukaima-futatsuki-no-kishi-todos-os-episodios",
      "texto_original": "Zero no Tsukaima: Futatsuki no Kishi",
      "rating": 7.62,
      "classificacao_etaria": "A14",
      "imagem_original": "https://animefire.plus/img/animes/zero-no-tsukaima-futatsuki-no-kishi.webp",
      "imagem_pasta": "https://animefire.plus/img/animes/zero-no-tsukaima-futatsuki-no-kishi/",
      "secao": "legendados",
      "pagina": 169,
      "total_episodios": 12,
      "link_video": "https://animefire.plus/video/zero-no-tsukaima-futatsuki-no-kishi"
    },
    {
      "id": 4348,
      "nome": "Zero no Tsukaima: Princesses no Rondo",
      "link": "https://animefire.plus/animes/zero-no-tsukaima-princesses-no-rondo-todos-os-episodios",
      "texto_original": "Zero no Tsukaima: Princesses no Rondo",
      "rating": 7.52,
      "classificacao_etaria": "A14",
      "imagem_original": "https://animefire.plus/img/animes/zero-no-tsukaima-princesses-no-rondo.webp",
      "imagem_pasta": "https://animefire.plus/img/animes/zero-no-tsukaima-princesses-no-rondo/",
      "secao": "legendados",
      "pagina": 157,
      "total_episodios": 12,
      "link_video": "https://animefire.plus/video/zero-no-tsukaima-princesses-no-rondo"
    },
    {
      "id": 4349,
      "nome": "Zero no Tsukaima: Princesses no Rondo Picture Drama",
      "link": "https://animefire.plus/animes/zero-no-tsukaima-princesses-no-rondo-picture-drama-todos-os-episodios",
      "texto_original": "Zero no Tsukaima: Princesses no Rondo Picture Drama",
      "rating": 6.98,
      "classificacao_etaria": "A14",
      "imagem_original": "https://animefire.plus/img/animes/zero-no-tsukaima-princesses-no-rondo-picture-drama.webp",
      "imagem_pasta": "https://animefire.plus/img/animes/zero-no-tsukaima-princesses-no-rondo-picture-drama/",
      "secao": "legendados",
      "pagina": 85,
      "total_episodios": 7,
      "link_video": "https://animefire.plus/video/zero-no-tsukaima-princesses-no-rondo-picture-drama"
    },
    {
      "id": 4350,
      "nome": "Zetman",
      "link": "https://animefire.plus/animes/zetman-todos-os-episodios",
      "texto_original": "Zetman",
      "rating": 6.84,
      "classificacao_etaria": "A18",
      "imagem_original": "https://animefire.plus/img/animes/zetman.webp",
      "imagem_pasta": "https://animefire.plus/img/animes/zetman/",
      "secao": "legendados",
      "pagina": 16,
      "total_episodios": 13,
      "link_video": "https://animefire.plus/video/zetman"
    },
    {
      "id": 4351,
      "nome": "Zetsuen no Tempest",
      "link": "https://animefire.plus/animes/zetsuen-no-tempest-todos-os-episodios",
      "texto_original": "Zetsuen no Tempest",
      "rating": 8.08,
      "classificacao_etaria": "A14",
      "imagem_original": "https://animefire.plus/img/animes/zetsuen-no-tempest.webp",
      "imagem_pasta": "https://animefire.plus/img/animes/zetsuen-no-tempest/",
      "secao": "legendados",
      "pagina": 144,
      "total_episodios": 2,
      "link_video": "https://animefire.plus/video/zetsuen-no-tempest"
    },
    {
      "id": 4352,
      "nome": "Zetsumetsu Kigu Shoujo: Amazing Twins",
      "link": "https://animefire.plus/animes/zetsumetsu-kigu-shoujo-amazing-twins-todos-os-episodios",
      "texto_original": "Zetsumetsu Kigu Shoujo: Amazing Twins",
      "rating": 6.42,
      "classificacao_etaria": "A14",
      "imagem_original": "https://animefire.plus/img/animes/zetsumetsu-kigu-shoujo-amazing-twins.webp",
      "imagem_pasta": "https://animefire.plus/img/animes/zetsumetsu-kigu-shoujo-amazing-twins/",
      "secao": "legendados",
      "pagina": 114,
      "total_episodios": 2,
      "link_video": "https://animefire.plus/video/zetsumetsu-kigu-shoujo-amazing-twins"
    },
    {
      "id": 4353,
      "nome": "Zettai Bouei Leviathan",
      "link": "https://animefire.plus/animes/zettai-bouei-leviathan-todos-os-episodios",
      "texto_original": "Zettai Bouei Leviathan",
      "rating": 6.36,
      "classificacao_etaria": "A14",
      "imagem_original": "https://animefire.plus/img/animes/zettai-bouei-leviathan.webp",
      "imagem_pasta": "https://animefire.plus/img/animes/zettai-bouei-leviathan/",
      "secao": "legendados",
      "pagina": 113,
      "total_episodios": 13,
      "link_video": "https://animefire.plus/video/zettai-bouei-leviathan"
    },
    {
      "id": 4354,
      "nome": "Zettai Junpaku♡Mahou Shoujo",
      "link": "https://animefire.plus/animes/zettai-junpaku-mahou-shoujo-todos-os-episodios",
      "texto_original": "Zettai Junpaku♡Mahou Shoujo",
      "rating": 5.37,
      "classificacao_etaria": "A18",
      "imagem_original": "https://animefire.plus/img/animes/zettai-junpaku-mahou-shoujo.webp",
      "imagem_pasta": "https://animefire.plus/img/animes/zettai-junpaku-mahou-shoujo/",
      "secao": "legendados",
      "pagina": 85,
      "total_episodios": 1,
      "link_video": "https://animefire.plus/video/zettai-junpaku-mahou-shoujo"
    },
    {
      "id": 4355,
      "nome": "Zettai Shougeki: Platonic Heart",
      "link": "https://animefire.plus/animes/zettai-shougeki-platonic-heart-todos-os-episodios",
      "texto_original": "Zettai Shougeki: Platonic Heart",
      "rating": 4.69,
      "classificacao_etaria": "A18",
      "imagem_original": "https://animefire.plus/img/animes/zettai-shougeki-platonic-heart.webp",
      "imagem_pasta": "https://animefire.plus/img/animes/zettai-shougeki-platonic-heart/",
      "secao": "legendados",
      "pagina": 68,
      "total_episodios": 5,
      "link_video": "https://animefire.plus/video/zettai-shougeki-platonic-heart"
    },
    {
      "id": 4356,
      "nome": "Zhen Hun Jie",
      "link": "https://animefire.plus/animes/zhen-hun-jie-todos-os-episodios",
      "texto_original": "Zhen Hun Jie",
      "rating": 7.82,
      "classificacao_etaria": "A14",
      "imagem_original": "https://animefire.plus/img/animes/zhen-hun-jie.webp",
      "imagem_pasta": "https://animefire.plus/img/animes/zhen-hun-jie/",
      "secao": "legendados",
      "pagina": 89,
      "total_episodios": 24,
      "link_video": "https://animefire.plus/video/zhen-hun-jie"
    },
    {
      "id": 4357,
      "nome": "Zinba",
      "link": "https://animefire.plus/animes/zinba-todos-os-episodios",
      "texto_original": "Zinba",
      "rating": 6.66,
      "classificacao_etaria": "A10",
      "imagem_original": "https://animefire.plus/img/animes/zinba.webp",
      "imagem_pasta": "https://animefire.plus/img/animes/zinba/",
      "secao": "legendados",
      "pagina": 174,
      "total_episodios": 1,
      "link_video": "https://animefire.plus/video/zinba"
    },
    {
      "id": 4358,
      "nome": "Zoku Natsume Yuujinchou",
      "link": "https://animefire.plus/animes/zoku-natsume-yuujinchou-todos-os-episodios",
      "texto_original": "Zoku Natsume Yuujinchou",
      "rating": 8.61,
      "classificacao_etaria": "A14",
      "imagem_original": "https://animefire.plus/img/animes/zoku-natsume-yuujinchou.webp",
      "imagem_pasta": "https://animefire.plus/img/animes/zoku-natsume-yuujinchou/",
      "secao": "legendados",
      "pagina": 130,
      "total_episodios": 13,
      "link_video": "https://animefire.plus/video/zoku-natsume-yuujinchou"
    },
    {
      "id": 4359,
      "nome": "Zoku Owarimonogatari",
      "link": "https://animefire.plus/animes/zoku-owarimonogatari-todos-os-episodios",
      "texto_original": "Zoku Owarimonogatari",
      "rating": 8.58,
      "classificacao_etaria": "A16",
      "imagem_original": "https://animefire.plus/img/animes/zoku-owarimonogatari.webp",
      "imagem_pasta": "https://animefire.plus/img/animes/zoku-owarimonogatari/",
      "secao": "legendados",
      "pagina": 102,
      "total_episodios": 6,
      "link_video": "https://animefire.plus/video/zoku-owarimonogatari"
    },
    {
      "id": 4360,
      "nome": "Zoku Sayonara Zetsubou Sensei",
      "link": "https://animefire.plus/animes/zoku-sayonara-zetsubou-sensei-todos-os-episodios",
      "texto_original": "Zoku Sayonara Zetsubou Sensei",
      "rating": 7.97,
      "classificacao_etaria": "A16",
      "imagem_original": "https://animefire.plus/img/animes/zoku-sayonara-zetsubou-sensei.webp",
      "imagem_pasta": "https://animefire.plus/img/animes/zoku-sayonara-zetsubou-sensei/",
      "secao": "legendados",
      "pagina": 162,
      "total_episodios": 13,
      "link_video": "https://animefire.plus/video/zoku-sayonara-zetsubou-sensei"
    }
  ],
  "pagination": {
    "current_page": 218,
    "per_page": 20,
    "total_items": 4368,
    "total_pages": 219,
    "has_next": true,
    "has_prev": true
  }
}
