{
  "message": "Lista de animes",
  "data": [
    {
      "id": 341,
      "nome": "Baoh Raihousha",
      "link": "https://animefire.plus/animes/baoh-raihousha-todos-os-episodios",
      "texto_original": "Baoh Raihousha",
      "rating": 6.12,
      "classificacao_etaria": "A16",
      "imagem_original": "https://animefire.plus/img/animes/baoh-raihousha.webp",
      "imagem_pasta": "https://animefire.plus/img/animes/baoh-raihousha/",
      "secao": "legendados",
      "pagina": 57,
      "total_episodios": 1,
      "link_video": "https://animefire.plus/video/baoh-raihousha"
    },
    {
      "id": 342,
      "nome": "Barakamon",
      "link": "https://animefire.plus/animes/barakamon-todos-os-episodios",
      "texto_original": "Barakamon",
      "rating": 8.45,
      "classificacao_etaria": "A14",
      "imagem_original": "https://animefire.plus/img/animes/barakamon.webp",
      "imagem_pasta": "https://animefire.plus/img/animes/barakamon/",
      "secao": "legendados",
      "pagina": 175,
      "total_episodios": 3,
      "link_video": "https://animefire.plus/video/barakamon"
    },
    {
      "id": 343,
      "nome": "Baraou no Souretsu (Dublado)",
      "link": "https://animefire.plus/animes/baraou-no-souretsu-dublado-todos-os-episodios",
      "texto_original": "Baraou no Souretsu (Dublado)",
      "rating": 6.39,
      "classificacao_etaria": "A14",
      "imagem_original": "https://animefire.plus/img/animes/baraou-no-souretsu.webp",
      "imagem_pasta": "https://animefire.plus/img/animes/baraou-no-souretsu/",
      "secao": "dublados,legendados",
      "pagina": 12,
      "total_episodios": 24,
      "link_video": "https://animefire.plus/video/baraou-no-souretsu-dublado"
    },
    {
      "id": 344,
      "nome": "Barom One (Dublado)",
      "link": "https://animefire.plus/animes/barom-one-dublado-todos-os-episodios",
      "texto_original": "Barom One (Dublado)",
      "rating": 5.39,
      "classificacao_etaria": "A14",
      "imagem_original": "https://animefire.plus/img/animes/barom-one.webp",
      "imagem_pasta": "https://animefire.plus/img/animes/barom-one/",
      "secao": "dublados,legendados",
      "pagina": 26,
      "total_episodios": 13,
      "link_video": "https://animefire.plus/video/barom-one-dublado"
    },
    {
      "id": 345,
      "nome": "Bartender",
      "link": "https://animefire.plus/animes/bartender-todos-os-episodios",
      "texto_original": "Bartender",
      "rating": 7.4,
      "classificacao_etaria": "A14",
      "imagem_original": "https://animefire.plus/img/animes/bartender.webp",
      "imagem_pasta": "https://animefire.plus/img/animes/bartender/",
      "secao": "legendados",
      "pagina": 77,
      "total_episodios": 1,
      "link_video": "https://animefire.plus/video/bartender"
    },
    {
      "id": 346,
      "nome": "Bartender: Kami no Glass",
      "link": "https://animefire.plus/animes/bartender-kami-no-glass-todos-os-episodios",
      "texto_original": "Bartender: Kami no Glass",
      "rating": 7.38,
      "classificacao_etaria": "A14",
      "imagem_original": "https://animefire.plus/img/animes/bartender-kami-no-glass.webp",
      "imagem_pasta": "https://animefire.plus/img/animes/bartender-kami-no-glass/",
      "secao": "legendados",
      "pagina": 15,
      "total_episodios": 12,
      "link_video": "https://animefire.plus/video/bartender-kami-no-glass"
    },
    {
      "id": 347,
      "nome": "Basilisk: Kouga Ninpou Chou (Dublado)",
      "link": "https://animefire.plus/animes/basilisk-kouga-ninpou-chou-dublado-todos-os-episodios",
      "texto_original": "Basilisk: Kouga Ninpou Chou (Dublado)",
      "rating": 7.63,
      "classificacao_etaria": "A16",
      "imagem_original": "https://animefire.plus/img/animes/basilisk-kouga-ninpou-chou.webp",
      "imagem_pasta": "https://animefire.plus/img/animes/basilisk-kouga-ninpou-chou/",
      "secao": "dublados,legendados",
      "pagina": 27,
      "total_episodios": 25,
      "link_video": "https://animefire.plus/video/basilisk-kouga-ninpou-chou-dublado"
    },
    {
      "id": 348,
      "nome": "Basilisk: Ouka Ninpouchou",
      "link": "https://animefire.plus/animes/basilisk-ouka-ninpouchou-todos-os-episodios",
      "texto_original": "Basilisk: Ouka Ninpouchou",
      "rating": 5.52,
      "classificacao_etaria": "A16",
      "imagem_original": "https://animefire.plus/img/animes/basilisk-ouka-ninpouchou.webp",
      "imagem_pasta": "https://animefire.plus/img/animes/basilisk-ouka-ninpouchou/",
      "secao": "legendados",
      "pagina": 100,
      "total_episodios": 24,
      "link_video": "https://animefire.plus/video/basilisk-ouka-ninpouchou"
    },
    {
      "id": 349,
      "nome": "Basquash!",
      "link": "https://animefire.plus/animes/basquash-todos-os-episodios",
      "texto_original": "Basquash!",
      "rating": 7.31,
      "classificacao_etaria": "A14",
      "imagem_original": "https://animefire.plus/img/animes/basquash.webp",
      "imagem_pasta": "https://animefire.plus/img/animes/basquash/",
      "secao": "legendados",
      "pagina": 102,
      "total_episodios": 8,
      "link_video": "https://animefire.plus/video/basquash"
    },
    {
      "id": 350,
      "nome": "Bastard!! Ankoku no Hakaishin (ONA) (Dublado)",
      "link": "https://animefire.plus/animes/bastard-ankoku-no-hakaishin-ona-dublado-todos-os-episodios",
      "texto_original": "Bastard!! Ankoku no Hakaishin (ONA) (Dublado)",
      "rating": 6.59,
      "classificacao_etaria": "A18",
      "imagem_original": "https://animefire.plus/img/animes/bastard-ankoku-no-hakaishin-ona.webp",
      "imagem_pasta": "https://animefire.plus/img/animes/bastard-ankoku-no-hakaishin-ona/",
      "secao": "dublados,legendados",
      "pagina": 10,
      "total_episodios": 13,
      "link_video": "https://animefire.plus/video/bastard-ankoku-no-hakaishin-ona-dublado"
    },
    {
      "id": 351,
      "nome": "Bastard!! Ankoku no Hakaishin (ONA) Part 2 (Dublado)",
      "link": "https://animefire.plus/animes/bastard-ankoku-no-hakaishin-ona-part-2-dublado-todos-os-episodios",
      "texto_original": "Bastard!! Ankoku no Hakaishin (ONA) Part 2 (Dublado)",
      "rating": 6.75,
      "classificacao_etaria": "A18",
      "imagem_original": "https://animefire.plus/img/animes/bastard-ankoku-no-hakaishin-ona-part-2.webp",
      "imagem_pasta": "https://animefire.plus/img/animes/bastard-ankoku-no-hakaishin-ona-part-2/",
      "secao": "dublados,legendados",
      "pagina": 9,
      "total_episodios": 11,
      "link_video": "https://animefire.plus/video/bastard-ankoku-no-hakaishin-ona-part-2-dublado"
    },
    {
      "id": 352,
      "nome": "Bastard!! Ankoku no Hakaishin Part 2 (ONA) (Dublado)",
      "link": "https://animefire.plus/animes/bastard-ankoku-no-hakaishin-part-2-ona-dublado-todos-os-episodios",
      "texto_original": "Bastard!! Ankoku no Hakaishin Part 2 (ONA) (Dublado)",
      "rating": 6.75,
      "classificacao_etaria": "A18",
      "imagem_original": "https://animefire.plus/img/animes/bastard-ankoku-no-hakaishin-part-2-ona.webp",
      "imagem_pasta": "https://animefire.plus/img/animes/bastard-ankoku-no-hakaishin-part-2-ona/",
      "secao": "dublados",
      "pagina": 8,
      "total_episodios": 11,
      "link_video": "https://animefire.plus/video/bastard-ankoku-no-hakaishin-part-2-ona-dublado"
    },
    {
      "id": 353,
      "nome": "Bastard!! Ankoku no Hakaishin Season 2 (ONA) (Dublado)",
      "link": "https://animefire.plus/animes/bastard-ankoku-no-hakaishin-season-2-ona-dublado-todos-os-episodios",
      "texto_original": "Bastard!! Ankoku no Hakaishin Season 2 (ONA) (Dublado)",
      "rating": 7.07,
      "classificacao_etaria": "A18",
      "imagem_original": "https://animefire.plus/img/animes/bastard-ankoku-no-hakaishin-season-2-ona.webp",
      "imagem_pasta": "https://animefire.plus/img/animes/bastard-ankoku-no-hakaishin-season-2-ona/",
      "secao": "dublados,legendados",
      "pagina": 6,
      "total_episodios": 15,
      "link_video": "https://animefire.plus/video/bastard-ankoku-no-hakaishin-season-2-ona-dublado"
    },
    {
      "id": 354,
      "nome": "Bastard!!: Ankoku no Hakaishin",
      "link": "https://animefire.plus/animes/bastard-ankoku-no-hakaishin-todos-os-episodios",
      "texto_original": "Bastard!!: Ankoku no Hakaishin",
      "rating": 6.84,
      "classificacao_etaria": "A18",
      "imagem_original": "https://animefire.plus/img/animes/bastard-ankoku-no-hakaishin.webp",
      "imagem_pasta": "https://animefire.plus/img/animes/bastard-ankoku-no-hakaishin/",
      "secao": "legendados",
      "pagina": 113,
      "total_episodios": 6,
      "link_video": "https://animefire.plus/video/bastard-ankoku-no-hakaishin"
    },
    {
      "id": 355,
      "nome": "Battery",
      "link": "https://animefire.plus/animes/battery-todos-os-episodios",
      "texto_original": "Battery",
      "rating": 5.76,
      "classificacao_etaria": "A14",
      "imagem_original": "https://animefire.plus/img/animes/battery.webp",
      "imagem_pasta": "https://animefire.plus/img/animes/battery/",
      "secao": "legendados",
      "pagina": 148,
      "total_episodios": 7,
      "link_video": "https://animefire.plus/video/battery"
    },
    {
      "id": 356,
      "nome": "Battle Athletess Daiundoukai ReSTART!",
      "link": "https://animefire.plus/animes/battle-athletess-daiundoukai-restart-todos-os-episodios",
      "texto_original": "Battle Athletess Daiundoukai ReSTART!",
      "rating": 5.11,
      "classificacao_etaria": "A14",
      "imagem_original": "https://animefire.plus/img/animes/battle-athletess-daiundoukai-restart.webp",
      "imagem_pasta": "https://animefire.plus/img/animes/battle-athletess-daiundoukai-restart/",
      "secao": "legendados",
      "pagina": 45,
      "total_episodios": 12,
      "link_video": "https://animefire.plus/video/battle-athletess-daiundoukai-restart"
    },
    {
      "id": 357,
      "nome": "Battle Girl High School",
      "link": "https://animefire.plus/animes/battle-girl-high-school-todos-os-episodios",
      "texto_original": "Battle Girl High School",
      "rating": 5.9,
      "classificacao_etaria": "A14",
      "imagem_original": "https://animefire.plus/img/animes/battle-girl-high-school.webp",
      "imagem_pasta": "https://animefire.plus/img/animes/battle-girl-high-school/",
      "secao": "legendados",
      "pagina": 173,
      "total_episodios": 12,
      "link_video": "https://animefire.plus/video/battle-girl-high-school"
    },
    {
      "id": 358,
      "nome": "Battle Programmer Shirase",
      "link": "https://animefire.plus/animes/battle-programmer-shirase-todos-os-episodios",
      "texto_original": "Battle Programmer Shirase",
      "rating": 7,
      "classificacao_etaria": "A14",
      "imagem_original": "https://animefire.plus/img/animes/battle-programmer-shirase.webp",
      "imagem_pasta": "https://animefire.plus/img/animes/battle-programmer-shirase/",
      "secao": "legendados",
      "pagina": 165,
      "total_episodios": 5,
      "link_video": "https://animefire.plus/video/battle-programmer-shirase"
    },
    {
      "id": 359,
      "nome": "Battle Royal High School",
      "link": "https://animefire.plus/animes/battle-royal-high-school-todos-os-episodios",
      "texto_original": "Battle Royal High School",
      "rating": 5.59,
      "classificacao_etaria": "A18",
      "imagem_original": "https://animefire.plus/img/animes/battle-royal-high-school.webp",
      "imagem_pasta": "https://animefire.plus/img/animes/battle-royal-high-school/",
      "secao": "legendados",
      "pagina": 65,
      "total_episodios": 1,
      "link_video": "https://animefire.plus/video/battle-royal-high-school"
    },
    {
      "id": 360,
      "nome": "Battle Spirits: Burning Soul",
      "link": "https://animefire.plus/animes/battle-spirits-burning-soul-todos-os-episodios",
      "texto_original": "Battle Spirits: Burning Soul",
      "rating": 6.84,
      "classificacao_etaria": "A10",
      "imagem_original": "https://animefire.plus/img/animes/battle-spirits-burning-soul.webp",
      "imagem_pasta": "https://animefire.plus/img/animes/battle-spirits-burning-soul/",
      "secao": "legendados",
      "pagina": 174,
      "total_episodios": 51,
      "link_video": "https://animefire.plus/video/battle-spirits-burning-soul"
    }
  ],
  "pagination": {
    "current_page": 18,
    "per_page": 20,
    "total_items": 4368,
    "total_pages": 219,
    "has_next": true,
    "has_prev": true
  }
}
