{
  "message": "Lista de animes",
  "data": [
    {
      "id": 2981,
      "nome": "Piano (TV)",
      "link": "https://animefire.plus/animes/piano-tv-todos-os-episodios",
      "texto_original": "Piano (TV)",
      "rating": 6.04,
      "classificacao_etaria": null,
      "imagem_original": "https://animefire.plus/img/animes/piano-tv.webp",
      "imagem_pasta": "https://animefire.plus/img/animes/piano-tv/",
      "secao": "legendados",
      "pagina": 136,
      "total_episodios": 10,
      "link_video": "https://animefire.plus/video/piano-tv"
    },
    {
      "id": 2982,
      "nome": "Piano no Mori (TV) (Dublado)",
      "link": "https://animefire.plus/animes/piano-no-mori-tv-dublado-todos-os-episodios",
      "texto_original": "Piano no Mori (TV) (Dublado)",
      "rating": 7.41,
      "classificacao_etaria": "A14",
      "imagem_original": "https://animefire.plus/img/animes/piano-no-mori-tv.webp",
      "imagem_pasta": "https://animefire.plus/img/animes/piano-no-mori-tv/",
      "secao": "dublados,legendados",
      "pagina": 24,
      "total_episodios": 12,
      "link_video": "https://animefire.plus/video/piano-no-mori-tv-dublado"
    },
    {
      "id": 2983,
      "nome": "Piano no Mori (TV) 2nd Season (Dublado)",
      "link": "https://animefire.plus/animes/piano-no-mori-tv-2nd-season-dublado-todos-os-episodios",
      "texto_original": "Piano no Mori (TV) 2nd Season (Dublado)",
      "rating": 7.4,
      "classificacao_etaria": "A14",
      "imagem_original": "https://animefire.plus/img/animes/piano-no-mori-tv-2nd-season.webp",
      "imagem_pasta": "https://animefire.plus/img/animes/piano-no-mori-tv-2nd-season/",
      "secao": "dublados,legendados",
      "pagina": 23,
      "total_episodios": 12,
      "link_video": "https://animefire.plus/video/piano-no-mori-tv-2nd-season-dublado"
    },
    {
      "id": 2984,
      "nome": "Ping Pong the Animation",
      "link": "https://animefire.plus/animes/ping-pong-the-animation-todos-os-episodios",
      "texto_original": "Ping Pong the Animation",
      "rating": 8.63,
      "classificacao_etaria": "A14",
      "imagem_original": "https://animefire.plus/img/animes/ping-pong-the-animation.webp",
      "imagem_pasta": "https://animefire.plus/img/animes/ping-pong-the-animation/",
      "secao": "legendados",
      "pagina": 147,
      "total_episodios": 10,
      "link_video": "https://animefire.plus/video/ping-pong-the-animation"
    },
    {
      "id": 2985,
      "nome": "Pingu in the City",
      "link": "https://animefire.plus/animes/pingu-in-the-city-todos-os-episodios",
      "texto_original": "Pingu in the City",
      "rating": 8.45,
      "classificacao_etaria": null,
      "imagem_original": "https://animefire.plus/img/animes/pingu-in-the-city.webp",
      "imagem_pasta": "https://animefire.plus/img/animes/pingu-in-the-city/",
      "secao": "legendados",
      "pagina": 126,
      "total_episodios": 15,
      "link_video": "https://animefire.plus/video/pingu-in-the-city"
    },
    {
      "id": 2986,
      "nome": "Pita Ten",
      "link": "https://animefire.plus/animes/pita-ten-todos-os-episodios",
      "texto_original": "Pita Ten",
      "rating": 7.02,
      "classificacao_etaria": null,
      "imagem_original": "https://animefire.plus/img/animes/pita-ten.webp",
      "imagem_pasta": "https://animefire.plus/img/animes/pita-ten/",
      "secao": "legendados",
      "pagina": 109,
      "total_episodios": 0,
      "link_video": "https://animefire.plus/video/pita-ten"
    },
    {
      "id": 2987,
      "nome": "Planet With",
      "link": "https://animefire.plus/animes/planet-with-todos-os-episodios",
      "texto_original": "Planet With",
      "rating": 7.37,
      "classificacao_etaria": "A14",
      "imagem_original": "https://animefire.plus/img/animes/planet-with.webp",
      "imagem_pasta": "https://animefire.plus/img/animes/planet-with/",
      "secao": "legendados",
      "pagina": 173,
      "total_episodios": 12,
      "link_video": "https://animefire.plus/video/planet-with"
    },
    {
      "id": 2988,
      "nome": "Planetarian: Chiisana Hoshi no Yume",
      "link": "https://animefire.plus/animes/planetarian-chiisana-hoshi-no-yume-todos-os-episodios",
      "texto_original": "Planetarian: Chiisana Hoshi no Yume",
      "rating": 7.59,
      "classificacao_etaria": "A14",
      "imagem_original": "https://animefire.plus/img/animes/planetarian-chiisana-hoshi-no-yume.webp",
      "imagem_pasta": "https://animefire.plus/img/animes/planetarian-chiisana-hoshi-no-yume/",
      "secao": "legendados",
      "pagina": 144,
      "total_episodios": 5,
      "link_video": "https://animefire.plus/video/planetarian-chiisana-hoshi-no-yume"
    },
    {
      "id": 2989,
      "nome": "Planetes",
      "link": "https://animefire.plus/animes/planetes-todos-os-episodios",
      "texto_original": "Planetes",
      "rating": 8.34,
      "classificacao_etaria": "A14",
      "imagem_original": "https://animefire.plus/img/animes/planetes.webp",
      "imagem_pasta": "https://animefire.plus/img/animes/planetes/",
      "secao": "legendados",
      "pagina": 154,
      "total_episodios": 26,
      "link_video": "https://animefire.plus/video/planetes"
    },
    {
      "id": 2990,
      "nome": "Plastic Little",
      "link": "https://animefire.plus/animes/plastic-little-todos-os-episodios",
      "texto_original": "Plastic Little",
      "rating": 6.17,
      "classificacao_etaria": "A18",
      "imagem_original": "https://animefire.plus/img/animes/plastic-little.webp",
      "imagem_pasta": "https://animefire.plus/img/animes/plastic-little/",
      "secao": "legendados",
      "pagina": 66,
      "total_episodios": 1,
      "link_video": "https://animefire.plus/video/plastic-little"
    },
    {
      "id": 2991,
      "nome": "Plastic Memories",
      "link": "https://animefire.plus/animes/plastic-memories-todos-os-episodios",
      "texto_original": "Plastic Memories",
      "rating": 7.97,
      "classificacao_etaria": "A14",
      "imagem_original": "https://animefire.plus/img/animes/plastic-memories.webp",
      "imagem_pasta": "https://animefire.plus/img/animes/plastic-memories/",
      "secao": "legendados",
      "pagina": 79,
      "total_episodios": 13,
      "link_video": "https://animefire.plus/video/plastic-memories"
    },
    {
      "id": 2992,
      "nome": "Plastic Neesan",
      "link": "https://animefire.plus/animes/plastic-neesan-todos-os-episodios",
      "texto_original": "Plastic Neesan",
      "rating": 7.29,
      "classificacao_etaria": "A14",
      "imagem_original": "https://animefire.plus/img/animes/plastic-neesan.webp",
      "imagem_pasta": "https://animefire.plus/img/animes/plastic-neesan/",
      "secao": "legendados",
      "pagina": 67,
      "total_episodios": 1,
      "link_video": "https://animefire.plus/video/plastic-neesan"
    },
    {
      "id": 2993,
      "nome": "Platinum End (Dublado)",
      "link": "https://animefire.plus/animes/platinum-end-dublado-todos-os-episodios",
      "texto_original": "Platinum End (Dublado)",
      "rating": 6.02,
      "classificacao_etaria": "A16",
      "imagem_original": "https://animefire.plus/img/animes/platinum-end.webp",
      "imagem_pasta": "https://animefire.plus/img/animes/platinum-end/",
      "secao": "dublados,legendados",
      "pagina": 14,
      "total_episodios": 24,
      "link_video": "https://animefire.plus/video/platinum-end-dublado"
    },
    {
      "id": 2994,
      "nome": "Plunderer (Dublado)",
      "link": "https://animefire.plus/animes/plunderer-dublado-todos-os-episodios",
      "texto_original": "Plunderer (Dublado)",
      "rating": 6.56,
      "classificacao_etaria": "A14",
      "imagem_original": "https://animefire.plus/img/animes/plunderer.webp",
      "imagem_pasta": "https://animefire.plus/img/animes/plunderer/",
      "secao": "dublados,legendados",
      "pagina": 14,
      "total_episodios": 24,
      "link_video": "https://animefire.plus/video/plunderer-dublado"
    },
    {
      "id": 2995,
      "nome": "Pluto (Dublado)",
      "link": "https://animefire.plus/animes/pluto-dublado-todos-os-episodios",
      "texto_original": "Pluto (Dublado)",
      "rating": 8.45,
      "classificacao_etaria": "A14",
      "imagem_original": "https://animefire.plus/img/animes/pluto.webp",
      "imagem_pasta": "https://animefire.plus/img/animes/pluto/",
      "secao": "dublados,legendados",
      "pagina": 5,
      "total_episodios": 8,
      "link_video": "https://animefire.plus/video/pluto-dublado"
    },
    {
      "id": 2996,
      "nome": "Pokemon (2019) (Dublado)",
      "link": "https://animefire.plus/animes/pokemon-2019-dublado-todos-os-episodios",
      "texto_original": "Pokemon (2019) (Dublado)",
      "rating": 7.21,
      "classificacao_etaria": "A10",
      "imagem_original": "https://animefire.plus/img/animes/pokemon-2019.webp",
      "imagem_pasta": "https://animefire.plus/img/animes/pokemon-2019/",
      "secao": "dublados,legendados",
      "pagina": 17,
      "total_episodios": 76,
      "link_video": "https://animefire.plus/video/pokemon-2019-dublado"
    },
    {
      "id": 2997,
      "nome": "Pokemon (2019): Harukanaru Aoi Sora (Dublado)",
      "link": "https://animefire.plus/animes/pokemon-2019-harukanaru-aoi-sora-dublado-todos-os-episodios",
      "texto_original": "Pokemon (2019): Harukanaru Aoi Sora (Dublado)",
      "rating": 7.26,
      "classificacao_etaria": "A10",
      "imagem_original": "https://animefire.plus/img/animes/pokemon-2019-harukanaru-aoi-sora.webp",
      "imagem_pasta": "https://animefire.plus/img/animes/pokemon-2019-harukanaru-aoi-sora/",
      "secao": "dublados",
      "pagina": 3,
      "total_episodios": 1,
      "link_video": "https://animefire.plus/video/pokemon-2019-harukanaru-aoi-sora-dublado"
    },
    {
      "id": 2998,
      "nome": "Pokemon (2019): Kami to Yobareshi Arceus (Dublado)",
      "link": "https://animefire.plus/animes/pokemon-2019-kami-to-yobareshi-arceus-dublado-todos-os-episodios",
      "texto_original": "Pokemon (2019): Kami to Yobareshi Arceus (Dublado)",
      "rating": 6.67,
      "classificacao_etaria": "A10",
      "imagem_original": "https://animefire.plus/img/animes/pokemon-2019-kami-to-yobareshi-arceus.webp",
      "imagem_pasta": "https://animefire.plus/img/animes/pokemon-2019-kami-to-yobareshi-arceus/",
      "secao": "dublados,legendados",
      "pagina": 9,
      "total_episodios": 1,
      "link_video": "https://animefire.plus/video/pokemon-2019-kami-to-yobareshi-arceus-dublado"
    },
    {
      "id": 2999,
      "nome": "Pokemon (Dublado)",
      "link": "https://animefire.plus/animes/pokemon-dublado-todos-os-episodios",
      "texto_original": "Pokemon (Dublado)",
      "rating": 7.42,
      "classificacao_etaria": "A10",
      "imagem_original": "https://animefire.plus/img/animes/pokemon.webp",
      "imagem_pasta": "https://animefire.plus/img/animes/pokemon/",
      "secao": "dublados",
      "pagina": 27,
      "total_episodios": 0,
      "link_video": "https://animefire.plus/video/pokemon-dublado"
    },
    {
      "id": 3000,
      "nome": "Pokemon Advanced Generation (Dublado)",
      "link": "https://animefire.plus/animes/pokemon-advanced-generation-dublado-todos-os-episodios",
      "texto_original": "Pokemon Advanced Generation (Dublado)",
      "rating": 7.18,
      "classificacao_etaria": "A10",
      "imagem_original": "https://animefire.plus/img/animes/pokemon-advanced-generation.webp",
      "imagem_pasta": "https://animefire.plus/img/animes/pokemon-advanced-generation/",
      "secao": "dublados,legendados",
      "pagina": 28,
      "total_episodios": 104,
      "link_video": "https://animefire.plus/video/pokemon-advanced-generation-dublado"
    }
  ],
  "pagination": {
    "current_page": 150,
    "per_page": 20,
    "total_items": 4368,
    "total_pages": 219,
    "has_next": true,
    "has_prev": true
  }
}
