{
  "message": "Lista de animes",
  "data": [
    {
      "id": 4101,
      "nome": "Wan Sheng Jie",
      "link": "https://animefire.plus/animes/wan-sheng-jie-todos-os-episodios",
      "texto_original": "Wan Sheng Jie",
      "rating": 7.95,
      "classificacao_etaria": "A14",
      "imagem_original": "https://animefire.plus/img/animes/wan-sheng-jie.webp",
      "imagem_pasta": "https://animefire.plus/img/animes/wan-sheng-jie/",
      "secao": "legendados",
      "pagina": 27,
      "total_episodios": 1,
      "link_video": "https://animefire.plus/video/wan-sheng-jie"
    },
    {
      "id": 4102,
      "nome": "Wan Sheng Jie 2",
      "link": "https://animefire.plus/animes/wan-sheng-jie-2-todos-os-episodios",
      "texto_original": "Wan Sheng Jie 2",
      "rating": 7.95,
      "classificacao_etaria": "A14",
      "imagem_original": "https://animefire.plus/img/animes/wan-sheng-jie-2.webp",
      "imagem_pasta": "https://animefire.plus/img/animes/wan-sheng-jie-2/",
      "secao": "legendados",
      "pagina": 27,
      "total_episodios": 1,
      "link_video": "https://animefire.plus/video/wan-sheng-jie-2"
    },
    {
      "id": 4103,
      "nome": "Wan Sheng Jie 3",
      "link": "https://animefire.plus/animes/wan-sheng-jie-3-todos-os-episodios",
      "texto_original": "Wan Sheng Jie 3",
      "rating": 8.01,
      "classificacao_etaria": "A14",
      "imagem_original": "https://animefire.plus/img/animes/wan-sheng-jie-3.webp",
      "imagem_pasta": "https://animefire.plus/img/animes/wan-sheng-jie-3/",
      "secao": "legendados",
      "pagina": 27,
      "total_episodios": 1,
      "link_video": "https://animefire.plus/video/wan-sheng-jie-3"
    },
    {
      "id": 4104,
      "nome": "Wangan Midnight",
      "link": "https://animefire.plus/animes/wangan-midnight-todos-os-episodios",
      "texto_original": "Wangan Midnight",
      "rating": 7.5,
      "classificacao_etaria": "A14",
      "imagem_original": "https://animefire.plus/img/animes/wangan-midnight.webp",
      "imagem_pasta": "https://animefire.plus/img/animes/wangan-midnight/",
      "secao": "legendados",
      "pagina": 174,
      "total_episodios": 26,
      "link_video": "https://animefire.plus/video/wangan-midnight"
    },
    {
      "id": 4105,
      "nome": "Wangpai Yushi",
      "link": "https://animefire.plus/animes/wangpai-yushi-todos-os-episodios",
      "texto_original": "Wangpai Yushi",
      "rating": 6.77,
      "classificacao_etaria": "A14",
      "imagem_original": "https://animefire.plus/img/animes/wangpai-yushi.webp",
      "imagem_pasta": "https://animefire.plus/img/animes/wangpai-yushi/",
      "secao": "legendados",
      "pagina": 134,
      "total_episodios": 17,
      "link_video": "https://animefire.plus/video/wangpai-yushi"
    },
    {
      "id": 4106,
      "nome": "Wangpai Yushi Di 0 Ji",
      "link": "https://animefire.plus/animes/wangpai-yushi-di-0-ji-todos-os-episodios",
      "texto_original": "Wangpai Yushi Di 0 Ji",
      "rating": 6.06,
      "classificacao_etaria": "A10",
      "imagem_original": "https://animefire.plus/img/animes/wangpai-yushi-di-0-ji.webp",
      "imagem_pasta": "https://animefire.plus/img/animes/wangpai-yushi-di-0-ji/",
      "secao": "legendados",
      "pagina": 88,
      "total_episodios": 1,
      "link_video": "https://animefire.plus/video/wangpai-yushi-di-0-ji"
    },
    {
      "id": 4107,
      "nome": "Wangu Xian Qiong",
      "link": "https://animefire.plus/animes/wangu-xian-qiong-todos-os-episodios",
      "texto_original": "Wangu Xian Qiong",
      "rating": 7.04,
      "classificacao_etaria": "A14",
      "imagem_original": "https://animefire.plus/img/animes/wangu-xian-qiong.webp",
      "imagem_pasta": "https://animefire.plus/img/animes/wangu-xian-qiong/",
      "secao": "legendados",
      "pagina": 83,
      "total_episodios": 12,
      "link_video": "https://animefire.plus/video/wangu-xian-qiong"
    },
    {
      "id": 4108,
      "nome": "Wangu Xian Qiong 2nd Season",
      "link": "https://animefire.plus/animes/wangu-xian-qiong-2nd-season-todos-os-episodios",
      "texto_original": "Wangu Xian Qiong 2nd Season",
      "rating": 6.93,
      "classificacao_etaria": "A14",
      "imagem_original": "https://animefire.plus/img/animes/wangu-xian-qiong-2nd-season.webp",
      "imagem_pasta": "https://animefire.plus/img/animes/wangu-xian-qiong-2nd-season/",
      "secao": "legendados",
      "pagina": 88,
      "total_episodios": 12,
      "link_video": "https://animefire.plus/video/wangu-xian-qiong-2nd-season"
    },
    {
      "id": 4109,
      "nome": "Wanna-Be's",
      "link": "https://animefire.plus/animes/wanna-be-s-todos-os-episodios",
      "texto_original": "Wanna-Be's",
      "rating": 5.2,
      "classificacao_etaria": "A18",
      "imagem_original": "https://animefire.plus/img/animes/wanna-be-s.webp",
      "imagem_pasta": "https://animefire.plus/img/animes/wanna-be-s/",
      "secao": "legendados",
      "pagina": 68,
      "total_episodios": 1,
      "link_video": "https://animefire.plus/video/wanna-be-s"
    },
    {
      "id": 4110,
      "nome": "Warau Arsnotoria Sun!",
      "link": "https://animefire.plus/animes/warau-arsnotoria-sun-todos-os-episodios",
      "texto_original": "Warau Arsnotoria Sun!",
      "rating": 5.8,
      "classificacao_etaria": "A14",
      "imagem_original": "https://animefire.plus/img/animes/warau-arsnotoria-sun.webp",
      "imagem_pasta": "https://animefire.plus/img/animes/warau-arsnotoria-sun/",
      "secao": "legendados",
      "pagina": 31,
      "total_episodios": 12,
      "link_video": "https://animefire.plus/video/warau-arsnotoria-sun"
    },
    {
      "id": 4111,
      "nome": "Warau Salesman New",
      "link": "https://animefire.plus/animes/warau-salesman-new-todos-os-episodios",
      "texto_original": "Warau Salesman New",
      "rating": 6.28,
      "classificacao_etaria": "A14",
      "imagem_original": "https://animefire.plus/img/animes/warau-salesman-new.webp",
      "imagem_pasta": "https://animefire.plus/img/animes/warau-salesman-new/",
      "secao": "legendados",
      "pagina": 99,
      "total_episodios": 12,
      "link_video": "https://animefire.plus/video/warau-salesman-new"
    },
    {
      "id": 4112,
      "nome": "Watari-kun no xx ga Houkai Sunzen",
      "link": "https://animefire.plus/animes/watari-kun-no-xx-ga-houkai-sunzen-todos-os-episodios",
      "texto_original": "Watari-kun no xx ga Houkai Sunzen",
      "rating": 6.38,
      "classificacao_etaria": "A14",
      "imagem_original": "https://animefire.plus/img/animes/watari-kun-no-xx-ga-houkai-sunzen.webp",
      "imagem_pasta": "https://animefire.plus/img/animes/watari-kun-no-xx-ga-houkai-sunzen/",
      "secao": "legendados,lancamentos",
      "pagina": 2,
      "total_episodios": 5,
      "link_video": "https://animefire.plus/video/watari-kun-no-xx-ga-houkai-sunzen"
    },
    {
      "id": 4113,
      "nome": "Watashi ga Koibito ni Nareru Wake Nai jan, Muri Muri! (※Muri ja Nakatta!?)",
      "link": "https://animefire.plus/animes/watashi-ga-koibito-ni-nareru-wake-nai-jan-muri-muri-muri-ja-nakatta-todos-os-episodios",
      "texto_original": "Watashi ga Koibito ni Nareru Wake Nai jan, Muri Muri! (※Muri ja Nakatta!?)",
      "rating": 7.59,
      "classificacao_etaria": "A14",
      "imagem_original": "https://animefire.plus/img/animes/watashi-ga-koibito-ni-nareru-wake-nai-jan-muri-muri-muri-ja-nakatta.webp",
      "imagem_pasta": "https://animefire.plus/img/animes/watashi-ga-koibito-ni-nareru-wake-nai-jan-muri-muri-muri-ja-nakatta/",
      "secao": "legendados,lancamentos",
      "pagina": 3,
      "total_episodios": 0,
      "link_video": "https://animefire.plus/video/watashi-ga-koibito-ni-nareru-wake-nai-jan-muri-muri-muri-ja-nakatta"
    },
    {
      "id": 4114,
      "nome": "Watashi ga Motenai no wa Dou Kangaetemo Omaera ga Warui!",
      "link": "https://animefire.plus/animes/watashi-ga-motenai-no-wa-dou-kangaetemo-omaera-ga-warui-todos-os-episodios",
      "texto_original": "Watashi ga Motenai no wa Dou Kangaetemo Omaera ga Warui!",
      "rating": 7.2,
      "classificacao_etaria": "A14",
      "imagem_original": "https://animefire.plus/img/animes/watashi-ga-motenai-no-wa-dou-kangaetemo-omaera-ga-warui.webp",
      "imagem_pasta": "https://animefire.plus/img/animes/watashi-ga-motenai-no-wa-dou-kangaetemo-omaera-ga-warui/",
      "secao": "legendados",
      "pagina": 117,
      "total_episodios": 3,
      "link_video": "https://animefire.plus/video/watashi-ga-motenai-no-wa-dou-kangaetemo-omaera-ga-warui"
    },
    {
      "id": 4115,
      "nome": "Watashi ga Motenai no wa Dou Kangaetemo Omaera ga Warui!: Motenaishi, Nazomeite Miru",
      "link": "https://animefire.plus/animes/watashi-ga-motenai-no-wa-dou-kangaetemo-omaera-ga-warui-motenaishi-nazomeite-miru-todos-os-episodios",
      "texto_original": "Watashi ga Motenai no wa Dou Kangaetemo Omaera ga Warui!: Motenaishi, Nazomeite Miru",
      "rating": 7.01,
      "classificacao_etaria": "A14",
      "imagem_original": "https://animefire.plus/img/animes/watashi-ga-motenai-no-wa-dou-kangaetemo-omaera-ga-warui-motenaishi-nazomeite-miru.webp",
      "imagem_pasta": "https://animefire.plus/img/animes/watashi-ga-motenai-no-wa-dou-kangaetemo-omaera-ga-warui-motenaishi-nazomeite-miru/",
      "secao": "legendados",
      "pagina": 45,
      "total_episodios": 1,
      "link_video": "https://animefire.plus/video/watashi-ga-motenai-no-wa-dou-kangaetemo-omaera-ga-warui-motenaishi-nazomeite-miru"
    },
    {
      "id": 4116,
      "nome": "Watashi ga Motete Dousunda",
      "link": "https://animefire.plus/animes/watashi-ga-motete-dousunda-todos-os-episodios",
      "texto_original": "Watashi ga Motete Dousunda",
      "rating": 7.34,
      "classificacao_etaria": "A14",
      "imagem_original": "https://animefire.plus/img/animes/watashi-ga-motete-dousunda.webp",
      "imagem_pasta": "https://animefire.plus/img/animes/watashi-ga-motete-dousunda/",
      "secao": "legendados",
      "pagina": 155,
      "total_episodios": 7,
      "link_video": "https://animefire.plus/video/watashi-ga-motete-dousunda"
    },
    {
      "id": 4117,
      "nome": "Watashi ni Tenshi ga Maiorita!",
      "link": "https://animefire.plus/animes/watashi-ni-tenshi-ga-maiorita-todos-os-episodios",
      "texto_original": "Watashi ni Tenshi ga Maiorita!",
      "rating": 7.36,
      "classificacao_etaria": "A14",
      "imagem_original": "https://animefire.plus/img/animes/watashi-ni-tenshi-ga-maiorita.webp",
      "imagem_pasta": "https://animefire.plus/img/animes/watashi-ni-tenshi-ga-maiorita/",
      "secao": "legendados",
      "pagina": 108,
      "total_episodios": 12,
      "link_video": "https://animefire.plus/video/watashi-ni-tenshi-ga-maiorita"
    },
    {
      "id": 4118,
      "nome": "Watashi ni Tenshi ga Maiorita! Special",
      "link": "https://animefire.plus/animes/watashi-ni-tenshi-ga-maiorita-special-todos-os-episodios",
      "texto_original": "Watashi ni Tenshi ga Maiorita! Special",
      "rating": 7.3,
      "classificacao_etaria": "A14",
      "imagem_original": "https://animefire.plus/img/animes/watashi-ni-tenshi-ga-maiorita-special.webp",
      "imagem_pasta": "https://animefire.plus/img/animes/watashi-ni-tenshi-ga-maiorita-special/",
      "secao": "legendados",
      "pagina": 100,
      "total_episodios": 1,
      "link_video": "https://animefire.plus/video/watashi-ni-tenshi-ga-maiorita-special"
    },
    {
      "id": 4119,
      "nome": "Watashi no Ashinaga Ojisan",
      "link": "https://animefire.plus/animes/watashi-no-ashinaga-ojisan-todos-os-episodios",
      "texto_original": "Watashi no Ashinaga Ojisan",
      "rating": 7.86,
      "classificacao_etaria": null,
      "imagem_original": "https://animefire.plus/img/animes/watashi-no-ashinaga-ojisan.webp",
      "imagem_pasta": "https://animefire.plus/img/animes/watashi-no-ashinaga-ojisan/",
      "secao": "legendados",
      "pagina": 124,
      "total_episodios": 40,
      "link_video": "https://animefire.plus/video/watashi-no-ashinaga-ojisan"
    },
    {
      "id": 4120,
      "nome": "Watashi no Oshi wa Akuyaku Reijou. (Dublado)",
      "link": "https://animefire.plus/animes/watashi-no-oshi-wa-akuyaku-reijou-dublado-todos-os-episodios",
      "texto_original": "Watashi no Oshi wa Akuyaku Reijou. (Dublado)",
      "rating": 7.35,
      "classificacao_etaria": "A14",
      "imagem_original": "https://animefire.plus/img/animes/watashi-no-oshi-wa-akuyaku-reijou.webp",
      "imagem_pasta": "https://animefire.plus/img/animes/watashi-no-oshi-wa-akuyaku-reijou/",
      "secao": "dublados,legendados",
      "pagina": 5,
      "total_episodios": 12,
      "link_video": "https://animefire.plus/video/watashi-no-oshi-wa-akuyaku-reijou-dublado"
    }
  ],
  "pagination": {
    "current_page": 206,
    "per_page": 20,
    "total_items": 4368,
    "total_pages": 219,
    "has_next": true,
    "has_prev": true
  }
}
