{
  "message": "Lista de animes",
  "data": [
    {
      "id": 461,
      "nome": "Boku no Imouto wa \"Osaka Okan\"",
      "link": "https://animefire.plus/animes/boku-no-imouto-wa-osaka-okan-todos-os-episodios",
      "texto_original": "Boku no Imouto wa \"Osaka Okan\"",
      "rating": 5.85,
      "classificacao_etaria": "A14",
      "imagem_original": "https://animefire.plus/img/animes/boku-no-imouto-wa-osaka-okan.webp",
      "imagem_pasta": "https://animefire.plus/img/animes/boku-no-imouto-wa-osaka-okan/",
      "secao": "legendados",
      "pagina": 123,
      "total_episodios": 0,
      "link_video": "https://animefire.plus/video/boku-no-imouto-wa-osaka-okan"
    },
    {
      "id": 462,
      "nome": "Boku no Kanojo ga Majimesugiru Sho-bitch na Ken",
      "link": "https://animefire.plus/animes/boku-no-kanojo-ga-majimesugiru-sho-bitch-na-ken-todos-os-episodios",
      "texto_original": "Boku no Kanojo ga Majimesugiru Sho-bitch na Ken",
      "rating": 6.45,
      "classificacao_etaria": "A14",
      "imagem_original": "https://animefire.plus/img/animes/boku-no-kanojo-ga-majimesugiru-sho-bitch-na-ken.webp",
      "imagem_pasta": "https://animefire.plus/img/animes/boku-no-kanojo-ga-majimesugiru-sho-bitch-na-ken/",
      "secao": "legendados",
      "pagina": 141,
      "total_episodios": 10,
      "link_video": "https://animefire.plus/video/boku-no-kanojo-ga-majimesugiru-sho-bitch-na-ken"
    },
    {
      "id": 463,
      "nome": "Boku no Kokoro no Yabai Yatsu",
      "link": "https://animefire.plus/animes/boku-no-kokoro-no-yabai-yatsu-todos-os-episodios",
      "texto_original": "Boku no Kokoro no Yabai Yatsu",
      "rating": 8.22,
      "classificacao_etaria": "A14",
      "imagem_original": "https://animefire.plus/img/animes/boku-no-kokoro-no-yabai-yatsu.jpg",
      "imagem_pasta": "https://animefire.plus/img/animes/boku-no-kokoro-no-yabai-yatsu/",
      "secao": "legendados",
      "pagina": 25,
      "total_episodios": 12,
      "link_video": "https://animefire.plus/video/boku-no-kokoro-no-yabai-yatsu"
    },
    {
      "id": 464,
      "nome": "Boku no Kokoro no Yabai Yatsu Season 2",
      "link": "https://animefire.plus/animes/boku-no-kokoro-no-yabai-yatsu-season-2-todos-os-episodios",
      "texto_original": "Boku no Kokoro no Yabai Yatsu Season 2",
      "rating": 8.73,
      "classificacao_etaria": "A14",
      "imagem_original": "https://animefire.plus/img/animes/boku-no-kokoro-no-yabai-yatsu-season-2.webp",
      "imagem_pasta": "https://animefire.plus/img/animes/boku-no-kokoro-no-yabai-yatsu-season-2/",
      "secao": "legendados",
      "pagina": 17,
      "total_episodios": 13,
      "link_video": "https://animefire.plus/video/boku-no-kokoro-no-yabai-yatsu-season-2"
    },
    {
      "id": 465,
      "nome": "Boku no Tonari ni Ankoku Hakaishin ga Imasu.",
      "link": "https://animefire.plus/animes/boku-no-tonari-ni-ankoku-hakaishin-ga-imasu-todos-os-episodios",
      "texto_original": "Boku no Tonari ni Ankoku Hakaishin ga Imasu.",
      "rating": 6.64,
      "classificacao_etaria": "A14",
      "imagem_original": "https://animefire.plus/img/animes/boku-no-tonari-ni-ankoku-hakaishin-ga-imasu.webp",
      "imagem_pasta": "https://animefire.plus/img/animes/boku-no-tonari-ni-ankoku-hakaishin-ga-imasu/",
      "secao": "legendados",
      "pagina": 92,
      "total_episodios": 5,
      "link_video": "https://animefire.plus/video/boku-no-tonari-ni-ankoku-hakaishin-ga-imasu"
    },
    {
      "id": 466,
      "nome": "Boku no Tsuma wa Kanjou ga Nai",
      "link": "https://animefire.plus/animes/boku-no-tsuma-wa-kanjou-ga-nai-todos-os-episodios",
      "texto_original": "Boku no Tsuma wa Kanjou ga Nai",
      "rating": 6.75,
      "classificacao_etaria": "A14",
      "imagem_original": "https://animefire.plus/img/animes/boku-no-tsuma-wa-kanjou-ga-nai.webp",
      "imagem_pasta": "https://animefire.plus/img/animes/boku-no-tsuma-wa-kanjou-ga-nai/",
      "secao": "legendados",
      "pagina": 12,
      "total_episodios": 12,
      "link_video": "https://animefire.plus/video/boku-no-tsuma-wa-kanjou-ga-nai"
    },
    {
      "id": 467,
      "nome": "Boku to Roboko",
      "link": "https://animefire.plus/animes/boku-to-roboko-todos-os-episodios",
      "texto_original": "Boku to Roboko",
      "rating": 6.83,
      "classificacao_etaria": "A14",
      "imagem_original": "https://animefire.plus/img/animes/boku-to-roboko.webp",
      "imagem_pasta": "https://animefire.plus/img/animes/boku-to-roboko/",
      "secao": "legendados,lancamentos",
      "pagina": 26,
      "total_episodios": 1,
      "link_video": "https://animefire.plus/video/boku-to-roboko"
    },
    {
      "id": 468,
      "nome": "Boku wa Tomodachi ga Sukunai",
      "link": "https://animefire.plus/animes/boku-wa-tomodachi-ga-sukunai-todos-os-episodios",
      "texto_original": "Boku wa Tomodachi ga Sukunai",
      "rating": 7.41,
      "classificacao_etaria": "A18",
      "imagem_original": "https://animefire.plus/img/animes/boku-wa-tomodachi-ga-sukunai.webp",
      "imagem_pasta": "https://animefire.plus/img/animes/boku-wa-tomodachi-ga-sukunai/",
      "secao": "legendados",
      "pagina": 115,
      "total_episodios": 0,
      "link_video": "https://animefire.plus/video/boku-wa-tomodachi-ga-sukunai"
    },
    {
      "id": 469,
      "nome": "Boku wa Tomodachi ga Sukunai Episode 0",
      "link": "https://animefire.plus/animes/boku-wa-tomodachi-ga-sukunai-episode-0-todos-os-episodios",
      "texto_original": "Boku wa Tomodachi ga Sukunai Episode 0",
      "rating": 6.74,
      "classificacao_etaria": "A14",
      "imagem_original": "https://animefire.plus/img/animes/boku-wa-tomodachi-ga-sukunai-episode-0.webp",
      "imagem_pasta": "https://animefire.plus/img/animes/boku-wa-tomodachi-ga-sukunai-episode-0/",
      "secao": "legendados",
      "pagina": 43,
      "total_episodios": 1,
      "link_video": "https://animefire.plus/video/boku-wa-tomodachi-ga-sukunai-episode-0"
    },
    {
      "id": 470,
      "nome": "Boku wa Tomodachi ga Sukunai Next",
      "link": "https://animefire.plus/animes/boku-wa-tomodachi-ga-sukunai-next-todos-os-episodios",
      "texto_original": "Boku wa Tomodachi ga Sukunai Next",
      "rating": 7.53,
      "classificacao_etaria": "A14",
      "imagem_original": "https://animefire.plus/img/animes/boku-wa-tomodachi-ga-sukunai-next.webp",
      "imagem_pasta": "https://animefire.plus/img/animes/boku-wa-tomodachi-ga-sukunai-next/",
      "secao": "legendados",
      "pagina": 125,
      "total_episodios": 0,
      "link_video": "https://animefire.plus/video/boku-wa-tomodachi-ga-sukunai-next"
    },
    {
      "id": 471,
      "nome": "Bokura ga Ita",
      "link": "https://animefire.plus/animes/bokura-ga-ita-todos-os-episodios",
      "texto_original": "Bokura ga Ita",
      "rating": 7.43,
      "classificacao_etaria": "A14",
      "imagem_original": "https://animefire.plus/img/animes/bokura-ga-ita.webp",
      "imagem_pasta": "https://animefire.plus/img/animes/bokura-ga-ita/",
      "secao": "legendados",
      "pagina": 148,
      "total_episodios": 26,
      "link_video": "https://animefire.plus/video/bokura-ga-ita"
    },
    {
      "id": 472,
      "nome": "Bokura no Ameiro Protocol",
      "link": "https://animefire.plus/animes/bokura-no-ameiro-protocol-todos-os-episodios",
      "texto_original": "Bokura no Ameiro Protocol",
      "rating": 6.09,
      "classificacao_etaria": "A14",
      "imagem_original": "https://animefire.plus/img/animes/bokura-no-ameiro-protocol.webp",
      "imagem_pasta": "https://animefire.plus/img/animes/bokura-no-ameiro-protocol/",
      "secao": "legendados",
      "pagina": 19,
      "total_episodios": 12,
      "link_video": "https://animefire.plus/video/bokura-no-ameiro-protocol"
    },
    {
      "id": 473,
      "nome": "Bokura wa Minna Kawai-sou",
      "link": "https://animefire.plus/animes/bokura-wa-minna-kawai-sou-todos-os-episodios",
      "texto_original": "Bokura wa Minna Kawai-sou",
      "rating": 7.8,
      "classificacao_etaria": "A14",
      "imagem_original": "https://animefire.plus/img/animes/bokura-wa-minna-kawai-sou.webp",
      "imagem_pasta": "https://animefire.plus/img/animes/bokura-wa-minna-kawai-sou/",
      "secao": "legendados",
      "pagina": 166,
      "total_episodios": 12,
      "link_video": "https://animefire.plus/video/bokura-wa-minna-kawai-sou"
    },
    {
      "id": 474,
      "nome": "Bokurano",
      "link": "https://animefire.plus/animes/bokurano-todos-os-episodios",
      "texto_original": "Bokurano",
      "rating": 7.72,
      "classificacao_etaria": "A16",
      "imagem_original": "https://animefire.plus/img/animes/bokurano.webp",
      "imagem_pasta": "https://animefire.plus/img/animes/bokurano/",
      "secao": "legendados",
      "pagina": 142,
      "total_episodios": 24,
      "link_video": "https://animefire.plus/video/bokurano"
    },
    {
      "id": 475,
      "nome": "Bokusatsu Tenshi Dokuro-chan",
      "link": "https://animefire.plus/animes/bokusatsu-tenshi-dokuro-chan-todos-os-episodios",
      "texto_original": "Bokusatsu Tenshi Dokuro-chan",
      "rating": 6.71,
      "classificacao_etaria": "A16",
      "imagem_original": "https://animefire.plus/img/animes/bokusatsu-tenshi-dokuro-chan.webp",
      "imagem_pasta": "https://animefire.plus/img/animes/bokusatsu-tenshi-dokuro-chan/",
      "secao": "legendados",
      "pagina": 160,
      "total_episodios": 4,
      "link_video": "https://animefire.plus/video/bokusatsu-tenshi-dokuro-chan"
    },
    {
      "id": 476,
      "nome": "Bokusatsu Tenshi Dokuro-chan 2",
      "link": "https://animefire.plus/animes/bokusatsu-tenshi-dokuro-chan-2-todos-os-episodios",
      "texto_original": "Bokusatsu Tenshi Dokuro-chan 2",
      "rating": 6.8,
      "classificacao_etaria": "A16",
      "imagem_original": "https://animefire.plus/img/animes/bokusatsu-tenshi-dokuro-chan-2.webp",
      "imagem_pasta": "https://animefire.plus/img/animes/bokusatsu-tenshi-dokuro-chan-2/",
      "secao": "legendados",
      "pagina": 104,
      "total_episodios": 2,
      "link_video": "https://animefire.plus/video/bokusatsu-tenshi-dokuro-chan-2"
    },
    {
      "id": 477,
      "nome": "Bokutachi no Remake",
      "link": "https://animefire.plus/animes/bokutachi-no-remake-todos-os-episodios",
      "texto_original": "Bokutachi no Remake",
      "rating": 7.39,
      "classificacao_etaria": "A14",
      "imagem_original": "https://animefire.plus/img/animes/bokutachi-no-remake.webp",
      "imagem_pasta": "https://animefire.plus/img/animes/bokutachi-no-remake/",
      "secao": "legendados",
      "pagina": 41,
      "total_episodios": 12,
      "link_video": "https://animefire.plus/video/bokutachi-no-remake"
    },
    {
      "id": 478,
      "nome": "Bokutachi wa Benkyou ga Dekinai",
      "link": "https://animefire.plus/animes/bokutachi-wa-benkyou-ga-dekinai-todos-os-episodios",
      "texto_original": "Bokutachi wa Benkyou ga Dekinai",
      "rating": 7.33,
      "classificacao_etaria": "A14",
      "imagem_original": "https://animefire.plus/img/animes/bokutachi-wa-benkyou-ga-dekinai.webp",
      "imagem_pasta": "https://animefire.plus/img/animes/bokutachi-wa-benkyou-ga-dekinai/",
      "secao": "legendados",
      "pagina": 173,
      "total_episodios": 8,
      "link_video": "https://animefire.plus/video/bokutachi-wa-benkyou-ga-dekinai"
    },
    {
      "id": 479,
      "nome": "Bokutachi wa Benkyou ga Dekinai 2",
      "link": "https://animefire.plus/animes/bokutachi-wa-benkyou-ga-dekinai-2-todos-os-episodios",
      "texto_original": "Bokutachi wa Benkyou ga Dekinai 2",
      "rating": 7.36,
      "classificacao_etaria": "A14",
      "imagem_original": "https://animefire.plus/img/animes/bokutachi-wa-benkyou-ga-dekinai-2.webp",
      "imagem_pasta": "https://animefire.plus/img/animes/bokutachi-wa-benkyou-ga-dekinai-2/",
      "secao": "legendados",
      "pagina": 110,
      "total_episodios": 0,
      "link_video": "https://animefire.plus/video/bokutachi-wa-benkyou-ga-dekinai-2"
    },
    {
      "id": 480,
      "nome": "Bokutachi wa Benkyou ga Dekinai OVA",
      "link": "https://animefire.plus/animes/bokutachi-wa-benkyou-ga-dekinai-ova-todos-os-episodios",
      "texto_original": "Bokutachi wa Benkyou ga Dekinai OVA",
      "rating": 7.36,
      "classificacao_etaria": "A14",
      "imagem_original": "https://animefire.plus/img/animes/bokutachi-wa-benkyou-ga-dekinai-ova.webp",
      "imagem_pasta": "https://animefire.plus/img/animes/bokutachi-wa-benkyou-ga-dekinai-ova/",
      "secao": "legendados",
      "pagina": 80,
      "total_episodios": 2,
      "link_video": "https://animefire.plus/video/bokutachi-wa-benkyou-ga-dekinai-ova"
    }
  ],
  "pagination": {
    "current_page": 24,
    "per_page": 20,
    "total_items": 4368,
    "total_pages": 219,
    "has_next": true,
    "has_prev": true
  }
}
