{
  "message": "Lista de animes",
  "data": [
    {
      "id": 601,
      "nome": "Chiba Pedal: Yowamushi Pedal to Manabu Jitensha Koutsuu Anzen",
      "link": "https://animefire.plus/animes/chiba-pedal-yowamushi-pedal-to-manabu-jitensha-koutsuu-anzen-todos-os-episodios",
      "texto_original": "Chiba Pedal: Yowamushi Pedal to Manabu Jitensha Koutsuu Anzen",
      "rating": 6.31,
      "classificacao_etaria": "A14",
      "imagem_original": "https://animefire.plus/img/animes/chiba-pedal-yowamushi-pedal-to-manabu-jitensha-koutsuu-anzen.webp",
      "imagem_pasta": "https://animefire.plus/img/animes/chiba-pedal-yowamushi-pedal-to-manabu-jitensha-koutsuu-anzen/",
      "secao": "legendados",
      "pagina": 86,
      "total_episodios": 6,
      "link_video": "https://animefire.plus/video/chiba-pedal-yowamushi-pedal-to-manabu-jitensha-koutsuu-anzen"
    },
    {
      "id": 602,
      "nome": "Chicchana Yukitsukai Sugar",
      "link": "https://animefire.plus/animes/chicchana-yukitsukai-sugar-todos-os-episodios",
      "texto_original": "Chicchana Yukitsukai Sugar",
      "rating": 7.15,
      "classificacao_etaria": "A10",
      "imagem_original": "https://animefire.plus/img/animes/chicchana-yukitsukai-sugar.webp",
      "imagem_pasta": "https://animefire.plus/img/animes/chicchana-yukitsukai-sugar/",
      "secao": "legendados",
      "pagina": 152,
      "total_episodios": 24,
      "link_video": "https://animefire.plus/video/chicchana-yukitsukai-sugar"
    },
    {
      "id": 603,
      "nome": "Chihayafuru",
      "link": "https://animefire.plus/animes/chihayafuru-todos-os-episodios",
      "texto_original": "Chihayafuru",
      "rating": 8.27,
      "classificacao_etaria": "A14",
      "imagem_original": "https://animefire.plus/img/animes/chihayafuru.webp",
      "imagem_pasta": "https://animefire.plus/img/animes/chihayafuru/",
      "secao": "legendados",
      "pagina": 144,
      "total_episodios": 25,
      "link_video": "https://animefire.plus/video/chihayafuru"
    },
    {
      "id": 604,
      "nome": "Chihayafuru 2",
      "link": "https://animefire.plus/animes/chihayafuru-2-todos-os-episodios",
      "texto_original": "Chihayafuru 2",
      "rating": 8.45,
      "classificacao_etaria": "A14",
      "imagem_original": "https://animefire.plus/img/animes/chihayafuru-2.webp",
      "imagem_pasta": "https://animefire.plus/img/animes/chihayafuru-2/",
      "secao": "legendados",
      "pagina": 163,
      "total_episodios": 25,
      "link_video": "https://animefire.plus/video/chihayafuru-2"
    },
    {
      "id": 605,
      "nome": "Chihayafuru 3",
      "link": "https://animefire.plus/animes/chihayafuru-3-todos-os-episodios",
      "texto_original": "Chihayafuru 3",
      "rating": 8.52,
      "classificacao_etaria": "A14",
      "imagem_original": "https://animefire.plus/img/animes/chihayafuru-3.webp",
      "imagem_pasta": "https://animefire.plus/img/animes/chihayafuru-3/",
      "secao": "legendados",
      "pagina": 95,
      "total_episodios": 0,
      "link_video": "https://animefire.plus/video/chihayafuru-3"
    },
    {
      "id": 606,
      "nome": "Chiikawa",
      "link": "https://animefire.plus/animes/chiikawa-todos-os-episodios",
      "texto_original": "Chiikawa",
      "rating": 7.03,
      "classificacao_etaria": null,
      "imagem_original": "https://animefire.plus/img/animes/chiikawa.webp",
      "imagem_pasta": "https://animefire.plus/img/animes/chiikawa/",
      "secao": "legendados,lancamentos",
      "pagina": 30,
      "total_episodios": 0,
      "link_video": "https://animefire.plus/video/chiikawa"
    },
    {
      "id": 607,
      "nome": "Chiisana Eiyuu: Kani to Tamago to Toumei Ningen (Dublado)",
      "link": "https://animefire.plus/animes/chiisana-eiyuu-kani-to-tamago-to-toumei-ningen-dublado-todos-os-episodios",
      "texto_original": "Chiisana Eiyuu: Kani to Tamago to Toumei Ningen (Dublado)",
      "rating": 7.06,
      "classificacao_etaria": null,
      "imagem_original": "https://animefire.plus/img/animes/chiisana-eiyuu-kani-to-tamago-to-toumei-ningen.webp",
      "imagem_pasta": "https://animefire.plus/img/animes/chiisana-eiyuu-kani-to-tamago-to-toumei-ningen/",
      "secao": "dublados,legendados",
      "pagina": 23,
      "total_episodios": 3,
      "link_video": "https://animefire.plus/video/chiisana-eiyuu-kani-to-tamago-to-toumei-ningen-dublado"
    },
    {
      "id": 608,
      "nome": "Chikyuu Shoujo Arjuna (Dublado)",
      "link": "https://animefire.plus/animes/chikyuu-shoujo-arjuna-dublado-todos-os-episodios",
      "texto_original": "Chikyuu Shoujo Arjuna (Dublado)",
      "rating": 6.91,
      "classificacao_etaria": "A14",
      "imagem_original": "https://animefire.plus/img/animes/chikyuu-shoujo-arjuna.webp",
      "imagem_pasta": "https://animefire.plus/img/animes/chikyuu-shoujo-arjuna/",
      "secao": "dublados,legendados",
      "pagina": 27,
      "total_episodios": 9,
      "link_video": "https://animefire.plus/video/chikyuu-shoujo-arjuna-dublado"
    },
    {
      "id": 609,
      "nome": "Chikyuugai Shounen Shoujo",
      "link": "https://animefire.plus/animes/chikyuugai-shounen-shoujo-todos-os-episodios",
      "texto_original": "Chikyuugai Shounen Shoujo",
      "rating": 6.82,
      "classificacao_etaria": "A14",
      "imagem_original": "https://animefire.plus/img/animes/chikyuugai-shounen-shoujo.webp",
      "imagem_pasta": "https://animefire.plus/img/animes/chikyuugai-shounen-shoujo/",
      "secao": "legendados",
      "pagina": 35,
      "total_episodios": 1,
      "link_video": "https://animefire.plus/video/chikyuugai-shounen-shoujo"
    },
    {
      "id": 610,
      "nome": "Chimimo",
      "link": "https://animefire.plus/animes/chimimo-todos-os-episodios",
      "texto_original": "Chimimo",
      "rating": 6.9,
      "classificacao_etaria": null,
      "imagem_original": "https://animefire.plus/img/animes/chimimo.webp",
      "imagem_pasta": "https://animefire.plus/img/animes/chimimo/",
      "secao": "legendados",
      "pagina": 31,
      "total_episodios": 12,
      "link_video": "https://animefire.plus/video/chimimo"
    },
    {
      "id": 611,
      "nome": "Chio-chan no Tsuugakuro",
      "link": "https://animefire.plus/animes/chio-chan-no-tsuugakuro-todos-os-episodios",
      "texto_original": "Chio-chan no Tsuugakuro",
      "rating": 7.5,
      "classificacao_etaria": "A14",
      "imagem_original": "https://animefire.plus/img/animes/chio-chan-no-tsuugakuro.webp",
      "imagem_pasta": "https://animefire.plus/img/animes/chio-chan-no-tsuugakuro/",
      "secao": "legendados",
      "pagina": 146,
      "total_episodios": 12,
      "link_video": "https://animefire.plus/video/chio-chan-no-tsuugakuro"
    },
    {
      "id": 612,
      "nome": "Chiryokumaru",
      "link": "https://animefire.plus/animes/chiryokumaru-todos-os-episodios",
      "texto_original": "Chiryokumaru",
      "rating": 5.18,
      "classificacao_etaria": "A14",
      "imagem_original": "https://animefire.plus/img/animes/chiryokumaru.webp",
      "imagem_pasta": "https://animefire.plus/img/animes/chiryokumaru/",
      "secao": "legendados",
      "pagina": 70,
      "total_episodios": 1,
      "link_video": "https://animefire.plus/video/chiryokumaru"
    },
    {
      "id": 613,
      "nome": "Chitose Get You!!",
      "link": "https://animefire.plus/animes/chitose-get-you-todos-os-episodios",
      "texto_original": "Chitose Get You!!",
      "rating": 6.35,
      "classificacao_etaria": "A14",
      "imagem_original": "https://animefire.plus/img/animes/chitose-get-you.webp",
      "imagem_pasta": "https://animefire.plus/img/animes/chitose-get-you/",
      "secao": "legendados",
      "pagina": 167,
      "total_episodios": 0,
      "link_video": "https://animefire.plus/video/chitose-get-you"
    },
    {
      "id": 614,
      "nome": "Chivas 1-2-3",
      "link": "https://animefire.plus/animes/chivas-1-2-3-todos-os-episodios",
      "texto_original": "Chivas 1-2-3",
      "rating": 6.06,
      "classificacao_etaria": "A18",
      "imagem_original": "https://animefire.plus/img/animes/chivas-1-2-3.webp",
      "imagem_pasta": "https://animefire.plus/img/animes/chivas-1-2-3/",
      "secao": "legendados",
      "pagina": 68,
      "total_episodios": 2,
      "link_video": "https://animefire.plus/video/chivas-1-2-3"
    },
    {
      "id": 615,
      "nome": "Chiyu Mahou no Machigatta Tsukaikata (Dublado)",
      "link": "https://animefire.plus/animes/chiyu-mahou-no-machigatta-tsukaikata-dublado-todos-os-episodios",
      "texto_original": "Chiyu Mahou no Machigatta Tsukaikata (Dublado)",
      "rating": 7.53,
      "classificacao_etaria": "A14",
      "imagem_original": "https://animefire.plus/img/animes/chiyu-mahou-no-machigatta-tsukaikata.webp",
      "imagem_pasta": "https://animefire.plus/img/animes/chiyu-mahou-no-machigatta-tsukaikata/",
      "secao": "dublados,legendados,lancamentos",
      "pagina": 3,
      "total_episodios": 13,
      "link_video": "https://animefire.plus/video/chiyu-mahou-no-machigatta-tsukaikata-dublado"
    },
    {
      "id": 616,
      "nome": "Chobits",
      "link": "https://animefire.plus/animes/chobits-todos-os-episodios",
      "texto_original": "Chobits",
      "rating": 7.5,
      "classificacao_etaria": "A14",
      "imagem_original": "https://animefire.plus/img/animes/chobits.webp",
      "imagem_pasta": "https://animefire.plus/img/animes/chobits/",
      "secao": "legendados",
      "pagina": 137,
      "total_episodios": 15,
      "link_video": "https://animefire.plus/video/chobits"
    },
    {
      "id": 617,
      "nome": "Choboraunyopomi Gekijou Ai Mai Mii",
      "link": "https://animefire.plus/animes/choboraunyopomi-gekijou-ai-mai-mii-todos-os-episodios",
      "texto_original": "Choboraunyopomi Gekijou Ai Mai Mii",
      "rating": 5.87,
      "classificacao_etaria": "A14",
      "imagem_original": "https://animefire.plus/img/animes/choboraunyopomi-gekijou-ai-mai-mii.webp",
      "imagem_pasta": "https://animefire.plus/img/animes/choboraunyopomi-gekijou-ai-mai-mii/",
      "secao": "legendados",
      "pagina": 167,
      "total_episodios": 0,
      "link_video": "https://animefire.plus/video/choboraunyopomi-gekijou-ai-mai-mii"
    },
    {
      "id": 618,
      "nome": "Choboraunyopomi Gekijou Dai San Maku Ai Mai Mii: Surgical Friends",
      "link": "https://animefire.plus/animes/choboraunyopomi-gekijou-dai-san-maku-ai-mai-mii-surgical-friends-todos-os-episodios",
      "texto_original": "Choboraunyopomi Gekijou Dai San Maku Ai Mai Mii: Surgical Friends",
      "rating": 6.14,
      "classificacao_etaria": "A14",
      "imagem_original": "https://animefire.plus/img/animes/choboraunyopomi-gekijou-dai-san-maku-ai-mai-mii-surgical-friends.webp",
      "imagem_pasta": "https://animefire.plus/img/animes/choboraunyopomi-gekijou-dai-san-maku-ai-mai-mii-surgical-friends/",
      "secao": "legendados",
      "pagina": 173,
      "total_episodios": 13,
      "link_video": "https://animefire.plus/video/choboraunyopomi-gekijou-dai-san-maku-ai-mai-mii-surgical-friends"
    },
    {
      "id": 619,
      "nome": "Chocolate Underground",
      "link": "https://animefire.plus/animes/chocolate-underground-todos-os-episodios",
      "texto_original": "Chocolate Underground",
      "rating": 6.22,
      "classificacao_etaria": "A10",
      "imagem_original": "https://animefire.plus/img/animes/chocolate-underground.webp",
      "imagem_pasta": "https://animefire.plus/img/animes/chocolate-underground/",
      "secao": "legendados",
      "pagina": 122,
      "total_episodios": 13,
      "link_video": "https://animefire.plus/video/chocolate-underground"
    },
    {
      "id": 620,
      "nome": "Chocotto Sister",
      "link": "https://animefire.plus/animes/chocotto-sister-todos-os-episodios",
      "texto_original": "Chocotto Sister",
      "rating": 6.78,
      "classificacao_etaria": "A18",
      "imagem_original": "https://animefire.plus/img/animes/chocotto-sister.webp",
      "imagem_pasta": "https://animefire.plus/img/animes/chocotto-sister/",
      "secao": "legendados",
      "pagina": 42,
      "total_episodios": 24,
      "link_video": "https://animefire.plus/video/chocotto-sister"
    }
  ],
  "pagination": {
    "current_page": 31,
    "per_page": 20,
    "total_items": 4368,
    "total_pages": 219,
    "has_next": true,
    "has_prev": true
  }
}
