{
  "message": "Lista de animes",
  "data": [
    {
      "id": 3221,
      "nome": "Saiyuuki Reload: Burial",
      "link": "https://animefire.plus/animes/saiyuuki-reload-burial-todos-os-episodios",
      "texto_original": "Saiyuuki Reload: Burial",
      "rating": 7.96,
      "classificacao_etaria": "A14",
      "imagem_original": "https://animefire.plus/img/animes/saiyuuki-reload-burial.webp",
      "imagem_pasta": "https://animefire.plus/img/animes/saiyuuki-reload-burial/",
      "secao": "legendados",
      "pagina": 113,
      "total_episodios": 3,
      "link_video": "https://animefire.plus/video/saiyuuki-reload-burial"
    },
    {
      "id": 3222,
      "nome": "Saiyuuki Reload: Zeroin",
      "link": "https://animefire.plus/animes/saiyuuki-reload-zeroin-todos-os-episodios",
      "texto_original": "Saiyuuki Reload: Zeroin",
      "rating": 6.65,
      "classificacao_etaria": "A14",
      "imagem_original": "https://animefire.plus/img/animes/saiyuuki-reload-zeroin.webp",
      "imagem_pasta": "https://animefire.plus/img/animes/saiyuuki-reload-zeroin/",
      "secao": "legendados",
      "pagina": 35,
      "total_episodios": 13,
      "link_video": "https://animefire.plus/video/saiyuuki-reload-zeroin"
    },
    {
      "id": 3223,
      "nome": "Sakamichi no Apollon (Dublado)",
      "link": "https://animefire.plus/animes/sakamichi-no-apollon-dublado-todos-os-episodios",
      "texto_original": "Sakamichi no Apollon (Dublado)",
      "rating": 8.32,
      "classificacao_etaria": "A14",
      "imagem_original": "https://animefire.plus/img/animes/sakamichi-no-apollon.webp",
      "imagem_pasta": "https://animefire.plus/img/animes/sakamichi-no-apollon/",
      "secao": "dublados,legendados",
      "pagina": 11,
      "total_episodios": 12,
      "link_video": "https://animefire.plus/video/sakamichi-no-apollon-dublado"
    },
    {
      "id": 3224,
      "nome": "Sakamoto Days (Dublado)",
      "link": "https://animefire.plus/animes/sakamoto-days-dublado-todos-os-episodios",
      "texto_original": "Sakamoto Days (Dublado)",
      "rating": 7.58,
      "classificacao_etaria": "A16",
      "imagem_original": "https://animefire.plus/img/animes/sakamoto-days.webp",
      "imagem_pasta": "https://animefire.plus/img/animes/sakamoto-days/",
      "secao": "dublados,legendados",
      "pagina": 1,
      "total_episodios": 11,
      "link_video": "https://animefire.plus/video/sakamoto-days-dublado"
    },
    {
      "id": 3225,
      "nome": "Sakamoto Days Part 2 (Dublado)",
      "link": "https://animefire.plus/animes/sakamoto-days-part-2-dublado-todos-os-episodios",
      "texto_original": "Sakamoto Days Part 2 (Dublado)",
      "rating": 7.88,
      "classificacao_etaria": "A16",
      "imagem_original": "https://animefire.plus/img/animes/sakamoto-days-part-2.webp",
      "imagem_pasta": "https://animefire.plus/img/animes/sakamoto-days-part-2/",
      "secao": "dublados,legendados,lancamentos",
      "pagina": 1,
      "total_episodios": 4,
      "link_video": "https://animefire.plus/video/sakamoto-days-part-2-dublado"
    },
    {
      "id": 3226,
      "nome": "Sakamoto Desu ga?",
      "link": "https://animefire.plus/animes/sakamoto-desu-ga-todos-os-episodios",
      "texto_original": "Sakamoto Desu ga?",
      "rating": 7.67,
      "classificacao_etaria": "A14",
      "imagem_original": "https://animefire.plus/img/animes/sakamoto-desu-ga.webp",
      "imagem_pasta": "https://animefire.plus/img/animes/sakamoto-desu-ga/",
      "secao": "legendados",
      "pagina": 117,
      "total_episodios": 7,
      "link_video": "https://animefire.plus/video/sakamoto-desu-ga"
    },
    {
      "id": 3227,
      "nome": "Saki",
      "link": "https://animefire.plus/animes/saki-todos-os-episodios",
      "texto_original": "Saki",
      "rating": 7.5,
      "classificacao_etaria": "A14",
      "imagem_original": "https://animefire.plus/img/animes/saki.webp",
      "imagem_pasta": "https://animefire.plus/img/animes/saki/",
      "secao": "legendados",
      "pagina": 65,
      "total_episodios": 25,
      "link_video": "https://animefire.plus/video/saki"
    },
    {
      "id": 3228,
      "nome": "Saki Achiga-hen: Episode of Side-A",
      "link": "https://animefire.plus/animes/saki-achiga-hen-episode-of-side-a-todos-os-episodios",
      "texto_original": "Saki Achiga-hen: Episode of Side-A",
      "rating": 7.34,
      "classificacao_etaria": "A14",
      "imagem_original": "https://animefire.plus/img/animes/saki-achiga-hen-episode-of-side-a.webp",
      "imagem_pasta": "https://animefire.plus/img/animes/saki-achiga-hen-episode-of-side-a/",
      "secao": "legendados",
      "pagina": 65,
      "total_episodios": 12,
      "link_video": "https://animefire.plus/video/saki-achiga-hen-episode-of-side-a"
    },
    {
      "id": 3229,
      "nome": "Saki Biyori Animation",
      "link": "https://animefire.plus/animes/saki-biyori-animation-todos-os-episodios",
      "texto_original": "Saki Biyori Animation",
      "rating": 6.76,
      "classificacao_etaria": "A14",
      "imagem_original": "https://animefire.plus/img/animes/saki-biyori-animation.webp",
      "imagem_pasta": "https://animefire.plus/img/animes/saki-biyori-animation/",
      "secao": "legendados",
      "pagina": 106,
      "total_episodios": 1,
      "link_video": "https://animefire.plus/video/saki-biyori-animation"
    },
    {
      "id": 3230,
      "nome": "Saki Zenkoku-hen",
      "link": "https://animefire.plus/animes/saki-zenkoku-hen-todos-os-episodios",
      "texto_original": "Saki Zenkoku-hen",
      "rating": 7.45,
      "classificacao_etaria": "A14",
      "imagem_original": "https://animefire.plus/img/animes/saki-zenkoku-hen.webp",
      "imagem_pasta": "https://animefire.plus/img/animes/saki-zenkoku-hen/",
      "secao": "legendados",
      "pagina": 65,
      "total_episodios": 13,
      "link_video": "https://animefire.plus/video/saki-zenkoku-hen"
    },
    {
      "id": 3231,
      "nome": "Sakigake!! Cromartie Koukou",
      "link": "https://animefire.plus/animes/sakigake-cromartie-koukou-todos-os-episodios",
      "texto_original": "Sakigake!! Cromartie Koukou",
      "rating": 7.93,
      "classificacao_etaria": "A14",
      "imagem_original": "https://animefire.plus/img/animes/sakigake-cromartie-koukou.webp",
      "imagem_pasta": "https://animefire.plus/img/animes/sakigake-cromartie-koukou/",
      "secao": "legendados",
      "pagina": 45,
      "total_episodios": 25,
      "link_video": "https://animefire.plus/video/sakigake-cromartie-koukou"
    },
    {
      "id": 3232,
      "nome": "Sakugan (Dublado)",
      "link": "https://animefire.plus/animes/sakugan-dublado-todos-os-episodios",
      "texto_original": "Sakugan (Dublado)",
      "rating": 6.51,
      "classificacao_etaria": "A14",
      "imagem_original": "https://animefire.plus/img/animes/sakugan.webp",
      "imagem_pasta": "https://animefire.plus/img/animes/sakugan/",
      "secao": "dublados,legendados",
      "pagina": 14,
      "total_episodios": 12,
      "link_video": "https://animefire.plus/video/sakugan-dublado"
    },
    {
      "id": 3233,
      "nome": "Sakura Internet",
      "link": "https://animefire.plus/animes/sakura-internet-todos-os-episodios",
      "texto_original": "Sakura Internet",
      "rating": 5.76,
      "classificacao_etaria": "A14",
      "imagem_original": "https://animefire.plus/img/animes/sakura-internet.webp",
      "imagem_pasta": "https://animefire.plus/img/animes/sakura-internet/",
      "secao": "legendados",
      "pagina": 85,
      "total_episodios": 1,
      "link_video": "https://animefire.plus/video/sakura-internet"
    },
    {
      "id": 3234,
      "nome": "Sakura Quest",
      "link": "https://animefire.plus/animes/sakura-quest-todos-os-episodios",
      "texto_original": "Sakura Quest",
      "rating": 7.46,
      "classificacao_etaria": "A14",
      "imagem_original": "https://animefire.plus/img/animes/sakura-quest.webp",
      "imagem_pasta": "https://animefire.plus/img/animes/sakura-quest/",
      "secao": "legendados",
      "pagina": 153,
      "total_episodios": 24,
      "link_video": "https://animefire.plus/video/sakura-quest"
    },
    {
      "id": 3235,
      "nome": "Sakura Taisen",
      "link": "https://animefire.plus/animes/sakura-taisen-todos-os-episodios",
      "texto_original": "Sakura Taisen",
      "rating": 6.95,
      "classificacao_etaria": "A14",
      "imagem_original": "https://animefire.plus/img/animes/sakura-taisen.webp",
      "imagem_pasta": "https://animefire.plus/img/animes/sakura-taisen/",
      "secao": "legendados",
      "pagina": 176,
      "total_episodios": 25,
      "link_video": "https://animefire.plus/video/sakura-taisen"
    },
    {
      "id": 3236,
      "nome": "Sakura Trick",
      "link": "https://animefire.plus/animes/sakura-trick-todos-os-episodios",
      "texto_original": "Sakura Trick",
      "rating": 7.12,
      "classificacao_etaria": "A14",
      "imagem_original": "https://animefire.plus/img/animes/sakura-trick.webp",
      "imagem_pasta": "https://animefire.plus/img/animes/sakura-trick/",
      "secao": "legendados",
      "pagina": 129,
      "total_episodios": 12,
      "link_video": "https://animefire.plus/video/sakura-trick"
    },
    {
      "id": 3237,
      "nome": "Sakura Tsuushin",
      "link": "https://animefire.plus/animes/sakura-tsuushin-todos-os-episodios",
      "texto_original": "Sakura Tsuushin",
      "rating": 6.27,
      "classificacao_etaria": "A18",
      "imagem_original": "https://animefire.plus/img/animes/sakura-tsuushin.webp",
      "imagem_pasta": "https://animefire.plus/img/animes/sakura-tsuushin/",
      "secao": "legendados",
      "pagina": 124,
      "total_episodios": 12,
      "link_video": "https://animefire.plus/video/sakura-tsuushin"
    },
    {
      "id": 3238,
      "nome": "Sakurada Reset",
      "link": "https://animefire.plus/animes/sakurada-reset-todos-os-episodios",
      "texto_original": "Sakurada Reset",
      "rating": 7.42,
      "classificacao_etaria": "A14",
      "imagem_original": "https://animefire.plus/img/animes/sakurada-reset.webp",
      "imagem_pasta": "https://animefire.plus/img/animes/sakurada-reset/",
      "secao": "legendados",
      "pagina": 147,
      "total_episodios": 24,
      "link_video": "https://animefire.plus/video/sakurada-reset"
    },
    {
      "id": 3239,
      "nome": "Sakurako-san no Ashimoto ni wa Shitai ga Umatteiru",
      "link": "https://animefire.plus/animes/sakurako-san-no-ashimoto-ni-wa-shitai-ga-umatteiru-todos-os-episodios",
      "texto_original": "Sakurako-san no Ashimoto ni wa Shitai ga Umatteiru",
      "rating": 7.46,
      "classificacao_etaria": "A16",
      "imagem_original": "https://animefire.plus/img/animes/sakurako-san-no-ashimoto-ni-wa-shitai-ga-umatteiru.webp",
      "imagem_pasta": "https://animefire.plus/img/animes/sakurako-san-no-ashimoto-ni-wa-shitai-ga-umatteiru/",
      "secao": "legendados",
      "pagina": 154,
      "total_episodios": 12,
      "link_video": "https://animefire.plus/video/sakurako-san-no-ashimoto-ni-wa-shitai-ga-umatteiru"
    },
    {
      "id": 3240,
      "nome": "Sakurasou no Pet na Kanojo",
      "link": "https://animefire.plus/animes/sakurasou-no-pet-na-kanojo-todos-os-episodios",
      "texto_original": "Sakurasou no Pet na Kanojo",
      "rating": 8.29,
      "classificacao_etaria": "A14",
      "imagem_original": "https://animefire.plus/img/animes/sakurasou-no-pet-na-kanojo.webp",
      "imagem_pasta": "https://animefire.plus/img/animes/sakurasou-no-pet-na-kanojo/",
      "secao": "legendados",
      "pagina": 145,
      "total_episodios": 1,
      "link_video": "https://animefire.plus/video/sakurasou-no-pet-na-kanojo"
    }
  ],
  "pagination": {
    "current_page": 162,
    "per_page": 20,
    "total_items": 4368,
    "total_pages": 219,
    "has_next": true,
    "has_prev": true
  }
}
