{
  "message": "Lista de animes",
  "data": [
    {
      "id": 1721,
      "nome": "Jigoku Sensei Nube",
      "link": "https://animefire.plus/animes/jigoku-sensei-nube-todos-os-episodios",
      "texto_original": "Jigoku Sensei Nube",
      "rating": 7.62,
      "classificacao_etaria": "A14",
      "imagem_original": "https://animefire.plus/img/animes/jigoku-sensei-nube.webp",
      "imagem_pasta": "https://animefire.plus/img/animes/jigoku-sensei-nube/",
      "secao": "legendados",
      "pagina": 122,
      "total_episodios": 49,
      "link_video": "https://animefire.plus/video/jigoku-sensei-nube"
    },
    {
      "id": 1722,
      "nome": "Jigoku Sensei Nube (2025)",
      "link": "https://animefire.plus/animes/jigoku-sensei-nube-2025-todos-os-episodios",
      "texto_original": "Jigoku Sensei Nube (2025)",
      "rating": 6.69,
      "classificacao_etaria": "A14",
      "imagem_original": "https://animefire.plus/img/animes/jigoku-sensei-nube-2025.webp",
      "imagem_pasta": "https://animefire.plus/img/animes/jigoku-sensei-nube-2025/",
      "secao": "legendados,lancamentos",
      "pagina": 2,
      "total_episodios": 2,
      "link_video": "https://animefire.plus/video/jigoku-sensei-nube-2025"
    },
    {
      "id": 1723,
      "nome": "Jigoku Shoujo (Dublado)",
      "link": "https://animefire.plus/animes/jigoku-shoujo-dublado-todos-os-episodios",
      "texto_original": "Jigoku Shoujo (Dublado)",
      "rating": 7.68,
      "classificacao_etaria": "A16",
      "imagem_original": "https://animefire.plus/img/animes/jigoku-shoujo.webp",
      "imagem_pasta": "https://animefire.plus/img/animes/jigoku-shoujo/",
      "secao": "dublados,legendados",
      "pagina": 25,
      "total_episodios": 26,
      "link_video": "https://animefire.plus/video/jigoku-shoujo-dublado"
    },
    {
      "id": 1724,
      "nome": "Jigoku Shoujo Futakomori",
      "link": "https://animefire.plus/animes/jigoku-shoujo-futakomori-todos-os-episodios",
      "texto_original": "Jigoku Shoujo Futakomori",
      "rating": 8.01,
      "classificacao_etaria": "A16",
      "imagem_original": "https://animefire.plus/img/animes/jigoku-shoujo-futakomori.webp",
      "imagem_pasta": "https://animefire.plus/img/animes/jigoku-shoujo-futakomori/",
      "secao": "legendados",
      "pagina": 177,
      "total_episodios": 0,
      "link_video": "https://animefire.plus/video/jigoku-shoujo-futakomori"
    },
    {
      "id": 1725,
      "nome": "Jigoku Shoujo Mitsuganae",
      "link": "https://animefire.plus/animes/jigoku-shoujo-mitsuganae-todos-os-episodios",
      "texto_original": "Jigoku Shoujo Mitsuganae",
      "rating": 7.72,
      "classificacao_etaria": "A16",
      "imagem_original": "https://animefire.plus/img/animes/jigoku-shoujo-mitsuganae.webp",
      "imagem_pasta": "https://animefire.plus/img/animes/jigoku-shoujo-mitsuganae/",
      "secao": "legendados",
      "pagina": 167,
      "total_episodios": 0,
      "link_video": "https://animefire.plus/video/jigoku-shoujo-mitsuganae"
    },
    {
      "id": 1726,
      "nome": "Jigoku Shoujo: Yoi no Togi",
      "link": "https://animefire.plus/animes/jigoku-shoujo-yoi-no-togi-todos-os-episodios",
      "texto_original": "Jigoku Shoujo: Yoi no Togi",
      "rating": 6.61,
      "classificacao_etaria": "A16",
      "imagem_original": "https://animefire.plus/img/animes/jigoku-shoujo-yoi-no-togi.webp",
      "imagem_pasta": "https://animefire.plus/img/animes/jigoku-shoujo-yoi-no-togi/",
      "secao": "legendados",
      "pagina": 126,
      "total_episodios": 12,
      "link_video": "https://animefire.plus/video/jigoku-shoujo-yoi-no-togi"
    },
    {
      "id": 1727,
      "nome": "Jigokuraku (Dublado)",
      "link": "https://animefire.plus/animes/jigokuraku-dublado-todos-os-episodios",
      "texto_original": "Jigokuraku (Dublado)",
      "rating": 8.09,
      "classificacao_etaria": "A16",
      "imagem_original": "https://animefire.plus/img/animes/jigokuraku.webp",
      "imagem_pasta": "https://animefire.plus/img/animes/jigokuraku/",
      "secao": "dublados,legendados",
      "pagina": 7,
      "total_episodios": 13,
      "link_video": "https://animefire.plus/video/jigokuraku-dublado"
    },
    {
      "id": 1728,
      "nome": "Jiisan Baasan Wakagaeru",
      "link": "https://animefire.plus/animes/jiisan-baasan-wakagaeru-todos-os-episodios",
      "texto_original": "Jiisan Baasan Wakagaeru",
      "rating": 7.46,
      "classificacao_etaria": "A14",
      "imagem_original": "https://animefire.plus/img/animes/jiisan-baasan-wakagaeru.webp",
      "imagem_pasta": "https://animefire.plus/img/animes/jiisan-baasan-wakagaeru/",
      "secao": "legendados",
      "pagina": 15,
      "total_episodios": 11,
      "link_video": "https://animefire.plus/video/jiisan-baasan-wakagaeru"
    },
    {
      "id": 1729,
      "nome": "Jijou o Shiranai Tenkousei ga Guigui Kuru",
      "link": "https://animefire.plus/animes/jijou-o-shiranai-tenkousei-ga-guigui-kuru-todos-os-episodios",
      "texto_original": "Jijou o Shiranai Tenkousei ga Guigui Kuru",
      "rating": 7.51,
      "classificacao_etaria": "A14",
      "imagem_original": "https://animefire.plus/img/animes/jijou-o-shiranai-tenkousei-ga-guigui-kuru.jpg",
      "imagem_pasta": "https://animefire.plus/img/animes/jijou-o-shiranai-tenkousei-ga-guigui-kuru/",
      "secao": "legendados",
      "pagina": 24,
      "total_episodios": 13,
      "link_video": "https://animefire.plus/video/jijou-o-shiranai-tenkousei-ga-guigui-kuru"
    },
    {
      "id": 1730,
      "nome": "Jikan no Shihaisha",
      "link": "https://animefire.plus/animes/jikan-no-shihaisha-todos-os-episodios",
      "texto_original": "Jikan no Shihaisha",
      "rating": 6.41,
      "classificacao_etaria": "A14",
      "imagem_original": "https://animefire.plus/img/animes/jikan-no-shihaisha.webp",
      "imagem_pasta": "https://animefire.plus/img/animes/jikan-no-shihaisha/",
      "secao": "legendados",
      "pagina": 152,
      "total_episodios": 13,
      "link_video": "https://animefire.plus/video/jikan-no-shihaisha"
    },
    {
      "id": 1731,
      "nome": "Jimihen!!: Jimiko wo Kaechau Jun Isei Kouyuu!!",
      "link": "https://animefire.plus/animes/jimihen-jimiko-wo-kaechau-jun-isei-kouyuu-todos-os-episodios",
      "texto_original": "Jimihen!!: Jimiko wo Kaechau Jun Isei Kouyuu!!",
      "rating": 6.38,
      "classificacao_etaria": "A18",
      "imagem_original": "https://animefire.plus/img/animes/jimihen-jimiko-wo-kaechau-jun-isei-kouyuu.webp",
      "imagem_pasta": "https://animefire.plus/img/animes/jimihen-jimiko-wo-kaechau-jun-isei-kouyuu/",
      "secao": "legendados,lancamentos",
      "pagina": 50,
      "total_episodios": 0,
      "link_video": "https://animefire.plus/video/jimihen-jimiko-wo-kaechau-jun-isei-kouyuu"
    },
    {
      "id": 1732,
      "nome": "Jin Tian Kai Shi Zuo Ming Xing",
      "link": "https://animefire.plus/animes/jin-tian-kai-shi-zuo-ming-xing-todos-os-episodios",
      "texto_original": "Jin Tian Kai Shi Zuo Ming Xing",
      "rating": 7.04,
      "classificacao_etaria": "A14",
      "imagem_original": "https://animefire.plus/img/animes/jin-tian-kai-shi-zuo-ming-xing.webp",
      "imagem_pasta": "https://animefire.plus/img/animes/jin-tian-kai-shi-zuo-ming-xing/",
      "secao": "legendados",
      "pagina": 80,
      "total_episodios": 13,
      "link_video": "https://animefire.plus/video/jin-tian-kai-shi-zuo-ming-xing"
    },
    {
      "id": 1733,
      "nome": "Jingai-san no Yome",
      "link": "https://animefire.plus/animes/jingai-san-no-yome-todos-os-episodios",
      "texto_original": "Jingai-san no Yome",
      "rating": 5.64,
      "classificacao_etaria": "A14",
      "imagem_original": "https://animefire.plus/img/animes/jingai-san-no-yome.webp",
      "imagem_pasta": "https://animefire.plus/img/animes/jingai-san-no-yome/",
      "secao": "legendados",
      "pagina": 123,
      "total_episodios": 12,
      "link_video": "https://animefire.plus/video/jingai-san-no-yome"
    },
    {
      "id": 1734,
      "nome": "Jinki:Extend",
      "link": "https://animefire.plus/animes/jinki-extend-todos-os-episodios",
      "texto_original": "Jinki:Extend",
      "rating": 6.2,
      "classificacao_etaria": "A16",
      "imagem_original": "https://animefire.plus/img/animes/jinki-extend.webp",
      "imagem_pasta": "https://animefire.plus/img/animes/jinki-extend/",
      "secao": "legendados",
      "pagina": 125,
      "total_episodios": 12,
      "link_video": "https://animefire.plus/video/jinki-extend"
    },
    {
      "id": 1735,
      "nome": "Jinrui wa Suitai Shimashita",
      "link": "https://animefire.plus/animes/jinrui-wa-suitai-shimashita-todos-os-episodios",
      "texto_original": "Jinrui wa Suitai Shimashita",
      "rating": 7.84,
      "classificacao_etaria": "A14",
      "imagem_original": "https://animefire.plus/img/animes/jinrui-wa-suitai-shimashita.webp",
      "imagem_pasta": "https://animefire.plus/img/animes/jinrui-wa-suitai-shimashita/",
      "secao": "legendados",
      "pagina": 175,
      "total_episodios": 8,
      "link_video": "https://animefire.plus/video/jinrui-wa-suitai-shimashita"
    },
    {
      "id": 1736,
      "nome": "Jinsei",
      "link": "https://animefire.plus/animes/jinsei-todos-os-episodios",
      "texto_original": "Jinsei",
      "rating": 6.54,
      "classificacao_etaria": "A14",
      "imagem_original": "https://animefire.plus/img/animes/jinsei.webp",
      "imagem_pasta": "https://animefire.plus/img/animes/jinsei/",
      "secao": "legendados",
      "pagina": 153,
      "total_episodios": 4,
      "link_video": "https://animefire.plus/video/jinsei"
    },
    {
      "id": 1737,
      "nome": "Jitsu wa Ore, Saikyou deshita?",
      "link": "https://animefire.plus/animes/jitsu-wa-ore-saikyou-deshita-todos-os-episodios",
      "texto_original": "Jitsu wa Ore, Saikyou deshita?",
      "rating": 6.48,
      "classificacao_etaria": "A14",
      "imagem_original": "https://animefire.plus/img/animes/jitsu-wa-ore-saikyou-deshita.jpg",
      "imagem_pasta": "https://animefire.plus/img/animes/jitsu-wa-ore-saikyou-deshita/",
      "secao": "legendados",
      "pagina": 23,
      "total_episodios": 12,
      "link_video": "https://animefire.plus/video/jitsu-wa-ore-saikyou-deshita"
    },
    {
      "id": 1738,
      "nome": "Jitsu Wa Watashi Wa",
      "link": "https://animefire.plus/animes/jitsu-wa-watashi-wa-todos-os-episodios",
      "texto_original": "Jitsu Wa Watashi Wa",
      "rating": 7.03,
      "classificacao_etaria": "A14",
      "imagem_original": "https://animefire.plus/img/animes/jitsu-wa-watashi-wa.webp",
      "imagem_pasta": "https://animefire.plus/img/animes/jitsu-wa-watashi-wa/",
      "secao": "legendados",
      "pagina": 95,
      "total_episodios": 13,
      "link_video": "https://animefire.plus/video/jitsu-wa-watashi-wa"
    },
    {
      "id": 1739,
      "nome": "JoJo no Kimyou na Bouken (TV) (Dublado)",
      "link": "https://animefire.plus/animes/jojo-no-kimyou-na-bouken-tv-dublado-todos-os-episodios",
      "texto_original": "JoJo no Kimyou na Bouken (TV) (Dublado)",
      "rating": 7.99,
      "classificacao_etaria": "A16",
      "imagem_original": "https://animefire.plus/img/animes/jojo-no-kimyou-na-bouken-tv.webp",
      "imagem_pasta": "https://animefire.plus/img/animes/jojo-no-kimyou-na-bouken-tv/",
      "secao": "dublados,legendados",
      "pagina": 17,
      "total_episodios": 26,
      "link_video": "https://animefire.plus/video/jojo-no-kimyou-na-bouken-tv-dublado"
    },
    {
      "id": 1740,
      "nome": "JoJo no Kimyou na Bouken Part 3: Stardust Crusaders (Dublado)",
      "link": "https://animefire.plus/animes/jojo-no-kimyou-na-bouken-part-3-stardust-crusaders-dublado-todos-os-episodios",
      "texto_original": "JoJo no Kimyou na Bouken Part 3: Stardust Crusaders (Dublado)",
      "rating": 8.09,
      "classificacao_etaria": "A16",
      "imagem_original": "https://animefire.plus/img/animes/jojo-no-kimyou-na-bouken-part-3-stardust-crusaders.webp",
      "imagem_pasta": "https://animefire.plus/img/animes/jojo-no-kimyou-na-bouken-part-3-stardust-crusaders/",
      "secao": "dublados,legendados",
      "pagina": 15,
      "total_episodios": 24,
      "link_video": "https://animefire.plus/video/jojo-no-kimyou-na-bouken-part-3-stardust-crusaders-dublado"
    }
  ],
  "pagination": {
    "current_page": 87,
    "per_page": 20,
    "total_items": 4368,
    "total_pages": 219,
    "has_next": true,
    "has_prev": true
  }
}
