{
  "message": "Lista de animes",
  "data": [
    {
      "id": 1921,
      "nome": "Kazemakase Tsukikage Ran (Dublado)",
      "link": "https://animefire.plus/animes/kazemakase-tsukikage-ran-dublado-todos-os-episodios",
      "texto_original": "Kazemakase Tsukikage Ran (Dublado)",
      "rating": 7.16,
      "classificacao_etaria": "A14",
      "imagem_original": "https://animefire.plus/img/animes/kazemakase-tsukikage-ran.webp",
      "imagem_pasta": "https://animefire.plus/img/animes/kazemakase-tsukikage-ran/",
      "secao": "dublados",
      "pagina": 27,
      "total_episodios": 13,
      "link_video": "https://animefire.plus/video/kazemakase-tsukikage-ran-dublado"
    },
    {
      "id": 1922,
      "nome": "Keifuku-san",
      "link": "https://animefire.plus/animes/keifuku-san-todos-os-episodios",
      "texto_original": "Keifuku-san",
      "rating": 5.98,
      "classificacao_etaria": null,
      "imagem_original": "https://animefire.plus/img/animes/keifuku-san.webp",
      "imagem_pasta": "https://animefire.plus/img/animes/keifuku-san/",
      "secao": "legendados",
      "pagina": 65,
      "total_episodios": 1,
      "link_video": "https://animefire.plus/video/keifuku-san"
    },
    {
      "id": 1923,
      "nome": "Keijo!!!!!!!!",
      "link": "https://animefire.plus/animes/keijo-todos-os-episodios",
      "texto_original": "Keijo!!!!!!!!",
      "rating": 7.24,
      "classificacao_etaria": "A14",
      "imagem_original": "https://animefire.plus/img/animes/keijo.webp",
      "imagem_pasta": "https://animefire.plus/img/animes/keijo/",
      "secao": "legendados",
      "pagina": 154,
      "total_episodios": 1,
      "link_video": "https://animefire.plus/video/keijo"
    },
    {
      "id": 1924,
      "nome": "Keikenzumi na Kimi to, Keiken Zero na Ore ga, Otsukiai suru Hanashi.",
      "link": "https://animefire.plus/animes/keikenzumi-na-kimi-to-keiken-zero-na-ore-ga-otsukiai-suru-hanashi-todos-os-episodios",
      "texto_original": "Keikenzumi na Kimi to, Keiken Zero na Ore ga, Otsukiai suru Hanashi.",
      "rating": 6.76,
      "classificacao_etaria": "A14",
      "imagem_original": "https://animefire.plus/img/animes/keikenzumi-na-kimi-to-keiken-zero-na-ore-ga-otsukiai-suru-hanashi.webp",
      "imagem_pasta": "https://animefire.plus/img/animes/keikenzumi-na-kimi-to-keiken-zero-na-ore-ga-otsukiai-suru-hanashi/",
      "secao": "legendados",
      "pagina": 21,
      "total_episodios": 12,
      "link_video": "https://animefire.plus/video/keikenzumi-na-kimi-to-keiken-zero-na-ore-ga-otsukiai-suru-hanashi"
    },
    {
      "id": 1925,
      "nome": "Keishichou Tokumubu Tokushu Kyouakuhan Taisakushitsu Dainanaka: Tokunana",
      "link": "https://animefire.plus/animes/keishichou-tokumubu-tokushu-kyouakuhan-taisakushitsu-dainanaka-tokunana-todos-os-episodios",
      "texto_original": "Keishichou Tokumubu Tokushu Kyouakuhan Taisakushitsu Dainanaka: Tokunana",
      "rating": 6.02,
      "classificacao_etaria": "A14",
      "imagem_original": "https://animefire.plus/img/animes/keishichou-tokumubu-tokushu-kyouakuhan-taisakushitsu-dainanaka-tokunana.webp",
      "imagem_pasta": "https://animefire.plus/img/animes/keishichou-tokumubu-tokushu-kyouakuhan-taisakushitsu-dainanaka-tokunana/",
      "secao": "legendados",
      "pagina": 110,
      "total_episodios": 12,
      "link_video": "https://animefire.plus/video/keishichou-tokumubu-tokushu-kyouakuhan-taisakushitsu-dainanaka-tokunana"
    },
    {
      "id": 1926,
      "nome": "Keishichou Tokumubu Tokushu Kyouakuhan Taisakushitsu Dainanaka: Tokunana OVA",
      "link": "https://animefire.plus/animes/keishichou-tokumubu-tokushu-kyouakuhan-taisakushitsu-dainanaka-tokunana-ova-todos-os-episodios",
      "texto_original": "Keishichou Tokumubu Tokushu Kyouakuhan Taisakushitsu Dainanaka: Tokunana OVA",
      "rating": 6.03,
      "classificacao_etaria": null,
      "imagem_original": "https://animefire.plus/img/animes/keishichou-tokumubu-tokushu-kyouakuhan-taisakushitsu-dainanaka-tokunana-ova.webp",
      "imagem_pasta": "https://animefire.plus/img/animes/keishichou-tokumubu-tokushu-kyouakuhan-taisakushitsu-dainanaka-tokunana-ova/",
      "secao": "legendados",
      "pagina": 57,
      "total_episodios": 1,
      "link_video": "https://animefire.plus/video/keishichou-tokumubu-tokushu-kyouakuhan-taisakushitsu-dainanaka-tokunana-ova"
    },
    {
      "id": 1927,
      "nome": "Keitai Shoujo",
      "link": "https://animefire.plus/animes/keitai-shoujo-todos-os-episodios",
      "texto_original": "Keitai Shoujo",
      "rating": 5.36,
      "classificacao_etaria": "A14",
      "imagem_original": "https://animefire.plus/img/animes/keitai-shoujo.webp",
      "imagem_pasta": "https://animefire.plus/img/animes/keitai-shoujo/",
      "secao": "legendados",
      "pagina": 131,
      "total_episodios": 5,
      "link_video": "https://animefire.plus/video/keitai-shoujo"
    },
    {
      "id": 1928,
      "nome": "Kekkai Sensen (Dublado)",
      "link": "https://animefire.plus/animes/kekkai-sensen-dublado-todos-os-episodios",
      "texto_original": "Kekkai Sensen (Dublado)",
      "rating": 7.66,
      "classificacao_etaria": "A16",
      "imagem_original": "https://animefire.plus/img/animes/kekkai-sensen.webp",
      "imagem_pasta": "https://animefire.plus/img/animes/kekkai-sensen/",
      "secao": "dublados,legendados",
      "pagina": 20,
      "total_episodios": 13,
      "link_video": "https://animefire.plus/video/kekkai-sensen-dublado"
    },
    {
      "id": 1929,
      "nome": "Kekkai Sensen & Beyond (Dublado)",
      "link": "https://animefire.plus/animes/kekkai-sensen-beyond-dublado-todos-os-episodios",
      "texto_original": "Kekkai Sensen & Beyond (Dublado)",
      "rating": 7.9,
      "classificacao_etaria": "A16",
      "imagem_original": "https://animefire.plus/img/animes/kekkai-sensen-beyond.webp",
      "imagem_pasta": "https://animefire.plus/img/animes/kekkai-sensen-beyond/",
      "secao": "dublados,legendados",
      "pagina": 19,
      "total_episodios": 12,
      "link_video": "https://animefire.plus/video/kekkai-sensen-beyond-dublado"
    },
    {
      "id": 1930,
      "nome": "Kekkai Sensen: Ousama no Restaurant no Ousama",
      "link": "https://animefire.plus/animes/kekkai-sensen-ousama-no-restaurant-no-ousama-todos-os-episodios",
      "texto_original": "Kekkai Sensen: Ousama no Restaurant no Ousama",
      "rating": 7.43,
      "classificacao_etaria": "A16",
      "imagem_original": "https://animefire.plus/img/animes/kekkai-sensen-ousama-no-restaurant-no-ousama.webp",
      "imagem_pasta": "https://animefire.plus/img/animes/kekkai-sensen-ousama-no-restaurant-no-ousama/",
      "secao": "legendados",
      "pagina": 86,
      "total_episodios": 1,
      "link_video": "https://animefire.plus/video/kekkai-sensen-ousama-no-restaurant-no-ousama"
    },
    {
      "id": 1931,
      "nome": "Kekkaishi",
      "link": "https://animefire.plus/animes/kekkaishi-todos-os-episodios",
      "texto_original": "Kekkaishi",
      "rating": 7.68,
      "classificacao_etaria": "A14",
      "imagem_original": "https://animefire.plus/img/animes/kekkaishi.webp",
      "imagem_pasta": "https://animefire.plus/img/animes/kekkaishi/",
      "secao": "legendados",
      "pagina": 175,
      "total_episodios": 34,
      "link_video": "https://animefire.plus/video/kekkaishi"
    },
    {
      "id": 1932,
      "nome": "Kekkon suru tte, Hontou desu ka (Dublado)",
      "link": "https://animefire.plus/animes/kekkon-suru-tte-hontou-desu-ka-dublado-todos-os-episodios",
      "texto_original": "Kekkon suru tte, Hontou desu ka (Dublado)",
      "rating": 7.12,
      "classificacao_etaria": "A14",
      "imagem_original": "https://animefire.plus/img/animes/kekkon-suru-tte-hontou-desu-ka.webp",
      "imagem_pasta": "https://animefire.plus/img/animes/kekkon-suru-tte-hontou-desu-ka/",
      "secao": "dublados,legendados,lancamentos",
      "pagina": 2,
      "total_episodios": 12,
      "link_video": "https://animefire.plus/video/kekkon-suru-tte-hontou-desu-ka-dublado"
    },
    {
      "id": 1933,
      "nome": "Kekkon Yubiwa Monogatari (Dublado)",
      "link": "https://animefire.plus/animes/kekkon-yubiwa-monogatari-dublado-todos-os-episodios",
      "texto_original": "Kekkon Yubiwa Monogatari (Dublado)",
      "rating": 6.06,
      "classificacao_etaria": "A18",
      "imagem_original": "https://animefire.plus/img/animes/kekkon-yubiwa-monogatari.webp",
      "imagem_pasta": "https://animefire.plus/img/animes/kekkon-yubiwa-monogatari/",
      "secao": "dublados,legendados,lancamentos",
      "pagina": 3,
      "total_episodios": 12,
      "link_video": "https://animefire.plus/video/kekkon-yubiwa-monogatari-dublado"
    },
    {
      "id": 1934,
      "nome": "Kemeko Deluxe!",
      "link": "https://animefire.plus/animes/kemeko-deluxe-todos-os-episodios",
      "texto_original": "Kemeko Deluxe!",
      "rating": 6.67,
      "classificacao_etaria": "A14",
      "imagem_original": "https://animefire.plus/img/animes/kemeko-deluxe.webp",
      "imagem_pasta": "https://animefire.plus/img/animes/kemeko-deluxe/",
      "secao": "legendados",
      "pagina": 137,
      "total_episodios": 12,
      "link_video": "https://animefire.plus/video/kemeko-deluxe"
    },
    {
      "id": 1935,
      "nome": "Kemono Friends",
      "link": "https://animefire.plus/animes/kemono-friends-todos-os-episodios",
      "texto_original": "Kemono Friends",
      "rating": 7.61,
      "classificacao_etaria": "A10",
      "imagem_original": "https://animefire.plus/img/animes/kemono-friends.webp",
      "imagem_pasta": "https://animefire.plus/img/animes/kemono-friends/",
      "secao": "legendados",
      "pagina": 63,
      "total_episodios": 12,
      "link_video": "https://animefire.plus/video/kemono-friends"
    },
    {
      "id": 1936,
      "nome": "Kemono Friends 2",
      "link": "https://animefire.plus/animes/kemono-friends-2-todos-os-episodios",
      "texto_original": "Kemono Friends 2",
      "rating": 5.87,
      "classificacao_etaria": "A14",
      "imagem_original": "https://animefire.plus/img/animes/kemono-friends-2.webp",
      "imagem_pasta": "https://animefire.plus/img/animes/kemono-friends-2/",
      "secao": "legendados",
      "pagina": 112,
      "total_episodios": 2,
      "link_video": "https://animefire.plus/video/kemono-friends-2"
    },
    {
      "id": 1937,
      "nome": "Kemono Jihen (Dublado)",
      "link": "https://animefire.plus/animes/kemono-jihen-dublado-todos-os-episodios",
      "texto_original": "Kemono Jihen (Dublado)",
      "rating": 7.36,
      "classificacao_etaria": "A16",
      "imagem_original": "https://animefire.plus/img/animes/kemono-jihen.webp",
      "imagem_pasta": "https://animefire.plus/img/animes/kemono-jihen/",
      "secao": "dublados,legendados",
      "pagina": 10,
      "total_episodios": 12,
      "link_video": "https://animefire.plus/video/kemono-jihen-dublado"
    },
    {
      "id": 1938,
      "nome": "Kemono no Souja Erin",
      "link": "https://animefire.plus/animes/kemono-no-souja-erin-todos-os-episodios",
      "texto_original": "Kemono no Souja Erin",
      "rating": 8.37,
      "classificacao_etaria": "A14",
      "imagem_original": "https://animefire.plus/img/animes/kemono-no-souja-erin.webp",
      "imagem_pasta": "https://animefire.plus/img/animes/kemono-no-souja-erin/",
      "secao": "legendados",
      "pagina": 72,
      "total_episodios": 50,
      "link_video": "https://animefire.plus/video/kemono-no-souja-erin"
    },
    {
      "id": 1939,
      "nome": "Kemonozume",
      "link": "https://animefire.plus/animes/kemonozume-todos-os-episodios",
      "texto_original": "Kemonozume",
      "rating": 7.46,
      "classificacao_etaria": "A18",
      "imagem_original": "https://animefire.plus/img/animes/kemonozume.webp",
      "imagem_pasta": "https://animefire.plus/img/animes/kemonozume/",
      "secao": "legendados",
      "pagina": 99,
      "total_episodios": 13,
      "link_video": "https://animefire.plus/video/kemonozume"
    },
    {
      "id": 1940,
      "nome": "Kemurikusa (TV)",
      "link": "https://animefire.plus/animes/kemurikusa-tv-todos-os-episodios",
      "texto_original": "Kemurikusa (TV)",
      "rating": 7.1,
      "classificacao_etaria": "A14",
      "imagem_original": "https://animefire.plus/img/animes/kemurikusa-tv.webp",
      "imagem_pasta": "https://animefire.plus/img/animes/kemurikusa-tv/",
      "secao": "legendados",
      "pagina": 60,
      "total_episodios": 12,
      "link_video": "https://animefire.plus/video/kemurikusa-tv"
    }
  ],
  "pagination": {
    "current_page": 97,
    "per_page": 20,
    "total_items": 4368,
    "total_pages": 219,
    "has_next": true,
    "has_prev": true
  }
}
