{
  "message": "Lista de animes",
  "data": [
    {
      "id": 501,
      "nome": "Bronze: Kouji Nanjo Cathexis",
      "link": "https://animefire.plus/animes/bronze-kouji-nanjo-cathexis-todos-os-episodios",
      "texto_original": "Bronze: Kouji Nanjo Cathexis",
      "rating": 6.32,
      "classificacao_etaria": "A14",
      "imagem_original": "https://animefire.plus/img/animes/bronze-kouji-nanjo-cathexis.webp",
      "imagem_pasta": "https://animefire.plus/img/animes/bronze-kouji-nanjo-cathexis/",
      "secao": "legendados",
      "pagina": 86,
      "total_episodios": 1,
      "link_video": "https://animefire.plus/video/bronze-kouji-nanjo-cathexis"
    },
    {
      "id": 502,
      "nome": "Brotherhood: Final Fantasy XV",
      "link": "https://animefire.plus/animes/brotherhood-final-fantasy-xv-todos-os-episodios",
      "texto_original": "Brotherhood: Final Fantasy XV",
      "rating": 6.96,
      "classificacao_etaria": "A14",
      "imagem_original": "https://animefire.plus/img/animes/brotherhood-final-fantasy-xv.webp",
      "imagem_pasta": "https://animefire.plus/img/animes/brotherhood-final-fantasy-xv/",
      "secao": "legendados",
      "pagina": 42,
      "total_episodios": 1,
      "link_video": "https://animefire.plus/video/brotherhood-final-fantasy-xv"
    },
    {
      "id": 503,
      "nome": "Brothers Conflict",
      "link": "https://animefire.plus/animes/brothers-conflict-todos-os-episodios",
      "texto_original": "Brothers Conflict",
      "rating": 6.46,
      "classificacao_etaria": "A14",
      "imagem_original": "https://animefire.plus/img/animes/brothers-conflict.webp",
      "imagem_pasta": "https://animefire.plus/img/animes/brothers-conflict/",
      "secao": "legendados",
      "pagina": 138,
      "total_episodios": 0,
      "link_video": "https://animefire.plus/video/brothers-conflict"
    },
    {
      "id": 504,
      "nome": "Btooom!",
      "link": "https://animefire.plus/animes/btooom-todos-os-episodios",
      "texto_original": "Btooom!",
      "rating": 7.53,
      "classificacao_etaria": "A16",
      "imagem_original": "https://animefire.plus/img/animes/btooom.webp",
      "imagem_pasta": "https://animefire.plus/img/animes/btooom/",
      "secao": "legendados",
      "pagina": 155,
      "total_episodios": 12,
      "link_video": "https://animefire.plus/video/btooom"
    },
    {
      "id": 505,
      "nome": "Bubble (Dublado)",
      "link": "https://animefire.plus/animes/bubble-dublado-todos-os-episodios",
      "texto_original": "Bubble (Dublado)",
      "rating": 7.24,
      "classificacao_etaria": "A14",
      "imagem_original": "https://animefire.plus/img/animes/bubble.webp",
      "imagem_pasta": "https://animefire.plus/img/animes/bubble/",
      "secao": "dublados,legendados",
      "pagina": 11,
      "total_episodios": 1,
      "link_video": "https://animefire.plus/video/bubble-dublado"
    },
    {
      "id": 506,
      "nome": "Bubblegum Crisis Tokyo 2040",
      "link": "https://animefire.plus/animes/bubblegum-crisis-tokyo-2040-todos-os-episodios",
      "texto_original": "Bubblegum Crisis Tokyo 2040",
      "rating": 7.16,
      "classificacao_etaria": "A16",
      "imagem_original": "https://animefire.plus/img/animes/bubblegum-crisis-tokyo-2040.webp",
      "imagem_pasta": "https://animefire.plus/img/animes/bubblegum-crisis-tokyo-2040/",
      "secao": "legendados",
      "pagina": 139,
      "total_episodios": 26,
      "link_video": "https://animefire.plus/video/bubblegum-crisis-tokyo-2040"
    },
    {
      "id": 507,
      "nome": "Bubuki Buranki",
      "link": "https://animefire.plus/animes/bubuki-buranki-todos-os-episodios",
      "texto_original": "Bubuki Buranki",
      "rating": 6.37,
      "classificacao_etaria": "A14",
      "imagem_original": "https://animefire.plus/img/animes/bubuki-buranki.webp",
      "imagem_pasta": "https://animefire.plus/img/animes/bubuki-buranki/",
      "secao": "legendados",
      "pagina": 108,
      "total_episodios": 12,
      "link_video": "https://animefire.plus/video/bubuki-buranki"
    },
    {
      "id": 508,
      "nome": "Bubuki Buranki: Hoshi no Kyojin",
      "link": "https://animefire.plus/animes/bubuki-buranki-hoshi-no-kyojin-todos-os-episodios",
      "texto_original": "Bubuki Buranki: Hoshi no Kyojin",
      "rating": 6.93,
      "classificacao_etaria": "A14",
      "imagem_original": "https://animefire.plus/img/animes/bubuki-buranki-hoshi-no-kyojin.webp",
      "imagem_pasta": "https://animefire.plus/img/animes/bubuki-buranki-hoshi-no-kyojin/",
      "secao": "legendados",
      "pagina": 150,
      "total_episodios": 9,
      "link_video": "https://animefire.plus/video/bubuki-buranki-hoshi-no-kyojin"
    },
    {
      "id": 509,
      "nome": "Bucchigire!",
      "link": "https://animefire.plus/animes/bucchigire-todos-os-episodios",
      "texto_original": "Bucchigire!",
      "rating": 5.99,
      "classificacao_etaria": "A14",
      "imagem_original": "https://animefire.plus/img/animes/bucchigire.webp",
      "imagem_pasta": "https://animefire.plus/img/animes/bucchigire/",
      "secao": "legendados",
      "pagina": 31,
      "total_episodios": 12,
      "link_video": "https://animefire.plus/video/bucchigire"
    },
    {
      "id": 510,
      "nome": "Bucchigiri",
      "link": "https://animefire.plus/animes/butchgiri-todos-os-episodios",
      "texto_original": "Bucchigiri",
      "rating": 5.96,
      "classificacao_etaria": "A18",
      "imagem_original": "https://animefire.plus/img/animes/butchgiri.webp",
      "imagem_pasta": "https://animefire.plus/img/animes/butchgiri/",
      "secao": "legendados",
      "pagina": 16,
      "total_episodios": 0,
      "link_video": "https://animefire.plus/video/butchgiri"
    },
    {
      "id": 511,
      "nome": "Bucchigiri?! (Dublado)",
      "link": "https://animefire.plus/animes/bucchigiri-dublado-todos-os-episodios",
      "texto_original": "Bucchigiri?! (Dublado)",
      "rating": 6.51,
      "classificacao_etaria": "A14",
      "imagem_original": "https://animefire.plus/img/animes/bucchigiri.webp",
      "imagem_pasta": "https://animefire.plus/img/animes/bucchigiri/",
      "secao": "dublados,legendados",
      "pagina": 3,
      "total_episodios": 12,
      "link_video": "https://animefire.plus/video/bucchigiri-dublado"
    },
    {
      "id": 512,
      "nome": "Buddy Complex",
      "link": "https://animefire.plus/animes/buddy-complex-todos-os-episodios",
      "texto_original": "Buddy Complex",
      "rating": 7.25,
      "classificacao_etaria": "A14",
      "imagem_original": "https://animefire.plus/img/animes/buddy-complex.webp",
      "imagem_pasta": "https://animefire.plus/img/animes/buddy-complex/",
      "secao": "legendados",
      "pagina": 144,
      "total_episodios": 13,
      "link_video": "https://animefire.plus/video/buddy-complex"
    },
    {
      "id": 513,
      "nome": "Buddy Complex: Kanketsu-hen - Ano Sora ni Kaeru Mirai de",
      "link": "https://animefire.plus/animes/buddy-complex-kanketsu-hen---ano-sora-ni-kaeru-mirai-de-todos-os-episodios",
      "texto_original": "Buddy Complex: Kanketsu-hen - Ano Sora ni Kaeru Mirai de",
      "rating": 7.36,
      "classificacao_etaria": "A14",
      "imagem_original": "https://animefire.plus/img/animes/buddy-complex-kanketsu-hen---ano-sora-ni-kaeru-mirai-de.webp",
      "imagem_pasta": "https://animefire.plus/img/animes/buddy-complex-kanketsu-hen---ano-sora-ni-kaeru-mirai-de/",
      "secao": "legendados",
      "pagina": 145,
      "total_episodios": 2,
      "link_video": "https://animefire.plus/video/buddy-complex-kanketsu-hen---ano-sora-ni-kaeru-mirai-de"
    },
    {
      "id": 514,
      "nome": "Buddy Daddies",
      "link": "https://animefire.plus/animes/buddy-daddies-todos-os-episodios",
      "texto_original": "Buddy Daddies",
      "rating": 8.12,
      "classificacao_etaria": "A14",
      "imagem_original": "https://animefire.plus/img/animes/buddy-daddies.webp",
      "imagem_pasta": "https://animefire.plus/img/animes/buddy-daddies/",
      "secao": "legendados",
      "pagina": 26,
      "total_episodios": 12,
      "link_video": "https://animefire.plus/video/buddy-daddies"
    },
    {
      "id": 515,
      "nome": "Build Divide: Code Black",
      "link": "https://animefire.plus/animes/build-divide-code-black-todos-os-episodios",
      "texto_original": "Build Divide: Code Black",
      "rating": 6.39,
      "classificacao_etaria": "A14",
      "imagem_original": "https://animefire.plus/img/animes/build-divide-code-black.webp",
      "imagem_pasta": "https://animefire.plus/img/animes/build-divide-code-black/",
      "secao": "legendados",
      "pagina": 39,
      "total_episodios": 12,
      "link_video": "https://animefire.plus/video/build-divide-code-black"
    },
    {
      "id": 516,
      "nome": "Build Divide: Code White",
      "link": "https://animefire.plus/animes/build-divide-code-white-todos-os-episodios",
      "texto_original": "Build Divide: Code White",
      "rating": 6.64,
      "classificacao_etaria": "A14",
      "imagem_original": "https://animefire.plus/img/animes/build-divide-code-white.webp",
      "imagem_pasta": "https://animefire.plus/img/animes/build-divide-code-white/",
      "secao": "legendados,lancamentos",
      "pagina": 34,
      "total_episodios": 3,
      "link_video": "https://animefire.plus/video/build-divide-code-white"
    },
    {
      "id": 517,
      "nome": "Bullbuster",
      "link": "https://animefire.plus/animes/bullbuster-todos-os-episodios",
      "texto_original": "Bullbuster",
      "rating": 6.18,
      "classificacao_etaria": "A14",
      "imagem_original": "https://animefire.plus/img/animes/bullbuster.webp",
      "imagem_pasta": "https://animefire.plus/img/animes/bullbuster/",
      "secao": "legendados",
      "pagina": 20,
      "total_episodios": 12,
      "link_video": "https://animefire.plus/video/bullbuster"
    },
    {
      "id": 518,
      "nome": "Bungou Stray Dogs (Dublado)",
      "link": "https://animefire.plus/animes/bungou-stray-dogs-dublado-todos-os-episodios",
      "texto_original": "Bungou Stray Dogs (Dublado)",
      "rating": 7.83,
      "classificacao_etaria": "A16",
      "imagem_original": "https://animefire.plus/img/animes/bungou-stray-dogs.webp",
      "imagem_pasta": "https://animefire.plus/img/animes/bungou-stray-dogs/",
      "secao": "dublados,legendados",
      "pagina": 28,
      "total_episodios": 0,
      "link_video": "https://animefire.plus/video/bungou-stray-dogs-dublado"
    },
    {
      "id": 519,
      "nome": "Bungou Stray Dogs 2nd season (Dublado)",
      "link": "https://animefire.plus/animes/bungou-stray-dogs-2nd-season-dublado-todos-os-episodios",
      "texto_original": "Bungou Stray Dogs 2nd season (Dublado)",
      "rating": 8.25,
      "classificacao_etaria": "A16",
      "imagem_original": "https://animefire.plus/img/animes/bungou-stray-dogs-2nd-season.webp",
      "imagem_pasta": "https://animefire.plus/img/animes/bungou-stray-dogs-2nd-season/",
      "secao": "dublados,legendados",
      "pagina": 23,
      "total_episodios": 0,
      "link_video": "https://animefire.plus/video/bungou-stray-dogs-2nd-season-dublado"
    },
    {
      "id": 520,
      "nome": "Bungou Stray Dogs 3rd Season (Dublado)",
      "link": "https://animefire.plus/animes/bungou-stray-dogs-3rd-season-dublado-todos-os-episodios",
      "texto_original": "Bungou Stray Dogs 3rd Season (Dublado)",
      "rating": 8.22,
      "classificacao_etaria": "A16",
      "imagem_original": "https://animefire.plus/img/animes/bungou-stray-dogs-3rd-season.webp",
      "imagem_pasta": "https://animefire.plus/img/animes/bungou-stray-dogs-3rd-season/",
      "secao": "dublados,legendados",
      "pagina": 8,
      "total_episodios": 12,
      "link_video": "https://animefire.plus/video/bungou-stray-dogs-3rd-season-dublado"
    }
  ],
  "pagination": {
    "current_page": 26,
    "per_page": 20,
    "total_items": 4368,
    "total_pages": 219,
    "has_next": true,
    "has_prev": true
  }
}
