{
  "message": "Lista de animes",
  "data": [
    {
      "id": 3501,
      "nome": "Shoujo☆Kageki Revue Starlight",
      "link": "https://animefire.plus/animes/shoujo-kageki-revue-starlight-todos-os-episodios",
      "texto_original": "Shoujo☆Kageki Revue Starlight",
      "rating": 7.68,
      "classificacao_etaria": "A14",
      "imagem_original": "https://animefire.plus/img/animes/shoujo-kageki-revue-starlight.webp",
      "imagem_pasta": "https://animefire.plus/img/animes/shoujo-kageki-revue-starlight/",
      "secao": "legendados",
      "pagina": 169,
      "total_episodios": 12,
      "link_video": "https://animefire.plus/video/shoujo-kageki-revue-starlight"
    },
    {
      "id": 3502,
      "nome": "Shoukoku no Altair",
      "link": "https://animefire.plus/animes/shoukoku-no-altair-todos-os-episodios",
      "texto_original": "Shoukoku no Altair",
      "rating": 7.57,
      "classificacao_etaria": "A14",
      "imagem_original": "https://animefire.plus/img/animes/shoukoku-no-altair.webp",
      "imagem_pasta": "https://animefire.plus/img/animes/shoukoku-no-altair/",
      "secao": "legendados",
      "pagina": 149,
      "total_episodios": 21,
      "link_video": "https://animefire.plus/video/shoukoku-no-altair"
    },
    {
      "id": 3503,
      "nome": "Shoumetsu Toshi",
      "link": "https://animefire.plus/animes/shoumetsu-toshi-todos-os-episodios",
      "texto_original": "Shoumetsu Toshi",
      "rating": 5.46,
      "classificacao_etaria": "A14",
      "imagem_original": "https://animefire.plus/img/animes/shoumetsu-toshi.webp",
      "imagem_pasta": "https://animefire.plus/img/animes/shoumetsu-toshi/",
      "secao": "legendados",
      "pagina": 125,
      "total_episodios": 7,
      "link_video": "https://animefire.plus/video/shoumetsu-toshi"
    },
    {
      "id": 3504,
      "nome": "Shounen Hollywood: Holly Stage for 49",
      "link": "https://animefire.plus/animes/shounen-hollywood-holly-stage-for-49-todos-os-episodios",
      "texto_original": "Shounen Hollywood: Holly Stage for 49",
      "rating": 6.14,
      "classificacao_etaria": "A14",
      "imagem_original": "https://animefire.plus/img/animes/shounen-hollywood-holly-stage-for-49.webp",
      "imagem_pasta": "https://animefire.plus/img/animes/shounen-hollywood-holly-stage-for-49/",
      "secao": "legendados",
      "pagina": 179,
      "total_episodios": 13,
      "link_video": "https://animefire.plus/video/shounen-hollywood-holly-stage-for-49"
    },
    {
      "id": 3505,
      "nome": "Shounen Maid",
      "link": "https://animefire.plus/animes/shounen-maid-todos-os-episodios",
      "texto_original": "Shounen Maid",
      "rating": 7.39,
      "classificacao_etaria": "A14",
      "imagem_original": "https://animefire.plus/img/animes/shounen-maid.webp",
      "imagem_pasta": "https://animefire.plus/img/animes/shounen-maid/",
      "secao": "legendados",
      "pagina": 148,
      "total_episodios": 12,
      "link_video": "https://animefire.plus/video/shounen-maid"
    },
    {
      "id": 3506,
      "nome": "Shounen Onmyouji",
      "link": "https://animefire.plus/animes/shounen-onmyouji-todos-os-episodios",
      "texto_original": "Shounen Onmyouji",
      "rating": 7.65,
      "classificacao_etaria": "A14",
      "imagem_original": "https://animefire.plus/img/animes/shounen-onmyouji.webp",
      "imagem_pasta": "https://animefire.plus/img/animes/shounen-onmyouji/",
      "secao": "legendados",
      "pagina": 122,
      "total_episodios": 21,
      "link_video": "https://animefire.plus/video/shounen-onmyouji"
    },
    {
      "id": 3507,
      "nome": "Shounen to Sakura",
      "link": "https://animefire.plus/animes/shounen-to-sakura-todos-os-episodios",
      "texto_original": "Shounen to Sakura",
      "rating": 5.85,
      "classificacao_etaria": null,
      "imagem_original": "https://animefire.plus/img/animes/shounen-to-sakura.webp",
      "imagem_pasta": "https://animefire.plus/img/animes/shounen-to-sakura/",
      "secao": "legendados",
      "pagina": 55,
      "total_episodios": 1,
      "link_video": "https://animefire.plus/video/shounen-to-sakura"
    },
    {
      "id": 3508,
      "nome": "Shoushimin Series",
      "link": "https://animefire.plus/animes/shoushimin-series-todos-os-episodios",
      "texto_original": "Shoushimin Series",
      "rating": 7.34,
      "classificacao_etaria": "A14",
      "imagem_original": "https://animefire.plus/img/animes/shoushimin-series.webp",
      "imagem_pasta": "https://animefire.plus/img/animes/shoushimin-series/",
      "secao": "legendados",
      "pagina": 13,
      "total_episodios": 10,
      "link_video": "https://animefire.plus/video/shoushimin-series"
    },
    {
      "id": 3509,
      "nome": "Shoushimin Series 2nd Season",
      "link": "https://animefire.plus/animes/shoushimin-series-2nd-season-todos-os-episodios",
      "texto_original": "Shoushimin Series 2nd Season",
      "rating": 8.06,
      "classificacao_etaria": "A14",
      "imagem_original": "https://animefire.plus/img/animes/shoushimin-series-2nd-season.webp",
      "imagem_pasta": "https://animefire.plus/img/animes/shoushimin-series-2nd-season/",
      "secao": "legendados",
      "pagina": 5,
      "total_episodios": 12,
      "link_video": "https://animefire.plus/video/shoushimin-series-2nd-season"
    },
    {
      "id": 3510,
      "nome": "Shouwa Genroku Rakugo Shinjuu",
      "link": "https://animefire.plus/animes/shouwa-genroku-rakugo-shinjuu-todos-os-episodios",
      "texto_original": "Shouwa Genroku Rakugo Shinjuu",
      "rating": 8.6,
      "classificacao_etaria": "A14",
      "imagem_original": "https://animefire.plus/img/animes/shouwa-genroku-rakugo-shinjuu.webp",
      "imagem_pasta": "https://animefire.plus/img/animes/shouwa-genroku-rakugo-shinjuu/",
      "secao": "legendados",
      "pagina": 102,
      "total_episodios": 13,
      "link_video": "https://animefire.plus/video/shouwa-genroku-rakugo-shinjuu"
    },
    {
      "id": 3511,
      "nome": "Shouwa Genroku Rakugo Shinjuu: Sukeroku Futatabi-hen",
      "link": "https://animefire.plus/animes/shouwa-genroku-rakugo-shinjuu-sukeroku-futatabi-hen-todos-os-episodios",
      "texto_original": "Shouwa Genroku Rakugo Shinjuu: Sukeroku Futatabi-hen",
      "rating": 8.81,
      "classificacao_etaria": "A14",
      "imagem_original": "https://animefire.plus/img/animes/shouwa-genroku-rakugo-shinjuu-sukeroku-futatabi-hen.webp",
      "imagem_pasta": "https://animefire.plus/img/animes/shouwa-genroku-rakugo-shinjuu-sukeroku-futatabi-hen/",
      "secao": "legendados",
      "pagina": 65,
      "total_episodios": 12,
      "link_video": "https://animefire.plus/video/shouwa-genroku-rakugo-shinjuu-sukeroku-futatabi-hen"
    },
    {
      "id": 3512,
      "nome": "Shouxi Yu Ling Shi",
      "link": "https://animefire.plus/animes/shouxi-yu-ling-shi-todos-os-episodios",
      "texto_original": "Shouxi Yu Ling Shi",
      "rating": 6.52,
      "classificacao_etaria": "A14",
      "imagem_original": "https://animefire.plus/img/animes/shouxi-yu-ling-shi.webp",
      "imagem_pasta": "https://animefire.plus/img/animes/shouxi-yu-ling-shi/",
      "secao": "legendados,lancamentos",
      "pagina": 58,
      "total_episodios": 8,
      "link_video": "https://animefire.plus/video/shouxi-yu-ling-shi"
    },
    {
      "id": 3513,
      "nome": "Show By Rock!!",
      "link": "https://animefire.plus/animes/show-by-rock-todos-os-episodios",
      "texto_original": "Show By Rock!!",
      "rating": 7.12,
      "classificacao_etaria": "A14",
      "imagem_original": "https://animefire.plus/img/animes/show-by-rock.webp",
      "imagem_pasta": "https://animefire.plus/img/animes/show-by-rock/",
      "secao": "legendados",
      "pagina": 120,
      "total_episodios": 0,
      "link_video": "https://animefire.plus/video/show-by-rock"
    },
    {
      "id": 3514,
      "nome": "Show By Rock!! Mashumairesh!!",
      "link": "https://animefire.plus/animes/show-by-rock-mashumairesh-todos-os-episodios",
      "texto_original": "Show By Rock!! Mashumairesh!!",
      "rating": 6.91,
      "classificacao_etaria": "A14",
      "imagem_original": "https://animefire.plus/img/animes/show-by-rock-mashumairesh.webp",
      "imagem_pasta": "https://animefire.plus/img/animes/show-by-rock-mashumairesh/",
      "secao": "legendados",
      "pagina": 93,
      "total_episodios": 0,
      "link_video": "https://animefire.plus/video/show-by-rock-mashumairesh"
    },
    {
      "id": 3515,
      "nome": "Show by Rock!! Stars!!",
      "link": "https://animefire.plus/animes/show-by-rock-stars-todos-os-episodios",
      "texto_original": "Show by Rock!! Stars!!",
      "rating": 7.14,
      "classificacao_etaria": "A14",
      "imagem_original": "https://animefire.plus/img/animes/show-by-rock-stars.webp",
      "imagem_pasta": "https://animefire.plus/img/animes/show-by-rock-stars/",
      "secao": "legendados",
      "pagina": 49,
      "total_episodios": 12,
      "link_video": "https://animefire.plus/video/show-by-rock-stars"
    },
    {
      "id": 3516,
      "nome": "Shuffle!",
      "link": "https://animefire.plus/animes/shuffle-todos-os-episodios",
      "texto_original": "Shuffle!",
      "rating": 7.19,
      "classificacao_etaria": "A18",
      "imagem_original": "https://animefire.plus/img/animes/shuffle.webp",
      "imagem_pasta": "https://animefire.plus/img/animes/shuffle/",
      "secao": "legendados",
      "pagina": 115,
      "total_episodios": 24,
      "link_video": "https://animefire.plus/video/shuffle"
    },
    {
      "id": 3517,
      "nome": "Shuffle! Memories",
      "link": "https://animefire.plus/animes/shuffle-memories-todos-os-episodios",
      "texto_original": "Shuffle! Memories",
      "rating": 6.61,
      "classificacao_etaria": "A14",
      "imagem_original": "https://animefire.plus/img/animes/shuffle-memories.webp",
      "imagem_pasta": "https://animefire.plus/img/animes/shuffle-memories/",
      "secao": "legendados",
      "pagina": 132,
      "total_episodios": 12,
      "link_video": "https://animefire.plus/video/shuffle-memories"
    },
    {
      "id": 3518,
      "nome": "Shugo Chara! Party!",
      "link": "https://animefire.plus/animes/shugo-chara-party-todos-os-episodios",
      "texto_original": "Shugo Chara! Party!",
      "rating": 6.63,
      "classificacao_etaria": "A10",
      "imagem_original": "https://animefire.plus/img/animes/shugo-chara-party.webp",
      "imagem_pasta": "https://animefire.plus/img/animes/shugo-chara-party/",
      "secao": "legendados",
      "pagina": 63,
      "total_episodios": 25,
      "link_video": "https://animefire.plus/video/shugo-chara-party"
    },
    {
      "id": 3519,
      "nome": "Shugo Chara!! Doki",
      "link": "https://animefire.plus/animes/shugo-chara-doki-todos-os-episodios",
      "texto_original": "Shugo Chara!! Doki",
      "rating": 7.47,
      "classificacao_etaria": "A10",
      "imagem_original": "https://animefire.plus/img/animes/shugo-chara-doki.webp",
      "imagem_pasta": "https://animefire.plus/img/animes/shugo-chara-doki/",
      "secao": "legendados",
      "pagina": 63,
      "total_episodios": 51,
      "link_video": "https://animefire.plus/video/shugo-chara-doki"
    },
    {
      "id": 3520,
      "nome": "Shukufuku No Campanella",
      "link": "https://animefire.plus/animes/shukufuku-no-campanella-todos-os-episodios",
      "texto_original": "Shukufuku No Campanella",
      "rating": 6.36,
      "classificacao_etaria": "A18",
      "imagem_original": "https://animefire.plus/img/animes/shukufuku-no-campanella.webp",
      "imagem_pasta": "https://animefire.plus/img/animes/shukufuku-no-campanella/",
      "secao": "legendados",
      "pagina": 108,
      "total_episodios": 12,
      "link_video": "https://animefire.plus/video/shukufuku-no-campanella"
    }
  ],
  "pagination": {
    "current_page": 176,
    "per_page": 20,
    "total_items": 4368,
    "total_pages": 219,
    "has_next": true,
    "has_prev": true
  }
}
