{
  "message": "Lista de animes",
  "data": [
    {
      "id": 1561,
      "nome": "Hyakka Ryouran: Samurai Bride",
      "link": "https://animefire.plus/animes/hyakka-ryouran-samurai-bride-todos-os-episodios",
      "texto_original": "Hyakka Ryouran: Samurai Bride",
      "rating": 6.85,
      "classificacao_etaria": "A18",
      "imagem_original": "https://animefire.plus/img/animes/hyakka-ryouran-samurai-bride.webp",
      "imagem_pasta": "https://animefire.plus/img/animes/hyakka-ryouran-samurai-bride/",
      "secao": "legendados",
      "pagina": 156,
      "total_episodios": 12,
      "link_video": "https://animefire.plus/video/hyakka-ryouran-samurai-bride"
    },
    {
      "id": 1562,
      "nome": "Hyakka Ryouran: Samurai Girls",
      "link": "https://animefire.plus/animes/hyakka-ryouran-samurai-girls-todos-os-episodios",
      "texto_original": "Hyakka Ryouran: Samurai Girls",
      "rating": 6.91,
      "classificacao_etaria": "A18",
      "imagem_original": "https://animefire.plus/img/animes/hyakka-ryouran-samurai-girls.webp",
      "imagem_pasta": "https://animefire.plus/img/animes/hyakka-ryouran-samurai-girls/",
      "secao": "legendados",
      "pagina": 139,
      "total_episodios": 12,
      "link_video": "https://animefire.plus/video/hyakka-ryouran-samurai-girls"
    },
    {
      "id": 1563,
      "nome": "Hyakko",
      "link": "https://animefire.plus/animes/hyakko-todos-os-episodios",
      "texto_original": "Hyakko",
      "rating": 7.29,
      "classificacao_etaria": "A14",
      "imagem_original": "https://animefire.plus/img/animes/hyakko.webp",
      "imagem_pasta": "https://animefire.plus/img/animes/hyakko/",
      "secao": "legendados",
      "pagina": 109,
      "total_episodios": 13,
      "link_video": "https://animefire.plus/video/hyakko"
    },
    {
      "id": 1564,
      "nome": "Hyakko Extra",
      "link": "https://animefire.plus/animes/hyakko-extra-todos-os-episodios",
      "texto_original": "Hyakko Extra",
      "rating": 6.78,
      "classificacao_etaria": "A14",
      "imagem_original": "https://animefire.plus/img/animes/hyakko-extra.webp",
      "imagem_pasta": "https://animefire.plus/img/animes/hyakko-extra/",
      "secao": "legendados",
      "pagina": 71,
      "total_episodios": 1,
      "link_video": "https://animefire.plus/video/hyakko-extra"
    },
    {
      "id": 1565,
      "nome": "Hyakujuu-Ou GoLion",
      "link": "https://animefire.plus/animes/hyakujuu-ou-golion-todos-os-episodios",
      "texto_original": "Hyakujuu-Ou GoLion",
      "rating": 6.82,
      "classificacao_etaria": "A14",
      "imagem_original": "https://animefire.plus/img/animes/hyakujuu-ou-golion.webp",
      "imagem_pasta": "https://animefire.plus/img/animes/hyakujuu-ou-golion/",
      "secao": "legendados",
      "pagina": 43,
      "total_episodios": 28,
      "link_video": "https://animefire.plus/video/hyakujuu-ou-golion"
    },
    {
      "id": 1566,
      "nome": "Hyakuren no Haou to Seiyaku no Valkyria",
      "link": "https://animefire.plus/animes/hyakuren-no-haou-to-seiyaku-no-valkyria-todos-os-episodios",
      "texto_original": "Hyakuren no Haou to Seiyaku no Valkyria",
      "rating": 6.07,
      "classificacao_etaria": "A14",
      "imagem_original": "https://animefire.plus/img/animes/hyakuren-no-haou-to-seiyaku-no-valkyria.webp",
      "imagem_pasta": "https://animefire.plus/img/animes/hyakuren-no-haou-to-seiyaku-no-valkyria/",
      "secao": "legendados",
      "pagina": 132,
      "total_episodios": 12,
      "link_video": "https://animefire.plus/video/hyakuren-no-haou-to-seiyaku-no-valkyria"
    },
    {
      "id": 1567,
      "nome": "Hybrid Child",
      "link": "https://animefire.plus/animes/hybrid-child-todos-os-episodios",
      "texto_original": "Hybrid Child",
      "rating": 7.84,
      "classificacao_etaria": "A14",
      "imagem_original": "https://animefire.plus/img/animes/hybrid-child.webp",
      "imagem_pasta": "https://animefire.plus/img/animes/hybrid-child/",
      "secao": "legendados",
      "pagina": 80,
      "total_episodios": 4,
      "link_video": "https://animefire.plus/video/hybrid-child"
    },
    {
      "id": 1568,
      "nome": "Hyouka",
      "link": "https://animefire.plus/animes/hyouka-todos-os-episodios",
      "texto_original": "Hyouka",
      "rating": 8.15,
      "classificacao_etaria": "A14",
      "imagem_original": "https://animefire.plus/img/animes/hyouka.webp",
      "imagem_pasta": "https://animefire.plus/img/animes/hyouka/",
      "secao": "legendados",
      "pagina": 172,
      "total_episodios": 22,
      "link_video": "https://animefire.plus/video/hyouka"
    },
    {
      "id": 1569,
      "nome": "Hyouken no Majutsushi ga Sekai wo Suberu (Dublado)",
      "link": "https://animefire.plus/animes/hyouken-no-majutsushi-ga-sekai-wo-suberu-dublado-todos-os-episodios",
      "texto_original": "Hyouken no Majutsushi ga Sekai wo Suberu (Dublado)",
      "rating": 6.36,
      "classificacao_etaria": "A14",
      "imagem_original": "https://animefire.plus/img/animes/hyouken-no-majutsushi-ga-sekai-wo-suberu.webp",
      "imagem_pasta": "https://animefire.plus/img/animes/hyouken-no-majutsushi-ga-sekai-wo-suberu/",
      "secao": "dublados,legendados",
      "pagina": 4,
      "total_episodios": 12,
      "link_video": "https://animefire.plus/video/hyouken-no-majutsushi-ga-sekai-wo-suberu-dublado"
    },
    {
      "id": 1570,
      "nome": "Hypnosis Mic: Division Rap Battle - Rhyme Anima",
      "link": "https://animefire.plus/animes/hypnosis-mic-division-rap-battle---rhyme-anima-todos-os-episodios",
      "texto_original": "Hypnosis Mic: Division Rap Battle - Rhyme Anima",
      "rating": null,
      "classificacao_etaria": "A16",
      "imagem_original": "https://animefire.plus/img/animes/hypnosis-mic-division-rap-battle---rhyme-anima.webp",
      "imagem_pasta": "https://animefire.plus/img/animes/hypnosis-mic-division-rap-battle---rhyme-anima/",
      "secao": "legendados",
      "pagina": 52,
      "total_episodios": 13,
      "link_video": "https://animefire.plus/video/hypnosis-mic-division-rap-battle---rhyme-anima"
    },
    {
      "id": 1571,
      "nome": "Hypnosis Mic: Division Rap Battle - Rhyme Anima +",
      "link": "https://animefire.plus/animes/hypmic-2nd-season-todos-os-episodios",
      "texto_original": "Hypnosis Mic: Division Rap Battle - Rhyme Anima +",
      "rating": 6.86,
      "classificacao_etaria": "A16",
      "imagem_original": "https://animefire.plus/img/animes/hypmic-2nd-season.webp",
      "imagem_pasta": "https://animefire.plus/img/animes/hypmic-2nd-season/",
      "secao": "legendados,lancamentos",
      "pagina": 19,
      "total_episodios": 1,
      "link_video": "https://animefire.plus/video/hypmic-2nd-season"
    },
    {
      "id": 1572,
      "nome": "I My Me! Strawberry Eggs",
      "link": "https://animefire.plus/animes/i-my-me-strawberry-eggs-todos-os-episodios",
      "texto_original": "I My Me! Strawberry Eggs",
      "rating": 6.87,
      "classificacao_etaria": "A14",
      "imagem_original": "https://animefire.plus/img/animes/i-my-me-strawberry-eggs.webp",
      "imagem_pasta": "https://animefire.plus/img/animes/i-my-me-strawberry-eggs/",
      "secao": "legendados",
      "pagina": 99,
      "total_episodios": 0,
      "link_video": "https://animefire.plus/video/i-my-me-strawberry-eggs"
    },
    {
      "id": 1573,
      "nome": "I: Wish You Were Here",
      "link": "https://animefire.plus/animes/i-wish-you-were-here-todos-os-episodios",
      "texto_original": "I: Wish You Were Here",
      "rating": 6.13,
      "classificacao_etaria": "A16",
      "imagem_original": "https://animefire.plus/img/animes/i-wish-you-were-here.webp",
      "imagem_pasta": "https://animefire.plus/img/animes/i-wish-you-were-here/",
      "secao": "legendados",
      "pagina": 113,
      "total_episodios": 4,
      "link_video": "https://animefire.plus/video/i-wish-you-were-here"
    },
    {
      "id": 1574,
      "nome": "I''s Pure",
      "link": "https://animefire.plus/animes/i-s-pure-todos-os-episodios",
      "texto_original": "I''s Pure",
      "rating": 6.89,
      "classificacao_etaria": "A18",
      "imagem_original": "https://animefire.plus/img/animes/i-s-pure.webp",
      "imagem_pasta": "https://animefire.plus/img/animes/i-s-pure/",
      "secao": "legendados",
      "pagina": 43,
      "total_episodios": 6,
      "link_video": "https://animefire.plus/video/i-s-pure"
    },
    {
      "id": 1575,
      "nome": "I''s Pure Bonus",
      "link": "https://animefire.plus/animes/i-s-pure-bonus-todos-os-episodios",
      "texto_original": "I''s Pure Bonus",
      "rating": 6.45,
      "classificacao_etaria": "A18",
      "imagem_original": "https://animefire.plus/img/animes/i-s-pure-bonus.webp",
      "imagem_pasta": "https://animefire.plus/img/animes/i-s-pure-bonus/",
      "secao": "legendados",
      "pagina": 43,
      "total_episodios": 5,
      "link_video": "https://animefire.plus/video/i-s-pure-bonus"
    },
    {
      "id": 1576,
      "nome": "I★Chu: Halfway Through the Idol",
      "link": "https://animefire.plus/animes/i-chu-halfway-through-the-idol-todos-os-episodios",
      "texto_original": "I★Chu: Halfway Through the Idol",
      "rating": 6.57,
      "classificacao_etaria": "A14",
      "imagem_original": "https://animefire.plus/img/animes/i-chu-halfway-through-the-idol.webp",
      "imagem_pasta": "https://animefire.plus/img/animes/i-chu-halfway-through-the-idol/",
      "secao": "legendados",
      "pagina": 48,
      "total_episodios": 12,
      "link_video": "https://animefire.plus/video/i-chu-halfway-through-the-idol"
    },
    {
      "id": 1577,
      "nome": "Ichiban Ushiro no Daimaou",
      "link": "https://animefire.plus/animes/ichiban-ushiro-no-daimaou-todos-os-episodios",
      "texto_original": "Ichiban Ushiro no Daimaou",
      "rating": 7.08,
      "classificacao_etaria": "A18",
      "imagem_original": "https://animefire.plus/img/animes/ichiban-ushiro-no-daimaou.webp",
      "imagem_pasta": "https://animefire.plus/img/animes/ichiban-ushiro-no-daimaou/",
      "secao": "legendados",
      "pagina": 124,
      "total_episodios": 12,
      "link_video": "https://animefire.plus/video/ichiban-ushiro-no-daimaou"
    },
    {
      "id": 1578,
      "nome": "Ichigo 100%",
      "link": "https://animefire.plus/animes/ichigo-100-todos-os-episodios",
      "texto_original": "Ichigo 100%",
      "rating": 6.75,
      "classificacao_etaria": "A14",
      "imagem_original": "https://animefire.plus/img/animes/ichigo-100.webp",
      "imagem_pasta": "https://animefire.plus/img/animes/ichigo-100/",
      "secao": "legendados",
      "pagina": 156,
      "total_episodios": 12,
      "link_video": "https://animefire.plus/video/ichigo-100"
    },
    {
      "id": 1579,
      "nome": "Ichigo 100% Special 2",
      "link": "https://animefire.plus/animes/ichigo-100-special-2-todos-os-episodios",
      "texto_original": "Ichigo 100% Special 2",
      "rating": 6.92,
      "classificacao_etaria": "A14",
      "imagem_original": "https://animefire.plus/img/animes/ichigo-100-special-2.webp",
      "imagem_pasta": "https://animefire.plus/img/animes/ichigo-100-special-2/",
      "secao": "legendados",
      "pagina": 82,
      "total_episodios": 1,
      "link_video": "https://animefire.plus/video/ichigo-100-special-2"
    },
    {
      "id": 1580,
      "nome": "Ichigo Mashimaro",
      "link": "https://animefire.plus/animes/ichigo-mashimaro-todos-os-episodios",
      "texto_original": "Ichigo Mashimaro",
      "rating": 7.71,
      "classificacao_etaria": "A14",
      "imagem_original": "https://animefire.plus/img/animes/ichigo-mashimaro.webp",
      "imagem_pasta": "https://animefire.plus/img/animes/ichigo-mashimaro/",
      "secao": "legendados",
      "pagina": 123,
      "total_episodios": 12,
      "link_video": "https://animefire.plus/video/ichigo-mashimaro"
    }
  ],
  "pagination": {
    "current_page": 79,
    "per_page": 20,
    "total_items": 4368,
    "total_pages": 219,
    "has_next": true,
    "has_prev": true
  }
}
