{
  "message": "Lista de animes",
  "data": [
    {
      "id": 3021,
      "nome": "Precure All Stars DX the Dance Live♥: Miracle Dance Stage e Youkoso",
      "link": "https://animefire.plus/animes/precure-all-stars-dx-the-dance-live-miracle-dance-stage-e-youkoso-todos-os-episodios",
      "texto_original": "Precure All Stars DX the Dance Live♥: Miracle Dance Stage e Youkoso",
      "rating": 6.96,
      "classificacao_etaria": null,
      "imagem_original": "https://animefire.plus/img/animes/precure-all-stars-dx-the-dance-live-miracle-dance-stage-e-youkoso.webp",
      "imagem_pasta": "https://animefire.plus/img/animes/precure-all-stars-dx-the-dance-live-miracle-dance-stage-e-youkoso/",
      "secao": "legendados",
      "pagina": 76,
      "total_episodios": 1,
      "link_video": "https://animefire.plus/video/precure-all-stars-dx-the-dance-live-miracle-dance-stage-e-youkoso"
    },
    {
      "id": 3022,
      "nome": "Precure All Stars GoGo Dream Live!",
      "link": "https://animefire.plus/animes/precure-all-stars-gogo-dream-live-todos-os-episodios",
      "texto_original": "Precure All Stars GoGo Dream Live!",
      "rating": 6.85,
      "classificacao_etaria": null,
      "imagem_original": "https://animefire.plus/img/animes/precure-all-stars-gogo-dream-live.webp",
      "imagem_pasta": "https://animefire.plus/img/animes/precure-all-stars-gogo-dream-live/",
      "secao": "legendados",
      "pagina": 76,
      "total_episodios": 1,
      "link_video": "https://animefire.plus/video/precure-all-stars-gogo-dream-live"
    },
    {
      "id": 3023,
      "nome": "Prima Doll",
      "link": "https://animefire.plus/animes/prima-doll-todos-os-episodios",
      "texto_original": "Prima Doll",
      "rating": 7.08,
      "classificacao_etaria": "A14",
      "imagem_original": "https://animefire.plus/img/animes/prima-doll.webp",
      "imagem_pasta": "https://animefire.plus/img/animes/prima-doll/",
      "secao": "legendados",
      "pagina": 31,
      "total_episodios": 12,
      "link_video": "https://animefire.plus/video/prima-doll"
    },
    {
      "id": 3024,
      "nome": "Prince of Stride: Alternative",
      "link": "https://animefire.plus/animes/prince-of-stride-alternative-todos-os-episodios",
      "texto_original": "Prince of Stride: Alternative",
      "rating": 7.01,
      "classificacao_etaria": "A14",
      "imagem_original": "https://animefire.plus/img/animes/prince-of-stride-alternative.webp",
      "imagem_pasta": "https://animefire.plus/img/animes/prince-of-stride-alternative/",
      "secao": "legendados",
      "pagina": 149,
      "total_episodios": 12,
      "link_video": "https://animefire.plus/video/prince-of-stride-alternative"
    },
    {
      "id": 3025,
      "nome": "Princess Connect! Re:Dive",
      "link": "https://animefire.plus/animes/princess-connect-re-dive-todos-os-episodios",
      "texto_original": "Princess Connect! Re:Dive",
      "rating": 7.06,
      "classificacao_etaria": "A14",
      "imagem_original": "https://animefire.plus/img/animes/princess-connect-re-dive.webp",
      "imagem_pasta": "https://animefire.plus/img/animes/princess-connect-re-dive/",
      "secao": "legendados",
      "pagina": 81,
      "total_episodios": 1,
      "link_video": "https://animefire.plus/video/princess-connect-re-dive"
    },
    {
      "id": 3026,
      "nome": "Princess Connect! Re:Dive Season 2",
      "link": "https://animefire.plus/animes/princess-connect-re-dive-season-2-todos-os-episodios",
      "texto_original": "Princess Connect! Re:Dive Season 2",
      "rating": 7.77,
      "classificacao_etaria": "A14",
      "imagem_original": "https://animefire.plus/img/animes/princess-connect-re-dive-season-2.webp",
      "imagem_pasta": "https://animefire.plus/img/animes/princess-connect-re-dive-season-2/",
      "secao": "legendados",
      "pagina": 36,
      "total_episodios": 12,
      "link_video": "https://animefire.plus/video/princess-connect-re-dive-season-2"
    },
    {
      "id": 3027,
      "nome": "Princess Lover!",
      "link": "https://animefire.plus/animes/princess-lover-todos-os-episodios",
      "texto_original": "Princess Lover!",
      "rating": 6.92,
      "classificacao_etaria": "A18",
      "imagem_original": "https://animefire.plus/img/animes/princess-lover.webp",
      "imagem_pasta": "https://animefire.plus/img/animes/princess-lover/",
      "secao": "legendados",
      "pagina": 151,
      "total_episodios": 12,
      "link_video": "https://animefire.plus/video/princess-lover"
    },
    {
      "id": 3028,
      "nome": "Princess Minerva",
      "link": "https://animefire.plus/animes/princess-minerva-todos-os-episodios",
      "texto_original": "Princess Minerva",
      "rating": 5.58,
      "classificacao_etaria": "A18",
      "imagem_original": "https://animefire.plus/img/animes/princess-minerva.webp",
      "imagem_pasta": "https://animefire.plus/img/animes/princess-minerva/",
      "secao": "legendados",
      "pagina": 69,
      "total_episodios": 1,
      "link_video": "https://animefire.plus/video/princess-minerva"
    },
    {
      "id": 3029,
      "nome": "Princess Princess",
      "link": "https://animefire.plus/animes/princess-princess-todos-os-episodios",
      "texto_original": "Princess Princess",
      "rating": 7.11,
      "classificacao_etaria": "A14",
      "imagem_original": "https://animefire.plus/img/animes/princess-princess.webp",
      "imagem_pasta": "https://animefire.plus/img/animes/princess-princess/",
      "secao": "legendados",
      "pagina": 118,
      "total_episodios": 12,
      "link_video": "https://animefire.plus/video/princess-princess"
    },
    {
      "id": 3030,
      "nome": "Princess Principal",
      "link": "https://animefire.plus/animes/princess-principal-todos-os-episodios",
      "texto_original": "Princess Principal",
      "rating": 7.7,
      "classificacao_etaria": "A16",
      "imagem_original": "https://animefire.plus/img/animes/princess-principal.webp",
      "imagem_pasta": "https://animefire.plus/img/animes/princess-principal/",
      "secao": "legendados",
      "pagina": 123,
      "total_episodios": 12,
      "link_video": "https://animefire.plus/video/princess-principal"
    },
    {
      "id": 3031,
      "nome": "Princess Tutu",
      "link": "https://animefire.plus/animes/princess-tutu-todos-os-episodios",
      "texto_original": "Princess Tutu",
      "rating": 8.17,
      "classificacao_etaria": "A14",
      "imagem_original": "https://animefire.plus/img/animes/princess-tutu.webp",
      "imagem_pasta": "https://animefire.plus/img/animes/princess-tutu/",
      "secao": "legendados",
      "pagina": 61,
      "total_episodios": 26,
      "link_video": "https://animefire.plus/video/princess-tutu"
    },
    {
      "id": 3032,
      "nome": "Princession Orchestra",
      "link": "https://animefire.plus/animes/princession-orchestra-todos-os-episodios",
      "texto_original": "Princession Orchestra",
      "rating": null,
      "classificacao_etaria": "A14",
      "imagem_original": "https://animefire.plus/img/animes/princession-orchestra.webp",
      "imagem_pasta": "https://animefire.plus/img/animes/princession-orchestra/",
      "secao": "legendados,lancamentos",
      "pagina": 4,
      "total_episodios": 0,
      "link_video": "https://animefire.plus/video/princession-orchestra"
    },
    {
      "id": 3033,
      "nome": "PriPara",
      "link": "https://animefire.plus/animes/pripara-todos-os-episodios",
      "texto_original": "PriPara",
      "rating": 7.62,
      "classificacao_etaria": "A10",
      "imagem_original": "https://animefire.plus/img/animes/pripara.webp",
      "imagem_pasta": "https://animefire.plus/img/animes/pripara/",
      "secao": "legendados",
      "pagina": 177,
      "total_episodios": 140,
      "link_video": "https://animefire.plus/video/pripara"
    },
    {
      "id": 3034,
      "nome": "Prism Ark",
      "link": "https://animefire.plus/animes/prism-ark-todos-os-episodios",
      "texto_original": "Prism Ark",
      "rating": 6.52,
      "classificacao_etaria": "A18",
      "imagem_original": "https://animefire.plus/img/animes/prism-ark.webp",
      "imagem_pasta": "https://animefire.plus/img/animes/prism-ark/",
      "secao": "legendados",
      "pagina": 179,
      "total_episodios": 12,
      "link_video": "https://animefire.plus/video/prism-ark"
    },
    {
      "id": 3035,
      "nome": "Prism Magical: Prism Generations!",
      "link": "https://animefire.plus/animes/prism-magical-prism-generations-todos-os-episodios",
      "texto_original": "Prism Magical: Prism Generations!",
      "rating": 5.16,
      "classificacao_etaria": "A18",
      "imagem_original": "https://animefire.plus/img/animes/prism-magical-prism-generations.webp",
      "imagem_pasta": "https://animefire.plus/img/animes/prism-magical-prism-generations/",
      "secao": "legendados",
      "pagina": 82,
      "total_episodios": 1,
      "link_video": "https://animefire.plus/video/prism-magical-prism-generations"
    },
    {
      "id": 3036,
      "nome": "Prison School",
      "link": "https://animefire.plus/animes/prison-school-todos-os-episodios",
      "texto_original": "Prison School",
      "rating": 7.85,
      "classificacao_etaria": "A18",
      "imagem_original": "https://animefire.plus/img/animes/prison-school.webp",
      "imagem_pasta": "https://animefire.plus/img/animes/prison-school/",
      "secao": "legendados",
      "pagina": 152,
      "total_episodios": 0,
      "link_video": "https://animefire.plus/video/prison-school"
    },
    {
      "id": 3037,
      "nome": "Project Scard: Praeter no Kizu",
      "link": "https://animefire.plus/animes/project-scard-praeter-no-kizu-todos-os-episodios",
      "texto_original": "Project Scard: Praeter no Kizu",
      "rating": 5.93,
      "classificacao_etaria": "A14",
      "imagem_original": "https://animefire.plus/img/animes/project-scard-praeter-no-kizu.webp",
      "imagem_pasta": "https://animefire.plus/img/animes/project-scard-praeter-no-kizu/",
      "secao": "legendados,lancamentos",
      "pagina": 48,
      "total_episodios": 3,
      "link_video": "https://animefire.plus/video/project-scard-praeter-no-kizu"
    },
    {
      "id": 3038,
      "nome": "Promare: Galo-hen",
      "link": "https://animefire.plus/animes/promare-galo-hen-todos-os-episodios",
      "texto_original": "Promare: Galo-hen",
      "rating": 6.92,
      "classificacao_etaria": "A14",
      "imagem_original": "https://animefire.plus/img/animes/promare-galo-hen.webp",
      "imagem_pasta": "https://animefire.plus/img/animes/promare-galo-hen/",
      "secao": "legendados",
      "pagina": 90,
      "total_episodios": 0,
      "link_video": "https://animefire.plus/video/promare-galo-hen"
    },
    {
      "id": 3039,
      "nome": "Promare: Lio-hen",
      "link": "https://animefire.plus/animes/promare-lio-hen-todos-os-episodios",
      "texto_original": "Promare: Lio-hen",
      "rating": 7.06,
      "classificacao_etaria": "A14",
      "imagem_original": "https://animefire.plus/img/animes/promare-lio-hen.webp",
      "imagem_pasta": "https://animefire.plus/img/animes/promare-lio-hen/",
      "secao": "legendados",
      "pagina": 90,
      "total_episodios": 0,
      "link_video": "https://animefire.plus/video/promare-lio-hen"
    },
    {
      "id": 3040,
      "nome": "Psycho-Pass",
      "link": "https://animefire.plus/animes/psycho-pass-todos-os-episodios",
      "texto_original": "Psycho-Pass",
      "rating": 8.42,
      "classificacao_etaria": "A16",
      "imagem_original": "https://animefire.plus/img/animes/psycho-pass.webp",
      "imagem_pasta": "https://animefire.plus/img/animes/psycho-pass/",
      "secao": "legendados",
      "pagina": 113,
      "total_episodios": 1,
      "link_video": "https://animefire.plus/video/psycho-pass"
    }
  ],
  "pagination": {
    "current_page": 152,
    "per_page": 20,
    "total_items": 4368,
    "total_pages": 219,
    "has_next": true,
    "has_prev": true
  }
}
