{
  "message": "Lista de animes",
  "data": [
    {
      "id": 2961,
      "nome": "Peach Boy Riverside",
      "link": "https://animefire.plus/animes/peach-boy-riverside-todos-os-episodios",
      "texto_original": "Peach Boy Riverside",
      "rating": 6.24,
      "classificacao_etaria": "A16",
      "imagem_original": "https://animefire.plus/img/animes/peach-boy-riverside.webp",
      "imagem_pasta": "https://animefire.plus/img/animes/peach-boy-riverside/",
      "secao": "legendados",
      "pagina": 41,
      "total_episodios": 12,
      "link_video": "https://animefire.plus/video/peach-boy-riverside"
    },
    {
      "id": 2962,
      "nome": "Peach Girl",
      "link": "https://animefire.plus/animes/peach-girl-todos-os-episodios",
      "texto_original": "Peach Girl",
      "rating": 7.11,
      "classificacao_etaria": "A14",
      "imagem_original": "https://animefire.plus/img/animes/peach-girl.webp",
      "imagem_pasta": "https://animefire.plus/img/animes/peach-girl/",
      "secao": "legendados",
      "pagina": 165,
      "total_episodios": 25,
      "link_video": "https://animefire.plus/video/peach-girl"
    },
    {
      "id": 2963,
      "nome": "Peeping Life TV: Season 1??",
      "link": "https://animefire.plus/animes/peeping-life-tv-season-1-todos-os-episodios",
      "texto_original": "Peeping Life TV: Season 1??",
      "rating": 5.72,
      "classificacao_etaria": null,
      "imagem_original": "https://animefire.plus/img/animes/peeping-life-tv-season-1.webp",
      "imagem_pasta": "https://animefire.plus/img/animes/peeping-life-tv-season-1/",
      "secao": "legendados",
      "pagina": 165,
      "total_episodios": 10,
      "link_video": "https://animefire.plus/video/peeping-life-tv-season-1"
    },
    {
      "id": 2964,
      "nome": "Penguin Musume♥Heart",
      "link": "https://animefire.plus/animes/penguin-musume-heart-todos-os-episodios",
      "texto_original": "Penguin Musume♥Heart",
      "rating": 6.81,
      "classificacao_etaria": "A18",
      "imagem_original": "https://animefire.plus/img/animes/penguin-musume-heart.webp",
      "imagem_pasta": "https://animefire.plus/img/animes/penguin-musume-heart/",
      "secao": "legendados",
      "pagina": 133,
      "total_episodios": 22,
      "link_video": "https://animefire.plus/video/penguin-musume-heart"
    },
    {
      "id": 2965,
      "nome": "Persona 4 the Animation",
      "link": "https://animefire.plus/animes/persona-4-the-animation-todos-os-episodios",
      "texto_original": "Persona 4 the Animation",
      "rating": 7.59,
      "classificacao_etaria": "A14",
      "imagem_original": "https://animefire.plus/img/animes/persona-4-the-animation.webp",
      "imagem_pasta": "https://animefire.plus/img/animes/persona-4-the-animation/",
      "secao": "legendados",
      "pagina": 165,
      "total_episodios": 15,
      "link_video": "https://animefire.plus/video/persona-4-the-animation"
    },
    {
      "id": 2966,
      "nome": "Persona 4 the Golden Animation",
      "link": "https://animefire.plus/animes/persona-4-the-golden-animation-todos-os-episodios",
      "texto_original": "Persona 4 the Golden Animation",
      "rating": 6.67,
      "classificacao_etaria": "A14",
      "imagem_original": "https://animefire.plus/img/animes/persona-4-the-golden-animation.webp",
      "imagem_pasta": "https://animefire.plus/img/animes/persona-4-the-golden-animation/",
      "secao": "legendados",
      "pagina": 74,
      "total_episodios": 12,
      "link_video": "https://animefire.plus/video/persona-4-the-golden-animation"
    },
    {
      "id": 2967,
      "nome": "Persona 5 the Animation",
      "link": "https://animefire.plus/animes/persona-5-the-animation-todos-os-episodios",
      "texto_original": "Persona 5 the Animation",
      "rating": 6.71,
      "classificacao_etaria": "A16",
      "imagem_original": "https://animefire.plus/img/animes/persona-5-the-animation.webp",
      "imagem_pasta": "https://animefire.plus/img/animes/persona-5-the-animation/",
      "secao": "legendados",
      "pagina": 120,
      "total_episodios": 26,
      "link_video": "https://animefire.plus/video/persona-5-the-animation"
    },
    {
      "id": 2968,
      "nome": "Persona: Trinity Soul",
      "link": "https://animefire.plus/animes/persona-trinity-soul-todos-os-episodios",
      "texto_original": "Persona: Trinity Soul",
      "rating": 6.66,
      "classificacao_etaria": "A14",
      "imagem_original": "https://animefire.plus/img/animes/persona-trinity-soul.webp",
      "imagem_pasta": "https://animefire.plus/img/animes/persona-trinity-soul/",
      "secao": "legendados",
      "pagina": 136,
      "total_episodios": 26,
      "link_video": "https://animefire.plus/video/persona-trinity-soul"
    },
    {
      "id": 2969,
      "nome": "Peter Grill to Kenja no Jikan",
      "link": "https://animefire.plus/animes/peter-grill-to-kenja-no-jikan-todos-os-episodios",
      "texto_original": "Peter Grill to Kenja no Jikan",
      "rating": 5.51,
      "classificacao_etaria": "A18",
      "imagem_original": "https://animefire.plus/img/animes/peter-grill-to-kenja-no-jikan.webp",
      "imagem_pasta": "https://animefire.plus/img/animes/peter-grill-to-kenja-no-jikan/",
      "secao": "legendados",
      "pagina": 58,
      "total_episodios": 12,
      "link_video": "https://animefire.plus/video/peter-grill-to-kenja-no-jikan"
    },
    {
      "id": 2970,
      "nome": "Peter Grill to Kenja no Jikan: Super Extra",
      "link": "https://animefire.plus/animes/peter-grill-to-kenja-no-jikan-super-extra-todos-os-episodios",
      "texto_original": "Peter Grill to Kenja no Jikan: Super Extra",
      "rating": 5.94,
      "classificacao_etaria": "A18",
      "imagem_original": "https://animefire.plus/img/animes/peter-grill-to-kenja-no-jikan-super-extra.webp",
      "imagem_pasta": "https://animefire.plus/img/animes/peter-grill-to-kenja-no-jikan-super-extra/",
      "secao": "legendados",
      "pagina": 29,
      "total_episodios": 12,
      "link_video": "https://animefire.plus/video/peter-grill-to-kenja-no-jikan-super-extra"
    },
    {
      "id": 2971,
      "nome": "Petshop of Horrors",
      "link": "https://animefire.plus/animes/petshop-of-horrors-todos-os-episodios",
      "texto_original": "Petshop of Horrors",
      "rating": 7.33,
      "classificacao_etaria": "A18",
      "imagem_original": "https://animefire.plus/img/animes/petshop-of-horrors.webp",
      "imagem_pasta": "https://animefire.plus/img/animes/petshop-of-horrors/",
      "secao": "legendados",
      "pagina": 113,
      "total_episodios": 4,
      "link_video": "https://animefire.plus/video/petshop-of-horrors"
    },
    {
      "id": 2972,
      "nome": "Phantasy Star Online 2 The Animation",
      "link": "https://animefire.plus/animes/phantasy-star-online-2-the-animation-todos-os-episodios",
      "texto_original": "Phantasy Star Online 2 The Animation",
      "rating": 6.43,
      "classificacao_etaria": "A14",
      "imagem_original": "https://animefire.plus/img/animes/phantasy-star-online-2-the-animation.webp",
      "imagem_pasta": "https://animefire.plus/img/animes/phantasy-star-online-2-the-animation/",
      "secao": "legendados",
      "pagina": 165,
      "total_episodios": 1,
      "link_video": "https://animefire.plus/video/phantasy-star-online-2-the-animation"
    },
    {
      "id": 2973,
      "nome": "Phantasy Star Online 2: Episode Oracle",
      "link": "https://animefire.plus/animes/phantasy-star-online-2-episode-oracle-todos-os-episodios",
      "texto_original": "Phantasy Star Online 2: Episode Oracle",
      "rating": 6.55,
      "classificacao_etaria": "A14",
      "imagem_original": "https://animefire.plus/img/animes/phantasy-star-online-2-episode-oracle.webp",
      "imagem_pasta": "https://animefire.plus/img/animes/phantasy-star-online-2-episode-oracle/",
      "secao": "legendados",
      "pagina": 110,
      "total_episodios": 1,
      "link_video": "https://animefire.plus/video/phantasy-star-online-2-episode-oracle"
    },
    {
      "id": 2974,
      "nome": "Phantom in the Twilight",
      "link": "https://animefire.plus/animes/phantom-in-the-twilight-todos-os-episodios",
      "texto_original": "Phantom in the Twilight",
      "rating": 6.52,
      "classificacao_etaria": "A14",
      "imagem_original": "https://animefire.plus/img/animes/phantom-in-the-twilight.webp",
      "imagem_pasta": "https://animefire.plus/img/animes/phantom-in-the-twilight/",
      "secao": "legendados",
      "pagina": 121,
      "total_episodios": 12,
      "link_video": "https://animefire.plus/video/phantom-in-the-twilight"
    },
    {
      "id": 2975,
      "nome": "Phantom: Requiem for the Phantom",
      "link": "https://animefire.plus/animes/phantom-requiem-for-the-phantom-todos-os-episodios",
      "texto_original": "Phantom: Requiem for the Phantom",
      "rating": 8.08,
      "classificacao_etaria": "A18",
      "imagem_original": "https://animefire.plus/img/animes/phantom-requiem-for-the-phantom.webp",
      "imagem_pasta": "https://animefire.plus/img/animes/phantom-requiem-for-the-phantom/",
      "secao": "legendados",
      "pagina": 137,
      "total_episodios": 26,
      "link_video": "https://animefire.plus/video/phantom-requiem-for-the-phantom"
    },
    {
      "id": 2976,
      "nome": "Phi Brain: Kami no Puzzle",
      "link": "https://animefire.plus/animes/phi-brain-kami-no-puzzle-todos-os-episodios",
      "texto_original": "Phi Brain: Kami no Puzzle",
      "rating": 7.26,
      "classificacao_etaria": "A14",
      "imagem_original": "https://animefire.plus/img/animes/phi-brain-kami-no-puzzle.webp",
      "imagem_pasta": "https://animefire.plus/img/animes/phi-brain-kami-no-puzzle/",
      "secao": "legendados",
      "pagina": 124,
      "total_episodios": 0,
      "link_video": "https://animefire.plus/video/phi-brain-kami-no-puzzle"
    },
    {
      "id": 2977,
      "nome": "Phi Brain: Kami no Puzzle - Orpheus Order-hen",
      "link": "https://animefire.plus/animes/phi-brain-kami-no-puzzle---orpheus-order-hen-todos-os-episodios",
      "texto_original": "Phi Brain: Kami no Puzzle - Orpheus Order-hen",
      "rating": 7.36,
      "classificacao_etaria": "A14",
      "imagem_original": "https://animefire.plus/img/animes/phi-brain-kami-no-puzzle---orpheus-order-hen.webp",
      "imagem_pasta": "https://animefire.plus/img/animes/phi-brain-kami-no-puzzle---orpheus-order-hen/",
      "secao": "legendados",
      "pagina": 154,
      "total_episodios": 5,
      "link_video": "https://animefire.plus/video/phi-brain-kami-no-puzzle---orpheus-order-hen"
    },
    {
      "id": 2978,
      "nome": "Phi Brain: Kami no Puzzle - Shukuteki! Rätsel-hen",
      "link": "https://animefire.plus/animes/phi-brain-kami-no-puzzle---shukuteki-raetsel-hen-todos-os-episodios",
      "texto_original": "Phi Brain: Kami no Puzzle - Shukuteki! Rätsel-hen",
      "rating": 7.36,
      "classificacao_etaria": "A14",
      "imagem_original": "https://animefire.plus/img/animes/phi-brain-kami-no-puzzle---shukuteki-raetsel-hen.webp",
      "imagem_pasta": "https://animefire.plus/img/animes/phi-brain-kami-no-puzzle---shukuteki-raetsel-hen/",
      "secao": "legendados",
      "pagina": 148,
      "total_episodios": 5,
      "link_video": "https://animefire.plus/video/phi-brain-kami-no-puzzle---shukuteki-raetsel-hen"
    },
    {
      "id": 2979,
      "nome": "Photokano",
      "link": "https://animefire.plus/animes/photokano-todos-os-episodios",
      "texto_original": "Photokano",
      "rating": 6.31,
      "classificacao_etaria": "A14",
      "imagem_original": "https://animefire.plus/img/animes/photokano.webp",
      "imagem_pasta": "https://animefire.plus/img/animes/photokano/",
      "secao": "legendados",
      "pagina": 133,
      "total_episodios": 3,
      "link_video": "https://animefire.plus/video/photokano"
    },
    {
      "id": 2980,
      "nome": "Piace: Watashi no Italian",
      "link": "https://animefire.plus/animes/piace-watashi-no-italian-todos-os-episodios",
      "texto_original": "Piace: Watashi no Italian",
      "rating": 5.89,
      "classificacao_etaria": "A14",
      "imagem_original": "https://animefire.plus/img/animes/piace-watashi-no-italian.webp",
      "imagem_pasta": "https://animefire.plus/img/animes/piace-watashi-no-italian/",
      "secao": "legendados",
      "pagina": 112,
      "total_episodios": 0,
      "link_video": "https://animefire.plus/video/piace-watashi-no-italian"
    }
  ],
  "pagination": {
    "current_page": 149,
    "per_page": 20,
    "total_items": 4368,
    "total_pages": 219,
    "has_next": true,
    "has_prev": true
  }
}
