{
  "message": "Lista de animes",
  "data": [
    {
      "id": 1021,
      "nome": "Frame Arms Girl",
      "link": "https://animefire.plus/animes/frame-arms-girl-todos-os-episodios",
      "texto_original": "Frame Arms Girl",
      "rating": 6.49,
      "classificacao_etaria": "A14",
      "imagem_original": "https://animefire.plus/img/animes/frame-arms-girl.webp",
      "imagem_pasta": "https://animefire.plus/img/animes/frame-arms-girl/",
      "secao": "legendados",
      "pagina": 171,
      "total_episodios": 12,
      "link_video": "https://animefire.plus/video/frame-arms-girl"
    },
    {
      "id": 1022,
      "nome": "Francesca",
      "link": "https://animefire.plus/animes/francesca-todos-os-episodios",
      "texto_original": "Francesca",
      "rating": 5.54,
      "classificacao_etaria": "A14",
      "imagem_original": "https://animefire.plus/img/animes/francesca.webp",
      "imagem_pasta": "https://animefire.plus/img/animes/francesca/",
      "secao": "legendados",
      "pagina": 129,
      "total_episodios": 1,
      "link_video": "https://animefire.plus/video/francesca"
    },
    {
      "id": 1023,
      "nome": "Free! (Dublado)",
      "link": "https://animefire.plus/animes/free-dublado-todos-os-episodios",
      "texto_original": "Free! (Dublado)",
      "rating": 7.48,
      "classificacao_etaria": "A14",
      "imagem_original": "https://animefire.plus/img/animes/free.webp",
      "imagem_pasta": "https://animefire.plus/img/animes/free/",
      "secao": "dublados,legendados",
      "pagina": 24,
      "total_episodios": 12,
      "link_video": "https://animefire.plus/video/free-dublado"
    },
    {
      "id": 1024,
      "nome": "Free!: Dive to the Future",
      "link": "https://animefire.plus/animes/free-dive-to-the-future-todos-os-episodios",
      "texto_original": "Free!: Dive to the Future",
      "rating": 7.71,
      "classificacao_etaria": "A14",
      "imagem_original": "https://animefire.plus/img/animes/free-dive-to-the-future.webp",
      "imagem_pasta": "https://animefire.plus/img/animes/free-dive-to-the-future/",
      "secao": "legendados",
      "pagina": 139,
      "total_episodios": 12,
      "link_video": "https://animefire.plus/video/free-dive-to-the-future"
    },
    {
      "id": 1025,
      "nome": "Free!: Eternal Summer",
      "link": "https://animefire.plus/animes/free-eternal-summer-todos-os-episodios",
      "texto_original": "Free!: Eternal Summer",
      "rating": 7.74,
      "classificacao_etaria": "A14",
      "imagem_original": "https://animefire.plus/img/animes/free-eternal-summer.webp",
      "imagem_pasta": "https://animefire.plus/img/animes/free-eternal-summer/",
      "secao": "legendados",
      "pagina": 74,
      "total_episodios": 13,
      "link_video": "https://animefire.plus/video/free-eternal-summer"
    },
    {
      "id": 1026,
      "nome": "Freedom",
      "link": "https://animefire.plus/animes/freedom-todos-os-episodios",
      "texto_original": "Freedom",
      "rating": 7.48,
      "classificacao_etaria": "A14",
      "imagem_original": "https://animefire.plus/img/animes/freedom.webp",
      "imagem_pasta": "https://animefire.plus/img/animes/freedom/",
      "secao": "legendados",
      "pagina": 68,
      "total_episodios": 8,
      "link_video": "https://animefire.plus/video/freedom"
    },
    {
      "id": 1027,
      "nome": "Freezing",
      "link": "https://animefire.plus/animes/freezing-todos-os-episodios",
      "texto_original": "Freezing",
      "rating": 7.06,
      "classificacao_etaria": "A18",
      "imagem_original": "https://animefire.plus/img/animes/freezing.webp",
      "imagem_pasta": "https://animefire.plus/img/animes/freezing/",
      "secao": "legendados",
      "pagina": 134,
      "total_episodios": 12,
      "link_video": "https://animefire.plus/video/freezing"
    },
    {
      "id": 1028,
      "nome": "Freezing Vibration",
      "link": "https://animefire.plus/animes/freezing-vibration-todos-os-episodios",
      "texto_original": "Freezing Vibration",
      "rating": 6.97,
      "classificacao_etaria": "A18",
      "imagem_original": "https://animefire.plus/img/animes/freezing-vibration.webp",
      "imagem_pasta": "https://animefire.plus/img/animes/freezing-vibration/",
      "secao": "legendados",
      "pagina": 132,
      "total_episodios": 4,
      "link_video": "https://animefire.plus/video/freezing-vibration"
    },
    {
      "id": 1029,
      "nome": "Fresh Precure!",
      "link": "https://animefire.plus/animes/fresh-precure-todos-os-episodios",
      "texto_original": "Fresh Precure!",
      "rating": 7.34,
      "classificacao_etaria": null,
      "imagem_original": "https://animefire.plus/img/animes/fresh-precure.webp",
      "imagem_pasta": "https://animefire.plus/img/animes/fresh-precure/",
      "secao": "legendados",
      "pagina": 66,
      "total_episodios": 50,
      "link_video": "https://animefire.plus/video/fresh-precure"
    },
    {
      "id": 1030,
      "nome": "Fruits Basket",
      "link": "https://animefire.plus/animes/fruits-basket-todos-os-episodios",
      "texto_original": "Fruits Basket",
      "rating": 7.71,
      "classificacao_etaria": "A14",
      "imagem_original": "https://animefire.plus/img/animes/fruits-basket.webp",
      "imagem_pasta": "https://animefire.plus/img/animes/fruits-basket/",
      "secao": "legendados",
      "pagina": 68,
      "total_episodios": 26,
      "link_video": "https://animefire.plus/video/fruits-basket"
    },
    {
      "id": 1031,
      "nome": "Fruits Basket (2019)",
      "link": "https://animefire.plus/animes/fruits-basket-2019-todos-os-episodios",
      "texto_original": "Fruits Basket (2019)",
      "rating": 8.2,
      "classificacao_etaria": "A14",
      "imagem_original": "https://animefire.plus/img/animes/fruits-basket-2019.webp",
      "imagem_pasta": "https://animefire.plus/img/animes/fruits-basket-2019/",
      "secao": "legendados",
      "pagina": 134,
      "total_episodios": 23,
      "link_video": "https://animefire.plus/video/fruits-basket-2019"
    },
    {
      "id": 1032,
      "nome": "Fruits Basket 1st Season (Dublado)",
      "link": "https://animefire.plus/animes/fruits-basket-1st-season-dublado-todos-os-episodios",
      "texto_original": "Fruits Basket 1st Season (Dublado)",
      "rating": 8.2,
      "classificacao_etaria": "A14",
      "imagem_original": "https://animefire.plus/img/animes/fruits-basket-1st-season.webp",
      "imagem_pasta": "https://animefire.plus/img/animes/fruits-basket-1st-season/",
      "secao": "dublados",
      "pagina": 17,
      "total_episodios": 25,
      "link_video": "https://animefire.plus/video/fruits-basket-1st-season-dublado"
    },
    {
      "id": 1033,
      "nome": "Fruits Basket 2nd Season (Dublado)",
      "link": "https://animefire.plus/animes/fruits-basket-2nd-season-dublado-todos-os-episodios",
      "texto_original": "Fruits Basket 2nd Season (Dublado)",
      "rating": 8.55,
      "classificacao_etaria": "A14",
      "imagem_original": "https://animefire.plus/img/animes/fruits-basket-2nd-season.webp",
      "imagem_pasta": "https://animefire.plus/img/animes/fruits-basket-2nd-season/",
      "secao": "dublados,legendados",
      "pagina": 17,
      "total_episodios": 25,
      "link_video": "https://animefire.plus/video/fruits-basket-2nd-season-dublado"
    },
    {
      "id": 1034,
      "nome": "Fruits Basket: The Final (Dublado)",
      "link": "https://animefire.plus/animes/fruits-basket-the-final-dublado-todos-os-episodios",
      "texto_original": "Fruits Basket: The Final (Dublado)",
      "rating": 8.95,
      "classificacao_etaria": "A14",
      "imagem_original": "https://animefire.plus/img/animes/fruits-basket-the-final.webp",
      "imagem_pasta": "https://animefire.plus/img/animes/fruits-basket-the-final/",
      "secao": "dublados,legendados",
      "pagina": 17,
      "total_episodios": 13,
      "link_video": "https://animefire.plus/video/fruits-basket-the-final-dublado"
    },
    {
      "id": 1035,
      "nome": "Fudanshi Koukou Seikatsu",
      "link": "https://animefire.plus/animes/fudanshi-koukou-seikatsu-todos-os-episodios",
      "texto_original": "Fudanshi Koukou Seikatsu",
      "rating": 6.64,
      "classificacao_etaria": "A14",
      "imagem_original": "https://animefire.plus/img/animes/fudanshi-koukou-seikatsu.webp",
      "imagem_pasta": "https://animefire.plus/img/animes/fudanshi-koukou-seikatsu/",
      "secao": "legendados",
      "pagina": 102,
      "total_episodios": 12,
      "link_video": "https://animefire.plus/video/fudanshi-koukou-seikatsu"
    },
    {
      "id": 1036,
      "nome": "Fugou Keiji: Balance:Unlimited",
      "link": "https://animefire.plus/animes/fugou-keiji-balance-unlimited-todos-os-episodios",
      "texto_original": "Fugou Keiji: Balance:Unlimited",
      "rating": 7.56,
      "classificacao_etaria": "A14",
      "imagem_original": "https://animefire.plus/img/animes/fugou-keiji-balance-unlimited.webp",
      "imagem_pasta": "https://animefire.plus/img/animes/fugou-keiji-balance-unlimited/",
      "secao": "legendados",
      "pagina": 80,
      "total_episodios": 1,
      "link_video": "https://animefire.plus/video/fugou-keiji-balance-unlimited"
    },
    {
      "id": 1037,
      "nome": "Fuguushoku \"Kanteishi\" ga Jitsu wa Saikyou Datta",
      "link": "https://animefire.plus/animes/fuguushoku-kanteishi-ga-jitsu-wa-saikyou-datta-todos-os-episodios",
      "texto_original": "Fuguushoku \"Kanteishi\" ga Jitsu wa Saikyou Datta",
      "rating": 6.33,
      "classificacao_etaria": "A16",
      "imagem_original": "https://animefire.plus/img/animes/fuguushoku-kanteishi-ga-jitsu-wa-saikyou-datta.webp",
      "imagem_pasta": "https://animefire.plus/img/animes/fuguushoku-kanteishi-ga-jitsu-wa-saikyou-datta/",
      "secao": "legendados",
      "pagina": 8,
      "total_episodios": 12,
      "link_video": "https://animefire.plus/video/fuguushoku-kanteishi-ga-jitsu-wa-saikyou-datta"
    },
    {
      "id": 1038,
      "nome": "Fukigen na Mononokean",
      "link": "https://animefire.plus/animes/fukigen-na-mononokean-todos-os-episodios",
      "texto_original": "Fukigen na Mononokean",
      "rating": 7.46,
      "classificacao_etaria": "A14",
      "imagem_original": "https://animefire.plus/img/animes/fukigen-na-mononokean.webp",
      "imagem_pasta": "https://animefire.plus/img/animes/fukigen-na-mononokean/",
      "secao": "legendados",
      "pagina": 121,
      "total_episodios": 0,
      "link_video": "https://animefire.plus/video/fukigen-na-mononokean"
    },
    {
      "id": 1039,
      "nome": "Fukigen na Mononokean Tsuzuki",
      "link": "https://animefire.plus/animes/fukigen-na-mononokean-tsuzuki-todos-os-episodios",
      "texto_original": "Fukigen na Mononokean Tsuzuki",
      "rating": 7.57,
      "classificacao_etaria": "A14",
      "imagem_original": "https://animefire.plus/img/animes/fukigen-na-mononokean-tsuzuki.webp",
      "imagem_pasta": "https://animefire.plus/img/animes/fukigen-na-mononokean-tsuzuki/",
      "secao": "legendados",
      "pagina": 101,
      "total_episodios": 13,
      "link_video": "https://animefire.plus/video/fukigen-na-mononokean-tsuzuki"
    },
    {
      "id": 1040,
      "nome": "Fukumenkei Noise",
      "link": "https://animefire.plus/animes/fukumenkei-noise-todos-os-episodios",
      "texto_original": "Fukumenkei Noise",
      "rating": 7.14,
      "classificacao_etaria": "A14",
      "imagem_original": "https://animefire.plus/img/animes/fukumenkei-noise.webp",
      "imagem_pasta": "https://animefire.plus/img/animes/fukumenkei-noise/",
      "secao": "legendados",
      "pagina": 139,
      "total_episodios": 2,
      "link_video": "https://animefire.plus/video/fukumenkei-noise"
    }
  ],
  "pagination": {
    "current_page": 52,
    "per_page": 20,
    "total_items": 4368,
    "total_pages": 219,
    "has_next": true,
    "has_prev": true
  }
}
