{
  "message": "Lista de animes",
  "data": [
    {
      "id": 3261,
      "nome": "Sasaki to Pii-chan",
      "link": "https://animefire.plus/animes/sasaki-to-pii-chan-todos-os-episodios",
      "texto_original": "Sasaki to Pii-chan",
      "rating": 6.84,
      "classificacao_etaria": "A16",
      "imagem_original": "https://animefire.plus/img/animes/sasaki-to-pii-chan.webp",
      "imagem_pasta": "https://animefire.plus/img/animes/sasaki-to-pii-chan/",
      "secao": "legendados",
      "pagina": 17,
      "total_episodios": 12,
      "link_video": "https://animefire.plus/video/sasaki-to-pii-chan"
    },
    {
      "id": 3262,
      "nome": "Sasameki Koto",
      "link": "https://animefire.plus/animes/sasameki-koto-todos-os-episodios",
      "texto_original": "Sasameki Koto",
      "rating": 7.15,
      "classificacao_etaria": "A14",
      "imagem_original": "https://animefire.plus/img/animes/sasameki-koto.webp",
      "imagem_pasta": "https://animefire.plus/img/animes/sasameki-koto/",
      "secao": "legendados",
      "pagina": 113,
      "total_episodios": 12,
      "link_video": "https://animefire.plus/video/sasameki-koto"
    },
    {
      "id": 3263,
      "nome": "Sasami-san@Ganbaranai",
      "link": "https://animefire.plus/animes/sasami-sanatganbaranai-todos-os-episodios",
      "texto_original": "Sasami-san@Ganbaranai",
      "rating": 6.7,
      "classificacao_etaria": "A14",
      "imagem_original": "https://animefire.plus/img/animes/sasami-sanatganbaranai.webp",
      "imagem_pasta": "https://animefire.plus/img/animes/sasami-sanatganbaranai/",
      "secao": "legendados",
      "pagina": 139,
      "total_episodios": 12,
      "link_video": "https://animefire.plus/video/sasami-sanatganbaranai"
    },
    {
      "id": 3264,
      "nome": "Sasami: Mahou Shoujo Club",
      "link": "https://animefire.plus/animes/sasami-mahou-shoujo-club-todos-os-episodios",
      "texto_original": "Sasami: Mahou Shoujo Club",
      "rating": 6.72,
      "classificacao_etaria": "A10",
      "imagem_original": "https://animefire.plus/img/animes/sasami-mahou-shoujo-club.webp",
      "imagem_pasta": "https://animefire.plus/img/animes/sasami-mahou-shoujo-club/",
      "secao": "legendados",
      "pagina": 121,
      "total_episodios": 13,
      "link_video": "https://animefire.plus/video/sasami-mahou-shoujo-club"
    },
    {
      "id": 3265,
      "nome": "Sasayaku You ni Koi wo Utau",
      "link": "https://animefire.plus/animes/sasayaku-you-ni-koi-wo-utau-todos-os-episodios",
      "texto_original": "Sasayaku You ni Koi wo Utau",
      "rating": 6.66,
      "classificacao_etaria": "A14",
      "imagem_original": "https://animefire.plus/img/animes/sasayaku-you-ni-koi-wo-utau.webp",
      "imagem_pasta": "https://animefire.plus/img/animes/sasayaku-you-ni-koi-wo-utau/",
      "secao": "legendados",
      "pagina": 12,
      "total_episodios": 12,
      "link_video": "https://animefire.plus/video/sasayaku-you-ni-koi-wo-utau"
    },
    {
      "id": 3266,
      "nome": "Satsuriku no Tenshi",
      "link": "https://animefire.plus/animes/satsuriku-no-tenshi-todos-os-episodios",
      "texto_original": "Satsuriku no Tenshi",
      "rating": 6.9,
      "classificacao_etaria": "A16",
      "imagem_original": "https://animefire.plus/img/animes/satsuriku-no-tenshi.webp",
      "imagem_pasta": "https://animefire.plus/img/animes/satsuriku-no-tenshi/",
      "secao": "legendados",
      "pagina": 169,
      "total_episodios": 16,
      "link_video": "https://animefire.plus/video/satsuriku-no-tenshi"
    },
    {
      "id": 3267,
      "nome": "Satsuriku no Tenshi ONA",
      "link": "https://animefire.plus/animes/satsuriku-no-tenshi-ona-todos-os-episodios",
      "texto_original": "Satsuriku no Tenshi ONA",
      "rating": 7.22,
      "classificacao_etaria": null,
      "imagem_original": "https://animefire.plus/img/animes/satsuriku-no-tenshi-ona.webp",
      "imagem_pasta": "https://animefire.plus/img/animes/satsuriku-no-tenshi-ona/",
      "secao": "legendados",
      "pagina": 174,
      "total_episodios": 4,
      "link_video": "https://animefire.plus/video/satsuriku-no-tenshi-ona"
    },
    {
      "id": 3268,
      "nome": "Sayonara Watashi no Cramer",
      "link": "https://animefire.plus/animes/sayonara-watashi-no-cramer-todos-os-episodios",
      "texto_original": "Sayonara Watashi no Cramer",
      "rating": 6.1,
      "classificacao_etaria": "A14",
      "imagem_original": "https://animefire.plus/img/animes/sayonara-watashi-no-cramer.webp",
      "imagem_pasta": "https://animefire.plus/img/animes/sayonara-watashi-no-cramer/",
      "secao": "legendados",
      "pagina": 46,
      "total_episodios": 13,
      "link_video": "https://animefire.plus/video/sayonara-watashi-no-cramer"
    },
    {
      "id": 3269,
      "nome": "Sayonara Zetsubou Sensei",
      "link": "https://animefire.plus/animes/sayonara-zetsubou-sensei-todos-os-episodios",
      "texto_original": "Sayonara Zetsubou Sensei",
      "rating": 7.92,
      "classificacao_etaria": "A16",
      "imagem_original": "https://animefire.plus/img/animes/sayonara-zetsubou-sensei.webp",
      "imagem_pasta": "https://animefire.plus/img/animes/sayonara-zetsubou-sensei/",
      "secao": "legendados",
      "pagina": 60,
      "total_episodios": 12,
      "link_video": "https://animefire.plus/video/sayonara-zetsubou-sensei"
    },
    {
      "id": 3270,
      "nome": "Sayonara Zetsubou Sensei Special",
      "link": "https://animefire.plus/animes/sayonara-zetsubou-sensei-special-todos-os-episodios",
      "texto_original": "Sayonara Zetsubou Sensei Special",
      "rating": 7.53,
      "classificacao_etaria": "A16",
      "imagem_original": "https://animefire.plus/img/animes/sayonara-zetsubou-sensei-special.webp",
      "imagem_pasta": "https://animefire.plus/img/animes/sayonara-zetsubou-sensei-special/",
      "secao": "legendados",
      "pagina": 85,
      "total_episodios": 1,
      "link_video": "https://animefire.plus/video/sayonara-zetsubou-sensei-special"
    },
    {
      "id": 3271,
      "nome": "Sayounara Ryuusei, Konnichiwa Jinsei",
      "link": "https://animefire.plus/animes/sayounara-ryuusei-konnichiwa-jinsei-todos-os-episodios",
      "texto_original": "Sayounara Ryuusei, Konnichiwa Jinsei",
      "rating": 6.34,
      "classificacao_etaria": "A14",
      "imagem_original": "https://animefire.plus/img/animes/sayounara-ryuusei-konnichiwa-jinsei.webp",
      "imagem_pasta": "https://animefire.plus/img/animes/sayounara-ryuusei-konnichiwa-jinsei/",
      "secao": "legendados",
      "pagina": 10,
      "total_episodios": 12,
      "link_video": "https://animefire.plus/video/sayounara-ryuusei-konnichiwa-jinsei"
    },
    {
      "id": 3272,
      "nome": "Scared Rider Xechs",
      "link": "https://animefire.plus/animes/scared-rider-xechs-todos-os-episodios",
      "texto_original": "Scared Rider Xechs",
      "rating": 5.3,
      "classificacao_etaria": "A14",
      "imagem_original": "https://animefire.plus/img/animes/scared-rider-xechs.webp",
      "imagem_pasta": "https://animefire.plus/img/animes/scared-rider-xechs/",
      "secao": "legendados",
      "pagina": 132,
      "total_episodios": 1,
      "link_video": "https://animefire.plus/video/scared-rider-xechs"
    },
    {
      "id": 3273,
      "nome": "Scarlet Nexus (Dublado)",
      "link": "https://animefire.plus/animes/scarlet-nexus-dublado-todos-os-episodios",
      "texto_original": "Scarlet Nexus (Dublado)",
      "rating": 5.72,
      "classificacao_etaria": "A14",
      "imagem_original": "https://animefire.plus/img/animes/scarlet-nexus.webp",
      "imagem_pasta": "https://animefire.plus/img/animes/scarlet-nexus/",
      "secao": "dublados,legendados",
      "pagina": 16,
      "total_episodios": 26,
      "link_video": "https://animefire.plus/video/scarlet-nexus-dublado"
    },
    {
      "id": 3274,
      "nome": "School Days",
      "link": "https://animefire.plus/animes/school-days-todos-os-episodios",
      "texto_original": "School Days",
      "rating": 5.93,
      "classificacao_etaria": "A18",
      "imagem_original": "https://animefire.plus/img/animes/school-days.webp",
      "imagem_pasta": "https://animefire.plus/img/animes/school-days/",
      "secao": "legendados",
      "pagina": 158,
      "total_episodios": 12,
      "link_video": "https://animefire.plus/video/school-days"
    },
    {
      "id": 3275,
      "nome": "School Rumble",
      "link": "https://animefire.plus/animes/school-rumble-todos-os-episodios",
      "texto_original": "School Rumble",
      "rating": 8,
      "classificacao_etaria": "A14",
      "imagem_original": "https://animefire.plus/img/animes/school-rumble.webp",
      "imagem_pasta": "https://animefire.plus/img/animes/school-rumble/",
      "secao": "legendados",
      "pagina": 127,
      "total_episodios": 26,
      "link_video": "https://animefire.plus/video/school-rumble"
    },
    {
      "id": 3276,
      "nome": "School Rumble Ni Gakki",
      "link": "https://animefire.plus/animes/school-rumble-ni-gakki-todos-os-episodios",
      "texto_original": "School Rumble Ni Gakki",
      "rating": 8.09,
      "classificacao_etaria": "A14",
      "imagem_original": "https://animefire.plus/img/animes/school-rumble-ni-gakki.webp",
      "imagem_pasta": "https://animefire.plus/img/animes/school-rumble-ni-gakki/",
      "secao": "legendados",
      "pagina": 125,
      "total_episodios": 26,
      "link_video": "https://animefire.plus/video/school-rumble-ni-gakki"
    },
    {
      "id": 3277,
      "nome": "School Rumble San Gakki",
      "link": "https://animefire.plus/animes/school-rumble-san-gakki-todos-os-episodios",
      "texto_original": "School Rumble San Gakki",
      "rating": 7.33,
      "classificacao_etaria": "A14",
      "imagem_original": "https://animefire.plus/img/animes/school-rumble-san-gakki.webp",
      "imagem_pasta": "https://animefire.plus/img/animes/school-rumble-san-gakki/",
      "secao": "legendados",
      "pagina": 74,
      "total_episodios": 2,
      "link_video": "https://animefire.plus/video/school-rumble-san-gakki"
    },
    {
      "id": 3278,
      "nome": "Schoolgirl Strikers: Animation Channel",
      "link": "https://animefire.plus/animes/schoolgirl-strikers-animation-channel-todos-os-episodios",
      "texto_original": "Schoolgirl Strikers: Animation Channel",
      "rating": 5.72,
      "classificacao_etaria": "A14",
      "imagem_original": "https://animefire.plus/img/animes/schoolgirl-strikers-animation-channel.webp",
      "imagem_pasta": "https://animefire.plus/img/animes/schoolgirl-strikers-animation-channel/",
      "secao": "legendados",
      "pagina": 118,
      "total_episodios": 13,
      "link_video": "https://animefire.plus/video/schoolgirl-strikers-animation-channel"
    },
    {
      "id": 3279,
      "nome": "Schwarzesmarken (Dublado)",
      "link": "https://animefire.plus/animes/schwarzesmarken-dublado-todos-os-episodios",
      "texto_original": "Schwarzesmarken (Dublado)",
      "rating": 6.85,
      "classificacao_etaria": "A16",
      "imagem_original": "https://animefire.plus/img/animes/schwarzesmarken.webp",
      "imagem_pasta": "https://animefire.plus/img/animes/schwarzesmarken/",
      "secao": "dublados,legendados",
      "pagina": 23,
      "total_episodios": 12,
      "link_video": "https://animefire.plus/video/schwarzesmarken-dublado"
    },
    {
      "id": 3280,
      "nome": "Scrapped Princess",
      "link": "https://animefire.plus/animes/scrapped-princess-todos-os-episodios",
      "texto_original": "Scrapped Princess",
      "rating": 7.46,
      "classificacao_etaria": "A14",
      "imagem_original": "https://animefire.plus/img/animes/scrapped-princess.webp",
      "imagem_pasta": "https://animefire.plus/img/animes/scrapped-princess/",
      "secao": "legendados",
      "pagina": 125,
      "total_episodios": 24,
      "link_video": "https://animefire.plus/video/scrapped-princess"
    }
  ],
  "pagination": {
    "current_page": 164,
    "per_page": 20,
    "total_items": 4368,
    "total_pages": 219,
    "has_next": true,
    "has_prev": true
  }
}
