{
  "message": "Lista de animes",
  "data": [
    {
      "id": 1481,
      "nome": "Hikikomari Kyuuketsuki no Monmon",
      "link": "https://animefire.plus/animes/hikikomari-kyuuketsuki-no-monmon-todos-os-episodios",
      "texto_original": "Hikikomari Kyuuketsuki no Monmon",
      "rating": 7.14,
      "classificacao_etaria": "A14",
      "imagem_original": "https://animefire.plus/img/animes/hikikomari-kyuuketsuki-no-monmon.webp",
      "imagem_pasta": "https://animefire.plus/img/animes/hikikomari-kyuuketsuki-no-monmon/",
      "secao": "legendados",
      "pagina": 20,
      "total_episodios": 12,
      "link_video": "https://animefire.plus/video/hikikomari-kyuuketsuki-no-monmon"
    },
    {
      "id": 1482,
      "nome": "Himawari!",
      "link": "https://animefire.plus/animes/himawari-todos-os-episodios",
      "texto_original": "Himawari!",
      "rating": 6.39,
      "classificacao_etaria": "A14",
      "imagem_original": "https://animefire.plus/img/animes/himawari.webp",
      "imagem_pasta": "https://animefire.plus/img/animes/himawari/",
      "secao": "legendados",
      "pagina": 108,
      "total_episodios": 13,
      "link_video": "https://animefire.plus/video/himawari"
    },
    {
      "id": 1483,
      "nome": "Himegoto",
      "link": "https://animefire.plus/animes/himegoto-todos-os-episodios",
      "texto_original": "Himegoto",
      "rating": 6.03,
      "classificacao_etaria": "A14",
      "imagem_original": "https://animefire.plus/img/animes/himegoto.webp",
      "imagem_pasta": "https://animefire.plus/img/animes/himegoto/",
      "secao": "legendados",
      "pagina": 137,
      "total_episodios": 10,
      "link_video": "https://animefire.plus/video/himegoto"
    },
    {
      "id": 1484,
      "nome": "Himesama \"Goumon\" no Jikan desu",
      "link": "https://animefire.plus/animes/himesama-goumon-no-jikan-desu-todos-os-episodios",
      "texto_original": "Himesama \"Goumon\" no Jikan desu",
      "rating": 7.23,
      "classificacao_etaria": "A14",
      "imagem_original": "https://animefire.plus/img/animes/himesama-goumon-no-jikan-desu.webp",
      "imagem_pasta": "https://animefire.plus/img/animes/himesama-goumon-no-jikan-desu/",
      "secao": "legendados",
      "pagina": 17,
      "total_episodios": 12,
      "link_video": "https://animefire.plus/video/himesama-goumon-no-jikan-desu"
    },
    {
      "id": 1485,
      "nome": "Himiko-Den",
      "link": "https://animefire.plus/animes/himiko-den-todos-os-episodios",
      "texto_original": "Himiko-Den",
      "rating": 6.31,
      "classificacao_etaria": "A14",
      "imagem_original": "https://animefire.plus/img/animes/himiko-den.webp",
      "imagem_pasta": "https://animefire.plus/img/animes/himiko-den/",
      "secao": "legendados",
      "pagina": 96,
      "total_episodios": 12,
      "link_video": "https://animefire.plus/video/himiko-den"
    },
    {
      "id": 1486,
      "nome": "Himitsu no AiPri: Ring-hen",
      "link": "https://animefire.plus/animes/himitsu-no-aipri-ring-hen-todos-os-episodios",
      "texto_original": "Himitsu no AiPri: Ring-hen",
      "rating": null,
      "classificacao_etaria": "A10",
      "imagem_original": "https://animefire.plus/img/animes/himitsu-no-aipri-ring-hen.webp",
      "imagem_pasta": "https://animefire.plus/img/animes/himitsu-no-aipri-ring-hen/",
      "secao": "legendados,lancamentos",
      "pagina": 4,
      "total_episodios": 0,
      "link_video": "https://animefire.plus/video/himitsu-no-aipri-ring-hen"
    },
    {
      "id": 1487,
      "nome": "Himitsukessha Taka no Tsume: Golden Spell",
      "link": "https://animefire.plus/animes/himitsukessha-taka-no-tsume-golden-spell-todos-os-episodios",
      "texto_original": "Himitsukessha Taka no Tsume: Golden Spell",
      "rating": 5.71,
      "classificacao_etaria": null,
      "imagem_original": "https://animefire.plus/img/animes/himitsukessha-taka-no-tsume-golden-spell.webp",
      "imagem_pasta": "https://animefire.plus/img/animes/himitsukessha-taka-no-tsume-golden-spell/",
      "secao": "legendados,lancamentos",
      "pagina": 50,
      "total_episodios": 3,
      "link_video": "https://animefire.plus/video/himitsukessha-taka-no-tsume-golden-spell"
    },
    {
      "id": 1488,
      "nome": "Himote House",
      "link": "https://animefire.plus/animes/himote-house-todos-os-episodios",
      "texto_original": "Himote House",
      "rating": 5.8,
      "classificacao_etaria": "A14",
      "imagem_original": "https://animefire.plus/img/animes/himote-house.webp",
      "imagem_pasta": "https://animefire.plus/img/animes/himote-house/",
      "secao": "legendados",
      "pagina": 115,
      "total_episodios": 12,
      "link_video": "https://animefire.plus/video/himote-house"
    },
    {
      "id": 1489,
      "nome": "Himouto! Umaru-chan",
      "link": "https://animefire.plus/animes/himouto-umaru-chan-todos-os-episodios",
      "texto_original": "Himouto! Umaru-chan",
      "rating": 7.34,
      "classificacao_etaria": "A14",
      "imagem_original": "https://animefire.plus/img/animes/himouto-umaru-chan.webp",
      "imagem_pasta": "https://animefire.plus/img/animes/himouto-umaru-chan/",
      "secao": "legendados",
      "pagina": 163,
      "total_episodios": 0,
      "link_video": "https://animefire.plus/video/himouto-umaru-chan"
    },
    {
      "id": 1490,
      "nome": "Himouto! Umaru-chan R",
      "link": "https://animefire.plus/animes/himouto-umaru-chan-r-todos-os-episodios",
      "texto_original": "Himouto! Umaru-chan R",
      "rating": 7.47,
      "classificacao_etaria": "A14",
      "imagem_original": "https://animefire.plus/img/animes/himouto-umaru-chan-r.webp",
      "imagem_pasta": "https://animefire.plus/img/animes/himouto-umaru-chan-r/",
      "secao": "legendados",
      "pagina": 111,
      "total_episodios": 12,
      "link_video": "https://animefire.plus/video/himouto-umaru-chan-r"
    },
    {
      "id": 1491,
      "nome": "Hina Logi: From Luck & Logic",
      "link": "https://animefire.plus/animes/hina-logi-from-luck-logic-todos-os-episodios",
      "texto_original": "Hina Logi: From Luck & Logic",
      "rating": 6.7,
      "classificacao_etaria": "A14",
      "imagem_original": "https://animefire.plus/img/animes/hina-logi-from-luck-logic.webp",
      "imagem_pasta": "https://animefire.plus/img/animes/hina-logi-from-luck-logic/",
      "secao": "legendados",
      "pagina": 59,
      "total_episodios": 12,
      "link_video": "https://animefire.plus/video/hina-logi-from-luck-logic"
    },
    {
      "id": 1492,
      "nome": "Hinako Note",
      "link": "https://animefire.plus/animes/hinako-note-todos-os-episodios",
      "texto_original": "Hinako Note",
      "rating": 6.82,
      "classificacao_etaria": "A14",
      "imagem_original": "https://animefire.plus/img/animes/hinako-note.webp",
      "imagem_pasta": "https://animefire.plus/img/animes/hinako-note/",
      "secao": "legendados",
      "pagina": 104,
      "total_episodios": 12,
      "link_video": "https://animefire.plus/video/hinako-note"
    },
    {
      "id": 1493,
      "nome": "Hinamatsuri",
      "link": "https://animefire.plus/animes/hinamatsuri-todos-os-episodios",
      "texto_original": "Hinamatsuri",
      "rating": 8.31,
      "classificacao_etaria": "A14",
      "imagem_original": "https://animefire.plus/img/animes/hinamatsuri.webp",
      "imagem_pasta": "https://animefire.plus/img/animes/hinamatsuri/",
      "secao": "legendados",
      "pagina": 143,
      "total_episodios": 13,
      "link_video": "https://animefire.plus/video/hinamatsuri"
    },
    {
      "id": 1494,
      "nome": "Hinata no Aoshigure",
      "link": "https://animefire.plus/animes/hinata-no-aoshigure-todos-os-episodios",
      "texto_original": "Hinata no Aoshigure",
      "rating": 7.04,
      "classificacao_etaria": "A10",
      "imagem_original": "https://animefire.plus/img/animes/hinata-no-aoshigure.webp",
      "imagem_pasta": "https://animefire.plus/img/animes/hinata-no-aoshigure/",
      "secao": "legendados",
      "pagina": 100,
      "total_episodios": 1,
      "link_video": "https://animefire.plus/video/hinata-no-aoshigure"
    },
    {
      "id": 1495,
      "nome": "Hinomaruzumou",
      "link": "https://animefire.plus/animes/hinomaruzumou-todos-os-episodios",
      "texto_original": "Hinomaruzumou",
      "rating": 7.73,
      "classificacao_etaria": "A14",
      "imagem_original": "https://animefire.plus/img/animes/hinomaruzumou.webp",
      "imagem_pasta": "https://animefire.plus/img/animes/hinomaruzumou/",
      "secao": "legendados",
      "pagina": 132,
      "total_episodios": 19,
      "link_video": "https://animefire.plus/video/hinomaruzumou"
    },
    {
      "id": 1496,
      "nome": "Hipira-kun",
      "link": "https://animefire.plus/animes/hipira-kun-todos-os-episodios",
      "texto_original": "Hipira-kun",
      "rating": 6.18,
      "classificacao_etaria": "A10",
      "imagem_original": "https://animefire.plus/img/animes/hipira-kun.webp",
      "imagem_pasta": "https://animefire.plus/img/animes/hipira-kun/",
      "secao": "legendados",
      "pagina": 141,
      "total_episodios": 10,
      "link_video": "https://animefire.plus/video/hipira-kun"
    },
    {
      "id": 1497,
      "nome": "Hirogaru Sky! Precure",
      "link": "https://animefire.plus/animes/hirogaru-sky-precure-todos-os-episodios",
      "texto_original": "Hirogaru Sky! Precure",
      "rating": 7.6,
      "classificacao_etaria": null,
      "imagem_original": "https://animefire.plus/img/animes/hirogaru-sky-precure.webp",
      "imagem_pasta": "https://animefire.plus/img/animes/hirogaru-sky-precure/",
      "secao": "legendados",
      "pagina": 25,
      "total_episodios": 50,
      "link_video": "https://animefire.plus/video/hirogaru-sky-precure"
    },
    {
      "id": 1498,
      "nome": "Hisone to Maso-tan (Dublado)",
      "link": "https://animefire.plus/animes/hisone-to-maso-tan-dublado-todos-os-episodios",
      "texto_original": "Hisone to Maso-tan (Dublado)",
      "rating": 7.45,
      "classificacao_etaria": "A14",
      "imagem_original": "https://animefire.plus/img/animes/hisone-to-maso-tan.webp",
      "imagem_pasta": "https://animefire.plus/img/animes/hisone-to-maso-tan/",
      "secao": "dublados,legendados",
      "pagina": 24,
      "total_episodios": 12,
      "link_video": "https://animefire.plus/video/hisone-to-maso-tan-dublado"
    },
    {
      "id": 1499,
      "nome": "Hit Wo Nerae!",
      "link": "https://animefire.plus/animes/hit-wo-nerae-todos-os-episodios",
      "texto_original": "Hit Wo Nerae!",
      "rating": 5.56,
      "classificacao_etaria": "A18",
      "imagem_original": "https://animefire.plus/img/animes/hit-wo-nerae.webp",
      "imagem_pasta": "https://animefire.plus/img/animes/hit-wo-nerae/",
      "secao": "legendados",
      "pagina": 99,
      "total_episodios": 8,
      "link_video": "https://animefire.plus/video/hit-wo-nerae"
    },
    {
      "id": 1500,
      "nome": "Hitohira",
      "link": "https://animefire.plus/animes/hitohira-todos-os-episodios",
      "texto_original": "Hitohira",
      "rating": 6.82,
      "classificacao_etaria": "A14",
      "imagem_original": "https://animefire.plus/img/animes/hitohira.webp",
      "imagem_pasta": "https://animefire.plus/img/animes/hitohira/",
      "secao": "legendados",
      "pagina": 102,
      "total_episodios": 12,
      "link_video": "https://animefire.plus/video/hitohira"
    }
  ],
  "pagination": {
    "current_page": 75,
    "per_page": 20,
    "total_items": 4368,
    "total_pages": 219,
    "has_next": true,
    "has_prev": true
  }
}
