{
  "message": "Lista de animes",
  "data": [
    {
      "id": 2301,
      "nome": "Madougushi Dahliya wa Utsumukanai",
      "link": "https://animefire.plus/animes/madougushi-dahliya-wa-utsumukanai-todos-os-episodios",
      "texto_original": "Madougushi Dahliya wa Utsumukanai",
      "rating": 6.8,
      "classificacao_etaria": "A14",
      "imagem_original": "https://animefire.plus/img/animes/madougushi-dahliya-wa-utsumukanai.webp",
      "imagem_pasta": "https://animefire.plus/img/animes/madougushi-dahliya-wa-utsumukanai/",
      "secao": "legendados",
      "pagina": 12,
      "total_episodios": 12,
      "link_video": "https://animefire.plus/video/madougushi-dahliya-wa-utsumukanai"
    },
    {
      "id": 2302,
      "nome": "Maebashi Witches",
      "link": "https://animefire.plus/animes/maebashi-witches-todos-os-episodios",
      "texto_original": "Maebashi Witches",
      "rating": 7,
      "classificacao_etaria": "A14",
      "imagem_original": "https://animefire.plus/img/animes/maebashi-witches.webp",
      "imagem_pasta": "https://animefire.plus/img/animes/maebashi-witches/",
      "secao": "legendados",
      "pagina": 4,
      "total_episodios": 12,
      "link_video": "https://animefire.plus/video/maebashi-witches"
    },
    {
      "id": 2303,
      "nome": "Maesetsu!",
      "link": "https://animefire.plus/animes/maesetsu-todos-os-episodios",
      "texto_original": "Maesetsu!",
      "rating": null,
      "classificacao_etaria": "A14",
      "imagem_original": "https://animefire.plus/img/animes/maesetsu.webp",
      "imagem_pasta": "https://animefire.plus/img/animes/maesetsu/",
      "secao": "legendados",
      "pagina": 51,
      "total_episodios": 12,
      "link_video": "https://animefire.plus/video/maesetsu"
    },
    {
      "id": 2304,
      "nome": "Magatsu Wahrheit: Zuerst",
      "link": "https://animefire.plus/animes/magatsu-wahrheit-zuerst-todos-os-episodios",
      "texto_original": "Magatsu Wahrheit: Zuerst",
      "rating": null,
      "classificacao_etaria": "A16",
      "imagem_original": "https://animefire.plus/img/animes/magatsu-wahrheit-zuerst.webp",
      "imagem_pasta": "https://animefire.plus/img/animes/magatsu-wahrheit-zuerst/",
      "secao": "legendados",
      "pagina": 51,
      "total_episodios": 12,
      "link_video": "https://animefire.plus/video/magatsu-wahrheit-zuerst"
    },
    {
      "id": 2305,
      "nome": "Magi: Sinbad no Bouken (Dublado)",
      "link": "https://animefire.plus/animes/magi-sinbad-no-bouken-dublado-todos-os-episodios",
      "texto_original": "Magi: Sinbad no Bouken (Dublado)",
      "rating": 7.89,
      "classificacao_etaria": "A14",
      "imagem_original": "https://animefire.plus/img/animes/magi-sinbad-no-bouken.webp",
      "imagem_pasta": "https://animefire.plus/img/animes/magi-sinbad-no-bouken/",
      "secao": "dublados,legendados",
      "pagina": 21,
      "total_episodios": 13,
      "link_video": "https://animefire.plus/video/magi-sinbad-no-bouken-dublado"
    },
    {
      "id": 2306,
      "nome": "Magi: The Kingdom of Magic",
      "link": "https://animefire.plus/animes/magi-the-kingdom-of-magic-todos-os-episodios",
      "texto_original": "Magi: The Kingdom of Magic",
      "rating": 8.4,
      "classificacao_etaria": "A14",
      "imagem_original": "https://animefire.plus/img/animes/magi-the-kingdom-of-magic.webp",
      "imagem_pasta": "https://animefire.plus/img/animes/magi-the-kingdom-of-magic/",
      "secao": "legendados",
      "pagina": 134,
      "total_episodios": 4,
      "link_video": "https://animefire.plus/video/magi-the-kingdom-of-magic"
    },
    {
      "id": 2307,
      "nome": "Magi: The Labyrinth of Magic",
      "link": "https://animefire.plus/animes/magi-the-labyrinth-of-magic-todos-os-episodios",
      "texto_original": "Magi: The Labyrinth of Magic",
      "rating": 8.18,
      "classificacao_etaria": "A14",
      "imagem_original": "https://animefire.plus/img/animes/magi-the-labyrinth-of-magic.webp",
      "imagem_pasta": "https://animefire.plus/img/animes/magi-the-labyrinth-of-magic/",
      "secao": "legendados",
      "pagina": 142,
      "total_episodios": 0,
      "link_video": "https://animefire.plus/video/magi-the-labyrinth-of-magic"
    },
    {
      "id": 2308,
      "nome": "Magia Record: Mahou Shoujo Madoka☆Magica Gaiden (TV) (Dublado)",
      "link": "https://animefire.plus/animes/magia-record-mahou-shoujo-madoka-magica-gaiden-tv-dublado-todos-os-episodios",
      "texto_original": "Magia Record: Mahou Shoujo Madoka☆Magica Gaiden (TV) (Dublado)",
      "rating": 6.79,
      "classificacao_etaria": "A14",
      "imagem_original": "https://animefire.plus/img/animes/magia-record-mahou-shoujo-madoka-magica-gaiden-tv.webp",
      "imagem_pasta": "https://animefire.plus/img/animes/magia-record-mahou-shoujo-madoka-magica-gaiden-tv/",
      "secao": "dublados,legendados",
      "pagina": 11,
      "total_episodios": 10,
      "link_video": "https://animefire.plus/video/magia-record-mahou-shoujo-madoka-magica-gaiden-tv-dublado"
    },
    {
      "id": 2309,
      "nome": "Magia Record: Mahou Shoujo Madoka☆Magica Gaiden (TV) 2nd Season",
      "link": "https://animefire.plus/animes/magia-record-mahou-shoujo-madoka-magica-gaiden-tv-2nd-season-todos-os-episodios",
      "texto_original": "Magia Record: Mahou Shoujo Madoka☆Magica Gaiden (TV) 2nd Season",
      "rating": 7.01,
      "classificacao_etaria": "A14",
      "imagem_original": "https://animefire.plus/img/animes/magia-record-mahou-shoujo-madoka-magica-gaiden-tv-2nd-season.webp",
      "imagem_pasta": "https://animefire.plus/img/animes/magia-record-mahou-shoujo-madoka-magica-gaiden-tv-2nd-season/",
      "secao": "legendados",
      "pagina": 40,
      "total_episodios": 8,
      "link_video": "https://animefire.plus/video/magia-record-mahou-shoujo-madoka-magica-gaiden-tv-2nd-season"
    },
    {
      "id": 2310,
      "nome": "Magia Record: Mahou Shoujo Madoka☆Magica Gaiden (TV) 2nd Season - Kakusei Zenya (Dublado)",
      "link": "https://animefire.plus/animes/magia-record-mahou-shoujo-madoka-magica-gaiden-tv-2nd-season---kakusei-zenya-dublado-todos-os-episodios",
      "texto_original": "Magia Record: Mahou Shoujo Madoka☆Magica Gaiden (TV) 2nd Season - Kakusei Zenya (Dublado)",
      "rating": 7.01,
      "classificacao_etaria": "A14",
      "imagem_original": "https://animefire.plus/img/animes/magia-record-mahou-shoujo-madoka-magica-gaiden-tv-2nd-season---kakusei-zenya.webp",
      "imagem_pasta": "https://animefire.plus/img/animes/magia-record-mahou-shoujo-madoka-magica-gaiden-tv-2nd-season---kakusei-zenya/",
      "secao": "dublados",
      "pagina": 11,
      "total_episodios": 8,
      "link_video": "https://animefire.plus/video/magia-record-mahou-shoujo-madoka-magica-gaiden-tv-2nd-season---kakusei-zenya-dublado"
    },
    {
      "id": 2311,
      "nome": "Magia Record: Mahou Shoujo Madoka☆Magica Gaiden (TV) Final Season - Asaki Yume no Akatsuki (Dublado)",
      "link": "https://animefire.plus/animes/magia-record-mahou-shoujo-madoka-magica-gaiden-tv-final-season---asaki-yume-no-akatsuki-dublado-todos-os-episodios",
      "texto_original": "Magia Record: Mahou Shoujo Madoka☆Magica Gaiden (TV) Final Season - Asaki Yume no Akatsuki (Dublado)",
      "rating": 6.81,
      "classificacao_etaria": "A14",
      "imagem_original": "https://animefire.plus/img/animes/magia-record-mahou-shoujo-madoka-magica-gaiden-tv-final-season---asaki-yume-no-akatsuki.webp",
      "imagem_pasta": "https://animefire.plus/img/animes/magia-record-mahou-shoujo-madoka-magica-gaiden-tv-final-season---asaki-yume-no-akatsuki/",
      "secao": "dublados,legendados",
      "pagina": 11,
      "total_episodios": 0,
      "link_video": "https://animefire.plus/video/magia-record-mahou-shoujo-madoka-magica-gaiden-tv-final-season---asaki-yume-no-akatsuki-dublado"
    },
    {
      "id": 2312,
      "nome": "Magic Kaito",
      "link": "https://animefire.plus/animes/magic-kaito-todos-os-episodios",
      "texto_original": "Magic Kaito",
      "rating": 7.94,
      "classificacao_etaria": "A14",
      "imagem_original": "https://animefire.plus/img/animes/magic-kaito.webp",
      "imagem_pasta": "https://animefire.plus/img/animes/magic-kaito/",
      "secao": "legendados",
      "pagina": 144,
      "total_episodios": 12,
      "link_video": "https://animefire.plus/video/magic-kaito"
    },
    {
      "id": 2313,
      "nome": "Magic Kaito 1412",
      "link": "https://animefire.plus/animes/magic-kaito-1412-todos-os-episodios",
      "texto_original": "Magic Kaito 1412",
      "rating": 7.95,
      "classificacao_etaria": "A14",
      "imagem_original": "https://animefire.plus/img/animes/magic-kaito-1412.webp",
      "imagem_pasta": "https://animefire.plus/img/animes/magic-kaito-1412/",
      "secao": "legendados",
      "pagina": 160,
      "total_episodios": 1,
      "link_video": "https://animefire.plus/video/magic-kaito-1412"
    },
    {
      "id": 2314,
      "nome": "Magic Knight Rayearth",
      "link": "https://animefire.plus/animes/magic-knight-rayearth-todos-os-episodios",
      "texto_original": "Magic Knight Rayearth",
      "rating": 7.52,
      "classificacao_etaria": "A14",
      "imagem_original": "https://animefire.plus/img/animes/magic-knight-rayearth.webp",
      "imagem_pasta": "https://animefire.plus/img/animes/magic-knight-rayearth/",
      "secao": "legendados",
      "pagina": 171,
      "total_episodios": 20,
      "link_video": "https://animefire.plus/video/magic-knight-rayearth"
    },
    {
      "id": 2315,
      "nome": "Magic Knight Rayearth II",
      "link": "https://animefire.plus/animes/magic-knight-rayearth-ii-todos-os-episodios",
      "texto_original": "Magic Knight Rayearth II",
      "rating": 7.59,
      "classificacao_etaria": "A14",
      "imagem_original": "https://animefire.plus/img/animes/magic-knight-rayearth-ii.webp",
      "imagem_pasta": "https://animefire.plus/img/animes/magic-knight-rayearth-ii/",
      "secao": "legendados",
      "pagina": 107,
      "total_episodios": 29,
      "link_video": "https://animefire.plus/video/magic-knight-rayearth-ii"
    },
    {
      "id": 2316,
      "nome": "Magic Maker: Isekai Mahou no Tsukurikata (Dublado)",
      "link": "https://animefire.plus/animes/magic-maker-isekai-mahou-no-tsukurikata-dublado-todos-os-episodios",
      "texto_original": "Magic Maker: Isekai Mahou no Tsukurikata (Dublado)",
      "rating": 6.82,
      "classificacao_etaria": "A14",
      "imagem_original": "https://animefire.plus/img/animes/magic-maker-isekai-mahou-no-tsukurikata.webp",
      "imagem_pasta": "https://animefire.plus/img/animes/magic-maker-isekai-mahou-no-tsukurikata/",
      "secao": "dublados,legendados,lancamentos",
      "pagina": 2,
      "total_episodios": 12,
      "link_video": "https://animefire.plus/video/magic-maker-isekai-mahou-no-tsukurikata-dublado"
    },
    {
      "id": 2317,
      "nome": "Magic-Kyun! Renaissance",
      "link": "https://animefire.plus/animes/magic-kyun-renaissance-todos-os-episodios",
      "texto_original": "Magic-Kyun! Renaissance",
      "rating": 7.26,
      "classificacao_etaria": "A14",
      "imagem_original": "https://animefire.plus/img/animes/magic-kyun-renaissance.webp",
      "imagem_pasta": "https://animefire.plus/img/animes/magic-kyun-renaissance/",
      "secao": "legendados",
      "pagina": 146,
      "total_episodios": 7,
      "link_video": "https://animefire.plus/video/magic-kyun-renaissance"
    },
    {
      "id": 2318,
      "nome": "Magical☆Star Kanon 100%",
      "link": "https://animefire.plus/animes/magical-star-kanon-100-todos-os-episodios",
      "texto_original": "Magical☆Star Kanon 100%",
      "rating": 6.82,
      "classificacao_etaria": "A14",
      "imagem_original": "https://animefire.plus/img/animes/magical-star-kanon-100.webp",
      "imagem_pasta": "https://animefire.plus/img/animes/magical-star-kanon-100/",
      "secao": "legendados",
      "pagina": 64,
      "total_episodios": 1,
      "link_video": "https://animefire.plus/video/magical-star-kanon-100"
    },
    {
      "id": 2319,
      "nome": "Magikano",
      "link": "https://animefire.plus/animes/magikano-todos-os-episodios",
      "texto_original": "Magikano",
      "rating": 6.46,
      "classificacao_etaria": "A14",
      "imagem_original": "https://animefire.plus/img/animes/magikano.webp",
      "imagem_pasta": "https://animefire.plus/img/animes/magikano/",
      "secao": "legendados",
      "pagina": 118,
      "total_episodios": 0,
      "link_video": "https://animefire.plus/video/magikano"
    },
    {
      "id": 2320,
      "nome": "Mahoraba: Heartful days",
      "link": "https://animefire.plus/animes/mahoraba-heartful-days-todos-os-episodios",
      "texto_original": "Mahoraba: Heartful days",
      "rating": 7.38,
      "classificacao_etaria": "A14",
      "imagem_original": "https://animefire.plus/img/animes/mahoraba-heartful-days.webp",
      "imagem_pasta": "https://animefire.plus/img/animes/mahoraba-heartful-days/",
      "secao": "legendados",
      "pagina": 172,
      "total_episodios": 25,
      "link_video": "https://animefire.plus/video/mahoraba-heartful-days"
    }
  ],
  "pagination": {
    "current_page": 116,
    "per_page": 20,
    "total_items": 4368,
    "total_pages": 219,
    "has_next": true,
    "has_prev": true
  }
}
