{
  "message": "Lista de animes",
  "data": [
    {
      "id": 1781,
      "nome": "Kaeru no Pickles: Kimochi no Iro",
      "link": "https://animefire.plus/animes/kaeru-no-pickles-kimochi-no-iro-todos-os-episodios",
      "texto_original": "Kaeru no Pickles: Kimochi no Iro",
      "rating": null,
      "classificacao_etaria": null,
      "imagem_original": "https://animefire.plus/img/animes/kaeru-no-pickles-kimochi-no-iro.webp",
      "imagem_pasta": "https://animefire.plus/img/animes/kaeru-no-pickles-kimochi-no-iro/",
      "secao": "legendados,lancamentos",
      "pagina": 50,
      "total_episodios": 1,
      "link_video": "https://animefire.plus/video/kaeru-no-pickles-kimochi-no-iro"
    },
    {
      "id": 1782,
      "nome": "Kage kara Mamoru!",
      "link": "https://animefire.plus/animes/kage-kara-mamoru-todos-os-episodios",
      "texto_original": "Kage kara Mamoru!",
      "rating": 6.67,
      "classificacao_etaria": "A14",
      "imagem_original": "https://animefire.plus/img/animes/kage-kara-mamoru.webp",
      "imagem_pasta": "https://animefire.plus/img/animes/kage-kara-mamoru/",
      "secao": "legendados",
      "pagina": 133,
      "total_episodios": 12,
      "link_video": "https://animefire.plus/video/kage-kara-mamoru"
    },
    {
      "id": 1783,
      "nome": "Kage no Jitsuryokusha ni Naritakute! (Dublado)",
      "link": "https://animefire.plus/animes/kage-no-jitsuryokusha-ni-naritakute-dublado-todos-os-episodios",
      "texto_original": "Kage no Jitsuryokusha ni Naritakute! (Dublado)",
      "rating": 8.25,
      "classificacao_etaria": "A16",
      "imagem_original": "https://animefire.plus/img/animes/kage-no-jitsuryokusha-ni-naritakute.webp",
      "imagem_pasta": "https://animefire.plus/img/animes/kage-no-jitsuryokusha-ni-naritakute/",
      "secao": "dublados,legendados,lancamentos",
      "pagina": 8,
      "total_episodios": 20,
      "link_video": "https://animefire.plus/video/kage-no-jitsuryokusha-ni-naritakute-dublado"
    },
    {
      "id": 1784,
      "nome": "Kage no Jitsuryokusha ni Naritakute! 2nd Season (Dublado)",
      "link": "https://animefire.plus/animes/kage-no-jitsuryokusha-ni-naritakute-2nd-season-dublado-todos-os-episodios",
      "texto_original": "Kage no Jitsuryokusha ni Naritakute! 2nd Season (Dublado)",
      "rating": 8.28,
      "classificacao_etaria": "A16",
      "imagem_original": "https://animefire.plus/img/animes/kage-no-jitsuryokusha-ni-naritakute-2nd-season.webp",
      "imagem_pasta": "https://animefire.plus/img/animes/kage-no-jitsuryokusha-ni-naritakute-2nd-season/",
      "secao": "dublados,legendados,lancamentos",
      "pagina": 5,
      "total_episodios": 12,
      "link_video": "https://animefire.plus/video/kage-no-jitsuryokusha-ni-naritakute-2nd-season-dublado"
    },
    {
      "id": 1785,
      "nome": "Kageki Shoujo!! (Dublado)",
      "link": "https://animefire.plus/animes/kageki-shoujo-dublado-todos-os-episodios",
      "texto_original": "Kageki Shoujo!! (Dublado)",
      "rating": 7.72,
      "classificacao_etaria": "A14",
      "imagem_original": "https://animefire.plus/img/animes/kageki-shoujo.webp",
      "imagem_pasta": "https://animefire.plus/img/animes/kageki-shoujo/",
      "secao": "dublados,legendados",
      "pagina": 11,
      "total_episodios": 13,
      "link_video": "https://animefire.plus/video/kageki-shoujo-dublado"
    },
    {
      "id": 1786,
      "nome": "Kagewani",
      "link": "https://animefire.plus/animes/kagewani-todos-os-episodios",
      "texto_original": "Kagewani",
      "rating": 6.47,
      "classificacao_etaria": "A16",
      "imagem_original": "https://animefire.plus/img/animes/kagewani.webp",
      "imagem_pasta": "https://animefire.plus/img/animes/kagewani/",
      "secao": "legendados",
      "pagina": 104,
      "total_episodios": 13,
      "link_video": "https://animefire.plus/video/kagewani"
    },
    {
      "id": 1787,
      "nome": "Kagewani: Shou",
      "link": "https://animefire.plus/animes/kagewani-shou-todos-os-episodios",
      "texto_original": "Kagewani: Shou",
      "rating": 6.5,
      "classificacao_etaria": "A16",
      "imagem_original": "https://animefire.plus/img/animes/kagewani-shou.webp",
      "imagem_pasta": "https://animefire.plus/img/animes/kagewani-shou/",
      "secao": "legendados",
      "pagina": 103,
      "total_episodios": 13,
      "link_video": "https://animefire.plus/video/kagewani-shou"
    },
    {
      "id": 1788,
      "nome": "Kagi Hime Monogatari: Eikyuu Alice Rondo",
      "link": "https://animefire.plus/animes/kagi-hime-monogatari-eikyuu-alice-rondo-todos-os-episodios",
      "texto_original": "Kagi Hime Monogatari: Eikyuu Alice Rondo",
      "rating": 6.24,
      "classificacao_etaria": "A14",
      "imagem_original": "https://animefire.plus/img/animes/kagi-hime-monogatari-eikyuu-alice-rondo.webp",
      "imagem_pasta": "https://animefire.plus/img/animes/kagi-hime-monogatari-eikyuu-alice-rondo/",
      "secao": "legendados",
      "pagina": 71,
      "total_episodios": 13,
      "link_video": "https://animefire.plus/video/kagi-hime-monogatari-eikyuu-alice-rondo"
    },
    {
      "id": 1789,
      "nome": "Kaginado",
      "link": "https://animefire.plus/animes/kaginado-todos-os-episodios",
      "texto_original": "Kaginado",
      "rating": 7.13,
      "classificacao_etaria": "A14",
      "imagem_original": "https://animefire.plus/img/animes/kaginado.webp",
      "imagem_pasta": "https://animefire.plus/img/animes/kaginado/",
      "secao": "legendados",
      "pagina": 37,
      "total_episodios": 12,
      "link_video": "https://animefire.plus/video/kaginado"
    },
    {
      "id": 1790,
      "nome": "Kaginado Season 2",
      "link": "https://animefire.plus/animes/kaginado-season-2-todos-os-episodios",
      "texto_original": "Kaginado Season 2",
      "rating": 7.35,
      "classificacao_etaria": "A14",
      "imagem_original": "https://animefire.plus/img/animes/kaginado-season-2.webp",
      "imagem_pasta": "https://animefire.plus/img/animes/kaginado-season-2/",
      "secao": "legendados",
      "pagina": 33,
      "total_episodios": 12,
      "link_video": "https://animefire.plus/video/kaginado-season-2"
    },
    {
      "id": 1791,
      "nome": "Kaguya-sama wa Kokurasetai: First Kiss wa Owaranai",
      "link": "https://animefire.plus/animes/kaguya-sama-wa-kokurasetai-first-kiss-wa-owaranai-todos-os-episodios",
      "texto_original": "Kaguya-sama wa Kokurasetai: First Kiss wa Owaranai",
      "rating": 8.73,
      "classificacao_etaria": "A14",
      "imagem_original": "https://animefire.plus/img/animes/kaguya-sama-wa-kokurasetai-first-kiss-wa-owaranai.jpg",
      "imagem_pasta": "https://animefire.plus/img/animes/kaguya-sama-wa-kokurasetai-first-kiss-wa-owaranai/",
      "secao": "legendados,lancamentos",
      "pagina": 25,
      "total_episodios": 4,
      "link_video": "https://animefire.plus/video/kaguya-sama-wa-kokurasetai-first-kiss-wa-owaranai"
    },
    {
      "id": 1792,
      "nome": "Kaguya-sama wa Kokurasetai: Tensai-tachi no Renai Zunousen (Dublado)",
      "link": "https://animefire.plus/animes/kaguya-sama-love-is-war-dublado-todos-os-episodios",
      "texto_original": "Kaguya-sama wa Kokurasetai: Tensai-tachi no Renai Zunousen (Dublado)",
      "rating": 8.41,
      "classificacao_etaria": "A14",
      "imagem_original": "https://animefire.plus/img/animes/kaguya-sama-love-is-war.webp",
      "imagem_pasta": "https://animefire.plus/img/animes/kaguya-sama-love-is-war/",
      "secao": "dublados",
      "pagina": 16,
      "total_episodios": 12,
      "link_video": "https://animefire.plus/video/kaguya-sama-love-is-war-dublado"
    },
    {
      "id": 1793,
      "nome": "Kaguya-sama wa Kokurasetai: Tensai-tachi no Renai Zunousen OVA",
      "link": "https://animefire.plus/animes/kaguya-sama-wa-kokurasetai-tensai-tachi-no-renai-zunousen-ova-todos-os-episodios",
      "texto_original": "Kaguya-sama wa Kokurasetai: Tensai-tachi no Renai Zunousen OVA",
      "rating": 7.58,
      "classificacao_etaria": "A14",
      "imagem_original": "https://animefire.plus/img/animes/kaguya-sama-wa-kokurasetai-tensai-tachi-no-renai-zunousen-ova.webp",
      "imagem_pasta": "https://animefire.plus/img/animes/kaguya-sama-wa-kokurasetai-tensai-tachi-no-renai-zunousen-ova/",
      "secao": "legendados",
      "pagina": 46,
      "total_episodios": 1,
      "link_video": "https://animefire.plus/video/kaguya-sama-wa-kokurasetai-tensai-tachi-no-renai-zunousen-ova"
    },
    {
      "id": 1794,
      "nome": "Kaguya-sama wa Kokurasetai: Ultra Romantic (Dublado)",
      "link": "https://animefire.plus/animes/kaguya-sama-wa-kokurasetai-ultra-romantic-dublado-todos-os-episodios",
      "texto_original": "Kaguya-sama wa Kokurasetai: Ultra Romantic (Dublado)",
      "rating": 8.97,
      "classificacao_etaria": "A14",
      "imagem_original": "https://animefire.plus/img/animes/kaguya-sama-wa-kokurasetai-ultra-romantic.webp",
      "imagem_pasta": "https://animefire.plus/img/animes/kaguya-sama-wa-kokurasetai-ultra-romantic/",
      "secao": "dublados,legendados",
      "pagina": 11,
      "total_episodios": 13,
      "link_video": "https://animefire.plus/video/kaguya-sama-wa-kokurasetai-ultra-romantic-dublado"
    },
    {
      "id": 1795,
      "nome": "Kaguya-sama wa Kokurasetai?: Tensai-tachi no Renai Zunousen",
      "link": "https://animefire.plus/animes/kaguya-sama-love-is-war-season-2-todos-os-episodios",
      "texto_original": "Kaguya-sama wa Kokurasetai?: Tensai-tachi no Renai Zunousen",
      "rating": 8.74,
      "classificacao_etaria": "A14",
      "imagem_original": "https://animefire.plus/img/animes/kaguya-sama-love-is-war-season-2.webp",
      "imagem_pasta": "https://animefire.plus/img/animes/kaguya-sama-love-is-war-season-2/",
      "secao": "legendados",
      "pagina": 61,
      "total_episodios": 6,
      "link_video": "https://animefire.plus/video/kaguya-sama-love-is-war-season-2"
    },
    {
      "id": 1796,
      "nome": "Kaguya-sama wa Kokurasetai?: Tensai-tachi no Renai Zunousen (Dublado)",
      "link": "https://animefire.plus/animes/kaguya-sama-wa-kokurasetai-tensai-tachi-no-renai-zunousen-dublado-todos-os-episodios",
      "texto_original": "Kaguya-sama wa Kokurasetai?: Tensai-tachi no Renai Zunousen (Dublado)",
      "rating": 8.68,
      "classificacao_etaria": "A14",
      "imagem_original": "https://animefire.plus/img/animes/kaguya-sama-love-is-war-season-2.webp",
      "imagem_pasta": "https://animefire.plus/img/animes/kaguya-sama-love-is-war-season-2/",
      "secao": "dublados,legendados",
      "pagina": 16,
      "total_episodios": 12,
      "link_video": "https://animefire.plus/video/kaguya-sama-wa-kokurasetai-tensai-tachi-no-renai-zunousen-dublado"
    },
    {
      "id": 1797,
      "nome": "Kai Byoui Ramune",
      "link": "https://animefire.plus/animes/kai-byoui-ramune-todos-os-episodios",
      "texto_original": "Kai Byoui Ramune",
      "rating": 7.15,
      "classificacao_etaria": "A14",
      "imagem_original": "https://animefire.plus/img/animes/kai-byoui-ramune.webp",
      "imagem_pasta": "https://animefire.plus/img/animes/kai-byoui-ramune/",
      "secao": "legendados",
      "pagina": 49,
      "total_episodios": 12,
      "link_video": "https://animefire.plus/video/kai-byoui-ramune"
    },
    {
      "id": 1798,
      "nome": "Kai Doh Maru",
      "link": "https://animefire.plus/animes/kai-doh-maru-todos-os-episodios",
      "texto_original": "Kai Doh Maru",
      "rating": 5.64,
      "classificacao_etaria": "A16",
      "imagem_original": "https://animefire.plus/img/animes/kai-doh-maru.webp",
      "imagem_pasta": "https://animefire.plus/img/animes/kai-doh-maru/",
      "secao": "legendados",
      "pagina": 86,
      "total_episodios": 1,
      "link_video": "https://animefire.plus/video/kai-doh-maru"
    },
    {
      "id": 1799,
      "nome": "Kai Feng Qitan: Zhege Baogong Bu Taixing",
      "link": "https://animefire.plus/animes/kai-feng-qitan-zhege-baogong-bu-taixing-todos-os-episodios",
      "texto_original": "Kai Feng Qitan: Zhege Baogong Bu Taixing",
      "rating": 6.22,
      "classificacao_etaria": "A14",
      "imagem_original": "https://animefire.plus/img/animes/kai-feng-qitan-zhege-baogong-bu-taixing.webp",
      "imagem_pasta": "https://animefire.plus/img/animes/kai-feng-qitan-zhege-baogong-bu-taixing/",
      "secao": "legendados",
      "pagina": 140,
      "total_episodios": 10,
      "link_video": "https://animefire.plus/video/kai-feng-qitan-zhege-baogong-bu-taixing"
    },
    {
      "id": 1800,
      "nome": "Kaiba",
      "link": "https://animefire.plus/animes/kaiba-todos-os-episodios",
      "texto_original": "Kaiba",
      "rating": 8.16,
      "classificacao_etaria": "A18",
      "imagem_original": "https://animefire.plus/img/animes/kaiba.webp",
      "imagem_pasta": "https://animefire.plus/img/animes/kaiba/",
      "secao": "legendados",
      "pagina": 92,
      "total_episodios": 12,
      "link_video": "https://animefire.plus/video/kaiba"
    }
  ],
  "pagination": {
    "current_page": 90,
    "per_page": 20,
    "total_items": 4368,
    "total_pages": 219,
    "has_next": true,
    "has_prev": true
  }
}
