{
  "message": "Lista de animes",
  "data": [
    {
      "id": 1141,
      "nome": "Gensou Jotan Ellcia (Dublado)",
      "link": "https://animefire.plus/animes/gensou-jotan-ellcia-dublado-todos-os-episodios",
      "texto_original": "Gensou Jotan Ellcia (Dublado)",
      "rating": 6.02,
      "classificacao_etaria": "A14",
      "imagem_original": "https://animefire.plus/img/animes/gensou-jotan-ellcia.webp",
      "imagem_pasta": "https://animefire.plus/img/animes/gensou-jotan-ellcia/",
      "secao": "dublados",
      "pagina": 22,
      "total_episodios": 4,
      "link_video": "https://animefire.plus/video/gensou-jotan-ellcia-dublado"
    },
    {
      "id": 1142,
      "nome": "Gensou Sangokushi: Tengen Reishinki",
      "link": "https://animefire.plus/animes/gensou-sangokushi-tengen-reishinki-todos-os-episodios",
      "texto_original": "Gensou Sangokushi: Tengen Reishinki",
      "rating": 5.31,
      "classificacao_etaria": "A14",
      "imagem_original": "https://animefire.plus/img/animes/gensou-sangokushi-tengen-reishinki.webp",
      "imagem_pasta": "https://animefire.plus/img/animes/gensou-sangokushi-tengen-reishinki/",
      "secao": "legendados",
      "pagina": 36,
      "total_episodios": 12,
      "link_video": "https://animefire.plus/video/gensou-sangokushi-tengen-reishinki"
    },
    {
      "id": 1143,
      "nome": "Gensoumaden Saiyuuki",
      "link": "https://animefire.plus/animes/gensoumaden-saiyuuki-todos-os-episodios",
      "texto_original": "Gensoumaden Saiyuuki",
      "rating": 7.58,
      "classificacao_etaria": "A16",
      "imagem_original": "https://animefire.plus/img/animes/gensoumaden-saiyuuki.webp",
      "imagem_pasta": "https://animefire.plus/img/animes/gensoumaden-saiyuuki/",
      "secao": "legendados",
      "pagina": 42,
      "total_episodios": 50,
      "link_video": "https://animefire.plus/video/gensoumaden-saiyuuki"
    },
    {
      "id": 1144,
      "nome": "Gensoumaden Saiyuuki OVA",
      "link": "https://animefire.plus/animes/gensoumaden-saiyuuki-ova-todos-os-episodios",
      "texto_original": "Gensoumaden Saiyuuki OVA",
      "rating": 7.13,
      "classificacao_etaria": "A14",
      "imagem_original": "https://animefire.plus/img/animes/gensoumaden-saiyuuki-ova.webp",
      "imagem_pasta": "https://animefire.plus/img/animes/gensoumaden-saiyuuki-ova/",
      "secao": "legendados",
      "pagina": 84,
      "total_episodios": 2,
      "link_video": "https://animefire.plus/video/gensoumaden-saiyuuki-ova"
    },
    {
      "id": 1145,
      "nome": "GetBackers",
      "link": "https://animefire.plus/animes/getbackers-todos-os-episodios",
      "texto_original": "GetBackers",
      "rating": 7.67,
      "classificacao_etaria": "A14",
      "imagem_original": "https://animefire.plus/img/animes/getbackers.webp",
      "imagem_pasta": "https://animefire.plus/img/animes/getbackers/",
      "secao": "legendados",
      "pagina": 134,
      "total_episodios": 49,
      "link_video": "https://animefire.plus/video/getbackers"
    },
    {
      "id": 1146,
      "nome": "Getsumen To Heiki Mina",
      "link": "https://animefire.plus/animes/getsumen-to-heiki-mina-todos-os-episodios",
      "texto_original": "Getsumen To Heiki Mina",
      "rating": 6.33,
      "classificacao_etaria": "A14",
      "imagem_original": "https://animefire.plus/img/animes/getsumen-to-heiki-mina.webp",
      "imagem_pasta": "https://animefire.plus/img/animes/getsumen-to-heiki-mina/",
      "secao": "legendados",
      "pagina": 103,
      "total_episodios": 11,
      "link_video": "https://animefire.plus/video/getsumen-to-heiki-mina"
    },
    {
      "id": 1147,
      "nome": "Getsuyoubi no Tawawa",
      "link": "https://animefire.plus/animes/getsuyoubi-no-tawawa-todos-os-episodios",
      "texto_original": "Getsuyoubi no Tawawa",
      "rating": 6.52,
      "classificacao_etaria": "A14",
      "imagem_original": "https://animefire.plus/img/animes/getsuyoubi-no-tawawa.webp",
      "imagem_pasta": "https://animefire.plus/img/animes/getsuyoubi-no-tawawa/",
      "secao": "legendados",
      "pagina": 122,
      "total_episodios": 12,
      "link_video": "https://animefire.plus/video/getsuyoubi-no-tawawa"
    },
    {
      "id": 1148,
      "nome": "Getsuyoubi no Tawawa 2",
      "link": "https://animefire.plus/animes/getsuyoubi-no-tawawa-2-todos-os-episodios",
      "texto_original": "Getsuyoubi no Tawawa 2",
      "rating": 6.61,
      "classificacao_etaria": "A14",
      "imagem_original": "https://animefire.plus/img/animes/getsuyoubi-no-tawawa-2.webp",
      "imagem_pasta": "https://animefire.plus/img/animes/getsuyoubi-no-tawawa-2/",
      "secao": "legendados",
      "pagina": 38,
      "total_episodios": 12,
      "link_video": "https://animefire.plus/video/getsuyoubi-no-tawawa-2"
    },
    {
      "id": 1149,
      "nome": "Getter Robo Arc",
      "link": "https://animefire.plus/animes/getter-robo-arc-todos-os-episodios",
      "texto_original": "Getter Robo Arc",
      "rating": 6.16,
      "classificacao_etaria": "A14",
      "imagem_original": "https://animefire.plus/img/animes/getter-robo-arc.webp",
      "imagem_pasta": "https://animefire.plus/img/animes/getter-robo-arc/",
      "secao": "legendados",
      "pagina": 40,
      "total_episodios": 13,
      "link_video": "https://animefire.plus/video/getter-robo-arc"
    },
    {
      "id": 1150,
      "nome": "Ghost Hunt",
      "link": "https://animefire.plus/animes/ghost-hunt-todos-os-episodios",
      "texto_original": "Ghost Hunt",
      "rating": 7.89,
      "classificacao_etaria": "A14",
      "imagem_original": "https://animefire.plus/img/animes/ghost-hunt.webp",
      "imagem_pasta": "https://animefire.plus/img/animes/ghost-hunt/",
      "secao": "legendados",
      "pagina": 160,
      "total_episodios": 0,
      "link_video": "https://animefire.plus/video/ghost-hunt"
    },
    {
      "id": 1151,
      "nome": "Gi(a)rlish Number",
      "link": "https://animefire.plus/animes/gi-a-rlish-number-todos-os-episodios",
      "texto_original": "Gi(a)rlish Number",
      "rating": 6.95,
      "classificacao_etaria": "A14",
      "imagem_original": "https://animefire.plus/img/animes/gi-a-rlish-number.webp",
      "imagem_pasta": "https://animefire.plus/img/animes/gi-a-rlish-number/",
      "secao": "legendados",
      "pagina": 119,
      "total_episodios": 3,
      "link_video": "https://animefire.plus/video/gi-a-rlish-number"
    },
    {
      "id": 1152,
      "nome": "Giant Killing",
      "link": "https://animefire.plus/animes/giant-killing-todos-os-episodios",
      "texto_original": "Giant Killing",
      "rating": 7.6,
      "classificacao_etaria": "A14",
      "imagem_original": "https://animefire.plus/img/animes/giant-killing.webp",
      "imagem_pasta": "https://animefire.plus/img/animes/giant-killing/",
      "secao": "legendados",
      "pagina": 67,
      "total_episodios": 26,
      "link_video": "https://animefire.plus/video/giant-killing"
    },
    {
      "id": 1153,
      "nome": "Gibiate",
      "link": "https://animefire.plus/animes/gibiate-todos-os-episodios",
      "texto_original": "Gibiate",
      "rating": null,
      "classificacao_etaria": "A16",
      "imagem_original": "https://animefire.plus/img/animes/gibiate.webp",
      "imagem_pasta": "https://animefire.plus/img/animes/gibiate/",
      "secao": "legendados",
      "pagina": 57,
      "total_episodios": 12,
      "link_video": "https://animefire.plus/video/gibiate"
    },
    {
      "id": 1154,
      "nome": "Gift: Eternal Rainbow",
      "link": "https://animefire.plus/animes/gift-eternal-rainbow-todos-os-episodios",
      "texto_original": "Gift: Eternal Rainbow",
      "rating": 6.7,
      "classificacao_etaria": "A14",
      "imagem_original": "https://animefire.plus/img/animes/gift-eternal-rainbow.webp",
      "imagem_pasta": "https://animefire.plus/img/animes/gift-eternal-rainbow/",
      "secao": "legendados",
      "pagina": 105,
      "total_episodios": 12,
      "link_video": "https://animefire.plus/video/gift-eternal-rainbow"
    },
    {
      "id": 1155,
      "nome": "Giji Harem",
      "link": "https://animefire.plus/animes/giji-harem-todos-os-episodios",
      "texto_original": "Giji Harem",
      "rating": 7.83,
      "classificacao_etaria": "A14",
      "imagem_original": "https://animefire.plus/img/animes/giji-harem.webp",
      "imagem_pasta": "https://animefire.plus/img/animes/giji-harem/",
      "secao": "legendados",
      "pagina": 13,
      "total_episodios": 12,
      "link_video": "https://animefire.plus/video/giji-harem"
    },
    {
      "id": 1156,
      "nome": "Gilgamesh",
      "link": "https://animefire.plus/animes/gilgamesh-todos-os-episodios",
      "texto_original": "Gilgamesh",
      "rating": 6.72,
      "classificacao_etaria": "A16",
      "imagem_original": "https://animefire.plus/img/animes/gilgamesh.webp",
      "imagem_pasta": "https://animefire.plus/img/animes/gilgamesh/",
      "secao": "legendados",
      "pagina": 99,
      "total_episodios": 26,
      "link_video": "https://animefire.plus/video/gilgamesh"
    },
    {
      "id": 1157,
      "nome": "Gimai Seikatsu",
      "link": "https://animefire.plus/animes/gimai-seikatsu-todos-os-episodios",
      "texto_original": "Gimai Seikatsu",
      "rating": 7.33,
      "classificacao_etaria": "A14",
      "imagem_original": "https://animefire.plus/img/animes/gimai-seikatsu.webp",
      "imagem_pasta": "https://animefire.plus/img/animes/gimai-seikatsu/",
      "secao": "legendados",
      "pagina": 13,
      "total_episodios": 12,
      "link_video": "https://animefire.plus/video/gimai-seikatsu"
    },
    {
      "id": 1158,
      "nome": "Gin no Guardian",
      "link": "https://animefire.plus/animes/gin-no-guardian-todos-os-episodios",
      "texto_original": "Gin no Guardian",
      "rating": 6.35,
      "classificacao_etaria": "A14",
      "imagem_original": "https://animefire.plus/img/animes/gin-no-guardian.webp",
      "imagem_pasta": "https://animefire.plus/img/animes/gin-no-guardian/",
      "secao": "legendados",
      "pagina": 135,
      "total_episodios": 12,
      "link_video": "https://animefire.plus/video/gin-no-guardian"
    },
    {
      "id": 1159,
      "nome": "Gin no Guardian II",
      "link": "https://animefire.plus/animes/gin-no-guardian-ii-todos-os-episodios",
      "texto_original": "Gin no Guardian II",
      "rating": 6.71,
      "classificacao_etaria": "A14",
      "imagem_original": "https://animefire.plus/img/animes/gin-no-guardian-ii.webp",
      "imagem_pasta": "https://animefire.plus/img/animes/gin-no-guardian-ii/",
      "secao": "legendados",
      "pagina": 76,
      "total_episodios": 6,
      "link_video": "https://animefire.plus/video/gin-no-guardian-ii"
    },
    {
      "id": 1160,
      "nome": "Gin no Saji",
      "link": "https://animefire.plus/animes/gin-no-saji-todos-os-episodios",
      "texto_original": "Gin no Saji",
      "rating": 8.14,
      "classificacao_etaria": "A14",
      "imagem_original": "https://animefire.plus/img/animes/gin-no-saji.webp",
      "imagem_pasta": "https://animefire.plus/img/animes/gin-no-saji/",
      "secao": "legendados",
      "pagina": 177,
      "total_episodios": 0,
      "link_video": "https://animefire.plus/video/gin-no-saji"
    }
  ],
  "pagination": {
    "current_page": 58,
    "per_page": 20,
    "total_items": 4368,
    "total_pages": 219,
    "has_next": true,
    "has_prev": true
  }
}
