{
  "message": "Lista de animes",
  "data": [
    {
      "id": 1941,
      "nome": "Ken En Ken: Aoki Kagayaki",
      "link": "https://animefire.plus/animes/ken-en-ken-aoki-kagayaki-todos-os-episodios",
      "texto_original": "Ken En Ken: Aoki Kagayaki",
      "rating": 6.14,
      "classificacao_etaria": "A14",
      "imagem_original": "https://animefire.plus/img/animes/ken-en-ken-aoki-kagayaki.webp",
      "imagem_pasta": "https://animefire.plus/img/animes/ken-en-ken-aoki-kagayaki/",
      "secao": "legendados",
      "pagina": 159,
      "total_episodios": 13,
      "link_video": "https://animefire.plus/video/ken-en-ken-aoki-kagayaki"
    },
    {
      "id": 1942,
      "nome": "Kengan Ashura (Dublado)",
      "link": "https://animefire.plus/animes/kengan-ashura-dublado-todos-os-episodios",
      "texto_original": "Kengan Ashura (Dublado)",
      "rating": 7.47,
      "classificacao_etaria": "A16",
      "imagem_original": "https://animefire.plus/img/animes/kengan-ashura.webp",
      "imagem_pasta": "https://animefire.plus/img/animes/kengan-ashura/",
      "secao": "dublados,legendados",
      "pagina": 25,
      "total_episodios": 12,
      "link_video": "https://animefire.plus/video/kengan-ashura-dublado"
    },
    {
      "id": 1943,
      "nome": "Kengan Ashura 2nd Season (Dublado)",
      "link": "https://animefire.plus/animes/kengan-ashura-2nd-season-dublado-todos-os-episodios",
      "texto_original": "Kengan Ashura 2nd Season (Dublado)",
      "rating": 7.75,
      "classificacao_etaria": "A16",
      "imagem_original": "https://animefire.plus/img/animes/kengan-ashura-2nd-season.webp",
      "imagem_pasta": "https://animefire.plus/img/animes/kengan-ashura-2nd-season/",
      "secao": "dublados",
      "pagina": 22,
      "total_episodios": 12,
      "link_video": "https://animefire.plus/video/kengan-ashura-2nd-season-dublado"
    },
    {
      "id": 1944,
      "nome": "Kenja no Deshi wo Nanoru Kenja",
      "link": "https://animefire.plus/animes/kenja-no-deshi-wo-nanoru-kenja-todos-os-episodios",
      "texto_original": "Kenja no Deshi wo Nanoru Kenja",
      "rating": 6.33,
      "classificacao_etaria": "A14",
      "imagem_original": "https://animefire.plus/img/animes/kenja-no-deshi-wo-nanoru-kenja.webp",
      "imagem_pasta": "https://animefire.plus/img/animes/kenja-no-deshi-wo-nanoru-kenja/",
      "secao": "legendados",
      "pagina": 37,
      "total_episodios": 12,
      "link_video": "https://animefire.plus/video/kenja-no-deshi-wo-nanoru-kenja"
    },
    {
      "id": 1945,
      "nome": "Kenja no Mago (Dublado)",
      "link": "https://animefire.plus/animes/kenja-no-mago-dublado-todos-os-episodios",
      "texto_original": "Kenja no Mago (Dublado)",
      "rating": 6.58,
      "classificacao_etaria": "A14",
      "imagem_original": "https://animefire.plus/img/animes/kenja-no-mago.webp",
      "imagem_pasta": "https://animefire.plus/img/animes/kenja-no-mago/",
      "secao": "dublados,legendados",
      "pagina": 15,
      "total_episodios": 12,
      "link_video": "https://animefire.plus/video/kenja-no-mago-dublado"
    },
    {
      "id": 1946,
      "nome": "Kenka Banchou Otome: Girl Beats Boys",
      "link": "https://animefire.plus/animes/kenka-banchou-otome-girl-beats-boys-todos-os-episodios",
      "texto_original": "Kenka Banchou Otome: Girl Beats Boys",
      "rating": 6.59,
      "classificacao_etaria": "A14",
      "imagem_original": "https://animefire.plus/img/animes/kenka-banchou-otome-girl-beats-boys.webp",
      "imagem_pasta": "https://animefire.plus/img/animes/kenka-banchou-otome-girl-beats-boys/",
      "secao": "legendados",
      "pagina": 155,
      "total_episodios": 12,
      "link_video": "https://animefire.plus/video/kenka-banchou-otome-girl-beats-boys"
    },
    {
      "id": 1947,
      "nome": "Kenka Dokugaku",
      "link": "https://animefire.plus/animes/kenka-dokugaku-todos-os-episodios",
      "texto_original": "Kenka Dokugaku",
      "rating": 7.33,
      "classificacao_etaria": "A14",
      "imagem_original": "https://animefire.plus/img/animes/kenka-dokugaku.webp",
      "imagem_pasta": "https://animefire.plus/img/animes/kenka-dokugaku/",
      "secao": "legendados",
      "pagina": 14,
      "total_episodios": 12,
      "link_video": "https://animefire.plus/video/kenka-dokugaku"
    },
    {
      "id": 1948,
      "nome": "Kenkou Zenrakei Suieibu Umishou",
      "link": "https://animefire.plus/animes/kenkou-zenrakei-suieibu-umishou-todos-os-episodios",
      "texto_original": "Kenkou Zenrakei Suieibu Umishou",
      "rating": 7.17,
      "classificacao_etaria": "A14",
      "imagem_original": "https://animefire.plus/img/animes/kenkou-zenrakei-suieibu-umishou.webp",
      "imagem_pasta": "https://animefire.plus/img/animes/kenkou-zenrakei-suieibu-umishou/",
      "secao": "legendados",
      "pagina": 77,
      "total_episodios": 13,
      "link_video": "https://animefire.plus/video/kenkou-zenrakei-suieibu-umishou"
    },
    {
      "id": 1949,
      "nome": "Kennel Tokorozawa",
      "link": "https://animefire.plus/animes/kennel-tokorozawa-todos-os-episodios",
      "texto_original": "Kennel Tokorozawa",
      "rating": 4.44,
      "classificacao_etaria": "A18",
      "imagem_original": "https://animefire.plus/img/animes/kennel-tokorozawa.webp",
      "imagem_pasta": "https://animefire.plus/img/animes/kennel-tokorozawa/",
      "secao": "legendados",
      "pagina": 71,
      "total_episodios": 1,
      "link_video": "https://animefire.plus/video/kennel-tokorozawa"
    },
    {
      "id": 1950,
      "nome": "Kenpuu Denki Berserk",
      "link": "https://animefire.plus/animes/kenpuu-denki-berserk-todos-os-episodios",
      "texto_original": "Kenpuu Denki Berserk",
      "rating": 8.47,
      "classificacao_etaria": "A18",
      "imagem_original": "https://animefire.plus/img/animes/kenpuu-denki-berserk.webp",
      "imagem_pasta": "https://animefire.plus/img/animes/kenpuu-denki-berserk/",
      "secao": "legendados",
      "pagina": 126,
      "total_episodios": 25,
      "link_video": "https://animefire.plus/video/kenpuu-denki-berserk"
    },
    {
      "id": 1951,
      "nome": "Kenran Butou Sai: The Mars Daybreak",
      "link": "https://animefire.plus/animes/kenran-butou-sai-the-mars-daybreak-todos-os-episodios",
      "texto_original": "Kenran Butou Sai: The Mars Daybreak",
      "rating": 7.23,
      "classificacao_etaria": "A14",
      "imagem_original": "https://animefire.plus/img/animes/kenran-butou-sai-the-mars-daybreak.webp",
      "imagem_pasta": "https://animefire.plus/img/animes/kenran-butou-sai-the-mars-daybreak/",
      "secao": "legendados",
      "pagina": 138,
      "total_episodios": 26,
      "link_video": "https://animefire.plus/video/kenran-butou-sai-the-mars-daybreak"
    },
    {
      "id": 1952,
      "nome": "Kenzen Robo Daimidaler",
      "link": "https://animefire.plus/animes/kenzen-robo-daimidaler-todos-os-episodios",
      "texto_original": "Kenzen Robo Daimidaler",
      "rating": 6.24,
      "classificacao_etaria": "A18",
      "imagem_original": "https://animefire.plus/img/animes/kenzen-robo-daimidaler.webp",
      "imagem_pasta": "https://animefire.plus/img/animes/kenzen-robo-daimidaler/",
      "secao": "legendados",
      "pagina": 114,
      "total_episodios": 12,
      "link_video": "https://animefire.plus/video/kenzen-robo-daimidaler"
    },
    {
      "id": 1953,
      "nome": "Keppeki Danshi! Aoyama-kun",
      "link": "https://animefire.plus/animes/keppeki-danshi-aoyama-kun-todos-os-episodios",
      "texto_original": "Keppeki Danshi! Aoyama-kun",
      "rating": 7.06,
      "classificacao_etaria": "A14",
      "imagem_original": "https://animefire.plus/img/animes/keppeki-danshi-aoyama-kun.webp",
      "imagem_pasta": "https://animefire.plus/img/animes/keppeki-danshi-aoyama-kun/",
      "secao": "legendados",
      "pagina": 103,
      "total_episodios": 0,
      "link_video": "https://animefire.plus/video/keppeki-danshi-aoyama-kun"
    },
    {
      "id": 1954,
      "nome": "Key the Metal Idol",
      "link": "https://animefire.plus/animes/key-the-metal-idol-todos-os-episodios",
      "texto_original": "Key the Metal Idol",
      "rating": 6.91,
      "classificacao_etaria": "A18",
      "imagem_original": "https://animefire.plus/img/animes/key-the-metal-idol.webp",
      "imagem_pasta": "https://animefire.plus/img/animes/key-the-metal-idol/",
      "secao": "legendados",
      "pagina": 44,
      "total_episodios": 15,
      "link_video": "https://animefire.plus/video/key-the-metal-idol"
    },
    {
      "id": 1955,
      "nome": "Kiba",
      "link": "https://animefire.plus/animes/kiba-todos-os-episodios",
      "texto_original": "Kiba",
      "rating": 7.38,
      "classificacao_etaria": "A14",
      "imagem_original": "https://animefire.plus/img/animes/kiba.webp",
      "imagem_pasta": "https://animefire.plus/img/animes/kiba/",
      "secao": "legendados",
      "pagina": 168,
      "total_episodios": 51,
      "link_video": "https://animefire.plus/video/kiba"
    },
    {
      "id": 1956,
      "nome": "Kibou no Chikara: Otona Precure '23",
      "link": "https://animefire.plus/animes/kibou-no-chikara-otona-precure-23-todos-os-episodios",
      "texto_original": "Kibou no Chikara: Otona Precure '23",
      "rating": 6.56,
      "classificacao_etaria": "A14",
      "imagem_original": "https://animefire.plus/img/animes/kibou-no-chikara-otona-precure-23.webp",
      "imagem_pasta": "https://animefire.plus/img/animes/kibou-no-chikara-otona-precure-23/",
      "secao": "legendados",
      "pagina": 19,
      "total_episodios": 12,
      "link_video": "https://animefire.plus/video/kibou-no-chikara-otona-precure-23"
    },
    {
      "id": 1957,
      "nome": "Kiddy GiRL-AND",
      "link": "https://animefire.plus/animes/kiddy-girl-and-todos-os-episodios",
      "texto_original": "Kiddy GiRL-AND",
      "rating": 6.93,
      "classificacao_etaria": "A14",
      "imagem_original": "https://animefire.plus/img/animes/kiddy-girl-and.webp",
      "imagem_pasta": "https://animefire.plus/img/animes/kiddy-girl-and/",
      "secao": "legendados",
      "pagina": 142,
      "total_episodios": 24,
      "link_video": "https://animefire.plus/video/kiddy-girl-and"
    },
    {
      "id": 1958,
      "nome": "Kiddy Grade",
      "link": "https://animefire.plus/animes/kiddy-grade-todos-os-episodios",
      "texto_original": "Kiddy Grade",
      "rating": 7.27,
      "classificacao_etaria": "A18",
      "imagem_original": "https://animefire.plus/img/animes/kiddy-grade.webp",
      "imagem_pasta": "https://animefire.plus/img/animes/kiddy-grade/",
      "secao": "legendados",
      "pagina": 150,
      "total_episodios": 24,
      "link_video": "https://animefire.plus/video/kiddy-grade"
    },
    {
      "id": 1959,
      "nome": "Kidou Keisatsu Patlabor",
      "link": "https://animefire.plus/animes/kidou-keisatsu-patlabor-todos-os-episodios",
      "texto_original": "Kidou Keisatsu Patlabor",
      "rating": 7.29,
      "classificacao_etaria": "A14",
      "imagem_original": "https://animefire.plus/img/animes/kidou-keisatsu-patlabor.webp",
      "imagem_pasta": "https://animefire.plus/img/animes/kidou-keisatsu-patlabor/",
      "secao": "legendados",
      "pagina": 42,
      "total_episodios": 7,
      "link_video": "https://animefire.plus/video/kidou-keisatsu-patlabor"
    },
    {
      "id": 1960,
      "nome": "Kidou Keisatsu Patlabor: New OVA",
      "link": "https://animefire.plus/animes/kidou-keisatsu-patlabor-new-ova-todos-os-episodios",
      "texto_original": "Kidou Keisatsu Patlabor: New OVA",
      "rating": 7.55,
      "classificacao_etaria": "A14",
      "imagem_original": "https://animefire.plus/img/animes/kidou-keisatsu-patlabor-new-ova.webp",
      "imagem_pasta": "https://animefire.plus/img/animes/kidou-keisatsu-patlabor-new-ova/",
      "secao": "legendados",
      "pagina": 44,
      "total_episodios": 16,
      "link_video": "https://animefire.plus/video/kidou-keisatsu-patlabor-new-ova"
    }
  ],
  "pagination": {
    "current_page": 98,
    "per_page": 20,
    "total_items": 4368,
    "total_pages": 219,
    "has_next": true,
    "has_prev": true
  }
}
