{
  "message": "Lista de animes",
  "data": [
    {
      "id": 581,
      "nome": "Cardfight!! Vanguard: will+Dress Season 3",
      "link": "https://animefire.plus/animes/cardfight-vanguard-will-dress-season-3-todos-os-episodios",
      "texto_original": "Cardfight!! Vanguard: will+Dress Season 3",
      "rating": 6.57,
      "classificacao_etaria": "A14",
      "imagem_original": "https://animefire.plus/img/animes/cardfight-vanguard-will-dress-season-3.jpg",
      "imagem_pasta": "https://animefire.plus/img/animes/cardfight-vanguard-will-dress-season-3/",
      "secao": "legendados,lancamentos",
      "pagina": 22,
      "total_episodios": 9,
      "link_video": "https://animefire.plus/video/cardfight-vanguard-will-dress-season-3"
    },
    {
      "id": 582,
      "nome": "Carnival Phantasm",
      "link": "https://animefire.plus/animes/carnival-phantasm-todos-os-episodios",
      "texto_original": "Carnival Phantasm",
      "rating": 7.95,
      "classificacao_etaria": "A14",
      "imagem_original": "https://animefire.plus/img/animes/carnival-phantasm.webp",
      "imagem_pasta": "https://animefire.plus/img/animes/carnival-phantasm/",
      "secao": "legendados",
      "pagina": 131,
      "total_episodios": 12,
      "link_video": "https://animefire.plus/video/carnival-phantasm"
    },
    {
      "id": 583,
      "nome": "Carole & Tuesday (Dublado)",
      "link": "https://animefire.plus/animes/carole-tuesday-dublado-todos-os-episodios",
      "texto_original": "Carole & Tuesday (Dublado)",
      "rating": 7.98,
      "classificacao_etaria": "A14",
      "imagem_original": "https://animefire.plus/img/animes/carole-tuesday.webp",
      "imagem_pasta": "https://animefire.plus/img/animes/carole-tuesday/",
      "secao": "dublados,legendados",
      "pagina": 25,
      "total_episodios": 24,
      "link_video": "https://animefire.plus/video/carole-tuesday-dublado"
    },
    {
      "id": 584,
      "nome": "Casshern Sins",
      "link": "https://animefire.plus/animes/casshern-sins-todos-os-episodios",
      "texto_original": "Casshern Sins",
      "rating": 7.58,
      "classificacao_etaria": "A16",
      "imagem_original": "https://animefire.plus/img/animes/casshern-sins.webp",
      "imagem_pasta": "https://animefire.plus/img/animes/casshern-sins/",
      "secao": "legendados",
      "pagina": 120,
      "total_episodios": 24,
      "link_video": "https://animefire.plus/video/casshern-sins"
    },
    {
      "id": 585,
      "nome": "Casshern: Robot Hunter",
      "link": "https://animefire.plus/animes/casshern-robot-hunter-todos-os-episodios",
      "texto_original": "Casshern: Robot Hunter",
      "rating": 6.36,
      "classificacao_etaria": "A14",
      "imagem_original": "https://animefire.plus/img/animes/casshern-robot-hunter.webp",
      "imagem_pasta": "https://animefire.plus/img/animes/casshern-robot-hunter/",
      "secao": "legendados",
      "pagina": 55,
      "total_episodios": 4,
      "link_video": "https://animefire.plus/video/casshern-robot-hunter"
    },
    {
      "id": 586,
      "nome": "Cencoroll",
      "link": "https://animefire.plus/animes/cencoroll-todos-os-episodios",
      "texto_original": "Cencoroll",
      "rating": 7.24,
      "classificacao_etaria": "A14",
      "imagem_original": "https://animefire.plus/img/animes/cencoroll.webp",
      "imagem_pasta": "https://animefire.plus/img/animes/cencoroll/",
      "secao": "legendados",
      "pagina": 83,
      "total_episodios": 0,
      "link_video": "https://animefire.plus/video/cencoroll"
    },
    {
      "id": 587,
      "nome": "Centaur no Nayami",
      "link": "https://animefire.plus/animes/centaur-no-nayami-todos-os-episodios",
      "texto_original": "Centaur no Nayami",
      "rating": 6.54,
      "classificacao_etaria": "A18",
      "imagem_original": "https://animefire.plus/img/animes/centaur-no-nayami.webp",
      "imagem_pasta": "https://animefire.plus/img/animes/centaur-no-nayami/",
      "secao": "legendados",
      "pagina": 94,
      "total_episodios": 12,
      "link_video": "https://animefire.plus/video/centaur-no-nayami"
    },
    {
      "id": 588,
      "nome": "Cestvs: The Roman Fighter",
      "link": "https://animefire.plus/animes/cestvs-the-roman-fighter-todos-os-episodios",
      "texto_original": "Cestvs: The Roman Fighter",
      "rating": 5.96,
      "classificacao_etaria": "A14",
      "imagem_original": "https://animefire.plus/img/animes/cestvs-the-roman-fighter.webp",
      "imagem_pasta": "https://animefire.plus/img/animes/cestvs-the-roman-fighter/",
      "secao": "legendados",
      "pagina": 45,
      "total_episodios": 11,
      "link_video": "https://animefire.plus/video/cestvs-the-roman-fighter"
    },
    {
      "id": 589,
      "nome": "Chain Chronicle: Haecceitas no Hikari",
      "link": "https://animefire.plus/animes/chain-chronicle-haecceitas-no-hikari-todos-os-episodios",
      "texto_original": "Chain Chronicle: Haecceitas no Hikari",
      "rating": 6.79,
      "classificacao_etaria": "A14",
      "imagem_original": "https://animefire.plus/img/animes/chain-chronicle-haecceitas-no-hikari.webp",
      "imagem_pasta": "https://animefire.plus/img/animes/chain-chronicle-haecceitas-no-hikari/",
      "secao": "legendados",
      "pagina": 95,
      "total_episodios": 12,
      "link_video": "https://animefire.plus/video/chain-chronicle-haecceitas-no-hikari"
    },
    {
      "id": 590,
      "nome": "Chainsaw Man (Dublado)",
      "link": "https://animefire.plus/animes/chainsaw-man-dublado-todos-os-episodios",
      "texto_original": "Chainsaw Man (Dublado)",
      "rating": 8.44,
      "classificacao_etaria": "A16",
      "imagem_original": "https://animefire.plus/img/animes/chainsaw-man.webp",
      "imagem_pasta": "https://animefire.plus/img/animes/chainsaw-man/",
      "secao": "dublados,legendados",
      "pagina": 9,
      "total_episodios": 12,
      "link_video": "https://animefire.plus/video/chainsaw-man-dublado"
    },
    {
      "id": 591,
      "nome": "Chao Neng Lifang: Chaofan Pian",
      "link": "https://animefire.plus/animes/chao-neng-lifang-chaofan-pian-todos-os-episodios",
      "texto_original": "Chao Neng Lifang: Chaofan Pian",
      "rating": 7.23,
      "classificacao_etaria": "A14",
      "imagem_original": "https://animefire.plus/img/animes/chao-neng-lifang-chaofan-pian.webp",
      "imagem_pasta": "https://animefire.plus/img/animes/chao-neng-lifang-chaofan-pian/",
      "secao": "legendados",
      "pagina": 3,
      "total_episodios": 12,
      "link_video": "https://animefire.plus/video/chao-neng-lifang-chaofan-pian"
    },
    {
      "id": 592,
      "nome": "Chao You Bing",
      "link": "https://animefire.plus/animes/chao-you-bing-todos-os-episodios",
      "texto_original": "Chao You Bing",
      "rating": 5.86,
      "classificacao_etaria": "A16",
      "imagem_original": "https://animefire.plus/img/animes/chao-you-bing.webp",
      "imagem_pasta": "https://animefire.plus/img/animes/chao-you-bing/",
      "secao": "legendados",
      "pagina": 163,
      "total_episodios": 4,
      "link_video": "https://animefire.plus/video/chao-you-bing"
    },
    {
      "id": 593,
      "nome": "Chaos Dragon: Sekiryuu Seneki",
      "link": "https://animefire.plus/animes/chaos-dragon-sekiryuu-seneki-todos-os-episodios",
      "texto_original": "Chaos Dragon: Sekiryuu Seneki",
      "rating": 5.76,
      "classificacao_etaria": "A16",
      "imagem_original": "https://animefire.plus/img/animes/chaos-dragon-sekiryuu-seneki.webp",
      "imagem_pasta": "https://animefire.plus/img/animes/chaos-dragon-sekiryuu-seneki/",
      "secao": "legendados",
      "pagina": 173,
      "total_episodios": 1,
      "link_video": "https://animefire.plus/video/chaos-dragon-sekiryuu-seneki"
    },
    {
      "id": 594,
      "nome": "ChäoS;HEAd",
      "link": "https://animefire.plus/animes/chaeos-head-todos-os-episodios",
      "texto_original": "ChäoS;HEAd",
      "rating": 6.47,
      "classificacao_etaria": "A16",
      "imagem_original": "https://animefire.plus/img/animes/chaeos-head.webp",
      "imagem_pasta": "https://animefire.plus/img/animes/chaeos-head/",
      "secao": "legendados",
      "pagina": 155,
      "total_episodios": 12,
      "link_video": "https://animefire.plus/video/chaeos-head"
    },
    {
      "id": 595,
      "nome": "Charlotte",
      "link": "https://animefire.plus/animes/charlotte-todos-os-episodios",
      "texto_original": "Charlotte",
      "rating": 7.9,
      "classificacao_etaria": "A14",
      "imagem_original": "https://animefire.plus/img/animes/charlotte.webp",
      "imagem_pasta": "https://animefire.plus/img/animes/charlotte/",
      "secao": "legendados",
      "pagina": 98,
      "total_episodios": 13,
      "link_video": "https://animefire.plus/video/charlotte"
    },
    {
      "id": 596,
      "nome": "Charlotte: Tsuyoimono-tachi",
      "link": "https://animefire.plus/animes/charlotte-tsuyoimono-tachi-todos-os-episodios",
      "texto_original": "Charlotte: Tsuyoimono-tachi",
      "rating": 7.51,
      "classificacao_etaria": "A14",
      "imagem_original": "https://animefire.plus/img/animes/charlotte-tsuyoimono-tachi.webp",
      "imagem_pasta": "https://animefire.plus/img/animes/charlotte-tsuyoimono-tachi/",
      "secao": "legendados",
      "pagina": 71,
      "total_episodios": 1,
      "link_video": "https://animefire.plus/video/charlotte-tsuyoimono-tachi"
    },
    {
      "id": 597,
      "nome": "Cheat Kusushi no Slow Life: Isekai ni Tsukurou Drugstore",
      "link": "https://animefire.plus/animes/cheat-kusushi-no-slow-life-isekai-ni-tsukurou-drugstore-todos-os-episodios",
      "texto_original": "Cheat Kusushi no Slow Life: Isekai ni Tsukurou Drugstore",
      "rating": 6.45,
      "classificacao_etaria": "A14",
      "imagem_original": "https://animefire.plus/img/animes/cheat-kusushi-no-slow-life-isekai-ni-tsukurou-drugstore.webp",
      "imagem_pasta": "https://animefire.plus/img/animes/cheat-kusushi-no-slow-life-isekai-ni-tsukurou-drugstore/",
      "secao": "legendados",
      "pagina": 41,
      "total_episodios": 12,
      "link_video": "https://animefire.plus/video/cheat-kusushi-no-slow-life-isekai-ni-tsukurou-drugstore"
    },
    {
      "id": 598,
      "nome": "Cheating Craft",
      "link": "https://animefire.plus/animes/cheating-craft-todos-os-episodios",
      "texto_original": "Cheating Craft",
      "rating": 5.54,
      "classificacao_etaria": "A14",
      "imagem_original": "https://animefire.plus/img/animes/cheating-craft.webp",
      "imagem_pasta": "https://animefire.plus/img/animes/cheating-craft/",
      "secao": "legendados",
      "pagina": 131,
      "total_episodios": 11,
      "link_video": "https://animefire.plus/video/cheating-craft"
    },
    {
      "id": 599,
      "nome": "Cheer Danshi!!",
      "link": "https://animefire.plus/animes/cheer-danshi-todos-os-episodios",
      "texto_original": "Cheer Danshi!!",
      "rating": 6.81,
      "classificacao_etaria": "A14",
      "imagem_original": "https://animefire.plus/img/animes/cheer-danshi.webp",
      "imagem_pasta": "https://animefire.plus/img/animes/cheer-danshi/",
      "secao": "legendados",
      "pagina": 162,
      "total_episodios": 0,
      "link_video": "https://animefire.plus/video/cheer-danshi"
    },
    {
      "id": 600,
      "nome": "Chi.: Chikyuu no Undou ni Tsuite",
      "link": "https://animefire.plus/animes/chi-chikyuu-no-undou-ni-tsuite-todos-os-episodios",
      "texto_original": "Chi.: Chikyuu no Undou ni Tsuite",
      "rating": 8.71,
      "classificacao_etaria": "A16",
      "imagem_original": "https://animefire.plus/img/animes/chi-chikyuu-no-undou-ni-tsuite.webp",
      "imagem_pasta": "https://animefire.plus/img/animes/chi-chikyuu-no-undou-ni-tsuite/",
      "secao": "legendados,lancamentos",
      "pagina": 9,
      "total_episodios": 6,
      "link_video": "https://animefire.plus/video/chi-chikyuu-no-undou-ni-tsuite"
    }
  ],
  "pagination": {
    "current_page": 30,
    "per_page": 20,
    "total_items": 4368,
    "total_pages": 219,
    "has_next": true,
    "has_prev": true
  }
}
