{
  "message": "Lista de animes",
  "data": [
    {
      "id": 3061,
      "nome": "Queen's Blade: Rurou no Senshi",
      "link": "https://animefire.plus/animes/queen-s-blade-rurou-no-senshi-todos-os-episodios",
      "texto_original": "Queen's Blade: Rurou no Senshi",
      "rating": 6.25,
      "classificacao_etaria": "A18",
      "imagem_original": "https://animefire.plus/img/animes/queen-s-blade-rurou-no-senshi.webp",
      "imagem_pasta": "https://animefire.plus/img/animes/queen-s-blade-rurou-no-senshi/",
      "secao": "legendados",
      "pagina": 147,
      "total_episodios": 12,
      "link_video": "https://animefire.plus/video/queen-s-blade-rurou-no-senshi"
    },
    {
      "id": 3062,
      "nome": "R-15",
      "link": "https://animefire.plus/animes/r-15-todos-os-episodios",
      "texto_original": "R-15",
      "rating": 6.6,
      "classificacao_etaria": "A18",
      "imagem_original": "https://animefire.plus/img/animes/r-15.webp",
      "imagem_pasta": "https://animefire.plus/img/animes/r-15/",
      "secao": "legendados",
      "pagina": 120,
      "total_episodios": 0,
      "link_video": "https://animefire.plus/video/r-15"
    },
    {
      "id": 3063,
      "nome": "Radiant (Dublado)",
      "link": "https://animefire.plus/animes/radiant-dublado-todos-os-episodios",
      "texto_original": "Radiant (Dublado)",
      "rating": 6.88,
      "classificacao_etaria": "A14",
      "imagem_original": "https://animefire.plus/img/animes/radiant.webp",
      "imagem_pasta": "https://animefire.plus/img/animes/radiant/",
      "secao": "dublados,legendados",
      "pagina": 18,
      "total_episodios": 21,
      "link_video": "https://animefire.plus/video/radiant-dublado"
    },
    {
      "id": 3064,
      "nome": "Radiant 2nd Season",
      "link": "https://animefire.plus/animes/radiant-2nd-season-todos-os-episodios",
      "texto_original": "Radiant 2nd Season",
      "rating": 7.63,
      "classificacao_etaria": "A14",
      "imagem_original": "https://animefire.plus/img/animes/radiant-2nd-season.webp",
      "imagem_pasta": "https://animefire.plus/img/animes/radiant-2nd-season/",
      "secao": "legendados",
      "pagina": 111,
      "total_episodios": 21,
      "link_video": "https://animefire.plus/video/radiant-2nd-season"
    },
    {
      "id": 3065,
      "nome": "Radiant 2nd Season (Dublado)",
      "link": "https://animefire.plus/animes/radiant-2-dublado-todos-os-episodios",
      "texto_original": "Radiant 2nd Season (Dublado)",
      "rating": 7.62,
      "classificacao_etaria": "A14",
      "imagem_original": "https://animefire.plus/img/animes/radiant-2.webp",
      "imagem_pasta": "https://animefire.plus/img/animes/radiant-2/",
      "secao": "dublados",
      "pagina": 18,
      "total_episodios": 21,
      "link_video": "https://animefire.plus/video/radiant-2-dublado"
    },
    {
      "id": 3066,
      "nome": "Ragna Crimson (Dublado)",
      "link": "https://animefire.plus/animes/ragna-crimson-dublado-todos-os-episodios",
      "texto_original": "Ragna Crimson (Dublado)",
      "rating": 7.55,
      "classificacao_etaria": "A14",
      "imagem_original": "https://animefire.plus/img/animes/ragna-crimson.webp",
      "imagem_pasta": "https://animefire.plus/img/animes/ragna-crimson/",
      "secao": "dublados,legendados,lancamentos",
      "pagina": 5,
      "total_episodios": 24,
      "link_video": "https://animefire.plus/video/ragna-crimson-dublado"
    },
    {
      "id": 3067,
      "nome": "Ragnarök The Animation (Dublado)",
      "link": "https://animefire.plus/animes/ragnaroek-the-animation-dublado-todos-os-episodios",
      "texto_original": "Ragnarök The Animation (Dublado)",
      "rating": 6.49,
      "classificacao_etaria": "A14",
      "imagem_original": "https://animefire.plus/img/animes/ragnaroek-the-animation.webp",
      "imagem_pasta": "https://animefire.plus/img/animes/ragnaroek-the-animation/",
      "secao": "dublados,legendados",
      "pagina": 23,
      "total_episodios": 26,
      "link_video": "https://animefire.plus/video/ragnaroek-the-animation-dublado"
    },
    {
      "id": 3068,
      "nome": "RahXephon",
      "link": "https://animefire.plus/animes/rahxephon-todos-os-episodios",
      "texto_original": "RahXephon",
      "rating": 7.48,
      "classificacao_etaria": "A14",
      "imagem_original": "https://animefire.plus/img/animes/rahxephon.webp",
      "imagem_pasta": "https://animefire.plus/img/animes/rahxephon/",
      "secao": "legendados",
      "pagina": 115,
      "total_episodios": 26,
      "link_video": "https://animefire.plus/video/rahxephon"
    },
    {
      "id": 3069,
      "nome": "Rail Romanesque",
      "link": "https://animefire.plus/animes/rail-romanesque-todos-os-episodios",
      "texto_original": "Rail Romanesque",
      "rating": null,
      "classificacao_etaria": "A14",
      "imagem_original": "https://animefire.plus/img/animes/rail-romanesque.webp",
      "imagem_pasta": "https://animefire.plus/img/animes/rail-romanesque/",
      "secao": "legendados",
      "pagina": 52,
      "total_episodios": 12,
      "link_video": "https://animefire.plus/video/rail-romanesque"
    },
    {
      "id": 3070,
      "nome": "Rail Wars!",
      "link": "https://animefire.plus/animes/rail-wars-todos-os-episodios",
      "texto_original": "Rail Wars!",
      "rating": 6.46,
      "classificacao_etaria": "A14",
      "imagem_original": "https://animefire.plus/img/animes/rail-wars.webp",
      "imagem_pasta": "https://animefire.plus/img/animes/rail-wars/",
      "secao": "legendados",
      "pagina": 151,
      "total_episodios": 8,
      "link_video": "https://animefire.plus/video/rail-wars"
    },
    {
      "id": 3071,
      "nome": "Rain Town",
      "link": "https://animefire.plus/animes/rain-town-todos-os-episodios",
      "texto_original": "Rain Town",
      "rating": 7.22,
      "classificacao_etaria": null,
      "imagem_original": "https://animefire.plus/img/animes/rain-town.webp",
      "imagem_pasta": "https://animefire.plus/img/animes/rain-town/",
      "secao": "legendados",
      "pagina": 69,
      "total_episodios": 1,
      "link_video": "https://animefire.plus/video/rain-town"
    },
    {
      "id": 3072,
      "nome": "Rainbow: Nisha Rokubou no Shichinin",
      "link": "https://animefire.plus/animes/rainbow-nisha-rokubou-no-shichinin-todos-os-episodios",
      "texto_original": "Rainbow: Nisha Rokubou no Shichinin",
      "rating": 8.56,
      "classificacao_etaria": "A16",
      "imagem_original": "https://animefire.plus/img/animes/rainbow-nisha-rokubou-no-shichinin.webp",
      "imagem_pasta": "https://animefire.plus/img/animes/rainbow-nisha-rokubou-no-shichinin/",
      "secao": "legendados",
      "pagina": 141,
      "total_episodios": 26,
      "link_video": "https://animefire.plus/video/rainbow-nisha-rokubou-no-shichinin"
    },
    {
      "id": 3073,
      "nome": "Raise wa Tanin ga Ii",
      "link": "https://animefire.plus/animes/raise-wa-tanin-ga-ii-todos-os-episodios",
      "texto_original": "Raise wa Tanin ga Ii",
      "rating": 7.18,
      "classificacao_etaria": "A14",
      "imagem_original": "https://animefire.plus/img/animes/raise-wa-tanin-ga-ii.webp",
      "imagem_pasta": "https://animefire.plus/img/animes/raise-wa-tanin-ga-ii/",
      "secao": "legendados",
      "pagina": 9,
      "total_episodios": 12,
      "link_video": "https://animefire.plus/video/raise-wa-tanin-ga-ii"
    },
    {
      "id": 3074,
      "nome": "Rakudai Kishi No Cavalry",
      "link": "https://animefire.plus/animes/rakudai-kishi-no-cavalry-todos-os-episodios",
      "texto_original": "Rakudai Kishi No Cavalry",
      "rating": 7.71,
      "classificacao_etaria": "A16",
      "imagem_original": "https://animefire.plus/img/animes/rakudai-kishi-no-cavalry.webp",
      "imagem_pasta": "https://animefire.plus/img/animes/rakudai-kishi-no-cavalry/",
      "secao": "legendados",
      "pagina": 99,
      "total_episodios": 12,
      "link_video": "https://animefire.plus/video/rakudai-kishi-no-cavalry"
    },
    {
      "id": 3075,
      "nome": "Rakugo Tennyo Oyui",
      "link": "https://animefire.plus/animes/rakugo-tennyo-oyui-todos-os-episodios",
      "texto_original": "Rakugo Tennyo Oyui",
      "rating": 6.09,
      "classificacao_etaria": "A14",
      "imagem_original": "https://animefire.plus/img/animes/rakugo-tennyo-oyui.webp",
      "imagem_pasta": "https://animefire.plus/img/animes/rakugo-tennyo-oyui/",
      "secao": "legendados",
      "pagina": 166,
      "total_episodios": 12,
      "link_video": "https://animefire.plus/video/rakugo-tennyo-oyui"
    },
    {
      "id": 3076,
      "nome": "Ramen Akaneko",
      "link": "https://animefire.plus/animes/ramen-akaneko-todos-os-episodios",
      "texto_original": "Ramen Akaneko",
      "rating": 7.38,
      "classificacao_etaria": "A14",
      "imagem_original": "https://animefire.plus/img/animes/ramen-akaneko.webp",
      "imagem_pasta": "https://animefire.plus/img/animes/ramen-akaneko/",
      "secao": "legendados",
      "pagina": 12,
      "total_episodios": 12,
      "link_video": "https://animefire.plus/video/ramen-akaneko"
    },
    {
      "id": 3077,
      "nome": "Ramen Daisuki Koizumi-san",
      "link": "https://animefire.plus/animes/ramen-daisuki-koizumi-san-todos-os-episodios",
      "texto_original": "Ramen Daisuki Koizumi-san",
      "rating": 6.54,
      "classificacao_etaria": "A14",
      "imagem_original": "https://animefire.plus/img/animes/ramen-daisuki-koizumi-san.webp",
      "imagem_pasta": "https://animefire.plus/img/animes/ramen-daisuki-koizumi-san/",
      "secao": "legendados",
      "pagina": 133,
      "total_episodios": 12,
      "link_video": "https://animefire.plus/video/ramen-daisuki-koizumi-san"
    },
    {
      "id": 3078,
      "nome": "Rang Wo Men Shao Ba",
      "link": "https://animefire.plus/animes/rang-wo-men-shao-ba-todos-os-episodios",
      "texto_original": "Rang Wo Men Shao Ba",
      "rating": 6.03,
      "classificacao_etaria": "A14",
      "imagem_original": "https://animefire.plus/img/animes/rang-wo-men-shao-ba.webp",
      "imagem_pasta": "https://animefire.plus/img/animes/rang-wo-men-shao-ba/",
      "secao": "legendados",
      "pagina": 82,
      "total_episodios": 2,
      "link_video": "https://animefire.plus/video/rang-wo-men-shao-ba"
    },
    {
      "id": 3079,
      "nome": "Ranma ½ (2024)",
      "link": "https://animefire.plus/animes/ranma-2024-todos-os-episodios",
      "texto_original": "Ranma ½ (2024)",
      "rating": 8.01,
      "classificacao_etaria": "A14",
      "imagem_original": "https://animefire.plus/img/animes/ranma-2024.webp",
      "imagem_pasta": "https://animefire.plus/img/animes/ranma-2024/",
      "secao": "legendados",
      "pagina": 11,
      "total_episodios": 12,
      "link_video": "https://animefire.plus/video/ranma-2024"
    },
    {
      "id": 3080,
      "nome": "Ranma ½ (Dublado)",
      "link": "https://animefire.plus/animes/ranma-dublado-todos-os-episodios",
      "texto_original": "Ranma ½ (Dublado)",
      "rating": 7.78,
      "classificacao_etaria": "A18",
      "imagem_original": "https://animefire.plus/img/animes/ranma.webp",
      "imagem_pasta": "https://animefire.plus/img/animes/ranma/",
      "secao": "dublados",
      "pagina": 23,
      "total_episodios": 161,
      "link_video": "https://animefire.plus/video/ranma-dublado"
    }
  ],
  "pagination": {
    "current_page": 154,
    "per_page": 20,
    "total_items": 4368,
    "total_pages": 219,
    "has_next": true,
    "has_prev": true
  }
}
