{
  "message": "Lista de animes",
  "data": [
    {
      "id": 221,
      "nome": "Arakawa Under The Bridge X Bridge",
      "link": "https://animefire.plus/animes/arakawa-under-the-bridge-x-bridge-todos-os-episodios",
      "texto_original": "Arakawa Under The Bridge X Bridge",
      "rating": 7.79,
      "classificacao_etaria": "A14",
      "imagem_original": "https://animefire.plus/img/animes/arakawa-under-the-bridge-x-bridge.webp",
      "imagem_pasta": "https://animefire.plus/img/animes/arakawa-under-the-bridge-x-bridge/",
      "secao": "legendados",
      "pagina": 97,
      "total_episodios": 13,
      "link_video": "https://animefire.plus/video/arakawa-under-the-bridge-x-bridge"
    },
    {
      "id": 222,
      "nome": "Arata Kangatari",
      "link": "https://animefire.plus/animes/arata-kangatari-todos-os-episodios",
      "texto_original": "Arata Kangatari",
      "rating": 6.59,
      "classificacao_etaria": "A14",
      "imagem_original": "https://animefire.plus/img/animes/arata-kangatari.webp",
      "imagem_pasta": "https://animefire.plus/img/animes/arata-kangatari/",
      "secao": "legendados",
      "pagina": 168,
      "total_episodios": 1,
      "link_video": "https://animefire.plus/video/arata-kangatari"
    },
    {
      "id": 223,
      "nome": "Arc The Lad",
      "link": "https://animefire.plus/animes/arc-the-lad-todos-os-episodios",
      "texto_original": "Arc The Lad",
      "rating": 6.58,
      "classificacao_etaria": "A16",
      "imagem_original": "https://animefire.plus/img/animes/arc-the-lad.webp",
      "imagem_pasta": "https://animefire.plus/img/animes/arc-the-lad/",
      "secao": "legendados",
      "pagina": 96,
      "total_episodios": 26,
      "link_video": "https://animefire.plus/video/arc-the-lad"
    },
    {
      "id": 224,
      "nome": "Arcana Famiglia",
      "link": "https://animefire.plus/animes/arcana-famiglia-todos-os-episodios",
      "texto_original": "Arcana Famiglia",
      "rating": 6.39,
      "classificacao_etaria": "A14",
      "imagem_original": "https://animefire.plus/img/animes/arcana-famiglia.webp",
      "imagem_pasta": "https://animefire.plus/img/animes/arcana-famiglia/",
      "secao": "legendados",
      "pagina": 127,
      "total_episodios": 7,
      "link_video": "https://animefire.plus/video/arcana-famiglia"
    },
    {
      "id": 225,
      "nome": "Area 88",
      "link": "https://animefire.plus/animes/area-88-todos-os-episodios",
      "texto_original": "Area 88",
      "rating": 7.6,
      "classificacao_etaria": "A18",
      "imagem_original": "https://animefire.plus/img/animes/area-88.webp",
      "imagem_pasta": "https://animefire.plus/img/animes/area-88/",
      "secao": "legendados",
      "pagina": 103,
      "total_episodios": 12,
      "link_video": "https://animefire.plus/video/area-88"
    },
    {
      "id": 226,
      "nome": "Area 88 (TV)",
      "link": "https://animefire.plus/animes/area-88-tv-todos-os-episodios",
      "texto_original": "Area 88 (TV)",
      "rating": 7.04,
      "classificacao_etaria": "A14",
      "imagem_original": "https://animefire.plus/img/animes/area-88-tv.webp",
      "imagem_pasta": "https://animefire.plus/img/animes/area-88-tv/",
      "secao": "legendados",
      "pagina": 74,
      "total_episodios": 12,
      "link_video": "https://animefire.plus/video/area-88-tv"
    },
    {
      "id": 227,
      "nome": "Area no Kishi",
      "link": "https://animefire.plus/animes/area-no-kishi-todos-os-episodios",
      "texto_original": "Area no Kishi",
      "rating": 7.31,
      "classificacao_etaria": "A14",
      "imagem_original": "https://animefire.plus/img/animes/area-no-kishi.webp",
      "imagem_pasta": "https://animefire.plus/img/animes/area-no-kishi/",
      "secao": "legendados",
      "pagina": 157,
      "total_episodios": 37,
      "link_video": "https://animefire.plus/video/area-no-kishi"
    },
    {
      "id": 228,
      "nome": "Argento Soma",
      "link": "https://animefire.plus/animes/argento-soma-todos-os-episodios",
      "texto_original": "Argento Soma",
      "rating": 6.86,
      "classificacao_etaria": "A14",
      "imagem_original": "https://animefire.plus/img/animes/argento-soma.webp",
      "imagem_pasta": "https://animefire.plus/img/animes/argento-soma/",
      "secao": "legendados",
      "pagina": 132,
      "total_episodios": 26,
      "link_video": "https://animefire.plus/video/argento-soma"
    },
    {
      "id": 229,
      "nome": "Argonavis from BanG Dream!",
      "link": "https://animefire.plus/animes/argonavis-from-bang-dream-todos-os-episodios",
      "texto_original": "Argonavis from BanG Dream!",
      "rating": 6.76,
      "classificacao_etaria": "A14",
      "imagem_original": "https://animefire.plus/img/animes/argonavis-from-bang-dream.webp",
      "imagem_pasta": "https://animefire.plus/img/animes/argonavis-from-bang-dream/",
      "secao": "legendados",
      "pagina": 79,
      "total_episodios": 0,
      "link_video": "https://animefire.plus/video/argonavis-from-bang-dream"
    },
    {
      "id": 230,
      "nome": "Aria the Animation (Dublado)",
      "link": "https://animefire.plus/animes/aria-the-animation-dublado-todos-os-episodios",
      "texto_original": "Aria the Animation (Dublado)",
      "rating": 7.67,
      "classificacao_etaria": null,
      "imagem_original": "https://animefire.plus/img/animes/aria-the-animation.webp",
      "imagem_pasta": "https://animefire.plus/img/animes/aria-the-animation/",
      "secao": "dublados,legendados",
      "pagina": 3,
      "total_episodios": 13,
      "link_video": "https://animefire.plus/video/aria-the-animation-dublado"
    },
    {
      "id": 231,
      "nome": "Aria The Avvenire",
      "link": "https://animefire.plus/animes/aria-the-avvenire-todos-os-episodios",
      "texto_original": "Aria The Avvenire",
      "rating": 8.04,
      "classificacao_etaria": null,
      "imagem_original": "https://animefire.plus/img/animes/aria-the-avvenire.webp",
      "imagem_pasta": "https://animefire.plus/img/animes/aria-the-avvenire/",
      "secao": "legendados",
      "pagina": 147,
      "total_episodios": 3,
      "link_video": "https://animefire.plus/video/aria-the-avvenire"
    },
    {
      "id": 232,
      "nome": "Aria The Natural",
      "link": "https://animefire.plus/animes/aria-the-natural-todos-os-episodios",
      "texto_original": "Aria The Natural",
      "rating": 8.2,
      "classificacao_etaria": null,
      "imagem_original": "https://animefire.plus/img/animes/aria-the-natural.webp",
      "imagem_pasta": "https://animefire.plus/img/animes/aria-the-natural/",
      "secao": "legendados",
      "pagina": 128,
      "total_episodios": 26,
      "link_video": "https://animefire.plus/video/aria-the-natural"
    },
    {
      "id": 233,
      "nome": "Aria The Origination",
      "link": "https://animefire.plus/animes/aria-the-origination-todos-os-episodios",
      "texto_original": "Aria The Origination",
      "rating": 8.53,
      "classificacao_etaria": null,
      "imagem_original": "https://animefire.plus/img/animes/aria-the-origination.webp",
      "imagem_pasta": "https://animefire.plus/img/animes/aria-the-origination/",
      "secao": "legendados",
      "pagina": 138,
      "total_episodios": 13,
      "link_video": "https://animefire.plus/video/aria-the-origination"
    },
    {
      "id": 234,
      "nome": "Arifureta Shokugyou de Sekai Saikyou (Dublado)",
      "link": "https://animefire.plus/animes/arifureta-shokugyou-de-sekai-saikyou-dublado-todos-os-episodios",
      "texto_original": "Arifureta Shokugyou de Sekai Saikyou (Dublado)",
      "rating": 6.64,
      "classificacao_etaria": "A14",
      "imagem_original": "https://animefire.plus/img/animes/arifureta-shokugyou-de-sekai-saikyou.webp",
      "imagem_pasta": "https://animefire.plus/img/animes/arifureta-shokugyou-de-sekai-saikyou/",
      "secao": "dublados,legendados",
      "pagina": 13,
      "total_episodios": 13,
      "link_video": "https://animefire.plus/video/arifureta-shokugyou-de-sekai-saikyou-dublado"
    },
    {
      "id": 235,
      "nome": "Arifureta Shokugyou de Sekai Saikyou 2nd Season (Dublado)",
      "link": "https://animefire.plus/animes/arifureta-shokugyou-de-sekai-saikyou-2nd-season-dublado-todos-os-episodios",
      "texto_original": "Arifureta Shokugyou de Sekai Saikyou 2nd Season (Dublado)",
      "rating": 7.15,
      "classificacao_etaria": "A14",
      "imagem_original": "https://animefire.plus/img/animes/arifureta-shokugyou-de-sekai-saikyou-2nd-season.webp",
      "imagem_pasta": "https://animefire.plus/img/animes/arifureta-shokugyou-de-sekai-saikyou-2nd-season/",
      "secao": "dublados,legendados",
      "pagina": 12,
      "total_episodios": 12,
      "link_video": "https://animefire.plus/video/arifureta-shokugyou-de-sekai-saikyou-2nd-season-dublado"
    },
    {
      "id": 236,
      "nome": "Arifureta Shokugyou de Sekai Saikyou 2nd Season Special (Dublado)",
      "link": "https://animefire.plus/animes/arifureta-shokugyou-de-sekai-saikyou-2nd-season-special-dublado-todos-os-episodios",
      "texto_original": "Arifureta Shokugyou de Sekai Saikyou 2nd Season Special (Dublado)",
      "rating": 6.94,
      "classificacao_etaria": "A14",
      "imagem_original": "https://animefire.plus/img/animes/arifureta-shokugyou-de-sekai-saikyou-2nd-season-special.webp",
      "imagem_pasta": "https://animefire.plus/img/animes/arifureta-shokugyou-de-sekai-saikyou-2nd-season-special/",
      "secao": "dublados,legendados",
      "pagina": 11,
      "total_episodios": 1,
      "link_video": "https://animefire.plus/video/arifureta-shokugyou-de-sekai-saikyou-2nd-season-special-dublado"
    },
    {
      "id": 237,
      "nome": "Arifureta Shokugyou de Sekai Saikyou Season 3 (Dublado)",
      "link": "https://animefire.plus/animes/arifureta-shokugyou-de-sekai-saikyou-season-3-dublado-todos-os-episodios",
      "texto_original": "Arifureta Shokugyou de Sekai Saikyou Season 3 (Dublado)",
      "rating": 7.02,
      "classificacao_etaria": "A16",
      "imagem_original": "https://animefire.plus/img/animes/arifureta-shokugyou-de-sekai-saikyou-season-3.webp",
      "imagem_pasta": "https://animefire.plus/img/animes/arifureta-shokugyou-de-sekai-saikyou-season-3/",
      "secao": "dublados,legendados,lancamentos",
      "pagina": 2,
      "total_episodios": 16,
      "link_video": "https://animefire.plus/video/arifureta-shokugyou-de-sekai-saikyou-season-3-dublado"
    },
    {
      "id": 238,
      "nome": "Arifureta Shokugyou de Sekai Saikyou Specials",
      "link": "https://animefire.plus/animes/arifureta-shokugyou-de-sekai-saikyou-specials-todos-os-episodios",
      "texto_original": "Arifureta Shokugyou de Sekai Saikyou Specials",
      "rating": 6.53,
      "classificacao_etaria": "A14",
      "imagem_original": "https://animefire.plus/img/animes/arifureta-shokugyou-de-sekai-saikyou-specials.webp",
      "imagem_pasta": "https://animefire.plus/img/animes/arifureta-shokugyou-de-sekai-saikyou-specials/",
      "secao": "legendados",
      "pagina": 93,
      "total_episodios": 2,
      "link_video": "https://animefire.plus/video/arifureta-shokugyou-de-sekai-saikyou-specials"
    },
    {
      "id": 239,
      "nome": "Arifureta Shokugyou de Sekai Saikyou: Maboroshi no Bouken to Kiseki no Kaigou (Dublado)",
      "link": "https://animefire.plus/animes/arifureta-shokugyou-de-sekai-saikyou-maboroshi-no-bouken-to-kiseki-no-kaigou-dublado-todos-os-episodios",
      "texto_original": "Arifureta Shokugyou de Sekai Saikyou: Maboroshi no Bouken to Kiseki no Kaigou (Dublado)",
      "rating": 7.16,
      "classificacao_etaria": "A14",
      "imagem_original": "https://animefire.plus/img/animes/arifureta-shokugyou-de-sekai-saikyou-maboroshi-no-bouken-to-kiseki-no-kaigou.webp",
      "imagem_pasta": "https://animefire.plus/img/animes/arifureta-shokugyou-de-sekai-saikyou-maboroshi-no-bouken-to-kiseki-no-kaigou/",
      "secao": "dublados,legendados",
      "pagina": 7,
      "total_episodios": 2,
      "link_video": "https://animefire.plus/video/arifureta-shokugyou-de-sekai-saikyou-maboroshi-no-bouken-to-kiseki-no-kaigou-dublado"
    },
    {
      "id": 240,
      "nome": "Arknights: Reimei Zensou",
      "link": "https://animefire.plus/animes/arknights-reimei-zensou-todos-os-episodios",
      "texto_original": "Arknights: Reimei Zensou",
      "rating": 7.07,
      "classificacao_etaria": "A14",
      "imagem_original": "https://animefire.plus/img/animes/arknights-reimei-zensou.webp",
      "imagem_pasta": "https://animefire.plus/img/animes/arknights-reimei-zensou/",
      "secao": "legendados",
      "pagina": 29,
      "total_episodios": 8,
      "link_video": "https://animefire.plus/video/arknights-reimei-zensou"
    }
  ],
  "pagination": {
    "current_page": 12,
    "per_page": 20,
    "total_items": 4368,
    "total_pages": 219,
    "has_next": true,
    "has_prev": true
  }
}
