{
  "message": "Lista de animes",
  "data": [
    {
      "id": 4021,
      "nome": "UN-GO",
      "link": "https://animefire.plus/animes/un-go-todos-os-episodios",
      "texto_original": "UN-GO",
      "rating": 7.46,
      "classificacao_etaria": "A16",
      "imagem_original": "https://animefire.plus/img/animes/un-go.webp",
      "imagem_pasta": "https://animefire.plus/img/animes/un-go/",
      "secao": "legendados",
      "pagina": 170,
      "total_episodios": 11,
      "link_video": "https://animefire.plus/video/un-go"
    },
    {
      "id": 4022,
      "nome": "Undead Girl Murder Farce",
      "link": "https://animefire.plus/animes/undead-girl-murder-farce-todos-os-episodios",
      "texto_original": "Undead Girl Murder Farce",
      "rating": 7.85,
      "classificacao_etaria": "A16",
      "imagem_original": "https://animefire.plus/img/animes/undead-girl-murder-farce.jpg",
      "imagem_pasta": "https://animefire.plus/img/animes/undead-girl-murder-farce/",
      "secao": "legendados",
      "pagina": 22,
      "total_episodios": 13,
      "link_video": "https://animefire.plus/video/undead-girl-murder-farce"
    },
    {
      "id": 4023,
      "nome": "Undead Unluck (Dublado)",
      "link": "https://animefire.plus/animes/undead-unluck-dublado-todos-os-episodios",
      "texto_original": "Undead Unluck (Dublado)",
      "rating": 7.79,
      "classificacao_etaria": "A16",
      "imagem_original": "https://animefire.plus/img/animes/undead-unluck.webp",
      "imagem_pasta": "https://animefire.plus/img/animes/undead-unluck/",
      "secao": "dublados,legendados",
      "pagina": 4,
      "total_episodios": 24,
      "link_video": "https://animefire.plus/video/undead-unluck-dublado"
    },
    {
      "id": 4024,
      "nome": "Under Ninja",
      "link": "https://animefire.plus/animes/under-ninja-todos-os-episodios",
      "texto_original": "Under Ninja",
      "rating": 6.92,
      "classificacao_etaria": "A16",
      "imagem_original": "https://animefire.plus/img/animes/under-ninja.webp",
      "imagem_pasta": "https://animefire.plus/img/animes/under-ninja/",
      "secao": "legendados",
      "pagina": 20,
      "total_episodios": 12,
      "link_video": "https://animefire.plus/video/under-ninja"
    },
    {
      "id": 4025,
      "nome": "UniteUp!",
      "link": "https://animefire.plus/animes/uniteup-todos-os-episodios",
      "texto_original": "UniteUp!",
      "rating": 7.02,
      "classificacao_etaria": "A14",
      "imagem_original": "https://animefire.plus/img/animes/uniteup.webp",
      "imagem_pasta": "https://animefire.plus/img/animes/uniteup/",
      "secao": "legendados",
      "pagina": 25,
      "total_episodios": 12,
      "link_video": "https://animefire.plus/video/uniteup"
    },
    {
      "id": 4026,
      "nome": "UniteUp! Uni:Birth",
      "link": "https://animefire.plus/animes/uniteup-uni-birth-todos-os-episodios",
      "texto_original": "UniteUp! Uni:Birth",
      "rating": 6.75,
      "classificacao_etaria": "A14",
      "imagem_original": "https://animefire.plus/img/animes/uniteup-uni-birth.webp",
      "imagem_pasta": "https://animefire.plus/img/animes/uniteup-uni-birth/",
      "secao": "legendados,lancamentos",
      "pagina": 7,
      "total_episodios": 13,
      "link_video": "https://animefire.plus/video/uniteup-uni-birth"
    },
    {
      "id": 4027,
      "nome": "Unnamed Memory",
      "link": "https://animefire.plus/animes/unnamed-memory-todos-os-episodios",
      "texto_original": "Unnamed Memory",
      "rating": 6.77,
      "classificacao_etaria": "A14",
      "imagem_original": "https://animefire.plus/img/animes/unnamed-memory.webp",
      "imagem_pasta": "https://animefire.plus/img/animes/unnamed-memory/",
      "secao": "legendados",
      "pagina": 15,
      "total_episodios": 12,
      "link_video": "https://animefire.plus/video/unnamed-memory"
    },
    {
      "id": 4028,
      "nome": "Unnamed Memory Act.2",
      "link": "https://animefire.plus/animes/unnamed-memory-act-2-todos-os-episodios",
      "texto_original": "Unnamed Memory Act.2",
      "rating": 7.11,
      "classificacao_etaria": "A14",
      "imagem_original": "https://animefire.plus/img/animes/unnamed-memory-act-2.webp",
      "imagem_pasta": "https://animefire.plus/img/animes/unnamed-memory-act-2/",
      "secao": "legendados",
      "pagina": 7,
      "total_episodios": 12,
      "link_video": "https://animefire.plus/video/unnamed-memory-act-2"
    },
    {
      "id": 4029,
      "nome": "Upotte!!",
      "link": "https://animefire.plus/animes/upotte-todos-os-episodios",
      "texto_original": "Upotte!!",
      "rating": 6.55,
      "classificacao_etaria": "A14",
      "imagem_original": "https://animefire.plus/img/animes/upotte.webp",
      "imagem_pasta": "https://animefire.plus/img/animes/upotte/",
      "secao": "legendados",
      "pagina": 91,
      "total_episodios": 0,
      "link_video": "https://animefire.plus/video/upotte"
    },
    {
      "id": 4030,
      "nome": "UQ Holder!: Mahou Sensei Negima! 2",
      "link": "https://animefire.plus/animes/uq-holder-mahou-sensei-negima-2-todos-os-episodios",
      "texto_original": "UQ Holder!: Mahou Sensei Negima! 2",
      "rating": 7.15,
      "classificacao_etaria": "A14",
      "imagem_original": "https://animefire.plus/img/animes/uq-holder-mahou-sensei-negima-2.webp",
      "imagem_pasta": "https://animefire.plus/img/animes/uq-holder-mahou-sensei-negima-2/",
      "secao": "legendados",
      "pagina": 114,
      "total_episodios": 12,
      "link_video": "https://animefire.plus/video/uq-holder-mahou-sensei-negima-2"
    },
    {
      "id": 4031,
      "nome": "Uragiri wa Boku no Namae wo Shitteiru",
      "link": "https://animefire.plus/animes/uragiri-wa-boku-no-namae-wo-shitteiru-todos-os-episodios",
      "texto_original": "Uragiri wa Boku no Namae wo Shitteiru",
      "rating": 7.37,
      "classificacao_etaria": "A16",
      "imagem_original": "https://animefire.plus/img/animes/uragiri-wa-boku-no-namae-wo-shitteiru.webp",
      "imagem_pasta": "https://animefire.plus/img/animes/uragiri-wa-boku-no-namae-wo-shitteiru/",
      "secao": "legendados",
      "pagina": 164,
      "total_episodios": 24,
      "link_video": "https://animefire.plus/video/uragiri-wa-boku-no-namae-wo-shitteiru"
    },
    {
      "id": 4032,
      "nome": "Urahara",
      "link": "https://animefire.plus/animes/urahara-todos-os-episodios",
      "texto_original": "Urahara",
      "rating": 5.82,
      "classificacao_etaria": "A14",
      "imagem_original": "https://animefire.plus/img/animes/urahara.webp",
      "imagem_pasta": "https://animefire.plus/img/animes/urahara/",
      "secao": "legendados",
      "pagina": 73,
      "total_episodios": 12,
      "link_video": "https://animefire.plus/video/urahara"
    },
    {
      "id": 4033,
      "nome": "Uramichi Oniisan (Dublado)",
      "link": "https://animefire.plus/animes/uramichi-oniisan-dublado-todos-os-episodios",
      "texto_original": "Uramichi Oniisan (Dublado)",
      "rating": 7.7,
      "classificacao_etaria": "A14",
      "imagem_original": "https://animefire.plus/img/animes/uramichi-oniisan.webp",
      "imagem_pasta": "https://animefire.plus/img/animes/uramichi-oniisan/",
      "secao": "dublados,legendados",
      "pagina": 12,
      "total_episodios": 13,
      "link_video": "https://animefire.plus/video/uramichi-oniisan-dublado"
    },
    {
      "id": 4034,
      "nome": "Urara Meirochou",
      "link": "https://animefire.plus/animes/urara-meirochou-todos-os-episodios",
      "texto_original": "Urara Meirochou",
      "rating": 7.2,
      "classificacao_etaria": "A14",
      "imagem_original": "https://animefire.plus/img/animes/urara-meirochou.webp",
      "imagem_pasta": "https://animefire.plus/img/animes/urara-meirochou/",
      "secao": "legendados",
      "pagina": 115,
      "total_episodios": 1,
      "link_video": "https://animefire.plus/video/urara-meirochou"
    },
    {
      "id": 4035,
      "nome": "Urasekai Picnic",
      "link": "https://animefire.plus/animes/urasekai-picnic-todos-os-episodios",
      "texto_original": "Urasekai Picnic",
      "rating": 6.66,
      "classificacao_etaria": "A16",
      "imagem_original": "https://animefire.plus/img/animes/urasekai-picnic.webp",
      "imagem_pasta": "https://animefire.plus/img/animes/urasekai-picnic/",
      "secao": "legendados",
      "pagina": 49,
      "total_episodios": 12,
      "link_video": "https://animefire.plus/video/urasekai-picnic"
    },
    {
      "id": 4036,
      "nome": "Urashimasakatasen no Nichijou",
      "link": "https://animefire.plus/animes/urashimasakatasen-no-nichijou-todos-os-episodios",
      "texto_original": "Urashimasakatasen no Nichijou",
      "rating": 5.96,
      "classificacao_etaria": "A14",
      "imagem_original": "https://animefire.plus/img/animes/urashimasakatasen-no-nichijou.webp",
      "imagem_pasta": "https://animefire.plus/img/animes/urashimasakatasen-no-nichijou/",
      "secao": "legendados",
      "pagina": 111,
      "total_episodios": 0,
      "link_video": "https://animefire.plus/video/urashimasakatasen-no-nichijou"
    },
    {
      "id": 4037,
      "nome": "Urawa no Usagi-chan",
      "link": "https://animefire.plus/animes/urawa-no-usagi-chan-todos-os-episodios",
      "texto_original": "Urawa no Usagi-chan",
      "rating": 5.4,
      "classificacao_etaria": "A10",
      "imagem_original": "https://animefire.plus/img/animes/urawa-no-usagi-chan.webp",
      "imagem_pasta": "https://animefire.plus/img/animes/urawa-no-usagi-chan/",
      "secao": "legendados",
      "pagina": 67,
      "total_episodios": 12,
      "link_video": "https://animefire.plus/video/urawa-no-usagi-chan"
    },
    {
      "id": 4038,
      "nome": "Urusei Yatsura",
      "link": "https://animefire.plus/animes/urusei-yatsura-todos-os-episodios",
      "texto_original": "Urusei Yatsura",
      "rating": 7.75,
      "classificacao_etaria": "A14",
      "imagem_original": "https://animefire.plus/img/animes/urusei-yatsura.webp",
      "imagem_pasta": "https://animefire.plus/img/animes/urusei-yatsura/",
      "secao": "legendados",
      "pagina": 168,
      "total_episodios": 195,
      "link_video": "https://animefire.plus/video/urusei-yatsura"
    },
    {
      "id": 4039,
      "nome": "Urusei Yatsura (2022)",
      "link": "https://animefire.plus/animes/urusei-yatsura-2022-todos-os-episodios",
      "texto_original": "Urusei Yatsura (2022)",
      "rating": 7.4,
      "classificacao_etaria": "A14",
      "imagem_original": "https://animefire.plus/img/animes/urusei-yatsura-2022.webp",
      "imagem_pasta": "https://animefire.plus/img/animes/urusei-yatsura-2022/",
      "secao": "legendados",
      "pagina": 29,
      "total_episodios": 23,
      "link_video": "https://animefire.plus/video/urusei-yatsura-2022"
    },
    {
      "id": 4040,
      "nome": "Urusei Yatsura (2022) 2nd Season",
      "link": "https://animefire.plus/animes/urusei-yatsura-2022-2nd-season-todos-os-episodios",
      "texto_original": "Urusei Yatsura (2022) 2nd Season",
      "rating": 7.84,
      "classificacao_etaria": "A14",
      "imagem_original": "https://animefire.plus/img/animes/urusei-yatsura-2022-2nd-season.webp",
      "imagem_pasta": "https://animefire.plus/img/animes/urusei-yatsura-2022-2nd-season/",
      "secao": "legendados",
      "pagina": 17,
      "total_episodios": 23,
      "link_video": "https://animefire.plus/video/urusei-yatsura-2022-2nd-season"
    }
  ],
  "pagination": {
    "current_page": 202,
    "per_page": 20,
    "total_items": 4368,
    "total_pages": 219,
    "has_next": true,
    "has_prev": true
  }
}
