{
  "message": "Lista de animes",
  "data": [
    {
      "id": 121,
      "nome": "AKB0048: Next Stage",
      "link": "https://animefire.plus/animes/akb0048-next-stage-todos-os-episodios",
      "texto_original": "AKB0048: Next Stage",
      "rating": 7.75,
      "classificacao_etaria": "A14",
      "imagem_original": "https://animefire.plus/img/animes/akb0048-next-stage.webp",
      "imagem_pasta": "https://animefire.plus/img/animes/akb0048-next-stage/",
      "secao": "legendados",
      "pagina": 159,
      "total_episodios": 13,
      "link_video": "https://animefire.plus/video/akb0048-next-stage"
    },
    {
      "id": 122,
      "nome": "Akebi-chan no Sailor-fuku",
      "link": "https://animefire.plus/animes/akebi-chan-no-sailor-fuku-todos-os-episodios",
      "texto_original": "Akebi-chan no Sailor-fuku",
      "rating": 7.65,
      "classificacao_etaria": "A14",
      "imagem_original": "https://animefire.plus/img/animes/akebi-chan-no-sailor-fuku.webp",
      "imagem_pasta": "https://animefire.plus/img/animes/akebi-chan-no-sailor-fuku/",
      "secao": "legendados",
      "pagina": 36,
      "total_episodios": 12,
      "link_video": "https://animefire.plus/video/akebi-chan-no-sailor-fuku"
    },
    {
      "id": 123,
      "nome": "Aki-Sora",
      "link": "https://animefire.plus/animes/aki-sora-todos-os-episodios",
      "texto_original": "Aki-Sora",
      "rating": 6.2,
      "classificacao_etaria": "A18",
      "imagem_original": "https://animefire.plus/img/animes/aki-sora.webp",
      "imagem_pasta": "https://animefire.plus/img/animes/aki-sora/",
      "secao": "legendados",
      "pagina": 128,
      "total_episodios": 3,
      "link_video": "https://animefire.plus/video/aki-sora"
    },
    {
      "id": 124,
      "nome": "Akiba Maid Sensou",
      "link": "https://animefire.plus/animes/akiba-maid-sensou-todos-os-episodios",
      "texto_original": "Akiba Maid Sensou",
      "rating": 7.58,
      "classificacao_etaria": "A16",
      "imagem_original": "https://animefire.plus/img/animes/akiba-maid-sensou.webp",
      "imagem_pasta": "https://animefire.plus/img/animes/akiba-maid-sensou/",
      "secao": "legendados",
      "pagina": 28,
      "total_episodios": 12,
      "link_video": "https://animefire.plus/video/akiba-maid-sensou"
    },
    {
      "id": 125,
      "nome": "Akiba's Trip The Animation",
      "link": "https://animefire.plus/animes/akiba-s-trip-the-animation-todos-os-episodios",
      "texto_original": "Akiba's Trip The Animation",
      "rating": 6.68,
      "classificacao_etaria": "A14",
      "imagem_original": "https://animefire.plus/img/animes/akiba-s-trip-the-animation.webp",
      "imagem_pasta": "https://animefire.plus/img/animes/akiba-s-trip-the-animation/",
      "secao": "legendados",
      "pagina": 156,
      "total_episodios": 13,
      "link_video": "https://animefire.plus/video/akiba-s-trip-the-animation"
    },
    {
      "id": 126,
      "nome": "Akihabara Dennou-gumi",
      "link": "https://animefire.plus/animes/akihabara-dennou-gumi-todos-os-episodios",
      "texto_original": "Akihabara Dennou-gumi",
      "rating": 6.64,
      "classificacao_etaria": "A14",
      "imagem_original": "https://animefire.plus/img/animes/akihabara-dennou-gumi.webp",
      "imagem_pasta": "https://animefire.plus/img/animes/akihabara-dennou-gumi/",
      "secao": "legendados",
      "pagina": 140,
      "total_episodios": 26,
      "link_video": "https://animefire.plus/video/akihabara-dennou-gumi"
    },
    {
      "id": 127,
      "nome": "Akikan!",
      "link": "https://animefire.plus/animes/akikan-todos-os-episodios",
      "texto_original": "Akikan!",
      "rating": 6.29,
      "classificacao_etaria": "A14",
      "imagem_original": "https://animefire.plus/img/animes/akikan.webp",
      "imagem_pasta": "https://animefire.plus/img/animes/akikan/",
      "secao": "legendados",
      "pagina": 169,
      "total_episodios": 9,
      "link_video": "https://animefire.plus/video/akikan"
    },
    {
      "id": 128,
      "nome": "Akkun to Kanojo",
      "link": "https://animefire.plus/animes/akkun-to-kanojo-todos-os-episodios",
      "texto_original": "Akkun to Kanojo",
      "rating": 6.9,
      "classificacao_etaria": "A14",
      "imagem_original": "https://animefire.plus/img/animes/akkun-to-kanojo.webp",
      "imagem_pasta": "https://animefire.plus/img/animes/akkun-to-kanojo/",
      "secao": "legendados",
      "pagina": 131,
      "total_episodios": 25,
      "link_video": "https://animefire.plus/video/akkun-to-kanojo"
    },
    {
      "id": 129,
      "nome": "Aku no Hana",
      "link": "https://animefire.plus/animes/aku-no-hana-todos-os-episodios",
      "texto_original": "Aku no Hana",
      "rating": 7.17,
      "classificacao_etaria": "A16",
      "imagem_original": "https://animefire.plus/img/animes/aku-no-hana.webp",
      "imagem_pasta": "https://animefire.plus/img/animes/aku-no-hana/",
      "secao": "legendados",
      "pagina": 154,
      "total_episodios": 13,
      "link_video": "https://animefire.plus/video/aku-no-hana"
    },
    {
      "id": 130,
      "nome": "Akudama Drive (Dublado)",
      "link": "https://animefire.plus/animes/akudama-drive-dublado-todos-os-episodios",
      "texto_original": "Akudama Drive (Dublado)",
      "rating": 7.65,
      "classificacao_etaria": "A16",
      "imagem_original": "https://animefire.plus/img/animes/akudama-drive.webp",
      "imagem_pasta": "https://animefire.plus/img/animes/akudama-drive/",
      "secao": "dublados,legendados",
      "pagina": 14,
      "total_episodios": 12,
      "link_video": "https://animefire.plus/video/akudama-drive-dublado"
    },
    {
      "id": 131,
      "nome": "Akuemon",
      "link": "https://animefire.plus/animes/akuemon-todos-os-episodios",
      "texto_original": "Akuemon",
      "rating": 6.04,
      "classificacao_etaria": "A14",
      "imagem_original": "https://animefire.plus/img/animes/akuemon.webp",
      "imagem_pasta": "https://animefire.plus/img/animes/akuemon/",
      "secao": "legendados",
      "pagina": 77,
      "total_episodios": 1,
      "link_video": "https://animefire.plus/video/akuemon"
    },
    {
      "id": 132,
      "nome": "Akuma no Riddle",
      "link": "https://animefire.plus/animes/akuma-no-riddle-todos-os-episodios",
      "texto_original": "Akuma no Riddle",
      "rating": 6.74,
      "classificacao_etaria": "A16",
      "imagem_original": "https://animefire.plus/img/animes/akuma-no-riddle.webp",
      "imagem_pasta": "https://animefire.plus/img/animes/akuma-no-riddle/",
      "secao": "legendados",
      "pagina": 170,
      "total_episodios": 3,
      "link_video": "https://animefire.plus/video/akuma-no-riddle"
    },
    {
      "id": 133,
      "nome": "Akuma-kun (ONA) (Dublado)",
      "link": "https://animefire.plus/animes/akuma-kun-ona-dublado-todos-os-episodios",
      "texto_original": "Akuma-kun (ONA) (Dublado)",
      "rating": 6.7,
      "classificacao_etaria": "A16",
      "imagem_original": "https://animefire.plus/img/animes/akuma-kun-ona.webp",
      "imagem_pasta": "https://animefire.plus/img/animes/akuma-kun-ona/",
      "secao": "dublados,legendados",
      "pagina": 4,
      "total_episodios": 12,
      "link_video": "https://animefire.plus/video/akuma-kun-ona-dublado"
    },
    {
      "id": 134,
      "nome": "Akuyaku Reijou Level 99: Watashi wa Ura-Boss desu ga Maou dewa Arimasen",
      "link": "https://animefire.plus/animes/akuyaku-reijou-level-99-watashi-wa-ura-boss-desu-ga-maou-dewa-arimasen-todos-os-episodios",
      "texto_original": "Akuyaku Reijou Level 99: Watashi wa Ura-Boss desu ga Maou dewa Arimasen",
      "rating": 7.13,
      "classificacao_etaria": "A14",
      "imagem_original": "https://animefire.plus/img/animes/akuyaku-reijou-level-99-watashi-wa-ura-boss-desu-ga-maou-dewa-arimasen.webp",
      "imagem_pasta": "https://animefire.plus/img/animes/akuyaku-reijou-level-99-watashi-wa-ura-boss-desu-ga-maou-dewa-arimasen/",
      "secao": "legendados",
      "pagina": 17,
      "total_episodios": 12,
      "link_video": "https://animefire.plus/video/akuyaku-reijou-level-99-watashi-wa-ura-boss-desu-ga-maou-dewa-arimasen"
    },
    {
      "id": 135,
      "nome": "Akuyaku Reijou nanode Last Boss wo Kattemimashita (Dublado)",
      "link": "https://animefire.plus/animes/akuyaku-reijou-nanode-last-boss-wo-kattemimashita-dublado-todos-os-episodios",
      "texto_original": "Akuyaku Reijou nanode Last Boss wo Kattemimashita (Dublado)",
      "rating": 7.2,
      "classificacao_etaria": "A14",
      "imagem_original": "https://animefire.plus/img/animes/akuyaku-reijou-nanode-last-boss-wo-kattemimashita.webp",
      "imagem_pasta": "https://animefire.plus/img/animes/akuyaku-reijou-nanode-last-boss-wo-kattemimashita/",
      "secao": "dublados,legendados",
      "pagina": 9,
      "total_episodios": 12,
      "link_video": "https://animefire.plus/video/akuyaku-reijou-nanode-last-boss-wo-kattemimashita-dublado"
    },
    {
      "id": 136,
      "nome": "Akuyaku Reijou Tensei Ojisan",
      "link": "https://animefire.plus/animes/akuyaku-reijou-tensei-ojisan-todos-os-episodios",
      "texto_original": "Akuyaku Reijou Tensei Ojisan",
      "rating": 7.38,
      "classificacao_etaria": "A14",
      "imagem_original": "https://animefire.plus/img/animes/akuyaku-reijou-tensei-ojisan.webp",
      "imagem_pasta": "https://animefire.plus/img/animes/akuyaku-reijou-tensei-ojisan/",
      "secao": "legendados",
      "pagina": 7,
      "total_episodios": 12,
      "link_video": "https://animefire.plus/video/akuyaku-reijou-tensei-ojisan"
    },
    {
      "id": 137,
      "nome": "Aldnoah.Zero",
      "link": "https://animefire.plus/animes/aldnoah-zero-todos-os-episodios",
      "texto_original": "Aldnoah.Zero",
      "rating": 7.53,
      "classificacao_etaria": "A16",
      "imagem_original": "https://animefire.plus/img/animes/aldnoah-zero.webp",
      "imagem_pasta": "https://animefire.plus/img/animes/aldnoah-zero/",
      "secao": "legendados",
      "pagina": 170,
      "total_episodios": 12,
      "link_video": "https://animefire.plus/video/aldnoah-zero"
    },
    {
      "id": 138,
      "nome": "Alexander Senki",
      "link": "https://animefire.plus/animes/alexander-senki-todos-os-episodios",
      "texto_original": "Alexander Senki",
      "rating": 5.79,
      "classificacao_etaria": "A18",
      "imagem_original": "https://animefire.plus/img/animes/alexander-senki.webp",
      "imagem_pasta": "https://animefire.plus/img/animes/alexander-senki/",
      "secao": "legendados",
      "pagina": 119,
      "total_episodios": 13,
      "link_video": "https://animefire.plus/video/alexander-senki"
    },
    {
      "id": 139,
      "nome": "Alice Gear Aegis Expansion",
      "link": "https://animefire.plus/animes/alice-gear-aegis-expansion-todos-os-episodios",
      "texto_original": "Alice Gear Aegis Expansion",
      "rating": 5.72,
      "classificacao_etaria": "A14",
      "imagem_original": "https://animefire.plus/img/animes/alice-gear-aegis-expansion.jpg",
      "imagem_pasta": "https://animefire.plus/img/animes/alice-gear-aegis-expansion/",
      "secao": "legendados",
      "pagina": 24,
      "total_episodios": 12,
      "link_video": "https://animefire.plus/video/alice-gear-aegis-expansion"
    },
    {
      "id": 140,
      "nome": "Alice in Deadly School",
      "link": "https://animefire.plus/animes/alice-in-deadly-school-todos-os-episodios",
      "texto_original": "Alice in Deadly School",
      "rating": 5.18,
      "classificacao_etaria": "A14",
      "imagem_original": "https://animefire.plus/img/animes/alice-in-deadly-school.webp",
      "imagem_pasta": "https://animefire.plus/img/animes/alice-in-deadly-school/",
      "secao": "legendados",
      "pagina": 46,
      "total_episodios": 0,
      "link_video": "https://animefire.plus/video/alice-in-deadly-school"
    }
  ],
  "pagination": {
    "current_page": 7,
    "per_page": 20,
    "total_items": 4368,
    "total_pages": 219,
    "has_next": true,
    "has_prev": true
  }
}
