{
  "message": "Lista de animes",
  "data": [
    {
      "id": 1601,
      "nome": "Ikebukuro PR Anime",
      "link": "https://animefire.plus/animes/ikebukuro-pr-anime-todos-os-episodios",
      "texto_original": "Ikebukuro PR Anime",
      "rating": 6.12,
      "classificacao_etaria": null,
      "imagem_original": "https://animefire.plus/img/animes/ikebukuro-pr-anime.webp",
      "imagem_pasta": "https://animefire.plus/img/animes/ikebukuro-pr-anime/",
      "secao": "legendados",
      "pagina": 85,
      "total_episodios": 1,
      "link_video": "https://animefire.plus/video/ikebukuro-pr-anime"
    },
    {
      "id": 1602,
      "nome": "Ikebukuro West Gate Park",
      "link": "https://animefire.plus/animes/ikebukuro-west-gate-park-todos-os-episodios",
      "texto_original": "Ikebukuro West Gate Park",
      "rating": null,
      "classificacao_etaria": "A14",
      "imagem_original": "https://animefire.plus/img/animes/ikebukuro-west-gate-park.webp",
      "imagem_pasta": "https://animefire.plus/img/animes/ikebukuro-west-gate-park/",
      "secao": "legendados",
      "pagina": 52,
      "total_episodios": 12,
      "link_video": "https://animefire.plus/video/ikebukuro-west-gate-park"
    },
    {
      "id": 1603,
      "nome": "Ikkitousen (Dublado)",
      "link": "https://animefire.plus/animes/ikkitousen-dublado-todos-os-episodios",
      "texto_original": "Ikkitousen (Dublado)",
      "rating": 6.48,
      "classificacao_etaria": "A18",
      "imagem_original": "https://animefire.plus/img/animes/ikkitousen.webp",
      "imagem_pasta": "https://animefire.plus/img/animes/ikkitousen/",
      "secao": "dublados,legendados",
      "pagina": 21,
      "total_episodios": 0,
      "link_video": "https://animefire.plus/video/ikkitousen-dublado"
    },
    {
      "id": 1604,
      "nome": "Ikkitousen: Dragon Destiny",
      "link": "https://animefire.plus/animes/ikkitousen-dragon-destiny-todos-os-episodios",
      "texto_original": "Ikkitousen: Dragon Destiny",
      "rating": 6.89,
      "classificacao_etaria": "A18",
      "imagem_original": "https://animefire.plus/img/animes/ikkitousen-dragon-destiny.webp",
      "imagem_pasta": "https://animefire.plus/img/animes/ikkitousen-dragon-destiny/",
      "secao": "legendados",
      "pagina": 168,
      "total_episodios": 12,
      "link_video": "https://animefire.plus/video/ikkitousen-dragon-destiny"
    },
    {
      "id": 1605,
      "nome": "Ikkitousen: Extravaganza Epoch",
      "link": "https://animefire.plus/animes/ikkitousen-extravaganza-epoch-todos-os-episodios",
      "texto_original": "Ikkitousen: Extravaganza Epoch",
      "rating": 6.67,
      "classificacao_etaria": "A18",
      "imagem_original": "https://animefire.plus/img/animes/ikkitousen-extravaganza-epoch.webp",
      "imagem_pasta": "https://animefire.plus/img/animes/ikkitousen-extravaganza-epoch/",
      "secao": "legendados",
      "pagina": 86,
      "total_episodios": 2,
      "link_video": "https://animefire.plus/video/ikkitousen-extravaganza-epoch"
    },
    {
      "id": 1606,
      "nome": "Ikkitousen: Great Guardians",
      "link": "https://animefire.plus/animes/ikkitousen-great-guardians-todos-os-episodios",
      "texto_original": "Ikkitousen: Great Guardians",
      "rating": 6.88,
      "classificacao_etaria": "A18",
      "imagem_original": "https://animefire.plus/img/animes/ikkitousen-great-guardians.webp",
      "imagem_pasta": "https://animefire.plus/img/animes/ikkitousen-great-guardians/",
      "secao": "legendados",
      "pagina": 144,
      "total_episodios": 12,
      "link_video": "https://animefire.plus/video/ikkitousen-great-guardians"
    },
    {
      "id": 1607,
      "nome": "Ikkitousen: Western Wolves",
      "link": "https://animefire.plus/animes/ikkitousen-western-wolves-todos-os-episodios",
      "texto_original": "Ikkitousen: Western Wolves",
      "rating": 6.37,
      "classificacao_etaria": "A18",
      "imagem_original": "https://animefire.plus/img/animes/ikkitousen-western-wolves.webp",
      "imagem_pasta": "https://animefire.plus/img/animes/ikkitousen-western-wolves/",
      "secao": "legendados",
      "pagina": 86,
      "total_episodios": 3,
      "link_video": "https://animefire.plus/video/ikkitousen-western-wolves"
    },
    {
      "id": 1608,
      "nome": "Ikkitousen: Xtreme Xecutor",
      "link": "https://animefire.plus/animes/ikkitousen-xtreme-xecutor-todos-os-episodios",
      "texto_original": "Ikkitousen: Xtreme Xecutor",
      "rating": 6.87,
      "classificacao_etaria": "A18",
      "imagem_original": "https://animefire.plus/img/animes/ikkitousen-xtreme-xecutor.webp",
      "imagem_pasta": "https://animefire.plus/img/animes/ikkitousen-xtreme-xecutor/",
      "secao": "legendados",
      "pagina": 149,
      "total_episodios": 12,
      "link_video": "https://animefire.plus/video/ikkitousen-xtreme-xecutor"
    },
    {
      "id": 1609,
      "nome": "Ikoku Meiro no Croisée The Animation",
      "link": "https://animefire.plus/animes/ikoku-meiro-no-croisee-the-animation-todos-os-episodios",
      "texto_original": "Ikoku Meiro no Croisée The Animation",
      "rating": 7.46,
      "classificacao_etaria": null,
      "imagem_original": "https://animefire.plus/img/animes/ikoku-meiro-no-croisee-the-animation.webp",
      "imagem_pasta": "https://animefire.plus/img/animes/ikoku-meiro-no-croisee-the-animation/",
      "secao": "legendados",
      "pagina": 166,
      "total_episodios": 12,
      "link_video": "https://animefire.plus/video/ikoku-meiro-no-croisee-the-animation"
    },
    {
      "id": 1610,
      "nome": "Ima, Soko ni Iru Boku",
      "link": "https://animefire.plus/animes/ima-soko-ni-iru-boku-todos-os-episodios",
      "texto_original": "Ima, Soko ni Iru Boku",
      "rating": 7.72,
      "classificacao_etaria": "A16",
      "imagem_original": "https://animefire.plus/img/animes/ima-soko-ni-iru-boku.webp",
      "imagem_pasta": "https://animefire.plus/img/animes/ima-soko-ni-iru-boku/",
      "secao": "legendados",
      "pagina": 173,
      "total_episodios": 0,
      "link_video": "https://animefire.plus/video/ima-soko-ni-iru-boku"
    },
    {
      "id": 1611,
      "nome": "Imouto Sae Ireba Ii.",
      "link": "https://animefire.plus/animes/imouto-sae-ireba-ii-todos-os-episodios",
      "texto_original": "Imouto Sae Ireba Ii.",
      "rating": 7.44,
      "classificacao_etaria": "A14",
      "imagem_original": "https://animefire.plus/img/animes/imouto-sae-ireba-ii.webp",
      "imagem_pasta": "https://animefire.plus/img/animes/imouto-sae-ireba-ii/",
      "secao": "legendados",
      "pagina": 60,
      "total_episodios": 12,
      "link_video": "https://animefire.plus/video/imouto-sae-ireba-ii"
    },
    {
      "id": 1612,
      "nome": "Inari, Konkon, Koi Iroha.",
      "link": "https://animefire.plus/animes/inari-konkon-koi-iroha-todos-os-episodios",
      "texto_original": "Inari, Konkon, Koi Iroha.",
      "rating": 7.27,
      "classificacao_etaria": "A14",
      "imagem_original": "https://animefire.plus/img/animes/inari-konkon-koi-iroha.webp",
      "imagem_pasta": "https://animefire.plus/img/animes/inari-konkon-koi-iroha/",
      "secao": "legendados",
      "pagina": 154,
      "total_episodios": 10,
      "link_video": "https://animefire.plus/video/inari-konkon-koi-iroha"
    },
    {
      "id": 1613,
      "nome": "Inazuma Eleven",
      "link": "https://animefire.plus/animes/inazuma-eleven-todos-os-episodios",
      "texto_original": "Inazuma Eleven",
      "rating": 7.67,
      "classificacao_etaria": null,
      "imagem_original": "https://animefire.plus/img/animes/inazuma-eleven.webp",
      "imagem_pasta": "https://animefire.plus/img/animes/inazuma-eleven/",
      "secao": "legendados",
      "pagina": 152,
      "total_episodios": 40,
      "link_video": "https://animefire.plus/video/inazuma-eleven"
    },
    {
      "id": 1614,
      "nome": "Inazuma Eleven Go",
      "link": "https://animefire.plus/animes/inazuma-eleven-go-todos-os-episodios",
      "texto_original": "Inazuma Eleven Go",
      "rating": 7.04,
      "classificacao_etaria": null,
      "imagem_original": "https://animefire.plus/img/animes/inazuma-eleven-go.webp",
      "imagem_pasta": "https://animefire.plus/img/animes/inazuma-eleven-go/",
      "secao": "legendados",
      "pagina": 66,
      "total_episodios": 7,
      "link_video": "https://animefire.plus/video/inazuma-eleven-go"
    },
    {
      "id": 1615,
      "nome": "Inazuma Eleven Go: Chrono Stone",
      "link": "https://animefire.plus/animes/inazuma-eleven-go-chrono-stone-todos-os-episodios",
      "texto_original": "Inazuma Eleven Go: Chrono Stone",
      "rating": 7.22,
      "classificacao_etaria": null,
      "imagem_original": "https://animefire.plus/img/animes/inazuma-eleven-go-chrono-stone.webp",
      "imagem_pasta": "https://animefire.plus/img/animes/inazuma-eleven-go-chrono-stone/",
      "secao": "legendados",
      "pagina": 60,
      "total_episodios": 51,
      "link_video": "https://animefire.plus/video/inazuma-eleven-go-chrono-stone"
    },
    {
      "id": 1616,
      "nome": "Inazuma Eleven Go: Galaxy",
      "link": "https://animefire.plus/animes/inazuma-eleven-go-galaxy-todos-os-episodios",
      "texto_original": "Inazuma Eleven Go: Galaxy",
      "rating": 6.87,
      "classificacao_etaria": null,
      "imagem_original": "https://animefire.plus/img/animes/inazuma-eleven-go-galaxy.webp",
      "imagem_pasta": "https://animefire.plus/img/animes/inazuma-eleven-go-galaxy/",
      "secao": "legendados",
      "pagina": 136,
      "total_episodios": 14,
      "link_video": "https://animefire.plus/video/inazuma-eleven-go-galaxy"
    },
    {
      "id": 1617,
      "nome": "Inazuma Eleven: Ares no Tenbin",
      "link": "https://animefire.plus/animes/inazuma-eleven-ares-no-tenbin-todos-os-episodios",
      "texto_original": "Inazuma Eleven: Ares no Tenbin",
      "rating": 6.96,
      "classificacao_etaria": null,
      "imagem_original": "https://animefire.plus/img/animes/inazuma-eleven-ares-no-tenbin.webp",
      "imagem_pasta": "https://animefire.plus/img/animes/inazuma-eleven-ares-no-tenbin/",
      "secao": "legendados",
      "pagina": 123,
      "total_episodios": 23,
      "link_video": "https://animefire.plus/video/inazuma-eleven-ares-no-tenbin"
    },
    {
      "id": 1618,
      "nome": "Inazuma Eleven: Orion no Kokuin",
      "link": "https://animefire.plus/animes/inazuma-eleven-orion-no-kokuin-todos-os-episodios",
      "texto_original": "Inazuma Eleven: Orion no Kokuin",
      "rating": 7.23,
      "classificacao_etaria": null,
      "imagem_original": "https://animefire.plus/img/animes/inazuma-eleven-orion-no-kokuin.webp",
      "imagem_pasta": "https://animefire.plus/img/animes/inazuma-eleven-orion-no-kokuin/",
      "secao": "legendados",
      "pagina": 124,
      "total_episodios": 27,
      "link_video": "https://animefire.plus/video/inazuma-eleven-orion-no-kokuin"
    },
    {
      "id": 1619,
      "nome": "Inferno Cop",
      "link": "https://animefire.plus/animes/inferno-cop-todos-os-episodios",
      "texto_original": "Inferno Cop",
      "rating": 7.3,
      "classificacao_etaria": "A16",
      "imagem_original": "https://animefire.plus/img/animes/inferno-cop.webp",
      "imagem_pasta": "https://animefire.plus/img/animes/inferno-cop/",
      "secao": "legendados",
      "pagina": 73,
      "total_episodios": 13,
      "link_video": "https://animefire.plus/video/inferno-cop"
    },
    {
      "id": 1620,
      "nome": "Infini-T Force",
      "link": "https://animefire.plus/animes/infini-t-force-todos-os-episodios",
      "texto_original": "Infini-T Force",
      "rating": 6.55,
      "classificacao_etaria": "A14",
      "imagem_original": "https://animefire.plus/img/animes/infini-t-force.webp",
      "imagem_pasta": "https://animefire.plus/img/animes/infini-t-force/",
      "secao": "legendados",
      "pagina": 86,
      "total_episodios": 12,
      "link_video": "https://animefire.plus/video/infini-t-force"
    }
  ],
  "pagination": {
    "current_page": 81,
    "per_page": 20,
    "total_items": 4368,
    "total_pages": 219,
    "has_next": true,
    "has_prev": true
  }
}
