{
  "message": "Lista de animes",
  "data": [
    {
      "id": 3441,
      "nome": "Shingeki no Kyojin OVA (Dublado)",
      "link": "https://animefire.plus/animes/shingeki-no-kyojin-ova-dublado-todos-os-episodios",
      "texto_original": "Shingeki no Kyojin OVA (Dublado)",
      "rating": 7.86,
      "classificacao_etaria": "A16",
      "imagem_original": "https://animefire.plus/img/animes/shingeki-no-kyojin-ova.webp",
      "imagem_pasta": "https://animefire.plus/img/animes/shingeki-no-kyojin-ova/",
      "secao": "dublados,legendados",
      "pagina": 11,
      "total_episodios": 3,
      "link_video": "https://animefire.plus/video/shingeki-no-kyojin-ova-dublado"
    },
    {
      "id": 3442,
      "nome": "Shingeki no Kyojin Season 2 (Dublado)",
      "link": "https://animefire.plus/animes/shingeki-no-kyojin-season-2-dublado-todos-os-episodios",
      "texto_original": "Shingeki no Kyojin Season 2 (Dublado)",
      "rating": 8.4,
      "classificacao_etaria": "A16",
      "imagem_original": "https://animefire.plus/img/animes/shingeki-no-kyojin-season-2.webp",
      "imagem_pasta": "https://animefire.plus/img/animes/shingeki-no-kyojin-season-2/",
      "secao": "dublados,legendados",
      "pagina": 19,
      "total_episodios": 12,
      "link_video": "https://animefire.plus/video/shingeki-no-kyojin-season-2-dublado"
    },
    {
      "id": 3443,
      "nome": "Shingeki no Kyojin Season 3 (Dublado)",
      "link": "https://animefire.plus/animes/shingeki-no-kyojin-season-3-dublado-todos-os-episodios",
      "texto_original": "Shingeki no Kyojin Season 3 (Dublado)",
      "rating": 8.54,
      "classificacao_etaria": "A16",
      "imagem_original": "https://animefire.plus/img/animes/shingeki-no-kyojin-season-3.webp",
      "imagem_pasta": "https://animefire.plus/img/animes/shingeki-no-kyojin-season-3/",
      "secao": "dublados,legendados",
      "pagina": 19,
      "total_episodios": 12,
      "link_video": "https://animefire.plus/video/shingeki-no-kyojin-season-3-dublado"
    },
    {
      "id": 3444,
      "nome": "Shingeki no Kyojin Season 3 Part 2 (Dublado)",
      "link": "https://animefire.plus/animes/shingeki-no-kyojin-season-3-part-2-dublado-todos-os-episodios",
      "texto_original": "Shingeki no Kyojin Season 3 Part 2 (Dublado)",
      "rating": 9.07,
      "classificacao_etaria": "A16",
      "imagem_original": "https://animefire.plus/img/animes/shingeki-no-kyojin-season-3-part-2.webp",
      "imagem_pasta": "https://animefire.plus/img/animes/shingeki-no-kyojin-season-3-part-2/",
      "secao": "dublados,legendados",
      "pagina": 19,
      "total_episodios": 10,
      "link_video": "https://animefire.plus/video/shingeki-no-kyojin-season-3-part-2-dublado"
    },
    {
      "id": 3445,
      "nome": "Shingeki no Kyojin: Kuinaki Sentaku (Dublado)",
      "link": "https://animefire.plus/animes/shingeki-no-kyojin-kuinaki-sentaku-dublado-todos-os-episodios",
      "texto_original": "Shingeki no Kyojin: Kuinaki Sentaku (Dublado)",
      "rating": 8.41,
      "classificacao_etaria": "A16",
      "imagem_original": "https://animefire.plus/img/animes/shingeki-no-kyojin-kuinaki-sentaku.webp",
      "imagem_pasta": "https://animefire.plus/img/animes/shingeki-no-kyojin-kuinaki-sentaku/",
      "secao": "dublados,legendados",
      "pagina": 11,
      "total_episodios": 2,
      "link_video": "https://animefire.plus/video/shingeki-no-kyojin-kuinaki-sentaku-dublado"
    },
    {
      "id": 3446,
      "nome": "Shingeki no Kyojin: Lost Girls (Dublado)",
      "link": "https://animefire.plus/animes/shingeki-no-kyojin-lost-girls-dublado-todos-os-episodios",
      "texto_original": "Shingeki no Kyojin: Lost Girls (Dublado)",
      "rating": 7.8,
      "classificacao_etaria": "A16",
      "imagem_original": "https://animefire.plus/img/animes/shingeki-no-kyojin-lost-girls.webp",
      "imagem_pasta": "https://animefire.plus/img/animes/shingeki-no-kyojin-lost-girls/",
      "secao": "dublados,legendados",
      "pagina": 10,
      "total_episodios": 3,
      "link_video": "https://animefire.plus/video/shingeki-no-kyojin-lost-girls-dublado"
    },
    {
      "id": 3447,
      "nome": "Shingeki no Kyojin: The Final Season - Kanketsu-hen",
      "link": "https://animefire.plus/animes/shingeki-no-kyojin-the-final-season-kanketsu-hen-todos-os-episodios",
      "texto_original": "Shingeki no Kyojin: The Final Season - Kanketsu-hen",
      "rating": 8.86,
      "classificacao_etaria": "A16",
      "imagem_original": "https://animefire.plus/img/animes/shingeki-no-kyojin-the-final-season-kanketsu-hen.jpg",
      "imagem_pasta": "https://animefire.plus/img/animes/shingeki-no-kyojin-the-final-season-kanketsu-hen/",
      "secao": "legendados",
      "pagina": 179,
      "total_episodios": 2,
      "link_video": "https://animefire.plus/video/shingeki-no-kyojin-the-final-season-kanketsu-hen"
    },
    {
      "id": 3448,
      "nome": "Shingeki no Kyojin: The Final Season - Kanketsu-hen (Dublado)",
      "link": "https://animefire.plus/animes/shingeki-no-kyojin-the-final-season---kanketsu-hen-dublado-todos-os-episodios",
      "texto_original": "Shingeki no Kyojin: The Final Season - Kanketsu-hen (Dublado)",
      "rating": 8.86,
      "classificacao_etaria": "A16",
      "imagem_original": "https://animefire.plus/img/animes/shingeki-no-kyojin-the-final-season---kanketsu-hen.webp",
      "imagem_pasta": "https://animefire.plus/img/animes/shingeki-no-kyojin-the-final-season---kanketsu-hen/",
      "secao": "dublados",
      "pagina": 28,
      "total_episodios": 1,
      "link_video": "https://animefire.plus/video/shingeki-no-kyojin-the-final-season---kanketsu-hen-dublado"
    },
    {
      "id": 3449,
      "nome": "Shingeki no Kyojin: The Final Season (Dublado)",
      "link": "https://animefire.plus/animes/shingeki-no-kyojin-the-final-season-dublado-todos-os-episodios",
      "texto_original": "Shingeki no Kyojin: The Final Season (Dublado)",
      "rating": 9.14,
      "classificacao_etaria": "A16",
      "imagem_original": "https://animefire.plus/img/animes/shingeki-no-kyojin-the-final-season.webp",
      "imagem_pasta": "https://animefire.plus/img/animes/shingeki-no-kyojin-the-final-season/",
      "secao": "dublados,legendados",
      "pagina": 18,
      "total_episodios": 9,
      "link_video": "https://animefire.plus/video/shingeki-no-kyojin-the-final-season-dublado"
    },
    {
      "id": 3450,
      "nome": "Shingeki no Kyojin: The Final Season Part 2 (Dublado)",
      "link": "https://animefire.plus/animes/shingeki-no-kyojin-the-final-season-part-2-dublado-todos-os-episodios",
      "texto_original": "Shingeki no Kyojin: The Final Season Part 2 (Dublado)",
      "rating": 8.76,
      "classificacao_etaria": "A16",
      "imagem_original": "https://animefire.plus/img/animes/shingeki-no-kyojin-the-final-season-part-2.webp",
      "imagem_pasta": "https://animefire.plus/img/animes/shingeki-no-kyojin-the-final-season-part-2/",
      "secao": "dublados,legendados",
      "pagina": 12,
      "total_episodios": 12,
      "link_video": "https://animefire.plus/video/shingeki-no-kyojin-the-final-season-part-2-dublado"
    },
    {
      "id": 3451,
      "nome": "Shingeki! Kyojin Chuugakkou",
      "link": "https://animefire.plus/animes/shingeki-kyojin-chuugakkou-todos-os-episodios",
      "texto_original": "Shingeki! Kyojin Chuugakkou",
      "rating": 7.07,
      "classificacao_etaria": "A14",
      "imagem_original": "https://animefire.plus/img/animes/shingeki-kyojin-chuugakkou.webp",
      "imagem_pasta": "https://animefire.plus/img/animes/shingeki-kyojin-chuugakkou/",
      "secao": "legendados",
      "pagina": 99,
      "total_episodios": 12,
      "link_video": "https://animefire.plus/video/shingeki-kyojin-chuugakkou"
    },
    {
      "id": 3452,
      "nome": "Shingetsutan Tsukihime (Dublado)",
      "link": "https://animefire.plus/animes/shingetsutan-tsukihime-dublado-todos-os-episodios",
      "texto_original": "Shingetsutan Tsukihime (Dublado)",
      "rating": 6.83,
      "classificacao_etaria": "A16",
      "imagem_original": "https://animefire.plus/img/animes/shingetsutan-tsukihime.webp",
      "imagem_pasta": "https://animefire.plus/img/animes/shingetsutan-tsukihime/",
      "secao": "dublados,legendados",
      "pagina": 8,
      "total_episodios": 12,
      "link_video": "https://animefire.plus/video/shingetsutan-tsukihime-dublado"
    },
    {
      "id": 3453,
      "nome": "Shinigami Bocchan to Kuro Maid (Dublado)",
      "link": "https://animefire.plus/animes/shinigami-bocchan-to-kuro-maid-dublado-todos-os-episodios",
      "texto_original": "Shinigami Bocchan to Kuro Maid (Dublado)",
      "rating": 7.59,
      "classificacao_etaria": "A14",
      "imagem_original": "https://animefire.plus/img/animes/shinigami-bocchan-to-kuro-maid.webp",
      "imagem_pasta": "https://animefire.plus/img/animes/shinigami-bocchan-to-kuro-maid/",
      "secao": "dublados,legendados",
      "pagina": 12,
      "total_episodios": 12,
      "link_video": "https://animefire.plus/video/shinigami-bocchan-to-kuro-maid-dublado"
    },
    {
      "id": 3454,
      "nome": "Shinigami Bocchan to Kuro Maid 2nd Season (Dublado)",
      "link": "https://animefire.plus/animes/shinigami-bocchan-to-kuro-maid-2nd-season-dublado-todos-os-episodios",
      "texto_original": "Shinigami Bocchan to Kuro Maid 2nd Season (Dublado)",
      "rating": 7.62,
      "classificacao_etaria": "A14",
      "imagem_original": "https://animefire.plus/img/animes/shinigami-bocchan-to-kuro-maid-2nd-season.webp",
      "imagem_pasta": "https://animefire.plus/img/animes/shinigami-bocchan-to-kuro-maid-2nd-season/",
      "secao": "dublados,legendados",
      "pagina": 4,
      "total_episodios": 12,
      "link_video": "https://animefire.plus/video/shinigami-bocchan-to-kuro-maid-2nd-season-dublado"
    },
    {
      "id": 3455,
      "nome": "Shinigami Bocchan to Kuro Maid 3rd Season",
      "link": "https://animefire.plus/animes/shinigami-bocchan-to-kuro-maid-3rd-season-todos-os-episodios",
      "texto_original": "Shinigami Bocchan to Kuro Maid 3rd Season",
      "rating": 8.13,
      "classificacao_etaria": "A14",
      "imagem_original": "https://animefire.plus/img/animes/shinigami-bocchan-to-kuro-maid-3rd-season.webp",
      "imagem_pasta": "https://animefire.plus/img/animes/shinigami-bocchan-to-kuro-maid-3rd-season/",
      "secao": "legendados",
      "pagina": 15,
      "total_episodios": 12,
      "link_video": "https://animefire.plus/video/shinigami-bocchan-to-kuro-maid-3rd-season"
    },
    {
      "id": 3456,
      "nome": "Shinigami no Ballad.",
      "link": "https://animefire.plus/animes/shinigami-no-ballad-todos-os-episodios",
      "texto_original": "Shinigami no Ballad.",
      "rating": 6.98,
      "classificacao_etaria": "A14",
      "imagem_original": "https://animefire.plus/img/animes/shinigami-no-ballad.webp",
      "imagem_pasta": "https://animefire.plus/img/animes/shinigami-no-ballad/",
      "secao": "legendados",
      "pagina": 171,
      "total_episodios": 6,
      "link_video": "https://animefire.plus/video/shinigami-no-ballad"
    },
    {
      "id": 3457,
      "nome": "Shining Hearts: Shiawase No Pan",
      "link": "https://animefire.plus/animes/shining-hearts-shiawase-no-pan-todos-os-episodios",
      "texto_original": "Shining Hearts: Shiawase No Pan",
      "rating": 6.18,
      "classificacao_etaria": "A14",
      "imagem_original": "https://animefire.plus/img/animes/shining-hearts-shiawase-no-pan.webp",
      "imagem_pasta": "https://animefire.plus/img/animes/shining-hearts-shiawase-no-pan/",
      "secao": "legendados",
      "pagina": 105,
      "total_episodios": 0,
      "link_video": "https://animefire.plus/video/shining-hearts-shiawase-no-pan"
    },
    {
      "id": 3458,
      "nome": "Shining Tears X Wind",
      "link": "https://animefire.plus/animes/shining-tears-x-wind-todos-os-episodios",
      "texto_original": "Shining Tears X Wind",
      "rating": 6.59,
      "classificacao_etaria": "A14",
      "imagem_original": "https://animefire.plus/img/animes/shining-tears-x-wind.webp",
      "imagem_pasta": "https://animefire.plus/img/animes/shining-tears-x-wind/",
      "secao": "legendados",
      "pagina": 132,
      "total_episodios": 13,
      "link_video": "https://animefire.plus/video/shining-tears-x-wind"
    },
    {
      "id": 3459,
      "nome": "Shinka no Mi: Shiranai Uchi ni Kachigumi Jinsei (Dublado)",
      "link": "https://animefire.plus/animes/shinka-no-mi-shiranai-uchi-ni-kachigumi-jinsei-dublado-todos-os-episodios",
      "texto_original": "Shinka no Mi: Shiranai Uchi ni Kachigumi Jinsei (Dublado)",
      "rating": 6.17,
      "classificacao_etaria": "A14",
      "imagem_original": "https://animefire.plus/img/animes/shinka-no-mi-shiranai-uchi-ni-kachigumi-jinsei.webp",
      "imagem_pasta": "https://animefire.plus/img/animes/shinka-no-mi-shiranai-uchi-ni-kachigumi-jinsei/",
      "secao": "dublados,legendados",
      "pagina": 14,
      "total_episodios": 12,
      "link_video": "https://animefire.plus/video/shinka-no-mi-shiranai-uchi-ni-kachigumi-jinsei-dublado"
    },
    {
      "id": 3460,
      "nome": "Shinkon Gattai Godannar!!",
      "link": "https://animefire.plus/animes/shinkon-gattai-godannar-todos-os-episodios",
      "texto_original": "Shinkon Gattai Godannar!!",
      "rating": 6.77,
      "classificacao_etaria": "A14",
      "imagem_original": "https://animefire.plus/img/animes/shinkon-gattai-godannar.webp",
      "imagem_pasta": "https://animefire.plus/img/animes/shinkon-gattai-godannar/",
      "secao": "legendados",
      "pagina": 132,
      "total_episodios": 13,
      "link_video": "https://animefire.plus/video/shinkon-gattai-godannar"
    }
  ],
  "pagination": {
    "current_page": 173,
    "per_page": 20,
    "total_items": 4368,
    "total_pages": 219,
    "has_next": true,
    "has_prev": true
  }
}
