{
  "message": "Lista de animes",
  "data": [
    {
      "id": 941,
      "nome": "Elfen Lied",
      "link": "https://animefire.plus/animes/elfen-lied-todos-os-episodios",
      "texto_original": "Elfen Lied",
      "rating": 7.7,
      "classificacao_etaria": "A18",
      "imagem_original": "https://animefire.plus/img/animes/elfen-lied.webp",
      "imagem_pasta": "https://animefire.plus/img/animes/elfen-lied/",
      "secao": "legendados",
      "pagina": 130,
      "total_episodios": 13,
      "link_video": "https://animefire.plus/video/elfen-lied"
    },
    {
      "id": 942,
      "nome": "Elsword: El-ui Yeoin",
      "link": "https://animefire.plus/animes/elsword-el-ui-yeoin-todos-os-episodios",
      "texto_original": "Elsword: El-ui Yeoin",
      "rating": 6.26,
      "classificacao_etaria": "A14",
      "imagem_original": "https://animefire.plus/img/animes/elsword-el-ui-yeoin.webp",
      "imagem_pasta": "https://animefire.plus/img/animes/elsword-el-ui-yeoin/",
      "secao": "legendados",
      "pagina": 168,
      "total_episodios": 2,
      "link_video": "https://animefire.plus/video/elsword-el-ui-yeoin"
    },
    {
      "id": 943,
      "nome": "Emiya-san Chi no Kyou no Gohan",
      "link": "https://animefire.plus/animes/emiya-san-chi-no-kyou-no-gohan-todos-os-episodios",
      "texto_original": "Emiya-san Chi no Kyou no Gohan",
      "rating": 7.91,
      "classificacao_etaria": "A14",
      "imagem_original": "https://animefire.plus/img/animes/emiya-san-chi-no-kyou-no-gohan.webp",
      "imagem_pasta": "https://animefire.plus/img/animes/emiya-san-chi-no-kyou-no-gohan/",
      "secao": "legendados",
      "pagina": 162,
      "total_episodios": 5,
      "link_video": "https://animefire.plus/video/emiya-san-chi-no-kyou-no-gohan"
    },
    {
      "id": 944,
      "nome": "Endride",
      "link": "https://animefire.plus/animes/endride-todos-os-episodios",
      "texto_original": "Endride",
      "rating": 5.76,
      "classificacao_etaria": "A14",
      "imagem_original": "https://animefire.plus/img/animes/endride.webp",
      "imagem_pasta": "https://animefire.plus/img/animes/endride/",
      "secao": "legendados",
      "pagina": 159,
      "total_episodios": 5,
      "link_video": "https://animefire.plus/video/endride"
    },
    {
      "id": 945,
      "nome": "Endro~!",
      "link": "https://animefire.plus/animes/endro-todos-os-episodios",
      "texto_original": "Endro~!",
      "rating": 6.95,
      "classificacao_etaria": "A14",
      "imagem_original": "https://animefire.plus/img/animes/endro.webp",
      "imagem_pasta": "https://animefire.plus/img/animes/endro/",
      "secao": "legendados",
      "pagina": 90,
      "total_episodios": 12,
      "link_video": "https://animefire.plus/video/endro"
    },
    {
      "id": 946,
      "nome": "Enen no Shouboutai (Dublado)",
      "link": "https://animefire.plus/animes/enen-no-shouboutai-dublado-todos-os-episodios",
      "texto_original": "Enen no Shouboutai (Dublado)",
      "rating": 7.68,
      "classificacao_etaria": "A14",
      "imagem_original": "https://animefire.plus/img/animes/enen-no-shouboutai.webp",
      "imagem_pasta": "https://animefire.plus/img/animes/enen-no-shouboutai/",
      "secao": "dublados,legendados",
      "pagina": 14,
      "total_episodios": 24,
      "link_video": "https://animefire.plus/video/enen-no-shouboutai-dublado"
    },
    {
      "id": 947,
      "nome": "Enen no Shouboutai: Ni no Shou (Dublado)",
      "link": "https://animefire.plus/animes/enen-no-shouboutai-ni-no-shou-dublado-todos-os-episodios",
      "texto_original": "Enen no Shouboutai: Ni no Shou (Dublado)",
      "rating": 7.76,
      "classificacao_etaria": "A14",
      "imagem_original": "https://animefire.plus/img/animes/enen-no-shouboutai-ni-no-shou.webp",
      "imagem_pasta": "https://animefire.plus/img/animes/enen-no-shouboutai-ni-no-shou/",
      "secao": "dublados,legendados",
      "pagina": 14,
      "total_episodios": 24,
      "link_video": "https://animefire.plus/video/enen-no-shouboutai-ni-no-shou-dublado"
    },
    {
      "id": 948,
      "nome": "Enen no Shouboutai: San no Shou (Dublado)",
      "link": "https://animefire.plus/animes/enen-no-shouboutai-san-no-shou-dublado-todos-os-episodios",
      "texto_original": "Enen no Shouboutai: San no Shou (Dublado)",
      "rating": 7.71,
      "classificacao_etaria": "A14",
      "imagem_original": "https://animefire.plus/img/animes/enen-no-shouboutai-san-no-shou.webp",
      "imagem_pasta": "https://animefire.plus/img/animes/enen-no-shouboutai-san-no-shou/",
      "secao": "dublados,legendados,lancamentos",
      "pagina": 1,
      "total_episodios": 12,
      "link_video": "https://animefire.plus/video/enen-no-shouboutai-san-no-shou-dublado"
    },
    {
      "id": 949,
      "nome": "Engage Kiss",
      "link": "https://animefire.plus/animes/engage-kiss-todos-os-episodios",
      "texto_original": "Engage Kiss",
      "rating": 6.79,
      "classificacao_etaria": "A14",
      "imagem_original": "https://animefire.plus/img/animes/engage-kiss.webp",
      "imagem_pasta": "https://animefire.plus/img/animes/engage-kiss/",
      "secao": "legendados",
      "pagina": 32,
      "total_episodios": 13,
      "link_video": "https://animefire.plus/video/engage-kiss"
    },
    {
      "id": 950,
      "nome": "Ensemble Stars!",
      "link": "https://animefire.plus/animes/ensemble-stars-todos-os-episodios",
      "texto_original": "Ensemble Stars!",
      "rating": 6.83,
      "classificacao_etaria": "A14",
      "imagem_original": "https://animefire.plus/img/animes/ensemble-stars.webp",
      "imagem_pasta": "https://animefire.plus/img/animes/ensemble-stars/",
      "secao": "legendados",
      "pagina": 159,
      "total_episodios": 8,
      "link_video": "https://animefire.plus/video/ensemble-stars"
    },
    {
      "id": 951,
      "nome": "Erementar Gerad",
      "link": "https://animefire.plus/animes/erementar-gerad-todos-os-episodios",
      "texto_original": "Erementar Gerad",
      "rating": 7.37,
      "classificacao_etaria": "A14",
      "imagem_original": "https://animefire.plus/img/animes/erementar-gerad.webp",
      "imagem_pasta": "https://animefire.plus/img/animes/erementar-gerad/",
      "secao": "legendados",
      "pagina": 122,
      "total_episodios": 0,
      "link_video": "https://animefire.plus/video/erementar-gerad"
    },
    {
      "id": 952,
      "nome": "Ergo Proxy",
      "link": "https://animefire.plus/animes/ergo-proxy-todos-os-episodios",
      "texto_original": "Ergo Proxy",
      "rating": 7.97,
      "classificacao_etaria": "A16",
      "imagem_original": "https://animefire.plus/img/animes/ergo-proxy.webp",
      "imagem_pasta": "https://animefire.plus/img/animes/ergo-proxy/",
      "secao": "legendados",
      "pagina": 172,
      "total_episodios": 23,
      "link_video": "https://animefire.plus/video/ergo-proxy"
    },
    {
      "id": 953,
      "nome": "Eromanga-sensei",
      "link": "https://animefire.plus/animes/eromanga-sensei-todos-os-episodios",
      "texto_original": "Eromanga-sensei",
      "rating": 6.79,
      "classificacao_etaria": "A14",
      "imagem_original": "https://animefire.plus/img/animes/eromanga-sensei.webp",
      "imagem_pasta": "https://animefire.plus/img/animes/eromanga-sensei/",
      "secao": "legendados",
      "pagina": 108,
      "total_episodios": 12,
      "link_video": "https://animefire.plus/video/eromanga-sensei"
    },
    {
      "id": 954,
      "nome": "Escha & Logy no Atelier: Tasogare no Sora no Renkinjutsushi",
      "link": "https://animefire.plus/animes/escha-logy-no-atelier-tasogare-no-sora-no-renkinjutsushi-todos-os-episodios",
      "texto_original": "Escha & Logy no Atelier: Tasogare no Sora no Renkinjutsushi",
      "rating": 6.5,
      "classificacao_etaria": "A14",
      "imagem_original": "https://animefire.plus/img/animes/escha-logy-no-atelier-tasogare-no-sora-no-renkinjutsushi.webp",
      "imagem_pasta": "https://animefire.plus/img/animes/escha-logy-no-atelier-tasogare-no-sora-no-renkinjutsushi/",
      "secao": "legendados",
      "pagina": 171,
      "total_episodios": 12,
      "link_video": "https://animefire.plus/video/escha-logy-no-atelier-tasogare-no-sora-no-renkinjutsushi"
    },
    {
      "id": 955,
      "nome": "Escha Chron",
      "link": "https://animefire.plus/animes/escha-chron-todos-os-episodios",
      "texto_original": "Escha Chron",
      "rating": 6.54,
      "classificacao_etaria": "A14",
      "imagem_original": "https://animefire.plus/img/animes/escha-chron.webp",
      "imagem_pasta": "https://animefire.plus/img/animes/escha-chron/",
      "secao": "legendados",
      "pagina": 65,
      "total_episodios": 2,
      "link_video": "https://animefire.plus/video/escha-chron"
    },
    {
      "id": 956,
      "nome": "Estab-Life: Great Escape",
      "link": "https://animefire.plus/animes/estab-life-great-escape-todos-os-episodios",
      "texto_original": "Estab-Life: Great Escape",
      "rating": 6.47,
      "classificacao_etaria": "A14",
      "imagem_original": "https://animefire.plus/img/animes/estab-life-great-escape.webp",
      "imagem_pasta": "https://animefire.plus/img/animes/estab-life-great-escape/",
      "secao": "legendados",
      "pagina": 34,
      "total_episodios": 12,
      "link_video": "https://animefire.plus/video/estab-life-great-escape"
    },
    {
      "id": 957,
      "nome": "Eternal Boys",
      "link": "https://animefire.plus/animes/eternal-boys-todos-os-episodios",
      "texto_original": "Eternal Boys",
      "rating": 6.53,
      "classificacao_etaria": "A14",
      "imagem_original": "https://animefire.plus/img/animes/eternal-boys.webp",
      "imagem_pasta": "https://animefire.plus/img/animes/eternal-boys/",
      "secao": "legendados,lancamentos",
      "pagina": 28,
      "total_episodios": 6,
      "link_video": "https://animefire.plus/video/eternal-boys"
    },
    {
      "id": 958,
      "nome": "Etotama",
      "link": "https://animefire.plus/animes/etotama-todos-os-episodios",
      "texto_original": "Etotama",
      "rating": 6.95,
      "classificacao_etaria": "A14",
      "imagem_original": "https://animefire.plus/img/animes/etotama.webp",
      "imagem_pasta": "https://animefire.plus/img/animes/etotama/",
      "secao": "legendados",
      "pagina": 106,
      "total_episodios": 12,
      "link_video": "https://animefire.plus/video/etotama"
    },
    {
      "id": 959,
      "nome": "Eureka Seven AO",
      "link": "https://animefire.plus/animes/eureka-seven-ao-todos-os-episodios",
      "texto_original": "Eureka Seven AO",
      "rating": 6.78,
      "classificacao_etaria": "A14",
      "imagem_original": "https://animefire.plus/img/animes/eureka-seven-ao.webp",
      "imagem_pasta": "https://animefire.plus/img/animes/eureka-seven-ao/",
      "secao": "legendados",
      "pagina": 135,
      "total_episodios": 24,
      "link_video": "https://animefire.plus/video/eureka-seven-ao"
    },
    {
      "id": 960,
      "nome": "Eve no Jikan",
      "link": "https://animefire.plus/animes/eve-no-jikan-todos-os-episodios",
      "texto_original": "Eve no Jikan",
      "rating": 8.1,
      "classificacao_etaria": "A14",
      "imagem_original": "https://animefire.plus/img/animes/eve-no-jikan.webp",
      "imagem_pasta": "https://animefire.plus/img/animes/eve-no-jikan/",
      "secao": "legendados",
      "pagina": 53,
      "total_episodios": 6,
      "link_video": "https://animefire.plus/video/eve-no-jikan"
    }
  ],
  "pagination": {
    "current_page": 48,
    "per_page": 20,
    "total_items": 4368,
    "total_pages": 219,
    "has_next": true,
    "has_prev": true
  }
}
