{
  "message": "Lista de animes",
  "data": [
    {
      "id": 1741,
      "nome": "JoJo no Kimyou na Bouken Part 3: Stardust Crusaders 2nd Season (Dublado)",
      "link": "https://animefire.plus/animes/jojo-no-kimyou-na-bouken-part-3-stardust-crusaders-2nd-season-dublado-todos-os-episodios",
      "texto_original": "JoJo no Kimyou na Bouken Part 3: Stardust Crusaders 2nd Season (Dublado)",
      "rating": 8.43,
      "classificacao_etaria": "A16",
      "imagem_original": "https://animefire.plus/img/animes/jojo-no-kimyou-na-bouken-part-3-stardust-crusaders-2nd-season.webp",
      "imagem_pasta": "https://animefire.plus/img/animes/jojo-no-kimyou-na-bouken-part-3-stardust-crusaders-2nd-season/",
      "secao": "dublados,legendados",
      "pagina": 15,
      "total_episodios": 24,
      "link_video": "https://animefire.plus/video/jojo-no-kimyou-na-bouken-part-3-stardust-crusaders-2nd-season-dublado"
    },
    {
      "id": 1742,
      "nome": "JoJo no Kimyou na Bouken Part 4: Diamond wa Kudakenai",
      "link": "https://animefire.plus/animes/jojo-no-kimyou-na-bouken-part-4-diamond-wa-kudakenai-todos-os-episodios",
      "texto_original": "JoJo no Kimyou na Bouken Part 4: Diamond wa Kudakenai",
      "rating": 8.59,
      "classificacao_etaria": "A16",
      "imagem_original": "https://animefire.plus/img/animes/jojo-no-kimyou-na-bouken-part-4-diamond-wa-kudakenai.webp",
      "imagem_pasta": "https://animefire.plus/img/animes/jojo-no-kimyou-na-bouken-part-4-diamond-wa-kudakenai/",
      "secao": "legendados",
      "pagina": 90,
      "total_episodios": 39,
      "link_video": "https://animefire.plus/video/jojo-no-kimyou-na-bouken-part-4-diamond-wa-kudakenai"
    },
    {
      "id": 1743,
      "nome": "JoJo no Kimyou na Bouken Part 5: Ougon no Kaze (Dublado)",
      "link": "https://animefire.plus/animes/jojo-no-kimyou-na-bouken-part-5-ougon-no-kaze-dublado-todos-os-episodios",
      "texto_original": "JoJo no Kimyou na Bouken Part 5: Ougon no Kaze (Dublado)",
      "rating": 8.58,
      "classificacao_etaria": "A16",
      "imagem_original": "https://animefire.plus/img/animes/jojo-no-kimyou-na-bouken-part-5-ougon-no-kaze.webp",
      "imagem_pasta": "https://animefire.plus/img/animes/jojo-no-kimyou-na-bouken-part-5-ougon-no-kaze/",
      "secao": "dublados,legendados",
      "pagina": 5,
      "total_episodios": 41,
      "link_video": "https://animefire.plus/video/jojo-no-kimyou-na-bouken-part-5-ougon-no-kaze-dublado"
    },
    {
      "id": 1744,
      "nome": "JoJo no Kimyou na Bouken Part 6: Stone Ocean (Dublado)",
      "link": "https://animefire.plus/animes/jojo-no-kimyou-na-bouken-part-6-stone-ocean-dublado-todos-os-episodios",
      "texto_original": "JoJo no Kimyou na Bouken Part 6: Stone Ocean (Dublado)",
      "rating": 8.08,
      "classificacao_etaria": "A16",
      "imagem_original": "https://animefire.plus/img/animes/jojo-no-kimyou-na-bouken-part-6-stone-ocean.webp",
      "imagem_pasta": "https://animefire.plus/img/animes/jojo-no-kimyou-na-bouken-part-6-stone-ocean/",
      "secao": "dublados,legendados,lancamentos",
      "pagina": 13,
      "total_episodios": 38,
      "link_video": "https://animefire.plus/video/jojo-no-kimyou-na-bouken-part-6-stone-ocean-dublado"
    },
    {
      "id": 1745,
      "nome": "JoJo no Kimyou na Bouken: Adventure",
      "link": "https://animefire.plus/animes/jojo-no-kimyou-na-bouken-adventure-todos-os-episodios",
      "texto_original": "JoJo no Kimyou na Bouken: Adventure",
      "rating": 7.22,
      "classificacao_etaria": "A18",
      "imagem_original": "https://animefire.plus/img/animes/jojo-no-kimyou-na-bouken-adventure.webp",
      "imagem_pasta": "https://animefire.plus/img/animes/jojo-no-kimyou-na-bouken-adventure/",
      "secao": "legendados",
      "pagina": 173,
      "total_episodios": 0,
      "link_video": "https://animefire.plus/video/jojo-no-kimyou-na-bouken-adventure"
    },
    {
      "id": 1746,
      "nome": "Joker Game (Dublado)",
      "link": "https://animefire.plus/animes/joker-game-dublado-todos-os-episodios",
      "texto_original": "Joker Game (Dublado)",
      "rating": 7.08,
      "classificacao_etaria": "A16",
      "imagem_original": "https://animefire.plus/img/animes/joker-game.webp",
      "imagem_pasta": "https://animefire.plus/img/animes/joker-game/",
      "secao": "dublados,legendados",
      "pagina": 24,
      "total_episodios": 12,
      "link_video": "https://animefire.plus/video/joker-game-dublado"
    },
    {
      "id": 1747,
      "nome": "Jormungand",
      "link": "https://animefire.plus/animes/jormungand-todos-os-episodios",
      "texto_original": "Jormungand",
      "rating": 7.91,
      "classificacao_etaria": "A18",
      "imagem_original": "https://animefire.plus/img/animes/jormungand.webp",
      "imagem_pasta": "https://animefire.plus/img/animes/jormungand/",
      "secao": "legendados",
      "pagina": 143,
      "total_episodios": 7,
      "link_video": "https://animefire.plus/video/jormungand"
    },
    {
      "id": 1748,
      "nome": "Jormungand: Perfect Order",
      "link": "https://animefire.plus/animes/jormungand-perfect-order-todos-os-episodios",
      "texto_original": "Jormungand: Perfect Order",
      "rating": 8,
      "classificacao_etaria": "A18",
      "imagem_original": "https://animefire.plus/img/animes/jormungand-perfect-order.webp",
      "imagem_pasta": "https://animefire.plus/img/animes/jormungand-perfect-order/",
      "secao": "legendados",
      "pagina": 147,
      "total_episodios": 0,
      "link_video": "https://animefire.plus/video/jormungand-perfect-order"
    },
    {
      "id": 1749,
      "nome": "Joshikausei",
      "link": "https://animefire.plus/animes/joshikausei-todos-os-episodios",
      "texto_original": "Joshikausei",
      "rating": 5.76,
      "classificacao_etaria": "A14",
      "imagem_original": "https://animefire.plus/img/animes/joshikausei.webp",
      "imagem_pasta": "https://animefire.plus/img/animes/joshikausei/",
      "secao": "legendados",
      "pagina": 138,
      "total_episodios": 0,
      "link_video": "https://animefire.plus/video/joshikausei"
    },
    {
      "id": 1750,
      "nome": "Joshikousei no Mudazukai",
      "link": "https://animefire.plus/animes/joshikousei-no-mudazukai-todos-os-episodios",
      "texto_original": "Joshikousei no Mudazukai",
      "rating": 7.71,
      "classificacao_etaria": "A14",
      "imagem_original": "https://animefire.plus/img/animes/joshikousei-no-mudazukai.webp",
      "imagem_pasta": "https://animefire.plus/img/animes/joshikousei-no-mudazukai/",
      "secao": "legendados",
      "pagina": 112,
      "total_episodios": 5,
      "link_video": "https://animefire.plus/video/joshikousei-no-mudazukai"
    },
    {
      "id": 1751,
      "nome": "Joshiraku",
      "link": "https://animefire.plus/animes/joshiraku-todos-os-episodios",
      "texto_original": "Joshiraku",
      "rating": 7.52,
      "classificacao_etaria": "A14",
      "imagem_original": "https://animefire.plus/img/animes/joshiraku.webp",
      "imagem_pasta": "https://animefire.plus/img/animes/joshiraku/",
      "secao": "legendados",
      "pagina": 149,
      "total_episodios": 4,
      "link_video": "https://animefire.plus/video/joshiraku"
    },
    {
      "id": 1752,
      "nome": "Joukamachi no Dandelion",
      "link": "https://animefire.plus/animes/joukamachi-no-dandelion-todos-os-episodios",
      "texto_original": "Joukamachi no Dandelion",
      "rating": 7.29,
      "classificacao_etaria": "A14",
      "imagem_original": "https://animefire.plus/img/animes/joukamachi-no-dandelion.webp",
      "imagem_pasta": "https://animefire.plus/img/animes/joukamachi-no-dandelion/",
      "secao": "legendados",
      "pagina": 163,
      "total_episodios": 0,
      "link_video": "https://animefire.plus/video/joukamachi-no-dandelion"
    },
    {
      "id": 1753,
      "nome": "Jouran: The Princess of Snow and Blood",
      "link": "https://animefire.plus/animes/jouran-the-princess-of-snow-and-blood-todos-os-episodios",
      "texto_original": "Jouran: The Princess of Snow and Blood",
      "rating": 6.11,
      "classificacao_etaria": "A16",
      "imagem_original": "https://animefire.plus/img/animes/jouran-the-princess-of-snow-and-blood.webp",
      "imagem_pasta": "https://animefire.plus/img/animes/jouran-the-princess-of-snow-and-blood/",
      "secao": "legendados",
      "pagina": 47,
      "total_episodios": 12,
      "link_video": "https://animefire.plus/video/jouran-the-princess-of-snow-and-blood"
    },
    {
      "id": 1754,
      "nome": "Jujutsu Kaisen (Dublado)",
      "link": "https://animefire.plus/animes/jujutsu-kaisen-dublado-todos-os-episodios",
      "texto_original": "Jujutsu Kaisen (Dublado)",
      "rating": 8.66,
      "classificacao_etaria": "A16",
      "imagem_original": "https://animefire.plus/img/animes/jujutsu-kaisen.webp",
      "imagem_pasta": "https://animefire.plus/img/animes/jujutsu-kaisen/",
      "secao": "dublados",
      "pagina": 8,
      "total_episodios": 24,
      "link_video": "https://animefire.plus/video/jujutsu-kaisen-dublado"
    },
    {
      "id": 1755,
      "nome": "Jujutsu Kaisen (TV) (Dublado)",
      "link": "https://animefire.plus/animes/jujutsu-kaisen-tv-dublado-todos-os-episodios",
      "texto_original": "Jujutsu Kaisen (TV) (Dublado)",
      "rating": 8.39,
      "classificacao_etaria": "A16",
      "imagem_original": "https://animefire.plus/img/animes/jujutsu-kaisen-tv.webp",
      "imagem_pasta": "https://animefire.plus/img/animes/jujutsu-kaisen-tv/",
      "secao": "dublados,legendados",
      "pagina": 19,
      "total_episodios": 11,
      "link_video": "https://animefire.plus/video/jujutsu-kaisen-tv-dublado"
    },
    {
      "id": 1756,
      "nome": "Jujutsu Kaisen 2nd Season (Dublado)",
      "link": "https://animefire.plus/animes/jujutsu-kaisen-2nd-season-dublado-todos-os-episodios",
      "texto_original": "Jujutsu Kaisen 2nd Season (Dublado)",
      "rating": 8.74,
      "classificacao_etaria": "A16",
      "imagem_original": "https://animefire.plus/img/animes/jujutsu-kaisen-2nd-season.webp",
      "imagem_pasta": "https://animefire.plus/img/animes/jujutsu-kaisen-2nd-season/",
      "secao": "dublados,legendados",
      "pagina": 6,
      "total_episodios": 23,
      "link_video": "https://animefire.plus/video/jujutsu-kaisen-2nd-season-dublado"
    },
    {
      "id": 1757,
      "nome": "Jungle de Ikou!",
      "link": "https://animefire.plus/animes/jungle-de-ikou-todos-os-episodios",
      "texto_original": "Jungle de Ikou!",
      "rating": 5.51,
      "classificacao_etaria": "A14",
      "imagem_original": "https://animefire.plus/img/animes/jungle-de-ikou.webp",
      "imagem_pasta": "https://animefire.plus/img/animes/jungle-de-ikou/",
      "secao": "legendados",
      "pagina": 137,
      "total_episodios": 3,
      "link_video": "https://animefire.plus/video/jungle-de-ikou"
    },
    {
      "id": 1758,
      "nome": "Junjou Romantica",
      "link": "https://animefire.plus/animes/junjou-romantica-todos-os-episodios",
      "texto_original": "Junjou Romantica",
      "rating": 7.92,
      "classificacao_etaria": "A14",
      "imagem_original": "https://animefire.plus/img/animes/junjou-romantica.webp",
      "imagem_pasta": "https://animefire.plus/img/animes/junjou-romantica/",
      "secao": "legendados",
      "pagina": 139,
      "total_episodios": 12,
      "link_video": "https://animefire.plus/video/junjou-romantica"
    },
    {
      "id": 1759,
      "nome": "Junjou Romantica 2",
      "link": "https://animefire.plus/animes/junjou-romantica-2-todos-os-episodios",
      "texto_original": "Junjou Romantica 2",
      "rating": 8.09,
      "classificacao_etaria": "A14",
      "imagem_original": "https://animefire.plus/img/animes/junjou-romantica-2.webp",
      "imagem_pasta": "https://animefire.plus/img/animes/junjou-romantica-2/",
      "secao": "legendados",
      "pagina": 125,
      "total_episodios": 12,
      "link_video": "https://animefire.plus/video/junjou-romantica-2"
    },
    {
      "id": 1760,
      "nome": "Junjou Romantica 3",
      "link": "https://animefire.plus/animes/junjou-romantica-3-todos-os-episodios",
      "texto_original": "Junjou Romantica 3",
      "rating": 8.03,
      "classificacao_etaria": "A14",
      "imagem_original": "https://animefire.plus/img/animes/junjou-romantica-3.webp",
      "imagem_pasta": "https://animefire.plus/img/animes/junjou-romantica-3/",
      "secao": "legendados",
      "pagina": 179,
      "total_episodios": 1,
      "link_video": "https://animefire.plus/video/junjou-romantica-3"
    }
  ],
  "pagination": {
    "current_page": 88,
    "per_page": 20,
    "total_items": 4368,
    "total_pages": 219,
    "has_next": true,
    "has_prev": true
  }
}
