{
  "message": "Lista de animes",
  "data": [
    {
      "id": 4081,
      "nome": "Vinland Saga Season 2 (Dublado)",
      "link": "https://animefire.plus/animes/vinland-saga-season-2-dublado-todos-os-episodios",
      "texto_original": "Vinland Saga Season 2 (Dublado)",
      "rating": 8.81,
      "classificacao_etaria": "A16",
      "imagem_original": "https://animefire.plus/img/animes/vinland-saga-season-2.webp",
      "imagem_pasta": "https://animefire.plus/img/animes/vinland-saga-season-2/",
      "secao": "dublados,legendados",
      "pagina": 7,
      "total_episodios": 24,
      "link_video": "https://animefire.plus/video/vinland-saga-season-2-dublado"
    },
    {
      "id": 4082,
      "nome": "Violet Evergarden (Dublado)",
      "link": "https://animefire.plus/animes/violet-evergarden-dublado-todos-os-episodios",
      "texto_original": "Violet Evergarden (Dublado)",
      "rating": 8.62,
      "classificacao_etaria": "A14",
      "imagem_original": "https://animefire.plus/img/animes/violet-evergarden.webp",
      "imagem_pasta": "https://animefire.plus/img/animes/violet-evergarden/",
      "secao": "dublados,legendados",
      "pagina": 25,
      "total_episodios": 13,
      "link_video": "https://animefire.plus/video/violet-evergarden-dublado"
    },
    {
      "id": 4083,
      "nome": "Viper's Creed",
      "link": "https://animefire.plus/animes/viper-s-creed-todos-os-episodios",
      "texto_original": "Viper's Creed",
      "rating": 6.8,
      "classificacao_etaria": "A14",
      "imagem_original": "https://animefire.plus/img/animes/viper-s-creed.webp",
      "imagem_pasta": "https://animefire.plus/img/animes/viper-s-creed/",
      "secao": "legendados",
      "pagina": 147,
      "total_episodios": 12,
      "link_video": "https://animefire.plus/video/viper-s-creed"
    },
    {
      "id": 4084,
      "nome": "Virtual-san wa Miteiru",
      "link": "https://animefire.plus/animes/virtual-san-wa-miteiru-todos-os-episodios",
      "texto_original": "Virtual-san wa Miteiru",
      "rating": 5.42,
      "classificacao_etaria": "A14",
      "imagem_original": "https://animefire.plus/img/animes/virtual-san-wa-miteiru.webp",
      "imagem_pasta": "https://animefire.plus/img/animes/virtual-san-wa-miteiru/",
      "secao": "legendados",
      "pagina": 97,
      "total_episodios": 12,
      "link_video": "https://animefire.plus/video/virtual-san-wa-miteiru"
    },
    {
      "id": 4085,
      "nome": "Visual Prison",
      "link": "https://animefire.plus/animes/visual-prison-todos-os-episodios",
      "texto_original": "Visual Prison",
      "rating": 6.72,
      "classificacao_etaria": "A14",
      "imagem_original": "https://animefire.plus/img/animes/visual-prison.webp",
      "imagem_pasta": "https://animefire.plus/img/animes/visual-prison/",
      "secao": "legendados",
      "pagina": 39,
      "total_episodios": 12,
      "link_video": "https://animefire.plus/video/visual-prison"
    },
    {
      "id": 4086,
      "nome": "ViVid Strike!",
      "link": "https://animefire.plus/animes/vivid-strike-todos-os-episodios",
      "texto_original": "ViVid Strike!",
      "rating": 7.22,
      "classificacao_etaria": "A14",
      "imagem_original": "https://animefire.plus/img/animes/vivid-strike.webp",
      "imagem_pasta": "https://animefire.plus/img/animes/vivid-strike/",
      "secao": "legendados",
      "pagina": 142,
      "total_episodios": 5,
      "link_video": "https://animefire.plus/video/vivid-strike"
    },
    {
      "id": 4087,
      "nome": "ViVid Strike! Specials",
      "link": "https://animefire.plus/animes/vivid-strike-specials-todos-os-episodios",
      "texto_original": "ViVid Strike! Specials",
      "rating": 6.71,
      "classificacao_etaria": "A14",
      "imagem_original": "https://animefire.plus/img/animes/vivid-strike-specials.webp",
      "imagem_pasta": "https://animefire.plus/img/animes/vivid-strike-specials/",
      "secao": "legendados",
      "pagina": 68,
      "total_episodios": 1,
      "link_video": "https://animefire.plus/video/vivid-strike-specials"
    },
    {
      "id": 4088,
      "nome": "Vivy: Fluorite Eye's Song (Dublado)",
      "link": "https://animefire.plus/animes/vivy-fluorite-eye-s-song-dublado-todos-os-episodios",
      "texto_original": "Vivy: Fluorite Eye's Song (Dublado)",
      "rating": 8.38,
      "classificacao_etaria": "A16",
      "imagem_original": "https://animefire.plus/img/animes/vivy-fluorite-eye-s-song.webp",
      "imagem_pasta": "https://animefire.plus/img/animes/vivy-fluorite-eye-s-song/",
      "secao": "dublados,legendados",
      "pagina": 15,
      "total_episodios": 13,
      "link_video": "https://animefire.plus/video/vivy-fluorite-eye-s-song-dublado"
    },
    {
      "id": 4089,
      "nome": "Vlad Love",
      "link": "https://animefire.plus/animes/vlad-love-todos-os-episodios",
      "texto_original": "Vlad Love",
      "rating": null,
      "classificacao_etaria": "A14",
      "imagem_original": "https://animefire.plus/img/animes/vlad-love.webp",
      "imagem_pasta": "https://animefire.plus/img/animes/vlad-love/",
      "secao": "legendados",
      "pagina": 49,
      "total_episodios": 12,
      "link_video": "https://animefire.plus/video/vlad-love"
    },
    {
      "id": 4090,
      "nome": "VTuber Nandaga Haishin Kiri Wasuretara Densetsu ni Natteta",
      "link": "https://animefire.plus/animes/vtuber-nandaga-haishin-kiri-wasuretara-densetsu-ni-natteta-todos-os-episodios",
      "texto_original": "VTuber Nandaga Haishin Kiri Wasuretara Densetsu ni Natteta",
      "rating": 7.03,
      "classificacao_etaria": "A14",
      "imagem_original": "https://animefire.plus/img/animes/vtuber-nandaga-haishin-kiri-wasuretara-densetsu-ni-natteta.webp",
      "imagem_pasta": "https://animefire.plus/img/animes/vtuber-nandaga-haishin-kiri-wasuretara-densetsu-ni-natteta/",
      "secao": "legendados",
      "pagina": 11,
      "total_episodios": 12,
      "link_video": "https://animefire.plus/video/vtuber-nandaga-haishin-kiri-wasuretara-densetsu-ni-natteta"
    },
    {
      "id": 4091,
      "nome": "W: Wish",
      "link": "https://animefire.plus/animes/w-wish-todos-os-episodios",
      "texto_original": "W: Wish",
      "rating": 6.24,
      "classificacao_etaria": "A14",
      "imagem_original": "https://animefire.plus/img/animes/w-wish.webp",
      "imagem_pasta": "https://animefire.plus/img/animes/w-wish/",
      "secao": "legendados",
      "pagina": 153,
      "total_episodios": 13,
      "link_video": "https://animefire.plus/video/w-wish"
    },
    {
      "id": 4092,
      "nome": "Waccha PriMagi!",
      "link": "https://animefire.plus/animes/waccha-primagi-todos-os-episodios",
      "texto_original": "Waccha PriMagi!",
      "rating": 7.04,
      "classificacao_etaria": null,
      "imagem_original": "https://animefire.plus/img/animes/waccha-primagi.webp",
      "imagem_pasta": "https://animefire.plus/img/animes/waccha-primagi/",
      "secao": "legendados,lancamentos",
      "pagina": 38,
      "total_episodios": 12,
      "link_video": "https://animefire.plus/video/waccha-primagi"
    },
    {
      "id": 4093,
      "nome": "Wagamama High Spec",
      "link": "https://animefire.plus/animes/wagamama-high-spec-todos-os-episodios",
      "texto_original": "Wagamama High Spec",
      "rating": 5.45,
      "classificacao_etaria": "A14",
      "imagem_original": "https://animefire.plus/img/animes/wagamama-high-spec.webp",
      "imagem_pasta": "https://animefire.plus/img/animes/wagamama-high-spec/",
      "secao": "legendados",
      "pagina": 115,
      "total_episodios": 9,
      "link_video": "https://animefire.plus/video/wagamama-high-spec"
    },
    {
      "id": 4094,
      "nome": "Wagaya no Oinari-sama.",
      "link": "https://animefire.plus/animes/wagaya-no-oinari-sama-todos-os-episodios",
      "texto_original": "Wagaya no Oinari-sama.",
      "rating": 7.26,
      "classificacao_etaria": "A14",
      "imagem_original": "https://animefire.plus/img/animes/wagaya-no-oinari-sama.webp",
      "imagem_pasta": "https://animefire.plus/img/animes/wagaya-no-oinari-sama/",
      "secao": "legendados",
      "pagina": 145,
      "total_episodios": 19,
      "link_video": "https://animefire.plus/video/wagaya-no-oinari-sama"
    },
    {
      "id": 4095,
      "nome": "Wakaba*Girl",
      "link": "https://animefire.plus/animes/wakaba-girl-todos-os-episodios",
      "texto_original": "Wakaba*Girl",
      "rating": 6.92,
      "classificacao_etaria": "A14",
      "imagem_original": "https://animefire.plus/img/animes/wakaba-girl.webp",
      "imagem_pasta": "https://animefire.plus/img/animes/wakaba-girl/",
      "secao": "legendados",
      "pagina": 62,
      "total_episodios": 13,
      "link_video": "https://animefire.plus/video/wakaba-girl"
    },
    {
      "id": 4096,
      "nome": "Wakako-zake",
      "link": "https://animefire.plus/animes/wakako-zake-todos-os-episodios",
      "texto_original": "Wakako-zake",
      "rating": 6.69,
      "classificacao_etaria": "A14",
      "imagem_original": "https://animefire.plus/img/animes/wakako-zake.webp",
      "imagem_pasta": "https://animefire.plus/img/animes/wakako-zake/",
      "secao": "legendados",
      "pagina": 103,
      "total_episodios": 12,
      "link_video": "https://animefire.plus/video/wakako-zake"
    },
    {
      "id": 4097,
      "nome": "Wake Up, Girls!",
      "link": "https://animefire.plus/animes/wake-up-girls-todos-os-episodios",
      "texto_original": "Wake Up, Girls!",
      "rating": 7.01,
      "classificacao_etaria": "A14",
      "imagem_original": "https://animefire.plus/img/animes/wake-up-girls.webp",
      "imagem_pasta": "https://animefire.plus/img/animes/wake-up-girls/",
      "secao": "legendados",
      "pagina": 75,
      "total_episodios": 12,
      "link_video": "https://animefire.plus/video/wake-up-girls"
    },
    {
      "id": 4098,
      "nome": "Wake Up, Girls! Shin Shou",
      "link": "https://animefire.plus/animes/wake-up-girls-shin-shou-todos-os-episodios",
      "texto_original": "Wake Up, Girls! Shin Shou",
      "rating": 6.5,
      "classificacao_etaria": "A14",
      "imagem_original": "https://animefire.plus/img/animes/wake-up-girls-shin-shou.webp",
      "imagem_pasta": "https://animefire.plus/img/animes/wake-up-girls-shin-shou/",
      "secao": "legendados",
      "pagina": 75,
      "total_episodios": 12,
      "link_video": "https://animefire.plus/video/wake-up-girls-shin-shou"
    },
    {
      "id": 4099,
      "nome": "Walkure Romanze",
      "link": "https://animefire.plus/animes/walkure-romanze-todos-os-episodios",
      "texto_original": "Walkure Romanze",
      "rating": 6.49,
      "classificacao_etaria": "A18",
      "imagem_original": "https://animefire.plus/img/animes/walkure-romanze.webp",
      "imagem_pasta": "https://animefire.plus/img/animes/walkure-romanze/",
      "secao": "legendados",
      "pagina": 144,
      "total_episodios": 5,
      "link_video": "https://animefire.plus/video/walkure-romanze"
    },
    {
      "id": 4100,
      "nome": "Wan Jie Xian Zong",
      "link": "https://animefire.plus/animes/wan-jie-xian-zong-todos-os-episodios",
      "texto_original": "Wan Jie Xian Zong",
      "rating": 7.39,
      "classificacao_etaria": "A14",
      "imagem_original": "https://animefire.plus/img/animes/wan-jie-xian-zong.webp",
      "imagem_pasta": "https://animefire.plus/img/animes/wan-jie-xian-zong/",
      "secao": "legendados",
      "pagina": 80,
      "total_episodios": 90,
      "link_video": "https://animefire.plus/video/wan-jie-xian-zong"
    }
  ],
  "pagination": {
    "current_page": 205,
    "per_page": 20,
    "total_items": 4368,
    "total_pages": 219,
    "has_next": true,
    "has_prev": true
  }
}
