{
  "message": "Lista de animes",
  "data": [
    {
      "id": 3041,
      "nome": "Psycho-Pass 2",
      "link": "https://animefire.plus/animes/psycho-pass-2-todos-os-episodios",
      "texto_original": "Psycho-Pass 2",
      "rating": 7.51,
      "classificacao_etaria": "A16",
      "imagem_original": "https://animefire.plus/img/animes/psycho-pass-2.webp",
      "imagem_pasta": "https://animefire.plus/img/animes/psycho-pass-2/",
      "secao": "legendados",
      "pagina": 142,
      "total_episodios": 0,
      "link_video": "https://animefire.plus/video/psycho-pass-2"
    },
    {
      "id": 3042,
      "nome": "Psycho-Pass 3",
      "link": "https://animefire.plus/animes/psycho-pass-3-todos-os-episodios",
      "texto_original": "Psycho-Pass 3",
      "rating": 7.54,
      "classificacao_etaria": "A16",
      "imagem_original": "https://animefire.plus/img/animes/psycho-pass-3.webp",
      "imagem_pasta": "https://animefire.plus/img/animes/psycho-pass-3/",
      "secao": "legendados",
      "pagina": 95,
      "total_episodios": 0,
      "link_video": "https://animefire.plus/video/psycho-pass-3"
    },
    {
      "id": 3043,
      "nome": "Puchi Pri*Yucie",
      "link": "https://animefire.plus/animes/puchi-pri-yucie-todos-os-episodios",
      "texto_original": "Puchi Pri*Yucie",
      "rating": 7.45,
      "classificacao_etaria": null,
      "imagem_original": "https://animefire.plus/img/animes/puchi-pri-yucie.webp",
      "imagem_pasta": "https://animefire.plus/img/animes/puchi-pri-yucie/",
      "secao": "legendados",
      "pagina": 85,
      "total_episodios": 26,
      "link_video": "https://animefire.plus/video/puchi-pri-yucie"
    },
    {
      "id": 3044,
      "nome": "Pugyuru",
      "link": "https://animefire.plus/animes/pugyuru-todos-os-episodios",
      "texto_original": "Pugyuru",
      "rating": 5.79,
      "classificacao_etaria": "A14",
      "imagem_original": "https://animefire.plus/img/animes/pugyuru.webp",
      "imagem_pasta": "https://animefire.plus/img/animes/pugyuru/",
      "secao": "legendados",
      "pagina": 169,
      "total_episodios": 13,
      "link_video": "https://animefire.plus/video/pugyuru"
    },
    {
      "id": 3045,
      "nome": "Pumpkin Scissors",
      "link": "https://animefire.plus/animes/pumpkin-scissors-todos-os-episodios",
      "texto_original": "Pumpkin Scissors",
      "rating": 7.21,
      "classificacao_etaria": "A16",
      "imagem_original": "https://animefire.plus/img/animes/pumpkin-scissors.webp",
      "imagem_pasta": "https://animefire.plus/img/animes/pumpkin-scissors/",
      "secao": "legendados",
      "pagina": 115,
      "total_episodios": 0,
      "link_video": "https://animefire.plus/video/pumpkin-scissors"
    },
    {
      "id": 3046,
      "nome": "Punch Line",
      "link": "https://animefire.plus/animes/punch-line-todos-os-episodios",
      "texto_original": "Punch Line",
      "rating": 7.05,
      "classificacao_etaria": "A14",
      "imagem_original": "https://animefire.plus/img/animes/punch-line.webp",
      "imagem_pasta": "https://animefire.plus/img/animes/punch-line/",
      "secao": "legendados",
      "pagina": 64,
      "total_episodios": 12,
      "link_video": "https://animefire.plus/video/punch-line"
    },
    {
      "id": 3047,
      "nome": "Puniru wa Kawaii Slime",
      "link": "https://animefire.plus/animes/puniru-wa-kawaii-slime-todos-os-episodios",
      "texto_original": "Puniru wa Kawaii Slime",
      "rating": 6.91,
      "classificacao_etaria": "A16",
      "imagem_original": "https://animefire.plus/img/animes/puniru-wa-kawaii-slime.webp",
      "imagem_pasta": "https://animefire.plus/img/animes/puniru-wa-kawaii-slime/",
      "secao": "legendados",
      "pagina": 9,
      "total_episodios": 12,
      "link_video": "https://animefire.plus/video/puniru-wa-kawaii-slime"
    },
    {
      "id": 3048,
      "nome": "Puniru wa Kawaii Slime 2nd Season",
      "link": "https://animefire.plus/animes/puniru-wa-kawaii-slime-2nd-season-todos-os-episodios",
      "texto_original": "Puniru wa Kawaii Slime 2nd Season",
      "rating": 7.03,
      "classificacao_etaria": "A14",
      "imagem_original": "https://animefire.plus/img/animes/puniru-wa-kawaii-slime-2nd-season.webp",
      "imagem_pasta": "https://animefire.plus/img/animes/puniru-wa-kawaii-slime-2nd-season/",
      "secao": "legendados,lancamentos",
      "pagina": 1,
      "total_episodios": 5,
      "link_video": "https://animefire.plus/video/puniru-wa-kawaii-slime-2nd-season"
    },
    {
      "id": 3049,
      "nome": "Pupa",
      "link": "https://animefire.plus/animes/pupa-todos-os-episodios",
      "texto_original": "Pupa",
      "rating": 3.63,
      "classificacao_etaria": "A16",
      "imagem_original": "https://animefire.plus/img/animes/pupa.webp",
      "imagem_pasta": "https://animefire.plus/img/animes/pupa/",
      "secao": "legendados",
      "pagina": 173,
      "total_episodios": 12,
      "link_video": "https://animefire.plus/video/pupa"
    },
    {
      "id": 3050,
      "nome": "Pupipo!",
      "link": "https://animefire.plus/animes/pupipo-todos-os-episodios",
      "texto_original": "Pupipo!",
      "rating": 6.83,
      "classificacao_etaria": "A10",
      "imagem_original": "https://animefire.plus/img/animes/pupipo.webp",
      "imagem_pasta": "https://animefire.plus/img/animes/pupipo/",
      "secao": "legendados",
      "pagina": 79,
      "total_episodios": 14,
      "link_video": "https://animefire.plus/video/pupipo"
    },
    {
      "id": 3051,
      "nome": "Puraore! Pride of Orange",
      "link": "https://animefire.plus/animes/puraore-pride-of-orange-todos-os-episodios",
      "texto_original": "Puraore! Pride of Orange",
      "rating": 6.23,
      "classificacao_etaria": "A14",
      "imagem_original": "https://animefire.plus/img/animes/puraore-pride-of-orange.webp",
      "imagem_pasta": "https://animefire.plus/img/animes/puraore-pride-of-orange/",
      "secao": "legendados",
      "pagina": 38,
      "total_episodios": 12,
      "link_video": "https://animefire.plus/video/puraore-pride-of-orange"
    },
    {
      "id": 3052,
      "nome": "Qualidea Code",
      "link": "https://animefire.plus/animes/qualidea-code-todos-os-episodios",
      "texto_original": "Qualidea Code",
      "rating": 6.58,
      "classificacao_etaria": "A14",
      "imagem_original": "https://animefire.plus/img/animes/qualidea-code.webp",
      "imagem_pasta": "https://animefire.plus/img/animes/qualidea-code/",
      "secao": "legendados",
      "pagina": 80,
      "total_episodios": 12,
      "link_video": "https://animefire.plus/video/qualidea-code"
    },
    {
      "id": 3053,
      "nome": "Quanzhi Fashi",
      "link": "https://animefire.plus/animes/quanzhi-fashi-todos-os-episodios",
      "texto_original": "Quanzhi Fashi",
      "rating": 7.47,
      "classificacao_etaria": "A14",
      "imagem_original": "https://animefire.plus/img/animes/quanzhi-fashi.webp",
      "imagem_pasta": "https://animefire.plus/img/animes/quanzhi-fashi/",
      "secao": "legendados",
      "pagina": 104,
      "total_episodios": 42,
      "link_video": "https://animefire.plus/video/quanzhi-fashi"
    },
    {
      "id": 3054,
      "nome": "Quanzhi Fashi 2nd Season",
      "link": "https://animefire.plus/animes/quanzhi-fashi-2nd-season-todos-os-episodios",
      "texto_original": "Quanzhi Fashi 2nd Season",
      "rating": 6.76,
      "classificacao_etaria": "A14",
      "imagem_original": "https://animefire.plus/img/animes/quanzhi-fashi-2nd-season.webp",
      "imagem_pasta": "https://animefire.plus/img/animes/quanzhi-fashi-2nd-season/",
      "secao": "legendados",
      "pagina": 177,
      "total_episodios": 12,
      "link_video": "https://animefire.plus/video/quanzhi-fashi-2nd-season"
    },
    {
      "id": 3055,
      "nome": "Quanzhi Fashi 3rd Season",
      "link": "https://animefire.plus/animes/quanzhi-fashi-3rd-season-todos-os-episodios",
      "texto_original": "Quanzhi Fashi 3rd Season",
      "rating": 7.56,
      "classificacao_etaria": "A14",
      "imagem_original": "https://animefire.plus/img/animes/quanzhi-fashi-3rd-season.webp",
      "imagem_pasta": "https://animefire.plus/img/animes/quanzhi-fashi-3rd-season/",
      "secao": "legendados",
      "pagina": 85,
      "total_episodios": 12,
      "link_video": "https://animefire.plus/video/quanzhi-fashi-3rd-season"
    },
    {
      "id": 3056,
      "nome": "Quanzhi Fashi 4th Season",
      "link": "https://animefire.plus/animes/quanzhi-fashi-4th-season-todos-os-episodios",
      "texto_original": "Quanzhi Fashi 4th Season",
      "rating": 7.34,
      "classificacao_etaria": "A14",
      "imagem_original": "https://animefire.plus/img/animes/quanzhi-fashi-4th-season.webp",
      "imagem_pasta": "https://animefire.plus/img/animes/quanzhi-fashi-4th-season/",
      "secao": "legendados",
      "pagina": 61,
      "total_episodios": 12,
      "link_video": "https://animefire.plus/video/quanzhi-fashi-4th-season"
    },
    {
      "id": 3057,
      "nome": "Quanzhi Gaoshou",
      "link": "https://animefire.plus/animes/quanzhi-gaoshou-todos-os-episodios",
      "texto_original": "Quanzhi Gaoshou",
      "rating": 8.09,
      "classificacao_etaria": "A14",
      "imagem_original": "https://animefire.plus/img/animes/quanzhi-gaoshou.webp",
      "imagem_pasta": "https://animefire.plus/img/animes/quanzhi-gaoshou/",
      "secao": "legendados",
      "pagina": 162,
      "total_episodios": 12,
      "link_video": "https://animefire.plus/video/quanzhi-gaoshou"
    },
    {
      "id": 3058,
      "nome": "Quanzhi Gaoshou 2",
      "link": "https://animefire.plus/animes/quanzhi-gaoshou-2-todos-os-episodios",
      "texto_original": "Quanzhi Gaoshou 2",
      "rating": 8.04,
      "classificacao_etaria": "A14",
      "imagem_original": "https://animefire.plus/img/animes/quanzhi-gaoshou-2.webp",
      "imagem_pasta": "https://animefire.plus/img/animes/quanzhi-gaoshou-2/",
      "secao": "legendados",
      "pagina": 53,
      "total_episodios": 12,
      "link_video": "https://animefire.plus/video/quanzhi-gaoshou-2"
    },
    {
      "id": 3059,
      "nome": "Queen's Blade: Gyokuza wo Tsugu Mono",
      "link": "https://animefire.plus/animes/queen-s-blade-gyokuza-wo-tsugu-mono-todos-os-episodios",
      "texto_original": "Queen's Blade: Gyokuza wo Tsugu Mono",
      "rating": 6.66,
      "classificacao_etaria": "A18",
      "imagem_original": "https://animefire.plus/img/animes/queen-s-blade-gyokuza-wo-tsugu-mono.webp",
      "imagem_pasta": "https://animefire.plus/img/animes/queen-s-blade-gyokuza-wo-tsugu-mono/",
      "secao": "legendados",
      "pagina": 141,
      "total_episodios": 12,
      "link_video": "https://animefire.plus/video/queen-s-blade-gyokuza-wo-tsugu-mono"
    },
    {
      "id": 3060,
      "nome": "Queen's Blade: Rebellion",
      "link": "https://animefire.plus/animes/queen-s-blade-rebellion-todos-os-episodios",
      "texto_original": "Queen's Blade: Rebellion",
      "rating": 6.42,
      "classificacao_etaria": "A18",
      "imagem_original": "https://animefire.plus/img/animes/queen-s-blade-rebellion.webp",
      "imagem_pasta": "https://animefire.plus/img/animes/queen-s-blade-rebellion/",
      "secao": "legendados",
      "pagina": 178,
      "total_episodios": 0,
      "link_video": "https://animefire.plus/video/queen-s-blade-rebellion"
    }
  ],
  "pagination": {
    "current_page": 153,
    "per_page": 20,
    "total_items": 4368,
    "total_pages": 219,
    "has_next": true,
    "has_prev": true
  }
}
