{
  "message": "Lista de animes",
  "data": [
    {
      "id": 3401,
      "nome": "Shiguang Dailiren: Yingdu Pian",
      "link": "https://animefire.plus/animes/shiguang-dailiren-yingdu-pian-todos-os-episodios",
      "texto_original": "Shiguang Dailiren: Yingdu Pian",
      "rating": 8.31,
      "classificacao_etaria": "A14",
      "imagem_original": "https://animefire.plus/img/animes/shiguang-dailiren-yingdu-pian.webp",
      "imagem_pasta": "https://animefire.plus/img/animes/shiguang-dailiren-yingdu-pian/",
      "secao": "legendados",
      "pagina": 7,
      "total_episodios": 6,
      "link_video": "https://animefire.plus/video/shiguang-dailiren-yingdu-pian"
    },
    {
      "id": 3402,
      "nome": "Shiguang Guiyu",
      "link": "https://animefire.plus/animes/shiguang-guiyu-todos-os-episodios",
      "texto_original": "Shiguang Guiyu",
      "rating": 5.49,
      "classificacao_etaria": "A16",
      "imagem_original": "https://animefire.plus/img/animes/shiguang-guiyu.webp",
      "imagem_pasta": "https://animefire.plus/img/animes/shiguang-guiyu/",
      "secao": "legendados",
      "pagina": 133,
      "total_episodios": 10,
      "link_video": "https://animefire.plus/video/shiguang-guiyu"
    },
    {
      "id": 3403,
      "nome": "Shigurui",
      "link": "https://animefire.plus/animes/shigurui-todos-os-episodios",
      "texto_original": "Shigurui",
      "rating": 7.47,
      "classificacao_etaria": "A18",
      "imagem_original": "https://animefire.plus/img/animes/shigurui.webp",
      "imagem_pasta": "https://animefire.plus/img/animes/shigurui/",
      "secao": "legendados",
      "pagina": 151,
      "total_episodios": 12,
      "link_video": "https://animefire.plus/video/shigurui"
    },
    {
      "id": 3404,
      "nome": "Shijou Saikyou no Daimaou, Murabito A ni Tensei suru (Dublado)",
      "link": "https://animefire.plus/animes/shijou-saikyou-no-daimaou-murabito-a-ni-tensei-suru-dublado-todos-os-episodios",
      "texto_original": "Shijou Saikyou no Daimaou, Murabito A ni Tensei suru (Dublado)",
      "rating": 6.29,
      "classificacao_etaria": "A14",
      "imagem_original": "https://animefire.plus/img/animes/shijou-saikyou-no-daimaou-murabito-a-ni-tensei-suru.webp",
      "imagem_pasta": "https://animefire.plus/img/animes/shijou-saikyou-no-daimaou-murabito-a-ni-tensei-suru/",
      "secao": "dublados,legendados",
      "pagina": 11,
      "total_episodios": 12,
      "link_video": "https://animefire.plus/video/shijou-saikyou-no-daimaou-murabito-a-ni-tensei-suru-dublado"
    },
    {
      "id": 3405,
      "nome": "Shijou Saikyou no Deshi Kenichi (Dublado)",
      "link": "https://animefire.plus/animes/shijou-saikyou-no-deshi-kenichi-dublado-todos-os-episodios",
      "texto_original": "Shijou Saikyou no Deshi Kenichi (Dublado)",
      "rating": 8.05,
      "classificacao_etaria": "A14",
      "imagem_original": "https://animefire.plus/img/animes/shijou-saikyou-no-deshi-kenichi.webp",
      "imagem_pasta": "https://animefire.plus/img/animes/shijou-saikyou-no-deshi-kenichi/",
      "secao": "dublados,legendados",
      "pagina": 3,
      "total_episodios": 41,
      "link_video": "https://animefire.plus/video/shijou-saikyou-no-deshi-kenichi-dublado"
    },
    {
      "id": 3406,
      "nome": "Shijou Saikyou no Deshi Kenichi OVA",
      "link": "https://animefire.plus/animes/shijou-saikyou-no-deshi-kenichi-ova-todos-os-episodios",
      "texto_original": "Shijou Saikyou no Deshi Kenichi OVA",
      "rating": 7.96,
      "classificacao_etaria": "A18",
      "imagem_original": "https://animefire.plus/img/animes/shijou-saikyou-no-deshi-kenichi-ova.webp",
      "imagem_pasta": "https://animefire.plus/img/animes/shijou-saikyou-no-deshi-kenichi-ova/",
      "secao": "legendados",
      "pagina": 65,
      "total_episodios": 1,
      "link_video": "https://animefire.plus/video/shijou-saikyou-no-deshi-kenichi-ova"
    },
    {
      "id": 3407,
      "nome": "Shikabane Hime: Aka",
      "link": "https://animefire.plus/animes/shikabane-hime-aka-todos-os-episodios",
      "texto_original": "Shikabane Hime: Aka",
      "rating": 7.31,
      "classificacao_etaria": "A16",
      "imagem_original": "https://animefire.plus/img/animes/shikabane-hime-aka.webp",
      "imagem_pasta": "https://animefire.plus/img/animes/shikabane-hime-aka/",
      "secao": "legendados",
      "pagina": 177,
      "total_episodios": 12,
      "link_video": "https://animefire.plus/video/shikabane-hime-aka"
    },
    {
      "id": 3408,
      "nome": "Shikabane Hime: Kuro",
      "link": "https://animefire.plus/animes/shikabane-hime-kuro-todos-os-episodios",
      "texto_original": "Shikabane Hime: Kuro",
      "rating": 7.38,
      "classificacao_etaria": "A16",
      "imagem_original": "https://animefire.plus/img/animes/shikabane-hime-kuro.webp",
      "imagem_pasta": "https://animefire.plus/img/animes/shikabane-hime-kuro/",
      "secao": "legendados",
      "pagina": 147,
      "total_episodios": 12,
      "link_video": "https://animefire.plus/video/shikabane-hime-kuro"
    },
    {
      "id": 3409,
      "nome": "Shikanoko Nokonoko Koshitantan (Dublado)",
      "link": "https://animefire.plus/animes/shikanoko-nokonoko-koshitantan-dublado-todos-os-episodios",
      "texto_original": "Shikanoko Nokonoko Koshitantan (Dublado)",
      "rating": 6.98,
      "classificacao_etaria": "A14",
      "imagem_original": "https://animefire.plus/img/animes/shikanoko-nokonoko-koshitantan.webp",
      "imagem_pasta": "https://animefire.plus/img/animes/shikanoko-nokonoko-koshitantan/",
      "secao": "dublados,legendados,lancamentos",
      "pagina": 2,
      "total_episodios": 12,
      "link_video": "https://animefire.plus/video/shikanoko-nokonoko-koshitantan-dublado"
    },
    {
      "id": 3410,
      "nome": "Shiki",
      "link": "https://animefire.plus/animes/shiki-todos-os-episodios",
      "texto_original": "Shiki",
      "rating": 7.87,
      "classificacao_etaria": "A16",
      "imagem_original": "https://animefire.plus/img/animes/shiki.webp",
      "imagem_pasta": "https://animefire.plus/img/animes/shiki/",
      "secao": "legendados",
      "pagina": 154,
      "total_episodios": 22,
      "link_video": "https://animefire.plus/video/shiki"
    },
    {
      "id": 3411,
      "nome": "Shikizakura",
      "link": "https://animefire.plus/animes/shikizakura-todos-os-episodios",
      "texto_original": "Shikizakura",
      "rating": 5.83,
      "classificacao_etaria": "A14",
      "imagem_original": "https://animefire.plus/img/animes/shikizakura.webp",
      "imagem_pasta": "https://animefire.plus/img/animes/shikizakura/",
      "secao": "legendados",
      "pagina": 37,
      "total_episodios": 12,
      "link_video": "https://animefire.plus/video/shikizakura"
    },
    {
      "id": 3412,
      "nome": "Shikkakumon no Saikyou Kenja (Dublado)",
      "link": "https://animefire.plus/animes/shikkakumon-no-saikyou-kenja-dublado-todos-os-episodios",
      "texto_original": "Shikkakumon no Saikyou Kenja (Dublado)",
      "rating": 6.22,
      "classificacao_etaria": "A14",
      "imagem_original": "https://animefire.plus/img/animes/shikkakumon-no-saikyou-kenja.webp",
      "imagem_pasta": "https://animefire.plus/img/animes/shikkakumon-no-saikyou-kenja/",
      "secao": "dublados,legendados",
      "pagina": 12,
      "total_episodios": 12,
      "link_video": "https://animefire.plus/video/shikkakumon-no-saikyou-kenja-dublado"
    },
    {
      "id": 3413,
      "nome": "Shimoneta to Iu Gainen ga Sonzai Shinai Taikutsu na Sekai",
      "link": "https://animefire.plus/animes/shimoneta-to-iu-gainen-ga-sonzai-shinai-taikutsu-na-sekai-todos-os-episodios",
      "texto_original": "Shimoneta to Iu Gainen ga Sonzai Shinai Taikutsu na Sekai",
      "rating": 7.46,
      "classificacao_etaria": "A18",
      "imagem_original": "https://animefire.plus/img/animes/shimoneta-to-iu-gainen-ga-sonzai-shinai-taikutsu-na-sekai.webp",
      "imagem_pasta": "https://animefire.plus/img/animes/shimoneta-to-iu-gainen-ga-sonzai-shinai-taikutsu-na-sekai/",
      "secao": "legendados",
      "pagina": 125,
      "total_episodios": 1,
      "link_video": "https://animefire.plus/video/shimoneta-to-iu-gainen-ga-sonzai-shinai-taikutsu-na-sekai"
    },
    {
      "id": 3414,
      "nome": "Shin Chuuka Ichiban!",
      "link": "https://animefire.plus/animes/shin-chuuka-ichiban-todos-os-episodios",
      "texto_original": "Shin Chuuka Ichiban!",
      "rating": 6.4,
      "classificacao_etaria": "A14",
      "imagem_original": "https://animefire.plus/img/animes/shin-chuuka-ichiban.webp",
      "imagem_pasta": "https://animefire.plus/img/animes/shin-chuuka-ichiban/",
      "secao": "legendados",
      "pagina": 110,
      "total_episodios": 0,
      "link_video": "https://animefire.plus/video/shin-chuuka-ichiban"
    },
    {
      "id": 3415,
      "nome": "Shin Chuuka Ichiban! 2nd Season",
      "link": "https://animefire.plus/animes/shin-chuuka-ichiban-2nd-season-todos-os-episodios",
      "texto_original": "Shin Chuuka Ichiban! 2nd Season",
      "rating": 6.68,
      "classificacao_etaria": "A14",
      "imagem_original": "https://animefire.plus/img/animes/shin-chuuka-ichiban-2nd-season.webp",
      "imagem_pasta": "https://animefire.plus/img/animes/shin-chuuka-ichiban-2nd-season/",
      "secao": "legendados,lancamentos",
      "pagina": 48,
      "total_episodios": 6,
      "link_video": "https://animefire.plus/video/shin-chuuka-ichiban-2nd-season"
    },
    {
      "id": 3416,
      "nome": "Shin Cutey Honey",
      "link": "https://animefire.plus/animes/shin-cutey-honey-todos-os-episodios",
      "texto_original": "Shin Cutey Honey",
      "rating": 6.67,
      "classificacao_etaria": "A18",
      "imagem_original": "https://animefire.plus/img/animes/shin-cutey-honey.webp",
      "imagem_pasta": "https://animefire.plus/img/animes/shin-cutey-honey/",
      "secao": "legendados",
      "pagina": 83,
      "total_episodios": 8,
      "link_video": "https://animefire.plus/video/shin-cutey-honey"
    },
    {
      "id": 3417,
      "nome": "Shin Ikkitousen",
      "link": "https://animefire.plus/animes/shin-ikkitousen-todos-os-episodios",
      "texto_original": "Shin Ikkitousen",
      "rating": 5.83,
      "classificacao_etaria": "A18",
      "imagem_original": "https://animefire.plus/img/animes/shin-ikkitousen.webp",
      "imagem_pasta": "https://animefire.plus/img/animes/shin-ikkitousen/",
      "secao": "legendados",
      "pagina": 34,
      "total_episodios": 3,
      "link_video": "https://animefire.plus/video/shin-ikkitousen"
    },
    {
      "id": 3418,
      "nome": "Shin Koihime†Musou",
      "link": "https://animefire.plus/animes/shin-koihime-musou-todos-os-episodios",
      "texto_original": "Shin Koihime†Musou",
      "rating": 6.91,
      "classificacao_etaria": "A18",
      "imagem_original": "https://animefire.plus/img/animes/shin-koihime-musou.webp",
      "imagem_pasta": "https://animefire.plus/img/animes/shin-koihime-musou/",
      "secao": "legendados",
      "pagina": 175,
      "total_episodios": 12,
      "link_video": "https://animefire.plus/video/shin-koihime-musou"
    },
    {
      "id": 3419,
      "nome": "Shin Koihime†Musou: Live Revolution",
      "link": "https://animefire.plus/animes/shin-koihime-musou-live-revolution-todos-os-episodios",
      "texto_original": "Shin Koihime†Musou: Live Revolution",
      "rating": 6.61,
      "classificacao_etaria": "A14",
      "imagem_original": "https://animefire.plus/img/animes/shin-koihime-musou-live-revolution.webp",
      "imagem_pasta": "https://animefire.plus/img/animes/shin-koihime-musou-live-revolution/",
      "secao": "legendados",
      "pagina": 72,
      "total_episodios": 1,
      "link_video": "https://animefire.plus/video/shin-koihime-musou-live-revolution"
    },
    {
      "id": 3420,
      "nome": "Shin Kujakuou",
      "link": "https://animefire.plus/animes/shin-kujakuou-todos-os-episodios",
      "texto_original": "Shin Kujakuou",
      "rating": 6.06,
      "classificacao_etaria": "A18",
      "imagem_original": "https://animefire.plus/img/animes/shin-kujakuou.webp",
      "imagem_pasta": "https://animefire.plus/img/animes/shin-kujakuou/",
      "secao": "legendados",
      "pagina": 83,
      "total_episodios": 2,
      "link_video": "https://animefire.plus/video/shin-kujakuou"
    }
  ],
  "pagination": {
    "current_page": 171,
    "per_page": 20,
    "total_items": 4368,
    "total_pages": 219,
    "has_next": true,
    "has_prev": true
  }
}
