{
  "message": "Lista de animes",
  "data": [
    {
      "id": 2001,
      "nome": "King's Raid: Ishi wo Tsugumono-tachi",
      "link": "https://animefire.plus/animes/king-s-raid-ishi-wo-tsugumono-tachi-todos-os-episodios",
      "texto_original": "King's Raid: Ishi wo Tsugumono-tachi",
      "rating": null,
      "classificacao_etaria": "A14",
      "imagem_original": "https://animefire.plus/img/animes/king-s-raid-ishi-wo-tsugumono-tachi.webp",
      "imagem_pasta": "https://animefire.plus/img/animes/king-s-raid-ishi-wo-tsugumono-tachi/",
      "secao": "legendados",
      "pagina": 52,
      "total_episodios": 26,
      "link_video": "https://animefire.plus/video/king-s-raid-ishi-wo-tsugumono-tachi"
    },
    {
      "id": 2002,
      "nome": "Kingdom",
      "link": "https://animefire.plus/animes/kingdom-todos-os-episodios",
      "texto_original": "Kingdom",
      "rating": 8.14,
      "classificacao_etaria": "A16",
      "imagem_original": "https://animefire.plus/img/animes/kingdom.webp",
      "imagem_pasta": "https://animefire.plus/img/animes/kingdom/",
      "secao": "legendados",
      "pagina": 141,
      "total_episodios": 5,
      "link_video": "https://animefire.plus/video/kingdom"
    },
    {
      "id": 2003,
      "nome": "Kingdom 2nd Season",
      "link": "https://animefire.plus/animes/kingdom-2nd-season-todos-os-episodios",
      "texto_original": "Kingdom 2nd Season",
      "rating": 8.43,
      "classificacao_etaria": "A16",
      "imagem_original": "https://animefire.plus/img/animes/kingdom-2nd-season.webp",
      "imagem_pasta": "https://animefire.plus/img/animes/kingdom-2nd-season/",
      "secao": "legendados",
      "pagina": 177,
      "total_episodios": 21,
      "link_video": "https://animefire.plus/video/kingdom-2nd-season"
    },
    {
      "id": 2004,
      "nome": "Kingdom 3rd Season",
      "link": "https://animefire.plus/animes/kingdom-3rd-season-todos-os-episodios",
      "texto_original": "Kingdom 3rd Season",
      "rating": 8.41,
      "classificacao_etaria": null,
      "imagem_original": "https://animefire.plus/img/animes/kingdom-3rd-season.webp",
      "imagem_pasta": "https://animefire.plus/img/animes/kingdom-3rd-season/",
      "secao": "legendados,lancamentos",
      "pagina": 81,
      "total_episodios": 26,
      "link_video": "https://animefire.plus/video/kingdom-3rd-season"
    },
    {
      "id": 2005,
      "nome": "Kingdom 4th Season",
      "link": "https://animefire.plus/animes/kingdom-4-todos-os-episodios",
      "texto_original": "Kingdom 4th Season",
      "rating": 8.73,
      "classificacao_etaria": "A16",
      "imagem_original": "https://animefire.plus/img/animes/kingdom-4.webp",
      "imagem_pasta": "https://animefire.plus/img/animes/kingdom-4/",
      "secao": "legendados",
      "pagina": 33,
      "total_episodios": 26,
      "link_video": "https://animefire.plus/video/kingdom-4"
    },
    {
      "id": 2006,
      "nome": "Kingdom 5th Season",
      "link": "https://animefire.plus/animes/kingdom-5th-season-todos-os-episodios",
      "texto_original": "Kingdom 5th Season",
      "rating": 8.72,
      "classificacao_etaria": "A16",
      "imagem_original": "https://animefire.plus/img/animes/kingdom-5th-season.webp",
      "imagem_pasta": "https://animefire.plus/img/animes/kingdom-5th-season/",
      "secao": "legendados",
      "pagina": 17,
      "total_episodios": 13,
      "link_video": "https://animefire.plus/video/kingdom-5th-season"
    },
    {
      "id": 2007,
      "nome": "Kiniro Mosaic",
      "link": "https://animefire.plus/animes/kiniro-mosaic-todos-os-episodios",
      "texto_original": "Kiniro Mosaic",
      "rating": 7.33,
      "classificacao_etaria": "A14",
      "imagem_original": "https://animefire.plus/img/animes/kiniro-mosaic.webp",
      "imagem_pasta": "https://animefire.plus/img/animes/kiniro-mosaic/",
      "secao": "legendados",
      "pagina": 158,
      "total_episodios": 6,
      "link_video": "https://animefire.plus/video/kiniro-mosaic"
    },
    {
      "id": 2008,
      "nome": "Kinnikuman: Kanpeki Chоujin Shiso-hen Season 2",
      "link": "https://animefire.plus/animes/kinnikuman-kanpeki-choujin-shiso-hen-season-2-todos-os-episodios",
      "texto_original": "Kinnikuman: Kanpeki Chоujin Shiso-hen Season 2",
      "rating": 6.87,
      "classificacao_etaria": "A14",
      "imagem_original": "https://animefire.plus/img/animes/kinnikuman-kanpeki-choujin-shiso-hen-season-2.webp",
      "imagem_pasta": "https://animefire.plus/img/animes/kinnikuman-kanpeki-choujin-shiso-hen-season-2/",
      "secao": "legendados,lancamentos",
      "pagina": 6,
      "total_episodios": 1,
      "link_video": "https://animefire.plus/video/kinnikuman-kanpeki-choujin-shiso-hen-season-2"
    },
    {
      "id": 2009,
      "nome": "Kino no Tabi: The Beautiful World",
      "link": "https://animefire.plus/animes/kino-no-tabi-the-beautiful-world-todos-os-episodios",
      "texto_original": "Kino no Tabi: The Beautiful World",
      "rating": 8.4,
      "classificacao_etaria": "A16",
      "imagem_original": "https://animefire.plus/img/animes/kino-no-tabi-the-beautiful-world.webp",
      "imagem_pasta": "https://animefire.plus/img/animes/kino-no-tabi-the-beautiful-world/",
      "secao": "legendados",
      "pagina": 124,
      "total_episodios": 13,
      "link_video": "https://animefire.plus/video/kino-no-tabi-the-beautiful-world"
    },
    {
      "id": 2010,
      "nome": "Kino no Tabi: The Beautiful World - The Animated Series",
      "link": "https://animefire.plus/animes/kino-no-tabi-the-beautiful-world---the-animated-series-todos-os-episodios",
      "texto_original": "Kino no Tabi: The Beautiful World - The Animated Series",
      "rating": 7.62,
      "classificacao_etaria": "A16",
      "imagem_original": "https://animefire.plus/img/animes/kino-no-tabi-the-beautiful-world---the-animated-series.webp",
      "imagem_pasta": "https://animefire.plus/img/animes/kino-no-tabi-the-beautiful-world---the-animated-series/",
      "secao": "legendados",
      "pagina": 98,
      "total_episodios": 12,
      "link_video": "https://animefire.plus/video/kino-no-tabi-the-beautiful-world---the-animated-series"
    },
    {
      "id": 2011,
      "nome": "Kinoko Inu",
      "link": "https://animefire.plus/animes/kinoko-inu-todos-os-episodios",
      "texto_original": "Kinoko Inu",
      "rating": 6.89,
      "classificacao_etaria": "A14",
      "imagem_original": "https://animefire.plus/img/animes/kinoko-inu.webp",
      "imagem_pasta": "https://animefire.plus/img/animes/kinoko-inu/",
      "secao": "legendados",
      "pagina": 9,
      "total_episodios": 12,
      "link_video": "https://animefire.plus/video/kinoko-inu"
    },
    {
      "id": 2012,
      "nome": "Kinsou no Vermeil: Gakeppuchi Majutsushi wa Saikyou no Yakusai to Mahou Sekai wo Tsukisusumu",
      "link": "https://animefire.plus/animes/kinsou-no-vermeil-gakeppuchi-majutsushi-wa-saikyou-no-yakusai-to-mahou-sekai-wo-tsukisusumu-todos-os-episodios",
      "texto_original": "Kinsou no Vermeil: Gakeppuchi Majutsushi wa Saikyou no Yakusai to Mahou Sekai wo Tsukisusumu",
      "rating": 6.8,
      "classificacao_etaria": "A14",
      "imagem_original": "https://animefire.plus/img/animes/kinsou-no-vermeil-gakeppuchi-majutsushi-wa-saikyou-no-yakusai-to-mahou-sekai-wo-tsukisusumu.webp",
      "imagem_pasta": "https://animefire.plus/img/animes/kinsou-no-vermeil-gakeppuchi-majutsushi-wa-saikyou-no-yakusai-to-mahou-sekai-wo-tsukisusumu/",
      "secao": "legendados",
      "pagina": 31,
      "total_episodios": 12,
      "link_video": "https://animefire.plus/video/kinsou-no-vermeil-gakeppuchi-majutsushi-wa-saikyou-no-yakusai-to-mahou-sekai-wo-tsukisusumu"
    },
    {
      "id": 2013,
      "nome": "Kirakira☆Precure A La Mode",
      "link": "https://animefire.plus/animes/kirakira-precure-a-la-mode-todos-os-episodios",
      "texto_original": "Kirakira☆Precure A La Mode",
      "rating": 6.88,
      "classificacao_etaria": null,
      "imagem_original": "https://animefire.plus/img/animes/kirakira-precure-a-la-mode.webp",
      "imagem_pasta": "https://animefire.plus/img/animes/kirakira-precure-a-la-mode/",
      "secao": "legendados",
      "pagina": 67,
      "total_episodios": 49,
      "link_video": "https://animefire.plus/video/kirakira-precure-a-la-mode"
    },
    {
      "id": 2014,
      "nome": "Kirara",
      "link": "https://animefire.plus/animes/kirara-todos-os-episodios",
      "texto_original": "Kirara",
      "rating": 6.21,
      "classificacao_etaria": "A18",
      "imagem_original": "https://animefire.plus/img/animes/kirara.webp",
      "imagem_pasta": "https://animefire.plus/img/animes/kirara/",
      "secao": "legendados",
      "pagina": 66,
      "total_episodios": 1,
      "link_video": "https://animefire.plus/video/kirara"
    },
    {
      "id": 2015,
      "nome": "Kiratto Pri☆chan",
      "link": "https://animefire.plus/animes/kiratto-pri-chan-todos-os-episodios",
      "texto_original": "Kiratto Pri☆chan",
      "rating": 6.87,
      "classificacao_etaria": "A10",
      "imagem_original": "https://animefire.plus/img/animes/kiratto-pri-chan.webp",
      "imagem_pasta": "https://animefire.plus/img/animes/kiratto-pri-chan/",
      "secao": "legendados",
      "pagina": 124,
      "total_episodios": 10,
      "link_video": "https://animefire.plus/video/kiratto-pri-chan"
    },
    {
      "id": 2016,
      "nome": "Kisaki Kyouiku kara Nigetai Watashi",
      "link": "https://animefire.plus/animes/kisaki-kyouiku-kara-nigetai-watashi-todos-os-episodios",
      "texto_original": "Kisaki Kyouiku kara Nigetai Watashi",
      "rating": 5.65,
      "classificacao_etaria": "A14",
      "imagem_original": "https://animefire.plus/img/animes/kisaki-kyouiku-kara-nigetai-watashi.webp",
      "imagem_pasta": "https://animefire.plus/img/animes/kisaki-kyouiku-kara-nigetai-watashi/",
      "secao": "legendados",
      "pagina": 7,
      "total_episodios": 12,
      "link_video": "https://animefire.plus/video/kisaki-kyouiku-kara-nigetai-watashi"
    },
    {
      "id": 2017,
      "nome": "Kiseijuu: Sei no Kakuritsu (Dublado)",
      "link": "https://animefire.plus/animes/kiseijuu-sei-no-kakuritsu-dublado-todos-os-episodios",
      "texto_original": "Kiseijuu: Sei no Kakuritsu (Dublado)",
      "rating": 8.46,
      "classificacao_etaria": "A16",
      "imagem_original": "https://animefire.plus/img/animes/kiseijuu-sei-no-kakuritsu.webp",
      "imagem_pasta": "https://animefire.plus/img/animes/kiseijuu-sei-no-kakuritsu/",
      "secao": "dublados,legendados",
      "pagina": 23,
      "total_episodios": 24,
      "link_video": "https://animefire.plus/video/kiseijuu-sei-no-kakuritsu-dublado"
    },
    {
      "id": 2018,
      "nome": "Kishibe Rohan wa Ugokanai (Dublado)",
      "link": "https://animefire.plus/animes/kishibe-rohan-wa-ugokanai-dublado-todos-os-episodios",
      "texto_original": "Kishibe Rohan wa Ugokanai (Dublado)",
      "rating": 7.61,
      "classificacao_etaria": "A16",
      "imagem_original": "https://animefire.plus/img/animes/kishibe-rohan-wa-ugokanai.webp",
      "imagem_pasta": "https://animefire.plus/img/animes/kishibe-rohan-wa-ugokanai/",
      "secao": "dublados,legendados",
      "pagina": 18,
      "total_episodios": 9,
      "link_video": "https://animefire.plus/video/kishibe-rohan-wa-ugokanai-dublado"
    },
    {
      "id": 2019,
      "nome": "Kishin Douji Zenki",
      "link": "https://animefire.plus/animes/kishin-douji-zenki-todos-os-episodios",
      "texto_original": "Kishin Douji Zenki",
      "rating": 7.06,
      "classificacao_etaria": "A14",
      "imagem_original": "https://animefire.plus/img/animes/kishin-douji-zenki.webp",
      "imagem_pasta": "https://animefire.plus/img/animes/kishin-douji-zenki/",
      "secao": "legendados",
      "pagina": 169,
      "total_episodios": 21,
      "link_video": "https://animefire.plus/video/kishin-douji-zenki"
    },
    {
      "id": 2020,
      "nome": "Kishin Houkou Demonbane",
      "link": "https://animefire.plus/animes/kishin-houkou-demonbane-todos-os-episodios",
      "texto_original": "Kishin Houkou Demonbane",
      "rating": 6.08,
      "classificacao_etaria": "A14",
      "imagem_original": "https://animefire.plus/img/animes/kishin-houkou-demonbane.webp",
      "imagem_pasta": "https://animefire.plus/img/animes/kishin-houkou-demonbane/",
      "secao": "legendados",
      "pagina": 61,
      "total_episodios": 0,
      "link_video": "https://animefire.plus/video/kishin-houkou-demonbane"
    }
  ],
  "pagination": {
    "current_page": 101,
    "per_page": 20,
    "total_items": 4368,
    "total_pages": 219,
    "has_next": true,
    "has_prev": true
  }
}
