{
  "message": "Lista de animes",
  "data": [
    {
      "id": 3161,
      "nome": "Rozen Maiden: Träumend",
      "link": "https://animefire.plus/animes/rozen-maiden-traeumend-todos-os-episodios",
      "texto_original": "Rozen Maiden: Träumend",
      "rating": 7.72,
      "classificacao_etaria": "A14",
      "imagem_original": "https://animefire.plus/img/animes/rozen-maiden-traeumend.webp",
      "imagem_pasta": "https://animefire.plus/img/animes/rozen-maiden-traeumend/",
      "secao": "legendados",
      "pagina": 129,
      "total_episodios": 0,
      "link_video": "https://animefire.plus/video/rozen-maiden-traeumend"
    },
    {
      "id": 3162,
      "nome": "RPG Fudousan",
      "link": "https://animefire.plus/animes/rpg-fudousan-todos-os-episodios",
      "texto_original": "RPG Fudousan",
      "rating": 6.69,
      "classificacao_etaria": "A14",
      "imagem_original": "https://animefire.plus/img/animes/rpg-fudousan.webp",
      "imagem_pasta": "https://animefire.plus/img/animes/rpg-fudousan/",
      "secao": "legendados",
      "pagina": 34,
      "total_episodios": 12,
      "link_video": "https://animefire.plus/video/rpg-fudousan"
    },
    {
      "id": 3163,
      "nome": "Rumiko Takahashi Anthology",
      "link": "https://animefire.plus/animes/rumiko-takahashi-anthology-todos-os-episodios",
      "texto_original": "Rumiko Takahashi Anthology",
      "rating": 7.3,
      "classificacao_etaria": "A14",
      "imagem_original": "https://animefire.plus/img/animes/rumiko-takahashi-anthology.webp",
      "imagem_pasta": "https://animefire.plus/img/animes/rumiko-takahashi-anthology/",
      "secao": "legendados",
      "pagina": 179,
      "total_episodios": 13,
      "link_video": "https://animefire.plus/video/rumiko-takahashi-anthology"
    },
    {
      "id": 3164,
      "nome": "Runway de Waratte",
      "link": "https://animefire.plus/animes/runway-de-waratte-todos-os-episodios",
      "texto_original": "Runway de Waratte",
      "rating": 7.65,
      "classificacao_etaria": "A14",
      "imagem_original": "https://animefire.plus/img/animes/runway-de-waratte.webp",
      "imagem_pasta": "https://animefire.plus/img/animes/runway-de-waratte/",
      "secao": "legendados",
      "pagina": 92,
      "total_episodios": 0,
      "link_video": "https://animefire.plus/video/runway-de-waratte"
    },
    {
      "id": 3165,
      "nome": "Ruri no Houseki",
      "link": "https://animefire.plus/animes/ruri-no-houseki-todos-os-episodios",
      "texto_original": "Ruri no Houseki",
      "rating": 7.68,
      "classificacao_etaria": "A14",
      "imagem_original": "https://animefire.plus/img/animes/ruri-no-houseki.webp",
      "imagem_pasta": "https://animefire.plus/img/animes/ruri-no-houseki/",
      "secao": "legendados,lancamentos",
      "pagina": 2,
      "total_episodios": 5,
      "link_video": "https://animefire.plus/video/ruri-no-houseki"
    },
    {
      "id": 3166,
      "nome": "Rurouni Kenshin: Meiji Kenkaku Romantan - Kyoto Douran (Dublado)",
      "link": "https://animefire.plus/animes/rurouni-kenshin-meiji-kenkaku-romantan---kyoto-douran-dublado-todos-os-episodios",
      "texto_original": "Rurouni Kenshin: Meiji Kenkaku Romantan - Kyoto Douran (Dublado)",
      "rating": 7.77,
      "classificacao_etaria": "A16",
      "imagem_original": "https://animefire.plus/img/animes/rurouni-kenshin-meiji-kenkaku-romantan---kyoto-douran.webp",
      "imagem_pasta": "https://animefire.plus/img/animes/rurouni-kenshin-meiji-kenkaku-romantan---kyoto-douran/",
      "secao": "dublados,legendados,lancamentos",
      "pagina": 2,
      "total_episodios": 23,
      "link_video": "https://animefire.plus/video/rurouni-kenshin-meiji-kenkaku-romantan---kyoto-douran-dublado"
    },
    {
      "id": 3167,
      "nome": "Rurouni Kenshin: Meiji Kenkaku Romantan (2023) (Dublado)",
      "link": "https://animefire.plus/animes/rurouni-kenshin-meiji-kenkaku-romantan-2023-dublado-todos-os-episodios",
      "texto_original": "Rurouni Kenshin: Meiji Kenkaku Romantan (2023) (Dublado)",
      "rating": 7.63,
      "classificacao_etaria": "A14",
      "imagem_original": "https://animefire.plus/img/animes/rurouni-kenshin-meiji-kenkaku-romantan-2023.webp",
      "imagem_pasta": "https://animefire.plus/img/animes/rurouni-kenshin-meiji-kenkaku-romantan-2023/",
      "secao": "dublados,legendados",
      "pagina": 6,
      "total_episodios": 24,
      "link_video": "https://animefire.plus/video/rurouni-kenshin-meiji-kenkaku-romantan-2023-dublado"
    },
    {
      "id": 3168,
      "nome": "Rurouni Kenshin: Meiji Kenkaku Romantan (Dublado)",
      "link": "https://animefire.plus/animes/rurouni-kenshin-meiji-kenkaku-romantan-dublado-todos-os-episodios",
      "texto_original": "Rurouni Kenshin: Meiji Kenkaku Romantan (Dublado)",
      "rating": 8.32,
      "classificacao_etaria": "A14",
      "imagem_original": "https://animefire.plus/img/animes/rurouni-kenshin-meiji-kenkaku-romantan.webp",
      "imagem_pasta": "https://animefire.plus/img/animes/rurouni-kenshin-meiji-kenkaku-romantan/",
      "secao": "dublados",
      "pagina": 20,
      "total_episodios": 95,
      "link_video": "https://animefire.plus/video/rurouni-kenshin-meiji-kenkaku-romantan-dublado"
    },
    {
      "id": 3169,
      "nome": "RWBY: Hyousetsu Teikoku",
      "link": "https://animefire.plus/animes/rwby-hyousetsu-teikoku-todos-os-episodios",
      "texto_original": "RWBY: Hyousetsu Teikoku",
      "rating": 6.35,
      "classificacao_etaria": "A14",
      "imagem_original": "https://animefire.plus/img/animes/rwby-hyousetsu-teikoku.webp",
      "imagem_pasta": "https://animefire.plus/img/animes/rwby-hyousetsu-teikoku/",
      "secao": "legendados",
      "pagina": 32,
      "total_episodios": 12,
      "link_video": "https://animefire.plus/video/rwby-hyousetsu-teikoku"
    },
    {
      "id": 3170,
      "nome": "Ryman's Club",
      "link": "https://animefire.plus/animes/ryman-s-club-todos-os-episodios",
      "texto_original": "Ryman's Club",
      "rating": 7.34,
      "classificacao_etaria": "A14",
      "imagem_original": "https://animefire.plus/img/animes/ryman-s-club.webp",
      "imagem_pasta": "https://animefire.plus/img/animes/ryman-s-club/",
      "secao": "legendados",
      "pagina": 35,
      "total_episodios": 12,
      "link_video": "https://animefire.plus/video/ryman-s-club"
    },
    {
      "id": 3171,
      "nome": "Ryuu no Haisha",
      "link": "https://animefire.plus/animes/ryuu-no-haisha-todos-os-episodios",
      "texto_original": "Ryuu no Haisha",
      "rating": 7.46,
      "classificacao_etaria": "A14",
      "imagem_original": "https://animefire.plus/img/animes/ryuu-no-haisha.webp",
      "imagem_pasta": "https://animefire.plus/img/animes/ryuu-no-haisha/",
      "secao": "legendados",
      "pagina": 71,
      "total_episodios": 1,
      "link_video": "https://animefire.plus/video/ryuu-no-haisha"
    },
    {
      "id": 3172,
      "nome": "Ryuugajou Nanana no Maizoukin",
      "link": "https://animefire.plus/animes/ryuugajou-nanana-no-maizoukin-todos-os-episodios",
      "texto_original": "Ryuugajou Nanana no Maizoukin",
      "rating": 7.27,
      "classificacao_etaria": "A14",
      "imagem_original": "https://animefire.plus/img/animes/ryuugajou-nanana-no-maizoukin.webp",
      "imagem_pasta": "https://animefire.plus/img/animes/ryuugajou-nanana-no-maizoukin/",
      "secao": "legendados",
      "pagina": 163,
      "total_episodios": 11,
      "link_video": "https://animefire.plus/video/ryuugajou-nanana-no-maizoukin"
    },
    {
      "id": 3173,
      "nome": "Ryuuou no Oshigoto!",
      "link": "https://animefire.plus/animes/ryuuou-no-oshigoto-todos-os-episodios",
      "texto_original": "Ryuuou no Oshigoto!",
      "rating": 7.05,
      "classificacao_etaria": "A14",
      "imagem_original": "https://animefire.plus/img/animes/ryuuou-no-oshigoto.webp",
      "imagem_pasta": "https://animefire.plus/img/animes/ryuuou-no-oshigoto/",
      "secao": "legendados",
      "pagina": 102,
      "total_episodios": 12,
      "link_video": "https://animefire.plus/video/ryuuou-no-oshigoto"
    },
    {
      "id": 3174,
      "nome": "Ryuusei no Rockman",
      "link": "https://animefire.plus/animes/ryuusei-no-rockman-todos-os-episodios",
      "texto_original": "Ryuusei no Rockman",
      "rating": 7.21,
      "classificacao_etaria": "A10",
      "imagem_original": "https://animefire.plus/img/animes/ryuusei-no-rockman.webp",
      "imagem_pasta": "https://animefire.plus/img/animes/ryuusei-no-rockman/",
      "secao": "legendados",
      "pagina": 161,
      "total_episodios": 54,
      "link_video": "https://animefire.plus/video/ryuusei-no-rockman"
    },
    {
      "id": 3175,
      "nome": "Ryuusei Sentai Musumet (Dublado)",
      "link": "https://animefire.plus/animes/ryuusei-sentai-musumet-dublado-todos-os-episodios",
      "texto_original": "Ryuusei Sentai Musumet (Dublado)",
      "rating": 5.94,
      "classificacao_etaria": "A16",
      "imagem_original": "https://animefire.plus/img/animes/ryuusei-sentai-musumet.webp",
      "imagem_pasta": "https://animefire.plus/img/animes/ryuusei-sentai-musumet/",
      "secao": "dublados",
      "pagina": 26,
      "total_episodios": 0,
      "link_video": "https://animefire.plus/video/ryuusei-sentai-musumet-dublado"
    },
    {
      "id": 3176,
      "nome": "Ryuuseiki Gakusaver",
      "link": "https://animefire.plus/animes/ryuuseiki-gakusaver-todos-os-episodios",
      "texto_original": "Ryuuseiki Gakusaver",
      "rating": 6.49,
      "classificacao_etaria": "A14",
      "imagem_original": "https://animefire.plus/img/animes/ryuuseiki-gakusaver.webp",
      "imagem_pasta": "https://animefire.plus/img/animes/ryuuseiki-gakusaver/",
      "secao": "legendados",
      "pagina": 56,
      "total_episodios": 6,
      "link_video": "https://animefire.plus/video/ryuuseiki-gakusaver"
    },
    {
      "id": 3177,
      "nome": "Ryza no Atelier: Tokoyami no Joou to Himitsu no Kakurega",
      "link": "https://animefire.plus/animes/ryza-no-atelier-tokoyami-no-joou-to-himitsu-no-kakurega-todos-os-episodios",
      "texto_original": "Ryza no Atelier: Tokoyami no Joou to Himitsu no Kakurega",
      "rating": 6.41,
      "classificacao_etaria": "A14",
      "imagem_original": "https://animefire.plus/img/animes/ryza-no-atelier-tokoyami-no-joou-to-himitsu-no-kakurega.jpg",
      "imagem_pasta": "https://animefire.plus/img/animes/ryza-no-atelier-tokoyami-no-joou-to-himitsu-no-kakurega/",
      "secao": "legendados",
      "pagina": 23,
      "total_episodios": 12,
      "link_video": "https://animefire.plus/video/ryza-no-atelier-tokoyami-no-joou-to-himitsu-no-kakurega"
    },
    {
      "id": 3178,
      "nome": "S-Rank Monster no \"Behemoth\" dakedo, Neko to Machigawarete Elf Musume no Pet toshite Kurashitemasu",
      "link": "https://animefire.plus/animes/s-rank-monster-no-behemoth-dakedo-neko-to-machigawarete-elf-musume-no-pet-toshite-kurashitemasu-todos-os-episodios",
      "texto_original": "S-Rank Monster no \"Behemoth\" dakedo, Neko to Machigawarete Elf Musume no Pet toshite Kurashitemasu",
      "rating": 5.79,
      "classificacao_etaria": "A18",
      "imagem_original": "https://animefire.plus/img/animes/s-rank-monster-no-behemoth-dakedo-neko-to-machigawarete-elf-musume-no-pet-toshite-kurashitemasu.webp",
      "imagem_pasta": "https://animefire.plus/img/animes/s-rank-monster-no-behemoth-dakedo-neko-to-machigawarete-elf-musume-no-pet-toshite-kurashitemasu/",
      "secao": "legendados",
      "pagina": 8,
      "total_episodios": 12,
      "link_video": "https://animefire.plus/video/s-rank-monster-no-behemoth-dakedo-neko-to-machigawarete-elf-musume-no-pet-toshite-kurashitemasu"
    },
    {
      "id": 3179,
      "nome": "s.CRY.ed",
      "link": "https://animefire.plus/animes/s-cry-ed-todos-os-episodios",
      "texto_original": "s.CRY.ed",
      "rating": 7.42,
      "classificacao_etaria": "A14",
      "imagem_original": "https://animefire.plus/img/animes/s-cry-ed.webp",
      "imagem_pasta": "https://animefire.plus/img/animes/s-cry-ed/",
      "secao": "legendados",
      "pagina": 175,
      "total_episodios": 25,
      "link_video": "https://animefire.plus/video/s-cry-ed"
    },
    {
      "id": 3180,
      "nome": "Sabage-bu!",
      "link": "https://animefire.plus/animes/sabage-bu-todos-os-episodios",
      "texto_original": "Sabage-bu!",
      "rating": 7.43,
      "classificacao_etaria": "A14",
      "imagem_original": "https://animefire.plus/img/animes/sabage-bu.webp",
      "imagem_pasta": "https://animefire.plus/img/animes/sabage-bu/",
      "secao": "legendados",
      "pagina": 111,
      "total_episodios": 12,
      "link_video": "https://animefire.plus/video/sabage-bu"
    }
  ],
  "pagination": {
    "current_page": 159,
    "per_page": 20,
    "total_items": 4368,
    "total_pages": 219,
    "has_next": true,
    "has_prev": true
  }
}
