{
  "message": "Lista de animes",
  "data": [
    {
      "id": 4001,
      "nome": "Uchuu Senkan Yamato 2202: Ai no Senshi-tachi",
      "link": "https://animefire.plus/animes/uchuu-senkan-yamato-2202-ai-no-senshi-tachi-todos-os-episodios",
      "texto_original": "Uchuu Senkan Yamato 2202: Ai no Senshi-tachi",
      "rating": 7.69,
      "classificacao_etaria": "A14",
      "imagem_original": "https://animefire.plus/img/animes/uchuu-senkan-yamato-2202-ai-no-senshi-tachi.webp",
      "imagem_pasta": "https://animefire.plus/img/animes/uchuu-senkan-yamato-2202-ai-no-senshi-tachi/",
      "secao": "legendados",
      "pagina": 42,
      "total_episodios": 26,
      "link_video": "https://animefire.plus/video/uchuu-senkan-yamato-2202-ai-no-senshi-tachi"
    },
    {
      "id": 4002,
      "nome": "Uchuujin MuuMuu",
      "link": "https://animefire.plus/animes/uchuujin-muumuu-todos-os-episodios",
      "texto_original": "Uchuujin MuuMuu",
      "rating": null,
      "classificacao_etaria": "A14",
      "imagem_original": "https://animefire.plus/img/animes/uchuujin-muumuu.webp",
      "imagem_pasta": "https://animefire.plus/img/animes/uchuujin-muumuu/",
      "secao": "legendados,lancamentos",
      "pagina": 4,
      "total_episodios": 0,
      "link_video": "https://animefire.plus/video/uchuujin-muumuu"
    },
    {
      "id": 4003,
      "nome": "Udon no Kuni no Kiniro Kemari",
      "link": "https://animefire.plus/animes/udon-no-kuni-no-kiniro-kemari-todos-os-episodios",
      "texto_original": "Udon no Kuni no Kiniro Kemari",
      "rating": 7.81,
      "classificacao_etaria": "A14",
      "imagem_original": "https://animefire.plus/img/animes/udon-no-kuni-no-kiniro-kemari.webp",
      "imagem_pasta": "https://animefire.plus/img/animes/udon-no-kuni-no-kiniro-kemari/",
      "secao": "legendados",
      "pagina": 159,
      "total_episodios": 8,
      "link_video": "https://animefire.plus/video/udon-no-kuni-no-kiniro-kemari"
    },
    {
      "id": 4004,
      "nome": "Ueki no Housoku",
      "link": "https://animefire.plus/animes/ueki-no-housoku-todos-os-episodios",
      "texto_original": "Ueki no Housoku",
      "rating": 7.83,
      "classificacao_etaria": "A14",
      "imagem_original": "https://animefire.plus/img/animes/ueki-no-housoku.webp",
      "imagem_pasta": "https://animefire.plus/img/animes/ueki-no-housoku/",
      "secao": "legendados",
      "pagina": 175,
      "total_episodios": 4,
      "link_video": "https://animefire.plus/video/ueki-no-housoku"
    },
    {
      "id": 4005,
      "nome": "Ueno-san wa Bukiyou",
      "link": "https://animefire.plus/animes/ueno-san-wa-bukiyou-todos-os-episodios",
      "texto_original": "Ueno-san wa Bukiyou",
      "rating": 6.64,
      "classificacao_etaria": "A14",
      "imagem_original": "https://animefire.plus/img/animes/ueno-san-wa-bukiyou.webp",
      "imagem_pasta": "https://animefire.plus/img/animes/ueno-san-wa-bukiyou/",
      "secao": "legendados",
      "pagina": 101,
      "total_episodios": 12,
      "link_video": "https://animefire.plus/video/ueno-san-wa-bukiyou"
    },
    {
      "id": 4006,
      "nome": "UFO Princess Valkyrie",
      "link": "https://animefire.plus/animes/ufo-princess-valkyrie-todos-os-episodios",
      "texto_original": "UFO Princess Valkyrie",
      "rating": 6.83,
      "classificacao_etaria": "A18",
      "imagem_original": "https://animefire.plus/img/animes/ufo-princess-valkyrie.webp",
      "imagem_pasta": "https://animefire.plus/img/animes/ufo-princess-valkyrie/",
      "secao": "legendados",
      "pagina": 106,
      "total_episodios": 0,
      "link_video": "https://animefire.plus/video/ufo-princess-valkyrie"
    },
    {
      "id": 4007,
      "nome": "UFO Senshi Dai Apolon",
      "link": "https://animefire.plus/animes/ufo-senshi-dai-apolon-todos-os-episodios",
      "texto_original": "UFO Senshi Dai Apolon",
      "rating": 6.17,
      "classificacao_etaria": "A14",
      "imagem_original": "https://animefire.plus/img/animes/ufo-senshi-dai-apolon.webp",
      "imagem_pasta": "https://animefire.plus/img/animes/ufo-senshi-dai-apolon/",
      "secao": "legendados",
      "pagina": 78,
      "total_episodios": 26,
      "link_video": "https://animefire.plus/video/ufo-senshi-dai-apolon"
    },
    {
      "id": 4008,
      "nome": "UG☆Ultimate Girls",
      "link": "https://animefire.plus/animes/ug-ultimate-girls-todos-os-episodios",
      "texto_original": "UG☆Ultimate Girls",
      "rating": 5.68,
      "classificacao_etaria": "A14",
      "imagem_original": "https://animefire.plus/img/animes/ug-ultimate-girls.webp",
      "imagem_pasta": "https://animefire.plus/img/animes/ug-ultimate-girls/",
      "secao": "legendados",
      "pagina": 113,
      "total_episodios": 12,
      "link_video": "https://animefire.plus/video/ug-ultimate-girls"
    },
    {
      "id": 4009,
      "nome": "Ultra Maniac",
      "link": "https://animefire.plus/animes/ultra-maniac-todos-os-episodios",
      "texto_original": "Ultra Maniac",
      "rating": 7.25,
      "classificacao_etaria": null,
      "imagem_original": "https://animefire.plus/img/animes/ultra-maniac.webp",
      "imagem_pasta": "https://animefire.plus/img/animes/ultra-maniac/",
      "secao": "legendados",
      "pagina": 157,
      "total_episodios": 7,
      "link_video": "https://animefire.plus/video/ultra-maniac"
    },
    {
      "id": 4010,
      "nome": "Ultraman (Dublado)",
      "link": "https://animefire.plus/animes/ultraman-dublado-todos-os-episodios",
      "texto_original": "Ultraman (Dublado)",
      "rating": 6.78,
      "classificacao_etaria": "A16",
      "imagem_original": "https://animefire.plus/img/animes/ultraman.webp",
      "imagem_pasta": "https://animefire.plus/img/animes/ultraman/",
      "secao": "dublados",
      "pagina": 23,
      "total_episodios": 13,
      "link_video": "https://animefire.plus/video/ultraman-dublado"
    },
    {
      "id": 4011,
      "nome": "Ultraviolet: Code 044",
      "link": "https://animefire.plus/animes/ultraviolet-code-044-todos-os-episodios",
      "texto_original": "Ultraviolet: Code 044",
      "rating": 5.98,
      "classificacao_etaria": "A16",
      "imagem_original": "https://animefire.plus/img/animes/ultraviolet-code-044.webp",
      "imagem_pasta": "https://animefire.plus/img/animes/ultraviolet-code-044/",
      "secao": "legendados",
      "pagina": 175,
      "total_episodios": 12,
      "link_video": "https://animefire.plus/video/ultraviolet-code-044"
    },
    {
      "id": 4012,
      "nome": "Ulysses: Jehanne Darc to Renkin no Kishi",
      "link": "https://animefire.plus/animes/ulysses-jehanne-darc-to-renkin-no-kishi-todos-os-episodios",
      "texto_original": "Ulysses: Jehanne Darc to Renkin no Kishi",
      "rating": 5.51,
      "classificacao_etaria": "A14",
      "imagem_original": "https://animefire.plus/img/animes/ulysses-jehanne-darc-to-renkin-no-kishi.webp",
      "imagem_pasta": "https://animefire.plus/img/animes/ulysses-jehanne-darc-to-renkin-no-kishi/",
      "secao": "legendados",
      "pagina": 143,
      "total_episodios": 12,
      "link_video": "https://animefire.plus/video/ulysses-jehanne-darc-to-renkin-no-kishi"
    },
    {
      "id": 4013,
      "nome": "Uma Musume: Cinderella Gray",
      "link": "https://animefire.plus/animes/uma-musume-cinderella-gray-todos-os-episodios",
      "texto_original": "Uma Musume: Cinderella Gray",
      "rating": 8.52,
      "classificacao_etaria": "A14",
      "imagem_original": "https://animefire.plus/img/animes/uma-musume-cinderella-gray.webp",
      "imagem_pasta": "https://animefire.plus/img/animes/uma-musume-cinderella-gray/",
      "secao": "legendados",
      "pagina": 5,
      "total_episodios": 13,
      "link_video": "https://animefire.plus/video/uma-musume-cinderella-gray"
    },
    {
      "id": 4014,
      "nome": "Uma Musume: Pretty Derby",
      "link": "https://animefire.plus/animes/uma-musume-pretty-derby-todos-os-episodios",
      "texto_original": "Uma Musume: Pretty Derby",
      "rating": 7.44,
      "classificacao_etaria": "A14",
      "imagem_original": "https://animefire.plus/img/animes/uma-musume-pretty-derby.webp",
      "imagem_pasta": "https://animefire.plus/img/animes/uma-musume-pretty-derby/",
      "secao": "legendados",
      "pagina": 165,
      "total_episodios": 12,
      "link_video": "https://animefire.plus/video/uma-musume-pretty-derby"
    },
    {
      "id": 4015,
      "nome": "Uma Musume: Pretty Derby - BNW no Chikai",
      "link": "https://animefire.plus/animes/uma-musume-pretty-derby---bnw-no-chikai-todos-os-episodios",
      "texto_original": "Uma Musume: Pretty Derby - BNW no Chikai",
      "rating": 7.04,
      "classificacao_etaria": "A14",
      "imagem_original": "https://animefire.plus/img/animes/uma-musume-pretty-derby---bnw-no-chikai.webp",
      "imagem_pasta": "https://animefire.plus/img/animes/uma-musume-pretty-derby---bnw-no-chikai/",
      "secao": "legendados",
      "pagina": 45,
      "total_episodios": 3,
      "link_video": "https://animefire.plus/video/uma-musume-pretty-derby---bnw-no-chikai"
    },
    {
      "id": 4016,
      "nome": "Uma Musume: Pretty Derby (TV)",
      "link": "https://animefire.plus/animes/uma-musume-pretty-derby-tv-todos-os-episodios",
      "texto_original": "Uma Musume: Pretty Derby (TV)",
      "rating": 7.37,
      "classificacao_etaria": "A14",
      "imagem_original": "https://animefire.plus/img/animes/uma-musume-pretty-derby-tv.webp",
      "imagem_pasta": "https://animefire.plus/img/animes/uma-musume-pretty-derby-tv/",
      "secao": "legendados",
      "pagina": 87,
      "total_episodios": 13,
      "link_video": "https://animefire.plus/video/uma-musume-pretty-derby-tv"
    },
    {
      "id": 4017,
      "nome": "Uma Musume: Pretty Derby Season 2",
      "link": "https://animefire.plus/animes/uma-musume-pretty-derby-season-2-todos-os-episodios",
      "texto_original": "Uma Musume: Pretty Derby Season 2",
      "rating": 8.06,
      "classificacao_etaria": "A14",
      "imagem_original": "https://animefire.plus/img/animes/uma-musume-pretty-derby-season-2.webp",
      "imagem_pasta": "https://animefire.plus/img/animes/uma-musume-pretty-derby-season-2/",
      "secao": "legendados",
      "pagina": 49,
      "total_episodios": 13,
      "link_video": "https://animefire.plus/video/uma-musume-pretty-derby-season-2"
    },
    {
      "id": 4018,
      "nome": "Umayon",
      "link": "https://animefire.plus/animes/umayon-todos-os-episodios",
      "texto_original": "Umayon",
      "rating": null,
      "classificacao_etaria": "A14",
      "imagem_original": "https://animefire.plus/img/animes/umayon.webp",
      "imagem_pasta": "https://animefire.plus/img/animes/umayon/",
      "secao": "legendados",
      "pagina": 58,
      "total_episodios": 1,
      "link_video": "https://animefire.plus/video/umayon"
    },
    {
      "id": 4019,
      "nome": "Umi Monogatari: Anata ga Ite Kureta Koto",
      "link": "https://animefire.plus/animes/umi-monogatari-anata-ga-ite-kureta-koto-todos-os-episodios",
      "texto_original": "Umi Monogatari: Anata ga Ite Kureta Koto",
      "rating": 6.71,
      "classificacao_etaria": "A14",
      "imagem_original": "https://animefire.plus/img/animes/umi-monogatari-anata-ga-ite-kureta-koto.webp",
      "imagem_pasta": "https://animefire.plus/img/animes/umi-monogatari-anata-ga-ite-kureta-koto/",
      "secao": "legendados",
      "pagina": 149,
      "total_episodios": 12,
      "link_video": "https://animefire.plus/video/umi-monogatari-anata-ga-ite-kureta-koto"
    },
    {
      "id": 4020,
      "nome": "Umineko no Naku Koro ni",
      "link": "https://animefire.plus/animes/umineko-no-naku-koro-ni-todos-os-episodios",
      "texto_original": "Umineko no Naku Koro ni",
      "rating": 7.23,
      "classificacao_etaria": "A16",
      "imagem_original": "https://animefire.plus/img/animes/umineko-no-naku-koro-ni.webp",
      "imagem_pasta": "https://animefire.plus/img/animes/umineko-no-naku-koro-ni/",
      "secao": "legendados",
      "pagina": 112,
      "total_episodios": 26,
      "link_video": "https://animefire.plus/video/umineko-no-naku-koro-ni"
    }
  ],
  "pagination": {
    "current_page": 201,
    "per_page": 20,
    "total_items": 4368,
    "total_pages": 219,
    "has_next": true,
    "has_prev": true
  }
}
