{
  "message": "Lista de animes",
  "data": [
    {
      "id": 181,
      "nome": "Anitore! XX: Hitotsu Yane no Shita de",
      "link": "https://animefire.plus/animes/anitore-xx-hitotsu-yane-no-shita-de-todos-os-episodios",
      "texto_original": "Anitore! XX: Hitotsu Yane no Shita de",
      "rating": 5.67,
      "classificacao_etaria": "A14",
      "imagem_original": "https://animefire.plus/img/animes/anitore-xx-hitotsu-yane-no-shita-de.webp",
      "imagem_pasta": "https://animefire.plus/img/animes/anitore-xx-hitotsu-yane-no-shita-de/",
      "secao": "legendados",
      "pagina": 130,
      "total_episodios": 0,
      "link_video": "https://animefire.plus/video/anitore-xx-hitotsu-yane-no-shita-de"
    },
    {
      "id": 182,
      "nome": "Anne Happy♪",
      "link": "https://animefire.plus/animes/anne-happy-todos-os-episodios",
      "texto_original": "Anne Happy♪",
      "rating": 7.05,
      "classificacao_etaria": "A14",
      "imagem_original": "https://animefire.plus/img/animes/anne-happy.webp",
      "imagem_pasta": "https://animefire.plus/img/animes/anne-happy/",
      "secao": "legendados",
      "pagina": 96,
      "total_episodios": 12,
      "link_video": "https://animefire.plus/video/anne-happy"
    },
    {
      "id": 183,
      "nome": "Anne Shirley",
      "link": "https://animefire.plus/animes/anne-shirley-todos-os-episodios",
      "texto_original": "Anne Shirley",
      "rating": 7.78,
      "classificacao_etaria": "A14",
      "imagem_original": "https://animefire.plus/img/animes/anne-shirley.webp",
      "imagem_pasta": "https://animefire.plus/img/animes/anne-shirley/",
      "secao": "legendados,lancamentos",
      "pagina": 5,
      "total_episodios": 18,
      "link_video": "https://animefire.plus/video/anne-shirley"
    },
    {
      "id": 184,
      "nome": "Ano Hi Mita Hana no Namae wo Bokutachi wa Mada Shiranai.",
      "link": "https://animefire.plus/animes/ano-hi-mita-hana-no-namae-wo-bokutachi-wa-mada-shiranai-todos-os-episodios",
      "texto_original": "Ano Hi Mita Hana no Namae wo Bokutachi wa Mada Shiranai.",
      "rating": 8.51,
      "classificacao_etaria": "A14",
      "imagem_original": "https://animefire.plus/img/animes/ano-hi-mita-hana-no-namae-wo-bokutachi-wa-mada-shiranai.webp",
      "imagem_pasta": "https://animefire.plus/img/animes/ano-hi-mita-hana-no-namae-wo-bokutachi-wa-mada-shiranai/",
      "secao": "legendados",
      "pagina": 172,
      "total_episodios": 11,
      "link_video": "https://animefire.plus/video/ano-hi-mita-hana-no-namae-wo-bokutachi-wa-mada-shiranai"
    },
    {
      "id": 185,
      "nome": "Ano Ko ni 1000%",
      "link": "https://animefire.plus/animes/ano-ko-ni-1000-todos-os-episodios",
      "texto_original": "Ano Ko ni 1000%",
      "rating": 5.26,
      "classificacao_etaria": "A14",
      "imagem_original": "https://animefire.plus/img/animes/ano-ko-ni-1000.webp",
      "imagem_pasta": "https://animefire.plus/img/animes/ano-ko-ni-1000/",
      "secao": "legendados",
      "pagina": 65,
      "total_episodios": 1,
      "link_video": "https://animefire.plus/video/ano-ko-ni-1000"
    },
    {
      "id": 186,
      "nome": "Ano Natsu de Matteru",
      "link": "https://animefire.plus/animes/ano-natsu-de-matteru-todos-os-episodios",
      "texto_original": "Ano Natsu de Matteru",
      "rating": 7.61,
      "classificacao_etaria": "A14",
      "imagem_original": "https://animefire.plus/img/animes/ano-natsu-de-matteru.webp",
      "imagem_pasta": "https://animefire.plus/img/animes/ano-natsu-de-matteru/",
      "secao": "legendados",
      "pagina": 161,
      "total_episodios": 12,
      "link_video": "https://animefire.plus/video/ano-natsu-de-matteru"
    },
    {
      "id": 187,
      "nome": "Another",
      "link": "https://animefire.plus/animes/another-todos-os-episodios",
      "texto_original": "Another",
      "rating": 7.68,
      "classificacao_etaria": "A16",
      "imagem_original": "https://animefire.plus/img/animes/another.webp",
      "imagem_pasta": "https://animefire.plus/img/animes/another/",
      "secao": "legendados",
      "pagina": 94,
      "total_episodios": 12,
      "link_video": "https://animefire.plus/video/another"
    },
    {
      "id": 188,
      "nome": "Another World",
      "link": "https://animefire.plus/animes/another-world-todos-os-episodios",
      "texto_original": "Another World",
      "rating": 7.14,
      "classificacao_etaria": "A14",
      "imagem_original": "https://animefire.plus/img/animes/another-world.webp",
      "imagem_pasta": "https://animefire.plus/img/animes/another-world/",
      "secao": "legendados",
      "pagina": 79,
      "total_episodios": 3,
      "link_video": "https://animefire.plus/video/another-world"
    },
    {
      "id": 189,
      "nome": "Another: The Other - Inga",
      "link": "https://animefire.plus/animes/another-the-other---inga-todos-os-episodios",
      "texto_original": "Another: The Other - Inga",
      "rating": 7.36,
      "classificacao_etaria": "A16",
      "imagem_original": "https://animefire.plus/img/animes/another-the-other---inga.webp",
      "imagem_pasta": "https://animefire.plus/img/animes/another-the-other---inga/",
      "secao": "legendados",
      "pagina": 69,
      "total_episodios": 1,
      "link_video": "https://animefire.plus/video/another-the-other---inga"
    },
    {
      "id": 190,
      "nome": "Ansatsu Kyoushitsu (Dublado)",
      "link": "https://animefire.plus/animes/ansatsu-kyoushitsu-dublado-todos-os-episodios",
      "texto_original": "Ansatsu Kyoushitsu (Dublado)",
      "rating": 8.13,
      "classificacao_etaria": "A14",
      "imagem_original": "https://animefire.plus/img/animes/ansatsu-kyoushitsu.webp",
      "imagem_pasta": "https://animefire.plus/img/animes/ansatsu-kyoushitsu/",
      "secao": "dublados,legendados",
      "pagina": 19,
      "total_episodios": 22,
      "link_video": "https://animefire.plus/video/ansatsu-kyoushitsu-dublado"
    },
    {
      "id": 191,
      "nome": "Ansatsu Kyoushitsu 2nd Season (Dublado)",
      "link": "https://animefire.plus/animes/ansatsu-kyoushitsu-2nd-season-dublado-todos-os-episodios",
      "texto_original": "Ansatsu Kyoushitsu 2nd Season (Dublado)",
      "rating": 8.55,
      "classificacao_etaria": "A14",
      "imagem_original": "https://animefire.plus/img/animes/ansatsu-kyoushitsu-2nd-season.webp",
      "imagem_pasta": "https://animefire.plus/img/animes/ansatsu-kyoushitsu-2nd-season/",
      "secao": "dublados,legendados",
      "pagina": 19,
      "total_episodios": 23,
      "link_video": "https://animefire.plus/video/ansatsu-kyoushitsu-2nd-season-dublado"
    },
    {
      "id": 192,
      "nome": "Ansatsu Kyoushitsu 2nd Season: Kagaijugyou-hen",
      "link": "https://animefire.plus/animes/ansatsu-kyoushitsu-2nd-season-kagaijugyou-hen-todos-os-episodios",
      "texto_original": "Ansatsu Kyoushitsu 2nd Season: Kagaijugyou-hen",
      "rating": 7.75,
      "classificacao_etaria": "A14",
      "imagem_original": "https://animefire.plus/img/animes/ansatsu-kyoushitsu-2nd-season-kagaijugyou-hen.webp",
      "imagem_pasta": "https://animefire.plus/img/animes/ansatsu-kyoushitsu-2nd-season-kagaijugyou-hen/",
      "secao": "legendados",
      "pagina": 53,
      "total_episodios": 8,
      "link_video": "https://animefire.plus/video/ansatsu-kyoushitsu-2nd-season-kagaijugyou-hen"
    },
    {
      "id": 193,
      "nome": "Ansatsu Kyoushitsu: Deai no Jikan",
      "link": "https://animefire.plus/animes/ansatsu-kyoushitsu-deai-no-jikan-todos-os-episodios",
      "texto_original": "Ansatsu Kyoushitsu: Deai no Jikan",
      "rating": 7.43,
      "classificacao_etaria": "A14",
      "imagem_original": "https://animefire.plus/img/animes/ansatsu-kyoushitsu-deai-no-jikan.webp",
      "imagem_pasta": "https://animefire.plus/img/animes/ansatsu-kyoushitsu-deai-no-jikan/",
      "secao": "legendados",
      "pagina": 53,
      "total_episodios": 1,
      "link_video": "https://animefire.plus/video/ansatsu-kyoushitsu-deai-no-jikan"
    },
    {
      "id": 194,
      "nome": "Ansatsu Kyoushitsu: Jump Festa 2013 Special",
      "link": "https://animefire.plus/animes/ansatsu-kyoushitsu-jump-festa-2013-special-todos-os-episodios",
      "texto_original": "Ansatsu Kyoushitsu: Jump Festa 2013 Special",
      "rating": 7.23,
      "classificacao_etaria": "A14",
      "imagem_original": "https://animefire.plus/img/animes/ansatsu-kyoushitsu-jump-festa-2013-special.webp",
      "imagem_pasta": "https://animefire.plus/img/animes/ansatsu-kyoushitsu-jump-festa-2013-special/",
      "secao": "legendados",
      "pagina": 53,
      "total_episodios": 1,
      "link_video": "https://animefire.plus/video/ansatsu-kyoushitsu-jump-festa-2013-special"
    },
    {
      "id": 195,
      "nome": "Ao Ashi (Dublado)",
      "link": "https://animefire.plus/animes/ao-ashi-dublado-todos-os-episodios",
      "texto_original": "Ao Ashi (Dublado)",
      "rating": 8.16,
      "classificacao_etaria": "A14",
      "imagem_original": "https://animefire.plus/img/animes/ao-ashi.webp",
      "imagem_pasta": "https://animefire.plus/img/animes/ao-ashi/",
      "secao": "dublados,legendados",
      "pagina": 11,
      "total_episodios": 24,
      "link_video": "https://animefire.plus/video/ao-ashi-dublado"
    },
    {
      "id": 196,
      "nome": "Ao Haru Ride",
      "link": "https://animefire.plus/animes/ao-haru-ride-todos-os-episodios",
      "texto_original": "Ao Haru Ride",
      "rating": 7.79,
      "classificacao_etaria": "A14",
      "imagem_original": "https://animefire.plus/img/animes/ao-haru-ride.webp",
      "imagem_pasta": "https://animefire.plus/img/animes/ao-haru-ride/",
      "secao": "legendados",
      "pagina": 149,
      "total_episodios": 0,
      "link_video": "https://animefire.plus/video/ao-haru-ride"
    },
    {
      "id": 197,
      "nome": "Ao Haru Ride OVA",
      "link": "https://animefire.plus/animes/ao-haru-ride-ova-todos-os-episodios",
      "texto_original": "Ao Haru Ride OVA",
      "rating": 7.64,
      "classificacao_etaria": "A14",
      "imagem_original": "https://animefire.plus/img/animes/ao-haru-ride-ova.webp",
      "imagem_pasta": "https://animefire.plus/img/animes/ao-haru-ride-ova/",
      "secao": "legendados",
      "pagina": 78,
      "total_episodios": 2,
      "link_video": "https://animefire.plus/video/ao-haru-ride-ova"
    },
    {
      "id": 198,
      "nome": "Ao no 6-gou (Dublado)",
      "link": "https://animefire.plus/animes/ao-no-6-gou-dublado-todos-os-episodios",
      "texto_original": "Ao no 6-gou (Dublado)",
      "rating": 7.06,
      "classificacao_etaria": "A14",
      "imagem_original": "https://animefire.plus/img/animes/ao-no-6-gou.webp",
      "imagem_pasta": "https://animefire.plus/img/animes/ao-no-6-gou/",
      "secao": "dublados,legendados",
      "pagina": 21,
      "total_episodios": 4,
      "link_video": "https://animefire.plus/video/ao-no-6-gou-dublado"
    },
    {
      "id": 199,
      "nome": "Ao no Exorcist",
      "link": "https://animefire.plus/animes/ao-no-exorcist-todos-os-episodios",
      "texto_original": "Ao no Exorcist",
      "rating": 7.78,
      "classificacao_etaria": "A14",
      "imagem_original": "https://animefire.plus/img/animes/ao-no-exorcist.webp",
      "imagem_pasta": "https://animefire.plus/img/animes/ao-no-exorcist/",
      "secao": "legendados",
      "pagina": 130,
      "total_episodios": 0,
      "link_video": "https://animefire.plus/video/ao-no-exorcist"
    },
    {
      "id": 200,
      "nome": "Ao no Exorcist: Kyoto Fujouou-hen",
      "link": "https://animefire.plus/animes/ao-no-exorcist-kyoto-fujouou-hen-todos-os-episodios",
      "texto_original": "Ao no Exorcist: Kyoto Fujouou-hen",
      "rating": 7.63,
      "classificacao_etaria": "A14",
      "imagem_original": "https://animefire.plus/img/animes/ao-no-exorcist-kyoto-fujouou-hen.webp",
      "imagem_pasta": "https://animefire.plus/img/animes/ao-no-exorcist-kyoto-fujouou-hen/",
      "secao": "legendados",
      "pagina": 112,
      "total_episodios": 1,
      "link_video": "https://animefire.plus/video/ao-no-exorcist-kyoto-fujouou-hen"
    }
  ],
  "pagination": {
    "current_page": 10,
    "per_page": 20,
    "total_items": 4368,
    "total_pages": 219,
    "has_next": true,
    "has_prev": true
  }
}
