{
  "message": "Lista de animes",
  "data": [
    {
      "id": 401,
      "nome": "Bishoujo Senshi Sailor Moon: Sailor Stars",
      "link": "https://animefire.plus/animes/bishoujo-senshi-sailor-moon-sailor-stars-todos-os-episodios",
      "texto_original": "Bishoujo Senshi Sailor Moon: Sailor Stars",
      "rating": 7.99,
      "classificacao_etaria": "A14",
      "imagem_original": "https://animefire.plus/img/animes/bishoujo-senshi-sailor-moon-sailor-stars.webp",
      "imagem_pasta": "https://animefire.plus/img/animes/bishoujo-senshi-sailor-moon-sailor-stars/",
      "secao": "legendados",
      "pagina": 131,
      "total_episodios": 0,
      "link_video": "https://animefire.plus/video/bishoujo-senshi-sailor-moon-sailor-stars"
    },
    {
      "id": 402,
      "nome": "Bishoujo Senshi Sailor Moon: Sailor Stars - Hero Club",
      "link": "https://animefire.plus/animes/bishoujo-senshi-sailor-moon-sailor-stars---hero-club-todos-os-episodios",
      "texto_original": "Bishoujo Senshi Sailor Moon: Sailor Stars - Hero Club",
      "rating": 7.25,
      "classificacao_etaria": "A14",
      "imagem_original": "https://animefire.plus/img/animes/bishoujo-senshi-sailor-moon-sailor-stars---hero-club.webp",
      "imagem_pasta": "https://animefire.plus/img/animes/bishoujo-senshi-sailor-moon-sailor-stars---hero-club/",
      "secao": "legendados",
      "pagina": 72,
      "total_episodios": 3,
      "link_video": "https://animefire.plus/video/bishoujo-senshi-sailor-moon-sailor-stars---hero-club"
    },
    {
      "id": 403,
      "nome": "Bishoujo Yuugekitai Battle Skipper",
      "link": "https://animefire.plus/animes/bishoujo-yuugekitai-battle-skipper-todos-os-episodios",
      "texto_original": "Bishoujo Yuugekitai Battle Skipper",
      "rating": 5.23,
      "classificacao_etaria": "A14",
      "imagem_original": "https://animefire.plus/img/animes/bishoujo-yuugekitai-battle-skipper.webp",
      "imagem_pasta": "https://animefire.plus/img/animes/bishoujo-yuugekitai-battle-skipper/",
      "secao": "legendados",
      "pagina": 77,
      "total_episodios": 3,
      "link_video": "https://animefire.plus/video/bishoujo-yuugekitai-battle-skipper"
    },
    {
      "id": 404,
      "nome": "Bishoujo Yuugi Unit Crane Game Girls",
      "link": "https://animefire.plus/animes/bishoujo-yuugi-unit-crane-game-girls-todos-os-episodios",
      "texto_original": "Bishoujo Yuugi Unit Crane Game Girls",
      "rating": 4.44,
      "classificacao_etaria": "A10",
      "imagem_original": "https://animefire.plus/img/animes/bishoujo-yuugi-unit-crane-game-girls.webp",
      "imagem_pasta": "https://animefire.plus/img/animes/bishoujo-yuugi-unit-crane-game-girls/",
      "secao": "legendados",
      "pagina": 119,
      "total_episodios": 13,
      "link_video": "https://animefire.plus/video/bishoujo-yuugi-unit-crane-game-girls"
    },
    {
      "id": 405,
      "nome": "Bishoujo Yuugi Unit Crane Game Girls Galaxy",
      "link": "https://animefire.plus/animes/bishoujo-yuugi-unit-crane-game-girls-galaxy-todos-os-episodios",
      "texto_original": "Bishoujo Yuugi Unit Crane Game Girls Galaxy",
      "rating": 4.77,
      "classificacao_etaria": "A10",
      "imagem_original": "https://animefire.plus/img/animes/bishoujo-yuugi-unit-crane-game-girls-galaxy.webp",
      "imagem_pasta": "https://animefire.plus/img/animes/bishoujo-yuugi-unit-crane-game-girls-galaxy/",
      "secao": "legendados",
      "pagina": 146,
      "total_episodios": 3,
      "link_video": "https://animefire.plus/video/bishoujo-yuugi-unit-crane-game-girls-galaxy"
    },
    {
      "id": 406,
      "nome": "Bishounen Tanteidan",
      "link": "https://animefire.plus/animes/bishounen-tanteidan-todos-os-episodios",
      "texto_original": "Bishounen Tanteidan",
      "rating": 7.07,
      "classificacao_etaria": "A14",
      "imagem_original": "https://animefire.plus/img/animes/bishounen-tanteidan.webp",
      "imagem_pasta": "https://animefire.plus/img/animes/bishounen-tanteidan/",
      "secao": "legendados",
      "pagina": 46,
      "total_episodios": 12,
      "link_video": "https://animefire.plus/video/bishounen-tanteidan"
    },
    {
      "id": 407,
      "nome": "Black Blood Brothers",
      "link": "https://animefire.plus/animes/black-blood-brothers-todos-os-episodios",
      "texto_original": "Black Blood Brothers",
      "rating": 7.21,
      "classificacao_etaria": "A16",
      "imagem_original": "https://animefire.plus/img/animes/black-blood-brothers.webp",
      "imagem_pasta": "https://animefire.plus/img/animes/black-blood-brothers/",
      "secao": "legendados",
      "pagina": 151,
      "total_episodios": 6,
      "link_video": "https://animefire.plus/video/black-blood-brothers"
    },
    {
      "id": 408,
      "nome": "Black Bullet",
      "link": "https://animefire.plus/animes/black-bullet-todos-os-episodios",
      "texto_original": "Black Bullet",
      "rating": 7.33,
      "classificacao_etaria": "A16",
      "imagem_original": "https://animefire.plus/img/animes/black-bullet.webp",
      "imagem_pasta": "https://animefire.plus/img/animes/black-bullet/",
      "secao": "legendados",
      "pagina": 134,
      "total_episodios": 13,
      "link_video": "https://animefire.plus/video/black-bullet"
    },
    {
      "id": 409,
      "nome": "Black Cat (Dublado)",
      "link": "https://animefire.plus/animes/black-cat-dublado-todos-os-episodios",
      "texto_original": "Black Cat (Dublado)",
      "rating": 7.41,
      "classificacao_etaria": "A14",
      "imagem_original": "https://animefire.plus/img/animes/black-cat.webp",
      "imagem_pasta": "https://animefire.plus/img/animes/black-cat/",
      "secao": "dublados,legendados",
      "pagina": 22,
      "total_episodios": 24,
      "link_video": "https://animefire.plus/video/black-cat-dublado"
    },
    {
      "id": 410,
      "nome": "Black Clover (Dublado)",
      "link": "https://animefire.plus/animes/black-clover-dublado-todos-os-episodios",
      "texto_original": "Black Clover (Dublado)",
      "rating": 7.27,
      "classificacao_etaria": "A14",
      "imagem_original": "https://animefire.plus/img/animes/black-clover.webp",
      "imagem_pasta": "https://animefire.plus/img/animes/black-clover/",
      "secao": "dublados,legendados",
      "pagina": 20,
      "total_episodios": 170,
      "link_video": "https://animefire.plus/video/black-clover-dublado"
    },
    {
      "id": 411,
      "nome": "Black Jack",
      "link": "https://animefire.plus/animes/black-jack-todos-os-episodios",
      "texto_original": "Black Jack",
      "rating": 7.83,
      "classificacao_etaria": "A18",
      "imagem_original": "https://animefire.plus/img/animes/black-jack.webp",
      "imagem_pasta": "https://animefire.plus/img/animes/black-jack/",
      "secao": "legendados",
      "pagina": 175,
      "total_episodios": 0,
      "link_video": "https://animefire.plus/video/black-jack"
    },
    {
      "id": 412,
      "nome": "Black Lagoon",
      "link": "https://animefire.plus/animes/black-lagoon-todos-os-episodios",
      "texto_original": "Black Lagoon",
      "rating": 8.11,
      "classificacao_etaria": "A16",
      "imagem_original": "https://animefire.plus/img/animes/black-lagoon.webp",
      "imagem_pasta": "https://animefire.plus/img/animes/black-lagoon/",
      "secao": "legendados",
      "pagina": 112,
      "total_episodios": 12,
      "link_video": "https://animefire.plus/video/black-lagoon"
    },
    {
      "id": 413,
      "nome": "Black Lagoon Omake",
      "link": "https://animefire.plus/animes/black-lagoon-omake-todos-os-episodios",
      "texto_original": "Black Lagoon Omake",
      "rating": 6.81,
      "classificacao_etaria": "A14",
      "imagem_original": "https://animefire.plus/img/animes/black-lagoon-omake.webp",
      "imagem_pasta": "https://animefire.plus/img/animes/black-lagoon-omake/",
      "secao": "legendados",
      "pagina": 43,
      "total_episodios": 5,
      "link_video": "https://animefire.plus/video/black-lagoon-omake"
    },
    {
      "id": 414,
      "nome": "Black Lagoon: The Second Barrage",
      "link": "https://animefire.plus/animes/black-lagoon-the-second-barrage-todos-os-episodios",
      "texto_original": "Black Lagoon: The Second Barrage",
      "rating": 8.25,
      "classificacao_etaria": "A16",
      "imagem_original": "https://animefire.plus/img/animes/black-lagoon-the-second-barrage.webp",
      "imagem_pasta": "https://animefire.plus/img/animes/black-lagoon-the-second-barrage/",
      "secao": "legendados",
      "pagina": 162,
      "total_episodios": 12,
      "link_video": "https://animefire.plus/video/black-lagoon-the-second-barrage"
    },
    {
      "id": 415,
      "nome": "Black Magic M-66",
      "link": "https://animefire.plus/animes/black-magic-m-66-todos-os-episodios",
      "texto_original": "Black Magic M-66",
      "rating": 6.39,
      "classificacao_etaria": "A16",
      "imagem_original": "https://animefire.plus/img/animes/black-magic-m-66.webp",
      "imagem_pasta": "https://animefire.plus/img/animes/black-magic-m-66/",
      "secao": "legendados",
      "pagina": 56,
      "total_episodios": 1,
      "link_video": "https://animefire.plus/video/black-magic-m-66"
    },
    {
      "id": 416,
      "nome": "Black★Rock Shooter (TV)",
      "link": "https://animefire.plus/animes/black-rock-shooter-tv-todos-os-episodios",
      "texto_original": "Black★Rock Shooter (TV)",
      "rating": 6.95,
      "classificacao_etaria": "A14",
      "imagem_original": "https://animefire.plus/img/animes/black-rock-shooter-tv.webp",
      "imagem_pasta": "https://animefire.plus/img/animes/black-rock-shooter-tv/",
      "secao": "legendados",
      "pagina": 143,
      "total_episodios": 8,
      "link_video": "https://animefire.plus/video/black-rock-shooter-tv"
    },
    {
      "id": 417,
      "nome": "Blade",
      "link": "https://animefire.plus/animes/blade-todos-os-episodios",
      "texto_original": "Blade",
      "rating": 6.3,
      "classificacao_etaria": "A16",
      "imagem_original": "https://animefire.plus/img/animes/blade.webp",
      "imagem_pasta": "https://animefire.plus/img/animes/blade/",
      "secao": "legendados",
      "pagina": 135,
      "total_episodios": 12,
      "link_video": "https://animefire.plus/video/blade"
    },
    {
      "id": 418,
      "nome": "Blade & Soul",
      "link": "https://animefire.plus/animes/blade-soul-todos-os-episodios",
      "texto_original": "Blade & Soul",
      "rating": 6.17,
      "classificacao_etaria": "A16",
      "imagem_original": "https://animefire.plus/img/animes/blade-soul.webp",
      "imagem_pasta": "https://animefire.plus/img/animes/blade-soul/",
      "secao": "legendados",
      "pagina": 112,
      "total_episodios": 13,
      "link_video": "https://animefire.plus/video/blade-soul"
    },
    {
      "id": 419,
      "nome": "Blade of the Immortal",
      "link": "https://animefire.plus/animes/blade-of-the-immortal-todos-os-episodios",
      "texto_original": "Blade of the Immortal",
      "rating": 6.87,
      "classificacao_etaria": "A16",
      "imagem_original": "https://animefire.plus/img/animes/blade-of-the-immortal.webp",
      "imagem_pasta": "https://animefire.plus/img/animes/blade-of-the-immortal/",
      "secao": "legendados",
      "pagina": 121,
      "total_episodios": 13,
      "link_video": "https://animefire.plus/video/blade-of-the-immortal"
    },
    {
      "id": 420,
      "nome": "Blade Runner: Black Lotus",
      "link": "https://animefire.plus/animes/blade-runner-black-lotus-todos-os-episodios",
      "texto_original": "Blade Runner: Black Lotus",
      "rating": 6.28,
      "classificacao_etaria": "A16",
      "imagem_original": "https://animefire.plus/img/animes/blade-runner-black-lotus.webp",
      "imagem_pasta": "https://animefire.plus/img/animes/blade-runner-black-lotus/",
      "secao": "legendados",
      "pagina": 37,
      "total_episodios": 13,
      "link_video": "https://animefire.plus/video/blade-runner-black-lotus"
    }
  ],
  "pagination": {
    "current_page": 21,
    "per_page": 20,
    "total_items": 4368,
    "total_pages": 219,
    "has_next": true,
    "has_prev": true
  }
}
