{
  "message": "Lista de animes",
  "data": [
    {
      "id": 1661,
      "nome": "Isekai no Seikishi Monogatari",
      "link": "https://animefire.plus/animes/isekai-no-seikishi-monogatari-todos-os-episodios",
      "texto_original": "Isekai no Seikishi Monogatari",
      "rating": 7.97,
      "classificacao_etaria": "A18",
      "imagem_original": "https://animefire.plus/img/animes/isekai-no-seikishi-monogatari.webp",
      "imagem_pasta": "https://animefire.plus/img/animes/isekai-no-seikishi-monogatari/",
      "secao": "legendados",
      "pagina": 156,
      "total_episodios": 0,
      "link_video": "https://animefire.plus/video/isekai-no-seikishi-monogatari"
    },
    {
      "id": 1662,
      "nome": "Isekai Nonbiri Nouka",
      "link": "https://animefire.plus/animes/isekai-nonbiri-nouka-todos-os-episodios",
      "texto_original": "Isekai Nonbiri Nouka",
      "rating": 7.54,
      "classificacao_etaria": "A14",
      "imagem_original": "https://animefire.plus/img/animes/isekai-nonbiri-nouka.webp",
      "imagem_pasta": "https://animefire.plus/img/animes/isekai-nonbiri-nouka/",
      "secao": "legendados",
      "pagina": 27,
      "total_episodios": 12,
      "link_video": "https://animefire.plus/video/isekai-nonbiri-nouka"
    },
    {
      "id": 1663,
      "nome": "Isekai Ojisan",
      "link": "https://animefire.plus/animes/isekai-ojisan-todos-os-episodios",
      "texto_original": "Isekai Ojisan",
      "rating": 7.76,
      "classificacao_etaria": "A14",
      "imagem_original": "https://animefire.plus/img/animes/isekai-ojisan.webp",
      "imagem_pasta": "https://animefire.plus/img/animes/isekai-ojisan/",
      "secao": "legendados,lancamentos",
      "pagina": 31,
      "total_episodios": 12,
      "link_video": "https://animefire.plus/video/isekai-ojisan"
    },
    {
      "id": 1664,
      "nome": "Isekai One Turn Kill Neesan: Ane Douhan no Isekai Seikatsu Hajimemashita",
      "link": "https://animefire.plus/animes/isekai-one-turn-kill-neesan-ane-douhan-no-isekai-seikatsu-hajimemashita-todos-os-episodios",
      "texto_original": "Isekai One Turn Kill Neesan: Ane Douhan no Isekai Seikatsu Hajimemashita",
      "rating": 6.31,
      "classificacao_etaria": "A14",
      "imagem_original": "https://animefire.plus/img/animes/isekai-one-turn-kill-neesan-ane-douhan-no-isekai-seikatsu-hajimemashita.jpg",
      "imagem_pasta": "https://animefire.plus/img/animes/isekai-one-turn-kill-neesan-ane-douhan-no-isekai-seikatsu-hajimemashita/",
      "secao": "legendados",
      "pagina": 24,
      "total_episodios": 12,
      "link_video": "https://animefire.plus/video/isekai-one-turn-kill-neesan-ane-douhan-no-isekai-seikatsu-hajimemashita"
    },
    {
      "id": 1665,
      "nome": "Isekai Quartet",
      "link": "https://animefire.plus/animes/isekai-quartet-todos-os-episodios",
      "texto_original": "Isekai Quartet",
      "rating": 7.45,
      "classificacao_etaria": "A14",
      "imagem_original": "https://animefire.plus/img/animes/isekai-quartet.webp",
      "imagem_pasta": "https://animefire.plus/img/animes/isekai-quartet/",
      "secao": "legendados",
      "pagina": 151,
      "total_episodios": 0,
      "link_video": "https://animefire.plus/video/isekai-quartet"
    },
    {
      "id": 1666,
      "nome": "Isekai Quartet 2",
      "link": "https://animefire.plus/animes/isekai-quartet-2-todos-os-episodios",
      "texto_original": "Isekai Quartet 2",
      "rating": 7.38,
      "classificacao_etaria": "A14",
      "imagem_original": "https://animefire.plus/img/animes/isekai-quartet-2.webp",
      "imagem_pasta": "https://animefire.plus/img/animes/isekai-quartet-2/",
      "secao": "legendados",
      "pagina": 91,
      "total_episodios": 0,
      "link_video": "https://animefire.plus/video/isekai-quartet-2"
    },
    {
      "id": 1667,
      "nome": "Isekai Shikkaku",
      "link": "https://animefire.plus/animes/isekai-shikkaku-todos-os-episodios",
      "texto_original": "Isekai Shikkaku",
      "rating": 7.26,
      "classificacao_etaria": "A14",
      "imagem_original": "https://animefire.plus/img/animes/isekai-shikkaku.webp",
      "imagem_pasta": "https://animefire.plus/img/animes/isekai-shikkaku/",
      "secao": "legendados",
      "pagina": 13,
      "total_episodios": 12,
      "link_video": "https://animefire.plus/video/isekai-shikkaku"
    },
    {
      "id": 1668,
      "nome": "Isekai Shokudou",
      "link": "https://animefire.plus/animes/isekai-shokudou-todos-os-episodios",
      "texto_original": "Isekai Shokudou",
      "rating": 7.4,
      "classificacao_etaria": "A14",
      "imagem_original": "https://animefire.plus/img/animes/isekai-shokudou.webp",
      "imagem_pasta": "https://animefire.plus/img/animes/isekai-shokudou/",
      "secao": "legendados",
      "pagina": 131,
      "total_episodios": 12,
      "link_video": "https://animefire.plus/video/isekai-shokudou"
    },
    {
      "id": 1669,
      "nome": "Isekai Shokudou 2",
      "link": "https://animefire.plus/animes/isekai-shokudou-2-todos-os-episodios",
      "texto_original": "Isekai Shokudou 2",
      "rating": 7.69,
      "classificacao_etaria": "A14",
      "imagem_original": "https://animefire.plus/img/animes/isekai-shokudou-2.webp",
      "imagem_pasta": "https://animefire.plus/img/animes/isekai-shokudou-2/",
      "secao": "legendados",
      "pagina": 39,
      "total_episodios": 12,
      "link_video": "https://animefire.plus/video/isekai-shokudou-2"
    },
    {
      "id": 1670,
      "nome": "Isekai Shoukan wa Nidome desu",
      "link": "https://animefire.plus/animes/isekai-shoukan-wa-nidome-desu-todos-os-episodios",
      "texto_original": "Isekai Shoukan wa Nidome desu",
      "rating": 5.67,
      "classificacao_etaria": "A14",
      "imagem_original": "https://animefire.plus/img/animes/isekai-shoukan-wa-nidome-desu.jpg",
      "imagem_pasta": "https://animefire.plus/img/animes/isekai-shoukan-wa-nidome-desu/",
      "secao": "legendados",
      "pagina": 24,
      "total_episodios": 12,
      "link_video": "https://animefire.plus/video/isekai-shoukan-wa-nidome-desu"
    },
    {
      "id": 1671,
      "nome": "Isekai Suicide Squad",
      "link": "https://animefire.plus/animes/isekai-suicide-squad-todos-os-episodios",
      "texto_original": "Isekai Suicide Squad",
      "rating": 6.41,
      "classificacao_etaria": "A16",
      "imagem_original": "https://animefire.plus/img/animes/isekai-suicide-squad.webp",
      "imagem_pasta": "https://animefire.plus/img/animes/isekai-suicide-squad/",
      "secao": "legendados",
      "pagina": 12,
      "total_episodios": 10,
      "link_video": "https://animefire.plus/video/isekai-suicide-squad"
    },
    {
      "id": 1672,
      "nome": "Isekai wa Smartphone to Tomo ni. (Dublado)",
      "link": "https://animefire.plus/animes/isekai-wa-smartphone-to-tomo-ni-dublado-todos-os-episodios",
      "texto_original": "Isekai wa Smartphone to Tomo ni. (Dublado)",
      "rating": 6.5,
      "classificacao_etaria": "A14",
      "imagem_original": "https://animefire.plus/img/animes/isekai-wa-smartphone-to-tomo-ni.webp",
      "imagem_pasta": "https://animefire.plus/img/animes/isekai-wa-smartphone-to-tomo-ni/",
      "secao": "dublados,legendados",
      "pagina": 24,
      "total_episodios": 3,
      "link_video": "https://animefire.plus/video/isekai-wa-smartphone-to-tomo-ni-dublado"
    },
    {
      "id": 1673,
      "nome": "Isekai wa Smartphone to Tomo ni. 2 (Dublado)",
      "link": "https://animefire.plus/animes/isekai-wa-smartphone-to-tomo-ni-2-dublado-todos-os-episodios",
      "texto_original": "Isekai wa Smartphone to Tomo ni. 2 (Dublado)",
      "rating": 6.41,
      "classificacao_etaria": "A14",
      "imagem_original": "https://animefire.plus/img/animes/isekai-wa-smartphone-to-tomo-ni-2.webp",
      "imagem_pasta": "https://animefire.plus/img/animes/isekai-wa-smartphone-to-tomo-ni-2/",
      "secao": "dublados,legendados",
      "pagina": 7,
      "total_episodios": 12,
      "link_video": "https://animefire.plus/video/isekai-wa-smartphone-to-tomo-ni-2-dublado"
    },
    {
      "id": 1674,
      "nome": "Isekai Yakkyoku",
      "link": "https://animefire.plus/animes/isekai-yakkyoku-todos-os-episodios",
      "texto_original": "Isekai Yakkyoku",
      "rating": 7.27,
      "classificacao_etaria": "A14",
      "imagem_original": "https://animefire.plus/img/animes/isekai-yakkyoku.webp",
      "imagem_pasta": "https://animefire.plus/img/animes/isekai-yakkyoku/",
      "secao": "legendados",
      "pagina": 31,
      "total_episodios": 12,
      "link_video": "https://animefire.plus/video/isekai-yakkyoku"
    },
    {
      "id": 1675,
      "nome": "Isekai Yururi Kikou: Kosodateshinagara Boukensha Shimasu",
      "link": "https://animefire.plus/animes/isekai-yururi-kikou-kosodateshinagara-boukensha-shimasu-todos-os-episodios",
      "texto_original": "Isekai Yururi Kikou: Kosodateshinagara Boukensha Shimasu",
      "rating": 6.67,
      "classificacao_etaria": "A14",
      "imagem_original": "https://animefire.plus/img/animes/isekai-yururi-kikou-kosodateshinagara-boukensha-shimasu.webp",
      "imagem_pasta": "https://animefire.plus/img/animes/isekai-yururi-kikou-kosodateshinagara-boukensha-shimasu/",
      "secao": "legendados",
      "pagina": 11,
      "total_episodios": 12,
      "link_video": "https://animefire.plus/video/isekai-yururi-kikou-kosodateshinagara-boukensha-shimasu"
    },
    {
      "id": 1676,
      "nome": "Ishida to Asakura",
      "link": "https://animefire.plus/animes/ishida-to-asakura-todos-os-episodios",
      "texto_original": "Ishida to Asakura",
      "rating": 5.96,
      "classificacao_etaria": "A14",
      "imagem_original": "https://animefire.plus/img/animes/ishida-to-asakura.webp",
      "imagem_pasta": "https://animefire.plus/img/animes/ishida-to-asakura/",
      "secao": "legendados",
      "pagina": 121,
      "total_episodios": 12,
      "link_video": "https://animefire.plus/video/ishida-to-asakura"
    },
    {
      "id": 1677,
      "nome": "Ishura",
      "link": "https://animefire.plus/animes/ishura-todos-os-episodios",
      "texto_original": "Ishura",
      "rating": 6.72,
      "classificacao_etaria": "A14",
      "imagem_original": "https://animefire.plus/img/animes/ishura.webp",
      "imagem_pasta": "https://animefire.plus/img/animes/ishura/",
      "secao": "legendados",
      "pagina": 17,
      "total_episodios": 12,
      "link_video": "https://animefire.plus/video/ishura"
    },
    {
      "id": 1678,
      "nome": "Ishura 2nd Season",
      "link": "https://animefire.plus/animes/ishura-2nd-season-todos-os-episodios",
      "texto_original": "Ishura 2nd Season",
      "rating": null,
      "classificacao_etaria": "A16",
      "imagem_original": "https://animefire.plus/img/animes/ishura-2nd-season.webp",
      "imagem_pasta": "https://animefire.plus/img/animes/ishura-2nd-season/",
      "secao": "legendados",
      "pagina": 8,
      "total_episodios": 12,
      "link_video": "https://animefire.plus/video/ishura-2nd-season"
    },
    {
      "id": 1679,
      "nome": "Ishuzoku Reviewers",
      "link": "https://animefire.plus/animes/ishuzoku-reviewers-todos-os-episodios",
      "texto_original": "Ishuzoku Reviewers",
      "rating": 7.58,
      "classificacao_etaria": "A18",
      "imagem_original": "https://animefire.plus/img/animes/ishuzoku-reviewers.webp",
      "imagem_pasta": "https://animefire.plus/img/animes/ishuzoku-reviewers/",
      "secao": "legendados",
      "pagina": 92,
      "total_episodios": 0,
      "link_video": "https://animefire.plus/video/ishuzoku-reviewers"
    },
    {
      "id": 1680,
      "nome": "Island",
      "link": "https://animefire.plus/animes/island-todos-os-episodios",
      "texto_original": "Island",
      "rating": 6.52,
      "classificacao_etaria": "A14",
      "imagem_original": "https://animefire.plus/img/animes/island.webp",
      "imagem_pasta": "https://animefire.plus/img/animes/island/",
      "secao": "legendados",
      "pagina": 170,
      "total_episodios": 12,
      "link_video": "https://animefire.plus/video/island"
    }
  ],
  "pagination": {
    "current_page": 84,
    "per_page": 20,
    "total_items": 4368,
    "total_pages": 219,
    "has_next": true,
    "has_prev": true
  }
}
