{
  "message": "Lista de animes",
  "data": [
    {
      "id": 2941,
      "nome": "Owari no Seraph: Nagoya Kessen-hen (Dublado)",
      "link": "https://animefire.plus/animes/owari-no-seraph-nagoya-kessen-hen-dublado-todos-os-episodios",
      "texto_original": "Owari no Seraph: Nagoya Kessen-hen (Dublado)",
      "rating": 7.63,
      "classificacao_etaria": "A16",
      "imagem_original": "https://animefire.plus/img/animes/owari-no-seraph-nagoya-kessen-hen.webp",
      "imagem_pasta": "https://animefire.plus/img/animes/owari-no-seraph-nagoya-kessen-hen/",
      "secao": "dublados,legendados",
      "pagina": 15,
      "total_episodios": 12,
      "link_video": "https://animefire.plus/video/owari-no-seraph-nagoya-kessen-hen-dublado"
    },
    {
      "id": 2942,
      "nome": "Owarimonogatari",
      "link": "https://animefire.plus/animes/owarimonogatari-todos-os-episodios",
      "texto_original": "Owarimonogatari",
      "rating": 8.46,
      "classificacao_etaria": "A16",
      "imagem_original": "https://animefire.plus/img/animes/owarimonogatari.webp",
      "imagem_pasta": "https://animefire.plus/img/animes/owarimonogatari/",
      "secao": "legendados",
      "pagina": 74,
      "total_episodios": 12,
      "link_video": "https://animefire.plus/video/owarimonogatari"
    },
    {
      "id": 2943,
      "nome": "Owarimonogatari 2nd Season",
      "link": "https://animefire.plus/animes/owarimonogatari-2nd-season-todos-os-episodios",
      "texto_original": "Owarimonogatari 2nd Season",
      "rating": 8.95,
      "classificacao_etaria": "A16",
      "imagem_original": "https://animefire.plus/img/animes/owarimonogatari-2nd-season.webp",
      "imagem_pasta": "https://animefire.plus/img/animes/owarimonogatari-2nd-season/",
      "secao": "legendados",
      "pagina": 99,
      "total_episodios": 3,
      "link_video": "https://animefire.plus/video/owarimonogatari-2nd-season"
    },
    {
      "id": 2944,
      "nome": "Ozma",
      "link": "https://animefire.plus/animes/ozma-todos-os-episodios",
      "texto_original": "Ozma",
      "rating": 6.13,
      "classificacao_etaria": "A14",
      "imagem_original": "https://animefire.plus/img/animes/ozma.webp",
      "imagem_pasta": "https://animefire.plus/img/animes/ozma/",
      "secao": "legendados",
      "pagina": 139,
      "total_episodios": 6,
      "link_video": "https://animefire.plus/video/ozma"
    },
    {
      "id": 2945,
      "nome": "Ozmafia!!",
      "link": "https://animefire.plus/animes/ozmafia-todos-os-episodios",
      "texto_original": "Ozmafia!!",
      "rating": 5.5,
      "classificacao_etaria": "A14",
      "imagem_original": "https://animefire.plus/img/animes/ozmafia.webp",
      "imagem_pasta": "https://animefire.plus/img/animes/ozmafia/",
      "secao": "legendados",
      "pagina": 144,
      "total_episodios": 0,
      "link_video": "https://animefire.plus/video/ozmafia"
    },
    {
      "id": 2946,
      "nome": "Pan de Peace!",
      "link": "https://animefire.plus/animes/pan-de-peace-todos-os-episodios",
      "texto_original": "Pan de Peace!",
      "rating": 5.61,
      "classificacao_etaria": "A14",
      "imagem_original": "https://animefire.plus/img/animes/pan-de-peace.webp",
      "imagem_pasta": "https://animefire.plus/img/animes/pan-de-peace/",
      "secao": "legendados",
      "pagina": 61,
      "total_episodios": 13,
      "link_video": "https://animefire.plus/video/pan-de-peace"
    },
    {
      "id": 2947,
      "nome": "Pandora Hearts",
      "link": "https://animefire.plus/animes/pandora-hearts-todos-os-episodios",
      "texto_original": "Pandora Hearts",
      "rating": 7.81,
      "classificacao_etaria": "A14",
      "imagem_original": "https://animefire.plus/img/animes/pandora-hearts.webp",
      "imagem_pasta": "https://animefire.plus/img/animes/pandora-hearts/",
      "secao": "legendados",
      "pagina": 162,
      "total_episodios": 25,
      "link_video": "https://animefire.plus/video/pandora-hearts"
    },
    {
      "id": 2948,
      "nome": "Pandora to Akubi",
      "link": "https://animefire.plus/animes/pandora-to-akubi-todos-os-episodios",
      "texto_original": "Pandora to Akubi",
      "rating": 6.13,
      "classificacao_etaria": null,
      "imagem_original": "https://animefire.plus/img/animes/pandora-to-akubi.webp",
      "imagem_pasta": "https://animefire.plus/img/animes/pandora-to-akubi/",
      "secao": "legendados",
      "pagina": 89,
      "total_episodios": 2,
      "link_video": "https://animefire.plus/video/pandora-to-akubi"
    },
    {
      "id": 2949,
      "nome": "Paniponi Dash!",
      "link": "https://animefire.plus/animes/paniponi-dash-todos-os-episodios",
      "texto_original": "Paniponi Dash!",
      "rating": 7.47,
      "classificacao_etaria": "A14",
      "imagem_original": "https://animefire.plus/img/animes/paniponi-dash.webp",
      "imagem_pasta": "https://animefire.plus/img/animes/paniponi-dash/",
      "secao": "legendados",
      "pagina": 56,
      "total_episodios": 26,
      "link_video": "https://animefire.plus/video/paniponi-dash"
    },
    {
      "id": 2950,
      "nome": "Panty & Stocking with Garterbelt",
      "link": "https://animefire.plus/animes/panty-stocking-with-garterbelt-todos-os-episodios",
      "texto_original": "Panty & Stocking with Garterbelt",
      "rating": 7.77,
      "classificacao_etaria": "A16",
      "imagem_original": "https://animefire.plus/img/animes/panty-stocking-with-garterbelt.webp",
      "imagem_pasta": "https://animefire.plus/img/animes/panty-stocking-with-garterbelt/",
      "secao": "legendados",
      "pagina": 161,
      "total_episodios": 13,
      "link_video": "https://animefire.plus/video/panty-stocking-with-garterbelt"
    },
    {
      "id": 2951,
      "nome": "Papa no Iukoto wo Kikinasai!",
      "link": "https://animefire.plus/animes/papa-no-iukoto-wo-kikinasai-todos-os-episodios",
      "texto_original": "Papa no Iukoto wo Kikinasai!",
      "rating": 7.42,
      "classificacao_etaria": "A14",
      "imagem_original": "https://animefire.plus/img/animes/papa-no-iukoto-wo-kikinasai.webp",
      "imagem_pasta": "https://animefire.plus/img/animes/papa-no-iukoto-wo-kikinasai/",
      "secao": "legendados",
      "pagina": 132,
      "total_episodios": 3,
      "link_video": "https://animefire.plus/video/papa-no-iukoto-wo-kikinasai"
    },
    {
      "id": 2952,
      "nome": "Paradise Kiss",
      "link": "https://animefire.plus/animes/paradise-kiss-todos-os-episodios",
      "texto_original": "Paradise Kiss",
      "rating": 7.88,
      "classificacao_etaria": "A16",
      "imagem_original": "https://animefire.plus/img/animes/paradise-kiss.webp",
      "imagem_pasta": "https://animefire.plus/img/animes/paradise-kiss/",
      "secao": "legendados",
      "pagina": 149,
      "total_episodios": 12,
      "link_video": "https://animefire.plus/video/paradise-kiss"
    },
    {
      "id": 2953,
      "nome": "Paradox Live the Animation",
      "link": "https://animefire.plus/animes/paradox-live-the-animation-todos-os-episodios",
      "texto_original": "Paradox Live the Animation",
      "rating": 6.86,
      "classificacao_etaria": "A14",
      "imagem_original": "https://animefire.plus/img/animes/paradox-live-the-animation.webp",
      "imagem_pasta": "https://animefire.plus/img/animes/paradox-live-the-animation/",
      "secao": "legendados",
      "pagina": 19,
      "total_episodios": 12,
      "link_video": "https://animefire.plus/video/paradox-live-the-animation"
    },
    {
      "id": 2954,
      "nome": "Paripi Koumei",
      "link": "https://animefire.plus/animes/paripi-koumei-todos-os-episodios",
      "texto_original": "Paripi Koumei",
      "rating": 8.11,
      "classificacao_etaria": "A14",
      "imagem_original": "https://animefire.plus/img/animes/paripi-koumei.webp",
      "imagem_pasta": "https://animefire.plus/img/animes/paripi-koumei/",
      "secao": "legendados",
      "pagina": 34,
      "total_episodios": 12,
      "link_video": "https://animefire.plus/video/paripi-koumei"
    },
    {
      "id": 2955,
      "nome": "Party kara Tsuihou sareta Sono Chiyushi, Jitsu wa Saikyou ni Tsuki (Dublado)",
      "link": "https://animefire.plus/animes/party-kara-tsuihou-sareta-sono-chiyushi-jitsu-wa-saikyou-ni-tsuki-dublado-todos-os-episodios",
      "texto_original": "Party kara Tsuihou sareta Sono Chiyushi, Jitsu wa Saikyou ni Tsuki (Dublado)",
      "rating": 5.7,
      "classificacao_etaria": "A14",
      "imagem_original": "https://animefire.plus/img/animes/party-kara-tsuihou-sareta-sono-chiyushi-jitsu-wa-saikyou-ni-tsuki.webp",
      "imagem_pasta": "https://animefire.plus/img/animes/party-kara-tsuihou-sareta-sono-chiyushi-jitsu-wa-saikyou-ni-tsuki/",
      "secao": "dublados,legendados,lancamentos",
      "pagina": 2,
      "total_episodios": 12,
      "link_video": "https://animefire.plus/video/party-kara-tsuihou-sareta-sono-chiyushi-jitsu-wa-saikyou-ni-tsuki-dublado"
    },
    {
      "id": 2956,
      "nome": "Pastel Life",
      "link": "https://animefire.plus/animes/pastel-life-todos-os-episodios",
      "texto_original": "Pastel Life",
      "rating": 6.62,
      "classificacao_etaria": "A14",
      "imagem_original": "https://animefire.plus/img/animes/pastel-life.webp",
      "imagem_pasta": "https://animefire.plus/img/animes/pastel-life/",
      "secao": "legendados",
      "pagina": 67,
      "total_episodios": 6,
      "link_video": "https://animefire.plus/video/pastel-life"
    },
    {
      "id": 2957,
      "nome": "Pastel Memories",
      "link": "https://animefire.plus/animes/pastel-memories-todos-os-episodios",
      "texto_original": "Pastel Memories",
      "rating": 5.12,
      "classificacao_etaria": "A14",
      "imagem_original": "https://animefire.plus/img/animes/pastel-memories.webp",
      "imagem_pasta": "https://animefire.plus/img/animes/pastel-memories/",
      "secao": "legendados",
      "pagina": 107,
      "total_episodios": 12,
      "link_video": "https://animefire.plus/video/pastel-memories"
    },
    {
      "id": 2958,
      "nome": "Patalliro Saiyuuki!",
      "link": "https://animefire.plus/animes/patalliro-saiyuuki-todos-os-episodios",
      "texto_original": "Patalliro Saiyuuki!",
      "rating": 6.58,
      "classificacao_etaria": "A14",
      "imagem_original": "https://animefire.plus/img/animes/patalliro-saiyuuki.webp",
      "imagem_pasta": "https://animefire.plus/img/animes/patalliro-saiyuuki/",
      "secao": "legendados",
      "pagina": 44,
      "total_episodios": 9,
      "link_video": "https://animefire.plus/video/patalliro-saiyuuki"
    },
    {
      "id": 2959,
      "nome": "Patalliro!",
      "link": "https://animefire.plus/animes/patalliro-todos-os-episodios",
      "texto_original": "Patalliro!",
      "rating": 7.24,
      "classificacao_etaria": "A14",
      "imagem_original": "https://animefire.plus/img/animes/patalliro.webp",
      "imagem_pasta": "https://animefire.plus/img/animes/patalliro/",
      "secao": "legendados",
      "pagina": 43,
      "total_episodios": 35,
      "link_video": "https://animefire.plus/video/patalliro"
    },
    {
      "id": 2960,
      "nome": "Peace Maker Kurogane",
      "link": "https://animefire.plus/animes/peace-maker-kurogane-todos-os-episodios",
      "texto_original": "Peace Maker Kurogane",
      "rating": 7.39,
      "classificacao_etaria": "A16",
      "imagem_original": "https://animefire.plus/img/animes/peace-maker-kurogane.webp",
      "imagem_pasta": "https://animefire.plus/img/animes/peace-maker-kurogane/",
      "secao": "legendados",
      "pagina": 163,
      "total_episodios": 24,
      "link_video": "https://animefire.plus/video/peace-maker-kurogane"
    }
  ],
  "pagination": {
    "current_page": 148,
    "per_page": 20,
    "total_items": 4368,
    "total_pages": 219,
    "has_next": true,
    "has_prev": true
  }
}
