{
  "message": "Lista de animes",
  "data": [
    {
      "id": 4141,
      "nome": "Wo De Ni Tian Shen Qi",
      "link": "https://animefire.plus/animes/wo-de-ni-tian-shen-qi-todos-os-episodios",
      "texto_original": "Wo De Ni Tian Shen Qi",
      "rating": 6.62,
      "classificacao_etaria": "A14",
      "imagem_original": "https://animefire.plus/img/animes/wo-de-ni-tian-shen-qi.webp",
      "imagem_pasta": "https://animefire.plus/img/animes/wo-de-ni-tian-shen-qi/",
      "secao": "legendados",
      "pagina": 163,
      "total_episodios": 16,
      "link_video": "https://animefire.plus/video/wo-de-ni-tian-shen-qi"
    },
    {
      "id": 4142,
      "nome": "Wo De Tian Jie Nu You",
      "link": "https://animefire.plus/animes/wo-de-tian-jie-nu-you-todos-os-episodios",
      "texto_original": "Wo De Tian Jie Nu You",
      "rating": 6.64,
      "classificacao_etaria": "A16",
      "imagem_original": "https://animefire.plus/img/animes/wo-de-tian-jie-nu-you.webp",
      "imagem_pasta": "https://animefire.plus/img/animes/wo-de-tian-jie-nu-you/",
      "secao": "legendados",
      "pagina": 59,
      "total_episodios": 15,
      "link_video": "https://animefire.plus/video/wo-de-tian-jie-nu-you"
    },
    {
      "id": 4143,
      "nome": "Wo De Tian Jie Nv You",
      "link": "https://animefire.plus/animes/wo-de-tian-jie-nv-you-todos-os-episodios",
      "texto_original": "Wo De Tian Jie Nv You",
      "rating": 6.73,
      "classificacao_etaria": "A16",
      "imagem_original": "https://animefire.plus/img/animes/wo-de-tian-jie-nv-you.webp",
      "imagem_pasta": "https://animefire.plus/img/animes/wo-de-tian-jie-nv-you/",
      "secao": "legendados",
      "pagina": 126,
      "total_episodios": 15,
      "link_video": "https://animefire.plus/video/wo-de-tian-jie-nv-you"
    },
    {
      "id": 4144,
      "nome": "Wo Kai Dongwuyuan Naxie Nian",
      "link": "https://animefire.plus/animes/wo-kai-dongwuyuan-naxie-nian-todos-os-episodios",
      "texto_original": "Wo Kai Dongwuyuan Naxie Nian",
      "rating": 6.37,
      "classificacao_etaria": "A14",
      "imagem_original": "https://animefire.plus/img/animes/wo-kai-dongwuyuan-naxie-nian.webp",
      "imagem_pasta": "https://animefire.plus/img/animes/wo-kai-dongwuyuan-naxie-nian/",
      "secao": "legendados,lancamentos",
      "pagina": 75,
      "total_episodios": 4,
      "link_video": "https://animefire.plus/video/wo-kai-dongwuyuan-naxie-nian"
    },
    {
      "id": 4145,
      "nome": "Wo Shi Jiang Xiaobai",
      "link": "https://animefire.plus/animes/wo-shi-jiang-xiaobai-todos-os-episodios",
      "texto_original": "Wo Shi Jiang Xiaobai",
      "rating": 7.34,
      "classificacao_etaria": "A14",
      "imagem_original": "https://animefire.plus/img/animes/wo-shi-jiang-xiaobai.webp",
      "imagem_pasta": "https://animefire.plus/img/animes/wo-shi-jiang-xiaobai/",
      "secao": "legendados",
      "pagina": 168,
      "total_episodios": 12,
      "link_video": "https://animefire.plus/video/wo-shi-jiang-xiaobai"
    },
    {
      "id": 4146,
      "nome": "Wo Shi Jiang Xiaobai 2nd Season",
      "link": "https://animefire.plus/animes/wo-shi-jiang-xiaobai-2nd-season-todos-os-episodios",
      "texto_original": "Wo Shi Jiang Xiaobai 2nd Season",
      "rating": null,
      "classificacao_etaria": "A14",
      "imagem_original": "https://animefire.plus/img/animes/wo-shi-jiang-xiaobai-2nd-season.webp",
      "imagem_pasta": "https://animefire.plus/img/animes/wo-shi-jiang-xiaobai-2nd-season/",
      "secao": "legendados",
      "pagina": 84,
      "total_episodios": 12,
      "link_video": "https://animefire.plus/video/wo-shi-jiang-xiaobai-2nd-season"
    },
    {
      "id": 4147,
      "nome": "Wolf's Rain (Dublado)",
      "link": "https://animefire.plus/animes/wolf-s-rain-dublado-todos-os-episodios",
      "texto_original": "Wolf's Rain (Dublado)",
      "rating": 7.88,
      "classificacao_etaria": "A14",
      "imagem_original": "https://animefire.plus/img/animes/wolf-s-rain.webp",
      "imagem_pasta": "https://animefire.plus/img/animes/wolf-s-rain/",
      "secao": "dublados,legendados",
      "pagina": 25,
      "total_episodios": 26,
      "link_video": "https://animefire.plus/video/wolf-s-rain-dublado"
    },
    {
      "id": 4148,
      "nome": "Wolf's Rain OVA",
      "link": "https://animefire.plus/animes/wolf-s-rain-ova-todos-os-episodios",
      "texto_original": "Wolf's Rain OVA",
      "rating": 8.02,
      "classificacao_etaria": "A14",
      "imagem_original": "https://animefire.plus/img/animes/wolf-s-rain-ova.webp",
      "imagem_pasta": "https://animefire.plus/img/animes/wolf-s-rain-ova/",
      "secao": "legendados",
      "pagina": 45,
      "total_episodios": 4,
      "link_video": "https://animefire.plus/video/wolf-s-rain-ova"
    },
    {
      "id": 4149,
      "nome": "Wolverine",
      "link": "https://animefire.plus/animes/wolverine-todos-os-episodios",
      "texto_original": "Wolverine",
      "rating": 6.18,
      "classificacao_etaria": "A14",
      "imagem_original": "https://animefire.plus/img/animes/wolverine.webp",
      "imagem_pasta": "https://animefire.plus/img/animes/wolverine/",
      "secao": "legendados",
      "pagina": 131,
      "total_episodios": 12,
      "link_video": "https://animefire.plus/video/wolverine"
    },
    {
      "id": 4150,
      "nome": "Wonder Egg Priority (Dublado)",
      "link": "https://animefire.plus/animes/wonder-egg-priority-dublado-todos-os-episodios",
      "texto_original": "Wonder Egg Priority (Dublado)",
      "rating": 7.55,
      "classificacao_etaria": "A16",
      "imagem_original": "https://animefire.plus/img/animes/wonder-egg-priority.webp",
      "imagem_pasta": "https://animefire.plus/img/animes/wonder-egg-priority/",
      "secao": "dublados,legendados",
      "pagina": 15,
      "total_episodios": 12,
      "link_video": "https://animefire.plus/video/wonder-egg-priority-dublado"
    },
    {
      "id": 4151,
      "nome": "Wonder Egg Priority Special",
      "link": "https://animefire.plus/animes/wonder-egg-priority-special-todos-os-episodios",
      "texto_original": "Wonder Egg Priority Special",
      "rating": 5.15,
      "classificacao_etaria": "A16",
      "imagem_original": "https://animefire.plus/img/animes/wonder-egg-priority-special.webp",
      "imagem_pasta": "https://animefire.plus/img/animes/wonder-egg-priority-special/",
      "secao": "legendados",
      "pagina": 38,
      "total_episodios": 1,
      "link_video": "https://animefire.plus/video/wonder-egg-priority-special"
    },
    {
      "id": 4152,
      "nome": "Wonderful Precure!",
      "link": "https://animefire.plus/animes/wonderful-precure-todos-os-episodios",
      "texto_original": "Wonderful Precure!",
      "rating": 7.57,
      "classificacao_etaria": null,
      "imagem_original": "https://animefire.plus/img/animes/wonderful-precure.webp",
      "imagem_pasta": "https://animefire.plus/img/animes/wonderful-precure/",
      "secao": "legendados",
      "pagina": 16,
      "total_episodios": 50,
      "link_video": "https://animefire.plus/video/wonderful-precure"
    },
    {
      "id": 4153,
      "nome": "Working!!",
      "link": "https://animefire.plus/animes/working-todos-os-episodios",
      "texto_original": "Working!!",
      "rating": 7.77,
      "classificacao_etaria": "A14",
      "imagem_original": "https://animefire.plus/img/animes/working.webp",
      "imagem_pasta": "https://animefire.plus/img/animes/working/",
      "secao": "legendados",
      "pagina": 165,
      "total_episodios": 13,
      "link_video": "https://animefire.plus/video/working"
    },
    {
      "id": 4154,
      "nome": "Working!!!",
      "link": "https://animefire.plus/animes/wagnaria-3-todos-os-episodios",
      "texto_original": "Working!!!",
      "rating": 8.07,
      "classificacao_etaria": "A14",
      "imagem_original": "https://animefire.plus/img/animes/wagnaria-3.webp",
      "imagem_pasta": "https://animefire.plus/img/animes/wagnaria-3/",
      "secao": "legendados",
      "pagina": 72,
      "total_episodios": 13,
      "link_video": "https://animefire.plus/video/wagnaria-3"
    },
    {
      "id": 4155,
      "nome": "World Destruction: Sekai Bokumetsu no Rokunin",
      "link": "https://animefire.plus/animes/world-destruction-sekai-bokumetsu-no-rokunin-todos-os-episodios",
      "texto_original": "World Destruction: Sekai Bokumetsu no Rokunin",
      "rating": 7.04,
      "classificacao_etaria": "A14",
      "imagem_original": "https://animefire.plus/img/animes/world-destruction-sekai-bokumetsu-no-rokunin.webp",
      "imagem_pasta": "https://animefire.plus/img/animes/world-destruction-sekai-bokumetsu-no-rokunin/",
      "secao": "legendados",
      "pagina": 124,
      "total_episodios": 13,
      "link_video": "https://animefire.plus/video/world-destruction-sekai-bokumetsu-no-rokunin"
    },
    {
      "id": 4156,
      "nome": "World Trigger",
      "link": "https://animefire.plus/animes/world-trigger-todos-os-episodios",
      "texto_original": "World Trigger",
      "rating": 7.59,
      "classificacao_etaria": "A14",
      "imagem_original": "https://animefire.plus/img/animes/world-trigger.webp",
      "imagem_pasta": "https://animefire.plus/img/animes/world-trigger/",
      "secao": "legendados",
      "pagina": 53,
      "total_episodios": 73,
      "link_video": "https://animefire.plus/video/world-trigger"
    },
    {
      "id": 4157,
      "nome": "World Trigger 2nd Season",
      "link": "https://animefire.plus/animes/world-trigger-2nd-season-todos-os-episodios",
      "texto_original": "World Trigger 2nd Season",
      "rating": 8.04,
      "classificacao_etaria": "A14",
      "imagem_original": "https://animefire.plus/img/animes/world-trigger-2nd-season.webp",
      "imagem_pasta": "https://animefire.plus/img/animes/world-trigger-2nd-season/",
      "secao": "legendados",
      "pagina": 49,
      "total_episodios": 12,
      "link_video": "https://animefire.plus/video/world-trigger-2nd-season"
    },
    {
      "id": 4158,
      "nome": "World Trigger 3rd Season",
      "link": "https://animefire.plus/animes/world-trigger-3rd-season-todos-os-episodios",
      "texto_original": "World Trigger 3rd Season",
      "rating": 8.25,
      "classificacao_etaria": "A14",
      "imagem_original": "https://animefire.plus/img/animes/world-trigger-3rd-season.webp",
      "imagem_pasta": "https://animefire.plus/img/animes/world-trigger-3rd-season/",
      "secao": "legendados",
      "pagina": 37,
      "total_episodios": 14,
      "link_video": "https://animefire.plus/video/world-trigger-3rd-season"
    },
    {
      "id": 4159,
      "nome": "World Witches Hasshin Shimasu!",
      "link": "https://animefire.plus/animes/world-witches-hasshin-shimasu-todos-os-episodios",
      "texto_original": "World Witches Hasshin Shimasu!",
      "rating": 6.5,
      "classificacao_etaria": "A14",
      "imagem_original": "https://animefire.plus/img/animes/world-witches-hasshin-shimasu.webp",
      "imagem_pasta": "https://animefire.plus/img/animes/world-witches-hasshin-shimasu/",
      "secao": "legendados",
      "pagina": 48,
      "total_episodios": 12,
      "link_video": "https://animefire.plus/video/world-witches-hasshin-shimasu"
    },
    {
      "id": 4160,
      "nome": "Wotaku ni Koi wa Muzukashii",
      "link": "https://animefire.plus/animes/wotaku-ni-koi-wa-muzukashii-todos-os-episodios",
      "texto_original": "Wotaku ni Koi wa Muzukashii",
      "rating": 8.06,
      "classificacao_etaria": "A14",
      "imagem_original": "https://animefire.plus/img/animes/wotaku-ni-koi-wa-muzukashii.webp",
      "imagem_pasta": "https://animefire.plus/img/animes/wotaku-ni-koi-wa-muzukashii/",
      "secao": "legendados",
      "pagina": 174,
      "total_episodios": 11,
      "link_video": "https://animefire.plus/video/wotaku-ni-koi-wa-muzukashii"
    }
  ],
  "pagination": {
    "current_page": 208,
    "per_page": 20,
    "total_items": 4368,
    "total_pages": 219,
    "has_next": true,
    "has_prev": true
  }
}
