{
  "message": "Animes com 1 a 1 episódios",
  "episode_range": {
    "min": 1,
    "max": 1
  },
  "data": [
    {
      "id": 4109,
      "nome": "Wanna-Be's",
      "link": "https://animefire.plus/animes/wanna-be-s-todos-os-episodios",
      "texto_original": "Wanna-Be's",
      "rating": 5.2,
      "classificacao_etaria": "A18",
      "imagem_original": "https://animefire.plus/img/animes/wanna-be-s.webp",
      "imagem_pasta": "https://animefire.plus/img/animes/wanna-be-s/",
      "secao": "legendados",
      "pagina": 68,
      "total_episodios": 1,
      "link_video": "https://animefire.plus/video/wanna-be-s"
    },
    {
      "id": 4115,
      "nome": "Watashi ga Motenai no wa Dou Kangaetemo Omaera ga Warui!: Motenaishi, Nazomeite Miru",
      "link": "https://animefire.plus/animes/watashi-ga-motenai-no-wa-dou-kangaetemo-omaera-ga-warui-motenaishi-nazomeite-miru-todos-os-episodios",
      "texto_original": "Watashi ga Motenai no wa Dou Kangaetemo Omaera ga Warui!: Motenaishi, Nazomeite Miru",
      "rating": 7.01,
      "classificacao_etaria": "A14",
      "imagem_original": "https://animefire.plus/img/animes/watashi-ga-motenai-no-wa-dou-kangaetemo-omaera-ga-warui-motenaishi-nazomeite-miru.webp",
      "imagem_pasta": "https://animefire.plus/img/animes/watashi-ga-motenai-no-wa-dou-kangaetemo-omaera-ga-warui-motenaishi-nazomeite-miru/",
      "secao": "legendados",
      "pagina": 45,
      "total_episodios": 1,
      "link_video": "https://animefire.plus/video/watashi-ga-motenai-no-wa-dou-kangaetemo-omaera-ga-warui-motenaishi-nazomeite-miru"
    },
    {
      "id": 4118,
      "nome": "Watashi ni Tenshi ga Maiorita! Special",
      "link": "https://animefire.plus/animes/watashi-ni-tenshi-ga-maiorita-special-todos-os-episodios",
      "texto_original": "Watashi ni Tenshi ga Maiorita! Special",
      "rating": 7.3,
      "classificacao_etaria": "A14",
      "imagem_original": "https://animefire.plus/img/animes/watashi-ni-tenshi-ga-maiorita-special.webp",
      "imagem_pasta": "https://animefire.plus/img/animes/watashi-ni-tenshi-ga-maiorita-special/",
      "secao": "legendados",
      "pagina": 100,
      "total_episodios": 1,
      "link_video": "https://animefire.plus/video/watashi-ni-tenshi-ga-maiorita-special"
    },
    {
      "id": 4123,
      "nome": "Watashi no Shiawase na Kekkon: Watashi no Shiawase na Katachi",
      "link": "https://animefire.plus/animes/watashi-no-shiawase-na-kekkon-watashi-no-shiawase-na-katachi-todos-os-episodios",
      "texto_original": "Watashi no Shiawase na Kekkon: Watashi no Shiawase na Katachi",
      "rating": 7.51,
      "classificacao_etaria": "A14",
      "imagem_original": "https://animefire.plus/img/animes/watashi-no-shiawase-na-kekkon-watashi-no-shiawase-na-katachi.webp",
      "imagem_pasta": "https://animefire.plus/img/animes/watashi-no-shiawase-na-kekkon-watashi-no-shiawase-na-katachi/",
      "secao": "legendados",
      "pagina": 14,
      "total_episodios": 1,
      "link_video": "https://animefire.plus/video/watashi-no-shiawase-na-kekkon-watashi-no-shiawase-na-katachi"
    },
    {
      "id": 4151,
      "nome": "Wonder Egg Priority Special",
      "link": "https://animefire.plus/animes/wonder-egg-priority-special-todos-os-episodios",
      "texto_original": "Wonder Egg Priority Special",
      "rating": 5.15,
      "classificacao_etaria": "A16",
      "imagem_original": "https://animefire.plus/img/animes/wonder-egg-priority-special.webp",
      "imagem_pasta": "https://animefire.plus/img/animes/wonder-egg-priority-special/",
      "secao": "legendados",
      "pagina": 38,
      "total_episodios": 1,
      "link_video": "https://animefire.plus/video/wonder-egg-priority-special"
    },
    {
      "id": 4161,
      "nome": "Wotaku ni Koi wa Muzukashii: Youth",
      "link": "https://animefire.plus/animes/wotaku-ni-koi-wa-muzukashii-youth-todos-os-episodios",
      "texto_original": "Wotaku ni Koi wa Muzukashii: Youth",
      "rating": 7.86,
      "classificacao_etaria": "A14",
      "imagem_original": "https://animefire.plus/img/animes/wotaku-ni-koi-wa-muzukashii-youth.webp",
      "imagem_pasta": "https://animefire.plus/img/animes/wotaku-ni-koi-wa-muzukashii-youth/",
      "secao": "legendados",
      "pagina": 88,
      "total_episodios": 1,
      "link_video": "https://animefire.plus/video/wotaku-ni-koi-wa-muzukashii-youth"
    },
    {
      "id": 4169,
      "nome": "Xian Feng Jian Yu Lu",
      "link": "https://animefire.plus/animes/xian-feng-jian-yu-lu-todos-os-episodios",
      "texto_original": "Xian Feng Jian Yu Lu",
      "rating": null,
      "classificacao_etaria": null,
      "imagem_original": "https://animefire.plus/img/animes/xian-feng-jian-yu-lu.webp",
      "imagem_pasta": "https://animefire.plus/img/animes/xian-feng-jian-yu-lu/",
      "secao": "legendados,lancamentos",
      "pagina": 57,
      "total_episodios": 1,
      "link_video": "https://animefire.plus/video/xian-feng-jian-yu-lu"
    },
    {
      "id": 4171,
      "nome": "Xian Wang de Richang Shenghuo 2nd Season",
      "link": "https://animefire.plus/animes/xian-wang-de-richang-shenghuo-2nd-season-todos-os-episodios",
      "texto_original": "Xian Wang de Richang Shenghuo 2nd Season",
      "rating": 7.38,
      "classificacao_etaria": "A14",
      "imagem_original": "https://animefire.plus/img/animes/xian-wang-de-richang-shenghuo-2nd-season.webp",
      "imagem_pasta": "https://animefire.plus/img/animes/xian-wang-de-richang-shenghuo-2nd-season/",
      "secao": "legendados,lancamentos",
      "pagina": 38,
      "total_episodios": 1,
      "link_video": "https://animefire.plus/video/xian-wang-de-richang-shenghuo-2nd-season"
    },
    {
      "id": 4174,
      "nome": "Xiaoke de Huatu Xie Hua",
      "link": "https://animefire.plus/animes/xiaoke-de-huatu-xie-hua-todos-os-episodios",
      "texto_original": "Xiaoke de Huatu Xie Hua",
      "rating": 6.84,
      "classificacao_etaria": null,
      "imagem_original": "https://animefire.plus/img/animes/xiaoke-de-huatu-xie-hua.webp",
      "imagem_pasta": "https://animefire.plus/img/animes/xiaoke-de-huatu-xie-hua/",
      "secao": "legendados",
      "pagina": 16,
      "total_episodios": 1,
      "link_video": "https://animefire.plus/video/xiaoke-de-huatu-xie-hua"
    },
    {
      "id": 4193,
      "nome": "Yama no Susume: Omoide Present",
      "link": "https://animefire.plus/animes/yama-no-susume-omoide-present-todos-os-episodios",
      "texto_original": "Yama no Susume: Omoide Present",
      "rating": 7.4,
      "classificacao_etaria": "A14",
      "imagem_original": "https://animefire.plus/img/animes/yama-no-susume-omoide-present.webp",
      "imagem_pasta": "https://animefire.plus/img/animes/yama-no-susume-omoide-present/",
      "secao": "legendados",
      "pagina": 88,
      "total_episodios": 1,
      "link_video": "https://animefire.plus/video/yama-no-susume-omoide-present"
    },
    {
      "id": 4218,
      "nome": "Yankee-kun na Yamada-kun to Megane-chan to Majo",
      "link": "https://animefire.plus/animes/yankee-kun-na-yamada-kun-to-megane-chan-to-majo-todos-os-episodios",
      "texto_original": "Yankee-kun na Yamada-kun to Megane-chan to Majo",
      "rating": 7.15,
      "classificacao_etaria": "A14",
      "imagem_original": "https://animefire.plus/img/animes/yankee-kun-na-yamada-kun-to-megane-chan-to-majo.webp",
      "imagem_pasta": "https://animefire.plus/img/animes/yankee-kun-na-yamada-kun-to-megane-chan-to-majo/",
      "secao": "legendados",
      "pagina": 89,
      "total_episodios": 1,
      "link_video": "https://animefire.plus/video/yankee-kun-na-yamada-kun-to-megane-chan-to-majo"
    },
    {
      "id": 4226,
      "nome": "Yatogame-chan Kansatsu Nikki 4th Season",
      "link": "https://animefire.plus/animes/yatogame-chan-kansatsu-nikki-4-todos-os-episodios",
      "texto_original": "Yatogame-chan Kansatsu Nikki 4th Season",
      "rating": 6.3,
      "classificacao_etaria": "A14",
      "imagem_original": "https://animefire.plus/img/animes/yatogame-chan-kansatsu-nikki-4.webp",
      "imagem_pasta": "https://animefire.plus/img/animes/yatogame-chan-kansatsu-nikki-4/",
      "secao": "legendados",
      "pagina": 33,
      "total_episodios": 1,
      "link_video": "https://animefire.plus/video/yatogame-chan-kansatsu-nikki-4"
    },
    {
      "id": 4233,
      "nome": "Yesterday Wo Utatte",
      "link": "https://animefire.plus/animes/yesterday-wo-utatte-todos-os-episodios",
      "texto_original": "Yesterday Wo Utatte",
      "rating": 7.01,
      "classificacao_etaria": "A14",
      "imagem_original": "https://animefire.plus/img/animes/yesterday-wo-utatte.webp",
      "imagem_pasta": "https://animefire.plus/img/animes/yesterday-wo-utatte/",
      "secao": "legendados",
      "pagina": 60,
      "total_episodios": 1,
      "link_video": "https://animefire.plus/video/yesterday-wo-utatte"
    },
    {
      "id": 4254,
      "nome": "Youjo Senki: Sabaku no Pasta Daisakusen",
      "link": "https://animefire.plus/animes/youjo-senki-sabaku-no-pasta-daisakusen-todos-os-episodios",
      "texto_original": "Youjo Senki: Sabaku no Pasta Daisakusen",
      "rating": 7.46,
      "classificacao_etaria": "A14",
      "imagem_original": "https://animefire.plus/img/animes/youjo-senki-sabaku-no-pasta-daisakusen.webp",
      "imagem_pasta": "https://animefire.plus/img/animes/youjo-senki-sabaku-no-pasta-daisakusen/",
      "secao": "legendados",
      "pagina": 40,
      "total_episodios": 1,
      "link_video": "https://animefire.plus/video/youjo-senki-sabaku-no-pasta-daisakusen"
    },
    {
      "id": 4255,
      "nome": "Youjo Shachou",
      "link": "https://animefire.plus/animes/youjo-shachou-todos-os-episodios",
      "texto_original": "Youjo Shachou",
      "rating": 6.59,
      "classificacao_etaria": "A14",
      "imagem_original": "https://animefire.plus/img/animes/youjo-shachou.webp",
      "imagem_pasta": "https://animefire.plus/img/animes/youjo-shachou/",
      "secao": "legendados,lancamentos",
      "pagina": 48,
      "total_episodios": 1,
      "link_video": "https://animefire.plus/video/youjo-shachou"
    },
    {
      "id": 4270,
      "nome": "Yowamushi Pedal: Limit Break",
      "link": "https://animefire.plus/animes/yowamushi-pedal-limit-break-todos-os-episodios",
      "texto_original": "Yowamushi Pedal: Limit Break",
      "rating": 7.39,
      "classificacao_etaria": "A14",
      "imagem_original": "https://animefire.plus/img/animes/yowamushi-pedal-limit-break.webp",
      "imagem_pasta": "https://animefire.plus/img/animes/yowamushi-pedal-limit-break/",
      "secao": "legendados,lancamentos",
      "pagina": 29,
      "total_episodios": 1,
      "link_video": "https://animefire.plus/video/yowamushi-pedal-limit-break"
    },
    {
      "id": 4291,
      "nome": "Yumedamaya Kidan",
      "link": "https://animefire.plus/animes/yumedamaya-kidan-todos-os-episodios",
      "texto_original": "Yumedamaya Kidan",
      "rating": 6.57,
      "classificacao_etaria": "A10",
      "imagem_original": "https://animefire.plus/img/animes/yumedamaya-kidan.webp",
      "imagem_pasta": "https://animefire.plus/img/animes/yumedamaya-kidan/",
      "secao": "legendados",
      "pagina": 70,
      "total_episodios": 1,
      "link_video": "https://animefire.plus/video/yumedamaya-kidan"
    },
    {
      "id": 4299,
      "nome": "Yuri!!! on Ice",
      "link": "https://animefire.plus/animes/yuri-on-ice-todos-os-episodios",
      "texto_original": "Yuri!!! on Ice",
      "rating": 8.11,
      "classificacao_etaria": "A14",
      "imagem_original": "https://animefire.plus/img/animes/yuri-on-ice.webp",
      "imagem_pasta": "https://animefire.plus/img/animes/yuri-on-ice/",
      "secao": "legendados",
      "pagina": 116,
      "total_episodios": 1,
      "link_video": "https://animefire.plus/video/yuri-on-ice"
    },
    {
      "id": 4309,
      "nome": "Yuu☆Yuu☆Hakusho Picture Drama",
      "link": "https://animefire.plus/animes/yuu-yuu-hakusho-picture-drama-todos-os-episodios",
      "texto_original": "Yuu☆Yuu☆Hakusho Picture Drama",
      "rating": 6.63,
      "classificacao_etaria": "A14",
      "imagem_original": "https://animefire.plus/img/animes/yuu-yuu-hakusho-picture-drama.webp",
      "imagem_pasta": "https://animefire.plus/img/animes/yuu-yuu-hakusho-picture-drama/",
      "secao": "legendados",
      "pagina": 70,
      "total_episodios": 1,
      "link_video": "https://animefire.plus/video/yuu-yuu-hakusho-picture-drama"
    },
    {
      "id": 4311,
      "nome": "Yuukai Anna",
      "link": "https://animefire.plus/animes/yuukai-anna-todos-os-episodios",
      "texto_original": "Yuukai Anna",
      "rating": 5.09,
      "classificacao_etaria": "A16",
      "imagem_original": "https://animefire.plus/img/animes/yuukai-anna.webp",
      "imagem_pasta": "https://animefire.plus/img/animes/yuukai-anna/",
      "secao": "legendados",
      "pagina": 89,
      "total_episodios": 1,
      "link_video": "https://animefire.plus/video/yuukai-anna"
    }
  ],
  "pagination": {
    "current_page": 23,
    "per_page": 20,
    "total_items": 465,
    "total_pages": 24,
    "has_next": true,
    "has_prev": true
  }
}
