{
  "message": "Animes com 1 a 1 episódios",
  "episode_range": {
    "min": 1,
    "max": 1
  },
  "data": [
    {
      "id": 3773,
      "nome": "Temple Specials",
      "link": "https://animefire.plus/animes/temple-specials-todos-os-episodios",
      "texto_original": "Temple Specials",
      "rating": 6.49,
      "classificacao_etaria": "A14",
      "imagem_original": "https://animefire.plus/img/animes/temple-specials.webp",
      "imagem_pasta": "https://animefire.plus/img/animes/temple-specials/",
      "secao": "legendados",
      "pagina": 17,
      "total_episodios": 1,
      "link_video": "https://animefire.plus/video/temple-specials"
    },
    {
      "id": 3806,
      "nome": "Tensei shitara Slime Datta Ken: Kanwa - Veldora Nikki (Dublado)",
      "link": "https://animefire.plus/animes/tensei-shitara-slime-datta-ken-kanwa---veldora-nikki-dublado-todos-os-episodios",
      "texto_original": "Tensei shitara Slime Datta Ken: Kanwa - Veldora Nikki (Dublado)",
      "rating": 6.57,
      "classificacao_etaria": "A14",
      "imagem_original": "https://animefire.plus/img/animes/tensei-shitara-slime-datta-ken-kanwa---veldora-nikki.webp",
      "imagem_pasta": "https://animefire.plus/img/animes/tensei-shitara-slime-datta-ken-kanwa---veldora-nikki/",
      "secao": "dublados",
      "pagina": 16,
      "total_episodios": 1,
      "link_video": "https://animefire.plus/video/tensei-shitara-slime-datta-ken-kanwa---veldora-nikki-dublado"
    },
    {
      "id": 3818,
      "nome": "Terra Formars Revenge",
      "link": "https://animefire.plus/animes/terra-formars-revenge-todos-os-episodios",
      "texto_original": "Terra Formars Revenge",
      "rating": 6.82,
      "classificacao_etaria": "A16",
      "imagem_original": "https://animefire.plus/img/animes/terra-formars-revenge.webp",
      "imagem_pasta": "https://animefire.plus/img/animes/terra-formars-revenge/",
      "secao": "legendados",
      "pagina": 97,
      "total_episodios": 1,
      "link_video": "https://animefire.plus/video/terra-formars-revenge"
    },
    {
      "id": 3830,
      "nome": "The iDOLM@STER Cinderella Girls: Anytime, Anywhere with Cinderella.",
      "link": "https://animefire.plus/animes/the-idolmaster-cinderella-girls-anytime-anywhere-with-cinderella-todos-os-episodios",
      "texto_original": "The iDOLM@STER Cinderella Girls: Anytime, Anywhere with Cinderella.",
      "rating": 7.34,
      "classificacao_etaria": "A14",
      "imagem_original": "https://animefire.plus/img/animes/the-idolmaster-cinderella-girls-anytime-anywhere-with-cinderella.webp",
      "imagem_pasta": "https://animefire.plus/img/animes/the-idolmaster-cinderella-girls-anytime-anywhere-with-cinderella/",
      "secao": "legendados",
      "pagina": 64,
      "total_episodios": 1,
      "link_video": "https://animefire.plus/video/the-idolmaster-cinderella-girls-anytime-anywhere-with-cinderella"
    },
    {
      "id": 3835,
      "nome": "The iDOLM@STER SideM: 315 Variety Pack! Made In Passion!",
      "link": "https://animefire.plus/animes/the-idolmatster-sidem-315-variety-pack-made-in-passion-todos-os-episodios",
      "texto_original": "The iDOLM@STER SideM: 315 Variety Pack! Made In Passion!",
      "rating": 6.53,
      "classificacao_etaria": "A14",
      "imagem_original": "https://animefire.plus/img/animes/the-idolmatster-sidem-315-variety-pack-made-in-passion.webp",
      "imagem_pasta": "https://animefire.plus/img/animes/the-idolmatster-sidem-315-variety-pack-made-in-passion/",
      "secao": "legendados",
      "pagina": 87,
      "total_episodios": 1,
      "link_video": "https://animefire.plus/video/the-idolmatster-sidem-315-variety-pack-made-in-passion"
    },
    {
      "id": 3836,
      "nome": "The iDOLM@STER SideM: Wake Atte Mini!",
      "link": "https://animefire.plus/animes/the-idolmatster-sidem-wake-atte-mini-todos-os-episodios",
      "texto_original": "The iDOLM@STER SideM: Wake Atte Mini!",
      "rating": 6.18,
      "classificacao_etaria": "A14",
      "imagem_original": "https://animefire.plus/img/animes/the-idolmatster-sidem-wake-atte-mini.webp",
      "imagem_pasta": "https://animefire.plus/img/animes/the-idolmatster-sidem-wake-atte-mini/",
      "secao": "legendados",
      "pagina": 87,
      "total_episodios": 1,
      "link_video": "https://animefire.plus/video/the-idolmatster-sidem-wake-atte-mini"
    },
    {
      "id": 3862,
      "nome": "Toaru Kagaku no Railgun S: Daiji na Koto wa Zenbu Sentou ni Osowatta",
      "link": "https://animefire.plus/animes/toaru-kagaku-no-railgun-s-daiji-na-koto-wa-zenbu-sentou-ni-osowatta-todos-os-episodios",
      "texto_original": "Toaru Kagaku no Railgun S: Daiji na Koto wa Zenbu Sentou ni Osowatta",
      "rating": 6.81,
      "classificacao_etaria": "A14",
      "imagem_original": "https://animefire.plus/img/animes/toaru-kagaku-no-railgun-s-daiji-na-koto-wa-zenbu-sentou-ni-osowatta.webp",
      "imagem_pasta": "https://animefire.plus/img/animes/toaru-kagaku-no-railgun-s-daiji-na-koto-wa-zenbu-sentou-ni-osowatta/",
      "secao": "legendados",
      "pagina": 68,
      "total_episodios": 1,
      "link_video": "https://animefire.plus/video/toaru-kagaku-no-railgun-s-daiji-na-koto-wa-zenbu-sentou-ni-osowatta"
    },
    {
      "id": 3864,
      "nome": "Toaru Kagaku no Railgun T",
      "link": "https://animefire.plus/animes/toaru-kagaku-no-railgun-t-todos-os-episodios",
      "texto_original": "Toaru Kagaku no Railgun T",
      "rating": 8.25,
      "classificacao_etaria": "A16",
      "imagem_original": "https://animefire.plus/img/animes/toaru-kagaku-no-railgun-t.webp",
      "imagem_pasta": "https://animefire.plus/img/animes/toaru-kagaku-no-railgun-t/",
      "secao": "legendados",
      "pagina": 92,
      "total_episodios": 1,
      "link_video": "https://animefire.plus/video/toaru-kagaku-no-railgun-t"
    },
    {
      "id": 3867,
      "nome": "Toaru Majutsu no Index III",
      "link": "https://animefire.plus/animes/toaru-majutsu-no-index-iii-todos-os-episodios",
      "texto_original": "Toaru Majutsu no Index III",
      "rating": 6.75,
      "classificacao_etaria": "A14",
      "imagem_original": "https://animefire.plus/img/animes/toaru-majutsu-no-index-iii.webp",
      "imagem_pasta": "https://animefire.plus/img/animes/toaru-majutsu-no-index-iii/",
      "secao": "legendados",
      "pagina": 89,
      "total_episodios": 1,
      "link_video": "https://animefire.plus/video/toaru-majutsu-no-index-iii"
    },
    {
      "id": 3868,
      "nome": "Toaru Majutsu no Index-tan",
      "link": "https://animefire.plus/animes/toaru-majutsu-no-index-tan-todos-os-episodios",
      "texto_original": "Toaru Majutsu no Index-tan",
      "rating": 6.98,
      "classificacao_etaria": "A14",
      "imagem_original": "https://animefire.plus/img/animes/toaru-majutsu-no-index-tan.webp",
      "imagem_pasta": "https://animefire.plus/img/animes/toaru-majutsu-no-index-tan/",
      "secao": "legendados",
      "pagina": 54,
      "total_episodios": 1,
      "link_video": "https://animefire.plus/video/toaru-majutsu-no-index-tan"
    },
    {
      "id": 3870,
      "nome": "Toaru Majutsu no Index-tan Movie: Endymion no Kiseki - Ga Attari Nakattari",
      "link": "https://animefire.plus/animes/toaru-majutsu-no-index-tan-movie-endymion-no-kiseki---ga-attari-nakattari-todos-os-episodios",
      "texto_original": "Toaru Majutsu no Index-tan Movie: Endymion no Kiseki - Ga Attari Nakattari",
      "rating": 7.11,
      "classificacao_etaria": "A14",
      "imagem_original": "https://animefire.plus/img/animes/toaru-majutsu-no-index-tan-movie-endymion-no-kiseki---ga-attari-nakattari.webp",
      "imagem_pasta": "https://animefire.plus/img/animes/toaru-majutsu-no-index-tan-movie-endymion-no-kiseki---ga-attari-nakattari/",
      "secao": "legendados",
      "pagina": 54,
      "total_episodios": 1,
      "link_video": "https://animefire.plus/video/toaru-majutsu-no-index-tan-movie-endymion-no-kiseki---ga-attari-nakattari"
    },
    {
      "id": 3875,
      "nome": "Toki wa Meguru: Tokyo Station",
      "link": "https://animefire.plus/animes/toki-wa-meguru-tokyo-station-todos-os-episodios",
      "texto_original": "Toki wa Meguru: Tokyo Station",
      "rating": 6.59,
      "classificacao_etaria": null,
      "imagem_original": "https://animefire.plus/img/animes/toki-wa-meguru-tokyo-station.webp",
      "imagem_pasta": "https://animefire.plus/img/animes/toki-wa-meguru-tokyo-station/",
      "secao": "legendados",
      "pagina": 70,
      "total_episodios": 1,
      "link_video": "https://animefire.plus/video/toki-wa-meguru-tokyo-station"
    },
    {
      "id": 3883,
      "nome": "Tokyo Ghoul: \"Jack\" (Dublado)",
      "link": "https://animefire.plus/animes/tokyo-ghoul-jack-dublado-todos-os-episodios",
      "texto_original": "Tokyo Ghoul: \"Jack\" (Dublado)",
      "rating": 7.35,
      "classificacao_etaria": "A16",
      "imagem_original": "https://animefire.plus/img/animes/tokyo-ghoul-jack.webp",
      "imagem_pasta": "https://animefire.plus/img/animes/tokyo-ghoul-jack/",
      "secao": "dublados",
      "pagina": 17,
      "total_episodios": 1,
      "link_video": "https://animefire.plus/video/tokyo-ghoul-jack-dublado"
    },
    {
      "id": 3884,
      "nome": "Tokyo Ghoul: \"Pinto\" (Dublado)",
      "link": "https://animefire.plus/animes/tokyo-ghoul-pinto-dublado-todos-os-episodios",
      "texto_original": "Tokyo Ghoul: \"Pinto\" (Dublado)",
      "rating": 7.24,
      "classificacao_etaria": "A16",
      "imagem_original": "https://animefire.plus/img/animes/tokyo-ghoul-pinto.webp",
      "imagem_pasta": "https://animefire.plus/img/animes/tokyo-ghoul-pinto/",
      "secao": "dublados",
      "pagina": 17,
      "total_episodios": 1,
      "link_video": "https://animefire.plus/video/tokyo-ghoul-pinto-dublado"
    },
    {
      "id": 3901,
      "nome": "Tonagura!",
      "link": "https://animefire.plus/animes/tonagura-todos-os-episodios",
      "texto_original": "Tonagura!",
      "rating": 6.81,
      "classificacao_etaria": "A14",
      "imagem_original": "https://animefire.plus/img/animes/tonagura.webp",
      "imagem_pasta": "https://animefire.plus/img/animes/tonagura/",
      "secao": "legendados",
      "pagina": 117,
      "total_episodios": 1,
      "link_video": "https://animefire.plus/video/tonagura"
    },
    {
      "id": 3905,
      "nome": "Tonari no Seki-kun OVA",
      "link": "https://animefire.plus/animes/tonari-no-seki-kun-ova-todos-os-episodios",
      "texto_original": "Tonari no Seki-kun OVA",
      "rating": 7.44,
      "classificacao_etaria": null,
      "imagem_original": "https://animefire.plus/img/animes/tonari-no-seki-kun-ova.webp",
      "imagem_pasta": "https://animefire.plus/img/animes/tonari-no-seki-kun-ova/",
      "secao": "legendados",
      "pagina": 67,
      "total_episodios": 1,
      "link_video": "https://animefire.plus/video/tonari-no-seki-kun-ova"
    },
    {
      "id": 3914,
      "nome": "Tonikaku Kawaii: Seifuku (Dublado)",
      "link": "https://animefire.plus/animes/tonikaku-kawaii-seifuku-dublado-todos-os-episodios",
      "texto_original": "Tonikaku Kawaii: Seifuku (Dublado)",
      "rating": 7.72,
      "classificacao_etaria": "A14",
      "imagem_original": "https://animefire.plus/img/animes/tonikaku-kawaii-seifuku.webp",
      "imagem_pasta": "https://animefire.plus/img/animes/tonikaku-kawaii-seifuku/",
      "secao": "dublados,legendados",
      "pagina": 6,
      "total_episodios": 1,
      "link_video": "https://animefire.plus/video/tonikaku-kawaii-seifuku-dublado"
    },
    {
      "id": 3915,
      "nome": "Tonikaku Kawaii: SNS (Dublado)",
      "link": "https://animefire.plus/animes/tonikaku-kawaii-sns-dublado-todos-os-episodios",
      "texto_original": "Tonikaku Kawaii: SNS (Dublado)",
      "rating": 8.01,
      "classificacao_etaria": "A14",
      "imagem_original": "https://animefire.plus/img/animes/tonikaku-kawaii-sns.webp",
      "imagem_pasta": "https://animefire.plus/img/animes/tonikaku-kawaii-sns/",
      "secao": "dublados,legendados",
      "pagina": 15,
      "total_episodios": 1,
      "link_video": "https://animefire.plus/video/tonikaku-kawaii-sns-dublado"
    },
    {
      "id": 3917,
      "nome": "Top wo Nerae! Gunbuster",
      "link": "https://animefire.plus/animes/top-wo-nerae-gunbuster-todos-os-episodios",
      "texto_original": "Top wo Nerae! Gunbuster",
      "rating": 7.89,
      "classificacao_etaria": "A18",
      "imagem_original": "https://animefire.plus/img/animes/top-wo-nerae-gunbuster.webp",
      "imagem_pasta": "https://animefire.plus/img/animes/top-wo-nerae-gunbuster/",
      "secao": "legendados",
      "pagina": 53,
      "total_episodios": 1,
      "link_video": "https://animefire.plus/video/top-wo-nerae-gunbuster"
    },
    {
      "id": 3919,
      "nome": "Toradora!: Bentou no Gokui",
      "link": "https://animefire.plus/animes/toradora-bentou-no-gokui-todos-os-episodios",
      "texto_original": "Toradora!: Bentou no Gokui",
      "rating": 7.48,
      "classificacao_etaria": "A14",
      "imagem_original": "https://animefire.plus/img/animes/toradora-bentou-no-gokui.webp",
      "imagem_pasta": "https://animefire.plus/img/animes/toradora-bentou-no-gokui/",
      "secao": "legendados",
      "pagina": 71,
      "total_episodios": 1,
      "link_video": "https://animefire.plus/video/toradora-bentou-no-gokui"
    }
  ],
  "pagination": {
    "current_page": 21,
    "per_page": 20,
    "total_items": 465,
    "total_pages": 24,
    "has_next": true,
    "has_prev": true
  }
}
