{
  "message": "Animes com 1 a 1 episódios",
  "episode_range": {
    "min": 1,
    "max": 1
  },
  "data": [
    {
      "id": 1626,
      "nome": "Initial D Extra Stage 2",
      "link": "https://animefire.plus/animes/initial-d-extra-stage-2-todos-os-episodios",
      "texto_original": "Initial D Extra Stage 2",
      "rating": 7.42,
      "classificacao_etaria": "A14",
      "imagem_original": "https://animefire.plus/img/animes/initial-d-extra-stage-2.webp",
      "imagem_pasta": "https://animefire.plus/img/animes/initial-d-extra-stage-2/",
      "secao": "legendados",
      "pagina": 56,
      "total_episodios": 1,
      "link_video": "https://animefire.plus/video/initial-d-extra-stage-2"
    },
    {
      "id": 1636,
      "nome": "Inu ni Nattara Suki na Hito ni Hirowareta. Specials",
      "link": "https://animefire.plus/animes/inu-ni-nattara-suki-na-hito-ni-hirowareta-specials-todos-os-episodios",
      "texto_original": "Inu ni Nattara Suki na Hito ni Hirowareta. Specials",
      "rating": 5.3,
      "classificacao_etaria": "A18",
      "imagem_original": "https://animefire.plus/img/animes/inu-ni-nattara-suki-na-hito-ni-hirowareta-specials.webp",
      "imagem_pasta": "https://animefire.plus/img/animes/inu-ni-nattara-suki-na-hito-ni-hirowareta-specials/",
      "secao": "legendados",
      "pagina": 21,
      "total_episodios": 1,
      "link_video": "https://animefire.plus/video/inu-ni-nattara-suki-na-hito-ni-hirowareta-specials"
    },
    {
      "id": 1645,
      "nome": "Ippatsu Hicchuu!! Devander",
      "link": "https://animefire.plus/animes/ippatsu-hicchuu-devander-todos-os-episodios",
      "texto_original": "Ippatsu Hicchuu!! Devander",
      "rating": 5.62,
      "classificacao_etaria": null,
      "imagem_original": "https://animefire.plus/img/animes/ippatsu-hicchuu-devander.webp",
      "imagem_pasta": "https://animefire.plus/img/animes/ippatsu-hicchuu-devander/",
      "secao": "legendados",
      "pagina": 72,
      "total_episodios": 1,
      "link_video": "https://animefire.plus/video/ippatsu-hicchuu-devander"
    },
    {
      "id": 1648,
      "nome": "Iron Virgin Jun",
      "link": "https://animefire.plus/animes/iron-virgin-jun-todos-os-episodios",
      "texto_original": "Iron Virgin Jun",
      "rating": 4.58,
      "classificacao_etaria": "A16",
      "imagem_original": "https://animefire.plus/img/animes/iron-virgin-jun.webp",
      "imagem_pasta": "https://animefire.plus/img/animes/iron-virgin-jun/",
      "secao": "legendados",
      "pagina": 43,
      "total_episodios": 1,
      "link_video": "https://animefire.plus/video/iron-virgin-jun"
    },
    {
      "id": 1681,
      "nome": "Issho ni Sleeping: Sleeping with Hinako",
      "link": "https://animefire.plus/animes/issho-ni-sleeping-sleeping-with-hinako-todos-os-episodios",
      "texto_original": "Issho ni Sleeping: Sleeping with Hinako",
      "rating": 4.46,
      "classificacao_etaria": "A14",
      "imagem_original": "https://animefire.plus/img/animes/issho-ni-sleeping-sleeping-with-hinako.webp",
      "imagem_pasta": "https://animefire.plus/img/animes/issho-ni-sleeping-sleeping-with-hinako/",
      "secao": "legendados",
      "pagina": 90,
      "total_episodios": 1,
      "link_video": "https://animefire.plus/video/issho-ni-sleeping-sleeping-with-hinako"
    },
    {
      "id": 1694,
      "nome": "Itsuka Aeru Kimi ni",
      "link": "https://animefire.plus/animes/itsuka-aeru-kimi-ni-todos-os-episodios",
      "texto_original": "Itsuka Aeru Kimi ni",
      "rating": 5.75,
      "classificacao_etaria": null,
      "imagem_original": "https://animefire.plus/img/animes/itsuka-aeru-kimi-ni.webp",
      "imagem_pasta": "https://animefire.plus/img/animes/itsuka-aeru-kimi-ni/",
      "secao": "legendados",
      "pagina": 86,
      "total_episodios": 1,
      "link_video": "https://animefire.plus/video/itsuka-aeru-kimi-ni"
    },
    {
      "id": 1709,
      "nome": "Jashin-chan Dropkick Episode 12",
      "link": "https://animefire.plus/animes/jashin-chan-dropkick-episode-12-todos-os-episodios",
      "texto_original": "Jashin-chan Dropkick Episode 12",
      "rating": 7.08,
      "classificacao_etaria": "A14",
      "imagem_original": "https://animefire.plus/img/animes/jashin-chan-dropkick-episode-12.webp",
      "imagem_pasta": "https://animefire.plus/img/animes/jashin-chan-dropkick-episode-12/",
      "secao": "legendados",
      "pagina": 86,
      "total_episodios": 1,
      "link_video": "https://animefire.plus/video/jashin-chan-dropkick-episode-12"
    },
    {
      "id": 1760,
      "nome": "Junjou Romantica 3",
      "link": "https://animefire.plus/animes/junjou-romantica-3-todos-os-episodios",
      "texto_original": "Junjou Romantica 3",
      "rating": 8.03,
      "classificacao_etaria": "A14",
      "imagem_original": "https://animefire.plus/img/animes/junjou-romantica-3.webp",
      "imagem_pasta": "https://animefire.plus/img/animes/junjou-romantica-3/",
      "secao": "legendados",
      "pagina": 179,
      "total_episodios": 1,
      "link_video": "https://animefire.plus/video/junjou-romantica-3"
    },
    {
      "id": 1768,
      "nome": "Juuou Mujin No Fafnir",
      "link": "https://animefire.plus/animes/juuou-mujin-no-fafnir-todos-os-episodios",
      "texto_original": "Juuou Mujin No Fafnir",
      "rating": 6.39,
      "classificacao_etaria": "A14",
      "imagem_original": "https://animefire.plus/img/animes/juuou-mujin-no-fafnir.webp",
      "imagem_pasta": "https://animefire.plus/img/animes/juuou-mujin-no-fafnir/",
      "secao": "legendados",
      "pagina": 107,
      "total_episodios": 1,
      "link_video": "https://animefire.plus/video/juuou-mujin-no-fafnir"
    },
    {
      "id": 1778,
      "nome": "Kabukichou Sherlock OVA",
      "link": "https://animefire.plus/animes/kabukichou-sherlock-ova-todos-os-episodios",
      "texto_original": "Kabukichou Sherlock OVA",
      "rating": 6.61,
      "classificacao_etaria": "A14",
      "imagem_original": "https://animefire.plus/img/animes/kabukichou-sherlock-ova.webp",
      "imagem_pasta": "https://animefire.plus/img/animes/kabukichou-sherlock-ova/",
      "secao": "legendados",
      "pagina": 50,
      "total_episodios": 1,
      "link_video": "https://animefire.plus/video/kabukichou-sherlock-ova"
    },
    {
      "id": 1781,
      "nome": "Kaeru no Pickles: Kimochi no Iro",
      "link": "https://animefire.plus/animes/kaeru-no-pickles-kimochi-no-iro-todos-os-episodios",
      "texto_original": "Kaeru no Pickles: Kimochi no Iro",
      "rating": null,
      "classificacao_etaria": null,
      "imagem_original": "https://animefire.plus/img/animes/kaeru-no-pickles-kimochi-no-iro.webp",
      "imagem_pasta": "https://animefire.plus/img/animes/kaeru-no-pickles-kimochi-no-iro/",
      "secao": "legendados,lancamentos",
      "pagina": 50,
      "total_episodios": 1,
      "link_video": "https://animefire.plus/video/kaeru-no-pickles-kimochi-no-iro"
    },
    {
      "id": 1793,
      "nome": "Kaguya-sama wa Kokurasetai: Tensai-tachi no Renai Zunousen OVA",
      "link": "https://animefire.plus/animes/kaguya-sama-wa-kokurasetai-tensai-tachi-no-renai-zunousen-ova-todos-os-episodios",
      "texto_original": "Kaguya-sama wa Kokurasetai: Tensai-tachi no Renai Zunousen OVA",
      "rating": 7.58,
      "classificacao_etaria": "A14",
      "imagem_original": "https://animefire.plus/img/animes/kaguya-sama-wa-kokurasetai-tensai-tachi-no-renai-zunousen-ova.webp",
      "imagem_pasta": "https://animefire.plus/img/animes/kaguya-sama-wa-kokurasetai-tensai-tachi-no-renai-zunousen-ova/",
      "secao": "legendados",
      "pagina": 46,
      "total_episodios": 1,
      "link_video": "https://animefire.plus/video/kaguya-sama-wa-kokurasetai-tensai-tachi-no-renai-zunousen-ova"
    },
    {
      "id": 1798,
      "nome": "Kai Doh Maru",
      "link": "https://animefire.plus/animes/kai-doh-maru-todos-os-episodios",
      "texto_original": "Kai Doh Maru",
      "rating": 5.64,
      "classificacao_etaria": "A16",
      "imagem_original": "https://animefire.plus/img/animes/kai-doh-maru.webp",
      "imagem_pasta": "https://animefire.plus/img/animes/kai-doh-maru/",
      "secao": "legendados",
      "pagina": 86,
      "total_episodios": 1,
      "link_video": "https://animefire.plus/video/kai-doh-maru"
    },
    {
      "id": 1802,
      "nome": "Kaibutsu Oujo (OVA)",
      "link": "https://animefire.plus/animes/kaibutsu-oujo-ova-todos-os-episodios",
      "texto_original": "Kaibutsu Oujo (OVA)",
      "rating": 7.1,
      "classificacao_etaria": "A16",
      "imagem_original": "https://animefire.plus/img/animes/kaibutsu-oujo-ova.webp",
      "imagem_pasta": "https://animefire.plus/img/animes/kaibutsu-oujo-ova/",
      "secao": "legendados",
      "pagina": 71,
      "total_episodios": 1,
      "link_video": "https://animefire.plus/video/kaibutsu-oujo-ova"
    },
    {
      "id": 1811,
      "nome": "Kaijuu 8-gou: Hoshina no Kyuujitsu",
      "link": "https://animefire.plus/animes/kaijuu-8-gou-hoshina-no-kyuujitsu-todos-os-episodios",
      "texto_original": "Kaijuu 8-gou: Hoshina no Kyuujitsu",
      "rating": 6.77,
      "classificacao_etaria": "A14",
      "imagem_original": "https://animefire.plus/img/animes/kaijuu-8-gou-hoshina-no-kyuujitsu.webp",
      "imagem_pasta": "https://animefire.plus/img/animes/kaijuu-8-gou-hoshina-no-kyuujitsu/",
      "secao": "legendados",
      "pagina": 1,
      "total_episodios": 1,
      "link_video": "https://animefire.plus/video/kaijuu-8-gou-hoshina-no-kyuujitsu"
    },
    {
      "id": 1830,
      "nome": "Kaleido Star: Aratanaru Tsubasa - Extra Stage (Dublado)",
      "link": "https://animefire.plus/animes/kaleido-star-aratanaru-tsubasa---extra-stage-dublado-todos-os-episodios",
      "texto_original": "Kaleido Star: Aratanaru Tsubasa - Extra Stage (Dublado)",
      "rating": 7.55,
      "classificacao_etaria": "A10",
      "imagem_original": "https://animefire.plus/img/animes/kaleido-star-aratanaru-tsubasa---extra-stage.webp",
      "imagem_pasta": "https://animefire.plus/img/animes/kaleido-star-aratanaru-tsubasa---extra-stage/",
      "secao": "dublados",
      "pagina": 23,
      "total_episodios": 1,
      "link_video": "https://animefire.plus/video/kaleido-star-aratanaru-tsubasa---extra-stage-dublado"
    },
    {
      "id": 1831,
      "nome": "Kaleido Star: Good da yo! Goood!!",
      "link": "https://animefire.plus/animes/kaleido-star-good-da-yo-goood-todos-os-episodios",
      "texto_original": "Kaleido Star: Good da yo! Goood!!",
      "rating": 6.79,
      "classificacao_etaria": null,
      "imagem_original": "https://animefire.plus/img/animes/kaleido-star-good-da-yo-goood.webp",
      "imagem_pasta": "https://animefire.plus/img/animes/kaleido-star-good-da-yo-goood/",
      "secao": "legendados",
      "pagina": 53,
      "total_episodios": 1,
      "link_video": "https://animefire.plus/video/kaleido-star-good-da-yo-goood"
    },
    {
      "id": 1839,
      "nome": "Kami nomi zo Shiru Sekai: 4-nin to Idol",
      "link": "https://animefire.plus/animes/kami-nomi-zo-shiru-sekai-4-nin-to-idol-todos-os-episodios",
      "texto_original": "Kami nomi zo Shiru Sekai: 4-nin to Idol",
      "rating": 7.35,
      "classificacao_etaria": "A14",
      "imagem_original": "https://animefire.plus/img/animes/kami-nomi-zo-shiru-sekai-4-nin-to-idol.webp",
      "imagem_pasta": "https://animefire.plus/img/animes/kami-nomi-zo-shiru-sekai-4-nin-to-idol/",
      "secao": "legendados",
      "pagina": 64,
      "total_episodios": 1,
      "link_video": "https://animefire.plus/video/kami-nomi-zo-shiru-sekai-4-nin-to-idol"
    },
    {
      "id": 1841,
      "nome": "Kami nomi zo Shiru Sekai: Tenri-hen",
      "link": "https://animefire.plus/animes/kami-nomi-zo-shiru-sekai-tenri-hen-todos-os-episodios",
      "texto_original": "Kami nomi zo Shiru Sekai: Tenri-hen",
      "rating": 7.75,
      "classificacao_etaria": "A14",
      "imagem_original": "https://animefire.plus/img/animes/kami-nomi-zo-shiru-sekai-tenri-hen.webp",
      "imagem_pasta": "https://animefire.plus/img/animes/kami-nomi-zo-shiru-sekai-tenri-hen/",
      "secao": "legendados",
      "pagina": 64,
      "total_episodios": 1,
      "link_video": "https://animefire.plus/video/kami-nomi-zo-shiru-sekai-tenri-hen"
    },
    {
      "id": 1855,
      "nome": "Kamisama Hajimemashita: Kako-hen",
      "link": "https://animefire.plus/animes/kamisama-hajimemashita-kako-hen-todos-os-episodios",
      "texto_original": "Kamisama Hajimemashita: Kako-hen",
      "rating": 8.4,
      "classificacao_etaria": "A14",
      "imagem_original": "https://animefire.plus/img/animes/kamisama-hajimemashita-kako-hen.webp",
      "imagem_pasta": "https://animefire.plus/img/animes/kamisama-hajimemashita-kako-hen/",
      "secao": "legendados",
      "pagina": 56,
      "total_episodios": 1,
      "link_video": "https://animefire.plus/video/kamisama-hajimemashita-kako-hen"
    }
  ],
  "pagination": {
    "current_page": 10,
    "per_page": 20,
    "total_items": 465,
    "total_pages": 24,
    "has_next": true,
    "has_prev": true
  }
}
