{
  "message": "Animes com 1 a 1 episódios",
  "episode_range": {
    "min": 1,
    "max": 1
  },
  "data": [
    {
      "id": 2270,
      "nome": "Lupin III vs. Cat's Eye",
      "link": "https://animefire.plus/animes/lupin-iii-vs-cat-s-eye-todos-os-episodios",
      "texto_original": "Lupin III vs. Cat's Eye",
      "rating": 6.57,
      "classificacao_etaria": "A14",
      "imagem_original": "https://animefire.plus/img/animes/lupin-iii-vs-cat-s-eye.webp",
      "imagem_pasta": "https://animefire.plus/img/animes/lupin-iii-vs-cat-s-eye/",
      "secao": "legendados",
      "pagina": 25,
      "total_episodios": 1,
      "link_video": "https://animefire.plus/video/lupin-iii-vs-cat-s-eye"
    },
    {
      "id": 2271,
      "nome": "Lupin III vs. Detective Conan",
      "link": "https://animefire.plus/animes/lupin-iii-vs-detective-conan-todos-os-episodios",
      "texto_original": "Lupin III vs. Detective Conan",
      "rating": 7.81,
      "classificacao_etaria": "A14",
      "imagem_original": "https://animefire.plus/img/animes/lupin-iii-vs-detective-conan.webp",
      "imagem_pasta": "https://animefire.plus/img/animes/lupin-iii-vs-detective-conan/",
      "secao": "legendados",
      "pagina": 65,
      "total_episodios": 1,
      "link_video": "https://animefire.plus/video/lupin-iii-vs-detective-conan"
    },
    {
      "id": 2272,
      "nome": "Lupin III: Goodbye Partner",
      "link": "https://animefire.plus/animes/lupin-iii-goodbye-partner-todos-os-episodios",
      "texto_original": "Lupin III: Goodbye Partner",
      "rating": 6.83,
      "classificacao_etaria": "A14",
      "imagem_original": "https://animefire.plus/img/animes/lupin-iii-goodbye-partner.webp",
      "imagem_pasta": "https://animefire.plus/img/animes/lupin-iii-goodbye-partner/",
      "secao": "legendados",
      "pagina": 56,
      "total_episodios": 1,
      "link_video": "https://animefire.plus/video/lupin-iii-goodbye-partner"
    },
    {
      "id": 2273,
      "nome": "Lupin III: Lupin wa Ima mo Moete Iru ka?",
      "link": "https://animefire.plus/animes/lupin-iii-lupin-wa-ima-mo-moete-iru-ka-todos-os-episodios",
      "texto_original": "Lupin III: Lupin wa Ima mo Moete Iru ka?",
      "rating": 7.02,
      "classificacao_etaria": "A14",
      "imagem_original": "https://animefire.plus/img/animes/lupin-iii-lupin-wa-ima-mo-moete-iru-ka.webp",
      "imagem_pasta": "https://animefire.plus/img/animes/lupin-iii-lupin-wa-ima-mo-moete-iru-ka/",
      "secao": "legendados",
      "pagina": 87,
      "total_episodios": 1,
      "link_video": "https://animefire.plus/video/lupin-iii-lupin-wa-ima-mo-moete-iru-ka"
    },
    {
      "id": 2275,
      "nome": "Lupin III: Part 6 - Jidai",
      "link": "https://animefire.plus/animes/lupin-iii-part-6---jidai-todos-os-episodios",
      "texto_original": "Lupin III: Part 6 - Jidai",
      "rating": 7.33,
      "classificacao_etaria": "A14",
      "imagem_original": "https://animefire.plus/img/animes/lupin-iii-part-6---jidai.webp",
      "imagem_pasta": "https://animefire.plus/img/animes/lupin-iii-part-6---jidai/",
      "secao": "legendados",
      "pagina": 37,
      "total_episodios": 1,
      "link_video": "https://animefire.plus/video/lupin-iii-part-6---jidai"
    },
    {
      "id": 2278,
      "nome": "Lupin III: Prison of the Past",
      "link": "https://animefire.plus/animes/lupin-iii-prison-of-the-past-todos-os-episodios",
      "texto_original": "Lupin III: Prison of the Past",
      "rating": 6.79,
      "classificacao_etaria": "A14",
      "imagem_original": "https://animefire.plus/img/animes/lupin-iii-prison-of-the-past.webp",
      "imagem_pasta": "https://animefire.plus/img/animes/lupin-iii-prison-of-the-past/",
      "secao": "legendados",
      "pagina": 68,
      "total_episodios": 1,
      "link_video": "https://animefire.plus/video/lupin-iii-prison-of-the-past"
    },
    {
      "id": 2280,
      "nome": "Lupin VIII",
      "link": "https://animefire.plus/animes/lupin-viii-todos-os-episodios",
      "texto_original": "Lupin VIII",
      "rating": 5.68,
      "classificacao_etaria": "A14",
      "imagem_original": "https://animefire.plus/img/animes/lupin-viii.webp",
      "imagem_pasta": "https://animefire.plus/img/animes/lupin-viii/",
      "secao": "legendados",
      "pagina": 87,
      "total_episodios": 1,
      "link_video": "https://animefire.plus/video/lupin-viii"
    },
    {
      "id": 2296,
      "nome": "Madan no Ou to Vanadis",
      "link": "https://animefire.plus/animes/madan-no-ou-to-vanadis-todos-os-episodios",
      "texto_original": "Madan no Ou to Vanadis",
      "rating": 7.29,
      "classificacao_etaria": "A16",
      "imagem_original": "https://animefire.plus/img/animes/madan-no-ou-to-vanadis.webp",
      "imagem_pasta": "https://animefire.plus/img/animes/madan-no-ou-to-vanadis/",
      "secao": "legendados",
      "pagina": 160,
      "total_episodios": 1,
      "link_video": "https://animefire.plus/video/madan-no-ou-to-vanadis"
    },
    {
      "id": 2313,
      "nome": "Magic Kaito 1412",
      "link": "https://animefire.plus/animes/magic-kaito-1412-todos-os-episodios",
      "texto_original": "Magic Kaito 1412",
      "rating": 7.95,
      "classificacao_etaria": "A14",
      "imagem_original": "https://animefire.plus/img/animes/magic-kaito-1412.webp",
      "imagem_pasta": "https://animefire.plus/img/animes/magic-kaito-1412/",
      "secao": "legendados",
      "pagina": 160,
      "total_episodios": 1,
      "link_video": "https://animefire.plus/video/magic-kaito-1412"
    },
    {
      "id": 2318,
      "nome": "Magical☆Star Kanon 100%",
      "link": "https://animefire.plus/animes/magical-star-kanon-100-todos-os-episodios",
      "texto_original": "Magical☆Star Kanon 100%",
      "rating": 6.82,
      "classificacao_etaria": "A14",
      "imagem_original": "https://animefire.plus/img/animes/magical-star-kanon-100.webp",
      "imagem_pasta": "https://animefire.plus/img/animes/magical-star-kanon-100/",
      "secao": "legendados",
      "pagina": 64,
      "total_episodios": 1,
      "link_video": "https://animefire.plus/video/magical-star-kanon-100"
    },
    {
      "id": 2329,
      "nome": "Mahou Shoujo Lalabel: Umi ga Yobu Natsuyasumi",
      "link": "https://animefire.plus/animes/mahou-shoujo-lalabel-umi-ga-yobu-natsuyasumi-todos-os-episodios",
      "texto_original": "Mahou Shoujo Lalabel: Umi ga Yobu Natsuyasumi",
      "rating": 5.78,
      "classificacao_etaria": null,
      "imagem_original": "https://animefire.plus/img/animes/mahou-shoujo-lalabel-umi-ga-yobu-natsuyasumi.webp",
      "imagem_pasta": "https://animefire.plus/img/animes/mahou-shoujo-lalabel-umi-ga-yobu-natsuyasumi/",
      "secao": "legendados",
      "pagina": 83,
      "total_episodios": 1,
      "link_video": "https://animefire.plus/video/mahou-shoujo-lalabel-umi-ga-yobu-natsuyasumi"
    },
    {
      "id": 2336,
      "nome": "Mahou Shoujo Nante Mou Ii Desukara.",
      "link": "https://animefire.plus/animes/mahou-shoujo-nante-mou-ii-desukara-todos-os-episodios",
      "texto_original": "Mahou Shoujo Nante Mou Ii Desukara.",
      "rating": 5.97,
      "classificacao_etaria": "A14",
      "imagem_original": "https://animefire.plus/img/animes/mahou-shoujo-nante-mou-ii-desukara.webp",
      "imagem_pasta": "https://animefire.plus/img/animes/mahou-shoujo-nante-mou-ii-desukara/",
      "secao": "legendados",
      "pagina": 140,
      "total_episodios": 1,
      "link_video": "https://animefire.plus/video/mahou-shoujo-nante-mou-ii-desukara"
    },
    {
      "id": 2348,
      "nome": "Mahouka Koukou no Rettousei: Tsuioku-hen",
      "link": "https://animefire.plus/animes/mahouka-koukou-no-rettousei-tsuioku-hen-todos-os-episodios",
      "texto_original": "Mahouka Koukou no Rettousei: Tsuioku-hen",
      "rating": 7.66,
      "classificacao_etaria": "A14",
      "imagem_original": "https://animefire.plus/img/animes/mahouka-koukou-no-rettousei-tsuioku-hen.webp",
      "imagem_pasta": "https://animefire.plus/img/animes/mahouka-koukou-no-rettousei-tsuioku-hen/",
      "secao": "legendados",
      "pagina": 36,
      "total_episodios": 1,
      "link_video": "https://animefire.plus/video/mahouka-koukou-no-rettousei-tsuioku-hen"
    },
    {
      "id": 2361,
      "nome": "Mahoutsukai Sally (Movie)",
      "link": "https://animefire.plus/animes/mahoutsukai-sally-movie-todos-os-episodios",
      "texto_original": "Mahoutsukai Sally (Movie)",
      "rating": 5.95,
      "classificacao_etaria": null,
      "imagem_original": "https://animefire.plus/img/animes/mahoutsukai-sally-movie.webp",
      "imagem_pasta": "https://animefire.plus/img/animes/mahoutsukai-sally-movie/",
      "secao": "legendados",
      "pagina": 83,
      "total_episodios": 1,
      "link_video": "https://animefire.plus/video/mahoutsukai-sally-movie"
    },
    {
      "id": 2380,
      "nome": "Major 2nd (TV) 2nd Season",
      "link": "https://animefire.plus/animes/major-2nd-tv-2nd-season-todos-os-episodios",
      "texto_original": "Major 2nd (TV) 2nd Season",
      "rating": 7.6,
      "classificacao_etaria": "A14",
      "imagem_original": "https://animefire.plus/img/animes/major-2nd-tv-2nd-season.webp",
      "imagem_pasta": "https://animefire.plus/img/animes/major-2nd-tv-2nd-season/",
      "secao": "legendados",
      "pagina": 81,
      "total_episodios": 1,
      "link_video": "https://animefire.plus/video/major-2nd-tv-2nd-season"
    },
    {
      "id": 2387,
      "nome": "Major: Message",
      "link": "https://animefire.plus/animes/major-message-todos-os-episodios",
      "texto_original": "Major: Message",
      "rating": 8.25,
      "classificacao_etaria": "A14",
      "imagem_original": "https://animefire.plus/img/animes/major-message.webp",
      "imagem_pasta": "https://animefire.plus/img/animes/major-message/",
      "secao": "legendados",
      "pagina": 73,
      "total_episodios": 1,
      "link_video": "https://animefire.plus/video/major-message"
    },
    {
      "id": 2433,
      "nome": "Masamune-kun no Revenge OVA",
      "link": "https://animefire.plus/animes/masamune-kun-no-revenge-ova-todos-os-episodios",
      "texto_original": "Masamune-kun no Revenge OVA",
      "rating": 6.6,
      "classificacao_etaria": "A14",
      "imagem_original": "https://animefire.plus/img/animes/masamune-kun-no-revenge-ova.webp",
      "imagem_pasta": "https://animefire.plus/img/animes/masamune-kun-no-revenge-ova/",
      "secao": "legendados",
      "pagina": 84,
      "total_episodios": 1,
      "link_video": "https://animefire.plus/video/masamune-kun-no-revenge-ova"
    },
    {
      "id": 2455,
      "nome": "Mayonaka no Occult Koumuin: Fukurokouji to Ano Ko to Ore to",
      "link": "https://animefire.plus/animes/mayonaka-no-occult-koumuin-fukurokouji-to-ano-ko-to-ore-to-todos-os-episodios",
      "texto_original": "Mayonaka no Occult Koumuin: Fukurokouji to Ano Ko to Ore to",
      "rating": 6.79,
      "classificacao_etaria": "A14",
      "imagem_original": "https://animefire.plus/img/animes/mayonaka-no-occult-koumuin-fukurokouji-to-ano-ko-to-ore-to.webp",
      "imagem_pasta": "https://animefire.plus/img/animes/mayonaka-no-occult-koumuin-fukurokouji-to-ano-ko-to-ore-to/",
      "secao": "legendados",
      "pagina": 88,
      "total_episodios": 1,
      "link_video": "https://animefire.plus/video/mayonaka-no-occult-koumuin-fukurokouji-to-ano-ko-to-ore-to"
    },
    {
      "id": 2459,
      "nome": "Mecha-ude",
      "link": "https://animefire.plus/animes/mecha-ude-todos-os-episodios",
      "texto_original": "Mecha-ude",
      "rating": 7.11,
      "classificacao_etaria": "A14",
      "imagem_original": "https://animefire.plus/img/animes/mecha-ude.webp",
      "imagem_pasta": "https://animefire.plus/img/animes/mecha-ude/",
      "secao": "legendados",
      "pagina": 106,
      "total_episodios": 1,
      "link_video": "https://animefire.plus/video/mecha-ude"
    },
    {
      "id": 2471,
      "nome": "Megaton-kyuu Musashi",
      "link": "https://animefire.plus/animes/megaton-kyuu-musashi-todos-os-episodios",
      "texto_original": "Megaton-kyuu Musashi",
      "rating": 6.28,
      "classificacao_etaria": "A14",
      "imagem_original": "https://animefire.plus/img/animes/megaton-kyuu-musashi.webp",
      "imagem_pasta": "https://animefire.plus/img/animes/megaton-kyuu-musashi/",
      "secao": "legendados",
      "pagina": 13,
      "total_episodios": 1,
      "link_video": "https://animefire.plus/video/megaton-kyuu-musashi"
    }
  ],
  "pagination": {
    "current_page": 13,
    "per_page": 20,
    "total_items": 465,
    "total_pages": 24,
    "has_next": true,
    "has_prev": true
  }
}
