{
  "message": "Animes com 1 a 1 episódios",
  "episode_range": {
    "min": 1,
    "max": 1
  },
  "data": [
    {
      "id": 178,
      "nome": "Anime Tenchou",
      "link": "https://animefire.plus/animes/anime-tenchou-todos-os-episodios",
      "texto_original": "Anime Tenchou",
      "rating": 6.08,
      "classificacao_etaria": null,
      "imagem_original": "https://animefire.plus/img/animes/anime-tenchou.webp",
      "imagem_pasta": "https://animefire.plus/img/animes/anime-tenchou/",
      "secao": "legendados",
      "pagina": 85,
      "total_episodios": 1,
      "link_video": "https://animefire.plus/video/anime-tenchou"
    },
    {
      "id": 185,
      "nome": "Ano Ko ni 1000%",
      "link": "https://animefire.plus/animes/ano-ko-ni-1000-todos-os-episodios",
      "texto_original": "Ano Ko ni 1000%",
      "rating": 5.26,
      "classificacao_etaria": "A14",
      "imagem_original": "https://animefire.plus/img/animes/ano-ko-ni-1000.webp",
      "imagem_pasta": "https://animefire.plus/img/animes/ano-ko-ni-1000/",
      "secao": "legendados",
      "pagina": 65,
      "total_episodios": 1,
      "link_video": "https://animefire.plus/video/ano-ko-ni-1000"
    },
    {
      "id": 189,
      "nome": "Another: The Other - Inga",
      "link": "https://animefire.plus/animes/another-the-other---inga-todos-os-episodios",
      "texto_original": "Another: The Other - Inga",
      "rating": 7.36,
      "classificacao_etaria": "A16",
      "imagem_original": "https://animefire.plus/img/animes/another-the-other---inga.webp",
      "imagem_pasta": "https://animefire.plus/img/animes/another-the-other---inga/",
      "secao": "legendados",
      "pagina": 69,
      "total_episodios": 1,
      "link_video": "https://animefire.plus/video/another-the-other---inga"
    },
    {
      "id": 193,
      "nome": "Ansatsu Kyoushitsu: Deai no Jikan",
      "link": "https://animefire.plus/animes/ansatsu-kyoushitsu-deai-no-jikan-todos-os-episodios",
      "texto_original": "Ansatsu Kyoushitsu: Deai no Jikan",
      "rating": 7.43,
      "classificacao_etaria": "A14",
      "imagem_original": "https://animefire.plus/img/animes/ansatsu-kyoushitsu-deai-no-jikan.webp",
      "imagem_pasta": "https://animefire.plus/img/animes/ansatsu-kyoushitsu-deai-no-jikan/",
      "secao": "legendados",
      "pagina": 53,
      "total_episodios": 1,
      "link_video": "https://animefire.plus/video/ansatsu-kyoushitsu-deai-no-jikan"
    },
    {
      "id": 194,
      "nome": "Ansatsu Kyoushitsu: Jump Festa 2013 Special",
      "link": "https://animefire.plus/animes/ansatsu-kyoushitsu-jump-festa-2013-special-todos-os-episodios",
      "texto_original": "Ansatsu Kyoushitsu: Jump Festa 2013 Special",
      "rating": 7.23,
      "classificacao_etaria": "A14",
      "imagem_original": "https://animefire.plus/img/animes/ansatsu-kyoushitsu-jump-festa-2013-special.webp",
      "imagem_pasta": "https://animefire.plus/img/animes/ansatsu-kyoushitsu-jump-festa-2013-special/",
      "secao": "legendados",
      "pagina": 53,
      "total_episodios": 1,
      "link_video": "https://animefire.plus/video/ansatsu-kyoushitsu-jump-festa-2013-special"
    },
    {
      "id": 200,
      "nome": "Ao no Exorcist: Kyoto Fujouou-hen",
      "link": "https://animefire.plus/animes/ao-no-exorcist-kyoto-fujouou-hen-todos-os-episodios",
      "texto_original": "Ao no Exorcist: Kyoto Fujouou-hen",
      "rating": 7.63,
      "classificacao_etaria": "A14",
      "imagem_original": "https://animefire.plus/img/animes/ao-no-exorcist-kyoto-fujouou-hen.webp",
      "imagem_pasta": "https://animefire.plus/img/animes/ao-no-exorcist-kyoto-fujouou-hen/",
      "secao": "legendados",
      "pagina": 112,
      "total_episodios": 1,
      "link_video": "https://animefire.plus/video/ao-no-exorcist-kyoto-fujouou-hen"
    },
    {
      "id": 207,
      "nome": "Aoharu x Kikanjuu",
      "link": "https://animefire.plus/animes/aoharu-x-kikanjuu-todos-os-episodios",
      "texto_original": "Aoharu x Kikanjuu",
      "rating": 7.27,
      "classificacao_etaria": "A14",
      "imagem_original": "https://animefire.plus/img/animes/aoharu-x-kikanjuu.webp",
      "imagem_pasta": "https://animefire.plus/img/animes/aoharu-x-kikanjuu/",
      "secao": "legendados",
      "pagina": 139,
      "total_episodios": 1,
      "link_video": "https://animefire.plus/video/aoharu-x-kikanjuu"
    },
    {
      "id": 213,
      "nome": "Aoki Honoo",
      "link": "https://animefire.plus/animes/aoki-honoo-todos-os-episodios",
      "texto_original": "Aoki Honoo",
      "rating": 5.02,
      "classificacao_etaria": "A18",
      "imagem_original": "https://animefire.plus/img/animes/aoki-honoo.webp",
      "imagem_pasta": "https://animefire.plus/img/animes/aoki-honoo/",
      "secao": "legendados",
      "pagina": 65,
      "total_episodios": 1,
      "link_video": "https://animefire.plus/video/aoki-honoo"
    },
    {
      "id": 222,
      "nome": "Arata Kangatari",
      "link": "https://animefire.plus/animes/arata-kangatari-todos-os-episodios",
      "texto_original": "Arata Kangatari",
      "rating": 6.59,
      "classificacao_etaria": "A14",
      "imagem_original": "https://animefire.plus/img/animes/arata-kangatari.webp",
      "imagem_pasta": "https://animefire.plus/img/animes/arata-kangatari/",
      "secao": "legendados",
      "pagina": 168,
      "total_episodios": 1,
      "link_video": "https://animefire.plus/video/arata-kangatari"
    },
    {
      "id": 236,
      "nome": "Arifureta Shokugyou de Sekai Saikyou 2nd Season Special (Dublado)",
      "link": "https://animefire.plus/animes/arifureta-shokugyou-de-sekai-saikyou-2nd-season-special-dublado-todos-os-episodios",
      "texto_original": "Arifureta Shokugyou de Sekai Saikyou 2nd Season Special (Dublado)",
      "rating": 6.94,
      "classificacao_etaria": "A14",
      "imagem_original": "https://animefire.plus/img/animes/arifureta-shokugyou-de-sekai-saikyou-2nd-season-special.webp",
      "imagem_pasta": "https://animefire.plus/img/animes/arifureta-shokugyou-de-sekai-saikyou-2nd-season-special/",
      "secao": "dublados,legendados",
      "pagina": 11,
      "total_episodios": 1,
      "link_video": "https://animefire.plus/video/arifureta-shokugyou-de-sekai-saikyou-2nd-season-special-dublado"
    },
    {
      "id": 244,
      "nome": "ARP Backstage Pass",
      "link": "https://animefire.plus/animes/arp-backstage-pass-todos-os-episodios",
      "texto_original": "ARP Backstage Pass",
      "rating": 5.59,
      "classificacao_etaria": "A14",
      "imagem_original": "https://animefire.plus/img/animes/arp-backstage-pass.webp",
      "imagem_pasta": "https://animefire.plus/img/animes/arp-backstage-pass/",
      "secao": "legendados",
      "pagina": 92,
      "total_episodios": 1,
      "link_video": "https://animefire.plus/video/arp-backstage-pass"
    },
    {
      "id": 257,
      "nome": "Asatir: Mirai No Mukashi Banashi",
      "link": "https://animefire.plus/animes/asatir-mirai-no-mukashi-banashi-todos-os-episodios",
      "texto_original": "Asatir: Mirai No Mukashi Banashi",
      "rating": 5.89,
      "classificacao_etaria": "A10",
      "imagem_original": "https://animefire.plus/img/animes/asatir-mirai-no-mukashi-banashi.webp",
      "imagem_pasta": "https://animefire.plus/img/animes/asatir-mirai-no-mukashi-banashi/",
      "secao": "legendados,lancamentos",
      "pagina": 60,
      "total_episodios": 1,
      "link_video": "https://animefire.plus/video/asatir-mirai-no-mukashi-banashi"
    },
    {
      "id": 258,
      "nome": "Ashiaraiyashiki no Juunin-tachi.",
      "link": "https://animefire.plus/animes/ashiaraiyashiki-no-juunin-tachi-todos-os-episodios",
      "texto_original": "Ashiaraiyashiki no Juunin-tachi.",
      "rating": 5.06,
      "classificacao_etaria": "A14",
      "imagem_original": "https://animefire.plus/img/animes/ashiaraiyashiki-no-juunin-tachi.webp",
      "imagem_pasta": "https://animefire.plus/img/animes/ashiaraiyashiki-no-juunin-tachi/",
      "secao": "legendados",
      "pagina": 69,
      "total_episodios": 1,
      "link_video": "https://animefire.plus/video/ashiaraiyashiki-no-juunin-tachi"
    },
    {
      "id": 263,
      "nome": "Asobi Asobase OVA",
      "link": "https://animefire.plus/animes/asobi-asobase-ova-todos-os-episodios",
      "texto_original": "Asobi Asobase OVA",
      "rating": 7.51,
      "classificacao_etaria": "A14",
      "imagem_original": "https://animefire.plus/img/animes/asobi-asobase-ova.webp",
      "imagem_pasta": "https://animefire.plus/img/animes/asobi-asobase-ova/",
      "secao": "legendados",
      "pagina": 85,
      "total_episodios": 1,
      "link_video": "https://animefire.plus/video/asobi-asobase-ova"
    },
    {
      "id": 266,
      "nome": "Assassins Pride",
      "link": "https://animefire.plus/animes/assassins-pride-todos-os-episodios",
      "texto_original": "Assassins Pride",
      "rating": 5.94,
      "classificacao_etaria": "A14",
      "imagem_original": "https://animefire.plus/img/animes/assassins-pride.webp",
      "imagem_pasta": "https://animefire.plus/img/animes/assassins-pride/",
      "secao": "legendados",
      "pagina": 110,
      "total_episodios": 1,
      "link_video": "https://animefire.plus/video/assassins-pride"
    },
    {
      "id": 289,
      "nome": "Azur Lane: Bisoku Zenshin! Hokorashiki Bokou ni Shukusai wo",
      "link": "https://animefire.plus/animes/azur-lane-bisoku-zenshin-hokorashiki-bokou-ni-shukusai-wo-todos-os-episodios",
      "texto_original": "Azur Lane: Bisoku Zenshin! Hokorashiki Bokou ni Shukusai wo",
      "rating": 6.84,
      "classificacao_etaria": "A14",
      "imagem_original": "https://animefire.plus/img/animes/azur-lane-bisoku-zenshin-hokorashiki-bokou-ni-shukusai-wo.webp",
      "imagem_pasta": "https://animefire.plus/img/animes/azur-lane-bisoku-zenshin-hokorashiki-bokou-ni-shukusai-wo/",
      "secao": "legendados",
      "pagina": 37,
      "total_episodios": 1,
      "link_video": "https://animefire.plus/video/azur-lane-bisoku-zenshin-hokorashiki-bokou-ni-shukusai-wo"
    },
    {
      "id": 297,
      "nome": "Baby Princess 3D Paradise 0 [Love]",
      "link": "https://animefire.plus/animes/baby-princess-3d-paradise-0-love-todos-os-episodios",
      "texto_original": "Baby Princess 3D Paradise 0 [Love]",
      "rating": 6.47,
      "classificacao_etaria": "A18",
      "imagem_original": "https://animefire.plus/img/animes/baby-princess-3d-paradise-0-love.webp",
      "imagem_pasta": "https://animefire.plus/img/animes/baby-princess-3d-paradise-0-love/",
      "secao": "legendados",
      "pagina": 53,
      "total_episodios": 1,
      "link_video": "https://animefire.plus/video/baby-princess-3d-paradise-0-love"
    },
    {
      "id": 306,
      "nome": "Baka to Test to Shoukanjuu Mini Anime",
      "link": "https://animefire.plus/animes/baka-to-test-to-shoukanjuu-mini-anime-todos-os-episodios",
      "texto_original": "Baka to Test to Shoukanjuu Mini Anime",
      "rating": 6.75,
      "classificacao_etaria": "A14",
      "imagem_original": "https://animefire.plus/img/animes/baka-to-test-to-shoukanjuu-mini-anime.webp",
      "imagem_pasta": "https://animefire.plus/img/animes/baka-to-test-to-shoukanjuu-mini-anime/",
      "secao": "legendados",
      "pagina": 85,
      "total_episodios": 1,
      "link_video": "https://animefire.plus/video/baka-to-test-to-shoukanjuu-mini-anime"
    },
    {
      "id": 338,
      "nome": "BanG Dream! Garupa☆Pico: Oomori",
      "link": "https://animefire.plus/animes/bang-dream-garupa-pico-oomori-todos-os-episodios",
      "texto_original": "BanG Dream! Garupa☆Pico: Oomori",
      "rating": 7.63,
      "classificacao_etaria": "A14",
      "imagem_original": "https://animefire.plus/img/animes/bang-dream-garupa-pico-oomori.webp",
      "imagem_pasta": "https://animefire.plus/img/animes/bang-dream-garupa-pico-oomori/",
      "secao": "legendados,lancamentos",
      "pagina": 79,
      "total_episodios": 1,
      "link_video": "https://animefire.plus/video/bang-dream-garupa-pico-oomori"
    },
    {
      "id": 339,
      "nome": "BanG Dream! Morfonication",
      "link": "https://animefire.plus/animes/bang-dream-morfonication-todos-os-episodios",
      "texto_original": "BanG Dream! Morfonication",
      "rating": 7.57,
      "classificacao_etaria": "A14",
      "imagem_original": "https://animefire.plus/img/animes/bang-dream-morfonication.webp",
      "imagem_pasta": "https://animefire.plus/img/animes/bang-dream-morfonication/",
      "secao": "legendados",
      "pagina": 30,
      "total_episodios": 1,
      "link_video": "https://animefire.plus/video/bang-dream-morfonication"
    }
  ],
  "pagination": {
    "current_page": 2,
    "per_page": 20,
    "total_items": 465,
    "total_pages": 24,
    "has_next": true,
    "has_prev": true
  }
}
