{
  "message": "Animes com 1 a 1 episódios",
  "episode_range": {
    "min": 1,
    "max": 1
  },
  "data": [
    {
      "id": 3312,
      "nome": "Seitokai no Ichizon Lv.2: Watasu Seitokai",
      "link": "https://animefire.plus/animes/seitokai-no-ichizon-lv-2-watasu-seitokai-todos-os-episodios",
      "texto_original": "Seitokai no Ichizon Lv.2: Watasu Seitokai",
      "rating": 7.35,
      "classificacao_etaria": "A14",
      "imagem_original": "https://animefire.plus/img/animes/seitokai-no-ichizon-lv-2-watasu-seitokai.webp",
      "imagem_pasta": "https://animefire.plus/img/animes/seitokai-no-ichizon-lv-2-watasu-seitokai/",
      "secao": "legendados",
      "pagina": 86,
      "total_episodios": 1,
      "link_video": "https://animefire.plus/video/seitokai-no-ichizon-lv-2-watasu-seitokai"
    },
    {
      "id": 3317,
      "nome": "Sekai de Ichiban Tsuyoku Naritai! Specials",
      "link": "https://animefire.plus/animes/sekai-de-ichiban-tsuyoku-naritai-specials-todos-os-episodios",
      "texto_original": "Sekai de Ichiban Tsuyoku Naritai! Specials",
      "rating": 5.77,
      "classificacao_etaria": "A18",
      "imagem_original": "https://animefire.plus/img/animes/sekai-de-ichiban-tsuyoku-naritai-specials.webp",
      "imagem_pasta": "https://animefire.plus/img/animes/sekai-de-ichiban-tsuyoku-naritai-specials/",
      "secao": "legendados",
      "pagina": 54,
      "total_episodios": 1,
      "link_video": "https://animefire.plus/video/sekai-de-ichiban-tsuyoku-naritai-specials"
    },
    {
      "id": 3320,
      "nome": "Sekai Seifuku: Bouryaku no Zvezda - Shin Zvezda Daisakusen",
      "link": "https://animefire.plus/animes/sekai-seifuku-bouryaku-no-zvezda---shin-zvezda-daisakusen-todos-os-episodios",
      "texto_original": "Sekai Seifuku: Bouryaku no Zvezda - Shin Zvezda Daisakusen",
      "rating": 6.74,
      "classificacao_etaria": "A14",
      "imagem_original": "https://animefire.plus/img/animes/sekai-seifuku-bouryaku-no-zvezda---shin-zvezda-daisakusen.webp",
      "imagem_pasta": "https://animefire.plus/img/animes/sekai-seifuku-bouryaku-no-zvezda---shin-zvezda-daisakusen/",
      "secao": "legendados",
      "pagina": 43,
      "total_episodios": 1,
      "link_video": "https://animefire.plus/video/sekai-seifuku-bouryaku-no-zvezda---shin-zvezda-daisakusen"
    },
    {
      "id": 3328,
      "nome": "Selector Spread WIXOSS",
      "link": "https://animefire.plus/animes/selector-spread-wixoss-todos-os-episodios",
      "texto_original": "Selector Spread WIXOSS",
      "rating": 7.46,
      "classificacao_etaria": "A16",
      "imagem_original": "https://animefire.plus/img/animes/selector-spread-wixoss.webp",
      "imagem_pasta": "https://animefire.plus/img/animes/selector-spread-wixoss/",
      "secao": "legendados",
      "pagina": 104,
      "total_episodios": 1,
      "link_video": "https://animefire.plus/video/selector-spread-wixoss"
    },
    {
      "id": 3331,
      "nome": "Sengoku Basara Two: Ryuko, Itadaki no Chikai! Atsuki Mirai e Kakeru Tamashii!!",
      "link": "https://animefire.plus/animes/sengoku-basara-two-ryuko-itadaki-no-chikai-atsuki-mirai-e-kakeru-tamashii-todos-os-episodios",
      "texto_original": "Sengoku Basara Two: Ryuko, Itadaki no Chikai! Atsuki Mirai e Kakeru Tamashii!!",
      "rating": 7.29,
      "classificacao_etaria": "A14",
      "imagem_original": "https://animefire.plus/img/animes/sengoku-basara-two-ryuko-itadaki-no-chikai-atsuki-mirai-e-kakeru-tamashii.webp",
      "imagem_pasta": "https://animefire.plus/img/animes/sengoku-basara-two-ryuko-itadaki-no-chikai-atsuki-mirai-e-kakeru-tamashii/",
      "secao": "legendados",
      "pagina": 70,
      "total_episodios": 1,
      "link_video": "https://animefire.plus/video/sengoku-basara-two-ryuko-itadaki-no-chikai-atsuki-mirai-e-kakeru-tamashii"
    },
    {
      "id": 3370,
      "nome": "Shachou, Battle no Jikan Desu!",
      "link": "https://animefire.plus/animes/shachou-battle-no-jikan-desu-todos-os-episodios",
      "texto_original": "Shachou, Battle no Jikan Desu!",
      "rating": 5.87,
      "classificacao_etaria": "A14",
      "imagem_original": "https://animefire.plus/img/animes/shachou-battle-no-jikan-desu.webp",
      "imagem_pasta": "https://animefire.plus/img/animes/shachou-battle-no-jikan-desu/",
      "secao": "legendados",
      "pagina": 81,
      "total_episodios": 1,
      "link_video": "https://animefire.plus/video/shachou-battle-no-jikan-desu"
    },
    {
      "id": 3390,
      "nome": "Shelter",
      "link": "https://animefire.plus/animes/shelter-todos-os-episodios",
      "texto_original": "Shelter",
      "rating": 8.41,
      "classificacao_etaria": null,
      "imagem_original": "https://animefire.plus/img/animes/shelter.webp",
      "imagem_pasta": "https://animefire.plus/img/animes/shelter/",
      "secao": "legendados",
      "pagina": 119,
      "total_episodios": 1,
      "link_video": "https://animefire.plus/video/shelter"
    },
    {
      "id": 3399,
      "nome": "Shigatsu wa Kimi no Uso: Moments",
      "link": "https://animefire.plus/animes/shigatsu-wa-kimi-no-uso-moments-todos-os-episodios",
      "texto_original": "Shigatsu wa Kimi no Uso: Moments",
      "rating": 7.73,
      "classificacao_etaria": "A14",
      "imagem_original": "https://animefire.plus/img/animes/shigatsu-wa-kimi-no-uso-moments.webp",
      "imagem_pasta": "https://animefire.plus/img/animes/shigatsu-wa-kimi-no-uso-moments/",
      "secao": "legendados",
      "pagina": 54,
      "total_episodios": 1,
      "link_video": "https://animefire.plus/video/shigatsu-wa-kimi-no-uso-moments"
    },
    {
      "id": 3406,
      "nome": "Shijou Saikyou no Deshi Kenichi OVA",
      "link": "https://animefire.plus/animes/shijou-saikyou-no-deshi-kenichi-ova-todos-os-episodios",
      "texto_original": "Shijou Saikyou no Deshi Kenichi OVA",
      "rating": 7.96,
      "classificacao_etaria": "A18",
      "imagem_original": "https://animefire.plus/img/animes/shijou-saikyou-no-deshi-kenichi-ova.webp",
      "imagem_pasta": "https://animefire.plus/img/animes/shijou-saikyou-no-deshi-kenichi-ova/",
      "secao": "legendados",
      "pagina": 65,
      "total_episodios": 1,
      "link_video": "https://animefire.plus/video/shijou-saikyou-no-deshi-kenichi-ova"
    },
    {
      "id": 3413,
      "nome": "Shimoneta to Iu Gainen ga Sonzai Shinai Taikutsu na Sekai",
      "link": "https://animefire.plus/animes/shimoneta-to-iu-gainen-ga-sonzai-shinai-taikutsu-na-sekai-todos-os-episodios",
      "texto_original": "Shimoneta to Iu Gainen ga Sonzai Shinai Taikutsu na Sekai",
      "rating": 7.46,
      "classificacao_etaria": "A18",
      "imagem_original": "https://animefire.plus/img/animes/shimoneta-to-iu-gainen-ga-sonzai-shinai-taikutsu-na-sekai.webp",
      "imagem_pasta": "https://animefire.plus/img/animes/shimoneta-to-iu-gainen-ga-sonzai-shinai-taikutsu-na-sekai/",
      "secao": "legendados",
      "pagina": 125,
      "total_episodios": 1,
      "link_video": "https://animefire.plus/video/shimoneta-to-iu-gainen-ga-sonzai-shinai-taikutsu-na-sekai"
    },
    {
      "id": 3419,
      "nome": "Shin Koihime†Musou: Live Revolution",
      "link": "https://animefire.plus/animes/shin-koihime-musou-live-revolution-todos-os-episodios",
      "texto_original": "Shin Koihime†Musou: Live Revolution",
      "rating": 6.61,
      "classificacao_etaria": "A14",
      "imagem_original": "https://animefire.plus/img/animes/shin-koihime-musou-live-revolution.webp",
      "imagem_pasta": "https://animefire.plus/img/animes/shin-koihime-musou-live-revolution/",
      "secao": "legendados",
      "pagina": 72,
      "total_episodios": 1,
      "link_video": "https://animefire.plus/video/shin-koihime-musou-live-revolution"
    },
    {
      "id": 3424,
      "nome": "Shin Sakura Taisen the Animation",
      "link": "https://animefire.plus/animes/shin-sakura-taisen-the-animation-todos-os-episodios",
      "texto_original": "Shin Sakura Taisen the Animation",
      "rating": 5.81,
      "classificacao_etaria": "A14",
      "imagem_original": "https://animefire.plus/img/animes/shin-sakura-taisen-the-animation.webp",
      "imagem_pasta": "https://animefire.plus/img/animes/shin-sakura-taisen-the-animation/",
      "secao": "legendados",
      "pagina": 81,
      "total_episodios": 1,
      "link_video": "https://animefire.plus/video/shin-sakura-taisen-the-animation"
    },
    {
      "id": 3448,
      "nome": "Shingeki no Kyojin: The Final Season - Kanketsu-hen (Dublado)",
      "link": "https://animefire.plus/animes/shingeki-no-kyojin-the-final-season---kanketsu-hen-dublado-todos-os-episodios",
      "texto_original": "Shingeki no Kyojin: The Final Season - Kanketsu-hen (Dublado)",
      "rating": 8.86,
      "classificacao_etaria": "A16",
      "imagem_original": "https://animefire.plus/img/animes/shingeki-no-kyojin-the-final-season---kanketsu-hen.webp",
      "imagem_pasta": "https://animefire.plus/img/animes/shingeki-no-kyojin-the-final-season---kanketsu-hen/",
      "secao": "dublados",
      "pagina": 28,
      "total_episodios": 1,
      "link_video": "https://animefire.plus/video/shingeki-no-kyojin-the-final-season---kanketsu-hen-dublado"
    },
    {
      "id": 3493,
      "nome": "Shokugeki no Souma: San no Sara - Kyokuseiryou no Erina",
      "link": "https://animefire.plus/animes/shokugeki-no-souma-san-no-sara---kyokuseiryou-no-erina-todos-os-episodios",
      "texto_original": "Shokugeki no Souma: San no Sara - Kyokuseiryou no Erina",
      "rating": 7.46,
      "classificacao_etaria": "A14",
      "imagem_original": "https://animefire.plus/img/animes/shokugeki-no-souma-san-no-sara---kyokuseiryou-no-erina.webp",
      "imagem_pasta": "https://animefire.plus/img/animes/shokugeki-no-souma-san-no-sara---kyokuseiryou-no-erina/",
      "secao": "legendados",
      "pagina": 37,
      "total_episodios": 1,
      "link_video": "https://animefire.plus/video/shokugeki-no-souma-san-no-sara---kyokuseiryou-no-erina"
    },
    {
      "id": 3507,
      "nome": "Shounen to Sakura",
      "link": "https://animefire.plus/animes/shounen-to-sakura-todos-os-episodios",
      "texto_original": "Shounen to Sakura",
      "rating": 5.85,
      "classificacao_etaria": null,
      "imagem_original": "https://animefire.plus/img/animes/shounen-to-sakura.webp",
      "imagem_pasta": "https://animefire.plus/img/animes/shounen-to-sakura/",
      "secao": "legendados",
      "pagina": 55,
      "total_episodios": 1,
      "link_video": "https://animefire.plus/video/shounen-to-sakura"
    },
    {
      "id": 3530,
      "nome": "Si Ling Bianma: Zhi Shijie Caozong Zhe Recap",
      "link": "https://animefire.plus/animes/si-ling-bianma-zhi-shijie-caozong-zhe-recap-todos-os-episodios",
      "texto_original": "Si Ling Bianma: Zhi Shijie Caozong Zhe Recap",
      "rating": null,
      "classificacao_etaria": "A16",
      "imagem_original": "https://animefire.plus/img/animes/si-ling-bianma-zhi-shijie-caozong-zhe-recap.webp",
      "imagem_pasta": "https://animefire.plus/img/animes/si-ling-bianma-zhi-shijie-caozong-zhe-recap/",
      "secao": "legendados",
      "pagina": 83,
      "total_episodios": 1,
      "link_video": "https://animefire.plus/video/si-ling-bianma-zhi-shijie-caozong-zhe-recap"
    },
    {
      "id": 3564,
      "nome": "Sol Levante",
      "link": "https://animefire.plus/animes/sol-levante-todos-os-episodios",
      "texto_original": "Sol Levante",
      "rating": 5.14,
      "classificacao_etaria": "A14",
      "imagem_original": "https://animefire.plus/img/animes/sol-levante.webp",
      "imagem_pasta": "https://animefire.plus/img/animes/sol-levante/",
      "secao": "legendados",
      "pagina": 53,
      "total_episodios": 1,
      "link_video": "https://animefire.plus/video/sol-levante"
    },
    {
      "id": 3579,
      "nome": "Sorairo Utility",
      "link": "https://animefire.plus/animes/sorairo-utility-todos-os-episodios",
      "texto_original": "Sorairo Utility",
      "rating": 6.52,
      "classificacao_etaria": "A14",
      "imagem_original": "https://animefire.plus/img/animes/sorairo-utility.webp",
      "imagem_pasta": "https://animefire.plus/img/animes/sorairo-utility/",
      "secao": "legendados",
      "pagina": 35,
      "total_episodios": 1,
      "link_video": "https://animefire.plus/video/sorairo-utility"
    },
    {
      "id": 3586,
      "nome": "Sorette♡Dakara ne!",
      "link": "https://animefire.plus/animes/sorette-dakara-ne-todos-os-episodios",
      "texto_original": "Sorette♡Dakara ne!",
      "rating": 5.04,
      "classificacao_etaria": "A14",
      "imagem_original": "https://animefire.plus/img/animes/sorette-dakara-ne.webp",
      "imagem_pasta": "https://animefire.plus/img/animes/sorette-dakara-ne/",
      "secao": "legendados",
      "pagina": 43,
      "total_episodios": 1,
      "link_video": "https://animefire.plus/video/sorette-dakara-ne"
    },
    {
      "id": 3590,
      "nome": "Soukyuu no Fafner: Right of Left - Single Program",
      "link": "https://animefire.plus/animes/soukyuu-no-fafner-right-of-left---single-program-todos-os-episodios",
      "texto_original": "Soukyuu no Fafner: Right of Left - Single Program",
      "rating": 7.42,
      "classificacao_etaria": "A14",
      "imagem_original": "https://animefire.plus/img/animes/soukyuu-no-fafner-right-of-left---single-program.webp",
      "imagem_pasta": "https://animefire.plus/img/animes/soukyuu-no-fafner-right-of-left---single-program/",
      "secao": "legendados",
      "pagina": 77,
      "total_episodios": 1,
      "link_video": "https://animefire.plus/video/soukyuu-no-fafner-right-of-left---single-program"
    }
  ],
  "pagination": {
    "current_page": 19,
    "per_page": 20,
    "total_items": 465,
    "total_pages": 24,
    "has_next": true,
    "has_prev": true
  }
}
