{
  "message": "Animes com 1 a 1 episódios",
  "episode_range": {
    "min": 1,
    "max": 1
  },
  "data": [
    {
      "id": 341,
      "nome": "Baoh Raihousha",
      "link": "https://animefire.plus/animes/baoh-raihousha-todos-os-episodios",
      "texto_original": "Baoh Raihousha",
      "rating": 6.12,
      "classificacao_etaria": "A16",
      "imagem_original": "https://animefire.plus/img/animes/baoh-raihousha.webp",
      "imagem_pasta": "https://animefire.plus/img/animes/baoh-raihousha/",
      "secao": "legendados",
      "pagina": 57,
      "total_episodios": 1,
      "link_video": "https://animefire.plus/video/baoh-raihousha"
    },
    {
      "id": 345,
      "nome": "Bartender",
      "link": "https://animefire.plus/animes/bartender-todos-os-episodios",
      "texto_original": "Bartender",
      "rating": 7.4,
      "classificacao_etaria": "A14",
      "imagem_original": "https://animefire.plus/img/animes/bartender.webp",
      "imagem_pasta": "https://animefire.plus/img/animes/bartender/",
      "secao": "legendados",
      "pagina": 77,
      "total_episodios": 1,
      "link_video": "https://animefire.plus/video/bartender"
    },
    {
      "id": 359,
      "nome": "Battle Royal High School",
      "link": "https://animefire.plus/animes/battle-royal-high-school-todos-os-episodios",
      "texto_original": "Battle Royal High School",
      "rating": 5.59,
      "classificacao_etaria": "A18",
      "imagem_original": "https://animefire.plus/img/animes/battle-royal-high-school.webp",
      "imagem_pasta": "https://animefire.plus/img/animes/battle-royal-high-school/",
      "secao": "legendados",
      "pagina": 65,
      "total_episodios": 1,
      "link_video": "https://animefire.plus/video/battle-royal-high-school"
    },
    {
      "id": 361,
      "nome": "Battle Spirits: Ryuuko no Ken (Dublado)",
      "link": "https://animefire.plus/animes/battle-spirits-ryuuko-no-ken-dublado-todos-os-episodios",
      "texto_original": "Battle Spirits: Ryuuko no Ken (Dublado)",
      "rating": 4.86,
      "classificacao_etaria": "A14",
      "imagem_original": "https://animefire.plus/img/animes/battle-spirits-ryuuko-no-ken.webp",
      "imagem_pasta": "https://animefire.plus/img/animes/battle-spirits-ryuuko-no-ken/",
      "secao": "dublados",
      "pagina": 22,
      "total_episodios": 1,
      "link_video": "https://animefire.plus/video/battle-spirits-ryuuko-no-ken-dublado"
    },
    {
      "id": 362,
      "nome": "Bean Bandit",
      "link": "https://animefire.plus/animes/bean-bandit-todos-os-episodios",
      "texto_original": "Bean Bandit",
      "rating": 5.09,
      "classificacao_etaria": "A14",
      "imagem_original": "https://animefire.plus/img/animes/bean-bandit.webp",
      "imagem_pasta": "https://animefire.plus/img/animes/bean-bandit/",
      "secao": "legendados",
      "pagina": 33,
      "total_episodios": 1,
      "link_video": "https://animefire.plus/video/bean-bandit"
    },
    {
      "id": 380,
      "nome": "Beyblade Burst Dynamite Battle",
      "link": "https://animefire.plus/animes/beyblade-burst-dynamite-battle-todos-os-episodios",
      "texto_original": "Beyblade Burst Dynamite Battle",
      "rating": 6.23,
      "classificacao_etaria": null,
      "imagem_original": "https://animefire.plus/img/animes/beyblade-burst-dynamite-battle.webp",
      "imagem_pasta": "https://animefire.plus/img/animes/beyblade-burst-dynamite-battle/",
      "secao": "legendados,lancamentos",
      "pagina": 45,
      "total_episodios": 1,
      "link_video": "https://animefire.plus/video/beyblade-burst-dynamite-battle"
    },
    {
      "id": 381,
      "nome": "Beyblade Burst Sparking",
      "link": "https://animefire.plus/animes/beyblade-burst-sparking-todos-os-episodios",
      "texto_original": "Beyblade Burst Sparking",
      "rating": 6.29,
      "classificacao_etaria": "A10",
      "imagem_original": "https://animefire.plus/img/animes/beyblade-burst-sparking.webp",
      "imagem_pasta": "https://animefire.plus/img/animes/beyblade-burst-sparking/",
      "secao": "legendados",
      "pagina": 50,
      "total_episodios": 1,
      "link_video": "https://animefire.plus/video/beyblade-burst-sparking"
    },
    {
      "id": 394,
      "nome": "Bio Hunter",
      "link": "https://animefire.plus/animes/bio-hunter-todos-os-episodios",
      "texto_original": "Bio Hunter",
      "rating": 5.96,
      "classificacao_etaria": "A18",
      "imagem_original": "https://animefire.plus/img/animes/bio-hunter.webp",
      "imagem_pasta": "https://animefire.plus/img/animes/bio-hunter/",
      "secao": "legendados",
      "pagina": 66,
      "total_episodios": 1,
      "link_video": "https://animefire.plus/video/bio-hunter"
    },
    {
      "id": 415,
      "nome": "Black Magic M-66",
      "link": "https://animefire.plus/animes/black-magic-m-66-todos-os-episodios",
      "texto_original": "Black Magic M-66",
      "rating": 6.39,
      "classificacao_etaria": "A16",
      "imagem_original": "https://animefire.plus/img/animes/black-magic-m-66.webp",
      "imagem_pasta": "https://animefire.plus/img/animes/black-magic-m-66/",
      "secao": "legendados",
      "pagina": 56,
      "total_episodios": 1,
      "link_video": "https://animefire.plus/video/black-magic-m-66"
    },
    {
      "id": 424,
      "nome": "Bleach Colorful!: Gotei Juusan Yatai Daisakusen!",
      "link": "https://animefire.plus/animes/bleach-colorful-gotei-juusan-yatai-daisakusen-todos-os-episodios",
      "texto_original": "Bleach Colorful!: Gotei Juusan Yatai Daisakusen!",
      "rating": 6.5,
      "classificacao_etaria": "A14",
      "imagem_original": "https://animefire.plus/img/animes/bleach-colorful-gotei-juusan-yatai-daisakusen.webp",
      "imagem_pasta": "https://animefire.plus/img/animes/bleach-colorful-gotei-juusan-yatai-daisakusen/",
      "secao": "legendados",
      "pagina": 86,
      "total_episodios": 1,
      "link_video": "https://animefire.plus/video/bleach-colorful-gotei-juusan-yatai-daisakusen"
    },
    {
      "id": 444,
      "nome": "Blue Seed 2",
      "link": "https://animefire.plus/animes/blue-seed-2-todos-os-episodios",
      "texto_original": "Blue Seed 2",
      "rating": 6.45,
      "classificacao_etaria": "A16",
      "imagem_original": "https://animefire.plus/img/animes/blue-seed-2.webp",
      "imagem_pasta": "https://animefire.plus/img/animes/blue-seed-2/",
      "secao": "legendados",
      "pagina": 54,
      "total_episodios": 1,
      "link_video": "https://animefire.plus/video/blue-seed-2"
    },
    {
      "id": 456,
      "nome": "Boku no Hero Academia 5th Season (Dublado)",
      "link": "https://animefire.plus/animes/boku-no-hero-academia-5-dublado-todos-os-episodios",
      "texto_original": "Boku no Hero Academia 5th Season (Dublado)",
      "rating": 7.35,
      "classificacao_etaria": "A14",
      "imagem_original": "https://animefire.plus/img/animes/boku-no-hero-academia-5.webp",
      "imagem_pasta": "https://animefire.plus/img/animes/boku-no-hero-academia-5/",
      "secao": "dublados",
      "pagina": 18,
      "total_episodios": 1,
      "link_video": "https://animefire.plus/video/boku-no-hero-academia-5-dublado"
    },
    {
      "id": 467,
      "nome": "Boku to Roboko",
      "link": "https://animefire.plus/animes/boku-to-roboko-todos-os-episodios",
      "texto_original": "Boku to Roboko",
      "rating": 6.83,
      "classificacao_etaria": "A14",
      "imagem_original": "https://animefire.plus/img/animes/boku-to-roboko.webp",
      "imagem_pasta": "https://animefire.plus/img/animes/boku-to-roboko/",
      "secao": "legendados,lancamentos",
      "pagina": 26,
      "total_episodios": 1,
      "link_video": "https://animefire.plus/video/boku-to-roboko"
    },
    {
      "id": 469,
      "nome": "Boku wa Tomodachi ga Sukunai Episode 0",
      "link": "https://animefire.plus/animes/boku-wa-tomodachi-ga-sukunai-episode-0-todos-os-episodios",
      "texto_original": "Boku wa Tomodachi ga Sukunai Episode 0",
      "rating": 6.74,
      "classificacao_etaria": "A14",
      "imagem_original": "https://animefire.plus/img/animes/boku-wa-tomodachi-ga-sukunai-episode-0.webp",
      "imagem_pasta": "https://animefire.plus/img/animes/boku-wa-tomodachi-ga-sukunai-episode-0/",
      "secao": "legendados",
      "pagina": 43,
      "total_episodios": 1,
      "link_video": "https://animefire.plus/video/boku-wa-tomodachi-ga-sukunai-episode-0"
    },
    {
      "id": 500,
      "nome": "Bright: Samurai Soul (Dublado)",
      "link": "https://animefire.plus/animes/bright-samurai-soul-dublado-todos-os-episodios",
      "texto_original": "Bright: Samurai Soul (Dublado)",
      "rating": 5.39,
      "classificacao_etaria": "A16",
      "imagem_original": "https://animefire.plus/img/animes/bright-samurai-soul.webp",
      "imagem_pasta": "https://animefire.plus/img/animes/bright-samurai-soul/",
      "secao": "dublados,legendados",
      "pagina": 15,
      "total_episodios": 1,
      "link_video": "https://animefire.plus/video/bright-samurai-soul-dublado"
    },
    {
      "id": 501,
      "nome": "Bronze: Kouji Nanjo Cathexis",
      "link": "https://animefire.plus/animes/bronze-kouji-nanjo-cathexis-todos-os-episodios",
      "texto_original": "Bronze: Kouji Nanjo Cathexis",
      "rating": 6.32,
      "classificacao_etaria": "A14",
      "imagem_original": "https://animefire.plus/img/animes/bronze-kouji-nanjo-cathexis.webp",
      "imagem_pasta": "https://animefire.plus/img/animes/bronze-kouji-nanjo-cathexis/",
      "secao": "legendados",
      "pagina": 86,
      "total_episodios": 1,
      "link_video": "https://animefire.plus/video/bronze-kouji-nanjo-cathexis"
    },
    {
      "id": 502,
      "nome": "Brotherhood: Final Fantasy XV",
      "link": "https://animefire.plus/animes/brotherhood-final-fantasy-xv-todos-os-episodios",
      "texto_original": "Brotherhood: Final Fantasy XV",
      "rating": 6.96,
      "classificacao_etaria": "A14",
      "imagem_original": "https://animefire.plus/img/animes/brotherhood-final-fantasy-xv.webp",
      "imagem_pasta": "https://animefire.plus/img/animes/brotherhood-final-fantasy-xv/",
      "secao": "legendados",
      "pagina": 42,
      "total_episodios": 1,
      "link_video": "https://animefire.plus/video/brotherhood-final-fantasy-xv"
    },
    {
      "id": 505,
      "nome": "Bubble (Dublado)",
      "link": "https://animefire.plus/animes/bubble-dublado-todos-os-episodios",
      "texto_original": "Bubble (Dublado)",
      "rating": 7.24,
      "classificacao_etaria": "A14",
      "imagem_original": "https://animefire.plus/img/animes/bubble.webp",
      "imagem_pasta": "https://animefire.plus/img/animes/bubble/",
      "secao": "dublados,legendados",
      "pagina": 11,
      "total_episodios": 1,
      "link_video": "https://animefire.plus/video/bubble-dublado"
    },
    {
      "id": 525,
      "nome": "Bungou Stray Dogs: Hitori Ayumu (Dublado)",
      "link": "https://animefire.plus/animes/bungou-stray-dogs-hitori-ayumu-dublado-todos-os-episodios",
      "texto_original": "Bungou Stray Dogs: Hitori Ayumu (Dublado)",
      "rating": 7.71,
      "classificacao_etaria": "A14",
      "imagem_original": "https://animefire.plus/img/animes/bungou-stray-dogs-hitori-ayumu.webp",
      "imagem_pasta": "https://animefire.plus/img/animes/bungou-stray-dogs-hitori-ayumu/",
      "secao": "dublados,legendados",
      "pagina": 24,
      "total_episodios": 1,
      "link_video": "https://animefire.plus/video/bungou-stray-dogs-hitori-ayumu-dublado"
    },
    {
      "id": 527,
      "nome": "Burn the Witch #0.8",
      "link": "https://animefire.plus/animes/burn-the-witch-0-8-todos-os-episodios",
      "texto_original": "Burn the Witch #0.8",
      "rating": 7.46,
      "classificacao_etaria": "A14",
      "imagem_original": "https://animefire.plus/img/animes/burn-the-witch-0-8.webp",
      "imagem_pasta": "https://animefire.plus/img/animes/burn-the-witch-0-8/",
      "secao": "legendados",
      "pagina": 17,
      "total_episodios": 1,
      "link_video": "https://animefire.plus/video/burn-the-witch-0-8"
    }
  ],
  "pagination": {
    "current_page": 3,
    "per_page": 20,
    "total_items": 465,
    "total_pages": 24,
    "has_next": true,
    "has_prev": true
  }
}
