{
  "message": "Animes com 1 a 1 episódios",
  "episode_range": {
    "min": 1,
    "max": 1
  },
  "data": [
    {
      "id": 3625,
      "nome": "Starmyu",
      "link": "https://animefire.plus/animes/starmyu-todos-os-episodios",
      "texto_original": "Starmyu",
      "rating": 7.06,
      "classificacao_etaria": "A14",
      "imagem_original": "https://animefire.plus/img/animes/starmyu.webp",
      "imagem_pasta": "https://animefire.plus/img/animes/starmyu/",
      "secao": "legendados",
      "pagina": 149,
      "total_episodios": 1,
      "link_video": "https://animefire.plus/video/starmyu"
    },
    {
      "id": 3628,
      "nome": "Starmyu in Halloween",
      "link": "https://animefire.plus/animes/starmyu-in-halloween-todos-os-episodios",
      "texto_original": "Starmyu in Halloween",
      "rating": 6.92,
      "classificacao_etaria": null,
      "imagem_original": "https://animefire.plus/img/animes/starmyu-in-halloween.webp",
      "imagem_pasta": "https://animefire.plus/img/animes/starmyu-in-halloween/",
      "secao": "legendados",
      "pagina": 86,
      "total_episodios": 1,
      "link_video": "https://animefire.plus/video/starmyu-in-halloween"
    },
    {
      "id": 3633,
      "nome": "Steins;Gate 0: Kesshou Takei no Valentine - Bittersweet Intermedio (Dublado)",
      "link": "https://animefire.plus/animes/steins-gate-0-kesshou-takei-no-valentine---bittersweet-intermedio-dublado-todos-os-episodios",
      "texto_original": "Steins;Gate 0: Kesshou Takei no Valentine - Bittersweet Intermedio (Dublado)",
      "rating": 7.14,
      "classificacao_etaria": "A14",
      "imagem_original": "https://animefire.plus/img/animes/steins-gate-0-kesshou-takei-no-valentine---bittersweet-intermedio.webp",
      "imagem_pasta": "https://animefire.plus/img/animes/steins-gate-0-kesshou-takei-no-valentine---bittersweet-intermedio/",
      "secao": "dublados,legendados",
      "pagina": 18,
      "total_episodios": 1,
      "link_video": "https://animefire.plus/video/steins-gate-0-kesshou-takei-no-valentine---bittersweet-intermedio-dublado"
    },
    {
      "id": 3634,
      "nome": "Steins;Gate: Kyoukaimenjou no Missing Link - Divide By Zero (Dublado)",
      "link": "https://animefire.plus/animes/steins-gate-kyoukaimenjou-no-missing-link---divide-by-zero-dublado-todos-os-episodios",
      "texto_original": "Steins;Gate: Kyoukaimenjou no Missing Link - Divide By Zero (Dublado)",
      "rating": 8.26,
      "classificacao_etaria": "A14",
      "imagem_original": "https://animefire.plus/img/animes/steins-gate-kyoukaimenjou-no-missing-link---divide-by-zero.webp",
      "imagem_pasta": "https://animefire.plus/img/animes/steins-gate-kyoukaimenjou-no-missing-link---divide-by-zero/",
      "secao": "dublados,legendados",
      "pagina": 18,
      "total_episodios": 1,
      "link_video": "https://animefire.plus/video/steins-gate-kyoukaimenjou-no-missing-link---divide-by-zero-dublado"
    },
    {
      "id": 3644,
      "nome": "Street Fighter IV: Aratanaru Kizuna",
      "link": "https://animefire.plus/animes/street-fighter-iv-aratanaru-kizuna-todos-os-episodios",
      "texto_original": "Street Fighter IV: Aratanaru Kizuna",
      "rating": 6.26,
      "classificacao_etaria": "A14",
      "imagem_original": "https://animefire.plus/img/animes/street-fighter-iv-aratanaru-kizuna.webp",
      "imagem_pasta": "https://animefire.plus/img/animes/street-fighter-iv-aratanaru-kizuna/",
      "secao": "legendados",
      "pagina": 58,
      "total_episodios": 1,
      "link_video": "https://animefire.plus/video/street-fighter-iv-aratanaru-kizuna"
    },
    {
      "id": 3650,
      "nome": "Strike the Blood: Kieta Seisou-hen",
      "link": "https://animefire.plus/animes/strike-the-blood-kieta-seisou-hen-todos-os-episodios",
      "texto_original": "Strike the Blood: Kieta Seisou-hen",
      "rating": 6.89,
      "classificacao_etaria": "A18",
      "imagem_original": "https://animefire.plus/img/animes/strike-the-blood-kieta-seisou-hen.webp",
      "imagem_pasta": "https://animefire.plus/img/animes/strike-the-blood-kieta-seisou-hen/",
      "secao": "legendados",
      "pagina": 91,
      "total_episodios": 1,
      "link_video": "https://animefire.plus/video/strike-the-blood-kieta-seisou-hen"
    },
    {
      "id": 3654,
      "nome": "Strike Witches OVA",
      "link": "https://animefire.plus/animes/strike-witches-ova-todos-os-episodios",
      "texto_original": "Strike Witches OVA",
      "rating": 6.28,
      "classificacao_etaria": "A14",
      "imagem_original": "https://animefire.plus/img/animes/strike-witches-ova.webp",
      "imagem_pasta": "https://animefire.plus/img/animes/strike-witches-ova/",
      "secao": "legendados",
      "pagina": 44,
      "total_episodios": 1,
      "link_video": "https://animefire.plus/video/strike-witches-ova"
    },
    {
      "id": 3670,
      "nome": "Sukitte Ii na yo.: Dareka ga",
      "link": "https://animefire.plus/animes/sukitte-ii-na-yo-dareka-ga-todos-os-episodios",
      "texto_original": "Sukitte Ii na yo.: Dareka ga",
      "rating": 7.27,
      "classificacao_etaria": "A14",
      "imagem_original": "https://animefire.plus/img/animes/sukitte-ii-na-yo-dareka-ga.webp",
      "imagem_pasta": "https://animefire.plus/img/animes/sukitte-ii-na-yo-dareka-ga/",
      "secao": "legendados",
      "pagina": 42,
      "total_episodios": 1,
      "link_video": "https://animefire.plus/video/sukitte-ii-na-yo-dareka-ga"
    },
    {
      "id": 3676,
      "nome": "Super Danganronpa 2.5: Komaeda Nagito to Sekai no Hakaimono",
      "link": "https://animefire.plus/animes/super-danganronpa-2-5-komaeda-nagito-to-sekai-no-hakaimono-todos-os-episodios",
      "texto_original": "Super Danganronpa 2.5: Komaeda Nagito to Sekai no Hakaimono",
      "rating": 7.35,
      "classificacao_etaria": "A16",
      "imagem_original": "https://animefire.plus/img/animes/super-danganronpa-2-5-komaeda-nagito-to-sekai-no-hakaimono.webp",
      "imagem_pasta": "https://animefire.plus/img/animes/super-danganronpa-2-5-komaeda-nagito-to-sekai-no-hakaimono/",
      "secao": "legendados",
      "pagina": 174,
      "total_episodios": 1,
      "link_video": "https://animefire.plus/video/super-danganronpa-2-5-komaeda-nagito-to-sekai-no-hakaimono"
    },
    {
      "id": 3679,
      "nome": "Super Mario World: Mario to Yoshi no Bouken Land (Dublado)",
      "link": "https://animefire.plus/animes/super-mario-world-mario-to-yoshi-no-bouken-land-dublado-todos-os-episodios",
      "texto_original": "Super Mario World: Mario to Yoshi no Bouken Land (Dublado)",
      "rating": 5.38,
      "classificacao_etaria": null,
      "imagem_original": "https://animefire.plus/img/animes/super-mario-world-mario-to-yoshi-no-bouken-land.webp",
      "imagem_pasta": "https://animefire.plus/img/animes/super-mario-world-mario-to-yoshi-no-bouken-land/",
      "secao": "dublados,legendados",
      "pagina": 23,
      "total_episodios": 1,
      "link_video": "https://animefire.plus/video/super-mario-world-mario-to-yoshi-no-bouken-land-dublado"
    },
    {
      "id": 3684,
      "nome": "Sushi Police",
      "link": "https://animefire.plus/animes/sushi-police-todos-os-episodios",
      "texto_original": "Sushi Police",
      "rating": 4.69,
      "classificacao_etaria": "A14",
      "imagem_original": "https://animefire.plus/img/animes/sushi-police.webp",
      "imagem_pasta": "https://animefire.plus/img/animes/sushi-police/",
      "secao": "legendados",
      "pagina": 149,
      "total_episodios": 1,
      "link_video": "https://animefire.plus/video/sushi-police"
    },
    {
      "id": 3685,
      "nome": "Suzakinishi The Animation",
      "link": "https://animefire.plus/animes/suzakinishi-the-animation-todos-os-episodios",
      "texto_original": "Suzakinishi The Animation",
      "rating": 5.48,
      "classificacao_etaria": "A14",
      "imagem_original": "https://animefire.plus/img/animes/suzakinishi-the-animation.webp",
      "imagem_pasta": "https://animefire.plus/img/animes/suzakinishi-the-animation/",
      "secao": "legendados",
      "pagina": 117,
      "total_episodios": 1,
      "link_video": "https://animefire.plus/video/suzakinishi-the-animation"
    },
    {
      "id": 3691,
      "nome": "Sword Art Online Alternative: Gun Gale Online",
      "link": "https://animefire.plus/animes/sword-art-online-alternative-gun-gale-online-todos-os-episodios",
      "texto_original": "Sword Art Online Alternative: Gun Gale Online",
      "rating": 7.29,
      "classificacao_etaria": "A14",
      "imagem_original": "https://animefire.plus/img/animes/sword-art-online-alternative-gun-gale-online.webp",
      "imagem_pasta": "https://animefire.plus/img/animes/sword-art-online-alternative-gun-gale-online/",
      "secao": "legendados",
      "pagina": 165,
      "total_episodios": 1,
      "link_video": "https://animefire.plus/video/sword-art-online-alternative-gun-gale-online"
    },
    {
      "id": 3694,
      "nome": "Sword Art Online II: Sword Art Offline II",
      "link": "https://animefire.plus/animes/sword-art-online-ii-sword-art-offline-ii-todos-os-episodios",
      "texto_original": "Sword Art Online II: Sword Art Offline II",
      "rating": 6.56,
      "classificacao_etaria": "A14",
      "imagem_original": "https://animefire.plus/img/animes/sword-art-online-ii-sword-art-offline-ii.webp",
      "imagem_pasta": "https://animefire.plus/img/animes/sword-art-online-ii-sword-art-offline-ii/",
      "secao": "legendados",
      "pagina": 54,
      "total_episodios": 1,
      "link_video": "https://animefire.plus/video/sword-art-online-ii-sword-art-offline-ii"
    },
    {
      "id": 3719,
      "nome": "Takarajima Memorial: Yuunagi to Yobareta Otoko",
      "link": "https://animefire.plus/animes/takarajima-memorial-yuunagi-to-yobareta-otoko-todos-os-episodios",
      "texto_original": "Takarajima Memorial: Yuunagi to Yobareta Otoko",
      "rating": 6.56,
      "classificacao_etaria": null,
      "imagem_original": "https://animefire.plus/img/animes/takarajima-memorial-yuunagi-to-yobareta-otoko.webp",
      "imagem_pasta": "https://animefire.plus/img/animes/takarajima-memorial-yuunagi-to-yobareta-otoko/",
      "secao": "legendados",
      "pagina": 78,
      "total_episodios": 1,
      "link_video": "https://animefire.plus/video/takarajima-memorial-yuunagi-to-yobareta-otoko"
    },
    {
      "id": 3739,
      "nome": "Tanpen Unico: Kuroi Kumo to Shiroi Hane",
      "link": "https://animefire.plus/animes/tanpen-unico-kuroi-kumo-to-shiroi-hane-todos-os-episodios",
      "texto_original": "Tanpen Unico: Kuroi Kumo to Shiroi Hane",
      "rating": 6.24,
      "classificacao_etaria": null,
      "imagem_original": "https://animefire.plus/img/animes/tanpen-unico-kuroi-kumo-to-shiroi-hane.webp",
      "imagem_pasta": "https://animefire.plus/img/animes/tanpen-unico-kuroi-kumo-to-shiroi-hane/",
      "secao": "legendados",
      "pagina": 65,
      "total_episodios": 1,
      "link_video": "https://animefire.plus/video/tanpen-unico-kuroi-kumo-to-shiroi-hane"
    },
    {
      "id": 3741,
      "nome": "Tantei Kageki Milky Holmes TD",
      "link": "https://animefire.plus/animes/tantei-kageki-milky-holmes-td-todos-os-episodios",
      "texto_original": "Tantei Kageki Milky Holmes TD",
      "rating": 6.47,
      "classificacao_etaria": "A14",
      "imagem_original": "https://animefire.plus/img/animes/tantei-kageki-milky-holmes-td.webp",
      "imagem_pasta": "https://animefire.plus/img/animes/tantei-kageki-milky-holmes-td/",
      "secao": "legendados",
      "pagina": 126,
      "total_episodios": 1,
      "link_video": "https://animefire.plus/video/tantei-kageki-milky-holmes-td"
    },
    {
      "id": 3745,
      "nome": "Tantei Opera Milky Holmes: Arsene Karei naru Yokubou",
      "link": "https://animefire.plus/animes/tantei-opera-milky-holmes-arsene-karei-naru-yokubou-todos-os-episodios",
      "texto_original": "Tantei Opera Milky Holmes: Arsene Karei naru Yokubou",
      "rating": 6.94,
      "classificacao_etaria": "A14",
      "imagem_original": "https://animefire.plus/img/animes/tantei-opera-milky-holmes-arsene-karei-naru-yokubou.webp",
      "imagem_pasta": "https://animefire.plus/img/animes/tantei-opera-milky-holmes-arsene-karei-naru-yokubou/",
      "secao": "legendados",
      "pagina": 87,
      "total_episodios": 1,
      "link_video": "https://animefire.plus/video/tantei-opera-milky-holmes-arsene-karei-naru-yokubou"
    },
    {
      "id": 3746,
      "nome": "Tantei Opera Milky Holmes: Psycho no Aisatsu",
      "link": "https://animefire.plus/animes/tantei-opera-milky-holmes-psycho-no-aisatsu-todos-os-episodios",
      "texto_original": "Tantei Opera Milky Holmes: Psycho no Aisatsu",
      "rating": 6.79,
      "classificacao_etaria": "A14",
      "imagem_original": "https://animefire.plus/img/animes/tantei-opera-milky-holmes-psycho-no-aisatsu.webp",
      "imagem_pasta": "https://animefire.plus/img/animes/tantei-opera-milky-holmes-psycho-no-aisatsu/",
      "secao": "legendados",
      "pagina": 83,
      "total_episodios": 1,
      "link_video": "https://animefire.plus/video/tantei-opera-milky-holmes-psycho-no-aisatsu"
    },
    {
      "id": 3747,
      "nome": "Tantei Opera Milky Holmes: Summer Special",
      "link": "https://animefire.plus/animes/tantei-opera-milky-holmes-summer-special-todos-os-episodios",
      "texto_original": "Tantei Opera Milky Holmes: Summer Special",
      "rating": 7,
      "classificacao_etaria": "A14",
      "imagem_original": "https://animefire.plus/img/animes/tantei-opera-milky-holmes-summer-special.webp",
      "imagem_pasta": "https://animefire.plus/img/animes/tantei-opera-milky-holmes-summer-special/",
      "secao": "legendados",
      "pagina": 87,
      "total_episodios": 1,
      "link_video": "https://animefire.plus/video/tantei-opera-milky-holmes-summer-special"
    }
  ],
  "pagination": {
    "current_page": 20,
    "per_page": 20,
    "total_items": 465,
    "total_pages": 24,
    "has_next": true,
    "has_prev": true
  }
}
