{
  "message": "Animes com 1 a 1 episódios",
  "episode_range": {
    "min": 1,
    "max": 1
  },
  "data": [
    {
      "id": 1504,
      "nome": "Hitori no Shita: The Outcast 4th Season",
      "link": "https://animefire.plus/animes/hitori-no-shita-the-outcast-4th-season-todos-os-episodios",
      "texto_original": "Hitori no Shita: The Outcast 4th Season",
      "rating": 6.95,
      "classificacao_etaria": "A16",
      "imagem_original": "https://animefire.plus/img/animes/hitori-no-shita-the-outcast-4th-season.webp",
      "imagem_pasta": "https://animefire.plus/img/animes/hitori-no-shita-the-outcast-4th-season/",
      "secao": "legendados",
      "pagina": 33,
      "total_episodios": 1,
      "link_video": "https://animefire.plus/video/hitori-no-shita-the-outcast-4th-season"
    },
    {
      "id": 1505,
      "nome": "Hitori no Shita: The Outcast Recap",
      "link": "https://animefire.plus/animes/hitori-no-shita-the-outcast-recap-todos-os-episodios",
      "texto_original": "Hitori no Shita: The Outcast Recap",
      "rating": 6.3,
      "classificacao_etaria": "A16",
      "imagem_original": "https://animefire.plus/img/animes/hitori-no-shita-the-outcast-recap.webp",
      "imagem_pasta": "https://animefire.plus/img/animes/hitori-no-shita-the-outcast-recap/",
      "secao": "legendados",
      "pagina": 85,
      "total_episodios": 1,
      "link_video": "https://animefire.plus/video/hitori-no-shita-the-outcast-recap"
    },
    {
      "id": 1512,
      "nome": "Hiyokoi",
      "link": "https://animefire.plus/animes/hiyokoi-todos-os-episodios",
      "texto_original": "Hiyokoi",
      "rating": 7.36,
      "classificacao_etaria": "A14",
      "imagem_original": "https://animefire.plus/img/animes/hiyokoi.webp",
      "imagem_pasta": "https://animefire.plus/img/animes/hiyokoi/",
      "secao": "legendados",
      "pagina": 56,
      "total_episodios": 1,
      "link_video": "https://animefire.plus/video/hiyokoi"
    },
    {
      "id": 1520,
      "nome": "Honzuki no Gekokujou: Shisho ni Naru Tame ni wa Shudan wo Erandeiraremasen 2nd Season",
      "link": "https://animefire.plus/animes/honzuki-no-gekokujou-shisho-ni-naru-tame-ni-wa-shudan-wo-erandeiraremasen-2nd-season-todos-os-episodios",
      "texto_original": "Honzuki no Gekokujou: Shisho ni Naru Tame ni wa Shudan wo Erandeiraremasen 2nd Season",
      "rating": 8.16,
      "classificacao_etaria": "A14",
      "imagem_original": "https://animefire.plus/img/animes/honzuki-no-gekokujou-shisho-ni-naru-tame-ni-wa-shudan-wo-erandeiraremasen-2nd-season.webp",
      "imagem_pasta": "https://animefire.plus/img/animes/honzuki-no-gekokujou-shisho-ni-naru-tame-ni-wa-shudan-wo-erandeiraremasen-2nd-season/",
      "secao": "legendados",
      "pagina": 81,
      "total_episodios": 1,
      "link_video": "https://animefire.plus/video/honzuki-no-gekokujou-shisho-ni-naru-tame-ni-wa-shudan-wo-erandeiraremasen-2nd-season"
    },
    {
      "id": 1530,
      "nome": "Hoshiai no Sora",
      "link": "https://animefire.plus/animes/hoshiai-no-sora-todos-os-episodios",
      "texto_original": "Hoshiai no Sora",
      "rating": 7.52,
      "classificacao_etaria": "A14",
      "imagem_original": "https://animefire.plus/img/animes/hoshiai-no-sora.webp",
      "imagem_pasta": "https://animefire.plus/img/animes/hoshiai-no-sora/",
      "secao": "legendados",
      "pagina": 110,
      "total_episodios": 1,
      "link_video": "https://animefire.plus/video/hoshiai-no-sora"
    },
    {
      "id": 1532,
      "nome": "Hoshikuzu Paradise",
      "link": "https://animefire.plus/animes/hoshikuzu-paradise-todos-os-episodios",
      "texto_original": "Hoshikuzu Paradise",
      "rating": 5.59,
      "classificacao_etaria": "A14",
      "imagem_original": "https://animefire.plus/img/animes/hoshikuzu-paradise.webp",
      "imagem_pasta": "https://animefire.plus/img/animes/hoshikuzu-paradise/",
      "secao": "legendados",
      "pagina": 69,
      "total_episodios": 1,
      "link_video": "https://animefire.plus/video/hoshikuzu-paradise"
    },
    {
      "id": 1535,
      "nome": "Hotaru Kagayaku",
      "link": "https://animefire.plus/animes/hotaru-kagayaku-todos-os-episodios",
      "texto_original": "Hotaru Kagayaku",
      "rating": null,
      "classificacao_etaria": null,
      "imagem_original": "https://animefire.plus/img/animes/hotaru-kagayaku.webp",
      "imagem_pasta": "https://animefire.plus/img/animes/hotaru-kagayaku/",
      "secao": "legendados",
      "pagina": 82,
      "total_episodios": 1,
      "link_video": "https://animefire.plus/video/hotaru-kagayaku"
    },
    {
      "id": 1536,
      "nome": "Hotarubi no Mori e",
      "link": "https://animefire.plus/animes/hotarubi-no-mori-e-todos-os-episodios",
      "texto_original": "Hotarubi no Mori e",
      "rating": 8.49,
      "classificacao_etaria": null,
      "imagem_original": "https://animefire.plus/img/animes/hotarubi-no-mori-e.webp",
      "imagem_pasta": "https://animefire.plus/img/animes/hotarubi-no-mori-e/",
      "secao": "legendados",
      "pagina": 104,
      "total_episodios": 1,
      "link_video": "https://animefire.plus/video/hotarubi-no-mori-e"
    },
    {
      "id": 1545,
      "nome": "Housekishou Richard-shi no Nazo Kantei",
      "link": "https://animefire.plus/animes/housekishou-richard-shi-no-nazo-kantei-todos-os-episodios",
      "texto_original": "Housekishou Richard-shi no Nazo Kantei",
      "rating": 7.16,
      "classificacao_etaria": "A14",
      "imagem_original": "https://animefire.plus/img/animes/housekishou-richard-shi-no-nazo-kantei.webp",
      "imagem_pasta": "https://animefire.plus/img/animes/housekishou-richard-shi-no-nazo-kantei/",
      "secao": "legendados",
      "pagina": 92,
      "total_episodios": 1,
      "link_video": "https://animefire.plus/video/housekishou-richard-shi-no-nazo-kantei"
    },
    {
      "id": 1551,
      "nome": "Hunter x Hunter Pilot",
      "link": "https://animefire.plus/animes/hunter-x-hunter-pilot-todos-os-episodios",
      "texto_original": "Hunter x Hunter Pilot",
      "rating": 7.22,
      "classificacao_etaria": "A14",
      "imagem_original": "https://animefire.plus/img/animes/hunter-x-hunter-pilot.webp",
      "imagem_pasta": "https://animefire.plus/img/animes/hunter-x-hunter-pilot/",
      "secao": "legendados",
      "pagina": 69,
      "total_episodios": 1,
      "link_video": "https://animefire.plus/video/hunter-x-hunter-pilot"
    },
    {
      "id": 1564,
      "nome": "Hyakko Extra",
      "link": "https://animefire.plus/animes/hyakko-extra-todos-os-episodios",
      "texto_original": "Hyakko Extra",
      "rating": 6.78,
      "classificacao_etaria": "A14",
      "imagem_original": "https://animefire.plus/img/animes/hyakko-extra.webp",
      "imagem_pasta": "https://animefire.plus/img/animes/hyakko-extra/",
      "secao": "legendados",
      "pagina": 71,
      "total_episodios": 1,
      "link_video": "https://animefire.plus/video/hyakko-extra"
    },
    {
      "id": 1571,
      "nome": "Hypnosis Mic: Division Rap Battle - Rhyme Anima +",
      "link": "https://animefire.plus/animes/hypmic-2nd-season-todos-os-episodios",
      "texto_original": "Hypnosis Mic: Division Rap Battle - Rhyme Anima +",
      "rating": 6.86,
      "classificacao_etaria": "A16",
      "imagem_original": "https://animefire.plus/img/animes/hypmic-2nd-season.webp",
      "imagem_pasta": "https://animefire.plus/img/animes/hypmic-2nd-season/",
      "secao": "legendados,lancamentos",
      "pagina": 19,
      "total_episodios": 1,
      "link_video": "https://animefire.plus/video/hypmic-2nd-season"
    },
    {
      "id": 1579,
      "nome": "Ichigo 100% Special 2",
      "link": "https://animefire.plus/animes/ichigo-100-special-2-todos-os-episodios",
      "texto_original": "Ichigo 100% Special 2",
      "rating": 6.92,
      "classificacao_etaria": "A14",
      "imagem_original": "https://animefire.plus/img/animes/ichigo-100-special-2.webp",
      "imagem_pasta": "https://animefire.plus/img/animes/ichigo-100-special-2/",
      "secao": "legendados",
      "pagina": 82,
      "total_episodios": 1,
      "link_video": "https://animefire.plus/video/ichigo-100-special-2"
    },
    {
      "id": 1585,
      "nome": "Idol Jihen",
      "link": "https://animefire.plus/animes/idol-jihen-todos-os-episodios",
      "texto_original": "Idol Jihen",
      "rating": 5.7,
      "classificacao_etaria": "A14",
      "imagem_original": "https://animefire.plus/img/animes/idol-jihen.webp",
      "imagem_pasta": "https://animefire.plus/img/animes/idol-jihen/",
      "secao": "legendados",
      "pagina": 176,
      "total_episodios": 1,
      "link_video": "https://animefire.plus/video/idol-jihen"
    },
    {
      "id": 1597,
      "nome": "Ijime: Ikenie no Kyoushitsu",
      "link": "https://animefire.plus/animes/ijime-ikenie-no-kyoushitsu-todos-os-episodios",
      "texto_original": "Ijime: Ikenie no Kyoushitsu",
      "rating": 5.2,
      "classificacao_etaria": "A14",
      "imagem_original": "https://animefire.plus/img/animes/ijime-ikenie-no-kyoushitsu.webp",
      "imagem_pasta": "https://animefire.plus/img/animes/ijime-ikenie-no-kyoushitsu/",
      "secao": "legendados",
      "pagina": 43,
      "total_episodios": 1,
      "link_video": "https://animefire.plus/video/ijime-ikenie-no-kyoushitsu"
    },
    {
      "id": 1601,
      "nome": "Ikebukuro PR Anime",
      "link": "https://animefire.plus/animes/ikebukuro-pr-anime-todos-os-episodios",
      "texto_original": "Ikebukuro PR Anime",
      "rating": 6.12,
      "classificacao_etaria": null,
      "imagem_original": "https://animefire.plus/img/animes/ikebukuro-pr-anime.webp",
      "imagem_pasta": "https://animefire.plus/img/animes/ikebukuro-pr-anime/",
      "secao": "legendados",
      "pagina": 85,
      "total_episodios": 1,
      "link_video": "https://animefire.plus/video/ikebukuro-pr-anime"
    },
    {
      "id": 1621,
      "nome": "Infinite Dendrogram",
      "link": "https://animefire.plus/animes/infinite-dendrogram-todos-os-episodios",
      "texto_original": "Infinite Dendrogram",
      "rating": 6.14,
      "classificacao_etaria": "A14",
      "imagem_original": "https://animefire.plus/img/animes/infinite-dendrogram.webp",
      "imagem_pasta": "https://animefire.plus/img/animes/infinite-dendrogram/",
      "secao": "legendados",
      "pagina": 93,
      "total_episodios": 1,
      "link_video": "https://animefire.plus/video/infinite-dendrogram"
    },
    {
      "id": 1623,
      "nome": "Initial D Battle Stage",
      "link": "https://animefire.plus/animes/initial-d-battle-stage-todos-os-episodios",
      "texto_original": "Initial D Battle Stage",
      "rating": 7.57,
      "classificacao_etaria": null,
      "imagem_original": "https://animefire.plus/img/animes/initial-d-battle-stage.webp",
      "imagem_pasta": "https://animefire.plus/img/animes/initial-d-battle-stage/",
      "secao": "legendados",
      "pagina": 53,
      "total_episodios": 1,
      "link_video": "https://animefire.plus/video/initial-d-battle-stage"
    },
    {
      "id": 1624,
      "nome": "Initial D Battle Stage 2",
      "link": "https://animefire.plus/animes/initial-d-battle-stage-2-todos-os-episodios",
      "texto_original": "Initial D Battle Stage 2",
      "rating": 7.64,
      "classificacao_etaria": "A14",
      "imagem_original": "https://animefire.plus/img/animes/initial-d-battle-stage-2.webp",
      "imagem_pasta": "https://animefire.plus/img/animes/initial-d-battle-stage-2/",
      "secao": "legendados",
      "pagina": 44,
      "total_episodios": 1,
      "link_video": "https://animefire.plus/video/initial-d-battle-stage-2"
    },
    {
      "id": 1625,
      "nome": "Initial D Extra Stage",
      "link": "https://animefire.plus/animes/initial-d-extra-stage-todos-os-episodios",
      "texto_original": "Initial D Extra Stage",
      "rating": 7.37,
      "classificacao_etaria": "A18",
      "imagem_original": "https://animefire.plus/img/animes/initial-d-extra-stage.webp",
      "imagem_pasta": "https://animefire.plus/img/animes/initial-d-extra-stage/",
      "secao": "legendados",
      "pagina": 72,
      "total_episodios": 1,
      "link_video": "https://animefire.plus/video/initial-d-extra-stage"
    }
  ],
  "pagination": {
    "current_page": 9,
    "per_page": 20,
    "total_items": 465,
    "total_pages": 24,
    "has_next": true,
    "has_prev": true
  }
}
