{
  "message": "Animes com 1 a 1 episódios",
  "episode_range": {
    "min": 1,
    "max": 1
  },
  "data": [
    {
      "id": 3108,
      "nome": "Relic Armor Legaciam",
      "link": "https://animefire.plus/animes/relic-armor-legaciam-todos-os-episodios",
      "texto_original": "Relic Armor Legaciam",
      "rating": 5.66,
      "classificacao_etaria": "A14",
      "imagem_original": "https://animefire.plus/img/animes/relic-armor-legaciam.webp",
      "imagem_pasta": "https://animefire.plus/img/animes/relic-armor-legaciam/",
      "secao": "legendados",
      "pagina": 70,
      "total_episodios": 1,
      "link_video": "https://animefire.plus/video/relic-armor-legaciam"
    },
    {
      "id": 3120,
      "nome": "Rhea Gall Force",
      "link": "https://animefire.plus/animes/rhea-gall-force-todos-os-episodios",
      "texto_original": "Rhea Gall Force",
      "rating": 6.3,
      "classificacao_etaria": "A16",
      "imagem_original": "https://animefire.plus/img/animes/rhea-gall-force.webp",
      "imagem_pasta": "https://animefire.plus/img/animes/rhea-gall-force/",
      "secao": "legendados",
      "pagina": 56,
      "total_episodios": 1,
      "link_video": "https://animefire.plus/video/rhea-gall-force"
    },
    {
      "id": 3122,
      "nome": "Riding Bean",
      "link": "https://animefire.plus/animes/riding-bean-todos-os-episodios",
      "texto_original": "Riding Bean",
      "rating": 7.09,
      "classificacao_etaria": "A18",
      "imagem_original": "https://animefire.plus/img/animes/riding-bean.webp",
      "imagem_pasta": "https://animefire.plus/img/animes/riding-bean/",
      "secao": "legendados",
      "pagina": 67,
      "total_episodios": 1,
      "link_video": "https://animefire.plus/video/riding-bean"
    },
    {
      "id": 3123,
      "nome": "Rifle Is Beautiful",
      "link": "https://animefire.plus/animes/rifle-is-beautiful-todos-os-episodios",
      "texto_original": "Rifle Is Beautiful",
      "rating": 6.19,
      "classificacao_etaria": "A14",
      "imagem_original": "https://animefire.plus/img/animes/rifle-is-beautiful.webp",
      "imagem_pasta": "https://animefire.plus/img/animes/rifle-is-beautiful/",
      "secao": "legendados",
      "pagina": 109,
      "total_episodios": 1,
      "link_video": "https://animefire.plus/video/rifle-is-beautiful"
    },
    {
      "id": 3132,
      "nome": "Rinne no Lagrange: Kamogawa Days",
      "link": "https://animefire.plus/animes/rinne-no-lagrange-kamogawa-days-todos-os-episodios",
      "texto_original": "Rinne no Lagrange: Kamogawa Days",
      "rating": 6.82,
      "classificacao_etaria": "A14",
      "imagem_original": "https://animefire.plus/img/animes/rinne-no-lagrange-kamogawa-days.webp",
      "imagem_pasta": "https://animefire.plus/img/animes/rinne-no-lagrange-kamogawa-days/",
      "secao": "legendados",
      "pagina": 71,
      "total_episodios": 1,
      "link_video": "https://animefire.plus/video/rinne-no-lagrange-kamogawa-days"
    },
    {
      "id": 3137,
      "nome": "Ro-Kyu-Bu!",
      "link": "https://animefire.plus/animes/ro-kyu-bu-todos-os-episodios",
      "texto_original": "Ro-Kyu-Bu!",
      "rating": 6.95,
      "classificacao_etaria": "A14",
      "imagem_original": "https://animefire.plus/img/animes/ro-kyu-bu.webp",
      "imagem_pasta": "https://animefire.plus/img/animes/ro-kyu-bu/",
      "secao": "legendados",
      "pagina": 133,
      "total_episodios": 1,
      "link_video": "https://animefire.plus/video/ro-kyu-bu"
    },
    {
      "id": 3138,
      "nome": "Ro-Kyu-Bu! SS",
      "link": "https://animefire.plus/animes/ro-kyu-bu-ss-todos-os-episodios",
      "texto_original": "Ro-Kyu-Bu! SS",
      "rating": 7.22,
      "classificacao_etaria": "A14",
      "imagem_original": "https://animefire.plus/img/animes/ro-kyu-bu-ss.webp",
      "imagem_pasta": "https://animefire.plus/img/animes/ro-kyu-bu-ss/",
      "secao": "legendados",
      "pagina": 175,
      "total_episodios": 1,
      "link_video": "https://animefire.plus/video/ro-kyu-bu-ss"
    },
    {
      "id": 3139,
      "nome": "Ro-Kyu-Bu!: Tomoka no Ichigo Sundae",
      "link": "https://animefire.plus/animes/ro-kyu-bu-tomoka-no-ichigo-sundae-todos-os-episodios",
      "texto_original": "Ro-Kyu-Bu!: Tomoka no Ichigo Sundae",
      "rating": 7.03,
      "classificacao_etaria": "A14",
      "imagem_original": "https://animefire.plus/img/animes/ro-kyu-bu-tomoka-no-ichigo-sundae.webp",
      "imagem_pasta": "https://animefire.plus/img/animes/ro-kyu-bu-tomoka-no-ichigo-sundae/",
      "secao": "legendados",
      "pagina": 85,
      "total_episodios": 1,
      "link_video": "https://animefire.plus/video/ro-kyu-bu-tomoka-no-ichigo-sundae"
    },
    {
      "id": 3159,
      "nome": "Rozen Maiden",
      "link": "https://animefire.plus/animes/rozen-maiden-todos-os-episodios",
      "texto_original": "Rozen Maiden",
      "rating": 7.51,
      "classificacao_etaria": "A14",
      "imagem_original": "https://animefire.plus/img/animes/rozen-maiden.webp",
      "imagem_pasta": "https://animefire.plus/img/animes/rozen-maiden/",
      "secao": "legendados",
      "pagina": 128,
      "total_episodios": 1,
      "link_video": "https://animefire.plus/video/rozen-maiden"
    },
    {
      "id": 3171,
      "nome": "Ryuu no Haisha",
      "link": "https://animefire.plus/animes/ryuu-no-haisha-todos-os-episodios",
      "texto_original": "Ryuu no Haisha",
      "rating": 7.46,
      "classificacao_etaria": "A14",
      "imagem_original": "https://animefire.plus/img/animes/ryuu-no-haisha.webp",
      "imagem_pasta": "https://animefire.plus/img/animes/ryuu-no-haisha/",
      "secao": "legendados",
      "pagina": 71,
      "total_episodios": 1,
      "link_video": "https://animefire.plus/video/ryuu-no-haisha"
    },
    {
      "id": 3190,
      "nome": "Saijaku Muhai no Bahamut",
      "link": "https://animefire.plus/animes/saijaku-muhai-no-bahamut-todos-os-episodios",
      "texto_original": "Saijaku Muhai no Bahamut",
      "rating": 6.84,
      "classificacao_etaria": "A14",
      "imagem_original": "https://animefire.plus/img/animes/saijaku-muhai-no-bahamut.webp",
      "imagem_pasta": "https://animefire.plus/img/animes/saijaku-muhai-no-bahamut/",
      "secao": "legendados",
      "pagina": 158,
      "total_episodios": 1,
      "link_video": "https://animefire.plus/video/saijaku-muhai-no-bahamut"
    },
    {
      "id": 3229,
      "nome": "Saki Biyori Animation",
      "link": "https://animefire.plus/animes/saki-biyori-animation-todos-os-episodios",
      "texto_original": "Saki Biyori Animation",
      "rating": 6.76,
      "classificacao_etaria": "A14",
      "imagem_original": "https://animefire.plus/img/animes/saki-biyori-animation.webp",
      "imagem_pasta": "https://animefire.plus/img/animes/saki-biyori-animation/",
      "secao": "legendados",
      "pagina": 106,
      "total_episodios": 1,
      "link_video": "https://animefire.plus/video/saki-biyori-animation"
    },
    {
      "id": 3233,
      "nome": "Sakura Internet",
      "link": "https://animefire.plus/animes/sakura-internet-todos-os-episodios",
      "texto_original": "Sakura Internet",
      "rating": 5.76,
      "classificacao_etaria": "A14",
      "imagem_original": "https://animefire.plus/img/animes/sakura-internet.webp",
      "imagem_pasta": "https://animefire.plus/img/animes/sakura-internet/",
      "secao": "legendados",
      "pagina": 85,
      "total_episodios": 1,
      "link_video": "https://animefire.plus/video/sakura-internet"
    },
    {
      "id": 3240,
      "nome": "Sakurasou no Pet na Kanojo",
      "link": "https://animefire.plus/animes/sakurasou-no-pet-na-kanojo-todos-os-episodios",
      "texto_original": "Sakurasou no Pet na Kanojo",
      "rating": 8.29,
      "classificacao_etaria": "A14",
      "imagem_original": "https://animefire.plus/img/animes/sakurasou-no-pet-na-kanojo.webp",
      "imagem_pasta": "https://animefire.plus/img/animes/sakurasou-no-pet-na-kanojo/",
      "secao": "legendados",
      "pagina": 145,
      "total_episodios": 1,
      "link_video": "https://animefire.plus/video/sakurasou-no-pet-na-kanojo"
    },
    {
      "id": 3248,
      "nome": "Samurai Gun Special",
      "link": "https://animefire.plus/animes/samurai-gun-special-todos-os-episodios",
      "texto_original": "Samurai Gun Special",
      "rating": 5.94,
      "classificacao_etaria": "A16",
      "imagem_original": "https://animefire.plus/img/animes/samurai-gun-special.webp",
      "imagem_pasta": "https://animefire.plus/img/animes/samurai-gun-special/",
      "secao": "legendados",
      "pagina": 82,
      "total_episodios": 1,
      "link_video": "https://animefire.plus/video/samurai-gun-special"
    },
    {
      "id": 3249,
      "nome": "Sand Land: The Series",
      "link": "https://animefire.plus/animes/sand-land-the-series-todos-os-episodios",
      "texto_original": "Sand Land: The Series",
      "rating": 7.56,
      "classificacao_etaria": "A14",
      "imagem_original": "https://animefire.plus/img/animes/sand-land-the-series.webp",
      "imagem_pasta": "https://animefire.plus/img/animes/sand-land-the-series/",
      "secao": "legendados,lancamentos",
      "pagina": 15,
      "total_episodios": 1,
      "link_video": "https://animefire.plus/video/sand-land-the-series"
    },
    {
      "id": 3260,
      "nome": "Sasaki to Miyano: Koi ni Kizuku Mae no Chotto Shita Hanashi.",
      "link": "https://animefire.plus/animes/sasaki-to-miyano-koi-ni-kizuku-mae-no-chotto-shita-hanashi-todos-os-episodios",
      "texto_original": "Sasaki to Miyano: Koi ni Kizuku Mae no Chotto Shita Hanashi.",
      "rating": 7.63,
      "classificacao_etaria": "A14",
      "imagem_original": "https://animefire.plus/img/animes/sasaki-to-miyano-koi-ni-kizuku-mae-no-chotto-shita-hanashi.webp",
      "imagem_pasta": "https://animefire.plus/img/animes/sasaki-to-miyano-koi-ni-kizuku-mae-no-chotto-shita-hanashi/",
      "secao": "legendados",
      "pagina": 32,
      "total_episodios": 1,
      "link_video": "https://animefire.plus/video/sasaki-to-miyano-koi-ni-kizuku-mae-no-chotto-shita-hanashi"
    },
    {
      "id": 3270,
      "nome": "Sayonara Zetsubou Sensei Special",
      "link": "https://animefire.plus/animes/sayonara-zetsubou-sensei-special-todos-os-episodios",
      "texto_original": "Sayonara Zetsubou Sensei Special",
      "rating": 7.53,
      "classificacao_etaria": "A16",
      "imagem_original": "https://animefire.plus/img/animes/sayonara-zetsubou-sensei-special.webp",
      "imagem_pasta": "https://animefire.plus/img/animes/sayonara-zetsubou-sensei-special/",
      "secao": "legendados",
      "pagina": 85,
      "total_episodios": 1,
      "link_video": "https://animefire.plus/video/sayonara-zetsubou-sensei-special"
    },
    {
      "id": 3272,
      "nome": "Scared Rider Xechs",
      "link": "https://animefire.plus/animes/scared-rider-xechs-todos-os-episodios",
      "texto_original": "Scared Rider Xechs",
      "rating": 5.3,
      "classificacao_etaria": "A14",
      "imagem_original": "https://animefire.plus/img/animes/scared-rider-xechs.webp",
      "imagem_pasta": "https://animefire.plus/img/animes/scared-rider-xechs/",
      "secao": "legendados",
      "pagina": 132,
      "total_episodios": 1,
      "link_video": "https://animefire.plus/video/scared-rider-xechs"
    },
    {
      "id": 3290,
      "nome": "Seikai no Senki III",
      "link": "https://animefire.plus/animes/seikai-no-senki-iii-todos-os-episodios",
      "texto_original": "Seikai no Senki III",
      "rating": 7.71,
      "classificacao_etaria": "A14",
      "imagem_original": "https://animefire.plus/img/animes/seikai-no-senki-iii.webp",
      "imagem_pasta": "https://animefire.plus/img/animes/seikai-no-senki-iii/",
      "secao": "legendados",
      "pagina": 54,
      "total_episodios": 1,
      "link_video": "https://animefire.plus/video/seikai-no-senki-iii"
    }
  ],
  "pagination": {
    "current_page": 18,
    "per_page": 20,
    "total_items": 465,
    "total_pages": 24,
    "has_next": true,
    "has_prev": true
  }
}
