{
  "message": "Animes com 13 a 24 episódios",
  "episode_range": {
    "min": 13,
    "max": 24
  },
  "data": [
    {
      "id": 1519,
      "nome": "Honzuki no Gekokujou: Shisho ni Naru Tame ni wa Shudan wo Erandeiraremasen",
      "link": "https://animefire.plus/animes/honzuki-no-gekokujou-shisho-ni-naru-tame-ni-wa-shudan-wo-erandeiraremasen-todos-os-episodios",
      "texto_original": "Honzuki no Gekokujou: Shisho ni Naru Tame ni wa Shudan wo Erandeiraremasen",
      "rating": 8.03,
      "classificacao_etaria": "A14",
      "imagem_original": "https://animefire.plus/img/animes/honzuki-no-gekokujou-shisho-ni-naru-tame-ni-wa-shudan-wo-erandeiraremasen.webp",
      "imagem_pasta": "https://animefire.plus/img/animes/honzuki-no-gekokujou-shisho-ni-naru-tame-ni-wa-shudan-wo-erandeiraremasen/",
      "secao": "legendados",
      "pagina": 111,
      "total_episodios": 14,
      "link_video": "https://animefire.plus/video/honzuki-no-gekokujou-shisho-ni-naru-tame-ni-wa-shudan-wo-erandeiraremasen"
    },
    {
      "id": 1522,
      "nome": "Hoozuki no Reitetsu",
      "link": "https://animefire.plus/animes/hoozuki-no-reitetsu-todos-os-episodios",
      "texto_original": "Hoozuki no Reitetsu",
      "rating": 7.81,
      "classificacao_etaria": "A14",
      "imagem_original": "https://animefire.plus/img/animes/hoozuki-no-reitetsu.webp",
      "imagem_pasta": "https://animefire.plus/img/animes/hoozuki-no-reitetsu/",
      "secao": "legendados",
      "pagina": 63,
      "total_episodios": 13,
      "link_video": "https://animefire.plus/video/hoozuki-no-reitetsu"
    },
    {
      "id": 1524,
      "nome": "Hoozuki no Reitetsu 2nd Season: Sono Ni",
      "link": "https://animefire.plus/animes/hoozuki-no-reitetsu-2nd-season-sono-ni-todos-os-episodios",
      "texto_original": "Hoozuki no Reitetsu 2nd Season: Sono Ni",
      "rating": 7.85,
      "classificacao_etaria": "A14",
      "imagem_original": "https://animefire.plus/img/animes/hoozuki-no-reitetsu-2nd-season-sono-ni.webp",
      "imagem_pasta": "https://animefire.plus/img/animes/hoozuki-no-reitetsu-2nd-season-sono-ni/",
      "secao": "legendados",
      "pagina": 120,
      "total_episodios": 13,
      "link_video": "https://animefire.plus/video/hoozuki-no-reitetsu-2nd-season-sono-ni"
    },
    {
      "id": 1526,
      "nome": "Horimiya (Dublado)",
      "link": "https://animefire.plus/animes/horimiya-dublado-todos-os-episodios",
      "texto_original": "Horimiya (Dublado)",
      "rating": 8.19,
      "classificacao_etaria": "A14",
      "imagem_original": "https://animefire.plus/img/animes/horimiya.webp",
      "imagem_pasta": "https://animefire.plus/img/animes/horimiya/",
      "secao": "dublados,legendados",
      "pagina": 15,
      "total_episodios": 13,
      "link_video": "https://animefire.plus/video/horimiya-dublado"
    },
    {
      "id": 1527,
      "nome": "Horimiya: Piece (Dublado)",
      "link": "https://animefire.plus/animes/horimiya-piece-dublado-todos-os-episodios",
      "texto_original": "Horimiya: Piece (Dublado)",
      "rating": 8.14,
      "classificacao_etaria": "A14",
      "imagem_original": "https://animefire.plus/img/animes/horimiya-piece.webp",
      "imagem_pasta": "https://animefire.plus/img/animes/horimiya-piece/",
      "secao": "dublados,legendados",
      "pagina": 6,
      "total_episodios": 13,
      "link_video": "https://animefire.plus/video/horimiya-piece-dublado"
    },
    {
      "id": 1529,
      "nome": "Hoshi no Samidare (Dublado)",
      "link": "https://animefire.plus/animes/hoshi-no-samidare-dublado-todos-os-episodios",
      "texto_original": "Hoshi no Samidare (Dublado)",
      "rating": 5.63,
      "classificacao_etaria": "A14",
      "imagem_original": "https://animefire.plus/img/animes/hoshi-no-samidare.webp",
      "imagem_pasta": "https://animefire.plus/img/animes/hoshi-no-samidare/",
      "secao": "dublados,legendados",
      "pagina": 10,
      "total_episodios": 24,
      "link_video": "https://animefire.plus/video/hoshi-no-samidare-dublado"
    },
    {
      "id": 1553,
      "nome": "Hunter x Hunter: Greed Island Final",
      "link": "https://animefire.plus/animes/hunter-x-hunter-greed-island-final-todos-os-episodios",
      "texto_original": "Hunter x Hunter: Greed Island Final",
      "rating": 8.28,
      "classificacao_etaria": "A14",
      "imagem_original": "https://animefire.plus/img/animes/hunter-x-hunter-greed-island-final.webp",
      "imagem_pasta": "https://animefire.plus/img/animes/hunter-x-hunter-greed-island-final/",
      "secao": "legendados",
      "pagina": 43,
      "total_episodios": 14,
      "link_video": "https://animefire.plus/video/hunter-x-hunter-greed-island-final"
    },
    {
      "id": 1554,
      "nome": "Huyao Xiao Hongniang",
      "link": "https://animefire.plus/animes/huyao-xiao-hongniang-todos-os-episodios",
      "texto_original": "Huyao Xiao Hongniang",
      "rating": 7.28,
      "classificacao_etaria": "A14",
      "imagem_original": "https://animefire.plus/img/animes/huyao-xiao-hongniang.webp",
      "imagem_pasta": "https://animefire.plus/img/animes/huyao-xiao-hongniang/",
      "secao": "legendados",
      "pagina": 85,
      "total_episodios": 13,
      "link_video": "https://animefire.plus/video/huyao-xiao-hongniang"
    },
    {
      "id": 1556,
      "nome": "Huyao Xiao Hongniang: Qian Yan",
      "link": "https://animefire.plus/animes/huyao-xiao-hongniang-qian-yan-todos-os-episodios",
      "texto_original": "Huyao Xiao Hongniang: Qian Yan",
      "rating": 7.67,
      "classificacao_etaria": "A14",
      "imagem_original": "https://animefire.plus/img/animes/huyao-xiao-hongniang-qian-yan.webp",
      "imagem_pasta": "https://animefire.plus/img/animes/huyao-xiao-hongniang-qian-yan/",
      "secao": "legendados",
      "pagina": 123,
      "total_episodios": 15,
      "link_video": "https://animefire.plus/video/huyao-xiao-hongniang-qian-yan"
    },
    {
      "id": 1557,
      "nome": "Huyao Xiao Hongniang: Wangquan Fugui",
      "link": "https://animefire.plus/animes/huyao-xiao-hongniang-wangquan-fugui-todos-os-episodios",
      "texto_original": "Huyao Xiao Hongniang: Wangquan Fugui",
      "rating": 7.63,
      "classificacao_etaria": "A16",
      "imagem_original": "https://animefire.plus/img/animes/huyao-xiao-hongniang-wangquan-fugui.webp",
      "imagem_pasta": "https://animefire.plus/img/animes/huyao-xiao-hongniang-wangquan-fugui/",
      "secao": "legendados",
      "pagina": 85,
      "total_episodios": 14,
      "link_video": "https://animefire.plus/video/huyao-xiao-hongniang-wangquan-fugui"
    },
    {
      "id": 1558,
      "nome": "Huyao Xiao Hongniang: Yue Hong",
      "link": "https://animefire.plus/animes/huyao-xiao-hongniang-yue-hong-todos-os-episodios",
      "texto_original": "Huyao Xiao Hongniang: Yue Hong",
      "rating": 7.78,
      "classificacao_etaria": "A16",
      "imagem_original": "https://animefire.plus/img/animes/huyao-xiao-hongniang-yue-hong.webp",
      "imagem_pasta": "https://animefire.plus/img/animes/huyao-xiao-hongniang-yue-hong/",
      "secao": "legendados",
      "pagina": 172,
      "total_episodios": 13,
      "link_video": "https://animefire.plus/video/huyao-xiao-hongniang-yue-hong"
    },
    {
      "id": 1563,
      "nome": "Hyakko",
      "link": "https://animefire.plus/animes/hyakko-todos-os-episodios",
      "texto_original": "Hyakko",
      "rating": 7.29,
      "classificacao_etaria": "A14",
      "imagem_original": "https://animefire.plus/img/animes/hyakko.webp",
      "imagem_pasta": "https://animefire.plus/img/animes/hyakko/",
      "secao": "legendados",
      "pagina": 109,
      "total_episodios": 13,
      "link_video": "https://animefire.plus/video/hyakko"
    },
    {
      "id": 1568,
      "nome": "Hyouka",
      "link": "https://animefire.plus/animes/hyouka-todos-os-episodios",
      "texto_original": "Hyouka",
      "rating": 8.15,
      "classificacao_etaria": "A14",
      "imagem_original": "https://animefire.plus/img/animes/hyouka.webp",
      "imagem_pasta": "https://animefire.plus/img/animes/hyouka/",
      "secao": "legendados",
      "pagina": 172,
      "total_episodios": 22,
      "link_video": "https://animefire.plus/video/hyouka"
    },
    {
      "id": 1570,
      "nome": "Hypnosis Mic: Division Rap Battle - Rhyme Anima",
      "link": "https://animefire.plus/animes/hypnosis-mic-division-rap-battle---rhyme-anima-todos-os-episodios",
      "texto_original": "Hypnosis Mic: Division Rap Battle - Rhyme Anima",
      "rating": null,
      "classificacao_etaria": "A16",
      "imagem_original": "https://animefire.plus/img/animes/hypnosis-mic-division-rap-battle---rhyme-anima.webp",
      "imagem_pasta": "https://animefire.plus/img/animes/hypnosis-mic-division-rap-battle---rhyme-anima/",
      "secao": "legendados",
      "pagina": 52,
      "total_episodios": 13,
      "link_video": "https://animefire.plus/video/hypnosis-mic-division-rap-battle---rhyme-anima"
    },
    {
      "id": 1584,
      "nome": "ID:Invaded (Dublado)",
      "link": "https://animefire.plus/animes/id-invaded-dublado-todos-os-episodios",
      "texto_original": "ID:Invaded (Dublado)",
      "rating": 7.87,
      "classificacao_etaria": "A16",
      "imagem_original": "https://animefire.plus/img/animes/id-invaded.webp",
      "imagem_pasta": "https://animefire.plus/img/animes/id-invaded/",
      "secao": "dublados,legendados",
      "pagina": 15,
      "total_episodios": 13,
      "link_video": "https://animefire.plus/video/id-invaded-dublado"
    },
    {
      "id": 1589,
      "nome": "IDOLiSH7",
      "link": "https://animefire.plus/animes/idolish7-todos-os-episodios",
      "texto_original": "IDOLiSH7",
      "rating": 8.04,
      "classificacao_etaria": "A14",
      "imagem_original": "https://animefire.plus/img/animes/idolish7.webp",
      "imagem_pasta": "https://animefire.plus/img/animes/idolish7/",
      "secao": "legendados",
      "pagina": 105,
      "total_episodios": 17,
      "link_video": "https://animefire.plus/video/idolish7"
    },
    {
      "id": 1590,
      "nome": "IDOLiSH7: Second Beat!",
      "link": "https://animefire.plus/animes/idolish7-second-beat-todos-os-episodios",
      "texto_original": "IDOLiSH7: Second Beat!",
      "rating": 8.15,
      "classificacao_etaria": "A14",
      "imagem_original": "https://animefire.plus/img/animes/idolish7-second-beat.webp",
      "imagem_pasta": "https://animefire.plus/img/animes/idolish7-second-beat/",
      "secao": "legendados",
      "pagina": 93,
      "total_episodios": 15,
      "link_video": "https://animefire.plus/video/idolish7-second-beat"
    },
    {
      "id": 1591,
      "nome": "IDOLiSH7: Third Beat!",
      "link": "https://animefire.plus/animes/idolish7-third-beat-todos-os-episodios",
      "texto_original": "IDOLiSH7: Third Beat!",
      "rating": 8.24,
      "classificacao_etaria": "A14",
      "imagem_original": "https://animefire.plus/img/animes/idolish7-third-beat.webp",
      "imagem_pasta": "https://animefire.plus/img/animes/idolish7-third-beat/",
      "secao": "legendados",
      "pagina": 41,
      "total_episodios": 13,
      "link_video": "https://animefire.plus/video/idolish7-third-beat"
    },
    {
      "id": 1616,
      "nome": "Inazuma Eleven Go: Galaxy",
      "link": "https://animefire.plus/animes/inazuma-eleven-go-galaxy-todos-os-episodios",
      "texto_original": "Inazuma Eleven Go: Galaxy",
      "rating": 6.87,
      "classificacao_etaria": null,
      "imagem_original": "https://animefire.plus/img/animes/inazuma-eleven-go-galaxy.webp",
      "imagem_pasta": "https://animefire.plus/img/animes/inazuma-eleven-go-galaxy/",
      "secao": "legendados",
      "pagina": 136,
      "total_episodios": 14,
      "link_video": "https://animefire.plus/video/inazuma-eleven-go-galaxy"
    },
    {
      "id": 1617,
      "nome": "Inazuma Eleven: Ares no Tenbin",
      "link": "https://animefire.plus/animes/inazuma-eleven-ares-no-tenbin-todos-os-episodios",
      "texto_original": "Inazuma Eleven: Ares no Tenbin",
      "rating": 6.96,
      "classificacao_etaria": null,
      "imagem_original": "https://animefire.plus/img/animes/inazuma-eleven-ares-no-tenbin.webp",
      "imagem_pasta": "https://animefire.plus/img/animes/inazuma-eleven-ares-no-tenbin/",
      "secao": "legendados",
      "pagina": 123,
      "total_episodios": 23,
      "link_video": "https://animefire.plus/video/inazuma-eleven-ares-no-tenbin"
    }
  ],
  "pagination": {
    "current_page": 15,
    "per_page": 20,
    "total_items": 826,
    "total_pages": 42,
    "has_next": true,
    "has_prev": true
  }
}
