{
  "message": "Animes com 13 a 24 episódios",
  "episode_range": {
    "min": 13,
    "max": 24
  },
  "data": [
    {
      "id": 4239,
      "nome": "Yofukashi no Uta",
      "link": "https://animefire.plus/animes/yofukashi-no-uta-todos-os-episodios",
      "texto_original": "Yofukashi no Uta",
      "rating": 7.95,
      "classificacao_etaria": "A14",
      "imagem_original": "https://animefire.plus/img/animes/yofukashi-no-uta.webp",
      "imagem_pasta": "https://animefire.plus/img/animes/yofukashi-no-uta/",
      "secao": "legendados",
      "pagina": 32,
      "total_episodios": 13,
      "link_video": "https://animefire.plus/video/yofukashi-no-uta"
    },
    {
      "id": 4256,
      "nome": "Youkai Apartment no Yuuga na Nichijou",
      "link": "https://animefire.plus/animes/youkai-apartment-no-yuuga-na-nichijou-todos-os-episodios",
      "texto_original": "Youkai Apartment no Yuuga na Nichijou",
      "rating": 7.2,
      "classificacao_etaria": "A14",
      "imagem_original": "https://animefire.plus/img/animes/youkai-apartment-no-yuuga-na-nichijou.webp",
      "imagem_pasta": "https://animefire.plus/img/animes/youkai-apartment-no-yuuga-na-nichijou/",
      "secao": "legendados",
      "pagina": 117,
      "total_episodios": 17,
      "link_video": "https://animefire.plus/video/youkai-apartment-no-yuuga-na-nichijou"
    },
    {
      "id": 4257,
      "nome": "Youkai Gakkou no Sensei Hajimemashita!",
      "link": "https://animefire.plus/animes/youkai-gakkou-no-sensei-hajimemashita-todos-os-episodios",
      "texto_original": "Youkai Gakkou no Sensei Hajimemashita!",
      "rating": 7.27,
      "classificacao_etaria": "A14",
      "imagem_original": "https://animefire.plus/img/animes/youkai-gakkou-no-sensei-hajimemashita.webp",
      "imagem_pasta": "https://animefire.plus/img/animes/youkai-gakkou-no-sensei-hajimemashita/",
      "secao": "legendados",
      "pagina": 10,
      "total_episodios": 24,
      "link_video": "https://animefire.plus/video/youkai-gakkou-no-sensei-hajimemashita"
    },
    {
      "id": 4261,
      "nome": "Youkoso Jitsuryoku Shijou Shugi no Kyoushitsu e (TV) 2nd Season (Dublado)",
      "link": "https://animefire.plus/animes/youkoso-jitsuryoku-shijou-shugi-no-kyoushitsu-e-tv-2nd-season-dublado-todos-os-episodios",
      "texto_original": "Youkoso Jitsuryoku Shijou Shugi no Kyoushitsu e (TV) 2nd Season (Dublado)",
      "rating": 8.07,
      "classificacao_etaria": "A14",
      "imagem_original": "https://animefire.plus/img/animes/youkoso-jitsuryoku-shijou-shugi-no-kyoushitsu-e-tv-2nd-season.webp",
      "imagem_pasta": "https://animefire.plus/img/animes/youkoso-jitsuryoku-shijou-shugi-no-kyoushitsu-e-tv-2nd-season/",
      "secao": "dublados,legendados,lancamentos",
      "pagina": 10,
      "total_episodios": 13,
      "link_video": "https://animefire.plus/video/youkoso-jitsuryoku-shijou-shugi-no-kyoushitsu-e-tv-2nd-season-dublado"
    },
    {
      "id": 4262,
      "nome": "Youkoso Jitsuryoku Shijou Shugi no Kyoushitsu e 2nd Season (Dublado)",
      "link": "https://animefire.plus/animes/youkoso-jitsuryoku-shijou-shugi-no-kyoushitsu-e-2nd-season-dublado-todos-os-episodios",
      "texto_original": "Youkoso Jitsuryoku Shijou Shugi no Kyoushitsu e 2nd Season (Dublado)",
      "rating": 8.07,
      "classificacao_etaria": "A14",
      "imagem_original": "https://animefire.plus/img/animes/youkoso-jitsuryoku-shijou-shugi-no-kyoushitsu-e-2nd-season.webp",
      "imagem_pasta": "https://animefire.plus/img/animes/youkoso-jitsuryoku-shijou-shugi-no-kyoushitsu-e-2nd-season/",
      "secao": "dublados",
      "pagina": 8,
      "total_episodios": 13,
      "link_video": "https://animefire.plus/video/youkoso-jitsuryoku-shijou-shugi-no-kyoushitsu-e-2nd-season-dublado"
    },
    {
      "id": 4266,
      "nome": "Your Forma",
      "link": "https://animefire.plus/animes/your-forma-todos-os-episodios",
      "texto_original": "Your Forma",
      "rating": 6.25,
      "classificacao_etaria": "A14",
      "imagem_original": "https://animefire.plus/img/animes/your-forma.webp",
      "imagem_pasta": "https://animefire.plus/img/animes/your-forma/",
      "secao": "legendados",
      "pagina": 5,
      "total_episodios": 13,
      "link_video": "https://animefire.plus/video/your-forma"
    },
    {
      "id": 4269,
      "nome": "Yowamushi Pedal: Grande Road",
      "link": "https://animefire.plus/animes/yowamushi-pedal-grande-road-todos-os-episodios",
      "texto_original": "Yowamushi Pedal: Grande Road",
      "rating": 8.16,
      "classificacao_etaria": "A14",
      "imagem_original": "https://animefire.plus/img/animes/yowamushi-pedal-grande-road.webp",
      "imagem_pasta": "https://animefire.plus/img/animes/yowamushi-pedal-grande-road/",
      "secao": "legendados",
      "pagina": 76,
      "total_episodios": 24,
      "link_video": "https://animefire.plus/video/yowamushi-pedal-grande-road"
    },
    {
      "id": 4274,
      "nome": "Yozakura-san Chi no Daisakusen",
      "link": "https://animefire.plus/animes/yozakura-san-chi-no-daisakusen-todos-os-episodios",
      "texto_original": "Yozakura-san Chi no Daisakusen",
      "rating": 7.56,
      "classificacao_etaria": "A14",
      "imagem_original": "https://animefire.plus/img/animes/yozakura-san-chi-no-daisakusen.webp",
      "imagem_pasta": "https://animefire.plus/img/animes/yozakura-san-chi-no-daisakusen/",
      "secao": "legendados,lancamentos",
      "pagina": 15,
      "total_episodios": 18,
      "link_video": "https://animefire.plus/video/yozakura-san-chi-no-daisakusen"
    },
    {
      "id": 4276,
      "nome": "Yu☆Gi☆Oh!",
      "link": "https://animefire.plus/animes/yu-gi-oh-todos-os-episodios",
      "texto_original": "Yu☆Gi☆Oh!",
      "rating": 7.29,
      "classificacao_etaria": "A14",
      "imagem_original": "https://animefire.plus/img/animes/yu-gi-oh.webp",
      "imagem_pasta": "https://animefire.plus/img/animes/yu-gi-oh/",
      "secao": "legendados",
      "pagina": 131,
      "total_episodios": 16,
      "link_video": "https://animefire.plus/video/yu-gi-oh"
    },
    {
      "id": 4282,
      "nome": "Yu☆Gi☆Oh!: Duel Monsters GX (Dublado)",
      "link": "https://animefire.plus/animes/yu-gi-oh-duel-monsters-gx-dublado-todos-os-episodios",
      "texto_original": "Yu☆Gi☆Oh!: Duel Monsters GX (Dublado)",
      "rating": 7.23,
      "classificacao_etaria": "A14",
      "imagem_original": "https://animefire.plus/img/animes/yu-gi-oh-duel-monsters-gx.webp",
      "imagem_pasta": "https://animefire.plus/img/animes/yu-gi-oh-duel-monsters-gx/",
      "secao": "dublados",
      "pagina": 27,
      "total_episodios": 20,
      "link_video": "https://animefire.plus/video/yu-gi-oh-duel-monsters-gx-dublado"
    },
    {
      "id": 4290,
      "nome": "Yume-iro Pâtissière SP Professional",
      "link": "https://animefire.plus/animes/yume-iro-patissiere-sp-professional-todos-os-episodios",
      "texto_original": "Yume-iro Pâtissière SP Professional",
      "rating": 7.74,
      "classificacao_etaria": null,
      "imagem_original": "https://animefire.plus/img/animes/yume-iro-patissiere-sp-professional.webp",
      "imagem_pasta": "https://animefire.plus/img/animes/yume-iro-patissiere-sp-professional/",
      "secao": "legendados",
      "pagina": 166,
      "total_episodios": 13,
      "link_video": "https://animefire.plus/video/yume-iro-patissiere-sp-professional"
    },
    {
      "id": 4292,
      "nome": "Yumekui Merry",
      "link": "https://animefire.plus/animes/yumekui-merry-todos-os-episodios",
      "texto_original": "Yumekui Merry",
      "rating": 7.01,
      "classificacao_etaria": "A14",
      "imagem_original": "https://animefire.plus/img/animes/yumekui-merry.webp",
      "imagem_pasta": "https://animefire.plus/img/animes/yumekui-merry/",
      "secao": "legendados",
      "pagina": 112,
      "total_episodios": 13,
      "link_video": "https://animefire.plus/video/yumekui-merry"
    },
    {
      "id": 4301,
      "nome": "Yuru Camp△ Season 2",
      "link": "https://animefire.plus/animes/yuru-camp-season-2-todos-os-episodios",
      "texto_original": "Yuru Camp△ Season 2",
      "rating": 8.5,
      "classificacao_etaria": "A14",
      "imagem_original": "https://animefire.plus/img/animes/yuru-camp-season-2.webp",
      "imagem_pasta": "https://animefire.plus/img/animes/yuru-camp-season-2/",
      "secao": "legendados",
      "pagina": 50,
      "total_episodios": 13,
      "link_video": "https://animefire.plus/video/yuru-camp-season-2"
    },
    {
      "id": 4306,
      "nome": "Yurumates 3D",
      "link": "https://animefire.plus/animes/yurumates-3d-todos-os-episodios",
      "texto_original": "Yurumates 3D",
      "rating": 6.34,
      "classificacao_etaria": "A14",
      "imagem_original": "https://animefire.plus/img/animes/yurumates-3d.webp",
      "imagem_pasta": "https://animefire.plus/img/animes/yurumates-3d/",
      "secao": "legendados",
      "pagina": 101,
      "total_episodios": 13,
      "link_video": "https://animefire.plus/video/yurumates-3d"
    },
    {
      "id": 4310,
      "nome": "Yuugo: Koushounin",
      "link": "https://animefire.plus/animes/yuugo-koushounin-todos-os-episodios",
      "texto_original": "Yuugo: Koushounin",
      "rating": 7.21,
      "classificacao_etaria": "A16",
      "imagem_original": "https://animefire.plus/img/animes/yuugo-koushounin.webp",
      "imagem_pasta": "https://animefire.plus/img/animes/yuugo-koushounin/",
      "secao": "legendados",
      "pagina": 157,
      "total_episodios": 13,
      "link_video": "https://animefire.plus/video/yuugo-koushounin"
    },
    {
      "id": 4318,
      "nome": "Yuukoku no Moriarty 2nd Season",
      "link": "https://animefire.plus/animes/yuukoku-no-moriarty-2nd-season-todos-os-episodios",
      "texto_original": "Yuukoku no Moriarty 2nd Season",
      "rating": 8.28,
      "classificacao_etaria": "A16",
      "imagem_original": "https://animefire.plus/img/animes/yuukoku-no-moriarty-2nd-season.webp",
      "imagem_pasta": "https://animefire.plus/img/animes/yuukoku-no-moriarty-2nd-season/",
      "secao": "legendados",
      "pagina": 47,
      "total_episodios": 13,
      "link_video": "https://animefire.plus/video/yuukoku-no-moriarty-2nd-season"
    },
    {
      "id": 4319,
      "nome": "Yuukoku no Moriarty Part 2 (Dublado)",
      "link": "https://animefire.plus/animes/yuukoku-no-moriarty-part-2-dublado-todos-os-episodios",
      "texto_original": "Yuukoku no Moriarty Part 2 (Dublado)",
      "rating": 8.29,
      "classificacao_etaria": "A16",
      "imagem_original": "https://animefire.plus/img/animes/yuukoku-no-moriarty-part-2.webp",
      "imagem_pasta": "https://animefire.plus/img/animes/yuukoku-no-moriarty-part-2/",
      "secao": "dublados",
      "pagina": 8,
      "total_episodios": 13,
      "link_video": "https://animefire.plus/video/yuukoku-no-moriarty-part-2-dublado"
    },
    {
      "id": 4322,
      "nome": "Yuusha Party wo Tsuihou sareta Beast Tamer, Saikyoushu no Nekomimi Shoujo to Deau (Dublado)",
      "link": "https://animefire.plus/animes/yuusha-party-wo-tsuihou-sareta-beast-tamer-saikyoushu-no-nekomimi-shoujo-to-deau-dublado-todos-os-episodios",
      "texto_original": "Yuusha Party wo Tsuihou sareta Beast Tamer, Saikyoushu no Nekomimi Shoujo to Deau (Dublado)",
      "rating": 6.91,
      "classificacao_etaria": "A14",
      "imagem_original": "https://animefire.plus/img/animes/yuusha-party-wo-tsuihou-sareta-beast-tamer-saikyoushu-no-nekomimi-shoujo-to-deau.webp",
      "imagem_pasta": "https://animefire.plus/img/animes/yuusha-party-wo-tsuihou-sareta-beast-tamer-saikyoushu-no-nekomimi-shoujo-to-deau/",
      "secao": "dublados,legendados,lancamentos",
      "pagina": 9,
      "total_episodios": 13,
      "link_video": "https://animefire.plus/video/yuusha-party-wo-tsuihou-sareta-beast-tamer-saikyoushu-no-nekomimi-shoujo-to-deau-dublado"
    },
    {
      "id": 4337,
      "nome": "Ze Tian Ji",
      "link": "https://animefire.plus/animes/ze-tian-ji-todos-os-episodios",
      "texto_original": "Ze Tian Ji",
      "rating": 6.96,
      "classificacao_etaria": "A14",
      "imagem_original": "https://animefire.plus/img/animes/ze-tian-ji.webp",
      "imagem_pasta": "https://animefire.plus/img/animes/ze-tian-ji/",
      "secao": "legendados",
      "pagina": 142,
      "total_episodios": 13,
      "link_video": "https://animefire.plus/video/ze-tian-ji"
    },
    {
      "id": 4345,
      "nome": "Zero no Tsukaima",
      "link": "https://animefire.plus/animes/zero-no-tsukaima-todos-os-episodios",
      "texto_original": "Zero no Tsukaima",
      "rating": 7.48,
      "classificacao_etaria": "A14",
      "imagem_original": "https://animefire.plus/img/animes/zero-no-tsukaima.webp",
      "imagem_pasta": "https://animefire.plus/img/animes/zero-no-tsukaima/",
      "secao": "legendados",
      "pagina": 169,
      "total_episodios": 13,
      "link_video": "https://animefire.plus/video/zero-no-tsukaima"
    }
  ],
  "pagination": {
    "current_page": 41,
    "per_page": 20,
    "total_items": 826,
    "total_pages": 42,
    "has_next": true,
    "has_prev": true
  }
}
