{
  "message": "Animes com 13 a 24 episódios",
  "episode_range": {
    "min": 13,
    "max": 24
  },
  "data": [
    {
      "id": 1887,
      "nome": "Kanon (2006)",
      "link": "https://animefire.plus/animes/kanon-2006-todos-os-episodios",
      "texto_original": "Kanon (2006)",
      "rating": 8.07,
      "classificacao_etaria": "A14",
      "imagem_original": "https://animefire.plus/img/animes/kanon-2006.webp",
      "imagem_pasta": "https://animefire.plus/img/animes/kanon-2006/",
      "secao": "legendados",
      "pagina": 128,
      "total_episodios": 24,
      "link_video": "https://animefire.plus/video/kanon-2006"
    },
    {
      "id": 1899,
      "nome": "Karasu wa Aruji wo Erabanai",
      "link": "https://animefire.plus/animes/karasu-wa-aruji-wo-erabanai-todos-os-episodios",
      "texto_original": "Karasu wa Aruji wo Erabanai",
      "rating": 8.05,
      "classificacao_etaria": "A14",
      "imagem_original": "https://animefire.plus/img/animes/karasu-wa-aruji-wo-erabanai.webp",
      "imagem_pasta": "https://animefire.plus/img/animes/karasu-wa-aruji-wo-erabanai/",
      "secao": "legendados",
      "pagina": 13,
      "total_episodios": 20,
      "link_video": "https://animefire.plus/video/karasu-wa-aruji-wo-erabanai"
    },
    {
      "id": 1901,
      "nome": "Kareshi Kanojo no Jijou",
      "link": "https://animefire.plus/animes/kareshi-kanojo-no-jijou-todos-os-episodios",
      "texto_original": "Kareshi Kanojo no Jijou",
      "rating": 7.64,
      "classificacao_etaria": "A14",
      "imagem_original": "https://animefire.plus/img/animes/kareshi-kanojo-no-jijou.webp",
      "imagem_pasta": "https://animefire.plus/img/animes/kareshi-kanojo-no-jijou/",
      "secao": "legendados",
      "pagina": 171,
      "total_episodios": 14,
      "link_video": "https://animefire.plus/video/kareshi-kanojo-no-jijou"
    },
    {
      "id": 1902,
      "nome": "Karin",
      "link": "https://animefire.plus/animes/karin-todos-os-episodios",
      "texto_original": "Karin",
      "rating": 7.25,
      "classificacao_etaria": "A14",
      "imagem_original": "https://animefire.plus/img/animes/karin.webp",
      "imagem_pasta": "https://animefire.plus/img/animes/karin/",
      "secao": "legendados",
      "pagina": 161,
      "total_episodios": 24,
      "link_video": "https://animefire.plus/video/karin"
    },
    {
      "id": 1904,
      "nome": "Karneval (TV)",
      "link": "https://animefire.plus/animes/karneval-tv-todos-os-episodios",
      "texto_original": "Karneval (TV)",
      "rating": 7.19,
      "classificacao_etaria": "A14",
      "imagem_original": "https://animefire.plus/img/animes/karneval-tv.webp",
      "imagem_pasta": "https://animefire.plus/img/animes/karneval-tv/",
      "secao": "legendados",
      "pagina": 72,
      "total_episodios": 13,
      "link_video": "https://animefire.plus/video/karneval-tv"
    },
    {
      "id": 1910,
      "nome": "Katsugeki/Touken Ranbu",
      "link": "https://animefire.plus/animes/katsugeki-touken-ranbu-todos-os-episodios",
      "texto_original": "Katsugeki/Touken Ranbu",
      "rating": 6.79,
      "classificacao_etaria": "A14",
      "imagem_original": "https://animefire.plus/img/animes/katsugeki-touken-ranbu.webp",
      "imagem_pasta": "https://animefire.plus/img/animes/katsugeki-touken-ranbu/",
      "secao": "legendados",
      "pagina": 106,
      "total_episodios": 13,
      "link_video": "https://animefire.plus/video/katsugeki-touken-ranbu"
    },
    {
      "id": 1918,
      "nome": "Kaze ga Tsuyoku Fuiteiru",
      "link": "https://animefire.plus/animes/kaze-ga-tsuyoku-fuiteiru-todos-os-episodios",
      "texto_original": "Kaze ga Tsuyoku Fuiteiru",
      "rating": 8.52,
      "classificacao_etaria": "A14",
      "imagem_original": "https://animefire.plus/img/animes/kaze-ga-tsuyoku-fuiteiru.webp",
      "imagem_pasta": "https://animefire.plus/img/animes/kaze-ga-tsuyoku-fuiteiru/",
      "secao": "legendados",
      "pagina": 162,
      "total_episodios": 23,
      "link_video": "https://animefire.plus/video/kaze-ga-tsuyoku-fuiteiru"
    },
    {
      "id": 1920,
      "nome": "Kaze no Stigma",
      "link": "https://animefire.plus/animes/kaze-no-stigma-todos-os-episodios",
      "texto_original": "Kaze no Stigma",
      "rating": 7.4,
      "classificacao_etaria": "A14",
      "imagem_original": "https://animefire.plus/img/animes/kaze-no-stigma.webp",
      "imagem_pasta": "https://animefire.plus/img/animes/kaze-no-stigma/",
      "secao": "legendados",
      "pagina": 120,
      "total_episodios": 24,
      "link_video": "https://animefire.plus/video/kaze-no-stigma"
    },
    {
      "id": 1921,
      "nome": "Kazemakase Tsukikage Ran (Dublado)",
      "link": "https://animefire.plus/animes/kazemakase-tsukikage-ran-dublado-todos-os-episodios",
      "texto_original": "Kazemakase Tsukikage Ran (Dublado)",
      "rating": 7.16,
      "classificacao_etaria": "A14",
      "imagem_original": "https://animefire.plus/img/animes/kazemakase-tsukikage-ran.webp",
      "imagem_pasta": "https://animefire.plus/img/animes/kazemakase-tsukikage-ran/",
      "secao": "dublados",
      "pagina": 27,
      "total_episodios": 13,
      "link_video": "https://animefire.plus/video/kazemakase-tsukikage-ran-dublado"
    },
    {
      "id": 1928,
      "nome": "Kekkai Sensen (Dublado)",
      "link": "https://animefire.plus/animes/kekkai-sensen-dublado-todos-os-episodios",
      "texto_original": "Kekkai Sensen (Dublado)",
      "rating": 7.66,
      "classificacao_etaria": "A16",
      "imagem_original": "https://animefire.plus/img/animes/kekkai-sensen.webp",
      "imagem_pasta": "https://animefire.plus/img/animes/kekkai-sensen/",
      "secao": "dublados,legendados",
      "pagina": 20,
      "total_episodios": 13,
      "link_video": "https://animefire.plus/video/kekkai-sensen-dublado"
    },
    {
      "id": 1939,
      "nome": "Kemonozume",
      "link": "https://animefire.plus/animes/kemonozume-todos-os-episodios",
      "texto_original": "Kemonozume",
      "rating": 7.46,
      "classificacao_etaria": "A18",
      "imagem_original": "https://animefire.plus/img/animes/kemonozume.webp",
      "imagem_pasta": "https://animefire.plus/img/animes/kemonozume/",
      "secao": "legendados",
      "pagina": 99,
      "total_episodios": 13,
      "link_video": "https://animefire.plus/video/kemonozume"
    },
    {
      "id": 1941,
      "nome": "Ken En Ken: Aoki Kagayaki",
      "link": "https://animefire.plus/animes/ken-en-ken-aoki-kagayaki-todos-os-episodios",
      "texto_original": "Ken En Ken: Aoki Kagayaki",
      "rating": 6.14,
      "classificacao_etaria": "A14",
      "imagem_original": "https://animefire.plus/img/animes/ken-en-ken-aoki-kagayaki.webp",
      "imagem_pasta": "https://animefire.plus/img/animes/ken-en-ken-aoki-kagayaki/",
      "secao": "legendados",
      "pagina": 159,
      "total_episodios": 13,
      "link_video": "https://animefire.plus/video/ken-en-ken-aoki-kagayaki"
    },
    {
      "id": 1948,
      "nome": "Kenkou Zenrakei Suieibu Umishou",
      "link": "https://animefire.plus/animes/kenkou-zenrakei-suieibu-umishou-todos-os-episodios",
      "texto_original": "Kenkou Zenrakei Suieibu Umishou",
      "rating": 7.17,
      "classificacao_etaria": "A14",
      "imagem_original": "https://animefire.plus/img/animes/kenkou-zenrakei-suieibu-umishou.webp",
      "imagem_pasta": "https://animefire.plus/img/animes/kenkou-zenrakei-suieibu-umishou/",
      "secao": "legendados",
      "pagina": 77,
      "total_episodios": 13,
      "link_video": "https://animefire.plus/video/kenkou-zenrakei-suieibu-umishou"
    },
    {
      "id": 1954,
      "nome": "Key the Metal Idol",
      "link": "https://animefire.plus/animes/key-the-metal-idol-todos-os-episodios",
      "texto_original": "Key the Metal Idol",
      "rating": 6.91,
      "classificacao_etaria": "A18",
      "imagem_original": "https://animefire.plus/img/animes/key-the-metal-idol.webp",
      "imagem_pasta": "https://animefire.plus/img/animes/key-the-metal-idol/",
      "secao": "legendados",
      "pagina": 44,
      "total_episodios": 15,
      "link_video": "https://animefire.plus/video/key-the-metal-idol"
    },
    {
      "id": 1957,
      "nome": "Kiddy GiRL-AND",
      "link": "https://animefire.plus/animes/kiddy-girl-and-todos-os-episodios",
      "texto_original": "Kiddy GiRL-AND",
      "rating": 6.93,
      "classificacao_etaria": "A14",
      "imagem_original": "https://animefire.plus/img/animes/kiddy-girl-and.webp",
      "imagem_pasta": "https://animefire.plus/img/animes/kiddy-girl-and/",
      "secao": "legendados",
      "pagina": 142,
      "total_episodios": 24,
      "link_video": "https://animefire.plus/video/kiddy-girl-and"
    },
    {
      "id": 1958,
      "nome": "Kiddy Grade",
      "link": "https://animefire.plus/animes/kiddy-grade-todos-os-episodios",
      "texto_original": "Kiddy Grade",
      "rating": 7.27,
      "classificacao_etaria": "A18",
      "imagem_original": "https://animefire.plus/img/animes/kiddy-grade.webp",
      "imagem_pasta": "https://animefire.plus/img/animes/kiddy-grade/",
      "secao": "legendados",
      "pagina": 150,
      "total_episodios": 24,
      "link_video": "https://animefire.plus/video/kiddy-grade"
    },
    {
      "id": 1960,
      "nome": "Kidou Keisatsu Patlabor: New OVA",
      "link": "https://animefire.plus/animes/kidou-keisatsu-patlabor-new-ova-todos-os-episodios",
      "texto_original": "Kidou Keisatsu Patlabor: New OVA",
      "rating": 7.55,
      "classificacao_etaria": "A14",
      "imagem_original": "https://animefire.plus/img/animes/kidou-keisatsu-patlabor-new-ova.webp",
      "imagem_pasta": "https://animefire.plus/img/animes/kidou-keisatsu-patlabor-new-ova/",
      "secao": "legendados",
      "pagina": 44,
      "total_episodios": 16,
      "link_video": "https://animefire.plus/video/kidou-keisatsu-patlabor-new-ova"
    },
    {
      "id": 1964,
      "nome": "Kidou Shinsengumi Moeyo Ken TV",
      "link": "https://animefire.plus/animes/kidou-shinsengumi-moeyo-ken-tv-todos-os-episodios",
      "texto_original": "Kidou Shinsengumi Moeyo Ken TV",
      "rating": 6.24,
      "classificacao_etaria": "A14",
      "imagem_original": "https://animefire.plus/img/animes/kidou-shinsengumi-moeyo-ken-tv.webp",
      "imagem_pasta": "https://animefire.plus/img/animes/kidou-shinsengumi-moeyo-ken-tv/",
      "secao": "legendados",
      "pagina": 123,
      "total_episodios": 13,
      "link_video": "https://animefire.plus/video/kidou-shinsengumi-moeyo-ken-tv"
    },
    {
      "id": 1966,
      "nome": "Kijin Gentoushou",
      "link": "https://animefire.plus/animes/kijin-gentoushou-todos-os-episodios",
      "texto_original": "Kijin Gentoushou",
      "rating": 7.4,
      "classificacao_etaria": "A16",
      "imagem_original": "https://animefire.plus/img/animes/kijin-gentoushou.webp",
      "imagem_pasta": "https://animefire.plus/img/animes/kijin-gentoushou/",
      "secao": "legendados,lancamentos",
      "pagina": 6,
      "total_episodios": 16,
      "link_video": "https://animefire.plus/video/kijin-gentoushou"
    },
    {
      "id": 1971,
      "nome": "Kill la Kill",
      "link": "https://animefire.plus/animes/kill-la-kill-todos-os-episodios",
      "texto_original": "Kill la Kill",
      "rating": 8.17,
      "classificacao_etaria": "A14",
      "imagem_original": "https://animefire.plus/img/animes/kill-la-kill.webp",
      "imagem_pasta": "https://animefire.plus/img/animes/kill-la-kill/",
      "secao": "legendados",
      "pagina": 109,
      "total_episodios": 24,
      "link_video": "https://animefire.plus/video/kill-la-kill"
    }
  ],
  "pagination": {
    "current_page": 18,
    "per_page": 20,
    "total_items": 826,
    "total_pages": 42,
    "has_next": true,
    "has_prev": true
  }
}
