{
  "message": "Animes com 13 a 24 episódios",
  "episode_range": {
    "min": 13,
    "max": 24
  },
  "data": [
    {
      "id": 1619,
      "nome": "Inferno Cop",
      "link": "https://animefire.plus/animes/inferno-cop-todos-os-episodios",
      "texto_original": "Inferno Cop",
      "rating": 7.3,
      "classificacao_etaria": "A16",
      "imagem_original": "https://animefire.plus/img/animes/inferno-cop.webp",
      "imagem_pasta": "https://animefire.plus/img/animes/inferno-cop/",
      "secao": "legendados",
      "pagina": 73,
      "total_episodios": 13,
      "link_video": "https://animefire.plus/video/inferno-cop"
    },
    {
      "id": 1630,
      "nome": "Initial D Fourth Stage",
      "link": "https://animefire.plus/animes/initial-d-fourth-stage-todos-os-episodios",
      "texto_original": "Initial D Fourth Stage",
      "rating": 8.2,
      "classificacao_etaria": "A14",
      "imagem_original": "https://animefire.plus/img/animes/initial-d-fourth-stage.webp",
      "imagem_pasta": "https://animefire.plus/img/animes/initial-d-fourth-stage/",
      "secao": "legendados",
      "pagina": 133,
      "total_episodios": 24,
      "link_video": "https://animefire.plus/video/initial-d-fourth-stage"
    },
    {
      "id": 1631,
      "nome": "Initial D Second Stage",
      "link": "https://animefire.plus/animes/initial-d-second-stage-todos-os-episodios",
      "texto_original": "Initial D Second Stage",
      "rating": 8.17,
      "classificacao_etaria": "A14",
      "imagem_original": "https://animefire.plus/img/animes/initial-d-second-stage.webp",
      "imagem_pasta": "https://animefire.plus/img/animes/initial-d-second-stage/",
      "secao": "legendados",
      "pagina": 159,
      "total_episodios": 13,
      "link_video": "https://animefire.plus/video/initial-d-second-stage"
    },
    {
      "id": 1634,
      "nome": "Interstella5555: The 5tory of The 5ecret 5tar 5ystem",
      "link": "https://animefire.plus/animes/interstella5555-the-5tory-of-the-5ecret-5tar-5ystem-todos-os-episodios",
      "texto_original": "Interstella5555: The 5tory of The 5ecret 5tar 5ystem",
      "rating": 8.16,
      "classificacao_etaria": null,
      "imagem_original": "https://animefire.plus/img/animes/interstella5555-the-5tory-of-the-5ecret-5tar-5ystem.webp",
      "imagem_pasta": "https://animefire.plus/img/animes/interstella5555-the-5tory-of-the-5ecret-5tar-5ystem/",
      "secao": "legendados",
      "pagina": 171,
      "total_episodios": 14,
      "link_video": "https://animefire.plus/video/interstella5555-the-5tory-of-the-5ecret-5tar-5ystem"
    },
    {
      "id": 1635,
      "nome": "Inu ni Nattara Suki na Hito ni Hirowareta.",
      "link": "https://animefire.plus/animes/inu-ni-nattara-suki-na-hito-ni-hirowareta-todos-os-episodios",
      "texto_original": "Inu ni Nattara Suki na Hito ni Hirowareta.",
      "rating": 5.04,
      "classificacao_etaria": "A18",
      "imagem_original": "https://animefire.plus/img/animes/inu-ni-nattara-suki-na-hito-ni-hirowareta.webp",
      "imagem_pasta": "https://animefire.plus/img/animes/inu-ni-nattara-suki-na-hito-ni-hirowareta/",
      "secao": "legendados,lancamentos",
      "pagina": 27,
      "total_episodios": 14,
      "link_video": "https://animefire.plus/video/inu-ni-nattara-suki-na-hito-ni-hirowareta"
    },
    {
      "id": 1649,
      "nome": "Irozuku Sekai no Ashita kara",
      "link": "https://animefire.plus/animes/irozuku-sekai-no-ashita-kara-todos-os-episodios",
      "texto_original": "Irozuku Sekai no Ashita kara",
      "rating": 7.64,
      "classificacao_etaria": "A14",
      "imagem_original": "https://animefire.plus/img/animes/irozuku-sekai-no-ashita-kara.webp",
      "imagem_pasta": "https://animefire.plus/img/animes/irozuku-sekai-no-ashita-kara/",
      "secao": "legendados",
      "pagina": 170,
      "total_episodios": 13,
      "link_video": "https://animefire.plus/video/irozuku-sekai-no-ashita-kara"
    },
    {
      "id": 1653,
      "nome": "Isekai de Cheat Skill wo Te ni Shita Ore wa, Genjitsu Sekai wo mo Musou Suru: Level Up wa Jinsei wo Kaeta (Dublado)",
      "link": "https://animefire.plus/animes/isekai-de-cheat-skill-wo-te-ni-shita-ore-wa-genjitsu-sekai-wo-mo-musou-suru-level-up-wa-jinsei-wo-kaeta-dublado-todos-os-episodios",
      "texto_original": "Isekai de Cheat Skill wo Te ni Shita Ore wa, Genjitsu Sekai wo mo Musou Suru: Level Up wa Jinsei wo Kaeta (Dublado)",
      "rating": 6.34,
      "classificacao_etaria": "A14",
      "imagem_original": "https://animefire.plus/img/animes/isekai-de-cheat-skill-wo-te-ni-shita-ore-wa-genjitsu-sekai-wo-mo-musou-suru-level-up-wa-jinsei-wo-kaeta.jpg",
      "imagem_pasta": "https://animefire.plus/img/animes/isekai-de-cheat-skill-wo-te-ni-shita-ore-wa-genjitsu-sekai-wo-mo-musou-suru-level-up-wa-jinsei-wo-kaeta/",
      "secao": "dublados,legendados",
      "pagina": 7,
      "total_episodios": 13,
      "link_video": "https://animefire.plus/video/isekai-de-cheat-skill-wo-te-ni-shita-ore-wa-genjitsu-sekai-wo-mo-musou-suru-level-up-wa-jinsei-wo-kaeta-dublado"
    },
    {
      "id": 1655,
      "nome": "Isekai Izakaya: Koto Aitheria no Izakaya Nobu",
      "link": "https://animefire.plus/animes/isekai-izakaya-koto-aitheria-no-izakaya-nobu-todos-os-episodios",
      "texto_original": "Isekai Izakaya: Koto Aitheria no Izakaya Nobu",
      "rating": 7.37,
      "classificacao_etaria": "A14",
      "imagem_original": "https://animefire.plus/img/animes/isekai-izakaya-koto-aitheria-no-izakaya-nobu.webp",
      "imagem_pasta": "https://animefire.plus/img/animes/isekai-izakaya-koto-aitheria-no-izakaya-nobu/",
      "secao": "legendados",
      "pagina": 106,
      "total_episodios": 24,
      "link_video": "https://animefire.plus/video/isekai-izakaya-koto-aitheria-no-izakaya-nobu"
    },
    {
      "id": 1703,
      "nome": "Jahy-sama wa Kujikenai! (Dublado)",
      "link": "https://animefire.plus/animes/jahy-sama-wa-kujikenai-dublado-todos-os-episodios",
      "texto_original": "Jahy-sama wa Kujikenai! (Dublado)",
      "rating": 7.01,
      "classificacao_etaria": "A14",
      "imagem_original": "https://animefire.plus/img/animes/jahy-sama-wa-kujikenai.webp",
      "imagem_pasta": "https://animefire.plus/img/animes/jahy-sama-wa-kujikenai/",
      "secao": "dublados,legendados",
      "pagina": 9,
      "total_episodios": 20,
      "link_video": "https://animefire.plus/video/jahy-sama-wa-kujikenai-dublado"
    },
    {
      "id": 1704,
      "nome": "Jaku-Chara Tomozaki-kun",
      "link": "https://animefire.plus/animes/jaku-chara-tomozaki-kun-todos-os-episodios",
      "texto_original": "Jaku-Chara Tomozaki-kun",
      "rating": 7.11,
      "classificacao_etaria": "A14",
      "imagem_original": "https://animefire.plus/img/animes/jaku-chara-tomozaki-kun.webp",
      "imagem_pasta": "https://animefire.plus/img/animes/jaku-chara-tomozaki-kun/",
      "secao": "legendados",
      "pagina": 49,
      "total_episodios": 14,
      "link_video": "https://animefire.plus/video/jaku-chara-tomozaki-kun"
    },
    {
      "id": 1705,
      "nome": "Jaku-Chara Tomozaki-kun 2nd Stage",
      "link": "https://animefire.plus/animes/jaku-chara-tomozaki-kun-2nd-stage-todos-os-episodios",
      "texto_original": "Jaku-Chara Tomozaki-kun 2nd Stage",
      "rating": 7.03,
      "classificacao_etaria": "A14",
      "imagem_original": "https://animefire.plus/img/animes/jaku-chara-tomozaki-kun-2nd-stage.webp",
      "imagem_pasta": "https://animefire.plus/img/animes/jaku-chara-tomozaki-kun-2nd-stage/",
      "secao": "legendados",
      "pagina": 18,
      "total_episodios": 13,
      "link_video": "https://animefire.plus/video/jaku-chara-tomozaki-kun-2nd-stage"
    },
    {
      "id": 1719,
      "nome": "Jie Mo Ren",
      "link": "https://animefire.plus/animes/jie-mo-ren-todos-os-episodios",
      "texto_original": "Jie Mo Ren",
      "rating": 6.34,
      "classificacao_etaria": "A14",
      "imagem_original": "https://animefire.plus/img/animes/jie-mo-ren.webp",
      "imagem_pasta": "https://animefire.plus/img/animes/jie-mo-ren/",
      "secao": "legendados",
      "pagina": 147,
      "total_episodios": 14,
      "link_video": "https://animefire.plus/video/jie-mo-ren"
    },
    {
      "id": 1727,
      "nome": "Jigokuraku (Dublado)",
      "link": "https://animefire.plus/animes/jigokuraku-dublado-todos-os-episodios",
      "texto_original": "Jigokuraku (Dublado)",
      "rating": 8.09,
      "classificacao_etaria": "A16",
      "imagem_original": "https://animefire.plus/img/animes/jigokuraku.webp",
      "imagem_pasta": "https://animefire.plus/img/animes/jigokuraku/",
      "secao": "dublados,legendados",
      "pagina": 7,
      "total_episodios": 13,
      "link_video": "https://animefire.plus/video/jigokuraku-dublado"
    },
    {
      "id": 1729,
      "nome": "Jijou o Shiranai Tenkousei ga Guigui Kuru",
      "link": "https://animefire.plus/animes/jijou-o-shiranai-tenkousei-ga-guigui-kuru-todos-os-episodios",
      "texto_original": "Jijou o Shiranai Tenkousei ga Guigui Kuru",
      "rating": 7.51,
      "classificacao_etaria": "A14",
      "imagem_original": "https://animefire.plus/img/animes/jijou-o-shiranai-tenkousei-ga-guigui-kuru.jpg",
      "imagem_pasta": "https://animefire.plus/img/animes/jijou-o-shiranai-tenkousei-ga-guigui-kuru/",
      "secao": "legendados",
      "pagina": 24,
      "total_episodios": 13,
      "link_video": "https://animefire.plus/video/jijou-o-shiranai-tenkousei-ga-guigui-kuru"
    },
    {
      "id": 1730,
      "nome": "Jikan no Shihaisha",
      "link": "https://animefire.plus/animes/jikan-no-shihaisha-todos-os-episodios",
      "texto_original": "Jikan no Shihaisha",
      "rating": 6.41,
      "classificacao_etaria": "A14",
      "imagem_original": "https://animefire.plus/img/animes/jikan-no-shihaisha.webp",
      "imagem_pasta": "https://animefire.plus/img/animes/jikan-no-shihaisha/",
      "secao": "legendados",
      "pagina": 152,
      "total_episodios": 13,
      "link_video": "https://animefire.plus/video/jikan-no-shihaisha"
    },
    {
      "id": 1732,
      "nome": "Jin Tian Kai Shi Zuo Ming Xing",
      "link": "https://animefire.plus/animes/jin-tian-kai-shi-zuo-ming-xing-todos-os-episodios",
      "texto_original": "Jin Tian Kai Shi Zuo Ming Xing",
      "rating": 7.04,
      "classificacao_etaria": "A14",
      "imagem_original": "https://animefire.plus/img/animes/jin-tian-kai-shi-zuo-ming-xing.webp",
      "imagem_pasta": "https://animefire.plus/img/animes/jin-tian-kai-shi-zuo-ming-xing/",
      "secao": "legendados",
      "pagina": 80,
      "total_episodios": 13,
      "link_video": "https://animefire.plus/video/jin-tian-kai-shi-zuo-ming-xing"
    },
    {
      "id": 1738,
      "nome": "Jitsu Wa Watashi Wa",
      "link": "https://animefire.plus/animes/jitsu-wa-watashi-wa-todos-os-episodios",
      "texto_original": "Jitsu Wa Watashi Wa",
      "rating": 7.03,
      "classificacao_etaria": "A14",
      "imagem_original": "https://animefire.plus/img/animes/jitsu-wa-watashi-wa.webp",
      "imagem_pasta": "https://animefire.plus/img/animes/jitsu-wa-watashi-wa/",
      "secao": "legendados",
      "pagina": 95,
      "total_episodios": 13,
      "link_video": "https://animefire.plus/video/jitsu-wa-watashi-wa"
    },
    {
      "id": 1740,
      "nome": "JoJo no Kimyou na Bouken Part 3: Stardust Crusaders (Dublado)",
      "link": "https://animefire.plus/animes/jojo-no-kimyou-na-bouken-part-3-stardust-crusaders-dublado-todos-os-episodios",
      "texto_original": "JoJo no Kimyou na Bouken Part 3: Stardust Crusaders (Dublado)",
      "rating": 8.09,
      "classificacao_etaria": "A16",
      "imagem_original": "https://animefire.plus/img/animes/jojo-no-kimyou-na-bouken-part-3-stardust-crusaders.webp",
      "imagem_pasta": "https://animefire.plus/img/animes/jojo-no-kimyou-na-bouken-part-3-stardust-crusaders/",
      "secao": "dublados,legendados",
      "pagina": 15,
      "total_episodios": 24,
      "link_video": "https://animefire.plus/video/jojo-no-kimyou-na-bouken-part-3-stardust-crusaders-dublado"
    },
    {
      "id": 1741,
      "nome": "JoJo no Kimyou na Bouken Part 3: Stardust Crusaders 2nd Season (Dublado)",
      "link": "https://animefire.plus/animes/jojo-no-kimyou-na-bouken-part-3-stardust-crusaders-2nd-season-dublado-todos-os-episodios",
      "texto_original": "JoJo no Kimyou na Bouken Part 3: Stardust Crusaders 2nd Season (Dublado)",
      "rating": 8.43,
      "classificacao_etaria": "A16",
      "imagem_original": "https://animefire.plus/img/animes/jojo-no-kimyou-na-bouken-part-3-stardust-crusaders-2nd-season.webp",
      "imagem_pasta": "https://animefire.plus/img/animes/jojo-no-kimyou-na-bouken-part-3-stardust-crusaders-2nd-season/",
      "secao": "dublados,legendados",
      "pagina": 15,
      "total_episodios": 24,
      "link_video": "https://animefire.plus/video/jojo-no-kimyou-na-bouken-part-3-stardust-crusaders-2nd-season-dublado"
    },
    {
      "id": 1754,
      "nome": "Jujutsu Kaisen (Dublado)",
      "link": "https://animefire.plus/animes/jujutsu-kaisen-dublado-todos-os-episodios",
      "texto_original": "Jujutsu Kaisen (Dublado)",
      "rating": 8.66,
      "classificacao_etaria": "A16",
      "imagem_original": "https://animefire.plus/img/animes/jujutsu-kaisen.webp",
      "imagem_pasta": "https://animefire.plus/img/animes/jujutsu-kaisen/",
      "secao": "dublados",
      "pagina": 8,
      "total_episodios": 24,
      "link_video": "https://animefire.plus/video/jujutsu-kaisen-dublado"
    }
  ],
  "pagination": {
    "current_page": 16,
    "per_page": 20,
    "total_items": 826,
    "total_pages": 42,
    "has_next": true,
    "has_prev": true
  }
}
