{
  "message": "Animes com 13 a 24 episódios",
  "episode_range": {
    "min": 13,
    "max": 24
  },
  "data": [
    {
      "id": 1192,
      "nome": "Girls Bravo: Second Season",
      "link": "https://animefire.plus/animes/girls-bravo-second-season-todos-os-episodios",
      "texto_original": "Girls Bravo: Second Season",
      "rating": 6.79,
      "classificacao_etaria": "A18",
      "imagem_original": "https://animefire.plus/img/animes/girls-bravo-second-season.webp",
      "imagem_pasta": "https://animefire.plus/img/animes/girls-bravo-second-season/",
      "secao": "legendados",
      "pagina": 133,
      "total_episodios": 13,
      "link_video": "https://animefire.plus/video/girls-bravo-second-season"
    },
    {
      "id": 1199,
      "nome": "Glasslip",
      "link": "https://animefire.plus/animes/glasslip-todos-os-episodios",
      "texto_original": "Glasslip",
      "rating": 5.53,
      "classificacao_etaria": "A14",
      "imagem_original": "https://animefire.plus/img/animes/glasslip.webp",
      "imagem_pasta": "https://animefire.plus/img/animes/glasslip/",
      "secao": "legendados",
      "pagina": 129,
      "total_episodios": 13,
      "link_video": "https://animefire.plus/video/glasslip"
    },
    {
      "id": 1200,
      "nome": "Gleipnir (Dublado)",
      "link": "https://animefire.plus/animes/gleipnir-dublado-todos-os-episodios",
      "texto_original": "Gleipnir (Dublado)",
      "rating": 7.01,
      "classificacao_etaria": "A16",
      "imagem_original": "https://animefire.plus/img/animes/gleipnir.webp",
      "imagem_pasta": "https://animefire.plus/img/animes/gleipnir/",
      "secao": "dublados,legendados",
      "pagina": 14,
      "total_episodios": 13,
      "link_video": "https://animefire.plus/video/gleipnir-dublado"
    },
    {
      "id": 1205,
      "nome": "Gochuumon wa Usagi Desu ka?",
      "link": "https://animefire.plus/animes/gochuumon-wa-usagi-desu-ka-todos-os-episodios",
      "texto_original": "Gochuumon wa Usagi Desu ka?",
      "rating": 7.58,
      "classificacao_etaria": "A14",
      "imagem_original": "https://animefire.plus/img/animes/gochuumon-wa-usagi-desu-ka.webp",
      "imagem_pasta": "https://animefire.plus/img/animes/gochuumon-wa-usagi-desu-ka/",
      "secao": "legendados",
      "pagina": 172,
      "total_episodios": 13,
      "link_video": "https://animefire.plus/video/gochuumon-wa-usagi-desu-ka"
    },
    {
      "id": 1209,
      "nome": "God Eater",
      "link": "https://animefire.plus/animes/god-eater-todos-os-episodios",
      "texto_original": "God Eater",
      "rating": 7.37,
      "classificacao_etaria": "A16",
      "imagem_original": "https://animefire.plus/img/animes/god-eater.webp",
      "imagem_pasta": "https://animefire.plus/img/animes/god-eater/",
      "secao": "legendados",
      "pagina": 73,
      "total_episodios": 13,
      "link_video": "https://animefire.plus/video/god-eater"
    },
    {
      "id": 1210,
      "nome": "Godzilla: S.P (Dublado)",
      "link": "https://animefire.plus/animes/godzilla-s-p-dublado-todos-os-episodios",
      "texto_original": "Godzilla: S.P (Dublado)",
      "rating": 6.65,
      "classificacao_etaria": "A14",
      "imagem_original": "https://animefire.plus/img/animes/godzilla-s-p.webp",
      "imagem_pasta": "https://animefire.plus/img/animes/godzilla-s-p/",
      "secao": "dublados,legendados",
      "pagina": 17,
      "total_episodios": 13,
      "link_video": "https://animefire.plus/video/godzilla-s-p-dublado"
    },
    {
      "id": 1214,
      "nome": "Gokukoku no Brynhildr",
      "link": "https://animefire.plus/animes/gokukoku-no-brynhildr-todos-os-episodios",
      "texto_original": "Gokukoku no Brynhildr",
      "rating": 7.03,
      "classificacao_etaria": "A18",
      "imagem_original": "https://animefire.plus/img/animes/gokukoku-no-brynhildr.webp",
      "imagem_pasta": "https://animefire.plus/img/animes/gokukoku-no-brynhildr/",
      "secao": "legendados",
      "pagina": 113,
      "total_episodios": 13,
      "link_video": "https://animefire.plus/video/gokukoku-no-brynhildr"
    },
    {
      "id": 1215,
      "nome": "Gokusen",
      "link": "https://animefire.plus/animes/gokusen-todos-os-episodios",
      "texto_original": "Gokusen",
      "rating": 7.46,
      "classificacao_etaria": "A16",
      "imagem_original": "https://animefire.plus/img/animes/gokusen.webp",
      "imagem_pasta": "https://animefire.plus/img/animes/gokusen/",
      "secao": "legendados",
      "pagina": 100,
      "total_episodios": 13,
      "link_video": "https://animefire.plus/video/gokusen"
    },
    {
      "id": 1224,
      "nome": "Golden Kamuy 4th Season",
      "link": "https://animefire.plus/animes/golden-kamuy-4th-season-todos-os-episodios",
      "texto_original": "Golden Kamuy 4th Season",
      "rating": 8.12,
      "classificacao_etaria": "A16",
      "imagem_original": "https://animefire.plus/img/animes/golden-kamuy-4th-season.webp",
      "imagem_pasta": "https://animefire.plus/img/animes/golden-kamuy-4th-season/",
      "secao": "legendados",
      "pagina": 29,
      "total_episodios": 13,
      "link_video": "https://animefire.plus/video/golden-kamuy-4th-season"
    },
    {
      "id": 1233,
      "nome": "Gosick",
      "link": "https://animefire.plus/animes/gosick-todos-os-episodios",
      "texto_original": "Gosick",
      "rating": 8.17,
      "classificacao_etaria": "A16",
      "imagem_original": "https://animefire.plus/img/animes/gosick.webp",
      "imagem_pasta": "https://animefire.plus/img/animes/gosick/",
      "secao": "legendados",
      "pagina": 160,
      "total_episodios": 24,
      "link_video": "https://animefire.plus/video/gosick"
    },
    {
      "id": 1236,
      "nome": "Granblue Fantasy The Animation",
      "link": "https://animefire.plus/animes/granblue-fantasy-the-animation-todos-os-episodios",
      "texto_original": "Granblue Fantasy The Animation",
      "rating": 6.8,
      "classificacao_etaria": "A14",
      "imagem_original": "https://animefire.plus/img/animes/granblue-fantasy-the-animation.webp",
      "imagem_pasta": "https://animefire.plus/img/animes/granblue-fantasy-the-animation/",
      "secao": "legendados",
      "pagina": 110,
      "total_episodios": 13,
      "link_video": "https://animefire.plus/video/granblue-fantasy-the-animation"
    },
    {
      "id": 1237,
      "nome": "Granblue Fantasy The Animation Season 2",
      "link": "https://animefire.plus/animes/granblue-fantasy-the-animation-season-2-todos-os-episodios",
      "texto_original": "Granblue Fantasy The Animation Season 2",
      "rating": 6.78,
      "classificacao_etaria": "A14",
      "imagem_original": "https://animefire.plus/img/animes/granblue-fantasy-the-animation-season-2.webp",
      "imagem_pasta": "https://animefire.plus/img/animes/granblue-fantasy-the-animation-season-2/",
      "secao": "legendados",
      "pagina": 110,
      "total_episodios": 13,
      "link_video": "https://animefire.plus/video/granblue-fantasy-the-animation-season-2"
    },
    {
      "id": 1244,
      "nome": "Grappler Baki",
      "link": "https://animefire.plus/animes/grappler-baki-todos-os-episodios",
      "texto_original": "Grappler Baki",
      "rating": 6.81,
      "classificacao_etaria": "A16",
      "imagem_original": "https://animefire.plus/img/animes/grappler-baki.webp",
      "imagem_pasta": "https://animefire.plus/img/animes/grappler-baki/",
      "secao": "legendados",
      "pagina": 62,
      "total_episodios": 24,
      "link_video": "https://animefire.plus/video/grappler-baki"
    },
    {
      "id": 1245,
      "nome": "Grappler Baki (TV)",
      "link": "https://animefire.plus/animes/grappler-baki-tv-todos-os-episodios",
      "texto_original": "Grappler Baki (TV)",
      "rating": 7.49,
      "classificacao_etaria": "A14",
      "imagem_original": "https://animefire.plus/img/animes/grappler-baki-tv.webp",
      "imagem_pasta": "https://animefire.plus/img/animes/grappler-baki-tv/",
      "secao": "legendados",
      "pagina": 173,
      "total_episodios": 24,
      "link_video": "https://animefire.plus/video/grappler-baki-tv"
    },
    {
      "id": 1246,
      "nome": "Grappler Baki: Saidai Tournament-hen",
      "link": "https://animefire.plus/animes/grappler-baki-saidai-tournament-hen-todos-os-episodios",
      "texto_original": "Grappler Baki: Saidai Tournament-hen",
      "rating": 7.46,
      "classificacao_etaria": "A16",
      "imagem_original": "https://animefire.plus/img/animes/grappler-baki-saidai-tournament-hen.webp",
      "imagem_pasta": "https://animefire.plus/img/animes/grappler-baki-saidai-tournament-hen/",
      "secao": "legendados",
      "pagina": 67,
      "total_episodios": 24,
      "link_video": "https://animefire.plus/video/grappler-baki-saidai-tournament-hen"
    },
    {
      "id": 1247,
      "nome": "Gravitation",
      "link": "https://animefire.plus/animes/gravitation-todos-os-episodios",
      "texto_original": "Gravitation",
      "rating": 7.16,
      "classificacao_etaria": "A14",
      "imagem_original": "https://animefire.plus/img/animes/gravitation.webp",
      "imagem_pasta": "https://animefire.plus/img/animes/gravitation/",
      "secao": "legendados",
      "pagina": 97,
      "total_episodios": 13,
      "link_video": "https://animefire.plus/video/gravitation"
    },
    {
      "id": 1248,
      "nome": "Great Pretender (Dublado)",
      "link": "https://animefire.plus/animes/great-pretender-dublado-todos-os-episodios",
      "texto_original": "Great Pretender (Dublado)",
      "rating": 8.31,
      "classificacao_etaria": "A16",
      "imagem_original": "https://animefire.plus/img/animes/great-pretender.webp",
      "imagem_pasta": "https://animefire.plus/img/animes/great-pretender/",
      "secao": "dublados,legendados",
      "pagina": 20,
      "total_episodios": 23,
      "link_video": "https://animefire.plus/video/great-pretender-dublado"
    },
    {
      "id": 1257,
      "nome": "Grisaia no Kajitsu",
      "link": "https://animefire.plus/animes/grisaia-no-kajitsu-todos-os-episodios",
      "texto_original": "Grisaia no Kajitsu",
      "rating": 7.64,
      "classificacao_etaria": "A18",
      "imagem_original": "https://animefire.plus/img/animes/grisaia-no-kajitsu.webp",
      "imagem_pasta": "https://animefire.plus/img/animes/grisaia-no-kajitsu/",
      "secao": "legendados",
      "pagina": 91,
      "total_episodios": 13,
      "link_video": "https://animefire.plus/video/grisaia-no-kajitsu"
    },
    {
      "id": 1260,
      "nome": "Grisaia: Phantom Trigger",
      "link": "https://animefire.plus/animes/grisaia-phantom-trigger-todos-os-episodios",
      "texto_original": "Grisaia: Phantom Trigger",
      "rating": 6.38,
      "classificacao_etaria": "A16",
      "imagem_original": "https://animefire.plus/img/animes/grisaia-phantom-trigger.webp",
      "imagem_pasta": "https://animefire.plus/img/animes/grisaia-phantom-trigger/",
      "secao": "legendados",
      "pagina": 8,
      "total_episodios": 13,
      "link_video": "https://animefire.plus/video/grisaia-phantom-trigger"
    },
    {
      "id": 1267,
      "nome": "Guilty Crown",
      "link": "https://animefire.plus/animes/guilty-crown-todos-os-episodios",
      "texto_original": "Guilty Crown",
      "rating": 7.68,
      "classificacao_etaria": "A16",
      "imagem_original": "https://animefire.plus/img/animes/guilty-crown.webp",
      "imagem_pasta": "https://animefire.plus/img/animes/guilty-crown/",
      "secao": "legendados",
      "pagina": 127,
      "total_episodios": 22,
      "link_video": "https://animefire.plus/video/guilty-crown"
    }
  ],
  "pagination": {
    "current_page": 12,
    "per_page": 20,
    "total_items": 826,
    "total_pages": 42,
    "has_next": true,
    "has_prev": true
  }
}
