{
  "message": "Animes com 13 a 24 episódios",
  "episode_range": {
    "min": 13,
    "max": 24
  },
  "data": [
    {
      "id": 335,
      "nome": "BanG Dream! 3rd Season",
      "link": "https://animefire.plus/animes/bang-dream-3rd-season-todos-os-episodios",
      "texto_original": "BanG Dream! 3rd Season",
      "rating": 8.05,
      "classificacao_etaria": "A14",
      "imagem_original": "https://animefire.plus/img/animes/bang-dream-3rd-season.webp",
      "imagem_pasta": "https://animefire.plus/img/animes/bang-dream-3rd-season/",
      "secao": "legendados",
      "pagina": 93,
      "total_episodios": 13,
      "link_video": "https://animefire.plus/video/bang-dream-3rd-season"
    },
    {
      "id": 336,
      "nome": "BanG Dream! Ave Mujica",
      "link": "https://animefire.plus/animes/bang-dream-ave-mujica-todos-os-episodios",
      "texto_original": "BanG Dream! Ave Mujica",
      "rating": 8.06,
      "classificacao_etaria": "A14",
      "imagem_original": "https://animefire.plus/img/animes/bang-dream-ave-mujica.webp",
      "imagem_pasta": "https://animefire.plus/img/animes/bang-dream-ave-mujica/",
      "secao": "legendados",
      "pagina": 7,
      "total_episodios": 13,
      "link_video": "https://animefire.plus/video/bang-dream-ave-mujica"
    },
    {
      "id": 343,
      "nome": "Baraou no Souretsu (Dublado)",
      "link": "https://animefire.plus/animes/baraou-no-souretsu-dublado-todos-os-episodios",
      "texto_original": "Baraou no Souretsu (Dublado)",
      "rating": 6.39,
      "classificacao_etaria": "A14",
      "imagem_original": "https://animefire.plus/img/animes/baraou-no-souretsu.webp",
      "imagem_pasta": "https://animefire.plus/img/animes/baraou-no-souretsu/",
      "secao": "dublados,legendados",
      "pagina": 12,
      "total_episodios": 24,
      "link_video": "https://animefire.plus/video/baraou-no-souretsu-dublado"
    },
    {
      "id": 344,
      "nome": "Barom One (Dublado)",
      "link": "https://animefire.plus/animes/barom-one-dublado-todos-os-episodios",
      "texto_original": "Barom One (Dublado)",
      "rating": 5.39,
      "classificacao_etaria": "A14",
      "imagem_original": "https://animefire.plus/img/animes/barom-one.webp",
      "imagem_pasta": "https://animefire.plus/img/animes/barom-one/",
      "secao": "dublados,legendados",
      "pagina": 26,
      "total_episodios": 13,
      "link_video": "https://animefire.plus/video/barom-one-dublado"
    },
    {
      "id": 348,
      "nome": "Basilisk: Ouka Ninpouchou",
      "link": "https://animefire.plus/animes/basilisk-ouka-ninpouchou-todos-os-episodios",
      "texto_original": "Basilisk: Ouka Ninpouchou",
      "rating": 5.52,
      "classificacao_etaria": "A16",
      "imagem_original": "https://animefire.plus/img/animes/basilisk-ouka-ninpouchou.webp",
      "imagem_pasta": "https://animefire.plus/img/animes/basilisk-ouka-ninpouchou/",
      "secao": "legendados",
      "pagina": 100,
      "total_episodios": 24,
      "link_video": "https://animefire.plus/video/basilisk-ouka-ninpouchou"
    },
    {
      "id": 350,
      "nome": "Bastard!! Ankoku no Hakaishin (ONA) (Dublado)",
      "link": "https://animefire.plus/animes/bastard-ankoku-no-hakaishin-ona-dublado-todos-os-episodios",
      "texto_original": "Bastard!! Ankoku no Hakaishin (ONA) (Dublado)",
      "rating": 6.59,
      "classificacao_etaria": "A18",
      "imagem_original": "https://animefire.plus/img/animes/bastard-ankoku-no-hakaishin-ona.webp",
      "imagem_pasta": "https://animefire.plus/img/animes/bastard-ankoku-no-hakaishin-ona/",
      "secao": "dublados,legendados",
      "pagina": 10,
      "total_episodios": 13,
      "link_video": "https://animefire.plus/video/bastard-ankoku-no-hakaishin-ona-dublado"
    },
    {
      "id": 353,
      "nome": "Bastard!! Ankoku no Hakaishin Season 2 (ONA) (Dublado)",
      "link": "https://animefire.plus/animes/bastard-ankoku-no-hakaishin-season-2-ona-dublado-todos-os-episodios",
      "texto_original": "Bastard!! Ankoku no Hakaishin Season 2 (ONA) (Dublado)",
      "rating": 7.07,
      "classificacao_etaria": "A18",
      "imagem_original": "https://animefire.plus/img/animes/bastard-ankoku-no-hakaishin-season-2-ona.webp",
      "imagem_pasta": "https://animefire.plus/img/animes/bastard-ankoku-no-hakaishin-season-2-ona/",
      "secao": "dublados,legendados",
      "pagina": 6,
      "total_episodios": 15,
      "link_video": "https://animefire.plus/video/bastard-ankoku-no-hakaishin-season-2-ona-dublado"
    },
    {
      "id": 366,
      "nome": "Beatless",
      "link": "https://animefire.plus/animes/beatless-todos-os-episodios",
      "texto_original": "Beatless",
      "rating": 6.27,
      "classificacao_etaria": "A14",
      "imagem_original": "https://animefire.plus/img/animes/beatless.webp",
      "imagem_pasta": "https://animefire.plus/img/animes/beatless/",
      "secao": "legendados",
      "pagina": 113,
      "total_episodios": 18,
      "link_video": "https://animefire.plus/video/beatless"
    },
    {
      "id": 377,
      "nome": "Berserk 2nd Season",
      "link": "https://animefire.plus/animes/berserk-2nd-season-todos-os-episodios",
      "texto_original": "Berserk 2nd Season",
      "rating": 6.98,
      "classificacao_etaria": "A16",
      "imagem_original": "https://animefire.plus/img/animes/berserk-2nd-season.webp",
      "imagem_pasta": "https://animefire.plus/img/animes/berserk-2nd-season/",
      "secao": "legendados",
      "pagina": 171,
      "total_episodios": 13,
      "link_video": "https://animefire.plus/video/berserk-2nd-season"
    },
    {
      "id": 378,
      "nome": "Berserk: Ougon Jidai-hen - Memorial Edition (Dublado)",
      "link": "https://animefire.plus/animes/berserk-ougon-jidai-hen---memorial-edition-dublado-todos-os-episodios",
      "texto_original": "Berserk: Ougon Jidai-hen - Memorial Edition (Dublado)",
      "rating": 7.9,
      "classificacao_etaria": "A18",
      "imagem_original": "https://animefire.plus/img/animes/berserk-ougon-jidai-hen---memorial-edition.webp",
      "imagem_pasta": "https://animefire.plus/img/animes/berserk-ougon-jidai-hen---memorial-edition/",
      "secao": "dublados,legendados",
      "pagina": 9,
      "total_episodios": 13,
      "link_video": "https://animefire.plus/video/berserk-ougon-jidai-hen---memorial-edition-dublado"
    },
    {
      "id": 382,
      "nome": "Biao Ren: Blades of the Guardians",
      "link": "https://animefire.plus/animes/biao-ren-blades-of-the-guardians-todos-os-episodios",
      "texto_original": "Biao Ren: Blades of the Guardians",
      "rating": 7.56,
      "classificacao_etaria": "A16",
      "imagem_original": "https://animefire.plus/img/animes/biao-ren-blades-of-the-guardians.webp",
      "imagem_pasta": "https://animefire.plus/img/animes/biao-ren-blades-of-the-guardians/",
      "secao": "legendados",
      "pagina": 18,
      "total_episodios": 15,
      "link_video": "https://animefire.plus/video/biao-ren-blades-of-the-guardians"
    },
    {
      "id": 393,
      "nome": "Binzume Yousei",
      "link": "https://animefire.plus/animes/binzume-yousei-todos-os-episodios",
      "texto_original": "Binzume Yousei",
      "rating": 6.5,
      "classificacao_etaria": null,
      "imagem_original": "https://animefire.plus/img/animes/binzume-yousei.webp",
      "imagem_pasta": "https://animefire.plus/img/animes/binzume-yousei/",
      "secao": "legendados",
      "pagina": 141,
      "total_episodios": 13,
      "link_video": "https://animefire.plus/video/binzume-yousei"
    },
    {
      "id": 395,
      "nome": "Birdie Wing: Golf Girls' Story",
      "link": "https://animefire.plus/animes/birdie-wing-golf-girls-story-todos-os-episodios",
      "texto_original": "Birdie Wing: Golf Girls' Story",
      "rating": 7.48,
      "classificacao_etaria": "A14",
      "imagem_original": "https://animefire.plus/img/animes/birdie-wing-golf-girls-story.webp",
      "imagem_pasta": "https://animefire.plus/img/animes/birdie-wing-golf-girls-story/",
      "secao": "legendados",
      "pagina": 33,
      "total_episodios": 13,
      "link_video": "https://animefire.plus/video/birdie-wing-golf-girls-story"
    },
    {
      "id": 404,
      "nome": "Bishoujo Yuugi Unit Crane Game Girls",
      "link": "https://animefire.plus/animes/bishoujo-yuugi-unit-crane-game-girls-todos-os-episodios",
      "texto_original": "Bishoujo Yuugi Unit Crane Game Girls",
      "rating": 4.44,
      "classificacao_etaria": "A10",
      "imagem_original": "https://animefire.plus/img/animes/bishoujo-yuugi-unit-crane-game-girls.webp",
      "imagem_pasta": "https://animefire.plus/img/animes/bishoujo-yuugi-unit-crane-game-girls/",
      "secao": "legendados",
      "pagina": 119,
      "total_episodios": 13,
      "link_video": "https://animefire.plus/video/bishoujo-yuugi-unit-crane-game-girls"
    },
    {
      "id": 408,
      "nome": "Black Bullet",
      "link": "https://animefire.plus/animes/black-bullet-todos-os-episodios",
      "texto_original": "Black Bullet",
      "rating": 7.33,
      "classificacao_etaria": "A16",
      "imagem_original": "https://animefire.plus/img/animes/black-bullet.webp",
      "imagem_pasta": "https://animefire.plus/img/animes/black-bullet/",
      "secao": "legendados",
      "pagina": 134,
      "total_episodios": 13,
      "link_video": "https://animefire.plus/video/black-bullet"
    },
    {
      "id": 409,
      "nome": "Black Cat (Dublado)",
      "link": "https://animefire.plus/animes/black-cat-dublado-todos-os-episodios",
      "texto_original": "Black Cat (Dublado)",
      "rating": 7.41,
      "classificacao_etaria": "A14",
      "imagem_original": "https://animefire.plus/img/animes/black-cat.webp",
      "imagem_pasta": "https://animefire.plus/img/animes/black-cat/",
      "secao": "dublados,legendados",
      "pagina": 22,
      "total_episodios": 24,
      "link_video": "https://animefire.plus/video/black-cat-dublado"
    },
    {
      "id": 418,
      "nome": "Blade & Soul",
      "link": "https://animefire.plus/animes/blade-soul-todos-os-episodios",
      "texto_original": "Blade & Soul",
      "rating": 6.17,
      "classificacao_etaria": "A16",
      "imagem_original": "https://animefire.plus/img/animes/blade-soul.webp",
      "imagem_pasta": "https://animefire.plus/img/animes/blade-soul/",
      "secao": "legendados",
      "pagina": 112,
      "total_episodios": 13,
      "link_video": "https://animefire.plus/video/blade-soul"
    },
    {
      "id": 419,
      "nome": "Blade of the Immortal",
      "link": "https://animefire.plus/animes/blade-of-the-immortal-todos-os-episodios",
      "texto_original": "Blade of the Immortal",
      "rating": 6.87,
      "classificacao_etaria": "A16",
      "imagem_original": "https://animefire.plus/img/animes/blade-of-the-immortal.webp",
      "imagem_pasta": "https://animefire.plus/img/animes/blade-of-the-immortal/",
      "secao": "legendados",
      "pagina": 121,
      "total_episodios": 13,
      "link_video": "https://animefire.plus/video/blade-of-the-immortal"
    },
    {
      "id": 420,
      "nome": "Blade Runner: Black Lotus",
      "link": "https://animefire.plus/animes/blade-runner-black-lotus-todos-os-episodios",
      "texto_original": "Blade Runner: Black Lotus",
      "rating": 6.28,
      "classificacao_etaria": "A16",
      "imagem_original": "https://animefire.plus/img/animes/blade-runner-black-lotus.webp",
      "imagem_pasta": "https://animefire.plus/img/animes/blade-runner-black-lotus/",
      "secao": "legendados",
      "pagina": 37,
      "total_episodios": 13,
      "link_video": "https://animefire.plus/video/blade-runner-black-lotus"
    },
    {
      "id": 421,
      "nome": "Blassreiter",
      "link": "https://animefire.plus/animes/blassreiter-todos-os-episodios",
      "texto_original": "Blassreiter",
      "rating": 7,
      "classificacao_etaria": "A16",
      "imagem_original": "https://animefire.plus/img/animes/blassreiter.webp",
      "imagem_pasta": "https://animefire.plus/img/animes/blassreiter/",
      "secao": "legendados",
      "pagina": 114,
      "total_episodios": 24,
      "link_video": "https://animefire.plus/video/blassreiter"
    }
  ],
  "pagination": {
    "current_page": 4,
    "per_page": 20,
    "total_items": 826,
    "total_pages": 42,
    "has_next": true,
    "has_prev": true
  }
}
