{
  "message": "Animes com 13 a 24 episódios",
  "episode_range": {
    "min": 13,
    "max": 24
  },
  "data": [
    {
      "id": 1106,
      "nome": "Gankutsuou (Dublado)",
      "link": "https://animefire.plus/animes/gankutsuou-dublado-todos-os-episodios",
      "texto_original": "Gankutsuou (Dublado)",
      "rating": 8.19,
      "classificacao_etaria": "A16",
      "imagem_original": "https://animefire.plus/img/animes/gankutsuou.webp",
      "imagem_pasta": "https://animefire.plus/img/animes/gankutsuou/",
      "secao": "dublados,legendados",
      "pagina": 22,
      "total_episodios": 24,
      "link_video": "https://animefire.plus/video/gankutsuou-dublado"
    },
    {
      "id": 1108,
      "nome": "Gantz 2nd Stage",
      "link": "https://animefire.plus/animes/gantz-2nd-stage-todos-os-episodios",
      "texto_original": "Gantz 2nd Stage",
      "rating": 7.13,
      "classificacao_etaria": "A18",
      "imagem_original": "https://animefire.plus/img/animes/gantz-2nd-stage.webp",
      "imagem_pasta": "https://animefire.plus/img/animes/gantz-2nd-stage/",
      "secao": "legendados",
      "pagina": 63,
      "total_episodios": 13,
      "link_video": "https://animefire.plus/video/gantz-2nd-stage"
    },
    {
      "id": 1110,
      "nome": "Garo: Guren no Tsuki",
      "link": "https://animefire.plus/animes/garo-guren-no-tsuki-todos-os-episodios",
      "texto_original": "Garo: Guren no Tsuki",
      "rating": 5.9,
      "classificacao_etaria": "A14",
      "imagem_original": "https://animefire.plus/img/animes/garo-guren-no-tsuki.webp",
      "imagem_pasta": "https://animefire.plus/img/animes/garo-guren-no-tsuki/",
      "secao": "legendados",
      "pagina": 63,
      "total_episodios": 24,
      "link_video": "https://animefire.plus/video/garo-guren-no-tsuki"
    },
    {
      "id": 1112,
      "nome": "Garo: Vanishing Line",
      "link": "https://animefire.plus/animes/garo-vanishing-line-todos-os-episodios",
      "texto_original": "Garo: Vanishing Line",
      "rating": 7.23,
      "classificacao_etaria": "A16",
      "imagem_original": "https://animefire.plus/img/animes/garo-vanishing-line.webp",
      "imagem_pasta": "https://animefire.plus/img/animes/garo-vanishing-line/",
      "secao": "legendados",
      "pagina": 94,
      "total_episodios": 24,
      "link_video": "https://animefire.plus/video/garo-vanishing-line"
    },
    {
      "id": 1116,
      "nome": "Gate Keepers",
      "link": "https://animefire.plus/animes/gate-keepers-todos-os-episodios",
      "texto_original": "Gate Keepers",
      "rating": 7.02,
      "classificacao_etaria": "A14",
      "imagem_original": "https://animefire.plus/img/animes/gate-keepers.webp",
      "imagem_pasta": "https://animefire.plus/img/animes/gate-keepers/",
      "secao": "legendados",
      "pagina": 105,
      "total_episodios": 24,
      "link_video": "https://animefire.plus/video/gate-keepers"
    },
    {
      "id": 1128,
      "nome": "Geneshaft",
      "link": "https://animefire.plus/animes/geneshaft-todos-os-episodios",
      "texto_original": "Geneshaft",
      "rating": 6.4,
      "classificacao_etaria": "A14",
      "imagem_original": "https://animefire.plus/img/animes/geneshaft.webp",
      "imagem_pasta": "https://animefire.plus/img/animes/geneshaft/",
      "secao": "legendados",
      "pagina": 70,
      "total_episodios": 13,
      "link_video": "https://animefire.plus/video/geneshaft"
    },
    {
      "id": 1130,
      "nome": "Genjitsu no Yohane: Sunshine in the Mirror",
      "link": "https://animefire.plus/animes/genjitsu-no-yohane-sunshine-in-the-mirror-todos-os-episodios",
      "texto_original": "Genjitsu no Yohane: Sunshine in the Mirror",
      "rating": 6.85,
      "classificacao_etaria": "A14",
      "imagem_original": "https://animefire.plus/img/animes/genjitsu-no-yohane-sunshine-in-the-mirror.jpg",
      "imagem_pasta": "https://animefire.plus/img/animes/genjitsu-no-yohane-sunshine-in-the-mirror/",
      "secao": "legendados",
      "pagina": 23,
      "total_episodios": 13,
      "link_video": "https://animefire.plus/video/genjitsu-no-yohane-sunshine-in-the-mirror"
    },
    {
      "id": 1131,
      "nome": "Genjitsu Shugi Yuusha no Oukoku Saikenki (Dublado)",
      "link": "https://animefire.plus/animes/genjitsu-shugi-yuusha-no-oukoku-saikenki-dublado-todos-os-episodios",
      "texto_original": "Genjitsu Shugi Yuusha no Oukoku Saikenki (Dublado)",
      "rating": 7.25,
      "classificacao_etaria": "A14",
      "imagem_original": "https://animefire.plus/img/animes/genjitsu-shugi-yuusha-no-oukoku-saikenki.webp",
      "imagem_pasta": "https://animefire.plus/img/animes/genjitsu-shugi-yuusha-no-oukoku-saikenki/",
      "secao": "dublados,legendados",
      "pagina": 16,
      "total_episodios": 13,
      "link_video": "https://animefire.plus/video/genjitsu-shugi-yuusha-no-oukoku-saikenki-dublado"
    },
    {
      "id": 1132,
      "nome": "Genjitsu Shugi Yuusha no Oukoku Saikenki 2nd Season",
      "link": "https://animefire.plus/animes/genjitsu-shugi-yuusha-no-oukoku-saikenki-2nd-season-todos-os-episodios",
      "texto_original": "Genjitsu Shugi Yuusha no Oukoku Saikenki 2nd Season",
      "rating": 7.43,
      "classificacao_etaria": "A14",
      "imagem_original": "https://animefire.plus/img/animes/genjitsu-shugi-yuusha-no-oukoku-saikenki-2nd-season.webp",
      "imagem_pasta": "https://animefire.plus/img/animes/genjitsu-shugi-yuusha-no-oukoku-saikenki-2nd-season/",
      "secao": "legendados",
      "pagina": 37,
      "total_episodios": 13,
      "link_video": "https://animefire.plus/video/genjitsu-shugi-yuusha-no-oukoku-saikenki-2nd-season"
    },
    {
      "id": 1138,
      "nome": "Genshiken Nidaime",
      "link": "https://animefire.plus/animes/genshiken-nidaime-todos-os-episodios",
      "texto_original": "Genshiken Nidaime",
      "rating": 7.48,
      "classificacao_etaria": "A16",
      "imagem_original": "https://animefire.plus/img/animes/genshiken-nidaime.webp",
      "imagem_pasta": "https://animefire.plus/img/animes/genshiken-nidaime/",
      "secao": "legendados",
      "pagina": 63,
      "total_episodios": 13,
      "link_video": "https://animefire.plus/video/genshiken-nidaime"
    },
    {
      "id": 1149,
      "nome": "Getter Robo Arc",
      "link": "https://animefire.plus/animes/getter-robo-arc-todos-os-episodios",
      "texto_original": "Getter Robo Arc",
      "rating": 6.16,
      "classificacao_etaria": "A14",
      "imagem_original": "https://animefire.plus/img/animes/getter-robo-arc.webp",
      "imagem_pasta": "https://animefire.plus/img/animes/getter-robo-arc/",
      "secao": "legendados",
      "pagina": 40,
      "total_episodios": 13,
      "link_video": "https://animefire.plus/video/getter-robo-arc"
    },
    {
      "id": 1163,
      "nome": "Ginga e Kickoff!!",
      "link": "https://animefire.plus/animes/ginga-e-kickoff-todos-os-episodios",
      "texto_original": "Ginga e Kickoff!!",
      "rating": 7.33,
      "classificacao_etaria": "A10",
      "imagem_original": "https://animefire.plus/img/animes/ginga-e-kickoff.webp",
      "imagem_pasta": "https://animefire.plus/img/animes/ginga-e-kickoff/",
      "secao": "legendados",
      "pagina": 135,
      "total_episodios": 22,
      "link_video": "https://animefire.plus/video/ginga-e-kickoff"
    },
    {
      "id": 1167,
      "nome": "Ginga Kikoutai Majestic Prince",
      "link": "https://animefire.plus/animes/ginga-kikoutai-majestic-prince-todos-os-episodios",
      "texto_original": "Ginga Kikoutai Majestic Prince",
      "rating": 7.4,
      "classificacao_etaria": "A14",
      "imagem_original": "https://animefire.plus/img/animes/ginga-kikoutai-majestic-prince.webp",
      "imagem_pasta": "https://animefire.plus/img/animes/ginga-kikoutai-majestic-prince/",
      "secao": "legendados",
      "pagina": 175,
      "total_episodios": 24,
      "link_video": "https://animefire.plus/video/ginga-kikoutai-majestic-prince"
    },
    {
      "id": 1168,
      "nome": "Ginga Nagareboshi Gin",
      "link": "https://animefire.plus/animes/ginga-nagareboshi-gin-todos-os-episodios",
      "texto_original": "Ginga Nagareboshi Gin",
      "rating": 8.05,
      "classificacao_etaria": "A14",
      "imagem_original": "https://animefire.plus/img/animes/ginga-nagareboshi-gin.webp",
      "imagem_pasta": "https://animefire.plus/img/animes/ginga-nagareboshi-gin/",
      "secao": "legendados",
      "pagina": 56,
      "total_episodios": 21,
      "link_video": "https://animefire.plus/video/ginga-nagareboshi-gin"
    },
    {
      "id": 1171,
      "nome": "Gintama",
      "link": "https://animefire.plus/animes/gintama-todos-os-episodios",
      "texto_original": "Gintama",
      "rating": 8.98,
      "classificacao_etaria": "A14",
      "imagem_original": "https://animefire.plus/img/animes/gintama.webp",
      "imagem_pasta": "https://animefire.plus/img/animes/gintama/",
      "secao": "legendados",
      "pagina": 74,
      "total_episodios": 24,
      "link_video": "https://animefire.plus/video/gintama"
    },
    {
      "id": 1179,
      "nome": "Gintama.: Porori-hen",
      "link": "https://animefire.plus/animes/gintama-porori-hen-todos-os-episodios",
      "texto_original": "Gintama.: Porori-hen",
      "rating": 8.54,
      "classificacao_etaria": "A14",
      "imagem_original": "https://animefire.plus/img/animes/gintama-porori-hen.webp",
      "imagem_pasta": "https://animefire.plus/img/animes/gintama-porori-hen/",
      "secao": "legendados",
      "pagina": 74,
      "total_episodios": 13,
      "link_video": "https://animefire.plus/video/gintama-porori-hen"
    },
    {
      "id": 1181,
      "nome": "Gintama.: Shirogane no Tamashii-hen - Kouhan-sen",
      "link": "https://animefire.plus/animes/gintama-shirogane-no-tamashii-hen---kouhan-sen-todos-os-episodios",
      "texto_original": "Gintama.: Shirogane no Tamashii-hen - Kouhan-sen",
      "rating": 8.84,
      "classificacao_etaria": "A14",
      "imagem_original": "https://animefire.plus/img/animes/gintama-shirogane-no-tamashii-hen---kouhan-sen.webp",
      "imagem_pasta": "https://animefire.plus/img/animes/gintama-shirogane-no-tamashii-hen---kouhan-sen/",
      "secao": "legendados",
      "pagina": 74,
      "total_episodios": 14,
      "link_video": "https://animefire.plus/video/gintama-shirogane-no-tamashii-hen---kouhan-sen"
    },
    {
      "id": 1183,
      "nome": "Gintama': Enchousen",
      "link": "https://animefire.plus/animes/gintama-enchousen-todos-os-episodios",
      "texto_original": "Gintama': Enchousen",
      "rating": 9.04,
      "classificacao_etaria": "A14",
      "imagem_original": "https://animefire.plus/img/animes/gintama-enchousen.webp",
      "imagem_pasta": "https://animefire.plus/img/animes/gintama-enchousen/",
      "secao": "legendados",
      "pagina": 53,
      "total_episodios": 13,
      "link_video": "https://animefire.plus/video/gintama-enchousen"
    },
    {
      "id": 1187,
      "nome": "Ginyuu Mokushiroku Meine Liebe",
      "link": "https://animefire.plus/animes/ginyuu-mokushiroku-meine-liebe-todos-os-episodios",
      "texto_original": "Ginyuu Mokushiroku Meine Liebe",
      "rating": 6.5,
      "classificacao_etaria": "A14",
      "imagem_original": "https://animefire.plus/img/animes/ginyuu-mokushiroku-meine-liebe.webp",
      "imagem_pasta": "https://animefire.plus/img/animes/ginyuu-mokushiroku-meine-liebe/",
      "secao": "legendados",
      "pagina": 105,
      "total_episodios": 13,
      "link_video": "https://animefire.plus/video/ginyuu-mokushiroku-meine-liebe"
    },
    {
      "id": 1188,
      "nome": "Ginyuu Mokushiroku Meine Liebe Wieder",
      "link": "https://animefire.plus/animes/ginyuu-mokushiroku-meine-liebe-wieder-todos-os-episodios",
      "texto_original": "Ginyuu Mokushiroku Meine Liebe Wieder",
      "rating": 6.76,
      "classificacao_etaria": "A14",
      "imagem_original": "https://animefire.plus/img/animes/ginyuu-mokushiroku-meine-liebe-wieder.webp",
      "imagem_pasta": "https://animefire.plus/img/animes/ginyuu-mokushiroku-meine-liebe-wieder/",
      "secao": "legendados",
      "pagina": 104,
      "total_episodios": 13,
      "link_video": "https://animefire.plus/video/ginyuu-mokushiroku-meine-liebe-wieder"
    }
  ],
  "pagination": {
    "current_page": 11,
    "per_page": 20,
    "total_items": 826,
    "total_pages": 42,
    "has_next": true,
    "has_prev": true
  }
}
