{
  "message": "Animes com 13 a 24 episódios",
  "episode_range": {
    "min": 13,
    "max": 24
  },
  "data": [
    {
      "id": 2083,
      "nome": "Kono Oto Tomare! (Dublado)",
      "link": "https://animefire.plus/animes/kono-oto-tomare-dublado-todos-os-episodios",
      "texto_original": "Kono Oto Tomare! (Dublado)",
      "rating": 7.89,
      "classificacao_etaria": "A14",
      "imagem_original": "https://animefire.plus/img/animes/kono-oto-tomare.webp",
      "imagem_pasta": "https://animefire.plus/img/animes/kono-oto-tomare/",
      "secao": "dublados,legendados",
      "pagina": 13,
      "total_episodios": 13,
      "link_video": "https://animefire.plus/video/kono-oto-tomare-dublado"
    },
    {
      "id": 2084,
      "nome": "Kono Oto Tomare! 2nd Season (Dublado)",
      "link": "https://animefire.plus/animes/kono-oto-tomare-2nd-season-dublado-todos-os-episodios",
      "texto_original": "Kono Oto Tomare! 2nd Season (Dublado)",
      "rating": 8.42,
      "classificacao_etaria": "A14",
      "imagem_original": "https://animefire.plus/img/animes/kono-oto-tomare-2nd-season.webp",
      "imagem_pasta": "https://animefire.plus/img/animes/kono-oto-tomare-2nd-season/",
      "secao": "dublados,legendados",
      "pagina": 13,
      "total_episodios": 13,
      "link_video": "https://animefire.plus/video/kono-oto-tomare-2nd-season-dublado"
    },
    {
      "id": 2085,
      "nome": "Kono Sekai wa Fukanzen Sugiru",
      "link": "https://animefire.plus/animes/kono-sekai-wa-fukanzen-sugiru-todos-os-episodios",
      "texto_original": "Kono Sekai wa Fukanzen Sugiru",
      "rating": 6.53,
      "classificacao_etaria": "A14",
      "imagem_original": "https://animefire.plus/img/animes/kono-sekai-wa-fukanzen-sugiru.webp",
      "imagem_pasta": "https://animefire.plus/img/animes/kono-sekai-wa-fukanzen-sugiru/",
      "secao": "legendados",
      "pagina": 12,
      "total_episodios": 13,
      "link_video": "https://animefire.plus/video/kono-sekai-wa-fukanzen-sugiru"
    },
    {
      "id": 2112,
      "nome": "Koukyuu no Karasu",
      "link": "https://animefire.plus/animes/koukyuu-no-karasu-todos-os-episodios",
      "texto_original": "Koukyuu no Karasu",
      "rating": 7.54,
      "classificacao_etaria": "A14",
      "imagem_original": "https://animefire.plus/img/animes/koukyuu-no-karasu.webp",
      "imagem_pasta": "https://animefire.plus/img/animes/koukyuu-no-karasu/",
      "secao": "legendados",
      "pagina": 29,
      "total_episodios": 13,
      "link_video": "https://animefire.plus/video/koukyuu-no-karasu"
    },
    {
      "id": 2118,
      "nome": "Koutetsushin Jeeg",
      "link": "https://animefire.plus/animes/koutetsushin-jeeg-todos-os-episodios",
      "texto_original": "Koutetsushin Jeeg",
      "rating": 7.02,
      "classificacao_etaria": "A14",
      "imagem_original": "https://animefire.plus/img/animes/koutetsushin-jeeg.webp",
      "imagem_pasta": "https://animefire.plus/img/animes/koutetsushin-jeeg/",
      "secao": "legendados",
      "pagina": 125,
      "total_episodios": 13,
      "link_video": "https://animefire.plus/video/koutetsushin-jeeg"
    },
    {
      "id": 2120,
      "nome": "Kowabon",
      "link": "https://animefire.plus/animes/kowabon-todos-os-episodios",
      "texto_original": "Kowabon",
      "rating": 5.25,
      "classificacao_etaria": "A14",
      "imagem_original": "https://animefire.plus/img/animes/kowabon.webp",
      "imagem_pasta": "https://animefire.plus/img/animes/kowabon/",
      "secao": "legendados",
      "pagina": 59,
      "total_episodios": 13,
      "link_video": "https://animefire.plus/video/kowabon"
    },
    {
      "id": 2121,
      "nome": "Kowloon Generic Romance",
      "link": "https://animefire.plus/animes/kowloon-generic-romance-todos-os-episodios",
      "texto_original": "Kowloon Generic Romance",
      "rating": 7.39,
      "classificacao_etaria": "A14",
      "imagem_original": "https://animefire.plus/img/animes/kowloon-generic-romance.webp",
      "imagem_pasta": "https://animefire.plus/img/animes/kowloon-generic-romance/",
      "secao": "legendados",
      "pagina": 5,
      "total_episodios": 13,
      "link_video": "https://animefire.plus/video/kowloon-generic-romance"
    },
    {
      "id": 2123,
      "nome": "Ku Pao Ying Xiong",
      "link": "https://animefire.plus/animes/ku-pao-ying-xiong-todos-os-episodios",
      "texto_original": "Ku Pao Ying Xiong",
      "rating": 5.9,
      "classificacao_etaria": null,
      "imagem_original": "https://animefire.plus/img/animes/ku-pao-ying-xiong.webp",
      "imagem_pasta": "https://animefire.plus/img/animes/ku-pao-ying-xiong/",
      "secao": "legendados",
      "pagina": 86,
      "total_episodios": 13,
      "link_video": "https://animefire.plus/video/ku-pao-ying-xiong"
    },
    {
      "id": 2135,
      "nome": "Kumo Desu ga, Nani ka? (Dublado)",
      "link": "https://animefire.plus/animes/kumo-desu-ga-nani-ka-dublado-todos-os-episodios",
      "texto_original": "Kumo Desu ga, Nani ka? (Dublado)",
      "rating": 7.45,
      "classificacao_etaria": "A14",
      "imagem_original": "https://animefire.plus/img/animes/kumo-desu-ga-nani-ka.webp",
      "imagem_pasta": "https://animefire.plus/img/animes/kumo-desu-ga-nani-ka/",
      "secao": "dublados,legendados,lancamentos",
      "pagina": 18,
      "total_episodios": 24,
      "link_video": "https://animefire.plus/video/kumo-desu-ga-nani-ka-dublado"
    },
    {
      "id": 2136,
      "nome": "Kunoichi Tsubaki no Mune no Uchi",
      "link": "https://animefire.plus/animes/kunoichi-tsubaki-no-mune-no-uchi-todos-os-episodios",
      "texto_original": "Kunoichi Tsubaki no Mune no Uchi",
      "rating": 7.1,
      "classificacao_etaria": "A14",
      "imagem_original": "https://animefire.plus/img/animes/kunoichi-tsubaki-no-mune-no-uchi.webp",
      "imagem_pasta": "https://animefire.plus/img/animes/kunoichi-tsubaki-no-mune-no-uchi/",
      "secao": "legendados",
      "pagina": 33,
      "total_episodios": 13,
      "link_video": "https://animefire.plus/video/kunoichi-tsubaki-no-mune-no-uchi"
    },
    {
      "id": 2140,
      "nome": "Kurau Phantom Memory",
      "link": "https://animefire.plus/animes/kurau-phantom-memory-todos-os-episodios",
      "texto_original": "Kurau Phantom Memory",
      "rating": 7.4,
      "classificacao_etaria": "A14",
      "imagem_original": "https://animefire.plus/img/animes/kurau-phantom-memory.webp",
      "imagem_pasta": "https://animefire.plus/img/animes/kurau-phantom-memory/",
      "secao": "legendados",
      "pagina": 178,
      "total_episodios": 24,
      "link_video": "https://animefire.plus/video/kurau-phantom-memory"
    },
    {
      "id": 2147,
      "nome": "Kurogane no Linebarrels",
      "link": "https://animefire.plus/animes/kurogane-no-linebarrels-todos-os-episodios",
      "texto_original": "Kurogane no Linebarrels",
      "rating": 7.01,
      "classificacao_etaria": "A16",
      "imagem_original": "https://animefire.plus/img/animes/kurogane-no-linebarrels.webp",
      "imagem_pasta": "https://animefire.plus/img/animes/kurogane-no-linebarrels/",
      "secao": "legendados",
      "pagina": 115,
      "total_episodios": 24,
      "link_video": "https://animefire.plus/video/kurogane-no-linebarrels"
    },
    {
      "id": 2149,
      "nome": "Kurokami The Animation",
      "link": "https://animefire.plus/animes/kurokami-the-animation-todos-os-episodios",
      "texto_original": "Kurokami The Animation",
      "rating": 7.22,
      "classificacao_etaria": "A16",
      "imagem_original": "https://animefire.plus/img/animes/kurokami-the-animation.webp",
      "imagem_pasta": "https://animefire.plus/img/animes/kurokami-the-animation/",
      "secao": "legendados",
      "pagina": 177,
      "total_episodios": 23,
      "link_video": "https://animefire.plus/video/kurokami-the-animation"
    },
    {
      "id": 2163,
      "nome": "Kuroshitsuji: Midori no Majo-hen",
      "link": "https://animefire.plus/animes/kuroshitsuji-midori-no-majo-hen-todos-os-episodios",
      "texto_original": "Kuroshitsuji: Midori no Majo-hen",
      "rating": 8.18,
      "classificacao_etaria": "A16",
      "imagem_original": "https://animefire.plus/img/animes/kuroshitsuji-midori-no-majo-hen.webp",
      "imagem_pasta": "https://animefire.plus/img/animes/kuroshitsuji-midori-no-majo-hen/",
      "secao": "legendados",
      "pagina": 6,
      "total_episodios": 13,
      "link_video": "https://animefire.plus/video/kuroshitsuji-midori-no-majo-hen"
    },
    {
      "id": 2165,
      "nome": "Kusuriya no Hitorigoto (Dublado)",
      "link": "https://animefire.plus/animes/kusuriya-no-hitorigoto-dublado-todos-os-episodios",
      "texto_original": "Kusuriya no Hitorigoto (Dublado)",
      "rating": 8.87,
      "classificacao_etaria": "A14",
      "imagem_original": "https://animefire.plus/img/animes/kusuriya-no-hitorigoto.webp",
      "imagem_pasta": "https://animefire.plus/img/animes/kusuriya-no-hitorigoto/",
      "secao": "dublados,legendados,lancamentos",
      "pagina": 3,
      "total_episodios": 24,
      "link_video": "https://animefire.plus/video/kusuriya-no-hitorigoto-dublado"
    },
    {
      "id": 2166,
      "nome": "Kusuriya no Hitorigoto 2nd Season",
      "link": "https://animefire.plus/animes/kusuriya-no-hitorigoto-2nd-season-todos-os-episodios",
      "texto_original": "Kusuriya no Hitorigoto 2nd Season",
      "rating": 8.92,
      "classificacao_etaria": "A14",
      "imagem_original": "https://animefire.plus/img/animes/kusuriya-no-hitorigoto-2nd-season.webp",
      "imagem_pasta": "https://animefire.plus/img/animes/kusuriya-no-hitorigoto-2nd-season/",
      "secao": "legendados",
      "pagina": 6,
      "total_episodios": 24,
      "link_video": "https://animefire.plus/video/kusuriya-no-hitorigoto-2nd-season"
    },
    {
      "id": 2181,
      "nome": "Kyou no Asuka Show",
      "link": "https://animefire.plus/animes/kyou-no-asuka-show-todos-os-episodios",
      "texto_original": "Kyou no Asuka Show",
      "rating": 6.57,
      "classificacao_etaria": "A14",
      "imagem_original": "https://animefire.plus/img/animes/kyou-no-asuka-show.webp",
      "imagem_pasta": "https://animefire.plus/img/animes/kyou-no-asuka-show/",
      "secao": "legendados",
      "pagina": 12,
      "total_episodios": 20,
      "link_video": "https://animefire.plus/video/kyou-no-asuka-show"
    },
    {
      "id": 2182,
      "nome": "Kyougoku Natsuhiko: Kousetsu Hyaku Monogatari",
      "link": "https://animefire.plus/animes/kyougoku-natsuhiko-kousetsu-hyaku-monogatari-todos-os-episodios",
      "texto_original": "Kyougoku Natsuhiko: Kousetsu Hyaku Monogatari",
      "rating": 7.2,
      "classificacao_etaria": "A16",
      "imagem_original": "https://animefire.plus/img/animes/kyougoku-natsuhiko-kousetsu-hyaku-monogatari.webp",
      "imagem_pasta": "https://animefire.plus/img/animes/kyougoku-natsuhiko-kousetsu-hyaku-monogatari/",
      "secao": "legendados",
      "pagina": 151,
      "total_episodios": 13,
      "link_video": "https://animefire.plus/video/kyougoku-natsuhiko-kousetsu-hyaku-monogatari"
    },
    {
      "id": 2185,
      "nome": "Kyoukai Senki",
      "link": "https://animefire.plus/animes/kyoukai-senki-todos-os-episodios",
      "texto_original": "Kyoukai Senki",
      "rating": 6.31,
      "classificacao_etaria": "A14",
      "imagem_original": "https://animefire.plus/img/animes/kyoukai-senki.webp",
      "imagem_pasta": "https://animefire.plus/img/animes/kyoukai-senki/",
      "secao": "legendados",
      "pagina": 38,
      "total_episodios": 13,
      "link_video": "https://animefire.plus/video/kyoukai-senki"
    },
    {
      "id": 2188,
      "nome": "Kyoukaisenjou no Horizon",
      "link": "https://animefire.plus/animes/kyoukaisenjou-no-horizon-todos-os-episodios",
      "texto_original": "Kyoukaisenjou no Horizon",
      "rating": 7.19,
      "classificacao_etaria": "A14",
      "imagem_original": "https://animefire.plus/img/animes/kyoukaisenjou-no-horizon.webp",
      "imagem_pasta": "https://animefire.plus/img/animes/kyoukaisenjou-no-horizon/",
      "secao": "legendados",
      "pagina": 171,
      "total_episodios": 13,
      "link_video": "https://animefire.plus/video/kyoukaisenjou-no-horizon"
    }
  ],
  "pagination": {
    "current_page": 20,
    "per_page": 20,
    "total_items": 826,
    "total_pages": 42,
    "has_next": true,
    "has_prev": true
  }
}
