{
  "message": "Animes com 13 a 24 episódios",
  "episode_range": {
    "min": 13,
    "max": 24
  },
  "data": [
    {
      "id": 3119,
      "nome": "Rewrite",
      "link": "https://animefire.plus/animes/rewrite-todos-os-episodios",
      "texto_original": "Rewrite",
      "rating": 6.74,
      "classificacao_etaria": "A14",
      "imagem_original": "https://animefire.plus/img/animes/rewrite.webp",
      "imagem_pasta": "https://animefire.plus/img/animes/rewrite/",
      "secao": "legendados",
      "pagina": 64,
      "total_episodios": 24,
      "link_video": "https://animefire.plus/video/rewrite"
    },
    {
      "id": 3136,
      "nome": "Rizelmine",
      "link": "https://animefire.plus/animes/rizelmine-todos-os-episodios",
      "texto_original": "Rizelmine",
      "rating": 6.6,
      "classificacao_etaria": "A18",
      "imagem_original": "https://animefire.plus/img/animes/rizelmine.webp",
      "imagem_pasta": "https://animefire.plus/img/animes/rizelmine/",
      "secao": "legendados",
      "pagina": 115,
      "total_episodios": 24,
      "link_video": "https://animefire.plus/video/rizelmine"
    },
    {
      "id": 3143,
      "nome": "Rock wa Lady no Tashinami deshite",
      "link": "https://animefire.plus/animes/rock-wa-lady-no-tashinami-deshite-todos-os-episodios",
      "texto_original": "Rock wa Lady no Tashinami deshite",
      "rating": 7.92,
      "classificacao_etaria": "A14",
      "imagem_original": "https://animefire.plus/img/animes/rock-wa-lady-no-tashinami-deshite.webp",
      "imagem_pasta": "https://animefire.plus/img/animes/rock-wa-lady-no-tashinami-deshite/",
      "secao": "legendados",
      "pagina": 5,
      "total_episodios": 13,
      "link_video": "https://animefire.plus/video/rock-wa-lady-no-tashinami-deshite"
    },
    {
      "id": 3154,
      "nome": "Romeo x Juliet",
      "link": "https://animefire.plus/animes/romeo-x-juliet-todos-os-episodios",
      "texto_original": "Romeo x Juliet",
      "rating": 7.76,
      "classificacao_etaria": "A14",
      "imagem_original": "https://animefire.plus/img/animes/romeo-x-juliet.webp",
      "imagem_pasta": "https://animefire.plus/img/animes/romeo-x-juliet/",
      "secao": "legendados",
      "pagina": 133,
      "total_episodios": 24,
      "link_video": "https://animefire.plus/video/romeo-x-juliet"
    },
    {
      "id": 3156,
      "nome": "Rosario to Vampire",
      "link": "https://animefire.plus/animes/rosario-to-vampire-todos-os-episodios",
      "texto_original": "Rosario to Vampire",
      "rating": 7.01,
      "classificacao_etaria": "A18",
      "imagem_original": "https://animefire.plus/img/animes/rosario-to-vampire.webp",
      "imagem_pasta": "https://animefire.plus/img/animes/rosario-to-vampire/",
      "secao": "legendados",
      "pagina": 163,
      "total_episodios": 13,
      "link_video": "https://animefire.plus/video/rosario-to-vampire"
    },
    {
      "id": 3157,
      "nome": "Rosario to Vampire Capu2",
      "link": "https://animefire.plus/animes/rosario-to-vampire-capu2-todos-os-episodios",
      "texto_original": "Rosario to Vampire Capu2",
      "rating": 7.13,
      "classificacao_etaria": "A14",
      "imagem_original": "https://animefire.plus/img/animes/rosario-to-vampire-capu2.webp",
      "imagem_pasta": "https://animefire.plus/img/animes/rosario-to-vampire-capu2/",
      "secao": "legendados",
      "pagina": 144,
      "total_episodios": 13,
      "link_video": "https://animefire.plus/video/rosario-to-vampire-capu2"
    },
    {
      "id": 3163,
      "nome": "Rumiko Takahashi Anthology",
      "link": "https://animefire.plus/animes/rumiko-takahashi-anthology-todos-os-episodios",
      "texto_original": "Rumiko Takahashi Anthology",
      "rating": 7.3,
      "classificacao_etaria": "A14",
      "imagem_original": "https://animefire.plus/img/animes/rumiko-takahashi-anthology.webp",
      "imagem_pasta": "https://animefire.plus/img/animes/rumiko-takahashi-anthology/",
      "secao": "legendados",
      "pagina": 179,
      "total_episodios": 13,
      "link_video": "https://animefire.plus/video/rumiko-takahashi-anthology"
    },
    {
      "id": 3166,
      "nome": "Rurouni Kenshin: Meiji Kenkaku Romantan - Kyoto Douran (Dublado)",
      "link": "https://animefire.plus/animes/rurouni-kenshin-meiji-kenkaku-romantan---kyoto-douran-dublado-todos-os-episodios",
      "texto_original": "Rurouni Kenshin: Meiji Kenkaku Romantan - Kyoto Douran (Dublado)",
      "rating": 7.77,
      "classificacao_etaria": "A16",
      "imagem_original": "https://animefire.plus/img/animes/rurouni-kenshin-meiji-kenkaku-romantan---kyoto-douran.webp",
      "imagem_pasta": "https://animefire.plus/img/animes/rurouni-kenshin-meiji-kenkaku-romantan---kyoto-douran/",
      "secao": "dublados,legendados,lancamentos",
      "pagina": 2,
      "total_episodios": 23,
      "link_video": "https://animefire.plus/video/rurouni-kenshin-meiji-kenkaku-romantan---kyoto-douran-dublado"
    },
    {
      "id": 3167,
      "nome": "Rurouni Kenshin: Meiji Kenkaku Romantan (2023) (Dublado)",
      "link": "https://animefire.plus/animes/rurouni-kenshin-meiji-kenkaku-romantan-2023-dublado-todos-os-episodios",
      "texto_original": "Rurouni Kenshin: Meiji Kenkaku Romantan (2023) (Dublado)",
      "rating": 7.63,
      "classificacao_etaria": "A14",
      "imagem_original": "https://animefire.plus/img/animes/rurouni-kenshin-meiji-kenkaku-romantan-2023.webp",
      "imagem_pasta": "https://animefire.plus/img/animes/rurouni-kenshin-meiji-kenkaku-romantan-2023/",
      "secao": "dublados,legendados",
      "pagina": 6,
      "total_episodios": 24,
      "link_video": "https://animefire.plus/video/rurouni-kenshin-meiji-kenkaku-romantan-2023-dublado"
    },
    {
      "id": 3182,
      "nome": "Saber Marionette J (Dublado)",
      "link": "https://animefire.plus/animes/saber-marionette-j-dublado-todos-os-episodios",
      "texto_original": "Saber Marionette J (Dublado)",
      "rating": 7.37,
      "classificacao_etaria": "A14",
      "imagem_original": "https://animefire.plus/img/animes/saber-marionette-j.webp",
      "imagem_pasta": "https://animefire.plus/img/animes/saber-marionette-j/",
      "secao": "dublados,legendados",
      "pagina": 21,
      "total_episodios": 24,
      "link_video": "https://animefire.plus/video/saber-marionette-j-dublado"
    },
    {
      "id": 3186,
      "nome": "Saenai Heroine no Sodatekata",
      "link": "https://animefire.plus/animes/saekano-how-to-raise-a-boring-girlfriend-todos-os-episodios",
      "texto_original": "Saenai Heroine no Sodatekata",
      "rating": 7.58,
      "classificacao_etaria": "A14",
      "imagem_original": "https://animefire.plus/img/animes/saekano-how-to-raise-a-boring-girlfriend.webp",
      "imagem_pasta": "https://animefire.plus/img/animes/saekano-how-to-raise-a-boring-girlfriend/",
      "secao": "legendados",
      "pagina": 62,
      "total_episodios": 13,
      "link_video": "https://animefire.plus/video/saekano-how-to-raise-a-boring-girlfriend"
    },
    {
      "id": 3193,
      "nome": "Saiki Kusuo no Ψ-nan 2",
      "link": "https://animefire.plus/animes/saiki-kusuo-no--nan-2-todos-os-episodios",
      "texto_original": "Saiki Kusuo no Ψ-nan 2",
      "rating": 8.54,
      "classificacao_etaria": "A14",
      "imagem_original": "https://animefire.plus/img/animes/saiki-kusuo-no--nan-2.webp",
      "imagem_pasta": "https://animefire.plus/img/animes/saiki-kusuo-no--nan-2/",
      "secao": "legendados",
      "pagina": 58,
      "total_episodios": 24,
      "link_video": "https://animefire.plus/video/saiki-kusuo-no--nan-2"
    },
    {
      "id": 3200,
      "nome": "Saikyou Onmyouji no Isekai Tenseiki",
      "link": "https://animefire.plus/animes/saikyou-onmyouji-no-isekai-tenseiki-todos-os-episodios",
      "texto_original": "Saikyou Onmyouji no Isekai Tenseiki",
      "rating": 7.11,
      "classificacao_etaria": "A14",
      "imagem_original": "https://animefire.plus/img/animes/saikyou-onmyouji-no-isekai-tenseiki.webp",
      "imagem_pasta": "https://animefire.plus/img/animes/saikyou-onmyouji-no-isekai-tenseiki/",
      "secao": "legendados",
      "pagina": 27,
      "total_episodios": 13,
      "link_video": "https://animefire.plus/video/saikyou-onmyouji-no-isekai-tenseiki"
    },
    {
      "id": 3202,
      "nome": "Sailor Victory",
      "link": "https://animefire.plus/animes/sailor-victory-todos-os-episodios",
      "texto_original": "Sailor Victory",
      "rating": 5.88,
      "classificacao_etaria": "A18",
      "imagem_original": "https://animefire.plus/img/animes/sailor-victory.webp",
      "imagem_pasta": "https://animefire.plus/img/animes/sailor-victory/",
      "secao": "legendados",
      "pagina": 145,
      "total_episodios": 13,
      "link_video": "https://animefire.plus/video/sailor-victory"
    },
    {
      "id": 3203,
      "nome": "Saint Beast: Kouin Jojishi Tenshi Tan",
      "link": "https://animefire.plus/animes/saint-beast-kouin-jojishi-tenshi-tan-todos-os-episodios",
      "texto_original": "Saint Beast: Kouin Jojishi Tenshi Tan",
      "rating": 6.42,
      "classificacao_etaria": "A14",
      "imagem_original": "https://animefire.plus/img/animes/saint-beast-kouin-jojishi-tenshi-tan.webp",
      "imagem_pasta": "https://animefire.plus/img/animes/saint-beast-kouin-jojishi-tenshi-tan/",
      "secao": "legendados",
      "pagina": 102,
      "total_episodios": 13,
      "link_video": "https://animefire.plus/video/saint-beast-kouin-jojishi-tenshi-tan"
    },
    {
      "id": 3211,
      "nome": "Saint Seiya: Soul of Gold (Dublado)",
      "link": "https://animefire.plus/animes/saint-seiya-soul-of-gold-dublado-todos-os-episodios",
      "texto_original": "Saint Seiya: Soul of Gold (Dublado)",
      "rating": 7.07,
      "classificacao_etaria": "A14",
      "imagem_original": "https://animefire.plus/img/animes/saint-seiya-soul-of-gold.webp",
      "imagem_pasta": "https://animefire.plus/img/animes/saint-seiya-soul-of-gold/",
      "secao": "dublados",
      "pagina": 20,
      "total_episodios": 13,
      "link_video": "https://animefire.plus/video/saint-seiya-soul-of-gold-dublado"
    },
    {
      "id": 3212,
      "nome": "Saint Seiya: The Lost Canvas - Meiou Shinwa (Dublado)",
      "link": "https://animefire.plus/animes/saint-seiya-the-lost-canvas---meiou-shinwa-dublado-todos-os-episodios",
      "texto_original": "Saint Seiya: The Lost Canvas - Meiou Shinwa (Dublado)",
      "rating": 7.98,
      "classificacao_etaria": "A14",
      "imagem_original": "https://animefire.plus/img/animes/saint-seiya-the-lost-canvas---meiou-shinwa.webp",
      "imagem_pasta": "https://animefire.plus/img/animes/saint-seiya-the-lost-canvas---meiou-shinwa/",
      "secao": "dublados,legendados",
      "pagina": 17,
      "total_episodios": 13,
      "link_video": "https://animefire.plus/video/saint-seiya-the-lost-canvas---meiou-shinwa-dublado"
    },
    {
      "id": 3213,
      "nome": "Saint Seiya: The Lost Canvas - Meiou Shinwa 2 (Dublado)",
      "link": "https://animefire.plus/animes/saint-seiya-the-lost-canvas---meiou-shinwa-2-dublado-todos-os-episodios",
      "texto_original": "Saint Seiya: The Lost Canvas - Meiou Shinwa 2 (Dublado)",
      "rating": 8.1,
      "classificacao_etaria": "A14",
      "imagem_original": "https://animefire.plus/img/animes/saint-seiya-the-lost-canvas---meiou-shinwa-2.webp",
      "imagem_pasta": "https://animefire.plus/img/animes/saint-seiya-the-lost-canvas---meiou-shinwa-2/",
      "secao": "dublados,legendados",
      "pagina": 17,
      "total_episodios": 13,
      "link_video": "https://animefire.plus/video/saint-seiya-the-lost-canvas---meiou-shinwa-2-dublado"
    },
    {
      "id": 3214,
      "nome": "Saishuu Heiki Kanojo (Dublado)",
      "link": "https://animefire.plus/animes/saishuu-heiki-kanojo-dublado-todos-os-episodios",
      "texto_original": "Saishuu Heiki Kanojo (Dublado)",
      "rating": 7.2,
      "classificacao_etaria": "A16",
      "imagem_original": "https://animefire.plus/img/animes/saishuu-heiki-kanojo.webp",
      "imagem_pasta": "https://animefire.plus/img/animes/saishuu-heiki-kanojo/",
      "secao": "dublados,legendados",
      "pagina": 25,
      "total_episodios": 13,
      "link_video": "https://animefire.plus/video/saishuu-heiki-kanojo-dublado"
    },
    {
      "id": 3222,
      "nome": "Saiyuuki Reload: Zeroin",
      "link": "https://animefire.plus/animes/saiyuuki-reload-zeroin-todos-os-episodios",
      "texto_original": "Saiyuuki Reload: Zeroin",
      "rating": 6.65,
      "classificacao_etaria": "A14",
      "imagem_original": "https://animefire.plus/img/animes/saiyuuki-reload-zeroin.webp",
      "imagem_pasta": "https://animefire.plus/img/animes/saiyuuki-reload-zeroin/",
      "secao": "legendados",
      "pagina": 35,
      "total_episodios": 13,
      "link_video": "https://animefire.plus/video/saiyuuki-reload-zeroin"
    }
  ],
  "pagination": {
    "current_page": 29,
    "per_page": 20,
    "total_items": 826,
    "total_pages": 42,
    "has_next": true,
    "has_prev": true
  }
}
