{
  "message": "Animes com 13 a 24 episódios",
  "episode_range": {
    "min": 13,
    "max": 24
  },
  "data": [
    {
      "id": 2664,
      "nome": "Nanatsu no Taizai: Fundo no Shinpan (Dublado)",
      "link": "https://animefire.plus/animes/nanatsu-no-taizai-fundo-no-shinpan-dublado-todos-os-episodios",
      "texto_original": "Nanatsu no Taizai: Fundo no Shinpan (Dublado)",
      "rating": 6.57,
      "classificacao_etaria": "A14",
      "imagem_original": "https://animefire.plus/img/animes/nanatsu-no-taizai-fundo-no-shinpan.webp",
      "imagem_pasta": "https://animefire.plus/img/animes/nanatsu-no-taizai-fundo-no-shinpan/",
      "secao": "dublados,legendados,lancamentos",
      "pagina": 16,
      "total_episodios": 24,
      "link_video": "https://animefire.plus/video/nanatsu-no-taizai-fundo-no-shinpan-dublado"
    },
    {
      "id": 2665,
      "nome": "Nanatsu no Taizai: Imashime no Fukkatsu (Dublado)",
      "link": "https://animefire.plus/animes/nanatsu-no-taizai-imashime-no-fukkatsu-dublado-todos-os-episodios",
      "texto_original": "Nanatsu no Taizai: Imashime no Fukkatsu (Dublado)",
      "rating": 8.22,
      "classificacao_etaria": "A14",
      "imagem_original": "https://animefire.plus/img/animes/nanatsu-no-taizai-imashime-no-fukkatsu.webp",
      "imagem_pasta": "https://animefire.plus/img/animes/nanatsu-no-taizai-imashime-no-fukkatsu/",
      "secao": "dublados,legendados",
      "pagina": 26,
      "total_episodios": 24,
      "link_video": "https://animefire.plus/video/nanatsu-no-taizai-imashime-no-fukkatsu-dublado"
    },
    {
      "id": 2666,
      "nome": "Nanatsu no Taizai: Kamigami no Gekirin (Dublado)",
      "link": "https://animefire.plus/animes/nanatsu-no-taizai-kamigami-no-gekirin-dublado-todos-os-episodios",
      "texto_original": "Nanatsu no Taizai: Kamigami no Gekirin (Dublado)",
      "rating": 6.38,
      "classificacao_etaria": "A14",
      "imagem_original": "https://animefire.plus/img/animes/nanatsu-no-taizai-kamigami-no-gekirin.webp",
      "imagem_pasta": "https://animefire.plus/img/animes/nanatsu-no-taizai-kamigami-no-gekirin/",
      "secao": "dublados,legendados",
      "pagina": 19,
      "total_episodios": 24,
      "link_video": "https://animefire.plus/video/nanatsu-no-taizai-kamigami-no-gekirin-dublado"
    },
    {
      "id": 2667,
      "nome": "Nanatsu no Taizai: Mokushiroku no Yonkishi (Dublado)",
      "link": "https://animefire.plus/animes/nanatsu-no-taizai-mokushiroku-no-yonkishi-dublado-todos-os-episodios",
      "texto_original": "Nanatsu no Taizai: Mokushiroku no Yonkishi (Dublado)",
      "rating": 7.26,
      "classificacao_etaria": "A14",
      "imagem_original": "https://animefire.plus/img/animes/nanatsu-no-taizai-mokushiroku-no-yonkishi.webp",
      "imagem_pasta": "https://animefire.plus/img/animes/nanatsu-no-taizai-mokushiroku-no-yonkishi/",
      "secao": "dublados,legendados",
      "pagina": 3,
      "total_episodios": 24,
      "link_video": "https://animefire.plus/video/nanatsu-no-taizai-mokushiroku-no-yonkishi-dublado"
    },
    {
      "id": 2670,
      "nome": "Nanbaka",
      "link": "https://animefire.plus/animes/nanbaka-todos-os-episodios",
      "texto_original": "Nanbaka",
      "rating": 7.41,
      "classificacao_etaria": "A14",
      "imagem_original": "https://animefire.plus/img/animes/nanbaka.webp",
      "imagem_pasta": "https://animefire.plus/img/animes/nanbaka/",
      "secao": "legendados",
      "pagina": 95,
      "total_episodios": 13,
      "link_video": "https://animefire.plus/video/nanbaka"
    },
    {
      "id": 2677,
      "nome": "Narutaru: Mukuro Naru Hoshi Tama Taru Ko",
      "link": "https://animefire.plus/animes/narutaru-mukuro-naru-hoshi-tama-taru-ko-todos-os-episodios",
      "texto_original": "Narutaru: Mukuro Naru Hoshi Tama Taru Ko",
      "rating": 6.15,
      "classificacao_etaria": "A16",
      "imagem_original": "https://animefire.plus/img/animes/narutaru-mukuro-naru-hoshi-tama-taru-ko.webp",
      "imagem_pasta": "https://animefire.plus/img/animes/narutaru-mukuro-naru-hoshi-tama-taru-ko/",
      "secao": "legendados",
      "pagina": 177,
      "total_episodios": 13,
      "link_video": "https://animefire.plus/video/narutaru-mukuro-naru-hoshi-tama-taru-ko"
    },
    {
      "id": 2682,
      "nome": "Natsu no Arashi!",
      "link": "https://animefire.plus/animes/natsu-no-arashi-todos-os-episodios",
      "texto_original": "Natsu no Arashi!",
      "rating": 7.33,
      "classificacao_etaria": "A14",
      "imagem_original": "https://animefire.plus/img/animes/natsu-no-arashi.webp",
      "imagem_pasta": "https://animefire.plus/img/animes/natsu-no-arashi/",
      "secao": "legendados",
      "pagina": 128,
      "total_episodios": 13,
      "link_video": "https://animefire.plus/video/natsu-no-arashi"
    },
    {
      "id": 2683,
      "nome": "Natsu no Arashi! Akinaichuu",
      "link": "https://animefire.plus/animes/natsu-no-arashi-akinaichuu-todos-os-episodios",
      "texto_original": "Natsu no Arashi! Akinaichuu",
      "rating": 7.38,
      "classificacao_etaria": "A14",
      "imagem_original": "https://animefire.plus/img/animes/natsu-no-arashi-akinaichuu.webp",
      "imagem_pasta": "https://animefire.plus/img/animes/natsu-no-arashi-akinaichuu/",
      "secao": "legendados",
      "pagina": 164,
      "total_episodios": 13,
      "link_video": "https://animefire.plus/video/natsu-no-arashi-akinaichuu"
    },
    {
      "id": 2685,
      "nome": "Natsume Yuujinchou",
      "link": "https://animefire.plus/animes/natsume-yuujinchou-todos-os-episodios",
      "texto_original": "Natsume Yuujinchou",
      "rating": 8.38,
      "classificacao_etaria": "A14",
      "imagem_original": "https://animefire.plus/img/animes/natsume-yuujinchou.webp",
      "imagem_pasta": "https://animefire.plus/img/animes/natsume-yuujinchou/",
      "secao": "legendados",
      "pagina": 104,
      "total_episodios": 13,
      "link_video": "https://animefire.plus/video/natsume-yuujinchou"
    },
    {
      "id": 2690,
      "nome": "Natsume Yuujinchou San",
      "link": "https://animefire.plus/animes/natsume-yuujinchou-san-todos-os-episodios",
      "texto_original": "Natsume Yuujinchou San",
      "rating": 8.62,
      "classificacao_etaria": "A14",
      "imagem_original": "https://animefire.plus/img/animes/natsume-yuujinchou-san.webp",
      "imagem_pasta": "https://animefire.plus/img/animes/natsume-yuujinchou-san/",
      "secao": "legendados",
      "pagina": 74,
      "total_episodios": 13,
      "link_video": "https://animefire.plus/video/natsume-yuujinchou-san"
    },
    {
      "id": 2691,
      "nome": "Natsume Yuujinchou Shi",
      "link": "https://animefire.plus/animes/natsume-yuujinchou-shi-todos-os-episodios",
      "texto_original": "Natsume Yuujinchou Shi",
      "rating": 8.7,
      "classificacao_etaria": "A14",
      "imagem_original": "https://animefire.plus/img/animes/natsume-yuujinchou-shi.webp",
      "imagem_pasta": "https://animefire.plus/img/animes/natsume-yuujinchou-shi/",
      "secao": "legendados",
      "pagina": 90,
      "total_episodios": 13,
      "link_video": "https://animefire.plus/video/natsume-yuujinchou-shi"
    },
    {
      "id": 2703,
      "nome": "Needless",
      "link": "https://animefire.plus/animes/needless-todos-os-episodios",
      "texto_original": "Needless",
      "rating": 7.35,
      "classificacao_etaria": "A16",
      "imagem_original": "https://animefire.plus/img/animes/needless.webp",
      "imagem_pasta": "https://animefire.plus/img/animes/needless/",
      "secao": "legendados",
      "pagina": 116,
      "total_episodios": 24,
      "link_video": "https://animefire.plus/video/needless"
    },
    {
      "id": 2704,
      "nome": "NEET Kunoichi to Nazeka Dousei Hajimemashita",
      "link": "https://animefire.plus/animes/neet-kunoichi-to-nazeka-dousei-hajimemashita-todos-os-episodios",
      "texto_original": "NEET Kunoichi to Nazeka Dousei Hajimemashita",
      "rating": 6.12,
      "classificacao_etaria": "A14",
      "imagem_original": "https://animefire.plus/img/animes/neet-kunoichi-to-nazeka-dousei-hajimemashita.webp",
      "imagem_pasta": "https://animefire.plus/img/animes/neet-kunoichi-to-nazeka-dousei-hajimemashita/",
      "secao": "legendados,lancamentos",
      "pagina": 8,
      "total_episodios": 13,
      "link_video": "https://animefire.plus/video/neet-kunoichi-to-nazeka-dousei-hajimemashita"
    },
    {
      "id": 2714,
      "nome": "Neo Angelique Abyss: Second Age",
      "link": "https://animefire.plus/animes/neo-angelique-abyss-second-age-todos-os-episodios",
      "texto_original": "Neo Angelique Abyss: Second Age",
      "rating": 7.14,
      "classificacao_etaria": "A14",
      "imagem_original": "https://animefire.plus/img/animes/neo-angelique-abyss-second-age.webp",
      "imagem_pasta": "https://animefire.plus/img/animes/neo-angelique-abyss-second-age/",
      "secao": "legendados",
      "pagina": 133,
      "total_episodios": 13,
      "link_video": "https://animefire.plus/video/neo-angelique-abyss-second-age"
    },
    {
      "id": 2723,
      "nome": "NHK ni Youkoso!",
      "link": "https://animefire.plus/animes/nhk-ni-youkoso-todos-os-episodios",
      "texto_original": "NHK ni Youkoso!",
      "rating": 8.36,
      "classificacao_etaria": "A18",
      "imagem_original": "https://animefire.plus/img/animes/nhk-ni-youkoso.webp",
      "imagem_pasta": "https://animefire.plus/img/animes/nhk-ni-youkoso/",
      "secao": "legendados",
      "pagina": 145,
      "total_episodios": 24,
      "link_video": "https://animefire.plus/video/nhk-ni-youkoso"
    },
    {
      "id": 2726,
      "nome": "Niehime to Kemono no Ou",
      "link": "https://animefire.plus/animes/niehime-to-kemono-no-ou-todos-os-episodios",
      "texto_original": "Niehime to Kemono no Ou",
      "rating": 7.93,
      "classificacao_etaria": "A14",
      "imagem_original": "https://animefire.plus/img/animes/niehime-to-kemono-no-ou.jpg",
      "imagem_pasta": "https://animefire.plus/img/animes/niehime-to-kemono-no-ou/",
      "secao": "legendados",
      "pagina": 23,
      "total_episodios": 24,
      "link_video": "https://animefire.plus/video/niehime-to-kemono-no-ou"
    },
    {
      "id": 2731,
      "nome": "Night Head Genesis",
      "link": "https://animefire.plus/animes/night-head-genesis-todos-os-episodios",
      "texto_original": "Night Head Genesis",
      "rating": 6.83,
      "classificacao_etaria": "A16",
      "imagem_original": "https://animefire.plus/img/animes/night-head-genesis.webp",
      "imagem_pasta": "https://animefire.plus/img/animes/night-head-genesis/",
      "secao": "legendados",
      "pagina": 147,
      "total_episodios": 24,
      "link_video": "https://animefire.plus/video/night-head-genesis"
    },
    {
      "id": 2736,
      "nome": "Nijiiro Days",
      "link": "https://animefire.plus/animes/nijiiro-days-todos-os-episodios",
      "texto_original": "Nijiiro Days",
      "rating": 7.47,
      "classificacao_etaria": "A14",
      "imagem_original": "https://animefire.plus/img/animes/nijiiro-days.webp",
      "imagem_pasta": "https://animefire.plus/img/animes/nijiiro-days/",
      "secao": "legendados",
      "pagina": 113,
      "total_episodios": 16,
      "link_video": "https://animefire.plus/video/nijiiro-days"
    },
    {
      "id": 2739,
      "nome": "Nijuu Mensou no Musume",
      "link": "https://animefire.plus/animes/nijuu-mensou-no-musume-todos-os-episodios",
      "texto_original": "Nijuu Mensou no Musume",
      "rating": 7.61,
      "classificacao_etaria": "A14",
      "imagem_original": "https://animefire.plus/img/animes/nijuu-mensou-no-musume.webp",
      "imagem_pasta": "https://animefire.plus/img/animes/nijuu-mensou-no-musume/",
      "secao": "legendados",
      "pagina": 173,
      "total_episodios": 22,
      "link_video": "https://animefire.plus/video/nijuu-mensou-no-musume"
    },
    {
      "id": 2743,
      "nome": "Ninja Kamui (Dublado)",
      "link": "https://animefire.plus/animes/ninja-kamui-dublado-todos-os-episodios",
      "texto_original": "Ninja Kamui (Dublado)",
      "rating": 6.97,
      "classificacao_etaria": "A16",
      "imagem_original": "https://animefire.plus/img/animes/ninja-kamui.webp",
      "imagem_pasta": "https://animefire.plus/img/animes/ninja-kamui/",
      "secao": "dublados,legendados,lancamentos",
      "pagina": 3,
      "total_episodios": 13,
      "link_video": "https://animefire.plus/video/ninja-kamui-dublado"
    }
  ],
  "pagination": {
    "current_page": 25,
    "per_page": 20,
    "total_items": 826,
    "total_pages": 42,
    "has_next": true,
    "has_prev": true
  }
}
