{
  "message": "Animes com 13 a 24 episódios",
  "episode_range": {
    "min": 13,
    "max": 24
  },
  "data": [
    {
      "id": 2553,
      "nome": "Mobile Suit Gundam-san",
      "link": "https://animefire.plus/animes/mobile-suit-gundam-san-todos-os-episodios",
      "texto_original": "Mobile Suit Gundam-san",
      "rating": 6.21,
      "classificacao_etaria": "A14",
      "imagem_original": "https://animefire.plus/img/animes/mobile-suit-gundam-san.webp",
      "imagem_pasta": "https://animefire.plus/img/animes/mobile-suit-gundam-san/",
      "secao": "legendados",
      "pagina": 101,
      "total_episodios": 13,
      "link_video": "https://animefire.plus/video/mobile-suit-gundam-san"
    },
    {
      "id": 2563,
      "nome": "Mokke",
      "link": "https://animefire.plus/animes/mokke-todos-os-episodios",
      "texto_original": "Mokke",
      "rating": 7.13,
      "classificacao_etaria": "A10",
      "imagem_original": "https://animefire.plus/img/animes/mokke.webp",
      "imagem_pasta": "https://animefire.plus/img/animes/mokke/",
      "secao": "legendados",
      "pagina": 139,
      "total_episodios": 24,
      "link_video": "https://animefire.plus/video/mokke"
    },
    {
      "id": 2564,
      "nome": "Momentary Lily",
      "link": "https://animefire.plus/animes/momentary-lily-todos-os-episodios",
      "texto_original": "Momentary Lily",
      "rating": 5.92,
      "classificacao_etaria": "A14",
      "imagem_original": "https://animefire.plus/img/animes/momentary-lily.webp",
      "imagem_pasta": "https://animefire.plus/img/animes/momentary-lily/",
      "secao": "legendados",
      "pagina": 7,
      "total_episodios": 14,
      "link_video": "https://animefire.plus/video/momentary-lily"
    },
    {
      "id": 2573,
      "nome": "Monochrome Factor",
      "link": "https://animefire.plus/animes/monochrome-factor-todos-os-episodios",
      "texto_original": "Monochrome Factor",
      "rating": 7.07,
      "classificacao_etaria": "A14",
      "imagem_original": "https://animefire.plus/img/animes/monochrome-factor.webp",
      "imagem_pasta": "https://animefire.plus/img/animes/monochrome-factor/",
      "secao": "legendados",
      "pagina": 176,
      "total_episodios": 24,
      "link_video": "https://animefire.plus/video/monochrome-factor"
    },
    {
      "id": 2574,
      "nome": "Monogatari Series: Off & Monster Season",
      "link": "https://animefire.plus/animes/monogatari-series-off-monster-season-todos-os-episodios",
      "texto_original": "Monogatari Series: Off & Monster Season",
      "rating": 8.66,
      "classificacao_etaria": "A16",
      "imagem_original": "https://animefire.plus/img/animes/monogatari-series-off-monster-season.webp",
      "imagem_pasta": "https://animefire.plus/img/animes/monogatari-series-off-monster-season/",
      "secao": "legendados",
      "pagina": 11,
      "total_episodios": 14,
      "link_video": "https://animefire.plus/video/monogatari-series-off-monster-season"
    },
    {
      "id": 2576,
      "nome": "Mononogatari",
      "link": "https://animefire.plus/animes/mononogatari-todos-os-episodios",
      "texto_original": "Mononogatari",
      "rating": 7.25,
      "classificacao_etaria": "A14",
      "imagem_original": "https://animefire.plus/img/animes/mononogatari.webp",
      "imagem_pasta": "https://animefire.plus/img/animes/mononogatari/",
      "secao": "legendados,lancamentos",
      "pagina": 25,
      "total_episodios": 24,
      "link_video": "https://animefire.plus/video/mononogatari"
    },
    {
      "id": 2580,
      "nome": "Monster Farm: Enbanseki no Himitsu",
      "link": "https://animefire.plus/animes/monster-farm-enbanseki-no-himitsu-todos-os-episodios",
      "texto_original": "Monster Farm: Enbanseki no Himitsu",
      "rating": 6.88,
      "classificacao_etaria": "A14",
      "imagem_original": "https://animefire.plus/img/animes/monster-farm-enbanseki-no-himitsu.webp",
      "imagem_pasta": "https://animefire.plus/img/animes/monster-farm-enbanseki-no-himitsu/",
      "secao": "legendados",
      "pagina": 160,
      "total_episodios": 17,
      "link_video": "https://animefire.plus/video/monster-farm-enbanseki-no-himitsu"
    },
    {
      "id": 2591,
      "nome": "Morita-san wa Mukuchi.",
      "link": "https://animefire.plus/animes/miss-morita-is-taciturn-tv-todos-os-episodios",
      "texto_original": "Morita-san wa Mukuchi.",
      "rating": 6.55,
      "classificacao_etaria": "A14",
      "imagem_original": "https://animefire.plus/img/animes/miss-morita-is-taciturn-tv.webp",
      "imagem_pasta": "https://animefire.plus/img/animes/miss-morita-is-taciturn-tv/",
      "secao": "legendados",
      "pagina": 53,
      "total_episodios": 13,
      "link_video": "https://animefire.plus/video/miss-morita-is-taciturn-tv"
    },
    {
      "id": 2592,
      "nome": "Morita-san wa Mukuchi. 2",
      "link": "https://animefire.plus/animes/morita-san-wa-mukuchi-2-todos-os-episodios",
      "texto_original": "Morita-san wa Mukuchi. 2",
      "rating": 6.72,
      "classificacao_etaria": "A14",
      "imagem_original": "https://animefire.plus/img/animes/morita-san-wa-mukuchi-2.webp",
      "imagem_pasta": "https://animefire.plus/img/animes/morita-san-wa-mukuchi-2/",
      "secao": "legendados",
      "pagina": 116,
      "total_episodios": 13,
      "link_video": "https://animefire.plus/video/morita-san-wa-mukuchi-2"
    },
    {
      "id": 2596,
      "nome": "Mou Ippon!",
      "link": "https://animefire.plus/animes/mou-ippon-todos-os-episodios",
      "texto_original": "Mou Ippon!",
      "rating": 7.08,
      "classificacao_etaria": "A14",
      "imagem_original": "https://animefire.plus/img/animes/mou-ippon.webp",
      "imagem_pasta": "https://animefire.plus/img/animes/mou-ippon/",
      "secao": "legendados",
      "pagina": 25,
      "total_episodios": 13,
      "link_video": "https://animefire.plus/video/mou-ippon"
    },
    {
      "id": 2598,
      "nome": "Mouryou no Hako",
      "link": "https://animefire.plus/animes/mouryou-no-hako-todos-os-episodios",
      "texto_original": "Mouryou no Hako",
      "rating": 7.25,
      "classificacao_etaria": "A16",
      "imagem_original": "https://animefire.plus/img/animes/mouryou-no-hako.webp",
      "imagem_pasta": "https://animefire.plus/img/animes/mouryou-no-hako/",
      "secao": "legendados",
      "pagina": 151,
      "total_episodios": 13,
      "link_video": "https://animefire.plus/video/mouryou-no-hako"
    },
    {
      "id": 2600,
      "nome": "Mousou Dairinin",
      "link": "https://animefire.plus/animes/mousou-dairinin-todos-os-episodios",
      "texto_original": "Mousou Dairinin",
      "rating": 7.72,
      "classificacao_etaria": "A18",
      "imagem_original": "https://animefire.plus/img/animes/mousou-dairinin.webp",
      "imagem_pasta": "https://animefire.plus/img/animes/mousou-dairinin/",
      "secao": "legendados",
      "pagina": 111,
      "total_episodios": 13,
      "link_video": "https://animefire.plus/video/mousou-dairinin"
    },
    {
      "id": 2610,
      "nome": "Munou na Nana",
      "link": "https://animefire.plus/animes/munou-na-nana-todos-os-episodios",
      "texto_original": "Munou na Nana",
      "rating": null,
      "classificacao_etaria": "A16",
      "imagem_original": "https://animefire.plus/img/animes/munou-na-nana.webp",
      "imagem_pasta": "https://animefire.plus/img/animes/munou-na-nana/",
      "secao": "legendados",
      "pagina": 52,
      "total_episodios": 13,
      "link_video": "https://animefire.plus/video/munou-na-nana"
    },
    {
      "id": 2630,
      "nome": "Muteki Choujin Zanbot 3",
      "link": "https://animefire.plus/animes/muteki-choujin-zanbot-3-todos-os-episodios",
      "texto_original": "Muteki Choujin Zanbot 3",
      "rating": 6.9,
      "classificacao_etaria": "A14",
      "imagem_original": "https://animefire.plus/img/animes/muteki-choujin-zanbot-3.webp",
      "imagem_pasta": "https://animefire.plus/img/animes/muteki-choujin-zanbot-3/",
      "secao": "legendados",
      "pagina": 54,
      "total_episodios": 23,
      "link_video": "https://animefire.plus/video/muteki-choujin-zanbot-3"
    },
    {
      "id": 2636,
      "nome": "Muv-Luv Alternative: Total Eclipse (Dublado)",
      "link": "https://animefire.plus/animes/muv-luv-alternative-total-eclipse-dublado-todos-os-episodios",
      "texto_original": "Muv-Luv Alternative: Total Eclipse (Dublado)",
      "rating": 7.09,
      "classificacao_etaria": "A18",
      "imagem_original": "https://animefire.plus/img/animes/muv-luv-alternative-total-eclipse.webp",
      "imagem_pasta": "https://animefire.plus/img/animes/muv-luv-alternative-total-eclipse/",
      "secao": "dublados,legendados",
      "pagina": 4,
      "total_episodios": 24,
      "link_video": "https://animefire.plus/video/muv-luv-alternative-total-eclipse-dublado"
    },
    {
      "id": 2638,
      "nome": "Myself; Yourself",
      "link": "https://animefire.plus/animes/myself-yourself-todos-os-episodios",
      "texto_original": "Myself; Yourself",
      "rating": 7.3,
      "classificacao_etaria": "A14",
      "imagem_original": "https://animefire.plus/img/animes/myself-yourself.webp",
      "imagem_pasta": "https://animefire.plus/img/animes/myself-yourself/",
      "secao": "legendados",
      "pagina": 127,
      "total_episodios": 13,
      "link_video": "https://animefire.plus/video/myself-yourself"
    },
    {
      "id": 2643,
      "nome": "Nagato Yuki-chan no Shoushitsu",
      "link": "https://animefire.plus/animes/nagato-yuki-chan-no-shoushitsu-todos-os-episodios",
      "texto_original": "Nagato Yuki-chan no Shoushitsu",
      "rating": 6.74,
      "classificacao_etaria": "A14",
      "imagem_original": "https://animefire.plus/img/animes/nagato-yuki-chan-no-shoushitsu.webp",
      "imagem_pasta": "https://animefire.plus/img/animes/nagato-yuki-chan-no-shoushitsu/",
      "secao": "legendados",
      "pagina": 76,
      "total_episodios": 16,
      "link_video": "https://animefire.plus/video/nagato-yuki-chan-no-shoushitsu"
    },
    {
      "id": 2644,
      "nome": "Nageki no Bourei wa Intai shitai",
      "link": "https://animefire.plus/animes/nageki-no-bourei-wa-intai-shitai-todos-os-episodios",
      "texto_original": "Nageki no Bourei wa Intai shitai",
      "rating": 7.04,
      "classificacao_etaria": "A14",
      "imagem_original": "https://animefire.plus/img/animes/nageki-no-bourei-wa-intai-shitai.webp",
      "imagem_pasta": "https://animefire.plus/img/animes/nageki-no-bourei-wa-intai-shitai/",
      "secao": "legendados",
      "pagina": 11,
      "total_episodios": 13,
      "link_video": "https://animefire.plus/video/nageki-no-bourei-wa-intai-shitai"
    },
    {
      "id": 2657,
      "nome": "Nanatsu no Maken ga Shihai suru",
      "link": "https://animefire.plus/animes/nanatsu-no-maken-ga-shihai-suru-todos-os-episodios",
      "texto_original": "Nanatsu no Maken ga Shihai suru",
      "rating": 6.56,
      "classificacao_etaria": "A14",
      "imagem_original": "https://animefire.plus/img/animes/nanatsu-no-maken-ga-shihai-suru.jpg",
      "imagem_pasta": "https://animefire.plus/img/animes/nanatsu-no-maken-ga-shihai-suru/",
      "secao": "legendados",
      "pagina": 23,
      "total_episodios": 15,
      "link_video": "https://animefire.plus/video/nanatsu-no-maken-ga-shihai-suru"
    },
    {
      "id": 2658,
      "nome": "Nanatsu no Taizai (Dublado)",
      "link": "https://animefire.plus/animes/nanatsu-no-taizai-dublado-todos-os-episodios",
      "texto_original": "Nanatsu no Taizai (Dublado)",
      "rating": 8.18,
      "classificacao_etaria": "A14",
      "imagem_original": "https://animefire.plus/img/animes/nanatsu-no-taizai.webp",
      "imagem_pasta": "https://animefire.plus/img/animes/nanatsu-no-taizai/",
      "secao": "dublados,legendados",
      "pagina": 26,
      "total_episodios": 24,
      "link_video": "https://animefire.plus/video/nanatsu-no-taizai-dublado"
    }
  ],
  "pagination": {
    "current_page": 24,
    "per_page": 20,
    "total_items": 826,
    "total_pages": 42,
    "has_next": true,
    "has_prev": true
  }
}
