{
  "message": "Animes com 13 a 24 episódios",
  "episode_range": {
    "min": 13,
    "max": 24
  },
  "data": [
    {
      "id": 2305,
      "nome": "Magi: Sinbad no Bouken (Dublado)",
      "link": "https://animefire.plus/animes/magi-sinbad-no-bouken-dublado-todos-os-episodios",
      "texto_original": "Magi: Sinbad no Bouken (Dublado)",
      "rating": 7.89,
      "classificacao_etaria": "A14",
      "imagem_original": "https://animefire.plus/img/animes/magi-sinbad-no-bouken.webp",
      "imagem_pasta": "https://animefire.plus/img/animes/magi-sinbad-no-bouken/",
      "secao": "dublados,legendados",
      "pagina": 21,
      "total_episodios": 13,
      "link_video": "https://animefire.plus/video/magi-sinbad-no-bouken-dublado"
    },
    {
      "id": 2314,
      "nome": "Magic Knight Rayearth",
      "link": "https://animefire.plus/animes/magic-knight-rayearth-todos-os-episodios",
      "texto_original": "Magic Knight Rayearth",
      "rating": 7.52,
      "classificacao_etaria": "A14",
      "imagem_original": "https://animefire.plus/img/animes/magic-knight-rayearth.webp",
      "imagem_pasta": "https://animefire.plus/img/animes/magic-knight-rayearth/",
      "secao": "legendados",
      "pagina": 171,
      "total_episodios": 20,
      "link_video": "https://animefire.plus/video/magic-knight-rayearth"
    },
    {
      "id": 2321,
      "nome": "Mahoromatic 2",
      "link": "https://animefire.plus/animes/mahoromatic-2-todos-os-episodios",
      "texto_original": "Mahoromatic 2",
      "rating": 7.23,
      "classificacao_etaria": "A18",
      "imagem_original": "https://animefire.plus/img/animes/mahoromatic-2.webp",
      "imagem_pasta": "https://animefire.plus/img/animes/mahoromatic-2/",
      "secao": "legendados",
      "pagina": 113,
      "total_episodios": 14,
      "link_video": "https://animefire.plus/video/mahoromatic-2"
    },
    {
      "id": 2323,
      "nome": "Mahoromatic: Motto Utsukushii Mono",
      "link": "https://animefire.plus/animes/mahoromatic-motto-utsukushii-mono-todos-os-episodios",
      "texto_original": "Mahoromatic: Motto Utsukushii Mono",
      "rating": 7.2,
      "classificacao_etaria": "A18",
      "imagem_original": "https://animefire.plus/img/animes/mahoromatic-motto-utsukushii-mono.webp",
      "imagem_pasta": "https://animefire.plus/img/animes/mahoromatic-motto-utsukushii-mono/",
      "secao": "legendados",
      "pagina": 70,
      "total_episodios": 14,
      "link_video": "https://animefire.plus/video/mahoromatic-motto-utsukushii-mono"
    },
    {
      "id": 2330,
      "nome": "Mahou Shoujo Lyrical Nanoha",
      "link": "https://animefire.plus/animes/mahou-shoujo-lyrical-nanoha-todos-os-episodios",
      "texto_original": "Mahou Shoujo Lyrical Nanoha",
      "rating": 7.47,
      "classificacao_etaria": "A14",
      "imagem_original": "https://animefire.plus/img/animes/mahou-shoujo-lyrical-nanoha.webp",
      "imagem_pasta": "https://animefire.plus/img/animes/mahou-shoujo-lyrical-nanoha/",
      "secao": "legendados",
      "pagina": 153,
      "total_episodios": 13,
      "link_video": "https://animefire.plus/video/mahou-shoujo-lyrical-nanoha"
    },
    {
      "id": 2331,
      "nome": "Mahou Shoujo Lyrical Nanoha A's",
      "link": "https://animefire.plus/animes/mahou-shoujo-lyrical-nanoha-a-s-todos-os-episodios",
      "texto_original": "Mahou Shoujo Lyrical Nanoha A's",
      "rating": 8.04,
      "classificacao_etaria": "A14",
      "imagem_original": "https://animefire.plus/img/animes/mahou-shoujo-lyrical-nanoha-a-s.webp",
      "imagem_pasta": "https://animefire.plus/img/animes/mahou-shoujo-lyrical-nanoha-a-s/",
      "secao": "legendados",
      "pagina": 147,
      "total_episodios": 13,
      "link_video": "https://animefire.plus/video/mahou-shoujo-lyrical-nanoha-a-s"
    },
    {
      "id": 2338,
      "nome": "Mahou Shoujo ni Akogarete",
      "link": "https://animefire.plus/animes/mahou-shoujo-ni-akogarete-todos-os-episodios",
      "texto_original": "Mahou Shoujo ni Akogarete",
      "rating": 7.62,
      "classificacao_etaria": "A18",
      "imagem_original": "https://animefire.plus/img/animes/mahou-shoujo-ni-akogarete.webp",
      "imagem_pasta": "https://animefire.plus/img/animes/mahou-shoujo-ni-akogarete/",
      "secao": "legendados",
      "pagina": 17,
      "total_episodios": 13,
      "link_video": "https://animefire.plus/video/mahou-shoujo-ni-akogarete"
    },
    {
      "id": 2344,
      "nome": "Mahoujin Guruguru (2017)",
      "link": "https://animefire.plus/animes/mahoujin-guruguru-2017-todos-os-episodios",
      "texto_original": "Mahoujin Guruguru (2017)",
      "rating": 7.89,
      "classificacao_etaria": "A14",
      "imagem_original": "https://animefire.plus/img/animes/mahoujin-guruguru-2017.webp",
      "imagem_pasta": "https://animefire.plus/img/animes/mahoujin-guruguru-2017/",
      "secao": "legendados",
      "pagina": 76,
      "total_episodios": 24,
      "link_video": "https://animefire.plus/video/mahoujin-guruguru-2017"
    },
    {
      "id": 2346,
      "nome": "Mahouka Koukou no Rettousei 3rd Season",
      "link": "https://animefire.plus/animes/mahouka-koukou-no-rettousei-3rd-season-todos-os-episodios",
      "texto_original": "Mahouka Koukou no Rettousei 3rd Season",
      "rating": 7.04,
      "classificacao_etaria": "A16",
      "imagem_original": "https://animefire.plus/img/animes/mahouka-koukou-no-rettousei-3rd-season.webp",
      "imagem_pasta": "https://animefire.plus/img/animes/mahouka-koukou-no-rettousei-3rd-season/",
      "secao": "legendados",
      "pagina": 15,
      "total_episodios": 13,
      "link_video": "https://animefire.plus/video/mahouka-koukou-no-rettousei-3rd-season"
    },
    {
      "id": 2347,
      "nome": "Mahouka Koukou no Rettousei: Raihousha-hen",
      "link": "https://animefire.plus/animes/mahouka-koukou-no-rettousei-raihousha-hen-todos-os-episodios",
      "texto_original": "Mahouka Koukou no Rettousei: Raihousha-hen",
      "rating": null,
      "classificacao_etaria": "A14",
      "imagem_original": "https://animefire.plus/img/animes/mahouka-koukou-no-rettousei-raihousha-hen.webp",
      "imagem_pasta": "https://animefire.plus/img/animes/mahouka-koukou-no-rettousei-raihousha-hen/",
      "secao": "legendados",
      "pagina": 53,
      "total_episodios": 13,
      "link_video": "https://animefire.plus/video/mahouka-koukou-no-rettousei-raihousha-hen"
    },
    {
      "id": 2363,
      "nome": "Mahoutsukai Tai! (TV)",
      "link": "https://animefire.plus/animes/mahoutsukai-tai-tv-todos-os-episodios",
      "texto_original": "Mahoutsukai Tai! (TV)",
      "rating": 6.81,
      "classificacao_etaria": "A14",
      "imagem_original": "https://animefire.plus/img/animes/mahoutsukai-tai-tv.webp",
      "imagem_pasta": "https://animefire.plus/img/animes/mahoutsukai-tai-tv/",
      "secao": "legendados",
      "pagina": 78,
      "total_episodios": 13,
      "link_video": "https://animefire.plus/video/mahoutsukai-tai-tv"
    },
    {
      "id": 2369,
      "nome": "Mairimashita! Iruma-kun (Dublado)",
      "link": "https://animefire.plus/animes/mairimashita-iruma-kun-dublado-todos-os-episodios",
      "texto_original": "Mairimashita! Iruma-kun (Dublado)",
      "rating": 7.75,
      "classificacao_etaria": "A14",
      "imagem_original": "https://animefire.plus/img/animes/mairimashita-iruma-kun.webp",
      "imagem_pasta": "https://animefire.plus/img/animes/mairimashita-iruma-kun/",
      "secao": "dublados,legendados",
      "pagina": 8,
      "total_episodios": 23,
      "link_video": "https://animefire.plus/video/mairimashita-iruma-kun-dublado"
    },
    {
      "id": 2370,
      "nome": "Mairimashita! Iruma-kun 2nd Season (Dublado)",
      "link": "https://animefire.plus/animes/mairimashita-iruma-kun-2nd-season-dublado-todos-os-episodios",
      "texto_original": "Mairimashita! Iruma-kun 2nd Season (Dublado)",
      "rating": 8.02,
      "classificacao_etaria": "A14",
      "imagem_original": "https://animefire.plus/img/animes/mairimashita-iruma-kun-2nd-season.webp",
      "imagem_pasta": "https://animefire.plus/img/animes/mairimashita-iruma-kun-2nd-season/",
      "secao": "dublados,legendados",
      "pagina": 6,
      "total_episodios": 21,
      "link_video": "https://animefire.plus/video/mairimashita-iruma-kun-2nd-season-dublado"
    },
    {
      "id": 2371,
      "nome": "Mairimashita! Iruma-kun 3rd Season (Dublado)",
      "link": "https://animefire.plus/animes/mairimashita-iruma-kun-3rd-season-dublado-todos-os-episodios",
      "texto_original": "Mairimashita! Iruma-kun 3rd Season (Dublado)",
      "rating": 7.82,
      "classificacao_etaria": "A14",
      "imagem_original": "https://animefire.plus/img/animes/mairimashita-iruma-kun-3rd-season.webp",
      "imagem_pasta": "https://animefire.plus/img/animes/mairimashita-iruma-kun-3rd-season/",
      "secao": "dublados,legendados",
      "pagina": 6,
      "total_episodios": 21,
      "link_video": "https://animefire.plus/video/mairimashita-iruma-kun-3rd-season-dublado"
    },
    {
      "id": 2389,
      "nome": "Majutsushi Orphen",
      "link": "https://animefire.plus/animes/majutsushi-orphen-todos-os-episodios",
      "texto_original": "Majutsushi Orphen",
      "rating": 7.26,
      "classificacao_etaria": "A14",
      "imagem_original": "https://animefire.plus/img/animes/majutsushi-orphen.webp",
      "imagem_pasta": "https://animefire.plus/img/animes/majutsushi-orphen/",
      "secao": "legendados",
      "pagina": 152,
      "total_episodios": 24,
      "link_video": "https://animefire.plus/video/majutsushi-orphen"
    },
    {
      "id": 2402,
      "nome": "Mamoru-kun ni Megami no Shukufuku wo!",
      "link": "https://animefire.plus/animes/mamoru-kun-ni-megami-no-shukufuku-wo-todos-os-episodios",
      "texto_original": "Mamoru-kun ni Megami no Shukufuku wo!",
      "rating": 7.14,
      "classificacao_etaria": "A14",
      "imagem_original": "https://animefire.plus/img/animes/mamoru-kun-ni-megami-no-shukufuku-wo.webp",
      "imagem_pasta": "https://animefire.plus/img/animes/mamoru-kun-ni-megami-no-shukufuku-wo/",
      "secao": "legendados",
      "pagina": 153,
      "total_episodios": 24,
      "link_video": "https://animefire.plus/video/mamoru-kun-ni-megami-no-shukufuku-wo"
    },
    {
      "id": 2409,
      "nome": "Maou Dante",
      "link": "https://animefire.plus/animes/maou-dante-todos-os-episodios",
      "texto_original": "Maou Dante",
      "rating": 6.18,
      "classificacao_etaria": "A18",
      "imagem_original": "https://animefire.plus/img/animes/maou-dante.webp",
      "imagem_pasta": "https://animefire.plus/img/animes/maou-dante/",
      "secao": "legendados",
      "pagina": 123,
      "total_episodios": 13,
      "link_video": "https://animefire.plus/video/maou-dante"
    },
    {
      "id": 2428,
      "nome": "Mars Red (Dublado)",
      "link": "https://animefire.plus/animes/mars-red-dublado-todos-os-episodios",
      "texto_original": "Mars Red (Dublado)",
      "rating": 6.58,
      "classificacao_etaria": "A14",
      "imagem_original": "https://animefire.plus/img/animes/mars-red.webp",
      "imagem_pasta": "https://animefire.plus/img/animes/mars-red/",
      "secao": "dublados,legendados",
      "pagina": 14,
      "total_episodios": 13,
      "link_video": "https://animefire.plus/video/mars-red-dublado"
    },
    {
      "id": 2443,
      "nome": "Master Keaton",
      "link": "https://animefire.plus/animes/master-keaton-todos-os-episodios",
      "texto_original": "Master Keaton",
      "rating": 7.67,
      "classificacao_etaria": "A16",
      "imagem_original": "https://animefire.plus/img/animes/master-keaton.webp",
      "imagem_pasta": "https://animefire.plus/img/animes/master-keaton/",
      "secao": "legendados",
      "pagina": 136,
      "total_episodios": 24,
      "link_video": "https://animefire.plus/video/master-keaton"
    },
    {
      "id": 2444,
      "nome": "Master Keaton OVA",
      "link": "https://animefire.plus/animes/master-keaton-ova-todos-os-episodios",
      "texto_original": "Master Keaton OVA",
      "rating": 7.84,
      "classificacao_etaria": "A16",
      "imagem_original": "https://animefire.plus/img/animes/master-keaton-ova.webp",
      "imagem_pasta": "https://animefire.plus/img/animes/master-keaton-ova/",
      "secao": "legendados",
      "pagina": 166,
      "total_episodios": 15,
      "link_video": "https://animefire.plus/video/master-keaton-ova"
    }
  ],
  "pagination": {
    "current_page": 22,
    "per_page": 20,
    "total_items": 826,
    "total_pages": 42,
    "has_next": true,
    "has_prev": true
  }
}
