{
  "message": "Animes com 13 a 24 episódios",
  "episode_range": {
    "min": 13,
    "max": 24
  },
  "data": [
    {
      "id": 1981,
      "nome": "Kimi ga Aruji de Shitsuji ga Ore de",
      "link": "https://animefire.plus/animes/kimi-ga-aruji-de-shitsuji-ga-ore-de-todos-os-episodios",
      "texto_original": "Kimi ga Aruji de Shitsuji ga Ore de",
      "rating": 7.25,
      "classificacao_etaria": "A18",
      "imagem_original": "https://animefire.plus/img/animes/kimi-ga-aruji-de-shitsuji-ga-ore-de.webp",
      "imagem_pasta": "https://animefire.plus/img/animes/kimi-ga-aruji-de-shitsuji-ga-ore-de/",
      "secao": "legendados",
      "pagina": 119,
      "total_episodios": 13,
      "link_video": "https://animefire.plus/video/kimi-ga-aruji-de-shitsuji-ga-ore-de"
    },
    {
      "id": 1982,
      "nome": "Kimi ga Nozomu Eien",
      "link": "https://animefire.plus/animes/kimi-ga-nozomu-eien-todos-os-episodios",
      "texto_original": "Kimi ga Nozomu Eien",
      "rating": 7.32,
      "classificacao_etaria": "A18",
      "imagem_original": "https://animefire.plus/img/animes/kimi-ga-nozomu-eien.webp",
      "imagem_pasta": "https://animefire.plus/img/animes/kimi-ga-nozomu-eien/",
      "secao": "legendados",
      "pagina": 171,
      "total_episodios": 14,
      "link_video": "https://animefire.plus/video/kimi-ga-nozomu-eien"
    },
    {
      "id": 1992,
      "nome": "Kimi to Boku. 2",
      "link": "https://animefire.plus/animes/kimi-to-boku-2-todos-os-episodios",
      "texto_original": "Kimi to Boku. 2",
      "rating": 8.01,
      "classificacao_etaria": "A14",
      "imagem_original": "https://animefire.plus/img/animes/kimi-to-boku-2.webp",
      "imagem_pasta": "https://animefire.plus/img/animes/kimi-to-boku-2/",
      "secao": "legendados",
      "pagina": 64,
      "total_episodios": 13,
      "link_video": "https://animefire.plus/video/kimi-to-boku-2"
    },
    {
      "id": 1994,
      "nome": "Kimi wa Houkago Insomnia",
      "link": "https://animefire.plus/animes/kimi-wa-houkago-insomnia-todos-os-episodios",
      "texto_original": "Kimi wa Houkago Insomnia",
      "rating": 8.08,
      "classificacao_etaria": "A14",
      "imagem_original": "https://animefire.plus/img/animes/kimi-wa-houkago-insomnia.jpg",
      "imagem_pasta": "https://animefire.plus/img/animes/kimi-wa-houkago-insomnia/",
      "secao": "legendados",
      "pagina": 24,
      "total_episodios": 13,
      "link_video": "https://animefire.plus/video/kimi-wa-houkago-insomnia"
    },
    {
      "id": 1996,
      "nome": "KimiKiss Pure Rouge",
      "link": "https://animefire.plus/animes/kimikiss-pure-rouge-todos-os-episodios",
      "texto_original": "KimiKiss Pure Rouge",
      "rating": 7.4,
      "classificacao_etaria": "A14",
      "imagem_original": "https://animefire.plus/img/animes/kimikiss-pure-rouge.webp",
      "imagem_pasta": "https://animefire.plus/img/animes/kimikiss-pure-rouge/",
      "secao": "legendados",
      "pagina": 130,
      "total_episodios": 24,
      "link_video": "https://animefire.plus/video/kimikiss-pure-rouge"
    },
    {
      "id": 1998,
      "nome": "Kindaichi Shounen no Jikenbo Returns 2nd Season",
      "link": "https://animefire.plus/animes/kindaichi-shounen-no-jikenbo-returns-2nd-season-todos-os-episodios",
      "texto_original": "Kindaichi Shounen no Jikenbo Returns 2nd Season",
      "rating": 7.68,
      "classificacao_etaria": "A16",
      "imagem_original": "https://animefire.plus/img/animes/kindaichi-shounen-no-jikenbo-returns-2nd-season.webp",
      "imagem_pasta": "https://animefire.plus/img/animes/kindaichi-shounen-no-jikenbo-returns-2nd-season/",
      "secao": "legendados",
      "pagina": 74,
      "total_episodios": 22,
      "link_video": "https://animefire.plus/video/kindaichi-shounen-no-jikenbo-returns-2nd-season"
    },
    {
      "id": 2003,
      "nome": "Kingdom 2nd Season",
      "link": "https://animefire.plus/animes/kingdom-2nd-season-todos-os-episodios",
      "texto_original": "Kingdom 2nd Season",
      "rating": 8.43,
      "classificacao_etaria": "A16",
      "imagem_original": "https://animefire.plus/img/animes/kingdom-2nd-season.webp",
      "imagem_pasta": "https://animefire.plus/img/animes/kingdom-2nd-season/",
      "secao": "legendados",
      "pagina": 177,
      "total_episodios": 21,
      "link_video": "https://animefire.plus/video/kingdom-2nd-season"
    },
    {
      "id": 2006,
      "nome": "Kingdom 5th Season",
      "link": "https://animefire.plus/animes/kingdom-5th-season-todos-os-episodios",
      "texto_original": "Kingdom 5th Season",
      "rating": 8.72,
      "classificacao_etaria": "A16",
      "imagem_original": "https://animefire.plus/img/animes/kingdom-5th-season.webp",
      "imagem_pasta": "https://animefire.plus/img/animes/kingdom-5th-season/",
      "secao": "legendados",
      "pagina": 17,
      "total_episodios": 13,
      "link_video": "https://animefire.plus/video/kingdom-5th-season"
    },
    {
      "id": 2009,
      "nome": "Kino no Tabi: The Beautiful World",
      "link": "https://animefire.plus/animes/kino-no-tabi-the-beautiful-world-todos-os-episodios",
      "texto_original": "Kino no Tabi: The Beautiful World",
      "rating": 8.4,
      "classificacao_etaria": "A16",
      "imagem_original": "https://animefire.plus/img/animes/kino-no-tabi-the-beautiful-world.webp",
      "imagem_pasta": "https://animefire.plus/img/animes/kino-no-tabi-the-beautiful-world/",
      "secao": "legendados",
      "pagina": 124,
      "total_episodios": 13,
      "link_video": "https://animefire.plus/video/kino-no-tabi-the-beautiful-world"
    },
    {
      "id": 2017,
      "nome": "Kiseijuu: Sei no Kakuritsu (Dublado)",
      "link": "https://animefire.plus/animes/kiseijuu-sei-no-kakuritsu-dublado-todos-os-episodios",
      "texto_original": "Kiseijuu: Sei no Kakuritsu (Dublado)",
      "rating": 8.46,
      "classificacao_etaria": "A16",
      "imagem_original": "https://animefire.plus/img/animes/kiseijuu-sei-no-kakuritsu.webp",
      "imagem_pasta": "https://animefire.plus/img/animes/kiseijuu-sei-no-kakuritsu/",
      "secao": "dublados,legendados",
      "pagina": 23,
      "total_episodios": 24,
      "link_video": "https://animefire.plus/video/kiseijuu-sei-no-kakuritsu-dublado"
    },
    {
      "id": 2019,
      "nome": "Kishin Douji Zenki",
      "link": "https://animefire.plus/animes/kishin-douji-zenki-todos-os-episodios",
      "texto_original": "Kishin Douji Zenki",
      "rating": 7.06,
      "classificacao_etaria": "A14",
      "imagem_original": "https://animefire.plus/img/animes/kishin-douji-zenki.webp",
      "imagem_pasta": "https://animefire.plus/img/animes/kishin-douji-zenki/",
      "secao": "legendados",
      "pagina": 169,
      "total_episodios": 21,
      "link_video": "https://animefire.plus/video/kishin-douji-zenki"
    },
    {
      "id": 2022,
      "nome": "Kishin Taisen Gigantic Formula",
      "link": "https://animefire.plus/animes/kishin-taisen-gigantic-formula-todos-os-episodios",
      "texto_original": "Kishin Taisen Gigantic Formula",
      "rating": 6.92,
      "classificacao_etaria": "A14",
      "imagem_original": "https://animefire.plus/img/animes/kishin-taisen-gigantic-formula.webp",
      "imagem_pasta": "https://animefire.plus/img/animes/kishin-taisen-gigantic-formula/",
      "secao": "legendados",
      "pagina": 167,
      "total_episodios": 20,
      "link_video": "https://animefire.plus/video/kishin-taisen-gigantic-formula"
    },
    {
      "id": 2024,
      "nome": "Kiss Dum: Engage Planet",
      "link": "https://animefire.plus/animes/kiss-dum-engage-planet-todos-os-episodios",
      "texto_original": "Kiss Dum: Engage Planet",
      "rating": 6.69,
      "classificacao_etaria": "A14",
      "imagem_original": "https://animefire.plus/img/animes/kiss-dum-engage-planet.webp",
      "imagem_pasta": "https://animefire.plus/img/animes/kiss-dum-engage-planet/",
      "secao": "legendados",
      "pagina": 176,
      "total_episodios": 21,
      "link_video": "https://animefire.plus/video/kiss-dum-engage-planet"
    },
    {
      "id": 2034,
      "nome": "Knight's & Magic",
      "link": "https://animefire.plus/animes/knight-s-magic-todos-os-episodios",
      "texto_original": "Knight's & Magic",
      "rating": 7.28,
      "classificacao_etaria": "A14",
      "imagem_original": "https://animefire.plus/img/animes/knight-s-magic.webp",
      "imagem_pasta": "https://animefire.plus/img/animes/knight-s-magic/",
      "secao": "legendados",
      "pagina": 101,
      "total_episodios": 13,
      "link_video": "https://animefire.plus/video/knight-s-magic"
    },
    {
      "id": 2037,
      "nome": "Kobato.",
      "link": "https://animefire.plus/animes/kobato-todos-os-episodios",
      "texto_original": "Kobato.",
      "rating": 8.04,
      "classificacao_etaria": "A14",
      "imagem_original": "https://animefire.plus/img/animes/kobato.webp",
      "imagem_pasta": "https://animefire.plus/img/animes/kobato/",
      "secao": "legendados",
      "pagina": 123,
      "total_episodios": 23,
      "link_video": "https://animefire.plus/video/kobato"
    },
    {
      "id": 2047,
      "nome": "Koi Kaze",
      "link": "https://animefire.plus/animes/koi-kaze-todos-os-episodios",
      "texto_original": "Koi Kaze",
      "rating": 7.24,
      "classificacao_etaria": "A16",
      "imagem_original": "https://animefire.plus/img/animes/koi-kaze.webp",
      "imagem_pasta": "https://animefire.plus/img/animes/koi-kaze/",
      "secao": "legendados",
      "pagina": 173,
      "total_episodios": 13,
      "link_video": "https://animefire.plus/video/koi-kaze"
    },
    {
      "id": 2048,
      "nome": "Koi Koi 7",
      "link": "https://animefire.plus/animes/koi-koi-7-todos-os-episodios",
      "texto_original": "Koi Koi 7",
      "rating": 5.88,
      "classificacao_etaria": "A18",
      "imagem_original": "https://animefire.plus/img/animes/koi-koi-7.webp",
      "imagem_pasta": "https://animefire.plus/img/animes/koi-koi-7/",
      "secao": "legendados",
      "pagina": 128,
      "total_episodios": 13,
      "link_video": "https://animefire.plus/video/koi-koi-7"
    },
    {
      "id": 2064,
      "nome": "Koisuru Tenshi Angelique: Kokoro no Mezameru Toki",
      "link": "https://animefire.plus/animes/koisuru-tenshi-angelique-kokoro-no-mezameru-toki-todos-os-episodios",
      "texto_original": "Koisuru Tenshi Angelique: Kokoro no Mezameru Toki",
      "rating": 6.96,
      "classificacao_etaria": "A14",
      "imagem_original": "https://animefire.plus/img/animes/koisuru-tenshi-angelique-kokoro-no-mezameru-toki.webp",
      "imagem_pasta": "https://animefire.plus/img/animes/koisuru-tenshi-angelique-kokoro-no-mezameru-toki/",
      "secao": "legendados",
      "pagina": 130,
      "total_episodios": 13,
      "link_video": "https://animefire.plus/video/koisuru-tenshi-angelique-kokoro-no-mezameru-toki"
    },
    {
      "id": 2068,
      "nome": "Kokoro Toshokan",
      "link": "https://animefire.plus/animes/kokoro-toshokan-todos-os-episodios",
      "texto_original": "Kokoro Toshokan",
      "rating": 6.53,
      "classificacao_etaria": "A10",
      "imagem_original": "https://animefire.plus/img/animes/kokoro-toshokan.webp",
      "imagem_pasta": "https://animefire.plus/img/animes/kokoro-toshokan/",
      "secao": "legendados",
      "pagina": 122,
      "total_episodios": 13,
      "link_video": "https://animefire.plus/video/kokoro-toshokan"
    },
    {
      "id": 2076,
      "nome": "Kono Aozora ni Yakusoku wo: Youkoso Tsugumi Ryou e",
      "link": "https://animefire.plus/animes/kono-aozora-ni-yakusoku-wo-youkoso-tsugumi-ryou-e-todos-os-episodios",
      "texto_original": "Kono Aozora ni Yakusoku wo: Youkoso Tsugumi Ryou e",
      "rating": 6.27,
      "classificacao_etaria": "A14",
      "imagem_original": "https://animefire.plus/img/animes/kono-aozora-ni-yakusoku-wo-youkoso-tsugumi-ryou-e.webp",
      "imagem_pasta": "https://animefire.plus/img/animes/kono-aozora-ni-yakusoku-wo-youkoso-tsugumi-ryou-e/",
      "secao": "legendados",
      "pagina": 176,
      "total_episodios": 13,
      "link_video": "https://animefire.plus/video/kono-aozora-ni-yakusoku-wo-youkoso-tsugumi-ryou-e"
    }
  ],
  "pagination": {
    "current_page": 19,
    "per_page": 20,
    "total_items": 826,
    "total_pages": 42,
    "has_next": true,
    "has_prev": true
  }
}
