{
  "message": "Animes com 13 a 24 episódios",
  "episode_range": {
    "min": 13,
    "max": 24
  },
  "data": [
    {
      "id": 1756,
      "nome": "Jujutsu Kaisen 2nd Season (Dublado)",
      "link": "https://animefire.plus/animes/jujutsu-kaisen-2nd-season-dublado-todos-os-episodios",
      "texto_original": "Jujutsu Kaisen 2nd Season (Dublado)",
      "rating": 8.74,
      "classificacao_etaria": "A16",
      "imagem_original": "https://animefire.plus/img/animes/jujutsu-kaisen-2nd-season.webp",
      "imagem_pasta": "https://animefire.plus/img/animes/jujutsu-kaisen-2nd-season/",
      "secao": "dublados,legendados",
      "pagina": 6,
      "total_episodios": 23,
      "link_video": "https://animefire.plus/video/jujutsu-kaisen-2nd-season-dublado"
    },
    {
      "id": 1763,
      "nome": "Juubee Ninpuuchou: Ryuuhougyoku-hen",
      "link": "https://animefire.plus/animes/juubee-ninpuuchou-ryuuhougyoku-hen-todos-os-episodios",
      "texto_original": "Juubee Ninpuuchou: Ryuuhougyoku-hen",
      "rating": 6.7,
      "classificacao_etaria": "A16",
      "imagem_original": "https://animefire.plus/img/animes/juubee-ninpuuchou-ryuuhougyoku-hen.webp",
      "imagem_pasta": "https://animefire.plus/img/animes/juubee-ninpuuchou-ryuuhougyoku-hen/",
      "secao": "legendados",
      "pagina": 57,
      "total_episodios": 13,
      "link_video": "https://animefire.plus/video/juubee-ninpuuchou-ryuuhougyoku-hen"
    },
    {
      "id": 1764,
      "nome": "Juubee-chan 2: Siberia Yagyuu no Gyakushuu",
      "link": "https://animefire.plus/animes/juubee-chan-2-siberia-yagyuu-no-gyakushuu-todos-os-episodios",
      "texto_original": "Juubee-chan 2: Siberia Yagyuu no Gyakushuu",
      "rating": 6.93,
      "classificacao_etaria": "A14",
      "imagem_original": "https://animefire.plus/img/animes/juubee-chan-2-siberia-yagyuu-no-gyakushuu.webp",
      "imagem_pasta": "https://animefire.plus/img/animes/juubee-chan-2-siberia-yagyuu-no-gyakushuu/",
      "secao": "legendados",
      "pagina": 168,
      "total_episodios": 13,
      "link_video": "https://animefire.plus/video/juubee-chan-2-siberia-yagyuu-no-gyakushuu"
    },
    {
      "id": 1774,
      "nome": "K-On!",
      "link": "https://animefire.plus/animes/k-on-todos-os-episodios",
      "texto_original": "K-On!",
      "rating": 8.15,
      "classificacao_etaria": "A14",
      "imagem_original": "https://animefire.plus/img/animes/k-on.webp",
      "imagem_pasta": "https://animefire.plus/img/animes/k-on/",
      "secao": "legendados",
      "pagina": 143,
      "total_episodios": 14,
      "link_video": "https://animefire.plus/video/k-on"
    },
    {
      "id": 1776,
      "nome": "K: Return Of Kings",
      "link": "https://animefire.plus/animes/k-return-of-kings-todos-os-episodios",
      "texto_original": "K: Return Of Kings",
      "rating": 7.74,
      "classificacao_etaria": "A14",
      "imagem_original": "https://animefire.plus/img/animes/k-return-of-kings.webp",
      "imagem_pasta": "https://animefire.plus/img/animes/k-return-of-kings/",
      "secao": "legendados",
      "pagina": 107,
      "total_episodios": 13,
      "link_video": "https://animefire.plus/video/k-return-of-kings"
    },
    {
      "id": 1783,
      "nome": "Kage no Jitsuryokusha ni Naritakute! (Dublado)",
      "link": "https://animefire.plus/animes/kage-no-jitsuryokusha-ni-naritakute-dublado-todos-os-episodios",
      "texto_original": "Kage no Jitsuryokusha ni Naritakute! (Dublado)",
      "rating": 8.25,
      "classificacao_etaria": "A16",
      "imagem_original": "https://animefire.plus/img/animes/kage-no-jitsuryokusha-ni-naritakute.webp",
      "imagem_pasta": "https://animefire.plus/img/animes/kage-no-jitsuryokusha-ni-naritakute/",
      "secao": "dublados,legendados,lancamentos",
      "pagina": 8,
      "total_episodios": 20,
      "link_video": "https://animefire.plus/video/kage-no-jitsuryokusha-ni-naritakute-dublado"
    },
    {
      "id": 1785,
      "nome": "Kageki Shoujo!! (Dublado)",
      "link": "https://animefire.plus/animes/kageki-shoujo-dublado-todos-os-episodios",
      "texto_original": "Kageki Shoujo!! (Dublado)",
      "rating": 7.72,
      "classificacao_etaria": "A14",
      "imagem_original": "https://animefire.plus/img/animes/kageki-shoujo.webp",
      "imagem_pasta": "https://animefire.plus/img/animes/kageki-shoujo/",
      "secao": "dublados,legendados",
      "pagina": 11,
      "total_episodios": 13,
      "link_video": "https://animefire.plus/video/kageki-shoujo-dublado"
    },
    {
      "id": 1786,
      "nome": "Kagewani",
      "link": "https://animefire.plus/animes/kagewani-todos-os-episodios",
      "texto_original": "Kagewani",
      "rating": 6.47,
      "classificacao_etaria": "A16",
      "imagem_original": "https://animefire.plus/img/animes/kagewani.webp",
      "imagem_pasta": "https://animefire.plus/img/animes/kagewani/",
      "secao": "legendados",
      "pagina": 104,
      "total_episodios": 13,
      "link_video": "https://animefire.plus/video/kagewani"
    },
    {
      "id": 1787,
      "nome": "Kagewani: Shou",
      "link": "https://animefire.plus/animes/kagewani-shou-todos-os-episodios",
      "texto_original": "Kagewani: Shou",
      "rating": 6.5,
      "classificacao_etaria": "A16",
      "imagem_original": "https://animefire.plus/img/animes/kagewani-shou.webp",
      "imagem_pasta": "https://animefire.plus/img/animes/kagewani-shou/",
      "secao": "legendados",
      "pagina": 103,
      "total_episodios": 13,
      "link_video": "https://animefire.plus/video/kagewani-shou"
    },
    {
      "id": 1788,
      "nome": "Kagi Hime Monogatari: Eikyuu Alice Rondo",
      "link": "https://animefire.plus/animes/kagi-hime-monogatari-eikyuu-alice-rondo-todos-os-episodios",
      "texto_original": "Kagi Hime Monogatari: Eikyuu Alice Rondo",
      "rating": 6.24,
      "classificacao_etaria": "A14",
      "imagem_original": "https://animefire.plus/img/animes/kagi-hime-monogatari-eikyuu-alice-rondo.webp",
      "imagem_pasta": "https://animefire.plus/img/animes/kagi-hime-monogatari-eikyuu-alice-rondo/",
      "secao": "legendados",
      "pagina": 71,
      "total_episodios": 13,
      "link_video": "https://animefire.plus/video/kagi-hime-monogatari-eikyuu-alice-rondo"
    },
    {
      "id": 1794,
      "nome": "Kaguya-sama wa Kokurasetai: Ultra Romantic (Dublado)",
      "link": "https://animefire.plus/animes/kaguya-sama-wa-kokurasetai-ultra-romantic-dublado-todos-os-episodios",
      "texto_original": "Kaguya-sama wa Kokurasetai: Ultra Romantic (Dublado)",
      "rating": 8.97,
      "classificacao_etaria": "A14",
      "imagem_original": "https://animefire.plus/img/animes/kaguya-sama-wa-kokurasetai-ultra-romantic.webp",
      "imagem_pasta": "https://animefire.plus/img/animes/kaguya-sama-wa-kokurasetai-ultra-romantic/",
      "secao": "dublados,legendados",
      "pagina": 11,
      "total_episodios": 13,
      "link_video": "https://animefire.plus/video/kaguya-sama-wa-kokurasetai-ultra-romantic-dublado"
    },
    {
      "id": 1805,
      "nome": "Kaidan Restaurant",
      "link": "https://animefire.plus/animes/kaidan-restaurant-todos-os-episodios",
      "texto_original": "Kaidan Restaurant",
      "rating": 7.33,
      "classificacao_etaria": "A10",
      "imagem_original": "https://animefire.plus/img/animes/kaidan-restaurant.webp",
      "imagem_pasta": "https://animefire.plus/img/animes/kaidan-restaurant/",
      "secao": "legendados",
      "pagina": 134,
      "total_episodios": 19,
      "link_video": "https://animefire.plus/video/kaidan-restaurant"
    },
    {
      "id": 1821,
      "nome": "Kakkou no Iinazuke (Dublado)",
      "link": "https://animefire.plus/animes/kakkou-no-iinazuke-dublado-todos-os-episodios",
      "texto_original": "Kakkou no Iinazuke (Dublado)",
      "rating": 6.87,
      "classificacao_etaria": "A14",
      "imagem_original": "https://animefire.plus/img/animes/kakkou-no-iinazuke.webp",
      "imagem_pasta": "https://animefire.plus/img/animes/kakkou-no-iinazuke/",
      "secao": "dublados,legendados",
      "pagina": 11,
      "total_episodios": 24,
      "link_video": "https://animefire.plus/video/kakkou-no-iinazuke-dublado"
    },
    {
      "id": 1835,
      "nome": "Kami no Tou (Dublado)",
      "link": "https://animefire.plus/animes/kami-no-tou-dublado-todos-os-episodios",
      "texto_original": "Kami no Tou (Dublado)",
      "rating": 7.56,
      "classificacao_etaria": "A14",
      "imagem_original": "https://animefire.plus/img/animes/kami-no-tou.webp",
      "imagem_pasta": "https://animefire.plus/img/animes/kami-no-tou/",
      "secao": "dublados,legendados",
      "pagina": 9,
      "total_episodios": 13,
      "link_video": "https://animefire.plus/video/kami-no-tou-dublado"
    },
    {
      "id": 1842,
      "nome": "Kami wa Game ni Ueteiru. (Dublado)",
      "link": "https://animefire.plus/animes/kami-wa-game-ni-ueteiru-dublado-todos-os-episodios",
      "texto_original": "Kami wa Game ni Ueteiru. (Dublado)",
      "rating": 6.26,
      "classificacao_etaria": "A14",
      "imagem_original": "https://animefire.plus/img/animes/kami-wa-game-ni-ueteiru.webp",
      "imagem_pasta": "https://animefire.plus/img/animes/kami-wa-game-ni-ueteiru/",
      "secao": "dublados,legendados,lancamentos",
      "pagina": 3,
      "total_episodios": 13,
      "link_video": "https://animefire.plus/video/kami-wa-game-ni-ueteiru-dublado"
    },
    {
      "id": 1847,
      "nome": "Kamichu!",
      "link": "https://animefire.plus/animes/kamichu-todos-os-episodios",
      "texto_original": "Kamichu!",
      "rating": 7.45,
      "classificacao_etaria": null,
      "imagem_original": "https://animefire.plus/img/animes/kamichu.webp",
      "imagem_pasta": "https://animefire.plus/img/animes/kamichu/",
      "secao": "legendados",
      "pagina": 151,
      "total_episodios": 16,
      "link_video": "https://animefire.plus/video/kamichu"
    },
    {
      "id": 1853,
      "nome": "Kamisama Dolls",
      "link": "https://animefire.plus/animes/kamisama-dolls-todos-os-episodios",
      "texto_original": "Kamisama Dolls",
      "rating": 7.08,
      "classificacao_etaria": "A16",
      "imagem_original": "https://animefire.plus/img/animes/kamisama-dolls.webp",
      "imagem_pasta": "https://animefire.plus/img/animes/kamisama-dolls/",
      "secao": "legendados",
      "pagina": 91,
      "total_episodios": 13,
      "link_video": "https://animefire.plus/video/kamisama-dolls"
    },
    {
      "id": 1857,
      "nome": "Kamisama Kazoku",
      "link": "https://animefire.plus/animes/kamisama-kazoku-todos-os-episodios",
      "texto_original": "Kamisama Kazoku",
      "rating": 7.2,
      "classificacao_etaria": "A14",
      "imagem_original": "https://animefire.plus/img/animes/kamisama-kazoku.webp",
      "imagem_pasta": "https://animefire.plus/img/animes/kamisama-kazoku/",
      "secao": "legendados",
      "pagina": 144,
      "total_episodios": 13,
      "link_video": "https://animefire.plus/video/kamisama-kazoku"
    },
    {
      "id": 1863,
      "nome": "Kamonohashi Ron no Kindan Suiri",
      "link": "https://animefire.plus/animes/kamonohashi-ron-no-kindan-suiri-todos-os-episodios",
      "texto_original": "Kamonohashi Ron no Kindan Suiri",
      "rating": 7.5,
      "classificacao_etaria": "A14",
      "imagem_original": "https://animefire.plus/img/animes/kamonohashi-ron-no-kindan-suiri.webp",
      "imagem_pasta": "https://animefire.plus/img/animes/kamonohashi-ron-no-kindan-suiri/",
      "secao": "legendados",
      "pagina": 20,
      "total_episodios": 13,
      "link_video": "https://animefire.plus/video/kamonohashi-ron-no-kindan-suiri"
    },
    {
      "id": 1864,
      "nome": "Kamonohashi Ron no Kindan Suiri 2nd Season",
      "link": "https://animefire.plus/animes/kamonohashi-ron-no-kindan-suiri-2nd-season-todos-os-episodios",
      "texto_original": "Kamonohashi Ron no Kindan Suiri 2nd Season",
      "rating": 7.61,
      "classificacao_etaria": "A14",
      "imagem_original": "https://animefire.plus/img/animes/kamonohashi-ron-no-kindan-suiri-2nd-season.webp",
      "imagem_pasta": "https://animefire.plus/img/animes/kamonohashi-ron-no-kindan-suiri-2nd-season/",
      "secao": "legendados",
      "pagina": 9,
      "total_episodios": 13,
      "link_video": "https://animefire.plus/video/kamonohashi-ron-no-kindan-suiri-2nd-season"
    }
  ],
  "pagination": {
    "current_page": 17,
    "per_page": 20,
    "total_items": 826,
    "total_pages": 42,
    "has_next": true,
    "has_prev": true
  }
}
