{
  "message": "Animes com 13 a 24 episódios",
  "episode_range": {
    "min": 13,
    "max": 24
  },
  "data": [
    {
      "id": 2191,
      "nome": "Kyoushoku Soukou Guyver (2005)",
      "link": "https://animefire.plus/animes/kyoushoku-soukou-guyver-2005-todos-os-episodios",
      "texto_original": "Kyoushoku Soukou Guyver (2005)",
      "rating": 7.27,
      "classificacao_etaria": "A14",
      "imagem_original": "https://animefire.plus/img/animes/kyoushoku-soukou-guyver-2005.webp",
      "imagem_pasta": "https://animefire.plus/img/animes/kyoushoku-soukou-guyver-2005/",
      "secao": "legendados",
      "pagina": 68,
      "total_episodios": 24,
      "link_video": "https://animefire.plus/video/kyoushoku-soukou-guyver-2005"
    },
    {
      "id": 2206,
      "nome": "Last Exile: Ginyoku no Fam",
      "link": "https://animefire.plus/animes/last-exile-ginyoku-no-fam-todos-os-episodios",
      "texto_original": "Last Exile: Ginyoku no Fam",
      "rating": 7.12,
      "classificacao_etaria": "A14",
      "imagem_original": "https://animefire.plus/img/animes/last-exile-ginyoku-no-fam.webp",
      "imagem_pasta": "https://animefire.plus/img/animes/last-exile-ginyoku-no-fam/",
      "secao": "legendados",
      "pagina": 132,
      "total_episodios": 21,
      "link_video": "https://animefire.plus/video/last-exile-ginyoku-no-fam"
    },
    {
      "id": 2209,
      "nome": "Lazarus (Dublado)",
      "link": "https://animefire.plus/animes/lazarus-dublado-todos-os-episodios",
      "texto_original": "Lazarus (Dublado)",
      "rating": 7.56,
      "classificacao_etaria": "A14",
      "imagem_original": "https://animefire.plus/img/animes/lazarus.webp",
      "imagem_pasta": "https://animefire.plus/img/animes/lazarus/",
      "secao": "dublados,legendados,lancamentos",
      "pagina": 1,
      "total_episodios": 13,
      "link_video": "https://animefire.plus/video/lazarus-dublado"
    },
    {
      "id": 2210,
      "nome": "Le Chevalier D'Eon",
      "link": "https://animefire.plus/animes/le-chevalier-d-eon-todos-os-episodios",
      "texto_original": "Le Chevalier D'Eon",
      "rating": 7.25,
      "classificacao_etaria": "A16",
      "imagem_original": "https://animefire.plus/img/animes/le-chevalier-d-eon.webp",
      "imagem_pasta": "https://animefire.plus/img/animes/le-chevalier-d-eon/",
      "secao": "legendados",
      "pagina": 78,
      "total_episodios": 24,
      "link_video": "https://animefire.plus/video/le-chevalier-d-eon"
    },
    {
      "id": 2213,
      "nome": "Lemon Angel Project",
      "link": "https://animefire.plus/animes/lemon-angel-project-todos-os-episodios",
      "texto_original": "Lemon Angel Project",
      "rating": 6.71,
      "classificacao_etaria": "A10",
      "imagem_original": "https://animefire.plus/img/animes/lemon-angel-project.webp",
      "imagem_pasta": "https://animefire.plus/img/animes/lemon-angel-project/",
      "secao": "legendados",
      "pagina": 169,
      "total_episodios": 13,
      "link_video": "https://animefire.plus/video/lemon-angel-project"
    },
    {
      "id": 2214,
      "nome": "Let's Nupu Nupu",
      "link": "https://animefire.plus/animes/let-s-nupu-nupu-todos-os-episodios",
      "texto_original": "Let's Nupu Nupu",
      "rating": 6.25,
      "classificacao_etaria": "A18",
      "imagem_original": "https://animefire.plus/img/animes/let-s-nupu-nupu.webp",
      "imagem_pasta": "https://animefire.plus/img/animes/let-s-nupu-nupu/",
      "secao": "legendados",
      "pagina": 42,
      "total_episodios": 16,
      "link_video": "https://animefire.plus/video/let-s-nupu-nupu"
    },
    {
      "id": 2216,
      "nome": "Level E (Dublado)",
      "link": "https://animefire.plus/animes/level-e-dublado-todos-os-episodios",
      "texto_original": "Level E (Dublado)",
      "rating": 7.41,
      "classificacao_etaria": "A16",
      "imagem_original": "https://animefire.plus/img/animes/level-e.webp",
      "imagem_pasta": "https://animefire.plus/img/animes/level-e/",
      "secao": "dublados,legendados",
      "pagina": 4,
      "total_episodios": 13,
      "link_video": "https://animefire.plus/video/level-e-dublado"
    },
    {
      "id": 2244,
      "nome": "Lostorage Conflated WIXOSS",
      "link": "https://animefire.plus/animes/lostorage-conflated-wixoss-todos-os-episodios",
      "texto_original": "Lostorage Conflated WIXOSS",
      "rating": 7.19,
      "classificacao_etaria": "A16",
      "imagem_original": "https://animefire.plus/img/animes/lostorage-conflated-wixoss.webp",
      "imagem_pasta": "https://animefire.plus/img/animes/lostorage-conflated-wixoss/",
      "secao": "legendados",
      "pagina": 159,
      "total_episodios": 13,
      "link_video": "https://animefire.plus/video/lostorage-conflated-wixoss"
    },
    {
      "id": 2246,
      "nome": "Love All Play",
      "link": "https://animefire.plus/animes/love-all-play-todos-os-episodios",
      "texto_original": "Love All Play",
      "rating": 6.54,
      "classificacao_etaria": "A14",
      "imagem_original": "https://animefire.plus/img/animes/love-all-play.webp",
      "imagem_pasta": "https://animefire.plus/img/animes/love-all-play/",
      "secao": "legendados",
      "pagina": 34,
      "total_episodios": 24,
      "link_video": "https://animefire.plus/video/love-all-play"
    },
    {
      "id": 2247,
      "nome": "Love Hina",
      "link": "https://animefire.plus/animes/love-hina-todos-os-episodios",
      "texto_original": "Love Hina",
      "rating": 7.22,
      "classificacao_etaria": "A14",
      "imagem_original": "https://animefire.plus/img/animes/love-hina.webp",
      "imagem_pasta": "https://animefire.plus/img/animes/love-hina/",
      "secao": "legendados",
      "pagina": 150,
      "total_episodios": 24,
      "link_video": "https://animefire.plus/video/love-hina"
    },
    {
      "id": 2249,
      "nome": "Love Live! Nijigasaki Gakuen School Idol Doukoukai",
      "link": "https://animefire.plus/animes/love-live-nijigasaki-gakuen-school-idol-doukoukai-todos-os-episodios",
      "texto_original": "Love Live! Nijigasaki Gakuen School Idol Doukoukai",
      "rating": null,
      "classificacao_etaria": "A14",
      "imagem_original": "https://animefire.plus/img/animes/love-live-nijigasaki-gakuen-school-idol-doukoukai.webp",
      "imagem_pasta": "https://animefire.plus/img/animes/love-live-nijigasaki-gakuen-school-idol-doukoukai/",
      "secao": "legendados",
      "pagina": 52,
      "total_episodios": 13,
      "link_video": "https://animefire.plus/video/love-live-nijigasaki-gakuen-school-idol-doukoukai"
    },
    {
      "id": 2250,
      "nome": "Love Live! Nijigasaki Gakuen School Idol Doukoukai 2nd Season",
      "link": "https://animefire.plus/animes/love-live-nijigasaki-gakuen-school-idol-doukoukai-2-todos-os-episodios",
      "texto_original": "Love Live! Nijigasaki Gakuen School Idol Doukoukai 2nd Season",
      "rating": 7.66,
      "classificacao_etaria": "A14",
      "imagem_original": "https://animefire.plus/img/animes/love-live-nijigasaki-gakuen-school-idol-doukoukai-2.webp",
      "imagem_pasta": "https://animefire.plus/img/animes/love-live-nijigasaki-gakuen-school-idol-doukoukai-2/",
      "secao": "legendados",
      "pagina": 34,
      "total_episodios": 13,
      "link_video": "https://animefire.plus/video/love-live-nijigasaki-gakuen-school-idol-doukoukai-2"
    },
    {
      "id": 2253,
      "nome": "Love Live! School Idol Project 2nd Season",
      "link": "https://animefire.plus/animes/love-live-school-idol-project-2nd-season-todos-os-episodios",
      "texto_original": "Love Live! School Idol Project 2nd Season",
      "rating": 7.93,
      "classificacao_etaria": "A14",
      "imagem_original": "https://animefire.plus/img/animes/love-live-school-idol-project-2nd-season.webp",
      "imagem_pasta": "https://animefire.plus/img/animes/love-live-school-idol-project-2nd-season/",
      "secao": "legendados",
      "pagina": 137,
      "total_episodios": 13,
      "link_video": "https://animefire.plus/video/love-live-school-idol-project-2nd-season"
    },
    {
      "id": 2262,
      "nome": "Lovely★Complex",
      "link": "https://animefire.plus/animes/lovely-complex-todos-os-episodios",
      "texto_original": "Lovely★Complex",
      "rating": 8.15,
      "classificacao_etaria": "A14",
      "imagem_original": "https://animefire.plus/img/animes/lovely-complex.webp",
      "imagem_pasta": "https://animefire.plus/img/animes/lovely-complex/",
      "secao": "legendados",
      "pagina": 154,
      "total_episodios": 24,
      "link_video": "https://animefire.plus/video/lovely-complex"
    },
    {
      "id": 2265,
      "nome": "Lucky☆Star",
      "link": "https://animefire.plus/animes/lucky-star-todos-os-episodios",
      "texto_original": "Lucky☆Star",
      "rating": 7.82,
      "classificacao_etaria": "A14",
      "imagem_original": "https://animefire.plus/img/animes/lucky-star.webp",
      "imagem_pasta": "https://animefire.plus/img/animes/lucky-star/",
      "secao": "legendados",
      "pagina": 135,
      "total_episodios": 24,
      "link_video": "https://animefire.plus/video/lucky-star"
    },
    {
      "id": 2268,
      "nome": "Lupin III",
      "link": "https://animefire.plus/animes/lupin-iii-todos-os-episodios",
      "texto_original": "Lupin III",
      "rating": 7.69,
      "classificacao_etaria": "A14",
      "imagem_original": "https://animefire.plus/img/animes/lupin-iii.webp",
      "imagem_pasta": "https://animefire.plus/img/animes/lupin-iii/",
      "secao": "legendados",
      "pagina": 83,
      "total_episodios": 23,
      "link_video": "https://animefire.plus/video/lupin-iii"
    },
    {
      "id": 2274,
      "nome": "Lupin III: Part 5 (Dublado)",
      "link": "https://animefire.plus/animes/lupin-iii-part-5-dublado-todos-os-episodios",
      "texto_original": "Lupin III: Part 5 (Dublado)",
      "rating": 8.13,
      "classificacao_etaria": "A14",
      "imagem_original": "https://animefire.plus/img/animes/lupin-iii-part-5.webp",
      "imagem_pasta": "https://animefire.plus/img/animes/lupin-iii-part-5/",
      "secao": "dublados,legendados",
      "pagina": 4,
      "total_episodios": 24,
      "link_video": "https://animefire.plus/video/lupin-iii-part-5-dublado"
    },
    {
      "id": 2284,
      "nome": "Lycoris Recoil (Dublado)",
      "link": "https://animefire.plus/animes/lycoris-recoil-dublado-todos-os-episodios",
      "texto_original": "Lycoris Recoil (Dublado)",
      "rating": 8.15,
      "classificacao_etaria": "A14",
      "imagem_original": "https://animefire.plus/img/animes/lycoris-recoil.webp",
      "imagem_pasta": "https://animefire.plus/img/animes/lycoris-recoil/",
      "secao": "dublados,legendados",
      "pagina": 10,
      "total_episodios": 13,
      "link_video": "https://animefire.plus/video/lycoris-recoil-dublado"
    },
    {
      "id": 2287,
      "nome": "Maburaho",
      "link": "https://animefire.plus/animes/maburaho-todos-os-episodios",
      "texto_original": "Maburaho",
      "rating": 6.9,
      "classificacao_etaria": "A18",
      "imagem_original": "https://animefire.plus/img/animes/maburaho.webp",
      "imagem_pasta": "https://animefire.plus/img/animes/maburaho/",
      "secao": "legendados",
      "pagina": 170,
      "total_episodios": 24,
      "link_video": "https://animefire.plus/video/maburaho"
    },
    {
      "id": 2297,
      "nome": "Made in Abyss",
      "link": "https://animefire.plus/animes/made-in-abyss-todos-os-episodios",
      "texto_original": "Made in Abyss",
      "rating": 8.85,
      "classificacao_etaria": "A16",
      "imagem_original": "https://animefire.plus/img/animes/made-in-abyss.webp",
      "imagem_pasta": "https://animefire.plus/img/animes/made-in-abyss/",
      "secao": "legendados",
      "pagina": 168,
      "total_episodios": 14,
      "link_video": "https://animefire.plus/video/made-in-abyss"
    }
  ],
  "pagination": {
    "current_page": 21,
    "per_page": 20,
    "total_items": 826,
    "total_pages": 42,
    "has_next": true,
    "has_prev": true
  }
}
