{
  "message": "Animes com 2 a 12 episódios",
  "episode_range": {
    "min": 2,
    "max": 12
  },
  "data": [
    {
      "id": 241,
      "nome": "Arknights: Rise from Ember",
      "link": "https://animefire.plus/animes/arknights-rise-from-ember-todos-os-episodios",
      "texto_original": "Arknights: Rise from Ember",
      "rating": 7.7,
      "classificacao_etaria": "A14",
      "imagem_original": "https://animefire.plus/img/animes/arknights-rise-from-ember.webp",
      "imagem_pasta": "https://animefire.plus/img/animes/arknights-rise-from-ember/",
      "secao": "legendados,lancamentos",
      "pagina": 2,
      "total_episodios": 4,
      "link_video": "https://animefire.plus/video/arknights-rise-from-ember"
    },
    {
      "id": 242,
      "nome": "Arknights: Touin Kiro",
      "link": "https://animefire.plus/animes/arknights-touin-kiro-todos-os-episodios",
      "texto_original": "Arknights: Touin Kiro",
      "rating": 7.58,
      "classificacao_etaria": "A14",
      "imagem_original": "https://animefire.plus/img/animes/arknights-touin-kiro.webp",
      "imagem_pasta": "https://animefire.plus/img/animes/arknights-touin-kiro/",
      "secao": "legendados,lancamentos",
      "pagina": 19,
      "total_episodios": 3,
      "link_video": "https://animefire.plus/video/arknights-touin-kiro"
    },
    {
      "id": 245,
      "nome": "Ars no Kyojuu",
      "link": "https://animefire.plus/animes/ars-no-kyojuu-todos-os-episodios",
      "texto_original": "Ars no Kyojuu",
      "rating": 6.04,
      "classificacao_etaria": "A14",
      "imagem_original": "https://animefire.plus/img/animes/ars-no-kyojuu.webp",
      "imagem_pasta": "https://animefire.plus/img/animes/ars-no-kyojuu/",
      "secao": "legendados",
      "pagina": 26,
      "total_episodios": 12,
      "link_video": "https://animefire.plus/video/ars-no-kyojuu"
    },
    {
      "id": 246,
      "nome": "Arslan Senki (TV)",
      "link": "https://animefire.plus/animes/arslan-senki-tv-todos-os-episodios",
      "texto_original": "Arslan Senki (TV)",
      "rating": 7.77,
      "classificacao_etaria": "A16",
      "imagem_original": "https://animefire.plus/img/animes/arslan-senki-tv.webp",
      "imagem_pasta": "https://animefire.plus/img/animes/arslan-senki-tv/",
      "secao": "legendados",
      "pagina": 95,
      "total_episodios": 4,
      "link_video": "https://animefire.plus/video/arslan-senki-tv"
    },
    {
      "id": 248,
      "nome": "Arte",
      "link": "https://animefire.plus/animes/arte-todos-os-episodios",
      "texto_original": "Arte",
      "rating": 7.17,
      "classificacao_etaria": "A14",
      "imagem_original": "https://animefire.plus/img/animes/arte.webp",
      "imagem_pasta": "https://animefire.plus/img/animes/arte/",
      "secao": "legendados",
      "pagina": 60,
      "total_episodios": 8,
      "link_video": "https://animefire.plus/video/arte"
    },
    {
      "id": 249,
      "nome": "Aru Asa Dummy Head Mic ni Natteita Ore-kun no Jinsei",
      "link": "https://animefire.plus/animes/aru-asa-dummy-head-mic-ni-natteita-ore-kun-no-jinsei-todos-os-episodios",
      "texto_original": "Aru Asa Dummy Head Mic ni Natteita Ore-kun no Jinsei",
      "rating": 5,
      "classificacao_etaria": "A14",
      "imagem_original": "https://animefire.plus/img/animes/aru-asa-dummy-head-mic-ni-natteita-ore-kun-no-jinsei.webp",
      "imagem_pasta": "https://animefire.plus/img/animes/aru-asa-dummy-head-mic-ni-natteita-ore-kun-no-jinsei/",
      "secao": "legendados,lancamentos",
      "pagina": 28,
      "total_episodios": 2,
      "link_video": "https://animefire.plus/video/aru-asa-dummy-head-mic-ni-natteita-ore-kun-no-jinsei"
    },
    {
      "id": 250,
      "nome": "Aru Majo ga Shinu Made",
      "link": "https://animefire.plus/animes/aru-majo-ga-shinu-made-todos-os-episodios",
      "texto_original": "Aru Majo ga Shinu Made",
      "rating": 7.35,
      "classificacao_etaria": "A14",
      "imagem_original": "https://animefire.plus/img/animes/aru-majo-ga-shinu-made.webp",
      "imagem_pasta": "https://animefire.plus/img/animes/aru-majo-ga-shinu-made/",
      "secao": "legendados",
      "pagina": 5,
      "total_episodios": 12,
      "link_video": "https://animefire.plus/video/aru-majo-ga-shinu-made"
    },
    {
      "id": 251,
      "nome": "Aru Tabibito no Nikki",
      "link": "https://animefire.plus/animes/aru-tabibito-no-nikki-todos-os-episodios",
      "texto_original": "Aru Tabibito no Nikki",
      "rating": 7.16,
      "classificacao_etaria": null,
      "imagem_original": "https://animefire.plus/img/animes/aru-tabibito-no-nikki.webp",
      "imagem_pasta": "https://animefire.plus/img/animes/aru-tabibito-no-nikki/",
      "secao": "legendados",
      "pagina": 69,
      "total_episodios": 6,
      "link_video": "https://animefire.plus/video/aru-tabibito-no-nikki"
    },
    {
      "id": 252,
      "nome": "Aru Tabibito no Nikki Specials",
      "link": "https://animefire.plus/animes/aru-tabibito-no-nikki-specials-todos-os-episodios",
      "texto_original": "Aru Tabibito no Nikki Specials",
      "rating": 6.41,
      "classificacao_etaria": null,
      "imagem_original": "https://animefire.plus/img/animes/aru-tabibito-no-nikki-specials.webp",
      "imagem_pasta": "https://animefire.plus/img/animes/aru-tabibito-no-nikki-specials/",
      "secao": "legendados",
      "pagina": 72,
      "total_episodios": 3,
      "link_video": "https://animefire.plus/video/aru-tabibito-no-nikki-specials"
    },
    {
      "id": 262,
      "nome": "Asobi Asobase",
      "link": "https://animefire.plus/animes/asobi-asobase-todos-os-episodios",
      "texto_original": "Asobi Asobase",
      "rating": 8.23,
      "classificacao_etaria": "A14",
      "imagem_original": "https://animefire.plus/img/animes/asobi-asobase.webp",
      "imagem_pasta": "https://animefire.plus/img/animes/asobi-asobase/",
      "secao": "legendados",
      "pagina": 170,
      "total_episodios": 12,
      "link_video": "https://animefire.plus/video/asobi-asobase"
    },
    {
      "id": 264,
      "nome": "Asobi Asobase Specials",
      "link": "https://animefire.plus/animes/asobi-asobase-specials-todos-os-episodios",
      "texto_original": "Asobi Asobase Specials",
      "rating": 7.59,
      "classificacao_etaria": "A14",
      "imagem_original": "https://animefire.plus/img/animes/asobi-asobase-specials.webp",
      "imagem_pasta": "https://animefire.plus/img/animes/asobi-asobase-specials/",
      "secao": "legendados",
      "pagina": 85,
      "total_episodios": 2,
      "link_video": "https://animefire.plus/video/asobi-asobase-specials"
    },
    {
      "id": 265,
      "nome": "Asobi ni Iku yo!",
      "link": "https://animefire.plus/animes/asobi-ni-iku-yo-todos-os-episodios",
      "texto_original": "Asobi ni Iku yo!",
      "rating": 6.77,
      "classificacao_etaria": "A18",
      "imagem_original": "https://animefire.plus/img/animes/asobi-ni-iku-yo.webp",
      "imagem_pasta": "https://animefire.plus/img/animes/asobi-ni-iku-yo/",
      "secao": "legendados",
      "pagina": 122,
      "total_episodios": 12,
      "link_video": "https://animefire.plus/video/asobi-ni-iku-yo"
    },
    {
      "id": 267,
      "nome": "Assault Lily: Bouquet",
      "link": "https://animefire.plus/animes/assault-lily-bouquet-todos-os-episodios",
      "texto_original": "Assault Lily: Bouquet",
      "rating": null,
      "classificacao_etaria": "A14",
      "imagem_original": "https://animefire.plus/img/animes/assault-lily-bouquet.webp",
      "imagem_pasta": "https://animefire.plus/img/animes/assault-lily-bouquet/",
      "secao": "legendados",
      "pagina": 52,
      "total_episodios": 12,
      "link_video": "https://animefire.plus/video/assault-lily-bouquet"
    },
    {
      "id": 268,
      "nome": "Astarotte no Omocha!",
      "link": "https://animefire.plus/animes/astarotte-no-omocha-todos-os-episodios",
      "texto_original": "Astarotte no Omocha!",
      "rating": 6.69,
      "classificacao_etaria": "A14",
      "imagem_original": "https://animefire.plus/img/animes/astarotte-no-omocha.webp",
      "imagem_pasta": "https://animefire.plus/img/animes/astarotte-no-omocha/",
      "secao": "legendados",
      "pagina": 93,
      "total_episodios": 12,
      "link_video": "https://animefire.plus/video/astarotte-no-omocha"
    },
    {
      "id": 269,
      "nome": "Astro Note",
      "link": "https://animefire.plus/animes/astro-note-todos-os-episodios",
      "texto_original": "Astro Note",
      "rating": 6.55,
      "classificacao_etaria": "A14",
      "imagem_original": "https://animefire.plus/img/animes/astro-note.webp",
      "imagem_pasta": "https://animefire.plus/img/animes/astro-note/",
      "secao": "legendados",
      "pagina": 14,
      "total_episodios": 12,
      "link_video": "https://animefire.plus/video/astro-note"
    },
    {
      "id": 270,
      "nome": "Asu no Yoichi!",
      "link": "https://animefire.plus/animes/asu-no-yoichi-todos-os-episodios",
      "texto_original": "Asu no Yoichi!",
      "rating": 6.91,
      "classificacao_etaria": "A14",
      "imagem_original": "https://animefire.plus/img/animes/asu-no-yoichi.webp",
      "imagem_pasta": "https://animefire.plus/img/animes/asu-no-yoichi/",
      "secao": "legendados",
      "pagina": 150,
      "total_episodios": 12,
      "link_video": "https://animefire.plus/video/asu-no-yoichi"
    },
    {
      "id": 272,
      "nome": "Atarashii Joushi wa Do Tennen",
      "link": "https://animefire.plus/animes/atarashii-joushi-wa-do-tennen-todos-os-episodios",
      "texto_original": "Atarashii Joushi wa Do Tennen",
      "rating": 7.92,
      "classificacao_etaria": "A14",
      "imagem_original": "https://animefire.plus/img/animes/atarashii-joushi-wa-do-tennen.webp",
      "imagem_pasta": "https://animefire.plus/img/animes/atarashii-joushi-wa-do-tennen/",
      "secao": "legendados",
      "pagina": 20,
      "total_episodios": 12,
      "link_video": "https://animefire.plus/video/atarashii-joushi-wa-do-tennen"
    },
    {
      "id": 273,
      "nome": "Atasha Kawajiri Kodama Da yo: Dangerous Lifehacker no Tadareta Seikatsu",
      "link": "https://animefire.plus/animes/atasha-kawajiri-kodama-da-yo-dangerous-lifehacker-no-tadareta-seikatsu-todos-os-episodios",
      "texto_original": "Atasha Kawajiri Kodama Da yo: Dangerous Lifehacker no Tadareta Seikatsu",
      "rating": 5.72,
      "classificacao_etaria": "A14",
      "imagem_original": "https://animefire.plus/img/animes/atasha-kawajiri-kodama-da-yo-dangerous-lifehacker-no-tadareta-seikatsu.webp",
      "imagem_pasta": "https://animefire.plus/img/animes/atasha-kawajiri-kodama-da-yo-dangerous-lifehacker-no-tadareta-seikatsu/",
      "secao": "legendados,lancamentos",
      "pagina": 35,
      "total_episodios": 11,
      "link_video": "https://animefire.plus/video/atasha-kawajiri-kodama-da-yo-dangerous-lifehacker-no-tadareta-seikatsu"
    },
    {
      "id": 274,
      "nome": "Atom: The Beginning",
      "link": "https://animefire.plus/animes/atom-the-beginning-todos-os-episodios",
      "texto_original": "Atom: The Beginning",
      "rating": 6.91,
      "classificacao_etaria": "A14",
      "imagem_original": "https://animefire.plus/img/animes/atom-the-beginning.webp",
      "imagem_pasta": "https://animefire.plus/img/animes/atom-the-beginning/",
      "secao": "legendados",
      "pagina": 163,
      "total_episodios": 12,
      "link_video": "https://animefire.plus/video/atom-the-beginning"
    },
    {
      "id": 276,
      "nome": "Avatar: A Lenda de Korra Livro 1 (Dublado)",
      "link": "https://animefire.plus/animes/avatar-a-lenda-de-korra-livro-1-dublado-todos-os-episodios",
      "texto_original": "Avatar: A Lenda de Korra Livro 1 (Dublado)",
      "rating": 8.05,
      "classificacao_etaria": null,
      "imagem_original": "https://animefire.plus/img/animes/avatar-a-lenda-de-korra-livro-1-dublado.webp",
      "imagem_pasta": "https://animefire.plus/img/animes/avatar-a-lenda-de-korra-livro-1-dublado/",
      "secao": "dublados",
      "pagina": 27,
      "total_episodios": 12,
      "link_video": "https://animefire.plus/video/avatar-a-lenda-de-korra-livro-1-dublado"
    }
  ],
  "pagination": {
    "current_page": 7,
    "per_page": 20,
    "total_items": 2189,
    "total_pages": 110,
    "has_next": true,
    "has_prev": true
  }
}
