{
  "message": "Animes com 2 a 12 episódios",
  "episode_range": {
    "min": 2,
    "max": 12
  },
  "data": [
    {
      "id": 509,
      "nome": "Bucchigire!",
      "link": "https://animefire.plus/animes/bucchigire-todos-os-episodios",
      "texto_original": "Bucchigire!",
      "rating": 5.99,
      "classificacao_etaria": "A14",
      "imagem_original": "https://animefire.plus/img/animes/bucchigire.webp",
      "imagem_pasta": "https://animefire.plus/img/animes/bucchigire/",
      "secao": "legendados",
      "pagina": 31,
      "total_episodios": 12,
      "link_video": "https://animefire.plus/video/bucchigire"
    },
    {
      "id": 511,
      "nome": "Bucchigiri?! (Dublado)",
      "link": "https://animefire.plus/animes/bucchigiri-dublado-todos-os-episodios",
      "texto_original": "Bucchigiri?! (Dublado)",
      "rating": 6.51,
      "classificacao_etaria": "A14",
      "imagem_original": "https://animefire.plus/img/animes/bucchigiri.webp",
      "imagem_pasta": "https://animefire.plus/img/animes/bucchigiri/",
      "secao": "dublados,legendados",
      "pagina": 3,
      "total_episodios": 12,
      "link_video": "https://animefire.plus/video/bucchigiri-dublado"
    },
    {
      "id": 513,
      "nome": "Buddy Complex: Kanketsu-hen - Ano Sora ni Kaeru Mirai de",
      "link": "https://animefire.plus/animes/buddy-complex-kanketsu-hen---ano-sora-ni-kaeru-mirai-de-todos-os-episodios",
      "texto_original": "Buddy Complex: Kanketsu-hen - Ano Sora ni Kaeru Mirai de",
      "rating": 7.36,
      "classificacao_etaria": "A14",
      "imagem_original": "https://animefire.plus/img/animes/buddy-complex-kanketsu-hen---ano-sora-ni-kaeru-mirai-de.webp",
      "imagem_pasta": "https://animefire.plus/img/animes/buddy-complex-kanketsu-hen---ano-sora-ni-kaeru-mirai-de/",
      "secao": "legendados",
      "pagina": 145,
      "total_episodios": 2,
      "link_video": "https://animefire.plus/video/buddy-complex-kanketsu-hen---ano-sora-ni-kaeru-mirai-de"
    },
    {
      "id": 514,
      "nome": "Buddy Daddies",
      "link": "https://animefire.plus/animes/buddy-daddies-todos-os-episodios",
      "texto_original": "Buddy Daddies",
      "rating": 8.12,
      "classificacao_etaria": "A14",
      "imagem_original": "https://animefire.plus/img/animes/buddy-daddies.webp",
      "imagem_pasta": "https://animefire.plus/img/animes/buddy-daddies/",
      "secao": "legendados",
      "pagina": 26,
      "total_episodios": 12,
      "link_video": "https://animefire.plus/video/buddy-daddies"
    },
    {
      "id": 515,
      "nome": "Build Divide: Code Black",
      "link": "https://animefire.plus/animes/build-divide-code-black-todos-os-episodios",
      "texto_original": "Build Divide: Code Black",
      "rating": 6.39,
      "classificacao_etaria": "A14",
      "imagem_original": "https://animefire.plus/img/animes/build-divide-code-black.webp",
      "imagem_pasta": "https://animefire.plus/img/animes/build-divide-code-black/",
      "secao": "legendados",
      "pagina": 39,
      "total_episodios": 12,
      "link_video": "https://animefire.plus/video/build-divide-code-black"
    },
    {
      "id": 516,
      "nome": "Build Divide: Code White",
      "link": "https://animefire.plus/animes/build-divide-code-white-todos-os-episodios",
      "texto_original": "Build Divide: Code White",
      "rating": 6.64,
      "classificacao_etaria": "A14",
      "imagem_original": "https://animefire.plus/img/animes/build-divide-code-white.webp",
      "imagem_pasta": "https://animefire.plus/img/animes/build-divide-code-white/",
      "secao": "legendados,lancamentos",
      "pagina": 34,
      "total_episodios": 3,
      "link_video": "https://animefire.plus/video/build-divide-code-white"
    },
    {
      "id": 517,
      "nome": "Bullbuster",
      "link": "https://animefire.plus/animes/bullbuster-todos-os-episodios",
      "texto_original": "Bullbuster",
      "rating": 6.18,
      "classificacao_etaria": "A14",
      "imagem_original": "https://animefire.plus/img/animes/bullbuster.webp",
      "imagem_pasta": "https://animefire.plus/img/animes/bullbuster/",
      "secao": "legendados",
      "pagina": 20,
      "total_episodios": 12,
      "link_video": "https://animefire.plus/video/bullbuster"
    },
    {
      "id": 520,
      "nome": "Bungou Stray Dogs 3rd Season (Dublado)",
      "link": "https://animefire.plus/animes/bungou-stray-dogs-3rd-season-dublado-todos-os-episodios",
      "texto_original": "Bungou Stray Dogs 3rd Season (Dublado)",
      "rating": 8.22,
      "classificacao_etaria": "A16",
      "imagem_original": "https://animefire.plus/img/animes/bungou-stray-dogs-3rd-season.webp",
      "imagem_pasta": "https://animefire.plus/img/animes/bungou-stray-dogs-3rd-season/",
      "secao": "dublados,legendados",
      "pagina": 8,
      "total_episodios": 12,
      "link_video": "https://animefire.plus/video/bungou-stray-dogs-3rd-season-dublado"
    },
    {
      "id": 523,
      "nome": "Bungou Stray Dogs 5th Season (Dublado)",
      "link": "https://animefire.plus/animes/bungou-stray-dogs-5th-season-dublado-todos-os-episodios",
      "texto_original": "Bungou Stray Dogs 5th Season (Dublado)",
      "rating": 8.62,
      "classificacao_etaria": "A16",
      "imagem_original": "https://animefire.plus/img/animes/bungou-stray-dogs-5th-season.webp",
      "imagem_pasta": "https://animefire.plus/img/animes/bungou-stray-dogs-5th-season/",
      "secao": "dublados,legendados",
      "pagina": 6,
      "total_episodios": 11,
      "link_video": "https://animefire.plus/video/bungou-stray-dogs-5th-season-dublado"
    },
    {
      "id": 524,
      "nome": "Bungou Stray Dogs Wan!",
      "link": "https://animefire.plus/animes/bungou-stray-dogs-wan-todos-os-episodios",
      "texto_original": "Bungou Stray Dogs Wan!",
      "rating": 7.98,
      "classificacao_etaria": "A14",
      "imagem_original": "https://animefire.plus/img/animes/bungou-stray-dogs-wan.webp",
      "imagem_pasta": "https://animefire.plus/img/animes/bungou-stray-dogs-wan/",
      "secao": "legendados",
      "pagina": 49,
      "total_episodios": 12,
      "link_video": "https://animefire.plus/video/bungou-stray-dogs-wan"
    },
    {
      "id": 526,
      "nome": "Bungou to Alchemist: Shinpan no Haguruma",
      "link": "https://animefire.plus/animes/bungou-to-alchemist-shinpan-no-haguruma-todos-os-episodios",
      "texto_original": "Bungou to Alchemist: Shinpan no Haguruma",
      "rating": 6.34,
      "classificacao_etaria": "A14",
      "imagem_original": "https://animefire.plus/img/animes/bungou-to-alchemist-shinpan-no-haguruma.webp",
      "imagem_pasta": "https://animefire.plus/img/animes/bungou-to-alchemist-shinpan-no-haguruma/",
      "secao": "legendados",
      "pagina": 81,
      "total_episodios": 2,
      "link_video": "https://animefire.plus/video/bungou-to-alchemist-shinpan-no-haguruma"
    },
    {
      "id": 529,
      "nome": "Burn Up Scramble",
      "link": "https://animefire.plus/animes/burn-up-scramble-todos-os-episodios",
      "texto_original": "Burn Up Scramble",
      "rating": 6.28,
      "classificacao_etaria": "A16",
      "imagem_original": "https://animefire.plus/img/animes/burn-up-scramble.webp",
      "imagem_pasta": "https://animefire.plus/img/animes/burn-up-scramble/",
      "secao": "legendados",
      "pagina": 160,
      "total_episodios": 12,
      "link_video": "https://animefire.plus/video/burn-up-scramble"
    },
    {
      "id": 532,
      "nome": "Bus Gamer",
      "link": "https://animefire.plus/animes/bus-gamer-todos-os-episodios",
      "texto_original": "Bus Gamer",
      "rating": 6.6,
      "classificacao_etaria": "A14",
      "imagem_original": "https://animefire.plus/img/animes/bus-gamer.webp",
      "imagem_pasta": "https://animefire.plus/img/animes/bus-gamer/",
      "secao": "legendados",
      "pagina": 127,
      "total_episodios": 3,
      "link_video": "https://animefire.plus/video/bus-gamer"
    },
    {
      "id": 533,
      "nome": "Busamen Gachi Fighter",
      "link": "https://animefire.plus/animes/busamen-gachi-fighter-todos-os-episodios",
      "texto_original": "Busamen Gachi Fighter",
      "rating": 6.5,
      "classificacao_etaria": "A14",
      "imagem_original": "https://animefire.plus/img/animes/busamen-gachi-fighter.webp",
      "imagem_pasta": "https://animefire.plus/img/animes/busamen-gachi-fighter/",
      "secao": "legendados,lancamentos",
      "pagina": 2,
      "total_episodios": 5,
      "link_video": "https://animefire.plus/video/busamen-gachi-fighter"
    },
    {
      "id": 535,
      "nome": "Busou Shinki",
      "link": "https://animefire.plus/animes/busou-shinki-todos-os-episodios",
      "texto_original": "Busou Shinki",
      "rating": 6.36,
      "classificacao_etaria": "A14",
      "imagem_original": "https://animefire.plus/img/animes/busou-shinki.webp",
      "imagem_pasta": "https://animefire.plus/img/animes/busou-shinki/",
      "secao": "legendados",
      "pagina": 134,
      "total_episodios": 12,
      "link_video": "https://animefire.plus/video/busou-shinki"
    },
    {
      "id": 536,
      "nome": "Busou Shoujo Machiavellianism",
      "link": "https://animefire.plus/animes/busou-shoujo-machiavellianism-todos-os-episodios",
      "texto_original": "Busou Shoujo Machiavellianism",
      "rating": 7.11,
      "classificacao_etaria": "A14",
      "imagem_original": "https://animefire.plus/img/animes/busou-shoujo-machiavellianism.webp",
      "imagem_pasta": "https://animefire.plus/img/animes/busou-shoujo-machiavellianism/",
      "secao": "legendados",
      "pagina": 145,
      "total_episodios": 12,
      "link_video": "https://animefire.plus/video/busou-shoujo-machiavellianism"
    },
    {
      "id": 538,
      "nome": "Buta no Liver wa Kanetsu Shiro",
      "link": "https://animefire.plus/animes/buta-no-liver-wa-kanetsu-shiro-todos-os-episodios",
      "texto_original": "Buta no Liver wa Kanetsu Shiro",
      "rating": 6.29,
      "classificacao_etaria": "A14",
      "imagem_original": "https://animefire.plus/img/animes/buta-no-liver-wa-kanetsu-shiro.webp",
      "imagem_pasta": "https://animefire.plus/img/animes/buta-no-liver-wa-kanetsu-shiro/",
      "secao": "legendados",
      "pagina": 20,
      "total_episodios": 12,
      "link_video": "https://animefire.plus/video/buta-no-liver-wa-kanetsu-shiro"
    },
    {
      "id": 539,
      "nome": "Butlers: Chitose Momotose Monogatari",
      "link": "https://animefire.plus/animes/butlers-chitose-momotose-monogatari-todos-os-episodios",
      "texto_original": "Butlers: Chitose Momotose Monogatari",
      "rating": 5.72,
      "classificacao_etaria": "A14",
      "imagem_original": "https://animefire.plus/img/animes/butlers-chitose-momotose-monogatari.webp",
      "imagem_pasta": "https://animefire.plus/img/animes/butlers-chitose-momotose-monogatari/",
      "secao": "legendados",
      "pagina": 138,
      "total_episodios": 12,
      "link_video": "https://animefire.plus/video/butlers-chitose-momotose-monogatari"
    },
    {
      "id": 540,
      "nome": "Buttobi!! CPU",
      "link": "https://animefire.plus/animes/buttobi-cpu-todos-os-episodios",
      "texto_original": "Buttobi!! CPU",
      "rating": 6.33,
      "classificacao_etaria": "A18",
      "imagem_original": "https://animefire.plus/img/animes/buttobi-cpu.webp",
      "imagem_pasta": "https://animefire.plus/img/animes/buttobi-cpu/",
      "secao": "legendados",
      "pagina": 176,
      "total_episodios": 3,
      "link_video": "https://animefire.plus/video/buttobi-cpu"
    },
    {
      "id": 543,
      "nome": "Bye Bye, Earth",
      "link": "https://animefire.plus/animes/bye-bye-earth-todos-os-episodios",
      "texto_original": "Bye Bye, Earth",
      "rating": 6.06,
      "classificacao_etaria": "A14",
      "imagem_original": "https://animefire.plus/img/animes/bye-bye-earth.webp",
      "imagem_pasta": "https://animefire.plus/img/animes/bye-bye-earth/",
      "secao": "legendados",
      "pagina": 12,
      "total_episodios": 10,
      "link_video": "https://animefire.plus/video/bye-bye-earth"
    }
  ],
  "pagination": {
    "current_page": 13,
    "per_page": 20,
    "total_items": 2189,
    "total_pages": 110,
    "has_next": true,
    "has_prev": true
  }
}
