{
  "message": "Animes com 2 a 12 episódios",
  "episode_range": {
    "min": 2,
    "max": 12
  },
  "data": [
    {
      "id": 1331,
      "nome": "Hakumei no Tsubasa",
      "link": "https://animefire.plus/animes/hakumei-no-tsubasa-todos-os-episodios",
      "texto_original": "Hakumei no Tsubasa",
      "rating": 7.61,
      "classificacao_etaria": "A10",
      "imagem_original": "https://animefire.plus/img/animes/hakumei-no-tsubasa.webp",
      "imagem_pasta": "https://animefire.plus/img/animes/hakumei-no-tsubasa/",
      "secao": "legendados,lancamentos",
      "pagina": 82,
      "total_episodios": 5,
      "link_video": "https://animefire.plus/video/hakumei-no-tsubasa"
    },
    {
      "id": 1332,
      "nome": "Hakumei to Mikochi",
      "link": "https://animefire.plus/animes/hakumei-to-mikochi-todos-os-episodios",
      "texto_original": "Hakumei to Mikochi",
      "rating": 7.66,
      "classificacao_etaria": "A14",
      "imagem_original": "https://animefire.plus/img/animes/hakumei-to-mikochi.webp",
      "imagem_pasta": "https://animefire.plus/img/animes/hakumei-to-mikochi/",
      "secao": "legendados",
      "pagina": 156,
      "total_episodios": 12,
      "link_video": "https://animefire.plus/video/hakumei-to-mikochi"
    },
    {
      "id": 1333,
      "nome": "Hakuouki",
      "link": "https://animefire.plus/animes/hakuouki-todos-os-episodios",
      "texto_original": "Hakuouki",
      "rating": 7.51,
      "classificacao_etaria": "A16",
      "imagem_original": "https://animefire.plus/img/animes/hakuouki.webp",
      "imagem_pasta": "https://animefire.plus/img/animes/hakuouki/",
      "secao": "legendados",
      "pagina": 96,
      "total_episodios": 12,
      "link_video": "https://animefire.plus/video/hakuouki"
    },
    {
      "id": 1334,
      "nome": "Hakuouki Hekketsuroku",
      "link": "https://animefire.plus/animes/hakuouki-hekketsuroku-todos-os-episodios",
      "texto_original": "Hakuouki Hekketsuroku",
      "rating": 7.7,
      "classificacao_etaria": "A16",
      "imagem_original": "https://animefire.plus/img/animes/hakuouki-hekketsuroku.webp",
      "imagem_pasta": "https://animefire.plus/img/animes/hakuouki-hekketsuroku/",
      "secao": "legendados",
      "pagina": 111,
      "total_episodios": 10,
      "link_video": "https://animefire.plus/video/hakuouki-hekketsuroku"
    },
    {
      "id": 1336,
      "nome": "Hakuouki OVA (2021)",
      "link": "https://animefire.plus/animes/hakuouki-ova-2021-todos-os-episodios",
      "texto_original": "Hakuouki OVA (2021)",
      "rating": 7.05,
      "classificacao_etaria": "A16",
      "imagem_original": "https://animefire.plus/img/animes/hakuouki-ova-2021.webp",
      "imagem_pasta": "https://animefire.plus/img/animes/hakuouki-ova-2021/",
      "secao": "legendados,lancamentos",
      "pagina": 36,
      "total_episodios": 2,
      "link_video": "https://animefire.plus/video/hakuouki-ova-2021"
    },
    {
      "id": 1337,
      "nome": "Hakuouki Reimeiroku",
      "link": "https://animefire.plus/animes/hakuouki-reimeiroku-todos-os-episodios",
      "texto_original": "Hakuouki Reimeiroku",
      "rating": 7.58,
      "classificacao_etaria": "A16",
      "imagem_original": "https://animefire.plus/img/animes/hakuouki-reimeiroku.webp",
      "imagem_pasta": "https://animefire.plus/img/animes/hakuouki-reimeiroku/",
      "secao": "legendados",
      "pagina": 111,
      "total_episodios": 5,
      "link_video": "https://animefire.plus/video/hakuouki-reimeiroku"
    },
    {
      "id": 1338,
      "nome": "Hakuouki Sekkaroku",
      "link": "https://animefire.plus/animes/hakuouki-sekkaroku-todos-os-episodios",
      "texto_original": "Hakuouki Sekkaroku",
      "rating": 7.68,
      "classificacao_etaria": "A14",
      "imagem_original": "https://animefire.plus/img/animes/hakuouki-sekkaroku.webp",
      "imagem_pasta": "https://animefire.plus/img/animes/hakuouki-sekkaroku/",
      "secao": "legendados",
      "pagina": 62,
      "total_episodios": 6,
      "link_video": "https://animefire.plus/video/hakuouki-sekkaroku"
    },
    {
      "id": 1339,
      "nome": "Hakushaku To Yousei",
      "link": "https://animefire.plus/animes/hakushaku-to-yousei-todos-os-episodios",
      "texto_original": "Hakushaku To Yousei",
      "rating": 7.38,
      "classificacao_etaria": "A14",
      "imagem_original": "https://animefire.plus/img/animes/hakushaku-to-yousei.webp",
      "imagem_pasta": "https://animefire.plus/img/animes/hakushaku-to-yousei/",
      "secao": "legendados",
      "pagina": 97,
      "total_episodios": 12,
      "link_video": "https://animefire.plus/video/hakushaku-to-yousei"
    },
    {
      "id": 1341,
      "nome": "Halo Legends",
      "link": "https://animefire.plus/animes/halo-legends-todos-os-episodios",
      "texto_original": "Halo Legends",
      "rating": 7.11,
      "classificacao_etaria": "A14",
      "imagem_original": "https://animefire.plus/img/animes/halo-legends.webp",
      "imagem_pasta": "https://animefire.plus/img/animes/halo-legends/",
      "secao": "legendados",
      "pagina": 107,
      "total_episodios": 8,
      "link_video": "https://animefire.plus/video/halo-legends"
    },
    {
      "id": 1342,
      "nome": "Hamatora The Animation",
      "link": "https://animefire.plus/animes/hamatora-the-animation-todos-os-episodios",
      "texto_original": "Hamatora The Animation",
      "rating": 7.36,
      "classificacao_etaria": "A16",
      "imagem_original": "https://animefire.plus/img/animes/hamatora-the-animation.webp",
      "imagem_pasta": "https://animefire.plus/img/animes/hamatora-the-animation/",
      "secao": "legendados",
      "pagina": 91,
      "total_episodios": 12,
      "link_video": "https://animefire.plus/video/hamatora-the-animation"
    },
    {
      "id": 1344,
      "nome": "Hametsu no Oukoku",
      "link": "https://animefire.plus/animes/hametsu-no-oukoku-todos-os-episodios",
      "texto_original": "Hametsu no Oukoku",
      "rating": 6.22,
      "classificacao_etaria": "A16",
      "imagem_original": "https://animefire.plus/img/animes/hametsu-no-oukoku.webp",
      "imagem_pasta": "https://animefire.plus/img/animes/hametsu-no-oukoku/",
      "secao": "legendados",
      "pagina": 21,
      "total_episodios": 12,
      "link_video": "https://animefire.plus/video/hametsu-no-oukoku"
    },
    {
      "id": 1345,
      "nome": "Hamidashi Creative",
      "link": "https://animefire.plus/animes/hamidashi-creative-todos-os-episodios",
      "texto_original": "Hamidashi Creative",
      "rating": null,
      "classificacao_etaria": "A14",
      "imagem_original": "https://animefire.plus/img/animes/hamidashi-creative.webp",
      "imagem_pasta": "https://animefire.plus/img/animes/hamidashi-creative/",
      "secao": "legendados,lancamentos",
      "pagina": 10,
      "total_episodios": 7,
      "link_video": "https://animefire.plus/video/hamidashi-creative"
    },
    {
      "id": 1346,
      "nome": "Hana wa Saku, Shura no Gotoku",
      "link": "https://animefire.plus/animes/hana-wa-saku-shura-no-gotoku-todos-os-episodios",
      "texto_original": "Hana wa Saku, Shura no Gotoku",
      "rating": 7.12,
      "classificacao_etaria": "A14",
      "imagem_original": "https://animefire.plus/img/animes/hana-wa-saku-shura-no-gotoku.webp",
      "imagem_pasta": "https://animefire.plus/img/animes/hana-wa-saku-shura-no-gotoku/",
      "secao": "legendados",
      "pagina": 7,
      "total_episodios": 12,
      "link_video": "https://animefire.plus/video/hana-wa-saku-shura-no-gotoku"
    },
    {
      "id": 1349,
      "nome": "Hanabi-chan wa Okuregachi",
      "link": "https://animefire.plus/animes/hanabi-chan-wa-okuregachi-todos-os-episodios",
      "texto_original": "Hanabi-chan wa Okuregachi",
      "rating": 6.13,
      "classificacao_etaria": "A14",
      "imagem_original": "https://animefire.plus/img/animes/hanabi-chan-wa-okuregachi.webp",
      "imagem_pasta": "https://animefire.plus/img/animes/hanabi-chan-wa-okuregachi/",
      "secao": "legendados",
      "pagina": 31,
      "total_episodios": 12,
      "link_video": "https://animefire.plus/video/hanabi-chan-wa-okuregachi"
    },
    {
      "id": 1350,
      "nome": "Hanamaru Youchien",
      "link": "https://animefire.plus/animes/hanamaru-youchien-todos-os-episodios",
      "texto_original": "Hanamaru Youchien",
      "rating": 7.37,
      "classificacao_etaria": "A14",
      "imagem_original": "https://animefire.plus/img/animes/hanamaru-youchien.webp",
      "imagem_pasta": "https://animefire.plus/img/animes/hanamaru-youchien/",
      "secao": "legendados",
      "pagina": 96,
      "total_episodios": 2,
      "link_video": "https://animefire.plus/video/hanamaru-youchien"
    },
    {
      "id": 1351,
      "nome": "Hanamonogatari",
      "link": "https://animefire.plus/animes/hanamonogatari-todos-os-episodios",
      "texto_original": "Hanamonogatari",
      "rating": 8.05,
      "classificacao_etaria": "A16",
      "imagem_original": "https://animefire.plus/img/animes/hanamonogatari.webp",
      "imagem_pasta": "https://animefire.plus/img/animes/hanamonogatari/",
      "secao": "legendados",
      "pagina": 175,
      "total_episodios": 5,
      "link_video": "https://animefire.plus/video/hanamonogatari"
    },
    {
      "id": 1352,
      "nome": "Hananoi-kun to Koi no Yamai (Dublado)",
      "link": "https://animefire.plus/animes/hananoi-kun-to-koi-no-yamai-dublado-todos-os-episodios",
      "texto_original": "Hananoi-kun to Koi no Yamai (Dublado)",
      "rating": 6.75,
      "classificacao_etaria": "A14",
      "imagem_original": "https://animefire.plus/img/animes/hananoi-kun-to-koi-no-yamai.webp",
      "imagem_pasta": "https://animefire.plus/img/animes/hananoi-kun-to-koi-no-yamai/",
      "secao": "dublados,legendados,lancamentos",
      "pagina": 2,
      "total_episodios": 12,
      "link_video": "https://animefire.plus/video/hananoi-kun-to-koi-no-yamai-dublado"
    },
    {
      "id": 1354,
      "nome": "Hanaukyou Maid-tai",
      "link": "https://animefire.plus/animes/hanaukyou-maid-tai-todos-os-episodios",
      "texto_original": "Hanaukyou Maid-tai",
      "rating": 6.65,
      "classificacao_etaria": "A18",
      "imagem_original": "https://animefire.plus/img/animes/hanaukyou-maid-tai.webp",
      "imagem_pasta": "https://animefire.plus/img/animes/hanaukyou-maid-tai/",
      "secao": "legendados",
      "pagina": 70,
      "total_episodios": 12,
      "link_video": "https://animefire.plus/video/hanaukyou-maid-tai"
    },
    {
      "id": 1355,
      "nome": "Hanaukyou Maid-tai: La Verite",
      "link": "https://animefire.plus/animes/hanaukyou-maid-tai-la-verite-todos-os-episodios",
      "texto_original": "Hanaukyou Maid-tai: La Verite",
      "rating": 6.83,
      "classificacao_etaria": "A18",
      "imagem_original": "https://animefire.plus/img/animes/hanaukyou-maid-tai-la-verite.webp",
      "imagem_pasta": "https://animefire.plus/img/animes/hanaukyou-maid-tai-la-verite/",
      "secao": "legendados",
      "pagina": 70,
      "total_episodios": 12,
      "link_video": "https://animefire.plus/video/hanaukyou-maid-tai-la-verite"
    },
    {
      "id": 1356,
      "nome": "Hanayamata",
      "link": "https://animefire.plus/animes/hanayamata-todos-os-episodios",
      "texto_original": "Hanayamata",
      "rating": 7.37,
      "classificacao_etaria": "A14",
      "imagem_original": "https://animefire.plus/img/animes/hanayamata.webp",
      "imagem_pasta": "https://animefire.plus/img/animes/hanayamata/",
      "secao": "legendados",
      "pagina": 91,
      "total_episodios": 12,
      "link_video": "https://animefire.plus/video/hanayamata"
    }
  ],
  "pagination": {
    "current_page": 33,
    "per_page": 20,
    "total_items": 2189,
    "total_pages": 110,
    "has_next": true,
    "has_prev": true
  }
}
