{
  "message": "Animes com 2 a 12 episódios",
  "episode_range": {
    "min": 2,
    "max": 12
  },
  "data": [
    {
      "id": 1782,
      "nome": "Kage kara Mamoru!",
      "link": "https://animefire.plus/animes/kage-kara-mamoru-todos-os-episodios",
      "texto_original": "Kage kara Mamoru!",
      "rating": 6.67,
      "classificacao_etaria": "A14",
      "imagem_original": "https://animefire.plus/img/animes/kage-kara-mamoru.webp",
      "imagem_pasta": "https://animefire.plus/img/animes/kage-kara-mamoru/",
      "secao": "legendados",
      "pagina": 133,
      "total_episodios": 12,
      "link_video": "https://animefire.plus/video/kage-kara-mamoru"
    },
    {
      "id": 1784,
      "nome": "Kage no Jitsuryokusha ni Naritakute! 2nd Season (Dublado)",
      "link": "https://animefire.plus/animes/kage-no-jitsuryokusha-ni-naritakute-2nd-season-dublado-todos-os-episodios",
      "texto_original": "Kage no Jitsuryokusha ni Naritakute! 2nd Season (Dublado)",
      "rating": 8.28,
      "classificacao_etaria": "A16",
      "imagem_original": "https://animefire.plus/img/animes/kage-no-jitsuryokusha-ni-naritakute-2nd-season.webp",
      "imagem_pasta": "https://animefire.plus/img/animes/kage-no-jitsuryokusha-ni-naritakute-2nd-season/",
      "secao": "dublados,legendados,lancamentos",
      "pagina": 5,
      "total_episodios": 12,
      "link_video": "https://animefire.plus/video/kage-no-jitsuryokusha-ni-naritakute-2nd-season-dublado"
    },
    {
      "id": 1789,
      "nome": "Kaginado",
      "link": "https://animefire.plus/animes/kaginado-todos-os-episodios",
      "texto_original": "Kaginado",
      "rating": 7.13,
      "classificacao_etaria": "A14",
      "imagem_original": "https://animefire.plus/img/animes/kaginado.webp",
      "imagem_pasta": "https://animefire.plus/img/animes/kaginado/",
      "secao": "legendados",
      "pagina": 37,
      "total_episodios": 12,
      "link_video": "https://animefire.plus/video/kaginado"
    },
    {
      "id": 1790,
      "nome": "Kaginado Season 2",
      "link": "https://animefire.plus/animes/kaginado-season-2-todos-os-episodios",
      "texto_original": "Kaginado Season 2",
      "rating": 7.35,
      "classificacao_etaria": "A14",
      "imagem_original": "https://animefire.plus/img/animes/kaginado-season-2.webp",
      "imagem_pasta": "https://animefire.plus/img/animes/kaginado-season-2/",
      "secao": "legendados",
      "pagina": 33,
      "total_episodios": 12,
      "link_video": "https://animefire.plus/video/kaginado-season-2"
    },
    {
      "id": 1791,
      "nome": "Kaguya-sama wa Kokurasetai: First Kiss wa Owaranai",
      "link": "https://animefire.plus/animes/kaguya-sama-wa-kokurasetai-first-kiss-wa-owaranai-todos-os-episodios",
      "texto_original": "Kaguya-sama wa Kokurasetai: First Kiss wa Owaranai",
      "rating": 8.73,
      "classificacao_etaria": "A14",
      "imagem_original": "https://animefire.plus/img/animes/kaguya-sama-wa-kokurasetai-first-kiss-wa-owaranai.jpg",
      "imagem_pasta": "https://animefire.plus/img/animes/kaguya-sama-wa-kokurasetai-first-kiss-wa-owaranai/",
      "secao": "legendados,lancamentos",
      "pagina": 25,
      "total_episodios": 4,
      "link_video": "https://animefire.plus/video/kaguya-sama-wa-kokurasetai-first-kiss-wa-owaranai"
    },
    {
      "id": 1792,
      "nome": "Kaguya-sama wa Kokurasetai: Tensai-tachi no Renai Zunousen (Dublado)",
      "link": "https://animefire.plus/animes/kaguya-sama-love-is-war-dublado-todos-os-episodios",
      "texto_original": "Kaguya-sama wa Kokurasetai: Tensai-tachi no Renai Zunousen (Dublado)",
      "rating": 8.41,
      "classificacao_etaria": "A14",
      "imagem_original": "https://animefire.plus/img/animes/kaguya-sama-love-is-war.webp",
      "imagem_pasta": "https://animefire.plus/img/animes/kaguya-sama-love-is-war/",
      "secao": "dublados",
      "pagina": 16,
      "total_episodios": 12,
      "link_video": "https://animefire.plus/video/kaguya-sama-love-is-war-dublado"
    },
    {
      "id": 1795,
      "nome": "Kaguya-sama wa Kokurasetai?: Tensai-tachi no Renai Zunousen",
      "link": "https://animefire.plus/animes/kaguya-sama-love-is-war-season-2-todos-os-episodios",
      "texto_original": "Kaguya-sama wa Kokurasetai?: Tensai-tachi no Renai Zunousen",
      "rating": 8.74,
      "classificacao_etaria": "A14",
      "imagem_original": "https://animefire.plus/img/animes/kaguya-sama-love-is-war-season-2.webp",
      "imagem_pasta": "https://animefire.plus/img/animes/kaguya-sama-love-is-war-season-2/",
      "secao": "legendados",
      "pagina": 61,
      "total_episodios": 6,
      "link_video": "https://animefire.plus/video/kaguya-sama-love-is-war-season-2"
    },
    {
      "id": 1796,
      "nome": "Kaguya-sama wa Kokurasetai?: Tensai-tachi no Renai Zunousen (Dublado)",
      "link": "https://animefire.plus/animes/kaguya-sama-wa-kokurasetai-tensai-tachi-no-renai-zunousen-dublado-todos-os-episodios",
      "texto_original": "Kaguya-sama wa Kokurasetai?: Tensai-tachi no Renai Zunousen (Dublado)",
      "rating": 8.68,
      "classificacao_etaria": "A14",
      "imagem_original": "https://animefire.plus/img/animes/kaguya-sama-love-is-war-season-2.webp",
      "imagem_pasta": "https://animefire.plus/img/animes/kaguya-sama-love-is-war-season-2/",
      "secao": "dublados,legendados",
      "pagina": 16,
      "total_episodios": 12,
      "link_video": "https://animefire.plus/video/kaguya-sama-wa-kokurasetai-tensai-tachi-no-renai-zunousen-dublado"
    },
    {
      "id": 1797,
      "nome": "Kai Byoui Ramune",
      "link": "https://animefire.plus/animes/kai-byoui-ramune-todos-os-episodios",
      "texto_original": "Kai Byoui Ramune",
      "rating": 7.15,
      "classificacao_etaria": "A14",
      "imagem_original": "https://animefire.plus/img/animes/kai-byoui-ramune.webp",
      "imagem_pasta": "https://animefire.plus/img/animes/kai-byoui-ramune/",
      "secao": "legendados",
      "pagina": 49,
      "total_episodios": 12,
      "link_video": "https://animefire.plus/video/kai-byoui-ramune"
    },
    {
      "id": 1799,
      "nome": "Kai Feng Qitan: Zhege Baogong Bu Taixing",
      "link": "https://animefire.plus/animes/kai-feng-qitan-zhege-baogong-bu-taixing-todos-os-episodios",
      "texto_original": "Kai Feng Qitan: Zhege Baogong Bu Taixing",
      "rating": 6.22,
      "classificacao_etaria": "A14",
      "imagem_original": "https://animefire.plus/img/animes/kai-feng-qitan-zhege-baogong-bu-taixing.webp",
      "imagem_pasta": "https://animefire.plus/img/animes/kai-feng-qitan-zhege-baogong-bu-taixing/",
      "secao": "legendados",
      "pagina": 140,
      "total_episodios": 10,
      "link_video": "https://animefire.plus/video/kai-feng-qitan-zhege-baogong-bu-taixing"
    },
    {
      "id": 1800,
      "nome": "Kaiba",
      "link": "https://animefire.plus/animes/kaiba-todos-os-episodios",
      "texto_original": "Kaiba",
      "rating": 8.16,
      "classificacao_etaria": "A18",
      "imagem_original": "https://animefire.plus/img/animes/kaiba.webp",
      "imagem_pasta": "https://animefire.plus/img/animes/kaiba/",
      "secao": "legendados",
      "pagina": 92,
      "total_episodios": 12,
      "link_video": "https://animefire.plus/video/kaiba"
    },
    {
      "id": 1804,
      "nome": "Kaichuu!",
      "link": "https://animefire.plus/animes/kaichuu-todos-os-episodios",
      "texto_original": "Kaichuu!",
      "rating": 5.88,
      "classificacao_etaria": "A14",
      "imagem_original": "https://animefire.plus/img/animes/kaichuu.webp",
      "imagem_pasta": "https://animefire.plus/img/animes/kaichuu/",
      "secao": "legendados",
      "pagina": 64,
      "total_episodios": 4,
      "link_video": "https://animefire.plus/video/kaichuu"
    },
    {
      "id": 1806,
      "nome": "Kaifuku Jutsushi no Yarinaoshi",
      "link": "https://animefire.plus/animes/kaifuku-jutsushi-no-yarinaoshi-todos-os-episodios",
      "texto_original": "Kaifuku Jutsushi no Yarinaoshi",
      "rating": 6.32,
      "classificacao_etaria": "A18",
      "imagem_original": "https://animefire.plus/img/animes/kaifuku-jutsushi-no-yarinaoshi.webp",
      "imagem_pasta": "https://animefire.plus/img/animes/kaifuku-jutsushi-no-yarinaoshi/",
      "secao": "legendados",
      "pagina": 48,
      "total_episodios": 12,
      "link_video": "https://animefire.plus/video/kaifuku-jutsushi-no-yarinaoshi"
    },
    {
      "id": 1807,
      "nome": "Kaii to Otome to Kamikakushi",
      "link": "https://animefire.plus/animes/kaii-to-otome-to-kamikakushi-todos-os-episodios",
      "texto_original": "Kaii to Otome to Kamikakushi",
      "rating": 6.76,
      "classificacao_etaria": "A14",
      "imagem_original": "https://animefire.plus/img/animes/kaii-to-otome-to-kamikakushi.webp",
      "imagem_pasta": "https://animefire.plus/img/animes/kaii-to-otome-to-kamikakushi/",
      "secao": "legendados",
      "pagina": 15,
      "total_episodios": 12,
      "link_video": "https://animefire.plus/video/kaii-to-otome-to-kamikakushi"
    },
    {
      "id": 1808,
      "nome": "Kaijin Kaihatsu-bu no Kuroitsu-san",
      "link": "https://animefire.plus/animes/kaijin-kaihatsu-bu-no-kuroitsu-san-todos-os-episodios",
      "texto_original": "Kaijin Kaihatsu-bu no Kuroitsu-san",
      "rating": 6.7,
      "classificacao_etaria": "A14",
      "imagem_original": "https://animefire.plus/img/animes/kaijin-kaihatsu-bu-no-kuroitsu-san.webp",
      "imagem_pasta": "https://animefire.plus/img/animes/kaijin-kaihatsu-bu-no-kuroitsu-san/",
      "secao": "legendados",
      "pagina": 36,
      "total_episodios": 12,
      "link_video": "https://animefire.plus/video/kaijin-kaihatsu-bu-no-kuroitsu-san"
    },
    {
      "id": 1809,
      "nome": "Kaijuu 8-gou (Dublado)",
      "link": "https://animefire.plus/animes/kaijuu-8-gou-dublado-todos-os-episodios",
      "texto_original": "Kaijuu 8-gou (Dublado)",
      "rating": 8.27,
      "classificacao_etaria": "A14",
      "imagem_original": "https://animefire.plus/img/animes/kaijuu-8-gou.webp",
      "imagem_pasta": "https://animefire.plus/img/animes/kaijuu-8-gou/",
      "secao": "dublados,legendados,lancamentos",
      "pagina": 3,
      "total_episodios": 12,
      "link_video": "https://animefire.plus/video/kaijuu-8-gou-dublado"
    },
    {
      "id": 1810,
      "nome": "Kaijuu 8-gou 2nd Season (Dublado)",
      "link": "https://animefire.plus/animes/kaijuu-8-gou-2nd-season-dublado-todos-os-episodios",
      "texto_original": "Kaijuu 8-gou 2nd Season (Dublado)",
      "rating": 7.92,
      "classificacao_etaria": "A14",
      "imagem_original": "https://animefire.plus/img/animes/kaijuu-8-gou-2nd-season.webp",
      "imagem_pasta": "https://animefire.plus/img/animes/kaijuu-8-gou-2nd-season/",
      "secao": "dublados,legendados,lancamentos",
      "pagina": 1,
      "total_episodios": 3,
      "link_video": "https://animefire.plus/video/kaijuu-8-gou-2nd-season-dublado"
    },
    {
      "id": 1814,
      "nome": "Kaiko sareta Ankoku Heishi (30-dai) no Slow na Second Life",
      "link": "https://animefire.plus/animes/kaiko-sareta-ankoku-heishi-30-dai-no-slow-na-second-life-todos-os-episodios",
      "texto_original": "Kaiko sareta Ankoku Heishi (30-dai) no Slow na Second Life",
      "rating": 7.01,
      "classificacao_etaria": "A14",
      "imagem_original": "https://animefire.plus/img/animes/kaiko-sareta-ankoku-heishi-30-dai-no-slow-na-second-life.webp",
      "imagem_pasta": "https://animefire.plus/img/animes/kaiko-sareta-ankoku-heishi-30-dai-no-slow-na-second-life/",
      "secao": "legendados",
      "pagina": 27,
      "total_episodios": 12,
      "link_video": "https://animefire.plus/video/kaiko-sareta-ankoku-heishi-30-dai-no-slow-na-second-life"
    },
    {
      "id": 1816,
      "nome": "Kaizoku Oujo",
      "link": "https://animefire.plus/animes/kaizoku-oujo-todos-os-episodios",
      "texto_original": "Kaizoku Oujo",
      "rating": 7.07,
      "classificacao_etaria": "A14",
      "imagem_original": "https://animefire.plus/img/animes/kaizoku-oujo.webp",
      "imagem_pasta": "https://animefire.plus/img/animes/kaizoku-oujo/",
      "secao": "legendados",
      "pagina": 39,
      "total_episodios": 12,
      "link_video": "https://animefire.plus/video/kaizoku-oujo"
    },
    {
      "id": 1817,
      "nome": "Kakegurui (Dublado)",
      "link": "https://animefire.plus/animes/kakegurui-dublado-todos-os-episodios",
      "texto_original": "Kakegurui (Dublado)",
      "rating": 7.55,
      "classificacao_etaria": "A16",
      "imagem_original": "https://animefire.plus/img/animes/kakegurui.webp",
      "imagem_pasta": "https://animefire.plus/img/animes/kakegurui/",
      "secao": "dublados,legendados",
      "pagina": 26,
      "total_episodios": 12,
      "link_video": "https://animefire.plus/video/kakegurui-dublado"
    }
  ],
  "pagination": {
    "current_page": 45,
    "per_page": 20,
    "total_items": 2189,
    "total_pages": 110,
    "has_next": true,
    "has_prev": true
  }
}
