{
  "message": "Animes com 2 a 12 episódios",
  "episode_range": {
    "min": 2,
    "max": 12
  },
  "data": [
    {
      "id": 3430,
      "nome": "Shin Tennis no Ouji-sama OVA vs. Genius 10",
      "link": "https://animefire.plus/animes/shin-tennis-no-ouji-sama-ova-vs-genius-10-todos-os-episodios",
      "texto_original": "Shin Tennis no Ouji-sama OVA vs. Genius 10",
      "rating": 7.63,
      "classificacao_etaria": "A14",
      "imagem_original": "https://animefire.plus/img/animes/shin-tennis-no-ouji-sama-ova-vs-genius-10.webp",
      "imagem_pasta": "https://animefire.plus/img/animes/shin-tennis-no-ouji-sama-ova-vs-genius-10/",
      "secao": "legendados",
      "pagina": 55,
      "total_episodios": 10,
      "link_video": "https://animefire.plus/video/shin-tennis-no-ouji-sama-ova-vs-genius-10"
    },
    {
      "id": 3431,
      "nome": "Shin Tennis no Ouji-sama Specials",
      "link": "https://animefire.plus/animes/shin-tennis-no-ouji-sama-specials-todos-os-episodios",
      "texto_original": "Shin Tennis no Ouji-sama Specials",
      "rating": 7.52,
      "classificacao_etaria": "A14",
      "imagem_original": "https://animefire.plus/img/animes/shin-tennis-no-ouji-sama-specials.webp",
      "imagem_pasta": "https://animefire.plus/img/animes/shin-tennis-no-ouji-sama-specials/",
      "secao": "legendados",
      "pagina": 55,
      "total_episodios": 7,
      "link_video": "https://animefire.plus/video/shin-tennis-no-ouji-sama-specials"
    },
    {
      "id": 3432,
      "nome": "Shin Tennis no Ouji-sama: Hyoutei vs. Rikkai - Game of Future (Dublado)",
      "link": "https://animefire.plus/animes/shin-tennis-no-ouji-sama-hyoutei-vs-rikkai---game-of-future-dublado-todos-os-episodios",
      "texto_original": "Shin Tennis no Ouji-sama: Hyoutei vs. Rikkai - Game of Future (Dublado)",
      "rating": 7.11,
      "classificacao_etaria": "A14",
      "imagem_original": "https://animefire.plus/img/animes/shin-tennis-no-ouji-sama-hyoutei-vs-rikkai---game-of-future.webp",
      "imagem_pasta": "https://animefire.plus/img/animes/shin-tennis-no-ouji-sama-hyoutei-vs-rikkai---game-of-future/",
      "secao": "dublados",
      "pagina": 16,
      "total_episodios": 2,
      "link_video": "https://animefire.plus/video/shin-tennis-no-ouji-sama-hyoutei-vs-rikkai---game-of-future-dublado"
    },
    {
      "id": 3434,
      "nome": "Shin Tennis no Oujisama: U-17 World Cup Semifinal",
      "link": "https://animefire.plus/animes/shin-tennis-no-oujisama-u-17-world-cup-semifinal-todos-os-episodios",
      "texto_original": "Shin Tennis no Oujisama: U-17 World Cup Semifinal",
      "rating": 6.66,
      "classificacao_etaria": "A14",
      "imagem_original": "https://animefire.plus/img/animes/shin-tennis-no-oujisama-u-17-world-cup-semifinal.webp",
      "imagem_pasta": "https://animefire.plus/img/animes/shin-tennis-no-oujisama-u-17-world-cup-semifinal/",
      "secao": "legendados,lancamentos",
      "pagina": 9,
      "total_episodios": 3,
      "link_video": "https://animefire.plus/video/shin-tennis-no-oujisama-u-17-world-cup-semifinal"
    },
    {
      "id": 3436,
      "nome": "Shinchou Yuusha: Kono Yuusha ga Ore Tueee Kuse ni Shinchou Sugiru",
      "link": "https://animefire.plus/animes/shinchou-yuusha-kono-yuusha-ga-ore-tueee-kuse-ni-shinchou-sugiru-todos-os-episodios",
      "texto_original": "Shinchou Yuusha: Kono Yuusha ga Ore Tueee Kuse ni Shinchou Sugiru",
      "rating": 7.55,
      "classificacao_etaria": "A16",
      "imagem_original": "https://animefire.plus/img/animes/shinchou-yuusha-kono-yuusha-ga-ore-tueee-kuse-ni-shinchou-sugiru.webp",
      "imagem_pasta": "https://animefire.plus/img/animes/shinchou-yuusha-kono-yuusha-ga-ore-tueee-kuse-ni-shinchou-sugiru/",
      "secao": "legendados",
      "pagina": 111,
      "total_episodios": 12,
      "link_video": "https://animefire.plus/video/shinchou-yuusha-kono-yuusha-ga-ore-tueee-kuse-ni-shinchou-sugiru"
    },
    {
      "id": 3437,
      "nome": "Shine Post",
      "link": "https://animefire.plus/animes/shine-post-todos-os-episodios",
      "texto_original": "Shine Post",
      "rating": 7.49,
      "classificacao_etaria": "A14",
      "imagem_original": "https://animefire.plus/img/animes/shine-post.webp",
      "imagem_pasta": "https://animefire.plus/img/animes/shine-post/",
      "secao": "legendados",
      "pagina": 30,
      "total_episodios": 12,
      "link_video": "https://animefire.plus/video/shine-post"
    },
    {
      "id": 3441,
      "nome": "Shingeki no Kyojin OVA (Dublado)",
      "link": "https://animefire.plus/animes/shingeki-no-kyojin-ova-dublado-todos-os-episodios",
      "texto_original": "Shingeki no Kyojin OVA (Dublado)",
      "rating": 7.86,
      "classificacao_etaria": "A16",
      "imagem_original": "https://animefire.plus/img/animes/shingeki-no-kyojin-ova.webp",
      "imagem_pasta": "https://animefire.plus/img/animes/shingeki-no-kyojin-ova/",
      "secao": "dublados,legendados",
      "pagina": 11,
      "total_episodios": 3,
      "link_video": "https://animefire.plus/video/shingeki-no-kyojin-ova-dublado"
    },
    {
      "id": 3442,
      "nome": "Shingeki no Kyojin Season 2 (Dublado)",
      "link": "https://animefire.plus/animes/shingeki-no-kyojin-season-2-dublado-todos-os-episodios",
      "texto_original": "Shingeki no Kyojin Season 2 (Dublado)",
      "rating": 8.4,
      "classificacao_etaria": "A16",
      "imagem_original": "https://animefire.plus/img/animes/shingeki-no-kyojin-season-2.webp",
      "imagem_pasta": "https://animefire.plus/img/animes/shingeki-no-kyojin-season-2/",
      "secao": "dublados,legendados",
      "pagina": 19,
      "total_episodios": 12,
      "link_video": "https://animefire.plus/video/shingeki-no-kyojin-season-2-dublado"
    },
    {
      "id": 3443,
      "nome": "Shingeki no Kyojin Season 3 (Dublado)",
      "link": "https://animefire.plus/animes/shingeki-no-kyojin-season-3-dublado-todos-os-episodios",
      "texto_original": "Shingeki no Kyojin Season 3 (Dublado)",
      "rating": 8.54,
      "classificacao_etaria": "A16",
      "imagem_original": "https://animefire.plus/img/animes/shingeki-no-kyojin-season-3.webp",
      "imagem_pasta": "https://animefire.plus/img/animes/shingeki-no-kyojin-season-3/",
      "secao": "dublados,legendados",
      "pagina": 19,
      "total_episodios": 12,
      "link_video": "https://animefire.plus/video/shingeki-no-kyojin-season-3-dublado"
    },
    {
      "id": 3444,
      "nome": "Shingeki no Kyojin Season 3 Part 2 (Dublado)",
      "link": "https://animefire.plus/animes/shingeki-no-kyojin-season-3-part-2-dublado-todos-os-episodios",
      "texto_original": "Shingeki no Kyojin Season 3 Part 2 (Dublado)",
      "rating": 9.07,
      "classificacao_etaria": "A16",
      "imagem_original": "https://animefire.plus/img/animes/shingeki-no-kyojin-season-3-part-2.webp",
      "imagem_pasta": "https://animefire.plus/img/animes/shingeki-no-kyojin-season-3-part-2/",
      "secao": "dublados,legendados",
      "pagina": 19,
      "total_episodios": 10,
      "link_video": "https://animefire.plus/video/shingeki-no-kyojin-season-3-part-2-dublado"
    },
    {
      "id": 3445,
      "nome": "Shingeki no Kyojin: Kuinaki Sentaku (Dublado)",
      "link": "https://animefire.plus/animes/shingeki-no-kyojin-kuinaki-sentaku-dublado-todos-os-episodios",
      "texto_original": "Shingeki no Kyojin: Kuinaki Sentaku (Dublado)",
      "rating": 8.41,
      "classificacao_etaria": "A16",
      "imagem_original": "https://animefire.plus/img/animes/shingeki-no-kyojin-kuinaki-sentaku.webp",
      "imagem_pasta": "https://animefire.plus/img/animes/shingeki-no-kyojin-kuinaki-sentaku/",
      "secao": "dublados,legendados",
      "pagina": 11,
      "total_episodios": 2,
      "link_video": "https://animefire.plus/video/shingeki-no-kyojin-kuinaki-sentaku-dublado"
    },
    {
      "id": 3446,
      "nome": "Shingeki no Kyojin: Lost Girls (Dublado)",
      "link": "https://animefire.plus/animes/shingeki-no-kyojin-lost-girls-dublado-todos-os-episodios",
      "texto_original": "Shingeki no Kyojin: Lost Girls (Dublado)",
      "rating": 7.8,
      "classificacao_etaria": "A16",
      "imagem_original": "https://animefire.plus/img/animes/shingeki-no-kyojin-lost-girls.webp",
      "imagem_pasta": "https://animefire.plus/img/animes/shingeki-no-kyojin-lost-girls/",
      "secao": "dublados,legendados",
      "pagina": 10,
      "total_episodios": 3,
      "link_video": "https://animefire.plus/video/shingeki-no-kyojin-lost-girls-dublado"
    },
    {
      "id": 3447,
      "nome": "Shingeki no Kyojin: The Final Season - Kanketsu-hen",
      "link": "https://animefire.plus/animes/shingeki-no-kyojin-the-final-season-kanketsu-hen-todos-os-episodios",
      "texto_original": "Shingeki no Kyojin: The Final Season - Kanketsu-hen",
      "rating": 8.86,
      "classificacao_etaria": "A16",
      "imagem_original": "https://animefire.plus/img/animes/shingeki-no-kyojin-the-final-season-kanketsu-hen.jpg",
      "imagem_pasta": "https://animefire.plus/img/animes/shingeki-no-kyojin-the-final-season-kanketsu-hen/",
      "secao": "legendados",
      "pagina": 179,
      "total_episodios": 2,
      "link_video": "https://animefire.plus/video/shingeki-no-kyojin-the-final-season-kanketsu-hen"
    },
    {
      "id": 3449,
      "nome": "Shingeki no Kyojin: The Final Season (Dublado)",
      "link": "https://animefire.plus/animes/shingeki-no-kyojin-the-final-season-dublado-todos-os-episodios",
      "texto_original": "Shingeki no Kyojin: The Final Season (Dublado)",
      "rating": 9.14,
      "classificacao_etaria": "A16",
      "imagem_original": "https://animefire.plus/img/animes/shingeki-no-kyojin-the-final-season.webp",
      "imagem_pasta": "https://animefire.plus/img/animes/shingeki-no-kyojin-the-final-season/",
      "secao": "dublados,legendados",
      "pagina": 18,
      "total_episodios": 9,
      "link_video": "https://animefire.plus/video/shingeki-no-kyojin-the-final-season-dublado"
    },
    {
      "id": 3450,
      "nome": "Shingeki no Kyojin: The Final Season Part 2 (Dublado)",
      "link": "https://animefire.plus/animes/shingeki-no-kyojin-the-final-season-part-2-dublado-todos-os-episodios",
      "texto_original": "Shingeki no Kyojin: The Final Season Part 2 (Dublado)",
      "rating": 8.76,
      "classificacao_etaria": "A16",
      "imagem_original": "https://animefire.plus/img/animes/shingeki-no-kyojin-the-final-season-part-2.webp",
      "imagem_pasta": "https://animefire.plus/img/animes/shingeki-no-kyojin-the-final-season-part-2/",
      "secao": "dublados,legendados",
      "pagina": 12,
      "total_episodios": 12,
      "link_video": "https://animefire.plus/video/shingeki-no-kyojin-the-final-season-part-2-dublado"
    },
    {
      "id": 3451,
      "nome": "Shingeki! Kyojin Chuugakkou",
      "link": "https://animefire.plus/animes/shingeki-kyojin-chuugakkou-todos-os-episodios",
      "texto_original": "Shingeki! Kyojin Chuugakkou",
      "rating": 7.07,
      "classificacao_etaria": "A14",
      "imagem_original": "https://animefire.plus/img/animes/shingeki-kyojin-chuugakkou.webp",
      "imagem_pasta": "https://animefire.plus/img/animes/shingeki-kyojin-chuugakkou/",
      "secao": "legendados",
      "pagina": 99,
      "total_episodios": 12,
      "link_video": "https://animefire.plus/video/shingeki-kyojin-chuugakkou"
    },
    {
      "id": 3452,
      "nome": "Shingetsutan Tsukihime (Dublado)",
      "link": "https://animefire.plus/animes/shingetsutan-tsukihime-dublado-todos-os-episodios",
      "texto_original": "Shingetsutan Tsukihime (Dublado)",
      "rating": 6.83,
      "classificacao_etaria": "A16",
      "imagem_original": "https://animefire.plus/img/animes/shingetsutan-tsukihime.webp",
      "imagem_pasta": "https://animefire.plus/img/animes/shingetsutan-tsukihime/",
      "secao": "dublados,legendados",
      "pagina": 8,
      "total_episodios": 12,
      "link_video": "https://animefire.plus/video/shingetsutan-tsukihime-dublado"
    },
    {
      "id": 3453,
      "nome": "Shinigami Bocchan to Kuro Maid (Dublado)",
      "link": "https://animefire.plus/animes/shinigami-bocchan-to-kuro-maid-dublado-todos-os-episodios",
      "texto_original": "Shinigami Bocchan to Kuro Maid (Dublado)",
      "rating": 7.59,
      "classificacao_etaria": "A14",
      "imagem_original": "https://animefire.plus/img/animes/shinigami-bocchan-to-kuro-maid.webp",
      "imagem_pasta": "https://animefire.plus/img/animes/shinigami-bocchan-to-kuro-maid/",
      "secao": "dublados,legendados",
      "pagina": 12,
      "total_episodios": 12,
      "link_video": "https://animefire.plus/video/shinigami-bocchan-to-kuro-maid-dublado"
    },
    {
      "id": 3454,
      "nome": "Shinigami Bocchan to Kuro Maid 2nd Season (Dublado)",
      "link": "https://animefire.plus/animes/shinigami-bocchan-to-kuro-maid-2nd-season-dublado-todos-os-episodios",
      "texto_original": "Shinigami Bocchan to Kuro Maid 2nd Season (Dublado)",
      "rating": 7.62,
      "classificacao_etaria": "A14",
      "imagem_original": "https://animefire.plus/img/animes/shinigami-bocchan-to-kuro-maid-2nd-season.webp",
      "imagem_pasta": "https://animefire.plus/img/animes/shinigami-bocchan-to-kuro-maid-2nd-season/",
      "secao": "dublados,legendados",
      "pagina": 4,
      "total_episodios": 12,
      "link_video": "https://animefire.plus/video/shinigami-bocchan-to-kuro-maid-2nd-season-dublado"
    },
    {
      "id": 3455,
      "nome": "Shinigami Bocchan to Kuro Maid 3rd Season",
      "link": "https://animefire.plus/animes/shinigami-bocchan-to-kuro-maid-3rd-season-todos-os-episodios",
      "texto_original": "Shinigami Bocchan to Kuro Maid 3rd Season",
      "rating": 8.13,
      "classificacao_etaria": "A14",
      "imagem_original": "https://animefire.plus/img/animes/shinigami-bocchan-to-kuro-maid-3rd-season.webp",
      "imagem_pasta": "https://animefire.plus/img/animes/shinigami-bocchan-to-kuro-maid-3rd-season/",
      "secao": "legendados",
      "pagina": 15,
      "total_episodios": 12,
      "link_video": "https://animefire.plus/video/shinigami-bocchan-to-kuro-maid-3rd-season"
    }
  ],
  "pagination": {
    "current_page": 87,
    "per_page": 20,
    "total_items": 2189,
    "total_pages": 110,
    "has_next": true,
    "has_prev": true
  }
}
