{
  "message": "Animes com 2 a 12 episódios",
  "episode_range": {
    "min": 2,
    "max": 12
  },
  "data": [
    {
      "id": 852,
      "nome": "Dororon Enma-kun Meeramera",
      "link": "https://animefire.plus/animes/dororon-enma-kun-meeramera-todos-os-episodios",
      "texto_original": "Dororon Enma-kun Meeramera",
      "rating": 6.55,
      "classificacao_etaria": "A16",
      "imagem_original": "https://animefire.plus/img/animes/dororon-enma-kun-meeramera.webp",
      "imagem_pasta": "https://animefire.plus/img/animes/dororon-enma-kun-meeramera/",
      "secao": "legendados",
      "pagina": 59,
      "total_episodios": 12,
      "link_video": "https://animefire.plus/video/dororon-enma-kun-meeramera"
    },
    {
      "id": 853,
      "nome": "Dosanko Gal wa Namara Menkoi (Dublado)",
      "link": "https://animefire.plus/animes/dosanko-gal-wa-namara-menkoi-dublado-todos-os-episodios",
      "texto_original": "Dosanko Gal wa Namara Menkoi (Dublado)",
      "rating": 7.04,
      "classificacao_etaria": "A14",
      "imagem_original": "https://animefire.plus/img/animes/dosanko-gal-wa-namara-menkoi.webp",
      "imagem_pasta": "https://animefire.plus/img/animes/dosanko-gal-wa-namara-menkoi/",
      "secao": "dublados,legendados,lancamentos",
      "pagina": 3,
      "total_episodios": 12,
      "link_video": "https://animefire.plus/video/dosanko-gal-wa-namara-menkoi-dublado"
    },
    {
      "id": 854,
      "nome": "Dou Shen Ji",
      "link": "https://animefire.plus/animes/dou-shen-ji-todos-os-episodios",
      "texto_original": "Dou Shen Ji",
      "rating": 5.81,
      "classificacao_etaria": "A14",
      "imagem_original": "https://animefire.plus/img/animes/dou-shen-ji.webp",
      "imagem_pasta": "https://animefire.plus/img/animes/dou-shen-ji/",
      "secao": "legendados",
      "pagina": 37,
      "total_episodios": 12,
      "link_video": "https://animefire.plus/video/dou-shen-ji"
    },
    {
      "id": 855,
      "nome": "Double Circle",
      "link": "https://animefire.plus/animes/double-circle-todos-os-episodios",
      "texto_original": "Double Circle",
      "rating": 4.94,
      "classificacao_etaria": "A14",
      "imagem_original": "https://animefire.plus/img/animes/double-circle.webp",
      "imagem_pasta": "https://animefire.plus/img/animes/double-circle/",
      "secao": "legendados",
      "pagina": 113,
      "total_episodios": 6,
      "link_video": "https://animefire.plus/video/double-circle"
    },
    {
      "id": 859,
      "nome": "Doujin Work",
      "link": "https://animefire.plus/animes/doujin-work-todos-os-episodios",
      "texto_original": "Doujin Work",
      "rating": 6.83,
      "classificacao_etaria": "A14",
      "imagem_original": "https://animefire.plus/img/animes/doujin-work.webp",
      "imagem_pasta": "https://animefire.plus/img/animes/doujin-work/",
      "secao": "legendados",
      "pagina": 102,
      "total_episodios": 12,
      "link_video": "https://animefire.plus/video/doujin-work"
    },
    {
      "id": 860,
      "nome": "Doukyonin wa Hiza, Tokidoki, Atama no Ue.",
      "link": "https://animefire.plus/animes/doukyonin-wa-hiza-tokidoki-atama-no-ue-todos-os-episodios",
      "texto_original": "Doukyonin wa Hiza, Tokidoki, Atama no Ue.",
      "rating": 7.81,
      "classificacao_etaria": "A14",
      "imagem_original": "https://animefire.plus/img/animes/doukyonin-wa-hiza-tokidoki-atama-no-ue.webp",
      "imagem_pasta": "https://animefire.plus/img/animes/doukyonin-wa-hiza-tokidoki-atama-no-ue/",
      "secao": "legendados",
      "pagina": 60,
      "total_episodios": 12,
      "link_video": "https://animefire.plus/video/doukyonin-wa-hiza-tokidoki-atama-no-ue"
    },
    {
      "id": 862,
      "nome": "Douluo Dalu 2nd Season",
      "link": "https://animefire.plus/animes/douluo-dalu-2nd-season-todos-os-episodios",
      "texto_original": "Douluo Dalu 2nd Season",
      "rating": 7.92,
      "classificacao_etaria": "A14",
      "imagem_original": "https://animefire.plus/img/animes/douluo-dalu-2nd-season.webp",
      "imagem_pasta": "https://animefire.plus/img/animes/douluo-dalu-2nd-season/",
      "secao": "legendados",
      "pagina": 82,
      "total_episodios": 11,
      "link_video": "https://animefire.plus/video/douluo-dalu-2nd-season"
    },
    {
      "id": 864,
      "nome": "Doupo Cangqiong 2nd Season Specials",
      "link": "https://animefire.plus/animes/doupo-cangqiong-2nd-season-specials-todos-os-episodios",
      "texto_original": "Doupo Cangqiong 2nd Season Specials",
      "rating": 7.3,
      "classificacao_etaria": "A14",
      "imagem_original": "https://animefire.plus/img/animes/doupo-cangqiong-2nd-season-specials.webp",
      "imagem_pasta": "https://animefire.plus/img/animes/doupo-cangqiong-2nd-season-specials/",
      "secao": "legendados",
      "pagina": 87,
      "total_episodios": 3,
      "link_video": "https://animefire.plus/video/doupo-cangqiong-2nd-season-specials"
    },
    {
      "id": 865,
      "nome": "Doupo Cangqiong Specials",
      "link": "https://animefire.plus/animes/doupo-cangqiong-specials-todos-os-episodios",
      "texto_original": "Doupo Cangqiong Specials",
      "rating": 7.43,
      "classificacao_etaria": "A14",
      "imagem_original": "https://animefire.plus/img/animes/doupo-cangqiong-specials.webp",
      "imagem_pasta": "https://animefire.plus/img/animes/doupo-cangqiong-specials/",
      "secao": "legendados",
      "pagina": 83,
      "total_episodios": 2,
      "link_video": "https://animefire.plus/video/doupo-cangqiong-specials"
    },
    {
      "id": 866,
      "nome": "Douse, Koishite Shimaunda.",
      "link": "https://animefire.plus/animes/douse-koishite-shimaunda-todos-os-episodios",
      "texto_original": "Douse, Koishite Shimaunda.",
      "rating": 6.09,
      "classificacao_etaria": "A14",
      "imagem_original": "https://animefire.plus/img/animes/douse-koishite-shimaunda.webp",
      "imagem_pasta": "https://animefire.plus/img/animes/douse-koishite-shimaunda/",
      "secao": "legendados",
      "pagina": 7,
      "total_episodios": 12,
      "link_video": "https://animefire.plus/video/douse-koishite-shimaunda"
    },
    {
      "id": 868,
      "nome": "Dr. Stone: New World (Dublado)",
      "link": "https://animefire.plus/animes/dr-stone-new-world-dublado-todos-os-episodios",
      "texto_original": "Dr. Stone: New World (Dublado)",
      "rating": 8.15,
      "classificacao_etaria": "A14",
      "imagem_original": "https://animefire.plus/img/animes/dr-stone-new-world.webp",
      "imagem_pasta": "https://animefire.plus/img/animes/dr-stone-new-world/",
      "secao": "dublados,legendados",
      "pagina": 7,
      "total_episodios": 11,
      "link_video": "https://animefire.plus/video/dr-stone-new-world-dublado"
    },
    {
      "id": 869,
      "nome": "Dr. Stone: New World Part 2 (Dublado)",
      "link": "https://animefire.plus/animes/dr-stone-new-world-part-2-dublado-todos-os-episodios",
      "texto_original": "Dr. Stone: New World Part 2 (Dublado)",
      "rating": 8.34,
      "classificacao_etaria": "A14",
      "imagem_original": "https://animefire.plus/img/animes/dr-stone-new-world-part-2.webp",
      "imagem_pasta": "https://animefire.plus/img/animes/dr-stone-new-world-part-2/",
      "secao": "dublados,legendados",
      "pagina": 5,
      "total_episodios": 11,
      "link_video": "https://animefire.plus/video/dr-stone-new-world-part-2-dublado"
    },
    {
      "id": 871,
      "nome": "Dr. Stone: Science Future (Dublado)",
      "link": "https://animefire.plus/animes/dr-stone-science-future-dublado-todos-os-episodios",
      "texto_original": "Dr. Stone: Science Future (Dublado)",
      "rating": 8.24,
      "classificacao_etaria": "A14",
      "imagem_original": "https://animefire.plus/img/animes/dr-stone-science-future.webp",
      "imagem_pasta": "https://animefire.plus/img/animes/dr-stone-science-future/",
      "secao": "dublados,legendados,lancamentos",
      "pagina": 1,
      "total_episodios": 12,
      "link_video": "https://animefire.plus/video/dr-stone-science-future-dublado"
    },
    {
      "id": 872,
      "nome": "Dr. Stone: Science Future Part 2",
      "link": "https://animefire.plus/animes/dr-stone-science-future-part-2-todos-os-episodios",
      "texto_original": "Dr. Stone: Science Future Part 2",
      "rating": 8.22,
      "classificacao_etaria": "A14",
      "imagem_original": "https://animefire.plus/img/animes/dr-stone-science-future-part-2.webp",
      "imagem_pasta": "https://animefire.plus/img/animes/dr-stone-science-future-part-2/",
      "secao": "legendados,lancamentos",
      "pagina": 1,
      "total_episodios": 4,
      "link_video": "https://animefire.plus/video/dr-stone-science-future-part-2"
    },
    {
      "id": 873,
      "nome": "Dr. Stone: Stone Wars (Dublado)",
      "link": "https://animefire.plus/animes/dr-stone-stone-wars-dublado-todos-os-episodios",
      "texto_original": "Dr. Stone: Stone Wars (Dublado)",
      "rating": 8.16,
      "classificacao_etaria": "A14",
      "imagem_original": "https://animefire.plus/img/animes/dr-stone-stone-wars.webp",
      "imagem_pasta": "https://animefire.plus/img/animes/dr-stone-stone-wars/",
      "secao": "dublados,legendados",
      "pagina": 18,
      "total_episodios": 11,
      "link_video": "https://animefire.plus/video/dr-stone-stone-wars-dublado"
    },
    {
      "id": 881,
      "nome": "Dragon Crisis!",
      "link": "https://animefire.plus/animes/dragon-crisis-todos-os-episodios",
      "texto_original": "Dragon Crisis!",
      "rating": 6.82,
      "classificacao_etaria": "A14",
      "imagem_original": "https://animefire.plus/img/animes/dragon-crisis.webp",
      "imagem_pasta": "https://animefire.plus/img/animes/dragon-crisis/",
      "secao": "legendados",
      "pagina": 161,
      "total_episodios": 12,
      "link_video": "https://animefire.plus/video/dragon-crisis"
    },
    {
      "id": 886,
      "nome": "Dragon, Ie wo Kau. (Dublado)",
      "link": "https://animefire.plus/animes/dragon-ie-wo-kau-dublado-todos-os-episodios",
      "texto_original": "Dragon, Ie wo Kau. (Dublado)",
      "rating": 6.42,
      "classificacao_etaria": "A14",
      "imagem_original": "https://animefire.plus/img/animes/dragon-ie-wo-kau.webp",
      "imagem_pasta": "https://animefire.plus/img/animes/dragon-ie-wo-kau/",
      "secao": "dublados,legendados",
      "pagina": 13,
      "total_episodios": 12,
      "link_video": "https://animefire.plus/video/dragon-ie-wo-kau-dublado"
    },
    {
      "id": 887,
      "nome": "Dragon's Dogma",
      "link": "https://animefire.plus/animes/dragon-s-dogma-todos-os-episodios",
      "texto_original": "Dragon's Dogma",
      "rating": 5.86,
      "classificacao_etaria": "A18",
      "imagem_original": "https://animefire.plus/img/animes/dragon-s-dogma.webp",
      "imagem_pasta": "https://animefire.plus/img/animes/dragon-s-dogma/",
      "secao": "legendados",
      "pagina": 42,
      "total_episodios": 7,
      "link_video": "https://animefire.plus/video/dragon-s-dogma"
    },
    {
      "id": 889,
      "nome": "DRAMAtical Murder",
      "link": "https://animefire.plus/animes/dramatical-murder-todos-os-episodios",
      "texto_original": "DRAMAtical Murder",
      "rating": 6.18,
      "classificacao_etaria": "A14",
      "imagem_original": "https://animefire.plus/img/animes/dramatical-murder.webp",
      "imagem_pasta": "https://animefire.plus/img/animes/dramatical-murder/",
      "secao": "legendados",
      "pagina": 92,
      "total_episodios": 12,
      "link_video": "https://animefire.plus/video/dramatical-murder"
    },
    {
      "id": 890,
      "nome": "Dream Festival!",
      "link": "https://animefire.plus/animes/dream-festival-todos-os-episodios",
      "texto_original": "Dream Festival!",
      "rating": 6.9,
      "classificacao_etaria": "A14",
      "imagem_original": "https://animefire.plus/img/animes/dream-festival.webp",
      "imagem_pasta": "https://animefire.plus/img/animes/dream-festival/",
      "secao": "legendados",
      "pagina": 144,
      "total_episodios": 12,
      "link_video": "https://animefire.plus/video/dream-festival"
    }
  ],
  "pagination": {
    "current_page": 21,
    "per_page": 20,
    "total_items": 2189,
    "total_pages": 110,
    "has_next": true,
    "has_prev": true
  }
}
