{
  "message": "Animes com 2 a 12 episódios",
  "episode_range": {
    "min": 2,
    "max": 12
  },
  "data": [
    {
      "id": 76,
      "nome": "Aharen-san wa Hakarenai",
      "link": "https://animefire.plus/animes/aharen-san-wa-hakarenai-todos-os-episodios",
      "texto_original": "Aharen-san wa Hakarenai",
      "rating": 7.28,
      "classificacao_etaria": "A14",
      "imagem_original": "https://animefire.plus/img/animes/aharen-san-wa-hakarenai.webp",
      "imagem_pasta": "https://animefire.plus/img/animes/aharen-san-wa-hakarenai/",
      "secao": "legendados",
      "pagina": 34,
      "total_episodios": 12,
      "link_video": "https://animefire.plus/video/aharen-san-wa-hakarenai"
    },
    {
      "id": 77,
      "nome": "Aharen-san wa Hakarenai Season 2",
      "link": "https://animefire.plus/animes/aharen-san-wa-hakarenai-season-2-todos-os-episodios",
      "texto_original": "Aharen-san wa Hakarenai Season 2",
      "rating": 7.49,
      "classificacao_etaria": "A14",
      "imagem_original": "https://animefire.plus/img/animes/aharen-san-wa-hakarenai-season-2.webp",
      "imagem_pasta": "https://animefire.plus/img/animes/aharen-san-wa-hakarenai-season-2/",
      "secao": "legendados",
      "pagina": 6,
      "total_episodios": 12,
      "link_video": "https://animefire.plus/video/aharen-san-wa-hakarenai-season-2"
    },
    {
      "id": 79,
      "nome": "Aho Girl",
      "link": "https://animefire.plus/animes/aho-girl-todos-os-episodios",
      "texto_original": "Aho Girl",
      "rating": 7.14,
      "classificacao_etaria": "A14",
      "imagem_original": "https://animefire.plus/img/animes/aho-girl.webp",
      "imagem_pasta": "https://animefire.plus/img/animes/aho-girl/",
      "secao": "legendados",
      "pagina": 167,
      "total_episodios": 12,
      "link_video": "https://animefire.plus/video/aho-girl"
    },
    {
      "id": 82,
      "nome": "AI no Idenshi",
      "link": "https://animefire.plus/animes/ai-no-idenshi-todos-os-episodios",
      "texto_original": "AI no Idenshi",
      "rating": 6.52,
      "classificacao_etaria": "A14",
      "imagem_original": "https://animefire.plus/img/animes/aI-no-idenshi.jpg",
      "imagem_pasta": "https://animefire.plus/img/animes/aI-no-idenshi/",
      "secao": "legendados",
      "pagina": 22,
      "total_episodios": 12,
      "link_video": "https://animefire.plus/video/ai-no-idenshi"
    },
    {
      "id": 83,
      "nome": "Ai No Kusabi (2012)",
      "link": "https://animefire.plus/animes/ai-no-kusabi-2012-todos-os-episodios",
      "texto_original": "Ai No Kusabi (2012)",
      "rating": 6.72,
      "classificacao_etaria": "A18",
      "imagem_original": "https://animefire.plus/img/animes/ai-no-kusabi-2012.webp",
      "imagem_pasta": "https://animefire.plus/img/animes/ai-no-kusabi-2012/",
      "secao": "legendados",
      "pagina": 60,
      "total_episodios": 4,
      "link_video": "https://animefire.plus/video/ai-no-kusabi-2012"
    },
    {
      "id": 88,
      "nome": "Ai Yori Aoshi: Enishi",
      "link": "https://animefire.plus/animes/ai-yori-aoshi-enishi-todos-os-episodios",
      "texto_original": "Ai Yori Aoshi: Enishi",
      "rating": 7.21,
      "classificacao_etaria": "A14",
      "imagem_original": "https://animefire.plus/img/animes/ai-yori-aoshi-enishi.webp",
      "imagem_pasta": "https://animefire.plus/img/animes/ai-yori-aoshi-enishi/",
      "secao": "legendados",
      "pagina": 118,
      "total_episodios": 12,
      "link_video": "https://animefire.plus/video/ai-yori-aoshi-enishi"
    },
    {
      "id": 89,
      "nome": "AIKa",
      "link": "https://animefire.plus/animes/aika-todos-os-episodios",
      "texto_original": "AIKa",
      "rating": 5.99,
      "classificacao_etaria": "A18",
      "imagem_original": "https://animefire.plus/img/animes/aika.webp",
      "imagem_pasta": "https://animefire.plus/img/animes/aika/",
      "secao": "legendados",
      "pagina": 117,
      "total_episodios": 7,
      "link_video": "https://animefire.plus/video/aika"
    },
    {
      "id": 90,
      "nome": "AIKa R-16: Virgin Mission",
      "link": "https://animefire.plus/animes/aika-r-16-virgin-mission-todos-os-episodios",
      "texto_original": "AIKa R-16: Virgin Mission",
      "rating": 6,
      "classificacao_etaria": "A18",
      "imagem_original": "https://animefire.plus/img/animes/aika-r-16-virgin-mission.webp",
      "imagem_pasta": "https://animefire.plus/img/animes/aika-r-16-virgin-mission/",
      "secao": "legendados",
      "pagina": 60,
      "total_episodios": 3,
      "link_video": "https://animefire.plus/video/aika-r-16-virgin-mission"
    },
    {
      "id": 91,
      "nome": "Aika Zero",
      "link": "https://animefire.plus/animes/aika-zero-todos-os-episodios",
      "texto_original": "Aika Zero",
      "rating": 5.99,
      "classificacao_etaria": "A18",
      "imagem_original": "https://animefire.plus/img/animes/aika-zero.webp",
      "imagem_pasta": "https://animefire.plus/img/animes/aika-zero/",
      "secao": "legendados",
      "pagina": 111,
      "total_episodios": 2,
      "link_video": "https://animefire.plus/video/aika-zero"
    },
    {
      "id": 92,
      "nome": "AIKa Zero Picture Drama",
      "link": "https://animefire.plus/animes/aika-zero-picture-drama-todos-os-episodios",
      "texto_original": "AIKa Zero Picture Drama",
      "rating": 5.57,
      "classificacao_etaria": "A18",
      "imagem_original": "https://animefire.plus/img/animes/aika-zero-picture-drama.webp",
      "imagem_pasta": "https://animefire.plus/img/animes/aika-zero-picture-drama/",
      "secao": "legendados",
      "pagina": 44,
      "total_episodios": 3,
      "link_video": "https://animefire.plus/video/aika-zero-picture-drama"
    },
    {
      "id": 94,
      "nome": "Aikatsu on Parade!",
      "link": "https://animefire.plus/animes/aikatsu-on-parade-todos-os-episodios",
      "texto_original": "Aikatsu on Parade!",
      "rating": 6.83,
      "classificacao_etaria": "A10",
      "imagem_original": "https://animefire.plus/img/animes/aikatsu-on-parade.webp",
      "imagem_pasta": "https://animefire.plus/img/animes/aikatsu-on-parade/",
      "secao": "legendados",
      "pagina": 109,
      "total_episodios": 3,
      "link_video": "https://animefire.plus/video/aikatsu-on-parade"
    },
    {
      "id": 99,
      "nome": "Air Gear: Kuro no Hane to Nemuri no Mori - Break on the Sky",
      "link": "https://animefire.plus/animes/air-gear-kuro-no-hane-to-nemuri-no-mori---break-on-the-sky-todos-os-episodios",
      "texto_original": "Air Gear: Kuro no Hane to Nemuri no Mori - Break on the Sky",
      "rating": 7.69,
      "classificacao_etaria": "A18",
      "imagem_original": "https://animefire.plus/img/animes/air-gear-kuro-no-hane-to-nemuri-no-mori---break-on-the-sky.webp",
      "imagem_pasta": "https://animefire.plus/img/animes/air-gear-kuro-no-hane-to-nemuri-no-mori---break-on-the-sky/",
      "secao": "legendados",
      "pagina": 92,
      "total_episodios": 3,
      "link_video": "https://animefire.plus/video/air-gear-kuro-no-hane-to-nemuri-no-mori---break-on-the-sky"
    },
    {
      "id": 104,
      "nome": "Aiura",
      "link": "https://animefire.plus/animes/aiura-todos-os-episodios",
      "texto_original": "Aiura",
      "rating": 6.75,
      "classificacao_etaria": null,
      "imagem_original": "https://animefire.plus/img/animes/aiura.webp",
      "imagem_pasta": "https://animefire.plus/img/animes/aiura/",
      "secao": "legendados",
      "pagina": 109,
      "total_episodios": 12,
      "link_video": "https://animefire.plus/video/aiura"
    },
    {
      "id": 107,
      "nome": "Akagami no Shirayuki-hime",
      "link": "https://animefire.plus/animes/akagami-no-shirayuki-hime-todos-os-episodios",
      "texto_original": "Akagami no Shirayuki-hime",
      "rating": 7.9,
      "classificacao_etaria": "A14",
      "imagem_original": "https://animefire.plus/img/animes/akagami-no-shirayuki-hime.webp",
      "imagem_pasta": "https://animefire.plus/img/animes/akagami-no-shirayuki-hime/",
      "secao": "legendados",
      "pagina": 178,
      "total_episodios": 12,
      "link_video": "https://animefire.plus/video/akagami-no-shirayuki-hime"
    },
    {
      "id": 112,
      "nome": "Akai Hayate",
      "link": "https://animefire.plus/animes/akai-hayate-todos-os-episodios",
      "texto_original": "Akai Hayate",
      "rating": 5.48,
      "classificacao_etaria": "A18",
      "imagem_original": "https://animefire.plus/img/animes/akai-hayate.webp",
      "imagem_pasta": "https://animefire.plus/img/animes/akai-hayate/",
      "secao": "legendados",
      "pagina": 76,
      "total_episodios": 4,
      "link_video": "https://animefire.plus/video/akai-hayate"
    },
    {
      "id": 117,
      "nome": "Akanesasu Shoujo",
      "link": "https://animefire.plus/animes/akanesasu-shoujo-todos-os-episodios",
      "texto_original": "Akanesasu Shoujo",
      "rating": 6.57,
      "classificacao_etaria": "A14",
      "imagem_original": "https://animefire.plus/img/animes/akanesasu-shoujo.webp",
      "imagem_pasta": "https://animefire.plus/img/animes/akanesasu-shoujo/",
      "secao": "legendados",
      "pagina": 153,
      "total_episodios": 12,
      "link_video": "https://animefire.plus/video/akanesasu-shoujo"
    },
    {
      "id": 119,
      "nome": "Akatsuki no Yona OVA",
      "link": "https://animefire.plus/animes/akatsuki-no-yona-ova-todos-os-episodios",
      "texto_original": "Akatsuki no Yona OVA",
      "rating": 8.16,
      "classificacao_etaria": "A14",
      "imagem_original": "https://animefire.plus/img/animes/akatsuki-no-yona-ova.webp",
      "imagem_pasta": "https://animefire.plus/img/animes/akatsuki-no-yona-ova/",
      "secao": "legendados",
      "pagina": 152,
      "total_episodios": 3,
      "link_video": "https://animefire.plus/video/akatsuki-no-yona-ova"
    },
    {
      "id": 122,
      "nome": "Akebi-chan no Sailor-fuku",
      "link": "https://animefire.plus/animes/akebi-chan-no-sailor-fuku-todos-os-episodios",
      "texto_original": "Akebi-chan no Sailor-fuku",
      "rating": 7.65,
      "classificacao_etaria": "A14",
      "imagem_original": "https://animefire.plus/img/animes/akebi-chan-no-sailor-fuku.webp",
      "imagem_pasta": "https://animefire.plus/img/animes/akebi-chan-no-sailor-fuku/",
      "secao": "legendados",
      "pagina": 36,
      "total_episodios": 12,
      "link_video": "https://animefire.plus/video/akebi-chan-no-sailor-fuku"
    },
    {
      "id": 123,
      "nome": "Aki-Sora",
      "link": "https://animefire.plus/animes/aki-sora-todos-os-episodios",
      "texto_original": "Aki-Sora",
      "rating": 6.2,
      "classificacao_etaria": "A18",
      "imagem_original": "https://animefire.plus/img/animes/aki-sora.webp",
      "imagem_pasta": "https://animefire.plus/img/animes/aki-sora/",
      "secao": "legendados",
      "pagina": 128,
      "total_episodios": 3,
      "link_video": "https://animefire.plus/video/aki-sora"
    },
    {
      "id": 124,
      "nome": "Akiba Maid Sensou",
      "link": "https://animefire.plus/animes/akiba-maid-sensou-todos-os-episodios",
      "texto_original": "Akiba Maid Sensou",
      "rating": 7.58,
      "classificacao_etaria": "A16",
      "imagem_original": "https://animefire.plus/img/animes/akiba-maid-sensou.webp",
      "imagem_pasta": "https://animefire.plus/img/animes/akiba-maid-sensou/",
      "secao": "legendados",
      "pagina": 28,
      "total_episodios": 12,
      "link_video": "https://animefire.plus/video/akiba-maid-sensou"
    }
  ],
  "pagination": {
    "current_page": 3,
    "per_page": 20,
    "total_items": 2189,
    "total_pages": 110,
    "has_next": true,
    "has_prev": true
  }
}
