{
  "message": "Animes com 2 a 12 episódios",
  "episode_range": {
    "min": 2,
    "max": 12
  },
  "data": [
    {
      "id": 1241,
      "nome": "Grand Blue",
      "link": "https://animefire.plus/animes/grand-blue-todos-os-episodios",
      "texto_original": "Grand Blue",
      "rating": 8.42,
      "classificacao_etaria": "A14",
      "imagem_original": "https://animefire.plus/img/animes/grand-blue.webp",
      "imagem_pasta": "https://animefire.plus/img/animes/grand-blue/",
      "secao": "legendados",
      "pagina": 142,
      "total_episodios": 12,
      "link_video": "https://animefire.plus/video/grand-blue"
    },
    {
      "id": 1242,
      "nome": "Grand Blue Season 2",
      "link": "https://animefire.plus/animes/grand-blue-season-2-todos-os-episodios",
      "texto_original": "Grand Blue Season 2",
      "rating": 8.72,
      "classificacao_etaria": "A14",
      "imagem_original": "https://animefire.plus/img/animes/grand-blue-season-2.webp",
      "imagem_pasta": "https://animefire.plus/img/animes/grand-blue-season-2/",
      "secao": "legendados,lancamentos",
      "pagina": 3,
      "total_episodios": 4,
      "link_video": "https://animefire.plus/video/grand-blue-season-2"
    },
    {
      "id": 1251,
      "nome": "Green Green",
      "link": "https://animefire.plus/animes/green-green-todos-os-episodios",
      "texto_original": "Green Green",
      "rating": 6.32,
      "classificacao_etaria": "A18",
      "imagem_original": "https://animefire.plus/img/animes/green-green.webp",
      "imagem_pasta": "https://animefire.plus/img/animes/green-green/",
      "secao": "legendados",
      "pagina": 117,
      "total_episodios": 12,
      "link_video": "https://animefire.plus/video/green-green"
    },
    {
      "id": 1254,
      "nome": "Grenadier: Hohoemi No Senshi",
      "link": "https://animefire.plus/animes/grenadier-hohoemi-no-senshi-todos-os-episodios",
      "texto_original": "Grenadier: Hohoemi No Senshi",
      "rating": 6.78,
      "classificacao_etaria": "A14",
      "imagem_original": "https://animefire.plus/img/animes/grenadier-hohoemi-no-senshi.webp",
      "imagem_pasta": "https://animefire.plus/img/animes/grenadier-hohoemi-no-senshi/",
      "secao": "legendados",
      "pagina": 101,
      "total_episodios": 12,
      "link_video": "https://animefire.plus/video/grenadier-hohoemi-no-senshi"
    },
    {
      "id": 1255,
      "nome": "Grendizer U",
      "link": "https://animefire.plus/animes/grendizer-u-todos-os-episodios",
      "texto_original": "Grendizer U",
      "rating": null,
      "classificacao_etaria": "A14",
      "imagem_original": "https://animefire.plus/img/animes/grendizer-u.webp",
      "imagem_pasta": "https://animefire.plus/img/animes/grendizer-u/",
      "secao": "legendados,lancamentos",
      "pagina": 12,
      "total_episodios": 4,
      "link_video": "https://animefire.plus/video/grendizer-u"
    },
    {
      "id": 1258,
      "nome": "Grisaia no Meikyuu: Caprice no Mayu 0",
      "link": "https://animefire.plus/animes/grisaia-no-meikyuu-caprice-no-mayu-0-todos-os-episodios",
      "texto_original": "Grisaia no Meikyuu: Caprice no Mayu 0",
      "rating": 7.97,
      "classificacao_etaria": "A18",
      "imagem_original": "https://animefire.plus/img/animes/grisaia-no-meikyuu-caprice-no-mayu-0.webp",
      "imagem_pasta": "https://animefire.plus/img/animes/grisaia-no-meikyuu-caprice-no-mayu-0/",
      "secao": "legendados",
      "pagina": 73,
      "total_episodios": 2,
      "link_video": "https://animefire.plus/video/grisaia-no-meikyuu-caprice-no-mayu-0"
    },
    {
      "id": 1259,
      "nome": "Grisaia No Rakuen",
      "link": "https://animefire.plus/animes/grisaia-no-rakuen-todos-os-episodios",
      "texto_original": "Grisaia No Rakuen",
      "rating": 7.98,
      "classificacao_etaria": "A16",
      "imagem_original": "https://animefire.plus/img/animes/grisaia-no-rakuen.webp",
      "imagem_pasta": "https://animefire.plus/img/animes/grisaia-no-rakuen/",
      "secao": "legendados",
      "pagina": 91,
      "total_episodios": 10,
      "link_video": "https://animefire.plus/video/grisaia-no-rakuen"
    },
    {
      "id": 1262,
      "nome": "Guardian Hearts",
      "link": "https://animefire.plus/animes/guardian-hearts-todos-os-episodios",
      "texto_original": "Guardian Hearts",
      "rating": 5.92,
      "classificacao_etaria": "A18",
      "imagem_original": "https://animefire.plus/img/animes/guardian-hearts.webp",
      "imagem_pasta": "https://animefire.plus/img/animes/guardian-hearts/",
      "secao": "legendados",
      "pagina": 70,
      "total_episodios": 3,
      "link_video": "https://animefire.plus/video/guardian-hearts"
    },
    {
      "id": 1263,
      "nome": "Guardian Hearts-Power UP!",
      "link": "https://animefire.plus/animes/guardian-hearts-power-up-todos-os-episodios",
      "texto_original": "Guardian Hearts-Power UP!",
      "rating": 5.94,
      "classificacao_etaria": "A16",
      "imagem_original": "https://animefire.plus/img/animes/guardian-hearts-power-up.webp",
      "imagem_pasta": "https://animefire.plus/img/animes/guardian-hearts-power-up/",
      "secao": "legendados",
      "pagina": 70,
      "total_episodios": 2,
      "link_video": "https://animefire.plus/video/guardian-hearts-power-up"
    },
    {
      "id": 1264,
      "nome": "Gugure! Kokkuri-san",
      "link": "https://animefire.plus/animes/gugure-kokkuri-san-todos-os-episodios",
      "texto_original": "Gugure! Kokkuri-san",
      "rating": 7.64,
      "classificacao_etaria": "A14",
      "imagem_original": "https://animefire.plus/img/animes/gugure-kokkuri-san.webp",
      "imagem_pasta": "https://animefire.plus/img/animes/gugure-kokkuri-san/",
      "secao": "legendados",
      "pagina": 146,
      "total_episodios": 7,
      "link_video": "https://animefire.plus/video/gugure-kokkuri-san"
    },
    {
      "id": 1265,
      "nome": "Gugure! Kokkuri-san Specials",
      "link": "https://animefire.plus/animes/gugure-kokkuri-san-specials-todos-os-episodios",
      "texto_original": "Gugure! Kokkuri-san Specials",
      "rating": 7.23,
      "classificacao_etaria": "A14",
      "imagem_original": "https://animefire.plus/img/animes/gugure-kokkuri-san-specials.webp",
      "imagem_pasta": "https://animefire.plus/img/animes/gugure-kokkuri-san-specials/",
      "secao": "legendados",
      "pagina": 84,
      "total_episodios": 4,
      "link_video": "https://animefire.plus/video/gugure-kokkuri-san-specials"
    },
    {
      "id": 1266,
      "nome": "Guild no Uketsukejou desu ga, Zangyou wa Iya nanode Boss wo Solo Toubatsu Shiyou to Omoimasu",
      "link": "https://animefire.plus/animes/guild-no-uketsukejou-desu-ga-zangyou-wa-iya-nanode-boss-wo-solo-toubatsu-shiyou-to-omoimasu-todos-os-episodios",
      "texto_original": "Guild no Uketsukejou desu ga, Zangyou wa Iya nanode Boss wo Solo Toubatsu Shiyou to Omoimasu",
      "rating": 6.66,
      "classificacao_etaria": "A14",
      "imagem_original": "https://animefire.plus/img/animes/guild-no-uketsukejou-desu-ga-zangyou-wa-iya-nanode-boss-wo-solo-toubatsu-shiyou-to-omoimasu.webp",
      "imagem_pasta": "https://animefire.plus/img/animes/guild-no-uketsukejou-desu-ga-zangyou-wa-iya-nanode-boss-wo-solo-toubatsu-shiyou-to-omoimasu/",
      "secao": "legendados",
      "pagina": 8,
      "total_episodios": 12,
      "link_video": "https://animefire.plus/video/guild-no-uketsukejou-desu-ga-zangyou-wa-iya-nanode-boss-wo-solo-toubatsu-shiyou-to-omoimasu"
    },
    {
      "id": 1269,
      "nome": "Guilty Gear Strive: Dual Rulers",
      "link": "https://animefire.plus/animes/guilty-gear-strive-dual-rulers-todos-os-episodios",
      "texto_original": "Guilty Gear Strive: Dual Rulers",
      "rating": 5.94,
      "classificacao_etaria": "A14",
      "imagem_original": "https://animefire.plus/img/animes/guilty-gear-strive-dual-rulers.webp",
      "imagem_pasta": "https://animefire.plus/img/animes/guilty-gear-strive-dual-rulers/",
      "secao": "legendados",
      "pagina": 5,
      "total_episodios": 8,
      "link_video": "https://animefire.plus/video/guilty-gear-strive-dual-rulers"
    },
    {
      "id": 1270,
      "nome": "Guimi Zhi Zhu: Xiaochou Pian",
      "link": "https://animefire.plus/animes/guimi-zhi-zhu-xiaochou-pian-todos-os-episodios",
      "texto_original": "Guimi Zhi Zhu: Xiaochou Pian",
      "rating": 8.46,
      "classificacao_etaria": "A16",
      "imagem_original": "https://animefire.plus/img/animes/guimi-zhi-zhu-xiaochou-pian.webp",
      "imagem_pasta": "https://animefire.plus/img/animes/guimi-zhi-zhu-xiaochou-pian/",
      "secao": "legendados,lancamentos",
      "pagina": 1,
      "total_episodios": 7,
      "link_video": "https://animefire.plus/video/guimi-zhi-zhu-xiaochou-pian"
    },
    {
      "id": 1272,
      "nome": "Gun Frontier",
      "link": "https://animefire.plus/animes/gun-frontier-todos-os-episodios",
      "texto_original": "Gun Frontier",
      "rating": 6.63,
      "classificacao_etaria": "A14",
      "imagem_original": "https://animefire.plus/img/animes/gun-frontier.webp",
      "imagem_pasta": "https://animefire.plus/img/animes/gun-frontier/",
      "secao": "legendados",
      "pagina": 125,
      "total_episodios": 12,
      "link_video": "https://animefire.plus/video/gun-frontier"
    },
    {
      "id": 1276,
      "nome": "Gundam Build Divers Re:Rise",
      "link": "https://animefire.plus/animes/gundam-build-divers-re-rise-todos-os-episodios",
      "texto_original": "Gundam Build Divers Re:Rise",
      "rating": 7.03,
      "classificacao_etaria": "A14",
      "imagem_original": "https://animefire.plus/img/animes/gundam-build-divers-re-rise.webp",
      "imagem_pasta": "https://animefire.plus/img/animes/gundam-build-divers-re-rise/",
      "secao": "legendados",
      "pagina": 109,
      "total_episodios": 2,
      "link_video": "https://animefire.plus/video/gundam-build-divers-re-rise"
    },
    {
      "id": 1277,
      "nome": "Gundam Build Divers Re:Rise 2nd Season",
      "link": "https://animefire.plus/animes/gundam-build-divers-re-rise-2nd-season-todos-os-episodios",
      "texto_original": "Gundam Build Divers Re:Rise 2nd Season",
      "rating": 7.56,
      "classificacao_etaria": null,
      "imagem_original": "https://animefire.plus/img/animes/gundam-build-divers-re-rise-2nd-season.webp",
      "imagem_pasta": "https://animefire.plus/img/animes/gundam-build-divers-re-rise-2nd-season/",
      "secao": "legendados",
      "pagina": 80,
      "total_episodios": 6,
      "link_video": "https://animefire.plus/video/gundam-build-divers-re-rise-2nd-season"
    },
    {
      "id": 1278,
      "nome": "Gundam Build Fighters",
      "link": "https://animefire.plus/animes/gundam-build-fighters-todos-os-episodios",
      "texto_original": "Gundam Build Fighters",
      "rating": 7.89,
      "classificacao_etaria": null,
      "imagem_original": "https://animefire.plus/img/animes/gundam-build-fighters.webp",
      "imagem_pasta": "https://animefire.plus/img/animes/gundam-build-fighters/",
      "secao": "legendados",
      "pagina": 122,
      "total_episodios": 4,
      "link_video": "https://animefire.plus/video/gundam-build-fighters"
    },
    {
      "id": 1284,
      "nome": "Gunnm (Dublado)",
      "link": "https://animefire.plus/animes/gunnm-dublado-todos-os-episodios",
      "texto_original": "Gunnm (Dublado)",
      "rating": 7.1,
      "classificacao_etaria": "A18",
      "imagem_original": "https://animefire.plus/img/animes/gunnm.webp",
      "imagem_pasta": "https://animefire.plus/img/animes/gunnm/",
      "secao": "dublados,legendados",
      "pagina": 21,
      "total_episodios": 2,
      "link_video": "https://animefire.plus/video/gunnm-dublado"
    },
    {
      "id": 1288,
      "nome": "Gunsmith Cats (Dublado)",
      "link": "https://animefire.plus/animes/gunsmith-cats-dublado-todos-os-episodios",
      "texto_original": "Gunsmith Cats (Dublado)",
      "rating": 7.27,
      "classificacao_etaria": "A14",
      "imagem_original": "https://animefire.plus/img/animes/gunsmith-cats.webp",
      "imagem_pasta": "https://animefire.plus/img/animes/gunsmith-cats/",
      "secao": "dublados",
      "pagina": 23,
      "total_episodios": 3,
      "link_video": "https://animefire.plus/video/gunsmith-cats-dublado"
    }
  ],
  "pagination": {
    "current_page": 31,
    "per_page": 20,
    "total_items": 2189,
    "total_pages": 110,
    "has_next": true,
    "has_prev": true
  }
}
