{
  "message": "Animes com 2 a 12 episódios",
  "episode_range": {
    "min": 2,
    "max": 12
  },
  "data": [
    {
      "id": 736,
      "nome": "Dance In The Vampire Bund",
      "link": "https://animefire.plus/animes/dance-in-the-vampire-bund-todos-os-episodios",
      "texto_original": "Dance In The Vampire Bund",
      "rating": 7.13,
      "classificacao_etaria": "A18",
      "imagem_original": "https://animefire.plus/img/animes/dance-in-the-vampire-bund.webp",
      "imagem_pasta": "https://animefire.plus/img/animes/dance-in-the-vampire-bund/",
      "secao": "legendados",
      "pagina": 101,
      "total_episodios": 12,
      "link_video": "https://animefire.plus/video/dance-in-the-vampire-bund"
    },
    {
      "id": 737,
      "nome": "Dance with Devils",
      "link": "https://animefire.plus/animes/dance-with-devils-todos-os-episodios",
      "texto_original": "Dance with Devils",
      "rating": 6.64,
      "classificacao_etaria": "A16",
      "imagem_original": "https://animefire.plus/img/animes/dance-with-devils.webp",
      "imagem_pasta": "https://animefire.plus/img/animes/dance-with-devils/",
      "secao": "legendados",
      "pagina": 118,
      "total_episodios": 12,
      "link_video": "https://animefire.plus/video/dance-with-devils"
    },
    {
      "id": 738,
      "nome": "Danchigai",
      "link": "https://animefire.plus/animes/danchigai-todos-os-episodios",
      "texto_original": "Danchigai",
      "rating": 6.63,
      "classificacao_etaria": "A14",
      "imagem_original": "https://animefire.plus/img/animes/danchigai.webp",
      "imagem_pasta": "https://animefire.plus/img/animes/danchigai/",
      "secao": "legendados",
      "pagina": 104,
      "total_episodios": 12,
      "link_video": "https://animefire.plus/video/danchigai"
    },
    {
      "id": 739,
      "nome": "Dandadan (Dublado)",
      "link": "https://animefire.plus/animes/dandadan-dublado-todos-os-episodios",
      "texto_original": "Dandadan (Dublado)",
      "rating": 8.48,
      "classificacao_etaria": "A16",
      "imagem_original": "https://animefire.plus/img/animes/dandadan.webp",
      "imagem_pasta": "https://animefire.plus/img/animes/dandadan/",
      "secao": "dublados,legendados",
      "pagina": 2,
      "total_episodios": 12,
      "link_video": "https://animefire.plus/video/dandadan-dublado"
    },
    {
      "id": 740,
      "nome": "Dandadan 2nd Season (Dublado)",
      "link": "https://animefire.plus/animes/dandadan-2nd-season-dublado-todos-os-episodios",
      "texto_original": "Dandadan 2nd Season (Dublado)",
      "rating": 8.49,
      "classificacao_etaria": "A16",
      "imagem_original": "https://animefire.plus/img/animes/dandadan-2nd-season.webp",
      "imagem_pasta": "https://animefire.plus/img/animes/dandadan-2nd-season/",
      "secao": "dublados,legendados,lancamentos",
      "pagina": 1,
      "total_episodios": 5,
      "link_video": "https://animefire.plus/video/dandadan-2nd-season-dublado"
    },
    {
      "id": 744,
      "nome": "Danjo no Yuujou wa Seiritsu suru? (Iya, Shinai!!)",
      "link": "https://animefire.plus/animes/danjo-no-yuujou-wa-seiritsu-suru-iya-shinai-todos-os-episodios",
      "texto_original": "Danjo no Yuujou wa Seiritsu suru? (Iya, Shinai!!)",
      "rating": 6.61,
      "classificacao_etaria": "A14",
      "imagem_original": "https://animefire.plus/img/animes/danjo-no-yuujou-wa-seiritsu-suru-iya-shinai.webp",
      "imagem_pasta": "https://animefire.plus/img/animes/danjo-no-yuujou-wa-seiritsu-suru-iya-shinai/",
      "secao": "legendados",
      "pagina": 6,
      "total_episodios": 12,
      "link_video": "https://animefire.plus/video/danjo-no-yuujou-wa-seiritsu-suru-iya-shinai"
    },
    {
      "id": 745,
      "nome": "Danna ga Nani wo Itteiru ka Wakaranai Ken",
      "link": "https://animefire.plus/animes/danna-ga-nani-wo-itteiru-ka-wakaranai-ken-todos-os-episodios",
      "texto_original": "Danna ga Nani wo Itteiru ka Wakaranai Ken",
      "rating": 7.48,
      "classificacao_etaria": "A14",
      "imagem_original": "https://animefire.plus/img/animes/danna-ga-nani-wo-itteiru-ka-wakaranai-ken.webp",
      "imagem_pasta": "https://animefire.plus/img/animes/danna-ga-nani-wo-itteiru-ka-wakaranai-ken/",
      "secao": "legendados",
      "pagina": 145,
      "total_episodios": 2,
      "link_video": "https://animefire.plus/video/danna-ga-nani-wo-itteiru-ka-wakaranai-ken"
    },
    {
      "id": 748,
      "nome": "Danshi Koukousei no Nichijou",
      "link": "https://animefire.plus/animes/danshi-koukousei-no-nichijou-todos-os-episodios",
      "texto_original": "Danshi Koukousei no Nichijou",
      "rating": 8.32,
      "classificacao_etaria": "A14",
      "imagem_original": "https://animefire.plus/img/animes/danshi-koukousei-no-nichijou.webp",
      "imagem_pasta": "https://animefire.plus/img/animes/danshi-koukousei-no-nichijou/",
      "secao": "legendados",
      "pagina": 113,
      "total_episodios": 9,
      "link_video": "https://animefire.plus/video/danshi-koukousei-no-nichijou"
    },
    {
      "id": 749,
      "nome": "Dantalian No Shoka",
      "link": "https://animefire.plus/animes/dantalian-no-shoka-todos-os-episodios",
      "texto_original": "Dantalian No Shoka",
      "rating": 7.3,
      "classificacao_etaria": "A16",
      "imagem_original": "https://animefire.plus/img/animes/dantalian-no-shoka.webp",
      "imagem_pasta": "https://animefire.plus/img/animes/dantalian-no-shoka/",
      "secao": "legendados",
      "pagina": 101,
      "total_episodios": 12,
      "link_video": "https://animefire.plus/video/dantalian-no-shoka"
    },
    {
      "id": 754,
      "nome": "Darker than Black: Ryuusei no Gemini",
      "link": "https://animefire.plus/animes/darker-than-black-ryuusei-no-gemini-todos-os-episodios",
      "texto_original": "Darker than Black: Ryuusei no Gemini",
      "rating": 7.54,
      "classificacao_etaria": "A16",
      "imagem_original": "https://animefire.plus/img/animes/darker-than-black-ryuusei-no-gemini.webp",
      "imagem_pasta": "https://animefire.plus/img/animes/darker-than-black-ryuusei-no-gemini/",
      "secao": "legendados",
      "pagina": 152,
      "total_episodios": 12,
      "link_video": "https://animefire.plus/video/darker-than-black-ryuusei-no-gemini"
    },
    {
      "id": 756,
      "nome": "Darwin's Game",
      "link": "https://animefire.plus/animes/darwin-s-game-todos-os-episodios",
      "texto_original": "Darwin's Game",
      "rating": 7.3,
      "classificacao_etaria": "A16",
      "imagem_original": "https://animefire.plus/img/animes/darwin-s-game.webp",
      "imagem_pasta": "https://animefire.plus/img/animes/darwin-s-game/",
      "secao": "legendados",
      "pagina": 93,
      "total_episodios": 10,
      "link_video": "https://animefire.plus/video/darwin-s-game"
    },
    {
      "id": 757,
      "nome": "Date A Live",
      "link": "https://animefire.plus/animes/date-a-live-todos-os-episodios",
      "texto_original": "Date A Live",
      "rating": 7.41,
      "classificacao_etaria": "A16",
      "imagem_original": "https://animefire.plus/img/animes/date-a-live.webp",
      "imagem_pasta": "https://animefire.plus/img/animes/date-a-live/",
      "secao": "legendados",
      "pagina": 132,
      "total_episodios": 5,
      "link_video": "https://animefire.plus/video/date-a-live"
    },
    {
      "id": 758,
      "nome": "Date A Live II (Dublado)",
      "link": "https://animefire.plus/animes/date-a-live-ii-dublado-todos-os-episodios",
      "texto_original": "Date A Live II (Dublado)",
      "rating": 7.2,
      "classificacao_etaria": "A16",
      "imagem_original": "https://animefire.plus/img/animes/date-a-live-ii.webp",
      "imagem_pasta": "https://animefire.plus/img/animes/date-a-live-ii/",
      "secao": "dublados,legendados",
      "pagina": 9,
      "total_episodios": 7,
      "link_video": "https://animefire.plus/video/date-a-live-ii-dublado"
    },
    {
      "id": 759,
      "nome": "Date A Live III (Dublado)",
      "link": "https://animefire.plus/animes/date-a-live-iii-dublado-todos-os-episodios",
      "texto_original": "Date A Live III (Dublado)",
      "rating": 7.19,
      "classificacao_etaria": "A16",
      "imagem_original": "https://animefire.plus/img/animes/date-a-live-iii.webp",
      "imagem_pasta": "https://animefire.plus/img/animes/date-a-live-iii/",
      "secao": "dublados,legendados",
      "pagina": 8,
      "total_episodios": 12,
      "link_video": "https://animefire.plus/video/date-a-live-iii-dublado"
    },
    {
      "id": 760,
      "nome": "Date A Live IV",
      "link": "https://animefire.plus/animes/date-a-live-iv-todos-os-episodios",
      "texto_original": "Date A Live IV",
      "rating": 7.74,
      "classificacao_etaria": "A16",
      "imagem_original": "https://animefire.plus/img/animes/date-a-live-iv.webp",
      "imagem_pasta": "https://animefire.plus/img/animes/date-a-live-iv/",
      "secao": "legendados,lancamentos",
      "pagina": 39,
      "total_episodios": 5,
      "link_video": "https://animefire.plus/video/date-a-live-iv"
    },
    {
      "id": 761,
      "nome": "Date A Live V",
      "link": "https://animefire.plus/animes/date-a-live-v-todos-os-episodios",
      "texto_original": "Date A Live V",
      "rating": 7.69,
      "classificacao_etaria": "A16",
      "imagem_original": "https://animefire.plus/img/animes/date-a-live-v.webp",
      "imagem_pasta": "https://animefire.plus/img/animes/date-a-live-v/",
      "secao": "legendados",
      "pagina": 15,
      "total_episodios": 12,
      "link_video": "https://animefire.plus/video/date-a-live-v"
    },
    {
      "id": 762,
      "nome": "Days (TV): Touin Gakuen-sen!",
      "link": "https://animefire.plus/animes/days-tv-touin-gakuen-sen-todos-os-episodios",
      "texto_original": "Days (TV): Touin Gakuen-sen!",
      "rating": 7.63,
      "classificacao_etaria": "A14",
      "imagem_original": "https://animefire.plus/img/animes/days-tv-touin-gakuen-sen.webp",
      "imagem_pasta": "https://animefire.plus/img/animes/days-tv-touin-gakuen-sen/",
      "secao": "legendados",
      "pagina": 163,
      "total_episodios": 3,
      "link_video": "https://animefire.plus/video/days-tv-touin-gakuen-sen"
    },
    {
      "id": 763,
      "nome": "De:vadasy",
      "link": "https://animefire.plus/animes/de-vadasy-todos-os-episodios",
      "texto_original": "De:vadasy",
      "rating": 4.8,
      "classificacao_etaria": "A18",
      "imagem_original": "https://animefire.plus/img/animes/de-vadasy.webp",
      "imagem_pasta": "https://animefire.plus/img/animes/de-vadasy/",
      "secao": "legendados",
      "pagina": 69,
      "total_episodios": 3,
      "link_video": "https://animefire.plus/video/de-vadasy"
    },
    {
      "id": 766,
      "nome": "Dead Mount Death Play",
      "link": "https://animefire.plus/animes/dead-mount-death-play-todos-os-episodios",
      "texto_original": "Dead Mount Death Play",
      "rating": 7.27,
      "classificacao_etaria": "A16",
      "imagem_original": "https://animefire.plus/img/animes/dead-mount-death-play.jpg",
      "imagem_pasta": "https://animefire.plus/img/animes/dead-mount-death-play/",
      "secao": "legendados",
      "pagina": 24,
      "total_episodios": 12,
      "link_video": "https://animefire.plus/video/dead-mount-death-play"
    },
    {
      "id": 767,
      "nome": "Dead Mount Death Play Part 2",
      "link": "https://animefire.plus/animes/dead-mount-death-play-part-2-todos-os-episodios",
      "texto_original": "Dead Mount Death Play Part 2",
      "rating": 7.48,
      "classificacao_etaria": "A16",
      "imagem_original": "https://animefire.plus/img/animes/dead-mount-death-play-part-2.webp",
      "imagem_pasta": "https://animefire.plus/img/animes/dead-mount-death-play-part-2/",
      "secao": "legendados",
      "pagina": 19,
      "total_episodios": 12,
      "link_video": "https://animefire.plus/video/dead-mount-death-play-part-2"
    }
  ],
  "pagination": {
    "current_page": 18,
    "per_page": 20,
    "total_items": 2189,
    "total_pages": 110,
    "has_next": true,
    "has_prev": true
  }
}
