{
  "message": "Animes com 2 a 12 episódios",
  "episode_range": {
    "min": 2,
    "max": 12
  },
  "data": [
    {
      "id": 2,
      "nome": ".hack//Quantum",
      "link": "https://animefire.plus/animes/hack-quantum-todos-os-episodios",
      "texto_original": ".hack//Quantum",
      "rating": 7.25,
      "classificacao_etaria": "A14",
      "imagem_original": "https://animefire.plus/img/animes/hack-quantum.webp",
      "imagem_pasta": "https://animefire.plus/img/animes/hack-quantum/",
      "secao": "legendados",
      "pagina": 171,
      "total_episodios": 3,
      "link_video": "https://animefire.plus/video/hack-quantum"
    },
    {
      "id": 6,
      "nome": "\"Bungaku Shoujo\" Memoire",
      "link": "https://animefire.plus/animes/bungaku-shoujo-memoire-todos-os-episodios",
      "texto_original": "\"Bungaku Shoujo\" Memoire",
      "rating": 7.33,
      "classificacao_etaria": "A14",
      "imagem_original": "https://animefire.plus/img/animes/bungaku-shoujo-memoire.webp",
      "imagem_pasta": "https://animefire.plus/img/animes/bungaku-shoujo-memoire/",
      "secao": "legendados",
      "pagina": 42,
      "total_episodios": 3,
      "link_video": "https://animefire.plus/video/bungaku-shoujo-memoire"
    },
    {
      "id": 7,
      "nome": "\"Bungaku Shoujo\" Movie",
      "link": "https://animefire.plus/animes/bungaku-shoujo-movie-todos-os-episodios",
      "texto_original": "\"Bungaku Shoujo\" Movie",
      "rating": 7.49,
      "classificacao_etaria": "A14",
      "imagem_original": "https://animefire.plus/img/animes/bungaku-shoujo-movie.webp",
      "imagem_pasta": "https://animefire.plus/img/animes/bungaku-shoujo-movie/",
      "secao": "legendados",
      "pagina": 146,
      "total_episodios": 3,
      "link_video": "https://animefire.plus/video/bungaku-shoujo-movie"
    },
    {
      "id": 10,
      "nome": "#Compass 2.0: Sentou Setsuri Kaiseki System",
      "link": "https://animefire.plus/animes/compass-2-0-sentou-setsuri-kaiseki-system-todos-os-episodios",
      "texto_original": "#Compass 2.0: Sentou Setsuri Kaiseki System",
      "rating": 5.9,
      "classificacao_etaria": "A14",
      "imagem_original": "https://animefire.plus/img/animes/compass-2-0-sentou-setsuri-kaiseki-system.webp",
      "imagem_pasta": "https://animefire.plus/img/animes/compass-2-0-sentou-setsuri-kaiseki-system/",
      "secao": "legendados",
      "pagina": 4,
      "total_episodios": 12,
      "link_video": "https://animefire.plus/video/compass-2-0-sentou-setsuri-kaiseki-system"
    },
    {
      "id": 15,
      "nome": "100-man no Inochi no Ue ni Ore wa Tatteiru (Dublado)",
      "link": "https://animefire.plus/animes/100-man-no-inochi-no-ue-ni-ore-wa-tatteiru-dublado-todos-os-episodios",
      "texto_original": "100-man no Inochi no Ue ni Ore wa Tatteiru (Dublado)",
      "rating": 6.27,
      "classificacao_etaria": "A14",
      "imagem_original": "https://animefire.plus/img/animes/100-man-no-inochi-no-ue-ni-ore-wa-tatteiru.webp",
      "imagem_pasta": "https://animefire.plus/img/animes/100-man-no-inochi-no-ue-ni-ore-wa-tatteiru/",
      "secao": "dublados,legendados",
      "pagina": 20,
      "total_episodios": 12,
      "link_video": "https://animefire.plus/video/100-man-no-inochi-no-ue-ni-ore-wa-tatteiru-dublado"
    },
    {
      "id": 16,
      "nome": "100-man no Inochi no Ue ni Ore wa Tatteiru 2nd Season",
      "link": "https://animefire.plus/animes/100-man-no-inochi-no-ue-ni-ore-wa-tatteiru-2nd-season-todos-os-episodios",
      "texto_original": "100-man no Inochi no Ue ni Ore wa Tatteiru 2nd Season",
      "rating": 6.79,
      "classificacao_etaria": "A14",
      "imagem_original": "https://animefire.plus/img/animes/100-man-no-inochi-no-ue-ni-ore-wa-tatteiru-2nd-season.webp",
      "imagem_pasta": "https://animefire.plus/img/animes/100-man-no-inochi-no-ue-ni-ore-wa-tatteiru-2nd-season/",
      "secao": "legendados",
      "pagina": 41,
      "total_episodios": 7,
      "link_video": "https://animefire.plus/video/100-man-no-inochi-no-ue-ni-ore-wa-tatteiru-2nd-season"
    },
    {
      "id": 17,
      "nome": "100-man no Inochi no Ue ni Ore wa Tatteiru 2nd Season (Dublado)",
      "link": "https://animefire.plus/animes/100-man-no-inochi-no-ue-ni-ore-wa-tatteiru-2-dublado-todos-os-episodios",
      "texto_original": "100-man no Inochi no Ue ni Ore wa Tatteiru 2nd Season (Dublado)",
      "rating": 6.79,
      "classificacao_etaria": "A14",
      "imagem_original": "https://animefire.plus/img/animes/100-man-no-inochi-no-ue-ni-ore-wa-tatteiru-2.webp",
      "imagem_pasta": "https://animefire.plus/img/animes/100-man-no-inochi-no-ue-ni-ore-wa-tatteiru-2/",
      "secao": "dublados",
      "pagina": 16,
      "total_episodios": 5,
      "link_video": "https://animefire.plus/video/100-man-no-inochi-no-ue-ni-ore-wa-tatteiru-2-dublado"
    },
    {
      "id": 18,
      "nome": "11eyes",
      "link": "https://animefire.plus/animes/11eyes-todos-os-episodios",
      "texto_original": "11eyes",
      "rating": 6.13,
      "classificacao_etaria": "A16",
      "imagem_original": "https://animefire.plus/img/animes/11eyes.webp",
      "imagem_pasta": "https://animefire.plus/img/animes/11eyes/",
      "secao": "legendados",
      "pagina": 40,
      "total_episodios": 12,
      "link_video": "https://animefire.plus/video/11eyes"
    },
    {
      "id": 19,
      "nome": "12-sai.: Chicchana Mune no Tokimeki 2nd Season",
      "link": "https://animefire.plus/animes/12-sai-chicchana-mune-no-tokimeki-2nd-season-todos-os-episodios",
      "texto_original": "12-sai.: Chicchana Mune no Tokimeki 2nd Season",
      "rating": 6.77,
      "classificacao_etaria": "A10",
      "imagem_original": "https://animefire.plus/img/animes/12-sai-chicchana-mune-no-tokimeki-2nd-season.webp",
      "imagem_pasta": "https://animefire.plus/img/animes/12-sai-chicchana-mune-no-tokimeki-2nd-season/",
      "secao": "legendados",
      "pagina": 137,
      "total_episodios": 8,
      "link_video": "https://animefire.plus/video/12-sai-chicchana-mune-no-tokimeki-2nd-season"
    },
    {
      "id": 21,
      "nome": "180 Byou de Kimi no Mimi wo Shiawase ni Dekiru ka?",
      "link": "https://animefire.plus/animes/180-byou-de-kimi-no-mimi-wo-shiawase-ni-dekiru-ka-todos-os-episodios",
      "texto_original": "180 Byou de Kimi no Mimi wo Shiawase ni Dekiru ka?",
      "rating": 5.3,
      "classificacao_etaria": "A14",
      "imagem_original": "https://animefire.plus/img/animes/180-byou-de-kimi-no-mimi-wo-shiawase-ni-dekiru-ka.webp",
      "imagem_pasta": "https://animefire.plus/img/animes/180-byou-de-kimi-no-mimi-wo-shiawase-ni-dekiru-ka/",
      "secao": "legendados,lancamentos",
      "pagina": 38,
      "total_episodios": 6,
      "link_video": "https://animefire.plus/video/180-byou-de-kimi-no-mimi-wo-shiawase-ni-dekiru-ka"
    },
    {
      "id": 23,
      "nome": "2.43: Seiin Koukou Danshi Volley-bu",
      "link": "https://animefire.plus/animes/2-43-seiin-koukou-danshi-volley-bu-todos-os-episodios",
      "texto_original": "2.43: Seiin Koukou Danshi Volley-bu",
      "rating": 6.14,
      "classificacao_etaria": "A14",
      "imagem_original": "https://animefire.plus/img/animes/2-43-seiin-koukou-danshi-volley-bu.webp",
      "imagem_pasta": "https://animefire.plus/img/animes/2-43-seiin-koukou-danshi-volley-bu/",
      "secao": "legendados",
      "pagina": 49,
      "total_episodios": 12,
      "link_video": "https://animefire.plus/video/2-43-seiin-koukou-danshi-volley-bu"
    },
    {
      "id": 25,
      "nome": "22/7",
      "link": "https://animefire.plus/animes/22-7-todos-os-episodios",
      "texto_original": "22/7",
      "rating": 6.81,
      "classificacao_etaria": "A14",
      "imagem_original": "https://animefire.plus/img/animes/22-7.webp",
      "imagem_pasta": "https://animefire.plus/img/animes/22-7/",
      "secao": "legendados",
      "pagina": 92,
      "total_episodios": 11,
      "link_video": "https://animefire.plus/video/22-7"
    },
    {
      "id": 27,
      "nome": "25-sai no Joshikousei",
      "link": "https://animefire.plus/animes/25-sai-no-joshikousei-todos-os-episodios",
      "texto_original": "25-sai no Joshikousei",
      "rating": 5.55,
      "classificacao_etaria": "A18",
      "imagem_original": "https://animefire.plus/img/animes/25-sai-no-joshikousei.webp",
      "imagem_pasta": "https://animefire.plus/img/animes/25-sai-no-joshikousei/",
      "secao": "legendados",
      "pagina": 61,
      "total_episodios": 12,
      "link_video": "https://animefire.plus/video/25-sai-no-joshikousei"
    },
    {
      "id": 30,
      "nome": "30-sai made Doutei dato Mahoutsukai ni Nareru Rashii",
      "link": "https://animefire.plus/animes/30-sai-made-doutei-dato-mahoutsukai-ni-nareru-rashii-todos-os-episodios",
      "texto_original": "30-sai made Doutei dato Mahoutsukai ni Nareru Rashii",
      "rating": 7.64,
      "classificacao_etaria": "A14",
      "imagem_original": "https://animefire.plus/img/animes/30-sai-made-doutei-dato-mahoutsukai-ni-nareru-rashii.webp",
      "imagem_pasta": "https://animefire.plus/img/animes/30-sai-made-doutei-dato-mahoutsukai-ni-nareru-rashii/",
      "secao": "legendados",
      "pagina": 16,
      "total_episodios": 12,
      "link_video": "https://animefire.plus/video/30-sai-made-doutei-dato-mahoutsukai-ni-nareru-rashii"
    },
    {
      "id": 32,
      "nome": "3D Kanojo: Real Girl",
      "link": "https://animefire.plus/animes/3d-kanojo-real-girl-todos-os-episodios",
      "texto_original": "3D Kanojo: Real Girl",
      "rating": 6.84,
      "classificacao_etaria": "A14",
      "imagem_original": "https://animefire.plus/img/animes/3d-kanojo-real-girl.webp",
      "imagem_pasta": "https://animefire.plus/img/animes/3d-kanojo-real-girl/",
      "secao": "legendados",
      "pagina": 178,
      "total_episodios": 12,
      "link_video": "https://animefire.plus/video/3d-kanojo-real-girl"
    },
    {
      "id": 33,
      "nome": "3D Kanojo: Real Girl 2nd Season",
      "link": "https://animefire.plus/animes/3d-kanojo-real-girl-2nd-season-todos-os-episodios",
      "texto_original": "3D Kanojo: Real Girl 2nd Season",
      "rating": 7.66,
      "classificacao_etaria": "A14",
      "imagem_original": "https://animefire.plus/img/animes/3d-kanojo-real-girl-2nd-season.webp",
      "imagem_pasta": "https://animefire.plus/img/animes/3d-kanojo-real-girl-2nd-season/",
      "secao": "legendados",
      "pagina": 109,
      "total_episodios": 12,
      "link_video": "https://animefire.plus/video/3d-kanojo-real-girl-2nd-season"
    },
    {
      "id": 35,
      "nome": "4-nin wa Sorezore Uso wo Tsuku",
      "link": "https://animefire.plus/animes/4-nin-wa-sorezore-uso-wo-tsuku-todos-os-episodios",
      "texto_original": "4-nin wa Sorezore Uso wo Tsuku",
      "rating": 7.13,
      "classificacao_etaria": "A14",
      "imagem_original": "https://animefire.plus/img/animes/4-nin-wa-sorezore-uso-wo-tsuku.webp",
      "imagem_pasta": "https://animefire.plus/img/animes/4-nin-wa-sorezore-uso-wo-tsuku/",
      "secao": "legendados",
      "pagina": 28,
      "total_episodios": 11,
      "link_video": "https://animefire.plus/video/4-nin-wa-sorezore-uso-wo-tsuku"
    },
    {
      "id": 36,
      "nome": "5-toubun no Hanayome (Dublado)",
      "link": "https://animefire.plus/animes/5-toubun-no-hanayome-dublado-todos-os-episodios",
      "texto_original": "5-toubun no Hanayome (Dublado)",
      "rating": 7.67,
      "classificacao_etaria": "A14",
      "imagem_original": "https://animefire.plus/img/animes/5-toubun-no-hanayome.webp",
      "imagem_pasta": "https://animefire.plus/img/animes/5-toubun-no-hanayome/",
      "secao": "dublados,legendados",
      "pagina": 8,
      "total_episodios": 12,
      "link_video": "https://animefire.plus/video/5-toubun-no-hanayome-dublado"
    },
    {
      "id": 37,
      "nome": "5-toubun no Hanayome ∬ (Dublado)",
      "link": "https://animefire.plus/animes/gotoubun-no-hanayome-2nd-season-dublado-todos-os-episodios",
      "texto_original": "5-toubun no Hanayome ∬ (Dublado)",
      "rating": 8.01,
      "classificacao_etaria": "A14",
      "imagem_original": "https://animefire.plus/img/animes/gotoubun-no-hanayome-2nd-season.webp",
      "imagem_pasta": "https://animefire.plus/img/animes/gotoubun-no-hanayome-2nd-season/",
      "secao": "dublados,legendados",
      "pagina": 8,
      "total_episodios": 12,
      "link_video": "https://animefire.plus/video/gotoubun-no-hanayome-2nd-season-dublado"
    },
    {
      "id": 39,
      "nome": "7 Seeds (Dublado)",
      "link": "https://animefire.plus/animes/7-seeds-dublado-todos-os-episodios",
      "texto_original": "7 Seeds (Dublado)",
      "rating": 6.52,
      "classificacao_etaria": "A18",
      "imagem_original": "https://animefire.plus/img/animes/7-seeds.webp",
      "imagem_pasta": "https://animefire.plus/img/animes/7-seeds/",
      "secao": "dublados,legendados",
      "pagina": 23,
      "total_episodios": 12,
      "link_video": "https://animefire.plus/video/7-seeds-dublado"
    }
  ],
  "pagination": {
    "current_page": 1,
    "per_page": 20,
    "total_items": 2189,
    "total_pages": 110,
    "has_next": true,
    "has_prev": false
  }
}
