{
  "message": "Animes com 2 a 12 episódios",
  "episode_range": {
    "min": 2,
    "max": 12
  },
  "data": [
    {
      "id": 2227,
      "nome": "Listeners",
      "link": "https://animefire.plus/animes/listeners-todos-os-episodios",
      "texto_original": "Listeners",
      "rating": 5.38,
      "classificacao_etaria": "A14",
      "imagem_original": "https://animefire.plus/img/animes/listeners.webp",
      "imagem_pasta": "https://animefire.plus/img/animes/listeners/",
      "secao": "legendados",
      "pagina": 60,
      "total_episodios": 8,
      "link_video": "https://animefire.plus/video/listeners"
    },
    {
      "id": 2228,
      "nome": "Litchi DE Hikari Club",
      "link": "https://animefire.plus/animes/litchi-de-hikari-club-todos-os-episodios",
      "texto_original": "Litchi DE Hikari Club",
      "rating": 5.28,
      "classificacao_etaria": "A14",
      "imagem_original": "https://animefire.plus/img/animes/litchi-de-hikari-club.webp",
      "imagem_pasta": "https://animefire.plus/img/animes/litchi-de-hikari-club/",
      "secao": "legendados",
      "pagina": 177,
      "total_episodios": 8,
      "link_video": "https://animefire.plus/video/litchi-de-hikari-club"
    },
    {
      "id": 2230,
      "nome": "Little Busters!: EX",
      "link": "https://animefire.plus/animes/little-busters-ex-todos-os-episodios",
      "texto_original": "Little Busters!: EX",
      "rating": 7.79,
      "classificacao_etaria": "A14",
      "imagem_original": "https://animefire.plus/img/animes/little-busters-ex.webp",
      "imagem_pasta": "https://animefire.plus/img/animes/little-busters-ex/",
      "secao": "legendados",
      "pagina": 75,
      "total_episodios": 9,
      "link_video": "https://animefire.plus/video/little-busters-ex"
    },
    {
      "id": 2231,
      "nome": "Little Busters!: Refrain",
      "link": "https://animefire.plus/animes/little-busters-refrain-todos-os-episodios",
      "texto_original": "Little Busters!: Refrain",
      "rating": 8.3,
      "classificacao_etaria": "A14",
      "imagem_original": "https://animefire.plus/img/animes/little-busters-refrain.webp",
      "imagem_pasta": "https://animefire.plus/img/animes/little-busters-refrain/",
      "secao": "legendados",
      "pagina": 143,
      "total_episodios": 4,
      "link_video": "https://animefire.plus/video/little-busters-refrain"
    },
    {
      "id": 2234,
      "nome": "Log Horizon",
      "link": "https://animefire.plus/animes/log-horizon-todos-os-episodios",
      "texto_original": "Log Horizon",
      "rating": 8.06,
      "classificacao_etaria": "A14",
      "imagem_original": "https://animefire.plus/img/animes/log-horizon.webp",
      "imagem_pasta": "https://animefire.plus/img/animes/log-horizon/",
      "secao": "legendados",
      "pagina": 121,
      "total_episodios": 4,
      "link_video": "https://animefire.plus/video/log-horizon"
    },
    {
      "id": 2236,
      "nome": "Log Horizon: Entaku Houkai (Dublado)",
      "link": "https://animefire.plus/animes/log-horizon-entaku-houkai-dublado-todos-os-episodios",
      "texto_original": "Log Horizon: Entaku Houkai (Dublado)",
      "rating": 7.07,
      "classificacao_etaria": "A14",
      "imagem_original": "https://animefire.plus/img/animes/log-horizon-entaku-houkai.webp",
      "imagem_pasta": "https://animefire.plus/img/animes/log-horizon-entaku-houkai/",
      "secao": "dublados,legendados",
      "pagina": 13,
      "total_episodios": 12,
      "link_video": "https://animefire.plus/video/log-horizon-entaku-houkai-dublado"
    },
    {
      "id": 2237,
      "nome": "Long Riders!",
      "link": "https://animefire.plus/animes/long-riders-todos-os-episodios",
      "texto_original": "Long Riders!",
      "rating": 6.65,
      "classificacao_etaria": "A14",
      "imagem_original": "https://animefire.plus/img/animes/long-riders.webp",
      "imagem_pasta": "https://animefire.plus/img/animes/long-riders/",
      "secao": "legendados",
      "pagina": 119,
      "total_episodios": 2,
      "link_video": "https://animefire.plus/video/long-riders"
    },
    {
      "id": 2239,
      "nome": "Loop 7-kaime no Akuyaku Reijou wa, Moto Tekikoku de Jiyuu Kimama na Hanayome Seikatsu wo Mankitsu suru",
      "link": "https://animefire.plus/animes/loop-7-kaime-no-akuyaku-reijou-wa-moto-tekikoku-de-jiyuu-kimama-na-hanayome-seikatsu-wo-mankitsu-suru-todos-os-episodios",
      "texto_original": "Loop 7-kaime no Akuyaku Reijou wa, Moto Tekikoku de Jiyuu Kimama na Hanayome Seikatsu wo Mankitsu suru",
      "rating": 7.52,
      "classificacao_etaria": "A14",
      "imagem_original": "https://animefire.plus/img/animes/loop-7-kaime-no-akuyaku-reijou-wa-moto-tekikoku-de-jiyuu-kimama-na-hanayome-seikatsu-wo-mankitsu-suru.webp",
      "imagem_pasta": "https://animefire.plus/img/animes/loop-7-kaime-no-akuyaku-reijou-wa-moto-tekikoku-de-jiyuu-kimama-na-hanayome-seikatsu-wo-mankitsu-suru/",
      "secao": "legendados",
      "pagina": 16,
      "total_episodios": 12,
      "link_video": "https://animefire.plus/video/loop-7-kaime-no-akuyaku-reijou-wa-moto-tekikoku-de-jiyuu-kimama-na-hanayome-seikatsu-wo-mankitsu-suru"
    },
    {
      "id": 2240,
      "nome": "Lord El-Melloi II Sei no Jikenbo: Rail Zeppelin Grace Note",
      "link": "https://animefire.plus/animes/lord-el-melloi-ii-sei-no-jikenbo-rail-zeppelin-grace-note-todos-os-episodios",
      "texto_original": "Lord El-Melloi II Sei no Jikenbo: Rail Zeppelin Grace Note",
      "rating": 7.36,
      "classificacao_etaria": "A16",
      "imagem_original": "https://animefire.plus/img/animes/lord-el-melloi-ii-sei-no-jikenbo-rail-zeppelin-grace-note.webp",
      "imagem_pasta": "https://animefire.plus/img/animes/lord-el-melloi-ii-sei-no-jikenbo-rail-zeppelin-grace-note/",
      "secao": "legendados",
      "pagina": 164,
      "total_episodios": 5,
      "link_video": "https://animefire.plus/video/lord-el-melloi-ii-sei-no-jikenbo-rail-zeppelin-grace-note"
    },
    {
      "id": 2241,
      "nome": "Lord of Vermilion: Guren no Ou",
      "link": "https://animefire.plus/animes/lord-of-vermilion-guren-no-ou-todos-os-episodios",
      "texto_original": "Lord of Vermilion: Guren no Ou",
      "rating": 5.44,
      "classificacao_etaria": "A14",
      "imagem_original": "https://animefire.plus/img/animes/lord-of-vermilion-guren-no-ou.webp",
      "imagem_pasta": "https://animefire.plus/img/animes/lord-of-vermilion-guren-no-ou/",
      "secao": "legendados",
      "pagina": 177,
      "total_episodios": 12,
      "link_video": "https://animefire.plus/video/lord-of-vermilion-guren-no-ou"
    },
    {
      "id": 2242,
      "nome": "Lost Song (Dublado)",
      "link": "https://animefire.plus/animes/lost-song-dublado-todos-os-episodios",
      "texto_original": "Lost Song (Dublado)",
      "rating": 7.16,
      "classificacao_etaria": "A14",
      "imagem_original": "https://animefire.plus/img/animes/lost-song.webp",
      "imagem_pasta": "https://animefire.plus/img/animes/lost-song/",
      "secao": "dublados,legendados",
      "pagina": 24,
      "total_episodios": 12,
      "link_video": "https://animefire.plus/video/lost-song-dublado"
    },
    {
      "id": 2245,
      "nome": "Lostorage Incited WIXOSS",
      "link": "https://animefire.plus/animes/lostorage-incited-wixoss-todos-os-episodios",
      "texto_original": "Lostorage Incited WIXOSS",
      "rating": 6.78,
      "classificacao_etaria": "A16",
      "imagem_original": "https://animefire.plus/img/animes/lostorage-incited-wixoss.webp",
      "imagem_pasta": "https://animefire.plus/img/animes/lostorage-incited-wixoss/",
      "secao": "legendados",
      "pagina": 117,
      "total_episodios": 5,
      "link_video": "https://animefire.plus/video/lostorage-incited-wixoss"
    },
    {
      "id": 2248,
      "nome": "Love Lab",
      "link": "https://animefire.plus/animes/love-lab-todos-os-episodios",
      "texto_original": "Love Lab",
      "rating": 7.43,
      "classificacao_etaria": "A14",
      "imagem_original": "https://animefire.plus/img/animes/love-lab.webp",
      "imagem_pasta": "https://animefire.plus/img/animes/love-lab/",
      "secao": "legendados",
      "pagina": 140,
      "total_episodios": 6,
      "link_video": "https://animefire.plus/video/love-lab"
    },
    {
      "id": 2252,
      "nome": "Love Live! School Idol Project",
      "link": "https://animefire.plus/animes/love-live-school-idol-project-todos-os-episodios",
      "texto_original": "Love Live! School Idol Project",
      "rating": 7.57,
      "classificacao_etaria": "A14",
      "imagem_original": "https://animefire.plus/img/animes/love-live-school-idol-project.webp",
      "imagem_pasta": "https://animefire.plus/img/animes/love-live-school-idol-project/",
      "secao": "legendados",
      "pagina": 175,
      "total_episodios": 6,
      "link_video": "https://animefire.plus/video/love-live-school-idol-project"
    },
    {
      "id": 2256,
      "nome": "Love Live! Superstar!!",
      "link": "https://animefire.plus/animes/love-live-superstar-todos-os-episodios",
      "texto_original": "Love Live! Superstar!!",
      "rating": 7.92,
      "classificacao_etaria": "A14",
      "imagem_original": "https://animefire.plus/img/animes/love-live-superstar.webp",
      "imagem_pasta": "https://animefire.plus/img/animes/love-live-superstar/",
      "secao": "legendados",
      "pagina": 40,
      "total_episodios": 12,
      "link_video": "https://animefire.plus/video/love-live-superstar"
    },
    {
      "id": 2257,
      "nome": "Love Live! Superstar!! 2nd Season",
      "link": "https://animefire.plus/animes/love-live-superstar-2nd-season-todos-os-episodios",
      "texto_original": "Love Live! Superstar!! 2nd Season",
      "rating": 7.67,
      "classificacao_etaria": "A14",
      "imagem_original": "https://animefire.plus/img/animes/love-live-superstar-2nd-season.webp",
      "imagem_pasta": "https://animefire.plus/img/animes/love-live-superstar-2nd-season/",
      "secao": "legendados",
      "pagina": 30,
      "total_episodios": 12,
      "link_video": "https://animefire.plus/video/love-live-superstar-2nd-season"
    },
    {
      "id": 2258,
      "nome": "Love Live! Superstar!! 3rd Season",
      "link": "https://animefire.plus/animes/love-live-superstar-3rd-season-todos-os-episodios",
      "texto_original": "Love Live! Superstar!! 3rd Season",
      "rating": 7.89,
      "classificacao_etaria": "A14",
      "imagem_original": "https://animefire.plus/img/animes/love-live-superstar-3rd-season.webp",
      "imagem_pasta": "https://animefire.plus/img/animes/love-live-superstar-3rd-season/",
      "secao": "legendados",
      "pagina": 9,
      "total_episodios": 12,
      "link_video": "https://animefire.plus/video/love-live-superstar-3rd-season"
    },
    {
      "id": 2259,
      "nome": "Love Stage!!",
      "link": "https://animefire.plus/animes/love-stage-todos-os-episodios",
      "texto_original": "Love Stage!!",
      "rating": 7.56,
      "classificacao_etaria": "A14",
      "imagem_original": "https://animefire.plus/img/animes/love-stage.webp",
      "imagem_pasta": "https://animefire.plus/img/animes/love-stage/",
      "secao": "legendados",
      "pagina": 165,
      "total_episodios": 4,
      "link_video": "https://animefire.plus/video/love-stage"
    },
    {
      "id": 2260,
      "nome": "Love♥Love?",
      "link": "https://animefire.plus/animes/love-love-todos-os-episodios",
      "texto_original": "Love♥Love?",
      "rating": 5.98,
      "classificacao_etaria": "A18",
      "imagem_original": "https://animefire.plus/img/animes/love-love.webp",
      "imagem_pasta": "https://animefire.plus/img/animes/love-love/",
      "secao": "legendados",
      "pagina": 127,
      "total_episodios": 9,
      "link_video": "https://animefire.plus/video/love-love"
    },
    {
      "id": 2261,
      "nome": "Loveless",
      "link": "https://animefire.plus/animes/loveless-todos-os-episodios",
      "texto_original": "Loveless",
      "rating": 7.06,
      "classificacao_etaria": "A14",
      "imagem_original": "https://animefire.plus/img/animes/loveless.webp",
      "imagem_pasta": "https://animefire.plus/img/animes/loveless/",
      "secao": "legendados",
      "pagina": 136,
      "total_episodios": 12,
      "link_video": "https://animefire.plus/video/loveless"
    }
  ],
  "pagination": {
    "current_page": 57,
    "per_page": 20,
    "total_items": 2189,
    "total_pages": 110,
    "has_next": true,
    "has_prev": true
  }
}
