{
  "message": "Animes com 2 a 12 episódios",
  "episode_range": {
    "min": 2,
    "max": 12
  },
  "data": [
    {
      "id": 994,
      "nome": "Fate/kaleid liner Prisma☆Illya 2wei!",
      "link": "https://animefire.plus/animes/fate-kaleid-liner-prisma-illya-2wei-todos-os-episodios",
      "texto_original": "Fate/kaleid liner Prisma☆Illya 2wei!",
      "rating": 7.37,
      "classificacao_etaria": "A14",
      "imagem_original": "https://animefire.plus/img/animes/fate-kaleid-liner-prisma-illya-2wei.webp",
      "imagem_pasta": "https://animefire.plus/img/animes/fate-kaleid-liner-prisma-illya-2wei/",
      "secao": "legendados",
      "pagina": 89,
      "total_episodios": 10,
      "link_video": "https://animefire.plus/video/fate-kaleid-liner-prisma-illya-2wei"
    },
    {
      "id": 995,
      "nome": "Fate/kaleid liner Prisma☆Illya 3rei!!",
      "link": "https://animefire.plus/animes/fate-kaleid-liner-prisma-illya-3rei-todos-os-episodios",
      "texto_original": "Fate/kaleid liner Prisma☆Illya 3rei!!",
      "rating": 7.62,
      "classificacao_etaria": "A14",
      "imagem_original": "https://animefire.plus/img/animes/fate-kaleid-liner-prisma-illya-3rei.webp",
      "imagem_pasta": "https://animefire.plus/img/animes/fate-kaleid-liner-prisma-illya-3rei/",
      "secao": "legendados",
      "pagina": 89,
      "total_episodios": 12,
      "link_video": "https://animefire.plus/video/fate-kaleid-liner-prisma-illya-3rei"
    },
    {
      "id": 998,
      "nome": "Fate/stay night: Unlimited Blade Works",
      "link": "https://animefire.plus/animes/fate-stay-night-unlimited-blade-works-todos-os-episodios",
      "texto_original": "Fate/stay night: Unlimited Blade Works",
      "rating": 8.28,
      "classificacao_etaria": "A16",
      "imagem_original": "https://animefire.plus/img/animes/fate-stay-night-unlimited-blade-works.webp",
      "imagem_pasta": "https://animefire.plus/img/animes/fate-stay-night-unlimited-blade-works/",
      "secao": "legendados",
      "pagina": 90,
      "total_episodios": 12,
      "link_video": "https://animefire.plus/video/fate-stay-night-unlimited-blade-works"
    },
    {
      "id": 1003,
      "nome": "Fate/Zero 2nd Season",
      "link": "https://animefire.plus/animes/fate-zero-2nd-season-todos-os-episodios",
      "texto_original": "Fate/Zero 2nd Season",
      "rating": 8.55,
      "classificacao_etaria": "A16",
      "imagem_original": "https://animefire.plus/img/animes/fate-zero-2nd-season.webp",
      "imagem_pasta": "https://animefire.plus/img/animes/fate-zero-2nd-season/",
      "secao": "legendados",
      "pagina": 16,
      "total_episodios": 12,
      "link_video": "https://animefire.plus/video/fate-zero-2nd-season"
    },
    {
      "id": 1004,
      "nome": "Fate/Zero: Onegai! Einzbern Soudanshitsu",
      "link": "https://animefire.plus/animes/fate-zero-onegai-einzbern-soudanshitsu-todos-os-episodios",
      "texto_original": "Fate/Zero: Onegai! Einzbern Soudanshitsu",
      "rating": 6.72,
      "classificacao_etaria": "A14",
      "imagem_original": "https://animefire.plus/img/animes/fate-zero-onegai-einzbern-soudanshitsu.webp",
      "imagem_pasta": "https://animefire.plus/img/animes/fate-zero-onegai-einzbern-soudanshitsu/",
      "secao": "legendados",
      "pagina": 145,
      "total_episodios": 6,
      "link_video": "https://animefire.plus/video/fate-zero-onegai-einzbern-soudanshitsu"
    },
    {
      "id": 1005,
      "nome": "Fermat no Ryouri",
      "link": "https://animefire.plus/animes/fermat-no-ryouri-todos-os-episodios",
      "texto_original": "Fermat no Ryouri",
      "rating": 6.65,
      "classificacao_etaria": "A14",
      "imagem_original": "https://animefire.plus/img/animes/fermat-no-ryouri.webp",
      "imagem_pasta": "https://animefire.plus/img/animes/fermat-no-ryouri/",
      "secao": "legendados,lancamentos",
      "pagina": 2,
      "total_episodios": 4,
      "link_video": "https://animefire.plus/video/fermat-no-ryouri"
    },
    {
      "id": 1009,
      "nome": "Final Approach",
      "link": "https://animefire.plus/animes/final-approach-todos-os-episodios",
      "texto_original": "Final Approach",
      "rating": 6.62,
      "classificacao_etaria": "A14",
      "imagem_original": "https://animefire.plus/img/animes/final-approach.webp",
      "imagem_pasta": "https://animefire.plus/img/animes/final-approach/",
      "secao": "legendados",
      "pagina": 97,
      "total_episodios": 12,
      "link_video": "https://animefire.plus/video/final-approach"
    },
    {
      "id": 1010,
      "nome": "Final Fantasy",
      "link": "https://animefire.plus/animes/final-fantasy-todos-os-episodios",
      "texto_original": "Final Fantasy",
      "rating": 6.1,
      "classificacao_etaria": "A14",
      "imagem_original": "https://animefire.plus/img/animes/final-fantasy.webp",
      "imagem_pasta": "https://animefire.plus/img/animes/final-fantasy/",
      "secao": "legendados",
      "pagina": 42,
      "total_episodios": 4,
      "link_video": "https://animefire.plus/video/final-fantasy"
    },
    {
      "id": 1014,
      "nome": "FLCL",
      "link": "https://animefire.plus/animes/flcl-todos-os-episodios",
      "texto_original": "FLCL",
      "rating": 8.06,
      "classificacao_etaria": "A14",
      "imagem_original": "https://animefire.plus/img/animes/flcl.webp",
      "imagem_pasta": "https://animefire.plus/img/animes/flcl/",
      "secao": "legendados",
      "pagina": 108,
      "total_episodios": 6,
      "link_video": "https://animefire.plus/video/flcl"
    },
    {
      "id": 1016,
      "nome": "Flying Witch",
      "link": "https://animefire.plus/animes/flying-witch-todos-os-episodios",
      "texto_original": "Flying Witch",
      "rating": 7.59,
      "classificacao_etaria": "A14",
      "imagem_original": "https://animefire.plus/img/animes/flying-witch.webp",
      "imagem_pasta": "https://animefire.plus/img/animes/flying-witch/",
      "secao": "legendados",
      "pagina": 136,
      "total_episodios": 12,
      "link_video": "https://animefire.plus/video/flying-witch"
    },
    {
      "id": 1017,
      "nome": "Food Court de, Mata Ashita.",
      "link": "https://animefire.plus/animes/food-court-de-mata-ashita-todos-os-episodios",
      "texto_original": "Food Court de, Mata Ashita.",
      "rating": 7.01,
      "classificacao_etaria": "A14",
      "imagem_original": "https://animefire.plus/img/animes/food-court-de-mata-ashita.webp",
      "imagem_pasta": "https://animefire.plus/img/animes/food-court-de-mata-ashita/",
      "secao": "legendados,lancamentos",
      "pagina": 2,
      "total_episodios": 4,
      "link_video": "https://animefire.plus/video/food-court-de-mata-ashita"
    },
    {
      "id": 1018,
      "nome": "Forest Fairy Five",
      "link": "https://animefire.plus/animes/forest-fairy-five-todos-os-episodios",
      "texto_original": "Forest Fairy Five",
      "rating": 3.26,
      "classificacao_etaria": "A10",
      "imagem_original": "https://animefire.plus/img/animes/forest-fairy-five.webp",
      "imagem_pasta": "https://animefire.plus/img/animes/forest-fairy-five/",
      "secao": "legendados",
      "pagina": 113,
      "total_episodios": 4,
      "link_video": "https://animefire.plus/video/forest-fairy-five"
    },
    {
      "id": 1019,
      "nome": "Fortune Arterial: Akai Yakusoku",
      "link": "https://animefire.plus/animes/fortune-arterial-akai-yakusoku-todos-os-episodios",
      "texto_original": "Fortune Arterial: Akai Yakusoku",
      "rating": 6.81,
      "classificacao_etaria": "A14",
      "imagem_original": "https://animefire.plus/img/animes/fortune-arterial-akai-yakusoku.webp",
      "imagem_pasta": "https://animefire.plus/img/animes/fortune-arterial-akai-yakusoku/",
      "secao": "legendados",
      "pagina": 143,
      "total_episodios": 12,
      "link_video": "https://animefire.plus/video/fortune-arterial-akai-yakusoku"
    },
    {
      "id": 1020,
      "nome": "Fractale",
      "link": "https://animefire.plus/animes/fractale-todos-os-episodios",
      "texto_original": "Fractale",
      "rating": 7,
      "classificacao_etaria": "A14",
      "imagem_original": "https://animefire.plus/img/animes/fractale.webp",
      "imagem_pasta": "https://animefire.plus/img/animes/fractale/",
      "secao": "legendados",
      "pagina": 108,
      "total_episodios": 11,
      "link_video": "https://animefire.plus/video/fractale"
    },
    {
      "id": 1021,
      "nome": "Frame Arms Girl",
      "link": "https://animefire.plus/animes/frame-arms-girl-todos-os-episodios",
      "texto_original": "Frame Arms Girl",
      "rating": 6.49,
      "classificacao_etaria": "A14",
      "imagem_original": "https://animefire.plus/img/animes/frame-arms-girl.webp",
      "imagem_pasta": "https://animefire.plus/img/animes/frame-arms-girl/",
      "secao": "legendados",
      "pagina": 171,
      "total_episodios": 12,
      "link_video": "https://animefire.plus/video/frame-arms-girl"
    },
    {
      "id": 1023,
      "nome": "Free! (Dublado)",
      "link": "https://animefire.plus/animes/free-dublado-todos-os-episodios",
      "texto_original": "Free! (Dublado)",
      "rating": 7.48,
      "classificacao_etaria": "A14",
      "imagem_original": "https://animefire.plus/img/animes/free.webp",
      "imagem_pasta": "https://animefire.plus/img/animes/free/",
      "secao": "dublados,legendados",
      "pagina": 24,
      "total_episodios": 12,
      "link_video": "https://animefire.plus/video/free-dublado"
    },
    {
      "id": 1024,
      "nome": "Free!: Dive to the Future",
      "link": "https://animefire.plus/animes/free-dive-to-the-future-todos-os-episodios",
      "texto_original": "Free!: Dive to the Future",
      "rating": 7.71,
      "classificacao_etaria": "A14",
      "imagem_original": "https://animefire.plus/img/animes/free-dive-to-the-future.webp",
      "imagem_pasta": "https://animefire.plus/img/animes/free-dive-to-the-future/",
      "secao": "legendados",
      "pagina": 139,
      "total_episodios": 12,
      "link_video": "https://animefire.plus/video/free-dive-to-the-future"
    },
    {
      "id": 1026,
      "nome": "Freedom",
      "link": "https://animefire.plus/animes/freedom-todos-os-episodios",
      "texto_original": "Freedom",
      "rating": 7.48,
      "classificacao_etaria": "A14",
      "imagem_original": "https://animefire.plus/img/animes/freedom.webp",
      "imagem_pasta": "https://animefire.plus/img/animes/freedom/",
      "secao": "legendados",
      "pagina": 68,
      "total_episodios": 8,
      "link_video": "https://animefire.plus/video/freedom"
    },
    {
      "id": 1027,
      "nome": "Freezing",
      "link": "https://animefire.plus/animes/freezing-todos-os-episodios",
      "texto_original": "Freezing",
      "rating": 7.06,
      "classificacao_etaria": "A18",
      "imagem_original": "https://animefire.plus/img/animes/freezing.webp",
      "imagem_pasta": "https://animefire.plus/img/animes/freezing/",
      "secao": "legendados",
      "pagina": 134,
      "total_episodios": 12,
      "link_video": "https://animefire.plus/video/freezing"
    },
    {
      "id": 1028,
      "nome": "Freezing Vibration",
      "link": "https://animefire.plus/animes/freezing-vibration-todos-os-episodios",
      "texto_original": "Freezing Vibration",
      "rating": 6.97,
      "classificacao_etaria": "A18",
      "imagem_original": "https://animefire.plus/img/animes/freezing-vibration.webp",
      "imagem_pasta": "https://animefire.plus/img/animes/freezing-vibration/",
      "secao": "legendados",
      "pagina": 132,
      "total_episodios": 4,
      "link_video": "https://animefire.plus/video/freezing-vibration"
    }
  ],
  "pagination": {
    "current_page": 25,
    "per_page": 20,
    "total_items": 2189,
    "total_pages": 110,
    "has_next": true,
    "has_prev": true
  }
}
