{
  "message": "Animes com 2 a 12 episódios",
  "episode_range": {
    "min": 2,
    "max": 12
  },
  "data": [
    {
      "id": 2937,
      "nome": "Overlord: Ple Ple Pleiades",
      "link": "https://animefire.plus/animes/overlord-ple-ple-pleiades-todos-os-episodios",
      "texto_original": "Overlord: Ple Ple Pleiades",
      "rating": 7.07,
      "classificacao_etaria": "A14",
      "imagem_original": "https://animefire.plus/img/animes/overlord-ple-ple-pleiades.webp",
      "imagem_pasta": "https://animefire.plus/img/animes/overlord-ple-ple-pleiades/",
      "secao": "legendados",
      "pagina": 112,
      "total_episodios": 3,
      "link_video": "https://animefire.plus/video/overlord-ple-ple-pleiades"
    },
    {
      "id": 2938,
      "nome": "Overtake!",
      "link": "https://animefire.plus/animes/overtake-todos-os-episodios",
      "texto_original": "Overtake!",
      "rating": 7.52,
      "classificacao_etaria": "A14",
      "imagem_original": "https://animefire.plus/img/animes/overtake.webp",
      "imagem_pasta": "https://animefire.plus/img/animes/overtake/",
      "secao": "legendados",
      "pagina": 20,
      "total_episodios": 12,
      "link_video": "https://animefire.plus/video/overtake"
    },
    {
      "id": 2939,
      "nome": "Owari no Seraph (Dublado)",
      "link": "https://animefire.plus/animes/owari-no-seraph-dublado-todos-os-episodios",
      "texto_original": "Owari no Seraph (Dublado)",
      "rating": 7.49,
      "classificacao_etaria": "A16",
      "imagem_original": "https://animefire.plus/img/animes/owari-no-seraph.webp",
      "imagem_pasta": "https://animefire.plus/img/animes/owari-no-seraph/",
      "secao": "dublados,legendados",
      "pagina": 15,
      "total_episodios": 12,
      "link_video": "https://animefire.plus/video/owari-no-seraph-dublado"
    },
    {
      "id": 2941,
      "nome": "Owari no Seraph: Nagoya Kessen-hen (Dublado)",
      "link": "https://animefire.plus/animes/owari-no-seraph-nagoya-kessen-hen-dublado-todos-os-episodios",
      "texto_original": "Owari no Seraph: Nagoya Kessen-hen (Dublado)",
      "rating": 7.63,
      "classificacao_etaria": "A16",
      "imagem_original": "https://animefire.plus/img/animes/owari-no-seraph-nagoya-kessen-hen.webp",
      "imagem_pasta": "https://animefire.plus/img/animes/owari-no-seraph-nagoya-kessen-hen/",
      "secao": "dublados,legendados",
      "pagina": 15,
      "total_episodios": 12,
      "link_video": "https://animefire.plus/video/owari-no-seraph-nagoya-kessen-hen-dublado"
    },
    {
      "id": 2942,
      "nome": "Owarimonogatari",
      "link": "https://animefire.plus/animes/owarimonogatari-todos-os-episodios",
      "texto_original": "Owarimonogatari",
      "rating": 8.46,
      "classificacao_etaria": "A16",
      "imagem_original": "https://animefire.plus/img/animes/owarimonogatari.webp",
      "imagem_pasta": "https://animefire.plus/img/animes/owarimonogatari/",
      "secao": "legendados",
      "pagina": 74,
      "total_episodios": 12,
      "link_video": "https://animefire.plus/video/owarimonogatari"
    },
    {
      "id": 2943,
      "nome": "Owarimonogatari 2nd Season",
      "link": "https://animefire.plus/animes/owarimonogatari-2nd-season-todos-os-episodios",
      "texto_original": "Owarimonogatari 2nd Season",
      "rating": 8.95,
      "classificacao_etaria": "A16",
      "imagem_original": "https://animefire.plus/img/animes/owarimonogatari-2nd-season.webp",
      "imagem_pasta": "https://animefire.plus/img/animes/owarimonogatari-2nd-season/",
      "secao": "legendados",
      "pagina": 99,
      "total_episodios": 3,
      "link_video": "https://animefire.plus/video/owarimonogatari-2nd-season"
    },
    {
      "id": 2944,
      "nome": "Ozma",
      "link": "https://animefire.plus/animes/ozma-todos-os-episodios",
      "texto_original": "Ozma",
      "rating": 6.13,
      "classificacao_etaria": "A14",
      "imagem_original": "https://animefire.plus/img/animes/ozma.webp",
      "imagem_pasta": "https://animefire.plus/img/animes/ozma/",
      "secao": "legendados",
      "pagina": 139,
      "total_episodios": 6,
      "link_video": "https://animefire.plus/video/ozma"
    },
    {
      "id": 2948,
      "nome": "Pandora to Akubi",
      "link": "https://animefire.plus/animes/pandora-to-akubi-todos-os-episodios",
      "texto_original": "Pandora to Akubi",
      "rating": 6.13,
      "classificacao_etaria": null,
      "imagem_original": "https://animefire.plus/img/animes/pandora-to-akubi.webp",
      "imagem_pasta": "https://animefire.plus/img/animes/pandora-to-akubi/",
      "secao": "legendados",
      "pagina": 89,
      "total_episodios": 2,
      "link_video": "https://animefire.plus/video/pandora-to-akubi"
    },
    {
      "id": 2951,
      "nome": "Papa no Iukoto wo Kikinasai!",
      "link": "https://animefire.plus/animes/papa-no-iukoto-wo-kikinasai-todos-os-episodios",
      "texto_original": "Papa no Iukoto wo Kikinasai!",
      "rating": 7.42,
      "classificacao_etaria": "A14",
      "imagem_original": "https://animefire.plus/img/animes/papa-no-iukoto-wo-kikinasai.webp",
      "imagem_pasta": "https://animefire.plus/img/animes/papa-no-iukoto-wo-kikinasai/",
      "secao": "legendados",
      "pagina": 132,
      "total_episodios": 3,
      "link_video": "https://animefire.plus/video/papa-no-iukoto-wo-kikinasai"
    },
    {
      "id": 2952,
      "nome": "Paradise Kiss",
      "link": "https://animefire.plus/animes/paradise-kiss-todos-os-episodios",
      "texto_original": "Paradise Kiss",
      "rating": 7.88,
      "classificacao_etaria": "A16",
      "imagem_original": "https://animefire.plus/img/animes/paradise-kiss.webp",
      "imagem_pasta": "https://animefire.plus/img/animes/paradise-kiss/",
      "secao": "legendados",
      "pagina": 149,
      "total_episodios": 12,
      "link_video": "https://animefire.plus/video/paradise-kiss"
    },
    {
      "id": 2953,
      "nome": "Paradox Live the Animation",
      "link": "https://animefire.plus/animes/paradox-live-the-animation-todos-os-episodios",
      "texto_original": "Paradox Live the Animation",
      "rating": 6.86,
      "classificacao_etaria": "A14",
      "imagem_original": "https://animefire.plus/img/animes/paradox-live-the-animation.webp",
      "imagem_pasta": "https://animefire.plus/img/animes/paradox-live-the-animation/",
      "secao": "legendados",
      "pagina": 19,
      "total_episodios": 12,
      "link_video": "https://animefire.plus/video/paradox-live-the-animation"
    },
    {
      "id": 2954,
      "nome": "Paripi Koumei",
      "link": "https://animefire.plus/animes/paripi-koumei-todos-os-episodios",
      "texto_original": "Paripi Koumei",
      "rating": 8.11,
      "classificacao_etaria": "A14",
      "imagem_original": "https://animefire.plus/img/animes/paripi-koumei.webp",
      "imagem_pasta": "https://animefire.plus/img/animes/paripi-koumei/",
      "secao": "legendados",
      "pagina": 34,
      "total_episodios": 12,
      "link_video": "https://animefire.plus/video/paripi-koumei"
    },
    {
      "id": 2955,
      "nome": "Party kara Tsuihou sareta Sono Chiyushi, Jitsu wa Saikyou ni Tsuki (Dublado)",
      "link": "https://animefire.plus/animes/party-kara-tsuihou-sareta-sono-chiyushi-jitsu-wa-saikyou-ni-tsuki-dublado-todos-os-episodios",
      "texto_original": "Party kara Tsuihou sareta Sono Chiyushi, Jitsu wa Saikyou ni Tsuki (Dublado)",
      "rating": 5.7,
      "classificacao_etaria": "A14",
      "imagem_original": "https://animefire.plus/img/animes/party-kara-tsuihou-sareta-sono-chiyushi-jitsu-wa-saikyou-ni-tsuki.webp",
      "imagem_pasta": "https://animefire.plus/img/animes/party-kara-tsuihou-sareta-sono-chiyushi-jitsu-wa-saikyou-ni-tsuki/",
      "secao": "dublados,legendados,lancamentos",
      "pagina": 2,
      "total_episodios": 12,
      "link_video": "https://animefire.plus/video/party-kara-tsuihou-sareta-sono-chiyushi-jitsu-wa-saikyou-ni-tsuki-dublado"
    },
    {
      "id": 2956,
      "nome": "Pastel Life",
      "link": "https://animefire.plus/animes/pastel-life-todos-os-episodios",
      "texto_original": "Pastel Life",
      "rating": 6.62,
      "classificacao_etaria": "A14",
      "imagem_original": "https://animefire.plus/img/animes/pastel-life.webp",
      "imagem_pasta": "https://animefire.plus/img/animes/pastel-life/",
      "secao": "legendados",
      "pagina": 67,
      "total_episodios": 6,
      "link_video": "https://animefire.plus/video/pastel-life"
    },
    {
      "id": 2957,
      "nome": "Pastel Memories",
      "link": "https://animefire.plus/animes/pastel-memories-todos-os-episodios",
      "texto_original": "Pastel Memories",
      "rating": 5.12,
      "classificacao_etaria": "A14",
      "imagem_original": "https://animefire.plus/img/animes/pastel-memories.webp",
      "imagem_pasta": "https://animefire.plus/img/animes/pastel-memories/",
      "secao": "legendados",
      "pagina": 107,
      "total_episodios": 12,
      "link_video": "https://animefire.plus/video/pastel-memories"
    },
    {
      "id": 2958,
      "nome": "Patalliro Saiyuuki!",
      "link": "https://animefire.plus/animes/patalliro-saiyuuki-todos-os-episodios",
      "texto_original": "Patalliro Saiyuuki!",
      "rating": 6.58,
      "classificacao_etaria": "A14",
      "imagem_original": "https://animefire.plus/img/animes/patalliro-saiyuuki.webp",
      "imagem_pasta": "https://animefire.plus/img/animes/patalliro-saiyuuki/",
      "secao": "legendados",
      "pagina": 44,
      "total_episodios": 9,
      "link_video": "https://animefire.plus/video/patalliro-saiyuuki"
    },
    {
      "id": 2961,
      "nome": "Peach Boy Riverside",
      "link": "https://animefire.plus/animes/peach-boy-riverside-todos-os-episodios",
      "texto_original": "Peach Boy Riverside",
      "rating": 6.24,
      "classificacao_etaria": "A16",
      "imagem_original": "https://animefire.plus/img/animes/peach-boy-riverside.webp",
      "imagem_pasta": "https://animefire.plus/img/animes/peach-boy-riverside/",
      "secao": "legendados",
      "pagina": 41,
      "total_episodios": 12,
      "link_video": "https://animefire.plus/video/peach-boy-riverside"
    },
    {
      "id": 2963,
      "nome": "Peeping Life TV: Season 1??",
      "link": "https://animefire.plus/animes/peeping-life-tv-season-1-todos-os-episodios",
      "texto_original": "Peeping Life TV: Season 1??",
      "rating": 5.72,
      "classificacao_etaria": null,
      "imagem_original": "https://animefire.plus/img/animes/peeping-life-tv-season-1.webp",
      "imagem_pasta": "https://animefire.plus/img/animes/peeping-life-tv-season-1/",
      "secao": "legendados",
      "pagina": 165,
      "total_episodios": 10,
      "link_video": "https://animefire.plus/video/peeping-life-tv-season-1"
    },
    {
      "id": 2966,
      "nome": "Persona 4 the Golden Animation",
      "link": "https://animefire.plus/animes/persona-4-the-golden-animation-todos-os-episodios",
      "texto_original": "Persona 4 the Golden Animation",
      "rating": 6.67,
      "classificacao_etaria": "A14",
      "imagem_original": "https://animefire.plus/img/animes/persona-4-the-golden-animation.webp",
      "imagem_pasta": "https://animefire.plus/img/animes/persona-4-the-golden-animation/",
      "secao": "legendados",
      "pagina": 74,
      "total_episodios": 12,
      "link_video": "https://animefire.plus/video/persona-4-the-golden-animation"
    },
    {
      "id": 2969,
      "nome": "Peter Grill to Kenja no Jikan",
      "link": "https://animefire.plus/animes/peter-grill-to-kenja-no-jikan-todos-os-episodios",
      "texto_original": "Peter Grill to Kenja no Jikan",
      "rating": 5.51,
      "classificacao_etaria": "A18",
      "imagem_original": "https://animefire.plus/img/animes/peter-grill-to-kenja-no-jikan.webp",
      "imagem_pasta": "https://animefire.plus/img/animes/peter-grill-to-kenja-no-jikan/",
      "secao": "legendados",
      "pagina": 58,
      "total_episodios": 12,
      "link_video": "https://animefire.plus/video/peter-grill-to-kenja-no-jikan"
    }
  ],
  "pagination": {
    "current_page": 74,
    "per_page": 20,
    "total_items": 2189,
    "total_pages": 110,
    "has_next": true,
    "has_prev": true
  }
}
