{
  "message": "Animes com 2 a 12 episódios",
  "episode_range": {
    "min": 2,
    "max": 12
  },
  "data": [
    {
      "id": 1109,
      "nome": "Garo Movie: Divine Flame",
      "link": "https://animefire.plus/animes/garo-movie-divine-flame-todos-os-episodios",
      "texto_original": "Garo Movie: Divine Flame",
      "rating": 7.71,
      "classificacao_etaria": "A18",
      "imagem_original": "https://animefire.plus/img/animes/garo-movie-divine-flame.webp",
      "imagem_pasta": "https://animefire.plus/img/animes/garo-movie-divine-flame/",
      "secao": "legendados",
      "pagina": 96,
      "total_episodios": 2,
      "link_video": "https://animefire.plus/video/garo-movie-divine-flame"
    },
    {
      "id": 1117,
      "nome": "Gate Keepers 21",
      "link": "https://animefire.plus/animes/gate-keepers-21-todos-os-episodios",
      "texto_original": "Gate Keepers 21",
      "rating": 6.84,
      "classificacao_etaria": "A14",
      "imagem_original": "https://animefire.plus/img/animes/gate-keepers-21.webp",
      "imagem_pasta": "https://animefire.plus/img/animes/gate-keepers-21/",
      "secao": "legendados",
      "pagina": 101,
      "total_episodios": 6,
      "link_video": "https://animefire.plus/video/gate-keepers-21"
    },
    {
      "id": 1121,
      "nome": "Gekai Elise",
      "link": "https://animefire.plus/animes/gekai-elise-todos-os-episodios",
      "texto_original": "Gekai Elise",
      "rating": 7.26,
      "classificacao_etaria": "A14",
      "imagem_original": "https://animefire.plus/img/animes/gekai-elise.webp",
      "imagem_pasta": "https://animefire.plus/img/animes/gekai-elise/",
      "secao": "legendados",
      "pagina": 18,
      "total_episodios": 12,
      "link_video": "https://animefire.plus/video/gekai-elise"
    },
    {
      "id": 1122,
      "nome": "Gekidol",
      "link": "https://animefire.plus/animes/gekidol-todos-os-episodios",
      "texto_original": "Gekidol",
      "rating": 5.5,
      "classificacao_etaria": "A14",
      "imagem_original": "https://animefire.plus/img/animes/gekidol.webp",
      "imagem_pasta": "https://animefire.plus/img/animes/gekidol/",
      "secao": "legendados",
      "pagina": 48,
      "total_episodios": 12,
      "link_video": "https://animefire.plus/video/gekidol"
    },
    {
      "id": 1124,
      "nome": "Gekkan Mousou Kagaku",
      "link": "https://animefire.plus/animes/gekkan-mousou-kagaku-todos-os-episodios",
      "texto_original": "Gekkan Mousou Kagaku",
      "rating": 5.4,
      "classificacao_etaria": "A18",
      "imagem_original": "https://animefire.plus/img/animes/gekkan-mousou-kagaku.webp",
      "imagem_pasta": "https://animefire.plus/img/animes/gekkan-mousou-kagaku/",
      "secao": "legendados",
      "pagina": 16,
      "total_episodios": 12,
      "link_video": "https://animefire.plus/video/gekkan-mousou-kagaku"
    },
    {
      "id": 1125,
      "nome": "Gekkan Shoujo Nozaki-kun (Dublado)",
      "link": "https://animefire.plus/animes/gekkan-shoujo-nozaki-kun-dublado-todos-os-episodios",
      "texto_original": "Gekkan Shoujo Nozaki-kun (Dublado)",
      "rating": 8.05,
      "classificacao_etaria": "A14",
      "imagem_original": "https://animefire.plus/img/animes/gekkan-shoujo-nozaki-kun.webp",
      "imagem_pasta": "https://animefire.plus/img/animes/gekkan-shoujo-nozaki-kun/",
      "secao": "dublados,legendados",
      "pagina": 23,
      "total_episodios": 12,
      "link_video": "https://animefire.plus/video/gekkan-shoujo-nozaki-kun-dublado"
    },
    {
      "id": 1126,
      "nome": "Genei wo Kakeru Taiyou",
      "link": "https://animefire.plus/animes/genei-wo-kakeru-taiyou-todos-os-episodios",
      "texto_original": "Genei wo Kakeru Taiyou",
      "rating": 6.48,
      "classificacao_etaria": "A16",
      "imagem_original": "https://animefire.plus/img/animes/genei-wo-kakeru-taiyou.webp",
      "imagem_pasta": "https://animefire.plus/img/animes/genei-wo-kakeru-taiyou/",
      "secao": "legendados",
      "pagina": 152,
      "total_episodios": 4,
      "link_video": "https://animefire.plus/video/genei-wo-kakeru-taiyou"
    },
    {
      "id": 1127,
      "nome": "Generator Gawl",
      "link": "https://animefire.plus/animes/generator-gawl-todos-os-episodios",
      "texto_original": "Generator Gawl",
      "rating": 7.04,
      "classificacao_etaria": "A14",
      "imagem_original": "https://animefire.plus/img/animes/generator-gawl.webp",
      "imagem_pasta": "https://animefire.plus/img/animes/generator-gawl/",
      "secao": "legendados",
      "pagina": 105,
      "total_episodios": 12,
      "link_video": "https://animefire.plus/video/generator-gawl"
    },
    {
      "id": 1129,
      "nome": "Genji Monogatari Sennenki",
      "link": "https://animefire.plus/animes/genji-monogatari-sennenki-todos-os-episodios",
      "texto_original": "Genji Monogatari Sennenki",
      "rating": 6.95,
      "classificacao_etaria": "A14",
      "imagem_original": "https://animefire.plus/img/animes/genji-monogatari-sennenki.webp",
      "imagem_pasta": "https://animefire.plus/img/animes/genji-monogatari-sennenki/",
      "secao": "legendados",
      "pagina": 66,
      "total_episodios": 11,
      "link_video": "https://animefire.plus/video/genji-monogatari-sennenki"
    },
    {
      "id": 1133,
      "nome": "Genjitsu Shugi Yuusha no Oukoku Saikenki Part 2 (Dublado)",
      "link": "https://animefire.plus/animes/genjitsu-shugi-yuusha-no-oukoku-saikenki-part-2-dublado-todos-os-episodios",
      "texto_original": "Genjitsu Shugi Yuusha no Oukoku Saikenki Part 2 (Dublado)",
      "rating": 7.43,
      "classificacao_etaria": "A14",
      "imagem_original": "https://animefire.plus/img/animes/genjitsu-shugi-yuusha-no-oukoku-saikenki-part-2.webp",
      "imagem_pasta": "https://animefire.plus/img/animes/genjitsu-shugi-yuusha-no-oukoku-saikenki-part-2/",
      "secao": "dublados",
      "pagina": 12,
      "total_episodios": 12,
      "link_video": "https://animefire.plus/video/genjitsu-shugi-yuusha-no-oukoku-saikenki-part-2-dublado"
    },
    {
      "id": 1135,
      "nome": "Genocyber (Dublado)",
      "link": "https://animefire.plus/animes/genocyber-dublado-todos-os-episodios",
      "texto_original": "Genocyber (Dublado)",
      "rating": 5.87,
      "classificacao_etaria": "A16",
      "imagem_original": "https://animefire.plus/img/animes/genocyber.webp",
      "imagem_pasta": "https://animefire.plus/img/animes/genocyber/",
      "secao": "dublados",
      "pagina": 21,
      "total_episodios": 3,
      "link_video": "https://animefire.plus/video/genocyber-dublado"
    },
    {
      "id": 1136,
      "nome": "Genshiken",
      "link": "https://animefire.plus/animes/genshiken-todos-os-episodios",
      "texto_original": "Genshiken",
      "rating": 7.68,
      "classificacao_etaria": "A14",
      "imagem_original": "https://animefire.plus/img/animes/genshiken.webp",
      "imagem_pasta": "https://animefire.plus/img/animes/genshiken/",
      "secao": "legendados",
      "pagina": 79,
      "total_episodios": 12,
      "link_video": "https://animefire.plus/video/genshiken"
    },
    {
      "id": 1137,
      "nome": "Genshiken 2",
      "link": "https://animefire.plus/animes/genshiken-2-todos-os-episodios",
      "texto_original": "Genshiken 2",
      "rating": 7.79,
      "classificacao_etaria": "A16",
      "imagem_original": "https://animefire.plus/img/animes/genshiken-2.webp",
      "imagem_pasta": "https://animefire.plus/img/animes/genshiken-2/",
      "secao": "legendados",
      "pagina": 63,
      "total_episodios": 12,
      "link_video": "https://animefire.plus/video/genshiken-2"
    },
    {
      "id": 1140,
      "nome": "Genshiken Nidaime Specials",
      "link": "https://animefire.plus/animes/genshiken-nidaime-specials-todos-os-episodios",
      "texto_original": "Genshiken Nidaime Specials",
      "rating": 6.89,
      "classificacao_etaria": "A16",
      "imagem_original": "https://animefire.plus/img/animes/genshiken-nidaime-specials.webp",
      "imagem_pasta": "https://animefire.plus/img/animes/genshiken-nidaime-specials/",
      "secao": "legendados",
      "pagina": 129,
      "total_episodios": 4,
      "link_video": "https://animefire.plus/video/genshiken-nidaime-specials"
    },
    {
      "id": 1141,
      "nome": "Gensou Jotan Ellcia (Dublado)",
      "link": "https://animefire.plus/animes/gensou-jotan-ellcia-dublado-todos-os-episodios",
      "texto_original": "Gensou Jotan Ellcia (Dublado)",
      "rating": 6.02,
      "classificacao_etaria": "A14",
      "imagem_original": "https://animefire.plus/img/animes/gensou-jotan-ellcia.webp",
      "imagem_pasta": "https://animefire.plus/img/animes/gensou-jotan-ellcia/",
      "secao": "dublados",
      "pagina": 22,
      "total_episodios": 4,
      "link_video": "https://animefire.plus/video/gensou-jotan-ellcia-dublado"
    },
    {
      "id": 1142,
      "nome": "Gensou Sangokushi: Tengen Reishinki",
      "link": "https://animefire.plus/animes/gensou-sangokushi-tengen-reishinki-todos-os-episodios",
      "texto_original": "Gensou Sangokushi: Tengen Reishinki",
      "rating": 5.31,
      "classificacao_etaria": "A14",
      "imagem_original": "https://animefire.plus/img/animes/gensou-sangokushi-tengen-reishinki.webp",
      "imagem_pasta": "https://animefire.plus/img/animes/gensou-sangokushi-tengen-reishinki/",
      "secao": "legendados",
      "pagina": 36,
      "total_episodios": 12,
      "link_video": "https://animefire.plus/video/gensou-sangokushi-tengen-reishinki"
    },
    {
      "id": 1144,
      "nome": "Gensoumaden Saiyuuki OVA",
      "link": "https://animefire.plus/animes/gensoumaden-saiyuuki-ova-todos-os-episodios",
      "texto_original": "Gensoumaden Saiyuuki OVA",
      "rating": 7.13,
      "classificacao_etaria": "A14",
      "imagem_original": "https://animefire.plus/img/animes/gensoumaden-saiyuuki-ova.webp",
      "imagem_pasta": "https://animefire.plus/img/animes/gensoumaden-saiyuuki-ova/",
      "secao": "legendados",
      "pagina": 84,
      "total_episodios": 2,
      "link_video": "https://animefire.plus/video/gensoumaden-saiyuuki-ova"
    },
    {
      "id": 1146,
      "nome": "Getsumen To Heiki Mina",
      "link": "https://animefire.plus/animes/getsumen-to-heiki-mina-todos-os-episodios",
      "texto_original": "Getsumen To Heiki Mina",
      "rating": 6.33,
      "classificacao_etaria": "A14",
      "imagem_original": "https://animefire.plus/img/animes/getsumen-to-heiki-mina.webp",
      "imagem_pasta": "https://animefire.plus/img/animes/getsumen-to-heiki-mina/",
      "secao": "legendados",
      "pagina": 103,
      "total_episodios": 11,
      "link_video": "https://animefire.plus/video/getsumen-to-heiki-mina"
    },
    {
      "id": 1147,
      "nome": "Getsuyoubi no Tawawa",
      "link": "https://animefire.plus/animes/getsuyoubi-no-tawawa-todos-os-episodios",
      "texto_original": "Getsuyoubi no Tawawa",
      "rating": 6.52,
      "classificacao_etaria": "A14",
      "imagem_original": "https://animefire.plus/img/animes/getsuyoubi-no-tawawa.webp",
      "imagem_pasta": "https://animefire.plus/img/animes/getsuyoubi-no-tawawa/",
      "secao": "legendados",
      "pagina": 122,
      "total_episodios": 12,
      "link_video": "https://animefire.plus/video/getsuyoubi-no-tawawa"
    },
    {
      "id": 1148,
      "nome": "Getsuyoubi no Tawawa 2",
      "link": "https://animefire.plus/animes/getsuyoubi-no-tawawa-2-todos-os-episodios",
      "texto_original": "Getsuyoubi no Tawawa 2",
      "rating": 6.61,
      "classificacao_etaria": "A14",
      "imagem_original": "https://animefire.plus/img/animes/getsuyoubi-no-tawawa-2.webp",
      "imagem_pasta": "https://animefire.plus/img/animes/getsuyoubi-no-tawawa-2/",
      "secao": "legendados",
      "pagina": 38,
      "total_episodios": 12,
      "link_video": "https://animefire.plus/video/getsuyoubi-no-tawawa-2"
    }
  ],
  "pagination": {
    "current_page": 28,
    "per_page": 20,
    "total_items": 2189,
    "total_pages": 110,
    "has_next": true,
    "has_prev": true
  }
}
