{
  "message": "Animes com 2 a 12 episódios",
  "episode_range": {
    "min": 2,
    "max": 12
  },
  "data": [
    {
      "id": 1672,
      "nome": "Isekai wa Smartphone to Tomo ni. (Dublado)",
      "link": "https://animefire.plus/animes/isekai-wa-smartphone-to-tomo-ni-dublado-todos-os-episodios",
      "texto_original": "Isekai wa Smartphone to Tomo ni. (Dublado)",
      "rating": 6.5,
      "classificacao_etaria": "A14",
      "imagem_original": "https://animefire.plus/img/animes/isekai-wa-smartphone-to-tomo-ni.webp",
      "imagem_pasta": "https://animefire.plus/img/animes/isekai-wa-smartphone-to-tomo-ni/",
      "secao": "dublados,legendados",
      "pagina": 24,
      "total_episodios": 3,
      "link_video": "https://animefire.plus/video/isekai-wa-smartphone-to-tomo-ni-dublado"
    },
    {
      "id": 1673,
      "nome": "Isekai wa Smartphone to Tomo ni. 2 (Dublado)",
      "link": "https://animefire.plus/animes/isekai-wa-smartphone-to-tomo-ni-2-dublado-todos-os-episodios",
      "texto_original": "Isekai wa Smartphone to Tomo ni. 2 (Dublado)",
      "rating": 6.41,
      "classificacao_etaria": "A14",
      "imagem_original": "https://animefire.plus/img/animes/isekai-wa-smartphone-to-tomo-ni-2.webp",
      "imagem_pasta": "https://animefire.plus/img/animes/isekai-wa-smartphone-to-tomo-ni-2/",
      "secao": "dublados,legendados",
      "pagina": 7,
      "total_episodios": 12,
      "link_video": "https://animefire.plus/video/isekai-wa-smartphone-to-tomo-ni-2-dublado"
    },
    {
      "id": 1674,
      "nome": "Isekai Yakkyoku",
      "link": "https://animefire.plus/animes/isekai-yakkyoku-todos-os-episodios",
      "texto_original": "Isekai Yakkyoku",
      "rating": 7.27,
      "classificacao_etaria": "A14",
      "imagem_original": "https://animefire.plus/img/animes/isekai-yakkyoku.webp",
      "imagem_pasta": "https://animefire.plus/img/animes/isekai-yakkyoku/",
      "secao": "legendados",
      "pagina": 31,
      "total_episodios": 12,
      "link_video": "https://animefire.plus/video/isekai-yakkyoku"
    },
    {
      "id": 1675,
      "nome": "Isekai Yururi Kikou: Kosodateshinagara Boukensha Shimasu",
      "link": "https://animefire.plus/animes/isekai-yururi-kikou-kosodateshinagara-boukensha-shimasu-todos-os-episodios",
      "texto_original": "Isekai Yururi Kikou: Kosodateshinagara Boukensha Shimasu",
      "rating": 6.67,
      "classificacao_etaria": "A14",
      "imagem_original": "https://animefire.plus/img/animes/isekai-yururi-kikou-kosodateshinagara-boukensha-shimasu.webp",
      "imagem_pasta": "https://animefire.plus/img/animes/isekai-yururi-kikou-kosodateshinagara-boukensha-shimasu/",
      "secao": "legendados",
      "pagina": 11,
      "total_episodios": 12,
      "link_video": "https://animefire.plus/video/isekai-yururi-kikou-kosodateshinagara-boukensha-shimasu"
    },
    {
      "id": 1676,
      "nome": "Ishida to Asakura",
      "link": "https://animefire.plus/animes/ishida-to-asakura-todos-os-episodios",
      "texto_original": "Ishida to Asakura",
      "rating": 5.96,
      "classificacao_etaria": "A14",
      "imagem_original": "https://animefire.plus/img/animes/ishida-to-asakura.webp",
      "imagem_pasta": "https://animefire.plus/img/animes/ishida-to-asakura/",
      "secao": "legendados",
      "pagina": 121,
      "total_episodios": 12,
      "link_video": "https://animefire.plus/video/ishida-to-asakura"
    },
    {
      "id": 1677,
      "nome": "Ishura",
      "link": "https://animefire.plus/animes/ishura-todos-os-episodios",
      "texto_original": "Ishura",
      "rating": 6.72,
      "classificacao_etaria": "A14",
      "imagem_original": "https://animefire.plus/img/animes/ishura.webp",
      "imagem_pasta": "https://animefire.plus/img/animes/ishura/",
      "secao": "legendados",
      "pagina": 17,
      "total_episodios": 12,
      "link_video": "https://animefire.plus/video/ishura"
    },
    {
      "id": 1678,
      "nome": "Ishura 2nd Season",
      "link": "https://animefire.plus/animes/ishura-2nd-season-todos-os-episodios",
      "texto_original": "Ishura 2nd Season",
      "rating": null,
      "classificacao_etaria": "A16",
      "imagem_original": "https://animefire.plus/img/animes/ishura-2nd-season.webp",
      "imagem_pasta": "https://animefire.plus/img/animes/ishura-2nd-season/",
      "secao": "legendados",
      "pagina": 8,
      "total_episodios": 12,
      "link_video": "https://animefire.plus/video/ishura-2nd-season"
    },
    {
      "id": 1680,
      "nome": "Island",
      "link": "https://animefire.plus/animes/island-todos-os-episodios",
      "texto_original": "Island",
      "rating": 6.52,
      "classificacao_etaria": "A14",
      "imagem_original": "https://animefire.plus/img/animes/island.webp",
      "imagem_pasta": "https://animefire.plus/img/animes/island/",
      "secao": "legendados",
      "pagina": 170,
      "total_episodios": 12,
      "link_video": "https://animefire.plus/video/island"
    },
    {
      "id": 1682,
      "nome": "Isshun de Chiryou shiteita noni Yakutatazu to Tsuihou sareta Tensai Chiyushi, Yami Healer toshite Tanoshiku Ikiru",
      "link": "https://animefire.plus/animes/isshun-de-chiryou-shiteita-noni-yakutatazu-to-tsuihou-sareta-tensai-chiyushi-yami-healer-toshite-tanoshiku-ikiru-todos-os-episodios",
      "texto_original": "Isshun de Chiryou shiteita noni Yakutatazu to Tsuihou sareta Tensai Chiyushi, Yami Healer toshite Tanoshiku Ikiru",
      "rating": 6.86,
      "classificacao_etaria": "A14",
      "imagem_original": "https://animefire.plus/img/animes/isshun-de-chiryou-shiteita-noni-yakutatazu-to-tsuihou-sareta-tensai-chiyushi-yami-healer-toshite-tanoshiku-ikiru.webp",
      "imagem_pasta": "https://animefire.plus/img/animes/isshun-de-chiryou-shiteita-noni-yakutatazu-to-tsuihou-sareta-tensai-chiyushi-yami-healer-toshite-tanoshiku-ikiru/",
      "secao": "legendados",
      "pagina": 5,
      "total_episodios": 12,
      "link_video": "https://animefire.plus/video/isshun-de-chiryou-shiteita-noni-yakutatazu-to-tsuihou-sareta-tensai-chiyushi-yami-healer-toshite-tanoshiku-ikiru"
    },
    {
      "id": 1683,
      "nome": "Isshuukan Friends.",
      "link": "https://animefire.plus/animes/isshuukan-friends-todos-os-episodios",
      "texto_original": "Isshuukan Friends.",
      "rating": 7.63,
      "classificacao_etaria": "A14",
      "imagem_original": "https://animefire.plus/img/animes/isshuukan-friends.webp",
      "imagem_pasta": "https://animefire.plus/img/animes/isshuukan-friends/",
      "secao": "legendados",
      "pagina": 126,
      "total_episodios": 12,
      "link_video": "https://animefire.plus/video/isshuukan-friends"
    },
    {
      "id": 1684,
      "nome": "Isuca",
      "link": "https://animefire.plus/animes/isuca-todos-os-episodios",
      "texto_original": "Isuca",
      "rating": 6.13,
      "classificacao_etaria": "A18",
      "imagem_original": "https://animefire.plus/img/animes/isuca.webp",
      "imagem_pasta": "https://animefire.plus/img/animes/isuca/",
      "secao": "legendados",
      "pagina": 97,
      "total_episodios": 10,
      "link_video": "https://animefire.plus/video/isuca"
    },
    {
      "id": 1685,
      "nome": "Itai no wa Iya nano de Bougyoryoku ni Kyokufuri Shitai to Omoimasu.",
      "link": "https://animefire.plus/animes/itai-no-wa-iya-nano-de-bougyoryoku-ni-kyokufuri-shitai-to-omoimasu-todos-os-episodios",
      "texto_original": "Itai no wa Iya nano de Bougyoryoku ni Kyokufuri Shitai to Omoimasu.",
      "rating": 7.59,
      "classificacao_etaria": "A14",
      "imagem_original": "https://animefire.plus/img/animes/itai-no-wa-iya-nano-de-bougyoryoku-ni-kyokufuri-shitai-to-omoimasu.webp",
      "imagem_pasta": "https://animefire.plus/img/animes/itai-no-wa-iya-nano-de-bougyoryoku-ni-kyokufuri-shitai-to-omoimasu/",
      "secao": "legendados",
      "pagina": 93,
      "total_episodios": 10,
      "link_video": "https://animefire.plus/video/itai-no-wa-iya-nano-de-bougyoryoku-ni-kyokufuri-shitai-to-omoimasu"
    },
    {
      "id": 1686,
      "nome": "Itai no wa Iya nano de Bougyoryoku ni Kyokufuri Shitai to Omoimasu. 2",
      "link": "https://animefire.plus/animes/itai-no-wa-iya-nano-de-bougyoryoku-ni-kyokufuri-shitai-to-omoimasu-2-todos-os-episodios",
      "texto_original": "Itai no wa Iya nano de Bougyoryoku ni Kyokufuri Shitai to Omoimasu. 2",
      "rating": 7.22,
      "classificacao_etaria": "A14",
      "imagem_original": "https://animefire.plus/img/animes/itai-no-wa-iya-nano-de-bougyoryoku-ni-kyokufuri-shitai-to-omoimasu-2.webp",
      "imagem_pasta": "https://animefire.plus/img/animes/itai-no-wa-iya-nano-de-bougyoryoku-ni-kyokufuri-shitai-to-omoimasu-2/",
      "secao": "legendados",
      "pagina": 28,
      "total_episodios": 12,
      "link_video": "https://animefire.plus/video/itai-no-wa-iya-nano-de-bougyoryoku-ni-kyokufuri-shitai-to-omoimasu-2"
    },
    {
      "id": 1688,
      "nome": "Itazuraguma no Gloomy",
      "link": "https://animefire.plus/animes/itazuraguma-no-gloomy-todos-os-episodios",
      "texto_original": "Itazuraguma no Gloomy",
      "rating": 5.28,
      "classificacao_etaria": "A16",
      "imagem_original": "https://animefire.plus/img/animes/itazuraguma-no-gloomy.webp",
      "imagem_pasta": "https://animefire.plus/img/animes/itazuraguma-no-gloomy/",
      "secao": "legendados",
      "pagina": 45,
      "total_episodios": 12,
      "link_video": "https://animefire.plus/video/itazuraguma-no-gloomy"
    },
    {
      "id": 1690,
      "nome": "Itou Junji: Collection",
      "link": "https://animefire.plus/animes/itou-junji-collection-todos-os-episodios",
      "texto_original": "Itou Junji: Collection",
      "rating": 6.2,
      "classificacao_etaria": "A16",
      "imagem_original": "https://animefire.plus/img/animes/itou-junji-collection.webp",
      "imagem_pasta": "https://animefire.plus/img/animes/itou-junji-collection/",
      "secao": "legendados",
      "pagina": 148,
      "total_episodios": 12,
      "link_video": "https://animefire.plus/video/itou-junji-collection"
    },
    {
      "id": 1691,
      "nome": "Itou Junji: Maniac (Dublado)",
      "link": "https://animefire.plus/animes/itou-junji-maniac-dublado-todos-os-episodios",
      "texto_original": "Itou Junji: Maniac (Dublado)",
      "rating": 6.66,
      "classificacao_etaria": "A16",
      "imagem_original": "https://animefire.plus/img/animes/itou-junji-maniac.webp",
      "imagem_pasta": "https://animefire.plus/img/animes/itou-junji-maniac/",
      "secao": "dublados,legendados",
      "pagina": 8,
      "total_episodios": 12,
      "link_video": "https://animefire.plus/video/itou-junji-maniac-dublado"
    },
    {
      "id": 1692,
      "nome": "Itsudatte Bokura no Koi wa 10 cm Datta.",
      "link": "https://animefire.plus/animes/itsudatte-bokura-no-koi-wa-10-cm-datta-todos-os-episodios",
      "texto_original": "Itsudatte Bokura no Koi wa 10 cm Datta.",
      "rating": 7.65,
      "classificacao_etaria": "A14",
      "imagem_original": "https://animefire.plus/img/animes/itsudatte-bokura-no-koi-wa-10-cm-datta.webp",
      "imagem_pasta": "https://animefire.plus/img/animes/itsudatte-bokura-no-koi-wa-10-cm-datta/",
      "secao": "legendados",
      "pagina": 106,
      "total_episodios": 6,
      "link_video": "https://animefire.plus/video/itsudatte-bokura-no-koi-wa-10-cm-datta"
    },
    {
      "id": 1693,
      "nome": "Itsudatte My Santa!",
      "link": "https://animefire.plus/animes/itsudatte-my-santa-todos-os-episodios",
      "texto_original": "Itsudatte My Santa!",
      "rating": 6.02,
      "classificacao_etaria": "A18",
      "imagem_original": "https://animefire.plus/img/animes/itsudatte-my-santa.webp",
      "imagem_pasta": "https://animefire.plus/img/animes/itsudatte-my-santa/",
      "secao": "legendados",
      "pagina": 69,
      "total_episodios": 2,
      "link_video": "https://animefire.plus/video/itsudatte-my-santa"
    },
    {
      "id": 1695,
      "nome": "Itsuka Tenma No Kuro Usagi",
      "link": "https://animefire.plus/animes/itsuka-tenma-no-kuro-usagi-todos-os-episodios",
      "texto_original": "Itsuka Tenma No Kuro Usagi",
      "rating": 6.71,
      "classificacao_etaria": "A18",
      "imagem_original": "https://animefire.plus/img/animes/itsuka-tenma-no-kuro-usagi.webp",
      "imagem_pasta": "https://animefire.plus/img/animes/itsuka-tenma-no-kuro-usagi/",
      "secao": "legendados",
      "pagina": 106,
      "total_episodios": 12,
      "link_video": "https://animefire.plus/video/itsuka-tenma-no-kuro-usagi"
    },
    {
      "id": 1696,
      "nome": "Itsuka Tenma no Kuro Usagi Picture Drama",
      "link": "https://animefire.plus/animes/itsuka-tenma-no-kuro-usagi-picture-drama-todos-os-episodios",
      "texto_original": "Itsuka Tenma no Kuro Usagi Picture Drama",
      "rating": 6.19,
      "classificacao_etaria": "A18",
      "imagem_original": "https://animefire.plus/img/animes/itsuka-tenma-no-kuro-usagi-picture-drama.webp",
      "imagem_pasta": "https://animefire.plus/img/animes/itsuka-tenma-no-kuro-usagi-picture-drama/",
      "secao": "legendados",
      "pagina": 70,
      "total_episodios": 6,
      "link_video": "https://animefire.plus/video/itsuka-tenma-no-kuro-usagi-picture-drama"
    }
  ],
  "pagination": {
    "current_page": 42,
    "per_page": 20,
    "total_items": 2189,
    "total_pages": 110,
    "has_next": true,
    "has_prev": true
  }
}
