{
  "message": "Animes com 2 a 12 episódios",
  "episode_range": {
    "min": 2,
    "max": 12
  },
  "data": [
    {
      "id": 3099,
      "nome": "Recorder to Randoseru Mi☆",
      "link": "https://animefire.plus/animes/recorder-to-randoseru-mi-todos-os-episodios",
      "texto_original": "Recorder to Randoseru Mi☆",
      "rating": 6.75,
      "classificacao_etaria": "A14",
      "imagem_original": "https://animefire.plus/img/animes/recorder-to-randoseru-mi.webp",
      "imagem_pasta": "https://animefire.plus/img/animes/recorder-to-randoseru-mi/",
      "secao": "legendados",
      "pagina": 174,
      "total_episodios": 12,
      "link_video": "https://animefire.plus/video/recorder-to-randoseru-mi"
    },
    {
      "id": 3103,
      "nome": "Reikenzan: Eichi e no Shikaku",
      "link": "https://animefire.plus/animes/reikenzan-eichi-e-no-shikaku-todos-os-episodios",
      "texto_original": "Reikenzan: Eichi e no Shikaku",
      "rating": 7.03,
      "classificacao_etaria": "A14",
      "imagem_original": "https://animefire.plus/img/animes/reikenzan-eichi-e-no-shikaku.webp",
      "imagem_pasta": "https://animefire.plus/img/animes/reikenzan-eichi-e-no-shikaku/",
      "secao": "legendados",
      "pagina": 151,
      "total_episodios": 12,
      "link_video": "https://animefire.plus/video/reikenzan-eichi-e-no-shikaku"
    },
    {
      "id": 3104,
      "nome": "Reikenzan: Hoshikuzu-tachi no Utage",
      "link": "https://animefire.plus/animes/reikenzan-hoshikuzu-tachi-no-utage-todos-os-episodios",
      "texto_original": "Reikenzan: Hoshikuzu-tachi no Utage",
      "rating": 7.21,
      "classificacao_etaria": "A14",
      "imagem_original": "https://animefire.plus/img/animes/reikenzan-hoshikuzu-tachi-no-utage.webp",
      "imagem_pasta": "https://animefire.plus/img/animes/reikenzan-hoshikuzu-tachi-no-utage/",
      "secao": "legendados",
      "pagina": 166,
      "total_episodios": 12,
      "link_video": "https://animefire.plus/video/reikenzan-hoshikuzu-tachi-no-utage"
    },
    {
      "id": 3107,
      "nome": "Release the Spyce",
      "link": "https://animefire.plus/animes/release-the-spyce-todos-os-episodios",
      "texto_original": "Release the Spyce",
      "rating": 7.09,
      "classificacao_etaria": "A14",
      "imagem_original": "https://animefire.plus/img/animes/release-the-spyce.webp",
      "imagem_pasta": "https://animefire.plus/img/animes/release-the-spyce/",
      "secao": "legendados",
      "pagina": 156,
      "total_episodios": 12,
      "link_video": "https://animefire.plus/video/release-the-spyce"
    },
    {
      "id": 3110,
      "nome": "ReLIFE: Kanketsu-hen",
      "link": "https://animefire.plus/animes/relife-kanketsu-hen-todos-os-episodios",
      "texto_original": "ReLIFE: Kanketsu-hen",
      "rating": 8.32,
      "classificacao_etaria": "A14",
      "imagem_original": "https://animefire.plus/img/animes/relife-kanketsu-hen.webp",
      "imagem_pasta": "https://animefire.plus/img/animes/relife-kanketsu-hen/",
      "secao": "legendados",
      "pagina": 164,
      "total_episodios": 4,
      "link_video": "https://animefire.plus/video/relife-kanketsu-hen"
    },
    {
      "id": 3111,
      "nome": "Renai Boukun",
      "link": "https://animefire.plus/animes/renai-boukun-todos-os-episodios",
      "texto_original": "Renai Boukun",
      "rating": 6.86,
      "classificacao_etaria": "A14",
      "imagem_original": "https://animefire.plus/img/animes/renai-boukun.webp",
      "imagem_pasta": "https://animefire.plus/img/animes/renai-boukun/",
      "secao": "legendados",
      "pagina": 143,
      "total_episodios": 12,
      "link_video": "https://animefire.plus/video/renai-boukun"
    },
    {
      "id": 3112,
      "nome": "Renai Flops",
      "link": "https://animefire.plus/animes/renai-flops-todos-os-episodios",
      "texto_original": "Renai Flops",
      "rating": 6.7,
      "classificacao_etaria": "A18",
      "imagem_original": "https://animefire.plus/img/animes/renai-flops.webp",
      "imagem_pasta": "https://animefire.plus/img/animes/renai-flops/",
      "secao": "legendados",
      "pagina": 29,
      "total_episodios": 12,
      "link_video": "https://animefire.plus/video/renai-flops"
    },
    {
      "id": 3113,
      "nome": "Renkin San-kyuu Magical? Pokaan",
      "link": "https://animefire.plus/animes/renkin-san-kyuu-magical-pokaan-todos-os-episodios",
      "texto_original": "Renkin San-kyuu Magical? Pokaan",
      "rating": 7,
      "classificacao_etaria": "A18",
      "imagem_original": "https://animefire.plus/img/animes/renkin-san-kyuu-magical-pokaan.webp",
      "imagem_pasta": "https://animefire.plus/img/animes/renkin-san-kyuu-magical-pokaan/",
      "secao": "legendados",
      "pagina": 65,
      "total_episodios": 12,
      "link_video": "https://animefire.plus/video/renkin-san-kyuu-magical-pokaan"
    },
    {
      "id": 3114,
      "nome": "Renmei Kuugun Koukuu Mahou Ongakutai Luminous Witches",
      "link": "https://animefire.plus/animes/renmei-kuugun-koukuu-mahou-ongakutai-luminous-witches-todos-os-episodios",
      "texto_original": "Renmei Kuugun Koukuu Mahou Ongakutai Luminous Witches",
      "rating": 6.69,
      "classificacao_etaria": "A14",
      "imagem_original": "https://animefire.plus/img/animes/renmei-kuugun-koukuu-mahou-ongakutai-luminous-witches.webp",
      "imagem_pasta": "https://animefire.plus/img/animes/renmei-kuugun-koukuu-mahou-ongakutai-luminous-witches/",
      "secao": "legendados",
      "pagina": 31,
      "total_episodios": 12,
      "link_video": "https://animefire.plus/video/renmei-kuugun-koukuu-mahou-ongakutai-luminous-witches"
    },
    {
      "id": 3116,
      "nome": "RErideD: Tokigoe no Derrida",
      "link": "https://animefire.plus/animes/rerided-tokigoe-no-derrida-todos-os-episodios",
      "texto_original": "RErideD: Tokigoe no Derrida",
      "rating": 5.8,
      "classificacao_etaria": "A14",
      "imagem_original": "https://animefire.plus/img/animes/rerided-tokigoe-no-derrida.webp",
      "imagem_pasta": "https://animefire.plus/img/animes/rerided-tokigoe-no-derrida/",
      "secao": "legendados",
      "pagina": 135,
      "total_episodios": 12,
      "link_video": "https://animefire.plus/video/rerided-tokigoe-no-derrida"
    },
    {
      "id": 3117,
      "nome": "Revenger",
      "link": "https://animefire.plus/animes/revenger-todos-os-episodios",
      "texto_original": "Revenger",
      "rating": 6.67,
      "classificacao_etaria": "A16",
      "imagem_original": "https://animefire.plus/img/animes/revenger.webp",
      "imagem_pasta": "https://animefire.plus/img/animes/revenger/",
      "secao": "legendados",
      "pagina": 27,
      "total_episodios": 12,
      "link_video": "https://animefire.plus/video/revenger"
    },
    {
      "id": 3118,
      "nome": "Revisions (Dublado)",
      "link": "https://animefire.plus/animes/revisions-dublado-todos-os-episodios",
      "texto_original": "Revisions (Dublado)",
      "rating": 6.17,
      "classificacao_etaria": "A14",
      "imagem_original": "https://animefire.plus/img/animes/revisions.webp",
      "imagem_pasta": "https://animefire.plus/img/animes/revisions/",
      "secao": "dublados,legendados",
      "pagina": 25,
      "total_episodios": 12,
      "link_video": "https://animefire.plus/video/revisions-dublado"
    },
    {
      "id": 3121,
      "nome": "RideBack",
      "link": "https://animefire.plus/animes/rideback-todos-os-episodios",
      "texto_original": "RideBack",
      "rating": 7.33,
      "classificacao_etaria": "A14",
      "imagem_original": "https://animefire.plus/img/animes/rideback.webp",
      "imagem_pasta": "https://animefire.plus/img/animes/rideback/",
      "secao": "legendados",
      "pagina": 130,
      "total_episodios": 12,
      "link_video": "https://animefire.plus/video/rideback"
    },
    {
      "id": 3124,
      "nome": "Rikei ga Koi ni Ochita no de Shoumei shitemita. (Dublado)",
      "link": "https://animefire.plus/animes/rikei-ga-koi-ni-ochita-no-de-shoumei-shitemita-dublado-todos-os-episodios",
      "texto_original": "Rikei ga Koi ni Ochita no de Shoumei shitemita. (Dublado)",
      "rating": 7.36,
      "classificacao_etaria": "A14",
      "imagem_original": "https://animefire.plus/img/animes/rikei-ga-koi-ni-ochita-no-de-shoumei-shitemita.webp",
      "imagem_pasta": "https://animefire.plus/img/animes/rikei-ga-koi-ni-ochita-no-de-shoumei-shitemita/",
      "secao": "dublados,legendados",
      "pagina": 8,
      "total_episodios": 12,
      "link_video": "https://animefire.plus/video/rikei-ga-koi-ni-ochita-no-de-shoumei-shitemita-dublado"
    },
    {
      "id": 3125,
      "nome": "Rikei ga Koi ni Ochita no de Shoumei shitemita. Heart (Dublado)",
      "link": "https://animefire.plus/animes/rikei-ga-koi-ni-ochita-no-de-shoumei-shitemita-heart-dublado-todos-os-episodios",
      "texto_original": "Rikei ga Koi ni Ochita no de Shoumei shitemita. Heart (Dublado)",
      "rating": 7.3,
      "classificacao_etaria": "A14",
      "imagem_original": "https://animefire.plus/img/animes/rikei-ga-koi-ni-ochita-no-de-shoumei-shitemita-heart.webp",
      "imagem_pasta": "https://animefire.plus/img/animes/rikei-ga-koi-ni-ochita-no-de-shoumei-shitemita-heart/",
      "secao": "dublados,legendados",
      "pagina": 12,
      "total_episodios": 12,
      "link_video": "https://animefire.plus/video/rikei-ga-koi-ni-ochita-no-de-shoumei-shitemita-heart-dublado"
    },
    {
      "id": 3127,
      "nome": "Ring Ni Kakero 1: Kage Dou-hen",
      "link": "https://animefire.plus/animes/ring-ni-kakero-1-kage-dou-hen-todos-os-episodios",
      "texto_original": "Ring Ni Kakero 1: Kage Dou-hen",
      "rating": 6.75,
      "classificacao_etaria": "A14",
      "imagem_original": "https://animefire.plus/img/animes/ring-ni-kakero-1-kage-dou-hen.webp",
      "imagem_pasta": "https://animefire.plus/img/animes/ring-ni-kakero-1-kage-dou-hen/",
      "secao": "legendados",
      "pagina": 108,
      "total_episodios": 6,
      "link_video": "https://animefire.plus/video/ring-ni-kakero-1-kage-dou-hen"
    },
    {
      "id": 3128,
      "nome": "Ring ni Kakero 1: Nichibei Kessen-hen",
      "link": "https://animefire.plus/animes/ring-ni-kakero-1-nichibei-kessen-hen-todos-os-episodios",
      "texto_original": "Ring ni Kakero 1: Nichibei Kessen-hen",
      "rating": 6.72,
      "classificacao_etaria": "A14",
      "imagem_original": "https://animefire.plus/img/animes/ring-ni-kakero-1-nichibei-kessen-hen.webp",
      "imagem_pasta": "https://animefire.plus/img/animes/ring-ni-kakero-1-nichibei-kessen-hen/",
      "secao": "legendados",
      "pagina": 159,
      "total_episodios": 12,
      "link_video": "https://animefire.plus/video/ring-ni-kakero-1-nichibei-kessen-hen"
    },
    {
      "id": 3129,
      "nome": "Ring Ni Kakero 1: Sekai Taikai-hen",
      "link": "https://animefire.plus/animes/ring-ni-kakero-1-sekai-taikai-hen-todos-os-episodios",
      "texto_original": "Ring Ni Kakero 1: Sekai Taikai-hen",
      "rating": 6.77,
      "classificacao_etaria": "A14",
      "imagem_original": "https://animefire.plus/img/animes/ring-ni-kakero-1-sekai-taikai-hen.webp",
      "imagem_pasta": "https://animefire.plus/img/animes/ring-ni-kakero-1-sekai-taikai-hen/",
      "secao": "legendados",
      "pagina": 103,
      "total_episodios": 6,
      "link_video": "https://animefire.plus/video/ring-ni-kakero-1-sekai-taikai-hen"
    },
    {
      "id": 3130,
      "nome": "Rinne no Lagrange",
      "link": "https://animefire.plus/animes/rinne-no-lagrange-todos-os-episodios",
      "texto_original": "Rinne no Lagrange",
      "rating": 6.97,
      "classificacao_etaria": "A14",
      "imagem_original": "https://animefire.plus/img/animes/rinne-no-lagrange.webp",
      "imagem_pasta": "https://animefire.plus/img/animes/rinne-no-lagrange/",
      "secao": "legendados",
      "pagina": 153,
      "total_episodios": 12,
      "link_video": "https://animefire.plus/video/rinne-no-lagrange"
    },
    {
      "id": 3131,
      "nome": "Rinne no Lagrange Season 2",
      "link": "https://animefire.plus/animes/rinne-no-lagrange-season-2-todos-os-episodios",
      "texto_original": "Rinne no Lagrange Season 2",
      "rating": 7.03,
      "classificacao_etaria": "A14",
      "imagem_original": "https://animefire.plus/img/animes/rinne-no-lagrange-season-2.webp",
      "imagem_pasta": "https://animefire.plus/img/animes/rinne-no-lagrange-season-2/",
      "secao": "legendados",
      "pagina": 161,
      "total_episodios": 3,
      "link_video": "https://animefire.plus/video/rinne-no-lagrange-season-2"
    }
  ],
  "pagination": {
    "current_page": 78,
    "per_page": 20,
    "total_items": 2189,
    "total_pages": 110,
    "has_next": true,
    "has_prev": true
  }
}
