{
  "message": "Animes com 2 a 12 episódios",
  "episode_range": {
    "min": 2,
    "max": 12
  },
  "data": [
    {
      "id": 3201,
      "nome": "Saikyou Tank no Meikyuu Kouryaku: Tairyoku 9999 no Rare Skill-mochi Tank, Yuusha Party wo Tsuihou sareru",
      "link": "https://animefire.plus/animes/saikyou-tank-no-meikyuu-kouryaku-tairyoku-9999-no-rare-skill-mochi-tank-yuusha-party-wo-tsuihou-sareru-todos-os-episodios",
      "texto_original": "Saikyou Tank no Meikyuu Kouryaku: Tairyoku 9999 no Rare Skill-mochi Tank, Yuusha Party wo Tsuihou sareru",
      "rating": 6.13,
      "classificacao_etaria": "A14",
      "imagem_original": "https://animefire.plus/img/animes/saikyou-tank-no-meikyuu-kouryaku-tairyoku-9999-no-rare-skill-mochi-tank-yuusha-party-wo-tsuihou-sareru.webp",
      "imagem_pasta": "https://animefire.plus/img/animes/saikyou-tank-no-meikyuu-kouryaku-tairyoku-9999-no-rare-skill-mochi-tank-yuusha-party-wo-tsuihou-sareru/",
      "secao": "legendados",
      "pagina": 17,
      "total_episodios": 2,
      "link_video": "https://animefire.plus/video/saikyou-tank-no-meikyuu-kouryaku-tairyoku-9999-no-rare-skill-mochi-tank-yuusha-party-wo-tsuihou-sareru"
    },
    {
      "id": 3204,
      "nome": "Saint Beast: Seijuu Kourin-hen",
      "link": "https://animefire.plus/animes/saint-beast-seijuu-kourin-hen-todos-os-episodios",
      "texto_original": "Saint Beast: Seijuu Kourin-hen",
      "rating": 6.06,
      "classificacao_etaria": "A14",
      "imagem_original": "https://animefire.plus/img/animes/saint-beast-seijuu-kourin-hen.webp",
      "imagem_pasta": "https://animefire.plus/img/animes/saint-beast-seijuu-kourin-hen/",
      "secao": "legendados",
      "pagina": 139,
      "total_episodios": 6,
      "link_video": "https://animefire.plus/video/saint-beast-seijuu-kourin-hen"
    },
    {
      "id": 3207,
      "nome": "Saint Seiya: Knights of the Zodiac - Battle Sanctuary Part 2",
      "link": "https://animefire.plus/animes/saint-seiya-knights-of-the-zodiac---battle-sanctuary-part-2-todos-os-episodios",
      "texto_original": "Saint Seiya: Knights of the Zodiac - Battle Sanctuary Part 2",
      "rating": 6.44,
      "classificacao_etaria": "A14",
      "imagem_original": "https://animefire.plus/img/animes/saint-seiya-knights-of-the-zodiac---battle-sanctuary-part-2.webp",
      "imagem_pasta": "https://animefire.plus/img/animes/saint-seiya-knights-of-the-zodiac---battle-sanctuary-part-2/",
      "secao": "legendados,lancamentos",
      "pagina": 14,
      "total_episodios": 2,
      "link_video": "https://animefire.plus/video/saint-seiya-knights-of-the-zodiac---battle-sanctuary-part-2"
    },
    {
      "id": 3208,
      "nome": "Saint Seiya: Meiou Hades Elysion-hen",
      "link": "https://animefire.plus/animes/saint-seiya-meiou-hades-elysion-hen-todos-os-episodios",
      "texto_original": "Saint Seiya: Meiou Hades Elysion-hen",
      "rating": 7.62,
      "classificacao_etaria": "A14",
      "imagem_original": "https://animefire.plus/img/animes/saint-seiya-meiou-hades-elysion-hen.webp",
      "imagem_pasta": "https://animefire.plus/img/animes/saint-seiya-meiou-hades-elysion-hen/",
      "secao": "legendados",
      "pagina": 71,
      "total_episodios": 6,
      "link_video": "https://animefire.plus/video/saint-seiya-meiou-hades-elysion-hen"
    },
    {
      "id": 3209,
      "nome": "Saint Seiya: Meiou Hades Meikai-hen",
      "link": "https://animefire.plus/animes/saint-seiya-meiou-hades-meikai-hen-todos-os-episodios",
      "texto_original": "Saint Seiya: Meiou Hades Meikai-hen",
      "rating": 7.79,
      "classificacao_etaria": "A14",
      "imagem_original": "https://animefire.plus/img/animes/saint-seiya-meiou-hades-meikai-hen.webp",
      "imagem_pasta": "https://animefire.plus/img/animes/saint-seiya-meiou-hades-meikai-hen/",
      "secao": "legendados",
      "pagina": 64,
      "total_episodios": 12,
      "link_video": "https://animefire.plus/video/saint-seiya-meiou-hades-meikai-hen"
    },
    {
      "id": 3210,
      "nome": "Saint Seiya: Saintia Shou",
      "link": "https://animefire.plus/animes/saint-seiya-saintia-shou-todos-os-episodios",
      "texto_original": "Saint Seiya: Saintia Shou",
      "rating": 5.7,
      "classificacao_etaria": "A14",
      "imagem_original": "https://animefire.plus/img/animes/saint-seiya-saintia-shou.webp",
      "imagem_pasta": "https://animefire.plus/img/animes/saint-seiya-saintia-shou/",
      "secao": "legendados",
      "pagina": 139,
      "total_episodios": 10,
      "link_video": "https://animefire.plus/video/saint-seiya-saintia-shou"
    },
    {
      "id": 3217,
      "nome": "Saiyuuki Gaiden",
      "link": "https://animefire.plus/animes/saiyuuki-gaiden-todos-os-episodios",
      "texto_original": "Saiyuuki Gaiden",
      "rating": 7.95,
      "classificacao_etaria": "A16",
      "imagem_original": "https://animefire.plus/img/animes/saiyuuki-gaiden.webp",
      "imagem_pasta": "https://animefire.plus/img/animes/saiyuuki-gaiden/",
      "secao": "legendados",
      "pagina": 152,
      "total_episodios": 3,
      "link_video": "https://animefire.plus/video/saiyuuki-gaiden"
    },
    {
      "id": 3219,
      "nome": "Saiyuuki Reload Blast",
      "link": "https://animefire.plus/animes/saiyuuki-reload-blast-todos-os-episodios",
      "texto_original": "Saiyuuki Reload Blast",
      "rating": 7.33,
      "classificacao_etaria": "A14",
      "imagem_original": "https://animefire.plus/img/animes/saiyuuki-reload-blast.webp",
      "imagem_pasta": "https://animefire.plus/img/animes/saiyuuki-reload-blast/",
      "secao": "legendados",
      "pagina": 114,
      "total_episodios": 12,
      "link_video": "https://animefire.plus/video/saiyuuki-reload-blast"
    },
    {
      "id": 3221,
      "nome": "Saiyuuki Reload: Burial",
      "link": "https://animefire.plus/animes/saiyuuki-reload-burial-todos-os-episodios",
      "texto_original": "Saiyuuki Reload: Burial",
      "rating": 7.96,
      "classificacao_etaria": "A14",
      "imagem_original": "https://animefire.plus/img/animes/saiyuuki-reload-burial.webp",
      "imagem_pasta": "https://animefire.plus/img/animes/saiyuuki-reload-burial/",
      "secao": "legendados",
      "pagina": 113,
      "total_episodios": 3,
      "link_video": "https://animefire.plus/video/saiyuuki-reload-burial"
    },
    {
      "id": 3223,
      "nome": "Sakamichi no Apollon (Dublado)",
      "link": "https://animefire.plus/animes/sakamichi-no-apollon-dublado-todos-os-episodios",
      "texto_original": "Sakamichi no Apollon (Dublado)",
      "rating": 8.32,
      "classificacao_etaria": "A14",
      "imagem_original": "https://animefire.plus/img/animes/sakamichi-no-apollon.webp",
      "imagem_pasta": "https://animefire.plus/img/animes/sakamichi-no-apollon/",
      "secao": "dublados,legendados",
      "pagina": 11,
      "total_episodios": 12,
      "link_video": "https://animefire.plus/video/sakamichi-no-apollon-dublado"
    },
    {
      "id": 3224,
      "nome": "Sakamoto Days (Dublado)",
      "link": "https://animefire.plus/animes/sakamoto-days-dublado-todos-os-episodios",
      "texto_original": "Sakamoto Days (Dublado)",
      "rating": 7.58,
      "classificacao_etaria": "A16",
      "imagem_original": "https://animefire.plus/img/animes/sakamoto-days.webp",
      "imagem_pasta": "https://animefire.plus/img/animes/sakamoto-days/",
      "secao": "dublados,legendados",
      "pagina": 1,
      "total_episodios": 11,
      "link_video": "https://animefire.plus/video/sakamoto-days-dublado"
    },
    {
      "id": 3225,
      "nome": "Sakamoto Days Part 2 (Dublado)",
      "link": "https://animefire.plus/animes/sakamoto-days-part-2-dublado-todos-os-episodios",
      "texto_original": "Sakamoto Days Part 2 (Dublado)",
      "rating": 7.88,
      "classificacao_etaria": "A16",
      "imagem_original": "https://animefire.plus/img/animes/sakamoto-days-part-2.webp",
      "imagem_pasta": "https://animefire.plus/img/animes/sakamoto-days-part-2/",
      "secao": "dublados,legendados,lancamentos",
      "pagina": 1,
      "total_episodios": 4,
      "link_video": "https://animefire.plus/video/sakamoto-days-part-2-dublado"
    },
    {
      "id": 3226,
      "nome": "Sakamoto Desu ga?",
      "link": "https://animefire.plus/animes/sakamoto-desu-ga-todos-os-episodios",
      "texto_original": "Sakamoto Desu ga?",
      "rating": 7.67,
      "classificacao_etaria": "A14",
      "imagem_original": "https://animefire.plus/img/animes/sakamoto-desu-ga.webp",
      "imagem_pasta": "https://animefire.plus/img/animes/sakamoto-desu-ga/",
      "secao": "legendados",
      "pagina": 117,
      "total_episodios": 7,
      "link_video": "https://animefire.plus/video/sakamoto-desu-ga"
    },
    {
      "id": 3228,
      "nome": "Saki Achiga-hen: Episode of Side-A",
      "link": "https://animefire.plus/animes/saki-achiga-hen-episode-of-side-a-todos-os-episodios",
      "texto_original": "Saki Achiga-hen: Episode of Side-A",
      "rating": 7.34,
      "classificacao_etaria": "A14",
      "imagem_original": "https://animefire.plus/img/animes/saki-achiga-hen-episode-of-side-a.webp",
      "imagem_pasta": "https://animefire.plus/img/animes/saki-achiga-hen-episode-of-side-a/",
      "secao": "legendados",
      "pagina": 65,
      "total_episodios": 12,
      "link_video": "https://animefire.plus/video/saki-achiga-hen-episode-of-side-a"
    },
    {
      "id": 3232,
      "nome": "Sakugan (Dublado)",
      "link": "https://animefire.plus/animes/sakugan-dublado-todos-os-episodios",
      "texto_original": "Sakugan (Dublado)",
      "rating": 6.51,
      "classificacao_etaria": "A14",
      "imagem_original": "https://animefire.plus/img/animes/sakugan.webp",
      "imagem_pasta": "https://animefire.plus/img/animes/sakugan/",
      "secao": "dublados,legendados",
      "pagina": 14,
      "total_episodios": 12,
      "link_video": "https://animefire.plus/video/sakugan-dublado"
    },
    {
      "id": 3236,
      "nome": "Sakura Trick",
      "link": "https://animefire.plus/animes/sakura-trick-todos-os-episodios",
      "texto_original": "Sakura Trick",
      "rating": 7.12,
      "classificacao_etaria": "A14",
      "imagem_original": "https://animefire.plus/img/animes/sakura-trick.webp",
      "imagem_pasta": "https://animefire.plus/img/animes/sakura-trick/",
      "secao": "legendados",
      "pagina": 129,
      "total_episodios": 12,
      "link_video": "https://animefire.plus/video/sakura-trick"
    },
    {
      "id": 3237,
      "nome": "Sakura Tsuushin",
      "link": "https://animefire.plus/animes/sakura-tsuushin-todos-os-episodios",
      "texto_original": "Sakura Tsuushin",
      "rating": 6.27,
      "classificacao_etaria": "A18",
      "imagem_original": "https://animefire.plus/img/animes/sakura-tsuushin.webp",
      "imagem_pasta": "https://animefire.plus/img/animes/sakura-tsuushin/",
      "secao": "legendados",
      "pagina": 124,
      "total_episodios": 12,
      "link_video": "https://animefire.plus/video/sakura-tsuushin"
    },
    {
      "id": 3239,
      "nome": "Sakurako-san no Ashimoto ni wa Shitai ga Umatteiru",
      "link": "https://animefire.plus/animes/sakurako-san-no-ashimoto-ni-wa-shitai-ga-umatteiru-todos-os-episodios",
      "texto_original": "Sakurako-san no Ashimoto ni wa Shitai ga Umatteiru",
      "rating": 7.46,
      "classificacao_etaria": "A16",
      "imagem_original": "https://animefire.plus/img/animes/sakurako-san-no-ashimoto-ni-wa-shitai-ga-umatteiru.webp",
      "imagem_pasta": "https://animefire.plus/img/animes/sakurako-san-no-ashimoto-ni-wa-shitai-ga-umatteiru/",
      "secao": "legendados",
      "pagina": 154,
      "total_episodios": 12,
      "link_video": "https://animefire.plus/video/sakurako-san-no-ashimoto-ni-wa-shitai-ga-umatteiru"
    },
    {
      "id": 3241,
      "nome": "Salaryman ga Isekai ni Ittara Shitennou ni Natta Hanashi",
      "link": "https://animefire.plus/animes/salaryman-ga-isekai-ni-ittara-shitennou-ni-natta-hanashi-todos-os-episodios",
      "texto_original": "Salaryman ga Isekai ni Ittara Shitennou ni Natta Hanashi",
      "rating": 6.59,
      "classificacao_etaria": "A14",
      "imagem_original": "https://animefire.plus/img/animes/salaryman-ga-isekai-ni-ittara-shitennou-ni-natta-hanashi.webp",
      "imagem_pasta": "https://animefire.plus/img/animes/salaryman-ga-isekai-ni-ittara-shitennou-ni-natta-hanashi/",
      "secao": "legendados",
      "pagina": 8,
      "total_episodios": 12,
      "link_video": "https://animefire.plus/video/salaryman-ga-isekai-ni-ittara-shitennou-ni-natta-hanashi"
    },
    {
      "id": 3247,
      "nome": "Samurai Gun",
      "link": "https://animefire.plus/animes/samurai-gun-todos-os-episodios",
      "texto_original": "Samurai Gun",
      "rating": 6.07,
      "classificacao_etaria": "A16",
      "imagem_original": "https://animefire.plus/img/animes/samurai-gun.webp",
      "imagem_pasta": "https://animefire.plus/img/animes/samurai-gun/",
      "secao": "legendados",
      "pagina": 124,
      "total_episodios": 12,
      "link_video": "https://animefire.plus/video/samurai-gun"
    }
  ],
  "pagination": {
    "current_page": 81,
    "per_page": 20,
    "total_items": 2189,
    "total_pages": 110,
    "has_next": true,
    "has_prev": true
  }
}
