{
  "message": "Animes com 2 a 12 episódios",
  "episode_range": {
    "min": 2,
    "max": 12
  },
  "data": [
    {
      "id": 2810,
      "nome": "Ojamajo Doremi",
      "link": "https://animefire.plus/animes/ojamajo-doremi-todos-os-episodios",
      "texto_original": "Ojamajo Doremi",
      "rating": 7.2,
      "classificacao_etaria": null,
      "imagem_original": "https://animefire.plus/img/animes/ojamajo-doremi.webp",
      "imagem_pasta": "https://animefire.plus/img/animes/ojamajo-doremi/",
      "secao": "legendados",
      "pagina": 59,
      "total_episodios": 10,
      "link_video": "https://animefire.plus/video/ojamajo-doremi"
    },
    {
      "id": 2813,
      "nome": "Okashi na Tensei",
      "link": "https://animefire.plus/animes/okashi-na-tensei-todos-os-episodios",
      "texto_original": "Okashi na Tensei",
      "rating": 6.7,
      "classificacao_etaria": "A14",
      "imagem_original": "https://animefire.plus/img/animes/okashi-na-tensei.jpg",
      "imagem_pasta": "https://animefire.plus/img/animes/okashi-na-tensei/",
      "secao": "legendados",
      "pagina": 22,
      "total_episodios": 12,
      "link_video": "https://animefire.plus/video/okashi-na-tensei"
    },
    {
      "id": 2814,
      "nome": "Okinawa de Suki ni Natta Ko ga Hougen Sugite Tsurasugiru",
      "link": "https://animefire.plus/animes/okinawa-de-suki-ni-natta-ko-ga-hougen-sugite-tsurasugiru-todos-os-episodios",
      "texto_original": "Okinawa de Suki ni Natta Ko ga Hougen Sugite Tsurasugiru",
      "rating": 7.1,
      "classificacao_etaria": "A14",
      "imagem_original": "https://animefire.plus/img/animes/okinawa-de-suki-ni-natta-ko-ga-hougen-sugite-tsurasugiru.webp",
      "imagem_pasta": "https://animefire.plus/img/animes/okinawa-de-suki-ni-natta-ko-ga-hougen-sugite-tsurasugiru/",
      "secao": "legendados",
      "pagina": 8,
      "total_episodios": 12,
      "link_video": "https://animefire.plus/video/okinawa-de-suki-ni-natta-ko-ga-hougen-sugite-tsurasugiru"
    },
    {
      "id": 2817,
      "nome": "Okusama ga Seitokaichou!+!",
      "link": "https://animefire.plus/animes/my-wife-is-the-student-council-president-todos-os-episodios",
      "texto_original": "Okusama ga Seitokaichou!+!",
      "rating": 6.7,
      "classificacao_etaria": "A18",
      "imagem_original": "https://animefire.plus/img/animes/my-wife-is-the-student-council-president.webp",
      "imagem_pasta": "https://animefire.plus/img/animes/my-wife-is-the-student-council-president/",
      "secao": "legendados",
      "pagina": 59,
      "total_episodios": 12,
      "link_video": "https://animefire.plus/video/my-wife-is-the-student-council-president"
    },
    {
      "id": 2821,
      "nome": "Omae wa Mada Gunma wo Shiranai",
      "link": "https://animefire.plus/animes/omae-wa-mada-gunma-wo-shiranai-todos-os-episodios",
      "texto_original": "Omae wa Mada Gunma wo Shiranai",
      "rating": 5.26,
      "classificacao_etaria": "A14",
      "imagem_original": "https://animefire.plus/img/animes/omae-wa-mada-gunma-wo-shiranai.webp",
      "imagem_pasta": "https://animefire.plus/img/animes/omae-wa-mada-gunma-wo-shiranai/",
      "secao": "legendados",
      "pagina": 136,
      "total_episodios": 12,
      "link_video": "https://animefire.plus/video/omae-wa-mada-gunma-wo-shiranai"
    },
    {
      "id": 2838,
      "nome": "One Punch Man (Dublado)",
      "link": "https://animefire.plus/animes/one-punch-man-dublado-todos-os-episodios",
      "texto_original": "One Punch Man (Dublado)",
      "rating": 8.7,
      "classificacao_etaria": "A16",
      "imagem_original": "https://animefire.plus/img/animes/one-punch-man.webp",
      "imagem_pasta": "https://animefire.plus/img/animes/one-punch-man/",
      "secao": "dublados,legendados",
      "pagina": 28,
      "total_episodios": 12,
      "link_video": "https://animefire.plus/video/one-punch-man-dublado"
    },
    {
      "id": 2839,
      "nome": "One Punch Man 2nd Season (Dublado)",
      "link": "https://animefire.plus/animes/one-punch-man-2nd-season-dublado-todos-os-episodios",
      "texto_original": "One Punch Man 2nd Season (Dublado)",
      "rating": 7.44,
      "classificacao_etaria": "A16",
      "imagem_original": "https://animefire.plus/img/animes/one-punch-man-2nd-season.webp",
      "imagem_pasta": "https://animefire.plus/img/animes/one-punch-man-2nd-season/",
      "secao": "dublados,legendados",
      "pagina": 13,
      "total_episodios": 12,
      "link_video": "https://animefire.plus/video/one-punch-man-2nd-season-dublado"
    },
    {
      "id": 2842,
      "nome": "One Room",
      "link": "https://animefire.plus/animes/one-room-todos-os-episodios",
      "texto_original": "One Room",
      "rating": 5.7,
      "classificacao_etaria": "A14",
      "imagem_original": "https://animefire.plus/img/animes/one-room.webp",
      "imagem_pasta": "https://animefire.plus/img/animes/one-room/",
      "secao": "legendados",
      "pagina": 155,
      "total_episodios": 12,
      "link_video": "https://animefire.plus/video/one-room"
    },
    {
      "id": 2843,
      "nome": "One Room 2nd Season",
      "link": "https://animefire.plus/animes/one-room-2nd-season-todos-os-episodios",
      "texto_original": "One Room 2nd Season",
      "rating": 6.33,
      "classificacao_etaria": "A14",
      "imagem_original": "https://animefire.plus/img/animes/one-room-2nd-season.webp",
      "imagem_pasta": "https://animefire.plus/img/animes/one-room-2nd-season/",
      "secao": "legendados",
      "pagina": 162,
      "total_episodios": 12,
      "link_video": "https://animefire.plus/video/one-room-2nd-season"
    },
    {
      "id": 2844,
      "nome": "One Room Third Season",
      "link": "https://animefire.plus/animes/one-room-third-season-todos-os-episodios",
      "texto_original": "One Room Third Season",
      "rating": null,
      "classificacao_etaria": "A14",
      "imagem_original": "https://animefire.plus/img/animes/one-room-third-season.webp",
      "imagem_pasta": "https://animefire.plus/img/animes/one-room-third-season/",
      "secao": "legendados",
      "pagina": 51,
      "total_episodios": 12,
      "link_video": "https://animefire.plus/video/one-room-third-season"
    },
    {
      "id": 2845,
      "nome": "One Room, Hiatari Futsuu, Tenshi-tsuki.",
      "link": "https://animefire.plus/animes/one-room-hiatari-futsuu-tenshi-tsuki-todos-os-episodios",
      "texto_original": "One Room, Hiatari Futsuu, Tenshi-tsuki.",
      "rating": 7.03,
      "classificacao_etaria": "A14",
      "imagem_original": "https://animefire.plus/img/animes/one-room-hiatari-futsuu-tenshi-tsuki.webp",
      "imagem_pasta": "https://animefire.plus/img/animes/one-room-hiatari-futsuu-tenshi-tsuki/",
      "secao": "legendados",
      "pagina": 14,
      "total_episodios": 12,
      "link_video": "https://animefire.plus/video/one-room-hiatari-futsuu-tenshi-tsuki"
    },
    {
      "id": 2846,
      "nome": "Oneechan ga Kita",
      "link": "https://animefire.plus/animes/oneechan-ga-kita-todos-os-episodios",
      "texto_original": "Oneechan ga Kita",
      "rating": 6.46,
      "classificacao_etaria": "A14",
      "imagem_original": "https://animefire.plus/img/animes/oneechan-ga-kita.webp",
      "imagem_pasta": "https://animefire.plus/img/animes/oneechan-ga-kita/",
      "secao": "legendados",
      "pagina": 171,
      "total_episodios": 12,
      "link_video": "https://animefire.plus/video/oneechan-ga-kita"
    },
    {
      "id": 2847,
      "nome": "Onegai☆Teacher",
      "link": "https://animefire.plus/animes/onegai-teacher-todos-os-episodios",
      "texto_original": "Onegai☆Teacher",
      "rating": 7.27,
      "classificacao_etaria": "A14",
      "imagem_original": "https://animefire.plus/img/animes/onegai-teacher.webp",
      "imagem_pasta": "https://animefire.plus/img/animes/onegai-teacher/",
      "secao": "legendados",
      "pagina": 112,
      "total_episodios": 12,
      "link_video": "https://animefire.plus/video/onegai-teacher"
    },
    {
      "id": 2848,
      "nome": "Onegai☆Twins",
      "link": "https://animefire.plus/animes/onegai-twins-todos-os-episodios",
      "texto_original": "Onegai☆Twins",
      "rating": 6.96,
      "classificacao_etaria": "A14",
      "imagem_original": "https://animefire.plus/img/animes/onegai-twins.webp",
      "imagem_pasta": "https://animefire.plus/img/animes/onegai-twins/",
      "secao": "legendados",
      "pagina": 178,
      "total_episodios": 12,
      "link_video": "https://animefire.plus/video/onegai-twins"
    },
    {
      "id": 2849,
      "nome": "Ongaku Shoujo (TV)",
      "link": "https://animefire.plus/animes/ongaku-shoujo-tv-todos-os-episodios",
      "texto_original": "Ongaku Shoujo (TV)",
      "rating": 6.02,
      "classificacao_etaria": "A14",
      "imagem_original": "https://animefire.plus/img/animes/ongaku-shoujo-tv.webp",
      "imagem_pasta": "https://animefire.plus/img/animes/ongaku-shoujo-tv/",
      "secao": "legendados",
      "pagina": 127,
      "total_episodios": 12,
      "link_video": "https://animefire.plus/video/ongaku-shoujo-tv"
    },
    {
      "id": 2850,
      "nome": "Onigiri",
      "link": "https://animefire.plus/animes/onigiri-todos-os-episodios",
      "texto_original": "Onigiri",
      "rating": 5.42,
      "classificacao_etaria": "A14",
      "imagem_original": "https://animefire.plus/img/animes/onigiri.webp",
      "imagem_pasta": "https://animefire.plus/img/animes/onigiri/",
      "secao": "legendados",
      "pagina": 127,
      "total_episodios": 10,
      "link_video": "https://animefire.plus/video/onigiri"
    },
    {
      "id": 2851,
      "nome": "Onihei",
      "link": "https://animefire.plus/animes/onihei-todos-os-episodios",
      "texto_original": "Onihei",
      "rating": 7.35,
      "classificacao_etaria": "A16",
      "imagem_original": "https://animefire.plus/img/animes/onihei.webp",
      "imagem_pasta": "https://animefire.plus/img/animes/onihei/",
      "secao": "legendados",
      "pagina": 149,
      "total_episodios": 6,
      "link_video": "https://animefire.plus/video/onihei"
    },
    {
      "id": 2853,
      "nome": "Oniichan dakedo Ai sae Areba Kankeinai yo ne! Specials",
      "link": "https://animefire.plus/animes/oniichan-dakedo-ai-sae-areba-kankeinai-yo-ne-specials-todos-os-episodios",
      "texto_original": "Oniichan dakedo Ai sae Areba Kankeinai yo ne! Specials",
      "rating": 6.29,
      "classificacao_etaria": "A18",
      "imagem_original": "https://animefire.plus/img/animes/oniichan-dakedo-ai-sae-areba-kankeinai-yo-ne-specials.webp",
      "imagem_pasta": "https://animefire.plus/img/animes/oniichan-dakedo-ai-sae-areba-kankeinai-yo-ne-specials/",
      "secao": "legendados",
      "pagina": 57,
      "total_episodios": 6,
      "link_video": "https://animefire.plus/video/oniichan-dakedo-ai-sae-areba-kankeinai-yo-ne-specials"
    },
    {
      "id": 2855,
      "nome": "Oniichan wa Oshimai!",
      "link": "https://animefire.plus/animes/oniichan-wa-oshimai-todos-os-episodios",
      "texto_original": "Oniichan wa Oshimai!",
      "rating": 7.65,
      "classificacao_etaria": "A14",
      "imagem_original": "https://animefire.plus/img/animes/oniichan-wa-oshimai.webp",
      "imagem_pasta": "https://animefire.plus/img/animes/oniichan-wa-oshimai/",
      "secao": "legendados",
      "pagina": 27,
      "total_episodios": 12,
      "link_video": "https://animefire.plus/video/oniichan-wa-oshimai"
    },
    {
      "id": 2857,
      "nome": "Onimusha (Dublado)",
      "link": "https://animefire.plus/animes/onimusha-dublado-todos-os-episodios",
      "texto_original": "Onimusha (Dublado)",
      "rating": 6.55,
      "classificacao_etaria": "A16",
      "imagem_original": "https://animefire.plus/img/animes/onimusha.webp",
      "imagem_pasta": "https://animefire.plus/img/animes/onimusha/",
      "secao": "dublados,legendados",
      "pagina": 4,
      "total_episodios": 8,
      "link_video": "https://animefire.plus/video/onimusha-dublado"
    }
  ],
  "pagination": {
    "current_page": 71,
    "per_page": 20,
    "total_items": 2189,
    "total_pages": 110,
    "has_next": true,
    "has_prev": true
  }
}
