{
  "message": "Animes com 2 a 12 episódios",
  "episode_range": {
    "min": 2,
    "max": 12
  },
  "data": [
    {
      "id": 956,
      "nome": "Estab-Life: Great Escape",
      "link": "https://animefire.plus/animes/estab-life-great-escape-todos-os-episodios",
      "texto_original": "Estab-Life: Great Escape",
      "rating": 6.47,
      "classificacao_etaria": "A14",
      "imagem_original": "https://animefire.plus/img/animes/estab-life-great-escape.webp",
      "imagem_pasta": "https://animefire.plus/img/animes/estab-life-great-escape/",
      "secao": "legendados",
      "pagina": 34,
      "total_episodios": 12,
      "link_video": "https://animefire.plus/video/estab-life-great-escape"
    },
    {
      "id": 957,
      "nome": "Eternal Boys",
      "link": "https://animefire.plus/animes/eternal-boys-todos-os-episodios",
      "texto_original": "Eternal Boys",
      "rating": 6.53,
      "classificacao_etaria": "A14",
      "imagem_original": "https://animefire.plus/img/animes/eternal-boys.webp",
      "imagem_pasta": "https://animefire.plus/img/animes/eternal-boys/",
      "secao": "legendados,lancamentos",
      "pagina": 28,
      "total_episodios": 6,
      "link_video": "https://animefire.plus/video/eternal-boys"
    },
    {
      "id": 958,
      "nome": "Etotama",
      "link": "https://animefire.plus/animes/etotama-todos-os-episodios",
      "texto_original": "Etotama",
      "rating": 6.95,
      "classificacao_etaria": "A14",
      "imagem_original": "https://animefire.plus/img/animes/etotama.webp",
      "imagem_pasta": "https://animefire.plus/img/animes/etotama/",
      "secao": "legendados",
      "pagina": 106,
      "total_episodios": 12,
      "link_video": "https://animefire.plus/video/etotama"
    },
    {
      "id": 960,
      "nome": "Eve no Jikan",
      "link": "https://animefire.plus/animes/eve-no-jikan-todos-os-episodios",
      "texto_original": "Eve no Jikan",
      "rating": 8.1,
      "classificacao_etaria": "A14",
      "imagem_original": "https://animefire.plus/img/animes/eve-no-jikan.webp",
      "imagem_pasta": "https://animefire.plus/img/animes/eve-no-jikan/",
      "secao": "legendados",
      "pagina": 53,
      "total_episodios": 6,
      "link_video": "https://animefire.plus/video/eve-no-jikan"
    },
    {
      "id": 962,
      "nome": "Evil or Live",
      "link": "https://animefire.plus/animes/evil-or-live-todos-os-episodios",
      "texto_original": "Evil or Live",
      "rating": 5.97,
      "classificacao_etaria": "A16",
      "imagem_original": "https://animefire.plus/img/animes/evil-or-live.webp",
      "imagem_pasta": "https://animefire.plus/img/animes/evil-or-live/",
      "secao": "legendados",
      "pagina": 107,
      "total_episodios": 12,
      "link_video": "https://animefire.plus/video/evil-or-live"
    },
    {
      "id": 963,
      "nome": "Ex-Arm",
      "link": "https://animefire.plus/animes/ex-arm-todos-os-episodios",
      "texto_original": "Ex-Arm",
      "rating": 2.89,
      "classificacao_etaria": "A14",
      "imagem_original": "https://animefire.plus/img/animes/ex-arm.webp",
      "imagem_pasta": "https://animefire.plus/img/animes/ex-arm/",
      "secao": "legendados",
      "pagina": 49,
      "total_episodios": 12,
      "link_video": "https://animefire.plus/video/ex-arm"
    },
    {
      "id": 964,
      "nome": "Extreme Hearts",
      "link": "https://animefire.plus/animes/extreme-hearts-todos-os-episodios",
      "texto_original": "Extreme Hearts",
      "rating": 6.54,
      "classificacao_etaria": "A14",
      "imagem_original": "https://animefire.plus/img/animes/extreme-hearts.webp",
      "imagem_pasta": "https://animefire.plus/img/animes/extreme-hearts/",
      "secao": "legendados",
      "pagina": 31,
      "total_episodios": 12,
      "link_video": "https://animefire.plus/video/extreme-hearts"
    },
    {
      "id": 967,
      "nome": "Fairy Gone 2nd Season",
      "link": "https://animefire.plus/animes/fairy-gone-2nd-season-todos-os-episodios",
      "texto_original": "Fairy Gone 2nd Season",
      "rating": 6.39,
      "classificacao_etaria": "A14",
      "imagem_original": "https://animefire.plus/img/animes/fairy-gone-2nd-season.webp",
      "imagem_pasta": "https://animefire.plus/img/animes/fairy-gone-2nd-season/",
      "secao": "legendados",
      "pagina": 110,
      "total_episodios": 12,
      "link_video": "https://animefire.plus/video/fairy-gone-2nd-season"
    },
    {
      "id": 968,
      "nome": "Fairy Ranmaru: Anata no Kokoro Otasuke Shimasu",
      "link": "https://animefire.plus/animes/fairy-ranmaru-anata-no-kokoro-otasuke-shimasu-todos-os-episodios",
      "texto_original": "Fairy Ranmaru: Anata no Kokoro Otasuke Shimasu",
      "rating": 5.9,
      "classificacao_etaria": "A14",
      "imagem_original": "https://animefire.plus/img/animes/fairy-ranmaru-anata-no-kokoro-otasuke-shimasu.webp",
      "imagem_pasta": "https://animefire.plus/img/animes/fairy-ranmaru-anata-no-kokoro-otasuke-shimasu/",
      "secao": "legendados",
      "pagina": 46,
      "total_episodios": 12,
      "link_video": "https://animefire.plus/video/fairy-ranmaru-anata-no-kokoro-otasuke-shimasu"
    },
    {
      "id": 969,
      "nome": "Fairy Tail (Dublado)",
      "link": "https://animefire.plus/animes/fairy-tail-dublado-todos-os-episodios",
      "texto_original": "Fairy Tail (Dublado)",
      "rating": 7.64,
      "classificacao_etaria": "A14",
      "imagem_original": "https://animefire.plus/img/animes/fairy-tail.webp",
      "imagem_pasta": "https://animefire.plus/img/animes/fairy-tail/",
      "secao": "dublados,legendados,lancamentos",
      "pagina": 18,
      "total_episodios": 5,
      "link_video": "https://animefire.plus/video/fairy-tail-dublado"
    },
    {
      "id": 970,
      "nome": "Fairy Tail OVA",
      "link": "https://animefire.plus/animes/fairy-tail-ova-todos-os-episodios",
      "texto_original": "Fairy Tail OVA",
      "rating": 7.59,
      "classificacao_etaria": "A14",
      "imagem_original": "https://animefire.plus/img/animes/fairy-tail-ova.webp",
      "imagem_pasta": "https://animefire.plus/img/animes/fairy-tail-ova/",
      "secao": "legendados",
      "pagina": 62,
      "total_episodios": 6,
      "link_video": "https://animefire.plus/video/fairy-tail-ova"
    },
    {
      "id": 971,
      "nome": "Fairy Tail OVA (2016)",
      "link": "https://animefire.plus/animes/fairy-tail-ova-2016-todos-os-episodios",
      "texto_original": "Fairy Tail OVA (2016)",
      "rating": 7.31,
      "classificacao_etaria": "A14",
      "imagem_original": "https://animefire.plus/img/animes/fairy-tail-ova-2016.webp",
      "imagem_pasta": "https://animefire.plus/img/animes/fairy-tail-ova-2016/",
      "secao": "legendados",
      "pagina": 64,
      "total_episodios": 3,
      "link_video": "https://animefire.plus/video/fairy-tail-ova-2016"
    },
    {
      "id": 976,
      "nome": "Fantasista Doll",
      "link": "https://animefire.plus/animes/fantasista-doll-todos-os-episodios",
      "texto_original": "Fantasista Doll",
      "rating": 6.21,
      "classificacao_etaria": "A14",
      "imagem_original": "https://animefire.plus/img/animes/fantasista-doll.webp",
      "imagem_pasta": "https://animefire.plus/img/animes/fantasista-doll/",
      "secao": "legendados",
      "pagina": 127,
      "total_episodios": 5,
      "link_video": "https://animefire.plus/video/fantasista-doll"
    },
    {
      "id": 978,
      "nome": "Fantasy Bishoujo Juniku Ojisan to",
      "link": "https://animefire.plus/animes/fantasy-bishoujo-juniku-ojisan-to-todos-os-episodios",
      "texto_original": "Fantasy Bishoujo Juniku Ojisan to",
      "rating": 7.12,
      "classificacao_etaria": "A14",
      "imagem_original": "https://animefire.plus/img/animes/fantasy-bishoujo-juniku-ojisan-to.webp",
      "imagem_pasta": "https://animefire.plus/img/animes/fantasy-bishoujo-juniku-ojisan-to/",
      "secao": "legendados",
      "pagina": 36,
      "total_episodios": 12,
      "link_video": "https://animefire.plus/video/fantasy-bishoujo-juniku-ojisan-to"
    },
    {
      "id": 979,
      "nome": "Farmagia",
      "link": "https://animefire.plus/animes/farmagia-todos-os-episodios",
      "texto_original": "Farmagia",
      "rating": 5.65,
      "classificacao_etaria": "A14",
      "imagem_original": "https://animefire.plus/img/animes/farmagia.webp",
      "imagem_pasta": "https://animefire.plus/img/animes/farmagia/",
      "secao": "legendados",
      "pagina": 7,
      "total_episodios": 12,
      "link_video": "https://animefire.plus/video/farmagia"
    },
    {
      "id": 984,
      "nome": "Fate/Extra: Last Encore - Illustrias Tendousetsu",
      "link": "https://animefire.plus/animes/fate-extra-last-encore---illustrias-tendousetsu-todos-os-episodios",
      "texto_original": "Fate/Extra: Last Encore - Illustrias Tendousetsu",
      "rating": 6.65,
      "classificacao_etaria": "A16",
      "imagem_original": "https://animefire.plus/img/animes/fate-extra-last-encore---illustrias-tendousetsu.webp",
      "imagem_pasta": "https://animefire.plus/img/animes/fate-extra-last-encore---illustrias-tendousetsu/",
      "secao": "legendados",
      "pagina": 89,
      "total_episodios": 3,
      "link_video": "https://animefire.plus/video/fate-extra-last-encore---illustrias-tendousetsu"
    },
    {
      "id": 985,
      "nome": "Fate/Extra: Last Encore (Dublado)",
      "link": "https://animefire.plus/animes/fate-extra-last-encore-dublado-todos-os-episodios",
      "texto_original": "Fate/Extra: Last Encore (Dublado)",
      "rating": 6.38,
      "classificacao_etaria": "A16",
      "imagem_original": "https://animefire.plus/img/animes/fate-extra-last-encore.webp",
      "imagem_pasta": "https://animefire.plus/img/animes/fate-extra-last-encore/",
      "secao": "dublados,legendados",
      "pagina": 24,
      "total_episodios": 10,
      "link_video": "https://animefire.plus/video/fate-extra-last-encore-dublado"
    },
    {
      "id": 986,
      "nome": "Fate/Grand Carnival",
      "link": "https://animefire.plus/animes/fate-grand-carnival-todos-os-episodios",
      "texto_original": "Fate/Grand Carnival",
      "rating": 8.18,
      "classificacao_etaria": "A14",
      "imagem_original": "https://animefire.plus/img/animes/fate-grand-carnival.webp",
      "imagem_pasta": "https://animefire.plus/img/animes/fate-grand-carnival/",
      "secao": "legendados,lancamentos",
      "pagina": 48,
      "total_episodios": 2,
      "link_video": "https://animefire.plus/video/fate-grand-carnival"
    },
    {
      "id": 992,
      "nome": "Fate/kaleid liner Prisma☆Illya",
      "link": "https://animefire.plus/animes/fate-kaleid-liner-prisma-illya-todos-os-episodios",
      "texto_original": "Fate/kaleid liner Prisma☆Illya",
      "rating": 7.18,
      "classificacao_etaria": "A14",
      "imagem_original": "https://animefire.plus/img/animes/fate-kaleid-liner-prisma-illya.webp",
      "imagem_pasta": "https://animefire.plus/img/animes/fate-kaleid-liner-prisma-illya/",
      "secao": "legendados",
      "pagina": 89,
      "total_episodios": 5,
      "link_video": "https://animefire.plus/video/fate-kaleid-liner-prisma-illya"
    },
    {
      "id": 993,
      "nome": "Fate/kaleid Liner Prisma☆Illya 2wei Herz!",
      "link": "https://animefire.plus/animes/fate-kaleid-liner-prisma-illya-2wei-herz-todos-os-episodios",
      "texto_original": "Fate/kaleid Liner Prisma☆Illya 2wei Herz!",
      "rating": 7.35,
      "classificacao_etaria": "A14",
      "imagem_original": "https://animefire.plus/img/animes/fate-kaleid-liner-prisma-illya-2wei-herz.webp",
      "imagem_pasta": "https://animefire.plus/img/animes/fate-kaleid-liner-prisma-illya-2wei-herz/",
      "secao": "legendados",
      "pagina": 98,
      "total_episodios": 10,
      "link_video": "https://animefire.plus/video/fate-kaleid-liner-prisma-illya-2wei-herz"
    }
  ],
  "pagination": {
    "current_page": 24,
    "per_page": 20,
    "total_items": 2189,
    "total_pages": 110,
    "has_next": true,
    "has_prev": true
  }
}
