{
  "message": "Animes com 2 a 12 episódios",
  "episode_range": {
    "min": 2,
    "max": 12
  },
  "data": [
    {
      "id": 162,
      "nome": "Ame-iro Cocoa: Rainy Color e Youkoso!",
      "link": "https://animefire.plus/animes/ame-iro-cocoa-rainy-color-e-youkoso-todos-os-episodios",
      "texto_original": "Ame-iro Cocoa: Rainy Color e Youkoso!",
      "rating": 4.84,
      "classificacao_etaria": "A14",
      "imagem_original": "https://animefire.plus/img/animes/ame-iro-cocoa-rainy-color-e-youkoso.webp",
      "imagem_pasta": "https://animefire.plus/img/animes/ame-iro-cocoa-rainy-color-e-youkoso/",
      "secao": "legendados",
      "pagina": 147,
      "total_episodios": 12,
      "link_video": "https://animefire.plus/video/ame-iro-cocoa-rainy-color-e-youkoso"
    },
    {
      "id": 163,
      "nome": "Ameku Takao no Suiri Karte",
      "link": "https://animefire.plus/animes/ameku-takao-no-suiri-karte-todos-os-episodios",
      "texto_original": "Ameku Takao no Suiri Karte",
      "rating": 7.15,
      "classificacao_etaria": "A14",
      "imagem_original": "https://animefire.plus/img/animes/ameku-takao-no-suiri-karte.webp",
      "imagem_pasta": "https://animefire.plus/img/animes/ameku-takao-no-suiri-karte/",
      "secao": "legendados",
      "pagina": 7,
      "total_episodios": 12,
      "link_video": "https://animefire.plus/video/ameku-takao-no-suiri-karte"
    },
    {
      "id": 164,
      "nome": "Amnesia",
      "link": "https://animefire.plus/animes/amnesia-todos-os-episodios",
      "texto_original": "Amnesia",
      "rating": 6.29,
      "classificacao_etaria": "A14",
      "imagem_original": "https://animefire.plus/img/animes/amnesia.webp",
      "imagem_pasta": "https://animefire.plus/img/animes/amnesia/",
      "secao": "legendados",
      "pagina": 153,
      "total_episodios": 12,
      "link_video": "https://animefire.plus/video/amnesia"
    },
    {
      "id": 166,
      "nome": "Ane Log: Moyako Neesan no Honpen wo Tobidashite Tomaranai Monologue Specials",
      "link": "https://animefire.plus/animes/ane-log-moyako-neesan-no-honpen-wo-tobidashite-tomaranai-monologue-specials-todos-os-episodios",
      "texto_original": "Ane Log: Moyako Neesan no Honpen wo Tobidashite Tomaranai Monologue Specials",
      "rating": 5.35,
      "classificacao_etaria": "A14",
      "imagem_original": "https://animefire.plus/img/animes/ane-log-moyako-neesan-no-honpen-wo-tobidashite-tomaranai-monologue-specials.webp",
      "imagem_pasta": "https://animefire.plus/img/animes/ane-log-moyako-neesan-no-honpen-wo-tobidashite-tomaranai-monologue-specials/",
      "secao": "legendados",
      "pagina": 82,
      "total_episodios": 3,
      "link_video": "https://animefire.plus/video/ane-log-moyako-neesan-no-honpen-wo-tobidashite-tomaranai-monologue-specials"
    },
    {
      "id": 168,
      "nome": "Ange Vierge",
      "link": "https://animefire.plus/animes/ange-vierge-todos-os-episodios",
      "texto_original": "Ange Vierge",
      "rating": 6.09,
      "classificacao_etaria": "A18",
      "imagem_original": "https://animefire.plus/img/animes/ange-vierge.webp",
      "imagem_pasta": "https://animefire.plus/img/animes/ange-vierge/",
      "secao": "legendados",
      "pagina": 90,
      "total_episodios": 12,
      "link_video": "https://animefire.plus/video/ange-vierge"
    },
    {
      "id": 170,
      "nome": "Angel Cop",
      "link": "https://animefire.plus/animes/angel-cop-todos-os-episodios",
      "texto_original": "Angel Cop",
      "rating": 5.94,
      "classificacao_etaria": "A18",
      "imagem_original": "https://animefire.plus/img/animes/angel-cop.webp",
      "imagem_pasta": "https://animefire.plus/img/animes/angel-cop/",
      "secao": "legendados",
      "pagina": 53,
      "total_episodios": 6,
      "link_video": "https://animefire.plus/video/angel-cop"
    },
    {
      "id": 171,
      "nome": "Angolmois: Genkou Kassenki",
      "link": "https://animefire.plus/animes/angolmois-genkou-kassenki-todos-os-episodios",
      "texto_original": "Angolmois: Genkou Kassenki",
      "rating": 7.21,
      "classificacao_etaria": "A16",
      "imagem_original": "https://animefire.plus/img/animes/angolmois-genkou-kassenki.webp",
      "imagem_pasta": "https://animefire.plus/img/animes/angolmois-genkou-kassenki/",
      "secao": "legendados",
      "pagina": 117,
      "total_episodios": 12,
      "link_video": "https://animefire.plus/video/angolmois-genkou-kassenki"
    },
    {
      "id": 172,
      "nome": "Ani ni Tsukeru Kusuri wa Nai!",
      "link": "https://animefire.plus/animes/ani-ni-tsukeru-kusuri-wa-nai-todos-os-episodios",
      "texto_original": "Ani ni Tsukeru Kusuri wa Nai!",
      "rating": 7.46,
      "classificacao_etaria": "A14",
      "imagem_original": "https://animefire.plus/img/animes/ani-ni-tsukeru-kusuri-wa-nai.webp",
      "imagem_pasta": "https://animefire.plus/img/animes/ani-ni-tsukeru-kusuri-wa-nai/",
      "secao": "legendados",
      "pagina": 114,
      "total_episodios": 12,
      "link_video": "https://animefire.plus/video/ani-ni-tsukeru-kusuri-wa-nai"
    },
    {
      "id": 174,
      "nome": "Ani ni Tsukeru Kusuri wa Nai! 4",
      "link": "https://animefire.plus/animes/ani-ni-tsukeru-kusuri-wa-nai-4-todos-os-episodios",
      "texto_original": "Ani ni Tsukeru Kusuri wa Nai! 4",
      "rating": 6.77,
      "classificacao_etaria": "A14",
      "imagem_original": "https://animefire.plus/img/animes/ani-ni-tsukeru-kusuri-wa-nai-4.webp",
      "imagem_pasta": "https://animefire.plus/img/animes/ani-ni-tsukeru-kusuri-wa-nai-4/",
      "secao": "legendados",
      "pagina": 52,
      "total_episodios": 12,
      "link_video": "https://animefire.plus/video/ani-ni-tsukeru-kusuri-wa-nai-4"
    },
    {
      "id": 175,
      "nome": "Ani ni Tsukeru Kusuri wa Nai! 5",
      "link": "https://animefire.plus/animes/ani-ni-tsukeru-kusuri-wa-nai-5-todos-os-episodios",
      "texto_original": "Ani ni Tsukeru Kusuri wa Nai! 5",
      "rating": 7.34,
      "classificacao_etaria": "A14",
      "imagem_original": "https://animefire.plus/img/animes/ani-ni-tsukeru-kusuri-wa-nai-5.webp",
      "imagem_pasta": "https://animefire.plus/img/animes/ani-ni-tsukeru-kusuri-wa-nai-5/",
      "secao": "legendados,lancamentos",
      "pagina": 30,
      "total_episodios": 2,
      "link_video": "https://animefire.plus/video/ani-ni-tsukeru-kusuri-wa-nai-5"
    },
    {
      "id": 176,
      "nome": "Anima Yell!",
      "link": "https://animefire.plus/animes/anima-yell-todos-os-episodios",
      "texto_original": "Anima Yell!",
      "rating": 7.08,
      "classificacao_etaria": "A14",
      "imagem_original": "https://animefire.plus/img/animes/anima-yell.webp",
      "imagem_pasta": "https://animefire.plus/img/animes/anima-yell/",
      "secao": "legendados",
      "pagina": 161,
      "total_episodios": 12,
      "link_video": "https://animefire.plus/video/anima-yell"
    },
    {
      "id": 179,
      "nome": "Animegataris",
      "link": "https://animefire.plus/animes/animegataris-todos-os-episodios",
      "texto_original": "Animegataris",
      "rating": 6.55,
      "classificacao_etaria": "A14",
      "imagem_original": "https://animefire.plus/img/animes/animegataris.webp",
      "imagem_pasta": "https://animefire.plus/img/animes/animegataris/",
      "secao": "legendados",
      "pagina": 103,
      "total_episodios": 12,
      "link_video": "https://animefire.plus/video/animegataris"
    },
    {
      "id": 180,
      "nome": "Anitore! EX",
      "link": "https://animefire.plus/animes/anitore-ex-todos-os-episodios",
      "texto_original": "Anitore! EX",
      "rating": 5.5,
      "classificacao_etaria": "A14",
      "imagem_original": "https://animefire.plus/img/animes/anitore-ex.webp",
      "imagem_pasta": "https://animefire.plus/img/animes/anitore-ex/",
      "secao": "legendados",
      "pagina": 98,
      "total_episodios": 12,
      "link_video": "https://animefire.plus/video/anitore-ex"
    },
    {
      "id": 182,
      "nome": "Anne Happy♪",
      "link": "https://animefire.plus/animes/anne-happy-todos-os-episodios",
      "texto_original": "Anne Happy♪",
      "rating": 7.05,
      "classificacao_etaria": "A14",
      "imagem_original": "https://animefire.plus/img/animes/anne-happy.webp",
      "imagem_pasta": "https://animefire.plus/img/animes/anne-happy/",
      "secao": "legendados",
      "pagina": 96,
      "total_episodios": 12,
      "link_video": "https://animefire.plus/video/anne-happy"
    },
    {
      "id": 184,
      "nome": "Ano Hi Mita Hana no Namae wo Bokutachi wa Mada Shiranai.",
      "link": "https://animefire.plus/animes/ano-hi-mita-hana-no-namae-wo-bokutachi-wa-mada-shiranai-todos-os-episodios",
      "texto_original": "Ano Hi Mita Hana no Namae wo Bokutachi wa Mada Shiranai.",
      "rating": 8.51,
      "classificacao_etaria": "A14",
      "imagem_original": "https://animefire.plus/img/animes/ano-hi-mita-hana-no-namae-wo-bokutachi-wa-mada-shiranai.webp",
      "imagem_pasta": "https://animefire.plus/img/animes/ano-hi-mita-hana-no-namae-wo-bokutachi-wa-mada-shiranai/",
      "secao": "legendados",
      "pagina": 172,
      "total_episodios": 11,
      "link_video": "https://animefire.plus/video/ano-hi-mita-hana-no-namae-wo-bokutachi-wa-mada-shiranai"
    },
    {
      "id": 186,
      "nome": "Ano Natsu de Matteru",
      "link": "https://animefire.plus/animes/ano-natsu-de-matteru-todos-os-episodios",
      "texto_original": "Ano Natsu de Matteru",
      "rating": 7.61,
      "classificacao_etaria": "A14",
      "imagem_original": "https://animefire.plus/img/animes/ano-natsu-de-matteru.webp",
      "imagem_pasta": "https://animefire.plus/img/animes/ano-natsu-de-matteru/",
      "secao": "legendados",
      "pagina": 161,
      "total_episodios": 12,
      "link_video": "https://animefire.plus/video/ano-natsu-de-matteru"
    },
    {
      "id": 187,
      "nome": "Another",
      "link": "https://animefire.plus/animes/another-todos-os-episodios",
      "texto_original": "Another",
      "rating": 7.68,
      "classificacao_etaria": "A16",
      "imagem_original": "https://animefire.plus/img/animes/another.webp",
      "imagem_pasta": "https://animefire.plus/img/animes/another/",
      "secao": "legendados",
      "pagina": 94,
      "total_episodios": 12,
      "link_video": "https://animefire.plus/video/another"
    },
    {
      "id": 188,
      "nome": "Another World",
      "link": "https://animefire.plus/animes/another-world-todos-os-episodios",
      "texto_original": "Another World",
      "rating": 7.14,
      "classificacao_etaria": "A14",
      "imagem_original": "https://animefire.plus/img/animes/another-world.webp",
      "imagem_pasta": "https://animefire.plus/img/animes/another-world/",
      "secao": "legendados",
      "pagina": 79,
      "total_episodios": 3,
      "link_video": "https://animefire.plus/video/another-world"
    },
    {
      "id": 192,
      "nome": "Ansatsu Kyoushitsu 2nd Season: Kagaijugyou-hen",
      "link": "https://animefire.plus/animes/ansatsu-kyoushitsu-2nd-season-kagaijugyou-hen-todos-os-episodios",
      "texto_original": "Ansatsu Kyoushitsu 2nd Season: Kagaijugyou-hen",
      "rating": 7.75,
      "classificacao_etaria": "A14",
      "imagem_original": "https://animefire.plus/img/animes/ansatsu-kyoushitsu-2nd-season-kagaijugyou-hen.webp",
      "imagem_pasta": "https://animefire.plus/img/animes/ansatsu-kyoushitsu-2nd-season-kagaijugyou-hen/",
      "secao": "legendados",
      "pagina": 53,
      "total_episodios": 8,
      "link_video": "https://animefire.plus/video/ansatsu-kyoushitsu-2nd-season-kagaijugyou-hen"
    },
    {
      "id": 197,
      "nome": "Ao Haru Ride OVA",
      "link": "https://animefire.plus/animes/ao-haru-ride-ova-todos-os-episodios",
      "texto_original": "Ao Haru Ride OVA",
      "rating": 7.64,
      "classificacao_etaria": "A14",
      "imagem_original": "https://animefire.plus/img/animes/ao-haru-ride-ova.webp",
      "imagem_pasta": "https://animefire.plus/img/animes/ao-haru-ride-ova/",
      "secao": "legendados",
      "pagina": 78,
      "total_episodios": 2,
      "link_video": "https://animefire.plus/video/ao-haru-ride-ova"
    }
  ],
  "pagination": {
    "current_page": 5,
    "per_page": 20,
    "total_items": 2189,
    "total_pages": 110,
    "has_next": true,
    "has_prev": true
  }
}
