{
  "message": "Animes com 2 a 12 episódios",
  "episode_range": {
    "min": 2,
    "max": 12
  },
  "data": [
    {
      "id": 2898,
      "nome": "Orient: Awajishima Gekitou-hen",
      "link": "https://animefire.plus/animes/orient-awajishima-gekitou-hen-todos-os-episodios",
      "texto_original": "Orient: Awajishima Gekitou-hen",
      "rating": 7.05,
      "classificacao_etaria": "A14",
      "imagem_original": "https://animefire.plus/img/animes/orient-awajishima-gekitou-hen.webp",
      "imagem_pasta": "https://animefire.plus/img/animes/orient-awajishima-gekitou-hen/",
      "secao": "legendados,lancamentos",
      "pagina": 30,
      "total_episodios": 3,
      "link_video": "https://animefire.plus/video/orient-awajishima-gekitou-hen"
    },
    {
      "id": 2899,
      "nome": "Oroka na Tenshi wa Akuma to Odoru",
      "link": "https://animefire.plus/animes/oroka-na-tenshi-wa-akuma-to-odoru-todos-os-episodios",
      "texto_original": "Oroka na Tenshi wa Akuma to Odoru",
      "rating": 6.91,
      "classificacao_etaria": "A14",
      "imagem_original": "https://animefire.plus/img/animes/oroka-na-tenshi-wa-akuma-to-odoru.webp",
      "imagem_pasta": "https://animefire.plus/img/animes/oroka-na-tenshi-wa-akuma-to-odoru/",
      "secao": "legendados",
      "pagina": 18,
      "total_episodios": 12,
      "link_video": "https://animefire.plus/video/oroka-na-tenshi-wa-akuma-to-odoru"
    },
    {
      "id": 2900,
      "nome": "Oruchuban Ebichu",
      "link": "https://animefire.plus/animes/oruchuban-ebichu-todos-os-episodios",
      "texto_original": "Oruchuban Ebichu",
      "rating": 7.48,
      "classificacao_etaria": "A18",
      "imagem_original": "https://animefire.plus/img/animes/oruchuban-ebichu.webp",
      "imagem_pasta": "https://animefire.plus/img/animes/oruchuban-ebichu/",
      "secao": "legendados",
      "pagina": 143,
      "total_episodios": 12,
      "link_video": "https://animefire.plus/video/oruchuban-ebichu"
    },
    {
      "id": 2903,
      "nome": "Osananajimi ga Zettai ni Makenai Love Comedy",
      "link": "https://animefire.plus/animes/osananajimi-ga-zettai-ni-makenai-love-comedy-todos-os-episodios",
      "texto_original": "Osananajimi ga Zettai ni Makenai Love Comedy",
      "rating": 6.07,
      "classificacao_etaria": "A14",
      "imagem_original": "https://animefire.plus/img/animes/osananajimi-ga-zettai-ni-makenai-love-comedy.webp",
      "imagem_pasta": "https://animefire.plus/img/animes/osananajimi-ga-zettai-ni-makenai-love-comedy/",
      "secao": "legendados",
      "pagina": 47,
      "total_episodios": 12,
      "link_video": "https://animefire.plus/video/osananajimi-ga-zettai-ni-makenai-love-comedy"
    },
    {
      "id": 2905,
      "nome": "Oshi no Ko",
      "link": "https://animefire.plus/animes/oshi-no-ko-todos-os-episodios",
      "texto_original": "Oshi no Ko",
      "rating": 8.57,
      "classificacao_etaria": "A14",
      "imagem_original": "https://animefire.plus/img/animes/oshi-no-ko.jpg",
      "imagem_pasta": "https://animefire.plus/img/animes/oshi-no-ko/",
      "secao": "legendados",
      "pagina": 23,
      "total_episodios": 11,
      "link_video": "https://animefire.plus/video/oshi-no-ko"
    },
    {
      "id": 2906,
      "nome": "Oshiete! Galko-chan",
      "link": "https://animefire.plus/animes/oshiete-galko-chan-todos-os-episodios",
      "texto_original": "Oshiete! Galko-chan",
      "rating": 7.18,
      "classificacao_etaria": "A14",
      "imagem_original": "https://animefire.plus/img/animes/oshiete-galko-chan.webp",
      "imagem_pasta": "https://animefire.plus/img/animes/oshiete-galko-chan/",
      "secao": "legendados",
      "pagina": 152,
      "total_episodios": 5,
      "link_video": "https://animefire.plus/video/oshiete-galko-chan"
    },
    {
      "id": 2910,
      "nome": "Osomatsu-san 4th Season",
      "link": "https://animefire.plus/animes/osomatsu-san-4th-season-todos-os-episodios",
      "texto_original": "Osomatsu-san 4th Season",
      "rating": 6.67,
      "classificacao_etaria": "A16",
      "imagem_original": "https://animefire.plus/img/animes/osomatsu-san-4th-season.webp",
      "imagem_pasta": "https://animefire.plus/img/animes/osomatsu-san-4th-season/",
      "secao": "legendados,lancamentos",
      "pagina": 1,
      "total_episodios": 4,
      "link_video": "https://animefire.plus/video/osomatsu-san-4th-season"
    },
    {
      "id": 2912,
      "nome": "Otaku no Video",
      "link": "https://animefire.plus/animes/otaku-no-video-todos-os-episodios",
      "texto_original": "Otaku no Video",
      "rating": 7.16,
      "classificacao_etaria": "A18",
      "imagem_original": "https://animefire.plus/img/animes/otaku-no-video.webp",
      "imagem_pasta": "https://animefire.plus/img/animes/otaku-no-video/",
      "secao": "legendados",
      "pagina": 66,
      "total_episodios": 2,
      "link_video": "https://animefire.plus/video/otaku-no-video"
    },
    {
      "id": 2914,
      "nome": "Otome Game no Hametsu Flag shika Nai Akuyaku Reijou ni Tensei shiteshimatta...",
      "link": "https://animefire.plus/animes/otome-game-no-hametsu-flag-shika-nai-akuyaku-reijou-ni-tensei-shiteshimatta-todos-os-episodios",
      "texto_original": "Otome Game no Hametsu Flag shika Nai Akuyaku Reijou ni Tensei shiteshimatta...",
      "rating": 7.49,
      "classificacao_etaria": "A14",
      "imagem_original": "https://animefire.plus/img/animes/otome-game-no-hametsu-flag-shika-nai-akuyaku-reijou-ni-tensei-shiteshimatta.webp",
      "imagem_pasta": "https://animefire.plus/img/animes/otome-game-no-hametsu-flag-shika-nai-akuyaku-reijou-ni-tensei-shiteshimatta/",
      "secao": "legendados",
      "pagina": 81,
      "total_episodios": 12,
      "link_video": "https://animefire.plus/video/otome-game-no-hametsu-flag-shika-nai-akuyaku-reijou-ni-tensei-shiteshimatta"
    },
    {
      "id": 2916,
      "nome": "Otome Game no Hametsu Flag shika Nai Akuyaku Reijou ni Tensei shiteshimatta... X",
      "link": "https://animefire.plus/animes/otome-game-no-hametsu-flag-shika-nai-akuyaku-reijou-ni-tensei-shiteshimatta-x-todos-os-episodios",
      "texto_original": "Otome Game no Hametsu Flag shika Nai Akuyaku Reijou ni Tensei shiteshimatta... X",
      "rating": 7.25,
      "classificacao_etaria": "A14",
      "imagem_original": "https://animefire.plus/img/animes/otome-game-no-hametsu-flag-shika-nai-akuyaku-reijou-ni-tensei-shiteshimatta-x.webp",
      "imagem_pasta": "https://animefire.plus/img/animes/otome-game-no-hametsu-flag-shika-nai-akuyaku-reijou-ni-tensei-shiteshimatta-x/",
      "secao": "legendados",
      "pagina": 45,
      "total_episodios": 12,
      "link_video": "https://animefire.plus/video/otome-game-no-hametsu-flag-shika-nai-akuyaku-reijou-ni-tensei-shiteshimatta-x"
    },
    {
      "id": 2917,
      "nome": "Otome Game Sekai wa Mob ni Kibishii Sekai desu",
      "link": "https://animefire.plus/animes/otome-game-sekai-wa-mob-ni-kibishii-sekai-desu-todos-os-episodios",
      "texto_original": "Otome Game Sekai wa Mob ni Kibishii Sekai desu",
      "rating": 7.32,
      "classificacao_etaria": "A14",
      "imagem_original": "https://animefire.plus/img/animes/otome-game-sekai-wa-mob-ni-kibishii-sekai-desu.webp",
      "imagem_pasta": "https://animefire.plus/img/animes/otome-game-sekai-wa-mob-ni-kibishii-sekai-desu/",
      "secao": "legendados",
      "pagina": 34,
      "total_episodios": 12,
      "link_video": "https://animefire.plus/video/otome-game-sekai-wa-mob-ni-kibishii-sekai-desu"
    },
    {
      "id": 2918,
      "nome": "Otome wa Boku ni Koishiteru",
      "link": "https://animefire.plus/animes/otome-wa-boku-ni-koishiteru-todos-os-episodios",
      "texto_original": "Otome wa Boku ni Koishiteru",
      "rating": 7.12,
      "classificacao_etaria": "A14",
      "imagem_original": "https://animefire.plus/img/animes/otome-wa-boku-ni-koishiteru.webp",
      "imagem_pasta": "https://animefire.plus/img/animes/otome-wa-boku-ni-koishiteru/",
      "secao": "legendados",
      "pagina": 134,
      "total_episodios": 12,
      "link_video": "https://animefire.plus/video/otome-wa-boku-ni-koishiteru"
    },
    {
      "id": 2921,
      "nome": "Otona no Bouguya-san",
      "link": "https://animefire.plus/animes/otona-no-bouguya-san-todos-os-episodios",
      "texto_original": "Otona no Bouguya-san",
      "rating": 5.71,
      "classificacao_etaria": "A14",
      "imagem_original": "https://animefire.plus/img/animes/otona-no-bouguya-san.webp",
      "imagem_pasta": "https://animefire.plus/img/animes/otona-no-bouguya-san/",
      "secao": "legendados",
      "pagina": 105,
      "total_episodios": 12,
      "link_video": "https://animefire.plus/video/otona-no-bouguya-san"
    },
    {
      "id": 2922,
      "nome": "Otona no Bouguya-san 2nd Season",
      "link": "https://animefire.plus/animes/otona-no-bouguya-san-2-todos-os-episodios",
      "texto_original": "Otona no Bouguya-san 2nd Season",
      "rating": 5.49,
      "classificacao_etaria": "A14",
      "imagem_original": "https://animefire.plus/img/animes/otona-no-bouguya-san-2.webp",
      "imagem_pasta": "https://animefire.plus/img/animes/otona-no-bouguya-san-2/",
      "secao": "legendados",
      "pagina": 48,
      "total_episodios": 12,
      "link_video": "https://animefire.plus/video/otona-no-bouguya-san-2"
    },
    {
      "id": 2923,
      "nome": "Otonari ni Ginga (Dublado)",
      "link": "https://animefire.plus/animes/otonari-ni-ginga-dublado-todos-os-episodios",
      "texto_original": "Otonari ni Ginga (Dublado)",
      "rating": 7.15,
      "classificacao_etaria": "A14",
      "imagem_original": "https://animefire.plus/img/animes/otonari-ni-ginga.webp",
      "imagem_pasta": "https://animefire.plus/img/animes/otonari-ni-ginga/",
      "secao": "dublados,legendados",
      "pagina": 6,
      "total_episodios": 12,
      "link_video": "https://animefire.plus/video/otonari-ni-ginga-dublado"
    },
    {
      "id": 2924,
      "nome": "Otonari no Tenshi-sama ni Itsunomanika Dame Ningen ni Sareteita Ken",
      "link": "https://animefire.plus/animes/otonari-no-tenshi-sama-ni-itsunomanika-dame-ningen-ni-sareteita-ken-todos-os-episodios",
      "texto_original": "Otonari no Tenshi-sama ni Itsunomanika Dame Ningen ni Sareteita Ken",
      "rating": 7.84,
      "classificacao_etaria": "A14",
      "imagem_original": "https://animefire.plus/img/animes/otonari-no-tenshi-sama-ni-itsunomanika-dame-ningen-ni-sareteita-ken.webp",
      "imagem_pasta": "https://animefire.plus/img/animes/otonari-no-tenshi-sama-ni-itsunomanika-dame-ningen-ni-sareteita-ken/",
      "secao": "legendados",
      "pagina": 28,
      "total_episodios": 12,
      "link_video": "https://animefire.plus/video/otonari-no-tenshi-sama-ni-itsunomanika-dame-ningen-ni-sareteita-ken"
    },
    {
      "id": 2926,
      "nome": "Ouran Koukou Host Club",
      "link": "https://animefire.plus/animes/ouran-koukou-host-club-todos-os-episodios",
      "texto_original": "Ouran Koukou Host Club",
      "rating": 8.31,
      "classificacao_etaria": "A14",
      "imagem_original": "https://animefire.plus/img/animes/ouran-koukou-host-club.webp",
      "imagem_pasta": "https://animefire.plus/img/animes/ouran-koukou-host-club/",
      "secao": "legendados",
      "pagina": 116,
      "total_episodios": 5,
      "link_video": "https://animefire.plus/video/ouran-koukou-host-club"
    },
    {
      "id": 2928,
      "nome": "Ousama Game The Animation",
      "link": "https://animefire.plus/animes/ousama-game-the-animation-todos-os-episodios",
      "texto_original": "Ousama Game The Animation",
      "rating": 5.15,
      "classificacao_etaria": "A16",
      "imagem_original": "https://animefire.plus/img/animes/ousama-game-the-animation.webp",
      "imagem_pasta": "https://animefire.plus/img/animes/ousama-game-the-animation/",
      "secao": "legendados",
      "pagina": 95,
      "total_episodios": 12,
      "link_video": "https://animefire.plus/video/ousama-game-the-animation"
    },
    {
      "id": 2930,
      "nome": "Oushitsu Kyoushi Heine",
      "link": "https://animefire.plus/animes/oushitsu-kyoushi-heine-todos-os-episodios",
      "texto_original": "Oushitsu Kyoushi Heine",
      "rating": 7.51,
      "classificacao_etaria": "A14",
      "imagem_original": "https://animefire.plus/img/animes/oushitsu-kyoushi-heine.webp",
      "imagem_pasta": "https://animefire.plus/img/animes/oushitsu-kyoushi-heine/",
      "secao": "legendados",
      "pagina": 64,
      "total_episodios": 12,
      "link_video": "https://animefire.plus/video/oushitsu-kyoushi-heine"
    },
    {
      "id": 2931,
      "nome": "Outbreak Company",
      "link": "https://animefire.plus/animes/outbreak-company-todos-os-episodios",
      "texto_original": "Outbreak Company",
      "rating": 7.44,
      "classificacao_etaria": "A14",
      "imagem_original": "https://animefire.plus/img/animes/outbreak-company.webp",
      "imagem_pasta": "https://animefire.plus/img/animes/outbreak-company/",
      "secao": "legendados",
      "pagina": 155,
      "total_episodios": 4,
      "link_video": "https://animefire.plus/video/outbreak-company"
    }
  ],
  "pagination": {
    "current_page": 73,
    "per_page": 20,
    "total_items": 2189,
    "total_pages": 110,
    "has_next": true,
    "has_prev": true
  }
}
