{
  "message": "Animes com 2 a 12 episódios",
  "episode_range": {
    "min": 2,
    "max": 12
  },
  "data": [
    {
      "id": 2733,
      "nome": "Night Wizard",
      "link": "https://animefire.plus/animes/night-wizard-todos-os-episodios",
      "texto_original": "Night Wizard",
      "rating": 6.75,
      "classificacao_etaria": "A14",
      "imagem_original": "https://animefire.plus/img/animes/night-wizard.webp",
      "imagem_pasta": "https://animefire.plus/img/animes/night-wizard/",
      "secao": "legendados",
      "pagina": 178,
      "total_episodios": 9,
      "link_video": "https://animefire.plus/video/night-wizard"
    },
    {
      "id": 2734,
      "nome": "Nihon Chinbotsu 2020 (Dublado)",
      "link": "https://animefire.plus/animes/nihon-chinbotsu-2020-dublado-todos-os-episodios",
      "texto_original": "Nihon Chinbotsu 2020 (Dublado)",
      "rating": 6.67,
      "classificacao_etaria": "A16",
      "imagem_original": "https://animefire.plus/img/animes/nihon-chinbotsu-2020.webp",
      "imagem_pasta": "https://animefire.plus/img/animes/nihon-chinbotsu-2020/",
      "secao": "dublados,legendados",
      "pagina": 20,
      "total_episodios": 10,
      "link_video": "https://animefire.plus/video/nihon-chinbotsu-2020-dublado"
    },
    {
      "id": 2735,
      "nome": "Nihon e Youkoso Elf-san.",
      "link": "https://animefire.plus/animes/nihon-e-youkoso-elf-san-todos-os-episodios",
      "texto_original": "Nihon e Youkoso Elf-san.",
      "rating": 7.29,
      "classificacao_etaria": "A14",
      "imagem_original": "https://animefire.plus/img/animes/nihon-e-youkoso-elf-san.webp",
      "imagem_pasta": "https://animefire.plus/img/animes/nihon-e-youkoso-elf-san/",
      "secao": "legendados",
      "pagina": 7,
      "total_episodios": 12,
      "link_video": "https://animefire.plus/video/nihon-e-youkoso-elf-san"
    },
    {
      "id": 2737,
      "nome": "Nijiyon Animation",
      "link": "https://animefire.plus/animes/nijiyon-animation-todos-os-episodios",
      "texto_original": "Nijiyon Animation",
      "rating": 6.81,
      "classificacao_etaria": "A14",
      "imagem_original": "https://animefire.plus/img/animes/nijiyon-animation.webp",
      "imagem_pasta": "https://animefire.plus/img/animes/nijiyon-animation/",
      "secao": "legendados",
      "pagina": 25,
      "total_episodios": 12,
      "link_video": "https://animefire.plus/video/nijiyon-animation"
    },
    {
      "id": 2738,
      "nome": "Nijiyon Animation 2",
      "link": "https://animefire.plus/animes/nijiyon-animation-2-todos-os-episodios",
      "texto_original": "Nijiyon Animation 2",
      "rating": 6.85,
      "classificacao_etaria": "A14",
      "imagem_original": "https://animefire.plus/img/animes/nijiyon-animation-2.webp",
      "imagem_pasta": "https://animefire.plus/img/animes/nijiyon-animation-2/",
      "secao": "legendados",
      "pagina": 14,
      "total_episodios": 12,
      "link_video": "https://animefire.plus/video/nijiyon-animation-2"
    },
    {
      "id": 2740,
      "nome": "Nil Admirari no Tenbin",
      "link": "https://animefire.plus/animes/nil-admirari-no-tenbin-todos-os-episodios",
      "texto_original": "Nil Admirari no Tenbin",
      "rating": 6.67,
      "classificacao_etaria": "A14",
      "imagem_original": "https://animefire.plus/img/animes/nil-admirari-no-tenbin.webp",
      "imagem_pasta": "https://animefire.plus/img/animes/nil-admirari-no-tenbin/",
      "secao": "legendados",
      "pagina": 146,
      "total_episodios": 12,
      "link_video": "https://animefire.plus/video/nil-admirari-no-tenbin"
    },
    {
      "id": 2741,
      "nome": "Ningen Fushin no Boukensha-tachi ga Sekai wo Sukuu you desu (Dublado)",
      "link": "https://animefire.plus/animes/ningen-fushin-no-boukensha-tachi-ga-sekai-wo-sukuu-you-desu-dublado-todos-os-episodios",
      "texto_original": "Ningen Fushin no Boukensha-tachi ga Sekai wo Sukuu you desu (Dublado)",
      "rating": 6.33,
      "classificacao_etaria": "A14",
      "imagem_original": "https://animefire.plus/img/animes/ningen-fushin-no-boukensha-tachi-ga-sekai-wo-sukuu-you-desu.webp",
      "imagem_pasta": "https://animefire.plus/img/animes/ningen-fushin-no-boukensha-tachi-ga-sekai-wo-sukuu-you-desu/",
      "secao": "dublados,legendados",
      "pagina": 6,
      "total_episodios": 12,
      "link_video": "https://animefire.plus/video/ningen-fushin-no-boukensha-tachi-ga-sekai-wo-sukuu-you-desu-dublado"
    },
    {
      "id": 2742,
      "nome": "Ninja Collection",
      "link": "https://animefire.plus/animes/ninja-collection-todos-os-episodios",
      "texto_original": "Ninja Collection",
      "rating": null,
      "classificacao_etaria": "A14",
      "imagem_original": "https://animefire.plus/img/animes/ninja-collection.webp",
      "imagem_pasta": "https://animefire.plus/img/animes/ninja-collection/",
      "secao": "legendados,lancamentos",
      "pagina": 57,
      "total_episodios": 11,
      "link_video": "https://animefire.plus/video/ninja-collection"
    },
    {
      "id": 2745,
      "nome": "Ninja Slayer From Animation",
      "link": "https://animefire.plus/animes/ninja-slayer-from-animation-todos-os-episodios",
      "texto_original": "Ninja Slayer From Animation",
      "rating": 6.59,
      "classificacao_etaria": "A16",
      "imagem_original": "https://animefire.plus/img/animes/ninja-slayer-from-animation.webp",
      "imagem_pasta": "https://animefire.plus/img/animes/ninja-slayer-from-animation/",
      "secao": "legendados",
      "pagina": 150,
      "total_episodios": 4,
      "link_video": "https://animefire.plus/video/ninja-slayer-from-animation"
    },
    {
      "id": 2746,
      "nome": "Ninja to Koroshiya no Futarigurashi",
      "link": "https://animefire.plus/animes/ninja-to-koroshiya-no-futarigurashi-todos-os-episodios",
      "texto_original": "Ninja to Koroshiya no Futarigurashi",
      "rating": 7.63,
      "classificacao_etaria": "A14",
      "imagem_original": "https://animefire.plus/img/animes/ninja-to-koroshiya-no-futarigurashi.webp",
      "imagem_pasta": "https://animefire.plus/img/animes/ninja-to-koroshiya-no-futarigurashi/",
      "secao": "legendados",
      "pagina": 4,
      "total_episodios": 12,
      "link_video": "https://animefire.plus/video/ninja-to-koroshiya-no-futarigurashi"
    },
    {
      "id": 2748,
      "nome": "Nisekoi 2nd season",
      "link": "https://animefire.plus/animes/nisekoi-2nd-season-todos-os-episodios",
      "texto_original": "Nisekoi 2nd season",
      "rating": 7.43,
      "classificacao_etaria": "A14",
      "imagem_original": "https://animefire.plus/img/animes/nisekoi-2nd-season.webp",
      "imagem_pasta": "https://animefire.plus/img/animes/nisekoi-2nd-season/",
      "secao": "legendados",
      "pagina": 79,
      "total_episodios": 12,
      "link_video": "https://animefire.plus/video/nisekoi-2nd-season"
    },
    {
      "id": 2751,
      "nome": "No Game No Life (Dublado)",
      "link": "https://animefire.plus/animes/no-game-no-life-dublado-todos-os-episodios",
      "texto_original": "No Game No Life (Dublado)",
      "rating": 8.29,
      "classificacao_etaria": "A14",
      "imagem_original": "https://animefire.plus/img/animes/no-game-no-life.webp",
      "imagem_pasta": "https://animefire.plus/img/animes/no-game-no-life/",
      "secao": "dublados,legendados",
      "pagina": 22,
      "total_episodios": 12,
      "link_video": "https://animefire.plus/video/no-game-no-life-dublado"
    },
    {
      "id": 2752,
      "nome": "No Game No Life Specials",
      "link": "https://animefire.plus/animes/no-game-no-life-specials-todos-os-episodios",
      "texto_original": "No Game No Life Specials",
      "rating": 6.76,
      "classificacao_etaria": "A14",
      "imagem_original": "https://animefire.plus/img/animes/no-game-no-life-specials.webp",
      "imagem_pasta": "https://animefire.plus/img/animes/no-game-no-life-specials/",
      "secao": "legendados",
      "pagina": 75,
      "total_episodios": 3,
      "link_video": "https://animefire.plus/video/no-game-no-life-specials"
    },
    {
      "id": 2753,
      "nome": "No Game No Life: Zero",
      "link": "https://animefire.plus/animes/no-game-no-life-zero-todos-os-episodios",
      "texto_original": "No Game No Life: Zero",
      "rating": 8.56,
      "classificacao_etaria": "A14",
      "imagem_original": "https://animefire.plus/img/animes/no-game-no-life-zero.webp",
      "imagem_pasta": "https://animefire.plus/img/animes/no-game-no-life-zero/",
      "secao": "legendados",
      "pagina": 105,
      "total_episodios": 4,
      "link_video": "https://animefire.plus/video/no-game-no-life-zero"
    },
    {
      "id": 2755,
      "nome": "No Guns Life 2nd Season",
      "link": "https://animefire.plus/animes/no-guns-life-2nd-season-todos-os-episodios",
      "texto_original": "No Guns Life 2nd Season",
      "rating": null,
      "classificacao_etaria": "A14",
      "imagem_original": "https://animefire.plus/img/animes/no-guns-life-2nd-season.webp",
      "imagem_pasta": "https://animefire.plus/img/animes/no-guns-life-2nd-season/",
      "secao": "legendados",
      "pagina": 58,
      "total_episodios": 12,
      "link_video": "https://animefire.plus/video/no-guns-life-2nd-season"
    },
    {
      "id": 2756,
      "nome": "No.6",
      "link": "https://animefire.plus/animes/no-6-todos-os-episodios",
      "texto_original": "No.6",
      "rating": 7.69,
      "classificacao_etaria": "A16",
      "imagem_original": "https://animefire.plus/img/animes/no-6.webp",
      "imagem_pasta": "https://animefire.plus/img/animes/no-6/",
      "secao": "legendados",
      "pagina": 161,
      "total_episodios": 11,
      "link_video": "https://animefire.plus/video/no-6"
    },
    {
      "id": 2760,
      "nome": "Nobunaga Concerto",
      "link": "https://animefire.plus/animes/nobunaga-concerto-todos-os-episodios",
      "texto_original": "Nobunaga Concerto",
      "rating": 7.69,
      "classificacao_etaria": "A14",
      "imagem_original": "https://animefire.plus/img/animes/nobunaga-concerto.webp",
      "imagem_pasta": "https://animefire.plus/img/animes/nobunaga-concerto/",
      "secao": "legendados",
      "pagina": 141,
      "total_episodios": 7,
      "link_video": "https://animefire.plus/video/nobunaga-concerto"
    },
    {
      "id": 2767,
      "nome": "Nodame Cantabile: Finale",
      "link": "https://animefire.plus/animes/nodame-cantabile-finale-todos-os-episodios",
      "texto_original": "Nodame Cantabile: Finale",
      "rating": 8.32,
      "classificacao_etaria": "A14",
      "imagem_original": "https://animefire.plus/img/animes/nodame-cantabile-finale.webp",
      "imagem_pasta": "https://animefire.plus/img/animes/nodame-cantabile-finale/",
      "secao": "legendados",
      "pagina": 177,
      "total_episodios": 11,
      "link_video": "https://animefire.plus/video/nodame-cantabile-finale"
    },
    {
      "id": 2768,
      "nome": "Nodame Cantabile: Paris-hen",
      "link": "https://animefire.plus/animes/nodame-cantabile-paris-hen-todos-os-episodios",
      "texto_original": "Nodame Cantabile: Paris-hen",
      "rating": 8.21,
      "classificacao_etaria": "A14",
      "imagem_original": "https://animefire.plus/img/animes/nodame-cantabile-paris-hen.webp",
      "imagem_pasta": "https://animefire.plus/img/animes/nodame-cantabile-paris-hen/",
      "secao": "legendados",
      "pagina": 132,
      "total_episodios": 11,
      "link_video": "https://animefire.plus/video/nodame-cantabile-paris-hen"
    },
    {
      "id": 2770,
      "nome": "Nogizaka Haruka no Himitsu",
      "link": "https://animefire.plus/animes/nogizaka-haruka-no-himitsu-todos-os-episodios",
      "texto_original": "Nogizaka Haruka no Himitsu",
      "rating": 7.3,
      "classificacao_etaria": "A14",
      "imagem_original": "https://animefire.plus/img/animes/nogizaka-haruka-no-himitsu.webp",
      "imagem_pasta": "https://animefire.plus/img/animes/nogizaka-haruka-no-himitsu/",
      "secao": "legendados",
      "pagina": 168,
      "total_episodios": 12,
      "link_video": "https://animefire.plus/video/nogizaka-haruka-no-himitsu"
    }
  ],
  "pagination": {
    "current_page": 69,
    "per_page": 20,
    "total_items": 2189,
    "total_pages": 110,
    "has_next": true,
    "has_prev": true
  }
}
