{
  "message": "Animes com 2 a 12 episódios",
  "episode_range": {
    "min": 2,
    "max": 12
  },
  "data": [
    {
      "id": 2359,
      "nome": "Mahoutsukai Precure!! Mirai Days",
      "link": "https://animefire.plus/animes/mahoutsukai-precure-mirai-days-todos-os-episodios",
      "texto_original": "Mahoutsukai Precure!! Mirai Days",
      "rating": 7.17,
      "classificacao_etaria": null,
      "imagem_original": "https://animefire.plus/img/animes/mahoutsukai-precure-mirai-days.webp",
      "imagem_pasta": "https://animefire.plus/img/animes/mahoutsukai-precure-mirai-days/",
      "secao": "legendados,lancamentos",
      "pagina": 7,
      "total_episodios": 10,
      "link_video": "https://animefire.plus/video/mahoutsukai-precure-mirai-days"
    },
    {
      "id": 2360,
      "nome": "Mahoutsukai Reimeiki (Dublado)",
      "link": "https://animefire.plus/animes/mahoutsukai-reimeiki-dublado-todos-os-episodios",
      "texto_original": "Mahoutsukai Reimeiki (Dublado)",
      "rating": 6.39,
      "classificacao_etaria": "A14",
      "imagem_original": "https://animefire.plus/img/animes/mahoutsukai-reimeiki.webp",
      "imagem_pasta": "https://animefire.plus/img/animes/mahoutsukai-reimeiki/",
      "secao": "dublados,legendados",
      "pagina": 11,
      "total_episodios": 12,
      "link_video": "https://animefire.plus/video/mahoutsukai-reimeiki-dublado"
    },
    {
      "id": 2366,
      "nome": "Mai-Otome 0: S.ifr",
      "link": "https://animefire.plus/animes/mai-otome-0-s-ifr-todos-os-episodios",
      "texto_original": "Mai-Otome 0: S.ifr",
      "rating": 7.41,
      "classificacao_etaria": "A18",
      "imagem_original": "https://animefire.plus/img/animes/mai-otome-0-s-ifr.webp",
      "imagem_pasta": "https://animefire.plus/img/animes/mai-otome-0-s-ifr/",
      "secao": "legendados",
      "pagina": 68,
      "total_episodios": 3,
      "link_video": "https://animefire.plus/video/mai-otome-0-s-ifr"
    },
    {
      "id": 2367,
      "nome": "Mai-Otome Zwei",
      "link": "https://animefire.plus/animes/mai-otome-zwei-todos-os-episodios",
      "texto_original": "Mai-Otome Zwei",
      "rating": 7.29,
      "classificacao_etaria": "A18",
      "imagem_original": "https://animefire.plus/img/animes/mai-otome-zwei.webp",
      "imagem_pasta": "https://animefire.plus/img/animes/mai-otome-zwei/",
      "secao": "legendados",
      "pagina": 68,
      "total_episodios": 4,
      "link_video": "https://animefire.plus/video/mai-otome-zwei"
    },
    {
      "id": 2368,
      "nome": "Maiko-san Chi no Makanai-san",
      "link": "https://animefire.plus/animes/maiko-san-chi-no-makanai-san-todos-os-episodios",
      "texto_original": "Maiko-san Chi no Makanai-san",
      "rating": 7.04,
      "classificacao_etaria": "A14",
      "imagem_original": "https://animefire.plus/img/animes/maiko-san-chi-no-makanai-san.webp",
      "imagem_pasta": "https://animefire.plus/img/animes/maiko-san-chi-no-makanai-san/",
      "secao": "legendados",
      "pagina": 48,
      "total_episodios": 12,
      "link_video": "https://animefire.plus/video/maiko-san-chi-no-makanai-san"
    },
    {
      "id": 2373,
      "nome": "Maji de Watashi ni Koi Shinasai!",
      "link": "https://animefire.plus/animes/maji-de-watashi-ni-koi-shinasai-todos-os-episodios",
      "texto_original": "Maji de Watashi ni Koi Shinasai!",
      "rating": 6.66,
      "classificacao_etaria": "A18",
      "imagem_original": "https://animefire.plus/img/animes/maji-de-watashi-ni-koi-shinasai.webp",
      "imagem_pasta": "https://animefire.plus/img/animes/maji-de-watashi-ni-koi-shinasai/",
      "secao": "legendados",
      "pagina": 12,
      "total_episodios": 12,
      "link_video": "https://animefire.plus/video/maji-de-watashi-ni-koi-shinasai"
    },
    {
      "id": 2374,
      "nome": "Majimoji Rurumo",
      "link": "https://animefire.plus/animes/majimoji-rurumo-todos-os-episodios",
      "texto_original": "Majimoji Rurumo",
      "rating": 6.9,
      "classificacao_etaria": "A14",
      "imagem_original": "https://animefire.plus/img/animes/majimoji-rurumo.webp",
      "imagem_pasta": "https://animefire.plus/img/animes/majimoji-rurumo/",
      "secao": "legendados",
      "pagina": 164,
      "total_episodios": 5,
      "link_video": "https://animefire.plus/video/majimoji-rurumo"
    },
    {
      "id": 2375,
      "nome": "Majimoji Rurumo: Kanketsu-hen",
      "link": "https://animefire.plus/animes/majimoji-rurumo-kanketsu-hen-todos-os-episodios",
      "texto_original": "Majimoji Rurumo: Kanketsu-hen",
      "rating": 7.43,
      "classificacao_etaria": "A14",
      "imagem_original": "https://animefire.plus/img/animes/majimoji-rurumo-kanketsu-hen.webp",
      "imagem_pasta": "https://animefire.plus/img/animes/majimoji-rurumo-kanketsu-hen/",
      "secao": "legendados",
      "pagina": 88,
      "total_episodios": 2,
      "link_video": "https://animefire.plus/video/majimoji-rurumo-kanketsu-hen"
    },
    {
      "id": 2377,
      "nome": "Majo no Tabitabi (Dublado)",
      "link": "https://animefire.plus/animes/majo-no-tabitabi-dublado-todos-os-episodios",
      "texto_original": "Majo no Tabitabi (Dublado)",
      "rating": 7.55,
      "classificacao_etaria": "A16",
      "imagem_original": "https://animefire.plus/img/animes/majo-no-tabitabi.webp",
      "imagem_pasta": "https://animefire.plus/img/animes/majo-no-tabitabi/",
      "secao": "dublados,legendados",
      "pagina": 13,
      "total_episodios": 12,
      "link_video": "https://animefire.plus/video/majo-no-tabitabi-dublado"
    },
    {
      "id": 2378,
      "nome": "Majo to Yajuu",
      "link": "https://animefire.plus/animes/majo-to-yajuu-todos-os-episodios",
      "texto_original": "Majo to Yajuu",
      "rating": 7.44,
      "classificacao_etaria": "A16",
      "imagem_original": "https://animefire.plus/img/animes/majo-to-yajuu.webp",
      "imagem_pasta": "https://animefire.plus/img/animes/majo-to-yajuu/",
      "secao": "legendados",
      "pagina": 18,
      "total_episodios": 12,
      "link_video": "https://animefire.plus/video/majo-to-yajuu"
    },
    {
      "id": 2388,
      "nome": "Major: World Series",
      "link": "https://animefire.plus/animes/major-world-series-todos-os-episodios",
      "texto_original": "Major: World Series",
      "rating": 8.38,
      "classificacao_etaria": "A14",
      "imagem_original": "https://animefire.plus/img/animes/major-world-series.webp",
      "imagem_pasta": "https://animefire.plus/img/animes/major-world-series/",
      "secao": "legendados",
      "pagina": 73,
      "total_episodios": 2,
      "link_video": "https://animefire.plus/video/major-world-series"
    },
    {
      "id": 2391,
      "nome": "Majutsushi Orphen Hagure Tabi: Kimluck-hen",
      "link": "https://animefire.plus/animes/majutsushi-orphen-hagure-tabi-kimluck-hen-todos-os-episodios",
      "texto_original": "Majutsushi Orphen Hagure Tabi: Kimluck-hen",
      "rating": 6.2,
      "classificacao_etaria": "A14",
      "imagem_original": "https://animefire.plus/img/animes/majutsushi-orphen-hagure-tabi-kimluck-hen.webp",
      "imagem_pasta": "https://animefire.plus/img/animes/majutsushi-orphen-hagure-tabi-kimluck-hen/",
      "secao": "legendados",
      "pagina": 49,
      "total_episodios": 11,
      "link_video": "https://animefire.plus/video/majutsushi-orphen-hagure-tabi-kimluck-hen"
    },
    {
      "id": 2393,
      "nome": "Majutsushi Orphen Hagure Tabi: Urbanrama-hen",
      "link": "https://animefire.plus/animes/majutsushi-orphen-hagure-tabi-urbanrama-hen-todos-os-episodios",
      "texto_original": "Majutsushi Orphen Hagure Tabi: Urbanrama-hen",
      "rating": 6.15,
      "classificacao_etaria": "A14",
      "imagem_original": "https://animefire.plus/img/animes/majutsushi-orphen-hagure-tabi-urbanrama-hen.webp",
      "imagem_pasta": "https://animefire.plus/img/animes/majutsushi-orphen-hagure-tabi-urbanrama-hen/",
      "secao": "legendados,lancamentos",
      "pagina": 25,
      "total_episodios": 4,
      "link_video": "https://animefire.plus/video/majutsushi-orphen-hagure-tabi-urbanrama-hen"
    },
    {
      "id": 2394,
      "nome": "Makai Ouji: Devils And Realist",
      "link": "https://animefire.plus/animes/makai-ouji-devils-and-realist-todos-os-episodios",
      "texto_original": "Makai Ouji: Devils And Realist",
      "rating": 7.11,
      "classificacao_etaria": "A14",
      "imagem_original": "https://animefire.plus/img/animes/makai-ouji-devils-and-realist.webp",
      "imagem_pasta": "https://animefire.plus/img/animes/makai-ouji-devils-and-realist/",
      "secao": "legendados",
      "pagina": 80,
      "total_episodios": 12,
      "link_video": "https://animefire.plus/video/makai-ouji-devils-and-realist"
    },
    {
      "id": 2395,
      "nome": "Makai Senki Disgaea",
      "link": "https://animefire.plus/animes/makai-senki-disgaea-todos-os-episodios",
      "texto_original": "Makai Senki Disgaea",
      "rating": 6.82,
      "classificacao_etaria": "A14",
      "imagem_original": "https://animefire.plus/img/animes/makai-senki-disgaea.webp",
      "imagem_pasta": "https://animefire.plus/img/animes/makai-senki-disgaea/",
      "secao": "legendados",
      "pagina": 143,
      "total_episodios": 12,
      "link_video": "https://animefire.plus/video/makai-senki-disgaea"
    },
    {
      "id": 2396,
      "nome": "Make Heroine ga Oosugiru!",
      "link": "https://animefire.plus/animes/make-heroine-ga-oosugiru-todos-os-episodios",
      "texto_original": "Make Heroine ga Oosugiru!",
      "rating": 8.11,
      "classificacao_etaria": "A14",
      "imagem_original": "https://animefire.plus/img/animes/make-heroine-ga-oosugiru.webp",
      "imagem_pasta": "https://animefire.plus/img/animes/make-heroine-ga-oosugiru/",
      "secao": "legendados",
      "pagina": 13,
      "total_episodios": 12,
      "link_video": "https://animefire.plus/video/make-heroine-ga-oosugiru"
    },
    {
      "id": 2397,
      "nome": "Maken-Ki!",
      "link": "https://animefire.plus/animes/maken-ki-todos-os-episodios",
      "texto_original": "Maken-Ki!",
      "rating": 6.38,
      "classificacao_etaria": "A18",
      "imagem_original": "https://animefire.plus/img/animes/maken-ki.webp",
      "imagem_pasta": "https://animefire.plus/img/animes/maken-ki/",
      "secao": "legendados",
      "pagina": 40,
      "total_episodios": 12,
      "link_video": "https://animefire.plus/video/maken-ki"
    },
    {
      "id": 2398,
      "nome": "Maken-Ki! Two",
      "link": "https://animefire.plus/animes/maken-ki-two-todos-os-episodios",
      "texto_original": "Maken-Ki! Two",
      "rating": 6.33,
      "classificacao_etaria": "A18",
      "imagem_original": "https://animefire.plus/img/animes/maken-ki-two.webp",
      "imagem_pasta": "https://animefire.plus/img/animes/maken-ki-two/",
      "secao": "legendados",
      "pagina": 157,
      "total_episodios": 10,
      "link_video": "https://animefire.plus/video/maken-ki-two"
    },
    {
      "id": 2399,
      "nome": "Makeruna!! Aku no Gundan!",
      "link": "https://animefire.plus/animes/makeruna-aku-no-gundan-todos-os-episodios",
      "texto_original": "Makeruna!! Aku no Gundan!",
      "rating": 5.27,
      "classificacao_etaria": null,
      "imagem_original": "https://animefire.plus/img/animes/makeruna-aku-no-gundan.webp",
      "imagem_pasta": "https://animefire.plus/img/animes/makeruna-aku-no-gundan/",
      "secao": "legendados",
      "pagina": 121,
      "total_episodios": 12,
      "link_video": "https://animefire.plus/video/makeruna-aku-no-gundan"
    },
    {
      "id": 2400,
      "nome": "Makura no Danshi",
      "link": "https://animefire.plus/animes/makura-no-danshi-todos-os-episodios",
      "texto_original": "Makura no Danshi",
      "rating": 4.69,
      "classificacao_etaria": "A14",
      "imagem_original": "https://animefire.plus/img/animes/makura-no-danshi.webp",
      "imagem_pasta": "https://animefire.plus/img/animes/makura-no-danshi/",
      "secao": "legendados",
      "pagina": 135,
      "total_episodios": 12,
      "link_video": "https://animefire.plus/video/makura-no-danshi"
    }
  ],
  "pagination": {
    "current_page": 60,
    "per_page": 20,
    "total_items": 2189,
    "total_pages": 110,
    "has_next": true,
    "has_prev": true
  }
}
