{
  "message": "Animes com 2 a 12 episódios",
  "episode_range": {
    "min": 2,
    "max": 12
  },
  "data": [
    {
      "id": 1477,
      "nome": "Hikari no Ou 2nd Season",
      "link": "https://animefire.plus/animes/hikari-no-ou-2-todos-os-episodios",
      "texto_original": "Hikari no Ou 2nd Season",
      "rating": 5.9,
      "classificacao_etaria": "A14",
      "imagem_original": "https://animefire.plus/img/animes/hikari-no-ou-2.webp",
      "imagem_pasta": "https://animefire.plus/img/animes/hikari-no-ou-2/",
      "secao": "legendados",
      "pagina": 16,
      "total_episodios": 10,
      "link_video": "https://animefire.plus/video/hikari-no-ou-2"
    },
    {
      "id": 1479,
      "nome": "Hikaru ga Shinda Natsu",
      "link": "https://animefire.plus/animes/hikaru-ga-shinda-natsu-todos-os-episodios",
      "texto_original": "Hikaru ga Shinda Natsu",
      "rating": 8.18,
      "classificacao_etaria": "A16",
      "imagem_original": "https://animefire.plus/img/animes/hikaru-ga-shinda-natsu.webp",
      "imagem_pasta": "https://animefire.plus/img/animes/hikaru-ga-shinda-natsu/",
      "secao": "legendados,lancamentos",
      "pagina": 3,
      "total_episodios": 5,
      "link_video": "https://animefire.plus/video/hikaru-ga-shinda-natsu"
    },
    {
      "id": 1480,
      "nome": "Hikaru no Go (Dublado)",
      "link": "https://animefire.plus/animes/hikaru-no-go-dublado-todos-os-episodios",
      "texto_original": "Hikaru no Go (Dublado)",
      "rating": 8.07,
      "classificacao_etaria": "A14",
      "imagem_original": "https://animefire.plus/img/animes/hikaru-no-go.webp",
      "imagem_pasta": "https://animefire.plus/img/animes/hikaru-no-go/",
      "secao": "dublados",
      "pagina": 3,
      "total_episodios": 10,
      "link_video": "https://animefire.plus/video/hikaru-no-go-dublado"
    },
    {
      "id": 1481,
      "nome": "Hikikomari Kyuuketsuki no Monmon",
      "link": "https://animefire.plus/animes/hikikomari-kyuuketsuki-no-monmon-todos-os-episodios",
      "texto_original": "Hikikomari Kyuuketsuki no Monmon",
      "rating": 7.14,
      "classificacao_etaria": "A14",
      "imagem_original": "https://animefire.plus/img/animes/hikikomari-kyuuketsuki-no-monmon.webp",
      "imagem_pasta": "https://animefire.plus/img/animes/hikikomari-kyuuketsuki-no-monmon/",
      "secao": "legendados",
      "pagina": 20,
      "total_episodios": 12,
      "link_video": "https://animefire.plus/video/hikikomari-kyuuketsuki-no-monmon"
    },
    {
      "id": 1483,
      "nome": "Himegoto",
      "link": "https://animefire.plus/animes/himegoto-todos-os-episodios",
      "texto_original": "Himegoto",
      "rating": 6.03,
      "classificacao_etaria": "A14",
      "imagem_original": "https://animefire.plus/img/animes/himegoto.webp",
      "imagem_pasta": "https://animefire.plus/img/animes/himegoto/",
      "secao": "legendados",
      "pagina": 137,
      "total_episodios": 10,
      "link_video": "https://animefire.plus/video/himegoto"
    },
    {
      "id": 1484,
      "nome": "Himesama \"Goumon\" no Jikan desu",
      "link": "https://animefire.plus/animes/himesama-goumon-no-jikan-desu-todos-os-episodios",
      "texto_original": "Himesama \"Goumon\" no Jikan desu",
      "rating": 7.23,
      "classificacao_etaria": "A14",
      "imagem_original": "https://animefire.plus/img/animes/himesama-goumon-no-jikan-desu.webp",
      "imagem_pasta": "https://animefire.plus/img/animes/himesama-goumon-no-jikan-desu/",
      "secao": "legendados",
      "pagina": 17,
      "total_episodios": 12,
      "link_video": "https://animefire.plus/video/himesama-goumon-no-jikan-desu"
    },
    {
      "id": 1485,
      "nome": "Himiko-Den",
      "link": "https://animefire.plus/animes/himiko-den-todos-os-episodios",
      "texto_original": "Himiko-Den",
      "rating": 6.31,
      "classificacao_etaria": "A14",
      "imagem_original": "https://animefire.plus/img/animes/himiko-den.webp",
      "imagem_pasta": "https://animefire.plus/img/animes/himiko-den/",
      "secao": "legendados",
      "pagina": 96,
      "total_episodios": 12,
      "link_video": "https://animefire.plus/video/himiko-den"
    },
    {
      "id": 1487,
      "nome": "Himitsukessha Taka no Tsume: Golden Spell",
      "link": "https://animefire.plus/animes/himitsukessha-taka-no-tsume-golden-spell-todos-os-episodios",
      "texto_original": "Himitsukessha Taka no Tsume: Golden Spell",
      "rating": 5.71,
      "classificacao_etaria": null,
      "imagem_original": "https://animefire.plus/img/animes/himitsukessha-taka-no-tsume-golden-spell.webp",
      "imagem_pasta": "https://animefire.plus/img/animes/himitsukessha-taka-no-tsume-golden-spell/",
      "secao": "legendados,lancamentos",
      "pagina": 50,
      "total_episodios": 3,
      "link_video": "https://animefire.plus/video/himitsukessha-taka-no-tsume-golden-spell"
    },
    {
      "id": 1488,
      "nome": "Himote House",
      "link": "https://animefire.plus/animes/himote-house-todos-os-episodios",
      "texto_original": "Himote House",
      "rating": 5.8,
      "classificacao_etaria": "A14",
      "imagem_original": "https://animefire.plus/img/animes/himote-house.webp",
      "imagem_pasta": "https://animefire.plus/img/animes/himote-house/",
      "secao": "legendados",
      "pagina": 115,
      "total_episodios": 12,
      "link_video": "https://animefire.plus/video/himote-house"
    },
    {
      "id": 1490,
      "nome": "Himouto! Umaru-chan R",
      "link": "https://animefire.plus/animes/himouto-umaru-chan-r-todos-os-episodios",
      "texto_original": "Himouto! Umaru-chan R",
      "rating": 7.47,
      "classificacao_etaria": "A14",
      "imagem_original": "https://animefire.plus/img/animes/himouto-umaru-chan-r.webp",
      "imagem_pasta": "https://animefire.plus/img/animes/himouto-umaru-chan-r/",
      "secao": "legendados",
      "pagina": 111,
      "total_episodios": 12,
      "link_video": "https://animefire.plus/video/himouto-umaru-chan-r"
    },
    {
      "id": 1491,
      "nome": "Hina Logi: From Luck & Logic",
      "link": "https://animefire.plus/animes/hina-logi-from-luck-logic-todos-os-episodios",
      "texto_original": "Hina Logi: From Luck & Logic",
      "rating": 6.7,
      "classificacao_etaria": "A14",
      "imagem_original": "https://animefire.plus/img/animes/hina-logi-from-luck-logic.webp",
      "imagem_pasta": "https://animefire.plus/img/animes/hina-logi-from-luck-logic/",
      "secao": "legendados",
      "pagina": 59,
      "total_episodios": 12,
      "link_video": "https://animefire.plus/video/hina-logi-from-luck-logic"
    },
    {
      "id": 1492,
      "nome": "Hinako Note",
      "link": "https://animefire.plus/animes/hinako-note-todos-os-episodios",
      "texto_original": "Hinako Note",
      "rating": 6.82,
      "classificacao_etaria": "A14",
      "imagem_original": "https://animefire.plus/img/animes/hinako-note.webp",
      "imagem_pasta": "https://animefire.plus/img/animes/hinako-note/",
      "secao": "legendados",
      "pagina": 104,
      "total_episodios": 12,
      "link_video": "https://animefire.plus/video/hinako-note"
    },
    {
      "id": 1496,
      "nome": "Hipira-kun",
      "link": "https://animefire.plus/animes/hipira-kun-todos-os-episodios",
      "texto_original": "Hipira-kun",
      "rating": 6.18,
      "classificacao_etaria": "A10",
      "imagem_original": "https://animefire.plus/img/animes/hipira-kun.webp",
      "imagem_pasta": "https://animefire.plus/img/animes/hipira-kun/",
      "secao": "legendados",
      "pagina": 141,
      "total_episodios": 10,
      "link_video": "https://animefire.plus/video/hipira-kun"
    },
    {
      "id": 1498,
      "nome": "Hisone to Maso-tan (Dublado)",
      "link": "https://animefire.plus/animes/hisone-to-maso-tan-dublado-todos-os-episodios",
      "texto_original": "Hisone to Maso-tan (Dublado)",
      "rating": 7.45,
      "classificacao_etaria": "A14",
      "imagem_original": "https://animefire.plus/img/animes/hisone-to-maso-tan.webp",
      "imagem_pasta": "https://animefire.plus/img/animes/hisone-to-maso-tan/",
      "secao": "dublados,legendados",
      "pagina": 24,
      "total_episodios": 12,
      "link_video": "https://animefire.plus/video/hisone-to-maso-tan-dublado"
    },
    {
      "id": 1499,
      "nome": "Hit Wo Nerae!",
      "link": "https://animefire.plus/animes/hit-wo-nerae-todos-os-episodios",
      "texto_original": "Hit Wo Nerae!",
      "rating": 5.56,
      "classificacao_etaria": "A18",
      "imagem_original": "https://animefire.plus/img/animes/hit-wo-nerae.webp",
      "imagem_pasta": "https://animefire.plus/img/animes/hit-wo-nerae/",
      "secao": "legendados",
      "pagina": 99,
      "total_episodios": 8,
      "link_video": "https://animefire.plus/video/hit-wo-nerae"
    },
    {
      "id": 1500,
      "nome": "Hitohira",
      "link": "https://animefire.plus/animes/hitohira-todos-os-episodios",
      "texto_original": "Hitohira",
      "rating": 6.82,
      "classificacao_etaria": "A14",
      "imagem_original": "https://animefire.plus/img/animes/hitohira.webp",
      "imagem_pasta": "https://animefire.plus/img/animes/hitohira/",
      "secao": "legendados",
      "pagina": 102,
      "total_episodios": 12,
      "link_video": "https://animefire.plus/video/hitohira"
    },
    {
      "id": 1501,
      "nome": "Hitori no Shita: The Outcast",
      "link": "https://animefire.plus/animes/hitori-no-shita-the-outcast-todos-os-episodios",
      "texto_original": "Hitori no Shita: The Outcast",
      "rating": 6.8,
      "classificacao_etaria": "A16",
      "imagem_original": "https://animefire.plus/img/animes/hitori-no-shita-the-outcast.webp",
      "imagem_pasta": "https://animefire.plus/img/animes/hitori-no-shita-the-outcast/",
      "secao": "legendados",
      "pagina": 166,
      "total_episodios": 5,
      "link_video": "https://animefire.plus/video/hitori-no-shita-the-outcast"
    },
    {
      "id": 1503,
      "nome": "Hitori no Shita: The Outcast 3rd Season",
      "link": "https://animefire.plus/animes/hitori-no-shita-the-outcast-3rd-season-todos-os-episodios",
      "texto_original": "Hitori no Shita: The Outcast 3rd Season",
      "rating": 6.81,
      "classificacao_etaria": "A16",
      "imagem_original": "https://animefire.plus/img/animes/hitori-no-shita-the-outcast-3rd-season.webp",
      "imagem_pasta": "https://animefire.plus/img/animes/hitori-no-shita-the-outcast-3rd-season/",
      "secao": "legendados",
      "pagina": 75,
      "total_episodios": 8,
      "link_video": "https://animefire.plus/video/hitori-no-shita-the-outcast-3rd-season"
    },
    {
      "id": 1506,
      "nome": "Hitoribocchi no Isekai Kouryaku",
      "link": "https://animefire.plus/animes/hitoribocchi-no-isekai-kouryaku-todos-os-episodios",
      "texto_original": "Hitoribocchi no Isekai Kouryaku",
      "rating": 6.57,
      "classificacao_etaria": "A14",
      "imagem_original": "https://animefire.plus/img/animes/hitoribocchi-no-isekai-kouryaku.webp",
      "imagem_pasta": "https://animefire.plus/img/animes/hitoribocchi-no-isekai-kouryaku/",
      "secao": "legendados",
      "pagina": 11,
      "total_episodios": 12,
      "link_video": "https://animefire.plus/video/hitoribocchi-no-isekai-kouryaku"
    },
    {
      "id": 1508,
      "nome": "Hitorijime My Hero",
      "link": "https://animefire.plus/animes/hitorijime-my-hero-todos-os-episodios",
      "texto_original": "Hitorijime My Hero",
      "rating": 7.6,
      "classificacao_etaria": "A14",
      "imagem_original": "https://animefire.plus/img/animes/hitorijime-my-hero.webp",
      "imagem_pasta": "https://animefire.plus/img/animes/hitorijime-my-hero/",
      "secao": "legendados",
      "pagina": 120,
      "total_episodios": 12,
      "link_video": "https://animefire.plus/video/hitorijime-my-hero"
    }
  ],
  "pagination": {
    "current_page": 37,
    "per_page": 20,
    "total_items": 2189,
    "total_pages": 110,
    "has_next": true,
    "has_prev": true
  }
}
