{
  "message": "Animes com 2 a 12 episódios",
  "episode_range": {
    "min": 2,
    "max": 12
  },
  "data": [
    {
      "id": 3731,
      "nome": "Tamako Market",
      "link": "https://animefire.plus/animes/tamako-market-todos-os-episodios",
      "texto_original": "Tamako Market",
      "rating": 7.38,
      "classificacao_etaria": "A14",
      "imagem_original": "https://animefire.plus/img/animes/tamako-market.webp",
      "imagem_pasta": "https://animefire.plus/img/animes/tamako-market/",
      "secao": "legendados",
      "pagina": 79,
      "total_episodios": 12,
      "link_video": "https://animefire.plus/video/tamako-market"
    },
    {
      "id": 3732,
      "nome": "Tamako Market Specials",
      "link": "https://animefire.plus/animes/tamako-market-specials-todos-os-episodios",
      "texto_original": "Tamako Market Specials",
      "rating": 6.32,
      "classificacao_etaria": "A14",
      "imagem_original": "https://animefire.plus/img/animes/tamako-market-specials.webp",
      "imagem_pasta": "https://animefire.plus/img/animes/tamako-market-specials/",
      "secao": "legendados",
      "pagina": 67,
      "total_episodios": 6,
      "link_video": "https://animefire.plus/video/tamako-market-specials"
    },
    {
      "id": 3734,
      "nome": "Tamayura",
      "link": "https://animefire.plus/animes/tamayura-todos-os-episodios",
      "texto_original": "Tamayura",
      "rating": 7.16,
      "classificacao_etaria": null,
      "imagem_original": "https://animefire.plus/img/animes/tamayura.webp",
      "imagem_pasta": "https://animefire.plus/img/animes/tamayura/",
      "secao": "legendados",
      "pagina": 56,
      "total_episodios": 2,
      "link_video": "https://animefire.plus/video/tamayura"
    },
    {
      "id": 3735,
      "nome": "Tamayura: Hitotose",
      "link": "https://animefire.plus/animes/tamayura-hitotose-todos-os-episodios",
      "texto_original": "Tamayura: Hitotose",
      "rating": 7.32,
      "classificacao_etaria": null,
      "imagem_original": "https://animefire.plus/img/animes/tamayura-hitotose.webp",
      "imagem_pasta": "https://animefire.plus/img/animes/tamayura-hitotose/",
      "secao": "legendados",
      "pagina": 119,
      "total_episodios": 12,
      "link_video": "https://animefire.plus/video/tamayura-hitotose"
    },
    {
      "id": 3737,
      "nome": "Tanaka-kun Wa Itsumo Kedaruge",
      "link": "https://animefire.plus/animes/tanaka-kun-wa-itsumo-kedaruge-todos-os-episodios",
      "texto_original": "Tanaka-kun Wa Itsumo Kedaruge",
      "rating": 7.99,
      "classificacao_etaria": "A14",
      "imagem_original": "https://animefire.plus/img/animes/tanaka-kun-wa-itsumo-kedaruge.webp",
      "imagem_pasta": "https://animefire.plus/img/animes/tanaka-kun-wa-itsumo-kedaruge/",
      "secao": "legendados",
      "pagina": 96,
      "total_episodios": 12,
      "link_video": "https://animefire.plus/video/tanaka-kun-wa-itsumo-kedaruge"
    },
    {
      "id": 3738,
      "nome": "Tanaka-kun wa Itsumo Kedaruge Specials",
      "link": "https://animefire.plus/animes/tanaka-kun-wa-itsumo-kedaruge-specials-todos-os-episodios",
      "texto_original": "Tanaka-kun wa Itsumo Kedaruge Specials",
      "rating": 7.41,
      "classificacao_etaria": "A14",
      "imagem_original": "https://animefire.plus/img/animes/tanaka-kun-wa-itsumo-kedaruge-specials.webp",
      "imagem_pasta": "https://animefire.plus/img/animes/tanaka-kun-wa-itsumo-kedaruge-specials/",
      "secao": "legendados",
      "pagina": 42,
      "total_episodios": 7,
      "link_video": "https://animefire.plus/video/tanaka-kun-wa-itsumo-kedaruge-specials"
    },
    {
      "id": 3740,
      "nome": "Tantei Gakuen Q",
      "link": "https://animefire.plus/animes/tantei-gakuen-q-todos-os-episodios",
      "texto_original": "Tantei Gakuen Q",
      "rating": 7.83,
      "classificacao_etaria": "A14",
      "imagem_original": "https://animefire.plus/img/animes/tantei-gakuen-q.webp",
      "imagem_pasta": "https://animefire.plus/img/animes/tantei-gakuen-q/",
      "secao": "legendados",
      "pagina": 167,
      "total_episodios": 11,
      "link_video": "https://animefire.plus/video/tantei-gakuen-q"
    },
    {
      "id": 3743,
      "nome": "Tantei Opera Milky Holmes Dai 2 Maku",
      "link": "https://animefire.plus/animes/tantei-opera-milky-holmes-dai-2-maku-todos-os-episodios",
      "texto_original": "Tantei Opera Milky Holmes Dai 2 Maku",
      "rating": 7.27,
      "classificacao_etaria": "A14",
      "imagem_original": "https://animefire.plus/img/animes/tantei-opera-milky-holmes-dai-2-maku.webp",
      "imagem_pasta": "https://animefire.plus/img/animes/tantei-opera-milky-holmes-dai-2-maku/",
      "secao": "legendados",
      "pagina": 177,
      "total_episodios": 9,
      "link_video": "https://animefire.plus/video/tantei-opera-milky-holmes-dai-2-maku"
    },
    {
      "id": 3744,
      "nome": "Tantei Opera Milky Holmes: Alternative",
      "link": "https://animefire.plus/animes/tantei-opera-milky-holmes-alternative-todos-os-episodios",
      "texto_original": "Tantei Opera Milky Holmes: Alternative",
      "rating": 6.54,
      "classificacao_etaria": "A14",
      "imagem_original": "https://animefire.plus/img/animes/tantei-opera-milky-holmes-alternative.webp",
      "imagem_pasta": "https://animefire.plus/img/animes/tantei-opera-milky-holmes-alternative/",
      "secao": "legendados",
      "pagina": 83,
      "total_episodios": 2,
      "link_video": "https://animefire.plus/video/tantei-opera-milky-holmes-alternative"
    },
    {
      "id": 3749,
      "nome": "Tantei wa Mou, Shindeiru. (Dublado)",
      "link": "https://animefire.plus/animes/tantei-wa-mou-shindeiru-dublado-todos-os-episodios",
      "texto_original": "Tantei wa Mou, Shindeiru. (Dublado)",
      "rating": 6.42,
      "classificacao_etaria": "A14",
      "imagem_original": "https://animefire.plus/img/animes/tantei-wa-mou-shindeiru.webp",
      "imagem_pasta": "https://animefire.plus/img/animes/tantei-wa-mou-shindeiru/",
      "secao": "dublados,legendados",
      "pagina": 12,
      "total_episodios": 12,
      "link_video": "https://animefire.plus/video/tantei-wa-mou-shindeiru-dublado"
    },
    {
      "id": 3750,
      "nome": "Tari Tari",
      "link": "https://animefire.plus/animes/tari-tari-todos-os-episodios",
      "texto_original": "Tari Tari",
      "rating": 7.38,
      "classificacao_etaria": "A14",
      "imagem_original": "https://animefire.plus/img/animes/tari-tari.webp",
      "imagem_pasta": "https://animefire.plus/img/animes/tari-tari/",
      "secao": "legendados",
      "pagina": 125,
      "total_episodios": 7,
      "link_video": "https://animefire.plus/video/tari-tari"
    },
    {
      "id": 3752,
      "nome": "Tasogare Out Focus",
      "link": "https://animefire.plus/animes/tasogare-out-focus-todos-os-episodios",
      "texto_original": "Tasogare Out Focus",
      "rating": 7.47,
      "classificacao_etaria": "A14",
      "imagem_original": "https://animefire.plus/img/animes/tasogare-out-focus.webp",
      "imagem_pasta": "https://animefire.plus/img/animes/tasogare-out-focus/",
      "secao": "legendados",
      "pagina": 13,
      "total_episodios": 12,
      "link_video": "https://animefire.plus/video/tasogare-out-focus"
    },
    {
      "id": 3753,
      "nome": "Tasokare Hotel",
      "link": "https://animefire.plus/animes/tasokare-hotel-todos-os-episodios",
      "texto_original": "Tasokare Hotel",
      "rating": 7.2,
      "classificacao_etaria": "A14",
      "imagem_original": "https://animefire.plus/img/animes/tasokare-hotel.webp",
      "imagem_pasta": "https://animefire.plus/img/animes/tasokare-hotel/",
      "secao": "legendados",
      "pagina": 7,
      "total_episodios": 12,
      "link_video": "https://animefire.plus/video/tasokare-hotel"
    },
    {
      "id": 3755,
      "nome": "Tatakae!! Iczer-1",
      "link": "https://animefire.plus/animes/tatakae-iczer-1-todos-os-episodios",
      "texto_original": "Tatakae!! Iczer-1",
      "rating": 6.1,
      "classificacao_etaria": "A18",
      "imagem_original": "https://animefire.plus/img/animes/tatakae-iczer-1.webp",
      "imagem_pasta": "https://animefire.plus/img/animes/tatakae-iczer-1/",
      "secao": "legendados",
      "pagina": 76,
      "total_episodios": 3,
      "link_video": "https://animefire.plus/video/tatakae-iczer-1"
    },
    {
      "id": 3759,
      "nome": "Tate no Yuusha no Nariagari Season 3 (Dublado)",
      "link": "https://animefire.plus/animes/tate-no-yuusha-no-nariagari-season-3-dublado-todos-os-episodios",
      "texto_original": "Tate no Yuusha no Nariagari Season 3 (Dublado)",
      "rating": 7.1,
      "classificacao_etaria": "A14",
      "imagem_original": "https://animefire.plus/img/animes/tate-no-yuusha-no-nariagari-season-3.webp",
      "imagem_pasta": "https://animefire.plus/img/animes/tate-no-yuusha-no-nariagari-season-3/",
      "secao": "dublados,legendados",
      "pagina": 5,
      "total_episodios": 12,
      "link_video": "https://animefire.plus/video/tate-no-yuusha-no-nariagari-season-3-dublado"
    },
    {
      "id": 3760,
      "nome": "Tate no Yuusha no Nariagari Season 4 (Dublado)",
      "link": "https://animefire.plus/animes/tate-no-yuusha-no-nariagari-season-4-dublado-todos-os-episodios",
      "texto_original": "Tate no Yuusha no Nariagari Season 4 (Dublado)",
      "rating": 7.34,
      "classificacao_etaria": "A14",
      "imagem_original": "https://animefire.plus/img/animes/tate-no-yuusha-no-nariagari-season-4.webp",
      "imagem_pasta": "https://animefire.plus/img/animes/tate-no-yuusha-no-nariagari-season-4/",
      "secao": "dublados,legendados,lancamentos",
      "pagina": 1,
      "total_episodios": 4,
      "link_video": "https://animefire.plus/video/tate-no-yuusha-no-nariagari-season-4-dublado"
    },
    {
      "id": 3761,
      "nome": "Tatoeba Last Dungeon Mae no Mura no Shounen ga Joban no Machi de Kurasu Youna Monogatari (Dublado)",
      "link": "https://animefire.plus/animes/tatoeba-last-dungeon-mae-no-mura-no-shounen-ga-joban-no-machi-de-kurasu-youna-monogatari-dublado-todos-os-episodios",
      "texto_original": "Tatoeba Last Dungeon Mae no Mura no Shounen ga Joban no Machi de Kurasu Youna Monogatari (Dublado)",
      "rating": 6.33,
      "classificacao_etaria": "A14",
      "imagem_original": "https://animefire.plus/img/animes/tatoeba-last-dungeon-mae-no-mura-no-shounen-ga-joban-no-machi-de-kurasu-youna-monogatari.webp",
      "imagem_pasta": "https://animefire.plus/img/animes/tatoeba-last-dungeon-mae-no-mura-no-shounen-ga-joban-no-machi-de-kurasu-youna-monogatari/",
      "secao": "dublados,legendados",
      "pagina": 15,
      "total_episodios": 12,
      "link_video": "https://animefire.plus/video/tatoeba-last-dungeon-mae-no-mura-no-shounen-ga-joban-no-machi-de-kurasu-youna-monogatari-dublado"
    },
    {
      "id": 3762,
      "nome": "Tattoon Master",
      "link": "https://animefire.plus/animes/tattoon-master-todos-os-episodios",
      "texto_original": "Tattoon Master",
      "rating": 6.16,
      "classificacao_etaria": "A14",
      "imagem_original": "https://animefire.plus/img/animes/tattoon-master.webp",
      "imagem_pasta": "https://animefire.plus/img/animes/tattoon-master/",
      "secao": "legendados",
      "pagina": 69,
      "total_episodios": 2,
      "link_video": "https://animefire.plus/video/tattoon-master"
    },
    {
      "id": 3764,
      "nome": "Tearmoon Teikoku Monogatari: Dantoudai kara Hajimaru, Hime no Tensei Gyakuten Story",
      "link": "https://animefire.plus/animes/tearmoon-teikoku-monogatari-dantoudai-kara-hajimaru-hime-no-tensei-gyakuten-story-todos-os-episodios",
      "texto_original": "Tearmoon Teikoku Monogatari: Dantoudai kara Hajimaru, Hime no Tensei Gyakuten Story",
      "rating": 7.2,
      "classificacao_etaria": "A14",
      "imagem_original": "https://animefire.plus/img/animes/tearmoon-teikoku-monogatari-dantoudai-kara-hajimaru-hime-no-tensei-gyakuten-story.webp",
      "imagem_pasta": "https://animefire.plus/img/animes/tearmoon-teikoku-monogatari-dantoudai-kara-hajimaru-hime-no-tensei-gyakuten-story/",
      "secao": "legendados",
      "pagina": 19,
      "total_episodios": 12,
      "link_video": "https://animefire.plus/video/tearmoon-teikoku-monogatari-dantoudai-kara-hajimaru-hime-no-tensei-gyakuten-story"
    },
    {
      "id": 3766,
      "nome": "Technoroid: Overmind",
      "link": "https://animefire.plus/animes/technoroid-overmind-todos-os-episodios",
      "texto_original": "Technoroid: Overmind",
      "rating": 6.52,
      "classificacao_etaria": "A14",
      "imagem_original": "https://animefire.plus/img/animes/technoroid-overmind.webp",
      "imagem_pasta": "https://animefire.plus/img/animes/technoroid-overmind/",
      "secao": "legendados",
      "pagina": 26,
      "total_episodios": 12,
      "link_video": "https://animefire.plus/video/technoroid-overmind"
    }
  ],
  "pagination": {
    "current_page": 95,
    "per_page": 20,
    "total_items": 2189,
    "total_pages": 110,
    "has_next": true,
    "has_prev": true
  }
}
