{
  "message": "Animes com 2 a 12 episódios",
  "episode_range": {
    "min": 2,
    "max": 12
  },
  "data": [
    {
      "id": 1510,
      "nome": "Hitsugi no Chaika",
      "link": "https://animefire.plus/animes/hitsugi-no-chaika-todos-os-episodios",
      "texto_original": "Hitsugi no Chaika",
      "rating": 7.37,
      "classificacao_etaria": "A16",
      "imagem_original": "https://animefire.plus/img/animes/hitsugi-no-chaika.webp",
      "imagem_pasta": "https://animefire.plus/img/animes/hitsugi-no-chaika/",
      "secao": "legendados",
      "pagina": 163,
      "total_episodios": 12,
      "link_video": "https://animefire.plus/video/hitsugi-no-chaika"
    },
    {
      "id": 1511,
      "nome": "Hitsugi no Chaika: Avenging Battle",
      "link": "https://animefire.plus/animes/hitsugi-no-chaika-avenging-battle-todos-os-episodios",
      "texto_original": "Hitsugi no Chaika: Avenging Battle",
      "rating": 7.28,
      "classificacao_etaria": "A16",
      "imagem_original": "https://animefire.plus/img/animes/hitsugi-no-chaika-avenging-battle.webp",
      "imagem_pasta": "https://animefire.plus/img/animes/hitsugi-no-chaika-avenging-battle/",
      "secao": "legendados",
      "pagina": 160,
      "total_episodios": 2,
      "link_video": "https://animefire.plus/video/hitsugi-no-chaika-avenging-battle"
    },
    {
      "id": 1516,
      "nome": "Honey Lemon Soda",
      "link": "https://animefire.plus/animes/honey-lemon-soda-todos-os-episodios",
      "texto_original": "Honey Lemon Soda",
      "rating": 7.17,
      "classificacao_etaria": "A14",
      "imagem_original": "https://animefire.plus/img/animes/honey-lemon-soda.webp",
      "imagem_pasta": "https://animefire.plus/img/animes/honey-lemon-soda/",
      "secao": "legendados",
      "pagina": 7,
      "total_episodios": 12,
      "link_video": "https://animefire.plus/video/honey-lemon-soda"
    },
    {
      "id": 1517,
      "nome": "Honobono Log",
      "link": "https://animefire.plus/animes/honobono-log-todos-os-episodios",
      "texto_original": "Honobono Log",
      "rating": 7.47,
      "classificacao_etaria": null,
      "imagem_original": "https://animefire.plus/img/animes/honobono-log.webp",
      "imagem_pasta": "https://animefire.plus/img/animes/honobono-log/",
      "secao": "legendados",
      "pagina": 107,
      "total_episodios": 10,
      "link_video": "https://animefire.plus/video/honobono-log"
    },
    {
      "id": 1521,
      "nome": "Honzuki no Gekokujou: Shisho ni Naru Tame ni wa Shudan wo Erandeiraremasen 3rd Season",
      "link": "https://animefire.plus/animes/honzuki-no-gekokujou-shisho-ni-naru-tame-ni-wa-shudan-wo-erandeiraremasen-3rd-season-todos-os-episodios",
      "texto_original": "Honzuki no Gekokujou: Shisho ni Naru Tame ni wa Shudan wo Erandeiraremasen 3rd Season",
      "rating": 8.07,
      "classificacao_etaria": "A14",
      "imagem_original": "https://animefire.plus/img/animes/honzuki-no-gekokujou-shisho-ni-naru-tame-ni-wa-shudan-wo-erandeiraremasen-3rd-season.webp",
      "imagem_pasta": "https://animefire.plus/img/animes/honzuki-no-gekokujou-shisho-ni-naru-tame-ni-wa-shudan-wo-erandeiraremasen-3rd-season/",
      "secao": "legendados",
      "pagina": 34,
      "total_episodios": 10,
      "link_video": "https://animefire.plus/video/honzuki-no-gekokujou-shisho-ni-naru-tame-ni-wa-shudan-wo-erandeiraremasen-3rd-season"
    },
    {
      "id": 1525,
      "nome": "Hori-san to Miyamura-kun",
      "link": "https://animefire.plus/animes/hori-san-to-miyamura-kun-todos-os-episodios",
      "texto_original": "Hori-san to Miyamura-kun",
      "rating": 7.36,
      "classificacao_etaria": "A14",
      "imagem_original": "https://animefire.plus/img/animes/hori-san-to-miyamura-kun.webp",
      "imagem_pasta": "https://animefire.plus/img/animes/hori-san-to-miyamura-kun/",
      "secao": "legendados",
      "pagina": 61,
      "total_episodios": 3,
      "link_video": "https://animefire.plus/video/hori-san-to-miyamura-kun"
    },
    {
      "id": 1528,
      "nome": "Hortensia Saga (TV)",
      "link": "https://animefire.plus/animes/hortensia-saga-tv-todos-os-episodios",
      "texto_original": "Hortensia Saga (TV)",
      "rating": 5.84,
      "classificacao_etaria": "A14",
      "imagem_original": "https://animefire.plus/img/animes/hortensia-saga-tv.webp",
      "imagem_pasta": "https://animefire.plus/img/animes/hortensia-saga-tv/",
      "secao": "legendados",
      "pagina": 49,
      "total_episodios": 12,
      "link_video": "https://animefire.plus/video/hortensia-saga-tv"
    },
    {
      "id": 1531,
      "nome": "Hoshifuru Oukoku no Nina (Dublado)",
      "link": "https://animefire.plus/animes/hoshifuru-oukoku-no-nina-dublado-todos-os-episodios",
      "texto_original": "Hoshifuru Oukoku no Nina (Dublado)",
      "rating": 7.38,
      "classificacao_etaria": "A14",
      "imagem_original": "https://animefire.plus/img/animes/hoshifuru-oukoku-no-nina.webp",
      "imagem_pasta": "https://animefire.plus/img/animes/hoshifuru-oukoku-no-nina/",
      "secao": "dublados,legendados,lancamentos",
      "pagina": 2,
      "total_episodios": 12,
      "link_video": "https://animefire.plus/video/hoshifuru-oukoku-no-nina-dublado"
    },
    {
      "id": 1533,
      "nome": "Hoshikuzu Telepath",
      "link": "https://animefire.plus/animes/hoshikuzu-telepath-todos-os-episodios",
      "texto_original": "Hoshikuzu Telepath",
      "rating": 7.15,
      "classificacao_etaria": "A14",
      "imagem_original": "https://animefire.plus/img/animes/hoshikuzu-telepath.webp",
      "imagem_pasta": "https://animefire.plus/img/animes/hoshikuzu-telepath/",
      "secao": "legendados",
      "pagina": 19,
      "total_episodios": 12,
      "link_video": "https://animefire.plus/video/hoshikuzu-telepath"
    },
    {
      "id": 1534,
      "nome": "Hoshizora e Kakaru Hashi",
      "link": "https://animefire.plus/animes/hoshizora-e-kakaru-hashi-todos-os-episodios",
      "texto_original": "Hoshizora e Kakaru Hashi",
      "rating": 6.92,
      "classificacao_etaria": "A18",
      "imagem_original": "https://animefire.plus/img/animes/hoshizora-e-kakaru-hashi.webp",
      "imagem_pasta": "https://animefire.plus/img/animes/hoshizora-e-kakaru-hashi/",
      "secao": "legendados",
      "pagina": 138,
      "total_episodios": 12,
      "link_video": "https://animefire.plus/video/hoshizora-e-kakaru-hashi"
    },
    {
      "id": 1537,
      "nome": "Hotel Inhumans",
      "link": "https://animefire.plus/animes/hotel-inhumans-todos-os-episodios",
      "texto_original": "Hotel Inhumans",
      "rating": 6.54,
      "classificacao_etaria": "A14",
      "imagem_original": "https://animefire.plus/img/animes/hotel-inhumans.webp",
      "imagem_pasta": "https://animefire.plus/img/animes/hotel-inhumans/",
      "secao": "legendados,lancamentos",
      "pagina": 1,
      "total_episodios": 5,
      "link_video": "https://animefire.plus/video/hotel-inhumans"
    },
    {
      "id": 1538,
      "nome": "Houkago No Pleiades",
      "link": "https://animefire.plus/animes/houkago-no-pleiades-todos-os-episodios",
      "texto_original": "Houkago No Pleiades",
      "rating": 6.16,
      "classificacao_etaria": null,
      "imagem_original": "https://animefire.plus/img/animes/houkago-no-pleiades.webp",
      "imagem_pasta": "https://animefire.plus/img/animes/houkago-no-pleiades/",
      "secao": "legendados",
      "pagina": 59,
      "total_episodios": 12,
      "link_video": "https://animefire.plus/video/houkago-no-pleiades"
    },
    {
      "id": 1540,
      "nome": "Houkago Shounen Hanako-kun",
      "link": "https://animefire.plus/animes/houkago-shounen-hanako-kun-todos-os-episodios",
      "texto_original": "Houkago Shounen Hanako-kun",
      "rating": 7.1,
      "classificacao_etaria": "A14",
      "imagem_original": "https://animefire.plus/img/animes/houkago-shounen-hanako-kun.webp",
      "imagem_pasta": "https://animefire.plus/img/animes/houkago-shounen-hanako-kun/",
      "secao": "legendados",
      "pagina": 19,
      "total_episodios": 4,
      "link_video": "https://animefire.plus/video/houkago-shounen-hanako-kun"
    },
    {
      "id": 1541,
      "nome": "Houkago Shounen Hanako-kun Part 2",
      "link": "https://animefire.plus/animes/houkago-shounen-hanako-kun-part-2-todos-os-episodios",
      "texto_original": "Houkago Shounen Hanako-kun Part 2",
      "rating": 7.09,
      "classificacao_etaria": "A14",
      "imagem_original": "https://animefire.plus/img/animes/houkago-shounen-hanako-kun-part-2.webp",
      "imagem_pasta": "https://animefire.plus/img/animes/houkago-shounen-hanako-kun-part-2/",
      "secao": "legendados",
      "pagina": 10,
      "total_episodios": 4,
      "link_video": "https://animefire.plus/video/houkago-shounen-hanako-kun-part-2"
    },
    {
      "id": 1543,
      "nome": "Hourou Musuko",
      "link": "https://animefire.plus/animes/hourou-musuko-todos-os-episodios",
      "texto_original": "Hourou Musuko",
      "rating": 7.79,
      "classificacao_etaria": "A14",
      "imagem_original": "https://animefire.plus/img/animes/hourou-musuko.webp",
      "imagem_pasta": "https://animefire.plus/img/animes/hourou-musuko/",
      "secao": "legendados",
      "pagina": 102,
      "total_episodios": 11,
      "link_video": "https://animefire.plus/video/hourou-musuko"
    },
    {
      "id": 1544,
      "nome": "Houseki no Kuni",
      "link": "https://animefire.plus/animes/houseki-no-kuni-todos-os-episodios",
      "texto_original": "Houseki no Kuni",
      "rating": 6.54,
      "classificacao_etaria": "A14",
      "imagem_original": "https://animefire.plus/img/animes/houseki-no-kuni.webp",
      "imagem_pasta": "https://animefire.plus/img/animes/houseki-no-kuni/",
      "secao": "legendados",
      "pagina": 62,
      "total_episodios": 12,
      "link_video": "https://animefire.plus/video/houseki-no-kuni"
    },
    {
      "id": 1547,
      "nome": "Human Bug Daigaku",
      "link": "https://animefire.plus/animes/human-bug-daigaku-todos-os-episodios",
      "texto_original": "Human Bug Daigaku",
      "rating": 6.68,
      "classificacao_etaria": "A14",
      "imagem_original": "https://animefire.plus/img/animes/human-bug-daigaku.webp",
      "imagem_pasta": "https://animefire.plus/img/animes/human-bug-daigaku/",
      "secao": "legendados",
      "pagina": 28,
      "total_episodios": 12,
      "link_video": "https://animefire.plus/video/human-bug-daigaku"
    },
    {
      "id": 1548,
      "nome": "Hundred",
      "link": "https://animefire.plus/animes/hundred-todos-os-episodios",
      "texto_original": "Hundred",
      "rating": 6.56,
      "classificacao_etaria": "A14",
      "imagem_original": "https://animefire.plus/img/animes/hundred.webp",
      "imagem_pasta": "https://animefire.plus/img/animes/hundred/",
      "secao": "legendados",
      "pagina": 174,
      "total_episodios": 12,
      "link_video": "https://animefire.plus/video/hundred"
    },
    {
      "id": 1552,
      "nome": "Hunter x Hunter: Greed Island",
      "link": "https://animefire.plus/animes/hunter-x-hunter-greed-island-todos-os-episodios",
      "texto_original": "Hunter x Hunter: Greed Island",
      "rating": 8.2,
      "classificacao_etaria": "A14",
      "imagem_original": "https://animefire.plus/img/animes/hunter-x-hunter-greed-island.webp",
      "imagem_pasta": "https://animefire.plus/img/animes/hunter-x-hunter-greed-island/",
      "secao": "legendados",
      "pagina": 43,
      "total_episodios": 8,
      "link_video": "https://animefire.plus/video/hunter-x-hunter-greed-island"
    },
    {
      "id": 1559,
      "nome": "Huyao Xiao Hongniang: Zhu Ye",
      "link": "https://animefire.plus/animes/huyao-xiao-hongniang-zhu-ye-todos-os-episodios",
      "texto_original": "Huyao Xiao Hongniang: Zhu Ye",
      "rating": 7.48,
      "classificacao_etaria": "A14",
      "imagem_original": "https://animefire.plus/img/animes/huyao-xiao-hongniang-zhu-ye.webp",
      "imagem_pasta": "https://animefire.plus/img/animes/huyao-xiao-hongniang-zhu-ye/",
      "secao": "legendados",
      "pagina": 112,
      "total_episodios": 12,
      "link_video": "https://animefire.plus/video/huyao-xiao-hongniang-zhu-ye"
    }
  ],
  "pagination": {
    "current_page": 38,
    "per_page": 20,
    "total_items": 2189,
    "total_pages": 110,
    "has_next": true,
    "has_prev": true
  }
}
