{
  "message": "Animes com 2 a 12 episódios",
  "episode_range": {
    "min": 2,
    "max": 12
  },
  "data": [
    {
      "id": 4108,
      "nome": "Wangu Xian Qiong 2nd Season",
      "link": "https://animefire.plus/animes/wangu-xian-qiong-2nd-season-todos-os-episodios",
      "texto_original": "Wangu Xian Qiong 2nd Season",
      "rating": 6.93,
      "classificacao_etaria": "A14",
      "imagem_original": "https://animefire.plus/img/animes/wangu-xian-qiong-2nd-season.webp",
      "imagem_pasta": "https://animefire.plus/img/animes/wangu-xian-qiong-2nd-season/",
      "secao": "legendados",
      "pagina": 88,
      "total_episodios": 12,
      "link_video": "https://animefire.plus/video/wangu-xian-qiong-2nd-season"
    },
    {
      "id": 4110,
      "nome": "Warau Arsnotoria Sun!",
      "link": "https://animefire.plus/animes/warau-arsnotoria-sun-todos-os-episodios",
      "texto_original": "Warau Arsnotoria Sun!",
      "rating": 5.8,
      "classificacao_etaria": "A14",
      "imagem_original": "https://animefire.plus/img/animes/warau-arsnotoria-sun.webp",
      "imagem_pasta": "https://animefire.plus/img/animes/warau-arsnotoria-sun/",
      "secao": "legendados",
      "pagina": 31,
      "total_episodios": 12,
      "link_video": "https://animefire.plus/video/warau-arsnotoria-sun"
    },
    {
      "id": 4111,
      "nome": "Warau Salesman New",
      "link": "https://animefire.plus/animes/warau-salesman-new-todos-os-episodios",
      "texto_original": "Warau Salesman New",
      "rating": 6.28,
      "classificacao_etaria": "A14",
      "imagem_original": "https://animefire.plus/img/animes/warau-salesman-new.webp",
      "imagem_pasta": "https://animefire.plus/img/animes/warau-salesman-new/",
      "secao": "legendados",
      "pagina": 99,
      "total_episodios": 12,
      "link_video": "https://animefire.plus/video/warau-salesman-new"
    },
    {
      "id": 4112,
      "nome": "Watari-kun no xx ga Houkai Sunzen",
      "link": "https://animefire.plus/animes/watari-kun-no-xx-ga-houkai-sunzen-todos-os-episodios",
      "texto_original": "Watari-kun no xx ga Houkai Sunzen",
      "rating": 6.38,
      "classificacao_etaria": "A14",
      "imagem_original": "https://animefire.plus/img/animes/watari-kun-no-xx-ga-houkai-sunzen.webp",
      "imagem_pasta": "https://animefire.plus/img/animes/watari-kun-no-xx-ga-houkai-sunzen/",
      "secao": "legendados,lancamentos",
      "pagina": 2,
      "total_episodios": 5,
      "link_video": "https://animefire.plus/video/watari-kun-no-xx-ga-houkai-sunzen"
    },
    {
      "id": 4114,
      "nome": "Watashi ga Motenai no wa Dou Kangaetemo Omaera ga Warui!",
      "link": "https://animefire.plus/animes/watashi-ga-motenai-no-wa-dou-kangaetemo-omaera-ga-warui-todos-os-episodios",
      "texto_original": "Watashi ga Motenai no wa Dou Kangaetemo Omaera ga Warui!",
      "rating": 7.2,
      "classificacao_etaria": "A14",
      "imagem_original": "https://animefire.plus/img/animes/watashi-ga-motenai-no-wa-dou-kangaetemo-omaera-ga-warui.webp",
      "imagem_pasta": "https://animefire.plus/img/animes/watashi-ga-motenai-no-wa-dou-kangaetemo-omaera-ga-warui/",
      "secao": "legendados",
      "pagina": 117,
      "total_episodios": 3,
      "link_video": "https://animefire.plus/video/watashi-ga-motenai-no-wa-dou-kangaetemo-omaera-ga-warui"
    },
    {
      "id": 4116,
      "nome": "Watashi ga Motete Dousunda",
      "link": "https://animefire.plus/animes/watashi-ga-motete-dousunda-todos-os-episodios",
      "texto_original": "Watashi ga Motete Dousunda",
      "rating": 7.34,
      "classificacao_etaria": "A14",
      "imagem_original": "https://animefire.plus/img/animes/watashi-ga-motete-dousunda.webp",
      "imagem_pasta": "https://animefire.plus/img/animes/watashi-ga-motete-dousunda/",
      "secao": "legendados",
      "pagina": 155,
      "total_episodios": 7,
      "link_video": "https://animefire.plus/video/watashi-ga-motete-dousunda"
    },
    {
      "id": 4117,
      "nome": "Watashi ni Tenshi ga Maiorita!",
      "link": "https://animefire.plus/animes/watashi-ni-tenshi-ga-maiorita-todos-os-episodios",
      "texto_original": "Watashi ni Tenshi ga Maiorita!",
      "rating": 7.36,
      "classificacao_etaria": "A14",
      "imagem_original": "https://animefire.plus/img/animes/watashi-ni-tenshi-ga-maiorita.webp",
      "imagem_pasta": "https://animefire.plus/img/animes/watashi-ni-tenshi-ga-maiorita/",
      "secao": "legendados",
      "pagina": 108,
      "total_episodios": 12,
      "link_video": "https://animefire.plus/video/watashi-ni-tenshi-ga-maiorita"
    },
    {
      "id": 4120,
      "nome": "Watashi no Oshi wa Akuyaku Reijou. (Dublado)",
      "link": "https://animefire.plus/animes/watashi-no-oshi-wa-akuyaku-reijou-dublado-todos-os-episodios",
      "texto_original": "Watashi no Oshi wa Akuyaku Reijou. (Dublado)",
      "rating": 7.35,
      "classificacao_etaria": "A14",
      "imagem_original": "https://animefire.plus/img/animes/watashi-no-oshi-wa-akuyaku-reijou.webp",
      "imagem_pasta": "https://animefire.plus/img/animes/watashi-no-oshi-wa-akuyaku-reijou/",
      "secao": "dublados,legendados",
      "pagina": 5,
      "total_episodios": 12,
      "link_video": "https://animefire.plus/video/watashi-no-oshi-wa-akuyaku-reijou-dublado"
    },
    {
      "id": 4121,
      "nome": "Watashi no Shiawase na Kekkon (Dublado)",
      "link": "https://animefire.plus/animes/watashi-no-shiawase-na-kekkon-dublado-todos-os-episodios",
      "texto_original": "Watashi no Shiawase na Kekkon (Dublado)",
      "rating": 7.71,
      "classificacao_etaria": "A14",
      "imagem_original": "https://animefire.plus/img/animes/watashi-no-shiawase-na-kekkon.webp",
      "imagem_pasta": "https://animefire.plus/img/animes/watashi-no-shiawase-na-kekkon/",
      "secao": "dublados,legendados,lancamentos",
      "pagina": 7,
      "total_episodios": 10,
      "link_video": "https://animefire.plus/video/watashi-no-shiawase-na-kekkon-dublado"
    },
    {
      "id": 4124,
      "nome": "Watashi no Yuri wa Oshigoto desu! (Dublado)",
      "link": "https://animefire.plus/animes/watashi-no-yuri-wa-oshigoto-desu-dublado-todos-os-episodios",
      "texto_original": "Watashi no Yuri wa Oshigoto desu! (Dublado)",
      "rating": 6.68,
      "classificacao_etaria": "A14",
      "imagem_original": "https://animefire.plus/img/animes/watashi-no-yuri-wa-oshigoto-desu.webp",
      "imagem_pasta": "https://animefire.plus/img/animes/watashi-no-yuri-wa-oshigoto-desu/",
      "secao": "dublados,legendados",
      "pagina": 7,
      "total_episodios": 12,
      "link_video": "https://animefire.plus/video/watashi-no-yuri-wa-oshigoto-desu-dublado"
    },
    {
      "id": 4125,
      "nome": "Watashi, Nouryoku wa Heikinchi de tte Itta yo ne!",
      "link": "https://animefire.plus/animes/watashi-nouryoku-wa-heikinchi-de-tte-itta-yo-ne-todos-os-episodios",
      "texto_original": "Watashi, Nouryoku wa Heikinchi de tte Itta yo ne!",
      "rating": 6.86,
      "classificacao_etaria": "A14",
      "imagem_original": "https://animefire.plus/img/animes/watashi-nouryoku-wa-heikinchi-de-tte-itta-yo-ne.webp",
      "imagem_pasta": "https://animefire.plus/img/animes/watashi-nouryoku-wa-heikinchi-de-tte-itta-yo-ne/",
      "secao": "legendados",
      "pagina": 110,
      "total_episodios": 12,
      "link_video": "https://animefire.plus/video/watashi-nouryoku-wa-heikinchi-de-tte-itta-yo-ne"
    },
    {
      "id": 4129,
      "nome": "White Album 2",
      "link": "https://animefire.plus/animes/white-album-2-todos-os-episodios",
      "texto_original": "White Album 2",
      "rating": 7.83,
      "classificacao_etaria": "A14",
      "imagem_original": "https://animefire.plus/img/animes/white-album-2.webp",
      "imagem_pasta": "https://animefire.plus/img/animes/white-album-2/",
      "secao": "legendados",
      "pagina": 171,
      "total_episodios": 5,
      "link_video": "https://animefire.plus/video/white-album-2"
    },
    {
      "id": 4133,
      "nome": "Wind Breaker Season 2 (Dublado)",
      "link": "https://animefire.plus/animes/wind-breaker-season-2-dublado-todos-os-episodios",
      "texto_original": "Wind Breaker Season 2 (Dublado)",
      "rating": 7.65,
      "classificacao_etaria": "A14",
      "imagem_original": "https://animefire.plus/img/animes/wind-breaker-season-2.webp",
      "imagem_pasta": "https://animefire.plus/img/animes/wind-breaker-season-2/",
      "secao": "dublados,legendados,lancamentos",
      "pagina": 1,
      "total_episodios": 12,
      "link_video": "https://animefire.plus/video/wind-breaker-season-2-dublado"
    },
    {
      "id": 4135,
      "nome": "Witch Craft Works",
      "link": "https://animefire.plus/animes/witch-craft-works-todos-os-episodios",
      "texto_original": "Witch Craft Works",
      "rating": 7.18,
      "classificacao_etaria": "A14",
      "imagem_original": "https://animefire.plus/img/animes/witch-craft-works.webp",
      "imagem_pasta": "https://animefire.plus/img/animes/witch-craft-works/",
      "secao": "legendados",
      "pagina": 107,
      "total_episodios": 12,
      "link_video": "https://animefire.plus/video/witch-craft-works"
    },
    {
      "id": 4138,
      "nome": "Witchblade",
      "link": "https://animefire.plus/animes/witchblade-todos-os-episodios",
      "texto_original": "Witchblade",
      "rating": 7.34,
      "classificacao_etaria": "A16",
      "imagem_original": "https://animefire.plus/img/animes/witchblade.webp",
      "imagem_pasta": "https://animefire.plus/img/animes/witchblade/",
      "secao": "legendados",
      "pagina": 134,
      "total_episodios": 2,
      "link_video": "https://animefire.plus/video/witchblade"
    },
    {
      "id": 4139,
      "nome": "WIXOSS Diva(A)Live",
      "link": "https://animefire.plus/animes/wixoss-diva-a-live-todos-os-episodios",
      "texto_original": "WIXOSS Diva(A)Live",
      "rating": 5.6,
      "classificacao_etaria": "A14",
      "imagem_original": "https://animefire.plus/img/animes/wixoss-diva-a-live.webp",
      "imagem_pasta": "https://animefire.plus/img/animes/wixoss-diva-a-live/",
      "secao": "legendados",
      "pagina": 48,
      "total_episodios": 12,
      "link_video": "https://animefire.plus/video/wixoss-diva-a-live"
    },
    {
      "id": 4140,
      "nome": "Wizard Barristers: Benmashi Cecil",
      "link": "https://animefire.plus/animes/wizard-barristers-benmashi-cecil-todos-os-episodios",
      "texto_original": "Wizard Barristers: Benmashi Cecil",
      "rating": 6.22,
      "classificacao_etaria": "A14",
      "imagem_original": "https://animefire.plus/img/animes/wizard-barristers-benmashi-cecil.webp",
      "imagem_pasta": "https://animefire.plus/img/animes/wizard-barristers-benmashi-cecil/",
      "secao": "legendados",
      "pagina": 164,
      "total_episodios": 12,
      "link_video": "https://animefire.plus/video/wizard-barristers-benmashi-cecil"
    },
    {
      "id": 4144,
      "nome": "Wo Kai Dongwuyuan Naxie Nian",
      "link": "https://animefire.plus/animes/wo-kai-dongwuyuan-naxie-nian-todos-os-episodios",
      "texto_original": "Wo Kai Dongwuyuan Naxie Nian",
      "rating": 6.37,
      "classificacao_etaria": "A14",
      "imagem_original": "https://animefire.plus/img/animes/wo-kai-dongwuyuan-naxie-nian.webp",
      "imagem_pasta": "https://animefire.plus/img/animes/wo-kai-dongwuyuan-naxie-nian/",
      "secao": "legendados,lancamentos",
      "pagina": 75,
      "total_episodios": 4,
      "link_video": "https://animefire.plus/video/wo-kai-dongwuyuan-naxie-nian"
    },
    {
      "id": 4145,
      "nome": "Wo Shi Jiang Xiaobai",
      "link": "https://animefire.plus/animes/wo-shi-jiang-xiaobai-todos-os-episodios",
      "texto_original": "Wo Shi Jiang Xiaobai",
      "rating": 7.34,
      "classificacao_etaria": "A14",
      "imagem_original": "https://animefire.plus/img/animes/wo-shi-jiang-xiaobai.webp",
      "imagem_pasta": "https://animefire.plus/img/animes/wo-shi-jiang-xiaobai/",
      "secao": "legendados",
      "pagina": 168,
      "total_episodios": 12,
      "link_video": "https://animefire.plus/video/wo-shi-jiang-xiaobai"
    },
    {
      "id": 4146,
      "nome": "Wo Shi Jiang Xiaobai 2nd Season",
      "link": "https://animefire.plus/animes/wo-shi-jiang-xiaobai-2nd-season-todos-os-episodios",
      "texto_original": "Wo Shi Jiang Xiaobai 2nd Season",
      "rating": null,
      "classificacao_etaria": "A14",
      "imagem_original": "https://animefire.plus/img/animes/wo-shi-jiang-xiaobai-2nd-season.webp",
      "imagem_pasta": "https://animefire.plus/img/animes/wo-shi-jiang-xiaobai-2nd-season/",
      "secao": "legendados",
      "pagina": 84,
      "total_episodios": 12,
      "link_video": "https://animefire.plus/video/wo-shi-jiang-xiaobai-2nd-season"
    }
  ],
  "pagination": {
    "current_page": 104,
    "per_page": 20,
    "total_items": 2189,
    "total_pages": 110,
    "has_next": true,
    "has_prev": true
  }
}
