{
  "message": "Animes com 2 a 12 episódios",
  "episode_range": {
    "min": 2,
    "max": 12
  },
  "data": [
    {
      "id": 3802,
      "nome": "Tensei shitara Slime Datta Ken 2nd Season Part 2 (Dublado)",
      "link": "https://animefire.plus/animes/tensei-shitara-slime-datta-ken-2nd-season-part-2-dublado-todos-os-episodios",
      "texto_original": "Tensei shitara Slime Datta Ken 2nd Season Part 2 (Dublado)",
      "rating": 8.3,
      "classificacao_etaria": "A14",
      "imagem_original": "https://animefire.plus/img/animes/tensei-shitara-slime-datta-ken-2nd-season-part-2.webp",
      "imagem_pasta": "https://animefire.plus/img/animes/tensei-shitara-slime-datta-ken-2nd-season-part-2/",
      "secao": "dublados,legendados",
      "pagina": 12,
      "total_episodios": 12,
      "link_video": "https://animefire.plus/video/tensei-shitara-slime-datta-ken-2nd-season-part-2-dublado"
    },
    {
      "id": 3804,
      "nome": "Tensei shitara Slime Datta Ken OVA (Dublado)",
      "link": "https://animefire.plus/animes/tensei-shitara-slime-datta-ken-ova-dublado-todos-os-episodios",
      "texto_original": "Tensei shitara Slime Datta Ken OVA (Dublado)",
      "rating": 7.47,
      "classificacao_etaria": "A14",
      "imagem_original": "https://animefire.plus/img/animes/tensei-shitara-slime-datta-ken-ova.webp",
      "imagem_pasta": "https://animefire.plus/img/animes/tensei-shitara-slime-datta-ken-ova/",
      "secao": "dublados,legendados",
      "pagina": 16,
      "total_episodios": 5,
      "link_video": "https://animefire.plus/video/tensei-shitara-slime-datta-ken-ova-dublado"
    },
    {
      "id": 3805,
      "nome": "Tensei shitara Slime Datta Ken: Coleus no Yume (Dublado)",
      "link": "https://animefire.plus/animes/tensei-shitara-slime-datta-ken-coleus-no-yume-dublado-todos-os-episodios",
      "texto_original": "Tensei shitara Slime Datta Ken: Coleus no Yume (Dublado)",
      "rating": 7.58,
      "classificacao_etaria": "A14",
      "imagem_original": "https://animefire.plus/img/animes/tensei-shitara-slime-datta-ken-coleus-no-yume.webp",
      "imagem_pasta": "https://animefire.plus/img/animes/tensei-shitara-slime-datta-ken-coleus-no-yume/",
      "secao": "dublados,legendados,lancamentos",
      "pagina": 4,
      "total_episodios": 3,
      "link_video": "https://animefire.plus/video/tensei-shitara-slime-datta-ken-coleus-no-yume-dublado"
    },
    {
      "id": 3809,
      "nome": "Tenshi no 3P!",
      "link": "https://animefire.plus/animes/tenshi-no-3p-todos-os-episodios",
      "texto_original": "Tenshi no 3P!",
      "rating": 6.71,
      "classificacao_etaria": "A14",
      "imagem_original": "https://animefire.plus/img/animes/tenshi-no-3p.webp",
      "imagem_pasta": "https://animefire.plus/img/animes/tenshi-no-3p/",
      "secao": "legendados",
      "pagina": 76,
      "total_episodios": 12,
      "link_video": "https://animefire.plus/video/tenshi-no-3p"
    },
    {
      "id": 3811,
      "nome": "Tensura Nikki: Tensei shitara Slime Datta Ken (Dublado)",
      "link": "https://animefire.plus/animes/tensura-nikki-tensei-shitara-slime-datta-ken-dublado-todos-os-episodios",
      "texto_original": "Tensura Nikki: Tensei shitara Slime Datta Ken (Dublado)",
      "rating": 7.59,
      "classificacao_etaria": "A14",
      "imagem_original": "https://animefire.plus/img/animes/tensura-nikki-tensei-shitara-slime-datta-ken.webp",
      "imagem_pasta": "https://animefire.plus/img/animes/tensura-nikki-tensei-shitara-slime-datta-ken/",
      "secao": "dublados,legendados",
      "pagina": 15,
      "total_episodios": 12,
      "link_video": "https://animefire.plus/video/tensura-nikki-tensei-shitara-slime-datta-ken-dublado"
    },
    {
      "id": 3813,
      "nome": "Teogonia",
      "link": "https://animefire.plus/animes/teogonia-todos-os-episodios",
      "texto_original": "Teogonia",
      "rating": 6.93,
      "classificacao_etaria": "A14",
      "imagem_original": "https://animefire.plus/img/animes/teogonia.webp",
      "imagem_pasta": "https://animefire.plus/img/animes/teogonia/",
      "secao": "legendados",
      "pagina": 5,
      "total_episodios": 12,
      "link_video": "https://animefire.plus/video/teogonia"
    },
    {
      "id": 3815,
      "nome": "Teppen!!!!!!!!!!!!!!!",
      "link": "https://animefire.plus/animes/teppen-laughing-039-til-you-cry-todos-os-episodios",
      "texto_original": "Teppen!!!!!!!!!!!!!!!",
      "rating": 6.61,
      "classificacao_etaria": "A14",
      "imagem_original": "https://animefire.plus/img/animes/teppen-laughing-039-til-you-cry.webp",
      "imagem_pasta": "https://animefire.plus/img/animes/teppen-laughing-039-til-you-cry/",
      "secao": "legendados,lancamentos",
      "pagina": 32,
      "total_episodios": 2,
      "link_video": "https://animefire.plus/video/teppen-laughing-039-til-you-cry"
    },
    {
      "id": 3816,
      "nome": "Terminator 0",
      "link": "https://animefire.plus/animes/terminator-0-todos-os-episodios",
      "texto_original": "Terminator 0",
      "rating": 7.1,
      "classificacao_etaria": "A16",
      "imagem_original": "https://animefire.plus/img/animes/terminator-0.webp",
      "imagem_pasta": "https://animefire.plus/img/animes/terminator-0/",
      "secao": "legendados",
      "pagina": 10,
      "total_episodios": 8,
      "link_video": "https://animefire.plus/video/terminator-0"
    },
    {
      "id": 3819,
      "nome": "Tesagure! Bukatsumono Spin-off Purupurun Sharumu To Asobou",
      "link": "https://animefire.plus/animes/tesagure-bukatsumono-spin-off-purupurun-sharumu-to-asobou-todos-os-episodios",
      "texto_original": "Tesagure! Bukatsumono Spin-off Purupurun Sharumu To Asobou",
      "rating": 7.04,
      "classificacao_etaria": "A14",
      "imagem_original": "https://animefire.plus/img/animes/tesagure-bukatsumono-spin-off-purupurun-sharumu-to-asobou.webp",
      "imagem_pasta": "https://animefire.plus/img/animes/tesagure-bukatsumono-spin-off-purupurun-sharumu-to-asobou/",
      "secao": "legendados",
      "pagina": 101,
      "total_episodios": 12,
      "link_video": "https://animefire.plus/video/tesagure-bukatsumono-spin-off-purupurun-sharumu-to-asobou"
    },
    {
      "id": 3822,
      "nome": "Tetsuwan Birdy Decode:02",
      "link": "https://animefire.plus/animes/tetsuwan-birdy-decode-02-todos-os-episodios",
      "texto_original": "Tetsuwan Birdy Decode:02",
      "rating": 7.79,
      "classificacao_etaria": "A16",
      "imagem_original": "https://animefire.plus/img/animes/tetsuwan-birdy-decode-02.webp",
      "imagem_pasta": "https://animefire.plus/img/animes/tetsuwan-birdy-decode-02/",
      "secao": "legendados",
      "pagina": 166,
      "total_episodios": 2,
      "link_video": "https://animefire.plus/video/tetsuwan-birdy-decode-02"
    },
    {
      "id": 3824,
      "nome": "The Animatrix (Dublado)",
      "link": "https://animefire.plus/animes/the-animatrix-dublado-todos-os-episodios",
      "texto_original": "The Animatrix (Dublado)",
      "rating": 7.32,
      "classificacao_etaria": "A16",
      "imagem_original": "https://animefire.plus/img/animes/the-animatrix.webp",
      "imagem_pasta": "https://animefire.plus/img/animes/the-animatrix/",
      "secao": "dublados,legendados",
      "pagina": 27,
      "total_episodios": 9,
      "link_video": "https://animefire.plus/video/the-animatrix-dublado"
    },
    {
      "id": 3831,
      "nome": "The iDOLM@STER Million Live!",
      "link": "https://animefire.plus/animes/the-idolmaster-million-live-todos-os-episodios",
      "texto_original": "The iDOLM@STER Million Live!",
      "rating": 6.92,
      "classificacao_etaria": "A14",
      "imagem_original": "https://animefire.plus/img/animes/the-idolmaster-million-live.webp",
      "imagem_pasta": "https://animefire.plus/img/animes/the-idolmaster-million-live/",
      "secao": "legendados",
      "pagina": 19,
      "total_episodios": 12,
      "link_video": "https://animefire.plus/video/the-idolmaster-million-live"
    },
    {
      "id": 3832,
      "nome": "The iDOLM@STER Shiny Colors",
      "link": "https://animefire.plus/animes/the-idolmaster-shiny-colors-todos-os-episodios",
      "texto_original": "The iDOLM@STER Shiny Colors",
      "rating": 6.08,
      "classificacao_etaria": "A14",
      "imagem_original": "https://animefire.plus/img/animes/the-idolmaster-shiny-colors.webp",
      "imagem_pasta": "https://animefire.plus/img/animes/the-idolmaster-shiny-colors/",
      "secao": "legendados",
      "pagina": 14,
      "total_episodios": 12,
      "link_video": "https://animefire.plus/video/the-idolmaster-shiny-colors"
    },
    {
      "id": 3833,
      "nome": "The iDOLM@STER Shiny Colors 2nd Season",
      "link": "https://animefire.plus/animes/the-idolmaster-shiny-colors-2nd-season-todos-os-episodios",
      "texto_original": "The iDOLM@STER Shiny Colors 2nd Season",
      "rating": 6.33,
      "classificacao_etaria": "A14",
      "imagem_original": "https://animefire.plus/img/animes/the-idolmaster-shiny-colors-2nd-season.webp",
      "imagem_pasta": "https://animefire.plus/img/animes/the-idolmaster-shiny-colors-2nd-season/",
      "secao": "legendados",
      "pagina": 9,
      "total_episodios": 12,
      "link_video": "https://animefire.plus/video/the-idolmaster-shiny-colors-2nd-season"
    },
    {
      "id": 3838,
      "nome": "The Legend of Heroes: Sen no Kiseki - Northern War",
      "link": "https://animefire.plus/animes/the-legend-of-heroes-sen-no-kiseki---northern-war-todos-os-episodios",
      "texto_original": "The Legend of Heroes: Sen no Kiseki - Northern War",
      "rating": 5.63,
      "classificacao_etaria": "A14",
      "imagem_original": "https://animefire.plus/img/animes/the-legend-of-heroes-sen-no-kiseki---northern-war.webp",
      "imagem_pasta": "https://animefire.plus/img/animes/the-legend-of-heroes-sen-no-kiseki---northern-war/",
      "secao": "legendados,lancamentos",
      "pagina": 27,
      "total_episodios": 8,
      "link_video": "https://animefire.plus/video/the-legend-of-heroes-sen-no-kiseki---northern-war"
    },
    {
      "id": 3839,
      "nome": "The Marginal Service",
      "link": "https://animefire.plus/animes/the-marginal-service-todos-os-episodios",
      "texto_original": "The Marginal Service",
      "rating": 5.5,
      "classificacao_etaria": "A14",
      "imagem_original": "https://animefire.plus/img/animes/the-marginal-service.jpg",
      "imagem_pasta": "https://animefire.plus/img/animes/the-marginal-service/",
      "secao": "legendados",
      "pagina": 24,
      "total_episodios": 12,
      "link_video": "https://animefire.plus/video/the-marginal-service"
    },
    {
      "id": 3840,
      "nome": "The New Gate (Dublado)",
      "link": "https://animefire.plus/animes/the-new-gate-dublado-todos-os-episodios",
      "texto_original": "The New Gate (Dublado)",
      "rating": 6.45,
      "classificacao_etaria": "A14",
      "imagem_original": "https://animefire.plus/img/animes/the-new-gate.webp",
      "imagem_pasta": "https://animefire.plus/img/animes/the-new-gate/",
      "secao": "dublados,legendados,lancamentos",
      "pagina": 2,
      "total_episodios": 12,
      "link_video": "https://animefire.plus/video/the-new-gate-dublado"
    },
    {
      "id": 3841,
      "nome": "The Reflection",
      "link": "https://animefire.plus/animes/the-reflection-todos-os-episodios",
      "texto_original": "The Reflection",
      "rating": 5.16,
      "classificacao_etaria": "A14",
      "imagem_original": "https://animefire.plus/img/animes/the-reflection.webp",
      "imagem_pasta": "https://animefire.plus/img/animes/the-reflection/",
      "secao": "legendados",
      "pagina": 64,
      "total_episodios": 12,
      "link_video": "https://animefire.plus/video/the-reflection"
    },
    {
      "id": 3851,
      "nome": "To Be Hero",
      "link": "https://animefire.plus/animes/to-be-hero-todos-os-episodios",
      "texto_original": "To Be Hero",
      "rating": 7.04,
      "classificacao_etaria": "A14",
      "imagem_original": "https://animefire.plus/img/animes/to-be-hero.webp",
      "imagem_pasta": "https://animefire.plus/img/animes/to-be-hero/",
      "secao": "legendados",
      "pagina": 99,
      "total_episodios": 12,
      "link_video": "https://animefire.plus/video/to-be-hero"
    },
    {
      "id": 3853,
      "nome": "To Heart 2",
      "link": "https://animefire.plus/animes/to-heart-2-todos-os-episodios",
      "texto_original": "To Heart 2",
      "rating": 6.58,
      "classificacao_etaria": "A14",
      "imagem_original": "https://animefire.plus/img/animes/to-heart-2.webp",
      "imagem_pasta": "https://animefire.plus/img/animes/to-heart-2/",
      "secao": "legendados",
      "pagina": 147,
      "total_episodios": 12,
      "link_video": "https://animefire.plus/video/to-heart-2"
    }
  ],
  "pagination": {
    "current_page": 97,
    "per_page": 20,
    "total_items": 2189,
    "total_pages": 110,
    "has_next": true,
    "has_prev": true
  }
}
