{
  "message": "Animes com 2 a 12 episódios",
  "episode_range": {
    "min": 2,
    "max": 12
  },
  "data": [
    {
      "id": 4021,
      "nome": "UN-GO",
      "link": "https://animefire.plus/animes/un-go-todos-os-episodios",
      "texto_original": "UN-GO",
      "rating": 7.46,
      "classificacao_etaria": "A16",
      "imagem_original": "https://animefire.plus/img/animes/un-go.webp",
      "imagem_pasta": "https://animefire.plus/img/animes/un-go/",
      "secao": "legendados",
      "pagina": 170,
      "total_episodios": 11,
      "link_video": "https://animefire.plus/video/un-go"
    },
    {
      "id": 4024,
      "nome": "Under Ninja",
      "link": "https://animefire.plus/animes/under-ninja-todos-os-episodios",
      "texto_original": "Under Ninja",
      "rating": 6.92,
      "classificacao_etaria": "A16",
      "imagem_original": "https://animefire.plus/img/animes/under-ninja.webp",
      "imagem_pasta": "https://animefire.plus/img/animes/under-ninja/",
      "secao": "legendados",
      "pagina": 20,
      "total_episodios": 12,
      "link_video": "https://animefire.plus/video/under-ninja"
    },
    {
      "id": 4025,
      "nome": "UniteUp!",
      "link": "https://animefire.plus/animes/uniteup-todos-os-episodios",
      "texto_original": "UniteUp!",
      "rating": 7.02,
      "classificacao_etaria": "A14",
      "imagem_original": "https://animefire.plus/img/animes/uniteup.webp",
      "imagem_pasta": "https://animefire.plus/img/animes/uniteup/",
      "secao": "legendados",
      "pagina": 25,
      "total_episodios": 12,
      "link_video": "https://animefire.plus/video/uniteup"
    },
    {
      "id": 4027,
      "nome": "Unnamed Memory",
      "link": "https://animefire.plus/animes/unnamed-memory-todos-os-episodios",
      "texto_original": "Unnamed Memory",
      "rating": 6.77,
      "classificacao_etaria": "A14",
      "imagem_original": "https://animefire.plus/img/animes/unnamed-memory.webp",
      "imagem_pasta": "https://animefire.plus/img/animes/unnamed-memory/",
      "secao": "legendados",
      "pagina": 15,
      "total_episodios": 12,
      "link_video": "https://animefire.plus/video/unnamed-memory"
    },
    {
      "id": 4028,
      "nome": "Unnamed Memory Act.2",
      "link": "https://animefire.plus/animes/unnamed-memory-act-2-todos-os-episodios",
      "texto_original": "Unnamed Memory Act.2",
      "rating": 7.11,
      "classificacao_etaria": "A14",
      "imagem_original": "https://animefire.plus/img/animes/unnamed-memory-act-2.webp",
      "imagem_pasta": "https://animefire.plus/img/animes/unnamed-memory-act-2/",
      "secao": "legendados",
      "pagina": 7,
      "total_episodios": 12,
      "link_video": "https://animefire.plus/video/unnamed-memory-act-2"
    },
    {
      "id": 4030,
      "nome": "UQ Holder!: Mahou Sensei Negima! 2",
      "link": "https://animefire.plus/animes/uq-holder-mahou-sensei-negima-2-todos-os-episodios",
      "texto_original": "UQ Holder!: Mahou Sensei Negima! 2",
      "rating": 7.15,
      "classificacao_etaria": "A14",
      "imagem_original": "https://animefire.plus/img/animes/uq-holder-mahou-sensei-negima-2.webp",
      "imagem_pasta": "https://animefire.plus/img/animes/uq-holder-mahou-sensei-negima-2/",
      "secao": "legendados",
      "pagina": 114,
      "total_episodios": 12,
      "link_video": "https://animefire.plus/video/uq-holder-mahou-sensei-negima-2"
    },
    {
      "id": 4032,
      "nome": "Urahara",
      "link": "https://animefire.plus/animes/urahara-todos-os-episodios",
      "texto_original": "Urahara",
      "rating": 5.82,
      "classificacao_etaria": "A14",
      "imagem_original": "https://animefire.plus/img/animes/urahara.webp",
      "imagem_pasta": "https://animefire.plus/img/animes/urahara/",
      "secao": "legendados",
      "pagina": 73,
      "total_episodios": 12,
      "link_video": "https://animefire.plus/video/urahara"
    },
    {
      "id": 4035,
      "nome": "Urasekai Picnic",
      "link": "https://animefire.plus/animes/urasekai-picnic-todos-os-episodios",
      "texto_original": "Urasekai Picnic",
      "rating": 6.66,
      "classificacao_etaria": "A16",
      "imagem_original": "https://animefire.plus/img/animes/urasekai-picnic.webp",
      "imagem_pasta": "https://animefire.plus/img/animes/urasekai-picnic/",
      "secao": "legendados",
      "pagina": 49,
      "total_episodios": 12,
      "link_video": "https://animefire.plus/video/urasekai-picnic"
    },
    {
      "id": 4037,
      "nome": "Urawa no Usagi-chan",
      "link": "https://animefire.plus/animes/urawa-no-usagi-chan-todos-os-episodios",
      "texto_original": "Urawa no Usagi-chan",
      "rating": 5.4,
      "classificacao_etaria": "A10",
      "imagem_original": "https://animefire.plus/img/animes/urawa-no-usagi-chan.webp",
      "imagem_pasta": "https://animefire.plus/img/animes/urawa-no-usagi-chan/",
      "secao": "legendados",
      "pagina": 67,
      "total_episodios": 12,
      "link_video": "https://animefire.plus/video/urawa-no-usagi-chan"
    },
    {
      "id": 4042,
      "nome": "Usagi-chan de Cue!!",
      "link": "https://animefire.plus/animes/usagi-chan-de-cue-todos-os-episodios",
      "texto_original": "Usagi-chan de Cue!!",
      "rating": 5.7,
      "classificacao_etaria": "A18",
      "imagem_original": "https://animefire.plus/img/animes/usagi-chan-de-cue.webp",
      "imagem_pasta": "https://animefire.plus/img/animes/usagi-chan-de-cue/",
      "secao": "legendados",
      "pagina": 69,
      "total_episodios": 3,
      "link_video": "https://animefire.plus/video/usagi-chan-de-cue"
    },
    {
      "id": 4043,
      "nome": "Usakame",
      "link": "https://animefire.plus/animes/usakame-todos-os-episodios",
      "texto_original": "Usakame",
      "rating": 5.83,
      "classificacao_etaria": "A14",
      "imagem_original": "https://animefire.plus/img/animes/usakame.webp",
      "imagem_pasta": "https://animefire.plus/img/animes/usakame/",
      "secao": "legendados",
      "pagina": 159,
      "total_episodios": 9,
      "link_video": "https://animefire.plus/video/usakame"
    },
    {
      "id": 4044,
      "nome": "Ushinawareta Mirai wo Motomete",
      "link": "https://animefire.plus/animes/ushinawareta-mirai-wo-motomete-todos-os-episodios",
      "texto_original": "Ushinawareta Mirai wo Motomete",
      "rating": 6.83,
      "classificacao_etaria": "A14",
      "imagem_original": "https://animefire.plus/img/animes/ushinawareta-mirai-wo-motomete.webp",
      "imagem_pasta": "https://animefire.plus/img/animes/ushinawareta-mirai-wo-motomete/",
      "secao": "legendados",
      "pagina": 148,
      "total_episodios": 2,
      "link_video": "https://animefire.plus/video/ushinawareta-mirai-wo-motomete"
    },
    {
      "id": 4045,
      "nome": "Ushio To Tora (TV)",
      "link": "https://animefire.plus/animes/ushio-to-tora-tv-todos-os-episodios",
      "texto_original": "Ushio To Tora (TV)",
      "rating": 7.65,
      "classificacao_etaria": "A14",
      "imagem_original": "https://animefire.plus/img/animes/ushio-to-tora-tv.webp",
      "imagem_pasta": "https://animefire.plus/img/animes/ushio-to-tora-tv/",
      "secao": "legendados",
      "pagina": 100,
      "total_episodios": 2,
      "link_video": "https://animefire.plus/video/ushio-to-tora-tv"
    },
    {
      "id": 4049,
      "nome": "Uta no☆Prince-sama♪ Maji Love Legend Star",
      "link": "https://animefire.plus/animes/uta-no-prince-sama-maji-love-legend-star-todos-os-episodios",
      "texto_original": "Uta no☆Prince-sama♪ Maji Love Legend Star",
      "rating": 7.35,
      "classificacao_etaria": "A14",
      "imagem_original": "https://animefire.plus/img/animes/uta-no-prince-sama-maji-love-legend-star.webp",
      "imagem_pasta": "https://animefire.plus/img/animes/uta-no-prince-sama-maji-love-legend-star/",
      "secao": "legendados",
      "pagina": 160,
      "total_episodios": 8,
      "link_video": "https://animefire.plus/video/uta-no-prince-sama-maji-love-legend-star"
    },
    {
      "id": 4055,
      "nome": "Uzaki-chan wa Asobitai! (Dublado)",
      "link": "https://animefire.plus/animes/uzaki-chan-wa-asobitai-dublado-todos-os-episodios",
      "texto_original": "Uzaki-chan wa Asobitai! (Dublado)",
      "rating": 7,
      "classificacao_etaria": "A14",
      "imagem_original": "https://animefire.plus/img/animes/uzaki-chan-wa-asobitai.webp",
      "imagem_pasta": "https://animefire.plus/img/animes/uzaki-chan-wa-asobitai/",
      "secao": "dublados,legendados",
      "pagina": 9,
      "total_episodios": 12,
      "link_video": "https://animefire.plus/video/uzaki-chan-wa-asobitai-dublado"
    },
    {
      "id": 4057,
      "nome": "Uzumaki (Dublado)",
      "link": "https://animefire.plus/animes/uzumaki-dublado-todos-os-episodios",
      "texto_original": "Uzumaki (Dublado)",
      "rating": 5.72,
      "classificacao_etaria": "A16",
      "imagem_original": "https://animefire.plus/img/animes/uzumaki.webp",
      "imagem_pasta": "https://animefire.plus/img/animes/uzumaki/",
      "secao": "dublados,legendados",
      "pagina": 2,
      "total_episodios": 4,
      "link_video": "https://animefire.plus/video/uzumaki-dublado"
    },
    {
      "id": 4060,
      "nome": "Vampire Dormitory",
      "link": "https://animefire.plus/animes/vampire-dormitory-todos-os-episodios",
      "texto_original": "Vampire Dormitory",
      "rating": 6.22,
      "classificacao_etaria": "A14",
      "imagem_original": "https://animefire.plus/img/animes/vampire-dormitory.webp",
      "imagem_pasta": "https://animefire.plus/img/animes/vampire-dormitory/",
      "secao": "legendados",
      "pagina": 15,
      "total_episodios": 12,
      "link_video": "https://animefire.plus/video/vampire-dormitory"
    },
    {
      "id": 4062,
      "nome": "Vampire Hunter",
      "link": "https://animefire.plus/animes/vampire-hunter-todos-os-episodios",
      "texto_original": "Vampire Hunter",
      "rating": 6.74,
      "classificacao_etaria": "A16",
      "imagem_original": "https://animefire.plus/img/animes/vampire-hunter.webp",
      "imagem_pasta": "https://animefire.plus/img/animes/vampire-hunter/",
      "secao": "legendados",
      "pagina": 172,
      "total_episodios": 4,
      "link_video": "https://animefire.plus/video/vampire-hunter"
    },
    {
      "id": 4063,
      "nome": "Vampire in the Garden (Dublado)",
      "link": "https://animefire.plus/animes/vampire-in-the-garden-dublado-todos-os-episodios",
      "texto_original": "Vampire in the Garden (Dublado)",
      "rating": 7.14,
      "classificacao_etaria": "A14",
      "imagem_original": "https://animefire.plus/img/animes/vampire-in-the-garden.webp",
      "imagem_pasta": "https://animefire.plus/img/animes/vampire-in-the-garden/",
      "secao": "dublados,legendados",
      "pagina": 11,
      "total_episodios": 5,
      "link_video": "https://animefire.plus/video/vampire-in-the-garden-dublado"
    },
    {
      "id": 4068,
      "nome": "Vanitas no Carte (Dublado)",
      "link": "https://animefire.plus/animes/vanitas-no-carte-dublado-todos-os-episodios",
      "texto_original": "Vanitas no Carte (Dublado)",
      "rating": 7.9,
      "classificacao_etaria": "A16",
      "imagem_original": "https://animefire.plus/img/animes/vanitas-no-carte.webp",
      "imagem_pasta": "https://animefire.plus/img/animes/vanitas-no-carte/",
      "secao": "dublados,legendados",
      "pagina": 16,
      "total_episodios": 12,
      "link_video": "https://animefire.plus/video/vanitas-no-carte-dublado"
    }
  ],
  "pagination": {
    "current_page": 102,
    "per_page": 20,
    "total_items": 2189,
    "total_pages": 110,
    "has_next": true,
    "has_prev": true
  }
}
