{
  "message": "Animes com 2 a 12 episódios",
  "episode_range": {
    "min": 2,
    "max": 12
  },
  "data": [
    {
      "id": 691,
      "nome": "Copihan",
      "link": "https://animefire.plus/animes/copihan-todos-os-episodios",
      "texto_original": "Copihan",
      "rating": 5.49,
      "classificacao_etaria": "A14",
      "imagem_original": "https://animefire.plus/img/animes/copihan.webp",
      "imagem_pasta": "https://animefire.plus/img/animes/copihan/",
      "secao": "legendados",
      "pagina": 172,
      "total_episodios": 3,
      "link_video": "https://animefire.plus/video/copihan"
    },
    {
      "id": 692,
      "nome": "Coppelion",
      "link": "https://animefire.plus/animes/coppelion-todos-os-episodios",
      "texto_original": "Coppelion",
      "rating": 6.53,
      "classificacao_etaria": "A14",
      "imagem_original": "https://animefire.plus/img/animes/coppelion.webp",
      "imagem_pasta": "https://animefire.plus/img/animes/coppelion/",
      "secao": "legendados",
      "pagina": 113,
      "total_episodios": 6,
      "link_video": "https://animefire.plus/video/coppelion"
    },
    {
      "id": 694,
      "nome": "Corpse Party: Tortured Souls - Bougyakusareta Tamashii no Jukyou",
      "link": "https://animefire.plus/animes/corpse-party-tortured-souls---bougyakusareta-tamashii-no-jukyou-todos-os-episodios",
      "texto_original": "Corpse Party: Tortured Souls - Bougyakusareta Tamashii no Jukyou",
      "rating": 6.87,
      "classificacao_etaria": "A16",
      "imagem_original": "https://animefire.plus/img/animes/corpse-party-tortured-souls---bougyakusareta-tamashii-no-jukyou.webp",
      "imagem_pasta": "https://animefire.plus/img/animes/corpse-party-tortured-souls---bougyakusareta-tamashii-no-jukyou/",
      "secao": "legendados",
      "pagina": 105,
      "total_episodios": 4,
      "link_video": "https://animefire.plus/video/corpse-party-tortured-souls---bougyakusareta-tamashii-no-jukyou"
    },
    {
      "id": 695,
      "nome": "Cosmic Break",
      "link": "https://animefire.plus/animes/cosmic-break-todos-os-episodios",
      "texto_original": "Cosmic Break",
      "rating": 6.09,
      "classificacao_etaria": "A14",
      "imagem_original": "https://animefire.plus/img/animes/cosmic-break.webp",
      "imagem_pasta": "https://animefire.plus/img/animes/cosmic-break/",
      "secao": "legendados",
      "pagina": 141,
      "total_episodios": 3,
      "link_video": "https://animefire.plus/video/cosmic-break"
    },
    {
      "id": 698,
      "nome": "Cossette no Shouzou",
      "link": "https://animefire.plus/animes/cossette-no-shouzou-todos-os-episodios",
      "texto_original": "Cossette no Shouzou",
      "rating": 6.87,
      "classificacao_etaria": "A16",
      "imagem_original": "https://animefire.plus/img/animes/cossette-no-shouzou.webp",
      "imagem_pasta": "https://animefire.plus/img/animes/cossette-no-shouzou/",
      "secao": "legendados",
      "pagina": 57,
      "total_episodios": 3,
      "link_video": "https://animefire.plus/video/cossette-no-shouzou"
    },
    {
      "id": 699,
      "nome": "Cowboy Bebop (Dublado)",
      "link": "https://animefire.plus/animes/cowboy-bebop-dublado-todos-os-episodios",
      "texto_original": "Cowboy Bebop (Dublado)",
      "rating": 8.77,
      "classificacao_etaria": "A16",
      "imagem_original": "https://animefire.plus/img/animes/cowboy-bebop.webp",
      "imagem_pasta": "https://animefire.plus/img/animes/cowboy-bebop/",
      "secao": "dublados,legendados",
      "pagina": 15,
      "total_episodios": 3,
      "link_video": "https://animefire.plus/video/cowboy-bebop-dublado"
    },
    {
      "id": 700,
      "nome": "Coyote Ragtime Show",
      "link": "https://animefire.plus/animes/coyote-ragtime-show-todos-os-episodios",
      "texto_original": "Coyote Ragtime Show",
      "rating": 6.7,
      "classificacao_etaria": "A14",
      "imagem_original": "https://animefire.plus/img/animes/coyote-ragtime-show.webp",
      "imagem_pasta": "https://animefire.plus/img/animes/coyote-ragtime-show/",
      "secao": "legendados",
      "pagina": 100,
      "total_episodios": 12,
      "link_video": "https://animefire.plus/video/coyote-ragtime-show"
    },
    {
      "id": 702,
      "nome": "Cross Fight B-Daman (Dublado)",
      "link": "https://animefire.plus/animes/cross-fight-b-daman-dublado-todos-os-episodios",
      "texto_original": "Cross Fight B-Daman (Dublado)",
      "rating": 6.52,
      "classificacao_etaria": null,
      "imagem_original": "https://animefire.plus/img/animes/cross-fight-b-daman.webp",
      "imagem_pasta": "https://animefire.plus/img/animes/cross-fight-b-daman/",
      "secao": "dublados,legendados",
      "pagina": 25,
      "total_episodios": 10,
      "link_video": "https://animefire.plus/video/cross-fight-b-daman-dublado"
    },
    {
      "id": 705,
      "nome": "Crystal Blaze",
      "link": "https://animefire.plus/animes/crystal-blaze-todos-os-episodios",
      "texto_original": "Crystal Blaze",
      "rating": 6.19,
      "classificacao_etaria": "A16",
      "imagem_original": "https://animefire.plus/img/animes/crystal-blaze.webp",
      "imagem_pasta": "https://animefire.plus/img/animes/crystal-blaze/",
      "secao": "legendados",
      "pagina": 123,
      "total_episodios": 12,
      "link_video": "https://animefire.plus/video/crystal-blaze"
    },
    {
      "id": 708,
      "nome": "Cutie Honey Universe",
      "link": "https://animefire.plus/animes/cutie-honey-universe-todos-os-episodios",
      "texto_original": "Cutie Honey Universe",
      "rating": 5.5,
      "classificacao_etaria": "A16",
      "imagem_original": "https://animefire.plus/img/animes/cutie-honey-universe.webp",
      "imagem_pasta": "https://animefire.plus/img/animes/cutie-honey-universe/",
      "secao": "legendados",
      "pagina": 155,
      "total_episodios": 12,
      "link_video": "https://animefire.plus/video/cutie-honey-universe"
    },
    {
      "id": 709,
      "nome": "Cyberpunk: Edgerunners (Dublado)",
      "link": "https://animefire.plus/animes/cyberpunk-edgerunners-dublado-todos-os-episodios",
      "texto_original": "Cyberpunk: Edgerunners (Dublado)",
      "rating": 8.6,
      "classificacao_etaria": "A18",
      "imagem_original": "https://animefire.plus/img/animes/cyberpunk-edgerunners.webp",
      "imagem_pasta": "https://animefire.plus/img/animes/cyberpunk-edgerunners/",
      "secao": "dublados,legendados",
      "pagina": 9,
      "total_episodios": 10,
      "link_video": "https://animefire.plus/video/cyberpunk-edgerunners-dublado"
    },
    {
      "id": 710,
      "nome": "Cyclops Shoujo Saipuu",
      "link": "https://animefire.plus/animes/cyclops-shoujo-saipuu-todos-os-episodios",
      "texto_original": "Cyclops Shoujo Saipuu",
      "rating": 5.8,
      "classificacao_etaria": "A14",
      "imagem_original": "https://animefire.plus/img/animes/cyclops-shoujo-saipuu.webp",
      "imagem_pasta": "https://animefire.plus/img/animes/cyclops-shoujo-saipuu/",
      "secao": "legendados",
      "pagina": 43,
      "total_episodios": 12,
      "link_video": "https://animefire.plus/video/cyclops-shoujo-saipuu"
    },
    {
      "id": 712,
      "nome": "D-Frag!",
      "link": "https://animefire.plus/animes/d-frag-todos-os-episodios",
      "texto_original": "D-Frag!",
      "rating": 7.67,
      "classificacao_etaria": "A14",
      "imagem_original": "https://animefire.plus/img/animes/d-frag.webp",
      "imagem_pasta": "https://animefire.plus/img/animes/d-frag/",
      "secao": "legendados",
      "pagina": 107,
      "total_episodios": 12,
      "link_video": "https://animefire.plus/video/d-frag"
    },
    {
      "id": 721,
      "nome": "D4DJ All Mix",
      "link": "https://animefire.plus/animes/d4dj-all-mix-todos-os-episodios",
      "texto_original": "D4DJ All Mix",
      "rating": 7.4,
      "classificacao_etaria": "A14",
      "imagem_original": "https://animefire.plus/img/animes/d4dj-all-mix.webp",
      "imagem_pasta": "https://animefire.plus/img/animes/d4dj-all-mix/",
      "secao": "legendados",
      "pagina": 25,
      "total_episodios": 12,
      "link_video": "https://animefire.plus/video/d4dj-all-mix"
    },
    {
      "id": 726,
      "nome": "Dagashi Kashi 2",
      "link": "https://animefire.plus/animes/dagashi-kashi-2-todos-os-episodios",
      "texto_original": "Dagashi Kashi 2",
      "rating": 6.99,
      "classificacao_etaria": "A14",
      "imagem_original": "https://animefire.plus/img/animes/dagashi-kashi-2.webp",
      "imagem_pasta": "https://animefire.plus/img/animes/dagashi-kashi-2/",
      "secao": "legendados",
      "pagina": 127,
      "total_episodios": 7,
      "link_video": "https://animefire.plus/video/dagashi-kashi-2"
    },
    {
      "id": 727,
      "nome": "Dai Mahou Touge",
      "link": "https://animefire.plus/animes/dai-mahou-touge-todos-os-episodios",
      "texto_original": "Dai Mahou Touge",
      "rating": 7.02,
      "classificacao_etaria": "A16",
      "imagem_original": "https://animefire.plus/img/animes/dai-mahou-touge.webp",
      "imagem_pasta": "https://animefire.plus/img/animes/dai-mahou-touge/",
      "secao": "legendados",
      "pagina": 99,
      "total_episodios": 4,
      "link_video": "https://animefire.plus/video/dai-mahou-touge"
    },
    {
      "id": 729,
      "nome": "Daitoshokan No Hitsujikai",
      "link": "https://animefire.plus/animes/daitoshokan-no-hitsujikai-todos-os-episodios",
      "texto_original": "Daitoshokan No Hitsujikai",
      "rating": 7.02,
      "classificacao_etaria": "A14",
      "imagem_original": "https://animefire.plus/img/animes/daitoshokan-no-hitsujikai.webp",
      "imagem_pasta": "https://animefire.plus/img/animes/daitoshokan-no-hitsujikai/",
      "secao": "legendados",
      "pagina": 96,
      "total_episodios": 2,
      "link_video": "https://animefire.plus/video/daitoshokan-no-hitsujikai"
    },
    {
      "id": 732,
      "nome": "Dallos",
      "link": "https://animefire.plus/animes/dallos-todos-os-episodios",
      "texto_original": "Dallos",
      "rating": 5.99,
      "classificacao_etaria": "A14",
      "imagem_original": "https://animefire.plus/img/animes/dallos.webp",
      "imagem_pasta": "https://animefire.plus/img/animes/dallos/",
      "secao": "legendados",
      "pagina": 54,
      "total_episodios": 4,
      "link_video": "https://animefire.plus/video/dallos"
    },
    {
      "id": 733,
      "nome": "Dame x Prince Anime Caravan",
      "link": "https://animefire.plus/animes/dame-x-prince-anime-caravan-todos-os-episodios",
      "texto_original": "Dame x Prince Anime Caravan",
      "rating": 6.59,
      "classificacao_etaria": "A14",
      "imagem_original": "https://animefire.plus/img/animes/dame-x-prince-anime-caravan.webp",
      "imagem_pasta": "https://animefire.plus/img/animes/dame-x-prince-anime-caravan/",
      "secao": "legendados",
      "pagina": 72,
      "total_episodios": 12,
      "link_video": "https://animefire.plus/video/dame-x-prince-anime-caravan"
    },
    {
      "id": 735,
      "nome": "Dance Dance Danseur (Dublado)",
      "link": "https://animefire.plus/animes/dance-dance-danseur-dublado-todos-os-episodios",
      "texto_original": "Dance Dance Danseur (Dublado)",
      "rating": 7.81,
      "classificacao_etaria": "A14",
      "imagem_original": "https://animefire.plus/img/animes/dance-dance-danseur.webp",
      "imagem_pasta": "https://animefire.plus/img/animes/dance-dance-danseur/",
      "secao": "dublados,legendados",
      "pagina": 11,
      "total_episodios": 11,
      "link_video": "https://animefire.plus/video/dance-dance-danseur-dublado"
    }
  ],
  "pagination": {
    "current_page": 17,
    "per_page": 20,
    "total_items": 2189,
    "total_pages": 110,
    "has_next": true,
    "has_prev": true
  }
}
