{
  "message": "Animes com 2 a 12 episódios",
  "episode_range": {
    "min": 2,
    "max": 12
  },
  "data": [
    {
      "id": 3287,
      "nome": "Seijo no Maryoku wa Bannou desu Season 2",
      "link": "https://animefire.plus/animes/seijo-no-maryoku-wa-bannou-desu-season-2-todos-os-episodios",
      "texto_original": "Seijo no Maryoku wa Bannou desu Season 2",
      "rating": 7.44,
      "classificacao_etaria": "A14",
      "imagem_original": "https://animefire.plus/img/animes/seijo-no-maryoku-wa-bannou-desu-season-2.webp",
      "imagem_pasta": "https://animefire.plus/img/animes/seijo-no-maryoku-wa-bannou-desu-season-2/",
      "secao": "legendados",
      "pagina": 19,
      "total_episodios": 12,
      "link_video": "https://animefire.plus/video/seijo-no-maryoku-wa-bannou-desu-season-2"
    },
    {
      "id": 3289,
      "nome": "Seikai no Senki II",
      "link": "https://animefire.plus/animes/seikai-no-senki-ii-todos-os-episodios",
      "texto_original": "Seikai no Senki II",
      "rating": 7.85,
      "classificacao_etaria": "A14",
      "imagem_original": "https://animefire.plus/img/animes/seikai-no-senki-ii.webp",
      "imagem_pasta": "https://animefire.plus/img/animes/seikai-no-senki-ii/",
      "secao": "legendados",
      "pagina": 54,
      "total_episodios": 10,
      "link_video": "https://animefire.plus/video/seikai-no-senki-ii"
    },
    {
      "id": 3291,
      "nome": "Seikaisuru Kado",
      "link": "https://animefire.plus/animes/seikaisuru-kado-todos-os-episodios",
      "texto_original": "Seikaisuru Kado",
      "rating": 6.87,
      "classificacao_etaria": "A14",
      "imagem_original": "https://animefire.plus/img/animes/seikaisuru-kado.webp",
      "imagem_pasta": "https://animefire.plus/img/animes/seikaisuru-kado/",
      "secao": "legendados",
      "pagina": 73,
      "total_episodios": 12,
      "link_video": "https://animefire.plus/video/seikaisuru-kado"
    },
    {
      "id": 3292,
      "nome": "Seiken Densetsu: Legend of Mana - The Teardrop Crystal",
      "link": "https://animefire.plus/animes/seiken-densetsu-legend-of-mana---the-teardrop-crystal-todos-os-episodios",
      "texto_original": "Seiken Densetsu: Legend of Mana - The Teardrop Crystal",
      "rating": 5.47,
      "classificacao_etaria": "A14",
      "imagem_original": "https://animefire.plus/img/animes/seiken-densetsu-legend-of-mana---the-teardrop-crystal.webp",
      "imagem_pasta": "https://animefire.plus/img/animes/seiken-densetsu-legend-of-mana---the-teardrop-crystal/",
      "secao": "legendados",
      "pagina": 28,
      "total_episodios": 12,
      "link_video": "https://animefire.plus/video/seiken-densetsu-legend-of-mana---the-teardrop-crystal"
    },
    {
      "id": 3293,
      "nome": "Seiken Gakuin no Makentsukai",
      "link": "https://animefire.plus/animes/seiken-gakuin-no-makentsukai-todos-os-episodios",
      "texto_original": "Seiken Gakuin no Makentsukai",
      "rating": 6.2,
      "classificacao_etaria": "A14",
      "imagem_original": "https://animefire.plus/img/animes/seiken-gakuin-no-makentsukai.webp",
      "imagem_pasta": "https://animefire.plus/img/animes/seiken-gakuin-no-makentsukai/",
      "secao": "legendados",
      "pagina": 21,
      "total_episodios": 12,
      "link_video": "https://animefire.plus/video/seiken-gakuin-no-makentsukai"
    },
    {
      "id": 3294,
      "nome": "Seiken no Blacksmith",
      "link": "https://animefire.plus/animes/seiken-no-blacksmith-todos-os-episodios",
      "texto_original": "Seiken no Blacksmith",
      "rating": 6.86,
      "classificacao_etaria": "A18",
      "imagem_original": "https://animefire.plus/img/animes/seiken-no-blacksmith.webp",
      "imagem_pasta": "https://animefire.plus/img/animes/seiken-no-blacksmith/",
      "secao": "legendados",
      "pagina": 128,
      "total_episodios": 12,
      "link_video": "https://animefire.plus/video/seiken-no-blacksmith"
    },
    {
      "id": 3295,
      "nome": "Seiken Tsukai No World Break",
      "link": "https://animefire.plus/animes/seiken-tsukai-no-world-break-todos-os-episodios",
      "texto_original": "Seiken Tsukai No World Break",
      "rating": 7.11,
      "classificacao_etaria": "A16",
      "imagem_original": "https://animefire.plus/img/animes/seiken-tsukai-no-world-break.webp",
      "imagem_pasta": "https://animefire.plus/img/animes/seiken-tsukai-no-world-break/",
      "secao": "legendados",
      "pagina": 101,
      "total_episodios": 12,
      "link_video": "https://animefire.plus/video/seiken-tsukai-no-world-break"
    },
    {
      "id": 3299,
      "nome": "Seikon no Qwaser II",
      "link": "https://animefire.plus/animes/seikon-no-qwaser-ii-todos-os-episodios",
      "texto_original": "Seikon no Qwaser II",
      "rating": 6.55,
      "classificacao_etaria": "A18",
      "imagem_original": "https://animefire.plus/img/animes/seikon-no-qwaser-ii.webp",
      "imagem_pasta": "https://animefire.plus/img/animes/seikon-no-qwaser-ii/",
      "secao": "legendados",
      "pagina": 115,
      "total_episodios": 12,
      "link_video": "https://animefire.plus/video/seikon-no-qwaser-ii"
    },
    {
      "id": 3300,
      "nome": "Seirei Gensouki (Dublado)",
      "link": "https://animefire.plus/animes/seirei-gensouki-dublado-todos-os-episodios",
      "texto_original": "Seirei Gensouki (Dublado)",
      "rating": 7.07,
      "classificacao_etaria": "A14",
      "imagem_original": "https://animefire.plus/img/animes/seirei-gensouki.webp",
      "imagem_pasta": "https://animefire.plus/img/animes/seirei-gensouki/",
      "secao": "dublados,legendados",
      "pagina": 13,
      "total_episodios": 12,
      "link_video": "https://animefire.plus/video/seirei-gensouki-dublado"
    },
    {
      "id": 3301,
      "nome": "Seirei Gensouki 2 (Dublado)",
      "link": "https://animefire.plus/animes/seirei-gensouki-2-dublado-todos-os-episodios",
      "texto_original": "Seirei Gensouki 2 (Dublado)",
      "rating": 6.87,
      "classificacao_etaria": "A14",
      "imagem_original": "https://animefire.plus/img/animes/seirei-gensouki-2.webp",
      "imagem_pasta": "https://animefire.plus/img/animes/seirei-gensouki-2/",
      "secao": "dublados,legendados,lancamentos",
      "pagina": 2,
      "total_episodios": 12,
      "link_video": "https://animefire.plus/video/seirei-gensouki-2-dublado"
    },
    {
      "id": 3303,
      "nome": "Seireitsukai no Blade Dance",
      "link": "https://animefire.plus/animes/seireitsukai-no-blade-dance-todos-os-episodios",
      "texto_original": "Seireitsukai no Blade Dance",
      "rating": 7.04,
      "classificacao_etaria": "A14",
      "imagem_original": "https://animefire.plus/img/animes/seireitsukai-no-blade-dance.webp",
      "imagem_pasta": "https://animefire.plus/img/animes/seireitsukai-no-blade-dance/",
      "secao": "legendados",
      "pagina": 118,
      "total_episodios": 3,
      "link_video": "https://animefire.plus/video/seireitsukai-no-blade-dance"
    },
    {
      "id": 3307,
      "nome": "Seisenshi Dunbine OVA",
      "link": "https://animefire.plus/animes/seisenshi-dunbine-ova-todos-os-episodios",
      "texto_original": "Seisenshi Dunbine OVA",
      "rating": 5.8,
      "classificacao_etaria": "A14",
      "imagem_original": "https://animefire.plus/img/animes/seisenshi-dunbine-ova.webp",
      "imagem_pasta": "https://animefire.plus/img/animes/seisenshi-dunbine-ova/",
      "secao": "legendados",
      "pagina": 142,
      "total_episodios": 3,
      "link_video": "https://animefire.plus/video/seisenshi-dunbine-ova"
    },
    {
      "id": 3309,
      "nome": "Seishun Buta Yarou wa Santa Claus no Yume wo Minai",
      "link": "https://animefire.plus/animes/seishun-buta-yarou-wa-santa-claus-no-yume-wo-minai-todos-os-episodios",
      "texto_original": "Seishun Buta Yarou wa Santa Claus no Yume wo Minai",
      "rating": 8.34,
      "classificacao_etaria": "A14",
      "imagem_original": "https://animefire.plus/img/animes/seishun-buta-yarou-wa-santa-claus-no-yume-wo-minai.webp",
      "imagem_pasta": "https://animefire.plus/img/animes/seishun-buta-yarou-wa-santa-claus-no-yume-wo-minai/",
      "secao": "legendados,lancamentos",
      "pagina": 3,
      "total_episodios": 5,
      "link_video": "https://animefire.plus/video/seishun-buta-yarou-wa-santa-claus-no-yume-wo-minai"
    },
    {
      "id": 3310,
      "nome": "Seitokai No Ichizon",
      "link": "https://animefire.plus/animes/seitokai-no-ichizon-todos-os-episodios",
      "texto_original": "Seitokai No Ichizon",
      "rating": 7.42,
      "classificacao_etaria": "A14",
      "imagem_original": "https://animefire.plus/img/animes/seitokai-no-ichizon.webp",
      "imagem_pasta": "https://animefire.plus/img/animes/seitokai-no-ichizon/",
      "secao": "legendados",
      "pagina": 99,
      "total_episodios": 12,
      "link_video": "https://animefire.plus/video/seitokai-no-ichizon"
    },
    {
      "id": 3311,
      "nome": "Seitokai no Ichizon Lv.2",
      "link": "https://animefire.plus/animes/seitokai-no-ichizon-lv-2-todos-os-episodios",
      "texto_original": "Seitokai no Ichizon Lv.2",
      "rating": 7.43,
      "classificacao_etaria": "A14",
      "imagem_original": "https://animefire.plus/img/animes/seitokai-no-ichizon-lv-2.webp",
      "imagem_pasta": "https://animefire.plus/img/animes/seitokai-no-ichizon-lv-2/",
      "secao": "legendados",
      "pagina": 122,
      "total_episodios": 10,
      "link_video": "https://animefire.plus/video/seitokai-no-ichizon-lv-2"
    },
    {
      "id": 3315,
      "nome": "Seiyuu Radio no Uraomote",
      "link": "https://animefire.plus/animes/seiyuu-radio-no-uraomote-todos-os-episodios",
      "texto_original": "Seiyuu Radio no Uraomote",
      "rating": 6.95,
      "classificacao_etaria": "A14",
      "imagem_original": "https://animefire.plus/img/animes/seiyuu-radio-no-uraomote.webp",
      "imagem_pasta": "https://animefire.plus/img/animes/seiyuu-radio-no-uraomote/",
      "secao": "legendados",
      "pagina": 14,
      "total_episodios": 12,
      "link_video": "https://animefire.plus/video/seiyuu-radio-no-uraomote"
    },
    {
      "id": 3316,
      "nome": "Sekai de Ichiban Tsuyoku Naritai!",
      "link": "https://animefire.plus/animes/sekai-de-ichiban-tsuyoku-naritai-todos-os-episodios",
      "texto_original": "Sekai de Ichiban Tsuyoku Naritai!",
      "rating": 5.9,
      "classificacao_etaria": "A18",
      "imagem_original": "https://animefire.plus/img/animes/sekai-de-ichiban-tsuyoku-naritai.webp",
      "imagem_pasta": "https://animefire.plus/img/animes/sekai-de-ichiban-tsuyoku-naritai/",
      "secao": "legendados",
      "pagina": 117,
      "total_episodios": 4,
      "link_video": "https://animefire.plus/video/sekai-de-ichiban-tsuyoku-naritai"
    },
    {
      "id": 3318,
      "nome": "Sekai Saikou no Ansatsusha, Isekai Kizoku ni Tensei suru (Dublado)",
      "link": "https://animefire.plus/animes/sekai-saikou-no-ansatsusha-isekai-kizoku-ni-tensei-suru-dublado-todos-os-episodios",
      "texto_original": "Sekai Saikou no Ansatsusha, Isekai Kizoku ni Tensei suru (Dublado)",
      "rating": 7.33,
      "classificacao_etaria": "A14",
      "imagem_original": "https://animefire.plus/img/animes/sekai-saikou-no-ansatsusha-isekai-kizoku-ni-tensei-suru.webp",
      "imagem_pasta": "https://animefire.plus/img/animes/sekai-saikou-no-ansatsusha-isekai-kizoku-ni-tensei-suru/",
      "secao": "dublados,legendados",
      "pagina": 14,
      "total_episodios": 12,
      "link_video": "https://animefire.plus/video/sekai-saikou-no-ansatsusha-isekai-kizoku-ni-tensei-suru-dublado"
    },
    {
      "id": 3319,
      "nome": "Sekai Seifuku: Bouryaku no Zvezda",
      "link": "https://animefire.plus/animes/sekai-seifuku-bouryaku-no-zvezda-todos-os-episodios",
      "texto_original": "Sekai Seifuku: Bouryaku no Zvezda",
      "rating": 7.14,
      "classificacao_etaria": "A14",
      "imagem_original": "https://animefire.plus/img/animes/sekai-seifuku-bouryaku-no-zvezda.webp",
      "imagem_pasta": "https://animefire.plus/img/animes/sekai-seifuku-bouryaku-no-zvezda/",
      "secao": "legendados",
      "pagina": 177,
      "total_episodios": 12,
      "link_video": "https://animefire.plus/video/sekai-seifuku-bouryaku-no-zvezda"
    },
    {
      "id": 3321,
      "nome": "Sekaiichi Hatsukoi",
      "link": "https://animefire.plus/animes/sekaiichi-hatsukoi-todos-os-episodios",
      "texto_original": "Sekaiichi Hatsukoi",
      "rating": 8.01,
      "classificacao_etaria": "A14",
      "imagem_original": "https://animefire.plus/img/animes/sekaiichi-hatsukoi.webp",
      "imagem_pasta": "https://animefire.plus/img/animes/sekaiichi-hatsukoi/",
      "secao": "legendados",
      "pagina": 161,
      "total_episodios": 5,
      "link_video": "https://animefire.plus/video/sekaiichi-hatsukoi"
    }
  ],
  "pagination": {
    "current_page": 83,
    "per_page": 20,
    "total_items": 2189,
    "total_pages": 110,
    "has_next": true,
    "has_prev": true
  }
}
