{
  "message": "Animes com 2 a 12 episódios",
  "episode_range": {
    "min": 2,
    "max": 12
  },
  "data": [
    {
      "id": 4288,
      "nome": "Yume Tsukai",
      "link": "https://animefire.plus/animes/yume-tsukai-todos-os-episodios",
      "texto_original": "Yume Tsukai",
      "rating": 6.49,
      "classificacao_etaria": "A10",
      "imagem_original": "https://animefire.plus/img/animes/yume-tsukai.webp",
      "imagem_pasta": "https://animefire.plus/img/animes/yume-tsukai/",
      "secao": "legendados",
      "pagina": 164,
      "total_episodios": 12,
      "link_video": "https://animefire.plus/video/yume-tsukai"
    },
    {
      "id": 4293,
      "nome": "Yumemiru Danshi wa Genjitsushugisha",
      "link": "https://animefire.plus/animes/yumemiru-danshi-wa-genjitsushugisha-todos-os-episodios",
      "texto_original": "Yumemiru Danshi wa Genjitsushugisha",
      "rating": 6.62,
      "classificacao_etaria": "A14",
      "imagem_original": "https://animefire.plus/img/animes/yumemiru-danshi-wa-genjitsushugisha.jpg",
      "imagem_pasta": "https://animefire.plus/img/animes/yumemiru-danshi-wa-genjitsushugisha/",
      "secao": "legendados",
      "pagina": 22,
      "total_episodios": 12,
      "link_video": "https://animefire.plus/video/yumemiru-danshi-wa-genjitsushugisha"
    },
    {
      "id": 4294,
      "nome": "Yumeria",
      "link": "https://animefire.plus/animes/yumeria-todos-os-episodios",
      "texto_original": "Yumeria",
      "rating": 6.19,
      "classificacao_etaria": "A14",
      "imagem_original": "https://animefire.plus/img/animes/yumeria.webp",
      "imagem_pasta": "https://animefire.plus/img/animes/yumeria/",
      "secao": "legendados",
      "pagina": 133,
      "total_episodios": 12,
      "link_video": "https://animefire.plus/video/yumeria"
    },
    {
      "id": 4295,
      "nome": "Yuragi-sou no Yuuna-san",
      "link": "https://animefire.plus/animes/yuragi-sou-no-yuuna-san-todos-os-episodios",
      "texto_original": "Yuragi-sou no Yuuna-san",
      "rating": 7.22,
      "classificacao_etaria": "A18",
      "imagem_original": "https://animefire.plus/img/animes/yuragi-sou-no-yuuna-san.webp",
      "imagem_pasta": "https://animefire.plus/img/animes/yuragi-sou-no-yuuna-san/",
      "secao": "legendados",
      "pagina": 128,
      "total_episodios": 12,
      "link_video": "https://animefire.plus/video/yuragi-sou-no-yuuna-san"
    },
    {
      "id": 4296,
      "nome": "Yuragi-sou no Yuuna-san OVA",
      "link": "https://animefire.plus/animes/yuragi-sou-no-yuuna-san-ova-todos-os-episodios",
      "texto_original": "Yuragi-sou no Yuuna-san OVA",
      "rating": 7.15,
      "classificacao_etaria": "A18",
      "imagem_original": "https://animefire.plus/img/animes/yuragi-sou-no-yuuna-san-ova.webp",
      "imagem_pasta": "https://animefire.plus/img/animes/yuragi-sou-no-yuuna-san-ova/",
      "secao": "legendados",
      "pagina": 107,
      "total_episodios": 4,
      "link_video": "https://animefire.plus/video/yuragi-sou-no-yuuna-san-ova"
    },
    {
      "id": 4297,
      "nome": "Yurei Deco",
      "link": "https://animefire.plus/animes/yurei-deco-todos-os-episodios",
      "texto_original": "Yurei Deco",
      "rating": 6.03,
      "classificacao_etaria": "A14",
      "imagem_original": "https://animefire.plus/img/animes/yurei-deco.webp",
      "imagem_pasta": "https://animefire.plus/img/animes/yurei-deco/",
      "secao": "legendados",
      "pagina": 31,
      "total_episodios": 12,
      "link_video": "https://animefire.plus/video/yurei-deco"
    },
    {
      "id": 4298,
      "nome": "Yuri Kuma Arashi",
      "link": "https://animefire.plus/animes/yuri-kuma-arashi-todos-os-episodios",
      "texto_original": "Yuri Kuma Arashi",
      "rating": 7.14,
      "classificacao_etaria": "A16",
      "imagem_original": "https://animefire.plus/img/animes/yuri-kuma-arashi.webp",
      "imagem_pasta": "https://animefire.plus/img/animes/yuri-kuma-arashi/",
      "secao": "legendados",
      "pagina": 137,
      "total_episodios": 5,
      "link_video": "https://animefire.plus/video/yuri-kuma-arashi"
    },
    {
      "id": 4300,
      "nome": "Yuru Camp△ (Dublado)",
      "link": "https://animefire.plus/animes/yuru-camp-dublado-todos-os-episodios",
      "texto_original": "Yuru Camp△ (Dublado)",
      "rating": 8.27,
      "classificacao_etaria": "A14",
      "imagem_original": "https://animefire.plus/img/animes/yuru-camp.webp",
      "imagem_pasta": "https://animefire.plus/img/animes/yuru-camp/",
      "secao": "dublados,legendados",
      "pagina": 11,
      "total_episodios": 12,
      "link_video": "https://animefire.plus/video/yuru-camp-dublado"
    },
    {
      "id": 4302,
      "nome": "Yuru Camp△ Season 3 (Dublado)",
      "link": "https://animefire.plus/animes/yuru-camp-season-3-dublado-todos-os-episodios",
      "texto_original": "Yuru Camp△ Season 3 (Dublado)",
      "rating": 8.02,
      "classificacao_etaria": "A14",
      "imagem_original": "https://animefire.plus/img/animes/yuru-camp-season-3.webp",
      "imagem_pasta": "https://animefire.plus/img/animes/yuru-camp-season-3/",
      "secao": "dublados,legendados,lancamentos",
      "pagina": 2,
      "total_episodios": 12,
      "link_video": "https://animefire.plus/video/yuru-camp-season-3-dublado"
    },
    {
      "id": 4303,
      "nome": "Yuru Camp△ Specials",
      "link": "https://animefire.plus/animes/yuru-camp-specials-todos-os-episodios",
      "texto_original": "Yuru Camp△ Specials",
      "rating": 7.61,
      "classificacao_etaria": "A14",
      "imagem_original": "https://animefire.plus/img/animes/yuru-camp-specials.webp",
      "imagem_pasta": "https://animefire.plus/img/animes/yuru-camp-specials/",
      "secao": "legendados",
      "pagina": 170,
      "total_episodios": 3,
      "link_video": "https://animefire.plus/video/yuru-camp-specials"
    },
    {
      "id": 4304,
      "nome": "Yuru Yuri",
      "link": "https://animefire.plus/animes/yuru-yuri-todos-os-episodios",
      "texto_original": "Yuru Yuri",
      "rating": 7.66,
      "classificacao_etaria": "A14",
      "imagem_original": "https://animefire.plus/img/animes/yuru-yuri.webp",
      "imagem_pasta": "https://animefire.plus/img/animes/yuru-yuri/",
      "secao": "legendados",
      "pagina": 105,
      "total_episodios": 12,
      "link_video": "https://animefire.plus/video/yuru-yuri"
    },
    {
      "id": 4305,
      "nome": "Yuru Yuri San☆Hai!",
      "link": "https://animefire.plus/animes/yuru-yuri-san-hai-todos-os-episodios",
      "texto_original": "Yuru Yuri San☆Hai!",
      "rating": 7.98,
      "classificacao_etaria": "A14",
      "imagem_original": "https://animefire.plus/img/animes/yuru-yuri-san-hai.webp",
      "imagem_pasta": "https://animefire.plus/img/animes/yuru-yuri-san-hai/",
      "secao": "legendados",
      "pagina": 75,
      "total_episodios": 12,
      "link_video": "https://animefire.plus/video/yuru-yuri-san-hai"
    },
    {
      "id": 4312,
      "nome": "Yuuki Bakuhatsu Bang Bravern",
      "link": "https://animefire.plus/animes/yuuki-bakuhatsu-bang-bravern-todos-os-episodios",
      "texto_original": "Yuuki Bakuhatsu Bang Bravern",
      "rating": 7.54,
      "classificacao_etaria": "A14",
      "imagem_original": "https://animefire.plus/img/animes/yuuki-bakuhatsu-bang-bravern.webp",
      "imagem_pasta": "https://animefire.plus/img/animes/yuuki-bakuhatsu-bang-bravern/",
      "secao": "legendados",
      "pagina": 16,
      "total_episodios": 12,
      "link_video": "https://animefire.plus/video/yuuki-bakuhatsu-bang-bravern"
    },
    {
      "id": 4313,
      "nome": "Yuuki Yuuna wa Yuusha de Aru",
      "link": "https://animefire.plus/animes/yuuki-yuuna-wa-yuusha-de-aru-todos-os-episodios",
      "texto_original": "Yuuki Yuuna wa Yuusha de Aru",
      "rating": 7.41,
      "classificacao_etaria": "A14",
      "imagem_original": "https://animefire.plus/img/animes/yuuki-yuuna-wa-yuusha-de-aru.webp",
      "imagem_pasta": "https://animefire.plus/img/animes/yuuki-yuuna-wa-yuusha-de-aru/",
      "secao": "legendados",
      "pagina": 61,
      "total_episodios": 12,
      "link_video": "https://animefire.plus/video/yuuki-yuuna-wa-yuusha-de-aru"
    },
    {
      "id": 4314,
      "nome": "Yuuki Yuuna wa Yuusha de Aru: Dai Mankai no Shou",
      "link": "https://animefire.plus/animes/yuuki-yuuna-wa-yuusha-de-aru-dai-mankai-no-shou-todos-os-episodios",
      "texto_original": "Yuuki Yuuna wa Yuusha de Aru: Dai Mankai no Shou",
      "rating": 7.3,
      "classificacao_etaria": "A14",
      "imagem_original": "https://animefire.plus/img/animes/yuuki-yuuna-wa-yuusha-de-aru-dai-mankai-no-shou.webp",
      "imagem_pasta": "https://animefire.plus/img/animes/yuuki-yuuna-wa-yuusha-de-aru-dai-mankai-no-shou/",
      "secao": "legendados",
      "pagina": 38,
      "total_episodios": 12,
      "link_video": "https://animefire.plus/video/yuuki-yuuna-wa-yuusha-de-aru-dai-mankai-no-shou"
    },
    {
      "id": 4315,
      "nome": "Yuuki Yuuna wa Yuusha de Aru: Washio Sumi no Shou",
      "link": "https://animefire.plus/animes/yuuki-yuuna-wa-yuusha-de-aru-washio-sumi-no-shou-todos-os-episodios",
      "texto_original": "Yuuki Yuuna wa Yuusha de Aru: Washio Sumi no Shou",
      "rating": 7.66,
      "classificacao_etaria": "A14",
      "imagem_original": "https://animefire.plus/img/animes/yuuki-yuuna-wa-yuusha-de-aru-washio-sumi-no-shou.webp",
      "imagem_pasta": "https://animefire.plus/img/animes/yuuki-yuuna-wa-yuusha-de-aru-washio-sumi-no-shou/",
      "secao": "legendados",
      "pagina": 63,
      "total_episodios": 6,
      "link_video": "https://animefire.plus/video/yuuki-yuuna-wa-yuusha-de-aru-washio-sumi-no-shou"
    },
    {
      "id": 4316,
      "nome": "Yuuki Yuuna wa Yuusha de Aru: Yuusha no Shou",
      "link": "https://animefire.plus/animes/yuuki-yuuna-wa-yuusha-de-aru-yuusha-no-shou-todos-os-episodios",
      "texto_original": "Yuuki Yuuna wa Yuusha de Aru: Yuusha no Shou",
      "rating": 7.67,
      "classificacao_etaria": "A14",
      "imagem_original": "https://animefire.plus/img/animes/yuuki-yuuna-wa-yuusha-de-aru-yuusha-no-shou.webp",
      "imagem_pasta": "https://animefire.plus/img/animes/yuuki-yuuna-wa-yuusha-de-aru-yuusha-no-shou/",
      "secao": "legendados",
      "pagina": 63,
      "total_episodios": 6,
      "link_video": "https://animefire.plus/video/yuuki-yuuna-wa-yuusha-de-aru-yuusha-no-shou"
    },
    {
      "id": 4317,
      "nome": "Yuukoku no Moriarty (Dublado)",
      "link": "https://animefire.plus/animes/yuukoku-no-moriarty-dublado-todos-os-episodios",
      "texto_original": "Yuukoku no Moriarty (Dublado)",
      "rating": 8.12,
      "classificacao_etaria": "A16",
      "imagem_original": "https://animefire.plus/img/animes/yuukoku-no-moriarty.webp",
      "imagem_pasta": "https://animefire.plus/img/animes/yuukoku-no-moriarty/",
      "secao": "dublados,legendados",
      "pagina": 13,
      "total_episodios": 11,
      "link_video": "https://animefire.plus/video/yuukoku-no-moriarty-dublado"
    },
    {
      "id": 4320,
      "nome": "Yuusha ga Shinda!",
      "link": "https://animefire.plus/animes/yuusha-ga-shinda-todos-os-episodios",
      "texto_original": "Yuusha ga Shinda!",
      "rating": 6.6,
      "classificacao_etaria": "A14",
      "imagem_original": "https://animefire.plus/img/animes/yuusha-ga-shinda.jpg",
      "imagem_pasta": "https://animefire.plus/img/animes/yuusha-ga-shinda/",
      "secao": "legendados",
      "pagina": 24,
      "total_episodios": 12,
      "link_video": "https://animefire.plus/video/yuusha-ga-shinda"
    },
    {
      "id": 4321,
      "nome": "Yuusha ni Narenakatta Ore wa Shibushibu Shuushoku wo Ketsui Shimashita.",
      "link": "https://animefire.plus/animes/yuusha-ni-narenakatta-ore-wa-shibushibu-shuushoku-wo-ketsui-shimashita-todos-os-episodios",
      "texto_original": "Yuusha ni Narenakatta Ore wa Shibushibu Shuushoku wo Ketsui Shimashita.",
      "rating": 7.01,
      "classificacao_etaria": "A18",
      "imagem_original": "https://animefire.plus/img/animes/yuusha-ni-narenakatta-ore-wa-shibushibu-shuushoku-wo-ketsui-shimashita.webp",
      "imagem_pasta": "https://animefire.plus/img/animes/yuusha-ni-narenakatta-ore-wa-shibushibu-shuushoku-wo-ketsui-shimashita/",
      "secao": "legendados",
      "pagina": 141,
      "total_episodios": 4,
      "link_video": "https://animefire.plus/video/yuusha-ni-narenakatta-ore-wa-shibushibu-shuushoku-wo-ketsui-shimashita"
    }
  ],
  "pagination": {
    "current_page": 108,
    "per_page": 20,
    "total_items": 2189,
    "total_pages": 110,
    "has_next": true,
    "has_prev": true
  }
}
