{
  "message": "Animes com 2 a 12 episódios",
  "episode_range": {
    "min": 2,
    "max": 12
  },
  "data": [
    {
      "id": 2775,
      "nome": "Non Non Biyori",
      "link": "https://animefire.plus/animes/non-non-biyori-todos-os-episodios",
      "texto_original": "Non Non Biyori",
      "rating": 8,
      "classificacao_etaria": "A14",
      "imagem_original": "https://animefire.plus/img/animes/non-non-biyori.webp",
      "imagem_pasta": "https://animefire.plus/img/animes/non-non-biyori/",
      "secao": "legendados",
      "pagina": 132,
      "total_episodios": 12,
      "link_video": "https://animefire.plus/video/non-non-biyori"
    },
    {
      "id": 2776,
      "nome": "Non Non Biyori Movie: Vacation",
      "link": "https://animefire.plus/animes/non-non-biyori-movie-vacation-todos-os-episodios",
      "texto_original": "Non Non Biyori Movie: Vacation",
      "rating": 8.26,
      "classificacao_etaria": "A14",
      "imagem_original": "https://animefire.plus/img/animes/non-non-biyori-movie-vacation.webp",
      "imagem_pasta": "https://animefire.plus/img/animes/non-non-biyori-movie-vacation/",
      "secao": "legendados",
      "pagina": 108,
      "total_episodios": 2,
      "link_video": "https://animefire.plus/video/non-non-biyori-movie-vacation"
    },
    {
      "id": 2777,
      "nome": "Non Non Biyori Nonstop",
      "link": "https://animefire.plus/animes/non-non-biyori-nonstop-todos-os-episodios",
      "texto_original": "Non Non Biyori Nonstop",
      "rating": 8.35,
      "classificacao_etaria": "A14",
      "imagem_original": "https://animefire.plus/img/animes/non-non-biyori-nonstop.webp",
      "imagem_pasta": "https://animefire.plus/img/animes/non-non-biyori-nonstop/",
      "secao": "legendados",
      "pagina": 49,
      "total_episodios": 12,
      "link_video": "https://animefire.plus/video/non-non-biyori-nonstop"
    },
    {
      "id": 2779,
      "nome": "Nora to Oujo to Noraneko Heart",
      "link": "https://animefire.plus/animes/nora-to-oujo-to-noraneko-heart-todos-os-episodios",
      "texto_original": "Nora to Oujo to Noraneko Heart",
      "rating": 5.42,
      "classificacao_etaria": "A14",
      "imagem_original": "https://animefire.plus/img/animes/nora-to-oujo-to-noraneko-heart.webp",
      "imagem_pasta": "https://animefire.plus/img/animes/nora-to-oujo-to-noraneko-heart/",
      "secao": "legendados",
      "pagina": 64,
      "total_episodios": 12,
      "link_video": "https://animefire.plus/video/nora-to-oujo-to-noraneko-heart"
    },
    {
      "id": 2780,
      "nome": "Noragami (Dublado)",
      "link": "https://animefire.plus/animes/noragami-dublado-todos-os-episodios",
      "texto_original": "Noragami (Dublado)",
      "rating": 7.98,
      "classificacao_etaria": "A14",
      "imagem_original": "https://animefire.plus/img/animes/noragami.webp",
      "imagem_pasta": "https://animefire.plus/img/animes/noragami/",
      "secao": "dublados,legendados",
      "pagina": 14,
      "total_episodios": 12,
      "link_video": "https://animefire.plus/video/noragami-dublado"
    },
    {
      "id": 2783,
      "nome": "Noragami OVA",
      "link": "https://animefire.plus/animes/noragami-ova-todos-os-episodios",
      "texto_original": "Noragami OVA",
      "rating": 7.82,
      "classificacao_etaria": "A14",
      "imagem_original": "https://animefire.plus/img/animes/noragami-ova.webp",
      "imagem_pasta": "https://animefire.plus/img/animes/noragami-ova/",
      "secao": "legendados",
      "pagina": 62,
      "total_episodios": 2,
      "link_video": "https://animefire.plus/video/noragami-ova"
    },
    {
      "id": 2785,
      "nome": "Noumin Kanren no Skill bakka Agetetara Nazeka Tsuyoku Natta.",
      "link": "https://animefire.plus/animes/noumin-kanren-no-skill-bakka-agetetara-nazeka-tsuyoku-natta-todos-os-episodios",
      "texto_original": "Noumin Kanren no Skill bakka Agetetara Nazeka Tsuyoku Natta.",
      "rating": 5.96,
      "classificacao_etaria": "A14",
      "imagem_original": "https://animefire.plus/img/animes/noumin-kanren-no-skill-bakka-agetetara-nazeka-tsuyoku-natta.webp",
      "imagem_pasta": "https://animefire.plus/img/animes/noumin-kanren-no-skill-bakka-agetetara-nazeka-tsuyoku-natta/",
      "secao": "legendados",
      "pagina": 29,
      "total_episodios": 12,
      "link_video": "https://animefire.plus/video/noumin-kanren-no-skill-bakka-agetetara-nazeka-tsuyoku-natta"
    },
    {
      "id": 2786,
      "nome": "Nourin",
      "link": "https://animefire.plus/animes/nourin-todos-os-episodios",
      "texto_original": "Nourin",
      "rating": 6.91,
      "classificacao_etaria": "A14",
      "imagem_original": "https://animefire.plus/img/animes/nourin.webp",
      "imagem_pasta": "https://animefire.plus/img/animes/nourin/",
      "secao": "legendados",
      "pagina": 116,
      "total_episodios": 12,
      "link_video": "https://animefire.plus/video/nourin"
    },
    {
      "id": 2787,
      "nome": "Nozo x Kimi",
      "link": "https://animefire.plus/animes/nozo-x-kimi-todos-os-episodios",
      "texto_original": "Nozo x Kimi",
      "rating": 6.49,
      "classificacao_etaria": "A18",
      "imagem_original": "https://animefire.plus/img/animes/nozo-x-kimi.webp",
      "imagem_pasta": "https://animefire.plus/img/animes/nozo-x-kimi/",
      "secao": "legendados",
      "pagina": 61,
      "total_episodios": 3,
      "link_video": "https://animefire.plus/video/nozo-x-kimi"
    },
    {
      "id": 2788,
      "nome": "Nozomanu Fushi no Boukensha",
      "link": "https://animefire.plus/animes/nozomanu-fushi-no-boukensha-todos-os-episodios",
      "texto_original": "Nozomanu Fushi no Boukensha",
      "rating": 7.43,
      "classificacao_etaria": "A14",
      "imagem_original": "https://animefire.plus/img/animes/nozomanu-fushi-no-boukensha.webp",
      "imagem_pasta": "https://animefire.plus/img/animes/nozomanu-fushi-no-boukensha/",
      "secao": "legendados",
      "pagina": 18,
      "total_episodios": 12,
      "link_video": "https://animefire.plus/video/nozomanu-fushi-no-boukensha"
    },
    {
      "id": 2789,
      "nome": "Nu Wushen de Canzhuo",
      "link": "https://animefire.plus/animes/nu-wushen-de-canzhuo-todos-os-episodios",
      "texto_original": "Nu Wushen de Canzhuo",
      "rating": 6.89,
      "classificacao_etaria": "A14",
      "imagem_original": "https://animefire.plus/img/animes/nu-wushen-de-canzhuo.webp",
      "imagem_pasta": "https://animefire.plus/img/animes/nu-wushen-de-canzhuo/",
      "secao": "legendados",
      "pagina": 53,
      "total_episodios": 7,
      "link_video": "https://animefire.plus/video/nu-wushen-de-canzhuo"
    },
    {
      "id": 2794,
      "nome": "Nurarihyon no Mago OVA",
      "link": "https://animefire.plus/animes/nurarihyon-no-mago-ova-todos-os-episodios",
      "texto_original": "Nurarihyon no Mago OVA",
      "rating": 7.76,
      "classificacao_etaria": "A18",
      "imagem_original": "https://animefire.plus/img/animes/nurarihyon-no-mago-ova.webp",
      "imagem_pasta": "https://animefire.plus/img/animes/nurarihyon-no-mago-ova/",
      "secao": "legendados",
      "pagina": 88,
      "total_episodios": 2,
      "link_video": "https://animefire.plus/video/nurarihyon-no-mago-ova"
    },
    {
      "id": 2796,
      "nome": "Nurse Witch Komugi-chan R",
      "link": "https://animefire.plus/animes/nurse-witch-komugi-chan-r-todos-os-episodios",
      "texto_original": "Nurse Witch Komugi-chan R",
      "rating": 5.99,
      "classificacao_etaria": "A14",
      "imagem_original": "https://animefire.plus/img/animes/nurse-witch-komugi-chan-r.webp",
      "imagem_pasta": "https://animefire.plus/img/animes/nurse-witch-komugi-chan-r/",
      "secao": "legendados",
      "pagina": 99,
      "total_episodios": 12,
      "link_video": "https://animefire.plus/video/nurse-witch-komugi-chan-r"
    },
    {
      "id": 2797,
      "nome": "Nyaight of the Living Cat",
      "link": "https://animefire.plus/animes/nyaight-of-the-living-cat-todos-os-episodios",
      "texto_original": "Nyaight of the Living Cat",
      "rating": 6.35,
      "classificacao_etaria": "A14",
      "imagem_original": "https://animefire.plus/img/animes/nyaight-of-the-living-cat.webp",
      "imagem_pasta": "https://animefire.plus/img/animes/nyaight-of-the-living-cat/",
      "secao": "legendados,lancamentos",
      "pagina": 2,
      "total_episodios": 5,
      "link_video": "https://animefire.plus/video/nyaight-of-the-living-cat"
    },
    {
      "id": 2798,
      "nome": "Nyan Koi!",
      "link": "https://animefire.plus/animes/nyan-koi-todos-os-episodios",
      "texto_original": "Nyan Koi!",
      "rating": 7.28,
      "classificacao_etaria": "A14",
      "imagem_original": "https://animefire.plus/img/animes/nyan-koi.webp",
      "imagem_pasta": "https://animefire.plus/img/animes/nyan-koi/",
      "secao": "legendados",
      "pagina": 162,
      "total_episodios": 12,
      "link_video": "https://animefire.plus/video/nyan-koi"
    },
    {
      "id": 2801,
      "nome": "Obey Me!",
      "link": "https://animefire.plus/animes/obey-me-todos-os-episodios",
      "texto_original": "Obey Me!",
      "rating": 7.13,
      "classificacao_etaria": "A14",
      "imagem_original": "https://animefire.plus/img/animes/obey-me.webp",
      "imagem_pasta": "https://animefire.plus/img/animes/obey-me/",
      "secao": "legendados",
      "pagina": 40,
      "total_episodios": 12,
      "link_video": "https://animefire.plus/video/obey-me"
    },
    {
      "id": 2803,
      "nome": "Occultic;Nine",
      "link": "https://animefire.plus/animes/occultic-nine-todos-os-episodios",
      "texto_original": "Occultic;Nine",
      "rating": 6.98,
      "classificacao_etaria": "A14",
      "imagem_original": "https://animefire.plus/img/animes/occultic-nine.webp",
      "imagem_pasta": "https://animefire.plus/img/animes/occultic-nine/",
      "secao": "legendados",
      "pagina": 62,
      "total_episodios": 12,
      "link_video": "https://animefire.plus/video/occultic-nine"
    },
    {
      "id": 2804,
      "nome": "Ochikobore Fruit Tart",
      "link": "https://animefire.plus/animes/ochikobore-fruit-tart-todos-os-episodios",
      "texto_original": "Ochikobore Fruit Tart",
      "rating": null,
      "classificacao_etaria": "A14",
      "imagem_original": "https://animefire.plus/img/animes/ochikobore-fruit-tart.webp",
      "imagem_pasta": "https://animefire.plus/img/animes/ochikobore-fruit-tart/",
      "secao": "legendados",
      "pagina": 51,
      "total_episodios": 12,
      "link_video": "https://animefire.plus/video/ochikobore-fruit-tart"
    },
    {
      "id": 2806,
      "nome": "Oda Nobuna no Yabou",
      "link": "https://animefire.plus/animes/oda-nobuna-no-yabou-todos-os-episodios",
      "texto_original": "Oda Nobuna no Yabou",
      "rating": 7.52,
      "classificacao_etaria": "A14",
      "imagem_original": "https://animefire.plus/img/animes/oda-nobuna-no-yabou.webp",
      "imagem_pasta": "https://animefire.plus/img/animes/oda-nobuna-no-yabou/",
      "secao": "legendados",
      "pagina": 73,
      "total_episodios": 12,
      "link_video": "https://animefire.plus/video/oda-nobuna-no-yabou"
    },
    {
      "id": 2808,
      "nome": "Oemojisangjuui (Dublado)",
      "link": "https://animefire.plus/animes/oemojisangjuui-dublado-todos-os-episodios",
      "texto_original": "Oemojisangjuui (Dublado)",
      "rating": 7.41,
      "classificacao_etaria": "A14",
      "imagem_original": "https://animefire.plus/img/animes/oemojisangjuui.webp",
      "imagem_pasta": "https://animefire.plus/img/animes/oemojisangjuui/",
      "secao": "dublados",
      "pagina": 8,
      "total_episodios": 8,
      "link_video": "https://animefire.plus/video/oemojisangjuui-dublado"
    }
  ],
  "pagination": {
    "current_page": 70,
    "per_page": 20,
    "total_items": 2189,
    "total_pages": 110,
    "has_next": true,
    "has_prev": true
  }
}
