{
  "message": "Animes com 2 a 12 episódios",
  "episode_range": {
    "min": 2,
    "max": 12
  },
  "data": [
    {
      "id": 2474,
      "nome": "Meiji Tokyo Renka",
      "link": "https://animefire.plus/animes/meiji-tokyo-renka-todos-os-episodios",
      "texto_original": "Meiji Tokyo Renka",
      "rating": 6.93,
      "classificacao_etaria": "A14",
      "imagem_original": "https://animefire.plus/img/animes/meiji-tokyo-renka.webp",
      "imagem_pasta": "https://animefire.plus/img/animes/meiji-tokyo-renka/",
      "secao": "legendados",
      "pagina": 100,
      "total_episodios": 12,
      "link_video": "https://animefire.plus/video/meiji-tokyo-renka"
    },
    {
      "id": 2475,
      "nome": "Meikyuu Black Company (Dublado)",
      "link": "https://animefire.plus/animes/meikyuu-black-company-dublado-todos-os-episodios",
      "texto_original": "Meikyuu Black Company (Dublado)",
      "rating": 7.22,
      "classificacao_etaria": "A14",
      "imagem_original": "https://animefire.plus/img/animes/meikyuu-black-company.webp",
      "imagem_pasta": "https://animefire.plus/img/animes/meikyuu-black-company/",
      "secao": "dublados,legendados",
      "pagina": 16,
      "total_episodios": 12,
      "link_video": "https://animefire.plus/video/meikyuu-black-company-dublado"
    },
    {
      "id": 2476,
      "nome": "Meiou Project Zeorymer",
      "link": "https://animefire.plus/animes/meiou-project-zeorymer-todos-os-episodios",
      "texto_original": "Meiou Project Zeorymer",
      "rating": 6.2,
      "classificacao_etaria": "A18",
      "imagem_original": "https://animefire.plus/img/animes/meiou-project-zeorymer.webp",
      "imagem_pasta": "https://animefire.plus/img/animes/meiou-project-zeorymer/",
      "secao": "legendados",
      "pagina": 76,
      "total_episodios": 4,
      "link_video": "https://animefire.plus/video/meiou-project-zeorymer"
    },
    {
      "id": 2477,
      "nome": "Mekakucity Actors",
      "link": "https://animefire.plus/animes/mekakucity-actors-todos-os-episodios",
      "texto_original": "Mekakucity Actors",
      "rating": 7.17,
      "classificacao_etaria": "A14",
      "imagem_original": "https://animefire.plus/img/animes/mekakucity-actors.webp",
      "imagem_pasta": "https://animefire.plus/img/animes/mekakucity-actors/",
      "secao": "legendados",
      "pagina": 148,
      "total_episodios": 12,
      "link_video": "https://animefire.plus/video/mekakucity-actors"
    },
    {
      "id": 2478,
      "nome": "Melty Lancer",
      "link": "https://animefire.plus/animes/melty-lancer-todos-os-episodios",
      "texto_original": "Melty Lancer",
      "rating": 5.96,
      "classificacao_etaria": "A14",
      "imagem_original": "https://animefire.plus/img/animes/melty-lancer.webp",
      "imagem_pasta": "https://animefire.plus/img/animes/melty-lancer/",
      "secao": "legendados",
      "pagina": 66,
      "total_episodios": 6,
      "link_video": "https://animefire.plus/video/melty-lancer"
    },
    {
      "id": 2479,
      "nome": "Meng Qi Shi Shen",
      "link": "https://animefire.plus/animes/meng-qi-shi-shen-todos-os-episodios",
      "texto_original": "Meng Qi Shi Shen",
      "rating": 7.42,
      "classificacao_etaria": "A14",
      "imagem_original": "https://animefire.plus/img/animes/meng-qi-shi-shen.webp",
      "imagem_pasta": "https://animefire.plus/img/animes/meng-qi-shi-shen/",
      "secao": "legendados",
      "pagina": 170,
      "total_episodios": 12,
      "link_video": "https://animefire.plus/video/meng-qi-shi-shen"
    },
    {
      "id": 2480,
      "nome": "Meng Qi Shi Shen: Huanxi Zhui Hun",
      "link": "https://animefire.plus/animes/meng-qi-shi-shen-huanxi-zhui-hun-todos-os-episodios",
      "texto_original": "Meng Qi Shi Shen: Huanxi Zhui Hun",
      "rating": 7.49,
      "classificacao_etaria": "A14",
      "imagem_original": "https://animefire.plus/img/animes/meng-qi-shi-shen-huanxi-zhui-hun.webp",
      "imagem_pasta": "https://animefire.plus/img/animes/meng-qi-shi-shen-huanxi-zhui-hun/",
      "secao": "legendados,lancamentos",
      "pagina": 30,
      "total_episodios": 11,
      "link_video": "https://animefire.plus/video/meng-qi-shi-shen-huanxi-zhui-hun"
    },
    {
      "id": 2481,
      "nome": "Merc Storia: Mukiryoku no Shounen to Bin no Naka no Shoujo",
      "link": "https://animefire.plus/animes/merc-storia-mukiryoku-no-shounen-to-bin-no-naka-no-shoujo-todos-os-episodios",
      "texto_original": "Merc Storia: Mukiryoku no Shounen to Bin no Naka no Shoujo",
      "rating": 6.63,
      "classificacao_etaria": "A14",
      "imagem_original": "https://animefire.plus/img/animes/merc-storia-mukiryoku-no-shounen-to-bin-no-naka-no-shoujo.webp",
      "imagem_pasta": "https://animefire.plus/img/animes/merc-storia-mukiryoku-no-shounen-to-bin-no-naka-no-shoujo/",
      "secao": "legendados",
      "pagina": 158,
      "total_episodios": 12,
      "link_video": "https://animefire.plus/video/merc-storia-mukiryoku-no-shounen-to-bin-no-naka-no-shoujo"
    },
    {
      "id": 2486,
      "nome": "MF Ghost (Dublado)",
      "link": "https://animefire.plus/animes/mf-ghost-dublado-todos-os-episodios",
      "texto_original": "MF Ghost (Dublado)",
      "rating": 7.56,
      "classificacao_etaria": "A14",
      "imagem_original": "https://animefire.plus/img/animes/mf-ghost.webp",
      "imagem_pasta": "https://animefire.plus/img/animes/mf-ghost/",
      "secao": "dublados,legendados",
      "pagina": 5,
      "total_episodios": 12,
      "link_video": "https://animefire.plus/video/mf-ghost-dublado"
    },
    {
      "id": 2487,
      "nome": "MF Ghost 2nd Season",
      "link": "https://animefire.plus/animes/mf-ghost-2nd-season-todos-os-episodios",
      "texto_original": "MF Ghost 2nd Season",
      "rating": 7.8,
      "classificacao_etaria": "A14",
      "imagem_original": "https://animefire.plus/img/animes/mf-ghost-2nd-season.webp",
      "imagem_pasta": "https://animefire.plus/img/animes/mf-ghost-2nd-season/",
      "secao": "legendados",
      "pagina": 9,
      "total_episodios": 12,
      "link_video": "https://animefire.plus/video/mf-ghost-2nd-season"
    },
    {
      "id": 2488,
      "nome": "Mi Yu Xing Zhe",
      "link": "https://animefire.plus/animes/mi-yu-xing-zhe-todos-os-episodios",
      "texto_original": "Mi Yu Xing Zhe",
      "rating": 7.56,
      "classificacao_etaria": "A16",
      "imagem_original": "https://animefire.plus/img/animes/mi-yu-xing-zhe.webp",
      "imagem_pasta": "https://animefire.plus/img/animes/mi-yu-xing-zhe/",
      "secao": "legendados",
      "pagina": 174,
      "total_episodios": 12,
      "link_video": "https://animefire.plus/video/mi-yu-xing-zhe"
    },
    {
      "id": 2495,
      "nome": "Mieruko-chan (Dublado)",
      "link": "https://animefire.plus/animes/mieruko-chan-dublado-todos-os-episodios",
      "texto_original": "Mieruko-chan (Dublado)",
      "rating": 7.4,
      "classificacao_etaria": "A14",
      "imagem_original": "https://animefire.plus/img/animes/mieruko-chan.webp",
      "imagem_pasta": "https://animefire.plus/img/animes/mieruko-chan/",
      "secao": "dublados,legendados",
      "pagina": 14,
      "total_episodios": 12,
      "link_video": "https://animefire.plus/video/mieruko-chan-dublado"
    },
    {
      "id": 2497,
      "nome": "Miira no Kaikata",
      "link": "https://animefire.plus/animes/miira-no-kaikata-todos-os-episodios",
      "texto_original": "Miira no Kaikata",
      "rating": 7.52,
      "classificacao_etaria": "A14",
      "imagem_original": "https://animefire.plus/img/animes/miira-no-kaikata.webp",
      "imagem_pasta": "https://animefire.plus/img/animes/miira-no-kaikata/",
      "secao": "legendados",
      "pagina": 106,
      "total_episodios": 12,
      "link_video": "https://animefire.plus/video/miira-no-kaikata"
    },
    {
      "id": 2498,
      "nome": "Mikadono Sanshimai wa Angai, Choroi.",
      "link": "https://animefire.plus/animes/mikadono-sanshimai-wa-angai-choroi-todos-os-episodios",
      "texto_original": "Mikadono Sanshimai wa Angai, Choroi.",
      "rating": 7.58,
      "classificacao_etaria": "A14",
      "imagem_original": "https://animefire.plus/img/animes/mikadono-sanshimai-wa-angai-choroi.webp",
      "imagem_pasta": "https://animefire.plus/img/animes/mikadono-sanshimai-wa-angai-choroi/",
      "secao": "legendados,lancamentos",
      "pagina": 2,
      "total_episodios": 5,
      "link_video": "https://animefire.plus/video/mikadono-sanshimai-wa-angai-choroi"
    },
    {
      "id": 2499,
      "nome": "Mikagura Gakuen Kumikyoku",
      "link": "https://animefire.plus/animes/mikagura-gakuen-kumikyoku-todos-os-episodios",
      "texto_original": "Mikagura Gakuen Kumikyoku",
      "rating": 6.7,
      "classificacao_etaria": "A14",
      "imagem_original": "https://animefire.plus/img/animes/mikagura-gakuen-kumikyoku.webp",
      "imagem_pasta": "https://animefire.plus/img/animes/mikagura-gakuen-kumikyoku/",
      "secao": "legendados",
      "pagina": 61,
      "total_episodios": 2,
      "link_video": "https://animefire.plus/video/mikagura-gakuen-kumikyoku"
    },
    {
      "id": 2501,
      "nome": "Mikakunin de Shinkoukei",
      "link": "https://animefire.plus/animes/mikakunin-de-shinkoukei-todos-os-episodios",
      "texto_original": "Mikakunin de Shinkoukei",
      "rating": 7.52,
      "classificacao_etaria": "A14",
      "imagem_original": "https://animefire.plus/img/animes/mikakunin-de-shinkoukei.webp",
      "imagem_pasta": "https://animefire.plus/img/animes/mikakunin-de-shinkoukei/",
      "secao": "legendados",
      "pagina": 167,
      "total_episodios": 12,
      "link_video": "https://animefire.plus/video/mikakunin-de-shinkoukei"
    },
    {
      "id": 2503,
      "nome": "Military!",
      "link": "https://animefire.plus/animes/military-todos-os-episodios",
      "texto_original": "Military!",
      "rating": 5.84,
      "classificacao_etaria": "A14",
      "imagem_original": "https://animefire.plus/img/animes/military.webp",
      "imagem_pasta": "https://animefire.plus/img/animes/military/",
      "secao": "legendados",
      "pagina": 64,
      "total_episodios": 12,
      "link_video": "https://animefire.plus/video/military"
    },
    {
      "id": 2505,
      "nome": "Min Diao Ju Yi Wen Lu",
      "link": "https://animefire.plus/animes/min-diao-ju-yi-wen-lu-todos-os-episodios",
      "texto_original": "Min Diao Ju Yi Wen Lu",
      "rating": 6.68,
      "classificacao_etaria": "A16",
      "imagem_original": "https://animefire.plus/img/animes/min-diao-ju-yi-wen-lu.webp",
      "imagem_pasta": "https://animefire.plus/img/animes/min-diao-ju-yi-wen-lu/",
      "secao": "legendados",
      "pagina": 43,
      "total_episodios": 5,
      "link_video": "https://animefire.plus/video/min-diao-ju-yi-wen-lu"
    },
    {
      "id": 2506,
      "nome": "Minami Kamakura Koukou Joshi Jitenshabu",
      "link": "https://animefire.plus/animes/minami-kamakura-koukou-joshi-jitenshabu-todos-os-episodios",
      "texto_original": "Minami Kamakura Koukou Joshi Jitenshabu",
      "rating": 6.26,
      "classificacao_etaria": "A14",
      "imagem_original": "https://animefire.plus/img/animes/minami-kamakura-koukou-joshi-jitenshabu.webp",
      "imagem_pasta": "https://animefire.plus/img/animes/minami-kamakura-koukou-joshi-jitenshabu/",
      "secao": "legendados",
      "pagina": 44,
      "total_episodios": 12,
      "link_video": "https://animefire.plus/video/minami-kamakura-koukou-joshi-jitenshabu"
    },
    {
      "id": 2515,
      "nome": "Mini Sengoku Basara Two: Tsukiyo no Katakura-kun",
      "link": "https://animefire.plus/animes/mini-sengoku-basara-two-tsukiyo-no-katakura-kun-todos-os-episodios",
      "texto_original": "Mini Sengoku Basara Two: Tsukiyo no Katakura-kun",
      "rating": 6.81,
      "classificacao_etaria": null,
      "imagem_original": "https://animefire.plus/img/animes/mini-sengoku-basara-two-tsukiyo-no-katakura-kun.webp",
      "imagem_pasta": "https://animefire.plus/img/animes/mini-sengoku-basara-two-tsukiyo-no-katakura-kun/",
      "secao": "legendados",
      "pagina": 70,
      "total_episodios": 7,
      "link_video": "https://animefire.plus/video/mini-sengoku-basara-two-tsukiyo-no-katakura-kun"
    }
  ],
  "pagination": {
    "current_page": 63,
    "per_page": 20,
    "total_items": 2189,
    "total_pages": 110,
    "has_next": true,
    "has_prev": true
  }
}
