{
  "message": "Animes com 2 a 12 episódios",
  "episode_range": {
    "min": 2,
    "max": 12
  },
  "data": [
    {
      "id": 3906,
      "nome": "Tonari no Seki-kun Specials",
      "link": "https://animefire.plus/animes/tonari-no-seki-kun-specials-todos-os-episodios",
      "texto_original": "Tonari no Seki-kun Specials",
      "rating": 7.49,
      "classificacao_etaria": null,
      "imagem_original": "https://animefire.plus/img/animes/tonari-no-seki-kun-specials.webp",
      "imagem_pasta": "https://animefire.plus/img/animes/tonari-no-seki-kun-specials/",
      "secao": "legendados",
      "pagina": 67,
      "total_episodios": 2,
      "link_video": "https://animefire.plus/video/tonari-no-seki-kun-specials"
    },
    {
      "id": 3908,
      "nome": "Tondemo Skill de Isekai Hourou Meshi",
      "link": "https://animefire.plus/animes/tondemo-skill-de-isekai-hourou-meshi-todos-os-episodios",
      "texto_original": "Tondemo Skill de Isekai Hourou Meshi",
      "rating": 7.64,
      "classificacao_etaria": "A14",
      "imagem_original": "https://animefire.plus/img/animes/tondemo-skill-de-isekai-hourou-meshi.webp",
      "imagem_pasta": "https://animefire.plus/img/animes/tondemo-skill-de-isekai-hourou-meshi/",
      "secao": "legendados",
      "pagina": 26,
      "total_episodios": 12,
      "link_video": "https://animefire.plus/video/tondemo-skill-de-isekai-hourou-meshi"
    },
    {
      "id": 3910,
      "nome": "Tong Zhi Zhe",
      "link": "https://animefire.plus/animes/tong-zhi-zhe-todos-os-episodios",
      "texto_original": "Tong Zhi Zhe",
      "rating": 6.64,
      "classificacao_etaria": "A16",
      "imagem_original": "https://animefire.plus/img/animes/tong-zhi-zhe.webp",
      "imagem_pasta": "https://animefire.plus/img/animes/tong-zhi-zhe/",
      "secao": "legendados",
      "pagina": 160,
      "total_episodios": 10,
      "link_video": "https://animefire.plus/video/tong-zhi-zhe"
    },
    {
      "id": 3911,
      "nome": "Tonikaku Kawaii (Dublado)",
      "link": "https://animefire.plus/animes/tonikaku-kawaii-dublado-todos-os-episodios",
      "texto_original": "Tonikaku Kawaii (Dublado)",
      "rating": 7.96,
      "classificacao_etaria": "A14",
      "imagem_original": "https://animefire.plus/img/animes/tonikaku-kawaii.webp",
      "imagem_pasta": "https://animefire.plus/img/animes/tonikaku-kawaii/",
      "secao": "dublados,legendados,lancamentos",
      "pagina": 19,
      "total_episodios": 11,
      "link_video": "https://animefire.plus/video/tonikaku-kawaii-dublado"
    },
    {
      "id": 3912,
      "nome": "Tonikaku Kawaii 2nd Season (Dublado)",
      "link": "https://animefire.plus/animes/tonikaku-kawaii-2nd-season-dublado-todos-os-episodios",
      "texto_original": "Tonikaku Kawaii 2nd Season (Dublado)",
      "rating": 7.62,
      "classificacao_etaria": "A14",
      "imagem_original": "https://animefire.plus/img/animes/tonikaku-kawaii-2nd-season.webp",
      "imagem_pasta": "https://animefire.plus/img/animes/tonikaku-kawaii-2nd-season/",
      "secao": "dublados,legendados",
      "pagina": 7,
      "total_episodios": 12,
      "link_video": "https://animefire.plus/video/tonikaku-kawaii-2nd-season-dublado"
    },
    {
      "id": 3913,
      "nome": "Tonikaku Kawaii: Joshikou-hen (Dublado)",
      "link": "https://animefire.plus/animes/tonikaku-kawaii-joshikou-hen-dublado-todos-os-episodios",
      "texto_original": "Tonikaku Kawaii: Joshikou-hen (Dublado)",
      "rating": 7.76,
      "classificacao_etaria": "A14",
      "imagem_original": "https://animefire.plus/img/animes/tonikaku-kawaii-joshikou-hen.webp",
      "imagem_pasta": "https://animefire.plus/img/animes/tonikaku-kawaii-joshikou-hen/",
      "secao": "dublados,legendados",
      "pagina": 7,
      "total_episodios": 4,
      "link_video": "https://animefire.plus/video/tonikaku-kawaii-joshikou-hen-dublado"
    },
    {
      "id": 3916,
      "nome": "Top wo Nerae 2! Diebuster",
      "link": "https://animefire.plus/animes/top-wo-nerae-2-diebuster-todos-os-episodios",
      "texto_original": "Top wo Nerae 2! Diebuster",
      "rating": 7.66,
      "classificacao_etaria": "A18",
      "imagem_original": "https://animefire.plus/img/animes/top-wo-nerae-2-diebuster.webp",
      "imagem_pasta": "https://animefire.plus/img/animes/top-wo-nerae-2-diebuster/",
      "secao": "legendados",
      "pagina": 41,
      "total_episodios": 6,
      "link_video": "https://animefire.plus/video/top-wo-nerae-2-diebuster"
    },
    {
      "id": 3920,
      "nome": "Toradora!: SOS! Kuishinbou Banbanzai",
      "link": "https://animefire.plus/animes/toradora-sos-kuishinbou-banbanzai-todos-os-episodios",
      "texto_original": "Toradora!: SOS! Kuishinbou Banbanzai",
      "rating": 6.38,
      "classificacao_etaria": "A14",
      "imagem_original": "https://animefire.plus/img/animes/toradora-sos-kuishinbou-banbanzai.webp",
      "imagem_pasta": "https://animefire.plus/img/animes/toradora-sos-kuishinbou-banbanzai/",
      "secao": "legendados",
      "pagina": 71,
      "total_episodios": 4,
      "link_video": "https://animefire.plus/video/toradora-sos-kuishinbou-banbanzai"
    },
    {
      "id": 3922,
      "nome": "Toshokan Sensou",
      "link": "https://animefire.plus/animes/toshokan-sensou-todos-os-episodios",
      "texto_original": "Toshokan Sensou",
      "rating": 7.54,
      "classificacao_etaria": "A14",
      "imagem_original": "https://animefire.plus/img/animes/toshokan-sensou.webp",
      "imagem_pasta": "https://animefire.plus/img/animes/toshokan-sensou/",
      "secao": "legendados",
      "pagina": 102,
      "total_episodios": 12,
      "link_video": "https://animefire.plus/video/toshokan-sensou"
    },
    {
      "id": 3924,
      "nome": "Tougen Anki (Dublado)",
      "link": "https://animefire.plus/animes/tougen-anki-dublado-todos-os-episodios",
      "texto_original": "Tougen Anki (Dublado)",
      "rating": 7.04,
      "classificacao_etaria": "A14",
      "imagem_original": "https://animefire.plus/img/animes/tougen-anki.webp",
      "imagem_pasta": "https://animefire.plus/img/animes/tougen-anki/",
      "secao": "dublados,legendados,lancamentos",
      "pagina": 1,
      "total_episodios": 4,
      "link_video": "https://animefire.plus/video/tougen-anki-dublado"
    },
    {
      "id": 3926,
      "nome": "Touhai: Ura Rate Mahjong Touhai Roku",
      "link": "https://animefire.plus/animes/touhai-ura-rate-mahjong-touhai-roku-todos-os-episodios",
      "texto_original": "Touhai: Ura Rate Mahjong Touhai Roku",
      "rating": 6.62,
      "classificacao_etaria": "A14",
      "imagem_original": "https://animefire.plus/img/animes/touhai-ura-rate-mahjong-touhai-roku.webp",
      "imagem_pasta": "https://animefire.plus/img/animes/touhai-ura-rate-mahjong-touhai-roku/",
      "secao": "legendados,lancamentos",
      "pagina": 10,
      "total_episodios": 5,
      "link_video": "https://animefire.plus/video/touhai-ura-rate-mahjong-touhai-roku"
    },
    {
      "id": 3928,
      "nome": "Touken Ranbu Kai: Kyoden Moyuru Honnouji",
      "link": "https://animefire.plus/animes/touken-ranbu-kai-kyoden-moyuru-honnouji-todos-os-episodios",
      "texto_original": "Touken Ranbu Kai: Kyoden Moyuru Honnouji",
      "rating": 6.09,
      "classificacao_etaria": "A14",
      "imagem_original": "https://animefire.plus/img/animes/touken-ranbu-kai-kyoden-moyuru-honnouji.webp",
      "imagem_pasta": "https://animefire.plus/img/animes/touken-ranbu-kai-kyoden-moyuru-honnouji/",
      "secao": "legendados",
      "pagina": 14,
      "total_episodios": 8,
      "link_video": "https://animefire.plus/video/touken-ranbu-kai-kyoden-moyuru-honnouji"
    },
    {
      "id": 3929,
      "nome": "Touken Ranbu: Hanamaru",
      "link": "https://animefire.plus/animes/touken-ranbu-hanamaru-todos-os-episodios",
      "texto_original": "Touken Ranbu: Hanamaru",
      "rating": 6.89,
      "classificacao_etaria": "A14",
      "imagem_original": "https://animefire.plus/img/animes/touken-ranbu-hanamaru.webp",
      "imagem_pasta": "https://animefire.plus/img/animes/touken-ranbu-hanamaru/",
      "secao": "legendados",
      "pagina": 106,
      "total_episodios": 12,
      "link_video": "https://animefire.plus/video/touken-ranbu-hanamaru"
    },
    {
      "id": 3930,
      "nome": "Toutotsu ni Egypt Kami",
      "link": "https://animefire.plus/animes/toutotsu-ni-egypt-kami-todos-os-episodios",
      "texto_original": "Toutotsu ni Egypt Kami",
      "rating": null,
      "classificacao_etaria": null,
      "imagem_original": "https://animefire.plus/img/animes/toutotsu-ni-egypt-kami.webp",
      "imagem_pasta": "https://animefire.plus/img/animes/toutotsu-ni-egypt-kami/",
      "secao": "legendados",
      "pagina": 50,
      "total_episodios": 10,
      "link_video": "https://animefire.plus/video/toutotsu-ni-egypt-kami"
    },
    {
      "id": 3931,
      "nome": "Toutotsu ni Egypt Shin 2",
      "link": "https://animefire.plus/animes/toutotsu-ni-egypt-shin-2-todos-os-episodios",
      "texto_original": "Toutotsu ni Egypt Shin 2",
      "rating": 6.62,
      "classificacao_etaria": null,
      "imagem_original": "https://animefire.plus/img/animes/toutotsu-ni-egypt-shin-2.webp",
      "imagem_pasta": "https://animefire.plus/img/animes/toutotsu-ni-egypt-shin-2/",
      "secao": "legendados,lancamentos",
      "pagina": 25,
      "total_episodios": 5,
      "link_video": "https://animefire.plus/video/toutotsu-ni-egypt-shin-2"
    },
    {
      "id": 3933,
      "nome": "Tribe Nine (Dublado)",
      "link": "https://animefire.plus/animes/tribe-nine-dublado-todos-os-episodios",
      "texto_original": "Tribe Nine (Dublado)",
      "rating": 6.08,
      "classificacao_etaria": "A16",
      "imagem_original": "https://animefire.plus/img/animes/tribe-nine.webp",
      "imagem_pasta": "https://animefire.plus/img/animes/tribe-nine/",
      "secao": "dublados,legendados",
      "pagina": 12,
      "total_episodios": 12,
      "link_video": "https://animefire.plus/video/tribe-nine-dublado"
    },
    {
      "id": 3934,
      "nome": "Trickster: Edogawa Ranpo \"Shounen Tanteidan\" yori",
      "link": "https://animefire.plus/animes/trickster-edogawa-ranpo-shounen-tanteidan-yori-todos-os-episodios",
      "texto_original": "Trickster: Edogawa Ranpo \"Shounen Tanteidan\" yori",
      "rating": 6.29,
      "classificacao_etaria": "A14",
      "imagem_original": "https://animefire.plus/img/animes/trickster-edogawa-ranpo-shounen-tanteidan-yori.webp",
      "imagem_pasta": "https://animefire.plus/img/animes/trickster-edogawa-ranpo-shounen-tanteidan-yori/",
      "secao": "legendados",
      "pagina": 167,
      "total_episodios": 7,
      "link_video": "https://animefire.plus/video/trickster-edogawa-ranpo-shounen-tanteidan-yori"
    },
    {
      "id": 3936,
      "nome": "Trigun Stampede (Dublado)",
      "link": "https://animefire.plus/animes/trigun-stampede-dublado-todos-os-episodios",
      "texto_original": "Trigun Stampede (Dublado)",
      "rating": 7.83,
      "classificacao_etaria": "A14",
      "imagem_original": "https://animefire.plus/img/animes/trigun-stampede.webp",
      "imagem_pasta": "https://animefire.plus/img/animes/trigun-stampede/",
      "secao": "dublados,legendados",
      "pagina": 7,
      "total_episodios": 12,
      "link_video": "https://animefire.plus/video/trigun-stampede-dublado"
    },
    {
      "id": 3938,
      "nome": "Trinity Seven",
      "link": "https://animefire.plus/animes/trinity-seven-todos-os-episodios",
      "texto_original": "Trinity Seven",
      "rating": 7.37,
      "classificacao_etaria": "A14",
      "imagem_original": "https://animefire.plus/img/animes/trinity-seven.webp",
      "imagem_pasta": "https://animefire.plus/img/animes/trinity-seven/",
      "secao": "legendados",
      "pagina": 100,
      "total_episodios": 12,
      "link_video": "https://animefire.plus/video/trinity-seven"
    },
    {
      "id": 3945,
      "nome": "Tsue to Tsurugi no Wistoria",
      "link": "https://animefire.plus/animes/tsue-to-tsurugi-no-wistoria-todos-os-episodios",
      "texto_original": "Tsue to Tsurugi no Wistoria",
      "rating": 7.87,
      "classificacao_etaria": "A14",
      "imagem_original": "https://animefire.plus/img/animes/tsue-to-tsurugi-no-wistoria.webp",
      "imagem_pasta": "https://animefire.plus/img/animes/tsue-to-tsurugi-no-wistoria/",
      "secao": "legendados",
      "pagina": 13,
      "total_episodios": 12,
      "link_video": "https://animefire.plus/video/tsue-to-tsurugi-no-wistoria"
    }
  ],
  "pagination": {
    "current_page": 99,
    "per_page": 20,
    "total_items": 2189,
    "total_pages": 110,
    "has_next": true,
    "has_prev": true
  }
}
