{
  "message": "Animes com 2 a 12 episódios",
  "episode_range": {
    "min": 2,
    "max": 12
  },
  "data": [
    {
      "id": 2516,
      "nome": "Mini Toji",
      "link": "https://animefire.plus/animes/mini-toji-todos-os-episodios",
      "texto_original": "Mini Toji",
      "rating": 6.14,
      "classificacao_etaria": null,
      "imagem_original": "https://animefire.plus/img/animes/mini-toji.webp",
      "imagem_pasta": "https://animefire.plus/img/animes/mini-toji/",
      "secao": "legendados",
      "pagina": 105,
      "total_episodios": 10,
      "link_video": "https://animefire.plus/video/mini-toji"
    },
    {
      "id": 2517,
      "nome": "Mini Yuri",
      "link": "https://animefire.plus/animes/mini-yuri-todos-os-episodios",
      "texto_original": "Mini Yuri",
      "rating": 6.74,
      "classificacao_etaria": "A14",
      "imagem_original": "https://animefire.plus/img/animes/mini-yuri.webp",
      "imagem_pasta": "https://animefire.plus/img/animes/mini-yuri/",
      "secao": "legendados",
      "pagina": 84,
      "total_episodios": 4,
      "link_video": "https://animefire.plus/video/mini-yuri"
    },
    {
      "id": 2521,
      "nome": "Mirai no Mirai",
      "link": "https://animefire.plus/animes/mirai-no-mirai-todos-os-episodios",
      "texto_original": "Mirai no Mirai",
      "rating": 7.45,
      "classificacao_etaria": null,
      "imagem_original": "https://animefire.plus/img/animes/mirai-no-mirai.webp",
      "imagem_pasta": "https://animefire.plus/img/animes/mirai-no-mirai/",
      "secao": "legendados",
      "pagina": 96,
      "total_episodios": 3,
      "link_video": "https://animefire.plus/video/mirai-no-mirai"
    },
    {
      "id": 2525,
      "nome": "Mission-E",
      "link": "https://animefire.plus/animes/mission-e-todos-os-episodios",
      "texto_original": "Mission-E",
      "rating": 6.54,
      "classificacao_etaria": "A10",
      "imagem_original": "https://animefire.plus/img/animes/mission-e.webp",
      "imagem_pasta": "https://animefire.plus/img/animes/mission-e/",
      "secao": "legendados",
      "pagina": 118,
      "total_episodios": 12,
      "link_video": "https://animefire.plus/video/mission-e"
    },
    {
      "id": 2527,
      "nome": "Mitsuboshi Colors",
      "link": "https://animefire.plus/animes/mitsuboshi-colors-todos-os-episodios",
      "texto_original": "Mitsuboshi Colors",
      "rating": 7.49,
      "classificacao_etaria": "A14",
      "imagem_original": "https://animefire.plus/img/animes/mitsuboshi-colors.webp",
      "imagem_pasta": "https://animefire.plus/img/animes/mitsuboshi-colors/",
      "secao": "legendados",
      "pagina": 161,
      "total_episodios": 12,
      "link_video": "https://animefire.plus/video/mitsuboshi-colors"
    },
    {
      "id": 2529,
      "nome": "Mitsudomoe Zouryouchuu!",
      "link": "https://animefire.plus/animes/mitsudomoe-zouryouchuu-todos-os-episodios",
      "texto_original": "Mitsudomoe Zouryouchuu!",
      "rating": 7.77,
      "classificacao_etaria": "A14",
      "imagem_original": "https://animefire.plus/img/animes/mitsudomoe-zouryouchuu.webp",
      "imagem_pasta": "https://animefire.plus/img/animes/mitsudomoe-zouryouchuu/",
      "secao": "legendados",
      "pagina": 176,
      "total_episodios": 8,
      "link_video": "https://animefire.plus/video/mitsudomoe-zouryouchuu"
    },
    {
      "id": 2533,
      "nome": "Mizu Zokusei no Mahoutsukai",
      "link": "https://animefire.plus/animes/mizu-zokusei-no-mahoutsukai-todos-os-episodios",
      "texto_original": "Mizu Zokusei no Mahoutsukai",
      "rating": 7.21,
      "classificacao_etaria": "A14",
      "imagem_original": "https://animefire.plus/img/animes/mizu-zokusei-no-mahoutsukai.webp",
      "imagem_pasta": "https://animefire.plus/img/animes/mizu-zokusei-no-mahoutsukai/",
      "secao": "legendados,lancamentos",
      "pagina": 2,
      "total_episodios": 5,
      "link_video": "https://animefire.plus/video/mizu-zokusei-no-mahoutsukai"
    },
    {
      "id": 2534,
      "nome": "Mizuiro (2003)",
      "link": "https://animefire.plus/animes/mizuiro-2003-todos-os-episodios",
      "texto_original": "Mizuiro (2003)",
      "rating": 6.39,
      "classificacao_etaria": "A14",
      "imagem_original": "https://animefire.plus/img/animes/mizuiro-2003.webp",
      "imagem_pasta": "https://animefire.plus/img/animes/mizuiro-2003/",
      "secao": "legendados",
      "pagina": 44,
      "total_episodios": 2,
      "link_video": "https://animefire.plus/video/mizuiro-2003"
    },
    {
      "id": 2535,
      "nome": "Mnemosyne: Mnemosyne no Musume-tachi",
      "link": "https://animefire.plus/animes/mnemosyne-mnemosyne-no-musume-tachi-todos-os-episodios",
      "texto_original": "Mnemosyne: Mnemosyne no Musume-tachi",
      "rating": 7.4,
      "classificacao_etaria": "A18",
      "imagem_original": "https://animefire.plus/img/animes/mnemosyne-mnemosyne-no-musume-tachi.webp",
      "imagem_pasta": "https://animefire.plus/img/animes/mnemosyne-mnemosyne-no-musume-tachi/",
      "secao": "legendados",
      "pagina": 119,
      "total_episodios": 4,
      "link_video": "https://animefire.plus/video/mnemosyne-mnemosyne-no-musume-tachi"
    },
    {
      "id": 2537,
      "nome": "Mo Dao Zu Shi 2nd Season",
      "link": "https://animefire.plus/animes/mo-dao-zu-shi-2nd-season-todos-os-episodios",
      "texto_original": "Mo Dao Zu Shi 2nd Season",
      "rating": 8.41,
      "classificacao_etaria": "A16",
      "imagem_original": "https://animefire.plus/img/animes/mo-dao-zu-shi-2nd-season.webp",
      "imagem_pasta": "https://animefire.plus/img/animes/mo-dao-zu-shi-2nd-season/",
      "secao": "legendados",
      "pagina": 51,
      "total_episodios": 8,
      "link_video": "https://animefire.plus/video/mo-dao-zu-shi-2nd-season"
    },
    {
      "id": 2538,
      "nome": "Mob kara Hajimaru Tansaku Eiyuutan",
      "link": "https://animefire.plus/animes/mob-kara-hajimaru-tansaku-eiyuutan-todos-os-episodios",
      "texto_original": "Mob kara Hajimaru Tansaku Eiyuutan",
      "rating": 5.82,
      "classificacao_etaria": "A14",
      "imagem_original": "https://animefire.plus/img/animes/mob-kara-hajimaru-tansaku-eiyuutan.webp",
      "imagem_pasta": "https://animefire.plus/img/animes/mob-kara-hajimaru-tansaku-eiyuutan/",
      "secao": "legendados",
      "pagina": 12,
      "total_episodios": 12,
      "link_video": "https://animefire.plus/video/mob-kara-hajimaru-tansaku-eiyuutan"
    },
    {
      "id": 2541,
      "nome": "Mob Psycho 100 III (Dublado)",
      "link": "https://animefire.plus/animes/mob-psycho-100-iii-dublado-todos-os-episodios",
      "texto_original": "Mob Psycho 100 III (Dublado)",
      "rating": 8.71,
      "classificacao_etaria": "A14",
      "imagem_original": "https://animefire.plus/img/animes/mob-psycho-100-iii.webp",
      "imagem_pasta": "https://animefire.plus/img/animes/mob-psycho-100-iii/",
      "secao": "dublados,legendados",
      "pagina": 9,
      "total_episodios": 12,
      "link_video": "https://animefire.plus/video/mob-psycho-100-iii-dublado"
    },
    {
      "id": 2550,
      "nome": "Mobile Suit Gundam Thunderbolt 2nd Season",
      "link": "https://animefire.plus/animes/mobile-suit-gundam-thunderbolt-2nd-season-todos-os-episodios",
      "texto_original": "Mobile Suit Gundam Thunderbolt 2nd Season",
      "rating": 7.28,
      "classificacao_etaria": "A16",
      "imagem_original": "https://animefire.plus/img/animes/mobile-suit-gundam-thunderbolt-2nd-season.webp",
      "imagem_pasta": "https://animefire.plus/img/animes/mobile-suit-gundam-thunderbolt-2nd-season/",
      "secao": "legendados",
      "pagina": 55,
      "total_episodios": 4,
      "link_video": "https://animefire.plus/video/mobile-suit-gundam-thunderbolt-2nd-season"
    },
    {
      "id": 2551,
      "nome": "Mobile Suit Gundam Unicorn RE:0096",
      "link": "https://animefire.plus/animes/mobile-suit-gundam-unicorn-re-0096-todos-os-episodios",
      "texto_original": "Mobile Suit Gundam Unicorn RE:0096",
      "rating": 7.59,
      "classificacao_etaria": "A14",
      "imagem_original": "https://animefire.plus/img/animes/mobile-suit-gundam-unicorn-re-0096.webp",
      "imagem_pasta": "https://animefire.plus/img/animes/mobile-suit-gundam-unicorn-re-0096/",
      "secao": "legendados",
      "pagina": 170,
      "total_episodios": 2,
      "link_video": "https://animefire.plus/video/mobile-suit-gundam-unicorn-re-0096"
    },
    {
      "id": 2552,
      "nome": "Mobile Suit Gundam Wing (Dublado)",
      "link": "https://animefire.plus/animes/mobile-suit-gundam-wing-dublado-todos-os-episodios",
      "texto_original": "Mobile Suit Gundam Wing (Dublado)",
      "rating": 7.81,
      "classificacao_etaria": "A14",
      "imagem_original": "https://animefire.plus/img/animes/mobile-suit-gundam-wing.webp",
      "imagem_pasta": "https://animefire.plus/img/animes/mobile-suit-gundam-wing/",
      "secao": "dublados",
      "pagina": 27,
      "total_episodios": 12,
      "link_video": "https://animefire.plus/video/mobile-suit-gundam-wing-dublado"
    },
    {
      "id": 2554,
      "nome": "Mobile Suit Gundam: Iron-Blooded Orphans",
      "link": "https://animefire.plus/animes/mobile-suit-gundam-iron-blooded-orphans-todos-os-episodios",
      "texto_original": "Mobile Suit Gundam: Iron-Blooded Orphans",
      "rating": 8.03,
      "classificacao_etaria": "A16",
      "imagem_original": "https://animefire.plus/img/animes/mobile-suit-gundam-iron-blooded-orphans.webp",
      "imagem_pasta": "https://animefire.plus/img/animes/mobile-suit-gundam-iron-blooded-orphans/",
      "secao": "legendados",
      "pagina": 121,
      "total_episodios": 2,
      "link_video": "https://animefire.plus/video/mobile-suit-gundam-iron-blooded-orphans"
    },
    {
      "id": 2556,
      "nome": "Mobile Suit Gundam: The 08th MS Team",
      "link": "https://animefire.plus/animes/mobile-suit-gundam-the-08th-ms-team-todos-os-episodios",
      "texto_original": "Mobile Suit Gundam: The 08th MS Team",
      "rating": 8.03,
      "classificacao_etaria": "A14",
      "imagem_original": "https://animefire.plus/img/animes/mobile-suit-gundam-the-08th-ms-team.webp",
      "imagem_pasta": "https://animefire.plus/img/animes/mobile-suit-gundam-the-08th-ms-team/",
      "secao": "legendados",
      "pagina": 55,
      "total_episodios": 12,
      "link_video": "https://animefire.plus/video/mobile-suit-gundam-the-08th-ms-team"
    },
    {
      "id": 2557,
      "nome": "Mobile Suit Gundam: The Origin",
      "link": "https://animefire.plus/animes/mobile-suit-gundam-the-origin-todos-os-episodios",
      "texto_original": "Mobile Suit Gundam: The Origin",
      "rating": 8.33,
      "classificacao_etaria": "A18",
      "imagem_original": "https://animefire.plus/img/animes/mobile-suit-gundam-the-origin.webp",
      "imagem_pasta": "https://animefire.plus/img/animes/mobile-suit-gundam-the-origin/",
      "secao": "legendados",
      "pagina": 178,
      "total_episodios": 5,
      "link_video": "https://animefire.plus/video/mobile-suit-gundam-the-origin"
    },
    {
      "id": 2558,
      "nome": "Mobile Suit Gundam: The Witch from Mercury",
      "link": "https://animefire.plus/animes/mobile-suit-gundam-the-witch-from-mercury-todos-os-episodios",
      "texto_original": "Mobile Suit Gundam: The Witch from Mercury",
      "rating": 7.85,
      "classificacao_etaria": "A16",
      "imagem_original": "https://animefire.plus/img/animes/mobile-suit-gundam-the-witch-from-mercury.webp",
      "imagem_pasta": "https://animefire.plus/img/animes/mobile-suit-gundam-the-witch-from-mercury/",
      "secao": "legendados",
      "pagina": 29,
      "total_episodios": 12,
      "link_video": "https://animefire.plus/video/mobile-suit-gundam-the-witch-from-mercury"
    },
    {
      "id": 2559,
      "nome": "Mobile Suit Gundam: Twilight Axis",
      "link": "https://animefire.plus/animes/mobile-suit-gundam-twilight-axis-todos-os-episodios",
      "texto_original": "Mobile Suit Gundam: Twilight Axis",
      "rating": 5.02,
      "classificacao_etaria": "A14",
      "imagem_original": "https://animefire.plus/img/animes/mobile-suit-gundam-twilight-axis.webp",
      "imagem_pasta": "https://animefire.plus/img/animes/mobile-suit-gundam-twilight-axis/",
      "secao": "legendados",
      "pagina": 149,
      "total_episodios": 9,
      "link_video": "https://animefire.plus/video/mobile-suit-gundam-twilight-axis"
    }
  ],
  "pagination": {
    "current_page": 64,
    "per_page": 20,
    "total_items": 2189,
    "total_pages": 110,
    "has_next": true,
    "has_prev": true
  }
}
