{
  "message": "Animes com 2 a 12 episódios",
  "episode_range": {
    "min": 2,
    "max": 12
  },
  "data": [
    {
      "id": 3701,
      "nome": "Sword Gai: The Animation Part II",
      "link": "https://animefire.plus/animes/sword-gai-the-animation-part-ii-todos-os-episodios",
      "texto_original": "Sword Gai: The Animation Part II",
      "rating": 6.07,
      "classificacao_etaria": "A16",
      "imagem_original": "https://animefire.plus/img/animes/sword-gai-the-animation-part-ii.webp",
      "imagem_pasta": "https://animefire.plus/img/animes/sword-gai-the-animation-part-ii/",
      "secao": "legendados",
      "pagina": 124,
      "total_episodios": 12,
      "link_video": "https://animefire.plus/video/sword-gai-the-animation-part-ii"
    },
    {
      "id": 3702,
      "nome": "Synduality: Noir",
      "link": "https://animefire.plus/animes/synduality-noir-todos-os-episodios",
      "texto_original": "Synduality: Noir",
      "rating": 6.81,
      "classificacao_etaria": "A14",
      "imagem_original": "https://animefire.plus/img/animes/synduality-noir.webp",
      "imagem_pasta": "https://animefire.plus/img/animes/synduality-noir/",
      "secao": "legendados,lancamentos",
      "pagina": 22,
      "total_episodios": 11,
      "link_video": "https://animefire.plus/video/synduality-noir"
    },
    {
      "id": 3703,
      "nome": "Synduality: Noir Part 2",
      "link": "https://animefire.plus/animes/synduality-noir-part-2-todos-os-episodios",
      "texto_original": "Synduality: Noir Part 2",
      "rating": 7.06,
      "classificacao_etaria": "A14",
      "imagem_original": "https://animefire.plus/img/animes/synduality-noir-part-2.webp",
      "imagem_pasta": "https://animefire.plus/img/animes/synduality-noir-part-2/",
      "secao": "legendados",
      "pagina": 16,
      "total_episodios": 12,
      "link_video": "https://animefire.plus/video/synduality-noir-part-2"
    },
    {
      "id": 3704,
      "nome": "Taboo Tattoo",
      "link": "https://animefire.plus/animes/taboo-tattoo-todos-os-episodios",
      "texto_original": "Taboo Tattoo",
      "rating": 5.93,
      "classificacao_etaria": "A16",
      "imagem_original": "https://animefire.plus/img/animes/taboo-tattoo.webp",
      "imagem_pasta": "https://animefire.plus/img/animes/taboo-tattoo/",
      "secao": "legendados",
      "pagina": 104,
      "total_episodios": 12,
      "link_video": "https://animefire.plus/video/taboo-tattoo"
    },
    {
      "id": 3705,
      "nome": "Tachibanakan Triangle",
      "link": "https://animefire.plus/animes/tachibanakan-triangle-todos-os-episodios",
      "texto_original": "Tachibanakan Triangle",
      "rating": 5.63,
      "classificacao_etaria": "A18",
      "imagem_original": "https://animefire.plus/img/animes/tachibanakan-triangle.webp",
      "imagem_pasta": "https://animefire.plus/img/animes/tachibanakan-triangle/",
      "secao": "legendados",
      "pagina": 156,
      "total_episodios": 12,
      "link_video": "https://animefire.plus/video/tachibanakan-triangle"
    },
    {
      "id": 3709,
      "nome": "Tadaima, Okaeri",
      "link": "https://animefire.plus/animes/tadaima-okaeri-todos-os-episodios",
      "texto_original": "Tadaima, Okaeri",
      "rating": 7.74,
      "classificacao_etaria": "A14",
      "imagem_original": "https://animefire.plus/img/animes/tadaima-okaeri.webp",
      "imagem_pasta": "https://animefire.plus/img/animes/tadaima-okaeri/",
      "secao": "legendados",
      "pagina": 14,
      "total_episodios": 12,
      "link_video": "https://animefire.plus/video/tadaima-okaeri"
    },
    {
      "id": 3710,
      "nome": "Taiho Shichau zo",
      "link": "https://animefire.plus/animes/taiho-shichau-zo-todos-os-episodios",
      "texto_original": "Taiho Shichau zo",
      "rating": 7.46,
      "classificacao_etaria": "A14",
      "imagem_original": "https://animefire.plus/img/animes/taiho-shichau-zo.webp",
      "imagem_pasta": "https://animefire.plus/img/animes/taiho-shichau-zo/",
      "secao": "legendados",
      "pagina": 42,
      "total_episodios": 4,
      "link_video": "https://animefire.plus/video/taiho-shichau-zo"
    },
    {
      "id": 3713,
      "nome": "Taimadou Gakuen 35 Shiken Shoutai",
      "link": "https://animefire.plus/animes/taimadou-gakuen-35-shiken-shoutai-todos-os-episodios",
      "texto_original": "Taimadou Gakuen 35 Shiken Shoutai",
      "rating": 7.03,
      "classificacao_etaria": "A16",
      "imagem_original": "https://animefire.plus/img/animes/taimadou-gakuen-35-shiken-shoutai.webp",
      "imagem_pasta": "https://animefire.plus/img/animes/taimadou-gakuen-35-shiken-shoutai/",
      "secao": "legendados",
      "pagina": 144,
      "total_episodios": 12,
      "link_video": "https://animefire.plus/video/taimadou-gakuen-35-shiken-shoutai"
    },
    {
      "id": 3714,
      "nome": "Taishou Mebiusline: Chicchai-san",
      "link": "https://animefire.plus/animes/taishou-mebiusline-chicchai-san-todos-os-episodios",
      "texto_original": "Taishou Mebiusline: Chicchai-san",
      "rating": 4.74,
      "classificacao_etaria": "A14",
      "imagem_original": "https://animefire.plus/img/animes/taishou-mebiusline-chicchai-san.webp",
      "imagem_pasta": "https://animefire.plus/img/animes/taishou-mebiusline-chicchai-san/",
      "secao": "legendados",
      "pagina": 63,
      "total_episodios": 11,
      "link_video": "https://animefire.plus/video/taishou-mebiusline-chicchai-san"
    },
    {
      "id": 3715,
      "nome": "Taishou Otome Otogibanashi",
      "link": "https://animefire.plus/animes/taishou-otome-otogibanashi-todos-os-episodios",
      "texto_original": "Taishou Otome Otogibanashi",
      "rating": 7.79,
      "classificacao_etaria": "A14",
      "imagem_original": "https://animefire.plus/img/animes/taishou-otome-otogibanashi.webp",
      "imagem_pasta": "https://animefire.plus/img/animes/taishou-otome-otogibanashi/",
      "secao": "legendados",
      "pagina": 38,
      "total_episodios": 12,
      "link_video": "https://animefire.plus/video/taishou-otome-otogibanashi"
    },
    {
      "id": 3716,
      "nome": "Taishou Yakyuu Musume.",
      "link": "https://animefire.plus/animes/taishou-yakyuu-musume-todos-os-episodios",
      "texto_original": "Taishou Yakyuu Musume.",
      "rating": 7.38,
      "classificacao_etaria": "A14",
      "imagem_original": "https://animefire.plus/img/animes/taishou-yakyuu-musume.webp",
      "imagem_pasta": "https://animefire.plus/img/animes/taishou-yakyuu-musume/",
      "secao": "legendados",
      "pagina": 146,
      "total_episodios": 12,
      "link_video": "https://animefire.plus/video/taishou-yakyuu-musume"
    },
    {
      "id": 3717,
      "nome": "Taisou Zamurai",
      "link": "https://animefire.plus/animes/taisou-zamurai-todos-os-episodios",
      "texto_original": "Taisou Zamurai",
      "rating": null,
      "classificacao_etaria": "A14",
      "imagem_original": "https://animefire.plus/img/animes/taisou-zamurai.webp",
      "imagem_pasta": "https://animefire.plus/img/animes/taisou-zamurai/",
      "secao": "legendados",
      "pagina": 51,
      "total_episodios": 11,
      "link_video": "https://animefire.plus/video/taisou-zamurai"
    },
    {
      "id": 3720,
      "nome": "Takopii no Genzai",
      "link": "https://animefire.plus/animes/takopii-no-genzai-todos-os-episodios",
      "texto_original": "Takopii no Genzai",
      "rating": 8.99,
      "classificacao_etaria": "A14",
      "imagem_original": "https://animefire.plus/img/animes/takopii-no-genzai.webp",
      "imagem_pasta": "https://animefire.plus/img/animes/takopii-no-genzai/",
      "secao": "legendados,lancamentos",
      "pagina": 1,
      "total_episodios": 6,
      "link_video": "https://animefire.plus/video/takopii-no-genzai"
    },
    {
      "id": 3721,
      "nome": "Takt Op. Destiny (Dublado)",
      "link": "https://animefire.plus/animes/takt-op-destiny-dublado-todos-os-episodios",
      "texto_original": "Takt Op. Destiny (Dublado)",
      "rating": 7.16,
      "classificacao_etaria": "A14",
      "imagem_original": "https://animefire.plus/img/animes/takt-op-destiny.webp",
      "imagem_pasta": "https://animefire.plus/img/animes/takt-op-destiny/",
      "secao": "dublados,legendados",
      "pagina": 10,
      "total_episodios": 12,
      "link_video": "https://animefire.plus/video/takt-op-destiny-dublado"
    },
    {
      "id": 3722,
      "nome": "Takunomi.",
      "link": "https://animefire.plus/animes/takunomi-todos-os-episodios",
      "texto_original": "Takunomi.",
      "rating": 6.44,
      "classificacao_etaria": "A14",
      "imagem_original": "https://animefire.plus/img/animes/takunomi.webp",
      "imagem_pasta": "https://animefire.plus/img/animes/takunomi/",
      "secao": "legendados",
      "pagina": 140,
      "total_episodios": 9,
      "link_video": "https://animefire.plus/video/takunomi"
    },
    {
      "id": 3724,
      "nome": "Tales of Gekijou",
      "link": "https://animefire.plus/animes/tales-of-gekijou-todos-os-episodios",
      "texto_original": "Tales of Gekijou",
      "rating": 6.65,
      "classificacao_etaria": null,
      "imagem_original": "https://animefire.plus/img/animes/tales-of-gekijou.webp",
      "imagem_pasta": "https://animefire.plus/img/animes/tales-of-gekijou/",
      "secao": "legendados",
      "pagina": 70,
      "total_episodios": 5,
      "link_video": "https://animefire.plus/video/tales-of-gekijou"
    },
    {
      "id": 3725,
      "nome": "Tales of Luminaria: The Fateful Crossroad",
      "link": "https://animefire.plus/animes/tales-of-luminaria-the-fateful-crossroad-todos-os-episodios",
      "texto_original": "Tales of Luminaria: The Fateful Crossroad",
      "rating": 6.16,
      "classificacao_etaria": "A14",
      "imagem_original": "https://animefire.plus/img/animes/tales-of-luminaria-the-fateful-crossroad.webp",
      "imagem_pasta": "https://animefire.plus/img/animes/tales-of-luminaria-the-fateful-crossroad/",
      "secao": "legendados",
      "pagina": 35,
      "total_episodios": 2,
      "link_video": "https://animefire.plus/video/tales-of-luminaria-the-fateful-crossroad"
    },
    {
      "id": 3726,
      "nome": "Tales of Phantasia The Animation",
      "link": "https://animefire.plus/animes/tales-of-phantasia-the-animation-todos-os-episodios",
      "texto_original": "Tales of Phantasia The Animation",
      "rating": 6.84,
      "classificacao_etaria": "A14",
      "imagem_original": "https://animefire.plus/img/animes/tales-of-phantasia-the-animation.webp",
      "imagem_pasta": "https://animefire.plus/img/animes/tales-of-phantasia-the-animation/",
      "secao": "legendados",
      "pagina": 69,
      "total_episodios": 4,
      "link_video": "https://animefire.plus/video/tales-of-phantasia-the-animation"
    },
    {
      "id": 3727,
      "nome": "Tales Of Symphonia The Animation: Tethe'alla-hen",
      "link": "https://animefire.plus/animes/tales-of-symphonia-the-animation-tethe-alla-hen-todos-os-episodios",
      "texto_original": "Tales Of Symphonia The Animation: Tethe'alla-hen",
      "rating": 7.56,
      "classificacao_etaria": "A14",
      "imagem_original": "https://animefire.plus/img/animes/tales-of-symphonia-the-animation-tethe-alla-hen.webp",
      "imagem_pasta": "https://animefire.plus/img/animes/tales-of-symphonia-the-animation-tethe-alla-hen/",
      "secao": "legendados",
      "pagina": 99,
      "total_episodios": 4,
      "link_video": "https://animefire.plus/video/tales-of-symphonia-the-animation-tethe-alla-hen"
    },
    {
      "id": 3729,
      "nome": "Tales of Zestiria the Cross",
      "link": "https://animefire.plus/animes/tales-of-zestiria-the-cross-todos-os-episodios",
      "texto_original": "Tales of Zestiria the Cross",
      "rating": 7.39,
      "classificacao_etaria": "A14",
      "imagem_original": "https://animefire.plus/img/animes/tales-of-zestiria-the-cross.webp",
      "imagem_pasta": "https://animefire.plus/img/animes/tales-of-zestiria-the-cross/",
      "secao": "legendados",
      "pagina": 81,
      "total_episodios": 12,
      "link_video": "https://animefire.plus/video/tales-of-zestiria-the-cross"
    }
  ],
  "pagination": {
    "current_page": 94,
    "per_page": 20,
    "total_items": 2189,
    "total_pages": 110,
    "has_next": true,
    "has_prev": true
  }
}
