{
  "message": "Animes com 2 a 12 episódios",
  "episode_range": {
    "min": 2,
    "max": 12
  },
  "data": [
    {
      "id": 2692,
      "nome": "Natsume Yuujinchou Shichi",
      "link": "https://animefire.plus/animes/natsume-yuujinchou-shichi-todos-os-episodios",
      "texto_original": "Natsume Yuujinchou Shichi",
      "rating": 8.57,
      "classificacao_etaria": "A14",
      "imagem_original": "https://animefire.plus/img/animes/natsume-yuujinchou-shichi.webp",
      "imagem_pasta": "https://animefire.plus/img/animes/natsume-yuujinchou-shichi/",
      "secao": "legendados",
      "pagina": 10,
      "total_episodios": 12,
      "link_video": "https://animefire.plus/video/natsume-yuujinchou-shichi"
    },
    {
      "id": 2698,
      "nome": "Naze Boku no Sekai wo Daremo Oboeteinai no ka?",
      "link": "https://animefire.plus/animes/naze-boku-no-sekai-wo-daremo-oboeteinai-no-ka-todos-os-episodios",
      "texto_original": "Naze Boku no Sekai wo Daremo Oboeteinai no ka?",
      "rating": 6.23,
      "classificacao_etaria": "A14",
      "imagem_original": "https://animefire.plus/img/animes/naze-boku-no-sekai-wo-daremo-oboeteinai-no-ka.webp",
      "imagem_pasta": "https://animefire.plus/img/animes/naze-boku-no-sekai-wo-daremo-oboeteinai-no-ka/",
      "secao": "legendados",
      "pagina": 13,
      "total_episodios": 12,
      "link_video": "https://animefire.plus/video/naze-boku-no-sekai-wo-daremo-oboeteinai-no-ka"
    },
    {
      "id": 2700,
      "nome": "Nazotoki wa Dinner no Ato de (Dublado)",
      "link": "https://animefire.plus/animes/nazotoki-wa-dinner-no-ato-de-dublado-todos-os-episodios",
      "texto_original": "Nazotoki wa Dinner no Ato de (Dublado)",
      "rating": 6.48,
      "classificacao_etaria": "A14",
      "imagem_original": "https://animefire.plus/img/animes/nazotoki-wa-dinner-no-ato-de.webp",
      "imagem_pasta": "https://animefire.plus/img/animes/nazotoki-wa-dinner-no-ato-de/",
      "secao": "dublados,legendados",
      "pagina": 1,
      "total_episodios": 12,
      "link_video": "https://animefire.plus/video/nazotoki-wa-dinner-no-ato-de-dublado"
    },
    {
      "id": 2701,
      "nome": "Nazotokine",
      "link": "https://animefire.plus/animes/nazotokine-todos-os-episodios",
      "texto_original": "Nazotokine",
      "rating": 4.9,
      "classificacao_etaria": "A14",
      "imagem_original": "https://animefire.plus/img/animes/nazotokine.webp",
      "imagem_pasta": "https://animefire.plus/img/animes/nazotokine/",
      "secao": "legendados",
      "pagina": 168,
      "total_episodios": 3,
      "link_video": "https://animefire.plus/video/nazotokine"
    },
    {
      "id": 2702,
      "nome": "Necronomico no Cosmic Horror Show",
      "link": "https://animefire.plus/animes/necronomico-no-cosmic-horror-show-todos-os-episodios",
      "texto_original": "Necronomico no Cosmic Horror Show",
      "rating": 5.5,
      "classificacao_etaria": "A14",
      "imagem_original": "https://animefire.plus/img/animes/necronomico-no-cosmic-horror-show.webp",
      "imagem_pasta": "https://animefire.plus/img/animes/necronomico-no-cosmic-horror-show/",
      "secao": "legendados,lancamentos",
      "pagina": 1,
      "total_episodios": 5,
      "link_video": "https://animefire.plus/video/necronomico-no-cosmic-horror-show"
    },
    {
      "id": 2705,
      "nome": "NegaPosi Angler",
      "link": "https://animefire.plus/animes/negaposi-angler-todos-os-episodios",
      "texto_original": "NegaPosi Angler",
      "rating": 7.37,
      "classificacao_etaria": "A14",
      "imagem_original": "https://animefire.plus/img/animes/negaposi-angler.webp",
      "imagem_pasta": "https://animefire.plus/img/animes/negaposi-angler/",
      "secao": "legendados",
      "pagina": 10,
      "total_episodios": 12,
      "link_video": "https://animefire.plus/video/negaposi-angler"
    },
    {
      "id": 2709,
      "nome": "Nekogami Yaoyorozu",
      "link": "https://animefire.plus/animes/nekogami-yaoyorozu-todos-os-episodios",
      "texto_original": "Nekogami Yaoyorozu",
      "rating": 6.68,
      "classificacao_etaria": "A14",
      "imagem_original": "https://animefire.plus/img/animes/nekogami-yaoyorozu.webp",
      "imagem_pasta": "https://animefire.plus/img/animes/nekogami-yaoyorozu/",
      "secao": "legendados",
      "pagina": 112,
      "total_episodios": 12,
      "link_video": "https://animefire.plus/video/nekogami-yaoyorozu"
    },
    {
      "id": 2711,
      "nome": "Nekomonogatari: Kuro",
      "link": "https://animefire.plus/animes/nekomonogatari-kuro-todos-os-episodios",
      "texto_original": "Nekomonogatari: Kuro",
      "rating": 8.03,
      "classificacao_etaria": "A16",
      "imagem_original": "https://animefire.plus/img/animes/nekomonogatari-kuro.webp",
      "imagem_pasta": "https://animefire.plus/img/animes/nekomonogatari-kuro/",
      "secao": "legendados",
      "pagina": 148,
      "total_episodios": 4,
      "link_video": "https://animefire.plus/video/nekomonogatari-kuro"
    },
    {
      "id": 2712,
      "nome": "Nekopara",
      "link": "https://animefire.plus/animes/nekopara-todos-os-episodios",
      "texto_original": "Nekopara",
      "rating": 6.76,
      "classificacao_etaria": "A14",
      "imagem_original": "https://animefire.plus/img/animes/nekopara.webp",
      "imagem_pasta": "https://animefire.plus/img/animes/nekopara/",
      "secao": "legendados",
      "pagina": 93,
      "total_episodios": 2,
      "link_video": "https://animefire.plus/video/nekopara"
    },
    {
      "id": 2717,
      "nome": "Net-juu no Susume (Dublado)",
      "link": "https://animefire.plus/animes/net-juu-no-susume-dublado-todos-os-episodios",
      "texto_original": "Net-juu no Susume (Dublado)",
      "rating": 7.76,
      "classificacao_etaria": "A14",
      "imagem_original": "https://animefire.plus/img/animes/net-juu-no-susume.webp",
      "imagem_pasta": "https://animefire.plus/img/animes/net-juu-no-susume/",
      "secao": "dublados,legendados",
      "pagina": 26,
      "total_episodios": 11,
      "link_video": "https://animefire.plus/video/net-juu-no-susume-dublado"
    },
    {
      "id": 2719,
      "nome": "Netoge no Yome wa Onnanoko ja Nai to Omotta?",
      "link": "https://animefire.plus/animes/netoge-no-yome-wa-onnanoko-ja-nai-to-omotta-todos-os-episodios",
      "texto_original": "Netoge no Yome wa Onnanoko ja Nai to Omotta?",
      "rating": 7.02,
      "classificacao_etaria": "A14",
      "imagem_original": "https://animefire.plus/img/animes/netoge-no-yome-wa-onnanoko-ja-nai-to-omotta.webp",
      "imagem_pasta": "https://animefire.plus/img/animes/netoge-no-yome-wa-onnanoko-ja-nai-to-omotta/",
      "secao": "legendados",
      "pagina": 147,
      "total_episodios": 5,
      "link_video": "https://animefire.plus/video/netoge-no-yome-wa-onnanoko-ja-nai-to-omotta"
    },
    {
      "id": 2720,
      "nome": "Netsuzou TRap",
      "link": "https://animefire.plus/animes/netsuzou-trap-todos-os-episodios",
      "texto_original": "Netsuzou TRap",
      "rating": 5.42,
      "classificacao_etaria": "A18",
      "imagem_original": "https://animefire.plus/img/animes/netsuzou-trap.webp",
      "imagem_pasta": "https://animefire.plus/img/animes/netsuzou-trap/",
      "secao": "legendados",
      "pagina": 62,
      "total_episodios": 12,
      "link_video": "https://animefire.plus/video/netsuzou-trap"
    },
    {
      "id": 2721,
      "nome": "New Game!",
      "link": "https://animefire.plus/animes/new-game-todos-os-episodios",
      "texto_original": "New Game!",
      "rating": 7.66,
      "classificacao_etaria": "A14",
      "imagem_original": "https://animefire.plus/img/animes/new-game.webp",
      "imagem_pasta": "https://animefire.plus/img/animes/new-game/",
      "secao": "legendados",
      "pagina": 57,
      "total_episodios": 12,
      "link_video": "https://animefire.plus/video/new-game"
    },
    {
      "id": 2722,
      "nome": "New Panty & Stocking with Garterbelt",
      "link": "https://animefire.plus/animes/new-panty-stocking-with-garterbelt-todos-os-episodios",
      "texto_original": "New Panty & Stocking with Garterbelt",
      "rating": 7.35,
      "classificacao_etaria": "A16",
      "imagem_original": "https://animefire.plus/img/animes/new-panty-stocking-with-garterbelt.webp",
      "imagem_pasta": "https://animefire.plus/img/animes/new-panty-stocking-with-garterbelt/",
      "secao": "legendados,lancamentos",
      "pagina": 1,
      "total_episodios": 4,
      "link_video": "https://animefire.plus/video/new-panty-stocking-with-garterbelt"
    },
    {
      "id": 2724,
      "nome": "Ni Zhuan Ci Yuan: AI Jue Qi",
      "link": "https://animefire.plus/animes/ni-zhuan-ci-yuan-ai-jue-qi-todos-os-episodios",
      "texto_original": "Ni Zhuan Ci Yuan: AI Jue Qi",
      "rating": null,
      "classificacao_etaria": "A14",
      "imagem_original": "https://animefire.plus/img/animes/ni-zhuan-ci-yuan-ai-jue-qi.webp",
      "imagem_pasta": "https://animefire.plus/img/animes/ni-zhuan-ci-yuan-ai-jue-qi/",
      "secao": "legendados",
      "pagina": 80,
      "total_episodios": 12,
      "link_video": "https://animefire.plus/video/ni-zhuan-ci-yuan-ai-jue-qi"
    },
    {
      "id": 2727,
      "nome": "NieR:Automata Ver1.1a (Dublado)",
      "link": "https://animefire.plus/animes/nier-automata-ver1-1a-dublado-todos-os-episodios",
      "texto_original": "NieR:Automata Ver1.1a (Dublado)",
      "rating": 7.51,
      "classificacao_etaria": "A14",
      "imagem_original": "https://animefire.plus/img/animes/nier-automata-ver1-1a.webp",
      "imagem_pasta": "https://animefire.plus/img/animes/nier-automata-ver1-1a/",
      "secao": "dublados,legendados",
      "pagina": 7,
      "total_episodios": 12,
      "link_video": "https://animefire.plus/video/nier-automata-ver1-1a-dublado"
    },
    {
      "id": 2728,
      "nome": "NieR:Automata Ver1.1a Part 2",
      "link": "https://animefire.plus/animes/nier-automata-ver1-1a-part-2-todos-os-episodios",
      "texto_original": "NieR:Automata Ver1.1a Part 2",
      "rating": 8.05,
      "classificacao_etaria": "A14",
      "imagem_original": "https://animefire.plus/img/animes/nier-automata-ver1-1a-part-2.webp",
      "imagem_pasta": "https://animefire.plus/img/animes/nier-automata-ver1-1a-part-2/",
      "secao": "legendados",
      "pagina": 12,
      "total_episodios": 12,
      "link_video": "https://animefire.plus/video/nier-automata-ver1-1a-part-2"
    },
    {
      "id": 2729,
      "nome": "Nige Jouzu no Wakagimi",
      "link": "https://animefire.plus/animes/nige-jouzu-no-wakagimi-todos-os-episodios",
      "texto_original": "Nige Jouzu no Wakagimi",
      "rating": 7.8,
      "classificacao_etaria": "A16",
      "imagem_original": "https://animefire.plus/img/animes/nige-jouzu-no-wakagimi.webp",
      "imagem_pasta": "https://animefire.plus/img/animes/nige-jouzu-no-wakagimi/",
      "secao": "legendados",
      "pagina": 13,
      "total_episodios": 12,
      "link_video": "https://animefire.plus/video/nige-jouzu-no-wakagimi"
    },
    {
      "id": 2730,
      "nome": "Night Head 2041",
      "link": "https://animefire.plus/animes/night-head-2041-todos-os-episodios",
      "texto_original": "Night Head 2041",
      "rating": 6.5,
      "classificacao_etaria": "A16",
      "imagem_original": "https://animefire.plus/img/animes/night-head-2041.webp",
      "imagem_pasta": "https://animefire.plus/img/animes/night-head-2041/",
      "secao": "legendados",
      "pagina": 40,
      "total_episodios": 12,
      "link_video": "https://animefire.plus/video/night-head-2041"
    },
    {
      "id": 2732,
      "nome": "Night Walker: Mayonaka no Tantei",
      "link": "https://animefire.plus/animes/night-walker-mayonaka-no-tantei-todos-os-episodios",
      "texto_original": "Night Walker: Mayonaka no Tantei",
      "rating": 7.03,
      "classificacao_etaria": "A18",
      "imagem_original": "https://animefire.plus/img/animes/night-walker-mayonaka-no-tantei.webp",
      "imagem_pasta": "https://animefire.plus/img/animes/night-walker-mayonaka-no-tantei/",
      "secao": "legendados",
      "pagina": 138,
      "total_episodios": 12,
      "link_video": "https://animefire.plus/video/night-walker-mayonaka-no-tantei"
    }
  ],
  "pagination": {
    "current_page": 68,
    "per_page": 20,
    "total_items": 2189,
    "total_pages": 110,
    "has_next": true,
    "has_prev": true
  }
}
