{
  "message": "Animes com 2 a 12 episódios",
  "episode_range": {
    "min": 2,
    "max": 12
  },
  "data": [
    {
      "id": 127,
      "nome": "Akikan!",
      "link": "https://animefire.plus/animes/akikan-todos-os-episodios",
      "texto_original": "Akikan!",
      "rating": 6.29,
      "classificacao_etaria": "A14",
      "imagem_original": "https://animefire.plus/img/animes/akikan.webp",
      "imagem_pasta": "https://animefire.plus/img/animes/akikan/",
      "secao": "legendados",
      "pagina": 169,
      "total_episodios": 9,
      "link_video": "https://animefire.plus/video/akikan"
    },
    {
      "id": 130,
      "nome": "Akudama Drive (Dublado)",
      "link": "https://animefire.plus/animes/akudama-drive-dublado-todos-os-episodios",
      "texto_original": "Akudama Drive (Dublado)",
      "rating": 7.65,
      "classificacao_etaria": "A16",
      "imagem_original": "https://animefire.plus/img/animes/akudama-drive.webp",
      "imagem_pasta": "https://animefire.plus/img/animes/akudama-drive/",
      "secao": "dublados,legendados",
      "pagina": 14,
      "total_episodios": 12,
      "link_video": "https://animefire.plus/video/akudama-drive-dublado"
    },
    {
      "id": 132,
      "nome": "Akuma no Riddle",
      "link": "https://animefire.plus/animes/akuma-no-riddle-todos-os-episodios",
      "texto_original": "Akuma no Riddle",
      "rating": 6.74,
      "classificacao_etaria": "A16",
      "imagem_original": "https://animefire.plus/img/animes/akuma-no-riddle.webp",
      "imagem_pasta": "https://animefire.plus/img/animes/akuma-no-riddle/",
      "secao": "legendados",
      "pagina": 170,
      "total_episodios": 3,
      "link_video": "https://animefire.plus/video/akuma-no-riddle"
    },
    {
      "id": 133,
      "nome": "Akuma-kun (ONA) (Dublado)",
      "link": "https://animefire.plus/animes/akuma-kun-ona-dublado-todos-os-episodios",
      "texto_original": "Akuma-kun (ONA) (Dublado)",
      "rating": 6.7,
      "classificacao_etaria": "A16",
      "imagem_original": "https://animefire.plus/img/animes/akuma-kun-ona.webp",
      "imagem_pasta": "https://animefire.plus/img/animes/akuma-kun-ona/",
      "secao": "dublados,legendados",
      "pagina": 4,
      "total_episodios": 12,
      "link_video": "https://animefire.plus/video/akuma-kun-ona-dublado"
    },
    {
      "id": 134,
      "nome": "Akuyaku Reijou Level 99: Watashi wa Ura-Boss desu ga Maou dewa Arimasen",
      "link": "https://animefire.plus/animes/akuyaku-reijou-level-99-watashi-wa-ura-boss-desu-ga-maou-dewa-arimasen-todos-os-episodios",
      "texto_original": "Akuyaku Reijou Level 99: Watashi wa Ura-Boss desu ga Maou dewa Arimasen",
      "rating": 7.13,
      "classificacao_etaria": "A14",
      "imagem_original": "https://animefire.plus/img/animes/akuyaku-reijou-level-99-watashi-wa-ura-boss-desu-ga-maou-dewa-arimasen.webp",
      "imagem_pasta": "https://animefire.plus/img/animes/akuyaku-reijou-level-99-watashi-wa-ura-boss-desu-ga-maou-dewa-arimasen/",
      "secao": "legendados",
      "pagina": 17,
      "total_episodios": 12,
      "link_video": "https://animefire.plus/video/akuyaku-reijou-level-99-watashi-wa-ura-boss-desu-ga-maou-dewa-arimasen"
    },
    {
      "id": 135,
      "nome": "Akuyaku Reijou nanode Last Boss wo Kattemimashita (Dublado)",
      "link": "https://animefire.plus/animes/akuyaku-reijou-nanode-last-boss-wo-kattemimashita-dublado-todos-os-episodios",
      "texto_original": "Akuyaku Reijou nanode Last Boss wo Kattemimashita (Dublado)",
      "rating": 7.2,
      "classificacao_etaria": "A14",
      "imagem_original": "https://animefire.plus/img/animes/akuyaku-reijou-nanode-last-boss-wo-kattemimashita.webp",
      "imagem_pasta": "https://animefire.plus/img/animes/akuyaku-reijou-nanode-last-boss-wo-kattemimashita/",
      "secao": "dublados,legendados",
      "pagina": 9,
      "total_episodios": 12,
      "link_video": "https://animefire.plus/video/akuyaku-reijou-nanode-last-boss-wo-kattemimashita-dublado"
    },
    {
      "id": 136,
      "nome": "Akuyaku Reijou Tensei Ojisan",
      "link": "https://animefire.plus/animes/akuyaku-reijou-tensei-ojisan-todos-os-episodios",
      "texto_original": "Akuyaku Reijou Tensei Ojisan",
      "rating": 7.38,
      "classificacao_etaria": "A14",
      "imagem_original": "https://animefire.plus/img/animes/akuyaku-reijou-tensei-ojisan.webp",
      "imagem_pasta": "https://animefire.plus/img/animes/akuyaku-reijou-tensei-ojisan/",
      "secao": "legendados",
      "pagina": 7,
      "total_episodios": 12,
      "link_video": "https://animefire.plus/video/akuyaku-reijou-tensei-ojisan"
    },
    {
      "id": 137,
      "nome": "Aldnoah.Zero",
      "link": "https://animefire.plus/animes/aldnoah-zero-todos-os-episodios",
      "texto_original": "Aldnoah.Zero",
      "rating": 7.53,
      "classificacao_etaria": "A16",
      "imagem_original": "https://animefire.plus/img/animes/aldnoah-zero.webp",
      "imagem_pasta": "https://animefire.plus/img/animes/aldnoah-zero/",
      "secao": "legendados",
      "pagina": 170,
      "total_episodios": 12,
      "link_video": "https://animefire.plus/video/aldnoah-zero"
    },
    {
      "id": 139,
      "nome": "Alice Gear Aegis Expansion",
      "link": "https://animefire.plus/animes/alice-gear-aegis-expansion-todos-os-episodios",
      "texto_original": "Alice Gear Aegis Expansion",
      "rating": 5.72,
      "classificacao_etaria": "A14",
      "imagem_original": "https://animefire.plus/img/animes/alice-gear-aegis-expansion.jpg",
      "imagem_pasta": "https://animefire.plus/img/animes/alice-gear-aegis-expansion/",
      "secao": "legendados",
      "pagina": 24,
      "total_episodios": 12,
      "link_video": "https://animefire.plus/video/alice-gear-aegis-expansion"
    },
    {
      "id": 141,
      "nome": "Alice or Alice: Siscon Niisan to Futago no Imouto",
      "link": "https://animefire.plus/animes/alice-or-alice-siscon-niisan-to-futago-no-imouto-todos-os-episodios",
      "texto_original": "Alice or Alice: Siscon Niisan to Futago no Imouto",
      "rating": 5.4,
      "classificacao_etaria": "A14",
      "imagem_original": "https://animefire.plus/img/animes/alice-or-alice-siscon-niisan-to-futago-no-imouto.webp",
      "imagem_pasta": "https://animefire.plus/img/animes/alice-or-alice-siscon-niisan-to-futago-no-imouto/",
      "secao": "legendados",
      "pagina": 116,
      "total_episodios": 11,
      "link_video": "https://animefire.plus/video/alice-or-alice-siscon-niisan-to-futago-no-imouto"
    },
    {
      "id": 142,
      "nome": "Alice to Zouroku",
      "link": "https://animefire.plus/animes/alice-to-zouroku-todos-os-episodios",
      "texto_original": "Alice to Zouroku",
      "rating": 7.18,
      "classificacao_etaria": "A14",
      "imagem_original": "https://animefire.plus/img/animes/alice-to-zouroku.webp",
      "imagem_pasta": "https://animefire.plus/img/animes/alice-to-zouroku/",
      "secao": "legendados",
      "pagina": 139,
      "total_episodios": 12,
      "link_video": "https://animefire.plus/video/alice-to-zouroku"
    },
    {
      "id": 143,
      "nome": "Alien 9",
      "link": "https://animefire.plus/animes/alien-9-todos-os-episodios",
      "texto_original": "Alien 9",
      "rating": 6.68,
      "classificacao_etaria": "A16",
      "imagem_original": "https://animefire.plus/img/animes/alien-9.webp",
      "imagem_pasta": "https://animefire.plus/img/animes/alien-9/",
      "secao": "legendados",
      "pagina": 165,
      "total_episodios": 4,
      "link_video": "https://animefire.plus/video/alien-9"
    },
    {
      "id": 147,
      "nome": "Amaama to Inazuma",
      "link": "https://animefire.plus/animes/amaama-to-inazuma-todos-os-episodios",
      "texto_original": "Amaama to Inazuma",
      "rating": 7.57,
      "classificacao_etaria": "A14",
      "imagem_original": "https://animefire.plus/img/animes/amaama-to-inazuma.webp",
      "imagem_pasta": "https://animefire.plus/img/animes/amaama-to-inazuma/",
      "secao": "legendados",
      "pagina": 134,
      "total_episodios": 12,
      "link_video": "https://animefire.plus/video/amaama-to-inazuma"
    },
    {
      "id": 151,
      "nome": "Amagami SS+ Plus",
      "link": "https://animefire.plus/animes/amagami-ss-plus-todos-os-episodios",
      "texto_original": "Amagami SS+ Plus",
      "rating": 7.53,
      "classificacao_etaria": "A14",
      "imagem_original": "https://animefire.plus/img/animes/amagami-ss-plus.webp",
      "imagem_pasta": "https://animefire.plus/img/animes/amagami-ss-plus/",
      "secao": "legendados",
      "pagina": 158,
      "total_episodios": 3,
      "link_video": "https://animefire.plus/video/amagami-ss-plus"
    },
    {
      "id": 155,
      "nome": "Amagi Brilliant Park",
      "link": "https://animefire.plus/animes/amagi-brilliant-park-todos-os-episodios",
      "texto_original": "Amagi Brilliant Park",
      "rating": 7.6,
      "classificacao_etaria": "A14",
      "imagem_original": "https://animefire.plus/img/animes/amagi-brilliant-park.webp",
      "imagem_pasta": "https://animefire.plus/img/animes/amagi-brilliant-park/",
      "secao": "legendados",
      "pagina": 129,
      "total_episodios": 5,
      "link_video": "https://animefire.plus/video/amagi-brilliant-park"
    },
    {
      "id": 156,
      "nome": "Amanchu!",
      "link": "https://animefire.plus/animes/amanchu-todos-os-episodios",
      "texto_original": "Amanchu!",
      "rating": 7.3,
      "classificacao_etaria": "A14",
      "imagem_original": "https://animefire.plus/img/animes/amanchu.webp",
      "imagem_pasta": "https://animefire.plus/img/animes/amanchu/",
      "secao": "legendados",
      "pagina": 90,
      "total_episodios": 12,
      "link_video": "https://animefire.plus/video/amanchu"
    },
    {
      "id": 157,
      "nome": "Amanchu! Advance",
      "link": "https://animefire.plus/animes/amanchu-advance-todos-os-episodios",
      "texto_original": "Amanchu! Advance",
      "rating": 7.18,
      "classificacao_etaria": "A14",
      "imagem_original": "https://animefire.plus/img/animes/amanchu-advance.webp",
      "imagem_pasta": "https://animefire.plus/img/animes/amanchu-advance/",
      "secao": "legendados",
      "pagina": 117,
      "total_episodios": 11,
      "link_video": "https://animefire.plus/video/amanchu-advance"
    },
    {
      "id": 158,
      "nome": "Amatsuki",
      "link": "https://animefire.plus/animes/amatsuki-todos-os-episodios",
      "texto_original": "Amatsuki",
      "rating": 6.97,
      "classificacao_etaria": "A14",
      "imagem_original": "https://animefire.plus/img/animes/amatsuki.webp",
      "imagem_pasta": "https://animefire.plus/img/animes/amatsuki/",
      "secao": "legendados",
      "pagina": 133,
      "total_episodios": 12,
      "link_video": "https://animefire.plus/video/amatsuki"
    },
    {
      "id": 159,
      "nome": "Ame to Kimi to",
      "link": "https://animefire.plus/animes/ame-to-kimi-to-todos-os-episodios",
      "texto_original": "Ame to Kimi to",
      "rating": 7.45,
      "classificacao_etaria": "A14",
      "imagem_original": "https://animefire.plus/img/animes/ame-to-kimi-to.webp",
      "imagem_pasta": "https://animefire.plus/img/animes/ame-to-kimi-to/",
      "secao": "legendados,lancamentos",
      "pagina": 2,
      "total_episodios": 5,
      "link_video": "https://animefire.plus/video/ame-to-kimi-to"
    },
    {
      "id": 160,
      "nome": "Ame-iro Cocoa",
      "link": "https://animefire.plus/animes/ame-iro-cocoa-todos-os-episodios",
      "texto_original": "Ame-iro Cocoa",
      "rating": 4.76,
      "classificacao_etaria": "A14",
      "imagem_original": "https://animefire.plus/img/animes/ame-iro-cocoa.webp",
      "imagem_pasta": "https://animefire.plus/img/animes/ame-iro-cocoa/",
      "secao": "legendados",
      "pagina": 136,
      "total_episodios": 12,
      "link_video": "https://animefire.plus/video/ame-iro-cocoa"
    }
  ],
  "pagination": {
    "current_page": 4,
    "per_page": 20,
    "total_items": 2189,
    "total_pages": 110,
    "has_next": true,
    "has_prev": true
  }
}
