{
  "message": "Animes com 25 a 50 episódios",
  "episode_range": {
    "min": 25,
    "max": 50
  },
  "data": [
    {
      "id": 436,
      "nome": "Blue Dragon: Tenkai no Shichi Ryuu",
      "link": "https://animefire.plus/animes/blue-dragon-tenkai-no-shichi-ryuu-todos-os-episodios",
      "texto_original": "Blue Dragon: Tenkai no Shichi Ryuu",
      "rating": 6.67,
      "classificacao_etaria": "A10",
      "imagem_original": "https://animefire.plus/img/animes/blue-dragon-tenkai-no-shichi-ryuu.webp",
      "imagem_pasta": "https://animefire.plus/img/animes/blue-dragon-tenkai-no-shichi-ryuu/",
      "secao": "legendados",
      "pagina": 115,
      "total_episodios": 26,
      "link_video": "https://animefire.plus/video/blue-dragon-tenkai-no-shichi-ryuu"
    },
    {
      "id": 438,
      "nome": "Blue Gender",
      "link": "https://animefire.plus/animes/blue-gender-todos-os-episodios",
      "texto_original": "Blue Gender",
      "rating": 7.1,
      "classificacao_etaria": "A18",
      "imagem_original": "https://animefire.plus/img/animes/blue-gender.webp",
      "imagem_pasta": "https://animefire.plus/img/animes/blue-gender/",
      "secao": "legendados",
      "pagina": 173,
      "total_episodios": 26,
      "link_video": "https://animefire.plus/video/blue-gender"
    },
    {
      "id": 443,
      "nome": "Blue Seed",
      "link": "https://animefire.plus/animes/blue-seed-todos-os-episodios",
      "texto_original": "Blue Seed",
      "rating": 7.09,
      "classificacao_etaria": "A14",
      "imagem_original": "https://animefire.plus/img/animes/blue-seed.webp",
      "imagem_pasta": "https://animefire.plus/img/animes/blue-seed/",
      "secao": "legendados",
      "pagina": 100,
      "total_episodios": 26,
      "link_video": "https://animefire.plus/video/blue-seed"
    },
    {
      "id": 450,
      "nome": "Boku no Hero Academia 2nd Season (Dublado)",
      "link": "https://animefire.plus/animes/boku-no-hero-academia-2-dublado-todos-os-episodios",
      "texto_original": "Boku no Hero Academia 2nd Season (Dublado)",
      "rating": 8.39,
      "classificacao_etaria": "A14",
      "imagem_original": "https://animefire.plus/img/animes/boku-no-hero-academia-2.webp",
      "imagem_pasta": "https://animefire.plus/img/animes/boku-no-hero-academia-2/",
      "secao": "dublados",
      "pagina": 19,
      "total_episodios": 25,
      "link_video": "https://animefire.plus/video/boku-no-hero-academia-2-dublado"
    },
    {
      "id": 452,
      "nome": "Boku no Hero Academia 3rd Season (Dublado)",
      "link": "https://animefire.plus/animes/boku-no-hero-academia-3-dublado-todos-os-episodios",
      "texto_original": "Boku no Hero Academia 3rd Season (Dublado)",
      "rating": 8.31,
      "classificacao_etaria": "A14",
      "imagem_original": "https://animefire.plus/img/animes/boku-no-hero-academia-3.webp",
      "imagem_pasta": "https://animefire.plus/img/animes/boku-no-hero-academia-3/",
      "secao": "dublados",
      "pagina": 19,
      "total_episodios": 25,
      "link_video": "https://animefire.plus/video/boku-no-hero-academia-3-dublado"
    },
    {
      "id": 454,
      "nome": "Boku no Hero Academia 4th Season (Dublado)",
      "link": "https://animefire.plus/animes/boku-no-hero-academia-4-dublado-todos-os-episodios",
      "texto_original": "Boku no Hero Academia 4th Season (Dublado)",
      "rating": 8.11,
      "classificacao_etaria": "A14",
      "imagem_original": "https://animefire.plus/img/animes/boku-no-hero-academia-4.webp",
      "imagem_pasta": "https://animefire.plus/img/animes/boku-no-hero-academia-4/",
      "secao": "dublados",
      "pagina": 19,
      "total_episodios": 25,
      "link_video": "https://animefire.plus/video/boku-no-hero-academia-4-dublado"
    },
    {
      "id": 457,
      "nome": "Boku no Hero Academia 6th Season (Dublado)",
      "link": "https://animefire.plus/animes/boku-no-hero-academia-6th-season-dublado-todos-os-episodios",
      "texto_original": "Boku no Hero Academia 6th Season (Dublado)",
      "rating": 8.23,
      "classificacao_etaria": "A14",
      "imagem_original": "https://animefire.plus/img/animes/boku-no-hero-academia-6th-season.webp",
      "imagem_pasta": "https://animefire.plus/img/animes/boku-no-hero-academia-6th-season/",
      "secao": "dublados,legendados,lancamentos",
      "pagina": 9,
      "total_episodios": 25,
      "link_video": "https://animefire.plus/video/boku-no-hero-academia-6th-season-dublado"
    },
    {
      "id": 471,
      "nome": "Bokura ga Ita",
      "link": "https://animefire.plus/animes/bokura-ga-ita-todos-os-episodios",
      "texto_original": "Bokura ga Ita",
      "rating": 7.43,
      "classificacao_etaria": "A14",
      "imagem_original": "https://animefire.plus/img/animes/bokura-ga-ita.webp",
      "imagem_pasta": "https://animefire.plus/img/animes/bokura-ga-ita/",
      "secao": "legendados",
      "pagina": 148,
      "total_episodios": 26,
      "link_video": "https://animefire.plus/video/bokura-ga-ita"
    },
    {
      "id": 490,
      "nome": "Bounen no Xamdou",
      "link": "https://animefire.plus/animes/bounen-no-xamdou-todos-os-episodios",
      "texto_original": "Bounen no Xamdou",
      "rating": 7.74,
      "classificacao_etaria": "A14",
      "imagem_original": "https://animefire.plus/img/animes/bounen-no-xamdou.webp",
      "imagem_pasta": "https://animefire.plus/img/animes/bounen-no-xamdou/",
      "secao": "legendados",
      "pagina": 175,
      "total_episodios": 26,
      "link_video": "https://animefire.plus/video/bounen-no-xamdou"
    },
    {
      "id": 493,
      "nome": "Brain Powerd",
      "link": "https://animefire.plus/animes/brain-powerd-todos-os-episodios",
      "texto_original": "Brain Powerd",
      "rating": 6.15,
      "classificacao_etaria": "A14",
      "imagem_original": "https://animefire.plus/img/animes/brain-powerd.webp",
      "imagem_pasta": "https://animefire.plus/img/animes/brain-powerd/",
      "secao": "legendados",
      "pagina": 170,
      "total_episodios": 26,
      "link_video": "https://animefire.plus/video/brain-powerd"
    },
    {
      "id": 506,
      "nome": "Bubblegum Crisis Tokyo 2040",
      "link": "https://animefire.plus/animes/bubblegum-crisis-tokyo-2040-todos-os-episodios",
      "texto_original": "Bubblegum Crisis Tokyo 2040",
      "rating": 7.16,
      "classificacao_etaria": "A16",
      "imagem_original": "https://animefire.plus/img/animes/bubblegum-crisis-tokyo-2040.webp",
      "imagem_pasta": "https://animefire.plus/img/animes/bubblegum-crisis-tokyo-2040/",
      "secao": "legendados",
      "pagina": 139,
      "total_episodios": 26,
      "link_video": "https://animefire.plus/video/bubblegum-crisis-tokyo-2040"
    },
    {
      "id": 534,
      "nome": "Busou Renkin",
      "link": "https://animefire.plus/animes/busou-renkin-todos-os-episodios",
      "texto_original": "Busou Renkin",
      "rating": 7.43,
      "classificacao_etaria": "A14",
      "imagem_original": "https://animefire.plus/img/animes/busou-renkin.webp",
      "imagem_pasta": "https://animefire.plus/img/animes/busou-renkin/",
      "secao": "legendados",
      "pagina": 132,
      "total_episodios": 26,
      "link_video": "https://animefire.plus/video/busou-renkin"
    },
    {
      "id": 556,
      "nome": "Captain Earth",
      "link": "https://animefire.plus/animes/captain-earth-todos-os-episodios",
      "texto_original": "Captain Earth",
      "rating": 6.46,
      "classificacao_etaria": "A14",
      "imagem_original": "https://animefire.plus/img/animes/captain-earth.webp",
      "imagem_pasta": "https://animefire.plus/img/animes/captain-earth/",
      "secao": "legendados",
      "pagina": 124,
      "total_episodios": 25,
      "link_video": "https://animefire.plus/video/captain-earth"
    },
    {
      "id": 557,
      "nome": "Captain Tsubasa",
      "link": "https://animefire.plus/animes/captain-tsubasa-todos-os-episodios",
      "texto_original": "Captain Tsubasa",
      "rating": 7.31,
      "classificacao_etaria": null,
      "imagem_original": "https://animefire.plus/img/animes/captain-tsubasa.webp",
      "imagem_pasta": "https://animefire.plus/img/animes/captain-tsubasa/",
      "secao": "legendados",
      "pagina": 59,
      "total_episodios": 46,
      "link_video": "https://animefire.plus/video/captain-tsubasa"
    },
    {
      "id": 559,
      "nome": "Captain Tsubasa Season 2: Junior Youth-hen (Dublado)",
      "link": "https://animefire.plus/animes/captain-tsubasa-season-2-junior-youth-hen-dublado-todos-os-episodios",
      "texto_original": "Captain Tsubasa Season 2: Junior Youth-hen (Dublado)",
      "rating": 7.43,
      "classificacao_etaria": null,
      "imagem_original": "https://animefire.plus/img/animes/captain-tsubasa-season-2-junior-youth-hen.webp",
      "imagem_pasta": "https://animefire.plus/img/animes/captain-tsubasa-season-2-junior-youth-hen/",
      "secao": "dublados,legendados",
      "pagina": 4,
      "total_episodios": 39,
      "link_video": "https://animefire.plus/video/captain-tsubasa-season-2-junior-youth-hen-dublado"
    },
    {
      "id": 564,
      "nome": "Cardfight!! Vanguard G",
      "link": "https://animefire.plus/animes/cardfight-vanguard-g-todos-os-episodios",
      "texto_original": "Cardfight!! Vanguard G",
      "rating": 6.62,
      "classificacao_etaria": "A14",
      "imagem_original": "https://animefire.plus/img/animes/cardfight-vanguard-g.webp",
      "imagem_pasta": "https://animefire.plus/img/animes/cardfight-vanguard-g/",
      "secao": "legendados",
      "pagina": 66,
      "total_episodios": 48,
      "link_video": "https://animefire.plus/video/cardfight-vanguard-g"
    },
    {
      "id": 565,
      "nome": "Cardfight!! Vanguard G: GIRS Crisis-hen",
      "link": "https://animefire.plus/animes/cardfight-vanguard-g-girs-crisis-hen-todos-os-episodios",
      "texto_original": "Cardfight!! Vanguard G: GIRS Crisis-hen",
      "rating": 6.73,
      "classificacao_etaria": "A14",
      "imagem_original": "https://animefire.plus/img/animes/cardfight-vanguard-g-girs-crisis-hen.webp",
      "imagem_pasta": "https://animefire.plus/img/animes/cardfight-vanguard-g-girs-crisis-hen/",
      "secao": "legendados",
      "pagina": 59,
      "total_episodios": 26,
      "link_video": "https://animefire.plus/video/cardfight-vanguard-g-girs-crisis-hen"
    },
    {
      "id": 603,
      "nome": "Chihayafuru",
      "link": "https://animefire.plus/animes/chihayafuru-todos-os-episodios",
      "texto_original": "Chihayafuru",
      "rating": 8.27,
      "classificacao_etaria": "A14",
      "imagem_original": "https://animefire.plus/img/animes/chihayafuru.webp",
      "imagem_pasta": "https://animefire.plus/img/animes/chihayafuru/",
      "secao": "legendados",
      "pagina": 144,
      "total_episodios": 25,
      "link_video": "https://animefire.plus/video/chihayafuru"
    },
    {
      "id": 604,
      "nome": "Chihayafuru 2",
      "link": "https://animefire.plus/animes/chihayafuru-2-todos-os-episodios",
      "texto_original": "Chihayafuru 2",
      "rating": 8.45,
      "classificacao_etaria": "A14",
      "imagem_original": "https://animefire.plus/img/animes/chihayafuru-2.webp",
      "imagem_pasta": "https://animefire.plus/img/animes/chihayafuru-2/",
      "secao": "legendados",
      "pagina": 163,
      "total_episodios": 25,
      "link_video": "https://animefire.plus/video/chihayafuru-2"
    },
    {
      "id": 659,
      "nome": "CLAMP Gakuen Tanteidan",
      "link": "https://animefire.plus/animes/clamp-gakuen-tanteidan-todos-os-episodios",
      "texto_original": "CLAMP Gakuen Tanteidan",
      "rating": 6.98,
      "classificacao_etaria": null,
      "imagem_original": "https://animefire.plus/img/animes/clamp-gakuen-tanteidan.webp",
      "imagem_pasta": "https://animefire.plus/img/animes/clamp-gakuen-tanteidan/",
      "secao": "legendados",
      "pagina": 96,
      "total_episodios": 26,
      "link_video": "https://animefire.plus/video/clamp-gakuen-tanteidan"
    }
  ],
  "pagination": {
    "current_page": 3,
    "per_page": 20,
    "total_items": 370,
    "total_pages": 19,
    "has_next": true,
    "has_prev": true
  }
}
