{
  "message": "Animes com 25 a 50 episódios",
  "episode_range": {
    "min": 25,
    "max": 50
  },
  "data": [
    {
      "id": 3,
      "nome": ".hack//Roots",
      "link": "https://animefire.plus/animes/hack-roots-todos-os-episodios",
      "texto_original": ".hack//Roots",
      "rating": 7,
      "classificacao_etaria": "A14",
      "imagem_original": "https://animefire.plus/img/animes/hack-roots.webp",
      "imagem_pasta": "https://animefire.plus/img/animes/hack-roots/",
      "secao": "legendados",
      "pagina": 152,
      "total_episodios": 26,
      "link_video": "https://animefire.plus/video/hack-roots"
    },
    {
      "id": 4,
      "nome": ".hack//Sign",
      "link": "https://animefire.plus/animes/hack-sign-todos-os-episodios",
      "texto_original": ".hack//Sign",
      "rating": 7.07,
      "classificacao_etaria": "A14",
      "imagem_original": "https://animefire.plus/img/animes/hack-sign.webp",
      "imagem_pasta": "https://animefire.plus/img/animes/hack-sign/",
      "secao": "legendados",
      "pagina": 142,
      "total_episodios": 26,
      "link_video": "https://animefire.plus/video/hack-sign"
    },
    {
      "id": 12,
      "nome": "07-Ghost",
      "link": "https://animefire.plus/animes/07-ghost-todos-os-episodios",
      "texto_original": "07-Ghost",
      "rating": 7.33,
      "classificacao_etaria": "A14",
      "imagem_original": "https://animefire.plus/img/animes/07-ghost.webp",
      "imagem_pasta": "https://animefire.plus/img/animes/07-ghost/",
      "secao": "legendados",
      "pagina": 145,
      "total_episodios": 25,
      "link_video": "https://animefire.plus/video/07-ghost"
    },
    {
      "id": 52,
      "nome": "Aa! Megami-sama! (TV)",
      "link": "https://animefire.plus/animes/aa-megami-sama-tv-todos-os-episodios",
      "texto_original": "Aa! Megami-sama! (TV)",
      "rating": 7.41,
      "classificacao_etaria": "A14",
      "imagem_original": "https://animefire.plus/img/animes/aa-megami-sama-tv.webp",
      "imagem_pasta": "https://animefire.plus/img/animes/aa-megami-sama-tv/",
      "secao": "legendados",
      "pagina": 123,
      "total_episodios": 26,
      "link_video": "https://animefire.plus/video/aa-megami-sama-tv"
    },
    {
      "id": 61,
      "nome": "Ace wo Nerae!",
      "link": "https://animefire.plus/animes/ace-wo-nerae-todos-os-episodios",
      "texto_original": "Ace wo Nerae!",
      "rating": 7.01,
      "classificacao_etaria": "A14",
      "imagem_original": "https://animefire.plus/img/animes/ace-wo-nerae.webp",
      "imagem_pasta": "https://animefire.plus/img/animes/ace-wo-nerae/",
      "secao": "legendados",
      "pagina": 72,
      "total_episodios": 26,
      "link_video": "https://animefire.plus/video/ace-wo-nerae"
    },
    {
      "id": 70,
      "nome": "After War Gundam X",
      "link": "https://animefire.plus/animes/after-war-gundam-x-todos-os-episodios",
      "texto_original": "After War Gundam X",
      "rating": 7.37,
      "classificacao_etaria": "A14",
      "imagem_original": "https://animefire.plus/img/animes/after-war-gundam-x.webp",
      "imagem_pasta": "https://animefire.plus/img/animes/after-war-gundam-x/",
      "secao": "legendados",
      "pagina": 168,
      "total_episodios": 39,
      "link_video": "https://animefire.plus/video/after-war-gundam-x"
    },
    {
      "id": 71,
      "nome": "Agatha Christie no Meitantei Poirot to Marple",
      "link": "https://animefire.plus/animes/agatha-christie-no-meitantei-poirot-to-marple-todos-os-episodios",
      "texto_original": "Agatha Christie no Meitantei Poirot to Marple",
      "rating": 6.92,
      "classificacao_etaria": null,
      "imagem_original": "https://animefire.plus/img/animes/agatha-christie-no-meitantei-poirot-to-marple.webp",
      "imagem_pasta": "https://animefire.plus/img/animes/agatha-christie-no-meitantei-poirot-to-marple/",
      "secao": "legendados",
      "pagina": 153,
      "total_episodios": 39,
      "link_video": "https://animefire.plus/video/agatha-christie-no-meitantei-poirot-to-marple"
    },
    {
      "id": 85,
      "nome": "Ai Tenshi Densetsu Wedding Peach",
      "link": "https://animefire.plus/animes/ai-tenshi-densetsu-wedding-peach-todos-os-episodios",
      "texto_original": "Ai Tenshi Densetsu Wedding Peach",
      "rating": 6.77,
      "classificacao_etaria": "A10",
      "imagem_original": "https://animefire.plus/img/animes/ai-tenshi-densetsu-wedding-peach.webp",
      "imagem_pasta": "https://animefire.plus/img/animes/ai-tenshi-densetsu-wedding-peach/",
      "secao": "legendados",
      "pagina": 158,
      "total_episodios": 34,
      "link_video": "https://animefire.plus/video/ai-tenshi-densetsu-wedding-peach"
    },
    {
      "id": 96,
      "nome": "Aikatsu!",
      "link": "https://animefire.plus/animes/aikatsu-todos-os-episodios",
      "texto_original": "Aikatsu!",
      "rating": 7.45,
      "classificacao_etaria": "A10",
      "imagem_original": "https://animefire.plus/img/animes/aikatsu.webp",
      "imagem_pasta": "https://animefire.plus/img/animes/aikatsu/",
      "secao": "legendados",
      "pagina": 178,
      "total_episodios": 26,
      "link_video": "https://animefire.plus/video/aikatsu"
    },
    {
      "id": 98,
      "nome": "Air Gear",
      "link": "https://animefire.plus/animes/air-gear-todos-os-episodios",
      "texto_original": "Air Gear",
      "rating": 7.62,
      "classificacao_etaria": "A18",
      "imagem_original": "https://animefire.plus/img/animes/air-gear.webp",
      "imagem_pasta": "https://animefire.plus/img/animes/air-gear/",
      "secao": "legendados",
      "pagina": 113,
      "total_episodios": 25,
      "link_video": "https://animefire.plus/video/air-gear"
    },
    {
      "id": 100,
      "nome": "Air Master",
      "link": "https://animefire.plus/animes/air-master-todos-os-episodios",
      "texto_original": "Air Master",
      "rating": 7.04,
      "classificacao_etaria": "A16",
      "imagem_original": "https://animefire.plus/img/animes/air-master.webp",
      "imagem_pasta": "https://animefire.plus/img/animes/air-master/",
      "secao": "legendados",
      "pagina": 59,
      "total_episodios": 26,
      "link_video": "https://animefire.plus/video/air-master"
    },
    {
      "id": 103,
      "nome": "Aishiteruze Baby★★",
      "link": "https://animefire.plus/animes/aishiteruze-baby-todos-os-episodios",
      "texto_original": "Aishiteruze Baby★★",
      "rating": 7.54,
      "classificacao_etaria": "A14",
      "imagem_original": "https://animefire.plus/img/animes/aishiteruze-baby.webp",
      "imagem_pasta": "https://animefire.plus/img/animes/aishiteruze-baby/",
      "secao": "legendados",
      "pagina": 146,
      "total_episodios": 26,
      "link_video": "https://animefire.plus/video/aishiteruze-baby"
    },
    {
      "id": 110,
      "nome": "Akage no Anne",
      "link": "https://animefire.plus/animes/akage-no-anne-todos-os-episodios",
      "texto_original": "Akage no Anne",
      "rating": 7.7,
      "classificacao_etaria": null,
      "imagem_original": "https://animefire.plus/img/animes/akage-no-anne.webp",
      "imagem_pasta": "https://animefire.plus/img/animes/akage-no-anne/",
      "secao": "legendados",
      "pagina": 55,
      "total_episodios": 50,
      "link_video": "https://animefire.plus/video/akage-no-anne"
    },
    {
      "id": 126,
      "nome": "Akihabara Dennou-gumi",
      "link": "https://animefire.plus/animes/akihabara-dennou-gumi-todos-os-episodios",
      "texto_original": "Akihabara Dennou-gumi",
      "rating": 6.64,
      "classificacao_etaria": "A14",
      "imagem_original": "https://animefire.plus/img/animes/akihabara-dennou-gumi.webp",
      "imagem_pasta": "https://animefire.plus/img/animes/akihabara-dennou-gumi/",
      "secao": "legendados",
      "pagina": 140,
      "total_episodios": 26,
      "link_video": "https://animefire.plus/video/akihabara-dennou-gumi"
    },
    {
      "id": 128,
      "nome": "Akkun to Kanojo",
      "link": "https://animefire.plus/animes/akkun-to-kanojo-todos-os-episodios",
      "texto_original": "Akkun to Kanojo",
      "rating": 6.9,
      "classificacao_etaria": "A14",
      "imagem_original": "https://animefire.plus/img/animes/akkun-to-kanojo.webp",
      "imagem_pasta": "https://animefire.plus/img/animes/akkun-to-kanojo/",
      "secao": "legendados",
      "pagina": 131,
      "total_episodios": 25,
      "link_video": "https://animefire.plus/video/akkun-to-kanojo"
    },
    {
      "id": 144,
      "nome": "All Out!!",
      "link": "https://animefire.plus/animes/all-out-todos-os-episodios",
      "texto_original": "All Out!!",
      "rating": 7.19,
      "classificacao_etaria": "A14",
      "imagem_original": "https://animefire.plus/img/animes/all-out.webp",
      "imagem_pasta": "https://animefire.plus/img/animes/all-out/",
      "secao": "legendados",
      "pagina": 111,
      "total_episodios": 25,
      "link_video": "https://animefire.plus/video/all-out"
    },
    {
      "id": 145,
      "nome": "Allison to Lillia",
      "link": "https://animefire.plus/animes/allison-to-lillia-todos-os-episodios",
      "texto_original": "Allison to Lillia",
      "rating": 7.38,
      "classificacao_etaria": "A14",
      "imagem_original": "https://animefire.plus/img/animes/allison-to-lillia.webp",
      "imagem_pasta": "https://animefire.plus/img/animes/allison-to-lillia/",
      "secao": "legendados",
      "pagina": 116,
      "total_episodios": 26,
      "link_video": "https://animefire.plus/video/allison-to-lillia"
    },
    {
      "id": 150,
      "nome": "Amagami SS",
      "link": "https://animefire.plus/animes/amagami-ss-todos-os-episodios",
      "texto_original": "Amagami SS",
      "rating": 7.47,
      "classificacao_etaria": "A14",
      "imagem_original": "https://animefire.plus/img/animes/amagami-ss.webp",
      "imagem_pasta": "https://animefire.plus/img/animes/amagami-ss/",
      "secao": "legendados",
      "pagina": 133,
      "total_episodios": 26,
      "link_video": "https://animefire.plus/video/amagami-ss"
    },
    {
      "id": 204,
      "nome": "Ao no Hako",
      "link": "https://animefire.plus/animes/ao-no-hako-todos-os-episodios",
      "texto_original": "Ao no Hako",
      "rating": 8.2,
      "classificacao_etaria": "A14",
      "imagem_original": "https://animefire.plus/img/animes/ao-no-hako.webp",
      "imagem_pasta": "https://animefire.plus/img/animes/ao-no-hako/",
      "secao": "legendados",
      "pagina": 9,
      "total_episodios": 25,
      "link_video": "https://animefire.plus/video/ao-no-hako"
    },
    {
      "id": 216,
      "nome": "Aquarion Evol",
      "link": "https://animefire.plus/animes/aquarion-evol-todos-os-episodios",
      "texto_original": "Aquarion Evol",
      "rating": 7.23,
      "classificacao_etaria": "A14",
      "imagem_original": "https://animefire.plus/img/animes/aquarion-evol.webp",
      "imagem_pasta": "https://animefire.plus/img/animes/aquarion-evol/",
      "secao": "legendados",
      "pagina": 158,
      "total_episodios": 25,
      "link_video": "https://animefire.plus/video/aquarion-evol"
    }
  ],
  "pagination": {
    "current_page": 1,
    "per_page": 20,
    "total_items": 370,
    "total_pages": 19,
    "has_next": true,
    "has_prev": false
  }
}
