{
  "message": "Animes com 25 a 50 episódios",
  "episode_range": {
    "min": 25,
    "max": 50
  },
  "data": [
    {
      "id": 3937,
      "nome": "Trillion Game",
      "link": "https://animefire.plus/animes/trillion-game-todos-os-episodios",
      "texto_original": "Trillion Game",
      "rating": 7.56,
      "classificacao_etaria": "A14",
      "imagem_original": "https://animefire.plus/img/animes/trillion-game.webp",
      "imagem_pasta": "https://animefire.plus/img/animes/trillion-game/",
      "secao": "legendados",
      "pagina": 9,
      "total_episodios": 26,
      "link_video": "https://animefire.plus/video/trillion-game"
    },
    {
      "id": 3962,
      "nome": "Tsukuyomi: Moon Phase",
      "link": "https://animefire.plus/animes/tsukuyomi-moon-phase-todos-os-episodios",
      "texto_original": "Tsukuyomi: Moon Phase",
      "rating": 7.07,
      "classificacao_etaria": "A14",
      "imagem_original": "https://animefire.plus/img/animes/tsukuyomi-moon-phase.webp",
      "imagem_pasta": "https://animefire.plus/img/animes/tsukuyomi-moon-phase/",
      "secao": "legendados",
      "pagina": 164,
      "total_episodios": 26,
      "link_video": "https://animefire.plus/video/tsukuyomi-moon-phase"
    },
    {
      "id": 3983,
      "nome": "Tytania",
      "link": "https://animefire.plus/animes/tytania-todos-os-episodios",
      "texto_original": "Tytania",
      "rating": 6.86,
      "classificacao_etaria": "A14",
      "imagem_original": "https://animefire.plus/img/animes/tytania.webp",
      "imagem_pasta": "https://animefire.plus/img/animes/tytania/",
      "secao": "legendados",
      "pagina": 176,
      "total_episodios": 26,
      "link_video": "https://animefire.plus/video/tytania"
    },
    {
      "id": 3992,
      "nome": "Uchuu Kaizoku Captain Herlock",
      "link": "https://animefire.plus/animes/uchuu-kaizoku-captain-herlock-todos-os-episodios",
      "texto_original": "Uchuu Kaizoku Captain Herlock",
      "rating": 7.7,
      "classificacao_etaria": "A14",
      "imagem_original": "https://animefire.plus/img/animes/uchuu-kaizoku-captain-herlock.webp",
      "imagem_pasta": "https://animefire.plus/img/animes/uchuu-kaizoku-captain-herlock/",
      "secao": "legendados",
      "pagina": 43,
      "total_episodios": 42,
      "link_video": "https://animefire.plus/video/uchuu-kaizoku-captain-herlock"
    },
    {
      "id": 3996,
      "nome": "Uchuu no Stellvia",
      "link": "https://animefire.plus/animes/uchuu-no-stellvia-todos-os-episodios",
      "texto_original": "Uchuu no Stellvia",
      "rating": 7.44,
      "classificacao_etaria": "A14",
      "imagem_original": "https://animefire.plus/img/animes/uchuu-no-stellvia.webp",
      "imagem_pasta": "https://animefire.plus/img/animes/uchuu-no-stellvia/",
      "secao": "legendados",
      "pagina": 165,
      "total_episodios": 26,
      "link_video": "https://animefire.plus/video/uchuu-no-stellvia"
    },
    {
      "id": 4000,
      "nome": "Uchuu Senkan Yamato 2199",
      "link": "https://animefire.plus/animes/uchuu-senkan-yamato-2199-todos-os-episodios",
      "texto_original": "Uchuu Senkan Yamato 2199",
      "rating": 8.39,
      "classificacao_etaria": "A14",
      "imagem_original": "https://animefire.plus/img/animes/uchuu-senkan-yamato-2199.webp",
      "imagem_pasta": "https://animefire.plus/img/animes/uchuu-senkan-yamato-2199/",
      "secao": "legendados",
      "pagina": 134,
      "total_episodios": 30,
      "link_video": "https://animefire.plus/video/uchuu-senkan-yamato-2199"
    },
    {
      "id": 4001,
      "nome": "Uchuu Senkan Yamato 2202: Ai no Senshi-tachi",
      "link": "https://animefire.plus/animes/uchuu-senkan-yamato-2202-ai-no-senshi-tachi-todos-os-episodios",
      "texto_original": "Uchuu Senkan Yamato 2202: Ai no Senshi-tachi",
      "rating": 7.69,
      "classificacao_etaria": "A14",
      "imagem_original": "https://animefire.plus/img/animes/uchuu-senkan-yamato-2202-ai-no-senshi-tachi.webp",
      "imagem_pasta": "https://animefire.plus/img/animes/uchuu-senkan-yamato-2202-ai-no-senshi-tachi/",
      "secao": "legendados",
      "pagina": 42,
      "total_episodios": 26,
      "link_video": "https://animefire.plus/video/uchuu-senkan-yamato-2202-ai-no-senshi-tachi"
    },
    {
      "id": 4007,
      "nome": "UFO Senshi Dai Apolon",
      "link": "https://animefire.plus/animes/ufo-senshi-dai-apolon-todos-os-episodios",
      "texto_original": "UFO Senshi Dai Apolon",
      "rating": 6.17,
      "classificacao_etaria": "A14",
      "imagem_original": "https://animefire.plus/img/animes/ufo-senshi-dai-apolon.webp",
      "imagem_pasta": "https://animefire.plus/img/animes/ufo-senshi-dai-apolon/",
      "secao": "legendados",
      "pagina": 78,
      "total_episodios": 26,
      "link_video": "https://animefire.plus/video/ufo-senshi-dai-apolon"
    },
    {
      "id": 4020,
      "nome": "Umineko no Naku Koro ni",
      "link": "https://animefire.plus/animes/umineko-no-naku-koro-ni-todos-os-episodios",
      "texto_original": "Umineko no Naku Koro ni",
      "rating": 7.23,
      "classificacao_etaria": "A16",
      "imagem_original": "https://animefire.plus/img/animes/umineko-no-naku-koro-ni.webp",
      "imagem_pasta": "https://animefire.plus/img/animes/umineko-no-naku-koro-ni/",
      "secao": "legendados",
      "pagina": 112,
      "total_episodios": 26,
      "link_video": "https://animefire.plus/video/umineko-no-naku-koro-ni"
    },
    {
      "id": 4051,
      "nome": "Utawarerumono",
      "link": "https://animefire.plus/animes/utawarerumono-todos-os-episodios",
      "texto_original": "Utawarerumono",
      "rating": 7.72,
      "classificacao_etaria": "A16",
      "imagem_original": "https://animefire.plus/img/animes/utawarerumono.webp",
      "imagem_pasta": "https://animefire.plus/img/animes/utawarerumono/",
      "secao": "legendados",
      "pagina": 145,
      "total_episodios": 26,
      "link_video": "https://animefire.plus/video/utawarerumono"
    },
    {
      "id": 4052,
      "nome": "Utawarerumono: Futari no Hakuoro",
      "link": "https://animefire.plus/animes/utawarerumono-futari-no-hakuoro-todos-os-episodios",
      "texto_original": "Utawarerumono: Futari no Hakuoro",
      "rating": 7.51,
      "classificacao_etaria": "A14",
      "imagem_original": "https://animefire.plus/img/animes/utawarerumono-futari-no-hakuoro.webp",
      "imagem_pasta": "https://animefire.plus/img/animes/utawarerumono-futari-no-hakuoro/",
      "secao": "legendados",
      "pagina": 32,
      "total_episodios": 28,
      "link_video": "https://animefire.plus/video/utawarerumono-futari-no-hakuoro"
    },
    {
      "id": 4053,
      "nome": "Utawarerumono: Itsuwari No Kamen",
      "link": "https://animefire.plus/animes/utawarerumono-itsuwari-no-kamen-todos-os-episodios",
      "texto_original": "Utawarerumono: Itsuwari No Kamen",
      "rating": 7.31,
      "classificacao_etaria": "A14",
      "imagem_original": "https://animefire.plus/img/animes/utawarerumono-itsuwari-no-kamen.webp",
      "imagem_pasta": "https://animefire.plus/img/animes/utawarerumono-itsuwari-no-kamen/",
      "secao": "legendados",
      "pagina": 95,
      "total_episodios": 25,
      "link_video": "https://animefire.plus/video/utawarerumono-itsuwari-no-kamen"
    },
    {
      "id": 4104,
      "nome": "Wangan Midnight",
      "link": "https://animefire.plus/animes/wangan-midnight-todos-os-episodios",
      "texto_original": "Wangan Midnight",
      "rating": 7.5,
      "classificacao_etaria": "A14",
      "imagem_original": "https://animefire.plus/img/animes/wangan-midnight.webp",
      "imagem_pasta": "https://animefire.plus/img/animes/wangan-midnight/",
      "secao": "legendados",
      "pagina": 174,
      "total_episodios": 26,
      "link_video": "https://animefire.plus/video/wangan-midnight"
    },
    {
      "id": 4119,
      "nome": "Watashi no Ashinaga Ojisan",
      "link": "https://animefire.plus/animes/watashi-no-ashinaga-ojisan-todos-os-episodios",
      "texto_original": "Watashi no Ashinaga Ojisan",
      "rating": 7.86,
      "classificacao_etaria": null,
      "imagem_original": "https://animefire.plus/img/animes/watashi-no-ashinaga-ojisan.webp",
      "imagem_pasta": "https://animefire.plus/img/animes/watashi-no-ashinaga-ojisan/",
      "secao": "legendados",
      "pagina": 124,
      "total_episodios": 40,
      "link_video": "https://animefire.plus/video/watashi-no-ashinaga-ojisan"
    },
    {
      "id": 4127,
      "nome": "Whistle! (Dublado)",
      "link": "https://animefire.plus/animes/whistle-dublado-todos-os-episodios",
      "texto_original": "Whistle! (Dublado)",
      "rating": 7.42,
      "classificacao_etaria": null,
      "imagem_original": "https://animefire.plus/img/animes/whistle.webp",
      "imagem_pasta": "https://animefire.plus/img/animes/whistle/",
      "secao": "dublados",
      "pagina": 23,
      "total_episodios": 39,
      "link_video": "https://animefire.plus/video/whistle-dublado"
    },
    {
      "id": 4136,
      "nome": "Witch Hunter Robin",
      "link": "https://animefire.plus/animes/witch-hunter-robin-todos-os-episodios",
      "texto_original": "Witch Hunter Robin",
      "rating": 7.32,
      "classificacao_etaria": "A14",
      "imagem_original": "https://animefire.plus/img/animes/witch-hunter-robin.webp",
      "imagem_pasta": "https://animefire.plus/img/animes/witch-hunter-robin/",
      "secao": "legendados",
      "pagina": 156,
      "total_episodios": 26,
      "link_video": "https://animefire.plus/video/witch-hunter-robin"
    },
    {
      "id": 4147,
      "nome": "Wolf's Rain (Dublado)",
      "link": "https://animefire.plus/animes/wolf-s-rain-dublado-todos-os-episodios",
      "texto_original": "Wolf's Rain (Dublado)",
      "rating": 7.88,
      "classificacao_etaria": "A14",
      "imagem_original": "https://animefire.plus/img/animes/wolf-s-rain.webp",
      "imagem_pasta": "https://animefire.plus/img/animes/wolf-s-rain/",
      "secao": "dublados,legendados",
      "pagina": 25,
      "total_episodios": 26,
      "link_video": "https://animefire.plus/video/wolf-s-rain-dublado"
    },
    {
      "id": 4152,
      "nome": "Wonderful Precure!",
      "link": "https://animefire.plus/animes/wonderful-precure-todos-os-episodios",
      "texto_original": "Wonderful Precure!",
      "rating": 7.57,
      "classificacao_etaria": null,
      "imagem_original": "https://animefire.plus/img/animes/wonderful-precure.webp",
      "imagem_pasta": "https://animefire.plus/img/animes/wonderful-precure/",
      "secao": "legendados",
      "pagina": 16,
      "total_episodios": 50,
      "link_video": "https://animefire.plus/video/wonderful-precure"
    },
    {
      "id": 4162,
      "nome": "Wu Geng Ji",
      "link": "https://animefire.plus/animes/wu-geng-ji-todos-os-episodios",
      "texto_original": "Wu Geng Ji",
      "rating": 7.6,
      "classificacao_etaria": "A14",
      "imagem_original": "https://animefire.plus/img/animes/wu-geng-ji.webp",
      "imagem_pasta": "https://animefire.plus/img/animes/wu-geng-ji/",
      "secao": "legendados",
      "pagina": 144,
      "total_episodios": 30,
      "link_video": "https://animefire.plus/video/wu-geng-ji"
    },
    {
      "id": 4164,
      "nome": "Wu Shen Zhu Zai",
      "link": "https://animefire.plus/animes/wu-shen-zhu-zai-todos-os-episodios",
      "texto_original": "Wu Shen Zhu Zai",
      "rating": 7.07,
      "classificacao_etaria": "A14",
      "imagem_original": "https://animefire.plus/img/animes/wu-shen-zhu-zai.webp",
      "imagem_pasta": "https://animefire.plus/img/animes/wu-shen-zhu-zai/",
      "secao": "legendados",
      "pagina": 72,
      "total_episodios": 25,
      "link_video": "https://animefire.plus/video/wu-shen-zhu-zai"
    }
  ],
  "pagination": {
    "current_page": 18,
    "per_page": 20,
    "total_items": 370,
    "total_pages": 19,
    "has_next": true,
    "has_prev": true
  }
}
