{
  "message": "Animes com 25 a 50 episódios",
  "episode_range": {
    "min": 25,
    "max": 50
  },
  "data": [
    {
      "id": 3589,
      "nome": "Soukyuu no Fafner: Dead Aggressor",
      "link": "https://animefire.plus/animes/soukyuu-no-fafner-dead-aggressor-todos-os-episodios",
      "texto_original": "Soukyuu no Fafner: Dead Aggressor",
      "rating": 7.35,
      "classificacao_etaria": "A14",
      "imagem_original": "https://animefire.plus/img/animes/soukyuu-no-fafner-dead-aggressor.webp",
      "imagem_pasta": "https://animefire.plus/img/animes/soukyuu-no-fafner-dead-aggressor/",
      "secao": "legendados",
      "pagina": 117,
      "total_episodios": 25,
      "link_video": "https://animefire.plus/video/soukyuu-no-fafner-dead-aggressor"
    },
    {
      "id": 3597,
      "nome": "Sousei no Aquarion",
      "link": "https://animefire.plus/animes/sousei-no-aquarion-todos-os-episodios",
      "texto_original": "Sousei no Aquarion",
      "rating": 7.16,
      "classificacao_etaria": "A14",
      "imagem_original": "https://animefire.plus/img/animes/sousei-no-aquarion.webp",
      "imagem_pasta": "https://animefire.plus/img/animes/sousei-no-aquarion/",
      "secao": "legendados",
      "pagina": 170,
      "total_episodios": 26,
      "link_video": "https://animefire.plus/video/sousei-no-aquarion"
    },
    {
      "id": 3599,
      "nome": "Sousei no Onmyouji",
      "link": "https://animefire.plus/animes/sousei-no-onmyouji-todos-os-episodios",
      "texto_original": "Sousei no Onmyouji",
      "rating": 7.41,
      "classificacao_etaria": "A14",
      "imagem_original": "https://animefire.plus/img/animes/sousei-no-onmyouji.webp",
      "imagem_pasta": "https://animefire.plus/img/animes/sousei-no-onmyouji/",
      "secao": "legendados",
      "pagina": 95,
      "total_episodios": 50,
      "link_video": "https://animefire.plus/video/sousei-no-onmyouji"
    },
    {
      "id": 3601,
      "nome": "Sousou no Frieren (Dublado)",
      "link": "https://animefire.plus/animes/sousou-no-frieren-dublado-todos-os-episodios",
      "texto_original": "Sousou no Frieren (Dublado)",
      "rating": 9.3,
      "classificacao_etaria": "A14",
      "imagem_original": "https://animefire.plus/img/animes/sousou-no-frieren.webp",
      "imagem_pasta": "https://animefire.plus/img/animes/sousou-no-frieren/",
      "secao": "dublados,legendados",
      "pagina": 5,
      "total_episodios": 28,
      "link_video": "https://animefire.plus/video/sousou-no-frieren-dublado"
    },
    {
      "id": 3603,
      "nome": "Souten Kouro",
      "link": "https://animefire.plus/animes/souten-kouro-todos-os-episodios",
      "texto_original": "Souten Kouro",
      "rating": 7.31,
      "classificacao_etaria": "A18",
      "imagem_original": "https://animefire.plus/img/animes/souten-kouro.webp",
      "imagem_pasta": "https://animefire.plus/img/animes/souten-kouro/",
      "secao": "legendados",
      "pagina": 86,
      "total_episodios": 26,
      "link_video": "https://animefire.plus/video/souten-kouro"
    },
    {
      "id": 3604,
      "nome": "Souten no Ken",
      "link": "https://animefire.plus/animes/souten-no-ken-todos-os-episodios",
      "texto_original": "Souten no Ken",
      "rating": 6.75,
      "classificacao_etaria": "A16",
      "imagem_original": "https://animefire.plus/img/animes/souten-no-ken.webp",
      "imagem_pasta": "https://animefire.plus/img/animes/souten-no-ken/",
      "secao": "legendados",
      "pagina": 168,
      "total_episodios": 26,
      "link_video": "https://animefire.plus/video/souten-no-ken"
    },
    {
      "id": 3611,
      "nome": "Spiral: Suiri no Kizuna",
      "link": "https://animefire.plus/animes/spiral-suiri-no-kizuna-todos-os-episodios",
      "texto_original": "Spiral: Suiri no Kizuna",
      "rating": 7.33,
      "classificacao_etaria": "A14",
      "imagem_original": "https://animefire.plus/img/animes/spiral-suiri-no-kizuna.webp",
      "imagem_pasta": "https://animefire.plus/img/animes/spiral-suiri-no-kizuna/",
      "secao": "legendados",
      "pagina": 127,
      "total_episodios": 25,
      "link_video": "https://animefire.plus/video/spiral-suiri-no-kizuna"
    },
    {
      "id": 3621,
      "nome": "Star Driver: Kagayaki no Takuto",
      "link": "https://animefire.plus/animes/star-driver-kagayaki-no-takuto-todos-os-episodios",
      "texto_original": "Star Driver: Kagayaki no Takuto",
      "rating": 7.26,
      "classificacao_etaria": "A14",
      "imagem_original": "https://animefire.plus/img/animes/star-driver-kagayaki-no-takuto.webp",
      "imagem_pasta": "https://animefire.plus/img/animes/star-driver-kagayaki-no-takuto/",
      "secao": "legendados",
      "pagina": 66,
      "total_episodios": 25,
      "link_video": "https://animefire.plus/video/star-driver-kagayaki-no-takuto"
    },
    {
      "id": 3622,
      "nome": "Star Ocean EX",
      "link": "https://animefire.plus/animes/star-ocean-ex-todos-os-episodios",
      "texto_original": "Star Ocean EX",
      "rating": 6.66,
      "classificacao_etaria": "A14",
      "imagem_original": "https://animefire.plus/img/animes/star-ocean-ex.webp",
      "imagem_pasta": "https://animefire.plus/img/animes/star-ocean-ex/",
      "secao": "legendados",
      "pagina": 119,
      "total_episodios": 26,
      "link_video": "https://animefire.plus/video/star-ocean-ex"
    },
    {
      "id": 3629,
      "nome": "Starry☆Sky",
      "link": "https://animefire.plus/animes/starry-sky-todos-os-episodios",
      "texto_original": "Starry☆Sky",
      "rating": 6.23,
      "classificacao_etaria": "A14",
      "imagem_original": "https://animefire.plus/img/animes/starry-sky.webp",
      "imagem_pasta": "https://animefire.plus/img/animes/starry-sky/",
      "secao": "legendados",
      "pagina": 119,
      "total_episodios": 26,
      "link_video": "https://animefire.plus/video/starry-sky"
    },
    {
      "id": 3631,
      "nome": "Steins;Gate (Dublado)",
      "link": "https://animefire.plus/animes/steins-gate-dublado-todos-os-episodios",
      "texto_original": "Steins;Gate (Dublado)",
      "rating": 9.12,
      "classificacao_etaria": "A14",
      "imagem_original": "https://animefire.plus/img/animes/steins-gate.webp",
      "imagem_pasta": "https://animefire.plus/img/animes/steins-gate/",
      "secao": "dublados,legendados",
      "pagina": 19,
      "total_episodios": 25,
      "link_video": "https://animefire.plus/video/steins-gate-dublado"
    },
    {
      "id": 3642,
      "nome": "Strawberry Panic",
      "link": "https://animefire.plus/animes/strawberry-panic-todos-os-episodios",
      "texto_original": "Strawberry Panic",
      "rating": 7.39,
      "classificacao_etaria": "A14",
      "imagem_original": "https://animefire.plus/img/animes/strawberry-panic.webp",
      "imagem_pasta": "https://animefire.plus/img/animes/strawberry-panic/",
      "secao": "legendados",
      "pagina": 123,
      "total_episodios": 26,
      "link_video": "https://animefire.plus/video/strawberry-panic"
    },
    {
      "id": 3643,
      "nome": "Street Fighter II V (Dublado)",
      "link": "https://animefire.plus/animes/street-fighter-ii-v-dublado-todos-os-episodios",
      "texto_original": "Street Fighter II V (Dublado)",
      "rating": 7.08,
      "classificacao_etaria": "A14",
      "imagem_original": "https://animefire.plus/img/animes/street-fighter-ii-v.webp",
      "imagem_pasta": "https://animefire.plus/img/animes/street-fighter-ii-v/",
      "secao": "dublados,legendados",
      "pagina": 22,
      "total_episodios": 29,
      "link_video": "https://animefire.plus/video/street-fighter-ii-v-dublado"
    },
    {
      "id": 3666,
      "nome": "Suite Precure♪",
      "link": "https://animefire.plus/animes/suite-precure-todos-os-episodios",
      "texto_original": "Suite Precure♪",
      "rating": 7.35,
      "classificacao_etaria": null,
      "imagem_original": "https://animefire.plus/img/animes/suite-precure.webp",
      "imagem_pasta": "https://animefire.plus/img/animes/suite-precure/",
      "secao": "legendados",
      "pagina": 139,
      "total_episodios": 46,
      "link_video": "https://animefire.plus/video/suite-precure"
    },
    {
      "id": 3672,
      "nome": "Summertime Render (Dublado)",
      "link": "https://animefire.plus/animes/summertime-render-dublado-todos-os-episodios",
      "texto_original": "Summertime Render (Dublado)",
      "rating": 8.47,
      "classificacao_etaria": "A16",
      "imagem_original": "https://animefire.plus/img/animes/summertime-render.webp",
      "imagem_pasta": "https://animefire.plus/img/animes/summertime-render/",
      "secao": "dublados,legendados,lancamentos",
      "pagina": 10,
      "total_episodios": 25,
      "link_video": "https://animefire.plus/video/summertime-render-dublado"
    },
    {
      "id": 3680,
      "nome": "Super Robot Taisen OG: Divine Wars",
      "link": "https://animefire.plus/animes/super-robot-taisen-og-divine-wars-todos-os-episodios",
      "texto_original": "Super Robot Taisen OG: Divine Wars",
      "rating": 6.89,
      "classificacao_etaria": "A14",
      "imagem_original": "https://animefire.plus/img/animes/super-robot-taisen-og-divine-wars.webp",
      "imagem_pasta": "https://animefire.plus/img/animes/super-robot-taisen-og-divine-wars/",
      "secao": "legendados",
      "pagina": 141,
      "total_episodios": 26,
      "link_video": "https://animefire.plus/video/super-robot-taisen-og-divine-wars"
    },
    {
      "id": 3681,
      "nome": "Super Robot Taisen OG: The Inspector",
      "link": "https://animefire.plus/animes/super-robot-taisen-og-the-inspector-todos-os-episodios",
      "texto_original": "Super Robot Taisen OG: The Inspector",
      "rating": 7.31,
      "classificacao_etaria": "A14",
      "imagem_original": "https://animefire.plus/img/animes/super-robot-taisen-og-the-inspector.webp",
      "imagem_pasta": "https://animefire.plus/img/animes/super-robot-taisen-og-the-inspector/",
      "secao": "legendados",
      "pagina": 130,
      "total_episodios": 26,
      "link_video": "https://animefire.plus/video/super-robot-taisen-og-the-inspector"
    },
    {
      "id": 3690,
      "nome": "Sword Art Online (Dublado)",
      "link": "https://animefire.plus/animes/sword-art-online-dublado-todos-os-episodios",
      "texto_original": "Sword Art Online (Dublado)",
      "rating": 7.2,
      "classificacao_etaria": "A14",
      "imagem_original": "https://animefire.plus/img/animes/sword-art-online.webp",
      "imagem_pasta": "https://animefire.plus/img/animes/sword-art-online/",
      "secao": "dublados,legendados",
      "pagina": 13,
      "total_episodios": 25,
      "link_video": "https://animefire.plus/video/sword-art-online-dublado"
    },
    {
      "id": 3707,
      "nome": "Tactics",
      "link": "https://animefire.plus/animes/tactics-todos-os-episodios",
      "texto_original": "Tactics",
      "rating": 7.28,
      "classificacao_etaria": "A14",
      "imagem_original": "https://animefire.plus/img/animes/tactics.webp",
      "imagem_pasta": "https://animefire.plus/img/animes/tactics/",
      "secao": "legendados",
      "pagina": 142,
      "total_episodios": 25,
      "link_video": "https://animefire.plus/video/tactics"
    },
    {
      "id": 3711,
      "nome": "Taiho Shichau zo (TV)",
      "link": "https://animefire.plus/animes/taiho-shichau-zo-tv-todos-os-episodios",
      "texto_original": "Taiho Shichau zo (TV)",
      "rating": 7.54,
      "classificacao_etaria": "A14",
      "imagem_original": "https://animefire.plus/img/animes/taiho-shichau-zo-tv.webp",
      "imagem_pasta": "https://animefire.plus/img/animes/taiho-shichau-zo-tv/",
      "secao": "legendados",
      "pagina": 56,
      "total_episodios": 47,
      "link_video": "https://animefire.plus/video/taiho-shichau-zo-tv"
    }
  ],
  "pagination": {
    "current_page": 16,
    "per_page": 20,
    "total_items": 370,
    "total_pages": 19,
    "has_next": true,
    "has_prev": true
  }
}
