{
  "message": "Animes com 25 a 50 episódios",
  "episode_range": {
    "min": 25,
    "max": 50
  },
  "data": [
    {
      "id": 1310,
      "nome": "Haikyuu!! Second Season (Dublado)",
      "link": "https://animefire.plus/animes/haikyuu-second-season-dublado-todos-os-episodios",
      "texto_original": "Haikyuu!! Second Season (Dublado)",
      "rating": 8.64,
      "classificacao_etaria": "A14",
      "imagem_original": "https://animefire.plus/img/animes/haikyuu-second-season.webp",
      "imagem_pasta": "https://animefire.plus/img/animes/haikyuu-second-season/",
      "secao": "dublados,legendados",
      "pagina": 8,
      "total_episodios": 25,
      "link_video": "https://animefire.plus/video/haikyuu-second-season-dublado"
    },
    {
      "id": 1323,
      "nome": "Hajime no Ippo: Rising",
      "link": "https://animefire.plus/animes/hajime-no-ippo-rising-todos-os-episodios",
      "texto_original": "Hajime no Ippo: Rising",
      "rating": 8.62,
      "classificacao_etaria": "A14",
      "imagem_original": "https://animefire.plus/img/animes/hajime-no-ippo-rising.webp",
      "imagem_pasta": "https://animefire.plus/img/animes/hajime-no-ippo-rising/",
      "secao": "legendados",
      "pagina": 76,
      "total_episodios": 25,
      "link_video": "https://animefire.plus/video/hajime-no-ippo-rising"
    },
    {
      "id": 1353,
      "nome": "Hanasaku Iroha",
      "link": "https://animefire.plus/animes/hanasaku-iroha-todos-os-episodios",
      "texto_original": "Hanasaku Iroha",
      "rating": 8,
      "classificacao_etaria": "A14",
      "imagem_original": "https://animefire.plus/img/animes/hanasaku-iroha.webp",
      "imagem_pasta": "https://animefire.plus/img/animes/hanasaku-iroha/",
      "secao": "legendados",
      "pagina": 105,
      "total_episodios": 26,
      "link_video": "https://animefire.plus/video/hanasaku-iroha"
    },
    {
      "id": 1368,
      "nome": "Hanma Baki: Son of Ogre 2nd Season (Dublado)",
      "link": "https://animefire.plus/animes/hanma-baki-son-of-ogre-2nd-season-dublado-todos-os-episodios",
      "texto_original": "Hanma Baki: Son of Ogre 2nd Season (Dublado)",
      "rating": 7.94,
      "classificacao_etaria": "A16",
      "imagem_original": "https://animefire.plus/img/animes/hanma-baki-son-of-ogre-2nd-season.webp",
      "imagem_pasta": "https://animefire.plus/img/animes/hanma-baki-son-of-ogre-2nd-season/",
      "secao": "dublados,legendados",
      "pagina": 6,
      "total_episodios": 27,
      "link_video": "https://animefire.plus/video/hanma-baki-son-of-ogre-2nd-season-dublado"
    },
    {
      "id": 1373,
      "nome": "Happiness Charge Precure!",
      "link": "https://animefire.plus/animes/happiness-charge-precure-todos-os-episodios",
      "texto_original": "Happiness Charge Precure!",
      "rating": 6.8,
      "classificacao_etaria": null,
      "imagem_original": "https://animefire.plus/img/animes/happiness-charge-precure.webp",
      "imagem_pasta": "https://animefire.plus/img/animes/happiness-charge-precure/",
      "secao": "legendados",
      "pagina": 67,
      "total_episodios": 49,
      "link_video": "https://animefire.plus/video/happiness-charge-precure"
    },
    {
      "id": 1378,
      "nome": "Harukanaru Toki No Naka De: Hachiyou Shou",
      "link": "https://animefire.plus/animes/harukanaru-toki-no-naka-de-hachiyou-shou-todos-os-episodios",
      "texto_original": "Harukanaru Toki No Naka De: Hachiyou Shou",
      "rating": 7.12,
      "classificacao_etaria": "A14",
      "imagem_original": "https://animefire.plus/img/animes/harukanaru-toki-no-naka-de-hachiyou-shou.webp",
      "imagem_pasta": "https://animefire.plus/img/animes/harukanaru-toki-no-naka-de-hachiyou-shou/",
      "secao": "legendados",
      "pagina": 100,
      "total_episodios": 26,
      "link_video": "https://animefire.plus/video/harukanaru-toki-no-naka-de-hachiyou-shou"
    },
    {
      "id": 1397,
      "nome": "Hayate no Gotoku!",
      "link": "https://animefire.plus/animes/hayate-no-gotoku-todos-os-episodios",
      "texto_original": "Hayate no Gotoku!",
      "rating": 7.62,
      "classificacao_etaria": "A14",
      "imagem_original": "https://animefire.plus/img/animes/hayate-no-gotoku.webp",
      "imagem_pasta": "https://animefire.plus/img/animes/hayate-no-gotoku/",
      "secao": "legendados",
      "pagina": 66,
      "total_episodios": 46,
      "link_video": "https://animefire.plus/video/hayate-no-gotoku"
    },
    {
      "id": 1405,
      "nome": "Heartcatch Precure!",
      "link": "https://animefire.plus/animes/heartcatch-precure-todos-os-episodios",
      "texto_original": "Heartcatch Precure!",
      "rating": 7.82,
      "classificacao_etaria": "A16",
      "imagem_original": "https://animefire.plus/img/animes/heartcatch-precure.webp",
      "imagem_pasta": "https://animefire.plus/img/animes/heartcatch-precure/",
      "secao": "legendados",
      "pagina": 67,
      "total_episodios": 49,
      "link_video": "https://animefire.plus/video/heartcatch-precure"
    },
    {
      "id": 1421,
      "nome": "Heppoko Jikken Animation Excel♥Saga (Dublado)",
      "link": "https://animefire.plus/animes/heppoko-jikken-animation-excel-saga-dublado-todos-os-episodios",
      "texto_original": "Heppoko Jikken Animation Excel♥Saga (Dublado)",
      "rating": 7.51,
      "classificacao_etaria": "A16",
      "imagem_original": "https://animefire.plus/img/animes/heppoko-jikken-animation-excel-saga.webp",
      "imagem_pasta": "https://animefire.plus/img/animes/heppoko-jikken-animation-excel-saga/",
      "secao": "dublados,legendados",
      "pagina": 22,
      "total_episodios": 26,
      "link_video": "https://animefire.plus/video/heppoko-jikken-animation-excel-saga-dublado"
    },
    {
      "id": 1425,
      "nome": "Heroic Age",
      "link": "https://animefire.plus/animes/heroic-age-todos-os-episodios",
      "texto_original": "Heroic Age",
      "rating": 7.61,
      "classificacao_etaria": "A14",
      "imagem_original": "https://animefire.plus/img/animes/heroic-age.webp",
      "imagem_pasta": "https://animefire.plus/img/animes/heroic-age/",
      "secao": "legendados",
      "pagina": 145,
      "total_episodios": 26,
      "link_video": "https://animefire.plus/video/heroic-age"
    },
    {
      "id": 1427,
      "nome": "Heroman",
      "link": "https://animefire.plus/animes/heroman-todos-os-episodios",
      "texto_original": "Heroman",
      "rating": 6.86,
      "classificacao_etaria": "A14",
      "imagem_original": "https://animefire.plus/img/animes/heroman.webp",
      "imagem_pasta": "https://animefire.plus/img/animes/heroman/",
      "secao": "legendados",
      "pagina": 71,
      "total_episodios": 26,
      "link_video": "https://animefire.plus/video/heroman"
    },
    {
      "id": 1451,
      "nome": "Higepiyo",
      "link": "https://animefire.plus/animes/higepiyo-todos-os-episodios",
      "texto_original": "Higepiyo",
      "rating": 7.13,
      "classificacao_etaria": "A10",
      "imagem_original": "https://animefire.plus/img/animes/higepiyo.webp",
      "imagem_pasta": "https://animefire.plus/img/animes/higepiyo/",
      "secao": "legendados",
      "pagina": 78,
      "total_episodios": 30,
      "link_video": "https://animefire.plus/video/higepiyo"
    },
    {
      "id": 1465,
      "nome": "Higurashi no Naku Koro ni",
      "link": "https://animefire.plus/animes/higurashi-no-naku-koro-ni-todos-os-episodios",
      "texto_original": "Higurashi no Naku Koro ni",
      "rating": 8.06,
      "classificacao_etaria": "A16",
      "imagem_original": "https://animefire.plus/img/animes/higurashi-no-naku-koro-ni.webp",
      "imagem_pasta": "https://animefire.plus/img/animes/higurashi-no-naku-koro-ni/",
      "secao": "legendados",
      "pagina": 116,
      "total_episodios": 26,
      "link_video": "https://animefire.plus/video/higurashi-no-naku-koro-ni"
    },
    {
      "id": 1497,
      "nome": "Hirogaru Sky! Precure",
      "link": "https://animefire.plus/animes/hirogaru-sky-precure-todos-os-episodios",
      "texto_original": "Hirogaru Sky! Precure",
      "rating": 7.6,
      "classificacao_etaria": null,
      "imagem_original": "https://animefire.plus/img/animes/hirogaru-sky-precure.webp",
      "imagem_pasta": "https://animefire.plus/img/animes/hirogaru-sky-precure/",
      "secao": "legendados",
      "pagina": 25,
      "total_episodios": 50,
      "link_video": "https://animefire.plus/video/hirogaru-sky-precure"
    },
    {
      "id": 1514,
      "nome": "Hokuto no Ken 2",
      "link": "https://animefire.plus/animes/hokuto-no-ken-2-todos-os-episodios",
      "texto_original": "Hokuto no Ken 2",
      "rating": 7.58,
      "classificacao_etaria": "A16",
      "imagem_original": "https://animefire.plus/img/animes/hokuto-no-ken-2.webp",
      "imagem_pasta": "https://animefire.plus/img/animes/hokuto-no-ken-2/",
      "secao": "legendados",
      "pagina": 77,
      "total_episodios": 43,
      "link_video": "https://animefire.plus/video/hokuto-no-ken-2"
    },
    {
      "id": 1523,
      "nome": "Hoozuki no Reitetsu 2nd Season",
      "link": "https://animefire.plus/animes/hoozuki-no-reitetsu-2nd-season-todos-os-episodios",
      "texto_original": "Hoozuki no Reitetsu 2nd Season",
      "rating": 7.88,
      "classificacao_etaria": "A14",
      "imagem_original": "https://animefire.plus/img/animes/hoozuki-no-reitetsu-2nd-season.webp",
      "imagem_pasta": "https://animefire.plus/img/animes/hoozuki-no-reitetsu-2nd-season/",
      "secao": "legendados",
      "pagina": 63,
      "total_episodios": 26,
      "link_video": "https://animefire.plus/video/hoozuki-no-reitetsu-2nd-season"
    },
    {
      "id": 1546,
      "nome": "Hug tto! Precure",
      "link": "https://animefire.plus/animes/hug-tto-precure-todos-os-episodios",
      "texto_original": "Hug tto! Precure",
      "rating": 7.76,
      "classificacao_etaria": null,
      "imagem_original": "https://animefire.plus/img/animes/hug-tto-precure.webp",
      "imagem_pasta": "https://animefire.plus/img/animes/hug-tto-precure/",
      "secao": "legendados",
      "pagina": 67,
      "total_episodios": 49,
      "link_video": "https://animefire.plus/video/hug-tto-precure"
    },
    {
      "id": 1555,
      "nome": "Huyao Xiao Hongniang: Nan Guo",
      "link": "https://animefire.plus/animes/huyao-xiao-hongniang-nan-guo-todos-os-episodios",
      "texto_original": "Huyao Xiao Hongniang: Nan Guo",
      "rating": 7.61,
      "classificacao_etaria": "A14",
      "imagem_original": "https://animefire.plus/img/animes/huyao-xiao-hongniang-nan-guo.webp",
      "imagem_pasta": "https://animefire.plus/img/animes/huyao-xiao-hongniang-nan-guo/",
      "secao": "legendados",
      "pagina": 132,
      "total_episodios": 26,
      "link_video": "https://animefire.plus/video/huyao-xiao-hongniang-nan-guo"
    },
    {
      "id": 1565,
      "nome": "Hyakujuu-Ou GoLion",
      "link": "https://animefire.plus/animes/hyakujuu-ou-golion-todos-os-episodios",
      "texto_original": "Hyakujuu-Ou GoLion",
      "rating": 6.82,
      "classificacao_etaria": "A14",
      "imagem_original": "https://animefire.plus/img/animes/hyakujuu-ou-golion.webp",
      "imagem_pasta": "https://animefire.plus/img/animes/hyakujuu-ou-golion/",
      "secao": "legendados",
      "pagina": 43,
      "total_episodios": 28,
      "link_video": "https://animefire.plus/video/hyakujuu-ou-golion"
    },
    {
      "id": 1594,
      "nome": "iDOLM@STER Xenoglossia",
      "link": "https://animefire.plus/animes/idolmatster-xenoglossia-todos-os-episodios",
      "texto_original": "iDOLM@STER Xenoglossia",
      "rating": 6.6,
      "classificacao_etaria": "A14",
      "imagem_original": "https://animefire.plus/img/animes/idolmatster-xenoglossia.webp",
      "imagem_pasta": "https://animefire.plus/img/animes/idolmatster-xenoglossia/",
      "secao": "legendados",
      "pagina": 130,
      "total_episodios": 26,
      "link_video": "https://animefire.plus/video/idolmatster-xenoglossia"
    }
  ],
  "pagination": {
    "current_page": 7,
    "per_page": 20,
    "total_items": 370,
    "total_pages": 19,
    "has_next": true,
    "has_prev": true
  }
}
