{
  "message": "Animes com 25 a 50 episódios",
  "episode_range": {
    "min": 25,
    "max": 50
  },
  "data": [
    {
      "id": 4232,
      "nome": "Yes! Precure 5 GoGo!",
      "link": "https://animefire.plus/animes/yes-precure-5-gogo-todos-os-episodios",
      "texto_original": "Yes! Precure 5 GoGo!",
      "rating": 7.15,
      "classificacao_etaria": null,
      "imagem_original": "https://animefire.plus/img/animes/yes-precure-5-gogo.webp",
      "imagem_pasta": "https://animefire.plus/img/animes/yes-precure-5-gogo/",
      "secao": "legendados",
      "pagina": 66,
      "total_episodios": 48,
      "link_video": "https://animefire.plus/video/yes-precure-5-gogo"
    },
    {
      "id": 4258,
      "nome": "Youkai Watch",
      "link": "https://animefire.plus/animes/youkai-watch-todos-os-episodios",
      "texto_original": "Youkai Watch",
      "rating": 7.01,
      "classificacao_etaria": null,
      "imagem_original": "https://animefire.plus/img/animes/youkai-watch.webp",
      "imagem_pasta": "https://animefire.plus/img/animes/youkai-watch/",
      "secao": "legendados",
      "pagina": 167,
      "total_episodios": 46,
      "link_video": "https://animefire.plus/video/youkai-watch"
    },
    {
      "id": 4268,
      "nome": "Yowamushi Pedal",
      "link": "https://animefire.plus/animes/yowamushi-pedal-todos-os-episodios",
      "texto_original": "Yowamushi Pedal",
      "rating": 8.04,
      "classificacao_etaria": "A14",
      "imagem_original": "https://animefire.plus/img/animes/yowamushi-pedal.webp",
      "imagem_pasta": "https://animefire.plus/img/animes/yowamushi-pedal/",
      "secao": "legendados",
      "pagina": 63,
      "total_episodios": 38,
      "link_video": "https://animefire.plus/video/yowamushi-pedal"
    },
    {
      "id": 4271,
      "nome": "Yowamushi Pedal: New Generation",
      "link": "https://animefire.plus/animes/yowamushi-pedal-new-generation-todos-os-episodios",
      "texto_original": "Yowamushi Pedal: New Generation",
      "rating": 7.75,
      "classificacao_etaria": "A14",
      "imagem_original": "https://animefire.plus/img/animes/yowamushi-pedal-new-generation.webp",
      "imagem_pasta": "https://animefire.plus/img/animes/yowamushi-pedal-new-generation/",
      "secao": "legendados",
      "pagina": 64,
      "total_episodios": 25,
      "link_video": "https://animefire.plus/video/yowamushi-pedal-new-generation"
    },
    {
      "id": 4278,
      "nome": "Yu☆Gi☆Oh! Duel Monsters",
      "link": "https://animefire.plus/animes/yu-gi-oh-duel-monsters-todos-os-episodios",
      "texto_original": "Yu☆Gi☆Oh! Duel Monsters",
      "rating": 7.56,
      "classificacao_etaria": "A14",
      "imagem_original": "https://animefire.plus/img/animes/yu-gi-oh-duel-monsters.webp",
      "imagem_pasta": "https://animefire.plus/img/animes/yu-gi-oh-duel-monsters/",
      "secao": "legendados",
      "pagina": 137,
      "total_episodios": 40,
      "link_video": "https://animefire.plus/video/yu-gi-oh-duel-monsters"
    },
    {
      "id": 4280,
      "nome": "Yu☆Gi☆Oh! Zexal",
      "link": "https://animefire.plus/animes/yu-gi-oh-zexal-todos-os-episodios",
      "texto_original": "Yu☆Gi☆Oh! Zexal",
      "rating": 6.47,
      "classificacao_etaria": "A14",
      "imagem_original": "https://animefire.plus/img/animes/yu-gi-oh-zexal.webp",
      "imagem_pasta": "https://animefire.plus/img/animes/yu-gi-oh-zexal/",
      "secao": "legendados",
      "pagina": 125,
      "total_episodios": 41,
      "link_video": "https://animefire.plus/video/yu-gi-oh-zexal"
    },
    {
      "id": 4289,
      "nome": "Yume-iro Pâtissière",
      "link": "https://animefire.plus/animes/yume-iro-patissiere-todos-os-episodios",
      "texto_original": "Yume-iro Pâtissière",
      "rating": 8.01,
      "classificacao_etaria": null,
      "imagem_original": "https://animefire.plus/img/animes/yume-iro-patissiere.webp",
      "imagem_pasta": "https://animefire.plus/img/animes/yume-iro-patissiere/",
      "secao": "legendados",
      "pagina": 144,
      "total_episodios": 50,
      "link_video": "https://animefire.plus/video/yume-iro-patissiere"
    },
    {
      "id": 4307,
      "nome": "Yutori-chan",
      "link": "https://animefire.plus/animes/yutori-chan-todos-os-episodios",
      "texto_original": "Yutori-chan",
      "rating": 6.17,
      "classificacao_etaria": null,
      "imagem_original": "https://animefire.plus/img/animes/yutori-chan.webp",
      "imagem_pasta": "https://animefire.plus/img/animes/yutori-chan/",
      "secao": "legendados",
      "pagina": 156,
      "total_episodios": 25,
      "link_video": "https://animefire.plus/video/yutori-chan"
    },
    {
      "id": 4341,
      "nome": "Zegapain",
      "link": "https://animefire.plus/animes/zegapain-todos-os-episodios",
      "texto_original": "Zegapain",
      "rating": 7.39,
      "classificacao_etaria": "A14",
      "imagem_original": "https://animefire.plus/img/animes/zegapain.webp",
      "imagem_pasta": "https://animefire.plus/img/animes/zegapain/",
      "secao": "legendados",
      "pagina": 97,
      "total_episodios": 26,
      "link_video": "https://animefire.plus/video/zegapain"
    },
    {
      "id": 4366,
      "nome": "Zone of the Enders: Dolores, I",
      "link": "https://animefire.plus/animes/zone-of-the-enders-dolores-i-todos-os-episodios",
      "texto_original": "Zone of the Enders: Dolores, I",
      "rating": 7.02,
      "classificacao_etaria": "A14",
      "imagem_original": "https://animefire.plus/img/animes/zone-of-the-enders-dolores-i.webp",
      "imagem_pasta": "https://animefire.plus/img/animes/zone-of-the-enders-dolores-i/",
      "secao": "legendados",
      "pagina": 174,
      "total_episodios": 26,
      "link_video": "https://animefire.plus/video/zone-of-the-enders-dolores-i"
    }
  ],
  "pagination": {
    "current_page": 19,
    "per_page": 20,
    "total_items": 370,
    "total_pages": 19,
    "has_next": false,
    "has_prev": true
  }
}
