{
  "message": "Animes com 25 a 50 episódios",
  "episode_range": {
    "min": 25,
    "max": 50
  },
  "data": [
    {
      "id": 665,
      "nome": "Claymore (Dublado)",
      "link": "https://animefire.plus/animes/claymore-dublado-todos-os-episodios",
      "texto_original": "Claymore (Dublado)",
      "rating": 7.78,
      "classificacao_etaria": "A18",
      "imagem_original": "https://animefire.plus/img/animes/claymore.webp",
      "imagem_pasta": "https://animefire.plus/img/animes/claymore/",
      "secao": "dublados,legendados",
      "pagina": 18,
      "total_episodios": 26,
      "link_video": "https://animefire.plus/video/claymore-dublado"
    },
    {
      "id": 675,
      "nome": "Code Geass: Hangyaku no Lelouch",
      "link": "https://animefire.plus/animes/code-geass-hangyaku-no-lelouch-todos-os-episodios",
      "texto_original": "Code Geass: Hangyaku no Lelouch",
      "rating": 8.77,
      "classificacao_etaria": "A16",
      "imagem_original": "https://animefire.plus/img/animes/code-geass-hangyaku-no-lelouch.webp",
      "imagem_pasta": "https://animefire.plus/img/animes/code-geass-hangyaku-no-lelouch/",
      "secao": "legendados",
      "pagina": 154,
      "total_episodios": 25,
      "link_video": "https://animefire.plus/video/code-geass-hangyaku-no-lelouch"
    },
    {
      "id": 676,
      "nome": "Code Geass: Hangyaku no Lelouch R2",
      "link": "https://animefire.plus/animes/code-geass-hangyaku-no-lelouch-r2-todos-os-episodios",
      "texto_original": "Code Geass: Hangyaku no Lelouch R2",
      "rating": 8.93,
      "classificacao_etaria": "A16",
      "imagem_original": "https://animefire.plus/img/animes/code-geass-hangyaku-no-lelouch-r2.webp",
      "imagem_pasta": "https://animefire.plus/img/animes/code-geass-hangyaku-no-lelouch-r2/",
      "secao": "legendados",
      "pagina": 176,
      "total_episodios": 25,
      "link_video": "https://animefire.plus/video/code-geass-hangyaku-no-lelouch-r2"
    },
    {
      "id": 701,
      "nome": "Cross Ange: Tenshi to Ryuu no Rondo",
      "link": "https://animefire.plus/animes/cross-ange-tenshi-to-ryuu-no-rondo-todos-os-episodios",
      "texto_original": "Cross Ange: Tenshi to Ryuu no Rondo",
      "rating": 7.44,
      "classificacao_etaria": "A16",
      "imagem_original": "https://animefire.plus/img/animes/cross-ange-tenshi-to-ryuu-no-rondo.webp",
      "imagem_pasta": "https://animefire.plus/img/animes/cross-ange-tenshi-to-ryuu-no-rondo/",
      "secao": "legendados",
      "pagina": 76,
      "total_episodios": 25,
      "link_video": "https://animefire.plus/video/cross-ange-tenshi-to-ryuu-no-rondo"
    },
    {
      "id": 703,
      "nome": "Cross Game",
      "link": "https://animefire.plus/animes/cross-game-todos-os-episodios",
      "texto_original": "Cross Game",
      "rating": 8.46,
      "classificacao_etaria": "A14",
      "imagem_original": "https://animefire.plus/img/animes/cross-game.webp",
      "imagem_pasta": "https://animefire.plus/img/animes/cross-game/",
      "secao": "legendados",
      "pagina": 178,
      "total_episodios": 50,
      "link_video": "https://animefire.plus/video/cross-game"
    },
    {
      "id": 713,
      "nome": "D.C.: Da Capo",
      "link": "https://animefire.plus/animes/d-c-da-capo-todos-os-episodios",
      "texto_original": "D.C.: Da Capo",
      "rating": 6.84,
      "classificacao_etaria": "A14",
      "imagem_original": "https://animefire.plus/img/animes/d-c-da-capo.webp",
      "imagem_pasta": "https://animefire.plus/img/animes/d-c-da-capo/",
      "secao": "legendados",
      "pagina": 127,
      "total_episodios": 26,
      "link_video": "https://animefire.plus/video/d-c-da-capo"
    },
    {
      "id": 719,
      "nome": "D.N.Angel",
      "link": "https://animefire.plus/animes/d-n-angel-todos-os-episodios",
      "texto_original": "D.N.Angel",
      "rating": 7.29,
      "classificacao_etaria": "A14",
      "imagem_original": "https://animefire.plus/img/animes/d-n-angel.webp",
      "imagem_pasta": "https://animefire.plus/img/animes/d-n-angel/",
      "secao": "legendados",
      "pagina": 153,
      "total_episodios": 26,
      "link_video": "https://animefire.plus/video/d-n-angel"
    },
    {
      "id": 751,
      "nome": "Dark Gathering",
      "link": "https://animefire.plus/animes/dark-gathering-todos-os-episodios",
      "texto_original": "Dark Gathering",
      "rating": 7.84,
      "classificacao_etaria": "A16",
      "imagem_original": "https://animefire.plus/img/animes/dark-gathering.jpg",
      "imagem_pasta": "https://animefire.plus/img/animes/dark-gathering/",
      "secao": "legendados",
      "pagina": 22,
      "total_episodios": 25,
      "link_video": "https://animefire.plus/video/dark-gathering"
    },
    {
      "id": 752,
      "nome": "Darker than Black: Kuro no Keiyakusha",
      "link": "https://animefire.plus/animes/darker-than-black-kuro-no-keiyakusha-todos-os-episodios",
      "texto_original": "Darker than Black: Kuro no Keiyakusha",
      "rating": 8.18,
      "classificacao_etaria": "A16",
      "imagem_original": "https://animefire.plus/img/animes/darker-than-black-kuro-no-keiyakusha.webp",
      "imagem_pasta": "https://animefire.plus/img/animes/darker-than-black-kuro-no-keiyakusha/",
      "secao": "legendados",
      "pagina": 163,
      "total_episodios": 26,
      "link_video": "https://animefire.plus/video/darker-than-black-kuro-no-keiyakusha"
    },
    {
      "id": 771,
      "nome": "Dear Boys (Dublado)",
      "link": "https://animefire.plus/animes/dear-boys-dublado-todos-os-episodios",
      "texto_original": "Dear Boys (Dublado)",
      "rating": 6.88,
      "classificacao_etaria": "A14",
      "imagem_original": "https://animefire.plus/img/animes/dear-boys.webp",
      "imagem_pasta": "https://animefire.plus/img/animes/dear-boys/",
      "secao": "dublados",
      "pagina": 22,
      "total_episodios": 26,
      "link_video": "https://animefire.plus/video/dear-boys-dublado"
    },
    {
      "id": 776,
      "nome": "Death Note (Dublado)",
      "link": "https://animefire.plus/animes/death-note-dublado-todos-os-episodios",
      "texto_original": "Death Note (Dublado)",
      "rating": 8.66,
      "classificacao_etaria": "A16",
      "imagem_original": "https://animefire.plus/img/animes/death-note.webp",
      "imagem_pasta": "https://animefire.plus/img/animes/death-note/",
      "secao": "dublados,legendados",
      "pagina": 26,
      "total_episodios": 37,
      "link_video": "https://animefire.plus/video/death-note-dublado"
    },
    {
      "id": 786,
      "nome": "Delicious Party♡Precure",
      "link": "https://animefire.plus/animes/delicious-party-precure-todos-os-episodios",
      "texto_original": "Delicious Party♡Precure",
      "rating": 6.86,
      "classificacao_etaria": "A16",
      "imagem_original": "https://animefire.plus/img/animes/delicious-party-precure.webp",
      "imagem_pasta": "https://animefire.plus/img/animes/delicious-party-precure/",
      "secao": "legendados",
      "pagina": 35,
      "total_episodios": 45,
      "link_video": "https://animefire.plus/video/delicious-party-precure"
    },
    {
      "id": 804,
      "nome": "Devilman Lady",
      "link": "https://animefire.plus/animes/devilman-lady-todos-os-episodios",
      "texto_original": "Devilman Lady",
      "rating": 6.76,
      "classificacao_etaria": "A18",
      "imagem_original": "https://animefire.plus/img/animes/devilman-lady.webp",
      "imagem_pasta": "https://animefire.plus/img/animes/devilman-lady/",
      "secao": "legendados",
      "pagina": 98,
      "total_episodios": 26,
      "link_video": "https://animefire.plus/video/devilman-lady"
    },
    {
      "id": 818,
      "nome": "Digimon Adventure 02 (Dublado)",
      "link": "https://animefire.plus/animes/digimon-adventure-02-dublado-todos-os-episodios",
      "texto_original": "Digimon Adventure 02 (Dublado)",
      "rating": 7.33,
      "classificacao_etaria": "A10",
      "imagem_original": "https://animefire.plus/img/animes/digimon-adventure-02.webp",
      "imagem_pasta": "https://animefire.plus/img/animes/digimon-adventure-02/",
      "secao": "dublados,legendados",
      "pagina": 27,
      "total_episodios": 50,
      "link_video": "https://animefire.plus/video/digimon-adventure-02-dublado"
    },
    {
      "id": 821,
      "nome": "Digimon Frontier (Dublado)",
      "link": "https://animefire.plus/animes/digimon-frontier-dublado-todos-os-episodios",
      "texto_original": "Digimon Frontier (Dublado)",
      "rating": 7.18,
      "classificacao_etaria": "A10",
      "imagem_original": "https://animefire.plus/img/animes/digimon-frontier.webp",
      "imagem_pasta": "https://animefire.plus/img/animes/digimon-frontier/",
      "secao": "dublados,legendados",
      "pagina": 21,
      "total_episodios": 50,
      "link_video": "https://animefire.plus/video/digimon-frontier-dublado"
    },
    {
      "id": 826,
      "nome": "Digimon Xros Wars",
      "link": "https://animefire.plus/animes/digimon-xros-wars-todos-os-episodios",
      "texto_original": "Digimon Xros Wars",
      "rating": 6.76,
      "classificacao_etaria": "A10",
      "imagem_original": "https://animefire.plus/img/animes/digimon-xros-wars.webp",
      "imagem_pasta": "https://animefire.plus/img/animes/digimon-xros-wars/",
      "secao": "legendados",
      "pagina": 55,
      "total_episodios": 29,
      "link_video": "https://animefire.plus/video/digimon-xros-wars"
    },
    {
      "id": 828,
      "nome": "Digimon Xros Wars: Toki wo Kakeru Shounen Hunter-tachi",
      "link": "https://animefire.plus/animes/digimon-xros-wars-toki-wo-kakeru-shounen-hunter-tachi-todos-os-episodios",
      "texto_original": "Digimon Xros Wars: Toki wo Kakeru Shounen Hunter-tachi",
      "rating": 6.47,
      "classificacao_etaria": "A10",
      "imagem_original": "https://animefire.plus/img/animes/digimon-xros-wars-toki-wo-kakeru-shounen-hunter-tachi.webp",
      "imagem_pasta": "https://animefire.plus/img/animes/digimon-xros-wars-toki-wo-kakeru-shounen-hunter-tachi/",
      "secao": "legendados",
      "pagina": 55,
      "total_episodios": 25,
      "link_video": "https://animefire.plus/video/digimon-xros-wars-toki-wo-kakeru-shounen-hunter-tachi"
    },
    {
      "id": 830,
      "nome": "Dirty Pair",
      "link": "https://animefire.plus/animes/dirty-pair-todos-os-episodios",
      "texto_original": "Dirty Pair",
      "rating": 7.18,
      "classificacao_etaria": "A18",
      "imagem_original": "https://animefire.plus/img/animes/dirty-pair.webp",
      "imagem_pasta": "https://animefire.plus/img/animes/dirty-pair/",
      "secao": "legendados",
      "pagina": 77,
      "total_episodios": 26,
      "link_video": "https://animefire.plus/video/dirty-pair"
    },
    {
      "id": 841,
      "nome": "Dokidoki! Precure (Dublado)",
      "link": "https://animefire.plus/animes/dokidoki-precure-dublado-todos-os-episodios",
      "texto_original": "Dokidoki! Precure (Dublado)",
      "rating": 6.73,
      "classificacao_etaria": null,
      "imagem_original": "https://animefire.plus/img/animes/dokidoki-precure.webp",
      "imagem_pasta": "https://animefire.plus/img/animes/dokidoki-precure/",
      "secao": "dublados,legendados",
      "pagina": 22,
      "total_episodios": 30,
      "link_video": "https://animefire.plus/video/dokidoki-precure-dublado"
    },
    {
      "id": 861,
      "nome": "Douluo Dalu",
      "link": "https://animefire.plus/animes/douluo-dalu-todos-os-episodios",
      "texto_original": "Douluo Dalu",
      "rating": 7.87,
      "classificacao_etaria": "A14",
      "imagem_original": "https://animefire.plus/img/animes/douluo-dalu.webp",
      "imagem_pasta": "https://animefire.plus/img/animes/douluo-dalu/",
      "secao": "legendados",
      "pagina": 87,
      "total_episodios": 26,
      "link_video": "https://animefire.plus/video/douluo-dalu"
    }
  ],
  "pagination": {
    "current_page": 4,
    "per_page": 20,
    "total_items": 370,
    "total_pages": 19,
    "has_next": true,
    "has_prev": true
  }
}
