{
  "message": "Animes com 51 a 100 episódios",
  "episode_range": {
    "min": 51,
    "max": 100
  },
  "data": [
    {
      "id": 95,
      "nome": "Aikatsu Stars!",
      "link": "https://animefire.plus/animes/aikatsu-stars-todos-os-episodios",
      "texto_original": "Aikatsu Stars!",
      "rating": 7.63,
      "classificacao_etaria": "A10",
      "imagem_original": "https://animefire.plus/img/animes/aikatsu-stars.webp",
      "imagem_pasta": "https://animefire.plus/img/animes/aikatsu-stars/",
      "secao": "legendados",
      "pagina": 88,
      "total_episodios": 100,
      "link_video": "https://animefire.plus/video/aikatsu-stars"
    },
    {
      "id": 323,
      "nome": "Bakuten Shoot Beyblade (Dublado)",
      "link": "https://animefire.plus/animes/bakuten-shoot-beyblade-dublado-todos-os-episodios",
      "texto_original": "Bakuten Shoot Beyblade (Dublado)",
      "rating": 6.8,
      "classificacao_etaria": "A10",
      "imagem_original": "https://animefire.plus/img/animes/bakuten-shoot-beyblade.webp",
      "imagem_pasta": "https://animefire.plus/img/animes/bakuten-shoot-beyblade/",
      "secao": "dublados",
      "pagina": 27,
      "total_episodios": 51,
      "link_video": "https://animefire.plus/video/bakuten-shoot-beyblade-dublado"
    },
    {
      "id": 360,
      "nome": "Battle Spirits: Burning Soul",
      "link": "https://animefire.plus/animes/battle-spirits-burning-soul-todos-os-episodios",
      "texto_original": "Battle Spirits: Burning Soul",
      "rating": 6.84,
      "classificacao_etaria": "A10",
      "imagem_original": "https://animefire.plus/img/animes/battle-spirits-burning-soul.webp",
      "imagem_pasta": "https://animefire.plus/img/animes/battle-spirits-burning-soul/",
      "secao": "legendados",
      "pagina": 174,
      "total_episodios": 51,
      "link_video": "https://animefire.plus/video/battle-spirits-burning-soul"
    },
    {
      "id": 370,
      "nome": "Beelzebub",
      "link": "https://animefire.plus/animes/beelzebub-todos-os-episodios",
      "texto_original": "Beelzebub",
      "rating": 8.01,
      "classificacao_etaria": "A14",
      "imagem_original": "https://animefire.plus/img/animes/beelzebub.webp",
      "imagem_pasta": "https://animefire.plus/img/animes/beelzebub/",
      "secao": "legendados",
      "pagina": 158,
      "total_episodios": 53,
      "link_video": "https://animefire.plus/video/beelzebub"
    },
    {
      "id": 485,
      "nome": "Bouken Ou Beet",
      "link": "https://animefire.plus/animes/bouken-ou-beet-todos-os-episodios",
      "texto_original": "Bouken Ou Beet",
      "rating": 7.03,
      "classificacao_etaria": "A10",
      "imagem_original": "https://animefire.plus/img/animes/bouken-ou-beet.webp",
      "imagem_pasta": "https://animefire.plus/img/animes/bouken-ou-beet/",
      "secao": "legendados",
      "pagina": 123,
      "total_episodios": 52,
      "link_video": "https://animefire.plus/video/bouken-ou-beet"
    },
    {
      "id": 555,
      "nome": "Capeta",
      "link": "https://animefire.plus/animes/capeta-todos-os-episodios",
      "texto_original": "Capeta",
      "rating": 7.84,
      "classificacao_etaria": "A10",
      "imagem_original": "https://animefire.plus/img/animes/capeta.webp",
      "imagem_pasta": "https://animefire.plus/img/animes/capeta/",
      "secao": "legendados",
      "pagina": 55,
      "total_episodios": 52,
      "link_video": "https://animefire.plus/video/capeta"
    },
    {
      "id": 558,
      "nome": "Captain Tsubasa (2018) (Dublado)",
      "link": "https://animefire.plus/animes/captain-tsubasa-2018-dublado-todos-os-episodios",
      "texto_original": "Captain Tsubasa (2018) (Dublado)",
      "rating": 7.46,
      "classificacao_etaria": null,
      "imagem_original": "https://animefire.plus/img/animes/captain-tsubasa-2018.webp",
      "imagem_pasta": "https://animefire.plus/img/animes/captain-tsubasa-2018/",
      "secao": "dublados,legendados",
      "pagina": 21,
      "total_episodios": 52,
      "link_video": "https://animefire.plus/video/captain-tsubasa-2018-dublado"
    },
    {
      "id": 563,
      "nome": "Cardfight!! Vanguard (2018)",
      "link": "https://animefire.plus/animes/cardfight-vanguard-2018-todos-os-episodios",
      "texto_original": "Cardfight!! Vanguard (2018)",
      "rating": 7.1,
      "classificacao_etaria": "A14",
      "imagem_original": "https://animefire.plus/img/animes/cardfight-vanguard-2018.webp",
      "imagem_pasta": "https://animefire.plus/img/animes/cardfight-vanguard-2018/",
      "secao": "legendados",
      "pagina": 143,
      "total_episodios": 52,
      "link_video": "https://animefire.plus/video/cardfight-vanguard-2018"
    },
    {
      "id": 566,
      "nome": "Cardfight!! Vanguard G: Next",
      "link": "https://animefire.plus/animes/cardfight-vanguard-g-next-todos-os-episodios",
      "texto_original": "Cardfight!! Vanguard G: Next",
      "rating": 6.66,
      "classificacao_etaria": "A14",
      "imagem_original": "https://animefire.plus/img/animes/cardfight-vanguard-g-next.webp",
      "imagem_pasta": "https://animefire.plus/img/animes/cardfight-vanguard-g-next/",
      "secao": "legendados",
      "pagina": 59,
      "total_episodios": 52,
      "link_video": "https://animefire.plus/video/cardfight-vanguard-g-next"
    },
    {
      "id": 651,
      "nome": "Cinderella Girls Gekijou",
      "link": "https://animefire.plus/animes/cinderella-girls-gekijou-todos-os-episodios",
      "texto_original": "Cinderella Girls Gekijou",
      "rating": 6.56,
      "classificacao_etaria": "A14",
      "imagem_original": "https://animefire.plus/img/animes/cinderella-girls-gekijou.webp",
      "imagem_pasta": "https://animefire.plus/img/animes/cinderella-girls-gekijou/",
      "secao": "legendados",
      "pagina": 63,
      "total_episodios": 52,
      "link_video": "https://animefire.plus/video/cinderella-girls-gekijou"
    },
    {
      "id": 656,
      "nome": "City Hunter",
      "link": "https://animefire.plus/animes/city-hunter-todos-os-episodios",
      "texto_original": "City Hunter",
      "rating": 7.93,
      "classificacao_etaria": "A14",
      "imagem_original": "https://animefire.plus/img/animes/city-hunter.webp",
      "imagem_pasta": "https://animefire.plus/img/animes/city-hunter/",
      "secao": "legendados",
      "pagina": 42,
      "total_episodios": 51,
      "link_video": "https://animefire.plus/video/city-hunter"
    },
    {
      "id": 717,
      "nome": "D.Gray-Man",
      "link": "https://animefire.plus/animes/d-gray-man-todos-os-episodios",
      "texto_original": "D.Gray-Man",
      "rating": 8.08,
      "classificacao_etaria": "A14",
      "imagem_original": "https://animefire.plus/img/animes/d-gray-man.webp",
      "imagem_pasta": "https://animefire.plus/img/animes/d-gray-man/",
      "secao": "legendados",
      "pagina": 60,
      "total_episodios": 100,
      "link_video": "https://animefire.plus/video/d-gray-man"
    },
    {
      "id": 788,
      "nome": "Deltora Quest",
      "link": "https://animefire.plus/animes/deltora-quest-todos-os-episodios",
      "texto_original": "Deltora Quest",
      "rating": 7.11,
      "classificacao_etaria": "A14",
      "imagem_original": "https://animefire.plus/img/animes/deltora-quest.webp",
      "imagem_pasta": "https://animefire.plus/img/animes/deltora-quest/",
      "secao": "legendados",
      "pagina": 168,
      "total_episodios": 65,
      "link_video": "https://animefire.plus/video/deltora-quest"
    },
    {
      "id": 817,
      "nome": "Digimon Adventure (Dublado)",
      "link": "https://animefire.plus/animes/digimon-adventure-dublado-todos-os-episodios",
      "texto_original": "Digimon Adventure (Dublado)",
      "rating": 7.8,
      "classificacao_etaria": "A10",
      "imagem_original": "https://animefire.plus/img/animes/digimon-adventure.webp",
      "imagem_pasta": "https://animefire.plus/img/animes/digimon-adventure/",
      "secao": "dublados,legendados",
      "pagina": 20,
      "total_episodios": 54,
      "link_video": "https://animefire.plus/video/digimon-adventure-dublado"
    },
    {
      "id": 822,
      "nome": "Digimon Ghost Game",
      "link": "https://animefire.plus/animes/digimon-ghost-game-todos-os-episodios",
      "texto_original": "Digimon Ghost Game",
      "rating": 6.73,
      "classificacao_etaria": "A14",
      "imagem_original": "https://animefire.plus/img/animes/digimon-ghost-game.webp",
      "imagem_pasta": "https://animefire.plus/img/animes/digimon-ghost-game/",
      "secao": "legendados",
      "pagina": 38,
      "total_episodios": 67,
      "link_video": "https://animefire.plus/video/digimon-ghost-game"
    },
    {
      "id": 825,
      "nome": "Digimon Universe: Appli Monsters",
      "link": "https://animefire.plus/animes/digimon-universe-appli-monsters-todos-os-episodios",
      "texto_original": "Digimon Universe: Appli Monsters",
      "rating": 6.7,
      "classificacao_etaria": "A10",
      "imagem_original": "https://animefire.plus/img/animes/digimon-universe-appli-monsters.webp",
      "imagem_pasta": "https://animefire.plus/img/animes/digimon-universe-appli-monsters/",
      "secao": "legendados",
      "pagina": 65,
      "total_episodios": 52,
      "link_video": "https://animefire.plus/video/digimon-universe-appli-monsters"
    },
    {
      "id": 876,
      "nome": "Dragon Ball GT (Dublado)",
      "link": "https://animefire.plus/animes/dragon-ball-gt-dublado-todos-os-episodios",
      "texto_original": "Dragon Ball GT (Dublado)",
      "rating": 6.64,
      "classificacao_etaria": "A14",
      "imagem_original": "https://animefire.plus/img/animes/dragon-ball-gt.webp",
      "imagem_pasta": "https://animefire.plus/img/animes/dragon-ball-gt/",
      "secao": "dublados",
      "pagina": 26,
      "total_episodios": 61,
      "link_video": "https://animefire.plus/video/dragon-ball-gt-dublado"
    },
    {
      "id": 884,
      "nome": "Dragon Quest: Dai no Daibouken (2020)",
      "link": "https://animefire.plus/animes/dragon-quest-dai-no-daibouken-2020-todos-os-episodios",
      "texto_original": "Dragon Quest: Dai no Daibouken (2020)",
      "rating": null,
      "classificacao_etaria": "A14",
      "imagem_original": "https://animefire.plus/img/animes/dragon-quest-dai-no-daibouken-2020.webp",
      "imagem_pasta": "https://animefire.plus/img/animes/dragon-quest-dai-no-daibouken-2020/",
      "secao": "legendados",
      "pagina": 52,
      "total_episodios": 100,
      "link_video": "https://animefire.plus/video/dragon-quest-dai-no-daibouken-2020"
    },
    {
      "id": 1045,
      "nome": "Full Moon wo Sagashite",
      "link": "https://animefire.plus/animes/full-moon-wo-sagashite-todos-os-episodios",
      "texto_original": "Full Moon wo Sagashite",
      "rating": 8.03,
      "classificacao_etaria": "A14",
      "imagem_original": "https://animefire.plus/img/animes/full-moon-wo-sagashite.webp",
      "imagem_pasta": "https://animefire.plus/img/animes/full-moon-wo-sagashite/",
      "secao": "legendados",
      "pagina": 171,
      "total_episodios": 52,
      "link_video": "https://animefire.plus/video/full-moon-wo-sagashite"
    },
    {
      "id": 1046,
      "nome": "Fullmetal Alchemist (Dublado)",
      "link": "https://animefire.plus/animes/fullmetal-alchemist-dublado-todos-os-episodios",
      "texto_original": "Fullmetal Alchemist (Dublado)",
      "rating": 8.22,
      "classificacao_etaria": "A16",
      "imagem_original": "https://animefire.plus/img/animes/fullmetal-alchemist.webp",
      "imagem_pasta": "https://animefire.plus/img/animes/fullmetal-alchemist/",
      "secao": "dublados,legendados",
      "pagina": 21,
      "total_episodios": 51,
      "link_video": "https://animefire.plus/video/fullmetal-alchemist-dublado"
    }
  ],
  "pagination": {
    "current_page": 1,
    "per_page": 20,
    "total_items": 65,
    "total_pages": 4,
    "has_next": true,
    "has_prev": false
  }
}
