{
  "message": "Animes com rating entre 0 e 5",
  "rating_range": {
    "min": 0,
    "max": 5
  },
  "data": [
    {
      "id": 4061,
      "nome": "Vampire Holmes",
      "link": "https://animefire.plus/animes/vampire-holmes-todos-os-episodios",
      "texto_original": "Vampire Holmes",
      "rating": 3.5,
      "classificacao_etaria": "A14",
      "imagem_original": "https://animefire.plus/img/animes/vampire-holmes.webp",
      "imagem_pasta": "https://animefire.plus/img/animes/vampire-holmes/",
      "secao": "legendados",
      "pagina": 148,
      "total_episodios": 0,
      "link_video": "https://animefire.plus/video/vampire-holmes"
    },
    {
      "id": 4355,
      "nome": "Zettai Shougeki: Platonic Heart",
      "link": "https://animefire.plus/animes/zettai-shougeki-platonic-heart-todos-os-episodios",
      "texto_original": "Zettai Shougeki: Platonic Heart",
      "rating": 4.69,
      "classificacao_etaria": "A18",
      "imagem_original": "https://animefire.plus/img/animes/zettai-shougeki-platonic-heart.webp",
      "imagem_pasta": "https://animefire.plus/img/animes/zettai-shougeki-platonic-heart/",
      "secao": "legendados",
      "pagina": 68,
      "total_episodios": 5,
      "link_video": "https://animefire.plus/video/zettai-shougeki-platonic-heart"
    }
  ],
  "pagination": {
    "current_page": 3,
    "per_page": 20,
    "total_items": 42,
    "total_pages": 3,
    "has_next": false,
    "has_prev": true
  }
}
