{
  "message": "Animes com rating entre 0 e 5",
  "rating_range": {
    "min": 0,
    "max": 5
  },
  "data": [
    {
      "id": 1949,
      "nome": "Kennel Tokorozawa",
      "link": "https://animefire.plus/animes/kennel-tokorozawa-todos-os-episodios",
      "texto_original": "Kennel Tokorozawa",
      "rating": 4.44,
      "classificacao_etaria": "A18",
      "imagem_original": "https://animefire.plus/img/animes/kennel-tokorozawa.webp",
      "imagem_pasta": "https://animefire.plus/img/animes/kennel-tokorozawa/",
      "secao": "legendados",
      "pagina": 71,
      "total_episodios": 1,
      "link_video": "https://animefire.plus/video/kennel-tokorozawa"
    },
    {
      "id": 2173,
      "nome": "Kyochuu Rettou",
      "link": "https://animefire.plus/animes/kyochuu-rettou-todos-os-episodios",
      "texto_original": "Kyochuu Rettou",
      "rating": 4.53,
      "classificacao_etaria": "A18",
      "imagem_original": "https://animefire.plus/img/animes/kyochuu-rettou.webp",
      "imagem_pasta": "https://animefire.plus/img/animes/kyochuu-rettou/",
      "secao": "legendados",
      "pagina": 87,
      "total_episodios": 1,
      "link_video": "https://animefire.plus/video/kyochuu-rettou"
    },
    {
      "id": 2201,
      "nome": "Ladyspo",
      "link": "https://animefire.plus/animes/ladyspo-todos-os-episodios",
      "texto_original": "Ladyspo",
      "rating": 4.28,
      "classificacao_etaria": "A14",
      "imagem_original": "https://animefire.plus/img/animes/ladyspo.webp",
      "imagem_pasta": "https://animefire.plus/img/animes/ladyspo/",
      "secao": "legendados",
      "pagina": 87,
      "total_episodios": 12,
      "link_video": "https://animefire.plus/video/ladyspo"
    },
    {
      "id": 2343,
      "nome": "Mahou Shoujo? Naria☆Girls",
      "link": "https://animefire.plus/animes/mahou-shoujo-naria-girls-todos-os-episodios",
      "texto_original": "Mahou Shoujo? Naria☆Girls",
      "rating": 3.84,
      "classificacao_etaria": "A14",
      "imagem_original": "https://animefire.plus/img/animes/mahou-shoujo-naria-girls.webp",
      "imagem_pasta": "https://animefire.plus/img/animes/mahou-shoujo-naria-girls/",
      "secao": "legendados",
      "pagina": 98,
      "total_episodios": 12,
      "link_video": "https://animefire.plus/video/mahou-shoujo-naria-girls"
    },
    {
      "id": 2400,
      "nome": "Makura no Danshi",
      "link": "https://animefire.plus/animes/makura-no-danshi-todos-os-episodios",
      "texto_original": "Makura no Danshi",
      "rating": 4.69,
      "classificacao_etaria": "A14",
      "imagem_original": "https://animefire.plus/img/animes/makura-no-danshi.webp",
      "imagem_pasta": "https://animefire.plus/img/animes/makura-no-danshi/",
      "secao": "legendados",
      "pagina": 135,
      "total_episodios": 12,
      "link_video": "https://animefire.plus/video/makura-no-danshi"
    },
    {
      "id": 2504,
      "nome": "Million Doll",
      "link": "https://animefire.plus/animes/million-doll-todos-os-episodios",
      "texto_original": "Million Doll",
      "rating": 4.84,
      "classificacao_etaria": "A14",
      "imagem_original": "https://animefire.plus/img/animes/million-doll.webp",
      "imagem_pasta": "https://animefire.plus/img/animes/million-doll/",
      "secao": "legendados",
      "pagina": 163,
      "total_episodios": 0,
      "link_video": "https://animefire.plus/video/million-doll"
    },
    {
      "id": 2615,
      "nome": "Musashino!",
      "link": "https://animefire.plus/animes/musashino-todos-os-episodios",
      "texto_original": "Musashino!",
      "rating": 4.65,
      "classificacao_etaria": "A10",
      "imagem_original": "https://animefire.plus/img/animes/musashino.webp",
      "imagem_pasta": "https://animefire.plus/img/animes/musashino/",
      "secao": "legendados",
      "pagina": 32,
      "total_episodios": 12,
      "link_video": "https://animefire.plus/video/musashino"
    },
    {
      "id": 2701,
      "nome": "Nazotokine",
      "link": "https://animefire.plus/animes/nazotokine-todos-os-episodios",
      "texto_original": "Nazotokine",
      "rating": 4.9,
      "classificacao_etaria": "A14",
      "imagem_original": "https://animefire.plus/img/animes/nazotokine.webp",
      "imagem_pasta": "https://animefire.plus/img/animes/nazotokine/",
      "secao": "legendados",
      "pagina": 168,
      "total_episodios": 3,
      "link_video": "https://animefire.plus/video/nazotokine"
    },
    {
      "id": 2864,
      "nome": "Onyankopon",
      "link": "https://animefire.plus/animes/onyankopon-todos-os-episodios",
      "texto_original": "Onyankopon",
      "rating": 4.5,
      "classificacao_etaria": null,
      "imagem_original": "https://animefire.plus/img/animes/onyankopon.webp",
      "imagem_pasta": "https://animefire.plus/img/animes/onyankopon/",
      "secao": "legendados",
      "pagina": 147,
      "total_episodios": 11,
      "link_video": "https://animefire.plus/video/onyankopon"
    },
    {
      "id": 3049,
      "nome": "Pupa",
      "link": "https://animefire.plus/animes/pupa-todos-os-episodios",
      "texto_original": "Pupa",
      "rating": 3.63,
      "classificacao_etaria": "A16",
      "imagem_original": "https://animefire.plus/img/animes/pupa.webp",
      "imagem_pasta": "https://animefire.plus/img/animes/pupa/",
      "secao": "legendados",
      "pagina": 173,
      "total_episodios": 12,
      "link_video": "https://animefire.plus/video/pupa"
    },
    {
      "id": 3155,
      "nome": "Room Mate",
      "link": "https://animefire.plus/animes/room-mate-todos-os-episodios",
      "texto_original": "Room Mate",
      "rating": 4.87,
      "classificacao_etaria": "A14",
      "imagem_original": "https://animefire.plus/img/animes/room-mate.webp",
      "imagem_pasta": "https://animefire.plus/img/animes/room-mate/",
      "secao": "legendados",
      "pagina": 114,
      "total_episodios": 12,
      "link_video": "https://animefire.plus/video/room-mate"
    },
    {
      "id": 3183,
      "nome": "Sabiiro no Armor: Reimei",
      "link": "https://animefire.plus/animes/sabiiro-no-armor-reimei-todos-os-episodios",
      "texto_original": "Sabiiro no Armor: Reimei",
      "rating": 3.8,
      "classificacao_etaria": "A14",
      "imagem_original": "https://animefire.plus/img/animes/sabiiro-no-armor-reimei.webp",
      "imagem_pasta": "https://animefire.plus/img/animes/sabiiro-no-armor-reimei/",
      "secao": "legendados",
      "pagina": 35,
      "total_episodios": 12,
      "link_video": "https://animefire.plus/video/sabiiro-no-armor-reimei"
    },
    {
      "id": 3341,
      "nome": "Senjuushi",
      "link": "https://animefire.plus/animes/senjuushi-todos-os-episodios",
      "texto_original": "Senjuushi",
      "rating": 4.97,
      "classificacao_etaria": "A14",
      "imagem_original": "https://animefire.plus/img/animes/senjuushi.webp",
      "imagem_pasta": "https://animefire.plus/img/animes/senjuushi/",
      "secao": "legendados",
      "pagina": 173,
      "total_episodios": 11,
      "link_video": "https://animefire.plus/video/senjuushi"
    },
    {
      "id": 3596,
      "nome": "Souryo to Majiwaru Shikiyoku no Yoru ni...",
      "link": "https://animefire.plus/animes/souryo-to-majiwaru-shikiyoku-no-yoru-ni-todos-os-episodios",
      "texto_original": "Souryo to Majiwaru Shikiyoku no Yoru ni...",
      "rating": 4.64,
      "classificacao_etaria": "A18",
      "imagem_original": "https://animefire.plus/img/animes/souryo-to-majiwaru-shikiyoku-no-yoru-ni.webp",
      "imagem_pasta": "https://animefire.plus/img/animes/souryo-to-majiwaru-shikiyoku-no-yoru-ni/",
      "secao": "legendados",
      "pagina": 141,
      "total_episodios": 9,
      "link_video": "https://animefire.plus/video/souryo-to-majiwaru-shikiyoku-no-yoru-ni"
    },
    {
      "id": 3609,
      "nome": "Spectral Force",
      "link": "https://animefire.plus/animes/spectral-force-todos-os-episodios",
      "texto_original": "Spectral Force",
      "rating": 3.97,
      "classificacao_etaria": "A14",
      "imagem_original": "https://animefire.plus/img/animes/spectral-force.webp",
      "imagem_pasta": "https://animefire.plus/img/animes/spectral-force/",
      "secao": "legendados",
      "pagina": 69,
      "total_episodios": 2,
      "link_video": "https://animefire.plus/video/spectral-force"
    },
    {
      "id": 3684,
      "nome": "Sushi Police",
      "link": "https://animefire.plus/animes/sushi-police-todos-os-episodios",
      "texto_original": "Sushi Police",
      "rating": 4.69,
      "classificacao_etaria": "A14",
      "imagem_original": "https://animefire.plus/img/animes/sushi-police.webp",
      "imagem_pasta": "https://animefire.plus/img/animes/sushi-police/",
      "secao": "legendados",
      "pagina": 149,
      "total_episodios": 1,
      "link_video": "https://animefire.plus/video/sushi-police"
    },
    {
      "id": 3714,
      "nome": "Taishou Mebiusline: Chicchai-san",
      "link": "https://animefire.plus/animes/taishou-mebiusline-chicchai-san-todos-os-episodios",
      "texto_original": "Taishou Mebiusline: Chicchai-san",
      "rating": 4.74,
      "classificacao_etaria": "A14",
      "imagem_original": "https://animefire.plus/img/animes/taishou-mebiusline-chicchai-san.webp",
      "imagem_pasta": "https://animefire.plus/img/animes/taishou-mebiusline-chicchai-san/",
      "secao": "legendados",
      "pagina": 63,
      "total_episodios": 11,
      "link_video": "https://animefire.plus/video/taishou-mebiusline-chicchai-san"
    },
    {
      "id": 3820,
      "nome": "Tesla Note",
      "link": "https://animefire.plus/animes/tesla-note-todos-os-episodios",
      "texto_original": "Tesla Note",
      "rating": 4.66,
      "classificacao_etaria": "A14",
      "imagem_original": "https://animefire.plus/img/animes/tesla-note.webp",
      "imagem_pasta": "https://animefire.plus/img/animes/tesla-note/",
      "secao": "legendados",
      "pagina": 38,
      "total_episodios": 13,
      "link_video": "https://animefire.plus/video/tesla-note"
    },
    {
      "id": 3941,
      "nome": "Try Knights",
      "link": "https://animefire.plus/animes/try-knights-todos-os-episodios",
      "texto_original": "Try Knights",
      "rating": 4.7,
      "classificacao_etaria": "A14",
      "imagem_original": "https://animefire.plus/img/animes/try-knights.webp",
      "imagem_pasta": "https://animefire.plus/img/animes/try-knights/",
      "secao": "legendados",
      "pagina": 118,
      "total_episodios": 1,
      "link_video": "https://animefire.plus/video/try-knights"
    },
    {
      "id": 3980,
      "nome": "Twinkle Nora Rock Me!",
      "link": "https://animefire.plus/animes/twinkle-nora-rock-me-todos-os-episodios",
      "texto_original": "Twinkle Nora Rock Me!",
      "rating": 3.46,
      "classificacao_etaria": "A14",
      "imagem_original": "https://animefire.plus/img/animes/twinkle-nora-rock-me.webp",
      "imagem_pasta": "https://animefire.plus/img/animes/twinkle-nora-rock-me/",
      "secao": "legendados",
      "pagina": 87,
      "total_episodios": 1,
      "link_video": "https://animefire.plus/video/twinkle-nora-rock-me"
    }
  ],
  "pagination": {
    "current_page": 2,
    "per_page": 20,
    "total_items": 42,
    "total_pages": 3,
    "has_next": true,
    "has_prev": true
  }
}
