{
  "message": "Animes com rating entre 5 e 7",
  "rating_range": {
    "min": 5,
    "max": 7
  },
  "data": [
    {
      "id": 979,
      "nome": "Farmagia",
      "link": "https://animefire.plus/animes/farmagia-todos-os-episodios",
      "texto_original": "Farmagia",
      "rating": 5.65,
      "classificacao_etaria": "A14",
      "imagem_original": "https://animefire.plus/img/animes/farmagia.webp",
      "imagem_pasta": "https://animefire.plus/img/animes/farmagia/",
      "secao": "legendados",
      "pagina": 7,
      "total_episodios": 12,
      "link_video": "https://animefire.plus/video/farmagia"
    },
    {
      "id": 980,
      "nome": "FASTENING DAYS",
      "link": "https://animefire.plus/animes/fastening-days-todos-os-episodios",
      "texto_original": "FASTENING DAYS",
      "rating": 6.48,
      "classificacao_etaria": null,
      "imagem_original": "https://animefire.plus/img/animes/fastening-days.webp",
      "imagem_pasta": "https://animefire.plus/img/animes/fastening-days/",
      "secao": "legendados",
      "pagina": 87,
      "total_episodios": 1,
      "link_video": "https://animefire.plus/video/fastening-days"
    },
    {
      "id": 981,
      "nome": "Fatal Fury 2: The New Battle (Dublado)",
      "link": "https://animefire.plus/animes/fatal-fury-2-the-new-battle-dublado-todos-os-episodios",
      "texto_original": "Fatal Fury 2: The New Battle (Dublado)",
      "rating": 6.76,
      "classificacao_etaria": "A16",
      "imagem_original": "https://animefire.plus/img/animes/fatal-fury-2-the-new-battle.webp",
      "imagem_pasta": "https://animefire.plus/img/animes/fatal-fury-2-the-new-battle/",
      "secao": "dublados",
      "pagina": 21,
      "total_episodios": 1,
      "link_video": "https://animefire.plus/video/fatal-fury-2-the-new-battle-dublado"
    },
    {
      "id": 982,
      "nome": "Fatal Fury: Legend of the Hungry Wolf (Dublado)",
      "link": "https://animefire.plus/animes/fatal-fury-legend-of-the-hungry-wolf-dublado-todos-os-episodios",
      "texto_original": "Fatal Fury: Legend of the Hungry Wolf (Dublado)",
      "rating": 6.47,
      "classificacao_etaria": "A14",
      "imagem_original": "https://animefire.plus/img/animes/fatal-fury-legend-of-the-hungry-wolf.webp",
      "imagem_pasta": "https://animefire.plus/img/animes/fatal-fury-legend-of-the-hungry-wolf/",
      "secao": "dublados",
      "pagina": 21,
      "total_episodios": 1,
      "link_video": "https://animefire.plus/video/fatal-fury-legend-of-the-hungry-wolf-dublado"
    },
    {
      "id": 984,
      "nome": "Fate/Extra: Last Encore - Illustrias Tendousetsu",
      "link": "https://animefire.plus/animes/fate-extra-last-encore---illustrias-tendousetsu-todos-os-episodios",
      "texto_original": "Fate/Extra: Last Encore - Illustrias Tendousetsu",
      "rating": 6.65,
      "classificacao_etaria": "A16",
      "imagem_original": "https://animefire.plus/img/animes/fate-extra-last-encore---illustrias-tendousetsu.webp",
      "imagem_pasta": "https://animefire.plus/img/animes/fate-extra-last-encore---illustrias-tendousetsu/",
      "secao": "legendados",
      "pagina": 89,
      "total_episodios": 3,
      "link_video": "https://animefire.plus/video/fate-extra-last-encore---illustrias-tendousetsu"
    },
    {
      "id": 985,
      "nome": "Fate/Extra: Last Encore (Dublado)",
      "link": "https://animefire.plus/animes/fate-extra-last-encore-dublado-todos-os-episodios",
      "texto_original": "Fate/Extra: Last Encore (Dublado)",
      "rating": 6.38,
      "classificacao_etaria": "A16",
      "imagem_original": "https://animefire.plus/img/animes/fate-extra-last-encore.webp",
      "imagem_pasta": "https://animefire.plus/img/animes/fate-extra-last-encore/",
      "secao": "dublados,legendados",
      "pagina": 24,
      "total_episodios": 10,
      "link_video": "https://animefire.plus/video/fate-extra-last-encore-dublado"
    },
    {
      "id": 987,
      "nome": "Fate/Grand Order: First Order",
      "link": "https://animefire.plus/animes/fate-grand-order-first-order-todos-os-episodios",
      "texto_original": "Fate/Grand Order: First Order",
      "rating": 6.85,
      "classificacao_etaria": "A14",
      "imagem_original": "https://animefire.plus/img/animes/fate-grand-order-first-order.webp",
      "imagem_pasta": "https://animefire.plus/img/animes/fate-grand-order-first-order/",
      "secao": "legendados",
      "pagina": 82,
      "total_episodios": 1,
      "link_video": "https://animefire.plus/video/fate-grand-order-first-order"
    },
    {
      "id": 988,
      "nome": "Fate/Grand Order: Himuro no Tenchi - 7-nin no Saikyou Ijin-hen",
      "link": "https://animefire.plus/animes/fate-grand-order-himuro-no-tenchi---7-nin-no-saikyou-ijin-hen-todos-os-episodios",
      "texto_original": "Fate/Grand Order: Himuro no Tenchi - 7-nin no Saikyou Ijin-hen",
      "rating": 6.37,
      "classificacao_etaria": "A14",
      "imagem_original": "https://animefire.plus/img/animes/fate-grand-order-himuro-no-tenchi---7-nin-no-saikyou-ijin-hen.webp",
      "imagem_pasta": "https://animefire.plus/img/animes/fate-grand-order-himuro-no-tenchi---7-nin-no-saikyou-ijin-hen/",
      "secao": "legendados",
      "pagina": 73,
      "total_episodios": 1,
      "link_video": "https://animefire.plus/video/fate-grand-order-himuro-no-tenchi---7-nin-no-saikyou-ijin-hen"
    },
    {
      "id": 989,
      "nome": "Fate/Grand Order: Moonlight/Lostroom",
      "link": "https://animefire.plus/animes/fate-grand-order-moonlight-lostroom-todos-os-episodios",
      "texto_original": "Fate/Grand Order: Moonlight/Lostroom",
      "rating": 6.27,
      "classificacao_etaria": "A14",
      "imagem_original": "https://animefire.plus/img/animes/fate-grand-order-moonlight-lostroom.webp",
      "imagem_pasta": "https://animefire.plus/img/animes/fate-grand-order-moonlight-lostroom/",
      "secao": "legendados",
      "pagina": 97,
      "total_episodios": 1,
      "link_video": "https://animefire.plus/video/fate-grand-order-moonlight-lostroom"
    },
    {
      "id": 996,
      "nome": "Fate/Prototype",
      "link": "https://animefire.plus/animes/fate-prototype-todos-os-episodios",
      "texto_original": "Fate/Prototype",
      "rating": 6.79,
      "classificacao_etaria": "A14",
      "imagem_original": "https://animefire.plus/img/animes/fate-prototype.webp",
      "imagem_pasta": "https://animefire.plus/img/animes/fate-prototype/",
      "secao": "legendados",
      "pagina": 73,
      "total_episodios": 1,
      "link_video": "https://animefire.plus/video/fate-prototype"
    },
    {
      "id": 1004,
      "nome": "Fate/Zero: Onegai! Einzbern Soudanshitsu",
      "link": "https://animefire.plus/animes/fate-zero-onegai-einzbern-soudanshitsu-todos-os-episodios",
      "texto_original": "Fate/Zero: Onegai! Einzbern Soudanshitsu",
      "rating": 6.72,
      "classificacao_etaria": "A14",
      "imagem_original": "https://animefire.plus/img/animes/fate-zero-onegai-einzbern-soudanshitsu.webp",
      "imagem_pasta": "https://animefire.plus/img/animes/fate-zero-onegai-einzbern-soudanshitsu/",
      "secao": "legendados",
      "pagina": 145,
      "total_episodios": 6,
      "link_video": "https://animefire.plus/video/fate-zero-onegai-einzbern-soudanshitsu"
    },
    {
      "id": 1005,
      "nome": "Fermat no Ryouri",
      "link": "https://animefire.plus/animes/fermat-no-ryouri-todos-os-episodios",
      "texto_original": "Fermat no Ryouri",
      "rating": 6.65,
      "classificacao_etaria": "A14",
      "imagem_original": "https://animefire.plus/img/animes/fermat-no-ryouri.webp",
      "imagem_pasta": "https://animefire.plus/img/animes/fermat-no-ryouri/",
      "secao": "legendados,lancamentos",
      "pagina": 2,
      "total_episodios": 4,
      "link_video": "https://animefire.plus/video/fermat-no-ryouri"
    },
    {
      "id": 1006,
      "nome": "Fight Ippatsu! Juuden-Chan!!",
      "link": "https://animefire.plus/animes/fight-ippatsu-juuden-chan-todos-os-episodios",
      "texto_original": "Fight Ippatsu! Juuden-Chan!!",
      "rating": 6.73,
      "classificacao_etaria": "A18",
      "imagem_original": "https://animefire.plus/img/animes/fight-ippatsu-juuden-chan.webp",
      "imagem_pasta": "https://animefire.plus/img/animes/fight-ippatsu-juuden-chan/",
      "secao": "legendados",
      "pagina": 98,
      "total_episodios": 1,
      "link_video": "https://animefire.plus/video/fight-ippatsu-juuden-chan"
    },
    {
      "id": 1007,
      "nome": "Fight League: Gear Gadget Generators",
      "link": "https://animefire.plus/animes/fight-league-gear-gadget-generators-todos-os-episodios",
      "texto_original": "Fight League: Gear Gadget Generators",
      "rating": 6.15,
      "classificacao_etaria": "A14",
      "imagem_original": "https://animefire.plus/img/animes/fight-league-gear-gadget-generators.webp",
      "imagem_pasta": "https://animefire.plus/img/animes/fight-league-gear-gadget-generators/",
      "secao": "legendados",
      "pagina": 174,
      "total_episodios": 0,
      "link_video": "https://animefire.plus/video/fight-league-gear-gadget-generators"
    },
    {
      "id": 1009,
      "nome": "Final Approach",
      "link": "https://animefire.plus/animes/final-approach-todos-os-episodios",
      "texto_original": "Final Approach",
      "rating": 6.62,
      "classificacao_etaria": "A14",
      "imagem_original": "https://animefire.plus/img/animes/final-approach.webp",
      "imagem_pasta": "https://animefire.plus/img/animes/final-approach/",
      "secao": "legendados",
      "pagina": 97,
      "total_episodios": 12,
      "link_video": "https://animefire.plus/video/final-approach"
    },
    {
      "id": 1010,
      "nome": "Final Fantasy",
      "link": "https://animefire.plus/animes/final-fantasy-todos-os-episodios",
      "texto_original": "Final Fantasy",
      "rating": 6.1,
      "classificacao_etaria": "A14",
      "imagem_original": "https://animefire.plus/img/animes/final-fantasy.webp",
      "imagem_pasta": "https://animefire.plus/img/animes/final-fantasy/",
      "secao": "legendados",
      "pagina": 42,
      "total_episodios": 4,
      "link_video": "https://animefire.plus/video/final-fantasy"
    },
    {
      "id": 1011,
      "nome": "Final Fantasy: Unlimited",
      "link": "https://animefire.plus/animes/final-fantasy-unlimited-todos-os-episodios",
      "texto_original": "Final Fantasy: Unlimited",
      "rating": 6.27,
      "classificacao_etaria": "A14",
      "imagem_original": "https://animefire.plus/img/animes/final-fantasy-unlimited.webp",
      "imagem_pasta": "https://animefire.plus/img/animes/final-fantasy-unlimited/",
      "secao": "legendados",
      "pagina": 162,
      "total_episodios": 25,
      "link_video": "https://animefire.plus/video/final-fantasy-unlimited"
    },
    {
      "id": 1013,
      "nome": "Flaglia: Natsuyasumi no Monogatari",
      "link": "https://animefire.plus/animes/flaglia-natsuyasumi-no-monogatari-todos-os-episodios",
      "texto_original": "Flaglia: Natsuyasumi no Monogatari",
      "rating": 5.13,
      "classificacao_etaria": "A14",
      "imagem_original": "https://animefire.plus/img/animes/flaglia-natsuyasumi-no-monogatari.webp",
      "imagem_pasta": "https://animefire.plus/img/animes/flaglia-natsuyasumi-no-monogatari/",
      "secao": "legendados,lancamentos",
      "pagina": 26,
      "total_episodios": 0,
      "link_video": "https://animefire.plus/video/flaglia-natsuyasumi-no-monogatari"
    },
    {
      "id": 1019,
      "nome": "Fortune Arterial: Akai Yakusoku",
      "link": "https://animefire.plus/animes/fortune-arterial-akai-yakusoku-todos-os-episodios",
      "texto_original": "Fortune Arterial: Akai Yakusoku",
      "rating": 6.81,
      "classificacao_etaria": "A14",
      "imagem_original": "https://animefire.plus/img/animes/fortune-arterial-akai-yakusoku.webp",
      "imagem_pasta": "https://animefire.plus/img/animes/fortune-arterial-akai-yakusoku/",
      "secao": "legendados",
      "pagina": 143,
      "total_episodios": 12,
      "link_video": "https://animefire.plus/video/fortune-arterial-akai-yakusoku"
    },
    {
      "id": 1020,
      "nome": "Fractale",
      "link": "https://animefire.plus/animes/fractale-todos-os-episodios",
      "texto_original": "Fractale",
      "rating": 7,
      "classificacao_etaria": "A14",
      "imagem_original": "https://animefire.plus/img/animes/fractale.webp",
      "imagem_pasta": "https://animefire.plus/img/animes/fractale/",
      "secao": "legendados",
      "pagina": 108,
      "total_episodios": 11,
      "link_video": "https://animefire.plus/video/fractale"
    }
  ],
  "pagination": {
    "current_page": 24,
    "per_page": 20,
    "total_items": 1805,
    "total_pages": 91,
    "has_next": true,
    "has_prev": true
  }
}
