{
  "message": "Animes com rating entre 5 e 7",
  "rating_range": {
    "min": 5,
    "max": 7
  },
  "data": [
    {
      "id": 318,
      "nome": "Bakumatsu Rock",
      "link": "https://animefire.plus/animes/bakumatsu-rock-todos-os-episodios",
      "texto_original": "Bakumatsu Rock",
      "rating": 6.12,
      "classificacao_etaria": "A14",
      "imagem_original": "https://animefire.plus/img/animes/bakumatsu-rock.webp",
      "imagem_pasta": "https://animefire.plus/img/animes/bakumatsu-rock/",
      "secao": "legendados",
      "pagina": 156,
      "total_episodios": 3,
      "link_video": "https://animefire.plus/video/bakumatsu-rock"
    },
    {
      "id": 319,
      "nome": "Bakumatsu: Crisis",
      "link": "https://animefire.plus/animes/bakumatsu-crisis-todos-os-episodios",
      "texto_original": "Bakumatsu: Crisis",
      "rating": 5.69,
      "classificacao_etaria": "A14",
      "imagem_original": "https://animefire.plus/img/animes/bakumatsu-crisis.webp",
      "imagem_pasta": "https://animefire.plus/img/animes/bakumatsu-crisis/",
      "secao": "legendados",
      "pagina": 132,
      "total_episodios": 6,
      "link_video": "https://animefire.plus/video/bakumatsu-crisis"
    },
    {
      "id": 320,
      "nome": "Bakuon!!",
      "link": "https://animefire.plus/animes/bakuon-todos-os-episodios",
      "texto_original": "Bakuon!!",
      "rating": 6.51,
      "classificacao_etaria": "A14",
      "imagem_original": "https://animefire.plus/img/animes/bakuon.webp",
      "imagem_pasta": "https://animefire.plus/img/animes/bakuon/",
      "secao": "legendados",
      "pagina": 103,
      "total_episodios": 12,
      "link_video": "https://animefire.plus/video/bakuon"
    },
    {
      "id": 321,
      "nome": "Bakuretsu Hunters",
      "link": "https://animefire.plus/animes/bakuretsu-hunters-todos-os-episodios",
      "texto_original": "Bakuretsu Hunters",
      "rating": 6.78,
      "classificacao_etaria": "A16",
      "imagem_original": "https://animefire.plus/img/animes/bakuretsu-hunters.webp",
      "imagem_pasta": "https://animefire.plus/img/animes/bakuretsu-hunters/",
      "secao": "legendados",
      "pagina": 122,
      "total_episodios": 26,
      "link_video": "https://animefire.plus/video/bakuretsu-hunters"
    },
    {
      "id": 322,
      "nome": "Bakuretsu Tenshi",
      "link": "https://animefire.plus/animes/bakuretsu-tenshi-todos-os-episodios",
      "texto_original": "Bakuretsu Tenshi",
      "rating": 6.88,
      "classificacao_etaria": "A14",
      "imagem_original": "https://animefire.plus/img/animes/bakuretsu-tenshi.webp",
      "imagem_pasta": "https://animefire.plus/img/animes/bakuretsu-tenshi/",
      "secao": "legendados",
      "pagina": 172,
      "total_episodios": 24,
      "link_video": "https://animefire.plus/video/bakuretsu-tenshi"
    },
    {
      "id": 323,
      "nome": "Bakuten Shoot Beyblade (Dublado)",
      "link": "https://animefire.plus/animes/bakuten-shoot-beyblade-dublado-todos-os-episodios",
      "texto_original": "Bakuten Shoot Beyblade (Dublado)",
      "rating": 6.8,
      "classificacao_etaria": "A10",
      "imagem_original": "https://animefire.plus/img/animes/bakuten-shoot-beyblade.webp",
      "imagem_pasta": "https://animefire.plus/img/animes/bakuten-shoot-beyblade/",
      "secao": "dublados",
      "pagina": 27,
      "total_episodios": 51,
      "link_video": "https://animefire.plus/video/bakuten-shoot-beyblade-dublado"
    },
    {
      "id": 324,
      "nome": "Bakuten Shoot Beyblade 2002 (Dublado)",
      "link": "https://animefire.plus/animes/bakuten-shoot-beyblade-2002-dublado-todos-os-episodios",
      "texto_original": "Bakuten Shoot Beyblade 2002 (Dublado)",
      "rating": 6.75,
      "classificacao_etaria": "A10",
      "imagem_original": "https://animefire.plus/img/animes/bakuten-shoot-beyblade-2002.webp",
      "imagem_pasta": "https://animefire.plus/img/animes/bakuten-shoot-beyblade-2002/",
      "secao": "dublados",
      "pagina": 28,
      "total_episodios": 0,
      "link_video": "https://animefire.plus/video/bakuten-shoot-beyblade-2002-dublado"
    },
    {
      "id": 327,
      "nome": "Baldr Force Exe Resolution",
      "link": "https://animefire.plus/animes/baldr-force-exe-resolution-todos-os-episodios",
      "texto_original": "Baldr Force Exe Resolution",
      "rating": 6.5,
      "classificacao_etaria": "A18",
      "imagem_original": "https://animefire.plus/img/animes/baldr-force-exe-resolution.webp",
      "imagem_pasta": "https://animefire.plus/img/animes/baldr-force-exe-resolution/",
      "secao": "legendados",
      "pagina": 69,
      "total_episodios": 4,
      "link_video": "https://animefire.plus/video/baldr-force-exe-resolution"
    },
    {
      "id": 332,
      "nome": "Bananya",
      "link": "https://animefire.plus/animes/bananya-todos-os-episodios",
      "texto_original": "Bananya",
      "rating": 6.8,
      "classificacao_etaria": null,
      "imagem_original": "https://animefire.plus/img/animes/bananya.webp",
      "imagem_pasta": "https://animefire.plus/img/animes/bananya/",
      "secao": "legendados",
      "pagina": 100,
      "total_episodios": 13,
      "link_video": "https://animefire.plus/video/bananya"
    },
    {
      "id": 340,
      "nome": "Bannou Bunka Neko-Musume",
      "link": "https://animefire.plus/animes/bannou-bunka-neko-musume-todos-os-episodios",
      "texto_original": "Bannou Bunka Neko-Musume",
      "rating": 6.75,
      "classificacao_etaria": "A18",
      "imagem_original": "https://animefire.plus/img/animes/bannou-bunka-neko-musume.webp",
      "imagem_pasta": "https://animefire.plus/img/animes/bannou-bunka-neko-musume/",
      "secao": "legendados",
      "pagina": 106,
      "total_episodios": 12,
      "link_video": "https://animefire.plus/video/bannou-bunka-neko-musume"
    },
    {
      "id": 341,
      "nome": "Baoh Raihousha",
      "link": "https://animefire.plus/animes/baoh-raihousha-todos-os-episodios",
      "texto_original": "Baoh Raihousha",
      "rating": 6.12,
      "classificacao_etaria": "A16",
      "imagem_original": "https://animefire.plus/img/animes/baoh-raihousha.webp",
      "imagem_pasta": "https://animefire.plus/img/animes/baoh-raihousha/",
      "secao": "legendados",
      "pagina": 57,
      "total_episodios": 1,
      "link_video": "https://animefire.plus/video/baoh-raihousha"
    },
    {
      "id": 343,
      "nome": "Baraou no Souretsu (Dublado)",
      "link": "https://animefire.plus/animes/baraou-no-souretsu-dublado-todos-os-episodios",
      "texto_original": "Baraou no Souretsu (Dublado)",
      "rating": 6.39,
      "classificacao_etaria": "A14",
      "imagem_original": "https://animefire.plus/img/animes/baraou-no-souretsu.webp",
      "imagem_pasta": "https://animefire.plus/img/animes/baraou-no-souretsu/",
      "secao": "dublados,legendados",
      "pagina": 12,
      "total_episodios": 24,
      "link_video": "https://animefire.plus/video/baraou-no-souretsu-dublado"
    },
    {
      "id": 344,
      "nome": "Barom One (Dublado)",
      "link": "https://animefire.plus/animes/barom-one-dublado-todos-os-episodios",
      "texto_original": "Barom One (Dublado)",
      "rating": 5.39,
      "classificacao_etaria": "A14",
      "imagem_original": "https://animefire.plus/img/animes/barom-one.webp",
      "imagem_pasta": "https://animefire.plus/img/animes/barom-one/",
      "secao": "dublados,legendados",
      "pagina": 26,
      "total_episodios": 13,
      "link_video": "https://animefire.plus/video/barom-one-dublado"
    },
    {
      "id": 348,
      "nome": "Basilisk: Ouka Ninpouchou",
      "link": "https://animefire.plus/animes/basilisk-ouka-ninpouchou-todos-os-episodios",
      "texto_original": "Basilisk: Ouka Ninpouchou",
      "rating": 5.52,
      "classificacao_etaria": "A16",
      "imagem_original": "https://animefire.plus/img/animes/basilisk-ouka-ninpouchou.webp",
      "imagem_pasta": "https://animefire.plus/img/animes/basilisk-ouka-ninpouchou/",
      "secao": "legendados",
      "pagina": 100,
      "total_episodios": 24,
      "link_video": "https://animefire.plus/video/basilisk-ouka-ninpouchou"
    },
    {
      "id": 350,
      "nome": "Bastard!! Ankoku no Hakaishin (ONA) (Dublado)",
      "link": "https://animefire.plus/animes/bastard-ankoku-no-hakaishin-ona-dublado-todos-os-episodios",
      "texto_original": "Bastard!! Ankoku no Hakaishin (ONA) (Dublado)",
      "rating": 6.59,
      "classificacao_etaria": "A18",
      "imagem_original": "https://animefire.plus/img/animes/bastard-ankoku-no-hakaishin-ona.webp",
      "imagem_pasta": "https://animefire.plus/img/animes/bastard-ankoku-no-hakaishin-ona/",
      "secao": "dublados,legendados",
      "pagina": 10,
      "total_episodios": 13,
      "link_video": "https://animefire.plus/video/bastard-ankoku-no-hakaishin-ona-dublado"
    },
    {
      "id": 351,
      "nome": "Bastard!! Ankoku no Hakaishin (ONA) Part 2 (Dublado)",
      "link": "https://animefire.plus/animes/bastard-ankoku-no-hakaishin-ona-part-2-dublado-todos-os-episodios",
      "texto_original": "Bastard!! Ankoku no Hakaishin (ONA) Part 2 (Dublado)",
      "rating": 6.75,
      "classificacao_etaria": "A18",
      "imagem_original": "https://animefire.plus/img/animes/bastard-ankoku-no-hakaishin-ona-part-2.webp",
      "imagem_pasta": "https://animefire.plus/img/animes/bastard-ankoku-no-hakaishin-ona-part-2/",
      "secao": "dublados,legendados",
      "pagina": 9,
      "total_episodios": 11,
      "link_video": "https://animefire.plus/video/bastard-ankoku-no-hakaishin-ona-part-2-dublado"
    },
    {
      "id": 352,
      "nome": "Bastard!! Ankoku no Hakaishin Part 2 (ONA) (Dublado)",
      "link": "https://animefire.plus/animes/bastard-ankoku-no-hakaishin-part-2-ona-dublado-todos-os-episodios",
      "texto_original": "Bastard!! Ankoku no Hakaishin Part 2 (ONA) (Dublado)",
      "rating": 6.75,
      "classificacao_etaria": "A18",
      "imagem_original": "https://animefire.plus/img/animes/bastard-ankoku-no-hakaishin-part-2-ona.webp",
      "imagem_pasta": "https://animefire.plus/img/animes/bastard-ankoku-no-hakaishin-part-2-ona/",
      "secao": "dublados",
      "pagina": 8,
      "total_episodios": 11,
      "link_video": "https://animefire.plus/video/bastard-ankoku-no-hakaishin-part-2-ona-dublado"
    },
    {
      "id": 354,
      "nome": "Bastard!!: Ankoku no Hakaishin",
      "link": "https://animefire.plus/animes/bastard-ankoku-no-hakaishin-todos-os-episodios",
      "texto_original": "Bastard!!: Ankoku no Hakaishin",
      "rating": 6.84,
      "classificacao_etaria": "A18",
      "imagem_original": "https://animefire.plus/img/animes/bastard-ankoku-no-hakaishin.webp",
      "imagem_pasta": "https://animefire.plus/img/animes/bastard-ankoku-no-hakaishin/",
      "secao": "legendados",
      "pagina": 113,
      "total_episodios": 6,
      "link_video": "https://animefire.plus/video/bastard-ankoku-no-hakaishin"
    },
    {
      "id": 355,
      "nome": "Battery",
      "link": "https://animefire.plus/animes/battery-todos-os-episodios",
      "texto_original": "Battery",
      "rating": 5.76,
      "classificacao_etaria": "A14",
      "imagem_original": "https://animefire.plus/img/animes/battery.webp",
      "imagem_pasta": "https://animefire.plus/img/animes/battery/",
      "secao": "legendados",
      "pagina": 148,
      "total_episodios": 7,
      "link_video": "https://animefire.plus/video/battery"
    },
    {
      "id": 356,
      "nome": "Battle Athletess Daiundoukai ReSTART!",
      "link": "https://animefire.plus/animes/battle-athletess-daiundoukai-restart-todos-os-episodios",
      "texto_original": "Battle Athletess Daiundoukai ReSTART!",
      "rating": 5.11,
      "classificacao_etaria": "A14",
      "imagem_original": "https://animefire.plus/img/animes/battle-athletess-daiundoukai-restart.webp",
      "imagem_pasta": "https://animefire.plus/img/animes/battle-athletess-daiundoukai-restart/",
      "secao": "legendados",
      "pagina": 45,
      "total_episodios": 12,
      "link_video": "https://animefire.plus/video/battle-athletess-daiundoukai-restart"
    }
  ],
  "pagination": {
    "current_page": 8,
    "per_page": 20,
    "total_items": 1805,
    "total_pages": 91,
    "has_next": true,
    "has_prev": true
  }
}
