{
  "message": "Animes com rating entre 5 e 7",
  "rating_range": {
    "min": 5,
    "max": 7
  },
  "data": [
    {
      "id": 2412,
      "nome": "Maou Gakuin no Futekigousha: Shijou Saikyou no Maou no Shiso, Tensei shite Shison-tachi no Gakkou e Kayou II",
      "link": "https://animefire.plus/animes/maou-gakuin-no-futekigousha-shijou-saikyou-no-maou-no-shiso-tensei-shite-shison-tachi-no-gakkou-e-kayou-ii-todos-os-episodios",
      "texto_original": "Maou Gakuin no Futekigousha: Shijou Saikyou no Maou no Shiso, Tensei shite Shison-tachi no Gakkou e Kayou II",
      "rating": 6.85,
      "classificacao_etaria": "A16",
      "imagem_original": "https://animefire.plus/img/animes/maou-gakuin-no-futekigousha-shijou-saikyou-no-maou-no-shiso-tensei-shite-shison-tachi-no-gakkou-e-kayou-ii.webp",
      "imagem_pasta": "https://animefire.plus/img/animes/maou-gakuin-no-futekigousha-shijou-saikyou-no-maou-no-shiso-tensei-shite-shison-tachi-no-gakkou-e-kayou-ii/",
      "secao": "legendados,lancamentos",
      "pagina": 27,
      "total_episodios": 9,
      "link_video": "https://animefire.plus/video/maou-gakuin-no-futekigousha-shijou-saikyou-no-maou-no-shiso-tensei-shite-shison-tachi-no-gakkou-e-kayou-ii"
    },
    {
      "id": 2413,
      "nome": "Maou Gakuin no Futekigousha: Shijou Saikyou no Maou no Shiso, Tensei shite Shison-tachi no Gakkou e Kayou II Part 2",
      "link": "https://animefire.plus/animes/maou-gakuin-no-futekigousha-shijou-saikyou-no-maou-no-shiso-tensei-shite-shison-tachi-no-gakkou-e-kayou-ii-part-2-todos-os-episodios",
      "texto_original": "Maou Gakuin no Futekigousha: Shijou Saikyou no Maou no Shiso, Tensei shite Shison-tachi no Gakkou e Kayou II Part 2",
      "rating": 6.46,
      "classificacao_etaria": "A16",
      "imagem_original": "https://animefire.plus/img/animes/maou-gakuin-no-futekigousha-shijou-saikyou-no-maou-no-shiso-tensei-shite-shison-tachi-no-gakkou-e-kayou-ii-part-2.webp",
      "imagem_pasta": "https://animefire.plus/img/animes/maou-gakuin-no-futekigousha-shijou-saikyou-no-maou-no-shiso-tensei-shite-shison-tachi-no-gakkou-e-kayou-ii-part-2/",
      "secao": "legendados,lancamentos",
      "pagina": 16,
      "total_episodios": 0,
      "link_video": "https://animefire.plus/video/maou-gakuin-no-futekigousha-shijou-saikyou-no-maou-no-shiso-tensei-shite-shison-tachi-no-gakkou-e-kayou-ii-part-2"
    },
    {
      "id": 2415,
      "nome": "Maou-sama, Retry!",
      "link": "https://animefire.plus/animes/maou-sama-retry-todos-os-episodios",
      "texto_original": "Maou-sama, Retry!",
      "rating": 6.51,
      "classificacao_etaria": "A14",
      "imagem_original": "https://animefire.plus/img/animes/maou-sama-retry.webp",
      "imagem_pasta": "https://animefire.plus/img/animes/maou-sama-retry/",
      "secao": "legendados",
      "pagina": 145,
      "total_episodios": 6,
      "link_video": "https://animefire.plus/video/maou-sama-retry"
    },
    {
      "id": 2416,
      "nome": "Maou-sama, Retry! R",
      "link": "https://animefire.plus/animes/maou-sama-retry-r-todos-os-episodios",
      "texto_original": "Maou-sama, Retry! R",
      "rating": 5.92,
      "classificacao_etaria": "A14",
      "imagem_original": "https://animefire.plus/img/animes/maou-sama-retry-r.webp",
      "imagem_pasta": "https://animefire.plus/img/animes/maou-sama-retry-r/",
      "secao": "legendados",
      "pagina": 9,
      "total_episodios": 12,
      "link_video": "https://animefire.plus/video/maou-sama-retry-r"
    },
    {
      "id": 2417,
      "nome": "Maougun Saikyou no Majutsushi wa Ningen datta",
      "link": "https://animefire.plus/animes/maougun-saikyou-no-majutsushi-wa-ningen-datta-todos-os-episodios",
      "texto_original": "Maougun Saikyou no Majutsushi wa Ningen datta",
      "rating": 6.41,
      "classificacao_etaria": "A14",
      "imagem_original": "https://animefire.plus/img/animes/maougun-saikyou-no-majutsushi-wa-ningen-datta.webp",
      "imagem_pasta": "https://animefire.plus/img/animes/maougun-saikyou-no-majutsushi-wa-ningen-datta/",
      "secao": "legendados",
      "pagina": 13,
      "total_episodios": 12,
      "link_video": "https://animefire.plus/video/maougun-saikyou-no-majutsushi-wa-ningen-datta"
    },
    {
      "id": 2420,
      "nome": "M채rchen M채dchen",
      "link": "https://animefire.plus/animes/maerchen-maedchen-todos-os-episodios",
      "texto_original": "M채rchen M채dchen",
      "rating": 5.45,
      "classificacao_etaria": "A14",
      "imagem_original": "https://animefire.plus/img/animes/maerchen-maedchen.webp",
      "imagem_pasta": "https://animefire.plus/img/animes/maerchen-maedchen/",
      "secao": "legendados",
      "pagina": 113,
      "total_episodios": 12,
      "link_video": "https://animefire.plus/video/maerchen-maedchen"
    },
    {
      "id": 2421,
      "nome": "Marginal#4: Kiss Kara Tsukuru Big Bang",
      "link": "https://animefire.plus/animes/marginal-4-kiss-kara-tsukuru-big-bang-todos-os-episodios",
      "texto_original": "Marginal#4: Kiss Kara Tsukuru Big Bang",
      "rating": 6.79,
      "classificacao_etaria": "A14",
      "imagem_original": "https://animefire.plus/img/animes/marginal-4-kiss-kara-tsukuru-big-bang.webp",
      "imagem_pasta": "https://animefire.plus/img/animes/marginal-4-kiss-kara-tsukuru-big-bang/",
      "secao": "legendados",
      "pagina": 107,
      "total_episodios": 0,
      "link_video": "https://animefire.plus/video/marginal-4-kiss-kara-tsukuru-big-bang"
    },
    {
      "id": 2428,
      "nome": "Mars Red (Dublado)",
      "link": "https://animefire.plus/animes/mars-red-dublado-todos-os-episodios",
      "texto_original": "Mars Red (Dublado)",
      "rating": 6.58,
      "classificacao_etaria": "A14",
      "imagem_original": "https://animefire.plus/img/animes/mars-red.webp",
      "imagem_pasta": "https://animefire.plus/img/animes/mars-red/",
      "secao": "dublados,legendados",
      "pagina": 14,
      "total_episodios": 13,
      "link_video": "https://animefire.plus/video/mars-red-dublado"
    },
    {
      "id": 2429,
      "nome": "Marvel Disk Wars: The Avengers",
      "link": "https://animefire.plus/animes/marvel-disk-wars-the-avengers-todos-os-episodios",
      "texto_original": "Marvel Disk Wars: The Avengers",
      "rating": 6.03,
      "classificacao_etaria": "A10",
      "imagem_original": "https://animefire.plus/img/animes/marvel-disk-wars-the-avengers.webp",
      "imagem_pasta": "https://animefire.plus/img/animes/marvel-disk-wars-the-avengers/",
      "secao": "legendados",
      "pagina": 135,
      "total_episodios": 9,
      "link_video": "https://animefire.plus/video/marvel-disk-wars-the-avengers"
    },
    {
      "id": 2430,
      "nome": "Maryuu Senki",
      "link": "https://animefire.plus/animes/maryuu-senki-todos-os-episodios",
      "texto_original": "Maryuu Senki",
      "rating": 5.31,
      "classificacao_etaria": "A18",
      "imagem_original": "https://animefire.plus/img/animes/maryuu-senki.webp",
      "imagem_pasta": "https://animefire.plus/img/animes/maryuu-senki/",
      "secao": "legendados",
      "pagina": 77,
      "total_episodios": 3,
      "link_video": "https://animefire.plus/video/maryuu-senki"
    },
    {
      "id": 2431,
      "nome": "Masamune Datenicle",
      "link": "https://animefire.plus/animes/masamune-datenicle-todos-os-episodios",
      "texto_original": "Masamune Datenicle",
      "rating": 6.03,
      "classificacao_etaria": "A14",
      "imagem_original": "https://animefire.plus/img/animes/masamune-datenicle.webp",
      "imagem_pasta": "https://animefire.plus/img/animes/masamune-datenicle/",
      "secao": "legendados",
      "pagina": 143,
      "total_episodios": 6,
      "link_video": "https://animefire.plus/video/masamune-datenicle"
    },
    {
      "id": 2432,
      "nome": "Masamune-kun no Revenge (Dublado)",
      "link": "https://animefire.plus/animes/masamune-kun-no-revenge-dublado-todos-os-episodios",
      "texto_original": "Masamune-kun no Revenge (Dublado)",
      "rating": 6.74,
      "classificacao_etaria": "A14",
      "imagem_original": "https://animefire.plus/img/animes/masamune-kun-no-revenge.webp",
      "imagem_pasta": "https://animefire.plus/img/animes/masamune-kun-no-revenge/",
      "secao": "dublados,legendados",
      "pagina": 7,
      "total_episodios": 12,
      "link_video": "https://animefire.plus/video/masamune-kun-no-revenge-dublado"
    },
    {
      "id": 2433,
      "nome": "Masamune-kun no Revenge OVA",
      "link": "https://animefire.plus/animes/masamune-kun-no-revenge-ova-todos-os-episodios",
      "texto_original": "Masamune-kun no Revenge OVA",
      "rating": 6.6,
      "classificacao_etaria": "A14",
      "imagem_original": "https://animefire.plus/img/animes/masamune-kun-no-revenge-ova.webp",
      "imagem_pasta": "https://animefire.plus/img/animes/masamune-kun-no-revenge-ova/",
      "secao": "legendados",
      "pagina": 84,
      "total_episodios": 1,
      "link_video": "https://animefire.plus/video/masamune-kun-no-revenge-ova"
    },
    {
      "id": 2441,
      "nome": "Masou Gakuen HxH",
      "link": "https://animefire.plus/animes/masou-gakuen-hxh-todos-os-episodios",
      "texto_original": "Masou Gakuen HxH",
      "rating": 6.38,
      "classificacao_etaria": "A18",
      "imagem_original": "https://animefire.plus/img/animes/masou-gakuen-hxh.webp",
      "imagem_pasta": "https://animefire.plus/img/animes/masou-gakuen-hxh/",
      "secao": "legendados",
      "pagina": 138,
      "total_episodios": 0,
      "link_video": "https://animefire.plus/video/masou-gakuen-hxh"
    },
    {
      "id": 2442,
      "nome": "Masou Kishin Cybuster",
      "link": "https://animefire.plus/animes/masou-kishin-cybuster-todos-os-episodios",
      "texto_original": "Masou Kishin Cybuster",
      "rating": 6.2,
      "classificacao_etaria": "A14",
      "imagem_original": "https://animefire.plus/img/animes/masou-kishin-cybuster.webp",
      "imagem_pasta": "https://animefire.plus/img/animes/masou-kishin-cybuster/",
      "secao": "legendados",
      "pagina": 135,
      "total_episodios": 26,
      "link_video": "https://animefire.plus/video/masou-kishin-cybuster"
    },
    {
      "id": 2445,
      "nome": "Master Mosquiton",
      "link": "https://animefire.plus/animes/master-mosquiton-todos-os-episodios",
      "texto_original": "Master Mosquiton",
      "rating": 6.73,
      "classificacao_etaria": "A14",
      "imagem_original": "https://animefire.plus/img/animes/master-mosquiton.webp",
      "imagem_pasta": "https://animefire.plus/img/animes/master-mosquiton/",
      "secao": "legendados",
      "pagina": 84,
      "total_episodios": 6,
      "link_video": "https://animefire.plus/video/master-mosquiton"
    },
    {
      "id": 2446,
      "nome": "Masuda Kousuke Gekijou: Gag Manga Biyori Go",
      "link": "https://animefire.plus/animes/masuda-kousuke-gekijou-gag-manga-biyori-go-todos-os-episodios",
      "texto_original": "Masuda Kousuke Gekijou: Gag Manga Biyori Go",
      "rating": 6.08,
      "classificacao_etaria": "A14",
      "imagem_original": "https://animefire.plus/img/animes/masuda-kousuke-gekijou-gag-manga-biyori-go.webp",
      "imagem_pasta": "https://animefire.plus/img/animes/masuda-kousuke-gekijou-gag-manga-biyori-go/",
      "secao": "legendados,lancamentos",
      "pagina": 4,
      "total_episodios": 0,
      "link_video": "https://animefire.plus/video/masuda-kousuke-gekijou-gag-manga-biyori-go"
    },
    {
      "id": 2448,
      "nome": "Mato Seihei no Slave",
      "link": "https://animefire.plus/animes/mato-seihei-no-slave-todos-os-episodios",
      "texto_original": "Mato Seihei no Slave",
      "rating": 6.85,
      "classificacao_etaria": "A14",
      "imagem_original": "https://animefire.plus/img/animes/mato-seihei-no-slave.webp",
      "imagem_pasta": "https://animefire.plus/img/animes/mato-seihei-no-slave/",
      "secao": "legendados",
      "pagina": 18,
      "total_episodios": 12,
      "link_video": "https://animefire.plus/video/mato-seihei-no-slave"
    },
    {
      "id": 2452,
      "nome": "Mayoi Neko Overrun!",
      "link": "https://animefire.plus/animes/mayoi-neko-overrun-todos-os-episodios",
      "texto_original": "Mayoi Neko Overrun!",
      "rating": 6.8,
      "classificacao_etaria": "A14",
      "imagem_original": "https://animefire.plus/img/animes/mayoi-neko-overrun.webp",
      "imagem_pasta": "https://animefire.plus/img/animes/mayoi-neko-overrun/",
      "secao": "legendados",
      "pagina": 118,
      "total_episodios": 13,
      "link_video": "https://animefire.plus/video/mayoi-neko-overrun"
    },
    {
      "id": 2453,
      "nome": "Mayoiga",
      "link": "https://animefire.plus/animes/mayoiga-todos-os-episodios",
      "texto_original": "Mayoiga",
      "rating": 5.62,
      "classificacao_etaria": "A16",
      "imagem_original": "https://animefire.plus/img/animes/mayoiga.webp",
      "imagem_pasta": "https://animefire.plus/img/animes/mayoiga/",
      "secao": "legendados",
      "pagina": 101,
      "total_episodios": 0,
      "link_video": "https://animefire.plus/video/mayoiga"
    }
  ],
  "pagination": {
    "current_page": 52,
    "per_page": 20,
    "total_items": 1805,
    "total_pages": 91,
    "has_next": true,
    "has_prev": true
  }
}
