{
  "message": "Animes com rating entre 5 e 7",
  "rating_range": {
    "min": 5,
    "max": 7
  },
  "data": [
    {
      "id": 32,
      "nome": "3D Kanojo: Real Girl",
      "link": "https://animefire.plus/animes/3d-kanojo-real-girl-todos-os-episodios",
      "texto_original": "3D Kanojo: Real Girl",
      "rating": 6.84,
      "classificacao_etaria": "A14",
      "imagem_original": "https://animefire.plus/img/animes/3d-kanojo-real-girl.webp",
      "imagem_pasta": "https://animefire.plus/img/animes/3d-kanojo-real-girl/",
      "secao": "legendados",
      "pagina": 178,
      "total_episodios": 12,
      "link_video": "https://animefire.plus/video/3d-kanojo-real-girl"
    },
    {
      "id": 34,
      "nome": "3x3 Eyes",
      "link": "https://animefire.plus/animes/3x3-eyes-todos-os-episodios",
      "texto_original": "3x3 Eyes",
      "rating": 6.88,
      "classificacao_etaria": "A16",
      "imagem_original": "https://animefire.plus/img/animes/3x3-eyes.webp",
      "imagem_pasta": "https://animefire.plus/img/animes/3x3-eyes/",
      "secao": "legendados",
      "pagina": 135,
      "total_episodios": 0,
      "link_video": "https://animefire.plus/video/3x3-eyes"
    },
    {
      "id": 39,
      "nome": "7 Seeds (Dublado)",
      "link": "https://animefire.plus/animes/7-seeds-dublado-todos-os-episodios",
      "texto_original": "7 Seeds (Dublado)",
      "rating": 6.52,
      "classificacao_etaria": "A18",
      "imagem_original": "https://animefire.plus/img/animes/7-seeds.webp",
      "imagem_pasta": "https://animefire.plus/img/animes/7-seeds/",
      "secao": "dublados,legendados",
      "pagina": 23,
      "total_episodios": 12,
      "link_video": "https://animefire.plus/video/7-seeds-dublado"
    },
    {
      "id": 43,
      "nome": "9: Ruler's Crown",
      "link": "https://animefire.plus/animes/9-ruler-s-crown-todos-os-episodios",
      "texto_original": "9: Ruler's Crown",
      "rating": 5.92,
      "classificacao_etaria": "A14",
      "imagem_original": "https://animefire.plus/img/animes/9-ruler-s-crown.webp",
      "imagem_pasta": "https://animefire.plus/img/animes/9-ruler-s-crown/",
      "secao": "legendados,lancamentos",
      "pagina": 1,
      "total_episodios": 1,
      "link_video": "https://animefire.plus/video/9-ruler-s-crown"
    },
    {
      "id": 45,
      "nome": "A-Channel",
      "link": "https://animefire.plus/animes/a-channel-todos-os-episodios",
      "texto_original": "A-Channel",
      "rating": 7,
      "classificacao_etaria": "A14",
      "imagem_original": "https://animefire.plus/img/animes/a-channel.webp",
      "imagem_pasta": "https://animefire.plus/img/animes/a-channel/",
      "secao": "legendados",
      "pagina": 90,
      "total_episodios": 12,
      "link_video": "https://animefire.plus/video/a-channel"
    },
    {
      "id": 46,
      "nome": "A-Channel: Nabe wo Tabeyou",
      "link": "https://animefire.plus/animes/a-channel-nabe-wo-tabeyou-todos-os-episodios",
      "texto_original": "A-Channel: Nabe wo Tabeyou",
      "rating": 6.92,
      "classificacao_etaria": "A14",
      "imagem_original": "https://animefire.plus/img/animes/a-channel-nabe-wo-tabeyou.webp",
      "imagem_pasta": "https://animefire.plus/img/animes/a-channel-nabe-wo-tabeyou/",
      "secao": "legendados",
      "pagina": 88,
      "total_episodios": 1,
      "link_video": "https://animefire.plus/video/a-channel-nabe-wo-tabeyou"
    },
    {
      "id": 47,
      "nome": "A-Rank Party wo Ridatsu shita Ore wa, Moto Oshiego-tachi to Meikyuu Shinbu wo Mezasu.",
      "link": "https://animefire.plus/animes/a-rank-party-wo-ridatsu-shita-ore-wa-moto-oshiego-tachi-to-meikyuu-shinbu-wo-mezasu-todos-os-episodios",
      "texto_original": "A-Rank Party wo Ridatsu shita Ore wa, Moto Oshiego-tachi to Meikyuu Shinbu wo Mezasu.",
      "rating": 6.58,
      "classificacao_etaria": "A14",
      "imagem_original": "https://animefire.plus/img/animes/a-rank-party-wo-ridatsu-shita-ore-wa-moto-oshiego-tachi-to-meikyuu-shinbu-wo-mezasu.webp",
      "imagem_pasta": "https://animefire.plus/img/animes/a-rank-party-wo-ridatsu-shita-ore-wa-moto-oshiego-tachi-to-meikyuu-shinbu-wo-mezasu/",
      "secao": "legendados",
      "pagina": 7,
      "total_episodios": 24,
      "link_video": "https://animefire.plus/video/a-rank-party-wo-ridatsu-shita-ore-wa-moto-oshiego-tachi-to-meikyuu-shinbu-wo-mezasu"
    },
    {
      "id": 48,
      "nome": "A.I.C.O.: Incarnation (Dublado)",
      "link": "https://animefire.plus/animes/a-i-c-o-incarnation-dublado-todos-os-episodios",
      "texto_original": "A.I.C.O.: Incarnation (Dublado)",
      "rating": 6.76,
      "classificacao_etaria": "A16",
      "imagem_original": "https://animefire.plus/img/animes/a-i-c-o-incarnation.webp",
      "imagem_pasta": "https://animefire.plus/img/animes/a-i-c-o-incarnation/",
      "secao": "dublados,legendados",
      "pagina": 24,
      "total_episodios": 12,
      "link_video": "https://animefire.plus/video/a-i-c-o-incarnation-dublado"
    },
    {
      "id": 53,
      "nome": "Abarenbou Rikishi!! Matsutarou",
      "link": "https://animefire.plus/animes/abarenbou-rikishi-matsutarou-todos-os-episodios",
      "texto_original": "Abarenbou Rikishi!! Matsutarou",
      "rating": 6.15,
      "classificacao_etaria": "A14",
      "imagem_original": "https://animefire.plus/img/animes/abarenbou-rikishi-matsutarou.webp",
      "imagem_pasta": "https://animefire.plus/img/animes/abarenbou-rikishi-matsutarou/",
      "secao": "legendados",
      "pagina": 164,
      "total_episodios": 13,
      "link_video": "https://animefire.plus/video/abarenbou-rikishi-matsutarou"
    },
    {
      "id": 54,
      "nome": "Abciee Shuugyou Nikki",
      "link": "https://animefire.plus/animes/abciee-shuugyou-nikki-todos-os-episodios",
      "texto_original": "Abciee Shuugyou Nikki",
      "rating": 5.43,
      "classificacao_etaria": "A10",
      "imagem_original": "https://animefire.plus/img/animes/abciee-shuugyou-nikki.webp",
      "imagem_pasta": "https://animefire.plus/img/animes/abciee-shuugyou-nikki/",
      "secao": "legendados",
      "pagina": 48,
      "total_episodios": 12,
      "link_video": "https://animefire.plus/video/abciee-shuugyou-nikki"
    },
    {
      "id": 56,
      "nome": "Absolute Duo",
      "link": "https://animefire.plus/animes/absolute-duo-todos-os-episodios",
      "texto_original": "Absolute Duo",
      "rating": 6.71,
      "classificacao_etaria": "A16",
      "imagem_original": "https://animefire.plus/img/animes/absolute-duo.webp",
      "imagem_pasta": "https://animefire.plus/img/animes/absolute-duo/",
      "secao": "legendados",
      "pagina": 120,
      "total_episodios": 4,
      "link_video": "https://animefire.plus/video/absolute-duo"
    },
    {
      "id": 62,
      "nome": "Ace wo Nerae! 2",
      "link": "https://animefire.plus/animes/ace-wo-nerae-2-todos-os-episodios",
      "texto_original": "Ace wo Nerae! 2",
      "rating": 6.82,
      "classificacao_etaria": "A14",
      "imagem_original": "https://animefire.plus/img/animes/ace-wo-nerae-2.webp",
      "imagem_pasta": "https://animefire.plus/img/animes/ace-wo-nerae-2/",
      "secao": "legendados",
      "pagina": 55,
      "total_episodios": 13,
      "link_video": "https://animefire.plus/video/ace-wo-nerae-2"
    },
    {
      "id": 63,
      "nome": "Acro Trip",
      "link": "https://animefire.plus/animes/acro-trip-todos-os-episodios",
      "texto_original": "Acro Trip",
      "rating": 6.72,
      "classificacao_etaria": "A14",
      "imagem_original": "https://animefire.plus/img/animes/acro-trip.webp",
      "imagem_pasta": "https://animefire.plus/img/animes/acro-trip/",
      "secao": "legendados",
      "pagina": 9,
      "total_episodios": 12,
      "link_video": "https://animefire.plus/video/acro-trip"
    },
    {
      "id": 64,
      "nome": "Action Heroine Cheer Fruits",
      "link": "https://animefire.plus/animes/action-heroine-cheer-fruits-todos-os-episodios",
      "texto_original": "Action Heroine Cheer Fruits",
      "rating": 6.57,
      "classificacao_etaria": "A14",
      "imagem_original": "https://animefire.plus/img/animes/action-heroine-cheer-fruits.webp",
      "imagem_pasta": "https://animefire.plus/img/animes/action-heroine-cheer-fruits/",
      "secao": "legendados",
      "pagina": 149,
      "total_episodios": 12,
      "link_video": "https://animefire.plus/video/action-heroine-cheer-fruits"
    },
    {
      "id": 65,
      "nome": "Actors: Songs Connection",
      "link": "https://animefire.plus/animes/actors-songs-connection-todos-os-episodios",
      "texto_original": "Actors: Songs Connection",
      "rating": 6.23,
      "classificacao_etaria": "A14",
      "imagem_original": "https://animefire.plus/img/animes/actors-songs-connection.webp",
      "imagem_pasta": "https://animefire.plus/img/animes/actors-songs-connection/",
      "secao": "legendados",
      "pagina": 109,
      "total_episodios": 6,
      "link_video": "https://animefire.plus/video/actors-songs-connection"
    },
    {
      "id": 67,
      "nome": "Adesugata Mahou no Sannin Musume",
      "link": "https://animefire.plus/animes/adesugata-mahou-no-sannin-musume-todos-os-episodios",
      "texto_original": "Adesugata Mahou no Sannin Musume",
      "rating": 5.43,
      "classificacao_etaria": "A14",
      "imagem_original": "https://animefire.plus/img/animes/adesugata-mahou-no-sannin-musume.webp",
      "imagem_pasta": "https://animefire.plus/img/animes/adesugata-mahou-no-sannin-musume/",
      "secao": "legendados",
      "pagina": 83,
      "total_episodios": 1,
      "link_video": "https://animefire.plus/video/adesugata-mahou-no-sannin-musume"
    },
    {
      "id": 68,
      "nome": "Africa no Salaryman (TV)",
      "link": "https://animefire.plus/animes/africa-no-salaryman-tv-todos-os-episodios",
      "texto_original": "Africa no Salaryman (TV)",
      "rating": 6.52,
      "classificacao_etaria": "A14",
      "imagem_original": "https://animefire.plus/img/animes/africa-no-salaryman-tv.webp",
      "imagem_pasta": "https://animefire.plus/img/animes/africa-no-salaryman-tv/",
      "secao": "legendados",
      "pagina": 109,
      "total_episodios": 12,
      "link_video": "https://animefire.plus/video/africa-no-salaryman-tv"
    },
    {
      "id": 71,
      "nome": "Agatha Christie no Meitantei Poirot to Marple",
      "link": "https://animefire.plus/animes/agatha-christie-no-meitantei-poirot-to-marple-todos-os-episodios",
      "texto_original": "Agatha Christie no Meitantei Poirot to Marple",
      "rating": 6.92,
      "classificacao_etaria": null,
      "imagem_original": "https://animefire.plus/img/animes/agatha-christie-no-meitantei-poirot-to-marple.webp",
      "imagem_pasta": "https://animefire.plus/img/animes/agatha-christie-no-meitantei-poirot-to-marple/",
      "secao": "legendados",
      "pagina": 153,
      "total_episodios": 39,
      "link_video": "https://animefire.plus/video/agatha-christie-no-meitantei-poirot-to-marple"
    },
    {
      "id": 75,
      "nome": "Aguu: Tensai Ningyou",
      "link": "https://animefire.plus/animes/aguu-tensai-ningyou-todos-os-episodios",
      "texto_original": "Aguu: Tensai Ningyou",
      "rating": 5.64,
      "classificacao_etaria": "A14",
      "imagem_original": "https://animefire.plus/img/animes/aguu-tensai-ningyou.webp",
      "imagem_pasta": "https://animefire.plus/img/animes/aguu-tensai-ningyou/",
      "secao": "legendados",
      "pagina": 155,
      "total_episodios": 8,
      "link_video": "https://animefire.plus/video/aguu-tensai-ningyou"
    },
    {
      "id": 80,
      "nome": "Ai Mai! Moe Can Change!",
      "link": "https://animefire.plus/animes/ai-mai-moe-can-change-todos-os-episodios",
      "texto_original": "Ai Mai! Moe Can Change!",
      "rating": 5.58,
      "classificacao_etaria": "A14",
      "imagem_original": "https://animefire.plus/img/animes/ai-mai-moe-can-change.webp",
      "imagem_pasta": "https://animefire.plus/img/animes/ai-mai-moe-can-change/",
      "secao": "legendados",
      "pagina": 65,
      "total_episodios": 1,
      "link_video": "https://animefire.plus/video/ai-mai-moe-can-change"
    }
  ],
  "pagination": {
    "current_page": 2,
    "per_page": 20,
    "total_items": 1805,
    "total_pages": 91,
    "has_next": true,
    "has_prev": true
  }
}
