{
  "message": "Animes com rating entre 5 e 7",
  "rating_range": {
    "min": 5,
    "max": 7
  },
  "data": [
    {
      "id": 1504,
      "nome": "Hitori no Shita: The Outcast 4th Season",
      "link": "https://animefire.plus/animes/hitori-no-shita-the-outcast-4th-season-todos-os-episodios",
      "texto_original": "Hitori no Shita: The Outcast 4th Season",
      "rating": 6.95,
      "classificacao_etaria": "A16",
      "imagem_original": "https://animefire.plus/img/animes/hitori-no-shita-the-outcast-4th-season.webp",
      "imagem_pasta": "https://animefire.plus/img/animes/hitori-no-shita-the-outcast-4th-season/",
      "secao": "legendados",
      "pagina": 33,
      "total_episodios": 1,
      "link_video": "https://animefire.plus/video/hitori-no-shita-the-outcast-4th-season"
    },
    {
      "id": 1505,
      "nome": "Hitori no Shita: The Outcast Recap",
      "link": "https://animefire.plus/animes/hitori-no-shita-the-outcast-recap-todos-os-episodios",
      "texto_original": "Hitori no Shita: The Outcast Recap",
      "rating": 6.3,
      "classificacao_etaria": "A16",
      "imagem_original": "https://animefire.plus/img/animes/hitori-no-shita-the-outcast-recap.webp",
      "imagem_pasta": "https://animefire.plus/img/animes/hitori-no-shita-the-outcast-recap/",
      "secao": "legendados",
      "pagina": 85,
      "total_episodios": 1,
      "link_video": "https://animefire.plus/video/hitori-no-shita-the-outcast-recap"
    },
    {
      "id": 1506,
      "nome": "Hitoribocchi no Isekai Kouryaku",
      "link": "https://animefire.plus/animes/hitoribocchi-no-isekai-kouryaku-todos-os-episodios",
      "texto_original": "Hitoribocchi no Isekai Kouryaku",
      "rating": 6.57,
      "classificacao_etaria": "A14",
      "imagem_original": "https://animefire.plus/img/animes/hitoribocchi-no-isekai-kouryaku.webp",
      "imagem_pasta": "https://animefire.plus/img/animes/hitoribocchi-no-isekai-kouryaku/",
      "secao": "legendados",
      "pagina": 11,
      "total_episodios": 12,
      "link_video": "https://animefire.plus/video/hitoribocchi-no-isekai-kouryaku"
    },
    {
      "id": 1509,
      "nome": "Hitozuma no Kuchibiru wa Kan Chuuhai no Aji ga Shite",
      "link": "https://animefire.plus/animes/hitozuma-no-kuchibiru-wa-kan-chuuhai-no-aji-ga-shite-todos-os-episodios",
      "texto_original": "Hitozuma no Kuchibiru wa Kan Chuuhai no Aji ga Shite",
      "rating": 5.8,
      "classificacao_etaria": "A18",
      "imagem_original": "https://animefire.plus/img/animes/hitozuma-no-kuchibiru-wa-kan-chuuhai-no-aji-ga-shite.webp",
      "imagem_pasta": "https://animefire.plus/img/animes/hitozuma-no-kuchibiru-wa-kan-chuuhai-no-aji-ga-shite/",
      "secao": "legendados,lancamentos",
      "pagina": 3,
      "total_episodios": 0,
      "link_video": "https://animefire.plus/video/hitozuma-no-kuchibiru-wa-kan-chuuhai-no-aji-ga-shite"
    },
    {
      "id": 1515,
      "nome": "Holy Knight",
      "link": "https://animefire.plus/animes/holy-knight-todos-os-episodios",
      "texto_original": "Holy Knight",
      "rating": 6.07,
      "classificacao_etaria": "A18",
      "imagem_original": "https://animefire.plus/img/animes/holy-knight.webp",
      "imagem_pasta": "https://animefire.plus/img/animes/holy-knight/",
      "secao": "legendados",
      "pagina": 61,
      "total_episodios": 0,
      "link_video": "https://animefire.plus/video/holy-knight"
    },
    {
      "id": 1518,
      "nome": "Honoo no Mirage",
      "link": "https://animefire.plus/animes/honoo-no-mirage-todos-os-episodios",
      "texto_original": "Honoo no Mirage",
      "rating": 6.67,
      "classificacao_etaria": "A14",
      "imagem_original": "https://animefire.plus/img/animes/honoo-no-mirage.webp",
      "imagem_pasta": "https://animefire.plus/img/animes/honoo-no-mirage/",
      "secao": "legendados",
      "pagina": 119,
      "total_episodios": 13,
      "link_video": "https://animefire.plus/video/honoo-no-mirage"
    },
    {
      "id": 1528,
      "nome": "Hortensia Saga (TV)",
      "link": "https://animefire.plus/animes/hortensia-saga-tv-todos-os-episodios",
      "texto_original": "Hortensia Saga (TV)",
      "rating": 5.84,
      "classificacao_etaria": "A14",
      "imagem_original": "https://animefire.plus/img/animes/hortensia-saga-tv.webp",
      "imagem_pasta": "https://animefire.plus/img/animes/hortensia-saga-tv/",
      "secao": "legendados",
      "pagina": 49,
      "total_episodios": 12,
      "link_video": "https://animefire.plus/video/hortensia-saga-tv"
    },
    {
      "id": 1529,
      "nome": "Hoshi no Samidare (Dublado)",
      "link": "https://animefire.plus/animes/hoshi-no-samidare-dublado-todos-os-episodios",
      "texto_original": "Hoshi no Samidare (Dublado)",
      "rating": 5.63,
      "classificacao_etaria": "A14",
      "imagem_original": "https://animefire.plus/img/animes/hoshi-no-samidare.webp",
      "imagem_pasta": "https://animefire.plus/img/animes/hoshi-no-samidare/",
      "secao": "dublados,legendados",
      "pagina": 10,
      "total_episodios": 24,
      "link_video": "https://animefire.plus/video/hoshi-no-samidare-dublado"
    },
    {
      "id": 1532,
      "nome": "Hoshikuzu Paradise",
      "link": "https://animefire.plus/animes/hoshikuzu-paradise-todos-os-episodios",
      "texto_original": "Hoshikuzu Paradise",
      "rating": 5.59,
      "classificacao_etaria": "A14",
      "imagem_original": "https://animefire.plus/img/animes/hoshikuzu-paradise.webp",
      "imagem_pasta": "https://animefire.plus/img/animes/hoshikuzu-paradise/",
      "secao": "legendados",
      "pagina": 69,
      "total_episodios": 1,
      "link_video": "https://animefire.plus/video/hoshikuzu-paradise"
    },
    {
      "id": 1534,
      "nome": "Hoshizora e Kakaru Hashi",
      "link": "https://animefire.plus/animes/hoshizora-e-kakaru-hashi-todos-os-episodios",
      "texto_original": "Hoshizora e Kakaru Hashi",
      "rating": 6.92,
      "classificacao_etaria": "A18",
      "imagem_original": "https://animefire.plus/img/animes/hoshizora-e-kakaru-hashi.webp",
      "imagem_pasta": "https://animefire.plus/img/animes/hoshizora-e-kakaru-hashi/",
      "secao": "legendados",
      "pagina": 138,
      "total_episodios": 12,
      "link_video": "https://animefire.plus/video/hoshizora-e-kakaru-hashi"
    },
    {
      "id": 1537,
      "nome": "Hotel Inhumans",
      "link": "https://animefire.plus/animes/hotel-inhumans-todos-os-episodios",
      "texto_original": "Hotel Inhumans",
      "rating": 6.54,
      "classificacao_etaria": "A14",
      "imagem_original": "https://animefire.plus/img/animes/hotel-inhumans.webp",
      "imagem_pasta": "https://animefire.plus/img/animes/hotel-inhumans/",
      "secao": "legendados,lancamentos",
      "pagina": 1,
      "total_episodios": 5,
      "link_video": "https://animefire.plus/video/hotel-inhumans"
    },
    {
      "id": 1538,
      "nome": "Houkago No Pleiades",
      "link": "https://animefire.plus/animes/houkago-no-pleiades-todos-os-episodios",
      "texto_original": "Houkago No Pleiades",
      "rating": 6.16,
      "classificacao_etaria": null,
      "imagem_original": "https://animefire.plus/img/animes/houkago-no-pleiades.webp",
      "imagem_pasta": "https://animefire.plus/img/animes/houkago-no-pleiades/",
      "secao": "legendados",
      "pagina": 59,
      "total_episodios": 12,
      "link_video": "https://animefire.plus/video/houkago-no-pleiades"
    },
    {
      "id": 1539,
      "nome": "Houkago Saikoro Club",
      "link": "https://animefire.plus/animes/houkago-saikoro-club-todos-os-episodios",
      "texto_original": "Houkago Saikoro Club",
      "rating": 6.72,
      "classificacao_etaria": "A14",
      "imagem_original": "https://animefire.plus/img/animes/houkago-saikoro-club.webp",
      "imagem_pasta": "https://animefire.plus/img/animes/houkago-saikoro-club/",
      "secao": "legendados",
      "pagina": 111,
      "total_episodios": 0,
      "link_video": "https://animefire.plus/video/houkago-saikoro-club"
    },
    {
      "id": 1544,
      "nome": "Houseki no Kuni",
      "link": "https://animefire.plus/animes/houseki-no-kuni-todos-os-episodios",
      "texto_original": "Houseki no Kuni",
      "rating": 6.54,
      "classificacao_etaria": "A14",
      "imagem_original": "https://animefire.plus/img/animes/houseki-no-kuni.webp",
      "imagem_pasta": "https://animefire.plus/img/animes/houseki-no-kuni/",
      "secao": "legendados",
      "pagina": 62,
      "total_episodios": 12,
      "link_video": "https://animefire.plus/video/houseki-no-kuni"
    },
    {
      "id": 1547,
      "nome": "Human Bug Daigaku",
      "link": "https://animefire.plus/animes/human-bug-daigaku-todos-os-episodios",
      "texto_original": "Human Bug Daigaku",
      "rating": 6.68,
      "classificacao_etaria": "A14",
      "imagem_original": "https://animefire.plus/img/animes/human-bug-daigaku.webp",
      "imagem_pasta": "https://animefire.plus/img/animes/human-bug-daigaku/",
      "secao": "legendados",
      "pagina": 28,
      "total_episodios": 12,
      "link_video": "https://animefire.plus/video/human-bug-daigaku"
    },
    {
      "id": 1548,
      "nome": "Hundred",
      "link": "https://animefire.plus/animes/hundred-todos-os-episodios",
      "texto_original": "Hundred",
      "rating": 6.56,
      "classificacao_etaria": "A14",
      "imagem_original": "https://animefire.plus/img/animes/hundred.webp",
      "imagem_pasta": "https://animefire.plus/img/animes/hundred/",
      "secao": "legendados",
      "pagina": 174,
      "total_episodios": 12,
      "link_video": "https://animefire.plus/video/hundred"
    },
    {
      "id": 1560,
      "nome": "Hyakka Ryouran: Samurai After",
      "link": "https://animefire.plus/animes/hyakka-ryouran-samurai-after-todos-os-episodios",
      "texto_original": "Hyakka Ryouran: Samurai After",
      "rating": 6.72,
      "classificacao_etaria": "A18",
      "imagem_original": "https://animefire.plus/img/animes/hyakka-ryouran-samurai-after.webp",
      "imagem_pasta": "https://animefire.plus/img/animes/hyakka-ryouran-samurai-after/",
      "secao": "legendados",
      "pagina": 74,
      "total_episodios": 4,
      "link_video": "https://animefire.plus/video/hyakka-ryouran-samurai-after"
    },
    {
      "id": 1561,
      "nome": "Hyakka Ryouran: Samurai Bride",
      "link": "https://animefire.plus/animes/hyakka-ryouran-samurai-bride-todos-os-episodios",
      "texto_original": "Hyakka Ryouran: Samurai Bride",
      "rating": 6.85,
      "classificacao_etaria": "A18",
      "imagem_original": "https://animefire.plus/img/animes/hyakka-ryouran-samurai-bride.webp",
      "imagem_pasta": "https://animefire.plus/img/animes/hyakka-ryouran-samurai-bride/",
      "secao": "legendados",
      "pagina": 156,
      "total_episodios": 12,
      "link_video": "https://animefire.plus/video/hyakka-ryouran-samurai-bride"
    },
    {
      "id": 1562,
      "nome": "Hyakka Ryouran: Samurai Girls",
      "link": "https://animefire.plus/animes/hyakka-ryouran-samurai-girls-todos-os-episodios",
      "texto_original": "Hyakka Ryouran: Samurai Girls",
      "rating": 6.91,
      "classificacao_etaria": "A18",
      "imagem_original": "https://animefire.plus/img/animes/hyakka-ryouran-samurai-girls.webp",
      "imagem_pasta": "https://animefire.plus/img/animes/hyakka-ryouran-samurai-girls/",
      "secao": "legendados",
      "pagina": 139,
      "total_episodios": 12,
      "link_video": "https://animefire.plus/video/hyakka-ryouran-samurai-girls"
    },
    {
      "id": 1564,
      "nome": "Hyakko Extra",
      "link": "https://animefire.plus/animes/hyakko-extra-todos-os-episodios",
      "texto_original": "Hyakko Extra",
      "rating": 6.78,
      "classificacao_etaria": "A14",
      "imagem_original": "https://animefire.plus/img/animes/hyakko-extra.webp",
      "imagem_pasta": "https://animefire.plus/img/animes/hyakko-extra/",
      "secao": "legendados",
      "pagina": 71,
      "total_episodios": 1,
      "link_video": "https://animefire.plus/video/hyakko-extra"
    }
  ],
  "pagination": {
    "current_page": 34,
    "per_page": 20,
    "total_items": 1805,
    "total_pages": 91,
    "has_next": true,
    "has_prev": true
  }
}
