{
  "message": "Animes com rating entre 5 e 7",
  "rating_range": {
    "min": 5,
    "max": 7
  },
  "data": [
    {
      "id": 2361,
      "nome": "Mahoutsukai Sally (Movie)",
      "link": "https://animefire.plus/animes/mahoutsukai-sally-movie-todos-os-episodios",
      "texto_original": "Mahoutsukai Sally (Movie)",
      "rating": 5.95,
      "classificacao_etaria": null,
      "imagem_original": "https://animefire.plus/img/animes/mahoutsukai-sally-movie.webp",
      "imagem_pasta": "https://animefire.plus/img/animes/mahoutsukai-sally-movie/",
      "secao": "legendados",
      "pagina": 83,
      "total_episodios": 1,
      "link_video": "https://animefire.plus/video/mahoutsukai-sally-movie"
    },
    {
      "id": 2362,
      "nome": "Mahoutsukai Tai!",
      "link": "https://animefire.plus/animes/mahoutsukai-tai-todos-os-episodios",
      "texto_original": "Mahoutsukai Tai!",
      "rating": 6.86,
      "classificacao_etaria": "A14",
      "imagem_original": "https://animefire.plus/img/animes/mahoutsukai-tai.webp",
      "imagem_pasta": "https://animefire.plus/img/animes/mahoutsukai-tai/",
      "secao": "legendados",
      "pagina": 148,
      "total_episodios": 0,
      "link_video": "https://animefire.plus/video/mahoutsukai-tai"
    },
    {
      "id": 2363,
      "nome": "Mahoutsukai Tai! (TV)",
      "link": "https://animefire.plus/animes/mahoutsukai-tai-tv-todos-os-episodios",
      "texto_original": "Mahoutsukai Tai! (TV)",
      "rating": 6.81,
      "classificacao_etaria": "A14",
      "imagem_original": "https://animefire.plus/img/animes/mahoutsukai-tai-tv.webp",
      "imagem_pasta": "https://animefire.plus/img/animes/mahoutsukai-tai-tv/",
      "secao": "legendados",
      "pagina": 78,
      "total_episodios": 13,
      "link_video": "https://animefire.plus/video/mahoutsukai-tai-tv"
    },
    {
      "id": 2373,
      "nome": "Maji de Watashi ni Koi Shinasai!",
      "link": "https://animefire.plus/animes/maji-de-watashi-ni-koi-shinasai-todos-os-episodios",
      "texto_original": "Maji de Watashi ni Koi Shinasai!",
      "rating": 6.66,
      "classificacao_etaria": "A18",
      "imagem_original": "https://animefire.plus/img/animes/maji-de-watashi-ni-koi-shinasai.webp",
      "imagem_pasta": "https://animefire.plus/img/animes/maji-de-watashi-ni-koi-shinasai/",
      "secao": "legendados",
      "pagina": 12,
      "total_episodios": 12,
      "link_video": "https://animefire.plus/video/maji-de-watashi-ni-koi-shinasai"
    },
    {
      "id": 2374,
      "nome": "Majimoji Rurumo",
      "link": "https://animefire.plus/animes/majimoji-rurumo-todos-os-episodios",
      "texto_original": "Majimoji Rurumo",
      "rating": 6.9,
      "classificacao_etaria": "A14",
      "imagem_original": "https://animefire.plus/img/animes/majimoji-rurumo.webp",
      "imagem_pasta": "https://animefire.plus/img/animes/majimoji-rurumo/",
      "secao": "legendados",
      "pagina": 164,
      "total_episodios": 5,
      "link_video": "https://animefire.plus/video/majimoji-rurumo"
    },
    {
      "id": 2390,
      "nome": "Majutsushi Orphen Hagure Tabi",
      "link": "https://animefire.plus/animes/majutsushi-orphen-hagure-tabi-todos-os-episodios",
      "texto_original": "Majutsushi Orphen Hagure Tabi",
      "rating": 5.78,
      "classificacao_etaria": "A14",
      "imagem_original": "https://animefire.plus/img/animes/majutsushi-orphen-hagure-tabi.webp",
      "imagem_pasta": "https://animefire.plus/img/animes/majutsushi-orphen-hagure-tabi/",
      "secao": "legendados,lancamentos",
      "pagina": 93,
      "total_episodios": 0,
      "link_video": "https://animefire.plus/video/majutsushi-orphen-hagure-tabi"
    },
    {
      "id": 2391,
      "nome": "Majutsushi Orphen Hagure Tabi: Kimluck-hen",
      "link": "https://animefire.plus/animes/majutsushi-orphen-hagure-tabi-kimluck-hen-todos-os-episodios",
      "texto_original": "Majutsushi Orphen Hagure Tabi: Kimluck-hen",
      "rating": 6.2,
      "classificacao_etaria": "A14",
      "imagem_original": "https://animefire.plus/img/animes/majutsushi-orphen-hagure-tabi-kimluck-hen.webp",
      "imagem_pasta": "https://animefire.plus/img/animes/majutsushi-orphen-hagure-tabi-kimluck-hen/",
      "secao": "legendados",
      "pagina": 49,
      "total_episodios": 11,
      "link_video": "https://animefire.plus/video/majutsushi-orphen-hagure-tabi-kimluck-hen"
    },
    {
      "id": 2392,
      "nome": "Majutsushi Orphen Hagure Tabi: Tennin no Isan",
      "link": "https://animefire.plus/animes/majutsushi-orphen-hagure-tabi-tennin-no-isan-todos-os-episodios",
      "texto_original": "Majutsushi Orphen Hagure Tabi: Tennin no Isan",
      "rating": 6.11,
      "classificacao_etaria": "A14",
      "imagem_original": "https://animefire.plus/img/animes/majutsushi-orphen-hagure-tabi-tennin-no-isan.webp",
      "imagem_pasta": "https://animefire.plus/img/animes/majutsushi-orphen-hagure-tabi-tennin-no-isan/",
      "secao": "legendados",
      "pagina": 81,
      "total_episodios": 0,
      "link_video": "https://animefire.plus/video/majutsushi-orphen-hagure-tabi-tennin-no-isan"
    },
    {
      "id": 2393,
      "nome": "Majutsushi Orphen Hagure Tabi: Urbanrama-hen",
      "link": "https://animefire.plus/animes/majutsushi-orphen-hagure-tabi-urbanrama-hen-todos-os-episodios",
      "texto_original": "Majutsushi Orphen Hagure Tabi: Urbanrama-hen",
      "rating": 6.15,
      "classificacao_etaria": "A14",
      "imagem_original": "https://animefire.plus/img/animes/majutsushi-orphen-hagure-tabi-urbanrama-hen.webp",
      "imagem_pasta": "https://animefire.plus/img/animes/majutsushi-orphen-hagure-tabi-urbanrama-hen/",
      "secao": "legendados,lancamentos",
      "pagina": 25,
      "total_episodios": 4,
      "link_video": "https://animefire.plus/video/majutsushi-orphen-hagure-tabi-urbanrama-hen"
    },
    {
      "id": 2395,
      "nome": "Makai Senki Disgaea",
      "link": "https://animefire.plus/animes/makai-senki-disgaea-todos-os-episodios",
      "texto_original": "Makai Senki Disgaea",
      "rating": 6.82,
      "classificacao_etaria": "A14",
      "imagem_original": "https://animefire.plus/img/animes/makai-senki-disgaea.webp",
      "imagem_pasta": "https://animefire.plus/img/animes/makai-senki-disgaea/",
      "secao": "legendados",
      "pagina": 143,
      "total_episodios": 12,
      "link_video": "https://animefire.plus/video/makai-senki-disgaea"
    },
    {
      "id": 2397,
      "nome": "Maken-Ki!",
      "link": "https://animefire.plus/animes/maken-ki-todos-os-episodios",
      "texto_original": "Maken-Ki!",
      "rating": 6.38,
      "classificacao_etaria": "A18",
      "imagem_original": "https://animefire.plus/img/animes/maken-ki.webp",
      "imagem_pasta": "https://animefire.plus/img/animes/maken-ki/",
      "secao": "legendados",
      "pagina": 40,
      "total_episodios": 12,
      "link_video": "https://animefire.plus/video/maken-ki"
    },
    {
      "id": 2398,
      "nome": "Maken-Ki! Two",
      "link": "https://animefire.plus/animes/maken-ki-two-todos-os-episodios",
      "texto_original": "Maken-Ki! Two",
      "rating": 6.33,
      "classificacao_etaria": "A18",
      "imagem_original": "https://animefire.plus/img/animes/maken-ki-two.webp",
      "imagem_pasta": "https://animefire.plus/img/animes/maken-ki-two/",
      "secao": "legendados",
      "pagina": 157,
      "total_episodios": 10,
      "link_video": "https://animefire.plus/video/maken-ki-two"
    },
    {
      "id": 2399,
      "nome": "Makeruna!! Aku no Gundan!",
      "link": "https://animefire.plus/animes/makeruna-aku-no-gundan-todos-os-episodios",
      "texto_original": "Makeruna!! Aku no Gundan!",
      "rating": 5.27,
      "classificacao_etaria": null,
      "imagem_original": "https://animefire.plus/img/animes/makeruna-aku-no-gundan.webp",
      "imagem_pasta": "https://animefire.plus/img/animes/makeruna-aku-no-gundan/",
      "secao": "legendados",
      "pagina": 121,
      "total_episodios": 12,
      "link_video": "https://animefire.plus/video/makeruna-aku-no-gundan"
    },
    {
      "id": 2401,
      "nome": "Mamahaha no Tsurego ga Motokano datta",
      "link": "https://animefire.plus/animes/mamahaha-no-tsurego-ga-motokano-datta-todos-os-episodios",
      "texto_original": "Mamahaha no Tsurego ga Motokano datta",
      "rating": 6.73,
      "classificacao_etaria": "A14",
      "imagem_original": "https://animefire.plus/img/animes/mamahaha-no-tsurego-ga-motokano-datta.webp",
      "imagem_pasta": "https://animefire.plus/img/animes/mamahaha-no-tsurego-ga-motokano-datta/",
      "secao": "legendados",
      "pagina": 32,
      "total_episodios": 12,
      "link_video": "https://animefire.plus/video/mamahaha-no-tsurego-ga-motokano-datta"
    },
    {
      "id": 2403,
      "nome": "Mamotte! Lollipop",
      "link": "https://animefire.plus/animes/mamotte-lollipop-todos-os-episodios",
      "texto_original": "Mamotte! Lollipop",
      "rating": 6.86,
      "classificacao_etaria": "A14",
      "imagem_original": "https://animefire.plus/img/animes/mamotte-lollipop.webp",
      "imagem_pasta": "https://animefire.plus/img/animes/mamotte-lollipop/",
      "secao": "legendados",
      "pagina": 99,
      "total_episodios": 5,
      "link_video": "https://animefire.plus/video/mamotte-lollipop"
    },
    {
      "id": 2404,
      "nome": "Manaria Friends",
      "link": "https://animefire.plus/animes/manaria-friends-todos-os-episodios",
      "texto_original": "Manaria Friends",
      "rating": 6.63,
      "classificacao_etaria": "A14",
      "imagem_original": "https://animefire.plus/img/animes/manaria-friends.webp",
      "imagem_pasta": "https://animefire.plus/img/animes/manaria-friends/",
      "secao": "legendados",
      "pagina": 108,
      "total_episodios": 10,
      "link_video": "https://animefire.plus/video/manaria-friends"
    },
    {
      "id": 2406,
      "nome": "Mangirl!",
      "link": "https://animefire.plus/animes/mangirl-todos-os-episodios",
      "texto_original": "Mangirl!",
      "rating": 5.97,
      "classificacao_etaria": "A14",
      "imagem_original": "https://animefire.plus/img/animes/mangirl.webp",
      "imagem_pasta": "https://animefire.plus/img/animes/mangirl/",
      "secao": "legendados",
      "pagina": 167,
      "total_episodios": 2,
      "link_video": "https://animefire.plus/video/mangirl"
    },
    {
      "id": 2407,
      "nome": "Manyuu Hikenchou",
      "link": "https://animefire.plus/animes/manyuu-hikenchou-todos-os-episodios",
      "texto_original": "Manyuu Hikenchou",
      "rating": 6.19,
      "classificacao_etaria": "A18",
      "imagem_original": "https://animefire.plus/img/animes/manyuu-hikenchou.webp",
      "imagem_pasta": "https://animefire.plus/img/animes/manyuu-hikenchou/",
      "secao": "legendados",
      "pagina": 18,
      "total_episodios": 12,
      "link_video": "https://animefire.plus/video/manyuu-hikenchou"
    },
    {
      "id": 2409,
      "nome": "Maou Dante",
      "link": "https://animefire.plus/animes/maou-dante-todos-os-episodios",
      "texto_original": "Maou Dante",
      "rating": 6.18,
      "classificacao_etaria": "A18",
      "imagem_original": "https://animefire.plus/img/animes/maou-dante.webp",
      "imagem_pasta": "https://animefire.plus/img/animes/maou-dante/",
      "secao": "legendados",
      "pagina": 123,
      "total_episodios": 13,
      "link_video": "https://animefire.plus/video/maou-dante"
    },
    {
      "id": 2410,
      "nome": "Maou Evelogia ni Mi wo Sasage yo",
      "link": "https://animefire.plus/animes/maou-evelogia-ni-mi-wo-sasage-yo-todos-os-episodios",
      "texto_original": "Maou Evelogia ni Mi wo Sasage yo",
      "rating": 5.98,
      "classificacao_etaria": "A18",
      "imagem_original": "https://animefire.plus/img/animes/maou-evelogia-ni-mi-wo-sasage-yo.webp",
      "imagem_pasta": "https://animefire.plus/img/animes/maou-evelogia-ni-mi-wo-sasage-yo/",
      "secao": "legendados,lancamentos",
      "pagina": 39,
      "total_episodios": 0,
      "link_video": "https://animefire.plus/video/maou-evelogia-ni-mi-wo-sasage-yo"
    }
  ],
  "pagination": {
    "current_page": 51,
    "per_page": 20,
    "total_items": 1805,
    "total_pages": 91,
    "has_next": true,
    "has_prev": true
  }
}
