{
  "message": "Animes com rating entre 5 e 7",
  "rating_range": {
    "min": 5,
    "max": 7
  },
  "data": [
    {
      "id": 2531,
      "nome": "Miyakawa-ke no Kuufuku",
      "link": "https://animefire.plus/animes/miyakawa-ke-no-kuufuku-todos-os-episodios",
      "texto_original": "Miyakawa-ke no Kuufuku",
      "rating": 6.54,
      "classificacao_etaria": "A14",
      "imagem_original": "https://animefire.plus/img/animes/miyakawa-ke-no-kuufuku.webp",
      "imagem_pasta": "https://animefire.plus/img/animes/miyakawa-ke-no-kuufuku/",
      "secao": "legendados",
      "pagina": 88,
      "total_episodios": 1,
      "link_video": "https://animefire.plus/video/miyakawa-ke-no-kuufuku"
    },
    {
      "id": 2532,
      "nome": "Mizu no Kotoba",
      "link": "https://animefire.plus/animes/mizu-no-kotoba-todos-os-episodios",
      "texto_original": "Mizu no Kotoba",
      "rating": 6.85,
      "classificacao_etaria": "A14",
      "imagem_original": "https://animefire.plus/img/animes/mizu-no-kotoba.webp",
      "imagem_pasta": "https://animefire.plus/img/animes/mizu-no-kotoba/",
      "secao": "legendados",
      "pagina": 77,
      "total_episodios": 1,
      "link_video": "https://animefire.plus/video/mizu-no-kotoba"
    },
    {
      "id": 2534,
      "nome": "Mizuiro (2003)",
      "link": "https://animefire.plus/animes/mizuiro-2003-todos-os-episodios",
      "texto_original": "Mizuiro (2003)",
      "rating": 6.39,
      "classificacao_etaria": "A14",
      "imagem_original": "https://animefire.plus/img/animes/mizuiro-2003.webp",
      "imagem_pasta": "https://animefire.plus/img/animes/mizuiro-2003/",
      "secao": "legendados",
      "pagina": 44,
      "total_episodios": 2,
      "link_video": "https://animefire.plus/video/mizuiro-2003"
    },
    {
      "id": 2538,
      "nome": "Mob kara Hajimaru Tansaku Eiyuutan",
      "link": "https://animefire.plus/animes/mob-kara-hajimaru-tansaku-eiyuutan-todos-os-episodios",
      "texto_original": "Mob kara Hajimaru Tansaku Eiyuutan",
      "rating": 5.82,
      "classificacao_etaria": "A14",
      "imagem_original": "https://animefire.plus/img/animes/mob-kara-hajimaru-tansaku-eiyuutan.webp",
      "imagem_pasta": "https://animefire.plus/img/animes/mob-kara-hajimaru-tansaku-eiyuutan/",
      "secao": "legendados",
      "pagina": 12,
      "total_episodios": 12,
      "link_video": "https://animefire.plus/video/mob-kara-hajimaru-tansaku-eiyuutan"
    },
    {
      "id": 2546,
      "nome": "Mobile Suit Gundam AGE",
      "link": "https://animefire.plus/animes/mobile-suit-gundam-age-todos-os-episodios",
      "texto_original": "Mobile Suit Gundam AGE",
      "rating": 6.55,
      "classificacao_etaria": "A14",
      "imagem_original": "https://animefire.plus/img/animes/mobile-suit-gundam-age.webp",
      "imagem_pasta": "https://animefire.plus/img/animes/mobile-suit-gundam-age/",
      "secao": "legendados",
      "pagina": 151,
      "total_episodios": 1,
      "link_video": "https://animefire.plus/video/mobile-suit-gundam-age"
    },
    {
      "id": 2553,
      "nome": "Mobile Suit Gundam-san",
      "link": "https://animefire.plus/animes/mobile-suit-gundam-san-todos-os-episodios",
      "texto_original": "Mobile Suit Gundam-san",
      "rating": 6.21,
      "classificacao_etaria": "A14",
      "imagem_original": "https://animefire.plus/img/animes/mobile-suit-gundam-san.webp",
      "imagem_pasta": "https://animefire.plus/img/animes/mobile-suit-gundam-san/",
      "secao": "legendados",
      "pagina": 101,
      "total_episodios": 13,
      "link_video": "https://animefire.plus/video/mobile-suit-gundam-san"
    },
    {
      "id": 2559,
      "nome": "Mobile Suit Gundam: Twilight Axis",
      "link": "https://animefire.plus/animes/mobile-suit-gundam-twilight-axis-todos-os-episodios",
      "texto_original": "Mobile Suit Gundam: Twilight Axis",
      "rating": 5.02,
      "classificacao_etaria": "A14",
      "imagem_original": "https://animefire.plus/img/animes/mobile-suit-gundam-twilight-axis.webp",
      "imagem_pasta": "https://animefire.plus/img/animes/mobile-suit-gundam-twilight-axis/",
      "secao": "legendados",
      "pagina": 149,
      "total_episodios": 9,
      "link_video": "https://animefire.plus/video/mobile-suit-gundam-twilight-axis"
    },
    {
      "id": 2560,
      "nome": "Mobile Suit Victory Gundam",
      "link": "https://animefire.plus/animes/mobile-suit-victory-gundam-todos-os-episodios",
      "texto_original": "Mobile Suit Victory Gundam",
      "rating": 6.76,
      "classificacao_etaria": "A14",
      "imagem_original": "https://animefire.plus/img/animes/mobile-suit-victory-gundam.webp",
      "imagem_pasta": "https://animefire.plus/img/animes/mobile-suit-victory-gundam/",
      "secao": "legendados",
      "pagina": 55,
      "total_episodios": 51,
      "link_video": "https://animefire.plus/video/mobile-suit-victory-gundam"
    },
    {
      "id": 2562,
      "nome": "Moetan",
      "link": "https://animefire.plus/animes/moetan-todos-os-episodios",
      "texto_original": "Moetan",
      "rating": 6.48,
      "classificacao_etaria": "A18",
      "imagem_original": "https://animefire.plus/img/animes/moetan.webp",
      "imagem_pasta": "https://animefire.plus/img/animes/moetan/",
      "secao": "legendados",
      "pagina": 145,
      "total_episodios": 0,
      "link_video": "https://animefire.plus/video/moetan"
    },
    {
      "id": 2564,
      "nome": "Momentary Lily",
      "link": "https://animefire.plus/animes/momentary-lily-todos-os-episodios",
      "texto_original": "Momentary Lily",
      "rating": 5.92,
      "classificacao_etaria": "A14",
      "imagem_original": "https://animefire.plus/img/animes/momentary-lily.webp",
      "imagem_pasta": "https://animefire.plus/img/animes/momentary-lily/",
      "secao": "legendados",
      "pagina": 7,
      "total_episodios": 14,
      "link_video": "https://animefire.plus/video/momentary-lily"
    },
    {
      "id": 2565,
      "nome": "Momo Kyun Sword",
      "link": "https://animefire.plus/animes/momo-kyun-sword-todos-os-episodios",
      "texto_original": "Momo Kyun Sword",
      "rating": 5.65,
      "classificacao_etaria": "A14",
      "imagem_original": "https://animefire.plus/img/animes/momo-kyun-sword.webp",
      "imagem_pasta": "https://animefire.plus/img/animes/momo-kyun-sword/",
      "secao": "legendados",
      "pagina": 145,
      "total_episodios": 4,
      "link_video": "https://animefire.plus/video/momo-kyun-sword"
    },
    {
      "id": 2566,
      "nome": "Momochi-san Chi no Ayakashi Ouji",
      "link": "https://animefire.plus/animes/momochi-san-chi-no-ayakashi-ouji-todos-os-episodios",
      "texto_original": "Momochi-san Chi no Ayakashi Ouji",
      "rating": 6.53,
      "classificacao_etaria": "A14",
      "imagem_original": "https://animefire.plus/img/animes/momochi-san-chi-no-ayakashi-ouji.webp",
      "imagem_pasta": "https://animefire.plus/img/animes/momochi-san-chi-no-ayakashi-ouji/",
      "secao": "legendados",
      "pagina": 17,
      "total_episodios": 12,
      "link_video": "https://animefire.plus/video/momochi-san-chi-no-ayakashi-ouji"
    },
    {
      "id": 2568,
      "nome": "Mon-Soni! D'Artagnan no Idol Sengen",
      "link": "https://animefire.plus/animes/mon-soni-d-artagnan-no-idol-sengen-todos-os-episodios",
      "texto_original": "Mon-Soni! D'Artagnan no Idol Sengen",
      "rating": 5.91,
      "classificacao_etaria": "A14",
      "imagem_original": "https://animefire.plus/img/animes/mon-soni-d-artagnan-no-idol-sengen.webp",
      "imagem_pasta": "https://animefire.plus/img/animes/mon-soni-d-artagnan-no-idol-sengen/",
      "secao": "legendados",
      "pagina": 63,
      "total_episodios": 6,
      "link_video": "https://animefire.plus/video/mon-soni-d-artagnan-no-idol-sengen"
    },
    {
      "id": 2569,
      "nome": "Mon-Soni!: Senritsu no Lucifer, Tada Hitotsu no Hajimari no Uta",
      "link": "https://animefire.plus/animes/mon-soni-senritsu-no-lucifer-tada-hitotsu-no-hajimari-no-uta-todos-os-episodios",
      "texto_original": "Mon-Soni!: Senritsu no Lucifer, Tada Hitotsu no Hajimari no Uta",
      "rating": 6.31,
      "classificacao_etaria": "A14",
      "imagem_original": "https://animefire.plus/img/animes/mon-soni-senritsu-no-lucifer-tada-hitotsu-no-hajimari-no-uta.webp",
      "imagem_pasta": "https://animefire.plus/img/animes/mon-soni-senritsu-no-lucifer-tada-hitotsu-no-hajimari-no-uta/",
      "secao": "legendados",
      "pagina": 84,
      "total_episodios": 1,
      "link_video": "https://animefire.plus/video/mon-soni-senritsu-no-lucifer-tada-hitotsu-no-hajimari-no-uta"
    },
    {
      "id": 2571,
      "nome": "Monkey Punch no Sekai: Alice",
      "link": "https://animefire.plus/animes/monkey-punch-no-sekai-alice-todos-os-episodios",
      "texto_original": "Monkey Punch no Sekai: Alice",
      "rating": 5.45,
      "classificacao_etaria": "A18",
      "imagem_original": "https://animefire.plus/img/animes/monkey-punch-no-sekai-alice.webp",
      "imagem_pasta": "https://animefire.plus/img/animes/monkey-punch-no-sekai-alice/",
      "secao": "legendados",
      "pagina": 56,
      "total_episodios": 1,
      "link_video": "https://animefire.plus/video/monkey-punch-no-sekai-alice"
    },
    {
      "id": 2580,
      "nome": "Monster Farm: Enbanseki no Himitsu",
      "link": "https://animefire.plus/animes/monster-farm-enbanseki-no-himitsu-todos-os-episodios",
      "texto_original": "Monster Farm: Enbanseki no Himitsu",
      "rating": 6.88,
      "classificacao_etaria": "A14",
      "imagem_original": "https://animefire.plus/img/animes/monster-farm-enbanseki-no-himitsu.webp",
      "imagem_pasta": "https://animefire.plus/img/animes/monster-farm-enbanseki-no-himitsu/",
      "secao": "legendados",
      "pagina": 160,
      "total_episodios": 17,
      "link_video": "https://animefire.plus/video/monster-farm-enbanseki-no-himitsu"
    },
    {
      "id": 2581,
      "nome": "Monster Hunter Stories: Ride On",
      "link": "https://animefire.plus/animes/monster-hunter-stories-ride-on-todos-os-episodios",
      "texto_original": "Monster Hunter Stories: Ride On",
      "rating": 6.31,
      "classificacao_etaria": "A14",
      "imagem_original": "https://animefire.plus/img/animes/monster-hunter-stories-ride-on.webp",
      "imagem_pasta": "https://animefire.plus/img/animes/monster-hunter-stories-ride-on/",
      "secao": "legendados",
      "pagina": 127,
      "total_episodios": 4,
      "link_video": "https://animefire.plus/video/monster-hunter-stories-ride-on"
    },
    {
      "id": 2584,
      "nome": "Monster Musume no Iru Nichijou: Hobo Mainichi ◯◯! Namappoi Douga",
      "link": "https://animefire.plus/animes/monster-musume-no-iru-nichijou-hobo-mainichi-namappoi-douga-todos-os-episodios",
      "texto_original": "Monster Musume no Iru Nichijou: Hobo Mainichi ◯◯! Namappoi Douga",
      "rating": 6.56,
      "classificacao_etaria": "A14",
      "imagem_original": "https://animefire.plus/img/animes/monster-musume-no-iru-nichijou-hobo-mainichi-namappoi-douga.webp",
      "imagem_pasta": "https://animefire.plus/img/animes/monster-musume-no-iru-nichijou-hobo-mainichi-namappoi-douga/",
      "secao": "legendados",
      "pagina": 78,
      "total_episodios": 1,
      "link_video": "https://animefire.plus/video/monster-musume-no-iru-nichijou-hobo-mainichi-namappoi-douga"
    },
    {
      "id": 2586,
      "nome": "Monster Strike",
      "link": "https://animefire.plus/animes/monster-strike-todos-os-episodios",
      "texto_original": "Monster Strike",
      "rating": 6.52,
      "classificacao_etaria": "A14",
      "imagem_original": "https://animefire.plus/img/animes/monster-strike.webp",
      "imagem_pasta": "https://animefire.plus/img/animes/monster-strike/",
      "secao": "legendados",
      "pagina": 64,
      "total_episodios": 51,
      "link_video": "https://animefire.plus/video/monster-strike"
    },
    {
      "id": 2587,
      "nome": "Monster Strike: Mermaid Rhapsody",
      "link": "https://animefire.plus/animes/monster-strike-mermaid-rhapsody-todos-os-episodios",
      "texto_original": "Monster Strike: Mermaid Rhapsody",
      "rating": 6.73,
      "classificacao_etaria": "A14",
      "imagem_original": "https://animefire.plus/img/animes/monster-strike-mermaid-rhapsody.webp",
      "imagem_pasta": "https://animefire.plus/img/animes/monster-strike-mermaid-rhapsody/",
      "secao": "legendados",
      "pagina": 44,
      "total_episodios": 1,
      "link_video": "https://animefire.plus/video/monster-strike-mermaid-rhapsody"
    }
  ],
  "pagination": {
    "current_page": 55,
    "per_page": 20,
    "total_items": 1805,
    "total_pages": 91,
    "has_next": true,
    "has_prev": true
  }
}
