{
  "message": "Animes com rating entre 5 e 7",
  "rating_range": {
    "min": 5,
    "max": 7
  },
  "data": [
    {
      "id": 1604,
      "nome": "Ikkitousen: Dragon Destiny",
      "link": "https://animefire.plus/animes/ikkitousen-dragon-destiny-todos-os-episodios",
      "texto_original": "Ikkitousen: Dragon Destiny",
      "rating": 6.89,
      "classificacao_etaria": "A18",
      "imagem_original": "https://animefire.plus/img/animes/ikkitousen-dragon-destiny.webp",
      "imagem_pasta": "https://animefire.plus/img/animes/ikkitousen-dragon-destiny/",
      "secao": "legendados",
      "pagina": 168,
      "total_episodios": 12,
      "link_video": "https://animefire.plus/video/ikkitousen-dragon-destiny"
    },
    {
      "id": 1605,
      "nome": "Ikkitousen: Extravaganza Epoch",
      "link": "https://animefire.plus/animes/ikkitousen-extravaganza-epoch-todos-os-episodios",
      "texto_original": "Ikkitousen: Extravaganza Epoch",
      "rating": 6.67,
      "classificacao_etaria": "A18",
      "imagem_original": "https://animefire.plus/img/animes/ikkitousen-extravaganza-epoch.webp",
      "imagem_pasta": "https://animefire.plus/img/animes/ikkitousen-extravaganza-epoch/",
      "secao": "legendados",
      "pagina": 86,
      "total_episodios": 2,
      "link_video": "https://animefire.plus/video/ikkitousen-extravaganza-epoch"
    },
    {
      "id": 1606,
      "nome": "Ikkitousen: Great Guardians",
      "link": "https://animefire.plus/animes/ikkitousen-great-guardians-todos-os-episodios",
      "texto_original": "Ikkitousen: Great Guardians",
      "rating": 6.88,
      "classificacao_etaria": "A18",
      "imagem_original": "https://animefire.plus/img/animes/ikkitousen-great-guardians.webp",
      "imagem_pasta": "https://animefire.plus/img/animes/ikkitousen-great-guardians/",
      "secao": "legendados",
      "pagina": 144,
      "total_episodios": 12,
      "link_video": "https://animefire.plus/video/ikkitousen-great-guardians"
    },
    {
      "id": 1607,
      "nome": "Ikkitousen: Western Wolves",
      "link": "https://animefire.plus/animes/ikkitousen-western-wolves-todos-os-episodios",
      "texto_original": "Ikkitousen: Western Wolves",
      "rating": 6.37,
      "classificacao_etaria": "A18",
      "imagem_original": "https://animefire.plus/img/animes/ikkitousen-western-wolves.webp",
      "imagem_pasta": "https://animefire.plus/img/animes/ikkitousen-western-wolves/",
      "secao": "legendados",
      "pagina": 86,
      "total_episodios": 3,
      "link_video": "https://animefire.plus/video/ikkitousen-western-wolves"
    },
    {
      "id": 1608,
      "nome": "Ikkitousen: Xtreme Xecutor",
      "link": "https://animefire.plus/animes/ikkitousen-xtreme-xecutor-todos-os-episodios",
      "texto_original": "Ikkitousen: Xtreme Xecutor",
      "rating": 6.87,
      "classificacao_etaria": "A18",
      "imagem_original": "https://animefire.plus/img/animes/ikkitousen-xtreme-xecutor.webp",
      "imagem_pasta": "https://animefire.plus/img/animes/ikkitousen-xtreme-xecutor/",
      "secao": "legendados",
      "pagina": 149,
      "total_episodios": 12,
      "link_video": "https://animefire.plus/video/ikkitousen-xtreme-xecutor"
    },
    {
      "id": 1616,
      "nome": "Inazuma Eleven Go: Galaxy",
      "link": "https://animefire.plus/animes/inazuma-eleven-go-galaxy-todos-os-episodios",
      "texto_original": "Inazuma Eleven Go: Galaxy",
      "rating": 6.87,
      "classificacao_etaria": null,
      "imagem_original": "https://animefire.plus/img/animes/inazuma-eleven-go-galaxy.webp",
      "imagem_pasta": "https://animefire.plus/img/animes/inazuma-eleven-go-galaxy/",
      "secao": "legendados",
      "pagina": 136,
      "total_episodios": 14,
      "link_video": "https://animefire.plus/video/inazuma-eleven-go-galaxy"
    },
    {
      "id": 1617,
      "nome": "Inazuma Eleven: Ares no Tenbin",
      "link": "https://animefire.plus/animes/inazuma-eleven-ares-no-tenbin-todos-os-episodios",
      "texto_original": "Inazuma Eleven: Ares no Tenbin",
      "rating": 6.96,
      "classificacao_etaria": null,
      "imagem_original": "https://animefire.plus/img/animes/inazuma-eleven-ares-no-tenbin.webp",
      "imagem_pasta": "https://animefire.plus/img/animes/inazuma-eleven-ares-no-tenbin/",
      "secao": "legendados",
      "pagina": 123,
      "total_episodios": 23,
      "link_video": "https://animefire.plus/video/inazuma-eleven-ares-no-tenbin"
    },
    {
      "id": 1620,
      "nome": "Infini-T Force",
      "link": "https://animefire.plus/animes/infini-t-force-todos-os-episodios",
      "texto_original": "Infini-T Force",
      "rating": 6.55,
      "classificacao_etaria": "A14",
      "imagem_original": "https://animefire.plus/img/animes/infini-t-force.webp",
      "imagem_pasta": "https://animefire.plus/img/animes/infini-t-force/",
      "secao": "legendados",
      "pagina": 86,
      "total_episodios": 12,
      "link_video": "https://animefire.plus/video/infini-t-force"
    },
    {
      "id": 1621,
      "nome": "Infinite Dendrogram",
      "link": "https://animefire.plus/animes/infinite-dendrogram-todos-os-episodios",
      "texto_original": "Infinite Dendrogram",
      "rating": 6.14,
      "classificacao_etaria": "A14",
      "imagem_original": "https://animefire.plus/img/animes/infinite-dendrogram.webp",
      "imagem_pasta": "https://animefire.plus/img/animes/infinite-dendrogram/",
      "secao": "legendados",
      "pagina": 93,
      "total_episodios": 1,
      "link_video": "https://animefire.plus/video/infinite-dendrogram"
    },
    {
      "id": 1622,
      "nome": "Ingress the Animation (Dublado)",
      "link": "https://animefire.plus/animes/ingress-the-animation-dublado-todos-os-episodios",
      "texto_original": "Ingress the Animation (Dublado)",
      "rating": 6.45,
      "classificacao_etaria": "A16",
      "imagem_original": "https://animefire.plus/img/animes/ingress-the-animation.webp",
      "imagem_pasta": "https://animefire.plus/img/animes/ingress-the-animation/",
      "secao": "dublados,legendados",
      "pagina": 22,
      "total_episodios": 11,
      "link_video": "https://animefire.plus/video/ingress-the-animation-dublado"
    },
    {
      "id": 1632,
      "nome": "Innocent Venus",
      "link": "https://animefire.plus/animes/innocent-venus-todos-os-episodios",
      "texto_original": "Innocent Venus",
      "rating": 6.89,
      "classificacao_etaria": "A14",
      "imagem_original": "https://animefire.plus/img/animes/innocent-venus.webp",
      "imagem_pasta": "https://animefire.plus/img/animes/innocent-venus/",
      "secao": "legendados",
      "pagina": 156,
      "total_episodios": 12,
      "link_video": "https://animefire.plus/video/innocent-venus"
    },
    {
      "id": 1635,
      "nome": "Inu ni Nattara Suki na Hito ni Hirowareta.",
      "link": "https://animefire.plus/animes/inu-ni-nattara-suki-na-hito-ni-hirowareta-todos-os-episodios",
      "texto_original": "Inu ni Nattara Suki na Hito ni Hirowareta.",
      "rating": 5.04,
      "classificacao_etaria": "A18",
      "imagem_original": "https://animefire.plus/img/animes/inu-ni-nattara-suki-na-hito-ni-hirowareta.webp",
      "imagem_pasta": "https://animefire.plus/img/animes/inu-ni-nattara-suki-na-hito-ni-hirowareta/",
      "secao": "legendados,lancamentos",
      "pagina": 27,
      "total_episodios": 14,
      "link_video": "https://animefire.plus/video/inu-ni-nattara-suki-na-hito-ni-hirowareta"
    },
    {
      "id": 1636,
      "nome": "Inu ni Nattara Suki na Hito ni Hirowareta. Specials",
      "link": "https://animefire.plus/animes/inu-ni-nattara-suki-na-hito-ni-hirowareta-specials-todos-os-episodios",
      "texto_original": "Inu ni Nattara Suki na Hito ni Hirowareta. Specials",
      "rating": 5.3,
      "classificacao_etaria": "A18",
      "imagem_original": "https://animefire.plus/img/animes/inu-ni-nattara-suki-na-hito-ni-hirowareta-specials.webp",
      "imagem_pasta": "https://animefire.plus/img/animes/inu-ni-nattara-suki-na-hito-ni-hirowareta-specials/",
      "secao": "legendados",
      "pagina": 21,
      "total_episodios": 1,
      "link_video": "https://animefire.plus/video/inu-ni-nattara-suki-na-hito-ni-hirowareta-specials"
    },
    {
      "id": 1637,
      "nome": "Inu to Hasami wa Tsukaiyou",
      "link": "https://animefire.plus/animes/inu-to-hasami-wa-tsukaiyou-todos-os-episodios",
      "texto_original": "Inu to Hasami wa Tsukaiyou",
      "rating": 6.66,
      "classificacao_etaria": "A14",
      "imagem_original": "https://animefire.plus/img/animes/inu-to-hasami-wa-tsukaiyou.webp",
      "imagem_pasta": "https://animefire.plus/img/animes/inu-to-hasami-wa-tsukaiyou/",
      "secao": "legendados",
      "pagina": 171,
      "total_episodios": 5,
      "link_video": "https://animefire.plus/video/inu-to-hasami-wa-tsukaiyou"
    },
    {
      "id": 1640,
      "nome": "Inugami-san to Nekoyama-san",
      "link": "https://animefire.plus/animes/inugami-san-to-nekoyama-san-todos-os-episodios",
      "texto_original": "Inugami-san to Nekoyama-san",
      "rating": 6.64,
      "classificacao_etaria": "A14",
      "imagem_original": "https://animefire.plus/img/animes/inugami-san-to-nekoyama-san.webp",
      "imagem_pasta": "https://animefire.plus/img/animes/inugami-san-to-nekoyama-san/",
      "secao": "legendados",
      "pagina": 166,
      "total_episodios": 12,
      "link_video": "https://animefire.plus/video/inugami-san-to-nekoyama-san"
    },
    {
      "id": 1645,
      "nome": "Ippatsu Hicchuu!! Devander",
      "link": "https://animefire.plus/animes/ippatsu-hicchuu-devander-todos-os-episodios",
      "texto_original": "Ippatsu Hicchuu!! Devander",
      "rating": 5.62,
      "classificacao_etaria": null,
      "imagem_original": "https://animefire.plus/img/animes/ippatsu-hicchuu-devander.webp",
      "imagem_pasta": "https://animefire.plus/img/animes/ippatsu-hicchuu-devander/",
      "secao": "legendados",
      "pagina": 72,
      "total_episodios": 1,
      "link_video": "https://animefire.plus/video/ippatsu-hicchuu-devander"
    },
    {
      "id": 1650,
      "nome": "IS: Infinite Stratos",
      "link": "https://animefire.plus/animes/is-infinite-stratos-todos-os-episodios",
      "texto_original": "IS: Infinite Stratos",
      "rating": 6.97,
      "classificacao_etaria": "A14",
      "imagem_original": "https://animefire.plus/img/animes/is-infinite-stratos.webp",
      "imagem_pasta": "https://animefire.plus/img/animes/is-infinite-stratos/",
      "secao": "legendados",
      "pagina": 128,
      "total_episodios": 0,
      "link_video": "https://animefire.plus/video/is-infinite-stratos"
    },
    {
      "id": 1651,
      "nome": "IS: Infinite Stratos 2",
      "link": "https://animefire.plus/animes/is-infinite-stratos-2-todos-os-episodios",
      "texto_original": "IS: Infinite Stratos 2",
      "rating": 6.76,
      "classificacao_etaria": "A14",
      "imagem_original": "https://animefire.plus/img/animes/is-infinite-stratos-2.webp",
      "imagem_pasta": "https://animefire.plus/img/animes/is-infinite-stratos-2/",
      "secao": "legendados",
      "pagina": 150,
      "total_episodios": 12,
      "link_video": "https://animefire.plus/video/is-infinite-stratos-2"
    },
    {
      "id": 1652,
      "nome": "Isekai Cheat Magician",
      "link": "https://animefire.plus/animes/isekai-cheat-magician-todos-os-episodios",
      "texto_original": "Isekai Cheat Magician",
      "rating": 5.38,
      "classificacao_etaria": "A14",
      "imagem_original": "https://animefire.plus/img/animes/isekai-cheat-magician.webp",
      "imagem_pasta": "https://animefire.plus/img/animes/isekai-cheat-magician/",
      "secao": "legendados",
      "pagina": 154,
      "total_episodios": 3,
      "link_video": "https://animefire.plus/video/isekai-cheat-magician"
    },
    {
      "id": 1653,
      "nome": "Isekai de Cheat Skill wo Te ni Shita Ore wa, Genjitsu Sekai wo mo Musou Suru: Level Up wa Jinsei wo Kaeta (Dublado)",
      "link": "https://animefire.plus/animes/isekai-de-cheat-skill-wo-te-ni-shita-ore-wa-genjitsu-sekai-wo-mo-musou-suru-level-up-wa-jinsei-wo-kaeta-dublado-todos-os-episodios",
      "texto_original": "Isekai de Cheat Skill wo Te ni Shita Ore wa, Genjitsu Sekai wo mo Musou Suru: Level Up wa Jinsei wo Kaeta (Dublado)",
      "rating": 6.34,
      "classificacao_etaria": "A14",
      "imagem_original": "https://animefire.plus/img/animes/isekai-de-cheat-skill-wo-te-ni-shita-ore-wa-genjitsu-sekai-wo-mo-musou-suru-level-up-wa-jinsei-wo-kaeta.jpg",
      "imagem_pasta": "https://animefire.plus/img/animes/isekai-de-cheat-skill-wo-te-ni-shita-ore-wa-genjitsu-sekai-wo-mo-musou-suru-level-up-wa-jinsei-wo-kaeta/",
      "secao": "dublados,legendados",
      "pagina": 7,
      "total_episodios": 13,
      "link_video": "https://animefire.plus/video/isekai-de-cheat-skill-wo-te-ni-shita-ore-wa-genjitsu-sekai-wo-mo-musou-suru-level-up-wa-jinsei-wo-kaeta-dublado"
    }
  ],
  "pagination": {
    "current_page": 36,
    "per_page": 20,
    "total_items": 1805,
    "total_pages": 91,
    "has_next": true,
    "has_prev": true
  }
}
