{
  "message": "Animes com rating entre 5 e 7",
  "rating_range": {
    "min": 5,
    "max": 7
  },
  "data": [
    {
      "id": 1786,
      "nome": "Kagewani",
      "link": "https://animefire.plus/animes/kagewani-todos-os-episodios",
      "texto_original": "Kagewani",
      "rating": 6.47,
      "classificacao_etaria": "A16",
      "imagem_original": "https://animefire.plus/img/animes/kagewani.webp",
      "imagem_pasta": "https://animefire.plus/img/animes/kagewani/",
      "secao": "legendados",
      "pagina": 104,
      "total_episodios": 13,
      "link_video": "https://animefire.plus/video/kagewani"
    },
    {
      "id": 1787,
      "nome": "Kagewani: Shou",
      "link": "https://animefire.plus/animes/kagewani-shou-todos-os-episodios",
      "texto_original": "Kagewani: Shou",
      "rating": 6.5,
      "classificacao_etaria": "A16",
      "imagem_original": "https://animefire.plus/img/animes/kagewani-shou.webp",
      "imagem_pasta": "https://animefire.plus/img/animes/kagewani-shou/",
      "secao": "legendados",
      "pagina": 103,
      "total_episodios": 13,
      "link_video": "https://animefire.plus/video/kagewani-shou"
    },
    {
      "id": 1788,
      "nome": "Kagi Hime Monogatari: Eikyuu Alice Rondo",
      "link": "https://animefire.plus/animes/kagi-hime-monogatari-eikyuu-alice-rondo-todos-os-episodios",
      "texto_original": "Kagi Hime Monogatari: Eikyuu Alice Rondo",
      "rating": 6.24,
      "classificacao_etaria": "A14",
      "imagem_original": "https://animefire.plus/img/animes/kagi-hime-monogatari-eikyuu-alice-rondo.webp",
      "imagem_pasta": "https://animefire.plus/img/animes/kagi-hime-monogatari-eikyuu-alice-rondo/",
      "secao": "legendados",
      "pagina": 71,
      "total_episodios": 13,
      "link_video": "https://animefire.plus/video/kagi-hime-monogatari-eikyuu-alice-rondo"
    },
    {
      "id": 1798,
      "nome": "Kai Doh Maru",
      "link": "https://animefire.plus/animes/kai-doh-maru-todos-os-episodios",
      "texto_original": "Kai Doh Maru",
      "rating": 5.64,
      "classificacao_etaria": "A16",
      "imagem_original": "https://animefire.plus/img/animes/kai-doh-maru.webp",
      "imagem_pasta": "https://animefire.plus/img/animes/kai-doh-maru/",
      "secao": "legendados",
      "pagina": 86,
      "total_episodios": 1,
      "link_video": "https://animefire.plus/video/kai-doh-maru"
    },
    {
      "id": 1799,
      "nome": "Kai Feng Qitan: Zhege Baogong Bu Taixing",
      "link": "https://animefire.plus/animes/kai-feng-qitan-zhege-baogong-bu-taixing-todos-os-episodios",
      "texto_original": "Kai Feng Qitan: Zhege Baogong Bu Taixing",
      "rating": 6.22,
      "classificacao_etaria": "A14",
      "imagem_original": "https://animefire.plus/img/animes/kai-feng-qitan-zhege-baogong-bu-taixing.webp",
      "imagem_pasta": "https://animefire.plus/img/animes/kai-feng-qitan-zhege-baogong-bu-taixing/",
      "secao": "legendados",
      "pagina": 140,
      "total_episodios": 10,
      "link_video": "https://animefire.plus/video/kai-feng-qitan-zhege-baogong-bu-taixing"
    },
    {
      "id": 1804,
      "nome": "Kaichuu!",
      "link": "https://animefire.plus/animes/kaichuu-todos-os-episodios",
      "texto_original": "Kaichuu!",
      "rating": 5.88,
      "classificacao_etaria": "A14",
      "imagem_original": "https://animefire.plus/img/animes/kaichuu.webp",
      "imagem_pasta": "https://animefire.plus/img/animes/kaichuu/",
      "secao": "legendados",
      "pagina": 64,
      "total_episodios": 4,
      "link_video": "https://animefire.plus/video/kaichuu"
    },
    {
      "id": 1806,
      "nome": "Kaifuku Jutsushi no Yarinaoshi",
      "link": "https://animefire.plus/animes/kaifuku-jutsushi-no-yarinaoshi-todos-os-episodios",
      "texto_original": "Kaifuku Jutsushi no Yarinaoshi",
      "rating": 6.32,
      "classificacao_etaria": "A18",
      "imagem_original": "https://animefire.plus/img/animes/kaifuku-jutsushi-no-yarinaoshi.webp",
      "imagem_pasta": "https://animefire.plus/img/animes/kaifuku-jutsushi-no-yarinaoshi/",
      "secao": "legendados",
      "pagina": 48,
      "total_episodios": 12,
      "link_video": "https://animefire.plus/video/kaifuku-jutsushi-no-yarinaoshi"
    },
    {
      "id": 1807,
      "nome": "Kaii to Otome to Kamikakushi",
      "link": "https://animefire.plus/animes/kaii-to-otome-to-kamikakushi-todos-os-episodios",
      "texto_original": "Kaii to Otome to Kamikakushi",
      "rating": 6.76,
      "classificacao_etaria": "A14",
      "imagem_original": "https://animefire.plus/img/animes/kaii-to-otome-to-kamikakushi.webp",
      "imagem_pasta": "https://animefire.plus/img/animes/kaii-to-otome-to-kamikakushi/",
      "secao": "legendados",
      "pagina": 15,
      "total_episodios": 12,
      "link_video": "https://animefire.plus/video/kaii-to-otome-to-kamikakushi"
    },
    {
      "id": 1808,
      "nome": "Kaijin Kaihatsu-bu no Kuroitsu-san",
      "link": "https://animefire.plus/animes/kaijin-kaihatsu-bu-no-kuroitsu-san-todos-os-episodios",
      "texto_original": "Kaijin Kaihatsu-bu no Kuroitsu-san",
      "rating": 6.7,
      "classificacao_etaria": "A14",
      "imagem_original": "https://animefire.plus/img/animes/kaijin-kaihatsu-bu-no-kuroitsu-san.webp",
      "imagem_pasta": "https://animefire.plus/img/animes/kaijin-kaihatsu-bu-no-kuroitsu-san/",
      "secao": "legendados",
      "pagina": 36,
      "total_episodios": 12,
      "link_video": "https://animefire.plus/video/kaijin-kaihatsu-bu-no-kuroitsu-san"
    },
    {
      "id": 1811,
      "nome": "Kaijuu 8-gou: Hoshina no Kyuujitsu",
      "link": "https://animefire.plus/animes/kaijuu-8-gou-hoshina-no-kyuujitsu-todos-os-episodios",
      "texto_original": "Kaijuu 8-gou: Hoshina no Kyuujitsu",
      "rating": 6.77,
      "classificacao_etaria": "A14",
      "imagem_original": "https://animefire.plus/img/animes/kaijuu-8-gou-hoshina-no-kyuujitsu.webp",
      "imagem_pasta": "https://animefire.plus/img/animes/kaijuu-8-gou-hoshina-no-kyuujitsu/",
      "secao": "legendados",
      "pagina": 1,
      "total_episodios": 1,
      "link_video": "https://animefire.plus/video/kaijuu-8-gou-hoshina-no-kyuujitsu"
    },
    {
      "id": 1813,
      "nome": "Kaiketsu Jouki Tanteidan",
      "link": "https://animefire.plus/animes/kaiketsu-jouki-tanteidan-todos-os-episodios",
      "texto_original": "Kaiketsu Jouki Tanteidan",
      "rating": 6.72,
      "classificacao_etaria": "A14",
      "imagem_original": "https://animefire.plus/img/animes/kaiketsu-jouki-tanteidan.webp",
      "imagem_pasta": "https://animefire.plus/img/animes/kaiketsu-jouki-tanteidan/",
      "secao": "legendados",
      "pagina": 112,
      "total_episodios": 26,
      "link_video": "https://animefire.plus/video/kaiketsu-jouki-tanteidan"
    },
    {
      "id": 1815,
      "nome": "Kaitou Joker",
      "link": "https://animefire.plus/animes/kaitou-joker-todos-os-episodios",
      "texto_original": "Kaitou Joker",
      "rating": 6.99,
      "classificacao_etaria": null,
      "imagem_original": "https://animefire.plus/img/animes/kaitou-joker.webp",
      "imagem_pasta": "https://animefire.plus/img/animes/kaitou-joker/",
      "secao": "legendados",
      "pagina": 163,
      "total_episodios": 0,
      "link_video": "https://animefire.plus/video/kaitou-joker"
    },
    {
      "id": 1821,
      "nome": "Kakkou no Iinazuke (Dublado)",
      "link": "https://animefire.plus/animes/kakkou-no-iinazuke-dublado-todos-os-episodios",
      "texto_original": "Kakkou no Iinazuke (Dublado)",
      "rating": 6.87,
      "classificacao_etaria": "A14",
      "imagem_original": "https://animefire.plus/img/animes/kakkou-no-iinazuke.webp",
      "imagem_pasta": "https://animefire.plus/img/animes/kakkou-no-iinazuke/",
      "secao": "dublados,legendados",
      "pagina": 11,
      "total_episodios": 24,
      "link_video": "https://animefire.plus/video/kakkou-no-iinazuke-dublado"
    },
    {
      "id": 1828,
      "nome": "Kakushite! Makina-san!!",
      "link": "https://animefire.plus/animes/kakushite-makina-san-todos-os-episodios",
      "texto_original": "Kakushite! Makina-san!!",
      "rating": 5.52,
      "classificacao_etaria": "A18",
      "imagem_original": "https://animefire.plus/img/animes/kakushite-makina-san.webp",
      "imagem_pasta": "https://animefire.plus/img/animes/kakushite-makina-san/",
      "secao": "legendados,lancamentos",
      "pagina": 5,
      "total_episodios": 5,
      "link_video": "https://animefire.plus/video/kakushite-makina-san"
    },
    {
      "id": 1831,
      "nome": "Kaleido Star: Good da yo! Goood!!",
      "link": "https://animefire.plus/animes/kaleido-star-good-da-yo-goood-todos-os-episodios",
      "texto_original": "Kaleido Star: Good da yo! Goood!!",
      "rating": 6.79,
      "classificacao_etaria": null,
      "imagem_original": "https://animefire.plus/img/animes/kaleido-star-good-da-yo-goood.webp",
      "imagem_pasta": "https://animefire.plus/img/animes/kaleido-star-good-da-yo-goood/",
      "secao": "legendados",
      "pagina": 53,
      "total_episodios": 1,
      "link_video": "https://animefire.plus/video/kaleido-star-good-da-yo-goood"
    },
    {
      "id": 1834,
      "nome": "Kami Kuzu☆Idol",
      "link": "https://animefire.plus/animes/kami-kuzu-idol-todos-os-episodios",
      "texto_original": "Kami Kuzu☆Idol",
      "rating": 6.74,
      "classificacao_etaria": "A14",
      "imagem_original": "https://animefire.plus/img/animes/kami-kuzu-idol.webp",
      "imagem_pasta": "https://animefire.plus/img/animes/kami-kuzu-idol/",
      "secao": "legendados",
      "pagina": 32,
      "total_episodios": 10,
      "link_video": "https://animefire.plus/video/kami-kuzu-idol"
    },
    {
      "id": 1836,
      "nome": "Kami no Tou: Ouji no Kikan (Dublado)",
      "link": "https://animefire.plus/animes/kami-no-tou-ouji-no-kikan-dublado-todos-os-episodios",
      "texto_original": "Kami no Tou: Ouji no Kikan (Dublado)",
      "rating": 6.68,
      "classificacao_etaria": "A14",
      "imagem_original": "https://animefire.plus/img/animes/kami-no-tou-ouji-no-kikan.webp",
      "imagem_pasta": "https://animefire.plus/img/animes/kami-no-tou-ouji-no-kikan/",
      "secao": "dublados,legendados,lancamentos",
      "pagina": 1,
      "total_episodios": 26,
      "link_video": "https://animefire.plus/video/kami-no-tou-ouji-no-kikan-dublado"
    },
    {
      "id": 1842,
      "nome": "Kami wa Game ni Ueteiru. (Dublado)",
      "link": "https://animefire.plus/animes/kami-wa-game-ni-ueteiru-dublado-todos-os-episodios",
      "texto_original": "Kami wa Game ni Ueteiru. (Dublado)",
      "rating": 6.26,
      "classificacao_etaria": "A14",
      "imagem_original": "https://animefire.plus/img/animes/kami-wa-game-ni-ueteiru.webp",
      "imagem_pasta": "https://animefire.plus/img/animes/kami-wa-game-ni-ueteiru/",
      "secao": "dublados,legendados,lancamentos",
      "pagina": 3,
      "total_episodios": 13,
      "link_video": "https://animefire.plus/video/kami-wa-game-ni-ueteiru-dublado"
    },
    {
      "id": 1843,
      "nome": "Kami-tachi ni Hirowareta Otoko (Dublado)",
      "link": "https://animefire.plus/animes/kami-tachi-ni-hirowareta-otoko-dublado-todos-os-episodios",
      "texto_original": "Kami-tachi ni Hirowareta Otoko (Dublado)",
      "rating": 6.98,
      "classificacao_etaria": "A14",
      "imagem_original": "https://animefire.plus/img/animes/kami-tachi-ni-hirowareta-otoko.webp",
      "imagem_pasta": "https://animefire.plus/img/animes/kami-tachi-ni-hirowareta-otoko/",
      "secao": "dublados,legendados",
      "pagina": 5,
      "total_episodios": 12,
      "link_video": "https://animefire.plus/video/kami-tachi-ni-hirowareta-otoko-dublado"
    },
    {
      "id": 1844,
      "nome": "Kami-tachi ni Hirowareta Otoko 2nd Season",
      "link": "https://animefire.plus/animes/kami-tachi-ni-hirowareta-otoko-2nd-season-todos-os-episodios",
      "texto_original": "Kami-tachi ni Hirowareta Otoko 2nd Season",
      "rating": 6.81,
      "classificacao_etaria": "A14",
      "imagem_original": "https://animefire.plus/img/animes/kami-tachi-ni-hirowareta-otoko-2nd-season.webp",
      "imagem_pasta": "https://animefire.plus/img/animes/kami-tachi-ni-hirowareta-otoko-2nd-season/",
      "secao": "legendados",
      "pagina": 28,
      "total_episodios": 12,
      "link_video": "https://animefire.plus/video/kami-tachi-ni-hirowareta-otoko-2nd-season"
    }
  ],
  "pagination": {
    "current_page": 40,
    "per_page": 20,
    "total_items": 1805,
    "total_pages": 91,
    "has_next": true,
    "has_prev": true
  }
}
