{
  "message": "Animes com rating entre 5 e 7",
  "rating_range": {
    "min": 5,
    "max": 7
  },
  "data": [
    {
      "id": 1565,
      "nome": "Hyakujuu-Ou GoLion",
      "link": "https://animefire.plus/animes/hyakujuu-ou-golion-todos-os-episodios",
      "texto_original": "Hyakujuu-Ou GoLion",
      "rating": 6.82,
      "classificacao_etaria": "A14",
      "imagem_original": "https://animefire.plus/img/animes/hyakujuu-ou-golion.webp",
      "imagem_pasta": "https://animefire.plus/img/animes/hyakujuu-ou-golion/",
      "secao": "legendados",
      "pagina": 43,
      "total_episodios": 28,
      "link_video": "https://animefire.plus/video/hyakujuu-ou-golion"
    },
    {
      "id": 1566,
      "nome": "Hyakuren no Haou to Seiyaku no Valkyria",
      "link": "https://animefire.plus/animes/hyakuren-no-haou-to-seiyaku-no-valkyria-todos-os-episodios",
      "texto_original": "Hyakuren no Haou to Seiyaku no Valkyria",
      "rating": 6.07,
      "classificacao_etaria": "A14",
      "imagem_original": "https://animefire.plus/img/animes/hyakuren-no-haou-to-seiyaku-no-valkyria.webp",
      "imagem_pasta": "https://animefire.plus/img/animes/hyakuren-no-haou-to-seiyaku-no-valkyria/",
      "secao": "legendados",
      "pagina": 132,
      "total_episodios": 12,
      "link_video": "https://animefire.plus/video/hyakuren-no-haou-to-seiyaku-no-valkyria"
    },
    {
      "id": 1569,
      "nome": "Hyouken no Majutsushi ga Sekai wo Suberu (Dublado)",
      "link": "https://animefire.plus/animes/hyouken-no-majutsushi-ga-sekai-wo-suberu-dublado-todos-os-episodios",
      "texto_original": "Hyouken no Majutsushi ga Sekai wo Suberu (Dublado)",
      "rating": 6.36,
      "classificacao_etaria": "A14",
      "imagem_original": "https://animefire.plus/img/animes/hyouken-no-majutsushi-ga-sekai-wo-suberu.webp",
      "imagem_pasta": "https://animefire.plus/img/animes/hyouken-no-majutsushi-ga-sekai-wo-suberu/",
      "secao": "dublados,legendados",
      "pagina": 4,
      "total_episodios": 12,
      "link_video": "https://animefire.plus/video/hyouken-no-majutsushi-ga-sekai-wo-suberu-dublado"
    },
    {
      "id": 1571,
      "nome": "Hypnosis Mic: Division Rap Battle - Rhyme Anima +",
      "link": "https://animefire.plus/animes/hypmic-2nd-season-todos-os-episodios",
      "texto_original": "Hypnosis Mic: Division Rap Battle - Rhyme Anima +",
      "rating": 6.86,
      "classificacao_etaria": "A16",
      "imagem_original": "https://animefire.plus/img/animes/hypmic-2nd-season.webp",
      "imagem_pasta": "https://animefire.plus/img/animes/hypmic-2nd-season/",
      "secao": "legendados,lancamentos",
      "pagina": 19,
      "total_episodios": 1,
      "link_video": "https://animefire.plus/video/hypmic-2nd-season"
    },
    {
      "id": 1572,
      "nome": "I My Me! Strawberry Eggs",
      "link": "https://animefire.plus/animes/i-my-me-strawberry-eggs-todos-os-episodios",
      "texto_original": "I My Me! Strawberry Eggs",
      "rating": 6.87,
      "classificacao_etaria": "A14",
      "imagem_original": "https://animefire.plus/img/animes/i-my-me-strawberry-eggs.webp",
      "imagem_pasta": "https://animefire.plus/img/animes/i-my-me-strawberry-eggs/",
      "secao": "legendados",
      "pagina": 99,
      "total_episodios": 0,
      "link_video": "https://animefire.plus/video/i-my-me-strawberry-eggs"
    },
    {
      "id": 1573,
      "nome": "I: Wish You Were Here",
      "link": "https://animefire.plus/animes/i-wish-you-were-here-todos-os-episodios",
      "texto_original": "I: Wish You Were Here",
      "rating": 6.13,
      "classificacao_etaria": "A16",
      "imagem_original": "https://animefire.plus/img/animes/i-wish-you-were-here.webp",
      "imagem_pasta": "https://animefire.plus/img/animes/i-wish-you-were-here/",
      "secao": "legendados",
      "pagina": 113,
      "total_episodios": 4,
      "link_video": "https://animefire.plus/video/i-wish-you-were-here"
    },
    {
      "id": 1574,
      "nome": "I''s Pure",
      "link": "https://animefire.plus/animes/i-s-pure-todos-os-episodios",
      "texto_original": "I''s Pure",
      "rating": 6.89,
      "classificacao_etaria": "A18",
      "imagem_original": "https://animefire.plus/img/animes/i-s-pure.webp",
      "imagem_pasta": "https://animefire.plus/img/animes/i-s-pure/",
      "secao": "legendados",
      "pagina": 43,
      "total_episodios": 6,
      "link_video": "https://animefire.plus/video/i-s-pure"
    },
    {
      "id": 1575,
      "nome": "I''s Pure Bonus",
      "link": "https://animefire.plus/animes/i-s-pure-bonus-todos-os-episodios",
      "texto_original": "I''s Pure Bonus",
      "rating": 6.45,
      "classificacao_etaria": "A18",
      "imagem_original": "https://animefire.plus/img/animes/i-s-pure-bonus.webp",
      "imagem_pasta": "https://animefire.plus/img/animes/i-s-pure-bonus/",
      "secao": "legendados",
      "pagina": 43,
      "total_episodios": 5,
      "link_video": "https://animefire.plus/video/i-s-pure-bonus"
    },
    {
      "id": 1576,
      "nome": "I★Chu: Halfway Through the Idol",
      "link": "https://animefire.plus/animes/i-chu-halfway-through-the-idol-todos-os-episodios",
      "texto_original": "I★Chu: Halfway Through the Idol",
      "rating": 6.57,
      "classificacao_etaria": "A14",
      "imagem_original": "https://animefire.plus/img/animes/i-chu-halfway-through-the-idol.webp",
      "imagem_pasta": "https://animefire.plus/img/animes/i-chu-halfway-through-the-idol/",
      "secao": "legendados",
      "pagina": 48,
      "total_episodios": 12,
      "link_video": "https://animefire.plus/video/i-chu-halfway-through-the-idol"
    },
    {
      "id": 1578,
      "nome": "Ichigo 100%",
      "link": "https://animefire.plus/animes/ichigo-100-todos-os-episodios",
      "texto_original": "Ichigo 100%",
      "rating": 6.75,
      "classificacao_etaria": "A14",
      "imagem_original": "https://animefire.plus/img/animes/ichigo-100.webp",
      "imagem_pasta": "https://animefire.plus/img/animes/ichigo-100/",
      "secao": "legendados",
      "pagina": 156,
      "total_episodios": 12,
      "link_video": "https://animefire.plus/video/ichigo-100"
    },
    {
      "id": 1579,
      "nome": "Ichigo 100% Special 2",
      "link": "https://animefire.plus/animes/ichigo-100-special-2-todos-os-episodios",
      "texto_original": "Ichigo 100% Special 2",
      "rating": 6.92,
      "classificacao_etaria": "A14",
      "imagem_original": "https://animefire.plus/img/animes/ichigo-100-special-2.webp",
      "imagem_pasta": "https://animefire.plus/img/animes/ichigo-100-special-2/",
      "secao": "legendados",
      "pagina": 82,
      "total_episodios": 1,
      "link_video": "https://animefire.plus/video/ichigo-100-special-2"
    },
    {
      "id": 1582,
      "nome": "Iczer-Girl Iczelion",
      "link": "https://animefire.plus/animes/iczer-girl-iczelion-todos-os-episodios",
      "texto_original": "Iczer-Girl Iczelion",
      "rating": 5.68,
      "classificacao_etaria": "A18",
      "imagem_original": "https://animefire.plus/img/animes/iczer-girl-iczelion.webp",
      "imagem_pasta": "https://animefire.plus/img/animes/iczer-girl-iczelion/",
      "secao": "legendados",
      "pagina": 67,
      "total_episodios": 2,
      "link_video": "https://animefire.plus/video/iczer-girl-iczelion"
    },
    {
      "id": 1583,
      "nome": "ID-0 (Dublado)",
      "link": "https://animefire.plus/animes/id-0-dublado-todos-os-episodios",
      "texto_original": "ID-0 (Dublado)",
      "rating": 6.64,
      "classificacao_etaria": "A14",
      "imagem_original": "https://animefire.plus/img/animes/id-0.webp",
      "imagem_pasta": "https://animefire.plus/img/animes/id-0/",
      "secao": "dublados,legendados",
      "pagina": 21,
      "total_episodios": 12,
      "link_video": "https://animefire.plus/video/id-0-dublado"
    },
    {
      "id": 1585,
      "nome": "Idol Jihen",
      "link": "https://animefire.plus/animes/idol-jihen-todos-os-episodios",
      "texto_original": "Idol Jihen",
      "rating": 5.7,
      "classificacao_etaria": "A14",
      "imagem_original": "https://animefire.plus/img/animes/idol-jihen.webp",
      "imagem_pasta": "https://animefire.plus/img/animes/idol-jihen/",
      "secao": "legendados",
      "pagina": 176,
      "total_episodios": 1,
      "link_video": "https://animefire.plus/video/idol-jihen"
    },
    {
      "id": 1587,
      "nome": "Idol Memories",
      "link": "https://animefire.plus/animes/idol-memories-todos-os-episodios",
      "texto_original": "Idol Memories",
      "rating": 5.36,
      "classificacao_etaria": "A14",
      "imagem_original": "https://animefire.plus/img/animes/idol-memories.webp",
      "imagem_pasta": "https://animefire.plus/img/animes/idol-memories/",
      "secao": "legendados",
      "pagina": 142,
      "total_episodios": 3,
      "link_video": "https://animefire.plus/video/idol-memories"
    },
    {
      "id": 1593,
      "nome": "Idolls!",
      "link": "https://animefire.plus/animes/idolls-todos-os-episodios",
      "texto_original": "Idolls!",
      "rating": 5.05,
      "classificacao_etaria": "A14",
      "imagem_original": "https://animefire.plus/img/animes/idolls.webp",
      "imagem_pasta": "https://animefire.plus/img/animes/idolls/",
      "secao": "legendados",
      "pagina": 48,
      "total_episodios": 10,
      "link_video": "https://animefire.plus/video/idolls"
    },
    {
      "id": 1594,
      "nome": "iDOLM@STER Xenoglossia",
      "link": "https://animefire.plus/animes/idolmatster-xenoglossia-todos-os-episodios",
      "texto_original": "iDOLM@STER Xenoglossia",
      "rating": 6.6,
      "classificacao_etaria": "A14",
      "imagem_original": "https://animefire.plus/img/animes/idolmatster-xenoglossia.webp",
      "imagem_pasta": "https://animefire.plus/img/animes/idolmatster-xenoglossia/",
      "secao": "legendados",
      "pagina": 130,
      "total_episodios": 26,
      "link_video": "https://animefire.plus/video/idolmatster-xenoglossia"
    },
    {
      "id": 1597,
      "nome": "Ijime: Ikenie no Kyoushitsu",
      "link": "https://animefire.plus/animes/ijime-ikenie-no-kyoushitsu-todos-os-episodios",
      "texto_original": "Ijime: Ikenie no Kyoushitsu",
      "rating": 5.2,
      "classificacao_etaria": "A14",
      "imagem_original": "https://animefire.plus/img/animes/ijime-ikenie-no-kyoushitsu.webp",
      "imagem_pasta": "https://animefire.plus/img/animes/ijime-ikenie-no-kyoushitsu/",
      "secao": "legendados",
      "pagina": 43,
      "total_episodios": 1,
      "link_video": "https://animefire.plus/video/ijime-ikenie-no-kyoushitsu"
    },
    {
      "id": 1601,
      "nome": "Ikebukuro PR Anime",
      "link": "https://animefire.plus/animes/ikebukuro-pr-anime-todos-os-episodios",
      "texto_original": "Ikebukuro PR Anime",
      "rating": 6.12,
      "classificacao_etaria": null,
      "imagem_original": "https://animefire.plus/img/animes/ikebukuro-pr-anime.webp",
      "imagem_pasta": "https://animefire.plus/img/animes/ikebukuro-pr-anime/",
      "secao": "legendados",
      "pagina": 85,
      "total_episodios": 1,
      "link_video": "https://animefire.plus/video/ikebukuro-pr-anime"
    },
    {
      "id": 1603,
      "nome": "Ikkitousen (Dublado)",
      "link": "https://animefire.plus/animes/ikkitousen-dublado-todos-os-episodios",
      "texto_original": "Ikkitousen (Dublado)",
      "rating": 6.48,
      "classificacao_etaria": "A18",
      "imagem_original": "https://animefire.plus/img/animes/ikkitousen.webp",
      "imagem_pasta": "https://animefire.plus/img/animes/ikkitousen/",
      "secao": "dublados,legendados",
      "pagina": 21,
      "total_episodios": 0,
      "link_video": "https://animefire.plus/video/ikkitousen-dublado"
    }
  ],
  "pagination": {
    "current_page": 35,
    "per_page": 20,
    "total_items": 1805,
    "total_pages": 91,
    "has_next": true,
    "has_prev": true
  }
}
