{
  "message": "Animes com rating entre 5 e 7",
  "rating_range": {
    "min": 5,
    "max": 7
  },
  "data": [
    {
      "id": 81,
      "nome": "Ai Monogatari: 9 Love Stories",
      "link": "https://animefire.plus/animes/ai-monogatari-9-love-stories-todos-os-episodios",
      "texto_original": "Ai Monogatari: 9 Love Stories",
      "rating": 6.63,
      "classificacao_etaria": "A14",
      "imagem_original": "https://animefire.plus/img/animes/ai-monogatari-9-love-stories.webp",
      "imagem_pasta": "https://animefire.plus/img/animes/ai-monogatari-9-love-stories/",
      "secao": "legendados",
      "pagina": 78,
      "total_episodios": 1,
      "link_video": "https://animefire.plus/video/ai-monogatari-9-love-stories"
    },
    {
      "id": 82,
      "nome": "AI no Idenshi",
      "link": "https://animefire.plus/animes/ai-no-idenshi-todos-os-episodios",
      "texto_original": "AI no Idenshi",
      "rating": 6.52,
      "classificacao_etaria": "A14",
      "imagem_original": "https://animefire.plus/img/animes/aI-no-idenshi.jpg",
      "imagem_pasta": "https://animefire.plus/img/animes/aI-no-idenshi/",
      "secao": "legendados",
      "pagina": 22,
      "total_episodios": 12,
      "link_video": "https://animefire.plus/video/ai-no-idenshi"
    },
    {
      "id": 83,
      "nome": "Ai No Kusabi (2012)",
      "link": "https://animefire.plus/animes/ai-no-kusabi-2012-todos-os-episodios",
      "texto_original": "Ai No Kusabi (2012)",
      "rating": 6.72,
      "classificacao_etaria": "A18",
      "imagem_original": "https://animefire.plus/img/animes/ai-no-kusabi-2012.webp",
      "imagem_pasta": "https://animefire.plus/img/animes/ai-no-kusabi-2012/",
      "secao": "legendados",
      "pagina": 60,
      "total_episodios": 4,
      "link_video": "https://animefire.plus/video/ai-no-kusabi-2012"
    },
    {
      "id": 84,
      "nome": "Ai Tenchi Muyou!",
      "link": "https://animefire.plus/animes/ai-tenchi-muyou-todos-os-episodios",
      "texto_original": "Ai Tenchi Muyou!",
      "rating": 6.27,
      "classificacao_etaria": "A14",
      "imagem_original": "https://animefire.plus/img/animes/ai-tenchi-muyou.webp",
      "imagem_pasta": "https://animefire.plus/img/animes/ai-tenchi-muyou/",
      "secao": "legendados",
      "pagina": 178,
      "total_episodios": 0,
      "link_video": "https://animefire.plus/video/ai-tenchi-muyou"
    },
    {
      "id": 85,
      "nome": "Ai Tenshi Densetsu Wedding Peach",
      "link": "https://animefire.plus/animes/ai-tenshi-densetsu-wedding-peach-todos-os-episodios",
      "texto_original": "Ai Tenshi Densetsu Wedding Peach",
      "rating": 6.77,
      "classificacao_etaria": "A10",
      "imagem_original": "https://animefire.plus/img/animes/ai-tenshi-densetsu-wedding-peach.webp",
      "imagem_pasta": "https://animefire.plus/img/animes/ai-tenshi-densetsu-wedding-peach/",
      "secao": "legendados",
      "pagina": 158,
      "total_episodios": 34,
      "link_video": "https://animefire.plus/video/ai-tenshi-densetsu-wedding-peach"
    },
    {
      "id": 86,
      "nome": "Ai Tenshi Densetsu Wedding Peach DX",
      "link": "https://animefire.plus/animes/ai-tenshi-densetsu-wedding-peach-dx-todos-os-episodios",
      "texto_original": "Ai Tenshi Densetsu Wedding Peach DX",
      "rating": 6.7,
      "classificacao_etaria": "A14",
      "imagem_original": "https://animefire.plus/img/animes/ai-tenshi-densetsu-wedding-peach-dx.webp",
      "imagem_pasta": "https://animefire.plus/img/animes/ai-tenshi-densetsu-wedding-peach-dx/",
      "secao": "legendados",
      "pagina": 84,
      "total_episodios": 1,
      "link_video": "https://animefire.plus/video/ai-tenshi-densetsu-wedding-peach-dx"
    },
    {
      "id": 89,
      "nome": "AIKa",
      "link": "https://animefire.plus/animes/aika-todos-os-episodios",
      "texto_original": "AIKa",
      "rating": 5.99,
      "classificacao_etaria": "A18",
      "imagem_original": "https://animefire.plus/img/animes/aika.webp",
      "imagem_pasta": "https://animefire.plus/img/animes/aika/",
      "secao": "legendados",
      "pagina": 117,
      "total_episodios": 7,
      "link_video": "https://animefire.plus/video/aika"
    },
    {
      "id": 90,
      "nome": "AIKa R-16: Virgin Mission",
      "link": "https://animefire.plus/animes/aika-r-16-virgin-mission-todos-os-episodios",
      "texto_original": "AIKa R-16: Virgin Mission",
      "rating": 6,
      "classificacao_etaria": "A18",
      "imagem_original": "https://animefire.plus/img/animes/aika-r-16-virgin-mission.webp",
      "imagem_pasta": "https://animefire.plus/img/animes/aika-r-16-virgin-mission/",
      "secao": "legendados",
      "pagina": 60,
      "total_episodios": 3,
      "link_video": "https://animefire.plus/video/aika-r-16-virgin-mission"
    },
    {
      "id": 91,
      "nome": "Aika Zero",
      "link": "https://animefire.plus/animes/aika-zero-todos-os-episodios",
      "texto_original": "Aika Zero",
      "rating": 5.99,
      "classificacao_etaria": "A18",
      "imagem_original": "https://animefire.plus/img/animes/aika-zero.webp",
      "imagem_pasta": "https://animefire.plus/img/animes/aika-zero/",
      "secao": "legendados",
      "pagina": 111,
      "total_episodios": 2,
      "link_video": "https://animefire.plus/video/aika-zero"
    },
    {
      "id": 92,
      "nome": "AIKa Zero Picture Drama",
      "link": "https://animefire.plus/animes/aika-zero-picture-drama-todos-os-episodios",
      "texto_original": "AIKa Zero Picture Drama",
      "rating": 5.57,
      "classificacao_etaria": "A18",
      "imagem_original": "https://animefire.plus/img/animes/aika-zero-picture-drama.webp",
      "imagem_pasta": "https://animefire.plus/img/animes/aika-zero-picture-drama/",
      "secao": "legendados",
      "pagina": 44,
      "total_episodios": 3,
      "link_video": "https://animefire.plus/video/aika-zero-picture-drama"
    },
    {
      "id": 94,
      "nome": "Aikatsu on Parade!",
      "link": "https://animefire.plus/animes/aikatsu-on-parade-todos-os-episodios",
      "texto_original": "Aikatsu on Parade!",
      "rating": 6.83,
      "classificacao_etaria": "A10",
      "imagem_original": "https://animefire.plus/img/animes/aikatsu-on-parade.webp",
      "imagem_pasta": "https://animefire.plus/img/animes/aikatsu-on-parade/",
      "secao": "legendados",
      "pagina": 109,
      "total_episodios": 3,
      "link_video": "https://animefire.plus/video/aikatsu-on-parade"
    },
    {
      "id": 104,
      "nome": "Aiura",
      "link": "https://animefire.plus/animes/aiura-todos-os-episodios",
      "texto_original": "Aiura",
      "rating": 6.75,
      "classificacao_etaria": null,
      "imagem_original": "https://animefire.plus/img/animes/aiura.webp",
      "imagem_pasta": "https://animefire.plus/img/animes/aiura/",
      "secao": "legendados",
      "pagina": 109,
      "total_episodios": 12,
      "link_video": "https://animefire.plus/video/aiura"
    },
    {
      "id": 111,
      "nome": "Akahori Gedou Hour Rabuge",
      "link": "https://animefire.plus/animes/akahori-gedou-hour-rabuge-todos-os-episodios",
      "texto_original": "Akahori Gedou Hour Rabuge",
      "rating": 6.25,
      "classificacao_etaria": "A14",
      "imagem_original": "https://animefire.plus/img/animes/akahori-gedou-hour-rabuge.webp",
      "imagem_pasta": "https://animefire.plus/img/animes/akahori-gedou-hour-rabuge/",
      "secao": "legendados",
      "pagina": 118,
      "total_episodios": 13,
      "link_video": "https://animefire.plus/video/akahori-gedou-hour-rabuge"
    },
    {
      "id": 112,
      "nome": "Akai Hayate",
      "link": "https://animefire.plus/animes/akai-hayate-todos-os-episodios",
      "texto_original": "Akai Hayate",
      "rating": 5.48,
      "classificacao_etaria": "A18",
      "imagem_original": "https://animefire.plus/img/animes/akai-hayate.webp",
      "imagem_pasta": "https://animefire.plus/img/animes/akai-hayate/",
      "secao": "legendados",
      "pagina": 76,
      "total_episodios": 4,
      "link_video": "https://animefire.plus/video/akai-hayate"
    },
    {
      "id": 113,
      "nome": "Akai Koudan Zillion (Dublado)",
      "link": "https://animefire.plus/animes/akai-koudan-zillion-dublado-todos-os-episodios",
      "texto_original": "Akai Koudan Zillion (Dublado)",
      "rating": 6.61,
      "classificacao_etaria": "A14",
      "imagem_original": "https://animefire.plus/img/animes/akai-koudan-zillion.webp",
      "imagem_pasta": "https://animefire.plus/img/animes/akai-koudan-zillion/",
      "secao": "dublados",
      "pagina": 23,
      "total_episodios": 20,
      "link_video": "https://animefire.plus/video/akai-koudan-zillion-dublado"
    },
    {
      "id": 115,
      "nome": "Akame ga Kill!: AkaKill! Gekijou",
      "link": "https://animefire.plus/animes/akame-ga-kill-akakill-gekijou-todos-os-episodios",
      "texto_original": "Akame ga Kill!: AkaKill! Gekijou",
      "rating": 6.62,
      "classificacao_etaria": "A14",
      "imagem_original": "https://animefire.plus/img/animes/akame-ga-kill-akakill-gekijou.webp",
      "imagem_pasta": "https://animefire.plus/img/animes/akame-ga-kill-akakill-gekijou/",
      "secao": "legendados",
      "pagina": 89,
      "total_episodios": 24,
      "link_video": "https://animefire.plus/video/akame-ga-kill-akakill-gekijou"
    },
    {
      "id": 116,
      "nome": "Akaneiro ni Somaru Saka",
      "link": "https://animefire.plus/animes/akaneiro-ni-somaru-saka-todos-os-episodios",
      "texto_original": "Akaneiro ni Somaru Saka",
      "rating": 6.57,
      "classificacao_etaria": "A18",
      "imagem_original": "https://animefire.plus/img/animes/akaneiro-ni-somaru-saka.webp",
      "imagem_pasta": "https://animefire.plus/img/animes/akaneiro-ni-somaru-saka/",
      "secao": "legendados",
      "pagina": 123,
      "total_episodios": 0,
      "link_video": "https://animefire.plus/video/akaneiro-ni-somaru-saka"
    },
    {
      "id": 117,
      "nome": "Akanesasu Shoujo",
      "link": "https://animefire.plus/animes/akanesasu-shoujo-todos-os-episodios",
      "texto_original": "Akanesasu Shoujo",
      "rating": 6.57,
      "classificacao_etaria": "A14",
      "imagem_original": "https://animefire.plus/img/animes/akanesasu-shoujo.webp",
      "imagem_pasta": "https://animefire.plus/img/animes/akanesasu-shoujo/",
      "secao": "legendados",
      "pagina": 153,
      "total_episodios": 12,
      "link_video": "https://animefire.plus/video/akanesasu-shoujo"
    },
    {
      "id": 123,
      "nome": "Aki-Sora",
      "link": "https://animefire.plus/animes/aki-sora-todos-os-episodios",
      "texto_original": "Aki-Sora",
      "rating": 6.2,
      "classificacao_etaria": "A18",
      "imagem_original": "https://animefire.plus/img/animes/aki-sora.webp",
      "imagem_pasta": "https://animefire.plus/img/animes/aki-sora/",
      "secao": "legendados",
      "pagina": 128,
      "total_episodios": 3,
      "link_video": "https://animefire.plus/video/aki-sora"
    },
    {
      "id": 125,
      "nome": "Akiba's Trip The Animation",
      "link": "https://animefire.plus/animes/akiba-s-trip-the-animation-todos-os-episodios",
      "texto_original": "Akiba's Trip The Animation",
      "rating": 6.68,
      "classificacao_etaria": "A14",
      "imagem_original": "https://animefire.plus/img/animes/akiba-s-trip-the-animation.webp",
      "imagem_pasta": "https://animefire.plus/img/animes/akiba-s-trip-the-animation/",
      "secao": "legendados",
      "pagina": 156,
      "total_episodios": 13,
      "link_video": "https://animefire.plus/video/akiba-s-trip-the-animation"
    }
  ],
  "pagination": {
    "current_page": 3,
    "per_page": 20,
    "total_items": 1805,
    "total_pages": 91,
    "has_next": true,
    "has_prev": true
  }
}
