{
  "message": "Animes com rating entre 5 e 7",
  "rating_range": {
    "min": 5,
    "max": 7
  },
  "data": [
    {
      "id": 1021,
      "nome": "Frame Arms Girl",
      "link": "https://animefire.plus/animes/frame-arms-girl-todos-os-episodios",
      "texto_original": "Frame Arms Girl",
      "rating": 6.49,
      "classificacao_etaria": "A14",
      "imagem_original": "https://animefire.plus/img/animes/frame-arms-girl.webp",
      "imagem_pasta": "https://animefire.plus/img/animes/frame-arms-girl/",
      "secao": "legendados",
      "pagina": 171,
      "total_episodios": 12,
      "link_video": "https://animefire.plus/video/frame-arms-girl"
    },
    {
      "id": 1022,
      "nome": "Francesca",
      "link": "https://animefire.plus/animes/francesca-todos-os-episodios",
      "texto_original": "Francesca",
      "rating": 5.54,
      "classificacao_etaria": "A14",
      "imagem_original": "https://animefire.plus/img/animes/francesca.webp",
      "imagem_pasta": "https://animefire.plus/img/animes/francesca/",
      "secao": "legendados",
      "pagina": 129,
      "total_episodios": 1,
      "link_video": "https://animefire.plus/video/francesca"
    },
    {
      "id": 1028,
      "nome": "Freezing Vibration",
      "link": "https://animefire.plus/animes/freezing-vibration-todos-os-episodios",
      "texto_original": "Freezing Vibration",
      "rating": 6.97,
      "classificacao_etaria": "A18",
      "imagem_original": "https://animefire.plus/img/animes/freezing-vibration.webp",
      "imagem_pasta": "https://animefire.plus/img/animes/freezing-vibration/",
      "secao": "legendados",
      "pagina": 132,
      "total_episodios": 4,
      "link_video": "https://animefire.plus/video/freezing-vibration"
    },
    {
      "id": 1035,
      "nome": "Fudanshi Koukou Seikatsu",
      "link": "https://animefire.plus/animes/fudanshi-koukou-seikatsu-todos-os-episodios",
      "texto_original": "Fudanshi Koukou Seikatsu",
      "rating": 6.64,
      "classificacao_etaria": "A14",
      "imagem_original": "https://animefire.plus/img/animes/fudanshi-koukou-seikatsu.webp",
      "imagem_pasta": "https://animefire.plus/img/animes/fudanshi-koukou-seikatsu/",
      "secao": "legendados",
      "pagina": 102,
      "total_episodios": 12,
      "link_video": "https://animefire.plus/video/fudanshi-koukou-seikatsu"
    },
    {
      "id": 1037,
      "nome": "Fuguushoku \"Kanteishi\" ga Jitsu wa Saikyou Datta",
      "link": "https://animefire.plus/animes/fuguushoku-kanteishi-ga-jitsu-wa-saikyou-datta-todos-os-episodios",
      "texto_original": "Fuguushoku \"Kanteishi\" ga Jitsu wa Saikyou Datta",
      "rating": 6.33,
      "classificacao_etaria": "A16",
      "imagem_original": "https://animefire.plus/img/animes/fuguushoku-kanteishi-ga-jitsu-wa-saikyou-datta.webp",
      "imagem_pasta": "https://animefire.plus/img/animes/fuguushoku-kanteishi-ga-jitsu-wa-saikyou-datta/",
      "secao": "legendados",
      "pagina": 8,
      "total_episodios": 12,
      "link_video": "https://animefire.plus/video/fuguushoku-kanteishi-ga-jitsu-wa-saikyou-datta"
    },
    {
      "id": 1050,
      "nome": "Fumikiri Jikan",
      "link": "https://animefire.plus/animes/fumikiri-jikan-todos-os-episodios",
      "texto_original": "Fumikiri Jikan",
      "rating": 6.45,
      "classificacao_etaria": "A14",
      "imagem_original": "https://animefire.plus/img/animes/fumikiri-jikan.webp",
      "imagem_pasta": "https://animefire.plus/img/animes/fumikiri-jikan/",
      "secao": "legendados",
      "pagina": 142,
      "total_episodios": 12,
      "link_video": "https://animefire.plus/video/fumikiri-jikan"
    },
    {
      "id": 1051,
      "nome": "Fumiko no Kokuhaku",
      "link": "https://animefire.plus/animes/fumiko-no-kokuhaku-todos-os-episodios",
      "texto_original": "Fumiko no Kokuhaku",
      "rating": 6.68,
      "classificacao_etaria": "A14",
      "imagem_original": "https://animefire.plus/img/animes/fumiko-no-kokuhaku.webp",
      "imagem_pasta": "https://animefire.plus/img/animes/fumiko-no-kokuhaku/",
      "secao": "legendados",
      "pagina": 54,
      "total_episodios": 1,
      "link_video": "https://animefire.plus/video/fumiko-no-kokuhaku"
    },
    {
      "id": 1053,
      "nome": "Fushigi Na Somera-chan",
      "link": "https://animefire.plus/animes/fushigi-na-somera-chan-todos-os-episodios",
      "texto_original": "Fushigi Na Somera-chan",
      "rating": 5.91,
      "classificacao_etaria": "A14",
      "imagem_original": "https://animefire.plus/img/animes/fushigi-na-somera-chan.webp",
      "imagem_pasta": "https://animefire.plus/img/animes/fushigi-na-somera-chan/",
      "secao": "legendados",
      "pagina": 97,
      "total_episodios": 12,
      "link_video": "https://animefire.plus/video/fushigi-na-somera-chan"
    },
    {
      "id": 1056,
      "nome": "Futakoi",
      "link": "https://animefire.plus/animes/futakoi-todos-os-episodios",
      "texto_original": "Futakoi",
      "rating": 6.56,
      "classificacao_etaria": "A14",
      "imagem_original": "https://animefire.plus/img/animes/futakoi.webp",
      "imagem_pasta": "https://animefire.plus/img/animes/futakoi/",
      "secao": "legendados",
      "pagina": 174,
      "total_episodios": 13,
      "link_video": "https://animefire.plus/video/futakoi"
    },
    {
      "id": 1057,
      "nome": "Futakoi Alternative",
      "link": "https://animefire.plus/animes/futakoi-alternative-todos-os-episodios",
      "texto_original": "Futakoi Alternative",
      "rating": 6.97,
      "classificacao_etaria": "A14",
      "imagem_original": "https://animefire.plus/img/animes/futakoi-alternative.webp",
      "imagem_pasta": "https://animefire.plus/img/animes/futakoi-alternative/",
      "secao": "legendados",
      "pagina": 151,
      "total_episodios": 13,
      "link_video": "https://animefire.plus/video/futakoi-alternative"
    },
    {
      "id": 1058,
      "nome": "Futari Ecchi (2014)",
      "link": "https://animefire.plus/animes/futari-ecchi-2014-todos-os-episodios",
      "texto_original": "Futari Ecchi (2014)",
      "rating": 6.23,
      "classificacao_etaria": "A18",
      "imagem_original": "https://animefire.plus/img/animes/futari-ecchi-2014.webp",
      "imagem_pasta": "https://animefire.plus/img/animes/futari-ecchi-2014/",
      "secao": "legendados",
      "pagina": 70,
      "total_episodios": 1,
      "link_video": "https://animefire.plus/video/futari-ecchi-2014"
    },
    {
      "id": 1059,
      "nome": "Futari Solo Camp",
      "link": "https://animefire.plus/animes/futari-solo-camp-todos-os-episodios",
      "texto_original": "Futari Solo Camp",
      "rating": 6.52,
      "classificacao_etaria": "A14",
      "imagem_original": "https://animefire.plus/img/animes/futari-solo-camp.webp",
      "imagem_pasta": "https://animefire.plus/img/animes/futari-solo-camp/",
      "secao": "legendados,lancamentos",
      "pagina": 1,
      "total_episodios": 4,
      "link_video": "https://animefire.plus/video/futari-solo-camp"
    },
    {
      "id": 1060,
      "nome": "Futari wa Milky Holmes",
      "link": "https://animefire.plus/animes/futari-wa-milky-holmes-todos-os-episodios",
      "texto_original": "Futari wa Milky Holmes",
      "rating": 5.82,
      "classificacao_etaria": "A14",
      "imagem_original": "https://animefire.plus/img/animes/futari-wa-milky-holmes.webp",
      "imagem_pasta": "https://animefire.plus/img/animes/futari-wa-milky-holmes/",
      "secao": "legendados",
      "pagina": 83,
      "total_episodios": 12,
      "link_video": "https://animefire.plus/video/futari-wa-milky-holmes"
    },
    {
      "id": 1063,
      "nome": "Futoku no Guild",
      "link": "https://animefire.plus/animes/futoku-no-guild-todos-os-episodios",
      "texto_original": "Futoku no Guild",
      "rating": 6.54,
      "classificacao_etaria": "A18",
      "imagem_original": "https://animefire.plus/img/animes/futoku-no-guild.webp",
      "imagem_pasta": "https://animefire.plus/img/animes/futoku-no-guild/",
      "secao": "legendados",
      "pagina": 29,
      "total_episodios": 12,
      "link_video": "https://animefire.plus/video/futoku-no-guild"
    },
    {
      "id": 1064,
      "nome": "Futsal Boys!!!!!",
      "link": "https://animefire.plus/animes/futsal-boys-todos-os-episodios",
      "texto_original": "Futsal Boys!!!!!",
      "rating": 5.46,
      "classificacao_etaria": "A14",
      "imagem_original": "https://animefire.plus/img/animes/futsal-boys.webp",
      "imagem_pasta": "https://animefire.plus/img/animes/futsal-boys/",
      "secao": "legendados",
      "pagina": 35,
      "total_episodios": 12,
      "link_video": "https://animefire.plus/video/futsal-boys"
    },
    {
      "id": 1065,
      "nome": "Futsuu no Joshikousei ga [Locodol] Yattemita.",
      "link": "https://animefire.plus/animes/futsuu-no-joshikousei-ga-locodol-yattemita-todos-os-episodios",
      "texto_original": "Futsuu no Joshikousei ga [Locodol] Yattemita.",
      "rating": 6.93,
      "classificacao_etaria": "A14",
      "imagem_original": "https://animefire.plus/img/animes/futsuu-no-joshikousei-ga-locodol-yattemita.webp",
      "imagem_pasta": "https://animefire.plus/img/animes/futsuu-no-joshikousei-ga-locodol-yattemita/",
      "secao": "legendados",
      "pagina": 116,
      "total_episodios": 0,
      "link_video": "https://animefire.plus/video/futsuu-no-joshikousei-ga-locodol-yattemita"
    },
    {
      "id": 1068,
      "nome": "Fuuka",
      "link": "https://animefire.plus/animes/fuuka-todos-os-episodios",
      "texto_original": "Fuuka",
      "rating": 6.71,
      "classificacao_etaria": "A18",
      "imagem_original": "https://animefire.plus/img/animes/fuuka.webp",
      "imagem_pasta": "https://animefire.plus/img/animes/fuuka/",
      "secao": "legendados",
      "pagina": 111,
      "total_episodios": 12,
      "link_video": "https://animefire.plus/video/fuuka"
    },
    {
      "id": 1069,
      "nome": "Fuuma no Kojirou: Yasha-hen (Dublado)",
      "link": "https://animefire.plus/animes/fuuma-no-kojirou-yasha-hen-dublado-todos-os-episodios",
      "texto_original": "Fuuma no Kojirou: Yasha-hen (Dublado)",
      "rating": 6.71,
      "classificacao_etaria": "A16",
      "imagem_original": "https://animefire.plus/img/animes/fuuma-no-kojirou-yasha-hen.webp",
      "imagem_pasta": "https://animefire.plus/img/animes/fuuma-no-kojirou-yasha-hen/",
      "secao": "dublados",
      "pagina": 27,
      "total_episodios": 4,
      "link_video": "https://animefire.plus/video/fuuma-no-kojirou-yasha-hen-dublado"
    },
    {
      "id": 1071,
      "nome": "Fuuun Ishin Dai☆Shogun",
      "link": "https://animefire.plus/animes/fuuun-ishin-dai-shogun-todos-os-episodios",
      "texto_original": "Fuuun Ishin Dai☆Shogun",
      "rating": 5.78,
      "classificacao_etaria": "A16",
      "imagem_original": "https://animefire.plus/img/animes/fuuun-ishin-dai-shogun.webp",
      "imagem_pasta": "https://animefire.plus/img/animes/fuuun-ishin-dai-shogun/",
      "secao": "legendados",
      "pagina": 123,
      "total_episodios": 12,
      "link_video": "https://animefire.plus/video/fuuun-ishin-dai-shogun"
    },
    {
      "id": 1072,
      "nome": "G-On Riders",
      "link": "https://animefire.plus/animes/g-on-riders-todos-os-episodios",
      "texto_original": "G-On Riders",
      "rating": 5.87,
      "classificacao_etaria": "A16",
      "imagem_original": "https://animefire.plus/img/animes/g-on-riders.webp",
      "imagem_pasta": "https://animefire.plus/img/animes/g-on-riders/",
      "secao": "legendados",
      "pagina": 69,
      "total_episodios": 13,
      "link_video": "https://animefire.plus/video/g-on-riders"
    }
  ],
  "pagination": {
    "current_page": 25,
    "per_page": 20,
    "total_items": 1805,
    "total_pages": 91,
    "has_next": true,
    "has_prev": true
  }
}
