{
  "message": "Animes com rating entre 5 e 7",
  "rating_range": {
    "min": 5,
    "max": 7
  },
  "data": [
    {
      "id": 1845,
      "nome": "Kami-tachi ni Hirowareta Otoko 2nd Season (Dublado)",
      "link": "https://animefire.plus/animes/kami-tachi-ni-hirowareta-otoko-2-dublado-todos-os-episodios",
      "texto_original": "Kami-tachi ni Hirowareta Otoko 2nd Season (Dublado)",
      "rating": 6.81,
      "classificacao_etaria": "A14",
      "imagem_original": "https://animefire.plus/img/animes/kami-tachi-ni-hirowareta-otoko-2.webp",
      "imagem_pasta": "https://animefire.plus/img/animes/kami-tachi-ni-hirowareta-otoko-2/",
      "secao": "dublados",
      "pagina": 5,
      "total_episodios": 12,
      "link_video": "https://animefire.plus/video/kami-tachi-ni-hirowareta-otoko-2-dublado"
    },
    {
      "id": 1848,
      "nome": "Kamierabi",
      "link": "https://animefire.plus/animes/kamierabi-todos-os-episodios",
      "texto_original": "Kamierabi",
      "rating": 5.82,
      "classificacao_etaria": "A14",
      "imagem_original": "https://animefire.plus/img/animes/kamierabi.webp",
      "imagem_pasta": "https://animefire.plus/img/animes/kamierabi/",
      "secao": "legendados",
      "pagina": 20,
      "total_episodios": 12,
      "link_video": "https://animefire.plus/video/kamierabi"
    },
    {
      "id": 1849,
      "nome": "Kamierabi 2nd Season",
      "link": "https://animefire.plus/animes/kamierabi-2nd-season-todos-os-episodios",
      "texto_original": "Kamierabi 2nd Season",
      "rating": 6.19,
      "classificacao_etaria": "A14",
      "imagem_original": "https://animefire.plus/img/animes/kamierabi-2nd-season.webp",
      "imagem_pasta": "https://animefire.plus/img/animes/kamierabi-2nd-season/",
      "secao": "legendados",
      "pagina": 10,
      "total_episodios": 12,
      "link_video": "https://animefire.plus/video/kamierabi-2nd-season"
    },
    {
      "id": 1852,
      "nome": "Kaminaki Sekai no Kamisama Katsudou",
      "link": "https://animefire.plus/animes/kaminaki-sekai-no-kamisama-katsudou-todos-os-episodios",
      "texto_original": "Kaminaki Sekai no Kamisama Katsudou",
      "rating": 6.68,
      "classificacao_etaria": "A16",
      "imagem_original": "https://animefire.plus/img/animes/kaminaki-sekai-no-kamisama-katsudou.jpg",
      "imagem_pasta": "https://animefire.plus/img/animes/kaminaki-sekai-no-kamisama-katsudou/",
      "secao": "legendados",
      "pagina": 24,
      "total_episodios": 12,
      "link_video": "https://animefire.plus/video/kaminaki-sekai-no-kamisama-katsudou"
    },
    {
      "id": 1858,
      "nome": "Kamisama Minarai: Himitsu no Cocotama",
      "link": "https://animefire.plus/animes/kamisama-minarai-himitsu-no-cocotama-todos-os-episodios",
      "texto_original": "Kamisama Minarai: Himitsu no Cocotama",
      "rating": 6.24,
      "classificacao_etaria": "A10",
      "imagem_original": "https://animefire.plus/img/animes/kamisama-minarai-himitsu-no-cocotama.webp",
      "imagem_pasta": "https://animefire.plus/img/animes/kamisama-minarai-himitsu-no-cocotama/",
      "secao": "legendados",
      "pagina": 133,
      "total_episodios": 1,
      "link_video": "https://animefire.plus/video/kamisama-minarai-himitsu-no-cocotama"
    },
    {
      "id": 1862,
      "nome": "Kamitsubaki-shi Kensetsuchuu.",
      "link": "https://animefire.plus/animes/kamitsubaki-shi-kensetsuchuu-todos-os-episodios",
      "texto_original": "Kamitsubaki-shi Kensetsuchuu.",
      "rating": 5.5,
      "classificacao_etaria": "A14",
      "imagem_original": "https://animefire.plus/img/animes/kamitsubaki-shi-kensetsuchuu.webp",
      "imagem_pasta": "https://animefire.plus/img/animes/kamitsubaki-shi-kensetsuchuu/",
      "secao": "legendados,lancamentos",
      "pagina": 1,
      "total_episodios": 4,
      "link_video": "https://animefire.plus/video/kamitsubaki-shi-kensetsuchuu"
    },
    {
      "id": 1865,
      "nome": "Kämpfer",
      "link": "https://animefire.plus/animes/kaempfer-todos-os-episodios",
      "texto_original": "Kämpfer",
      "rating": 6.59,
      "classificacao_etaria": "A14",
      "imagem_original": "https://animefire.plus/img/animes/kaempfer.webp",
      "imagem_pasta": "https://animefire.plus/img/animes/kaempfer/",
      "secao": "legendados",
      "pagina": 116,
      "total_episodios": 12,
      "link_video": "https://animefire.plus/video/kaempfer"
    },
    {
      "id": 1866,
      "nome": "Kanamemo",
      "link": "https://animefire.plus/animes/kanamemo-todos-os-episodios",
      "texto_original": "Kanamemo",
      "rating": 6.94,
      "classificacao_etaria": "A14",
      "imagem_original": "https://animefire.plus/img/animes/kanamemo.webp",
      "imagem_pasta": "https://animefire.plus/img/animes/kanamemo/",
      "secao": "legendados",
      "pagina": 104,
      "total_episodios": 0,
      "link_video": "https://animefire.plus/video/kanamemo"
    },
    {
      "id": 1868,
      "nome": "Kanchigai no Atelier Meister: Eiyuu Party no Moto Zatsuyougakari ga, Jitsu wa Sentou Igai ga SSS Rank Datta to Iu Yoku Aru Hanashi (Dublado)",
      "link": "https://animefire.plus/animes/kanchigai-no-atelier-meister-eiyuu-party-no-moto-zatsuyougakari-ga-jitsu-wa-sentou-igai-ga-sss-rank-datta-to-iu-yoku-aru-hanashi-dublado-todos-os-episodios",
      "texto_original": "Kanchigai no Atelier Meister: Eiyuu Party no Moto Zatsuyougakari ga, Jitsu wa Sentou Igai ga SSS Rank Datta to Iu Yoku Aru Hanashi (Dublado)",
      "rating": 6.45,
      "classificacao_etaria": "A14",
      "imagem_original": "https://animefire.plus/img/animes/kanchigai-no-atelier-meister-eiyuu-party-no-moto-zatsuyougakari-ga-jitsu-wa-sentou-igai-ga-sss-rank-datta-to-iu-yoku-aru-hanashi.webp",
      "imagem_pasta": "https://animefire.plus/img/animes/kanchigai-no-atelier-meister-eiyuu-party-no-moto-zatsuyougakari-ga-jitsu-wa-sentou-igai-ga-sss-rank-datta-to-iu-yoku-aru-hanashi/",
      "secao": "dublados,legendados,lancamentos",
      "pagina": 1,
      "total_episodios": 12,
      "link_video": "https://animefire.plus/video/kanchigai-no-atelier-meister-eiyuu-party-no-moto-zatsuyougakari-ga-jitsu-wa-sentou-igai-ga-sss-rank-datta-to-iu-yoku-aru-hanashi-dublado"
    },
    {
      "id": 1869,
      "nome": "KanColle: Itsuka Ano Umi de",
      "link": "https://animefire.plus/animes/kancolle-itsuka-ano-umi-de-todos-os-episodios",
      "texto_original": "KanColle: Itsuka Ano Umi de",
      "rating": 6.26,
      "classificacao_etaria": "A14",
      "imagem_original": "https://animefire.plus/img/animes/kancolle-itsuka-ano-umi-de.webp",
      "imagem_pasta": "https://animefire.plus/img/animes/kancolle-itsuka-ano-umi-de/",
      "secao": "legendados,lancamentos",
      "pagina": 30,
      "total_episodios": 6,
      "link_video": "https://animefire.plus/video/kancolle-itsuka-ano-umi-de"
    },
    {
      "id": 1870,
      "nome": "Kandagawa Jet Girls",
      "link": "https://animefire.plus/animes/kandagawa-jet-girls-todos-os-episodios",
      "texto_original": "Kandagawa Jet Girls",
      "rating": 5.66,
      "classificacao_etaria": "A18",
      "imagem_original": "https://animefire.plus/img/animes/kandagawa-jet-girls.webp",
      "imagem_pasta": "https://animefire.plus/img/animes/kandagawa-jet-girls/",
      "secao": "legendados",
      "pagina": 110,
      "total_episodios": 0,
      "link_video": "https://animefire.plus/video/kandagawa-jet-girls"
    },
    {
      "id": 1871,
      "nome": "Kandagawa Jet Girls OVA",
      "link": "https://animefire.plus/animes/kandagawa-jet-girls-ova-todos-os-episodios",
      "texto_original": "Kandagawa Jet Girls OVA",
      "rating": 5.6,
      "classificacao_etaria": "A14",
      "imagem_original": "https://animefire.plus/img/animes/kandagawa-jet-girls-ova.webp",
      "imagem_pasta": "https://animefire.plus/img/animes/kandagawa-jet-girls-ova/",
      "secao": "legendados",
      "pagina": 69,
      "total_episodios": 1,
      "link_video": "https://animefire.plus/video/kandagawa-jet-girls-ova"
    },
    {
      "id": 1872,
      "nome": "Kandagawa Jet Girls Recap",
      "link": "https://animefire.plus/animes/kandagawa-jet-girls-recap-todos-os-episodios",
      "texto_original": "Kandagawa Jet Girls Recap",
      "rating": 5.27,
      "classificacao_etaria": "A14",
      "imagem_original": "https://animefire.plus/img/animes/kandagawa-jet-girls-recap.webp",
      "imagem_pasta": "https://animefire.plus/img/animes/kandagawa-jet-girls-recap/",
      "secao": "legendados",
      "pagina": 86,
      "total_episodios": 1,
      "link_video": "https://animefire.plus/video/kandagawa-jet-girls-recap"
    },
    {
      "id": 1873,
      "nome": "Kankin Kuiki Level X",
      "link": "https://animefire.plus/animes/kankin-kuiki-level-x-todos-os-episodios",
      "texto_original": "Kankin Kuiki Level X",
      "rating": 6.4,
      "classificacao_etaria": "A16",
      "imagem_original": "https://animefire.plus/img/animes/kankin-kuiki-level-x.webp",
      "imagem_pasta": "https://animefire.plus/img/animes/kankin-kuiki-level-x/",
      "secao": "legendados,lancamentos",
      "pagina": 10,
      "total_episodios": 0,
      "link_video": "https://animefire.plus/video/kankin-kuiki-level-x"
    },
    {
      "id": 1875,
      "nome": "Kannazuki no Miko",
      "link": "https://animefire.plus/animes/kannazuki-no-miko-todos-os-episodios",
      "texto_original": "Kannazuki no Miko",
      "rating": 6.97,
      "classificacao_etaria": "A14",
      "imagem_original": "https://animefire.plus/img/animes/kannazuki-no-miko.webp",
      "imagem_pasta": "https://animefire.plus/img/animes/kannazuki-no-miko/",
      "secao": "legendados",
      "pagina": 116,
      "total_episodios": 0,
      "link_video": "https://animefire.plus/video/kannazuki-no-miko"
    },
    {
      "id": 1876,
      "nome": "Kanojo ga Flag wo Oraretara",
      "link": "https://animefire.plus/animes/kanojo-ga-flag-wo-oraretara-todos-os-episodios",
      "texto_original": "Kanojo ga Flag wo Oraretara",
      "rating": 6.56,
      "classificacao_etaria": "A14",
      "imagem_original": "https://animefire.plus/img/animes/kanojo-ga-flag-wo-oraretara.webp",
      "imagem_pasta": "https://animefire.plus/img/animes/kanojo-ga-flag-wo-oraretara/",
      "secao": "legendados",
      "pagina": 117,
      "total_episodios": 9,
      "link_video": "https://animefire.plus/video/kanojo-ga-flag-wo-oraretara"
    },
    {
      "id": 1878,
      "nome": "Kanojo mo Kanojo (Dublado)",
      "link": "https://animefire.plus/animes/kanojo-mo-kanojo-dublado-todos-os-episodios",
      "texto_original": "Kanojo mo Kanojo (Dublado)",
      "rating": 6.52,
      "classificacao_etaria": "A14",
      "imagem_original": "https://animefire.plus/img/animes/kanojo-mo-kanojo.webp",
      "imagem_pasta": "https://animefire.plus/img/animes/kanojo-mo-kanojo/",
      "secao": "dublados,legendados",
      "pagina": 4,
      "total_episodios": 12,
      "link_video": "https://animefire.plus/video/kanojo-mo-kanojo-dublado"
    },
    {
      "id": 1882,
      "nome": "Kanojo, Okarishimasu 2nd Season (Dublado)",
      "link": "https://animefire.plus/animes/kanojo-okarishimasu-2nd-season-dublado-todos-os-episodios",
      "texto_original": "Kanojo, Okarishimasu 2nd Season (Dublado)",
      "rating": 6.75,
      "classificacao_etaria": "A14",
      "imagem_original": "https://animefire.plus/img/animes/kanojo-okarishimasu-2nd-season.webp",
      "imagem_pasta": "https://animefire.plus/img/animes/kanojo-okarishimasu-2nd-season/",
      "secao": "dublados,legendados",
      "pagina": 10,
      "total_episodios": 12,
      "link_video": "https://animefire.plus/video/kanojo-okarishimasu-2nd-season-dublado"
    },
    {
      "id": 1884,
      "nome": "Kanojo, Okarishimasu 4th Season",
      "link": "https://animefire.plus/animes/kanojo-okarishimasu-4th-season-todos-os-episodios",
      "texto_original": "Kanojo, Okarishimasu 4th Season",
      "rating": 6.2,
      "classificacao_etaria": "A14",
      "imagem_original": "https://animefire.plus/img/animes/kanojo-okarishimasu-4th-season.webp",
      "imagem_pasta": "https://animefire.plus/img/animes/kanojo-okarishimasu-4th-season/",
      "secao": "legendados,lancamentos",
      "pagina": 3,
      "total_episodios": 5,
      "link_video": "https://animefire.plus/video/kanojo-okarishimasu-4th-season"
    },
    {
      "id": 1885,
      "nome": "Kanokon",
      "link": "https://animefire.plus/animes/kanokon-todos-os-episodios",
      "texto_original": "Kanokon",
      "rating": 6.6,
      "classificacao_etaria": "A18",
      "imagem_original": "https://animefire.plus/img/animes/kanokon.webp",
      "imagem_pasta": "https://animefire.plus/img/animes/kanokon/",
      "secao": "legendados",
      "pagina": 153,
      "total_episodios": 0,
      "link_video": "https://animefire.plus/video/kanokon"
    }
  ],
  "pagination": {
    "current_page": 41,
    "per_page": 20,
    "total_items": 1805,
    "total_pages": 91,
    "has_next": true,
    "has_prev": true
  }
}
