{
  "message": "Animes com rating entre 5 e 7",
  "rating_range": {
    "min": 5,
    "max": 7
  },
  "data": [
    {
      "id": 4099,
      "nome": "Walkure Romanze",
      "link": "https://animefire.plus/animes/walkure-romanze-todos-os-episodios",
      "texto_original": "Walkure Romanze",
      "rating": 6.49,
      "classificacao_etaria": "A18",
      "imagem_original": "https://animefire.plus/img/animes/walkure-romanze.webp",
      "imagem_pasta": "https://animefire.plus/img/animes/walkure-romanze/",
      "secao": "legendados",
      "pagina": 144,
      "total_episodios": 5,
      "link_video": "https://animefire.plus/video/walkure-romanze"
    },
    {
      "id": 4105,
      "nome": "Wangpai Yushi",
      "link": "https://animefire.plus/animes/wangpai-yushi-todos-os-episodios",
      "texto_original": "Wangpai Yushi",
      "rating": 6.77,
      "classificacao_etaria": "A14",
      "imagem_original": "https://animefire.plus/img/animes/wangpai-yushi.webp",
      "imagem_pasta": "https://animefire.plus/img/animes/wangpai-yushi/",
      "secao": "legendados",
      "pagina": 134,
      "total_episodios": 17,
      "link_video": "https://animefire.plus/video/wangpai-yushi"
    },
    {
      "id": 4106,
      "nome": "Wangpai Yushi Di 0 Ji",
      "link": "https://animefire.plus/animes/wangpai-yushi-di-0-ji-todos-os-episodios",
      "texto_original": "Wangpai Yushi Di 0 Ji",
      "rating": 6.06,
      "classificacao_etaria": "A10",
      "imagem_original": "https://animefire.plus/img/animes/wangpai-yushi-di-0-ji.webp",
      "imagem_pasta": "https://animefire.plus/img/animes/wangpai-yushi-di-0-ji/",
      "secao": "legendados",
      "pagina": 88,
      "total_episodios": 1,
      "link_video": "https://animefire.plus/video/wangpai-yushi-di-0-ji"
    },
    {
      "id": 4108,
      "nome": "Wangu Xian Qiong 2nd Season",
      "link": "https://animefire.plus/animes/wangu-xian-qiong-2nd-season-todos-os-episodios",
      "texto_original": "Wangu Xian Qiong 2nd Season",
      "rating": 6.93,
      "classificacao_etaria": "A14",
      "imagem_original": "https://animefire.plus/img/animes/wangu-xian-qiong-2nd-season.webp",
      "imagem_pasta": "https://animefire.plus/img/animes/wangu-xian-qiong-2nd-season/",
      "secao": "legendados",
      "pagina": 88,
      "total_episodios": 12,
      "link_video": "https://animefire.plus/video/wangu-xian-qiong-2nd-season"
    },
    {
      "id": 4109,
      "nome": "Wanna-Be's",
      "link": "https://animefire.plus/animes/wanna-be-s-todos-os-episodios",
      "texto_original": "Wanna-Be's",
      "rating": 5.2,
      "classificacao_etaria": "A18",
      "imagem_original": "https://animefire.plus/img/animes/wanna-be-s.webp",
      "imagem_pasta": "https://animefire.plus/img/animes/wanna-be-s/",
      "secao": "legendados",
      "pagina": 68,
      "total_episodios": 1,
      "link_video": "https://animefire.plus/video/wanna-be-s"
    },
    {
      "id": 4110,
      "nome": "Warau Arsnotoria Sun!",
      "link": "https://animefire.plus/animes/warau-arsnotoria-sun-todos-os-episodios",
      "texto_original": "Warau Arsnotoria Sun!",
      "rating": 5.8,
      "classificacao_etaria": "A14",
      "imagem_original": "https://animefire.plus/img/animes/warau-arsnotoria-sun.webp",
      "imagem_pasta": "https://animefire.plus/img/animes/warau-arsnotoria-sun/",
      "secao": "legendados",
      "pagina": 31,
      "total_episodios": 12,
      "link_video": "https://animefire.plus/video/warau-arsnotoria-sun"
    },
    {
      "id": 4111,
      "nome": "Warau Salesman New",
      "link": "https://animefire.plus/animes/warau-salesman-new-todos-os-episodios",
      "texto_original": "Warau Salesman New",
      "rating": 6.28,
      "classificacao_etaria": "A14",
      "imagem_original": "https://animefire.plus/img/animes/warau-salesman-new.webp",
      "imagem_pasta": "https://animefire.plus/img/animes/warau-salesman-new/",
      "secao": "legendados",
      "pagina": 99,
      "total_episodios": 12,
      "link_video": "https://animefire.plus/video/warau-salesman-new"
    },
    {
      "id": 4112,
      "nome": "Watari-kun no xx ga Houkai Sunzen",
      "link": "https://animefire.plus/animes/watari-kun-no-xx-ga-houkai-sunzen-todos-os-episodios",
      "texto_original": "Watari-kun no xx ga Houkai Sunzen",
      "rating": 6.38,
      "classificacao_etaria": "A14",
      "imagem_original": "https://animefire.plus/img/animes/watari-kun-no-xx-ga-houkai-sunzen.webp",
      "imagem_pasta": "https://animefire.plus/img/animes/watari-kun-no-xx-ga-houkai-sunzen/",
      "secao": "legendados,lancamentos",
      "pagina": 2,
      "total_episodios": 5,
      "link_video": "https://animefire.plus/video/watari-kun-no-xx-ga-houkai-sunzen"
    },
    {
      "id": 4124,
      "nome": "Watashi no Yuri wa Oshigoto desu! (Dublado)",
      "link": "https://animefire.plus/animes/watashi-no-yuri-wa-oshigoto-desu-dublado-todos-os-episodios",
      "texto_original": "Watashi no Yuri wa Oshigoto desu! (Dublado)",
      "rating": 6.68,
      "classificacao_etaria": "A14",
      "imagem_original": "https://animefire.plus/img/animes/watashi-no-yuri-wa-oshigoto-desu.webp",
      "imagem_pasta": "https://animefire.plus/img/animes/watashi-no-yuri-wa-oshigoto-desu/",
      "secao": "dublados,legendados",
      "pagina": 7,
      "total_episodios": 12,
      "link_video": "https://animefire.plus/video/watashi-no-yuri-wa-oshigoto-desu-dublado"
    },
    {
      "id": 4125,
      "nome": "Watashi, Nouryoku wa Heikinchi de tte Itta yo ne!",
      "link": "https://animefire.plus/animes/watashi-nouryoku-wa-heikinchi-de-tte-itta-yo-ne-todos-os-episodios",
      "texto_original": "Watashi, Nouryoku wa Heikinchi de tte Itta yo ne!",
      "rating": 6.86,
      "classificacao_etaria": "A14",
      "imagem_original": "https://animefire.plus/img/animes/watashi-nouryoku-wa-heikinchi-de-tte-itta-yo-ne.webp",
      "imagem_pasta": "https://animefire.plus/img/animes/watashi-nouryoku-wa-heikinchi-de-tte-itta-yo-ne/",
      "secao": "legendados",
      "pagina": 110,
      "total_episodios": 12,
      "link_video": "https://animefire.plus/video/watashi-nouryoku-wa-heikinchi-de-tte-itta-yo-ne"
    },
    {
      "id": 4126,
      "nome": "Weiß Kreuz",
      "link": "https://animefire.plus/animes/weiss-kreuz-todos-os-episodios",
      "texto_original": "Weiß Kreuz",
      "rating": 6.79,
      "classificacao_etaria": "A14",
      "imagem_original": "https://animefire.plus/img/animes/weiss-kreuz.webp",
      "imagem_pasta": "https://animefire.plus/img/animes/weiss-kreuz/",
      "secao": "legendados",
      "pagina": 150,
      "total_episodios": 22,
      "link_video": "https://animefire.plus/video/weiss-kreuz"
    },
    {
      "id": 4128,
      "nome": "White Album",
      "link": "https://animefire.plus/animes/white-album-todos-os-episodios",
      "texto_original": "White Album",
      "rating": 6.64,
      "classificacao_etaria": "A14",
      "imagem_original": "https://animefire.plus/img/animes/white-album.webp",
      "imagem_pasta": "https://animefire.plus/img/animes/white-album/",
      "secao": "legendados",
      "pagina": 138,
      "total_episodios": 13,
      "link_video": "https://animefire.plus/video/white-album"
    },
    {
      "id": 4130,
      "nome": "White Album 2nd Season",
      "link": "https://animefire.plus/animes/white-album-2nd-season-todos-os-episodios",
      "texto_original": "White Album 2nd Season",
      "rating": 6.93,
      "classificacao_etaria": "A14",
      "imagem_original": "https://animefire.plus/img/animes/white-album-2nd-season.webp",
      "imagem_pasta": "https://animefire.plus/img/animes/white-album-2nd-season/",
      "secao": "legendados",
      "pagina": 98,
      "total_episodios": 13,
      "link_video": "https://animefire.plus/video/white-album-2nd-season"
    },
    {
      "id": 4131,
      "nome": "Wild Arms: Twilight Venom",
      "link": "https://animefire.plus/animes/wild-arms-twilight-venom-todos-os-episodios",
      "texto_original": "Wild Arms: Twilight Venom",
      "rating": 6.7,
      "classificacao_etaria": "A14",
      "imagem_original": "https://animefire.plus/img/animes/wild-arms-twilight-venom.webp",
      "imagem_pasta": "https://animefire.plus/img/animes/wild-arms-twilight-venom/",
      "secao": "legendados",
      "pagina": 126,
      "total_episodios": 22,
      "link_video": "https://animefire.plus/video/wild-arms-twilight-venom"
    },
    {
      "id": 4134,
      "nome": "Wind: A Breath of Heart (TV)",
      "link": "https://animefire.plus/animes/wind-a-breath-of-heart-tv-todos-os-episodios",
      "texto_original": "Wind: A Breath of Heart (TV)",
      "rating": 6.06,
      "classificacao_etaria": "A14",
      "imagem_original": "https://animefire.plus/img/animes/wind-a-breath-of-heart-tv.webp",
      "imagem_pasta": "https://animefire.plus/img/animes/wind-a-breath-of-heart-tv/",
      "secao": "legendados",
      "pagina": 155,
      "total_episodios": 13,
      "link_video": "https://animefire.plus/video/wind-a-breath-of-heart-tv"
    },
    {
      "id": 4139,
      "nome": "WIXOSS Diva(A)Live",
      "link": "https://animefire.plus/animes/wixoss-diva-a-live-todos-os-episodios",
      "texto_original": "WIXOSS Diva(A)Live",
      "rating": 5.6,
      "classificacao_etaria": "A14",
      "imagem_original": "https://animefire.plus/img/animes/wixoss-diva-a-live.webp",
      "imagem_pasta": "https://animefire.plus/img/animes/wixoss-diva-a-live/",
      "secao": "legendados",
      "pagina": 48,
      "total_episodios": 12,
      "link_video": "https://animefire.plus/video/wixoss-diva-a-live"
    },
    {
      "id": 4140,
      "nome": "Wizard Barristers: Benmashi Cecil",
      "link": "https://animefire.plus/animes/wizard-barristers-benmashi-cecil-todos-os-episodios",
      "texto_original": "Wizard Barristers: Benmashi Cecil",
      "rating": 6.22,
      "classificacao_etaria": "A14",
      "imagem_original": "https://animefire.plus/img/animes/wizard-barristers-benmashi-cecil.webp",
      "imagem_pasta": "https://animefire.plus/img/animes/wizard-barristers-benmashi-cecil/",
      "secao": "legendados",
      "pagina": 164,
      "total_episodios": 12,
      "link_video": "https://animefire.plus/video/wizard-barristers-benmashi-cecil"
    },
    {
      "id": 4141,
      "nome": "Wo De Ni Tian Shen Qi",
      "link": "https://animefire.plus/animes/wo-de-ni-tian-shen-qi-todos-os-episodios",
      "texto_original": "Wo De Ni Tian Shen Qi",
      "rating": 6.62,
      "classificacao_etaria": "A14",
      "imagem_original": "https://animefire.plus/img/animes/wo-de-ni-tian-shen-qi.webp",
      "imagem_pasta": "https://animefire.plus/img/animes/wo-de-ni-tian-shen-qi/",
      "secao": "legendados",
      "pagina": 163,
      "total_episodios": 16,
      "link_video": "https://animefire.plus/video/wo-de-ni-tian-shen-qi"
    },
    {
      "id": 4142,
      "nome": "Wo De Tian Jie Nu You",
      "link": "https://animefire.plus/animes/wo-de-tian-jie-nu-you-todos-os-episodios",
      "texto_original": "Wo De Tian Jie Nu You",
      "rating": 6.64,
      "classificacao_etaria": "A16",
      "imagem_original": "https://animefire.plus/img/animes/wo-de-tian-jie-nu-you.webp",
      "imagem_pasta": "https://animefire.plus/img/animes/wo-de-tian-jie-nu-you/",
      "secao": "legendados",
      "pagina": 59,
      "total_episodios": 15,
      "link_video": "https://animefire.plus/video/wo-de-tian-jie-nu-you"
    },
    {
      "id": 4143,
      "nome": "Wo De Tian Jie Nv You",
      "link": "https://animefire.plus/animes/wo-de-tian-jie-nv-you-todos-os-episodios",
      "texto_original": "Wo De Tian Jie Nv You",
      "rating": 6.73,
      "classificacao_etaria": "A16",
      "imagem_original": "https://animefire.plus/img/animes/wo-de-tian-jie-nv-you.webp",
      "imagem_pasta": "https://animefire.plus/img/animes/wo-de-tian-jie-nv-you/",
      "secao": "legendados",
      "pagina": 126,
      "total_episodios": 15,
      "link_video": "https://animefire.plus/video/wo-de-tian-jie-nv-you"
    }
  ],
  "pagination": {
    "current_page": 86,
    "per_page": 20,
    "total_items": 1805,
    "total_pages": 91,
    "has_next": true,
    "has_prev": true
  }
}
