{
  "message": "Animes com rating entre 5 e 7",
  "rating_range": {
    "min": 5,
    "max": 7
  },
  "data": [
    {
      "id": 3282,
      "nome": "SD Gundam World: Sangoku Souketsuden",
      "link": "https://animefire.plus/animes/sd-gundam-world-sangoku-souketsuden-todos-os-episodios",
      "texto_original": "SD Gundam World: Sangoku Souketsuden",
      "rating": 5.9,
      "classificacao_etaria": "A10",
      "imagem_original": "https://animefire.plus/img/animes/sd-gundam-world-sangoku-souketsuden.webp",
      "imagem_pasta": "https://animefire.plus/img/animes/sd-gundam-world-sangoku-souketsuden/",
      "secao": "legendados",
      "pagina": 62,
      "total_episodios": 0,
      "link_video": "https://animefire.plus/video/sd-gundam-world-sangoku-souketsuden"
    },
    {
      "id": 3283,
      "nome": "Seihou Tenshi Angel Links",
      "link": "https://animefire.plus/animes/seihou-tenshi-angel-links-todos-os-episodios",
      "texto_original": "Seihou Tenshi Angel Links",
      "rating": 6.01,
      "classificacao_etaria": "A14",
      "imagem_original": "https://animefire.plus/img/animes/seihou-tenshi-angel-links.webp",
      "imagem_pasta": "https://animefire.plus/img/animes/seihou-tenshi-angel-links/",
      "secao": "legendados",
      "pagina": 162,
      "total_episodios": 13,
      "link_video": "https://animefire.plus/video/seihou-tenshi-angel-links"
    },
    {
      "id": 3291,
      "nome": "Seikaisuru Kado",
      "link": "https://animefire.plus/animes/seikaisuru-kado-todos-os-episodios",
      "texto_original": "Seikaisuru Kado",
      "rating": 6.87,
      "classificacao_etaria": "A14",
      "imagem_original": "https://animefire.plus/img/animes/seikaisuru-kado.webp",
      "imagem_pasta": "https://animefire.plus/img/animes/seikaisuru-kado/",
      "secao": "legendados",
      "pagina": 73,
      "total_episodios": 12,
      "link_video": "https://animefire.plus/video/seikaisuru-kado"
    },
    {
      "id": 3292,
      "nome": "Seiken Densetsu: Legend of Mana - The Teardrop Crystal",
      "link": "https://animefire.plus/animes/seiken-densetsu-legend-of-mana---the-teardrop-crystal-todos-os-episodios",
      "texto_original": "Seiken Densetsu: Legend of Mana - The Teardrop Crystal",
      "rating": 5.47,
      "classificacao_etaria": "A14",
      "imagem_original": "https://animefire.plus/img/animes/seiken-densetsu-legend-of-mana---the-teardrop-crystal.webp",
      "imagem_pasta": "https://animefire.plus/img/animes/seiken-densetsu-legend-of-mana---the-teardrop-crystal/",
      "secao": "legendados",
      "pagina": 28,
      "total_episodios": 12,
      "link_video": "https://animefire.plus/video/seiken-densetsu-legend-of-mana---the-teardrop-crystal"
    },
    {
      "id": 3293,
      "nome": "Seiken Gakuin no Makentsukai",
      "link": "https://animefire.plus/animes/seiken-gakuin-no-makentsukai-todos-os-episodios",
      "texto_original": "Seiken Gakuin no Makentsukai",
      "rating": 6.2,
      "classificacao_etaria": "A14",
      "imagem_original": "https://animefire.plus/img/animes/seiken-gakuin-no-makentsukai.webp",
      "imagem_pasta": "https://animefire.plus/img/animes/seiken-gakuin-no-makentsukai/",
      "secao": "legendados",
      "pagina": 21,
      "total_episodios": 12,
      "link_video": "https://animefire.plus/video/seiken-gakuin-no-makentsukai"
    },
    {
      "id": 3294,
      "nome": "Seiken no Blacksmith",
      "link": "https://animefire.plus/animes/seiken-no-blacksmith-todos-os-episodios",
      "texto_original": "Seiken no Blacksmith",
      "rating": 6.86,
      "classificacao_etaria": "A18",
      "imagem_original": "https://animefire.plus/img/animes/seiken-no-blacksmith.webp",
      "imagem_pasta": "https://animefire.plus/img/animes/seiken-no-blacksmith/",
      "secao": "legendados",
      "pagina": 128,
      "total_episodios": 12,
      "link_video": "https://animefire.plus/video/seiken-no-blacksmith"
    },
    {
      "id": 3297,
      "nome": "Seikoku no Dragonar",
      "link": "https://animefire.plus/animes/seikoku-no-dragonar-todos-os-episodios",
      "texto_original": "Seikoku no Dragonar",
      "rating": 6.68,
      "classificacao_etaria": "A18",
      "imagem_original": "https://animefire.plus/img/animes/seikoku-no-dragonar.webp",
      "imagem_pasta": "https://animefire.plus/img/animes/seikoku-no-dragonar/",
      "secao": "legendados",
      "pagina": 157,
      "total_episodios": 0,
      "link_video": "https://animefire.plus/video/seikoku-no-dragonar"
    },
    {
      "id": 3298,
      "nome": "Seikon no Qwaser",
      "link": "https://animefire.plus/animes/seikon-no-qwaser-todos-os-episodios",
      "texto_original": "Seikon no Qwaser",
      "rating": 6.34,
      "classificacao_etaria": "A18",
      "imagem_original": "https://animefire.plus/img/animes/seikon-no-qwaser.webp",
      "imagem_pasta": "https://animefire.plus/img/animes/seikon-no-qwaser/",
      "secao": "legendados",
      "pagina": 18,
      "total_episodios": 24,
      "link_video": "https://animefire.plus/video/seikon-no-qwaser"
    },
    {
      "id": 3299,
      "nome": "Seikon no Qwaser II",
      "link": "https://animefire.plus/animes/seikon-no-qwaser-ii-todos-os-episodios",
      "texto_original": "Seikon no Qwaser II",
      "rating": 6.55,
      "classificacao_etaria": "A18",
      "imagem_original": "https://animefire.plus/img/animes/seikon-no-qwaser-ii.webp",
      "imagem_pasta": "https://animefire.plus/img/animes/seikon-no-qwaser-ii/",
      "secao": "legendados",
      "pagina": 115,
      "total_episodios": 12,
      "link_video": "https://animefire.plus/video/seikon-no-qwaser-ii"
    },
    {
      "id": 3301,
      "nome": "Seirei Gensouki 2 (Dublado)",
      "link": "https://animefire.plus/animes/seirei-gensouki-2-dublado-todos-os-episodios",
      "texto_original": "Seirei Gensouki 2 (Dublado)",
      "rating": 6.87,
      "classificacao_etaria": "A14",
      "imagem_original": "https://animefire.plus/img/animes/seirei-gensouki-2.webp",
      "imagem_pasta": "https://animefire.plus/img/animes/seirei-gensouki-2/",
      "secao": "dublados,legendados,lancamentos",
      "pagina": 2,
      "total_episodios": 12,
      "link_video": "https://animefire.plus/video/seirei-gensouki-2-dublado"
    },
    {
      "id": 3304,
      "nome": "Seiren",
      "link": "https://animefire.plus/animes/seiren-todos-os-episodios",
      "texto_original": "Seiren",
      "rating": 6.38,
      "classificacao_etaria": "A14",
      "imagem_original": "https://animefire.plus/img/animes/seiren.webp",
      "imagem_pasta": "https://animefire.plus/img/animes/seiren/",
      "secao": "legendados",
      "pagina": 128,
      "total_episodios": 0,
      "link_video": "https://animefire.plus/video/seiren"
    },
    {
      "id": 3305,
      "nome": "Seisen Cerberus: Ryuukoku no Fatalités",
      "link": "https://animefire.plus/animes/seisen-cerberus-ryuukoku-no-fatalites-todos-os-episodios",
      "texto_original": "Seisen Cerberus: Ryuukoku no Fatalités",
      "rating": 5.7,
      "classificacao_etaria": "A16",
      "imagem_original": "https://animefire.plus/img/animes/seisen-cerberus-ryuukoku-no-fatalites.webp",
      "imagem_pasta": "https://animefire.plus/img/animes/seisen-cerberus-ryuukoku-no-fatalites/",
      "secao": "legendados",
      "pagina": 89,
      "total_episodios": 13,
      "link_video": "https://animefire.plus/video/seisen-cerberus-ryuukoku-no-fatalites"
    },
    {
      "id": 3307,
      "nome": "Seisenshi Dunbine OVA",
      "link": "https://animefire.plus/animes/seisenshi-dunbine-ova-todos-os-episodios",
      "texto_original": "Seisenshi Dunbine OVA",
      "rating": 5.8,
      "classificacao_etaria": "A14",
      "imagem_original": "https://animefire.plus/img/animes/seisenshi-dunbine-ova.webp",
      "imagem_pasta": "https://animefire.plus/img/animes/seisenshi-dunbine-ova/",
      "secao": "legendados",
      "pagina": 142,
      "total_episodios": 3,
      "link_video": "https://animefire.plus/video/seisenshi-dunbine-ova"
    },
    {
      "id": 3315,
      "nome": "Seiyuu Radio no Uraomote",
      "link": "https://animefire.plus/animes/seiyuu-radio-no-uraomote-todos-os-episodios",
      "texto_original": "Seiyuu Radio no Uraomote",
      "rating": 6.95,
      "classificacao_etaria": "A14",
      "imagem_original": "https://animefire.plus/img/animes/seiyuu-radio-no-uraomote.webp",
      "imagem_pasta": "https://animefire.plus/img/animes/seiyuu-radio-no-uraomote/",
      "secao": "legendados",
      "pagina": 14,
      "total_episodios": 12,
      "link_video": "https://animefire.plus/video/seiyuu-radio-no-uraomote"
    },
    {
      "id": 3316,
      "nome": "Sekai de Ichiban Tsuyoku Naritai!",
      "link": "https://animefire.plus/animes/sekai-de-ichiban-tsuyoku-naritai-todos-os-episodios",
      "texto_original": "Sekai de Ichiban Tsuyoku Naritai!",
      "rating": 5.9,
      "classificacao_etaria": "A18",
      "imagem_original": "https://animefire.plus/img/animes/sekai-de-ichiban-tsuyoku-naritai.webp",
      "imagem_pasta": "https://animefire.plus/img/animes/sekai-de-ichiban-tsuyoku-naritai/",
      "secao": "legendados",
      "pagina": 117,
      "total_episodios": 4,
      "link_video": "https://animefire.plus/video/sekai-de-ichiban-tsuyoku-naritai"
    },
    {
      "id": 3317,
      "nome": "Sekai de Ichiban Tsuyoku Naritai! Specials",
      "link": "https://animefire.plus/animes/sekai-de-ichiban-tsuyoku-naritai-specials-todos-os-episodios",
      "texto_original": "Sekai de Ichiban Tsuyoku Naritai! Specials",
      "rating": 5.77,
      "classificacao_etaria": "A18",
      "imagem_original": "https://animefire.plus/img/animes/sekai-de-ichiban-tsuyoku-naritai-specials.webp",
      "imagem_pasta": "https://animefire.plus/img/animes/sekai-de-ichiban-tsuyoku-naritai-specials/",
      "secao": "legendados",
      "pagina": 54,
      "total_episodios": 1,
      "link_video": "https://animefire.plus/video/sekai-de-ichiban-tsuyoku-naritai-specials"
    },
    {
      "id": 3320,
      "nome": "Sekai Seifuku: Bouryaku no Zvezda - Shin Zvezda Daisakusen",
      "link": "https://animefire.plus/animes/sekai-seifuku-bouryaku-no-zvezda---shin-zvezda-daisakusen-todos-os-episodios",
      "texto_original": "Sekai Seifuku: Bouryaku no Zvezda - Shin Zvezda Daisakusen",
      "rating": 6.74,
      "classificacao_etaria": "A14",
      "imagem_original": "https://animefire.plus/img/animes/sekai-seifuku-bouryaku-no-zvezda---shin-zvezda-daisakusen.webp",
      "imagem_pasta": "https://animefire.plus/img/animes/sekai-seifuku-bouryaku-no-zvezda---shin-zvezda-daisakusen/",
      "secao": "legendados",
      "pagina": 43,
      "total_episodios": 1,
      "link_video": "https://animefire.plus/video/sekai-seifuku-bouryaku-no-zvezda---shin-zvezda-daisakusen"
    },
    {
      "id": 3325,
      "nome": "Sekkou Boys",
      "link": "https://animefire.plus/animes/sekkou-boys-todos-os-episodios",
      "texto_original": "Sekkou Boys",
      "rating": 6.33,
      "classificacao_etaria": "A14",
      "imagem_original": "https://animefire.plus/img/animes/sekkou-boys.webp",
      "imagem_pasta": "https://animefire.plus/img/animes/sekkou-boys/",
      "secao": "legendados",
      "pagina": 97,
      "total_episodios": 12,
      "link_video": "https://animefire.plus/video/sekkou-boys"
    },
    {
      "id": 3332,
      "nome": "Sengoku Basara: Judge End",
      "link": "https://animefire.plus/animes/sengoku-basara-judge-end-todos-os-episodios",
      "texto_original": "Sengoku Basara: Judge End",
      "rating": 6.93,
      "classificacao_etaria": "A14",
      "imagem_original": "https://animefire.plus/img/animes/sengoku-basara-judge-end.webp",
      "imagem_pasta": "https://animefire.plus/img/animes/sengoku-basara-judge-end/",
      "secao": "legendados",
      "pagina": 176,
      "total_episodios": 6,
      "link_video": "https://animefire.plus/video/sengoku-basara-judge-end"
    },
    {
      "id": 3333,
      "nome": "Sengoku Collection",
      "link": "https://animefire.plus/animes/sengoku-collection-todos-os-episodios",
      "texto_original": "Sengoku Collection",
      "rating": 6.45,
      "classificacao_etaria": "A14",
      "imagem_original": "https://animefire.plus/img/animes/sengoku-collection.webp",
      "imagem_pasta": "https://animefire.plus/img/animes/sengoku-collection/",
      "secao": "legendados",
      "pagina": 55,
      "total_episodios": 26,
      "link_video": "https://animefire.plus/video/sengoku-collection"
    }
  ],
  "pagination": {
    "current_page": 70,
    "per_page": 20,
    "total_items": 1805,
    "total_pages": 91,
    "has_next": true,
    "has_prev": true
  }
}
