{
  "message": "Animes com rating entre 5 e 7",
  "rating_range": {
    "min": 5,
    "max": 7
  },
  "data": [
    {
      "id": 833,
      "nome": "Divergence Eve 2: Misaki Chronicles",
      "link": "https://animefire.plus/animes/divergence-eve-2-misaki-chronicles-todos-os-episodios",
      "texto_original": "Divergence Eve 2: Misaki Chronicles",
      "rating": 6.35,
      "classificacao_etaria": "A14",
      "imagem_original": "https://animefire.plus/img/animes/divergence-eve-2-misaki-chronicles.webp",
      "imagem_pasta": "https://animefire.plus/img/animes/divergence-eve-2-misaki-chronicles/",
      "secao": "legendados",
      "pagina": 108,
      "total_episodios": 13,
      "link_video": "https://animefire.plus/video/divergence-eve-2-misaki-chronicles"
    },
    {
      "id": 834,
      "nome": "Divine Gate",
      "link": "https://animefire.plus/animes/divine-gate-todos-os-episodios",
      "texto_original": "Divine Gate",
      "rating": 5.75,
      "classificacao_etaria": "A14",
      "imagem_original": "https://animefire.plus/img/animes/divine-gate.webp",
      "imagem_pasta": "https://animefire.plus/img/animes/divine-gate/",
      "secao": "legendados",
      "pagina": 114,
      "total_episodios": 0,
      "link_video": "https://animefire.plus/video/divine-gate"
    },
    {
      "id": 835,
      "nome": "DNA² (Dublado)",
      "link": "https://animefire.plus/animes/dna-dublado-todos-os-episodios",
      "texto_original": "DNA² (Dublado)",
      "rating": 6.73,
      "classificacao_etaria": "A14",
      "imagem_original": "https://animefire.plus/img/animes/dna.webp",
      "imagem_pasta": "https://animefire.plus/img/animes/dna/",
      "secao": "dublados,legendados",
      "pagina": 25,
      "total_episodios": 12,
      "link_video": "https://animefire.plus/video/dna-dublado"
    },
    {
      "id": 841,
      "nome": "Dokidoki! Precure (Dublado)",
      "link": "https://animefire.plus/animes/dokidoki-precure-dublado-todos-os-episodios",
      "texto_original": "Dokidoki! Precure (Dublado)",
      "rating": 6.73,
      "classificacao_etaria": null,
      "imagem_original": "https://animefire.plus/img/animes/dokidoki-precure.webp",
      "imagem_pasta": "https://animefire.plus/img/animes/dokidoki-precure/",
      "secao": "dublados,legendados",
      "pagina": 22,
      "total_episodios": 30,
      "link_video": "https://animefire.plus/video/dokidoki-precure-dublado"
    },
    {
      "id": 842,
      "nome": "Dokyuu Hentai HxEros",
      "link": "https://animefire.plus/animes/dokyuu-hentai-hxeros-todos-os-episodios",
      "texto_original": "Dokyuu Hentai HxEros",
      "rating": 5.74,
      "classificacao_etaria": "A18",
      "imagem_original": "https://animefire.plus/img/animes/dokyuu-hentai-hxeros.webp",
      "imagem_pasta": "https://animefire.plus/img/animes/dokyuu-hentai-hxeros/",
      "secao": "legendados",
      "pagina": 58,
      "total_episodios": 12,
      "link_video": "https://animefire.plus/video/dokyuu-hentai-hxeros"
    },
    {
      "id": 843,
      "nome": "Dokyuu Hentai HxEros OVA",
      "link": "https://animefire.plus/animes/dokyuu-hentai-hxeros-ova-todos-os-episodios",
      "texto_original": "Dokyuu Hentai HxEros OVA",
      "rating": 6.2,
      "classificacao_etaria": "A18",
      "imagem_original": "https://animefire.plus/img/animes/dokyuu-hentai-hxeros-ova.webp",
      "imagem_pasta": "https://animefire.plus/img/animes/dokyuu-hentai-hxeros-ova/",
      "secao": "legendados",
      "pagina": 50,
      "total_episodios": 2,
      "link_video": "https://animefire.plus/video/dokyuu-hentai-hxeros-ova"
    },
    {
      "id": 844,
      "nome": "Dolls' Frontline",
      "link": "https://animefire.plus/animes/dolls-frontline-todos-os-episodios",
      "texto_original": "Dolls' Frontline",
      "rating": 5.86,
      "classificacao_etaria": "A14",
      "imagem_original": "https://animefire.plus/img/animes/dolls-frontline.webp",
      "imagem_pasta": "https://animefire.plus/img/animes/dolls-frontline/",
      "secao": "legendados",
      "pagina": 37,
      "total_episodios": 12,
      "link_video": "https://animefire.plus/video/dolls-frontline"
    },
    {
      "id": 845,
      "nome": "Domestic na Kanojo",
      "link": "https://animefire.plus/animes/domestic-na-kanojo-todos-os-episodios",
      "texto_original": "Domestic na Kanojo",
      "rating": 6.77,
      "classificacao_etaria": "A18",
      "imagem_original": "https://animefire.plus/img/animes/domestic-na-kanojo.webp",
      "imagem_pasta": "https://animefire.plus/img/animes/domestic-na-kanojo/",
      "secao": "legendados",
      "pagina": 98,
      "total_episodios": 12,
      "link_video": "https://animefire.plus/video/domestic-na-kanojo"
    },
    {
      "id": 847,
      "nome": "Dorei-ku The Animation",
      "link": "https://animefire.plus/animes/dorei-ku-the-animation-todos-os-episodios",
      "texto_original": "Dorei-ku The Animation",
      "rating": 6.12,
      "classificacao_etaria": "A16",
      "imagem_original": "https://animefire.plus/img/animes/dorei-ku-the-animation.webp",
      "imagem_pasta": "https://animefire.plus/img/animes/dorei-ku-the-animation/",
      "secao": "legendados",
      "pagina": 127,
      "total_episodios": 12,
      "link_video": "https://animefire.plus/video/dorei-ku-the-animation"
    },
    {
      "id": 852,
      "nome": "Dororon Enma-kun Meeramera",
      "link": "https://animefire.plus/animes/dororon-enma-kun-meeramera-todos-os-episodios",
      "texto_original": "Dororon Enma-kun Meeramera",
      "rating": 6.55,
      "classificacao_etaria": "A16",
      "imagem_original": "https://animefire.plus/img/animes/dororon-enma-kun-meeramera.webp",
      "imagem_pasta": "https://animefire.plus/img/animes/dororon-enma-kun-meeramera/",
      "secao": "legendados",
      "pagina": 59,
      "total_episodios": 12,
      "link_video": "https://animefire.plus/video/dororon-enma-kun-meeramera"
    },
    {
      "id": 854,
      "nome": "Dou Shen Ji",
      "link": "https://animefire.plus/animes/dou-shen-ji-todos-os-episodios",
      "texto_original": "Dou Shen Ji",
      "rating": 5.81,
      "classificacao_etaria": "A14",
      "imagem_original": "https://animefire.plus/img/animes/dou-shen-ji.webp",
      "imagem_pasta": "https://animefire.plus/img/animes/dou-shen-ji/",
      "secao": "legendados",
      "pagina": 37,
      "total_episodios": 12,
      "link_video": "https://animefire.plus/video/dou-shen-ji"
    },
    {
      "id": 856,
      "nome": "Double Decker! Doug & Kirill",
      "link": "https://animefire.plus/animes/double-decker-doug-kirill-todos-os-episodios",
      "texto_original": "Double Decker! Doug & Kirill",
      "rating": 6.97,
      "classificacao_etaria": "A16",
      "imagem_original": "https://animefire.plus/img/animes/double-decker-doug-kirill.webp",
      "imagem_pasta": "https://animefire.plus/img/animes/double-decker-doug-kirill/",
      "secao": "legendados",
      "pagina": 107,
      "total_episodios": 13,
      "link_video": "https://animefire.plus/video/double-decker-doug-kirill"
    },
    {
      "id": 858,
      "nome": "Double-J",
      "link": "https://animefire.plus/animes/double-j-todos-os-episodios",
      "texto_original": "Double-J",
      "rating": 5.55,
      "classificacao_etaria": "A14",
      "imagem_original": "https://animefire.plus/img/animes/double-j.webp",
      "imagem_pasta": "https://animefire.plus/img/animes/double-j/",
      "secao": "legendados",
      "pagina": 99,
      "total_episodios": 0,
      "link_video": "https://animefire.plus/video/double-j"
    },
    {
      "id": 859,
      "nome": "Doujin Work",
      "link": "https://animefire.plus/animes/doujin-work-todos-os-episodios",
      "texto_original": "Doujin Work",
      "rating": 6.83,
      "classificacao_etaria": "A14",
      "imagem_original": "https://animefire.plus/img/animes/doujin-work.webp",
      "imagem_pasta": "https://animefire.plus/img/animes/doujin-work/",
      "secao": "legendados",
      "pagina": 102,
      "total_episodios": 12,
      "link_video": "https://animefire.plus/video/doujin-work"
    },
    {
      "id": 866,
      "nome": "Douse, Koishite Shimaunda.",
      "link": "https://animefire.plus/animes/douse-koishite-shimaunda-todos-os-episodios",
      "texto_original": "Douse, Koishite Shimaunda.",
      "rating": 6.09,
      "classificacao_etaria": "A14",
      "imagem_original": "https://animefire.plus/img/animes/douse-koishite-shimaunda.webp",
      "imagem_pasta": "https://animefire.plus/img/animes/douse-koishite-shimaunda/",
      "secao": "legendados",
      "pagina": 7,
      "total_episodios": 12,
      "link_video": "https://animefire.plus/video/douse-koishite-shimaunda"
    },
    {
      "id": 876,
      "nome": "Dragon Ball GT (Dublado)",
      "link": "https://animefire.plus/animes/dragon-ball-gt-dublado-todos-os-episodios",
      "texto_original": "Dragon Ball GT (Dublado)",
      "rating": 6.64,
      "classificacao_etaria": "A14",
      "imagem_original": "https://animefire.plus/img/animes/dragon-ball-gt.webp",
      "imagem_pasta": "https://animefire.plus/img/animes/dragon-ball-gt/",
      "secao": "dublados",
      "pagina": 26,
      "total_episodios": 61,
      "link_video": "https://animefire.plus/video/dragon-ball-gt-dublado"
    },
    {
      "id": 877,
      "nome": "Dragon Ball Heroes (Dublado)",
      "link": "https://animefire.plus/animes/dragon-ball-heroes-dublado-todos-os-episodios",
      "texto_original": "Dragon Ball Heroes (Dublado)",
      "rating": 5.62,
      "classificacao_etaria": "A14",
      "imagem_original": "https://animefire.plus/img/animes/dragon-ball-heroes.webp",
      "imagem_pasta": "https://animefire.plus/img/animes/dragon-ball-heroes/",
      "secao": "dublados,legendados,lancamentos",
      "pagina": 26,
      "total_episodios": 16,
      "link_video": "https://animefire.plus/video/dragon-ball-heroes-dublado"
    },
    {
      "id": 881,
      "nome": "Dragon Crisis!",
      "link": "https://animefire.plus/animes/dragon-crisis-todos-os-episodios",
      "texto_original": "Dragon Crisis!",
      "rating": 6.82,
      "classificacao_etaria": "A14",
      "imagem_original": "https://animefire.plus/img/animes/dragon-crisis.webp",
      "imagem_pasta": "https://animefire.plus/img/animes/dragon-crisis/",
      "secao": "legendados",
      "pagina": 161,
      "total_episodios": 12,
      "link_video": "https://animefire.plus/video/dragon-crisis"
    },
    {
      "id": 882,
      "nome": "Dragon Drive",
      "link": "https://animefire.plus/animes/dragon-drive-todos-os-episodios",
      "texto_original": "Dragon Drive",
      "rating": 6.81,
      "classificacao_etaria": "A10",
      "imagem_original": "https://animefire.plus/img/animes/dragon-drive.webp",
      "imagem_pasta": "https://animefire.plus/img/animes/dragon-drive/",
      "secao": "legendados",
      "pagina": 125,
      "total_episodios": 38,
      "link_video": "https://animefire.plus/video/dragon-drive"
    },
    {
      "id": 886,
      "nome": "Dragon, Ie wo Kau. (Dublado)",
      "link": "https://animefire.plus/animes/dragon-ie-wo-kau-dublado-todos-os-episodios",
      "texto_original": "Dragon, Ie wo Kau. (Dublado)",
      "rating": 6.42,
      "classificacao_etaria": "A14",
      "imagem_original": "https://animefire.plus/img/animes/dragon-ie-wo-kau.webp",
      "imagem_pasta": "https://animefire.plus/img/animes/dragon-ie-wo-kau/",
      "secao": "dublados,legendados",
      "pagina": 13,
      "total_episodios": 12,
      "link_video": "https://animefire.plus/video/dragon-ie-wo-kau-dublado"
    }
  ],
  "pagination": {
    "current_page": 21,
    "per_page": 20,
    "total_items": 1805,
    "total_pages": 91,
    "has_next": true,
    "has_prev": true
  }
}
