{
  "message": "Animes com rating entre 5 e 7",
  "rating_range": {
    "min": 5,
    "max": 7
  },
  "data": [
    {
      "id": 695,
      "nome": "Cosmic Break",
      "link": "https://animefire.plus/animes/cosmic-break-todos-os-episodios",
      "texto_original": "Cosmic Break",
      "rating": 6.09,
      "classificacao_etaria": "A14",
      "imagem_original": "https://animefire.plus/img/animes/cosmic-break.webp",
      "imagem_pasta": "https://animefire.plus/img/animes/cosmic-break/",
      "secao": "legendados",
      "pagina": 141,
      "total_episodios": 3,
      "link_video": "https://animefire.plus/video/cosmic-break"
    },
    {
      "id": 696,
      "nome": "Cosmo Police Justy",
      "link": "https://animefire.plus/animes/cosmo-police-justy-todos-os-episodios",
      "texto_original": "Cosmo Police Justy",
      "rating": 5.54,
      "classificacao_etaria": "A14",
      "imagem_original": "https://animefire.plus/img/animes/cosmo-police-justy.webp",
      "imagem_pasta": "https://animefire.plus/img/animes/cosmo-police-justy/",
      "secao": "legendados",
      "pagina": 65,
      "total_episodios": 1,
      "link_video": "https://animefire.plus/video/cosmo-police-justy"
    },
    {
      "id": 697,
      "nome": "Cosmo Warrior Zero",
      "link": "https://animefire.plus/animes/cosmo-warrior-zero-todos-os-episodios",
      "texto_original": "Cosmo Warrior Zero",
      "rating": 6.63,
      "classificacao_etaria": "A14",
      "imagem_original": "https://animefire.plus/img/animes/cosmo-warrior-zero.webp",
      "imagem_pasta": "https://animefire.plus/img/animes/cosmo-warrior-zero/",
      "secao": "legendados",
      "pagina": 96,
      "total_episodios": 15,
      "link_video": "https://animefire.plus/video/cosmo-warrior-zero"
    },
    {
      "id": 698,
      "nome": "Cossette no Shouzou",
      "link": "https://animefire.plus/animes/cossette-no-shouzou-todos-os-episodios",
      "texto_original": "Cossette no Shouzou",
      "rating": 6.87,
      "classificacao_etaria": "A16",
      "imagem_original": "https://animefire.plus/img/animes/cossette-no-shouzou.webp",
      "imagem_pasta": "https://animefire.plus/img/animes/cossette-no-shouzou/",
      "secao": "legendados",
      "pagina": 57,
      "total_episodios": 3,
      "link_video": "https://animefire.plus/video/cossette-no-shouzou"
    },
    {
      "id": 700,
      "nome": "Coyote Ragtime Show",
      "link": "https://animefire.plus/animes/coyote-ragtime-show-todos-os-episodios",
      "texto_original": "Coyote Ragtime Show",
      "rating": 6.7,
      "classificacao_etaria": "A14",
      "imagem_original": "https://animefire.plus/img/animes/coyote-ragtime-show.webp",
      "imagem_pasta": "https://animefire.plus/img/animes/coyote-ragtime-show/",
      "secao": "legendados",
      "pagina": 100,
      "total_episodios": 12,
      "link_video": "https://animefire.plus/video/coyote-ragtime-show"
    },
    {
      "id": 702,
      "nome": "Cross Fight B-Daman (Dublado)",
      "link": "https://animefire.plus/animes/cross-fight-b-daman-dublado-todos-os-episodios",
      "texto_original": "Cross Fight B-Daman (Dublado)",
      "rating": 6.52,
      "classificacao_etaria": null,
      "imagem_original": "https://animefire.plus/img/animes/cross-fight-b-daman.webp",
      "imagem_pasta": "https://animefire.plus/img/animes/cross-fight-b-daman/",
      "secao": "dublados,legendados",
      "pagina": 25,
      "total_episodios": 10,
      "link_video": "https://animefire.plus/video/cross-fight-b-daman-dublado"
    },
    {
      "id": 705,
      "nome": "Crystal Blaze",
      "link": "https://animefire.plus/animes/crystal-blaze-todos-os-episodios",
      "texto_original": "Crystal Blaze",
      "rating": 6.19,
      "classificacao_etaria": "A16",
      "imagem_original": "https://animefire.plus/img/animes/crystal-blaze.webp",
      "imagem_pasta": "https://animefire.plus/img/animes/crystal-blaze/",
      "secao": "legendados",
      "pagina": 123,
      "total_episodios": 12,
      "link_video": "https://animefire.plus/video/crystal-blaze"
    },
    {
      "id": 706,
      "nome": "Cue!",
      "link": "https://animefire.plus/animes/cue-todos-os-episodios",
      "texto_original": "Cue!",
      "rating": 6.79,
      "classificacao_etaria": "A14",
      "imagem_original": "https://animefire.plus/img/animes/cue.webp",
      "imagem_pasta": "https://animefire.plus/img/animes/cue/",
      "secao": "legendados",
      "pagina": 35,
      "total_episodios": 24,
      "link_video": "https://animefire.plus/video/cue"
    },
    {
      "id": 708,
      "nome": "Cutie Honey Universe",
      "link": "https://animefire.plus/animes/cutie-honey-universe-todos-os-episodios",
      "texto_original": "Cutie Honey Universe",
      "rating": 5.5,
      "classificacao_etaria": "A16",
      "imagem_original": "https://animefire.plus/img/animes/cutie-honey-universe.webp",
      "imagem_pasta": "https://animefire.plus/img/animes/cutie-honey-universe/",
      "secao": "legendados",
      "pagina": 155,
      "total_episodios": 12,
      "link_video": "https://animefire.plus/video/cutie-honey-universe"
    },
    {
      "id": 710,
      "nome": "Cyclops Shoujo Saipuu",
      "link": "https://animefire.plus/animes/cyclops-shoujo-saipuu-todos-os-episodios",
      "texto_original": "Cyclops Shoujo Saipuu",
      "rating": 5.8,
      "classificacao_etaria": "A14",
      "imagem_original": "https://animefire.plus/img/animes/cyclops-shoujo-saipuu.webp",
      "imagem_pasta": "https://animefire.plus/img/animes/cyclops-shoujo-saipuu/",
      "secao": "legendados",
      "pagina": 43,
      "total_episodios": 12,
      "link_video": "https://animefire.plus/video/cyclops-shoujo-saipuu"
    },
    {
      "id": 711,
      "nome": "D_Cide Traumerei the Animation",
      "link": "https://animefire.plus/animes/d-cide-traumerei-the-animation-todos-os-episodios",
      "texto_original": "D_Cide Traumerei the Animation",
      "rating": 5.8,
      "classificacao_etaria": "A14",
      "imagem_original": "https://animefire.plus/img/animes/d-cide-traumerei-the-animation.webp",
      "imagem_pasta": "https://animefire.plus/img/animes/d-cide-traumerei-the-animation/",
      "secao": "legendados",
      "pagina": 40,
      "total_episodios": 13,
      "link_video": "https://animefire.plus/video/d-cide-traumerei-the-animation"
    },
    {
      "id": 713,
      "nome": "D.C.: Da Capo",
      "link": "https://animefire.plus/animes/d-c-da-capo-todos-os-episodios",
      "texto_original": "D.C.: Da Capo",
      "rating": 6.84,
      "classificacao_etaria": "A14",
      "imagem_original": "https://animefire.plus/img/animes/d-c-da-capo.webp",
      "imagem_pasta": "https://animefire.plus/img/animes/d-c-da-capo/",
      "secao": "legendados",
      "pagina": 127,
      "total_episodios": 26,
      "link_video": "https://animefire.plus/video/d-c-da-capo"
    },
    {
      "id": 715,
      "nome": "D.C.II: Da Capo II",
      "link": "https://animefire.plus/animes/d-c-ii-da-capo-ii-todos-os-episodios",
      "texto_original": "D.C.II: Da Capo II",
      "rating": 6.99,
      "classificacao_etaria": "A14",
      "imagem_original": "https://animefire.plus/img/animes/d-c-ii-da-capo-ii.webp",
      "imagem_pasta": "https://animefire.plus/img/animes/d-c-ii-da-capo-ii/",
      "secao": "legendados",
      "pagina": 124,
      "total_episodios": 13,
      "link_video": "https://animefire.plus/video/d-c-ii-da-capo-ii"
    },
    {
      "id": 716,
      "nome": "D.C.III: Da Capo III",
      "link": "https://animefire.plus/animes/d-c-iii-da-capo-iii-todos-os-episodios",
      "texto_original": "D.C.III: Da Capo III",
      "rating": 6.67,
      "classificacao_etaria": "A14",
      "imagem_original": "https://animefire.plus/img/animes/d-c-iii-da-capo-iii.webp",
      "imagem_pasta": "https://animefire.plus/img/animes/d-c-iii-da-capo-iii/",
      "secao": "legendados",
      "pagina": 140,
      "total_episodios": 1,
      "link_video": "https://animefire.plus/video/d-c-iii-da-capo-iii"
    },
    {
      "id": 720,
      "nome": "D4 Princess",
      "link": "https://animefire.plus/animes/d4-princess-todos-os-episodios",
      "texto_original": "D4 Princess",
      "rating": 6.13,
      "classificacao_etaria": "A14",
      "imagem_original": "https://animefire.plus/img/animes/d4-princess.webp",
      "imagem_pasta": "https://animefire.plus/img/animes/d4-princess/",
      "secao": "legendados",
      "pagina": 72,
      "total_episodios": 24,
      "link_video": "https://animefire.plus/video/d4-princess"
    },
    {
      "id": 725,
      "nome": "Dagashi Kashi",
      "link": "https://animefire.plus/animes/dagashi-kashi-todos-os-episodios",
      "texto_original": "Dagashi Kashi",
      "rating": 6.7,
      "classificacao_etaria": "A14",
      "imagem_original": "https://animefire.plus/img/animes/dagashi-kashi.webp",
      "imagem_pasta": "https://animefire.plus/img/animes/dagashi-kashi/",
      "secao": "legendados",
      "pagina": 171,
      "total_episodios": 0,
      "link_video": "https://animefire.plus/video/dagashi-kashi"
    },
    {
      "id": 726,
      "nome": "Dagashi Kashi 2",
      "link": "https://animefire.plus/animes/dagashi-kashi-2-todos-os-episodios",
      "texto_original": "Dagashi Kashi 2",
      "rating": 6.99,
      "classificacao_etaria": "A14",
      "imagem_original": "https://animefire.plus/img/animes/dagashi-kashi-2.webp",
      "imagem_pasta": "https://animefire.plus/img/animes/dagashi-kashi-2/",
      "secao": "legendados",
      "pagina": 127,
      "total_episodios": 7,
      "link_video": "https://animefire.plus/video/dagashi-kashi-2"
    },
    {
      "id": 728,
      "nome": "Daimajuu Gekitou: Hagane no Oni",
      "link": "https://animefire.plus/animes/daimajuu-gekitou-hagane-no-oni-todos-os-episodios",
      "texto_original": "Daimajuu Gekitou: Hagane no Oni",
      "rating": 5.29,
      "classificacao_etaria": "A14",
      "imagem_original": "https://animefire.plus/img/animes/daimajuu-gekitou-hagane-no-oni.webp",
      "imagem_pasta": "https://animefire.plus/img/animes/daimajuu-gekitou-hagane-no-oni/",
      "secao": "legendados",
      "pagina": 77,
      "total_episodios": 1,
      "link_video": "https://animefire.plus/video/daimajuu-gekitou-hagane-no-oni"
    },
    {
      "id": 730,
      "nome": "Dakara Boku wa, H ga Dekinai.",
      "link": "https://animefire.plus/animes/dakara-boku-wa-h-ga-dekinai-todos-os-episodios",
      "texto_original": "Dakara Boku wa, H ga Dekinai.",
      "rating": 6.79,
      "classificacao_etaria": "A18",
      "imagem_original": "https://animefire.plus/img/animes/dakara-boku-wa-h-ga-dekinai.webp",
      "imagem_pasta": "https://animefire.plus/img/animes/dakara-boku-wa-h-ga-dekinai/",
      "secao": "legendados",
      "pagina": 95,
      "total_episodios": 0,
      "link_video": "https://animefire.plus/video/dakara-boku-wa-h-ga-dekinai"
    },
    {
      "id": 732,
      "nome": "Dallos",
      "link": "https://animefire.plus/animes/dallos-todos-os-episodios",
      "texto_original": "Dallos",
      "rating": 5.99,
      "classificacao_etaria": "A14",
      "imagem_original": "https://animefire.plus/img/animes/dallos.webp",
      "imagem_pasta": "https://animefire.plus/img/animes/dallos/",
      "secao": "legendados",
      "pagina": 54,
      "total_episodios": 4,
      "link_video": "https://animefire.plus/video/dallos"
    }
  ],
  "pagination": {
    "current_page": 18,
    "per_page": 20,
    "total_items": 1805,
    "total_pages": 91,
    "has_next": true,
    "has_prev": true
  }
}
