{
  "message": "Animes com rating entre 5 e 7",
  "rating_range": {
    "min": 5,
    "max": 7
  },
  "data": [
    {
      "id": 437,
      "nome": "Blue Drop: Tenshi-tachi no Gikyoku",
      "link": "https://animefire.plus/animes/blue-drop-tenshi-tachi-no-gikyoku-todos-os-episodios",
      "texto_original": "Blue Drop: Tenshi-tachi no Gikyoku",
      "rating": 6.75,
      "classificacao_etaria": "A14",
      "imagem_original": "https://animefire.plus/img/animes/blue-drop-tenshi-tachi-no-gikyoku.webp",
      "imagem_pasta": "https://animefire.plus/img/animes/blue-drop-tenshi-tachi-no-gikyoku/",
      "secao": "legendados",
      "pagina": 75,
      "total_episodios": 13,
      "link_video": "https://animefire.plus/video/blue-drop-tenshi-tachi-no-gikyoku"
    },
    {
      "id": 442,
      "nome": "Blue Reflection Ray (Dublado)",
      "link": "https://animefire.plus/animes/blue-reflection-ray-dublado-todos-os-episodios",
      "texto_original": "Blue Reflection Ray (Dublado)",
      "rating": 5.87,
      "classificacao_etaria": "A14",
      "imagem_original": "https://animefire.plus/img/animes/blue-reflection-ray.webp",
      "imagem_pasta": "https://animefire.plus/img/animes/blue-reflection-ray/",
      "secao": "dublados,legendados",
      "pagina": 10,
      "total_episodios": 24,
      "link_video": "https://animefire.plus/video/blue-reflection-ray-dublado"
    },
    {
      "id": 444,
      "nome": "Blue Seed 2",
      "link": "https://animefire.plus/animes/blue-seed-2-todos-os-episodios",
      "texto_original": "Blue Seed 2",
      "rating": 6.45,
      "classificacao_etaria": "A16",
      "imagem_original": "https://animefire.plus/img/animes/blue-seed-2.webp",
      "imagem_pasta": "https://animefire.plus/img/animes/blue-seed-2/",
      "secao": "legendados",
      "pagina": 54,
      "total_episodios": 1,
      "link_video": "https://animefire.plus/video/blue-seed-2"
    },
    {
      "id": 460,
      "nome": "Boku no Hero Academia: Memories (Dublado)",
      "link": "https://animefire.plus/animes/boku-no-hero-academia-memories-dublado-todos-os-episodios",
      "texto_original": "Boku no Hero Academia: Memories (Dublado)",
      "rating": 6.66,
      "classificacao_etaria": "A14",
      "imagem_original": "https://animefire.plus/img/animes/boku-no-hero-academia-memories.webp",
      "imagem_pasta": "https://animefire.plus/img/animes/boku-no-hero-academia-memories/",
      "secao": "dublados",
      "pagina": 2,
      "total_episodios": 0,
      "link_video": "https://animefire.plus/video/boku-no-hero-academia-memories-dublado"
    },
    {
      "id": 461,
      "nome": "Boku no Imouto wa \"Osaka Okan\"",
      "link": "https://animefire.plus/animes/boku-no-imouto-wa-osaka-okan-todos-os-episodios",
      "texto_original": "Boku no Imouto wa \"Osaka Okan\"",
      "rating": 5.85,
      "classificacao_etaria": "A14",
      "imagem_original": "https://animefire.plus/img/animes/boku-no-imouto-wa-osaka-okan.webp",
      "imagem_pasta": "https://animefire.plus/img/animes/boku-no-imouto-wa-osaka-okan/",
      "secao": "legendados",
      "pagina": 123,
      "total_episodios": 0,
      "link_video": "https://animefire.plus/video/boku-no-imouto-wa-osaka-okan"
    },
    {
      "id": 462,
      "nome": "Boku no Kanojo ga Majimesugiru Sho-bitch na Ken",
      "link": "https://animefire.plus/animes/boku-no-kanojo-ga-majimesugiru-sho-bitch-na-ken-todos-os-episodios",
      "texto_original": "Boku no Kanojo ga Majimesugiru Sho-bitch na Ken",
      "rating": 6.45,
      "classificacao_etaria": "A14",
      "imagem_original": "https://animefire.plus/img/animes/boku-no-kanojo-ga-majimesugiru-sho-bitch-na-ken.webp",
      "imagem_pasta": "https://animefire.plus/img/animes/boku-no-kanojo-ga-majimesugiru-sho-bitch-na-ken/",
      "secao": "legendados",
      "pagina": 141,
      "total_episodios": 10,
      "link_video": "https://animefire.plus/video/boku-no-kanojo-ga-majimesugiru-sho-bitch-na-ken"
    },
    {
      "id": 465,
      "nome": "Boku no Tonari ni Ankoku Hakaishin ga Imasu.",
      "link": "https://animefire.plus/animes/boku-no-tonari-ni-ankoku-hakaishin-ga-imasu-todos-os-episodios",
      "texto_original": "Boku no Tonari ni Ankoku Hakaishin ga Imasu.",
      "rating": 6.64,
      "classificacao_etaria": "A14",
      "imagem_original": "https://animefire.plus/img/animes/boku-no-tonari-ni-ankoku-hakaishin-ga-imasu.webp",
      "imagem_pasta": "https://animefire.plus/img/animes/boku-no-tonari-ni-ankoku-hakaishin-ga-imasu/",
      "secao": "legendados",
      "pagina": 92,
      "total_episodios": 5,
      "link_video": "https://animefire.plus/video/boku-no-tonari-ni-ankoku-hakaishin-ga-imasu"
    },
    {
      "id": 466,
      "nome": "Boku no Tsuma wa Kanjou ga Nai",
      "link": "https://animefire.plus/animes/boku-no-tsuma-wa-kanjou-ga-nai-todos-os-episodios",
      "texto_original": "Boku no Tsuma wa Kanjou ga Nai",
      "rating": 6.75,
      "classificacao_etaria": "A14",
      "imagem_original": "https://animefire.plus/img/animes/boku-no-tsuma-wa-kanjou-ga-nai.webp",
      "imagem_pasta": "https://animefire.plus/img/animes/boku-no-tsuma-wa-kanjou-ga-nai/",
      "secao": "legendados",
      "pagina": 12,
      "total_episodios": 12,
      "link_video": "https://animefire.plus/video/boku-no-tsuma-wa-kanjou-ga-nai"
    },
    {
      "id": 467,
      "nome": "Boku to Roboko",
      "link": "https://animefire.plus/animes/boku-to-roboko-todos-os-episodios",
      "texto_original": "Boku to Roboko",
      "rating": 6.83,
      "classificacao_etaria": "A14",
      "imagem_original": "https://animefire.plus/img/animes/boku-to-roboko.webp",
      "imagem_pasta": "https://animefire.plus/img/animes/boku-to-roboko/",
      "secao": "legendados,lancamentos",
      "pagina": 26,
      "total_episodios": 1,
      "link_video": "https://animefire.plus/video/boku-to-roboko"
    },
    {
      "id": 469,
      "nome": "Boku wa Tomodachi ga Sukunai Episode 0",
      "link": "https://animefire.plus/animes/boku-wa-tomodachi-ga-sukunai-episode-0-todos-os-episodios",
      "texto_original": "Boku wa Tomodachi ga Sukunai Episode 0",
      "rating": 6.74,
      "classificacao_etaria": "A14",
      "imagem_original": "https://animefire.plus/img/animes/boku-wa-tomodachi-ga-sukunai-episode-0.webp",
      "imagem_pasta": "https://animefire.plus/img/animes/boku-wa-tomodachi-ga-sukunai-episode-0/",
      "secao": "legendados",
      "pagina": 43,
      "total_episodios": 1,
      "link_video": "https://animefire.plus/video/boku-wa-tomodachi-ga-sukunai-episode-0"
    },
    {
      "id": 472,
      "nome": "Bokura no Ameiro Protocol",
      "link": "https://animefire.plus/animes/bokura-no-ameiro-protocol-todos-os-episodios",
      "texto_original": "Bokura no Ameiro Protocol",
      "rating": 6.09,
      "classificacao_etaria": "A14",
      "imagem_original": "https://animefire.plus/img/animes/bokura-no-ameiro-protocol.webp",
      "imagem_pasta": "https://animefire.plus/img/animes/bokura-no-ameiro-protocol/",
      "secao": "legendados",
      "pagina": 19,
      "total_episodios": 12,
      "link_video": "https://animefire.plus/video/bokura-no-ameiro-protocol"
    },
    {
      "id": 475,
      "nome": "Bokusatsu Tenshi Dokuro-chan",
      "link": "https://animefire.plus/animes/bokusatsu-tenshi-dokuro-chan-todos-os-episodios",
      "texto_original": "Bokusatsu Tenshi Dokuro-chan",
      "rating": 6.71,
      "classificacao_etaria": "A16",
      "imagem_original": "https://animefire.plus/img/animes/bokusatsu-tenshi-dokuro-chan.webp",
      "imagem_pasta": "https://animefire.plus/img/animes/bokusatsu-tenshi-dokuro-chan/",
      "secao": "legendados",
      "pagina": 160,
      "total_episodios": 4,
      "link_video": "https://animefire.plus/video/bokusatsu-tenshi-dokuro-chan"
    },
    {
      "id": 476,
      "nome": "Bokusatsu Tenshi Dokuro-chan 2",
      "link": "https://animefire.plus/animes/bokusatsu-tenshi-dokuro-chan-2-todos-os-episodios",
      "texto_original": "Bokusatsu Tenshi Dokuro-chan 2",
      "rating": 6.8,
      "classificacao_etaria": "A16",
      "imagem_original": "https://animefire.plus/img/animes/bokusatsu-tenshi-dokuro-chan-2.webp",
      "imagem_pasta": "https://animefire.plus/img/animes/bokusatsu-tenshi-dokuro-chan-2/",
      "secao": "legendados",
      "pagina": 104,
      "total_episodios": 2,
      "link_video": "https://animefire.plus/video/bokusatsu-tenshi-dokuro-chan-2"
    },
    {
      "id": 483,
      "nome": "Boruto: Naruto Next Generations (Dublado)",
      "link": "https://animefire.plus/animes/boruto-naruto-next-generations-dublado-todos-os-episodios",
      "texto_original": "Boruto: Naruto Next Generations (Dublado)",
      "rating": 5.9,
      "classificacao_etaria": "A14",
      "imagem_original": "https://animefire.plus/img/animes/boruto-naruto-next-generations.webp",
      "imagem_pasta": "https://animefire.plus/img/animes/boruto-naruto-next-generations/",
      "secao": "dublados,legendados,lancamentos",
      "pagina": 13,
      "total_episodios": 104,
      "link_video": "https://animefire.plus/video/boruto-naruto-next-generations-dublado"
    },
    {
      "id": 484,
      "nome": "Botsuraku Yotei no Kizoku dakedo, Hima Datta kara Mahou wo Kiwametemita",
      "link": "https://animefire.plus/animes/botsuraku-yotei-no-kizoku-dakedo-hima-datta-kara-mahou-wo-kiwametemita-todos-os-episodios",
      "texto_original": "Botsuraku Yotei no Kizoku dakedo, Hima Datta kara Mahou wo Kiwametemita",
      "rating": 6.08,
      "classificacao_etaria": "A14",
      "imagem_original": "https://animefire.plus/img/animes/botsuraku-yotei-no-kizoku-dakedo-hima-datta-kara-mahou-wo-kiwametemita.webp",
      "imagem_pasta": "https://animefire.plus/img/animes/botsuraku-yotei-no-kizoku-dakedo-hima-datta-kara-mahou-wo-kiwametemita/",
      "secao": "legendados",
      "pagina": 7,
      "total_episodios": 12,
      "link_video": "https://animefire.plus/video/botsuraku-yotei-no-kizoku-dakedo-hima-datta-kara-mahou-wo-kiwametemita"
    },
    {
      "id": 486,
      "nome": "Bouken Ou Beet Excellion",
      "link": "https://animefire.plus/animes/bouken-ou-beet-excellion-todos-os-episodios",
      "texto_original": "Bouken Ou Beet Excellion",
      "rating": 6.78,
      "classificacao_etaria": "A10",
      "imagem_original": "https://animefire.plus/img/animes/bouken-ou-beet-excellion.webp",
      "imagem_pasta": "https://animefire.plus/img/animes/bouken-ou-beet-excellion/",
      "secao": "legendados",
      "pagina": 125,
      "total_episodios": 24,
      "link_video": "https://animefire.plus/video/bouken-ou-beet-excellion"
    },
    {
      "id": 487,
      "nome": "Boukensha ni Naritai to Miyako ni Deteitta Musume ga S-Rank ni Natteta",
      "link": "https://animefire.plus/animes/boukensha-ni-naritai-to-miyako-ni-deteitta-musume-ga-s-rank-ni-natteta-todos-os-episodios",
      "texto_original": "Boukensha ni Naritai to Miyako ni Deteitta Musume ga S-Rank ni Natteta",
      "rating": 6.76,
      "classificacao_etaria": "A14",
      "imagem_original": "https://animefire.plus/img/animes/boukensha-ni-naritai-to-miyako-ni-deteitta-musume-ga-s-rank-ni-natteta.webp",
      "imagem_pasta": "https://animefire.plus/img/animes/boukensha-ni-naritai-to-miyako-ni-deteitta-musume-ga-s-rank-ni-natteta/",
      "secao": "legendados",
      "pagina": 21,
      "total_episodios": 13,
      "link_video": "https://animefire.plus/video/boukensha-ni-naritai-to-miyako-ni-deteitta-musume-ga-s-rank-ni-natteta"
    },
    {
      "id": 488,
      "nome": "Boukyaku Battery",
      "link": "https://animefire.plus/animes/boukyaku-battery-todos-os-episodios",
      "texto_original": "Boukyaku Battery",
      "rating": 6.2,
      "classificacao_etaria": "A14",
      "imagem_original": "https://animefire.plus/img/animes/boukyaku-battery.webp",
      "imagem_pasta": "https://animefire.plus/img/animes/boukyaku-battery/",
      "secao": "legendados",
      "pagina": 14,
      "total_episodios": 0,
      "link_video": "https://animefire.plus/video/boukyaku-battery"
    },
    {
      "id": 491,
      "nome": "Boushoku no Berserk",
      "link": "https://animefire.plus/animes/boushoku-no-berserk-todos-os-episodios",
      "texto_original": "Boushoku no Berserk",
      "rating": 6.73,
      "classificacao_etaria": "A14",
      "imagem_original": "https://animefire.plus/img/animes/boushoku-no-berserk.webp",
      "imagem_pasta": "https://animefire.plus/img/animes/boushoku-no-berserk/",
      "secao": "legendados",
      "pagina": 20,
      "total_episodios": 12,
      "link_video": "https://animefire.plus/video/boushoku-no-berserk"
    },
    {
      "id": 492,
      "nome": "Boys Be...",
      "link": "https://animefire.plus/animes/boys-be-todos-os-episodios",
      "texto_original": "Boys Be...",
      "rating": 6.46,
      "classificacao_etaria": "A14",
      "imagem_original": "https://animefire.plus/img/animes/boys-be.webp",
      "imagem_pasta": "https://animefire.plus/img/animes/boys-be/",
      "secao": "legendados",
      "pagina": 54,
      "total_episodios": 13,
      "link_video": "https://animefire.plus/video/boys-be"
    }
  ],
  "pagination": {
    "current_page": 11,
    "per_page": 20,
    "total_items": 1805,
    "total_pages": 91,
    "has_next": true,
    "has_prev": true
  }
}
