{
  "message": "Animes com rating entre 5 e 7",
  "rating_range": {
    "min": 5,
    "max": 7
  },
  "data": [
    {
      "id": 2302,
      "nome": "Maebashi Witches",
      "link": "https://animefire.plus/animes/maebashi-witches-todos-os-episodios",
      "texto_original": "Maebashi Witches",
      "rating": 7,
      "classificacao_etaria": "A14",
      "imagem_original": "https://animefire.plus/img/animes/maebashi-witches.webp",
      "imagem_pasta": "https://animefire.plus/img/animes/maebashi-witches/",
      "secao": "legendados",
      "pagina": 4,
      "total_episodios": 12,
      "link_video": "https://animefire.plus/video/maebashi-witches"
    },
    {
      "id": 2308,
      "nome": "Magia Record: Mahou Shoujo Madoka☆Magica Gaiden (TV) (Dublado)",
      "link": "https://animefire.plus/animes/magia-record-mahou-shoujo-madoka-magica-gaiden-tv-dublado-todos-os-episodios",
      "texto_original": "Magia Record: Mahou Shoujo Madoka☆Magica Gaiden (TV) (Dublado)",
      "rating": 6.79,
      "classificacao_etaria": "A14",
      "imagem_original": "https://animefire.plus/img/animes/magia-record-mahou-shoujo-madoka-magica-gaiden-tv.webp",
      "imagem_pasta": "https://animefire.plus/img/animes/magia-record-mahou-shoujo-madoka-magica-gaiden-tv/",
      "secao": "dublados,legendados",
      "pagina": 11,
      "total_episodios": 10,
      "link_video": "https://animefire.plus/video/magia-record-mahou-shoujo-madoka-magica-gaiden-tv-dublado"
    },
    {
      "id": 2311,
      "nome": "Magia Record: Mahou Shoujo Madoka☆Magica Gaiden (TV) Final Season - Asaki Yume no Akatsuki (Dublado)",
      "link": "https://animefire.plus/animes/magia-record-mahou-shoujo-madoka-magica-gaiden-tv-final-season---asaki-yume-no-akatsuki-dublado-todos-os-episodios",
      "texto_original": "Magia Record: Mahou Shoujo Madoka☆Magica Gaiden (TV) Final Season - Asaki Yume no Akatsuki (Dublado)",
      "rating": 6.81,
      "classificacao_etaria": "A14",
      "imagem_original": "https://animefire.plus/img/animes/magia-record-mahou-shoujo-madoka-magica-gaiden-tv-final-season---asaki-yume-no-akatsuki.webp",
      "imagem_pasta": "https://animefire.plus/img/animes/magia-record-mahou-shoujo-madoka-magica-gaiden-tv-final-season---asaki-yume-no-akatsuki/",
      "secao": "dublados,legendados",
      "pagina": 11,
      "total_episodios": 0,
      "link_video": "https://animefire.plus/video/magia-record-mahou-shoujo-madoka-magica-gaiden-tv-final-season---asaki-yume-no-akatsuki-dublado"
    },
    {
      "id": 2316,
      "nome": "Magic Maker: Isekai Mahou no Tsukurikata (Dublado)",
      "link": "https://animefire.plus/animes/magic-maker-isekai-mahou-no-tsukurikata-dublado-todos-os-episodios",
      "texto_original": "Magic Maker: Isekai Mahou no Tsukurikata (Dublado)",
      "rating": 6.82,
      "classificacao_etaria": "A14",
      "imagem_original": "https://animefire.plus/img/animes/magic-maker-isekai-mahou-no-tsukurikata.webp",
      "imagem_pasta": "https://animefire.plus/img/animes/magic-maker-isekai-mahou-no-tsukurikata/",
      "secao": "dublados,legendados,lancamentos",
      "pagina": 2,
      "total_episodios": 12,
      "link_video": "https://animefire.plus/video/magic-maker-isekai-mahou-no-tsukurikata-dublado"
    },
    {
      "id": 2318,
      "nome": "Magical☆Star Kanon 100%",
      "link": "https://animefire.plus/animes/magical-star-kanon-100-todos-os-episodios",
      "texto_original": "Magical☆Star Kanon 100%",
      "rating": 6.82,
      "classificacao_etaria": "A14",
      "imagem_original": "https://animefire.plus/img/animes/magical-star-kanon-100.webp",
      "imagem_pasta": "https://animefire.plus/img/animes/magical-star-kanon-100/",
      "secao": "legendados",
      "pagina": 64,
      "total_episodios": 1,
      "link_video": "https://animefire.plus/video/magical-star-kanon-100"
    },
    {
      "id": 2319,
      "nome": "Magikano",
      "link": "https://animefire.plus/animes/magikano-todos-os-episodios",
      "texto_original": "Magikano",
      "rating": 6.46,
      "classificacao_etaria": "A14",
      "imagem_original": "https://animefire.plus/img/animes/magikano.webp",
      "imagem_pasta": "https://animefire.plus/img/animes/magikano/",
      "secao": "legendados",
      "pagina": 118,
      "total_episodios": 0,
      "link_video": "https://animefire.plus/video/magikano"
    },
    {
      "id": 2327,
      "nome": "Mahou Sensou",
      "link": "https://animefire.plus/animes/mahou-sensou-todos-os-episodios",
      "texto_original": "Mahou Sensou",
      "rating": 6.14,
      "classificacao_etaria": "A14",
      "imagem_original": "https://animefire.plus/img/animes/mahou-sensou.webp",
      "imagem_pasta": "https://animefire.plus/img/animes/mahou-sensou/",
      "secao": "legendados",
      "pagina": 122,
      "total_episodios": 12,
      "link_video": "https://animefire.plus/video/mahou-sensou"
    },
    {
      "id": 2329,
      "nome": "Mahou Shoujo Lalabel: Umi ga Yobu Natsuyasumi",
      "link": "https://animefire.plus/animes/mahou-shoujo-lalabel-umi-ga-yobu-natsuyasumi-todos-os-episodios",
      "texto_original": "Mahou Shoujo Lalabel: Umi ga Yobu Natsuyasumi",
      "rating": 5.78,
      "classificacao_etaria": null,
      "imagem_original": "https://animefire.plus/img/animes/mahou-shoujo-lalabel-umi-ga-yobu-natsuyasumi.webp",
      "imagem_pasta": "https://animefire.plus/img/animes/mahou-shoujo-lalabel-umi-ga-yobu-natsuyasumi/",
      "secao": "legendados",
      "pagina": 83,
      "total_episodios": 1,
      "link_video": "https://animefire.plus/video/mahou-shoujo-lalabel-umi-ga-yobu-natsuyasumi"
    },
    {
      "id": 2333,
      "nome": "Mahou Shoujo Lyrical Nanoha ViVid",
      "link": "https://animefire.plus/animes/mahou-shoujo-lyrical-nanoha-vivid-todos-os-episodios",
      "texto_original": "Mahou Shoujo Lyrical Nanoha ViVid",
      "rating": 6.76,
      "classificacao_etaria": "A14",
      "imagem_original": "https://animefire.plus/img/animes/mahou-shoujo-lyrical-nanoha-vivid.webp",
      "imagem_pasta": "https://animefire.plus/img/animes/mahou-shoujo-lyrical-nanoha-vivid/",
      "secao": "legendados",
      "pagina": 60,
      "total_episodios": 0,
      "link_video": "https://animefire.plus/video/mahou-shoujo-lyrical-nanoha-vivid"
    },
    {
      "id": 2335,
      "nome": "Mahou Shoujo Magical Destroyers",
      "link": "https://animefire.plus/animes/mahou-shoujo-magical-destroyers-todos-os-episodios",
      "texto_original": "Mahou Shoujo Magical Destroyers",
      "rating": 6.25,
      "classificacao_etaria": "A14",
      "imagem_original": "https://animefire.plus/img/animes/mahou-shoujo-magical-destroyers.jpg",
      "imagem_pasta": "https://animefire.plus/img/animes/mahou-shoujo-magical-destroyers/",
      "secao": "legendados",
      "pagina": 23,
      "total_episodios": 12,
      "link_video": "https://animefire.plus/video/mahou-shoujo-magical-destroyers"
    },
    {
      "id": 2336,
      "nome": "Mahou Shoujo Nante Mou Ii Desukara.",
      "link": "https://animefire.plus/animes/mahou-shoujo-nante-mou-ii-desukara-todos-os-episodios",
      "texto_original": "Mahou Shoujo Nante Mou Ii Desukara.",
      "rating": 5.97,
      "classificacao_etaria": "A14",
      "imagem_original": "https://animefire.plus/img/animes/mahou-shoujo-nante-mou-ii-desukara.webp",
      "imagem_pasta": "https://animefire.plus/img/animes/mahou-shoujo-nante-mou-ii-desukara/",
      "secao": "legendados",
      "pagina": 140,
      "total_episodios": 1,
      "link_video": "https://animefire.plus/video/mahou-shoujo-nante-mou-ii-desukara"
    },
    {
      "id": 2337,
      "nome": "Mahou Shoujo Nante Mou Ii Desukara. Second Season",
      "link": "https://animefire.plus/animes/mahou-shoujo-nante-mou-ii-desukara-second-season-todos-os-episodios",
      "texto_original": "Mahou Shoujo Nante Mou Ii Desukara. Second Season",
      "rating": 6.08,
      "classificacao_etaria": "A14",
      "imagem_original": "https://animefire.plus/img/animes/mahou-shoujo-nante-mou-ii-desukara-second-season.webp",
      "imagem_pasta": "https://animefire.plus/img/animes/mahou-shoujo-nante-mou-ii-desukara-second-season/",
      "secao": "legendados",
      "pagina": 78,
      "total_episodios": 12,
      "link_video": "https://animefire.plus/video/mahou-shoujo-nante-mou-ii-desukara-second-season"
    },
    {
      "id": 2339,
      "nome": "Mahou Shoujo Ore",
      "link": "https://animefire.plus/animes/mahou-shoujo-ore-todos-os-episodios",
      "texto_original": "Mahou Shoujo Ore",
      "rating": 6.7,
      "classificacao_etaria": "A14",
      "imagem_original": "https://animefire.plus/img/animes/mahou-shoujo-ore.webp",
      "imagem_pasta": "https://animefire.plus/img/animes/mahou-shoujo-ore/",
      "secao": "legendados",
      "pagina": 121,
      "total_episodios": 12,
      "link_video": "https://animefire.plus/video/mahou-shoujo-ore"
    },
    {
      "id": 2340,
      "nome": "Mahou Shoujo Site",
      "link": "https://animefire.plus/animes/mahou-shoujo-site-todos-os-episodios",
      "texto_original": "Mahou Shoujo Site",
      "rating": 6.56,
      "classificacao_etaria": "A16",
      "imagem_original": "https://animefire.plus/img/animes/mahou-shoujo-site.webp",
      "imagem_pasta": "https://animefire.plus/img/animes/mahou-shoujo-site/",
      "secao": "legendados",
      "pagina": 177,
      "total_episodios": 12,
      "link_video": "https://animefire.plus/video/mahou-shoujo-site"
    },
    {
      "id": 2341,
      "nome": "Mahou Shoujo Taisen",
      "link": "https://animefire.plus/animes/mahou-shoujo-taisen-todos-os-episodios",
      "texto_original": "Mahou Shoujo Taisen",
      "rating": 5.79,
      "classificacao_etaria": "A14",
      "imagem_original": "https://animefire.plus/img/animes/mahou-shoujo-taisen.webp",
      "imagem_pasta": "https://animefire.plus/img/animes/mahou-shoujo-taisen/",
      "secao": "legendados",
      "pagina": 159,
      "total_episodios": 11,
      "link_video": "https://animefire.plus/video/mahou-shoujo-taisen"
    },
    {
      "id": 2342,
      "nome": "Mahou Shoujo Tokushusen Asuka",
      "link": "https://animefire.plus/animes/mahou-shoujo-tokushusen-asuka-todos-os-episodios",
      "texto_original": "Mahou Shoujo Tokushusen Asuka",
      "rating": 6.34,
      "classificacao_etaria": "A16",
      "imagem_original": "https://animefire.plus/img/animes/mahou-shoujo-tokushusen-asuka.webp",
      "imagem_pasta": "https://animefire.plus/img/animes/mahou-shoujo-tokushusen-asuka/",
      "secao": "legendados",
      "pagina": 157,
      "total_episodios": 12,
      "link_video": "https://animefire.plus/video/mahou-shoujo-tokushusen-asuka"
    },
    {
      "id": 2349,
      "nome": "Mahouka Koukou no Yuutousei",
      "link": "https://animefire.plus/animes/mahouka-koukou-no-yuutousei-todos-os-episodios",
      "texto_original": "Mahouka Koukou no Yuutousei",
      "rating": 6.68,
      "classificacao_etaria": "A14",
      "imagem_original": "https://animefire.plus/img/animes/mahouka-koukou-no-yuutousei.webp",
      "imagem_pasta": "https://animefire.plus/img/animes/mahouka-koukou-no-yuutousei/",
      "secao": "legendados",
      "pagina": 45,
      "total_episodios": 0,
      "link_video": "https://animefire.plus/video/mahouka-koukou-no-yuutousei"
    },
    {
      "id": 2350,
      "nome": "Mahoutsukai ni Narenakatta Onnanoko no Hanashi",
      "link": "https://animefire.plus/animes/mahoutsukai-ni-narenakatta-onnanoko-no-hanashi-todos-os-episodios",
      "texto_original": "Mahoutsukai ni Narenakatta Onnanoko no Hanashi",
      "rating": 6.16,
      "classificacao_etaria": "A14",
      "imagem_original": "https://animefire.plus/img/animes/mahoutsukai-ni-narenakatta-onnanoko-no-hanashi.webp",
      "imagem_pasta": "https://animefire.plus/img/animes/mahoutsukai-ni-narenakatta-onnanoko-no-hanashi/",
      "secao": "legendados",
      "pagina": 10,
      "total_episodios": 12,
      "link_video": "https://animefire.plus/video/mahoutsukai-ni-narenakatta-onnanoko-no-hanashi"
    },
    {
      "id": 2352,
      "nome": "Mahoutsukai no Yakusoku",
      "link": "https://animefire.plus/animes/mahoutsukai-no-yakusoku-todos-os-episodios",
      "texto_original": "Mahoutsukai no Yakusoku",
      "rating": 5.49,
      "classificacao_etaria": "A14",
      "imagem_original": "https://animefire.plus/img/animes/mahoutsukai-no-yakusoku.webp",
      "imagem_pasta": "https://animefire.plus/img/animes/mahoutsukai-no-yakusoku/",
      "secao": "legendados",
      "pagina": 7,
      "total_episodios": 12,
      "link_video": "https://animefire.plus/video/mahoutsukai-no-yakusoku"
    },
    {
      "id": 2360,
      "nome": "Mahoutsukai Reimeiki (Dublado)",
      "link": "https://animefire.plus/animes/mahoutsukai-reimeiki-dublado-todos-os-episodios",
      "texto_original": "Mahoutsukai Reimeiki (Dublado)",
      "rating": 6.39,
      "classificacao_etaria": "A14",
      "imagem_original": "https://animefire.plus/img/animes/mahoutsukai-reimeiki.webp",
      "imagem_pasta": "https://animefire.plus/img/animes/mahoutsukai-reimeiki/",
      "secao": "dublados,legendados",
      "pagina": 11,
      "total_episodios": 12,
      "link_video": "https://animefire.plus/video/mahoutsukai-reimeiki-dublado"
    }
  ],
  "pagination": {
    "current_page": 50,
    "per_page": 20,
    "total_items": 1805,
    "total_pages": 91,
    "has_next": true,
    "has_prev": true
  }
}
