{
  "message": "Animes com rating entre 5 e 7",
  "rating_range": {
    "min": 5,
    "max": 7
  },
  "data": [
    {
      "id": 2741,
      "nome": "Ningen Fushin no Boukensha-tachi ga Sekai wo Sukuu you desu (Dublado)",
      "link": "https://animefire.plus/animes/ningen-fushin-no-boukensha-tachi-ga-sekai-wo-sukuu-you-desu-dublado-todos-os-episodios",
      "texto_original": "Ningen Fushin no Boukensha-tachi ga Sekai wo Sukuu you desu (Dublado)",
      "rating": 6.33,
      "classificacao_etaria": "A14",
      "imagem_original": "https://animefire.plus/img/animes/ningen-fushin-no-boukensha-tachi-ga-sekai-wo-sukuu-you-desu.webp",
      "imagem_pasta": "https://animefire.plus/img/animes/ningen-fushin-no-boukensha-tachi-ga-sekai-wo-sukuu-you-desu/",
      "secao": "dublados,legendados",
      "pagina": 6,
      "total_episodios": 12,
      "link_video": "https://animefire.plus/video/ningen-fushin-no-boukensha-tachi-ga-sekai-wo-sukuu-you-desu-dublado"
    },
    {
      "id": 2743,
      "nome": "Ninja Kamui (Dublado)",
      "link": "https://animefire.plus/animes/ninja-kamui-dublado-todos-os-episodios",
      "texto_original": "Ninja Kamui (Dublado)",
      "rating": 6.97,
      "classificacao_etaria": "A16",
      "imagem_original": "https://animefire.plus/img/animes/ninja-kamui.webp",
      "imagem_pasta": "https://animefire.plus/img/animes/ninja-kamui/",
      "secao": "dublados,legendados,lancamentos",
      "pagina": 3,
      "total_episodios": 13,
      "link_video": "https://animefire.plus/video/ninja-kamui-dublado"
    },
    {
      "id": 2744,
      "nome": "Ninja Ryuukenden",
      "link": "https://animefire.plus/animes/ninja-ryuukenden-todos-os-episodios",
      "texto_original": "Ninja Ryuukenden",
      "rating": 5.68,
      "classificacao_etaria": "A16",
      "imagem_original": "https://animefire.plus/img/animes/ninja-ryuukenden.webp",
      "imagem_pasta": "https://animefire.plus/img/animes/ninja-ryuukenden/",
      "secao": "legendados",
      "pagina": 77,
      "total_episodios": 1,
      "link_video": "https://animefire.plus/video/ninja-ryuukenden"
    },
    {
      "id": 2745,
      "nome": "Ninja Slayer From Animation",
      "link": "https://animefire.plus/animes/ninja-slayer-from-animation-todos-os-episodios",
      "texto_original": "Ninja Slayer From Animation",
      "rating": 6.59,
      "classificacao_etaria": "A16",
      "imagem_original": "https://animefire.plus/img/animes/ninja-slayer-from-animation.webp",
      "imagem_pasta": "https://animefire.plus/img/animes/ninja-slayer-from-animation/",
      "secao": "legendados",
      "pagina": 150,
      "total_episodios": 4,
      "link_video": "https://animefire.plus/video/ninja-slayer-from-animation"
    },
    {
      "id": 2752,
      "nome": "No Game No Life Specials",
      "link": "https://animefire.plus/animes/no-game-no-life-specials-todos-os-episodios",
      "texto_original": "No Game No Life Specials",
      "rating": 6.76,
      "classificacao_etaria": "A14",
      "imagem_original": "https://animefire.plus/img/animes/no-game-no-life-specials.webp",
      "imagem_pasta": "https://animefire.plus/img/animes/no-game-no-life-specials/",
      "secao": "legendados",
      "pagina": 75,
      "total_episodios": 3,
      "link_video": "https://animefire.plus/video/no-game-no-life-specials"
    },
    {
      "id": 2754,
      "nome": "No Guns Life",
      "link": "https://animefire.plus/animes/no-guns-life-todos-os-episodios",
      "texto_original": "No Guns Life",
      "rating": 6.89,
      "classificacao_etaria": "A14",
      "imagem_original": "https://animefire.plus/img/animes/no-guns-life.webp",
      "imagem_pasta": "https://animefire.plus/img/animes/no-guns-life/",
      "secao": "legendados",
      "pagina": 110,
      "total_episodios": 0,
      "link_video": "https://animefire.plus/video/no-guns-life"
    },
    {
      "id": 2757,
      "nome": "Noblesse (Dublado)",
      "link": "https://animefire.plus/animes/noblesse-dublado-todos-os-episodios",
      "texto_original": "Noblesse (Dublado)",
      "rating": 6.6,
      "classificacao_etaria": "A16",
      "imagem_original": "https://animefire.plus/img/animes/noblesse.webp",
      "imagem_pasta": "https://animefire.plus/img/animes/noblesse/",
      "secao": "dublados,legendados",
      "pagina": 20,
      "total_episodios": 13,
      "link_video": "https://animefire.plus/video/noblesse-dublado"
    },
    {
      "id": 2763,
      "nome": "Nobunaga the Fool",
      "link": "https://animefire.plus/animes/nobunaga-the-fool-todos-os-episodios",
      "texto_original": "Nobunaga the Fool",
      "rating": 6.76,
      "classificacao_etaria": "A16",
      "imagem_original": "https://animefire.plus/img/animes/nobunaga-the-fool.webp",
      "imagem_pasta": "https://animefire.plus/img/animes/nobunaga-the-fool/",
      "secao": "legendados",
      "pagina": 142,
      "total_episodios": 24,
      "link_video": "https://animefire.plus/video/nobunaga-the-fool"
    },
    {
      "id": 2764,
      "nome": "Nobunaga-sensei no Osanazuma",
      "link": "https://animefire.plus/animes/nobunaga-sensei-no-osanazuma-todos-os-episodios",
      "texto_original": "Nobunaga-sensei no Osanazuma",
      "rating": 5.28,
      "classificacao_etaria": "A18",
      "imagem_original": "https://animefire.plus/img/animes/nobunaga-sensei-no-osanazuma.webp",
      "imagem_pasta": "https://animefire.plus/img/animes/nobunaga-sensei-no-osanazuma/",
      "secao": "legendados",
      "pagina": 136,
      "total_episodios": 0,
      "link_video": "https://animefire.plus/video/nobunaga-sensei-no-osanazuma"
    },
    {
      "id": 2765,
      "nome": "Nobunagun",
      "link": "https://animefire.plus/animes/nobunagun-todos-os-episodios",
      "texto_original": "Nobunagun",
      "rating": 6.77,
      "classificacao_etaria": "A16",
      "imagem_original": "https://animefire.plus/img/animes/nobunagun.webp",
      "imagem_pasta": "https://animefire.plus/img/animes/nobunagun/",
      "secao": "legendados",
      "pagina": 171,
      "total_episodios": 13,
      "link_video": "https://animefire.plus/video/nobunagun"
    },
    {
      "id": 2773,
      "nome": "Nokemono-tachi no Yoru",
      "link": "https://animefire.plus/animes/nokemono-tachi-no-yoru-todos-os-episodios",
      "texto_original": "Nokemono-tachi no Yoru",
      "rating": 6.61,
      "classificacao_etaria": "A14",
      "imagem_original": "https://animefire.plus/img/animes/nokemono-tachi-no-yoru.webp",
      "imagem_pasta": "https://animefire.plus/img/animes/nokemono-tachi-no-yoru/",
      "secao": "legendados",
      "pagina": 26,
      "total_episodios": 13,
      "link_video": "https://animefire.plus/video/nokemono-tachi-no-yoru"
    },
    {
      "id": 2779,
      "nome": "Nora to Oujo to Noraneko Heart",
      "link": "https://animefire.plus/animes/nora-to-oujo-to-noraneko-heart-todos-os-episodios",
      "texto_original": "Nora to Oujo to Noraneko Heart",
      "rating": 5.42,
      "classificacao_etaria": "A14",
      "imagem_original": "https://animefire.plus/img/animes/nora-to-oujo-to-noraneko-heart.webp",
      "imagem_pasta": "https://animefire.plus/img/animes/nora-to-oujo-to-noraneko-heart/",
      "secao": "legendados",
      "pagina": 64,
      "total_episodios": 12,
      "link_video": "https://animefire.plus/video/nora-to-oujo-to-noraneko-heart"
    },
    {
      "id": 2784,
      "nome": "Norn9: Norn+Nonet",
      "link": "https://animefire.plus/animes/norn9-norn-nonet-todos-os-episodios",
      "texto_original": "Norn9: Norn+Nonet",
      "rating": 6.68,
      "classificacao_etaria": "A14",
      "imagem_original": "https://animefire.plus/img/animes/norn9-norn-nonet.webp",
      "imagem_pasta": "https://animefire.plus/img/animes/norn9-norn-nonet/",
      "secao": "legendados",
      "pagina": 136,
      "total_episodios": 0,
      "link_video": "https://animefire.plus/video/norn9-norn-nonet"
    },
    {
      "id": 2785,
      "nome": "Noumin Kanren no Skill bakka Agetetara Nazeka Tsuyoku Natta.",
      "link": "https://animefire.plus/animes/noumin-kanren-no-skill-bakka-agetetara-nazeka-tsuyoku-natta-todos-os-episodios",
      "texto_original": "Noumin Kanren no Skill bakka Agetetara Nazeka Tsuyoku Natta.",
      "rating": 5.96,
      "classificacao_etaria": "A14",
      "imagem_original": "https://animefire.plus/img/animes/noumin-kanren-no-skill-bakka-agetetara-nazeka-tsuyoku-natta.webp",
      "imagem_pasta": "https://animefire.plus/img/animes/noumin-kanren-no-skill-bakka-agetetara-nazeka-tsuyoku-natta/",
      "secao": "legendados",
      "pagina": 29,
      "total_episodios": 12,
      "link_video": "https://animefire.plus/video/noumin-kanren-no-skill-bakka-agetetara-nazeka-tsuyoku-natta"
    },
    {
      "id": 2786,
      "nome": "Nourin",
      "link": "https://animefire.plus/animes/nourin-todos-os-episodios",
      "texto_original": "Nourin",
      "rating": 6.91,
      "classificacao_etaria": "A14",
      "imagem_original": "https://animefire.plus/img/animes/nourin.webp",
      "imagem_pasta": "https://animefire.plus/img/animes/nourin/",
      "secao": "legendados",
      "pagina": 116,
      "total_episodios": 12,
      "link_video": "https://animefire.plus/video/nourin"
    },
    {
      "id": 2787,
      "nome": "Nozo x Kimi",
      "link": "https://animefire.plus/animes/nozo-x-kimi-todos-os-episodios",
      "texto_original": "Nozo x Kimi",
      "rating": 6.49,
      "classificacao_etaria": "A18",
      "imagem_original": "https://animefire.plus/img/animes/nozo-x-kimi.webp",
      "imagem_pasta": "https://animefire.plus/img/animes/nozo-x-kimi/",
      "secao": "legendados",
      "pagina": 61,
      "total_episodios": 3,
      "link_video": "https://animefire.plus/video/nozo-x-kimi"
    },
    {
      "id": 2789,
      "nome": "Nu Wushen de Canzhuo",
      "link": "https://animefire.plus/animes/nu-wushen-de-canzhuo-todos-os-episodios",
      "texto_original": "Nu Wushen de Canzhuo",
      "rating": 6.89,
      "classificacao_etaria": "A14",
      "imagem_original": "https://animefire.plus/img/animes/nu-wushen-de-canzhuo.webp",
      "imagem_pasta": "https://animefire.plus/img/animes/nu-wushen-de-canzhuo/",
      "secao": "legendados",
      "pagina": 53,
      "total_episodios": 7,
      "link_video": "https://animefire.plus/video/nu-wushen-de-canzhuo"
    },
    {
      "id": 2790,
      "nome": "Null Peta",
      "link": "https://animefire.plus/animes/null-peta-todos-os-episodios",
      "texto_original": "Null Peta",
      "rating": 6.4,
      "classificacao_etaria": "A14",
      "imagem_original": "https://animefire.plus/img/animes/null-peta.webp",
      "imagem_pasta": "https://animefire.plus/img/animes/null-peta/",
      "secao": "legendados",
      "pagina": 110,
      "total_episodios": 0,
      "link_video": "https://animefire.plus/video/null-peta"
    },
    {
      "id": 2791,
      "nome": "Null Peta Special",
      "link": "https://animefire.plus/animes/null-peta-special-todos-os-episodios",
      "texto_original": "Null Peta Special",
      "rating": 5.62,
      "classificacao_etaria": "A14",
      "imagem_original": "https://animefire.plus/img/animes/null-peta-special.webp",
      "imagem_pasta": "https://animefire.plus/img/animes/null-peta-special/",
      "secao": "legendados",
      "pagina": 88,
      "total_episodios": 1,
      "link_video": "https://animefire.plus/video/null-peta-special"
    },
    {
      "id": 2792,
      "nome": "number24",
      "link": "https://animefire.plus/animes/number24-todos-os-episodios",
      "texto_original": "number24",
      "rating": 6.63,
      "classificacao_etaria": "A14",
      "imagem_original": "https://animefire.plus/img/animes/number24.webp",
      "imagem_pasta": "https://animefire.plus/img/animes/number24/",
      "secao": "legendados",
      "pagina": 93,
      "total_episodios": 0,
      "link_video": "https://animefire.plus/video/number24"
    }
  ],
  "pagination": {
    "current_page": 59,
    "per_page": 20,
    "total_items": 1805,
    "total_pages": 91,
    "has_next": true,
    "has_prev": true
  }
}
