{
  "message": "Animes com rating entre 5 e 7",
  "rating_range": {
    "min": 5,
    "max": 7
  },
  "data": [
    {
      "id": 1464,
      "nome": "Highspeed Etoile",
      "link": "https://animefire.plus/animes/highspeed-etoile-todos-os-episodios",
      "texto_original": "Highspeed Etoile",
      "rating": 6.14,
      "classificacao_etaria": "A14",
      "imagem_original": "https://animefire.plus/img/animes/highspeed-etoile.webp",
      "imagem_pasta": "https://animefire.plus/img/animes/highspeed-etoile/",
      "secao": "legendados",
      "pagina": 14,
      "total_episodios": 12,
      "link_video": "https://animefire.plus/video/highspeed-etoile"
    },
    {
      "id": 1470,
      "nome": "Higurashi no Naku Koro ni Kira",
      "link": "https://animefire.plus/animes/higurashi-no-naku-koro-ni-kira-todos-os-episodios",
      "texto_original": "Higurashi no Naku Koro ni Kira",
      "rating": 6.55,
      "classificacao_etaria": "A16",
      "imagem_original": "https://animefire.plus/img/animes/higurashi-no-naku-koro-ni-kira.webp",
      "imagem_pasta": "https://animefire.plus/img/animes/higurashi-no-naku-koro-ni-kira/",
      "secao": "legendados",
      "pagina": 62,
      "total_episodios": 1,
      "link_video": "https://animefire.plus/video/higurashi-no-naku-koro-ni-kira"
    },
    {
      "id": 1472,
      "nome": "Higurashi no Naku Koro ni Sotsu",
      "link": "https://animefire.plus/animes/higurashi-no-naku-koro-ni-sotsu-todos-os-episodios",
      "texto_original": "Higurashi no Naku Koro ni Sotsu",
      "rating": 6.73,
      "classificacao_etaria": "A16",
      "imagem_original": "https://animefire.plus/img/animes/higurashi-no-naku-koro-ni-sotsu.webp",
      "imagem_pasta": "https://animefire.plus/img/animes/higurashi-no-naku-koro-ni-sotsu/",
      "secao": "legendados",
      "pagina": 41,
      "total_episodios": 15,
      "link_video": "https://animefire.plus/video/higurashi-no-naku-koro-ni-sotsu"
    },
    {
      "id": 1473,
      "nome": "Hiiro no Kakera",
      "link": "https://animefire.plus/animes/hiiro-no-kakera-todos-os-episodios",
      "texto_original": "Hiiro no Kakera",
      "rating": 6.86,
      "classificacao_etaria": "A14",
      "imagem_original": "https://animefire.plus/img/animes/hiiro-no-kakera.webp",
      "imagem_pasta": "https://animefire.plus/img/animes/hiiro-no-kakera/",
      "secao": "legendados",
      "pagina": 159,
      "total_episodios": 13,
      "link_video": "https://animefire.plus/video/hiiro-no-kakera"
    },
    {
      "id": 1475,
      "nome": "Hikari no Densetsu",
      "link": "https://animefire.plus/animes/hikari-no-densetsu-todos-os-episodios",
      "texto_original": "Hikari no Densetsu",
      "rating": 6.68,
      "classificacao_etaria": "A10",
      "imagem_original": "https://animefire.plus/img/animes/hikari-no-densetsu.webp",
      "imagem_pasta": "https://animefire.plus/img/animes/hikari-no-densetsu/",
      "secao": "legendados",
      "pagina": 151,
      "total_episodios": 19,
      "link_video": "https://animefire.plus/video/hikari-no-densetsu"
    },
    {
      "id": 1476,
      "nome": "Hikari no Ou",
      "link": "https://animefire.plus/animes/hikari-no-ou-todos-os-episodios",
      "texto_original": "Hikari no Ou",
      "rating": 6.33,
      "classificacao_etaria": "A14",
      "imagem_original": "https://animefire.plus/img/animes/hikari-no-ou.webp",
      "imagem_pasta": "https://animefire.plus/img/animes/hikari-no-ou/",
      "secao": "legendados",
      "pagina": 26,
      "total_episodios": 10,
      "link_video": "https://animefire.plus/video/hikari-no-ou"
    },
    {
      "id": 1477,
      "nome": "Hikari no Ou 2nd Season",
      "link": "https://animefire.plus/animes/hikari-no-ou-2-todos-os-episodios",
      "texto_original": "Hikari no Ou 2nd Season",
      "rating": 5.9,
      "classificacao_etaria": "A14",
      "imagem_original": "https://animefire.plus/img/animes/hikari-no-ou-2.webp",
      "imagem_pasta": "https://animefire.plus/img/animes/hikari-no-ou-2/",
      "secao": "legendados",
      "pagina": 16,
      "total_episodios": 10,
      "link_video": "https://animefire.plus/video/hikari-no-ou-2"
    },
    {
      "id": 1478,
      "nome": "Hikari To Mizu No Daphne",
      "link": "https://animefire.plus/animes/hikari-to-mizu-no-daphne-todos-os-episodios",
      "texto_original": "Hikari To Mizu No Daphne",
      "rating": 6.81,
      "classificacao_etaria": "A14",
      "imagem_original": "https://animefire.plus/img/animes/hikari-to-mizu-no-daphne.webp",
      "imagem_pasta": "https://animefire.plus/img/animes/hikari-to-mizu-no-daphne/",
      "secao": "legendados",
      "pagina": 98,
      "total_episodios": 0,
      "link_video": "https://animefire.plus/video/hikari-to-mizu-no-daphne"
    },
    {
      "id": 1482,
      "nome": "Himawari!",
      "link": "https://animefire.plus/animes/himawari-todos-os-episodios",
      "texto_original": "Himawari!",
      "rating": 6.39,
      "classificacao_etaria": "A14",
      "imagem_original": "https://animefire.plus/img/animes/himawari.webp",
      "imagem_pasta": "https://animefire.plus/img/animes/himawari/",
      "secao": "legendados",
      "pagina": 108,
      "total_episodios": 13,
      "link_video": "https://animefire.plus/video/himawari"
    },
    {
      "id": 1483,
      "nome": "Himegoto",
      "link": "https://animefire.plus/animes/himegoto-todos-os-episodios",
      "texto_original": "Himegoto",
      "rating": 6.03,
      "classificacao_etaria": "A14",
      "imagem_original": "https://animefire.plus/img/animes/himegoto.webp",
      "imagem_pasta": "https://animefire.plus/img/animes/himegoto/",
      "secao": "legendados",
      "pagina": 137,
      "total_episodios": 10,
      "link_video": "https://animefire.plus/video/himegoto"
    },
    {
      "id": 1485,
      "nome": "Himiko-Den",
      "link": "https://animefire.plus/animes/himiko-den-todos-os-episodios",
      "texto_original": "Himiko-Den",
      "rating": 6.31,
      "classificacao_etaria": "A14",
      "imagem_original": "https://animefire.plus/img/animes/himiko-den.webp",
      "imagem_pasta": "https://animefire.plus/img/animes/himiko-den/",
      "secao": "legendados",
      "pagina": 96,
      "total_episodios": 12,
      "link_video": "https://animefire.plus/video/himiko-den"
    },
    {
      "id": 1487,
      "nome": "Himitsukessha Taka no Tsume: Golden Spell",
      "link": "https://animefire.plus/animes/himitsukessha-taka-no-tsume-golden-spell-todos-os-episodios",
      "texto_original": "Himitsukessha Taka no Tsume: Golden Spell",
      "rating": 5.71,
      "classificacao_etaria": null,
      "imagem_original": "https://animefire.plus/img/animes/himitsukessha-taka-no-tsume-golden-spell.webp",
      "imagem_pasta": "https://animefire.plus/img/animes/himitsukessha-taka-no-tsume-golden-spell/",
      "secao": "legendados,lancamentos",
      "pagina": 50,
      "total_episodios": 3,
      "link_video": "https://animefire.plus/video/himitsukessha-taka-no-tsume-golden-spell"
    },
    {
      "id": 1488,
      "nome": "Himote House",
      "link": "https://animefire.plus/animes/himote-house-todos-os-episodios",
      "texto_original": "Himote House",
      "rating": 5.8,
      "classificacao_etaria": "A14",
      "imagem_original": "https://animefire.plus/img/animes/himote-house.webp",
      "imagem_pasta": "https://animefire.plus/img/animes/himote-house/",
      "secao": "legendados",
      "pagina": 115,
      "total_episodios": 12,
      "link_video": "https://animefire.plus/video/himote-house"
    },
    {
      "id": 1491,
      "nome": "Hina Logi: From Luck & Logic",
      "link": "https://animefire.plus/animes/hina-logi-from-luck-logic-todos-os-episodios",
      "texto_original": "Hina Logi: From Luck & Logic",
      "rating": 6.7,
      "classificacao_etaria": "A14",
      "imagem_original": "https://animefire.plus/img/animes/hina-logi-from-luck-logic.webp",
      "imagem_pasta": "https://animefire.plus/img/animes/hina-logi-from-luck-logic/",
      "secao": "legendados",
      "pagina": 59,
      "total_episodios": 12,
      "link_video": "https://animefire.plus/video/hina-logi-from-luck-logic"
    },
    {
      "id": 1492,
      "nome": "Hinako Note",
      "link": "https://animefire.plus/animes/hinako-note-todos-os-episodios",
      "texto_original": "Hinako Note",
      "rating": 6.82,
      "classificacao_etaria": "A14",
      "imagem_original": "https://animefire.plus/img/animes/hinako-note.webp",
      "imagem_pasta": "https://animefire.plus/img/animes/hinako-note/",
      "secao": "legendados",
      "pagina": 104,
      "total_episodios": 12,
      "link_video": "https://animefire.plus/video/hinako-note"
    },
    {
      "id": 1496,
      "nome": "Hipira-kun",
      "link": "https://animefire.plus/animes/hipira-kun-todos-os-episodios",
      "texto_original": "Hipira-kun",
      "rating": 6.18,
      "classificacao_etaria": "A10",
      "imagem_original": "https://animefire.plus/img/animes/hipira-kun.webp",
      "imagem_pasta": "https://animefire.plus/img/animes/hipira-kun/",
      "secao": "legendados",
      "pagina": 141,
      "total_episodios": 10,
      "link_video": "https://animefire.plus/video/hipira-kun"
    },
    {
      "id": 1499,
      "nome": "Hit Wo Nerae!",
      "link": "https://animefire.plus/animes/hit-wo-nerae-todos-os-episodios",
      "texto_original": "Hit Wo Nerae!",
      "rating": 5.56,
      "classificacao_etaria": "A18",
      "imagem_original": "https://animefire.plus/img/animes/hit-wo-nerae.webp",
      "imagem_pasta": "https://animefire.plus/img/animes/hit-wo-nerae/",
      "secao": "legendados",
      "pagina": 99,
      "total_episodios": 8,
      "link_video": "https://animefire.plus/video/hit-wo-nerae"
    },
    {
      "id": 1500,
      "nome": "Hitohira",
      "link": "https://animefire.plus/animes/hitohira-todos-os-episodios",
      "texto_original": "Hitohira",
      "rating": 6.82,
      "classificacao_etaria": "A14",
      "imagem_original": "https://animefire.plus/img/animes/hitohira.webp",
      "imagem_pasta": "https://animefire.plus/img/animes/hitohira/",
      "secao": "legendados",
      "pagina": 102,
      "total_episodios": 12,
      "link_video": "https://animefire.plus/video/hitohira"
    },
    {
      "id": 1501,
      "nome": "Hitori no Shita: The Outcast",
      "link": "https://animefire.plus/animes/hitori-no-shita-the-outcast-todos-os-episodios",
      "texto_original": "Hitori no Shita: The Outcast",
      "rating": 6.8,
      "classificacao_etaria": "A16",
      "imagem_original": "https://animefire.plus/img/animes/hitori-no-shita-the-outcast.webp",
      "imagem_pasta": "https://animefire.plus/img/animes/hitori-no-shita-the-outcast/",
      "secao": "legendados",
      "pagina": 166,
      "total_episodios": 5,
      "link_video": "https://animefire.plus/video/hitori-no-shita-the-outcast"
    },
    {
      "id": 1503,
      "nome": "Hitori no Shita: The Outcast 3rd Season",
      "link": "https://animefire.plus/animes/hitori-no-shita-the-outcast-3rd-season-todos-os-episodios",
      "texto_original": "Hitori no Shita: The Outcast 3rd Season",
      "rating": 6.81,
      "classificacao_etaria": "A16",
      "imagem_original": "https://animefire.plus/img/animes/hitori-no-shita-the-outcast-3rd-season.webp",
      "imagem_pasta": "https://animefire.plus/img/animes/hitori-no-shita-the-outcast-3rd-season/",
      "secao": "legendados",
      "pagina": 75,
      "total_episodios": 8,
      "link_video": "https://animefire.plus/video/hitori-no-shita-the-outcast-3rd-season"
    }
  ],
  "pagination": {
    "current_page": 33,
    "per_page": 20,
    "total_items": 1805,
    "total_pages": 91,
    "has_next": true,
    "has_prev": true
  }
}
