{
  "message": "Animes com rating entre 5 e 7",
  "rating_range": {
    "min": 5,
    "max": 7
  },
  "data": [
    {
      "id": 937,
      "nome": "Element Hunters",
      "link": "https://animefire.plus/animes/element-hunters-todos-os-episodios",
      "texto_original": "Element Hunters",
      "rating": 6.69,
      "classificacao_etaria": null,
      "imagem_original": "https://animefire.plus/img/animes/element-hunters.webp",
      "imagem_pasta": "https://animefire.plus/img/animes/element-hunters/",
      "secao": "legendados",
      "pagina": 167,
      "total_episodios": 13,
      "link_video": "https://animefire.plus/video/element-hunters"
    },
    {
      "id": 940,
      "nome": "Elf-san wa Yaserarenai.",
      "link": "https://animefire.plus/animes/elf-san-wa-yaserarenai-todos-os-episodios",
      "texto_original": "Elf-san wa Yaserarenai.",
      "rating": 5.6,
      "classificacao_etaria": "A18",
      "imagem_original": "https://animefire.plus/img/animes/elf-san-wa-yaserarenai.webp",
      "imagem_pasta": "https://animefire.plus/img/animes/elf-san-wa-yaserarenai/",
      "secao": "legendados",
      "pagina": 12,
      "total_episodios": 12,
      "link_video": "https://animefire.plus/video/elf-san-wa-yaserarenai"
    },
    {
      "id": 942,
      "nome": "Elsword: El-ui Yeoin",
      "link": "https://animefire.plus/animes/elsword-el-ui-yeoin-todos-os-episodios",
      "texto_original": "Elsword: El-ui Yeoin",
      "rating": 6.26,
      "classificacao_etaria": "A14",
      "imagem_original": "https://animefire.plus/img/animes/elsword-el-ui-yeoin.webp",
      "imagem_pasta": "https://animefire.plus/img/animes/elsword-el-ui-yeoin/",
      "secao": "legendados",
      "pagina": 168,
      "total_episodios": 2,
      "link_video": "https://animefire.plus/video/elsword-el-ui-yeoin"
    },
    {
      "id": 944,
      "nome": "Endride",
      "link": "https://animefire.plus/animes/endride-todos-os-episodios",
      "texto_original": "Endride",
      "rating": 5.76,
      "classificacao_etaria": "A14",
      "imagem_original": "https://animefire.plus/img/animes/endride.webp",
      "imagem_pasta": "https://animefire.plus/img/animes/endride/",
      "secao": "legendados",
      "pagina": 159,
      "total_episodios": 5,
      "link_video": "https://animefire.plus/video/endride"
    },
    {
      "id": 945,
      "nome": "Endro~!",
      "link": "https://animefire.plus/animes/endro-todos-os-episodios",
      "texto_original": "Endro~!",
      "rating": 6.95,
      "classificacao_etaria": "A14",
      "imagem_original": "https://animefire.plus/img/animes/endro.webp",
      "imagem_pasta": "https://animefire.plus/img/animes/endro/",
      "secao": "legendados",
      "pagina": 90,
      "total_episodios": 12,
      "link_video": "https://animefire.plus/video/endro"
    },
    {
      "id": 949,
      "nome": "Engage Kiss",
      "link": "https://animefire.plus/animes/engage-kiss-todos-os-episodios",
      "texto_original": "Engage Kiss",
      "rating": 6.79,
      "classificacao_etaria": "A14",
      "imagem_original": "https://animefire.plus/img/animes/engage-kiss.webp",
      "imagem_pasta": "https://animefire.plus/img/animes/engage-kiss/",
      "secao": "legendados",
      "pagina": 32,
      "total_episodios": 13,
      "link_video": "https://animefire.plus/video/engage-kiss"
    },
    {
      "id": 950,
      "nome": "Ensemble Stars!",
      "link": "https://animefire.plus/animes/ensemble-stars-todos-os-episodios",
      "texto_original": "Ensemble Stars!",
      "rating": 6.83,
      "classificacao_etaria": "A14",
      "imagem_original": "https://animefire.plus/img/animes/ensemble-stars.webp",
      "imagem_pasta": "https://animefire.plus/img/animes/ensemble-stars/",
      "secao": "legendados",
      "pagina": 159,
      "total_episodios": 8,
      "link_video": "https://animefire.plus/video/ensemble-stars"
    },
    {
      "id": 953,
      "nome": "Eromanga-sensei",
      "link": "https://animefire.plus/animes/eromanga-sensei-todos-os-episodios",
      "texto_original": "Eromanga-sensei",
      "rating": 6.79,
      "classificacao_etaria": "A14",
      "imagem_original": "https://animefire.plus/img/animes/eromanga-sensei.webp",
      "imagem_pasta": "https://animefire.plus/img/animes/eromanga-sensei/",
      "secao": "legendados",
      "pagina": 108,
      "total_episodios": 12,
      "link_video": "https://animefire.plus/video/eromanga-sensei"
    },
    {
      "id": 954,
      "nome": "Escha & Logy no Atelier: Tasogare no Sora no Renkinjutsushi",
      "link": "https://animefire.plus/animes/escha-logy-no-atelier-tasogare-no-sora-no-renkinjutsushi-todos-os-episodios",
      "texto_original": "Escha & Logy no Atelier: Tasogare no Sora no Renkinjutsushi",
      "rating": 6.5,
      "classificacao_etaria": "A14",
      "imagem_original": "https://animefire.plus/img/animes/escha-logy-no-atelier-tasogare-no-sora-no-renkinjutsushi.webp",
      "imagem_pasta": "https://animefire.plus/img/animes/escha-logy-no-atelier-tasogare-no-sora-no-renkinjutsushi/",
      "secao": "legendados",
      "pagina": 171,
      "total_episodios": 12,
      "link_video": "https://animefire.plus/video/escha-logy-no-atelier-tasogare-no-sora-no-renkinjutsushi"
    },
    {
      "id": 955,
      "nome": "Escha Chron",
      "link": "https://animefire.plus/animes/escha-chron-todos-os-episodios",
      "texto_original": "Escha Chron",
      "rating": 6.54,
      "classificacao_etaria": "A14",
      "imagem_original": "https://animefire.plus/img/animes/escha-chron.webp",
      "imagem_pasta": "https://animefire.plus/img/animes/escha-chron/",
      "secao": "legendados",
      "pagina": 65,
      "total_episodios": 2,
      "link_video": "https://animefire.plus/video/escha-chron"
    },
    {
      "id": 956,
      "nome": "Estab-Life: Great Escape",
      "link": "https://animefire.plus/animes/estab-life-great-escape-todos-os-episodios",
      "texto_original": "Estab-Life: Great Escape",
      "rating": 6.47,
      "classificacao_etaria": "A14",
      "imagem_original": "https://animefire.plus/img/animes/estab-life-great-escape.webp",
      "imagem_pasta": "https://animefire.plus/img/animes/estab-life-great-escape/",
      "secao": "legendados",
      "pagina": 34,
      "total_episodios": 12,
      "link_video": "https://animefire.plus/video/estab-life-great-escape"
    },
    {
      "id": 957,
      "nome": "Eternal Boys",
      "link": "https://animefire.plus/animes/eternal-boys-todos-os-episodios",
      "texto_original": "Eternal Boys",
      "rating": 6.53,
      "classificacao_etaria": "A14",
      "imagem_original": "https://animefire.plus/img/animes/eternal-boys.webp",
      "imagem_pasta": "https://animefire.plus/img/animes/eternal-boys/",
      "secao": "legendados,lancamentos",
      "pagina": 28,
      "total_episodios": 6,
      "link_video": "https://animefire.plus/video/eternal-boys"
    },
    {
      "id": 958,
      "nome": "Etotama",
      "link": "https://animefire.plus/animes/etotama-todos-os-episodios",
      "texto_original": "Etotama",
      "rating": 6.95,
      "classificacao_etaria": "A14",
      "imagem_original": "https://animefire.plus/img/animes/etotama.webp",
      "imagem_pasta": "https://animefire.plus/img/animes/etotama/",
      "secao": "legendados",
      "pagina": 106,
      "total_episodios": 12,
      "link_video": "https://animefire.plus/video/etotama"
    },
    {
      "id": 959,
      "nome": "Eureka Seven AO",
      "link": "https://animefire.plus/animes/eureka-seven-ao-todos-os-episodios",
      "texto_original": "Eureka Seven AO",
      "rating": 6.78,
      "classificacao_etaria": "A14",
      "imagem_original": "https://animefire.plus/img/animes/eureka-seven-ao.webp",
      "imagem_pasta": "https://animefire.plus/img/animes/eureka-seven-ao/",
      "secao": "legendados",
      "pagina": 135,
      "total_episodios": 24,
      "link_video": "https://animefire.plus/video/eureka-seven-ao"
    },
    {
      "id": 962,
      "nome": "Evil or Live",
      "link": "https://animefire.plus/animes/evil-or-live-todos-os-episodios",
      "texto_original": "Evil or Live",
      "rating": 5.97,
      "classificacao_etaria": "A16",
      "imagem_original": "https://animefire.plus/img/animes/evil-or-live.webp",
      "imagem_pasta": "https://animefire.plus/img/animes/evil-or-live/",
      "secao": "legendados",
      "pagina": 107,
      "total_episodios": 12,
      "link_video": "https://animefire.plus/video/evil-or-live"
    },
    {
      "id": 964,
      "nome": "Extreme Hearts",
      "link": "https://animefire.plus/animes/extreme-hearts-todos-os-episodios",
      "texto_original": "Extreme Hearts",
      "rating": 6.54,
      "classificacao_etaria": "A14",
      "imagem_original": "https://animefire.plus/img/animes/extreme-hearts.webp",
      "imagem_pasta": "https://animefire.plus/img/animes/extreme-hearts/",
      "secao": "legendados",
      "pagina": 31,
      "total_episodios": 12,
      "link_video": "https://animefire.plus/video/extreme-hearts"
    },
    {
      "id": 966,
      "nome": "Fairy Gone",
      "link": "https://animefire.plus/animes/fairy-gone-todos-os-episodios",
      "texto_original": "Fairy Gone",
      "rating": 5.81,
      "classificacao_etaria": "A14",
      "imagem_original": "https://animefire.plus/img/animes/fairy-gone.webp",
      "imagem_pasta": "https://animefire.plus/img/animes/fairy-gone/",
      "secao": "legendados",
      "pagina": 136,
      "total_episodios": 0,
      "link_video": "https://animefire.plus/video/fairy-gone"
    },
    {
      "id": 967,
      "nome": "Fairy Gone 2nd Season",
      "link": "https://animefire.plus/animes/fairy-gone-2nd-season-todos-os-episodios",
      "texto_original": "Fairy Gone 2nd Season",
      "rating": 6.39,
      "classificacao_etaria": "A14",
      "imagem_original": "https://animefire.plus/img/animes/fairy-gone-2nd-season.webp",
      "imagem_pasta": "https://animefire.plus/img/animes/fairy-gone-2nd-season/",
      "secao": "legendados",
      "pagina": 110,
      "total_episodios": 12,
      "link_video": "https://animefire.plus/video/fairy-gone-2nd-season"
    },
    {
      "id": 968,
      "nome": "Fairy Ranmaru: Anata no Kokoro Otasuke Shimasu",
      "link": "https://animefire.plus/animes/fairy-ranmaru-anata-no-kokoro-otasuke-shimasu-todos-os-episodios",
      "texto_original": "Fairy Ranmaru: Anata no Kokoro Otasuke Shimasu",
      "rating": 5.9,
      "classificacao_etaria": "A14",
      "imagem_original": "https://animefire.plus/img/animes/fairy-ranmaru-anata-no-kokoro-otasuke-shimasu.webp",
      "imagem_pasta": "https://animefire.plus/img/animes/fairy-ranmaru-anata-no-kokoro-otasuke-shimasu/",
      "secao": "legendados",
      "pagina": 46,
      "total_episodios": 12,
      "link_video": "https://animefire.plus/video/fairy-ranmaru-anata-no-kokoro-otasuke-shimasu"
    },
    {
      "id": 976,
      "nome": "Fantasista Doll",
      "link": "https://animefire.plus/animes/fantasista-doll-todos-os-episodios",
      "texto_original": "Fantasista Doll",
      "rating": 6.21,
      "classificacao_etaria": "A14",
      "imagem_original": "https://animefire.plus/img/animes/fantasista-doll.webp",
      "imagem_pasta": "https://animefire.plus/img/animes/fantasista-doll/",
      "secao": "legendados",
      "pagina": 127,
      "total_episodios": 5,
      "link_video": "https://animefire.plus/video/fantasista-doll"
    }
  ],
  "pagination": {
    "current_page": 23,
    "per_page": 20,
    "total_items": 1805,
    "total_pages": 91,
    "has_next": true,
    "has_prev": true
  }
}
