{
  "message": "Animes com rating entre 5 e 7",
  "rating_range": {
    "min": 5,
    "max": 7
  },
  "data": [
    {
      "id": 2079,
      "nome": "Kono Healer, Mendokusai",
      "link": "https://animefire.plus/animes/kono-healer-mendokusai-todos-os-episodios",
      "texto_original": "Kono Healer, Mendokusai",
      "rating": 6.34,
      "classificacao_etaria": "A14",
      "imagem_original": "https://animefire.plus/img/animes/kono-healer-mendokusai.webp",
      "imagem_pasta": "https://animefire.plus/img/animes/kono-healer-mendokusai/",
      "secao": "legendados",
      "pagina": 33,
      "total_episodios": 12,
      "link_video": "https://animefire.plus/video/kono-healer-mendokusai"
    },
    {
      "id": 2081,
      "nome": "Kono Minikuku mo Utsukushii Sekai",
      "link": "https://animefire.plus/animes/kono-minikuku-mo-utsukushii-sekai-todos-os-episodios",
      "texto_original": "Kono Minikuku mo Utsukushii Sekai",
      "rating": 6.84,
      "classificacao_etaria": "A18",
      "imagem_original": "https://animefire.plus/img/animes/kono-minikuku-mo-utsukushii-sekai.webp",
      "imagem_pasta": "https://animefire.plus/img/animes/kono-minikuku-mo-utsukushii-sekai/",
      "secao": "legendados",
      "pagina": 131,
      "total_episodios": 0,
      "link_video": "https://animefire.plus/video/kono-minikuku-mo-utsukushii-sekai"
    },
    {
      "id": 2082,
      "nome": "Kono Naka ni Hitori, Imouto ga Iru!",
      "link": "https://animefire.plus/animes/kono-naka-ni-hitori-imouto-ga-iru-todos-os-episodios",
      "texto_original": "Kono Naka ni Hitori, Imouto ga Iru!",
      "rating": 6.74,
      "classificacao_etaria": "A18",
      "imagem_original": "https://animefire.plus/img/animes/kono-naka-ni-hitori-imouto-ga-iru.webp",
      "imagem_pasta": "https://animefire.plus/img/animes/kono-naka-ni-hitori-imouto-ga-iru/",
      "secao": "legendados",
      "pagina": 140,
      "total_episodios": 4,
      "link_video": "https://animefire.plus/video/kono-naka-ni-hitori-imouto-ga-iru"
    },
    {
      "id": 2085,
      "nome": "Kono Sekai wa Fukanzen Sugiru",
      "link": "https://animefire.plus/animes/kono-sekai-wa-fukanzen-sugiru-todos-os-episodios",
      "texto_original": "Kono Sekai wa Fukanzen Sugiru",
      "rating": 6.53,
      "classificacao_etaria": "A14",
      "imagem_original": "https://animefire.plus/img/animes/kono-sekai-wa-fukanzen-sugiru.webp",
      "imagem_pasta": "https://animefire.plus/img/animes/kono-sekai-wa-fukanzen-sugiru/",
      "secao": "legendados",
      "pagina": 12,
      "total_episodios": 13,
      "link_video": "https://animefire.plus/video/kono-sekai-wa-fukanzen-sugiru"
    },
    {
      "id": 2092,
      "nome": "Kono Yo no Hate de Koi wo Utau Shoujo YU-NO",
      "link": "https://animefire.plus/animes/kono-yo-no-hate-de-koi-wo-utau-shoujo-yu-no-todos-os-episodios",
      "texto_original": "Kono Yo no Hate de Koi wo Utau Shoujo YU-NO",
      "rating": 6.58,
      "classificacao_etaria": "A14",
      "imagem_original": "https://animefire.plus/img/animes/kono-yo-no-hate-de-koi-wo-utau-shoujo-yu-no.webp",
      "imagem_pasta": "https://animefire.plus/img/animes/kono-yo-no-hate-de-koi-wo-utau-shoujo-yu-no/",
      "secao": "legendados",
      "pagina": 114,
      "total_episodios": 0,
      "link_video": "https://animefire.plus/video/kono-yo-no-hate-de-koi-wo-utau-shoujo-yu-no"
    },
    {
      "id": 2093,
      "nome": "Kono Yo no Hate de Koi wo Utau Shoujo YU-NO Special",
      "link": "https://animefire.plus/animes/kono-yo-no-hate-de-koi-wo-utau-shoujo-yu-no-special-todos-os-episodios",
      "texto_original": "Kono Yo no Hate de Koi wo Utau Shoujo YU-NO Special",
      "rating": 6.33,
      "classificacao_etaria": "A18",
      "imagem_original": "https://animefire.plus/img/animes/kono-yo-no-hate-de-koi-wo-utau-shoujo-yu-no-special.webp",
      "imagem_pasta": "https://animefire.plus/img/animes/kono-yo-no-hate-de-koi-wo-utau-shoujo-yu-no-special/",
      "secao": "legendados",
      "pagina": 59,
      "total_episodios": 1,
      "link_video": "https://animefire.plus/video/kono-yo-no-hate-de-koi-wo-utau-shoujo-yu-no-special"
    },
    {
      "id": 2097,
      "nome": "Kore ga Watashi no Goshujinsama",
      "link": "https://animefire.plus/animes/kore-ga-watashi-no-goshujinsama-todos-os-episodios",
      "texto_original": "Kore ga Watashi no Goshujinsama",
      "rating": 6.58,
      "classificacao_etaria": "A18",
      "imagem_original": "https://animefire.plus/img/animes/kore-ga-watashi-no-goshujinsama.webp",
      "imagem_pasta": "https://animefire.plus/img/animes/kore-ga-watashi-no-goshujinsama/",
      "secao": "legendados",
      "pagina": 71,
      "total_episodios": 12,
      "link_video": "https://animefire.plus/video/kore-ga-watashi-no-goshujinsama"
    },
    {
      "id": 2101,
      "nome": "Koroshi Ai (Dublado)",
      "link": "https://animefire.plus/animes/koroshi-ai-dublado-todos-os-episodios",
      "texto_original": "Koroshi Ai (Dublado)",
      "rating": 6.9,
      "classificacao_etaria": "A16",
      "imagem_original": "https://animefire.plus/img/animes/koroshi-ai.webp",
      "imagem_pasta": "https://animefire.plus/img/animes/koroshi-ai/",
      "secao": "dublados,legendados",
      "pagina": 12,
      "total_episodios": 12,
      "link_video": "https://animefire.plus/video/koroshi-ai-dublado"
    },
    {
      "id": 2104,
      "nome": "Koufuku Graffiti",
      "link": "https://animefire.plus/animes/koufuku-graffiti-todos-os-episodios",
      "texto_original": "Koufuku Graffiti",
      "rating": 6.83,
      "classificacao_etaria": "A14",
      "imagem_original": "https://animefire.plus/img/animes/koufuku-graffiti.webp",
      "imagem_pasta": "https://animefire.plus/img/animes/koufuku-graffiti/",
      "secao": "legendados",
      "pagina": 112,
      "total_episodios": 3,
      "link_video": "https://animefire.plus/video/koufuku-graffiti"
    },
    {
      "id": 2105,
      "nome": "Koujo Denka no Kateikyoushi",
      "link": "https://animefire.plus/animes/koujo-denka-no-kateikyoushi-todos-os-episodios",
      "texto_original": "Koujo Denka no Kateikyoushi",
      "rating": 6.67,
      "classificacao_etaria": "A14",
      "imagem_original": "https://animefire.plus/img/animes/koujo-denka-no-kateikyoushi.webp",
      "imagem_pasta": "https://animefire.plus/img/animes/koujo-denka-no-kateikyoushi/",
      "secao": "legendados,lancamentos",
      "pagina": 2,
      "total_episodios": 5,
      "link_video": "https://animefire.plus/video/koujo-denka-no-kateikyoushi"
    },
    {
      "id": 2107,
      "nome": "Koukaku Kidoutai: SAC_2045 (Dublado)",
      "link": "https://animefire.plus/animes/koukaku-kidoutai-sac-2045-dublado-todos-os-episodios",
      "texto_original": "Koukaku Kidoutai: SAC_2045 (Dublado)",
      "rating": 6.74,
      "classificacao_etaria": "A16",
      "imagem_original": "https://animefire.plus/img/animes/koukaku-kidoutai-sac-2045.webp",
      "imagem_pasta": "https://animefire.plus/img/animes/koukaku-kidoutai-sac-2045/",
      "secao": "dublados,legendados",
      "pagina": 20,
      "total_episodios": 12,
      "link_video": "https://animefire.plus/video/koukaku-kidoutai-sac-2045-dublado"
    },
    {
      "id": 2108,
      "nome": "Koukaku Kidoutai: SAC_2045 Season 2 (Dublado)",
      "link": "https://animefire.plus/animes/koukaku-kidoutai-sac-2045-season-2-dublado-todos-os-episodios",
      "texto_original": "Koukaku Kidoutai: SAC_2045 Season 2 (Dublado)",
      "rating": 6.84,
      "classificacao_etaria": "A16",
      "imagem_original": "https://animefire.plus/img/animes/koukaku-kidoutai-sac-2045-season-2.webp",
      "imagem_pasta": "https://animefire.plus/img/animes/koukaku-kidoutai-sac-2045-season-2/",
      "secao": "dublados,legendados",
      "pagina": 10,
      "total_episodios": 12,
      "link_video": "https://animefire.plus/video/koukaku-kidoutai-sac-2045-season-2-dublado"
    },
    {
      "id": 2109,
      "nome": "Koukaku no Pandora",
      "link": "https://animefire.plus/animes/koukaku-no-pandora-todos-os-episodios",
      "texto_original": "Koukaku no Pandora",
      "rating": 6.59,
      "classificacao_etaria": "A14",
      "imagem_original": "https://animefire.plus/img/animes/koukaku-no-pandora.webp",
      "imagem_pasta": "https://animefire.plus/img/animes/koukaku-no-pandora/",
      "secao": "legendados",
      "pagina": 169,
      "total_episodios": 12,
      "link_video": "https://animefire.plus/video/koukaku-no-pandora"
    },
    {
      "id": 2111,
      "nome": "Koukyoushihen Eureka Seven: New Order",
      "link": "https://animefire.plus/animes/koukyoushihen-eureka-seven-new-order-todos-os-episodios",
      "texto_original": "Koukyoushihen Eureka Seven: New Order",
      "rating": 6.64,
      "classificacao_etaria": "A14",
      "imagem_original": "https://animefire.plus/img/animes/koukyoushihen-eureka-seven-new-order.webp",
      "imagem_pasta": "https://animefire.plus/img/animes/koukyoushihen-eureka-seven-new-order/",
      "secao": "legendados",
      "pagina": 86,
      "total_episodios": 1,
      "link_video": "https://animefire.plus/video/koukyoushihen-eureka-seven-new-order"
    },
    {
      "id": 2113,
      "nome": "Koume-chan ga Iku!",
      "link": "https://animefire.plus/animes/koume-chan-ga-iku-todos-os-episodios",
      "texto_original": "Koume-chan ga Iku!",
      "rating": 5.95,
      "classificacao_etaria": "A14",
      "imagem_original": "https://animefire.plus/img/animes/koume-chan-ga-iku.webp",
      "imagem_pasta": "https://animefire.plus/img/animes/koume-chan-ga-iku/",
      "secao": "legendados",
      "pagina": 44,
      "total_episodios": 12,
      "link_video": "https://animefire.plus/video/koume-chan-ga-iku"
    },
    {
      "id": 2114,
      "nome": "Koutetsu Sangokushi",
      "link": "https://animefire.plus/animes/koutetsu-sangokushi-todos-os-episodios",
      "texto_original": "Koutetsu Sangokushi",
      "rating": 6.37,
      "classificacao_etaria": "A14",
      "imagem_original": "https://animefire.plus/img/animes/koutetsu-sangokushi.webp",
      "imagem_pasta": "https://animefire.plus/img/animes/koutetsu-sangokushi/",
      "secao": "legendados",
      "pagina": 161,
      "total_episodios": 2,
      "link_video": "https://animefire.plus/video/koutetsu-sangokushi"
    },
    {
      "id": 2115,
      "nome": "Koutetsu Tenshi Kurumi",
      "link": "https://animefire.plus/animes/koutetsu-tenshi-kurumi-todos-os-episodios",
      "texto_original": "Koutetsu Tenshi Kurumi",
      "rating": 6.85,
      "classificacao_etaria": "A18",
      "imagem_original": "https://animefire.plus/img/animes/koutetsu-tenshi-kurumi.webp",
      "imagem_pasta": "https://animefire.plus/img/animes/koutetsu-tenshi-kurumi/",
      "secao": "legendados",
      "pagina": 165,
      "total_episodios": 0,
      "link_video": "https://animefire.plus/video/koutetsu-tenshi-kurumi"
    },
    {
      "id": 2116,
      "nome": "Koutetsu Tenshi Kurumi 2",
      "link": "https://animefire.plus/animes/koutetsu-tenshi-kurumi-2-todos-os-episodios",
      "texto_original": "Koutetsu Tenshi Kurumi 2",
      "rating": 6.36,
      "classificacao_etaria": "A18",
      "imagem_original": "https://animefire.plus/img/animes/koutetsu-tenshi-kurumi-2.webp",
      "imagem_pasta": "https://animefire.plus/img/animes/koutetsu-tenshi-kurumi-2/",
      "secao": "legendados",
      "pagina": 118,
      "total_episodios": 0,
      "link_video": "https://animefire.plus/video/koutetsu-tenshi-kurumi-2"
    },
    {
      "id": 2119,
      "nome": "Kouya no Kotobuki Hikoutai",
      "link": "https://animefire.plus/animes/kouya-no-kotobuki-hikoutai-todos-os-episodios",
      "texto_original": "Kouya no Kotobuki Hikoutai",
      "rating": 6.86,
      "classificacao_etaria": "A14",
      "imagem_original": "https://animefire.plus/img/animes/kouya-no-kotobuki-hikoutai.webp",
      "imagem_pasta": "https://animefire.plus/img/animes/kouya-no-kotobuki-hikoutai/",
      "secao": "legendados",
      "pagina": 102,
      "total_episodios": 12,
      "link_video": "https://animefire.plus/video/kouya-no-kotobuki-hikoutai"
    },
    {
      "id": 2120,
      "nome": "Kowabon",
      "link": "https://animefire.plus/animes/kowabon-todos-os-episodios",
      "texto_original": "Kowabon",
      "rating": 5.25,
      "classificacao_etaria": "A14",
      "imagem_original": "https://animefire.plus/img/animes/kowabon.webp",
      "imagem_pasta": "https://animefire.plus/img/animes/kowabon/",
      "secao": "legendados",
      "pagina": 59,
      "total_episodios": 13,
      "link_video": "https://animefire.plus/video/kowabon"
    }
  ],
  "pagination": {
    "current_page": 46,
    "per_page": 20,
    "total_items": 1805,
    "total_pages": 91,
    "has_next": true,
    "has_prev": true
  }
}
