{
  "message": "Animes com rating entre 5 e 7",
  "rating_range": {
    "min": 5,
    "max": 7
  },
  "data": [
    {
      "id": 1076,
      "nome": "Gad Guard",
      "link": "https://animefire.plus/animes/gad-guard-todos-os-episodios",
      "texto_original": "Gad Guard",
      "rating": 6.76,
      "classificacao_etaria": "A14",
      "imagem_original": "https://animefire.plus/img/animes/gad-guard.webp",
      "imagem_pasta": "https://animefire.plus/img/animes/gad-guard/",
      "secao": "legendados",
      "pagina": 170,
      "total_episodios": 26,
      "link_video": "https://animefire.plus/video/gad-guard"
    },
    {
      "id": 1079,
      "nome": "Gaist Crusher",
      "link": "https://animefire.plus/animes/gaist-crusher-todos-os-episodios",
      "texto_original": "Gaist Crusher",
      "rating": 6.01,
      "classificacao_etaria": "A10",
      "imagem_original": "https://animefire.plus/img/animes/gaist-crusher.webp",
      "imagem_pasta": "https://animefire.plus/img/animes/gaist-crusher/",
      "secao": "legendados",
      "pagina": 179,
      "total_episodios": 3,
      "link_video": "https://animefire.plus/video/gaist-crusher"
    },
    {
      "id": 1085,
      "nome": "Gakuen Basara",
      "link": "https://animefire.plus/animes/gakuen-basara-todos-os-episodios",
      "texto_original": "Gakuen Basara",
      "rating": 6.22,
      "classificacao_etaria": "A14",
      "imagem_original": "https://animefire.plus/img/animes/gakuen-basara.webp",
      "imagem_pasta": "https://animefire.plus/img/animes/gakuen-basara/",
      "secao": "legendados",
      "pagina": 151,
      "total_episodios": 12,
      "link_video": "https://animefire.plus/video/gakuen-basara"
    },
    {
      "id": 1086,
      "nome": "Gakuen Handsome",
      "link": "https://animefire.plus/animes/gakuen-handsome-todos-os-episodios",
      "texto_original": "Gakuen Handsome",
      "rating": 6.52,
      "classificacao_etaria": "A14",
      "imagem_original": "https://animefire.plus/img/animes/gakuen-handsome.webp",
      "imagem_pasta": "https://animefire.plus/img/animes/gakuen-handsome/",
      "secao": "legendados",
      "pagina": 171,
      "total_episodios": 7,
      "link_video": "https://animefire.plus/video/gakuen-handsome"
    },
    {
      "id": 1087,
      "nome": "Gakuen Heaven",
      "link": "https://animefire.plus/animes/gakuen-heaven-todos-os-episodios",
      "texto_original": "Gakuen Heaven",
      "rating": 6.69,
      "classificacao_etaria": "A14",
      "imagem_original": "https://animefire.plus/img/animes/gakuen-heaven.webp",
      "imagem_pasta": "https://animefire.plus/img/animes/gakuen-heaven/",
      "secao": "legendados",
      "pagina": 105,
      "total_episodios": 13,
      "link_video": "https://animefire.plus/video/gakuen-heaven"
    },
    {
      "id": 1088,
      "nome": "Gakuen Tokusou Hikaruon",
      "link": "https://animefire.plus/animes/gakuen-tokusou-hikaruon-todos-os-episodios",
      "texto_original": "Gakuen Tokusou Hikaruon",
      "rating": 5.56,
      "classificacao_etaria": "A18",
      "imagem_original": "https://animefire.plus/img/animes/gakuen-tokusou-hikaruon.webp",
      "imagem_pasta": "https://animefire.plus/img/animes/gakuen-tokusou-hikaruon/",
      "secao": "legendados",
      "pagina": 44,
      "total_episodios": 1,
      "link_video": "https://animefire.plus/video/gakuen-tokusou-hikaruon"
    },
    {
      "id": 1092,
      "nome": "Gal to Kyouryuu",
      "link": "https://animefire.plus/animes/gal-to-kyouryuu-todos-os-episodios",
      "texto_original": "Gal to Kyouryuu",
      "rating": 6.45,
      "classificacao_etaria": "A14",
      "imagem_original": "https://animefire.plus/img/animes/gal-to-kyouryuu.webp",
      "imagem_pasta": "https://animefire.plus/img/animes/gal-to-kyouryuu/",
      "secao": "legendados",
      "pagina": 81,
      "total_episodios": 1,
      "link_video": "https://animefire.plus/video/gal-to-kyouryuu"
    },
    {
      "id": 1093,
      "nome": "Gal-gaku.: Hijiri Girls Square Gakuin",
      "link": "https://animefire.plus/animes/gal-gaku-hijiri-girls-square-gakuin-todos-os-episodios",
      "texto_original": "Gal-gaku.: Hijiri Girls Square Gakuin",
      "rating": 5.43,
      "classificacao_etaria": "A14",
      "imagem_original": "https://animefire.plus/img/animes/gal-gaku-hijiri-girls-square-gakuin.webp",
      "imagem_pasta": "https://animefire.plus/img/animes/gal-gaku-hijiri-girls-square-gakuin/",
      "secao": "legendados,lancamentos",
      "pagina": 58,
      "total_episodios": 5,
      "link_video": "https://animefire.plus/video/gal-gaku-hijiri-girls-square-gakuin"
    },
    {
      "id": 1095,
      "nome": "Galaxy Angel Music Collection: Shouen to Shien no Cassoulet",
      "link": "https://animefire.plus/animes/galaxy-angel-music-collection-shouen-to-shien-no-cassoulet-todos-os-episodios",
      "texto_original": "Galaxy Angel Music Collection: Shouen to Shien no Cassoulet",
      "rating": 6.99,
      "classificacao_etaria": "A14",
      "imagem_original": "https://animefire.plus/img/animes/galaxy-angel-music-collection-shouen-to-shien-no-cassoulet.webp",
      "imagem_pasta": "https://animefire.plus/img/animes/galaxy-angel-music-collection-shouen-to-shien-no-cassoulet/",
      "secao": "legendados",
      "pagina": 84,
      "total_episodios": 1,
      "link_video": "https://animefire.plus/video/galaxy-angel-music-collection-shouen-to-shien-no-cassoulet"
    },
    {
      "id": 1097,
      "nome": "Galilei Donna",
      "link": "https://animefire.plus/animes/galilei-donna-todos-os-episodios",
      "texto_original": "Galilei Donna",
      "rating": 6.46,
      "classificacao_etaria": "A16",
      "imagem_original": "https://animefire.plus/img/animes/galilei-donna.webp",
      "imagem_pasta": "https://animefire.plus/img/animes/galilei-donna/",
      "secao": "legendados",
      "pagina": 134,
      "total_episodios": 3,
      "link_video": "https://animefire.plus/video/galilei-donna"
    },
    {
      "id": 1098,
      "nome": "Gall Force 3: Stardust War",
      "link": "https://animefire.plus/animes/gall-force-3-stardust-war-todos-os-episodios",
      "texto_original": "Gall Force 3: Stardust War",
      "rating": 6.36,
      "classificacao_etaria": "A18",
      "imagem_original": "https://animefire.plus/img/animes/gall-force-3-stardust-war.webp",
      "imagem_pasta": "https://animefire.plus/img/animes/gall-force-3-stardust-war/",
      "secao": "legendados",
      "pagina": 42,
      "total_episodios": 1,
      "link_video": "https://animefire.plus/video/gall-force-3-stardust-war"
    },
    {
      "id": 1099,
      "nome": "Gall Force: The Revolution",
      "link": "https://animefire.plus/animes/gall-force-the-revolution-todos-os-episodios",
      "texto_original": "Gall Force: The Revolution",
      "rating": 6.05,
      "classificacao_etaria": "A18",
      "imagem_original": "https://animefire.plus/img/animes/gall-force-the-revolution.webp",
      "imagem_pasta": "https://animefire.plus/img/animes/gall-force-the-revolution/",
      "secao": "legendados",
      "pagina": 158,
      "total_episodios": 4,
      "link_video": "https://animefire.plus/video/gall-force-the-revolution"
    },
    {
      "id": 1100,
      "nome": "Game Center Shoujo to Ibunka Kouryuu",
      "link": "https://animefire.plus/animes/game-center-shoujo-to-ibunka-kouryuu-todos-os-episodios",
      "texto_original": "Game Center Shoujo to Ibunka Kouryuu",
      "rating": 6.84,
      "classificacao_etaria": "A14",
      "imagem_original": "https://animefire.plus/img/animes/game-center-shoujo-to-ibunka-kouryuu.webp",
      "imagem_pasta": "https://animefire.plus/img/animes/game-center-shoujo-to-ibunka-kouryuu/",
      "secao": "legendados,lancamentos",
      "pagina": 2,
      "total_episodios": 5,
      "link_video": "https://animefire.plus/video/game-center-shoujo-to-ibunka-kouryuu"
    },
    {
      "id": 1102,
      "nome": "Ganbare Douki-chan",
      "link": "https://animefire.plus/animes/ganbare-douki-chan-todos-os-episodios",
      "texto_original": "Ganbare Douki-chan",
      "rating": 6.52,
      "classificacao_etaria": "A14",
      "imagem_original": "https://animefire.plus/img/animes/ganbare-douki-chan.webp",
      "imagem_pasta": "https://animefire.plus/img/animes/ganbare-douki-chan/",
      "secao": "legendados",
      "pagina": 39,
      "total_episodios": 12,
      "link_video": "https://animefire.plus/video/ganbare-douki-chan"
    },
    {
      "id": 1103,
      "nome": "Ganbare Douki-chan Special",
      "link": "https://animefire.plus/animes/ganbare-douki-chan-special-todos-os-episodios",
      "texto_original": "Ganbare Douki-chan Special",
      "rating": 6.4,
      "classificacao_etaria": "A14",
      "imagem_original": "https://animefire.plus/img/animes/ganbare-douki-chan-special.webp",
      "imagem_pasta": "https://animefire.plus/img/animes/ganbare-douki-chan-special/",
      "secao": "legendados",
      "pagina": 31,
      "total_episodios": 1,
      "link_video": "https://animefire.plus/video/ganbare-douki-chan-special"
    },
    {
      "id": 1104,
      "nome": "Ganbare! Kickers",
      "link": "https://animefire.plus/animes/ganbare-kickers-todos-os-episodios",
      "texto_original": "Ganbare! Kickers",
      "rating": 6.82,
      "classificacao_etaria": null,
      "imagem_original": "https://animefire.plus/img/animes/ganbare-kickers.webp",
      "imagem_pasta": "https://animefire.plus/img/animes/ganbare-kickers/",
      "secao": "legendados",
      "pagina": 84,
      "total_episodios": 0,
      "link_video": "https://animefire.plus/video/ganbare-kickers"
    },
    {
      "id": 1110,
      "nome": "Garo: Guren no Tsuki",
      "link": "https://animefire.plus/animes/garo-guren-no-tsuki-todos-os-episodios",
      "texto_original": "Garo: Guren no Tsuki",
      "rating": 5.9,
      "classificacao_etaria": "A14",
      "imagem_original": "https://animefire.plus/img/animes/garo-guren-no-tsuki.webp",
      "imagem_pasta": "https://animefire.plus/img/animes/garo-guren-no-tsuki/",
      "secao": "legendados",
      "pagina": 63,
      "total_episodios": 24,
      "link_video": "https://animefire.plus/video/garo-guren-no-tsuki"
    },
    {
      "id": 1113,
      "nome": "Gasaraki",
      "link": "https://animefire.plus/animes/gasaraki-todos-os-episodios",
      "texto_original": "Gasaraki",
      "rating": 6.69,
      "classificacao_etaria": "A14",
      "imagem_original": "https://animefire.plus/img/animes/gasaraki.webp",
      "imagem_pasta": "https://animefire.plus/img/animes/gasaraki/",
      "secao": "legendados",
      "pagina": 156,
      "total_episodios": 25,
      "link_video": "https://animefire.plus/video/gasaraki"
    },
    {
      "id": 1117,
      "nome": "Gate Keepers 21",
      "link": "https://animefire.plus/animes/gate-keepers-21-todos-os-episodios",
      "texto_original": "Gate Keepers 21",
      "rating": 6.84,
      "classificacao_etaria": "A14",
      "imagem_original": "https://animefire.plus/img/animes/gate-keepers-21.webp",
      "imagem_pasta": "https://animefire.plus/img/animes/gate-keepers-21/",
      "secao": "legendados",
      "pagina": 101,
      "total_episodios": 6,
      "link_video": "https://animefire.plus/video/gate-keepers-21"
    },
    {
      "id": 1120,
      "nome": "Gegege no Kitarou (2018)",
      "link": "https://animefire.plus/animes/gegege-no-kitarou-2018-todos-os-episodios",
      "texto_original": "Gegege no Kitarou (2018)",
      "rating": 6.77,
      "classificacao_etaria": "A10",
      "imagem_original": "https://animefire.plus/img/animes/gegege-no-kitarou-2018.webp",
      "imagem_pasta": "https://animefire.plus/img/animes/gegege-no-kitarou-2018/",
      "secao": "legendados",
      "pagina": 161,
      "total_episodios": 46,
      "link_video": "https://animefire.plus/video/gegege-no-kitarou-2018"
    }
  ],
  "pagination": {
    "current_page": 26,
    "per_page": 20,
    "total_items": 1805,
    "total_pages": 91,
    "has_next": true,
    "has_prev": true
  }
}
