{
  "message": "Animes com rating entre 5 e 7",
  "rating_range": {
    "min": 5,
    "max": 7
  },
  "data": [
    {
      "id": 666,
      "nome": "Cleopatra D.C.",
      "link": "https://animefire.plus/animes/cleopatra-d-c-todos-os-episodios",
      "texto_original": "Cleopatra D.C.",
      "rating": 5.95,
      "classificacao_etaria": "A18",
      "imagem_original": "https://animefire.plus/img/animes/cleopatra-d-c.webp",
      "imagem_pasta": "https://animefire.plus/img/animes/cleopatra-d-c/",
      "secao": "legendados",
      "pagina": 117,
      "total_episodios": 3,
      "link_video": "https://animefire.plus/video/cleopatra-d-c"
    },
    {
      "id": 668,
      "nome": "Clione no Akari",
      "link": "https://animefire.plus/animes/clione-no-akari-todos-os-episodios",
      "texto_original": "Clione no Akari",
      "rating": 5.43,
      "classificacao_etaria": "A14",
      "imagem_original": "https://animefire.plus/img/animes/clione-no-akari.webp",
      "imagem_pasta": "https://animefire.plus/img/animes/clione-no-akari/",
      "secao": "legendados",
      "pagina": 121,
      "total_episodios": 12,
      "link_video": "https://animefire.plus/video/clione-no-akari"
    },
    {
      "id": 669,
      "nome": "Clockwork Planet",
      "link": "https://animefire.plus/animes/clockwork-planet-todos-os-episodios",
      "texto_original": "Clockwork Planet",
      "rating": 6.51,
      "classificacao_etaria": "A14",
      "imagem_original": "https://animefire.plus/img/animes/clockwork-planet.webp",
      "imagem_pasta": "https://animefire.plus/img/animes/clockwork-planet/",
      "secao": "legendados",
      "pagina": 74,
      "total_episodios": 11,
      "link_video": "https://animefire.plus/video/clockwork-planet"
    },
    {
      "id": 670,
      "nome": "Clover",
      "link": "https://animefire.plus/animes/clover-todos-os-episodios",
      "texto_original": "Clover",
      "rating": 6.8,
      "classificacao_etaria": "A14",
      "imagem_original": "https://animefire.plus/img/animes/clover.webp",
      "imagem_pasta": "https://animefire.plus/img/animes/clover/",
      "secao": "legendados",
      "pagina": 41,
      "total_episodios": 0,
      "link_video": "https://animefire.plus/video/clover"
    },
    {
      "id": 671,
      "nome": "CMFU Xueyuan: Wangzi Peng Peng Qiu",
      "link": "https://animefire.plus/animes/cmfu-xueyuan-wangzi-peng-peng-qiu-todos-os-episodios",
      "texto_original": "CMFU Xueyuan: Wangzi Peng Peng Qiu",
      "rating": 6.32,
      "classificacao_etaria": "A14",
      "imagem_original": "https://animefire.plus/img/animes/cmfu-xueyuan-wangzi-peng-peng-qiu.webp",
      "imagem_pasta": "https://animefire.plus/img/animes/cmfu-xueyuan-wangzi-peng-peng-qiu/",
      "secao": "legendados",
      "pagina": 86,
      "total_episodios": 24,
      "link_video": "https://animefire.plus/video/cmfu-xueyuan-wangzi-peng-peng-qiu"
    },
    {
      "id": 674,
      "nome": "Code Geass: Dakkan no Rozé",
      "link": "https://animefire.plus/animes/code-geass-dakkan-no-roze-todos-os-episodios",
      "texto_original": "Code Geass: Dakkan no Rozé",
      "rating": 6.52,
      "classificacao_etaria": "A16",
      "imagem_original": "https://animefire.plus/img/animes/code-geass-dakkan-no-roze.webp",
      "imagem_pasta": "https://animefire.plus/img/animes/code-geass-dakkan-no-roze/",
      "secao": "legendados",
      "pagina": 12,
      "total_episodios": 12,
      "link_video": "https://animefire.plus/video/code-geass-dakkan-no-roze"
    },
    {
      "id": 677,
      "nome": "Code-E",
      "link": "https://animefire.plus/animes/code-e-todos-os-episodios",
      "texto_original": "Code-E",
      "rating": 6.48,
      "classificacao_etaria": null,
      "imagem_original": "https://animefire.plus/img/animes/code-e.webp",
      "imagem_pasta": "https://animefire.plus/img/animes/code-e/",
      "secao": "legendados",
      "pagina": 153,
      "total_episodios": 12,
      "link_video": "https://animefire.plus/video/code-e"
    },
    {
      "id": 678,
      "nome": "Code:Breaker",
      "link": "https://animefire.plus/animes/code-breaker-todos-os-episodios",
      "texto_original": "Code:Breaker",
      "rating": 6.93,
      "classificacao_etaria": "A16",
      "imagem_original": "https://animefire.plus/img/animes/code-breaker.webp",
      "imagem_pasta": "https://animefire.plus/img/animes/code-breaker/",
      "secao": "legendados",
      "pagina": 163,
      "total_episodios": 13,
      "link_video": "https://animefire.plus/video/code-breaker"
    },
    {
      "id": 679,
      "nome": "Code:Realize - Sousei no Himegimi",
      "link": "https://animefire.plus/animes/code-realize---sousei-no-himegimi-todos-os-episodios",
      "texto_original": "Code:Realize - Sousei no Himegimi",
      "rating": 6.7,
      "classificacao_etaria": "A14",
      "imagem_original": "https://animefire.plus/img/animes/code-realize---sousei-no-himegimi.webp",
      "imagem_pasta": "https://animefire.plus/img/animes/code-realize---sousei-no-himegimi/",
      "secao": "legendados",
      "pagina": 94,
      "total_episodios": 12,
      "link_video": "https://animefire.plus/video/code-realize---sousei-no-himegimi"
    },
    {
      "id": 680,
      "nome": "Colorful",
      "link": "https://animefire.plus/animes/colorful-todos-os-episodios",
      "texto_original": "Colorful",
      "rating": 6.1,
      "classificacao_etaria": "A18",
      "imagem_original": "https://animefire.plus/img/animes/colorful.webp",
      "imagem_pasta": "https://animefire.plus/img/animes/colorful/",
      "secao": "legendados",
      "pagina": 60,
      "total_episodios": 16,
      "link_video": "https://animefire.plus/video/colorful"
    },
    {
      "id": 682,
      "nome": "Comet Lucifer",
      "link": "https://animefire.plus/animes/comet-lucifer-todos-os-episodios",
      "texto_original": "Comet Lucifer",
      "rating": 5.93,
      "classificacao_etaria": "A14",
      "imagem_original": "https://animefire.plus/img/animes/comet-lucifer.webp",
      "imagem_pasta": "https://animefire.plus/img/animes/comet-lucifer/",
      "secao": "legendados",
      "pagina": 111,
      "total_episodios": 12,
      "link_video": "https://animefire.plus/video/comet-lucifer"
    },
    {
      "id": 684,
      "nome": "Comic Party",
      "link": "https://animefire.plus/animes/comic-party-todos-os-episodios",
      "texto_original": "Comic Party",
      "rating": 6.64,
      "classificacao_etaria": "A14",
      "imagem_original": "https://animefire.plus/img/animes/comic-party.webp",
      "imagem_pasta": "https://animefire.plus/img/animes/comic-party/",
      "secao": "legendados",
      "pagina": 99,
      "total_episodios": 13,
      "link_video": "https://animefire.plus/video/comic-party"
    },
    {
      "id": 685,
      "nome": "Comic Party Revolution",
      "link": "https://animefire.plus/animes/comic-party-revolution-todos-os-episodios",
      "texto_original": "Comic Party Revolution",
      "rating": 6.62,
      "classificacao_etaria": "A14",
      "imagem_original": "https://animefire.plus/img/animes/comic-party-revolution.webp",
      "imagem_pasta": "https://animefire.plus/img/animes/comic-party-revolution/",
      "secao": "legendados",
      "pagina": 146,
      "total_episodios": 7,
      "link_video": "https://animefire.plus/video/comic-party-revolution"
    },
    {
      "id": 686,
      "nome": "Conception",
      "link": "https://animefire.plus/animes/conception-todos-os-episodios",
      "texto_original": "Conception",
      "rating": 5.03,
      "classificacao_etaria": "A14",
      "imagem_original": "https://animefire.plus/img/animes/conception.webp",
      "imagem_pasta": "https://animefire.plus/img/animes/conception/",
      "secao": "legendados",
      "pagina": 138,
      "total_episodios": 12,
      "link_video": "https://animefire.plus/video/conception"
    },
    {
      "id": 687,
      "nome": "Concrete Revolutio: Choujin Gensou",
      "link": "https://animefire.plus/animes/concrete-revolutio-choujin-gensou-todos-os-episodios",
      "texto_original": "Concrete Revolutio: Choujin Gensou",
      "rating": 6.77,
      "classificacao_etaria": "A14",
      "imagem_original": "https://animefire.plus/img/animes/concrete-revolutio-choujin-gensou.webp",
      "imagem_pasta": "https://animefire.plus/img/animes/concrete-revolutio-choujin-gensou/",
      "secao": "legendados",
      "pagina": 107,
      "total_episodios": 13,
      "link_video": "https://animefire.plus/video/concrete-revolutio-choujin-gensou"
    },
    {
      "id": 690,
      "nome": "Cop Craft",
      "link": "https://animefire.plus/animes/cop-craft-todos-os-episodios",
      "texto_original": "Cop Craft",
      "rating": 6.74,
      "classificacao_etaria": "A16",
      "imagem_original": "https://animefire.plus/img/animes/cop-craft.webp",
      "imagem_pasta": "https://animefire.plus/img/animes/cop-craft/",
      "secao": "legendados",
      "pagina": 129,
      "total_episodios": 5,
      "link_video": "https://animefire.plus/video/cop-craft"
    },
    {
      "id": 691,
      "nome": "Copihan",
      "link": "https://animefire.plus/animes/copihan-todos-os-episodios",
      "texto_original": "Copihan",
      "rating": 5.49,
      "classificacao_etaria": "A14",
      "imagem_original": "https://animefire.plus/img/animes/copihan.webp",
      "imagem_pasta": "https://animefire.plus/img/animes/copihan/",
      "secao": "legendados",
      "pagina": 172,
      "total_episodios": 3,
      "link_video": "https://animefire.plus/video/copihan"
    },
    {
      "id": 692,
      "nome": "Coppelion",
      "link": "https://animefire.plus/animes/coppelion-todos-os-episodios",
      "texto_original": "Coppelion",
      "rating": 6.53,
      "classificacao_etaria": "A14",
      "imagem_original": "https://animefire.plus/img/animes/coppelion.webp",
      "imagem_pasta": "https://animefire.plus/img/animes/coppelion/",
      "secao": "legendados",
      "pagina": 113,
      "total_episodios": 6,
      "link_video": "https://animefire.plus/video/coppelion"
    },
    {
      "id": 693,
      "nome": "Corpse Party: Missing Footage",
      "link": "https://animefire.plus/animes/corpse-party-missing-footage-todos-os-episodios",
      "texto_original": "Corpse Party: Missing Footage",
      "rating": 6.25,
      "classificacao_etaria": "A16",
      "imagem_original": "https://animefire.plus/img/animes/corpse-party-missing-footage.webp",
      "imagem_pasta": "https://animefire.plus/img/animes/corpse-party-missing-footage/",
      "secao": "legendados",
      "pagina": 102,
      "total_episodios": 0,
      "link_video": "https://animefire.plus/video/corpse-party-missing-footage"
    },
    {
      "id": 694,
      "nome": "Corpse Party: Tortured Souls - Bougyakusareta Tamashii no Jukyou",
      "link": "https://animefire.plus/animes/corpse-party-tortured-souls---bougyakusareta-tamashii-no-jukyou-todos-os-episodios",
      "texto_original": "Corpse Party: Tortured Souls - Bougyakusareta Tamashii no Jukyou",
      "rating": 6.87,
      "classificacao_etaria": "A16",
      "imagem_original": "https://animefire.plus/img/animes/corpse-party-tortured-souls---bougyakusareta-tamashii-no-jukyou.webp",
      "imagem_pasta": "https://animefire.plus/img/animes/corpse-party-tortured-souls---bougyakusareta-tamashii-no-jukyou/",
      "secao": "legendados",
      "pagina": 105,
      "total_episodios": 4,
      "link_video": "https://animefire.plus/video/corpse-party-tortured-souls---bougyakusareta-tamashii-no-jukyou"
    }
  ],
  "pagination": {
    "current_page": 17,
    "per_page": 20,
    "total_items": 1805,
    "total_pages": 91,
    "has_next": true,
    "has_prev": true
  }
}
