{
  "message": "Animes com rating entre 5 e 7",
  "rating_range": {
    "min": 5,
    "max": 7
  },
  "data": [
    {
      "id": 2491,
      "nome": "Midara na Ao-chan wa Benkyou ga Dekinai",
      "link": "https://animefire.plus/animes/midara-na-ao-chan-wa-benkyou-ga-dekinai-todos-os-episodios",
      "texto_original": "Midara na Ao-chan wa Benkyou ga Dekinai",
      "rating": 6.79,
      "classificacao_etaria": "A14",
      "imagem_original": "https://animefire.plus/img/animes/midara-na-ao-chan-wa-benkyou-ga-dekinai.webp",
      "imagem_pasta": "https://animefire.plus/img/animes/midara-na-ao-chan-wa-benkyou-ga-dekinai/",
      "secao": "legendados",
      "pagina": 160,
      "total_episodios": 0,
      "link_video": "https://animefire.plus/video/midara-na-ao-chan-wa-benkyou-ga-dekinai"
    },
    {
      "id": 2492,
      "nome": "Midnight Eye: Gokuu",
      "link": "https://animefire.plus/animes/midnight-eye-gokuu-todos-os-episodios",
      "texto_original": "Midnight Eye: Gokuu",
      "rating": 6.5,
      "classificacao_etaria": "A18",
      "imagem_original": "https://animefire.plus/img/animes/midnight-eye-gokuu.webp",
      "imagem_pasta": "https://animefire.plus/img/animes/midnight-eye-gokuu/",
      "secao": "legendados",
      "pagina": 84,
      "total_episodios": 1,
      "link_video": "https://animefire.plus/video/midnight-eye-gokuu"
    },
    {
      "id": 2493,
      "nome": "Midnight Eye: Gokuu II",
      "link": "https://animefire.plus/animes/midnight-eye-gokuu-ii-todos-os-episodios",
      "texto_original": "Midnight Eye: Gokuu II",
      "rating": 6.29,
      "classificacao_etaria": "A18",
      "imagem_original": "https://animefire.plus/img/animes/midnight-eye-gokuu-ii.webp",
      "imagem_pasta": "https://animefire.plus/img/animes/midnight-eye-gokuu-ii/",
      "secao": "legendados",
      "pagina": 84,
      "total_episodios": 1,
      "link_video": "https://animefire.plus/video/midnight-eye-gokuu-ii"
    },
    {
      "id": 2499,
      "nome": "Mikagura Gakuen Kumikyoku",
      "link": "https://animefire.plus/animes/mikagura-gakuen-kumikyoku-todos-os-episodios",
      "texto_original": "Mikagura Gakuen Kumikyoku",
      "rating": 6.7,
      "classificacao_etaria": "A14",
      "imagem_original": "https://animefire.plus/img/animes/mikagura-gakuen-kumikyoku.webp",
      "imagem_pasta": "https://animefire.plus/img/animes/mikagura-gakuen-kumikyoku/",
      "secao": "legendados",
      "pagina": 61,
      "total_episodios": 2,
      "link_video": "https://animefire.plus/video/mikagura-gakuen-kumikyoku"
    },
    {
      "id": 2500,
      "nome": "Mikagura Gakuen Kumikyoku (TV)",
      "link": "https://animefire.plus/animes/mikagura-gakuen-kumikyoku-tv-todos-os-episodios",
      "texto_original": "Mikagura Gakuen Kumikyoku (TV)",
      "rating": 6.78,
      "classificacao_etaria": "A14",
      "imagem_original": "https://animefire.plus/img/animes/mikagura-gakuen-kumikyoku-tv.webp",
      "imagem_pasta": "https://animefire.plus/img/animes/mikagura-gakuen-kumikyoku-tv/",
      "secao": "legendados",
      "pagina": 126,
      "total_episodios": 1,
      "link_video": "https://animefire.plus/video/mikagura-gakuen-kumikyoku-tv"
    },
    {
      "id": 2502,
      "nome": "Mikeneko Holmes no Yuurei Joushu",
      "link": "https://animefire.plus/animes/mikeneko-holmes-no-yuurei-joushu-todos-os-episodios",
      "texto_original": "Mikeneko Holmes no Yuurei Joushu",
      "rating": 5.95,
      "classificacao_etaria": "A14",
      "imagem_original": "https://animefire.plus/img/animes/mikeneko-holmes-no-yuurei-joushu.webp",
      "imagem_pasta": "https://animefire.plus/img/animes/mikeneko-holmes-no-yuurei-joushu/",
      "secao": "legendados",
      "pagina": 56,
      "total_episodios": 1,
      "link_video": "https://animefire.plus/video/mikeneko-holmes-no-yuurei-joushu"
    },
    {
      "id": 2503,
      "nome": "Military!",
      "link": "https://animefire.plus/animes/military-todos-os-episodios",
      "texto_original": "Military!",
      "rating": 5.84,
      "classificacao_etaria": "A14",
      "imagem_original": "https://animefire.plus/img/animes/military.webp",
      "imagem_pasta": "https://animefire.plus/img/animes/military/",
      "secao": "legendados",
      "pagina": 64,
      "total_episodios": 12,
      "link_video": "https://animefire.plus/video/military"
    },
    {
      "id": 2505,
      "nome": "Min Diao Ju Yi Wen Lu",
      "link": "https://animefire.plus/animes/min-diao-ju-yi-wen-lu-todos-os-episodios",
      "texto_original": "Min Diao Ju Yi Wen Lu",
      "rating": 6.68,
      "classificacao_etaria": "A16",
      "imagem_original": "https://animefire.plus/img/animes/min-diao-ju-yi-wen-lu.webp",
      "imagem_pasta": "https://animefire.plus/img/animes/min-diao-ju-yi-wen-lu/",
      "secao": "legendados",
      "pagina": 43,
      "total_episodios": 5,
      "link_video": "https://animefire.plus/video/min-diao-ju-yi-wen-lu"
    },
    {
      "id": 2506,
      "nome": "Minami Kamakura Koukou Joshi Jitenshabu",
      "link": "https://animefire.plus/animes/minami-kamakura-koukou-joshi-jitenshabu-todos-os-episodios",
      "texto_original": "Minami Kamakura Koukou Joshi Jitenshabu",
      "rating": 6.26,
      "classificacao_etaria": "A14",
      "imagem_original": "https://animefire.plus/img/animes/minami-kamakura-koukou-joshi-jitenshabu.webp",
      "imagem_pasta": "https://animefire.plus/img/animes/minami-kamakura-koukou-joshi-jitenshabu/",
      "secao": "legendados",
      "pagina": 44,
      "total_episodios": 12,
      "link_video": "https://animefire.plus/video/minami-kamakura-koukou-joshi-jitenshabu"
    },
    {
      "id": 2507,
      "nome": "Minami Kamakura Koukou Joshi Jitenshabu: Kita yo, Taiwan!",
      "link": "https://animefire.plus/animes/minami-kamakura-koukou-joshi-jitenshabu-kita-yo-taiwan-todos-os-episodios",
      "texto_original": "Minami Kamakura Koukou Joshi Jitenshabu: Kita yo, Taiwan!",
      "rating": 6.5,
      "classificacao_etaria": "A14",
      "imagem_original": "https://animefire.plus/img/animes/minami-kamakura-koukou-joshi-jitenshabu-kita-yo-taiwan.webp",
      "imagem_pasta": "https://animefire.plus/img/animes/minami-kamakura-koukou-joshi-jitenshabu-kita-yo-taiwan/",
      "secao": "legendados",
      "pagina": 44,
      "total_episodios": 1,
      "link_video": "https://animefire.plus/video/minami-kamakura-koukou-joshi-jitenshabu-kita-yo-taiwan"
    },
    {
      "id": 2515,
      "nome": "Mini Sengoku Basara Two: Tsukiyo no Katakura-kun",
      "link": "https://animefire.plus/animes/mini-sengoku-basara-two-tsukiyo-no-katakura-kun-todos-os-episodios",
      "texto_original": "Mini Sengoku Basara Two: Tsukiyo no Katakura-kun",
      "rating": 6.81,
      "classificacao_etaria": null,
      "imagem_original": "https://animefire.plus/img/animes/mini-sengoku-basara-two-tsukiyo-no-katakura-kun.webp",
      "imagem_pasta": "https://animefire.plus/img/animes/mini-sengoku-basara-two-tsukiyo-no-katakura-kun/",
      "secao": "legendados",
      "pagina": 70,
      "total_episodios": 7,
      "link_video": "https://animefire.plus/video/mini-sengoku-basara-two-tsukiyo-no-katakura-kun"
    },
    {
      "id": 2516,
      "nome": "Mini Toji",
      "link": "https://animefire.plus/animes/mini-toji-todos-os-episodios",
      "texto_original": "Mini Toji",
      "rating": 6.14,
      "classificacao_etaria": null,
      "imagem_original": "https://animefire.plus/img/animes/mini-toji.webp",
      "imagem_pasta": "https://animefire.plus/img/animes/mini-toji/",
      "secao": "legendados",
      "pagina": 105,
      "total_episodios": 10,
      "link_video": "https://animefire.plus/video/mini-toji"
    },
    {
      "id": 2517,
      "nome": "Mini Yuri",
      "link": "https://animefire.plus/animes/mini-yuri-todos-os-episodios",
      "texto_original": "Mini Yuri",
      "rating": 6.74,
      "classificacao_etaria": "A14",
      "imagem_original": "https://animefire.plus/img/animes/mini-yuri.webp",
      "imagem_pasta": "https://animefire.plus/img/animes/mini-yuri/",
      "secao": "legendados",
      "pagina": 84,
      "total_episodios": 4,
      "link_video": "https://animefire.plus/video/mini-yuri"
    },
    {
      "id": 2518,
      "nome": "Minna Atsumare! Falcom Gakuen",
      "link": "https://animefire.plus/animes/minna-atsumare-falcom-gakuen-todos-os-episodios",
      "texto_original": "Minna Atsumare! Falcom Gakuen",
      "rating": 5.89,
      "classificacao_etaria": "A14",
      "imagem_original": "https://animefire.plus/img/animes/minna-atsumare-falcom-gakuen.webp",
      "imagem_pasta": "https://animefire.plus/img/animes/minna-atsumare-falcom-gakuen/",
      "secao": "legendados",
      "pagina": 108,
      "total_episodios": 13,
      "link_video": "https://animefire.plus/video/minna-atsumare-falcom-gakuen"
    },
    {
      "id": 2522,
      "nome": "Miru Tights",
      "link": "https://animefire.plus/animes/miru-tights-todos-os-episodios",
      "texto_original": "Miru Tights",
      "rating": 6.58,
      "classificacao_etaria": "A14",
      "imagem_original": "https://animefire.plus/img/animes/miru-tights.webp",
      "imagem_pasta": "https://animefire.plus/img/animes/miru-tights/",
      "secao": "legendados",
      "pagina": 112,
      "total_episodios": 0,
      "link_video": "https://animefire.plus/video/miru-tights"
    },
    {
      "id": 2523,
      "nome": "Miru Tights: Cosplay Satsuei Tights",
      "link": "https://animefire.plus/animes/miru-tights-cosplay-satsuei-tights-todos-os-episodios",
      "texto_original": "Miru Tights: Cosplay Satsuei Tights",
      "rating": 6.59,
      "classificacao_etaria": "A14",
      "imagem_original": "https://animefire.plus/img/animes/miru-tights-cosplay-satsuei-tights.webp",
      "imagem_pasta": "https://animefire.plus/img/animes/miru-tights-cosplay-satsuei-tights/",
      "secao": "legendados",
      "pagina": 88,
      "total_episodios": 1,
      "link_video": "https://animefire.plus/video/miru-tights-cosplay-satsuei-tights"
    },
    {
      "id": 2524,
      "nome": "Miru: Watashi no Mirai",
      "link": "https://animefire.plus/animes/miru-watashi-no-mirai-todos-os-episodios",
      "texto_original": "Miru: Watashi no Mirai",
      "rating": 5.2,
      "classificacao_etaria": "A14",
      "imagem_original": "https://animefire.plus/img/animes/miru-watashi-no-mirai.webp",
      "imagem_pasta": "https://animefire.plus/img/animes/miru-watashi-no-mirai/",
      "secao": "legendados,lancamentos",
      "pagina": 4,
      "total_episodios": 0,
      "link_video": "https://animefire.plus/video/miru-watashi-no-mirai"
    },
    {
      "id": 2525,
      "nome": "Mission-E",
      "link": "https://animefire.plus/animes/mission-e-todos-os-episodios",
      "texto_original": "Mission-E",
      "rating": 6.54,
      "classificacao_etaria": "A10",
      "imagem_original": "https://animefire.plus/img/animes/mission-e.webp",
      "imagem_pasta": "https://animefire.plus/img/animes/mission-e/",
      "secao": "legendados",
      "pagina": 118,
      "total_episodios": 12,
      "link_video": "https://animefire.plus/video/mission-e"
    },
    {
      "id": 2526,
      "nome": "Mitsuami no Kamisama",
      "link": "https://animefire.plus/animes/mitsuami-no-kamisama-todos-os-episodios",
      "texto_original": "Mitsuami no Kamisama",
      "rating": 6.78,
      "classificacao_etaria": null,
      "imagem_original": "https://animefire.plus/img/animes/mitsuami-no-kamisama.webp",
      "imagem_pasta": "https://animefire.plus/img/animes/mitsuami-no-kamisama/",
      "secao": "legendados",
      "pagina": 84,
      "total_episodios": 1,
      "link_video": "https://animefire.plus/video/mitsuami-no-kamisama"
    },
    {
      "id": 2530,
      "nome": "Mix - Meisei Story 2nd Season",
      "link": "https://animefire.plus/animes/mix-meisei-story-2nd-season-todos-os-episodios",
      "texto_original": "Mix - Meisei Story 2nd Season",
      "rating": 6.98,
      "classificacao_etaria": "A14",
      "imagem_original": "https://animefire.plus/img/animes/mix-meisei-story-2nd-season.jpg",
      "imagem_pasta": "https://animefire.plus/img/animes/mix-meisei-story-2nd-season/",
      "secao": "legendados,lancamentos",
      "pagina": 25,
      "total_episodios": 18,
      "link_video": "https://animefire.plus/video/mix-meisei-story-2nd-season"
    }
  ],
  "pagination": {
    "current_page": 54,
    "per_page": 20,
    "total_items": 1805,
    "total_pages": 91,
    "has_next": true,
    "has_prev": true
  }
}
