{
  "message": "Animes com rating entre 5 e 7",
  "rating_range": {
    "min": 5,
    "max": 7
  },
  "data": [
    {
      "id": 3808,
      "nome": "Tenshi Ni Narumon!",
      "link": "https://animefire.plus/animes/tenshi-ni-narumon-todos-os-episodios",
      "texto_original": "Tenshi Ni Narumon!",
      "rating": 6.79,
      "classificacao_etaria": "A14",
      "imagem_original": "https://animefire.plus/img/animes/tenshi-ni-narumon.webp",
      "imagem_pasta": "https://animefire.plus/img/animes/tenshi-ni-narumon/",
      "secao": "legendados",
      "pagina": 109,
      "total_episodios": 26,
      "link_video": "https://animefire.plus/video/tenshi-ni-narumon"
    },
    {
      "id": 3809,
      "nome": "Tenshi no 3P!",
      "link": "https://animefire.plus/animes/tenshi-no-3p-todos-os-episodios",
      "texto_original": "Tenshi no 3P!",
      "rating": 6.71,
      "classificacao_etaria": "A14",
      "imagem_original": "https://animefire.plus/img/animes/tenshi-no-3p.webp",
      "imagem_pasta": "https://animefire.plus/img/animes/tenshi-no-3p/",
      "secao": "legendados",
      "pagina": 76,
      "total_episodios": 12,
      "link_video": "https://animefire.plus/video/tenshi-no-3p"
    },
    {
      "id": 3810,
      "nome": "Tensui no Sakuna-hime",
      "link": "https://animefire.plus/animes/tensui-no-sakuna-hime-todos-os-episodios",
      "texto_original": "Tensui no Sakuna-hime",
      "rating": 6.74,
      "classificacao_etaria": "A14",
      "imagem_original": "https://animefire.plus/img/animes/tensui-no-sakuna-hime.webp",
      "imagem_pasta": "https://animefire.plus/img/animes/tensui-no-sakuna-hime/",
      "secao": "legendados",
      "pagina": 12,
      "total_episodios": 13,
      "link_video": "https://animefire.plus/video/tensui-no-sakuna-hime"
    },
    {
      "id": 3813,
      "nome": "Teogonia",
      "link": "https://animefire.plus/animes/teogonia-todos-os-episodios",
      "texto_original": "Teogonia",
      "rating": 6.93,
      "classificacao_etaria": "A14",
      "imagem_original": "https://animefire.plus/img/animes/teogonia.webp",
      "imagem_pasta": "https://animefire.plus/img/animes/teogonia/",
      "secao": "legendados",
      "pagina": 5,
      "total_episodios": 12,
      "link_video": "https://animefire.plus/video/teogonia"
    },
    {
      "id": 3815,
      "nome": "Teppen!!!!!!!!!!!!!!!",
      "link": "https://animefire.plus/animes/teppen-laughing-039-til-you-cry-todos-os-episodios",
      "texto_original": "Teppen!!!!!!!!!!!!!!!",
      "rating": 6.61,
      "classificacao_etaria": "A14",
      "imagem_original": "https://animefire.plus/img/animes/teppen-laughing-039-til-you-cry.webp",
      "imagem_pasta": "https://animefire.plus/img/animes/teppen-laughing-039-til-you-cry/",
      "secao": "legendados,lancamentos",
      "pagina": 32,
      "total_episodios": 2,
      "link_video": "https://animefire.plus/video/teppen-laughing-039-til-you-cry"
    },
    {
      "id": 3818,
      "nome": "Terra Formars Revenge",
      "link": "https://animefire.plus/animes/terra-formars-revenge-todos-os-episodios",
      "texto_original": "Terra Formars Revenge",
      "rating": 6.82,
      "classificacao_etaria": "A16",
      "imagem_original": "https://animefire.plus/img/animes/terra-formars-revenge.webp",
      "imagem_pasta": "https://animefire.plus/img/animes/terra-formars-revenge/",
      "secao": "legendados",
      "pagina": 97,
      "total_episodios": 1,
      "link_video": "https://animefire.plus/video/terra-formars-revenge"
    },
    {
      "id": 3831,
      "nome": "The iDOLM@STER Million Live!",
      "link": "https://animefire.plus/animes/the-idolmaster-million-live-todos-os-episodios",
      "texto_original": "The iDOLM@STER Million Live!",
      "rating": 6.92,
      "classificacao_etaria": "A14",
      "imagem_original": "https://animefire.plus/img/animes/the-idolmaster-million-live.webp",
      "imagem_pasta": "https://animefire.plus/img/animes/the-idolmaster-million-live/",
      "secao": "legendados",
      "pagina": 19,
      "total_episodios": 12,
      "link_video": "https://animefire.plus/video/the-idolmaster-million-live"
    },
    {
      "id": 3832,
      "nome": "The iDOLM@STER Shiny Colors",
      "link": "https://animefire.plus/animes/the-idolmaster-shiny-colors-todos-os-episodios",
      "texto_original": "The iDOLM@STER Shiny Colors",
      "rating": 6.08,
      "classificacao_etaria": "A14",
      "imagem_original": "https://animefire.plus/img/animes/the-idolmaster-shiny-colors.webp",
      "imagem_pasta": "https://animefire.plus/img/animes/the-idolmaster-shiny-colors/",
      "secao": "legendados",
      "pagina": 14,
      "total_episodios": 12,
      "link_video": "https://animefire.plus/video/the-idolmaster-shiny-colors"
    },
    {
      "id": 3833,
      "nome": "The iDOLM@STER Shiny Colors 2nd Season",
      "link": "https://animefire.plus/animes/the-idolmaster-shiny-colors-2nd-season-todos-os-episodios",
      "texto_original": "The iDOLM@STER Shiny Colors 2nd Season",
      "rating": 6.33,
      "classificacao_etaria": "A14",
      "imagem_original": "https://animefire.plus/img/animes/the-idolmaster-shiny-colors-2nd-season.webp",
      "imagem_pasta": "https://animefire.plus/img/animes/the-idolmaster-shiny-colors-2nd-season/",
      "secao": "legendados",
      "pagina": 9,
      "total_episodios": 12,
      "link_video": "https://animefire.plus/video/the-idolmaster-shiny-colors-2nd-season"
    },
    {
      "id": 3835,
      "nome": "The iDOLM@STER SideM: 315 Variety Pack! Made In Passion!",
      "link": "https://animefire.plus/animes/the-idolmatster-sidem-315-variety-pack-made-in-passion-todos-os-episodios",
      "texto_original": "The iDOLM@STER SideM: 315 Variety Pack! Made In Passion!",
      "rating": 6.53,
      "classificacao_etaria": "A14",
      "imagem_original": "https://animefire.plus/img/animes/the-idolmatster-sidem-315-variety-pack-made-in-passion.webp",
      "imagem_pasta": "https://animefire.plus/img/animes/the-idolmatster-sidem-315-variety-pack-made-in-passion/",
      "secao": "legendados",
      "pagina": 87,
      "total_episodios": 1,
      "link_video": "https://animefire.plus/video/the-idolmatster-sidem-315-variety-pack-made-in-passion"
    },
    {
      "id": 3836,
      "nome": "The iDOLM@STER SideM: Wake Atte Mini!",
      "link": "https://animefire.plus/animes/the-idolmatster-sidem-wake-atte-mini-todos-os-episodios",
      "texto_original": "The iDOLM@STER SideM: Wake Atte Mini!",
      "rating": 6.18,
      "classificacao_etaria": "A14",
      "imagem_original": "https://animefire.plus/img/animes/the-idolmatster-sidem-wake-atte-mini.webp",
      "imagem_pasta": "https://animefire.plus/img/animes/the-idolmatster-sidem-wake-atte-mini/",
      "secao": "legendados",
      "pagina": 87,
      "total_episodios": 1,
      "link_video": "https://animefire.plus/video/the-idolmatster-sidem-wake-atte-mini"
    },
    {
      "id": 3837,
      "nome": "The King of Fighters: Destiny",
      "link": "https://animefire.plus/animes/the-king-of-fighters-destiny-todos-os-episodios",
      "texto_original": "The King of Fighters: Destiny",
      "rating": 6.64,
      "classificacao_etaria": "A14",
      "imagem_original": "https://animefire.plus/img/animes/the-king-of-fighters-destiny.webp",
      "imagem_pasta": "https://animefire.plus/img/animes/the-king-of-fighters-destiny/",
      "secao": "legendados",
      "pagina": 59,
      "total_episodios": 24,
      "link_video": "https://animefire.plus/video/the-king-of-fighters-destiny"
    },
    {
      "id": 3838,
      "nome": "The Legend of Heroes: Sen no Kiseki - Northern War",
      "link": "https://animefire.plus/animes/the-legend-of-heroes-sen-no-kiseki---northern-war-todos-os-episodios",
      "texto_original": "The Legend of Heroes: Sen no Kiseki - Northern War",
      "rating": 5.63,
      "classificacao_etaria": "A14",
      "imagem_original": "https://animefire.plus/img/animes/the-legend-of-heroes-sen-no-kiseki---northern-war.webp",
      "imagem_pasta": "https://animefire.plus/img/animes/the-legend-of-heroes-sen-no-kiseki---northern-war/",
      "secao": "legendados,lancamentos",
      "pagina": 27,
      "total_episodios": 8,
      "link_video": "https://animefire.plus/video/the-legend-of-heroes-sen-no-kiseki---northern-war"
    },
    {
      "id": 3839,
      "nome": "The Marginal Service",
      "link": "https://animefire.plus/animes/the-marginal-service-todos-os-episodios",
      "texto_original": "The Marginal Service",
      "rating": 5.5,
      "classificacao_etaria": "A14",
      "imagem_original": "https://animefire.plus/img/animes/the-marginal-service.jpg",
      "imagem_pasta": "https://animefire.plus/img/animes/the-marginal-service/",
      "secao": "legendados",
      "pagina": 24,
      "total_episodios": 12,
      "link_video": "https://animefire.plus/video/the-marginal-service"
    },
    {
      "id": 3840,
      "nome": "The New Gate (Dublado)",
      "link": "https://animefire.plus/animes/the-new-gate-dublado-todos-os-episodios",
      "texto_original": "The New Gate (Dublado)",
      "rating": 6.45,
      "classificacao_etaria": "A14",
      "imagem_original": "https://animefire.plus/img/animes/the-new-gate.webp",
      "imagem_pasta": "https://animefire.plus/img/animes/the-new-gate/",
      "secao": "dublados,legendados,lancamentos",
      "pagina": 2,
      "total_episodios": 12,
      "link_video": "https://animefire.plus/video/the-new-gate-dublado"
    },
    {
      "id": 3841,
      "nome": "The Reflection",
      "link": "https://animefire.plus/animes/the-reflection-todos-os-episodios",
      "texto_original": "The Reflection",
      "rating": 5.16,
      "classificacao_etaria": "A14",
      "imagem_original": "https://animefire.plus/img/animes/the-reflection.webp",
      "imagem_pasta": "https://animefire.plus/img/animes/the-reflection/",
      "secao": "legendados",
      "pagina": 64,
      "total_episodios": 12,
      "link_video": "https://animefire.plus/video/the-reflection"
    },
    {
      "id": 3842,
      "nome": "The SoulTaker: Tamashii-gari",
      "link": "https://animefire.plus/animes/the-soultaker-tamashii-gari-todos-os-episodios",
      "texto_original": "The SoulTaker: Tamashii-gari",
      "rating": 6.44,
      "classificacao_etaria": "A14",
      "imagem_original": "https://animefire.plus/img/animes/the-soultaker-tamashii-gari.webp",
      "imagem_pasta": "https://animefire.plus/img/animes/the-soultaker-tamashii-gari/",
      "secao": "legendados",
      "pagina": 129,
      "total_episodios": 13,
      "link_video": "https://animefire.plus/video/the-soultaker-tamashii-gari"
    },
    {
      "id": 3845,
      "nome": "Tide-Line Blue",
      "link": "https://animefire.plus/animes/tide-line-blue-todos-os-episodios",
      "texto_original": "Tide-Line Blue",
      "rating": 6.71,
      "classificacao_etaria": "A14",
      "imagem_original": "https://animefire.plus/img/animes/tide-line-blue.webp",
      "imagem_pasta": "https://animefire.plus/img/animes/tide-line-blue/",
      "secao": "legendados",
      "pagina": 141,
      "total_episodios": 13,
      "link_video": "https://animefire.plus/video/tide-line-blue"
    },
    {
      "id": 3848,
      "nome": "Time Bokan 24",
      "link": "https://animefire.plus/animes/time-bokan-24-todos-os-episodios",
      "texto_original": "Time Bokan 24",
      "rating": 5.89,
      "classificacao_etaria": "A14",
      "imagem_original": "https://animefire.plus/img/animes/time-bokan-24.webp",
      "imagem_pasta": "https://animefire.plus/img/animes/time-bokan-24/",
      "secao": "legendados",
      "pagina": 64,
      "total_episodios": 24,
      "link_video": "https://animefire.plus/video/time-bokan-24"
    },
    {
      "id": 3849,
      "nome": "Time Bokan: Gyakushuu no San Akunin",
      "link": "https://animefire.plus/animes/time-bokan-gyakushuu-no-san-akunin-todos-os-episodios",
      "texto_original": "Time Bokan: Gyakushuu no San Akunin",
      "rating": 5.77,
      "classificacao_etaria": "A14",
      "imagem_original": "https://animefire.plus/img/animes/time-bokan-gyakushuu-no-san-akunin.webp",
      "imagem_pasta": "https://animefire.plus/img/animes/time-bokan-gyakushuu-no-san-akunin/",
      "secao": "legendados",
      "pagina": 97,
      "total_episodios": 24,
      "link_video": "https://animefire.plus/video/time-bokan-gyakushuu-no-san-akunin"
    }
  ],
  "pagination": {
    "current_page": 80,
    "per_page": 20,
    "total_items": 1805,
    "total_pages": 91,
    "has_next": true,
    "has_prev": true
  }
}
