{
  "message": "Animes com rating entre 5 e 7",
  "rating_range": {
    "min": 5,
    "max": 7
  },
  "data": [
    {
      "id": 2454,
      "nome": "Mayonaka no Occult Koumuin",
      "link": "https://animefire.plus/animes/mayonaka-no-occult-koumuin-todos-os-episodios",
      "texto_original": "Mayonaka no Occult Koumuin",
      "rating": 6.71,
      "classificacao_etaria": "A14",
      "imagem_original": "https://animefire.plus/img/animes/mayonaka-no-occult-koumuin.webp",
      "imagem_pasta": "https://animefire.plus/img/animes/mayonaka-no-occult-koumuin/",
      "secao": "legendados",
      "pagina": 147,
      "total_episodios": 0,
      "link_video": "https://animefire.plus/video/mayonaka-no-occult-koumuin"
    },
    {
      "id": 2455,
      "nome": "Mayonaka no Occult Koumuin: Fukurokouji to Ano Ko to Ore to",
      "link": "https://animefire.plus/animes/mayonaka-no-occult-koumuin-fukurokouji-to-ano-ko-to-ore-to-todos-os-episodios",
      "texto_original": "Mayonaka no Occult Koumuin: Fukurokouji to Ano Ko to Ore to",
      "rating": 6.79,
      "classificacao_etaria": "A14",
      "imagem_original": "https://animefire.plus/img/animes/mayonaka-no-occult-koumuin-fukurokouji-to-ano-ko-to-ore-to.webp",
      "imagem_pasta": "https://animefire.plus/img/animes/mayonaka-no-occult-koumuin-fukurokouji-to-ano-ko-to-ore-to/",
      "secao": "legendados",
      "pagina": 88,
      "total_episodios": 1,
      "link_video": "https://animefire.plus/video/mayonaka-no-occult-koumuin-fukurokouji-to-ano-ko-to-ore-to"
    },
    {
      "id": 2458,
      "nome": "Maze☆Bakunetsu Jikuu (TV)",
      "link": "https://animefire.plus/animes/maze-bakunetsu-jikuu-tv-todos-os-episodios",
      "texto_original": "Maze☆Bakunetsu Jikuu (TV)",
      "rating": 6.73,
      "classificacao_etaria": "A18",
      "imagem_original": "https://animefire.plus/img/animes/maze-bakunetsu-jikuu-tv.webp",
      "imagem_pasta": "https://animefire.plus/img/animes/maze-bakunetsu-jikuu-tv/",
      "secao": "legendados",
      "pagina": 150,
      "total_episodios": 0,
      "link_video": "https://animefire.plus/video/maze-bakunetsu-jikuu-tv"
    },
    {
      "id": 2460,
      "nome": "Mecha-ude (TV)",
      "link": "https://animefire.plus/animes/mecha-ude-tv-todos-os-episodios",
      "texto_original": "Mecha-ude (TV)",
      "rating": 6.8,
      "classificacao_etaria": "A14",
      "imagem_original": "https://animefire.plus/img/animes/mecha-ude-tv.webp",
      "imagem_pasta": "https://animefire.plus/img/animes/mecha-ude-tv/",
      "secao": "legendados",
      "pagina": 10,
      "total_episodios": 12,
      "link_video": "https://animefire.plus/video/mecha-ude-tv"
    },
    {
      "id": 2465,
      "nome": "Megami Kouhosei (Dublado)",
      "link": "https://animefire.plus/animes/megami-kouhosei-dublado-todos-os-episodios",
      "texto_original": "Megami Kouhosei (Dublado)",
      "rating": 6.49,
      "classificacao_etaria": "A14",
      "imagem_original": "https://animefire.plus/img/animes/megami-kouhosei.webp",
      "imagem_pasta": "https://animefire.plus/img/animes/megami-kouhosei/",
      "secao": "dublados,legendados",
      "pagina": 26,
      "total_episodios": 12,
      "link_video": "https://animefire.plus/video/megami-kouhosei-dublado"
    },
    {
      "id": 2468,
      "nome": "Megami Paradise",
      "link": "https://animefire.plus/animes/megami-paradise-todos-os-episodios",
      "texto_original": "Megami Paradise",
      "rating": 5.54,
      "classificacao_etaria": "A18",
      "imagem_original": "https://animefire.plus/img/animes/megami-paradise.webp",
      "imagem_pasta": "https://animefire.plus/img/animes/megami-paradise/",
      "secao": "legendados",
      "pagina": 68,
      "total_episodios": 2,
      "link_video": "https://animefire.plus/video/megami-paradise"
    },
    {
      "id": 2469,
      "nome": "Megami-ryou no Ryoubo-kun.",
      "link": "https://animefire.plus/animes/megami-ryou-no-ryoubo-kun-todos-os-episodios",
      "texto_original": "Megami-ryou no Ryoubo-kun.",
      "rating": 6.49,
      "classificacao_etaria": "A18",
      "imagem_original": "https://animefire.plus/img/animes/megami-ryou-no-ryoubo-kun.webp",
      "imagem_pasta": "https://animefire.plus/img/animes/megami-ryou-no-ryoubo-kun/",
      "secao": "legendados",
      "pagina": 41,
      "total_episodios": 10,
      "link_video": "https://animefire.plus/video/megami-ryou-no-ryoubo-kun"
    },
    {
      "id": 2470,
      "nome": "Meganebu!",
      "link": "https://animefire.plus/animes/meganebu-todos-os-episodios",
      "texto_original": "Meganebu!",
      "rating": 6.35,
      "classificacao_etaria": "A14",
      "imagem_original": "https://animefire.plus/img/animes/meganebu.webp",
      "imagem_pasta": "https://animefire.plus/img/animes/meganebu/",
      "secao": "legendados",
      "pagina": 172,
      "total_episodios": 2,
      "link_video": "https://animefire.plus/video/meganebu"
    },
    {
      "id": 2471,
      "nome": "Megaton-kyuu Musashi",
      "link": "https://animefire.plus/animes/megaton-kyuu-musashi-todos-os-episodios",
      "texto_original": "Megaton-kyuu Musashi",
      "rating": 6.28,
      "classificacao_etaria": "A14",
      "imagem_original": "https://animefire.plus/img/animes/megaton-kyuu-musashi.webp",
      "imagem_pasta": "https://animefire.plus/img/animes/megaton-kyuu-musashi/",
      "secao": "legendados",
      "pagina": 13,
      "total_episodios": 1,
      "link_video": "https://animefire.plus/video/megaton-kyuu-musashi"
    },
    {
      "id": 2472,
      "nome": "Megumi no Daigo: Kyuukoku no Orange",
      "link": "https://animefire.plus/animes/megumi-no-daigo-kyuukoku-no-orange-todos-os-episodios",
      "texto_original": "Megumi no Daigo: Kyuukoku no Orange",
      "rating": 6.71,
      "classificacao_etaria": "A14",
      "imagem_original": "https://animefire.plus/img/animes/megumi-no-daigo-kyuukoku-no-orange.webp",
      "imagem_pasta": "https://animefire.plus/img/animes/megumi-no-daigo-kyuukoku-no-orange/",
      "secao": "legendados",
      "pagina": 21,
      "total_episodios": 23,
      "link_video": "https://animefire.plus/video/megumi-no-daigo-kyuukoku-no-orange"
    },
    {
      "id": 2473,
      "nome": "Meiji Gekken: 1874",
      "link": "https://animefire.plus/animes/meiji-gekken-1874-todos-os-episodios",
      "texto_original": "Meiji Gekken: 1874",
      "rating": 6.32,
      "classificacao_etaria": "A16",
      "imagem_original": "https://animefire.plus/img/animes/meiji-gekken-1874.webp",
      "imagem_pasta": "https://animefire.plus/img/animes/meiji-gekken-1874/",
      "secao": "legendados",
      "pagina": 16,
      "total_episodios": 10,
      "link_video": "https://animefire.plus/video/meiji-gekken-1874"
    },
    {
      "id": 2474,
      "nome": "Meiji Tokyo Renka",
      "link": "https://animefire.plus/animes/meiji-tokyo-renka-todos-os-episodios",
      "texto_original": "Meiji Tokyo Renka",
      "rating": 6.93,
      "classificacao_etaria": "A14",
      "imagem_original": "https://animefire.plus/img/animes/meiji-tokyo-renka.webp",
      "imagem_pasta": "https://animefire.plus/img/animes/meiji-tokyo-renka/",
      "secao": "legendados",
      "pagina": 100,
      "total_episodios": 12,
      "link_video": "https://animefire.plus/video/meiji-tokyo-renka"
    },
    {
      "id": 2476,
      "nome": "Meiou Project Zeorymer",
      "link": "https://animefire.plus/animes/meiou-project-zeorymer-todos-os-episodios",
      "texto_original": "Meiou Project Zeorymer",
      "rating": 6.2,
      "classificacao_etaria": "A18",
      "imagem_original": "https://animefire.plus/img/animes/meiou-project-zeorymer.webp",
      "imagem_pasta": "https://animefire.plus/img/animes/meiou-project-zeorymer/",
      "secao": "legendados",
      "pagina": 76,
      "total_episodios": 4,
      "link_video": "https://animefire.plus/video/meiou-project-zeorymer"
    },
    {
      "id": 2478,
      "nome": "Melty Lancer",
      "link": "https://animefire.plus/animes/melty-lancer-todos-os-episodios",
      "texto_original": "Melty Lancer",
      "rating": 5.96,
      "classificacao_etaria": "A14",
      "imagem_original": "https://animefire.plus/img/animes/melty-lancer.webp",
      "imagem_pasta": "https://animefire.plus/img/animes/melty-lancer/",
      "secao": "legendados",
      "pagina": 66,
      "total_episodios": 6,
      "link_video": "https://animefire.plus/video/melty-lancer"
    },
    {
      "id": 2481,
      "nome": "Merc Storia: Mukiryoku no Shounen to Bin no Naka no Shoujo",
      "link": "https://animefire.plus/animes/merc-storia-mukiryoku-no-shounen-to-bin-no-naka-no-shoujo-todos-os-episodios",
      "texto_original": "Merc Storia: Mukiryoku no Shounen to Bin no Naka no Shoujo",
      "rating": 6.63,
      "classificacao_etaria": "A14",
      "imagem_original": "https://animefire.plus/img/animes/merc-storia-mukiryoku-no-shounen-to-bin-no-naka-no-shoujo.webp",
      "imagem_pasta": "https://animefire.plus/img/animes/merc-storia-mukiryoku-no-shounen-to-bin-no-naka-no-shoujo/",
      "secao": "legendados",
      "pagina": 158,
      "total_episodios": 12,
      "link_video": "https://animefire.plus/video/merc-storia-mukiryoku-no-shounen-to-bin-no-naka-no-shoujo"
    },
    {
      "id": 2482,
      "nome": "Metal Fight Beyblade (Dublado)",
      "link": "https://animefire.plus/animes/metal-fight-beyblade-dublado-todos-os-episodios",
      "texto_original": "Metal Fight Beyblade (Dublado)",
      "rating": 6.71,
      "classificacao_etaria": "A10",
      "imagem_original": "https://animefire.plus/img/animes/metal-fight-beyblade.webp",
      "imagem_pasta": "https://animefire.plus/img/animes/metal-fight-beyblade/",
      "secao": "dublados",
      "pagina": 26,
      "total_episodios": 51,
      "link_video": "https://animefire.plus/video/metal-fight-beyblade-dublado"
    },
    {
      "id": 2483,
      "nome": "Metallic Rouge (Dublado)",
      "link": "https://animefire.plus/animes/metallic-rouge-dublado-todos-os-episodios",
      "texto_original": "Metallic Rouge (Dublado)",
      "rating": 6.2,
      "classificacao_etaria": "A14",
      "imagem_original": "https://animefire.plus/img/animes/metallic-rouge.webp",
      "imagem_pasta": "https://animefire.plus/img/animes/metallic-rouge/",
      "secao": "dublados,legendados",
      "pagina": 4,
      "total_episodios": 13,
      "link_video": "https://animefire.plus/video/metallic-rouge-dublado"
    },
    {
      "id": 2484,
      "nome": "Mewkledreamy",
      "link": "https://animefire.plus/animes/mewkledreamy-todos-os-episodios",
      "texto_original": "Mewkledreamy",
      "rating": 6.5,
      "classificacao_etaria": null,
      "imagem_original": "https://animefire.plus/img/animes/mewkledreamy.webp",
      "imagem_pasta": "https://animefire.plus/img/animes/mewkledreamy/",
      "secao": "legendados,lancamentos",
      "pagina": 80,
      "total_episodios": 0,
      "link_video": "https://animefire.plus/video/mewkledreamy"
    },
    {
      "id": 2485,
      "nome": "Mezzo DSA",
      "link": "https://animefire.plus/animes/mezzo-dsa-todos-os-episodios",
      "texto_original": "Mezzo DSA",
      "rating": 6.74,
      "classificacao_etaria": "A18",
      "imagem_original": "https://animefire.plus/img/animes/mezzo-dsa.webp",
      "imagem_pasta": "https://animefire.plus/img/animes/mezzo-dsa/",
      "secao": "legendados",
      "pagina": 166,
      "total_episodios": 13,
      "link_video": "https://animefire.plus/video/mezzo-dsa"
    },
    {
      "id": 2489,
      "nome": "Miami Guns",
      "link": "https://animefire.plus/animes/miami-guns-todos-os-episodios",
      "texto_original": "Miami Guns",
      "rating": 6.56,
      "classificacao_etaria": "A16",
      "imagem_original": "https://animefire.plus/img/animes/miami-guns.webp",
      "imagem_pasta": "https://animefire.plus/img/animes/miami-guns/",
      "secao": "legendados",
      "pagina": 147,
      "total_episodios": 13,
      "link_video": "https://animefire.plus/video/miami-guns"
    }
  ],
  "pagination": {
    "current_page": 53,
    "per_page": 20,
    "total_items": 1805,
    "total_pages": 91,
    "has_next": true,
    "has_prev": true
  }
}
