{
  "message": "Animes com rating entre 5 e 7",
  "rating_range": {
    "min": 5,
    "max": 7
  },
  "data": [
    {
      "id": 733,
      "nome": "Dame x Prince Anime Caravan",
      "link": "https://animefire.plus/animes/dame-x-prince-anime-caravan-todos-os-episodios",
      "texto_original": "Dame x Prince Anime Caravan",
      "rating": 6.59,
      "classificacao_etaria": "A14",
      "imagem_original": "https://animefire.plus/img/animes/dame-x-prince-anime-caravan.webp",
      "imagem_pasta": "https://animefire.plus/img/animes/dame-x-prince-anime-caravan/",
      "secao": "legendados",
      "pagina": 72,
      "total_episodios": 12,
      "link_video": "https://animefire.plus/video/dame-x-prince-anime-caravan"
    },
    {
      "id": 737,
      "nome": "Dance with Devils",
      "link": "https://animefire.plus/animes/dance-with-devils-todos-os-episodios",
      "texto_original": "Dance with Devils",
      "rating": 6.64,
      "classificacao_etaria": "A16",
      "imagem_original": "https://animefire.plus/img/animes/dance-with-devils.webp",
      "imagem_pasta": "https://animefire.plus/img/animes/dance-with-devils/",
      "secao": "legendados",
      "pagina": 118,
      "total_episodios": 12,
      "link_video": "https://animefire.plus/video/dance-with-devils"
    },
    {
      "id": 738,
      "nome": "Danchigai",
      "link": "https://animefire.plus/animes/danchigai-todos-os-episodios",
      "texto_original": "Danchigai",
      "rating": 6.63,
      "classificacao_etaria": "A14",
      "imagem_original": "https://animefire.plus/img/animes/danchigai.webp",
      "imagem_pasta": "https://animefire.plus/img/animes/danchigai/",
      "secao": "legendados",
      "pagina": 104,
      "total_episodios": 12,
      "link_video": "https://animefire.plus/video/danchigai"
    },
    {
      "id": 744,
      "nome": "Danjo no Yuujou wa Seiritsu suru? (Iya, Shinai!!)",
      "link": "https://animefire.plus/animes/danjo-no-yuujou-wa-seiritsu-suru-iya-shinai-todos-os-episodios",
      "texto_original": "Danjo no Yuujou wa Seiritsu suru? (Iya, Shinai!!)",
      "rating": 6.61,
      "classificacao_etaria": "A14",
      "imagem_original": "https://animefire.plus/img/animes/danjo-no-yuujou-wa-seiritsu-suru-iya-shinai.webp",
      "imagem_pasta": "https://animefire.plus/img/animes/danjo-no-yuujou-wa-seiritsu-suru-iya-shinai/",
      "secao": "legendados",
      "pagina": 6,
      "total_episodios": 12,
      "link_video": "https://animefire.plus/video/danjo-no-yuujou-wa-seiritsu-suru-iya-shinai"
    },
    {
      "id": 747,
      "nome": "Dansai Bunri no Crime Edge",
      "link": "https://animefire.plus/animes/dansai-bunri-no-crime-edge-todos-os-episodios",
      "texto_original": "Dansai Bunri no Crime Edge",
      "rating": 6.79,
      "classificacao_etaria": "A16",
      "imagem_original": "https://animefire.plus/img/animes/dansai-bunri-no-crime-edge.webp",
      "imagem_pasta": "https://animefire.plus/img/animes/dansai-bunri-no-crime-edge/",
      "secao": "legendados",
      "pagina": 133,
      "total_episodios": 13,
      "link_video": "https://animefire.plus/video/dansai-bunri-no-crime-edge"
    },
    {
      "id": 765,
      "nome": "Dead Heat",
      "link": "https://animefire.plus/animes/dead-heat-todos-os-episodios",
      "texto_original": "Dead Heat",
      "rating": 5.54,
      "classificacao_etaria": "A14",
      "imagem_original": "https://animefire.plus/img/animes/dead-heat.webp",
      "imagem_pasta": "https://animefire.plus/img/animes/dead-heat/",
      "secao": "legendados",
      "pagina": 70,
      "total_episodios": 1,
      "link_video": "https://animefire.plus/video/dead-heat"
    },
    {
      "id": 771,
      "nome": "Dear Boys (Dublado)",
      "link": "https://animefire.plus/animes/dear-boys-dublado-todos-os-episodios",
      "texto_original": "Dear Boys (Dublado)",
      "rating": 6.88,
      "classificacao_etaria": "A14",
      "imagem_original": "https://animefire.plus/img/animes/dear-boys.webp",
      "imagem_pasta": "https://animefire.plus/img/animes/dear-boys/",
      "secao": "dublados",
      "pagina": 22,
      "total_episodios": 26,
      "link_video": "https://animefire.plus/video/dear-boys-dublado"
    },
    {
      "id": 772,
      "nome": "DearS",
      "link": "https://animefire.plus/animes/dears-todos-os-episodios",
      "texto_original": "DearS",
      "rating": 6.71,
      "classificacao_etaria": "A18",
      "imagem_original": "https://animefire.plus/img/animes/dears.webp",
      "imagem_pasta": "https://animefire.plus/img/animes/dears/",
      "secao": "legendados",
      "pagina": 162,
      "total_episodios": 12,
      "link_video": "https://animefire.plus/video/dears"
    },
    {
      "id": 773,
      "nome": "DearS: Kin no Tama Desu no?",
      "link": "https://animefire.plus/animes/dears-kin-no-tama-desu-no-todos-os-episodios",
      "texto_original": "DearS: Kin no Tama Desu no?",
      "rating": 6.83,
      "classificacao_etaria": "A18",
      "imagem_original": "https://animefire.plus/img/animes/dears-kin-no-tama-desu-no.webp",
      "imagem_pasta": "https://animefire.plus/img/animes/dears-kin-no-tama-desu-no/",
      "secao": "legendados",
      "pagina": 43,
      "total_episodios": 1,
      "link_video": "https://animefire.plus/video/dears-kin-no-tama-desu-no"
    },
    {
      "id": 775,
      "nome": "Death March kara Hajimaru Isekai Kyousoukyoku (Dublado)",
      "link": "https://animefire.plus/animes/death-march-kara-hajimaru-isekai-kyousoukyoku-dublado-todos-os-episodios",
      "texto_original": "Death March kara Hajimaru Isekai Kyousoukyoku (Dublado)",
      "rating": 6.84,
      "classificacao_etaria": "A14",
      "imagem_original": "https://animefire.plus/img/animes/death-march-kara-hajimaru-isekai-kyousoukyoku.webp",
      "imagem_pasta": "https://animefire.plus/img/animes/death-march-kara-hajimaru-isekai-kyousoukyoku/",
      "secao": "dublados,legendados",
      "pagina": 28,
      "total_episodios": 12,
      "link_video": "https://animefire.plus/video/death-march-kara-hajimaru-isekai-kyousoukyoku-dublado"
    },
    {
      "id": 778,
      "nome": "Deatte 5-byou de Battle (Dublado)",
      "link": "https://animefire.plus/animes/deatte-5-byou-de-battle-dublado-todos-os-episodios",
      "texto_original": "Deatte 5-byou de Battle (Dublado)",
      "rating": 6.75,
      "classificacao_etaria": "A16",
      "imagem_original": "https://animefire.plus/img/animes/deatte-5-byou-de-battle.webp",
      "imagem_pasta": "https://animefire.plus/img/animes/deatte-5-byou-de-battle/",
      "secao": "dublados,legendados",
      "pagina": 15,
      "total_episodios": 12,
      "link_video": "https://animefire.plus/video/deatte-5-byou-de-battle-dublado"
    },
    {
      "id": 780,
      "nome": "Deep Insanity: The Lost Child (Dublado)",
      "link": "https://animefire.plus/animes/deep-insanity-the-lost-child-dublado-todos-os-episodios",
      "texto_original": "Deep Insanity: The Lost Child (Dublado)",
      "rating": 5.6,
      "classificacao_etaria": "A14",
      "imagem_original": "https://animefire.plus/img/animes/deep-insanity-the-lost-child.webp",
      "imagem_pasta": "https://animefire.plus/img/animes/deep-insanity-the-lost-child/",
      "secao": "dublados,legendados",
      "pagina": 14,
      "total_episodios": 12,
      "link_video": "https://animefire.plus/video/deep-insanity-the-lost-child-dublado"
    },
    {
      "id": 781,
      "nome": "Deji Meets Girl",
      "link": "https://animefire.plus/animes/deji-meets-girl-todos-os-episodios",
      "texto_original": "Deji Meets Girl",
      "rating": 6.17,
      "classificacao_etaria": "A14",
      "imagem_original": "https://animefire.plus/img/animes/deji-meets-girl.webp",
      "imagem_pasta": "https://animefire.plus/img/animes/deji-meets-girl/",
      "secao": "legendados,lancamentos",
      "pagina": 39,
      "total_episodios": 0,
      "link_video": "https://animefire.plus/video/deji-meets-girl"
    },
    {
      "id": 782,
      "nome": "Dekin no Mogura",
      "link": "https://animefire.plus/animes/dekin-no-mogura-todos-os-episodios",
      "texto_original": "Dekin no Mogura",
      "rating": 6.16,
      "classificacao_etaria": "A14",
      "imagem_original": "https://animefire.plus/img/animes/dekin-no-mogura.webp",
      "imagem_pasta": "https://animefire.plus/img/animes/dekin-no-mogura/",
      "secao": "legendados,lancamentos",
      "pagina": 2,
      "total_episodios": 5,
      "link_video": "https://animefire.plus/video/dekin-no-mogura"
    },
    {
      "id": 784,
      "nome": "Dekisokonai to Yobareta Motoeiyuu wa Jikka kara Tsuihou sareta node Sukikatte ni Ikiru Koto ni Shita",
      "link": "https://animefire.plus/animes/dekisokonai-to-yobareta-motoeiyuu-wa-jikka-kara-tsuihou-sareta-node-sukikatte-ni-ikiru-koto-ni-shita-todos-os-episodios",
      "texto_original": "Dekisokonai to Yobareta Motoeiyuu wa Jikka kara Tsuihou sareta node Sukikatte ni Ikiru Koto ni Shita",
      "rating": 5.22,
      "classificacao_etaria": "A14",
      "imagem_original": "https://animefire.plus/img/animes/dekisokonai-to-yobareta-motoeiyuu-wa-jikka-kara-tsuihou-sareta-node-sukikatte-ni-ikiru-koto-ni-shita.webp",
      "imagem_pasta": "https://animefire.plus/img/animes/dekisokonai-to-yobareta-motoeiyuu-wa-jikka-kara-tsuihou-sareta-node-sukikatte-ni-ikiru-koto-ni-shita/",
      "secao": "legendados",
      "pagina": 14,
      "total_episodios": 12,
      "link_video": "https://animefire.plus/video/dekisokonai-to-yobareta-motoeiyuu-wa-jikka-kara-tsuihou-sareta-node-sukikatte-ni-ikiru-koto-ni-shita"
    },
    {
      "id": 785,
      "nome": "Dekoboko Majo no Oyako Jijou (Dublado)",
      "link": "https://animefire.plus/animes/dekoboko-majo-no-oyako-jijou-dublado-todos-os-episodios",
      "texto_original": "Dekoboko Majo no Oyako Jijou (Dublado)",
      "rating": 6.76,
      "classificacao_etaria": "A14",
      "imagem_original": "https://animefire.plus/img/animes/dekoboko-majo-no-oyako-jijou.webp",
      "imagem_pasta": "https://animefire.plus/img/animes/dekoboko-majo-no-oyako-jijou/",
      "secao": "dublados,legendados,lancamentos",
      "pagina": 5,
      "total_episodios": 12,
      "link_video": "https://animefire.plus/video/dekoboko-majo-no-oyako-jijou-dublado"
    },
    {
      "id": 786,
      "nome": "Delicious Party♡Precure",
      "link": "https://animefire.plus/animes/delicious-party-precure-todos-os-episodios",
      "texto_original": "Delicious Party♡Precure",
      "rating": 6.86,
      "classificacao_etaria": "A16",
      "imagem_original": "https://animefire.plus/img/animes/delicious-party-precure.webp",
      "imagem_pasta": "https://animefire.plus/img/animes/delicious-party-precure/",
      "secao": "legendados",
      "pagina": 35,
      "total_episodios": 45,
      "link_video": "https://animefire.plus/video/delicious-party-precure"
    },
    {
      "id": 787,
      "nome": "Delico's Nursery",
      "link": "https://animefire.plus/animes/delico-s-nursery-todos-os-episodios",
      "texto_original": "Delico's Nursery",
      "rating": 6.79,
      "classificacao_etaria": "A14",
      "imagem_original": "https://animefire.plus/img/animes/delico-s-nursery.webp",
      "imagem_pasta": "https://animefire.plus/img/animes/delico-s-nursery/",
      "secao": "legendados",
      "pagina": 11,
      "total_episodios": 13,
      "link_video": "https://animefire.plus/video/delico-s-nursery"
    },
    {
      "id": 793,
      "nome": "Denpa Kyoushi",
      "link": "https://animefire.plus/animes/denpa-kyoushi-todos-os-episodios",
      "texto_original": "Denpa Kyoushi",
      "rating": 6.42,
      "classificacao_etaria": "A14",
      "imagem_original": "https://animefire.plus/img/animes/denpa-kyoushi.webp",
      "imagem_pasta": "https://animefire.plus/img/animes/denpa-kyoushi/",
      "secao": "legendados",
      "pagina": 72,
      "total_episodios": 6,
      "link_video": "https://animefire.plus/video/denpa-kyoushi"
    },
    {
      "id": 794,
      "nome": "Denpa Kyoushi (TV)",
      "link": "https://animefire.plus/animes/denpa-kyoushi-tv-todos-os-episodios",
      "texto_original": "Denpa Kyoushi (TV)",
      "rating": 6.96,
      "classificacao_etaria": "A14",
      "imagem_original": "https://animefire.plus/img/animes/denpa-kyoushi-tv.webp",
      "imagem_pasta": "https://animefire.plus/img/animes/denpa-kyoushi-tv/",
      "secao": "legendados",
      "pagina": 94,
      "total_episodios": 6,
      "link_video": "https://animefire.plus/video/denpa-kyoushi-tv"
    }
  ],
  "pagination": {
    "current_page": 19,
    "per_page": 20,
    "total_items": 1805,
    "total_pages": 91,
    "has_next": true,
    "has_prev": true
  }
}
