{
  "message": "Animes com rating entre 5 e 7",
  "rating_range": {
    "min": 5,
    "max": 7
  },
  "data": [
    {
      "id": 2589,
      "nome": "Moonrakers",
      "link": "https://animefire.plus/animes/moonrakers-todos-os-episodios",
      "texto_original": "Moonrakers",
      "rating": 5.63,
      "classificacao_etaria": "A16",
      "imagem_original": "https://animefire.plus/img/animes/moonrakers.webp",
      "imagem_pasta": "https://animefire.plus/img/animes/moonrakers/",
      "secao": "legendados",
      "pagina": 78,
      "total_episodios": 0,
      "link_video": "https://animefire.plus/video/moonrakers"
    },
    {
      "id": 2591,
      "nome": "Morita-san wa Mukuchi.",
      "link": "https://animefire.plus/animes/miss-morita-is-taciturn-tv-todos-os-episodios",
      "texto_original": "Morita-san wa Mukuchi.",
      "rating": 6.55,
      "classificacao_etaria": "A14",
      "imagem_original": "https://animefire.plus/img/animes/miss-morita-is-taciturn-tv.webp",
      "imagem_pasta": "https://animefire.plus/img/animes/miss-morita-is-taciturn-tv/",
      "secao": "legendados",
      "pagina": 53,
      "total_episodios": 13,
      "link_video": "https://animefire.plus/video/miss-morita-is-taciturn-tv"
    },
    {
      "id": 2592,
      "nome": "Morita-san wa Mukuchi. 2",
      "link": "https://animefire.plus/animes/morita-san-wa-mukuchi-2-todos-os-episodios",
      "texto_original": "Morita-san wa Mukuchi. 2",
      "rating": 6.72,
      "classificacao_etaria": "A14",
      "imagem_original": "https://animefire.plus/img/animes/morita-san-wa-mukuchi-2.webp",
      "imagem_pasta": "https://animefire.plus/img/animes/morita-san-wa-mukuchi-2/",
      "secao": "legendados",
      "pagina": 116,
      "total_episodios": 13,
      "link_video": "https://animefire.plus/video/morita-san-wa-mukuchi-2"
    },
    {
      "id": 2593,
      "nome": "Moshidora",
      "link": "https://animefire.plus/animes/moshidora-todos-os-episodios",
      "texto_original": "Moshidora",
      "rating": 6.95,
      "classificacao_etaria": "A14",
      "imagem_original": "https://animefire.plus/img/animes/moshidora.webp",
      "imagem_pasta": "https://animefire.plus/img/animes/moshidora/",
      "secao": "legendados",
      "pagina": 120,
      "total_episodios": 10,
      "link_video": "https://animefire.plus/video/moshidora"
    },
    {
      "id": 2595,
      "nome": "Mou Hitotsu no Mirai wo.",
      "link": "https://animefire.plus/animes/mou-hitotsu-no-mirai-wo-todos-os-episodios",
      "texto_original": "Mou Hitotsu no Mirai wo.",
      "rating": 6.1,
      "classificacao_etaria": "A14",
      "imagem_original": "https://animefire.plus/img/animes/mou-hitotsu-no-mirai-wo.webp",
      "imagem_pasta": "https://animefire.plus/img/animes/mou-hitotsu-no-mirai-wo/",
      "secao": "legendados",
      "pagina": 169,
      "total_episodios": 3,
      "link_video": "https://animefire.plus/video/mou-hitotsu-no-mirai-wo"
    },
    {
      "id": 2599,
      "nome": "Mouse",
      "link": "https://animefire.plus/animes/mouse-todos-os-episodios",
      "texto_original": "Mouse",
      "rating": 6.11,
      "classificacao_etaria": "A18",
      "imagem_original": "https://animefire.plus/img/animes/mouse.webp",
      "imagem_pasta": "https://animefire.plus/img/animes/mouse/",
      "secao": "legendados",
      "pagina": 119,
      "total_episodios": 12,
      "link_video": "https://animefire.plus/video/mouse"
    },
    {
      "id": 2601,
      "nome": "Mousou Kagaku Series: Wandaba Style",
      "link": "https://animefire.plus/animes/mousou-kagaku-series-wandaba-style-todos-os-episodios",
      "texto_original": "Mousou Kagaku Series: Wandaba Style",
      "rating": 6.09,
      "classificacao_etaria": "A14",
      "imagem_original": "https://animefire.plus/img/animes/mousou-kagaku-series-wandaba-style.webp",
      "imagem_pasta": "https://animefire.plus/img/animes/mousou-kagaku-series-wandaba-style/",
      "secao": "legendados",
      "pagina": 128,
      "total_episodios": 12,
      "link_video": "https://animefire.plus/video/mousou-kagaku-series-wandaba-style"
    },
    {
      "id": 2605,
      "nome": "Mugyutto! Black Clover",
      "link": "https://animefire.plus/animes/mugyutto-black-clover-todos-os-episodios",
      "texto_original": "Mugyutto! Black Clover",
      "rating": 6.28,
      "classificacao_etaria": "A14",
      "imagem_original": "https://animefire.plus/img/animes/mugyutto-black-clover.webp",
      "imagem_pasta": "https://animefire.plus/img/animes/mugyutto-black-clover/",
      "secao": "legendados",
      "pagina": 80,
      "total_episodios": 8,
      "link_video": "https://animefire.plus/video/mugyutto-black-clover"
    },
    {
      "id": 2606,
      "nome": "Muhyo to Rouji no Mahouritsu Soudan Jimusho",
      "link": "https://animefire.plus/animes/muhyo-to-rouji-no-mahouritsu-soudan-jimusho-todos-os-episodios",
      "texto_original": "Muhyo to Rouji no Mahouritsu Soudan Jimusho",
      "rating": 6.72,
      "classificacao_etaria": "A14",
      "imagem_original": "https://animefire.plus/img/animes/muhyo-to-rouji-no-mahouritsu-soudan-jimusho.webp",
      "imagem_pasta": "https://animefire.plus/img/animes/muhyo-to-rouji-no-mahouritsu-soudan-jimusho/",
      "secao": "legendados",
      "pagina": 122,
      "total_episodios": 12,
      "link_video": "https://animefire.plus/video/muhyo-to-rouji-no-mahouritsu-soudan-jimusho"
    },
    {
      "id": 2607,
      "nome": "Muhyo to Rouji no Mahouritsu Soudan Jimusho 2nd Season",
      "link": "https://animefire.plus/animes/muhyo-to-rouji-no-mahouritsu-soudan-jimusho-2nd-season-todos-os-episodios",
      "texto_original": "Muhyo to Rouji no Mahouritsu Soudan Jimusho 2nd Season",
      "rating": 6.84,
      "classificacao_etaria": "A14",
      "imagem_original": "https://animefire.plus/img/animes/muhyo-to-rouji-no-mahouritsu-soudan-jimusho-2nd-season.webp",
      "imagem_pasta": "https://animefire.plus/img/animes/muhyo-to-rouji-no-mahouritsu-soudan-jimusho-2nd-season/",
      "secao": "legendados",
      "pagina": 58,
      "total_episodios": 5,
      "link_video": "https://animefire.plus/video/muhyo-to-rouji-no-mahouritsu-soudan-jimusho-2nd-season"
    },
    {
      "id": 2608,
      "nome": "Mujaki No Rakuen",
      "link": "https://animefire.plus/animes/mujaki-no-rakuen-todos-os-episodios",
      "texto_original": "Mujaki No Rakuen",
      "rating": 6.02,
      "classificacao_etaria": "A14",
      "imagem_original": "https://animefire.plus/img/animes/mujaki-no-rakuen.webp",
      "imagem_pasta": "https://animefire.plus/img/animes/mujaki-no-rakuen/",
      "secao": "legendados",
      "pagina": 109,
      "total_episodios": 3,
      "link_video": "https://animefire.plus/video/mujaki-no-rakuen"
    },
    {
      "id": 2614,
      "nome": "Musaigen no Phantom World",
      "link": "https://animefire.plus/animes/musaigen-no-phantom-world-todos-os-episodios",
      "texto_original": "Musaigen no Phantom World",
      "rating": 6.98,
      "classificacao_etaria": "A14",
      "imagem_original": "https://animefire.plus/img/animes/musaigen-no-phantom-world.webp",
      "imagem_pasta": "https://animefire.plus/img/animes/musaigen-no-phantom-world/",
      "secao": "legendados",
      "pagina": 159,
      "total_episodios": 3,
      "link_video": "https://animefire.plus/video/musaigen-no-phantom-world"
    },
    {
      "id": 2618,
      "nome": "Mushikaburi-hime",
      "link": "https://animefire.plus/animes/mushikaburi-hime-todos-os-episodios",
      "texto_original": "Mushikaburi-hime",
      "rating": 6.87,
      "classificacao_etaria": "A14",
      "imagem_original": "https://animefire.plus/img/animes/mushikaburi-hime.webp",
      "imagem_pasta": "https://animefire.plus/img/animes/mushikaburi-hime/",
      "secao": "legendados",
      "pagina": 29,
      "total_episodios": 12,
      "link_video": "https://animefire.plus/video/mushikaburi-hime"
    },
    {
      "id": 2619,
      "nome": "Mushikago no Cagaster (Dublado)",
      "link": "https://animefire.plus/animes/mushikago-no-cagaster-dublado-todos-os-episodios",
      "texto_original": "Mushikago no Cagaster (Dublado)",
      "rating": 6.57,
      "classificacao_etaria": "A16",
      "imagem_original": "https://animefire.plus/img/animes/mushikago-no-cagaster.webp",
      "imagem_pasta": "https://animefire.plus/img/animes/mushikago-no-cagaster/",
      "secao": "dublados,legendados",
      "pagina": 25,
      "total_episodios": 12,
      "link_video": "https://animefire.plus/video/mushikago-no-cagaster-dublado"
    },
    {
      "id": 2630,
      "nome": "Muteki Choujin Zanbot 3",
      "link": "https://animefire.plus/animes/muteki-choujin-zanbot-3-todos-os-episodios",
      "texto_original": "Muteki Choujin Zanbot 3",
      "rating": 6.9,
      "classificacao_etaria": "A14",
      "imagem_original": "https://animefire.plus/img/animes/muteki-choujin-zanbot-3.webp",
      "imagem_pasta": "https://animefire.plus/img/animes/muteki-choujin-zanbot-3/",
      "secao": "legendados",
      "pagina": 54,
      "total_episodios": 23,
      "link_video": "https://animefire.plus/video/muteki-choujin-zanbot-3"
    },
    {
      "id": 2632,
      "nome": "Muteking the Dancing Hero",
      "link": "https://animefire.plus/animes/muteking-the-dancing-hero-todos-os-episodios",
      "texto_original": "Muteking the Dancing Hero",
      "rating": 5.84,
      "classificacao_etaria": "A14",
      "imagem_original": "https://animefire.plus/img/animes/muteking-the-dancing-hero.webp",
      "imagem_pasta": "https://animefire.plus/img/animes/muteking-the-dancing-hero/",
      "secao": "legendados",
      "pagina": 38,
      "total_episodios": 12,
      "link_video": "https://animefire.plus/video/muteking-the-dancing-hero"
    },
    {
      "id": 2634,
      "nome": "Muv-Luv Alternative",
      "link": "https://animefire.plus/animes/muv-luv-alternative-todos-os-episodios",
      "texto_original": "Muv-Luv Alternative",
      "rating": 5.83,
      "classificacao_etaria": "A18",
      "imagem_original": "https://animefire.plus/img/animes/muv-luv-alternative.webp",
      "imagem_pasta": "https://animefire.plus/img/animes/muv-luv-alternative/",
      "secao": "legendados",
      "pagina": 37,
      "total_episodios": 12,
      "link_video": "https://animefire.plus/video/muv-luv-alternative"
    },
    {
      "id": 2635,
      "nome": "Muv-Luv Alternative 2nd Season",
      "link": "https://animefire.plus/animes/muv-luv-alternative-2nd-season-todos-os-episodios",
      "texto_original": "Muv-Luv Alternative 2nd Season",
      "rating": 6.53,
      "classificacao_etaria": "A18",
      "imagem_original": "https://animefire.plus/img/animes/muv-luv-alternative-2nd-season.webp",
      "imagem_pasta": "https://animefire.plus/img/animes/muv-luv-alternative-2nd-season/",
      "secao": "legendados",
      "pagina": 28,
      "total_episodios": 12,
      "link_video": "https://animefire.plus/video/muv-luv-alternative-2nd-season"
    },
    {
      "id": 2639,
      "nome": "Na Nare Hana Nare",
      "link": "https://animefire.plus/animes/na-nare-hana-nare-todos-os-episodios",
      "texto_original": "Na Nare Hana Nare",
      "rating": 6.37,
      "classificacao_etaria": "A14",
      "imagem_original": "https://animefire.plus/img/animes/na-nare-hana-nare.webp",
      "imagem_pasta": "https://animefire.plus/img/animes/na-nare-hana-nare/",
      "secao": "legendados",
      "pagina": 11,
      "total_episodios": 12,
      "link_video": "https://animefire.plus/video/na-nare-hana-nare"
    },
    {
      "id": 2641,
      "nome": "Nagareboshi Lens",
      "link": "https://animefire.plus/animes/nagareboshi-lens-todos-os-episodios",
      "texto_original": "Nagareboshi Lens",
      "rating": 6.72,
      "classificacao_etaria": null,
      "imagem_original": "https://animefire.plus/img/animes/nagareboshi-lens.webp",
      "imagem_pasta": "https://animefire.plus/img/animes/nagareboshi-lens/",
      "secao": "legendados",
      "pagina": 106,
      "total_episodios": 1,
      "link_video": "https://animefire.plus/video/nagareboshi-lens"
    }
  ],
  "pagination": {
    "current_page": 56,
    "per_page": 20,
    "total_items": 1805,
    "total_pages": 91,
    "has_next": true,
    "has_prev": true
  }
}
