{
  "message": "Animes com rating entre 5 e 7",
  "rating_range": {
    "min": 5,
    "max": 7
  },
  "data": [
    {
      "id": 2677,
      "nome": "Narutaru: Mukuro Naru Hoshi Tama Taru Ko",
      "link": "https://animefire.plus/animes/narutaru-mukuro-naru-hoshi-tama-taru-ko-todos-os-episodios",
      "texto_original": "Narutaru: Mukuro Naru Hoshi Tama Taru Ko",
      "rating": 6.15,
      "classificacao_etaria": "A16",
      "imagem_original": "https://animefire.plus/img/animes/narutaru-mukuro-naru-hoshi-tama-taru-ko.webp",
      "imagem_pasta": "https://animefire.plus/img/animes/narutaru-mukuro-naru-hoshi-tama-taru-ko/",
      "secao": "legendados",
      "pagina": 177,
      "total_episodios": 13,
      "link_video": "https://animefire.plus/video/narutaru-mukuro-naru-hoshi-tama-taru-ko"
    },
    {
      "id": 2681,
      "nome": "Natsu e no Tobira",
      "link": "https://animefire.plus/animes/natsu-e-no-tobira-todos-os-episodios",
      "texto_original": "Natsu e no Tobira",
      "rating": 6.13,
      "classificacao_etaria": "A14",
      "imagem_original": "https://animefire.plus/img/animes/natsu-e-no-tobira.webp",
      "imagem_pasta": "https://animefire.plus/img/animes/natsu-e-no-tobira/",
      "secao": "legendados",
      "pagina": 88,
      "total_episodios": 1,
      "link_video": "https://animefire.plus/video/natsu-e-no-tobira"
    },
    {
      "id": 2695,
      "nome": "Natsunagu!",
      "link": "https://animefire.plus/animes/natsunagu-todos-os-episodios",
      "texto_original": "Natsunagu!",
      "rating": 5.84,
      "classificacao_etaria": "A14",
      "imagem_original": "https://animefire.plus/img/animes/natsunagu.webp",
      "imagem_pasta": "https://animefire.plus/img/animes/natsunagu/",
      "secao": "legendados",
      "pagina": 93,
      "total_episodios": 0,
      "link_video": "https://animefire.plus/video/natsunagu"
    },
    {
      "id": 2697,
      "nome": "Nayuta",
      "link": "https://animefire.plus/animes/nayuta-todos-os-episodios",
      "texto_original": "Nayuta",
      "rating": 5.6,
      "classificacao_etaria": "A14",
      "imagem_original": "https://animefire.plus/img/animes/nayuta.webp",
      "imagem_pasta": "https://animefire.plus/img/animes/nayuta/",
      "secao": "legendados",
      "pagina": 69,
      "total_episodios": 1,
      "link_video": "https://animefire.plus/video/nayuta"
    },
    {
      "id": 2698,
      "nome": "Naze Boku no Sekai wo Daremo Oboeteinai no ka?",
      "link": "https://animefire.plus/animes/naze-boku-no-sekai-wo-daremo-oboeteinai-no-ka-todos-os-episodios",
      "texto_original": "Naze Boku no Sekai wo Daremo Oboeteinai no ka?",
      "rating": 6.23,
      "classificacao_etaria": "A14",
      "imagem_original": "https://animefire.plus/img/animes/naze-boku-no-sekai-wo-daremo-oboeteinai-no-ka.webp",
      "imagem_pasta": "https://animefire.plus/img/animes/naze-boku-no-sekai-wo-daremo-oboeteinai-no-ka/",
      "secao": "legendados",
      "pagina": 13,
      "total_episodios": 12,
      "link_video": "https://animefire.plus/video/naze-boku-no-sekai-wo-daremo-oboeteinai-no-ka"
    },
    {
      "id": 2700,
      "nome": "Nazotoki wa Dinner no Ato de (Dublado)",
      "link": "https://animefire.plus/animes/nazotoki-wa-dinner-no-ato-de-dublado-todos-os-episodios",
      "texto_original": "Nazotoki wa Dinner no Ato de (Dublado)",
      "rating": 6.48,
      "classificacao_etaria": "A14",
      "imagem_original": "https://animefire.plus/img/animes/nazotoki-wa-dinner-no-ato-de.webp",
      "imagem_pasta": "https://animefire.plus/img/animes/nazotoki-wa-dinner-no-ato-de/",
      "secao": "dublados,legendados",
      "pagina": 1,
      "total_episodios": 12,
      "link_video": "https://animefire.plus/video/nazotoki-wa-dinner-no-ato-de-dublado"
    },
    {
      "id": 2702,
      "nome": "Necronomico no Cosmic Horror Show",
      "link": "https://animefire.plus/animes/necronomico-no-cosmic-horror-show-todos-os-episodios",
      "texto_original": "Necronomico no Cosmic Horror Show",
      "rating": 5.5,
      "classificacao_etaria": "A14",
      "imagem_original": "https://animefire.plus/img/animes/necronomico-no-cosmic-horror-show.webp",
      "imagem_pasta": "https://animefire.plus/img/animes/necronomico-no-cosmic-horror-show/",
      "secao": "legendados,lancamentos",
      "pagina": 1,
      "total_episodios": 5,
      "link_video": "https://animefire.plus/video/necronomico-no-cosmic-horror-show"
    },
    {
      "id": 2704,
      "nome": "NEET Kunoichi to Nazeka Dousei Hajimemashita",
      "link": "https://animefire.plus/animes/neet-kunoichi-to-nazeka-dousei-hajimemashita-todos-os-episodios",
      "texto_original": "NEET Kunoichi to Nazeka Dousei Hajimemashita",
      "rating": 6.12,
      "classificacao_etaria": "A14",
      "imagem_original": "https://animefire.plus/img/animes/neet-kunoichi-to-nazeka-dousei-hajimemashita.webp",
      "imagem_pasta": "https://animefire.plus/img/animes/neet-kunoichi-to-nazeka-dousei-hajimemashita/",
      "secao": "legendados,lancamentos",
      "pagina": 8,
      "total_episodios": 13,
      "link_video": "https://animefire.plus/video/neet-kunoichi-to-nazeka-dousei-hajimemashita"
    },
    {
      "id": 2707,
      "nome": "Neko Hiki no Oruorane",
      "link": "https://animefire.plus/animes/neko-hiki-no-oruorane-todos-os-episodios",
      "texto_original": "Neko Hiki no Oruorane",
      "rating": 6.33,
      "classificacao_etaria": "A14",
      "imagem_original": "https://animefire.plus/img/animes/neko-hiki-no-oruorane.webp",
      "imagem_pasta": "https://animefire.plus/img/animes/neko-hiki-no-oruorane/",
      "secao": "legendados",
      "pagina": 85,
      "total_episodios": 1,
      "link_video": "https://animefire.plus/video/neko-hiki-no-oruorane"
    },
    {
      "id": 2708,
      "nome": "Neko Neko Fantasia",
      "link": "https://animefire.plus/animes/neko-neko-fantasia-todos-os-episodios",
      "texto_original": "Neko Neko Fantasia",
      "rating": 5.96,
      "classificacao_etaria": null,
      "imagem_original": "https://animefire.plus/img/animes/neko-neko-fantasia.webp",
      "imagem_pasta": "https://animefire.plus/img/animes/neko-neko-fantasia/",
      "secao": "legendados",
      "pagina": 85,
      "total_episodios": 1,
      "link_video": "https://animefire.plus/video/neko-neko-fantasia"
    },
    {
      "id": 2709,
      "nome": "Nekogami Yaoyorozu",
      "link": "https://animefire.plus/animes/nekogami-yaoyorozu-todos-os-episodios",
      "texto_original": "Nekogami Yaoyorozu",
      "rating": 6.68,
      "classificacao_etaria": "A14",
      "imagem_original": "https://animefire.plus/img/animes/nekogami-yaoyorozu.webp",
      "imagem_pasta": "https://animefire.plus/img/animes/nekogami-yaoyorozu/",
      "secao": "legendados",
      "pagina": 112,
      "total_episodios": 12,
      "link_video": "https://animefire.plus/video/nekogami-yaoyorozu"
    },
    {
      "id": 2712,
      "nome": "Nekopara",
      "link": "https://animefire.plus/animes/nekopara-todos-os-episodios",
      "texto_original": "Nekopara",
      "rating": 6.76,
      "classificacao_etaria": "A14",
      "imagem_original": "https://animefire.plus/img/animes/nekopara.webp",
      "imagem_pasta": "https://animefire.plus/img/animes/nekopara/",
      "secao": "legendados",
      "pagina": 93,
      "total_episodios": 2,
      "link_video": "https://animefire.plus/video/nekopara"
    },
    {
      "id": 2720,
      "nome": "Netsuzou TRap",
      "link": "https://animefire.plus/animes/netsuzou-trap-todos-os-episodios",
      "texto_original": "Netsuzou TRap",
      "rating": 5.42,
      "classificacao_etaria": "A18",
      "imagem_original": "https://animefire.plus/img/animes/netsuzou-trap.webp",
      "imagem_pasta": "https://animefire.plus/img/animes/netsuzou-trap/",
      "secao": "legendados",
      "pagina": 62,
      "total_episodios": 12,
      "link_video": "https://animefire.plus/video/netsuzou-trap"
    },
    {
      "id": 2730,
      "nome": "Night Head 2041",
      "link": "https://animefire.plus/animes/night-head-2041-todos-os-episodios",
      "texto_original": "Night Head 2041",
      "rating": 6.5,
      "classificacao_etaria": "A16",
      "imagem_original": "https://animefire.plus/img/animes/night-head-2041.webp",
      "imagem_pasta": "https://animefire.plus/img/animes/night-head-2041/",
      "secao": "legendados",
      "pagina": 40,
      "total_episodios": 12,
      "link_video": "https://animefire.plus/video/night-head-2041"
    },
    {
      "id": 2731,
      "nome": "Night Head Genesis",
      "link": "https://animefire.plus/animes/night-head-genesis-todos-os-episodios",
      "texto_original": "Night Head Genesis",
      "rating": 6.83,
      "classificacao_etaria": "A16",
      "imagem_original": "https://animefire.plus/img/animes/night-head-genesis.webp",
      "imagem_pasta": "https://animefire.plus/img/animes/night-head-genesis/",
      "secao": "legendados",
      "pagina": 147,
      "total_episodios": 24,
      "link_video": "https://animefire.plus/video/night-head-genesis"
    },
    {
      "id": 2733,
      "nome": "Night Wizard",
      "link": "https://animefire.plus/animes/night-wizard-todos-os-episodios",
      "texto_original": "Night Wizard",
      "rating": 6.75,
      "classificacao_etaria": "A14",
      "imagem_original": "https://animefire.plus/img/animes/night-wizard.webp",
      "imagem_pasta": "https://animefire.plus/img/animes/night-wizard/",
      "secao": "legendados",
      "pagina": 178,
      "total_episodios": 9,
      "link_video": "https://animefire.plus/video/night-wizard"
    },
    {
      "id": 2734,
      "nome": "Nihon Chinbotsu 2020 (Dublado)",
      "link": "https://animefire.plus/animes/nihon-chinbotsu-2020-dublado-todos-os-episodios",
      "texto_original": "Nihon Chinbotsu 2020 (Dublado)",
      "rating": 6.67,
      "classificacao_etaria": "A16",
      "imagem_original": "https://animefire.plus/img/animes/nihon-chinbotsu-2020.webp",
      "imagem_pasta": "https://animefire.plus/img/animes/nihon-chinbotsu-2020/",
      "secao": "dublados,legendados",
      "pagina": 20,
      "total_episodios": 10,
      "link_video": "https://animefire.plus/video/nihon-chinbotsu-2020-dublado"
    },
    {
      "id": 2737,
      "nome": "Nijiyon Animation",
      "link": "https://animefire.plus/animes/nijiyon-animation-todos-os-episodios",
      "texto_original": "Nijiyon Animation",
      "rating": 6.81,
      "classificacao_etaria": "A14",
      "imagem_original": "https://animefire.plus/img/animes/nijiyon-animation.webp",
      "imagem_pasta": "https://animefire.plus/img/animes/nijiyon-animation/",
      "secao": "legendados",
      "pagina": 25,
      "total_episodios": 12,
      "link_video": "https://animefire.plus/video/nijiyon-animation"
    },
    {
      "id": 2738,
      "nome": "Nijiyon Animation 2",
      "link": "https://animefire.plus/animes/nijiyon-animation-2-todos-os-episodios",
      "texto_original": "Nijiyon Animation 2",
      "rating": 6.85,
      "classificacao_etaria": "A14",
      "imagem_original": "https://animefire.plus/img/animes/nijiyon-animation-2.webp",
      "imagem_pasta": "https://animefire.plus/img/animes/nijiyon-animation-2/",
      "secao": "legendados",
      "pagina": 14,
      "total_episodios": 12,
      "link_video": "https://animefire.plus/video/nijiyon-animation-2"
    },
    {
      "id": 2740,
      "nome": "Nil Admirari no Tenbin",
      "link": "https://animefire.plus/animes/nil-admirari-no-tenbin-todos-os-episodios",
      "texto_original": "Nil Admirari no Tenbin",
      "rating": 6.67,
      "classificacao_etaria": "A14",
      "imagem_original": "https://animefire.plus/img/animes/nil-admirari-no-tenbin.webp",
      "imagem_pasta": "https://animefire.plus/img/animes/nil-admirari-no-tenbin/",
      "secao": "legendados",
      "pagina": 146,
      "total_episodios": 12,
      "link_video": "https://animefire.plus/video/nil-admirari-no-tenbin"
    }
  ],
  "pagination": {
    "current_page": 58,
    "per_page": 20,
    "total_items": 1805,
    "total_pages": 91,
    "has_next": true,
    "has_prev": true
  }
}
