{
  "message": "Animes com rating entre 5 e 7",
  "rating_range": {
    "min": 5,
    "max": 7
  },
  "data": [
    {
      "id": 3394,
      "nome": "Shi Xiong",
      "link": "https://animefire.plus/animes/shi-xiong-todos-os-episodios",
      "texto_original": "Shi Xiong",
      "rating": 6.79,
      "classificacao_etaria": "A16",
      "imagem_original": "https://animefire.plus/img/animes/shi-xiong.webp",
      "imagem_pasta": "https://animefire.plus/img/animes/shi-xiong/",
      "secao": "legendados",
      "pagina": 114,
      "total_episodios": 32,
      "link_video": "https://animefire.plus/video/shi-xiong"
    },
    {
      "id": 3397,
      "nome": "Shichisei no Subaru",
      "link": "https://animefire.plus/animes/shichisei-no-subaru-todos-os-episodios",
      "texto_original": "Shichisei no Subaru",
      "rating": 6.26,
      "classificacao_etaria": "A14",
      "imagem_original": "https://animefire.plus/img/animes/shichisei-no-subaru.webp",
      "imagem_pasta": "https://animefire.plus/img/animes/shichisei-no-subaru/",
      "secao": "legendados",
      "pagina": 144,
      "total_episodios": 12,
      "link_video": "https://animefire.plus/video/shichisei-no-subaru"
    },
    {
      "id": 3402,
      "nome": "Shiguang Guiyu",
      "link": "https://animefire.plus/animes/shiguang-guiyu-todos-os-episodios",
      "texto_original": "Shiguang Guiyu",
      "rating": 5.49,
      "classificacao_etaria": "A16",
      "imagem_original": "https://animefire.plus/img/animes/shiguang-guiyu.webp",
      "imagem_pasta": "https://animefire.plus/img/animes/shiguang-guiyu/",
      "secao": "legendados",
      "pagina": 133,
      "total_episodios": 10,
      "link_video": "https://animefire.plus/video/shiguang-guiyu"
    },
    {
      "id": 3404,
      "nome": "Shijou Saikyou no Daimaou, Murabito A ni Tensei suru (Dublado)",
      "link": "https://animefire.plus/animes/shijou-saikyou-no-daimaou-murabito-a-ni-tensei-suru-dublado-todos-os-episodios",
      "texto_original": "Shijou Saikyou no Daimaou, Murabito A ni Tensei suru (Dublado)",
      "rating": 6.29,
      "classificacao_etaria": "A14",
      "imagem_original": "https://animefire.plus/img/animes/shijou-saikyou-no-daimaou-murabito-a-ni-tensei-suru.webp",
      "imagem_pasta": "https://animefire.plus/img/animes/shijou-saikyou-no-daimaou-murabito-a-ni-tensei-suru/",
      "secao": "dublados,legendados",
      "pagina": 11,
      "total_episodios": 12,
      "link_video": "https://animefire.plus/video/shijou-saikyou-no-daimaou-murabito-a-ni-tensei-suru-dublado"
    },
    {
      "id": 3409,
      "nome": "Shikanoko Nokonoko Koshitantan (Dublado)",
      "link": "https://animefire.plus/animes/shikanoko-nokonoko-koshitantan-dublado-todos-os-episodios",
      "texto_original": "Shikanoko Nokonoko Koshitantan (Dublado)",
      "rating": 6.98,
      "classificacao_etaria": "A14",
      "imagem_original": "https://animefire.plus/img/animes/shikanoko-nokonoko-koshitantan.webp",
      "imagem_pasta": "https://animefire.plus/img/animes/shikanoko-nokonoko-koshitantan/",
      "secao": "dublados,legendados,lancamentos",
      "pagina": 2,
      "total_episodios": 12,
      "link_video": "https://animefire.plus/video/shikanoko-nokonoko-koshitantan-dublado"
    },
    {
      "id": 3411,
      "nome": "Shikizakura",
      "link": "https://animefire.plus/animes/shikizakura-todos-os-episodios",
      "texto_original": "Shikizakura",
      "rating": 5.83,
      "classificacao_etaria": "A14",
      "imagem_original": "https://animefire.plus/img/animes/shikizakura.webp",
      "imagem_pasta": "https://animefire.plus/img/animes/shikizakura/",
      "secao": "legendados",
      "pagina": 37,
      "total_episodios": 12,
      "link_video": "https://animefire.plus/video/shikizakura"
    },
    {
      "id": 3412,
      "nome": "Shikkakumon no Saikyou Kenja (Dublado)",
      "link": "https://animefire.plus/animes/shikkakumon-no-saikyou-kenja-dublado-todos-os-episodios",
      "texto_original": "Shikkakumon no Saikyou Kenja (Dublado)",
      "rating": 6.22,
      "classificacao_etaria": "A14",
      "imagem_original": "https://animefire.plus/img/animes/shikkakumon-no-saikyou-kenja.webp",
      "imagem_pasta": "https://animefire.plus/img/animes/shikkakumon-no-saikyou-kenja/",
      "secao": "dublados,legendados",
      "pagina": 12,
      "total_episodios": 12,
      "link_video": "https://animefire.plus/video/shikkakumon-no-saikyou-kenja-dublado"
    },
    {
      "id": 3414,
      "nome": "Shin Chuuka Ichiban!",
      "link": "https://animefire.plus/animes/shin-chuuka-ichiban-todos-os-episodios",
      "texto_original": "Shin Chuuka Ichiban!",
      "rating": 6.4,
      "classificacao_etaria": "A14",
      "imagem_original": "https://animefire.plus/img/animes/shin-chuuka-ichiban.webp",
      "imagem_pasta": "https://animefire.plus/img/animes/shin-chuuka-ichiban/",
      "secao": "legendados",
      "pagina": 110,
      "total_episodios": 0,
      "link_video": "https://animefire.plus/video/shin-chuuka-ichiban"
    },
    {
      "id": 3415,
      "nome": "Shin Chuuka Ichiban! 2nd Season",
      "link": "https://animefire.plus/animes/shin-chuuka-ichiban-2nd-season-todos-os-episodios",
      "texto_original": "Shin Chuuka Ichiban! 2nd Season",
      "rating": 6.68,
      "classificacao_etaria": "A14",
      "imagem_original": "https://animefire.plus/img/animes/shin-chuuka-ichiban-2nd-season.webp",
      "imagem_pasta": "https://animefire.plus/img/animes/shin-chuuka-ichiban-2nd-season/",
      "secao": "legendados,lancamentos",
      "pagina": 48,
      "total_episodios": 6,
      "link_video": "https://animefire.plus/video/shin-chuuka-ichiban-2nd-season"
    },
    {
      "id": 3416,
      "nome": "Shin Cutey Honey",
      "link": "https://animefire.plus/animes/shin-cutey-honey-todos-os-episodios",
      "texto_original": "Shin Cutey Honey",
      "rating": 6.67,
      "classificacao_etaria": "A18",
      "imagem_original": "https://animefire.plus/img/animes/shin-cutey-honey.webp",
      "imagem_pasta": "https://animefire.plus/img/animes/shin-cutey-honey/",
      "secao": "legendados",
      "pagina": 83,
      "total_episodios": 8,
      "link_video": "https://animefire.plus/video/shin-cutey-honey"
    },
    {
      "id": 3417,
      "nome": "Shin Ikkitousen",
      "link": "https://animefire.plus/animes/shin-ikkitousen-todos-os-episodios",
      "texto_original": "Shin Ikkitousen",
      "rating": 5.83,
      "classificacao_etaria": "A18",
      "imagem_original": "https://animefire.plus/img/animes/shin-ikkitousen.webp",
      "imagem_pasta": "https://animefire.plus/img/animes/shin-ikkitousen/",
      "secao": "legendados",
      "pagina": 34,
      "total_episodios": 3,
      "link_video": "https://animefire.plus/video/shin-ikkitousen"
    },
    {
      "id": 3418,
      "nome": "Shin Koihime†Musou",
      "link": "https://animefire.plus/animes/shin-koihime-musou-todos-os-episodios",
      "texto_original": "Shin Koihime†Musou",
      "rating": 6.91,
      "classificacao_etaria": "A18",
      "imagem_original": "https://animefire.plus/img/animes/shin-koihime-musou.webp",
      "imagem_pasta": "https://animefire.plus/img/animes/shin-koihime-musou/",
      "secao": "legendados",
      "pagina": 175,
      "total_episodios": 12,
      "link_video": "https://animefire.plus/video/shin-koihime-musou"
    },
    {
      "id": 3419,
      "nome": "Shin Koihime†Musou: Live Revolution",
      "link": "https://animefire.plus/animes/shin-koihime-musou-live-revolution-todos-os-episodios",
      "texto_original": "Shin Koihime†Musou: Live Revolution",
      "rating": 6.61,
      "classificacao_etaria": "A14",
      "imagem_original": "https://animefire.plus/img/animes/shin-koihime-musou-live-revolution.webp",
      "imagem_pasta": "https://animefire.plus/img/animes/shin-koihime-musou-live-revolution/",
      "secao": "legendados",
      "pagina": 72,
      "total_episodios": 1,
      "link_video": "https://animefire.plus/video/shin-koihime-musou-live-revolution"
    },
    {
      "id": 3420,
      "nome": "Shin Kujakuou",
      "link": "https://animefire.plus/animes/shin-kujakuou-todos-os-episodios",
      "texto_original": "Shin Kujakuou",
      "rating": 6.06,
      "classificacao_etaria": "A18",
      "imagem_original": "https://animefire.plus/img/animes/shin-kujakuou.webp",
      "imagem_pasta": "https://animefire.plus/img/animes/shin-kujakuou/",
      "secao": "legendados",
      "pagina": 83,
      "total_episodios": 2,
      "link_video": "https://animefire.plus/video/shin-kujakuou"
    },
    {
      "id": 3421,
      "nome": "Shin no Nakama ja Nai to Yuusha no Party wo Oidasareta node, Henkyou de Slow Life suru Koto ni Shima",
      "link": "https://animefire.plus/animes/shin-no-nakama-ja-nai-to-yuusha-no-party-wo-oidasareta-node-henkyou-de-slow-life-suru-koto-ni-shima-todos-os-episodios",
      "texto_original": "Shin no Nakama ja Nai to Yuusha no Party wo Oidasareta node, Henkyou de Slow Life suru Koto ni Shima",
      "rating": 6.92,
      "classificacao_etaria": "A14",
      "imagem_original": "https://animefire.plus/img/animes/shin-no-nakama-ja-nai-to-yuusha-no-party-wo-oidasareta-node-henkyou-de-slow-life-suru-koto-ni-shima.webp",
      "imagem_pasta": "https://animefire.plus/img/animes/shin-no-nakama-ja-nai-to-yuusha-no-party-wo-oidasareta-node-henkyou-de-slow-life-suru-koto-ni-shima/",
      "secao": "legendados",
      "pagina": 39,
      "total_episodios": 13,
      "link_video": "https://animefire.plus/video/shin-no-nakama-ja-nai-to-yuusha-no-party-wo-oidasareta-node-henkyou-de-slow-life-suru-koto-ni-shima"
    },
    {
      "id": 3422,
      "nome": "Shin no Nakama ja Nai to Yuusha no Party wo Oidasareta node, Henkyou de Slow Life suru Koto ni Shimashita (Dublado)",
      "link": "https://animefire.plus/animes/shin-no-nakama-ja-nai-to-yuusha-no-party-wo-oidasareta-node-henkyou-de-slow-life-suru-koto-ni-shimashita-dublado-todos-os-episodios",
      "texto_original": "Shin no Nakama ja Nai to Yuusha no Party wo Oidasareta node, Henkyou de Slow Life suru Koto ni Shimashita (Dublado)",
      "rating": 6.92,
      "classificacao_etaria": "A14",
      "imagem_original": "https://animefire.plus/img/animes/shin-no-nakama-ja-nai-to-yuusha-no-party-wo-oidasareta-node-henkyou-de-slow-life-suru-koto-ni-shimashita.webp",
      "imagem_pasta": "https://animefire.plus/img/animes/shin-no-nakama-ja-nai-to-yuusha-no-party-wo-oidasareta-node-henkyou-de-slow-life-suru-koto-ni-shimashita/",
      "secao": "dublados,lancamentos",
      "pagina": 14,
      "total_episodios": 4,
      "link_video": "https://animefire.plus/video/shin-no-nakama-ja-nai-to-yuusha-no-party-wo-oidasareta-node-henkyou-de-slow-life-suru-koto-ni-shimashita-dublado"
    },
    {
      "id": 3423,
      "nome": "Shin no Nakama ja Nai to Yuusha no Party wo Oidasareta node, Henkyou de Slow Life suru Koto ni Shimashita 2nd",
      "link": "https://animefire.plus/animes/shin-no-nakama-ja-nai-to-yuusha-no-party-wo-oidasareta-node-henkyou-de-slow-life-suru-koto-ni-shimashita-2nd-todos-os-episodios",
      "texto_original": "Shin no Nakama ja Nai to Yuusha no Party wo Oidasareta node, Henkyou de Slow Life suru Koto ni Shimashita 2nd",
      "rating": 6.76,
      "classificacao_etaria": "A14",
      "imagem_original": "https://animefire.plus/img/animes/shin-no-nakama-ja-nai-to-yuusha-no-party-wo-oidasareta-node-henkyou-de-slow-life-suru-koto-ni-shimashita-2nd.webp",
      "imagem_pasta": "https://animefire.plus/img/animes/shin-no-nakama-ja-nai-to-yuusha-no-party-wo-oidasareta-node-henkyou-de-slow-life-suru-koto-ni-shimashita-2nd/",
      "secao": "legendados",
      "pagina": 16,
      "total_episodios": 12,
      "link_video": "https://animefire.plus/video/shin-no-nakama-ja-nai-to-yuusha-no-party-wo-oidasareta-node-henkyou-de-slow-life-suru-koto-ni-shimashita-2nd"
    },
    {
      "id": 3424,
      "nome": "Shin Sakura Taisen the Animation",
      "link": "https://animefire.plus/animes/shin-sakura-taisen-the-animation-todos-os-episodios",
      "texto_original": "Shin Sakura Taisen the Animation",
      "rating": 5.81,
      "classificacao_etaria": "A14",
      "imagem_original": "https://animefire.plus/img/animes/shin-sakura-taisen-the-animation.webp",
      "imagem_pasta": "https://animefire.plus/img/animes/shin-sakura-taisen-the-animation/",
      "secao": "legendados",
      "pagina": 81,
      "total_episodios": 1,
      "link_video": "https://animefire.plus/video/shin-sakura-taisen-the-animation"
    },
    {
      "id": 3426,
      "nome": "Shin Shinka no Mi: Shiranai Uchi ni Kachigumi Jinsei (Dublado)",
      "link": "https://animefire.plus/animes/shin-shinka-no-mi-shiranai-uchi-ni-kachigumi-jinsei-dublado-todos-os-episodios",
      "texto_original": "Shin Shinka no Mi: Shiranai Uchi ni Kachigumi Jinsei (Dublado)",
      "rating": 5.47,
      "classificacao_etaria": "A14",
      "imagem_original": "https://animefire.plus/img/animes/shin-shinka-no-mi-shiranai-uchi-ni-kachigumi-jinsei.webp",
      "imagem_pasta": "https://animefire.plus/img/animes/shin-shinka-no-mi-shiranai-uchi-ni-kachigumi-jinsei/",
      "secao": "dublados,legendados",
      "pagina": 5,
      "total_episodios": 12,
      "link_video": "https://animefire.plus/video/shin-shinka-no-mi-shiranai-uchi-ni-kachigumi-jinsei-dublado"
    },
    {
      "id": 3428,
      "nome": "Shin Strange+",
      "link": "https://animefire.plus/animes/shin-strange-todos-os-episodios",
      "texto_original": "Shin Strange+",
      "rating": 6.3,
      "classificacao_etaria": "A14",
      "imagem_original": "https://animefire.plus/img/animes/shin-strange.webp",
      "imagem_pasta": "https://animefire.plus/img/animes/shin-strange/",
      "secao": "legendados",
      "pagina": 104,
      "total_episodios": 12,
      "link_video": "https://animefire.plus/video/shin-strange"
    }
  ],
  "pagination": {
    "current_page": 72,
    "per_page": 20,
    "total_items": 1805,
    "total_pages": 91,
    "has_next": true,
    "has_prev": true
  }
}
