{
  "message": "Animes com rating entre 5 e 7",
  "rating_range": {
    "min": 5,
    "max": 7
  },
  "data": [
    {
      "id": 3704,
      "nome": "Taboo Tattoo",
      "link": "https://animefire.plus/animes/taboo-tattoo-todos-os-episodios",
      "texto_original": "Taboo Tattoo",
      "rating": 5.93,
      "classificacao_etaria": "A16",
      "imagem_original": "https://animefire.plus/img/animes/taboo-tattoo.webp",
      "imagem_pasta": "https://animefire.plus/img/animes/taboo-tattoo/",
      "secao": "legendados",
      "pagina": 104,
      "total_episodios": 12,
      "link_video": "https://animefire.plus/video/taboo-tattoo"
    },
    {
      "id": 3705,
      "nome": "Tachibanakan Triangle",
      "link": "https://animefire.plus/animes/tachibanakan-triangle-todos-os-episodios",
      "texto_original": "Tachibanakan Triangle",
      "rating": 5.63,
      "classificacao_etaria": "A18",
      "imagem_original": "https://animefire.plus/img/animes/tachibanakan-triangle.webp",
      "imagem_pasta": "https://animefire.plus/img/animes/tachibanakan-triangle/",
      "secao": "legendados",
      "pagina": 156,
      "total_episodios": 12,
      "link_video": "https://animefire.plus/video/tachibanakan-triangle"
    },
    {
      "id": 3706,
      "nome": "Tactical Roar",
      "link": "https://animefire.plus/animes/tactical-roar-todos-os-episodios",
      "texto_original": "Tactical Roar",
      "rating": 6.49,
      "classificacao_etaria": "A14",
      "imagem_original": "https://animefire.plus/img/animes/tactical-roar.webp",
      "imagem_pasta": "https://animefire.plus/img/animes/tactical-roar/",
      "secao": "legendados",
      "pagina": 158,
      "total_episodios": 13,
      "link_video": "https://animefire.plus/video/tactical-roar"
    },
    {
      "id": 3719,
      "nome": "Takarajima Memorial: Yuunagi to Yobareta Otoko",
      "link": "https://animefire.plus/animes/takarajima-memorial-yuunagi-to-yobareta-otoko-todos-os-episodios",
      "texto_original": "Takarajima Memorial: Yuunagi to Yobareta Otoko",
      "rating": 6.56,
      "classificacao_etaria": null,
      "imagem_original": "https://animefire.plus/img/animes/takarajima-memorial-yuunagi-to-yobareta-otoko.webp",
      "imagem_pasta": "https://animefire.plus/img/animes/takarajima-memorial-yuunagi-to-yobareta-otoko/",
      "secao": "legendados",
      "pagina": 78,
      "total_episodios": 1,
      "link_video": "https://animefire.plus/video/takarajima-memorial-yuunagi-to-yobareta-otoko"
    },
    {
      "id": 3722,
      "nome": "Takunomi.",
      "link": "https://animefire.plus/animes/takunomi-todos-os-episodios",
      "texto_original": "Takunomi.",
      "rating": 6.44,
      "classificacao_etaria": "A14",
      "imagem_original": "https://animefire.plus/img/animes/takunomi.webp",
      "imagem_pasta": "https://animefire.plus/img/animes/takunomi/",
      "secao": "legendados",
      "pagina": 140,
      "total_episodios": 9,
      "link_video": "https://animefire.plus/video/takunomi"
    },
    {
      "id": 3723,
      "nome": "Tales of Eternia The Animation",
      "link": "https://animefire.plus/animes/tales-of-eternia-the-animation-todos-os-episodios",
      "texto_original": "Tales of Eternia The Animation",
      "rating": 6.27,
      "classificacao_etaria": "A14",
      "imagem_original": "https://animefire.plus/img/animes/tales-of-eternia-the-animation.webp",
      "imagem_pasta": "https://animefire.plus/img/animes/tales-of-eternia-the-animation/",
      "secao": "legendados",
      "pagina": 137,
      "total_episodios": 13,
      "link_video": "https://animefire.plus/video/tales-of-eternia-the-animation"
    },
    {
      "id": 3724,
      "nome": "Tales of Gekijou",
      "link": "https://animefire.plus/animes/tales-of-gekijou-todos-os-episodios",
      "texto_original": "Tales of Gekijou",
      "rating": 6.65,
      "classificacao_etaria": null,
      "imagem_original": "https://animefire.plus/img/animes/tales-of-gekijou.webp",
      "imagem_pasta": "https://animefire.plus/img/animes/tales-of-gekijou/",
      "secao": "legendados",
      "pagina": 70,
      "total_episodios": 5,
      "link_video": "https://animefire.plus/video/tales-of-gekijou"
    },
    {
      "id": 3725,
      "nome": "Tales of Luminaria: The Fateful Crossroad",
      "link": "https://animefire.plus/animes/tales-of-luminaria-the-fateful-crossroad-todos-os-episodios",
      "texto_original": "Tales of Luminaria: The Fateful Crossroad",
      "rating": 6.16,
      "classificacao_etaria": "A14",
      "imagem_original": "https://animefire.plus/img/animes/tales-of-luminaria-the-fateful-crossroad.webp",
      "imagem_pasta": "https://animefire.plus/img/animes/tales-of-luminaria-the-fateful-crossroad/",
      "secao": "legendados",
      "pagina": 35,
      "total_episodios": 2,
      "link_video": "https://animefire.plus/video/tales-of-luminaria-the-fateful-crossroad"
    },
    {
      "id": 3726,
      "nome": "Tales of Phantasia The Animation",
      "link": "https://animefire.plus/animes/tales-of-phantasia-the-animation-todos-os-episodios",
      "texto_original": "Tales of Phantasia The Animation",
      "rating": 6.84,
      "classificacao_etaria": "A14",
      "imagem_original": "https://animefire.plus/img/animes/tales-of-phantasia-the-animation.webp",
      "imagem_pasta": "https://animefire.plus/img/animes/tales-of-phantasia-the-animation/",
      "secao": "legendados",
      "pagina": 69,
      "total_episodios": 4,
      "link_video": "https://animefire.plus/video/tales-of-phantasia-the-animation"
    },
    {
      "id": 3732,
      "nome": "Tamako Market Specials",
      "link": "https://animefire.plus/animes/tamako-market-specials-todos-os-episodios",
      "texto_original": "Tamako Market Specials",
      "rating": 6.32,
      "classificacao_etaria": "A14",
      "imagem_original": "https://animefire.plus/img/animes/tamako-market-specials.webp",
      "imagem_pasta": "https://animefire.plus/img/animes/tamako-market-specials/",
      "secao": "legendados",
      "pagina": 67,
      "total_episodios": 6,
      "link_video": "https://animefire.plus/video/tamako-market-specials"
    },
    {
      "id": 3733,
      "nome": "Tamayomi",
      "link": "https://animefire.plus/animes/tamayomi-todos-os-episodios",
      "texto_original": "Tamayomi",
      "rating": 5.73,
      "classificacao_etaria": "A14",
      "imagem_original": "https://animefire.plus/img/animes/tamayomi.webp",
      "imagem_pasta": "https://animefire.plus/img/animes/tamayomi/",
      "secao": "legendados",
      "pagina": 82,
      "total_episodios": 0,
      "link_video": "https://animefire.plus/video/tamayomi"
    },
    {
      "id": 3739,
      "nome": "Tanpen Unico: Kuroi Kumo to Shiroi Hane",
      "link": "https://animefire.plus/animes/tanpen-unico-kuroi-kumo-to-shiroi-hane-todos-os-episodios",
      "texto_original": "Tanpen Unico: Kuroi Kumo to Shiroi Hane",
      "rating": 6.24,
      "classificacao_etaria": null,
      "imagem_original": "https://animefire.plus/img/animes/tanpen-unico-kuroi-kumo-to-shiroi-hane.webp",
      "imagem_pasta": "https://animefire.plus/img/animes/tanpen-unico-kuroi-kumo-to-shiroi-hane/",
      "secao": "legendados",
      "pagina": 65,
      "total_episodios": 1,
      "link_video": "https://animefire.plus/video/tanpen-unico-kuroi-kumo-to-shiroi-hane"
    },
    {
      "id": 3741,
      "nome": "Tantei Kageki Milky Holmes TD",
      "link": "https://animefire.plus/animes/tantei-kageki-milky-holmes-td-todos-os-episodios",
      "texto_original": "Tantei Kageki Milky Holmes TD",
      "rating": 6.47,
      "classificacao_etaria": "A14",
      "imagem_original": "https://animefire.plus/img/animes/tantei-kageki-milky-holmes-td.webp",
      "imagem_pasta": "https://animefire.plus/img/animes/tantei-kageki-milky-holmes-td/",
      "secao": "legendados",
      "pagina": 126,
      "total_episodios": 1,
      "link_video": "https://animefire.plus/video/tantei-kageki-milky-holmes-td"
    },
    {
      "id": 3742,
      "nome": "Tantei Opera Milky Holmes",
      "link": "https://animefire.plus/animes/tantei-opera-milky-holmes-todos-os-episodios",
      "texto_original": "Tantei Opera Milky Holmes",
      "rating": 6.99,
      "classificacao_etaria": "A14",
      "imagem_original": "https://animefire.plus/img/animes/tantei-opera-milky-holmes.webp",
      "imagem_pasta": "https://animefire.plus/img/animes/tantei-opera-milky-holmes/",
      "secao": "legendados",
      "pagina": 97,
      "total_episodios": 0,
      "link_video": "https://animefire.plus/video/tantei-opera-milky-holmes"
    },
    {
      "id": 3744,
      "nome": "Tantei Opera Milky Holmes: Alternative",
      "link": "https://animefire.plus/animes/tantei-opera-milky-holmes-alternative-todos-os-episodios",
      "texto_original": "Tantei Opera Milky Holmes: Alternative",
      "rating": 6.54,
      "classificacao_etaria": "A14",
      "imagem_original": "https://animefire.plus/img/animes/tantei-opera-milky-holmes-alternative.webp",
      "imagem_pasta": "https://animefire.plus/img/animes/tantei-opera-milky-holmes-alternative/",
      "secao": "legendados",
      "pagina": 83,
      "total_episodios": 2,
      "link_video": "https://animefire.plus/video/tantei-opera-milky-holmes-alternative"
    },
    {
      "id": 3745,
      "nome": "Tantei Opera Milky Holmes: Arsene Karei naru Yokubou",
      "link": "https://animefire.plus/animes/tantei-opera-milky-holmes-arsene-karei-naru-yokubou-todos-os-episodios",
      "texto_original": "Tantei Opera Milky Holmes: Arsene Karei naru Yokubou",
      "rating": 6.94,
      "classificacao_etaria": "A14",
      "imagem_original": "https://animefire.plus/img/animes/tantei-opera-milky-holmes-arsene-karei-naru-yokubou.webp",
      "imagem_pasta": "https://animefire.plus/img/animes/tantei-opera-milky-holmes-arsene-karei-naru-yokubou/",
      "secao": "legendados",
      "pagina": 87,
      "total_episodios": 1,
      "link_video": "https://animefire.plus/video/tantei-opera-milky-holmes-arsene-karei-naru-yokubou"
    },
    {
      "id": 3746,
      "nome": "Tantei Opera Milky Holmes: Psycho no Aisatsu",
      "link": "https://animefire.plus/animes/tantei-opera-milky-holmes-psycho-no-aisatsu-todos-os-episodios",
      "texto_original": "Tantei Opera Milky Holmes: Psycho no Aisatsu",
      "rating": 6.79,
      "classificacao_etaria": "A14",
      "imagem_original": "https://animefire.plus/img/animes/tantei-opera-milky-holmes-psycho-no-aisatsu.webp",
      "imagem_pasta": "https://animefire.plus/img/animes/tantei-opera-milky-holmes-psycho-no-aisatsu/",
      "secao": "legendados",
      "pagina": 83,
      "total_episodios": 1,
      "link_video": "https://animefire.plus/video/tantei-opera-milky-holmes-psycho-no-aisatsu"
    },
    {
      "id": 3747,
      "nome": "Tantei Opera Milky Holmes: Summer Special",
      "link": "https://animefire.plus/animes/tantei-opera-milky-holmes-summer-special-todos-os-episodios",
      "texto_original": "Tantei Opera Milky Holmes: Summer Special",
      "rating": 7,
      "classificacao_etaria": "A14",
      "imagem_original": "https://animefire.plus/img/animes/tantei-opera-milky-holmes-summer-special.webp",
      "imagem_pasta": "https://animefire.plus/img/animes/tantei-opera-milky-holmes-summer-special/",
      "secao": "legendados",
      "pagina": 87,
      "total_episodios": 1,
      "link_video": "https://animefire.plus/video/tantei-opera-milky-holmes-summer-special"
    },
    {
      "id": 3748,
      "nome": "Tantei Team KZ Jiken Note",
      "link": "https://animefire.plus/animes/tantei-team-kz-jiken-note-todos-os-episodios",
      "texto_original": "Tantei Team KZ Jiken Note",
      "rating": 6.25,
      "classificacao_etaria": "A10",
      "imagem_original": "https://animefire.plus/img/animes/tantei-team-kz-jiken-note.webp",
      "imagem_pasta": "https://animefire.plus/img/animes/tantei-team-kz-jiken-note/",
      "secao": "legendados",
      "pagina": 102,
      "total_episodios": 16,
      "link_video": "https://animefire.plus/video/tantei-team-kz-jiken-note"
    },
    {
      "id": 3749,
      "nome": "Tantei wa Mou, Shindeiru. (Dublado)",
      "link": "https://animefire.plus/animes/tantei-wa-mou-shindeiru-dublado-todos-os-episodios",
      "texto_original": "Tantei wa Mou, Shindeiru. (Dublado)",
      "rating": 6.42,
      "classificacao_etaria": "A14",
      "imagem_original": "https://animefire.plus/img/animes/tantei-wa-mou-shindeiru.webp",
      "imagem_pasta": "https://animefire.plus/img/animes/tantei-wa-mou-shindeiru/",
      "secao": "dublados,legendados",
      "pagina": 12,
      "total_episodios": 12,
      "link_video": "https://animefire.plus/video/tantei-wa-mou-shindeiru-dublado"
    }
  ],
  "pagination": {
    "current_page": 78,
    "per_page": 20,
    "total_items": 1805,
    "total_pages": 91,
    "has_next": true,
    "has_prev": true
  }
}
