{
  "message": "Animes com rating entre 5 e 7",
  "rating_range": {
    "min": 5,
    "max": 7
  },
  "data": [
    {
      "id": 3595,
      "nome": "Sounan Desu ka?",
      "link": "https://animefire.plus/animes/sounan-desu-ka-todos-os-episodios",
      "texto_original": "Sounan Desu ka?",
      "rating": 6.62,
      "classificacao_etaria": "A14",
      "imagem_original": "https://animefire.plus/img/animes/sounan-desu-ka.webp",
      "imagem_pasta": "https://animefire.plus/img/animes/sounan-desu-ka/",
      "secao": "legendados",
      "pagina": 120,
      "total_episodios": 0,
      "link_video": "https://animefire.plus/video/sounan-desu-ka"
    },
    {
      "id": 3598,
      "nome": "Sousei no Aquarion: Myth of Emotions",
      "link": "https://animefire.plus/animes/sousei-no-aquarion-myth-of-emotions-todos-os-episodios",
      "texto_original": "Sousei no Aquarion: Myth of Emotions",
      "rating": 5.42,
      "classificacao_etaria": "A14",
      "imagem_original": "https://animefire.plus/img/animes/sousei-no-aquarion-myth-of-emotions.webp",
      "imagem_pasta": "https://animefire.plus/img/animes/sousei-no-aquarion-myth-of-emotions/",
      "secao": "legendados",
      "pagina": 6,
      "total_episodios": 12,
      "link_video": "https://animefire.plus/video/sousei-no-aquarion-myth-of-emotions"
    },
    {
      "id": 3600,
      "nome": "Soushin Shoujo Matoi",
      "link": "https://animefire.plus/animes/soushin-shoujo-matoi-todos-os-episodios",
      "texto_original": "Soushin Shoujo Matoi",
      "rating": 6.76,
      "classificacao_etaria": "A14",
      "imagem_original": "https://animefire.plus/img/animes/soushin-shoujo-matoi.webp",
      "imagem_pasta": "https://animefire.plus/img/animes/soushin-shoujo-matoi/",
      "secao": "legendados",
      "pagina": 156,
      "total_episodios": 10,
      "link_video": "https://animefire.plus/video/soushin-shoujo-matoi"
    },
    {
      "id": 3602,
      "nome": "Soutai Sekai",
      "link": "https://animefire.plus/animes/soutai-sekai-todos-os-episodios",
      "texto_original": "Soutai Sekai",
      "rating": 5.89,
      "classificacao_etaria": "A14",
      "imagem_original": "https://animefire.plus/img/animes/soutai-sekai.webp",
      "imagem_pasta": "https://animefire.plus/img/animes/soutai-sekai/",
      "secao": "legendados",
      "pagina": 86,
      "total_episodios": 2,
      "link_video": "https://animefire.plus/video/soutai-sekai"
    },
    {
      "id": 3604,
      "nome": "Souten no Ken",
      "link": "https://animefire.plus/animes/souten-no-ken-todos-os-episodios",
      "texto_original": "Souten no Ken",
      "rating": 6.75,
      "classificacao_etaria": "A16",
      "imagem_original": "https://animefire.plus/img/animes/souten-no-ken.webp",
      "imagem_pasta": "https://animefire.plus/img/animes/souten-no-ken/",
      "secao": "legendados",
      "pagina": 168,
      "total_episodios": 26,
      "link_video": "https://animefire.plus/video/souten-no-ken"
    },
    {
      "id": 3605,
      "nome": "Souten no Ken: Regenesis",
      "link": "https://animefire.plus/animes/souten-no-ken-regenesis-todos-os-episodios",
      "texto_original": "Souten no Ken: Regenesis",
      "rating": 5.7,
      "classificacao_etaria": "A16",
      "imagem_original": "https://animefire.plus/img/animes/souten-no-ken-regenesis.webp",
      "imagem_pasta": "https://animefire.plus/img/animes/souten-no-ken-regenesis/",
      "secao": "legendados",
      "pagina": 62,
      "total_episodios": 12,
      "link_video": "https://animefire.plus/video/souten-no-ken-regenesis"
    },
    {
      "id": 3612,
      "nome": "Spriggan (ONA) (Dublado)",
      "link": "https://animefire.plus/animes/spriggan-ona-dublado-todos-os-episodios",
      "texto_original": "Spriggan (ONA) (Dublado)",
      "rating": 6.86,
      "classificacao_etaria": "A16",
      "imagem_original": "https://animefire.plus/img/animes/spriggan-ona.webp",
      "imagem_pasta": "https://animefire.plus/img/animes/spriggan-ona/",
      "secao": "dublados,legendados",
      "pagina": 10,
      "total_episodios": 6,
      "link_video": "https://animefire.plus/video/spriggan-ona-dublado"
    },
    {
      "id": 3613,
      "nome": "Spy Kyoushitsu",
      "link": "https://animefire.plus/animes/spy-kyoushitsu-todos-os-episodios",
      "texto_original": "Spy Kyoushitsu",
      "rating": 6.4,
      "classificacao_etaria": "A14",
      "imagem_original": "https://animefire.plus/img/animes/spy-kyoushitsu.webp",
      "imagem_pasta": "https://animefire.plus/img/animes/spy-kyoushitsu/",
      "secao": "legendados",
      "pagina": 28,
      "total_episodios": 12,
      "link_video": "https://animefire.plus/video/spy-kyoushitsu"
    },
    {
      "id": 3620,
      "nome": "Stand My Heroes: Piece of Truth (Dublado)",
      "link": "https://animefire.plus/animes/stand-my-heroes-piece-of-truth-dublado-todos-os-episodios",
      "texto_original": "Stand My Heroes: Piece of Truth (Dublado)",
      "rating": 5.7,
      "classificacao_etaria": "A14",
      "imagem_original": "https://animefire.plus/img/animes/stand-my-heroes-piece-of-truth.webp",
      "imagem_pasta": "https://animefire.plus/img/animes/stand-my-heroes-piece-of-truth/",
      "secao": "dublados,legendados",
      "pagina": 18,
      "total_episodios": 12,
      "link_video": "https://animefire.plus/video/stand-my-heroes-piece-of-truth-dublado"
    },
    {
      "id": 3622,
      "nome": "Star Ocean EX",
      "link": "https://animefire.plus/animes/star-ocean-ex-todos-os-episodios",
      "texto_original": "Star Ocean EX",
      "rating": 6.66,
      "classificacao_etaria": "A14",
      "imagem_original": "https://animefire.plus/img/animes/star-ocean-ex.webp",
      "imagem_pasta": "https://animefire.plus/img/animes/star-ocean-ex/",
      "secao": "legendados",
      "pagina": 119,
      "total_episodios": 26,
      "link_video": "https://animefire.plus/video/star-ocean-ex"
    },
    {
      "id": 3627,
      "nome": "Starmyu 3rd Season",
      "link": "https://animefire.plus/animes/starmyu-3rd-season-todos-os-episodios",
      "texto_original": "Starmyu 3rd Season",
      "rating": 6.89,
      "classificacao_etaria": "A14",
      "imagem_original": "https://animefire.plus/img/animes/starmyu-3rd-season.webp",
      "imagem_pasta": "https://animefire.plus/img/animes/starmyu-3rd-season/",
      "secao": "legendados",
      "pagina": 95,
      "total_episodios": 12,
      "link_video": "https://animefire.plus/video/starmyu-3rd-season"
    },
    {
      "id": 3628,
      "nome": "Starmyu in Halloween",
      "link": "https://animefire.plus/animes/starmyu-in-halloween-todos-os-episodios",
      "texto_original": "Starmyu in Halloween",
      "rating": 6.92,
      "classificacao_etaria": null,
      "imagem_original": "https://animefire.plus/img/animes/starmyu-in-halloween.webp",
      "imagem_pasta": "https://animefire.plus/img/animes/starmyu-in-halloween/",
      "secao": "legendados",
      "pagina": 86,
      "total_episodios": 1,
      "link_video": "https://animefire.plus/video/starmyu-in-halloween"
    },
    {
      "id": 3629,
      "nome": "Starry☆Sky",
      "link": "https://animefire.plus/animes/starry-sky-todos-os-episodios",
      "texto_original": "Starry☆Sky",
      "rating": 6.23,
      "classificacao_etaria": "A14",
      "imagem_original": "https://animefire.plus/img/animes/starry-sky.webp",
      "imagem_pasta": "https://animefire.plus/img/animes/starry-sky/",
      "secao": "legendados",
      "pagina": 119,
      "total_episodios": 26,
      "link_video": "https://animefire.plus/video/starry-sky"
    },
    {
      "id": 3636,
      "nome": "Stella Jogakuin Koutou-ka C³-bu",
      "link": "https://animefire.plus/animes/stella-jogakuin-koutou-ka-c--bu-todos-os-episodios",
      "texto_original": "Stella Jogakuin Koutou-ka C³-bu",
      "rating": 6.57,
      "classificacao_etaria": "A14",
      "imagem_original": "https://animefire.plus/img/animes/stella-jogakuin-koutou-ka-c--bu.webp",
      "imagem_pasta": "https://animefire.plus/img/animes/stella-jogakuin-koutou-ka-c--bu/",
      "secao": "legendados",
      "pagina": 156,
      "total_episodios": 13,
      "link_video": "https://animefire.plus/video/stella-jogakuin-koutou-ka-c--bu"
    },
    {
      "id": 3637,
      "nome": "Stella no Mahou",
      "link": "https://animefire.plus/animes/stella-no-mahou-todos-os-episodios",
      "texto_original": "Stella no Mahou",
      "rating": 6.91,
      "classificacao_etaria": "A14",
      "imagem_original": "https://animefire.plus/img/animes/stella-no-mahou.webp",
      "imagem_pasta": "https://animefire.plus/img/animes/stella-no-mahou/",
      "secao": "legendados",
      "pagina": 165,
      "total_episodios": 12,
      "link_video": "https://animefire.plus/video/stella-no-mahou"
    },
    {
      "id": 3638,
      "nome": "Strait Jacket",
      "link": "https://animefire.plus/animes/strait-jacket-todos-os-episodios",
      "texto_original": "Strait Jacket",
      "rating": 6.86,
      "classificacao_etaria": "A16",
      "imagem_original": "https://animefire.plus/img/animes/strait-jacket.webp",
      "imagem_pasta": "https://animefire.plus/img/animes/strait-jacket/",
      "secao": "legendados",
      "pagina": 78,
      "total_episodios": 3,
      "link_video": "https://animefire.plus/video/strait-jacket"
    },
    {
      "id": 3639,
      "nome": "Strange+",
      "link": "https://animefire.plus/animes/strange-todos-os-episodios",
      "texto_original": "Strange+",
      "rating": 6.03,
      "classificacao_etaria": "A14",
      "imagem_original": "https://animefire.plus/img/animes/strange.webp",
      "imagem_pasta": "https://animefire.plus/img/animes/strange/",
      "secao": "legendados",
      "pagina": 100,
      "total_episodios": 12,
      "link_video": "https://animefire.plus/video/strange"
    },
    {
      "id": 3640,
      "nome": "Stratos 4 (Dublado)",
      "link": "https://animefire.plus/animes/stratos-4-dublado-todos-os-episodios",
      "texto_original": "Stratos 4 (Dublado)",
      "rating": 6.68,
      "classificacao_etaria": "A14",
      "imagem_original": "https://animefire.plus/img/animes/stratos-4.webp",
      "imagem_pasta": "https://animefire.plus/img/animes/stratos-4/",
      "secao": "dublados,legendados",
      "pagina": 23,
      "total_episodios": 13,
      "link_video": "https://animefire.plus/video/stratos-4-dublado"
    },
    {
      "id": 3641,
      "nome": "Stratos 4 Advance",
      "link": "https://animefire.plus/animes/stratos-4-advance-todos-os-episodios",
      "texto_original": "Stratos 4 Advance",
      "rating": 6.87,
      "classificacao_etaria": "A14",
      "imagem_original": "https://animefire.plus/img/animes/stratos-4-advance.webp",
      "imagem_pasta": "https://animefire.plus/img/animes/stratos-4-advance/",
      "secao": "legendados",
      "pagina": 79,
      "total_episodios": 8,
      "link_video": "https://animefire.plus/video/stratos-4-advance"
    },
    {
      "id": 3644,
      "nome": "Street Fighter IV: Aratanaru Kizuna",
      "link": "https://animefire.plus/animes/street-fighter-iv-aratanaru-kizuna-todos-os-episodios",
      "texto_original": "Street Fighter IV: Aratanaru Kizuna",
      "rating": 6.26,
      "classificacao_etaria": "A14",
      "imagem_original": "https://animefire.plus/img/animes/street-fighter-iv-aratanaru-kizuna.webp",
      "imagem_pasta": "https://animefire.plus/img/animes/street-fighter-iv-aratanaru-kizuna/",
      "secao": "legendados",
      "pagina": 58,
      "total_episodios": 1,
      "link_video": "https://animefire.plus/video/street-fighter-iv-aratanaru-kizuna"
    }
  ],
  "pagination": {
    "current_page": 76,
    "per_page": 20,
    "total_items": 1805,
    "total_pages": 91,
    "has_next": true,
    "has_prev": true
  }
}
