{
  "message": "Animes com rating entre 5 e 7",
  "rating_range": {
    "min": 5,
    "max": 7
  },
  "data": [
    {
      "id": 2993,
      "nome": "Platinum End (Dublado)",
      "link": "https://animefire.plus/animes/platinum-end-dublado-todos-os-episodios",
      "texto_original": "Platinum End (Dublado)",
      "rating": 6.02,
      "classificacao_etaria": "A16",
      "imagem_original": "https://animefire.plus/img/animes/platinum-end.webp",
      "imagem_pasta": "https://animefire.plus/img/animes/platinum-end/",
      "secao": "dublados,legendados",
      "pagina": 14,
      "total_episodios": 24,
      "link_video": "https://animefire.plus/video/platinum-end-dublado"
    },
    {
      "id": 2994,
      "nome": "Plunderer (Dublado)",
      "link": "https://animefire.plus/animes/plunderer-dublado-todos-os-episodios",
      "texto_original": "Plunderer (Dublado)",
      "rating": 6.56,
      "classificacao_etaria": "A14",
      "imagem_original": "https://animefire.plus/img/animes/plunderer.webp",
      "imagem_pasta": "https://animefire.plus/img/animes/plunderer/",
      "secao": "dublados,legendados",
      "pagina": 14,
      "total_episodios": 24,
      "link_video": "https://animefire.plus/video/plunderer-dublado"
    },
    {
      "id": 2998,
      "nome": "Pokemon (2019): Kami to Yobareshi Arceus (Dublado)",
      "link": "https://animefire.plus/animes/pokemon-2019-kami-to-yobareshi-arceus-dublado-todos-os-episodios",
      "texto_original": "Pokemon (2019): Kami to Yobareshi Arceus (Dublado)",
      "rating": 6.67,
      "classificacao_etaria": "A10",
      "imagem_original": "https://animefire.plus/img/animes/pokemon-2019-kami-to-yobareshi-arceus.webp",
      "imagem_pasta": "https://animefire.plus/img/animes/pokemon-2019-kami-to-yobareshi-arceus/",
      "secao": "dublados,legendados",
      "pagina": 9,
      "total_episodios": 1,
      "link_video": "https://animefire.plus/video/pokemon-2019-kami-to-yobareshi-arceus-dublado"
    },
    {
      "id": 3001,
      "nome": "Pokemon Best Wishes! Season 2",
      "link": "https://animefire.plus/animes/pokemon-best-wishes-season-2-todos-os-episodios",
      "texto_original": "Pokemon Best Wishes! Season 2",
      "rating": 6.59,
      "classificacao_etaria": "A10",
      "imagem_original": "https://animefire.plus/img/animes/pokemon-best-wishes-season-2.webp",
      "imagem_pasta": "https://animefire.plus/img/animes/pokemon-best-wishes-season-2/",
      "secao": "legendados",
      "pagina": 129,
      "total_episodios": 3,
      "link_video": "https://animefire.plus/video/pokemon-best-wishes-season-2"
    },
    {
      "id": 3005,
      "nome": "Pokemon Sun & Moon",
      "link": "https://animefire.plus/animes/pokemon-sun-moon-todos-os-episodios",
      "texto_original": "Pokemon Sun & Moon",
      "rating": 6.79,
      "classificacao_etaria": "A10",
      "imagem_original": "https://animefire.plus/img/animes/pokemon-sun-moon.webp",
      "imagem_pasta": "https://animefire.plus/img/animes/pokemon-sun-moon/",
      "secao": "legendados",
      "pagina": 178,
      "total_episodios": 108,
      "link_video": "https://animefire.plus/video/pokemon-sun-moon"
    },
    {
      "id": 3011,
      "nome": "Pon no Michi",
      "link": "https://animefire.plus/animes/pon-no-michi-todos-os-episodios",
      "texto_original": "Pon no Michi",
      "rating": 6.48,
      "classificacao_etaria": "A14",
      "imagem_original": "https://animefire.plus/img/animes/pon-no-michi.webp",
      "imagem_pasta": "https://animefire.plus/img/animes/pon-no-michi/",
      "secao": "legendados",
      "pagina": 17,
      "total_episodios": 12,
      "link_video": "https://animefire.plus/video/pon-no-michi"
    },
    {
      "id": 3014,
      "nome": "Popotan",
      "link": "https://animefire.plus/animes/popotan-todos-os-episodios",
      "texto_original": "Popotan",
      "rating": 6.36,
      "classificacao_etaria": "A18",
      "imagem_original": "https://animefire.plus/img/animes/popotan.webp",
      "imagem_pasta": "https://animefire.plus/img/animes/popotan/",
      "secao": "legendados",
      "pagina": 132,
      "total_episodios": 12,
      "link_video": "https://animefire.plus/video/popotan"
    },
    {
      "id": 3015,
      "nome": "Pops",
      "link": "https://animefire.plus/animes/pops-todos-os-episodios",
      "texto_original": "Pops",
      "rating": 5.61,
      "classificacao_etaria": "A14",
      "imagem_original": "https://animefire.plus/img/animes/pops.webp",
      "imagem_pasta": "https://animefire.plus/img/animes/pops/",
      "secao": "legendados",
      "pagina": 85,
      "total_episodios": 1,
      "link_video": "https://animefire.plus/video/pops"
    },
    {
      "id": 3018,
      "nome": "Potion-danomi de Ikinobimasu!",
      "link": "https://animefire.plus/animes/potion-danomi-de-ikinobimasu-todos-os-episodios",
      "texto_original": "Potion-danomi de Ikinobimasu!",
      "rating": 6.55,
      "classificacao_etaria": "A14",
      "imagem_original": "https://animefire.plus/img/animes/potion-danomi-de-ikinobimasu.webp",
      "imagem_pasta": "https://animefire.plus/img/animes/potion-danomi-de-ikinobimasu/",
      "secao": "legendados",
      "pagina": 20,
      "total_episodios": 12,
      "link_video": "https://animefire.plus/video/potion-danomi-de-ikinobimasu"
    },
    {
      "id": 3019,
      "nome": "Power Stone",
      "link": "https://animefire.plus/animes/power-stone-todos-os-episodios",
      "texto_original": "Power Stone",
      "rating": 6.54,
      "classificacao_etaria": "A10",
      "imagem_original": "https://animefire.plus/img/animes/power-stone.webp",
      "imagem_pasta": "https://animefire.plus/img/animes/power-stone/",
      "secao": "legendados",
      "pagina": 105,
      "total_episodios": 18,
      "link_video": "https://animefire.plus/video/power-stone"
    },
    {
      "id": 3021,
      "nome": "Precure All Stars DX the Dance Live♥: Miracle Dance Stage e Youkoso",
      "link": "https://animefire.plus/animes/precure-all-stars-dx-the-dance-live-miracle-dance-stage-e-youkoso-todos-os-episodios",
      "texto_original": "Precure All Stars DX the Dance Live♥: Miracle Dance Stage e Youkoso",
      "rating": 6.96,
      "classificacao_etaria": null,
      "imagem_original": "https://animefire.plus/img/animes/precure-all-stars-dx-the-dance-live-miracle-dance-stage-e-youkoso.webp",
      "imagem_pasta": "https://animefire.plus/img/animes/precure-all-stars-dx-the-dance-live-miracle-dance-stage-e-youkoso/",
      "secao": "legendados",
      "pagina": 76,
      "total_episodios": 1,
      "link_video": "https://animefire.plus/video/precure-all-stars-dx-the-dance-live-miracle-dance-stage-e-youkoso"
    },
    {
      "id": 3022,
      "nome": "Precure All Stars GoGo Dream Live!",
      "link": "https://animefire.plus/animes/precure-all-stars-gogo-dream-live-todos-os-episodios",
      "texto_original": "Precure All Stars GoGo Dream Live!",
      "rating": 6.85,
      "classificacao_etaria": null,
      "imagem_original": "https://animefire.plus/img/animes/precure-all-stars-gogo-dream-live.webp",
      "imagem_pasta": "https://animefire.plus/img/animes/precure-all-stars-gogo-dream-live/",
      "secao": "legendados",
      "pagina": 76,
      "total_episodios": 1,
      "link_video": "https://animefire.plus/video/precure-all-stars-gogo-dream-live"
    },
    {
      "id": 3027,
      "nome": "Princess Lover!",
      "link": "https://animefire.plus/animes/princess-lover-todos-os-episodios",
      "texto_original": "Princess Lover!",
      "rating": 6.92,
      "classificacao_etaria": "A18",
      "imagem_original": "https://animefire.plus/img/animes/princess-lover.webp",
      "imagem_pasta": "https://animefire.plus/img/animes/princess-lover/",
      "secao": "legendados",
      "pagina": 151,
      "total_episodios": 12,
      "link_video": "https://animefire.plus/video/princess-lover"
    },
    {
      "id": 3028,
      "nome": "Princess Minerva",
      "link": "https://animefire.plus/animes/princess-minerva-todos-os-episodios",
      "texto_original": "Princess Minerva",
      "rating": 5.58,
      "classificacao_etaria": "A18",
      "imagem_original": "https://animefire.plus/img/animes/princess-minerva.webp",
      "imagem_pasta": "https://animefire.plus/img/animes/princess-minerva/",
      "secao": "legendados",
      "pagina": 69,
      "total_episodios": 1,
      "link_video": "https://animefire.plus/video/princess-minerva"
    },
    {
      "id": 3034,
      "nome": "Prism Ark",
      "link": "https://animefire.plus/animes/prism-ark-todos-os-episodios",
      "texto_original": "Prism Ark",
      "rating": 6.52,
      "classificacao_etaria": "A18",
      "imagem_original": "https://animefire.plus/img/animes/prism-ark.webp",
      "imagem_pasta": "https://animefire.plus/img/animes/prism-ark/",
      "secao": "legendados",
      "pagina": 179,
      "total_episodios": 12,
      "link_video": "https://animefire.plus/video/prism-ark"
    },
    {
      "id": 3035,
      "nome": "Prism Magical: Prism Generations!",
      "link": "https://animefire.plus/animes/prism-magical-prism-generations-todos-os-episodios",
      "texto_original": "Prism Magical: Prism Generations!",
      "rating": 5.16,
      "classificacao_etaria": "A18",
      "imagem_original": "https://animefire.plus/img/animes/prism-magical-prism-generations.webp",
      "imagem_pasta": "https://animefire.plus/img/animes/prism-magical-prism-generations/",
      "secao": "legendados",
      "pagina": 82,
      "total_episodios": 1,
      "link_video": "https://animefire.plus/video/prism-magical-prism-generations"
    },
    {
      "id": 3037,
      "nome": "Project Scard: Praeter no Kizu",
      "link": "https://animefire.plus/animes/project-scard-praeter-no-kizu-todos-os-episodios",
      "texto_original": "Project Scard: Praeter no Kizu",
      "rating": 5.93,
      "classificacao_etaria": "A14",
      "imagem_original": "https://animefire.plus/img/animes/project-scard-praeter-no-kizu.webp",
      "imagem_pasta": "https://animefire.plus/img/animes/project-scard-praeter-no-kizu/",
      "secao": "legendados,lancamentos",
      "pagina": 48,
      "total_episodios": 3,
      "link_video": "https://animefire.plus/video/project-scard-praeter-no-kizu"
    },
    {
      "id": 3038,
      "nome": "Promare: Galo-hen",
      "link": "https://animefire.plus/animes/promare-galo-hen-todos-os-episodios",
      "texto_original": "Promare: Galo-hen",
      "rating": 6.92,
      "classificacao_etaria": "A14",
      "imagem_original": "https://animefire.plus/img/animes/promare-galo-hen.webp",
      "imagem_pasta": "https://animefire.plus/img/animes/promare-galo-hen/",
      "secao": "legendados",
      "pagina": 90,
      "total_episodios": 0,
      "link_video": "https://animefire.plus/video/promare-galo-hen"
    },
    {
      "id": 3044,
      "nome": "Pugyuru",
      "link": "https://animefire.plus/animes/pugyuru-todos-os-episodios",
      "texto_original": "Pugyuru",
      "rating": 5.79,
      "classificacao_etaria": "A14",
      "imagem_original": "https://animefire.plus/img/animes/pugyuru.webp",
      "imagem_pasta": "https://animefire.plus/img/animes/pugyuru/",
      "secao": "legendados",
      "pagina": 169,
      "total_episodios": 13,
      "link_video": "https://animefire.plus/video/pugyuru"
    },
    {
      "id": 3047,
      "nome": "Puniru wa Kawaii Slime",
      "link": "https://animefire.plus/animes/puniru-wa-kawaii-slime-todos-os-episodios",
      "texto_original": "Puniru wa Kawaii Slime",
      "rating": 6.91,
      "classificacao_etaria": "A16",
      "imagem_original": "https://animefire.plus/img/animes/puniru-wa-kawaii-slime.webp",
      "imagem_pasta": "https://animefire.plus/img/animes/puniru-wa-kawaii-slime/",
      "secao": "legendados",
      "pagina": 9,
      "total_episodios": 12,
      "link_video": "https://animefire.plus/video/puniru-wa-kawaii-slime"
    }
  ],
  "pagination": {
    "current_page": 64,
    "per_page": 20,
    "total_items": 1805,
    "total_pages": 91,
    "has_next": true,
    "has_prev": true
  }
}
