{
  "message": "Animes com rating entre 5 e 7",
  "rating_range": {
    "min": 5,
    "max": 7
  },
  "data": [
    {
      "id": 593,
      "nome": "Chaos Dragon: Sekiryuu Seneki",
      "link": "https://animefire.plus/animes/chaos-dragon-sekiryuu-seneki-todos-os-episodios",
      "texto_original": "Chaos Dragon: Sekiryuu Seneki",
      "rating": 5.76,
      "classificacao_etaria": "A16",
      "imagem_original": "https://animefire.plus/img/animes/chaos-dragon-sekiryuu-seneki.webp",
      "imagem_pasta": "https://animefire.plus/img/animes/chaos-dragon-sekiryuu-seneki/",
      "secao": "legendados",
      "pagina": 173,
      "total_episodios": 1,
      "link_video": "https://animefire.plus/video/chaos-dragon-sekiryuu-seneki"
    },
    {
      "id": 594,
      "nome": "ChäoS;HEAd",
      "link": "https://animefire.plus/animes/chaeos-head-todos-os-episodios",
      "texto_original": "ChäoS;HEAd",
      "rating": 6.47,
      "classificacao_etaria": "A16",
      "imagem_original": "https://animefire.plus/img/animes/chaeos-head.webp",
      "imagem_pasta": "https://animefire.plus/img/animes/chaeos-head/",
      "secao": "legendados",
      "pagina": 155,
      "total_episodios": 12,
      "link_video": "https://animefire.plus/video/chaeos-head"
    },
    {
      "id": 597,
      "nome": "Cheat Kusushi no Slow Life: Isekai ni Tsukurou Drugstore",
      "link": "https://animefire.plus/animes/cheat-kusushi-no-slow-life-isekai-ni-tsukurou-drugstore-todos-os-episodios",
      "texto_original": "Cheat Kusushi no Slow Life: Isekai ni Tsukurou Drugstore",
      "rating": 6.45,
      "classificacao_etaria": "A14",
      "imagem_original": "https://animefire.plus/img/animes/cheat-kusushi-no-slow-life-isekai-ni-tsukurou-drugstore.webp",
      "imagem_pasta": "https://animefire.plus/img/animes/cheat-kusushi-no-slow-life-isekai-ni-tsukurou-drugstore/",
      "secao": "legendados",
      "pagina": 41,
      "total_episodios": 12,
      "link_video": "https://animefire.plus/video/cheat-kusushi-no-slow-life-isekai-ni-tsukurou-drugstore"
    },
    {
      "id": 598,
      "nome": "Cheating Craft",
      "link": "https://animefire.plus/animes/cheating-craft-todos-os-episodios",
      "texto_original": "Cheating Craft",
      "rating": 5.54,
      "classificacao_etaria": "A14",
      "imagem_original": "https://animefire.plus/img/animes/cheating-craft.webp",
      "imagem_pasta": "https://animefire.plus/img/animes/cheating-craft/",
      "secao": "legendados",
      "pagina": 131,
      "total_episodios": 11,
      "link_video": "https://animefire.plus/video/cheating-craft"
    },
    {
      "id": 599,
      "nome": "Cheer Danshi!!",
      "link": "https://animefire.plus/animes/cheer-danshi-todos-os-episodios",
      "texto_original": "Cheer Danshi!!",
      "rating": 6.81,
      "classificacao_etaria": "A14",
      "imagem_original": "https://animefire.plus/img/animes/cheer-danshi.webp",
      "imagem_pasta": "https://animefire.plus/img/animes/cheer-danshi/",
      "secao": "legendados",
      "pagina": 162,
      "total_episodios": 0,
      "link_video": "https://animefire.plus/video/cheer-danshi"
    },
    {
      "id": 601,
      "nome": "Chiba Pedal: Yowamushi Pedal to Manabu Jitensha Koutsuu Anzen",
      "link": "https://animefire.plus/animes/chiba-pedal-yowamushi-pedal-to-manabu-jitensha-koutsuu-anzen-todos-os-episodios",
      "texto_original": "Chiba Pedal: Yowamushi Pedal to Manabu Jitensha Koutsuu Anzen",
      "rating": 6.31,
      "classificacao_etaria": "A14",
      "imagem_original": "https://animefire.plus/img/animes/chiba-pedal-yowamushi-pedal-to-manabu-jitensha-koutsuu-anzen.webp",
      "imagem_pasta": "https://animefire.plus/img/animes/chiba-pedal-yowamushi-pedal-to-manabu-jitensha-koutsuu-anzen/",
      "secao": "legendados",
      "pagina": 86,
      "total_episodios": 6,
      "link_video": "https://animefire.plus/video/chiba-pedal-yowamushi-pedal-to-manabu-jitensha-koutsuu-anzen"
    },
    {
      "id": 608,
      "nome": "Chikyuu Shoujo Arjuna (Dublado)",
      "link": "https://animefire.plus/animes/chikyuu-shoujo-arjuna-dublado-todos-os-episodios",
      "texto_original": "Chikyuu Shoujo Arjuna (Dublado)",
      "rating": 6.91,
      "classificacao_etaria": "A14",
      "imagem_original": "https://animefire.plus/img/animes/chikyuu-shoujo-arjuna.webp",
      "imagem_pasta": "https://animefire.plus/img/animes/chikyuu-shoujo-arjuna/",
      "secao": "dublados,legendados",
      "pagina": 27,
      "total_episodios": 9,
      "link_video": "https://animefire.plus/video/chikyuu-shoujo-arjuna-dublado"
    },
    {
      "id": 609,
      "nome": "Chikyuugai Shounen Shoujo",
      "link": "https://animefire.plus/animes/chikyuugai-shounen-shoujo-todos-os-episodios",
      "texto_original": "Chikyuugai Shounen Shoujo",
      "rating": 6.82,
      "classificacao_etaria": "A14",
      "imagem_original": "https://animefire.plus/img/animes/chikyuugai-shounen-shoujo.webp",
      "imagem_pasta": "https://animefire.plus/img/animes/chikyuugai-shounen-shoujo/",
      "secao": "legendados",
      "pagina": 35,
      "total_episodios": 1,
      "link_video": "https://animefire.plus/video/chikyuugai-shounen-shoujo"
    },
    {
      "id": 610,
      "nome": "Chimimo",
      "link": "https://animefire.plus/animes/chimimo-todos-os-episodios",
      "texto_original": "Chimimo",
      "rating": 6.9,
      "classificacao_etaria": null,
      "imagem_original": "https://animefire.plus/img/animes/chimimo.webp",
      "imagem_pasta": "https://animefire.plus/img/animes/chimimo/",
      "secao": "legendados",
      "pagina": 31,
      "total_episodios": 12,
      "link_video": "https://animefire.plus/video/chimimo"
    },
    {
      "id": 612,
      "nome": "Chiryokumaru",
      "link": "https://animefire.plus/animes/chiryokumaru-todos-os-episodios",
      "texto_original": "Chiryokumaru",
      "rating": 5.18,
      "classificacao_etaria": "A14",
      "imagem_original": "https://animefire.plus/img/animes/chiryokumaru.webp",
      "imagem_pasta": "https://animefire.plus/img/animes/chiryokumaru/",
      "secao": "legendados",
      "pagina": 70,
      "total_episodios": 1,
      "link_video": "https://animefire.plus/video/chiryokumaru"
    },
    {
      "id": 613,
      "nome": "Chitose Get You!!",
      "link": "https://animefire.plus/animes/chitose-get-you-todos-os-episodios",
      "texto_original": "Chitose Get You!!",
      "rating": 6.35,
      "classificacao_etaria": "A14",
      "imagem_original": "https://animefire.plus/img/animes/chitose-get-you.webp",
      "imagem_pasta": "https://animefire.plus/img/animes/chitose-get-you/",
      "secao": "legendados",
      "pagina": 167,
      "total_episodios": 0,
      "link_video": "https://animefire.plus/video/chitose-get-you"
    },
    {
      "id": 614,
      "nome": "Chivas 1-2-3",
      "link": "https://animefire.plus/animes/chivas-1-2-3-todos-os-episodios",
      "texto_original": "Chivas 1-2-3",
      "rating": 6.06,
      "classificacao_etaria": "A18",
      "imagem_original": "https://animefire.plus/img/animes/chivas-1-2-3.webp",
      "imagem_pasta": "https://animefire.plus/img/animes/chivas-1-2-3/",
      "secao": "legendados",
      "pagina": 68,
      "total_episodios": 2,
      "link_video": "https://animefire.plus/video/chivas-1-2-3"
    },
    {
      "id": 617,
      "nome": "Choboraunyopomi Gekijou Ai Mai Mii",
      "link": "https://animefire.plus/animes/choboraunyopomi-gekijou-ai-mai-mii-todos-os-episodios",
      "texto_original": "Choboraunyopomi Gekijou Ai Mai Mii",
      "rating": 5.87,
      "classificacao_etaria": "A14",
      "imagem_original": "https://animefire.plus/img/animes/choboraunyopomi-gekijou-ai-mai-mii.webp",
      "imagem_pasta": "https://animefire.plus/img/animes/choboraunyopomi-gekijou-ai-mai-mii/",
      "secao": "legendados",
      "pagina": 167,
      "total_episodios": 0,
      "link_video": "https://animefire.plus/video/choboraunyopomi-gekijou-ai-mai-mii"
    },
    {
      "id": 618,
      "nome": "Choboraunyopomi Gekijou Dai San Maku Ai Mai Mii: Surgical Friends",
      "link": "https://animefire.plus/animes/choboraunyopomi-gekijou-dai-san-maku-ai-mai-mii-surgical-friends-todos-os-episodios",
      "texto_original": "Choboraunyopomi Gekijou Dai San Maku Ai Mai Mii: Surgical Friends",
      "rating": 6.14,
      "classificacao_etaria": "A14",
      "imagem_original": "https://animefire.plus/img/animes/choboraunyopomi-gekijou-dai-san-maku-ai-mai-mii-surgical-friends.webp",
      "imagem_pasta": "https://animefire.plus/img/animes/choboraunyopomi-gekijou-dai-san-maku-ai-mai-mii-surgical-friends/",
      "secao": "legendados",
      "pagina": 173,
      "total_episodios": 13,
      "link_video": "https://animefire.plus/video/choboraunyopomi-gekijou-dai-san-maku-ai-mai-mii-surgical-friends"
    },
    {
      "id": 619,
      "nome": "Chocolate Underground",
      "link": "https://animefire.plus/animes/chocolate-underground-todos-os-episodios",
      "texto_original": "Chocolate Underground",
      "rating": 6.22,
      "classificacao_etaria": "A10",
      "imagem_original": "https://animefire.plus/img/animes/chocolate-underground.webp",
      "imagem_pasta": "https://animefire.plus/img/animes/chocolate-underground/",
      "secao": "legendados",
      "pagina": 122,
      "total_episodios": 13,
      "link_video": "https://animefire.plus/video/chocolate-underground"
    },
    {
      "id": 620,
      "nome": "Chocotto Sister",
      "link": "https://animefire.plus/animes/chocotto-sister-todos-os-episodios",
      "texto_original": "Chocotto Sister",
      "rating": 6.78,
      "classificacao_etaria": "A18",
      "imagem_original": "https://animefire.plus/img/animes/chocotto-sister.webp",
      "imagem_pasta": "https://animefire.plus/img/animes/chocotto-sister/",
      "secao": "legendados",
      "pagina": 42,
      "total_episodios": 24,
      "link_video": "https://animefire.plus/video/chocotto-sister"
    },
    {
      "id": 621,
      "nome": "Chotto dake Ai ga Omoi Dark Elf ga Isekai kara Oikaketekita",
      "link": "https://animefire.plus/animes/chotto-dake-ai-ga-omoi-dark-elf-ga-isekai-kara-oikaketekita-todos-os-episodios",
      "texto_original": "Chotto dake Ai ga Omoi Dark Elf ga Isekai kara Oikaketekita",
      "rating": 5.52,
      "classificacao_etaria": "A18",
      "imagem_original": "https://animefire.plus/img/animes/chotto-dake-ai-ga-omoi-dark-elf-ga-isekai-kara-oikaketekita.webp",
      "imagem_pasta": "https://animefire.plus/img/animes/chotto-dake-ai-ga-omoi-dark-elf-ga-isekai-kara-oikaketekita/",
      "secao": "legendados",
      "pagina": 3,
      "total_episodios": 12,
      "link_video": "https://animefire.plus/video/chotto-dake-ai-ga-omoi-dark-elf-ga-isekai-kara-oikaketekita"
    },
    {
      "id": 623,
      "nome": "Chou Kousoku Gran Doll",
      "link": "https://animefire.plus/animes/chou-kousoku-gran-doll-todos-os-episodios",
      "texto_original": "Chou Kousoku Gran Doll",
      "rating": 5.56,
      "classificacao_etaria": "A18",
      "imagem_original": "https://animefire.plus/img/animes/chou-kousoku-gran-doll.webp",
      "imagem_pasta": "https://animefire.plus/img/animes/chou-kousoku-gran-doll/",
      "secao": "legendados",
      "pagina": 72,
      "total_episodios": 3,
      "link_video": "https://animefire.plus/video/chou-kousoku-gran-doll"
    },
    {
      "id": 624,
      "nome": "Chou Yuu Sekai: Being the Reality",
      "link": "https://animefire.plus/animes/chou-yuu-sekai-being-the-reality-todos-os-episodios",
      "texto_original": "Chou Yuu Sekai: Being the Reality",
      "rating": 6.39,
      "classificacao_etaria": "A14",
      "imagem_original": "https://animefire.plus/img/animes/chou-yuu-sekai-being-the-reality.webp",
      "imagem_pasta": "https://animefire.plus/img/animes/chou-yuu-sekai-being-the-reality/",
      "secao": "legendados",
      "pagina": 176,
      "total_episodios": 13,
      "link_video": "https://animefire.plus/video/chou-yuu-sekai-being-the-reality"
    },
    {
      "id": 628,
      "nome": "Choujikuu Kidan Southern Cross",
      "link": "https://animefire.plus/animes/choujikuu-kidan-southern-cross-todos-os-episodios",
      "texto_original": "Choujikuu Kidan Southern Cross",
      "rating": 6.67,
      "classificacao_etaria": "A18",
      "imagem_original": "https://animefire.plus/img/animes/choujikuu-kidan-southern-cross.webp",
      "imagem_pasta": "https://animefire.plus/img/animes/choujikuu-kidan-southern-cross/",
      "secao": "legendados",
      "pagina": 100,
      "total_episodios": 24,
      "link_video": "https://animefire.plus/video/choujikuu-kidan-southern-cross"
    }
  ],
  "pagination": {
    "current_page": 15,
    "per_page": 20,
    "total_items": 1805,
    "total_pages": 91,
    "has_next": true,
    "has_prev": true
  }
}
