{
  "message": "Animes com rating entre 5 e 7",
  "rating_range": {
    "min": 5,
    "max": 7
  },
  "data": [
    {
      "id": 1693,
      "nome": "Itsudatte My Santa!",
      "link": "https://animefire.plus/animes/itsudatte-my-santa-todos-os-episodios",
      "texto_original": "Itsudatte My Santa!",
      "rating": 6.02,
      "classificacao_etaria": "A18",
      "imagem_original": "https://animefire.plus/img/animes/itsudatte-my-santa.webp",
      "imagem_pasta": "https://animefire.plus/img/animes/itsudatte-my-santa/",
      "secao": "legendados",
      "pagina": 69,
      "total_episodios": 2,
      "link_video": "https://animefire.plus/video/itsudatte-my-santa"
    },
    {
      "id": 1694,
      "nome": "Itsuka Aeru Kimi ni",
      "link": "https://animefire.plus/animes/itsuka-aeru-kimi-ni-todos-os-episodios",
      "texto_original": "Itsuka Aeru Kimi ni",
      "rating": 5.75,
      "classificacao_etaria": null,
      "imagem_original": "https://animefire.plus/img/animes/itsuka-aeru-kimi-ni.webp",
      "imagem_pasta": "https://animefire.plus/img/animes/itsuka-aeru-kimi-ni/",
      "secao": "legendados",
      "pagina": 86,
      "total_episodios": 1,
      "link_video": "https://animefire.plus/video/itsuka-aeru-kimi-ni"
    },
    {
      "id": 1695,
      "nome": "Itsuka Tenma No Kuro Usagi",
      "link": "https://animefire.plus/animes/itsuka-tenma-no-kuro-usagi-todos-os-episodios",
      "texto_original": "Itsuka Tenma No Kuro Usagi",
      "rating": 6.71,
      "classificacao_etaria": "A18",
      "imagem_original": "https://animefire.plus/img/animes/itsuka-tenma-no-kuro-usagi.webp",
      "imagem_pasta": "https://animefire.plus/img/animes/itsuka-tenma-no-kuro-usagi/",
      "secao": "legendados",
      "pagina": 106,
      "total_episodios": 12,
      "link_video": "https://animefire.plus/video/itsuka-tenma-no-kuro-usagi"
    },
    {
      "id": 1696,
      "nome": "Itsuka Tenma no Kuro Usagi Picture Drama",
      "link": "https://animefire.plus/animes/itsuka-tenma-no-kuro-usagi-picture-drama-todos-os-episodios",
      "texto_original": "Itsuka Tenma no Kuro Usagi Picture Drama",
      "rating": 6.19,
      "classificacao_etaria": "A18",
      "imagem_original": "https://animefire.plus/img/animes/itsuka-tenma-no-kuro-usagi-picture-drama.webp",
      "imagem_pasta": "https://animefire.plus/img/animes/itsuka-tenma-no-kuro-usagi-picture-drama/",
      "secao": "legendados",
      "pagina": 70,
      "total_episodios": 6,
      "link_video": "https://animefire.plus/video/itsuka-tenma-no-kuro-usagi-picture-drama"
    },
    {
      "id": 1699,
      "nome": "Iya na Kao sare nagara Opantsu Misete Moraitai",
      "link": "https://animefire.plus/animes/iya-na-kao-sare-nagara-opantsu-misete-moraitai-todos-os-episodios",
      "texto_original": "Iya na Kao sare nagara Opantsu Misete Moraitai",
      "rating": 5.79,
      "classificacao_etaria": "A14",
      "imagem_original": "https://animefire.plus/img/animes/iya-na-kao-sare-nagara-opantsu-misete-moraitai.webp",
      "imagem_pasta": "https://animefire.plus/img/animes/iya-na-kao-sare-nagara-opantsu-misete-moraitai/",
      "secao": "legendados",
      "pagina": 167,
      "total_episodios": 6,
      "link_video": "https://animefire.plus/video/iya-na-kao-sare-nagara-opantsu-misete-moraitai"
    },
    {
      "id": 1700,
      "nome": "Iya na Kao sare nagara Opantsu Misete Moraitai 2",
      "link": "https://animefire.plus/animes/iya-na-kao-sare-nagara-opantsu-misete-moraitai-2-todos-os-episodios",
      "texto_original": "Iya na Kao sare nagara Opantsu Misete Moraitai 2",
      "rating": 6.01,
      "classificacao_etaria": "A14",
      "imagem_original": "https://animefire.plus/img/animes/iya-na-kao-sare-nagara-opantsu-misete-moraitai-2.webp",
      "imagem_pasta": "https://animefire.plus/img/animes/iya-na-kao-sare-nagara-opantsu-misete-moraitai-2/",
      "secao": "legendados",
      "pagina": 89,
      "total_episodios": 6,
      "link_video": "https://animefire.plus/video/iya-na-kao-sare-nagara-opantsu-misete-moraitai-2"
    },
    {
      "id": 1701,
      "nome": "Izumo: Takeki Tsurugi no Senki",
      "link": "https://animefire.plus/animes/izumo-takeki-tsurugi-no-senki-todos-os-episodios",
      "texto_original": "Izumo: Takeki Tsurugi no Senki",
      "rating": 6.3,
      "classificacao_etaria": "A14",
      "imagem_original": "https://animefire.plus/img/animes/izumo-takeki-tsurugi-no-senki.webp",
      "imagem_pasta": "https://animefire.plus/img/animes/izumo-takeki-tsurugi-no-senki/",
      "secao": "legendados",
      "pagina": 160,
      "total_episodios": 12,
      "link_video": "https://animefire.plus/video/izumo-takeki-tsurugi-no-senki"
    },
    {
      "id": 1702,
      "nome": "Izure Saikyou no Renkinjutsushi? (Dublado)",
      "link": "https://animefire.plus/animes/izure-saikyou-no-renkinjutsushi-dublado-todos-os-episodios",
      "texto_original": "Izure Saikyou no Renkinjutsushi? (Dublado)",
      "rating": 6.61,
      "classificacao_etaria": "A14",
      "imagem_original": "https://animefire.plus/img/animes/izure-saikyou-no-renkinjutsushi.webp",
      "imagem_pasta": "https://animefire.plus/img/animes/izure-saikyou-no-renkinjutsushi/",
      "secao": "dublados,legendados,lancamentos",
      "pagina": 1,
      "total_episodios": 12,
      "link_video": "https://animefire.plus/video/izure-saikyou-no-renkinjutsushi-dublado"
    },
    {
      "id": 1706,
      "nome": "Jantama Pong☆",
      "link": "https://animefire.plus/animes/jantama-pong-todos-os-episodios",
      "texto_original": "Jantama Pong☆",
      "rating": 6.08,
      "classificacao_etaria": "A14",
      "imagem_original": "https://animefire.plus/img/animes/jantama-pong.webp",
      "imagem_pasta": "https://animefire.plus/img/animes/jantama-pong/",
      "secao": "legendados,lancamentos",
      "pagina": 33,
      "total_episodios": 0,
      "link_video": "https://animefire.plus/video/jantama-pong"
    },
    {
      "id": 1707,
      "nome": "Jashin-chan Dropkick",
      "link": "https://animefire.plus/animes/jashin-chan-dropkick-todos-os-episodios",
      "texto_original": "Jashin-chan Dropkick",
      "rating": 6.91,
      "classificacao_etaria": "A14",
      "imagem_original": "https://animefire.plus/img/animes/jashin-chan-dropkick.webp",
      "imagem_pasta": "https://animefire.plus/img/animes/jashin-chan-dropkick/",
      "secao": "legendados",
      "pagina": 126,
      "total_episodios": 12,
      "link_video": "https://animefire.plus/video/jashin-chan-dropkick"
    },
    {
      "id": 1711,
      "nome": "Ji Yao Lu: Qicheng Pian",
      "link": "https://animefire.plus/animes/ji-yao-lu-qicheng-pian-todos-os-episodios",
      "texto_original": "Ji Yao Lu: Qicheng Pian",
      "rating": 6.41,
      "classificacao_etaria": "A14",
      "imagem_original": "https://animefire.plus/img/animes/ji-yao-lu-qicheng-pian.webp",
      "imagem_pasta": "https://animefire.plus/img/animes/ji-yao-lu-qicheng-pian/",
      "secao": "legendados",
      "pagina": 8,
      "total_episodios": 12,
      "link_video": "https://animefire.plus/video/ji-yao-lu-qicheng-pian"
    },
    {
      "id": 1712,
      "nome": "Jian Wangchao",
      "link": "https://animefire.plus/animes/jian-wangchao-todos-os-episodios",
      "texto_original": "Jian Wangchao",
      "rating": 6.01,
      "classificacao_etaria": "A14",
      "imagem_original": "https://animefire.plus/img/animes/jian-wangchao.webp",
      "imagem_pasta": "https://animefire.plus/img/animes/jian-wangchao/",
      "secao": "legendados",
      "pagina": 61,
      "total_episodios": 7,
      "link_video": "https://animefire.plus/video/jian-wangchao"
    },
    {
      "id": 1717,
      "nome": "Jidou Hanbaiki ni Umarekawatta Ore wa Meikyuu wo Samayou (Dublado)",
      "link": "https://animefire.plus/animes/jidou-hanbaiki-ni-umarekawatta-ore-wa-meikyuu-wo-samayou-dublado-todos-os-episodios",
      "texto_original": "Jidou Hanbaiki ni Umarekawatta Ore wa Meikyuu wo Samayou (Dublado)",
      "rating": 6.45,
      "classificacao_etaria": "A14",
      "imagem_original": "https://animefire.plus/img/animes/jidou-hanbaiki-ni-umarekawatta-ore-wa-meikyuu-wo-samayou.webp",
      "imagem_pasta": "https://animefire.plus/img/animes/jidou-hanbaiki-ni-umarekawatta-ore-wa-meikyuu-wo-samayou/",
      "secao": "dublados,legendados",
      "pagina": 6,
      "total_episodios": 12,
      "link_video": "https://animefire.plus/video/jidou-hanbaiki-ni-umarekawatta-ore-wa-meikyuu-wo-samayou-dublado"
    },
    {
      "id": 1718,
      "nome": "Jidou Hanbaiki ni Umarekawatta Ore wa Meikyuu wo Samayou 2nd Season",
      "link": "https://animefire.plus/animes/jidou-hanbaiki-ni-umarekawatta-ore-wa-meikyuu-wo-samayou-2nd-season-todos-os-episodios",
      "texto_original": "Jidou Hanbaiki ni Umarekawatta Ore wa Meikyuu wo Samayou 2nd Season",
      "rating": 6.61,
      "classificacao_etaria": "A14",
      "imagem_original": "https://animefire.plus/img/animes/jidou-hanbaiki-ni-umarekawatta-ore-wa-meikyuu-wo-samayou-2nd-season.webp",
      "imagem_pasta": "https://animefire.plus/img/animes/jidou-hanbaiki-ni-umarekawatta-ore-wa-meikyuu-wo-samayou-2nd-season/",
      "secao": "legendados,lancamentos",
      "pagina": 1,
      "total_episodios": 5,
      "link_video": "https://animefire.plus/video/jidou-hanbaiki-ni-umarekawatta-ore-wa-meikyuu-wo-samayou-2nd-season"
    },
    {
      "id": 1719,
      "nome": "Jie Mo Ren",
      "link": "https://animefire.plus/animes/jie-mo-ren-todos-os-episodios",
      "texto_original": "Jie Mo Ren",
      "rating": 6.34,
      "classificacao_etaria": "A14",
      "imagem_original": "https://animefire.plus/img/animes/jie-mo-ren.webp",
      "imagem_pasta": "https://animefire.plus/img/animes/jie-mo-ren/",
      "secao": "legendados",
      "pagina": 147,
      "total_episodios": 14,
      "link_video": "https://animefire.plus/video/jie-mo-ren"
    },
    {
      "id": 1722,
      "nome": "Jigoku Sensei Nube (2025)",
      "link": "https://animefire.plus/animes/jigoku-sensei-nube-2025-todos-os-episodios",
      "texto_original": "Jigoku Sensei Nube (2025)",
      "rating": 6.69,
      "classificacao_etaria": "A14",
      "imagem_original": "https://animefire.plus/img/animes/jigoku-sensei-nube-2025.webp",
      "imagem_pasta": "https://animefire.plus/img/animes/jigoku-sensei-nube-2025/",
      "secao": "legendados,lancamentos",
      "pagina": 2,
      "total_episodios": 2,
      "link_video": "https://animefire.plus/video/jigoku-sensei-nube-2025"
    },
    {
      "id": 1726,
      "nome": "Jigoku Shoujo: Yoi no Togi",
      "link": "https://animefire.plus/animes/jigoku-shoujo-yoi-no-togi-todos-os-episodios",
      "texto_original": "Jigoku Shoujo: Yoi no Togi",
      "rating": 6.61,
      "classificacao_etaria": "A16",
      "imagem_original": "https://animefire.plus/img/animes/jigoku-shoujo-yoi-no-togi.webp",
      "imagem_pasta": "https://animefire.plus/img/animes/jigoku-shoujo-yoi-no-togi/",
      "secao": "legendados",
      "pagina": 126,
      "total_episodios": 12,
      "link_video": "https://animefire.plus/video/jigoku-shoujo-yoi-no-togi"
    },
    {
      "id": 1730,
      "nome": "Jikan no Shihaisha",
      "link": "https://animefire.plus/animes/jikan-no-shihaisha-todos-os-episodios",
      "texto_original": "Jikan no Shihaisha",
      "rating": 6.41,
      "classificacao_etaria": "A14",
      "imagem_original": "https://animefire.plus/img/animes/jikan-no-shihaisha.webp",
      "imagem_pasta": "https://animefire.plus/img/animes/jikan-no-shihaisha/",
      "secao": "legendados",
      "pagina": 152,
      "total_episodios": 13,
      "link_video": "https://animefire.plus/video/jikan-no-shihaisha"
    },
    {
      "id": 1731,
      "nome": "Jimihen!!: Jimiko wo Kaechau Jun Isei Kouyuu!!",
      "link": "https://animefire.plus/animes/jimihen-jimiko-wo-kaechau-jun-isei-kouyuu-todos-os-episodios",
      "texto_original": "Jimihen!!: Jimiko wo Kaechau Jun Isei Kouyuu!!",
      "rating": 6.38,
      "classificacao_etaria": "A18",
      "imagem_original": "https://animefire.plus/img/animes/jimihen-jimiko-wo-kaechau-jun-isei-kouyuu.webp",
      "imagem_pasta": "https://animefire.plus/img/animes/jimihen-jimiko-wo-kaechau-jun-isei-kouyuu/",
      "secao": "legendados,lancamentos",
      "pagina": 50,
      "total_episodios": 0,
      "link_video": "https://animefire.plus/video/jimihen-jimiko-wo-kaechau-jun-isei-kouyuu"
    },
    {
      "id": 1733,
      "nome": "Jingai-san no Yome",
      "link": "https://animefire.plus/animes/jingai-san-no-yome-todos-os-episodios",
      "texto_original": "Jingai-san no Yome",
      "rating": 5.64,
      "classificacao_etaria": "A14",
      "imagem_original": "https://animefire.plus/img/animes/jingai-san-no-yome.webp",
      "imagem_pasta": "https://animefire.plus/img/animes/jingai-san-no-yome/",
      "secao": "legendados",
      "pagina": 123,
      "total_episodios": 12,
      "link_video": "https://animefire.plus/video/jingai-san-no-yome"
    }
  ],
  "pagination": {
    "current_page": 38,
    "per_page": 20,
    "total_items": 1805,
    "total_pages": 91,
    "has_next": true,
    "has_prev": true
  }
}
