{
  "message": "Animes com rating entre 5 e 7",
  "rating_range": {
    "min": 5,
    "max": 7
  },
  "data": [
    {
      "id": 2882,
      "nome": "Ore ga Ojousama Gakkou ni \"Shomin Sample\" Toshite Gets♥Sareta Ken",
      "link": "https://animefire.plus/animes/ore-ga-ojousama-gakkou-ni-shomin-sample-toshite-gets-sareta-ken-todos-os-episodios",
      "texto_original": "Ore ga Ojousama Gakkou ni \"Shomin Sample\" Toshite Gets♥Sareta Ken",
      "rating": 6.99,
      "classificacao_etaria": "A14",
      "imagem_original": "https://animefire.plus/img/animes/ore-ga-ojousama-gakkou-ni-shomin-sample-toshite-gets-sareta-ken.webp",
      "imagem_pasta": "https://animefire.plus/img/animes/ore-ga-ojousama-gakkou-ni-shomin-sample-toshite-gets-sareta-ken/",
      "secao": "legendados",
      "pagina": 135,
      "total_episodios": 12,
      "link_video": "https://animefire.plus/video/ore-ga-ojousama-gakkou-ni-shomin-sample-toshite-gets-sareta-ken"
    },
    {
      "id": 2883,
      "nome": "Ore ga Suki nano wa Imouto dakedo Imouto ja Nai",
      "link": "https://animefire.plus/animes/ore-ga-suki-nano-wa-imouto-dakedo-imouto-ja-nai-todos-os-episodios",
      "texto_original": "Ore ga Suki nano wa Imouto dakedo Imouto ja Nai",
      "rating": 5.11,
      "classificacao_etaria": "A18",
      "imagem_original": "https://animefire.plus/img/animes/ore-ga-suki-nano-wa-imouto-dakedo-imouto-ja-nai.webp",
      "imagem_pasta": "https://animefire.plus/img/animes/ore-ga-suki-nano-wa-imouto-dakedo-imouto-ja-nai/",
      "secao": "legendados",
      "pagina": 97,
      "total_episodios": 10,
      "link_video": "https://animefire.plus/video/ore-ga-suki-nano-wa-imouto-dakedo-imouto-ja-nai"
    },
    {
      "id": 2891,
      "nome": "Ore wa Subete wo \"Parry\" suru: Gyaku Kanchigai no Sekai Saikyou wa Boukensha ni Naritai",
      "link": "https://animefire.plus/animes/ore-wa-subete-wo-parry-suru-gyaku-kanchigai-no-sekai-saikyou-wa-boukensha-ni-naritai-todos-os-episodios",
      "texto_original": "Ore wa Subete wo \"Parry\" suru: Gyaku Kanchigai no Sekai Saikyou wa Boukensha ni Naritai",
      "rating": 6.89,
      "classificacao_etaria": "A14",
      "imagem_original": "https://animefire.plus/img/animes/ore-wa-subete-wo-parry-suru-gyaku-kanchigai-no-sekai-saikyou-wa-boukensha-ni-naritai.webp",
      "imagem_pasta": "https://animefire.plus/img/animes/ore-wa-subete-wo-parry-suru-gyaku-kanchigai-no-sekai-saikyou-wa-boukensha-ni-naritai/",
      "secao": "legendados",
      "pagina": 13,
      "total_episodios": 12,
      "link_video": "https://animefire.plus/video/ore-wa-subete-wo-parry-suru-gyaku-kanchigai-no-sekai-saikyou-wa-boukensha-ni-naritai"
    },
    {
      "id": 2894,
      "nome": "Ore, Twintail ni Narimasu.",
      "link": "https://animefire.plus/animes/ore-twintail-ni-narimasu-todos-os-episodios",
      "texto_original": "Ore, Twintail ni Narimasu.",
      "rating": 6.66,
      "classificacao_etaria": "A14",
      "imagem_original": "https://animefire.plus/img/animes/ore-twintail-ni-narimasu.webp",
      "imagem_pasta": "https://animefire.plus/img/animes/ore-twintail-ni-narimasu/",
      "secao": "legendados",
      "pagina": 147,
      "total_episodios": 0,
      "link_video": "https://animefire.plus/video/ore-twintail-ni-narimasu"
    },
    {
      "id": 2896,
      "nome": "Oretachi ni Tsubasa wa Nai: Under the Innocent Sky.",
      "link": "https://animefire.plus/animes/oretachi-ni-tsubasa-wa-nai-under-the-innocent-sky-todos-os-episodios",
      "texto_original": "Oretachi ni Tsubasa wa Nai: Under the Innocent Sky.",
      "rating": 6.78,
      "classificacao_etaria": "A18",
      "imagem_original": "https://animefire.plus/img/animes/oretachi-ni-tsubasa-wa-nai-under-the-innocent-sky.webp",
      "imagem_pasta": "https://animefire.plus/img/animes/oretachi-ni-tsubasa-wa-nai-under-the-innocent-sky/",
      "secao": "legendados",
      "pagina": 130,
      "total_episodios": 0,
      "link_video": "https://animefire.plus/video/oretachi-ni-tsubasa-wa-nai-under-the-innocent-sky"
    },
    {
      "id": 2897,
      "nome": "Orient (Dublado)",
      "link": "https://animefire.plus/animes/orient-dublado-todos-os-episodios",
      "texto_original": "Orient (Dublado)",
      "rating": 6.61,
      "classificacao_etaria": "A14",
      "imagem_original": "https://animefire.plus/img/animes/orient.webp",
      "imagem_pasta": "https://animefire.plus/img/animes/orient/",
      "secao": "dublados,legendados",
      "pagina": 12,
      "total_episodios": 12,
      "link_video": "https://animefire.plus/video/orient-dublado"
    },
    {
      "id": 2899,
      "nome": "Oroka na Tenshi wa Akuma to Odoru",
      "link": "https://animefire.plus/animes/oroka-na-tenshi-wa-akuma-to-odoru-todos-os-episodios",
      "texto_original": "Oroka na Tenshi wa Akuma to Odoru",
      "rating": 6.91,
      "classificacao_etaria": "A14",
      "imagem_original": "https://animefire.plus/img/animes/oroka-na-tenshi-wa-akuma-to-odoru.webp",
      "imagem_pasta": "https://animefire.plus/img/animes/oroka-na-tenshi-wa-akuma-to-odoru/",
      "secao": "legendados",
      "pagina": 18,
      "total_episodios": 12,
      "link_video": "https://animefire.plus/video/oroka-na-tenshi-wa-akuma-to-odoru"
    },
    {
      "id": 2901,
      "nome": "Osake wa Fuufu ni Natte kara",
      "link": "https://animefire.plus/animes/osake-wa-fuufu-ni-natte-kara-todos-os-episodios",
      "texto_original": "Osake wa Fuufu ni Natte kara",
      "rating": 6.98,
      "classificacao_etaria": "A14",
      "imagem_original": "https://animefire.plus/img/animes/osake-wa-fuufu-ni-natte-kara.webp",
      "imagem_pasta": "https://animefire.plus/img/animes/osake-wa-fuufu-ni-natte-kara/",
      "secao": "legendados",
      "pagina": 165,
      "total_episodios": 13,
      "link_video": "https://animefire.plus/video/osake-wa-fuufu-ni-natte-kara"
    },
    {
      "id": 2903,
      "nome": "Osananajimi ga Zettai ni Makenai Love Comedy",
      "link": "https://animefire.plus/animes/osananajimi-ga-zettai-ni-makenai-love-comedy-todos-os-episodios",
      "texto_original": "Osananajimi ga Zettai ni Makenai Love Comedy",
      "rating": 6.07,
      "classificacao_etaria": "A14",
      "imagem_original": "https://animefire.plus/img/animes/osananajimi-ga-zettai-ni-makenai-love-comedy.webp",
      "imagem_pasta": "https://animefire.plus/img/animes/osananajimi-ga-zettai-ni-makenai-love-comedy/",
      "secao": "legendados",
      "pagina": 47,
      "total_episodios": 12,
      "link_video": "https://animefire.plus/video/osananajimi-ga-zettai-ni-makenai-love-comedy"
    },
    {
      "id": 2910,
      "nome": "Osomatsu-san 4th Season",
      "link": "https://animefire.plus/animes/osomatsu-san-4th-season-todos-os-episodios",
      "texto_original": "Osomatsu-san 4th Season",
      "rating": 6.67,
      "classificacao_etaria": "A16",
      "imagem_original": "https://animefire.plus/img/animes/osomatsu-san-4th-season.webp",
      "imagem_pasta": "https://animefire.plus/img/animes/osomatsu-san-4th-season/",
      "secao": "legendados,lancamentos",
      "pagina": 1,
      "total_episodios": 4,
      "link_video": "https://animefire.plus/video/osomatsu-san-4th-season"
    },
    {
      "id": 2915,
      "nome": "Otome Game no Hametsu Flag shika Nai Akuyaku Reijou ni Tensei shiteshimatta... OVA",
      "link": "https://animefire.plus/animes/otome-game-no-hametsu-flag-shika-nai-akuyaku-reijou-ni-tensei-shiteshimatta-ova-todos-os-episodios",
      "texto_original": "Otome Game no Hametsu Flag shika Nai Akuyaku Reijou ni Tensei shiteshimatta... OVA",
      "rating": 6.87,
      "classificacao_etaria": "A14",
      "imagem_original": "https://animefire.plus/img/animes/otome-game-no-hametsu-flag-shika-nai-akuyaku-reijou-ni-tensei-shiteshimatta-ova.webp",
      "imagem_pasta": "https://animefire.plus/img/animes/otome-game-no-hametsu-flag-shika-nai-akuyaku-reijou-ni-tensei-shiteshimatta-ova/",
      "secao": "legendados",
      "pagina": 36,
      "total_episodios": 1,
      "link_video": "https://animefire.plus/video/otome-game-no-hametsu-flag-shika-nai-akuyaku-reijou-ni-tensei-shiteshimatta-ova"
    },
    {
      "id": 2919,
      "nome": "Otome wa Boku ni Koishiteru: Trinkle Stars The Animation",
      "link": "https://animefire.plus/animes/otome-wa-boku-ni-koishiteru-trinkle-stars-the-animation-todos-os-episodios",
      "texto_original": "Otome wa Boku ni Koishiteru: Trinkle Stars The Animation",
      "rating": 5.58,
      "classificacao_etaria": "A14",
      "imagem_original": "https://animefire.plus/img/animes/otome-wa-boku-ni-koishiteru-trinkle-stars-the-animation.webp",
      "imagem_pasta": "https://animefire.plus/img/animes/otome-wa-boku-ni-koishiteru-trinkle-stars-the-animation/",
      "secao": "legendados,lancamentos",
      "pagina": 38,
      "total_episodios": 0,
      "link_video": "https://animefire.plus/video/otome-wa-boku-ni-koishiteru-trinkle-stars-the-animation"
    },
    {
      "id": 2921,
      "nome": "Otona no Bouguya-san",
      "link": "https://animefire.plus/animes/otona-no-bouguya-san-todos-os-episodios",
      "texto_original": "Otona no Bouguya-san",
      "rating": 5.71,
      "classificacao_etaria": "A14",
      "imagem_original": "https://animefire.plus/img/animes/otona-no-bouguya-san.webp",
      "imagem_pasta": "https://animefire.plus/img/animes/otona-no-bouguya-san/",
      "secao": "legendados",
      "pagina": 105,
      "total_episodios": 12,
      "link_video": "https://animefire.plus/video/otona-no-bouguya-san"
    },
    {
      "id": 2922,
      "nome": "Otona no Bouguya-san 2nd Season",
      "link": "https://animefire.plus/animes/otona-no-bouguya-san-2-todos-os-episodios",
      "texto_original": "Otona no Bouguya-san 2nd Season",
      "rating": 5.49,
      "classificacao_etaria": "A14",
      "imagem_original": "https://animefire.plus/img/animes/otona-no-bouguya-san-2.webp",
      "imagem_pasta": "https://animefire.plus/img/animes/otona-no-bouguya-san-2/",
      "secao": "legendados",
      "pagina": 48,
      "total_episodios": 12,
      "link_video": "https://animefire.plus/video/otona-no-bouguya-san-2"
    },
    {
      "id": 2927,
      "nome": "Ouritsu Uchuugun: Honneamise no Tsubasa Pilot",
      "link": "https://animefire.plus/animes/ouritsu-uchuugun-honneamise-no-tsubasa-pilot-todos-os-episodios",
      "texto_original": "Ouritsu Uchuugun: Honneamise no Tsubasa Pilot",
      "rating": 6.05,
      "classificacao_etaria": "A14",
      "imagem_original": "https://animefire.plus/img/animes/ouritsu-uchuugun-honneamise-no-tsubasa-pilot.webp",
      "imagem_pasta": "https://animefire.plus/img/animes/ouritsu-uchuugun-honneamise-no-tsubasa-pilot/",
      "secao": "legendados",
      "pagina": 85,
      "total_episodios": 1,
      "link_video": "https://animefire.plus/video/ouritsu-uchuugun-honneamise-no-tsubasa-pilot"
    },
    {
      "id": 2928,
      "nome": "Ousama Game The Animation",
      "link": "https://animefire.plus/animes/ousama-game-the-animation-todos-os-episodios",
      "texto_original": "Ousama Game The Animation",
      "rating": 5.15,
      "classificacao_etaria": "A16",
      "imagem_original": "https://animefire.plus/img/animes/ousama-game-the-animation.webp",
      "imagem_pasta": "https://animefire.plus/img/animes/ousama-game-the-animation/",
      "secao": "legendados",
      "pagina": 95,
      "total_episodios": 12,
      "link_video": "https://animefire.plus/video/ousama-game-the-animation"
    },
    {
      "id": 2944,
      "nome": "Ozma",
      "link": "https://animefire.plus/animes/ozma-todos-os-episodios",
      "texto_original": "Ozma",
      "rating": 6.13,
      "classificacao_etaria": "A14",
      "imagem_original": "https://animefire.plus/img/animes/ozma.webp",
      "imagem_pasta": "https://animefire.plus/img/animes/ozma/",
      "secao": "legendados",
      "pagina": 139,
      "total_episodios": 6,
      "link_video": "https://animefire.plus/video/ozma"
    },
    {
      "id": 2945,
      "nome": "Ozmafia!!",
      "link": "https://animefire.plus/animes/ozmafia-todos-os-episodios",
      "texto_original": "Ozmafia!!",
      "rating": 5.5,
      "classificacao_etaria": "A14",
      "imagem_original": "https://animefire.plus/img/animes/ozmafia.webp",
      "imagem_pasta": "https://animefire.plus/img/animes/ozmafia/",
      "secao": "legendados",
      "pagina": 144,
      "total_episodios": 0,
      "link_video": "https://animefire.plus/video/ozmafia"
    },
    {
      "id": 2946,
      "nome": "Pan de Peace!",
      "link": "https://animefire.plus/animes/pan-de-peace-todos-os-episodios",
      "texto_original": "Pan de Peace!",
      "rating": 5.61,
      "classificacao_etaria": "A14",
      "imagem_original": "https://animefire.plus/img/animes/pan-de-peace.webp",
      "imagem_pasta": "https://animefire.plus/img/animes/pan-de-peace/",
      "secao": "legendados",
      "pagina": 61,
      "total_episodios": 13,
      "link_video": "https://animefire.plus/video/pan-de-peace"
    },
    {
      "id": 2948,
      "nome": "Pandora to Akubi",
      "link": "https://animefire.plus/animes/pandora-to-akubi-todos-os-episodios",
      "texto_original": "Pandora to Akubi",
      "rating": 6.13,
      "classificacao_etaria": null,
      "imagem_original": "https://animefire.plus/img/animes/pandora-to-akubi.webp",
      "imagem_pasta": "https://animefire.plus/img/animes/pandora-to-akubi/",
      "secao": "legendados",
      "pagina": 89,
      "total_episodios": 2,
      "link_video": "https://animefire.plus/video/pandora-to-akubi"
    }
  ],
  "pagination": {
    "current_page": 62,
    "per_page": 20,
    "total_items": 1805,
    "total_pages": 91,
    "has_next": true,
    "has_prev": true
  }
}
