{
  "message": "Animes com rating entre 5 e 7",
  "rating_range": {
    "min": 5,
    "max": 7
  },
  "data": [
    {
      "id": 887,
      "nome": "Dragon's Dogma",
      "link": "https://animefire.plus/animes/dragon-s-dogma-todos-os-episodios",
      "texto_original": "Dragon's Dogma",
      "rating": 5.86,
      "classificacao_etaria": "A18",
      "imagem_original": "https://animefire.plus/img/animes/dragon-s-dogma.webp",
      "imagem_pasta": "https://animefire.plus/img/animes/dragon-s-dogma/",
      "secao": "legendados",
      "pagina": 42,
      "total_episodios": 7,
      "link_video": "https://animefire.plus/video/dragon-s-dogma"
    },
    {
      "id": 888,
      "nome": "Dragonaut: The Resonance",
      "link": "https://animefire.plus/animes/dragonaut-the-resonance-todos-os-episodios",
      "texto_original": "Dragonaut: The Resonance",
      "rating": 6.73,
      "classificacao_etaria": "A14",
      "imagem_original": "https://animefire.plus/img/animes/dragonaut-the-resonance.webp",
      "imagem_pasta": "https://animefire.plus/img/animes/dragonaut-the-resonance/",
      "secao": "legendados",
      "pagina": 145,
      "total_episodios": 25,
      "link_video": "https://animefire.plus/video/dragonaut-the-resonance"
    },
    {
      "id": 889,
      "nome": "DRAMAtical Murder",
      "link": "https://animefire.plus/animes/dramatical-murder-todos-os-episodios",
      "texto_original": "DRAMAtical Murder",
      "rating": 6.18,
      "classificacao_etaria": "A14",
      "imagem_original": "https://animefire.plus/img/animes/dramatical-murder.webp",
      "imagem_pasta": "https://animefire.plus/img/animes/dramatical-murder/",
      "secao": "legendados",
      "pagina": 92,
      "total_episodios": 12,
      "link_video": "https://animefire.plus/video/dramatical-murder"
    },
    {
      "id": 890,
      "nome": "Dream Festival!",
      "link": "https://animefire.plus/animes/dream-festival-todos-os-episodios",
      "texto_original": "Dream Festival!",
      "rating": 6.9,
      "classificacao_etaria": "A14",
      "imagem_original": "https://animefire.plus/img/animes/dream-festival.webp",
      "imagem_pasta": "https://animefire.plus/img/animes/dream-festival/",
      "secao": "legendados",
      "pagina": 144,
      "total_episodios": 12,
      "link_video": "https://animefire.plus/video/dream-festival"
    },
    {
      "id": 891,
      "nome": "Dream Festival! R",
      "link": "https://animefire.plus/animes/dream-festival-r-todos-os-episodios",
      "texto_original": "Dream Festival! R",
      "rating": 6.93,
      "classificacao_etaria": "A14",
      "imagem_original": "https://animefire.plus/img/animes/dream-festival-r.webp",
      "imagem_pasta": "https://animefire.plus/img/animes/dream-festival-r/",
      "secao": "legendados",
      "pagina": 63,
      "total_episodios": 12,
      "link_video": "https://animefire.plus/video/dream-festival-r"
    },
    {
      "id": 896,
      "nome": "Duan Nao",
      "link": "https://animefire.plus/animes/duan-nao-todos-os-episodios",
      "texto_original": "Duan Nao",
      "rating": 6.56,
      "classificacao_etaria": "A16",
      "imagem_original": "https://animefire.plus/img/animes/duan-nao.webp",
      "imagem_pasta": "https://animefire.plus/img/animes/duan-nao/",
      "secao": "legendados",
      "pagina": 163,
      "total_episodios": 14,
      "link_video": "https://animefire.plus/video/duan-nao"
    },
    {
      "id": 902,
      "nome": "Dungeon ni Deai wo Motomeru no wa Machigatteiru Darou ka II: Past & Future",
      "link": "https://animefire.plus/animes/dungeon-ni-deai-wo-motomeru-no-wa-machigatteiru-darou-ka-ii-past-future-todos-os-episodios",
      "texto_original": "Dungeon ni Deai wo Motomeru no wa Machigatteiru Darou ka II: Past & Future",
      "rating": 6.68,
      "classificacao_etaria": "A14",
      "imagem_original": "https://animefire.plus/img/animes/dungeon-ni-deai-wo-motomeru-no-wa-machigatteiru-darou-ka-ii-past-future.webp",
      "imagem_pasta": "https://animefire.plus/img/animes/dungeon-ni-deai-wo-motomeru-no-wa-machigatteiru-darou-ka-ii-past-future/",
      "secao": "legendados",
      "pagina": 87,
      "total_episodios": 0,
      "link_video": "https://animefire.plus/video/dungeon-ni-deai-wo-motomeru-no-wa-machigatteiru-darou-ka-ii-past-future"
    },
    {
      "id": 904,
      "nome": "Dungeon ni Deai wo Motomeru no wa Machigatteiru Darou ka III OVA",
      "link": "https://animefire.plus/animes/dungeon-ni-deai-wo-motomeru-no-wa-machigatteiru-darou-ka-iii-ova-todos-os-episodios",
      "texto_original": "Dungeon ni Deai wo Motomeru no wa Machigatteiru Darou ka III OVA",
      "rating": 6.91,
      "classificacao_etaria": "A14",
      "imagem_original": "https://animefire.plus/img/animes/dungeon-ni-deai-wo-motomeru-no-wa-machigatteiru-darou-ka-iii-ova.webp",
      "imagem_pasta": "https://animefire.plus/img/animes/dungeon-ni-deai-wo-motomeru-no-wa-machigatteiru-darou-ka-iii-ova/",
      "secao": "legendados",
      "pagina": 46,
      "total_episodios": 1,
      "link_video": "https://animefire.plus/video/dungeon-ni-deai-wo-motomeru-no-wa-machigatteiru-darou-ka-iii-ova"
    },
    {
      "id": 914,
      "nome": "Early Reins",
      "link": "https://animefire.plus/animes/early-reins-todos-os-episodios",
      "texto_original": "Early Reins",
      "rating": 5.93,
      "classificacao_etaria": "A16",
      "imagem_original": "https://animefire.plus/img/animes/early-reins.webp",
      "imagem_pasta": "https://animefire.plus/img/animes/early-reins/",
      "secao": "legendados",
      "pagina": 66,
      "total_episodios": 1,
      "link_video": "https://animefire.plus/video/early-reins"
    },
    {
      "id": 915,
      "nome": "Eat-Man",
      "link": "https://animefire.plus/animes/eat-man-todos-os-episodios",
      "texto_original": "Eat-Man",
      "rating": 6.57,
      "classificacao_etaria": "A16",
      "imagem_original": "https://animefire.plus/img/animes/eat-man.webp",
      "imagem_pasta": "https://animefire.plus/img/animes/eat-man/",
      "secao": "legendados",
      "pagina": 105,
      "total_episodios": 12,
      "link_video": "https://animefire.plus/video/eat-man"
    },
    {
      "id": 916,
      "nome": "Eat-Man '98",
      "link": "https://animefire.plus/animes/eat-man-98-todos-os-episodios",
      "texto_original": "Eat-Man '98",
      "rating": 6.84,
      "classificacao_etaria": "A14",
      "imagem_original": "https://animefire.plus/img/animes/eat-man-98.webp",
      "imagem_pasta": "https://animefire.plus/img/animes/eat-man-98/",
      "secao": "legendados",
      "pagina": 97,
      "total_episodios": 12,
      "link_video": "https://animefire.plus/video/eat-man-98"
    },
    {
      "id": 917,
      "nome": "Ebiten: Kouritsu Ebisugawa Koukou Tenmonbu",
      "link": "https://animefire.plus/animes/ebiten-kouritsu-ebisugawa-koukou-tenmonbu-todos-os-episodios",
      "texto_original": "Ebiten: Kouritsu Ebisugawa Koukou Tenmonbu",
      "rating": 6.27,
      "classificacao_etaria": "A18",
      "imagem_original": "https://animefire.plus/img/animes/ebiten-kouritsu-ebisugawa-koukou-tenmonbu.webp",
      "imagem_pasta": "https://animefire.plus/img/animes/ebiten-kouritsu-ebisugawa-koukou-tenmonbu/",
      "secao": "legendados",
      "pagina": 99,
      "total_episodios": 10,
      "link_video": "https://animefire.plus/video/ebiten-kouritsu-ebisugawa-koukou-tenmonbu"
    },
    {
      "id": 918,
      "nome": "Eden (ONA) (Dublado)",
      "link": "https://animefire.plus/animes/eden-ona-dublado-todos-os-episodios",
      "texto_original": "Eden (ONA) (Dublado)",
      "rating": 6.39,
      "classificacao_etaria": "A14",
      "imagem_original": "https://animefire.plus/img/animes/eden-ona.webp",
      "imagem_pasta": "https://animefire.plus/img/animes/eden-ona/",
      "secao": "dublados,legendados",
      "pagina": 17,
      "total_episodios": 3,
      "link_video": "https://animefire.plus/video/eden-ona-dublado"
    },
    {
      "id": 924,
      "nome": "Egao no Daika",
      "link": "https://animefire.plus/animes/egao-no-daika-todos-os-episodios",
      "texto_original": "Egao no Daika",
      "rating": 6.06,
      "classificacao_etaria": "A14",
      "imagem_original": "https://animefire.plus/img/animes/egao-no-daika.webp",
      "imagem_pasta": "https://animefire.plus/img/animes/egao-no-daika/",
      "secao": "legendados",
      "pagina": 98,
      "total_episodios": 12,
      "link_video": "https://animefire.plus/video/egao-no-daika"
    },
    {
      "id": 925,
      "nome": "Eightman After (Dublado)",
      "link": "https://animefire.plus/animes/eightman-after-dublado-todos-os-episodios",
      "texto_original": "Eightman After (Dublado)",
      "rating": 6.3,
      "classificacao_etaria": "A16",
      "imagem_original": "https://animefire.plus/img/animes/eightman-after.webp",
      "imagem_pasta": "https://animefire.plus/img/animes/eightman-after/",
      "secao": "dublados",
      "pagina": 27,
      "total_episodios": 4,
      "link_video": "https://animefire.plus/video/eightman-after-dublado"
    },
    {
      "id": 928,
      "nome": "Eiyuu Kyoushitsu (Dublado)",
      "link": "https://animefire.plus/animes/eiyuu-kyoushitsu-dublado-todos-os-episodios",
      "texto_original": "Eiyuu Kyoushitsu (Dublado)",
      "rating": 6.05,
      "classificacao_etaria": "A14",
      "imagem_original": "https://animefire.plus/img/animes/eiyuu-kyoushitsu.webp",
      "imagem_pasta": "https://animefire.plus/img/animes/eiyuu-kyoushitsu/",
      "secao": "dublados,legendados,lancamentos",
      "pagina": 6,
      "total_episodios": 12,
      "link_video": "https://animefire.plus/video/eiyuu-kyoushitsu-dublado"
    },
    {
      "id": 929,
      "nome": "Eiyuuou, Bu wo Kiwameru Tame Tenseisu: Soshite, Sekai Saikyou no Minarai Kishi♀",
      "link": "https://animefire.plus/animes/eiyuuou-bu-wo-kiwameru-tame-tenseisu-soshite-sekai-saikyou-no-minarai-kishi-todos-os-episodios",
      "texto_original": "Eiyuuou, Bu wo Kiwameru Tame Tenseisu: Soshite, Sekai Saikyou no Minarai Kishi♀",
      "rating": 6.56,
      "classificacao_etaria": "A14",
      "imagem_original": "https://animefire.plus/img/animes/eiyuuou-bu-wo-kiwameru-tame-tenseisu-soshite-sekai-saikyou-no-minarai-kishi.webp",
      "imagem_pasta": "https://animefire.plus/img/animes/eiyuuou-bu-wo-kiwameru-tame-tenseisu-soshite-sekai-saikyou-no-minarai-kishi/",
      "secao": "legendados",
      "pagina": 27,
      "total_episodios": 12,
      "link_video": "https://animefire.plus/video/eiyuuou-bu-wo-kiwameru-tame-tenseisu-soshite-sekai-saikyou-no-minarai-kishi"
    },
    {
      "id": 932,
      "nome": "El Hazard 2: The Magnificent World",
      "link": "https://animefire.plus/animes/el-hazard-2-the-magnificent-world-todos-os-episodios",
      "texto_original": "El Hazard 2: The Magnificent World",
      "rating": 6.86,
      "classificacao_etaria": "A14",
      "imagem_original": "https://animefire.plus/img/animes/el-hazard-2-the-magnificent-world.webp",
      "imagem_pasta": "https://animefire.plus/img/animes/el-hazard-2-the-magnificent-world/",
      "secao": "legendados",
      "pagina": 63,
      "total_episodios": 1,
      "link_video": "https://animefire.plus/video/el-hazard-2-the-magnificent-world"
    },
    {
      "id": 933,
      "nome": "El Hazard: The Alternative World",
      "link": "https://animefire.plus/animes/el-hazard-the-alternative-world-todos-os-episodios",
      "texto_original": "El Hazard: The Alternative World",
      "rating": 6.89,
      "classificacao_etaria": "A14",
      "imagem_original": "https://animefire.plus/img/animes/el-hazard-the-alternative-world.webp",
      "imagem_pasta": "https://animefire.plus/img/animes/el-hazard-the-alternative-world/",
      "secao": "legendados",
      "pagina": 99,
      "total_episodios": 13,
      "link_video": "https://animefire.plus/video/el-hazard-the-alternative-world"
    },
    {
      "id": 936,
      "nome": "ēlDLIVE",
      "link": "https://animefire.plus/animes/eldlive-todos-os-episodios",
      "texto_original": "ēlDLIVE",
      "rating": 6.25,
      "classificacao_etaria": "A14",
      "imagem_original": "https://animefire.plus/img/animes/eldlive.webp",
      "imagem_pasta": "https://animefire.plus/img/animes/eldlive/",
      "secao": "legendados",
      "pagina": 154,
      "total_episodios": 1,
      "link_video": "https://animefire.plus/video/eldlive"
    }
  ],
  "pagination": {
    "current_page": 22,
    "per_page": 20,
    "total_items": 1805,
    "total_pages": 91,
    "has_next": true,
    "has_prev": true
  }
}
