{
  "message": "Animes com rating entre 5 e 7",
  "rating_range": {
    "min": 5,
    "max": 7
  },
  "data": [
    {
      "id": 493,
      "nome": "Brain Powerd",
      "link": "https://animefire.plus/animes/brain-powerd-todos-os-episodios",
      "texto_original": "Brain Powerd",
      "rating": 6.15,
      "classificacao_etaria": "A14",
      "imagem_original": "https://animefire.plus/img/animes/brain-powerd.webp",
      "imagem_pasta": "https://animefire.plus/img/animes/brain-powerd/",
      "secao": "legendados",
      "pagina": 170,
      "total_episodios": 26,
      "link_video": "https://animefire.plus/video/brain-powerd"
    },
    {
      "id": 494,
      "nome": "Brave 10 (Dublado)",
      "link": "https://animefire.plus/animes/brave-10-dublado-todos-os-episodios",
      "texto_original": "Brave 10 (Dublado)",
      "rating": 6.74,
      "classificacao_etaria": "A16",
      "imagem_original": "https://animefire.plus/img/animes/brave-10.webp",
      "imagem_pasta": "https://animefire.plus/img/animes/brave-10/",
      "secao": "dublados,legendados",
      "pagina": 3,
      "total_episodios": 12,
      "link_video": "https://animefire.plus/video/brave-10-dublado"
    },
    {
      "id": 495,
      "nome": "Brave Beats",
      "link": "https://animefire.plus/animes/brave-beats-todos-os-episodios",
      "texto_original": "Brave Beats",
      "rating": 6.57,
      "classificacao_etaria": null,
      "imagem_original": "https://animefire.plus/img/animes/brave-beats.webp",
      "imagem_pasta": "https://animefire.plus/img/animes/brave-beats/",
      "secao": "legendados",
      "pagina": 116,
      "total_episodios": 2,
      "link_video": "https://animefire.plus/video/brave-beats"
    },
    {
      "id": 497,
      "nome": "Brave Witches",
      "link": "https://animefire.plus/animes/brave-witches-todos-os-episodios",
      "texto_original": "Brave Witches",
      "rating": 6.86,
      "classificacao_etaria": "A18",
      "imagem_original": "https://animefire.plus/img/animes/brave-witches.webp",
      "imagem_pasta": "https://animefire.plus/img/animes/brave-witches/",
      "secao": "legendados",
      "pagina": 90,
      "total_episodios": 12,
      "link_video": "https://animefire.plus/video/brave-witches"
    },
    {
      "id": 499,
      "nome": "Breakers",
      "link": "https://animefire.plus/animes/breakers-todos-os-episodios",
      "texto_original": "Breakers",
      "rating": 6.35,
      "classificacao_etaria": "A14",
      "imagem_original": "https://animefire.plus/img/animes/breakers.webp",
      "imagem_pasta": "https://animefire.plus/img/animes/breakers/",
      "secao": "legendados",
      "pagina": 92,
      "total_episodios": 0,
      "link_video": "https://animefire.plus/video/breakers"
    },
    {
      "id": 500,
      "nome": "Bright: Samurai Soul (Dublado)",
      "link": "https://animefire.plus/animes/bright-samurai-soul-dublado-todos-os-episodios",
      "texto_original": "Bright: Samurai Soul (Dublado)",
      "rating": 5.39,
      "classificacao_etaria": "A16",
      "imagem_original": "https://animefire.plus/img/animes/bright-samurai-soul.webp",
      "imagem_pasta": "https://animefire.plus/img/animes/bright-samurai-soul/",
      "secao": "dublados,legendados",
      "pagina": 15,
      "total_episodios": 1,
      "link_video": "https://animefire.plus/video/bright-samurai-soul-dublado"
    },
    {
      "id": 501,
      "nome": "Bronze: Kouji Nanjo Cathexis",
      "link": "https://animefire.plus/animes/bronze-kouji-nanjo-cathexis-todos-os-episodios",
      "texto_original": "Bronze: Kouji Nanjo Cathexis",
      "rating": 6.32,
      "classificacao_etaria": "A14",
      "imagem_original": "https://animefire.plus/img/animes/bronze-kouji-nanjo-cathexis.webp",
      "imagem_pasta": "https://animefire.plus/img/animes/bronze-kouji-nanjo-cathexis/",
      "secao": "legendados",
      "pagina": 86,
      "total_episodios": 1,
      "link_video": "https://animefire.plus/video/bronze-kouji-nanjo-cathexis"
    },
    {
      "id": 502,
      "nome": "Brotherhood: Final Fantasy XV",
      "link": "https://animefire.plus/animes/brotherhood-final-fantasy-xv-todos-os-episodios",
      "texto_original": "Brotherhood: Final Fantasy XV",
      "rating": 6.96,
      "classificacao_etaria": "A14",
      "imagem_original": "https://animefire.plus/img/animes/brotherhood-final-fantasy-xv.webp",
      "imagem_pasta": "https://animefire.plus/img/animes/brotherhood-final-fantasy-xv/",
      "secao": "legendados",
      "pagina": 42,
      "total_episodios": 1,
      "link_video": "https://animefire.plus/video/brotherhood-final-fantasy-xv"
    },
    {
      "id": 503,
      "nome": "Brothers Conflict",
      "link": "https://animefire.plus/animes/brothers-conflict-todos-os-episodios",
      "texto_original": "Brothers Conflict",
      "rating": 6.46,
      "classificacao_etaria": "A14",
      "imagem_original": "https://animefire.plus/img/animes/brothers-conflict.webp",
      "imagem_pasta": "https://animefire.plus/img/animes/brothers-conflict/",
      "secao": "legendados",
      "pagina": 138,
      "total_episodios": 0,
      "link_video": "https://animefire.plus/video/brothers-conflict"
    },
    {
      "id": 507,
      "nome": "Bubuki Buranki",
      "link": "https://animefire.plus/animes/bubuki-buranki-todos-os-episodios",
      "texto_original": "Bubuki Buranki",
      "rating": 6.37,
      "classificacao_etaria": "A14",
      "imagem_original": "https://animefire.plus/img/animes/bubuki-buranki.webp",
      "imagem_pasta": "https://animefire.plus/img/animes/bubuki-buranki/",
      "secao": "legendados",
      "pagina": 108,
      "total_episodios": 12,
      "link_video": "https://animefire.plus/video/bubuki-buranki"
    },
    {
      "id": 508,
      "nome": "Bubuki Buranki: Hoshi no Kyojin",
      "link": "https://animefire.plus/animes/bubuki-buranki-hoshi-no-kyojin-todos-os-episodios",
      "texto_original": "Bubuki Buranki: Hoshi no Kyojin",
      "rating": 6.93,
      "classificacao_etaria": "A14",
      "imagem_original": "https://animefire.plus/img/animes/bubuki-buranki-hoshi-no-kyojin.webp",
      "imagem_pasta": "https://animefire.plus/img/animes/bubuki-buranki-hoshi-no-kyojin/",
      "secao": "legendados",
      "pagina": 150,
      "total_episodios": 9,
      "link_video": "https://animefire.plus/video/bubuki-buranki-hoshi-no-kyojin"
    },
    {
      "id": 509,
      "nome": "Bucchigire!",
      "link": "https://animefire.plus/animes/bucchigire-todos-os-episodios",
      "texto_original": "Bucchigire!",
      "rating": 5.99,
      "classificacao_etaria": "A14",
      "imagem_original": "https://animefire.plus/img/animes/bucchigire.webp",
      "imagem_pasta": "https://animefire.plus/img/animes/bucchigire/",
      "secao": "legendados",
      "pagina": 31,
      "total_episodios": 12,
      "link_video": "https://animefire.plus/video/bucchigire"
    },
    {
      "id": 510,
      "nome": "Bucchigiri",
      "link": "https://animefire.plus/animes/butchgiri-todos-os-episodios",
      "texto_original": "Bucchigiri",
      "rating": 5.96,
      "classificacao_etaria": "A18",
      "imagem_original": "https://animefire.plus/img/animes/butchgiri.webp",
      "imagem_pasta": "https://animefire.plus/img/animes/butchgiri/",
      "secao": "legendados",
      "pagina": 16,
      "total_episodios": 0,
      "link_video": "https://animefire.plus/video/butchgiri"
    },
    {
      "id": 511,
      "nome": "Bucchigiri?! (Dublado)",
      "link": "https://animefire.plus/animes/bucchigiri-dublado-todos-os-episodios",
      "texto_original": "Bucchigiri?! (Dublado)",
      "rating": 6.51,
      "classificacao_etaria": "A14",
      "imagem_original": "https://animefire.plus/img/animes/bucchigiri.webp",
      "imagem_pasta": "https://animefire.plus/img/animes/bucchigiri/",
      "secao": "dublados,legendados",
      "pagina": 3,
      "total_episodios": 12,
      "link_video": "https://animefire.plus/video/bucchigiri-dublado"
    },
    {
      "id": 515,
      "nome": "Build Divide: Code Black",
      "link": "https://animefire.plus/animes/build-divide-code-black-todos-os-episodios",
      "texto_original": "Build Divide: Code Black",
      "rating": 6.39,
      "classificacao_etaria": "A14",
      "imagem_original": "https://animefire.plus/img/animes/build-divide-code-black.webp",
      "imagem_pasta": "https://animefire.plus/img/animes/build-divide-code-black/",
      "secao": "legendados",
      "pagina": 39,
      "total_episodios": 12,
      "link_video": "https://animefire.plus/video/build-divide-code-black"
    },
    {
      "id": 516,
      "nome": "Build Divide: Code White",
      "link": "https://animefire.plus/animes/build-divide-code-white-todos-os-episodios",
      "texto_original": "Build Divide: Code White",
      "rating": 6.64,
      "classificacao_etaria": "A14",
      "imagem_original": "https://animefire.plus/img/animes/build-divide-code-white.webp",
      "imagem_pasta": "https://animefire.plus/img/animes/build-divide-code-white/",
      "secao": "legendados,lancamentos",
      "pagina": 34,
      "total_episodios": 3,
      "link_video": "https://animefire.plus/video/build-divide-code-white"
    },
    {
      "id": 517,
      "nome": "Bullbuster",
      "link": "https://animefire.plus/animes/bullbuster-todos-os-episodios",
      "texto_original": "Bullbuster",
      "rating": 6.18,
      "classificacao_etaria": "A14",
      "imagem_original": "https://animefire.plus/img/animes/bullbuster.webp",
      "imagem_pasta": "https://animefire.plus/img/animes/bullbuster/",
      "secao": "legendados",
      "pagina": 20,
      "total_episodios": 12,
      "link_video": "https://animefire.plus/video/bullbuster"
    },
    {
      "id": 526,
      "nome": "Bungou to Alchemist: Shinpan no Haguruma",
      "link": "https://animefire.plus/animes/bungou-to-alchemist-shinpan-no-haguruma-todos-os-episodios",
      "texto_original": "Bungou to Alchemist: Shinpan no Haguruma",
      "rating": 6.34,
      "classificacao_etaria": "A14",
      "imagem_original": "https://animefire.plus/img/animes/bungou-to-alchemist-shinpan-no-haguruma.webp",
      "imagem_pasta": "https://animefire.plus/img/animes/bungou-to-alchemist-shinpan-no-haguruma/",
      "secao": "legendados",
      "pagina": 81,
      "total_episodios": 2,
      "link_video": "https://animefire.plus/video/bungou-to-alchemist-shinpan-no-haguruma"
    },
    {
      "id": 528,
      "nome": "Burn Up Excess",
      "link": "https://animefire.plus/animes/burn-up-excess-todos-os-episodios",
      "texto_original": "Burn Up Excess",
      "rating": 6.64,
      "classificacao_etaria": "A14",
      "imagem_original": "https://animefire.plus/img/animes/burn-up-excess.webp",
      "imagem_pasta": "https://animefire.plus/img/animes/burn-up-excess/",
      "secao": "legendados",
      "pagina": 132,
      "total_episodios": 13,
      "link_video": "https://animefire.plus/video/burn-up-excess"
    },
    {
      "id": 529,
      "nome": "Burn Up Scramble",
      "link": "https://animefire.plus/animes/burn-up-scramble-todos-os-episodios",
      "texto_original": "Burn Up Scramble",
      "rating": 6.28,
      "classificacao_etaria": "A16",
      "imagem_original": "https://animefire.plus/img/animes/burn-up-scramble.webp",
      "imagem_pasta": "https://animefire.plus/img/animes/burn-up-scramble/",
      "secao": "legendados",
      "pagina": 160,
      "total_episodios": 12,
      "link_video": "https://animefire.plus/video/burn-up-scramble"
    }
  ],
  "pagination": {
    "current_page": 12,
    "per_page": 20,
    "total_items": 1805,
    "total_pages": 91,
    "has_next": true,
    "has_prev": true
  }
}
