{
  "message": "Animes com rating entre 5 e 7",
  "rating_range": {
    "min": 5,
    "max": 7
  },
  "data": [
    {
      "id": 2042,
      "nome": "Kochouki: Wakaki Nobunaga",
      "link": "https://animefire.plus/animes/kochouki-wakaki-nobunaga-todos-os-episodios",
      "texto_original": "Kochouki: Wakaki Nobunaga",
      "rating": 6.51,
      "classificacao_etaria": "A14",
      "imagem_original": "https://animefire.plus/img/animes/kochouki-wakaki-nobunaga.webp",
      "imagem_pasta": "https://animefire.plus/img/animes/kochouki-wakaki-nobunaga/",
      "secao": "legendados",
      "pagina": 155,
      "total_episodios": 6,
      "link_video": "https://animefire.plus/video/kochouki-wakaki-nobunaga"
    },
    {
      "id": 2043,
      "nome": "Kodai Ouja Kyouryuu King (Dublado)",
      "link": "https://animefire.plus/animes/kodai-ouja-kyouryuu-king-dublado-todos-os-episodios",
      "texto_original": "Kodai Ouja Kyouryuu King (Dublado)",
      "rating": 6.13,
      "classificacao_etaria": "A10",
      "imagem_original": "https://animefire.plus/img/animes/kodai-ouja-kyouryuu-king.webp",
      "imagem_pasta": "https://animefire.plus/img/animes/kodai-ouja-kyouryuu-king/",
      "secao": "dublados",
      "pagina": 28,
      "total_episodios": 57,
      "link_video": "https://animefire.plus/video/kodai-ouja-kyouryuu-king-dublado"
    },
    {
      "id": 2044,
      "nome": "Kodomo no Jikan (TV)",
      "link": "https://animefire.plus/animes/kodomo-no-jikan-tv-todos-os-episodios",
      "texto_original": "Kodomo no Jikan (TV)",
      "rating": 6.97,
      "classificacao_etaria": "A16",
      "imagem_original": "https://animefire.plus/img/animes/kodomo-no-jikan-tv.webp",
      "imagem_pasta": "https://animefire.plus/img/animes/kodomo-no-jikan-tv/",
      "secao": "legendados",
      "pagina": 154,
      "total_episodios": 12,
      "link_video": "https://animefire.plus/video/kodomo-no-jikan-tv"
    },
    {
      "id": 2046,
      "nome": "Koharu Biyori",
      "link": "https://animefire.plus/animes/koharu-biyori-todos-os-episodios",
      "texto_original": "Koharu Biyori",
      "rating": 6.66,
      "classificacao_etaria": "A18",
      "imagem_original": "https://animefire.plus/img/animes/koharu-biyori.webp",
      "imagem_pasta": "https://animefire.plus/img/animes/koharu-biyori/",
      "secao": "legendados",
      "pagina": 61,
      "total_episodios": 0,
      "link_video": "https://animefire.plus/video/koharu-biyori"
    },
    {
      "id": 2048,
      "nome": "Koi Koi 7",
      "link": "https://animefire.plus/animes/koi-koi-7-todos-os-episodios",
      "texto_original": "Koi Koi 7",
      "rating": 5.88,
      "classificacao_etaria": "A18",
      "imagem_original": "https://animefire.plus/img/animes/koi-koi-7.webp",
      "imagem_pasta": "https://animefire.plus/img/animes/koi-koi-7/",
      "secao": "legendados",
      "pagina": 128,
      "total_episodios": 13,
      "link_video": "https://animefire.plus/video/koi-koi-7"
    },
    {
      "id": 2051,
      "nome": "Koi to Senkyo to Chocolate: Koi Imouto!",
      "link": "https://animefire.plus/animes/koi-to-senkyo-to-chocolate-koi-imouto-todos-os-episodios",
      "texto_original": "Koi to Senkyo to Chocolate: Koi Imouto!",
      "rating": 6.91,
      "classificacao_etaria": "A14",
      "imagem_original": "https://animefire.plus/img/animes/koi-to-senkyo-to-chocolate-koi-imouto.webp",
      "imagem_pasta": "https://animefire.plus/img/animes/koi-to-senkyo-to-chocolate-koi-imouto/",
      "secao": "legendados",
      "pagina": 54,
      "total_episodios": 1,
      "link_video": "https://animefire.plus/video/koi-to-senkyo-to-chocolate-koi-imouto"
    },
    {
      "id": 2052,
      "nome": "Koi to Uso",
      "link": "https://animefire.plus/animes/koi-to-uso-todos-os-episodios",
      "texto_original": "Koi to Uso",
      "rating": 6.75,
      "classificacao_etaria": "A14",
      "imagem_original": "https://animefire.plus/img/animes/koi-to-uso.webp",
      "imagem_pasta": "https://animefire.plus/img/animes/koi-to-uso/",
      "secao": "legendados",
      "pagina": 118,
      "total_episodios": 12,
      "link_video": "https://animefire.plus/video/koi-to-uso"
    },
    {
      "id": 2053,
      "nome": "Koi to Uso OVA",
      "link": "https://animefire.plus/animes/koi-to-uso-ova-todos-os-episodios",
      "texto_original": "Koi to Uso OVA",
      "rating": 6.46,
      "classificacao_etaria": "A14",
      "imagem_original": "https://animefire.plus/img/animes/koi-to-uso-ova.webp",
      "imagem_pasta": "https://animefire.plus/img/animes/koi-to-uso-ova/",
      "secao": "legendados",
      "pagina": 78,
      "total_episodios": 1,
      "link_video": "https://animefire.plus/video/koi-to-uso-ova"
    },
    {
      "id": 2056,
      "nome": "Koi wa Futago de Warikirenai",
      "link": "https://animefire.plus/animes/koi-wa-futago-de-warikirenai-todos-os-episodios",
      "texto_original": "Koi wa Futago de Warikirenai",
      "rating": 6.26,
      "classificacao_etaria": "A14",
      "imagem_original": "https://animefire.plus/img/animes/koi-wa-futago-de-warikirenai.webp",
      "imagem_pasta": "https://animefire.plus/img/animes/koi-wa-futago-de-warikirenai/",
      "secao": "legendados",
      "pagina": 13,
      "total_episodios": 12,
      "link_video": "https://animefire.plus/video/koi-wa-futago-de-warikirenai"
    },
    {
      "id": 2058,
      "nome": "Koihime†Musou",
      "link": "https://animefire.plus/animes/koihime-musou-todos-os-episodios",
      "texto_original": "Koihime†Musou",
      "rating": 6.82,
      "classificacao_etaria": "A18",
      "imagem_original": "https://animefire.plus/img/animes/koihime-musou.webp",
      "imagem_pasta": "https://animefire.plus/img/animes/koihime-musou/",
      "secao": "legendados",
      "pagina": 127,
      "total_episodios": 12,
      "link_video": "https://animefire.plus/video/koihime-musou"
    },
    {
      "id": 2059,
      "nome": "Koihime†Musou OVA Omake",
      "link": "https://animefire.plus/animes/koihime-musou-ova-omake-todos-os-episodios",
      "texto_original": "Koihime†Musou OVA Omake",
      "rating": 6.24,
      "classificacao_etaria": "A18",
      "imagem_original": "https://animefire.plus/img/animes/koihime-musou-ova-omake.webp",
      "imagem_pasta": "https://animefire.plus/img/animes/koihime-musou-ova-omake/",
      "secao": "legendados",
      "pagina": 71,
      "total_episodios": 1,
      "link_video": "https://animefire.plus/video/koihime-musou-ova-omake"
    },
    {
      "id": 2060,
      "nome": "Koisuru Asteroid",
      "link": "https://animefire.plus/animes/koisuru-asteroid-todos-os-episodios",
      "texto_original": "Koisuru Asteroid",
      "rating": 6.87,
      "classificacao_etaria": "A14",
      "imagem_original": "https://animefire.plus/img/animes/koisuru-asteroid.webp",
      "imagem_pasta": "https://animefire.plus/img/animes/koisuru-asteroid/",
      "secao": "legendados",
      "pagina": 93,
      "total_episodios": 0,
      "link_video": "https://animefire.plus/video/koisuru-asteroid"
    },
    {
      "id": 2061,
      "nome": "Koisuru One Piece",
      "link": "https://animefire.plus/animes/koisuru-one-piece-todos-os-episodios",
      "texto_original": "Koisuru One Piece",
      "rating": 6.77,
      "classificacao_etaria": "A14",
      "imagem_original": "https://animefire.plus/img/animes/koisuru-one-piece.webp",
      "imagem_pasta": "https://animefire.plus/img/animes/koisuru-one-piece/",
      "secao": "legendados",
      "pagina": 4,
      "total_episodios": 0,
      "link_video": "https://animefire.plus/video/koisuru-one-piece"
    },
    {
      "id": 2063,
      "nome": "Koisuru Tenshi Angelique: Kagayaki no Ashita Special",
      "link": "https://animefire.plus/animes/koisuru-tenshi-angelique-kagayaki-no-ashita-special-todos-os-episodios",
      "texto_original": "Koisuru Tenshi Angelique: Kagayaki no Ashita Special",
      "rating": 6.74,
      "classificacao_etaria": "A14",
      "imagem_original": "https://animefire.plus/img/animes/koisuru-tenshi-angelique-kagayaki-no-ashita-special.webp",
      "imagem_pasta": "https://animefire.plus/img/animes/koisuru-tenshi-angelique-kagayaki-no-ashita-special/",
      "secao": "legendados",
      "pagina": 86,
      "total_episodios": 1,
      "link_video": "https://animefire.plus/video/koisuru-tenshi-angelique-kagayaki-no-ashita-special"
    },
    {
      "id": 2064,
      "nome": "Koisuru Tenshi Angelique: Kokoro no Mezameru Toki",
      "link": "https://animefire.plus/animes/koisuru-tenshi-angelique-kokoro-no-mezameru-toki-todos-os-episodios",
      "texto_original": "Koisuru Tenshi Angelique: Kokoro no Mezameru Toki",
      "rating": 6.96,
      "classificacao_etaria": "A14",
      "imagem_original": "https://animefire.plus/img/animes/koisuru-tenshi-angelique-kokoro-no-mezameru-toki.webp",
      "imagem_pasta": "https://animefire.plus/img/animes/koisuru-tenshi-angelique-kokoro-no-mezameru-toki/",
      "secao": "legendados",
      "pagina": 130,
      "total_episodios": 13,
      "link_video": "https://animefire.plus/video/koisuru-tenshi-angelique-kokoro-no-mezameru-toki"
    },
    {
      "id": 2068,
      "nome": "Kokoro Toshokan",
      "link": "https://animefire.plus/animes/kokoro-toshokan-todos-os-episodios",
      "texto_original": "Kokoro Toshokan",
      "rating": 6.53,
      "classificacao_etaria": "A10",
      "imagem_original": "https://animefire.plus/img/animes/kokoro-toshokan.webp",
      "imagem_pasta": "https://animefire.plus/img/animes/kokoro-toshokan/",
      "secao": "legendados",
      "pagina": 122,
      "total_episodios": 13,
      "link_video": "https://animefire.plus/video/kokoro-toshokan"
    },
    {
      "id": 2069,
      "nome": "Komatta Jiisan",
      "link": "https://animefire.plus/animes/komatta-jiisan-todos-os-episodios",
      "texto_original": "Komatta Jiisan",
      "rating": 6.42,
      "classificacao_etaria": "A14",
      "imagem_original": "https://animefire.plus/img/animes/komatta-jiisan.webp",
      "imagem_pasta": "https://animefire.plus/img/animes/komatta-jiisan/",
      "secao": "legendados",
      "pagina": 79,
      "total_episodios": 0,
      "link_video": "https://animefire.plus/video/komatta-jiisan"
    },
    {
      "id": 2073,
      "nome": "Komori-san wa Kotowarenai!",
      "link": "https://animefire.plus/animes/komori-san-wa-kotowarenai-todos-os-episodios",
      "texto_original": "Komori-san wa Kotowarenai!",
      "rating": 6.3,
      "classificacao_etaria": "A14",
      "imagem_original": "https://animefire.plus/img/animes/komori-san-wa-kotowarenai.webp",
      "imagem_pasta": "https://animefire.plus/img/animes/komori-san-wa-kotowarenai/",
      "secao": "legendados",
      "pagina": 128,
      "total_episodios": 12,
      "link_video": "https://animefire.plus/video/komori-san-wa-kotowarenai"
    },
    {
      "id": 2074,
      "nome": "Konbini Kareshi",
      "link": "https://animefire.plus/animes/konbini-kareshi-todos-os-episodios",
      "texto_original": "Konbini Kareshi",
      "rating": 6.4,
      "classificacao_etaria": "A14",
      "imagem_original": "https://animefire.plus/img/animes/konbini-kareshi.webp",
      "imagem_pasta": "https://animefire.plus/img/animes/konbini-kareshi/",
      "secao": "legendados",
      "pagina": 142,
      "total_episodios": 12,
      "link_video": "https://animefire.plus/video/konbini-kareshi"
    },
    {
      "id": 2076,
      "nome": "Kono Aozora ni Yakusoku wo: Youkoso Tsugumi Ryou e",
      "link": "https://animefire.plus/animes/kono-aozora-ni-yakusoku-wo-youkoso-tsugumi-ryou-e-todos-os-episodios",
      "texto_original": "Kono Aozora ni Yakusoku wo: Youkoso Tsugumi Ryou e",
      "rating": 6.27,
      "classificacao_etaria": "A14",
      "imagem_original": "https://animefire.plus/img/animes/kono-aozora-ni-yakusoku-wo-youkoso-tsugumi-ryou-e.webp",
      "imagem_pasta": "https://animefire.plus/img/animes/kono-aozora-ni-yakusoku-wo-youkoso-tsugumi-ryou-e/",
      "secao": "legendados",
      "pagina": 176,
      "total_episodios": 13,
      "link_video": "https://animefire.plus/video/kono-aozora-ni-yakusoku-wo-youkoso-tsugumi-ryou-e"
    }
  ],
  "pagination": {
    "current_page": 45,
    "per_page": 20,
    "total_items": 1805,
    "total_pages": 91,
    "has_next": true,
    "has_prev": true
  }
}
