{
  "message": "Animes com rating entre 5 e 7",
  "rating_range": {
    "min": 5,
    "max": 7
  },
  "data": [
    {
      "id": 3898,
      "nome": "Tokyo Underground",
      "link": "https://animefire.plus/animes/tokyo-underground-todos-os-episodios",
      "texto_original": "Tokyo Underground",
      "rating": 6.68,
      "classificacao_etaria": "A14",
      "imagem_original": "https://animefire.plus/img/animes/tokyo-underground.webp",
      "imagem_pasta": "https://animefire.plus/img/animes/tokyo-underground/",
      "secao": "legendados",
      "pagina": 146,
      "total_episodios": 26,
      "link_video": "https://animefire.plus/video/tokyo-underground"
    },
    {
      "id": 3901,
      "nome": "Tonagura!",
      "link": "https://animefire.plus/animes/tonagura-todos-os-episodios",
      "texto_original": "Tonagura!",
      "rating": 6.81,
      "classificacao_etaria": "A14",
      "imagem_original": "https://animefire.plus/img/animes/tonagura.webp",
      "imagem_pasta": "https://animefire.plus/img/animes/tonagura/",
      "secao": "legendados",
      "pagina": 117,
      "total_episodios": 1,
      "link_video": "https://animefire.plus/video/tonagura"
    },
    {
      "id": 3910,
      "nome": "Tong Zhi Zhe",
      "link": "https://animefire.plus/animes/tong-zhi-zhe-todos-os-episodios",
      "texto_original": "Tong Zhi Zhe",
      "rating": 6.64,
      "classificacao_etaria": "A16",
      "imagem_original": "https://animefire.plus/img/animes/tong-zhi-zhe.webp",
      "imagem_pasta": "https://animefire.plus/img/animes/tong-zhi-zhe/",
      "secao": "legendados",
      "pagina": 160,
      "total_episodios": 10,
      "link_video": "https://animefire.plus/video/tong-zhi-zhe"
    },
    {
      "id": 3920,
      "nome": "Toradora!: SOS! Kuishinbou Banbanzai",
      "link": "https://animefire.plus/animes/toradora-sos-kuishinbou-banbanzai-todos-os-episodios",
      "texto_original": "Toradora!: SOS! Kuishinbou Banbanzai",
      "rating": 6.38,
      "classificacao_etaria": "A14",
      "imagem_original": "https://animefire.plus/img/animes/toradora-sos-kuishinbou-banbanzai.webp",
      "imagem_pasta": "https://animefire.plus/img/animes/toradora-sos-kuishinbou-banbanzai/",
      "secao": "legendados",
      "pagina": 71,
      "total_episodios": 4,
      "link_video": "https://animefire.plus/video/toradora-sos-kuishinbou-banbanzai"
    },
    {
      "id": 3926,
      "nome": "Touhai: Ura Rate Mahjong Touhai Roku",
      "link": "https://animefire.plus/animes/touhai-ura-rate-mahjong-touhai-roku-todos-os-episodios",
      "texto_original": "Touhai: Ura Rate Mahjong Touhai Roku",
      "rating": 6.62,
      "classificacao_etaria": "A14",
      "imagem_original": "https://animefire.plus/img/animes/touhai-ura-rate-mahjong-touhai-roku.webp",
      "imagem_pasta": "https://animefire.plus/img/animes/touhai-ura-rate-mahjong-touhai-roku/",
      "secao": "legendados,lancamentos",
      "pagina": 10,
      "total_episodios": 5,
      "link_video": "https://animefire.plus/video/touhai-ura-rate-mahjong-touhai-roku"
    },
    {
      "id": 3927,
      "nome": "Touka Gettan",
      "link": "https://animefire.plus/animes/touka-gettan-todos-os-episodios",
      "texto_original": "Touka Gettan",
      "rating": 6.63,
      "classificacao_etaria": "A16",
      "imagem_original": "https://animefire.plus/img/animes/touka-gettan.webp",
      "imagem_pasta": "https://animefire.plus/img/animes/touka-gettan/",
      "secao": "legendados",
      "pagina": 121,
      "total_episodios": 26,
      "link_video": "https://animefire.plus/video/touka-gettan"
    },
    {
      "id": 3928,
      "nome": "Touken Ranbu Kai: Kyoden Moyuru Honnouji",
      "link": "https://animefire.plus/animes/touken-ranbu-kai-kyoden-moyuru-honnouji-todos-os-episodios",
      "texto_original": "Touken Ranbu Kai: Kyoden Moyuru Honnouji",
      "rating": 6.09,
      "classificacao_etaria": "A14",
      "imagem_original": "https://animefire.plus/img/animes/touken-ranbu-kai-kyoden-moyuru-honnouji.webp",
      "imagem_pasta": "https://animefire.plus/img/animes/touken-ranbu-kai-kyoden-moyuru-honnouji/",
      "secao": "legendados",
      "pagina": 14,
      "total_episodios": 8,
      "link_video": "https://animefire.plus/video/touken-ranbu-kai-kyoden-moyuru-honnouji"
    },
    {
      "id": 3929,
      "nome": "Touken Ranbu: Hanamaru",
      "link": "https://animefire.plus/animes/touken-ranbu-hanamaru-todos-os-episodios",
      "texto_original": "Touken Ranbu: Hanamaru",
      "rating": 6.89,
      "classificacao_etaria": "A14",
      "imagem_original": "https://animefire.plus/img/animes/touken-ranbu-hanamaru.webp",
      "imagem_pasta": "https://animefire.plus/img/animes/touken-ranbu-hanamaru/",
      "secao": "legendados",
      "pagina": 106,
      "total_episodios": 12,
      "link_video": "https://animefire.plus/video/touken-ranbu-hanamaru"
    },
    {
      "id": 3931,
      "nome": "Toutotsu ni Egypt Shin 2",
      "link": "https://animefire.plus/animes/toutotsu-ni-egypt-shin-2-todos-os-episodios",
      "texto_original": "Toutotsu ni Egypt Shin 2",
      "rating": 6.62,
      "classificacao_etaria": null,
      "imagem_original": "https://animefire.plus/img/animes/toutotsu-ni-egypt-shin-2.webp",
      "imagem_pasta": "https://animefire.plus/img/animes/toutotsu-ni-egypt-shin-2/",
      "secao": "legendados,lancamentos",
      "pagina": 25,
      "total_episodios": 5,
      "link_video": "https://animefire.plus/video/toutotsu-ni-egypt-shin-2"
    },
    {
      "id": 3932,
      "nome": "Triage X",
      "link": "https://animefire.plus/animes/triage-x-todos-os-episodios",
      "texto_original": "Triage X",
      "rating": 6.36,
      "classificacao_etaria": "A18",
      "imagem_original": "https://animefire.plus/img/animes/triage-x.webp",
      "imagem_pasta": "https://animefire.plus/img/animes/triage-x/",
      "secao": "legendados",
      "pagina": 73,
      "total_episodios": 0,
      "link_video": "https://animefire.plus/video/triage-x"
    },
    {
      "id": 3933,
      "nome": "Tribe Nine (Dublado)",
      "link": "https://animefire.plus/animes/tribe-nine-dublado-todos-os-episodios",
      "texto_original": "Tribe Nine (Dublado)",
      "rating": 6.08,
      "classificacao_etaria": "A16",
      "imagem_original": "https://animefire.plus/img/animes/tribe-nine.webp",
      "imagem_pasta": "https://animefire.plus/img/animes/tribe-nine/",
      "secao": "dublados,legendados",
      "pagina": 12,
      "total_episodios": 12,
      "link_video": "https://animefire.plus/video/tribe-nine-dublado"
    },
    {
      "id": 3934,
      "nome": "Trickster: Edogawa Ranpo \"Shounen Tanteidan\" yori",
      "link": "https://animefire.plus/animes/trickster-edogawa-ranpo-shounen-tanteidan-yori-todos-os-episodios",
      "texto_original": "Trickster: Edogawa Ranpo \"Shounen Tanteidan\" yori",
      "rating": 6.29,
      "classificacao_etaria": "A14",
      "imagem_original": "https://animefire.plus/img/animes/trickster-edogawa-ranpo-shounen-tanteidan-yori.webp",
      "imagem_pasta": "https://animefire.plus/img/animes/trickster-edogawa-ranpo-shounen-tanteidan-yori/",
      "secao": "legendados",
      "pagina": 167,
      "total_episodios": 7,
      "link_video": "https://animefire.plus/video/trickster-edogawa-ranpo-shounen-tanteidan-yori"
    },
    {
      "id": 3948,
      "nome": "Tsugumomo OVA",
      "link": "https://animefire.plus/animes/tsugumomo-ova-todos-os-episodios",
      "texto_original": "Tsugumomo OVA",
      "rating": 6.87,
      "classificacao_etaria": "A18",
      "imagem_original": "https://animefire.plus/img/animes/tsugumomo-ova.webp",
      "imagem_pasta": "https://animefire.plus/img/animes/tsugumomo-ova/",
      "secao": "legendados",
      "pagina": 87,
      "total_episodios": 1,
      "link_video": "https://animefire.plus/video/tsugumomo-ova"
    },
    {
      "id": 3955,
      "nome": "Tsuki Wa Higashi Ni Hi Wa Nishi Ni: Operation Sanctuary",
      "link": "https://animefire.plus/animes/tsuki-wa-higashi-ni-hi-wa-nishi-ni-operation-sanctuary-todos-os-episodios",
      "texto_original": "Tsuki Wa Higashi Ni Hi Wa Nishi Ni: Operation Sanctuary",
      "rating": 6.22,
      "classificacao_etaria": "A14",
      "imagem_original": "https://animefire.plus/img/animes/tsuki-wa-higashi-ni-hi-wa-nishi-ni-operation-sanctuary.webp",
      "imagem_pasta": "https://animefire.plus/img/animes/tsuki-wa-higashi-ni-hi-wa-nishi-ni-operation-sanctuary/",
      "secao": "legendados",
      "pagina": 108,
      "total_episodios": 0,
      "link_video": "https://animefire.plus/video/tsuki-wa-higashi-ni-hi-wa-nishi-ni-operation-sanctuary"
    },
    {
      "id": 3957,
      "nome": "Tsukipro The Animation",
      "link": "https://animefire.plus/animes/tsukipro-the-animation-todos-os-episodios",
      "texto_original": "Tsukipro The Animation",
      "rating": 6.75,
      "classificacao_etaria": "A14",
      "imagem_original": "https://animefire.plus/img/animes/tsukipro-the-animation.webp",
      "imagem_pasta": "https://animefire.plus/img/animes/tsukipro-the-animation/",
      "secao": "legendados",
      "pagina": 74,
      "total_episodios": 13,
      "link_video": "https://animefire.plus/video/tsukipro-the-animation"
    },
    {
      "id": 3958,
      "nome": "Tsukipro The Animation 2",
      "link": "https://animefire.plus/animes/tsukipro-the-animation-2-todos-os-episodios",
      "texto_original": "Tsukipro The Animation 2",
      "rating": 6.41,
      "classificacao_etaria": "A14",
      "imagem_original": "https://animefire.plus/img/animes/tsukipro-the-animation-2.webp",
      "imagem_pasta": "https://animefire.plus/img/animes/tsukipro-the-animation-2/",
      "secao": "legendados,lancamentos",
      "pagina": 40,
      "total_episodios": 8,
      "link_video": "https://animefire.plus/video/tsukipro-the-animation-2"
    },
    {
      "id": 3961,
      "nome": "Tsukumogami Kashimasu",
      "link": "https://animefire.plus/animes/tsukumogami-kashimasu-todos-os-episodios",
      "texto_original": "Tsukumogami Kashimasu",
      "rating": 6.76,
      "classificacao_etaria": "A14",
      "imagem_original": "https://animefire.plus/img/animes/tsukumogami-kashimasu.webp",
      "imagem_pasta": "https://animefire.plus/img/animes/tsukumogami-kashimasu/",
      "secao": "legendados",
      "pagina": 169,
      "total_episodios": 12,
      "link_video": "https://animefire.plus/video/tsukumogami-kashimasu"
    },
    {
      "id": 3967,
      "nome": "Tsuritama: Harikitte Contest",
      "link": "https://animefire.plus/animes/tsuritama-harikitte-contest-todos-os-episodios",
      "texto_original": "Tsuritama: Harikitte Contest",
      "rating": 6,
      "classificacao_etaria": "A14",
      "imagem_original": "https://animefire.plus/img/animes/tsuritama-harikitte-contest.webp",
      "imagem_pasta": "https://animefire.plus/img/animes/tsuritama-harikitte-contest/",
      "secao": "legendados",
      "pagina": 83,
      "total_episodios": 1,
      "link_video": "https://animefire.plus/video/tsuritama-harikitte-contest"
    },
    {
      "id": 3970,
      "nome": "Tsuujou Kougeki ga Zentai Kougeki de Ni-kai Kougeki no Okaasan wa Suki Desu ka?",
      "link": "https://animefire.plus/animes/tsuujou-kougeki-ga-zentai-kougeki-de-ni-kai-kougeki-no-okaasan-wa-suki-desu-ka-todos-os-episodios",
      "texto_original": "Tsuujou Kougeki ga Zentai Kougeki de Ni-kai Kougeki no Okaasan wa Suki Desu ka?",
      "rating": 5.54,
      "classificacao_etaria": "A18",
      "imagem_original": "https://animefire.plus/img/animes/tsuujou-kougeki-ga-zentai-kougeki-de-ni-kai-kougeki-no-okaasan-wa-suki-desu-ka.webp",
      "imagem_pasta": "https://animefire.plus/img/animes/tsuujou-kougeki-ga-zentai-kougeki-de-ni-kai-kougeki-no-okaasan-wa-suki-desu-ka/",
      "secao": "legendados",
      "pagina": 120,
      "total_episodios": 12,
      "link_video": "https://animefire.plus/video/tsuujou-kougeki-ga-zentai-kougeki-de-ni-kai-kougeki-no-okaasan-wa-suki-desu-ka"
    },
    {
      "id": 3971,
      "nome": "Tsuyokiss",
      "link": "https://animefire.plus/animes/tsuyokiss-todos-os-episodios",
      "texto_original": "Tsuyokiss",
      "rating": 6.66,
      "classificacao_etaria": "A14",
      "imagem_original": "https://animefire.plus/img/animes/tsuyokiss.webp",
      "imagem_pasta": "https://animefire.plus/img/animes/tsuyokiss/",
      "secao": "legendados",
      "pagina": 156,
      "total_episodios": 10,
      "link_video": "https://animefire.plus/video/tsuyokiss"
    }
  ],
  "pagination": {
    "current_page": 82,
    "per_page": 20,
    "total_items": 1805,
    "total_pages": 91,
    "has_next": true,
    "has_prev": true
  }
}
