{
  "message": "Animes com rating entre 5 e 7",
  "rating_range": {
    "min": 5,
    "max": 7
  },
  "data": [
    {
      "id": 3433,
      "nome": "Shin Tennis no Ouji-sama: U-17 World Cup",
      "link": "https://animefire.plus/animes/shin-tennis-no-ouji-sama-u-17-world-cup-todos-os-episodios",
      "texto_original": "Shin Tennis no Ouji-sama: U-17 World Cup",
      "rating": 6.79,
      "classificacao_etaria": "A14",
      "imagem_original": "https://animefire.plus/img/animes/shin-tennis-no-ouji-sama-u-17-world-cup.webp",
      "imagem_pasta": "https://animefire.plus/img/animes/shin-tennis-no-ouji-sama-u-17-world-cup/",
      "secao": "legendados",
      "pagina": 31,
      "total_episodios": 13,
      "link_video": "https://animefire.plus/video/shin-tennis-no-ouji-sama-u-17-world-cup"
    },
    {
      "id": 3434,
      "nome": "Shin Tennis no Oujisama: U-17 World Cup Semifinal",
      "link": "https://animefire.plus/animes/shin-tennis-no-oujisama-u-17-world-cup-semifinal-todos-os-episodios",
      "texto_original": "Shin Tennis no Oujisama: U-17 World Cup Semifinal",
      "rating": 6.66,
      "classificacao_etaria": "A14",
      "imagem_original": "https://animefire.plus/img/animes/shin-tennis-no-oujisama-u-17-world-cup-semifinal.webp",
      "imagem_pasta": "https://animefire.plus/img/animes/shin-tennis-no-oujisama-u-17-world-cup-semifinal/",
      "secao": "legendados,lancamentos",
      "pagina": 9,
      "total_episodios": 3,
      "link_video": "https://animefire.plus/video/shin-tennis-no-oujisama-u-17-world-cup-semifinal"
    },
    {
      "id": 3435,
      "nome": "Shin Yaranai ka",
      "link": "https://animefire.plus/animes/shin-yaranai-ka-todos-os-episodios",
      "texto_original": "Shin Yaranai ka",
      "rating": 5.29,
      "classificacao_etaria": "A14",
      "imagem_original": "https://animefire.plus/img/animes/shin-yaranai-ka.webp",
      "imagem_pasta": "https://animefire.plus/img/animes/shin-yaranai-ka/",
      "secao": "legendados,lancamentos",
      "pagina": 14,
      "total_episodios": 0,
      "link_video": "https://animefire.plus/video/shin-yaranai-ka"
    },
    {
      "id": 3452,
      "nome": "Shingetsutan Tsukihime (Dublado)",
      "link": "https://animefire.plus/animes/shingetsutan-tsukihime-dublado-todos-os-episodios",
      "texto_original": "Shingetsutan Tsukihime (Dublado)",
      "rating": 6.83,
      "classificacao_etaria": "A16",
      "imagem_original": "https://animefire.plus/img/animes/shingetsutan-tsukihime.webp",
      "imagem_pasta": "https://animefire.plus/img/animes/shingetsutan-tsukihime/",
      "secao": "dublados,legendados",
      "pagina": 8,
      "total_episodios": 12,
      "link_video": "https://animefire.plus/video/shingetsutan-tsukihime-dublado"
    },
    {
      "id": 3456,
      "nome": "Shinigami no Ballad.",
      "link": "https://animefire.plus/animes/shinigami-no-ballad-todos-os-episodios",
      "texto_original": "Shinigami no Ballad.",
      "rating": 6.98,
      "classificacao_etaria": "A14",
      "imagem_original": "https://animefire.plus/img/animes/shinigami-no-ballad.webp",
      "imagem_pasta": "https://animefire.plus/img/animes/shinigami-no-ballad/",
      "secao": "legendados",
      "pagina": 171,
      "total_episodios": 6,
      "link_video": "https://animefire.plus/video/shinigami-no-ballad"
    },
    {
      "id": 3457,
      "nome": "Shining Hearts: Shiawase No Pan",
      "link": "https://animefire.plus/animes/shining-hearts-shiawase-no-pan-todos-os-episodios",
      "texto_original": "Shining Hearts: Shiawase No Pan",
      "rating": 6.18,
      "classificacao_etaria": "A14",
      "imagem_original": "https://animefire.plus/img/animes/shining-hearts-shiawase-no-pan.webp",
      "imagem_pasta": "https://animefire.plus/img/animes/shining-hearts-shiawase-no-pan/",
      "secao": "legendados",
      "pagina": 105,
      "total_episodios": 0,
      "link_video": "https://animefire.plus/video/shining-hearts-shiawase-no-pan"
    },
    {
      "id": 3458,
      "nome": "Shining Tears X Wind",
      "link": "https://animefire.plus/animes/shining-tears-x-wind-todos-os-episodios",
      "texto_original": "Shining Tears X Wind",
      "rating": 6.59,
      "classificacao_etaria": "A14",
      "imagem_original": "https://animefire.plus/img/animes/shining-tears-x-wind.webp",
      "imagem_pasta": "https://animefire.plus/img/animes/shining-tears-x-wind/",
      "secao": "legendados",
      "pagina": 132,
      "total_episodios": 13,
      "link_video": "https://animefire.plus/video/shining-tears-x-wind"
    },
    {
      "id": 3459,
      "nome": "Shinka no Mi: Shiranai Uchi ni Kachigumi Jinsei (Dublado)",
      "link": "https://animefire.plus/animes/shinka-no-mi-shiranai-uchi-ni-kachigumi-jinsei-dublado-todos-os-episodios",
      "texto_original": "Shinka no Mi: Shiranai Uchi ni Kachigumi Jinsei (Dublado)",
      "rating": 6.17,
      "classificacao_etaria": "A14",
      "imagem_original": "https://animefire.plus/img/animes/shinka-no-mi-shiranai-uchi-ni-kachigumi-jinsei.webp",
      "imagem_pasta": "https://animefire.plus/img/animes/shinka-no-mi-shiranai-uchi-ni-kachigumi-jinsei/",
      "secao": "dublados,legendados",
      "pagina": 14,
      "total_episodios": 12,
      "link_video": "https://animefire.plus/video/shinka-no-mi-shiranai-uchi-ni-kachigumi-jinsei-dublado"
    },
    {
      "id": 3460,
      "nome": "Shinkon Gattai Godannar!!",
      "link": "https://animefire.plus/animes/shinkon-gattai-godannar-todos-os-episodios",
      "texto_original": "Shinkon Gattai Godannar!!",
      "rating": 6.77,
      "classificacao_etaria": "A14",
      "imagem_original": "https://animefire.plus/img/animes/shinkon-gattai-godannar.webp",
      "imagem_pasta": "https://animefire.plus/img/animes/shinkon-gattai-godannar/",
      "secao": "legendados",
      "pagina": 132,
      "total_episodios": 13,
      "link_video": "https://animefire.plus/video/shinkon-gattai-godannar"
    },
    {
      "id": 3461,
      "nome": "Shinkon Gattai Godannar!! 2nd Season",
      "link": "https://animefire.plus/animes/shinkon-gattai-godannar-2nd-season-todos-os-episodios",
      "texto_original": "Shinkon Gattai Godannar!! 2nd Season",
      "rating": 7,
      "classificacao_etaria": "A14",
      "imagem_original": "https://animefire.plus/img/animes/shinkon-gattai-godannar-2nd-season.webp",
      "imagem_pasta": "https://animefire.plus/img/animes/shinkon-gattai-godannar-2nd-season/",
      "secao": "legendados",
      "pagina": 69,
      "total_episodios": 13,
      "link_video": "https://animefire.plus/video/shinkon-gattai-godannar-2nd-season"
    },
    {
      "id": 3462,
      "nome": "Shinkyoku Soukai Polyphonica",
      "link": "https://animefire.plus/animes/shinkyoku-soukai-polyphonica-todos-os-episodios",
      "texto_original": "Shinkyoku Soukai Polyphonica",
      "rating": 6.9,
      "classificacao_etaria": "A14",
      "imagem_original": "https://animefire.plus/img/animes/shinkyoku-soukai-polyphonica.webp",
      "imagem_pasta": "https://animefire.plus/img/animes/shinkyoku-soukai-polyphonica/",
      "secao": "legendados",
      "pagina": 150,
      "total_episodios": 12,
      "link_video": "https://animefire.plus/video/shinkyoku-soukai-polyphonica"
    },
    {
      "id": 3464,
      "nome": "Shinmai Maou No Testament",
      "link": "https://animefire.plus/animes/shinmai-maou-no-testament-todos-os-episodios",
      "texto_original": "Shinmai Maou No Testament",
      "rating": 7,
      "classificacao_etaria": "A18",
      "imagem_original": "https://animefire.plus/img/animes/shinmai-maou-no-testament.webp",
      "imagem_pasta": "https://animefire.plus/img/animes/shinmai-maou-no-testament/",
      "secao": "legendados",
      "pagina": 97,
      "total_episodios": 4,
      "link_video": "https://animefire.plus/video/shinmai-maou-no-testament"
    },
    {
      "id": 3468,
      "nome": "Shinmai Renkinjutsushi no Tenpo Keiei",
      "link": "https://animefire.plus/animes/shinmai-renkinjutsushi-no-tenpo-keiei-todos-os-episodios",
      "texto_original": "Shinmai Renkinjutsushi no Tenpo Keiei",
      "rating": 6.62,
      "classificacao_etaria": "A14",
      "imagem_original": "https://animefire.plus/img/animes/shinmai-renkinjutsushi-no-tenpo-keiei.webp",
      "imagem_pasta": "https://animefire.plus/img/animes/shinmai-renkinjutsushi-no-tenpo-keiei/",
      "secao": "legendados",
      "pagina": 29,
      "total_episodios": 12,
      "link_video": "https://animefire.plus/video/shinmai-renkinjutsushi-no-tenpo-keiei"
    },
    {
      "id": 3469,
      "nome": "Shinobi no Ittoki (Dublado)",
      "link": "https://animefire.plus/animes/shinobi-no-ittoki-dublado-todos-os-episodios",
      "texto_original": "Shinobi no Ittoki (Dublado)",
      "rating": 6.06,
      "classificacao_etaria": "A14",
      "imagem_original": "https://animefire.plus/img/animes/shinobi-no-ittoki.webp",
      "imagem_pasta": "https://animefire.plus/img/animes/shinobi-no-ittoki/",
      "secao": "dublados,legendados",
      "pagina": 9,
      "total_episodios": 12,
      "link_video": "https://animefire.plus/video/shinobi-no-ittoki-dublado"
    },
    {
      "id": 3475,
      "nome": "Shinya! Tensai Bakabon",
      "link": "https://animefire.plus/animes/shinya-tensai-bakabon-todos-os-episodios",
      "texto_original": "Shinya! Tensai Bakabon",
      "rating": 6.12,
      "classificacao_etaria": null,
      "imagem_original": "https://animefire.plus/img/animes/shinya-tensai-bakabon.webp",
      "imagem_pasta": "https://animefire.plus/img/animes/shinya-tensai-bakabon/",
      "secao": "legendados",
      "pagina": 138,
      "total_episodios": 12,
      "link_video": "https://animefire.plus/video/shinya-tensai-bakabon"
    },
    {
      "id": 3479,
      "nome": "Shirobuta Kizoku desu ga Zense no Kioku ga Haeta node Hiyoko na Otouto Sodatemasu",
      "link": "https://animefire.plus/animes/shirobuta-kizoku-desu-ga-zense-no-kioku-ga-haeta-node-hiyoko-na-otouto-sodatemasu-todos-os-episodios",
      "texto_original": "Shirobuta Kizoku desu ga Zense no Kioku ga Haeta node Hiyoko na Otouto Sodatemasu",
      "rating": 6.75,
      "classificacao_etaria": "A14",
      "imagem_original": "https://animefire.plus/img/animes/shirobuta-kizoku-desu-ga-zense-no-kioku-ga-haeta-node-hiyoko-na-otouto-sodatemasu.webp",
      "imagem_pasta": "https://animefire.plus/img/animes/shirobuta-kizoku-desu-ga-zense-no-kioku-ga-haeta-node-hiyoko-na-otouto-sodatemasu/",
      "secao": "legendados",
      "pagina": 3,
      "total_episodios": 12,
      "link_video": "https://animefire.plus/video/shirobuta-kizoku-desu-ga-zense-no-kioku-ga-haeta-node-hiyoko-na-otouto-sodatemasu"
    },
    {
      "id": 3480,
      "nome": "Shirogane no Ishi: Argevollen",
      "link": "https://animefire.plus/animes/shirogane-no-ishi-argevollen-todos-os-episodios",
      "texto_original": "Shirogane no Ishi: Argevollen",
      "rating": 6.53,
      "classificacao_etaria": "A16",
      "imagem_original": "https://animefire.plus/img/animes/shirogane-no-ishi-argevollen.webp",
      "imagem_pasta": "https://animefire.plus/img/animes/shirogane-no-ishi-argevollen/",
      "secao": "legendados",
      "pagina": 138,
      "total_episodios": 2,
      "link_video": "https://animefire.plus/video/shirogane-no-ishi-argevollen"
    },
    {
      "id": 3482,
      "nome": "Shironeko Project: Zero Chronicle",
      "link": "https://animefire.plus/animes/shironeko-project-zero-chronicle-todos-os-episodios",
      "texto_original": "Shironeko Project: Zero Chronicle",
      "rating": 5.3,
      "classificacao_etaria": "A14",
      "imagem_original": "https://animefire.plus/img/animes/shironeko-project-zero-chronicle.webp",
      "imagem_pasta": "https://animefire.plus/img/animes/shironeko-project-zero-chronicle/",
      "secao": "legendados",
      "pagina": 81,
      "total_episodios": 0,
      "link_video": "https://animefire.plus/video/shironeko-project-zero-chronicle"
    },
    {
      "id": 3483,
      "nome": "Shishunki Bishoujo Gattai Robo Z-Mind",
      "link": "https://animefire.plus/animes/shishunki-bishoujo-gattai-robo-z-mind-todos-os-episodios",
      "texto_original": "Shishunki Bishoujo Gattai Robo Z-Mind",
      "rating": 5.9,
      "classificacao_etaria": "A14",
      "imagem_original": "https://animefire.plus/img/animes/shishunki-bishoujo-gattai-robo-z-mind.webp",
      "imagem_pasta": "https://animefire.plus/img/animes/shishunki-bishoujo-gattai-robo-z-mind/",
      "secao": "legendados",
      "pagina": 56,
      "total_episodios": 3,
      "link_video": "https://animefire.plus/video/shishunki-bishoujo-gattai-robo-z-mind"
    },
    {
      "id": 3485,
      "nome": "Shiyan Pin Jiating",
      "link": "https://animefire.plus/animes/shiyan-pin-jiating-todos-os-episodios",
      "texto_original": "Shiyan Pin Jiating",
      "rating": 6.41,
      "classificacao_etaria": "A14",
      "imagem_original": "https://animefire.plus/img/animes/shiyan-pin-jiating.webp",
      "imagem_pasta": "https://animefire.plus/img/animes/shiyan-pin-jiating/",
      "secao": "legendados",
      "pagina": 114,
      "total_episodios": 12,
      "link_video": "https://animefire.plus/video/shiyan-pin-jiating"
    }
  ],
  "pagination": {
    "current_page": 73,
    "per_page": 20,
    "total_items": 1805,
    "total_pages": 91,
    "has_next": true,
    "has_prev": true
  }
}
