{
  "message": "Animes com rating entre 5 e 7",
  "rating_range": {
    "min": 5,
    "max": 7
  },
  "data": [
    {
      "id": 3646,
      "nome": "Strike the Blood Final",
      "link": "https://animefire.plus/animes/strike-the-blood-final-todos-os-episodios",
      "texto_original": "Strike the Blood Final",
      "rating": 6.89,
      "classificacao_etaria": "A18",
      "imagem_original": "https://animefire.plus/img/animes/strike-the-blood-final.webp",
      "imagem_pasta": "https://animefire.plus/img/animes/strike-the-blood-final/",
      "secao": "legendados,lancamentos",
      "pagina": 35,
      "total_episodios": 0,
      "link_video": "https://animefire.plus/video/strike-the-blood-final"
    },
    {
      "id": 3650,
      "nome": "Strike the Blood: Kieta Seisou-hen",
      "link": "https://animefire.plus/animes/strike-the-blood-kieta-seisou-hen-todos-os-episodios",
      "texto_original": "Strike the Blood: Kieta Seisou-hen",
      "rating": 6.89,
      "classificacao_etaria": "A18",
      "imagem_original": "https://animefire.plus/img/animes/strike-the-blood-kieta-seisou-hen.webp",
      "imagem_pasta": "https://animefire.plus/img/animes/strike-the-blood-kieta-seisou-hen/",
      "secao": "legendados",
      "pagina": 91,
      "total_episodios": 1,
      "link_video": "https://animefire.plus/video/strike-the-blood-kieta-seisou-hen"
    },
    {
      "id": 3654,
      "nome": "Strike Witches OVA",
      "link": "https://animefire.plus/animes/strike-witches-ova-todos-os-episodios",
      "texto_original": "Strike Witches OVA",
      "rating": 6.28,
      "classificacao_etaria": "A14",
      "imagem_original": "https://animefire.plus/img/animes/strike-witches-ova.webp",
      "imagem_pasta": "https://animefire.plus/img/animes/strike-witches-ova/",
      "secao": "legendados",
      "pagina": 44,
      "total_episodios": 1,
      "link_video": "https://animefire.plus/video/strike-witches-ova"
    },
    {
      "id": 3655,
      "nome": "Strike Witches: 501 Butai Hasshin Shimasu!",
      "link": "https://animefire.plus/animes/strike-witches-501-butai-hasshin-shimasu-todos-os-episodios",
      "texto_original": "Strike Witches: 501 Butai Hasshin Shimasu!",
      "rating": 6.48,
      "classificacao_etaria": "A14",
      "imagem_original": "https://animefire.plus/img/animes/strike-witches-501-butai-hasshin-shimasu.webp",
      "imagem_pasta": "https://animefire.plus/img/animes/strike-witches-501-butai-hasshin-shimasu/",
      "secao": "legendados",
      "pagina": 159,
      "total_episodios": 12,
      "link_video": "https://animefire.plus/video/strike-witches-501-butai-hasshin-shimasu"
    },
    {
      "id": 3658,
      "nome": "Subarashiki Kono Sekai The Animation (Dublado)",
      "link": "https://animefire.plus/animes/subarashiki-kono-sekai-the-animation-dublado-todos-os-episodios",
      "texto_original": "Subarashiki Kono Sekai The Animation (Dublado)",
      "rating": 6.15,
      "classificacao_etaria": "A14",
      "imagem_original": "https://animefire.plus/img/animes/subarashiki-kono-sekai-the-animation.webp",
      "imagem_pasta": "https://animefire.plus/img/animes/subarashiki-kono-sekai-the-animation/",
      "secao": "dublados,legendados",
      "pagina": 17,
      "total_episodios": 12,
      "link_video": "https://animefire.plus/video/subarashiki-kono-sekai-the-animation-dublado"
    },
    {
      "id": 3660,
      "nome": "Submarine Super 99",
      "link": "https://animefire.plus/animes/submarine-super-99-todos-os-episodios",
      "texto_original": "Submarine Super 99",
      "rating": 6.35,
      "classificacao_etaria": "A14",
      "imagem_original": "https://animefire.plus/img/animes/submarine-super-99.webp",
      "imagem_pasta": "https://animefire.plus/img/animes/submarine-super-99/",
      "secao": "legendados",
      "pagina": 98,
      "total_episodios": 13,
      "link_video": "https://animefire.plus/video/submarine-super-99"
    },
    {
      "id": 3667,
      "nome": "Sukeban Deka (Dublado)",
      "link": "https://animefire.plus/animes/sukeban-deka-dublado-todos-os-episodios",
      "texto_original": "Sukeban Deka (Dublado)",
      "rating": 6.51,
      "classificacao_etaria": "A16",
      "imagem_original": "https://animefire.plus/img/animes/sukeban-deka.webp",
      "imagem_pasta": "https://animefire.plus/img/animes/sukeban-deka/",
      "secao": "dublados",
      "pagina": 22,
      "total_episodios": 2,
      "link_video": "https://animefire.plus/video/sukeban-deka-dublado"
    },
    {
      "id": 3673,
      "nome": "Sumomomo Momomo: Chijou Saikyou no Yome",
      "link": "https://animefire.plus/animes/sumomomo-momomo-chijou-saikyou-no-yome-todos-os-episodios",
      "texto_original": "Sumomomo Momomo: Chijou Saikyou no Yome",
      "rating": 7,
      "classificacao_etaria": "A14",
      "imagem_original": "https://animefire.plus/img/animes/sumomomo-momomo-chijou-saikyou-no-yome.webp",
      "imagem_pasta": "https://animefire.plus/img/animes/sumomomo-momomo-chijou-saikyou-no-yome/",
      "secao": "legendados",
      "pagina": 157,
      "total_episodios": 24,
      "link_video": "https://animefire.plus/video/sumomomo-momomo-chijou-saikyou-no-yome"
    },
    {
      "id": 3679,
      "nome": "Super Mario World: Mario to Yoshi no Bouken Land (Dublado)",
      "link": "https://animefire.plus/animes/super-mario-world-mario-to-yoshi-no-bouken-land-dublado-todos-os-episodios",
      "texto_original": "Super Mario World: Mario to Yoshi no Bouken Land (Dublado)",
      "rating": 5.38,
      "classificacao_etaria": null,
      "imagem_original": "https://animefire.plus/img/animes/super-mario-world-mario-to-yoshi-no-bouken-land.webp",
      "imagem_pasta": "https://animefire.plus/img/animes/super-mario-world-mario-to-yoshi-no-bouken-land/",
      "secao": "dublados,legendados",
      "pagina": 23,
      "total_episodios": 1,
      "link_video": "https://animefire.plus/video/super-mario-world-mario-to-yoshi-no-bouken-land-dublado"
    },
    {
      "id": 3680,
      "nome": "Super Robot Taisen OG: Divine Wars",
      "link": "https://animefire.plus/animes/super-robot-taisen-og-divine-wars-todos-os-episodios",
      "texto_original": "Super Robot Taisen OG: Divine Wars",
      "rating": 6.89,
      "classificacao_etaria": "A14",
      "imagem_original": "https://animefire.plus/img/animes/super-robot-taisen-og-divine-wars.webp",
      "imagem_pasta": "https://animefire.plus/img/animes/super-robot-taisen-og-divine-wars/",
      "secao": "legendados",
      "pagina": 141,
      "total_episodios": 26,
      "link_video": "https://animefire.plus/video/super-robot-taisen-og-divine-wars"
    },
    {
      "id": 3682,
      "nome": "Super Seisyun Brothers",
      "link": "https://animefire.plus/animes/super-seisyun-brothers-todos-os-episodios",
      "texto_original": "Super Seisyun Brothers",
      "rating": 6.88,
      "classificacao_etaria": "A14",
      "imagem_original": "https://animefire.plus/img/animes/super-seisyun-brothers.webp",
      "imagem_pasta": "https://animefire.plus/img/animes/super-seisyun-brothers/",
      "secao": "legendados",
      "pagina": 170,
      "total_episodios": 7,
      "link_video": "https://animefire.plus/video/super-seisyun-brothers"
    },
    {
      "id": 3685,
      "nome": "Suzakinishi The Animation",
      "link": "https://animefire.plus/animes/suzakinishi-the-animation-todos-os-episodios",
      "texto_original": "Suzakinishi The Animation",
      "rating": 5.48,
      "classificacao_etaria": "A14",
      "imagem_original": "https://animefire.plus/img/animes/suzakinishi-the-animation.webp",
      "imagem_pasta": "https://animefire.plus/img/animes/suzakinishi-the-animation/",
      "secao": "legendados",
      "pagina": 117,
      "total_episodios": 1,
      "link_video": "https://animefire.plus/video/suzakinishi-the-animation"
    },
    {
      "id": 3689,
      "nome": "Sweet Valerian",
      "link": "https://animefire.plus/animes/sweet-valerian-todos-os-episodios",
      "texto_original": "Sweet Valerian",
      "rating": 5.79,
      "classificacao_etaria": null,
      "imagem_original": "https://animefire.plus/img/animes/sweet-valerian.webp",
      "imagem_pasta": "https://animefire.plus/img/animes/sweet-valerian/",
      "secao": "legendados",
      "pagina": 102,
      "total_episodios": 0,
      "link_video": "https://animefire.plus/video/sweet-valerian"
    },
    {
      "id": 3693,
      "nome": "Sword Art Online II (Dublado)",
      "link": "https://animefire.plus/animes/sword-art-online-ii-dublado-todos-os-episodios",
      "texto_original": "Sword Art Online II (Dublado)",
      "rating": 6.72,
      "classificacao_etaria": "A14",
      "imagem_original": "https://animefire.plus/img/animes/sword-art-online-ii.webp",
      "imagem_pasta": "https://animefire.plus/img/animes/sword-art-online-ii/",
      "secao": "dublados,legendados",
      "pagina": 13,
      "total_episodios": 24,
      "link_video": "https://animefire.plus/video/sword-art-online-ii-dublado"
    },
    {
      "id": 3694,
      "nome": "Sword Art Online II: Sword Art Offline II",
      "link": "https://animefire.plus/animes/sword-art-online-ii-sword-art-offline-ii-todos-os-episodios",
      "texto_original": "Sword Art Online II: Sword Art Offline II",
      "rating": 6.56,
      "classificacao_etaria": "A14",
      "imagem_original": "https://animefire.plus/img/animes/sword-art-online-ii-sword-art-offline-ii.webp",
      "imagem_pasta": "https://animefire.plus/img/animes/sword-art-online-ii-sword-art-offline-ii/",
      "secao": "legendados",
      "pagina": 54,
      "total_episodios": 1,
      "link_video": "https://animefire.plus/video/sword-art-online-ii-sword-art-offline-ii"
    },
    {
      "id": 3698,
      "nome": "Sword Art Online: Extra Edition",
      "link": "https://animefire.plus/animes/sword-art-online-extra-edition-todos-os-episodios",
      "texto_original": "Sword Art Online: Extra Edition",
      "rating": 6.7,
      "classificacao_etaria": "A14",
      "imagem_original": "https://animefire.plus/img/animes/sword-art-online-extra-edition.webp",
      "imagem_pasta": "https://animefire.plus/img/animes/sword-art-online-extra-edition/",
      "secao": "legendados",
      "pagina": 79,
      "total_episodios": 0,
      "link_video": "https://animefire.plus/video/sword-art-online-extra-edition"
    },
    {
      "id": 3699,
      "nome": "Sword Art Online: Sword Art Offline",
      "link": "https://animefire.plus/animes/sword-art-online-sword-art-offline-todos-os-episodios",
      "texto_original": "Sword Art Online: Sword Art Offline",
      "rating": 6.25,
      "classificacao_etaria": "A14",
      "imagem_original": "https://animefire.plus/img/animes/sword-art-online-sword-art-offline.webp",
      "imagem_pasta": "https://animefire.plus/img/animes/sword-art-online-sword-art-offline/",
      "secao": "legendados",
      "pagina": 87,
      "total_episodios": 9,
      "link_video": "https://animefire.plus/video/sword-art-online-sword-art-offline"
    },
    {
      "id": 3700,
      "nome": "Sword Gai: The Animation",
      "link": "https://animefire.plus/animes/sword-gai-the-animation-todos-os-episodios",
      "texto_original": "Sword Gai: The Animation",
      "rating": 6.08,
      "classificacao_etaria": "A16",
      "imagem_original": "https://animefire.plus/img/animes/sword-gai-the-animation.webp",
      "imagem_pasta": "https://animefire.plus/img/animes/sword-gai-the-animation/",
      "secao": "legendados",
      "pagina": 176,
      "total_episodios": 12,
      "link_video": "https://animefire.plus/video/sword-gai-the-animation"
    },
    {
      "id": 3701,
      "nome": "Sword Gai: The Animation Part II",
      "link": "https://animefire.plus/animes/sword-gai-the-animation-part-ii-todos-os-episodios",
      "texto_original": "Sword Gai: The Animation Part II",
      "rating": 6.07,
      "classificacao_etaria": "A16",
      "imagem_original": "https://animefire.plus/img/animes/sword-gai-the-animation-part-ii.webp",
      "imagem_pasta": "https://animefire.plus/img/animes/sword-gai-the-animation-part-ii/",
      "secao": "legendados",
      "pagina": 124,
      "total_episodios": 12,
      "link_video": "https://animefire.plus/video/sword-gai-the-animation-part-ii"
    },
    {
      "id": 3702,
      "nome": "Synduality: Noir",
      "link": "https://animefire.plus/animes/synduality-noir-todos-os-episodios",
      "texto_original": "Synduality: Noir",
      "rating": 6.81,
      "classificacao_etaria": "A14",
      "imagem_original": "https://animefire.plus/img/animes/synduality-noir.webp",
      "imagem_pasta": "https://animefire.plus/img/animes/synduality-noir/",
      "secao": "legendados,lancamentos",
      "pagina": 22,
      "total_episodios": 11,
      "link_video": "https://animefire.plus/video/synduality-noir"
    }
  ],
  "pagination": {
    "current_page": 77,
    "per_page": 20,
    "total_items": 1805,
    "total_pages": 91,
    "has_next": true,
    "has_prev": true
  }
}
