{
  "message": "Animes com rating entre 5 e 7",
  "rating_range": {
    "min": 5,
    "max": 7
  },
  "data": [
    {
      "id": 3190,
      "nome": "Saijaku Muhai no Bahamut",
      "link": "https://animefire.plus/animes/saijaku-muhai-no-bahamut-todos-os-episodios",
      "texto_original": "Saijaku Muhai no Bahamut",
      "rating": 6.84,
      "classificacao_etaria": "A14",
      "imagem_original": "https://animefire.plus/img/animes/saijaku-muhai-no-bahamut.webp",
      "imagem_pasta": "https://animefire.plus/img/animes/saijaku-muhai-no-bahamut/",
      "secao": "legendados",
      "pagina": 158,
      "total_episodios": 1,
      "link_video": "https://animefire.plus/video/saijaku-muhai-no-bahamut"
    },
    {
      "id": 3196,
      "nome": "Saikin Yatotta Maid ga Ayashii",
      "link": "https://animefire.plus/animes/saikin-yatotta-maid-ga-ayashii-todos-os-episodios",
      "texto_original": "Saikin Yatotta Maid ga Ayashii",
      "rating": 6.57,
      "classificacao_etaria": "A14",
      "imagem_original": "https://animefire.plus/img/animes/saikin-yatotta-maid-ga-ayashii.webp",
      "imagem_pasta": "https://animefire.plus/img/animes/saikin-yatotta-maid-ga-ayashii/",
      "secao": "legendados",
      "pagina": 30,
      "total_episodios": 11,
      "link_video": "https://animefire.plus/video/saikin-yatotta-maid-ga-ayashii"
    },
    {
      "id": 3197,
      "nome": "Saikin, Imouto no Yousu ga Chotto Okashiinda ga.",
      "link": "https://animefire.plus/animes/saikin-imouto-no-yousu-ga-chotto-okashiinda-ga-todos-os-episodios",
      "texto_original": "Saikin, Imouto no Yousu ga Chotto Okashiinda ga.",
      "rating": 6.38,
      "classificacao_etaria": "A14",
      "imagem_original": "https://animefire.plus/img/animes/saikin-imouto-no-yousu-ga-chotto-okashiinda-ga.webp",
      "imagem_pasta": "https://animefire.plus/img/animes/saikin-imouto-no-yousu-ga-chotto-okashiinda-ga/",
      "secao": "legendados",
      "pagina": 112,
      "total_episodios": 12,
      "link_video": "https://animefire.plus/video/saikin-imouto-no-yousu-ga-chotto-okashiinda-ga"
    },
    {
      "id": 3198,
      "nome": "Saikyou no Ousama, Nidome no Jinsei wa Nani wo Suru?",
      "link": "https://animefire.plus/animes/saikyou-no-ousama-nidome-no-jinsei-wa-nani-wo-suru-todos-os-episodios",
      "texto_original": "Saikyou no Ousama, Nidome no Jinsei wa Nani wo Suru?",
      "rating": 6.14,
      "classificacao_etaria": "A14",
      "imagem_original": "https://animefire.plus/img/animes/saikyou-no-ousama-nidome-no-jinsei-wa-nani-wo-suru.webp",
      "imagem_pasta": "https://animefire.plus/img/animes/saikyou-no-ousama-nidome-no-jinsei-wa-nani-wo-suru/",
      "secao": "legendados",
      "pagina": 6,
      "total_episodios": 12,
      "link_video": "https://animefire.plus/video/saikyou-no-ousama-nidome-no-jinsei-wa-nani-wo-suru"
    },
    {
      "id": 3201,
      "nome": "Saikyou Tank no Meikyuu Kouryaku: Tairyoku 9999 no Rare Skill-mochi Tank, Yuusha Party wo Tsuihou sareru",
      "link": "https://animefire.plus/animes/saikyou-tank-no-meikyuu-kouryaku-tairyoku-9999-no-rare-skill-mochi-tank-yuusha-party-wo-tsuihou-sareru-todos-os-episodios",
      "texto_original": "Saikyou Tank no Meikyuu Kouryaku: Tairyoku 9999 no Rare Skill-mochi Tank, Yuusha Party wo Tsuihou sareru",
      "rating": 6.13,
      "classificacao_etaria": "A14",
      "imagem_original": "https://animefire.plus/img/animes/saikyou-tank-no-meikyuu-kouryaku-tairyoku-9999-no-rare-skill-mochi-tank-yuusha-party-wo-tsuihou-sareru.webp",
      "imagem_pasta": "https://animefire.plus/img/animes/saikyou-tank-no-meikyuu-kouryaku-tairyoku-9999-no-rare-skill-mochi-tank-yuusha-party-wo-tsuihou-sareru/",
      "secao": "legendados",
      "pagina": 17,
      "total_episodios": 2,
      "link_video": "https://animefire.plus/video/saikyou-tank-no-meikyuu-kouryaku-tairyoku-9999-no-rare-skill-mochi-tank-yuusha-party-wo-tsuihou-sareru"
    },
    {
      "id": 3202,
      "nome": "Sailor Victory",
      "link": "https://animefire.plus/animes/sailor-victory-todos-os-episodios",
      "texto_original": "Sailor Victory",
      "rating": 5.88,
      "classificacao_etaria": "A18",
      "imagem_original": "https://animefire.plus/img/animes/sailor-victory.webp",
      "imagem_pasta": "https://animefire.plus/img/animes/sailor-victory/",
      "secao": "legendados",
      "pagina": 145,
      "total_episodios": 13,
      "link_video": "https://animefire.plus/video/sailor-victory"
    },
    {
      "id": 3203,
      "nome": "Saint Beast: Kouin Jojishi Tenshi Tan",
      "link": "https://animefire.plus/animes/saint-beast-kouin-jojishi-tenshi-tan-todos-os-episodios",
      "texto_original": "Saint Beast: Kouin Jojishi Tenshi Tan",
      "rating": 6.42,
      "classificacao_etaria": "A14",
      "imagem_original": "https://animefire.plus/img/animes/saint-beast-kouin-jojishi-tenshi-tan.webp",
      "imagem_pasta": "https://animefire.plus/img/animes/saint-beast-kouin-jojishi-tenshi-tan/",
      "secao": "legendados",
      "pagina": 102,
      "total_episodios": 13,
      "link_video": "https://animefire.plus/video/saint-beast-kouin-jojishi-tenshi-tan"
    },
    {
      "id": 3204,
      "nome": "Saint Beast: Seijuu Kourin-hen",
      "link": "https://animefire.plus/animes/saint-beast-seijuu-kourin-hen-todos-os-episodios",
      "texto_original": "Saint Beast: Seijuu Kourin-hen",
      "rating": 6.06,
      "classificacao_etaria": "A14",
      "imagem_original": "https://animefire.plus/img/animes/saint-beast-seijuu-kourin-hen.webp",
      "imagem_pasta": "https://animefire.plus/img/animes/saint-beast-seijuu-kourin-hen/",
      "secao": "legendados",
      "pagina": 139,
      "total_episodios": 6,
      "link_video": "https://animefire.plus/video/saint-beast-seijuu-kourin-hen"
    },
    {
      "id": 3206,
      "nome": "Saint Seiya Omega (Dublado)",
      "link": "https://animefire.plus/animes/saint-seiya-omega-dublado-todos-os-episodios",
      "texto_original": "Saint Seiya Omega (Dublado)",
      "rating": 6.3,
      "classificacao_etaria": "A14",
      "imagem_original": "https://animefire.plus/img/animes/saint-seiya-omega.webp",
      "imagem_pasta": "https://animefire.plus/img/animes/saint-seiya-omega/",
      "secao": "dublados",
      "pagina": 20,
      "total_episodios": 97,
      "link_video": "https://animefire.plus/video/saint-seiya-omega-dublado"
    },
    {
      "id": 3207,
      "nome": "Saint Seiya: Knights of the Zodiac - Battle Sanctuary Part 2",
      "link": "https://animefire.plus/animes/saint-seiya-knights-of-the-zodiac---battle-sanctuary-part-2-todos-os-episodios",
      "texto_original": "Saint Seiya: Knights of the Zodiac - Battle Sanctuary Part 2",
      "rating": 6.44,
      "classificacao_etaria": "A14",
      "imagem_original": "https://animefire.plus/img/animes/saint-seiya-knights-of-the-zodiac---battle-sanctuary-part-2.webp",
      "imagem_pasta": "https://animefire.plus/img/animes/saint-seiya-knights-of-the-zodiac---battle-sanctuary-part-2/",
      "secao": "legendados,lancamentos",
      "pagina": 14,
      "total_episodios": 2,
      "link_video": "https://animefire.plus/video/saint-seiya-knights-of-the-zodiac---battle-sanctuary-part-2"
    },
    {
      "id": 3210,
      "nome": "Saint Seiya: Saintia Shou",
      "link": "https://animefire.plus/animes/saint-seiya-saintia-shou-todos-os-episodios",
      "texto_original": "Saint Seiya: Saintia Shou",
      "rating": 5.7,
      "classificacao_etaria": "A14",
      "imagem_original": "https://animefire.plus/img/animes/saint-seiya-saintia-shou.webp",
      "imagem_pasta": "https://animefire.plus/img/animes/saint-seiya-saintia-shou/",
      "secao": "legendados",
      "pagina": 139,
      "total_episodios": 10,
      "link_video": "https://animefire.plus/video/saint-seiya-saintia-shou"
    },
    {
      "id": 3222,
      "nome": "Saiyuuki Reload: Zeroin",
      "link": "https://animefire.plus/animes/saiyuuki-reload-zeroin-todos-os-episodios",
      "texto_original": "Saiyuuki Reload: Zeroin",
      "rating": 6.65,
      "classificacao_etaria": "A14",
      "imagem_original": "https://animefire.plus/img/animes/saiyuuki-reload-zeroin.webp",
      "imagem_pasta": "https://animefire.plus/img/animes/saiyuuki-reload-zeroin/",
      "secao": "legendados",
      "pagina": 35,
      "total_episodios": 13,
      "link_video": "https://animefire.plus/video/saiyuuki-reload-zeroin"
    },
    {
      "id": 3229,
      "nome": "Saki Biyori Animation",
      "link": "https://animefire.plus/animes/saki-biyori-animation-todos-os-episodios",
      "texto_original": "Saki Biyori Animation",
      "rating": 6.76,
      "classificacao_etaria": "A14",
      "imagem_original": "https://animefire.plus/img/animes/saki-biyori-animation.webp",
      "imagem_pasta": "https://animefire.plus/img/animes/saki-biyori-animation/",
      "secao": "legendados",
      "pagina": 106,
      "total_episodios": 1,
      "link_video": "https://animefire.plus/video/saki-biyori-animation"
    },
    {
      "id": 3232,
      "nome": "Sakugan (Dublado)",
      "link": "https://animefire.plus/animes/sakugan-dublado-todos-os-episodios",
      "texto_original": "Sakugan (Dublado)",
      "rating": 6.51,
      "classificacao_etaria": "A14",
      "imagem_original": "https://animefire.plus/img/animes/sakugan.webp",
      "imagem_pasta": "https://animefire.plus/img/animes/sakugan/",
      "secao": "dublados,legendados",
      "pagina": 14,
      "total_episodios": 12,
      "link_video": "https://animefire.plus/video/sakugan-dublado"
    },
    {
      "id": 3233,
      "nome": "Sakura Internet",
      "link": "https://animefire.plus/animes/sakura-internet-todos-os-episodios",
      "texto_original": "Sakura Internet",
      "rating": 5.76,
      "classificacao_etaria": "A14",
      "imagem_original": "https://animefire.plus/img/animes/sakura-internet.webp",
      "imagem_pasta": "https://animefire.plus/img/animes/sakura-internet/",
      "secao": "legendados",
      "pagina": 85,
      "total_episodios": 1,
      "link_video": "https://animefire.plus/video/sakura-internet"
    },
    {
      "id": 3235,
      "nome": "Sakura Taisen",
      "link": "https://animefire.plus/animes/sakura-taisen-todos-os-episodios",
      "texto_original": "Sakura Taisen",
      "rating": 6.95,
      "classificacao_etaria": "A14",
      "imagem_original": "https://animefire.plus/img/animes/sakura-taisen.webp",
      "imagem_pasta": "https://animefire.plus/img/animes/sakura-taisen/",
      "secao": "legendados",
      "pagina": 176,
      "total_episodios": 25,
      "link_video": "https://animefire.plus/video/sakura-taisen"
    },
    {
      "id": 3237,
      "nome": "Sakura Tsuushin",
      "link": "https://animefire.plus/animes/sakura-tsuushin-todos-os-episodios",
      "texto_original": "Sakura Tsuushin",
      "rating": 6.27,
      "classificacao_etaria": "A18",
      "imagem_original": "https://animefire.plus/img/animes/sakura-tsuushin.webp",
      "imagem_pasta": "https://animefire.plus/img/animes/sakura-tsuushin/",
      "secao": "legendados",
      "pagina": 124,
      "total_episodios": 12,
      "link_video": "https://animefire.plus/video/sakura-tsuushin"
    },
    {
      "id": 3241,
      "nome": "Salaryman ga Isekai ni Ittara Shitennou ni Natta Hanashi",
      "link": "https://animefire.plus/animes/salaryman-ga-isekai-ni-ittara-shitennou-ni-natta-hanashi-todos-os-episodios",
      "texto_original": "Salaryman ga Isekai ni Ittara Shitennou ni Natta Hanashi",
      "rating": 6.59,
      "classificacao_etaria": "A14",
      "imagem_original": "https://animefire.plus/img/animes/salaryman-ga-isekai-ni-ittara-shitennou-ni-natta-hanashi.webp",
      "imagem_pasta": "https://animefire.plus/img/animes/salaryman-ga-isekai-ni-ittara-shitennou-ni-natta-hanashi/",
      "secao": "legendados",
      "pagina": 8,
      "total_episodios": 12,
      "link_video": "https://animefire.plus/video/salaryman-ga-isekai-ni-ittara-shitennou-ni-natta-hanashi"
    },
    {
      "id": 3244,
      "nome": "Samurai Deeper Kyou",
      "link": "https://animefire.plus/animes/samurai-deeper-kyou-todos-os-episodios",
      "texto_original": "Samurai Deeper Kyou",
      "rating": 6.98,
      "classificacao_etaria": "A14",
      "imagem_original": "https://animefire.plus/img/animes/samurai-deeper-kyou.webp",
      "imagem_pasta": "https://animefire.plus/img/animes/samurai-deeper-kyou/",
      "secao": "legendados",
      "pagina": 120,
      "total_episodios": 26,
      "link_video": "https://animefire.plus/video/samurai-deeper-kyou"
    },
    {
      "id": 3245,
      "nome": "Samurai Flamenco",
      "link": "https://animefire.plus/animes/samurai-flamenco-todos-os-episodios",
      "texto_original": "Samurai Flamenco",
      "rating": 6.92,
      "classificacao_etaria": "A16",
      "imagem_original": "https://animefire.plus/img/animes/samurai-flamenco.webp",
      "imagem_pasta": "https://animefire.plus/img/animes/samurai-flamenco/",
      "secao": "legendados",
      "pagina": 65,
      "total_episodios": 22,
      "link_video": "https://animefire.plus/video/samurai-flamenco"
    }
  ],
  "pagination": {
    "current_page": 68,
    "per_page": 20,
    "total_items": 1805,
    "total_pages": 91,
    "has_next": true,
    "has_prev": true
  }
}
