{
  "message": "Animes com rating entre 5 e 7",
  "rating_range": {
    "min": 5,
    "max": 7
  },
  "data": [
    {
      "id": 3050,
      "nome": "Pupipo!",
      "link": "https://animefire.plus/animes/pupipo-todos-os-episodios",
      "texto_original": "Pupipo!",
      "rating": 6.83,
      "classificacao_etaria": "A10",
      "imagem_original": "https://animefire.plus/img/animes/pupipo.webp",
      "imagem_pasta": "https://animefire.plus/img/animes/pupipo/",
      "secao": "legendados",
      "pagina": 79,
      "total_episodios": 14,
      "link_video": "https://animefire.plus/video/pupipo"
    },
    {
      "id": 3051,
      "nome": "Puraore! Pride of Orange",
      "link": "https://animefire.plus/animes/puraore-pride-of-orange-todos-os-episodios",
      "texto_original": "Puraore! Pride of Orange",
      "rating": 6.23,
      "classificacao_etaria": "A14",
      "imagem_original": "https://animefire.plus/img/animes/puraore-pride-of-orange.webp",
      "imagem_pasta": "https://animefire.plus/img/animes/puraore-pride-of-orange/",
      "secao": "legendados",
      "pagina": 38,
      "total_episodios": 12,
      "link_video": "https://animefire.plus/video/puraore-pride-of-orange"
    },
    {
      "id": 3052,
      "nome": "Qualidea Code",
      "link": "https://animefire.plus/animes/qualidea-code-todos-os-episodios",
      "texto_original": "Qualidea Code",
      "rating": 6.58,
      "classificacao_etaria": "A14",
      "imagem_original": "https://animefire.plus/img/animes/qualidea-code.webp",
      "imagem_pasta": "https://animefire.plus/img/animes/qualidea-code/",
      "secao": "legendados",
      "pagina": 80,
      "total_episodios": 12,
      "link_video": "https://animefire.plus/video/qualidea-code"
    },
    {
      "id": 3054,
      "nome": "Quanzhi Fashi 2nd Season",
      "link": "https://animefire.plus/animes/quanzhi-fashi-2nd-season-todos-os-episodios",
      "texto_original": "Quanzhi Fashi 2nd Season",
      "rating": 6.76,
      "classificacao_etaria": "A14",
      "imagem_original": "https://animefire.plus/img/animes/quanzhi-fashi-2nd-season.webp",
      "imagem_pasta": "https://animefire.plus/img/animes/quanzhi-fashi-2nd-season/",
      "secao": "legendados",
      "pagina": 177,
      "total_episodios": 12,
      "link_video": "https://animefire.plus/video/quanzhi-fashi-2nd-season"
    },
    {
      "id": 3059,
      "nome": "Queen's Blade: Gyokuza wo Tsugu Mono",
      "link": "https://animefire.plus/animes/queen-s-blade-gyokuza-wo-tsugu-mono-todos-os-episodios",
      "texto_original": "Queen's Blade: Gyokuza wo Tsugu Mono",
      "rating": 6.66,
      "classificacao_etaria": "A18",
      "imagem_original": "https://animefire.plus/img/animes/queen-s-blade-gyokuza-wo-tsugu-mono.webp",
      "imagem_pasta": "https://animefire.plus/img/animes/queen-s-blade-gyokuza-wo-tsugu-mono/",
      "secao": "legendados",
      "pagina": 141,
      "total_episodios": 12,
      "link_video": "https://animefire.plus/video/queen-s-blade-gyokuza-wo-tsugu-mono"
    },
    {
      "id": 3060,
      "nome": "Queen's Blade: Rebellion",
      "link": "https://animefire.plus/animes/queen-s-blade-rebellion-todos-os-episodios",
      "texto_original": "Queen's Blade: Rebellion",
      "rating": 6.42,
      "classificacao_etaria": "A18",
      "imagem_original": "https://animefire.plus/img/animes/queen-s-blade-rebellion.webp",
      "imagem_pasta": "https://animefire.plus/img/animes/queen-s-blade-rebellion/",
      "secao": "legendados",
      "pagina": 178,
      "total_episodios": 0,
      "link_video": "https://animefire.plus/video/queen-s-blade-rebellion"
    },
    {
      "id": 3061,
      "nome": "Queen's Blade: Rurou no Senshi",
      "link": "https://animefire.plus/animes/queen-s-blade-rurou-no-senshi-todos-os-episodios",
      "texto_original": "Queen's Blade: Rurou no Senshi",
      "rating": 6.25,
      "classificacao_etaria": "A18",
      "imagem_original": "https://animefire.plus/img/animes/queen-s-blade-rurou-no-senshi.webp",
      "imagem_pasta": "https://animefire.plus/img/animes/queen-s-blade-rurou-no-senshi/",
      "secao": "legendados",
      "pagina": 147,
      "total_episodios": 12,
      "link_video": "https://animefire.plus/video/queen-s-blade-rurou-no-senshi"
    },
    {
      "id": 3062,
      "nome": "R-15",
      "link": "https://animefire.plus/animes/r-15-todos-os-episodios",
      "texto_original": "R-15",
      "rating": 6.6,
      "classificacao_etaria": "A18",
      "imagem_original": "https://animefire.plus/img/animes/r-15.webp",
      "imagem_pasta": "https://animefire.plus/img/animes/r-15/",
      "secao": "legendados",
      "pagina": 120,
      "total_episodios": 0,
      "link_video": "https://animefire.plus/video/r-15"
    },
    {
      "id": 3063,
      "nome": "Radiant (Dublado)",
      "link": "https://animefire.plus/animes/radiant-dublado-todos-os-episodios",
      "texto_original": "Radiant (Dublado)",
      "rating": 6.88,
      "classificacao_etaria": "A14",
      "imagem_original": "https://animefire.plus/img/animes/radiant.webp",
      "imagem_pasta": "https://animefire.plus/img/animes/radiant/",
      "secao": "dublados,legendados",
      "pagina": 18,
      "total_episodios": 21,
      "link_video": "https://animefire.plus/video/radiant-dublado"
    },
    {
      "id": 3067,
      "nome": "Ragnarök The Animation (Dublado)",
      "link": "https://animefire.plus/animes/ragnaroek-the-animation-dublado-todos-os-episodios",
      "texto_original": "Ragnarök The Animation (Dublado)",
      "rating": 6.49,
      "classificacao_etaria": "A14",
      "imagem_original": "https://animefire.plus/img/animes/ragnaroek-the-animation.webp",
      "imagem_pasta": "https://animefire.plus/img/animes/ragnaroek-the-animation/",
      "secao": "dublados,legendados",
      "pagina": 23,
      "total_episodios": 26,
      "link_video": "https://animefire.plus/video/ragnaroek-the-animation-dublado"
    },
    {
      "id": 3070,
      "nome": "Rail Wars!",
      "link": "https://animefire.plus/animes/rail-wars-todos-os-episodios",
      "texto_original": "Rail Wars!",
      "rating": 6.46,
      "classificacao_etaria": "A14",
      "imagem_original": "https://animefire.plus/img/animes/rail-wars.webp",
      "imagem_pasta": "https://animefire.plus/img/animes/rail-wars/",
      "secao": "legendados",
      "pagina": 151,
      "total_episodios": 8,
      "link_video": "https://animefire.plus/video/rail-wars"
    },
    {
      "id": 3075,
      "nome": "Rakugo Tennyo Oyui",
      "link": "https://animefire.plus/animes/rakugo-tennyo-oyui-todos-os-episodios",
      "texto_original": "Rakugo Tennyo Oyui",
      "rating": 6.09,
      "classificacao_etaria": "A14",
      "imagem_original": "https://animefire.plus/img/animes/rakugo-tennyo-oyui.webp",
      "imagem_pasta": "https://animefire.plus/img/animes/rakugo-tennyo-oyui/",
      "secao": "legendados",
      "pagina": 166,
      "total_episodios": 12,
      "link_video": "https://animefire.plus/video/rakugo-tennyo-oyui"
    },
    {
      "id": 3077,
      "nome": "Ramen Daisuki Koizumi-san",
      "link": "https://animefire.plus/animes/ramen-daisuki-koizumi-san-todos-os-episodios",
      "texto_original": "Ramen Daisuki Koizumi-san",
      "rating": 6.54,
      "classificacao_etaria": "A14",
      "imagem_original": "https://animefire.plus/img/animes/ramen-daisuki-koizumi-san.webp",
      "imagem_pasta": "https://animefire.plus/img/animes/ramen-daisuki-koizumi-san/",
      "secao": "legendados",
      "pagina": 133,
      "total_episodios": 12,
      "link_video": "https://animefire.plus/video/ramen-daisuki-koizumi-san"
    },
    {
      "id": 3078,
      "nome": "Rang Wo Men Shao Ba",
      "link": "https://animefire.plus/animes/rang-wo-men-shao-ba-todos-os-episodios",
      "texto_original": "Rang Wo Men Shao Ba",
      "rating": 6.03,
      "classificacao_etaria": "A14",
      "imagem_original": "https://animefire.plus/img/animes/rang-wo-men-shao-ba.webp",
      "imagem_pasta": "https://animefire.plus/img/animes/rang-wo-men-shao-ba/",
      "secao": "legendados",
      "pagina": 82,
      "total_episodios": 2,
      "link_video": "https://animefire.plus/video/rang-wo-men-shao-ba"
    },
    {
      "id": 3081,
      "nome": "Ranpo Kitan: Game of Laplace",
      "link": "https://animefire.plus/animes/ranpo-kitan-game-of-laplace-todos-os-episodios",
      "texto_original": "Ranpo Kitan: Game of Laplace",
      "rating": 6.67,
      "classificacao_etaria": "A16",
      "imagem_original": "https://animefire.plus/img/animes/ranpo-kitan-game-of-laplace.webp",
      "imagem_pasta": "https://animefire.plus/img/animes/ranpo-kitan-game-of-laplace/",
      "secao": "legendados",
      "pagina": 178,
      "total_episodios": 0,
      "link_video": "https://animefire.plus/video/ranpo-kitan-game-of-laplace"
    },
    {
      "id": 3082,
      "nome": "Ray The Animation",
      "link": "https://animefire.plus/animes/ray-the-animation-todos-os-episodios",
      "texto_original": "Ray The Animation",
      "rating": 6.72,
      "classificacao_etaria": "A14",
      "imagem_original": "https://animefire.plus/img/animes/ray-the-animation.webp",
      "imagem_pasta": "https://animefire.plus/img/animes/ray-the-animation/",
      "secao": "legendados",
      "pagina": 131,
      "total_episodios": 13,
      "link_video": "https://animefire.plus/video/ray-the-animation"
    },
    {
      "id": 3084,
      "nome": "RDG: Red Data Girl",
      "link": "https://animefire.plus/animes/rdg-red-data-girl-todos-os-episodios",
      "texto_original": "RDG: Red Data Girl",
      "rating": 6.65,
      "classificacao_etaria": "A14",
      "imagem_original": "https://animefire.plus/img/animes/rdg-red-data-girl.webp",
      "imagem_pasta": "https://animefire.plus/img/animes/rdg-red-data-girl/",
      "secao": "legendados",
      "pagina": 175,
      "total_episodios": 4,
      "link_video": "https://animefire.plus/video/rdg-red-data-girl"
    },
    {
      "id": 3085,
      "nome": "Re-Kan!",
      "link": "https://animefire.plus/animes/re-kan-todos-os-episodios",
      "texto_original": "Re-Kan!",
      "rating": 6.8,
      "classificacao_etaria": "A14",
      "imagem_original": "https://animefire.plus/img/animes/re-kan.webp",
      "imagem_pasta": "https://animefire.plus/img/animes/re-kan/",
      "secao": "legendados",
      "pagina": 91,
      "total_episodios": 4,
      "link_video": "https://animefire.plus/video/re-kan"
    },
    {
      "id": 3089,
      "nome": "Re:Monster (Dublado)",
      "link": "https://animefire.plus/animes/re-monster-dublado-todos-os-episodios",
      "texto_original": "Re:Monster (Dublado)",
      "rating": 6.55,
      "classificacao_etaria": "A14",
      "imagem_original": "https://animefire.plus/img/animes/re-monster.webp",
      "imagem_pasta": "https://animefire.plus/img/animes/re-monster/",
      "secao": "dublados,legendados,lancamentos",
      "pagina": 3,
      "total_episodios": 12,
      "link_video": "https://animefire.plus/video/re-monster-dublado"
    },
    {
      "id": 3090,
      "nome": "Re:Stage! Dream Days♪",
      "link": "https://animefire.plus/animes/re-stage-dream-days-todos-os-episodios",
      "texto_original": "Re:Stage! Dream Days♪",
      "rating": 6.69,
      "classificacao_etaria": "A14",
      "imagem_original": "https://animefire.plus/img/animes/re-stage-dream-days.webp",
      "imagem_pasta": "https://animefire.plus/img/animes/re-stage-dream-days/",
      "secao": "legendados",
      "pagina": 158,
      "total_episodios": 4,
      "link_video": "https://animefire.plus/video/re-stage-dream-days"
    }
  ],
  "pagination": {
    "current_page": 65,
    "per_page": 20,
    "total_items": 1805,
    "total_pages": 91,
    "has_next": true,
    "has_prev": true
  }
}
