{
  "message": "Animes com rating entre 5 e 7",
  "rating_range": {
    "min": 5,
    "max": 7
  },
  "data": [
    {
      "id": 1886,
      "nome": "Kanokon: Manatsu no Dai Shanikusai",
      "link": "https://animefire.plus/animes/kanokon-manatsu-no-dai-shanikusai-todos-os-episodios",
      "texto_original": "Kanokon: Manatsu no Dai Shanikusai",
      "rating": 6.66,
      "classificacao_etaria": "A18",
      "imagem_original": "https://animefire.plus/img/animes/kanokon-manatsu-no-dai-shanikusai.webp",
      "imagem_pasta": "https://animefire.plus/img/animes/kanokon-manatsu-no-dai-shanikusai/",
      "secao": "legendados",
      "pagina": 148,
      "total_episodios": 2,
      "link_video": "https://animefire.plus/video/kanokon-manatsu-no-dai-shanikusai"
    },
    {
      "id": 1888,
      "nome": "Kanon Kazahana",
      "link": "https://animefire.plus/animes/kanon-kazahana-todos-os-episodios",
      "texto_original": "Kanon Kazahana",
      "rating": 6.77,
      "classificacao_etaria": null,
      "imagem_original": "https://animefire.plus/img/animes/kanon-kazahana.webp",
      "imagem_pasta": "https://animefire.plus/img/animes/kanon-kazahana/",
      "secao": "legendados",
      "pagina": 77,
      "total_episodios": 1,
      "link_video": "https://animefire.plus/video/kanon-kazahana"
    },
    {
      "id": 1890,
      "nome": "Kantai Collection: KanColle",
      "link": "https://animefire.plus/animes/kantai-collection-kancolle-todos-os-episodios",
      "texto_original": "Kantai Collection: KanColle",
      "rating": 6.93,
      "classificacao_etaria": "A14",
      "imagem_original": "https://animefire.plus/img/animes/kantai-collection-kancolle.webp",
      "imagem_pasta": "https://animefire.plus/img/animes/kantai-collection-kancolle/",
      "secao": "legendados",
      "pagina": 73,
      "total_episodios": 12,
      "link_video": "https://animefire.plus/video/kantai-collection-kancolle"
    },
    {
      "id": 1900,
      "nome": "Karen Senki",
      "link": "https://animefire.plus/animes/karen-senki-todos-os-episodios",
      "texto_original": "Karen Senki",
      "rating": 5.82,
      "classificacao_etaria": "A14",
      "imagem_original": "https://animefire.plus/img/animes/karen-senki.webp",
      "imagem_pasta": "https://animefire.plus/img/animes/karen-senki/",
      "secao": "legendados",
      "pagina": 178,
      "total_episodios": 4,
      "link_video": "https://animefire.plus/video/karen-senki"
    },
    {
      "id": 1905,
      "nome": "Kashimashi: Girl Meets Girl",
      "link": "https://animefire.plus/animes/kashimashi-girl-meets-girl-todos-os-episodios",
      "texto_original": "Kashimashi: Girl Meets Girl",
      "rating": 6.72,
      "classificacao_etaria": "A14",
      "imagem_original": "https://animefire.plus/img/animes/kashimashi-girl-meets-girl.webp",
      "imagem_pasta": "https://animefire.plus/img/animes/kashimashi-girl-meets-girl/",
      "secao": "legendados",
      "pagina": 171,
      "total_episodios": 0,
      "link_video": "https://animefire.plus/video/kashimashi-girl-meets-girl"
    },
    {
      "id": 1910,
      "nome": "Katsugeki/Touken Ranbu",
      "link": "https://animefire.plus/animes/katsugeki-touken-ranbu-todos-os-episodios",
      "texto_original": "Katsugeki/Touken Ranbu",
      "rating": 6.79,
      "classificacao_etaria": "A14",
      "imagem_original": "https://animefire.plus/img/animes/katsugeki-touken-ranbu.webp",
      "imagem_pasta": "https://animefire.plus/img/animes/katsugeki-touken-ranbu/",
      "secao": "legendados",
      "pagina": 106,
      "total_episodios": 13,
      "link_video": "https://animefire.plus/video/katsugeki-touken-ranbu"
    },
    {
      "id": 1911,
      "nome": "Katsute Kami Datta Kemono-tachi e",
      "link": "https://animefire.plus/animes/katsute-kami-datta-kemono-tachi-e-todos-os-episodios",
      "texto_original": "Katsute Kami Datta Kemono-tachi e",
      "rating": 6.41,
      "classificacao_etaria": "A16",
      "imagem_original": "https://animefire.plus/img/animes/katsute-kami-datta-kemono-tachi-e.webp",
      "imagem_pasta": "https://animefire.plus/img/animes/katsute-kami-datta-kemono-tachi-e/",
      "secao": "legendados",
      "pagina": 112,
      "total_episodios": 0,
      "link_video": "https://animefire.plus/video/katsute-kami-datta-kemono-tachi-e"
    },
    {
      "id": 1913,
      "nome": "Katte ni Shirokuma",
      "link": "https://animefire.plus/animes/katte-ni-shirokuma-todos-os-episodios",
      "texto_original": "Katte ni Shirokuma",
      "rating": 5.64,
      "classificacao_etaria": "A18",
      "imagem_original": "https://animefire.plus/img/animes/katte-ni-shirokuma.webp",
      "imagem_pasta": "https://animefire.plus/img/animes/katte-ni-shirokuma/",
      "secao": "legendados",
      "pagina": 86,
      "total_episodios": 1,
      "link_video": "https://animefire.plus/video/katte-ni-shirokuma"
    },
    {
      "id": 1914,
      "nome": "Kawagoe Boys Sing",
      "link": "https://animefire.plus/animes/kawagoe-boys-sing-todos-os-episodios",
      "texto_original": "Kawagoe Boys Sing",
      "rating": 5.66,
      "classificacao_etaria": "A14",
      "imagem_original": "https://animefire.plus/img/animes/kawagoe-boys-sing.webp",
      "imagem_pasta": "https://animefire.plus/img/animes/kawagoe-boys-sing/",
      "secao": "legendados",
      "pagina": 19,
      "total_episodios": 12,
      "link_video": "https://animefire.plus/video/kawagoe-boys-sing"
    },
    {
      "id": 1915,
      "nome": "Kawaii dake ja Nai Shikimori-san (Dublado)",
      "link": "https://animefire.plus/animes/kawaii-dake-ja-nai-shikimori-san-dublado-todos-os-episodios",
      "texto_original": "Kawaii dake ja Nai Shikimori-san (Dublado)",
      "rating": 6.94,
      "classificacao_etaria": "A14",
      "imagem_original": "https://animefire.plus/img/animes/kawaii-dake-ja-nai-shikimori-san.webp",
      "imagem_pasta": "https://animefire.plus/img/animes/kawaii-dake-ja-nai-shikimori-san/",
      "secao": "dublados,legendados",
      "pagina": 11,
      "total_episodios": 12,
      "link_video": "https://animefire.plus/video/kawaii-dake-ja-nai-shikimori-san-dublado"
    },
    {
      "id": 1916,
      "nome": "Kawaikereba Hentai demo Suki ni Natte Kuremasu ka?",
      "link": "https://animefire.plus/animes/kawaikereba-hentai-demo-suki-ni-natte-kuremasu-ka-todos-os-episodios",
      "texto_original": "Kawaikereba Hentai demo Suki ni Natte Kuremasu ka?",
      "rating": 6.6,
      "classificacao_etaria": "A14",
      "imagem_original": "https://animefire.plus/img/animes/kawaikereba-hentai-demo-suki-ni-natte-kuremasu-ka.webp",
      "imagem_pasta": "https://animefire.plus/img/animes/kawaikereba-hentai-demo-suki-ni-natte-kuremasu-ka/",
      "secao": "legendados",
      "pagina": 162,
      "total_episodios": 5,
      "link_video": "https://animefire.plus/video/kawaikereba-hentai-demo-suki-ni-natte-kuremasu-ka"
    },
    {
      "id": 1917,
      "nome": "Kawaisugi Crisis",
      "link": "https://animefire.plus/animes/kawaisugi-crisis-todos-os-episodios",
      "texto_original": "Kawaisugi Crisis",
      "rating": 6.81,
      "classificacao_etaria": "A14",
      "imagem_original": "https://animefire.plus/img/animes/kawaisugi-crisis.jpg",
      "imagem_pasta": "https://animefire.plus/img/animes/kawaisugi-crisis/",
      "secao": "legendados",
      "pagina": 24,
      "total_episodios": 12,
      "link_video": "https://animefire.plus/video/kawaisugi-crisis"
    },
    {
      "id": 1919,
      "nome": "Kaze no Matasaburou (Movie)",
      "link": "https://animefire.plus/animes/kaze-no-matasaburou-movie-todos-os-episodios",
      "texto_original": "Kaze no Matasaburou (Movie)",
      "rating": 6.15,
      "classificacao_etaria": null,
      "imagem_original": "https://animefire.plus/img/animes/kaze-no-matasaburou-movie.webp",
      "imagem_pasta": "https://animefire.plus/img/animes/kaze-no-matasaburou-movie/",
      "secao": "legendados",
      "pagina": 86,
      "total_episodios": 1,
      "link_video": "https://animefire.plus/video/kaze-no-matasaburou-movie"
    },
    {
      "id": 1922,
      "nome": "Keifuku-san",
      "link": "https://animefire.plus/animes/keifuku-san-todos-os-episodios",
      "texto_original": "Keifuku-san",
      "rating": 5.98,
      "classificacao_etaria": null,
      "imagem_original": "https://animefire.plus/img/animes/keifuku-san.webp",
      "imagem_pasta": "https://animefire.plus/img/animes/keifuku-san/",
      "secao": "legendados",
      "pagina": 65,
      "total_episodios": 1,
      "link_video": "https://animefire.plus/video/keifuku-san"
    },
    {
      "id": 1924,
      "nome": "Keikenzumi na Kimi to, Keiken Zero na Ore ga, Otsukiai suru Hanashi.",
      "link": "https://animefire.plus/animes/keikenzumi-na-kimi-to-keiken-zero-na-ore-ga-otsukiai-suru-hanashi-todos-os-episodios",
      "texto_original": "Keikenzumi na Kimi to, Keiken Zero na Ore ga, Otsukiai suru Hanashi.",
      "rating": 6.76,
      "classificacao_etaria": "A14",
      "imagem_original": "https://animefire.plus/img/animes/keikenzumi-na-kimi-to-keiken-zero-na-ore-ga-otsukiai-suru-hanashi.webp",
      "imagem_pasta": "https://animefire.plus/img/animes/keikenzumi-na-kimi-to-keiken-zero-na-ore-ga-otsukiai-suru-hanashi/",
      "secao": "legendados",
      "pagina": 21,
      "total_episodios": 12,
      "link_video": "https://animefire.plus/video/keikenzumi-na-kimi-to-keiken-zero-na-ore-ga-otsukiai-suru-hanashi"
    },
    {
      "id": 1925,
      "nome": "Keishichou Tokumubu Tokushu Kyouakuhan Taisakushitsu Dainanaka: Tokunana",
      "link": "https://animefire.plus/animes/keishichou-tokumubu-tokushu-kyouakuhan-taisakushitsu-dainanaka-tokunana-todos-os-episodios",
      "texto_original": "Keishichou Tokumubu Tokushu Kyouakuhan Taisakushitsu Dainanaka: Tokunana",
      "rating": 6.02,
      "classificacao_etaria": "A14",
      "imagem_original": "https://animefire.plus/img/animes/keishichou-tokumubu-tokushu-kyouakuhan-taisakushitsu-dainanaka-tokunana.webp",
      "imagem_pasta": "https://animefire.plus/img/animes/keishichou-tokumubu-tokushu-kyouakuhan-taisakushitsu-dainanaka-tokunana/",
      "secao": "legendados",
      "pagina": 110,
      "total_episodios": 12,
      "link_video": "https://animefire.plus/video/keishichou-tokumubu-tokushu-kyouakuhan-taisakushitsu-dainanaka-tokunana"
    },
    {
      "id": 1926,
      "nome": "Keishichou Tokumubu Tokushu Kyouakuhan Taisakushitsu Dainanaka: Tokunana OVA",
      "link": "https://animefire.plus/animes/keishichou-tokumubu-tokushu-kyouakuhan-taisakushitsu-dainanaka-tokunana-ova-todos-os-episodios",
      "texto_original": "Keishichou Tokumubu Tokushu Kyouakuhan Taisakushitsu Dainanaka: Tokunana OVA",
      "rating": 6.03,
      "classificacao_etaria": null,
      "imagem_original": "https://animefire.plus/img/animes/keishichou-tokumubu-tokushu-kyouakuhan-taisakushitsu-dainanaka-tokunana-ova.webp",
      "imagem_pasta": "https://animefire.plus/img/animes/keishichou-tokumubu-tokushu-kyouakuhan-taisakushitsu-dainanaka-tokunana-ova/",
      "secao": "legendados",
      "pagina": 57,
      "total_episodios": 1,
      "link_video": "https://animefire.plus/video/keishichou-tokumubu-tokushu-kyouakuhan-taisakushitsu-dainanaka-tokunana-ova"
    },
    {
      "id": 1927,
      "nome": "Keitai Shoujo",
      "link": "https://animefire.plus/animes/keitai-shoujo-todos-os-episodios",
      "texto_original": "Keitai Shoujo",
      "rating": 5.36,
      "classificacao_etaria": "A14",
      "imagem_original": "https://animefire.plus/img/animes/keitai-shoujo.webp",
      "imagem_pasta": "https://animefire.plus/img/animes/keitai-shoujo/",
      "secao": "legendados",
      "pagina": 131,
      "total_episodios": 5,
      "link_video": "https://animefire.plus/video/keitai-shoujo"
    },
    {
      "id": 1933,
      "nome": "Kekkon Yubiwa Monogatari (Dublado)",
      "link": "https://animefire.plus/animes/kekkon-yubiwa-monogatari-dublado-todos-os-episodios",
      "texto_original": "Kekkon Yubiwa Monogatari (Dublado)",
      "rating": 6.06,
      "classificacao_etaria": "A18",
      "imagem_original": "https://animefire.plus/img/animes/kekkon-yubiwa-monogatari.webp",
      "imagem_pasta": "https://animefire.plus/img/animes/kekkon-yubiwa-monogatari/",
      "secao": "dublados,legendados,lancamentos",
      "pagina": 3,
      "total_episodios": 12,
      "link_video": "https://animefire.plus/video/kekkon-yubiwa-monogatari-dublado"
    },
    {
      "id": 1934,
      "nome": "Kemeko Deluxe!",
      "link": "https://animefire.plus/animes/kemeko-deluxe-todos-os-episodios",
      "texto_original": "Kemeko Deluxe!",
      "rating": 6.67,
      "classificacao_etaria": "A14",
      "imagem_original": "https://animefire.plus/img/animes/kemeko-deluxe.webp",
      "imagem_pasta": "https://animefire.plus/img/animes/kemeko-deluxe/",
      "secao": "legendados",
      "pagina": 137,
      "total_episodios": 12,
      "link_video": "https://animefire.plus/video/kemeko-deluxe"
    }
  ],
  "pagination": {
    "current_page": 42,
    "per_page": 20,
    "total_items": 1805,
    "total_pages": 91,
    "has_next": true,
    "has_prev": true
  }
}
