{
  "message": "Animes com rating entre 5 e 7",
  "rating_range": {
    "min": 5,
    "max": 7
  },
  "data": [
    {
      "id": 1243,
      "nome": "Grandeek",
      "link": "https://animefire.plus/animes/grandeek-todos-os-episodios",
      "texto_original": "Grandeek",
      "rating": 5.73,
      "classificacao_etaria": "A16",
      "imagem_original": "https://animefire.plus/img/animes/grandeek.webp",
      "imagem_pasta": "https://animefire.plus/img/animes/grandeek/",
      "secao": "legendados",
      "pagina": 66,
      "total_episodios": 1,
      "link_video": "https://animefire.plus/video/grandeek"
    },
    {
      "id": 1244,
      "nome": "Grappler Baki",
      "link": "https://animefire.plus/animes/grappler-baki-todos-os-episodios",
      "texto_original": "Grappler Baki",
      "rating": 6.81,
      "classificacao_etaria": "A16",
      "imagem_original": "https://animefire.plus/img/animes/grappler-baki.webp",
      "imagem_pasta": "https://animefire.plus/img/animes/grappler-baki/",
      "secao": "legendados",
      "pagina": 62,
      "total_episodios": 24,
      "link_video": "https://animefire.plus/video/grappler-baki"
    },
    {
      "id": 1249,
      "nome": "Great Pretender: Razbliuto",
      "link": "https://animefire.plus/animes/great-pretender-razbliuto-todos-os-episodios",
      "texto_original": "Great Pretender: Razbliuto",
      "rating": 6.83,
      "classificacao_etaria": "A16",
      "imagem_original": "https://animefire.plus/img/animes/great-pretender-razbliuto.webp",
      "imagem_pasta": "https://animefire.plus/img/animes/great-pretender-razbliuto/",
      "secao": "legendados,lancamentos",
      "pagina": 16,
      "total_episodios": 1,
      "link_video": "https://animefire.plus/video/great-pretender-razbliuto"
    },
    {
      "id": 1251,
      "nome": "Green Green",
      "link": "https://animefire.plus/animes/green-green-todos-os-episodios",
      "texto_original": "Green Green",
      "rating": 6.32,
      "classificacao_etaria": "A18",
      "imagem_original": "https://animefire.plus/img/animes/green-green.webp",
      "imagem_pasta": "https://animefire.plus/img/animes/green-green/",
      "secao": "legendados",
      "pagina": 117,
      "total_episodios": 12,
      "link_video": "https://animefire.plus/video/green-green"
    },
    {
      "id": 1252,
      "nome": "Green Green OVA",
      "link": "https://animefire.plus/animes/green-green-ova-todos-os-episodios",
      "texto_original": "Green Green OVA",
      "rating": 6.03,
      "classificacao_etaria": "A14",
      "imagem_original": "https://animefire.plus/img/animes/green-green-ova.webp",
      "imagem_pasta": "https://animefire.plus/img/animes/green-green-ova/",
      "secao": "legendados",
      "pagina": 70,
      "total_episodios": 1,
      "link_video": "https://animefire.plus/video/green-green-ova"
    },
    {
      "id": 1253,
      "nome": "Green Green Specials",
      "link": "https://animefire.plus/animes/green-green-specials-todos-os-episodios",
      "texto_original": "Green Green Specials",
      "rating": 6.27,
      "classificacao_etaria": "A18",
      "imagem_original": "https://animefire.plus/img/animes/green-green-specials.webp",
      "imagem_pasta": "https://animefire.plus/img/animes/green-green-specials/",
      "secao": "legendados",
      "pagina": 70,
      "total_episodios": 1,
      "link_video": "https://animefire.plus/video/green-green-specials"
    },
    {
      "id": 1254,
      "nome": "Grenadier: Hohoemi No Senshi",
      "link": "https://animefire.plus/animes/grenadier-hohoemi-no-senshi-todos-os-episodios",
      "texto_original": "Grenadier: Hohoemi No Senshi",
      "rating": 6.78,
      "classificacao_etaria": "A14",
      "imagem_original": "https://animefire.plus/img/animes/grenadier-hohoemi-no-senshi.webp",
      "imagem_pasta": "https://animefire.plus/img/animes/grenadier-hohoemi-no-senshi/",
      "secao": "legendados",
      "pagina": 101,
      "total_episodios": 12,
      "link_video": "https://animefire.plus/video/grenadier-hohoemi-no-senshi"
    },
    {
      "id": 1256,
      "nome": "Grimms Notes The Animation",
      "link": "https://animefire.plus/animes/grimms-notes-the-animation-todos-os-episodios",
      "texto_original": "Grimms Notes The Animation",
      "rating": 5.99,
      "classificacao_etaria": "A14",
      "imagem_original": "https://animefire.plus/img/animes/grimms-notes-the-animation.webp",
      "imagem_pasta": "https://animefire.plus/img/animes/grimms-notes-the-animation/",
      "secao": "legendados",
      "pagina": 101,
      "total_episodios": 0,
      "link_video": "https://animefire.plus/video/grimms-notes-the-animation"
    },
    {
      "id": 1260,
      "nome": "Grisaia: Phantom Trigger",
      "link": "https://animefire.plus/animes/grisaia-phantom-trigger-todos-os-episodios",
      "texto_original": "Grisaia: Phantom Trigger",
      "rating": 6.38,
      "classificacao_etaria": "A16",
      "imagem_original": "https://animefire.plus/img/animes/grisaia-phantom-trigger.webp",
      "imagem_pasta": "https://animefire.plus/img/animes/grisaia-phantom-trigger/",
      "secao": "legendados",
      "pagina": 8,
      "total_episodios": 13,
      "link_video": "https://animefire.plus/video/grisaia-phantom-trigger"
    },
    {
      "id": 1262,
      "nome": "Guardian Hearts",
      "link": "https://animefire.plus/animes/guardian-hearts-todos-os-episodios",
      "texto_original": "Guardian Hearts",
      "rating": 5.92,
      "classificacao_etaria": "A18",
      "imagem_original": "https://animefire.plus/img/animes/guardian-hearts.webp",
      "imagem_pasta": "https://animefire.plus/img/animes/guardian-hearts/",
      "secao": "legendados",
      "pagina": 70,
      "total_episodios": 3,
      "link_video": "https://animefire.plus/video/guardian-hearts"
    },
    {
      "id": 1263,
      "nome": "Guardian Hearts-Power UP!",
      "link": "https://animefire.plus/animes/guardian-hearts-power-up-todos-os-episodios",
      "texto_original": "Guardian Hearts-Power UP!",
      "rating": 5.94,
      "classificacao_etaria": "A16",
      "imagem_original": "https://animefire.plus/img/animes/guardian-hearts-power-up.webp",
      "imagem_pasta": "https://animefire.plus/img/animes/guardian-hearts-power-up/",
      "secao": "legendados",
      "pagina": 70,
      "total_episodios": 2,
      "link_video": "https://animefire.plus/video/guardian-hearts-power-up"
    },
    {
      "id": 1266,
      "nome": "Guild no Uketsukejou desu ga, Zangyou wa Iya nanode Boss wo Solo Toubatsu Shiyou to Omoimasu",
      "link": "https://animefire.plus/animes/guild-no-uketsukejou-desu-ga-zangyou-wa-iya-nanode-boss-wo-solo-toubatsu-shiyou-to-omoimasu-todos-os-episodios",
      "texto_original": "Guild no Uketsukejou desu ga, Zangyou wa Iya nanode Boss wo Solo Toubatsu Shiyou to Omoimasu",
      "rating": 6.66,
      "classificacao_etaria": "A14",
      "imagem_original": "https://animefire.plus/img/animes/guild-no-uketsukejou-desu-ga-zangyou-wa-iya-nanode-boss-wo-solo-toubatsu-shiyou-to-omoimasu.webp",
      "imagem_pasta": "https://animefire.plus/img/animes/guild-no-uketsukejou-desu-ga-zangyou-wa-iya-nanode-boss-wo-solo-toubatsu-shiyou-to-omoimasu/",
      "secao": "legendados",
      "pagina": 8,
      "total_episodios": 12,
      "link_video": "https://animefire.plus/video/guild-no-uketsukejou-desu-ga-zangyou-wa-iya-nanode-boss-wo-solo-toubatsu-shiyou-to-omoimasu"
    },
    {
      "id": 1269,
      "nome": "Guilty Gear Strive: Dual Rulers",
      "link": "https://animefire.plus/animes/guilty-gear-strive-dual-rulers-todos-os-episodios",
      "texto_original": "Guilty Gear Strive: Dual Rulers",
      "rating": 5.94,
      "classificacao_etaria": "A14",
      "imagem_original": "https://animefire.plus/img/animes/guilty-gear-strive-dual-rulers.webp",
      "imagem_pasta": "https://animefire.plus/img/animes/guilty-gear-strive-dual-rulers/",
      "secao": "legendados",
      "pagina": 5,
      "total_episodios": 8,
      "link_video": "https://animefire.plus/video/guilty-gear-strive-dual-rulers"
    },
    {
      "id": 1272,
      "nome": "Gun Frontier",
      "link": "https://animefire.plus/animes/gun-frontier-todos-os-episodios",
      "texto_original": "Gun Frontier",
      "rating": 6.63,
      "classificacao_etaria": "A14",
      "imagem_original": "https://animefire.plus/img/animes/gun-frontier.webp",
      "imagem_pasta": "https://animefire.plus/img/animes/gun-frontier/",
      "secao": "legendados",
      "pagina": 125,
      "total_episodios": 12,
      "link_video": "https://animefire.plus/video/gun-frontier"
    },
    {
      "id": 1274,
      "nome": "Gundam Build Divers",
      "link": "https://animefire.plus/animes/gundam-build-divers-todos-os-episodios",
      "texto_original": "Gundam Build Divers",
      "rating": 6.36,
      "classificacao_etaria": "A14",
      "imagem_original": "https://animefire.plus/img/animes/gundam-build-divers.webp",
      "imagem_pasta": "https://animefire.plus/img/animes/gundam-build-divers/",
      "secao": "legendados",
      "pagina": 73,
      "total_episodios": 25,
      "link_video": "https://animefire.plus/video/gundam-build-divers"
    },
    {
      "id": 1275,
      "nome": "Gundam Build Divers Prologue",
      "link": "https://animefire.plus/animes/gundam-build-divers-prologue-todos-os-episodios",
      "texto_original": "Gundam Build Divers Prologue",
      "rating": 6.54,
      "classificacao_etaria": null,
      "imagem_original": "https://animefire.plus/img/animes/gundam-build-divers-prologue.webp",
      "imagem_pasta": "https://animefire.plus/img/animes/gundam-build-divers-prologue/",
      "secao": "legendados",
      "pagina": 84,
      "total_episodios": 1,
      "link_video": "https://animefire.plus/video/gundam-build-divers-prologue"
    },
    {
      "id": 1280,
      "nome": "Gundam Vs Hello Kitty",
      "link": "https://animefire.plus/animes/gundam-vs-hello-kitty-todos-os-episodios",
      "texto_original": "Gundam Vs Hello Kitty",
      "rating": 6.39,
      "classificacao_etaria": null,
      "imagem_original": "https://animefire.plus/img/animes/gundam-vs-hello-kitty.webp",
      "imagem_pasta": "https://animefire.plus/img/animes/gundam-vs-hello-kitty/",
      "secao": "legendados",
      "pagina": 92,
      "total_episodios": 0,
      "link_video": "https://animefire.plus/video/gundam-vs-hello-kitty"
    },
    {
      "id": 1282,
      "nome": "Gunjou no Fanfare",
      "link": "https://animefire.plus/animes/gunjou-no-fanfare-todos-os-episodios",
      "texto_original": "Gunjou no Fanfare",
      "rating": 6.15,
      "classificacao_etaria": "A14",
      "imagem_original": "https://animefire.plus/img/animes/gunjou-no-fanfare.webp",
      "imagem_pasta": "https://animefire.plus/img/animes/gunjou-no-fanfare/",
      "secao": "legendados",
      "pagina": 33,
      "total_episodios": 13,
      "link_video": "https://animefire.plus/video/gunjou-no-fanfare"
    },
    {
      "id": 1283,
      "nome": "Gunjou no Magmell (Dublado)",
      "link": "https://animefire.plus/animes/gunjou-no-magmell-dublado-todos-os-episodios",
      "texto_original": "Gunjou no Magmell (Dublado)",
      "rating": 6.04,
      "classificacao_etaria": "A14",
      "imagem_original": "https://animefire.plus/img/animes/gunjou-no-magmell.webp",
      "imagem_pasta": "https://animefire.plus/img/animes/gunjou-no-magmell/",
      "secao": "dublados,legendados",
      "pagina": 22,
      "total_episodios": 13,
      "link_video": "https://animefire.plus/video/gunjou-no-magmell-dublado"
    },
    {
      "id": 1289,
      "nome": "Guomin Laogong Dai Huijia",
      "link": "https://animefire.plus/animes/guomin-laogong-dai-huijia-todos-os-episodios",
      "texto_original": "Guomin Laogong Dai Huijia",
      "rating": 6.27,
      "classificacao_etaria": "A14",
      "imagem_original": "https://animefire.plus/img/animes/guomin-laogong-dai-huijia.webp",
      "imagem_pasta": "https://animefire.plus/img/animes/guomin-laogong-dai-huijia/",
      "secao": "legendados",
      "pagina": 153,
      "total_episodios": 12,
      "link_video": "https://animefire.plus/video/guomin-laogong-dai-huijia"
    }
  ],
  "pagination": {
    "current_page": 29,
    "per_page": 20,
    "total_items": 1805,
    "total_pages": 91,
    "has_next": true,
    "has_prev": true
  }
}
