{
  "message": "Animes com rating entre 5 e 7",
  "rating_range": {
    "min": 5,
    "max": 7
  },
  "data": [
    {
      "id": 3246,
      "nome": "Samurai Girl Real Bout High School",
      "link": "https://animefire.plus/animes/samurai-girl-real-bout-high-school-todos-os-episodios",
      "texto_original": "Samurai Girl Real Bout High School",
      "rating": 6.01,
      "classificacao_etaria": "A14",
      "imagem_original": "https://animefire.plus/img/animes/samurai-girl-real-bout-high-school.webp",
      "imagem_pasta": "https://animefire.plus/img/animes/samurai-girl-real-bout-high-school/",
      "secao": "legendados",
      "pagina": 131,
      "total_episodios": 13,
      "link_video": "https://animefire.plus/video/samurai-girl-real-bout-high-school"
    },
    {
      "id": 3247,
      "nome": "Samurai Gun",
      "link": "https://animefire.plus/animes/samurai-gun-todos-os-episodios",
      "texto_original": "Samurai Gun",
      "rating": 6.07,
      "classificacao_etaria": "A16",
      "imagem_original": "https://animefire.plus/img/animes/samurai-gun.webp",
      "imagem_pasta": "https://animefire.plus/img/animes/samurai-gun/",
      "secao": "legendados",
      "pagina": 124,
      "total_episodios": 12,
      "link_video": "https://animefire.plus/video/samurai-gun"
    },
    {
      "id": 3248,
      "nome": "Samurai Gun Special",
      "link": "https://animefire.plus/animes/samurai-gun-special-todos-os-episodios",
      "texto_original": "Samurai Gun Special",
      "rating": 5.94,
      "classificacao_etaria": "A16",
      "imagem_original": "https://animefire.plus/img/animes/samurai-gun-special.webp",
      "imagem_pasta": "https://animefire.plus/img/animes/samurai-gun-special/",
      "secao": "legendados",
      "pagina": 82,
      "total_episodios": 1,
      "link_video": "https://animefire.plus/video/samurai-gun-special"
    },
    {
      "id": 3250,
      "nome": "Sanjougattai Transformers Go!",
      "link": "https://animefire.plus/animes/sanjougattai-transformers-go-todos-os-episodios",
      "texto_original": "Sanjougattai Transformers Go!",
      "rating": 5.25,
      "classificacao_etaria": "A10",
      "imagem_original": "https://animefire.plus/img/animes/sanjougattai-transformers-go.webp",
      "imagem_pasta": "https://animefire.plus/img/animes/sanjougattai-transformers-go/",
      "secao": "legendados",
      "pagina": 100,
      "total_episodios": 2,
      "link_video": "https://animefire.plus/video/sanjougattai-transformers-go"
    },
    {
      "id": 3251,
      "nome": "Sankaku Mado no Sotogawa wa Yoru",
      "link": "https://animefire.plus/animes/sankaku-mado-no-sotogawa-wa-yoru-todos-os-episodios",
      "texto_original": "Sankaku Mado no Sotogawa wa Yoru",
      "rating": 6.75,
      "classificacao_etaria": "A16",
      "imagem_original": "https://animefire.plus/img/animes/sankaku-mado-no-sotogawa-wa-yoru.webp",
      "imagem_pasta": "https://animefire.plus/img/animes/sankaku-mado-no-sotogawa-wa-yoru/",
      "secao": "legendados",
      "pagina": 39,
      "total_episodios": 12,
      "link_video": "https://animefire.plus/video/sankaku-mado-no-sotogawa-wa-yoru"
    },
    {
      "id": 3253,
      "nome": "Sanrio Danshi",
      "link": "https://animefire.plus/animes/sanrio-danshi-todos-os-episodios",
      "texto_original": "Sanrio Danshi",
      "rating": 6.65,
      "classificacao_etaria": "A14",
      "imagem_original": "https://animefire.plus/img/animes/sanrio-danshi.webp",
      "imagem_pasta": "https://animefire.plus/img/animes/sanrio-danshi/",
      "secao": "legendados",
      "pagina": 98,
      "total_episodios": 12,
      "link_video": "https://animefire.plus/video/sanrio-danshi"
    },
    {
      "id": 3258,
      "nome": "Saredo Tsumibito wa Ryuu to Odoru",
      "link": "https://animefire.plus/animes/saredo-tsumibito-wa-ryuu-to-odoru-todos-os-episodios",
      "texto_original": "Saredo Tsumibito wa Ryuu to Odoru",
      "rating": 5.91,
      "classificacao_etaria": "A16",
      "imagem_original": "https://animefire.plus/img/animes/saredo-tsumibito-wa-ryuu-to-odoru.webp",
      "imagem_pasta": "https://animefire.plus/img/animes/saredo-tsumibito-wa-ryuu-to-odoru/",
      "secao": "legendados",
      "pagina": 153,
      "total_episodios": 12,
      "link_video": "https://animefire.plus/video/saredo-tsumibito-wa-ryuu-to-odoru"
    },
    {
      "id": 3261,
      "nome": "Sasaki to Pii-chan",
      "link": "https://animefire.plus/animes/sasaki-to-pii-chan-todos-os-episodios",
      "texto_original": "Sasaki to Pii-chan",
      "rating": 6.84,
      "classificacao_etaria": "A16",
      "imagem_original": "https://animefire.plus/img/animes/sasaki-to-pii-chan.webp",
      "imagem_pasta": "https://animefire.plus/img/animes/sasaki-to-pii-chan/",
      "secao": "legendados",
      "pagina": 17,
      "total_episodios": 12,
      "link_video": "https://animefire.plus/video/sasaki-to-pii-chan"
    },
    {
      "id": 3263,
      "nome": "Sasami-san@Ganbaranai",
      "link": "https://animefire.plus/animes/sasami-sanatganbaranai-todos-os-episodios",
      "texto_original": "Sasami-san@Ganbaranai",
      "rating": 6.7,
      "classificacao_etaria": "A14",
      "imagem_original": "https://animefire.plus/img/animes/sasami-sanatganbaranai.webp",
      "imagem_pasta": "https://animefire.plus/img/animes/sasami-sanatganbaranai/",
      "secao": "legendados",
      "pagina": 139,
      "total_episodios": 12,
      "link_video": "https://animefire.plus/video/sasami-sanatganbaranai"
    },
    {
      "id": 3264,
      "nome": "Sasami: Mahou Shoujo Club",
      "link": "https://animefire.plus/animes/sasami-mahou-shoujo-club-todos-os-episodios",
      "texto_original": "Sasami: Mahou Shoujo Club",
      "rating": 6.72,
      "classificacao_etaria": "A10",
      "imagem_original": "https://animefire.plus/img/animes/sasami-mahou-shoujo-club.webp",
      "imagem_pasta": "https://animefire.plus/img/animes/sasami-mahou-shoujo-club/",
      "secao": "legendados",
      "pagina": 121,
      "total_episodios": 13,
      "link_video": "https://animefire.plus/video/sasami-mahou-shoujo-club"
    },
    {
      "id": 3265,
      "nome": "Sasayaku You ni Koi wo Utau",
      "link": "https://animefire.plus/animes/sasayaku-you-ni-koi-wo-utau-todos-os-episodios",
      "texto_original": "Sasayaku You ni Koi wo Utau",
      "rating": 6.66,
      "classificacao_etaria": "A14",
      "imagem_original": "https://animefire.plus/img/animes/sasayaku-you-ni-koi-wo-utau.webp",
      "imagem_pasta": "https://animefire.plus/img/animes/sasayaku-you-ni-koi-wo-utau/",
      "secao": "legendados",
      "pagina": 12,
      "total_episodios": 12,
      "link_video": "https://animefire.plus/video/sasayaku-you-ni-koi-wo-utau"
    },
    {
      "id": 3266,
      "nome": "Satsuriku no Tenshi",
      "link": "https://animefire.plus/animes/satsuriku-no-tenshi-todos-os-episodios",
      "texto_original": "Satsuriku no Tenshi",
      "rating": 6.9,
      "classificacao_etaria": "A16",
      "imagem_original": "https://animefire.plus/img/animes/satsuriku-no-tenshi.webp",
      "imagem_pasta": "https://animefire.plus/img/animes/satsuriku-no-tenshi/",
      "secao": "legendados",
      "pagina": 169,
      "total_episodios": 16,
      "link_video": "https://animefire.plus/video/satsuriku-no-tenshi"
    },
    {
      "id": 3268,
      "nome": "Sayonara Watashi no Cramer",
      "link": "https://animefire.plus/animes/sayonara-watashi-no-cramer-todos-os-episodios",
      "texto_original": "Sayonara Watashi no Cramer",
      "rating": 6.1,
      "classificacao_etaria": "A14",
      "imagem_original": "https://animefire.plus/img/animes/sayonara-watashi-no-cramer.webp",
      "imagem_pasta": "https://animefire.plus/img/animes/sayonara-watashi-no-cramer/",
      "secao": "legendados",
      "pagina": 46,
      "total_episodios": 13,
      "link_video": "https://animefire.plus/video/sayonara-watashi-no-cramer"
    },
    {
      "id": 3271,
      "nome": "Sayounara Ryuusei, Konnichiwa Jinsei",
      "link": "https://animefire.plus/animes/sayounara-ryuusei-konnichiwa-jinsei-todos-os-episodios",
      "texto_original": "Sayounara Ryuusei, Konnichiwa Jinsei",
      "rating": 6.34,
      "classificacao_etaria": "A14",
      "imagem_original": "https://animefire.plus/img/animes/sayounara-ryuusei-konnichiwa-jinsei.webp",
      "imagem_pasta": "https://animefire.plus/img/animes/sayounara-ryuusei-konnichiwa-jinsei/",
      "secao": "legendados",
      "pagina": 10,
      "total_episodios": 12,
      "link_video": "https://animefire.plus/video/sayounara-ryuusei-konnichiwa-jinsei"
    },
    {
      "id": 3272,
      "nome": "Scared Rider Xechs",
      "link": "https://animefire.plus/animes/scared-rider-xechs-todos-os-episodios",
      "texto_original": "Scared Rider Xechs",
      "rating": 5.3,
      "classificacao_etaria": "A14",
      "imagem_original": "https://animefire.plus/img/animes/scared-rider-xechs.webp",
      "imagem_pasta": "https://animefire.plus/img/animes/scared-rider-xechs/",
      "secao": "legendados",
      "pagina": 132,
      "total_episodios": 1,
      "link_video": "https://animefire.plus/video/scared-rider-xechs"
    },
    {
      "id": 3273,
      "nome": "Scarlet Nexus (Dublado)",
      "link": "https://animefire.plus/animes/scarlet-nexus-dublado-todos-os-episodios",
      "texto_original": "Scarlet Nexus (Dublado)",
      "rating": 5.72,
      "classificacao_etaria": "A14",
      "imagem_original": "https://animefire.plus/img/animes/scarlet-nexus.webp",
      "imagem_pasta": "https://animefire.plus/img/animes/scarlet-nexus/",
      "secao": "dublados,legendados",
      "pagina": 16,
      "total_episodios": 26,
      "link_video": "https://animefire.plus/video/scarlet-nexus-dublado"
    },
    {
      "id": 3274,
      "nome": "School Days",
      "link": "https://animefire.plus/animes/school-days-todos-os-episodios",
      "texto_original": "School Days",
      "rating": 5.93,
      "classificacao_etaria": "A18",
      "imagem_original": "https://animefire.plus/img/animes/school-days.webp",
      "imagem_pasta": "https://animefire.plus/img/animes/school-days/",
      "secao": "legendados",
      "pagina": 158,
      "total_episodios": 12,
      "link_video": "https://animefire.plus/video/school-days"
    },
    {
      "id": 3278,
      "nome": "Schoolgirl Strikers: Animation Channel",
      "link": "https://animefire.plus/animes/schoolgirl-strikers-animation-channel-todos-os-episodios",
      "texto_original": "Schoolgirl Strikers: Animation Channel",
      "rating": 5.72,
      "classificacao_etaria": "A14",
      "imagem_original": "https://animefire.plus/img/animes/schoolgirl-strikers-animation-channel.webp",
      "imagem_pasta": "https://animefire.plus/img/animes/schoolgirl-strikers-animation-channel/",
      "secao": "legendados",
      "pagina": 118,
      "total_episodios": 13,
      "link_video": "https://animefire.plus/video/schoolgirl-strikers-animation-channel"
    },
    {
      "id": 3279,
      "nome": "Schwarzesmarken (Dublado)",
      "link": "https://animefire.plus/animes/schwarzesmarken-dublado-todos-os-episodios",
      "texto_original": "Schwarzesmarken (Dublado)",
      "rating": 6.85,
      "classificacao_etaria": "A16",
      "imagem_original": "https://animefire.plus/img/animes/schwarzesmarken.webp",
      "imagem_pasta": "https://animefire.plus/img/animes/schwarzesmarken/",
      "secao": "dublados,legendados",
      "pagina": 23,
      "total_episodios": 12,
      "link_video": "https://animefire.plus/video/schwarzesmarken-dublado"
    },
    {
      "id": 3281,
      "nome": "SD Gundam World Heroes",
      "link": "https://animefire.plus/animes/sd-gundam-world-heroes-todos-os-episodios",
      "texto_original": "SD Gundam World Heroes",
      "rating": 5.69,
      "classificacao_etaria": "A10",
      "imagem_original": "https://animefire.plus/img/animes/sd-gundam-world-heroes.webp",
      "imagem_pasta": "https://animefire.plus/img/animes/sd-gundam-world-heroes/",
      "secao": "legendados",
      "pagina": 46,
      "total_episodios": 24,
      "link_video": "https://animefire.plus/video/sd-gundam-world-heroes"
    }
  ],
  "pagination": {
    "current_page": 69,
    "per_page": 20,
    "total_items": 1805,
    "total_pages": 91,
    "has_next": true,
    "has_prev": true
  }
}
