{
  "message": "Animes com rating entre 5 e 7",
  "rating_range": {
    "min": 5,
    "max": 7
  },
  "data": [
    {
      "id": 2796,
      "nome": "Nurse Witch Komugi-chan R",
      "link": "https://animefire.plus/animes/nurse-witch-komugi-chan-r-todos-os-episodios",
      "texto_original": "Nurse Witch Komugi-chan R",
      "rating": 5.99,
      "classificacao_etaria": "A14",
      "imagem_original": "https://animefire.plus/img/animes/nurse-witch-komugi-chan-r.webp",
      "imagem_pasta": "https://animefire.plus/img/animes/nurse-witch-komugi-chan-r/",
      "secao": "legendados",
      "pagina": 99,
      "total_episodios": 12,
      "link_video": "https://animefire.plus/video/nurse-witch-komugi-chan-r"
    },
    {
      "id": 2797,
      "nome": "Nyaight of the Living Cat",
      "link": "https://animefire.plus/animes/nyaight-of-the-living-cat-todos-os-episodios",
      "texto_original": "Nyaight of the Living Cat",
      "rating": 6.35,
      "classificacao_etaria": "A14",
      "imagem_original": "https://animefire.plus/img/animes/nyaight-of-the-living-cat.webp",
      "imagem_pasta": "https://animefire.plus/img/animes/nyaight-of-the-living-cat/",
      "secao": "legendados,lancamentos",
      "pagina": 2,
      "total_episodios": 5,
      "link_video": "https://animefire.plus/video/nyaight-of-the-living-cat"
    },
    {
      "id": 2799,
      "nome": "Nyanko Days",
      "link": "https://animefire.plus/animes/nyanko-days-todos-os-episodios",
      "texto_original": "Nyanko Days",
      "rating": 6.66,
      "classificacao_etaria": "A14",
      "imagem_original": "https://animefire.plus/img/animes/nyanko-days.webp",
      "imagem_pasta": "https://animefire.plus/img/animes/nyanko-days/",
      "secao": "legendados",
      "pagina": 118,
      "total_episodios": 1,
      "link_video": "https://animefire.plus/video/nyanko-days"
    },
    {
      "id": 2800,
      "nome": "Nyanpire The Animation",
      "link": "https://animefire.plus/animes/nyanpire-the-animation-todos-os-episodios",
      "texto_original": "Nyanpire The Animation",
      "rating": 6.75,
      "classificacao_etaria": "A14",
      "imagem_original": "https://animefire.plus/img/animes/nyanpire-the-animation.webp",
      "imagem_pasta": "https://animefire.plus/img/animes/nyanpire-the-animation/",
      "secao": "legendados",
      "pagina": 146,
      "total_episodios": 0,
      "link_video": "https://animefire.plus/video/nyanpire-the-animation"
    },
    {
      "id": 2802,
      "nome": "Obsolete",
      "link": "https://animefire.plus/animes/obsolete-todos-os-episodios",
      "texto_original": "Obsolete",
      "rating": 5.78,
      "classificacao_etaria": "A14",
      "imagem_original": "https://animefire.plus/img/animes/obsolete.webp",
      "imagem_pasta": "https://animefire.plus/img/animes/obsolete/",
      "secao": "legendados",
      "pagina": 94,
      "total_episodios": 0,
      "link_video": "https://animefire.plus/video/obsolete"
    },
    {
      "id": 2803,
      "nome": "Occultic;Nine",
      "link": "https://animefire.plus/animes/occultic-nine-todos-os-episodios",
      "texto_original": "Occultic;Nine",
      "rating": 6.98,
      "classificacao_etaria": "A14",
      "imagem_original": "https://animefire.plus/img/animes/occultic-nine.webp",
      "imagem_pasta": "https://animefire.plus/img/animes/occultic-nine/",
      "secao": "legendados",
      "pagina": 62,
      "total_episodios": 12,
      "link_video": "https://animefire.plus/video/occultic-nine"
    },
    {
      "id": 2805,
      "nome": "Oda Cinnamon Nobunaga",
      "link": "https://animefire.plus/animes/oda-cinnamon-nobunaga-todos-os-episodios",
      "texto_original": "Oda Cinnamon Nobunaga",
      "rating": 6.55,
      "classificacao_etaria": "A14",
      "imagem_original": "https://animefire.plus/img/animes/oda-cinnamon-nobunaga.webp",
      "imagem_pasta": "https://animefire.plus/img/animes/oda-cinnamon-nobunaga/",
      "secao": "legendados",
      "pagina": 92,
      "total_episodios": 0,
      "link_video": "https://animefire.plus/video/oda-cinnamon-nobunaga"
    },
    {
      "id": 2811,
      "nome": "Ojisan to Marshmallow",
      "link": "https://animefire.plus/animes/ojisan-to-marshmallow-todos-os-episodios",
      "texto_original": "Ojisan to Marshmallow",
      "rating": 6.63,
      "classificacao_etaria": "A14",
      "imagem_original": "https://animefire.plus/img/animes/ojisan-to-marshmallow.webp",
      "imagem_pasta": "https://animefire.plus/img/animes/ojisan-to-marshmallow/",
      "secao": "legendados",
      "pagina": 62,
      "total_episodios": 1,
      "link_video": "https://animefire.plus/video/ojisan-to-marshmallow"
    },
    {
      "id": 2812,
      "nome": "Ojou to Banken-kun",
      "link": "https://animefire.plus/animes/ojou-to-banken-kun-todos-os-episodios",
      "texto_original": "Ojou to Banken-kun",
      "rating": 5.67,
      "classificacao_etaria": "A14",
      "imagem_original": "https://animefire.plus/img/animes/ojou-to-banken-kun.webp",
      "imagem_pasta": "https://animefire.plus/img/animes/ojou-to-banken-kun/",
      "secao": "legendados",
      "pagina": 21,
      "total_episodios": 13,
      "link_video": "https://animefire.plus/video/ojou-to-banken-kun"
    },
    {
      "id": 2813,
      "nome": "Okashi na Tensei",
      "link": "https://animefire.plus/animes/okashi-na-tensei-todos-os-episodios",
      "texto_original": "Okashi na Tensei",
      "rating": 6.7,
      "classificacao_etaria": "A14",
      "imagem_original": "https://animefire.plus/img/animes/okashi-na-tensei.jpg",
      "imagem_pasta": "https://animefire.plus/img/animes/okashi-na-tensei/",
      "secao": "legendados",
      "pagina": 22,
      "total_episodios": 12,
      "link_video": "https://animefire.plus/video/okashi-na-tensei"
    },
    {
      "id": 2815,
      "nome": "Okusama ga Seitokaichou!",
      "link": "https://animefire.plus/animes/okusama-ga-seitokaichou-todos-os-episodios",
      "texto_original": "Okusama ga Seitokaichou!",
      "rating": 6.8,
      "classificacao_etaria": "A18",
      "imagem_original": "https://animefire.plus/img/animes/okusama-ga-seitokaichou.webp",
      "imagem_pasta": "https://animefire.plus/img/animes/okusama-ga-seitokaichou/",
      "secao": "legendados",
      "pagina": 140,
      "total_episodios": 0,
      "link_video": "https://animefire.plus/video/okusama-ga-seitokaichou"
    },
    {
      "id": 2816,
      "nome": "Okusama ga Seitokaichou!: Seitokaichou to Ofuro Asobi",
      "link": "https://animefire.plus/animes/okusama-ga-seitokaichou-seitokaichou-to-ofuro-asobi-todos-os-episodios",
      "texto_original": "Okusama ga Seitokaichou!: Seitokaichou to Ofuro Asobi",
      "rating": 6.82,
      "classificacao_etaria": "A18",
      "imagem_original": "https://animefire.plus/img/animes/okusama-ga-seitokaichou-seitokaichou-to-ofuro-asobi.webp",
      "imagem_pasta": "https://animefire.plus/img/animes/okusama-ga-seitokaichou-seitokaichou-to-ofuro-asobi/",
      "secao": "legendados",
      "pagina": 59,
      "total_episodios": 1,
      "link_video": "https://animefire.plus/video/okusama-ga-seitokaichou-seitokaichou-to-ofuro-asobi"
    },
    {
      "id": 2817,
      "nome": "Okusama ga Seitokaichou!+!",
      "link": "https://animefire.plus/animes/my-wife-is-the-student-council-president-todos-os-episodios",
      "texto_original": "Okusama ga Seitokaichou!+!",
      "rating": 6.7,
      "classificacao_etaria": "A18",
      "imagem_original": "https://animefire.plus/img/animes/my-wife-is-the-student-council-president.webp",
      "imagem_pasta": "https://animefire.plus/img/animes/my-wife-is-the-student-council-president/",
      "secao": "legendados",
      "pagina": 59,
      "total_episodios": 12,
      "link_video": "https://animefire.plus/video/my-wife-is-the-student-council-president"
    },
    {
      "id": 2818,
      "nome": "Okusama wa Joshikousei (TV)",
      "link": "https://animefire.plus/animes/okusama-wa-joshikousei-tv-todos-os-episodios",
      "texto_original": "Okusama wa Joshikousei (TV)",
      "rating": 6.41,
      "classificacao_etaria": "A14",
      "imagem_original": "https://animefire.plus/img/animes/okusama-wa-joshikousei-tv.webp",
      "imagem_pasta": "https://animefire.plus/img/animes/okusama-wa-joshikousei-tv/",
      "secao": "legendados",
      "pagina": 159,
      "total_episodios": 13,
      "link_video": "https://animefire.plus/video/okusama-wa-joshikousei-tv"
    },
    {
      "id": 2819,
      "nome": "Okusama wa Mahou Shoujo",
      "link": "https://animefire.plus/animes/okusama-wa-mahou-shoujo-todos-os-episodios",
      "texto_original": "Okusama wa Mahou Shoujo",
      "rating": 6.36,
      "classificacao_etaria": "A14",
      "imagem_original": "https://animefire.plus/img/animes/okusama-wa-mahou-shoujo.webp",
      "imagem_pasta": "https://animefire.plus/img/animes/okusama-wa-mahou-shoujo/",
      "secao": "legendados",
      "pagina": 146,
      "total_episodios": 13,
      "link_video": "https://animefire.plus/video/okusama-wa-mahou-shoujo"
    },
    {
      "id": 2821,
      "nome": "Omae wa Mada Gunma wo Shiranai",
      "link": "https://animefire.plus/animes/omae-wa-mada-gunma-wo-shiranai-todos-os-episodios",
      "texto_original": "Omae wa Mada Gunma wo Shiranai",
      "rating": 5.26,
      "classificacao_etaria": "A14",
      "imagem_original": "https://animefire.plus/img/animes/omae-wa-mada-gunma-wo-shiranai.webp",
      "imagem_pasta": "https://animefire.plus/img/animes/omae-wa-mada-gunma-wo-shiranai/",
      "secao": "legendados",
      "pagina": 136,
      "total_episodios": 12,
      "link_video": "https://animefire.plus/video/omae-wa-mada-gunma-wo-shiranai"
    },
    {
      "id": 2823,
      "nome": "Omishi Mahou Gekijou: Risky★Safety",
      "link": "https://animefire.plus/animes/omishi-mahou-gekijou-risky-safety-todos-os-episodios",
      "texto_original": "Omishi Mahou Gekijou: Risky★Safety",
      "rating": 6.76,
      "classificacao_etaria": "A10",
      "imagem_original": "https://animefire.plus/img/animes/omishi-mahou-gekijou-risky-safety.webp",
      "imagem_pasta": "https://animefire.plus/img/animes/omishi-mahou-gekijou-risky-safety/",
      "secao": "legendados",
      "pagina": 144,
      "total_episodios": 24,
      "link_video": "https://animefire.plus/video/omishi-mahou-gekijou-risky-safety"
    },
    {
      "id": 2824,
      "nome": "Omoi No Kakera",
      "link": "https://animefire.plus/animes/omoi-no-kakera-todos-os-episodios",
      "texto_original": "Omoi No Kakera",
      "rating": 6.58,
      "classificacao_etaria": "A14",
      "imagem_original": "https://animefire.plus/img/animes/omoi-no-kakera.webp",
      "imagem_pasta": "https://animefire.plus/img/animes/omoi-no-kakera/",
      "secao": "legendados",
      "pagina": 101,
      "total_episodios": 1,
      "link_video": "https://animefire.plus/video/omoi-no-kakera"
    },
    {
      "id": 2836,
      "nome": "One Piece: Taose! Kaizoku Ganzack",
      "link": "https://animefire.plus/animes/one-piece-taose-kaizoku-ganzack-todos-os-episodios",
      "texto_original": "One Piece: Taose! Kaizoku Ganzack",
      "rating": 6.76,
      "classificacao_etaria": "A10",
      "imagem_original": "https://animefire.plus/img/animes/one-piece-taose-kaizoku-ganzack.webp",
      "imagem_pasta": "https://animefire.plus/img/animes/one-piece-taose-kaizoku-ganzack/",
      "secao": "legendados",
      "pagina": 55,
      "total_episodios": 1,
      "link_video": "https://animefire.plus/video/one-piece-taose-kaizoku-ganzack"
    },
    {
      "id": 2837,
      "nome": "One Pound Gospel",
      "link": "https://animefire.plus/animes/one-pound-gospel-todos-os-episodios",
      "texto_original": "One Pound Gospel",
      "rating": 6.5,
      "classificacao_etaria": "A14",
      "imagem_original": "https://animefire.plus/img/animes/one-pound-gospel.webp",
      "imagem_pasta": "https://animefire.plus/img/animes/one-pound-gospel/",
      "secao": "legendados",
      "pagina": 66,
      "total_episodios": 1,
      "link_video": "https://animefire.plus/video/one-pound-gospel"
    }
  ],
  "pagination": {
    "current_page": 60,
    "per_page": 20,
    "total_items": 1805,
    "total_pages": 91,
    "has_next": true,
    "has_prev": true
  }
}
