{
  "message": "Animes com rating entre 5 e 7",
  "rating_range": {
    "min": 5,
    "max": 7
  },
  "data": [
    {
      "id": 4297,
      "nome": "Yurei Deco",
      "link": "https://animefire.plus/animes/yurei-deco-todos-os-episodios",
      "texto_original": "Yurei Deco",
      "rating": 6.03,
      "classificacao_etaria": "A14",
      "imagem_original": "https://animefire.plus/img/animes/yurei-deco.webp",
      "imagem_pasta": "https://animefire.plus/img/animes/yurei-deco/",
      "secao": "legendados",
      "pagina": 31,
      "total_episodios": 12,
      "link_video": "https://animefire.plus/video/yurei-deco"
    },
    {
      "id": 4306,
      "nome": "Yurumates 3D",
      "link": "https://animefire.plus/animes/yurumates-3d-todos-os-episodios",
      "texto_original": "Yurumates 3D",
      "rating": 6.34,
      "classificacao_etaria": "A14",
      "imagem_original": "https://animefire.plus/img/animes/yurumates-3d.webp",
      "imagem_pasta": "https://animefire.plus/img/animes/yurumates-3d/",
      "secao": "legendados",
      "pagina": 101,
      "total_episodios": 13,
      "link_video": "https://animefire.plus/video/yurumates-3d"
    },
    {
      "id": 4307,
      "nome": "Yutori-chan",
      "link": "https://animefire.plus/animes/yutori-chan-todos-os-episodios",
      "texto_original": "Yutori-chan",
      "rating": 6.17,
      "classificacao_etaria": null,
      "imagem_original": "https://animefire.plus/img/animes/yutori-chan.webp",
      "imagem_pasta": "https://animefire.plus/img/animes/yutori-chan/",
      "secao": "legendados",
      "pagina": 156,
      "total_episodios": 25,
      "link_video": "https://animefire.plus/video/yutori-chan"
    },
    {
      "id": 4309,
      "nome": "Yuu☆Yuu☆Hakusho Picture Drama",
      "link": "https://animefire.plus/animes/yuu-yuu-hakusho-picture-drama-todos-os-episodios",
      "texto_original": "Yuu☆Yuu☆Hakusho Picture Drama",
      "rating": 6.63,
      "classificacao_etaria": "A14",
      "imagem_original": "https://animefire.plus/img/animes/yuu-yuu-hakusho-picture-drama.webp",
      "imagem_pasta": "https://animefire.plus/img/animes/yuu-yuu-hakusho-picture-drama/",
      "secao": "legendados",
      "pagina": 70,
      "total_episodios": 1,
      "link_video": "https://animefire.plus/video/yuu-yuu-hakusho-picture-drama"
    },
    {
      "id": 4311,
      "nome": "Yuukai Anna",
      "link": "https://animefire.plus/animes/yuukai-anna-todos-os-episodios",
      "texto_original": "Yuukai Anna",
      "rating": 5.09,
      "classificacao_etaria": "A16",
      "imagem_original": "https://animefire.plus/img/animes/yuukai-anna.webp",
      "imagem_pasta": "https://animefire.plus/img/animes/yuukai-anna/",
      "secao": "legendados",
      "pagina": 89,
      "total_episodios": 1,
      "link_video": "https://animefire.plus/video/yuukai-anna"
    },
    {
      "id": 4320,
      "nome": "Yuusha ga Shinda!",
      "link": "https://animefire.plus/animes/yuusha-ga-shinda-todos-os-episodios",
      "texto_original": "Yuusha ga Shinda!",
      "rating": 6.6,
      "classificacao_etaria": "A14",
      "imagem_original": "https://animefire.plus/img/animes/yuusha-ga-shinda.jpg",
      "imagem_pasta": "https://animefire.plus/img/animes/yuusha-ga-shinda/",
      "secao": "legendados",
      "pagina": 24,
      "total_episodios": 12,
      "link_video": "https://animefire.plus/video/yuusha-ga-shinda"
    },
    {
      "id": 4322,
      "nome": "Yuusha Party wo Tsuihou sareta Beast Tamer, Saikyoushu no Nekomimi Shoujo to Deau (Dublado)",
      "link": "https://animefire.plus/animes/yuusha-party-wo-tsuihou-sareta-beast-tamer-saikyoushu-no-nekomimi-shoujo-to-deau-dublado-todos-os-episodios",
      "texto_original": "Yuusha Party wo Tsuihou sareta Beast Tamer, Saikyoushu no Nekomimi Shoujo to Deau (Dublado)",
      "rating": 6.91,
      "classificacao_etaria": "A14",
      "imagem_original": "https://animefire.plus/img/animes/yuusha-party-wo-tsuihou-sareta-beast-tamer-saikyoushu-no-nekomimi-shoujo-to-deau.webp",
      "imagem_pasta": "https://animefire.plus/img/animes/yuusha-party-wo-tsuihou-sareta-beast-tamer-saikyoushu-no-nekomimi-shoujo-to-deau/",
      "secao": "dublados,legendados,lancamentos",
      "pagina": 9,
      "total_episodios": 13,
      "link_video": "https://animefire.plus/video/yuusha-party-wo-tsuihou-sareta-beast-tamer-saikyoushu-no-nekomimi-shoujo-to-deau-dublado"
    },
    {
      "id": 4323,
      "nome": "Yuusha Party wo Tsuihou sareta Shiromadoushi, S-Rank Boukensha ni Hirowareru: Kono Shiromadoushi ga Kikakugai Sugiru",
      "link": "https://animefire.plus/animes/yuusha-party-wo-tsuihou-sareta-shiromadoushi-s-rank-boukensha-ni-hirowareru-kono-shiromadoushi-ga-kikakugai-sugiru-todos-os-episodios",
      "texto_original": "Yuusha Party wo Tsuihou sareta Shiromadoushi, S-Rank Boukensha ni Hirowareru: Kono Shiromadoushi ga Kikakugai Sugiru",
      "rating": 6.47,
      "classificacao_etaria": "A14",
      "imagem_original": "https://animefire.plus/img/animes/yuusha-party-wo-tsuihou-sareta-shiromadoushi-s-rank-boukensha-ni-hirowareru-kono-shiromadoushi-ga-kikakugai-sugiru.webp",
      "imagem_pasta": "https://animefire.plus/img/animes/yuusha-party-wo-tsuihou-sareta-shiromadoushi-s-rank-boukensha-ni-hirowareru-kono-shiromadoushi-ga-kikakugai-sugiru/",
      "secao": "legendados,lancamentos",
      "pagina": 2,
      "total_episodios": 5,
      "link_video": "https://animefire.plus/video/yuusha-party-wo-tsuihou-sareta-shiromadoushi-s-rank-boukensha-ni-hirowareru-kono-shiromadoushi-ga-kikakugai-sugiru"
    },
    {
      "id": 4324,
      "nome": "Yuusha, Yamemasu",
      "link": "https://animefire.plus/animes/yuusha-yamemasu-todos-os-episodios",
      "texto_original": "Yuusha, Yamemasu",
      "rating": 7,
      "classificacao_etaria": "A14",
      "imagem_original": "https://animefire.plus/img/animes/yuusha-yamemasu.webp",
      "imagem_pasta": "https://animefire.plus/img/animes/yuusha-yamemasu/",
      "secao": "legendados",
      "pagina": 34,
      "total_episodios": 12,
      "link_video": "https://animefire.plus/video/yuusha-yamemasu"
    },
    {
      "id": 4325,
      "nome": "Yuusha, Yamemasu: Kenshuu Ryokou wa Mokuteki wo Miushinau na",
      "link": "https://animefire.plus/animes/yuusha-yamemasu-kenshuu-ryokou-wa-mokuteki-wo-miushinau-na-todos-os-episodios",
      "texto_original": "Yuusha, Yamemasu: Kenshuu Ryokou wa Mokuteki wo Miushinau na",
      "rating": 6.55,
      "classificacao_etaria": "A14",
      "imagem_original": "https://animefire.plus/img/animes/yuusha-yamemasu-kenshuu-ryokou-wa-mokuteki-wo-miushinau-na.webp",
      "imagem_pasta": "https://animefire.plus/img/animes/yuusha-yamemasu-kenshuu-ryokou-wa-mokuteki-wo-miushinau-na/",
      "secao": "legendados",
      "pagina": 32,
      "total_episodios": 2,
      "link_video": "https://animefire.plus/video/yuusha-yamemasu-kenshuu-ryokou-wa-mokuteki-wo-miushinau-na"
    },
    {
      "id": 4328,
      "nome": "Yuyushiki: Nyanyashiki",
      "link": "https://animefire.plus/animes/yuyushiki-nyanyashiki-todos-os-episodios",
      "texto_original": "Yuyushiki: Nyanyashiki",
      "rating": 6.3,
      "classificacao_etaria": "A14",
      "imagem_original": "https://animefire.plus/img/animes/yuyushiki-nyanyashiki.webp",
      "imagem_pasta": "https://animefire.plus/img/animes/yuyushiki-nyanyashiki/",
      "secao": "legendados",
      "pagina": 85,
      "total_episodios": 1,
      "link_video": "https://animefire.plus/video/yuyushiki-nyanyashiki"
    },
    {
      "id": 4330,
      "nome": "Z/X: Code Reunion",
      "link": "https://animefire.plus/animes/z-x-code-reunion-todos-os-episodios",
      "texto_original": "Z/X: Code Reunion",
      "rating": 5.68,
      "classificacao_etaria": "A14",
      "imagem_original": "https://animefire.plus/img/animes/z-x-code-reunion.webp",
      "imagem_pasta": "https://animefire.plus/img/animes/z-x-code-reunion/",
      "secao": "legendados",
      "pagina": 89,
      "total_episodios": 0,
      "link_video": "https://animefire.plus/video/z-x-code-reunion"
    },
    {
      "id": 4334,
      "nome": "Zanting! Rang Wo Cha Gonglue",
      "link": "https://animefire.plus/animes/zanting-rang-wo-cha-gonglue-todos-os-episodios",
      "texto_original": "Zanting! Rang Wo Cha Gonglue",
      "rating": 6.41,
      "classificacao_etaria": "A14",
      "imagem_original": "https://animefire.plus/img/animes/zanting-rang-wo-cha-gonglue.webp",
      "imagem_pasta": "https://animefire.plus/img/animes/zanting-rang-wo-cha-gonglue/",
      "secao": "legendados,lancamentos",
      "pagina": 19,
      "total_episodios": 6,
      "link_video": "https://animefire.plus/video/zanting-rang-wo-cha-gonglue"
    },
    {
      "id": 4335,
      "nome": "Zashiki Warashi no Tatami-chan",
      "link": "https://animefire.plus/animes/zashiki-warashi-no-tatami-chan-todos-os-episodios",
      "texto_original": "Zashiki Warashi no Tatami-chan",
      "rating": 5.23,
      "classificacao_etaria": "A14",
      "imagem_original": "https://animefire.plus/img/animes/zashiki-warashi-no-tatami-chan.webp",
      "imagem_pasta": "https://animefire.plus/img/animes/zashiki-warashi-no-tatami-chan/",
      "secao": "legendados",
      "pagina": 80,
      "total_episodios": 0,
      "link_video": "https://animefire.plus/video/zashiki-warashi-no-tatami-chan"
    },
    {
      "id": 4336,
      "nome": "Zatsu Tabi: That's Journey",
      "link": "https://animefire.plus/animes/zatsu-tabi-that-s-journey-todos-os-episodios",
      "texto_original": "Zatsu Tabi: That's Journey",
      "rating": 6.93,
      "classificacao_etaria": "A14",
      "imagem_original": "https://animefire.plus/img/animes/zatsu-tabi-that-s-journey.webp",
      "imagem_pasta": "https://animefire.plus/img/animes/zatsu-tabi-that-s-journey/",
      "secao": "legendados",
      "pagina": 5,
      "total_episodios": 12,
      "link_video": "https://animefire.plus/video/zatsu-tabi-that-s-journey"
    },
    {
      "id": 4337,
      "nome": "Ze Tian Ji",
      "link": "https://animefire.plus/animes/ze-tian-ji-todos-os-episodios",
      "texto_original": "Ze Tian Ji",
      "rating": 6.96,
      "classificacao_etaria": "A14",
      "imagem_original": "https://animefire.plus/img/animes/ze-tian-ji.webp",
      "imagem_pasta": "https://animefire.plus/img/animes/ze-tian-ji/",
      "secao": "legendados",
      "pagina": 142,
      "total_episodios": 13,
      "link_video": "https://animefire.plus/video/ze-tian-ji"
    },
    {
      "id": 4339,
      "nome": "Ze Tian Ji 3rd Season",
      "link": "https://animefire.plus/animes/ze-tian-ji-3rd-season-todos-os-episodios",
      "texto_original": "Ze Tian Ji 3rd Season",
      "rating": 6.86,
      "classificacao_etaria": "A14",
      "imagem_original": "https://animefire.plus/img/animes/ze-tian-ji-3rd-season.webp",
      "imagem_pasta": "https://animefire.plus/img/animes/ze-tian-ji-3rd-season/",
      "secao": "legendados",
      "pagina": 118,
      "total_episodios": 12,
      "link_video": "https://animefire.plus/video/ze-tian-ji-3rd-season"
    },
    {
      "id": 4342,
      "nome": "Zenonzard: The Animation",
      "link": "https://animefire.plus/animes/zenonzard-the-animation-todos-os-episodios",
      "texto_original": "Zenonzard: The Animation",
      "rating": 6.68,
      "classificacao_etaria": "A14",
      "imagem_original": "https://animefire.plus/img/animes/zenonzard-the-animation.webp",
      "imagem_pasta": "https://animefire.plus/img/animes/zenonzard-the-animation/",
      "secao": "legendados",
      "pagina": 91,
      "total_episodios": 8,
      "link_video": "https://animefire.plus/video/zenonzard-the-animation"
    },
    {
      "id": 4349,
      "nome": "Zero no Tsukaima: Princesses no Rondo Picture Drama",
      "link": "https://animefire.plus/animes/zero-no-tsukaima-princesses-no-rondo-picture-drama-todos-os-episodios",
      "texto_original": "Zero no Tsukaima: Princesses no Rondo Picture Drama",
      "rating": 6.98,
      "classificacao_etaria": "A14",
      "imagem_original": "https://animefire.plus/img/animes/zero-no-tsukaima-princesses-no-rondo-picture-drama.webp",
      "imagem_pasta": "https://animefire.plus/img/animes/zero-no-tsukaima-princesses-no-rondo-picture-drama/",
      "secao": "legendados",
      "pagina": 85,
      "total_episodios": 7,
      "link_video": "https://animefire.plus/video/zero-no-tsukaima-princesses-no-rondo-picture-drama"
    },
    {
      "id": 4350,
      "nome": "Zetman",
      "link": "https://animefire.plus/animes/zetman-todos-os-episodios",
      "texto_original": "Zetman",
      "rating": 6.84,
      "classificacao_etaria": "A18",
      "imagem_original": "https://animefire.plus/img/animes/zetman.webp",
      "imagem_pasta": "https://animefire.plus/img/animes/zetman/",
      "secao": "legendados",
      "pagina": 16,
      "total_episodios": 13,
      "link_video": "https://animefire.plus/video/zetman"
    }
  ],
  "pagination": {
    "current_page": 90,
    "per_page": 20,
    "total_items": 1805,
    "total_pages": 91,
    "has_next": true,
    "has_prev": true
  }
}
