{
  "message": "Animes com rating entre 5 e 7",
  "rating_range": {
    "min": 5,
    "max": 7
  },
  "data": [
    {
      "id": 2953,
      "nome": "Paradox Live the Animation",
      "link": "https://animefire.plus/animes/paradox-live-the-animation-todos-os-episodios",
      "texto_original": "Paradox Live the Animation",
      "rating": 6.86,
      "classificacao_etaria": "A14",
      "imagem_original": "https://animefire.plus/img/animes/paradox-live-the-animation.webp",
      "imagem_pasta": "https://animefire.plus/img/animes/paradox-live-the-animation/",
      "secao": "legendados",
      "pagina": 19,
      "total_episodios": 12,
      "link_video": "https://animefire.plus/video/paradox-live-the-animation"
    },
    {
      "id": 2955,
      "nome": "Party kara Tsuihou sareta Sono Chiyushi, Jitsu wa Saikyou ni Tsuki (Dublado)",
      "link": "https://animefire.plus/animes/party-kara-tsuihou-sareta-sono-chiyushi-jitsu-wa-saikyou-ni-tsuki-dublado-todos-os-episodios",
      "texto_original": "Party kara Tsuihou sareta Sono Chiyushi, Jitsu wa Saikyou ni Tsuki (Dublado)",
      "rating": 5.7,
      "classificacao_etaria": "A14",
      "imagem_original": "https://animefire.plus/img/animes/party-kara-tsuihou-sareta-sono-chiyushi-jitsu-wa-saikyou-ni-tsuki.webp",
      "imagem_pasta": "https://animefire.plus/img/animes/party-kara-tsuihou-sareta-sono-chiyushi-jitsu-wa-saikyou-ni-tsuki/",
      "secao": "dublados,legendados,lancamentos",
      "pagina": 2,
      "total_episodios": 12,
      "link_video": "https://animefire.plus/video/party-kara-tsuihou-sareta-sono-chiyushi-jitsu-wa-saikyou-ni-tsuki-dublado"
    },
    {
      "id": 2956,
      "nome": "Pastel Life",
      "link": "https://animefire.plus/animes/pastel-life-todos-os-episodios",
      "texto_original": "Pastel Life",
      "rating": 6.62,
      "classificacao_etaria": "A14",
      "imagem_original": "https://animefire.plus/img/animes/pastel-life.webp",
      "imagem_pasta": "https://animefire.plus/img/animes/pastel-life/",
      "secao": "legendados",
      "pagina": 67,
      "total_episodios": 6,
      "link_video": "https://animefire.plus/video/pastel-life"
    },
    {
      "id": 2957,
      "nome": "Pastel Memories",
      "link": "https://animefire.plus/animes/pastel-memories-todos-os-episodios",
      "texto_original": "Pastel Memories",
      "rating": 5.12,
      "classificacao_etaria": "A14",
      "imagem_original": "https://animefire.plus/img/animes/pastel-memories.webp",
      "imagem_pasta": "https://animefire.plus/img/animes/pastel-memories/",
      "secao": "legendados",
      "pagina": 107,
      "total_episodios": 12,
      "link_video": "https://animefire.plus/video/pastel-memories"
    },
    {
      "id": 2958,
      "nome": "Patalliro Saiyuuki!",
      "link": "https://animefire.plus/animes/patalliro-saiyuuki-todos-os-episodios",
      "texto_original": "Patalliro Saiyuuki!",
      "rating": 6.58,
      "classificacao_etaria": "A14",
      "imagem_original": "https://animefire.plus/img/animes/patalliro-saiyuuki.webp",
      "imagem_pasta": "https://animefire.plus/img/animes/patalliro-saiyuuki/",
      "secao": "legendados",
      "pagina": 44,
      "total_episodios": 9,
      "link_video": "https://animefire.plus/video/patalliro-saiyuuki"
    },
    {
      "id": 2961,
      "nome": "Peach Boy Riverside",
      "link": "https://animefire.plus/animes/peach-boy-riverside-todos-os-episodios",
      "texto_original": "Peach Boy Riverside",
      "rating": 6.24,
      "classificacao_etaria": "A16",
      "imagem_original": "https://animefire.plus/img/animes/peach-boy-riverside.webp",
      "imagem_pasta": "https://animefire.plus/img/animes/peach-boy-riverside/",
      "secao": "legendados",
      "pagina": 41,
      "total_episodios": 12,
      "link_video": "https://animefire.plus/video/peach-boy-riverside"
    },
    {
      "id": 2963,
      "nome": "Peeping Life TV: Season 1??",
      "link": "https://animefire.plus/animes/peeping-life-tv-season-1-todos-os-episodios",
      "texto_original": "Peeping Life TV: Season 1??",
      "rating": 5.72,
      "classificacao_etaria": null,
      "imagem_original": "https://animefire.plus/img/animes/peeping-life-tv-season-1.webp",
      "imagem_pasta": "https://animefire.plus/img/animes/peeping-life-tv-season-1/",
      "secao": "legendados",
      "pagina": 165,
      "total_episodios": 10,
      "link_video": "https://animefire.plus/video/peeping-life-tv-season-1"
    },
    {
      "id": 2964,
      "nome": "Penguin Musume♥Heart",
      "link": "https://animefire.plus/animes/penguin-musume-heart-todos-os-episodios",
      "texto_original": "Penguin Musume♥Heart",
      "rating": 6.81,
      "classificacao_etaria": "A18",
      "imagem_original": "https://animefire.plus/img/animes/penguin-musume-heart.webp",
      "imagem_pasta": "https://animefire.plus/img/animes/penguin-musume-heart/",
      "secao": "legendados",
      "pagina": 133,
      "total_episodios": 22,
      "link_video": "https://animefire.plus/video/penguin-musume-heart"
    },
    {
      "id": 2966,
      "nome": "Persona 4 the Golden Animation",
      "link": "https://animefire.plus/animes/persona-4-the-golden-animation-todos-os-episodios",
      "texto_original": "Persona 4 the Golden Animation",
      "rating": 6.67,
      "classificacao_etaria": "A14",
      "imagem_original": "https://animefire.plus/img/animes/persona-4-the-golden-animation.webp",
      "imagem_pasta": "https://animefire.plus/img/animes/persona-4-the-golden-animation/",
      "secao": "legendados",
      "pagina": 74,
      "total_episodios": 12,
      "link_video": "https://animefire.plus/video/persona-4-the-golden-animation"
    },
    {
      "id": 2967,
      "nome": "Persona 5 the Animation",
      "link": "https://animefire.plus/animes/persona-5-the-animation-todos-os-episodios",
      "texto_original": "Persona 5 the Animation",
      "rating": 6.71,
      "classificacao_etaria": "A16",
      "imagem_original": "https://animefire.plus/img/animes/persona-5-the-animation.webp",
      "imagem_pasta": "https://animefire.plus/img/animes/persona-5-the-animation/",
      "secao": "legendados",
      "pagina": 120,
      "total_episodios": 26,
      "link_video": "https://animefire.plus/video/persona-5-the-animation"
    },
    {
      "id": 2968,
      "nome": "Persona: Trinity Soul",
      "link": "https://animefire.plus/animes/persona-trinity-soul-todos-os-episodios",
      "texto_original": "Persona: Trinity Soul",
      "rating": 6.66,
      "classificacao_etaria": "A14",
      "imagem_original": "https://animefire.plus/img/animes/persona-trinity-soul.webp",
      "imagem_pasta": "https://animefire.plus/img/animes/persona-trinity-soul/",
      "secao": "legendados",
      "pagina": 136,
      "total_episodios": 26,
      "link_video": "https://animefire.plus/video/persona-trinity-soul"
    },
    {
      "id": 2969,
      "nome": "Peter Grill to Kenja no Jikan",
      "link": "https://animefire.plus/animes/peter-grill-to-kenja-no-jikan-todos-os-episodios",
      "texto_original": "Peter Grill to Kenja no Jikan",
      "rating": 5.51,
      "classificacao_etaria": "A18",
      "imagem_original": "https://animefire.plus/img/animes/peter-grill-to-kenja-no-jikan.webp",
      "imagem_pasta": "https://animefire.plus/img/animes/peter-grill-to-kenja-no-jikan/",
      "secao": "legendados",
      "pagina": 58,
      "total_episodios": 12,
      "link_video": "https://animefire.plus/video/peter-grill-to-kenja-no-jikan"
    },
    {
      "id": 2970,
      "nome": "Peter Grill to Kenja no Jikan: Super Extra",
      "link": "https://animefire.plus/animes/peter-grill-to-kenja-no-jikan-super-extra-todos-os-episodios",
      "texto_original": "Peter Grill to Kenja no Jikan: Super Extra",
      "rating": 5.94,
      "classificacao_etaria": "A18",
      "imagem_original": "https://animefire.plus/img/animes/peter-grill-to-kenja-no-jikan-super-extra.webp",
      "imagem_pasta": "https://animefire.plus/img/animes/peter-grill-to-kenja-no-jikan-super-extra/",
      "secao": "legendados",
      "pagina": 29,
      "total_episodios": 12,
      "link_video": "https://animefire.plus/video/peter-grill-to-kenja-no-jikan-super-extra"
    },
    {
      "id": 2972,
      "nome": "Phantasy Star Online 2 The Animation",
      "link": "https://animefire.plus/animes/phantasy-star-online-2-the-animation-todos-os-episodios",
      "texto_original": "Phantasy Star Online 2 The Animation",
      "rating": 6.43,
      "classificacao_etaria": "A14",
      "imagem_original": "https://animefire.plus/img/animes/phantasy-star-online-2-the-animation.webp",
      "imagem_pasta": "https://animefire.plus/img/animes/phantasy-star-online-2-the-animation/",
      "secao": "legendados",
      "pagina": 165,
      "total_episodios": 1,
      "link_video": "https://animefire.plus/video/phantasy-star-online-2-the-animation"
    },
    {
      "id": 2973,
      "nome": "Phantasy Star Online 2: Episode Oracle",
      "link": "https://animefire.plus/animes/phantasy-star-online-2-episode-oracle-todos-os-episodios",
      "texto_original": "Phantasy Star Online 2: Episode Oracle",
      "rating": 6.55,
      "classificacao_etaria": "A14",
      "imagem_original": "https://animefire.plus/img/animes/phantasy-star-online-2-episode-oracle.webp",
      "imagem_pasta": "https://animefire.plus/img/animes/phantasy-star-online-2-episode-oracle/",
      "secao": "legendados",
      "pagina": 110,
      "total_episodios": 1,
      "link_video": "https://animefire.plus/video/phantasy-star-online-2-episode-oracle"
    },
    {
      "id": 2974,
      "nome": "Phantom in the Twilight",
      "link": "https://animefire.plus/animes/phantom-in-the-twilight-todos-os-episodios",
      "texto_original": "Phantom in the Twilight",
      "rating": 6.52,
      "classificacao_etaria": "A14",
      "imagem_original": "https://animefire.plus/img/animes/phantom-in-the-twilight.webp",
      "imagem_pasta": "https://animefire.plus/img/animes/phantom-in-the-twilight/",
      "secao": "legendados",
      "pagina": 121,
      "total_episodios": 12,
      "link_video": "https://animefire.plus/video/phantom-in-the-twilight"
    },
    {
      "id": 2979,
      "nome": "Photokano",
      "link": "https://animefire.plus/animes/photokano-todos-os-episodios",
      "texto_original": "Photokano",
      "rating": 6.31,
      "classificacao_etaria": "A14",
      "imagem_original": "https://animefire.plus/img/animes/photokano.webp",
      "imagem_pasta": "https://animefire.plus/img/animes/photokano/",
      "secao": "legendados",
      "pagina": 133,
      "total_episodios": 3,
      "link_video": "https://animefire.plus/video/photokano"
    },
    {
      "id": 2980,
      "nome": "Piace: Watashi no Italian",
      "link": "https://animefire.plus/animes/piace-watashi-no-italian-todos-os-episodios",
      "texto_original": "Piace: Watashi no Italian",
      "rating": 5.89,
      "classificacao_etaria": "A14",
      "imagem_original": "https://animefire.plus/img/animes/piace-watashi-no-italian.webp",
      "imagem_pasta": "https://animefire.plus/img/animes/piace-watashi-no-italian/",
      "secao": "legendados",
      "pagina": 112,
      "total_episodios": 0,
      "link_video": "https://animefire.plus/video/piace-watashi-no-italian"
    },
    {
      "id": 2981,
      "nome": "Piano (TV)",
      "link": "https://animefire.plus/animes/piano-tv-todos-os-episodios",
      "texto_original": "Piano (TV)",
      "rating": 6.04,
      "classificacao_etaria": null,
      "imagem_original": "https://animefire.plus/img/animes/piano-tv.webp",
      "imagem_pasta": "https://animefire.plus/img/animes/piano-tv/",
      "secao": "legendados",
      "pagina": 136,
      "total_episodios": 10,
      "link_video": "https://animefire.plus/video/piano-tv"
    },
    {
      "id": 2990,
      "nome": "Plastic Little",
      "link": "https://animefire.plus/animes/plastic-little-todos-os-episodios",
      "texto_original": "Plastic Little",
      "rating": 6.17,
      "classificacao_etaria": "A18",
      "imagem_original": "https://animefire.plus/img/animes/plastic-little.webp",
      "imagem_pasta": "https://animefire.plus/img/animes/plastic-little/",
      "secao": "legendados",
      "pagina": 66,
      "total_episodios": 1,
      "link_video": "https://animefire.plus/video/plastic-little"
    }
  ],
  "pagination": {
    "current_page": 63,
    "per_page": 20,
    "total_items": 1805,
    "total_pages": 91,
    "has_next": true,
    "has_prev": true
  }
}
