{
  "message": "Animes com rating entre 5 e 7",
  "rating_range": {
    "min": 5,
    "max": 7
  },
  "data": [
    {
      "id": 4058,
      "nome": "Val x Love",
      "link": "https://animefire.plus/animes/val-x-love-todos-os-episodios",
      "texto_original": "Val x Love",
      "rating": 5.89,
      "classificacao_etaria": "A16",
      "imagem_original": "https://animefire.plus/img/animes/val-x-love.webp",
      "imagem_pasta": "https://animefire.plus/img/animes/val-x-love/",
      "secao": "legendados",
      "pagina": 110,
      "total_episodios": 0,
      "link_video": "https://animefire.plus/video/val-x-love"
    },
    {
      "id": 4059,
      "nome": "Valkyrie Drive: Mermaid",
      "link": "https://animefire.plus/animes/valkyrie-drive-mermaid-todos-os-episodios",
      "texto_original": "Valkyrie Drive: Mermaid",
      "rating": 6.21,
      "classificacao_etaria": "A18",
      "imagem_original": "https://animefire.plus/img/animes/valkyrie-drive-mermaid.webp",
      "imagem_pasta": "https://animefire.plus/img/animes/valkyrie-drive-mermaid/",
      "secao": "legendados",
      "pagina": 91,
      "total_episodios": 0,
      "link_video": "https://animefire.plus/video/valkyrie-drive-mermaid"
    },
    {
      "id": 4060,
      "nome": "Vampire Dormitory",
      "link": "https://animefire.plus/animes/vampire-dormitory-todos-os-episodios",
      "texto_original": "Vampire Dormitory",
      "rating": 6.22,
      "classificacao_etaria": "A14",
      "imagem_original": "https://animefire.plus/img/animes/vampire-dormitory.webp",
      "imagem_pasta": "https://animefire.plus/img/animes/vampire-dormitory/",
      "secao": "legendados",
      "pagina": 15,
      "total_episodios": 12,
      "link_video": "https://animefire.plus/video/vampire-dormitory"
    },
    {
      "id": 4062,
      "nome": "Vampire Hunter",
      "link": "https://animefire.plus/animes/vampire-hunter-todos-os-episodios",
      "texto_original": "Vampire Hunter",
      "rating": 6.74,
      "classificacao_etaria": "A16",
      "imagem_original": "https://animefire.plus/img/animes/vampire-hunter.webp",
      "imagem_pasta": "https://animefire.plus/img/animes/vampire-hunter/",
      "secao": "legendados",
      "pagina": 172,
      "total_episodios": 4,
      "link_video": "https://animefire.plus/video/vampire-hunter"
    },
    {
      "id": 4071,
      "nome": "Vanquished Queens",
      "link": "https://animefire.plus/animes/vanquished-queens-todos-os-episodios",
      "texto_original": "Vanquished Queens",
      "rating": 6.1,
      "classificacao_etaria": "A18",
      "imagem_original": "https://animefire.plus/img/animes/vanquished-queens.webp",
      "imagem_pasta": "https://animefire.plus/img/animes/vanquished-queens/",
      "secao": "legendados",
      "pagina": 76,
      "total_episodios": 4,
      "link_video": "https://animefire.plus/video/vanquished-queens"
    },
    {
      "id": 4072,
      "nome": "Variable Geo",
      "link": "https://animefire.plus/animes/variable-geo-todos-os-episodios",
      "texto_original": "Variable Geo",
      "rating": 5.69,
      "classificacao_etaria": "A18",
      "imagem_original": "https://animefire.plus/img/animes/variable-geo.webp",
      "imagem_pasta": "https://animefire.plus/img/animes/variable-geo/",
      "secao": "legendados",
      "pagina": 138,
      "total_episodios": 3,
      "link_video": "https://animefire.plus/video/variable-geo"
    },
    {
      "id": 4073,
      "nome": "Vatican Kiseki Chousakan",
      "link": "https://animefire.plus/animes/vatican-kiseki-chousakan-todos-os-episodios",
      "texto_original": "Vatican Kiseki Chousakan",
      "rating": 6.43,
      "classificacao_etaria": "A16",
      "imagem_original": "https://animefire.plus/img/animes/vatican-kiseki-chousakan.webp",
      "imagem_pasta": "https://animefire.plus/img/animes/vatican-kiseki-chousakan/",
      "secao": "legendados",
      "pagina": 167,
      "total_episodios": 12,
      "link_video": "https://animefire.plus/video/vatican-kiseki-chousakan"
    },
    {
      "id": 4074,
      "nome": "Vazzrock the Animation",
      "link": "https://animefire.plus/animes/vazzrock-the-animation-todos-os-episodios",
      "texto_original": "Vazzrock the Animation",
      "rating": 5.45,
      "classificacao_etaria": "A14",
      "imagem_original": "https://animefire.plus/img/animes/vazzrock-the-animation.webp",
      "imagem_pasta": "https://animefire.plus/img/animes/vazzrock-the-animation/",
      "secao": "legendados",
      "pagina": 28,
      "total_episodios": 13,
      "link_video": "https://animefire.plus/video/vazzrock-the-animation"
    },
    {
      "id": 4075,
      "nome": "Venus Project: Climax",
      "link": "https://animefire.plus/animes/venus-project-climax-todos-os-episodios",
      "texto_original": "Venus Project: Climax",
      "rating": 5.41,
      "classificacao_etaria": "A14",
      "imagem_original": "https://animefire.plus/img/animes/venus-project-climax.webp",
      "imagem_pasta": "https://animefire.plus/img/animes/venus-project-climax/",
      "secao": "legendados",
      "pagina": 98,
      "total_episodios": 6,
      "link_video": "https://animefire.plus/video/venus-project-climax"
    },
    {
      "id": 4076,
      "nome": "Venus Versus Virus",
      "link": "https://animefire.plus/animes/venus-versus-virus-todos-os-episodios",
      "texto_original": "Venus Versus Virus",
      "rating": 6.47,
      "classificacao_etaria": "A14",
      "imagem_original": "https://animefire.plus/img/animes/venus-versus-virus.webp",
      "imagem_pasta": "https://animefire.plus/img/animes/venus-versus-virus/",
      "secao": "legendados",
      "pagina": 164,
      "total_episodios": 12,
      "link_video": "https://animefire.plus/video/venus-versus-virus"
    },
    {
      "id": 4078,
      "nome": "Viewtiful Joe (Dublado)",
      "link": "https://animefire.plus/animes/viewtiful-joe-dublado-todos-os-episodios",
      "texto_original": "Viewtiful Joe (Dublado)",
      "rating": 6.76,
      "classificacao_etaria": "A14",
      "imagem_original": "https://animefire.plus/img/animes/viewtiful-joe.webp",
      "imagem_pasta": "https://animefire.plus/img/animes/viewtiful-joe/",
      "secao": "dublados",
      "pagina": 20,
      "total_episodios": 51,
      "link_video": "https://animefire.plus/video/viewtiful-joe-dublado"
    },
    {
      "id": 4083,
      "nome": "Viper's Creed",
      "link": "https://animefire.plus/animes/viper-s-creed-todos-os-episodios",
      "texto_original": "Viper's Creed",
      "rating": 6.8,
      "classificacao_etaria": "A14",
      "imagem_original": "https://animefire.plus/img/animes/viper-s-creed.webp",
      "imagem_pasta": "https://animefire.plus/img/animes/viper-s-creed/",
      "secao": "legendados",
      "pagina": 147,
      "total_episodios": 12,
      "link_video": "https://animefire.plus/video/viper-s-creed"
    },
    {
      "id": 4084,
      "nome": "Virtual-san wa Miteiru",
      "link": "https://animefire.plus/animes/virtual-san-wa-miteiru-todos-os-episodios",
      "texto_original": "Virtual-san wa Miteiru",
      "rating": 5.42,
      "classificacao_etaria": "A14",
      "imagem_original": "https://animefire.plus/img/animes/virtual-san-wa-miteiru.webp",
      "imagem_pasta": "https://animefire.plus/img/animes/virtual-san-wa-miteiru/",
      "secao": "legendados",
      "pagina": 97,
      "total_episodios": 12,
      "link_video": "https://animefire.plus/video/virtual-san-wa-miteiru"
    },
    {
      "id": 4085,
      "nome": "Visual Prison",
      "link": "https://animefire.plus/animes/visual-prison-todos-os-episodios",
      "texto_original": "Visual Prison",
      "rating": 6.72,
      "classificacao_etaria": "A14",
      "imagem_original": "https://animefire.plus/img/animes/visual-prison.webp",
      "imagem_pasta": "https://animefire.plus/img/animes/visual-prison/",
      "secao": "legendados",
      "pagina": 39,
      "total_episodios": 12,
      "link_video": "https://animefire.plus/video/visual-prison"
    },
    {
      "id": 4087,
      "nome": "ViVid Strike! Specials",
      "link": "https://animefire.plus/animes/vivid-strike-specials-todos-os-episodios",
      "texto_original": "ViVid Strike! Specials",
      "rating": 6.71,
      "classificacao_etaria": "A14",
      "imagem_original": "https://animefire.plus/img/animes/vivid-strike-specials.webp",
      "imagem_pasta": "https://animefire.plus/img/animes/vivid-strike-specials/",
      "secao": "legendados",
      "pagina": 68,
      "total_episodios": 1,
      "link_video": "https://animefire.plus/video/vivid-strike-specials"
    },
    {
      "id": 4091,
      "nome": "W: Wish",
      "link": "https://animefire.plus/animes/w-wish-todos-os-episodios",
      "texto_original": "W: Wish",
      "rating": 6.24,
      "classificacao_etaria": "A14",
      "imagem_original": "https://animefire.plus/img/animes/w-wish.webp",
      "imagem_pasta": "https://animefire.plus/img/animes/w-wish/",
      "secao": "legendados",
      "pagina": 153,
      "total_episodios": 13,
      "link_video": "https://animefire.plus/video/w-wish"
    },
    {
      "id": 4093,
      "nome": "Wagamama High Spec",
      "link": "https://animefire.plus/animes/wagamama-high-spec-todos-os-episodios",
      "texto_original": "Wagamama High Spec",
      "rating": 5.45,
      "classificacao_etaria": "A14",
      "imagem_original": "https://animefire.plus/img/animes/wagamama-high-spec.webp",
      "imagem_pasta": "https://animefire.plus/img/animes/wagamama-high-spec/",
      "secao": "legendados",
      "pagina": 115,
      "total_episodios": 9,
      "link_video": "https://animefire.plus/video/wagamama-high-spec"
    },
    {
      "id": 4095,
      "nome": "Wakaba*Girl",
      "link": "https://animefire.plus/animes/wakaba-girl-todos-os-episodios",
      "texto_original": "Wakaba*Girl",
      "rating": 6.92,
      "classificacao_etaria": "A14",
      "imagem_original": "https://animefire.plus/img/animes/wakaba-girl.webp",
      "imagem_pasta": "https://animefire.plus/img/animes/wakaba-girl/",
      "secao": "legendados",
      "pagina": 62,
      "total_episodios": 13,
      "link_video": "https://animefire.plus/video/wakaba-girl"
    },
    {
      "id": 4096,
      "nome": "Wakako-zake",
      "link": "https://animefire.plus/animes/wakako-zake-todos-os-episodios",
      "texto_original": "Wakako-zake",
      "rating": 6.69,
      "classificacao_etaria": "A14",
      "imagem_original": "https://animefire.plus/img/animes/wakako-zake.webp",
      "imagem_pasta": "https://animefire.plus/img/animes/wakako-zake/",
      "secao": "legendados",
      "pagina": 103,
      "total_episodios": 12,
      "link_video": "https://animefire.plus/video/wakako-zake"
    },
    {
      "id": 4098,
      "nome": "Wake Up, Girls! Shin Shou",
      "link": "https://animefire.plus/animes/wake-up-girls-shin-shou-todos-os-episodios",
      "texto_original": "Wake Up, Girls! Shin Shou",
      "rating": 6.5,
      "classificacao_etaria": "A14",
      "imagem_original": "https://animefire.plus/img/animes/wake-up-girls-shin-shou.webp",
      "imagem_pasta": "https://animefire.plus/img/animes/wake-up-girls-shin-shou/",
      "secao": "legendados",
      "pagina": 75,
      "total_episodios": 12,
      "link_video": "https://animefire.plus/video/wake-up-girls-shin-shou"
    }
  ],
  "pagination": {
    "current_page": 85,
    "per_page": 20,
    "total_items": 1805,
    "total_pages": 91,
    "has_next": true,
    "has_prev": true
  }
}
