{
  "message": "Animes com rating entre 5 e 7",
  "rating_range": {
    "min": 5,
    "max": 7
  },
  "data": [
    {
      "id": 389,
      "nome": "Binan Koukou Chikyuu Boueibu LOVE!",
      "link": "https://animefire.plus/animes/binan-koukou-chikyuu-boueibu-love-todos-os-episodios",
      "texto_original": "Binan Koukou Chikyuu Boueibu LOVE!",
      "rating": 7,
      "classificacao_etaria": "A14",
      "imagem_original": "https://animefire.plus/img/animes/binan-koukou-chikyuu-boueibu-love.webp",
      "imagem_pasta": "https://animefire.plus/img/animes/binan-koukou-chikyuu-boueibu-love/",
      "secao": "legendados",
      "pagina": 143,
      "total_episodios": 8,
      "link_video": "https://animefire.plus/video/binan-koukou-chikyuu-boueibu-love"
    },
    {
      "id": 390,
      "nome": "Binbou Shimai Monogatari",
      "link": "https://animefire.plus/animes/binbou-shimai-monogatari-todos-os-episodios",
      "texto_original": "Binbou Shimai Monogatari",
      "rating": 6.92,
      "classificacao_etaria": null,
      "imagem_original": "https://animefire.plus/img/animes/binbou-shimai-monogatari.webp",
      "imagem_pasta": "https://animefire.plus/img/animes/binbou-shimai-monogatari/",
      "secao": "legendados",
      "pagina": 117,
      "total_episodios": 10,
      "link_video": "https://animefire.plus/video/binbou-shimai-monogatari"
    },
    {
      "id": 392,
      "nome": "Binchou-tan",
      "link": "https://animefire.plus/animes/binchou-tan-todos-os-episodios",
      "texto_original": "Binchou-tan",
      "rating": 6.96,
      "classificacao_etaria": null,
      "imagem_original": "https://animefire.plus/img/animes/binchou-tan.webp",
      "imagem_pasta": "https://animefire.plus/img/animes/binchou-tan/",
      "secao": "legendados",
      "pagina": 155,
      "total_episodios": 6,
      "link_video": "https://animefire.plus/video/binchou-tan"
    },
    {
      "id": 393,
      "nome": "Binzume Yousei",
      "link": "https://animefire.plus/animes/binzume-yousei-todos-os-episodios",
      "texto_original": "Binzume Yousei",
      "rating": 6.5,
      "classificacao_etaria": null,
      "imagem_original": "https://animefire.plus/img/animes/binzume-yousei.webp",
      "imagem_pasta": "https://animefire.plus/img/animes/binzume-yousei/",
      "secao": "legendados",
      "pagina": 141,
      "total_episodios": 13,
      "link_video": "https://animefire.plus/video/binzume-yousei"
    },
    {
      "id": 394,
      "nome": "Bio Hunter",
      "link": "https://animefire.plus/animes/bio-hunter-todos-os-episodios",
      "texto_original": "Bio Hunter",
      "rating": 5.96,
      "classificacao_etaria": "A18",
      "imagem_original": "https://animefire.plus/img/animes/bio-hunter.webp",
      "imagem_pasta": "https://animefire.plus/img/animes/bio-hunter/",
      "secao": "legendados",
      "pagina": 66,
      "total_episodios": 1,
      "link_video": "https://animefire.plus/video/bio-hunter"
    },
    {
      "id": 403,
      "nome": "Bishoujo Yuugekitai Battle Skipper",
      "link": "https://animefire.plus/animes/bishoujo-yuugekitai-battle-skipper-todos-os-episodios",
      "texto_original": "Bishoujo Yuugekitai Battle Skipper",
      "rating": 5.23,
      "classificacao_etaria": "A14",
      "imagem_original": "https://animefire.plus/img/animes/bishoujo-yuugekitai-battle-skipper.webp",
      "imagem_pasta": "https://animefire.plus/img/animes/bishoujo-yuugekitai-battle-skipper/",
      "secao": "legendados",
      "pagina": 77,
      "total_episodios": 3,
      "link_video": "https://animefire.plus/video/bishoujo-yuugekitai-battle-skipper"
    },
    {
      "id": 413,
      "nome": "Black Lagoon Omake",
      "link": "https://animefire.plus/animes/black-lagoon-omake-todos-os-episodios",
      "texto_original": "Black Lagoon Omake",
      "rating": 6.81,
      "classificacao_etaria": "A14",
      "imagem_original": "https://animefire.plus/img/animes/black-lagoon-omake.webp",
      "imagem_pasta": "https://animefire.plus/img/animes/black-lagoon-omake/",
      "secao": "legendados",
      "pagina": 43,
      "total_episodios": 5,
      "link_video": "https://animefire.plus/video/black-lagoon-omake"
    },
    {
      "id": 415,
      "nome": "Black Magic M-66",
      "link": "https://animefire.plus/animes/black-magic-m-66-todos-os-episodios",
      "texto_original": "Black Magic M-66",
      "rating": 6.39,
      "classificacao_etaria": "A16",
      "imagem_original": "https://animefire.plus/img/animes/black-magic-m-66.webp",
      "imagem_pasta": "https://animefire.plus/img/animes/black-magic-m-66/",
      "secao": "legendados",
      "pagina": 56,
      "total_episodios": 1,
      "link_video": "https://animefire.plus/video/black-magic-m-66"
    },
    {
      "id": 416,
      "nome": "Black★Rock Shooter (TV)",
      "link": "https://animefire.plus/animes/black-rock-shooter-tv-todos-os-episodios",
      "texto_original": "Black★Rock Shooter (TV)",
      "rating": 6.95,
      "classificacao_etaria": "A14",
      "imagem_original": "https://animefire.plus/img/animes/black-rock-shooter-tv.webp",
      "imagem_pasta": "https://animefire.plus/img/animes/black-rock-shooter-tv/",
      "secao": "legendados",
      "pagina": 143,
      "total_episodios": 8,
      "link_video": "https://animefire.plus/video/black-rock-shooter-tv"
    },
    {
      "id": 417,
      "nome": "Blade",
      "link": "https://animefire.plus/animes/blade-todos-os-episodios",
      "texto_original": "Blade",
      "rating": 6.3,
      "classificacao_etaria": "A16",
      "imagem_original": "https://animefire.plus/img/animes/blade.webp",
      "imagem_pasta": "https://animefire.plus/img/animes/blade/",
      "secao": "legendados",
      "pagina": 135,
      "total_episodios": 12,
      "link_video": "https://animefire.plus/video/blade"
    },
    {
      "id": 418,
      "nome": "Blade & Soul",
      "link": "https://animefire.plus/animes/blade-soul-todos-os-episodios",
      "texto_original": "Blade & Soul",
      "rating": 6.17,
      "classificacao_etaria": "A16",
      "imagem_original": "https://animefire.plus/img/animes/blade-soul.webp",
      "imagem_pasta": "https://animefire.plus/img/animes/blade-soul/",
      "secao": "legendados",
      "pagina": 112,
      "total_episodios": 13,
      "link_video": "https://animefire.plus/video/blade-soul"
    },
    {
      "id": 419,
      "nome": "Blade of the Immortal",
      "link": "https://animefire.plus/animes/blade-of-the-immortal-todos-os-episodios",
      "texto_original": "Blade of the Immortal",
      "rating": 6.87,
      "classificacao_etaria": "A16",
      "imagem_original": "https://animefire.plus/img/animes/blade-of-the-immortal.webp",
      "imagem_pasta": "https://animefire.plus/img/animes/blade-of-the-immortal/",
      "secao": "legendados",
      "pagina": 121,
      "total_episodios": 13,
      "link_video": "https://animefire.plus/video/blade-of-the-immortal"
    },
    {
      "id": 420,
      "nome": "Blade Runner: Black Lotus",
      "link": "https://animefire.plus/animes/blade-runner-black-lotus-todos-os-episodios",
      "texto_original": "Blade Runner: Black Lotus",
      "rating": 6.28,
      "classificacao_etaria": "A16",
      "imagem_original": "https://animefire.plus/img/animes/blade-runner-black-lotus.webp",
      "imagem_pasta": "https://animefire.plus/img/animes/blade-runner-black-lotus/",
      "secao": "legendados",
      "pagina": 37,
      "total_episodios": 13,
      "link_video": "https://animefire.plus/video/blade-runner-black-lotus"
    },
    {
      "id": 421,
      "nome": "Blassreiter",
      "link": "https://animefire.plus/animes/blassreiter-todos-os-episodios",
      "texto_original": "Blassreiter",
      "rating": 7,
      "classificacao_etaria": "A16",
      "imagem_original": "https://animefire.plus/img/animes/blassreiter.webp",
      "imagem_pasta": "https://animefire.plus/img/animes/blassreiter/",
      "secao": "legendados",
      "pagina": 114,
      "total_episodios": 24,
      "link_video": "https://animefire.plus/video/blassreiter"
    },
    {
      "id": 422,
      "nome": "BlazBlue: Alter Memory",
      "link": "https://animefire.plus/animes/blazblue-alter-memory-todos-os-episodios",
      "texto_original": "BlazBlue: Alter Memory",
      "rating": 6.21,
      "classificacao_etaria": "A16",
      "imagem_original": "https://animefire.plus/img/animes/blazblue-alter-memory.webp",
      "imagem_pasta": "https://animefire.plus/img/animes/blazblue-alter-memory/",
      "secao": "legendados",
      "pagina": 122,
      "total_episodios": 4,
      "link_video": "https://animefire.plus/video/blazblue-alter-memory"
    },
    {
      "id": 424,
      "nome": "Bleach Colorful!: Gotei Juusan Yatai Daisakusen!",
      "link": "https://animefire.plus/animes/bleach-colorful-gotei-juusan-yatai-daisakusen-todos-os-episodios",
      "texto_original": "Bleach Colorful!: Gotei Juusan Yatai Daisakusen!",
      "rating": 6.5,
      "classificacao_etaria": "A14",
      "imagem_original": "https://animefire.plus/img/animes/bleach-colorful-gotei-juusan-yatai-daisakusen.webp",
      "imagem_pasta": "https://animefire.plus/img/animes/bleach-colorful-gotei-juusan-yatai-daisakusen/",
      "secao": "legendados",
      "pagina": 86,
      "total_episodios": 1,
      "link_video": "https://animefire.plus/video/bleach-colorful-gotei-juusan-yatai-daisakusen"
    },
    {
      "id": 431,
      "nome": "Blood-C",
      "link": "https://animefire.plus/animes/blood-c-todos-os-episodios",
      "texto_original": "Blood-C",
      "rating": 6.67,
      "classificacao_etaria": "A16",
      "imagem_original": "https://animefire.plus/img/animes/blood-c.webp",
      "imagem_pasta": "https://animefire.plus/img/animes/blood-c/",
      "secao": "legendados",
      "pagina": 158,
      "total_episodios": 12,
      "link_video": "https://animefire.plus/video/blood-c"
    },
    {
      "id": 433,
      "nome": "Bloodivores",
      "link": "https://animefire.plus/animes/bloodivores-todos-os-episodios",
      "texto_original": "Bloodivores",
      "rating": 5.64,
      "classificacao_etaria": "A16",
      "imagem_original": "https://animefire.plus/img/animes/bloodivores.webp",
      "imagem_pasta": "https://animefire.plus/img/animes/bloodivores/",
      "secao": "legendados",
      "pagina": 130,
      "total_episodios": 12,
      "link_video": "https://animefire.plus/video/bloodivores"
    },
    {
      "id": 435,
      "nome": "Blue Dragon (Dublado)",
      "link": "https://animefire.plus/animes/blue-dragon-dublado-todos-os-episodios",
      "texto_original": "Blue Dragon (Dublado)",
      "rating": 6.43,
      "classificacao_etaria": "A10",
      "imagem_original": "https://animefire.plus/img/animes/blue-dragon.webp",
      "imagem_pasta": "https://animefire.plus/img/animes/blue-dragon/",
      "secao": "dublados",
      "pagina": 21,
      "total_episodios": 0,
      "link_video": "https://animefire.plus/video/blue-dragon-dublado"
    },
    {
      "id": 436,
      "nome": "Blue Dragon: Tenkai no Shichi Ryuu",
      "link": "https://animefire.plus/animes/blue-dragon-tenkai-no-shichi-ryuu-todos-os-episodios",
      "texto_original": "Blue Dragon: Tenkai no Shichi Ryuu",
      "rating": 6.67,
      "classificacao_etaria": "A10",
      "imagem_original": "https://animefire.plus/img/animes/blue-dragon-tenkai-no-shichi-ryuu.webp",
      "imagem_pasta": "https://animefire.plus/img/animes/blue-dragon-tenkai-no-shichi-ryuu/",
      "secao": "legendados",
      "pagina": 115,
      "total_episodios": 26,
      "link_video": "https://animefire.plus/video/blue-dragon-tenkai-no-shichi-ryuu"
    }
  ],
  "pagination": {
    "current_page": 10,
    "per_page": 20,
    "total_items": 1805,
    "total_pages": 91,
    "has_next": true,
    "has_prev": true
  }
}
