{
  "message": "Animes com rating entre 5 e 7",
  "rating_range": {
    "min": 5,
    "max": 7
  },
  "data": [
    {
      "id": 2181,
      "nome": "Kyou no Asuka Show",
      "link": "https://animefire.plus/animes/kyou-no-asuka-show-todos-os-episodios",
      "texto_original": "Kyou no Asuka Show",
      "rating": 6.57,
      "classificacao_etaria": "A14",
      "imagem_original": "https://animefire.plus/img/animes/kyou-no-asuka-show.webp",
      "imagem_pasta": "https://animefire.plus/img/animes/kyou-no-asuka-show/",
      "secao": "legendados",
      "pagina": 12,
      "total_episodios": 20,
      "link_video": "https://animefire.plus/video/kyou-no-asuka-show"
    },
    {
      "id": 2184,
      "nome": "Kyoukai no Rinne (TV)",
      "link": "https://animefire.plus/animes/kyoukai-no-rinne-tv-todos-os-episodios",
      "texto_original": "Kyoukai no Rinne (TV)",
      "rating": 6.93,
      "classificacao_etaria": "A14",
      "imagem_original": "https://animefire.plus/img/animes/kyoukai-no-rinne-tv.webp",
      "imagem_pasta": "https://animefire.plus/img/animes/kyoukai-no-rinne-tv/",
      "secao": "legendados",
      "pagina": 91,
      "total_episodios": 25,
      "link_video": "https://animefire.plus/video/kyoukai-no-rinne-tv"
    },
    {
      "id": 2185,
      "nome": "Kyoukai Senki",
      "link": "https://animefire.plus/animes/kyoukai-senki-todos-os-episodios",
      "texto_original": "Kyoukai Senki",
      "rating": 6.31,
      "classificacao_etaria": "A14",
      "imagem_original": "https://animefire.plus/img/animes/kyoukai-senki.webp",
      "imagem_pasta": "https://animefire.plus/img/animes/kyoukai-senki/",
      "secao": "legendados",
      "pagina": 38,
      "total_episodios": 13,
      "link_video": "https://animefire.plus/video/kyoukai-senki"
    },
    {
      "id": 2186,
      "nome": "Kyoukai Senki Part 2",
      "link": "https://animefire.plus/animes/kyoukai-senki-part-2-todos-os-episodios",
      "texto_original": "Kyoukai Senki Part 2",
      "rating": 6.53,
      "classificacao_etaria": "A14",
      "imagem_original": "https://animefire.plus/img/animes/kyoukai-senki-part-2.webp",
      "imagem_pasta": "https://animefire.plus/img/animes/kyoukai-senki-part-2/",
      "secao": "legendados",
      "pagina": 33,
      "total_episodios": 12,
      "link_video": "https://animefire.plus/video/kyoukai-senki-part-2"
    },
    {
      "id": 2187,
      "nome": "Kyoukai Senki: Kyokkou no Souki",
      "link": "https://animefire.plus/animes/kyoukai-senki-kyokkou-no-souki-todos-os-episodios",
      "texto_original": "Kyoukai Senki: Kyokkou no Souki",
      "rating": 5.72,
      "classificacao_etaria": "A14",
      "imagem_original": "https://animefire.plus/img/animes/kyoukai-senki-kyokkou-no-souki.webp",
      "imagem_pasta": "https://animefire.plus/img/animes/kyoukai-senki-kyokkou-no-souki/",
      "secao": "legendados,lancamentos",
      "pagina": 21,
      "total_episodios": 2,
      "link_video": "https://animefire.plus/video/kyoukai-senki-kyokkou-no-souki"
    },
    {
      "id": 2190,
      "nome": "Kyoushirou to Towa no Sora",
      "link": "https://animefire.plus/animes/kyoushirou-to-towa-no-sora-todos-os-episodios",
      "texto_original": "Kyoushirou to Towa no Sora",
      "rating": 6.58,
      "classificacao_etaria": "A14",
      "imagem_original": "https://animefire.plus/img/animes/kyoushirou-to-towa-no-sora.webp",
      "imagem_pasta": "https://animefire.plus/img/animes/kyoushirou-to-towa-no-sora/",
      "secao": "legendados",
      "pagina": 177,
      "total_episodios": 12,
      "link_video": "https://animefire.plus/video/kyoushirou-to-towa-no-sora"
    },
    {
      "id": 2198,
      "nome": "Kyuukyoku Shinka shita Full Dive RPG ga Genjitsu yori mo Kusoge Dattara (Dublado)",
      "link": "https://animefire.plus/animes/kyuukyoku-shinka-shita-full-dive-rpg-ga-genjitsu-yori-mo-kusoge-dattara-dublado-todos-os-episodios",
      "texto_original": "Kyuukyoku Shinka shita Full Dive RPG ga Genjitsu yori mo Kusoge Dattara (Dublado)",
      "rating": 6.47,
      "classificacao_etaria": "A14",
      "imagem_original": "https://animefire.plus/img/animes/kyuukyoku-shinka-shita-full-dive-rpg-ga-genjitsu-yori-mo-kusoge-dattara.webp",
      "imagem_pasta": "https://animefire.plus/img/animes/kyuukyoku-shinka-shita-full-dive-rpg-ga-genjitsu-yori-mo-kusoge-dattara/",
      "secao": "dublados,legendados",
      "pagina": 15,
      "total_episodios": 12,
      "link_video": "https://animefire.plus/video/kyuukyoku-shinka-shita-full-dive-rpg-ga-genjitsu-yori-mo-kusoge-dattara-dublado"
    },
    {
      "id": 2199,
      "nome": "Ladies versus Butlers!",
      "link": "https://animefire.plus/animes/ladies-versus-butlers-todos-os-episodios",
      "texto_original": "Ladies versus Butlers!",
      "rating": 6.77,
      "classificacao_etaria": "A18",
      "imagem_original": "https://animefire.plus/img/animes/ladies-versus-butlers.webp",
      "imagem_pasta": "https://animefire.plus/img/animes/ladies-versus-butlers/",
      "secao": "legendados",
      "pagina": 115,
      "total_episodios": 12,
      "link_video": "https://animefire.plus/video/ladies-versus-butlers"
    },
    {
      "id": 2202,
      "nome": "Lamune",
      "link": "https://animefire.plus/animes/lamune-todos-os-episodios",
      "texto_original": "Lamune",
      "rating": 6.89,
      "classificacao_etaria": "A14",
      "imagem_original": "https://animefire.plus/img/animes/lamune.webp",
      "imagem_pasta": "https://animefire.plus/img/animes/lamune/",
      "secao": "legendados",
      "pagina": 172,
      "total_episodios": 12,
      "link_video": "https://animefire.plus/video/lamune"
    },
    {
      "id": 2203,
      "nome": "Lan Mo De Hua",
      "link": "https://animefire.plus/animes/lan-mo-de-hua-todos-os-episodios",
      "texto_original": "Lan Mo De Hua",
      "rating": 6.74,
      "classificacao_etaria": "A14",
      "imagem_original": "https://animefire.plus/img/animes/lan-mo-de-hua.webp",
      "imagem_pasta": "https://animefire.plus/img/animes/lan-mo-de-hua/",
      "secao": "legendados",
      "pagina": 151,
      "total_episodios": 9,
      "link_video": "https://animefire.plus/video/lan-mo-de-hua"
    },
    {
      "id": 2207,
      "nome": "Last Period: Owarinaki Rasen no Monogatari",
      "link": "https://animefire.plus/animes/last-period-owarinaki-rasen-no-monogatari-todos-os-episodios",
      "texto_original": "Last Period: Owarinaki Rasen no Monogatari",
      "rating": 6.54,
      "classificacao_etaria": "A14",
      "imagem_original": "https://animefire.plus/img/animes/last-period-owarinaki-rasen-no-monogatari.webp",
      "imagem_pasta": "https://animefire.plus/img/animes/last-period-owarinaki-rasen-no-monogatari/",
      "secao": "legendados",
      "pagina": 137,
      "total_episodios": 12,
      "link_video": "https://animefire.plus/video/last-period-owarinaki-rasen-no-monogatari"
    },
    {
      "id": 2211,
      "nome": "Leadale no Daichi nite (Dublado)",
      "link": "https://animefire.plus/animes/leadale-no-daichi-nite-dublado-todos-os-episodios",
      "texto_original": "Leadale no Daichi nite (Dublado)",
      "rating": 6.95,
      "classificacao_etaria": "A14",
      "imagem_original": "https://animefire.plus/img/animes/leadale-no-daichi-nite.webp",
      "imagem_pasta": "https://animefire.plus/img/animes/leadale-no-daichi-nite/",
      "secao": "dublados,legendados",
      "pagina": 12,
      "total_episodios": 12,
      "link_video": "https://animefire.plus/video/leadale-no-daichi-nite-dublado"
    },
    {
      "id": 2212,
      "nome": "Legend of Duo",
      "link": "https://animefire.plus/animes/legend-of-duo-todos-os-episodios",
      "texto_original": "Legend of Duo",
      "rating": 5.02,
      "classificacao_etaria": "A16",
      "imagem_original": "https://animefire.plus/img/animes/legend-of-duo.webp",
      "imagem_pasta": "https://animefire.plus/img/animes/legend-of-duo/",
      "secao": "legendados",
      "pagina": 176,
      "total_episodios": 0,
      "link_video": "https://animefire.plus/video/legend-of-duo"
    },
    {
      "id": 2213,
      "nome": "Lemon Angel Project",
      "link": "https://animefire.plus/animes/lemon-angel-project-todos-os-episodios",
      "texto_original": "Lemon Angel Project",
      "rating": 6.71,
      "classificacao_etaria": "A10",
      "imagem_original": "https://animefire.plus/img/animes/lemon-angel-project.webp",
      "imagem_pasta": "https://animefire.plus/img/animes/lemon-angel-project/",
      "secao": "legendados",
      "pagina": 169,
      "total_episodios": 13,
      "link_video": "https://animefire.plus/video/lemon-angel-project"
    },
    {
      "id": 2214,
      "nome": "Let's Nupu Nupu",
      "link": "https://animefire.plus/animes/let-s-nupu-nupu-todos-os-episodios",
      "texto_original": "Let's Nupu Nupu",
      "rating": 6.25,
      "classificacao_etaria": "A18",
      "imagem_original": "https://animefire.plus/img/animes/let-s-nupu-nupu.webp",
      "imagem_pasta": "https://animefire.plus/img/animes/let-s-nupu-nupu/",
      "secao": "legendados",
      "pagina": 42,
      "total_episodios": 16,
      "link_video": "https://animefire.plus/video/let-s-nupu-nupu"
    },
    {
      "id": 2215,
      "nome": "Level 1 dakedo Unique Skill de Saikyou desu (Dublado)",
      "link": "https://animefire.plus/animes/level-1-dakedo-unique-skill-de-saikyou-desu-dublado-todos-os-episodios",
      "texto_original": "Level 1 dakedo Unique Skill de Saikyou desu (Dublado)",
      "rating": 6.21,
      "classificacao_etaria": "A14",
      "imagem_original": "https://animefire.plus/img/animes/level-1-dakedo-unique-skill-de-saikyou-desu.webp",
      "imagem_pasta": "https://animefire.plus/img/animes/level-1-dakedo-unique-skill-de-saikyou-desu/",
      "secao": "dublados,legendados",
      "pagina": 7,
      "total_episodios": 12,
      "link_video": "https://animefire.plus/video/level-1-dakedo-unique-skill-de-saikyou-desu-dublado"
    },
    {
      "id": 2218,
      "nome": "Li Shi Zhentan Shiwusuo: A Day in Lungmen",
      "link": "https://animefire.plus/animes/li-shi-zhentan-shiwusuo-a-day-in-lungmen-todos-os-episodios",
      "texto_original": "Li Shi Zhentan Shiwusuo: A Day in Lungmen",
      "rating": 6.53,
      "classificacao_etaria": "A14",
      "imagem_original": "https://animefire.plus/img/animes/li-shi-zhentan-shiwusuo-a-day-in-lungmen.webp",
      "imagem_pasta": "https://animefire.plus/img/animes/li-shi-zhentan-shiwusuo-a-day-in-lungmen/",
      "secao": "legendados",
      "pagina": 26,
      "total_episodios": 6,
      "link_video": "https://animefire.plus/video/li-shi-zhentan-shiwusuo-a-day-in-lungmen"
    },
    {
      "id": 2219,
      "nome": "Liar Liar",
      "link": "https://animefire.plus/animes/liar-liar-todos-os-episodios",
      "texto_original": "Liar Liar",
      "rating": 6.32,
      "classificacao_etaria": "A14",
      "imagem_original": "https://animefire.plus/img/animes/liar-liar.jpg",
      "imagem_pasta": "https://animefire.plus/img/animes/liar-liar/",
      "secao": "legendados,lancamentos",
      "pagina": 23,
      "total_episodios": 11,
      "link_video": "https://animefire.plus/video/liar-liar"
    },
    {
      "id": 2221,
      "nome": "Ling Jian Zun",
      "link": "https://animefire.plus/animes/ling-jian-zun-todos-os-episodios",
      "texto_original": "Ling Jian Zun",
      "rating": 6.89,
      "classificacao_etaria": "A14",
      "imagem_original": "https://animefire.plus/img/animes/ling-jian-zun.webp",
      "imagem_pasta": "https://animefire.plus/img/animes/ling-jian-zun/",
      "secao": "legendados",
      "pagina": 80,
      "total_episodios": 30,
      "link_video": "https://animefire.plus/video/ling-jian-zun"
    },
    {
      "id": 2224,
      "nome": "Ling Yu",
      "link": "https://animefire.plus/animes/ling-yu-todos-os-episodios",
      "texto_original": "Ling Yu",
      "rating": 6.81,
      "classificacao_etaria": "A14",
      "imagem_original": "https://animefire.plus/img/animes/ling-yu.webp",
      "imagem_pasta": "https://animefire.plus/img/animes/ling-yu/",
      "secao": "legendados",
      "pagina": 114,
      "total_episodios": 10,
      "link_video": "https://animefire.plus/video/ling-yu"
    }
  ],
  "pagination": {
    "current_page": 48,
    "per_page": 20,
    "total_items": 1805,
    "total_pages": 91,
    "has_next": true,
    "has_prev": true
  }
}
