{
  "message": "Animes com rating entre 5 e 7",
  "rating_range": {
    "min": 5,
    "max": 7
  },
  "data": [
    {
      "id": 1936,
      "nome": "Kemono Friends 2",
      "link": "https://animefire.plus/animes/kemono-friends-2-todos-os-episodios",
      "texto_original": "Kemono Friends 2",
      "rating": 5.87,
      "classificacao_etaria": "A14",
      "imagem_original": "https://animefire.plus/img/animes/kemono-friends-2.webp",
      "imagem_pasta": "https://animefire.plus/img/animes/kemono-friends-2/",
      "secao": "legendados",
      "pagina": 112,
      "total_episodios": 2,
      "link_video": "https://animefire.plus/video/kemono-friends-2"
    },
    {
      "id": 1941,
      "nome": "Ken En Ken: Aoki Kagayaki",
      "link": "https://animefire.plus/animes/ken-en-ken-aoki-kagayaki-todos-os-episodios",
      "texto_original": "Ken En Ken: Aoki Kagayaki",
      "rating": 6.14,
      "classificacao_etaria": "A14",
      "imagem_original": "https://animefire.plus/img/animes/ken-en-ken-aoki-kagayaki.webp",
      "imagem_pasta": "https://animefire.plus/img/animes/ken-en-ken-aoki-kagayaki/",
      "secao": "legendados",
      "pagina": 159,
      "total_episodios": 13,
      "link_video": "https://animefire.plus/video/ken-en-ken-aoki-kagayaki"
    },
    {
      "id": 1944,
      "nome": "Kenja no Deshi wo Nanoru Kenja",
      "link": "https://animefire.plus/animes/kenja-no-deshi-wo-nanoru-kenja-todos-os-episodios",
      "texto_original": "Kenja no Deshi wo Nanoru Kenja",
      "rating": 6.33,
      "classificacao_etaria": "A14",
      "imagem_original": "https://animefire.plus/img/animes/kenja-no-deshi-wo-nanoru-kenja.webp",
      "imagem_pasta": "https://animefire.plus/img/animes/kenja-no-deshi-wo-nanoru-kenja/",
      "secao": "legendados",
      "pagina": 37,
      "total_episodios": 12,
      "link_video": "https://animefire.plus/video/kenja-no-deshi-wo-nanoru-kenja"
    },
    {
      "id": 1945,
      "nome": "Kenja no Mago (Dublado)",
      "link": "https://animefire.plus/animes/kenja-no-mago-dublado-todos-os-episodios",
      "texto_original": "Kenja no Mago (Dublado)",
      "rating": 6.58,
      "classificacao_etaria": "A14",
      "imagem_original": "https://animefire.plus/img/animes/kenja-no-mago.webp",
      "imagem_pasta": "https://animefire.plus/img/animes/kenja-no-mago/",
      "secao": "dublados,legendados",
      "pagina": 15,
      "total_episodios": 12,
      "link_video": "https://animefire.plus/video/kenja-no-mago-dublado"
    },
    {
      "id": 1946,
      "nome": "Kenka Banchou Otome: Girl Beats Boys",
      "link": "https://animefire.plus/animes/kenka-banchou-otome-girl-beats-boys-todos-os-episodios",
      "texto_original": "Kenka Banchou Otome: Girl Beats Boys",
      "rating": 6.59,
      "classificacao_etaria": "A14",
      "imagem_original": "https://animefire.plus/img/animes/kenka-banchou-otome-girl-beats-boys.webp",
      "imagem_pasta": "https://animefire.plus/img/animes/kenka-banchou-otome-girl-beats-boys/",
      "secao": "legendados",
      "pagina": 155,
      "total_episodios": 12,
      "link_video": "https://animefire.plus/video/kenka-banchou-otome-girl-beats-boys"
    },
    {
      "id": 1952,
      "nome": "Kenzen Robo Daimidaler",
      "link": "https://animefire.plus/animes/kenzen-robo-daimidaler-todos-os-episodios",
      "texto_original": "Kenzen Robo Daimidaler",
      "rating": 6.24,
      "classificacao_etaria": "A18",
      "imagem_original": "https://animefire.plus/img/animes/kenzen-robo-daimidaler.webp",
      "imagem_pasta": "https://animefire.plus/img/animes/kenzen-robo-daimidaler/",
      "secao": "legendados",
      "pagina": 114,
      "total_episodios": 12,
      "link_video": "https://animefire.plus/video/kenzen-robo-daimidaler"
    },
    {
      "id": 1954,
      "nome": "Key the Metal Idol",
      "link": "https://animefire.plus/animes/key-the-metal-idol-todos-os-episodios",
      "texto_original": "Key the Metal Idol",
      "rating": 6.91,
      "classificacao_etaria": "A18",
      "imagem_original": "https://animefire.plus/img/animes/key-the-metal-idol.webp",
      "imagem_pasta": "https://animefire.plus/img/animes/key-the-metal-idol/",
      "secao": "legendados",
      "pagina": 44,
      "total_episodios": 15,
      "link_video": "https://animefire.plus/video/key-the-metal-idol"
    },
    {
      "id": 1956,
      "nome": "Kibou no Chikara: Otona Precure '23",
      "link": "https://animefire.plus/animes/kibou-no-chikara-otona-precure-23-todos-os-episodios",
      "texto_original": "Kibou no Chikara: Otona Precure '23",
      "rating": 6.56,
      "classificacao_etaria": "A14",
      "imagem_original": "https://animefire.plus/img/animes/kibou-no-chikara-otona-precure-23.webp",
      "imagem_pasta": "https://animefire.plus/img/animes/kibou-no-chikara-otona-precure-23/",
      "secao": "legendados",
      "pagina": 19,
      "total_episodios": 12,
      "link_video": "https://animefire.plus/video/kibou-no-chikara-otona-precure-23"
    },
    {
      "id": 1957,
      "nome": "Kiddy GiRL-AND",
      "link": "https://animefire.plus/animes/kiddy-girl-and-todos-os-episodios",
      "texto_original": "Kiddy GiRL-AND",
      "rating": 6.93,
      "classificacao_etaria": "A14",
      "imagem_original": "https://animefire.plus/img/animes/kiddy-girl-and.webp",
      "imagem_pasta": "https://animefire.plus/img/animes/kiddy-girl-and/",
      "secao": "legendados",
      "pagina": 142,
      "total_episodios": 24,
      "link_video": "https://animefire.plus/video/kiddy-girl-and"
    },
    {
      "id": 1964,
      "nome": "Kidou Shinsengumi Moeyo Ken TV",
      "link": "https://animefire.plus/animes/kidou-shinsengumi-moeyo-ken-tv-todos-os-episodios",
      "texto_original": "Kidou Shinsengumi Moeyo Ken TV",
      "rating": 6.24,
      "classificacao_etaria": "A14",
      "imagem_original": "https://animefire.plus/img/animes/kidou-shinsengumi-moeyo-ken-tv.webp",
      "imagem_pasta": "https://animefire.plus/img/animes/kidou-shinsengumi-moeyo-ken-tv/",
      "secao": "legendados",
      "pagina": 123,
      "total_episodios": 13,
      "link_video": "https://animefire.plus/video/kidou-shinsengumi-moeyo-ken-tv"
    },
    {
      "id": 1965,
      "nome": "Kiitarou Shounen no Youkai Enikki",
      "link": "https://animefire.plus/animes/kiitarou-shounen-no-youkai-enikki-todos-os-episodios",
      "texto_original": "Kiitarou Shounen no Youkai Enikki",
      "rating": 6.48,
      "classificacao_etaria": "A14",
      "imagem_original": "https://animefire.plus/img/animes/kiitarou-shounen-no-youkai-enikki.webp",
      "imagem_pasta": "https://animefire.plus/img/animes/kiitarou-shounen-no-youkai-enikki/",
      "secao": "legendados",
      "pagina": 155,
      "total_episodios": 2,
      "link_video": "https://animefire.plus/video/kiitarou-shounen-no-youkai-enikki"
    },
    {
      "id": 1967,
      "nome": "Kikaider 01 The Animation",
      "link": "https://animefire.plus/animes/kikaider-01-the-animation-todos-os-episodios",
      "texto_original": "Kikaider 01 The Animation",
      "rating": 6.84,
      "classificacao_etaria": "A14",
      "imagem_original": "https://animefire.plus/img/animes/kikaider-01-the-animation.webp",
      "imagem_pasta": "https://animefire.plus/img/animes/kikaider-01-the-animation/",
      "secao": "legendados",
      "pagina": 129,
      "total_episodios": 4,
      "link_video": "https://animefire.plus/video/kikaider-01-the-animation"
    },
    {
      "id": 1969,
      "nome": "Kikou Kai Galient",
      "link": "https://animefire.plus/animes/kikou-kai-galient-todos-os-episodios",
      "texto_original": "Kikou Kai Galient",
      "rating": 6.6,
      "classificacao_etaria": "A14",
      "imagem_original": "https://animefire.plus/img/animes/kikou-kai-galient.webp",
      "imagem_pasta": "https://animefire.plus/img/animes/kikou-kai-galient/",
      "secao": "legendados",
      "pagina": 147,
      "total_episodios": 25,
      "link_video": "https://animefire.plus/video/kikou-kai-galient"
    },
    {
      "id": 1972,
      "nome": "Kill Me Baby",
      "link": "https://animefire.plus/animes/kill-me-baby-todos-os-episodios",
      "texto_original": "Kill Me Baby",
      "rating": 6.92,
      "classificacao_etaria": "A14",
      "imagem_original": "https://animefire.plus/img/animes/kill-me-baby.webp",
      "imagem_pasta": "https://animefire.plus/img/animes/kill-me-baby/",
      "secao": "legendados",
      "pagina": 153,
      "total_episodios": 0,
      "link_video": "https://animefire.plus/video/kill-me-baby"
    },
    {
      "id": 1973,
      "nome": "Killing Bites",
      "link": "https://animefire.plus/animes/killing-bites-todos-os-episodios",
      "texto_original": "Killing Bites",
      "rating": 6.79,
      "classificacao_etaria": "A18",
      "imagem_original": "https://animefire.plus/img/animes/killing-bites.webp",
      "imagem_pasta": "https://animefire.plus/img/animes/killing-bites/",
      "secao": "legendados",
      "pagina": 109,
      "total_episodios": 12,
      "link_video": "https://animefire.plus/video/killing-bites"
    },
    {
      "id": 1975,
      "nome": "Kimetsu Gakuen: Valentine-hen",
      "link": "https://animefire.plus/animes/kimetsu-gakuen-valentine-hen-todos-os-episodios",
      "texto_original": "Kimetsu Gakuen: Valentine-hen",
      "rating": 6.68,
      "classificacao_etaria": "A14",
      "imagem_original": "https://animefire.plus/img/animes/kimetsu-gakuen-valentine-hen.webp",
      "imagem_pasta": "https://animefire.plus/img/animes/kimetsu-gakuen-valentine-hen/",
      "secao": "legendados",
      "pagina": 46,
      "total_episodios": 4,
      "link_video": "https://animefire.plus/video/kimetsu-gakuen-valentine-hen"
    },
    {
      "id": 1989,
      "nome": "Kimi to Boku no Saigo no Senjou, Aruiwa Sekai ga Hajimaru Seisen (Dublado)",
      "link": "https://animefire.plus/animes/kimi-to-boku-no-saigo-no-senjou-aruiwa-sekai-ga-hajimaru-seisen-dublado-todos-os-episodios",
      "texto_original": "Kimi to Boku no Saigo no Senjou, Aruiwa Sekai ga Hajimaru Seisen (Dublado)",
      "rating": 6.59,
      "classificacao_etaria": "A14",
      "imagem_original": "https://animefire.plus/img/animes/kimi-to-boku-no-saigo-no-senjou-aruiwa-sekai-ga-hajimaru-seisen.webp",
      "imagem_pasta": "https://animefire.plus/img/animes/kimi-to-boku-no-saigo-no-senjou-aruiwa-sekai-ga-hajimaru-seisen/",
      "secao": "dublados,legendados",
      "pagina": 14,
      "total_episodios": 12,
      "link_video": "https://animefire.plus/video/kimi-to-boku-no-saigo-no-senjou-aruiwa-sekai-ga-hajimaru-seisen-dublado"
    },
    {
      "id": 1990,
      "nome": "Kimi to Boku no Saigo no Senjou, Aruiwa Sekai ga Hajimaru Seisen Season II",
      "link": "https://animefire.plus/animes/kimi-to-boku-no-saigo-no-senjou-aruiwa-sekai-ga-hajimaru-seisen-season-ii-todos-os-episodios",
      "texto_original": "Kimi to Boku no Saigo no Senjou, Aruiwa Sekai ga Hajimaru Seisen Season II",
      "rating": 6.75,
      "classificacao_etaria": "A14",
      "imagem_original": "https://animefire.plus/img/animes/kimi-to-boku-no-saigo-no-senjou-aruiwa-sekai-ga-hajimaru-seisen-season-ii.webp",
      "imagem_pasta": "https://animefire.plus/img/animes/kimi-to-boku-no-saigo-no-senjou-aruiwa-sekai-ga-hajimaru-seisen-season-ii/",
      "secao": "legendados",
      "pagina": 13,
      "total_episodios": 12,
      "link_video": "https://animefire.plus/video/kimi-to-boku-no-saigo-no-senjou-aruiwa-sekai-ga-hajimaru-seisen-season-ii"
    },
    {
      "id": 1999,
      "nome": "King of Fighters: Another Day (Dublado)",
      "link": "https://animefire.plus/animes/king-of-fighters-another-day-dublado-todos-os-episodios",
      "texto_original": "King of Fighters: Another Day (Dublado)",
      "rating": 6.33,
      "classificacao_etaria": "A14",
      "imagem_original": "https://animefire.plus/img/animes/king-of-fighters-another-day.webp",
      "imagem_pasta": "https://animefire.plus/img/animes/king-of-fighters-another-day/",
      "secao": "dublados",
      "pagina": 21,
      "total_episodios": 4,
      "link_video": "https://animefire.plus/video/king-of-fighters-another-day-dublado"
    },
    {
      "id": 2000,
      "nome": "King of Prism: Shiny Seven Stars",
      "link": "https://animefire.plus/animes/king-of-prism-shiny-seven-stars-todos-os-episodios",
      "texto_original": "King of Prism: Shiny Seven Stars",
      "rating": 6.4,
      "classificacao_etaria": "A14",
      "imagem_original": "https://animefire.plus/img/animes/king-of-prism-shiny-seven-stars.webp",
      "imagem_pasta": "https://animefire.plus/img/animes/king-of-prism-shiny-seven-stars/",
      "secao": "legendados",
      "pagina": 126,
      "total_episodios": 12,
      "link_video": "https://animefire.plus/video/king-of-prism-shiny-seven-stars"
    }
  ],
  "pagination": {
    "current_page": 43,
    "per_page": 20,
    "total_items": 1805,
    "total_pages": 91,
    "has_next": true,
    "has_prev": true
  }
}
