{
  "message": "Animes com rating entre 7 e 8",
  "rating_range": {
    "min": 7,
    "max": 8
  },
  "data": [
    {
      "id": 2096,
      "nome": "Koori Zokusei Danshi to Cool na Douryou Joshi",
      "link": "https://animefire.plus/animes/koori-zokusei-danshi-to-cool-na-douryou-joshi-todos-os-episodios",
      "texto_original": "Koori Zokusei Danshi to Cool na Douryou Joshi",
      "rating": 7.31,
      "classificacao_etaria": "A14",
      "imagem_original": "https://animefire.plus/img/animes/koori-zokusei-danshi-to-cool-na-douryou-joshi.webp",
      "imagem_pasta": "https://animefire.plus/img/animes/koori-zokusei-danshi-to-cool-na-douryou-joshi/",
      "secao": "legendados",
      "pagina": 26,
      "total_episodios": 12,
      "link_video": "https://animefire.plus/video/koori-zokusei-danshi-to-cool-na-douryou-joshi"
    },
    {
      "id": 2098,
      "nome": "Kore wa Zombie Desu ka?",
      "link": "https://animefire.plus/animes/kore-wa-zombie-desu-ka-todos-os-episodios",
      "texto_original": "Kore wa Zombie Desu ka?",
      "rating": 7.54,
      "classificacao_etaria": "A16",
      "imagem_original": "https://animefire.plus/img/animes/kore-wa-zombie-desu-ka.webp",
      "imagem_pasta": "https://animefire.plus/img/animes/kore-wa-zombie-desu-ka/",
      "secao": "legendados",
      "pagina": 143,
      "total_episodios": 12,
      "link_video": "https://animefire.plus/video/kore-wa-zombie-desu-ka"
    },
    {
      "id": 2099,
      "nome": "Kore wa Zombie Desu ka? of the Dead",
      "link": "https://animefire.plus/animes/kore-wa-zombie-desu-ka-of-the-dead-todos-os-episodios",
      "texto_original": "Kore wa Zombie Desu ka? of the Dead",
      "rating": 7.67,
      "classificacao_etaria": "A16",
      "imagem_original": "https://animefire.plus/img/animes/kore-wa-zombie-desu-ka-of-the-dead.webp",
      "imagem_pasta": "https://animefire.plus/img/animes/kore-wa-zombie-desu-ka-of-the-dead/",
      "secao": "legendados",
      "pagina": 129,
      "total_episodios": 10,
      "link_video": "https://animefire.plus/video/kore-wa-zombie-desu-ka-of-the-dead"
    },
    {
      "id": 2100,
      "nome": "Koro-sensei Quest!",
      "link": "https://animefire.plus/animes/koro-sensei-quest-todos-os-episodios",
      "texto_original": "Koro-sensei Quest!",
      "rating": 7.25,
      "classificacao_etaria": "A14",
      "imagem_original": "https://animefire.plus/img/animes/koro-sensei-quest.webp",
      "imagem_pasta": "https://animefire.plus/img/animes/koro-sensei-quest/",
      "secao": "legendados",
      "pagina": 169,
      "total_episodios": 12,
      "link_video": "https://animefire.plus/video/koro-sensei-quest"
    },
    {
      "id": 2103,
      "nome": "Kotoura-san",
      "link": "https://animefire.plus/animes/kotoura-san-todos-os-episodios",
      "texto_original": "Kotoura-san",
      "rating": 7.33,
      "classificacao_etaria": "A14",
      "imagem_original": "https://animefire.plus/img/animes/kotoura-san.webp",
      "imagem_pasta": "https://animefire.plus/img/animes/kotoura-san/",
      "secao": "legendados",
      "pagina": 121,
      "total_episodios": 12,
      "link_video": "https://animefire.plus/video/kotoura-san"
    },
    {
      "id": 2106,
      "nome": "Koukaku Kidoutai Arise: Alternative Architecture",
      "link": "https://animefire.plus/animes/koukaku-kidoutai-arise-alternative-architecture-todos-os-episodios",
      "texto_original": "Koukaku Kidoutai Arise: Alternative Architecture",
      "rating": 7.27,
      "classificacao_etaria": "A16",
      "imagem_original": "https://animefire.plus/img/animes/koukaku-kidoutai-arise-alternative-architecture.webp",
      "imagem_pasta": "https://animefire.plus/img/animes/koukaku-kidoutai-arise-alternative-architecture/",
      "secao": "legendados",
      "pagina": 75,
      "total_episodios": 10,
      "link_video": "https://animefire.plus/video/koukaku-kidoutai-arise-alternative-architecture"
    },
    {
      "id": 2112,
      "nome": "Koukyuu no Karasu",
      "link": "https://animefire.plus/animes/koukyuu-no-karasu-todos-os-episodios",
      "texto_original": "Koukyuu no Karasu",
      "rating": 7.54,
      "classificacao_etaria": "A14",
      "imagem_original": "https://animefire.plus/img/animes/koukyuu-no-karasu.webp",
      "imagem_pasta": "https://animefire.plus/img/animes/koukyuu-no-karasu/",
      "secao": "legendados",
      "pagina": 29,
      "total_episodios": 13,
      "link_video": "https://animefire.plus/video/koukyuu-no-karasu"
    },
    {
      "id": 2117,
      "nome": "Koutetsujou no Kabaneri",
      "link": "https://animefire.plus/animes/koutetsujou-no-kabaneri-todos-os-episodios",
      "texto_original": "Koutetsujou no Kabaneri",
      "rating": 7.3,
      "classificacao_etaria": "A16",
      "imagem_original": "https://animefire.plus/img/animes/koutetsujou-no-kabaneri.webp",
      "imagem_pasta": "https://animefire.plus/img/animes/koutetsujou-no-kabaneri/",
      "secao": "legendados",
      "pagina": 153,
      "total_episodios": 5,
      "link_video": "https://animefire.plus/video/koutetsujou-no-kabaneri"
    },
    {
      "id": 2118,
      "nome": "Koutetsushin Jeeg",
      "link": "https://animefire.plus/animes/koutetsushin-jeeg-todos-os-episodios",
      "texto_original": "Koutetsushin Jeeg",
      "rating": 7.02,
      "classificacao_etaria": "A14",
      "imagem_original": "https://animefire.plus/img/animes/koutetsushin-jeeg.webp",
      "imagem_pasta": "https://animefire.plus/img/animes/koutetsushin-jeeg/",
      "secao": "legendados",
      "pagina": 125,
      "total_episodios": 13,
      "link_video": "https://animefire.plus/video/koutetsushin-jeeg"
    },
    {
      "id": 2121,
      "nome": "Kowloon Generic Romance",
      "link": "https://animefire.plus/animes/kowloon-generic-romance-todos-os-episodios",
      "texto_original": "Kowloon Generic Romance",
      "rating": 7.39,
      "classificacao_etaria": "A14",
      "imagem_original": "https://animefire.plus/img/animes/kowloon-generic-romance.webp",
      "imagem_pasta": "https://animefire.plus/img/animes/kowloon-generic-romance/",
      "secao": "legendados",
      "pagina": 5,
      "total_episodios": 13,
      "link_video": "https://animefire.plus/video/kowloon-generic-romance"
    },
    {
      "id": 2122,
      "nome": "Koyomimonogatari",
      "link": "https://animefire.plus/animes/koyomimonogatari-todos-os-episodios",
      "texto_original": "Koyomimonogatari",
      "rating": 7.75,
      "classificacao_etaria": "A16",
      "imagem_original": "https://animefire.plus/img/animes/koyomimonogatari.webp",
      "imagem_pasta": "https://animefire.plus/img/animes/koyomimonogatari/",
      "secao": "legendados",
      "pagina": 134,
      "total_episodios": 12,
      "link_video": "https://animefire.plus/video/koyomimonogatari"
    },
    {
      "id": 2124,
      "nome": "Kubikiri Cycle: Aoiro Savant to Zaregototsukai",
      "link": "https://animefire.plus/animes/kubikiri-cycle-aoiro-savant-to-zaregototsukai-todos-os-episodios",
      "texto_original": "Kubikiri Cycle: Aoiro Savant to Zaregototsukai",
      "rating": 7.89,
      "classificacao_etaria": "A16",
      "imagem_original": "https://animefire.plus/img/animes/kubikiri-cycle-aoiro-savant-to-zaregototsukai.webp",
      "imagem_pasta": "https://animefire.plus/img/animes/kubikiri-cycle-aoiro-savant-to-zaregototsukai/",
      "secao": "legendados",
      "pagina": 164,
      "total_episodios": 6,
      "link_video": "https://animefire.plus/video/kubikiri-cycle-aoiro-savant-to-zaregototsukai"
    },
    {
      "id": 2125,
      "nome": "Kubo-san wa Mob wo Yurusanai",
      "link": "https://animefire.plus/animes/kubo-san-wa-mob-wo-yurusanai-todos-os-episodios",
      "texto_original": "Kubo-san wa Mob wo Yurusanai",
      "rating": 7.55,
      "classificacao_etaria": "A14",
      "imagem_original": "https://animefire.plus/img/animes/kubo-san-wa-mob-wo-yurusanai.webp",
      "imagem_pasta": "https://animefire.plus/img/animes/kubo-san-wa-mob-wo-yurusanai/",
      "secao": "legendados",
      "pagina": 28,
      "total_episodios": 12,
      "link_video": "https://animefire.plus/video/kubo-san-wa-mob-wo-yurusanai"
    },
    {
      "id": 2126,
      "nome": "Kud Wafter",
      "link": "https://animefire.plus/animes/kud-wafter-todos-os-episodios",
      "texto_original": "Kud Wafter",
      "rating": 7.05,
      "classificacao_etaria": "A14",
      "imagem_original": "https://animefire.plus/img/animes/kud-wafter.webp",
      "imagem_pasta": "https://animefire.plus/img/animes/kud-wafter/",
      "secao": "legendados",
      "pagina": 35,
      "total_episodios": 1,
      "link_video": "https://animefire.plus/video/kud-wafter"
    },
    {
      "id": 2129,
      "nome": "Kujira no Kora wa Sajou ni Utau (Dublado)",
      "link": "https://animefire.plus/animes/kujira-no-kora-wa-sajou-ni-utau-dublado-todos-os-episodios",
      "texto_original": "Kujira no Kora wa Sajou ni Utau (Dublado)",
      "rating": 7.26,
      "classificacao_etaria": "A14",
      "imagem_original": "https://animefire.plus/img/animes/kujira-no-kora-wa-sajou-ni-utau.webp",
      "imagem_pasta": "https://animefire.plus/img/animes/kujira-no-kora-wa-sajou-ni-utau/",
      "secao": "dublados,legendados",
      "pagina": 24,
      "total_episodios": 12,
      "link_video": "https://animefire.plus/video/kujira-no-kora-wa-sajou-ni-utau-dublado"
    },
    {
      "id": 2131,
      "nome": "Kuma Kuma Kuma Bear Punch!",
      "link": "https://animefire.plus/animes/kuma-kuma-kuma-bear-punch-todos-os-episodios",
      "texto_original": "Kuma Kuma Kuma Bear Punch!",
      "rating": 7.28,
      "classificacao_etaria": "A14",
      "imagem_original": "https://animefire.plus/img/animes/kuma-kuma-kuma-bear-punch.jpg",
      "imagem_pasta": "https://animefire.plus/img/animes/kuma-kuma-kuma-bear-punch/",
      "secao": "legendados",
      "pagina": 24,
      "total_episodios": 12,
      "link_video": "https://animefire.plus/video/kuma-kuma-kuma-bear-punch"
    },
    {
      "id": 2134,
      "nome": "Kumichou Musume to Sewagakari",
      "link": "https://animefire.plus/animes/kumichou-musume-to-sewagakari-todos-os-episodios",
      "texto_original": "Kumichou Musume to Sewagakari",
      "rating": 7.74,
      "classificacao_etaria": "A14",
      "imagem_original": "https://animefire.plus/img/animes/kumichou-musume-to-sewagakari.webp",
      "imagem_pasta": "https://animefire.plus/img/animes/kumichou-musume-to-sewagakari/",
      "secao": "legendados",
      "pagina": 31,
      "total_episodios": 12,
      "link_video": "https://animefire.plus/video/kumichou-musume-to-sewagakari"
    },
    {
      "id": 2135,
      "nome": "Kumo Desu ga, Nani ka? (Dublado)",
      "link": "https://animefire.plus/animes/kumo-desu-ga-nani-ka-dublado-todos-os-episodios",
      "texto_original": "Kumo Desu ga, Nani ka? (Dublado)",
      "rating": 7.45,
      "classificacao_etaria": "A14",
      "imagem_original": "https://animefire.plus/img/animes/kumo-desu-ga-nani-ka.webp",
      "imagem_pasta": "https://animefire.plus/img/animes/kumo-desu-ga-nani-ka/",
      "secao": "dublados,legendados,lancamentos",
      "pagina": 18,
      "total_episodios": 24,
      "link_video": "https://animefire.plus/video/kumo-desu-ga-nani-ka-dublado"
    },
    {
      "id": 2136,
      "nome": "Kunoichi Tsubaki no Mune no Uchi",
      "link": "https://animefire.plus/animes/kunoichi-tsubaki-no-mune-no-uchi-todos-os-episodios",
      "texto_original": "Kunoichi Tsubaki no Mune no Uchi",
      "rating": 7.1,
      "classificacao_etaria": "A14",
      "imagem_original": "https://animefire.plus/img/animes/kunoichi-tsubaki-no-mune-no-uchi.webp",
      "imagem_pasta": "https://animefire.plus/img/animes/kunoichi-tsubaki-no-mune-no-uchi/",
      "secao": "legendados",
      "pagina": 33,
      "total_episodios": 13,
      "link_video": "https://animefire.plus/video/kunoichi-tsubaki-no-mune-no-uchi"
    },
    {
      "id": 2140,
      "nome": "Kurau Phantom Memory",
      "link": "https://animefire.plus/animes/kurau-phantom-memory-todos-os-episodios",
      "texto_original": "Kurau Phantom Memory",
      "rating": 7.4,
      "classificacao_etaria": "A14",
      "imagem_original": "https://animefire.plus/img/animes/kurau-phantom-memory.webp",
      "imagem_pasta": "https://animefire.plus/img/animes/kurau-phantom-memory/",
      "secao": "legendados",
      "pagina": 178,
      "total_episodios": 24,
      "link_video": "https://animefire.plus/video/kurau-phantom-memory"
    }
  ],
  "pagination": {
    "current_page": 44,
    "per_page": 20,
    "total_items": 1905,
    "total_pages": 96,
    "has_next": true,
    "has_prev": true
  }
}
