{
  "message": "Animes com rating entre 7 e 8",
  "rating_range": {
    "min": 7,
    "max": 8
  },
  "data": [
    {
      "id": 2667,
      "nome": "Nanatsu no Taizai: Mokushiroku no Yonkishi (Dublado)",
      "link": "https://animefire.plus/animes/nanatsu-no-taizai-mokushiroku-no-yonkishi-dublado-todos-os-episodios",
      "texto_original": "Nanatsu no Taizai: Mokushiroku no Yonkishi (Dublado)",
      "rating": 7.26,
      "classificacao_etaria": "A14",
      "imagem_original": "https://animefire.plus/img/animes/nanatsu-no-taizai-mokushiroku-no-yonkishi.webp",
      "imagem_pasta": "https://animefire.plus/img/animes/nanatsu-no-taizai-mokushiroku-no-yonkishi/",
      "secao": "dublados,legendados",
      "pagina": 3,
      "total_episodios": 24,
      "link_video": "https://animefire.plus/video/nanatsu-no-taizai-mokushiroku-no-yonkishi-dublado"
    },
    {
      "id": 2668,
      "nome": "Nanatsu no Taizai: Mokushiroku no Yonkishi 2nd Season",
      "link": "https://animefire.plus/animes/nanatsu-no-taizai-mokushiroku-no-yonkishi-2nd-season-todos-os-episodios",
      "texto_original": "Nanatsu no Taizai: Mokushiroku no Yonkishi 2nd Season",
      "rating": 7.43,
      "classificacao_etaria": "A14",
      "imagem_original": "https://animefire.plus/img/animes/nanatsu-no-taizai-mokushiroku-no-yonkishi-2nd-season.webp",
      "imagem_pasta": "https://animefire.plus/img/animes/nanatsu-no-taizai-mokushiroku-no-yonkishi-2nd-season/",
      "secao": "legendados,lancamentos",
      "pagina": 9,
      "total_episodios": 0,
      "link_video": "https://animefire.plus/video/nanatsu-no-taizai-mokushiroku-no-yonkishi-2nd-season"
    },
    {
      "id": 2669,
      "nome": "Nanatsu no Taizai: Seisen no Shirushi",
      "link": "https://animefire.plus/animes/nanatsu-no-taizai-seisen-no-shirushi-todos-os-episodios",
      "texto_original": "Nanatsu no Taizai: Seisen no Shirushi",
      "rating": 7.39,
      "classificacao_etaria": "A14",
      "imagem_original": "https://animefire.plus/img/animes/nanatsu-no-taizai-seisen-no-shirushi.webp",
      "imagem_pasta": "https://animefire.plus/img/animes/nanatsu-no-taizai-seisen-no-shirushi/",
      "secao": "legendados",
      "pagina": 161,
      "total_episodios": 4,
      "link_video": "https://animefire.plus/video/nanatsu-no-taizai-seisen-no-shirushi"
    },
    {
      "id": 2670,
      "nome": "Nanbaka",
      "link": "https://animefire.plus/animes/nanbaka-todos-os-episodios",
      "texto_original": "Nanbaka",
      "rating": 7.41,
      "classificacao_etaria": "A14",
      "imagem_original": "https://animefire.plus/img/animes/nanbaka.webp",
      "imagem_pasta": "https://animefire.plus/img/animes/nanbaka/",
      "secao": "legendados",
      "pagina": 95,
      "total_episodios": 13,
      "link_video": "https://animefire.plus/video/nanbaka"
    },
    {
      "id": 2671,
      "nome": "Nanbaka 2",
      "link": "https://animefire.plus/animes/nanbaka-2-todos-os-episodios",
      "texto_original": "Nanbaka 2",
      "rating": 7.61,
      "classificacao_etaria": "A14",
      "imagem_original": "https://animefire.plus/img/animes/nanbaka-2.webp",
      "imagem_pasta": "https://animefire.plus/img/animes/nanbaka-2/",
      "secao": "legendados",
      "pagina": 104,
      "total_episodios": 12,
      "link_video": "https://animefire.plus/video/nanbaka-2"
    },
    {
      "id": 2678,
      "nome": "Naruto (Dublado)",
      "link": "https://animefire.plus/animes/naruto-dublado-todos-os-episodios",
      "texto_original": "Naruto (Dublado)",
      "rating": 7.88,
      "classificacao_etaria": "A14",
      "imagem_original": "https://animefire.plus/img/animes/naruto.webp",
      "imagem_pasta": "https://animefire.plus/img/animes/naruto/",
      "secao": "dublados,legendados",
      "pagina": 20,
      "total_episodios": 211,
      "link_video": "https://animefire.plus/video/naruto-dublado"
    },
    {
      "id": 2679,
      "nome": "Naruto SD: Rock Lee no Seishun Full-Power Ninden",
      "link": "https://animefire.plus/animes/naruto-sd-rock-lee-no-seishun-full-power-ninden-todos-os-episodios",
      "texto_original": "Naruto SD: Rock Lee no Seishun Full-Power Ninden",
      "rating": 7.15,
      "classificacao_etaria": "A14",
      "imagem_original": "https://animefire.plus/img/animes/naruto-sd-rock-lee-no-seishun-full-power-ninden.webp",
      "imagem_pasta": "https://animefire.plus/img/animes/naruto-sd-rock-lee-no-seishun-full-power-ninden/",
      "secao": "legendados",
      "pagina": 50,
      "total_episodios": 51,
      "link_video": "https://animefire.plus/video/naruto-sd-rock-lee-no-seishun-full-power-ninden"
    },
    {
      "id": 2682,
      "nome": "Natsu no Arashi!",
      "link": "https://animefire.plus/animes/natsu-no-arashi-todos-os-episodios",
      "texto_original": "Natsu no Arashi!",
      "rating": 7.33,
      "classificacao_etaria": "A14",
      "imagem_original": "https://animefire.plus/img/animes/natsu-no-arashi.webp",
      "imagem_pasta": "https://animefire.plus/img/animes/natsu-no-arashi/",
      "secao": "legendados",
      "pagina": 128,
      "total_episodios": 13,
      "link_video": "https://animefire.plus/video/natsu-no-arashi"
    },
    {
      "id": 2683,
      "nome": "Natsu no Arashi! Akinaichuu",
      "link": "https://animefire.plus/animes/natsu-no-arashi-akinaichuu-todos-os-episodios",
      "texto_original": "Natsu no Arashi! Akinaichuu",
      "rating": 7.38,
      "classificacao_etaria": "A14",
      "imagem_original": "https://animefire.plus/img/animes/natsu-no-arashi-akinaichuu.webp",
      "imagem_pasta": "https://animefire.plus/img/animes/natsu-no-arashi-akinaichuu/",
      "secao": "legendados",
      "pagina": 164,
      "total_episodios": 13,
      "link_video": "https://animefire.plus/video/natsu-no-arashi-akinaichuu"
    },
    {
      "id": 2684,
      "nome": "Natsu-iro Kiseki",
      "link": "https://animefire.plus/animes/natsu-iro-kiseki-todos-os-episodios",
      "texto_original": "Natsu-iro Kiseki",
      "rating": 7.04,
      "classificacao_etaria": "A14",
      "imagem_original": "https://animefire.plus/img/animes/natsu-iro-kiseki.webp",
      "imagem_pasta": "https://animefire.plus/img/animes/natsu-iro-kiseki/",
      "secao": "legendados",
      "pagina": 128,
      "total_episodios": 0,
      "link_video": "https://animefire.plus/video/natsu-iro-kiseki"
    },
    {
      "id": 2694,
      "nome": "Natsume Yuujinchou: Nyanko-sensei to Hajimete no Otsukai",
      "link": "https://animefire.plus/animes/natsume-yuujinchou-nyanko-sensei-to-hajimete-no-otsukai-todos-os-episodios",
      "texto_original": "Natsume Yuujinchou: Nyanko-sensei to Hajimete no Otsukai",
      "rating": 7.67,
      "classificacao_etaria": "A14",
      "imagem_original": "https://animefire.plus/img/animes/natsume-yuujinchou-nyanko-sensei-to-hajimete-no-otsukai.webp",
      "imagem_pasta": "https://animefire.plus/img/animes/natsume-yuujinchou-nyanko-sensei-to-hajimete-no-otsukai/",
      "secao": "legendados",
      "pagina": 88,
      "total_episodios": 1,
      "link_video": "https://animefire.plus/video/natsume-yuujinchou-nyanko-sensei-to-hajimete-no-otsukai"
    },
    {
      "id": 2696,
      "nome": "Natsuyuki Rendezvous",
      "link": "https://animefire.plus/animes/natsuyuki-rendezvous-todos-os-episodios",
      "texto_original": "Natsuyuki Rendezvous",
      "rating": 7.33,
      "classificacao_etaria": "A14",
      "imagem_original": "https://animefire.plus/img/animes/natsuyuki-rendezvous.webp",
      "imagem_pasta": "https://animefire.plus/img/animes/natsuyuki-rendezvous/",
      "secao": "legendados",
      "pagina": 160,
      "total_episodios": 0,
      "link_video": "https://animefire.plus/video/natsuyuki-rendezvous"
    },
    {
      "id": 2699,
      "nome": "Nazo no Kanojo X",
      "link": "https://animefire.plus/animes/nazo-no-kanojo-x-todos-os-episodios",
      "texto_original": "Nazo no Kanojo X",
      "rating": 7.33,
      "classificacao_etaria": "A14",
      "imagem_original": "https://animefire.plus/img/animes/nazo-no-kanojo-x.webp",
      "imagem_pasta": "https://animefire.plus/img/animes/nazo-no-kanojo-x/",
      "secao": "legendados",
      "pagina": 140,
      "total_episodios": 0,
      "link_video": "https://animefire.plus/video/nazo-no-kanojo-x"
    },
    {
      "id": 2703,
      "nome": "Needless",
      "link": "https://animefire.plus/animes/needless-todos-os-episodios",
      "texto_original": "Needless",
      "rating": 7.35,
      "classificacao_etaria": "A16",
      "imagem_original": "https://animefire.plus/img/animes/needless.webp",
      "imagem_pasta": "https://animefire.plus/img/animes/needless/",
      "secao": "legendados",
      "pagina": 116,
      "total_episodios": 24,
      "link_video": "https://animefire.plus/video/needless"
    },
    {
      "id": 2705,
      "nome": "NegaPosi Angler",
      "link": "https://animefire.plus/animes/negaposi-angler-todos-os-episodios",
      "texto_original": "NegaPosi Angler",
      "rating": 7.37,
      "classificacao_etaria": "A14",
      "imagem_original": "https://animefire.plus/img/animes/negaposi-angler.webp",
      "imagem_pasta": "https://animefire.plus/img/animes/negaposi-angler/",
      "secao": "legendados",
      "pagina": 10,
      "total_episodios": 12,
      "link_video": "https://animefire.plus/video/negaposi-angler"
    },
    {
      "id": 2706,
      "nome": "Nejimaki Seirei Senki: Tenkyou No Alderamin",
      "link": "https://animefire.plus/animes/nejimaki-seirei-senki-tenkyou-no-alderamin-todos-os-episodios",
      "texto_original": "Nejimaki Seirei Senki: Tenkyou No Alderamin",
      "rating": 7.84,
      "classificacao_etaria": "A16",
      "imagem_original": "https://animefire.plus/img/animes/nejimaki-seirei-senki-tenkyou-no-alderamin.webp",
      "imagem_pasta": "https://animefire.plus/img/animes/nejimaki-seirei-senki-tenkyou-no-alderamin/",
      "secao": "legendados",
      "pagina": 102,
      "total_episodios": 0,
      "link_video": "https://animefire.plus/video/nejimaki-seirei-senki-tenkyou-no-alderamin"
    },
    {
      "id": 2710,
      "nome": "Nekojiru-sou",
      "link": "https://animefire.plus/animes/nekojiru-sou-todos-os-episodios",
      "texto_original": "Nekojiru-sou",
      "rating": 7.34,
      "classificacao_etaria": "A14",
      "imagem_original": "https://animefire.plus/img/animes/nekojiru-sou.webp",
      "imagem_pasta": "https://animefire.plus/img/animes/nekojiru-sou/",
      "secao": "legendados",
      "pagina": 56,
      "total_episodios": 1,
      "link_video": "https://animefire.plus/video/nekojiru-sou"
    },
    {
      "id": 2713,
      "nome": "Nekopara: Koneko no Hi no Yakusoku",
      "link": "https://animefire.plus/animes/nekopara-koneko-no-hi-no-yakusoku-todos-os-episodios",
      "texto_original": "Nekopara: Koneko no Hi no Yakusoku",
      "rating": 7.13,
      "classificacao_etaria": "A14",
      "imagem_original": "https://animefire.plus/img/animes/nekopara-koneko-no-hi-no-yakusoku.webp",
      "imagem_pasta": "https://animefire.plus/img/animes/nekopara-koneko-no-hi-no-yakusoku/",
      "secao": "legendados",
      "pagina": 67,
      "total_episodios": 1,
      "link_video": "https://animefire.plus/video/nekopara-koneko-no-hi-no-yakusoku"
    },
    {
      "id": 2714,
      "nome": "Neo Angelique Abyss: Second Age",
      "link": "https://animefire.plus/animes/neo-angelique-abyss-second-age-todos-os-episodios",
      "texto_original": "Neo Angelique Abyss: Second Age",
      "rating": 7.14,
      "classificacao_etaria": "A14",
      "imagem_original": "https://animefire.plus/img/animes/neo-angelique-abyss-second-age.webp",
      "imagem_pasta": "https://animefire.plus/img/animes/neo-angelique-abyss-second-age/",
      "secao": "legendados",
      "pagina": 133,
      "total_episodios": 13,
      "link_video": "https://animefire.plus/video/neo-angelique-abyss-second-age"
    },
    {
      "id": 2716,
      "nome": "Neppuu Kairiku Bushi Road",
      "link": "https://animefire.plus/animes/neppuu-kairiku-bushi-road-todos-os-episodios",
      "texto_original": "Neppuu Kairiku Bushi Road",
      "rating": 7.26,
      "classificacao_etaria": "A16",
      "imagem_original": "https://animefire.plus/img/animes/neppuu-kairiku-bushi-road.webp",
      "imagem_pasta": "https://animefire.plus/img/animes/neppuu-kairiku-bushi-road/",
      "secao": "legendados",
      "pagina": 82,
      "total_episodios": 1,
      "link_video": "https://animefire.plus/video/neppuu-kairiku-bushi-road"
    }
  ],
  "pagination": {
    "current_page": 57,
    "per_page": 20,
    "total_items": 1905,
    "total_pages": 96,
    "has_next": true,
    "has_prev": true
  }
}
