{
  "message": "Animes com rating entre 7 e 8",
  "rating_range": {
    "min": 7,
    "max": 8
  },
  "data": [
    {
      "id": 4273,
      "nome": "Yozakura Quartet: Hana no Uta",
      "link": "https://animefire.plus/animes/yozakura-quartet-hana-no-uta-todos-os-episodios",
      "texto_original": "Yozakura Quartet: Hana no Uta",
      "rating": 7.55,
      "classificacao_etaria": "A14",
      "imagem_original": "https://animefire.plus/img/animes/yozakura-quartet-hana-no-uta.webp",
      "imagem_pasta": "https://animefire.plus/img/animes/yozakura-quartet-hana-no-uta/",
      "secao": "legendados",
      "pagina": 169,
      "total_episodios": 4,
      "link_video": "https://animefire.plus/video/yozakura-quartet-hana-no-uta"
    },
    {
      "id": 4274,
      "nome": "Yozakura-san Chi no Daisakusen",
      "link": "https://animefire.plus/animes/yozakura-san-chi-no-daisakusen-todos-os-episodios",
      "texto_original": "Yozakura-san Chi no Daisakusen",
      "rating": 7.56,
      "classificacao_etaria": "A14",
      "imagem_original": "https://animefire.plus/img/animes/yozakura-san-chi-no-daisakusen.webp",
      "imagem_pasta": "https://animefire.plus/img/animes/yozakura-san-chi-no-daisakusen/",
      "secao": "legendados,lancamentos",
      "pagina": 15,
      "total_episodios": 18,
      "link_video": "https://animefire.plus/video/yozakura-san-chi-no-daisakusen"
    },
    {
      "id": 4276,
      "nome": "Yu☆Gi☆Oh!",
      "link": "https://animefire.plus/animes/yu-gi-oh-todos-os-episodios",
      "texto_original": "Yu☆Gi☆Oh!",
      "rating": 7.29,
      "classificacao_etaria": "A14",
      "imagem_original": "https://animefire.plus/img/animes/yu-gi-oh.webp",
      "imagem_pasta": "https://animefire.plus/img/animes/yu-gi-oh/",
      "secao": "legendados",
      "pagina": 131,
      "total_episodios": 16,
      "link_video": "https://animefire.plus/video/yu-gi-oh"
    },
    {
      "id": 4277,
      "nome": "Yu☆Gi☆Oh! 5D's",
      "link": "https://animefire.plus/animes/yu-gi-oh-5d-s-todos-os-episodios",
      "texto_original": "Yu☆Gi☆Oh! 5D's",
      "rating": 7.51,
      "classificacao_etaria": "A14",
      "imagem_original": "https://animefire.plus/img/animes/yu-gi-oh-5d-s.webp",
      "imagem_pasta": "https://animefire.plus/img/animes/yu-gi-oh-5d-s/",
      "secao": "legendados",
      "pagina": 125,
      "total_episodios": 153,
      "link_video": "https://animefire.plus/video/yu-gi-oh-5d-s"
    },
    {
      "id": 4278,
      "nome": "Yu☆Gi☆Oh! Duel Monsters",
      "link": "https://animefire.plus/animes/yu-gi-oh-duel-monsters-todos-os-episodios",
      "texto_original": "Yu☆Gi☆Oh! Duel Monsters",
      "rating": 7.56,
      "classificacao_etaria": "A14",
      "imagem_original": "https://animefire.plus/img/animes/yu-gi-oh-duel-monsters.webp",
      "imagem_pasta": "https://animefire.plus/img/animes/yu-gi-oh-duel-monsters/",
      "secao": "legendados",
      "pagina": 137,
      "total_episodios": 40,
      "link_video": "https://animefire.plus/video/yu-gi-oh-duel-monsters"
    },
    {
      "id": 4282,
      "nome": "Yu☆Gi☆Oh!: Duel Monsters GX (Dublado)",
      "link": "https://animefire.plus/animes/yu-gi-oh-duel-monsters-gx-dublado-todos-os-episodios",
      "texto_original": "Yu☆Gi☆Oh!: Duel Monsters GX (Dublado)",
      "rating": 7.23,
      "classificacao_etaria": "A14",
      "imagem_original": "https://animefire.plus/img/animes/yu-gi-oh-duel-monsters-gx.webp",
      "imagem_pasta": "https://animefire.plus/img/animes/yu-gi-oh-duel-monsters-gx/",
      "secao": "dublados",
      "pagina": 27,
      "total_episodios": 20,
      "link_video": "https://animefire.plus/video/yu-gi-oh-duel-monsters-gx-dublado"
    },
    {
      "id": 4290,
      "nome": "Yume-iro Pâtissière SP Professional",
      "link": "https://animefire.plus/animes/yume-iro-patissiere-sp-professional-todos-os-episodios",
      "texto_original": "Yume-iro Pâtissière SP Professional",
      "rating": 7.74,
      "classificacao_etaria": null,
      "imagem_original": "https://animefire.plus/img/animes/yume-iro-patissiere-sp-professional.webp",
      "imagem_pasta": "https://animefire.plus/img/animes/yume-iro-patissiere-sp-professional/",
      "secao": "legendados",
      "pagina": 166,
      "total_episodios": 13,
      "link_video": "https://animefire.plus/video/yume-iro-patissiere-sp-professional"
    },
    {
      "id": 4292,
      "nome": "Yumekui Merry",
      "link": "https://animefire.plus/animes/yumekui-merry-todos-os-episodios",
      "texto_original": "Yumekui Merry",
      "rating": 7.01,
      "classificacao_etaria": "A14",
      "imagem_original": "https://animefire.plus/img/animes/yumekui-merry.webp",
      "imagem_pasta": "https://animefire.plus/img/animes/yumekui-merry/",
      "secao": "legendados",
      "pagina": 112,
      "total_episodios": 13,
      "link_video": "https://animefire.plus/video/yumekui-merry"
    },
    {
      "id": 4295,
      "nome": "Yuragi-sou no Yuuna-san",
      "link": "https://animefire.plus/animes/yuragi-sou-no-yuuna-san-todos-os-episodios",
      "texto_original": "Yuragi-sou no Yuuna-san",
      "rating": 7.22,
      "classificacao_etaria": "A18",
      "imagem_original": "https://animefire.plus/img/animes/yuragi-sou-no-yuuna-san.webp",
      "imagem_pasta": "https://animefire.plus/img/animes/yuragi-sou-no-yuuna-san/",
      "secao": "legendados",
      "pagina": 128,
      "total_episodios": 12,
      "link_video": "https://animefire.plus/video/yuragi-sou-no-yuuna-san"
    },
    {
      "id": 4296,
      "nome": "Yuragi-sou no Yuuna-san OVA",
      "link": "https://animefire.plus/animes/yuragi-sou-no-yuuna-san-ova-todos-os-episodios",
      "texto_original": "Yuragi-sou no Yuuna-san OVA",
      "rating": 7.15,
      "classificacao_etaria": "A18",
      "imagem_original": "https://animefire.plus/img/animes/yuragi-sou-no-yuuna-san-ova.webp",
      "imagem_pasta": "https://animefire.plus/img/animes/yuragi-sou-no-yuuna-san-ova/",
      "secao": "legendados",
      "pagina": 107,
      "total_episodios": 4,
      "link_video": "https://animefire.plus/video/yuragi-sou-no-yuuna-san-ova"
    },
    {
      "id": 4298,
      "nome": "Yuri Kuma Arashi",
      "link": "https://animefire.plus/animes/yuri-kuma-arashi-todos-os-episodios",
      "texto_original": "Yuri Kuma Arashi",
      "rating": 7.14,
      "classificacao_etaria": "A16",
      "imagem_original": "https://animefire.plus/img/animes/yuri-kuma-arashi.webp",
      "imagem_pasta": "https://animefire.plus/img/animes/yuri-kuma-arashi/",
      "secao": "legendados",
      "pagina": 137,
      "total_episodios": 5,
      "link_video": "https://animefire.plus/video/yuri-kuma-arashi"
    },
    {
      "id": 4303,
      "nome": "Yuru Camp△ Specials",
      "link": "https://animefire.plus/animes/yuru-camp-specials-todos-os-episodios",
      "texto_original": "Yuru Camp△ Specials",
      "rating": 7.61,
      "classificacao_etaria": "A14",
      "imagem_original": "https://animefire.plus/img/animes/yuru-camp-specials.webp",
      "imagem_pasta": "https://animefire.plus/img/animes/yuru-camp-specials/",
      "secao": "legendados",
      "pagina": 170,
      "total_episodios": 3,
      "link_video": "https://animefire.plus/video/yuru-camp-specials"
    },
    {
      "id": 4304,
      "nome": "Yuru Yuri",
      "link": "https://animefire.plus/animes/yuru-yuri-todos-os-episodios",
      "texto_original": "Yuru Yuri",
      "rating": 7.66,
      "classificacao_etaria": "A14",
      "imagem_original": "https://animefire.plus/img/animes/yuru-yuri.webp",
      "imagem_pasta": "https://animefire.plus/img/animes/yuru-yuri/",
      "secao": "legendados",
      "pagina": 105,
      "total_episodios": 12,
      "link_video": "https://animefire.plus/video/yuru-yuri"
    },
    {
      "id": 4305,
      "nome": "Yuru Yuri San☆Hai!",
      "link": "https://animefire.plus/animes/yuru-yuri-san-hai-todos-os-episodios",
      "texto_original": "Yuru Yuri San☆Hai!",
      "rating": 7.98,
      "classificacao_etaria": "A14",
      "imagem_original": "https://animefire.plus/img/animes/yuru-yuri-san-hai.webp",
      "imagem_pasta": "https://animefire.plus/img/animes/yuru-yuri-san-hai/",
      "secao": "legendados",
      "pagina": 75,
      "total_episodios": 12,
      "link_video": "https://animefire.plus/video/yuru-yuri-san-hai"
    },
    {
      "id": 4310,
      "nome": "Yuugo: Koushounin",
      "link": "https://animefire.plus/animes/yuugo-koushounin-todos-os-episodios",
      "texto_original": "Yuugo: Koushounin",
      "rating": 7.21,
      "classificacao_etaria": "A16",
      "imagem_original": "https://animefire.plus/img/animes/yuugo-koushounin.webp",
      "imagem_pasta": "https://animefire.plus/img/animes/yuugo-koushounin/",
      "secao": "legendados",
      "pagina": 157,
      "total_episodios": 13,
      "link_video": "https://animefire.plus/video/yuugo-koushounin"
    },
    {
      "id": 4312,
      "nome": "Yuuki Bakuhatsu Bang Bravern",
      "link": "https://animefire.plus/animes/yuuki-bakuhatsu-bang-bravern-todos-os-episodios",
      "texto_original": "Yuuki Bakuhatsu Bang Bravern",
      "rating": 7.54,
      "classificacao_etaria": "A14",
      "imagem_original": "https://animefire.plus/img/animes/yuuki-bakuhatsu-bang-bravern.webp",
      "imagem_pasta": "https://animefire.plus/img/animes/yuuki-bakuhatsu-bang-bravern/",
      "secao": "legendados",
      "pagina": 16,
      "total_episodios": 12,
      "link_video": "https://animefire.plus/video/yuuki-bakuhatsu-bang-bravern"
    },
    {
      "id": 4313,
      "nome": "Yuuki Yuuna wa Yuusha de Aru",
      "link": "https://animefire.plus/animes/yuuki-yuuna-wa-yuusha-de-aru-todos-os-episodios",
      "texto_original": "Yuuki Yuuna wa Yuusha de Aru",
      "rating": 7.41,
      "classificacao_etaria": "A14",
      "imagem_original": "https://animefire.plus/img/animes/yuuki-yuuna-wa-yuusha-de-aru.webp",
      "imagem_pasta": "https://animefire.plus/img/animes/yuuki-yuuna-wa-yuusha-de-aru/",
      "secao": "legendados",
      "pagina": 61,
      "total_episodios": 12,
      "link_video": "https://animefire.plus/video/yuuki-yuuna-wa-yuusha-de-aru"
    },
    {
      "id": 4314,
      "nome": "Yuuki Yuuna wa Yuusha de Aru: Dai Mankai no Shou",
      "link": "https://animefire.plus/animes/yuuki-yuuna-wa-yuusha-de-aru-dai-mankai-no-shou-todos-os-episodios",
      "texto_original": "Yuuki Yuuna wa Yuusha de Aru: Dai Mankai no Shou",
      "rating": 7.3,
      "classificacao_etaria": "A14",
      "imagem_original": "https://animefire.plus/img/animes/yuuki-yuuna-wa-yuusha-de-aru-dai-mankai-no-shou.webp",
      "imagem_pasta": "https://animefire.plus/img/animes/yuuki-yuuna-wa-yuusha-de-aru-dai-mankai-no-shou/",
      "secao": "legendados",
      "pagina": 38,
      "total_episodios": 12,
      "link_video": "https://animefire.plus/video/yuuki-yuuna-wa-yuusha-de-aru-dai-mankai-no-shou"
    },
    {
      "id": 4315,
      "nome": "Yuuki Yuuna wa Yuusha de Aru: Washio Sumi no Shou",
      "link": "https://animefire.plus/animes/yuuki-yuuna-wa-yuusha-de-aru-washio-sumi-no-shou-todos-os-episodios",
      "texto_original": "Yuuki Yuuna wa Yuusha de Aru: Washio Sumi no Shou",
      "rating": 7.66,
      "classificacao_etaria": "A14",
      "imagem_original": "https://animefire.plus/img/animes/yuuki-yuuna-wa-yuusha-de-aru-washio-sumi-no-shou.webp",
      "imagem_pasta": "https://animefire.plus/img/animes/yuuki-yuuna-wa-yuusha-de-aru-washio-sumi-no-shou/",
      "secao": "legendados",
      "pagina": 63,
      "total_episodios": 6,
      "link_video": "https://animefire.plus/video/yuuki-yuuna-wa-yuusha-de-aru-washio-sumi-no-shou"
    },
    {
      "id": 4316,
      "nome": "Yuuki Yuuna wa Yuusha de Aru: Yuusha no Shou",
      "link": "https://animefire.plus/animes/yuuki-yuuna-wa-yuusha-de-aru-yuusha-no-shou-todos-os-episodios",
      "texto_original": "Yuuki Yuuna wa Yuusha de Aru: Yuusha no Shou",
      "rating": 7.67,
      "classificacao_etaria": "A14",
      "imagem_original": "https://animefire.plus/img/animes/yuuki-yuuna-wa-yuusha-de-aru-yuusha-no-shou.webp",
      "imagem_pasta": "https://animefire.plus/img/animes/yuuki-yuuna-wa-yuusha-de-aru-yuusha-no-shou/",
      "secao": "legendados",
      "pagina": 63,
      "total_episodios": 6,
      "link_video": "https://animefire.plus/video/yuuki-yuuna-wa-yuusha-de-aru-yuusha-no-shou"
    }
  ],
  "pagination": {
    "current_page": 94,
    "per_page": 20,
    "total_items": 1905,
    "total_pages": 96,
    "has_next": true,
    "has_prev": true
  }
}
