{
  "message": "Animes com rating entre 7 e 8",
  "rating_range": {
    "min": 7,
    "max": 8
  },
  "data": [
    {
      "id": 2762,
      "nome": "Nobunaga no Shinobi: Anegawa Ishiyama-hen",
      "link": "https://animefire.plus/animes/nobunaga-no-shinobi-anegawa-ishiyama-hen-todos-os-episodios",
      "texto_original": "Nobunaga no Shinobi: Anegawa Ishiyama-hen",
      "rating": 7.05,
      "classificacao_etaria": "A14",
      "imagem_original": "https://animefire.plus/img/animes/nobunaga-no-shinobi-anegawa-ishiyama-hen.webp",
      "imagem_pasta": "https://animefire.plus/img/animes/nobunaga-no-shinobi-anegawa-ishiyama-hen/",
      "secao": "legendados",
      "pagina": 124,
      "total_episodios": 20,
      "link_video": "https://animefire.plus/video/nobunaga-no-shinobi-anegawa-ishiyama-hen"
    },
    {
      "id": 2769,
      "nome": "Noein: Mou Hitori no Kimi e",
      "link": "https://animefire.plus/animes/noein-mou-hitori-no-kimi-e-todos-os-episodios",
      "texto_original": "Noein: Mou Hitori no Kimi e",
      "rating": 7.68,
      "classificacao_etaria": "A14",
      "imagem_original": "https://animefire.plus/img/animes/noein-mou-hitori-no-kimi-e.webp",
      "imagem_pasta": "https://animefire.plus/img/animes/noein-mou-hitori-no-kimi-e/",
      "secao": "legendados",
      "pagina": 173,
      "total_episodios": 24,
      "link_video": "https://animefire.plus/video/noein-mou-hitori-no-kimi-e"
    },
    {
      "id": 2770,
      "nome": "Nogizaka Haruka no Himitsu",
      "link": "https://animefire.plus/animes/nogizaka-haruka-no-himitsu-todos-os-episodios",
      "texto_original": "Nogizaka Haruka no Himitsu",
      "rating": 7.3,
      "classificacao_etaria": "A14",
      "imagem_original": "https://animefire.plus/img/animes/nogizaka-haruka-no-himitsu.webp",
      "imagem_pasta": "https://animefire.plus/img/animes/nogizaka-haruka-no-himitsu/",
      "secao": "legendados",
      "pagina": 168,
      "total_episodios": 12,
      "link_video": "https://animefire.plus/video/nogizaka-haruka-no-himitsu"
    },
    {
      "id": 2771,
      "nome": "Nogizaka Haruka no Himitsu: Purezza",
      "link": "https://animefire.plus/animes/nogizaka-haruka-no-himitsu-purezza-todos-os-episodios",
      "texto_original": "Nogizaka Haruka no Himitsu: Purezza",
      "rating": 7.26,
      "classificacao_etaria": "A14",
      "imagem_original": "https://animefire.plus/img/animes/nogizaka-haruka-no-himitsu-purezza.webp",
      "imagem_pasta": "https://animefire.plus/img/animes/nogizaka-haruka-no-himitsu-purezza/",
      "secao": "legendados",
      "pagina": 131,
      "total_episodios": 0,
      "link_video": "https://animefire.plus/video/nogizaka-haruka-no-himitsu-purezza"
    },
    {
      "id": 2772,
      "nome": "Noir (Dublado)",
      "link": "https://animefire.plus/animes/noir-dublado-todos-os-episodios",
      "texto_original": "Noir (Dublado)",
      "rating": 7.32,
      "classificacao_etaria": "A14",
      "imagem_original": "https://animefire.plus/img/animes/noir.webp",
      "imagem_pasta": "https://animefire.plus/img/animes/noir/",
      "secao": "dublados,legendados",
      "pagina": 22,
      "total_episodios": 26,
      "link_video": "https://animefire.plus/video/noir-dublado"
    },
    {
      "id": 2775,
      "nome": "Non Non Biyori",
      "link": "https://animefire.plus/animes/non-non-biyori-todos-os-episodios",
      "texto_original": "Non Non Biyori",
      "rating": 8,
      "classificacao_etaria": "A14",
      "imagem_original": "https://animefire.plus/img/animes/non-non-biyori.webp",
      "imagem_pasta": "https://animefire.plus/img/animes/non-non-biyori/",
      "secao": "legendados",
      "pagina": 132,
      "total_episodios": 12,
      "link_video": "https://animefire.plus/video/non-non-biyori"
    },
    {
      "id": 2780,
      "nome": "Noragami (Dublado)",
      "link": "https://animefire.plus/animes/noragami-dublado-todos-os-episodios",
      "texto_original": "Noragami (Dublado)",
      "rating": 7.98,
      "classificacao_etaria": "A14",
      "imagem_original": "https://animefire.plus/img/animes/noragami.webp",
      "imagem_pasta": "https://animefire.plus/img/animes/noragami/",
      "secao": "dublados,legendados",
      "pagina": 14,
      "total_episodios": 12,
      "link_video": "https://animefire.plus/video/noragami-dublado"
    },
    {
      "id": 2782,
      "nome": "Noragami Aragoto OVA",
      "link": "https://animefire.plus/animes/noragami-aragoto-ova-todos-os-episodios",
      "texto_original": "Noragami Aragoto OVA",
      "rating": 7.98,
      "classificacao_etaria": "A14",
      "imagem_original": "https://animefire.plus/img/animes/noragami-aragoto-ova.webp",
      "imagem_pasta": "https://animefire.plus/img/animes/noragami-aragoto-ova/",
      "secao": "legendados",
      "pagina": 62,
      "total_episodios": 1,
      "link_video": "https://animefire.plus/video/noragami-aragoto-ova"
    },
    {
      "id": 2783,
      "nome": "Noragami OVA",
      "link": "https://animefire.plus/animes/noragami-ova-todos-os-episodios",
      "texto_original": "Noragami OVA",
      "rating": 7.82,
      "classificacao_etaria": "A14",
      "imagem_original": "https://animefire.plus/img/animes/noragami-ova.webp",
      "imagem_pasta": "https://animefire.plus/img/animes/noragami-ova/",
      "secao": "legendados",
      "pagina": 62,
      "total_episodios": 2,
      "link_video": "https://animefire.plus/video/noragami-ova"
    },
    {
      "id": 2788,
      "nome": "Nozomanu Fushi no Boukensha",
      "link": "https://animefire.plus/animes/nozomanu-fushi-no-boukensha-todos-os-episodios",
      "texto_original": "Nozomanu Fushi no Boukensha",
      "rating": 7.43,
      "classificacao_etaria": "A14",
      "imagem_original": "https://animefire.plus/img/animes/nozomanu-fushi-no-boukensha.webp",
      "imagem_pasta": "https://animefire.plus/img/animes/nozomanu-fushi-no-boukensha/",
      "secao": "legendados",
      "pagina": 18,
      "total_episodios": 12,
      "link_video": "https://animefire.plus/video/nozomanu-fushi-no-boukensha"
    },
    {
      "id": 2793,
      "nome": "Nurarihyon no Mago",
      "link": "https://animefire.plus/animes/nurarihyon-no-mago-todos-os-episodios",
      "texto_original": "Nurarihyon no Mago",
      "rating": 7.73,
      "classificacao_etaria": "A14",
      "imagem_original": "https://animefire.plus/img/animes/nurarihyon-no-mago.webp",
      "imagem_pasta": "https://animefire.plus/img/animes/nurarihyon-no-mago/",
      "secao": "legendados",
      "pagina": 143,
      "total_episodios": 26,
      "link_video": "https://animefire.plus/video/nurarihyon-no-mago"
    },
    {
      "id": 2794,
      "nome": "Nurarihyon no Mago OVA",
      "link": "https://animefire.plus/animes/nurarihyon-no-mago-ova-todos-os-episodios",
      "texto_original": "Nurarihyon no Mago OVA",
      "rating": 7.76,
      "classificacao_etaria": "A18",
      "imagem_original": "https://animefire.plus/img/animes/nurarihyon-no-mago-ova.webp",
      "imagem_pasta": "https://animefire.plus/img/animes/nurarihyon-no-mago-ova/",
      "secao": "legendados",
      "pagina": 88,
      "total_episodios": 2,
      "link_video": "https://animefire.plus/video/nurarihyon-no-mago-ova"
    },
    {
      "id": 2798,
      "nome": "Nyan Koi!",
      "link": "https://animefire.plus/animes/nyan-koi-todos-os-episodios",
      "texto_original": "Nyan Koi!",
      "rating": 7.28,
      "classificacao_etaria": "A14",
      "imagem_original": "https://animefire.plus/img/animes/nyan-koi.webp",
      "imagem_pasta": "https://animefire.plus/img/animes/nyan-koi/",
      "secao": "legendados",
      "pagina": 162,
      "total_episodios": 12,
      "link_video": "https://animefire.plus/video/nyan-koi"
    },
    {
      "id": 2801,
      "nome": "Obey Me!",
      "link": "https://animefire.plus/animes/obey-me-todos-os-episodios",
      "texto_original": "Obey Me!",
      "rating": 7.13,
      "classificacao_etaria": "A14",
      "imagem_original": "https://animefire.plus/img/animes/obey-me.webp",
      "imagem_pasta": "https://animefire.plus/img/animes/obey-me/",
      "secao": "legendados",
      "pagina": 40,
      "total_episodios": 12,
      "link_video": "https://animefire.plus/video/obey-me"
    },
    {
      "id": 2806,
      "nome": "Oda Nobuna no Yabou",
      "link": "https://animefire.plus/animes/oda-nobuna-no-yabou-todos-os-episodios",
      "texto_original": "Oda Nobuna no Yabou",
      "rating": 7.52,
      "classificacao_etaria": "A14",
      "imagem_original": "https://animefire.plus/img/animes/oda-nobuna-no-yabou.webp",
      "imagem_pasta": "https://animefire.plus/img/animes/oda-nobuna-no-yabou/",
      "secao": "legendados",
      "pagina": 73,
      "total_episodios": 12,
      "link_video": "https://animefire.plus/video/oda-nobuna-no-yabou"
    },
    {
      "id": 2808,
      "nome": "Oemojisangjuui (Dublado)",
      "link": "https://animefire.plus/animes/oemojisangjuui-dublado-todos-os-episodios",
      "texto_original": "Oemojisangjuui (Dublado)",
      "rating": 7.41,
      "classificacao_etaria": "A14",
      "imagem_original": "https://animefire.plus/img/animes/oemojisangjuui.webp",
      "imagem_pasta": "https://animefire.plus/img/animes/oemojisangjuui/",
      "secao": "dublados",
      "pagina": 8,
      "total_episodios": 8,
      "link_video": "https://animefire.plus/video/oemojisangjuui-dublado"
    },
    {
      "id": 2810,
      "nome": "Ojamajo Doremi",
      "link": "https://animefire.plus/animes/ojamajo-doremi-todos-os-episodios",
      "texto_original": "Ojamajo Doremi",
      "rating": 7.2,
      "classificacao_etaria": null,
      "imagem_original": "https://animefire.plus/img/animes/ojamajo-doremi.webp",
      "imagem_pasta": "https://animefire.plus/img/animes/ojamajo-doremi/",
      "secao": "legendados",
      "pagina": 59,
      "total_episodios": 10,
      "link_video": "https://animefire.plus/video/ojamajo-doremi"
    },
    {
      "id": 2814,
      "nome": "Okinawa de Suki ni Natta Ko ga Hougen Sugite Tsurasugiru",
      "link": "https://animefire.plus/animes/okinawa-de-suki-ni-natta-ko-ga-hougen-sugite-tsurasugiru-todos-os-episodios",
      "texto_original": "Okinawa de Suki ni Natta Ko ga Hougen Sugite Tsurasugiru",
      "rating": 7.1,
      "classificacao_etaria": "A14",
      "imagem_original": "https://animefire.plus/img/animes/okinawa-de-suki-ni-natta-ko-ga-hougen-sugite-tsurasugiru.webp",
      "imagem_pasta": "https://animefire.plus/img/animes/okinawa-de-suki-ni-natta-ko-ga-hougen-sugite-tsurasugiru/",
      "secao": "legendados",
      "pagina": 8,
      "total_episodios": 12,
      "link_video": "https://animefire.plus/video/okinawa-de-suki-ni-natta-ko-ga-hougen-sugite-tsurasugiru"
    },
    {
      "id": 2820,
      "nome": "Olympia Kyklos",
      "link": "https://animefire.plus/animes/olympia-kyklos-todos-os-episodios",
      "texto_original": "Olympia Kyklos",
      "rating": 7.02,
      "classificacao_etaria": "A14",
      "imagem_original": "https://animefire.plus/img/animes/olympia-kyklos.webp",
      "imagem_pasta": "https://animefire.plus/img/animes/olympia-kyklos/",
      "secao": "legendados,lancamentos",
      "pagina": 79,
      "total_episodios": 0,
      "link_video": "https://animefire.plus/video/olympia-kyklos"
    },
    {
      "id": 2822,
      "nome": "Omamori Himari",
      "link": "https://animefire.plus/animes/omamori-himari-todos-os-episodios",
      "texto_original": "Omamori Himari",
      "rating": 7.06,
      "classificacao_etaria": "A18",
      "imagem_original": "https://animefire.plus/img/animes/omamori-himari.webp",
      "imagem_pasta": "https://animefire.plus/img/animes/omamori-himari/",
      "secao": "legendados",
      "pagina": 124,
      "total_episodios": 0,
      "link_video": "https://animefire.plus/video/omamori-himari"
    }
  ],
  "pagination": {
    "current_page": 59,
    "per_page": 20,
    "total_items": 1905,
    "total_pages": 96,
    "has_next": true,
    "has_prev": true
  }
}
