{
  "message": "Animes com rating entre 7 e 8",
  "rating_range": {
    "min": 7,
    "max": 8
  },
  "data": [
    {
      "id": 3677,
      "nome": "Super Lovers",
      "link": "https://animefire.plus/animes/super-lovers-todos-os-episodios",
      "texto_original": "Super Lovers",
      "rating": 7.44,
      "classificacao_etaria": "A14",
      "imagem_original": "https://animefire.plus/img/animes/super-lovers.webp",
      "imagem_pasta": "https://animefire.plus/img/animes/super-lovers/",
      "secao": "legendados",
      "pagina": 109,
      "total_episodios": 10,
      "link_video": "https://animefire.plus/video/super-lovers"
    },
    {
      "id": 3678,
      "nome": "Super Lovers 2",
      "link": "https://animefire.plus/animes/super-lovers-2-todos-os-episodios",
      "texto_original": "Super Lovers 2",
      "rating": 7.64,
      "classificacao_etaria": "A14",
      "imagem_original": "https://animefire.plus/img/animes/super-lovers-2.webp",
      "imagem_pasta": "https://animefire.plus/img/animes/super-lovers-2/",
      "secao": "legendados",
      "pagina": 153,
      "total_episodios": 0,
      "link_video": "https://animefire.plus/video/super-lovers-2"
    },
    {
      "id": 3681,
      "nome": "Super Robot Taisen OG: The Inspector",
      "link": "https://animefire.plus/animes/super-robot-taisen-og-the-inspector-todos-os-episodios",
      "texto_original": "Super Robot Taisen OG: The Inspector",
      "rating": 7.31,
      "classificacao_etaria": "A14",
      "imagem_original": "https://animefire.plus/img/animes/super-robot-taisen-og-the-inspector.webp",
      "imagem_pasta": "https://animefire.plus/img/animes/super-robot-taisen-og-the-inspector/",
      "secao": "legendados",
      "pagina": 130,
      "total_episodios": 26,
      "link_video": "https://animefire.plus/video/super-robot-taisen-og-the-inspector"
    },
    {
      "id": 3683,
      "nome": "Supernatural The Animation",
      "link": "https://animefire.plus/animes/supernatural-the-animation-todos-os-episodios",
      "texto_original": "Supernatural The Animation",
      "rating": 7.1,
      "classificacao_etaria": "A16",
      "imagem_original": "https://animefire.plus/img/animes/supernatural-the-animation.webp",
      "imagem_pasta": "https://animefire.plus/img/animes/supernatural-the-animation/",
      "secao": "legendados",
      "pagina": 159,
      "total_episodios": 22,
      "link_video": "https://animefire.plus/video/supernatural-the-animation"
    },
    {
      "id": 3686,
      "nome": "Suzuka",
      "link": "https://animefire.plus/animes/suzuka-todos-os-episodios",
      "texto_original": "Suzuka",
      "rating": 7.3,
      "classificacao_etaria": "A14",
      "imagem_original": "https://animefire.plus/img/animes/suzuka.webp",
      "imagem_pasta": "https://animefire.plus/img/animes/suzuka/",
      "secao": "legendados",
      "pagina": 129,
      "total_episodios": 22,
      "link_video": "https://animefire.plus/video/suzuka"
    },
    {
      "id": 3687,
      "nome": "Suzumiya Haruhi No Yuuutsu",
      "link": "https://animefire.plus/animes/suzumiya-haruhi-no-yuuutsu-todos-os-episodios",
      "texto_original": "Suzumiya Haruhi No Yuuutsu",
      "rating": 7.95,
      "classificacao_etaria": "A14",
      "imagem_original": "https://animefire.plus/img/animes/suzumiya-haruhi-no-yuuutsu.webp",
      "imagem_pasta": "https://animefire.plus/img/animes/suzumiya-haruhi-no-yuuutsu/",
      "secao": "legendados",
      "pagina": 99,
      "total_episodios": 14,
      "link_video": "https://animefire.plus/video/suzumiya-haruhi-no-yuuutsu"
    },
    {
      "id": 3688,
      "nome": "Suzumiya Haruhi no Yuuutsu (2009)",
      "link": "https://animefire.plus/animes/suzumiya-haruhi-no-yuuutsu-2009-todos-os-episodios",
      "texto_original": "Suzumiya Haruhi no Yuuutsu (2009)",
      "rating": 7.26,
      "classificacao_etaria": "A14",
      "imagem_original": "https://animefire.plus/img/animes/suzumiya-haruhi-no-yuuutsu-2009.webp",
      "imagem_pasta": "https://animefire.plus/img/animes/suzumiya-haruhi-no-yuuutsu-2009/",
      "secao": "legendados",
      "pagina": 165,
      "total_episodios": 19,
      "link_video": "https://animefire.plus/video/suzumiya-haruhi-no-yuuutsu-2009"
    },
    {
      "id": 3690,
      "nome": "Sword Art Online (Dublado)",
      "link": "https://animefire.plus/animes/sword-art-online-dublado-todos-os-episodios",
      "texto_original": "Sword Art Online (Dublado)",
      "rating": 7.2,
      "classificacao_etaria": "A14",
      "imagem_original": "https://animefire.plus/img/animes/sword-art-online.webp",
      "imagem_pasta": "https://animefire.plus/img/animes/sword-art-online/",
      "secao": "dublados,legendados",
      "pagina": 13,
      "total_episodios": 25,
      "link_video": "https://animefire.plus/video/sword-art-online-dublado"
    },
    {
      "id": 3691,
      "nome": "Sword Art Online Alternative: Gun Gale Online",
      "link": "https://animefire.plus/animes/sword-art-online-alternative-gun-gale-online-todos-os-episodios",
      "texto_original": "Sword Art Online Alternative: Gun Gale Online",
      "rating": 7.29,
      "classificacao_etaria": "A14",
      "imagem_original": "https://animefire.plus/img/animes/sword-art-online-alternative-gun-gale-online.webp",
      "imagem_pasta": "https://animefire.plus/img/animes/sword-art-online-alternative-gun-gale-online/",
      "secao": "legendados",
      "pagina": 165,
      "total_episodios": 1,
      "link_video": "https://animefire.plus/video/sword-art-online-alternative-gun-gale-online"
    },
    {
      "id": 3692,
      "nome": "Sword Art Online Alternative: Gun Gale Online II",
      "link": "https://animefire.plus/animes/sword-art-online-alternative-gun-gale-online-ii-todos-os-episodios",
      "texto_original": "Sword Art Online Alternative: Gun Gale Online II",
      "rating": 7.14,
      "classificacao_etaria": "A14",
      "imagem_original": "https://animefire.plus/img/animes/sword-art-online-alternative-gun-gale-online-ii.webp",
      "imagem_pasta": "https://animefire.plus/img/animes/sword-art-online-alternative-gun-gale-online-ii/",
      "secao": "legendados",
      "pagina": 10,
      "total_episodios": 12,
      "link_video": "https://animefire.plus/video/sword-art-online-alternative-gun-gale-online-ii"
    },
    {
      "id": 3695,
      "nome": "Sword Art Online: Alicization - War of Underworld",
      "link": "https://animefire.plus/animes/sword-art-online-alicization---war-of-underworld-todos-os-episodios",
      "texto_original": "Sword Art Online: Alicization - War of Underworld",
      "rating": 7.63,
      "classificacao_etaria": "A16",
      "imagem_original": "https://animefire.plus/img/animes/sword-art-online-alicization---war-of-underworld.webp",
      "imagem_pasta": "https://animefire.plus/img/animes/sword-art-online-alicization---war-of-underworld/",
      "secao": "legendados",
      "pagina": 109,
      "total_episodios": 0,
      "link_video": "https://animefire.plus/video/sword-art-online-alicization---war-of-underworld"
    },
    {
      "id": 3697,
      "nome": "Sword Art Online: Alicization (Dublado)",
      "link": "https://animefire.plus/animes/sword-art-online-alicization-dublado-todos-os-episodios",
      "texto_original": "Sword Art Online: Alicization (Dublado)",
      "rating": 7.56,
      "classificacao_etaria": "A16",
      "imagem_original": "https://animefire.plus/img/animes/sword-art-online-alicization.webp",
      "imagem_pasta": "https://animefire.plus/img/animes/sword-art-online-alicization/",
      "secao": "dublados,legendados",
      "pagina": 12,
      "total_episodios": 24,
      "link_video": "https://animefire.plus/video/sword-art-online-alicization-dublado"
    },
    {
      "id": 3703,
      "nome": "Synduality: Noir Part 2",
      "link": "https://animefire.plus/animes/synduality-noir-part-2-todos-os-episodios",
      "texto_original": "Synduality: Noir Part 2",
      "rating": 7.06,
      "classificacao_etaria": "A14",
      "imagem_original": "https://animefire.plus/img/animes/synduality-noir-part-2.webp",
      "imagem_pasta": "https://animefire.plus/img/animes/synduality-noir-part-2/",
      "secao": "legendados",
      "pagina": 16,
      "total_episodios": 12,
      "link_video": "https://animefire.plus/video/synduality-noir-part-2"
    },
    {
      "id": 3707,
      "nome": "Tactics",
      "link": "https://animefire.plus/animes/tactics-todos-os-episodios",
      "texto_original": "Tactics",
      "rating": 7.28,
      "classificacao_etaria": "A14",
      "imagem_original": "https://animefire.plus/img/animes/tactics.webp",
      "imagem_pasta": "https://animefire.plus/img/animes/tactics/",
      "secao": "legendados",
      "pagina": 142,
      "total_episodios": 25,
      "link_video": "https://animefire.plus/video/tactics"
    },
    {
      "id": 3708,
      "nome": "Tada-kun wa Koi wo Shinai",
      "link": "https://animefire.plus/animes/tada-kun-wa-koi-wo-shinai-todos-os-episodios",
      "texto_original": "Tada-kun wa Koi wo Shinai",
      "rating": 7.6,
      "classificacao_etaria": "A14",
      "imagem_original": "https://animefire.plus/img/animes/tada-kun-wa-koi-wo-shinai.webp",
      "imagem_pasta": "https://animefire.plus/img/animes/tada-kun-wa-koi-wo-shinai/",
      "secao": "legendados",
      "pagina": 160,
      "total_episodios": 14,
      "link_video": "https://animefire.plus/video/tada-kun-wa-koi-wo-shinai"
    },
    {
      "id": 3709,
      "nome": "Tadaima, Okaeri",
      "link": "https://animefire.plus/animes/tadaima-okaeri-todos-os-episodios",
      "texto_original": "Tadaima, Okaeri",
      "rating": 7.74,
      "classificacao_etaria": "A14",
      "imagem_original": "https://animefire.plus/img/animes/tadaima-okaeri.webp",
      "imagem_pasta": "https://animefire.plus/img/animes/tadaima-okaeri/",
      "secao": "legendados",
      "pagina": 14,
      "total_episodios": 12,
      "link_video": "https://animefire.plus/video/tadaima-okaeri"
    },
    {
      "id": 3710,
      "nome": "Taiho Shichau zo",
      "link": "https://animefire.plus/animes/taiho-shichau-zo-todos-os-episodios",
      "texto_original": "Taiho Shichau zo",
      "rating": 7.46,
      "classificacao_etaria": "A14",
      "imagem_original": "https://animefire.plus/img/animes/taiho-shichau-zo.webp",
      "imagem_pasta": "https://animefire.plus/img/animes/taiho-shichau-zo/",
      "secao": "legendados",
      "pagina": 42,
      "total_episodios": 4,
      "link_video": "https://animefire.plus/video/taiho-shichau-zo"
    },
    {
      "id": 3711,
      "nome": "Taiho Shichau zo (TV)",
      "link": "https://animefire.plus/animes/taiho-shichau-zo-tv-todos-os-episodios",
      "texto_original": "Taiho Shichau zo (TV)",
      "rating": 7.54,
      "classificacao_etaria": "A14",
      "imagem_original": "https://animefire.plus/img/animes/taiho-shichau-zo-tv.webp",
      "imagem_pasta": "https://animefire.plus/img/animes/taiho-shichau-zo-tv/",
      "secao": "legendados",
      "pagina": 56,
      "total_episodios": 47,
      "link_video": "https://animefire.plus/video/taiho-shichau-zo-tv"
    },
    {
      "id": 3712,
      "nome": "Taiho Shichau zo: Second Season",
      "link": "https://animefire.plus/animes/taiho-shichau-zo-second-season-todos-os-episodios",
      "texto_original": "Taiho Shichau zo: Second Season",
      "rating": 7.41,
      "classificacao_etaria": "A14",
      "imagem_original": "https://animefire.plus/img/animes/taiho-shichau-zo-second-season.webp",
      "imagem_pasta": "https://animefire.plus/img/animes/taiho-shichau-zo-second-season/",
      "secao": "legendados",
      "pagina": 44,
      "total_episodios": 26,
      "link_video": "https://animefire.plus/video/taiho-shichau-zo-second-season"
    },
    {
      "id": 3713,
      "nome": "Taimadou Gakuen 35 Shiken Shoutai",
      "link": "https://animefire.plus/animes/taimadou-gakuen-35-shiken-shoutai-todos-os-episodios",
      "texto_original": "Taimadou Gakuen 35 Shiken Shoutai",
      "rating": 7.03,
      "classificacao_etaria": "A16",
      "imagem_original": "https://animefire.plus/img/animes/taimadou-gakuen-35-shiken-shoutai.webp",
      "imagem_pasta": "https://animefire.plus/img/animes/taimadou-gakuen-35-shiken-shoutai/",
      "secao": "legendados",
      "pagina": 144,
      "total_episodios": 12,
      "link_video": "https://animefire.plus/video/taimadou-gakuen-35-shiken-shoutai"
    }
  ],
  "pagination": {
    "current_page": 80,
    "per_page": 20,
    "total_items": 1905,
    "total_pages": 96,
    "has_next": true,
    "has_prev": true
  }
}
