{
  "message": "Animes com rating entre 7 e 8",
  "rating_range": {
    "min": 7,
    "max": 8
  },
  "data": [
    {
      "id": 4321,
      "nome": "Yuusha ni Narenakatta Ore wa Shibushibu Shuushoku wo Ketsui Shimashita.",
      "link": "https://animefire.plus/animes/yuusha-ni-narenakatta-ore-wa-shibushibu-shuushoku-wo-ketsui-shimashita-todos-os-episodios",
      "texto_original": "Yuusha ni Narenakatta Ore wa Shibushibu Shuushoku wo Ketsui Shimashita.",
      "rating": 7.01,
      "classificacao_etaria": "A18",
      "imagem_original": "https://animefire.plus/img/animes/yuusha-ni-narenakatta-ore-wa-shibushibu-shuushoku-wo-ketsui-shimashita.webp",
      "imagem_pasta": "https://animefire.plus/img/animes/yuusha-ni-narenakatta-ore-wa-shibushibu-shuushoku-wo-ketsui-shimashita/",
      "secao": "legendados",
      "pagina": 141,
      "total_episodios": 4,
      "link_video": "https://animefire.plus/video/yuusha-ni-narenakatta-ore-wa-shibushibu-shuushoku-wo-ketsui-shimashita"
    },
    {
      "id": 4324,
      "nome": "Yuusha, Yamemasu",
      "link": "https://animefire.plus/animes/yuusha-yamemasu-todos-os-episodios",
      "texto_original": "Yuusha, Yamemasu",
      "rating": 7,
      "classificacao_etaria": "A14",
      "imagem_original": "https://animefire.plus/img/animes/yuusha-yamemasu.webp",
      "imagem_pasta": "https://animefire.plus/img/animes/yuusha-yamemasu/",
      "secao": "legendados",
      "pagina": 34,
      "total_episodios": 12,
      "link_video": "https://animefire.plus/video/yuusha-yamemasu"
    },
    {
      "id": 4326,
      "nome": "Yuyushiki",
      "link": "https://animefire.plus/animes/yuyushiki-todos-os-episodios",
      "texto_original": "Yuyushiki",
      "rating": 7.43,
      "classificacao_etaria": "A14",
      "imagem_original": "https://animefire.plus/img/animes/yuyushiki.webp",
      "imagem_pasta": "https://animefire.plus/img/animes/yuyushiki/",
      "secao": "legendados",
      "pagina": 178,
      "total_episodios": 3,
      "link_video": "https://animefire.plus/video/yuyushiki"
    },
    {
      "id": 4327,
      "nome": "Yuyushiki: Komarasetari, Komarasaretari",
      "link": "https://animefire.plus/animes/yuyushiki-komarasetari-komarasaretari-todos-os-episodios",
      "texto_original": "Yuyushiki: Komarasetari, Komarasaretari",
      "rating": 7.36,
      "classificacao_etaria": "A14",
      "imagem_original": "https://animefire.plus/img/animes/yuyushiki-komarasetari-komarasaretari.webp",
      "imagem_pasta": "https://animefire.plus/img/animes/yuyushiki-komarasetari-komarasaretari/",
      "secao": "legendados",
      "pagina": 89,
      "total_episodios": 1,
      "link_video": "https://animefire.plus/video/yuyushiki-komarasetari-komarasaretari"
    },
    {
      "id": 4329,
      "nome": "Yuzuki-san Chi no Yonkyoudai.",
      "link": "https://animefire.plus/animes/yuzuki-san-chi-no-yonkyoudai-todos-os-episodios",
      "texto_original": "Yuzuki-san Chi no Yonkyoudai.",
      "rating": 7.87,
      "classificacao_etaria": "A14",
      "imagem_original": "https://animefire.plus/img/animes/yuzuki-san-chi-no-yonkyoudai.webp",
      "imagem_pasta": "https://animefire.plus/img/animes/yuzuki-san-chi-no-yonkyoudai/",
      "secao": "legendados",
      "pagina": 20,
      "total_episodios": 12,
      "link_video": "https://animefire.plus/video/yuzuki-san-chi-no-yonkyoudai"
    },
    {
      "id": 4331,
      "nome": "Zan Sayonara Zetsubou Sensei",
      "link": "https://animefire.plus/animes/zan-sayonara-zetsubou-sensei-todos-os-episodios",
      "texto_original": "Zan Sayonara Zetsubou Sensei",
      "rating": 7.95,
      "classificacao_etaria": "A16",
      "imagem_original": "https://animefire.plus/img/animes/zan-sayonara-zetsubou-sensei.webp",
      "imagem_pasta": "https://animefire.plus/img/animes/zan-sayonara-zetsubou-sensei/",
      "secao": "legendados",
      "pagina": 163,
      "total_episodios": 1,
      "link_video": "https://animefire.plus/video/zan-sayonara-zetsubou-sensei"
    },
    {
      "id": 4332,
      "nome": "Zan Sayonara Zetsubou Sensei Bangaichi",
      "link": "https://animefire.plus/animes/zan-sayonara-zetsubou-sensei-bangaichi-todos-os-episodios",
      "texto_original": "Zan Sayonara Zetsubou Sensei Bangaichi",
      "rating": 7.83,
      "classificacao_etaria": "A16",
      "imagem_original": "https://animefire.plus/img/animes/zan-sayonara-zetsubou-sensei-bangaichi.webp",
      "imagem_pasta": "https://animefire.plus/img/animes/zan-sayonara-zetsubou-sensei-bangaichi/",
      "secao": "legendados",
      "pagina": 85,
      "total_episodios": 2,
      "link_video": "https://animefire.plus/video/zan-sayonara-zetsubou-sensei-bangaichi"
    },
    {
      "id": 4338,
      "nome": "Ze Tian Ji 2nd Season",
      "link": "https://animefire.plus/animes/ze-tian-ji-2nd-season-todos-os-episodios",
      "texto_original": "Ze Tian Ji 2nd Season",
      "rating": 7.09,
      "classificacao_etaria": "A14",
      "imagem_original": "https://animefire.plus/img/animes/ze-tian-ji-2nd-season.webp",
      "imagem_pasta": "https://animefire.plus/img/animes/ze-tian-ji-2nd-season/",
      "secao": "legendados",
      "pagina": 158,
      "total_episodios": 12,
      "link_video": "https://animefire.plus/video/ze-tian-ji-2nd-season"
    },
    {
      "id": 4340,
      "nome": "Ze Tian Ji 4th Season",
      "link": "https://animefire.plus/animes/ze-tian-ji-4th-season-todos-os-episodios",
      "texto_original": "Ze Tian Ji 4th Season",
      "rating": 7.11,
      "classificacao_etaria": "A14",
      "imagem_original": "https://animefire.plus/img/animes/ze-tian-ji-4th-season.webp",
      "imagem_pasta": "https://animefire.plus/img/animes/ze-tian-ji-4th-season/",
      "secao": "legendados",
      "pagina": 135,
      "total_episodios": 12,
      "link_video": "https://animefire.plus/video/ze-tian-ji-4th-season"
    },
    {
      "id": 4341,
      "nome": "Zegapain",
      "link": "https://animefire.plus/animes/zegapain-todos-os-episodios",
      "texto_original": "Zegapain",
      "rating": 7.39,
      "classificacao_etaria": "A14",
      "imagem_original": "https://animefire.plus/img/animes/zegapain.webp",
      "imagem_pasta": "https://animefire.plus/img/animes/zegapain/",
      "secao": "legendados",
      "pagina": 97,
      "total_episodios": 26,
      "link_video": "https://animefire.plus/video/zegapain"
    },
    {
      "id": 4343,
      "nome": "Zenshuu. (Dublado)",
      "link": "https://animefire.plus/animes/zenshuu-dublado-todos-os-episodios",
      "texto_original": "Zenshuu. (Dublado)",
      "rating": 7.59,
      "classificacao_etaria": "A14",
      "imagem_original": "https://animefire.plus/img/animes/zenshuu.webp",
      "imagem_pasta": "https://animefire.plus/img/animes/zenshuu/",
      "secao": "dublados,legendados,lancamentos",
      "pagina": 2,
      "total_episodios": 12,
      "link_video": "https://animefire.plus/video/zenshuu-dublado"
    },
    {
      "id": 4344,
      "nome": "Zero kara Hajimeru Mahou no Sho",
      "link": "https://animefire.plus/animes/zero-kara-hajimeru-mahou-no-sho-todos-os-episodios",
      "texto_original": "Zero kara Hajimeru Mahou no Sho",
      "rating": 7.19,
      "classificacao_etaria": "A14",
      "imagem_original": "https://animefire.plus/img/animes/zero-kara-hajimeru-mahou-no-sho.webp",
      "imagem_pasta": "https://animefire.plus/img/animes/zero-kara-hajimeru-mahou-no-sho/",
      "secao": "legendados",
      "pagina": 116,
      "total_episodios": 12,
      "link_video": "https://animefire.plus/video/zero-kara-hajimeru-mahou-no-sho"
    },
    {
      "id": 4345,
      "nome": "Zero no Tsukaima",
      "link": "https://animefire.plus/animes/zero-no-tsukaima-todos-os-episodios",
      "texto_original": "Zero no Tsukaima",
      "rating": 7.48,
      "classificacao_etaria": "A14",
      "imagem_original": "https://animefire.plus/img/animes/zero-no-tsukaima.webp",
      "imagem_pasta": "https://animefire.plus/img/animes/zero-no-tsukaima/",
      "secao": "legendados",
      "pagina": 169,
      "total_episodios": 13,
      "link_video": "https://animefire.plus/video/zero-no-tsukaima"
    },
    {
      "id": 4346,
      "nome": "Zero no Tsukaima F",
      "link": "https://animefire.plus/animes/zero-no-tsukaima-f-todos-os-episodios",
      "texto_original": "Zero no Tsukaima F",
      "rating": 7.67,
      "classificacao_etaria": "A14",
      "imagem_original": "https://animefire.plus/img/animes/zero-no-tsukaima-f.webp",
      "imagem_pasta": "https://animefire.plus/img/animes/zero-no-tsukaima-f/",
      "secao": "legendados",
      "pagina": 156,
      "total_episodios": 6,
      "link_video": "https://animefire.plus/video/zero-no-tsukaima-f"
    },
    {
      "id": 4347,
      "nome": "Zero no Tsukaima: Futatsuki no Kishi",
      "link": "https://animefire.plus/animes/zero-no-tsukaima-futatsuki-no-kishi-todos-os-episodios",
      "texto_original": "Zero no Tsukaima: Futatsuki no Kishi",
      "rating": 7.62,
      "classificacao_etaria": "A14",
      "imagem_original": "https://animefire.plus/img/animes/zero-no-tsukaima-futatsuki-no-kishi.webp",
      "imagem_pasta": "https://animefire.plus/img/animes/zero-no-tsukaima-futatsuki-no-kishi/",
      "secao": "legendados",
      "pagina": 169,
      "total_episodios": 12,
      "link_video": "https://animefire.plus/video/zero-no-tsukaima-futatsuki-no-kishi"
    },
    {
      "id": 4348,
      "nome": "Zero no Tsukaima: Princesses no Rondo",
      "link": "https://animefire.plus/animes/zero-no-tsukaima-princesses-no-rondo-todos-os-episodios",
      "texto_original": "Zero no Tsukaima: Princesses no Rondo",
      "rating": 7.52,
      "classificacao_etaria": "A14",
      "imagem_original": "https://animefire.plus/img/animes/zero-no-tsukaima-princesses-no-rondo.webp",
      "imagem_pasta": "https://animefire.plus/img/animes/zero-no-tsukaima-princesses-no-rondo/",
      "secao": "legendados",
      "pagina": 157,
      "total_episodios": 12,
      "link_video": "https://animefire.plus/video/zero-no-tsukaima-princesses-no-rondo"
    },
    {
      "id": 4356,
      "nome": "Zhen Hun Jie",
      "link": "https://animefire.plus/animes/zhen-hun-jie-todos-os-episodios",
      "texto_original": "Zhen Hun Jie",
      "rating": 7.82,
      "classificacao_etaria": "A14",
      "imagem_original": "https://animefire.plus/img/animes/zhen-hun-jie.webp",
      "imagem_pasta": "https://animefire.plus/img/animes/zhen-hun-jie/",
      "secao": "legendados",
      "pagina": 89,
      "total_episodios": 24,
      "link_video": "https://animefire.plus/video/zhen-hun-jie"
    },
    {
      "id": 4360,
      "nome": "Zoku Sayonara Zetsubou Sensei",
      "link": "https://animefire.plus/animes/zoku-sayonara-zetsubou-sensei-todos-os-episodios",
      "texto_original": "Zoku Sayonara Zetsubou Sensei",
      "rating": 7.97,
      "classificacao_etaria": "A16",
      "imagem_original": "https://animefire.plus/img/animes/zoku-sayonara-zetsubou-sensei.webp",
      "imagem_pasta": "https://animefire.plus/img/animes/zoku-sayonara-zetsubou-sensei/",
      "secao": "legendados",
      "pagina": 162,
      "total_episodios": 13,
      "link_video": "https://animefire.plus/video/zoku-sayonara-zetsubou-sensei"
    },
    {
      "id": 4361,
      "nome": "Zoku Touken Ranbu: Hanamaru",
      "link": "https://animefire.plus/animes/zoku-touken-ranbu-hanamaru-todos-os-episodios",
      "texto_original": "Zoku Touken Ranbu: Hanamaru",
      "rating": 7.4,
      "classificacao_etaria": "A14",
      "imagem_original": "https://animefire.plus/img/animes/zoku-touken-ranbu-hanamaru.webp",
      "imagem_pasta": "https://animefire.plus/img/animes/zoku-touken-ranbu-hanamaru/",
      "secao": "legendados",
      "pagina": 102,
      "total_episodios": 12,
      "link_video": "https://animefire.plus/video/zoku-touken-ranbu-hanamaru"
    },
    {
      "id": 4362,
      "nome": "Zom 100: Zombie ni Naru made ni Shitai 100 no Koto (Dublado)",
      "link": "https://animefire.plus/animes/zom-100-zombie-ni-naru-made-ni-shitai-100-no-koto-dublado-todos-os-episodios",
      "texto_original": "Zom 100: Zombie ni Naru made ni Shitai 100 no Koto (Dublado)",
      "rating": 7.73,
      "classificacao_etaria": "A16",
      "imagem_original": "https://animefire.plus/img/animes/zom-100-zombie-ni-naru-made-ni-shitai-100-no-koto.webp",
      "imagem_pasta": "https://animefire.plus/img/animes/zom-100-zombie-ni-naru-made-ni-shitai-100-no-koto/",
      "secao": "dublados,legendados",
      "pagina": 6,
      "total_episodios": 12,
      "link_video": "https://animefire.plus/video/zom-100-zombie-ni-naru-made-ni-shitai-100-no-koto-dublado"
    }
  ],
  "pagination": {
    "current_page": 95,
    "per_page": 20,
    "total_items": 1905,
    "total_pages": 96,
    "has_next": true,
    "has_prev": true
  }
}
