{
  "message": "Animes com rating entre 7 e 8",
  "rating_range": {
    "min": 7,
    "max": 8
  },
  "data": [
    {
      "id": 4094,
      "nome": "Wagaya no Oinari-sama.",
      "link": "https://animefire.plus/animes/wagaya-no-oinari-sama-todos-os-episodios",
      "texto_original": "Wagaya no Oinari-sama.",
      "rating": 7.26,
      "classificacao_etaria": "A14",
      "imagem_original": "https://animefire.plus/img/animes/wagaya-no-oinari-sama.webp",
      "imagem_pasta": "https://animefire.plus/img/animes/wagaya-no-oinari-sama/",
      "secao": "legendados",
      "pagina": 145,
      "total_episodios": 19,
      "link_video": "https://animefire.plus/video/wagaya-no-oinari-sama"
    },
    {
      "id": 4097,
      "nome": "Wake Up, Girls!",
      "link": "https://animefire.plus/animes/wake-up-girls-todos-os-episodios",
      "texto_original": "Wake Up, Girls!",
      "rating": 7.01,
      "classificacao_etaria": "A14",
      "imagem_original": "https://animefire.plus/img/animes/wake-up-girls.webp",
      "imagem_pasta": "https://animefire.plus/img/animes/wake-up-girls/",
      "secao": "legendados",
      "pagina": 75,
      "total_episodios": 12,
      "link_video": "https://animefire.plus/video/wake-up-girls"
    },
    {
      "id": 4100,
      "nome": "Wan Jie Xian Zong",
      "link": "https://animefire.plus/animes/wan-jie-xian-zong-todos-os-episodios",
      "texto_original": "Wan Jie Xian Zong",
      "rating": 7.39,
      "classificacao_etaria": "A14",
      "imagem_original": "https://animefire.plus/img/animes/wan-jie-xian-zong.webp",
      "imagem_pasta": "https://animefire.plus/img/animes/wan-jie-xian-zong/",
      "secao": "legendados",
      "pagina": 80,
      "total_episodios": 90,
      "link_video": "https://animefire.plus/video/wan-jie-xian-zong"
    },
    {
      "id": 4101,
      "nome": "Wan Sheng Jie",
      "link": "https://animefire.plus/animes/wan-sheng-jie-todos-os-episodios",
      "texto_original": "Wan Sheng Jie",
      "rating": 7.95,
      "classificacao_etaria": "A14",
      "imagem_original": "https://animefire.plus/img/animes/wan-sheng-jie.webp",
      "imagem_pasta": "https://animefire.plus/img/animes/wan-sheng-jie/",
      "secao": "legendados",
      "pagina": 27,
      "total_episodios": 1,
      "link_video": "https://animefire.plus/video/wan-sheng-jie"
    },
    {
      "id": 4102,
      "nome": "Wan Sheng Jie 2",
      "link": "https://animefire.plus/animes/wan-sheng-jie-2-todos-os-episodios",
      "texto_original": "Wan Sheng Jie 2",
      "rating": 7.95,
      "classificacao_etaria": "A14",
      "imagem_original": "https://animefire.plus/img/animes/wan-sheng-jie-2.webp",
      "imagem_pasta": "https://animefire.plus/img/animes/wan-sheng-jie-2/",
      "secao": "legendados",
      "pagina": 27,
      "total_episodios": 1,
      "link_video": "https://animefire.plus/video/wan-sheng-jie-2"
    },
    {
      "id": 4104,
      "nome": "Wangan Midnight",
      "link": "https://animefire.plus/animes/wangan-midnight-todos-os-episodios",
      "texto_original": "Wangan Midnight",
      "rating": 7.5,
      "classificacao_etaria": "A14",
      "imagem_original": "https://animefire.plus/img/animes/wangan-midnight.webp",
      "imagem_pasta": "https://animefire.plus/img/animes/wangan-midnight/",
      "secao": "legendados",
      "pagina": 174,
      "total_episodios": 26,
      "link_video": "https://animefire.plus/video/wangan-midnight"
    },
    {
      "id": 4107,
      "nome": "Wangu Xian Qiong",
      "link": "https://animefire.plus/animes/wangu-xian-qiong-todos-os-episodios",
      "texto_original": "Wangu Xian Qiong",
      "rating": 7.04,
      "classificacao_etaria": "A14",
      "imagem_original": "https://animefire.plus/img/animes/wangu-xian-qiong.webp",
      "imagem_pasta": "https://animefire.plus/img/animes/wangu-xian-qiong/",
      "secao": "legendados",
      "pagina": 83,
      "total_episodios": 12,
      "link_video": "https://animefire.plus/video/wangu-xian-qiong"
    },
    {
      "id": 4113,
      "nome": "Watashi ga Koibito ni Nareru Wake Nai jan, Muri Muri! (※Muri ja Nakatta!?)",
      "link": "https://animefire.plus/animes/watashi-ga-koibito-ni-nareru-wake-nai-jan-muri-muri-muri-ja-nakatta-todos-os-episodios",
      "texto_original": "Watashi ga Koibito ni Nareru Wake Nai jan, Muri Muri! (※Muri ja Nakatta!?)",
      "rating": 7.59,
      "classificacao_etaria": "A14",
      "imagem_original": "https://animefire.plus/img/animes/watashi-ga-koibito-ni-nareru-wake-nai-jan-muri-muri-muri-ja-nakatta.webp",
      "imagem_pasta": "https://animefire.plus/img/animes/watashi-ga-koibito-ni-nareru-wake-nai-jan-muri-muri-muri-ja-nakatta/",
      "secao": "legendados,lancamentos",
      "pagina": 3,
      "total_episodios": 0,
      "link_video": "https://animefire.plus/video/watashi-ga-koibito-ni-nareru-wake-nai-jan-muri-muri-muri-ja-nakatta"
    },
    {
      "id": 4114,
      "nome": "Watashi ga Motenai no wa Dou Kangaetemo Omaera ga Warui!",
      "link": "https://animefire.plus/animes/watashi-ga-motenai-no-wa-dou-kangaetemo-omaera-ga-warui-todos-os-episodios",
      "texto_original": "Watashi ga Motenai no wa Dou Kangaetemo Omaera ga Warui!",
      "rating": 7.2,
      "classificacao_etaria": "A14",
      "imagem_original": "https://animefire.plus/img/animes/watashi-ga-motenai-no-wa-dou-kangaetemo-omaera-ga-warui.webp",
      "imagem_pasta": "https://animefire.plus/img/animes/watashi-ga-motenai-no-wa-dou-kangaetemo-omaera-ga-warui/",
      "secao": "legendados",
      "pagina": 117,
      "total_episodios": 3,
      "link_video": "https://animefire.plus/video/watashi-ga-motenai-no-wa-dou-kangaetemo-omaera-ga-warui"
    },
    {
      "id": 4115,
      "nome": "Watashi ga Motenai no wa Dou Kangaetemo Omaera ga Warui!: Motenaishi, Nazomeite Miru",
      "link": "https://animefire.plus/animes/watashi-ga-motenai-no-wa-dou-kangaetemo-omaera-ga-warui-motenaishi-nazomeite-miru-todos-os-episodios",
      "texto_original": "Watashi ga Motenai no wa Dou Kangaetemo Omaera ga Warui!: Motenaishi, Nazomeite Miru",
      "rating": 7.01,
      "classificacao_etaria": "A14",
      "imagem_original": "https://animefire.plus/img/animes/watashi-ga-motenai-no-wa-dou-kangaetemo-omaera-ga-warui-motenaishi-nazomeite-miru.webp",
      "imagem_pasta": "https://animefire.plus/img/animes/watashi-ga-motenai-no-wa-dou-kangaetemo-omaera-ga-warui-motenaishi-nazomeite-miru/",
      "secao": "legendados",
      "pagina": 45,
      "total_episodios": 1,
      "link_video": "https://animefire.plus/video/watashi-ga-motenai-no-wa-dou-kangaetemo-omaera-ga-warui-motenaishi-nazomeite-miru"
    },
    {
      "id": 4116,
      "nome": "Watashi ga Motete Dousunda",
      "link": "https://animefire.plus/animes/watashi-ga-motete-dousunda-todos-os-episodios",
      "texto_original": "Watashi ga Motete Dousunda",
      "rating": 7.34,
      "classificacao_etaria": "A14",
      "imagem_original": "https://animefire.plus/img/animes/watashi-ga-motete-dousunda.webp",
      "imagem_pasta": "https://animefire.plus/img/animes/watashi-ga-motete-dousunda/",
      "secao": "legendados",
      "pagina": 155,
      "total_episodios": 7,
      "link_video": "https://animefire.plus/video/watashi-ga-motete-dousunda"
    },
    {
      "id": 4117,
      "nome": "Watashi ni Tenshi ga Maiorita!",
      "link": "https://animefire.plus/animes/watashi-ni-tenshi-ga-maiorita-todos-os-episodios",
      "texto_original": "Watashi ni Tenshi ga Maiorita!",
      "rating": 7.36,
      "classificacao_etaria": "A14",
      "imagem_original": "https://animefire.plus/img/animes/watashi-ni-tenshi-ga-maiorita.webp",
      "imagem_pasta": "https://animefire.plus/img/animes/watashi-ni-tenshi-ga-maiorita/",
      "secao": "legendados",
      "pagina": 108,
      "total_episodios": 12,
      "link_video": "https://animefire.plus/video/watashi-ni-tenshi-ga-maiorita"
    },
    {
      "id": 4118,
      "nome": "Watashi ni Tenshi ga Maiorita! Special",
      "link": "https://animefire.plus/animes/watashi-ni-tenshi-ga-maiorita-special-todos-os-episodios",
      "texto_original": "Watashi ni Tenshi ga Maiorita! Special",
      "rating": 7.3,
      "classificacao_etaria": "A14",
      "imagem_original": "https://animefire.plus/img/animes/watashi-ni-tenshi-ga-maiorita-special.webp",
      "imagem_pasta": "https://animefire.plus/img/animes/watashi-ni-tenshi-ga-maiorita-special/",
      "secao": "legendados",
      "pagina": 100,
      "total_episodios": 1,
      "link_video": "https://animefire.plus/video/watashi-ni-tenshi-ga-maiorita-special"
    },
    {
      "id": 4119,
      "nome": "Watashi no Ashinaga Ojisan",
      "link": "https://animefire.plus/animes/watashi-no-ashinaga-ojisan-todos-os-episodios",
      "texto_original": "Watashi no Ashinaga Ojisan",
      "rating": 7.86,
      "classificacao_etaria": null,
      "imagem_original": "https://animefire.plus/img/animes/watashi-no-ashinaga-ojisan.webp",
      "imagem_pasta": "https://animefire.plus/img/animes/watashi-no-ashinaga-ojisan/",
      "secao": "legendados",
      "pagina": 124,
      "total_episodios": 40,
      "link_video": "https://animefire.plus/video/watashi-no-ashinaga-ojisan"
    },
    {
      "id": 4120,
      "nome": "Watashi no Oshi wa Akuyaku Reijou. (Dublado)",
      "link": "https://animefire.plus/animes/watashi-no-oshi-wa-akuyaku-reijou-dublado-todos-os-episodios",
      "texto_original": "Watashi no Oshi wa Akuyaku Reijou. (Dublado)",
      "rating": 7.35,
      "classificacao_etaria": "A14",
      "imagem_original": "https://animefire.plus/img/animes/watashi-no-oshi-wa-akuyaku-reijou.webp",
      "imagem_pasta": "https://animefire.plus/img/animes/watashi-no-oshi-wa-akuyaku-reijou/",
      "secao": "dublados,legendados",
      "pagina": 5,
      "total_episodios": 12,
      "link_video": "https://animefire.plus/video/watashi-no-oshi-wa-akuyaku-reijou-dublado"
    },
    {
      "id": 4121,
      "nome": "Watashi no Shiawase na Kekkon (Dublado)",
      "link": "https://animefire.plus/animes/watashi-no-shiawase-na-kekkon-dublado-todos-os-episodios",
      "texto_original": "Watashi no Shiawase na Kekkon (Dublado)",
      "rating": 7.71,
      "classificacao_etaria": "A14",
      "imagem_original": "https://animefire.plus/img/animes/watashi-no-shiawase-na-kekkon.webp",
      "imagem_pasta": "https://animefire.plus/img/animes/watashi-no-shiawase-na-kekkon/",
      "secao": "dublados,legendados,lancamentos",
      "pagina": 7,
      "total_episodios": 10,
      "link_video": "https://animefire.plus/video/watashi-no-shiawase-na-kekkon-dublado"
    },
    {
      "id": 4122,
      "nome": "Watashi no Shiawase na Kekkon 2nd Season (Dublado)",
      "link": "https://animefire.plus/animes/watashi-no-shiawase-na-kekkon-2nd-season-dublado-todos-os-episodios",
      "texto_original": "Watashi no Shiawase na Kekkon 2nd Season (Dublado)",
      "rating": 7.42,
      "classificacao_etaria": "A14",
      "imagem_original": "https://animefire.plus/img/animes/watashi-no-shiawase-na-kekkon-2nd-season.webp",
      "imagem_pasta": "https://animefire.plus/img/animes/watashi-no-shiawase-na-kekkon-2nd-season/",
      "secao": "dublados,legendados,lancamentos",
      "pagina": 2,
      "total_episodios": 13,
      "link_video": "https://animefire.plus/video/watashi-no-shiawase-na-kekkon-2nd-season-dublado"
    },
    {
      "id": 4123,
      "nome": "Watashi no Shiawase na Kekkon: Watashi no Shiawase na Katachi",
      "link": "https://animefire.plus/animes/watashi-no-shiawase-na-kekkon-watashi-no-shiawase-na-katachi-todos-os-episodios",
      "texto_original": "Watashi no Shiawase na Kekkon: Watashi no Shiawase na Katachi",
      "rating": 7.51,
      "classificacao_etaria": "A14",
      "imagem_original": "https://animefire.plus/img/animes/watashi-no-shiawase-na-kekkon-watashi-no-shiawase-na-katachi.webp",
      "imagem_pasta": "https://animefire.plus/img/animes/watashi-no-shiawase-na-kekkon-watashi-no-shiawase-na-katachi/",
      "secao": "legendados",
      "pagina": 14,
      "total_episodios": 1,
      "link_video": "https://animefire.plus/video/watashi-no-shiawase-na-kekkon-watashi-no-shiawase-na-katachi"
    },
    {
      "id": 4127,
      "nome": "Whistle! (Dublado)",
      "link": "https://animefire.plus/animes/whistle-dublado-todos-os-episodios",
      "texto_original": "Whistle! (Dublado)",
      "rating": 7.42,
      "classificacao_etaria": null,
      "imagem_original": "https://animefire.plus/img/animes/whistle.webp",
      "imagem_pasta": "https://animefire.plus/img/animes/whistle/",
      "secao": "dublados",
      "pagina": 23,
      "total_episodios": 39,
      "link_video": "https://animefire.plus/video/whistle-dublado"
    },
    {
      "id": 4129,
      "nome": "White Album 2",
      "link": "https://animefire.plus/animes/white-album-2-todos-os-episodios",
      "texto_original": "White Album 2",
      "rating": 7.83,
      "classificacao_etaria": "A14",
      "imagem_original": "https://animefire.plus/img/animes/white-album-2.webp",
      "imagem_pasta": "https://animefire.plus/img/animes/white-album-2/",
      "secao": "legendados",
      "pagina": 171,
      "total_episodios": 5,
      "link_video": "https://animefire.plus/video/white-album-2"
    }
  ],
  "pagination": {
    "current_page": 90,
    "per_page": 20,
    "total_items": 1905,
    "total_pages": 96,
    "has_next": true,
    "has_prev": true
  }
}
