{
  "message": "Animes com rating entre 7 e 8",
  "rating_range": {
    "min": 7,
    "max": 8
  },
  "data": [
    {
      "id": 3561,
      "nome": "So Ra No Wo To",
      "link": "https://animefire.plus/animes/so-ra-no-wo-to-todos-os-episodios",
      "texto_original": "So Ra No Wo To",
      "rating": 7.58,
      "classificacao_etaria": "A14",
      "imagem_original": "https://animefire.plus/img/animes/so-ra-no-wo-to.webp",
      "imagem_pasta": "https://animefire.plus/img/animes/so-ra-no-wo-to/",
      "secao": "legendados",
      "pagina": 140,
      "total_episodios": 12,
      "link_video": "https://animefire.plus/video/so-ra-no-wo-to"
    },
    {
      "id": 3565,
      "nome": "Sola",
      "link": "https://animefire.plus/animes/sola-todos-os-episodios",
      "texto_original": "Sola",
      "rating": 7.28,
      "classificacao_etaria": "A14",
      "imagem_original": "https://animefire.plus/img/animes/sola.webp",
      "imagem_pasta": "https://animefire.plus/img/animes/sola/",
      "secao": "legendados",
      "pagina": 174,
      "total_episodios": 13,
      "link_video": "https://animefire.plus/video/sola"
    },
    {
      "id": 3566,
      "nome": "Solty Rei",
      "link": "https://animefire.plus/animes/solty-rei-todos-os-episodios",
      "texto_original": "Solty Rei",
      "rating": 7.32,
      "classificacao_etaria": "A16",
      "imagem_original": "https://animefire.plus/img/animes/solty-rei.webp",
      "imagem_pasta": "https://animefire.plus/img/animes/solty-rei/",
      "secao": "legendados",
      "pagina": 158,
      "total_episodios": 24,
      "link_video": "https://animefire.plus/video/solty-rei"
    },
    {
      "id": 3567,
      "nome": "Somali to Mori no Kamisama",
      "link": "https://animefire.plus/animes/somali-to-mori-no-kamisama-todos-os-episodios",
      "texto_original": "Somali to Mori no Kamisama",
      "rating": 7.82,
      "classificacao_etaria": "A14",
      "imagem_original": "https://animefire.plus/img/animes/somali-to-mori-no-kamisama.webp",
      "imagem_pasta": "https://animefire.plus/img/animes/somali-to-mori-no-kamisama/",
      "secao": "legendados",
      "pagina": 93,
      "total_episodios": 0,
      "link_video": "https://animefire.plus/video/somali-to-mori-no-kamisama"
    },
    {
      "id": 3569,
      "nome": "Sonny Boy (Dublado)",
      "link": "https://animefire.plus/animes/sonny-boy-dublado-todos-os-episodios",
      "texto_original": "Sonny Boy (Dublado)",
      "rating": 7.83,
      "classificacao_etaria": "A14",
      "imagem_original": "https://animefire.plus/img/animes/sonny-boy.webp",
      "imagem_pasta": "https://animefire.plus/img/animes/sonny-boy/",
      "secao": "dublados,legendados",
      "pagina": 16,
      "total_episodios": 12,
      "link_video": "https://animefire.plus/video/sonny-boy-dublado"
    },
    {
      "id": 3573,
      "nome": "Sora no Manimani",
      "link": "https://animefire.plus/animes/sora-no-manimani-todos-os-episodios",
      "texto_original": "Sora no Manimani",
      "rating": 7.13,
      "classificacao_etaria": "A14",
      "imagem_original": "https://animefire.plus/img/animes/sora-no-manimani.webp",
      "imagem_pasta": "https://animefire.plus/img/animes/sora-no-manimani/",
      "secao": "legendados",
      "pagina": 130,
      "total_episodios": 12,
      "link_video": "https://animefire.plus/video/sora-no-manimani"
    },
    {
      "id": 3575,
      "nome": "Sora no Otoshimono",
      "link": "https://animefire.plus/animes/sora-no-otoshimono-todos-os-episodios",
      "texto_original": "Sora no Otoshimono",
      "rating": 7.52,
      "classificacao_etaria": "A14",
      "imagem_original": "https://animefire.plus/img/animes/sora-no-otoshimono.webp",
      "imagem_pasta": "https://animefire.plus/img/animes/sora-no-otoshimono/",
      "secao": "legendados",
      "pagina": 130,
      "total_episodios": 13,
      "link_video": "https://animefire.plus/video/sora-no-otoshimono"
    },
    {
      "id": 3576,
      "nome": "Sora no Otoshimono: Forte",
      "link": "https://animefire.plus/animes/sora-no-otoshimono-forte-todos-os-episodios",
      "texto_original": "Sora no Otoshimono: Forte",
      "rating": 7.69,
      "classificacao_etaria": "A14",
      "imagem_original": "https://animefire.plus/img/animes/sora-no-otoshimono-forte.webp",
      "imagem_pasta": "https://animefire.plus/img/animes/sora-no-otoshimono-forte/",
      "secao": "legendados",
      "pagina": 135,
      "total_episodios": 12,
      "link_video": "https://animefire.plus/video/sora-no-otoshimono-forte"
    },
    {
      "id": 3580,
      "nome": "Sorairo Utility (TV)",
      "link": "https://animefire.plus/animes/sorairo-utility-tv-todos-os-episodios",
      "texto_original": "Sorairo Utility (TV)",
      "rating": 7.13,
      "classificacao_etaria": "A14",
      "imagem_original": "https://animefire.plus/img/animes/sorairo-utility-tv.webp",
      "imagem_pasta": "https://animefire.plus/img/animes/sorairo-utility-tv/",
      "secao": "legendados",
      "pagina": 7,
      "total_episodios": 12,
      "link_video": "https://animefire.plus/video/sorairo-utility-tv"
    },
    {
      "id": 3582,
      "nome": "Sore Ga Seiyuu!",
      "link": "https://animefire.plus/animes/sore-ga-seiyuu-todos-os-episodios",
      "texto_original": "Sore Ga Seiyuu!",
      "rating": 7.09,
      "classificacao_etaria": "A14",
      "imagem_original": "https://animefire.plus/img/animes/sore-ga-seiyuu.webp",
      "imagem_pasta": "https://animefire.plus/img/animes/sore-ga-seiyuu/",
      "secao": "legendados",
      "pagina": 96,
      "total_episodios": 13,
      "link_video": "https://animefire.plus/video/sore-ga-seiyuu"
    },
    {
      "id": 3583,
      "nome": "Soredemo Ayumu wa Yosetekuru",
      "link": "https://animefire.plus/animes/soredemo-ayumu-wa-yosetekuru-todos-os-episodios",
      "texto_original": "Soredemo Ayumu wa Yosetekuru",
      "rating": 7.01,
      "classificacao_etaria": "A14",
      "imagem_original": "https://animefire.plus/img/animes/soredemo-ayumu-wa-yosetekuru.webp",
      "imagem_pasta": "https://animefire.plus/img/animes/soredemo-ayumu-wa-yosetekuru/",
      "secao": "legendados",
      "pagina": 32,
      "total_episodios": 12,
      "link_video": "https://animefire.plus/video/soredemo-ayumu-wa-yosetekuru"
    },
    {
      "id": 3584,
      "nome": "Soredemo Machi wa Mawatteiru",
      "link": "https://animefire.plus/animes/soredemo-machi-wa-mawatteiru-todos-os-episodios",
      "texto_original": "Soredemo Machi wa Mawatteiru",
      "rating": 7.46,
      "classificacao_etaria": "A14",
      "imagem_original": "https://animefire.plus/img/animes/soredemo-machi-wa-mawatteiru.webp",
      "imagem_pasta": "https://animefire.plus/img/animes/soredemo-machi-wa-mawatteiru/",
      "secao": "legendados",
      "pagina": 159,
      "total_episodios": 12,
      "link_video": "https://animefire.plus/video/soredemo-machi-wa-mawatteiru"
    },
    {
      "id": 3585,
      "nome": "Soredemo Sekai Wa Utsukushii",
      "link": "https://animefire.plus/animes/soredemo-sekai-wa-utsukushii-todos-os-episodios",
      "texto_original": "Soredemo Sekai Wa Utsukushii",
      "rating": 7.78,
      "classificacao_etaria": "A14",
      "imagem_original": "https://animefire.plus/img/animes/soredemo-sekai-wa-utsukushii.webp",
      "imagem_pasta": "https://animefire.plus/img/animes/soredemo-sekai-wa-utsukushii/",
      "secao": "legendados",
      "pagina": 108,
      "total_episodios": 12,
      "link_video": "https://animefire.plus/video/soredemo-sekai-wa-utsukushii"
    },
    {
      "id": 3588,
      "nome": "Soukou no Strain",
      "link": "https://animefire.plus/animes/soukou-no-strain-todos-os-episodios",
      "texto_original": "Soukou no Strain",
      "rating": 7.1,
      "classificacao_etaria": "A18",
      "imagem_original": "https://animefire.plus/img/animes/soukou-no-strain.webp",
      "imagem_pasta": "https://animefire.plus/img/animes/soukou-no-strain/",
      "secao": "legendados",
      "pagina": 123,
      "total_episodios": 13,
      "link_video": "https://animefire.plus/video/soukou-no-strain"
    },
    {
      "id": 3589,
      "nome": "Soukyuu no Fafner: Dead Aggressor",
      "link": "https://animefire.plus/animes/soukyuu-no-fafner-dead-aggressor-todos-os-episodios",
      "texto_original": "Soukyuu no Fafner: Dead Aggressor",
      "rating": 7.35,
      "classificacao_etaria": "A14",
      "imagem_original": "https://animefire.plus/img/animes/soukyuu-no-fafner-dead-aggressor.webp",
      "imagem_pasta": "https://animefire.plus/img/animes/soukyuu-no-fafner-dead-aggressor/",
      "secao": "legendados",
      "pagina": 117,
      "total_episodios": 25,
      "link_video": "https://animefire.plus/video/soukyuu-no-fafner-dead-aggressor"
    },
    {
      "id": 3590,
      "nome": "Soukyuu no Fafner: Right of Left - Single Program",
      "link": "https://animefire.plus/animes/soukyuu-no-fafner-right-of-left---single-program-todos-os-episodios",
      "texto_original": "Soukyuu no Fafner: Right of Left - Single Program",
      "rating": 7.42,
      "classificacao_etaria": "A14",
      "imagem_original": "https://animefire.plus/img/animes/soukyuu-no-fafner-right-of-left---single-program.webp",
      "imagem_pasta": "https://animefire.plus/img/animes/soukyuu-no-fafner-right-of-left---single-program/",
      "secao": "legendados",
      "pagina": 77,
      "total_episodios": 1,
      "link_video": "https://animefire.plus/video/soukyuu-no-fafner-right-of-left---single-program"
    },
    {
      "id": 3592,
      "nome": "Soul Eater (Dublado)",
      "link": "https://animefire.plus/animes/soul-eater-dublado-todos-os-episodios",
      "texto_original": "Soul Eater (Dublado)",
      "rating": 7.85,
      "classificacao_etaria": "A14",
      "imagem_original": "https://animefire.plus/img/animes/soul-eater.webp",
      "imagem_pasta": "https://animefire.plus/img/animes/soul-eater/",
      "secao": "dublados,legendados",
      "pagina": 13,
      "total_episodios": 51,
      "link_video": "https://animefire.plus/video/soul-eater-dublado"
    },
    {
      "id": 3597,
      "nome": "Sousei no Aquarion",
      "link": "https://animefire.plus/animes/sousei-no-aquarion-todos-os-episodios",
      "texto_original": "Sousei no Aquarion",
      "rating": 7.16,
      "classificacao_etaria": "A14",
      "imagem_original": "https://animefire.plus/img/animes/sousei-no-aquarion.webp",
      "imagem_pasta": "https://animefire.plus/img/animes/sousei-no-aquarion/",
      "secao": "legendados",
      "pagina": 170,
      "total_episodios": 26,
      "link_video": "https://animefire.plus/video/sousei-no-aquarion"
    },
    {
      "id": 3599,
      "nome": "Sousei no Onmyouji",
      "link": "https://animefire.plus/animes/sousei-no-onmyouji-todos-os-episodios",
      "texto_original": "Sousei no Onmyouji",
      "rating": 7.41,
      "classificacao_etaria": "A14",
      "imagem_original": "https://animefire.plus/img/animes/sousei-no-onmyouji.webp",
      "imagem_pasta": "https://animefire.plus/img/animes/sousei-no-onmyouji/",
      "secao": "legendados",
      "pagina": 95,
      "total_episodios": 50,
      "link_video": "https://animefire.plus/video/sousei-no-onmyouji"
    },
    {
      "id": 3603,
      "nome": "Souten Kouro",
      "link": "https://animefire.plus/animes/souten-kouro-todos-os-episodios",
      "texto_original": "Souten Kouro",
      "rating": 7.31,
      "classificacao_etaria": "A18",
      "imagem_original": "https://animefire.plus/img/animes/souten-kouro.webp",
      "imagem_pasta": "https://animefire.plus/img/animes/souten-kouro/",
      "secao": "legendados",
      "pagina": 86,
      "total_episodios": 26,
      "link_video": "https://animefire.plus/video/souten-kouro"
    }
  ],
  "pagination": {
    "current_page": 77,
    "per_page": 20,
    "total_items": 1905,
    "total_pages": 96,
    "has_next": true,
    "has_prev": true
  }
}
