{
  "message": "Animes com rating entre 7 e 8",
  "rating_range": {
    "min": 7,
    "max": 8
  },
  "data": [
    {
      "id": 2364,
      "nome": "Mai-HiME",
      "link": "https://animefire.plus/animes/mai-hime-todos-os-episodios",
      "texto_original": "Mai-HiME",
      "rating": 7.52,
      "classificacao_etaria": "A14",
      "imagem_original": "https://animefire.plus/img/animes/mai-hime.webp",
      "imagem_pasta": "https://animefire.plus/img/animes/mai-hime/",
      "secao": "legendados",
      "pagina": 172,
      "total_episodios": 26,
      "link_video": "https://animefire.plus/video/mai-hime"
    },
    {
      "id": 2365,
      "nome": "Mai-Otome",
      "link": "https://animefire.plus/animes/mai-otome-todos-os-episodios",
      "texto_original": "Mai-Otome",
      "rating": 7.35,
      "classificacao_etaria": "A14",
      "imagem_original": "https://animefire.plus/img/animes/mai-otome.webp",
      "imagem_pasta": "https://animefire.plus/img/animes/mai-otome/",
      "secao": "legendados",
      "pagina": 120,
      "total_episodios": 26,
      "link_video": "https://animefire.plus/video/mai-otome"
    },
    {
      "id": 2366,
      "nome": "Mai-Otome 0: S.ifr",
      "link": "https://animefire.plus/animes/mai-otome-0-s-ifr-todos-os-episodios",
      "texto_original": "Mai-Otome 0: S.ifr",
      "rating": 7.41,
      "classificacao_etaria": "A18",
      "imagem_original": "https://animefire.plus/img/animes/mai-otome-0-s-ifr.webp",
      "imagem_pasta": "https://animefire.plus/img/animes/mai-otome-0-s-ifr/",
      "secao": "legendados",
      "pagina": 68,
      "total_episodios": 3,
      "link_video": "https://animefire.plus/video/mai-otome-0-s-ifr"
    },
    {
      "id": 2367,
      "nome": "Mai-Otome Zwei",
      "link": "https://animefire.plus/animes/mai-otome-zwei-todos-os-episodios",
      "texto_original": "Mai-Otome Zwei",
      "rating": 7.29,
      "classificacao_etaria": "A18",
      "imagem_original": "https://animefire.plus/img/animes/mai-otome-zwei.webp",
      "imagem_pasta": "https://animefire.plus/img/animes/mai-otome-zwei/",
      "secao": "legendados",
      "pagina": 68,
      "total_episodios": 4,
      "link_video": "https://animefire.plus/video/mai-otome-zwei"
    },
    {
      "id": 2368,
      "nome": "Maiko-san Chi no Makanai-san",
      "link": "https://animefire.plus/animes/maiko-san-chi-no-makanai-san-todos-os-episodios",
      "texto_original": "Maiko-san Chi no Makanai-san",
      "rating": 7.04,
      "classificacao_etaria": "A14",
      "imagem_original": "https://animefire.plus/img/animes/maiko-san-chi-no-makanai-san.webp",
      "imagem_pasta": "https://animefire.plus/img/animes/maiko-san-chi-no-makanai-san/",
      "secao": "legendados",
      "pagina": 48,
      "total_episodios": 12,
      "link_video": "https://animefire.plus/video/maiko-san-chi-no-makanai-san"
    },
    {
      "id": 2369,
      "nome": "Mairimashita! Iruma-kun (Dublado)",
      "link": "https://animefire.plus/animes/mairimashita-iruma-kun-dublado-todos-os-episodios",
      "texto_original": "Mairimashita! Iruma-kun (Dublado)",
      "rating": 7.75,
      "classificacao_etaria": "A14",
      "imagem_original": "https://animefire.plus/img/animes/mairimashita-iruma-kun.webp",
      "imagem_pasta": "https://animefire.plus/img/animes/mairimashita-iruma-kun/",
      "secao": "dublados,legendados",
      "pagina": 8,
      "total_episodios": 23,
      "link_video": "https://animefire.plus/video/mairimashita-iruma-kun-dublado"
    },
    {
      "id": 2371,
      "nome": "Mairimashita! Iruma-kun 3rd Season (Dublado)",
      "link": "https://animefire.plus/animes/mairimashita-iruma-kun-3rd-season-dublado-todos-os-episodios",
      "texto_original": "Mairimashita! Iruma-kun 3rd Season (Dublado)",
      "rating": 7.82,
      "classificacao_etaria": "A14",
      "imagem_original": "https://animefire.plus/img/animes/mairimashita-iruma-kun-3rd-season.webp",
      "imagem_pasta": "https://animefire.plus/img/animes/mairimashita-iruma-kun-3rd-season/",
      "secao": "dublados,legendados",
      "pagina": 6,
      "total_episodios": 21,
      "link_video": "https://animefire.plus/video/mairimashita-iruma-kun-3rd-season-dublado"
    },
    {
      "id": 2375,
      "nome": "Majimoji Rurumo: Kanketsu-hen",
      "link": "https://animefire.plus/animes/majimoji-rurumo-kanketsu-hen-todos-os-episodios",
      "texto_original": "Majimoji Rurumo: Kanketsu-hen",
      "rating": 7.43,
      "classificacao_etaria": "A14",
      "imagem_original": "https://animefire.plus/img/animes/majimoji-rurumo-kanketsu-hen.webp",
      "imagem_pasta": "https://animefire.plus/img/animes/majimoji-rurumo-kanketsu-hen/",
      "secao": "legendados",
      "pagina": 88,
      "total_episodios": 2,
      "link_video": "https://animefire.plus/video/majimoji-rurumo-kanketsu-hen"
    },
    {
      "id": 2376,
      "nome": "Majin Tantei Nougami Neuro",
      "link": "https://animefire.plus/animes/majin-tantei-nougami-neuro-todos-os-episodios",
      "texto_original": "Majin Tantei Nougami Neuro",
      "rating": 7.69,
      "classificacao_etaria": "A16",
      "imagem_original": "https://animefire.plus/img/animes/majin-tantei-nougami-neuro.webp",
      "imagem_pasta": "https://animefire.plus/img/animes/majin-tantei-nougami-neuro/",
      "secao": "legendados",
      "pagina": 127,
      "total_episodios": 25,
      "link_video": "https://animefire.plus/video/majin-tantei-nougami-neuro"
    },
    {
      "id": 2377,
      "nome": "Majo no Tabitabi (Dublado)",
      "link": "https://animefire.plus/animes/majo-no-tabitabi-dublado-todos-os-episodios",
      "texto_original": "Majo no Tabitabi (Dublado)",
      "rating": 7.55,
      "classificacao_etaria": "A16",
      "imagem_original": "https://animefire.plus/img/animes/majo-no-tabitabi.webp",
      "imagem_pasta": "https://animefire.plus/img/animes/majo-no-tabitabi/",
      "secao": "dublados,legendados",
      "pagina": 13,
      "total_episodios": 12,
      "link_video": "https://animefire.plus/video/majo-no-tabitabi-dublado"
    },
    {
      "id": 2378,
      "nome": "Majo to Yajuu",
      "link": "https://animefire.plus/animes/majo-to-yajuu-todos-os-episodios",
      "texto_original": "Majo to Yajuu",
      "rating": 7.44,
      "classificacao_etaria": "A16",
      "imagem_original": "https://animefire.plus/img/animes/majo-to-yajuu.webp",
      "imagem_pasta": "https://animefire.plus/img/animes/majo-to-yajuu/",
      "secao": "legendados",
      "pagina": 18,
      "total_episodios": 12,
      "link_video": "https://animefire.plus/video/majo-to-yajuu"
    },
    {
      "id": 2379,
      "nome": "Major 2nd",
      "link": "https://animefire.plus/animes/major-2nd-todos-os-episodios",
      "texto_original": "Major 2nd",
      "rating": 7.63,
      "classificacao_etaria": "A14",
      "imagem_original": "https://animefire.plus/img/animes/major-2nd.webp",
      "imagem_pasta": "https://animefire.plus/img/animes/major-2nd/",
      "secao": "legendados",
      "pagina": 157,
      "total_episodios": 25,
      "link_video": "https://animefire.plus/video/major-2nd"
    },
    {
      "id": 2380,
      "nome": "Major 2nd (TV) 2nd Season",
      "link": "https://animefire.plus/animes/major-2nd-tv-2nd-season-todos-os-episodios",
      "texto_original": "Major 2nd (TV) 2nd Season",
      "rating": 7.6,
      "classificacao_etaria": "A14",
      "imagem_original": "https://animefire.plus/img/animes/major-2nd-tv-2nd-season.webp",
      "imagem_pasta": "https://animefire.plus/img/animes/major-2nd-tv-2nd-season/",
      "secao": "legendados",
      "pagina": 81,
      "total_episodios": 1,
      "link_video": "https://animefire.plus/video/major-2nd-tv-2nd-season"
    },
    {
      "id": 2389,
      "nome": "Majutsushi Orphen",
      "link": "https://animefire.plus/animes/majutsushi-orphen-todos-os-episodios",
      "texto_original": "Majutsushi Orphen",
      "rating": 7.26,
      "classificacao_etaria": "A14",
      "imagem_original": "https://animefire.plus/img/animes/majutsushi-orphen.webp",
      "imagem_pasta": "https://animefire.plus/img/animes/majutsushi-orphen/",
      "secao": "legendados",
      "pagina": 152,
      "total_episodios": 24,
      "link_video": "https://animefire.plus/video/majutsushi-orphen"
    },
    {
      "id": 2394,
      "nome": "Makai Ouji: Devils And Realist",
      "link": "https://animefire.plus/animes/makai-ouji-devils-and-realist-todos-os-episodios",
      "texto_original": "Makai Ouji: Devils And Realist",
      "rating": 7.11,
      "classificacao_etaria": "A14",
      "imagem_original": "https://animefire.plus/img/animes/makai-ouji-devils-and-realist.webp",
      "imagem_pasta": "https://animefire.plus/img/animes/makai-ouji-devils-and-realist/",
      "secao": "legendados",
      "pagina": 80,
      "total_episodios": 12,
      "link_video": "https://animefire.plus/video/makai-ouji-devils-and-realist"
    },
    {
      "id": 2402,
      "nome": "Mamoru-kun ni Megami no Shukufuku wo!",
      "link": "https://animefire.plus/animes/mamoru-kun-ni-megami-no-shukufuku-wo-todos-os-episodios",
      "texto_original": "Mamoru-kun ni Megami no Shukufuku wo!",
      "rating": 7.14,
      "classificacao_etaria": "A14",
      "imagem_original": "https://animefire.plus/img/animes/mamoru-kun-ni-megami-no-shukufuku-wo.webp",
      "imagem_pasta": "https://animefire.plus/img/animes/mamoru-kun-ni-megami-no-shukufuku-wo/",
      "secao": "legendados",
      "pagina": 153,
      "total_episodios": 24,
      "link_video": "https://animefire.plus/video/mamoru-kun-ni-megami-no-shukufuku-wo"
    },
    {
      "id": 2405,
      "nome": "Mangaka-san to Assistant-san to The Animation",
      "link": "https://animefire.plus/animes/mangaka-san-to-assistant-san-to-the-animation-todos-os-episodios",
      "texto_original": "Mangaka-san to Assistant-san to The Animation",
      "rating": 7.25,
      "classificacao_etaria": "A14",
      "imagem_original": "https://animefire.plus/img/animes/mangaka-san-to-assistant-san-to-the-animation.webp",
      "imagem_pasta": "https://animefire.plus/img/animes/mangaka-san-to-assistant-san-to-the-animation/",
      "secao": "legendados",
      "pagina": 79,
      "total_episodios": 12,
      "link_video": "https://animefire.plus/video/mangaka-san-to-assistant-san-to-the-animation"
    },
    {
      "id": 2408,
      "nome": "Maou 2099",
      "link": "https://animefire.plus/animes/maou-2099-todos-os-episodios",
      "texto_original": "Maou 2099",
      "rating": 7.44,
      "classificacao_etaria": "A14",
      "imagem_original": "https://animefire.plus/img/animes/maou-2099.webp",
      "imagem_pasta": "https://animefire.plus/img/animes/maou-2099/",
      "secao": "legendados",
      "pagina": 11,
      "total_episodios": 12,
      "link_video": "https://animefire.plus/video/maou-2099"
    },
    {
      "id": 2411,
      "nome": "Maou Gakuin no Futekigousha: Shijou Saikyou no Maou no Shiso, Tensei shite Shison-tachi no Gakkou e",
      "link": "https://animefire.plus/animes/maou-gakuin-no-futekigousha-shijou-saikyou-no-maou-no-shiso-tensei-shite-shison-tachi-no-gakkou-e-todos-os-episodios",
      "texto_original": "Maou Gakuin no Futekigousha: Shijou Saikyou no Maou no Shiso, Tensei shite Shison-tachi no Gakkou e",
      "rating": 7.34,
      "classificacao_etaria": "A16",
      "imagem_original": "https://animefire.plus/img/animes/maou-gakuin-no-futekigousha-shijou-saikyou-no-maou-no-shiso-tensei-shite-shison-tachi-no-gakkou-e.webp",
      "imagem_pasta": "https://animefire.plus/img/animes/maou-gakuin-no-futekigousha-shijou-saikyou-no-maou-no-shiso-tensei-shite-shison-tachi-no-gakkou-e/",
      "secao": "legendados",
      "pagina": 58,
      "total_episodios": 7,
      "link_video": "https://animefire.plus/video/maou-gakuin-no-futekigousha-shijou-saikyou-no-maou-no-shiso-tensei-shite-shison-tachi-no-gakkou-e"
    },
    {
      "id": 2414,
      "nome": "Maou no Ore ga Dorei Elf wo Yome ni Shitanda ga, Dou Medereba Ii?",
      "link": "https://animefire.plus/animes/maou-no-ore-ga-dorei-elf-wo-yome-ni-shitanda-ga-dou-medereba-ii-todos-os-episodios",
      "texto_original": "Maou no Ore ga Dorei Elf wo Yome ni Shitanda ga, Dou Medereba Ii?",
      "rating": 7.29,
      "classificacao_etaria": "A14",
      "imagem_original": "https://animefire.plus/img/animes/maou-no-ore-ga-dorei-elf-wo-yome-ni-shitanda-ga-dou-medereba-ii.webp",
      "imagem_pasta": "https://animefire.plus/img/animes/maou-no-ore-ga-dorei-elf-wo-yome-ni-shitanda-ga-dou-medereba-ii/",
      "secao": "legendados",
      "pagina": 15,
      "total_episodios": 12,
      "link_video": "https://animefire.plus/video/maou-no-ore-ga-dorei-elf-wo-yome-ni-shitanda-ga-dou-medereba-ii"
    }
  ],
  "pagination": {
    "current_page": 51,
    "per_page": 20,
    "total_items": 1905,
    "total_pages": 96,
    "has_next": true,
    "has_prev": true
  }
}
