{
  "message": "Animes com rating entre 7 e 8",
  "rating_range": {
    "min": 7,
    "max": 8
  },
  "data": [
    {
      "id": 1211,
      "nome": "Gokinjo Monogatari",
      "link": "https://animefire.plus/animes/gokinjo-monogatari-todos-os-episodios",
      "texto_original": "Gokinjo Monogatari",
      "rating": 7.46,
      "classificacao_etaria": "A14",
      "imagem_original": "https://animefire.plus/img/animes/gokinjo-monogatari.webp",
      "imagem_pasta": "https://animefire.plus/img/animes/gokinjo-monogatari/",
      "secao": "legendados",
      "pagina": 77,
      "total_episodios": 50,
      "link_video": "https://animefire.plus/video/gokinjo-monogatari"
    },
    {
      "id": 1214,
      "nome": "Gokukoku no Brynhildr",
      "link": "https://animefire.plus/animes/gokukoku-no-brynhildr-todos-os-episodios",
      "texto_original": "Gokukoku no Brynhildr",
      "rating": 7.03,
      "classificacao_etaria": "A18",
      "imagem_original": "https://animefire.plus/img/animes/gokukoku-no-brynhildr.webp",
      "imagem_pasta": "https://animefire.plus/img/animes/gokukoku-no-brynhildr/",
      "secao": "legendados",
      "pagina": 113,
      "total_episodios": 13,
      "link_video": "https://animefire.plus/video/gokukoku-no-brynhildr"
    },
    {
      "id": 1215,
      "nome": "Gokusen",
      "link": "https://animefire.plus/animes/gokusen-todos-os-episodios",
      "texto_original": "Gokusen",
      "rating": 7.46,
      "classificacao_etaria": "A16",
      "imagem_original": "https://animefire.plus/img/animes/gokusen.webp",
      "imagem_pasta": "https://animefire.plus/img/animes/gokusen/",
      "secao": "legendados",
      "pagina": 100,
      "total_episodios": 13,
      "link_video": "https://animefire.plus/video/gokusen"
    },
    {
      "id": 1216,
      "nome": "Gokushufudou (Dublado)",
      "link": "https://animefire.plus/animes/gokushufudou-dublado-todos-os-episodios",
      "texto_original": "Gokushufudou (Dublado)",
      "rating": 7.26,
      "classificacao_etaria": "A14",
      "imagem_original": "https://animefire.plus/img/animes/gokushufudou.webp",
      "imagem_pasta": "https://animefire.plus/img/animes/gokushufudou/",
      "secao": "dublados,legendados",
      "pagina": 18,
      "total_episodios": 6,
      "link_video": "https://animefire.plus/video/gokushufudou-dublado"
    },
    {
      "id": 1217,
      "nome": "Gokushufudou Part 2 (Dublado)",
      "link": "https://animefire.plus/animes/gokushufudou-part-2-dublado-todos-os-episodios",
      "texto_original": "Gokushufudou Part 2 (Dublado)",
      "rating": 7.54,
      "classificacao_etaria": "A14",
      "imagem_original": "https://animefire.plus/img/animes/gokushufudou-part-2.webp",
      "imagem_pasta": "https://animefire.plus/img/animes/gokushufudou-part-2/",
      "secao": "dublados,legendados",
      "pagina": 15,
      "total_episodios": 5,
      "link_video": "https://animefire.plus/video/gokushufudou-part-2-dublado"
    },
    {
      "id": 1218,
      "nome": "Gokushufudou Season 2 (Dublado)",
      "link": "https://animefire.plus/animes/gokushufudou-season-2-dublado-todos-os-episodios",
      "texto_original": "Gokushufudou Season 2 (Dublado)",
      "rating": 7.57,
      "classificacao_etaria": "A14",
      "imagem_original": "https://animefire.plus/img/animes/gokushufudou-season-2.webp",
      "imagem_pasta": "https://animefire.plus/img/animes/gokushufudou-season-2/",
      "secao": "dublados,legendados",
      "pagina": 8,
      "total_episodios": 5,
      "link_video": "https://animefire.plus/video/gokushufudou-season-2-dublado"
    },
    {
      "id": 1220,
      "nome": "Golden Kamuy",
      "link": "https://animefire.plus/animes/golden-kamuy-todos-os-episodios",
      "texto_original": "Golden Kamuy",
      "rating": 7.8,
      "classificacao_etaria": "A16",
      "imagem_original": "https://animefire.plus/img/animes/golden-kamuy.webp",
      "imagem_pasta": "https://animefire.plus/img/animes/golden-kamuy/",
      "secao": "legendados",
      "pagina": 140,
      "total_episodios": 12,
      "link_video": "https://animefire.plus/video/golden-kamuy"
    },
    {
      "id": 1222,
      "nome": "Golden Kamuy 2nd Season OVA",
      "link": "https://animefire.plus/animes/golden-kamuy-2nd-season-ova-todos-os-episodios",
      "texto_original": "Golden Kamuy 2nd Season OVA",
      "rating": 7.44,
      "classificacao_etaria": "A16",
      "imagem_original": "https://animefire.plus/img/animes/golden-kamuy-2nd-season-ova.webp",
      "imagem_pasta": "https://animefire.plus/img/animes/golden-kamuy-2nd-season-ova/",
      "secao": "legendados",
      "pagina": 84,
      "total_episodios": 2,
      "link_video": "https://animefire.plus/video/golden-kamuy-2nd-season-ova"
    },
    {
      "id": 1225,
      "nome": "Golden Kamuy OVA",
      "link": "https://animefire.plus/animes/golden-kamuy-ova-todos-os-episodios",
      "texto_original": "Golden Kamuy OVA",
      "rating": 7.16,
      "classificacao_etaria": "A16",
      "imagem_original": "https://animefire.plus/img/animes/golden-kamuy-ova.webp",
      "imagem_pasta": "https://animefire.plus/img/animes/golden-kamuy-ova/",
      "secao": "legendados",
      "pagina": 88,
      "total_episodios": 1,
      "link_video": "https://animefire.plus/video/golden-kamuy-ova"
    },
    {
      "id": 1226,
      "nome": "Golden Time",
      "link": "https://animefire.plus/animes/golden-time-todos-os-episodios",
      "texto_original": "Golden Time",
      "rating": 7.87,
      "classificacao_etaria": "A14",
      "imagem_original": "https://animefire.plus/img/animes/golden-time.webp",
      "imagem_pasta": "https://animefire.plus/img/animes/golden-time/",
      "secao": "legendados",
      "pagina": 162,
      "total_episodios": 6,
      "link_video": "https://animefire.plus/video/golden-time"
    },
    {
      "id": 1227,
      "nome": "Golgo 13 (TV)",
      "link": "https://animefire.plus/animes/golgo-13-tv-todos-os-episodios",
      "texto_original": "Golgo 13 (TV)",
      "rating": 7.53,
      "classificacao_etaria": "A18",
      "imagem_original": "https://animefire.plus/img/animes/golgo-13-tv.webp",
      "imagem_pasta": "https://animefire.plus/img/animes/golgo-13-tv/",
      "secao": "legendados",
      "pagina": 45,
      "total_episodios": 50,
      "link_video": "https://animefire.plus/video/golgo-13-tv"
    },
    {
      "id": 1229,
      "nome": "Good Night World (Dublado)",
      "link": "https://animefire.plus/animes/good-night-world-dublado-todos-os-episodios",
      "texto_original": "Good Night World (Dublado)",
      "rating": 7.06,
      "classificacao_etaria": "A16",
      "imagem_original": "https://animefire.plus/img/animes/good-night-world.webp",
      "imagem_pasta": "https://animefire.plus/img/animes/good-night-world/",
      "secao": "dublados,legendados",
      "pagina": 5,
      "total_episodios": 12,
      "link_video": "https://animefire.plus/video/good-night-world-dublado"
    },
    {
      "id": 1231,
      "nome": "Gosenzo-sama Banbanzai!",
      "link": "https://animefire.plus/animes/gosenzo-sama-banbanzai-todos-os-episodios",
      "texto_original": "Gosenzo-sama Banbanzai!",
      "rating": 7.33,
      "classificacao_etaria": "A16",
      "imagem_original": "https://animefire.plus/img/animes/gosenzo-sama-banbanzai.webp",
      "imagem_pasta": "https://animefire.plus/img/animes/gosenzo-sama-banbanzai/",
      "secao": "legendados",
      "pagina": 173,
      "total_episodios": 6,
      "link_video": "https://animefire.plus/video/gosenzo-sama-banbanzai"
    },
    {
      "id": 1234,
      "nome": "Goukon ni Ittara Onna ga Inakatta Hanashi",
      "link": "https://animefire.plus/animes/goukon-ni-ittara-onna-ga-inakatta-hanashi-todos-os-episodios",
      "texto_original": "Goukon ni Ittara Onna ga Inakatta Hanashi",
      "rating": 7.4,
      "classificacao_etaria": "A14",
      "imagem_original": "https://animefire.plus/img/animes/goukon-ni-ittara-onna-ga-inakatta-hanashi.webp",
      "imagem_pasta": "https://animefire.plus/img/animes/goukon-ni-ittara-onna-ga-inakatta-hanashi/",
      "secao": "legendados",
      "pagina": 9,
      "total_episodios": 12,
      "link_video": "https://animefire.plus/video/goukon-ni-ittara-onna-ga-inakatta-hanashi"
    },
    {
      "id": 1239,
      "nome": "Grancrest Senki",
      "link": "https://animefire.plus/animes/grancrest-senki-todos-os-episodios",
      "texto_original": "Grancrest Senki",
      "rating": 7.34,
      "classificacao_etaria": "A16",
      "imagem_original": "https://animefire.plus/img/animes/grancrest-senki.webp",
      "imagem_pasta": "https://animefire.plus/img/animes/grancrest-senki/",
      "secao": "legendados",
      "pagina": 133,
      "total_episodios": 25,
      "link_video": "https://animefire.plus/video/grancrest-senki"
    },
    {
      "id": 1245,
      "nome": "Grappler Baki (TV)",
      "link": "https://animefire.plus/animes/grappler-baki-tv-todos-os-episodios",
      "texto_original": "Grappler Baki (TV)",
      "rating": 7.49,
      "classificacao_etaria": "A14",
      "imagem_original": "https://animefire.plus/img/animes/grappler-baki-tv.webp",
      "imagem_pasta": "https://animefire.plus/img/animes/grappler-baki-tv/",
      "secao": "legendados",
      "pagina": 173,
      "total_episodios": 24,
      "link_video": "https://animefire.plus/video/grappler-baki-tv"
    },
    {
      "id": 1246,
      "nome": "Grappler Baki: Saidai Tournament-hen",
      "link": "https://animefire.plus/animes/grappler-baki-saidai-tournament-hen-todos-os-episodios",
      "texto_original": "Grappler Baki: Saidai Tournament-hen",
      "rating": 7.46,
      "classificacao_etaria": "A16",
      "imagem_original": "https://animefire.plus/img/animes/grappler-baki-saidai-tournament-hen.webp",
      "imagem_pasta": "https://animefire.plus/img/animes/grappler-baki-saidai-tournament-hen/",
      "secao": "legendados",
      "pagina": 67,
      "total_episodios": 24,
      "link_video": "https://animefire.plus/video/grappler-baki-saidai-tournament-hen"
    },
    {
      "id": 1247,
      "nome": "Gravitation",
      "link": "https://animefire.plus/animes/gravitation-todos-os-episodios",
      "texto_original": "Gravitation",
      "rating": 7.16,
      "classificacao_etaria": "A14",
      "imagem_original": "https://animefire.plus/img/animes/gravitation.webp",
      "imagem_pasta": "https://animefire.plus/img/animes/gravitation/",
      "secao": "legendados",
      "pagina": 97,
      "total_episodios": 13,
      "link_video": "https://animefire.plus/video/gravitation"
    },
    {
      "id": 1257,
      "nome": "Grisaia no Kajitsu",
      "link": "https://animefire.plus/animes/grisaia-no-kajitsu-todos-os-episodios",
      "texto_original": "Grisaia no Kajitsu",
      "rating": 7.64,
      "classificacao_etaria": "A18",
      "imagem_original": "https://animefire.plus/img/animes/grisaia-no-kajitsu.webp",
      "imagem_pasta": "https://animefire.plus/img/animes/grisaia-no-kajitsu/",
      "secao": "legendados",
      "pagina": 91,
      "total_episodios": 13,
      "link_video": "https://animefire.plus/video/grisaia-no-kajitsu"
    },
    {
      "id": 1258,
      "nome": "Grisaia no Meikyuu: Caprice no Mayu 0",
      "link": "https://animefire.plus/animes/grisaia-no-meikyuu-caprice-no-mayu-0-todos-os-episodios",
      "texto_original": "Grisaia no Meikyuu: Caprice no Mayu 0",
      "rating": 7.97,
      "classificacao_etaria": "A18",
      "imagem_original": "https://animefire.plus/img/animes/grisaia-no-meikyuu-caprice-no-mayu-0.webp",
      "imagem_pasta": "https://animefire.plus/img/animes/grisaia-no-meikyuu-caprice-no-mayu-0/",
      "secao": "legendados",
      "pagina": 73,
      "total_episodios": 2,
      "link_video": "https://animefire.plus/video/grisaia-no-meikyuu-caprice-no-mayu-0"
    }
  ],
  "pagination": {
    "current_page": 25,
    "per_page": 20,
    "total_items": 1905,
    "total_pages": 96,
    "has_next": true,
    "has_prev": true
  }
}
