{
  "message": "Animes com rating entre 7 e 8",
  "rating_range": {
    "min": 7,
    "max": 8
  },
  "data": [
    {
      "id": 3516,
      "nome": "Shuffle!",
      "link": "https://animefire.plus/animes/shuffle-todos-os-episodios",
      "texto_original": "Shuffle!",
      "rating": 7.19,
      "classificacao_etaria": "A18",
      "imagem_original": "https://animefire.plus/img/animes/shuffle.webp",
      "imagem_pasta": "https://animefire.plus/img/animes/shuffle/",
      "secao": "legendados",
      "pagina": 115,
      "total_episodios": 24,
      "link_video": "https://animefire.plus/video/shuffle"
    },
    {
      "id": 3519,
      "nome": "Shugo Chara!! Doki",
      "link": "https://animefire.plus/animes/shugo-chara-doki-todos-os-episodios",
      "texto_original": "Shugo Chara!! Doki",
      "rating": 7.47,
      "classificacao_etaria": "A10",
      "imagem_original": "https://animefire.plus/img/animes/shugo-chara-doki.webp",
      "imagem_pasta": "https://animefire.plus/img/animes/shugo-chara-doki/",
      "secao": "legendados",
      "pagina": 63,
      "total_episodios": 51,
      "link_video": "https://animefire.plus/video/shugo-chara-doki"
    },
    {
      "id": 3521,
      "nome": "Shuumatsu Nani Shitemasu ka? Isogashii Desu ka? Sukutte Moratte Ii Desu ka?",
      "link": "https://animefire.plus/animes/shuumatsu-nani-shitemasu-ka-isogashii-desu-ka-sukutte-moratte-ii-desu-ka-todos-os-episodios",
      "texto_original": "Shuumatsu Nani Shitemasu ka? Isogashii Desu ka? Sukutte Moratte Ii Desu ka?",
      "rating": 7.83,
      "classificacao_etaria": "A14",
      "imagem_original": "https://animefire.plus/img/animes/shuumatsu-nani-shitemasu-ka-isogashii-desu-ka-sukutte-moratte-ii-desu-ka.webp",
      "imagem_pasta": "https://animefire.plus/img/animes/shuumatsu-nani-shitemasu-ka-isogashii-desu-ka-sukutte-moratte-ii-desu-ka/",
      "secao": "legendados",
      "pagina": 155,
      "total_episodios": 12,
      "link_video": "https://animefire.plus/video/shuumatsu-nani-shitemasu-ka-isogashii-desu-ka-sukutte-moratte-ii-desu-ka"
    },
    {
      "id": 3525,
      "nome": "Shuumatsu no Walküre II (Dublado)",
      "link": "https://animefire.plus/animes/shuumatsu-no-walk-re-ii-dublado-todos-os-episodios",
      "texto_original": "Shuumatsu no Walküre II (Dublado)",
      "rating": 7.49,
      "classificacao_etaria": "A16",
      "imagem_original": "https://animefire.plus/img/animes/shuumatsu-no-walk-re-ii.webp",
      "imagem_pasta": "https://animefire.plus/img/animes/shuumatsu-no-walk-re-ii/",
      "secao": "dublados,legendados",
      "pagina": 8,
      "total_episodios": 15,
      "link_video": "https://animefire.plus/video/shuumatsu-no-walk-re-ii-dublado"
    },
    {
      "id": 3526,
      "nome": "Shuumatsu Train Doko e Iku?",
      "link": "https://animefire.plus/animes/shuumatsu-train-doko-e-iku-todos-os-episodios",
      "texto_original": "Shuumatsu Train Doko e Iku?",
      "rating": 7.37,
      "classificacao_etaria": "A14",
      "imagem_original": "https://animefire.plus/img/animes/shuumatsu-train-doko-e-iku.webp",
      "imagem_pasta": "https://animefire.plus/img/animes/shuumatsu-train-doko-e-iku/",
      "secao": "legendados",
      "pagina": 14,
      "total_episodios": 12,
      "link_video": "https://animefire.plus/video/shuumatsu-train-doko-e-iku"
    },
    {
      "id": 3531,
      "nome": "Sidonia no Kishi (Dublado)",
      "link": "https://animefire.plus/animes/sidonia-no-kishi-dublado-todos-os-episodios",
      "texto_original": "Sidonia no Kishi (Dublado)",
      "rating": 7.65,
      "classificacao_etaria": "A18",
      "imagem_original": "https://animefire.plus/img/animes/sidonia-no-kishi.webp",
      "imagem_pasta": "https://animefire.plus/img/animes/sidonia-no-kishi/",
      "secao": "dublados,legendados",
      "pagina": 8,
      "total_episodios": 12,
      "link_video": "https://animefire.plus/video/sidonia-no-kishi-dublado"
    },
    {
      "id": 3532,
      "nome": "Sidonia No Kishi: Daikyuu Wakusei Seneki",
      "link": "https://animefire.plus/animes/sidonia-no-kishi-daikyuu-wakusei-seneki-todos-os-episodios",
      "texto_original": "Sidonia No Kishi: Daikyuu Wakusei Seneki",
      "rating": 7.84,
      "classificacao_etaria": "A16",
      "imagem_original": "https://animefire.plus/img/animes/sidonia-no-kishi-daikyuu-wakusei-seneki.webp",
      "imagem_pasta": "https://animefire.plus/img/animes/sidonia-no-kishi-daikyuu-wakusei-seneki/",
      "secao": "legendados",
      "pagina": 103,
      "total_episodios": 5,
      "link_video": "https://animefire.plus/video/sidonia-no-kishi-daikyuu-wakusei-seneki"
    },
    {
      "id": 3534,
      "nome": "Silent Witch: Chinmoku no Majo no Kakushigoto",
      "link": "https://animefire.plus/animes/silent-witch-chinmoku-no-majo-no-kakushigoto-todos-os-episodios",
      "texto_original": "Silent Witch: Chinmoku no Majo no Kakushigoto",
      "rating": 7.98,
      "classificacao_etaria": "A14",
      "imagem_original": "https://animefire.plus/img/animes/silent-witch-chinmoku-no-majo-no-kakushigoto.webp",
      "imagem_pasta": "https://animefire.plus/img/animes/silent-witch-chinmoku-no-majo-no-kakushigoto/",
      "secao": "legendados,lancamentos",
      "pagina": 3,
      "total_episodios": 5,
      "link_video": "https://animefire.plus/video/silent-witch-chinmoku-no-majo-no-kakushigoto"
    },
    {
      "id": 3535,
      "nome": "Simoun",
      "link": "https://animefire.plus/animes/simoun-todos-os-episodios",
      "texto_original": "Simoun",
      "rating": 7.5,
      "classificacao_etaria": "A14",
      "imagem_original": "https://animefire.plus/img/animes/simoun.webp",
      "imagem_pasta": "https://animefire.plus/img/animes/simoun/",
      "secao": "legendados",
      "pagina": 97,
      "total_episodios": 0,
      "link_video": "https://animefire.plus/video/simoun"
    },
    {
      "id": 3537,
      "nome": "Sirius (Dublado)",
      "link": "https://animefire.plus/animes/sirius-dublado-todos-os-episodios",
      "texto_original": "Sirius (Dublado)",
      "rating": 7.18,
      "classificacao_etaria": "A16",
      "imagem_original": "https://animefire.plus/img/animes/sirius.webp",
      "imagem_pasta": "https://animefire.plus/img/animes/sirius/",
      "secao": "dublados,legendados",
      "pagina": 25,
      "total_episodios": 12,
      "link_video": "https://animefire.plus/video/sirius-dublado"
    },
    {
      "id": 3540,
      "nome": "SK∞ (Dublado)",
      "link": "https://animefire.plus/animes/sk-dublado-todos-os-episodios",
      "texto_original": "SK∞ (Dublado)",
      "rating": 8,
      "classificacao_etaria": "A14",
      "imagem_original": "https://animefire.plus/img/animes/sk.webp",
      "imagem_pasta": "https://animefire.plus/img/animes/sk/",
      "secao": "dublados",
      "pagina": 15,
      "total_episodios": 12,
      "link_video": "https://animefire.plus/video/sk-dublado"
    },
    {
      "id": 3546,
      "nome": "Sky Girls",
      "link": "https://animefire.plus/animes/sky-girls-todos-os-episodios",
      "texto_original": "Sky Girls",
      "rating": 7.07,
      "classificacao_etaria": "A14",
      "imagem_original": "https://animefire.plus/img/animes/sky-girls.webp",
      "imagem_pasta": "https://animefire.plus/img/animes/sky-girls/",
      "secao": "legendados",
      "pagina": 178,
      "total_episodios": 26,
      "link_video": "https://animefire.plus/video/sky-girls"
    },
    {
      "id": 3548,
      "nome": "Slayers (Dublado)",
      "link": "https://animefire.plus/animes/slayers-dublado-todos-os-episodios",
      "texto_original": "Slayers (Dublado)",
      "rating": 7.75,
      "classificacao_etaria": "A14",
      "imagem_original": "https://animefire.plus/img/animes/slayers.webp",
      "imagem_pasta": "https://animefire.plus/img/animes/slayers/",
      "secao": "dublados,legendados",
      "pagina": 17,
      "total_episodios": 26,
      "link_video": "https://animefire.plus/video/slayers-dublado"
    },
    {
      "id": 3549,
      "nome": "Slayers Evolution-R",
      "link": "https://animefire.plus/animes/slayers-evolution-r-todos-os-episodios",
      "texto_original": "Slayers Evolution-R",
      "rating": 7.49,
      "classificacao_etaria": "A14",
      "imagem_original": "https://animefire.plus/img/animes/slayers-evolution-r.webp",
      "imagem_pasta": "https://animefire.plus/img/animes/slayers-evolution-r/",
      "secao": "legendados",
      "pagina": 173,
      "total_episodios": 0,
      "link_video": "https://animefire.plus/video/slayers-evolution-r"
    },
    {
      "id": 3550,
      "nome": "Slayers Excellent",
      "link": "https://animefire.plus/animes/slayers-excellent-todos-os-episodios",
      "texto_original": "Slayers Excellent",
      "rating": 7.33,
      "classificacao_etaria": "A14",
      "imagem_original": "https://animefire.plus/img/animes/slayers-excellent.webp",
      "imagem_pasta": "https://animefire.plus/img/animes/slayers-excellent/",
      "secao": "legendados",
      "pagina": 45,
      "total_episodios": 3,
      "link_video": "https://animefire.plus/video/slayers-excellent"
    },
    {
      "id": 3552,
      "nome": "Slayers Revolution",
      "link": "https://animefire.plus/animes/slayers-revolution-todos-os-episodios",
      "texto_original": "Slayers Revolution",
      "rating": 7.34,
      "classificacao_etaria": "A14",
      "imagem_original": "https://animefire.plus/img/animes/slayers-revolution.webp",
      "imagem_pasta": "https://animefire.plus/img/animes/slayers-revolution/",
      "secao": "legendados",
      "pagina": 166,
      "total_episodios": 0,
      "link_video": "https://animefire.plus/video/slayers-revolution"
    },
    {
      "id": 3553,
      "nome": "Slayers Special",
      "link": "https://animefire.plus/animes/slayers-special-todos-os-episodios",
      "texto_original": "Slayers Special",
      "rating": 7.37,
      "classificacao_etaria": "A14",
      "imagem_original": "https://animefire.plus/img/animes/slayers-special.webp",
      "imagem_pasta": "https://animefire.plus/img/animes/slayers-special/",
      "secao": "legendados",
      "pagina": 45,
      "total_episodios": 3,
      "link_video": "https://animefire.plus/video/slayers-special"
    },
    {
      "id": 3554,
      "nome": "Slayers Try",
      "link": "https://animefire.plus/animes/slayers-try-todos-os-episodios",
      "texto_original": "Slayers Try",
      "rating": 7.89,
      "classificacao_etaria": "A14",
      "imagem_original": "https://animefire.plus/img/animes/slayers-try.webp",
      "imagem_pasta": "https://animefire.plus/img/animes/slayers-try/",
      "secao": "legendados",
      "pagina": 136,
      "total_episodios": 0,
      "link_video": "https://animefire.plus/video/slayers-try"
    },
    {
      "id": 3557,
      "nome": "Slow Loop",
      "link": "https://animefire.plus/animes/slow-loop-todos-os-episodios",
      "texto_original": "Slow Loop",
      "rating": 7.25,
      "classificacao_etaria": "A14",
      "imagem_original": "https://animefire.plus/img/animes/slow-loop.webp",
      "imagem_pasta": "https://animefire.plus/img/animes/slow-loop/",
      "secao": "legendados",
      "pagina": 36,
      "total_episodios": 12,
      "link_video": "https://animefire.plus/video/slow-loop"
    },
    {
      "id": 3558,
      "nome": "Slow Start",
      "link": "https://animefire.plus/animes/slow-start-todos-os-episodios",
      "texto_original": "Slow Start",
      "rating": 7.11,
      "classificacao_etaria": "A14",
      "imagem_original": "https://animefire.plus/img/animes/slow-start.webp",
      "imagem_pasta": "https://animefire.plus/img/animes/slow-start/",
      "secao": "legendados",
      "pagina": 107,
      "total_episodios": 12,
      "link_video": "https://animefire.plus/video/slow-start"
    }
  ],
  "pagination": {
    "current_page": 76,
    "per_page": 20,
    "total_items": 1905,
    "total_pages": 96,
    "has_next": true,
    "has_prev": true
  }
}
