{
  "message": "Animes com rating entre 7 e 8",
  "rating_range": {
    "min": 7,
    "max": 8
  },
  "data": [
    {
      "id": 1023,
      "nome": "Free! (Dublado)",
      "link": "https://animefire.plus/animes/free-dublado-todos-os-episodios",
      "texto_original": "Free! (Dublado)",
      "rating": 7.48,
      "classificacao_etaria": "A14",
      "imagem_original": "https://animefire.plus/img/animes/free.webp",
      "imagem_pasta": "https://animefire.plus/img/animes/free/",
      "secao": "dublados,legendados",
      "pagina": 24,
      "total_episodios": 12,
      "link_video": "https://animefire.plus/video/free-dublado"
    },
    {
      "id": 1024,
      "nome": "Free!: Dive to the Future",
      "link": "https://animefire.plus/animes/free-dive-to-the-future-todos-os-episodios",
      "texto_original": "Free!: Dive to the Future",
      "rating": 7.71,
      "classificacao_etaria": "A14",
      "imagem_original": "https://animefire.plus/img/animes/free-dive-to-the-future.webp",
      "imagem_pasta": "https://animefire.plus/img/animes/free-dive-to-the-future/",
      "secao": "legendados",
      "pagina": 139,
      "total_episodios": 12,
      "link_video": "https://animefire.plus/video/free-dive-to-the-future"
    },
    {
      "id": 1025,
      "nome": "Free!: Eternal Summer",
      "link": "https://animefire.plus/animes/free-eternal-summer-todos-os-episodios",
      "texto_original": "Free!: Eternal Summer",
      "rating": 7.74,
      "classificacao_etaria": "A14",
      "imagem_original": "https://animefire.plus/img/animes/free-eternal-summer.webp",
      "imagem_pasta": "https://animefire.plus/img/animes/free-eternal-summer/",
      "secao": "legendados",
      "pagina": 74,
      "total_episodios": 13,
      "link_video": "https://animefire.plus/video/free-eternal-summer"
    },
    {
      "id": 1026,
      "nome": "Freedom",
      "link": "https://animefire.plus/animes/freedom-todos-os-episodios",
      "texto_original": "Freedom",
      "rating": 7.48,
      "classificacao_etaria": "A14",
      "imagem_original": "https://animefire.plus/img/animes/freedom.webp",
      "imagem_pasta": "https://animefire.plus/img/animes/freedom/",
      "secao": "legendados",
      "pagina": 68,
      "total_episodios": 8,
      "link_video": "https://animefire.plus/video/freedom"
    },
    {
      "id": 1027,
      "nome": "Freezing",
      "link": "https://animefire.plus/animes/freezing-todos-os-episodios",
      "texto_original": "Freezing",
      "rating": 7.06,
      "classificacao_etaria": "A18",
      "imagem_original": "https://animefire.plus/img/animes/freezing.webp",
      "imagem_pasta": "https://animefire.plus/img/animes/freezing/",
      "secao": "legendados",
      "pagina": 134,
      "total_episodios": 12,
      "link_video": "https://animefire.plus/video/freezing"
    },
    {
      "id": 1029,
      "nome": "Fresh Precure!",
      "link": "https://animefire.plus/animes/fresh-precure-todos-os-episodios",
      "texto_original": "Fresh Precure!",
      "rating": 7.34,
      "classificacao_etaria": null,
      "imagem_original": "https://animefire.plus/img/animes/fresh-precure.webp",
      "imagem_pasta": "https://animefire.plus/img/animes/fresh-precure/",
      "secao": "legendados",
      "pagina": 66,
      "total_episodios": 50,
      "link_video": "https://animefire.plus/video/fresh-precure"
    },
    {
      "id": 1030,
      "nome": "Fruits Basket",
      "link": "https://animefire.plus/animes/fruits-basket-todos-os-episodios",
      "texto_original": "Fruits Basket",
      "rating": 7.71,
      "classificacao_etaria": "A14",
      "imagem_original": "https://animefire.plus/img/animes/fruits-basket.webp",
      "imagem_pasta": "https://animefire.plus/img/animes/fruits-basket/",
      "secao": "legendados",
      "pagina": 68,
      "total_episodios": 26,
      "link_video": "https://animefire.plus/video/fruits-basket"
    },
    {
      "id": 1036,
      "nome": "Fugou Keiji: Balance:Unlimited",
      "link": "https://animefire.plus/animes/fugou-keiji-balance-unlimited-todos-os-episodios",
      "texto_original": "Fugou Keiji: Balance:Unlimited",
      "rating": 7.56,
      "classificacao_etaria": "A14",
      "imagem_original": "https://animefire.plus/img/animes/fugou-keiji-balance-unlimited.webp",
      "imagem_pasta": "https://animefire.plus/img/animes/fugou-keiji-balance-unlimited/",
      "secao": "legendados",
      "pagina": 80,
      "total_episodios": 1,
      "link_video": "https://animefire.plus/video/fugou-keiji-balance-unlimited"
    },
    {
      "id": 1038,
      "nome": "Fukigen na Mononokean",
      "link": "https://animefire.plus/animes/fukigen-na-mononokean-todos-os-episodios",
      "texto_original": "Fukigen na Mononokean",
      "rating": 7.46,
      "classificacao_etaria": "A14",
      "imagem_original": "https://animefire.plus/img/animes/fukigen-na-mononokean.webp",
      "imagem_pasta": "https://animefire.plus/img/animes/fukigen-na-mononokean/",
      "secao": "legendados",
      "pagina": 121,
      "total_episodios": 0,
      "link_video": "https://animefire.plus/video/fukigen-na-mononokean"
    },
    {
      "id": 1039,
      "nome": "Fukigen na Mononokean Tsuzuki",
      "link": "https://animefire.plus/animes/fukigen-na-mononokean-tsuzuki-todos-os-episodios",
      "texto_original": "Fukigen na Mononokean Tsuzuki",
      "rating": 7.57,
      "classificacao_etaria": "A14",
      "imagem_original": "https://animefire.plus/img/animes/fukigen-na-mononokean-tsuzuki.webp",
      "imagem_pasta": "https://animefire.plus/img/animes/fukigen-na-mononokean-tsuzuki/",
      "secao": "legendados",
      "pagina": 101,
      "total_episodios": 13,
      "link_video": "https://animefire.plus/video/fukigen-na-mononokean-tsuzuki"
    },
    {
      "id": 1040,
      "nome": "Fukumenkei Noise",
      "link": "https://animefire.plus/animes/fukumenkei-noise-todos-os-episodios",
      "texto_original": "Fukumenkei Noise",
      "rating": 7.14,
      "classificacao_etaria": "A14",
      "imagem_original": "https://animefire.plus/img/animes/fukumenkei-noise.webp",
      "imagem_pasta": "https://animefire.plus/img/animes/fukumenkei-noise/",
      "secao": "legendados",
      "pagina": 139,
      "total_episodios": 2,
      "link_video": "https://animefire.plus/video/fukumenkei-noise"
    },
    {
      "id": 1041,
      "nome": "Full Metal Panic!",
      "link": "https://animefire.plus/animes/full-metal-panic-todos-os-episodios",
      "texto_original": "Full Metal Panic!",
      "rating": 7.73,
      "classificacao_etaria": "A16",
      "imagem_original": "https://animefire.plus/img/animes/full-metal-panic.webp",
      "imagem_pasta": "https://animefire.plus/img/animes/full-metal-panic/",
      "secao": "legendados",
      "pagina": 167,
      "total_episodios": 24,
      "link_video": "https://animefire.plus/video/full-metal-panic"
    },
    {
      "id": 1042,
      "nome": "Full Metal Panic! Invisible Victory",
      "link": "https://animefire.plus/animes/full-metal-panic-invisible-victory-todos-os-episodios",
      "texto_original": "Full Metal Panic! Invisible Victory",
      "rating": 7.66,
      "classificacao_etaria": "A16",
      "imagem_original": "https://animefire.plus/img/animes/full-metal-panic-invisible-victory.webp",
      "imagem_pasta": "https://animefire.plus/img/animes/full-metal-panic-invisible-victory/",
      "secao": "legendados",
      "pagina": 134,
      "total_episodios": 12,
      "link_video": "https://animefire.plus/video/full-metal-panic-invisible-victory"
    },
    {
      "id": 1052,
      "nome": "Fune wo Amu",
      "link": "https://animefire.plus/animes/fune-wo-amu-todos-os-episodios",
      "texto_original": "Fune wo Amu",
      "rating": 7.68,
      "classificacao_etaria": "A14",
      "imagem_original": "https://animefire.plus/img/animes/fune-wo-amu.webp",
      "imagem_pasta": "https://animefire.plus/img/animes/fune-wo-amu/",
      "secao": "legendados",
      "pagina": 133,
      "total_episodios": 11,
      "link_video": "https://animefire.plus/video/fune-wo-amu"
    },
    {
      "id": 1054,
      "nome": "Fushigi no Umi no Nadia",
      "link": "https://animefire.plus/animes/fushigi-no-umi-no-nadia-todos-os-episodios",
      "texto_original": "Fushigi no Umi no Nadia",
      "rating": 7.56,
      "classificacao_etaria": "A14",
      "imagem_original": "https://animefire.plus/img/animes/fushigi-no-umi-no-nadia.webp",
      "imagem_pasta": "https://animefire.plus/img/animes/fushigi-no-umi-no-nadia/",
      "secao": "legendados",
      "pagina": 64,
      "total_episodios": 39,
      "link_video": "https://animefire.plus/video/fushigi-no-umi-no-nadia"
    },
    {
      "id": 1055,
      "nome": "Fushigi Yuugi",
      "link": "https://animefire.plus/animes/fushigi-yuugi-todos-os-episodios",
      "texto_original": "Fushigi Yuugi",
      "rating": 7.74,
      "classificacao_etaria": "A14",
      "imagem_original": "https://animefire.plus/img/animes/fushigi-yuugi.webp",
      "imagem_pasta": "https://animefire.plus/img/animes/fushigi-yuugi/",
      "secao": "legendados",
      "pagina": 150,
      "total_episodios": 52,
      "link_video": "https://animefire.plus/video/fushigi-yuugi"
    },
    {
      "id": 1061,
      "nome": "Futari Wa Precure",
      "link": "https://animefire.plus/animes/futari-wa-precure-todos-os-episodios",
      "texto_original": "Futari Wa Precure",
      "rating": 7.01,
      "classificacao_etaria": null,
      "imagem_original": "https://animefire.plus/img/animes/futari-wa-precure.webp",
      "imagem_pasta": "https://animefire.plus/img/animes/futari-wa-precure/",
      "secao": "legendados",
      "pagina": 59,
      "total_episodios": 5,
      "link_video": "https://animefire.plus/video/futari-wa-precure"
    },
    {
      "id": 1062,
      "nome": "Futari Wa Precure: Splash☆Star",
      "link": "https://animefire.plus/animes/futari-wa-precure-splash-star-todos-os-episodios",
      "texto_original": "Futari Wa Precure: Splash☆Star",
      "rating": 7.21,
      "classificacao_etaria": null,
      "imagem_original": "https://animefire.plus/img/animes/futari-wa-precure-splash-star.webp",
      "imagem_pasta": "https://animefire.plus/img/animes/futari-wa-precure-splash-star/",
      "secao": "legendados",
      "pagina": 107,
      "total_episodios": 14,
      "link_video": "https://animefire.plus/video/futari-wa-precure-splash-star"
    },
    {
      "id": 1066,
      "nome": "Future Card Buddyfight",
      "link": "https://animefire.plus/animes/future-card-buddyfight-todos-os-episodios",
      "texto_original": "Future Card Buddyfight",
      "rating": 7.05,
      "classificacao_etaria": "A10",
      "imagem_original": "https://animefire.plus/img/animes/future-card-buddyfight.webp",
      "imagem_pasta": "https://animefire.plus/img/animes/future-card-buddyfight/",
      "secao": "legendados",
      "pagina": 152,
      "total_episodios": 2,
      "link_video": "https://animefire.plus/video/future-card-buddyfight"
    },
    {
      "id": 1067,
      "nome": "Fuufu Ijou, Koibito Miman. (Dublado)",
      "link": "https://animefire.plus/animes/fuufu-ijou-koibito-miman-dublado-todos-os-episodios",
      "texto_original": "Fuufu Ijou, Koibito Miman. (Dublado)",
      "rating": 7.59,
      "classificacao_etaria": "A14",
      "imagem_original": "https://animefire.plus/img/animes/fuufu-ijou-koibito-miman.webp",
      "imagem_pasta": "https://animefire.plus/img/animes/fuufu-ijou-koibito-miman/",
      "secao": "dublados,legendados",
      "pagina": 9,
      "total_episodios": 12,
      "link_video": "https://animefire.plus/video/fuufu-ijou-koibito-miman-dublado"
    }
  ],
  "pagination": {
    "current_page": 21,
    "per_page": 20,
    "total_items": 1905,
    "total_pages": 96,
    "has_next": true,
    "has_prev": true
  }
}
