{
  "message": "Animes com rating entre 7 e 8",
  "rating_range": {
    "min": 7,
    "max": 8
  },
  "data": [
    {
      "id": 3039,
      "nome": "Promare: Lio-hen",
      "link": "https://animefire.plus/animes/promare-lio-hen-todos-os-episodios",
      "texto_original": "Promare: Lio-hen",
      "rating": 7.06,
      "classificacao_etaria": "A14",
      "imagem_original": "https://animefire.plus/img/animes/promare-lio-hen.webp",
      "imagem_pasta": "https://animefire.plus/img/animes/promare-lio-hen/",
      "secao": "legendados",
      "pagina": 90,
      "total_episodios": 0,
      "link_video": "https://animefire.plus/video/promare-lio-hen"
    },
    {
      "id": 3041,
      "nome": "Psycho-Pass 2",
      "link": "https://animefire.plus/animes/psycho-pass-2-todos-os-episodios",
      "texto_original": "Psycho-Pass 2",
      "rating": 7.51,
      "classificacao_etaria": "A16",
      "imagem_original": "https://animefire.plus/img/animes/psycho-pass-2.webp",
      "imagem_pasta": "https://animefire.plus/img/animes/psycho-pass-2/",
      "secao": "legendados",
      "pagina": 142,
      "total_episodios": 0,
      "link_video": "https://animefire.plus/video/psycho-pass-2"
    },
    {
      "id": 3042,
      "nome": "Psycho-Pass 3",
      "link": "https://animefire.plus/animes/psycho-pass-3-todos-os-episodios",
      "texto_original": "Psycho-Pass 3",
      "rating": 7.54,
      "classificacao_etaria": "A16",
      "imagem_original": "https://animefire.plus/img/animes/psycho-pass-3.webp",
      "imagem_pasta": "https://animefire.plus/img/animes/psycho-pass-3/",
      "secao": "legendados",
      "pagina": 95,
      "total_episodios": 0,
      "link_video": "https://animefire.plus/video/psycho-pass-3"
    },
    {
      "id": 3043,
      "nome": "Puchi Pri*Yucie",
      "link": "https://animefire.plus/animes/puchi-pri-yucie-todos-os-episodios",
      "texto_original": "Puchi Pri*Yucie",
      "rating": 7.45,
      "classificacao_etaria": null,
      "imagem_original": "https://animefire.plus/img/animes/puchi-pri-yucie.webp",
      "imagem_pasta": "https://animefire.plus/img/animes/puchi-pri-yucie/",
      "secao": "legendados",
      "pagina": 85,
      "total_episodios": 26,
      "link_video": "https://animefire.plus/video/puchi-pri-yucie"
    },
    {
      "id": 3045,
      "nome": "Pumpkin Scissors",
      "link": "https://animefire.plus/animes/pumpkin-scissors-todos-os-episodios",
      "texto_original": "Pumpkin Scissors",
      "rating": 7.21,
      "classificacao_etaria": "A16",
      "imagem_original": "https://animefire.plus/img/animes/pumpkin-scissors.webp",
      "imagem_pasta": "https://animefire.plus/img/animes/pumpkin-scissors/",
      "secao": "legendados",
      "pagina": 115,
      "total_episodios": 0,
      "link_video": "https://animefire.plus/video/pumpkin-scissors"
    },
    {
      "id": 3046,
      "nome": "Punch Line",
      "link": "https://animefire.plus/animes/punch-line-todos-os-episodios",
      "texto_original": "Punch Line",
      "rating": 7.05,
      "classificacao_etaria": "A14",
      "imagem_original": "https://animefire.plus/img/animes/punch-line.webp",
      "imagem_pasta": "https://animefire.plus/img/animes/punch-line/",
      "secao": "legendados",
      "pagina": 64,
      "total_episodios": 12,
      "link_video": "https://animefire.plus/video/punch-line"
    },
    {
      "id": 3048,
      "nome": "Puniru wa Kawaii Slime 2nd Season",
      "link": "https://animefire.plus/animes/puniru-wa-kawaii-slime-2nd-season-todos-os-episodios",
      "texto_original": "Puniru wa Kawaii Slime 2nd Season",
      "rating": 7.03,
      "classificacao_etaria": "A14",
      "imagem_original": "https://animefire.plus/img/animes/puniru-wa-kawaii-slime-2nd-season.webp",
      "imagem_pasta": "https://animefire.plus/img/animes/puniru-wa-kawaii-slime-2nd-season/",
      "secao": "legendados,lancamentos",
      "pagina": 1,
      "total_episodios": 5,
      "link_video": "https://animefire.plus/video/puniru-wa-kawaii-slime-2nd-season"
    },
    {
      "id": 3053,
      "nome": "Quanzhi Fashi",
      "link": "https://animefire.plus/animes/quanzhi-fashi-todos-os-episodios",
      "texto_original": "Quanzhi Fashi",
      "rating": 7.47,
      "classificacao_etaria": "A14",
      "imagem_original": "https://animefire.plus/img/animes/quanzhi-fashi.webp",
      "imagem_pasta": "https://animefire.plus/img/animes/quanzhi-fashi/",
      "secao": "legendados",
      "pagina": 104,
      "total_episodios": 42,
      "link_video": "https://animefire.plus/video/quanzhi-fashi"
    },
    {
      "id": 3055,
      "nome": "Quanzhi Fashi 3rd Season",
      "link": "https://animefire.plus/animes/quanzhi-fashi-3rd-season-todos-os-episodios",
      "texto_original": "Quanzhi Fashi 3rd Season",
      "rating": 7.56,
      "classificacao_etaria": "A14",
      "imagem_original": "https://animefire.plus/img/animes/quanzhi-fashi-3rd-season.webp",
      "imagem_pasta": "https://animefire.plus/img/animes/quanzhi-fashi-3rd-season/",
      "secao": "legendados",
      "pagina": 85,
      "total_episodios": 12,
      "link_video": "https://animefire.plus/video/quanzhi-fashi-3rd-season"
    },
    {
      "id": 3056,
      "nome": "Quanzhi Fashi 4th Season",
      "link": "https://animefire.plus/animes/quanzhi-fashi-4th-season-todos-os-episodios",
      "texto_original": "Quanzhi Fashi 4th Season",
      "rating": 7.34,
      "classificacao_etaria": "A14",
      "imagem_original": "https://animefire.plus/img/animes/quanzhi-fashi-4th-season.webp",
      "imagem_pasta": "https://animefire.plus/img/animes/quanzhi-fashi-4th-season/",
      "secao": "legendados",
      "pagina": 61,
      "total_episodios": 12,
      "link_video": "https://animefire.plus/video/quanzhi-fashi-4th-season"
    },
    {
      "id": 3064,
      "nome": "Radiant 2nd Season",
      "link": "https://animefire.plus/animes/radiant-2nd-season-todos-os-episodios",
      "texto_original": "Radiant 2nd Season",
      "rating": 7.63,
      "classificacao_etaria": "A14",
      "imagem_original": "https://animefire.plus/img/animes/radiant-2nd-season.webp",
      "imagem_pasta": "https://animefire.plus/img/animes/radiant-2nd-season/",
      "secao": "legendados",
      "pagina": 111,
      "total_episodios": 21,
      "link_video": "https://animefire.plus/video/radiant-2nd-season"
    },
    {
      "id": 3065,
      "nome": "Radiant 2nd Season (Dublado)",
      "link": "https://animefire.plus/animes/radiant-2-dublado-todos-os-episodios",
      "texto_original": "Radiant 2nd Season (Dublado)",
      "rating": 7.62,
      "classificacao_etaria": "A14",
      "imagem_original": "https://animefire.plus/img/animes/radiant-2.webp",
      "imagem_pasta": "https://animefire.plus/img/animes/radiant-2/",
      "secao": "dublados",
      "pagina": 18,
      "total_episodios": 21,
      "link_video": "https://animefire.plus/video/radiant-2-dublado"
    },
    {
      "id": 3066,
      "nome": "Ragna Crimson (Dublado)",
      "link": "https://animefire.plus/animes/ragna-crimson-dublado-todos-os-episodios",
      "texto_original": "Ragna Crimson (Dublado)",
      "rating": 7.55,
      "classificacao_etaria": "A14",
      "imagem_original": "https://animefire.plus/img/animes/ragna-crimson.webp",
      "imagem_pasta": "https://animefire.plus/img/animes/ragna-crimson/",
      "secao": "dublados,legendados,lancamentos",
      "pagina": 5,
      "total_episodios": 24,
      "link_video": "https://animefire.plus/video/ragna-crimson-dublado"
    },
    {
      "id": 3068,
      "nome": "RahXephon",
      "link": "https://animefire.plus/animes/rahxephon-todos-os-episodios",
      "texto_original": "RahXephon",
      "rating": 7.48,
      "classificacao_etaria": "A14",
      "imagem_original": "https://animefire.plus/img/animes/rahxephon.webp",
      "imagem_pasta": "https://animefire.plus/img/animes/rahxephon/",
      "secao": "legendados",
      "pagina": 115,
      "total_episodios": 26,
      "link_video": "https://animefire.plus/video/rahxephon"
    },
    {
      "id": 3071,
      "nome": "Rain Town",
      "link": "https://animefire.plus/animes/rain-town-todos-os-episodios",
      "texto_original": "Rain Town",
      "rating": 7.22,
      "classificacao_etaria": null,
      "imagem_original": "https://animefire.plus/img/animes/rain-town.webp",
      "imagem_pasta": "https://animefire.plus/img/animes/rain-town/",
      "secao": "legendados",
      "pagina": 69,
      "total_episodios": 1,
      "link_video": "https://animefire.plus/video/rain-town"
    },
    {
      "id": 3073,
      "nome": "Raise wa Tanin ga Ii",
      "link": "https://animefire.plus/animes/raise-wa-tanin-ga-ii-todos-os-episodios",
      "texto_original": "Raise wa Tanin ga Ii",
      "rating": 7.18,
      "classificacao_etaria": "A14",
      "imagem_original": "https://animefire.plus/img/animes/raise-wa-tanin-ga-ii.webp",
      "imagem_pasta": "https://animefire.plus/img/animes/raise-wa-tanin-ga-ii/",
      "secao": "legendados",
      "pagina": 9,
      "total_episodios": 12,
      "link_video": "https://animefire.plus/video/raise-wa-tanin-ga-ii"
    },
    {
      "id": 3074,
      "nome": "Rakudai Kishi No Cavalry",
      "link": "https://animefire.plus/animes/rakudai-kishi-no-cavalry-todos-os-episodios",
      "texto_original": "Rakudai Kishi No Cavalry",
      "rating": 7.71,
      "classificacao_etaria": "A16",
      "imagem_original": "https://animefire.plus/img/animes/rakudai-kishi-no-cavalry.webp",
      "imagem_pasta": "https://animefire.plus/img/animes/rakudai-kishi-no-cavalry/",
      "secao": "legendados",
      "pagina": 99,
      "total_episodios": 12,
      "link_video": "https://animefire.plus/video/rakudai-kishi-no-cavalry"
    },
    {
      "id": 3076,
      "nome": "Ramen Akaneko",
      "link": "https://animefire.plus/animes/ramen-akaneko-todos-os-episodios",
      "texto_original": "Ramen Akaneko",
      "rating": 7.38,
      "classificacao_etaria": "A14",
      "imagem_original": "https://animefire.plus/img/animes/ramen-akaneko.webp",
      "imagem_pasta": "https://animefire.plus/img/animes/ramen-akaneko/",
      "secao": "legendados",
      "pagina": 12,
      "total_episodios": 12,
      "link_video": "https://animefire.plus/video/ramen-akaneko"
    },
    {
      "id": 3080,
      "nome": "Ranma ½ (Dublado)",
      "link": "https://animefire.plus/animes/ranma-dublado-todos-os-episodios",
      "texto_original": "Ranma ½ (Dublado)",
      "rating": 7.78,
      "classificacao_etaria": "A18",
      "imagem_original": "https://animefire.plus/img/animes/ranma.webp",
      "imagem_pasta": "https://animefire.plus/img/animes/ranma/",
      "secao": "dublados",
      "pagina": 23,
      "total_episodios": 161,
      "link_video": "https://animefire.plus/video/ranma-dublado"
    },
    {
      "id": 3083,
      "nome": "RD Sennou Chousashitsu",
      "link": "https://animefire.plus/animes/rd-sennou-chousashitsu-todos-os-episodios",
      "texto_original": "RD Sennou Chousashitsu",
      "rating": 7.17,
      "classificacao_etaria": "A16",
      "imagem_original": "https://animefire.plus/img/animes/rd-sennou-chousashitsu.webp",
      "imagem_pasta": "https://animefire.plus/img/animes/rd-sennou-chousashitsu/",
      "secao": "legendados",
      "pagina": 161,
      "total_episodios": 26,
      "link_video": "https://animefire.plus/video/rd-sennou-chousashitsu"
    }
  ],
  "pagination": {
    "current_page": 65,
    "per_page": 20,
    "total_items": 1905,
    "total_pages": 96,
    "has_next": true,
    "has_prev": true
  }
}
