{
  "message": "Animes com rating entre 7 e 8",
  "rating_range": {
    "min": 7,
    "max": 8
  },
  "data": [
    {
      "id": 3908,
      "nome": "Tondemo Skill de Isekai Hourou Meshi",
      "link": "https://animefire.plus/animes/tondemo-skill-de-isekai-hourou-meshi-todos-os-episodios",
      "texto_original": "Tondemo Skill de Isekai Hourou Meshi",
      "rating": 7.64,
      "classificacao_etaria": "A14",
      "imagem_original": "https://animefire.plus/img/animes/tondemo-skill-de-isekai-hourou-meshi.webp",
      "imagem_pasta": "https://animefire.plus/img/animes/tondemo-skill-de-isekai-hourou-meshi/",
      "secao": "legendados",
      "pagina": 26,
      "total_episodios": 12,
      "link_video": "https://animefire.plus/video/tondemo-skill-de-isekai-hourou-meshi"
    },
    {
      "id": 3911,
      "nome": "Tonikaku Kawaii (Dublado)",
      "link": "https://animefire.plus/animes/tonikaku-kawaii-dublado-todos-os-episodios",
      "texto_original": "Tonikaku Kawaii (Dublado)",
      "rating": 7.96,
      "classificacao_etaria": "A14",
      "imagem_original": "https://animefire.plus/img/animes/tonikaku-kawaii.webp",
      "imagem_pasta": "https://animefire.plus/img/animes/tonikaku-kawaii/",
      "secao": "dublados,legendados,lancamentos",
      "pagina": 19,
      "total_episodios": 11,
      "link_video": "https://animefire.plus/video/tonikaku-kawaii-dublado"
    },
    {
      "id": 3912,
      "nome": "Tonikaku Kawaii 2nd Season (Dublado)",
      "link": "https://animefire.plus/animes/tonikaku-kawaii-2nd-season-dublado-todos-os-episodios",
      "texto_original": "Tonikaku Kawaii 2nd Season (Dublado)",
      "rating": 7.62,
      "classificacao_etaria": "A14",
      "imagem_original": "https://animefire.plus/img/animes/tonikaku-kawaii-2nd-season.webp",
      "imagem_pasta": "https://animefire.plus/img/animes/tonikaku-kawaii-2nd-season/",
      "secao": "dublados,legendados",
      "pagina": 7,
      "total_episodios": 12,
      "link_video": "https://animefire.plus/video/tonikaku-kawaii-2nd-season-dublado"
    },
    {
      "id": 3913,
      "nome": "Tonikaku Kawaii: Joshikou-hen (Dublado)",
      "link": "https://animefire.plus/animes/tonikaku-kawaii-joshikou-hen-dublado-todos-os-episodios",
      "texto_original": "Tonikaku Kawaii: Joshikou-hen (Dublado)",
      "rating": 7.76,
      "classificacao_etaria": "A14",
      "imagem_original": "https://animefire.plus/img/animes/tonikaku-kawaii-joshikou-hen.webp",
      "imagem_pasta": "https://animefire.plus/img/animes/tonikaku-kawaii-joshikou-hen/",
      "secao": "dublados,legendados",
      "pagina": 7,
      "total_episodios": 4,
      "link_video": "https://animefire.plus/video/tonikaku-kawaii-joshikou-hen-dublado"
    },
    {
      "id": 3914,
      "nome": "Tonikaku Kawaii: Seifuku (Dublado)",
      "link": "https://animefire.plus/animes/tonikaku-kawaii-seifuku-dublado-todos-os-episodios",
      "texto_original": "Tonikaku Kawaii: Seifuku (Dublado)",
      "rating": 7.72,
      "classificacao_etaria": "A14",
      "imagem_original": "https://animefire.plus/img/animes/tonikaku-kawaii-seifuku.webp",
      "imagem_pasta": "https://animefire.plus/img/animes/tonikaku-kawaii-seifuku/",
      "secao": "dublados,legendados",
      "pagina": 6,
      "total_episodios": 1,
      "link_video": "https://animefire.plus/video/tonikaku-kawaii-seifuku-dublado"
    },
    {
      "id": 3916,
      "nome": "Top wo Nerae 2! Diebuster",
      "link": "https://animefire.plus/animes/top-wo-nerae-2-diebuster-todos-os-episodios",
      "texto_original": "Top wo Nerae 2! Diebuster",
      "rating": 7.66,
      "classificacao_etaria": "A18",
      "imagem_original": "https://animefire.plus/img/animes/top-wo-nerae-2-diebuster.webp",
      "imagem_pasta": "https://animefire.plus/img/animes/top-wo-nerae-2-diebuster/",
      "secao": "legendados",
      "pagina": 41,
      "total_episodios": 6,
      "link_video": "https://animefire.plus/video/top-wo-nerae-2-diebuster"
    },
    {
      "id": 3917,
      "nome": "Top wo Nerae! Gunbuster",
      "link": "https://animefire.plus/animes/top-wo-nerae-gunbuster-todos-os-episodios",
      "texto_original": "Top wo Nerae! Gunbuster",
      "rating": 7.89,
      "classificacao_etaria": "A18",
      "imagem_original": "https://animefire.plus/img/animes/top-wo-nerae-gunbuster.webp",
      "imagem_pasta": "https://animefire.plus/img/animes/top-wo-nerae-gunbuster/",
      "secao": "legendados",
      "pagina": 53,
      "total_episodios": 1,
      "link_video": "https://animefire.plus/video/top-wo-nerae-gunbuster"
    },
    {
      "id": 3919,
      "nome": "Toradora!: Bentou no Gokui",
      "link": "https://animefire.plus/animes/toradora-bentou-no-gokui-todos-os-episodios",
      "texto_original": "Toradora!: Bentou no Gokui",
      "rating": 7.48,
      "classificacao_etaria": "A14",
      "imagem_original": "https://animefire.plus/img/animes/toradora-bentou-no-gokui.webp",
      "imagem_pasta": "https://animefire.plus/img/animes/toradora-bentou-no-gokui/",
      "secao": "legendados",
      "pagina": 71,
      "total_episodios": 1,
      "link_video": "https://animefire.plus/video/toradora-bentou-no-gokui"
    },
    {
      "id": 3921,
      "nome": "Toriko",
      "link": "https://animefire.plus/animes/toriko-todos-os-episodios",
      "texto_original": "Toriko",
      "rating": 7.61,
      "classificacao_etaria": "A14",
      "imagem_original": "https://animefire.plus/img/animes/toriko.webp",
      "imagem_pasta": "https://animefire.plus/img/animes/toriko/",
      "secao": "legendados",
      "pagina": 74,
      "total_episodios": 18,
      "link_video": "https://animefire.plus/video/toriko"
    },
    {
      "id": 3922,
      "nome": "Toshokan Sensou",
      "link": "https://animefire.plus/animes/toshokan-sensou-todos-os-episodios",
      "texto_original": "Toshokan Sensou",
      "rating": 7.54,
      "classificacao_etaria": "A14",
      "imagem_original": "https://animefire.plus/img/animes/toshokan-sensou.webp",
      "imagem_pasta": "https://animefire.plus/img/animes/toshokan-sensou/",
      "secao": "legendados",
      "pagina": 102,
      "total_episodios": 12,
      "link_video": "https://animefire.plus/video/toshokan-sensou"
    },
    {
      "id": 3923,
      "nome": "Totsukuni no Shoujo",
      "link": "https://animefire.plus/animes/totsukuni-no-shoujo-todos-os-episodios",
      "texto_original": "Totsukuni no Shoujo",
      "rating": 7.5,
      "classificacao_etaria": null,
      "imagem_original": "https://animefire.plus/img/animes/totsukuni-no-shoujo.webp",
      "imagem_pasta": "https://animefire.plus/img/animes/totsukuni-no-shoujo/",
      "secao": "legendados",
      "pagina": 87,
      "total_episodios": 1,
      "link_video": "https://animefire.plus/video/totsukuni-no-shoujo"
    },
    {
      "id": 3924,
      "nome": "Tougen Anki (Dublado)",
      "link": "https://animefire.plus/animes/tougen-anki-dublado-todos-os-episodios",
      "texto_original": "Tougen Anki (Dublado)",
      "rating": 7.04,
      "classificacao_etaria": "A14",
      "imagem_original": "https://animefire.plus/img/animes/tougen-anki.webp",
      "imagem_pasta": "https://animefire.plus/img/animes/tougen-anki/",
      "secao": "dublados,legendados,lancamentos",
      "pagina": 1,
      "total_episodios": 4,
      "link_video": "https://animefire.plus/video/tougen-anki-dublado"
    },
    {
      "id": 3925,
      "nome": "Touhai Densetsu Akagi: Yami ni Maiorita Tensai",
      "link": "https://animefire.plus/animes/touhai-densetsu-akagi-yami-ni-maiorita-tensai-todos-os-episodios",
      "texto_original": "Touhai Densetsu Akagi: Yami ni Maiorita Tensai",
      "rating": 7.98,
      "classificacao_etaria": "A16",
      "imagem_original": "https://animefire.plus/img/animes/touhai-densetsu-akagi-yami-ni-maiorita-tensai.webp",
      "imagem_pasta": "https://animefire.plus/img/animes/touhai-densetsu-akagi-yami-ni-maiorita-tensai/",
      "secao": "legendados",
      "pagina": 169,
      "total_episodios": 26,
      "link_video": "https://animefire.plus/video/touhai-densetsu-akagi-yami-ni-maiorita-tensai"
    },
    {
      "id": 3936,
      "nome": "Trigun Stampede (Dublado)",
      "link": "https://animefire.plus/animes/trigun-stampede-dublado-todos-os-episodios",
      "texto_original": "Trigun Stampede (Dublado)",
      "rating": 7.83,
      "classificacao_etaria": "A14",
      "imagem_original": "https://animefire.plus/img/animes/trigun-stampede.webp",
      "imagem_pasta": "https://animefire.plus/img/animes/trigun-stampede/",
      "secao": "dublados,legendados",
      "pagina": 7,
      "total_episodios": 12,
      "link_video": "https://animefire.plus/video/trigun-stampede-dublado"
    },
    {
      "id": 3937,
      "nome": "Trillion Game",
      "link": "https://animefire.plus/animes/trillion-game-todos-os-episodios",
      "texto_original": "Trillion Game",
      "rating": 7.56,
      "classificacao_etaria": "A14",
      "imagem_original": "https://animefire.plus/img/animes/trillion-game.webp",
      "imagem_pasta": "https://animefire.plus/img/animes/trillion-game/",
      "secao": "legendados",
      "pagina": 9,
      "total_episodios": 26,
      "link_video": "https://animefire.plus/video/trillion-game"
    },
    {
      "id": 3938,
      "nome": "Trinity Seven",
      "link": "https://animefire.plus/animes/trinity-seven-todos-os-episodios",
      "texto_original": "Trinity Seven",
      "rating": 7.37,
      "classificacao_etaria": "A14",
      "imagem_original": "https://animefire.plus/img/animes/trinity-seven.webp",
      "imagem_pasta": "https://animefire.plus/img/animes/trinity-seven/",
      "secao": "legendados",
      "pagina": 100,
      "total_episodios": 12,
      "link_video": "https://animefire.plus/video/trinity-seven"
    },
    {
      "id": 3939,
      "nome": "Tropical-Rouge! Precure",
      "link": "https://animefire.plus/animes/tropical-rouge-precure-todos-os-episodios",
      "texto_original": "Tropical-Rouge! Precure",
      "rating": 7.4,
      "classificacao_etaria": null,
      "imagem_original": "https://animefire.plus/img/animes/tropical-rouge-precure.webp",
      "imagem_pasta": "https://animefire.plus/img/animes/tropical-rouge-precure/",
      "secao": "legendados",
      "pagina": 48,
      "total_episodios": 18,
      "link_video": "https://animefire.plus/video/tropical-rouge-precure"
    },
    {
      "id": 3940,
      "nome": "True Tears",
      "link": "https://animefire.plus/animes/true-tears-todos-os-episodios",
      "texto_original": "True Tears",
      "rating": 7.45,
      "classificacao_etaria": "A14",
      "imagem_original": "https://animefire.plus/img/animes/true-tears.webp",
      "imagem_pasta": "https://animefire.plus/img/animes/true-tears/",
      "secao": "legendados",
      "pagina": 168,
      "total_episodios": 13,
      "link_video": "https://animefire.plus/video/true-tears"
    },
    {
      "id": 3942,
      "nome": "Tsubasa Chronicle",
      "link": "https://animefire.plus/animes/tsubasa-chronicle-todos-os-episodios",
      "texto_original": "Tsubasa Chronicle",
      "rating": 7.62,
      "classificacao_etaria": "A14",
      "imagem_original": "https://animefire.plus/img/animes/tsubasa-chronicle.webp",
      "imagem_pasta": "https://animefire.plus/img/animes/tsubasa-chronicle/",
      "secao": "legendados",
      "pagina": 162,
      "total_episodios": 52,
      "link_video": "https://animefire.plus/video/tsubasa-chronicle"
    },
    {
      "id": 3945,
      "nome": "Tsue to Tsurugi no Wistoria",
      "link": "https://animefire.plus/animes/tsue-to-tsurugi-no-wistoria-todos-os-episodios",
      "texto_original": "Tsue to Tsurugi no Wistoria",
      "rating": 7.87,
      "classificacao_etaria": "A14",
      "imagem_original": "https://animefire.plus/img/animes/tsue-to-tsurugi-no-wistoria.webp",
      "imagem_pasta": "https://animefire.plus/img/animes/tsue-to-tsurugi-no-wistoria/",
      "secao": "legendados",
      "pagina": 13,
      "total_episodios": 12,
      "link_video": "https://animefire.plus/video/tsue-to-tsurugi-no-wistoria"
    }
  ],
  "pagination": {
    "current_page": 86,
    "per_page": 20,
    "total_items": 1905,
    "total_pages": 96,
    "has_next": true,
    "has_prev": true
  }
}
