{
  "message": "Animes com rating entre 7 e 8",
  "rating_range": {
    "min": 7,
    "max": 8
  },
  "data": [
    {
      "id": 1647,
      "nome": "Iriya no Sora, UFO no Natsu",
      "link": "https://animefire.plus/animes/iriya-no-sora-ufo-no-natsu-todos-os-episodios",
      "texto_original": "Iriya no Sora, UFO no Natsu",
      "rating": 7.01,
      "classificacao_etaria": "A18",
      "imagem_original": "https://animefire.plus/img/animes/iriya-no-sora-ufo-no-natsu.webp",
      "imagem_pasta": "https://animefire.plus/img/animes/iriya-no-sora-ufo-no-natsu/",
      "secao": "legendados",
      "pagina": 65,
      "total_episodios": 6,
      "link_video": "https://animefire.plus/video/iriya-no-sora-ufo-no-natsu"
    },
    {
      "id": 1649,
      "nome": "Irozuku Sekai no Ashita kara",
      "link": "https://animefire.plus/animes/irozuku-sekai-no-ashita-kara-todos-os-episodios",
      "texto_original": "Irozuku Sekai no Ashita kara",
      "rating": 7.64,
      "classificacao_etaria": "A14",
      "imagem_original": "https://animefire.plus/img/animes/irozuku-sekai-no-ashita-kara.webp",
      "imagem_pasta": "https://animefire.plus/img/animes/irozuku-sekai-no-ashita-kara/",
      "secao": "legendados",
      "pagina": 170,
      "total_episodios": 13,
      "link_video": "https://animefire.plus/video/irozuku-sekai-no-ashita-kara"
    },
    {
      "id": 1655,
      "nome": "Isekai Izakaya: Koto Aitheria no Izakaya Nobu",
      "link": "https://animefire.plus/animes/isekai-izakaya-koto-aitheria-no-izakaya-nobu-todos-os-episodios",
      "texto_original": "Isekai Izakaya: Koto Aitheria no Izakaya Nobu",
      "rating": 7.37,
      "classificacao_etaria": "A14",
      "imagem_original": "https://animefire.plus/img/animes/isekai-izakaya-koto-aitheria-no-izakaya-nobu.webp",
      "imagem_pasta": "https://animefire.plus/img/animes/isekai-izakaya-koto-aitheria-no-izakaya-nobu/",
      "secao": "legendados",
      "pagina": 106,
      "total_episodios": 24,
      "link_video": "https://animefire.plus/video/isekai-izakaya-koto-aitheria-no-izakaya-nobu"
    },
    {
      "id": 1656,
      "nome": "Isekai Maou to Shoukan Shoujo no Dorei Majutsu",
      "link": "https://animefire.plus/animes/isekai-maou-to-shoukan-shoujo-no-dorei-majutsu-todos-os-episodios",
      "texto_original": "Isekai Maou to Shoukan Shoujo no Dorei Majutsu",
      "rating": 7.27,
      "classificacao_etaria": "A14",
      "imagem_original": "https://animefire.plus/img/animes/isekai-maou-to-shoukan-shoujo-no-dorei-majutsu.webp",
      "imagem_pasta": "https://animefire.plus/img/animes/isekai-maou-to-shoukan-shoujo-no-dorei-majutsu/",
      "secao": "legendados",
      "pagina": 166,
      "total_episodios": 12,
      "link_video": "https://animefire.plus/video/isekai-maou-to-shoukan-shoujo-no-dorei-majutsu"
    },
    {
      "id": 1660,
      "nome": "Isekai Mokushiroku Mynoghra: Hametsu no Bunmei de Hajimeru Sekai Seifuku",
      "link": "https://animefire.plus/animes/isekai-mokushiroku-mynoghra-hametsu-no-bunmei-de-hajimeru-sekai-seifuku-todos-os-episodios",
      "texto_original": "Isekai Mokushiroku Mynoghra: Hametsu no Bunmei de Hajimeru Sekai Seifuku",
      "rating": 7,
      "classificacao_etaria": "A14",
      "imagem_original": "https://animefire.plus/img/animes/isekai-mokushiroku-mynoghra-hametsu-no-bunmei-de-hajimeru-sekai-seifuku.webp",
      "imagem_pasta": "https://animefire.plus/img/animes/isekai-mokushiroku-mynoghra-hametsu-no-bunmei-de-hajimeru-sekai-seifuku/",
      "secao": "legendados,lancamentos",
      "pagina": 3,
      "total_episodios": 5,
      "link_video": "https://animefire.plus/video/isekai-mokushiroku-mynoghra-hametsu-no-bunmei-de-hajimeru-sekai-seifuku"
    },
    {
      "id": 1661,
      "nome": "Isekai no Seikishi Monogatari",
      "link": "https://animefire.plus/animes/isekai-no-seikishi-monogatari-todos-os-episodios",
      "texto_original": "Isekai no Seikishi Monogatari",
      "rating": 7.97,
      "classificacao_etaria": "A18",
      "imagem_original": "https://animefire.plus/img/animes/isekai-no-seikishi-monogatari.webp",
      "imagem_pasta": "https://animefire.plus/img/animes/isekai-no-seikishi-monogatari/",
      "secao": "legendados",
      "pagina": 156,
      "total_episodios": 0,
      "link_video": "https://animefire.plus/video/isekai-no-seikishi-monogatari"
    },
    {
      "id": 1662,
      "nome": "Isekai Nonbiri Nouka",
      "link": "https://animefire.plus/animes/isekai-nonbiri-nouka-todos-os-episodios",
      "texto_original": "Isekai Nonbiri Nouka",
      "rating": 7.54,
      "classificacao_etaria": "A14",
      "imagem_original": "https://animefire.plus/img/animes/isekai-nonbiri-nouka.webp",
      "imagem_pasta": "https://animefire.plus/img/animes/isekai-nonbiri-nouka/",
      "secao": "legendados",
      "pagina": 27,
      "total_episodios": 12,
      "link_video": "https://animefire.plus/video/isekai-nonbiri-nouka"
    },
    {
      "id": 1663,
      "nome": "Isekai Ojisan",
      "link": "https://animefire.plus/animes/isekai-ojisan-todos-os-episodios",
      "texto_original": "Isekai Ojisan",
      "rating": 7.76,
      "classificacao_etaria": "A14",
      "imagem_original": "https://animefire.plus/img/animes/isekai-ojisan.webp",
      "imagem_pasta": "https://animefire.plus/img/animes/isekai-ojisan/",
      "secao": "legendados,lancamentos",
      "pagina": 31,
      "total_episodios": 12,
      "link_video": "https://animefire.plus/video/isekai-ojisan"
    },
    {
      "id": 1665,
      "nome": "Isekai Quartet",
      "link": "https://animefire.plus/animes/isekai-quartet-todos-os-episodios",
      "texto_original": "Isekai Quartet",
      "rating": 7.45,
      "classificacao_etaria": "A14",
      "imagem_original": "https://animefire.plus/img/animes/isekai-quartet.webp",
      "imagem_pasta": "https://animefire.plus/img/animes/isekai-quartet/",
      "secao": "legendados",
      "pagina": 151,
      "total_episodios": 0,
      "link_video": "https://animefire.plus/video/isekai-quartet"
    },
    {
      "id": 1666,
      "nome": "Isekai Quartet 2",
      "link": "https://animefire.plus/animes/isekai-quartet-2-todos-os-episodios",
      "texto_original": "Isekai Quartet 2",
      "rating": 7.38,
      "classificacao_etaria": "A14",
      "imagem_original": "https://animefire.plus/img/animes/isekai-quartet-2.webp",
      "imagem_pasta": "https://animefire.plus/img/animes/isekai-quartet-2/",
      "secao": "legendados",
      "pagina": 91,
      "total_episodios": 0,
      "link_video": "https://animefire.plus/video/isekai-quartet-2"
    },
    {
      "id": 1667,
      "nome": "Isekai Shikkaku",
      "link": "https://animefire.plus/animes/isekai-shikkaku-todos-os-episodios",
      "texto_original": "Isekai Shikkaku",
      "rating": 7.26,
      "classificacao_etaria": "A14",
      "imagem_original": "https://animefire.plus/img/animes/isekai-shikkaku.webp",
      "imagem_pasta": "https://animefire.plus/img/animes/isekai-shikkaku/",
      "secao": "legendados",
      "pagina": 13,
      "total_episodios": 12,
      "link_video": "https://animefire.plus/video/isekai-shikkaku"
    },
    {
      "id": 1668,
      "nome": "Isekai Shokudou",
      "link": "https://animefire.plus/animes/isekai-shokudou-todos-os-episodios",
      "texto_original": "Isekai Shokudou",
      "rating": 7.4,
      "classificacao_etaria": "A14",
      "imagem_original": "https://animefire.plus/img/animes/isekai-shokudou.webp",
      "imagem_pasta": "https://animefire.plus/img/animes/isekai-shokudou/",
      "secao": "legendados",
      "pagina": 131,
      "total_episodios": 12,
      "link_video": "https://animefire.plus/video/isekai-shokudou"
    },
    {
      "id": 1669,
      "nome": "Isekai Shokudou 2",
      "link": "https://animefire.plus/animes/isekai-shokudou-2-todos-os-episodios",
      "texto_original": "Isekai Shokudou 2",
      "rating": 7.69,
      "classificacao_etaria": "A14",
      "imagem_original": "https://animefire.plus/img/animes/isekai-shokudou-2.webp",
      "imagem_pasta": "https://animefire.plus/img/animes/isekai-shokudou-2/",
      "secao": "legendados",
      "pagina": 39,
      "total_episodios": 12,
      "link_video": "https://animefire.plus/video/isekai-shokudou-2"
    },
    {
      "id": 1674,
      "nome": "Isekai Yakkyoku",
      "link": "https://animefire.plus/animes/isekai-yakkyoku-todos-os-episodios",
      "texto_original": "Isekai Yakkyoku",
      "rating": 7.27,
      "classificacao_etaria": "A14",
      "imagem_original": "https://animefire.plus/img/animes/isekai-yakkyoku.webp",
      "imagem_pasta": "https://animefire.plus/img/animes/isekai-yakkyoku/",
      "secao": "legendados",
      "pagina": 31,
      "total_episodios": 12,
      "link_video": "https://animefire.plus/video/isekai-yakkyoku"
    },
    {
      "id": 1679,
      "nome": "Ishuzoku Reviewers",
      "link": "https://animefire.plus/animes/ishuzoku-reviewers-todos-os-episodios",
      "texto_original": "Ishuzoku Reviewers",
      "rating": 7.58,
      "classificacao_etaria": "A18",
      "imagem_original": "https://animefire.plus/img/animes/ishuzoku-reviewers.webp",
      "imagem_pasta": "https://animefire.plus/img/animes/ishuzoku-reviewers/",
      "secao": "legendados",
      "pagina": 92,
      "total_episodios": 0,
      "link_video": "https://animefire.plus/video/ishuzoku-reviewers"
    },
    {
      "id": 1683,
      "nome": "Isshuukan Friends.",
      "link": "https://animefire.plus/animes/isshuukan-friends-todos-os-episodios",
      "texto_original": "Isshuukan Friends.",
      "rating": 7.63,
      "classificacao_etaria": "A14",
      "imagem_original": "https://animefire.plus/img/animes/isshuukan-friends.webp",
      "imagem_pasta": "https://animefire.plus/img/animes/isshuukan-friends/",
      "secao": "legendados",
      "pagina": 126,
      "total_episodios": 12,
      "link_video": "https://animefire.plus/video/isshuukan-friends"
    },
    {
      "id": 1685,
      "nome": "Itai no wa Iya nano de Bougyoryoku ni Kyokufuri Shitai to Omoimasu.",
      "link": "https://animefire.plus/animes/itai-no-wa-iya-nano-de-bougyoryoku-ni-kyokufuri-shitai-to-omoimasu-todos-os-episodios",
      "texto_original": "Itai no wa Iya nano de Bougyoryoku ni Kyokufuri Shitai to Omoimasu.",
      "rating": 7.59,
      "classificacao_etaria": "A14",
      "imagem_original": "https://animefire.plus/img/animes/itai-no-wa-iya-nano-de-bougyoryoku-ni-kyokufuri-shitai-to-omoimasu.webp",
      "imagem_pasta": "https://animefire.plus/img/animes/itai-no-wa-iya-nano-de-bougyoryoku-ni-kyokufuri-shitai-to-omoimasu/",
      "secao": "legendados",
      "pagina": 93,
      "total_episodios": 10,
      "link_video": "https://animefire.plus/video/itai-no-wa-iya-nano-de-bougyoryoku-ni-kyokufuri-shitai-to-omoimasu"
    },
    {
      "id": 1686,
      "nome": "Itai no wa Iya nano de Bougyoryoku ni Kyokufuri Shitai to Omoimasu. 2",
      "link": "https://animefire.plus/animes/itai-no-wa-iya-nano-de-bougyoryoku-ni-kyokufuri-shitai-to-omoimasu-2-todos-os-episodios",
      "texto_original": "Itai no wa Iya nano de Bougyoryoku ni Kyokufuri Shitai to Omoimasu. 2",
      "rating": 7.22,
      "classificacao_etaria": "A14",
      "imagem_original": "https://animefire.plus/img/animes/itai-no-wa-iya-nano-de-bougyoryoku-ni-kyokufuri-shitai-to-omoimasu-2.webp",
      "imagem_pasta": "https://animefire.plus/img/animes/itai-no-wa-iya-nano-de-bougyoryoku-ni-kyokufuri-shitai-to-omoimasu-2/",
      "secao": "legendados",
      "pagina": 28,
      "total_episodios": 12,
      "link_video": "https://animefire.plus/video/itai-no-wa-iya-nano-de-bougyoryoku-ni-kyokufuri-shitai-to-omoimasu-2"
    },
    {
      "id": 1687,
      "nome": "Itazura na Kiss",
      "link": "https://animefire.plus/animes/itazura-na-kiss-todos-os-episodios",
      "texto_original": "Itazura na Kiss",
      "rating": 7.61,
      "classificacao_etaria": "A14",
      "imagem_original": "https://animefire.plus/img/animes/itazura-na-kiss.webp",
      "imagem_pasta": "https://animefire.plus/img/animes/itazura-na-kiss/",
      "secao": "legendados",
      "pagina": 80,
      "total_episodios": 25,
      "link_video": "https://animefire.plus/video/itazura-na-kiss"
    },
    {
      "id": 1692,
      "nome": "Itsudatte Bokura no Koi wa 10 cm Datta.",
      "link": "https://animefire.plus/animes/itsudatte-bokura-no-koi-wa-10-cm-datta-todos-os-episodios",
      "texto_original": "Itsudatte Bokura no Koi wa 10 cm Datta.",
      "rating": 7.65,
      "classificacao_etaria": "A14",
      "imagem_original": "https://animefire.plus/img/animes/itsudatte-bokura-no-koi-wa-10-cm-datta.webp",
      "imagem_pasta": "https://animefire.plus/img/animes/itsudatte-bokura-no-koi-wa-10-cm-datta/",
      "secao": "legendados",
      "pagina": 106,
      "total_episodios": 6,
      "link_video": "https://animefire.plus/video/itsudatte-bokura-no-koi-wa-10-cm-datta"
    }
  ],
  "pagination": {
    "current_page": 35,
    "per_page": 20,
    "total_items": 1905,
    "total_pages": 96,
    "has_next": true,
    "has_prev": true
  }
}
