{
  "message": "Animes com rating entre 7 e 8",
  "rating_range": {
    "min": 7,
    "max": 8
  },
  "data": [
    {
      "id": 1802,
      "nome": "Kaibutsu Oujo (OVA)",
      "link": "https://animefire.plus/animes/kaibutsu-oujo-ova-todos-os-episodios",
      "texto_original": "Kaibutsu Oujo (OVA)",
      "rating": 7.1,
      "classificacao_etaria": "A16",
      "imagem_original": "https://animefire.plus/img/animes/kaibutsu-oujo-ova.webp",
      "imagem_pasta": "https://animefire.plus/img/animes/kaibutsu-oujo-ova/",
      "secao": "legendados",
      "pagina": 71,
      "total_episodios": 1,
      "link_video": "https://animefire.plus/video/kaibutsu-oujo-ova"
    },
    {
      "id": 1805,
      "nome": "Kaidan Restaurant",
      "link": "https://animefire.plus/animes/kaidan-restaurant-todos-os-episodios",
      "texto_original": "Kaidan Restaurant",
      "rating": 7.33,
      "classificacao_etaria": "A10",
      "imagem_original": "https://animefire.plus/img/animes/kaidan-restaurant.webp",
      "imagem_pasta": "https://animefire.plus/img/animes/kaidan-restaurant/",
      "secao": "legendados",
      "pagina": 134,
      "total_episodios": 19,
      "link_video": "https://animefire.plus/video/kaidan-restaurant"
    },
    {
      "id": 1810,
      "nome": "Kaijuu 8-gou 2nd Season (Dublado)",
      "link": "https://animefire.plus/animes/kaijuu-8-gou-2nd-season-dublado-todos-os-episodios",
      "texto_original": "Kaijuu 8-gou 2nd Season (Dublado)",
      "rating": 7.92,
      "classificacao_etaria": "A14",
      "imagem_original": "https://animefire.plus/img/animes/kaijuu-8-gou-2nd-season.webp",
      "imagem_pasta": "https://animefire.plus/img/animes/kaijuu-8-gou-2nd-season/",
      "secao": "dublados,legendados,lancamentos",
      "pagina": 1,
      "total_episodios": 3,
      "link_video": "https://animefire.plus/video/kaijuu-8-gou-2nd-season-dublado"
    },
    {
      "id": 1814,
      "nome": "Kaiko sareta Ankoku Heishi (30-dai) no Slow na Second Life",
      "link": "https://animefire.plus/animes/kaiko-sareta-ankoku-heishi-30-dai-no-slow-na-second-life-todos-os-episodios",
      "texto_original": "Kaiko sareta Ankoku Heishi (30-dai) no Slow na Second Life",
      "rating": 7.01,
      "classificacao_etaria": "A14",
      "imagem_original": "https://animefire.plus/img/animes/kaiko-sareta-ankoku-heishi-30-dai-no-slow-na-second-life.webp",
      "imagem_pasta": "https://animefire.plus/img/animes/kaiko-sareta-ankoku-heishi-30-dai-no-slow-na-second-life/",
      "secao": "legendados",
      "pagina": 27,
      "total_episodios": 12,
      "link_video": "https://animefire.plus/video/kaiko-sareta-ankoku-heishi-30-dai-no-slow-na-second-life"
    },
    {
      "id": 1816,
      "nome": "Kaizoku Oujo",
      "link": "https://animefire.plus/animes/kaizoku-oujo-todos-os-episodios",
      "texto_original": "Kaizoku Oujo",
      "rating": 7.07,
      "classificacao_etaria": "A14",
      "imagem_original": "https://animefire.plus/img/animes/kaizoku-oujo.webp",
      "imagem_pasta": "https://animefire.plus/img/animes/kaizoku-oujo/",
      "secao": "legendados",
      "pagina": 39,
      "total_episodios": 12,
      "link_video": "https://animefire.plus/video/kaizoku-oujo"
    },
    {
      "id": 1817,
      "nome": "Kakegurui (Dublado)",
      "link": "https://animefire.plus/animes/kakegurui-dublado-todos-os-episodios",
      "texto_original": "Kakegurui (Dublado)",
      "rating": 7.55,
      "classificacao_etaria": "A16",
      "imagem_original": "https://animefire.plus/img/animes/kakegurui.webp",
      "imagem_pasta": "https://animefire.plus/img/animes/kakegurui/",
      "secao": "dublados,legendados",
      "pagina": 26,
      "total_episodios": 12,
      "link_video": "https://animefire.plus/video/kakegurui-dublado"
    },
    {
      "id": 1818,
      "nome": "Kakegurui Twin (Dublado)",
      "link": "https://animefire.plus/animes/kakegurui-twin-dublado-todos-os-episodios",
      "texto_original": "Kakegurui Twin (Dublado)",
      "rating": 7.18,
      "classificacao_etaria": "A14",
      "imagem_original": "https://animefire.plus/img/animes/kakegurui-twin.webp",
      "imagem_pasta": "https://animefire.plus/img/animes/kakegurui-twin/",
      "secao": "dublados,legendados,lancamentos",
      "pagina": 10,
      "total_episodios": 6,
      "link_video": "https://animefire.plus/video/kakegurui-twin-dublado"
    },
    {
      "id": 1819,
      "nome": "Kakegurui××",
      "link": "https://animefire.plus/animes/kakegurui-xx-todos-os-episodios",
      "texto_original": "Kakegurui××",
      "rating": 7.33,
      "classificacao_etaria": "A16",
      "imagem_original": "https://animefire.plus/img/animes/kakegurui-xx.webp",
      "imagem_pasta": "https://animefire.plus/img/animes/kakegurui-xx/",
      "secao": "legendados",
      "pagina": 167,
      "total_episodios": 6,
      "link_video": "https://animefire.plus/video/kakegurui-xx"
    },
    {
      "id": 1820,
      "nome": "Kakegurui×× (Dublado)",
      "link": "https://animefire.plus/animes/kakegurui-2nd-season-dublado-todos-os-episodios",
      "texto_original": "Kakegurui×× (Dublado)",
      "rating": 7.4,
      "classificacao_etaria": "A16",
      "imagem_original": "https://animefire.plus/img/animes/kakegurui-2nd-season.webp",
      "imagem_pasta": "https://animefire.plus/img/animes/kakegurui-2nd-season/",
      "secao": "dublados",
      "pagina": 21,
      "total_episodios": 12,
      "link_video": "https://animefire.plus/video/kakegurui-2nd-season-dublado"
    },
    {
      "id": 1822,
      "nome": "Kakkou no Iinazuke Season 2",
      "link": "https://animefire.plus/animes/kakkou-no-iinazuke-season-2-todos-os-episodios",
      "texto_original": "Kakkou no Iinazuke Season 2",
      "rating": 7.02,
      "classificacao_etaria": "A14",
      "imagem_original": "https://animefire.plus/img/animes/kakkou-no-iinazuke-season-2.webp",
      "imagem_pasta": "https://animefire.plus/img/animes/kakkou-no-iinazuke-season-2/",
      "secao": "legendados,lancamentos",
      "pagina": 3,
      "total_episodios": 4,
      "link_video": "https://animefire.plus/video/kakkou-no-iinazuke-season-2"
    },
    {
      "id": 1824,
      "nome": "Kakumeiki Valvrave",
      "link": "https://animefire.plus/animes/kakumeiki-valvrave-todos-os-episodios",
      "texto_original": "Kakumeiki Valvrave",
      "rating": 7.24,
      "classificacao_etaria": "A16",
      "imagem_original": "https://animefire.plus/img/animes/kakumeiki-valvrave.webp",
      "imagem_pasta": "https://animefire.plus/img/animes/kakumeiki-valvrave/",
      "secao": "legendados",
      "pagina": 146,
      "total_episodios": 12,
      "link_video": "https://animefire.plus/video/kakumeiki-valvrave"
    },
    {
      "id": 1825,
      "nome": "Kakumeiki Valvrave 2nd Season",
      "link": "https://animefire.plus/animes/kakumeiki-valvrave-2nd-season-todos-os-episodios",
      "texto_original": "Kakumeiki Valvrave 2nd Season",
      "rating": 7.36,
      "classificacao_etaria": "A16",
      "imagem_original": "https://animefire.plus/img/animes/kakumeiki-valvrave-2nd-season.webp",
      "imagem_pasta": "https://animefire.plus/img/animes/kakumeiki-valvrave-2nd-season/",
      "secao": "legendados",
      "pagina": 141,
      "total_episodios": 5,
      "link_video": "https://animefire.plus/video/kakumeiki-valvrave-2nd-season"
    },
    {
      "id": 1826,
      "nome": "Kakuriyo no Yadomeshi",
      "link": "https://animefire.plus/animes/kakuriyo-no-yadomeshi-todos-os-episodios",
      "texto_original": "Kakuriyo no Yadomeshi",
      "rating": 7.61,
      "classificacao_etaria": "A14",
      "imagem_original": "https://animefire.plus/img/animes/kakuriyo-no-yadomeshi.webp",
      "imagem_pasta": "https://animefire.plus/img/animes/kakuriyo-no-yadomeshi/",
      "secao": "legendados",
      "pagina": 162,
      "total_episodios": 26,
      "link_video": "https://animefire.plus/video/kakuriyo-no-yadomeshi"
    },
    {
      "id": 1829,
      "nome": "Kaleido Star (Dublado)",
      "link": "https://animefire.plus/animes/kaleido-star-dublado-todos-os-episodios",
      "texto_original": "Kaleido Star (Dublado)",
      "rating": 7.97,
      "classificacao_etaria": "A14",
      "imagem_original": "https://animefire.plus/img/animes/kaleido-star.webp",
      "imagem_pasta": "https://animefire.plus/img/animes/kaleido-star/",
      "secao": "dublados",
      "pagina": 23,
      "total_episodios": 26,
      "link_video": "https://animefire.plus/video/kaleido-star-dublado"
    },
    {
      "id": 1830,
      "nome": "Kaleido Star: Aratanaru Tsubasa - Extra Stage (Dublado)",
      "link": "https://animefire.plus/animes/kaleido-star-aratanaru-tsubasa---extra-stage-dublado-todos-os-episodios",
      "texto_original": "Kaleido Star: Aratanaru Tsubasa - Extra Stage (Dublado)",
      "rating": 7.55,
      "classificacao_etaria": "A10",
      "imagem_original": "https://animefire.plus/img/animes/kaleido-star-aratanaru-tsubasa---extra-stage.webp",
      "imagem_pasta": "https://animefire.plus/img/animes/kaleido-star-aratanaru-tsubasa---extra-stage/",
      "secao": "dublados",
      "pagina": 23,
      "total_episodios": 1,
      "link_video": "https://animefire.plus/video/kaleido-star-aratanaru-tsubasa---extra-stage-dublado"
    },
    {
      "id": 1832,
      "nome": "Kaleido Star: Legend of Phoenix - Layla Hamilton Monogatari",
      "link": "https://animefire.plus/animes/kaleido-star-legend-of-phoenix---layla-hamilton-monogatari-todos-os-episodios",
      "texto_original": "Kaleido Star: Legend of Phoenix - Layla Hamilton Monogatari",
      "rating": 7.91,
      "classificacao_etaria": "A10",
      "imagem_original": "https://animefire.plus/img/animes/kaleido-star-legend-of-phoenix---layla-hamilton-monogatari.webp",
      "imagem_pasta": "https://animefire.plus/img/animes/kaleido-star-legend-of-phoenix---layla-hamilton-monogatari/",
      "secao": "legendados",
      "pagina": 79,
      "total_episodios": 0,
      "link_video": "https://animefire.plus/video/kaleido-star-legend-of-phoenix---layla-hamilton-monogatari"
    },
    {
      "id": 1833,
      "nome": "Kamen no Maid Guy",
      "link": "https://animefire.plus/animes/kamen-no-maid-guy-todos-os-episodios",
      "texto_original": "Kamen no Maid Guy",
      "rating": 7.09,
      "classificacao_etaria": "A18",
      "imagem_original": "https://animefire.plus/img/animes/kamen-no-maid-guy.webp",
      "imagem_pasta": "https://animefire.plus/img/animes/kamen-no-maid-guy/",
      "secao": "legendados",
      "pagina": 156,
      "total_episodios": 12,
      "link_video": "https://animefire.plus/video/kamen-no-maid-guy"
    },
    {
      "id": 1835,
      "nome": "Kami no Tou (Dublado)",
      "link": "https://animefire.plus/animes/kami-no-tou-dublado-todos-os-episodios",
      "texto_original": "Kami no Tou (Dublado)",
      "rating": 7.56,
      "classificacao_etaria": "A14",
      "imagem_original": "https://animefire.plus/img/animes/kami-no-tou.webp",
      "imagem_pasta": "https://animefire.plus/img/animes/kami-no-tou/",
      "secao": "dublados,legendados",
      "pagina": 9,
      "total_episodios": 13,
      "link_video": "https://animefire.plus/video/kami-no-tou-dublado"
    },
    {
      "id": 1837,
      "nome": "Kami Nomi Zo Shiru Sekai",
      "link": "https://animefire.plus/animes/kami-nomi-zo-shiru-sekai-todos-os-episodios",
      "texto_original": "Kami Nomi Zo Shiru Sekai",
      "rating": 7.83,
      "classificacao_etaria": "A14",
      "imagem_original": "https://animefire.plus/img/animes/kami-nomi-zo-shiru-sekai.webp",
      "imagem_pasta": "https://animefire.plus/img/animes/kami-nomi-zo-shiru-sekai/",
      "secao": "legendados",
      "pagina": 96,
      "total_episodios": 12,
      "link_video": "https://animefire.plus/video/kami-nomi-zo-shiru-sekai"
    },
    {
      "id": 1838,
      "nome": "Kami nomi zo Shiru Sekai II",
      "link": "https://animefire.plus/animes/kami-nomi-zo-shiru-sekai-ii-todos-os-episodios",
      "texto_original": "Kami nomi zo Shiru Sekai II",
      "rating": 7.99,
      "classificacao_etaria": "A14",
      "imagem_original": "https://animefire.plus/img/animes/kami-nomi-zo-shiru-sekai-ii.webp",
      "imagem_pasta": "https://animefire.plus/img/animes/kami-nomi-zo-shiru-sekai-ii/",
      "secao": "legendados",
      "pagina": 74,
      "total_episodios": 12,
      "link_video": "https://animefire.plus/video/kami-nomi-zo-shiru-sekai-ii"
    }
  ],
  "pagination": {
    "current_page": 38,
    "per_page": 20,
    "total_items": 1905,
    "total_pages": 96,
    "has_next": true,
    "has_prev": true
  }
}
