{
  "message": "Animes com rating entre 7 e 8",
  "rating_range": {
    "min": 7,
    "max": 8
  },
  "data": [
    {
      "id": 182,
      "nome": "Anne Happy♪",
      "link": "https://animefire.plus/animes/anne-happy-todos-os-episodios",
      "texto_original": "Anne Happy♪",
      "rating": 7.05,
      "classificacao_etaria": "A14",
      "imagem_original": "https://animefire.plus/img/animes/anne-happy.webp",
      "imagem_pasta": "https://animefire.plus/img/animes/anne-happy/",
      "secao": "legendados",
      "pagina": 96,
      "total_episodios": 12,
      "link_video": "https://animefire.plus/video/anne-happy"
    },
    {
      "id": 183,
      "nome": "Anne Shirley",
      "link": "https://animefire.plus/animes/anne-shirley-todos-os-episodios",
      "texto_original": "Anne Shirley",
      "rating": 7.78,
      "classificacao_etaria": "A14",
      "imagem_original": "https://animefire.plus/img/animes/anne-shirley.webp",
      "imagem_pasta": "https://animefire.plus/img/animes/anne-shirley/",
      "secao": "legendados,lancamentos",
      "pagina": 5,
      "total_episodios": 18,
      "link_video": "https://animefire.plus/video/anne-shirley"
    },
    {
      "id": 186,
      "nome": "Ano Natsu de Matteru",
      "link": "https://animefire.plus/animes/ano-natsu-de-matteru-todos-os-episodios",
      "texto_original": "Ano Natsu de Matteru",
      "rating": 7.61,
      "classificacao_etaria": "A14",
      "imagem_original": "https://animefire.plus/img/animes/ano-natsu-de-matteru.webp",
      "imagem_pasta": "https://animefire.plus/img/animes/ano-natsu-de-matteru/",
      "secao": "legendados",
      "pagina": 161,
      "total_episodios": 12,
      "link_video": "https://animefire.plus/video/ano-natsu-de-matteru"
    },
    {
      "id": 187,
      "nome": "Another",
      "link": "https://animefire.plus/animes/another-todos-os-episodios",
      "texto_original": "Another",
      "rating": 7.68,
      "classificacao_etaria": "A16",
      "imagem_original": "https://animefire.plus/img/animes/another.webp",
      "imagem_pasta": "https://animefire.plus/img/animes/another/",
      "secao": "legendados",
      "pagina": 94,
      "total_episodios": 12,
      "link_video": "https://animefire.plus/video/another"
    },
    {
      "id": 188,
      "nome": "Another World",
      "link": "https://animefire.plus/animes/another-world-todos-os-episodios",
      "texto_original": "Another World",
      "rating": 7.14,
      "classificacao_etaria": "A14",
      "imagem_original": "https://animefire.plus/img/animes/another-world.webp",
      "imagem_pasta": "https://animefire.plus/img/animes/another-world/",
      "secao": "legendados",
      "pagina": 79,
      "total_episodios": 3,
      "link_video": "https://animefire.plus/video/another-world"
    },
    {
      "id": 189,
      "nome": "Another: The Other - Inga",
      "link": "https://animefire.plus/animes/another-the-other---inga-todos-os-episodios",
      "texto_original": "Another: The Other - Inga",
      "rating": 7.36,
      "classificacao_etaria": "A16",
      "imagem_original": "https://animefire.plus/img/animes/another-the-other---inga.webp",
      "imagem_pasta": "https://animefire.plus/img/animes/another-the-other---inga/",
      "secao": "legendados",
      "pagina": 69,
      "total_episodios": 1,
      "link_video": "https://animefire.plus/video/another-the-other---inga"
    },
    {
      "id": 192,
      "nome": "Ansatsu Kyoushitsu 2nd Season: Kagaijugyou-hen",
      "link": "https://animefire.plus/animes/ansatsu-kyoushitsu-2nd-season-kagaijugyou-hen-todos-os-episodios",
      "texto_original": "Ansatsu Kyoushitsu 2nd Season: Kagaijugyou-hen",
      "rating": 7.75,
      "classificacao_etaria": "A14",
      "imagem_original": "https://animefire.plus/img/animes/ansatsu-kyoushitsu-2nd-season-kagaijugyou-hen.webp",
      "imagem_pasta": "https://animefire.plus/img/animes/ansatsu-kyoushitsu-2nd-season-kagaijugyou-hen/",
      "secao": "legendados",
      "pagina": 53,
      "total_episodios": 8,
      "link_video": "https://animefire.plus/video/ansatsu-kyoushitsu-2nd-season-kagaijugyou-hen"
    },
    {
      "id": 193,
      "nome": "Ansatsu Kyoushitsu: Deai no Jikan",
      "link": "https://animefire.plus/animes/ansatsu-kyoushitsu-deai-no-jikan-todos-os-episodios",
      "texto_original": "Ansatsu Kyoushitsu: Deai no Jikan",
      "rating": 7.43,
      "classificacao_etaria": "A14",
      "imagem_original": "https://animefire.plus/img/animes/ansatsu-kyoushitsu-deai-no-jikan.webp",
      "imagem_pasta": "https://animefire.plus/img/animes/ansatsu-kyoushitsu-deai-no-jikan/",
      "secao": "legendados",
      "pagina": 53,
      "total_episodios": 1,
      "link_video": "https://animefire.plus/video/ansatsu-kyoushitsu-deai-no-jikan"
    },
    {
      "id": 194,
      "nome": "Ansatsu Kyoushitsu: Jump Festa 2013 Special",
      "link": "https://animefire.plus/animes/ansatsu-kyoushitsu-jump-festa-2013-special-todos-os-episodios",
      "texto_original": "Ansatsu Kyoushitsu: Jump Festa 2013 Special",
      "rating": 7.23,
      "classificacao_etaria": "A14",
      "imagem_original": "https://animefire.plus/img/animes/ansatsu-kyoushitsu-jump-festa-2013-special.webp",
      "imagem_pasta": "https://animefire.plus/img/animes/ansatsu-kyoushitsu-jump-festa-2013-special/",
      "secao": "legendados",
      "pagina": 53,
      "total_episodios": 1,
      "link_video": "https://animefire.plus/video/ansatsu-kyoushitsu-jump-festa-2013-special"
    },
    {
      "id": 196,
      "nome": "Ao Haru Ride",
      "link": "https://animefire.plus/animes/ao-haru-ride-todos-os-episodios",
      "texto_original": "Ao Haru Ride",
      "rating": 7.79,
      "classificacao_etaria": "A14",
      "imagem_original": "https://animefire.plus/img/animes/ao-haru-ride.webp",
      "imagem_pasta": "https://animefire.plus/img/animes/ao-haru-ride/",
      "secao": "legendados",
      "pagina": 149,
      "total_episodios": 0,
      "link_video": "https://animefire.plus/video/ao-haru-ride"
    },
    {
      "id": 197,
      "nome": "Ao Haru Ride OVA",
      "link": "https://animefire.plus/animes/ao-haru-ride-ova-todos-os-episodios",
      "texto_original": "Ao Haru Ride OVA",
      "rating": 7.64,
      "classificacao_etaria": "A14",
      "imagem_original": "https://animefire.plus/img/animes/ao-haru-ride-ova.webp",
      "imagem_pasta": "https://animefire.plus/img/animes/ao-haru-ride-ova/",
      "secao": "legendados",
      "pagina": 78,
      "total_episodios": 2,
      "link_video": "https://animefire.plus/video/ao-haru-ride-ova"
    },
    {
      "id": 198,
      "nome": "Ao no 6-gou (Dublado)",
      "link": "https://animefire.plus/animes/ao-no-6-gou-dublado-todos-os-episodios",
      "texto_original": "Ao no 6-gou (Dublado)",
      "rating": 7.06,
      "classificacao_etaria": "A14",
      "imagem_original": "https://animefire.plus/img/animes/ao-no-6-gou.webp",
      "imagem_pasta": "https://animefire.plus/img/animes/ao-no-6-gou/",
      "secao": "dublados,legendados",
      "pagina": 21,
      "total_episodios": 4,
      "link_video": "https://animefire.plus/video/ao-no-6-gou-dublado"
    },
    {
      "id": 199,
      "nome": "Ao no Exorcist",
      "link": "https://animefire.plus/animes/ao-no-exorcist-todos-os-episodios",
      "texto_original": "Ao no Exorcist",
      "rating": 7.78,
      "classificacao_etaria": "A14",
      "imagem_original": "https://animefire.plus/img/animes/ao-no-exorcist.webp",
      "imagem_pasta": "https://animefire.plus/img/animes/ao-no-exorcist/",
      "secao": "legendados",
      "pagina": 130,
      "total_episodios": 0,
      "link_video": "https://animefire.plus/video/ao-no-exorcist"
    },
    {
      "id": 200,
      "nome": "Ao no Exorcist: Kyoto Fujouou-hen",
      "link": "https://animefire.plus/animes/ao-no-exorcist-kyoto-fujouou-hen-todos-os-episodios",
      "texto_original": "Ao no Exorcist: Kyoto Fujouou-hen",
      "rating": 7.63,
      "classificacao_etaria": "A14",
      "imagem_original": "https://animefire.plus/img/animes/ao-no-exorcist-kyoto-fujouou-hen.webp",
      "imagem_pasta": "https://animefire.plus/img/animes/ao-no-exorcist-kyoto-fujouou-hen/",
      "secao": "legendados",
      "pagina": 112,
      "total_episodios": 1,
      "link_video": "https://animefire.plus/video/ao-no-exorcist-kyoto-fujouou-hen"
    },
    {
      "id": 201,
      "nome": "Ao no Exorcist: Shimane Illuminati-hen",
      "link": "https://animefire.plus/animes/ao-no-exorcist-shimane-illuminati-hen-todos-os-episodios",
      "texto_original": "Ao no Exorcist: Shimane Illuminati-hen",
      "rating": 7.09,
      "classificacao_etaria": "A14",
      "imagem_original": "https://animefire.plus/img/animes/ao-no-exorcist-shimane-illuminati-hen.webp",
      "imagem_pasta": "https://animefire.plus/img/animes/ao-no-exorcist-shimane-illuminati-hen/",
      "secao": "legendados",
      "pagina": 17,
      "total_episodios": 12,
      "link_video": "https://animefire.plus/video/ao-no-exorcist-shimane-illuminati-hen"
    },
    {
      "id": 202,
      "nome": "Ao no Exorcist: Yosuga-hen",
      "link": "https://animefire.plus/animes/ao-no-exorcist-yosuga-hen-todos-os-episodios",
      "texto_original": "Ao no Exorcist: Yosuga-hen",
      "rating": 8,
      "classificacao_etaria": "A14",
      "imagem_original": "https://animefire.plus/img/animes/ao-no-exorcist-yosuga-hen.webp",
      "imagem_pasta": "https://animefire.plus/img/animes/ao-no-exorcist-yosuga-hen/",
      "secao": "legendados",
      "pagina": 7,
      "total_episodios": 12,
      "link_video": "https://animefire.plus/video/ao-no-exorcist-yosuga-hen"
    },
    {
      "id": 203,
      "nome": "Ao no Exorcist: Yuki no Hate-hen",
      "link": "https://animefire.plus/animes/ao-no-exorcist-yuki-no-hate-hen-todos-os-episodios",
      "texto_original": "Ao no Exorcist: Yuki no Hate-hen",
      "rating": 7.47,
      "classificacao_etaria": "A14",
      "imagem_original": "https://animefire.plus/img/animes/ao-no-exorcist-yuki-no-hate-hen.webp",
      "imagem_pasta": "https://animefire.plus/img/animes/ao-no-exorcist-yuki-no-hate-hen/",
      "secao": "legendados",
      "pagina": 9,
      "total_episodios": 12,
      "link_video": "https://animefire.plus/video/ao-no-exorcist-yuki-no-hate-hen"
    },
    {
      "id": 207,
      "nome": "Aoharu x Kikanjuu",
      "link": "https://animefire.plus/animes/aoharu-x-kikanjuu-todos-os-episodios",
      "texto_original": "Aoharu x Kikanjuu",
      "rating": 7.27,
      "classificacao_etaria": "A14",
      "imagem_original": "https://animefire.plus/img/animes/aoharu-x-kikanjuu.webp",
      "imagem_pasta": "https://animefire.plus/img/animes/aoharu-x-kikanjuu/",
      "secao": "legendados",
      "pagina": 139,
      "total_episodios": 1,
      "link_video": "https://animefire.plus/video/aoharu-x-kikanjuu"
    },
    {
      "id": 208,
      "nome": "Aoi Bungaku Series",
      "link": "https://animefire.plus/animes/aoi-bungaku-series-todos-os-episodios",
      "texto_original": "Aoi Bungaku Series",
      "rating": 7.81,
      "classificacao_etaria": "A16",
      "imagem_original": "https://animefire.plus/img/animes/aoi-bungaku-series.webp",
      "imagem_pasta": "https://animefire.plus/img/animes/aoi-bungaku-series/",
      "secao": "legendados",
      "pagina": 117,
      "total_episodios": 12,
      "link_video": "https://animefire.plus/video/aoi-bungaku-series"
    },
    {
      "id": 209,
      "nome": "Aoi Hana",
      "link": "https://animefire.plus/animes/aoi-hana-todos-os-episodios",
      "texto_original": "Aoi Hana",
      "rating": 7.22,
      "classificacao_etaria": "A14",
      "imagem_original": "https://animefire.plus/img/animes/aoi-hana.webp",
      "imagem_pasta": "https://animefire.plus/img/animes/aoi-hana/",
      "secao": "legendados",
      "pagina": 101,
      "total_episodios": 11,
      "link_video": "https://animefire.plus/video/aoi-hana"
    }
  ],
  "pagination": {
    "current_page": 5,
    "per_page": 20,
    "total_items": 1905,
    "total_pages": 96,
    "has_next": true,
    "has_prev": true
  }
}
