{
  "message": "Animes com rating entre 7 e 8",
  "rating_range": {
    "min": 7,
    "max": 8
  },
  "data": [
    {
      "id": 2419,
      "nome": "Maoyuu Maou Yuusha",
      "link": "https://animefire.plus/animes/maoyuu-maou-yuusha-todos-os-episodios",
      "texto_original": "Maoyuu Maou Yuusha",
      "rating": 7.4,
      "classificacao_etaria": "A14",
      "imagem_original": "https://animefire.plus/img/animes/maoyuu-maou-yuusha.webp",
      "imagem_pasta": "https://animefire.plus/img/animes/maoyuu-maou-yuusha/",
      "secao": "legendados",
      "pagina": 100,
      "total_episodios": 12,
      "link_video": "https://animefire.plus/video/maoyuu-maou-yuusha"
    },
    {
      "id": 2422,
      "nome": "Maria-sama ga Miteru",
      "link": "https://animefire.plus/animes/maria-sama-ga-miteru-todos-os-episodios",
      "texto_original": "Maria-sama ga Miteru",
      "rating": 7.42,
      "classificacao_etaria": "A14",
      "imagem_original": "https://animefire.plus/img/animes/maria-sama-ga-miteru.webp",
      "imagem_pasta": "https://animefire.plus/img/animes/maria-sama-ga-miteru/",
      "secao": "legendados",
      "pagina": 138,
      "total_episodios": 0,
      "link_video": "https://animefire.plus/video/maria-sama-ga-miteru"
    },
    {
      "id": 2423,
      "nome": "Maria-sama ga Miteru 4th",
      "link": "https://animefire.plus/animes/maria-sama-ga-miteru-4th-todos-os-episodios",
      "texto_original": "Maria-sama ga Miteru 4th",
      "rating": 7.89,
      "classificacao_etaria": "A14",
      "imagem_original": "https://animefire.plus/img/animes/maria-sama-ga-miteru-4th.webp",
      "imagem_pasta": "https://animefire.plus/img/animes/maria-sama-ga-miteru-4th/",
      "secao": "legendados",
      "pagina": 166,
      "total_episodios": 0,
      "link_video": "https://animefire.plus/video/maria-sama-ga-miteru-4th"
    },
    {
      "id": 2424,
      "nome": "Maria-sama ga Miteru: Haru",
      "link": "https://animefire.plus/animes/maria-sama-ga-miteru-haru-todos-os-episodios",
      "texto_original": "Maria-sama ga Miteru: Haru",
      "rating": 7.76,
      "classificacao_etaria": "A14",
      "imagem_original": "https://animefire.plus/img/animes/maria-sama-ga-miteru-haru.webp",
      "imagem_pasta": "https://animefire.plus/img/animes/maria-sama-ga-miteru-haru/",
      "secao": "legendados",
      "pagina": 152,
      "total_episodios": 0,
      "link_video": "https://animefire.plus/video/maria-sama-ga-miteru-haru"
    },
    {
      "id": 2425,
      "nome": "Maria†Holic",
      "link": "https://animefire.plus/animes/maria-holic-todos-os-episodios",
      "texto_original": "Maria†Holic",
      "rating": 7.11,
      "classificacao_etaria": "A14",
      "imagem_original": "https://animefire.plus/img/animes/maria-holic.webp",
      "imagem_pasta": "https://animefire.plus/img/animes/maria-holic/",
      "secao": "legendados",
      "pagina": 136,
      "total_episodios": 12,
      "link_video": "https://animefire.plus/video/maria-holic"
    },
    {
      "id": 2426,
      "nome": "Maria†Holic Alive",
      "link": "https://animefire.plus/animes/maria-holic-alive-todos-os-episodios",
      "texto_original": "Maria†Holic Alive",
      "rating": 7.03,
      "classificacao_etaria": "A14",
      "imagem_original": "https://animefire.plus/img/animes/maria-holic-alive.webp",
      "imagem_pasta": "https://animefire.plus/img/animes/maria-holic-alive/",
      "secao": "legendados",
      "pagina": 178,
      "total_episodios": 0,
      "link_video": "https://animefire.plus/video/maria-holic-alive"
    },
    {
      "id": 2427,
      "nome": "Marmalade Boy",
      "link": "https://animefire.plus/animes/marmalade-boy-todos-os-episodios",
      "texto_original": "Marmalade Boy",
      "rating": 7.6,
      "classificacao_etaria": "A14",
      "imagem_original": "https://animefire.plus/img/animes/marmalade-boy.webp",
      "imagem_pasta": "https://animefire.plus/img/animes/marmalade-boy/",
      "secao": "legendados",
      "pagina": 121,
      "total_episodios": 65,
      "link_video": "https://animefire.plus/video/marmalade-boy"
    },
    {
      "id": 2434,
      "nome": "Masamune-kun no Revenge R (Dublado)",
      "link": "https://animefire.plus/animes/masamune-kun-no-revenge-r-dublado-todos-os-episodios",
      "texto_original": "Masamune-kun no Revenge R (Dublado)",
      "rating": 7.23,
      "classificacao_etaria": "A14",
      "imagem_original": "https://animefire.plus/img/animes/masamune-kun-no-revenge-r.webp",
      "imagem_pasta": "https://animefire.plus/img/animes/masamune-kun-no-revenge-r/",
      "secao": "dublados,legendados",
      "pagina": 7,
      "total_episodios": 12,
      "link_video": "https://animefire.plus/video/masamune-kun-no-revenge-r-dublado"
    },
    {
      "id": 2436,
      "nome": "Mashiro no Oto",
      "link": "https://animefire.plus/animes/mashiro-no-oto-todos-os-episodios",
      "texto_original": "Mashiro no Oto",
      "rating": 7.53,
      "classificacao_etaria": "A14",
      "imagem_original": "https://animefire.plus/img/animes/mashiro-no-oto.webp",
      "imagem_pasta": "https://animefire.plus/img/animes/mashiro-no-oto/",
      "secao": "legendados",
      "pagina": 46,
      "total_episodios": 12,
      "link_video": "https://animefire.plus/video/mashiro-no-oto"
    },
    {
      "id": 2437,
      "nome": "Mashiro-iro Symphony: The Color of Lovers",
      "link": "https://animefire.plus/animes/mashiro-iro-symphony-the-color-of-lovers-todos-os-episodios",
      "texto_original": "Mashiro-iro Symphony: The Color of Lovers",
      "rating": 7.22,
      "classificacao_etaria": "A18",
      "imagem_original": "https://animefire.plus/img/animes/mashiro-iro-symphony-the-color-of-lovers.webp",
      "imagem_pasta": "https://animefire.plus/img/animes/mashiro-iro-symphony-the-color-of-lovers/",
      "secao": "legendados",
      "pagina": 126,
      "total_episodios": 12,
      "link_video": "https://animefire.plus/video/mashiro-iro-symphony-the-color-of-lovers"
    },
    {
      "id": 2438,
      "nome": "Mashle (Dublado)",
      "link": "https://animefire.plus/animes/mashle-dublado-todos-os-episodios",
      "texto_original": "Mashle (Dublado)",
      "rating": 7.62,
      "classificacao_etaria": "A14",
      "imagem_original": "https://animefire.plus/img/animes/mashle.jpg",
      "imagem_pasta": "https://animefire.plus/img/animes/mashle/",
      "secao": "dublados,legendados",
      "pagina": 7,
      "total_episodios": 12,
      "link_video": "https://animefire.plus/video/mashle-dublado"
    },
    {
      "id": 2439,
      "nome": "Mashle 2nd Season",
      "link": "https://animefire.plus/animes/mashle-2nd-season-todos-os-episodios",
      "texto_original": "Mashle 2nd Season",
      "rating": 7.79,
      "classificacao_etaria": "A14",
      "imagem_original": "https://animefire.plus/img/animes/mashle-2nd-season.webp",
      "imagem_pasta": "https://animefire.plus/img/animes/mashle-2nd-season/",
      "secao": "legendados",
      "pagina": 17,
      "total_episodios": 12,
      "link_video": "https://animefire.plus/video/mashle-2nd-season"
    },
    {
      "id": 2440,
      "nome": "Mashle: Shinkakusha Kouho Senbatsu Shiken-hen (Dublado)",
      "link": "https://animefire.plus/animes/mashle-shinkakusha-kouho-senbatsu-shiken-hen-dublado-todos-os-episodios",
      "texto_original": "Mashle: Shinkakusha Kouho Senbatsu Shiken-hen (Dublado)",
      "rating": 7.79,
      "classificacao_etaria": "A14",
      "imagem_original": "https://animefire.plus/img/animes/mashle-shinkakusha-kouho-senbatsu-shiken-hen.webp",
      "imagem_pasta": "https://animefire.plus/img/animes/mashle-shinkakusha-kouho-senbatsu-shiken-hen/",
      "secao": "dublados,lancamentos",
      "pagina": 3,
      "total_episodios": 8,
      "link_video": "https://animefire.plus/video/mashle-shinkakusha-kouho-senbatsu-shiken-hen-dublado"
    },
    {
      "id": 2443,
      "nome": "Master Keaton",
      "link": "https://animefire.plus/animes/master-keaton-todos-os-episodios",
      "texto_original": "Master Keaton",
      "rating": 7.67,
      "classificacao_etaria": "A16",
      "imagem_original": "https://animefire.plus/img/animes/master-keaton.webp",
      "imagem_pasta": "https://animefire.plus/img/animes/master-keaton/",
      "secao": "legendados",
      "pagina": 136,
      "total_episodios": 24,
      "link_video": "https://animefire.plus/video/master-keaton"
    },
    {
      "id": 2444,
      "nome": "Master Keaton OVA",
      "link": "https://animefire.plus/animes/master-keaton-ova-todos-os-episodios",
      "texto_original": "Master Keaton OVA",
      "rating": 7.84,
      "classificacao_etaria": "A16",
      "imagem_original": "https://animefire.plus/img/animes/master-keaton-ova.webp",
      "imagem_pasta": "https://animefire.plus/img/animes/master-keaton-ova/",
      "secao": "legendados",
      "pagina": 166,
      "total_episodios": 15,
      "link_video": "https://animefire.plus/video/master-keaton-ova"
    },
    {
      "id": 2447,
      "nome": "Matantei Loki Ragnarok",
      "link": "https://animefire.plus/animes/matantei-loki-ragnarok-todos-os-episodios",
      "texto_original": "Matantei Loki Ragnarok",
      "rating": 7.37,
      "classificacao_etaria": "A14",
      "imagem_original": "https://animefire.plus/img/animes/matantei-loki-ragnarok.webp",
      "imagem_pasta": "https://animefire.plus/img/animes/matantei-loki-ragnarok/",
      "secao": "legendados",
      "pagina": 156,
      "total_episodios": 26,
      "link_video": "https://animefire.plus/video/matantei-loki-ragnarok"
    },
    {
      "id": 2449,
      "nome": "Mattaku Saikin no Tantei to Kitara",
      "link": "https://animefire.plus/animes/mattaku-saikin-no-tantei-to-kitara-todos-os-episodios",
      "texto_original": "Mattaku Saikin no Tantei to Kitara",
      "rating": 7.13,
      "classificacao_etaria": "A14",
      "imagem_original": "https://animefire.plus/img/animes/mattaku-saikin-no-tantei-to-kitara.webp",
      "imagem_pasta": "https://animefire.plus/img/animes/mattaku-saikin-no-tantei-to-kitara/",
      "secao": "legendados,lancamentos",
      "pagina": 2,
      "total_episodios": 5,
      "link_video": "https://animefire.plus/video/mattaku-saikin-no-tantei-to-kitara"
    },
    {
      "id": 2451,
      "nome": "Mayo Chiki!",
      "link": "https://animefire.plus/animes/mayo-chiki-todos-os-episodios",
      "texto_original": "Mayo Chiki!",
      "rating": 7.44,
      "classificacao_etaria": "A18",
      "imagem_original": "https://animefire.plus/img/animes/mayo-chiki.webp",
      "imagem_pasta": "https://animefire.plus/img/animes/mayo-chiki/",
      "secao": "legendados",
      "pagina": 114,
      "total_episodios": 13,
      "link_video": "https://animefire.plus/video/mayo-chiki"
    },
    {
      "id": 2456,
      "nome": "Mayonaka no Occult Koumuin: Hitoribocchi no Kyuuketsuki",
      "link": "https://animefire.plus/animes/mayonaka-no-occult-koumuin-hitoribocchi-no-kyuuketsuki-todos-os-episodios",
      "texto_original": "Mayonaka no Occult Koumuin: Hitoribocchi no Kyuuketsuki",
      "rating": 7.15,
      "classificacao_etaria": "A14",
      "imagem_original": "https://animefire.plus/img/animes/mayonaka-no-occult-koumuin-hitoribocchi-no-kyuuketsuki.webp",
      "imagem_pasta": "https://animefire.plus/img/animes/mayonaka-no-occult-koumuin-hitoribocchi-no-kyuuketsuki/",
      "secao": "legendados",
      "pagina": 84,
      "total_episodios": 2,
      "link_video": "https://animefire.plus/video/mayonaka-no-occult-koumuin-hitoribocchi-no-kyuuketsuki"
    },
    {
      "id": 2457,
      "nome": "Mayonaka Punch",
      "link": "https://animefire.plus/animes/mayonaka-punch-todos-os-episodios",
      "texto_original": "Mayonaka Punch",
      "rating": 7.35,
      "classificacao_etaria": "A14",
      "imagem_original": "https://animefire.plus/img/animes/mayonaka-punch.webp",
      "imagem_pasta": "https://animefire.plus/img/animes/mayonaka-punch/",
      "secao": "legendados",
      "pagina": 11,
      "total_episodios": 12,
      "link_video": "https://animefire.plus/video/mayonaka-punch"
    }
  ],
  "pagination": {
    "current_page": 52,
    "per_page": 20,
    "total_items": 1905,
    "total_pages": 96,
    "has_next": true,
    "has_prev": true
  }
}
