{
  "message": "Animes com rating entre 7 e 8",
  "rating_range": {
    "min": 7,
    "max": 8
  },
  "data": [
    {
      "id": 1939,
      "nome": "Kemonozume",
      "link": "https://animefire.plus/animes/kemonozume-todos-os-episodios",
      "texto_original": "Kemonozume",
      "rating": 7.46,
      "classificacao_etaria": "A18",
      "imagem_original": "https://animefire.plus/img/animes/kemonozume.webp",
      "imagem_pasta": "https://animefire.plus/img/animes/kemonozume/",
      "secao": "legendados",
      "pagina": 99,
      "total_episodios": 13,
      "link_video": "https://animefire.plus/video/kemonozume"
    },
    {
      "id": 1940,
      "nome": "Kemurikusa (TV)",
      "link": "https://animefire.plus/animes/kemurikusa-tv-todos-os-episodios",
      "texto_original": "Kemurikusa (TV)",
      "rating": 7.1,
      "classificacao_etaria": "A14",
      "imagem_original": "https://animefire.plus/img/animes/kemurikusa-tv.webp",
      "imagem_pasta": "https://animefire.plus/img/animes/kemurikusa-tv/",
      "secao": "legendados",
      "pagina": 60,
      "total_episodios": 12,
      "link_video": "https://animefire.plus/video/kemurikusa-tv"
    },
    {
      "id": 1942,
      "nome": "Kengan Ashura (Dublado)",
      "link": "https://animefire.plus/animes/kengan-ashura-dublado-todos-os-episodios",
      "texto_original": "Kengan Ashura (Dublado)",
      "rating": 7.47,
      "classificacao_etaria": "A16",
      "imagem_original": "https://animefire.plus/img/animes/kengan-ashura.webp",
      "imagem_pasta": "https://animefire.plus/img/animes/kengan-ashura/",
      "secao": "dublados,legendados",
      "pagina": 25,
      "total_episodios": 12,
      "link_video": "https://animefire.plus/video/kengan-ashura-dublado"
    },
    {
      "id": 1943,
      "nome": "Kengan Ashura 2nd Season (Dublado)",
      "link": "https://animefire.plus/animes/kengan-ashura-2nd-season-dublado-todos-os-episodios",
      "texto_original": "Kengan Ashura 2nd Season (Dublado)",
      "rating": 7.75,
      "classificacao_etaria": "A16",
      "imagem_original": "https://animefire.plus/img/animes/kengan-ashura-2nd-season.webp",
      "imagem_pasta": "https://animefire.plus/img/animes/kengan-ashura-2nd-season/",
      "secao": "dublados",
      "pagina": 22,
      "total_episodios": 12,
      "link_video": "https://animefire.plus/video/kengan-ashura-2nd-season-dublado"
    },
    {
      "id": 1947,
      "nome": "Kenka Dokugaku",
      "link": "https://animefire.plus/animes/kenka-dokugaku-todos-os-episodios",
      "texto_original": "Kenka Dokugaku",
      "rating": 7.33,
      "classificacao_etaria": "A14",
      "imagem_original": "https://animefire.plus/img/animes/kenka-dokugaku.webp",
      "imagem_pasta": "https://animefire.plus/img/animes/kenka-dokugaku/",
      "secao": "legendados",
      "pagina": 14,
      "total_episodios": 12,
      "link_video": "https://animefire.plus/video/kenka-dokugaku"
    },
    {
      "id": 1948,
      "nome": "Kenkou Zenrakei Suieibu Umishou",
      "link": "https://animefire.plus/animes/kenkou-zenrakei-suieibu-umishou-todos-os-episodios",
      "texto_original": "Kenkou Zenrakei Suieibu Umishou",
      "rating": 7.17,
      "classificacao_etaria": "A14",
      "imagem_original": "https://animefire.plus/img/animes/kenkou-zenrakei-suieibu-umishou.webp",
      "imagem_pasta": "https://animefire.plus/img/animes/kenkou-zenrakei-suieibu-umishou/",
      "secao": "legendados",
      "pagina": 77,
      "total_episodios": 13,
      "link_video": "https://animefire.plus/video/kenkou-zenrakei-suieibu-umishou"
    },
    {
      "id": 1951,
      "nome": "Kenran Butou Sai: The Mars Daybreak",
      "link": "https://animefire.plus/animes/kenran-butou-sai-the-mars-daybreak-todos-os-episodios",
      "texto_original": "Kenran Butou Sai: The Mars Daybreak",
      "rating": 7.23,
      "classificacao_etaria": "A14",
      "imagem_original": "https://animefire.plus/img/animes/kenran-butou-sai-the-mars-daybreak.webp",
      "imagem_pasta": "https://animefire.plus/img/animes/kenran-butou-sai-the-mars-daybreak/",
      "secao": "legendados",
      "pagina": 138,
      "total_episodios": 26,
      "link_video": "https://animefire.plus/video/kenran-butou-sai-the-mars-daybreak"
    },
    {
      "id": 1953,
      "nome": "Keppeki Danshi! Aoyama-kun",
      "link": "https://animefire.plus/animes/keppeki-danshi-aoyama-kun-todos-os-episodios",
      "texto_original": "Keppeki Danshi! Aoyama-kun",
      "rating": 7.06,
      "classificacao_etaria": "A14",
      "imagem_original": "https://animefire.plus/img/animes/keppeki-danshi-aoyama-kun.webp",
      "imagem_pasta": "https://animefire.plus/img/animes/keppeki-danshi-aoyama-kun/",
      "secao": "legendados",
      "pagina": 103,
      "total_episodios": 0,
      "link_video": "https://animefire.plus/video/keppeki-danshi-aoyama-kun"
    },
    {
      "id": 1955,
      "nome": "Kiba",
      "link": "https://animefire.plus/animes/kiba-todos-os-episodios",
      "texto_original": "Kiba",
      "rating": 7.38,
      "classificacao_etaria": "A14",
      "imagem_original": "https://animefire.plus/img/animes/kiba.webp",
      "imagem_pasta": "https://animefire.plus/img/animes/kiba/",
      "secao": "legendados",
      "pagina": 168,
      "total_episodios": 51,
      "link_video": "https://animefire.plus/video/kiba"
    },
    {
      "id": 1958,
      "nome": "Kiddy Grade",
      "link": "https://animefire.plus/animes/kiddy-grade-todos-os-episodios",
      "texto_original": "Kiddy Grade",
      "rating": 7.27,
      "classificacao_etaria": "A18",
      "imagem_original": "https://animefire.plus/img/animes/kiddy-grade.webp",
      "imagem_pasta": "https://animefire.plus/img/animes/kiddy-grade/",
      "secao": "legendados",
      "pagina": 150,
      "total_episodios": 24,
      "link_video": "https://animefire.plus/video/kiddy-grade"
    },
    {
      "id": 1959,
      "nome": "Kidou Keisatsu Patlabor",
      "link": "https://animefire.plus/animes/kidou-keisatsu-patlabor-todos-os-episodios",
      "texto_original": "Kidou Keisatsu Patlabor",
      "rating": 7.29,
      "classificacao_etaria": "A14",
      "imagem_original": "https://animefire.plus/img/animes/kidou-keisatsu-patlabor.webp",
      "imagem_pasta": "https://animefire.plus/img/animes/kidou-keisatsu-patlabor/",
      "secao": "legendados",
      "pagina": 42,
      "total_episodios": 7,
      "link_video": "https://animefire.plus/video/kidou-keisatsu-patlabor"
    },
    {
      "id": 1960,
      "nome": "Kidou Keisatsu Patlabor: New OVA",
      "link": "https://animefire.plus/animes/kidou-keisatsu-patlabor-new-ova-todos-os-episodios",
      "texto_original": "Kidou Keisatsu Patlabor: New OVA",
      "rating": 7.55,
      "classificacao_etaria": "A14",
      "imagem_original": "https://animefire.plus/img/animes/kidou-keisatsu-patlabor-new-ova.webp",
      "imagem_pasta": "https://animefire.plus/img/animes/kidou-keisatsu-patlabor-new-ova/",
      "secao": "legendados",
      "pagina": 44,
      "total_episodios": 16,
      "link_video": "https://animefire.plus/video/kidou-keisatsu-patlabor-new-ova"
    },
    {
      "id": 1961,
      "nome": "Kidou Keisatsu Patlabor: On Television",
      "link": "https://animefire.plus/animes/kidou-keisatsu-patlabor-on-television-todos-os-episodios",
      "texto_original": "Kidou Keisatsu Patlabor: On Television",
      "rating": 7.71,
      "classificacao_etaria": "A14",
      "imagem_original": "https://animefire.plus/img/animes/kidou-keisatsu-patlabor-on-television.webp",
      "imagem_pasta": "https://animefire.plus/img/animes/kidou-keisatsu-patlabor-on-television/",
      "secao": "legendados",
      "pagina": 120,
      "total_episodios": 0,
      "link_video": "https://animefire.plus/video/kidou-keisatsu-patlabor-on-television"
    },
    {
      "id": 1962,
      "nome": "Kidou Senkan Nadesico",
      "link": "https://animefire.plus/animes/kidou-senkan-nadesico-todos-os-episodios",
      "texto_original": "Kidou Senkan Nadesico",
      "rating": 7.56,
      "classificacao_etaria": "A14",
      "imagem_original": "https://animefire.plus/img/animes/kidou-senkan-nadesico.webp",
      "imagem_pasta": "https://animefire.plus/img/animes/kidou-senkan-nadesico/",
      "secao": "legendados",
      "pagina": 129,
      "total_episodios": 26,
      "link_video": "https://animefire.plus/video/kidou-senkan-nadesico"
    },
    {
      "id": 1963,
      "nome": "Kidou Senshi Gundam: GQuuuuuuX",
      "link": "https://animefire.plus/animes/kidou-senshi-gundam-gquuuuuux-todos-os-episodios",
      "texto_original": "Kidou Senshi Gundam: GQuuuuuuX",
      "rating": 7.05,
      "classificacao_etaria": "A14",
      "imagem_original": "https://animefire.plus/img/animes/kidou-senshi-gundam-gquuuuuux.webp",
      "imagem_pasta": "https://animefire.plus/img/animes/kidou-senshi-gundam-gquuuuuux/",
      "secao": "legendados",
      "pagina": 5,
      "total_episodios": 12,
      "link_video": "https://animefire.plus/video/kidou-senshi-gundam-gquuuuuux"
    },
    {
      "id": 1966,
      "nome": "Kijin Gentoushou",
      "link": "https://animefire.plus/animes/kijin-gentoushou-todos-os-episodios",
      "texto_original": "Kijin Gentoushou",
      "rating": 7.4,
      "classificacao_etaria": "A16",
      "imagem_original": "https://animefire.plus/img/animes/kijin-gentoushou.webp",
      "imagem_pasta": "https://animefire.plus/img/animes/kijin-gentoushou/",
      "secao": "legendados,lancamentos",
      "pagina": 6,
      "total_episodios": 16,
      "link_video": "https://animefire.plus/video/kijin-gentoushou"
    },
    {
      "id": 1968,
      "nome": "Kikansha no Mahou wa Tokubetsu desu",
      "link": "https://animefire.plus/animes/kikansha-no-mahou-wa-tokubetsu-desu-todos-os-episodios",
      "texto_original": "Kikansha no Mahou wa Tokubetsu desu",
      "rating": 7.06,
      "classificacao_etaria": "A14",
      "imagem_original": "https://animefire.plus/img/animes/kikansha-no-mahou-wa-tokubetsu-desu.webp",
      "imagem_pasta": "https://animefire.plus/img/animes/kikansha-no-mahou-wa-tokubetsu-desu/",
      "secao": "legendados",
      "pagina": 20,
      "total_episodios": 12,
      "link_video": "https://animefire.plus/video/kikansha-no-mahou-wa-tokubetsu-desu"
    },
    {
      "id": 1970,
      "nome": "Kikoushi Enma",
      "link": "https://animefire.plus/animes/kikoushi-enma-todos-os-episodios",
      "texto_original": "Kikoushi Enma",
      "rating": 7.16,
      "classificacao_etaria": "A18",
      "imagem_original": "https://animefire.plus/img/animes/kikoushi-enma.webp",
      "imagem_pasta": "https://animefire.plus/img/animes/kikoushi-enma/",
      "secao": "legendados",
      "pagina": 66,
      "total_episodios": 4,
      "link_video": "https://animefire.plus/video/kikoushi-enma"
    },
    {
      "id": 1974,
      "nome": "Kimagure Orange☆Road",
      "link": "https://animefire.plus/animes/kimagure-orange-road-todos-os-episodios",
      "texto_original": "Kimagure Orange☆Road",
      "rating": 7.63,
      "classificacao_etaria": "A14",
      "imagem_original": "https://animefire.plus/img/animes/kimagure-orange-road.webp",
      "imagem_pasta": "https://animefire.plus/img/animes/kimagure-orange-road/",
      "secao": "legendados",
      "pagina": 120,
      "total_episodios": 48,
      "link_video": "https://animefire.plus/video/kimagure-orange-road"
    },
    {
      "id": 1981,
      "nome": "Kimi ga Aruji de Shitsuji ga Ore de",
      "link": "https://animefire.plus/animes/kimi-ga-aruji-de-shitsuji-ga-ore-de-todos-os-episodios",
      "texto_original": "Kimi ga Aruji de Shitsuji ga Ore de",
      "rating": 7.25,
      "classificacao_etaria": "A18",
      "imagem_original": "https://animefire.plus/img/animes/kimi-ga-aruji-de-shitsuji-ga-ore-de.webp",
      "imagem_pasta": "https://animefire.plus/img/animes/kimi-ga-aruji-de-shitsuji-ga-ore-de/",
      "secao": "legendados",
      "pagina": 119,
      "total_episodios": 13,
      "link_video": "https://animefire.plus/video/kimi-ga-aruji-de-shitsuji-ga-ore-de"
    }
  ],
  "pagination": {
    "current_page": 41,
    "per_page": 20,
    "total_items": 1905,
    "total_pages": 96,
    "has_next": true,
    "has_prev": true
  }
}
