{
  "message": "Animes com rating entre 7 e 8",
  "rating_range": {
    "min": 7,
    "max": 8
  },
  "data": [
    {
      "id": 1425,
      "nome": "Heroic Age",
      "link": "https://animefire.plus/animes/heroic-age-todos-os-episodios",
      "texto_original": "Heroic Age",
      "rating": 7.61,
      "classificacao_etaria": "A14",
      "imagem_original": "https://animefire.plus/img/animes/heroic-age.webp",
      "imagem_pasta": "https://animefire.plus/img/animes/heroic-age/",
      "secao": "legendados",
      "pagina": 145,
      "total_episodios": 26,
      "link_video": "https://animefire.plus/video/heroic-age"
    },
    {
      "id": 1426,
      "nome": "Heroine Tarumono! Kiraware Heroine to Naisho no Oshigoto",
      "link": "https://animefire.plus/animes/heroine-tarumono-kiraware-heroine-to-naisho-no-oshigoto-todos-os-episodios",
      "texto_original": "Heroine Tarumono! Kiraware Heroine to Naisho no Oshigoto",
      "rating": 7.27,
      "classificacao_etaria": "A14",
      "imagem_original": "https://animefire.plus/img/animes/heroine-tarumono-kiraware-heroine-to-naisho-no-oshigoto.webp",
      "imagem_pasta": "https://animefire.plus/img/animes/heroine-tarumono-kiraware-heroine-to-naisho-no-oshigoto/",
      "secao": "legendados",
      "pagina": 33,
      "total_episodios": 12,
      "link_video": "https://animefire.plus/video/heroine-tarumono-kiraware-heroine-to-naisho-no-oshigoto"
    },
    {
      "id": 1428,
      "nome": "Hetalia Axis Powers",
      "link": "https://animefire.plus/animes/hetalia-axis-powers-todos-os-episodios",
      "texto_original": "Hetalia Axis Powers",
      "rating": 7.62,
      "classificacao_etaria": "A14",
      "imagem_original": "https://animefire.plus/img/animes/hetalia-axis-powers.webp",
      "imagem_pasta": "https://animefire.plus/img/animes/hetalia-axis-powers/",
      "secao": "legendados",
      "pagina": 138,
      "total_episodios": 0,
      "link_video": "https://animefire.plus/video/hetalia-axis-powers"
    },
    {
      "id": 1429,
      "nome": "Hetalia Axis Powers Fan Disc",
      "link": "https://animefire.plus/animes/hetalia-axis-powers-fan-disc-todos-os-episodios",
      "texto_original": "Hetalia Axis Powers Fan Disc",
      "rating": 7.43,
      "classificacao_etaria": "A14",
      "imagem_original": "https://animefire.plus/img/animes/hetalia-axis-powers-fan-disc.webp",
      "imagem_pasta": "https://animefire.plus/img/animes/hetalia-axis-powers-fan-disc/",
      "secao": "legendados",
      "pagina": 111,
      "total_episodios": 3,
      "link_video": "https://animefire.plus/video/hetalia-axis-powers-fan-disc"
    },
    {
      "id": 1430,
      "nome": "Hetalia World Series Specials",
      "link": "https://animefire.plus/animes/hetalia-world-series-specials-todos-os-episodios",
      "texto_original": "Hetalia World Series Specials",
      "rating": 7.73,
      "classificacao_etaria": "A14",
      "imagem_original": "https://animefire.plus/img/animes/hetalia-world-series-specials.webp",
      "imagem_pasta": "https://animefire.plus/img/animes/hetalia-world-series-specials/",
      "secao": "legendados",
      "pagina": 160,
      "total_episodios": 4,
      "link_video": "https://animefire.plus/video/hetalia-world-series-specials"
    },
    {
      "id": 1432,
      "nome": "Hetalia: The Beautiful World Specials",
      "link": "https://animefire.plus/animes/hetalia-the-beautiful-world-specials-todos-os-episodios",
      "texto_original": "Hetalia: The Beautiful World Specials",
      "rating": 7.78,
      "classificacao_etaria": "A14",
      "imagem_original": "https://animefire.plus/img/animes/hetalia-the-beautiful-world-specials.webp",
      "imagem_pasta": "https://animefire.plus/img/animes/hetalia-the-beautiful-world-specials/",
      "secao": "legendados",
      "pagina": 153,
      "total_episodios": 4,
      "link_video": "https://animefire.plus/video/hetalia-the-beautiful-world-specials"
    },
    {
      "id": 1433,
      "nome": "Hetalia: The World Twinkle",
      "link": "https://animefire.plus/animes/hetalia-the-world-twinkle-todos-os-episodios",
      "texto_original": "Hetalia: The World Twinkle",
      "rating": 7.53,
      "classificacao_etaria": "A14",
      "imagem_original": "https://animefire.plus/img/animes/hetalia-the-world-twinkle.webp",
      "imagem_pasta": "https://animefire.plus/img/animes/hetalia-the-world-twinkle/",
      "secao": "legendados",
      "pagina": 174,
      "total_episodios": 15,
      "link_video": "https://animefire.plus/video/hetalia-the-world-twinkle"
    },
    {
      "id": 1434,
      "nome": "Hetalia: The World Twinkle Extra Disc",
      "link": "https://animefire.plus/animes/hetalia-the-world-twinkle-extra-disc-todos-os-episodios",
      "texto_original": "Hetalia: The World Twinkle Extra Disc",
      "rating": 7.44,
      "classificacao_etaria": "A14",
      "imagem_original": "https://animefire.plus/img/animes/hetalia-the-world-twinkle-extra-disc.webp",
      "imagem_pasta": "https://animefire.plus/img/animes/hetalia-the-world-twinkle-extra-disc/",
      "secao": "legendados",
      "pagina": 82,
      "total_episodios": 1,
      "link_video": "https://animefire.plus/video/hetalia-the-world-twinkle-extra-disc"
    },
    {
      "id": 1435,
      "nome": "Hetalia: The World Twinkle Specials",
      "link": "https://animefire.plus/animes/hetalia-the-world-twinkle-specials-todos-os-episodios",
      "texto_original": "Hetalia: The World Twinkle Specials",
      "rating": 7.48,
      "classificacao_etaria": "A14",
      "imagem_original": "https://animefire.plus/img/animes/hetalia-the-world-twinkle-specials.webp",
      "imagem_pasta": "https://animefire.plus/img/animes/hetalia-the-world-twinkle-specials/",
      "secao": "legendados",
      "pagina": 164,
      "total_episodios": 3,
      "link_video": "https://animefire.plus/video/hetalia-the-world-twinkle-specials"
    },
    {
      "id": 1436,
      "nome": "Heya Camp△",
      "link": "https://animefire.plus/animes/heya-camp-todos-os-episodios",
      "texto_original": "Heya Camp△",
      "rating": 7.19,
      "classificacao_etaria": "A14",
      "imagem_original": "https://animefire.plus/img/animes/heya-camp.webp",
      "imagem_pasta": "https://animefire.plus/img/animes/heya-camp/",
      "secao": "legendados",
      "pagina": 93,
      "total_episodios": 4,
      "link_video": "https://animefire.plus/video/heya-camp"
    },
    {
      "id": 1438,
      "nome": "Hibi wa Sugiredo Meshi Umashi",
      "link": "https://animefire.plus/animes/hibi-wa-sugiredo-meshi-umashi-todos-os-episodios",
      "texto_original": "Hibi wa Sugiredo Meshi Umashi",
      "rating": 7.77,
      "classificacao_etaria": "A14",
      "imagem_original": "https://animefire.plus/img/animes/hibi-wa-sugiredo-meshi-umashi.webp",
      "imagem_pasta": "https://animefire.plus/img/animes/hibi-wa-sugiredo-meshi-umashi/",
      "secao": "legendados",
      "pagina": 4,
      "total_episodios": 12,
      "link_video": "https://animefire.plus/video/hibi-wa-sugiredo-meshi-umashi"
    },
    {
      "id": 1443,
      "nome": "Hidamari Sketch",
      "link": "https://animefire.plus/animes/hidamari-sketch-todos-os-episodios",
      "texto_original": "Hidamari Sketch",
      "rating": 7.48,
      "classificacao_etaria": "A14",
      "imagem_original": "https://animefire.plus/img/animes/hidamari-sketch.webp",
      "imagem_pasta": "https://animefire.plus/img/animes/hidamari-sketch/",
      "secao": "legendados",
      "pagina": 101,
      "total_episodios": 0,
      "link_video": "https://animefire.plus/video/hidamari-sketch"
    },
    {
      "id": 1444,
      "nome": "Hidamari Sketch x 365",
      "link": "https://animefire.plus/animes/hidamari-sketch-x-365-todos-os-episodios",
      "texto_original": "Hidamari Sketch x 365",
      "rating": 7.84,
      "classificacao_etaria": "A14",
      "imagem_original": "https://animefire.plus/img/animes/hidamari-sketch-x-365.webp",
      "imagem_pasta": "https://animefire.plus/img/animes/hidamari-sketch-x-365/",
      "secao": "legendados",
      "pagina": 76,
      "total_episodios": 19,
      "link_video": "https://animefire.plus/video/hidamari-sketch-x-365"
    },
    {
      "id": 1445,
      "nome": "Hidamari Sketch x Honeycomb",
      "link": "https://animefire.plus/animes/hidamari-sketch-x-honeycomb-todos-os-episodios",
      "texto_original": "Hidamari Sketch x Honeycomb",
      "rating": 7.97,
      "classificacao_etaria": "A14",
      "imagem_original": "https://animefire.plus/img/animes/hidamari-sketch-x-honeycomb.webp",
      "imagem_pasta": "https://animefire.plus/img/animes/hidamari-sketch-x-honeycomb/",
      "secao": "legendados",
      "pagina": 131,
      "total_episodios": 0,
      "link_video": "https://animefire.plus/video/hidamari-sketch-x-honeycomb"
    },
    {
      "id": 1446,
      "nome": "Hidan no Aria",
      "link": "https://animefire.plus/animes/hidan-no-aria-todos-os-episodios",
      "texto_original": "Hidan no Aria",
      "rating": 7.03,
      "classificacao_etaria": "A14",
      "imagem_original": "https://animefire.plus/img/animes/hidan-no-aria.webp",
      "imagem_pasta": "https://animefire.plus/img/animes/hidan-no-aria/",
      "secao": "legendados",
      "pagina": 120,
      "total_episodios": 12,
      "link_video": "https://animefire.plus/video/hidan-no-aria"
    },
    {
      "id": 1448,
      "nome": "Higashi No Eden",
      "link": "https://animefire.plus/animes/higashi-no-eden-todos-os-episodios",
      "texto_original": "Higashi No Eden",
      "rating": 7.9,
      "classificacao_etaria": "A16",
      "imagem_original": "https://animefire.plus/img/animes/higashi-no-eden.webp",
      "imagem_pasta": "https://animefire.plus/img/animes/higashi-no-eden/",
      "secao": "legendados",
      "pagina": 104,
      "total_episodios": 11,
      "link_video": "https://animefire.plus/video/higashi-no-eden"
    },
    {
      "id": 1449,
      "nome": "Hige wo Soru. Soshite Joshikousei wo Hirou.",
      "link": "https://animefire.plus/animes/hige-wo-soru-soshite-joshikousei-wo-hirou-todos-os-episodios",
      "texto_original": "Hige wo Soru. Soshite Joshikousei wo Hirou.",
      "rating": 7.27,
      "classificacao_etaria": "A14",
      "imagem_original": "https://animefire.plus/img/animes/hige-wo-soru-soshite-joshikousei-wo-hirou.webp",
      "imagem_pasta": "https://animefire.plus/img/animes/hige-wo-soru-soshite-joshikousei-wo-hirou/",
      "secao": "legendados",
      "pagina": 47,
      "total_episodios": 13,
      "link_video": "https://animefire.plus/video/hige-wo-soru-soshite-joshikousei-wo-hirou"
    },
    {
      "id": 1450,
      "nome": "Higeki no Genkyou to Naru Saikyou Gedou Last Boss Joou wa Tami no Tame ni Tsukushimasu.",
      "link": "https://animefire.plus/animes/higeki-no-genkyou-to-naru-saikyou-gedou-last-boss-joou-wa-tami-no-tame-ni-tsukushimasu-todos-os-episodios",
      "texto_original": "Higeki no Genkyou to Naru Saikyou Gedou Last Boss Joou wa Tami no Tame ni Tsukushimasu.",
      "rating": 7.12,
      "classificacao_etaria": "A14",
      "imagem_original": "https://animefire.plus/img/animes/higeki-no-genkyou-to-naru-saikyou-gedou-last-boss-joou-wa-tami-no-tame-ni-tsukushimasu.jpg",
      "imagem_pasta": "https://animefire.plus/img/animes/higeki-no-genkyou-to-naru-saikyou-gedou-last-boss-joou-wa-tami-no-tame-ni-tsukushimasu/",
      "secao": "legendados",
      "pagina": 22,
      "total_episodios": 12,
      "link_video": "https://animefire.plus/video/higeki-no-genkyou-to-naru-saikyou-gedou-last-boss-joou-wa-tami-no-tame-ni-tsukushimasu"
    },
    {
      "id": 1451,
      "nome": "Higepiyo",
      "link": "https://animefire.plus/animes/higepiyo-todos-os-episodios",
      "texto_original": "Higepiyo",
      "rating": 7.13,
      "classificacao_etaria": "A10",
      "imagem_original": "https://animefire.plus/img/animes/higepiyo.webp",
      "imagem_pasta": "https://animefire.plus/img/animes/higepiyo/",
      "secao": "legendados",
      "pagina": 78,
      "total_episodios": 30,
      "link_video": "https://animefire.plus/video/higepiyo"
    },
    {
      "id": 1452,
      "nome": "High Card",
      "link": "https://animefire.plus/animes/high-card-todos-os-episodios",
      "texto_original": "High Card",
      "rating": 7.16,
      "classificacao_etaria": "A16",
      "imagem_original": "https://animefire.plus/img/animes/high-card.webp",
      "imagem_pasta": "https://animefire.plus/img/animes/high-card/",
      "secao": "legendados",
      "pagina": 27,
      "total_episodios": 12,
      "link_video": "https://animefire.plus/video/high-card"
    }
  ],
  "pagination": {
    "current_page": 30,
    "per_page": 20,
    "total_items": 1905,
    "total_pages": 96,
    "has_next": true,
    "has_prev": true
  }
}
