{
  "message": "Animes com rating entre 7 e 8",
  "rating_range": {
    "min": 7,
    "max": 8
  },
  "data": [
    {
      "id": 3606,
      "nome": "Space☆Dandy",
      "link": "https://animefire.plus/animes/space-dandy-todos-os-episodios",
      "texto_original": "Space☆Dandy",
      "rating": 7.89,
      "classificacao_etaria": "A14",
      "imagem_original": "https://animefire.plus/img/animes/space-dandy.webp",
      "imagem_pasta": "https://animefire.plus/img/animes/space-dandy/",
      "secao": "legendados",
      "pagina": 135,
      "total_episodios": 13,
      "link_video": "https://animefire.plus/video/space-dandy"
    },
    {
      "id": 3608,
      "nome": "Special A",
      "link": "https://animefire.plus/animes/special-a-todos-os-episodios",
      "texto_original": "Special A",
      "rating": 7.68,
      "classificacao_etaria": "A14",
      "imagem_original": "https://animefire.plus/img/animes/special-a.webp",
      "imagem_pasta": "https://animefire.plus/img/animes/special-a/",
      "secao": "legendados",
      "pagina": 148,
      "total_episodios": 24,
      "link_video": "https://animefire.plus/video/special-a"
    },
    {
      "id": 3610,
      "nome": "Speed Grapher",
      "link": "https://animefire.plus/animes/speed-grapher-todos-os-episodios",
      "texto_original": "Speed Grapher",
      "rating": 7.41,
      "classificacao_etaria": "A18",
      "imagem_original": "https://animefire.plus/img/animes/speed-grapher.webp",
      "imagem_pasta": "https://animefire.plus/img/animes/speed-grapher/",
      "secao": "legendados",
      "pagina": 165,
      "total_episodios": 24,
      "link_video": "https://animefire.plus/video/speed-grapher"
    },
    {
      "id": 3611,
      "nome": "Spiral: Suiri no Kizuna",
      "link": "https://animefire.plus/animes/spiral-suiri-no-kizuna-todos-os-episodios",
      "texto_original": "Spiral: Suiri no Kizuna",
      "rating": 7.33,
      "classificacao_etaria": "A14",
      "imagem_original": "https://animefire.plus/img/animes/spiral-suiri-no-kizuna.webp",
      "imagem_pasta": "https://animefire.plus/img/animes/spiral-suiri-no-kizuna/",
      "secao": "legendados",
      "pagina": 127,
      "total_episodios": 25,
      "link_video": "https://animefire.plus/video/spiral-suiri-no-kizuna"
    },
    {
      "id": 3614,
      "nome": "Spy Kyoushitsu 2nd Season",
      "link": "https://animefire.plus/animes/spy-kyoushitsu-2nd-season-todos-os-episodios",
      "texto_original": "Spy Kyoushitsu 2nd Season",
      "rating": 7.15,
      "classificacao_etaria": "A14",
      "imagem_original": "https://animefire.plus/img/animes/spy-kyoushitsu-2nd-season.webp",
      "imagem_pasta": "https://animefire.plus/img/animes/spy-kyoushitsu-2nd-season/",
      "secao": "legendados,lancamentos",
      "pagina": 22,
      "total_episodios": 11,
      "link_video": "https://animefire.plus/video/spy-kyoushitsu-2nd-season"
    },
    {
      "id": 3618,
      "nome": "SSSS.Dynazenon",
      "link": "https://animefire.plus/animes/ssss-dynazenon-todos-os-episodios",
      "texto_original": "SSSS.Dynazenon",
      "rating": 7.43,
      "classificacao_etaria": "A14",
      "imagem_original": "https://animefire.plus/img/animes/ssss-dynazenon.webp",
      "imagem_pasta": "https://animefire.plus/img/animes/ssss-dynazenon/",
      "secao": "legendados",
      "pagina": 47,
      "total_episodios": 12,
      "link_video": "https://animefire.plus/video/ssss-dynazenon"
    },
    {
      "id": 3619,
      "nome": "SSSS.Gridman",
      "link": "https://animefire.plus/animes/ssss-gridman-todos-os-episodios",
      "texto_original": "SSSS.Gridman",
      "rating": 7.35,
      "classificacao_etaria": "A14",
      "imagem_original": "https://animefire.plus/img/animes/ssss-gridman.webp",
      "imagem_pasta": "https://animefire.plus/img/animes/ssss-gridman/",
      "secao": "legendados",
      "pagina": 117,
      "total_episodios": 3,
      "link_video": "https://animefire.plus/video/ssss-gridman"
    },
    {
      "id": 3621,
      "nome": "Star Driver: Kagayaki no Takuto",
      "link": "https://animefire.plus/animes/star-driver-kagayaki-no-takuto-todos-os-episodios",
      "texto_original": "Star Driver: Kagayaki no Takuto",
      "rating": 7.26,
      "classificacao_etaria": "A14",
      "imagem_original": "https://animefire.plus/img/animes/star-driver-kagayaki-no-takuto.webp",
      "imagem_pasta": "https://animefire.plus/img/animes/star-driver-kagayaki-no-takuto/",
      "secao": "legendados",
      "pagina": 66,
      "total_episodios": 25,
      "link_video": "https://animefire.plus/video/star-driver-kagayaki-no-takuto"
    },
    {
      "id": 3623,
      "nome": "Star Wars: Visions (Dublado)",
      "link": "https://animefire.plus/animes/star-wars-visions-dublado-todos-os-episodios",
      "texto_original": "Star Wars: Visions (Dublado)",
      "rating": 7.09,
      "classificacao_etaria": "A14",
      "imagem_original": "https://animefire.plus/img/animes/star-wars-visions.webp",
      "imagem_pasta": "https://animefire.plus/img/animes/star-wars-visions/",
      "secao": "dublados,legendados",
      "pagina": 15,
      "total_episodios": 9,
      "link_video": "https://animefire.plus/video/star-wars-visions-dublado"
    },
    {
      "id": 3624,
      "nome": "Star☆Twinkle Precure",
      "link": "https://animefire.plus/animes/star-twinkle-precure-todos-os-episodios",
      "texto_original": "Star☆Twinkle Precure",
      "rating": 7.26,
      "classificacao_etaria": null,
      "imagem_original": "https://animefire.plus/img/animes/star-twinkle-precure.webp",
      "imagem_pasta": "https://animefire.plus/img/animes/star-twinkle-precure/",
      "secao": "legendados",
      "pagina": 122,
      "total_episodios": 0,
      "link_video": "https://animefire.plus/video/star-twinkle-precure"
    },
    {
      "id": 3625,
      "nome": "Starmyu",
      "link": "https://animefire.plus/animes/starmyu-todos-os-episodios",
      "texto_original": "Starmyu",
      "rating": 7.06,
      "classificacao_etaria": "A14",
      "imagem_original": "https://animefire.plus/img/animes/starmyu.webp",
      "imagem_pasta": "https://animefire.plus/img/animes/starmyu/",
      "secao": "legendados",
      "pagina": 149,
      "total_episodios": 1,
      "link_video": "https://animefire.plus/video/starmyu"
    },
    {
      "id": 3626,
      "nome": "Starmyu 2nd Season",
      "link": "https://animefire.plus/animes/starmyu-2nd-season-todos-os-episodios",
      "texto_original": "Starmyu 2nd Season",
      "rating": 7.46,
      "classificacao_etaria": "A14",
      "imagem_original": "https://animefire.plus/img/animes/starmyu-2nd-season.webp",
      "imagem_pasta": "https://animefire.plus/img/animes/starmyu-2nd-season/",
      "secao": "legendados",
      "pagina": 98,
      "total_episodios": 12,
      "link_video": "https://animefire.plus/video/starmyu-2nd-season"
    },
    {
      "id": 3630,
      "nome": "Starship Operators",
      "link": "https://animefire.plus/animes/starship-operators-todos-os-episodios",
      "texto_original": "Starship Operators",
      "rating": 7.02,
      "classificacao_etaria": "A14",
      "imagem_original": "https://animefire.plus/img/animes/starship-operators.webp",
      "imagem_pasta": "https://animefire.plus/img/animes/starship-operators/",
      "secao": "legendados",
      "pagina": 75,
      "total_episodios": 13,
      "link_video": "https://animefire.plus/video/starship-operators"
    },
    {
      "id": 3633,
      "nome": "Steins;Gate 0: Kesshou Takei no Valentine - Bittersweet Intermedio (Dublado)",
      "link": "https://animefire.plus/animes/steins-gate-0-kesshou-takei-no-valentine---bittersweet-intermedio-dublado-todos-os-episodios",
      "texto_original": "Steins;Gate 0: Kesshou Takei no Valentine - Bittersweet Intermedio (Dublado)",
      "rating": 7.14,
      "classificacao_etaria": "A14",
      "imagem_original": "https://animefire.plus/img/animes/steins-gate-0-kesshou-takei-no-valentine---bittersweet-intermedio.webp",
      "imagem_pasta": "https://animefire.plus/img/animes/steins-gate-0-kesshou-takei-no-valentine---bittersweet-intermedio/",
      "secao": "dublados,legendados",
      "pagina": 18,
      "total_episodios": 1,
      "link_video": "https://animefire.plus/video/steins-gate-0-kesshou-takei-no-valentine---bittersweet-intermedio-dublado"
    },
    {
      "id": 3635,
      "nome": "Steins;Gate: Soumei Eichi no Cognitive Computing",
      "link": "https://animefire.plus/animes/steins-gate-soumei-eichi-no-cognitive-computing-todos-os-episodios",
      "texto_original": "Steins;Gate: Soumei Eichi no Cognitive Computing",
      "rating": 7.43,
      "classificacao_etaria": "A14",
      "imagem_original": "https://animefire.plus/img/animes/steins-gate-soumei-eichi-no-cognitive-computing.webp",
      "imagem_pasta": "https://animefire.plus/img/animes/steins-gate-soumei-eichi-no-cognitive-computing/",
      "secao": "legendados",
      "pagina": 68,
      "total_episodios": 4,
      "link_video": "https://animefire.plus/video/steins-gate-soumei-eichi-no-cognitive-computing"
    },
    {
      "id": 3642,
      "nome": "Strawberry Panic",
      "link": "https://animefire.plus/animes/strawberry-panic-todos-os-episodios",
      "texto_original": "Strawberry Panic",
      "rating": 7.39,
      "classificacao_etaria": "A14",
      "imagem_original": "https://animefire.plus/img/animes/strawberry-panic.webp",
      "imagem_pasta": "https://animefire.plus/img/animes/strawberry-panic/",
      "secao": "legendados",
      "pagina": 123,
      "total_episodios": 26,
      "link_video": "https://animefire.plus/video/strawberry-panic"
    },
    {
      "id": 3643,
      "nome": "Street Fighter II V (Dublado)",
      "link": "https://animefire.plus/animes/street-fighter-ii-v-dublado-todos-os-episodios",
      "texto_original": "Street Fighter II V (Dublado)",
      "rating": 7.08,
      "classificacao_etaria": "A14",
      "imagem_original": "https://animefire.plus/img/animes/street-fighter-ii-v.webp",
      "imagem_pasta": "https://animefire.plus/img/animes/street-fighter-ii-v/",
      "secao": "dublados,legendados",
      "pagina": 22,
      "total_episodios": 29,
      "link_video": "https://animefire.plus/video/street-fighter-ii-v-dublado"
    },
    {
      "id": 3645,
      "nome": "Strike the Blood",
      "link": "https://animefire.plus/animes/strike-the-blood-todos-os-episodios",
      "texto_original": "Strike the Blood",
      "rating": 7.3,
      "classificacao_etaria": "A18",
      "imagem_original": "https://animefire.plus/img/animes/strike-the-blood.webp",
      "imagem_pasta": "https://animefire.plus/img/animes/strike-the-blood/",
      "secao": "legendados",
      "pagina": 126,
      "total_episodios": 4,
      "link_video": "https://animefire.plus/video/strike-the-blood"
    },
    {
      "id": 3647,
      "nome": "Strike The Blood II",
      "link": "https://animefire.plus/animes/strike-the-blood-ii-todos-os-episodios",
      "texto_original": "Strike The Blood II",
      "rating": 7.25,
      "classificacao_etaria": "A18",
      "imagem_original": "https://animefire.plus/img/animes/strike-the-blood-ii.webp",
      "imagem_pasta": "https://animefire.plus/img/animes/strike-the-blood-ii/",
      "secao": "legendados",
      "pagina": 106,
      "total_episodios": 8,
      "link_video": "https://animefire.plus/video/strike-the-blood-ii"
    },
    {
      "id": 3648,
      "nome": "Strike the Blood III",
      "link": "https://animefire.plus/animes/strike-the-blood-iii-todos-os-episodios",
      "texto_original": "Strike the Blood III",
      "rating": 7.45,
      "classificacao_etaria": "A18",
      "imagem_original": "https://animefire.plus/img/animes/strike-the-blood-iii.webp",
      "imagem_pasta": "https://animefire.plus/img/animes/strike-the-blood-iii/",
      "secao": "legendados",
      "pagina": 175,
      "total_episodios": 0,
      "link_video": "https://animefire.plus/video/strike-the-blood-iii"
    }
  ],
  "pagination": {
    "current_page": 78,
    "per_page": 20,
    "total_items": 1905,
    "total_pages": 96,
    "has_next": true,
    "has_prev": true
  }
}
