{
  "message": "Animes com rating entre 7 e 8",
  "rating_range": {
    "min": 7,
    "max": 8
  },
  "data": [
    {
      "id": 3828,
      "nome": "The iDOLM@STER",
      "link": "https://animefire.plus/animes/the-idolmaster-todos-os-episodios",
      "texto_original": "The iDOLM@STER",
      "rating": 7.65,
      "classificacao_etaria": "A14",
      "imagem_original": "https://animefire.plus/img/animes/the-idolmaster.webp",
      "imagem_pasta": "https://animefire.plus/img/animes/the-idolmaster/",
      "secao": "legendados",
      "pagina": 76,
      "total_episodios": 26,
      "link_video": "https://animefire.plus/video/the-idolmaster"
    },
    {
      "id": 3829,
      "nome": "The iDOLM@STER Cinderella Girls",
      "link": "https://animefire.plus/animes/the-idolmaster-cinderella-girls-todos-os-episodios",
      "texto_original": "The iDOLM@STER Cinderella Girls",
      "rating": 7.17,
      "classificacao_etaria": "A14",
      "imagem_original": "https://animefire.plus/img/animes/the-idolmaster-cinderella-girls.webp",
      "imagem_pasta": "https://animefire.plus/img/animes/the-idolmaster-cinderella-girls/",
      "secao": "legendados",
      "pagina": 76,
      "total_episodios": 13,
      "link_video": "https://animefire.plus/video/the-idolmaster-cinderella-girls"
    },
    {
      "id": 3830,
      "nome": "The iDOLM@STER Cinderella Girls: Anytime, Anywhere with Cinderella.",
      "link": "https://animefire.plus/animes/the-idolmaster-cinderella-girls-anytime-anywhere-with-cinderella-todos-os-episodios",
      "texto_original": "The iDOLM@STER Cinderella Girls: Anytime, Anywhere with Cinderella.",
      "rating": 7.34,
      "classificacao_etaria": "A14",
      "imagem_original": "https://animefire.plus/img/animes/the-idolmaster-cinderella-girls-anytime-anywhere-with-cinderella.webp",
      "imagem_pasta": "https://animefire.plus/img/animes/the-idolmaster-cinderella-girls-anytime-anywhere-with-cinderella/",
      "secao": "legendados",
      "pagina": 64,
      "total_episodios": 1,
      "link_video": "https://animefire.plus/video/the-idolmaster-cinderella-girls-anytime-anywhere-with-cinderella"
    },
    {
      "id": 3834,
      "nome": "The iDOLM@STER SideM",
      "link": "https://animefire.plus/animes/the-idolmaster-sidem-todos-os-episodios",
      "texto_original": "The iDOLM@STER SideM",
      "rating": 7.25,
      "classificacao_etaria": "A14",
      "imagem_original": "https://animefire.plus/img/animes/the-idolmaster-sidem.webp",
      "imagem_pasta": "https://animefire.plus/img/animes/the-idolmaster-sidem/",
      "secao": "legendados",
      "pagina": 73,
      "total_episodios": 13,
      "link_video": "https://animefire.plus/video/the-idolmaster-sidem"
    },
    {
      "id": 3843,
      "nome": "The Third: Aoi Hitomi No Shoujo",
      "link": "https://animefire.plus/animes/the-third-aoi-hitomi-no-shoujo-todos-os-episodios",
      "texto_original": "The Third: Aoi Hitomi No Shoujo",
      "rating": 7.37,
      "classificacao_etaria": "A16",
      "imagem_original": "https://animefire.plus/img/animes/the-third-aoi-hitomi-no-shoujo.webp",
      "imagem_pasta": "https://animefire.plus/img/animes/the-third-aoi-hitomi-no-shoujo/",
      "secao": "legendados",
      "pagina": 108,
      "total_episodios": 15,
      "link_video": "https://animefire.plus/video/the-third-aoi-hitomi-no-shoujo"
    },
    {
      "id": 3846,
      "nome": "Tiger & Bunny (Dublado)",
      "link": "https://animefire.plus/animes/tiger-bunny-dublado-todos-os-episodios",
      "texto_original": "Tiger & Bunny (Dublado)",
      "rating": 7.94,
      "classificacao_etaria": "A14",
      "imagem_original": "https://animefire.plus/img/animes/tiger-bunny.webp",
      "imagem_pasta": "https://animefire.plus/img/animes/tiger-bunny/",
      "secao": "dublados,legendados",
      "pagina": 18,
      "total_episodios": 25,
      "link_video": "https://animefire.plus/video/tiger-bunny-dublado"
    },
    {
      "id": 3847,
      "nome": "Tiger & Bunny 2 (Dublado)",
      "link": "https://animefire.plus/animes/tiger-bunny-2-dublado-todos-os-episodios",
      "texto_original": "Tiger & Bunny 2 (Dublado)",
      "rating": 7.42,
      "classificacao_etaria": "A14",
      "imagem_original": "https://animefire.plus/img/animes/tiger-bunny-2.webp",
      "imagem_pasta": "https://animefire.plus/img/animes/tiger-bunny-2/",
      "secao": "dublados,legendados,lancamentos",
      "pagina": 11,
      "total_episodios": 13,
      "link_video": "https://animefire.plus/video/tiger-bunny-2-dublado"
    },
    {
      "id": 3851,
      "nome": "To Be Hero",
      "link": "https://animefire.plus/animes/to-be-hero-todos-os-episodios",
      "texto_original": "To Be Hero",
      "rating": 7.04,
      "classificacao_etaria": "A14",
      "imagem_original": "https://animefire.plus/img/animes/to-be-hero.webp",
      "imagem_pasta": "https://animefire.plus/img/animes/to-be-hero/",
      "secao": "legendados",
      "pagina": 99,
      "total_episodios": 12,
      "link_video": "https://animefire.plus/video/to-be-hero"
    },
    {
      "id": 3855,
      "nome": "To LOVE-Ru",
      "link": "https://animefire.plus/animes/to-love-ru-todos-os-episodios",
      "texto_original": "To LOVE-Ru",
      "rating": 7.21,
      "classificacao_etaria": "A18",
      "imagem_original": "https://animefire.plus/img/animes/to-love-ru.webp",
      "imagem_pasta": "https://animefire.plus/img/animes/to-love-ru/",
      "secao": "legendados",
      "pagina": 138,
      "total_episodios": 0,
      "link_video": "https://animefire.plus/video/to-love-ru"
    },
    {
      "id": 3856,
      "nome": "To LOVE-Ru Darkness",
      "link": "https://animefire.plus/animes/to-love-ru-darkness-todos-os-episodios",
      "texto_original": "To LOVE-Ru Darkness",
      "rating": 7.65,
      "classificacao_etaria": "A18",
      "imagem_original": "https://animefire.plus/img/animes/to-love-ru-darkness.webp",
      "imagem_pasta": "https://animefire.plus/img/animes/to-love-ru-darkness/",
      "secao": "legendados",
      "pagina": 116,
      "total_episodios": 0,
      "link_video": "https://animefire.plus/video/to-love-ru-darkness"
    },
    {
      "id": 3857,
      "nome": "To LOVE-Ru Darkness 2nd",
      "link": "https://animefire.plus/animes/to-love-ru-darkness-2nd-todos-os-episodios",
      "texto_original": "To LOVE-Ru Darkness 2nd",
      "rating": 7.65,
      "classificacao_etaria": "A18",
      "imagem_original": "https://animefire.plus/img/animes/to-love-ru-darkness-2nd.webp",
      "imagem_pasta": "https://animefire.plus/img/animes/to-love-ru-darkness-2nd/",
      "secao": "legendados",
      "pagina": 146,
      "total_episodios": 0,
      "link_video": "https://animefire.plus/video/to-love-ru-darkness-2nd"
    },
    {
      "id": 3858,
      "nome": "Toaru Hikuushi E No Koiuta",
      "link": "https://animefire.plus/animes/toaru-hikuushi-e-no-koiuta-todos-os-episodios",
      "texto_original": "Toaru Hikuushi E No Koiuta",
      "rating": 7.24,
      "classificacao_etaria": "A14",
      "imagem_original": "https://animefire.plus/img/animes/toaru-hikuushi-e-no-koiuta.webp",
      "imagem_pasta": "https://animefire.plus/img/animes/toaru-hikuushi-e-no-koiuta/",
      "secao": "legendados",
      "pagina": 101,
      "total_episodios": 13,
      "link_video": "https://animefire.plus/video/toaru-hikuushi-e-no-koiuta"
    },
    {
      "id": 3859,
      "nome": "Toaru Kagaku no Accelerator",
      "link": "https://animefire.plus/animes/toaru-kagaku-no-accelerator-todos-os-episodios",
      "texto_original": "Toaru Kagaku no Accelerator",
      "rating": 7.18,
      "classificacao_etaria": "A16",
      "imagem_original": "https://animefire.plus/img/animes/toaru-kagaku-no-accelerator.webp",
      "imagem_pasta": "https://animefire.plus/img/animes/toaru-kagaku-no-accelerator/",
      "secao": "legendados",
      "pagina": 176,
      "total_episodios": 2,
      "link_video": "https://animefire.plus/video/toaru-kagaku-no-accelerator"
    },
    {
      "id": 3860,
      "nome": "Toaru Kagaku no Railgun",
      "link": "https://animefire.plus/animes/toaru-kagaku-no-railgun-todos-os-episodios",
      "texto_original": "Toaru Kagaku no Railgun",
      "rating": 7.8,
      "classificacao_etaria": "A14",
      "imagem_original": "https://animefire.plus/img/animes/toaru-kagaku-no-railgun.webp",
      "imagem_pasta": "https://animefire.plus/img/animes/toaru-kagaku-no-railgun/",
      "secao": "legendados",
      "pagina": 138,
      "total_episodios": 24,
      "link_video": "https://animefire.plus/video/toaru-kagaku-no-railgun"
    },
    {
      "id": 3863,
      "nome": "Toaru Kagaku no Railgun S: Motto Marutto Railgun",
      "link": "https://animefire.plus/animes/toaru-kagaku-no-railgun-s-motto-marutto-railgun-todos-os-episodios",
      "texto_original": "Toaru Kagaku no Railgun S: Motto Marutto Railgun",
      "rating": 7.07,
      "classificacao_etaria": "A14",
      "imagem_original": "https://animefire.plus/img/animes/toaru-kagaku-no-railgun-s-motto-marutto-railgun.webp",
      "imagem_pasta": "https://animefire.plus/img/animes/toaru-kagaku-no-railgun-s-motto-marutto-railgun/",
      "secao": "legendados",
      "pagina": 68,
      "total_episodios": 2,
      "link_video": "https://animefire.plus/video/toaru-kagaku-no-railgun-s-motto-marutto-railgun"
    },
    {
      "id": 3865,
      "nome": "Toaru Majutsu no Index (Dublado)",
      "link": "https://animefire.plus/animes/toaru-majutsu-no-index-dublado-todos-os-episodios",
      "texto_original": "Toaru Majutsu no Index (Dublado)",
      "rating": 7.49,
      "classificacao_etaria": "A16",
      "imagem_original": "https://animefire.plus/img/animes/toaru-majutsu-no-index.webp",
      "imagem_pasta": "https://animefire.plus/img/animes/toaru-majutsu-no-index/",
      "secao": "dublados,legendados",
      "pagina": 20,
      "total_episodios": 24,
      "link_video": "https://animefire.plus/video/toaru-majutsu-no-index-dublado"
    },
    {
      "id": 3866,
      "nome": "Toaru Majutsu no Index II",
      "link": "https://animefire.plus/animes/toaru-majutsu-no-index-ii-todos-os-episodios",
      "texto_original": "Toaru Majutsu no Index II",
      "rating": 7.74,
      "classificacao_etaria": "A16",
      "imagem_original": "https://animefire.plus/img/animes/toaru-majutsu-no-index-ii.webp",
      "imagem_pasta": "https://animefire.plus/img/animes/toaru-majutsu-no-index-ii/",
      "secao": "legendados",
      "pagina": 170,
      "total_episodios": 18,
      "link_video": "https://animefire.plus/video/toaru-majutsu-no-index-ii"
    },
    {
      "id": 3870,
      "nome": "Toaru Majutsu no Index-tan Movie: Endymion no Kiseki - Ga Attari Nakattari",
      "link": "https://animefire.plus/animes/toaru-majutsu-no-index-tan-movie-endymion-no-kiseki---ga-attari-nakattari-todos-os-episodios",
      "texto_original": "Toaru Majutsu no Index-tan Movie: Endymion no Kiseki - Ga Attari Nakattari",
      "rating": 7.11,
      "classificacao_etaria": "A14",
      "imagem_original": "https://animefire.plus/img/animes/toaru-majutsu-no-index-tan-movie-endymion-no-kiseki---ga-attari-nakattari.webp",
      "imagem_pasta": "https://animefire.plus/img/animes/toaru-majutsu-no-index-tan-movie-endymion-no-kiseki---ga-attari-nakattari/",
      "secao": "legendados",
      "pagina": 54,
      "total_episodios": 1,
      "link_video": "https://animefire.plus/video/toaru-majutsu-no-index-tan-movie-endymion-no-kiseki---ga-attari-nakattari"
    },
    {
      "id": 3876,
      "nome": "Tokidoki Bosotto Russia-go de Dereru Tonari no Alya-san",
      "link": "https://animefire.plus/animes/tokidoki-bosotto-russia-go-de-dereru-tonari-no-alya-san-todos-os-episodios",
      "texto_original": "Tokidoki Bosotto Russia-go de Dereru Tonari no Alya-san",
      "rating": 7.57,
      "classificacao_etaria": "A14",
      "imagem_original": "https://animefire.plus/img/animes/tokidoki-bosotto-russia-go-de-dereru-tonari-no-alya-san.webp",
      "imagem_pasta": "https://animefire.plus/img/animes/tokidoki-bosotto-russia-go-de-dereru-tonari-no-alya-san/",
      "secao": "legendados",
      "pagina": 13,
      "total_episodios": 12,
      "link_video": "https://animefire.plus/video/tokidoki-bosotto-russia-go-de-dereru-tonari-no-alya-san"
    },
    {
      "id": 3877,
      "nome": "Tokimeki Memorial: Only Love",
      "link": "https://animefire.plus/animes/tokimeki-memorial-only-love-todos-os-episodios",
      "texto_original": "Tokimeki Memorial: Only Love",
      "rating": 7.13,
      "classificacao_etaria": "A14",
      "imagem_original": "https://animefire.plus/img/animes/tokimeki-memorial-only-love.webp",
      "imagem_pasta": "https://animefire.plus/img/animes/tokimeki-memorial-only-love/",
      "secao": "legendados",
      "pagina": 165,
      "total_episodios": 0,
      "link_video": "https://animefire.plus/video/tokimeki-memorial-only-love"
    }
  ],
  "pagination": {
    "current_page": 84,
    "per_page": 20,
    "total_items": 1905,
    "total_pages": 96,
    "has_next": true,
    "has_prev": true
  }
}
