{
  "message": "Animes com rating entre 7 e 8",
  "rating_range": {
    "min": 7,
    "max": 8
  },
  "data": [
    {
      "id": 1739,
      "nome": "JoJo no Kimyou na Bouken (TV) (Dublado)",
      "link": "https://animefire.plus/animes/jojo-no-kimyou-na-bouken-tv-dublado-todos-os-episodios",
      "texto_original": "JoJo no Kimyou na Bouken (TV) (Dublado)",
      "rating": 7.99,
      "classificacao_etaria": "A16",
      "imagem_original": "https://animefire.plus/img/animes/jojo-no-kimyou-na-bouken-tv.webp",
      "imagem_pasta": "https://animefire.plus/img/animes/jojo-no-kimyou-na-bouken-tv/",
      "secao": "dublados,legendados",
      "pagina": 17,
      "total_episodios": 26,
      "link_video": "https://animefire.plus/video/jojo-no-kimyou-na-bouken-tv-dublado"
    },
    {
      "id": 1745,
      "nome": "JoJo no Kimyou na Bouken: Adventure",
      "link": "https://animefire.plus/animes/jojo-no-kimyou-na-bouken-adventure-todos-os-episodios",
      "texto_original": "JoJo no Kimyou na Bouken: Adventure",
      "rating": 7.22,
      "classificacao_etaria": "A18",
      "imagem_original": "https://animefire.plus/img/animes/jojo-no-kimyou-na-bouken-adventure.webp",
      "imagem_pasta": "https://animefire.plus/img/animes/jojo-no-kimyou-na-bouken-adventure/",
      "secao": "legendados",
      "pagina": 173,
      "total_episodios": 0,
      "link_video": "https://animefire.plus/video/jojo-no-kimyou-na-bouken-adventure"
    },
    {
      "id": 1746,
      "nome": "Joker Game (Dublado)",
      "link": "https://animefire.plus/animes/joker-game-dublado-todos-os-episodios",
      "texto_original": "Joker Game (Dublado)",
      "rating": 7.08,
      "classificacao_etaria": "A16",
      "imagem_original": "https://animefire.plus/img/animes/joker-game.webp",
      "imagem_pasta": "https://animefire.plus/img/animes/joker-game/",
      "secao": "dublados,legendados",
      "pagina": 24,
      "total_episodios": 12,
      "link_video": "https://animefire.plus/video/joker-game-dublado"
    },
    {
      "id": 1747,
      "nome": "Jormungand",
      "link": "https://animefire.plus/animes/jormungand-todos-os-episodios",
      "texto_original": "Jormungand",
      "rating": 7.91,
      "classificacao_etaria": "A18",
      "imagem_original": "https://animefire.plus/img/animes/jormungand.webp",
      "imagem_pasta": "https://animefire.plus/img/animes/jormungand/",
      "secao": "legendados",
      "pagina": 143,
      "total_episodios": 7,
      "link_video": "https://animefire.plus/video/jormungand"
    },
    {
      "id": 1748,
      "nome": "Jormungand: Perfect Order",
      "link": "https://animefire.plus/animes/jormungand-perfect-order-todos-os-episodios",
      "texto_original": "Jormungand: Perfect Order",
      "rating": 8,
      "classificacao_etaria": "A18",
      "imagem_original": "https://animefire.plus/img/animes/jormungand-perfect-order.webp",
      "imagem_pasta": "https://animefire.plus/img/animes/jormungand-perfect-order/",
      "secao": "legendados",
      "pagina": 147,
      "total_episodios": 0,
      "link_video": "https://animefire.plus/video/jormungand-perfect-order"
    },
    {
      "id": 1750,
      "nome": "Joshikousei no Mudazukai",
      "link": "https://animefire.plus/animes/joshikousei-no-mudazukai-todos-os-episodios",
      "texto_original": "Joshikousei no Mudazukai",
      "rating": 7.71,
      "classificacao_etaria": "A14",
      "imagem_original": "https://animefire.plus/img/animes/joshikousei-no-mudazukai.webp",
      "imagem_pasta": "https://animefire.plus/img/animes/joshikousei-no-mudazukai/",
      "secao": "legendados",
      "pagina": 112,
      "total_episodios": 5,
      "link_video": "https://animefire.plus/video/joshikousei-no-mudazukai"
    },
    {
      "id": 1751,
      "nome": "Joshiraku",
      "link": "https://animefire.plus/animes/joshiraku-todos-os-episodios",
      "texto_original": "Joshiraku",
      "rating": 7.52,
      "classificacao_etaria": "A14",
      "imagem_original": "https://animefire.plus/img/animes/joshiraku.webp",
      "imagem_pasta": "https://animefire.plus/img/animes/joshiraku/",
      "secao": "legendados",
      "pagina": 149,
      "total_episodios": 4,
      "link_video": "https://animefire.plus/video/joshiraku"
    },
    {
      "id": 1752,
      "nome": "Joukamachi no Dandelion",
      "link": "https://animefire.plus/animes/joukamachi-no-dandelion-todos-os-episodios",
      "texto_original": "Joukamachi no Dandelion",
      "rating": 7.29,
      "classificacao_etaria": "A14",
      "imagem_original": "https://animefire.plus/img/animes/joukamachi-no-dandelion.webp",
      "imagem_pasta": "https://animefire.plus/img/animes/joukamachi-no-dandelion/",
      "secao": "legendados",
      "pagina": 163,
      "total_episodios": 0,
      "link_video": "https://animefire.plus/video/joukamachi-no-dandelion"
    },
    {
      "id": 1758,
      "nome": "Junjou Romantica",
      "link": "https://animefire.plus/animes/junjou-romantica-todos-os-episodios",
      "texto_original": "Junjou Romantica",
      "rating": 7.92,
      "classificacao_etaria": "A14",
      "imagem_original": "https://animefire.plus/img/animes/junjou-romantica.webp",
      "imagem_pasta": "https://animefire.plus/img/animes/junjou-romantica/",
      "secao": "legendados",
      "pagina": 139,
      "total_episodios": 12,
      "link_video": "https://animefire.plus/video/junjou-romantica"
    },
    {
      "id": 1761,
      "nome": "Junketsu no Maria",
      "link": "https://animefire.plus/animes/junketsu-no-maria-todos-os-episodios",
      "texto_original": "Junketsu no Maria",
      "rating": 7.21,
      "classificacao_etaria": "A16",
      "imagem_original": "https://animefire.plus/img/animes/junketsu-no-maria.webp",
      "imagem_pasta": "https://animefire.plus/img/animes/junketsu-no-maria/",
      "secao": "legendados",
      "pagina": 138,
      "total_episodios": 2,
      "link_video": "https://animefire.plus/video/junketsu-no-maria"
    },
    {
      "id": 1762,
      "nome": "Just Because!",
      "link": "https://animefire.plus/animes/just-because-todos-os-episodios",
      "texto_original": "Just Because!",
      "rating": 7.37,
      "classificacao_etaria": "A14",
      "imagem_original": "https://animefire.plus/img/animes/just-because.webp",
      "imagem_pasta": "https://animefire.plus/img/animes/just-because/",
      "secao": "legendados",
      "pagina": 148,
      "total_episodios": 12,
      "link_video": "https://animefire.plus/video/just-because"
    },
    {
      "id": 1773,
      "nome": "Jyu Oh Sei",
      "link": "https://animefire.plus/animes/jyu-oh-sei-todos-os-episodios",
      "texto_original": "Jyu Oh Sei",
      "rating": 7.32,
      "classificacao_etaria": "A16",
      "imagem_original": "https://animefire.plus/img/animes/jyu-oh-sei.webp",
      "imagem_pasta": "https://animefire.plus/img/animes/jyu-oh-sei/",
      "secao": "legendados",
      "pagina": 147,
      "total_episodios": 11,
      "link_video": "https://animefire.plus/video/jyu-oh-sei"
    },
    {
      "id": 1776,
      "nome": "K: Return Of Kings",
      "link": "https://animefire.plus/animes/k-return-of-kings-todos-os-episodios",
      "texto_original": "K: Return Of Kings",
      "rating": 7.74,
      "classificacao_etaria": "A14",
      "imagem_original": "https://animefire.plus/img/animes/k-return-of-kings.webp",
      "imagem_pasta": "https://animefire.plus/img/animes/k-return-of-kings/",
      "secao": "legendados",
      "pagina": 107,
      "total_episodios": 13,
      "link_video": "https://animefire.plus/video/k-return-of-kings"
    },
    {
      "id": 1780,
      "nome": "Kachou Ouji",
      "link": "https://animefire.plus/animes/kachou-ouji-todos-os-episodios",
      "texto_original": "Kachou Ouji",
      "rating": 7.07,
      "classificacao_etaria": "A18",
      "imagem_original": "https://animefire.plus/img/animes/kachou-ouji.webp",
      "imagem_pasta": "https://animefire.plus/img/animes/kachou-ouji/",
      "secao": "legendados",
      "pagina": 168,
      "total_episodios": 0,
      "link_video": "https://animefire.plus/video/kachou-ouji"
    },
    {
      "id": 1785,
      "nome": "Kageki Shoujo!! (Dublado)",
      "link": "https://animefire.plus/animes/kageki-shoujo-dublado-todos-os-episodios",
      "texto_original": "Kageki Shoujo!! (Dublado)",
      "rating": 7.72,
      "classificacao_etaria": "A14",
      "imagem_original": "https://animefire.plus/img/animes/kageki-shoujo.webp",
      "imagem_pasta": "https://animefire.plus/img/animes/kageki-shoujo/",
      "secao": "dublados,legendados",
      "pagina": 11,
      "total_episodios": 13,
      "link_video": "https://animefire.plus/video/kageki-shoujo-dublado"
    },
    {
      "id": 1789,
      "nome": "Kaginado",
      "link": "https://animefire.plus/animes/kaginado-todos-os-episodios",
      "texto_original": "Kaginado",
      "rating": 7.13,
      "classificacao_etaria": "A14",
      "imagem_original": "https://animefire.plus/img/animes/kaginado.webp",
      "imagem_pasta": "https://animefire.plus/img/animes/kaginado/",
      "secao": "legendados",
      "pagina": 37,
      "total_episodios": 12,
      "link_video": "https://animefire.plus/video/kaginado"
    },
    {
      "id": 1790,
      "nome": "Kaginado Season 2",
      "link": "https://animefire.plus/animes/kaginado-season-2-todos-os-episodios",
      "texto_original": "Kaginado Season 2",
      "rating": 7.35,
      "classificacao_etaria": "A14",
      "imagem_original": "https://animefire.plus/img/animes/kaginado-season-2.webp",
      "imagem_pasta": "https://animefire.plus/img/animes/kaginado-season-2/",
      "secao": "legendados",
      "pagina": 33,
      "total_episodios": 12,
      "link_video": "https://animefire.plus/video/kaginado-season-2"
    },
    {
      "id": 1793,
      "nome": "Kaguya-sama wa Kokurasetai: Tensai-tachi no Renai Zunousen OVA",
      "link": "https://animefire.plus/animes/kaguya-sama-wa-kokurasetai-tensai-tachi-no-renai-zunousen-ova-todos-os-episodios",
      "texto_original": "Kaguya-sama wa Kokurasetai: Tensai-tachi no Renai Zunousen OVA",
      "rating": 7.58,
      "classificacao_etaria": "A14",
      "imagem_original": "https://animefire.plus/img/animes/kaguya-sama-wa-kokurasetai-tensai-tachi-no-renai-zunousen-ova.webp",
      "imagem_pasta": "https://animefire.plus/img/animes/kaguya-sama-wa-kokurasetai-tensai-tachi-no-renai-zunousen-ova/",
      "secao": "legendados",
      "pagina": 46,
      "total_episodios": 1,
      "link_video": "https://animefire.plus/video/kaguya-sama-wa-kokurasetai-tensai-tachi-no-renai-zunousen-ova"
    },
    {
      "id": 1797,
      "nome": "Kai Byoui Ramune",
      "link": "https://animefire.plus/animes/kai-byoui-ramune-todos-os-episodios",
      "texto_original": "Kai Byoui Ramune",
      "rating": 7.15,
      "classificacao_etaria": "A14",
      "imagem_original": "https://animefire.plus/img/animes/kai-byoui-ramune.webp",
      "imagem_pasta": "https://animefire.plus/img/animes/kai-byoui-ramune/",
      "secao": "legendados",
      "pagina": 49,
      "total_episodios": 12,
      "link_video": "https://animefire.plus/video/kai-byoui-ramune"
    },
    {
      "id": 1801,
      "nome": "Kaibutsu Oujo",
      "link": "https://animefire.plus/animes/kaibutsu-oujo-todos-os-episodios",
      "texto_original": "Kaibutsu Oujo",
      "rating": 7.09,
      "classificacao_etaria": "A14",
      "imagem_original": "https://animefire.plus/img/animes/kaibutsu-oujo.webp",
      "imagem_pasta": "https://animefire.plus/img/animes/kaibutsu-oujo/",
      "secao": "legendados",
      "pagina": 165,
      "total_episodios": 25,
      "link_video": "https://animefire.plus/video/kaibutsu-oujo"
    }
  ],
  "pagination": {
    "current_page": 37,
    "per_page": 20,
    "total_items": 1905,
    "total_pages": 96,
    "has_next": true,
    "has_prev": true
  }
}
