{
  "message": "Animes com rating entre 7 e 8",
  "rating_range": {
    "min": 7,
    "max": 8
  },
  "data": [
    {
      "id": 3997,
      "nome": "Uchuu Patrol Luluco",
      "link": "https://animefire.plus/animes/uchuu-patrol-luluco-todos-os-episodios",
      "texto_original": "Uchuu Patrol Luluco",
      "rating": 7.66,
      "classificacao_etaria": "A14",
      "imagem_original": "https://animefire.plus/img/animes/uchuu-patrol-luluco.webp",
      "imagem_pasta": "https://animefire.plus/img/animes/uchuu-patrol-luluco/",
      "secao": "legendados",
      "pagina": 140,
      "total_episodios": 13,
      "link_video": "https://animefire.plus/video/uchuu-patrol-luluco"
    },
    {
      "id": 4001,
      "nome": "Uchuu Senkan Yamato 2202: Ai no Senshi-tachi",
      "link": "https://animefire.plus/animes/uchuu-senkan-yamato-2202-ai-no-senshi-tachi-todos-os-episodios",
      "texto_original": "Uchuu Senkan Yamato 2202: Ai no Senshi-tachi",
      "rating": 7.69,
      "classificacao_etaria": "A14",
      "imagem_original": "https://animefire.plus/img/animes/uchuu-senkan-yamato-2202-ai-no-senshi-tachi.webp",
      "imagem_pasta": "https://animefire.plus/img/animes/uchuu-senkan-yamato-2202-ai-no-senshi-tachi/",
      "secao": "legendados",
      "pagina": 42,
      "total_episodios": 26,
      "link_video": "https://animefire.plus/video/uchuu-senkan-yamato-2202-ai-no-senshi-tachi"
    },
    {
      "id": 4003,
      "nome": "Udon no Kuni no Kiniro Kemari",
      "link": "https://animefire.plus/animes/udon-no-kuni-no-kiniro-kemari-todos-os-episodios",
      "texto_original": "Udon no Kuni no Kiniro Kemari",
      "rating": 7.81,
      "classificacao_etaria": "A14",
      "imagem_original": "https://animefire.plus/img/animes/udon-no-kuni-no-kiniro-kemari.webp",
      "imagem_pasta": "https://animefire.plus/img/animes/udon-no-kuni-no-kiniro-kemari/",
      "secao": "legendados",
      "pagina": 159,
      "total_episodios": 8,
      "link_video": "https://animefire.plus/video/udon-no-kuni-no-kiniro-kemari"
    },
    {
      "id": 4004,
      "nome": "Ueki no Housoku",
      "link": "https://animefire.plus/animes/ueki-no-housoku-todos-os-episodios",
      "texto_original": "Ueki no Housoku",
      "rating": 7.83,
      "classificacao_etaria": "A14",
      "imagem_original": "https://animefire.plus/img/animes/ueki-no-housoku.webp",
      "imagem_pasta": "https://animefire.plus/img/animes/ueki-no-housoku/",
      "secao": "legendados",
      "pagina": 175,
      "total_episodios": 4,
      "link_video": "https://animefire.plus/video/ueki-no-housoku"
    },
    {
      "id": 4009,
      "nome": "Ultra Maniac",
      "link": "https://animefire.plus/animes/ultra-maniac-todos-os-episodios",
      "texto_original": "Ultra Maniac",
      "rating": 7.25,
      "classificacao_etaria": null,
      "imagem_original": "https://animefire.plus/img/animes/ultra-maniac.webp",
      "imagem_pasta": "https://animefire.plus/img/animes/ultra-maniac/",
      "secao": "legendados",
      "pagina": 157,
      "total_episodios": 7,
      "link_video": "https://animefire.plus/video/ultra-maniac"
    },
    {
      "id": 4014,
      "nome": "Uma Musume: Pretty Derby",
      "link": "https://animefire.plus/animes/uma-musume-pretty-derby-todos-os-episodios",
      "texto_original": "Uma Musume: Pretty Derby",
      "rating": 7.44,
      "classificacao_etaria": "A14",
      "imagem_original": "https://animefire.plus/img/animes/uma-musume-pretty-derby.webp",
      "imagem_pasta": "https://animefire.plus/img/animes/uma-musume-pretty-derby/",
      "secao": "legendados",
      "pagina": 165,
      "total_episodios": 12,
      "link_video": "https://animefire.plus/video/uma-musume-pretty-derby"
    },
    {
      "id": 4015,
      "nome": "Uma Musume: Pretty Derby - BNW no Chikai",
      "link": "https://animefire.plus/animes/uma-musume-pretty-derby---bnw-no-chikai-todos-os-episodios",
      "texto_original": "Uma Musume: Pretty Derby - BNW no Chikai",
      "rating": 7.04,
      "classificacao_etaria": "A14",
      "imagem_original": "https://animefire.plus/img/animes/uma-musume-pretty-derby---bnw-no-chikai.webp",
      "imagem_pasta": "https://animefire.plus/img/animes/uma-musume-pretty-derby---bnw-no-chikai/",
      "secao": "legendados",
      "pagina": 45,
      "total_episodios": 3,
      "link_video": "https://animefire.plus/video/uma-musume-pretty-derby---bnw-no-chikai"
    },
    {
      "id": 4016,
      "nome": "Uma Musume: Pretty Derby (TV)",
      "link": "https://animefire.plus/animes/uma-musume-pretty-derby-tv-todos-os-episodios",
      "texto_original": "Uma Musume: Pretty Derby (TV)",
      "rating": 7.37,
      "classificacao_etaria": "A14",
      "imagem_original": "https://animefire.plus/img/animes/uma-musume-pretty-derby-tv.webp",
      "imagem_pasta": "https://animefire.plus/img/animes/uma-musume-pretty-derby-tv/",
      "secao": "legendados",
      "pagina": 87,
      "total_episodios": 13,
      "link_video": "https://animefire.plus/video/uma-musume-pretty-derby-tv"
    },
    {
      "id": 4020,
      "nome": "Umineko no Naku Koro ni",
      "link": "https://animefire.plus/animes/umineko-no-naku-koro-ni-todos-os-episodios",
      "texto_original": "Umineko no Naku Koro ni",
      "rating": 7.23,
      "classificacao_etaria": "A16",
      "imagem_original": "https://animefire.plus/img/animes/umineko-no-naku-koro-ni.webp",
      "imagem_pasta": "https://animefire.plus/img/animes/umineko-no-naku-koro-ni/",
      "secao": "legendados",
      "pagina": 112,
      "total_episodios": 26,
      "link_video": "https://animefire.plus/video/umineko-no-naku-koro-ni"
    },
    {
      "id": 4021,
      "nome": "UN-GO",
      "link": "https://animefire.plus/animes/un-go-todos-os-episodios",
      "texto_original": "UN-GO",
      "rating": 7.46,
      "classificacao_etaria": "A16",
      "imagem_original": "https://animefire.plus/img/animes/un-go.webp",
      "imagem_pasta": "https://animefire.plus/img/animes/un-go/",
      "secao": "legendados",
      "pagina": 170,
      "total_episodios": 11,
      "link_video": "https://animefire.plus/video/un-go"
    },
    {
      "id": 4022,
      "nome": "Undead Girl Murder Farce",
      "link": "https://animefire.plus/animes/undead-girl-murder-farce-todos-os-episodios",
      "texto_original": "Undead Girl Murder Farce",
      "rating": 7.85,
      "classificacao_etaria": "A16",
      "imagem_original": "https://animefire.plus/img/animes/undead-girl-murder-farce.jpg",
      "imagem_pasta": "https://animefire.plus/img/animes/undead-girl-murder-farce/",
      "secao": "legendados",
      "pagina": 22,
      "total_episodios": 13,
      "link_video": "https://animefire.plus/video/undead-girl-murder-farce"
    },
    {
      "id": 4023,
      "nome": "Undead Unluck (Dublado)",
      "link": "https://animefire.plus/animes/undead-unluck-dublado-todos-os-episodios",
      "texto_original": "Undead Unluck (Dublado)",
      "rating": 7.79,
      "classificacao_etaria": "A16",
      "imagem_original": "https://animefire.plus/img/animes/undead-unluck.webp",
      "imagem_pasta": "https://animefire.plus/img/animes/undead-unluck/",
      "secao": "dublados,legendados",
      "pagina": 4,
      "total_episodios": 24,
      "link_video": "https://animefire.plus/video/undead-unluck-dublado"
    },
    {
      "id": 4025,
      "nome": "UniteUp!",
      "link": "https://animefire.plus/animes/uniteup-todos-os-episodios",
      "texto_original": "UniteUp!",
      "rating": 7.02,
      "classificacao_etaria": "A14",
      "imagem_original": "https://animefire.plus/img/animes/uniteup.webp",
      "imagem_pasta": "https://animefire.plus/img/animes/uniteup/",
      "secao": "legendados",
      "pagina": 25,
      "total_episodios": 12,
      "link_video": "https://animefire.plus/video/uniteup"
    },
    {
      "id": 4028,
      "nome": "Unnamed Memory Act.2",
      "link": "https://animefire.plus/animes/unnamed-memory-act-2-todos-os-episodios",
      "texto_original": "Unnamed Memory Act.2",
      "rating": 7.11,
      "classificacao_etaria": "A14",
      "imagem_original": "https://animefire.plus/img/animes/unnamed-memory-act-2.webp",
      "imagem_pasta": "https://animefire.plus/img/animes/unnamed-memory-act-2/",
      "secao": "legendados",
      "pagina": 7,
      "total_episodios": 12,
      "link_video": "https://animefire.plus/video/unnamed-memory-act-2"
    },
    {
      "id": 4030,
      "nome": "UQ Holder!: Mahou Sensei Negima! 2",
      "link": "https://animefire.plus/animes/uq-holder-mahou-sensei-negima-2-todos-os-episodios",
      "texto_original": "UQ Holder!: Mahou Sensei Negima! 2",
      "rating": 7.15,
      "classificacao_etaria": "A14",
      "imagem_original": "https://animefire.plus/img/animes/uq-holder-mahou-sensei-negima-2.webp",
      "imagem_pasta": "https://animefire.plus/img/animes/uq-holder-mahou-sensei-negima-2/",
      "secao": "legendados",
      "pagina": 114,
      "total_episodios": 12,
      "link_video": "https://animefire.plus/video/uq-holder-mahou-sensei-negima-2"
    },
    {
      "id": 4031,
      "nome": "Uragiri wa Boku no Namae wo Shitteiru",
      "link": "https://animefire.plus/animes/uragiri-wa-boku-no-namae-wo-shitteiru-todos-os-episodios",
      "texto_original": "Uragiri wa Boku no Namae wo Shitteiru",
      "rating": 7.37,
      "classificacao_etaria": "A16",
      "imagem_original": "https://animefire.plus/img/animes/uragiri-wa-boku-no-namae-wo-shitteiru.webp",
      "imagem_pasta": "https://animefire.plus/img/animes/uragiri-wa-boku-no-namae-wo-shitteiru/",
      "secao": "legendados",
      "pagina": 164,
      "total_episodios": 24,
      "link_video": "https://animefire.plus/video/uragiri-wa-boku-no-namae-wo-shitteiru"
    },
    {
      "id": 4033,
      "nome": "Uramichi Oniisan (Dublado)",
      "link": "https://animefire.plus/animes/uramichi-oniisan-dublado-todos-os-episodios",
      "texto_original": "Uramichi Oniisan (Dublado)",
      "rating": 7.7,
      "classificacao_etaria": "A14",
      "imagem_original": "https://animefire.plus/img/animes/uramichi-oniisan.webp",
      "imagem_pasta": "https://animefire.plus/img/animes/uramichi-oniisan/",
      "secao": "dublados,legendados",
      "pagina": 12,
      "total_episodios": 13,
      "link_video": "https://animefire.plus/video/uramichi-oniisan-dublado"
    },
    {
      "id": 4034,
      "nome": "Urara Meirochou",
      "link": "https://animefire.plus/animes/urara-meirochou-todos-os-episodios",
      "texto_original": "Urara Meirochou",
      "rating": 7.2,
      "classificacao_etaria": "A14",
      "imagem_original": "https://animefire.plus/img/animes/urara-meirochou.webp",
      "imagem_pasta": "https://animefire.plus/img/animes/urara-meirochou/",
      "secao": "legendados",
      "pagina": 115,
      "total_episodios": 1,
      "link_video": "https://animefire.plus/video/urara-meirochou"
    },
    {
      "id": 4038,
      "nome": "Urusei Yatsura",
      "link": "https://animefire.plus/animes/urusei-yatsura-todos-os-episodios",
      "texto_original": "Urusei Yatsura",
      "rating": 7.75,
      "classificacao_etaria": "A14",
      "imagem_original": "https://animefire.plus/img/animes/urusei-yatsura.webp",
      "imagem_pasta": "https://animefire.plus/img/animes/urusei-yatsura/",
      "secao": "legendados",
      "pagina": 168,
      "total_episodios": 195,
      "link_video": "https://animefire.plus/video/urusei-yatsura"
    },
    {
      "id": 4039,
      "nome": "Urusei Yatsura (2022)",
      "link": "https://animefire.plus/animes/urusei-yatsura-2022-todos-os-episodios",
      "texto_original": "Urusei Yatsura (2022)",
      "rating": 7.4,
      "classificacao_etaria": "A14",
      "imagem_original": "https://animefire.plus/img/animes/urusei-yatsura-2022.webp",
      "imagem_pasta": "https://animefire.plus/img/animes/urusei-yatsura-2022/",
      "secao": "legendados",
      "pagina": 29,
      "total_episodios": 23,
      "link_video": "https://animefire.plus/video/urusei-yatsura-2022"
    }
  ],
  "pagination": {
    "current_page": 88,
    "per_page": 20,
    "total_items": 1905,
    "total_pages": 96,
    "has_next": true,
    "has_prev": true
  }
}
