{
  "message": "Animes com rating entre 7 e 8",
  "rating_range": {
    "min": 7,
    "max": 8
  },
  "data": [
    {
      "id": 482,
      "nome": "Boogiepop wa Warawanai (2019)",
      "link": "https://animefire.plus/animes/boogiepop-wa-warawanai-2019-todos-os-episodios",
      "texto_original": "Boogiepop wa Warawanai (2019)",
      "rating": 7.1,
      "classificacao_etaria": "A16",
      "imagem_original": "https://animefire.plus/img/animes/boogiepop-wa-warawanai-2019.webp",
      "imagem_pasta": "https://animefire.plus/img/animes/boogiepop-wa-warawanai-2019/",
      "secao": "legendados",
      "pagina": 96,
      "total_episodios": 18,
      "link_video": "https://animefire.plus/video/boogiepop-wa-warawanai-2019"
    },
    {
      "id": 485,
      "nome": "Bouken Ou Beet",
      "link": "https://animefire.plus/animes/bouken-ou-beet-todos-os-episodios",
      "texto_original": "Bouken Ou Beet",
      "rating": 7.03,
      "classificacao_etaria": "A10",
      "imagem_original": "https://animefire.plus/img/animes/bouken-ou-beet.webp",
      "imagem_pasta": "https://animefire.plus/img/animes/bouken-ou-beet/",
      "secao": "legendados",
      "pagina": 123,
      "total_episodios": 52,
      "link_video": "https://animefire.plus/video/bouken-ou-beet"
    },
    {
      "id": 489,
      "nome": "Boukyaku Battery (TV)",
      "link": "https://animefire.plus/animes/boukyaku-battery-tv-todos-os-episodios",
      "texto_original": "Boukyaku Battery (TV)",
      "rating": 7.52,
      "classificacao_etaria": "A14",
      "imagem_original": "https://animefire.plus/img/animes/boukyaku-battery-tv.webp",
      "imagem_pasta": "https://animefire.plus/img/animes/boukyaku-battery-tv/",
      "secao": "legendados",
      "pagina": 14,
      "total_episodios": 12,
      "link_video": "https://animefire.plus/video/boukyaku-battery-tv"
    },
    {
      "id": 490,
      "nome": "Bounen no Xamdou",
      "link": "https://animefire.plus/animes/bounen-no-xamdou-todos-os-episodios",
      "texto_original": "Bounen no Xamdou",
      "rating": 7.74,
      "classificacao_etaria": "A14",
      "imagem_original": "https://animefire.plus/img/animes/bounen-no-xamdou.webp",
      "imagem_pasta": "https://animefire.plus/img/animes/bounen-no-xamdou/",
      "secao": "legendados",
      "pagina": 175,
      "total_episodios": 26,
      "link_video": "https://animefire.plus/video/bounen-no-xamdou"
    },
    {
      "id": 496,
      "nome": "Brave Story",
      "link": "https://animefire.plus/animes/brave-story-todos-os-episodios",
      "texto_original": "Brave Story",
      "rating": 7.52,
      "classificacao_etaria": null,
      "imagem_original": "https://animefire.plus/img/animes/brave-story.webp",
      "imagem_pasta": "https://animefire.plus/img/animes/brave-story/",
      "secao": "legendados",
      "pagina": 161,
      "total_episodios": 0,
      "link_video": "https://animefire.plus/video/brave-story"
    },
    {
      "id": 498,
      "nome": "Break Blade",
      "link": "https://animefire.plus/animes/break-blade-todos-os-episodios",
      "texto_original": "Break Blade",
      "rating": 7.35,
      "classificacao_etaria": "A16",
      "imagem_original": "https://animefire.plus/img/animes/break-blade.webp",
      "imagem_pasta": "https://animefire.plus/img/animes/break-blade/",
      "secao": "legendados",
      "pagina": 123,
      "total_episodios": 11,
      "link_video": "https://animefire.plus/video/break-blade"
    },
    {
      "id": 504,
      "nome": "Btooom!",
      "link": "https://animefire.plus/animes/btooom-todos-os-episodios",
      "texto_original": "Btooom!",
      "rating": 7.53,
      "classificacao_etaria": "A16",
      "imagem_original": "https://animefire.plus/img/animes/btooom.webp",
      "imagem_pasta": "https://animefire.plus/img/animes/btooom/",
      "secao": "legendados",
      "pagina": 155,
      "total_episodios": 12,
      "link_video": "https://animefire.plus/video/btooom"
    },
    {
      "id": 505,
      "nome": "Bubble (Dublado)",
      "link": "https://animefire.plus/animes/bubble-dublado-todos-os-episodios",
      "texto_original": "Bubble (Dublado)",
      "rating": 7.24,
      "classificacao_etaria": "A14",
      "imagem_original": "https://animefire.plus/img/animes/bubble.webp",
      "imagem_pasta": "https://animefire.plus/img/animes/bubble/",
      "secao": "dublados,legendados",
      "pagina": 11,
      "total_episodios": 1,
      "link_video": "https://animefire.plus/video/bubble-dublado"
    },
    {
      "id": 506,
      "nome": "Bubblegum Crisis Tokyo 2040",
      "link": "https://animefire.plus/animes/bubblegum-crisis-tokyo-2040-todos-os-episodios",
      "texto_original": "Bubblegum Crisis Tokyo 2040",
      "rating": 7.16,
      "classificacao_etaria": "A16",
      "imagem_original": "https://animefire.plus/img/animes/bubblegum-crisis-tokyo-2040.webp",
      "imagem_pasta": "https://animefire.plus/img/animes/bubblegum-crisis-tokyo-2040/",
      "secao": "legendados",
      "pagina": 139,
      "total_episodios": 26,
      "link_video": "https://animefire.plus/video/bubblegum-crisis-tokyo-2040"
    },
    {
      "id": 512,
      "nome": "Buddy Complex",
      "link": "https://animefire.plus/animes/buddy-complex-todos-os-episodios",
      "texto_original": "Buddy Complex",
      "rating": 7.25,
      "classificacao_etaria": "A14",
      "imagem_original": "https://animefire.plus/img/animes/buddy-complex.webp",
      "imagem_pasta": "https://animefire.plus/img/animes/buddy-complex/",
      "secao": "legendados",
      "pagina": 144,
      "total_episodios": 13,
      "link_video": "https://animefire.plus/video/buddy-complex"
    },
    {
      "id": 513,
      "nome": "Buddy Complex: Kanketsu-hen - Ano Sora ni Kaeru Mirai de",
      "link": "https://animefire.plus/animes/buddy-complex-kanketsu-hen---ano-sora-ni-kaeru-mirai-de-todos-os-episodios",
      "texto_original": "Buddy Complex: Kanketsu-hen - Ano Sora ni Kaeru Mirai de",
      "rating": 7.36,
      "classificacao_etaria": "A14",
      "imagem_original": "https://animefire.plus/img/animes/buddy-complex-kanketsu-hen---ano-sora-ni-kaeru-mirai-de.webp",
      "imagem_pasta": "https://animefire.plus/img/animes/buddy-complex-kanketsu-hen---ano-sora-ni-kaeru-mirai-de/",
      "secao": "legendados",
      "pagina": 145,
      "total_episodios": 2,
      "link_video": "https://animefire.plus/video/buddy-complex-kanketsu-hen---ano-sora-ni-kaeru-mirai-de"
    },
    {
      "id": 518,
      "nome": "Bungou Stray Dogs (Dublado)",
      "link": "https://animefire.plus/animes/bungou-stray-dogs-dublado-todos-os-episodios",
      "texto_original": "Bungou Stray Dogs (Dublado)",
      "rating": 7.83,
      "classificacao_etaria": "A16",
      "imagem_original": "https://animefire.plus/img/animes/bungou-stray-dogs.webp",
      "imagem_pasta": "https://animefire.plus/img/animes/bungou-stray-dogs/",
      "secao": "dublados,legendados",
      "pagina": 28,
      "total_episodios": 0,
      "link_video": "https://animefire.plus/video/bungou-stray-dogs-dublado"
    },
    {
      "id": 524,
      "nome": "Bungou Stray Dogs Wan!",
      "link": "https://animefire.plus/animes/bungou-stray-dogs-wan-todos-os-episodios",
      "texto_original": "Bungou Stray Dogs Wan!",
      "rating": 7.98,
      "classificacao_etaria": "A14",
      "imagem_original": "https://animefire.plus/img/animes/bungou-stray-dogs-wan.webp",
      "imagem_pasta": "https://animefire.plus/img/animes/bungou-stray-dogs-wan/",
      "secao": "legendados",
      "pagina": 49,
      "total_episodios": 12,
      "link_video": "https://animefire.plus/video/bungou-stray-dogs-wan"
    },
    {
      "id": 525,
      "nome": "Bungou Stray Dogs: Hitori Ayumu (Dublado)",
      "link": "https://animefire.plus/animes/bungou-stray-dogs-hitori-ayumu-dublado-todos-os-episodios",
      "texto_original": "Bungou Stray Dogs: Hitori Ayumu (Dublado)",
      "rating": 7.71,
      "classificacao_etaria": "A14",
      "imagem_original": "https://animefire.plus/img/animes/bungou-stray-dogs-hitori-ayumu.webp",
      "imagem_pasta": "https://animefire.plus/img/animes/bungou-stray-dogs-hitori-ayumu/",
      "secao": "dublados,legendados",
      "pagina": 24,
      "total_episodios": 1,
      "link_video": "https://animefire.plus/video/bungou-stray-dogs-hitori-ayumu-dublado"
    },
    {
      "id": 527,
      "nome": "Burn the Witch #0.8",
      "link": "https://animefire.plus/animes/burn-the-witch-0-8-todos-os-episodios",
      "texto_original": "Burn the Witch #0.8",
      "rating": 7.46,
      "classificacao_etaria": "A14",
      "imagem_original": "https://animefire.plus/img/animes/burn-the-witch-0-8.webp",
      "imagem_pasta": "https://animefire.plus/img/animes/burn-the-witch-0-8/",
      "secao": "legendados",
      "pagina": 17,
      "total_episodios": 1,
      "link_video": "https://animefire.plus/video/burn-the-witch-0-8"
    },
    {
      "id": 534,
      "nome": "Busou Renkin",
      "link": "https://animefire.plus/animes/busou-renkin-todos-os-episodios",
      "texto_original": "Busou Renkin",
      "rating": 7.43,
      "classificacao_etaria": "A14",
      "imagem_original": "https://animefire.plus/img/animes/busou-renkin.webp",
      "imagem_pasta": "https://animefire.plus/img/animes/busou-renkin/",
      "secao": "legendados",
      "pagina": 132,
      "total_episodios": 26,
      "link_video": "https://animefire.plus/video/busou-renkin"
    },
    {
      "id": 536,
      "nome": "Busou Shoujo Machiavellianism",
      "link": "https://animefire.plus/animes/busou-shoujo-machiavellianism-todos-os-episodios",
      "texto_original": "Busou Shoujo Machiavellianism",
      "rating": 7.11,
      "classificacao_etaria": "A14",
      "imagem_original": "https://animefire.plus/img/animes/busou-shoujo-machiavellianism.webp",
      "imagem_pasta": "https://animefire.plus/img/animes/busou-shoujo-machiavellianism/",
      "secao": "legendados",
      "pagina": 145,
      "total_episodios": 12,
      "link_video": "https://animefire.plus/video/busou-shoujo-machiavellianism"
    },
    {
      "id": 546,
      "nome": "C: The Money Of Soul And Possibility Control",
      "link": "https://animefire.plus/animes/c-the-money-of-soul-and-possibility-control-todos-os-episodios",
      "texto_original": "C: The Money Of Soul And Possibility Control",
      "rating": 7.33,
      "classificacao_etaria": "A14",
      "imagem_original": "https://animefire.plus/img/animes/c-the-money-of-soul-and-possibility-control.webp",
      "imagem_pasta": "https://animefire.plus/img/animes/c-the-money-of-soul-and-possibility-control/",
      "secao": "legendados",
      "pagina": 96,
      "total_episodios": 11,
      "link_video": "https://animefire.plus/video/c-the-money-of-soul-and-possibility-control"
    },
    {
      "id": 548,
      "nome": "Campione!: Matsurowanu Kamigami to Kamigoroshi no Maou",
      "link": "https://animefire.plus/animes/campione-matsurowanu-kamigami-to-kamigoroshi-no-maou-todos-os-episodios",
      "texto_original": "Campione!: Matsurowanu Kamigami to Kamigoroshi no Maou",
      "rating": 7.23,
      "classificacao_etaria": "A14",
      "imagem_original": "https://animefire.plus/img/animes/campione-matsurowanu-kamigami-to-kamigoroshi-no-maou.webp",
      "imagem_pasta": "https://animefire.plus/img/animes/campione-matsurowanu-kamigami-to-kamigoroshi-no-maou/",
      "secao": "legendados",
      "pagina": 128,
      "total_episodios": 0,
      "link_video": "https://animefire.plus/video/campione-matsurowanu-kamigami-to-kamigoroshi-no-maou"
    },
    {
      "id": 549,
      "nome": "Canaan",
      "link": "https://animefire.plus/animes/canaan-todos-os-episodios",
      "texto_original": "Canaan",
      "rating": 7.33,
      "classificacao_etaria": "A16",
      "imagem_original": "https://animefire.plus/img/animes/canaan.webp",
      "imagem_pasta": "https://animefire.plus/img/animes/canaan/",
      "secao": "legendados",
      "pagina": 137,
      "total_episodios": 13,
      "link_video": "https://animefire.plus/video/canaan"
    }
  ],
  "pagination": {
    "current_page": 11,
    "per_page": 20,
    "total_items": 1905,
    "total_pages": 96,
    "has_next": true,
    "has_prev": true
  }
}
