{
  "message": "Animes com rating entre 7 e 8",
  "rating_range": {
    "min": 7,
    "max": 8
  },
  "data": [
    {
      "id": 4172,
      "nome": "Xian Wang de Richang Shenghuo 3",
      "link": "https://animefire.plus/animes/xian-wang-de-richang-shenghuo-3-todos-os-episodios",
      "texto_original": "Xian Wang de Richang Shenghuo 3",
      "rating": 7.35,
      "classificacao_etaria": "A14",
      "imagem_original": "https://animefire.plus/img/animes/xian-wang-de-richang-shenghuo-3.webp",
      "imagem_pasta": "https://animefire.plus/img/animes/xian-wang-de-richang-shenghuo-3/",
      "secao": "legendados",
      "pagina": 28,
      "total_episodios": 12,
      "link_video": "https://animefire.plus/video/xian-wang-de-richang-shenghuo-3"
    },
    {
      "id": 4173,
      "nome": "Xian Wang de Richang Shenghuo 4",
      "link": "https://animefire.plus/animes/xian-wang-de-richang-shenghuo-4-todos-os-episodios",
      "texto_original": "Xian Wang de Richang Shenghuo 4",
      "rating": 7.48,
      "classificacao_etaria": "A14",
      "imagem_original": "https://animefire.plus/img/animes/xian-wang-de-richang-shenghuo-4.webp",
      "imagem_pasta": "https://animefire.plus/img/animes/xian-wang-de-richang-shenghuo-4/",
      "secao": "legendados",
      "pagina": 17,
      "total_episodios": 12,
      "link_video": "https://animefire.plus/video/xian-wang-de-richang-shenghuo-4"
    },
    {
      "id": 4176,
      "nome": "Xing Chen Bian",
      "link": "https://animefire.plus/animes/xing-chen-bian-todos-os-episodios",
      "texto_original": "Xing Chen Bian",
      "rating": 7.54,
      "classificacao_etaria": "A14",
      "imagem_original": "https://animefire.plus/img/animes/xing-chen-bian.webp",
      "imagem_pasta": "https://animefire.plus/img/animes/xing-chen-bian/",
      "secao": "legendados",
      "pagina": 60,
      "total_episodios": 10,
      "link_video": "https://animefire.plus/video/xing-chen-bian"
    },
    {
      "id": 4192,
      "nome": "Yama no Susume: Next Summit",
      "link": "https://animefire.plus/animes/yama-no-susume-next-summit-todos-os-episodios",
      "texto_original": "Yama no Susume: Next Summit",
      "rating": 7.64,
      "classificacao_etaria": "A14",
      "imagem_original": "https://animefire.plus/img/animes/yama-no-susume-next-summit.webp",
      "imagem_pasta": "https://animefire.plus/img/animes/yama-no-susume-next-summit/",
      "secao": "legendados",
      "pagina": 28,
      "total_episodios": 12,
      "link_video": "https://animefire.plus/video/yama-no-susume-next-summit"
    },
    {
      "id": 4193,
      "nome": "Yama no Susume: Omoide Present",
      "link": "https://animefire.plus/animes/yama-no-susume-omoide-present-todos-os-episodios",
      "texto_original": "Yama no Susume: Omoide Present",
      "rating": 7.4,
      "classificacao_etaria": "A14",
      "imagem_original": "https://animefire.plus/img/animes/yama-no-susume-omoide-present.webp",
      "imagem_pasta": "https://animefire.plus/img/animes/yama-no-susume-omoide-present/",
      "secao": "legendados",
      "pagina": 88,
      "total_episodios": 1,
      "link_video": "https://animefire.plus/video/yama-no-susume-omoide-present"
    },
    {
      "id": 4194,
      "nome": "Yama no Susume: Second Season",
      "link": "https://animefire.plus/animes/yama-no-susume-second-season-todos-os-episodios",
      "texto_original": "Yama no Susume: Second Season",
      "rating": 7.58,
      "classificacao_etaria": "A14",
      "imagem_original": "https://animefire.plus/img/animes/yama-no-susume-second-season.webp",
      "imagem_pasta": "https://animefire.plus/img/animes/yama-no-susume-second-season/",
      "secao": "legendados",
      "pagina": 125,
      "total_episodios": 24,
      "link_video": "https://animefire.plus/video/yama-no-susume-second-season"
    },
    {
      "id": 4195,
      "nome": "Yama no Susume: Third Season",
      "link": "https://animefire.plus/animes/yama-no-susume-third-season-todos-os-episodios",
      "texto_original": "Yama no Susume: Third Season",
      "rating": 7.61,
      "classificacao_etaria": "A14",
      "imagem_original": "https://animefire.plus/img/animes/yama-no-susume-third-season.webp",
      "imagem_pasta": "https://animefire.plus/img/animes/yama-no-susume-third-season/",
      "secao": "legendados",
      "pagina": 148,
      "total_episodios": 13,
      "link_video": "https://animefire.plus/video/yama-no-susume-third-season"
    },
    {
      "id": 4196,
      "nome": "Yamada-kun to 7-nin no Majo",
      "link": "https://animefire.plus/animes/yamada-kun-to-7-nin-no-majo-todos-os-episodios",
      "texto_original": "Yamada-kun to 7-nin no Majo",
      "rating": 7.78,
      "classificacao_etaria": "A14",
      "imagem_original": "https://animefire.plus/img/animes/yamada-kun-to-7-nin-no-majo.webp",
      "imagem_pasta": "https://animefire.plus/img/animes/yamada-kun-to-7-nin-no-majo/",
      "secao": "legendados",
      "pagina": 94,
      "total_episodios": 0,
      "link_video": "https://animefire.plus/video/yamada-kun-to-7-nin-no-majo"
    },
    {
      "id": 4197,
      "nome": "Yamada-kun to 7-nin no Majo (TV) (Dublado)",
      "link": "https://animefire.plus/animes/yamada-kun-to-7-nin-no-majo-tv-dublado-todos-os-episodios",
      "texto_original": "Yamada-kun to 7-nin no Majo (TV) (Dublado)",
      "rating": 7.74,
      "classificacao_etaria": "A14",
      "imagem_original": "https://animefire.plus/img/animes/yamada-kun-to-7-nin-no-majo-tv.webp",
      "imagem_pasta": "https://animefire.plus/img/animes/yamada-kun-to-7-nin-no-majo-tv/",
      "secao": "dublados",
      "pagina": 23,
      "total_episodios": 12,
      "link_video": "https://animefire.plus/video/yamada-kun-to-7-nin-no-majo-tv-dublado"
    },
    {
      "id": 4198,
      "nome": "Yamada-kun to 7-nin no Majo: Mou Hitotsu no Suzaku-sai",
      "link": "https://animefire.plus/animes/yamada-kun-to-7-nin-no-majo-mou-hitotsu-no-suzaku-sai-todos-os-episodios",
      "texto_original": "Yamada-kun to 7-nin no Majo: Mou Hitotsu no Suzaku-sai",
      "rating": 7.48,
      "classificacao_etaria": "A14",
      "imagem_original": "https://animefire.plus/img/animes/yamada-kun-to-7-nin-no-majo-mou-hitotsu-no-suzaku-sai.webp",
      "imagem_pasta": "https://animefire.plus/img/animes/yamada-kun-to-7-nin-no-majo-mou-hitotsu-no-suzaku-sai/",
      "secao": "legendados",
      "pagina": 54,
      "total_episodios": 2,
      "link_video": "https://animefire.plus/video/yamada-kun-to-7-nin-no-majo-mou-hitotsu-no-suzaku-sai"
    },
    {
      "id": 4199,
      "nome": "Yamada-kun to Lv999 no Koi o Suru",
      "link": "https://animefire.plus/animes/yamada-kun-to-lv999-no-koi-o-suru-todos-os-episodios",
      "texto_original": "Yamada-kun to Lv999 no Koi o Suru",
      "rating": 7.77,
      "classificacao_etaria": "A14",
      "imagem_original": "https://animefire.plus/img/animes/yamada-kun-to-lv999-no-koi-o-suru.jpg",
      "imagem_pasta": "https://animefire.plus/img/animes/yamada-kun-to-lv999-no-koi-o-suru/",
      "secao": "legendados",
      "pagina": 25,
      "total_episodios": 13,
      "link_video": "https://animefire.plus/video/yamada-kun-to-lv999-no-koi-o-suru"
    },
    {
      "id": 4200,
      "nome": "Yamato Nadeshiko Shichihenge♥",
      "link": "https://animefire.plus/animes/yamato-nadeshiko-shichihenge-todos-os-episodios",
      "texto_original": "Yamato Nadeshiko Shichihenge♥",
      "rating": 7.84,
      "classificacao_etaria": "A14",
      "imagem_original": "https://animefire.plus/img/animes/yamato-nadeshiko-shichihenge.webp",
      "imagem_pasta": "https://animefire.plus/img/animes/yamato-nadeshiko-shichihenge/",
      "secao": "legendados",
      "pagina": 146,
      "total_episodios": 11,
      "link_video": "https://animefire.plus/video/yamato-nadeshiko-shichihenge"
    },
    {
      "id": 4201,
      "nome": "Yami no Matsuei",
      "link": "https://animefire.plus/animes/yami-no-matsuei-todos-os-episodios",
      "texto_original": "Yami no Matsuei",
      "rating": 7.17,
      "classificacao_etaria": "A16",
      "imagem_original": "https://animefire.plus/img/animes/yami-no-matsuei.webp",
      "imagem_pasta": "https://animefire.plus/img/animes/yami-no-matsuei/",
      "secao": "legendados",
      "pagina": 146,
      "total_episodios": 13,
      "link_video": "https://animefire.plus/video/yami-no-matsuei"
    },
    {
      "id": 4202,
      "nome": "Yami Shibai (Dublado)",
      "link": "https://animefire.plus/animes/yami-shibai-dublado-todos-os-episodios",
      "texto_original": "Yami Shibai (Dublado)",
      "rating": 7,
      "classificacao_etaria": "A14",
      "imagem_original": "https://animefire.plus/img/animes/yami-shibai.webp",
      "imagem_pasta": "https://animefire.plus/img/animes/yami-shibai/",
      "secao": "dublados,legendados",
      "pagina": 4,
      "total_episodios": 13,
      "link_video": "https://animefire.plus/video/yami-shibai-dublado"
    },
    {
      "id": 4218,
      "nome": "Yankee-kun na Yamada-kun to Megane-chan to Majo",
      "link": "https://animefire.plus/animes/yankee-kun-na-yamada-kun-to-megane-chan-to-majo-todos-os-episodios",
      "texto_original": "Yankee-kun na Yamada-kun to Megane-chan to Majo",
      "rating": 7.15,
      "classificacao_etaria": "A14",
      "imagem_original": "https://animefire.plus/img/animes/yankee-kun-na-yamada-kun-to-megane-chan-to-majo.webp",
      "imagem_pasta": "https://animefire.plus/img/animes/yankee-kun-na-yamada-kun-to-megane-chan-to-majo/",
      "secao": "legendados",
      "pagina": 89,
      "total_episodios": 1,
      "link_video": "https://animefire.plus/video/yankee-kun-na-yamada-kun-to-megane-chan-to-majo"
    },
    {
      "id": 4220,
      "nome": "Yaoguai Mingdan",
      "link": "https://animefire.plus/animes/yaoguai-mingdan-todos-os-episodios",
      "texto_original": "Yaoguai Mingdan",
      "rating": 7.12,
      "classificacao_etaria": "A14",
      "imagem_original": "https://animefire.plus/img/animes/yaoguai-mingdan.webp",
      "imagem_pasta": "https://animefire.plus/img/animes/yaoguai-mingdan/",
      "secao": "legendados",
      "pagina": 131,
      "total_episodios": 18,
      "link_video": "https://animefire.plus/video/yaoguai-mingdan"
    },
    {
      "id": 4221,
      "nome": "Yaoguai Mingdan 2nd Season",
      "link": "https://animefire.plus/animes/yaoguai-mingdan-2nd-season-todos-os-episodios",
      "texto_original": "Yaoguai Mingdan 2nd Season",
      "rating": 7.78,
      "classificacao_etaria": "A16",
      "imagem_original": "https://animefire.plus/img/animes/yaoguai-mingdan-2nd-season.webp",
      "imagem_pasta": "https://animefire.plus/img/animes/yaoguai-mingdan-2nd-season/",
      "secao": "legendados",
      "pagina": 82,
      "total_episodios": 21,
      "link_video": "https://animefire.plus/video/yaoguai-mingdan-2nd-season"
    },
    {
      "id": 4222,
      "nome": "Yarichin☆Bitch-bu",
      "link": "https://animefire.plus/animes/yarichin-bitch-bu-todos-os-episodios",
      "texto_original": "Yarichin☆Bitch-bu",
      "rating": 7.11,
      "classificacao_etaria": "A18",
      "imagem_original": "https://animefire.plus/img/animes/yarichin-bitch-bu.webp",
      "imagem_pasta": "https://animefire.plus/img/animes/yarichin-bitch-bu/",
      "secao": "legendados",
      "pagina": 89,
      "total_episodios": 2,
      "link_video": "https://animefire.plus/video/yarichin-bitch-bu"
    },
    {
      "id": 4223,
      "nome": "Yarinaoshi Reijou wa Ryuutei Heika wo Kouryakuchuu",
      "link": "https://animefire.plus/animes/yarinaoshi-reijou-wa-ryuutei-heika-wo-kouryakuchuu-todos-os-episodios",
      "texto_original": "Yarinaoshi Reijou wa Ryuutei Heika wo Kouryakuchuu",
      "rating": 7.01,
      "classificacao_etaria": "A14",
      "imagem_original": "https://animefire.plus/img/animes/yarinaoshi-reijou-wa-ryuutei-heika-wo-kouryakuchuu.webp",
      "imagem_pasta": "https://animefire.plus/img/animes/yarinaoshi-reijou-wa-ryuutei-heika-wo-kouryakuchuu/",
      "secao": "legendados",
      "pagina": 11,
      "total_episodios": 12,
      "link_video": "https://animefire.plus/video/yarinaoshi-reijou-wa-ryuutei-heika-wo-kouryakuchuu"
    },
    {
      "id": 4230,
      "nome": "Yawara!",
      "link": "https://animefire.plus/animes/yawara-todos-os-episodios",
      "texto_original": "Yawara!",
      "rating": 7.47,
      "classificacao_etaria": "A14",
      "imagem_original": "https://animefire.plus/img/animes/yawara.webp",
      "imagem_pasta": "https://animefire.plus/img/animes/yawara/",
      "secao": "legendados",
      "pagina": 43,
      "total_episodios": 53,
      "link_video": "https://animefire.plus/video/yawara"
    }
  ],
  "pagination": {
    "current_page": 92,
    "per_page": 20,
    "total_items": 1905,
    "total_pages": 96,
    "has_next": true,
    "has_prev": true
  }
}
