{
  "message": "Animes com rating entre 7 e 8",
  "rating_range": {
    "min": 7,
    "max": 8
  },
  "data": [
    {
      "id": 389,
      "nome": "Binan Koukou Chikyuu Boueibu LOVE!",
      "link": "https://animefire.plus/animes/binan-koukou-chikyuu-boueibu-love-todos-os-episodios",
      "texto_original": "Binan Koukou Chikyuu Boueibu LOVE!",
      "rating": 7,
      "classificacao_etaria": "A14",
      "imagem_original": "https://animefire.plus/img/animes/binan-koukou-chikyuu-boueibu-love.webp",
      "imagem_pasta": "https://animefire.plus/img/animes/binan-koukou-chikyuu-boueibu-love/",
      "secao": "legendados",
      "pagina": 143,
      "total_episodios": 8,
      "link_video": "https://animefire.plus/video/binan-koukou-chikyuu-boueibu-love"
    },
    {
      "id": 391,
      "nome": "Binbougami ga!",
      "link": "https://animefire.plus/animes/binbougami-ga-todos-os-episodios",
      "texto_original": "Binbougami ga!",
      "rating": 7.8,
      "classificacao_etaria": "A14",
      "imagem_original": "https://animefire.plus/img/animes/binbougami-ga.webp",
      "imagem_pasta": "https://animefire.plus/img/animes/binbougami-ga/",
      "secao": "legendados",
      "pagina": 119,
      "total_episodios": 12,
      "link_video": "https://animefire.plus/video/binbougami-ga"
    },
    {
      "id": 395,
      "nome": "Birdie Wing: Golf Girls' Story",
      "link": "https://animefire.plus/animes/birdie-wing-golf-girls-story-todos-os-episodios",
      "texto_original": "Birdie Wing: Golf Girls' Story",
      "rating": 7.48,
      "classificacao_etaria": "A14",
      "imagem_original": "https://animefire.plus/img/animes/birdie-wing-golf-girls-story.webp",
      "imagem_pasta": "https://animefire.plus/img/animes/birdie-wing-golf-girls-story/",
      "secao": "legendados",
      "pagina": 33,
      "total_episodios": 13,
      "link_video": "https://animefire.plus/video/birdie-wing-golf-girls-story"
    },
    {
      "id": 396,
      "nome": "Bishoujo Senshi Sailor Moon (Dublado)",
      "link": "https://animefire.plus/animes/bishoujo-senshi-sailor-moon-dublado-todos-os-episodios",
      "texto_original": "Bishoujo Senshi Sailor Moon (Dublado)",
      "rating": 7.74,
      "classificacao_etaria": "A14",
      "imagem_original": "https://animefire.plus/img/animes/bishoujo-senshi-sailor-moon.webp",
      "imagem_pasta": "https://animefire.plus/img/animes/bishoujo-senshi-sailor-moon/",
      "secao": "dublados,legendados",
      "pagina": 28,
      "total_episodios": 0,
      "link_video": "https://animefire.plus/video/bishoujo-senshi-sailor-moon-dublado"
    },
    {
      "id": 397,
      "nome": "Bishoujo Senshi Sailor Moon Crystal",
      "link": "https://animefire.plus/animes/bishoujo-senshi-sailor-moon-crystal-todos-os-episodios",
      "texto_original": "Bishoujo Senshi Sailor Moon Crystal",
      "rating": 7.05,
      "classificacao_etaria": "A14",
      "imagem_original": "https://animefire.plus/img/animes/bishoujo-senshi-sailor-moon-crystal.webp",
      "imagem_pasta": "https://animefire.plus/img/animes/bishoujo-senshi-sailor-moon-crystal/",
      "secao": "legendados",
      "pagina": 96,
      "total_episodios": 3,
      "link_video": "https://animefire.plus/video/bishoujo-senshi-sailor-moon-crystal"
    },
    {
      "id": 398,
      "nome": "Bishoujo Senshi Sailor Moon R",
      "link": "https://animefire.plus/animes/bishoujo-senshi-sailor-moon-r-todos-os-episodios",
      "texto_original": "Bishoujo Senshi Sailor Moon R",
      "rating": 7.7,
      "classificacao_etaria": "A14",
      "imagem_original": "https://animefire.plus/img/animes/bishoujo-senshi-sailor-moon-r.webp",
      "imagem_pasta": "https://animefire.plus/img/animes/bishoujo-senshi-sailor-moon-r/",
      "secao": "legendados",
      "pagina": 72,
      "total_episodios": 43,
      "link_video": "https://animefire.plus/video/bishoujo-senshi-sailor-moon-r"
    },
    {
      "id": 399,
      "nome": "Bishoujo Senshi Sailor Moon S",
      "link": "https://animefire.plus/animes/bishoujo-senshi-sailor-moon-s-todos-os-episodios",
      "texto_original": "Bishoujo Senshi Sailor Moon S",
      "rating": 7.86,
      "classificacao_etaria": "A14",
      "imagem_original": "https://animefire.plus/img/animes/bishoujo-senshi-sailor-moon-s.webp",
      "imagem_pasta": "https://animefire.plus/img/animes/bishoujo-senshi-sailor-moon-s/",
      "secao": "legendados",
      "pagina": 72,
      "total_episodios": 38,
      "link_video": "https://animefire.plus/video/bishoujo-senshi-sailor-moon-s"
    },
    {
      "id": 400,
      "nome": "Bishoujo Senshi Sailor Moon SuperS",
      "link": "https://animefire.plus/animes/bishoujo-senshi-sailor-moon-supers-todos-os-episodios",
      "texto_original": "Bishoujo Senshi Sailor Moon SuperS",
      "rating": 7.65,
      "classificacao_etaria": "A14",
      "imagem_original": "https://animefire.plus/img/animes/bishoujo-senshi-sailor-moon-supers.webp",
      "imagem_pasta": "https://animefire.plus/img/animes/bishoujo-senshi-sailor-moon-supers/",
      "secao": "legendados",
      "pagina": 133,
      "total_episodios": 39,
      "link_video": "https://animefire.plus/video/bishoujo-senshi-sailor-moon-supers"
    },
    {
      "id": 401,
      "nome": "Bishoujo Senshi Sailor Moon: Sailor Stars",
      "link": "https://animefire.plus/animes/bishoujo-senshi-sailor-moon-sailor-stars-todos-os-episodios",
      "texto_original": "Bishoujo Senshi Sailor Moon: Sailor Stars",
      "rating": 7.99,
      "classificacao_etaria": "A14",
      "imagem_original": "https://animefire.plus/img/animes/bishoujo-senshi-sailor-moon-sailor-stars.webp",
      "imagem_pasta": "https://animefire.plus/img/animes/bishoujo-senshi-sailor-moon-sailor-stars/",
      "secao": "legendados",
      "pagina": 131,
      "total_episodios": 0,
      "link_video": "https://animefire.plus/video/bishoujo-senshi-sailor-moon-sailor-stars"
    },
    {
      "id": 402,
      "nome": "Bishoujo Senshi Sailor Moon: Sailor Stars - Hero Club",
      "link": "https://animefire.plus/animes/bishoujo-senshi-sailor-moon-sailor-stars---hero-club-todos-os-episodios",
      "texto_original": "Bishoujo Senshi Sailor Moon: Sailor Stars - Hero Club",
      "rating": 7.25,
      "classificacao_etaria": "A14",
      "imagem_original": "https://animefire.plus/img/animes/bishoujo-senshi-sailor-moon-sailor-stars---hero-club.webp",
      "imagem_pasta": "https://animefire.plus/img/animes/bishoujo-senshi-sailor-moon-sailor-stars---hero-club/",
      "secao": "legendados",
      "pagina": 72,
      "total_episodios": 3,
      "link_video": "https://animefire.plus/video/bishoujo-senshi-sailor-moon-sailor-stars---hero-club"
    },
    {
      "id": 406,
      "nome": "Bishounen Tanteidan",
      "link": "https://animefire.plus/animes/bishounen-tanteidan-todos-os-episodios",
      "texto_original": "Bishounen Tanteidan",
      "rating": 7.07,
      "classificacao_etaria": "A14",
      "imagem_original": "https://animefire.plus/img/animes/bishounen-tanteidan.webp",
      "imagem_pasta": "https://animefire.plus/img/animes/bishounen-tanteidan/",
      "secao": "legendados",
      "pagina": 46,
      "total_episodios": 12,
      "link_video": "https://animefire.plus/video/bishounen-tanteidan"
    },
    {
      "id": 407,
      "nome": "Black Blood Brothers",
      "link": "https://animefire.plus/animes/black-blood-brothers-todos-os-episodios",
      "texto_original": "Black Blood Brothers",
      "rating": 7.21,
      "classificacao_etaria": "A16",
      "imagem_original": "https://animefire.plus/img/animes/black-blood-brothers.webp",
      "imagem_pasta": "https://animefire.plus/img/animes/black-blood-brothers/",
      "secao": "legendados",
      "pagina": 151,
      "total_episodios": 6,
      "link_video": "https://animefire.plus/video/black-blood-brothers"
    },
    {
      "id": 408,
      "nome": "Black Bullet",
      "link": "https://animefire.plus/animes/black-bullet-todos-os-episodios",
      "texto_original": "Black Bullet",
      "rating": 7.33,
      "classificacao_etaria": "A16",
      "imagem_original": "https://animefire.plus/img/animes/black-bullet.webp",
      "imagem_pasta": "https://animefire.plus/img/animes/black-bullet/",
      "secao": "legendados",
      "pagina": 134,
      "total_episodios": 13,
      "link_video": "https://animefire.plus/video/black-bullet"
    },
    {
      "id": 409,
      "nome": "Black Cat (Dublado)",
      "link": "https://animefire.plus/animes/black-cat-dublado-todos-os-episodios",
      "texto_original": "Black Cat (Dublado)",
      "rating": 7.41,
      "classificacao_etaria": "A14",
      "imagem_original": "https://animefire.plus/img/animes/black-cat.webp",
      "imagem_pasta": "https://animefire.plus/img/animes/black-cat/",
      "secao": "dublados,legendados",
      "pagina": 22,
      "total_episodios": 24,
      "link_video": "https://animefire.plus/video/black-cat-dublado"
    },
    {
      "id": 410,
      "nome": "Black Clover (Dublado)",
      "link": "https://animefire.plus/animes/black-clover-dublado-todos-os-episodios",
      "texto_original": "Black Clover (Dublado)",
      "rating": 7.27,
      "classificacao_etaria": "A14",
      "imagem_original": "https://animefire.plus/img/animes/black-clover.webp",
      "imagem_pasta": "https://animefire.plus/img/animes/black-clover/",
      "secao": "dublados,legendados",
      "pagina": 20,
      "total_episodios": 170,
      "link_video": "https://animefire.plus/video/black-clover-dublado"
    },
    {
      "id": 411,
      "nome": "Black Jack",
      "link": "https://animefire.plus/animes/black-jack-todos-os-episodios",
      "texto_original": "Black Jack",
      "rating": 7.83,
      "classificacao_etaria": "A18",
      "imagem_original": "https://animefire.plus/img/animes/black-jack.webp",
      "imagem_pasta": "https://animefire.plus/img/animes/black-jack/",
      "secao": "legendados",
      "pagina": 175,
      "total_episodios": 0,
      "link_video": "https://animefire.plus/video/black-jack"
    },
    {
      "id": 421,
      "nome": "Blassreiter",
      "link": "https://animefire.plus/animes/blassreiter-todos-os-episodios",
      "texto_original": "Blassreiter",
      "rating": 7,
      "classificacao_etaria": "A16",
      "imagem_original": "https://animefire.plus/img/animes/blassreiter.webp",
      "imagem_pasta": "https://animefire.plus/img/animes/blassreiter/",
      "secao": "legendados",
      "pagina": 114,
      "total_episodios": 24,
      "link_video": "https://animefire.plus/video/blassreiter"
    },
    {
      "id": 423,
      "nome": "Bleach (Dublado)",
      "link": "https://animefire.plus/animes/bleach-dublado-todos-os-episodios",
      "texto_original": "Bleach (Dublado)",
      "rating": 7.81,
      "classificacao_etaria": "A14",
      "imagem_original": "https://animefire.plus/img/animes/bleach.webp",
      "imagem_pasta": "https://animefire.plus/img/animes/bleach/",
      "secao": "dublados,legendados",
      "pagina": 21,
      "total_episodios": 366,
      "link_video": "https://animefire.plus/video/bleach-dublado"
    },
    {
      "id": 429,
      "nome": "Blend S",
      "link": "https://animefire.plus/animes/blend-s-todos-os-episodios",
      "texto_original": "Blend S",
      "rating": 7.52,
      "classificacao_etaria": "A14",
      "imagem_original": "https://animefire.plus/img/animes/blend-s.webp",
      "imagem_pasta": "https://animefire.plus/img/animes/blend-s/",
      "secao": "legendados",
      "pagina": 121,
      "total_episodios": 12,
      "link_video": "https://animefire.plus/video/blend-s"
    },
    {
      "id": 430,
      "nome": "Blood Lad",
      "link": "https://animefire.plus/animes/blood-lad-todos-os-episodios",
      "texto_original": "Blood Lad",
      "rating": 7.47,
      "classificacao_etaria": "A14",
      "imagem_original": "https://animefire.plus/img/animes/blood-lad.webp",
      "imagem_pasta": "https://animefire.plus/img/animes/blood-lad/",
      "secao": "legendados",
      "pagina": 124,
      "total_episodios": 0,
      "link_video": "https://animefire.plus/video/blood-lad"
    }
  ],
  "pagination": {
    "current_page": 9,
    "per_page": 20,
    "total_items": 1905,
    "total_pages": 96,
    "has_next": true,
    "has_prev": true
  }
}
