{
  "message": "Animes com rating entre 7 e 8",
  "rating_range": {
    "min": 7,
    "max": 8
  },
  "data": [
    {
      "id": 3753,
      "nome": "Tasokare Hotel",
      "link": "https://animefire.plus/animes/tasokare-hotel-todos-os-episodios",
      "texto_original": "Tasokare Hotel",
      "rating": 7.2,
      "classificacao_etaria": "A14",
      "imagem_original": "https://animefire.plus/img/animes/tasokare-hotel.webp",
      "imagem_pasta": "https://animefire.plus/img/animes/tasokare-hotel/",
      "secao": "legendados",
      "pagina": 7,
      "total_episodios": 12,
      "link_video": "https://animefire.plus/video/tasokare-hotel"
    },
    {
      "id": 3756,
      "nome": "Tatakau Shisho: The Book of Bantorra",
      "link": "https://animefire.plus/animes/tatakau-shisho-the-book-of-bantorra-todos-os-episodios",
      "texto_original": "Tatakau Shisho: The Book of Bantorra",
      "rating": 7.3,
      "classificacao_etaria": "A16",
      "imagem_original": "https://animefire.plus/img/animes/tatakau-shisho-the-book-of-bantorra.webp",
      "imagem_pasta": "https://animefire.plus/img/animes/tatakau-shisho-the-book-of-bantorra/",
      "secao": "legendados",
      "pagina": 111,
      "total_episodios": 27,
      "link_video": "https://animefire.plus/video/tatakau-shisho-the-book-of-bantorra"
    },
    {
      "id": 3759,
      "nome": "Tate no Yuusha no Nariagari Season 3 (Dublado)",
      "link": "https://animefire.plus/animes/tate-no-yuusha-no-nariagari-season-3-dublado-todos-os-episodios",
      "texto_original": "Tate no Yuusha no Nariagari Season 3 (Dublado)",
      "rating": 7.1,
      "classificacao_etaria": "A14",
      "imagem_original": "https://animefire.plus/img/animes/tate-no-yuusha-no-nariagari-season-3.webp",
      "imagem_pasta": "https://animefire.plus/img/animes/tate-no-yuusha-no-nariagari-season-3/",
      "secao": "dublados,legendados",
      "pagina": 5,
      "total_episodios": 12,
      "link_video": "https://animefire.plus/video/tate-no-yuusha-no-nariagari-season-3-dublado"
    },
    {
      "id": 3760,
      "nome": "Tate no Yuusha no Nariagari Season 4 (Dublado)",
      "link": "https://animefire.plus/animes/tate-no-yuusha-no-nariagari-season-4-dublado-todos-os-episodios",
      "texto_original": "Tate no Yuusha no Nariagari Season 4 (Dublado)",
      "rating": 7.34,
      "classificacao_etaria": "A14",
      "imagem_original": "https://animefire.plus/img/animes/tate-no-yuusha-no-nariagari-season-4.webp",
      "imagem_pasta": "https://animefire.plus/img/animes/tate-no-yuusha-no-nariagari-season-4/",
      "secao": "dublados,legendados,lancamentos",
      "pagina": 1,
      "total_episodios": 4,
      "link_video": "https://animefire.plus/video/tate-no-yuusha-no-nariagari-season-4-dublado"
    },
    {
      "id": 3764,
      "nome": "Tearmoon Teikoku Monogatari: Dantoudai kara Hajimaru, Hime no Tensei Gyakuten Story",
      "link": "https://animefire.plus/animes/tearmoon-teikoku-monogatari-dantoudai-kara-hajimaru-hime-no-tensei-gyakuten-story-todos-os-episodios",
      "texto_original": "Tearmoon Teikoku Monogatari: Dantoudai kara Hajimaru, Hime no Tensei Gyakuten Story",
      "rating": 7.2,
      "classificacao_etaria": "A14",
      "imagem_original": "https://animefire.plus/img/animes/tearmoon-teikoku-monogatari-dantoudai-kara-hajimaru-hime-no-tensei-gyakuten-story.webp",
      "imagem_pasta": "https://animefire.plus/img/animes/tearmoon-teikoku-monogatari-dantoudai-kara-hajimaru-hime-no-tensei-gyakuten-story/",
      "secao": "legendados",
      "pagina": 19,
      "total_episodios": 12,
      "link_video": "https://animefire.plus/video/tearmoon-teikoku-monogatari-dantoudai-kara-hajimaru-hime-no-tensei-gyakuten-story"
    },
    {
      "id": 3765,
      "nome": "Tears to Tiara",
      "link": "https://animefire.plus/animes/tears-to-tiara-todos-os-episodios",
      "texto_original": "Tears to Tiara",
      "rating": 7.25,
      "classificacao_etaria": "A14",
      "imagem_original": "https://animefire.plus/img/animes/tears-to-tiara.webp",
      "imagem_pasta": "https://animefire.plus/img/animes/tears-to-tiara/",
      "secao": "legendados",
      "pagina": 153,
      "total_episodios": 26,
      "link_video": "https://animefire.plus/video/tears-to-tiara"
    },
    {
      "id": 3767,
      "nome": "Tegamibachi (Dublado)",
      "link": "https://animefire.plus/animes/tegamibachi-dublado-todos-os-episodios",
      "texto_original": "Tegamibachi (Dublado)",
      "rating": 7.61,
      "classificacao_etaria": "A14",
      "imagem_original": "https://animefire.plus/img/animes/tegamibachi.webp",
      "imagem_pasta": "https://animefire.plus/img/animes/tegamibachi/",
      "secao": "dublados,legendados",
      "pagina": 3,
      "total_episodios": 3,
      "link_video": "https://animefire.plus/video/tegamibachi-dublado"
    },
    {
      "id": 3768,
      "nome": "Tegamibachi Reverse",
      "link": "https://animefire.plus/animes/tegamibachi-reverse-todos-os-episodios",
      "texto_original": "Tegamibachi Reverse",
      "rating": 7.84,
      "classificacao_etaria": "A14",
      "imagem_original": "https://animefire.plus/img/animes/tegamibachi-reverse.webp",
      "imagem_pasta": "https://animefire.plus/img/animes/tegamibachi-reverse/",
      "secao": "legendados",
      "pagina": 143,
      "total_episodios": 0,
      "link_video": "https://animefire.plus/video/tegamibachi-reverse"
    },
    {
      "id": 3774,
      "nome": "Tenchi Muyou! GXP",
      "link": "https://animefire.plus/animes/tenchi-muyou-gxp-todos-os-episodios",
      "texto_original": "Tenchi Muyou! GXP",
      "rating": 7.22,
      "classificacao_etaria": "A14",
      "imagem_original": "https://animefire.plus/img/animes/tenchi-muyou-gxp.webp",
      "imagem_pasta": "https://animefire.plus/img/animes/tenchi-muyou-gxp/",
      "secao": "legendados",
      "pagina": 164,
      "total_episodios": 26,
      "link_video": "https://animefire.plus/video/tenchi-muyou-gxp"
    },
    {
      "id": 3777,
      "nome": "Tenchi Souzou Design-bu",
      "link": "https://animefire.plus/animes/tenchi-souzou-design-bu-todos-os-episodios",
      "texto_original": "Tenchi Souzou Design-bu",
      "rating": 7.16,
      "classificacao_etaria": "A14",
      "imagem_original": "https://animefire.plus/img/animes/tenchi-souzou-design-bu.webp",
      "imagem_pasta": "https://animefire.plus/img/animes/tenchi-souzou-design-bu/",
      "secao": "legendados",
      "pagina": 49,
      "total_episodios": 13,
      "link_video": "https://animefire.plus/video/tenchi-souzou-design-bu"
    },
    {
      "id": 3780,
      "nome": "Tenjou Tenge",
      "link": "https://animefire.plus/animes/tenjou-tenge-todos-os-episodios",
      "texto_original": "Tenjou Tenge",
      "rating": 7.03,
      "classificacao_etaria": "A16",
      "imagem_original": "https://animefire.plus/img/animes/tenjou-tenge.webp",
      "imagem_pasta": "https://animefire.plus/img/animes/tenjou-tenge/",
      "secao": "legendados",
      "pagina": 128,
      "total_episodios": 15,
      "link_video": "https://animefire.plus/video/tenjou-tenge"
    },
    {
      "id": 3782,
      "nome": "Tenkuu no Escaflowne",
      "link": "https://animefire.plus/animes/tenkuu-no-escaflowne-todos-os-episodios",
      "texto_original": "Tenkuu no Escaflowne",
      "rating": 7.76,
      "classificacao_etaria": "A14",
      "imagem_original": "https://animefire.plus/img/animes/tenkuu-no-escaflowne.webp",
      "imagem_pasta": "https://animefire.plus/img/animes/tenkuu-no-escaflowne/",
      "secao": "legendados",
      "pagina": 132,
      "total_episodios": 26,
      "link_video": "https://animefire.plus/video/tenkuu-no-escaflowne"
    },
    {
      "id": 3783,
      "nome": "Tenkuu Senki Shurato (Dublado)",
      "link": "https://animefire.plus/animes/tenkuu-senki-shurato-dublado-todos-os-episodios",
      "texto_original": "Tenkuu Senki Shurato (Dublado)",
      "rating": 7.26,
      "classificacao_etaria": "A14",
      "imagem_original": "https://animefire.plus/img/animes/tenkuu-senki-shurato.webp",
      "imagem_pasta": "https://animefire.plus/img/animes/tenkuu-senki-shurato/",
      "secao": "dublados,legendados",
      "pagina": 22,
      "total_episodios": 38,
      "link_video": "https://animefire.plus/video/tenkuu-senki-shurato-dublado"
    },
    {
      "id": 3785,
      "nome": "Tennis no Ouji-sama",
      "link": "https://animefire.plus/animes/tennis-no-ouji-sama-todos-os-episodios",
      "texto_original": "Tennis no Ouji-sama",
      "rating": 7.89,
      "classificacao_etaria": "A14",
      "imagem_original": "https://animefire.plus/img/animes/tennis-no-ouji-sama.webp",
      "imagem_pasta": "https://animefire.plus/img/animes/tennis-no-ouji-sama/",
      "secao": "legendados",
      "pagina": 41,
      "total_episodios": 178,
      "link_video": "https://animefire.plus/video/tennis-no-ouji-sama"
    },
    {
      "id": 3786,
      "nome": "Tennis no Ouji-sama: Another Story - Kako to Mirai no Message",
      "link": "https://animefire.plus/animes/tennis-no-ouji-sama-another-story---kako-to-mirai-no-message-todos-os-episodios",
      "texto_original": "Tennis no Ouji-sama: Another Story - Kako to Mirai no Message",
      "rating": 7.66,
      "classificacao_etaria": "A14",
      "imagem_original": "https://animefire.plus/img/animes/tennis-no-ouji-sama-another-story---kako-to-mirai-no-message.webp",
      "imagem_pasta": "https://animefire.plus/img/animes/tennis-no-ouji-sama-another-story---kako-to-mirai-no-message/",
      "secao": "legendados",
      "pagina": 44,
      "total_episodios": 4,
      "link_video": "https://animefire.plus/video/tennis-no-ouji-sama-another-story---kako-to-mirai-no-message"
    },
    {
      "id": 3787,
      "nome": "Tennis no Ouji-sama: Another Story II - Ano Toki no Bokura",
      "link": "https://animefire.plus/animes/tennis-no-ouji-sama-another-story-ii---ano-toki-no-bokura-todos-os-episodios",
      "texto_original": "Tennis no Ouji-sama: Another Story II - Ano Toki no Bokura",
      "rating": 7.53,
      "classificacao_etaria": "A14",
      "imagem_original": "https://animefire.plus/img/animes/tennis-no-ouji-sama-another-story-ii---ano-toki-no-bokura.webp",
      "imagem_pasta": "https://animefire.plus/img/animes/tennis-no-ouji-sama-another-story-ii---ano-toki-no-bokura/",
      "secao": "legendados",
      "pagina": 44,
      "total_episodios": 4,
      "link_video": "https://animefire.plus/video/tennis-no-ouji-sama-another-story-ii---ano-toki-no-bokura"
    },
    {
      "id": 3788,
      "nome": "Tennis no Ouji-sama: Zenkoku Taikai-hen",
      "link": "https://animefire.plus/animes/tennis-no-ouji-sama-zenkoku-taikai-hen-todos-os-episodios",
      "texto_original": "Tennis no Ouji-sama: Zenkoku Taikai-hen",
      "rating": 7.94,
      "classificacao_etaria": "A14",
      "imagem_original": "https://animefire.plus/img/animes/tennis-no-ouji-sama-zenkoku-taikai-hen.webp",
      "imagem_pasta": "https://animefire.plus/img/animes/tennis-no-ouji-sama-zenkoku-taikai-hen/",
      "secao": "legendados",
      "pagina": 44,
      "total_episodios": 13,
      "link_video": "https://animefire.plus/video/tennis-no-ouji-sama-zenkoku-taikai-hen"
    },
    {
      "id": 3789,
      "nome": "Tennis no Ouji-sama: Zenkoku Taikai-hen - Final",
      "link": "https://animefire.plus/animes/tennis-no-ouji-sama-zenkoku-taikai-hen---final-todos-os-episodios",
      "texto_original": "Tennis no Ouji-sama: Zenkoku Taikai-hen - Final",
      "rating": 8,
      "classificacao_etaria": "A14",
      "imagem_original": "https://animefire.plus/img/animes/tennis-no-ouji-sama-zenkoku-taikai-hen---final.webp",
      "imagem_pasta": "https://animefire.plus/img/animes/tennis-no-ouji-sama-zenkoku-taikai-hen---final/",
      "secao": "legendados",
      "pagina": 44,
      "total_episodios": 7,
      "link_video": "https://animefire.plus/video/tennis-no-ouji-sama-zenkoku-taikai-hen---final"
    },
    {
      "id": 3790,
      "nome": "Tennis no Ouji-sama: Zenkoku Taikai-hen - Semifinal",
      "link": "https://animefire.plus/animes/tennis-no-ouji-sama-zenkoku-taikai-hen---semifinal-todos-os-episodios",
      "texto_original": "Tennis no Ouji-sama: Zenkoku Taikai-hen - Semifinal",
      "rating": 7.93,
      "classificacao_etaria": "A14",
      "imagem_original": "https://animefire.plus/img/animes/tennis-no-ouji-sama-zenkoku-taikai-hen---semifinal.webp",
      "imagem_pasta": "https://animefire.plus/img/animes/tennis-no-ouji-sama-zenkoku-taikai-hen---semifinal/",
      "secao": "legendados",
      "pagina": 44,
      "total_episodios": 6,
      "link_video": "https://animefire.plus/video/tennis-no-ouji-sama-zenkoku-taikai-hen---semifinal"
    },
    {
      "id": 3791,
      "nome": "Tensai Ouji no Akaji Kokka Saisei Jutsu (Dublado)",
      "link": "https://animefire.plus/animes/tensai-ouji-no-akaji-kokka-saisei-jutsu-dublado-todos-os-episodios",
      "texto_original": "Tensai Ouji no Akaji Kokka Saisei Jutsu (Dublado)",
      "rating": 7.39,
      "classificacao_etaria": "A14",
      "imagem_original": "https://animefire.plus/img/animes/tensai-ouji-no-akaji-kokka-saisei-jutsu.webp",
      "imagem_pasta": "https://animefire.plus/img/animes/tensai-ouji-no-akaji-kokka-saisei-jutsu/",
      "secao": "dublados,legendados",
      "pagina": 12,
      "total_episodios": 12,
      "link_video": "https://animefire.plus/video/tensai-ouji-no-akaji-kokka-saisei-jutsu-dublado"
    }
  ],
  "pagination": {
    "current_page": 82,
    "per_page": 20,
    "total_items": 1905,
    "total_pages": 96,
    "has_next": true,
    "has_prev": true
  }
}
