{
  "message": "Animes com rating entre 7 e 8",
  "rating_range": {
    "min": 7,
    "max": 8
  },
  "data": [
    {
      "id": 2920,
      "nome": "Otome Youkai Zakuro",
      "link": "https://animefire.plus/animes/otome-youkai-zakuro-todos-os-episodios",
      "texto_original": "Otome Youkai Zakuro",
      "rating": 7.54,
      "classificacao_etaria": "A14",
      "imagem_original": "https://animefire.plus/img/animes/otome-youkai-zakuro.webp",
      "imagem_pasta": "https://animefire.plus/img/animes/otome-youkai-zakuro/",
      "secao": "legendados",
      "pagina": 150,
      "total_episodios": 13,
      "link_video": "https://animefire.plus/video/otome-youkai-zakuro"
    },
    {
      "id": 2923,
      "nome": "Otonari ni Ginga (Dublado)",
      "link": "https://animefire.plus/animes/otonari-ni-ginga-dublado-todos-os-episodios",
      "texto_original": "Otonari ni Ginga (Dublado)",
      "rating": 7.15,
      "classificacao_etaria": "A14",
      "imagem_original": "https://animefire.plus/img/animes/otonari-ni-ginga.webp",
      "imagem_pasta": "https://animefire.plus/img/animes/otonari-ni-ginga/",
      "secao": "dublados,legendados",
      "pagina": 6,
      "total_episodios": 12,
      "link_video": "https://animefire.plus/video/otonari-ni-ginga-dublado"
    },
    {
      "id": 2924,
      "nome": "Otonari no Tenshi-sama ni Itsunomanika Dame Ningen ni Sareteita Ken",
      "link": "https://animefire.plus/animes/otonari-no-tenshi-sama-ni-itsunomanika-dame-ningen-ni-sareteita-ken-todos-os-episodios",
      "texto_original": "Otonari no Tenshi-sama ni Itsunomanika Dame Ningen ni Sareteita Ken",
      "rating": 7.84,
      "classificacao_etaria": "A14",
      "imagem_original": "https://animefire.plus/img/animes/otonari-no-tenshi-sama-ni-itsunomanika-dame-ningen-ni-sareteita-ken.webp",
      "imagem_pasta": "https://animefire.plus/img/animes/otonari-no-tenshi-sama-ni-itsunomanika-dame-ningen-ni-sareteita-ken/",
      "secao": "legendados",
      "pagina": 28,
      "total_episodios": 12,
      "link_video": "https://animefire.plus/video/otonari-no-tenshi-sama-ni-itsunomanika-dame-ningen-ni-sareteita-ken"
    },
    {
      "id": 2925,
      "nome": "Ou Dorobou Jing",
      "link": "https://animefire.plus/animes/ou-dorobou-jing-todos-os-episodios",
      "texto_original": "Ou Dorobou Jing",
      "rating": 7.29,
      "classificacao_etaria": "A14",
      "imagem_original": "https://animefire.plus/img/animes/ou-dorobou-jing.webp",
      "imagem_pasta": "https://animefire.plus/img/animes/ou-dorobou-jing/",
      "secao": "legendados",
      "pagina": 134,
      "total_episodios": 13,
      "link_video": "https://animefire.plus/video/ou-dorobou-jing"
    },
    {
      "id": 2930,
      "nome": "Oushitsu Kyoushi Heine",
      "link": "https://animefire.plus/animes/oushitsu-kyoushi-heine-todos-os-episodios",
      "texto_original": "Oushitsu Kyoushi Heine",
      "rating": 7.51,
      "classificacao_etaria": "A14",
      "imagem_original": "https://animefire.plus/img/animes/oushitsu-kyoushi-heine.webp",
      "imagem_pasta": "https://animefire.plus/img/animes/oushitsu-kyoushi-heine/",
      "secao": "legendados",
      "pagina": 64,
      "total_episodios": 12,
      "link_video": "https://animefire.plus/video/oushitsu-kyoushi-heine"
    },
    {
      "id": 2931,
      "nome": "Outbreak Company",
      "link": "https://animefire.plus/animes/outbreak-company-todos-os-episodios",
      "texto_original": "Outbreak Company",
      "rating": 7.44,
      "classificacao_etaria": "A14",
      "imagem_original": "https://animefire.plus/img/animes/outbreak-company.webp",
      "imagem_pasta": "https://animefire.plus/img/animes/outbreak-company/",
      "secao": "legendados",
      "pagina": 155,
      "total_episodios": 4,
      "link_video": "https://animefire.plus/video/outbreak-company"
    },
    {
      "id": 2932,
      "nome": "Over Drive",
      "link": "https://animefire.plus/animes/over-drive-todos-os-episodios",
      "texto_original": "Over Drive",
      "rating": 7.66,
      "classificacao_etaria": "A14",
      "imagem_original": "https://animefire.plus/img/animes/over-drive.webp",
      "imagem_pasta": "https://animefire.plus/img/animes/over-drive/",
      "secao": "legendados",
      "pagina": 159,
      "total_episodios": 26,
      "link_video": "https://animefire.plus/video/over-drive"
    },
    {
      "id": 2933,
      "nome": "Overlord (Dublado)",
      "link": "https://animefire.plus/animes/overlord-dublado-todos-os-episodios",
      "texto_original": "Overlord (Dublado)",
      "rating": 7.98,
      "classificacao_etaria": "A16",
      "imagem_original": "https://animefire.plus/img/animes/overlord.webp",
      "imagem_pasta": "https://animefire.plus/img/animes/overlord/",
      "secao": "dublados,legendados",
      "pagina": 19,
      "total_episodios": 13,
      "link_video": "https://animefire.plus/video/overlord-dublado"
    },
    {
      "id": 2934,
      "nome": "Overlord II (Dublado)",
      "link": "https://animefire.plus/animes/overlord-ii-dublado-todos-os-episodios",
      "texto_original": "Overlord II (Dublado)",
      "rating": 7.8,
      "classificacao_etaria": "A16",
      "imagem_original": "https://animefire.plus/img/animes/overlord-ii.webp",
      "imagem_pasta": "https://animefire.plus/img/animes/overlord-ii/",
      "secao": "dublados,legendados",
      "pagina": 19,
      "total_episodios": 13,
      "link_video": "https://animefire.plus/video/overlord-ii-dublado"
    },
    {
      "id": 2935,
      "nome": "Overlord III (Dublado)",
      "link": "https://animefire.plus/animes/overlord-iii-dublado-todos-os-episodios",
      "texto_original": "Overlord III (Dublado)",
      "rating": 7.98,
      "classificacao_etaria": "A16",
      "imagem_original": "https://animefire.plus/img/animes/overlord-iii.webp",
      "imagem_pasta": "https://animefire.plus/img/animes/overlord-iii/",
      "secao": "dublados,legendados",
      "pagina": 19,
      "total_episodios": 13,
      "link_video": "https://animefire.plus/video/overlord-iii-dublado"
    },
    {
      "id": 2937,
      "nome": "Overlord: Ple Ple Pleiades",
      "link": "https://animefire.plus/animes/overlord-ple-ple-pleiades-todos-os-episodios",
      "texto_original": "Overlord: Ple Ple Pleiades",
      "rating": 7.07,
      "classificacao_etaria": "A14",
      "imagem_original": "https://animefire.plus/img/animes/overlord-ple-ple-pleiades.webp",
      "imagem_pasta": "https://animefire.plus/img/animes/overlord-ple-ple-pleiades/",
      "secao": "legendados",
      "pagina": 112,
      "total_episodios": 3,
      "link_video": "https://animefire.plus/video/overlord-ple-ple-pleiades"
    },
    {
      "id": 2938,
      "nome": "Overtake!",
      "link": "https://animefire.plus/animes/overtake-todos-os-episodios",
      "texto_original": "Overtake!",
      "rating": 7.52,
      "classificacao_etaria": "A14",
      "imagem_original": "https://animefire.plus/img/animes/overtake.webp",
      "imagem_pasta": "https://animefire.plus/img/animes/overtake/",
      "secao": "legendados",
      "pagina": 20,
      "total_episodios": 12,
      "link_video": "https://animefire.plus/video/overtake"
    },
    {
      "id": 2939,
      "nome": "Owari no Seraph (Dublado)",
      "link": "https://animefire.plus/animes/owari-no-seraph-dublado-todos-os-episodios",
      "texto_original": "Owari no Seraph (Dublado)",
      "rating": 7.49,
      "classificacao_etaria": "A16",
      "imagem_original": "https://animefire.plus/img/animes/owari-no-seraph.webp",
      "imagem_pasta": "https://animefire.plus/img/animes/owari-no-seraph/",
      "secao": "dublados,legendados",
      "pagina": 15,
      "total_episodios": 12,
      "link_video": "https://animefire.plus/video/owari-no-seraph-dublado"
    },
    {
      "id": 2940,
      "nome": "Owari no Seraph: Kyuuketsuki Shahar",
      "link": "https://animefire.plus/animes/owari-no-seraph-kyuuketsuki-shahar-todos-os-episodios",
      "texto_original": "Owari no Seraph: Kyuuketsuki Shahar",
      "rating": 7.18,
      "classificacao_etaria": "A16",
      "imagem_original": "https://animefire.plus/img/animes/owari-no-seraph-kyuuketsuki-shahar.webp",
      "imagem_pasta": "https://animefire.plus/img/animes/owari-no-seraph-kyuuketsuki-shahar/",
      "secao": "legendados",
      "pagina": 67,
      "total_episodios": 1,
      "link_video": "https://animefire.plus/video/owari-no-seraph-kyuuketsuki-shahar"
    },
    {
      "id": 2941,
      "nome": "Owari no Seraph: Nagoya Kessen-hen (Dublado)",
      "link": "https://animefire.plus/animes/owari-no-seraph-nagoya-kessen-hen-dublado-todos-os-episodios",
      "texto_original": "Owari no Seraph: Nagoya Kessen-hen (Dublado)",
      "rating": 7.63,
      "classificacao_etaria": "A16",
      "imagem_original": "https://animefire.plus/img/animes/owari-no-seraph-nagoya-kessen-hen.webp",
      "imagem_pasta": "https://animefire.plus/img/animes/owari-no-seraph-nagoya-kessen-hen/",
      "secao": "dublados,legendados",
      "pagina": 15,
      "total_episodios": 12,
      "link_video": "https://animefire.plus/video/owari-no-seraph-nagoya-kessen-hen-dublado"
    },
    {
      "id": 2947,
      "nome": "Pandora Hearts",
      "link": "https://animefire.plus/animes/pandora-hearts-todos-os-episodios",
      "texto_original": "Pandora Hearts",
      "rating": 7.81,
      "classificacao_etaria": "A14",
      "imagem_original": "https://animefire.plus/img/animes/pandora-hearts.webp",
      "imagem_pasta": "https://animefire.plus/img/animes/pandora-hearts/",
      "secao": "legendados",
      "pagina": 162,
      "total_episodios": 25,
      "link_video": "https://animefire.plus/video/pandora-hearts"
    },
    {
      "id": 2949,
      "nome": "Paniponi Dash!",
      "link": "https://animefire.plus/animes/paniponi-dash-todos-os-episodios",
      "texto_original": "Paniponi Dash!",
      "rating": 7.47,
      "classificacao_etaria": "A14",
      "imagem_original": "https://animefire.plus/img/animes/paniponi-dash.webp",
      "imagem_pasta": "https://animefire.plus/img/animes/paniponi-dash/",
      "secao": "legendados",
      "pagina": 56,
      "total_episodios": 26,
      "link_video": "https://animefire.plus/video/paniponi-dash"
    },
    {
      "id": 2950,
      "nome": "Panty & Stocking with Garterbelt",
      "link": "https://animefire.plus/animes/panty-stocking-with-garterbelt-todos-os-episodios",
      "texto_original": "Panty & Stocking with Garterbelt",
      "rating": 7.77,
      "classificacao_etaria": "A16",
      "imagem_original": "https://animefire.plus/img/animes/panty-stocking-with-garterbelt.webp",
      "imagem_pasta": "https://animefire.plus/img/animes/panty-stocking-with-garterbelt/",
      "secao": "legendados",
      "pagina": 161,
      "total_episodios": 13,
      "link_video": "https://animefire.plus/video/panty-stocking-with-garterbelt"
    },
    {
      "id": 2951,
      "nome": "Papa no Iukoto wo Kikinasai!",
      "link": "https://animefire.plus/animes/papa-no-iukoto-wo-kikinasai-todos-os-episodios",
      "texto_original": "Papa no Iukoto wo Kikinasai!",
      "rating": 7.42,
      "classificacao_etaria": "A14",
      "imagem_original": "https://animefire.plus/img/animes/papa-no-iukoto-wo-kikinasai.webp",
      "imagem_pasta": "https://animefire.plus/img/animes/papa-no-iukoto-wo-kikinasai/",
      "secao": "legendados",
      "pagina": 132,
      "total_episodios": 3,
      "link_video": "https://animefire.plus/video/papa-no-iukoto-wo-kikinasai"
    },
    {
      "id": 2952,
      "nome": "Paradise Kiss",
      "link": "https://animefire.plus/animes/paradise-kiss-todos-os-episodios",
      "texto_original": "Paradise Kiss",
      "rating": 7.88,
      "classificacao_etaria": "A16",
      "imagem_original": "https://animefire.plus/img/animes/paradise-kiss.webp",
      "imagem_pasta": "https://animefire.plus/img/animes/paradise-kiss/",
      "secao": "legendados",
      "pagina": 149,
      "total_episodios": 12,
      "link_video": "https://animefire.plus/video/paradise-kiss"
    }
  ],
  "pagination": {
    "current_page": 62,
    "per_page": 20,
    "total_items": 1905,
    "total_pages": 96,
    "has_next": true,
    "has_prev": true
  }
}
