{
  "message": "Animes com rating entre 7 e 8",
  "rating_range": {
    "min": 7,
    "max": 8
  },
  "data": [
    {
      "id": 98,
      "nome": "Air Gear",
      "link": "https://animefire.plus/animes/air-gear-todos-os-episodios",
      "texto_original": "Air Gear",
      "rating": 7.62,
      "classificacao_etaria": "A18",
      "imagem_original": "https://animefire.plus/img/animes/air-gear.webp",
      "imagem_pasta": "https://animefire.plus/img/animes/air-gear/",
      "secao": "legendados",
      "pagina": 113,
      "total_episodios": 25,
      "link_video": "https://animefire.plus/video/air-gear"
    },
    {
      "id": 99,
      "nome": "Air Gear: Kuro no Hane to Nemuri no Mori - Break on the Sky",
      "link": "https://animefire.plus/animes/air-gear-kuro-no-hane-to-nemuri-no-mori---break-on-the-sky-todos-os-episodios",
      "texto_original": "Air Gear: Kuro no Hane to Nemuri no Mori - Break on the Sky",
      "rating": 7.69,
      "classificacao_etaria": "A18",
      "imagem_original": "https://animefire.plus/img/animes/air-gear-kuro-no-hane-to-nemuri-no-mori---break-on-the-sky.webp",
      "imagem_pasta": "https://animefire.plus/img/animes/air-gear-kuro-no-hane-to-nemuri-no-mori---break-on-the-sky/",
      "secao": "legendados",
      "pagina": 92,
      "total_episodios": 3,
      "link_video": "https://animefire.plus/video/air-gear-kuro-no-hane-to-nemuri-no-mori---break-on-the-sky"
    },
    {
      "id": 100,
      "nome": "Air Master",
      "link": "https://animefire.plus/animes/air-master-todos-os-episodios",
      "texto_original": "Air Master",
      "rating": 7.04,
      "classificacao_etaria": "A16",
      "imagem_original": "https://animefire.plus/img/animes/air-master.webp",
      "imagem_pasta": "https://animefire.plus/img/animes/air-master/",
      "secao": "legendados",
      "pagina": 59,
      "total_episodios": 26,
      "link_video": "https://animefire.plus/video/air-master"
    },
    {
      "id": 101,
      "nome": "Aishen Qiaokeli-ing...",
      "link": "https://animefire.plus/animes/aishen-qiaokeli-ing-todos-os-episodios",
      "texto_original": "Aishen Qiaokeli-ing...",
      "rating": 7.06,
      "classificacao_etaria": "A14",
      "imagem_original": "https://animefire.plus/img/animes/aishen-qiaokeli-ing.webp",
      "imagem_pasta": "https://animefire.plus/img/animes/aishen-qiaokeli-ing/",
      "secao": "legendados",
      "pagina": 57,
      "total_episodios": 15,
      "link_video": "https://animefire.plus/video/aishen-qiaokeli-ing"
    },
    {
      "id": 102,
      "nome": "Aishen Qiaokeli-ing... 2nd Season",
      "link": "https://animefire.plus/animes/aishen-qiaokeli-ing-2nd-season-todos-os-episodios",
      "texto_original": "Aishen Qiaokeli-ing... 2nd Season",
      "rating": 7.43,
      "classificacao_etaria": "A14",
      "imagem_original": "https://animefire.plus/img/animes/aishen-qiaokeli-ing-2nd-season.webp",
      "imagem_pasta": "https://animefire.plus/img/animes/aishen-qiaokeli-ing-2nd-season/",
      "secao": "legendados",
      "pagina": 109,
      "total_episodios": 16,
      "link_video": "https://animefire.plus/video/aishen-qiaokeli-ing-2nd-season"
    },
    {
      "id": 103,
      "nome": "Aishiteruze Baby★★",
      "link": "https://animefire.plus/animes/aishiteruze-baby-todos-os-episodios",
      "texto_original": "Aishiteruze Baby★★",
      "rating": 7.54,
      "classificacao_etaria": "A14",
      "imagem_original": "https://animefire.plus/img/animes/aishiteruze-baby.webp",
      "imagem_pasta": "https://animefire.plus/img/animes/aishiteruze-baby/",
      "secao": "legendados",
      "pagina": 146,
      "total_episodios": 26,
      "link_video": "https://animefire.plus/video/aishiteruze-baby"
    },
    {
      "id": 105,
      "nome": "Ajin (Dublado)",
      "link": "https://animefire.plus/animes/ajin-dublado-todos-os-episodios",
      "texto_original": "Ajin (Dublado)",
      "rating": 7.6,
      "classificacao_etaria": "A16",
      "imagem_original": "https://animefire.plus/img/animes/ajin.webp",
      "imagem_pasta": "https://animefire.plus/img/animes/ajin/",
      "secao": "dublados,legendados",
      "pagina": 26,
      "total_episodios": 13,
      "link_video": "https://animefire.plus/video/ajin-dublado"
    },
    {
      "id": 106,
      "nome": "Ajin 2nd Season",
      "link": "https://animefire.plus/animes/ajin-2nd-season-todos-os-episodios",
      "texto_original": "Ajin 2nd Season",
      "rating": 7.82,
      "classificacao_etaria": "A16",
      "imagem_original": "https://animefire.plus/img/animes/ajin-2nd-season.webp",
      "imagem_pasta": "https://animefire.plus/img/animes/ajin-2nd-season/",
      "secao": "legendados",
      "pagina": 136,
      "total_episodios": 13,
      "link_video": "https://animefire.plus/video/ajin-2nd-season"
    },
    {
      "id": 107,
      "nome": "Akagami no Shirayuki-hime",
      "link": "https://animefire.plus/animes/akagami-no-shirayuki-hime-todos-os-episodios",
      "texto_original": "Akagami no Shirayuki-hime",
      "rating": 7.9,
      "classificacao_etaria": "A14",
      "imagem_original": "https://animefire.plus/img/animes/akagami-no-shirayuki-hime.webp",
      "imagem_pasta": "https://animefire.plus/img/animes/akagami-no-shirayuki-hime/",
      "secao": "legendados",
      "pagina": 178,
      "total_episodios": 12,
      "link_video": "https://animefire.plus/video/akagami-no-shirayuki-hime"
    },
    {
      "id": 109,
      "nome": "Akagami no Shirayuki-hime: Nandemonai Takaramono, Kono Page",
      "link": "https://animefire.plus/animes/akagami-no-shirayuki-hime-nandemonai-takaramono-kono-page-todos-os-episodios",
      "texto_original": "Akagami no Shirayuki-hime: Nandemonai Takaramono, Kono Page",
      "rating": 7.74,
      "classificacao_etaria": "A14",
      "imagem_original": "https://animefire.plus/img/animes/akagami-no-shirayuki-hime-nandemonai-takaramono-kono-page.webp",
      "imagem_pasta": "https://animefire.plus/img/animes/akagami-no-shirayuki-hime-nandemonai-takaramono-kono-page/",
      "secao": "legendados",
      "pagina": 78,
      "total_episodios": 1,
      "link_video": "https://animefire.plus/video/akagami-no-shirayuki-hime-nandemonai-takaramono-kono-page"
    },
    {
      "id": 110,
      "nome": "Akage no Anne",
      "link": "https://animefire.plus/animes/akage-no-anne-todos-os-episodios",
      "texto_original": "Akage no Anne",
      "rating": 7.7,
      "classificacao_etaria": null,
      "imagem_original": "https://animefire.plus/img/animes/akage-no-anne.webp",
      "imagem_pasta": "https://animefire.plus/img/animes/akage-no-anne/",
      "secao": "legendados",
      "pagina": 55,
      "total_episodios": 50,
      "link_video": "https://animefire.plus/video/akage-no-anne"
    },
    {
      "id": 114,
      "nome": "Akame ga Kill! (Dublado)",
      "link": "https://animefire.plus/animes/akame-ga-kill-dublado-todos-os-episodios",
      "texto_original": "Akame ga Kill! (Dublado)",
      "rating": 7.66,
      "classificacao_etaria": "A16",
      "imagem_original": "https://animefire.plus/img/animes/akame-ga-kill.webp",
      "imagem_pasta": "https://animefire.plus/img/animes/akame-ga-kill/",
      "secao": "dublados,legendados",
      "pagina": 25,
      "total_episodios": 24,
      "link_video": "https://animefire.plus/video/akame-ga-kill-dublado"
    },
    {
      "id": 120,
      "nome": "AKB0048",
      "link": "https://animefire.plus/animes/akb0048-todos-os-episodios",
      "texto_original": "AKB0048",
      "rating": 7.48,
      "classificacao_etaria": "A14",
      "imagem_original": "https://animefire.plus/img/animes/akb0048.webp",
      "imagem_pasta": "https://animefire.plus/img/animes/akb0048/",
      "secao": "legendados",
      "pagina": 128,
      "total_episodios": 13,
      "link_video": "https://animefire.plus/video/akb0048"
    },
    {
      "id": 121,
      "nome": "AKB0048: Next Stage",
      "link": "https://animefire.plus/animes/akb0048-next-stage-todos-os-episodios",
      "texto_original": "AKB0048: Next Stage",
      "rating": 7.75,
      "classificacao_etaria": "A14",
      "imagem_original": "https://animefire.plus/img/animes/akb0048-next-stage.webp",
      "imagem_pasta": "https://animefire.plus/img/animes/akb0048-next-stage/",
      "secao": "legendados",
      "pagina": 159,
      "total_episodios": 13,
      "link_video": "https://animefire.plus/video/akb0048-next-stage"
    },
    {
      "id": 122,
      "nome": "Akebi-chan no Sailor-fuku",
      "link": "https://animefire.plus/animes/akebi-chan-no-sailor-fuku-todos-os-episodios",
      "texto_original": "Akebi-chan no Sailor-fuku",
      "rating": 7.65,
      "classificacao_etaria": "A14",
      "imagem_original": "https://animefire.plus/img/animes/akebi-chan-no-sailor-fuku.webp",
      "imagem_pasta": "https://animefire.plus/img/animes/akebi-chan-no-sailor-fuku/",
      "secao": "legendados",
      "pagina": 36,
      "total_episodios": 12,
      "link_video": "https://animefire.plus/video/akebi-chan-no-sailor-fuku"
    },
    {
      "id": 124,
      "nome": "Akiba Maid Sensou",
      "link": "https://animefire.plus/animes/akiba-maid-sensou-todos-os-episodios",
      "texto_original": "Akiba Maid Sensou",
      "rating": 7.58,
      "classificacao_etaria": "A16",
      "imagem_original": "https://animefire.plus/img/animes/akiba-maid-sensou.webp",
      "imagem_pasta": "https://animefire.plus/img/animes/akiba-maid-sensou/",
      "secao": "legendados",
      "pagina": 28,
      "total_episodios": 12,
      "link_video": "https://animefire.plus/video/akiba-maid-sensou"
    },
    {
      "id": 129,
      "nome": "Aku no Hana",
      "link": "https://animefire.plus/animes/aku-no-hana-todos-os-episodios",
      "texto_original": "Aku no Hana",
      "rating": 7.17,
      "classificacao_etaria": "A16",
      "imagem_original": "https://animefire.plus/img/animes/aku-no-hana.webp",
      "imagem_pasta": "https://animefire.plus/img/animes/aku-no-hana/",
      "secao": "legendados",
      "pagina": 154,
      "total_episodios": 13,
      "link_video": "https://animefire.plus/video/aku-no-hana"
    },
    {
      "id": 130,
      "nome": "Akudama Drive (Dublado)",
      "link": "https://animefire.plus/animes/akudama-drive-dublado-todos-os-episodios",
      "texto_original": "Akudama Drive (Dublado)",
      "rating": 7.65,
      "classificacao_etaria": "A16",
      "imagem_original": "https://animefire.plus/img/animes/akudama-drive.webp",
      "imagem_pasta": "https://animefire.plus/img/animes/akudama-drive/",
      "secao": "dublados,legendados",
      "pagina": 14,
      "total_episodios": 12,
      "link_video": "https://animefire.plus/video/akudama-drive-dublado"
    },
    {
      "id": 134,
      "nome": "Akuyaku Reijou Level 99: Watashi wa Ura-Boss desu ga Maou dewa Arimasen",
      "link": "https://animefire.plus/animes/akuyaku-reijou-level-99-watashi-wa-ura-boss-desu-ga-maou-dewa-arimasen-todos-os-episodios",
      "texto_original": "Akuyaku Reijou Level 99: Watashi wa Ura-Boss desu ga Maou dewa Arimasen",
      "rating": 7.13,
      "classificacao_etaria": "A14",
      "imagem_original": "https://animefire.plus/img/animes/akuyaku-reijou-level-99-watashi-wa-ura-boss-desu-ga-maou-dewa-arimasen.webp",
      "imagem_pasta": "https://animefire.plus/img/animes/akuyaku-reijou-level-99-watashi-wa-ura-boss-desu-ga-maou-dewa-arimasen/",
      "secao": "legendados",
      "pagina": 17,
      "total_episodios": 12,
      "link_video": "https://animefire.plus/video/akuyaku-reijou-level-99-watashi-wa-ura-boss-desu-ga-maou-dewa-arimasen"
    },
    {
      "id": 135,
      "nome": "Akuyaku Reijou nanode Last Boss wo Kattemimashita (Dublado)",
      "link": "https://animefire.plus/animes/akuyaku-reijou-nanode-last-boss-wo-kattemimashita-dublado-todos-os-episodios",
      "texto_original": "Akuyaku Reijou nanode Last Boss wo Kattemimashita (Dublado)",
      "rating": 7.2,
      "classificacao_etaria": "A14",
      "imagem_original": "https://animefire.plus/img/animes/akuyaku-reijou-nanode-last-boss-wo-kattemimashita.webp",
      "imagem_pasta": "https://animefire.plus/img/animes/akuyaku-reijou-nanode-last-boss-wo-kattemimashita/",
      "secao": "dublados,legendados",
      "pagina": 9,
      "total_episodios": 12,
      "link_video": "https://animefire.plus/video/akuyaku-reijou-nanode-last-boss-wo-kattemimashita-dublado"
    }
  ],
  "pagination": {
    "current_page": 3,
    "per_page": 20,
    "total_items": 1905,
    "total_pages": 96,
    "has_next": true,
    "has_prev": true
  }
}
