{
  "message": "Animes com rating entre 7 e 8",
  "rating_range": {
    "min": 7,
    "max": 8
  },
  "data": [
    {
      "id": 4232,
      "nome": "Yes! Precure 5 GoGo!",
      "link": "https://animefire.plus/animes/yes-precure-5-gogo-todos-os-episodios",
      "texto_original": "Yes! Precure 5 GoGo!",
      "rating": 7.15,
      "classificacao_etaria": null,
      "imagem_original": "https://animefire.plus/img/animes/yes-precure-5-gogo.webp",
      "imagem_pasta": "https://animefire.plus/img/animes/yes-precure-5-gogo/",
      "secao": "legendados",
      "pagina": 66,
      "total_episodios": 48,
      "link_video": "https://animefire.plus/video/yes-precure-5-gogo"
    },
    {
      "id": 4233,
      "nome": "Yesterday Wo Utatte",
      "link": "https://animefire.plus/animes/yesterday-wo-utatte-todos-os-episodios",
      "texto_original": "Yesterday Wo Utatte",
      "rating": 7.01,
      "classificacao_etaria": "A14",
      "imagem_original": "https://animefire.plus/img/animes/yesterday-wo-utatte.webp",
      "imagem_pasta": "https://animefire.plus/img/animes/yesterday-wo-utatte/",
      "secao": "legendados",
      "pagina": 60,
      "total_episodios": 1,
      "link_video": "https://animefire.plus/video/yesterday-wo-utatte"
    },
    {
      "id": 4238,
      "nome": "Yoake Mae yori Ruriiro na: Crescent Love",
      "link": "https://animefire.plus/animes/yoake-mae-yori-ruriiro-na-crescent-love-todos-os-episodios",
      "texto_original": "Yoake Mae yori Ruriiro na: Crescent Love",
      "rating": 7.19,
      "classificacao_etaria": "A14",
      "imagem_original": "https://animefire.plus/img/animes/yoake-mae-yori-ruriiro-na-crescent-love.webp",
      "imagem_pasta": "https://animefire.plus/img/animes/yoake-mae-yori-ruriiro-na-crescent-love/",
      "secao": "legendados",
      "pagina": 121,
      "total_episodios": 12,
      "link_video": "https://animefire.plus/video/yoake-mae-yori-ruriiro-na-crescent-love"
    },
    {
      "id": 4239,
      "nome": "Yofukashi no Uta",
      "link": "https://animefire.plus/animes/yofukashi-no-uta-todos-os-episodios",
      "texto_original": "Yofukashi no Uta",
      "rating": 7.95,
      "classificacao_etaria": "A14",
      "imagem_original": "https://animefire.plus/img/animes/yofukashi-no-uta.webp",
      "imagem_pasta": "https://animefire.plus/img/animes/yofukashi-no-uta/",
      "secao": "legendados",
      "pagina": 32,
      "total_episodios": 13,
      "link_video": "https://animefire.plus/video/yofukashi-no-uta"
    },
    {
      "id": 4243,
      "nome": "Yomigaeru Sora: Rescue Wings",
      "link": "https://animefire.plus/animes/yomigaeru-sora-rescue-wings-todos-os-episodios",
      "texto_original": "Yomigaeru Sora: Rescue Wings",
      "rating": 7.48,
      "classificacao_etaria": "A14",
      "imagem_original": "https://animefire.plus/img/animes/yomigaeru-sora-rescue-wings.webp",
      "imagem_pasta": "https://animefire.plus/img/animes/yomigaeru-sora-rescue-wings/",
      "secao": "legendados",
      "pagina": 104,
      "total_episodios": 12,
      "link_video": "https://animefire.plus/video/yomigaeru-sora-rescue-wings"
    },
    {
      "id": 4244,
      "nome": "Yondemasu yo, Azazel-san. (TV)",
      "link": "https://animefire.plus/animes/yondemasu-yo-azazel-san-tv-todos-os-episodios",
      "texto_original": "Yondemasu yo, Azazel-san. (TV)",
      "rating": 7.6,
      "classificacao_etaria": "A16",
      "imagem_original": "https://animefire.plus/img/animes/yondemasu-yo-azazel-san-tv.webp",
      "imagem_pasta": "https://animefire.plus/img/animes/yondemasu-yo-azazel-san-tv/",
      "secao": "legendados",
      "pagina": 122,
      "total_episodios": 3,
      "link_video": "https://animefire.plus/video/yondemasu-yo-azazel-san-tv"
    },
    {
      "id": 4245,
      "nome": "Yondemasu Yo, Azazel-san. Z",
      "link": "https://animefire.plus/animes/yondemasu-yo-azazel-san-z-todos-os-episodios",
      "texto_original": "Yondemasu Yo, Azazel-san. Z",
      "rating": 7.63,
      "classificacao_etaria": "A16",
      "imagem_original": "https://animefire.plus/img/animes/yondemasu-yo-azazel-san-z.webp",
      "imagem_pasta": "https://animefire.plus/img/animes/yondemasu-yo-azazel-san-z/",
      "secao": "legendados",
      "pagina": 107,
      "total_episodios": 3,
      "link_video": "https://animefire.plus/video/yondemasu-yo-azazel-san-z"
    },
    {
      "id": 4248,
      "nome": "Yoru no Kuni",
      "link": "https://animefire.plus/animes/yoru-no-kuni-todos-os-episodios",
      "texto_original": "Yoru no Kuni",
      "rating": 7.44,
      "classificacao_etaria": null,
      "imagem_original": "https://animefire.plus/img/animes/yoru-no-kuni.webp",
      "imagem_pasta": "https://animefire.plus/img/animes/yoru-no-kuni/",
      "secao": "legendados",
      "pagina": 45,
      "total_episodios": 3,
      "link_video": "https://animefire.plus/video/yoru-no-kuni"
    },
    {
      "id": 4249,
      "nome": "Yoru no Kurage wa Oyogenai",
      "link": "https://animefire.plus/animes/yoru-no-kurage-wa-oyogenai-todos-os-episodios",
      "texto_original": "Yoru no Kurage wa Oyogenai",
      "rating": 7.75,
      "classificacao_etaria": "A14",
      "imagem_original": "https://animefire.plus/img/animes/yoru-no-kurage-wa-oyogenai.webp",
      "imagem_pasta": "https://animefire.plus/img/animes/yoru-no-kurage-wa-oyogenai/",
      "secao": "legendados",
      "pagina": 15,
      "total_episodios": 12,
      "link_video": "https://animefire.plus/video/yoru-no-kurage-wa-oyogenai"
    },
    {
      "id": 4254,
      "nome": "Youjo Senki: Sabaku no Pasta Daisakusen",
      "link": "https://animefire.plus/animes/youjo-senki-sabaku-no-pasta-daisakusen-todos-os-episodios",
      "texto_original": "Youjo Senki: Sabaku no Pasta Daisakusen",
      "rating": 7.46,
      "classificacao_etaria": "A14",
      "imagem_original": "https://animefire.plus/img/animes/youjo-senki-sabaku-no-pasta-daisakusen.webp",
      "imagem_pasta": "https://animefire.plus/img/animes/youjo-senki-sabaku-no-pasta-daisakusen/",
      "secao": "legendados",
      "pagina": 40,
      "total_episodios": 1,
      "link_video": "https://animefire.plus/video/youjo-senki-sabaku-no-pasta-daisakusen"
    },
    {
      "id": 4256,
      "nome": "Youkai Apartment no Yuuga na Nichijou",
      "link": "https://animefire.plus/animes/youkai-apartment-no-yuuga-na-nichijou-todos-os-episodios",
      "texto_original": "Youkai Apartment no Yuuga na Nichijou",
      "rating": 7.2,
      "classificacao_etaria": "A14",
      "imagem_original": "https://animefire.plus/img/animes/youkai-apartment-no-yuuga-na-nichijou.webp",
      "imagem_pasta": "https://animefire.plus/img/animes/youkai-apartment-no-yuuga-na-nichijou/",
      "secao": "legendados",
      "pagina": 117,
      "total_episodios": 17,
      "link_video": "https://animefire.plus/video/youkai-apartment-no-yuuga-na-nichijou"
    },
    {
      "id": 4257,
      "nome": "Youkai Gakkou no Sensei Hajimemashita!",
      "link": "https://animefire.plus/animes/youkai-gakkou-no-sensei-hajimemashita-todos-os-episodios",
      "texto_original": "Youkai Gakkou no Sensei Hajimemashita!",
      "rating": 7.27,
      "classificacao_etaria": "A14",
      "imagem_original": "https://animefire.plus/img/animes/youkai-gakkou-no-sensei-hajimemashita.webp",
      "imagem_pasta": "https://animefire.plus/img/animes/youkai-gakkou-no-sensei-hajimemashita/",
      "secao": "legendados",
      "pagina": 10,
      "total_episodios": 24,
      "link_video": "https://animefire.plus/video/youkai-gakkou-no-sensei-hajimemashita"
    },
    {
      "id": 4258,
      "nome": "Youkai Watch",
      "link": "https://animefire.plus/animes/youkai-watch-todos-os-episodios",
      "texto_original": "Youkai Watch",
      "rating": 7.01,
      "classificacao_etaria": null,
      "imagem_original": "https://animefire.plus/img/animes/youkai-watch.webp",
      "imagem_pasta": "https://animefire.plus/img/animes/youkai-watch/",
      "secao": "legendados",
      "pagina": 167,
      "total_episodios": 46,
      "link_video": "https://animefire.plus/video/youkai-watch"
    },
    {
      "id": 4259,
      "nome": "Youkoso Jitsuryoku Shijou Shugi no Kyoushitsu e (Dublado)",
      "link": "https://animefire.plus/animes/youkoso-jitsuryoku-shijou-shugi-no-kyoushitsu-e-dublado-todos-os-episodios",
      "texto_original": "Youkoso Jitsuryoku Shijou Shugi no Kyoushitsu e (Dublado)",
      "rating": 7.86,
      "classificacao_etaria": "A14",
      "imagem_original": "https://animefire.plus/img/animes/youkoso-jitsuryoku-shijou-shugi-no-kyoushitsu-e.webp",
      "imagem_pasta": "https://animefire.plus/img/animes/youkoso-jitsuryoku-shijou-shugi-no-kyoushitsu-e/",
      "secao": "dublados",
      "pagina": 10,
      "total_episodios": 12,
      "link_video": "https://animefire.plus/video/youkoso-jitsuryoku-shijou-shugi-no-kyoushitsu-e-dublado"
    },
    {
      "id": 4260,
      "nome": "Youkoso Jitsuryoku Shijou Shugi no Kyoushitsu e (TV)",
      "link": "https://animefire.plus/animes/youkoso-jitsuryoku-shijou-shugi-no-kyoushitsu-e-tv-todos-os-episodios",
      "texto_original": "Youkoso Jitsuryoku Shijou Shugi no Kyoushitsu e (TV)",
      "rating": 7.91,
      "classificacao_etaria": "A14",
      "imagem_original": "https://animefire.plus/img/animes/youkoso-jitsuryoku-shijou-shugi-no-kyoushitsu-e-tv.webp",
      "imagem_pasta": "https://animefire.plus/img/animes/youkoso-jitsuryoku-shijou-shugi-no-kyoushitsu-e-tv/",
      "secao": "legendados",
      "pagina": 91,
      "total_episodios": 0,
      "link_video": "https://animefire.plus/video/youkoso-jitsuryoku-shijou-shugi-no-kyoushitsu-e-tv"
    },
    {
      "id": 4263,
      "nome": "Youkoso Jitsuryoku Shijou Shugi no Kyoushitsu e 3rd Season",
      "link": "https://animefire.plus/animes/youkoso-jitsuryoku-shijou-shugi-no-kyoushitsu-e-3rd-season-todos-os-episodios",
      "texto_original": "Youkoso Jitsuryoku Shijou Shugi no Kyoushitsu e 3rd Season",
      "rating": 7.95,
      "classificacao_etaria": null,
      "imagem_original": "https://animefire.plus/img/animes/youkoso-jitsuryoku-shijou-shugi-no-kyoushitsu-e-3rd-season.webp",
      "imagem_pasta": "https://animefire.plus/img/animes/youkoso-jitsuryoku-shijou-shugi-no-kyoushitsu-e-3rd-season/",
      "secao": "legendados",
      "pagina": 18,
      "total_episodios": 4,
      "link_video": "https://animefire.plus/video/youkoso-jitsuryoku-shijou-shugi-no-kyoushitsu-e-3rd-season"
    },
    {
      "id": 4264,
      "nome": "Youkoso Jitsuryoku Shijou Shugi no Kyoushitsu e 3rd Season (Dublado)",
      "link": "https://animefire.plus/animes/youkoso-jitsuryoku-shijou-shugi-no-kyoushitsu-e-3-dublado-todos-os-episodios",
      "texto_original": "Youkoso Jitsuryoku Shijou Shugi no Kyoushitsu e 3rd Season (Dublado)",
      "rating": 7.95,
      "classificacao_etaria": "A14",
      "imagem_original": "https://animefire.plus/img/animes/youkoso-jitsuryoku-shijou-shugi-no-kyoushitsu-e-3.webp",
      "imagem_pasta": "https://animefire.plus/img/animes/youkoso-jitsuryoku-shijou-shugi-no-kyoushitsu-e-3/",
      "secao": "dublados,lancamentos",
      "pagina": 3,
      "total_episodios": 10,
      "link_video": "https://animefire.plus/video/youkoso-jitsuryoku-shijou-shugi-no-kyoushitsu-e-3-dublado"
    },
    {
      "id": 4265,
      "nome": "Young Black Jack",
      "link": "https://animefire.plus/animes/young-black-jack-todos-os-episodios",
      "texto_original": "Young Black Jack",
      "rating": 7.29,
      "classificacao_etaria": "A14",
      "imagem_original": "https://animefire.plus/img/animes/young-black-jack.webp",
      "imagem_pasta": "https://animefire.plus/img/animes/young-black-jack/",
      "secao": "legendados",
      "pagina": 114,
      "total_episodios": 12,
      "link_video": "https://animefire.plus/video/young-black-jack"
    },
    {
      "id": 4270,
      "nome": "Yowamushi Pedal: Limit Break",
      "link": "https://animefire.plus/animes/yowamushi-pedal-limit-break-todos-os-episodios",
      "texto_original": "Yowamushi Pedal: Limit Break",
      "rating": 7.39,
      "classificacao_etaria": "A14",
      "imagem_original": "https://animefire.plus/img/animes/yowamushi-pedal-limit-break.webp",
      "imagem_pasta": "https://animefire.plus/img/animes/yowamushi-pedal-limit-break/",
      "secao": "legendados,lancamentos",
      "pagina": 29,
      "total_episodios": 1,
      "link_video": "https://animefire.plus/video/yowamushi-pedal-limit-break"
    },
    {
      "id": 4271,
      "nome": "Yowamushi Pedal: New Generation",
      "link": "https://animefire.plus/animes/yowamushi-pedal-new-generation-todos-os-episodios",
      "texto_original": "Yowamushi Pedal: New Generation",
      "rating": 7.75,
      "classificacao_etaria": "A14",
      "imagem_original": "https://animefire.plus/img/animes/yowamushi-pedal-new-generation.webp",
      "imagem_pasta": "https://animefire.plus/img/animes/yowamushi-pedal-new-generation/",
      "secao": "legendados",
      "pagina": 64,
      "total_episodios": 25,
      "link_video": "https://animefire.plus/video/yowamushi-pedal-new-generation"
    }
  ],
  "pagination": {
    "current_page": 93,
    "per_page": 20,
    "total_items": 1905,
    "total_pages": 96,
    "has_next": true,
    "has_prev": true
  }
}
