{
  "message": "Animes com rating entre 7 e 8",
  "rating_range": {
    "min": 7,
    "max": 8
  },
  "data": [
    {
      "id": 1982,
      "nome": "Kimi ga Nozomu Eien",
      "link": "https://animefire.plus/animes/kimi-ga-nozomu-eien-todos-os-episodios",
      "texto_original": "Kimi ga Nozomu Eien",
      "rating": 7.32,
      "classificacao_etaria": "A18",
      "imagem_original": "https://animefire.plus/img/animes/kimi-ga-nozomu-eien.webp",
      "imagem_pasta": "https://animefire.plus/img/animes/kimi-ga-nozomu-eien/",
      "secao": "legendados",
      "pagina": 171,
      "total_episodios": 14,
      "link_video": "https://animefire.plus/video/kimi-ga-nozomu-eien"
    },
    {
      "id": 1985,
      "nome": "Kimi ni Todoke 2nd Season: Minitodo Gekijou",
      "link": "https://animefire.plus/animes/kimi-ni-todoke-2nd-season-minitodo-gekijou-todos-os-episodios",
      "texto_original": "Kimi ni Todoke 2nd Season: Minitodo Gekijou",
      "rating": 7.34,
      "classificacao_etaria": "A14",
      "imagem_original": "https://animefire.plus/img/animes/kimi-ni-todoke-2nd-season-minitodo-gekijou.webp",
      "imagem_pasta": "https://animefire.plus/img/animes/kimi-ni-todoke-2nd-season-minitodo-gekijou/",
      "secao": "legendados",
      "pagina": 83,
      "total_episodios": 4,
      "link_video": "https://animefire.plus/video/kimi-ni-todoke-2nd-season-minitodo-gekijou"
    },
    {
      "id": 1986,
      "nome": "Kimi no Iru Machi",
      "link": "https://animefire.plus/animes/kimi-no-iru-machi-todos-os-episodios",
      "texto_original": "Kimi no Iru Machi",
      "rating": 7.08,
      "classificacao_etaria": "A18",
      "imagem_original": "https://animefire.plus/img/animes/kimi-no-iru-machi.webp",
      "imagem_pasta": "https://animefire.plus/img/animes/kimi-no-iru-machi/",
      "secao": "legendados",
      "pagina": 155,
      "total_episodios": 12,
      "link_video": "https://animefire.plus/video/kimi-no-iru-machi"
    },
    {
      "id": 1987,
      "nome": "Kimi no Koto ga Daidaidaidaidaisuki na 100-nin no Kanojo",
      "link": "https://animefire.plus/animes/kimi-no-koto-ga-daidaidaidaidaisuki-na-100-nin-no-kanojo-todos-os-episodios",
      "texto_original": "Kimi no Koto ga Daidaidaidaidaisuki na 100-nin no Kanojo",
      "rating": 7.7,
      "classificacao_etaria": "A14",
      "imagem_original": "https://animefire.plus/img/animes/kimi-no-koto-ga-daidaidaidaidaisuki-na-100-nin-no-kanojo.webp",
      "imagem_pasta": "https://animefire.plus/img/animes/kimi-no-koto-ga-daidaidaidaidaisuki-na-100-nin-no-kanojo/",
      "secao": "legendados",
      "pagina": 19,
      "total_episodios": 12,
      "link_video": "https://animefire.plus/video/kimi-no-koto-ga-daidaidaidaidaisuki-na-100-nin-no-kanojo"
    },
    {
      "id": 1988,
      "nome": "Kimi no Koto ga Daidaidaidaidaisuki na 100-nin no Kanojo 2nd Season",
      "link": "https://animefire.plus/animes/kimi-no-koto-ga-daidaidaidaidaisuki-na-100-nin-no-kanojo-2nd-season-todos-os-episodios",
      "texto_original": "Kimi no Koto ga Daidaidaidaidaisuki na 100-nin no Kanojo 2nd Season",
      "rating": 7.94,
      "classificacao_etaria": "A14",
      "imagem_original": "https://animefire.plus/img/animes/kimi-no-koto-ga-daidaidaidaidaisuki-na-100-nin-no-kanojo-2nd-season.webp",
      "imagem_pasta": "https://animefire.plus/img/animes/kimi-no-koto-ga-daidaidaidaidaisuki-na-100-nin-no-kanojo-2nd-season/",
      "secao": "legendados",
      "pagina": 8,
      "total_episodios": 12,
      "link_video": "https://animefire.plus/video/kimi-no-koto-ga-daidaidaidaidaisuki-na-100-nin-no-kanojo-2nd-season"
    },
    {
      "id": 1991,
      "nome": "Kimi to Boku.",
      "link": "https://animefire.plus/animes/kimi-to-boku-todos-os-episodios",
      "texto_original": "Kimi to Boku.",
      "rating": 7.78,
      "classificacao_etaria": "A14",
      "imagem_original": "https://animefire.plus/img/animes/kimi-to-boku.webp",
      "imagem_pasta": "https://animefire.plus/img/animes/kimi-to-boku/",
      "secao": "legendados",
      "pagina": 159,
      "total_episodios": 12,
      "link_video": "https://animefire.plus/video/kimi-to-boku"
    },
    {
      "id": 1993,
      "nome": "Kimi to Idol Precure♪",
      "link": "https://animefire.plus/animes/kimi-to-idol-precure-todos-os-episodios",
      "texto_original": "Kimi to Idol Precure♪",
      "rating": 7.43,
      "classificacao_etaria": null,
      "imagem_original": "https://animefire.plus/img/animes/kimi-to-idol-precure.webp",
      "imagem_pasta": "https://animefire.plus/img/animes/kimi-to-idol-precure/",
      "secao": "legendados,lancamentos",
      "pagina": 6,
      "total_episodios": 26,
      "link_video": "https://animefire.plus/video/kimi-to-idol-precure"
    },
    {
      "id": 1995,
      "nome": "Kimi wa Meido-sama. (Dublado)",
      "link": "https://animefire.plus/animes/kimi-wa-meido-sama-dublado-todos-os-episodios",
      "texto_original": "Kimi wa Meido-sama. (Dublado)",
      "rating": 7.07,
      "classificacao_etaria": "A14",
      "imagem_original": "https://animefire.plus/img/animes/kimi-wa-meido-sama.webp",
      "imagem_pasta": "https://animefire.plus/img/animes/kimi-wa-meido-sama/",
      "secao": "dublados,legendados,lancamentos",
      "pagina": 2,
      "total_episodios": 12,
      "link_video": "https://animefire.plus/video/kimi-wa-meido-sama-dublado"
    },
    {
      "id": 1996,
      "nome": "KimiKiss Pure Rouge",
      "link": "https://animefire.plus/animes/kimikiss-pure-rouge-todos-os-episodios",
      "texto_original": "KimiKiss Pure Rouge",
      "rating": 7.4,
      "classificacao_etaria": "A14",
      "imagem_original": "https://animefire.plus/img/animes/kimikiss-pure-rouge.webp",
      "imagem_pasta": "https://animefire.plus/img/animes/kimikiss-pure-rouge/",
      "secao": "legendados",
      "pagina": 130,
      "total_episodios": 24,
      "link_video": "https://animefire.plus/video/kimikiss-pure-rouge"
    },
    {
      "id": 1997,
      "nome": "Kindaichi Shounen No Jikenbo Returns",
      "link": "https://animefire.plus/animes/kindaichi-shounen-no-jikenbo-returns-todos-os-episodios",
      "texto_original": "Kindaichi Shounen No Jikenbo Returns",
      "rating": 7.59,
      "classificacao_etaria": "A16",
      "imagem_original": "https://animefire.plus/img/animes/kindaichi-shounen-no-jikenbo-returns.webp",
      "imagem_pasta": "https://animefire.plus/img/animes/kindaichi-shounen-no-jikenbo-returns/",
      "secao": "legendados",
      "pagina": 96,
      "total_episodios": 3,
      "link_video": "https://animefire.plus/video/kindaichi-shounen-no-jikenbo-returns"
    },
    {
      "id": 1998,
      "nome": "Kindaichi Shounen no Jikenbo Returns 2nd Season",
      "link": "https://animefire.plus/animes/kindaichi-shounen-no-jikenbo-returns-2nd-season-todos-os-episodios",
      "texto_original": "Kindaichi Shounen no Jikenbo Returns 2nd Season",
      "rating": 7.68,
      "classificacao_etaria": "A16",
      "imagem_original": "https://animefire.plus/img/animes/kindaichi-shounen-no-jikenbo-returns-2nd-season.webp",
      "imagem_pasta": "https://animefire.plus/img/animes/kindaichi-shounen-no-jikenbo-returns-2nd-season/",
      "secao": "legendados",
      "pagina": 74,
      "total_episodios": 22,
      "link_video": "https://animefire.plus/video/kindaichi-shounen-no-jikenbo-returns-2nd-season"
    },
    {
      "id": 2007,
      "nome": "Kiniro Mosaic",
      "link": "https://animefire.plus/animes/kiniro-mosaic-todos-os-episodios",
      "texto_original": "Kiniro Mosaic",
      "rating": 7.33,
      "classificacao_etaria": "A14",
      "imagem_original": "https://animefire.plus/img/animes/kiniro-mosaic.webp",
      "imagem_pasta": "https://animefire.plus/img/animes/kiniro-mosaic/",
      "secao": "legendados",
      "pagina": 158,
      "total_episodios": 6,
      "link_video": "https://animefire.plus/video/kiniro-mosaic"
    },
    {
      "id": 2010,
      "nome": "Kino no Tabi: The Beautiful World - The Animated Series",
      "link": "https://animefire.plus/animes/kino-no-tabi-the-beautiful-world---the-animated-series-todos-os-episodios",
      "texto_original": "Kino no Tabi: The Beautiful World - The Animated Series",
      "rating": 7.62,
      "classificacao_etaria": "A16",
      "imagem_original": "https://animefire.plus/img/animes/kino-no-tabi-the-beautiful-world---the-animated-series.webp",
      "imagem_pasta": "https://animefire.plus/img/animes/kino-no-tabi-the-beautiful-world---the-animated-series/",
      "secao": "legendados",
      "pagina": 98,
      "total_episodios": 12,
      "link_video": "https://animefire.plus/video/kino-no-tabi-the-beautiful-world---the-animated-series"
    },
    {
      "id": 2018,
      "nome": "Kishibe Rohan wa Ugokanai (Dublado)",
      "link": "https://animefire.plus/animes/kishibe-rohan-wa-ugokanai-dublado-todos-os-episodios",
      "texto_original": "Kishibe Rohan wa Ugokanai (Dublado)",
      "rating": 7.61,
      "classificacao_etaria": "A16",
      "imagem_original": "https://animefire.plus/img/animes/kishibe-rohan-wa-ugokanai.webp",
      "imagem_pasta": "https://animefire.plus/img/animes/kishibe-rohan-wa-ugokanai/",
      "secao": "dublados,legendados",
      "pagina": 18,
      "total_episodios": 9,
      "link_video": "https://animefire.plus/video/kishibe-rohan-wa-ugokanai-dublado"
    },
    {
      "id": 2019,
      "nome": "Kishin Douji Zenki",
      "link": "https://animefire.plus/animes/kishin-douji-zenki-todos-os-episodios",
      "texto_original": "Kishin Douji Zenki",
      "rating": 7.06,
      "classificacao_etaria": "A14",
      "imagem_original": "https://animefire.plus/img/animes/kishin-douji-zenki.webp",
      "imagem_pasta": "https://animefire.plus/img/animes/kishin-douji-zenki/",
      "secao": "legendados",
      "pagina": 169,
      "total_episodios": 21,
      "link_video": "https://animefire.plus/video/kishin-douji-zenki"
    },
    {
      "id": 2023,
      "nome": "Kishuku Gakkou no Juliet",
      "link": "https://animefire.plus/animes/kishuku-gakkou-no-juliet-todos-os-episodios",
      "texto_original": "Kishuku Gakkou no Juliet",
      "rating": 7.61,
      "classificacao_etaria": "A14",
      "imagem_original": "https://animefire.plus/img/animes/kishuku-gakkou-no-juliet.webp",
      "imagem_pasta": "https://animefire.plus/img/animes/kishuku-gakkou-no-juliet/",
      "secao": "legendados",
      "pagina": 167,
      "total_episodios": 12,
      "link_video": "https://animefire.plus/video/kishuku-gakkou-no-juliet"
    },
    {
      "id": 2025,
      "nome": "Kiss x Sis",
      "link": "https://animefire.plus/animes/kiss-x-sis-todos-os-episodios",
      "texto_original": "Kiss x Sis",
      "rating": 7.11,
      "classificacao_etaria": "A18",
      "imagem_original": "https://animefire.plus/img/animes/kiss-x-sis.webp",
      "imagem_pasta": "https://animefire.plus/img/animes/kiss-x-sis/",
      "secao": "legendados",
      "pagina": 154,
      "total_episodios": 12,
      "link_video": "https://animefire.plus/video/kiss-x-sis"
    },
    {
      "id": 2031,
      "nome": "Kiznaiver",
      "link": "https://animefire.plus/animes/kiznaiver-todos-os-episodios",
      "texto_original": "Kiznaiver",
      "rating": 7.54,
      "classificacao_etaria": "A14",
      "imagem_original": "https://animefire.plus/img/animes/kiznaiver.webp",
      "imagem_pasta": "https://animefire.plus/img/animes/kiznaiver/",
      "secao": "legendados",
      "pagina": 139,
      "total_episodios": 12,
      "link_video": "https://animefire.plus/video/kiznaiver"
    },
    {
      "id": 2034,
      "nome": "Knight's & Magic",
      "link": "https://animefire.plus/animes/knight-s-magic-todos-os-episodios",
      "texto_original": "Knight's & Magic",
      "rating": 7.28,
      "classificacao_etaria": "A14",
      "imagem_original": "https://animefire.plus/img/animes/knight-s-magic.webp",
      "imagem_pasta": "https://animefire.plus/img/animes/knight-s-magic/",
      "secao": "legendados",
      "pagina": 101,
      "total_episodios": 13,
      "link_video": "https://animefire.plus/video/knight-s-magic"
    },
    {
      "id": 2040,
      "nome": "Kobayashi-san Chi no Maid Dragon S: Nippon no Omotenashi - Attend wa Dragon Desu (Dublado)",
      "link": "https://animefire.plus/animes/kobayashi-san-chi-no-maid-dragon-s-nippon-no-omotenashi---attend-wa-dragon-desu-dublado-todos-os-episodios",
      "texto_original": "Kobayashi-san Chi no Maid Dragon S: Nippon no Omotenashi - Attend wa Dragon Desu (Dublado)",
      "rating": 7.79,
      "classificacao_etaria": "A14",
      "imagem_original": "https://animefire.plus/img/animes/kobayashi-san-chi-no-maid-dragon-s-nippon-no-omotenashi---attend-wa-dragon-desu.webp",
      "imagem_pasta": "https://animefire.plus/img/animes/kobayashi-san-chi-no-maid-dragon-s-nippon-no-omotenashi---attend-wa-dragon-desu/",
      "secao": "dublados",
      "pagina": 10,
      "total_episodios": 1,
      "link_video": "https://animefire.plus/video/kobayashi-san-chi-no-maid-dragon-s-nippon-no-omotenashi---attend-wa-dragon-desu-dublado"
    }
  ],
  "pagination": {
    "current_page": 42,
    "per_page": 20,
    "total_items": 1905,
    "total_pages": 96,
    "has_next": true,
    "has_prev": true
  }
}
