{
  "message": "Animes com rating entre 7 e 8",
  "rating_range": {
    "min": 7,
    "max": 8
  },
  "data": [
    {
      "id": 2508,
      "nome": "Minami-ke",
      "link": "https://animefire.plus/animes/minami-ke-todos-os-episodios",
      "texto_original": "Minami-ke",
      "rating": 7.74,
      "classificacao_etaria": "A14",
      "imagem_original": "https://animefire.plus/img/animes/minami-ke.webp",
      "imagem_pasta": "https://animefire.plus/img/animes/minami-ke/",
      "secao": "legendados",
      "pagina": 176,
      "total_episodios": 13,
      "link_video": "https://animefire.plus/video/minami-ke"
    },
    {
      "id": 2509,
      "nome": "Minami-ke Natsuyasumi",
      "link": "https://animefire.plus/animes/minami-ke-natsuyasumi-todos-os-episodios",
      "texto_original": "Minami-ke Natsuyasumi",
      "rating": 7.4,
      "classificacao_etaria": "A14",
      "imagem_original": "https://animefire.plus/img/animes/minami-ke-natsuyasumi.webp",
      "imagem_pasta": "https://animefire.plus/img/animes/minami-ke-natsuyasumi/",
      "secao": "legendados",
      "pagina": 55,
      "total_episodios": 1,
      "link_video": "https://animefire.plus/video/minami-ke-natsuyasumi"
    },
    {
      "id": 2510,
      "nome": "Minami-ke Okaeri",
      "link": "https://animefire.plus/animes/minami-ke-okaeri-todos-os-episodios",
      "texto_original": "Minami-ke Okaeri",
      "rating": 7.62,
      "classificacao_etaria": "A14",
      "imagem_original": "https://animefire.plus/img/animes/minami-ke-okaeri.webp",
      "imagem_pasta": "https://animefire.plus/img/animes/minami-ke-okaeri/",
      "secao": "legendados",
      "pagina": 126,
      "total_episodios": 13,
      "link_video": "https://animefire.plus/video/minami-ke-okaeri"
    },
    {
      "id": 2511,
      "nome": "Minami-ke Okawari",
      "link": "https://animefire.plus/animes/minami-ke-okawari-todos-os-episodios",
      "texto_original": "Minami-ke Okawari",
      "rating": 7.39,
      "classificacao_etaria": "A14",
      "imagem_original": "https://animefire.plus/img/animes/minami-ke-okawari.webp",
      "imagem_pasta": "https://animefire.plus/img/animes/minami-ke-okawari/",
      "secao": "legendados",
      "pagina": 114,
      "total_episodios": 13,
      "link_video": "https://animefire.plus/video/minami-ke-okawari"
    },
    {
      "id": 2512,
      "nome": "Minami-ke Omatase",
      "link": "https://animefire.plus/animes/minami-ke-omatase-todos-os-episodios",
      "texto_original": "Minami-ke Omatase",
      "rating": 7.42,
      "classificacao_etaria": "A14",
      "imagem_original": "https://animefire.plus/img/animes/minami-ke-omatase.webp",
      "imagem_pasta": "https://animefire.plus/img/animes/minami-ke-omatase/",
      "secao": "legendados",
      "pagina": 55,
      "total_episodios": 1,
      "link_video": "https://animefire.plus/video/minami-ke-omatase"
    },
    {
      "id": 2513,
      "nome": "Minami-ke Tadaima",
      "link": "https://animefire.plus/animes/minami-ke-tadaima-todos-os-episodios",
      "texto_original": "Minami-ke Tadaima",
      "rating": 7.74,
      "classificacao_etaria": "A14",
      "imagem_original": "https://animefire.plus/img/animes/minami-ke-tadaima.webp",
      "imagem_pasta": "https://animefire.plus/img/animes/minami-ke-tadaima/",
      "secao": "legendados",
      "pagina": 178,
      "total_episodios": 0,
      "link_video": "https://animefire.plus/video/minami-ke-tadaima"
    },
    {
      "id": 2514,
      "nome": "Mini Dragon",
      "link": "https://animefire.plus/animes/mini-dragon-todos-os-episodios",
      "texto_original": "Mini Dragon",
      "rating": 7.34,
      "classificacao_etaria": "A14",
      "imagem_original": "https://animefire.plus/img/animes/mini-dragon.webp",
      "imagem_pasta": "https://animefire.plus/img/animes/mini-dragon/",
      "secao": "legendados",
      "pagina": 46,
      "total_episodios": 13,
      "link_video": "https://animefire.plus/video/mini-dragon"
    },
    {
      "id": 2519,
      "nome": "Mirai Nikki (Dublado)",
      "link": "https://animefire.plus/animes/mirai-nikki-dublado-todos-os-episodios",
      "texto_original": "Mirai Nikki (Dublado)",
      "rating": 7.22,
      "classificacao_etaria": "A16",
      "imagem_original": "https://animefire.plus/img/animes/mirai-nikki.webp",
      "imagem_pasta": "https://animefire.plus/img/animes/mirai-nikki/",
      "secao": "dublados,legendados",
      "pagina": 13,
      "total_episodios": 26,
      "link_video": "https://animefire.plus/video/mirai-nikki-dublado"
    },
    {
      "id": 2520,
      "nome": "Mirai Nikki: Redial",
      "link": "https://animefire.plus/animes/mirai-nikki-redial-todos-os-episodios",
      "texto_original": "Mirai Nikki: Redial",
      "rating": 7.46,
      "classificacao_etaria": "A16",
      "imagem_original": "https://animefire.plus/img/animes/mirai-nikki-redial.webp",
      "imagem_pasta": "https://animefire.plus/img/animes/mirai-nikki-redial/",
      "secao": "legendados",
      "pagina": 60,
      "total_episodios": 1,
      "link_video": "https://animefire.plus/video/mirai-nikki-redial"
    },
    {
      "id": 2521,
      "nome": "Mirai no Mirai",
      "link": "https://animefire.plus/animes/mirai-no-mirai-todos-os-episodios",
      "texto_original": "Mirai no Mirai",
      "rating": 7.45,
      "classificacao_etaria": null,
      "imagem_original": "https://animefire.plus/img/animes/mirai-no-mirai.webp",
      "imagem_pasta": "https://animefire.plus/img/animes/mirai-no-mirai/",
      "secao": "legendados",
      "pagina": 96,
      "total_episodios": 3,
      "link_video": "https://animefire.plus/video/mirai-no-mirai"
    },
    {
      "id": 2527,
      "nome": "Mitsuboshi Colors",
      "link": "https://animefire.plus/animes/mitsuboshi-colors-todos-os-episodios",
      "texto_original": "Mitsuboshi Colors",
      "rating": 7.49,
      "classificacao_etaria": "A14",
      "imagem_original": "https://animefire.plus/img/animes/mitsuboshi-colors.webp",
      "imagem_pasta": "https://animefire.plus/img/animes/mitsuboshi-colors/",
      "secao": "legendados",
      "pagina": 161,
      "total_episodios": 12,
      "link_video": "https://animefire.plus/video/mitsuboshi-colors"
    },
    {
      "id": 2528,
      "nome": "Mitsudomoe",
      "link": "https://animefire.plus/animes/mitsudomoe-todos-os-episodios",
      "texto_original": "Mitsudomoe",
      "rating": 7.66,
      "classificacao_etaria": "A14",
      "imagem_original": "https://animefire.plus/img/animes/mitsudomoe.webp",
      "imagem_pasta": "https://animefire.plus/img/animes/mitsudomoe/",
      "secao": "legendados",
      "pagina": 103,
      "total_episodios": 1,
      "link_video": "https://animefire.plus/video/mitsudomoe"
    },
    {
      "id": 2529,
      "nome": "Mitsudomoe Zouryouchuu!",
      "link": "https://animefire.plus/animes/mitsudomoe-zouryouchuu-todos-os-episodios",
      "texto_original": "Mitsudomoe Zouryouchuu!",
      "rating": 7.77,
      "classificacao_etaria": "A14",
      "imagem_original": "https://animefire.plus/img/animes/mitsudomoe-zouryouchuu.webp",
      "imagem_pasta": "https://animefire.plus/img/animes/mitsudomoe-zouryouchuu/",
      "secao": "legendados",
      "pagina": 176,
      "total_episodios": 8,
      "link_video": "https://animefire.plus/video/mitsudomoe-zouryouchuu"
    },
    {
      "id": 2533,
      "nome": "Mizu Zokusei no Mahoutsukai",
      "link": "https://animefire.plus/animes/mizu-zokusei-no-mahoutsukai-todos-os-episodios",
      "texto_original": "Mizu Zokusei no Mahoutsukai",
      "rating": 7.21,
      "classificacao_etaria": "A14",
      "imagem_original": "https://animefire.plus/img/animes/mizu-zokusei-no-mahoutsukai.webp",
      "imagem_pasta": "https://animefire.plus/img/animes/mizu-zokusei-no-mahoutsukai/",
      "secao": "legendados,lancamentos",
      "pagina": 2,
      "total_episodios": 5,
      "link_video": "https://animefire.plus/video/mizu-zokusei-no-mahoutsukai"
    },
    {
      "id": 2535,
      "nome": "Mnemosyne: Mnemosyne no Musume-tachi",
      "link": "https://animefire.plus/animes/mnemosyne-mnemosyne-no-musume-tachi-todos-os-episodios",
      "texto_original": "Mnemosyne: Mnemosyne no Musume-tachi",
      "rating": 7.4,
      "classificacao_etaria": "A18",
      "imagem_original": "https://animefire.plus/img/animes/mnemosyne-mnemosyne-no-musume-tachi.webp",
      "imagem_pasta": "https://animefire.plus/img/animes/mnemosyne-mnemosyne-no-musume-tachi/",
      "secao": "legendados",
      "pagina": 119,
      "total_episodios": 4,
      "link_video": "https://animefire.plus/video/mnemosyne-mnemosyne-no-musume-tachi"
    },
    {
      "id": 2542,
      "nome": "Mobile Fighter G Gundam",
      "link": "https://animefire.plus/animes/mobile-fighter-g-gundam-todos-os-episodios",
      "texto_original": "Mobile Fighter G Gundam",
      "rating": 7.57,
      "classificacao_etaria": "A14",
      "imagem_original": "https://animefire.plus/img/animes/mobile-fighter-g-gundam.webp",
      "imagem_pasta": "https://animefire.plus/img/animes/mobile-fighter-g-gundam/",
      "secao": "legendados",
      "pagina": 74,
      "total_episodios": 49,
      "link_video": "https://animefire.plus/video/mobile-fighter-g-gundam"
    },
    {
      "id": 2545,
      "nome": "Mobile Suit Gundam 0083: Stardust Memory",
      "link": "https://animefire.plus/animes/mobile-suit-gundam-0083-stardust-memory-todos-os-episodios",
      "texto_original": "Mobile Suit Gundam 0083: Stardust Memory",
      "rating": 7.29,
      "classificacao_etaria": "A14",
      "imagem_original": "https://animefire.plus/img/animes/mobile-suit-gundam-0083-stardust-memory.webp",
      "imagem_pasta": "https://animefire.plus/img/animes/mobile-suit-gundam-0083-stardust-memory/",
      "secao": "legendados",
      "pagina": 42,
      "total_episodios": 13,
      "link_video": "https://animefire.plus/video/mobile-suit-gundam-0083-stardust-memory"
    },
    {
      "id": 2547,
      "nome": "Mobile Suit Gundam SEED",
      "link": "https://animefire.plus/animes/mobile-suit-gundam-seed-todos-os-episodios",
      "texto_original": "Mobile Suit Gundam SEED",
      "rating": 7.86,
      "classificacao_etaria": "A16",
      "imagem_original": "https://animefire.plus/img/animes/mobile-suit-gundam-seed.webp",
      "imagem_pasta": "https://animefire.plus/img/animes/mobile-suit-gundam-seed/",
      "secao": "legendados",
      "pagina": 131,
      "total_episodios": 50,
      "link_video": "https://animefire.plus/video/mobile-suit-gundam-seed"
    },
    {
      "id": 2548,
      "nome": "Mobile Suit Gundam SEED Destiny",
      "link": "https://animefire.plus/animes/mobile-suit-gundam-seed-destiny-todos-os-episodios",
      "texto_original": "Mobile Suit Gundam SEED Destiny",
      "rating": 7.29,
      "classificacao_etaria": "A16",
      "imagem_original": "https://animefire.plus/img/animes/mobile-suit-gundam-seed-destiny.webp",
      "imagem_pasta": "https://animefire.plus/img/animes/mobile-suit-gundam-seed-destiny/",
      "secao": "legendados",
      "pagina": 131,
      "total_episodios": 50,
      "link_video": "https://animefire.plus/video/mobile-suit-gundam-seed-destiny"
    },
    {
      "id": 2549,
      "nome": "Mobile Suit Gundam Thunderbolt",
      "link": "https://animefire.plus/animes/mobile-suit-gundam-thunderbolt-todos-os-episodios",
      "texto_original": "Mobile Suit Gundam Thunderbolt",
      "rating": 7.96,
      "classificacao_etaria": "A16",
      "imagem_original": "https://animefire.plus/img/animes/mobile-suit-gundam-thunderbolt.webp",
      "imagem_pasta": "https://animefire.plus/img/animes/mobile-suit-gundam-thunderbolt/",
      "secao": "legendados",
      "pagina": 167,
      "total_episodios": 0,
      "link_video": "https://animefire.plus/video/mobile-suit-gundam-thunderbolt"
    }
  ],
  "pagination": {
    "current_page": 54,
    "per_page": 20,
    "total_items": 1905,
    "total_pages": 96,
    "has_next": true,
    "has_prev": true
  }
}
