{
  "message": "Animes com rating entre 7 e 8",
  "rating_range": {
    "min": 7,
    "max": 8
  },
  "data": [
    {
      "id": 1453,
      "nome": "High Card Season 2",
      "link": "https://animefire.plus/animes/high-card-season-2-todos-os-episodios",
      "texto_original": "High Card Season 2",
      "rating": 7.03,
      "classificacao_etaria": "A16",
      "imagem_original": "https://animefire.plus/img/animes/high-card-season-2.webp",
      "imagem_pasta": "https://animefire.plus/img/animes/high-card-season-2/",
      "secao": "legendados",
      "pagina": 17,
      "total_episodios": 12,
      "link_video": "https://animefire.plus/video/high-card-season-2"
    },
    {
      "id": 1454,
      "nome": "High School DxD",
      "link": "https://animefire.plus/animes/high-school-dxd-todos-os-episodios",
      "texto_original": "High School DxD",
      "rating": 7.56,
      "classificacao_etaria": "A18",
      "imagem_original": "https://animefire.plus/img/animes/high-school-dxd.webp",
      "imagem_pasta": "https://animefire.plus/img/animes/high-school-dxd/",
      "secao": "legendados",
      "pagina": 133,
      "total_episodios": 0,
      "link_video": "https://animefire.plus/video/high-school-dxd"
    },
    {
      "id": 1455,
      "nome": "High School DxD BorN",
      "link": "https://animefire.plus/animes/high-school-dxd-born-todos-os-episodios",
      "texto_original": "High School DxD BorN",
      "rating": 7.58,
      "classificacao_etaria": "A18",
      "imagem_original": "https://animefire.plus/img/animes/high-school-dxd-born.webp",
      "imagem_pasta": "https://animefire.plus/img/animes/high-school-dxd-born/",
      "secao": "legendados",
      "pagina": 94,
      "total_episodios": 0,
      "link_video": "https://animefire.plus/video/high-school-dxd-born"
    },
    {
      "id": 1456,
      "nome": "High School DxD Hero",
      "link": "https://animefire.plus/animes/high-school-dxd-hero-todos-os-episodios",
      "texto_original": "High School DxD Hero",
      "rating": 7.48,
      "classificacao_etaria": "A18",
      "imagem_original": "https://animefire.plus/img/animes/high-school-dxd-hero.webp",
      "imagem_pasta": "https://animefire.plus/img/animes/high-school-dxd-hero/",
      "secao": "legendados",
      "pagina": 112,
      "total_episodios": 0,
      "link_video": "https://animefire.plus/video/high-school-dxd-hero"
    },
    {
      "id": 1458,
      "nome": "High School DxD New",
      "link": "https://animefire.plus/animes/high-school-dxd-new-todos-os-episodios",
      "texto_original": "High School DxD New",
      "rating": 7.71,
      "classificacao_etaria": "A18",
      "imagem_original": "https://animefire.plus/img/animes/high-school-dxd-new.webp",
      "imagem_pasta": "https://animefire.plus/img/animes/high-school-dxd-new/",
      "secao": "legendados",
      "pagina": 169,
      "total_episodios": 0,
      "link_video": "https://animefire.plus/video/high-school-dxd-new"
    },
    {
      "id": 1459,
      "nome": "High School Fleet",
      "link": "https://animefire.plus/animes/high-school-fleet-todos-os-episodios",
      "texto_original": "High School Fleet",
      "rating": 7.31,
      "classificacao_etaria": "A14",
      "imagem_original": "https://animefire.plus/img/animes/high-school-fleet.webp",
      "imagem_pasta": "https://animefire.plus/img/animes/high-school-fleet/",
      "secao": "legendados",
      "pagina": 64,
      "total_episodios": 12,
      "link_video": "https://animefire.plus/video/high-school-fleet"
    },
    {
      "id": 1463,
      "nome": "Highschool of the Dead",
      "link": "https://animefire.plus/animes/highschool-of-the-dead-todos-os-episodios",
      "texto_original": "Highschool of the Dead",
      "rating": 7.3,
      "classificacao_etaria": "A18",
      "imagem_original": "https://animefire.plus/img/animes/highschool-of-the-dead.webp",
      "imagem_pasta": "https://animefire.plus/img/animes/highschool-of-the-dead/",
      "secao": "legendados",
      "pagina": 140,
      "total_episodios": 12,
      "link_video": "https://animefire.plus/video/highschool-of-the-dead"
    },
    {
      "id": 1467,
      "nome": "Higurashi no Naku Koro ni Gou (Dublado)",
      "link": "https://animefire.plus/animes/higurashi-no-naku-koro-ni-gou-dublado-todos-os-episodios",
      "texto_original": "Higurashi no Naku Koro ni Gou (Dublado)",
      "rating": 7.22,
      "classificacao_etaria": "A16",
      "imagem_original": "https://animefire.plus/img/animes/higurashi-no-naku-koro-ni-gou.webp",
      "imagem_pasta": "https://animefire.plus/img/animes/higurashi-no-naku-koro-ni-gou/",
      "secao": "dublados",
      "pagina": 14,
      "total_episodios": 24,
      "link_video": "https://animefire.plus/video/higurashi-no-naku-koro-ni-gou-dublado"
    },
    {
      "id": 1469,
      "nome": "Higurashi no Naku Koro ni Kaku: Outbreak",
      "link": "https://animefire.plus/animes/higurashi-no-naku-koro-ni-kaku-outbreak-todos-os-episodios",
      "texto_original": "Higurashi no Naku Koro ni Kaku: Outbreak",
      "rating": 7.28,
      "classificacao_etaria": "A16",
      "imagem_original": "https://animefire.plus/img/animes/higurashi-no-naku-koro-ni-kaku-outbreak.webp",
      "imagem_pasta": "https://animefire.plus/img/animes/higurashi-no-naku-koro-ni-kaku-outbreak/",
      "secao": "legendados",
      "pagina": 62,
      "total_episodios": 1,
      "link_video": "https://animefire.plus/video/higurashi-no-naku-koro-ni-kaku-outbreak"
    },
    {
      "id": 1471,
      "nome": "Higurashi no Naku Koro ni Rei",
      "link": "https://animefire.plus/animes/higurashi-no-naku-koro-ni-rei-todos-os-episodios",
      "texto_original": "Higurashi no Naku Koro ni Rei",
      "rating": 7.51,
      "classificacao_etaria": "A14",
      "imagem_original": "https://animefire.plus/img/animes/higurashi-no-naku-koro-ni-rei.webp",
      "imagem_pasta": "https://animefire.plus/img/animes/higurashi-no-naku-koro-ni-rei/",
      "secao": "legendados",
      "pagina": 168,
      "total_episodios": 5,
      "link_video": "https://animefire.plus/video/higurashi-no-naku-koro-ni-rei"
    },
    {
      "id": 1474,
      "nome": "Hiiro no Kakera Dai Ni Shou",
      "link": "https://animefire.plus/animes/hiiro-no-kakera-dai-ni-shou-todos-os-episodios",
      "texto_original": "Hiiro no Kakera Dai Ni Shou",
      "rating": 7.34,
      "classificacao_etaria": "A14",
      "imagem_original": "https://animefire.plus/img/animes/hiiro-no-kakera-dai-ni-shou.webp",
      "imagem_pasta": "https://animefire.plus/img/animes/hiiro-no-kakera-dai-ni-shou/",
      "secao": "legendados",
      "pagina": 143,
      "total_episodios": 13,
      "link_video": "https://animefire.plus/video/hiiro-no-kakera-dai-ni-shou"
    },
    {
      "id": 1481,
      "nome": "Hikikomari Kyuuketsuki no Monmon",
      "link": "https://animefire.plus/animes/hikikomari-kyuuketsuki-no-monmon-todos-os-episodios",
      "texto_original": "Hikikomari Kyuuketsuki no Monmon",
      "rating": 7.14,
      "classificacao_etaria": "A14",
      "imagem_original": "https://animefire.plus/img/animes/hikikomari-kyuuketsuki-no-monmon.webp",
      "imagem_pasta": "https://animefire.plus/img/animes/hikikomari-kyuuketsuki-no-monmon/",
      "secao": "legendados",
      "pagina": 20,
      "total_episodios": 12,
      "link_video": "https://animefire.plus/video/hikikomari-kyuuketsuki-no-monmon"
    },
    {
      "id": 1484,
      "nome": "Himesama \"Goumon\" no Jikan desu",
      "link": "https://animefire.plus/animes/himesama-goumon-no-jikan-desu-todos-os-episodios",
      "texto_original": "Himesama \"Goumon\" no Jikan desu",
      "rating": 7.23,
      "classificacao_etaria": "A14",
      "imagem_original": "https://animefire.plus/img/animes/himesama-goumon-no-jikan-desu.webp",
      "imagem_pasta": "https://animefire.plus/img/animes/himesama-goumon-no-jikan-desu/",
      "secao": "legendados",
      "pagina": 17,
      "total_episodios": 12,
      "link_video": "https://animefire.plus/video/himesama-goumon-no-jikan-desu"
    },
    {
      "id": 1489,
      "nome": "Himouto! Umaru-chan",
      "link": "https://animefire.plus/animes/himouto-umaru-chan-todos-os-episodios",
      "texto_original": "Himouto! Umaru-chan",
      "rating": 7.34,
      "classificacao_etaria": "A14",
      "imagem_original": "https://animefire.plus/img/animes/himouto-umaru-chan.webp",
      "imagem_pasta": "https://animefire.plus/img/animes/himouto-umaru-chan/",
      "secao": "legendados",
      "pagina": 163,
      "total_episodios": 0,
      "link_video": "https://animefire.plus/video/himouto-umaru-chan"
    },
    {
      "id": 1490,
      "nome": "Himouto! Umaru-chan R",
      "link": "https://animefire.plus/animes/himouto-umaru-chan-r-todos-os-episodios",
      "texto_original": "Himouto! Umaru-chan R",
      "rating": 7.47,
      "classificacao_etaria": "A14",
      "imagem_original": "https://animefire.plus/img/animes/himouto-umaru-chan-r.webp",
      "imagem_pasta": "https://animefire.plus/img/animes/himouto-umaru-chan-r/",
      "secao": "legendados",
      "pagina": 111,
      "total_episodios": 12,
      "link_video": "https://animefire.plus/video/himouto-umaru-chan-r"
    },
    {
      "id": 1494,
      "nome": "Hinata no Aoshigure",
      "link": "https://animefire.plus/animes/hinata-no-aoshigure-todos-os-episodios",
      "texto_original": "Hinata no Aoshigure",
      "rating": 7.04,
      "classificacao_etaria": "A10",
      "imagem_original": "https://animefire.plus/img/animes/hinata-no-aoshigure.webp",
      "imagem_pasta": "https://animefire.plus/img/animes/hinata-no-aoshigure/",
      "secao": "legendados",
      "pagina": 100,
      "total_episodios": 1,
      "link_video": "https://animefire.plus/video/hinata-no-aoshigure"
    },
    {
      "id": 1495,
      "nome": "Hinomaruzumou",
      "link": "https://animefire.plus/animes/hinomaruzumou-todos-os-episodios",
      "texto_original": "Hinomaruzumou",
      "rating": 7.73,
      "classificacao_etaria": "A14",
      "imagem_original": "https://animefire.plus/img/animes/hinomaruzumou.webp",
      "imagem_pasta": "https://animefire.plus/img/animes/hinomaruzumou/",
      "secao": "legendados",
      "pagina": 132,
      "total_episodios": 19,
      "link_video": "https://animefire.plus/video/hinomaruzumou"
    },
    {
      "id": 1497,
      "nome": "Hirogaru Sky! Precure",
      "link": "https://animefire.plus/animes/hirogaru-sky-precure-todos-os-episodios",
      "texto_original": "Hirogaru Sky! Precure",
      "rating": 7.6,
      "classificacao_etaria": null,
      "imagem_original": "https://animefire.plus/img/animes/hirogaru-sky-precure.webp",
      "imagem_pasta": "https://animefire.plus/img/animes/hirogaru-sky-precure/",
      "secao": "legendados",
      "pagina": 25,
      "total_episodios": 50,
      "link_video": "https://animefire.plus/video/hirogaru-sky-precure"
    },
    {
      "id": 1498,
      "nome": "Hisone to Maso-tan (Dublado)",
      "link": "https://animefire.plus/animes/hisone-to-maso-tan-dublado-todos-os-episodios",
      "texto_original": "Hisone to Maso-tan (Dublado)",
      "rating": 7.45,
      "classificacao_etaria": "A14",
      "imagem_original": "https://animefire.plus/img/animes/hisone-to-maso-tan.webp",
      "imagem_pasta": "https://animefire.plus/img/animes/hisone-to-maso-tan/",
      "secao": "dublados,legendados",
      "pagina": 24,
      "total_episodios": 12,
      "link_video": "https://animefire.plus/video/hisone-to-maso-tan-dublado"
    },
    {
      "id": 1502,
      "nome": "Hitori no Shita: The Outcast 2nd Season",
      "link": "https://animefire.plus/animes/hitori-no-shita-the-outcast-2nd-season-todos-os-episodios",
      "texto_original": "Hitori no Shita: The Outcast 2nd Season",
      "rating": 7.44,
      "classificacao_etaria": "A16",
      "imagem_original": "https://animefire.plus/img/animes/hitori-no-shita-the-outcast-2nd-season.webp",
      "imagem_pasta": "https://animefire.plus/img/animes/hitori-no-shita-the-outcast-2nd-season/",
      "secao": "legendados",
      "pagina": 119,
      "total_episodios": 22,
      "link_video": "https://animefire.plus/video/hitori-no-shita-the-outcast-2nd-season"
    }
  ],
  "pagination": {
    "current_page": 31,
    "per_page": 20,
    "total_items": 1905,
    "total_pages": 96,
    "has_next": true,
    "has_prev": true
  }
}
