{
  "message": "Animes com rating entre 7 e 8",
  "rating_range": {
    "min": 7,
    "max": 8
  },
  "data": [
    {
      "id": 4364,
      "nome": "Zombieland Saga",
      "link": "https://animefire.plus/animes/zombieland-saga-todos-os-episodios",
      "texto_original": "Zombieland Saga",
      "rating": 7.69,
      "classificacao_etaria": "A16",
      "imagem_original": "https://animefire.plus/img/animes/zombieland-saga.webp",
      "imagem_pasta": "https://animefire.plus/img/animes/zombieland-saga/",
      "secao": "legendados",
      "pagina": 139,
      "total_episodios": 12,
      "link_video": "https://animefire.plus/video/zombieland-saga"
    },
    {
      "id": 4365,
      "nome": "Zombieland Saga: Revenge",
      "link": "https://animefire.plus/animes/zombieland-saga-revenge-todos-os-episodios",
      "texto_original": "Zombieland Saga: Revenge",
      "rating": 7.99,
      "classificacao_etaria": "A16",
      "imagem_original": "https://animefire.plus/img/animes/zombieland-saga-revenge.webp",
      "imagem_pasta": "https://animefire.plus/img/animes/zombieland-saga-revenge/",
      "secao": "legendados",
      "pagina": 47,
      "total_episodios": 12,
      "link_video": "https://animefire.plus/video/zombieland-saga-revenge"
    },
    {
      "id": 4366,
      "nome": "Zone of the Enders: Dolores, I",
      "link": "https://animefire.plus/animes/zone-of-the-enders-dolores-i-todos-os-episodios",
      "texto_original": "Zone of the Enders: Dolores, I",
      "rating": 7.02,
      "classificacao_etaria": "A14",
      "imagem_original": "https://animefire.plus/img/animes/zone-of-the-enders-dolores-i.webp",
      "imagem_pasta": "https://animefire.plus/img/animes/zone-of-the-enders-dolores-i/",
      "secao": "legendados",
      "pagina": 174,
      "total_episodios": 26,
      "link_video": "https://animefire.plus/video/zone-of-the-enders-dolores-i"
    },
    {
      "id": 4367,
      "nome": "Zuoshou Shanglan",
      "link": "https://animefire.plus/animes/zuoshou-shanglan-todos-os-episodios",
      "texto_original": "Zuoshou Shanglan",
      "rating": 7.18,
      "classificacao_etaria": "A14",
      "imagem_original": "https://animefire.plus/img/animes/zuoshou-shanglan.webp",
      "imagem_pasta": "https://animefire.plus/img/animes/zuoshou-shanglan/",
      "secao": "legendados",
      "pagina": 18,
      "total_episodios": 3,
      "link_video": "https://animefire.plus/video/zuoshou-shanglan"
    },
    {
      "id": 4368,
      "nome": "Zutaboro Reijou wa Ane no Moto Konyakusha ni Dekiai sareru",
      "link": "https://animefire.plus/animes/zutaboro-reijou-wa-ane-no-moto-konyakusha-ni-dekiai-sareru-todos-os-episodios",
      "texto_original": "Zutaboro Reijou wa Ane no Moto Konyakusha ni Dekiai sareru",
      "rating": 7.21,
      "classificacao_etaria": "A14",
      "imagem_original": "https://animefire.plus/img/animes/zutaboro-reijou-wa-ane-no-moto-konyakusha-ni-dekiai-sareru.webp",
      "imagem_pasta": "https://animefire.plus/img/animes/zutaboro-reijou-wa-ane-no-moto-konyakusha-ni-dekiai-sareru/",
      "secao": "legendados,lancamentos",
      "pagina": 2,
      "total_episodios": 5,
      "link_video": "https://animefire.plus/video/zutaboro-reijou-wa-ane-no-moto-konyakusha-ni-dekiai-sareru"
    }
  ],
  "pagination": {
    "current_page": 96,
    "per_page": 20,
    "total_items": 1905,
    "total_pages": 96,
    "has_next": false,
    "has_prev": true
  }
}
