{
  "message": "Animes com rating entre 7 e 8",
  "rating_range": {
    "min": 7,
    "max": 8
  },
  "data": [
    {
      "id": 970,
      "nome": "Fairy Tail OVA",
      "link": "https://animefire.plus/animes/fairy-tail-ova-todos-os-episodios",
      "texto_original": "Fairy Tail OVA",
      "rating": 7.59,
      "classificacao_etaria": "A14",
      "imagem_original": "https://animefire.plus/img/animes/fairy-tail-ova.webp",
      "imagem_pasta": "https://animefire.plus/img/animes/fairy-tail-ova/",
      "secao": "legendados",
      "pagina": 62,
      "total_episodios": 6,
      "link_video": "https://animefire.plus/video/fairy-tail-ova"
    },
    {
      "id": 971,
      "nome": "Fairy Tail OVA (2016)",
      "link": "https://animefire.plus/animes/fairy-tail-ova-2016-todos-os-episodios",
      "texto_original": "Fairy Tail OVA (2016)",
      "rating": 7.31,
      "classificacao_etaria": "A14",
      "imagem_original": "https://animefire.plus/img/animes/fairy-tail-ova-2016.webp",
      "imagem_pasta": "https://animefire.plus/img/animes/fairy-tail-ova-2016/",
      "secao": "legendados",
      "pagina": 64,
      "total_episodios": 3,
      "link_video": "https://animefire.plus/video/fairy-tail-ova-2016"
    },
    {
      "id": 972,
      "nome": "Fairy Tail: 100 Years Quest",
      "link": "https://animefire.plus/animes/fairy-tail-100-years-quest-todos-os-episodios",
      "texto_original": "Fairy Tail: 100 Years Quest",
      "rating": 7.61,
      "classificacao_etaria": "A14",
      "imagem_original": "https://animefire.plus/img/animes/fairy-tail-100-years-quest.webp",
      "imagem_pasta": "https://animefire.plus/img/animes/fairy-tail-100-years-quest/",
      "secao": "legendados,lancamentos",
      "pagina": 13,
      "total_episodios": 0,
      "link_video": "https://animefire.plus/video/fairy-tail-100-years-quest"
    },
    {
      "id": 973,
      "nome": "Fairy Tail: 100-nen Quest",
      "link": "https://animefire.plus/animes/fairy-tail-100-nen-quest-todos-os-episodios",
      "texto_original": "Fairy Tail: 100-nen Quest",
      "rating": 7.61,
      "classificacao_etaria": "A14",
      "imagem_original": "https://animefire.plus/img/animes/fairy-tail-100-nen-quest.webp",
      "imagem_pasta": "https://animefire.plus/img/animes/fairy-tail-100-nen-quest/",
      "secao": "legendados,lancamentos",
      "pagina": 11,
      "total_episodios": 14,
      "link_video": "https://animefire.plus/video/fairy-tail-100-nen-quest"
    },
    {
      "id": 977,
      "nome": "Fantastic Children",
      "link": "https://animefire.plus/animes/fantastic-children-todos-os-episodios",
      "texto_original": "Fantastic Children",
      "rating": 7.62,
      "classificacao_etaria": "A14",
      "imagem_original": "https://animefire.plus/img/animes/fantastic-children.webp",
      "imagem_pasta": "https://animefire.plus/img/animes/fantastic-children/",
      "secao": "legendados",
      "pagina": 98,
      "total_episodios": 26,
      "link_video": "https://animefire.plus/video/fantastic-children"
    },
    {
      "id": 978,
      "nome": "Fantasy Bishoujo Juniku Ojisan to",
      "link": "https://animefire.plus/animes/fantasy-bishoujo-juniku-ojisan-to-todos-os-episodios",
      "texto_original": "Fantasy Bishoujo Juniku Ojisan to",
      "rating": 7.12,
      "classificacao_etaria": "A14",
      "imagem_original": "https://animefire.plus/img/animes/fantasy-bishoujo-juniku-ojisan-to.webp",
      "imagem_pasta": "https://animefire.plus/img/animes/fantasy-bishoujo-juniku-ojisan-to/",
      "secao": "legendados",
      "pagina": 36,
      "total_episodios": 12,
      "link_video": "https://animefire.plus/video/fantasy-bishoujo-juniku-ojisan-to"
    },
    {
      "id": 983,
      "nome": "Fate/Apocrypha (Dublado)",
      "link": "https://animefire.plus/animes/fate-apocrypha-dublado-todos-os-episodios",
      "texto_original": "Fate/Apocrypha (Dublado)",
      "rating": 7.16,
      "classificacao_etaria": "A16",
      "imagem_original": "https://animefire.plus/img/animes/fate-apocrypha.webp",
      "imagem_pasta": "https://animefire.plus/img/animes/fate-apocrypha/",
      "secao": "dublados,legendados",
      "pagina": 17,
      "total_episodios": 25,
      "link_video": "https://animefire.plus/video/fate-apocrypha-dublado"
    },
    {
      "id": 990,
      "nome": "Fate/Grand Order: Zettai Majuu Sensen Babylonia",
      "link": "https://animefire.plus/animes/fate-grand-order-zettai-majuu-sensen-babylonia-todos-os-episodios",
      "texto_original": "Fate/Grand Order: Zettai Majuu Sensen Babylonia",
      "rating": 7.95,
      "classificacao_etaria": "A14",
      "imagem_original": "https://animefire.plus/img/animes/fate-grand-order-zettai-majuu-sensen-babylonia.webp",
      "imagem_pasta": "https://animefire.plus/img/animes/fate-grand-order-zettai-majuu-sensen-babylonia/",
      "secao": "legendados",
      "pagina": 110,
      "total_episodios": 1,
      "link_video": "https://animefire.plus/video/fate-grand-order-zettai-majuu-sensen-babylonia"
    },
    {
      "id": 991,
      "nome": "Fate/Grand Order: Zettai Majuu Sensen Babylonia - Initium Iter",
      "link": "https://animefire.plus/animes/fate-grand-order-zettai-majuu-sensen-babylonia---initium-iter-todos-os-episodios",
      "texto_original": "Fate/Grand Order: Zettai Majuu Sensen Babylonia - Initium Iter",
      "rating": 7.21,
      "classificacao_etaria": "A14",
      "imagem_original": "https://animefire.plus/img/animes/fate-grand-order-zettai-majuu-sensen-babylonia---initium-iter.webp",
      "imagem_pasta": "https://animefire.plus/img/animes/fate-grand-order-zettai-majuu-sensen-babylonia---initium-iter/",
      "secao": "legendados",
      "pagina": 105,
      "total_episodios": 1,
      "link_video": "https://animefire.plus/video/fate-grand-order-zettai-majuu-sensen-babylonia---initium-iter"
    },
    {
      "id": 992,
      "nome": "Fate/kaleid liner Prisma☆Illya",
      "link": "https://animefire.plus/animes/fate-kaleid-liner-prisma-illya-todos-os-episodios",
      "texto_original": "Fate/kaleid liner Prisma☆Illya",
      "rating": 7.18,
      "classificacao_etaria": "A14",
      "imagem_original": "https://animefire.plus/img/animes/fate-kaleid-liner-prisma-illya.webp",
      "imagem_pasta": "https://animefire.plus/img/animes/fate-kaleid-liner-prisma-illya/",
      "secao": "legendados",
      "pagina": 89,
      "total_episodios": 5,
      "link_video": "https://animefire.plus/video/fate-kaleid-liner-prisma-illya"
    },
    {
      "id": 993,
      "nome": "Fate/kaleid Liner Prisma☆Illya 2wei Herz!",
      "link": "https://animefire.plus/animes/fate-kaleid-liner-prisma-illya-2wei-herz-todos-os-episodios",
      "texto_original": "Fate/kaleid Liner Prisma☆Illya 2wei Herz!",
      "rating": 7.35,
      "classificacao_etaria": "A14",
      "imagem_original": "https://animefire.plus/img/animes/fate-kaleid-liner-prisma-illya-2wei-herz.webp",
      "imagem_pasta": "https://animefire.plus/img/animes/fate-kaleid-liner-prisma-illya-2wei-herz/",
      "secao": "legendados",
      "pagina": 98,
      "total_episodios": 10,
      "link_video": "https://animefire.plus/video/fate-kaleid-liner-prisma-illya-2wei-herz"
    },
    {
      "id": 994,
      "nome": "Fate/kaleid liner Prisma☆Illya 2wei!",
      "link": "https://animefire.plus/animes/fate-kaleid-liner-prisma-illya-2wei-todos-os-episodios",
      "texto_original": "Fate/kaleid liner Prisma☆Illya 2wei!",
      "rating": 7.37,
      "classificacao_etaria": "A14",
      "imagem_original": "https://animefire.plus/img/animes/fate-kaleid-liner-prisma-illya-2wei.webp",
      "imagem_pasta": "https://animefire.plus/img/animes/fate-kaleid-liner-prisma-illya-2wei/",
      "secao": "legendados",
      "pagina": 89,
      "total_episodios": 10,
      "link_video": "https://animefire.plus/video/fate-kaleid-liner-prisma-illya-2wei"
    },
    {
      "id": 995,
      "nome": "Fate/kaleid liner Prisma☆Illya 3rei!!",
      "link": "https://animefire.plus/animes/fate-kaleid-liner-prisma-illya-3rei-todos-os-episodios",
      "texto_original": "Fate/kaleid liner Prisma☆Illya 3rei!!",
      "rating": 7.62,
      "classificacao_etaria": "A14",
      "imagem_original": "https://animefire.plus/img/animes/fate-kaleid-liner-prisma-illya-3rei.webp",
      "imagem_pasta": "https://animefire.plus/img/animes/fate-kaleid-liner-prisma-illya-3rei/",
      "secao": "legendados",
      "pagina": 89,
      "total_episodios": 12,
      "link_video": "https://animefire.plus/video/fate-kaleid-liner-prisma-illya-3rei"
    },
    {
      "id": 997,
      "nome": "Fate/Stay Night (Dublado)",
      "link": "https://animefire.plus/animes/fate-stay-night-dublado-todos-os-episodios",
      "texto_original": "Fate/Stay Night (Dublado)",
      "rating": 7.46,
      "classificacao_etaria": "A16",
      "imagem_original": "https://animefire.plus/img/animes/fate-stay-night.webp",
      "imagem_pasta": "https://animefire.plus/img/animes/fate-stay-night/",
      "secao": "dublados,legendados",
      "pagina": 26,
      "total_episodios": 24,
      "link_video": "https://animefire.plus/video/fate-stay-night-dublado"
    },
    {
      "id": 1008,
      "nome": "Figure 17: Tsubasa & Hikaru",
      "link": "https://animefire.plus/animes/figure-17-tsubasa-hikaru-todos-os-episodios",
      "texto_original": "Figure 17: Tsubasa & Hikaru",
      "rating": 7.25,
      "classificacao_etaria": "A14",
      "imagem_original": "https://animefire.plus/img/animes/figure-17-tsubasa-hikaru.webp",
      "imagem_pasta": "https://animefire.plus/img/animes/figure-17-tsubasa-hikaru/",
      "secao": "legendados",
      "pagina": 69,
      "total_episodios": 13,
      "link_video": "https://animefire.plus/video/figure-17-tsubasa-hikaru"
    },
    {
      "id": 1012,
      "nome": "Flag",
      "link": "https://animefire.plus/animes/flag-todos-os-episodios",
      "texto_original": "Flag",
      "rating": 7.27,
      "classificacao_etaria": "A14",
      "imagem_original": "https://animefire.plus/img/animes/flag.webp",
      "imagem_pasta": "https://animefire.plus/img/animes/flag/",
      "secao": "legendados",
      "pagina": 97,
      "total_episodios": 13,
      "link_video": "https://animefire.plus/video/flag"
    },
    {
      "id": 1015,
      "nome": "Flip Flappers",
      "link": "https://animefire.plus/animes/flip-flappers-todos-os-episodios",
      "texto_original": "Flip Flappers",
      "rating": 7.74,
      "classificacao_etaria": "A14",
      "imagem_original": "https://animefire.plus/img/animes/flip-flappers.webp",
      "imagem_pasta": "https://animefire.plus/img/animes/flip-flappers/",
      "secao": "legendados",
      "pagina": 168,
      "total_episodios": 13,
      "link_video": "https://animefire.plus/video/flip-flappers"
    },
    {
      "id": 1016,
      "nome": "Flying Witch",
      "link": "https://animefire.plus/animes/flying-witch-todos-os-episodios",
      "texto_original": "Flying Witch",
      "rating": 7.59,
      "classificacao_etaria": "A14",
      "imagem_original": "https://animefire.plus/img/animes/flying-witch.webp",
      "imagem_pasta": "https://animefire.plus/img/animes/flying-witch/",
      "secao": "legendados",
      "pagina": 136,
      "total_episodios": 12,
      "link_video": "https://animefire.plus/video/flying-witch"
    },
    {
      "id": 1017,
      "nome": "Food Court de, Mata Ashita.",
      "link": "https://animefire.plus/animes/food-court-de-mata-ashita-todos-os-episodios",
      "texto_original": "Food Court de, Mata Ashita.",
      "rating": 7.01,
      "classificacao_etaria": "A14",
      "imagem_original": "https://animefire.plus/img/animes/food-court-de-mata-ashita.webp",
      "imagem_pasta": "https://animefire.plus/img/animes/food-court-de-mata-ashita/",
      "secao": "legendados,lancamentos",
      "pagina": 2,
      "total_episodios": 4,
      "link_video": "https://animefire.plus/video/food-court-de-mata-ashita"
    },
    {
      "id": 1020,
      "nome": "Fractale",
      "link": "https://animefire.plus/animes/fractale-todos-os-episodios",
      "texto_original": "Fractale",
      "rating": 7,
      "classificacao_etaria": "A14",
      "imagem_original": "https://animefire.plus/img/animes/fractale.webp",
      "imagem_pasta": "https://animefire.plus/img/animes/fractale/",
      "secao": "legendados",
      "pagina": 108,
      "total_episodios": 11,
      "link_video": "https://animefire.plus/video/fractale"
    }
  ],
  "pagination": {
    "current_page": 20,
    "per_page": 20,
    "total_items": 1905,
    "total_pages": 96,
    "has_next": true,
    "has_prev": true
  }
}
