{
  "message": "Animes com rating entre 7 e 8",
  "rating_range": {
    "min": 7,
    "max": 8
  },
  "data": [
    {
      "id": 2321,
      "nome": "Mahoromatic 2",
      "link": "https://animefire.plus/animes/mahoromatic-2-todos-os-episodios",
      "texto_original": "Mahoromatic 2",
      "rating": 7.23,
      "classificacao_etaria": "A18",
      "imagem_original": "https://animefire.plus/img/animes/mahoromatic-2.webp",
      "imagem_pasta": "https://animefire.plus/img/animes/mahoromatic-2/",
      "secao": "legendados",
      "pagina": 113,
      "total_episodios": 14,
      "link_video": "https://animefire.plus/video/mahoromatic-2"
    },
    {
      "id": 2322,
      "nome": "Mahoromatic: Automatic Maiden",
      "link": "https://animefire.plus/animes/mahoromatic-automatic-maiden-todos-os-episodios",
      "texto_original": "Mahoromatic: Automatic Maiden",
      "rating": 7.24,
      "classificacao_etaria": "A18",
      "imagem_original": "https://animefire.plus/img/animes/mahoromatic-automatic-maiden.webp",
      "imagem_pasta": "https://animefire.plus/img/animes/mahoromatic-automatic-maiden/",
      "secao": "legendados",
      "pagina": 116,
      "total_episodios": 0,
      "link_video": "https://animefire.plus/video/mahoromatic-automatic-maiden"
    },
    {
      "id": 2323,
      "nome": "Mahoromatic: Motto Utsukushii Mono",
      "link": "https://animefire.plus/animes/mahoromatic-motto-utsukushii-mono-todos-os-episodios",
      "texto_original": "Mahoromatic: Motto Utsukushii Mono",
      "rating": 7.2,
      "classificacao_etaria": "A18",
      "imagem_original": "https://animefire.plus/img/animes/mahoromatic-motto-utsukushii-mono.webp",
      "imagem_pasta": "https://animefire.plus/img/animes/mahoromatic-motto-utsukushii-mono/",
      "secao": "legendados",
      "pagina": 70,
      "total_episodios": 14,
      "link_video": "https://animefire.plus/video/mahoromatic-motto-utsukushii-mono"
    },
    {
      "id": 2324,
      "nome": "Mahoromatic: Tadaima Okaeri",
      "link": "https://animefire.plus/animes/mahoromatic-tadaima-okaeri-todos-os-episodios",
      "texto_original": "Mahoromatic: Tadaima Okaeri",
      "rating": 7.09,
      "classificacao_etaria": "A18",
      "imagem_original": "https://animefire.plus/img/animes/mahoromatic-tadaima-okaeri.webp",
      "imagem_pasta": "https://animefire.plus/img/animes/mahoromatic-tadaima-okaeri/",
      "secao": "legendados",
      "pagina": 70,
      "total_episodios": 2,
      "link_video": "https://animefire.plus/video/mahoromatic-tadaima-okaeri"
    },
    {
      "id": 2325,
      "nome": "Mahou Sensei Negima!",
      "link": "https://animefire.plus/animes/mahou-sensei-negima-todos-os-episodios",
      "texto_original": "Mahou Sensei Negima!",
      "rating": 7.06,
      "classificacao_etaria": "A14",
      "imagem_original": "https://animefire.plus/img/animes/mahou-sensei-negima.webp",
      "imagem_pasta": "https://animefire.plus/img/animes/mahou-sensei-negima/",
      "secao": "legendados",
      "pagina": 112,
      "total_episodios": 26,
      "link_video": "https://animefire.plus/video/mahou-sensei-negima"
    },
    {
      "id": 2326,
      "nome": "Mahou Senshi Louie",
      "link": "https://animefire.plus/animes/mahou-senshi-louie-todos-os-episodios",
      "texto_original": "Mahou Senshi Louie",
      "rating": 7.22,
      "classificacao_etaria": "A14",
      "imagem_original": "https://animefire.plus/img/animes/mahou-senshi-louie.webp",
      "imagem_pasta": "https://animefire.plus/img/animes/mahou-senshi-louie/",
      "secao": "legendados",
      "pagina": 126,
      "total_episodios": 8,
      "link_video": "https://animefire.plus/video/mahou-senshi-louie"
    },
    {
      "id": 2328,
      "nome": "Mahou Shoujo Ikusei Keikaku",
      "link": "https://animefire.plus/animes/mahou-shoujo-ikusei-keikaku-todos-os-episodios",
      "texto_original": "Mahou Shoujo Ikusei Keikaku",
      "rating": 7.09,
      "classificacao_etaria": "A16",
      "imagem_original": "https://animefire.plus/img/animes/mahou-shoujo-ikusei-keikaku.webp",
      "imagem_pasta": "https://animefire.plus/img/animes/mahou-shoujo-ikusei-keikaku/",
      "secao": "legendados",
      "pagina": 169,
      "total_episodios": 12,
      "link_video": "https://animefire.plus/video/mahou-shoujo-ikusei-keikaku"
    },
    {
      "id": 2330,
      "nome": "Mahou Shoujo Lyrical Nanoha",
      "link": "https://animefire.plus/animes/mahou-shoujo-lyrical-nanoha-todos-os-episodios",
      "texto_original": "Mahou Shoujo Lyrical Nanoha",
      "rating": 7.47,
      "classificacao_etaria": "A14",
      "imagem_original": "https://animefire.plus/img/animes/mahou-shoujo-lyrical-nanoha.webp",
      "imagem_pasta": "https://animefire.plus/img/animes/mahou-shoujo-lyrical-nanoha/",
      "secao": "legendados",
      "pagina": 153,
      "total_episodios": 13,
      "link_video": "https://animefire.plus/video/mahou-shoujo-lyrical-nanoha"
    },
    {
      "id": 2332,
      "nome": "Mahou Shoujo Lyrical Nanoha StrikerS",
      "link": "https://animefire.plus/animes/mahou-shoujo-lyrical-nanoha-strikers-todos-os-episodios",
      "texto_original": "Mahou Shoujo Lyrical Nanoha StrikerS",
      "rating": 7.7,
      "classificacao_etaria": "A14",
      "imagem_original": "https://animefire.plus/img/animes/mahou-shoujo-lyrical-nanoha-strikers.webp",
      "imagem_pasta": "https://animefire.plus/img/animes/mahou-shoujo-lyrical-nanoha-strikers/",
      "secao": "legendados",
      "pagina": 121,
      "total_episodios": 12,
      "link_video": "https://animefire.plus/video/mahou-shoujo-lyrical-nanoha-strikers"
    },
    {
      "id": 2338,
      "nome": "Mahou Shoujo ni Akogarete",
      "link": "https://animefire.plus/animes/mahou-shoujo-ni-akogarete-todos-os-episodios",
      "texto_original": "Mahou Shoujo ni Akogarete",
      "rating": 7.62,
      "classificacao_etaria": "A18",
      "imagem_original": "https://animefire.plus/img/animes/mahou-shoujo-ni-akogarete.webp",
      "imagem_pasta": "https://animefire.plus/img/animes/mahou-shoujo-ni-akogarete/",
      "secao": "legendados",
      "pagina": 17,
      "total_episodios": 13,
      "link_video": "https://animefire.plus/video/mahou-shoujo-ni-akogarete"
    },
    {
      "id": 2344,
      "nome": "Mahoujin Guruguru (2017)",
      "link": "https://animefire.plus/animes/mahoujin-guruguru-2017-todos-os-episodios",
      "texto_original": "Mahoujin Guruguru (2017)",
      "rating": 7.89,
      "classificacao_etaria": "A14",
      "imagem_original": "https://animefire.plus/img/animes/mahoujin-guruguru-2017.webp",
      "imagem_pasta": "https://animefire.plus/img/animes/mahoujin-guruguru-2017/",
      "secao": "legendados",
      "pagina": 76,
      "total_episodios": 24,
      "link_video": "https://animefire.plus/video/mahoujin-guruguru-2017"
    },
    {
      "id": 2345,
      "nome": "Mahouka Koukou No Rettousei",
      "link": "https://animefire.plus/animes/mahouka-koukou-no-rettousei-todos-os-episodios",
      "texto_original": "Mahouka Koukou No Rettousei",
      "rating": 7.69,
      "classificacao_etaria": "A14",
      "imagem_original": "https://animefire.plus/img/animes/mahouka-koukou-no-rettousei.webp",
      "imagem_pasta": "https://animefire.plus/img/animes/mahouka-koukou-no-rettousei/",
      "secao": "legendados",
      "pagina": 100,
      "total_episodios": 26,
      "link_video": "https://animefire.plus/video/mahouka-koukou-no-rettousei"
    },
    {
      "id": 2346,
      "nome": "Mahouka Koukou no Rettousei 3rd Season",
      "link": "https://animefire.plus/animes/mahouka-koukou-no-rettousei-3rd-season-todos-os-episodios",
      "texto_original": "Mahouka Koukou no Rettousei 3rd Season",
      "rating": 7.04,
      "classificacao_etaria": "A16",
      "imagem_original": "https://animefire.plus/img/animes/mahouka-koukou-no-rettousei-3rd-season.webp",
      "imagem_pasta": "https://animefire.plus/img/animes/mahouka-koukou-no-rettousei-3rd-season/",
      "secao": "legendados",
      "pagina": 15,
      "total_episodios": 13,
      "link_video": "https://animefire.plus/video/mahouka-koukou-no-rettousei-3rd-season"
    },
    {
      "id": 2348,
      "nome": "Mahouka Koukou no Rettousei: Tsuioku-hen",
      "link": "https://animefire.plus/animes/mahouka-koukou-no-rettousei-tsuioku-hen-todos-os-episodios",
      "texto_original": "Mahouka Koukou no Rettousei: Tsuioku-hen",
      "rating": 7.66,
      "classificacao_etaria": "A14",
      "imagem_original": "https://animefire.plus/img/animes/mahouka-koukou-no-rettousei-tsuioku-hen.webp",
      "imagem_pasta": "https://animefire.plus/img/animes/mahouka-koukou-no-rettousei-tsuioku-hen/",
      "secao": "legendados",
      "pagina": 36,
      "total_episodios": 1,
      "link_video": "https://animefire.plus/video/mahouka-koukou-no-rettousei-tsuioku-hen"
    },
    {
      "id": 2351,
      "nome": "Mahoutsukai ni Taisetsu na Koto: Natsu no Sora",
      "link": "https://animefire.plus/animes/mahoutsukai-ni-taisetsu-na-koto-natsu-no-sora-todos-os-episodios",
      "texto_original": "Mahoutsukai ni Taisetsu na Koto: Natsu no Sora",
      "rating": 7.34,
      "classificacao_etaria": null,
      "imagem_original": "https://animefire.plus/img/animes/mahoutsukai-ni-taisetsu-na-koto-natsu-no-sora.webp",
      "imagem_pasta": "https://animefire.plus/img/animes/mahoutsukai-ni-taisetsu-na-koto-natsu-no-sora/",
      "secao": "legendados",
      "pagina": 137,
      "total_episodios": 0,
      "link_video": "https://animefire.plus/video/mahoutsukai-ni-taisetsu-na-koto-natsu-no-sora"
    },
    {
      "id": 2354,
      "nome": "Mahoutsukai no Yome Season 2 (Dublado)",
      "link": "https://animefire.plus/animes/mahoutsukai-no-yome-season-2-dublado-todos-os-episodios",
      "texto_original": "Mahoutsukai no Yome Season 2 (Dublado)",
      "rating": 7.76,
      "classificacao_etaria": "A14",
      "imagem_original": "https://animefire.plus/img/animes/mahoutsukai-no-yome-season-2.webp",
      "imagem_pasta": "https://animefire.plus/img/animes/mahoutsukai-no-yome-season-2/",
      "secao": "dublados,legendados",
      "pagina": 6,
      "total_episodios": 12,
      "link_video": "https://animefire.plus/video/mahoutsukai-no-yome-season-2-dublado"
    },
    {
      "id": 2355,
      "nome": "Mahoutsukai no Yome Season 2 Part 2 (Dublado)",
      "link": "https://animefire.plus/animes/mahoutsukai-no-yome-season-2-part-2-dublado-todos-os-episodios",
      "texto_original": "Mahoutsukai no Yome Season 2 Part 2 (Dublado)",
      "rating": 7.9,
      "classificacao_etaria": "A14",
      "imagem_original": "https://animefire.plus/img/animes/mahoutsukai-no-yome-season-2-part-2.webp",
      "imagem_pasta": "https://animefire.plus/img/animes/mahoutsukai-no-yome-season-2-part-2/",
      "secao": "dublados,legendados",
      "pagina": 5,
      "total_episodios": 12,
      "link_video": "https://animefire.plus/video/mahoutsukai-no-yome-season-2-part-2-dublado"
    },
    {
      "id": 2357,
      "nome": "Mahoutsukai no Yome: Nishi no Shounen to Seiran no Kishi (Dublado)",
      "link": "https://animefire.plus/animes/mahoutsukai-no-yome-nishi-no-shounen-to-seiran-no-kishi-dublado-todos-os-episodios",
      "texto_original": "Mahoutsukai no Yome: Nishi no Shounen to Seiran no Kishi (Dublado)",
      "rating": 7.56,
      "classificacao_etaria": "A14",
      "imagem_original": "https://animefire.plus/img/animes/mahoutsukai-no-yome-nishi-no-shounen-to-seiran-no-kishi.webp",
      "imagem_pasta": "https://animefire.plus/img/animes/mahoutsukai-no-yome-nishi-no-shounen-to-seiran-no-kishi/",
      "secao": "dublados,legendados",
      "pagina": 12,
      "total_episodios": 3,
      "link_video": "https://animefire.plus/video/mahoutsukai-no-yome-nishi-no-shounen-to-seiran-no-kishi-dublado"
    },
    {
      "id": 2358,
      "nome": "Mahoutsukai Precure!",
      "link": "https://animefire.plus/animes/mahoutsukai-precure-todos-os-episodios",
      "texto_original": "Mahoutsukai Precure!",
      "rating": 7.08,
      "classificacao_etaria": null,
      "imagem_original": "https://animefire.plus/img/animes/mahoutsukai-precure.webp",
      "imagem_pasta": "https://animefire.plus/img/animes/mahoutsukai-precure/",
      "secao": "legendados",
      "pagina": 67,
      "total_episodios": 47,
      "link_video": "https://animefire.plus/video/mahoutsukai-precure"
    },
    {
      "id": 2359,
      "nome": "Mahoutsukai Precure!! Mirai Days",
      "link": "https://animefire.plus/animes/mahoutsukai-precure-mirai-days-todos-os-episodios",
      "texto_original": "Mahoutsukai Precure!! Mirai Days",
      "rating": 7.17,
      "classificacao_etaria": null,
      "imagem_original": "https://animefire.plus/img/animes/mahoutsukai-precure-mirai-days.webp",
      "imagem_pasta": "https://animefire.plus/img/animes/mahoutsukai-precure-mirai-days/",
      "secao": "legendados,lancamentos",
      "pagina": 7,
      "total_episodios": 10,
      "link_video": "https://animefire.plus/video/mahoutsukai-precure-mirai-days"
    }
  ],
  "pagination": {
    "current_page": 50,
    "per_page": 20,
    "total_items": 1905,
    "total_pages": 96,
    "has_next": true,
    "has_prev": true
  }
}
