{
  "message": "Animes com rating entre 7 e 8",
  "rating_range": {
    "min": 7,
    "max": 8
  },
  "data": [
    {
      "id": 1342,
      "nome": "Hamatora The Animation",
      "link": "https://animefire.plus/animes/hamatora-the-animation-todos-os-episodios",
      "texto_original": "Hamatora The Animation",
      "rating": 7.36,
      "classificacao_etaria": "A16",
      "imagem_original": "https://animefire.plus/img/animes/hamatora-the-animation.webp",
      "imagem_pasta": "https://animefire.plus/img/animes/hamatora-the-animation/",
      "secao": "legendados",
      "pagina": 91,
      "total_episodios": 12,
      "link_video": "https://animefire.plus/video/hamatora-the-animation"
    },
    {
      "id": 1346,
      "nome": "Hana wa Saku, Shura no Gotoku",
      "link": "https://animefire.plus/animes/hana-wa-saku-shura-no-gotoku-todos-os-episodios",
      "texto_original": "Hana wa Saku, Shura no Gotoku",
      "rating": 7.12,
      "classificacao_etaria": "A14",
      "imagem_original": "https://animefire.plus/img/animes/hana-wa-saku-shura-no-gotoku.webp",
      "imagem_pasta": "https://animefire.plus/img/animes/hana-wa-saku-shura-no-gotoku/",
      "secao": "legendados",
      "pagina": 7,
      "total_episodios": 12,
      "link_video": "https://animefire.plus/video/hana-wa-saku-shura-no-gotoku"
    },
    {
      "id": 1347,
      "nome": "Hana yori Dango",
      "link": "https://animefire.plus/animes/hana-yori-dango-todos-os-episodios",
      "texto_original": "Hana yori Dango",
      "rating": 7.75,
      "classificacao_etaria": "A14",
      "imagem_original": "https://animefire.plus/img/animes/hana-yori-dango.webp",
      "imagem_pasta": "https://animefire.plus/img/animes/hana-yori-dango/",
      "secao": "legendados",
      "pagina": 71,
      "total_episodios": 51,
      "link_video": "https://animefire.plus/video/hana-yori-dango"
    },
    {
      "id": 1350,
      "nome": "Hanamaru Youchien",
      "link": "https://animefire.plus/animes/hanamaru-youchien-todos-os-episodios",
      "texto_original": "Hanamaru Youchien",
      "rating": 7.37,
      "classificacao_etaria": "A14",
      "imagem_original": "https://animefire.plus/img/animes/hanamaru-youchien.webp",
      "imagem_pasta": "https://animefire.plus/img/animes/hanamaru-youchien/",
      "secao": "legendados",
      "pagina": 96,
      "total_episodios": 2,
      "link_video": "https://animefire.plus/video/hanamaru-youchien"
    },
    {
      "id": 1353,
      "nome": "Hanasaku Iroha",
      "link": "https://animefire.plus/animes/hanasaku-iroha-todos-os-episodios",
      "texto_original": "Hanasaku Iroha",
      "rating": 8,
      "classificacao_etaria": "A14",
      "imagem_original": "https://animefire.plus/img/animes/hanasaku-iroha.webp",
      "imagem_pasta": "https://animefire.plus/img/animes/hanasaku-iroha/",
      "secao": "legendados",
      "pagina": 105,
      "total_episodios": 26,
      "link_video": "https://animefire.plus/video/hanasaku-iroha"
    },
    {
      "id": 1356,
      "nome": "Hanayamata",
      "link": "https://animefire.plus/animes/hanayamata-todos-os-episodios",
      "texto_original": "Hanayamata",
      "rating": 7.37,
      "classificacao_etaria": "A14",
      "imagem_original": "https://animefire.plus/img/animes/hanayamata.webp",
      "imagem_pasta": "https://animefire.plus/img/animes/hanayamata/",
      "secao": "legendados",
      "pagina": 91,
      "total_episodios": 12,
      "link_video": "https://animefire.plus/video/hanayamata"
    },
    {
      "id": 1357,
      "nome": "Hanbun no Tsuki ga Noboru Sora",
      "link": "https://animefire.plus/animes/hanbun-no-tsuki-ga-noboru-sora-todos-os-episodios",
      "texto_original": "Hanbun no Tsuki ga Noboru Sora",
      "rating": 7.59,
      "classificacao_etaria": "A14",
      "imagem_original": "https://animefire.plus/img/animes/hanbun-no-tsuki-ga-noboru-sora.webp",
      "imagem_pasta": "https://animefire.plus/img/animes/hanbun-no-tsuki-ga-noboru-sora/",
      "secao": "legendados",
      "pagina": 146,
      "total_episodios": 6,
      "link_video": "https://animefire.plus/video/hanbun-no-tsuki-ga-noboru-sora"
    },
    {
      "id": 1361,
      "nome": "Handa-kun",
      "link": "https://animefire.plus/animes/handa-kun-todos-os-episodios",
      "texto_original": "Handa-kun",
      "rating": 7.46,
      "classificacao_etaria": "A14",
      "imagem_original": "https://animefire.plus/img/animes/handa-kun.webp",
      "imagem_pasta": "https://animefire.plus/img/animes/handa-kun/",
      "secao": "legendados",
      "pagina": 174,
      "total_episodios": 12,
      "link_video": "https://animefire.plus/video/handa-kun"
    },
    {
      "id": 1363,
      "nome": "Hanebado!",
      "link": "https://animefire.plus/animes/hanebado-todos-os-episodios",
      "texto_original": "Hanebado!",
      "rating": 7.08,
      "classificacao_etaria": "A14",
      "imagem_original": "https://animefire.plus/img/animes/hanebado.webp",
      "imagem_pasta": "https://animefire.plus/img/animes/hanebado/",
      "secao": "legendados",
      "pagina": 146,
      "total_episodios": 13,
      "link_video": "https://animefire.plus/video/hanebado"
    },
    {
      "id": 1367,
      "nome": "Hanma Baki: Son of Ogre (Dublado)",
      "link": "https://animefire.plus/animes/hanma-baki-son-of-ogre-dublado-todos-os-episodios",
      "texto_original": "Hanma Baki: Son of Ogre (Dublado)",
      "rating": 7.64,
      "classificacao_etaria": "A16",
      "imagem_original": "https://animefire.plus/img/animes/hanma-baki-son-of-ogre.webp",
      "imagem_pasta": "https://animefire.plus/img/animes/hanma-baki-son-of-ogre/",
      "secao": "dublados,legendados",
      "pagina": 15,
      "total_episodios": 12,
      "link_video": "https://animefire.plus/video/hanma-baki-son-of-ogre-dublado"
    },
    {
      "id": 1368,
      "nome": "Hanma Baki: Son of Ogre 2nd Season (Dublado)",
      "link": "https://animefire.plus/animes/hanma-baki-son-of-ogre-2nd-season-dublado-todos-os-episodios",
      "texto_original": "Hanma Baki: Son of Ogre 2nd Season (Dublado)",
      "rating": 7.94,
      "classificacao_etaria": "A16",
      "imagem_original": "https://animefire.plus/img/animes/hanma-baki-son-of-ogre-2nd-season.webp",
      "imagem_pasta": "https://animefire.plus/img/animes/hanma-baki-son-of-ogre-2nd-season/",
      "secao": "dublados,legendados",
      "pagina": 6,
      "total_episodios": 27,
      "link_video": "https://animefire.plus/video/hanma-baki-son-of-ogre-2nd-season-dublado"
    },
    {
      "id": 1371,
      "nome": "Hanyou no Yashahime: Sengoku Otogizoushi - Ni no Shou (Dublado)",
      "link": "https://animefire.plus/animes/hanyou-no-yashahime-sengoku-otogizoushi---ni-no-shou-dublado-todos-os-episodios",
      "texto_original": "Hanyou no Yashahime: Sengoku Otogizoushi - Ni no Shou (Dublado)",
      "rating": 7.06,
      "classificacao_etaria": "A14",
      "imagem_original": "https://animefire.plus/img/animes/hanyou-no-yashahime-sengoku-otogizoushi---ni-no-shou.webp",
      "imagem_pasta": "https://animefire.plus/img/animes/hanyou-no-yashahime-sengoku-otogizoushi---ni-no-shou/",
      "secao": "dublados,legendados",
      "pagina": 14,
      "total_episodios": 24,
      "link_video": "https://animefire.plus/video/hanyou-no-yashahime-sengoku-otogizoushi---ni-no-shou-dublado"
    },
    {
      "id": 1372,
      "nome": "Hanyou no Yashahime: Sengoku Otogizoushi (Dublado)",
      "link": "https://animefire.plus/animes/hanyou-no-yashahime-sengoku-otogizoushi-dublado-todos-os-episodios",
      "texto_original": "Hanyou no Yashahime: Sengoku Otogizoushi (Dublado)",
      "rating": 7.36,
      "classificacao_etaria": "A14",
      "imagem_original": "https://animefire.plus/img/animes/hanyou-no-yashahime-sengoku-otogizoushi.webp",
      "imagem_pasta": "https://animefire.plus/img/animes/hanyou-no-yashahime-sengoku-otogizoushi/",
      "secao": "dublados,legendados,lancamentos",
      "pagina": 19,
      "total_episodios": 24,
      "link_video": "https://animefire.plus/video/hanyou-no-yashahime-sengoku-otogizoushi-dublado"
    },
    {
      "id": 1375,
      "nome": "Happy Sugar Life",
      "link": "https://animefire.plus/animes/happy-sugar-life-todos-os-episodios",
      "texto_original": "Happy Sugar Life",
      "rating": 7.04,
      "classificacao_etaria": "A16",
      "imagem_original": "https://animefire.plus/img/animes/happy-sugar-life.webp",
      "imagem_pasta": "https://animefire.plus/img/animes/happy-sugar-life/",
      "secao": "legendados",
      "pagina": 142,
      "total_episodios": 12,
      "link_video": "https://animefire.plus/video/happy-sugar-life"
    },
    {
      "id": 1378,
      "nome": "Harukanaru Toki No Naka De: Hachiyou Shou",
      "link": "https://animefire.plus/animes/harukanaru-toki-no-naka-de-hachiyou-shou-todos-os-episodios",
      "texto_original": "Harukanaru Toki No Naka De: Hachiyou Shou",
      "rating": 7.12,
      "classificacao_etaria": "A14",
      "imagem_original": "https://animefire.plus/img/animes/harukanaru-toki-no-naka-de-hachiyou-shou.webp",
      "imagem_pasta": "https://animefire.plus/img/animes/harukanaru-toki-no-naka-de-hachiyou-shou/",
      "secao": "legendados",
      "pagina": 100,
      "total_episodios": 26,
      "link_video": "https://animefire.plus/video/harukanaru-toki-no-naka-de-hachiyou-shou"
    },
    {
      "id": 1382,
      "nome": "Hataraki Man",
      "link": "https://animefire.plus/animes/hataraki-man-todos-os-episodios",
      "texto_original": "Hataraki Man",
      "rating": 7.08,
      "classificacao_etaria": "A14",
      "imagem_original": "https://animefire.plus/img/animes/hataraki-man.webp",
      "imagem_pasta": "https://animefire.plus/img/animes/hataraki-man/",
      "secao": "legendados",
      "pagina": 137,
      "total_episodios": 11,
      "link_video": "https://animefire.plus/video/hataraki-man"
    },
    {
      "id": 1383,
      "nome": "Hataraku Maou-sama!",
      "link": "https://animefire.plus/animes/hataraku-maou-sama-todos-os-episodios",
      "texto_original": "Hataraku Maou-sama!",
      "rating": 7.9,
      "classificacao_etaria": "A14",
      "imagem_original": "https://animefire.plus/img/animes/hataraku-maou-sama.webp",
      "imagem_pasta": "https://animefire.plus/img/animes/hataraku-maou-sama/",
      "secao": "legendados",
      "pagina": 90,
      "total_episodios": 0,
      "link_video": "https://animefire.plus/video/hataraku-maou-sama"
    },
    {
      "id": 1386,
      "nome": "Hataraku Saibou",
      "link": "https://animefire.plus/animes/hataraku-saibou-todos-os-episodios",
      "texto_original": "Hataraku Saibou",
      "rating": 7.81,
      "classificacao_etaria": "A14",
      "imagem_original": "https://animefire.plus/img/animes/hataraku-saibou.webp",
      "imagem_pasta": "https://animefire.plus/img/animes/hataraku-saibou/",
      "secao": "legendados",
      "pagina": 147,
      "total_episodios": 13,
      "link_video": "https://animefire.plus/video/hataraku-saibou"
    },
    {
      "id": 1387,
      "nome": "Hataraku Saibou (TV)",
      "link": "https://animefire.plus/animes/hataraku-saibou-tv-todos-os-episodios",
      "texto_original": "Hataraku Saibou (TV)",
      "rating": 7.75,
      "classificacao_etaria": "A14",
      "imagem_original": "https://animefire.plus/img/animes/hataraku-saibou-tv.webp",
      "imagem_pasta": "https://animefire.plus/img/animes/hataraku-saibou-tv/",
      "secao": "legendados",
      "pagina": 85,
      "total_episodios": 12,
      "link_video": "https://animefire.plus/video/hataraku-saibou-tv"
    },
    {
      "id": 1388,
      "nome": "Hataraku Saibou Black (TV)",
      "link": "https://animefire.plus/animes/hataraku-saibou-black-tv-todos-os-episodios",
      "texto_original": "Hataraku Saibou Black (TV)",
      "rating": 7.52,
      "classificacao_etaria": "A14",
      "imagem_original": "https://animefire.plus/img/animes/hataraku-saibou-black-tv.webp",
      "imagem_pasta": "https://animefire.plus/img/animes/hataraku-saibou-black-tv/",
      "secao": "legendados",
      "pagina": 50,
      "total_episodios": 13,
      "link_video": "https://animefire.plus/video/hataraku-saibou-black-tv"
    }
  ],
  "pagination": {
    "current_page": 28,
    "per_page": 20,
    "total_items": 1905,
    "total_pages": 96,
    "has_next": true,
    "has_prev": true
  }
}
