{
  "message": "Animes com rating entre 7 e 8",
  "rating_range": {
    "min": 7,
    "max": 8
  },
  "data": [
    {
      "id": 3429,
      "nome": "Shin Tennis no Ouji-sama (Dublado)",
      "link": "https://animefire.plus/animes/shin-tennis-no-ouji-sama-dublado-todos-os-episodios",
      "texto_original": "Shin Tennis no Ouji-sama (Dublado)",
      "rating": 7.55,
      "classificacao_etaria": "A14",
      "imagem_original": "https://animefire.plus/img/animes/shin-tennis-no-ouji-sama.webp",
      "imagem_pasta": "https://animefire.plus/img/animes/shin-tennis-no-ouji-sama/",
      "secao": "dublados,legendados",
      "pagina": 15,
      "total_episodios": 13,
      "link_video": "https://animefire.plus/video/shin-tennis-no-ouji-sama-dublado"
    },
    {
      "id": 3430,
      "nome": "Shin Tennis no Ouji-sama OVA vs. Genius 10",
      "link": "https://animefire.plus/animes/shin-tennis-no-ouji-sama-ova-vs-genius-10-todos-os-episodios",
      "texto_original": "Shin Tennis no Ouji-sama OVA vs. Genius 10",
      "rating": 7.63,
      "classificacao_etaria": "A14",
      "imagem_original": "https://animefire.plus/img/animes/shin-tennis-no-ouji-sama-ova-vs-genius-10.webp",
      "imagem_pasta": "https://animefire.plus/img/animes/shin-tennis-no-ouji-sama-ova-vs-genius-10/",
      "secao": "legendados",
      "pagina": 55,
      "total_episodios": 10,
      "link_video": "https://animefire.plus/video/shin-tennis-no-ouji-sama-ova-vs-genius-10"
    },
    {
      "id": 3431,
      "nome": "Shin Tennis no Ouji-sama Specials",
      "link": "https://animefire.plus/animes/shin-tennis-no-ouji-sama-specials-todos-os-episodios",
      "texto_original": "Shin Tennis no Ouji-sama Specials",
      "rating": 7.52,
      "classificacao_etaria": "A14",
      "imagem_original": "https://animefire.plus/img/animes/shin-tennis-no-ouji-sama-specials.webp",
      "imagem_pasta": "https://animefire.plus/img/animes/shin-tennis-no-ouji-sama-specials/",
      "secao": "legendados",
      "pagina": 55,
      "total_episodios": 7,
      "link_video": "https://animefire.plus/video/shin-tennis-no-ouji-sama-specials"
    },
    {
      "id": 3432,
      "nome": "Shin Tennis no Ouji-sama: Hyoutei vs. Rikkai - Game of Future (Dublado)",
      "link": "https://animefire.plus/animes/shin-tennis-no-ouji-sama-hyoutei-vs-rikkai---game-of-future-dublado-todos-os-episodios",
      "texto_original": "Shin Tennis no Ouji-sama: Hyoutei vs. Rikkai - Game of Future (Dublado)",
      "rating": 7.11,
      "classificacao_etaria": "A14",
      "imagem_original": "https://animefire.plus/img/animes/shin-tennis-no-ouji-sama-hyoutei-vs-rikkai---game-of-future.webp",
      "imagem_pasta": "https://animefire.plus/img/animes/shin-tennis-no-ouji-sama-hyoutei-vs-rikkai---game-of-future/",
      "secao": "dublados",
      "pagina": 16,
      "total_episodios": 2,
      "link_video": "https://animefire.plus/video/shin-tennis-no-ouji-sama-hyoutei-vs-rikkai---game-of-future-dublado"
    },
    {
      "id": 3436,
      "nome": "Shinchou Yuusha: Kono Yuusha ga Ore Tueee Kuse ni Shinchou Sugiru",
      "link": "https://animefire.plus/animes/shinchou-yuusha-kono-yuusha-ga-ore-tueee-kuse-ni-shinchou-sugiru-todos-os-episodios",
      "texto_original": "Shinchou Yuusha: Kono Yuusha ga Ore Tueee Kuse ni Shinchou Sugiru",
      "rating": 7.55,
      "classificacao_etaria": "A16",
      "imagem_original": "https://animefire.plus/img/animes/shinchou-yuusha-kono-yuusha-ga-ore-tueee-kuse-ni-shinchou-sugiru.webp",
      "imagem_pasta": "https://animefire.plus/img/animes/shinchou-yuusha-kono-yuusha-ga-ore-tueee-kuse-ni-shinchou-sugiru/",
      "secao": "legendados",
      "pagina": 111,
      "total_episodios": 12,
      "link_video": "https://animefire.plus/video/shinchou-yuusha-kono-yuusha-ga-ore-tueee-kuse-ni-shinchou-sugiru"
    },
    {
      "id": 3437,
      "nome": "Shine Post",
      "link": "https://animefire.plus/animes/shine-post-todos-os-episodios",
      "texto_original": "Shine Post",
      "rating": 7.49,
      "classificacao_etaria": "A14",
      "imagem_original": "https://animefire.plus/img/animes/shine-post.webp",
      "imagem_pasta": "https://animefire.plus/img/animes/shine-post/",
      "secao": "legendados",
      "pagina": 30,
      "total_episodios": 12,
      "link_video": "https://animefire.plus/video/shine-post"
    },
    {
      "id": 3438,
      "nome": "Shingeki no Bahamut: Genesis",
      "link": "https://animefire.plus/animes/shingeki-no-bahamut-genesis-todos-os-episodios",
      "texto_original": "Shingeki no Bahamut: Genesis",
      "rating": 7.74,
      "classificacao_etaria": "A16",
      "imagem_original": "https://animefire.plus/img/animes/shingeki-no-bahamut-genesis.webp",
      "imagem_pasta": "https://animefire.plus/img/animes/shingeki-no-bahamut-genesis/",
      "secao": "legendados",
      "pagina": 135,
      "total_episodios": 0,
      "link_video": "https://animefire.plus/video/shingeki-no-bahamut-genesis"
    },
    {
      "id": 3439,
      "nome": "Shingeki no Bahamut: Virgin Soul",
      "link": "https://animefire.plus/animes/shingeki-no-bahamut-virgin-soul-todos-os-episodios",
      "texto_original": "Shingeki no Bahamut: Virgin Soul",
      "rating": 7.53,
      "classificacao_etaria": "A16",
      "imagem_original": "https://animefire.plus/img/animes/shingeki-no-bahamut-virgin-soul.webp",
      "imagem_pasta": "https://animefire.plus/img/animes/shingeki-no-bahamut-virgin-soul/",
      "secao": "legendados",
      "pagina": 148,
      "total_episodios": 24,
      "link_video": "https://animefire.plus/video/shingeki-no-bahamut-virgin-soul"
    },
    {
      "id": 3441,
      "nome": "Shingeki no Kyojin OVA (Dublado)",
      "link": "https://animefire.plus/animes/shingeki-no-kyojin-ova-dublado-todos-os-episodios",
      "texto_original": "Shingeki no Kyojin OVA (Dublado)",
      "rating": 7.86,
      "classificacao_etaria": "A16",
      "imagem_original": "https://animefire.plus/img/animes/shingeki-no-kyojin-ova.webp",
      "imagem_pasta": "https://animefire.plus/img/animes/shingeki-no-kyojin-ova/",
      "secao": "dublados,legendados",
      "pagina": 11,
      "total_episodios": 3,
      "link_video": "https://animefire.plus/video/shingeki-no-kyojin-ova-dublado"
    },
    {
      "id": 3446,
      "nome": "Shingeki no Kyojin: Lost Girls (Dublado)",
      "link": "https://animefire.plus/animes/shingeki-no-kyojin-lost-girls-dublado-todos-os-episodios",
      "texto_original": "Shingeki no Kyojin: Lost Girls (Dublado)",
      "rating": 7.8,
      "classificacao_etaria": "A16",
      "imagem_original": "https://animefire.plus/img/animes/shingeki-no-kyojin-lost-girls.webp",
      "imagem_pasta": "https://animefire.plus/img/animes/shingeki-no-kyojin-lost-girls/",
      "secao": "dublados,legendados",
      "pagina": 10,
      "total_episodios": 3,
      "link_video": "https://animefire.plus/video/shingeki-no-kyojin-lost-girls-dublado"
    },
    {
      "id": 3451,
      "nome": "Shingeki! Kyojin Chuugakkou",
      "link": "https://animefire.plus/animes/shingeki-kyojin-chuugakkou-todos-os-episodios",
      "texto_original": "Shingeki! Kyojin Chuugakkou",
      "rating": 7.07,
      "classificacao_etaria": "A14",
      "imagem_original": "https://animefire.plus/img/animes/shingeki-kyojin-chuugakkou.webp",
      "imagem_pasta": "https://animefire.plus/img/animes/shingeki-kyojin-chuugakkou/",
      "secao": "legendados",
      "pagina": 99,
      "total_episodios": 12,
      "link_video": "https://animefire.plus/video/shingeki-kyojin-chuugakkou"
    },
    {
      "id": 3453,
      "nome": "Shinigami Bocchan to Kuro Maid (Dublado)",
      "link": "https://animefire.plus/animes/shinigami-bocchan-to-kuro-maid-dublado-todos-os-episodios",
      "texto_original": "Shinigami Bocchan to Kuro Maid (Dublado)",
      "rating": 7.59,
      "classificacao_etaria": "A14",
      "imagem_original": "https://animefire.plus/img/animes/shinigami-bocchan-to-kuro-maid.webp",
      "imagem_pasta": "https://animefire.plus/img/animes/shinigami-bocchan-to-kuro-maid/",
      "secao": "dublados,legendados",
      "pagina": 12,
      "total_episodios": 12,
      "link_video": "https://animefire.plus/video/shinigami-bocchan-to-kuro-maid-dublado"
    },
    {
      "id": 3454,
      "nome": "Shinigami Bocchan to Kuro Maid 2nd Season (Dublado)",
      "link": "https://animefire.plus/animes/shinigami-bocchan-to-kuro-maid-2nd-season-dublado-todos-os-episodios",
      "texto_original": "Shinigami Bocchan to Kuro Maid 2nd Season (Dublado)",
      "rating": 7.62,
      "classificacao_etaria": "A14",
      "imagem_original": "https://animefire.plus/img/animes/shinigami-bocchan-to-kuro-maid-2nd-season.webp",
      "imagem_pasta": "https://animefire.plus/img/animes/shinigami-bocchan-to-kuro-maid-2nd-season/",
      "secao": "dublados,legendados",
      "pagina": 4,
      "total_episodios": 12,
      "link_video": "https://animefire.plus/video/shinigami-bocchan-to-kuro-maid-2nd-season-dublado"
    },
    {
      "id": 3461,
      "nome": "Shinkon Gattai Godannar!! 2nd Season",
      "link": "https://animefire.plus/animes/shinkon-gattai-godannar-2nd-season-todos-os-episodios",
      "texto_original": "Shinkon Gattai Godannar!! 2nd Season",
      "rating": 7,
      "classificacao_etaria": "A14",
      "imagem_original": "https://animefire.plus/img/animes/shinkon-gattai-godannar-2nd-season.webp",
      "imagem_pasta": "https://animefire.plus/img/animes/shinkon-gattai-godannar-2nd-season/",
      "secao": "legendados",
      "pagina": 69,
      "total_episodios": 13,
      "link_video": "https://animefire.plus/video/shinkon-gattai-godannar-2nd-season"
    },
    {
      "id": 3463,
      "nome": "Shinkyoku Soukai Polyphonica Crimson S",
      "link": "https://animefire.plus/animes/shinkyoku-soukai-polyphonica-crimson-s-todos-os-episodios",
      "texto_original": "Shinkyoku Soukai Polyphonica Crimson S",
      "rating": 7.25,
      "classificacao_etaria": "A14",
      "imagem_original": "https://animefire.plus/img/animes/shinkyoku-soukai-polyphonica-crimson-s.webp",
      "imagem_pasta": "https://animefire.plus/img/animes/shinkyoku-soukai-polyphonica-crimson-s/",
      "secao": "legendados",
      "pagina": 137,
      "total_episodios": 0,
      "link_video": "https://animefire.plus/video/shinkyoku-soukai-polyphonica-crimson-s"
    },
    {
      "id": 3464,
      "nome": "Shinmai Maou No Testament",
      "link": "https://animefire.plus/animes/shinmai-maou-no-testament-todos-os-episodios",
      "texto_original": "Shinmai Maou No Testament",
      "rating": 7,
      "classificacao_etaria": "A18",
      "imagem_original": "https://animefire.plus/img/animes/shinmai-maou-no-testament.webp",
      "imagem_pasta": "https://animefire.plus/img/animes/shinmai-maou-no-testament/",
      "secao": "legendados",
      "pagina": 97,
      "total_episodios": 4,
      "link_video": "https://animefire.plus/video/shinmai-maou-no-testament"
    },
    {
      "id": 3465,
      "nome": "Shinmai Maou no Testament Burst",
      "link": "https://animefire.plus/animes/shinmai-maou-no-testament-burst-todos-os-episodios",
      "texto_original": "Shinmai Maou no Testament Burst",
      "rating": 7.07,
      "classificacao_etaria": "A18",
      "imagem_original": "https://animefire.plus/img/animes/shinmai-maou-no-testament-burst.webp",
      "imagem_pasta": "https://animefire.plus/img/animes/shinmai-maou-no-testament-burst/",
      "secao": "legendados",
      "pagina": 94,
      "total_episodios": 0,
      "link_video": "https://animefire.plus/video/shinmai-maou-no-testament-burst"
    },
    {
      "id": 3466,
      "nome": "Shinmai Maou no Testament Departures",
      "link": "https://animefire.plus/animes/shinmai-maou-no-testament-departures-todos-os-episodios",
      "texto_original": "Shinmai Maou no Testament Departures",
      "rating": 7.01,
      "classificacao_etaria": "A18",
      "imagem_original": "https://animefire.plus/img/animes/shinmai-maou-no-testament-departures.webp",
      "imagem_pasta": "https://animefire.plus/img/animes/shinmai-maou-no-testament-departures/",
      "secao": "legendados",
      "pagina": 59,
      "total_episodios": 0,
      "link_video": "https://animefire.plus/video/shinmai-maou-no-testament-departures"
    },
    {
      "id": 3467,
      "nome": "Shinmai Ossan Boukensha, Saikyou Party ni Shinu hodo Kitaerarete Muteki ni Naru.",
      "link": "https://animefire.plus/animes/shinmai-ossan-boukensha-saikyou-party-ni-shinu-hodo-kitaerarete-muteki-ni-naru-todos-os-episodios",
      "texto_original": "Shinmai Ossan Boukensha, Saikyou Party ni Shinu hodo Kitaerarete Muteki ni Naru.",
      "rating": 7.37,
      "classificacao_etaria": "A14",
      "imagem_original": "https://animefire.plus/img/animes/shinmai-ossan-boukensha-saikyou-party-ni-shinu-hodo-kitaerarete-muteki-ni-naru.webp",
      "imagem_pasta": "https://animefire.plus/img/animes/shinmai-ossan-boukensha-saikyou-party-ni-shinu-hodo-kitaerarete-muteki-ni-naru/",
      "secao": "legendados",
      "pagina": 12,
      "total_episodios": 12,
      "link_video": "https://animefire.plus/video/shinmai-ossan-boukensha-saikyou-party-ni-shinu-hodo-kitaerarete-muteki-ni-naru"
    },
    {
      "id": 3470,
      "nome": "Shinrei Tantei Yakumo",
      "link": "https://animefire.plus/animes/shinrei-tantei-yakumo-todos-os-episodios",
      "texto_original": "Shinrei Tantei Yakumo",
      "rating": 7.41,
      "classificacao_etaria": "A14",
      "imagem_original": "https://animefire.plus/img/animes/shinrei-tantei-yakumo.webp",
      "imagem_pasta": "https://animefire.plus/img/animes/shinrei-tantei-yakumo/",
      "secao": "legendados",
      "pagina": 129,
      "total_episodios": 13,
      "link_video": "https://animefire.plus/video/shinrei-tantei-yakumo"
    }
  ],
  "pagination": {
    "current_page": 74,
    "per_page": 20,
    "total_items": 1905,
    "total_pages": 96,
    "has_next": true,
    "has_prev": true
  }
}
