{
  "message": "Animes com rating entre 7 e 8",
  "rating_range": {
    "min": 7,
    "max": 8
  },
  "data": [
    {
      "id": 3254,
      "nome": "Sansha Sanyou",
      "link": "https://animefire.plus/animes/sansha-sanyou-todos-os-episodios",
      "texto_original": "Sansha Sanyou",
      "rating": 7.16,
      "classificacao_etaria": "A14",
      "imagem_original": "https://animefire.plus/img/animes/sansha-sanyou.webp",
      "imagem_pasta": "https://animefire.plus/img/animes/sansha-sanyou/",
      "secao": "legendados",
      "pagina": 169,
      "total_episodios": 2,
      "link_video": "https://animefire.plus/video/sansha-sanyou"
    },
    {
      "id": 3255,
      "nome": "Sanzoku no Musume Ronja",
      "link": "https://animefire.plus/animes/sanzoku-no-musume-ronja-todos-os-episodios",
      "texto_original": "Sanzoku no Musume Ronja",
      "rating": 7.18,
      "classificacao_etaria": "A10",
      "imagem_original": "https://animefire.plus/img/animes/sanzoku-no-musume-ronja.webp",
      "imagem_pasta": "https://animefire.plus/img/animes/sanzoku-no-musume-ronja/",
      "secao": "legendados",
      "pagina": 75,
      "total_episodios": 25,
      "link_video": "https://animefire.plus/video/sanzoku-no-musume-ronja"
    },
    {
      "id": 3256,
      "nome": "Saraiya Goyou",
      "link": "https://animefire.plus/animes/saraiya-goyou-todos-os-episodios",
      "texto_original": "Saraiya Goyou",
      "rating": 7.86,
      "classificacao_etaria": "A14",
      "imagem_original": "https://animefire.plus/img/animes/saraiya-goyou.webp",
      "imagem_pasta": "https://animefire.plus/img/animes/saraiya-goyou/",
      "secao": "legendados",
      "pagina": 179,
      "total_episodios": 12,
      "link_video": "https://animefire.plus/video/saraiya-goyou"
    },
    {
      "id": 3257,
      "nome": "Sarazanmai",
      "link": "https://animefire.plus/animes/sarazanmai-todos-os-episodios",
      "texto_original": "Sarazanmai",
      "rating": 7.54,
      "classificacao_etaria": "A14",
      "imagem_original": "https://animefire.plus/img/animes/sarazanmai.webp",
      "imagem_pasta": "https://animefire.plus/img/animes/sarazanmai/",
      "secao": "legendados",
      "pagina": 157,
      "total_episodios": 5,
      "link_video": "https://animefire.plus/video/sarazanmai"
    },
    {
      "id": 3260,
      "nome": "Sasaki to Miyano: Koi ni Kizuku Mae no Chotto Shita Hanashi.",
      "link": "https://animefire.plus/animes/sasaki-to-miyano-koi-ni-kizuku-mae-no-chotto-shita-hanashi-todos-os-episodios",
      "texto_original": "Sasaki to Miyano: Koi ni Kizuku Mae no Chotto Shita Hanashi.",
      "rating": 7.63,
      "classificacao_etaria": "A14",
      "imagem_original": "https://animefire.plus/img/animes/sasaki-to-miyano-koi-ni-kizuku-mae-no-chotto-shita-hanashi.webp",
      "imagem_pasta": "https://animefire.plus/img/animes/sasaki-to-miyano-koi-ni-kizuku-mae-no-chotto-shita-hanashi/",
      "secao": "legendados",
      "pagina": 32,
      "total_episodios": 1,
      "link_video": "https://animefire.plus/video/sasaki-to-miyano-koi-ni-kizuku-mae-no-chotto-shita-hanashi"
    },
    {
      "id": 3262,
      "nome": "Sasameki Koto",
      "link": "https://animefire.plus/animes/sasameki-koto-todos-os-episodios",
      "texto_original": "Sasameki Koto",
      "rating": 7.15,
      "classificacao_etaria": "A14",
      "imagem_original": "https://animefire.plus/img/animes/sasameki-koto.webp",
      "imagem_pasta": "https://animefire.plus/img/animes/sasameki-koto/",
      "secao": "legendados",
      "pagina": 113,
      "total_episodios": 12,
      "link_video": "https://animefire.plus/video/sasameki-koto"
    },
    {
      "id": 3267,
      "nome": "Satsuriku no Tenshi ONA",
      "link": "https://animefire.plus/animes/satsuriku-no-tenshi-ona-todos-os-episodios",
      "texto_original": "Satsuriku no Tenshi ONA",
      "rating": 7.22,
      "classificacao_etaria": null,
      "imagem_original": "https://animefire.plus/img/animes/satsuriku-no-tenshi-ona.webp",
      "imagem_pasta": "https://animefire.plus/img/animes/satsuriku-no-tenshi-ona/",
      "secao": "legendados",
      "pagina": 174,
      "total_episodios": 4,
      "link_video": "https://animefire.plus/video/satsuriku-no-tenshi-ona"
    },
    {
      "id": 3269,
      "nome": "Sayonara Zetsubou Sensei",
      "link": "https://animefire.plus/animes/sayonara-zetsubou-sensei-todos-os-episodios",
      "texto_original": "Sayonara Zetsubou Sensei",
      "rating": 7.92,
      "classificacao_etaria": "A16",
      "imagem_original": "https://animefire.plus/img/animes/sayonara-zetsubou-sensei.webp",
      "imagem_pasta": "https://animefire.plus/img/animes/sayonara-zetsubou-sensei/",
      "secao": "legendados",
      "pagina": 60,
      "total_episodios": 12,
      "link_video": "https://animefire.plus/video/sayonara-zetsubou-sensei"
    },
    {
      "id": 3270,
      "nome": "Sayonara Zetsubou Sensei Special",
      "link": "https://animefire.plus/animes/sayonara-zetsubou-sensei-special-todos-os-episodios",
      "texto_original": "Sayonara Zetsubou Sensei Special",
      "rating": 7.53,
      "classificacao_etaria": "A16",
      "imagem_original": "https://animefire.plus/img/animes/sayonara-zetsubou-sensei-special.webp",
      "imagem_pasta": "https://animefire.plus/img/animes/sayonara-zetsubou-sensei-special/",
      "secao": "legendados",
      "pagina": 85,
      "total_episodios": 1,
      "link_video": "https://animefire.plus/video/sayonara-zetsubou-sensei-special"
    },
    {
      "id": 3275,
      "nome": "School Rumble",
      "link": "https://animefire.plus/animes/school-rumble-todos-os-episodios",
      "texto_original": "School Rumble",
      "rating": 8,
      "classificacao_etaria": "A14",
      "imagem_original": "https://animefire.plus/img/animes/school-rumble.webp",
      "imagem_pasta": "https://animefire.plus/img/animes/school-rumble/",
      "secao": "legendados",
      "pagina": 127,
      "total_episodios": 26,
      "link_video": "https://animefire.plus/video/school-rumble"
    },
    {
      "id": 3277,
      "nome": "School Rumble San Gakki",
      "link": "https://animefire.plus/animes/school-rumble-san-gakki-todos-os-episodios",
      "texto_original": "School Rumble San Gakki",
      "rating": 7.33,
      "classificacao_etaria": "A14",
      "imagem_original": "https://animefire.plus/img/animes/school-rumble-san-gakki.webp",
      "imagem_pasta": "https://animefire.plus/img/animes/school-rumble-san-gakki/",
      "secao": "legendados",
      "pagina": 74,
      "total_episodios": 2,
      "link_video": "https://animefire.plus/video/school-rumble-san-gakki"
    },
    {
      "id": 3280,
      "nome": "Scrapped Princess",
      "link": "https://animefire.plus/animes/scrapped-princess-todos-os-episodios",
      "texto_original": "Scrapped Princess",
      "rating": 7.46,
      "classificacao_etaria": "A14",
      "imagem_original": "https://animefire.plus/img/animes/scrapped-princess.webp",
      "imagem_pasta": "https://animefire.plus/img/animes/scrapped-princess/",
      "secao": "legendados",
      "pagina": 125,
      "total_episodios": 24,
      "link_video": "https://animefire.plus/video/scrapped-princess"
    },
    {
      "id": 3284,
      "nome": "Seija Musou: Salaryman, Isekai de Ikinokoru Tame ni Ayumu Mic",
      "link": "https://animefire.plus/animes/seija-musou-salaryman-isekai-de-ikinokoru-tame-ni-ayumu-michi-todos-os-episodios",
      "texto_original": "Seija Musou: Salaryman, Isekai de Ikinokoru Tame ni Ayumu Mic",
      "rating": 7.11,
      "classificacao_etaria": "A14",
      "imagem_original": "https://animefire.plus/img/animes/seija-musou-salaryman-isekai-de-ikinokoru-tame-ni-ayumu-michi.jpg",
      "imagem_pasta": "https://animefire.plus/img/animes/seija-musou-salaryman-isekai-de-ikinokoru-tame-ni-ayumu-michi/",
      "secao": "legendados",
      "pagina": 22,
      "total_episodios": 12,
      "link_video": "https://animefire.plus/video/seija-musou-salaryman-isekai-de-ikinokoru-tame-ni-ayumu-michi"
    },
    {
      "id": 3285,
      "nome": "Seija Musou: Salaryman, Isekai de Ikinokoru Tame ni Ayumu Michi",
      "link": "https://animefire.plus/animes/the-great-cleric-todos-os-episodios",
      "texto_original": "Seija Musou: Salaryman, Isekai de Ikinokoru Tame ni Ayumu Michi",
      "rating": 7.11,
      "classificacao_etaria": "A14",
      "imagem_original": "https://animefire.plus/img/animes/the-great-cleric.webp",
      "imagem_pasta": "https://animefire.plus/img/animes/the-great-cleric/",
      "secao": "legendados,lancamentos",
      "pagina": 21,
      "total_episodios": 0,
      "link_video": "https://animefire.plus/video/the-great-cleric"
    },
    {
      "id": 3286,
      "nome": "Seijo no Maryoku wa Bannou Desu (Dublado)",
      "link": "https://animefire.plus/animes/seijo-no-maryoku-wa-bannou-desu-dublado-todos-os-episodios",
      "texto_original": "Seijo no Maryoku wa Bannou Desu (Dublado)",
      "rating": 7.31,
      "classificacao_etaria": "A14",
      "imagem_original": "https://animefire.plus/img/animes/seijo-no-maryoku-wa-bannou-desu.webp",
      "imagem_pasta": "https://animefire.plus/img/animes/seijo-no-maryoku-wa-bannou-desu/",
      "secao": "dublados,legendados",
      "pagina": 14,
      "total_episodios": 12,
      "link_video": "https://animefire.plus/video/seijo-no-maryoku-wa-bannou-desu-dublado"
    },
    {
      "id": 3287,
      "nome": "Seijo no Maryoku wa Bannou desu Season 2",
      "link": "https://animefire.plus/animes/seijo-no-maryoku-wa-bannou-desu-season-2-todos-os-episodios",
      "texto_original": "Seijo no Maryoku wa Bannou desu Season 2",
      "rating": 7.44,
      "classificacao_etaria": "A14",
      "imagem_original": "https://animefire.plus/img/animes/seijo-no-maryoku-wa-bannou-desu-season-2.webp",
      "imagem_pasta": "https://animefire.plus/img/animes/seijo-no-maryoku-wa-bannou-desu-season-2/",
      "secao": "legendados",
      "pagina": 19,
      "total_episodios": 12,
      "link_video": "https://animefire.plus/video/seijo-no-maryoku-wa-bannou-desu-season-2"
    },
    {
      "id": 3288,
      "nome": "Seikai no Senki",
      "link": "https://animefire.plus/animes/seikai-no-senki-todos-os-episodios",
      "texto_original": "Seikai no Senki",
      "rating": 7.73,
      "classificacao_etaria": "A14",
      "imagem_original": "https://animefire.plus/img/animes/seikai-no-senki.webp",
      "imagem_pasta": "https://animefire.plus/img/animes/seikai-no-senki/",
      "secao": "legendados",
      "pagina": 54,
      "total_episodios": 13,
      "link_video": "https://animefire.plus/video/seikai-no-senki"
    },
    {
      "id": 3289,
      "nome": "Seikai no Senki II",
      "link": "https://animefire.plus/animes/seikai-no-senki-ii-todos-os-episodios",
      "texto_original": "Seikai no Senki II",
      "rating": 7.85,
      "classificacao_etaria": "A14",
      "imagem_original": "https://animefire.plus/img/animes/seikai-no-senki-ii.webp",
      "imagem_pasta": "https://animefire.plus/img/animes/seikai-no-senki-ii/",
      "secao": "legendados",
      "pagina": 54,
      "total_episodios": 10,
      "link_video": "https://animefire.plus/video/seikai-no-senki-ii"
    },
    {
      "id": 3290,
      "nome": "Seikai no Senki III",
      "link": "https://animefire.plus/animes/seikai-no-senki-iii-todos-os-episodios",
      "texto_original": "Seikai no Senki III",
      "rating": 7.71,
      "classificacao_etaria": "A14",
      "imagem_original": "https://animefire.plus/img/animes/seikai-no-senki-iii.webp",
      "imagem_pasta": "https://animefire.plus/img/animes/seikai-no-senki-iii/",
      "secao": "legendados",
      "pagina": 54,
      "total_episodios": 1,
      "link_video": "https://animefire.plus/video/seikai-no-senki-iii"
    },
    {
      "id": 3295,
      "nome": "Seiken Tsukai No World Break",
      "link": "https://animefire.plus/animes/seiken-tsukai-no-world-break-todos-os-episodios",
      "texto_original": "Seiken Tsukai No World Break",
      "rating": 7.11,
      "classificacao_etaria": "A16",
      "imagem_original": "https://animefire.plus/img/animes/seiken-tsukai-no-world-break.webp",
      "imagem_pasta": "https://animefire.plus/img/animes/seiken-tsukai-no-world-break/",
      "secao": "legendados",
      "pagina": 101,
      "total_episodios": 12,
      "link_video": "https://animefire.plus/video/seiken-tsukai-no-world-break"
    }
  ],
  "pagination": {
    "current_page": 70,
    "per_page": 20,
    "total_items": 1905,
    "total_pages": 96,
    "has_next": true,
    "has_prev": true
  }
}
