{
  "message": "Animes com rating entre 7 e 8",
  "rating_range": {
    "min": 7,
    "max": 8
  },
  "data": [
    {
      "id": 2550,
      "nome": "Mobile Suit Gundam Thunderbolt 2nd Season",
      "link": "https://animefire.plus/animes/mobile-suit-gundam-thunderbolt-2nd-season-todos-os-episodios",
      "texto_original": "Mobile Suit Gundam Thunderbolt 2nd Season",
      "rating": 7.28,
      "classificacao_etaria": "A16",
      "imagem_original": "https://animefire.plus/img/animes/mobile-suit-gundam-thunderbolt-2nd-season.webp",
      "imagem_pasta": "https://animefire.plus/img/animes/mobile-suit-gundam-thunderbolt-2nd-season/",
      "secao": "legendados",
      "pagina": 55,
      "total_episodios": 4,
      "link_video": "https://animefire.plus/video/mobile-suit-gundam-thunderbolt-2nd-season"
    },
    {
      "id": 2551,
      "nome": "Mobile Suit Gundam Unicorn RE:0096",
      "link": "https://animefire.plus/animes/mobile-suit-gundam-unicorn-re-0096-todos-os-episodios",
      "texto_original": "Mobile Suit Gundam Unicorn RE:0096",
      "rating": 7.59,
      "classificacao_etaria": "A14",
      "imagem_original": "https://animefire.plus/img/animes/mobile-suit-gundam-unicorn-re-0096.webp",
      "imagem_pasta": "https://animefire.plus/img/animes/mobile-suit-gundam-unicorn-re-0096/",
      "secao": "legendados",
      "pagina": 170,
      "total_episodios": 2,
      "link_video": "https://animefire.plus/video/mobile-suit-gundam-unicorn-re-0096"
    },
    {
      "id": 2552,
      "nome": "Mobile Suit Gundam Wing (Dublado)",
      "link": "https://animefire.plus/animes/mobile-suit-gundam-wing-dublado-todos-os-episodios",
      "texto_original": "Mobile Suit Gundam Wing (Dublado)",
      "rating": 7.81,
      "classificacao_etaria": "A14",
      "imagem_original": "https://animefire.plus/img/animes/mobile-suit-gundam-wing.webp",
      "imagem_pasta": "https://animefire.plus/img/animes/mobile-suit-gundam-wing/",
      "secao": "dublados",
      "pagina": 27,
      "total_episodios": 12,
      "link_video": "https://animefire.plus/video/mobile-suit-gundam-wing-dublado"
    },
    {
      "id": 2558,
      "nome": "Mobile Suit Gundam: The Witch from Mercury",
      "link": "https://animefire.plus/animes/mobile-suit-gundam-the-witch-from-mercury-todos-os-episodios",
      "texto_original": "Mobile Suit Gundam: The Witch from Mercury",
      "rating": 7.85,
      "classificacao_etaria": "A16",
      "imagem_original": "https://animefire.plus/img/animes/mobile-suit-gundam-the-witch-from-mercury.webp",
      "imagem_pasta": "https://animefire.plus/img/animes/mobile-suit-gundam-the-witch-from-mercury/",
      "secao": "legendados",
      "pagina": 29,
      "total_episodios": 12,
      "link_video": "https://animefire.plus/video/mobile-suit-gundam-the-witch-from-mercury"
    },
    {
      "id": 2561,
      "nome": "Mobile Suit Zeta Gundam",
      "link": "https://animefire.plus/animes/mobile-suit-zeta-gundam-todos-os-episodios",
      "texto_original": "Mobile Suit Zeta Gundam",
      "rating": 7.93,
      "classificacao_etaria": "A14",
      "imagem_original": "https://animefire.plus/img/animes/mobile-suit-zeta-gundam.webp",
      "imagem_pasta": "https://animefire.plus/img/animes/mobile-suit-zeta-gundam/",
      "secao": "legendados",
      "pagina": 55,
      "total_episodios": 50,
      "link_video": "https://animefire.plus/video/mobile-suit-zeta-gundam"
    },
    {
      "id": 2563,
      "nome": "Mokke",
      "link": "https://animefire.plus/animes/mokke-todos-os-episodios",
      "texto_original": "Mokke",
      "rating": 7.13,
      "classificacao_etaria": "A10",
      "imagem_original": "https://animefire.plus/img/animes/mokke.webp",
      "imagem_pasta": "https://animefire.plus/img/animes/mokke/",
      "secao": "legendados",
      "pagina": 139,
      "total_episodios": 24,
      "link_video": "https://animefire.plus/video/mokke"
    },
    {
      "id": 2567,
      "nome": "Momokuri",
      "link": "https://animefire.plus/animes/momokuri-todos-os-episodios",
      "texto_original": "Momokuri",
      "rating": 7.2,
      "classificacao_etaria": "A14",
      "imagem_original": "https://animefire.plus/img/animes/momokuri.webp",
      "imagem_pasta": "https://animefire.plus/img/animes/momokuri/",
      "secao": "legendados",
      "pagina": 96,
      "total_episodios": 0,
      "link_video": "https://animefire.plus/video/momokuri"
    },
    {
      "id": 2570,
      "nome": "Mondaiji-tachi ga Isekai kara Kuru Sou Desu yo?",
      "link": "https://animefire.plus/animes/mondaiji-tachi-ga-isekai-kara-kuru-sou-desu-yo-todos-os-episodios",
      "texto_original": "Mondaiji-tachi ga Isekai kara Kuru Sou Desu yo?",
      "rating": 7.73,
      "classificacao_etaria": "A14",
      "imagem_original": "https://animefire.plus/img/animes/mondaiji-tachi-ga-isekai-kara-kuru-sou-desu-yo.webp",
      "imagem_pasta": "https://animefire.plus/img/animes/mondaiji-tachi-ga-isekai-kara-kuru-sou-desu-yo/",
      "secao": "legendados",
      "pagina": 126,
      "total_episodios": 1,
      "link_video": "https://animefire.plus/video/mondaiji-tachi-ga-isekai-kara-kuru-sou-desu-yo"
    },
    {
      "id": 2572,
      "nome": "Mono",
      "link": "https://animefire.plus/animes/mono-todos-os-episodios",
      "texto_original": "Mono",
      "rating": 7.74,
      "classificacao_etaria": "A14",
      "imagem_original": "https://animefire.plus/img/animes/mono.webp",
      "imagem_pasta": "https://animefire.plus/img/animes/mono/",
      "secao": "legendados",
      "pagina": 5,
      "total_episodios": 12,
      "link_video": "https://animefire.plus/video/mono"
    },
    {
      "id": 2573,
      "nome": "Monochrome Factor",
      "link": "https://animefire.plus/animes/monochrome-factor-todos-os-episodios",
      "texto_original": "Monochrome Factor",
      "rating": 7.07,
      "classificacao_etaria": "A14",
      "imagem_original": "https://animefire.plus/img/animes/monochrome-factor.webp",
      "imagem_pasta": "https://animefire.plus/img/animes/monochrome-factor/",
      "secao": "legendados",
      "pagina": 176,
      "total_episodios": 24,
      "link_video": "https://animefire.plus/video/monochrome-factor"
    },
    {
      "id": 2576,
      "nome": "Mononogatari",
      "link": "https://animefire.plus/animes/mononogatari-todos-os-episodios",
      "texto_original": "Mononogatari",
      "rating": 7.25,
      "classificacao_etaria": "A14",
      "imagem_original": "https://animefire.plus/img/animes/mononogatari.webp",
      "imagem_pasta": "https://animefire.plus/img/animes/mononogatari/",
      "secao": "legendados,lancamentos",
      "pagina": 25,
      "total_episodios": 24,
      "link_video": "https://animefire.plus/video/mononogatari"
    },
    {
      "id": 2577,
      "nome": "Mononogatari 2nd Season",
      "link": "https://animefire.plus/animes/mononogatari-2nd-season-todos-os-episodios",
      "texto_original": "Mononogatari 2nd Season",
      "rating": 7.33,
      "classificacao_etaria": "A14",
      "imagem_original": "https://animefire.plus/img/animes/mononogatari-2nd-season.jpg",
      "imagem_pasta": "https://animefire.plus/img/animes/mononogatari-2nd-season/",
      "secao": "legendados",
      "pagina": 22,
      "total_episodios": 12,
      "link_video": "https://animefire.plus/video/mononogatari-2nd-season"
    },
    {
      "id": 2582,
      "nome": "Monster Musume no Iru Nichijou",
      "link": "https://animefire.plus/animes/monster-musume-no-iru-nichijou-todos-os-episodios",
      "texto_original": "Monster Musume no Iru Nichijou",
      "rating": 7.25,
      "classificacao_etaria": "A18",
      "imagem_original": "https://animefire.plus/img/animes/monster-musume-no-iru-nichijou.webp",
      "imagem_pasta": "https://animefire.plus/img/animes/monster-musume-no-iru-nichijou/",
      "secao": "legendados",
      "pagina": 176,
      "total_episodios": 3,
      "link_video": "https://animefire.plus/video/monster-musume-no-iru-nichijou"
    },
    {
      "id": 2583,
      "nome": "Monster Musume no Iru Nichijou OVA",
      "link": "https://animefire.plus/animes/monster-musume-no-iru-nichijou-ova-todos-os-episodios",
      "texto_original": "Monster Musume no Iru Nichijou OVA",
      "rating": 7.26,
      "classificacao_etaria": "A18",
      "imagem_original": "https://animefire.plus/img/animes/monster-musume-no-iru-nichijou-ova.webp",
      "imagem_pasta": "https://animefire.plus/img/animes/monster-musume-no-iru-nichijou-ova/",
      "secao": "legendados",
      "pagina": 88,
      "total_episodios": 2,
      "link_video": "https://animefire.plus/video/monster-musume-no-iru-nichijou-ova"
    },
    {
      "id": 2588,
      "nome": "Monsters: Ippyaku Sanjou Hiryuu Jigoku (Dublado)",
      "link": "https://animefire.plus/animes/monsters-ippyaku-sanjou-hiryuu-jigoku-dublado-todos-os-episodios",
      "texto_original": "Monsters: Ippyaku Sanjou Hiryuu Jigoku (Dublado)",
      "rating": 7.7,
      "classificacao_etaria": "A14",
      "imagem_original": "https://animefire.plus/img/animes/monsters-ippyaku-sanjou-hiryuu-jigoku.webp",
      "imagem_pasta": "https://animefire.plus/img/animes/monsters-ippyaku-sanjou-hiryuu-jigoku/",
      "secao": "dublados,legendados",
      "pagina": 3,
      "total_episodios": 1,
      "link_video": "https://animefire.plus/video/monsters-ippyaku-sanjou-hiryuu-jigoku-dublado"
    },
    {
      "id": 2594,
      "nome": "Motto To LOVE-Ru",
      "link": "https://animefire.plus/animes/motto-to-love-ru-todos-os-episodios",
      "texto_original": "Motto To LOVE-Ru",
      "rating": 7.47,
      "classificacao_etaria": "A18",
      "imagem_original": "https://animefire.plus/img/animes/motto-to-love-ru.webp",
      "imagem_pasta": "https://animefire.plus/img/animes/motto-to-love-ru/",
      "secao": "legendados",
      "pagina": 163,
      "total_episodios": 2,
      "link_video": "https://animefire.plus/video/motto-to-love-ru"
    },
    {
      "id": 2596,
      "nome": "Mou Ippon!",
      "link": "https://animefire.plus/animes/mou-ippon-todos-os-episodios",
      "texto_original": "Mou Ippon!",
      "rating": 7.08,
      "classificacao_etaria": "A14",
      "imagem_original": "https://animefire.plus/img/animes/mou-ippon.webp",
      "imagem_pasta": "https://animefire.plus/img/animes/mou-ippon/",
      "secao": "legendados",
      "pagina": 25,
      "total_episodios": 13,
      "link_video": "https://animefire.plus/video/mou-ippon"
    },
    {
      "id": 2597,
      "nome": "Mouretsu Pirates",
      "link": "https://animefire.plus/animes/mouretsu-pirates-todos-os-episodios",
      "texto_original": "Mouretsu Pirates",
      "rating": 7.21,
      "classificacao_etaria": "A14",
      "imagem_original": "https://animefire.plus/img/animes/mouretsu-pirates.webp",
      "imagem_pasta": "https://animefire.plus/img/animes/mouretsu-pirates/",
      "secao": "legendados",
      "pagina": 141,
      "total_episodios": 0,
      "link_video": "https://animefire.plus/video/mouretsu-pirates"
    },
    {
      "id": 2598,
      "nome": "Mouryou no Hako",
      "link": "https://animefire.plus/animes/mouryou-no-hako-todos-os-episodios",
      "texto_original": "Mouryou no Hako",
      "rating": 7.25,
      "classificacao_etaria": "A16",
      "imagem_original": "https://animefire.plus/img/animes/mouryou-no-hako.webp",
      "imagem_pasta": "https://animefire.plus/img/animes/mouryou-no-hako/",
      "secao": "legendados",
      "pagina": 151,
      "total_episodios": 13,
      "link_video": "https://animefire.plus/video/mouryou-no-hako"
    },
    {
      "id": 2600,
      "nome": "Mousou Dairinin",
      "link": "https://animefire.plus/animes/mousou-dairinin-todos-os-episodios",
      "texto_original": "Mousou Dairinin",
      "rating": 7.72,
      "classificacao_etaria": "A18",
      "imagem_original": "https://animefire.plus/img/animes/mousou-dairinin.webp",
      "imagem_pasta": "https://animefire.plus/img/animes/mousou-dairinin/",
      "secao": "legendados",
      "pagina": 111,
      "total_episodios": 13,
      "link_video": "https://animefire.plus/video/mousou-dairinin"
    }
  ],
  "pagination": {
    "current_page": 55,
    "per_page": 20,
    "total_items": 1905,
    "total_pages": 96,
    "has_next": true,
    "has_prev": true
  }
}
