{
  "message": "Animes com rating entre 7 e 8",
  "rating_range": {
    "min": 7,
    "max": 8
  },
  "data": [
    {
      "id": 2041,
      "nome": "Kobayashi-san Chi no OO Dragon",
      "link": "https://animefire.plus/animes/kobayashi-san-chi-no-oo-dragon-todos-os-episodios",
      "texto_original": "Kobayashi-san Chi no OO Dragon",
      "rating": 7.26,
      "classificacao_etaria": "A14",
      "imagem_original": "https://animefire.plus/img/animes/kobayashi-san-chi-no-oo-dragon.webp",
      "imagem_pasta": "https://animefire.plus/img/animes/kobayashi-san-chi-no-oo-dragon/",
      "secao": "legendados",
      "pagina": 54,
      "total_episodios": 1,
      "link_video": "https://animefire.plus/video/kobayashi-san-chi-no-oo-dragon"
    },
    {
      "id": 2047,
      "nome": "Koi Kaze",
      "link": "https://animefire.plus/animes/koi-kaze-todos-os-episodios",
      "texto_original": "Koi Kaze",
      "rating": 7.24,
      "classificacao_etaria": "A16",
      "imagem_original": "https://animefire.plus/img/animes/koi-kaze.webp",
      "imagem_pasta": "https://animefire.plus/img/animes/koi-kaze/",
      "secao": "legendados",
      "pagina": 173,
      "total_episodios": 13,
      "link_video": "https://animefire.plus/video/koi-kaze"
    },
    {
      "id": 2050,
      "nome": "Koi to Senkyo to Chocolate",
      "link": "https://animefire.plus/animes/koi-to-senkyo-to-chocolate-todos-os-episodios",
      "texto_original": "Koi to Senkyo to Chocolate",
      "rating": 7.21,
      "classificacao_etaria": "A14",
      "imagem_original": "https://animefire.plus/img/animes/koi-to-senkyo-to-chocolate.webp",
      "imagem_pasta": "https://animefire.plus/img/animes/koi-to-senkyo-to-chocolate/",
      "secao": "legendados",
      "pagina": 162,
      "total_episodios": 5,
      "link_video": "https://animefire.plus/video/koi-to-senkyo-to-chocolate"
    },
    {
      "id": 2054,
      "nome": "Koi to Yobu ni wa Kimochi Warui",
      "link": "https://animefire.plus/animes/koi-to-yobu-ni-wa-kimochi-warui-todos-os-episodios",
      "texto_original": "Koi to Yobu ni wa Kimochi Warui",
      "rating": 7.12,
      "classificacao_etaria": "A14",
      "imagem_original": "https://animefire.plus/img/animes/koi-to-yobu-ni-wa-kimochi-warui.webp",
      "imagem_pasta": "https://animefire.plus/img/animes/koi-to-yobu-ni-wa-kimochi-warui/",
      "secao": "legendados",
      "pagina": 47,
      "total_episodios": 12,
      "link_video": "https://animefire.plus/video/koi-to-yobu-ni-wa-kimochi-warui"
    },
    {
      "id": 2055,
      "nome": "Koi wa Ameagari no You ni",
      "link": "https://animefire.plus/animes/koi-wa-ameagari-no-you-ni-todos-os-episodios",
      "texto_original": "Koi wa Ameagari no You ni",
      "rating": 7.6,
      "classificacao_etaria": "A14",
      "imagem_original": "https://animefire.plus/img/animes/koi-wa-ameagari-no-you-ni.webp",
      "imagem_pasta": "https://animefire.plus/img/animes/koi-wa-ameagari-no-you-ni/",
      "secao": "legendados",
      "pagina": 120,
      "total_episodios": 12,
      "link_video": "https://animefire.plus/video/koi-wa-ameagari-no-you-ni"
    },
    {
      "id": 2057,
      "nome": "Koi wa Sekai Seifuku no Ato de (Dublado)",
      "link": "https://animefire.plus/animes/koi-wa-sekai-seifuku-no-ato-de-dublado-todos-os-episodios",
      "texto_original": "Koi wa Sekai Seifuku no Ato de (Dublado)",
      "rating": 7.38,
      "classificacao_etaria": "A14",
      "imagem_original": "https://animefire.plus/img/animes/koi-wa-sekai-seifuku-no-ato-de.webp",
      "imagem_pasta": "https://animefire.plus/img/animes/koi-wa-sekai-seifuku-no-ato-de/",
      "secao": "dublados,legendados",
      "pagina": 11,
      "total_episodios": 12,
      "link_video": "https://animefire.plus/video/koi-wa-sekai-seifuku-no-ato-de-dublado"
    },
    {
      "id": 2062,
      "nome": "Koisuru Tenshi Angelique: Kagayaki no Ashita",
      "link": "https://animefire.plus/animes/koisuru-tenshi-angelique-kagayaki-no-ashita-todos-os-episodios",
      "texto_original": "Koisuru Tenshi Angelique: Kagayaki no Ashita",
      "rating": 7.09,
      "classificacao_etaria": "A14",
      "imagem_original": "https://animefire.plus/img/animes/koisuru-tenshi-angelique-kagayaki-no-ashita.webp",
      "imagem_pasta": "https://animefire.plus/img/animes/koisuru-tenshi-angelique-kagayaki-no-ashita/",
      "secao": "legendados",
      "pagina": 149,
      "total_episodios": 12,
      "link_video": "https://animefire.plus/video/koisuru-tenshi-angelique-kagayaki-no-ashita"
    },
    {
      "id": 2065,
      "nome": "Kokkoku",
      "link": "https://animefire.plus/animes/kokkoku-todos-os-episodios",
      "texto_original": "Kokkoku",
      "rating": 7.14,
      "classificacao_etaria": "A16",
      "imagem_original": "https://animefire.plus/img/animes/kokkoku.webp",
      "imagem_pasta": "https://animefire.plus/img/animes/kokkoku/",
      "secao": "legendados",
      "pagina": 138,
      "total_episodios": 12,
      "link_video": "https://animefire.plus/video/kokkoku"
    },
    {
      "id": 2066,
      "nome": "Kokoro Connect",
      "link": "https://animefire.plus/animes/kokoro-connect-todos-os-episodios",
      "texto_original": "Kokoro Connect",
      "rating": 7.91,
      "classificacao_etaria": "A14",
      "imagem_original": "https://animefire.plus/img/animes/kokoro-connect.webp",
      "imagem_pasta": "https://animefire.plus/img/animes/kokoro-connect/",
      "secao": "legendados",
      "pagina": 170,
      "total_episodios": 5,
      "link_video": "https://animefire.plus/video/kokoro-connect"
    },
    {
      "id": 2070,
      "nome": "Komi-san wa, Comyushou desu.",
      "link": "https://animefire.plus/animes/komi-san-wa-comyushou-desu-todos-os-episodios",
      "texto_original": "Komi-san wa, Comyushou desu.",
      "rating": 7.82,
      "classificacao_etaria": "A14",
      "imagem_original": "https://animefire.plus/img/animes/komi-san-wa-comyushou-desu.webp",
      "imagem_pasta": "https://animefire.plus/img/animes/komi-san-wa-comyushou-desu/",
      "secao": "legendados",
      "pagina": 39,
      "total_episodios": 12,
      "link_video": "https://animefire.plus/video/komi-san-wa-comyushou-desu"
    },
    {
      "id": 2071,
      "nome": "Komi-san wa, Comyushou desu. 2nd Season",
      "link": "https://animefire.plus/animes/komi-san-wa-comyushou-desu-2-todos-os-episodios",
      "texto_original": "Komi-san wa, Comyushou desu. 2nd Season",
      "rating": 7.99,
      "classificacao_etaria": "A14",
      "imagem_original": "https://animefire.plus/img/animes/komi-san-wa-comyushou-desu-2.webp",
      "imagem_pasta": "https://animefire.plus/img/animes/komi-san-wa-comyushou-desu-2/",
      "secao": "legendados",
      "pagina": 33,
      "total_episodios": 12,
      "link_video": "https://animefire.plus/video/komi-san-wa-comyushou-desu-2"
    },
    {
      "id": 2072,
      "nome": "Komi-san wa, Comyushou desu. 2nd Season (Dublado)",
      "link": "https://animefire.plus/animes/komi-san-wa-comyushou-desu-2nd-season-dublado-todos-os-episodios",
      "texto_original": "Komi-san wa, Comyushou desu. 2nd Season (Dublado)",
      "rating": 7.99,
      "classificacao_etaria": "A14",
      "imagem_original": "https://animefire.plus/img/animes/komi-san-wa-comyushou-desu-2nd-season.webp",
      "imagem_pasta": "https://animefire.plus/img/animes/komi-san-wa-comyushou-desu-2nd-season/",
      "secao": "dublados",
      "pagina": 9,
      "total_episodios": 12,
      "link_video": "https://animefire.plus/video/komi-san-wa-comyushou-desu-2nd-season-dublado"
    },
    {
      "id": 2075,
      "nome": "Konjiki no Gash Bell!! (Dublado)",
      "link": "https://animefire.plus/animes/konjiki-no-gash-bell-dublado-todos-os-episodios",
      "texto_original": "Konjiki no Gash Bell!! (Dublado)",
      "rating": 7.56,
      "classificacao_etaria": "A14",
      "imagem_original": "https://animefire.plus/img/animes/konjiki-no-gash-bell.webp",
      "imagem_pasta": "https://animefire.plus/img/animes/konjiki-no-gash-bell/",
      "secao": "dublados,legendados",
      "pagina": 20,
      "total_episodios": 150,
      "link_video": "https://animefire.plus/video/konjiki-no-gash-bell-dublado"
    },
    {
      "id": 2077,
      "nome": "Kono Bijutsubu Ni Wa Mondai Ga Aru!",
      "link": "https://animefire.plus/animes/kono-bijutsubu-ni-wa-mondai-ga-aru-todos-os-episodios",
      "texto_original": "Kono Bijutsubu Ni Wa Mondai Ga Aru!",
      "rating": 7.37,
      "classificacao_etaria": "A14",
      "imagem_original": "https://animefire.plus/img/animes/kono-bijutsubu-ni-wa-mondai-ga-aru.webp",
      "imagem_pasta": "https://animefire.plus/img/animes/kono-bijutsubu-ni-wa-mondai-ga-aru/",
      "secao": "legendados",
      "pagina": 108,
      "total_episodios": 12,
      "link_video": "https://animefire.plus/video/kono-bijutsubu-ni-wa-mondai-ga-aru"
    },
    {
      "id": 2078,
      "nome": "Kono Danshi, Ningyo Hiroimashita.",
      "link": "https://animefire.plus/animes/kono-danshi-ningyo-hiroimashita-todos-os-episodios",
      "texto_original": "Kono Danshi, Ningyo Hiroimashita.",
      "rating": 7.54,
      "classificacao_etaria": "A14",
      "imagem_original": "https://animefire.plus/img/animes/kono-danshi-ningyo-hiroimashita.webp",
      "imagem_pasta": "https://animefire.plus/img/animes/kono-danshi-ningyo-hiroimashita/",
      "secao": "legendados",
      "pagina": 86,
      "total_episodios": 1,
      "link_video": "https://animefire.plus/video/kono-danshi-ningyo-hiroimashita"
    },
    {
      "id": 2080,
      "nome": "Kono Kaisha ni Suki na Hito ga Imasu",
      "link": "https://animefire.plus/animes/kono-kaisha-ni-suki-na-hito-ga-imasu-todos-os-episodios",
      "texto_original": "Kono Kaisha ni Suki na Hito ga Imasu",
      "rating": 7.53,
      "classificacao_etaria": "A14",
      "imagem_original": "https://animefire.plus/img/animes/kono-kaisha-ni-suki-na-hito-ga-imasu.webp",
      "imagem_pasta": "https://animefire.plus/img/animes/kono-kaisha-ni-suki-na-hito-ga-imasu/",
      "secao": "legendados",
      "pagina": 8,
      "total_episodios": 12,
      "link_video": "https://animefire.plus/video/kono-kaisha-ni-suki-na-hito-ga-imasu"
    },
    {
      "id": 2083,
      "nome": "Kono Oto Tomare! (Dublado)",
      "link": "https://animefire.plus/animes/kono-oto-tomare-dublado-todos-os-episodios",
      "texto_original": "Kono Oto Tomare! (Dublado)",
      "rating": 7.89,
      "classificacao_etaria": "A14",
      "imagem_original": "https://animefire.plus/img/animes/kono-oto-tomare.webp",
      "imagem_pasta": "https://animefire.plus/img/animes/kono-oto-tomare/",
      "secao": "dublados,legendados",
      "pagina": 13,
      "total_episodios": 13,
      "link_video": "https://animefire.plus/video/kono-oto-tomare-dublado"
    },
    {
      "id": 2086,
      "nome": "Kono Subarashii Sekai ni Bakuen wo! (Dublado)",
      "link": "https://animefire.plus/animes/kono-subarashii-sekai-ni-bakuen-wo-dublado-todos-os-episodios",
      "texto_original": "Kono Subarashii Sekai ni Bakuen wo! (Dublado)",
      "rating": 7.51,
      "classificacao_etaria": "A14",
      "imagem_original": "https://animefire.plus/img/animes/kono-subarashii-sekai-ni-bakuen-wo.webp",
      "imagem_pasta": "https://animefire.plus/img/animes/kono-subarashii-sekai-ni-bakuen-wo/",
      "secao": "dublados,legendados",
      "pagina": 7,
      "total_episodios": 12,
      "link_video": "https://animefire.plus/video/kono-subarashii-sekai-ni-bakuen-wo-dublado"
    },
    {
      "id": 2094,
      "nome": "Konohana Kitan",
      "link": "https://animefire.plus/animes/konohana-kitan-todos-os-episodios",
      "texto_original": "Konohana Kitan",
      "rating": 7.66,
      "classificacao_etaria": "A14",
      "imagem_original": "https://animefire.plus/img/animes/konohana-kitan.webp",
      "imagem_pasta": "https://animefire.plus/img/animes/konohana-kitan/",
      "secao": "legendados",
      "pagina": 106,
      "total_episodios": 12,
      "link_video": "https://animefire.plus/video/konohana-kitan"
    },
    {
      "id": 2095,
      "nome": "Konyaku Haki sareta Reijou wo Hirotta Ore ga, Ikenai Koto wo Oshiekomu",
      "link": "https://animefire.plus/animes/konyaku-haki-sareta-reijou-wo-hirotta-ore-ga-ikenai-koto-wo-oshiekomu-todos-os-episodios",
      "texto_original": "Konyaku Haki sareta Reijou wo Hirotta Ore ga, Ikenai Koto wo Oshiekomu",
      "rating": 7.15,
      "classificacao_etaria": "A14",
      "imagem_original": "https://animefire.plus/img/animes/konyaku-haki-sareta-reijou-wo-hirotta-ore-ga-ikenai-koto-wo-oshiekomu.webp",
      "imagem_pasta": "https://animefire.plus/img/animes/konyaku-haki-sareta-reijou-wo-hirotta-ore-ga-ikenai-koto-wo-oshiekomu/",
      "secao": "legendados",
      "pagina": 20,
      "total_episodios": 12,
      "link_video": "https://animefire.plus/video/konyaku-haki-sareta-reijou-wo-hirotta-ore-ga-ikenai-koto-wo-oshiekomu"
    }
  ],
  "pagination": {
    "current_page": 43,
    "per_page": 20,
    "total_items": 1905,
    "total_pages": 96,
    "has_next": true,
    "has_prev": true
  }
}
