{
  "message": "Animes com rating entre 7 e 8",
  "rating_range": {
    "min": 7,
    "max": 8
  },
  "data": [
    {
      "id": 908,
      "nome": "Dungeon no Naka no Hito",
      "link": "https://animefire.plus/animes/dungeon-no-naka-no-hito-todos-os-episodios",
      "texto_original": "Dungeon no Naka no Hito",
      "rating": 7.12,
      "classificacao_etaria": "A14",
      "imagem_original": "https://animefire.plus/img/animes/dungeon-no-naka-no-hito.webp",
      "imagem_pasta": "https://animefire.plus/img/animes/dungeon-no-naka-no-hito/",
      "secao": "legendados",
      "pagina": 12,
      "total_episodios": 12,
      "link_video": "https://animefire.plus/video/dungeon-no-naka-no-hito"
    },
    {
      "id": 919,
      "nome": "Edens Zero (Dublado)",
      "link": "https://animefire.plus/animes/edens-zero-dublado-todos-os-episodios",
      "texto_original": "Edens Zero (Dublado)",
      "rating": 7.26,
      "classificacao_etaria": "A14",
      "imagem_original": "https://animefire.plus/img/animes/edens-zero.webp",
      "imagem_pasta": "https://animefire.plus/img/animes/edens-zero/",
      "secao": "dublados,legendados",
      "pagina": 16,
      "total_episodios": 25,
      "link_video": "https://animefire.plus/video/edens-zero-dublado"
    },
    {
      "id": 920,
      "nome": "Edens Zero 2nd Season",
      "link": "https://animefire.plus/animes/edens-zero-2nd-season-todos-os-episodios",
      "texto_original": "Edens Zero 2nd Season",
      "rating": 7.43,
      "classificacao_etaria": "A14",
      "imagem_original": "https://animefire.plus/img/animes/edens-zero-2nd-season.jpg",
      "imagem_pasta": "https://animefire.plus/img/animes/edens-zero-2nd-season/",
      "secao": "legendados",
      "pagina": 24,
      "total_episodios": 25,
      "link_video": "https://animefire.plus/video/edens-zero-2nd-season"
    },
    {
      "id": 921,
      "nome": "Edomae Elf",
      "link": "https://animefire.plus/animes/edomae-elf-todos-os-episodios",
      "texto_original": "Edomae Elf",
      "rating": 7.25,
      "classificacao_etaria": "A14",
      "imagem_original": "https://animefire.plus/img/animes/edomae-elf.jpg",
      "imagem_pasta": "https://animefire.plus/img/animes/edomae-elf/",
      "secao": "legendados",
      "pagina": 23,
      "total_episodios": 12,
      "link_video": "https://animefire.plus/video/edomae-elf"
    },
    {
      "id": 926,
      "nome": "Eikoku Koi Monogatari Emma",
      "link": "https://animefire.plus/animes/eikoku-koi-monogatari-emma-todos-os-episodios",
      "texto_original": "Eikoku Koi Monogatari Emma",
      "rating": 7.68,
      "classificacao_etaria": null,
      "imagem_original": "https://animefire.plus/img/animes/eikoku-koi-monogatari-emma.webp",
      "imagem_pasta": "https://animefire.plus/img/animes/eikoku-koi-monogatari-emma/",
      "secao": "legendados",
      "pagina": 55,
      "total_episodios": 12,
      "link_video": "https://animefire.plus/video/eikoku-koi-monogatari-emma"
    },
    {
      "id": 927,
      "nome": "Eikoku Koi Monogatari Emma: Molders-hen",
      "link": "https://animefire.plus/animes/eikoku-koi-monogatari-emma-molders-hen-todos-os-episodios",
      "texto_original": "Eikoku Koi Monogatari Emma: Molders-hen",
      "rating": 7.89,
      "classificacao_etaria": null,
      "imagem_original": "https://animefire.plus/img/animes/eikoku-koi-monogatari-emma-molders-hen.webp",
      "imagem_pasta": "https://animefire.plus/img/animes/eikoku-koi-monogatari-emma-molders-hen/",
      "secao": "legendados",
      "pagina": 56,
      "total_episodios": 13,
      "link_video": "https://animefire.plus/video/eikoku-koi-monogatari-emma-molders-hen"
    },
    {
      "id": 931,
      "nome": "El Cazador de la Bruja",
      "link": "https://animefire.plus/animes/el-cazador-de-la-bruja-todos-os-episodios",
      "texto_original": "El Cazador de la Bruja",
      "rating": 7.28,
      "classificacao_etaria": "A14",
      "imagem_original": "https://animefire.plus/img/animes/el-cazador-de-la-bruja.webp",
      "imagem_pasta": "https://animefire.plus/img/animes/el-cazador-de-la-bruja/",
      "secao": "legendados",
      "pagina": 113,
      "total_episodios": 26,
      "link_video": "https://animefire.plus/video/el-cazador-de-la-bruja"
    },
    {
      "id": 934,
      "nome": "El Hazard: The Magnificent World",
      "link": "https://animefire.plus/animes/el-hazard-the-magnificent-world-todos-os-episodios",
      "texto_original": "El Hazard: The Magnificent World",
      "rating": 7.34,
      "classificacao_etaria": "A14",
      "imagem_original": "https://animefire.plus/img/animes/el-hazard-the-magnificent-world.webp",
      "imagem_pasta": "https://animefire.plus/img/animes/el-hazard-the-magnificent-world/",
      "secao": "legendados",
      "pagina": 63,
      "total_episodios": 7,
      "link_video": "https://animefire.plus/video/el-hazard-the-magnificent-world"
    },
    {
      "id": 935,
      "nome": "El Hazard: The Wanderers",
      "link": "https://animefire.plus/animes/el-hazard-the-wanderers-todos-os-episodios",
      "texto_original": "El Hazard: The Wanderers",
      "rating": 7.04,
      "classificacao_etaria": "A14",
      "imagem_original": "https://animefire.plus/img/animes/el-hazard-the-wanderers.webp",
      "imagem_pasta": "https://animefire.plus/img/animes/el-hazard-the-wanderers/",
      "secao": "legendados",
      "pagina": 95,
      "total_episodios": 0,
      "link_video": "https://animefire.plus/video/el-hazard-the-wanderers"
    },
    {
      "id": 938,
      "nome": "Elf wo Karu Mono-tachi",
      "link": "https://animefire.plus/animes/elf-wo-karu-mono-tachi-todos-os-episodios",
      "texto_original": "Elf wo Karu Mono-tachi",
      "rating": 7.08,
      "classificacao_etaria": "A14",
      "imagem_original": "https://animefire.plus/img/animes/elf-wo-karu-mono-tachi.webp",
      "imagem_pasta": "https://animefire.plus/img/animes/elf-wo-karu-mono-tachi/",
      "secao": "legendados",
      "pagina": 142,
      "total_episodios": 0,
      "link_video": "https://animefire.plus/video/elf-wo-karu-mono-tachi"
    },
    {
      "id": 939,
      "nome": "Elf wo Karu Mono-tachi II",
      "link": "https://animefire.plus/animes/elf-wo-karu-mono-tachi-ii-todos-os-episodios",
      "texto_original": "Elf wo Karu Mono-tachi II",
      "rating": 7.11,
      "classificacao_etaria": "A14",
      "imagem_original": "https://animefire.plus/img/animes/elf-wo-karu-mono-tachi-ii.webp",
      "imagem_pasta": "https://animefire.plus/img/animes/elf-wo-karu-mono-tachi-ii/",
      "secao": "legendados",
      "pagina": 172,
      "total_episodios": 0,
      "link_video": "https://animefire.plus/video/elf-wo-karu-mono-tachi-ii"
    },
    {
      "id": 941,
      "nome": "Elfen Lied",
      "link": "https://animefire.plus/animes/elfen-lied-todos-os-episodios",
      "texto_original": "Elfen Lied",
      "rating": 7.7,
      "classificacao_etaria": "A18",
      "imagem_original": "https://animefire.plus/img/animes/elfen-lied.webp",
      "imagem_pasta": "https://animefire.plus/img/animes/elfen-lied/",
      "secao": "legendados",
      "pagina": 130,
      "total_episodios": 13,
      "link_video": "https://animefire.plus/video/elfen-lied"
    },
    {
      "id": 943,
      "nome": "Emiya-san Chi no Kyou no Gohan",
      "link": "https://animefire.plus/animes/emiya-san-chi-no-kyou-no-gohan-todos-os-episodios",
      "texto_original": "Emiya-san Chi no Kyou no Gohan",
      "rating": 7.91,
      "classificacao_etaria": "A14",
      "imagem_original": "https://animefire.plus/img/animes/emiya-san-chi-no-kyou-no-gohan.webp",
      "imagem_pasta": "https://animefire.plus/img/animes/emiya-san-chi-no-kyou-no-gohan/",
      "secao": "legendados",
      "pagina": 162,
      "total_episodios": 5,
      "link_video": "https://animefire.plus/video/emiya-san-chi-no-kyou-no-gohan"
    },
    {
      "id": 946,
      "nome": "Enen no Shouboutai (Dublado)",
      "link": "https://animefire.plus/animes/enen-no-shouboutai-dublado-todos-os-episodios",
      "texto_original": "Enen no Shouboutai (Dublado)",
      "rating": 7.68,
      "classificacao_etaria": "A14",
      "imagem_original": "https://animefire.plus/img/animes/enen-no-shouboutai.webp",
      "imagem_pasta": "https://animefire.plus/img/animes/enen-no-shouboutai/",
      "secao": "dublados,legendados",
      "pagina": 14,
      "total_episodios": 24,
      "link_video": "https://animefire.plus/video/enen-no-shouboutai-dublado"
    },
    {
      "id": 947,
      "nome": "Enen no Shouboutai: Ni no Shou (Dublado)",
      "link": "https://animefire.plus/animes/enen-no-shouboutai-ni-no-shou-dublado-todos-os-episodios",
      "texto_original": "Enen no Shouboutai: Ni no Shou (Dublado)",
      "rating": 7.76,
      "classificacao_etaria": "A14",
      "imagem_original": "https://animefire.plus/img/animes/enen-no-shouboutai-ni-no-shou.webp",
      "imagem_pasta": "https://animefire.plus/img/animes/enen-no-shouboutai-ni-no-shou/",
      "secao": "dublados,legendados",
      "pagina": 14,
      "total_episodios": 24,
      "link_video": "https://animefire.plus/video/enen-no-shouboutai-ni-no-shou-dublado"
    },
    {
      "id": 948,
      "nome": "Enen no Shouboutai: San no Shou (Dublado)",
      "link": "https://animefire.plus/animes/enen-no-shouboutai-san-no-shou-dublado-todos-os-episodios",
      "texto_original": "Enen no Shouboutai: San no Shou (Dublado)",
      "rating": 7.71,
      "classificacao_etaria": "A14",
      "imagem_original": "https://animefire.plus/img/animes/enen-no-shouboutai-san-no-shou.webp",
      "imagem_pasta": "https://animefire.plus/img/animes/enen-no-shouboutai-san-no-shou/",
      "secao": "dublados,legendados,lancamentos",
      "pagina": 1,
      "total_episodios": 12,
      "link_video": "https://animefire.plus/video/enen-no-shouboutai-san-no-shou-dublado"
    },
    {
      "id": 951,
      "nome": "Erementar Gerad",
      "link": "https://animefire.plus/animes/erementar-gerad-todos-os-episodios",
      "texto_original": "Erementar Gerad",
      "rating": 7.37,
      "classificacao_etaria": "A14",
      "imagem_original": "https://animefire.plus/img/animes/erementar-gerad.webp",
      "imagem_pasta": "https://animefire.plus/img/animes/erementar-gerad/",
      "secao": "legendados",
      "pagina": 122,
      "total_episodios": 0,
      "link_video": "https://animefire.plus/video/erementar-gerad"
    },
    {
      "id": 952,
      "nome": "Ergo Proxy",
      "link": "https://animefire.plus/animes/ergo-proxy-todos-os-episodios",
      "texto_original": "Ergo Proxy",
      "rating": 7.97,
      "classificacao_etaria": "A16",
      "imagem_original": "https://animefire.plus/img/animes/ergo-proxy.webp",
      "imagem_pasta": "https://animefire.plus/img/animes/ergo-proxy/",
      "secao": "legendados",
      "pagina": 172,
      "total_episodios": 23,
      "link_video": "https://animefire.plus/video/ergo-proxy"
    },
    {
      "id": 965,
      "nome": "Eyeshield 21 (Dublado)",
      "link": "https://animefire.plus/animes/eyeshield-21-dublado-todos-os-episodios",
      "texto_original": "Eyeshield 21 (Dublado)",
      "rating": 7.92,
      "classificacao_etaria": "A14",
      "imagem_original": "https://animefire.plus/img/animes/eyeshield-21.webp",
      "imagem_pasta": "https://animefire.plus/img/animes/eyeshield-21/",
      "secao": "dublados,legendados",
      "pagina": 4,
      "total_episodios": 142,
      "link_video": "https://animefire.plus/video/eyeshield-21-dublado"
    },
    {
      "id": 969,
      "nome": "Fairy Tail (Dublado)",
      "link": "https://animefire.plus/animes/fairy-tail-dublado-todos-os-episodios",
      "texto_original": "Fairy Tail (Dublado)",
      "rating": 7.64,
      "classificacao_etaria": "A14",
      "imagem_original": "https://animefire.plus/img/animes/fairy-tail.webp",
      "imagem_pasta": "https://animefire.plus/img/animes/fairy-tail/",
      "secao": "dublados,legendados,lancamentos",
      "pagina": 18,
      "total_episodios": 5,
      "link_video": "https://animefire.plus/video/fairy-tail-dublado"
    }
  ],
  "pagination": {
    "current_page": 19,
    "per_page": 20,
    "total_items": 1905,
    "total_pages": 96,
    "has_next": true,
    "has_prev": true
  }
}
