{
  "message": "Animes com rating entre 7 e 8",
  "rating_range": {
    "min": 7,
    "max": 8
  },
  "data": [
    {
      "id": 3142,
      "nome": "Robotics;Notes",
      "link": "https://animefire.plus/animes/robotics-notes-todos-os-episodios",
      "texto_original": "Robotics;Notes",
      "rating": 7.39,
      "classificacao_etaria": "A14",
      "imagem_original": "https://animefire.plus/img/animes/robotics-notes.webp",
      "imagem_pasta": "https://animefire.plus/img/animes/robotics-notes/",
      "secao": "legendados",
      "pagina": 175,
      "total_episodios": 0,
      "link_video": "https://animefire.plus/video/robotics-notes"
    },
    {
      "id": 3143,
      "nome": "Rock wa Lady no Tashinami deshite",
      "link": "https://animefire.plus/animes/rock-wa-lady-no-tashinami-deshite-todos-os-episodios",
      "texto_original": "Rock wa Lady no Tashinami deshite",
      "rating": 7.92,
      "classificacao_etaria": "A14",
      "imagem_original": "https://animefire.plus/img/animes/rock-wa-lady-no-tashinami-deshite.webp",
      "imagem_pasta": "https://animefire.plus/img/animes/rock-wa-lady-no-tashinami-deshite/",
      "secao": "legendados",
      "pagina": 5,
      "total_episodios": 13,
      "link_video": "https://animefire.plus/video/rock-wa-lady-no-tashinami-deshite"
    },
    {
      "id": 3144,
      "nome": "Rockman.EXE Axess",
      "link": "https://animefire.plus/animes/rockman-exe-axess-todos-os-episodios",
      "texto_original": "Rockman.EXE Axess",
      "rating": 7.23,
      "classificacao_etaria": "A10",
      "imagem_original": "https://animefire.plus/img/animes/rockman-exe-axess.webp",
      "imagem_pasta": "https://animefire.plus/img/animes/rockman-exe-axess/",
      "secao": "legendados",
      "pagina": 146,
      "total_episodios": 36,
      "link_video": "https://animefire.plus/video/rockman-exe-axess"
    },
    {
      "id": 3145,
      "nome": "Rokka no Yuusha (Dublado)",
      "link": "https://animefire.plus/animes/rokka-no-yuusha-dublado-todos-os-episodios",
      "texto_original": "Rokka no Yuusha (Dublado)",
      "rating": 7.43,
      "classificacao_etaria": "A14",
      "imagem_original": "https://animefire.plus/img/animes/rokka-no-yuusha.webp",
      "imagem_pasta": "https://animefire.plus/img/animes/rokka-no-yuusha/",
      "secao": "dublados,legendados",
      "pagina": 25,
      "total_episodios": 12,
      "link_video": "https://animefire.plus/video/rokka-no-yuusha-dublado"
    },
    {
      "id": 3146,
      "nome": "Rokudenashi Majutsu Koushi to Akashic Records (Dublado)",
      "link": "https://animefire.plus/animes/rokudenashi-majutsu-koushi-to-akashic-records-dublado-todos-os-episodios",
      "texto_original": "Rokudenashi Majutsu Koushi to Akashic Records (Dublado)",
      "rating": 7.29,
      "classificacao_etaria": "A16",
      "imagem_original": "https://animefire.plus/img/animes/rokudenashi-majutsu-koushi-to-akashic-records.webp",
      "imagem_pasta": "https://animefire.plus/img/animes/rokudenashi-majutsu-koushi-to-akashic-records/",
      "secao": "dublados,legendados",
      "pagina": 23,
      "total_episodios": 12,
      "link_video": "https://animefire.plus/video/rokudenashi-majutsu-koushi-to-akashic-records-dublado"
    },
    {
      "id": 3148,
      "nome": "Rokuhoudou Yotsuiro Biyori",
      "link": "https://animefire.plus/animes/rokuhoudou-yotsuiro-biyori-todos-os-episodios",
      "texto_original": "Rokuhoudou Yotsuiro Biyori",
      "rating": 7.64,
      "classificacao_etaria": "A14",
      "imagem_original": "https://animefire.plus/img/animes/rokuhoudou-yotsuiro-biyori.webp",
      "imagem_pasta": "https://animefire.plus/img/animes/rokuhoudou-yotsuiro-biyori/",
      "secao": "legendados",
      "pagina": 152,
      "total_episodios": 9,
      "link_video": "https://animefire.plus/video/rokuhoudou-yotsuiro-biyori"
    },
    {
      "id": 3149,
      "nome": "Rokujouma no Shinryakusha!?",
      "link": "https://animefire.plus/animes/rokujouma-no-shinryakusha-todos-os-episodios",
      "texto_original": "Rokujouma no Shinryakusha!?",
      "rating": 7.27,
      "classificacao_etaria": "A14",
      "imagem_original": "https://animefire.plus/img/animes/rokujouma-no-shinryakusha.webp",
      "imagem_pasta": "https://animefire.plus/img/animes/rokujouma-no-shinryakusha/",
      "secao": "legendados",
      "pagina": 161,
      "total_episodios": 2,
      "link_video": "https://animefire.plus/video/rokujouma-no-shinryakusha"
    },
    {
      "id": 3151,
      "nome": "Romantic Killer (Dublado)",
      "link": "https://animefire.plus/animes/romantic-killer-dublado-todos-os-episodios",
      "texto_original": "Romantic Killer (Dublado)",
      "rating": 7.94,
      "classificacao_etaria": "A14",
      "imagem_original": "https://animefire.plus/img/animes/romantic-killer.webp",
      "imagem_pasta": "https://animefire.plus/img/animes/romantic-killer/",
      "secao": "dublados,legendados",
      "pagina": 9,
      "total_episodios": 12,
      "link_video": "https://animefire.plus/video/romantic-killer-dublado"
    },
    {
      "id": 3154,
      "nome": "Romeo x Juliet",
      "link": "https://animefire.plus/animes/romeo-x-juliet-todos-os-episodios",
      "texto_original": "Romeo x Juliet",
      "rating": 7.76,
      "classificacao_etaria": "A14",
      "imagem_original": "https://animefire.plus/img/animes/romeo-x-juliet.webp",
      "imagem_pasta": "https://animefire.plus/img/animes/romeo-x-juliet/",
      "secao": "legendados",
      "pagina": 133,
      "total_episodios": 24,
      "link_video": "https://animefire.plus/video/romeo-x-juliet"
    },
    {
      "id": 3156,
      "nome": "Rosario to Vampire",
      "link": "https://animefire.plus/animes/rosario-to-vampire-todos-os-episodios",
      "texto_original": "Rosario to Vampire",
      "rating": 7.01,
      "classificacao_etaria": "A18",
      "imagem_original": "https://animefire.plus/img/animes/rosario-to-vampire.webp",
      "imagem_pasta": "https://animefire.plus/img/animes/rosario-to-vampire/",
      "secao": "legendados",
      "pagina": 163,
      "total_episodios": 13,
      "link_video": "https://animefire.plus/video/rosario-to-vampire"
    },
    {
      "id": 3157,
      "nome": "Rosario to Vampire Capu2",
      "link": "https://animefire.plus/animes/rosario-to-vampire-capu2-todos-os-episodios",
      "texto_original": "Rosario to Vampire Capu2",
      "rating": 7.13,
      "classificacao_etaria": "A14",
      "imagem_original": "https://animefire.plus/img/animes/rosario-to-vampire-capu2.webp",
      "imagem_pasta": "https://animefire.plus/img/animes/rosario-to-vampire-capu2/",
      "secao": "legendados",
      "pagina": 144,
      "total_episodios": 13,
      "link_video": "https://animefire.plus/video/rosario-to-vampire-capu2"
    },
    {
      "id": 3159,
      "nome": "Rozen Maiden",
      "link": "https://animefire.plus/animes/rozen-maiden-todos-os-episodios",
      "texto_original": "Rozen Maiden",
      "rating": 7.51,
      "classificacao_etaria": "A14",
      "imagem_original": "https://animefire.plus/img/animes/rozen-maiden.webp",
      "imagem_pasta": "https://animefire.plus/img/animes/rozen-maiden/",
      "secao": "legendados",
      "pagina": 128,
      "total_episodios": 1,
      "link_video": "https://animefire.plus/video/rozen-maiden"
    },
    {
      "id": 3160,
      "nome": "Rozen Maiden (2013)",
      "link": "https://animefire.plus/animes/rozen-maiden-2013-todos-os-episodios",
      "texto_original": "Rozen Maiden (2013)",
      "rating": 7.4,
      "classificacao_etaria": "A14",
      "imagem_original": "https://animefire.plus/img/animes/rozen-maiden-2013.webp",
      "imagem_pasta": "https://animefire.plus/img/animes/rozen-maiden-2013/",
      "secao": "legendados",
      "pagina": 111,
      "total_episodios": 4,
      "link_video": "https://animefire.plus/video/rozen-maiden-2013"
    },
    {
      "id": 3161,
      "nome": "Rozen Maiden: Träumend",
      "link": "https://animefire.plus/animes/rozen-maiden-traeumend-todos-os-episodios",
      "texto_original": "Rozen Maiden: Träumend",
      "rating": 7.72,
      "classificacao_etaria": "A14",
      "imagem_original": "https://animefire.plus/img/animes/rozen-maiden-traeumend.webp",
      "imagem_pasta": "https://animefire.plus/img/animes/rozen-maiden-traeumend/",
      "secao": "legendados",
      "pagina": 129,
      "total_episodios": 0,
      "link_video": "https://animefire.plus/video/rozen-maiden-traeumend"
    },
    {
      "id": 3163,
      "nome": "Rumiko Takahashi Anthology",
      "link": "https://animefire.plus/animes/rumiko-takahashi-anthology-todos-os-episodios",
      "texto_original": "Rumiko Takahashi Anthology",
      "rating": 7.3,
      "classificacao_etaria": "A14",
      "imagem_original": "https://animefire.plus/img/animes/rumiko-takahashi-anthology.webp",
      "imagem_pasta": "https://animefire.plus/img/animes/rumiko-takahashi-anthology/",
      "secao": "legendados",
      "pagina": 179,
      "total_episodios": 13,
      "link_video": "https://animefire.plus/video/rumiko-takahashi-anthology"
    },
    {
      "id": 3164,
      "nome": "Runway de Waratte",
      "link": "https://animefire.plus/animes/runway-de-waratte-todos-os-episodios",
      "texto_original": "Runway de Waratte",
      "rating": 7.65,
      "classificacao_etaria": "A14",
      "imagem_original": "https://animefire.plus/img/animes/runway-de-waratte.webp",
      "imagem_pasta": "https://animefire.plus/img/animes/runway-de-waratte/",
      "secao": "legendados",
      "pagina": 92,
      "total_episodios": 0,
      "link_video": "https://animefire.plus/video/runway-de-waratte"
    },
    {
      "id": 3165,
      "nome": "Ruri no Houseki",
      "link": "https://animefire.plus/animes/ruri-no-houseki-todos-os-episodios",
      "texto_original": "Ruri no Houseki",
      "rating": 7.68,
      "classificacao_etaria": "A14",
      "imagem_original": "https://animefire.plus/img/animes/ruri-no-houseki.webp",
      "imagem_pasta": "https://animefire.plus/img/animes/ruri-no-houseki/",
      "secao": "legendados,lancamentos",
      "pagina": 2,
      "total_episodios": 5,
      "link_video": "https://animefire.plus/video/ruri-no-houseki"
    },
    {
      "id": 3166,
      "nome": "Rurouni Kenshin: Meiji Kenkaku Romantan - Kyoto Douran (Dublado)",
      "link": "https://animefire.plus/animes/rurouni-kenshin-meiji-kenkaku-romantan---kyoto-douran-dublado-todos-os-episodios",
      "texto_original": "Rurouni Kenshin: Meiji Kenkaku Romantan - Kyoto Douran (Dublado)",
      "rating": 7.77,
      "classificacao_etaria": "A16",
      "imagem_original": "https://animefire.plus/img/animes/rurouni-kenshin-meiji-kenkaku-romantan---kyoto-douran.webp",
      "imagem_pasta": "https://animefire.plus/img/animes/rurouni-kenshin-meiji-kenkaku-romantan---kyoto-douran/",
      "secao": "dublados,legendados,lancamentos",
      "pagina": 2,
      "total_episodios": 23,
      "link_video": "https://animefire.plus/video/rurouni-kenshin-meiji-kenkaku-romantan---kyoto-douran-dublado"
    },
    {
      "id": 3167,
      "nome": "Rurouni Kenshin: Meiji Kenkaku Romantan (2023) (Dublado)",
      "link": "https://animefire.plus/animes/rurouni-kenshin-meiji-kenkaku-romantan-2023-dublado-todos-os-episodios",
      "texto_original": "Rurouni Kenshin: Meiji Kenkaku Romantan (2023) (Dublado)",
      "rating": 7.63,
      "classificacao_etaria": "A14",
      "imagem_original": "https://animefire.plus/img/animes/rurouni-kenshin-meiji-kenkaku-romantan-2023.webp",
      "imagem_pasta": "https://animefire.plus/img/animes/rurouni-kenshin-meiji-kenkaku-romantan-2023/",
      "secao": "dublados,legendados",
      "pagina": 6,
      "total_episodios": 24,
      "link_video": "https://animefire.plus/video/rurouni-kenshin-meiji-kenkaku-romantan-2023-dublado"
    },
    {
      "id": 3170,
      "nome": "Ryman's Club",
      "link": "https://animefire.plus/animes/ryman-s-club-todos-os-episodios",
      "texto_original": "Ryman's Club",
      "rating": 7.34,
      "classificacao_etaria": "A14",
      "imagem_original": "https://animefire.plus/img/animes/ryman-s-club.webp",
      "imagem_pasta": "https://animefire.plus/img/animes/ryman-s-club/",
      "secao": "legendados",
      "pagina": 35,
      "total_episodios": 12,
      "link_video": "https://animefire.plus/video/ryman-s-club"
    }
  ],
  "pagination": {
    "current_page": 67,
    "per_page": 20,
    "total_items": 1905,
    "total_pages": 96,
    "has_next": true,
    "has_prev": true
  }
}
