{
  "message": "Animes com rating entre 7 e 8",
  "rating_range": {
    "min": 7,
    "max": 8
  },
  "data": [
    {
      "id": 4040,
      "nome": "Urusei Yatsura (2022) 2nd Season",
      "link": "https://animefire.plus/animes/urusei-yatsura-2022-2nd-season-todos-os-episodios",
      "texto_original": "Urusei Yatsura (2022) 2nd Season",
      "rating": 7.84,
      "classificacao_etaria": "A14",
      "imagem_original": "https://animefire.plus/img/animes/urusei-yatsura-2022-2nd-season.webp",
      "imagem_pasta": "https://animefire.plus/img/animes/urusei-yatsura-2022-2nd-season/",
      "secao": "legendados",
      "pagina": 17,
      "total_episodios": 23,
      "link_video": "https://animefire.plus/video/urusei-yatsura-2022-2nd-season"
    },
    {
      "id": 4045,
      "nome": "Ushio To Tora (TV)",
      "link": "https://animefire.plus/animes/ushio-to-tora-tv-todos-os-episodios",
      "texto_original": "Ushio To Tora (TV)",
      "rating": 7.65,
      "classificacao_etaria": "A14",
      "imagem_original": "https://animefire.plus/img/animes/ushio-to-tora-tv.webp",
      "imagem_pasta": "https://animefire.plus/img/animes/ushio-to-tora-tv/",
      "secao": "legendados",
      "pagina": 100,
      "total_episodios": 2,
      "link_video": "https://animefire.plus/video/ushio-to-tora-tv"
    },
    {
      "id": 4048,
      "nome": "Uta no☆Prince-sama♪ Maji Love 1000%",
      "link": "https://animefire.plus/animes/uta-no-prince-sama-maji-love-1000-todos-os-episodios",
      "texto_original": "Uta no☆Prince-sama♪ Maji Love 1000%",
      "rating": 7.26,
      "classificacao_etaria": "A14",
      "imagem_original": "https://animefire.plus/img/animes/uta-no-prince-sama-maji-love-1000.webp",
      "imagem_pasta": "https://animefire.plus/img/animes/uta-no-prince-sama-maji-love-1000/",
      "secao": "legendados",
      "pagina": 131,
      "total_episodios": 13,
      "link_video": "https://animefire.plus/video/uta-no-prince-sama-maji-love-1000"
    },
    {
      "id": 4049,
      "nome": "Uta no☆Prince-sama♪ Maji Love Legend Star",
      "link": "https://animefire.plus/animes/uta-no-prince-sama-maji-love-legend-star-todos-os-episodios",
      "texto_original": "Uta no☆Prince-sama♪ Maji Love Legend Star",
      "rating": 7.35,
      "classificacao_etaria": "A14",
      "imagem_original": "https://animefire.plus/img/animes/uta-no-prince-sama-maji-love-legend-star.webp",
      "imagem_pasta": "https://animefire.plus/img/animes/uta-no-prince-sama-maji-love-legend-star/",
      "secao": "legendados",
      "pagina": 160,
      "total_episodios": 8,
      "link_video": "https://animefire.plus/video/uta-no-prince-sama-maji-love-legend-star"
    },
    {
      "id": 4051,
      "nome": "Utawarerumono",
      "link": "https://animefire.plus/animes/utawarerumono-todos-os-episodios",
      "texto_original": "Utawarerumono",
      "rating": 7.72,
      "classificacao_etaria": "A16",
      "imagem_original": "https://animefire.plus/img/animes/utawarerumono.webp",
      "imagem_pasta": "https://animefire.plus/img/animes/utawarerumono/",
      "secao": "legendados",
      "pagina": 145,
      "total_episodios": 26,
      "link_video": "https://animefire.plus/video/utawarerumono"
    },
    {
      "id": 4052,
      "nome": "Utawarerumono: Futari no Hakuoro",
      "link": "https://animefire.plus/animes/utawarerumono-futari-no-hakuoro-todos-os-episodios",
      "texto_original": "Utawarerumono: Futari no Hakuoro",
      "rating": 7.51,
      "classificacao_etaria": "A14",
      "imagem_original": "https://animefire.plus/img/animes/utawarerumono-futari-no-hakuoro.webp",
      "imagem_pasta": "https://animefire.plus/img/animes/utawarerumono-futari-no-hakuoro/",
      "secao": "legendados",
      "pagina": 32,
      "total_episodios": 28,
      "link_video": "https://animefire.plus/video/utawarerumono-futari-no-hakuoro"
    },
    {
      "id": 4053,
      "nome": "Utawarerumono: Itsuwari No Kamen",
      "link": "https://animefire.plus/animes/utawarerumono-itsuwari-no-kamen-todos-os-episodios",
      "texto_original": "Utawarerumono: Itsuwari No Kamen",
      "rating": 7.31,
      "classificacao_etaria": "A14",
      "imagem_original": "https://animefire.plus/img/animes/utawarerumono-itsuwari-no-kamen.webp",
      "imagem_pasta": "https://animefire.plus/img/animes/utawarerumono-itsuwari-no-kamen/",
      "secao": "legendados",
      "pagina": 95,
      "total_episodios": 25,
      "link_video": "https://animefire.plus/video/utawarerumono-itsuwari-no-kamen"
    },
    {
      "id": 4055,
      "nome": "Uzaki-chan wa Asobitai! (Dublado)",
      "link": "https://animefire.plus/animes/uzaki-chan-wa-asobitai-dublado-todos-os-episodios",
      "texto_original": "Uzaki-chan wa Asobitai! (Dublado)",
      "rating": 7,
      "classificacao_etaria": "A14",
      "imagem_original": "https://animefire.plus/img/animes/uzaki-chan-wa-asobitai.webp",
      "imagem_pasta": "https://animefire.plus/img/animes/uzaki-chan-wa-asobitai/",
      "secao": "dublados,legendados",
      "pagina": 9,
      "total_episodios": 12,
      "link_video": "https://animefire.plus/video/uzaki-chan-wa-asobitai-dublado"
    },
    {
      "id": 4056,
      "nome": "Uzaki-chan wa Asobitai! Double (Dublado)",
      "link": "https://animefire.plus/animes/uzaki-chan-wa-asobitai-double-dublado-todos-os-episodios",
      "texto_original": "Uzaki-chan wa Asobitai! Double (Dublado)",
      "rating": 7.24,
      "classificacao_etaria": "A14",
      "imagem_original": "https://animefire.plus/img/animes/uzaki-chan-wa-asobitai-double.webp",
      "imagem_pasta": "https://animefire.plus/img/animes/uzaki-chan-wa-asobitai-double/",
      "secao": "dublados,legendados",
      "pagina": 9,
      "total_episodios": 13,
      "link_video": "https://animefire.plus/video/uzaki-chan-wa-asobitai-double-dublado"
    },
    {
      "id": 4063,
      "nome": "Vampire in the Garden (Dublado)",
      "link": "https://animefire.plus/animes/vampire-in-the-garden-dublado-todos-os-episodios",
      "texto_original": "Vampire in the Garden (Dublado)",
      "rating": 7.14,
      "classificacao_etaria": "A14",
      "imagem_original": "https://animefire.plus/img/animes/vampire-in-the-garden.webp",
      "imagem_pasta": "https://animefire.plus/img/animes/vampire-in-the-garden/",
      "secao": "dublados,legendados",
      "pagina": 11,
      "total_episodios": 5,
      "link_video": "https://animefire.plus/video/vampire-in-the-garden-dublado"
    },
    {
      "id": 4064,
      "nome": "Vampire Knight",
      "link": "https://animefire.plus/animes/vampire-knight-todos-os-episodios",
      "texto_original": "Vampire Knight",
      "rating": 7.25,
      "classificacao_etaria": "A14",
      "imagem_original": "https://animefire.plus/img/animes/vampire-knight.webp",
      "imagem_pasta": "https://animefire.plus/img/animes/vampire-knight/",
      "secao": "legendados",
      "pagina": 169,
      "total_episodios": 13,
      "link_video": "https://animefire.plus/video/vampire-knight"
    },
    {
      "id": 4065,
      "nome": "Vampire Knight: Guilty",
      "link": "https://animefire.plus/animes/vampire-knight-guilty-todos-os-episodios",
      "texto_original": "Vampire Knight: Guilty",
      "rating": 7.41,
      "classificacao_etaria": "A14",
      "imagem_original": "https://animefire.plus/img/animes/vampire-knight-guilty.webp",
      "imagem_pasta": "https://animefire.plus/img/animes/vampire-knight-guilty/",
      "secao": "legendados",
      "pagina": 155,
      "total_episodios": 13,
      "link_video": "https://animefire.plus/video/vampire-knight-guilty"
    },
    {
      "id": 4066,
      "nome": "Vandread",
      "link": "https://animefire.plus/animes/vandread-todos-os-episodios",
      "texto_original": "Vandread",
      "rating": 7.27,
      "classificacao_etaria": "A14",
      "imagem_original": "https://animefire.plus/img/animes/vandread.webp",
      "imagem_pasta": "https://animefire.plus/img/animes/vandread/",
      "secao": "legendados",
      "pagina": 134,
      "total_episodios": 13,
      "link_video": "https://animefire.plus/video/vandread"
    },
    {
      "id": 4067,
      "nome": "Vandread: The Second Stage",
      "link": "https://animefire.plus/animes/vandread-the-second-stage-todos-os-episodios",
      "texto_original": "Vandread: The Second Stage",
      "rating": 7.48,
      "classificacao_etaria": "A14",
      "imagem_original": "https://animefire.plus/img/animes/vandread-the-second-stage.webp",
      "imagem_pasta": "https://animefire.plus/img/animes/vandread-the-second-stage/",
      "secao": "legendados",
      "pagina": 165,
      "total_episodios": 13,
      "link_video": "https://animefire.plus/video/vandread-the-second-stage"
    },
    {
      "id": 4068,
      "nome": "Vanitas no Carte (Dublado)",
      "link": "https://animefire.plus/animes/vanitas-no-carte-dublado-todos-os-episodios",
      "texto_original": "Vanitas no Carte (Dublado)",
      "rating": 7.9,
      "classificacao_etaria": "A16",
      "imagem_original": "https://animefire.plus/img/animes/vanitas-no-carte.webp",
      "imagem_pasta": "https://animefire.plus/img/animes/vanitas-no-carte/",
      "secao": "dublados,legendados",
      "pagina": 16,
      "total_episodios": 12,
      "link_video": "https://animefire.plus/video/vanitas-no-carte-dublado"
    },
    {
      "id": 4077,
      "nome": "Video Girl Ai",
      "link": "https://animefire.plus/animes/video-girl-ai-todos-os-episodios",
      "texto_original": "Video Girl Ai",
      "rating": 7.23,
      "classificacao_etaria": "A18",
      "imagem_original": "https://animefire.plus/img/animes/video-girl-ai.webp",
      "imagem_pasta": "https://animefire.plus/img/animes/video-girl-ai/",
      "secao": "legendados",
      "pagina": 77,
      "total_episodios": 6,
      "link_video": "https://animefire.plus/video/video-girl-ai"
    },
    {
      "id": 4079,
      "nome": "Vigilante: Boku no Hero Academia Illegals (Dublado)",
      "link": "https://animefire.plus/animes/vigilante-boku-no-hero-academia-illegals-dublado-todos-os-episodios",
      "texto_original": "Vigilante: Boku no Hero Academia Illegals (Dublado)",
      "rating": 7.62,
      "classificacao_etaria": "A14",
      "imagem_original": "https://animefire.plus/img/animes/vigilante-boku-no-hero-academia-illegals.webp",
      "imagem_pasta": "https://animefire.plus/img/animes/vigilante-boku-no-hero-academia-illegals/",
      "secao": "dublados,legendados,lancamentos",
      "pagina": 1,
      "total_episodios": 13,
      "link_video": "https://animefire.plus/video/vigilante-boku-no-hero-academia-illegals-dublado"
    },
    {
      "id": 4086,
      "nome": "ViVid Strike!",
      "link": "https://animefire.plus/animes/vivid-strike-todos-os-episodios",
      "texto_original": "ViVid Strike!",
      "rating": 7.22,
      "classificacao_etaria": "A14",
      "imagem_original": "https://animefire.plus/img/animes/vivid-strike.webp",
      "imagem_pasta": "https://animefire.plus/img/animes/vivid-strike/",
      "secao": "legendados",
      "pagina": 142,
      "total_episodios": 5,
      "link_video": "https://animefire.plus/video/vivid-strike"
    },
    {
      "id": 4090,
      "nome": "VTuber Nandaga Haishin Kiri Wasuretara Densetsu ni Natteta",
      "link": "https://animefire.plus/animes/vtuber-nandaga-haishin-kiri-wasuretara-densetsu-ni-natteta-todos-os-episodios",
      "texto_original": "VTuber Nandaga Haishin Kiri Wasuretara Densetsu ni Natteta",
      "rating": 7.03,
      "classificacao_etaria": "A14",
      "imagem_original": "https://animefire.plus/img/animes/vtuber-nandaga-haishin-kiri-wasuretara-densetsu-ni-natteta.webp",
      "imagem_pasta": "https://animefire.plus/img/animes/vtuber-nandaga-haishin-kiri-wasuretara-densetsu-ni-natteta/",
      "secao": "legendados",
      "pagina": 11,
      "total_episodios": 12,
      "link_video": "https://animefire.plus/video/vtuber-nandaga-haishin-kiri-wasuretara-densetsu-ni-natteta"
    },
    {
      "id": 4092,
      "nome": "Waccha PriMagi!",
      "link": "https://animefire.plus/animes/waccha-primagi-todos-os-episodios",
      "texto_original": "Waccha PriMagi!",
      "rating": 7.04,
      "classificacao_etaria": null,
      "imagem_original": "https://animefire.plus/img/animes/waccha-primagi.webp",
      "imagem_pasta": "https://animefire.plus/img/animes/waccha-primagi/",
      "secao": "legendados,lancamentos",
      "pagina": 38,
      "total_episodios": 12,
      "link_video": "https://animefire.plus/video/waccha-primagi"
    }
  ],
  "pagination": {
    "current_page": 89,
    "per_page": 20,
    "total_items": 1905,
    "total_pages": 96,
    "has_next": true,
    "has_prev": true
  }
}
