{
  "message": "Animes com rating entre 7 e 8",
  "rating_range": {
    "min": 7,
    "max": 8
  },
  "data": [
    {
      "id": 2183,
      "nome": "Kyoukai no Kanata",
      "link": "https://animefire.plus/animes/kyoukai-no-kanata-todos-os-episodios",
      "texto_original": "Kyoukai no Kanata",
      "rating": 7.86,
      "classificacao_etaria": "A14",
      "imagem_original": "https://animefire.plus/img/animes/kyoukai-no-kanata.webp",
      "imagem_pasta": "https://animefire.plus/img/animes/kyoukai-no-kanata/",
      "secao": "legendados",
      "pagina": 169,
      "total_episodios": 5,
      "link_video": "https://animefire.plus/video/kyoukai-no-kanata"
    },
    {
      "id": 2188,
      "nome": "Kyoukaisenjou no Horizon",
      "link": "https://animefire.plus/animes/kyoukaisenjou-no-horizon-todos-os-episodios",
      "texto_original": "Kyoukaisenjou no Horizon",
      "rating": 7.19,
      "classificacao_etaria": "A14",
      "imagem_original": "https://animefire.plus/img/animes/kyoukaisenjou-no-horizon.webp",
      "imagem_pasta": "https://animefire.plus/img/animes/kyoukaisenjou-no-horizon/",
      "secao": "legendados",
      "pagina": 171,
      "total_episodios": 13,
      "link_video": "https://animefire.plus/video/kyoukaisenjou-no-horizon"
    },
    {
      "id": 2189,
      "nome": "Kyoukaisenjou no Horizon II",
      "link": "https://animefire.plus/animes/kyoukaisenjou-no-horizon-ii-todos-os-episodios",
      "texto_original": "Kyoukaisenjou no Horizon II",
      "rating": 7.63,
      "classificacao_etaria": "A18",
      "imagem_original": "https://animefire.plus/img/animes/kyoukaisenjou-no-horizon-ii.webp",
      "imagem_pasta": "https://animefire.plus/img/animes/kyoukaisenjou-no-horizon-ii/",
      "secao": "legendados",
      "pagina": 136,
      "total_episodios": 7,
      "link_video": "https://animefire.plus/video/kyoukaisenjou-no-horizon-ii"
    },
    {
      "id": 2191,
      "nome": "Kyoushoku Soukou Guyver (2005)",
      "link": "https://animefire.plus/animes/kyoushoku-soukou-guyver-2005-todos-os-episodios",
      "texto_original": "Kyoushoku Soukou Guyver (2005)",
      "rating": 7.27,
      "classificacao_etaria": "A14",
      "imagem_original": "https://animefire.plus/img/animes/kyoushoku-soukou-guyver-2005.webp",
      "imagem_pasta": "https://animefire.plus/img/animes/kyoushoku-soukou-guyver-2005/",
      "secao": "legendados",
      "pagina": 68,
      "total_episodios": 24,
      "link_video": "https://animefire.plus/video/kyoushoku-soukou-guyver-2005"
    },
    {
      "id": 2192,
      "nome": "Kyousou Giga (TV)",
      "link": "https://animefire.plus/animes/kyousou-giga-tv-todos-os-episodios",
      "texto_original": "Kyousou Giga (TV)",
      "rating": 7.84,
      "classificacao_etaria": "A14",
      "imagem_original": "https://animefire.plus/img/animes/kyousou-giga-tv.webp",
      "imagem_pasta": "https://animefire.plus/img/animes/kyousou-giga-tv/",
      "secao": "legendados",
      "pagina": 94,
      "total_episodios": 10,
      "link_video": "https://animefire.plus/video/kyousou-giga-tv"
    },
    {
      "id": 2193,
      "nome": "Kyuujitsu no Warumono-san",
      "link": "https://animefire.plus/animes/kyuujitsu-no-warumono-san-todos-os-episodios",
      "texto_original": "Kyuujitsu no Warumono-san",
      "rating": 7.25,
      "classificacao_etaria": "A14",
      "imagem_original": "https://animefire.plus/img/animes/kyuujitsu-no-warumono-san.webp",
      "imagem_pasta": "https://animefire.plus/img/animes/kyuujitsu-no-warumono-san/",
      "secao": "legendados",
      "pagina": 17,
      "total_episodios": 12,
      "link_video": "https://animefire.plus/video/kyuujitsu-no-warumono-san"
    },
    {
      "id": 2194,
      "nome": "Kyuuketsuhime Miyu",
      "link": "https://animefire.plus/animes/kyuuketsuhime-miyu-todos-os-episodios",
      "texto_original": "Kyuuketsuhime Miyu",
      "rating": 7.01,
      "classificacao_etaria": "A14",
      "imagem_original": "https://animefire.plus/img/animes/kyuuketsuhime-miyu.webp",
      "imagem_pasta": "https://animefire.plus/img/animes/kyuuketsuhime-miyu/",
      "secao": "legendados",
      "pagina": 66,
      "total_episodios": 4,
      "link_video": "https://animefire.plus/video/kyuuketsuhime-miyu"
    },
    {
      "id": 2195,
      "nome": "Kyuuketsuhime Miyu (TV)",
      "link": "https://animefire.plus/animes/kyuuketsuhime-miyu-tv-todos-os-episodios",
      "texto_original": "Kyuuketsuhime Miyu (TV)",
      "rating": 7.2,
      "classificacao_etaria": "A16",
      "imagem_original": "https://animefire.plus/img/animes/kyuuketsuhime-miyu-tv.webp",
      "imagem_pasta": "https://animefire.plus/img/animes/kyuuketsuhime-miyu-tv/",
      "secao": "legendados",
      "pagina": 158,
      "total_episodios": 26,
      "link_video": "https://animefire.plus/video/kyuuketsuhime-miyu-tv"
    },
    {
      "id": 2196,
      "nome": "Kyuuketsuki Sugu Shinu (Dublado)",
      "link": "https://animefire.plus/animes/kyuuketsuki-sugu-shinu-dublado-todos-os-episodios",
      "texto_original": "Kyuuketsuki Sugu Shinu (Dublado)",
      "rating": 7.27,
      "classificacao_etaria": "A14",
      "imagem_original": "https://animefire.plus/img/animes/kyuuketsuki-sugu-shinu.webp",
      "imagem_pasta": "https://animefire.plus/img/animes/kyuuketsuki-sugu-shinu/",
      "secao": "dublados,legendados",
      "pagina": 14,
      "total_episodios": 12,
      "link_video": "https://animefire.plus/video/kyuuketsuki-sugu-shinu-dublado"
    },
    {
      "id": 2197,
      "nome": "Kyuuketsuki Sugu Shinu 2",
      "link": "https://animefire.plus/animes/kyuuketsuki-sugu-shinu-2-todos-os-episodios",
      "texto_original": "Kyuuketsuki Sugu Shinu 2",
      "rating": 7.45,
      "classificacao_etaria": "A14",
      "imagem_original": "https://animefire.plus/img/animes/kyuuketsuki-sugu-shinu-2.webp",
      "imagem_pasta": "https://animefire.plus/img/animes/kyuuketsuki-sugu-shinu-2/",
      "secao": "legendados",
      "pagina": 25,
      "total_episodios": 12,
      "link_video": "https://animefire.plus/video/kyuuketsuki-sugu-shinu-2"
    },
    {
      "id": 2200,
      "nome": "Lady Jewelpet",
      "link": "https://animefire.plus/animes/lady-jewelpet-todos-os-episodios",
      "texto_original": "Lady Jewelpet",
      "rating": 7.4,
      "classificacao_etaria": "A10",
      "imagem_original": "https://animefire.plus/img/animes/lady-jewelpet.webp",
      "imagem_pasta": "https://animefire.plus/img/animes/lady-jewelpet/",
      "secao": "legendados",
      "pagina": 56,
      "total_episodios": 52,
      "link_video": "https://animefire.plus/video/lady-jewelpet"
    },
    {
      "id": 2205,
      "nome": "Last Exile",
      "link": "https://animefire.plus/animes/last-exile-todos-os-episodios",
      "texto_original": "Last Exile",
      "rating": 7.88,
      "classificacao_etaria": "A14",
      "imagem_original": "https://animefire.plus/img/animes/last-exile.webp",
      "imagem_pasta": "https://animefire.plus/img/animes/last-exile/",
      "secao": "legendados",
      "pagina": 124,
      "total_episodios": 26,
      "link_video": "https://animefire.plus/video/last-exile"
    },
    {
      "id": 2206,
      "nome": "Last Exile: Ginyoku no Fam",
      "link": "https://animefire.plus/animes/last-exile-ginyoku-no-fam-todos-os-episodios",
      "texto_original": "Last Exile: Ginyoku no Fam",
      "rating": 7.12,
      "classificacao_etaria": "A14",
      "imagem_original": "https://animefire.plus/img/animes/last-exile-ginyoku-no-fam.webp",
      "imagem_pasta": "https://animefire.plus/img/animes/last-exile-ginyoku-no-fam/",
      "secao": "legendados",
      "pagina": 132,
      "total_episodios": 21,
      "link_video": "https://animefire.plus/video/last-exile-ginyoku-no-fam"
    },
    {
      "id": 2208,
      "nome": "Layton Mystery Tanteisha: Katri no Nazotoki File",
      "link": "https://animefire.plus/animes/layton-mystery-tanteisha-katri-no-nazotoki-file-todos-os-episodios",
      "texto_original": "Layton Mystery Tanteisha: Katri no Nazotoki File",
      "rating": 7.33,
      "classificacao_etaria": "A10",
      "imagem_original": "https://animefire.plus/img/animes/layton-mystery-tanteisha-katri-no-nazotoki-file.webp",
      "imagem_pasta": "https://animefire.plus/img/animes/layton-mystery-tanteisha-katri-no-nazotoki-file/",
      "secao": "legendados",
      "pagina": 162,
      "total_episodios": 50,
      "link_video": "https://animefire.plus/video/layton-mystery-tanteisha-katri-no-nazotoki-file"
    },
    {
      "id": 2209,
      "nome": "Lazarus (Dublado)",
      "link": "https://animefire.plus/animes/lazarus-dublado-todos-os-episodios",
      "texto_original": "Lazarus (Dublado)",
      "rating": 7.56,
      "classificacao_etaria": "A14",
      "imagem_original": "https://animefire.plus/img/animes/lazarus.webp",
      "imagem_pasta": "https://animefire.plus/img/animes/lazarus/",
      "secao": "dublados,legendados,lancamentos",
      "pagina": 1,
      "total_episodios": 13,
      "link_video": "https://animefire.plus/video/lazarus-dublado"
    },
    {
      "id": 2210,
      "nome": "Le Chevalier D'Eon",
      "link": "https://animefire.plus/animes/le-chevalier-d-eon-todos-os-episodios",
      "texto_original": "Le Chevalier D'Eon",
      "rating": 7.25,
      "classificacao_etaria": "A16",
      "imagem_original": "https://animefire.plus/img/animes/le-chevalier-d-eon.webp",
      "imagem_pasta": "https://animefire.plus/img/animes/le-chevalier-d-eon/",
      "secao": "legendados",
      "pagina": 78,
      "total_episodios": 24,
      "link_video": "https://animefire.plus/video/le-chevalier-d-eon"
    },
    {
      "id": 2216,
      "nome": "Level E (Dublado)",
      "link": "https://animefire.plus/animes/level-e-dublado-todos-os-episodios",
      "texto_original": "Level E (Dublado)",
      "rating": 7.41,
      "classificacao_etaria": "A16",
      "imagem_original": "https://animefire.plus/img/animes/level-e.webp",
      "imagem_pasta": "https://animefire.plus/img/animes/level-e/",
      "secao": "dublados,legendados",
      "pagina": 4,
      "total_episodios": 13,
      "link_video": "https://animefire.plus/video/level-e-dublado"
    },
    {
      "id": 2217,
      "nome": "Levius (Dublado)",
      "link": "https://animefire.plus/animes/levius-dublado-todos-os-episodios",
      "texto_original": "Levius (Dublado)",
      "rating": 7.27,
      "classificacao_etaria": "A14",
      "imagem_original": "https://animefire.plus/img/animes/levius.webp",
      "imagem_pasta": "https://animefire.plus/img/animes/levius/",
      "secao": "dublados,legendados",
      "pagina": 25,
      "total_episodios": 12,
      "link_video": "https://animefire.plus/video/levius-dublado"
    },
    {
      "id": 2220,
      "nome": "Lie Huo Jiao Chou",
      "link": "https://animefire.plus/animes/lie-huo-jiao-chou-todos-os-episodios",
      "texto_original": "Lie Huo Jiao Chou",
      "rating": 7.28,
      "classificacao_etaria": "A14",
      "imagem_original": "https://animefire.plus/img/animes/lie-huo-jiao-chou.webp",
      "imagem_pasta": "https://animefire.plus/img/animes/lie-huo-jiao-chou/",
      "secao": "legendados",
      "pagina": 37,
      "total_episodios": 12,
      "link_video": "https://animefire.plus/video/lie-huo-jiao-chou"
    },
    {
      "id": 2222,
      "nome": "Ling Qi",
      "link": "https://animefire.plus/animes/ling-qi-todos-os-episodios",
      "texto_original": "Ling Qi",
      "rating": 7.21,
      "classificacao_etaria": "A14",
      "imagem_original": "https://animefire.plus/img/animes/ling-qi.webp",
      "imagem_pasta": "https://animefire.plus/img/animes/ling-qi/",
      "secao": "legendados",
      "pagina": 176,
      "total_episodios": 10,
      "link_video": "https://animefire.plus/video/ling-qi"
    }
  ],
  "pagination": {
    "current_page": 46,
    "per_page": 20,
    "total_items": 1905,
    "total_pages": 96,
    "has_next": true,
    "has_prev": true
  }
}
