{
  "message": "Animes com rating entre 7 e 8",
  "rating_range": {
    "min": 7,
    "max": 8
  },
  "data": [
    {
      "id": 1152,
      "nome": "Giant Killing",
      "link": "https://animefire.plus/animes/giant-killing-todos-os-episodios",
      "texto_original": "Giant Killing",
      "rating": 7.6,
      "classificacao_etaria": "A14",
      "imagem_original": "https://animefire.plus/img/animes/giant-killing.webp",
      "imagem_pasta": "https://animefire.plus/img/animes/giant-killing/",
      "secao": "legendados",
      "pagina": 67,
      "total_episodios": 26,
      "link_video": "https://animefire.plus/video/giant-killing"
    },
    {
      "id": 1155,
      "nome": "Giji Harem",
      "link": "https://animefire.plus/animes/giji-harem-todos-os-episodios",
      "texto_original": "Giji Harem",
      "rating": 7.83,
      "classificacao_etaria": "A14",
      "imagem_original": "https://animefire.plus/img/animes/giji-harem.webp",
      "imagem_pasta": "https://animefire.plus/img/animes/giji-harem/",
      "secao": "legendados",
      "pagina": 13,
      "total_episodios": 12,
      "link_video": "https://animefire.plus/video/giji-harem"
    },
    {
      "id": 1157,
      "nome": "Gimai Seikatsu",
      "link": "https://animefire.plus/animes/gimai-seikatsu-todos-os-episodios",
      "texto_original": "Gimai Seikatsu",
      "rating": 7.33,
      "classificacao_etaria": "A14",
      "imagem_original": "https://animefire.plus/img/animes/gimai-seikatsu.webp",
      "imagem_pasta": "https://animefire.plus/img/animes/gimai-seikatsu/",
      "secao": "legendados",
      "pagina": 13,
      "total_episodios": 12,
      "link_video": "https://animefire.plus/video/gimai-seikatsu"
    },
    {
      "id": 1162,
      "nome": "Ginban Kaleidoscope",
      "link": "https://animefire.plus/animes/ginban-kaleidoscope-todos-os-episodios",
      "texto_original": "Ginban Kaleidoscope",
      "rating": 7.41,
      "classificacao_etaria": "A14",
      "imagem_original": "https://animefire.plus/img/animes/ginban-kaleidoscope.webp",
      "imagem_pasta": "https://animefire.plus/img/animes/ginban-kaleidoscope/",
      "secao": "legendados",
      "pagina": 100,
      "total_episodios": 12,
      "link_video": "https://animefire.plus/video/ginban-kaleidoscope"
    },
    {
      "id": 1163,
      "nome": "Ginga e Kickoff!!",
      "link": "https://animefire.plus/animes/ginga-e-kickoff-todos-os-episodios",
      "texto_original": "Ginga e Kickoff!!",
      "rating": 7.33,
      "classificacao_etaria": "A10",
      "imagem_original": "https://animefire.plus/img/animes/ginga-e-kickoff.webp",
      "imagem_pasta": "https://animefire.plus/img/animes/ginga-e-kickoff/",
      "secao": "legendados",
      "pagina": 135,
      "total_episodios": 22,
      "link_video": "https://animefire.plus/video/ginga-e-kickoff"
    },
    {
      "id": 1165,
      "nome": "Ginga Eiyuu Densetsu: Die Neue These - Kaikou",
      "link": "https://animefire.plus/animes/ginga-eiyuu-densetsu-die-neue-these---kaikou-todos-os-episodios",
      "texto_original": "Ginga Eiyuu Densetsu: Die Neue These - Kaikou",
      "rating": 7.64,
      "classificacao_etaria": "A16",
      "imagem_original": "https://animefire.plus/img/animes/ginga-eiyuu-densetsu-die-neue-these---kaikou.webp",
      "imagem_pasta": "https://animefire.plus/img/animes/ginga-eiyuu-densetsu-die-neue-these---kaikou/",
      "secao": "legendados",
      "pagina": 177,
      "total_episodios": 10,
      "link_video": "https://animefire.plus/video/ginga-eiyuu-densetsu-die-neue-these---kaikou"
    },
    {
      "id": 1166,
      "nome": "Ginga Hyouryuu Vifam",
      "link": "https://animefire.plus/animes/ginga-hyouryuu-vifam-todos-os-episodios",
      "texto_original": "Ginga Hyouryuu Vifam",
      "rating": 7.09,
      "classificacao_etaria": null,
      "imagem_original": "https://animefire.plus/img/animes/ginga-hyouryuu-vifam.webp",
      "imagem_pasta": "https://animefire.plus/img/animes/ginga-hyouryuu-vifam/",
      "secao": "legendados",
      "pagina": 65,
      "total_episodios": 46,
      "link_video": "https://animefire.plus/video/ginga-hyouryuu-vifam"
    },
    {
      "id": 1167,
      "nome": "Ginga Kikoutai Majestic Prince",
      "link": "https://animefire.plus/animes/ginga-kikoutai-majestic-prince-todos-os-episodios",
      "texto_original": "Ginga Kikoutai Majestic Prince",
      "rating": 7.4,
      "classificacao_etaria": "A14",
      "imagem_original": "https://animefire.plus/img/animes/ginga-kikoutai-majestic-prince.webp",
      "imagem_pasta": "https://animefire.plus/img/animes/ginga-kikoutai-majestic-prince/",
      "secao": "legendados",
      "pagina": 175,
      "total_episodios": 24,
      "link_video": "https://animefire.plus/video/ginga-kikoutai-majestic-prince"
    },
    {
      "id": 1170,
      "nome": "Gingitsune",
      "link": "https://animefire.plus/animes/gingitsune-todos-os-episodios",
      "texto_original": "Gingitsune",
      "rating": 7.21,
      "classificacao_etaria": "A14",
      "imagem_original": "https://animefire.plus/img/animes/gingitsune.webp",
      "imagem_pasta": "https://animefire.plus/img/animes/gingitsune/",
      "secao": "legendados",
      "pagina": 94,
      "total_episodios": 12,
      "link_video": "https://animefire.plus/video/gingitsune"
    },
    {
      "id": 1173,
      "nome": "Gintama: Monster Strike-hen",
      "link": "https://animefire.plus/animes/gintama-monster-strike-hen-todos-os-episodios",
      "texto_original": "Gintama: Monster Strike-hen",
      "rating": 7.35,
      "classificacao_etaria": "A14",
      "imagem_original": "https://animefire.plus/img/animes/gintama-monster-strike-hen.webp",
      "imagem_pasta": "https://animefire.plus/img/animes/gintama-monster-strike-hen/",
      "secao": "legendados",
      "pagina": 94,
      "total_episodios": 1,
      "link_video": "https://animefire.plus/video/gintama-monster-strike-hen"
    },
    {
      "id": 1189,
      "nome": "Girls & Panzer",
      "link": "https://animefire.plus/animes/girls-panzer-todos-os-episodios",
      "texto_original": "Girls & Panzer",
      "rating": 7.63,
      "classificacao_etaria": "A14",
      "imagem_original": "https://animefire.plus/img/animes/girls-panzer.webp",
      "imagem_pasta": "https://animefire.plus/img/animes/girls-panzer/",
      "secao": "legendados",
      "pagina": 115,
      "total_episodios": 12,
      "link_video": "https://animefire.plus/video/girls-panzer"
    },
    {
      "id": 1196,
      "nome": "GJ-bu",
      "link": "https://animefire.plus/animes/gj-bu-todos-os-episodios",
      "texto_original": "GJ-bu",
      "rating": 7.41,
      "classificacao_etaria": "A14",
      "imagem_original": "https://animefire.plus/img/animes/gj-bu.webp",
      "imagem_pasta": "https://animefire.plus/img/animes/gj-bu/",
      "secao": "legendados",
      "pagina": 176,
      "total_episodios": 12,
      "link_video": "https://animefire.plus/video/gj-bu"
    },
    {
      "id": 1200,
      "nome": "Gleipnir (Dublado)",
      "link": "https://animefire.plus/animes/gleipnir-dublado-todos-os-episodios",
      "texto_original": "Gleipnir (Dublado)",
      "rating": 7.01,
      "classificacao_etaria": "A16",
      "imagem_original": "https://animefire.plus/img/animes/gleipnir.webp",
      "imagem_pasta": "https://animefire.plus/img/animes/gleipnir/",
      "secao": "dublados,legendados",
      "pagina": 14,
      "total_episodios": 13,
      "link_video": "https://animefire.plus/video/gleipnir-dublado"
    },
    {
      "id": 1202,
      "nome": "Go! Princess Precure",
      "link": "https://animefire.plus/animes/go-princess-precure-todos-os-episodios",
      "texto_original": "Go! Princess Precure",
      "rating": 7.71,
      "classificacao_etaria": null,
      "imagem_original": "https://animefire.plus/img/animes/go-princess-precure.webp",
      "imagem_pasta": "https://animefire.plus/img/animes/go-princess-precure/",
      "secao": "legendados",
      "pagina": 67,
      "total_episodios": 50,
      "link_video": "https://animefire.plus/video/go-princess-precure"
    },
    {
      "id": 1203,
      "nome": "Goblin Slayer (Dublado)",
      "link": "https://animefire.plus/animes/goblin-slayer-dublado-todos-os-episodios",
      "texto_original": "Goblin Slayer (Dublado)",
      "rating": 7.42,
      "classificacao_etaria": "A16",
      "imagem_original": "https://animefire.plus/img/animes/goblin-slayer.webp",
      "imagem_pasta": "https://animefire.plus/img/animes/goblin-slayer/",
      "secao": "dublados,legendados",
      "pagina": 2,
      "total_episodios": 0,
      "link_video": "https://animefire.plus/video/goblin-slayer-dublado"
    },
    {
      "id": 1204,
      "nome": "Goblin Slayer II (Dublado)",
      "link": "https://animefire.plus/animes/goblin-slayer-ii-dublado-todos-os-episodios",
      "texto_original": "Goblin Slayer II (Dublado)",
      "rating": 7.21,
      "classificacao_etaria": "A16",
      "imagem_original": "https://animefire.plus/img/animes/goblin-slayer-ii.webp",
      "imagem_pasta": "https://animefire.plus/img/animes/goblin-slayer-ii/",
      "secao": "dublados,legendados",
      "pagina": 5,
      "total_episodios": 12,
      "link_video": "https://animefire.plus/video/goblin-slayer-ii-dublado"
    },
    {
      "id": 1205,
      "nome": "Gochuumon wa Usagi Desu ka?",
      "link": "https://animefire.plus/animes/gochuumon-wa-usagi-desu-ka-todos-os-episodios",
      "texto_original": "Gochuumon wa Usagi Desu ka?",
      "rating": 7.58,
      "classificacao_etaria": "A14",
      "imagem_original": "https://animefire.plus/img/animes/gochuumon-wa-usagi-desu-ka.webp",
      "imagem_pasta": "https://animefire.plus/img/animes/gochuumon-wa-usagi-desu-ka/",
      "secao": "legendados",
      "pagina": 172,
      "total_episodios": 13,
      "link_video": "https://animefire.plus/video/gochuumon-wa-usagi-desu-ka"
    },
    {
      "id": 1207,
      "nome": "Gochuumon wa Usagi Desu ka??",
      "link": "https://animefire.plus/animes/is-the-order-a-rabbit-todos-os-episodios",
      "texto_original": "Gochuumon wa Usagi Desu ka??",
      "rating": 7.84,
      "classificacao_etaria": "A14",
      "imagem_original": "https://animefire.plus/img/animes/is-the-order-a-rabbit.webp",
      "imagem_pasta": "https://animefire.plus/img/animes/is-the-order-a-rabbit/",
      "secao": "legendados",
      "pagina": 51,
      "total_episodios": 12,
      "link_video": "https://animefire.plus/video/is-the-order-a-rabbit"
    },
    {
      "id": 1208,
      "nome": "Gochuumon wa Usagi Desu ka??: Sing for You",
      "link": "https://animefire.plus/animes/gochuumon-wa-usagi-desu-ka-sing-for-you-todos-os-episodios",
      "texto_original": "Gochuumon wa Usagi Desu ka??: Sing for You",
      "rating": 7.73,
      "classificacao_etaria": "A14",
      "imagem_original": "https://animefire.plus/img/animes/gochuumon-wa-usagi-desu-ka-sing-for-you.webp",
      "imagem_pasta": "https://animefire.plus/img/animes/gochuumon-wa-usagi-desu-ka-sing-for-you/",
      "secao": "legendados",
      "pagina": 88,
      "total_episodios": 1,
      "link_video": "https://animefire.plus/video/gochuumon-wa-usagi-desu-ka-sing-for-you"
    },
    {
      "id": 1209,
      "nome": "God Eater",
      "link": "https://animefire.plus/animes/god-eater-todos-os-episodios",
      "texto_original": "God Eater",
      "rating": 7.37,
      "classificacao_etaria": "A16",
      "imagem_original": "https://animefire.plus/img/animes/god-eater.webp",
      "imagem_pasta": "https://animefire.plus/img/animes/god-eater/",
      "secao": "legendados",
      "pagina": 73,
      "total_episodios": 13,
      "link_video": "https://animefire.plus/video/god-eater"
    }
  ],
  "pagination": {
    "current_page": 24,
    "per_page": 20,
    "total_items": 1905,
    "total_pages": 96,
    "has_next": true,
    "has_prev": true
  }
}
