{
  "message": "Animes com rating entre 7 e 8",
  "rating_range": {
    "min": 7,
    "max": 8
  },
  "data": [
    {
      "id": 2142,
      "nome": "Kure-nai",
      "link": "https://animefire.plus/animes/kure-nai-todos-os-episodios",
      "texto_original": "Kure-nai",
      "rating": 7.43,
      "classificacao_etaria": "A14",
      "imagem_original": "https://animefire.plus/img/animes/kure-nai.webp",
      "imagem_pasta": "https://animefire.plus/img/animes/kure-nai/",
      "secao": "legendados",
      "pagina": 167,
      "total_episodios": 12,
      "link_video": "https://animefire.plus/video/kure-nai"
    },
    {
      "id": 2146,
      "nome": "Kuro no Shoukanshi (Dublado)",
      "link": "https://animefire.plus/animes/kuro-no-shoukanshi-dublado-todos-os-episodios",
      "texto_original": "Kuro no Shoukanshi (Dublado)",
      "rating": 7.03,
      "classificacao_etaria": "A14",
      "imagem_original": "https://animefire.plus/img/animes/kuro-no-shoukanshi.webp",
      "imagem_pasta": "https://animefire.plus/img/animes/kuro-no-shoukanshi/",
      "secao": "dublados,legendados",
      "pagina": 10,
      "total_episodios": 12,
      "link_video": "https://animefire.plus/video/kuro-no-shoukanshi-dublado"
    },
    {
      "id": 2147,
      "nome": "Kurogane no Linebarrels",
      "link": "https://animefire.plus/animes/kurogane-no-linebarrels-todos-os-episodios",
      "texto_original": "Kurogane no Linebarrels",
      "rating": 7.01,
      "classificacao_etaria": "A16",
      "imagem_original": "https://animefire.plus/img/animes/kurogane-no-linebarrels.webp",
      "imagem_pasta": "https://animefire.plus/img/animes/kurogane-no-linebarrels/",
      "secao": "legendados",
      "pagina": 115,
      "total_episodios": 24,
      "link_video": "https://animefire.plus/video/kurogane-no-linebarrels"
    },
    {
      "id": 2149,
      "nome": "Kurokami The Animation",
      "link": "https://animefire.plus/animes/kurokami-the-animation-todos-os-episodios",
      "texto_original": "Kurokami The Animation",
      "rating": 7.22,
      "classificacao_etaria": "A16",
      "imagem_original": "https://animefire.plus/img/animes/kurokami-the-animation.webp",
      "imagem_pasta": "https://animefire.plus/img/animes/kurokami-the-animation/",
      "secao": "legendados",
      "pagina": 177,
      "total_episodios": 23,
      "link_video": "https://animefire.plus/video/kurokami-the-animation"
    },
    {
      "id": 2153,
      "nome": "Kuroko no Basket: Last Game NG-shuu",
      "link": "https://animefire.plus/animes/kuroko-no-basket-last-game-ng-shuu-todos-os-episodios",
      "texto_original": "Kuroko no Basket: Last Game NG-shuu",
      "rating": 7.78,
      "classificacao_etaria": "A14",
      "imagem_original": "https://animefire.plus/img/animes/kuroko-no-basket-last-game-ng-shuu.webp",
      "imagem_pasta": "https://animefire.plus/img/animes/kuroko-no-basket-last-game-ng-shuu/",
      "secao": "legendados",
      "pagina": 87,
      "total_episodios": 1,
      "link_video": "https://animefire.plus/video/kuroko-no-basket-last-game-ng-shuu"
    },
    {
      "id": 2154,
      "nome": "Kuroko no Basket: Oshaberi Shiyou ka",
      "link": "https://animefire.plus/animes/kuroko-no-basket-oshaberi-shiyou-ka-todos-os-episodios",
      "texto_original": "Kuroko no Basket: Oshaberi Shiyou ka",
      "rating": 7.12,
      "classificacao_etaria": "A14",
      "imagem_original": "https://animefire.plus/img/animes/kuroko-no-basket-oshaberi-shiyou-ka.webp",
      "imagem_pasta": "https://animefire.plus/img/animes/kuroko-no-basket-oshaberi-shiyou-ka/",
      "secao": "legendados",
      "pagina": 87,
      "total_episodios": 1,
      "link_video": "https://animefire.plus/video/kuroko-no-basket-oshaberi-shiyou-ka"
    },
    {
      "id": 2156,
      "nome": "Kuromukuro",
      "link": "https://animefire.plus/animes/kuromukuro-todos-os-episodios",
      "texto_original": "Kuromukuro",
      "rating": 7.32,
      "classificacao_etaria": "A16",
      "imagem_original": "https://animefire.plus/img/animes/kuromukuro.webp",
      "imagem_pasta": "https://animefire.plus/img/animes/kuromukuro/",
      "secao": "legendados",
      "pagina": 106,
      "total_episodios": 25,
      "link_video": "https://animefire.plus/video/kuromukuro"
    },
    {
      "id": 2157,
      "nome": "Kuroshitsuji (Dublado)",
      "link": "https://animefire.plus/animes/kuroshitsuji-dublado-todos-os-episodios",
      "texto_original": "Kuroshitsuji (Dublado)",
      "rating": 7.71,
      "classificacao_etaria": "A16",
      "imagem_original": "https://animefire.plus/img/animes/kuroshitsuji.webp",
      "imagem_pasta": "https://animefire.plus/img/animes/kuroshitsuji/",
      "secao": "dublados,legendados",
      "pagina": 16,
      "total_episodios": 25,
      "link_video": "https://animefire.plus/video/kuroshitsuji-dublado"
    },
    {
      "id": 2158,
      "nome": "Kuroshitsuji II (Dublado)",
      "link": "https://animefire.plus/animes/kuroshitsuji-ii-dublado-todos-os-episodios",
      "texto_original": "Kuroshitsuji II (Dublado)",
      "rating": 7.19,
      "classificacao_etaria": "A16",
      "imagem_original": "https://animefire.plus/img/animes/kuroshitsuji-ii.webp",
      "imagem_pasta": "https://animefire.plus/img/animes/kuroshitsuji-ii/",
      "secao": "dublados,legendados",
      "pagina": 16,
      "total_episodios": 12,
      "link_video": "https://animefire.plus/video/kuroshitsuji-ii-dublado"
    },
    {
      "id": 2159,
      "nome": "Kuroshitsuji II Specials (Dublado)",
      "link": "https://animefire.plus/animes/kuroshitsuji-ii-specials-dublado-todos-os-episodios",
      "texto_original": "Kuroshitsuji II Specials (Dublado)",
      "rating": 7.44,
      "classificacao_etaria": "A14",
      "imagem_original": "https://animefire.plus/img/animes/kuroshitsuji-ii-specials.webp",
      "imagem_pasta": "https://animefire.plus/img/animes/kuroshitsuji-ii-specials/",
      "secao": "dublados,legendados",
      "pagina": 16,
      "total_episodios": 6,
      "link_video": "https://animefire.plus/video/kuroshitsuji-ii-specials-dublado"
    },
    {
      "id": 2162,
      "nome": "Kuroshitsuji: Kishuku Gakkou-hen",
      "link": "https://animefire.plus/animes/kuroshitsuji-kishuku-gakkou-hen-todos-os-episodios",
      "texto_original": "Kuroshitsuji: Kishuku Gakkou-hen",
      "rating": 7.86,
      "classificacao_etaria": "A16",
      "imagem_original": "https://animefire.plus/img/animes/kuroshitsuji-kishuku-gakkou-hen.webp",
      "imagem_pasta": "https://animefire.plus/img/animes/kuroshitsuji-kishuku-gakkou-hen/",
      "secao": "legendados",
      "pagina": 15,
      "total_episodios": 11,
      "link_video": "https://animefire.plus/video/kuroshitsuji-kishuku-gakkou-hen"
    },
    {
      "id": 2164,
      "nome": "Kurozuka",
      "link": "https://animefire.plus/animes/kurozuka-todos-os-episodios",
      "texto_original": "Kurozuka",
      "rating": 7,
      "classificacao_etaria": "A16",
      "imagem_original": "https://animefire.plus/img/animes/kurozuka.webp",
      "imagem_pasta": "https://animefire.plus/img/animes/kurozuka/",
      "secao": "legendados",
      "pagina": 158,
      "total_episodios": 0,
      "link_video": "https://animefire.plus/video/kurozuka"
    },
    {
      "id": 2171,
      "nome": "Kuutei Dragons (Dublado)",
      "link": "https://animefire.plus/animes/kuutei-dragons-dublado-todos-os-episodios",
      "texto_original": "Kuutei Dragons (Dublado)",
      "rating": 7.05,
      "classificacao_etaria": "A14",
      "imagem_original": "https://animefire.plus/img/animes/kuutei-dragons.webp",
      "imagem_pasta": "https://animefire.plus/img/animes/kuutei-dragons/",
      "secao": "dublados,legendados",
      "pagina": 23,
      "total_episodios": 12,
      "link_video": "https://animefire.plus/video/kuutei-dragons-dublado"
    },
    {
      "id": 2172,
      "nome": "Kuzu no Honkai",
      "link": "https://animefire.plus/animes/kuzu-no-honkai-todos-os-episodios",
      "texto_original": "Kuzu no Honkai",
      "rating": 7.48,
      "classificacao_etaria": "A18",
      "imagem_original": "https://animefire.plus/img/animes/kuzu-no-honkai.webp",
      "imagem_pasta": "https://animefire.plus/img/animes/kuzu-no-honkai/",
      "secao": "legendados",
      "pagina": 121,
      "total_episodios": 2,
      "link_video": "https://animefire.plus/video/kuzu-no-honkai"
    },
    {
      "id": 2175,
      "nome": "Kyokou Suiri Season 2",
      "link": "https://animefire.plus/animes/kyokou-suiri-season-2-todos-os-episodios",
      "texto_original": "Kyokou Suiri Season 2",
      "rating": 7.35,
      "classificacao_etaria": "A16",
      "imagem_original": "https://animefire.plus/img/animes/kyokou-suiri-season-2.webp",
      "imagem_pasta": "https://animefire.plus/img/animes/kyokou-suiri-season-2/",
      "secao": "legendados",
      "pagina": 27,
      "total_episodios": 12,
      "link_video": "https://animefire.plus/video/kyokou-suiri-season-2"
    },
    {
      "id": 2177,
      "nome": "Kyou kara Maou!",
      "link": "https://animefire.plus/animes/kyou-kara-maou-todos-os-episodios",
      "texto_original": "Kyou kara Maou!",
      "rating": 7.81,
      "classificacao_etaria": "A14",
      "imagem_original": "https://animefire.plus/img/animes/kyou-kara-maou.webp",
      "imagem_pasta": "https://animefire.plus/img/animes/kyou-kara-maou/",
      "secao": "legendados",
      "pagina": 135,
      "total_episodios": 76,
      "link_video": "https://animefire.plus/video/kyou-kara-maou"
    },
    {
      "id": 2178,
      "nome": "Kyou kara Maou! 3rd Series",
      "link": "https://animefire.plus/animes/kyou-kara-maou-3rd-series-todos-os-episodios",
      "texto_original": "Kyou kara Maou! 3rd Series",
      "rating": 7.85,
      "classificacao_etaria": "A14",
      "imagem_original": "https://animefire.plus/img/animes/kyou-kara-maou-3rd-series.webp",
      "imagem_pasta": "https://animefire.plus/img/animes/kyou-kara-maou-3rd-series/",
      "secao": "legendados",
      "pagina": 76,
      "total_episodios": 39,
      "link_video": "https://animefire.plus/video/kyou-kara-maou-3rd-series"
    },
    {
      "id": 2179,
      "nome": "Kyou kara Maou! R",
      "link": "https://animefire.plus/animes/kyou-kara-maou-r-todos-os-episodios",
      "texto_original": "Kyou kara Maou! R",
      "rating": 7.49,
      "classificacao_etaria": "A14",
      "imagem_original": "https://animefire.plus/img/animes/kyou-kara-maou-r.webp",
      "imagem_pasta": "https://animefire.plus/img/animes/kyou-kara-maou-r/",
      "secao": "legendados",
      "pagina": 76,
      "total_episodios": 5,
      "link_video": "https://animefire.plus/video/kyou-kara-maou-r"
    },
    {
      "id": 2180,
      "nome": "Kyou no 5 no 2",
      "link": "https://animefire.plus/animes/kyou-no-5-no-2-todos-os-episodios",
      "texto_original": "Kyou no 5 no 2",
      "rating": 7.27,
      "classificacao_etaria": "A14",
      "imagem_original": "https://animefire.plus/img/animes/kyou-no-5-no-2.webp",
      "imagem_pasta": "https://animefire.plus/img/animes/kyou-no-5-no-2/",
      "secao": "legendados",
      "pagina": 118,
      "total_episodios": 11,
      "link_video": "https://animefire.plus/video/kyou-no-5-no-2"
    },
    {
      "id": 2182,
      "nome": "Kyougoku Natsuhiko: Kousetsu Hyaku Monogatari",
      "link": "https://animefire.plus/animes/kyougoku-natsuhiko-kousetsu-hyaku-monogatari-todos-os-episodios",
      "texto_original": "Kyougoku Natsuhiko: Kousetsu Hyaku Monogatari",
      "rating": 7.2,
      "classificacao_etaria": "A16",
      "imagem_original": "https://animefire.plus/img/animes/kyougoku-natsuhiko-kousetsu-hyaku-monogatari.webp",
      "imagem_pasta": "https://animefire.plus/img/animes/kyougoku-natsuhiko-kousetsu-hyaku-monogatari/",
      "secao": "legendados",
      "pagina": 151,
      "total_episodios": 13,
      "link_video": "https://animefire.plus/video/kyougoku-natsuhiko-kousetsu-hyaku-monogatari"
    }
  ],
  "pagination": {
    "current_page": 45,
    "per_page": 20,
    "total_items": 1905,
    "total_pages": 96,
    "has_next": true,
    "has_prev": true
  }
}
