{
  "message": "Animes com rating entre 7 e 8",
  "rating_range": {
    "min": 7,
    "max": 8
  },
  "data": [
    {
      "id": 3649,
      "nome": "Strike the Blood IV",
      "link": "https://animefire.plus/animes/strike-the-blood-iv-todos-os-episodios",
      "texto_original": "Strike the Blood IV",
      "rating": 7.06,
      "classificacao_etaria": "A18",
      "imagem_original": "https://animefire.plus/img/animes/strike-the-blood-iv.webp",
      "imagem_pasta": "https://animefire.plus/img/animes/strike-the-blood-iv/",
      "secao": "legendados",
      "pagina": 80,
      "total_episodios": 12,
      "link_video": "https://animefire.plus/video/strike-the-blood-iv"
    },
    {
      "id": 3651,
      "nome": "Strike the Blood: Valkyria no Oukoku-hen",
      "link": "https://animefire.plus/animes/strike-the-blood-valkyria-no-oukoku-hen-todos-os-episodios",
      "texto_original": "Strike the Blood: Valkyria no Oukoku-hen",
      "rating": 7.32,
      "classificacao_etaria": "A18",
      "imagem_original": "https://animefire.plus/img/animes/strike-the-blood-valkyria-no-oukoku-hen.webp",
      "imagem_pasta": "https://animefire.plus/img/animes/strike-the-blood-valkyria-no-oukoku-hen/",
      "secao": "legendados",
      "pagina": 56,
      "total_episodios": 2,
      "link_video": "https://animefire.plus/video/strike-the-blood-valkyria-no-oukoku-hen"
    },
    {
      "id": 3652,
      "nome": "Strike Witches",
      "link": "https://animefire.plus/animes/strike-witches-todos-os-episodios",
      "texto_original": "Strike Witches",
      "rating": 7.08,
      "classificacao_etaria": "A18",
      "imagem_original": "https://animefire.plus/img/animes/strike-witches.webp",
      "imagem_pasta": "https://animefire.plus/img/animes/strike-witches/",
      "secao": "legendados",
      "pagina": 134,
      "total_episodios": 12,
      "link_video": "https://animefire.plus/video/strike-witches"
    },
    {
      "id": 3653,
      "nome": "Strike Witches 2",
      "link": "https://animefire.plus/animes/strike-witches-2-todos-os-episodios",
      "texto_original": "Strike Witches 2",
      "rating": 7.38,
      "classificacao_etaria": "A18",
      "imagem_original": "https://animefire.plus/img/animes/strike-witches-2.webp",
      "imagem_pasta": "https://animefire.plus/img/animes/strike-witches-2/",
      "secao": "legendados",
      "pagina": 131,
      "total_episodios": 12,
      "link_video": "https://animefire.plus/video/strike-witches-2"
    },
    {
      "id": 3656,
      "nome": "Strike Witches: Operation Victory Arrow",
      "link": "https://animefire.plus/animes/strike-witches-operation-victory-arrow-todos-os-episodios",
      "texto_original": "Strike Witches: Operation Victory Arrow",
      "rating": 7.36,
      "classificacao_etaria": "A18",
      "imagem_original": "https://animefire.plus/img/animes/strike-witches-operation-victory-arrow.webp",
      "imagem_pasta": "https://animefire.plus/img/animes/strike-witches-operation-victory-arrow/",
      "secao": "legendados",
      "pagina": 44,
      "total_episodios": 3,
      "link_video": "https://animefire.plus/video/strike-witches-operation-victory-arrow"
    },
    {
      "id": 3659,
      "nome": "Subete ga F ni Naru",
      "link": "https://animefire.plus/animes/subete-ga-f-ni-naru-todos-os-episodios",
      "texto_original": "Subete ga F ni Naru",
      "rating": 7.29,
      "classificacao_etaria": "A16",
      "imagem_original": "https://animefire.plus/img/animes/subete-ga-f-ni-naru.webp",
      "imagem_pasta": "https://animefire.plus/img/animes/subete-ga-f-ni-naru/",
      "secao": "legendados",
      "pagina": 68,
      "total_episodios": 11,
      "link_video": "https://animefire.plus/video/subete-ga-f-ni-naru"
    },
    {
      "id": 3661,
      "nome": "Sugar Apple Fairy Tale",
      "link": "https://animefire.plus/animes/sugar-apple-fairy-tale-todos-os-episodios",
      "texto_original": "Sugar Apple Fairy Tale",
      "rating": 7.46,
      "classificacao_etaria": "A14",
      "imagem_original": "https://animefire.plus/img/animes/sugar-apple-fairy-tale.webp",
      "imagem_pasta": "https://animefire.plus/img/animes/sugar-apple-fairy-tale/",
      "secao": "legendados",
      "pagina": 26,
      "total_episodios": 14,
      "link_video": "https://animefire.plus/video/sugar-apple-fairy-tale"
    },
    {
      "id": 3662,
      "nome": "Sugar Apple Fairy Tale Part 2",
      "link": "https://animefire.plus/animes/sugar-apple-fairy-tale-part-2-todos-os-episodios",
      "texto_original": "Sugar Apple Fairy Tale Part 2",
      "rating": 7.64,
      "classificacao_etaria": "A14",
      "imagem_original": "https://animefire.plus/img/animes/sugar-apple-fairy-tale-part-2.webp",
      "imagem_pasta": "https://animefire.plus/img/animes/sugar-apple-fairy-tale-part-2/",
      "secao": "legendados",
      "pagina": 22,
      "total_episodios": 12,
      "link_video": "https://animefire.plus/video/sugar-apple-fairy-tale-part-2"
    },
    {
      "id": 3663,
      "nome": "Sugar Sugar Rune",
      "link": "https://animefire.plus/animes/sugar-sugar-rune-todos-os-episodios",
      "texto_original": "Sugar Sugar Rune",
      "rating": 7.45,
      "classificacao_etaria": "A10",
      "imagem_original": "https://animefire.plus/img/animes/sugar-sugar-rune.webp",
      "imagem_pasta": "https://animefire.plus/img/animes/sugar-sugar-rune/",
      "secao": "legendados",
      "pagina": 55,
      "total_episodios": 51,
      "link_video": "https://animefire.plus/video/sugar-sugar-rune"
    },
    {
      "id": 3664,
      "nome": "Suisei no Gargantia",
      "link": "https://animefire.plus/animes/suisei-no-gargantia-todos-os-episodios",
      "texto_original": "Suisei no Gargantia",
      "rating": 7.57,
      "classificacao_etaria": "A14",
      "imagem_original": "https://animefire.plus/img/animes/suisei-no-gargantia.webp",
      "imagem_pasta": "https://animefire.plus/img/animes/suisei-no-gargantia/",
      "secao": "legendados",
      "pagina": 135,
      "total_episodios": 13,
      "link_video": "https://animefire.plus/video/suisei-no-gargantia"
    },
    {
      "id": 3665,
      "nome": "Suisei no Gargantia: Meguru Kouro, Haruka",
      "link": "https://animefire.plus/animes/suisei-no-gargantia-meguru-kouro-haruka-todos-os-episodios",
      "texto_original": "Suisei no Gargantia: Meguru Kouro, Haruka",
      "rating": 7.36,
      "classificacao_etaria": "A14",
      "imagem_original": "https://animefire.plus/img/animes/suisei-no-gargantia-meguru-kouro-haruka.webp",
      "imagem_pasta": "https://animefire.plus/img/animes/suisei-no-gargantia-meguru-kouro-haruka/",
      "secao": "legendados",
      "pagina": 40,
      "total_episodios": 2,
      "link_video": "https://animefire.plus/video/suisei-no-gargantia-meguru-kouro-haruka"
    },
    {
      "id": 3666,
      "nome": "Suite Precure♪",
      "link": "https://animefire.plus/animes/suite-precure-todos-os-episodios",
      "texto_original": "Suite Precure♪",
      "rating": 7.35,
      "classificacao_etaria": null,
      "imagem_original": "https://animefire.plus/img/animes/suite-precure.webp",
      "imagem_pasta": "https://animefire.plus/img/animes/suite-precure/",
      "secao": "legendados",
      "pagina": 139,
      "total_episodios": 46,
      "link_video": "https://animefire.plus/video/suite-precure"
    },
    {
      "id": 3668,
      "nome": "Suki na Ko ga Megane wo Wasureta",
      "link": "https://animefire.plus/animes/suki-na-ko-ga-megane-wo-wasureta-todos-os-episodios",
      "texto_original": "Suki na Ko ga Megane wo Wasureta",
      "rating": 7.14,
      "classificacao_etaria": "A14",
      "imagem_original": "https://animefire.plus/img/animes/suki-na-ko-ga-megane-wo-wasureta.jpg",
      "imagem_pasta": "https://animefire.plus/img/animes/suki-na-ko-ga-megane-wo-wasureta/",
      "secao": "legendados",
      "pagina": 23,
      "total_episodios": 13,
      "link_video": "https://animefire.plus/video/suki-na-ko-ga-megane-wo-wasureta"
    },
    {
      "id": 3669,
      "nome": "Sukitte Ii na yo.",
      "link": "https://animefire.plus/animes/sukitte-ii-na-yo-todos-os-episodios",
      "texto_original": "Sukitte Ii na yo.",
      "rating": 7.64,
      "classificacao_etaria": "A14",
      "imagem_original": "https://animefire.plus/img/animes/sukitte-ii-na-yo.webp",
      "imagem_pasta": "https://animefire.plus/img/animes/sukitte-ii-na-yo/",
      "secao": "legendados",
      "pagina": 162,
      "total_episodios": 0,
      "link_video": "https://animefire.plus/video/sukitte-ii-na-yo"
    },
    {
      "id": 3670,
      "nome": "Sukitte Ii na yo.: Dareka ga",
      "link": "https://animefire.plus/animes/sukitte-ii-na-yo-dareka-ga-todos-os-episodios",
      "texto_original": "Sukitte Ii na yo.: Dareka ga",
      "rating": 7.27,
      "classificacao_etaria": "A14",
      "imagem_original": "https://animefire.plus/img/animes/sukitte-ii-na-yo-dareka-ga.webp",
      "imagem_pasta": "https://animefire.plus/img/animes/sukitte-ii-na-yo-dareka-ga/",
      "secao": "legendados",
      "pagina": 42,
      "total_episodios": 1,
      "link_video": "https://animefire.plus/video/sukitte-ii-na-yo-dareka-ga"
    },
    {
      "id": 3671,
      "nome": "Summer Pockets",
      "link": "https://animefire.plus/animes/summer-pockets-todos-os-episodios",
      "texto_original": "Summer Pockets",
      "rating": 7.29,
      "classificacao_etaria": "A14",
      "imagem_original": "https://animefire.plus/img/animes/summer-pockets.webp",
      "imagem_pasta": "https://animefire.plus/img/animes/summer-pockets/",
      "secao": "legendados,lancamentos",
      "pagina": 5,
      "total_episodios": 17,
      "link_video": "https://animefire.plus/video/summer-pockets"
    },
    {
      "id": 3673,
      "nome": "Sumomomo Momomo: Chijou Saikyou no Yome",
      "link": "https://animefire.plus/animes/sumomomo-momomo-chijou-saikyou-no-yome-todos-os-episodios",
      "texto_original": "Sumomomo Momomo: Chijou Saikyou no Yome",
      "rating": 7,
      "classificacao_etaria": "A14",
      "imagem_original": "https://animefire.plus/img/animes/sumomomo-momomo-chijou-saikyou-no-yome.webp",
      "imagem_pasta": "https://animefire.plus/img/animes/sumomomo-momomo-chijou-saikyou-no-yome/",
      "secao": "legendados",
      "pagina": 157,
      "total_episodios": 24,
      "link_video": "https://animefire.plus/video/sumomomo-momomo-chijou-saikyou-no-yome"
    },
    {
      "id": 3674,
      "nome": "Sunohara-sou no Kanrinin-san",
      "link": "https://animefire.plus/animes/sunohara-sou-no-kanrinin-san-todos-os-episodios",
      "texto_original": "Sunohara-sou no Kanrinin-san",
      "rating": 7.05,
      "classificacao_etaria": "A14",
      "imagem_original": "https://animefire.plus/img/animes/sunohara-sou-no-kanrinin-san.webp",
      "imagem_pasta": "https://animefire.plus/img/animes/sunohara-sou-no-kanrinin-san/",
      "secao": "legendados",
      "pagina": 150,
      "total_episodios": 9,
      "link_video": "https://animefire.plus/video/sunohara-sou-no-kanrinin-san"
    },
    {
      "id": 3675,
      "nome": "Super Cub (Dublado)",
      "link": "https://animefire.plus/animes/super-cub-dublado-todos-os-episodios",
      "texto_original": "Super Cub (Dublado)",
      "rating": 7.45,
      "classificacao_etaria": "A14",
      "imagem_original": "https://animefire.plus/img/animes/super-cub.webp",
      "imagem_pasta": "https://animefire.plus/img/animes/super-cub/",
      "secao": "dublados,legendados",
      "pagina": 13,
      "total_episodios": 12,
      "link_video": "https://animefire.plus/video/super-cub-dublado"
    },
    {
      "id": 3676,
      "nome": "Super Danganronpa 2.5: Komaeda Nagito to Sekai no Hakaimono",
      "link": "https://animefire.plus/animes/super-danganronpa-2-5-komaeda-nagito-to-sekai-no-hakaimono-todos-os-episodios",
      "texto_original": "Super Danganronpa 2.5: Komaeda Nagito to Sekai no Hakaimono",
      "rating": 7.35,
      "classificacao_etaria": "A16",
      "imagem_original": "https://animefire.plus/img/animes/super-danganronpa-2-5-komaeda-nagito-to-sekai-no-hakaimono.webp",
      "imagem_pasta": "https://animefire.plus/img/animes/super-danganronpa-2-5-komaeda-nagito-to-sekai-no-hakaimono/",
      "secao": "legendados",
      "pagina": 174,
      "total_episodios": 1,
      "link_video": "https://animefire.plus/video/super-danganronpa-2-5-komaeda-nagito-to-sekai-no-hakaimono"
    }
  ],
  "pagination": {
    "current_page": 79,
    "per_page": 20,
    "total_items": 1905,
    "total_pages": 96,
    "has_next": true,
    "has_prev": true
  }
}
