{
  "message": "Animes com rating entre 7 e 8",
  "rating_range": {
    "min": 7,
    "max": 8
  },
  "data": [
    {
      "id": 432,
      "nome": "Blood+ (Dublado)",
      "link": "https://animefire.plus/animes/blood-dublado-todos-os-episodios",
      "texto_original": "Blood+ (Dublado)",
      "rating": 7.69,
      "classificacao_etaria": "A16",
      "imagem_original": "https://animefire.plus/img/animes/blood.webp",
      "imagem_pasta": "https://animefire.plus/img/animes/blood/",
      "secao": "dublados,legendados",
      "pagina": 22,
      "total_episodios": 50,
      "link_video": "https://animefire.plus/video/blood-dublado"
    },
    {
      "id": 434,
      "nome": "Blue Archive the Animation",
      "link": "https://animefire.plus/animes/blue-archive-the-animation-todos-os-episodios",
      "texto_original": "Blue Archive the Animation",
      "rating": 7.36,
      "classificacao_etaria": "A14",
      "imagem_original": "https://animefire.plus/img/animes/blue-archive-the-animation.webp",
      "imagem_pasta": "https://animefire.plus/img/animes/blue-archive-the-animation/",
      "secao": "legendados",
      "pagina": 15,
      "total_episodios": 12,
      "link_video": "https://animefire.plus/video/blue-archive-the-animation"
    },
    {
      "id": 438,
      "nome": "Blue Gender",
      "link": "https://animefire.plus/animes/blue-gender-todos-os-episodios",
      "texto_original": "Blue Gender",
      "rating": 7.1,
      "classificacao_etaria": "A18",
      "imagem_original": "https://animefire.plus/img/animes/blue-gender.webp",
      "imagem_pasta": "https://animefire.plus/img/animes/blue-gender/",
      "secao": "legendados",
      "pagina": 173,
      "total_episodios": 26,
      "link_video": "https://animefire.plus/video/blue-gender"
    },
    {
      "id": 440,
      "nome": "Blue Lock vs. U-20 Japan (Dublado)",
      "link": "https://animefire.plus/animes/blue-lock-vs-u-20-japan-dublado-todos-os-episodios",
      "texto_original": "Blue Lock vs. U-20 Japan (Dublado)",
      "rating": 7.55,
      "classificacao_etaria": "A14",
      "imagem_original": "https://animefire.plus/img/animes/blue-lock-vs-u-20-japan.webp",
      "imagem_pasta": "https://animefire.plus/img/animes/blue-lock-vs-u-20-japan/",
      "secao": "dublados,legendados,lancamentos",
      "pagina": 2,
      "total_episodios": 14,
      "link_video": "https://animefire.plus/video/blue-lock-vs-u-20-japan-dublado"
    },
    {
      "id": 441,
      "nome": "Blue Period (Dublado)",
      "link": "https://animefire.plus/animes/blue-period-dublado-todos-os-episodios",
      "texto_original": "Blue Period (Dublado)",
      "rating": 7.79,
      "classificacao_etaria": "A14",
      "imagem_original": "https://animefire.plus/img/animes/blue-period.webp",
      "imagem_pasta": "https://animefire.plus/img/animes/blue-period/",
      "secao": "dublados,legendados",
      "pagina": 12,
      "total_episodios": 12,
      "link_video": "https://animefire.plus/video/blue-period-dublado"
    },
    {
      "id": 443,
      "nome": "Blue Seed",
      "link": "https://animefire.plus/animes/blue-seed-todos-os-episodios",
      "texto_original": "Blue Seed",
      "rating": 7.09,
      "classificacao_etaria": "A14",
      "imagem_original": "https://animefire.plus/img/animes/blue-seed.webp",
      "imagem_pasta": "https://animefire.plus/img/animes/blue-seed/",
      "secao": "legendados",
      "pagina": 100,
      "total_episodios": 26,
      "link_video": "https://animefire.plus/video/blue-seed"
    },
    {
      "id": 445,
      "nome": "BNA (Dublado)",
      "link": "https://animefire.plus/animes/bna-dublado-todos-os-episodios",
      "texto_original": "BNA (Dublado)",
      "rating": 7.45,
      "classificacao_etaria": "A14",
      "imagem_original": "https://animefire.plus/img/animes/bna.webp",
      "imagem_pasta": "https://animefire.plus/img/animes/bna/",
      "secao": "dublados",
      "pagina": 21,
      "total_episodios": 12,
      "link_video": "https://animefire.plus/video/bna-dublado"
    },
    {
      "id": 455,
      "nome": "Boku no Hero Academia 5th Season",
      "link": "https://animefire.plus/animes/boku-no-hero-academia-5th-season-todos-os-episodios",
      "texto_original": "Boku no Hero Academia 5th Season",
      "rating": 7.35,
      "classificacao_etaria": "A14",
      "imagem_original": "https://animefire.plus/img/animes/boku-no-hero-academia-5th-season.webp",
      "imagem_pasta": "https://animefire.plus/img/animes/boku-no-hero-academia-5th-season/",
      "secao": "legendados",
      "pagina": 46,
      "total_episodios": 0,
      "link_video": "https://animefire.plus/video/boku-no-hero-academia-5th-season"
    },
    {
      "id": 456,
      "nome": "Boku no Hero Academia 5th Season (Dublado)",
      "link": "https://animefire.plus/animes/boku-no-hero-academia-5-dublado-todos-os-episodios",
      "texto_original": "Boku no Hero Academia 5th Season (Dublado)",
      "rating": 7.35,
      "classificacao_etaria": "A14",
      "imagem_original": "https://animefire.plus/img/animes/boku-no-hero-academia-5.webp",
      "imagem_pasta": "https://animefire.plus/img/animes/boku-no-hero-academia-5/",
      "secao": "dublados",
      "pagina": 18,
      "total_episodios": 1,
      "link_video": "https://animefire.plus/video/boku-no-hero-academia-5-dublado"
    },
    {
      "id": 459,
      "nome": "Boku no Hero Academia: Ikinokore! Kesshi no Survival Kunren (Dublado)",
      "link": "https://animefire.plus/animes/boku-no-hero-academia-ikinokore-kesshi-no-survival-kunren-dublado-todos-os-episodios",
      "texto_original": "Boku no Hero Academia: Ikinokore! Kesshi no Survival Kunren (Dublado)",
      "rating": 7.1,
      "classificacao_etaria": "A14",
      "imagem_original": "https://animefire.plus/img/animes/boku-no-hero-academia-ikinokore-kesshi-no-survival-kunren.webp",
      "imagem_pasta": "https://animefire.plus/img/animes/boku-no-hero-academia-ikinokore-kesshi-no-survival-kunren/",
      "secao": "dublados,legendados",
      "pagina": 18,
      "total_episodios": 2,
      "link_video": "https://animefire.plus/video/boku-no-hero-academia-ikinokore-kesshi-no-survival-kunren-dublado"
    },
    {
      "id": 468,
      "nome": "Boku wa Tomodachi ga Sukunai",
      "link": "https://animefire.plus/animes/boku-wa-tomodachi-ga-sukunai-todos-os-episodios",
      "texto_original": "Boku wa Tomodachi ga Sukunai",
      "rating": 7.41,
      "classificacao_etaria": "A18",
      "imagem_original": "https://animefire.plus/img/animes/boku-wa-tomodachi-ga-sukunai.webp",
      "imagem_pasta": "https://animefire.plus/img/animes/boku-wa-tomodachi-ga-sukunai/",
      "secao": "legendados",
      "pagina": 115,
      "total_episodios": 0,
      "link_video": "https://animefire.plus/video/boku-wa-tomodachi-ga-sukunai"
    },
    {
      "id": 470,
      "nome": "Boku wa Tomodachi ga Sukunai Next",
      "link": "https://animefire.plus/animes/boku-wa-tomodachi-ga-sukunai-next-todos-os-episodios",
      "texto_original": "Boku wa Tomodachi ga Sukunai Next",
      "rating": 7.53,
      "classificacao_etaria": "A14",
      "imagem_original": "https://animefire.plus/img/animes/boku-wa-tomodachi-ga-sukunai-next.webp",
      "imagem_pasta": "https://animefire.plus/img/animes/boku-wa-tomodachi-ga-sukunai-next/",
      "secao": "legendados",
      "pagina": 125,
      "total_episodios": 0,
      "link_video": "https://animefire.plus/video/boku-wa-tomodachi-ga-sukunai-next"
    },
    {
      "id": 471,
      "nome": "Bokura ga Ita",
      "link": "https://animefire.plus/animes/bokura-ga-ita-todos-os-episodios",
      "texto_original": "Bokura ga Ita",
      "rating": 7.43,
      "classificacao_etaria": "A14",
      "imagem_original": "https://animefire.plus/img/animes/bokura-ga-ita.webp",
      "imagem_pasta": "https://animefire.plus/img/animes/bokura-ga-ita/",
      "secao": "legendados",
      "pagina": 148,
      "total_episodios": 26,
      "link_video": "https://animefire.plus/video/bokura-ga-ita"
    },
    {
      "id": 473,
      "nome": "Bokura wa Minna Kawai-sou",
      "link": "https://animefire.plus/animes/bokura-wa-minna-kawai-sou-todos-os-episodios",
      "texto_original": "Bokura wa Minna Kawai-sou",
      "rating": 7.8,
      "classificacao_etaria": "A14",
      "imagem_original": "https://animefire.plus/img/animes/bokura-wa-minna-kawai-sou.webp",
      "imagem_pasta": "https://animefire.plus/img/animes/bokura-wa-minna-kawai-sou/",
      "secao": "legendados",
      "pagina": 166,
      "total_episodios": 12,
      "link_video": "https://animefire.plus/video/bokura-wa-minna-kawai-sou"
    },
    {
      "id": 474,
      "nome": "Bokurano",
      "link": "https://animefire.plus/animes/bokurano-todos-os-episodios",
      "texto_original": "Bokurano",
      "rating": 7.72,
      "classificacao_etaria": "A16",
      "imagem_original": "https://animefire.plus/img/animes/bokurano.webp",
      "imagem_pasta": "https://animefire.plus/img/animes/bokurano/",
      "secao": "legendados",
      "pagina": 142,
      "total_episodios": 24,
      "link_video": "https://animefire.plus/video/bokurano"
    },
    {
      "id": 477,
      "nome": "Bokutachi no Remake",
      "link": "https://animefire.plus/animes/bokutachi-no-remake-todos-os-episodios",
      "texto_original": "Bokutachi no Remake",
      "rating": 7.39,
      "classificacao_etaria": "A14",
      "imagem_original": "https://animefire.plus/img/animes/bokutachi-no-remake.webp",
      "imagem_pasta": "https://animefire.plus/img/animes/bokutachi-no-remake/",
      "secao": "legendados",
      "pagina": 41,
      "total_episodios": 12,
      "link_video": "https://animefire.plus/video/bokutachi-no-remake"
    },
    {
      "id": 478,
      "nome": "Bokutachi wa Benkyou ga Dekinai",
      "link": "https://animefire.plus/animes/bokutachi-wa-benkyou-ga-dekinai-todos-os-episodios",
      "texto_original": "Bokutachi wa Benkyou ga Dekinai",
      "rating": 7.33,
      "classificacao_etaria": "A14",
      "imagem_original": "https://animefire.plus/img/animes/bokutachi-wa-benkyou-ga-dekinai.webp",
      "imagem_pasta": "https://animefire.plus/img/animes/bokutachi-wa-benkyou-ga-dekinai/",
      "secao": "legendados",
      "pagina": 173,
      "total_episodios": 8,
      "link_video": "https://animefire.plus/video/bokutachi-wa-benkyou-ga-dekinai"
    },
    {
      "id": 479,
      "nome": "Bokutachi wa Benkyou ga Dekinai 2",
      "link": "https://animefire.plus/animes/bokutachi-wa-benkyou-ga-dekinai-2-todos-os-episodios",
      "texto_original": "Bokutachi wa Benkyou ga Dekinai 2",
      "rating": 7.36,
      "classificacao_etaria": "A14",
      "imagem_original": "https://animefire.plus/img/animes/bokutachi-wa-benkyou-ga-dekinai-2.webp",
      "imagem_pasta": "https://animefire.plus/img/animes/bokutachi-wa-benkyou-ga-dekinai-2/",
      "secao": "legendados",
      "pagina": 110,
      "total_episodios": 0,
      "link_video": "https://animefire.plus/video/bokutachi-wa-benkyou-ga-dekinai-2"
    },
    {
      "id": 480,
      "nome": "Bokutachi wa Benkyou ga Dekinai OVA",
      "link": "https://animefire.plus/animes/bokutachi-wa-benkyou-ga-dekinai-ova-todos-os-episodios",
      "texto_original": "Bokutachi wa Benkyou ga Dekinai OVA",
      "rating": 7.36,
      "classificacao_etaria": "A14",
      "imagem_original": "https://animefire.plus/img/animes/bokutachi-wa-benkyou-ga-dekinai-ova.webp",
      "imagem_pasta": "https://animefire.plus/img/animes/bokutachi-wa-benkyou-ga-dekinai-ova/",
      "secao": "legendados",
      "pagina": 80,
      "total_episodios": 2,
      "link_video": "https://animefire.plus/video/bokutachi-wa-benkyou-ga-dekinai-ova"
    },
    {
      "id": 481,
      "nome": "Boogiepop wa Warawanai",
      "link": "https://animefire.plus/animes/boogiepop-wa-warawanai-todos-os-episodios",
      "texto_original": "Boogiepop wa Warawanai",
      "rating": 7.21,
      "classificacao_etaria": "A18",
      "imagem_original": "https://animefire.plus/img/animes/boogiepop-wa-warawanai.webp",
      "imagem_pasta": "https://animefire.plus/img/animes/boogiepop-wa-warawanai/",
      "secao": "legendados",
      "pagina": 163,
      "total_episodios": 8,
      "link_video": "https://animefire.plus/video/boogiepop-wa-warawanai"
    }
  ],
  "pagination": {
    "current_page": 10,
    "per_page": 20,
    "total_items": 1905,
    "total_pages": 96,
    "has_next": true,
    "has_prev": true
  }
}
