{
  "message": "Animes com rating entre 7 e 8",
  "rating_range": {
    "min": 7,
    "max": 8
  },
  "data": [
    {
      "id": 860,
      "nome": "Doukyonin wa Hiza, Tokidoki, Atama no Ue.",
      "link": "https://animefire.plus/animes/doukyonin-wa-hiza-tokidoki-atama-no-ue-todos-os-episodios",
      "texto_original": "Doukyonin wa Hiza, Tokidoki, Atama no Ue.",
      "rating": 7.81,
      "classificacao_etaria": "A14",
      "imagem_original": "https://animefire.plus/img/animes/doukyonin-wa-hiza-tokidoki-atama-no-ue.webp",
      "imagem_pasta": "https://animefire.plus/img/animes/doukyonin-wa-hiza-tokidoki-atama-no-ue/",
      "secao": "legendados",
      "pagina": 60,
      "total_episodios": 12,
      "link_video": "https://animefire.plus/video/doukyonin-wa-hiza-tokidoki-atama-no-ue"
    },
    {
      "id": 861,
      "nome": "Douluo Dalu",
      "link": "https://animefire.plus/animes/douluo-dalu-todos-os-episodios",
      "texto_original": "Douluo Dalu",
      "rating": 7.87,
      "classificacao_etaria": "A14",
      "imagem_original": "https://animefire.plus/img/animes/douluo-dalu.webp",
      "imagem_pasta": "https://animefire.plus/img/animes/douluo-dalu/",
      "secao": "legendados",
      "pagina": 87,
      "total_episodios": 26,
      "link_video": "https://animefire.plus/video/douluo-dalu"
    },
    {
      "id": 862,
      "nome": "Douluo Dalu 2nd Season",
      "link": "https://animefire.plus/animes/douluo-dalu-2nd-season-todos-os-episodios",
      "texto_original": "Douluo Dalu 2nd Season",
      "rating": 7.92,
      "classificacao_etaria": "A14",
      "imagem_original": "https://animefire.plus/img/animes/douluo-dalu-2nd-season.webp",
      "imagem_pasta": "https://animefire.plus/img/animes/douluo-dalu-2nd-season/",
      "secao": "legendados",
      "pagina": 82,
      "total_episodios": 11,
      "link_video": "https://animefire.plus/video/douluo-dalu-2nd-season"
    },
    {
      "id": 863,
      "nome": "Doupo Cangqiong",
      "link": "https://animefire.plus/animes/doupo-cangqiong-todos-os-episodios",
      "texto_original": "Doupo Cangqiong",
      "rating": 7.36,
      "classificacao_etaria": "A14",
      "imagem_original": "https://animefire.plus/img/animes/doupo-cangqiong.webp",
      "imagem_pasta": "https://animefire.plus/img/animes/doupo-cangqiong/",
      "secao": "legendados",
      "pagina": 59,
      "total_episodios": 13,
      "link_video": "https://animefire.plus/video/doupo-cangqiong"
    },
    {
      "id": 864,
      "nome": "Doupo Cangqiong 2nd Season Specials",
      "link": "https://animefire.plus/animes/doupo-cangqiong-2nd-season-specials-todos-os-episodios",
      "texto_original": "Doupo Cangqiong 2nd Season Specials",
      "rating": 7.3,
      "classificacao_etaria": "A14",
      "imagem_original": "https://animefire.plus/img/animes/doupo-cangqiong-2nd-season-specials.webp",
      "imagem_pasta": "https://animefire.plus/img/animes/doupo-cangqiong-2nd-season-specials/",
      "secao": "legendados",
      "pagina": 87,
      "total_episodios": 3,
      "link_video": "https://animefire.plus/video/doupo-cangqiong-2nd-season-specials"
    },
    {
      "id": 865,
      "nome": "Doupo Cangqiong Specials",
      "link": "https://animefire.plus/animes/doupo-cangqiong-specials-todos-os-episodios",
      "texto_original": "Doupo Cangqiong Specials",
      "rating": 7.43,
      "classificacao_etaria": "A14",
      "imagem_original": "https://animefire.plus/img/animes/doupo-cangqiong-specials.webp",
      "imagem_pasta": "https://animefire.plus/img/animes/doupo-cangqiong-specials/",
      "secao": "legendados",
      "pagina": 83,
      "total_episodios": 2,
      "link_video": "https://animefire.plus/video/doupo-cangqiong-specials"
    },
    {
      "id": 874,
      "nome": "Dragon Ball (Dublado)",
      "link": "https://animefire.plus/animes/dragon-ball-dublado-todos-os-episodios",
      "texto_original": "Dragon Ball (Dublado)",
      "rating": 7.98,
      "classificacao_etaria": "A14",
      "imagem_original": "https://animefire.plus/img/animes/dragon-ball.webp",
      "imagem_pasta": "https://animefire.plus/img/animes/dragon-ball/",
      "secao": "dublados",
      "pagina": 17,
      "total_episodios": 153,
      "link_video": "https://animefire.plus/video/dragon-ball-dublado"
    },
    {
      "id": 875,
      "nome": "Dragon Ball Daima (Dublado)",
      "link": "https://animefire.plus/animes/dragon-ball-daima-dublado-todos-os-episodios",
      "texto_original": "Dragon Ball Daima (Dublado)",
      "rating": 7.63,
      "classificacao_etaria": "A14",
      "imagem_original": "https://animefire.plus/img/animes/dragon-ball-daima.webp",
      "imagem_pasta": "https://animefire.plus/img/animes/dragon-ball-daima/",
      "secao": "dublados,legendados",
      "pagina": 1,
      "total_episodios": 20,
      "link_video": "https://animefire.plus/video/dragon-ball-daima-dublado"
    },
    {
      "id": 878,
      "nome": "Dragon Ball Kai (Dublado)",
      "link": "https://animefire.plus/animes/dragon-ball-kai-dublado-todos-os-episodios",
      "texto_original": "Dragon Ball Kai (Dublado)",
      "rating": 7.79,
      "classificacao_etaria": "A14",
      "imagem_original": "https://animefire.plus/img/animes/dragon-ball-kai.webp",
      "imagem_pasta": "https://animefire.plus/img/animes/dragon-ball-kai/",
      "secao": "dublados",
      "pagina": 21,
      "total_episodios": 26,
      "link_video": "https://animefire.plus/video/dragon-ball-kai-dublado"
    },
    {
      "id": 879,
      "nome": "Dragon Ball Super (Dublado)",
      "link": "https://animefire.plus/animes/dragon-ball-super-dublado-todos-os-episodios",
      "texto_original": "Dragon Ball Super (Dublado)",
      "rating": 7.66,
      "classificacao_etaria": "A14",
      "imagem_original": "https://animefire.plus/img/animes/dragon-ball-super.webp",
      "imagem_pasta": "https://animefire.plus/img/animes/dragon-ball-super/",
      "secao": "dublados",
      "pagina": 27,
      "total_episodios": 0,
      "link_video": "https://animefire.plus/video/dragon-ball-super-dublado"
    },
    {
      "id": 885,
      "nome": "Dragon Quest: Dai no Daibouken (TV) (Dublado)",
      "link": "https://animefire.plus/animes/dragon-quest-dai-no-daibouken-tv-dublado-todos-os-episodios",
      "texto_original": "Dragon Quest: Dai no Daibouken (TV) (Dublado)",
      "rating": 7.65,
      "classificacao_etaria": null,
      "imagem_original": "https://animefire.plus/img/animes/dragon-quest-dai-no-daibouken-tv.webp",
      "imagem_pasta": "https://animefire.plus/img/animes/dragon-quest-dai-no-daibouken-tv/",
      "secao": "dublados",
      "pagina": 20,
      "total_episodios": 46,
      "link_video": "https://animefire.plus/video/dragon-quest-dai-no-daibouken-tv-dublado"
    },
    {
      "id": 893,
      "nome": "Drifters: Special Edition",
      "link": "https://animefire.plus/animes/drifters-special-edition-todos-os-episodios",
      "texto_original": "Drifters: Special Edition",
      "rating": 7.75,
      "classificacao_etaria": "A16",
      "imagem_original": "https://animefire.plus/img/animes/drifters-special-edition.webp",
      "imagem_pasta": "https://animefire.plus/img/animes/drifters-special-edition/",
      "secao": "legendados",
      "pagina": 87,
      "total_episodios": 2,
      "link_video": "https://animefire.plus/video/drifters-special-edition"
    },
    {
      "id": 894,
      "nome": "Druaga No Tou: The Aegis Of Uruk",
      "link": "https://animefire.plus/animes/druaga-no-tou-the-aegis-of-uruk-todos-os-episodios",
      "texto_original": "Druaga No Tou: The Aegis Of Uruk",
      "rating": 7.25,
      "classificacao_etaria": "A14",
      "imagem_original": "https://animefire.plus/img/animes/druaga-no-tou-the-aegis-of-uruk.webp",
      "imagem_pasta": "https://animefire.plus/img/animes/druaga-no-tou-the-aegis-of-uruk/",
      "secao": "legendados",
      "pagina": 99,
      "total_episodios": 12,
      "link_video": "https://animefire.plus/video/druaga-no-tou-the-aegis-of-uruk"
    },
    {
      "id": 895,
      "nome": "Druaga no Tou: The Sword of Uruk",
      "link": "https://animefire.plus/animes/druaga-no-tou-the-sword-of-uruk-todos-os-episodios",
      "texto_original": "Druaga no Tou: The Sword of Uruk",
      "rating": 7.27,
      "classificacao_etaria": "A14",
      "imagem_original": "https://animefire.plus/img/animes/druaga-no-tou-the-sword-of-uruk.webp",
      "imagem_pasta": "https://animefire.plus/img/animes/druaga-no-tou-the-sword-of-uruk/",
      "secao": "legendados",
      "pagina": 71,
      "total_episodios": 12,
      "link_video": "https://animefire.plus/video/druaga-no-tou-the-sword-of-uruk"
    },
    {
      "id": 897,
      "nome": "Dumbbell Nan Kilo Moteru?",
      "link": "https://animefire.plus/animes/dumbbell-nan-kilo-moteru-todos-os-episodios",
      "texto_original": "Dumbbell Nan Kilo Moteru?",
      "rating": 7.36,
      "classificacao_etaria": "A14",
      "imagem_original": "https://animefire.plus/img/animes/dumbbell-nan-kilo-moteru.webp",
      "imagem_pasta": "https://animefire.plus/img/animes/dumbbell-nan-kilo-moteru/",
      "secao": "legendados",
      "pagina": 164,
      "total_episodios": 4,
      "link_video": "https://animefire.plus/video/dumbbell-nan-kilo-moteru"
    },
    {
      "id": 899,
      "nome": "Dungeon ni Deai wo Motomeru no wa Machigatteiru Darou ka (Dublado)",
      "link": "https://animefire.plus/animes/dungeon-ni-deai-wo-motomeru-no-wa-machigatteiru-darou-ka-dublado-todos-os-episodios",
      "texto_original": "Dungeon ni Deai wo Motomeru no wa Machigatteiru Darou ka (Dublado)",
      "rating": 7.75,
      "classificacao_etaria": "A14",
      "imagem_original": "https://animefire.plus/img/animes/dungeon-ni-deai-wo-motomeru-no-wa-machigatteiru-darou-ka.webp",
      "imagem_pasta": "https://animefire.plus/img/animes/dungeon-ni-deai-wo-motomeru-no-wa-machigatteiru-darou-ka/",
      "secao": "dublados,legendados",
      "pagina": 25,
      "total_episodios": 13,
      "link_video": "https://animefire.plus/video/dungeon-ni-deai-wo-motomeru-no-wa-machigatteiru-darou-ka-dublado"
    },
    {
      "id": 900,
      "nome": "Dungeon ni Deai wo Motomeru no wa Machigatteiru Darou ka Gaiden: Sword Oratoria",
      "link": "https://animefire.plus/animes/dungeon-ni-deai-wo-motomeru-no-wa-machigatteiru-darou-ka-gaiden-sword-oratoria-todos-os-episodios",
      "texto_original": "Dungeon ni Deai wo Motomeru no wa Machigatteiru Darou ka Gaiden: Sword Oratoria",
      "rating": 7.13,
      "classificacao_etaria": "A14",
      "imagem_original": "https://animefire.plus/img/animes/dungeon-ni-deai-wo-motomeru-no-wa-machigatteiru-darou-ka-gaiden-sword-oratoria.webp",
      "imagem_pasta": "https://animefire.plus/img/animes/dungeon-ni-deai-wo-motomeru-no-wa-machigatteiru-darou-ka-gaiden-sword-oratoria/",
      "secao": "legendados",
      "pagina": 115,
      "total_episodios": 12,
      "link_video": "https://animefire.plus/video/dungeon-ni-deai-wo-motomeru-no-wa-machigatteiru-darou-ka-gaiden-sword-oratoria"
    },
    {
      "id": 901,
      "nome": "Dungeon ni Deai wo Motomeru no wa Machigatteiru Darou ka II",
      "link": "https://animefire.plus/animes/dungeon-ni-deai-wo-motomeru-no-wa-machigatteiru-darou-ka-ii-todos-os-episodios",
      "texto_original": "Dungeon ni Deai wo Motomeru no wa Machigatteiru Darou ka II",
      "rating": 7.24,
      "classificacao_etaria": "A14",
      "imagem_original": "https://animefire.plus/img/animes/dungeon-ni-deai-wo-motomeru-no-wa-machigatteiru-darou-ka-ii.webp",
      "imagem_pasta": "https://animefire.plus/img/animes/dungeon-ni-deai-wo-motomeru-no-wa-machigatteiru-darou-ka-ii/",
      "secao": "legendados",
      "pagina": 167,
      "total_episodios": 12,
      "link_video": "https://animefire.plus/video/dungeon-ni-deai-wo-motomeru-no-wa-machigatteiru-darou-ka-ii"
    },
    {
      "id": 906,
      "nome": "Dungeon ni Deai wo Motomeru no wa Machigatteiru Darou ka IV: Shin Shou - Meikyuu-hen",
      "link": "https://animefire.plus/animes/dungeon-ni-deai-wo-motomeru-no-wa-machigatteiru-darou-ka-iv-shin-shou---meikyuu-hen-todos-os-episodios",
      "texto_original": "Dungeon ni Deai wo Motomeru no wa Machigatteiru Darou ka IV: Shin Shou - Meikyuu-hen",
      "rating": 7.75,
      "classificacao_etaria": "A16",
      "imagem_original": "https://animefire.plus/img/animes/dungeon-ni-deai-wo-motomeru-no-wa-machigatteiru-darou-ka-iv-shin-shou---meikyuu-hen.webp",
      "imagem_pasta": "https://animefire.plus/img/animes/dungeon-ni-deai-wo-motomeru-no-wa-machigatteiru-darou-ka-iv-shin-shou---meikyuu-hen/",
      "secao": "legendados",
      "pagina": 30,
      "total_episodios": 11,
      "link_video": "https://animefire.plus/video/dungeon-ni-deai-wo-motomeru-no-wa-machigatteiru-darou-ka-iv-shin-shou---meikyuu-hen"
    },
    {
      "id": 907,
      "nome": "Dungeon ni Deai wo Motomeru no wa Machigatteiru Darou ka V: Houjou no Megami-hen",
      "link": "https://animefire.plus/animes/dungeon-ni-deai-wo-motomeru-no-wa-machigatteiru-darou-ka-v-houjou-no-megami-hen-todos-os-episodios",
      "texto_original": "Dungeon ni Deai wo Motomeru no wa Machigatteiru Darou ka V: Houjou no Megami-hen",
      "rating": 7.9,
      "classificacao_etaria": "A14",
      "imagem_original": "https://animefire.plus/img/animes/dungeon-ni-deai-wo-motomeru-no-wa-machigatteiru-darou-ka-v-houjou-no-megami-hen.webp",
      "imagem_pasta": "https://animefire.plus/img/animes/dungeon-ni-deai-wo-motomeru-no-wa-machigatteiru-darou-ka-v-houjou-no-megami-hen/",
      "secao": "legendados",
      "pagina": 10,
      "total_episodios": 15,
      "link_video": "https://animefire.plus/video/dungeon-ni-deai-wo-motomeru-no-wa-machigatteiru-darou-ka-v-houjou-no-megami-hen"
    }
  ],
  "pagination": {
    "current_page": 18,
    "per_page": 20,
    "total_items": 1905,
    "total_pages": 96,
    "has_next": true,
    "has_prev": true
  }
}
