{
  "message": "Animes com rating entre 7 e 8",
  "rating_range": {
    "min": 7,
    "max": 8
  },
  "data": [
    {
      "id": 2827,
      "nome": "One Piece 3D2Y: Ace no shi wo Koete! Luffy Nakama Tono Chikai",
      "link": "https://animefire.plus/animes/one-piece-3d2y-ace-no-shi-wo-koete-luffy-nakama-tono-chikai-todos-os-episodios",
      "texto_original": "One Piece 3D2Y: Ace no shi wo Koete! Luffy Nakama Tono Chikai",
      "rating": 7.97,
      "classificacao_etaria": "A14",
      "imagem_original": "https://animefire.plus/img/animes/one-piece-3d2y-ace-no-shi-wo-koete-luffy-nakama-tono-chikai.webp",
      "imagem_pasta": "https://animefire.plus/img/animes/one-piece-3d2y-ace-no-shi-wo-koete-luffy-nakama-tono-chikai/",
      "secao": "legendados",
      "pagina": 77,
      "total_episodios": 1,
      "link_video": "https://animefire.plus/video/one-piece-3d2y-ace-no-shi-wo-koete-luffy-nakama-tono-chikai"
    },
    {
      "id": 2829,
      "nome": "One Piece: Adventure of Nebulandia",
      "link": "https://animefire.plus/animes/one-piece-adventure-of-nebulandia-todos-os-episodios",
      "texto_original": "One Piece: Adventure of Nebulandia",
      "rating": 7.34,
      "classificacao_etaria": "A14",
      "imagem_original": "https://animefire.plus/img/animes/one-piece-adventure-of-nebulandia.webp",
      "imagem_pasta": "https://animefire.plus/img/animes/one-piece-adventure-of-nebulandia/",
      "secao": "legendados",
      "pagina": 74,
      "total_episodios": 0,
      "link_video": "https://animefire.plus/video/one-piece-adventure-of-nebulandia"
    },
    {
      "id": 2830,
      "nome": "One Piece: Episode of Luffy - Hand Island no Bouken",
      "link": "https://animefire.plus/animes/one-piece-episode-of-luffy---hand-island-no-bouken-todos-os-episodios",
      "texto_original": "One Piece: Episode of Luffy - Hand Island no Bouken",
      "rating": 7.7,
      "classificacao_etaria": "A14",
      "imagem_original": "https://animefire.plus/img/animes/one-piece-episode-of-luffy---hand-island-no-bouken.webp",
      "imagem_pasta": "https://animefire.plus/img/animes/one-piece-episode-of-luffy---hand-island-no-bouken/",
      "secao": "legendados",
      "pagina": 75,
      "total_episodios": 0,
      "link_video": "https://animefire.plus/video/one-piece-episode-of-luffy---hand-island-no-bouken"
    },
    {
      "id": 2833,
      "nome": "One Piece: Episode of Sorajima",
      "link": "https://animefire.plus/animes/one-piece-episode-of-sorajima-todos-os-episodios",
      "texto_original": "One Piece: Episode of Sorajima",
      "rating": 7.13,
      "classificacao_etaria": "A14",
      "imagem_original": "https://animefire.plus/img/animes/one-piece-episode-of-sorajima.webp",
      "imagem_pasta": "https://animefire.plus/img/animes/one-piece-episode-of-sorajima/",
      "secao": "legendados",
      "pagina": 75,
      "total_episodios": 0,
      "link_video": "https://animefire.plus/video/one-piece-episode-of-sorajima"
    },
    {
      "id": 2834,
      "nome": "One Piece: Gyojin Tou-hen",
      "link": "https://animefire.plus/animes/one-piece-gyojin-tou-hen-todos-os-episodios",
      "texto_original": "One Piece: Gyojin Tou-hen",
      "rating": 7.92,
      "classificacao_etaria": "A14",
      "imagem_original": "https://animefire.plus/img/animes/one-piece-gyojin-tou-hen.webp",
      "imagem_pasta": "https://animefire.plus/img/animes/one-piece-gyojin-tou-hen/",
      "secao": "legendados",
      "pagina": 8,
      "total_episodios": 21,
      "link_video": "https://animefire.plus/video/one-piece-gyojin-tou-hen"
    },
    {
      "id": 2835,
      "nome": "One Piece: Heart of Gold",
      "link": "https://animefire.plus/animes/one-piece-heart-of-gold-todos-os-episodios",
      "texto_original": "One Piece: Heart of Gold",
      "rating": 7.58,
      "classificacao_etaria": "A14",
      "imagem_original": "https://animefire.plus/img/animes/one-piece-heart-of-gold.webp",
      "imagem_pasta": "https://animefire.plus/img/animes/one-piece-heart-of-gold/",
      "secao": "legendados",
      "pagina": 78,
      "total_episodios": 1,
      "link_video": "https://animefire.plus/video/one-piece-heart-of-gold"
    },
    {
      "id": 2839,
      "nome": "One Punch Man 2nd Season (Dublado)",
      "link": "https://animefire.plus/animes/one-punch-man-2nd-season-dublado-todos-os-episodios",
      "texto_original": "One Punch Man 2nd Season (Dublado)",
      "rating": 7.44,
      "classificacao_etaria": "A16",
      "imagem_original": "https://animefire.plus/img/animes/one-punch-man-2nd-season.webp",
      "imagem_pasta": "https://animefire.plus/img/animes/one-punch-man-2nd-season/",
      "secao": "dublados,legendados",
      "pagina": 13,
      "total_episodios": 12,
      "link_video": "https://animefire.plus/video/one-punch-man-2nd-season-dublado"
    },
    {
      "id": 2845,
      "nome": "One Room, Hiatari Futsuu, Tenshi-tsuki.",
      "link": "https://animefire.plus/animes/one-room-hiatari-futsuu-tenshi-tsuki-todos-os-episodios",
      "texto_original": "One Room, Hiatari Futsuu, Tenshi-tsuki.",
      "rating": 7.03,
      "classificacao_etaria": "A14",
      "imagem_original": "https://animefire.plus/img/animes/one-room-hiatari-futsuu-tenshi-tsuki.webp",
      "imagem_pasta": "https://animefire.plus/img/animes/one-room-hiatari-futsuu-tenshi-tsuki/",
      "secao": "legendados",
      "pagina": 14,
      "total_episodios": 12,
      "link_video": "https://animefire.plus/video/one-room-hiatari-futsuu-tenshi-tsuki"
    },
    {
      "id": 2847,
      "nome": "Onegai☆Teacher",
      "link": "https://animefire.plus/animes/onegai-teacher-todos-os-episodios",
      "texto_original": "Onegai☆Teacher",
      "rating": 7.27,
      "classificacao_etaria": "A14",
      "imagem_original": "https://animefire.plus/img/animes/onegai-teacher.webp",
      "imagem_pasta": "https://animefire.plus/img/animes/onegai-teacher/",
      "secao": "legendados",
      "pagina": 112,
      "total_episodios": 12,
      "link_video": "https://animefire.plus/video/onegai-teacher"
    },
    {
      "id": 2851,
      "nome": "Onihei",
      "link": "https://animefire.plus/animes/onihei-todos-os-episodios",
      "texto_original": "Onihei",
      "rating": 7.35,
      "classificacao_etaria": "A16",
      "imagem_original": "https://animefire.plus/img/animes/onihei.webp",
      "imagem_pasta": "https://animefire.plus/img/animes/onihei/",
      "secao": "legendados",
      "pagina": 149,
      "total_episodios": 6,
      "link_video": "https://animefire.plus/video/onihei"
    },
    {
      "id": 2855,
      "nome": "Oniichan wa Oshimai!",
      "link": "https://animefire.plus/animes/oniichan-wa-oshimai-todos-os-episodios",
      "texto_original": "Oniichan wa Oshimai!",
      "rating": 7.65,
      "classificacao_etaria": "A14",
      "imagem_original": "https://animefire.plus/img/animes/oniichan-wa-oshimai.webp",
      "imagem_pasta": "https://animefire.plus/img/animes/oniichan-wa-oshimai/",
      "secao": "legendados",
      "pagina": 27,
      "total_episodios": 12,
      "link_video": "https://animefire.plus/video/oniichan-wa-oshimai"
    },
    {
      "id": 2856,
      "nome": "Oniisama e...",
      "link": "https://animefire.plus/animes/oniisama-e-todos-os-episodios",
      "texto_original": "Oniisama e...",
      "rating": 7.78,
      "classificacao_etaria": "A14",
      "imagem_original": "https://animefire.plus/img/animes/oniisama-e.webp",
      "imagem_pasta": "https://animefire.plus/img/animes/oniisama-e/",
      "secao": "legendados",
      "pagina": 55,
      "total_episodios": 39,
      "link_video": "https://animefire.plus/video/oniisama-e"
    },
    {
      "id": 2860,
      "nome": "Onmyou Taisenki",
      "link": "https://animefire.plus/animes/onmyou-taisenki-todos-os-episodios",
      "texto_original": "Onmyou Taisenki",
      "rating": 7.26,
      "classificacao_etaria": "A14",
      "imagem_original": "https://animefire.plus/img/animes/onmyou-taisenki.webp",
      "imagem_pasta": "https://animefire.plus/img/animes/onmyou-taisenki/",
      "secao": "legendados",
      "pagina": 178,
      "total_episodios": 4,
      "link_video": "https://animefire.plus/video/onmyou-taisenki"
    },
    {
      "id": 2865,
      "nome": "Ooi! Tonbo",
      "link": "https://animefire.plus/animes/ooi-tonbo-todos-os-episodios",
      "texto_original": "Ooi! Tonbo",
      "rating": 7.11,
      "classificacao_etaria": "A14",
      "imagem_original": "https://animefire.plus/img/animes/ooi-tonbo.webp",
      "imagem_pasta": "https://animefire.plus/img/animes/ooi-tonbo/",
      "secao": "legendados,lancamentos",
      "pagina": 14,
      "total_episodios": 1,
      "link_video": "https://animefire.plus/video/ooi-tonbo"
    },
    {
      "id": 2866,
      "nome": "Ooi! Tonbo 2nd Season",
      "link": "https://animefire.plus/animes/ooi-tonbo-2nd-season-todos-os-episodios",
      "texto_original": "Ooi! Tonbo 2nd Season",
      "rating": 7.31,
      "classificacao_etaria": "A14",
      "imagem_original": "https://animefire.plus/img/animes/ooi-tonbo-2nd-season.webp",
      "imagem_pasta": "https://animefire.plus/img/animes/ooi-tonbo-2nd-season/",
      "secao": "legendados,lancamentos",
      "pagina": 9,
      "total_episodios": 2,
      "link_video": "https://animefire.plus/video/ooi-tonbo-2nd-season"
    },
    {
      "id": 2867,
      "nome": "Ookami Shoujo to Kuro Ouji",
      "link": "https://animefire.plus/animes/ookami-shoujo-to-kuro-ouji-todos-os-episodios",
      "texto_original": "Ookami Shoujo to Kuro Ouji",
      "rating": 7.37,
      "classificacao_etaria": "A14",
      "imagem_original": "https://animefire.plus/img/animes/ookami-shoujo-to-kuro-ouji.webp",
      "imagem_pasta": "https://animefire.plus/img/animes/ookami-shoujo-to-kuro-ouji/",
      "secao": "legendados",
      "pagina": 123,
      "total_episodios": 12,
      "link_video": "https://animefire.plus/video/ookami-shoujo-to-kuro-ouji"
    },
    {
      "id": 2871,
      "nome": "Ookami-san to Shichinin no Nakama-tachi",
      "link": "https://animefire.plus/animes/ookami-san-to-shichinin-no-nakama-tachi-todos-os-episodios",
      "texto_original": "Ookami-san to Shichinin no Nakama-tachi",
      "rating": 7.31,
      "classificacao_etaria": "A14",
      "imagem_original": "https://animefire.plus/img/animes/ookami-san-to-shichinin-no-nakama-tachi.webp",
      "imagem_pasta": "https://animefire.plus/img/animes/ookami-san-to-shichinin-no-nakama-tachi/",
      "secao": "legendados",
      "pagina": 149,
      "total_episodios": 0,
      "link_video": "https://animefire.plus/video/ookami-san-to-shichinin-no-nakama-tachi"
    },
    {
      "id": 2875,
      "nome": "Ookiku Furikabutte: Natsu no Taikai-hen – Mokuhyou",
      "link": "https://animefire.plus/animes/ookiku-furikabutte-natsu-no-taikai-hen-mokuhyou-todos-os-episodios",
      "texto_original": "Ookiku Furikabutte: Natsu no Taikai-hen – Mokuhyou",
      "rating": 7.44,
      "classificacao_etaria": null,
      "imagem_original": "https://animefire.plus/img/animes/ookiku-furikabutte-natsu-no-taikai-hen-mokuhyou.webp",
      "imagem_pasta": "https://animefire.plus/img/animes/ookiku-furikabutte-natsu-no-taikai-hen-mokuhyou/",
      "secao": "legendados",
      "pagina": 89,
      "total_episodios": 1,
      "link_video": "https://animefire.plus/video/ookiku-furikabutte-natsu-no-taikai-hen-mokuhyou"
    },
    {
      "id": 2878,
      "nome": "Orange (Dublado)",
      "link": "https://animefire.plus/animes/orange-dublado-todos-os-episodios",
      "texto_original": "Orange (Dublado)",
      "rating": 7.66,
      "classificacao_etaria": "A14",
      "imagem_original": "https://animefire.plus/img/animes/orange.webp",
      "imagem_pasta": "https://animefire.plus/img/animes/orange/",
      "secao": "dublados,legendados",
      "pagina": 25,
      "total_episodios": 13,
      "link_video": "https://animefire.plus/video/orange-dublado"
    },
    {
      "id": 2885,
      "nome": "Ore no Imouto ga Konnani Kawaii Wake ga Nai",
      "link": "https://animefire.plus/animes/ore-no-imouto-ga-konnani-kawaii-wake-ga-nai-todos-os-episodios",
      "texto_original": "Ore no Imouto ga Konnani Kawaii Wake ga Nai",
      "rating": 7.27,
      "classificacao_etaria": "A14",
      "imagem_original": "https://animefire.plus/img/animes/ore-no-imouto-ga-konnani-kawaii-wake-ga-nai.webp",
      "imagem_pasta": "https://animefire.plus/img/animes/ore-no-imouto-ga-konnani-kawaii-wake-ga-nai/",
      "secao": "legendados",
      "pagina": 154,
      "total_episodios": 12,
      "link_video": "https://animefire.plus/video/ore-no-imouto-ga-konnani-kawaii-wake-ga-nai"
    }
  ],
  "pagination": {
    "current_page": 60,
    "per_page": 20,
    "total_items": 1905,
    "total_pages": 96,
    "has_next": true,
    "has_prev": true
  }
}
