{
  "message": "Animes com rating entre 7 e 8",
  "rating_range": {
    "min": 7,
    "max": 8
  },
  "data": [
    {
      "id": 3946,
      "nome": "Tsugu Tsugumomo",
      "link": "https://animefire.plus/animes/tsugu-tsugumomo-todos-os-episodios",
      "texto_original": "Tsugu Tsugumomo",
      "rating": 7.51,
      "classificacao_etaria": "A18",
      "imagem_original": "https://animefire.plus/img/animes/tsugu-tsugumomo.webp",
      "imagem_pasta": "https://animefire.plus/img/animes/tsugu-tsugumomo/",
      "secao": "legendados",
      "pagina": 60,
      "total_episodios": 1,
      "link_video": "https://animefire.plus/video/tsugu-tsugumomo"
    },
    {
      "id": 3947,
      "nome": "Tsugumomo",
      "link": "https://animefire.plus/animes/tsugumomo-todos-os-episodios",
      "texto_original": "Tsugumomo",
      "rating": 7.11,
      "classificacao_etaria": "A18",
      "imagem_original": "https://animefire.plus/img/animes/tsugumomo.webp",
      "imagem_pasta": "https://animefire.plus/img/animes/tsugumomo/",
      "secao": "legendados",
      "pagina": 106,
      "total_episodios": 12,
      "link_video": "https://animefire.plus/video/tsugumomo"
    },
    {
      "id": 3949,
      "nome": "Tsuihousha Shokudou e Youkoso!",
      "link": "https://animefire.plus/animes/tsuihousha-shokudou-e-youkoso-todos-os-episodios",
      "texto_original": "Tsuihousha Shokudou e Youkoso!",
      "rating": 7.19,
      "classificacao_etaria": "A14",
      "imagem_original": "https://animefire.plus/img/animes/tsuihousha-shokudou-e-youkoso.webp",
      "imagem_pasta": "https://animefire.plus/img/animes/tsuihousha-shokudou-e-youkoso/",
      "secao": "legendados,lancamentos",
      "pagina": 2,
      "total_episodios": 5,
      "link_video": "https://animefire.plus/video/tsuihousha-shokudou-e-youkoso"
    },
    {
      "id": 3951,
      "nome": "Tsuki ga Michibiku Isekai Douchuu (Dublado)",
      "link": "https://animefire.plus/animes/tsuki-ga-michibiku-isekai-douchuu-dublado-todos-os-episodios",
      "texto_original": "Tsuki ga Michibiku Isekai Douchuu (Dublado)",
      "rating": 7.71,
      "classificacao_etaria": "A14",
      "imagem_original": "https://animefire.plus/img/animes/tsuki-ga-michibiku-isekai-douchuu.webp",
      "imagem_pasta": "https://animefire.plus/img/animes/tsuki-ga-michibiku-isekai-douchuu/",
      "secao": "dublados,legendados",
      "pagina": 10,
      "total_episodios": 12,
      "link_video": "https://animefire.plus/video/tsuki-ga-michibiku-isekai-douchuu-dublado"
    },
    {
      "id": 3952,
      "nome": "Tsuki ga Michibiku Isekai Douchuu 2nd Season",
      "link": "https://animefire.plus/animes/tsuki-ga-michibiku-isekai-douchuu-2nd-season-todos-os-episodios",
      "texto_original": "Tsuki ga Michibiku Isekai Douchuu 2nd Season",
      "rating": 7.84,
      "classificacao_etaria": "A14",
      "imagem_original": "https://animefire.plus/img/animes/tsuki-ga-michibiku-isekai-douchuu-2nd-season.webp",
      "imagem_pasta": "https://animefire.plus/img/animes/tsuki-ga-michibiku-isekai-douchuu-2nd-season/",
      "secao": "legendados",
      "pagina": 17,
      "total_episodios": 4,
      "link_video": "https://animefire.plus/video/tsuki-ga-michibiku-isekai-douchuu-2nd-season"
    },
    {
      "id": 3953,
      "nome": "Tsuki ga Michibiku Isekai Douchuu 2nd Season (Dublado)",
      "link": "https://animefire.plus/animes/tsuki-ga-michibiku-isekai-douchuu-2-dublado-todos-os-episodios",
      "texto_original": "Tsuki ga Michibiku Isekai Douchuu 2nd Season (Dublado)",
      "rating": 7.84,
      "classificacao_etaria": "A14",
      "imagem_original": "https://animefire.plus/img/animes/tsuki-ga-michibiku-isekai-douchuu-2.webp",
      "imagem_pasta": "https://animefire.plus/img/animes/tsuki-ga-michibiku-isekai-douchuu-2/",
      "secao": "dublados,lancamentos",
      "pagina": 3,
      "total_episodios": 11,
      "link_video": "https://animefire.plus/video/tsuki-ga-michibiku-isekai-douchuu-2-dublado"
    },
    {
      "id": 3954,
      "nome": "Tsuki to Laika to Nosferatu (Dublado)",
      "link": "https://animefire.plus/animes/tsuki-to-laika-to-nosferatu-dublado-todos-os-episodios",
      "texto_original": "Tsuki to Laika to Nosferatu (Dublado)",
      "rating": 7.32,
      "classificacao_etaria": "A14",
      "imagem_original": "https://animefire.plus/img/animes/tsuki-to-laika-to-nosferatu.webp",
      "imagem_pasta": "https://animefire.plus/img/animes/tsuki-to-laika-to-nosferatu/",
      "secao": "dublados,legendados",
      "pagina": 14,
      "total_episodios": 12,
      "link_video": "https://animefire.plus/video/tsuki-to-laika-to-nosferatu-dublado"
    },
    {
      "id": 3959,
      "nome": "Tsukiuta. The Animation",
      "link": "https://animefire.plus/animes/tsukiuta-the-animation-todos-os-episodios",
      "texto_original": "Tsukiuta. The Animation",
      "rating": 7.06,
      "classificacao_etaria": "A14",
      "imagem_original": "https://animefire.plus/img/animes/tsukiuta-the-animation.webp",
      "imagem_pasta": "https://animefire.plus/img/animes/tsukiuta-the-animation/",
      "secao": "legendados",
      "pagina": 171,
      "total_episodios": 10,
      "link_video": "https://animefire.plus/video/tsukiuta-the-animation"
    },
    {
      "id": 3962,
      "nome": "Tsukuyomi: Moon Phase",
      "link": "https://animefire.plus/animes/tsukuyomi-moon-phase-todos-os-episodios",
      "texto_original": "Tsukuyomi: Moon Phase",
      "rating": 7.07,
      "classificacao_etaria": "A14",
      "imagem_original": "https://animefire.plus/img/animes/tsukuyomi-moon-phase.webp",
      "imagem_pasta": "https://animefire.plus/img/animes/tsukuyomi-moon-phase/",
      "secao": "legendados",
      "pagina": 164,
      "total_episodios": 26,
      "link_video": "https://animefire.plus/video/tsukuyomi-moon-phase"
    },
    {
      "id": 3963,
      "nome": "Tsuma, Shougakusei ni Naru.",
      "link": "https://animefire.plus/animes/tsuma-shougakusei-ni-naru-todos-os-episodios",
      "texto_original": "Tsuma, Shougakusei ni Naru.",
      "rating": 7.54,
      "classificacao_etaria": "A14",
      "imagem_original": "https://animefire.plus/img/animes/tsuma-shougakusei-ni-naru.webp",
      "imagem_pasta": "https://animefire.plus/img/animes/tsuma-shougakusei-ni-naru/",
      "secao": "legendados",
      "pagina": 9,
      "total_episodios": 12,
      "link_video": "https://animefire.plus/video/tsuma-shougakusei-ni-naru"
    },
    {
      "id": 3964,
      "nome": "Tsundere Akuyaku Reijou Liselotte to Jikkyou no Endou-kun to Kaisetsu no Kobayashi-san",
      "link": "https://animefire.plus/animes/tsundere-akuyaku-reijou-liselotte-to-jikkyou-no-endou-kun-to-kaisetsu-no-kobayashi-san-todos-os-episodios",
      "texto_original": "Tsundere Akuyaku Reijou Liselotte to Jikkyou no Endou-kun to Kaisetsu no Kobayashi-san",
      "rating": 7.23,
      "classificacao_etaria": "A14",
      "imagem_original": "https://animefire.plus/img/animes/tsundere-akuyaku-reijou-liselotte-to-jikkyou-no-endou-kun-to-kaisetsu-no-kobayashi-san.webp",
      "imagem_pasta": "https://animefire.plus/img/animes/tsundere-akuyaku-reijou-liselotte-to-jikkyou-no-endou-kun-to-kaisetsu-no-kobayashi-san/",
      "secao": "legendados",
      "pagina": 27,
      "total_episodios": 12,
      "link_video": "https://animefire.plus/video/tsundere-akuyaku-reijou-liselotte-to-jikkyou-no-endou-kun-to-kaisetsu-no-kobayashi-san"
    },
    {
      "id": 3965,
      "nome": "Tsurezure Children",
      "link": "https://animefire.plus/animes/tsurezure-children-todos-os-episodios",
      "texto_original": "Tsurezure Children",
      "rating": 7.76,
      "classificacao_etaria": "A14",
      "imagem_original": "https://animefire.plus/img/animes/tsurezure-children.webp",
      "imagem_pasta": "https://animefire.plus/img/animes/tsurezure-children/",
      "secao": "legendados",
      "pagina": 76,
      "total_episodios": 12,
      "link_video": "https://animefire.plus/video/tsurezure-children"
    },
    {
      "id": 3966,
      "nome": "Tsuritama",
      "link": "https://animefire.plus/animes/tsuritama-todos-os-episodios",
      "texto_original": "Tsuritama",
      "rating": 7.72,
      "classificacao_etaria": "A14",
      "imagem_original": "https://animefire.plus/img/animes/tsuritama.webp",
      "imagem_pasta": "https://animefire.plus/img/animes/tsuritama/",
      "secao": "legendados",
      "pagina": 60,
      "total_episodios": 12,
      "link_video": "https://animefire.plus/video/tsuritama"
    },
    {
      "id": 3968,
      "nome": "Tsurune: Kazemai Koukou Kyuudoubu",
      "link": "https://animefire.plus/animes/tsurune-kazemai-koukou-kyuudoubu-todos-os-episodios",
      "texto_original": "Tsurune: Kazemai Koukou Kyuudoubu",
      "rating": 7.6,
      "classificacao_etaria": "A14",
      "imagem_original": "https://animefire.plus/img/animes/tsurune-kazemai-koukou-kyuudoubu.webp",
      "imagem_pasta": "https://animefire.plus/img/animes/tsurune-kazemai-koukou-kyuudoubu/",
      "secao": "legendados",
      "pagina": 107,
      "total_episodios": 13,
      "link_video": "https://animefire.plus/video/tsurune-kazemai-koukou-kyuudoubu"
    },
    {
      "id": 3973,
      "nome": "Tu Bian Ying Xiong Leaf",
      "link": "https://animefire.plus/animes/tu-bian-ying-xiong-leaf-todos-os-episodios",
      "texto_original": "Tu Bian Ying Xiong Leaf",
      "rating": 7.16,
      "classificacao_etaria": "A14",
      "imagem_original": "https://animefire.plus/img/animes/tu-bian-ying-xiong-leaf.webp",
      "imagem_pasta": "https://animefire.plus/img/animes/tu-bian-ying-xiong-leaf/",
      "secao": "legendados",
      "pagina": 95,
      "total_episodios": 8,
      "link_video": "https://animefire.plus/video/tu-bian-ying-xiong-leaf"
    },
    {
      "id": 3986,
      "nome": "Uchi no Ko no Tame naraba, Ore wa Moshikashitara Maou mo Taoseru kamo Shirenai.",
      "link": "https://animefire.plus/animes/uchi-no-ko-no-tame-naraba-ore-wa-moshikashitara-maou-mo-taoseru-kamo-shirenai-todos-os-episodios",
      "texto_original": "Uchi no Ko no Tame naraba, Ore wa Moshikashitara Maou mo Taoseru kamo Shirenai.",
      "rating": 7.04,
      "classificacao_etaria": "A14",
      "imagem_original": "https://animefire.plus/img/animes/uchi-no-ko-no-tame-naraba-ore-wa-moshikashitara-maou-mo-taoseru-kamo-shirenai.webp",
      "imagem_pasta": "https://animefire.plus/img/animes/uchi-no-ko-no-tame-naraba-ore-wa-moshikashitara-maou-mo-taoseru-kamo-shirenai/",
      "secao": "legendados",
      "pagina": 103,
      "total_episodios": 12,
      "link_video": "https://animefire.plus/video/uchi-no-ko-no-tame-naraba-ore-wa-moshikashitara-maou-mo-taoseru-kamo-shirenai"
    },
    {
      "id": 3987,
      "nome": "Uchi no Maid ga Uzasugiru!",
      "link": "https://animefire.plus/animes/uchi-no-maid-ga-uzasugiru-todos-os-episodios",
      "texto_original": "Uchi no Maid ga Uzasugiru!",
      "rating": 7.14,
      "classificacao_etaria": "A14",
      "imagem_original": "https://animefire.plus/img/animes/uchi-no-maid-ga-uzasugiru.webp",
      "imagem_pasta": "https://animefire.plus/img/animes/uchi-no-maid-ga-uzasugiru/",
      "secao": "legendados",
      "pagina": 157,
      "total_episodios": 12,
      "link_video": "https://animefire.plus/video/uchi-no-maid-ga-uzasugiru"
    },
    {
      "id": 3990,
      "nome": "Uchouten Kazoku",
      "link": "https://animefire.plus/animes/uchouten-kazoku-todos-os-episodios",
      "texto_original": "Uchouten Kazoku",
      "rating": 7.94,
      "classificacao_etaria": "A14",
      "imagem_original": "https://animefire.plus/img/animes/uchouten-kazoku.webp",
      "imagem_pasta": "https://animefire.plus/img/animes/uchouten-kazoku/",
      "secao": "legendados",
      "pagina": 137,
      "total_episodios": 0,
      "link_video": "https://animefire.plus/video/uchouten-kazoku"
    },
    {
      "id": 3992,
      "nome": "Uchuu Kaizoku Captain Herlock",
      "link": "https://animefire.plus/animes/uchuu-kaizoku-captain-herlock-todos-os-episodios",
      "texto_original": "Uchuu Kaizoku Captain Herlock",
      "rating": 7.7,
      "classificacao_etaria": "A14",
      "imagem_original": "https://animefire.plus/img/animes/uchuu-kaizoku-captain-herlock.webp",
      "imagem_pasta": "https://animefire.plus/img/animes/uchuu-kaizoku-captain-herlock/",
      "secao": "legendados",
      "pagina": 43,
      "total_episodios": 42,
      "link_video": "https://animefire.plus/video/uchuu-kaizoku-captain-herlock"
    },
    {
      "id": 3996,
      "nome": "Uchuu no Stellvia",
      "link": "https://animefire.plus/animes/uchuu-no-stellvia-todos-os-episodios",
      "texto_original": "Uchuu no Stellvia",
      "rating": 7.44,
      "classificacao_etaria": "A14",
      "imagem_original": "https://animefire.plus/img/animes/uchuu-no-stellvia.webp",
      "imagem_pasta": "https://animefire.plus/img/animes/uchuu-no-stellvia/",
      "secao": "legendados",
      "pagina": 165,
      "total_episodios": 26,
      "link_video": "https://animefire.plus/video/uchuu-no-stellvia"
    }
  ],
  "pagination": {
    "current_page": 87,
    "per_page": 20,
    "total_items": 1905,
    "total_pages": 96,
    "has_next": true,
    "has_prev": true
  }
}
