{
  "message": "Animes com rating entre 7 e 8",
  "rating_range": {
    "min": 7,
    "max": 8
  },
  "data": [
    {
      "id": 2886,
      "nome": "Ore no Imouto ga Konnani Kawaii Wake ga Nai.",
      "link": "https://animefire.plus/animes/oreimo-2-todos-os-episodios",
      "texto_original": "Ore no Imouto ga Konnani Kawaii Wake ga Nai.",
      "rating": 7.14,
      "classificacao_etaria": "A14",
      "imagem_original": "https://animefire.plus/img/animes/oreimo-2.webp",
      "imagem_pasta": "https://animefire.plus/img/animes/oreimo-2/",
      "secao": "legendados",
      "pagina": 59,
      "total_episodios": 0,
      "link_video": "https://animefire.plus/video/oreimo-2"
    },
    {
      "id": 2887,
      "nome": "Ore no Kanojo to Osananajimi ga Shuraba Sugiru",
      "link": "https://animefire.plus/animes/ore-no-kanojo-to-osananajimi-ga-shuraba-sugiru-todos-os-episodios",
      "texto_original": "Ore no Kanojo to Osananajimi ga Shuraba Sugiru",
      "rating": 7.23,
      "classificacao_etaria": "A14",
      "imagem_original": "https://animefire.plus/img/animes/ore-no-kanojo-to-osananajimi-ga-shuraba-sugiru.webp",
      "imagem_pasta": "https://animefire.plus/img/animes/ore-no-kanojo-to-osananajimi-ga-shuraba-sugiru/",
      "secao": "legendados",
      "pagina": 164,
      "total_episodios": 13,
      "link_video": "https://animefire.plus/video/ore-no-kanojo-to-osananajimi-ga-shuraba-sugiru"
    },
    {
      "id": 2888,
      "nome": "Ore no Nounai Sentakushi ga, Gakuen Love Comedy wo Zenryoku de Jama Shiteiru",
      "link": "https://animefire.plus/animes/ore-no-nounai-sentakushi-ga-gakuen-love-comedy-wo-zenryoku-de-jama-shiteiru-todos-os-episodios",
      "texto_original": "Ore no Nounai Sentakushi ga, Gakuen Love Comedy wo Zenryoku de Jama Shiteiru",
      "rating": 7.4,
      "classificacao_etaria": "A14",
      "imagem_original": "https://animefire.plus/img/animes/ore-no-nounai-sentakushi-ga-gakuen-love-comedy-wo-zenryoku-de-jama-shiteiru.webp",
      "imagem_pasta": "https://animefire.plus/img/animes/ore-no-nounai-sentakushi-ga-gakuen-love-comedy-wo-zenryoku-de-jama-shiteiru/",
      "secao": "legendados",
      "pagina": 135,
      "total_episodios": 4,
      "link_video": "https://animefire.plus/video/ore-no-nounai-sentakushi-ga-gakuen-love-comedy-wo-zenryoku-de-jama-shiteiru"
    },
    {
      "id": 2889,
      "nome": "Ore no Nounai Sentakushi ga, Gakuen Love Comedy wo Zenryoku de Jama Shiteiru OVA",
      "link": "https://animefire.plus/animes/ore-no-nounai-sentakushi-ga-gakuen-love-comedy-wo-zenryoku-de-jama-shiteiru-ova-todos-os-episodios",
      "texto_original": "Ore no Nounai Sentakushi ga, Gakuen Love Comedy wo Zenryoku de Jama Shiteiru OVA",
      "rating": 7.27,
      "classificacao_etaria": "A14",
      "imagem_original": "https://animefire.plus/img/animes/ore-no-nounai-sentakushi-ga-gakuen-love-comedy-wo-zenryoku-de-jama-shiteiru-ova.webp",
      "imagem_pasta": "https://animefire.plus/img/animes/ore-no-nounai-sentakushi-ga-gakuen-love-comedy-wo-zenryoku-de-jama-shiteiru-ova/",
      "secao": "legendados",
      "pagina": 75,
      "total_episodios": 1,
      "link_video": "https://animefire.plus/video/ore-no-nounai-sentakushi-ga-gakuen-love-comedy-wo-zenryoku-de-jama-shiteiru-ova"
    },
    {
      "id": 2890,
      "nome": "Ore wa Seikan Kokka no Akutoku Ryoushu!",
      "link": "https://animefire.plus/animes/ore-wa-seikan-kokka-no-akutoku-ryoushu-todos-os-episodios",
      "texto_original": "Ore wa Seikan Kokka no Akutoku Ryoushu!",
      "rating": 7.02,
      "classificacao_etaria": "A14",
      "imagem_original": "https://animefire.plus/img/animes/ore-wa-seikan-kokka-no-akutoku-ryoushu.webp",
      "imagem_pasta": "https://animefire.plus/img/animes/ore-wa-seikan-kokka-no-akutoku-ryoushu/",
      "secao": "legendados",
      "pagina": 5,
      "total_episodios": 12,
      "link_video": "https://animefire.plus/video/ore-wa-seikan-kokka-no-akutoku-ryoushu"
    },
    {
      "id": 2892,
      "nome": "Ore wo Suki nano wa Omae dake ka yo",
      "link": "https://animefire.plus/animes/ore-wo-suki-nano-wa-omae-dake-ka-yo-todos-os-episodios",
      "texto_original": "Ore wo Suki nano wa Omae dake ka yo",
      "rating": 7.39,
      "classificacao_etaria": "A14",
      "imagem_original": "https://animefire.plus/img/animes/ore-wo-suki-nano-wa-omae-dake-ka-yo.webp",
      "imagem_pasta": "https://animefire.plus/img/animes/ore-wo-suki-nano-wa-omae-dake-ka-yo/",
      "secao": "legendados",
      "pagina": 111,
      "total_episodios": 0,
      "link_video": "https://animefire.plus/video/ore-wo-suki-nano-wa-omae-dake-ka-yo"
    },
    {
      "id": 2895,
      "nome": "Orenchi no Furo Jijou",
      "link": "https://animefire.plus/animes/orenchi-no-furo-jijou-todos-os-episodios",
      "texto_original": "Orenchi no Furo Jijou",
      "rating": 7.1,
      "classificacao_etaria": "A14",
      "imagem_original": "https://animefire.plus/img/animes/orenchi-no-furo-jijou.webp",
      "imagem_pasta": "https://animefire.plus/img/animes/orenchi-no-furo-jijou/",
      "secao": "legendados",
      "pagina": 170,
      "total_episodios": 1,
      "link_video": "https://animefire.plus/video/orenchi-no-furo-jijou"
    },
    {
      "id": 2898,
      "nome": "Orient: Awajishima Gekitou-hen",
      "link": "https://animefire.plus/animes/orient-awajishima-gekitou-hen-todos-os-episodios",
      "texto_original": "Orient: Awajishima Gekitou-hen",
      "rating": 7.05,
      "classificacao_etaria": "A14",
      "imagem_original": "https://animefire.plus/img/animes/orient-awajishima-gekitou-hen.webp",
      "imagem_pasta": "https://animefire.plus/img/animes/orient-awajishima-gekitou-hen/",
      "secao": "legendados,lancamentos",
      "pagina": 30,
      "total_episodios": 3,
      "link_video": "https://animefire.plus/video/orient-awajishima-gekitou-hen"
    },
    {
      "id": 2900,
      "nome": "Oruchuban Ebichu",
      "link": "https://animefire.plus/animes/oruchuban-ebichu-todos-os-episodios",
      "texto_original": "Oruchuban Ebichu",
      "rating": 7.48,
      "classificacao_etaria": "A18",
      "imagem_original": "https://animefire.plus/img/animes/oruchuban-ebichu.webp",
      "imagem_pasta": "https://animefire.plus/img/animes/oruchuban-ebichu/",
      "secao": "legendados",
      "pagina": 143,
      "total_episodios": 12,
      "link_video": "https://animefire.plus/video/oruchuban-ebichu"
    },
    {
      "id": 2902,
      "nome": "Osake wa Fuufu ni Natte kara: Yuzu Atsukan",
      "link": "https://animefire.plus/animes/osake-wa-fuufu-ni-natte-kara-yuzu-atsukan-todos-os-episodios",
      "texto_original": "Osake wa Fuufu ni Natte kara: Yuzu Atsukan",
      "rating": 7.03,
      "classificacao_etaria": "A14",
      "imagem_original": "https://animefire.plus/img/animes/osake-wa-fuufu-ni-natte-kara-yuzu-atsukan.webp",
      "imagem_pasta": "https://animefire.plus/img/animes/osake-wa-fuufu-ni-natte-kara-yuzu-atsukan/",
      "secao": "legendados",
      "pagina": 89,
      "total_episodios": 1,
      "link_video": "https://animefire.plus/video/osake-wa-fuufu-ni-natte-kara-yuzu-atsukan"
    },
    {
      "id": 2904,
      "nome": "Oshi ga Budoukan Ittekuretara Shinu",
      "link": "https://animefire.plus/animes/oshi-ga-budoukan-ittekuretara-shinu-todos-os-episodios",
      "texto_original": "Oshi ga Budoukan Ittekuretara Shinu",
      "rating": 7.45,
      "classificacao_etaria": "A14",
      "imagem_original": "https://animefire.plus/img/animes/oshi-ga-budoukan-ittekuretara-shinu.webp",
      "imagem_pasta": "https://animefire.plus/img/animes/oshi-ga-budoukan-ittekuretara-shinu/",
      "secao": "legendados",
      "pagina": 92,
      "total_episodios": 0,
      "link_video": "https://animefire.plus/video/oshi-ga-budoukan-ittekuretara-shinu"
    },
    {
      "id": 2906,
      "nome": "Oshiete! Galko-chan",
      "link": "https://animefire.plus/animes/oshiete-galko-chan-todos-os-episodios",
      "texto_original": "Oshiete! Galko-chan",
      "rating": 7.18,
      "classificacao_etaria": "A14",
      "imagem_original": "https://animefire.plus/img/animes/oshiete-galko-chan.webp",
      "imagem_pasta": "https://animefire.plus/img/animes/oshiete-galko-chan/",
      "secao": "legendados",
      "pagina": 152,
      "total_episodios": 5,
      "link_video": "https://animefire.plus/video/oshiete-galko-chan"
    },
    {
      "id": 2908,
      "nome": "Osomatsu-san 2nd Season",
      "link": "https://animefire.plus/animes/osomatsu-san-2nd-season-todos-os-episodios",
      "texto_original": "Osomatsu-san 2nd Season",
      "rating": 7.61,
      "classificacao_etaria": "A16",
      "imagem_original": "https://animefire.plus/img/animes/osomatsu-san-2nd-season.webp",
      "imagem_pasta": "https://animefire.plus/img/animes/osomatsu-san-2nd-season/",
      "secao": "legendados",
      "pagina": 51,
      "total_episodios": 25,
      "link_video": "https://animefire.plus/video/osomatsu-san-2nd-season"
    },
    {
      "id": 2911,
      "nome": "Osomatsu-san: Ouma de Kobanashi",
      "link": "https://animefire.plus/animes/osomatsu-san-ouma-de-kobanashi-todos-os-episodios",
      "texto_original": "Osomatsu-san: Ouma de Kobanashi",
      "rating": 7.31,
      "classificacao_etaria": "A16",
      "imagem_original": "https://animefire.plus/img/animes/osomatsu-san-ouma-de-kobanashi.webp",
      "imagem_pasta": "https://animefire.plus/img/animes/osomatsu-san-ouma-de-kobanashi/",
      "secao": "legendados",
      "pagina": 89,
      "total_episodios": 1,
      "link_video": "https://animefire.plus/video/osomatsu-san-ouma-de-kobanashi"
    },
    {
      "id": 2912,
      "nome": "Otaku no Video",
      "link": "https://animefire.plus/animes/otaku-no-video-todos-os-episodios",
      "texto_original": "Otaku no Video",
      "rating": 7.16,
      "classificacao_etaria": "A18",
      "imagem_original": "https://animefire.plus/img/animes/otaku-no-video.webp",
      "imagem_pasta": "https://animefire.plus/img/animes/otaku-no-video/",
      "secao": "legendados",
      "pagina": 66,
      "total_episodios": 2,
      "link_video": "https://animefire.plus/video/otaku-no-video"
    },
    {
      "id": 2913,
      "nome": "Otogizoushi",
      "link": "https://animefire.plus/animes/otogizoushi-todos-os-episodios",
      "texto_original": "Otogizoushi",
      "rating": 7.03,
      "classificacao_etaria": "A14",
      "imagem_original": "https://animefire.plus/img/animes/otogizoushi.webp",
      "imagem_pasta": "https://animefire.plus/img/animes/otogizoushi/",
      "secao": "legendados",
      "pagina": 122,
      "total_episodios": 0,
      "link_video": "https://animefire.plus/video/otogizoushi"
    },
    {
      "id": 2914,
      "nome": "Otome Game no Hametsu Flag shika Nai Akuyaku Reijou ni Tensei shiteshimatta...",
      "link": "https://animefire.plus/animes/otome-game-no-hametsu-flag-shika-nai-akuyaku-reijou-ni-tensei-shiteshimatta-todos-os-episodios",
      "texto_original": "Otome Game no Hametsu Flag shika Nai Akuyaku Reijou ni Tensei shiteshimatta...",
      "rating": 7.49,
      "classificacao_etaria": "A14",
      "imagem_original": "https://animefire.plus/img/animes/otome-game-no-hametsu-flag-shika-nai-akuyaku-reijou-ni-tensei-shiteshimatta.webp",
      "imagem_pasta": "https://animefire.plus/img/animes/otome-game-no-hametsu-flag-shika-nai-akuyaku-reijou-ni-tensei-shiteshimatta/",
      "secao": "legendados",
      "pagina": 81,
      "total_episodios": 12,
      "link_video": "https://animefire.plus/video/otome-game-no-hametsu-flag-shika-nai-akuyaku-reijou-ni-tensei-shiteshimatta"
    },
    {
      "id": 2916,
      "nome": "Otome Game no Hametsu Flag shika Nai Akuyaku Reijou ni Tensei shiteshimatta... X",
      "link": "https://animefire.plus/animes/otome-game-no-hametsu-flag-shika-nai-akuyaku-reijou-ni-tensei-shiteshimatta-x-todos-os-episodios",
      "texto_original": "Otome Game no Hametsu Flag shika Nai Akuyaku Reijou ni Tensei shiteshimatta... X",
      "rating": 7.25,
      "classificacao_etaria": "A14",
      "imagem_original": "https://animefire.plus/img/animes/otome-game-no-hametsu-flag-shika-nai-akuyaku-reijou-ni-tensei-shiteshimatta-x.webp",
      "imagem_pasta": "https://animefire.plus/img/animes/otome-game-no-hametsu-flag-shika-nai-akuyaku-reijou-ni-tensei-shiteshimatta-x/",
      "secao": "legendados",
      "pagina": 45,
      "total_episodios": 12,
      "link_video": "https://animefire.plus/video/otome-game-no-hametsu-flag-shika-nai-akuyaku-reijou-ni-tensei-shiteshimatta-x"
    },
    {
      "id": 2917,
      "nome": "Otome Game Sekai wa Mob ni Kibishii Sekai desu",
      "link": "https://animefire.plus/animes/otome-game-sekai-wa-mob-ni-kibishii-sekai-desu-todos-os-episodios",
      "texto_original": "Otome Game Sekai wa Mob ni Kibishii Sekai desu",
      "rating": 7.32,
      "classificacao_etaria": "A14",
      "imagem_original": "https://animefire.plus/img/animes/otome-game-sekai-wa-mob-ni-kibishii-sekai-desu.webp",
      "imagem_pasta": "https://animefire.plus/img/animes/otome-game-sekai-wa-mob-ni-kibishii-sekai-desu/",
      "secao": "legendados",
      "pagina": 34,
      "total_episodios": 12,
      "link_video": "https://animefire.plus/video/otome-game-sekai-wa-mob-ni-kibishii-sekai-desu"
    },
    {
      "id": 2918,
      "nome": "Otome wa Boku ni Koishiteru",
      "link": "https://animefire.plus/animes/otome-wa-boku-ni-koishiteru-todos-os-episodios",
      "texto_original": "Otome wa Boku ni Koishiteru",
      "rating": 7.12,
      "classificacao_etaria": "A14",
      "imagem_original": "https://animefire.plus/img/animes/otome-wa-boku-ni-koishiteru.webp",
      "imagem_pasta": "https://animefire.plus/img/animes/otome-wa-boku-ni-koishiteru/",
      "secao": "legendados",
      "pagina": 134,
      "total_episodios": 12,
      "link_video": "https://animefire.plus/video/otome-wa-boku-ni-koishiteru"
    }
  ],
  "pagination": {
    "current_page": 61,
    "per_page": 20,
    "total_items": 1905,
    "total_pages": 96,
    "has_next": true,
    "has_prev": true
  }
}
