{
  "message": "Animes com rating entre 7 e 8",
  "rating_range": {
    "min": 7,
    "max": 8
  },
  "data": [
    {
      "id": 3086,
      "nome": "Re-Main (Dublado)",
      "link": "https://animefire.plus/animes/re-main-dublado-todos-os-episodios",
      "texto_original": "Re-Main (Dublado)",
      "rating": 7.19,
      "classificacao_etaria": "A14",
      "imagem_original": "https://animefire.plus/img/animes/re-main.webp",
      "imagem_pasta": "https://animefire.plus/img/animes/re-main/",
      "secao": "dublados,legendados",
      "pagina": 11,
      "total_episodios": 12,
      "link_video": "https://animefire.plus/video/re-main-dublado"
    },
    {
      "id": 3087,
      "nome": "Re:␣Hamatora",
      "link": "https://animefire.plus/animes/re-hamatora-todos-os-episodios",
      "texto_original": "Re:␣Hamatora",
      "rating": 7.45,
      "classificacao_etaria": "A16",
      "imagem_original": "https://animefire.plus/img/animes/re-hamatora.webp",
      "imagem_pasta": "https://animefire.plus/img/animes/re-hamatora/",
      "secao": "legendados",
      "pagina": 91,
      "total_episodios": 12,
      "link_video": "https://animefire.plus/video/re-hamatora"
    },
    {
      "id": 3088,
      "nome": "Re:Creators",
      "link": "https://animefire.plus/animes/re-creators-todos-os-episodios",
      "texto_original": "Re:Creators",
      "rating": 7.64,
      "classificacao_etaria": "A16",
      "imagem_original": "https://animefire.plus/img/animes/re-creators.webp",
      "imagem_pasta": "https://animefire.plus/img/animes/re-creators/",
      "secao": "legendados",
      "pagina": 121,
      "total_episodios": 22,
      "link_video": "https://animefire.plus/video/re-creators"
    },
    {
      "id": 3091,
      "nome": "Re:Zero kara Hajimeru Isekai Seikatsu - Memory Snow",
      "link": "https://animefire.plus/animes/re-zero-kara-hajimeru-isekai-seikatsu---memory-snow-todos-os-episodios",
      "texto_original": "Re:Zero kara Hajimeru Isekai Seikatsu - Memory Snow",
      "rating": 7.65,
      "classificacao_etaria": "A14",
      "imagem_original": "https://animefire.plus/img/animes/re-zero-kara-hajimeru-isekai-seikatsu---memory-snow.webp",
      "imagem_pasta": "https://animefire.plus/img/animes/re-zero-kara-hajimeru-isekai-seikatsu---memory-snow/",
      "secao": "legendados",
      "pagina": 98,
      "total_episodios": 1,
      "link_video": "https://animefire.plus/video/re-zero-kara-hajimeru-isekai-seikatsu---memory-snow"
    },
    {
      "id": 3101,
      "nome": "Red Garden",
      "link": "https://animefire.plus/animes/red-garden-todos-os-episodios",
      "texto_original": "Red Garden",
      "rating": 7.15,
      "classificacao_etaria": "A16",
      "imagem_original": "https://animefire.plus/img/animes/red-garden.webp",
      "imagem_pasta": "https://animefire.plus/img/animes/red-garden/",
      "secao": "legendados",
      "pagina": 131,
      "total_episodios": 22,
      "link_video": "https://animefire.plus/video/red-garden"
    },
    {
      "id": 3103,
      "nome": "Reikenzan: Eichi e no Shikaku",
      "link": "https://animefire.plus/animes/reikenzan-eichi-e-no-shikaku-todos-os-episodios",
      "texto_original": "Reikenzan: Eichi e no Shikaku",
      "rating": 7.03,
      "classificacao_etaria": "A14",
      "imagem_original": "https://animefire.plus/img/animes/reikenzan-eichi-e-no-shikaku.webp",
      "imagem_pasta": "https://animefire.plus/img/animes/reikenzan-eichi-e-no-shikaku/",
      "secao": "legendados",
      "pagina": 151,
      "total_episodios": 12,
      "link_video": "https://animefire.plus/video/reikenzan-eichi-e-no-shikaku"
    },
    {
      "id": 3104,
      "nome": "Reikenzan: Hoshikuzu-tachi no Utage",
      "link": "https://animefire.plus/animes/reikenzan-hoshikuzu-tachi-no-utage-todos-os-episodios",
      "texto_original": "Reikenzan: Hoshikuzu-tachi no Utage",
      "rating": 7.21,
      "classificacao_etaria": "A14",
      "imagem_original": "https://animefire.plus/img/animes/reikenzan-hoshikuzu-tachi-no-utage.webp",
      "imagem_pasta": "https://animefire.plus/img/animes/reikenzan-hoshikuzu-tachi-no-utage/",
      "secao": "legendados",
      "pagina": 166,
      "total_episodios": 12,
      "link_video": "https://animefire.plus/video/reikenzan-hoshikuzu-tachi-no-utage"
    },
    {
      "id": 3105,
      "nome": "Rekishi ni Nokoru Akujo ni Naru zo",
      "link": "https://animefire.plus/animes/rekishi-ni-nokoru-akujo-ni-naru-zo-todos-os-episodios",
      "texto_original": "Rekishi ni Nokoru Akujo ni Naru zo",
      "rating": 7.33,
      "classificacao_etaria": "A14",
      "imagem_original": "https://animefire.plus/img/animes/rekishi-ni-nokoru-akujo-ni-naru-zo.webp",
      "imagem_pasta": "https://animefire.plus/img/animes/rekishi-ni-nokoru-akujo-ni-naru-zo/",
      "secao": "legendados",
      "pagina": 11,
      "total_episodios": 13,
      "link_video": "https://animefire.plus/video/rekishi-ni-nokoru-akujo-ni-naru-zo"
    },
    {
      "id": 3106,
      "nome": "Rekka no Honoo",
      "link": "https://animefire.plus/animes/rekka-no-honoo-todos-os-episodios",
      "texto_original": "Rekka no Honoo",
      "rating": 7.41,
      "classificacao_etaria": "A14",
      "imagem_original": "https://animefire.plus/img/animes/rekka-no-honoo.webp",
      "imagem_pasta": "https://animefire.plus/img/animes/rekka-no-honoo/",
      "secao": "legendados",
      "pagina": 162,
      "total_episodios": 42,
      "link_video": "https://animefire.plus/video/rekka-no-honoo"
    },
    {
      "id": 3107,
      "nome": "Release the Spyce",
      "link": "https://animefire.plus/animes/release-the-spyce-todos-os-episodios",
      "texto_original": "Release the Spyce",
      "rating": 7.09,
      "classificacao_etaria": "A14",
      "imagem_original": "https://animefire.plus/img/animes/release-the-spyce.webp",
      "imagem_pasta": "https://animefire.plus/img/animes/release-the-spyce/",
      "secao": "legendados",
      "pagina": 156,
      "total_episodios": 12,
      "link_video": "https://animefire.plus/video/release-the-spyce"
    },
    {
      "id": 3113,
      "nome": "Renkin San-kyuu Magical? Pokaan",
      "link": "https://animefire.plus/animes/renkin-san-kyuu-magical-pokaan-todos-os-episodios",
      "texto_original": "Renkin San-kyuu Magical? Pokaan",
      "rating": 7,
      "classificacao_etaria": "A18",
      "imagem_original": "https://animefire.plus/img/animes/renkin-san-kyuu-magical-pokaan.webp",
      "imagem_pasta": "https://animefire.plus/img/animes/renkin-san-kyuu-magical-pokaan/",
      "secao": "legendados",
      "pagina": 65,
      "total_episodios": 12,
      "link_video": "https://animefire.plus/video/renkin-san-kyuu-magical-pokaan"
    },
    {
      "id": 3115,
      "nome": "Rental Magica",
      "link": "https://animefire.plus/animes/rental-magica-todos-os-episodios",
      "texto_original": "Rental Magica",
      "rating": 7.12,
      "classificacao_etaria": "A14",
      "imagem_original": "https://animefire.plus/img/animes/rental-magica.webp",
      "imagem_pasta": "https://animefire.plus/img/animes/rental-magica/",
      "secao": "legendados",
      "pagina": 141,
      "total_episodios": 24,
      "link_video": "https://animefire.plus/video/rental-magica"
    },
    {
      "id": 3121,
      "nome": "RideBack",
      "link": "https://animefire.plus/animes/rideback-todos-os-episodios",
      "texto_original": "RideBack",
      "rating": 7.33,
      "classificacao_etaria": "A14",
      "imagem_original": "https://animefire.plus/img/animes/rideback.webp",
      "imagem_pasta": "https://animefire.plus/img/animes/rideback/",
      "secao": "legendados",
      "pagina": 130,
      "total_episodios": 12,
      "link_video": "https://animefire.plus/video/rideback"
    },
    {
      "id": 3122,
      "nome": "Riding Bean",
      "link": "https://animefire.plus/animes/riding-bean-todos-os-episodios",
      "texto_original": "Riding Bean",
      "rating": 7.09,
      "classificacao_etaria": "A18",
      "imagem_original": "https://animefire.plus/img/animes/riding-bean.webp",
      "imagem_pasta": "https://animefire.plus/img/animes/riding-bean/",
      "secao": "legendados",
      "pagina": 67,
      "total_episodios": 1,
      "link_video": "https://animefire.plus/video/riding-bean"
    },
    {
      "id": 3124,
      "nome": "Rikei ga Koi ni Ochita no de Shoumei shitemita. (Dublado)",
      "link": "https://animefire.plus/animes/rikei-ga-koi-ni-ochita-no-de-shoumei-shitemita-dublado-todos-os-episodios",
      "texto_original": "Rikei ga Koi ni Ochita no de Shoumei shitemita. (Dublado)",
      "rating": 7.36,
      "classificacao_etaria": "A14",
      "imagem_original": "https://animefire.plus/img/animes/rikei-ga-koi-ni-ochita-no-de-shoumei-shitemita.webp",
      "imagem_pasta": "https://animefire.plus/img/animes/rikei-ga-koi-ni-ochita-no-de-shoumei-shitemita/",
      "secao": "dublados,legendados",
      "pagina": 8,
      "total_episodios": 12,
      "link_video": "https://animefire.plus/video/rikei-ga-koi-ni-ochita-no-de-shoumei-shitemita-dublado"
    },
    {
      "id": 3125,
      "nome": "Rikei ga Koi ni Ochita no de Shoumei shitemita. Heart (Dublado)",
      "link": "https://animefire.plus/animes/rikei-ga-koi-ni-ochita-no-de-shoumei-shitemita-heart-dublado-todos-os-episodios",
      "texto_original": "Rikei ga Koi ni Ochita no de Shoumei shitemita. Heart (Dublado)",
      "rating": 7.3,
      "classificacao_etaria": "A14",
      "imagem_original": "https://animefire.plus/img/animes/rikei-ga-koi-ni-ochita-no-de-shoumei-shitemita-heart.webp",
      "imagem_pasta": "https://animefire.plus/img/animes/rikei-ga-koi-ni-ochita-no-de-shoumei-shitemita-heart/",
      "secao": "dublados,legendados",
      "pagina": 12,
      "total_episodios": 12,
      "link_video": "https://animefire.plus/video/rikei-ga-koi-ni-ochita-no-de-shoumei-shitemita-heart-dublado"
    },
    {
      "id": 3131,
      "nome": "Rinne no Lagrange Season 2",
      "link": "https://animefire.plus/animes/rinne-no-lagrange-season-2-todos-os-episodios",
      "texto_original": "Rinne no Lagrange Season 2",
      "rating": 7.03,
      "classificacao_etaria": "A14",
      "imagem_original": "https://animefire.plus/img/animes/rinne-no-lagrange-season-2.webp",
      "imagem_pasta": "https://animefire.plus/img/animes/rinne-no-lagrange-season-2/",
      "secao": "legendados",
      "pagina": 161,
      "total_episodios": 3,
      "link_video": "https://animefire.plus/video/rinne-no-lagrange-season-2"
    },
    {
      "id": 3135,
      "nome": "Ristorante Paradiso",
      "link": "https://animefire.plus/animes/ristorante-paradiso-todos-os-episodios",
      "texto_original": "Ristorante Paradiso",
      "rating": 7.42,
      "classificacao_etaria": "A14",
      "imagem_original": "https://animefire.plus/img/animes/ristorante-paradiso.webp",
      "imagem_pasta": "https://animefire.plus/img/animes/ristorante-paradiso/",
      "secao": "legendados",
      "pagina": 150,
      "total_episodios": 11,
      "link_video": "https://animefire.plus/video/ristorante-paradiso"
    },
    {
      "id": 3138,
      "nome": "Ro-Kyu-Bu! SS",
      "link": "https://animefire.plus/animes/ro-kyu-bu-ss-todos-os-episodios",
      "texto_original": "Ro-Kyu-Bu! SS",
      "rating": 7.22,
      "classificacao_etaria": "A14",
      "imagem_original": "https://animefire.plus/img/animes/ro-kyu-bu-ss.webp",
      "imagem_pasta": "https://animefire.plus/img/animes/ro-kyu-bu-ss/",
      "secao": "legendados",
      "pagina": 175,
      "total_episodios": 1,
      "link_video": "https://animefire.plus/video/ro-kyu-bu-ss"
    },
    {
      "id": 3139,
      "nome": "Ro-Kyu-Bu!: Tomoka no Ichigo Sundae",
      "link": "https://animefire.plus/animes/ro-kyu-bu-tomoka-no-ichigo-sundae-todos-os-episodios",
      "texto_original": "Ro-Kyu-Bu!: Tomoka no Ichigo Sundae",
      "rating": 7.03,
      "classificacao_etaria": "A14",
      "imagem_original": "https://animefire.plus/img/animes/ro-kyu-bu-tomoka-no-ichigo-sundae.webp",
      "imagem_pasta": "https://animefire.plus/img/animes/ro-kyu-bu-tomoka-no-ichigo-sundae/",
      "secao": "legendados",
      "pagina": 85,
      "total_episodios": 1,
      "link_video": "https://animefire.plus/video/ro-kyu-bu-tomoka-no-ichigo-sundae"
    }
  ],
  "pagination": {
    "current_page": 66,
    "per_page": 20,
    "total_items": 1905,
    "total_pages": 96,
    "has_next": true,
    "has_prev": true
  }
}
