{
  "message": "Animes com rating entre 7 e 8",
  "rating_range": {
    "min": 7,
    "max": 8
  },
  "data": [
    {
      "id": 1839,
      "nome": "Kami nomi zo Shiru Sekai: 4-nin to Idol",
      "link": "https://animefire.plus/animes/kami-nomi-zo-shiru-sekai-4-nin-to-idol-todos-os-episodios",
      "texto_original": "Kami nomi zo Shiru Sekai: 4-nin to Idol",
      "rating": 7.35,
      "classificacao_etaria": "A14",
      "imagem_original": "https://animefire.plus/img/animes/kami-nomi-zo-shiru-sekai-4-nin-to-idol.webp",
      "imagem_pasta": "https://animefire.plus/img/animes/kami-nomi-zo-shiru-sekai-4-nin-to-idol/",
      "secao": "legendados",
      "pagina": 64,
      "total_episodios": 1,
      "link_video": "https://animefire.plus/video/kami-nomi-zo-shiru-sekai-4-nin-to-idol"
    },
    {
      "id": 1841,
      "nome": "Kami nomi zo Shiru Sekai: Tenri-hen",
      "link": "https://animefire.plus/animes/kami-nomi-zo-shiru-sekai-tenri-hen-todos-os-episodios",
      "texto_original": "Kami nomi zo Shiru Sekai: Tenri-hen",
      "rating": 7.75,
      "classificacao_etaria": "A14",
      "imagem_original": "https://animefire.plus/img/animes/kami-nomi-zo-shiru-sekai-tenri-hen.webp",
      "imagem_pasta": "https://animefire.plus/img/animes/kami-nomi-zo-shiru-sekai-tenri-hen/",
      "secao": "legendados",
      "pagina": 64,
      "total_episodios": 1,
      "link_video": "https://animefire.plus/video/kami-nomi-zo-shiru-sekai-tenri-hen"
    },
    {
      "id": 1846,
      "nome": "Kamichama Karin",
      "link": "https://animefire.plus/animes/kamichama-karin-todos-os-episodios",
      "texto_original": "Kamichama Karin",
      "rating": 7.42,
      "classificacao_etaria": "A14",
      "imagem_original": "https://animefire.plus/img/animes/kamichama-karin.webp",
      "imagem_pasta": "https://animefire.plus/img/animes/kamichama-karin/",
      "secao": "legendados",
      "pagina": 115,
      "total_episodios": 26,
      "link_video": "https://animefire.plus/video/kamichama-karin"
    },
    {
      "id": 1847,
      "nome": "Kamichu!",
      "link": "https://animefire.plus/animes/kamichu-todos-os-episodios",
      "texto_original": "Kamichu!",
      "rating": 7.45,
      "classificacao_etaria": null,
      "imagem_original": "https://animefire.plus/img/animes/kamichu.webp",
      "imagem_pasta": "https://animefire.plus/img/animes/kamichu/",
      "secao": "legendados",
      "pagina": 151,
      "total_episodios": 16,
      "link_video": "https://animefire.plus/video/kamichu"
    },
    {
      "id": 1850,
      "nome": "Kamigami no Asobi",
      "link": "https://animefire.plus/animes/kamigami-no-asobi-todos-os-episodios",
      "texto_original": "Kamigami no Asobi",
      "rating": 7.26,
      "classificacao_etaria": "A14",
      "imagem_original": "https://animefire.plus/img/animes/kamigami-no-asobi.webp",
      "imagem_pasta": "https://animefire.plus/img/animes/kamigami-no-asobi/",
      "secao": "legendados",
      "pagina": 156,
      "total_episodios": 0,
      "link_video": "https://animefire.plus/video/kamigami-no-asobi"
    },
    {
      "id": 1851,
      "nome": "Kamikaze Kaitou Jeanne",
      "link": "https://animefire.plus/animes/kamikaze-kaitou-jeanne-todos-os-episodios",
      "texto_original": "Kamikaze Kaitou Jeanne",
      "rating": 7.52,
      "classificacao_etaria": "A14",
      "imagem_original": "https://animefire.plus/img/animes/kamikaze-kaitou-jeanne.webp",
      "imagem_pasta": "https://animefire.plus/img/animes/kamikaze-kaitou-jeanne/",
      "secao": "legendados",
      "pagina": 114,
      "total_episodios": 0,
      "link_video": "https://animefire.plus/video/kamikaze-kaitou-jeanne"
    },
    {
      "id": 1853,
      "nome": "Kamisama Dolls",
      "link": "https://animefire.plus/animes/kamisama-dolls-todos-os-episodios",
      "texto_original": "Kamisama Dolls",
      "rating": 7.08,
      "classificacao_etaria": "A16",
      "imagem_original": "https://animefire.plus/img/animes/kamisama-dolls.webp",
      "imagem_pasta": "https://animefire.plus/img/animes/kamisama-dolls/",
      "secao": "legendados",
      "pagina": 91,
      "total_episodios": 13,
      "link_video": "https://animefire.plus/video/kamisama-dolls"
    },
    {
      "id": 1857,
      "nome": "Kamisama Kazoku",
      "link": "https://animefire.plus/animes/kamisama-kazoku-todos-os-episodios",
      "texto_original": "Kamisama Kazoku",
      "rating": 7.2,
      "classificacao_etaria": "A14",
      "imagem_original": "https://animefire.plus/img/animes/kamisama-kazoku.webp",
      "imagem_pasta": "https://animefire.plus/img/animes/kamisama-kazoku/",
      "secao": "legendados",
      "pagina": 144,
      "total_episodios": 13,
      "link_video": "https://animefire.plus/video/kamisama-kazoku"
    },
    {
      "id": 1860,
      "nome": "Kamisama No Inai Nichiyoubi",
      "link": "https://animefire.plus/animes/kamisama-no-inai-nichiyoubi-todos-os-episodios",
      "texto_original": "Kamisama No Inai Nichiyoubi",
      "rating": 7.43,
      "classificacao_etaria": "A16",
      "imagem_original": "https://animefire.plus/img/animes/kamisama-no-inai-nichiyoubi.webp",
      "imagem_pasta": "https://animefire.plus/img/animes/kamisama-no-inai-nichiyoubi/",
      "secao": "legendados",
      "pagina": 96,
      "total_episodios": 9,
      "link_video": "https://animefire.plus/video/kamisama-no-inai-nichiyoubi"
    },
    {
      "id": 1861,
      "nome": "Kamisama no Memochou",
      "link": "https://animefire.plus/animes/kamisama-no-memochou-todos-os-episodios",
      "texto_original": "Kamisama no Memochou",
      "rating": 7.61,
      "classificacao_etaria": "A16",
      "imagem_original": "https://animefire.plus/img/animes/kamisama-no-memochou.webp",
      "imagem_pasta": "https://animefire.plus/img/animes/kamisama-no-memochou/",
      "secao": "legendados",
      "pagina": 157,
      "total_episodios": 12,
      "link_video": "https://animefire.plus/video/kamisama-no-memochou"
    },
    {
      "id": 1863,
      "nome": "Kamonohashi Ron no Kindan Suiri",
      "link": "https://animefire.plus/animes/kamonohashi-ron-no-kindan-suiri-todos-os-episodios",
      "texto_original": "Kamonohashi Ron no Kindan Suiri",
      "rating": 7.5,
      "classificacao_etaria": "A14",
      "imagem_original": "https://animefire.plus/img/animes/kamonohashi-ron-no-kindan-suiri.webp",
      "imagem_pasta": "https://animefire.plus/img/animes/kamonohashi-ron-no-kindan-suiri/",
      "secao": "legendados",
      "pagina": 20,
      "total_episodios": 13,
      "link_video": "https://animefire.plus/video/kamonohashi-ron-no-kindan-suiri"
    },
    {
      "id": 1864,
      "nome": "Kamonohashi Ron no Kindan Suiri 2nd Season",
      "link": "https://animefire.plus/animes/kamonohashi-ron-no-kindan-suiri-2nd-season-todos-os-episodios",
      "texto_original": "Kamonohashi Ron no Kindan Suiri 2nd Season",
      "rating": 7.61,
      "classificacao_etaria": "A14",
      "imagem_original": "https://animefire.plus/img/animes/kamonohashi-ron-no-kindan-suiri-2nd-season.webp",
      "imagem_pasta": "https://animefire.plus/img/animes/kamonohashi-ron-no-kindan-suiri-2nd-season/",
      "secao": "legendados",
      "pagina": 9,
      "total_episodios": 13,
      "link_video": "https://animefire.plus/video/kamonohashi-ron-no-kindan-suiri-2nd-season"
    },
    {
      "id": 1874,
      "nome": "Kannagi",
      "link": "https://animefire.plus/animes/kannagi-todos-os-episodios",
      "texto_original": "Kannagi",
      "rating": 7.37,
      "classificacao_etaria": "A14",
      "imagem_original": "https://animefire.plus/img/animes/kannagi.webp",
      "imagem_pasta": "https://animefire.plus/img/animes/kannagi/",
      "secao": "legendados",
      "pagina": 152,
      "total_episodios": 12,
      "link_video": "https://animefire.plus/video/kannagi"
    },
    {
      "id": 1877,
      "nome": "Kanojo ga Koushaku-tei ni Itta Riyuu (Dublado)",
      "link": "https://animefire.plus/animes/kanojo-ga-koushaku-tei-ni-itta-riyuu-dublado-todos-os-episodios",
      "texto_original": "Kanojo ga Koushaku-tei ni Itta Riyuu (Dublado)",
      "rating": 7.53,
      "classificacao_etaria": "A14",
      "imagem_original": "https://animefire.plus/img/animes/kanojo-ga-koushaku-tei-ni-itta-riyuu.webp",
      "imagem_pasta": "https://animefire.plus/img/animes/kanojo-ga-koushaku-tei-ni-itta-riyuu/",
      "secao": "dublados,legendados",
      "pagina": 6,
      "total_episodios": 12,
      "link_video": "https://animefire.plus/video/kanojo-ga-koushaku-tei-ni-itta-riyuu-dublado"
    },
    {
      "id": 1879,
      "nome": "Kanojo mo Kanojo Season 2 (Dublado)",
      "link": "https://animefire.plus/animes/kanojo-mo-kanojo-season-2-dublado-todos-os-episodios",
      "texto_original": "Kanojo mo Kanojo Season 2 (Dublado)",
      "rating": 7.01,
      "classificacao_etaria": "A14",
      "imagem_original": "https://animefire.plus/img/animes/kanojo-mo-kanojo-season-2.webp",
      "imagem_pasta": "https://animefire.plus/img/animes/kanojo-mo-kanojo-season-2/",
      "secao": "dublados,legendados",
      "pagina": 5,
      "total_episodios": 12,
      "link_video": "https://animefire.plus/video/kanojo-mo-kanojo-season-2-dublado"
    },
    {
      "id": 1880,
      "nome": "Kanojo To Kanojo No Neko: Everything Flows",
      "link": "https://animefire.plus/animes/kanojo-to-kanojo-no-neko-everything-flows-todos-os-episodios",
      "texto_original": "Kanojo To Kanojo No Neko: Everything Flows",
      "rating": 7.75,
      "classificacao_etaria": null,
      "imagem_original": "https://animefire.plus/img/animes/kanojo-to-kanojo-no-neko-everything-flows.webp",
      "imagem_pasta": "https://animefire.plus/img/animes/kanojo-to-kanojo-no-neko-everything-flows/",
      "secao": "legendados",
      "pagina": 98,
      "total_episodios": 4,
      "link_video": "https://animefire.plus/video/kanojo-to-kanojo-no-neko-everything-flows"
    },
    {
      "id": 1881,
      "nome": "Kanojo, Okarishimasu (Dublado)",
      "link": "https://animefire.plus/animes/kanojo-okarishimasu-dublado-todos-os-episodios",
      "texto_original": "Kanojo, Okarishimasu (Dublado)",
      "rating": 7.19,
      "classificacao_etaria": "A14",
      "imagem_original": "https://animefire.plus/img/animes/kanojo-okarishimasu.webp",
      "imagem_pasta": "https://animefire.plus/img/animes/kanojo-okarishimasu/",
      "secao": "dublados,legendados",
      "pagina": 10,
      "total_episodios": 12,
      "link_video": "https://animefire.plus/video/kanojo-okarishimasu-dublado"
    },
    {
      "id": 1883,
      "nome": "Kanojo, Okarishimasu 3rd Season (Dublado)",
      "link": "https://animefire.plus/animes/kanojo-okarishimasu-3rd-season-dublado-todos-os-episodios",
      "texto_original": "Kanojo, Okarishimasu 3rd Season (Dublado)",
      "rating": 7.01,
      "classificacao_etaria": "A14",
      "imagem_original": "https://animefire.plus/img/animes/kanojo-okarishimasu-3rd-season.webp",
      "imagem_pasta": "https://animefire.plus/img/animes/kanojo-okarishimasu-3rd-season/",
      "secao": "dublados,legendados,lancamentos",
      "pagina": 6,
      "total_episodios": 12,
      "link_video": "https://animefire.plus/video/kanojo-okarishimasu-3rd-season-dublado"
    },
    {
      "id": 1889,
      "nome": "Kanpekisugite Kawaige ga Nai to Konyaku Haki sareta Seijo wa Ringoku ni Urareru",
      "link": "https://animefire.plus/animes/kanpekisugite-kawaige-ga-nai-to-konyaku-haki-sareta-seijo-wa-ringoku-ni-urareru-todos-os-episodios",
      "texto_original": "Kanpekisugite Kawaige ga Nai to Konyaku Haki sareta Seijo wa Ringoku ni Urareru",
      "rating": 7.26,
      "classificacao_etaria": "A14",
      "imagem_original": "https://animefire.plus/img/animes/kanpekisugite-kawaige-ga-nai-to-konyaku-haki-sareta-seijo-wa-ringoku-ni-urareru.webp",
      "imagem_pasta": "https://animefire.plus/img/animes/kanpekisugite-kawaige-ga-nai-to-konyaku-haki-sareta-seijo-wa-ringoku-ni-urareru/",
      "secao": "legendados",
      "pagina": 5,
      "total_episodios": 12,
      "link_video": "https://animefire.plus/video/kanpekisugite-kawaige-ga-nai-to-konyaku-haki-sareta-seijo-wa-ringoku-ni-urareru"
    },
    {
      "id": 1892,
      "nome": "Kara no Kyoukai 8: Shuushou",
      "link": "https://animefire.plus/animes/kara-no-kyoukai-8-shuushou-todos-os-episodios",
      "texto_original": "Kara no Kyoukai 8: Shuushou",
      "rating": 7.22,
      "classificacao_etaria": "A14",
      "imagem_original": "https://animefire.plus/img/animes/kara-no-kyoukai-8-shuushou.webp",
      "imagem_pasta": "https://animefire.plus/img/animes/kara-no-kyoukai-8-shuushou/",
      "secao": "legendados",
      "pagina": 77,
      "total_episodios": 1,
      "link_video": "https://animefire.plus/video/kara-no-kyoukai-8-shuushou"
    }
  ],
  "pagination": {
    "current_page": 39,
    "per_page": 20,
    "total_items": 1905,
    "total_pages": 96,
    "has_next": true,
    "has_prev": true
  }
}
