{
  "message": "Animes com rating entre 7 e 8",
  "rating_range": {
    "min": 7,
    "max": 8
  },
  "data": [
    {
      "id": 1070,
      "nome": "Fuuto Tantei (Dublado)",
      "link": "https://animefire.plus/animes/fuuto-tantei-dublado-todos-os-episodios",
      "texto_original": "Fuuto Tantei (Dublado)",
      "rating": 7.32,
      "classificacao_etaria": "A14",
      "imagem_original": "https://animefire.plus/img/animes/fuuto-tantei.webp",
      "imagem_pasta": "https://animefire.plus/img/animes/fuuto-tantei/",
      "secao": "dublados,legendados",
      "pagina": 10,
      "total_episodios": 12,
      "link_video": "https://animefire.plus/video/fuuto-tantei-dublado"
    },
    {
      "id": 1073,
      "nome": "Ga-Rei: Zero",
      "link": "https://animefire.plus/animes/ga-rei-zero-todos-os-episodios",
      "texto_original": "Ga-Rei: Zero",
      "rating": 7.68,
      "classificacao_etaria": "A16",
      "imagem_original": "https://animefire.plus/img/animes/ga-rei-zero.webp",
      "imagem_pasta": "https://animefire.plus/img/animes/ga-rei-zero/",
      "secao": "legendados",
      "pagina": 174,
      "total_episodios": 12,
      "link_video": "https://animefire.plus/video/ga-rei-zero"
    },
    {
      "id": 1074,
      "nome": "Gabriel DropOut",
      "link": "https://animefire.plus/animes/gabriel-dropout-todos-os-episodios",
      "texto_original": "Gabriel DropOut",
      "rating": 7.57,
      "classificacao_etaria": "A14",
      "imagem_original": "https://animefire.plus/img/animes/gabriel-dropout.webp",
      "imagem_pasta": "https://animefire.plus/img/animes/gabriel-dropout/",
      "secao": "legendados",
      "pagina": 107,
      "total_episodios": 12,
      "link_video": "https://animefire.plus/video/gabriel-dropout"
    },
    {
      "id": 1077,
      "nome": "Gaikotsu Kishi-sama, Tadaima Isekai e Odekakechuu",
      "link": "https://animefire.plus/animes/gaikotsu-kishi-sama-tadaima-isekai-e-odekakechuu-todos-os-episodios",
      "texto_original": "Gaikotsu Kishi-sama, Tadaima Isekai e Odekakechuu",
      "rating": 7.14,
      "classificacao_etaria": "A16",
      "imagem_original": "https://animefire.plus/img/animes/gaikotsu-kishi-sama-tadaima-isekai-e-odekakechuu.webp",
      "imagem_pasta": "https://animefire.plus/img/animes/gaikotsu-kishi-sama-tadaima-isekai-e-odekakechuu/",
      "secao": "legendados",
      "pagina": 35,
      "total_episodios": 12,
      "link_video": "https://animefire.plus/video/gaikotsu-kishi-sama-tadaima-isekai-e-odekakechuu"
    },
    {
      "id": 1078,
      "nome": "Gaikotsu Shotenin Honda-san",
      "link": "https://animefire.plus/animes/gaikotsu-shotenin-honda-san-todos-os-episodios",
      "texto_original": "Gaikotsu Shotenin Honda-san",
      "rating": 7.4,
      "classificacao_etaria": "A14",
      "imagem_original": "https://animefire.plus/img/animes/gaikotsu-shotenin-honda-san.webp",
      "imagem_pasta": "https://animefire.plus/img/animes/gaikotsu-shotenin-honda-san/",
      "secao": "legendados",
      "pagina": 126,
      "total_episodios": 12,
      "link_video": "https://animefire.plus/video/gaikotsu-shotenin-honda-san"
    },
    {
      "id": 1080,
      "nome": "Gakkou no Kaidan (Dublado)",
      "link": "https://animefire.plus/animes/gakkou-no-kaidan-dublado-todos-os-episodios",
      "texto_original": "Gakkou no Kaidan (Dublado)",
      "rating": 7.7,
      "classificacao_etaria": "A14",
      "imagem_original": "https://animefire.plus/img/animes/gakkou-no-kaidan.webp",
      "imagem_pasta": "https://animefire.plus/img/animes/gakkou-no-kaidan/",
      "secao": "dublados",
      "pagina": 22,
      "total_episodios": 20,
      "link_video": "https://animefire.plus/video/gakkou-no-kaidan-dublado"
    },
    {
      "id": 1081,
      "nome": "Gakkougurashi!",
      "link": "https://animefire.plus/animes/gakkougurashi-todos-os-episodios",
      "texto_original": "Gakkougurashi!",
      "rating": 7.64,
      "classificacao_etaria": "A16",
      "imagem_original": "https://animefire.plus/img/animes/gakkougurashi.webp",
      "imagem_pasta": "https://animefire.plus/img/animes/gakkougurashi/",
      "secao": "legendados",
      "pagina": 57,
      "total_episodios": 12,
      "link_video": "https://animefire.plus/video/gakkougurashi"
    },
    {
      "id": 1082,
      "nome": "Gakuen Alice",
      "link": "https://animefire.plus/animes/gakuen-alice-todos-os-episodios",
      "texto_original": "Gakuen Alice",
      "rating": 7.75,
      "classificacao_etaria": null,
      "imagem_original": "https://animefire.plus/img/animes/gakuen-alice.webp",
      "imagem_pasta": "https://animefire.plus/img/animes/gakuen-alice/",
      "secao": "legendados",
      "pagina": 176,
      "total_episodios": 26,
      "link_video": "https://animefire.plus/video/gakuen-alice"
    },
    {
      "id": 1083,
      "nome": "Gakuen Babysitters",
      "link": "https://animefire.plus/animes/gakuen-babysitters-todos-os-episodios",
      "texto_original": "Gakuen Babysitters",
      "rating": 7.91,
      "classificacao_etaria": "A14",
      "imagem_original": "https://animefire.plus/img/animes/gakuen-babysitters.webp",
      "imagem_pasta": "https://animefire.plus/img/animes/gakuen-babysitters/",
      "secao": "legendados",
      "pagina": 102,
      "total_episodios": 12,
      "link_video": "https://animefire.plus/video/gakuen-babysitters"
    },
    {
      "id": 1084,
      "nome": "Gakuen Babysitters Special",
      "link": "https://animefire.plus/animes/gakuen-babysitters-special-todos-os-episodios",
      "texto_original": "Gakuen Babysitters Special",
      "rating": 7.59,
      "classificacao_etaria": "A14",
      "imagem_original": "https://animefire.plus/img/animes/gakuen-babysitters-special.webp",
      "imagem_pasta": "https://animefire.plus/img/animes/gakuen-babysitters-special/",
      "secao": "legendados",
      "pagina": 88,
      "total_episodios": 1,
      "link_video": "https://animefire.plus/video/gakuen-babysitters-special"
    },
    {
      "id": 1089,
      "nome": "Gakuen Utopia Manabi Straight!",
      "link": "https://animefire.plus/animes/gakuen-utopia-manabi-straight-todos-os-episodios",
      "texto_original": "Gakuen Utopia Manabi Straight!",
      "rating": 7.32,
      "classificacao_etaria": null,
      "imagem_original": "https://animefire.plus/img/animes/gakuen-utopia-manabi-straight.webp",
      "imagem_pasta": "https://animefire.plus/img/animes/gakuen-utopia-manabi-straight/",
      "secao": "legendados",
      "pagina": 130,
      "total_episodios": 12,
      "link_video": "https://animefire.plus/video/gakuen-utopia-manabi-straight"
    },
    {
      "id": 1090,
      "nome": "Gakusen Toshi Asterisk",
      "link": "https://animefire.plus/animes/gakusen-toshi-asterisk-todos-os-episodios",
      "texto_original": "Gakusen Toshi Asterisk",
      "rating": 7.09,
      "classificacao_etaria": "A14",
      "imagem_original": "https://animefire.plus/img/animes/gakusen-toshi-asterisk.webp",
      "imagem_pasta": "https://animefire.plus/img/animes/gakusen-toshi-asterisk/",
      "secao": "legendados",
      "pagina": 105,
      "total_episodios": 12,
      "link_video": "https://animefire.plus/video/gakusen-toshi-asterisk"
    },
    {
      "id": 1091,
      "nome": "Gakusen Toshi Asterisk 2nd Season",
      "link": "https://animefire.plus/animes/gakusen-toshi-asterisk-2nd-season-todos-os-episodios",
      "texto_original": "Gakusen Toshi Asterisk 2nd Season",
      "rating": 7.28,
      "classificacao_etaria": "A14",
      "imagem_original": "https://animefire.plus/img/animes/gakusen-toshi-asterisk-2nd-season.webp",
      "imagem_pasta": "https://animefire.plus/img/animes/gakusen-toshi-asterisk-2nd-season/",
      "secao": "legendados",
      "pagina": 106,
      "total_episodios": 12,
      "link_video": "https://animefire.plus/video/gakusen-toshi-asterisk-2nd-season"
    },
    {
      "id": 1094,
      "nome": "Galaxy Angel (Dublado)",
      "link": "https://animefire.plus/animes/galaxy-angel-dublado-todos-os-episodios",
      "texto_original": "Galaxy Angel (Dublado)",
      "rating": 7.02,
      "classificacao_etaria": "A14",
      "imagem_original": "https://animefire.plus/img/animes/galaxy-angel.webp",
      "imagem_pasta": "https://animefire.plus/img/animes/galaxy-angel/",
      "secao": "dublados,legendados",
      "pagina": 17,
      "total_episodios": 26,
      "link_video": "https://animefire.plus/video/galaxy-angel-dublado"
    },
    {
      "id": 1096,
      "nome": "Galaxy Angel Z",
      "link": "https://animefire.plus/animes/galaxy-angel-z-todos-os-episodios",
      "texto_original": "Galaxy Angel Z",
      "rating": 7.24,
      "classificacao_etaria": "A10",
      "imagem_original": "https://animefire.plus/img/animes/galaxy-angel-z.webp",
      "imagem_pasta": "https://animefire.plus/img/animes/galaxy-angel-z/",
      "secao": "legendados",
      "pagina": 151,
      "total_episodios": 9,
      "link_video": "https://animefire.plus/video/galaxy-angel-z"
    },
    {
      "id": 1101,
      "nome": "Gamers!",
      "link": "https://animefire.plus/animes/gamers-todos-os-episodios",
      "texto_original": "Gamers!",
      "rating": 7.15,
      "classificacao_etaria": "A14",
      "imagem_original": "https://animefire.plus/img/animes/gamers.webp",
      "imagem_pasta": "https://animefire.plus/img/animes/gamers/",
      "secao": "legendados",
      "pagina": 178,
      "total_episodios": 12,
      "link_video": "https://animefire.plus/video/gamers"
    },
    {
      "id": 1105,
      "nome": "Gangsta.",
      "link": "https://animefire.plus/animes/gangsta-todos-os-episodios",
      "texto_original": "Gangsta.",
      "rating": 7.45,
      "classificacao_etaria": "A16",
      "imagem_original": "https://animefire.plus/img/animes/gangsta.webp",
      "imagem_pasta": "https://animefire.plus/img/animes/gangsta/",
      "secao": "legendados",
      "pagina": 129,
      "total_episodios": 0,
      "link_video": "https://animefire.plus/video/gangsta"
    },
    {
      "id": 1107,
      "nome": "Gantz (Dublado)",
      "link": "https://animefire.plus/animes/gantz-dublado-todos-os-episodios",
      "texto_original": "Gantz (Dublado)",
      "rating": 7.09,
      "classificacao_etaria": "A18",
      "imagem_original": "https://animefire.plus/img/animes/gantz.webp",
      "imagem_pasta": "https://animefire.plus/img/animes/gantz/",
      "secao": "dublados,legendados",
      "pagina": 21,
      "total_episodios": 26,
      "link_video": "https://animefire.plus/video/gantz-dublado"
    },
    {
      "id": 1108,
      "nome": "Gantz 2nd Stage",
      "link": "https://animefire.plus/animes/gantz-2nd-stage-todos-os-episodios",
      "texto_original": "Gantz 2nd Stage",
      "rating": 7.13,
      "classificacao_etaria": "A18",
      "imagem_original": "https://animefire.plus/img/animes/gantz-2nd-stage.webp",
      "imagem_pasta": "https://animefire.plus/img/animes/gantz-2nd-stage/",
      "secao": "legendados",
      "pagina": 63,
      "total_episodios": 13,
      "link_video": "https://animefire.plus/video/gantz-2nd-stage"
    },
    {
      "id": 1109,
      "nome": "Garo Movie: Divine Flame",
      "link": "https://animefire.plus/animes/garo-movie-divine-flame-todos-os-episodios",
      "texto_original": "Garo Movie: Divine Flame",
      "rating": 7.71,
      "classificacao_etaria": "A18",
      "imagem_original": "https://animefire.plus/img/animes/garo-movie-divine-flame.webp",
      "imagem_pasta": "https://animefire.plus/img/animes/garo-movie-divine-flame/",
      "secao": "legendados",
      "pagina": 96,
      "total_episodios": 2,
      "link_video": "https://animefire.plus/video/garo-movie-divine-flame"
    }
  ],
  "pagination": {
    "current_page": 22,
    "per_page": 20,
    "total_items": 1905,
    "total_pages": 96,
    "has_next": true,
    "has_prev": true
  }
}
