{
  "message": "Animes com rating entre 7 e 8",
  "rating_range": {
    "min": 7,
    "max": 8
  },
  "data": [
    {
      "id": 1111,
      "nome": "Garo: Honoo no Kokuin",
      "link": "https://animefire.plus/animes/garo-honoo-no-kokuin-todos-os-episodios",
      "texto_original": "Garo: Honoo no Kokuin",
      "rating": 7.47,
      "classificacao_etaria": "A16",
      "imagem_original": "https://animefire.plus/img/animes/garo-honoo-no-kokuin.webp",
      "imagem_pasta": "https://animefire.plus/img/animes/garo-honoo-no-kokuin/",
      "secao": "legendados",
      "pagina": 138,
      "total_episodios": 0,
      "link_video": "https://animefire.plus/video/garo-honoo-no-kokuin"
    },
    {
      "id": 1112,
      "nome": "Garo: Vanishing Line",
      "link": "https://animefire.plus/animes/garo-vanishing-line-todos-os-episodios",
      "texto_original": "Garo: Vanishing Line",
      "rating": 7.23,
      "classificacao_etaria": "A16",
      "imagem_original": "https://animefire.plus/img/animes/garo-vanishing-line.webp",
      "imagem_pasta": "https://animefire.plus/img/animes/garo-vanishing-line/",
      "secao": "legendados",
      "pagina": 94,
      "total_episodios": 24,
      "link_video": "https://animefire.plus/video/garo-vanishing-line"
    },
    {
      "id": 1114,
      "nome": "Gatchaman Crowds",
      "link": "https://animefire.plus/animes/gatchaman-crowds-todos-os-episodios",
      "texto_original": "Gatchaman Crowds",
      "rating": 7.39,
      "classificacao_etaria": "A14",
      "imagem_original": "https://animefire.plus/img/animes/gatchaman-crowds.webp",
      "imagem_pasta": "https://animefire.plus/img/animes/gatchaman-crowds/",
      "secao": "legendados",
      "pagina": 119,
      "total_episodios": 0,
      "link_video": "https://animefire.plus/video/gatchaman-crowds"
    },
    {
      "id": 1115,
      "nome": "Gatchaman Crowds Insight",
      "link": "https://animefire.plus/animes/gatchaman-crowds-insight-todos-os-episodios",
      "texto_original": "Gatchaman Crowds Insight",
      "rating": 7.36,
      "classificacao_etaria": "A14",
      "imagem_original": "https://animefire.plus/img/animes/gatchaman-crowds-insight.webp",
      "imagem_pasta": "https://animefire.plus/img/animes/gatchaman-crowds-insight/",
      "secao": "legendados",
      "pagina": 101,
      "total_episodios": 0,
      "link_video": "https://animefire.plus/video/gatchaman-crowds-insight"
    },
    {
      "id": 1116,
      "nome": "Gate Keepers",
      "link": "https://animefire.plus/animes/gate-keepers-todos-os-episodios",
      "texto_original": "Gate Keepers",
      "rating": 7.02,
      "classificacao_etaria": "A14",
      "imagem_original": "https://animefire.plus/img/animes/gate-keepers.webp",
      "imagem_pasta": "https://animefire.plus/img/animes/gate-keepers/",
      "secao": "legendados",
      "pagina": 105,
      "total_episodios": 24,
      "link_video": "https://animefire.plus/video/gate-keepers"
    },
    {
      "id": 1118,
      "nome": "Gate: Jieitai Kanochi Nite, Kaku Tatakaeri",
      "link": "https://animefire.plus/animes/gate-jieitai-kanochi-nite-kaku-tatakaeri-todos-os-episodios",
      "texto_original": "Gate: Jieitai Kanochi Nite, Kaku Tatakaeri",
      "rating": 7.85,
      "classificacao_etaria": "A16",
      "imagem_original": "https://animefire.plus/img/animes/gate-jieitai-kanochi-nite-kaku-tatakaeri.webp",
      "imagem_pasta": "https://animefire.plus/img/animes/gate-jieitai-kanochi-nite-kaku-tatakaeri/",
      "secao": "legendados",
      "pagina": 105,
      "total_episodios": 0,
      "link_video": "https://animefire.plus/video/gate-jieitai-kanochi-nite-kaku-tatakaeri"
    },
    {
      "id": 1119,
      "nome": "Gate: Jieitai Kanochi nite, Kaku Tatakaeri 2nd Season",
      "link": "https://animefire.plus/animes/gate-jieitai-kanochi-nite-kaku-tatakaeri-2nd-season-todos-os-episodios",
      "texto_original": "Gate: Jieitai Kanochi nite, Kaku Tatakaeri 2nd Season",
      "rating": 7.82,
      "classificacao_etaria": "A16",
      "imagem_original": "https://animefire.plus/img/animes/gate-jieitai-kanochi-nite-kaku-tatakaeri-2nd-season.webp",
      "imagem_pasta": "https://animefire.plus/img/animes/gate-jieitai-kanochi-nite-kaku-tatakaeri-2nd-season/",
      "secao": "legendados",
      "pagina": 58,
      "total_episodios": 0,
      "link_video": "https://animefire.plus/video/gate-jieitai-kanochi-nite-kaku-tatakaeri-2nd-season"
    },
    {
      "id": 1121,
      "nome": "Gekai Elise",
      "link": "https://animefire.plus/animes/gekai-elise-todos-os-episodios",
      "texto_original": "Gekai Elise",
      "rating": 7.26,
      "classificacao_etaria": "A14",
      "imagem_original": "https://animefire.plus/img/animes/gekai-elise.webp",
      "imagem_pasta": "https://animefire.plus/img/animes/gekai-elise/",
      "secao": "legendados",
      "pagina": 18,
      "total_episodios": 12,
      "link_video": "https://animefire.plus/video/gekai-elise"
    },
    {
      "id": 1127,
      "nome": "Generator Gawl",
      "link": "https://animefire.plus/animes/generator-gawl-todos-os-episodios",
      "texto_original": "Generator Gawl",
      "rating": 7.04,
      "classificacao_etaria": "A14",
      "imagem_original": "https://animefire.plus/img/animes/generator-gawl.webp",
      "imagem_pasta": "https://animefire.plus/img/animes/generator-gawl/",
      "secao": "legendados",
      "pagina": 105,
      "total_episodios": 12,
      "link_video": "https://animefire.plus/video/generator-gawl"
    },
    {
      "id": 1131,
      "nome": "Genjitsu Shugi Yuusha no Oukoku Saikenki (Dublado)",
      "link": "https://animefire.plus/animes/genjitsu-shugi-yuusha-no-oukoku-saikenki-dublado-todos-os-episodios",
      "texto_original": "Genjitsu Shugi Yuusha no Oukoku Saikenki (Dublado)",
      "rating": 7.25,
      "classificacao_etaria": "A14",
      "imagem_original": "https://animefire.plus/img/animes/genjitsu-shugi-yuusha-no-oukoku-saikenki.webp",
      "imagem_pasta": "https://animefire.plus/img/animes/genjitsu-shugi-yuusha-no-oukoku-saikenki/",
      "secao": "dublados,legendados",
      "pagina": 16,
      "total_episodios": 13,
      "link_video": "https://animefire.plus/video/genjitsu-shugi-yuusha-no-oukoku-saikenki-dublado"
    },
    {
      "id": 1132,
      "nome": "Genjitsu Shugi Yuusha no Oukoku Saikenki 2nd Season",
      "link": "https://animefire.plus/animes/genjitsu-shugi-yuusha-no-oukoku-saikenki-2nd-season-todos-os-episodios",
      "texto_original": "Genjitsu Shugi Yuusha no Oukoku Saikenki 2nd Season",
      "rating": 7.43,
      "classificacao_etaria": "A14",
      "imagem_original": "https://animefire.plus/img/animes/genjitsu-shugi-yuusha-no-oukoku-saikenki-2nd-season.webp",
      "imagem_pasta": "https://animefire.plus/img/animes/genjitsu-shugi-yuusha-no-oukoku-saikenki-2nd-season/",
      "secao": "legendados",
      "pagina": 37,
      "total_episodios": 13,
      "link_video": "https://animefire.plus/video/genjitsu-shugi-yuusha-no-oukoku-saikenki-2nd-season"
    },
    {
      "id": 1133,
      "nome": "Genjitsu Shugi Yuusha no Oukoku Saikenki Part 2 (Dublado)",
      "link": "https://animefire.plus/animes/genjitsu-shugi-yuusha-no-oukoku-saikenki-part-2-dublado-todos-os-episodios",
      "texto_original": "Genjitsu Shugi Yuusha no Oukoku Saikenki Part 2 (Dublado)",
      "rating": 7.43,
      "classificacao_etaria": "A14",
      "imagem_original": "https://animefire.plus/img/animes/genjitsu-shugi-yuusha-no-oukoku-saikenki-part-2.webp",
      "imagem_pasta": "https://animefire.plus/img/animes/genjitsu-shugi-yuusha-no-oukoku-saikenki-part-2/",
      "secao": "dublados",
      "pagina": 12,
      "total_episodios": 12,
      "link_video": "https://animefire.plus/video/genjitsu-shugi-yuusha-no-oukoku-saikenki-part-2-dublado"
    },
    {
      "id": 1136,
      "nome": "Genshiken",
      "link": "https://animefire.plus/animes/genshiken-todos-os-episodios",
      "texto_original": "Genshiken",
      "rating": 7.68,
      "classificacao_etaria": "A14",
      "imagem_original": "https://animefire.plus/img/animes/genshiken.webp",
      "imagem_pasta": "https://animefire.plus/img/animes/genshiken/",
      "secao": "legendados",
      "pagina": 79,
      "total_episodios": 12,
      "link_video": "https://animefire.plus/video/genshiken"
    },
    {
      "id": 1137,
      "nome": "Genshiken 2",
      "link": "https://animefire.plus/animes/genshiken-2-todos-os-episodios",
      "texto_original": "Genshiken 2",
      "rating": 7.79,
      "classificacao_etaria": "A16",
      "imagem_original": "https://animefire.plus/img/animes/genshiken-2.webp",
      "imagem_pasta": "https://animefire.plus/img/animes/genshiken-2/",
      "secao": "legendados",
      "pagina": 63,
      "total_episodios": 12,
      "link_video": "https://animefire.plus/video/genshiken-2"
    },
    {
      "id": 1138,
      "nome": "Genshiken Nidaime",
      "link": "https://animefire.plus/animes/genshiken-nidaime-todos-os-episodios",
      "texto_original": "Genshiken Nidaime",
      "rating": 7.48,
      "classificacao_etaria": "A16",
      "imagem_original": "https://animefire.plus/img/animes/genshiken-nidaime.webp",
      "imagem_pasta": "https://animefire.plus/img/animes/genshiken-nidaime/",
      "secao": "legendados",
      "pagina": 63,
      "total_episodios": 13,
      "link_video": "https://animefire.plus/video/genshiken-nidaime"
    },
    {
      "id": 1139,
      "nome": "Genshiken Nidaime OVA",
      "link": "https://animefire.plus/animes/genshiken-nidaime-ova-todos-os-episodios",
      "texto_original": "Genshiken Nidaime OVA",
      "rating": 7.2,
      "classificacao_etaria": "A16",
      "imagem_original": "https://animefire.plus/img/animes/genshiken-nidaime-ova.webp",
      "imagem_pasta": "https://animefire.plus/img/animes/genshiken-nidaime-ova/",
      "secao": "legendados",
      "pagina": 84,
      "total_episodios": 1,
      "link_video": "https://animefire.plus/video/genshiken-nidaime-ova"
    },
    {
      "id": 1143,
      "nome": "Gensoumaden Saiyuuki",
      "link": "https://animefire.plus/animes/gensoumaden-saiyuuki-todos-os-episodios",
      "texto_original": "Gensoumaden Saiyuuki",
      "rating": 7.58,
      "classificacao_etaria": "A16",
      "imagem_original": "https://animefire.plus/img/animes/gensoumaden-saiyuuki.webp",
      "imagem_pasta": "https://animefire.plus/img/animes/gensoumaden-saiyuuki/",
      "secao": "legendados",
      "pagina": 42,
      "total_episodios": 50,
      "link_video": "https://animefire.plus/video/gensoumaden-saiyuuki"
    },
    {
      "id": 1144,
      "nome": "Gensoumaden Saiyuuki OVA",
      "link": "https://animefire.plus/animes/gensoumaden-saiyuuki-ova-todos-os-episodios",
      "texto_original": "Gensoumaden Saiyuuki OVA",
      "rating": 7.13,
      "classificacao_etaria": "A14",
      "imagem_original": "https://animefire.plus/img/animes/gensoumaden-saiyuuki-ova.webp",
      "imagem_pasta": "https://animefire.plus/img/animes/gensoumaden-saiyuuki-ova/",
      "secao": "legendados",
      "pagina": 84,
      "total_episodios": 2,
      "link_video": "https://animefire.plus/video/gensoumaden-saiyuuki-ova"
    },
    {
      "id": 1145,
      "nome": "GetBackers",
      "link": "https://animefire.plus/animes/getbackers-todos-os-episodios",
      "texto_original": "GetBackers",
      "rating": 7.67,
      "classificacao_etaria": "A14",
      "imagem_original": "https://animefire.plus/img/animes/getbackers.webp",
      "imagem_pasta": "https://animefire.plus/img/animes/getbackers/",
      "secao": "legendados",
      "pagina": 134,
      "total_episodios": 49,
      "link_video": "https://animefire.plus/video/getbackers"
    },
    {
      "id": 1150,
      "nome": "Ghost Hunt",
      "link": "https://animefire.plus/animes/ghost-hunt-todos-os-episodios",
      "texto_original": "Ghost Hunt",
      "rating": 7.89,
      "classificacao_etaria": "A14",
      "imagem_original": "https://animefire.plus/img/animes/ghost-hunt.webp",
      "imagem_pasta": "https://animefire.plus/img/animes/ghost-hunt/",
      "secao": "legendados",
      "pagina": 160,
      "total_episodios": 0,
      "link_video": "https://animefire.plus/video/ghost-hunt"
    }
  ],
  "pagination": {
    "current_page": 23,
    "per_page": 20,
    "total_items": 1905,
    "total_pages": 96,
    "has_next": true,
    "has_prev": true
  }
}
