{
  "message": "Animes com rating entre 7 e 8",
  "rating_range": {
    "min": 7,
    "max": 8
  },
  "data": [
    {
      "id": 762,
      "nome": "Days (TV): Touin Gakuen-sen!",
      "link": "https://animefire.plus/animes/days-tv-touin-gakuen-sen-todos-os-episodios",
      "texto_original": "Days (TV): Touin Gakuen-sen!",
      "rating": 7.63,
      "classificacao_etaria": "A14",
      "imagem_original": "https://animefire.plus/img/animes/days-tv-touin-gakuen-sen.webp",
      "imagem_pasta": "https://animefire.plus/img/animes/days-tv-touin-gakuen-sen/",
      "secao": "legendados",
      "pagina": 163,
      "total_episodios": 3,
      "link_video": "https://animefire.plus/video/days-tv-touin-gakuen-sen"
    },
    {
      "id": 764,
      "nome": "Dead Dead Demons Dededede Destruction (ONA)",
      "link": "https://animefire.plus/animes/dead-dead-demons-dededede-destruction-ona-todos-os-episodios",
      "texto_original": "Dead Dead Demons Dededede Destruction (ONA)",
      "rating": 7.92,
      "classificacao_etaria": "A14",
      "imagem_original": "https://animefire.plus/img/animes/dead-dead-demons-dededede-destruction-ona.webp",
      "imagem_pasta": "https://animefire.plus/img/animes/dead-dead-demons-dededede-destruction-ona/",
      "secao": "legendados",
      "pagina": 12,
      "total_episodios": 17,
      "link_video": "https://animefire.plus/video/dead-dead-demons-dededede-destruction-ona"
    },
    {
      "id": 766,
      "nome": "Dead Mount Death Play",
      "link": "https://animefire.plus/animes/dead-mount-death-play-todos-os-episodios",
      "texto_original": "Dead Mount Death Play",
      "rating": 7.27,
      "classificacao_etaria": "A16",
      "imagem_original": "https://animefire.plus/img/animes/dead-mount-death-play.jpg",
      "imagem_pasta": "https://animefire.plus/img/animes/dead-mount-death-play/",
      "secao": "legendados",
      "pagina": 24,
      "total_episodios": 12,
      "link_video": "https://animefire.plus/video/dead-mount-death-play"
    },
    {
      "id": 767,
      "nome": "Dead Mount Death Play Part 2",
      "link": "https://animefire.plus/animes/dead-mount-death-play-part-2-todos-os-episodios",
      "texto_original": "Dead Mount Death Play Part 2",
      "rating": 7.48,
      "classificacao_etaria": "A16",
      "imagem_original": "https://animefire.plus/img/animes/dead-mount-death-play-part-2.webp",
      "imagem_pasta": "https://animefire.plus/img/animes/dead-mount-death-play-part-2/",
      "secao": "legendados",
      "pagina": 19,
      "total_episodios": 12,
      "link_video": "https://animefire.plus/video/dead-mount-death-play-part-2"
    },
    {
      "id": 768,
      "nome": "Deadman Wonderland",
      "link": "https://animefire.plus/animes/deadman-wonderland-todos-os-episodios",
      "texto_original": "Deadman Wonderland",
      "rating": 7.36,
      "classificacao_etaria": "A16",
      "imagem_original": "https://animefire.plus/img/animes/deadman-wonderland.webp",
      "imagem_pasta": "https://animefire.plus/img/animes/deadman-wonderland/",
      "secao": "legendados",
      "pagina": 171,
      "total_episodios": 12,
      "link_video": "https://animefire.plus/video/deadman-wonderland"
    },
    {
      "id": 769,
      "nome": "Deadman Wonderland: Akai Knife Tsukai",
      "link": "https://animefire.plus/animes/deadman-wonderland-akai-knife-tsukai-todos-os-episodios",
      "texto_original": "Deadman Wonderland: Akai Knife Tsukai",
      "rating": 7.02,
      "classificacao_etaria": "A16",
      "imagem_original": "https://animefire.plus/img/animes/deadman-wonderland-akai-knife-tsukai.webp",
      "imagem_pasta": "https://animefire.plus/img/animes/deadman-wonderland-akai-knife-tsukai/",
      "secao": "legendados",
      "pagina": 62,
      "total_episodios": 1,
      "link_video": "https://animefire.plus/video/deadman-wonderland-akai-knife-tsukai"
    },
    {
      "id": 770,
      "nome": "Deaimon",
      "link": "https://animefire.plus/animes/deaimon-todos-os-episodios",
      "texto_original": "Deaimon",
      "rating": 7.55,
      "classificacao_etaria": "A14",
      "imagem_original": "https://animefire.plus/img/animes/deaimon.webp",
      "imagem_pasta": "https://animefire.plus/img/animes/deaimon/",
      "secao": "legendados",
      "pagina": 34,
      "total_episodios": 12,
      "link_video": "https://animefire.plus/video/deaimon"
    },
    {
      "id": 774,
      "nome": "Death Billiards",
      "link": "https://animefire.plus/animes/death-billiards-todos-os-episodios",
      "texto_original": "Death Billiards",
      "rating": 7.98,
      "classificacao_etaria": "A16",
      "imagem_original": "https://animefire.plus/img/animes/death-billiards.webp",
      "imagem_pasta": "https://animefire.plus/img/animes/death-billiards/",
      "secao": "legendados",
      "pagina": 106,
      "total_episodios": 1,
      "link_video": "https://animefire.plus/video/death-billiards"
    },
    {
      "id": 779,
      "nome": "Deca-Dence (Dublado)",
      "link": "https://animefire.plus/animes/deca-dence-dublado-todos-os-episodios",
      "texto_original": "Deca-Dence (Dublado)",
      "rating": 7.42,
      "classificacao_etaria": "A14",
      "imagem_original": "https://animefire.plus/img/animes/deca-dence.webp",
      "imagem_pasta": "https://animefire.plus/img/animes/deca-dence/",
      "secao": "dublados,legendados",
      "pagina": 15,
      "total_episodios": 12,
      "link_video": "https://animefire.plus/video/deca-dence-dublado"
    },
    {
      "id": 783,
      "nome": "Dekiru Neko wa Kyou mo Yuuutsu",
      "link": "https://animefire.plus/animes/dekiru-neko-wa-kyou-mo-yuuutsu-todos-os-episodios",
      "texto_original": "Dekiru Neko wa Kyou mo Yuuutsu",
      "rating": 7.64,
      "classificacao_etaria": "A14",
      "imagem_original": "https://animefire.plus/img/animes/dekiru-neko-wa-kyou-mo-yuuutsu.jpg",
      "imagem_pasta": "https://animefire.plus/img/animes/dekiru-neko-wa-kyou-mo-yuuutsu/",
      "secao": "legendados,lancamentos",
      "pagina": 22,
      "total_episodios": 10,
      "link_video": "https://animefire.plus/video/dekiru-neko-wa-kyou-mo-yuuutsu"
    },
    {
      "id": 788,
      "nome": "Deltora Quest",
      "link": "https://animefire.plus/animes/deltora-quest-todos-os-episodios",
      "texto_original": "Deltora Quest",
      "rating": 7.11,
      "classificacao_etaria": "A14",
      "imagem_original": "https://animefire.plus/img/animes/deltora-quest.webp",
      "imagem_pasta": "https://animefire.plus/img/animes/deltora-quest/",
      "secao": "legendados",
      "pagina": 168,
      "total_episodios": 65,
      "link_video": "https://animefire.plus/video/deltora-quest"
    },
    {
      "id": 789,
      "nome": "Demi-chan wa Kataritai (Dublado)",
      "link": "https://animefire.plus/animes/demi-chan-wa-kataritai-dublado-todos-os-episodios",
      "texto_original": "Demi-chan wa Kataritai (Dublado)",
      "rating": 7.7,
      "classificacao_etaria": "A14",
      "imagem_original": "https://animefire.plus/img/animes/demi-chan-wa-kataritai.webp",
      "imagem_pasta": "https://animefire.plus/img/animes/demi-chan-wa-kataritai/",
      "secao": "dublados,legendados",
      "pagina": 24,
      "total_episodios": 12,
      "link_video": "https://animefire.plus/video/demi-chan-wa-kataritai-dublado"
    },
    {
      "id": 790,
      "nome": "Demi-chan wa Kataritai: Demi-chan no Natsuyasumi (Dublado)",
      "link": "https://animefire.plus/animes/demi-chan-wa-kataritai-demi-chan-no-natsuyasumi-dublado-todos-os-episodios",
      "texto_original": "Demi-chan wa Kataritai: Demi-chan no Natsuyasumi (Dublado)",
      "rating": 7.57,
      "classificacao_etaria": "A14",
      "imagem_original": "https://animefire.plus/img/animes/demi-chan-wa-kataritai-demi-chan-no-natsuyasumi.webp",
      "imagem_pasta": "https://animefire.plus/img/animes/demi-chan-wa-kataritai-demi-chan-no-natsuyasumi/",
      "secao": "dublados",
      "pagina": 24,
      "total_episodios": 1,
      "link_video": "https://animefire.plus/video/demi-chan-wa-kataritai-demi-chan-no-natsuyasumi-dublado"
    },
    {
      "id": 791,
      "nome": "Denki-gai no Honya-san",
      "link": "https://animefire.plus/animes/denki-gai-no-honya-san-todos-os-episodios",
      "texto_original": "Denki-gai no Honya-san",
      "rating": 7.26,
      "classificacao_etaria": "A14",
      "imagem_original": "https://animefire.plus/img/animes/denki-gai-no-honya-san.webp",
      "imagem_pasta": "https://animefire.plus/img/animes/denki-gai-no-honya-san/",
      "secao": "legendados",
      "pagina": 124,
      "total_episodios": 0,
      "link_video": "https://animefire.plus/video/denki-gai-no-honya-san"
    },
    {
      "id": 795,
      "nome": "Denpa Onna To Seishun Otoko",
      "link": "https://animefire.plus/animes/denpa-onna-to-seishun-otoko-todos-os-episodios",
      "texto_original": "Denpa Onna To Seishun Otoko",
      "rating": 7.24,
      "classificacao_etaria": "A14",
      "imagem_original": "https://animefire.plus/img/animes/denpa-onna-to-seishun-otoko.webp",
      "imagem_pasta": "https://animefire.plus/img/animes/denpa-onna-to-seishun-otoko/",
      "secao": "legendados",
      "pagina": 105,
      "total_episodios": 12,
      "link_video": "https://animefire.plus/video/denpa-onna-to-seishun-otoko"
    },
    {
      "id": 796,
      "nome": "Denpa-teki na Kanojo",
      "link": "https://animefire.plus/animes/denpa-teki-na-kanojo-todos-os-episodios",
      "texto_original": "Denpa-teki na Kanojo",
      "rating": 7.64,
      "classificacao_etaria": "A16",
      "imagem_original": "https://animefire.plus/img/animes/denpa-teki-na-kanojo.webp",
      "imagem_pasta": "https://animefire.plus/img/animes/denpa-teki-na-kanojo/",
      "secao": "legendados",
      "pagina": 104,
      "total_episodios": 2,
      "link_video": "https://animefire.plus/video/denpa-teki-na-kanojo"
    },
    {
      "id": 797,
      "nome": "Densetsu no Yuusha no Densetsu",
      "link": "https://animefire.plus/animes/densetsu-no-yuusha-no-densetsu-todos-os-episodios",
      "texto_original": "Densetsu no Yuusha no Densetsu",
      "rating": 7.71,
      "classificacao_etaria": "A16",
      "imagem_original": "https://animefire.plus/img/animes/densetsu-no-yuusha-no-densetsu.webp",
      "imagem_pasta": "https://animefire.plus/img/animes/densetsu-no-yuusha-no-densetsu/",
      "secao": "legendados",
      "pagina": 144,
      "total_episodios": 24,
      "link_video": "https://animefire.plus/video/densetsu-no-yuusha-no-densetsu"
    },
    {
      "id": 798,
      "nome": "Detective Conan: Black History",
      "link": "https://animefire.plus/animes/detective-conan-black-history-todos-os-episodios",
      "texto_original": "Detective Conan: Black History",
      "rating": 7.63,
      "classificacao_etaria": "A14",
      "imagem_original": "https://animefire.plus/img/animes/detective-conan-black-history.webp",
      "imagem_pasta": "https://animefire.plus/img/animes/detective-conan-black-history/",
      "secao": "legendados",
      "pagina": 87,
      "total_episodios": 1,
      "link_video": "https://animefire.plus/video/detective-conan-black-history"
    },
    {
      "id": 799,
      "nome": "Detective Conan: The Fugitive Kogorou Mouri",
      "link": "https://animefire.plus/animes/detective-conan-the-fugitive-kogorou-mouri-todos-os-episodios",
      "texto_original": "Detective Conan: The Fugitive Kogorou Mouri",
      "rating": 7,
      "classificacao_etaria": "A14",
      "imagem_original": "https://animefire.plus/img/animes/detective-conan-the-fugitive-kogorou-mouri.webp",
      "imagem_pasta": "https://animefire.plus/img/animes/detective-conan-the-fugitive-kogorou-mouri/",
      "secao": "legendados",
      "pagina": 83,
      "total_episodios": 1,
      "link_video": "https://animefire.plus/video/detective-conan-the-fugitive-kogorou-mouri"
    },
    {
      "id": 802,
      "nome": "Devil May Cry",
      "link": "https://animefire.plus/animes/devil-may-cry-todos-os-episodios",
      "texto_original": "Devil May Cry",
      "rating": 7.08,
      "classificacao_etaria": "A16",
      "imagem_original": "https://animefire.plus/img/animes/devil-may-cry.webp",
      "imagem_pasta": "https://animefire.plus/img/animes/devil-may-cry/",
      "secao": "legendados",
      "pagina": 178,
      "total_episodios": 12,
      "link_video": "https://animefire.plus/video/devil-may-cry"
    }
  ],
  "pagination": {
    "current_page": 16,
    "per_page": 20,
    "total_items": 1905,
    "total_pages": 96,
    "has_next": true,
    "has_prev": true
  }
}
