{
  "message": "Animes com rating entre 8 e 9",
  "rating_range": {
    "min": 8,
    "max": 9
  },
  "data": [
    {
      "id": 2873,
      "nome": "Ookiku Furikabutte",
      "link": "https://animefire.plus/animes/ookiku-furikabutte-todos-os-episodios",
      "texto_original": "Ookiku Furikabutte",
      "rating": 8.03,
      "classificacao_etaria": "A14",
      "imagem_original": "https://animefire.plus/img/animes/ookiku-furikabutte.webp",
      "imagem_pasta": "https://animefire.plus/img/animes/ookiku-furikabutte/",
      "secao": "legendados",
      "pagina": 117,
      "total_episodios": 25,
      "link_video": "https://animefire.plus/video/ookiku-furikabutte"
    },
    {
      "id": 2874,
      "nome": "Ookiku Furikabutte: Natsu no Taikai-hen",
      "link": "https://animefire.plus/animes/ookiku-furikabutte-natsu-no-taikai-hen-todos-os-episodios",
      "texto_original": "Ookiku Furikabutte: Natsu no Taikai-hen",
      "rating": 8.1,
      "classificacao_etaria": "A14",
      "imagem_original": "https://animefire.plus/img/animes/ookiku-furikabutte-natsu-no-taikai-hen.webp",
      "imagem_pasta": "https://animefire.plus/img/animes/ookiku-furikabutte-natsu-no-taikai-hen/",
      "secao": "legendados",
      "pagina": 157,
      "total_episodios": 13,
      "link_video": "https://animefire.plus/video/ookiku-furikabutte-natsu-no-taikai-hen"
    },
    {
      "id": 2880,
      "nome": "Ore dake Level Up na Ken (Dublado)",
      "link": "https://animefire.plus/animes/ore-dake-level-up-na-ken-dublado-todos-os-episodios",
      "texto_original": "Ore dake Level Up na Ken (Dublado)",
      "rating": 8.24,
      "classificacao_etaria": "A16",
      "imagem_original": "https://animefire.plus/img/animes/ore-dake-level-up-na-ken.webp",
      "imagem_pasta": "https://animefire.plus/img/animes/ore-dake-level-up-na-ken/",
      "secao": "dublados,legendados",
      "pagina": 4,
      "total_episodios": 12,
      "link_video": "https://animefire.plus/video/ore-dake-level-up-na-ken-dublado"
    },
    {
      "id": 2881,
      "nome": "Ore dake Level Up na Ken Season 2: Arise from the Shadow (Dublado)",
      "link": "https://animefire.plus/animes/ore-dake-level-up-na-ken-season-2-arise-from-the-shadow-dublado-todos-os-episodios",
      "texto_original": "Ore dake Level Up na Ken Season 2: Arise from the Shadow (Dublado)",
      "rating": 8.68,
      "classificacao_etaria": "A16",
      "imagem_original": "https://animefire.plus/img/animes/ore-dake-level-up-na-ken-season-2-arise-from-the-shadow.webp",
      "imagem_pasta": "https://animefire.plus/img/animes/ore-dake-level-up-na-ken-season-2-arise-from-the-shadow/",
      "secao": "dublados,legendados",
      "pagina": 1,
      "total_episodios": 13,
      "link_video": "https://animefire.plus/video/ore-dake-level-up-na-ken-season-2-arise-from-the-shadow-dublado"
    },
    {
      "id": 2884,
      "nome": "Ore Monogatari!!",
      "link": "https://animefire.plus/animes/ore-monogatari-todos-os-episodios",
      "texto_original": "Ore Monogatari!!",
      "rating": 8.04,
      "classificacao_etaria": "A14",
      "imagem_original": "https://animefire.plus/img/animes/ore-monogatari.webp",
      "imagem_pasta": "https://animefire.plus/img/animes/ore-monogatari/",
      "secao": "legendados",
      "pagina": 103,
      "total_episodios": 24,
      "link_video": "https://animefire.plus/video/ore-monogatari"
    },
    {
      "id": 2905,
      "nome": "Oshi no Ko",
      "link": "https://animefire.plus/animes/oshi-no-ko-todos-os-episodios",
      "texto_original": "Oshi no Ko",
      "rating": 8.57,
      "classificacao_etaria": "A14",
      "imagem_original": "https://animefire.plus/img/animes/oshi-no-ko.jpg",
      "imagem_pasta": "https://animefire.plus/img/animes/oshi-no-ko/",
      "secao": "legendados",
      "pagina": 23,
      "total_episodios": 11,
      "link_video": "https://animefire.plus/video/oshi-no-ko"
    },
    {
      "id": 2907,
      "nome": "Osomatsu-san",
      "link": "https://animefire.plus/animes/osomatsu-san-todos-os-episodios",
      "texto_original": "Osomatsu-san",
      "rating": 8.06,
      "classificacao_etaria": "A16",
      "imagem_original": "https://animefire.plus/img/animes/osomatsu-san.webp",
      "imagem_pasta": "https://animefire.plus/img/animes/osomatsu-san/",
      "secao": "legendados",
      "pagina": 75,
      "total_episodios": 26,
      "link_video": "https://animefire.plus/video/osomatsu-san"
    },
    {
      "id": 2926,
      "nome": "Ouran Koukou Host Club",
      "link": "https://animefire.plus/animes/ouran-koukou-host-club-todos-os-episodios",
      "texto_original": "Ouran Koukou Host Club",
      "rating": 8.31,
      "classificacao_etaria": "A14",
      "imagem_original": "https://animefire.plus/img/animes/ouran-koukou-host-club.webp",
      "imagem_pasta": "https://animefire.plus/img/animes/ouran-koukou-host-club/",
      "secao": "legendados",
      "pagina": 116,
      "total_episodios": 5,
      "link_video": "https://animefire.plus/video/ouran-koukou-host-club"
    },
    {
      "id": 2929,
      "nome": "Ousama Ranking (Dublado)",
      "link": "https://animefire.plus/animes/ousama-ranking-dublado-todos-os-episodios",
      "texto_original": "Ousama Ranking (Dublado)",
      "rating": 8.49,
      "classificacao_etaria": "A14",
      "imagem_original": "https://animefire.plus/img/animes/ousama-ranking.webp",
      "imagem_pasta": "https://animefire.plus/img/animes/ousama-ranking/",
      "secao": "dublados,legendados",
      "pagina": 14,
      "total_episodios": 23,
      "link_video": "https://animefire.plus/video/ousama-ranking-dublado"
    },
    {
      "id": 2936,
      "nome": "Overlord IV (Dublado)",
      "link": "https://animefire.plus/animes/overlord-iv-dublado-todos-os-episodios",
      "texto_original": "Overlord IV (Dublado)",
      "rating": 8.07,
      "classificacao_etaria": "A16",
      "imagem_original": "https://animefire.plus/img/animes/overlord-iv.webp",
      "imagem_pasta": "https://animefire.plus/img/animes/overlord-iv/",
      "secao": "dublados,legendados",
      "pagina": 10,
      "total_episodios": 13,
      "link_video": "https://animefire.plus/video/overlord-iv-dublado"
    },
    {
      "id": 2942,
      "nome": "Owarimonogatari",
      "link": "https://animefire.plus/animes/owarimonogatari-todos-os-episodios",
      "texto_original": "Owarimonogatari",
      "rating": 8.46,
      "classificacao_etaria": "A16",
      "imagem_original": "https://animefire.plus/img/animes/owarimonogatari.webp",
      "imagem_pasta": "https://animefire.plus/img/animes/owarimonogatari/",
      "secao": "legendados",
      "pagina": 74,
      "total_episodios": 12,
      "link_video": "https://animefire.plus/video/owarimonogatari"
    },
    {
      "id": 2943,
      "nome": "Owarimonogatari 2nd Season",
      "link": "https://animefire.plus/animes/owarimonogatari-2nd-season-todos-os-episodios",
      "texto_original": "Owarimonogatari 2nd Season",
      "rating": 8.95,
      "classificacao_etaria": "A16",
      "imagem_original": "https://animefire.plus/img/animes/owarimonogatari-2nd-season.webp",
      "imagem_pasta": "https://animefire.plus/img/animes/owarimonogatari-2nd-season/",
      "secao": "legendados",
      "pagina": 99,
      "total_episodios": 3,
      "link_video": "https://animefire.plus/video/owarimonogatari-2nd-season"
    },
    {
      "id": 2954,
      "nome": "Paripi Koumei",
      "link": "https://animefire.plus/animes/paripi-koumei-todos-os-episodios",
      "texto_original": "Paripi Koumei",
      "rating": 8.11,
      "classificacao_etaria": "A14",
      "imagem_original": "https://animefire.plus/img/animes/paripi-koumei.webp",
      "imagem_pasta": "https://animefire.plus/img/animes/paripi-koumei/",
      "secao": "legendados",
      "pagina": 34,
      "total_episodios": 12,
      "link_video": "https://animefire.plus/video/paripi-koumei"
    },
    {
      "id": 2975,
      "nome": "Phantom: Requiem for the Phantom",
      "link": "https://animefire.plus/animes/phantom-requiem-for-the-phantom-todos-os-episodios",
      "texto_original": "Phantom: Requiem for the Phantom",
      "rating": 8.08,
      "classificacao_etaria": "A18",
      "imagem_original": "https://animefire.plus/img/animes/phantom-requiem-for-the-phantom.webp",
      "imagem_pasta": "https://animefire.plus/img/animes/phantom-requiem-for-the-phantom/",
      "secao": "legendados",
      "pagina": 137,
      "total_episodios": 26,
      "link_video": "https://animefire.plus/video/phantom-requiem-for-the-phantom"
    },
    {
      "id": 2984,
      "nome": "Ping Pong the Animation",
      "link": "https://animefire.plus/animes/ping-pong-the-animation-todos-os-episodios",
      "texto_original": "Ping Pong the Animation",
      "rating": 8.63,
      "classificacao_etaria": "A14",
      "imagem_original": "https://animefire.plus/img/animes/ping-pong-the-animation.webp",
      "imagem_pasta": "https://animefire.plus/img/animes/ping-pong-the-animation/",
      "secao": "legendados",
      "pagina": 147,
      "total_episodios": 10,
      "link_video": "https://animefire.plus/video/ping-pong-the-animation"
    },
    {
      "id": 2985,
      "nome": "Pingu in the City",
      "link": "https://animefire.plus/animes/pingu-in-the-city-todos-os-episodios",
      "texto_original": "Pingu in the City",
      "rating": 8.45,
      "classificacao_etaria": null,
      "imagem_original": "https://animefire.plus/img/animes/pingu-in-the-city.webp",
      "imagem_pasta": "https://animefire.plus/img/animes/pingu-in-the-city/",
      "secao": "legendados",
      "pagina": 126,
      "total_episodios": 15,
      "link_video": "https://animefire.plus/video/pingu-in-the-city"
    },
    {
      "id": 2989,
      "nome": "Planetes",
      "link": "https://animefire.plus/animes/planetes-todos-os-episodios",
      "texto_original": "Planetes",
      "rating": 8.34,
      "classificacao_etaria": "A14",
      "imagem_original": "https://animefire.plus/img/animes/planetes.webp",
      "imagem_pasta": "https://animefire.plus/img/animes/planetes/",
      "secao": "legendados",
      "pagina": 154,
      "total_episodios": 26,
      "link_video": "https://animefire.plus/video/planetes"
    },
    {
      "id": 2995,
      "nome": "Pluto (Dublado)",
      "link": "https://animefire.plus/animes/pluto-dublado-todos-os-episodios",
      "texto_original": "Pluto (Dublado)",
      "rating": 8.45,
      "classificacao_etaria": "A14",
      "imagem_original": "https://animefire.plus/img/animes/pluto.webp",
      "imagem_pasta": "https://animefire.plus/img/animes/pluto/",
      "secao": "dublados,legendados",
      "pagina": 5,
      "total_episodios": 8,
      "link_video": "https://animefire.plus/video/pluto-dublado"
    },
    {
      "id": 3031,
      "nome": "Princess Tutu",
      "link": "https://animefire.plus/animes/princess-tutu-todos-os-episodios",
      "texto_original": "Princess Tutu",
      "rating": 8.17,
      "classificacao_etaria": "A14",
      "imagem_original": "https://animefire.plus/img/animes/princess-tutu.webp",
      "imagem_pasta": "https://animefire.plus/img/animes/princess-tutu/",
      "secao": "legendados",
      "pagina": 61,
      "total_episodios": 26,
      "link_video": "https://animefire.plus/video/princess-tutu"
    },
    {
      "id": 3040,
      "nome": "Psycho-Pass",
      "link": "https://animefire.plus/animes/psycho-pass-todos-os-episodios",
      "texto_original": "Psycho-Pass",
      "rating": 8.42,
      "classificacao_etaria": "A16",
      "imagem_original": "https://animefire.plus/img/animes/psycho-pass.webp",
      "imagem_pasta": "https://animefire.plus/img/animes/psycho-pass/",
      "secao": "legendados",
      "pagina": 113,
      "total_episodios": 1,
      "link_video": "https://animefire.plus/video/psycho-pass"
    }
  ],
  "pagination": {
    "current_page": 20,
    "per_page": 20,
    "total_items": 547,
    "total_pages": 28,
    "has_next": true,
    "has_prev": true
  }
}
