{
  "message": "Animes com rating entre 8 e 9",
  "rating_range": {
    "min": 8,
    "max": 9
  },
  "data": [
    {
      "id": 259,
      "nome": "Ashita no Joe",
      "link": "https://animefire.plus/animes/ashita-no-joe-todos-os-episodios",
      "texto_original": "Ashita no Joe",
      "rating": 8.21,
      "classificacao_etaria": "A14",
      "imagem_original": "https://animefire.plus/img/animes/ashita-no-joe.webp",
      "imagem_pasta": "https://animefire.plus/img/animes/ashita-no-joe/",
      "secao": "legendados",
      "pagina": 131,
      "total_episodios": 0,
      "link_video": "https://animefire.plus/video/ashita-no-joe"
    },
    {
      "id": 260,
      "nome": "Ashita no Joe 2",
      "link": "https://animefire.plus/animes/ashita-no-joe-2-todos-os-episodios",
      "texto_original": "Ashita no Joe 2",
      "rating": 8.52,
      "classificacao_etaria": "A14",
      "imagem_original": "https://animefire.plus/img/animes/ashita-no-joe-2.webp",
      "imagem_pasta": "https://animefire.plus/img/animes/ashita-no-joe-2/",
      "secao": "legendados",
      "pagina": 161,
      "total_episodios": 47,
      "link_video": "https://animefire.plus/video/ashita-no-joe-2"
    },
    {
      "id": 262,
      "nome": "Asobi Asobase",
      "link": "https://animefire.plus/animes/asobi-asobase-todos-os-episodios",
      "texto_original": "Asobi Asobase",
      "rating": 8.23,
      "classificacao_etaria": "A14",
      "imagem_original": "https://animefire.plus/img/animes/asobi-asobase.webp",
      "imagem_pasta": "https://animefire.plus/img/animes/asobi-asobase/",
      "secao": "legendados",
      "pagina": 170,
      "total_episodios": 12,
      "link_video": "https://animefire.plus/video/asobi-asobase"
    },
    {
      "id": 276,
      "nome": "Avatar: A Lenda de Korra Livro 1 (Dublado)",
      "link": "https://animefire.plus/animes/avatar-a-lenda-de-korra-livro-1-dublado-todos-os-episodios",
      "texto_original": "Avatar: A Lenda de Korra Livro 1 (Dublado)",
      "rating": 8.05,
      "classificacao_etaria": null,
      "imagem_original": "https://animefire.plus/img/animes/avatar-a-lenda-de-korra-livro-1-dublado.webp",
      "imagem_pasta": "https://animefire.plus/img/animes/avatar-a-lenda-de-korra-livro-1-dublado/",
      "secao": "dublados",
      "pagina": 27,
      "total_episodios": 12,
      "link_video": "https://animefire.plus/video/avatar-a-lenda-de-korra-livro-1-dublado"
    },
    {
      "id": 277,
      "nome": "Avatar: A Lenda de Korra Livro 2 (Dublado)",
      "link": "https://animefire.plus/animes/avatar-a-lenda-de-korra-livro-2-dublado-todos-os-episodios",
      "texto_original": "Avatar: A Lenda de Korra Livro 2 (Dublado)",
      "rating": 8.05,
      "classificacao_etaria": null,
      "imagem_original": "https://animefire.plus/img/animes/avatar-a-lenda-de-korra-livro-2-dublado.webp",
      "imagem_pasta": "https://animefire.plus/img/animes/avatar-a-lenda-de-korra-livro-2-dublado/",
      "secao": "dublados",
      "pagina": 27,
      "total_episodios": 0,
      "link_video": "https://animefire.plus/video/avatar-a-lenda-de-korra-livro-2-dublado"
    },
    {
      "id": 278,
      "nome": "Avatar: A Lenda de Korra Livro 3 (Dublado)",
      "link": "https://animefire.plus/animes/avatar-a-lenda-de-korra-livro-3-dublado-todos-os-episodios",
      "texto_original": "Avatar: A Lenda de Korra Livro 3 (Dublado)",
      "rating": 8.05,
      "classificacao_etaria": null,
      "imagem_original": "https://animefire.plus/img/animes/avatar-a-lenda-de-korra-livro-3-dublado.webp",
      "imagem_pasta": "https://animefire.plus/img/animes/avatar-a-lenda-de-korra-livro-3-dublado/",
      "secao": "dublados",
      "pagina": 27,
      "total_episodios": 0,
      "link_video": "https://animefire.plus/video/avatar-a-lenda-de-korra-livro-3-dublado"
    },
    {
      "id": 279,
      "nome": "Avatar: A Lenda de Korra Livro 4",
      "link": "https://animefire.plus/animes/avatar-a-lenda-de-korra-livro-4-todos-os-episodios",
      "texto_original": "Avatar: A Lenda de Korra Livro 4",
      "rating": 8.05,
      "classificacao_etaria": null,
      "imagem_original": "https://animefire.plus/img/animes/avatar-a-lenda-de-korra-livro-4.webp",
      "imagem_pasta": "https://animefire.plus/img/animes/avatar-a-lenda-de-korra-livro-4/",
      "secao": "legendados",
      "pagina": 114,
      "total_episodios": 0,
      "link_video": "https://animefire.plus/video/avatar-a-lenda-de-korra-livro-4"
    },
    {
      "id": 286,
      "nome": "Azumanga Daioh",
      "link": "https://animefire.plus/animes/azumanga-daioh-todos-os-episodios",
      "texto_original": "Azumanga Daioh",
      "rating": 8.03,
      "classificacao_etaria": "A14",
      "imagem_original": "https://animefire.plus/img/animes/azumanga-daioh.webp",
      "imagem_pasta": "https://animefire.plus/img/animes/azumanga-daioh/",
      "secao": "legendados",
      "pagina": 152,
      "total_episodios": 26,
      "link_video": "https://animefire.plus/video/azumanga-daioh"
    },
    {
      "id": 299,
      "nome": "Baby Steps 2nd Season",
      "link": "https://animefire.plus/animes/baby-steps-2nd-season-todos-os-episodios",
      "texto_original": "Baby Steps 2nd Season",
      "rating": 8.12,
      "classificacao_etaria": "A14",
      "imagem_original": "https://animefire.plus/img/animes/baby-steps-2nd-season.webp",
      "imagem_pasta": "https://animefire.plus/img/animes/baby-steps-2nd-season/",
      "secao": "legendados",
      "pagina": 90,
      "total_episodios": 4,
      "link_video": "https://animefire.plus/video/baby-steps-2nd-season"
    },
    {
      "id": 301,
      "nome": "Baccano!",
      "link": "https://animefire.plus/animes/baccano-todos-os-episodios",
      "texto_original": "Baccano!",
      "rating": 8.42,
      "classificacao_etaria": "A16",
      "imagem_original": "https://animefire.plus/img/animes/baccano.webp",
      "imagem_pasta": "https://animefire.plus/img/animes/baccano/",
      "secao": "legendados",
      "pagina": 51,
      "total_episodios": 13,
      "link_video": "https://animefire.plus/video/baccano"
    },
    {
      "id": 308,
      "nome": "Bakemonogatari",
      "link": "https://animefire.plus/animes/bakemonogatari-todos-os-episodios",
      "texto_original": "Bakemonogatari",
      "rating": 8.35,
      "classificacao_etaria": "A16",
      "imagem_original": "https://animefire.plus/img/animes/bakemonogatari.webp",
      "imagem_pasta": "https://animefire.plus/img/animes/bakemonogatari/",
      "secao": "legendados",
      "pagina": 162,
      "total_episodios": 15,
      "link_video": "https://animefire.plus/video/bakemonogatari"
    },
    {
      "id": 312,
      "nome": "Bakuman.",
      "link": "https://animefire.plus/animes/bakuman-todos-os-episodios",
      "texto_original": "Bakuman.",
      "rating": 8.29,
      "classificacao_etaria": "A14",
      "imagem_original": "https://animefire.plus/img/animes/bakuman.webp",
      "imagem_pasta": "https://animefire.plus/img/animes/bakuman/",
      "secao": "legendados",
      "pagina": 160,
      "total_episodios": 25,
      "link_video": "https://animefire.plus/video/bakuman"
    },
    {
      "id": 313,
      "nome": "Bakuman. 2nd Season",
      "link": "https://animefire.plus/animes/bakuman-2nd-season-todos-os-episodios",
      "texto_original": "Bakuman. 2nd Season",
      "rating": 8.45,
      "classificacao_etaria": "A14",
      "imagem_original": "https://animefire.plus/img/animes/bakuman-2nd-season.webp",
      "imagem_pasta": "https://animefire.plus/img/animes/bakuman-2nd-season/",
      "secao": "legendados",
      "pagina": 161,
      "total_episodios": 25,
      "link_video": "https://animefire.plus/video/bakuman-2nd-season"
    },
    {
      "id": 314,
      "nome": "Bakuman. 3rd Season",
      "link": "https://animefire.plus/animes/bakuman-3rd-season-todos-os-episodios",
      "texto_original": "Bakuman. 3rd Season",
      "rating": 8.63,
      "classificacao_etaria": "A14",
      "imagem_original": "https://animefire.plus/img/animes/bakuman-3rd-season.webp",
      "imagem_pasta": "https://animefire.plus/img/animes/bakuman-3rd-season/",
      "secao": "legendados",
      "pagina": 123,
      "total_episodios": 25,
      "link_video": "https://animefire.plus/video/bakuman-3rd-season"
    },
    {
      "id": 329,
      "nome": "Ballroom e Youkoso",
      "link": "https://animefire.plus/animes/ballroom-e-youkoso-todos-os-episodios",
      "texto_original": "Ballroom e Youkoso",
      "rating": 8.26,
      "classificacao_etaria": "A14",
      "imagem_original": "https://animefire.plus/img/animes/ballroom-e-youkoso.webp",
      "imagem_pasta": "https://animefire.plus/img/animes/ballroom-e-youkoso/",
      "secao": "legendados",
      "pagina": 80,
      "total_episodios": 0,
      "link_video": "https://animefire.plus/video/ballroom-e-youkoso"
    },
    {
      "id": 331,
      "nome": "Banana Fish",
      "link": "https://animefire.plus/animes/banana-fish-todos-os-episodios",
      "texto_original": "Banana Fish",
      "rating": 8.32,
      "classificacao_etaria": "A16",
      "imagem_original": "https://animefire.plus/img/animes/banana-fish.webp",
      "imagem_pasta": "https://animefire.plus/img/animes/banana-fish/",
      "secao": "legendados",
      "pagina": 119,
      "total_episodios": 24,
      "link_video": "https://animefire.plus/video/banana-fish"
    },
    {
      "id": 335,
      "nome": "BanG Dream! 3rd Season",
      "link": "https://animefire.plus/animes/bang-dream-3rd-season-todos-os-episodios",
      "texto_original": "BanG Dream! 3rd Season",
      "rating": 8.05,
      "classificacao_etaria": "A14",
      "imagem_original": "https://animefire.plus/img/animes/bang-dream-3rd-season.webp",
      "imagem_pasta": "https://animefire.plus/img/animes/bang-dream-3rd-season/",
      "secao": "legendados",
      "pagina": 93,
      "total_episodios": 13,
      "link_video": "https://animefire.plus/video/bang-dream-3rd-season"
    },
    {
      "id": 336,
      "nome": "BanG Dream! Ave Mujica",
      "link": "https://animefire.plus/animes/bang-dream-ave-mujica-todos-os-episodios",
      "texto_original": "BanG Dream! Ave Mujica",
      "rating": 8.06,
      "classificacao_etaria": "A14",
      "imagem_original": "https://animefire.plus/img/animes/bang-dream-ave-mujica.webp",
      "imagem_pasta": "https://animefire.plus/img/animes/bang-dream-ave-mujica/",
      "secao": "legendados",
      "pagina": 7,
      "total_episodios": 13,
      "link_video": "https://animefire.plus/video/bang-dream-ave-mujica"
    },
    {
      "id": 342,
      "nome": "Barakamon",
      "link": "https://animefire.plus/animes/barakamon-todos-os-episodios",
      "texto_original": "Barakamon",
      "rating": 8.45,
      "classificacao_etaria": "A14",
      "imagem_original": "https://animefire.plus/img/animes/barakamon.webp",
      "imagem_pasta": "https://animefire.plus/img/animes/barakamon/",
      "secao": "legendados",
      "pagina": 175,
      "total_episodios": 3,
      "link_video": "https://animefire.plus/video/barakamon"
    },
    {
      "id": 363,
      "nome": "Beastars (Dublado)",
      "link": "https://animefire.plus/animes/beastars-dublado-todos-os-episodios",
      "texto_original": "Beastars (Dublado)",
      "rating": 8.09,
      "classificacao_etaria": "A16",
      "imagem_original": "https://animefire.plus/img/animes/beastars.webp",
      "imagem_pasta": "https://animefire.plus/img/animes/beastars/",
      "secao": "dublados,legendados",
      "pagina": 25,
      "total_episodios": 12,
      "link_video": "https://animefire.plus/video/beastars-dublado"
    }
  ],
  "pagination": {
    "current_page": 2,
    "per_page": 20,
    "total_items": 547,
    "total_pages": 28,
    "has_next": true,
    "has_prev": true
  }
}
