{
  "message": "Animes com rating entre 8 e 9",
  "rating_range": {
    "min": 8,
    "max": 9
  },
  "data": [
    {
      "id": 3057,
      "nome": "Quanzhi Gaoshou",
      "link": "https://animefire.plus/animes/quanzhi-gaoshou-todos-os-episodios",
      "texto_original": "Quanzhi Gaoshou",
      "rating": 8.09,
      "classificacao_etaria": "A14",
      "imagem_original": "https://animefire.plus/img/animes/quanzhi-gaoshou.webp",
      "imagem_pasta": "https://animefire.plus/img/animes/quanzhi-gaoshou/",
      "secao": "legendados",
      "pagina": 162,
      "total_episodios": 12,
      "link_video": "https://animefire.plus/video/quanzhi-gaoshou"
    },
    {
      "id": 3058,
      "nome": "Quanzhi Gaoshou 2",
      "link": "https://animefire.plus/animes/quanzhi-gaoshou-2-todos-os-episodios",
      "texto_original": "Quanzhi Gaoshou 2",
      "rating": 8.04,
      "classificacao_etaria": "A14",
      "imagem_original": "https://animefire.plus/img/animes/quanzhi-gaoshou-2.webp",
      "imagem_pasta": "https://animefire.plus/img/animes/quanzhi-gaoshou-2/",
      "secao": "legendados",
      "pagina": 53,
      "total_episodios": 12,
      "link_video": "https://animefire.plus/video/quanzhi-gaoshou-2"
    },
    {
      "id": 3072,
      "nome": "Rainbow: Nisha Rokubou no Shichinin",
      "link": "https://animefire.plus/animes/rainbow-nisha-rokubou-no-shichinin-todos-os-episodios",
      "texto_original": "Rainbow: Nisha Rokubou no Shichinin",
      "rating": 8.56,
      "classificacao_etaria": "A16",
      "imagem_original": "https://animefire.plus/img/animes/rainbow-nisha-rokubou-no-shichinin.webp",
      "imagem_pasta": "https://animefire.plus/img/animes/rainbow-nisha-rokubou-no-shichinin/",
      "secao": "legendados",
      "pagina": 141,
      "total_episodios": 26,
      "link_video": "https://animefire.plus/video/rainbow-nisha-rokubou-no-shichinin"
    },
    {
      "id": 3079,
      "nome": "Ranma ½ (2024)",
      "link": "https://animefire.plus/animes/ranma-2024-todos-os-episodios",
      "texto_original": "Ranma ½ (2024)",
      "rating": 8.01,
      "classificacao_etaria": "A14",
      "imagem_original": "https://animefire.plus/img/animes/ranma-2024.webp",
      "imagem_pasta": "https://animefire.plus/img/animes/ranma-2024/",
      "secao": "legendados",
      "pagina": 11,
      "total_episodios": 12,
      "link_video": "https://animefire.plus/video/ranma-2024"
    },
    {
      "id": 3092,
      "nome": "Re:Zero kara Hajimeru Isekai Seikatsu (Dublado)",
      "link": "https://animefire.plus/animes/re-zero-kara-hajimeru-isekai-seikatsu-dublado-todos-os-episodios",
      "texto_original": "Re:Zero kara Hajimeru Isekai Seikatsu (Dublado)",
      "rating": 8.35,
      "classificacao_etaria": "A16",
      "imagem_original": "https://animefire.plus/img/animes/re-zero-kara-hajimeru-isekai-seikatsu.webp",
      "imagem_pasta": "https://animefire.plus/img/animes/re-zero-kara-hajimeru-isekai-seikatsu/",
      "secao": "dublados,legendados",
      "pagina": 26,
      "total_episodios": 26,
      "link_video": "https://animefire.plus/video/re-zero-kara-hajimeru-isekai-seikatsu-dublado"
    },
    {
      "id": 3093,
      "nome": "Re:Zero kara Hajimeru Isekai Seikatsu 2nd Season (Dublado)",
      "link": "https://animefire.plus/animes/re-zero-kara-hajimeru-isekai-seikatsu-2nd-season-dublado-todos-os-episodios",
      "texto_original": "Re:Zero kara Hajimeru Isekai Seikatsu 2nd Season (Dublado)",
      "rating": 8.43,
      "classificacao_etaria": "A16",
      "imagem_original": "https://animefire.plus/img/animes/re-zero-kara-hajimeru-isekai-seikatsu-2nd-season.webp",
      "imagem_pasta": "https://animefire.plus/img/animes/re-zero-kara-hajimeru-isekai-seikatsu-2nd-season/",
      "secao": "dublados,legendados",
      "pagina": 16,
      "total_episodios": 13,
      "link_video": "https://animefire.plus/video/re-zero-kara-hajimeru-isekai-seikatsu-2nd-season-dublado"
    },
    {
      "id": 3094,
      "nome": "Re:Zero kara Hajimeru Isekai Seikatsu 2nd Season Part 2",
      "link": "https://animefire.plus/animes/re-zero-kara-hajimeru-isekai-seikatsu-2nd-season-part-2-todos-os-episodios",
      "texto_original": "Re:Zero kara Hajimeru Isekai Seikatsu 2nd Season Part 2",
      "rating": 8.42,
      "classificacao_etaria": "A16",
      "imagem_original": "https://animefire.plus/img/animes/re-zero-kara-hajimeru-isekai-seikatsu-2nd-season-part-2.webp",
      "imagem_pasta": "https://animefire.plus/img/animes/re-zero-kara-hajimeru-isekai-seikatsu-2nd-season-part-2/",
      "secao": "legendados",
      "pagina": 50,
      "total_episodios": 8,
      "link_video": "https://animefire.plus/video/re-zero-kara-hajimeru-isekai-seikatsu-2nd-season-part-2"
    },
    {
      "id": 3095,
      "nome": "Re:Zero kara Hajimeru Isekai Seikatsu 3rd Season",
      "link": "https://animefire.plus/animes/re-zero-kara-hajimeru-isekai-seikatsu-3rd-season-todos-os-episodios",
      "texto_original": "Re:Zero kara Hajimeru Isekai Seikatsu 3rd Season",
      "rating": 8.45,
      "classificacao_etaria": "A16",
      "imagem_original": "https://animefire.plus/img/animes/re-zero-kara-hajimeru-isekai-seikatsu-3rd-season.webp",
      "imagem_pasta": "https://animefire.plus/img/animes/re-zero-kara-hajimeru-isekai-seikatsu-3rd-season/",
      "secao": "legendados",
      "pagina": 11,
      "total_episodios": 16,
      "link_video": "https://animefire.plus/video/re-zero-kara-hajimeru-isekai-seikatsu-3rd-season"
    },
    {
      "id": 3109,
      "nome": "ReLIFE",
      "link": "https://animefire.plus/animes/relife-todos-os-episodios",
      "texto_original": "ReLIFE",
      "rating": 8.09,
      "classificacao_etaria": "A14",
      "imagem_original": "https://animefire.plus/img/animes/relife.webp",
      "imagem_pasta": "https://animefire.plus/img/animes/relife/",
      "secao": "legendados",
      "pagina": 79,
      "total_episodios": 13,
      "link_video": "https://animefire.plus/video/relife"
    },
    {
      "id": 3110,
      "nome": "ReLIFE: Kanketsu-hen",
      "link": "https://animefire.plus/animes/relife-kanketsu-hen-todos-os-episodios",
      "texto_original": "ReLIFE: Kanketsu-hen",
      "rating": 8.32,
      "classificacao_etaria": "A14",
      "imagem_original": "https://animefire.plus/img/animes/relife-kanketsu-hen.webp",
      "imagem_pasta": "https://animefire.plus/img/animes/relife-kanketsu-hen/",
      "secao": "legendados",
      "pagina": 164,
      "total_episodios": 4,
      "link_video": "https://animefire.plus/video/relife-kanketsu-hen"
    },
    {
      "id": 3153,
      "nome": "Romeo no Aoi Sora",
      "link": "https://animefire.plus/animes/romeo-no-aoi-sora-todos-os-episodios",
      "texto_original": "Romeo no Aoi Sora",
      "rating": 8.31,
      "classificacao_etaria": "A14",
      "imagem_original": "https://animefire.plus/img/animes/romeo-no-aoi-sora.webp",
      "imagem_pasta": "https://animefire.plus/img/animes/romeo-no-aoi-sora/",
      "secao": "legendados",
      "pagina": 121,
      "total_episodios": 33,
      "link_video": "https://animefire.plus/video/romeo-no-aoi-sora"
    },
    {
      "id": 3168,
      "nome": "Rurouni Kenshin: Meiji Kenkaku Romantan (Dublado)",
      "link": "https://animefire.plus/animes/rurouni-kenshin-meiji-kenkaku-romantan-dublado-todos-os-episodios",
      "texto_original": "Rurouni Kenshin: Meiji Kenkaku Romantan (Dublado)",
      "rating": 8.32,
      "classificacao_etaria": "A14",
      "imagem_original": "https://animefire.plus/img/animes/rurouni-kenshin-meiji-kenkaku-romantan.webp",
      "imagem_pasta": "https://animefire.plus/img/animes/rurouni-kenshin-meiji-kenkaku-romantan/",
      "secao": "dublados",
      "pagina": 20,
      "total_episodios": 95,
      "link_video": "https://animefire.plus/video/rurouni-kenshin-meiji-kenkaku-romantan-dublado"
    },
    {
      "id": 3192,
      "nome": "Saiki Kusuo no Ψ-nan",
      "link": "https://animefire.plus/animes/saiki-kusuo-no--nan-todos-os-episodios",
      "texto_original": "Saiki Kusuo no Ψ-nan",
      "rating": 8.49,
      "classificacao_etaria": "A14",
      "imagem_original": "https://animefire.plus/img/animes/saiki-kusuo-no--nan.webp",
      "imagem_pasta": "https://animefire.plus/img/animes/saiki-kusuo-no--nan/",
      "secao": "legendados",
      "pagina": 58,
      "total_episodios": 4,
      "link_video": "https://animefire.plus/video/saiki-kusuo-no--nan"
    },
    {
      "id": 3193,
      "nome": "Saiki Kusuo no Ψ-nan 2",
      "link": "https://animefire.plus/animes/saiki-kusuo-no--nan-2-todos-os-episodios",
      "texto_original": "Saiki Kusuo no Ψ-nan 2",
      "rating": 8.54,
      "classificacao_etaria": "A14",
      "imagem_original": "https://animefire.plus/img/animes/saiki-kusuo-no--nan-2.webp",
      "imagem_pasta": "https://animefire.plus/img/animes/saiki-kusuo-no--nan-2/",
      "secao": "legendados",
      "pagina": 58,
      "total_episodios": 24,
      "link_video": "https://animefire.plus/video/saiki-kusuo-no--nan-2"
    },
    {
      "id": 3194,
      "nome": "Saiki Kusuo no Ψ-nan: Kanketsu-hen",
      "link": "https://animefire.plus/animes/saiki-kusuo-no--nan-kanketsu-hen-todos-os-episodios",
      "texto_original": "Saiki Kusuo no Ψ-nan: Kanketsu-hen",
      "rating": 8.29,
      "classificacao_etaria": "A14",
      "imagem_original": "https://animefire.plus/img/animes/saiki-kusuo-no--nan-kanketsu-hen.webp",
      "imagem_pasta": "https://animefire.plus/img/animes/saiki-kusuo-no--nan-kanketsu-hen/",
      "secao": "legendados",
      "pagina": 116,
      "total_episodios": 2,
      "link_video": "https://animefire.plus/video/saiki-kusuo-no--nan-kanketsu-hen"
    },
    {
      "id": 3195,
      "nome": "Saiki Kusuo no Ψ-nan: Ψ-shidou-hen (Dublado)",
      "link": "https://animefire.plus/animes/saiki-kusuo-no--nan--shidou-hen-dublado-todos-os-episodios",
      "texto_original": "Saiki Kusuo no Ψ-nan: Ψ-shidou-hen (Dublado)",
      "rating": 8.18,
      "classificacao_etaria": "A14",
      "imagem_original": "https://animefire.plus/img/animes/saiki-kusuo-no--nan--shidou-hen.webp",
      "imagem_pasta": "https://animefire.plus/img/animes/saiki-kusuo-no--nan--shidou-hen/",
      "secao": "dublados",
      "pagina": 20,
      "total_episodios": 6,
      "link_video": "https://animefire.plus/video/saiki-kusuo-no--nan--shidou-hen-dublado"
    },
    {
      "id": 3213,
      "nome": "Saint Seiya: The Lost Canvas - Meiou Shinwa 2 (Dublado)",
      "link": "https://animefire.plus/animes/saint-seiya-the-lost-canvas---meiou-shinwa-2-dublado-todos-os-episodios",
      "texto_original": "Saint Seiya: The Lost Canvas - Meiou Shinwa 2 (Dublado)",
      "rating": 8.1,
      "classificacao_etaria": "A14",
      "imagem_original": "https://animefire.plus/img/animes/saint-seiya-the-lost-canvas---meiou-shinwa-2.webp",
      "imagem_pasta": "https://animefire.plus/img/animes/saint-seiya-the-lost-canvas---meiou-shinwa-2/",
      "secao": "dublados,legendados",
      "pagina": 17,
      "total_episodios": 13,
      "link_video": "https://animefire.plus/video/saint-seiya-the-lost-canvas---meiou-shinwa-2-dublado"
    },
    {
      "id": 3215,
      "nome": "Saiunkoku Monogatari",
      "link": "https://animefire.plus/animes/saiunkoku-monogatari-todos-os-episodios",
      "texto_original": "Saiunkoku Monogatari",
      "rating": 8.02,
      "classificacao_etaria": "A14",
      "imagem_original": "https://animefire.plus/img/animes/saiunkoku-monogatari.webp",
      "imagem_pasta": "https://animefire.plus/img/animes/saiunkoku-monogatari/",
      "secao": "legendados",
      "pagina": 129,
      "total_episodios": 39,
      "link_video": "https://animefire.plus/video/saiunkoku-monogatari"
    },
    {
      "id": 3216,
      "nome": "Saiunkoku Monogatari 2nd Season",
      "link": "https://animefire.plus/animes/saiunkoku-monogatari-2nd-season-todos-os-episodios",
      "texto_original": "Saiunkoku Monogatari 2nd Season",
      "rating": 8.14,
      "classificacao_etaria": "A14",
      "imagem_original": "https://animefire.plus/img/animes/saiunkoku-monogatari-2nd-season.webp",
      "imagem_pasta": "https://animefire.plus/img/animes/saiunkoku-monogatari-2nd-season/",
      "secao": "legendados",
      "pagina": 174,
      "total_episodios": 39,
      "link_video": "https://animefire.plus/video/saiunkoku-monogatari-2nd-season"
    },
    {
      "id": 3223,
      "nome": "Sakamichi no Apollon (Dublado)",
      "link": "https://animefire.plus/animes/sakamichi-no-apollon-dublado-todos-os-episodios",
      "texto_original": "Sakamichi no Apollon (Dublado)",
      "rating": 8.32,
      "classificacao_etaria": "A14",
      "imagem_original": "https://animefire.plus/img/animes/sakamichi-no-apollon.webp",
      "imagem_pasta": "https://animefire.plus/img/animes/sakamichi-no-apollon/",
      "secao": "dublados,legendados",
      "pagina": 11,
      "total_episodios": 12,
      "link_video": "https://animefire.plus/video/sakamichi-no-apollon-dublado"
    }
  ],
  "pagination": {
    "current_page": 21,
    "per_page": 20,
    "total_items": 547,
    "total_pages": 28,
    "has_next": true,
    "has_prev": true
  }
}
