{
  "message": "Animes com rating entre 8 e 9",
  "rating_range": {
    "min": 8,
    "max": 9
  },
  "data": [
    {
      "id": 3543,
      "nome": "Skip Beat! (Dublado)",
      "link": "https://animefire.plus/animes/skip-beat-dublado-todos-os-episodios",
      "texto_original": "Skip Beat! (Dublado)",
      "rating": 8.08,
      "classificacao_etaria": "A14",
      "imagem_original": "https://animefire.plus/img/animes/skip-beat.webp",
      "imagem_pasta": "https://animefire.plus/img/animes/skip-beat/",
      "secao": "dublados,legendados",
      "pagina": 3,
      "total_episodios": 25,
      "link_video": "https://animefire.plus/video/skip-beat-dublado"
    },
    {
      "id": 3544,
      "nome": "Skip to Loafer (Dublado)",
      "link": "https://animefire.plus/animes/skip-to-loafer-dublado-todos-os-episodios",
      "texto_original": "Skip to Loafer (Dublado)",
      "rating": 8.11,
      "classificacao_etaria": "A14",
      "imagem_original": "https://animefire.plus/img/animes/skip-to-loafer.webp",
      "imagem_pasta": "https://animefire.plus/img/animes/skip-to-loafer/",
      "secao": "dublados,legendados",
      "pagina": 7,
      "total_episodios": 12,
      "link_video": "https://animefire.plus/video/skip-to-loafer-dublado"
    },
    {
      "id": 3547,
      "nome": "Slam Dunk",
      "link": "https://animefire.plus/animes/slam-dunk-todos-os-episodios",
      "texto_original": "Slam Dunk",
      "rating": 8.53,
      "classificacao_etaria": "A14",
      "imagem_original": "https://animefire.plus/img/animes/slam-dunk.webp",
      "imagem_pasta": "https://animefire.plus/img/animes/slam-dunk/",
      "secao": "legendados",
      "pagina": 73,
      "total_episodios": 101,
      "link_video": "https://animefire.plus/video/slam-dunk"
    },
    {
      "id": 3551,
      "nome": "Slayers Next",
      "link": "https://animefire.plus/animes/slayers-next-todos-os-episodios",
      "texto_original": "Slayers Next",
      "rating": 8.1,
      "classificacao_etaria": "A14",
      "imagem_original": "https://animefire.plus/img/animes/slayers-next.webp",
      "imagem_pasta": "https://animefire.plus/img/animes/slayers-next/",
      "secao": "legendados",
      "pagina": 171,
      "total_episodios": 0,
      "link_video": "https://animefire.plus/video/slayers-next"
    },
    {
      "id": 3570,
      "nome": "Sono Bisque Doll wa Koi wo Suru (Dublado)",
      "link": "https://animefire.plus/animes/sono-bisque-doll-wa-koi-wo-suru-dublado-todos-os-episodios",
      "texto_original": "Sono Bisque Doll wa Koi wo Suru (Dublado)",
      "rating": 8.15,
      "classificacao_etaria": "A14",
      "imagem_original": "https://animefire.plus/img/animes/sono-bisque-doll-wa-koi-wo-suru.webp",
      "imagem_pasta": "https://animefire.plus/img/animes/sono-bisque-doll-wa-koi-wo-suru/",
      "secao": "dublados,legendados",
      "pagina": 12,
      "total_episodios": 12,
      "link_video": "https://animefire.plus/video/sono-bisque-doll-wa-koi-wo-suru-dublado"
    },
    {
      "id": 3571,
      "nome": "Sono Bisque Doll wa Koi wo Suru Season 2",
      "link": "https://animefire.plus/animes/sono-bisque-doll-wa-koi-wo-suru-season-2-todos-os-episodios",
      "texto_original": "Sono Bisque Doll wa Koi wo Suru Season 2",
      "rating": 8.39,
      "classificacao_etaria": "A14",
      "imagem_original": "https://animefire.plus/img/animes/sono-bisque-doll-wa-koi-wo-suru-season-2.webp",
      "imagem_pasta": "https://animefire.plus/img/animes/sono-bisque-doll-wa-koi-wo-suru-season-2/",
      "secao": "legendados,lancamentos",
      "pagina": 3,
      "total_episodios": 5,
      "link_video": "https://animefire.plus/video/sono-bisque-doll-wa-koi-wo-suru-season-2"
    },
    {
      "id": 3578,
      "nome": "Sora yori mo Tooi Basho",
      "link": "https://animefire.plus/animes/sora-yori-mo-tooi-basho-todos-os-episodios",
      "texto_original": "Sora yori mo Tooi Basho",
      "rating": 8.64,
      "classificacao_etaria": "A14",
      "imagem_original": "https://animefire.plus/img/animes/sora-yori-mo-tooi-basho.webp",
      "imagem_pasta": "https://animefire.plus/img/animes/sora-yori-mo-tooi-basho/",
      "secao": "legendados",
      "pagina": 157,
      "total_episodios": 12,
      "link_video": "https://animefire.plus/video/sora-yori-mo-tooi-basho"
    },
    {
      "id": 3607,
      "nome": "Space☆Dandy 2nd Season",
      "link": "https://animefire.plus/animes/space-dandy-2nd-season-todos-os-episodios",
      "texto_original": "Space☆Dandy 2nd Season",
      "rating": 8.26,
      "classificacao_etaria": "A14",
      "imagem_original": "https://animefire.plus/img/animes/space-dandy-2nd-season.webp",
      "imagem_pasta": "https://animefire.plus/img/animes/space-dandy-2nd-season/",
      "secao": "legendados",
      "pagina": 150,
      "total_episodios": 4,
      "link_video": "https://animefire.plus/video/space-dandy-2nd-season"
    },
    {
      "id": 3615,
      "nome": "Spy x Family (Dublado)",
      "link": "https://animefire.plus/animes/spy-x-family-dublado-todos-os-episodios",
      "texto_original": "Spy x Family (Dublado)",
      "rating": 8.52,
      "classificacao_etaria": "A14",
      "imagem_original": "https://animefire.plus/img/animes/spy-x-family.webp",
      "imagem_pasta": "https://animefire.plus/img/animes/spy-x-family/",
      "secao": "dublados,legendados",
      "pagina": 11,
      "total_episodios": 12,
      "link_video": "https://animefire.plus/video/spy-x-family-dublado"
    },
    {
      "id": 3616,
      "nome": "Spy x Family Part 2 (Dublado)",
      "link": "https://animefire.plus/animes/spy-x-family-part-2-dublado-todos-os-episodios",
      "texto_original": "Spy x Family Part 2 (Dublado)",
      "rating": 8.25,
      "classificacao_etaria": "A14",
      "imagem_original": "https://animefire.plus/img/animes/spy-x-family-part-2.webp",
      "imagem_pasta": "https://animefire.plus/img/animes/spy-x-family-part-2/",
      "secao": "dublados,legendados",
      "pagina": 9,
      "total_episodios": 13,
      "link_video": "https://animefire.plus/video/spy-x-family-part-2-dublado"
    },
    {
      "id": 3617,
      "nome": "Spy x Family Season 2 (Dublado)",
      "link": "https://animefire.plus/animes/spy-x-family-season-2-dublado-todos-os-episodios",
      "texto_original": "Spy x Family Season 2 (Dublado)",
      "rating": 8.07,
      "classificacao_etaria": "A14",
      "imagem_original": "https://animefire.plus/img/animes/spy-x-family-season-2.webp",
      "imagem_pasta": "https://animefire.plus/img/animes/spy-x-family-season-2/",
      "secao": "dublados,legendados",
      "pagina": 5,
      "total_episodios": 12,
      "link_video": "https://animefire.plus/video/spy-x-family-season-2-dublado"
    },
    {
      "id": 3632,
      "nome": "Steins;Gate 0 (Dublado)",
      "link": "https://animefire.plus/animes/steins-gate-0-dublado-todos-os-episodios",
      "texto_original": "Steins;Gate 0 (Dublado)",
      "rating": 8.52,
      "classificacao_etaria": "A14",
      "imagem_original": "https://animefire.plus/img/animes/steins-gate-0.webp",
      "imagem_pasta": "https://animefire.plus/img/animes/steins-gate-0/",
      "secao": "dublados,legendados",
      "pagina": 18,
      "total_episodios": 23,
      "link_video": "https://animefire.plus/video/steins-gate-0-dublado"
    },
    {
      "id": 3634,
      "nome": "Steins;Gate: Kyoukaimenjou no Missing Link - Divide By Zero (Dublado)",
      "link": "https://animefire.plus/animes/steins-gate-kyoukaimenjou-no-missing-link---divide-by-zero-dublado-todos-os-episodios",
      "texto_original": "Steins;Gate: Kyoukaimenjou no Missing Link - Divide By Zero (Dublado)",
      "rating": 8.26,
      "classificacao_etaria": "A14",
      "imagem_original": "https://animefire.plus/img/animes/steins-gate-kyoukaimenjou-no-missing-link---divide-by-zero.webp",
      "imagem_pasta": "https://animefire.plus/img/animes/steins-gate-kyoukaimenjou-no-missing-link---divide-by-zero/",
      "secao": "dublados,legendados",
      "pagina": 18,
      "total_episodios": 1,
      "link_video": "https://animefire.plus/video/steins-gate-kyoukaimenjou-no-missing-link---divide-by-zero-dublado"
    },
    {
      "id": 3672,
      "nome": "Summertime Render (Dublado)",
      "link": "https://animefire.plus/animes/summertime-render-dublado-todos-os-episodios",
      "texto_original": "Summertime Render (Dublado)",
      "rating": 8.47,
      "classificacao_etaria": "A16",
      "imagem_original": "https://animefire.plus/img/animes/summertime-render.webp",
      "imagem_pasta": "https://animefire.plus/img/animes/summertime-render/",
      "secao": "dublados,legendados,lancamentos",
      "pagina": 10,
      "total_episodios": 25,
      "link_video": "https://animefire.plus/video/summertime-render-dublado"
    },
    {
      "id": 3720,
      "nome": "Takopii no Genzai",
      "link": "https://animefire.plus/animes/takopii-no-genzai-todos-os-episodios",
      "texto_original": "Takopii no Genzai",
      "rating": 8.99,
      "classificacao_etaria": "A14",
      "imagem_original": "https://animefire.plus/img/animes/takopii-no-genzai.webp",
      "imagem_pasta": "https://animefire.plus/img/animes/takopii-no-genzai/",
      "secao": "legendados,lancamentos",
      "pagina": 1,
      "total_episodios": 6,
      "link_video": "https://animefire.plus/video/takopii-no-genzai"
    },
    {
      "id": 3757,
      "nome": "Tate no Yuusha no Nariagari (Dublado)",
      "link": "https://animefire.plus/animes/tate-no-yuusha-no-nariagari-dublado-todos-os-episodios",
      "texto_original": "Tate no Yuusha no Nariagari (Dublado)",
      "rating": 8.01,
      "classificacao_etaria": "A14",
      "imagem_original": "https://animefire.plus/img/animes/tate-no-yuusha-no-nariagari.webp",
      "imagem_pasta": "https://animefire.plus/img/animes/tate-no-yuusha-no-nariagari/",
      "secao": "dublados,legendados",
      "pagina": 16,
      "total_episodios": 25,
      "link_video": "https://animefire.plus/video/tate-no-yuusha-no-nariagari-dublado"
    },
    {
      "id": 3778,
      "nome": "Tengen Toppa Gurren Lagann",
      "link": "https://animefire.plus/animes/tengen-toppa-gurren-lagann-todos-os-episodios",
      "texto_original": "Tengen Toppa Gurren Lagann",
      "rating": 8.7,
      "classificacao_etaria": "A14",
      "imagem_original": "https://animefire.plus/img/animes/tengen-toppa-gurren-lagann.webp",
      "imagem_pasta": "https://animefire.plus/img/animes/tengen-toppa-gurren-lagann/",
      "secao": "legendados",
      "pagina": 79,
      "total_episodios": 27,
      "link_video": "https://animefire.plus/video/tengen-toppa-gurren-lagann"
    },
    {
      "id": 3779,
      "nome": "Tengoku Daimakyou (Dublado)",
      "link": "https://animefire.plus/animes/tengoku-daimakyou-dublado-todos-os-episodios",
      "texto_original": "Tengoku Daimakyou (Dublado)",
      "rating": 8.21,
      "classificacao_etaria": "A16",
      "imagem_original": "https://animefire.plus/img/animes/tengoku-daimakyou.jpg",
      "imagem_pasta": "https://animefire.plus/img/animes/tengoku-daimakyou/",
      "secao": "dublados,legendados",
      "pagina": 7,
      "total_episodios": 13,
      "link_video": "https://animefire.plus/video/tengoku-daimakyou-dublado"
    },
    {
      "id": 3789,
      "nome": "Tennis no Ouji-sama: Zenkoku Taikai-hen - Final",
      "link": "https://animefire.plus/animes/tennis-no-ouji-sama-zenkoku-taikai-hen---final-todos-os-episodios",
      "texto_original": "Tennis no Ouji-sama: Zenkoku Taikai-hen - Final",
      "rating": 8,
      "classificacao_etaria": "A14",
      "imagem_original": "https://animefire.plus/img/animes/tennis-no-ouji-sama-zenkoku-taikai-hen---final.webp",
      "imagem_pasta": "https://animefire.plus/img/animes/tennis-no-ouji-sama-zenkoku-taikai-hen---final/",
      "secao": "legendados",
      "pagina": 44,
      "total_episodios": 7,
      "link_video": "https://animefire.plus/video/tennis-no-ouji-sama-zenkoku-taikai-hen---final"
    },
    {
      "id": 3800,
      "nome": "Tensei shitara Slime Datta Ken (Dublado)",
      "link": "https://animefire.plus/animes/tensei-shitara-slime-datta-ken-dublado-todos-os-episodios",
      "texto_original": "Tensei shitara Slime Datta Ken (Dublado)",
      "rating": 8.1,
      "classificacao_etaria": "A14",
      "imagem_original": "https://animefire.plus/img/animes/tensei-shitara-slime-datta-ken.webp",
      "imagem_pasta": "https://animefire.plus/img/animes/tensei-shitara-slime-datta-ken/",
      "secao": "dublados,legendados",
      "pagina": 16,
      "total_episodios": 24,
      "link_video": "https://animefire.plus/video/tensei-shitara-slime-datta-ken-dublado"
    }
  ],
  "pagination": {
    "current_page": 24,
    "per_page": 20,
    "total_items": 547,
    "total_pages": 28,
    "has_next": true,
    "has_prev": true
  }
}
