{
  "message": "Animes com rating entre 8 e 9",
  "rating_range": {
    "min": 8,
    "max": 9
  },
  "data": [
    {
      "id": 4013,
      "nome": "Uma Musume: Cinderella Gray",
      "link": "https://animefire.plus/animes/uma-musume-cinderella-gray-todos-os-episodios",
      "texto_original": "Uma Musume: Cinderella Gray",
      "rating": 8.52,
      "classificacao_etaria": "A14",
      "imagem_original": "https://animefire.plus/img/animes/uma-musume-cinderella-gray.webp",
      "imagem_pasta": "https://animefire.plus/img/animes/uma-musume-cinderella-gray/",
      "secao": "legendados",
      "pagina": 5,
      "total_episodios": 13,
      "link_video": "https://animefire.plus/video/uma-musume-cinderella-gray"
    },
    {
      "id": 4017,
      "nome": "Uma Musume: Pretty Derby Season 2",
      "link": "https://animefire.plus/animes/uma-musume-pretty-derby-season-2-todos-os-episodios",
      "texto_original": "Uma Musume: Pretty Derby Season 2",
      "rating": 8.06,
      "classificacao_etaria": "A14",
      "imagem_original": "https://animefire.plus/img/animes/uma-musume-pretty-derby-season-2.webp",
      "imagem_pasta": "https://animefire.plus/img/animes/uma-musume-pretty-derby-season-2/",
      "secao": "legendados",
      "pagina": 49,
      "total_episodios": 13,
      "link_video": "https://animefire.plus/video/uma-musume-pretty-derby-season-2"
    },
    {
      "id": 4041,
      "nome": "Usagi Drop",
      "link": "https://animefire.plus/animes/usagi-drop-todos-os-episodios",
      "texto_original": "Usagi Drop",
      "rating": 8.49,
      "classificacao_etaria": "A14",
      "imagem_original": "https://animefire.plus/img/animes/usagi-drop.webp",
      "imagem_pasta": "https://animefire.plus/img/animes/usagi-drop/",
      "secao": "legendados",
      "pagina": 169,
      "total_episodios": 0,
      "link_video": "https://animefire.plus/video/usagi-drop"
    },
    {
      "id": 4046,
      "nome": "Ushio to Tora (TV) 2nd Season",
      "link": "https://animefire.plus/animes/ushio-to-tora-tv-2nd-season-todos-os-episodios",
      "texto_original": "Ushio to Tora (TV) 2nd Season",
      "rating": 8.03,
      "classificacao_etaria": "A14",
      "imagem_original": "https://animefire.plus/img/animes/ushio-to-tora-tv-2nd-season.webp",
      "imagem_pasta": "https://animefire.plus/img/animes/ushio-to-tora-tv-2nd-season/",
      "secao": "legendados",
      "pagina": 104,
      "total_episodios": 13,
      "link_video": "https://animefire.plus/video/ushio-to-tora-tv-2nd-season"
    },
    {
      "id": 4069,
      "nome": "Vanitas no Karte 2nd Season",
      "link": "https://animefire.plus/animes/vanitas-no-karte-2nd-season-todos-os-episodios",
      "texto_original": "Vanitas no Karte 2nd Season",
      "rating": 8.19,
      "classificacao_etaria": "A16",
      "imagem_original": "https://animefire.plus/img/animes/vanitas-no-karte-2nd-season.webp",
      "imagem_pasta": "https://animefire.plus/img/animes/vanitas-no-karte-2nd-season/",
      "secao": "legendados",
      "pagina": 36,
      "total_episodios": 12,
      "link_video": "https://animefire.plus/video/vanitas-no-karte-2nd-season"
    },
    {
      "id": 4070,
      "nome": "Vanitas no Karte Part 2 (Dublado)",
      "link": "https://animefire.plus/animes/vanitas-no-karte-part-2-dublado-todos-os-episodios",
      "texto_original": "Vanitas no Karte Part 2 (Dublado)",
      "rating": 8.19,
      "classificacao_etaria": "A16",
      "imagem_original": "https://animefire.plus/img/animes/vanitas-no-karte-part-2.webp",
      "imagem_pasta": "https://animefire.plus/img/animes/vanitas-no-karte-part-2/",
      "secao": "dublados",
      "pagina": 12,
      "total_episodios": 13,
      "link_video": "https://animefire.plus/video/vanitas-no-karte-part-2-dublado"
    },
    {
      "id": 4080,
      "nome": "Vinland Saga (Dublado)",
      "link": "https://animefire.plus/animes/vinland-saga-dublado-todos-os-episodios",
      "texto_original": "Vinland Saga (Dublado)",
      "rating": 8.72,
      "classificacao_etaria": "A16",
      "imagem_original": "https://animefire.plus/img/animes/vinland-saga.webp",
      "imagem_pasta": "https://animefire.plus/img/animes/vinland-saga/",
      "secao": "dublados,legendados",
      "pagina": 16,
      "total_episodios": 24,
      "link_video": "https://animefire.plus/video/vinland-saga-dublado"
    },
    {
      "id": 4081,
      "nome": "Vinland Saga Season 2 (Dublado)",
      "link": "https://animefire.plus/animes/vinland-saga-season-2-dublado-todos-os-episodios",
      "texto_original": "Vinland Saga Season 2 (Dublado)",
      "rating": 8.81,
      "classificacao_etaria": "A16",
      "imagem_original": "https://animefire.plus/img/animes/vinland-saga-season-2.webp",
      "imagem_pasta": "https://animefire.plus/img/animes/vinland-saga-season-2/",
      "secao": "dublados,legendados",
      "pagina": 7,
      "total_episodios": 24,
      "link_video": "https://animefire.plus/video/vinland-saga-season-2-dublado"
    },
    {
      "id": 4082,
      "nome": "Violet Evergarden (Dublado)",
      "link": "https://animefire.plus/animes/violet-evergarden-dublado-todos-os-episodios",
      "texto_original": "Violet Evergarden (Dublado)",
      "rating": 8.62,
      "classificacao_etaria": "A14",
      "imagem_original": "https://animefire.plus/img/animes/violet-evergarden.webp",
      "imagem_pasta": "https://animefire.plus/img/animes/violet-evergarden/",
      "secao": "dublados,legendados",
      "pagina": 25,
      "total_episodios": 13,
      "link_video": "https://animefire.plus/video/violet-evergarden-dublado"
    },
    {
      "id": 4088,
      "nome": "Vivy: Fluorite Eye's Song (Dublado)",
      "link": "https://animefire.plus/animes/vivy-fluorite-eye-s-song-dublado-todos-os-episodios",
      "texto_original": "Vivy: Fluorite Eye's Song (Dublado)",
      "rating": 8.38,
      "classificacao_etaria": "A16",
      "imagem_original": "https://animefire.plus/img/animes/vivy-fluorite-eye-s-song.webp",
      "imagem_pasta": "https://animefire.plus/img/animes/vivy-fluorite-eye-s-song/",
      "secao": "dublados,legendados",
      "pagina": 15,
      "total_episodios": 13,
      "link_video": "https://animefire.plus/video/vivy-fluorite-eye-s-song-dublado"
    },
    {
      "id": 4103,
      "nome": "Wan Sheng Jie 3",
      "link": "https://animefire.plus/animes/wan-sheng-jie-3-todos-os-episodios",
      "texto_original": "Wan Sheng Jie 3",
      "rating": 8.01,
      "classificacao_etaria": "A14",
      "imagem_original": "https://animefire.plus/img/animes/wan-sheng-jie-3.webp",
      "imagem_pasta": "https://animefire.plus/img/animes/wan-sheng-jie-3/",
      "secao": "legendados",
      "pagina": 27,
      "total_episodios": 1,
      "link_video": "https://animefire.plus/video/wan-sheng-jie-3"
    },
    {
      "id": 4148,
      "nome": "Wolf's Rain OVA",
      "link": "https://animefire.plus/animes/wolf-s-rain-ova-todos-os-episodios",
      "texto_original": "Wolf's Rain OVA",
      "rating": 8.02,
      "classificacao_etaria": "A14",
      "imagem_original": "https://animefire.plus/img/animes/wolf-s-rain-ova.webp",
      "imagem_pasta": "https://animefire.plus/img/animes/wolf-s-rain-ova/",
      "secao": "legendados",
      "pagina": 45,
      "total_episodios": 4,
      "link_video": "https://animefire.plus/video/wolf-s-rain-ova"
    },
    {
      "id": 4154,
      "nome": "Working!!!",
      "link": "https://animefire.plus/animes/wagnaria-3-todos-os-episodios",
      "texto_original": "Working!!!",
      "rating": 8.07,
      "classificacao_etaria": "A14",
      "imagem_original": "https://animefire.plus/img/animes/wagnaria-3.webp",
      "imagem_pasta": "https://animefire.plus/img/animes/wagnaria-3/",
      "secao": "legendados",
      "pagina": 72,
      "total_episodios": 13,
      "link_video": "https://animefire.plus/video/wagnaria-3"
    },
    {
      "id": 4157,
      "nome": "World Trigger 2nd Season",
      "link": "https://animefire.plus/animes/world-trigger-2nd-season-todos-os-episodios",
      "texto_original": "World Trigger 2nd Season",
      "rating": 8.04,
      "classificacao_etaria": "A14",
      "imagem_original": "https://animefire.plus/img/animes/world-trigger-2nd-season.webp",
      "imagem_pasta": "https://animefire.plus/img/animes/world-trigger-2nd-season/",
      "secao": "legendados",
      "pagina": 49,
      "total_episodios": 12,
      "link_video": "https://animefire.plus/video/world-trigger-2nd-season"
    },
    {
      "id": 4158,
      "nome": "World Trigger 3rd Season",
      "link": "https://animefire.plus/animes/world-trigger-3rd-season-todos-os-episodios",
      "texto_original": "World Trigger 3rd Season",
      "rating": 8.25,
      "classificacao_etaria": "A14",
      "imagem_original": "https://animefire.plus/img/animes/world-trigger-3rd-season.webp",
      "imagem_pasta": "https://animefire.plus/img/animes/world-trigger-3rd-season/",
      "secao": "legendados",
      "pagina": 37,
      "total_episodios": 14,
      "link_video": "https://animefire.plus/video/world-trigger-3rd-season"
    },
    {
      "id": 4160,
      "nome": "Wotaku ni Koi wa Muzukashii",
      "link": "https://animefire.plus/animes/wotaku-ni-koi-wa-muzukashii-todos-os-episodios",
      "texto_original": "Wotaku ni Koi wa Muzukashii",
      "rating": 8.06,
      "classificacao_etaria": "A14",
      "imagem_original": "https://animefire.plus/img/animes/wotaku-ni-koi-wa-muzukashii.webp",
      "imagem_pasta": "https://animefire.plus/img/animes/wotaku-ni-koi-wa-muzukashii/",
      "secao": "legendados",
      "pagina": 174,
      "total_episodios": 11,
      "link_video": "https://animefire.plus/video/wotaku-ni-koi-wa-muzukashii"
    },
    {
      "id": 4163,
      "nome": "Wu Shan Wu Xing",
      "link": "https://animefire.plus/animes/wu-shan-wu-xing-todos-os-episodios",
      "texto_original": "Wu Shan Wu Xing",
      "rating": 8.02,
      "classificacao_etaria": "A16",
      "imagem_original": "https://animefire.plus/img/animes/wu-shan-wu-xing.webp",
      "imagem_pasta": "https://animefire.plus/img/animes/wu-shan-wu-xing/",
      "secao": "legendados",
      "pagina": 48,
      "total_episodios": 3,
      "link_video": "https://animefire.plus/video/wu-shan-wu-xing"
    },
    {
      "id": 4177,
      "nome": "xxxHOLiC",
      "link": "https://animefire.plus/animes/xxxholic-todos-os-episodios",
      "texto_original": "xxxHOLiC",
      "rating": 8.07,
      "classificacao_etaria": "A14",
      "imagem_original": "https://animefire.plus/img/animes/xxxholic.webp",
      "imagem_pasta": "https://animefire.plus/img/animes/xxxholic/",
      "secao": "legendados",
      "pagina": 128,
      "total_episodios": 24,
      "link_video": "https://animefire.plus/video/xxxholic"
    },
    {
      "id": 4178,
      "nome": "xxxHOLiC Kei",
      "link": "https://animefire.plus/animes/xxxholic-kei-todos-os-episodios",
      "texto_original": "xxxHOLiC Kei",
      "rating": 8.29,
      "classificacao_etaria": "A14",
      "imagem_original": "https://animefire.plus/img/animes/xxxholic-kei.webp",
      "imagem_pasta": "https://animefire.plus/img/animes/xxxholic-kei/",
      "secao": "legendados",
      "pagina": 163,
      "total_episodios": 13,
      "link_video": "https://animefire.plus/video/xxxholic-kei"
    },
    {
      "id": 4179,
      "nome": "XxxHOLiC Rou",
      "link": "https://animefire.plus/animes/xxxholic-rou-todos-os-episodios",
      "texto_original": "XxxHOLiC Rou",
      "rating": 8.23,
      "classificacao_etaria": "A14",
      "imagem_original": "https://animefire.plus/img/animes/xxxholic-rou.webp",
      "imagem_pasta": "https://animefire.plus/img/animes/xxxholic-rou/",
      "secao": "legendados",
      "pagina": 103,
      "total_episodios": 2,
      "link_video": "https://animefire.plus/video/xxxholic-rou"
    }
  ],
  "pagination": {
    "current_page": 26,
    "per_page": 20,
    "total_items": 547,
    "total_pages": 28,
    "has_next": true,
    "has_prev": true
  }
}
