{
  "message": "Animes com rating entre 8 e 9",
  "rating_range": {
    "min": 8,
    "max": 9
  },
  "data": [
    {
      "id": 2766,
      "nome": "Nodame Cantabile (Dublado)",
      "link": "https://animefire.plus/animes/nodame-cantabile-dublado-todos-os-episodios",
      "texto_original": "Nodame Cantabile (Dublado)",
      "rating": 8.38,
      "classificacao_etaria": "A14",
      "imagem_original": "https://animefire.plus/img/animes/nodame-cantabile.webp",
      "imagem_pasta": "https://animefire.plus/img/animes/nodame-cantabile/",
      "secao": "dublados,legendados",
      "pagina": 27,
      "total_episodios": 22,
      "link_video": "https://animefire.plus/video/nodame-cantabile-dublado"
    },
    {
      "id": 2767,
      "nome": "Nodame Cantabile: Finale",
      "link": "https://animefire.plus/animes/nodame-cantabile-finale-todos-os-episodios",
      "texto_original": "Nodame Cantabile: Finale",
      "rating": 8.32,
      "classificacao_etaria": "A14",
      "imagem_original": "https://animefire.plus/img/animes/nodame-cantabile-finale.webp",
      "imagem_pasta": "https://animefire.plus/img/animes/nodame-cantabile-finale/",
      "secao": "legendados",
      "pagina": 177,
      "total_episodios": 11,
      "link_video": "https://animefire.plus/video/nodame-cantabile-finale"
    },
    {
      "id": 2768,
      "nome": "Nodame Cantabile: Paris-hen",
      "link": "https://animefire.plus/animes/nodame-cantabile-paris-hen-todos-os-episodios",
      "texto_original": "Nodame Cantabile: Paris-hen",
      "rating": 8.21,
      "classificacao_etaria": "A14",
      "imagem_original": "https://animefire.plus/img/animes/nodame-cantabile-paris-hen.webp",
      "imagem_pasta": "https://animefire.plus/img/animes/nodame-cantabile-paris-hen/",
      "secao": "legendados",
      "pagina": 132,
      "total_episodios": 11,
      "link_video": "https://animefire.plus/video/nodame-cantabile-paris-hen"
    },
    {
      "id": 2774,
      "nome": "Nomad: Megalo Box 2 (Dublado)",
      "link": "https://animefire.plus/animes/nomad-megalo-box-2-dublado-todos-os-episodios",
      "texto_original": "Nomad: Megalo Box 2 (Dublado)",
      "rating": 8.18,
      "classificacao_etaria": "A16",
      "imagem_original": "https://animefire.plus/img/animes/nomad-megalo-box-2.webp",
      "imagem_pasta": "https://animefire.plus/img/animes/nomad-megalo-box-2/",
      "secao": "dublados,legendados",
      "pagina": 17,
      "total_episodios": 13,
      "link_video": "https://animefire.plus/video/nomad-megalo-box-2-dublado"
    },
    {
      "id": 2775,
      "nome": "Non Non Biyori",
      "link": "https://animefire.plus/animes/non-non-biyori-todos-os-episodios",
      "texto_original": "Non Non Biyori",
      "rating": 8,
      "classificacao_etaria": "A14",
      "imagem_original": "https://animefire.plus/img/animes/non-non-biyori.webp",
      "imagem_pasta": "https://animefire.plus/img/animes/non-non-biyori/",
      "secao": "legendados",
      "pagina": 132,
      "total_episodios": 12,
      "link_video": "https://animefire.plus/video/non-non-biyori"
    },
    {
      "id": 2776,
      "nome": "Non Non Biyori Movie: Vacation",
      "link": "https://animefire.plus/animes/non-non-biyori-movie-vacation-todos-os-episodios",
      "texto_original": "Non Non Biyori Movie: Vacation",
      "rating": 8.26,
      "classificacao_etaria": "A14",
      "imagem_original": "https://animefire.plus/img/animes/non-non-biyori-movie-vacation.webp",
      "imagem_pasta": "https://animefire.plus/img/animes/non-non-biyori-movie-vacation/",
      "secao": "legendados",
      "pagina": 108,
      "total_episodios": 2,
      "link_video": "https://animefire.plus/video/non-non-biyori-movie-vacation"
    },
    {
      "id": 2777,
      "nome": "Non Non Biyori Nonstop",
      "link": "https://animefire.plus/animes/non-non-biyori-nonstop-todos-os-episodios",
      "texto_original": "Non Non Biyori Nonstop",
      "rating": 8.35,
      "classificacao_etaria": "A14",
      "imagem_original": "https://animefire.plus/img/animes/non-non-biyori-nonstop.webp",
      "imagem_pasta": "https://animefire.plus/img/animes/non-non-biyori-nonstop/",
      "secao": "legendados",
      "pagina": 49,
      "total_episodios": 12,
      "link_video": "https://animefire.plus/video/non-non-biyori-nonstop"
    },
    {
      "id": 2778,
      "nome": "Non Non Biyori Repeat",
      "link": "https://animefire.plus/animes/non-non-biyori-repeat-todos-os-episodios",
      "texto_original": "Non Non Biyori Repeat",
      "rating": 8.2,
      "classificacao_etaria": "A14",
      "imagem_original": "https://animefire.plus/img/animes/non-non-biyori-repeat.webp",
      "imagem_pasta": "https://animefire.plus/img/animes/non-non-biyori-repeat/",
      "secao": "legendados",
      "pagina": 73,
      "total_episodios": 13,
      "link_video": "https://animefire.plus/video/non-non-biyori-repeat"
    },
    {
      "id": 2781,
      "nome": "Noragami Aragoto (Dublado)",
      "link": "https://animefire.plus/animes/noragami-aragoto-dublado-todos-os-episodios",
      "texto_original": "Noragami Aragoto (Dublado)",
      "rating": 8.18,
      "classificacao_etaria": "A14",
      "imagem_original": "https://animefire.plus/img/animes/noragami-aragoto.webp",
      "imagem_pasta": "https://animefire.plus/img/animes/noragami-aragoto/",
      "secao": "dublados,legendados",
      "pagina": 13,
      "total_episodios": 13,
      "link_video": "https://animefire.plus/video/noragami-aragoto-dublado"
    },
    {
      "id": 2795,
      "nome": "Nurarihyon no Mago: Sennen Makyou",
      "link": "https://animefire.plus/animes/nurarihyon-no-mago-sennen-makyou-todos-os-episodios",
      "texto_original": "Nurarihyon no Mago: Sennen Makyou",
      "rating": 8.08,
      "classificacao_etaria": "A14",
      "imagem_original": "https://animefire.plus/img/animes/nurarihyon-no-mago-sennen-makyou.webp",
      "imagem_pasta": "https://animefire.plus/img/animes/nurarihyon-no-mago-sennen-makyou/",
      "secao": "legendados",
      "pagina": 152,
      "total_episodios": 25,
      "link_video": "https://animefire.plus/video/nurarihyon-no-mago-sennen-makyou"
    },
    {
      "id": 2807,
      "nome": "Odd Taxi (Dublado)",
      "link": "https://animefire.plus/animes/odd-taxi-dublado-todos-os-episodios",
      "texto_original": "Odd Taxi (Dublado)",
      "rating": 8.64,
      "classificacao_etaria": "A14",
      "imagem_original": "https://animefire.plus/img/animes/odd-taxi.webp",
      "imagem_pasta": "https://animefire.plus/img/animes/odd-taxi/",
      "secao": "dublados,legendados",
      "pagina": 4,
      "total_episodios": 13,
      "link_video": "https://animefire.plus/video/odd-taxi-dublado"
    },
    {
      "id": 2825,
      "nome": "One Outs",
      "link": "https://animefire.plus/animes/one-outs-todos-os-episodios",
      "texto_original": "One Outs",
      "rating": 8.39,
      "classificacao_etaria": "A14",
      "imagem_original": "https://animefire.plus/img/animes/one-outs.webp",
      "imagem_pasta": "https://animefire.plus/img/animes/one-outs/",
      "secao": "legendados",
      "pagina": 114,
      "total_episodios": 25,
      "link_video": "https://animefire.plus/video/one-outs"
    },
    {
      "id": 2826,
      "nome": "One Piece (Dublado)",
      "link": "https://animefire.plus/animes/one-piece-dublado-todos-os-episodios",
      "texto_original": "One Piece (Dublado)",
      "rating": 8.49,
      "classificacao_etaria": "A14",
      "imagem_original": "https://animefire.plus/img/animes/one-piece.webp",
      "imagem_pasta": "https://animefire.plus/img/animes/one-piece/",
      "secao": "dublados,legendados,lancamentos",
      "pagina": 20,
      "total_episodios": 834,
      "link_video": "https://animefire.plus/video/one-piece-dublado"
    },
    {
      "id": 2828,
      "nome": "One Piece Film: Strong World Episode 0",
      "link": "https://animefire.plus/animes/one-piece-film-strong-world-episode-0-todos-os-episodios",
      "texto_original": "One Piece Film: Strong World Episode 0",
      "rating": 8.04,
      "classificacao_etaria": "A14",
      "imagem_original": "https://animefire.plus/img/animes/one-piece-film-strong-world-episode-0.webp",
      "imagem_pasta": "https://animefire.plus/img/animes/one-piece-film-strong-world-episode-0/",
      "secao": "legendados",
      "pagina": 77,
      "total_episodios": 1,
      "link_video": "https://animefire.plus/video/one-piece-film-strong-world-episode-0"
    },
    {
      "id": 2831,
      "nome": "One Piece: Episode of Merry - Mou Hitori no Nakama no Monogatari",
      "link": "https://animefire.plus/animes/one-piece-episode-of-merry---mou-hitori-no-nakama-no-monogatari-todos-os-episodios",
      "texto_original": "One Piece: Episode of Merry - Mou Hitori no Nakama no Monogatari",
      "rating": 8.22,
      "classificacao_etaria": "A14",
      "imagem_original": "https://animefire.plus/img/animes/one-piece-episode-of-merry---mou-hitori-no-nakama-no-monogatari.webp",
      "imagem_pasta": "https://animefire.plus/img/animes/one-piece-episode-of-merry---mou-hitori-no-nakama-no-monogatari/",
      "secao": "legendados",
      "pagina": 75,
      "total_episodios": 0,
      "link_video": "https://animefire.plus/video/one-piece-episode-of-merry---mou-hitori-no-nakama-no-monogatari"
    },
    {
      "id": 2832,
      "nome": "One Piece: Episode of Nami - Koukaishi no Namida to Nakama no Kizuna",
      "link": "https://animefire.plus/animes/one-piece-episode-of-nami---koukaishi-no-namida-to-nakama-no-kizuna-todos-os-episodios",
      "texto_original": "One Piece: Episode of Nami - Koukaishi no Namida to Nakama no Kizuna",
      "rating": 8.17,
      "classificacao_etaria": "A14",
      "imagem_original": "https://animefire.plus/img/animes/one-piece-episode-of-nami---koukaishi-no-namida-to-nakama-no-kizuna.webp",
      "imagem_pasta": "https://animefire.plus/img/animes/one-piece-episode-of-nami---koukaishi-no-namida-to-nakama-no-kizuna/",
      "secao": "legendados",
      "pagina": 74,
      "total_episodios": 0,
      "link_video": "https://animefire.plus/video/one-piece-episode-of-nami---koukaishi-no-namida-to-nakama-no-kizuna"
    },
    {
      "id": 2838,
      "nome": "One Punch Man (Dublado)",
      "link": "https://animefire.plus/animes/one-punch-man-dublado-todos-os-episodios",
      "texto_original": "One Punch Man (Dublado)",
      "rating": 8.7,
      "classificacao_etaria": "A16",
      "imagem_original": "https://animefire.plus/img/animes/one-punch-man.webp",
      "imagem_pasta": "https://animefire.plus/img/animes/one-punch-man/",
      "secao": "dublados,legendados",
      "pagina": 28,
      "total_episodios": 12,
      "link_video": "https://animefire.plus/video/one-punch-man-dublado"
    },
    {
      "id": 2868,
      "nome": "Ookami to Koushinryou (Dublado)",
      "link": "https://animefire.plus/animes/ookami-to-koushinryou-dublado-todos-os-episodios",
      "texto_original": "Ookami to Koushinryou (Dublado)",
      "rating": 8.24,
      "classificacao_etaria": "A14",
      "imagem_original": "https://animefire.plus/img/animes/ookami-to-koushinryou.webp",
      "imagem_pasta": "https://animefire.plus/img/animes/ookami-to-koushinryou/",
      "secao": "dublados,legendados",
      "pagina": 13,
      "total_episodios": 13,
      "link_video": "https://animefire.plus/video/ookami-to-koushinryou-dublado"
    },
    {
      "id": 2869,
      "nome": "Ookami to Koushinryou II (Dublado)",
      "link": "https://animefire.plus/animes/ookami-to-koushinryou-ii-dublado-todos-os-episodios",
      "texto_original": "Ookami to Koushinryou II (Dublado)",
      "rating": 8.34,
      "classificacao_etaria": "A14",
      "imagem_original": "https://animefire.plus/img/animes/ookami-to-koushinryou-ii.webp",
      "imagem_pasta": "https://animefire.plus/img/animes/ookami-to-koushinryou-ii/",
      "secao": "dublados,legendados",
      "pagina": 13,
      "total_episodios": 12,
      "link_video": "https://animefire.plus/video/ookami-to-koushinryou-ii-dublado"
    },
    {
      "id": 2870,
      "nome": "Ookami to Koushinryou: Merchant Meets the Wise Wolf",
      "link": "https://animefire.plus/animes/ookami-to-koushinryou-merchant-meets-the-wise-wolf-todos-os-episodios",
      "texto_original": "Ookami to Koushinryou: Merchant Meets the Wise Wolf",
      "rating": 8.11,
      "classificacao_etaria": "A14",
      "imagem_original": "https://animefire.plus/img/animes/ookami-to-koushinryou-merchant-meets-the-wise-wolf.webp",
      "imagem_pasta": "https://animefire.plus/img/animes/ookami-to-koushinryou-merchant-meets-the-wise-wolf/",
      "secao": "legendados",
      "pagina": 15,
      "total_episodios": 13,
      "link_video": "https://animefire.plus/video/ookami-to-koushinryou-merchant-meets-the-wise-wolf"
    }
  ],
  "pagination": {
    "current_page": 19,
    "per_page": 20,
    "total_items": 547,
    "total_pages": 28,
    "has_next": true,
    "has_prev": true
  }
}
