{
  "message": "Animes com rating entre 8 e 9",
  "rating_range": {
    "min": 8,
    "max": 9
  },
  "data": [
    {
      "id": 464,
      "nome": "Boku no Kokoro no Yabai Yatsu Season 2",
      "link": "https://animefire.plus/animes/boku-no-kokoro-no-yabai-yatsu-season-2-todos-os-episodios",
      "texto_original": "Boku no Kokoro no Yabai Yatsu Season 2",
      "rating": 8.73,
      "classificacao_etaria": "A14",
      "imagem_original": "https://animefire.plus/img/animes/boku-no-kokoro-no-yabai-yatsu-season-2.webp",
      "imagem_pasta": "https://animefire.plus/img/animes/boku-no-kokoro-no-yabai-yatsu-season-2/",
      "secao": "legendados",
      "pagina": 17,
      "total_episodios": 13,
      "link_video": "https://animefire.plus/video/boku-no-kokoro-no-yabai-yatsu-season-2"
    },
    {
      "id": 514,
      "nome": "Buddy Daddies",
      "link": "https://animefire.plus/animes/buddy-daddies-todos-os-episodios",
      "texto_original": "Buddy Daddies",
      "rating": 8.12,
      "classificacao_etaria": "A14",
      "imagem_original": "https://animefire.plus/img/animes/buddy-daddies.webp",
      "imagem_pasta": "https://animefire.plus/img/animes/buddy-daddies/",
      "secao": "legendados",
      "pagina": 26,
      "total_episodios": 12,
      "link_video": "https://animefire.plus/video/buddy-daddies"
    },
    {
      "id": 519,
      "nome": "Bungou Stray Dogs 2nd season (Dublado)",
      "link": "https://animefire.plus/animes/bungou-stray-dogs-2nd-season-dublado-todos-os-episodios",
      "texto_original": "Bungou Stray Dogs 2nd season (Dublado)",
      "rating": 8.25,
      "classificacao_etaria": "A16",
      "imagem_original": "https://animefire.plus/img/animes/bungou-stray-dogs-2nd-season.webp",
      "imagem_pasta": "https://animefire.plus/img/animes/bungou-stray-dogs-2nd-season/",
      "secao": "dublados,legendados",
      "pagina": 23,
      "total_episodios": 0,
      "link_video": "https://animefire.plus/video/bungou-stray-dogs-2nd-season-dublado"
    },
    {
      "id": 520,
      "nome": "Bungou Stray Dogs 3rd Season (Dublado)",
      "link": "https://animefire.plus/animes/bungou-stray-dogs-3rd-season-dublado-todos-os-episodios",
      "texto_original": "Bungou Stray Dogs 3rd Season (Dublado)",
      "rating": 8.22,
      "classificacao_etaria": "A16",
      "imagem_original": "https://animefire.plus/img/animes/bungou-stray-dogs-3rd-season.webp",
      "imagem_pasta": "https://animefire.plus/img/animes/bungou-stray-dogs-3rd-season/",
      "secao": "dublados,legendados",
      "pagina": 8,
      "total_episodios": 12,
      "link_video": "https://animefire.plus/video/bungou-stray-dogs-3rd-season-dublado"
    },
    {
      "id": 521,
      "nome": "Bungou Stray Dogs 4th Season",
      "link": "https://animefire.plus/animes/bungou-stray-dogs-4th-season-todos-os-episodios",
      "texto_original": "Bungou Stray Dogs 4th Season",
      "rating": 8.43,
      "classificacao_etaria": "A16",
      "imagem_original": "https://animefire.plus/img/animes/bungou-stray-dogs-4th-season.webp",
      "imagem_pasta": "https://animefire.plus/img/animes/bungou-stray-dogs-4th-season/",
      "secao": "legendados,lancamentos",
      "pagina": 27,
      "total_episodios": 14,
      "link_video": "https://animefire.plus/video/bungou-stray-dogs-4th-season"
    },
    {
      "id": 522,
      "nome": "Bungou Stray Dogs 4th Season (Dublado)",
      "link": "https://animefire.plus/animes/bungou-stray-dogs-4-dublado-todos-os-episodios",
      "texto_original": "Bungou Stray Dogs 4th Season (Dublado)",
      "rating": 8.43,
      "classificacao_etaria": "A16",
      "imagem_original": "https://animefire.plus/img/animes/bungou-stray-dogs-4.webp",
      "imagem_pasta": "https://animefire.plus/img/animes/bungou-stray-dogs-4/",
      "secao": "dublados,lancamentos",
      "pagina": 7,
      "total_episodios": 0,
      "link_video": "https://animefire.plus/video/bungou-stray-dogs-4-dublado"
    },
    {
      "id": 523,
      "nome": "Bungou Stray Dogs 5th Season (Dublado)",
      "link": "https://animefire.plus/animes/bungou-stray-dogs-5th-season-dublado-todos-os-episodios",
      "texto_original": "Bungou Stray Dogs 5th Season (Dublado)",
      "rating": 8.62,
      "classificacao_etaria": "A16",
      "imagem_original": "https://animefire.plus/img/animes/bungou-stray-dogs-5th-season.webp",
      "imagem_pasta": "https://animefire.plus/img/animes/bungou-stray-dogs-5th-season/",
      "secao": "dublados,legendados",
      "pagina": 6,
      "total_episodios": 11,
      "link_video": "https://animefire.plus/video/bungou-stray-dogs-5th-season-dublado"
    },
    {
      "id": 561,
      "nome": "Cardcaptor Sakura (Dublado)",
      "link": "https://animefire.plus/animes/cardcaptor-sakura-dublado-todos-os-episodios",
      "texto_original": "Cardcaptor Sakura (Dublado)",
      "rating": 8.2,
      "classificacao_etaria": "A10",
      "imagem_original": "https://animefire.plus/img/animes/cardcaptor-sakura.webp",
      "imagem_pasta": "https://animefire.plus/img/animes/cardcaptor-sakura/",
      "secao": "dublados",
      "pagina": 27,
      "total_episodios": 15,
      "link_video": "https://animefire.plus/video/cardcaptor-sakura-dublado"
    },
    {
      "id": 590,
      "nome": "Chainsaw Man (Dublado)",
      "link": "https://animefire.plus/animes/chainsaw-man-dublado-todos-os-episodios",
      "texto_original": "Chainsaw Man (Dublado)",
      "rating": 8.44,
      "classificacao_etaria": "A16",
      "imagem_original": "https://animefire.plus/img/animes/chainsaw-man.webp",
      "imagem_pasta": "https://animefire.plus/img/animes/chainsaw-man/",
      "secao": "dublados,legendados",
      "pagina": 9,
      "total_episodios": 12,
      "link_video": "https://animefire.plus/video/chainsaw-man-dublado"
    },
    {
      "id": 600,
      "nome": "Chi.: Chikyuu no Undou ni Tsuite",
      "link": "https://animefire.plus/animes/chi-chikyuu-no-undou-ni-tsuite-todos-os-episodios",
      "texto_original": "Chi.: Chikyuu no Undou ni Tsuite",
      "rating": 8.71,
      "classificacao_etaria": "A16",
      "imagem_original": "https://animefire.plus/img/animes/chi-chikyuu-no-undou-ni-tsuite.webp",
      "imagem_pasta": "https://animefire.plus/img/animes/chi-chikyuu-no-undou-ni-tsuite/",
      "secao": "legendados,lancamentos",
      "pagina": 9,
      "total_episodios": 6,
      "link_video": "https://animefire.plus/video/chi-chikyuu-no-undou-ni-tsuite"
    },
    {
      "id": 603,
      "nome": "Chihayafuru",
      "link": "https://animefire.plus/animes/chihayafuru-todos-os-episodios",
      "texto_original": "Chihayafuru",
      "rating": 8.27,
      "classificacao_etaria": "A14",
      "imagem_original": "https://animefire.plus/img/animes/chihayafuru.webp",
      "imagem_pasta": "https://animefire.plus/img/animes/chihayafuru/",
      "secao": "legendados",
      "pagina": 144,
      "total_episodios": 25,
      "link_video": "https://animefire.plus/video/chihayafuru"
    },
    {
      "id": 604,
      "nome": "Chihayafuru 2",
      "link": "https://animefire.plus/animes/chihayafuru-2-todos-os-episodios",
      "texto_original": "Chihayafuru 2",
      "rating": 8.45,
      "classificacao_etaria": "A14",
      "imagem_original": "https://animefire.plus/img/animes/chihayafuru-2.webp",
      "imagem_pasta": "https://animefire.plus/img/animes/chihayafuru-2/",
      "secao": "legendados",
      "pagina": 163,
      "total_episodios": 25,
      "link_video": "https://animefire.plus/video/chihayafuru-2"
    },
    {
      "id": 605,
      "nome": "Chihayafuru 3",
      "link": "https://animefire.plus/animes/chihayafuru-3-todos-os-episodios",
      "texto_original": "Chihayafuru 3",
      "rating": 8.52,
      "classificacao_etaria": "A14",
      "imagem_original": "https://animefire.plus/img/animes/chihayafuru-3.webp",
      "imagem_pasta": "https://animefire.plus/img/animes/chihayafuru-3/",
      "secao": "legendados",
      "pagina": 95,
      "total_episodios": 0,
      "link_video": "https://animefire.plus/video/chihayafuru-3"
    },
    {
      "id": 660,
      "nome": "Clannad",
      "link": "https://animefire.plus/animes/clannad-todos-os-episodios",
      "texto_original": "Clannad",
      "rating": 8.18,
      "classificacao_etaria": "A14",
      "imagem_original": "https://animefire.plus/img/animes/clannad.webp",
      "imagem_pasta": "https://animefire.plus/img/animes/clannad/",
      "secao": "legendados",
      "pagina": 155,
      "total_episodios": 23,
      "link_video": "https://animefire.plus/video/clannad"
    },
    {
      "id": 661,
      "nome": "Clannad: After Story",
      "link": "https://animefire.plus/animes/clannad-after-story-todos-os-episodios",
      "texto_original": "Clannad: After Story",
      "rating": 8.98,
      "classificacao_etaria": "A14",
      "imagem_original": "https://animefire.plus/img/animes/clannad-after-story.webp",
      "imagem_pasta": "https://animefire.plus/img/animes/clannad-after-story/",
      "secao": "legendados",
      "pagina": 122,
      "total_episodios": 24,
      "link_video": "https://animefire.plus/video/clannad-after-story"
    },
    {
      "id": 675,
      "nome": "Code Geass: Hangyaku no Lelouch",
      "link": "https://animefire.plus/animes/code-geass-hangyaku-no-lelouch-todos-os-episodios",
      "texto_original": "Code Geass: Hangyaku no Lelouch",
      "rating": 8.77,
      "classificacao_etaria": "A16",
      "imagem_original": "https://animefire.plus/img/animes/code-geass-hangyaku-no-lelouch.webp",
      "imagem_pasta": "https://animefire.plus/img/animes/code-geass-hangyaku-no-lelouch/",
      "secao": "legendados",
      "pagina": 154,
      "total_episodios": 25,
      "link_video": "https://animefire.plus/video/code-geass-hangyaku-no-lelouch"
    },
    {
      "id": 676,
      "nome": "Code Geass: Hangyaku no Lelouch R2",
      "link": "https://animefire.plus/animes/code-geass-hangyaku-no-lelouch-r2-todos-os-episodios",
      "texto_original": "Code Geass: Hangyaku no Lelouch R2",
      "rating": 8.93,
      "classificacao_etaria": "A16",
      "imagem_original": "https://animefire.plus/img/animes/code-geass-hangyaku-no-lelouch-r2.webp",
      "imagem_pasta": "https://animefire.plus/img/animes/code-geass-hangyaku-no-lelouch-r2/",
      "secao": "legendados",
      "pagina": 176,
      "total_episodios": 25,
      "link_video": "https://animefire.plus/video/code-geass-hangyaku-no-lelouch-r2"
    },
    {
      "id": 699,
      "nome": "Cowboy Bebop (Dublado)",
      "link": "https://animefire.plus/animes/cowboy-bebop-dublado-todos-os-episodios",
      "texto_original": "Cowboy Bebop (Dublado)",
      "rating": 8.77,
      "classificacao_etaria": "A16",
      "imagem_original": "https://animefire.plus/img/animes/cowboy-bebop.webp",
      "imagem_pasta": "https://animefire.plus/img/animes/cowboy-bebop/",
      "secao": "dublados,legendados",
      "pagina": 15,
      "total_episodios": 3,
      "link_video": "https://animefire.plus/video/cowboy-bebop-dublado"
    },
    {
      "id": 703,
      "nome": "Cross Game",
      "link": "https://animefire.plus/animes/cross-game-todos-os-episodios",
      "texto_original": "Cross Game",
      "rating": 8.46,
      "classificacao_etaria": "A14",
      "imagem_original": "https://animefire.plus/img/animes/cross-game.webp",
      "imagem_pasta": "https://animefire.plus/img/animes/cross-game/",
      "secao": "legendados",
      "pagina": 178,
      "total_episodios": 50,
      "link_video": "https://animefire.plus/video/cross-game"
    },
    {
      "id": 709,
      "nome": "Cyberpunk: Edgerunners (Dublado)",
      "link": "https://animefire.plus/animes/cyberpunk-edgerunners-dublado-todos-os-episodios",
      "texto_original": "Cyberpunk: Edgerunners (Dublado)",
      "rating": 8.6,
      "classificacao_etaria": "A18",
      "imagem_original": "https://animefire.plus/img/animes/cyberpunk-edgerunners.webp",
      "imagem_pasta": "https://animefire.plus/img/animes/cyberpunk-edgerunners/",
      "secao": "dublados,legendados",
      "pagina": 9,
      "total_episodios": 10,
      "link_video": "https://animefire.plus/video/cyberpunk-edgerunners-dublado"
    }
  ],
  "pagination": {
    "current_page": 4,
    "per_page": 20,
    "total_items": 547,
    "total_pages": 28,
    "has_next": true,
    "has_prev": true
  }
}
