{
  "message": "Animes com rating entre 8 e 9",
  "rating_range": {
    "min": 8,
    "max": 9
  },
  "data": [
    {
      "id": 1462,
      "nome": "High Score Girl: Extra Stage (Dublado)",
      "link": "https://animefire.plus/animes/high-score-girl-extra-stage-dublado-todos-os-episodios",
      "texto_original": "High Score Girl: Extra Stage (Dublado)",
      "rating": 8.07,
      "classificacao_etaria": "A14",
      "imagem_original": "https://animefire.plus/img/animes/high-score-girl-extra-stage.webp",
      "imagem_pasta": "https://animefire.plus/img/animes/high-score-girl-extra-stage/",
      "secao": "dublados,legendados",
      "pagina": 24,
      "total_episodios": 3,
      "link_video": "https://animefire.plus/video/high-score-girl-extra-stage-dublado"
    },
    {
      "id": 1465,
      "nome": "Higurashi no Naku Koro ni",
      "link": "https://animefire.plus/animes/higurashi-no-naku-koro-ni-todos-os-episodios",
      "texto_original": "Higurashi no Naku Koro ni",
      "rating": 8.06,
      "classificacao_etaria": "A16",
      "imagem_original": "https://animefire.plus/img/animes/higurashi-no-naku-koro-ni.webp",
      "imagem_pasta": "https://animefire.plus/img/animes/higurashi-no-naku-koro-ni/",
      "secao": "legendados",
      "pagina": 116,
      "total_episodios": 26,
      "link_video": "https://animefire.plus/video/higurashi-no-naku-koro-ni"
    },
    {
      "id": 1468,
      "nome": "Higurashi no Naku Koro ni Kai",
      "link": "https://animefire.plus/animes/higurashi-no-naku-koro-ni-kai-todos-os-episodios",
      "texto_original": "Higurashi no Naku Koro ni Kai",
      "rating": 8.31,
      "classificacao_etaria": "A16",
      "imagem_original": "https://animefire.plus/img/animes/higurashi-no-naku-koro-ni-kai.webp",
      "imagem_pasta": "https://animefire.plus/img/animes/higurashi-no-naku-koro-ni-kai/",
      "secao": "legendados",
      "pagina": 126,
      "total_episodios": 24,
      "link_video": "https://animefire.plus/video/higurashi-no-naku-koro-ni-kai"
    },
    {
      "id": 1479,
      "nome": "Hikaru ga Shinda Natsu",
      "link": "https://animefire.plus/animes/hikaru-ga-shinda-natsu-todos-os-episodios",
      "texto_original": "Hikaru ga Shinda Natsu",
      "rating": 8.18,
      "classificacao_etaria": "A16",
      "imagem_original": "https://animefire.plus/img/animes/hikaru-ga-shinda-natsu.webp",
      "imagem_pasta": "https://animefire.plus/img/animes/hikaru-ga-shinda-natsu/",
      "secao": "legendados,lancamentos",
      "pagina": 3,
      "total_episodios": 5,
      "link_video": "https://animefire.plus/video/hikaru-ga-shinda-natsu"
    },
    {
      "id": 1480,
      "nome": "Hikaru no Go (Dublado)",
      "link": "https://animefire.plus/animes/hikaru-no-go-dublado-todos-os-episodios",
      "texto_original": "Hikaru no Go (Dublado)",
      "rating": 8.07,
      "classificacao_etaria": "A14",
      "imagem_original": "https://animefire.plus/img/animes/hikaru-no-go.webp",
      "imagem_pasta": "https://animefire.plus/img/animes/hikaru-no-go/",
      "secao": "dublados",
      "pagina": 3,
      "total_episodios": 10,
      "link_video": "https://animefire.plus/video/hikaru-no-go-dublado"
    },
    {
      "id": 1493,
      "nome": "Hinamatsuri",
      "link": "https://animefire.plus/animes/hinamatsuri-todos-os-episodios",
      "texto_original": "Hinamatsuri",
      "rating": 8.31,
      "classificacao_etaria": "A14",
      "imagem_original": "https://animefire.plus/img/animes/hinamatsuri.webp",
      "imagem_pasta": "https://animefire.plus/img/animes/hinamatsuri/",
      "secao": "legendados",
      "pagina": 143,
      "total_episodios": 13,
      "link_video": "https://animefire.plus/video/hinamatsuri"
    },
    {
      "id": 1513,
      "nome": "Hokuto No Ken",
      "link": "https://animefire.plus/animes/hokuto-no-ken-todos-os-episodios",
      "texto_original": "Hokuto No Ken",
      "rating": 8.01,
      "classificacao_etaria": "A18",
      "imagem_original": "https://animefire.plus/img/animes/hokuto-no-ken.webp",
      "imagem_pasta": "https://animefire.plus/img/animes/hokuto-no-ken/",
      "secao": "legendados",
      "pagina": 60,
      "total_episodios": 107,
      "link_video": "https://animefire.plus/video/hokuto-no-ken"
    },
    {
      "id": 1519,
      "nome": "Honzuki no Gekokujou: Shisho ni Naru Tame ni wa Shudan wo Erandeiraremasen",
      "link": "https://animefire.plus/animes/honzuki-no-gekokujou-shisho-ni-naru-tame-ni-wa-shudan-wo-erandeiraremasen-todos-os-episodios",
      "texto_original": "Honzuki no Gekokujou: Shisho ni Naru Tame ni wa Shudan wo Erandeiraremasen",
      "rating": 8.03,
      "classificacao_etaria": "A14",
      "imagem_original": "https://animefire.plus/img/animes/honzuki-no-gekokujou-shisho-ni-naru-tame-ni-wa-shudan-wo-erandeiraremasen.webp",
      "imagem_pasta": "https://animefire.plus/img/animes/honzuki-no-gekokujou-shisho-ni-naru-tame-ni-wa-shudan-wo-erandeiraremasen/",
      "secao": "legendados",
      "pagina": 111,
      "total_episodios": 14,
      "link_video": "https://animefire.plus/video/honzuki-no-gekokujou-shisho-ni-naru-tame-ni-wa-shudan-wo-erandeiraremasen"
    },
    {
      "id": 1520,
      "nome": "Honzuki no Gekokujou: Shisho ni Naru Tame ni wa Shudan wo Erandeiraremasen 2nd Season",
      "link": "https://animefire.plus/animes/honzuki-no-gekokujou-shisho-ni-naru-tame-ni-wa-shudan-wo-erandeiraremasen-2nd-season-todos-os-episodios",
      "texto_original": "Honzuki no Gekokujou: Shisho ni Naru Tame ni wa Shudan wo Erandeiraremasen 2nd Season",
      "rating": 8.16,
      "classificacao_etaria": "A14",
      "imagem_original": "https://animefire.plus/img/animes/honzuki-no-gekokujou-shisho-ni-naru-tame-ni-wa-shudan-wo-erandeiraremasen-2nd-season.webp",
      "imagem_pasta": "https://animefire.plus/img/animes/honzuki-no-gekokujou-shisho-ni-naru-tame-ni-wa-shudan-wo-erandeiraremasen-2nd-season/",
      "secao": "legendados",
      "pagina": 81,
      "total_episodios": 1,
      "link_video": "https://animefire.plus/video/honzuki-no-gekokujou-shisho-ni-naru-tame-ni-wa-shudan-wo-erandeiraremasen-2nd-season"
    },
    {
      "id": 1521,
      "nome": "Honzuki no Gekokujou: Shisho ni Naru Tame ni wa Shudan wo Erandeiraremasen 3rd Season",
      "link": "https://animefire.plus/animes/honzuki-no-gekokujou-shisho-ni-naru-tame-ni-wa-shudan-wo-erandeiraremasen-3rd-season-todos-os-episodios",
      "texto_original": "Honzuki no Gekokujou: Shisho ni Naru Tame ni wa Shudan wo Erandeiraremasen 3rd Season",
      "rating": 8.07,
      "classificacao_etaria": "A14",
      "imagem_original": "https://animefire.plus/img/animes/honzuki-no-gekokujou-shisho-ni-naru-tame-ni-wa-shudan-wo-erandeiraremasen-3rd-season.webp",
      "imagem_pasta": "https://animefire.plus/img/animes/honzuki-no-gekokujou-shisho-ni-naru-tame-ni-wa-shudan-wo-erandeiraremasen-3rd-season/",
      "secao": "legendados",
      "pagina": 34,
      "total_episodios": 10,
      "link_video": "https://animefire.plus/video/honzuki-no-gekokujou-shisho-ni-naru-tame-ni-wa-shudan-wo-erandeiraremasen-3rd-season"
    },
    {
      "id": 1526,
      "nome": "Horimiya (Dublado)",
      "link": "https://animefire.plus/animes/horimiya-dublado-todos-os-episodios",
      "texto_original": "Horimiya (Dublado)",
      "rating": 8.19,
      "classificacao_etaria": "A14",
      "imagem_original": "https://animefire.plus/img/animes/horimiya.webp",
      "imagem_pasta": "https://animefire.plus/img/animes/horimiya/",
      "secao": "dublados,legendados",
      "pagina": 15,
      "total_episodios": 13,
      "link_video": "https://animefire.plus/video/horimiya-dublado"
    },
    {
      "id": 1527,
      "nome": "Horimiya: Piece (Dublado)",
      "link": "https://animefire.plus/animes/horimiya-piece-dublado-todos-os-episodios",
      "texto_original": "Horimiya: Piece (Dublado)",
      "rating": 8.14,
      "classificacao_etaria": "A14",
      "imagem_original": "https://animefire.plus/img/animes/horimiya-piece.webp",
      "imagem_pasta": "https://animefire.plus/img/animes/horimiya-piece/",
      "secao": "dublados,legendados",
      "pagina": 6,
      "total_episodios": 13,
      "link_video": "https://animefire.plus/video/horimiya-piece-dublado"
    },
    {
      "id": 1536,
      "nome": "Hotarubi no Mori e",
      "link": "https://animefire.plus/animes/hotarubi-no-mori-e-todos-os-episodios",
      "texto_original": "Hotarubi no Mori e",
      "rating": 8.49,
      "classificacao_etaria": null,
      "imagem_original": "https://animefire.plus/img/animes/hotarubi-no-mori-e.webp",
      "imagem_pasta": "https://animefire.plus/img/animes/hotarubi-no-mori-e/",
      "secao": "legendados",
      "pagina": 104,
      "total_episodios": 1,
      "link_video": "https://animefire.plus/video/hotarubi-no-mori-e"
    },
    {
      "id": 1550,
      "nome": "Hunter x Hunter (Dublado)",
      "link": "https://animefire.plus/animes/hunter-x-hunter-dublado-todos-os-episodios",
      "texto_original": "Hunter x Hunter (Dublado)",
      "rating": 8.43,
      "classificacao_etaria": "A14",
      "imagem_original": "https://animefire.plus/img/animes/hunter-x-hunter.webp",
      "imagem_pasta": "https://animefire.plus/img/animes/hunter-x-hunter/",
      "secao": "dublados",
      "pagina": 22,
      "total_episodios": 92,
      "link_video": "https://animefire.plus/video/hunter-x-hunter-dublado"
    },
    {
      "id": 1552,
      "nome": "Hunter x Hunter: Greed Island",
      "link": "https://animefire.plus/animes/hunter-x-hunter-greed-island-todos-os-episodios",
      "texto_original": "Hunter x Hunter: Greed Island",
      "rating": 8.2,
      "classificacao_etaria": "A14",
      "imagem_original": "https://animefire.plus/img/animes/hunter-x-hunter-greed-island.webp",
      "imagem_pasta": "https://animefire.plus/img/animes/hunter-x-hunter-greed-island/",
      "secao": "legendados",
      "pagina": 43,
      "total_episodios": 8,
      "link_video": "https://animefire.plus/video/hunter-x-hunter-greed-island"
    },
    {
      "id": 1553,
      "nome": "Hunter x Hunter: Greed Island Final",
      "link": "https://animefire.plus/animes/hunter-x-hunter-greed-island-final-todos-os-episodios",
      "texto_original": "Hunter x Hunter: Greed Island Final",
      "rating": 8.28,
      "classificacao_etaria": "A14",
      "imagem_original": "https://animefire.plus/img/animes/hunter-x-hunter-greed-island-final.webp",
      "imagem_pasta": "https://animefire.plus/img/animes/hunter-x-hunter-greed-island-final/",
      "secao": "legendados",
      "pagina": 43,
      "total_episodios": 14,
      "link_video": "https://animefire.plus/video/hunter-x-hunter-greed-island-final"
    },
    {
      "id": 1568,
      "nome": "Hyouka",
      "link": "https://animefire.plus/animes/hyouka-todos-os-episodios",
      "texto_original": "Hyouka",
      "rating": 8.15,
      "classificacao_etaria": "A14",
      "imagem_original": "https://animefire.plus/img/animes/hyouka.webp",
      "imagem_pasta": "https://animefire.plus/img/animes/hyouka/",
      "secao": "legendados",
      "pagina": 172,
      "total_episodios": 22,
      "link_video": "https://animefire.plus/video/hyouka"
    },
    {
      "id": 1589,
      "nome": "IDOLiSH7",
      "link": "https://animefire.plus/animes/idolish7-todos-os-episodios",
      "texto_original": "IDOLiSH7",
      "rating": 8.04,
      "classificacao_etaria": "A14",
      "imagem_original": "https://animefire.plus/img/animes/idolish7.webp",
      "imagem_pasta": "https://animefire.plus/img/animes/idolish7/",
      "secao": "legendados",
      "pagina": 105,
      "total_episodios": 17,
      "link_video": "https://animefire.plus/video/idolish7"
    },
    {
      "id": 1590,
      "nome": "IDOLiSH7: Second Beat!",
      "link": "https://animefire.plus/animes/idolish7-second-beat-todos-os-episodios",
      "texto_original": "IDOLiSH7: Second Beat!",
      "rating": 8.15,
      "classificacao_etaria": "A14",
      "imagem_original": "https://animefire.plus/img/animes/idolish7-second-beat.webp",
      "imagem_pasta": "https://animefire.plus/img/animes/idolish7-second-beat/",
      "secao": "legendados",
      "pagina": 93,
      "total_episodios": 15,
      "link_video": "https://animefire.plus/video/idolish7-second-beat"
    },
    {
      "id": 1591,
      "nome": "IDOLiSH7: Third Beat!",
      "link": "https://animefire.plus/animes/idolish7-third-beat-todos-os-episodios",
      "texto_original": "IDOLiSH7: Third Beat!",
      "rating": 8.24,
      "classificacao_etaria": "A14",
      "imagem_original": "https://animefire.plus/img/animes/idolish7-third-beat.webp",
      "imagem_pasta": "https://animefire.plus/img/animes/idolish7-third-beat/",
      "secao": "legendados",
      "pagina": 41,
      "total_episodios": 13,
      "link_video": "https://animefire.plus/video/idolish7-third-beat"
    }
  ],
  "pagination": {
    "current_page": 10,
    "per_page": 20,
    "total_items": 547,
    "total_pages": 28,
    "has_next": true,
    "has_prev": true
  }
}
