{
  "message": "Animes com rating entre 8 e 9",
  "rating_range": {
    "min": 8,
    "max": 9
  },
  "data": [
    {
      "id": 3801,
      "nome": "Tensei shitara Slime Datta Ken 2nd Season (Dublado)",
      "link": "https://animefire.plus/animes/tensei-shitara-slime-datta-ken-2nd-season-dublado-todos-os-episodios",
      "texto_original": "Tensei shitara Slime Datta Ken 2nd Season (Dublado)",
      "rating": 8.35,
      "classificacao_etaria": "A14",
      "imagem_original": "https://animefire.plus/img/animes/tensei-shitara-slime-datta-ken-2nd-season.webp",
      "imagem_pasta": "https://animefire.plus/img/animes/tensei-shitara-slime-datta-ken-2nd-season/",
      "secao": "dublados,legendados,lancamentos",
      "pagina": 12,
      "total_episodios": 12,
      "link_video": "https://animefire.plus/video/tensei-shitara-slime-datta-ken-2nd-season-dublado"
    },
    {
      "id": 3802,
      "nome": "Tensei shitara Slime Datta Ken 2nd Season Part 2 (Dublado)",
      "link": "https://animefire.plus/animes/tensei-shitara-slime-datta-ken-2nd-season-part-2-dublado-todos-os-episodios",
      "texto_original": "Tensei shitara Slime Datta Ken 2nd Season Part 2 (Dublado)",
      "rating": 8.3,
      "classificacao_etaria": "A14",
      "imagem_original": "https://animefire.plus/img/animes/tensei-shitara-slime-datta-ken-2nd-season-part-2.webp",
      "imagem_pasta": "https://animefire.plus/img/animes/tensei-shitara-slime-datta-ken-2nd-season-part-2/",
      "secao": "dublados,legendados",
      "pagina": 12,
      "total_episodios": 12,
      "link_video": "https://animefire.plus/video/tensei-shitara-slime-datta-ken-2nd-season-part-2-dublado"
    },
    {
      "id": 3826,
      "nome": "The Fable",
      "link": "https://animefire.plus/animes/the-fable-todos-os-episodios",
      "texto_original": "The Fable",
      "rating": 8.13,
      "classificacao_etaria": "A14",
      "imagem_original": "https://animefire.plus/img/animes/the-fable.webp",
      "imagem_pasta": "https://animefire.plus/img/animes/the-fable/",
      "secao": "legendados",
      "pagina": 14,
      "total_episodios": 25,
      "link_video": "https://animefire.plus/video/the-fable"
    },
    {
      "id": 3844,
      "nome": "Tian Guan Cifu Er",
      "link": "https://animefire.plus/animes/tian-guan-cifu-er-todos-os-episodios",
      "texto_original": "Tian Guan Cifu Er",
      "rating": 8.65,
      "classificacao_etaria": "A14",
      "imagem_original": "https://animefire.plus/img/animes/tian-guan-cifu-er.webp",
      "imagem_pasta": "https://animefire.plus/img/animes/tian-guan-cifu-er/",
      "secao": "legendados",
      "pagina": 17,
      "total_episodios": 0,
      "link_video": "https://animefire.plus/video/tian-guan-cifu-er"
    },
    {
      "id": 3861,
      "nome": "Toaru Kagaku no Railgun S",
      "link": "https://animefire.plus/animes/toaru-kagaku-no-railgun-s-todos-os-episodios",
      "texto_original": "Toaru Kagaku no Railgun S",
      "rating": 8.11,
      "classificacao_etaria": "A16",
      "imagem_original": "https://animefire.plus/img/animes/toaru-kagaku-no-railgun-s.webp",
      "imagem_pasta": "https://animefire.plus/img/animes/toaru-kagaku-no-railgun-s/",
      "secao": "legendados",
      "pagina": 150,
      "total_episodios": 0,
      "link_video": "https://animefire.plus/video/toaru-kagaku-no-railgun-s"
    },
    {
      "id": 3864,
      "nome": "Toaru Kagaku no Railgun T",
      "link": "https://animefire.plus/animes/toaru-kagaku-no-railgun-t-todos-os-episodios",
      "texto_original": "Toaru Kagaku no Railgun T",
      "rating": 8.25,
      "classificacao_etaria": "A16",
      "imagem_original": "https://animefire.plus/img/animes/toaru-kagaku-no-railgun-t.webp",
      "imagem_pasta": "https://animefire.plus/img/animes/toaru-kagaku-no-railgun-t/",
      "secao": "legendados",
      "pagina": 92,
      "total_episodios": 1,
      "link_video": "https://animefire.plus/video/toaru-kagaku-no-railgun-t"
    },
    {
      "id": 3887,
      "nome": "Tokyo Magnitude 8.0",
      "link": "https://animefire.plus/animes/tokyo-magnitude-8-0-todos-os-episodios",
      "texto_original": "Tokyo Magnitude 8.0",
      "rating": 8.13,
      "classificacao_etaria": "A14",
      "imagem_original": "https://animefire.plus/img/animes/tokyo-magnitude-8-0.webp",
      "imagem_pasta": "https://animefire.plus/img/animes/tokyo-magnitude-8-0/",
      "secao": "legendados",
      "pagina": 172,
      "total_episodios": 11,
      "link_video": "https://animefire.plus/video/tokyo-magnitude-8-0"
    },
    {
      "id": 3909,
      "nome": "Tong Ling Fei",
      "link": "https://animefire.plus/animes/tong-ling-fei-todos-os-episodios",
      "texto_original": "Tong Ling Fei",
      "rating": 8.04,
      "classificacao_etaria": "A14",
      "imagem_original": "https://animefire.plus/img/animes/tong-ling-fei.webp",
      "imagem_pasta": "https://animefire.plus/img/animes/tong-ling-fei/",
      "secao": "legendados",
      "pagina": 128,
      "total_episodios": 16,
      "link_video": "https://animefire.plus/video/tong-ling-fei"
    },
    {
      "id": 3915,
      "nome": "Tonikaku Kawaii: SNS (Dublado)",
      "link": "https://animefire.plus/animes/tonikaku-kawaii-sns-dublado-todos-os-episodios",
      "texto_original": "Tonikaku Kawaii: SNS (Dublado)",
      "rating": 8.01,
      "classificacao_etaria": "A14",
      "imagem_original": "https://animefire.plus/img/animes/tonikaku-kawaii-sns.webp",
      "imagem_pasta": "https://animefire.plus/img/animes/tonikaku-kawaii-sns/",
      "secao": "dublados,legendados",
      "pagina": 15,
      "total_episodios": 1,
      "link_video": "https://animefire.plus/video/tonikaku-kawaii-sns-dublado"
    },
    {
      "id": 3918,
      "nome": "Toradora!",
      "link": "https://animefire.plus/animes/toradora-todos-os-episodios",
      "texto_original": "Toradora!",
      "rating": 8.36,
      "classificacao_etaria": "A14",
      "imagem_original": "https://animefire.plus/img/animes/toradora.webp",
      "imagem_pasta": "https://animefire.plus/img/animes/toradora/",
      "secao": "legendados",
      "pagina": 173,
      "total_episodios": 0,
      "link_video": "https://animefire.plus/video/toradora"
    },
    {
      "id": 3935,
      "nome": "Trigun (Dublado)",
      "link": "https://animefire.plus/animes/trigun-dublado-todos-os-episodios",
      "texto_original": "Trigun (Dublado)",
      "rating": 8.25,
      "classificacao_etaria": "A14",
      "imagem_original": "https://animefire.plus/img/animes/trigun.webp",
      "imagem_pasta": "https://animefire.plus/img/animes/trigun/",
      "secao": "dublados,legendados",
      "pagina": 22,
      "total_episodios": 26,
      "link_video": "https://animefire.plus/video/trigun-dublado"
    },
    {
      "id": 3943,
      "nome": "Tsubasa: Shunraiki",
      "link": "https://animefire.plus/animes/tsubasa-shunraiki-todos-os-episodios",
      "texto_original": "Tsubasa: Shunraiki",
      "rating": 8.15,
      "classificacao_etaria": "A16",
      "imagem_original": "https://animefire.plus/img/animes/tsubasa-shunraiki.webp",
      "imagem_pasta": "https://animefire.plus/img/animes/tsubasa-shunraiki/",
      "secao": "legendados",
      "pagina": 62,
      "total_episodios": 1,
      "link_video": "https://animefire.plus/video/tsubasa-shunraiki"
    },
    {
      "id": 3944,
      "nome": "Tsubasa: Tokyo Revelations",
      "link": "https://animefire.plus/animes/tsubasa-tokyo-revelations-todos-os-episodios",
      "texto_original": "Tsubasa: Tokyo Revelations",
      "rating": 8.34,
      "classificacao_etaria": "A16",
      "imagem_original": "https://animefire.plus/img/animes/tsubasa-tokyo-revelations.webp",
      "imagem_pasta": "https://animefire.plus/img/animes/tsubasa-tokyo-revelations/",
      "secao": "legendados",
      "pagina": 62,
      "total_episodios": 1,
      "link_video": "https://animefire.plus/video/tsubasa-tokyo-revelations"
    },
    {
      "id": 3950,
      "nome": "Tsuki ga Kirei",
      "link": "https://animefire.plus/animes/tsuki-ga-kirei-todos-os-episodios",
      "texto_original": "Tsuki ga Kirei",
      "rating": 8.28,
      "classificacao_etaria": "A14",
      "imagem_original": "https://animefire.plus/img/animes/tsuki-ga-kirei.webp",
      "imagem_pasta": "https://animefire.plus/img/animes/tsuki-ga-kirei/",
      "secao": "legendados",
      "pagina": 99,
      "total_episodios": 12,
      "link_video": "https://animefire.plus/video/tsuki-ga-kirei"
    },
    {
      "id": 3956,
      "nome": "Tsukimonogatari",
      "link": "https://animefire.plus/animes/tsukimonogatari-todos-os-episodios",
      "texto_original": "Tsukimonogatari",
      "rating": 8.18,
      "classificacao_etaria": "A16",
      "imagem_original": "https://animefire.plus/img/animes/tsukimonogatari.webp",
      "imagem_pasta": "https://animefire.plus/img/animes/tsukimonogatari/",
      "secao": "legendados",
      "pagina": 141,
      "total_episodios": 4,
      "link_video": "https://animefire.plus/video/tsukimonogatari"
    },
    {
      "id": 3969,
      "nome": "Tsurune: Tsunagari no Issha",
      "link": "https://animefire.plus/animes/tsurune-tsunagari-no-issha-todos-os-episodios",
      "texto_original": "Tsurune: Tsunagari no Issha",
      "rating": 8.1,
      "classificacao_etaria": "A14",
      "imagem_original": "https://animefire.plus/img/animes/tsurune-tsunagari-no-issha.webp",
      "imagem_pasta": "https://animefire.plus/img/animes/tsurune-tsunagari-no-issha/",
      "secao": "legendados",
      "pagina": 26,
      "total_episodios": 13,
      "link_video": "https://animefire.plus/video/tsurune-tsunagari-no-issha"
    },
    {
      "id": 3974,
      "nome": "Tu Bian Yingxiong X (Dublado)",
      "link": "https://animefire.plus/animes/tu-bian-yingxiong-x-dublado-todos-os-episodios",
      "texto_original": "Tu Bian Yingxiong X (Dublado)",
      "rating": 8.44,
      "classificacao_etaria": "A14",
      "imagem_original": "https://animefire.plus/img/animes/tu-bian-yingxiong-x.webp",
      "imagem_pasta": "https://animefire.plus/img/animes/tu-bian-yingxiong-x/",
      "secao": "dublados,legendados,lancamentos",
      "pagina": 1,
      "total_episodios": 18,
      "link_video": "https://animefire.plus/video/tu-bian-yingxiong-x-dublado"
    },
    {
      "id": 3991,
      "nome": "Uchouten Kazoku 2",
      "link": "https://animefire.plus/animes/uchouten-kazoku-2-todos-os-episodios",
      "texto_original": "Uchouten Kazoku 2",
      "rating": 8.2,
      "classificacao_etaria": "A14",
      "imagem_original": "https://animefire.plus/img/animes/uchouten-kazoku-2.webp",
      "imagem_pasta": "https://animefire.plus/img/animes/uchouten-kazoku-2/",
      "secao": "legendados",
      "pagina": 133,
      "total_episodios": 12,
      "link_video": "https://animefire.plus/video/uchouten-kazoku-2"
    },
    {
      "id": 3994,
      "nome": "Uchuu Kyoudai",
      "link": "https://animefire.plus/animes/uchuu-kyoudai-todos-os-episodios",
      "texto_original": "Uchuu Kyoudai",
      "rating": 8.53,
      "classificacao_etaria": "A14",
      "imagem_original": "https://animefire.plus/img/animes/uchuu-kyoudai.webp",
      "imagem_pasta": "https://animefire.plus/img/animes/uchuu-kyoudai/",
      "secao": "legendados",
      "pagina": 68,
      "total_episodios": 99,
      "link_video": "https://animefire.plus/video/uchuu-kyoudai"
    },
    {
      "id": 4000,
      "nome": "Uchuu Senkan Yamato 2199",
      "link": "https://animefire.plus/animes/uchuu-senkan-yamato-2199-todos-os-episodios",
      "texto_original": "Uchuu Senkan Yamato 2199",
      "rating": 8.39,
      "classificacao_etaria": "A14",
      "imagem_original": "https://animefire.plus/img/animes/uchuu-senkan-yamato-2199.webp",
      "imagem_pasta": "https://animefire.plus/img/animes/uchuu-senkan-yamato-2199/",
      "secao": "legendados",
      "pagina": 134,
      "total_episodios": 30,
      "link_video": "https://animefire.plus/video/uchuu-senkan-yamato-2199"
    }
  ],
  "pagination": {
    "current_page": 25,
    "per_page": 20,
    "total_items": 547,
    "total_pages": 28,
    "has_next": true,
    "has_prev": true
  }
}
