{
  "message": "Animes com rating entre 8 e 9",
  "rating_range": {
    "min": 8,
    "max": 9
  },
  "data": [
    {
      "id": 2004,
      "nome": "Kingdom 3rd Season",
      "link": "https://animefire.plus/animes/kingdom-3rd-season-todos-os-episodios",
      "texto_original": "Kingdom 3rd Season",
      "rating": 8.41,
      "classificacao_etaria": null,
      "imagem_original": "https://animefire.plus/img/animes/kingdom-3rd-season.webp",
      "imagem_pasta": "https://animefire.plus/img/animes/kingdom-3rd-season/",
      "secao": "legendados,lancamentos",
      "pagina": 81,
      "total_episodios": 26,
      "link_video": "https://animefire.plus/video/kingdom-3rd-season"
    },
    {
      "id": 2005,
      "nome": "Kingdom 4th Season",
      "link": "https://animefire.plus/animes/kingdom-4-todos-os-episodios",
      "texto_original": "Kingdom 4th Season",
      "rating": 8.73,
      "classificacao_etaria": "A16",
      "imagem_original": "https://animefire.plus/img/animes/kingdom-4.webp",
      "imagem_pasta": "https://animefire.plus/img/animes/kingdom-4/",
      "secao": "legendados",
      "pagina": 33,
      "total_episodios": 26,
      "link_video": "https://animefire.plus/video/kingdom-4"
    },
    {
      "id": 2006,
      "nome": "Kingdom 5th Season",
      "link": "https://animefire.plus/animes/kingdom-5th-season-todos-os-episodios",
      "texto_original": "Kingdom 5th Season",
      "rating": 8.72,
      "classificacao_etaria": "A16",
      "imagem_original": "https://animefire.plus/img/animes/kingdom-5th-season.webp",
      "imagem_pasta": "https://animefire.plus/img/animes/kingdom-5th-season/",
      "secao": "legendados",
      "pagina": 17,
      "total_episodios": 13,
      "link_video": "https://animefire.plus/video/kingdom-5th-season"
    },
    {
      "id": 2009,
      "nome": "Kino no Tabi: The Beautiful World",
      "link": "https://animefire.plus/animes/kino-no-tabi-the-beautiful-world-todos-os-episodios",
      "texto_original": "Kino no Tabi: The Beautiful World",
      "rating": 8.4,
      "classificacao_etaria": "A16",
      "imagem_original": "https://animefire.plus/img/animes/kino-no-tabi-the-beautiful-world.webp",
      "imagem_pasta": "https://animefire.plus/img/animes/kino-no-tabi-the-beautiful-world/",
      "secao": "legendados",
      "pagina": 124,
      "total_episodios": 13,
      "link_video": "https://animefire.plus/video/kino-no-tabi-the-beautiful-world"
    },
    {
      "id": 2017,
      "nome": "Kiseijuu: Sei no Kakuritsu (Dublado)",
      "link": "https://animefire.plus/animes/kiseijuu-sei-no-kakuritsu-dublado-todos-os-episodios",
      "texto_original": "Kiseijuu: Sei no Kakuritsu (Dublado)",
      "rating": 8.46,
      "classificacao_etaria": "A16",
      "imagem_original": "https://animefire.plus/img/animes/kiseijuu-sei-no-kakuritsu.webp",
      "imagem_pasta": "https://animefire.plus/img/animes/kiseijuu-sei-no-kakuritsu/",
      "secao": "dublados,legendados",
      "pagina": 23,
      "total_episodios": 24,
      "link_video": "https://animefire.plus/video/kiseijuu-sei-no-kakuritsu-dublado"
    },
    {
      "id": 2037,
      "nome": "Kobato.",
      "link": "https://animefire.plus/animes/kobato-todos-os-episodios",
      "texto_original": "Kobato.",
      "rating": 8.04,
      "classificacao_etaria": "A14",
      "imagem_original": "https://animefire.plus/img/animes/kobato.webp",
      "imagem_pasta": "https://animefire.plus/img/animes/kobato/",
      "secao": "legendados",
      "pagina": 123,
      "total_episodios": 23,
      "link_video": "https://animefire.plus/video/kobato"
    },
    {
      "id": 2038,
      "nome": "Kobayashi-san Chi no Maid Dragon (Dublado)",
      "link": "https://animefire.plus/animes/kobayashi-san-chi-no-maid-dragon-dublado-todos-os-episodios",
      "texto_original": "Kobayashi-san Chi no Maid Dragon (Dublado)",
      "rating": 8.14,
      "classificacao_etaria": "A14",
      "imagem_original": "https://animefire.plus/img/animes/kobayashi-san-chi-no-maid-dragon.webp",
      "imagem_pasta": "https://animefire.plus/img/animes/kobayashi-san-chi-no-maid-dragon/",
      "secao": "dublados,legendados",
      "pagina": 26,
      "total_episodios": 0,
      "link_video": "https://animefire.plus/video/kobayashi-san-chi-no-maid-dragon-dublado"
    },
    {
      "id": 2039,
      "nome": "Kobayashi-san Chi no Maid Dragon S (Dublado)",
      "link": "https://animefire.plus/animes/kobayashi-san-chi-no-maid-dragon-s-dublado-todos-os-episodios",
      "texto_original": "Kobayashi-san Chi no Maid Dragon S (Dublado)",
      "rating": 8.22,
      "classificacao_etaria": "A14",
      "imagem_original": "https://animefire.plus/img/animes/kobayashi-san-chi-no-maid-dragon-s.webp",
      "imagem_pasta": "https://animefire.plus/img/animes/kobayashi-san-chi-no-maid-dragon-s/",
      "secao": "dublados,legendados",
      "pagina": 16,
      "total_episodios": 12,
      "link_video": "https://animefire.plus/video/kobayashi-san-chi-no-maid-dragon-s-dublado"
    },
    {
      "id": 2045,
      "nome": "Kodomo no Omocha (TV)",
      "link": "https://animefire.plus/animes/kodomo-no-omocha-tv-todos-os-episodios",
      "texto_original": "Kodomo no Omocha (TV)",
      "rating": 8.07,
      "classificacao_etaria": "A14",
      "imagem_original": "https://animefire.plus/img/animes/kodomo-no-omocha-tv.webp",
      "imagem_pasta": "https://animefire.plus/img/animes/kodomo-no-omocha-tv/",
      "secao": "legendados",
      "pagina": 68,
      "total_episodios": 102,
      "link_video": "https://animefire.plus/video/kodomo-no-omocha-tv"
    },
    {
      "id": 2067,
      "nome": "Kokoro Connect: Michi Random",
      "link": "https://animefire.plus/animes/kokoro-connect-michi-random-todos-os-episodios",
      "texto_original": "Kokoro Connect: Michi Random",
      "rating": 8.05,
      "classificacao_etaria": "A14",
      "imagem_original": "https://animefire.plus/img/animes/kokoro-connect-michi-random.webp",
      "imagem_pasta": "https://animefire.plus/img/animes/kokoro-connect-michi-random/",
      "secao": "legendados",
      "pagina": 70,
      "total_episodios": 1,
      "link_video": "https://animefire.plus/video/kokoro-connect-michi-random"
    },
    {
      "id": 2084,
      "nome": "Kono Oto Tomare! 2nd Season (Dublado)",
      "link": "https://animefire.plus/animes/kono-oto-tomare-2nd-season-dublado-todos-os-episodios",
      "texto_original": "Kono Oto Tomare! 2nd Season (Dublado)",
      "rating": 8.42,
      "classificacao_etaria": "A14",
      "imagem_original": "https://animefire.plus/img/animes/kono-oto-tomare-2nd-season.webp",
      "imagem_pasta": "https://animefire.plus/img/animes/kono-oto-tomare-2nd-season/",
      "secao": "dublados,legendados",
      "pagina": 13,
      "total_episodios": 13,
      "link_video": "https://animefire.plus/video/kono-oto-tomare-2nd-season-dublado"
    },
    {
      "id": 2087,
      "nome": "Kono Subarashii Sekai ni Shukufuku wo! (Dublado)",
      "link": "https://animefire.plus/animes/kono-subarashii-sekai-ni-shukufuku-wo-dublado-todos-os-episodios",
      "texto_original": "Kono Subarashii Sekai ni Shukufuku wo! (Dublado)",
      "rating": 8.18,
      "classificacao_etaria": "A14",
      "imagem_original": "https://animefire.plus/img/animes/kono-subarashii-sekai-ni-shukufuku-wo.webp",
      "imagem_pasta": "https://animefire.plus/img/animes/kono-subarashii-sekai-ni-shukufuku-wo/",
      "secao": "dublados,legendados",
      "pagina": 26,
      "total_episodios": 10,
      "link_video": "https://animefire.plus/video/kono-subarashii-sekai-ni-shukufuku-wo-dublado"
    },
    {
      "id": 2088,
      "nome": "Kono Subarashii Sekai ni Shukufuku wo! 2 (Dublado)",
      "link": "https://animefire.plus/animes/kono-subarashii-sekai-ni-shukufuku-wo-2-dublado-todos-os-episodios",
      "texto_original": "Kono Subarashii Sekai ni Shukufuku wo! 2 (Dublado)",
      "rating": 8.36,
      "classificacao_etaria": "A14",
      "imagem_original": "https://animefire.plus/img/animes/kono-subarashii-sekai-ni-shukufuku-wo-2.webp",
      "imagem_pasta": "https://animefire.plus/img/animes/kono-subarashii-sekai-ni-shukufuku-wo-2/",
      "secao": "dublados,legendados",
      "pagina": 26,
      "total_episodios": 10,
      "link_video": "https://animefire.plus/video/kono-subarashii-sekai-ni-shukufuku-wo-2-dublado"
    },
    {
      "id": 2089,
      "nome": "Kono Subarashii Sekai ni Shukufuku wo! 2: Kono Subarashii Geijutsu ni Shukufuku wo! (Dublado)",
      "link": "https://animefire.plus/animes/kono-subarashii-sekai-ni-shukufuku-wo-2-kono-subarashii-geijutsu-ni-shukufuku-wo-dublado-todos-os-episodios",
      "texto_original": "Kono Subarashii Sekai ni Shukufuku wo! 2: Kono Subarashii Geijutsu ni Shukufuku wo! (Dublado)",
      "rating": 8.11,
      "classificacao_etaria": "A14",
      "imagem_original": "https://animefire.plus/img/animes/kono-subarashii-sekai-ni-shukufuku-wo-2-kono-subarashii-geijutsu-ni-shukufuku-wo.webp",
      "imagem_pasta": "https://animefire.plus/img/animes/kono-subarashii-sekai-ni-shukufuku-wo-2-kono-subarashii-geijutsu-ni-shukufuku-wo/",
      "secao": "dublados",
      "pagina": 24,
      "total_episodios": 1,
      "link_video": "https://animefire.plus/video/kono-subarashii-sekai-ni-shukufuku-wo-2-kono-subarashii-geijutsu-ni-shukufuku-wo-dublado"
    },
    {
      "id": 2090,
      "nome": "Kono Subarashii Sekai ni Shukufuku wo! 3 (Dublado)",
      "link": "https://animefire.plus/animes/kono-subarashii-sekai-ni-shukufuku-wo-3-dublado-todos-os-episodios",
      "texto_original": "Kono Subarashii Sekai ni Shukufuku wo! 3 (Dublado)",
      "rating": 8.35,
      "classificacao_etaria": "A14",
      "imagem_original": "https://animefire.plus/img/animes/kono-subarashii-sekai-ni-shukufuku-wo-3.webp",
      "imagem_pasta": "https://animefire.plus/img/animes/kono-subarashii-sekai-ni-shukufuku-wo-3/",
      "secao": "dublados,legendados",
      "pagina": 2,
      "total_episodios": 11,
      "link_video": "https://animefire.plus/video/kono-subarashii-sekai-ni-shukufuku-wo-3-dublado"
    },
    {
      "id": 2091,
      "nome": "Kono Subarashii Sekai ni Shukufuku wo! 3: Bonus Stage",
      "link": "https://animefire.plus/animes/kono-subarashii-sekai-ni-shukufuku-wo-3-bonus-stage-todos-os-episodios",
      "texto_original": "Kono Subarashii Sekai ni Shukufuku wo! 3: Bonus Stage",
      "rating": 8.17,
      "classificacao_etaria": "A14",
      "imagem_original": "https://animefire.plus/img/animes/kono-subarashii-sekai-ni-shukufuku-wo-3-bonus-stage.webp",
      "imagem_pasta": "https://animefire.plus/img/animes/kono-subarashii-sekai-ni-shukufuku-wo-3-bonus-stage/",
      "secao": "legendados,lancamentos",
      "pagina": 3,
      "total_episodios": 0,
      "link_video": "https://animefire.plus/video/kono-subarashii-sekai-ni-shukufuku-wo-3-bonus-stage"
    },
    {
      "id": 2102,
      "nome": "Kotarou wa Hitorigurashi (Dublado)",
      "link": "https://animefire.plus/animes/kotarou-wa-hitorigurashi-dublado-todos-os-episodios",
      "texto_original": "Kotarou wa Hitorigurashi (Dublado)",
      "rating": 8.16,
      "classificacao_etaria": "A14",
      "imagem_original": "https://animefire.plus/img/animes/kotarou-wa-hitorigurashi.webp",
      "imagem_pasta": "https://animefire.plus/img/animes/kotarou-wa-hitorigurashi/",
      "secao": "dublados,legendados",
      "pagina": 12,
      "total_episodios": 10,
      "link_video": "https://animefire.plus/video/kotarou-wa-hitorigurashi-dublado"
    },
    {
      "id": 2110,
      "nome": "Koukyoushihen Eureka Seven",
      "link": "https://animefire.plus/animes/koukyoushihen-eureka-seven-todos-os-episodios",
      "texto_original": "Koukyoushihen Eureka Seven",
      "rating": 8.13,
      "classificacao_etaria": "A14",
      "imagem_original": "https://animefire.plus/img/animes/koukyoushihen-eureka-seven.webp",
      "imagem_pasta": "https://animefire.plus/img/animes/koukyoushihen-eureka-seven/",
      "secao": "legendados",
      "pagina": 119,
      "total_episodios": 5,
      "link_video": "https://animefire.plus/video/koukyoushihen-eureka-seven"
    },
    {
      "id": 2138,
      "nome": "Kuragehime",
      "link": "https://animefire.plus/animes/kuragehime-todos-os-episodios",
      "texto_original": "Kuragehime",
      "rating": 8.19,
      "classificacao_etaria": "A14",
      "imagem_original": "https://animefire.plus/img/animes/kuragehime.webp",
      "imagem_pasta": "https://animefire.plus/img/animes/kuragehime/",
      "secao": "legendados",
      "pagina": 141,
      "total_episodios": 8,
      "link_video": "https://animefire.plus/video/kuragehime"
    },
    {
      "id": 2150,
      "nome": "Kuroko no Basket",
      "link": "https://animefire.plus/animes/kuroko-no-basket-todos-os-episodios",
      "texto_original": "Kuroko no Basket",
      "rating": 8.32,
      "classificacao_etaria": "A14",
      "imagem_original": "https://animefire.plus/img/animes/kuroko-no-basket.webp",
      "imagem_pasta": "https://animefire.plus/img/animes/kuroko-no-basket/",
      "secao": "legendados",
      "pagina": 176,
      "total_episodios": 0,
      "link_video": "https://animefire.plus/video/kuroko-no-basket"
    }
  ],
  "pagination": {
    "current_page": 14,
    "per_page": 20,
    "total_items": 547,
    "total_pages": 28,
    "has_next": true,
    "has_prev": true
  }
}
