{
  "message": "Animes com rating entre 8 e 9",
  "rating_range": {
    "min": 8,
    "max": 9
  },
  "data": [
    {
      "id": 4317,
      "nome": "Yuukoku no Moriarty (Dublado)",
      "link": "https://animefire.plus/animes/yuukoku-no-moriarty-dublado-todos-os-episodios",
      "texto_original": "Yuukoku no Moriarty (Dublado)",
      "rating": 8.12,
      "classificacao_etaria": "A16",
      "imagem_original": "https://animefire.plus/img/animes/yuukoku-no-moriarty.webp",
      "imagem_pasta": "https://animefire.plus/img/animes/yuukoku-no-moriarty/",
      "secao": "dublados,legendados",
      "pagina": 13,
      "total_episodios": 11,
      "link_video": "https://animefire.plus/video/yuukoku-no-moriarty-dublado"
    },
    {
      "id": 4318,
      "nome": "Yuukoku no Moriarty 2nd Season",
      "link": "https://animefire.plus/animes/yuukoku-no-moriarty-2nd-season-todos-os-episodios",
      "texto_original": "Yuukoku no Moriarty 2nd Season",
      "rating": 8.28,
      "classificacao_etaria": "A16",
      "imagem_original": "https://animefire.plus/img/animes/yuukoku-no-moriarty-2nd-season.webp",
      "imagem_pasta": "https://animefire.plus/img/animes/yuukoku-no-moriarty-2nd-season/",
      "secao": "legendados",
      "pagina": 47,
      "total_episodios": 13,
      "link_video": "https://animefire.plus/video/yuukoku-no-moriarty-2nd-season"
    },
    {
      "id": 4319,
      "nome": "Yuukoku no Moriarty Part 2 (Dublado)",
      "link": "https://animefire.plus/animes/yuukoku-no-moriarty-part-2-dublado-todos-os-episodios",
      "texto_original": "Yuukoku no Moriarty Part 2 (Dublado)",
      "rating": 8.29,
      "classificacao_etaria": "A16",
      "imagem_original": "https://animefire.plus/img/animes/yuukoku-no-moriarty-part-2.webp",
      "imagem_pasta": "https://animefire.plus/img/animes/yuukoku-no-moriarty-part-2/",
      "secao": "dublados",
      "pagina": 8,
      "total_episodios": 13,
      "link_video": "https://animefire.plus/video/yuukoku-no-moriarty-part-2-dublado"
    },
    {
      "id": 4333,
      "nome": "Zankyou no Terror",
      "link": "https://animefire.plus/animes/zankyou-no-terror-todos-os-episodios",
      "texto_original": "Zankyou no Terror",
      "rating": 8.18,
      "classificacao_etaria": "A16",
      "imagem_original": "https://animefire.plus/img/animes/zankyou-no-terror.webp",
      "imagem_pasta": "https://animefire.plus/img/animes/zankyou-no-terror/",
      "secao": "legendados",
      "pagina": 149,
      "total_episodios": 2,
      "link_video": "https://animefire.plus/video/zankyou-no-terror"
    },
    {
      "id": 4351,
      "nome": "Zetsuen no Tempest",
      "link": "https://animefire.plus/animes/zetsuen-no-tempest-todos-os-episodios",
      "texto_original": "Zetsuen no Tempest",
      "rating": 8.08,
      "classificacao_etaria": "A14",
      "imagem_original": "https://animefire.plus/img/animes/zetsuen-no-tempest.webp",
      "imagem_pasta": "https://animefire.plus/img/animes/zetsuen-no-tempest/",
      "secao": "legendados",
      "pagina": 144,
      "total_episodios": 2,
      "link_video": "https://animefire.plus/video/zetsuen-no-tempest"
    },
    {
      "id": 4358,
      "nome": "Zoku Natsume Yuujinchou",
      "link": "https://animefire.plus/animes/zoku-natsume-yuujinchou-todos-os-episodios",
      "texto_original": "Zoku Natsume Yuujinchou",
      "rating": 8.61,
      "classificacao_etaria": "A14",
      "imagem_original": "https://animefire.plus/img/animes/zoku-natsume-yuujinchou.webp",
      "imagem_pasta": "https://animefire.plus/img/animes/zoku-natsume-yuujinchou/",
      "secao": "legendados",
      "pagina": 130,
      "total_episodios": 13,
      "link_video": "https://animefire.plus/video/zoku-natsume-yuujinchou"
    },
    {
      "id": 4359,
      "nome": "Zoku Owarimonogatari",
      "link": "https://animefire.plus/animes/zoku-owarimonogatari-todos-os-episodios",
      "texto_original": "Zoku Owarimonogatari",
      "rating": 8.58,
      "classificacao_etaria": "A16",
      "imagem_original": "https://animefire.plus/img/animes/zoku-owarimonogatari.webp",
      "imagem_pasta": "https://animefire.plus/img/animes/zoku-owarimonogatari/",
      "secao": "legendados",
      "pagina": 102,
      "total_episodios": 6,
      "link_video": "https://animefire.plus/video/zoku-owarimonogatari"
    }
  ],
  "pagination": {
    "current_page": 28,
    "per_page": 20,
    "total_items": 547,
    "total_pages": 28,
    "has_next": false,
    "has_prev": true
  }
}
