{
  "message": "Animes com rating entre 8 e 9",
  "rating_range": {
    "min": 8,
    "max": 9
  },
  "data": [
    {
      "id": 2353,
      "nome": "Mahoutsukai No Yome (Dublado)",
      "link": "https://animefire.plus/animes/mahoutsukai-no-yome-dublado-todos-os-episodios",
      "texto_original": "Mahoutsukai No Yome (Dublado)",
      "rating": 8.15,
      "classificacao_etaria": "A14",
      "imagem_original": "https://animefire.plus/img/animes/mahoutsukai-no-yome.webp",
      "imagem_pasta": "https://animefire.plus/img/animes/mahoutsukai-no-yome/",
      "secao": "dublados,legendados",
      "pagina": 25,
      "total_episodios": 0,
      "link_video": "https://animefire.plus/video/mahoutsukai-no-yome-dublado"
    },
    {
      "id": 2356,
      "nome": "Mahoutsukai no Yome: Hoshi Matsu Hito (Dublado)",
      "link": "https://animefire.plus/animes/mahoutsukai-no-yome-hoshi-matsu-hito-dublado-todos-os-episodios",
      "texto_original": "Mahoutsukai no Yome: Hoshi Matsu Hito (Dublado)",
      "rating": 8.19,
      "classificacao_etaria": "A14",
      "imagem_original": "https://animefire.plus/img/animes/mahoutsukai-no-yome-hoshi-matsu-hito.webp",
      "imagem_pasta": "https://animefire.plus/img/animes/mahoutsukai-no-yome-hoshi-matsu-hito/",
      "secao": "dublados,legendados",
      "pagina": 24,
      "total_episodios": 3,
      "link_video": "https://animefire.plus/video/mahoutsukai-no-yome-hoshi-matsu-hito-dublado"
    },
    {
      "id": 2370,
      "nome": "Mairimashita! Iruma-kun 2nd Season (Dublado)",
      "link": "https://animefire.plus/animes/mairimashita-iruma-kun-2nd-season-dublado-todos-os-episodios",
      "texto_original": "Mairimashita! Iruma-kun 2nd Season (Dublado)",
      "rating": 8.02,
      "classificacao_etaria": "A14",
      "imagem_original": "https://animefire.plus/img/animes/mairimashita-iruma-kun-2nd-season.webp",
      "imagem_pasta": "https://animefire.plus/img/animes/mairimashita-iruma-kun-2nd-season/",
      "secao": "dublados,legendados",
      "pagina": 6,
      "total_episodios": 21,
      "link_video": "https://animefire.plus/video/mairimashita-iruma-kun-2nd-season-dublado"
    },
    {
      "id": 2372,
      "nome": "Maison Ikkoku",
      "link": "https://animefire.plus/animes/maison-ikkoku-todos-os-episodios",
      "texto_original": "Maison Ikkoku",
      "rating": 8.19,
      "classificacao_etaria": "A18",
      "imagem_original": "https://animefire.plus/img/animes/maison-ikkoku.webp",
      "imagem_pasta": "https://animefire.plus/img/animes/maison-ikkoku/",
      "secao": "legendados",
      "pagina": 59,
      "total_episodios": 0,
      "link_video": "https://animefire.plus/video/maison-ikkoku"
    },
    {
      "id": 2381,
      "nome": "Major S1",
      "link": "https://animefire.plus/animes/major-s1-todos-os-episodios",
      "texto_original": "Major S1",
      "rating": 8.35,
      "classificacao_etaria": "A14",
      "imagem_original": "https://animefire.plus/img/animes/major-s1.webp",
      "imagem_pasta": "https://animefire.plus/img/animes/major-s1/",
      "secao": "legendados",
      "pagina": 144,
      "total_episodios": 26,
      "link_video": "https://animefire.plus/video/major-s1"
    },
    {
      "id": 2382,
      "nome": "Major S2",
      "link": "https://animefire.plus/animes/major-s2-todos-os-episodios",
      "texto_original": "Major S2",
      "rating": 8.33,
      "classificacao_etaria": "A14",
      "imagem_original": "https://animefire.plus/img/animes/major-s2.webp",
      "imagem_pasta": "https://animefire.plus/img/animes/major-s2/",
      "secao": "legendados",
      "pagina": 151,
      "total_episodios": 26,
      "link_video": "https://animefire.plus/video/major-s2"
    },
    {
      "id": 2383,
      "nome": "Major S3",
      "link": "https://animefire.plus/animes/major-s3-todos-os-episodios",
      "texto_original": "Major S3",
      "rating": 8.34,
      "classificacao_etaria": "A14",
      "imagem_original": "https://animefire.plus/img/animes/major-s3.webp",
      "imagem_pasta": "https://animefire.plus/img/animes/major-s3/",
      "secao": "legendados",
      "pagina": 155,
      "total_episodios": 26,
      "link_video": "https://animefire.plus/video/major-s3"
    },
    {
      "id": 2384,
      "nome": "Major S4",
      "link": "https://animefire.plus/animes/major-s4-todos-os-episodios",
      "texto_original": "Major S4",
      "rating": 8.3,
      "classificacao_etaria": "A14",
      "imagem_original": "https://animefire.plus/img/animes/major-s4.webp",
      "imagem_pasta": "https://animefire.plus/img/animes/major-s4/",
      "secao": "legendados",
      "pagina": 129,
      "total_episodios": 26,
      "link_video": "https://animefire.plus/video/major-s4"
    },
    {
      "id": 2385,
      "nome": "Major S5",
      "link": "https://animefire.plus/animes/major-s5-todos-os-episodios",
      "texto_original": "Major S5",
      "rating": 8.48,
      "classificacao_etaria": "A14",
      "imagem_original": "https://animefire.plus/img/animes/major-s5.webp",
      "imagem_pasta": "https://animefire.plus/img/animes/major-s5/",
      "secao": "legendados",
      "pagina": 125,
      "total_episodios": 25,
      "link_video": "https://animefire.plus/video/major-s5"
    },
    {
      "id": 2386,
      "nome": "Major S6",
      "link": "https://animefire.plus/animes/major-s6-todos-os-episodios",
      "texto_original": "Major S6",
      "rating": 8.4,
      "classificacao_etaria": "A14",
      "imagem_original": "https://animefire.plus/img/animes/major-s6.webp",
      "imagem_pasta": "https://animefire.plus/img/animes/major-s6/",
      "secao": "legendados",
      "pagina": 118,
      "total_episodios": 25,
      "link_video": "https://animefire.plus/video/major-s6"
    },
    {
      "id": 2387,
      "nome": "Major: Message",
      "link": "https://animefire.plus/animes/major-message-todos-os-episodios",
      "texto_original": "Major: Message",
      "rating": 8.25,
      "classificacao_etaria": "A14",
      "imagem_original": "https://animefire.plus/img/animes/major-message.webp",
      "imagem_pasta": "https://animefire.plus/img/animes/major-message/",
      "secao": "legendados",
      "pagina": 73,
      "total_episodios": 1,
      "link_video": "https://animefire.plus/video/major-message"
    },
    {
      "id": 2388,
      "nome": "Major: World Series",
      "link": "https://animefire.plus/animes/major-world-series-todos-os-episodios",
      "texto_original": "Major: World Series",
      "rating": 8.38,
      "classificacao_etaria": "A14",
      "imagem_original": "https://animefire.plus/img/animes/major-world-series.webp",
      "imagem_pasta": "https://animefire.plus/img/animes/major-world-series/",
      "secao": "legendados",
      "pagina": 73,
      "total_episodios": 2,
      "link_video": "https://animefire.plus/video/major-world-series"
    },
    {
      "id": 2396,
      "nome": "Make Heroine ga Oosugiru!",
      "link": "https://animefire.plus/animes/make-heroine-ga-oosugiru-todos-os-episodios",
      "texto_original": "Make Heroine ga Oosugiru!",
      "rating": 8.11,
      "classificacao_etaria": "A14",
      "imagem_original": "https://animefire.plus/img/animes/make-heroine-ga-oosugiru.webp",
      "imagem_pasta": "https://animefire.plus/img/animes/make-heroine-ga-oosugiru/",
      "secao": "legendados",
      "pagina": 13,
      "total_episodios": 12,
      "link_video": "https://animefire.plus/video/make-heroine-ga-oosugiru"
    },
    {
      "id": 2450,
      "nome": "Mawaru Penguindrum",
      "link": "https://animefire.plus/animes/mawaru-penguindrum-todos-os-episodios",
      "texto_original": "Mawaru Penguindrum",
      "rating": 8.01,
      "classificacao_etaria": "A16",
      "imagem_original": "https://animefire.plus/img/animes/mawaru-penguindrum.webp",
      "imagem_pasta": "https://animefire.plus/img/animes/mawaru-penguindrum/",
      "secao": "legendados",
      "pagina": 120,
      "total_episodios": 24,
      "link_video": "https://animefire.plus/video/mawaru-penguindrum"
    },
    {
      "id": 2464,
      "nome": "Megalo Box",
      "link": "https://animefire.plus/animes/megalo-box-todos-os-episodios",
      "texto_original": "Megalo Box",
      "rating": 8.02,
      "classificacao_etaria": "A16",
      "imagem_original": "https://animefire.plus/img/animes/megalo-box.webp",
      "imagem_pasta": "https://animefire.plus/img/animes/megalo-box/",
      "secao": "legendados",
      "pagina": 95,
      "total_episodios": 13,
      "link_video": "https://animefire.plus/video/megalo-box"
    },
    {
      "id": 2536,
      "nome": "Mo Dao Zu Shi",
      "link": "https://animefire.plus/animes/mo-dao-zu-shi-todos-os-episodios",
      "texto_original": "Mo Dao Zu Shi",
      "rating": 8.56,
      "classificacao_etaria": "A16",
      "imagem_original": "https://animefire.plus/img/animes/mo-dao-zu-shi.webp",
      "imagem_pasta": "https://animefire.plus/img/animes/mo-dao-zu-shi/",
      "secao": "legendados",
      "pagina": 95,
      "total_episodios": 15,
      "link_video": "https://animefire.plus/video/mo-dao-zu-shi"
    },
    {
      "id": 2537,
      "nome": "Mo Dao Zu Shi 2nd Season",
      "link": "https://animefire.plus/animes/mo-dao-zu-shi-2nd-season-todos-os-episodios",
      "texto_original": "Mo Dao Zu Shi 2nd Season",
      "rating": 8.41,
      "classificacao_etaria": "A16",
      "imagem_original": "https://animefire.plus/img/animes/mo-dao-zu-shi-2nd-season.webp",
      "imagem_pasta": "https://animefire.plus/img/animes/mo-dao-zu-shi-2nd-season/",
      "secao": "legendados",
      "pagina": 51,
      "total_episodios": 8,
      "link_video": "https://animefire.plus/video/mo-dao-zu-shi-2nd-season"
    },
    {
      "id": 2539,
      "nome": "Mob Psycho 100 (Dublado)",
      "link": "https://animefire.plus/animes/mob-psycho-100-dublado-todos-os-episodios",
      "texto_original": "Mob Psycho 100 (Dublado)",
      "rating": 8.5,
      "classificacao_etaria": "A14",
      "imagem_original": "https://animefire.plus/img/animes/mob-psycho-100.webp",
      "imagem_pasta": "https://animefire.plus/img/animes/mob-psycho-100/",
      "secao": "dublados,legendados",
      "pagina": 20,
      "total_episodios": 0,
      "link_video": "https://animefire.plus/video/mob-psycho-100-dublado"
    },
    {
      "id": 2540,
      "nome": "Mob Psycho 100 II (Dublado)",
      "link": "https://animefire.plus/animes/mob-psycho-100-ii-dublado-todos-os-episodios",
      "texto_original": "Mob Psycho 100 II (Dublado)",
      "rating": 8.88,
      "classificacao_etaria": "A14",
      "imagem_original": "https://animefire.plus/img/animes/mob-psycho-100-ii.webp",
      "imagem_pasta": "https://animefire.plus/img/animes/mob-psycho-100-ii/",
      "secao": "dublados,legendados",
      "pagina": 23,
      "total_episodios": 13,
      "link_video": "https://animefire.plus/video/mob-psycho-100-ii-dublado"
    },
    {
      "id": 2541,
      "nome": "Mob Psycho 100 III (Dublado)",
      "link": "https://animefire.plus/animes/mob-psycho-100-iii-dublado-todos-os-episodios",
      "texto_original": "Mob Psycho 100 III (Dublado)",
      "rating": 8.71,
      "classificacao_etaria": "A14",
      "imagem_original": "https://animefire.plus/img/animes/mob-psycho-100-iii.webp",
      "imagem_pasta": "https://animefire.plus/img/animes/mob-psycho-100-iii/",
      "secao": "dublados,legendados",
      "pagina": 9,
      "total_episodios": 12,
      "link_video": "https://animefire.plus/video/mob-psycho-100-iii-dublado"
    }
  ],
  "pagination": {
    "current_page": 16,
    "per_page": 20,
    "total_items": 547,
    "total_pages": 28,
    "has_next": true,
    "has_prev": true
  }
}
