{
  "message": "Animes com rating entre 8 e 9",
  "rating_range": {
    "min": 8,
    "max": 9
  },
  "data": [
    {
      "id": 2543,
      "nome": "Mobile Suit Gundam 00 (Dublado)",
      "link": "https://animefire.plus/animes/mobile-suit-gundam-00-dublado-todos-os-episodios",
      "texto_original": "Mobile Suit Gundam 00 (Dublado)",
      "rating": 8.13,
      "classificacao_etaria": "A16",
      "imagem_original": "https://animefire.plus/img/animes/mobile-suit-gundam-00.webp",
      "imagem_pasta": "https://animefire.plus/img/animes/mobile-suit-gundam-00/",
      "secao": "dublados,legendados,lancamentos",
      "pagina": 18,
      "total_episodios": 25,
      "link_video": "https://animefire.plus/video/mobile-suit-gundam-00-dublado"
    },
    {
      "id": 2544,
      "nome": "Mobile Suit Gundam 00 Second Season",
      "link": "https://animefire.plus/animes/mobile-suit-gundam-00-second-season-todos-os-episodios",
      "texto_original": "Mobile Suit Gundam 00 Second Season",
      "rating": 8.16,
      "classificacao_etaria": "A16",
      "imagem_original": "https://animefire.plus/img/animes/mobile-suit-gundam-00-second-season.webp",
      "imagem_pasta": "https://animefire.plus/img/animes/mobile-suit-gundam-00-second-season/",
      "secao": "legendados",
      "pagina": 125,
      "total_episodios": 25,
      "link_video": "https://animefire.plus/video/mobile-suit-gundam-00-second-season"
    },
    {
      "id": 2554,
      "nome": "Mobile Suit Gundam: Iron-Blooded Orphans",
      "link": "https://animefire.plus/animes/mobile-suit-gundam-iron-blooded-orphans-todos-os-episodios",
      "texto_original": "Mobile Suit Gundam: Iron-Blooded Orphans",
      "rating": 8.03,
      "classificacao_etaria": "A16",
      "imagem_original": "https://animefire.plus/img/animes/mobile-suit-gundam-iron-blooded-orphans.webp",
      "imagem_pasta": "https://animefire.plus/img/animes/mobile-suit-gundam-iron-blooded-orphans/",
      "secao": "legendados",
      "pagina": 121,
      "total_episodios": 2,
      "link_video": "https://animefire.plus/video/mobile-suit-gundam-iron-blooded-orphans"
    },
    {
      "id": 2555,
      "nome": "Mobile Suit Gundam: Iron-Blooded Orphans 2nd Season",
      "link": "https://animefire.plus/animes/mobile-suit-gundam-iron-blooded-orphans-2nd-season-todos-os-episodios",
      "texto_original": "Mobile Suit Gundam: Iron-Blooded Orphans 2nd Season",
      "rating": 8.26,
      "classificacao_etaria": "A16",
      "imagem_original": "https://animefire.plus/img/animes/mobile-suit-gundam-iron-blooded-orphans-2nd-season.webp",
      "imagem_pasta": "https://animefire.plus/img/animes/mobile-suit-gundam-iron-blooded-orphans-2nd-season/",
      "secao": "legendados",
      "pagina": 64,
      "total_episodios": 25,
      "link_video": "https://animefire.plus/video/mobile-suit-gundam-iron-blooded-orphans-2nd-season"
    },
    {
      "id": 2556,
      "nome": "Mobile Suit Gundam: The 08th MS Team",
      "link": "https://animefire.plus/animes/mobile-suit-gundam-the-08th-ms-team-todos-os-episodios",
      "texto_original": "Mobile Suit Gundam: The 08th MS Team",
      "rating": 8.03,
      "classificacao_etaria": "A14",
      "imagem_original": "https://animefire.plus/img/animes/mobile-suit-gundam-the-08th-ms-team.webp",
      "imagem_pasta": "https://animefire.plus/img/animes/mobile-suit-gundam-the-08th-ms-team/",
      "secao": "legendados",
      "pagina": 55,
      "total_episodios": 12,
      "link_video": "https://animefire.plus/video/mobile-suit-gundam-the-08th-ms-team"
    },
    {
      "id": 2557,
      "nome": "Mobile Suit Gundam: The Origin",
      "link": "https://animefire.plus/animes/mobile-suit-gundam-the-origin-todos-os-episodios",
      "texto_original": "Mobile Suit Gundam: The Origin",
      "rating": 8.33,
      "classificacao_etaria": "A18",
      "imagem_original": "https://animefire.plus/img/animes/mobile-suit-gundam-the-origin.webp",
      "imagem_pasta": "https://animefire.plus/img/animes/mobile-suit-gundam-the-origin/",
      "secao": "legendados",
      "pagina": 178,
      "total_episodios": 5,
      "link_video": "https://animefire.plus/video/mobile-suit-gundam-the-origin"
    },
    {
      "id": 2574,
      "nome": "Monogatari Series: Off & Monster Season",
      "link": "https://animefire.plus/animes/monogatari-series-off-monster-season-todos-os-episodios",
      "texto_original": "Monogatari Series: Off & Monster Season",
      "rating": 8.66,
      "classificacao_etaria": "A16",
      "imagem_original": "https://animefire.plus/img/animes/monogatari-series-off-monster-season.webp",
      "imagem_pasta": "https://animefire.plus/img/animes/monogatari-series-off-monster-season/",
      "secao": "legendados",
      "pagina": 11,
      "total_episodios": 14,
      "link_video": "https://animefire.plus/video/monogatari-series-off-monster-season"
    },
    {
      "id": 2575,
      "nome": "Monogatari Series: Second Season",
      "link": "https://animefire.plus/animes/monogatari-series-second-season-todos-os-episodios",
      "texto_original": "Monogatari Series: Second Season",
      "rating": 8.77,
      "classificacao_etaria": "A16",
      "imagem_original": "https://animefire.plus/img/animes/monogatari-series-second-season.webp",
      "imagem_pasta": "https://animefire.plus/img/animes/monogatari-series-second-season/",
      "secao": "legendados",
      "pagina": 143,
      "total_episodios": 5,
      "link_video": "https://animefire.plus/video/monogatari-series-second-season"
    },
    {
      "id": 2578,
      "nome": "Mononoke",
      "link": "https://animefire.plus/animes/mononoke-todos-os-episodios",
      "texto_original": "Mononoke",
      "rating": 8.42,
      "classificacao_etaria": "A16",
      "imagem_original": "https://animefire.plus/img/animes/mononoke.webp",
      "imagem_pasta": "https://animefire.plus/img/animes/mononoke/",
      "secao": "legendados",
      "pagina": 64,
      "total_episodios": 12,
      "link_video": "https://animefire.plus/video/mononoke"
    },
    {
      "id": 2579,
      "nome": "Monster",
      "link": "https://animefire.plus/animes/monster-todos-os-episodios",
      "texto_original": "Monster",
      "rating": 8.72,
      "classificacao_etaria": "A18",
      "imagem_original": "https://animefire.plus/img/animes/monster.webp",
      "imagem_pasta": "https://animefire.plus/img/animes/monster/",
      "secao": "legendados",
      "pagina": 59,
      "total_episodios": 74,
      "link_video": "https://animefire.plus/video/monster"
    },
    {
      "id": 2620,
      "nome": "Mushishi (Dublado)",
      "link": "https://animefire.plus/animes/mushishi-dublado-todos-os-episodios",
      "texto_original": "Mushishi (Dublado)",
      "rating": 8.71,
      "classificacao_etaria": "A14",
      "imagem_original": "https://animefire.plus/img/animes/mushishi.webp",
      "imagem_pasta": "https://animefire.plus/img/animes/mushishi/",
      "secao": "dublados,legendados",
      "pagina": 25,
      "total_episodios": 26,
      "link_video": "https://animefire.plus/video/mushishi-dublado"
    },
    {
      "id": 2621,
      "nome": "Mushishi Zoku Shou",
      "link": "https://animefire.plus/animes/mushishi-zoku-shou-todos-os-episodios",
      "texto_original": "Mushishi Zoku Shou",
      "rating": 8.74,
      "classificacao_etaria": "A14",
      "imagem_original": "https://animefire.plus/img/animes/mushishi-zoku-shou.webp",
      "imagem_pasta": "https://animefire.plus/img/animes/mushishi-zoku-shou/",
      "secao": "legendados",
      "pagina": 135,
      "total_episodios": 10,
      "link_video": "https://animefire.plus/video/mushishi-zoku-shou"
    },
    {
      "id": 2622,
      "nome": "Mushishi: Hihamukage",
      "link": "https://animefire.plus/animes/mushishi-hihamukage-todos-os-episodios",
      "texto_original": "Mushishi: Hihamukage",
      "rating": 8.6,
      "classificacao_etaria": "A14",
      "imagem_original": "https://animefire.plus/img/animes/mushishi-hihamukage.webp",
      "imagem_pasta": "https://animefire.plus/img/animes/mushishi-hihamukage/",
      "secao": "legendados",
      "pagina": 65,
      "total_episodios": 1,
      "link_video": "https://animefire.plus/video/mushishi-hihamukage"
    },
    {
      "id": 2623,
      "nome": "Mushoku Tensei II: Isekai Ittara Honki Dasu",
      "link": "https://animefire.plus/animes/mushoku-tensei-ii-sekai-ittara-honki-dasu-todos-os-episodios",
      "texto_original": "Mushoku Tensei II: Isekai Ittara Honki Dasu",
      "rating": 8.22,
      "classificacao_etaria": "A16",
      "imagem_original": "https://animefire.plus/img/animes/mushoku-tensei-II-sekai-ittara-honki-dasu.jpg",
      "imagem_pasta": "https://animefire.plus/img/animes/mushoku-tensei-II-sekai-ittara-honki-dasu/",
      "secao": "legendados",
      "pagina": 23,
      "total_episodios": 4,
      "link_video": "https://animefire.plus/video/mushoku-tensei-ii-sekai-ittara-honki-dasu"
    },
    {
      "id": 2625,
      "nome": "Mushoku Tensei II: Isekai Ittara Honki Dasu (Dublado)",
      "link": "https://animefire.plus/animes/mushoku-tensei-ii-isekai-ittara-honki-dasu-dublado-todos-os-episodios",
      "texto_original": "Mushoku Tensei II: Isekai Ittara Honki Dasu (Dublado)",
      "rating": 8.22,
      "classificacao_etaria": "A16",
      "imagem_original": "https://animefire.plus/img/animes/mushoku-tensei-ii-isekai-ittara-honki-dasu.webp",
      "imagem_pasta": "https://animefire.plus/img/animes/mushoku-tensei-ii-isekai-ittara-honki-dasu/",
      "secao": "dublados",
      "pagina": 6,
      "total_episodios": 12,
      "link_video": "https://animefire.plus/video/mushoku-tensei-ii-isekai-ittara-honki-dasu-dublado"
    },
    {
      "id": 2626,
      "nome": "Mushoku Tensei II: Isekai Ittara Honki Dasu Part 2",
      "link": "https://animefire.plus/animes/mushoku-tensei-ii-isekai-ittara-honki-dasu-part-2-todos-os-episodios",
      "texto_original": "Mushoku Tensei II: Isekai Ittara Honki Dasu Part 2",
      "rating": 8.41,
      "classificacao_etaria": "A16",
      "imagem_original": "https://animefire.plus/img/animes/mushoku-tensei-ii-isekai-ittara-honki-dasu-part-2.webp",
      "imagem_pasta": "https://animefire.plus/img/animes/mushoku-tensei-ii-isekai-ittara-honki-dasu-part-2/",
      "secao": "legendados",
      "pagina": 15,
      "total_episodios": 12,
      "link_video": "https://animefire.plus/video/mushoku-tensei-ii-isekai-ittara-honki-dasu-part-2"
    },
    {
      "id": 2627,
      "nome": "Mushoku Tensei: Isekai Ittara Honki Dasu (Dublado)",
      "link": "https://animefire.plus/animes/mushoku-tensei-isekai-ittara-honki-dasu-dublado-todos-os-episodios",
      "texto_original": "Mushoku Tensei: Isekai Ittara Honki Dasu (Dublado)",
      "rating": 8.35,
      "classificacao_etaria": "A16",
      "imagem_original": "https://animefire.plus/img/animes/mushoku-tensei-isekai-ittara-honki-dasu.webp",
      "imagem_pasta": "https://animefire.plus/img/animes/mushoku-tensei-isekai-ittara-honki-dasu/",
      "secao": "dublados,legendados",
      "pagina": 16,
      "total_episodios": 11,
      "link_video": "https://animefire.plus/video/mushoku-tensei-isekai-ittara-honki-dasu-dublado"
    },
    {
      "id": 2628,
      "nome": "Mushoku Tensei: Isekai Ittara Honki Dasu 2nd Season (Dublado)",
      "link": "https://animefire.plus/animes/mushoku-tensei-isekai-ittara-honki-dasu-2nd-season-dublado-todos-os-episodios",
      "texto_original": "Mushoku Tensei: Isekai Ittara Honki Dasu 2nd Season (Dublado)",
      "rating": 8.63,
      "classificacao_etaria": "A16",
      "imagem_original": "https://animefire.plus/img/animes/mushoku-tensei-isekai-ittara-honki-dasu-2nd-season.webp",
      "imagem_pasta": "https://animefire.plus/img/animes/mushoku-tensei-isekai-ittara-honki-dasu-2nd-season/",
      "secao": "dublados,legendados",
      "pagina": 14,
      "total_episodios": 12,
      "link_video": "https://animefire.plus/video/mushoku-tensei-isekai-ittara-honki-dasu-2nd-season-dublado"
    },
    {
      "id": 2645,
      "nome": "Nagi no Asu kara",
      "link": "https://animefire.plus/animes/nagi-no-asu-kara-todos-os-episodios",
      "texto_original": "Nagi no Asu kara",
      "rating": 8.2,
      "classificacao_etaria": "A14",
      "imagem_original": "https://animefire.plus/img/animes/nagi-no-asu-kara.webp",
      "imagem_pasta": "https://animefire.plus/img/animes/nagi-no-asu-kara/",
      "secao": "legendados",
      "pagina": 136,
      "total_episodios": 5,
      "link_video": "https://animefire.plus/video/nagi-no-asu-kara"
    },
    {
      "id": 2651,
      "nome": "Nana",
      "link": "https://animefire.plus/animes/nana-todos-os-episodios",
      "texto_original": "Nana",
      "rating": 8.48,
      "classificacao_etaria": "A18",
      "imagem_original": "https://animefire.plus/img/animes/nana.webp",
      "imagem_pasta": "https://animefire.plus/img/animes/nana/",
      "secao": "legendados",
      "pagina": 150,
      "total_episodios": 11,
      "link_video": "https://animefire.plus/video/nana"
    }
  ],
  "pagination": {
    "current_page": 17,
    "per_page": 20,
    "total_items": 547,
    "total_pages": 28,
    "has_next": true,
    "has_prev": true
  }
}
