{
  "message": "Animes com rating entre 8 e 9",
  "rating_range": {
    "min": 8,
    "max": 9
  },
  "data": [
    {
      "id": 1270,
      "nome": "Guimi Zhi Zhu: Xiaochou Pian",
      "link": "https://animefire.plus/animes/guimi-zhi-zhu-xiaochou-pian-todos-os-episodios",
      "texto_original": "Guimi Zhi Zhu: Xiaochou Pian",
      "rating": 8.46,
      "classificacao_etaria": "A16",
      "imagem_original": "https://animefire.plus/img/animes/guimi-zhi-zhu-xiaochou-pian.webp",
      "imagem_pasta": "https://animefire.plus/img/animes/guimi-zhi-zhu-xiaochou-pian/",
      "secao": "legendados,lancamentos",
      "pagina": 1,
      "total_episodios": 7,
      "link_video": "https://animefire.plus/video/guimi-zhi-zhu-xiaochou-pian"
    },
    {
      "id": 1295,
      "nome": "Gyakkyou Burai Kaiji: Hakairoku-hen",
      "link": "https://animefire.plus/animes/gyakkyou-burai-kaiji-hakairoku-hen-todos-os-episodios",
      "texto_original": "Gyakkyou Burai Kaiji: Hakairoku-hen",
      "rating": 8.27,
      "classificacao_etaria": "A16",
      "imagem_original": "https://animefire.plus/img/animes/gyakkyou-burai-kaiji-hakairoku-hen.webp",
      "imagem_pasta": "https://animefire.plus/img/animes/gyakkyou-burai-kaiji-hakairoku-hen/",
      "secao": "legendados",
      "pagina": 151,
      "total_episodios": 26,
      "link_video": "https://animefire.plus/video/gyakkyou-burai-kaiji-hakairoku-hen"
    },
    {
      "id": 1296,
      "nome": "Gyakkyou Burai Kaiji: Ultimate Survivor",
      "link": "https://animefire.plus/animes/gyakkyou-burai-kaiji-ultimate-survivor-todos-os-episodios",
      "texto_original": "Gyakkyou Burai Kaiji: Ultimate Survivor",
      "rating": 8.31,
      "classificacao_etaria": "A16",
      "imagem_original": "https://animefire.plus/img/animes/gyakkyou-burai-kaiji-ultimate-survivor.webp",
      "imagem_pasta": "https://animefire.plus/img/animes/gyakkyou-burai-kaiji-ultimate-survivor/",
      "secao": "legendados",
      "pagina": 121,
      "total_episodios": 26,
      "link_video": "https://animefire.plus/video/gyakkyou-burai-kaiji-ultimate-survivor"
    },
    {
      "id": 1302,
      "nome": "Hachimitsu To Clover II",
      "link": "https://animefire.plus/animes/hachimitsu-to-clover-ii-todos-os-episodios",
      "texto_original": "Hachimitsu To Clover II",
      "rating": 8.3,
      "classificacao_etaria": "A14",
      "imagem_original": "https://animefire.plus/img/animes/hachimitsu-to-clover-ii.webp",
      "imagem_pasta": "https://animefire.plus/img/animes/hachimitsu-to-clover-ii/",
      "secao": "legendados",
      "pagina": 98,
      "total_episodios": 12,
      "link_video": "https://animefire.plus/video/hachimitsu-to-clover-ii"
    },
    {
      "id": 1306,
      "nome": "Haibane Renmei",
      "link": "https://animefire.plus/animes/haibane-renmei-todos-os-episodios",
      "texto_original": "Haibane Renmei",
      "rating": 8,
      "classificacao_etaria": "A14",
      "imagem_original": "https://animefire.plus/img/animes/haibane-renmei.webp",
      "imagem_pasta": "https://animefire.plus/img/animes/haibane-renmei/",
      "secao": "legendados",
      "pagina": 94,
      "total_episodios": 13,
      "link_video": "https://animefire.plus/video/haibane-renmei"
    },
    {
      "id": 1308,
      "nome": "Haikyuu!! (Dublado)",
      "link": "https://animefire.plus/animes/haikyuu-dublado-todos-os-episodios",
      "texto_original": "Haikyuu!! (Dublado)",
      "rating": 8.45,
      "classificacao_etaria": "A14",
      "imagem_original": "https://animefire.plus/img/animes/haikyuu.webp",
      "imagem_pasta": "https://animefire.plus/img/animes/haikyuu/",
      "secao": "dublados,legendados",
      "pagina": 9,
      "total_episodios": 25,
      "link_video": "https://animefire.plus/video/haikyuu-dublado"
    },
    {
      "id": 1310,
      "nome": "Haikyuu!! Second Season (Dublado)",
      "link": "https://animefire.plus/animes/haikyuu-second-season-dublado-todos-os-episodios",
      "texto_original": "Haikyuu!! Second Season (Dublado)",
      "rating": 8.64,
      "classificacao_etaria": "A14",
      "imagem_original": "https://animefire.plus/img/animes/haikyuu-second-season.webp",
      "imagem_pasta": "https://animefire.plus/img/animes/haikyuu-second-season/",
      "secao": "dublados,legendados",
      "pagina": 8,
      "total_episodios": 25,
      "link_video": "https://animefire.plus/video/haikyuu-second-season-dublado"
    },
    {
      "id": 1311,
      "nome": "Haikyuu!!: Karasuno Koukou vs. Shiratorizawa Gakuen Koukou",
      "link": "https://animefire.plus/animes/haikyuu-karasuno-koukou-vs-shiratorizawa-gakuen-koukou-todos-os-episodios",
      "texto_original": "Haikyuu!!: Karasuno Koukou vs. Shiratorizawa Gakuen Koukou",
      "rating": 8.93,
      "classificacao_etaria": "A14",
      "imagem_original": "https://animefire.plus/img/animes/haikyuu-karasuno-koukou-vs-shiratorizawa-gakuen-koukou.webp",
      "imagem_pasta": "https://animefire.plus/img/animes/haikyuu-karasuno-koukou-vs-shiratorizawa-gakuen-koukou/",
      "secao": "legendados",
      "pagina": 91,
      "total_episodios": 10,
      "link_video": "https://animefire.plus/video/haikyuu-karasuno-koukou-vs-shiratorizawa-gakuen-koukou"
    },
    {
      "id": 1314,
      "nome": "Haikyuu!!: To the Top",
      "link": "https://animefire.plus/animes/haikyuu-to-the-top-todos-os-episodios",
      "texto_original": "Haikyuu!!: To the Top",
      "rating": 8.39,
      "classificacao_etaria": "A14",
      "imagem_original": "https://animefire.plus/img/animes/haikyuu-to-the-top.webp",
      "imagem_pasta": "https://animefire.plus/img/animes/haikyuu-to-the-top/",
      "secao": "legendados",
      "pagina": 92,
      "total_episodios": 0,
      "link_video": "https://animefire.plus/video/haikyuu-to-the-top"
    },
    {
      "id": 1321,
      "nome": "Hajime no Ippo: Champion Road",
      "link": "https://animefire.plus/animes/hajime-no-ippo-champion-road-todos-os-episodios",
      "texto_original": "Hajime no Ippo: Champion Road",
      "rating": 8.31,
      "classificacao_etaria": "A14",
      "imagem_original": "https://animefire.plus/img/animes/hajime-no-ippo-champion-road.webp",
      "imagem_pasta": "https://animefire.plus/img/animes/hajime-no-ippo-champion-road/",
      "secao": "legendados",
      "pagina": 78,
      "total_episodios": 1,
      "link_video": "https://animefire.plus/video/hajime-no-ippo-champion-road"
    },
    {
      "id": 1322,
      "nome": "Hajime no Ippo: Mashiba vs. Kimura",
      "link": "https://animefire.plus/animes/hajime-no-ippo-mashiba-vs-kimura-todos-os-episodios",
      "texto_original": "Hajime no Ippo: Mashiba vs. Kimura",
      "rating": 8.24,
      "classificacao_etaria": "A14",
      "imagem_original": "https://animefire.plus/img/animes/hajime-no-ippo-mashiba-vs-kimura.webp",
      "imagem_pasta": "https://animefire.plus/img/animes/hajime-no-ippo-mashiba-vs-kimura/",
      "secao": "legendados",
      "pagina": 67,
      "total_episodios": 1,
      "link_video": "https://animefire.plus/video/hajime-no-ippo-mashiba-vs-kimura"
    },
    {
      "id": 1323,
      "nome": "Hajime no Ippo: Rising",
      "link": "https://animefire.plus/animes/hajime-no-ippo-rising-todos-os-episodios",
      "texto_original": "Hajime no Ippo: Rising",
      "rating": 8.62,
      "classificacao_etaria": "A14",
      "imagem_original": "https://animefire.plus/img/animes/hajime-no-ippo-rising.webp",
      "imagem_pasta": "https://animefire.plus/img/animes/hajime-no-ippo-rising/",
      "secao": "legendados",
      "pagina": 76,
      "total_episodios": 25,
      "link_video": "https://animefire.plus/video/hajime-no-ippo-rising"
    },
    {
      "id": 1351,
      "nome": "Hanamonogatari",
      "link": "https://animefire.plus/animes/hanamonogatari-todos-os-episodios",
      "texto_original": "Hanamonogatari",
      "rating": 8.05,
      "classificacao_etaria": "A16",
      "imagem_original": "https://animefire.plus/img/animes/hanamonogatari.webp",
      "imagem_pasta": "https://animefire.plus/img/animes/hanamonogatari/",
      "secao": "legendados",
      "pagina": 175,
      "total_episodios": 5,
      "link_video": "https://animefire.plus/video/hanamonogatari"
    },
    {
      "id": 1353,
      "nome": "Hanasaku Iroha",
      "link": "https://animefire.plus/animes/hanasaku-iroha-todos-os-episodios",
      "texto_original": "Hanasaku Iroha",
      "rating": 8,
      "classificacao_etaria": "A14",
      "imagem_original": "https://animefire.plus/img/animes/hanasaku-iroha.webp",
      "imagem_pasta": "https://animefire.plus/img/animes/hanasaku-iroha/",
      "secao": "legendados",
      "pagina": 105,
      "total_episodios": 26,
      "link_video": "https://animefire.plus/video/hanasaku-iroha"
    },
    {
      "id": 1415,
      "nome": "Hellsing Ultimate",
      "link": "https://animefire.plus/animes/hellsing-ultimate-todos-os-episodios",
      "texto_original": "Hellsing Ultimate",
      "rating": 8.44,
      "classificacao_etaria": "A16",
      "imagem_original": "https://animefire.plus/img/animes/hellsing-ultimate.webp",
      "imagem_pasta": "https://animefire.plus/img/animes/hellsing-ultimate/",
      "secao": "legendados",
      "pagina": 72,
      "total_episodios": 13,
      "link_video": "https://animefire.plus/video/hellsing-ultimate"
    },
    {
      "id": 1439,
      "nome": "Hibike! Euphonium",
      "link": "https://animefire.plus/animes/hibike-euphonium-todos-os-episodios",
      "texto_original": "Hibike! Euphonium",
      "rating": 8.02,
      "classificacao_etaria": "A14",
      "imagem_original": "https://animefire.plus/img/animes/hibike-euphonium.webp",
      "imagem_pasta": "https://animefire.plus/img/animes/hibike-euphonium/",
      "secao": "legendados",
      "pagina": 82,
      "total_episodios": 13,
      "link_video": "https://animefire.plus/video/hibike-euphonium"
    },
    {
      "id": 1440,
      "nome": "Hibike! Euphonium 2",
      "link": "https://animefire.plus/animes/hibike-euphonium-2-todos-os-episodios",
      "texto_original": "Hibike! Euphonium 2",
      "rating": 8.3,
      "classificacao_etaria": "A14",
      "imagem_original": "https://animefire.plus/img/animes/hibike-euphonium-2.webp",
      "imagem_pasta": "https://animefire.plus/img/animes/hibike-euphonium-2/",
      "secao": "legendados",
      "pagina": 104,
      "total_episodios": 14,
      "link_video": "https://animefire.plus/video/hibike-euphonium-2"
    },
    {
      "id": 1441,
      "nome": "Hibike! Euphonium 3",
      "link": "https://animefire.plus/animes/hibike-euphonium-3-todos-os-episodios",
      "texto_original": "Hibike! Euphonium 3",
      "rating": 8.72,
      "classificacao_etaria": "A14",
      "imagem_original": "https://animefire.plus/img/animes/hibike-euphonium-3.webp",
      "imagem_pasta": "https://animefire.plus/img/animes/hibike-euphonium-3/",
      "secao": "legendados",
      "pagina": 15,
      "total_episodios": 12,
      "link_video": "https://animefire.plus/video/hibike-euphonium-3"
    },
    {
      "id": 1460,
      "nome": "High Score Girl (Dublado)",
      "link": "https://animefire.plus/animes/high-score-girl-dublado-todos-os-episodios",
      "texto_original": "High Score Girl (Dublado)",
      "rating": 8.02,
      "classificacao_etaria": "A14",
      "imagem_original": "https://animefire.plus/img/animes/high-score-girl.webp",
      "imagem_pasta": "https://animefire.plus/img/animes/high-score-girl/",
      "secao": "dublados,legendados",
      "pagina": 24,
      "total_episodios": 12,
      "link_video": "https://animefire.plus/video/high-score-girl-dublado"
    },
    {
      "id": 1461,
      "nome": "High Score Girl II (Dublado)",
      "link": "https://animefire.plus/animes/high-score-girl-ii-dublado-todos-os-episodios",
      "texto_original": "High Score Girl II (Dublado)",
      "rating": 8.21,
      "classificacao_etaria": "A14",
      "imagem_original": "https://animefire.plus/img/animes/high-score-girl-ii.webp",
      "imagem_pasta": "https://animefire.plus/img/animes/high-score-girl-ii/",
      "secao": "dublados,legendados",
      "pagina": 23,
      "total_episodios": 9,
      "link_video": "https://animefire.plus/video/high-score-girl-ii-dublado"
    }
  ],
  "pagination": {
    "current_page": 9,
    "per_page": 20,
    "total_items": 547,
    "total_pages": 28,
    "has_next": true,
    "has_prev": true
  }
}
