{
  "message": "Animes com rating entre 8 e 9",
  "rating_range": {
    "min": 8,
    "max": 9
  },
  "data": [
    {
      "id": 1031,
      "nome": "Fruits Basket (2019)",
      "link": "https://animefire.plus/animes/fruits-basket-2019-todos-os-episodios",
      "texto_original": "Fruits Basket (2019)",
      "rating": 8.2,
      "classificacao_etaria": "A14",
      "imagem_original": "https://animefire.plus/img/animes/fruits-basket-2019.webp",
      "imagem_pasta": "https://animefire.plus/img/animes/fruits-basket-2019/",
      "secao": "legendados",
      "pagina": 134,
      "total_episodios": 23,
      "link_video": "https://animefire.plus/video/fruits-basket-2019"
    },
    {
      "id": 1032,
      "nome": "Fruits Basket 1st Season (Dublado)",
      "link": "https://animefire.plus/animes/fruits-basket-1st-season-dublado-todos-os-episodios",
      "texto_original": "Fruits Basket 1st Season (Dublado)",
      "rating": 8.2,
      "classificacao_etaria": "A14",
      "imagem_original": "https://animefire.plus/img/animes/fruits-basket-1st-season.webp",
      "imagem_pasta": "https://animefire.plus/img/animes/fruits-basket-1st-season/",
      "secao": "dublados",
      "pagina": 17,
      "total_episodios": 25,
      "link_video": "https://animefire.plus/video/fruits-basket-1st-season-dublado"
    },
    {
      "id": 1033,
      "nome": "Fruits Basket 2nd Season (Dublado)",
      "link": "https://animefire.plus/animes/fruits-basket-2nd-season-dublado-todos-os-episodios",
      "texto_original": "Fruits Basket 2nd Season (Dublado)",
      "rating": 8.55,
      "classificacao_etaria": "A14",
      "imagem_original": "https://animefire.plus/img/animes/fruits-basket-2nd-season.webp",
      "imagem_pasta": "https://animefire.plus/img/animes/fruits-basket-2nd-season/",
      "secao": "dublados,legendados",
      "pagina": 17,
      "total_episodios": 25,
      "link_video": "https://animefire.plus/video/fruits-basket-2nd-season-dublado"
    },
    {
      "id": 1034,
      "nome": "Fruits Basket: The Final (Dublado)",
      "link": "https://animefire.plus/animes/fruits-basket-the-final-dublado-todos-os-episodios",
      "texto_original": "Fruits Basket: The Final (Dublado)",
      "rating": 8.95,
      "classificacao_etaria": "A14",
      "imagem_original": "https://animefire.plus/img/animes/fruits-basket-the-final.webp",
      "imagem_pasta": "https://animefire.plus/img/animes/fruits-basket-the-final/",
      "secao": "dublados,legendados",
      "pagina": 17,
      "total_episodios": 13,
      "link_video": "https://animefire.plus/video/fruits-basket-the-final-dublado"
    },
    {
      "id": 1043,
      "nome": "Full Metal Panic! The Second Raid",
      "link": "https://animefire.plus/animes/full-metal-panic-the-second-raid-todos-os-episodios",
      "texto_original": "Full Metal Panic! The Second Raid",
      "rating": 8.01,
      "classificacao_etaria": "A16",
      "imagem_original": "https://animefire.plus/img/animes/full-metal-panic-the-second-raid.webp",
      "imagem_pasta": "https://animefire.plus/img/animes/full-metal-panic-the-second-raid/",
      "secao": "legendados",
      "pagina": 120,
      "total_episodios": 12,
      "link_video": "https://animefire.plus/video/full-metal-panic-the-second-raid"
    },
    {
      "id": 1044,
      "nome": "Full Metal Panic? Fumoffu",
      "link": "https://animefire.plus/animes/full-metal-panic-fumoffu-todos-os-episodios",
      "texto_original": "Full Metal Panic? Fumoffu",
      "rating": 8.13,
      "classificacao_etaria": "A14",
      "imagem_original": "https://animefire.plus/img/animes/full-metal-panic-fumoffu.webp",
      "imagem_pasta": "https://animefire.plus/img/animes/full-metal-panic-fumoffu/",
      "secao": "legendados",
      "pagina": 137,
      "total_episodios": 12,
      "link_video": "https://animefire.plus/video/full-metal-panic-fumoffu"
    },
    {
      "id": 1045,
      "nome": "Full Moon wo Sagashite",
      "link": "https://animefire.plus/animes/full-moon-wo-sagashite-todos-os-episodios",
      "texto_original": "Full Moon wo Sagashite",
      "rating": 8.03,
      "classificacao_etaria": "A14",
      "imagem_original": "https://animefire.plus/img/animes/full-moon-wo-sagashite.webp",
      "imagem_pasta": "https://animefire.plus/img/animes/full-moon-wo-sagashite/",
      "secao": "legendados",
      "pagina": 171,
      "total_episodios": 52,
      "link_video": "https://animefire.plus/video/full-moon-wo-sagashite"
    },
    {
      "id": 1046,
      "nome": "Fullmetal Alchemist (Dublado)",
      "link": "https://animefire.plus/animes/fullmetal-alchemist-dublado-todos-os-episodios",
      "texto_original": "Fullmetal Alchemist (Dublado)",
      "rating": 8.22,
      "classificacao_etaria": "A16",
      "imagem_original": "https://animefire.plus/img/animes/fullmetal-alchemist.webp",
      "imagem_pasta": "https://animefire.plus/img/animes/fullmetal-alchemist/",
      "secao": "dublados,legendados",
      "pagina": 21,
      "total_episodios": 51,
      "link_video": "https://animefire.plus/video/fullmetal-alchemist-dublado"
    },
    {
      "id": 1048,
      "nome": "Fumetsu no Anata e (Dublado)",
      "link": "https://animefire.plus/animes/fumetsu-no-anata-e-dublado-todos-os-episodios",
      "texto_original": "Fumetsu no Anata e (Dublado)",
      "rating": 8.34,
      "classificacao_etaria": "A16",
      "imagem_original": "https://animefire.plus/img/animes/fumetsu-no-anata-e.webp",
      "imagem_pasta": "https://animefire.plus/img/animes/fumetsu-no-anata-e/",
      "secao": "dublados,legendados",
      "pagina": 17,
      "total_episodios": 20,
      "link_video": "https://animefire.plus/video/fumetsu-no-anata-e-dublado"
    },
    {
      "id": 1049,
      "nome": "Fumetsu no Anata e 2nd Season (Dublado)",
      "link": "https://animefire.plus/animes/fumetsu-no-anata-e-2nd-season-dublado-todos-os-episodios",
      "texto_original": "Fumetsu no Anata e 2nd Season (Dublado)",
      "rating": 8.1,
      "classificacao_etaria": "A16",
      "imagem_original": "https://animefire.plus/img/animes/fumetsu-no-anata-e-2nd-season.webp",
      "imagem_pasta": "https://animefire.plus/img/animes/fumetsu-no-anata-e-2nd-season/",
      "secao": "dublados,legendados",
      "pagina": 8,
      "total_episodios": 20,
      "link_video": "https://animefire.plus/video/fumetsu-no-anata-e-2nd-season-dublado"
    },
    {
      "id": 1075,
      "nome": "Gachiakuta (Dublado)",
      "link": "https://animefire.plus/animes/gachiakuta-dublado-todos-os-episodios",
      "texto_original": "Gachiakuta (Dublado)",
      "rating": 8.07,
      "classificacao_etaria": "A14",
      "imagem_original": "https://animefire.plus/img/animes/gachiakuta.webp",
      "imagem_pasta": "https://animefire.plus/img/animes/gachiakuta/",
      "secao": "dublados,legendados,lancamentos",
      "pagina": 1,
      "total_episodios": 4,
      "link_video": "https://animefire.plus/video/gachiakuta-dublado"
    },
    {
      "id": 1106,
      "nome": "Gankutsuou (Dublado)",
      "link": "https://animefire.plus/animes/gankutsuou-dublado-todos-os-episodios",
      "texto_original": "Gankutsuou (Dublado)",
      "rating": 8.19,
      "classificacao_etaria": "A16",
      "imagem_original": "https://animefire.plus/img/animes/gankutsuou.webp",
      "imagem_pasta": "https://animefire.plus/img/animes/gankutsuou/",
      "secao": "dublados,legendados",
      "pagina": 22,
      "total_episodios": 24,
      "link_video": "https://animefire.plus/video/gankutsuou-dublado"
    },
    {
      "id": 1125,
      "nome": "Gekkan Shoujo Nozaki-kun (Dublado)",
      "link": "https://animefire.plus/animes/gekkan-shoujo-nozaki-kun-dublado-todos-os-episodios",
      "texto_original": "Gekkan Shoujo Nozaki-kun (Dublado)",
      "rating": 8.05,
      "classificacao_etaria": "A14",
      "imagem_original": "https://animefire.plus/img/animes/gekkan-shoujo-nozaki-kun.webp",
      "imagem_pasta": "https://animefire.plus/img/animes/gekkan-shoujo-nozaki-kun/",
      "secao": "dublados,legendados",
      "pagina": 23,
      "total_episodios": 12,
      "link_video": "https://animefire.plus/video/gekkan-shoujo-nozaki-kun-dublado"
    },
    {
      "id": 1160,
      "nome": "Gin no Saji",
      "link": "https://animefire.plus/animes/gin-no-saji-todos-os-episodios",
      "texto_original": "Gin no Saji",
      "rating": 8.14,
      "classificacao_etaria": "A14",
      "imagem_original": "https://animefire.plus/img/animes/gin-no-saji.webp",
      "imagem_pasta": "https://animefire.plus/img/animes/gin-no-saji/",
      "secao": "legendados",
      "pagina": 177,
      "total_episodios": 0,
      "link_video": "https://animefire.plus/video/gin-no-saji"
    },
    {
      "id": 1161,
      "nome": "Gin no Saji 2nd Season",
      "link": "https://animefire.plus/animes/gin-no-saji-2nd-season-todos-os-episodios",
      "texto_original": "Gin no Saji 2nd Season",
      "rating": 8.32,
      "classificacao_etaria": "A14",
      "imagem_original": "https://animefire.plus/img/animes/gin-no-saji-2nd-season.webp",
      "imagem_pasta": "https://animefire.plus/img/animes/gin-no-saji-2nd-season/",
      "secao": "legendados",
      "pagina": 117,
      "total_episodios": 11,
      "link_video": "https://animefire.plus/video/gin-no-saji-2nd-season"
    },
    {
      "id": 1168,
      "nome": "Ginga Nagareboshi Gin",
      "link": "https://animefire.plus/animes/ginga-nagareboshi-gin-todos-os-episodios",
      "texto_original": "Ginga Nagareboshi Gin",
      "rating": 8.05,
      "classificacao_etaria": "A14",
      "imagem_original": "https://animefire.plus/img/animes/ginga-nagareboshi-gin.webp",
      "imagem_pasta": "https://animefire.plus/img/animes/ginga-nagareboshi-gin/",
      "secao": "legendados",
      "pagina": 56,
      "total_episodios": 21,
      "link_video": "https://animefire.plus/video/ginga-nagareboshi-gin"
    },
    {
      "id": 1171,
      "nome": "Gintama",
      "link": "https://animefire.plus/animes/gintama-todos-os-episodios",
      "texto_original": "Gintama",
      "rating": 8.98,
      "classificacao_etaria": "A14",
      "imagem_original": "https://animefire.plus/img/animes/gintama.webp",
      "imagem_pasta": "https://animefire.plus/img/animes/gintama/",
      "secao": "legendados",
      "pagina": 74,
      "total_episodios": 24,
      "link_video": "https://animefire.plus/video/gintama"
    },
    {
      "id": 1172,
      "nome": "Gintama: Dai Hanseikai",
      "link": "https://animefire.plus/animes/gintama-dai-hanseikai-todos-os-episodios",
      "texto_original": "Gintama: Dai Hanseikai",
      "rating": 8.07,
      "classificacao_etaria": "A14",
      "imagem_original": "https://animefire.plus/img/animes/gintama-dai-hanseikai.webp",
      "imagem_pasta": "https://animefire.plus/img/animes/gintama-dai-hanseikai/",
      "secao": "legendados",
      "pagina": 67,
      "total_episodios": 1,
      "link_video": "https://animefire.plus/video/gintama-dai-hanseikai"
    },
    {
      "id": 1174,
      "nome": "Gintama: Nanigoto mo Saiyo ga Kanjin nano de Tasho Senobisuru Kurai ga Choudoyoi",
      "link": "https://animefire.plus/animes/gintama-nanigoto-mo-saiyo-ga-kanjin-nano-de-tasho-senobisuru-kurai-ga-choudoyoi-todos-os-episodios",
      "texto_original": "Gintama: Nanigoto mo Saiyo ga Kanjin nano de Tasho Senobisuru Kurai ga Choudoyoi",
      "rating": 8.09,
      "classificacao_etaria": "A14",
      "imagem_original": "https://animefire.plus/img/animes/gintama-nanigoto-mo-saiyo-ga-kanjin-nano-de-tasho-senobisuru-kurai-ga-choudoyoi.webp",
      "imagem_pasta": "https://animefire.plus/img/animes/gintama-nanigoto-mo-saiyo-ga-kanjin-nano-de-tasho-senobisuru-kurai-ga-choudoyoi/",
      "secao": "legendados",
      "pagina": 67,
      "total_episodios": 1,
      "link_video": "https://animefire.plus/video/gintama-nanigoto-mo-saiyo-ga-kanjin-nano-de-tasho-senobisuru-kurai-ga-choudoyoi"
    },
    {
      "id": 1175,
      "nome": "Gintama: Shinyaku Benizakura-hen",
      "link": "https://animefire.plus/animes/gintama-shinyaku-benizakura-hen-todos-os-episodios",
      "texto_original": "Gintama: Shinyaku Benizakura-hen",
      "rating": 8.27,
      "classificacao_etaria": "A14",
      "imagem_original": "https://animefire.plus/img/animes/gintama-shinyaku-benizakura-hen.webp",
      "imagem_pasta": "https://animefire.plus/img/animes/gintama-shinyaku-benizakura-hen/",
      "secao": "legendados",
      "pagina": 68,
      "total_episodios": 1,
      "link_video": "https://animefire.plus/video/gintama-shinyaku-benizakura-hen"
    }
  ],
  "pagination": {
    "current_page": 7,
    "per_page": 20,
    "total_items": 547,
    "total_pages": 28,
    "has_next": true,
    "has_prev": true
  }
}
