{
  "message": "Animes com rating entre 8 e 9",
  "rating_range": {
    "min": 8,
    "max": 9
  },
  "data": [
    {
      "id": 1176,
      "nome": "Gintama: Shiroyasha Koutan",
      "link": "https://animefire.plus/animes/gintama-shiroyasha-koutan-todos-os-episodios",
      "texto_original": "Gintama: Shiroyasha Koutan",
      "rating": 8.34,
      "classificacao_etaria": "A14",
      "imagem_original": "https://animefire.plus/img/animes/gintama-shiroyasha-koutan.webp",
      "imagem_pasta": "https://animefire.plus/img/animes/gintama-shiroyasha-koutan/",
      "secao": "legendados",
      "pagina": 67,
      "total_episodios": 1,
      "link_video": "https://animefire.plus/video/gintama-shiroyasha-koutan"
    },
    {
      "id": 1177,
      "nome": "Gintama: The Semi-Final",
      "link": "https://animefire.plus/animes/gintama-the-semi-final-todos-os-episodios",
      "texto_original": "Gintama: The Semi-Final",
      "rating": 8.46,
      "classificacao_etaria": "A14",
      "imagem_original": "https://animefire.plus/img/animes/gintama-the-semi-final.webp",
      "imagem_pasta": "https://animefire.plus/img/animes/gintama-the-semi-final/",
      "secao": "legendados",
      "pagina": 36,
      "total_episodios": 2,
      "link_video": "https://animefire.plus/video/gintama-the-semi-final"
    },
    {
      "id": 1178,
      "nome": "Gintama.",
      "link": "https://animefire.plus/animes/gintama-season-5-todos-os-episodios",
      "texto_original": "Gintama.",
      "rating": 8.98,
      "classificacao_etaria": "A14",
      "imagem_original": "https://animefire.plus/img/animes/gintama-season-5.webp",
      "imagem_pasta": "https://animefire.plus/img/animes/gintama-season-5/",
      "secao": "legendados",
      "pagina": 53,
      "total_episodios": 12,
      "link_video": "https://animefire.plus/video/gintama-season-5"
    },
    {
      "id": 1179,
      "nome": "Gintama.: Porori-hen",
      "link": "https://animefire.plus/animes/gintama-porori-hen-todos-os-episodios",
      "texto_original": "Gintama.: Porori-hen",
      "rating": 8.54,
      "classificacao_etaria": "A14",
      "imagem_original": "https://animefire.plus/img/animes/gintama-porori-hen.webp",
      "imagem_pasta": "https://animefire.plus/img/animes/gintama-porori-hen/",
      "secao": "legendados",
      "pagina": 74,
      "total_episodios": 13,
      "link_video": "https://animefire.plus/video/gintama-porori-hen"
    },
    {
      "id": 1180,
      "nome": "Gintama.: Shirogane no Tamashii-hen",
      "link": "https://animefire.plus/animes/gintama-shirogane-no-tamashii-hen-todos-os-episodios",
      "texto_original": "Gintama.: Shirogane no Tamashii-hen",
      "rating": 8.79,
      "classificacao_etaria": "A14",
      "imagem_original": "https://animefire.plus/img/animes/gintama-shirogane-no-tamashii-hen.webp",
      "imagem_pasta": "https://animefire.plus/img/animes/gintama-shirogane-no-tamashii-hen/",
      "secao": "legendados",
      "pagina": 74,
      "total_episodios": 12,
      "link_video": "https://animefire.plus/video/gintama-shirogane-no-tamashii-hen"
    },
    {
      "id": 1181,
      "nome": "Gintama.: Shirogane no Tamashii-hen - Kouhan-sen",
      "link": "https://animefire.plus/animes/gintama-shirogane-no-tamashii-hen---kouhan-sen-todos-os-episodios",
      "texto_original": "Gintama.: Shirogane no Tamashii-hen - Kouhan-sen",
      "rating": 8.84,
      "classificacao_etaria": "A14",
      "imagem_original": "https://animefire.plus/img/animes/gintama-shirogane-no-tamashii-hen---kouhan-sen.webp",
      "imagem_pasta": "https://animefire.plus/img/animes/gintama-shirogane-no-tamashii-hen---kouhan-sen/",
      "secao": "legendados",
      "pagina": 74,
      "total_episodios": 14,
      "link_video": "https://animefire.plus/video/gintama-shirogane-no-tamashii-hen---kouhan-sen"
    },
    {
      "id": 1184,
      "nome": "Gintama': Futon ni Haitte kara Buki Nokoshi ni Kizuite Neru ni Nerenai Toki mo Aru",
      "link": "https://animefire.plus/animes/gintama-futon-ni-haitte-kara-buki-nokoshi-ni-kizuite-neru-ni-nerenai-toki-mo-aru-todos-os-episodios",
      "texto_original": "Gintama': Futon ni Haitte kara Buki Nokoshi ni Kizuite Neru ni Nerenai Toki mo Aru",
      "rating": 8.11,
      "classificacao_etaria": "A14",
      "imagem_original": "https://animefire.plus/img/animes/gintama-futon-ni-haitte-kara-buki-nokoshi-ni-kizuite-neru-ni-nerenai-toki-mo-aru.webp",
      "imagem_pasta": "https://animefire.plus/img/animes/gintama-futon-ni-haitte-kara-buki-nokoshi-ni-kizuite-neru-ni-nerenai-toki-mo-aru/",
      "secao": "legendados",
      "pagina": 68,
      "total_episodios": 1,
      "link_video": "https://animefire.plus/video/gintama-futon-ni-haitte-kara-buki-nokoshi-ni-kizuite-neru-ni-nerenai-toki-mo-aru"
    },
    {
      "id": 1186,
      "nome": "Gintama°: Umai-mono wa Atomawashi ni Suru to Yokodorisareru kara Yappari Saki ni Kue",
      "link": "https://animefire.plus/animes/gintama-umai-mono-wa-atomawashi-ni-suru-to-yokodorisareru-kara-yappari-saki-ni-kue-todos-os-episodios",
      "texto_original": "Gintama°: Umai-mono wa Atomawashi ni Suru to Yokodorisareru kara Yappari Saki ni Kue",
      "rating": 8.1,
      "classificacao_etaria": "A14",
      "imagem_original": "https://animefire.plus/img/animes/gintama-umai-mono-wa-atomawashi-ni-suru-to-yokodorisareru-kara-yappari-saki-ni-kue.webp",
      "imagem_pasta": "https://animefire.plus/img/animes/gintama-umai-mono-wa-atomawashi-ni-suru-to-yokodorisareru-kara-yappari-saki-ni-kue/",
      "secao": "legendados",
      "pagina": 68,
      "total_episodios": 1,
      "link_video": "https://animefire.plus/video/gintama-umai-mono-wa-atomawashi-ni-suru-to-yokodorisareru-kara-yappari-saki-ni-kue"
    },
    {
      "id": 1190,
      "nome": "Girls Band Cry",
      "link": "https://animefire.plus/animes/girls-band-cry-todos-os-episodios",
      "texto_original": "Girls Band Cry",
      "rating": 8.22,
      "classificacao_etaria": "A14",
      "imagem_original": "https://animefire.plus/img/animes/girls-band-cry.webp",
      "imagem_pasta": "https://animefire.plus/img/animes/girls-band-cry/",
      "secao": "legendados,lancamentos",
      "pagina": 13,
      "total_episodios": 3,
      "link_video": "https://animefire.plus/video/girls-band-cry"
    },
    {
      "id": 1194,
      "nome": "Given (Dublado)",
      "link": "https://animefire.plus/animes/given-dublado-todos-os-episodios",
      "texto_original": "Given (Dublado)",
      "rating": 8.34,
      "classificacao_etaria": "A14",
      "imagem_original": "https://animefire.plus/img/animes/given.webp",
      "imagem_pasta": "https://animefire.plus/img/animes/given/",
      "secao": "dublados,legendados",
      "pagina": 7,
      "total_episodios": 11,
      "link_video": "https://animefire.plus/video/given-dublado"
    },
    {
      "id": 1195,
      "nome": "Given: Uragawa no Sonzai",
      "link": "https://animefire.plus/animes/given-uragawa-no-sonzai-todos-os-episodios",
      "texto_original": "Given: Uragawa no Sonzai",
      "rating": 8.13,
      "classificacao_etaria": "A14",
      "imagem_original": "https://animefire.plus/img/animes/given-uragawa-no-sonzai.webp",
      "imagem_pasta": "https://animefire.plus/img/animes/given-uragawa-no-sonzai/",
      "secao": "legendados",
      "pagina": 38,
      "total_episodios": 1,
      "link_video": "https://animefire.plus/video/given-uragawa-no-sonzai"
    },
    {
      "id": 1197,
      "nome": "Glass no Kamen (2005)",
      "link": "https://animefire.plus/animes/glass-no-kamen-2005-todos-os-episodios",
      "texto_original": "Glass no Kamen (2005)",
      "rating": 8.12,
      "classificacao_etaria": null,
      "imagem_original": "https://animefire.plus/img/animes/glass-no-kamen-2005.webp",
      "imagem_pasta": "https://animefire.plus/img/animes/glass-no-kamen-2005/",
      "secao": "legendados",
      "pagina": 66,
      "total_episodios": 51,
      "link_video": "https://animefire.plus/video/glass-no-kamen-2005"
    },
    {
      "id": 1219,
      "nome": "Golden Boy",
      "link": "https://animefire.plus/animes/golden-boy-todos-os-episodios",
      "texto_original": "Golden Boy",
      "rating": 8.05,
      "classificacao_etaria": "A18",
      "imagem_original": "https://animefire.plus/img/animes/golden-boy.webp",
      "imagem_pasta": "https://animefire.plus/img/animes/golden-boy/",
      "secao": "legendados",
      "pagina": 101,
      "total_episodios": 6,
      "link_video": "https://animefire.plus/video/golden-boy"
    },
    {
      "id": 1221,
      "nome": "Golden Kamuy 2nd Season",
      "link": "https://animefire.plus/animes/golden-kamuy-2nd-season-todos-os-episodios",
      "texto_original": "Golden Kamuy 2nd Season",
      "rating": 8.17,
      "classificacao_etaria": "A16",
      "imagem_original": "https://animefire.plus/img/animes/golden-kamuy-2nd-season.webp",
      "imagem_pasta": "https://animefire.plus/img/animes/golden-kamuy-2nd-season/",
      "secao": "legendados",
      "pagina": 179,
      "total_episodios": 12,
      "link_video": "https://animefire.plus/video/golden-kamuy-2nd-season"
    },
    {
      "id": 1224,
      "nome": "Golden Kamuy 4th Season",
      "link": "https://animefire.plus/animes/golden-kamuy-4th-season-todos-os-episodios",
      "texto_original": "Golden Kamuy 4th Season",
      "rating": 8.12,
      "classificacao_etaria": "A16",
      "imagem_original": "https://animefire.plus/img/animes/golden-kamuy-4th-season.webp",
      "imagem_pasta": "https://animefire.plus/img/animes/golden-kamuy-4th-season/",
      "secao": "legendados",
      "pagina": 29,
      "total_episodios": 13,
      "link_video": "https://animefire.plus/video/golden-kamuy-4th-season"
    },
    {
      "id": 1233,
      "nome": "Gosick",
      "link": "https://animefire.plus/animes/gosick-todos-os-episodios",
      "texto_original": "Gosick",
      "rating": 8.17,
      "classificacao_etaria": "A16",
      "imagem_original": "https://animefire.plus/img/animes/gosick.webp",
      "imagem_pasta": "https://animefire.plus/img/animes/gosick/",
      "secao": "legendados",
      "pagina": 160,
      "total_episodios": 24,
      "link_video": "https://animefire.plus/video/gosick"
    },
    {
      "id": 1241,
      "nome": "Grand Blue",
      "link": "https://animefire.plus/animes/grand-blue-todos-os-episodios",
      "texto_original": "Grand Blue",
      "rating": 8.42,
      "classificacao_etaria": "A14",
      "imagem_original": "https://animefire.plus/img/animes/grand-blue.webp",
      "imagem_pasta": "https://animefire.plus/img/animes/grand-blue/",
      "secao": "legendados",
      "pagina": 142,
      "total_episodios": 12,
      "link_video": "https://animefire.plus/video/grand-blue"
    },
    {
      "id": 1242,
      "nome": "Grand Blue Season 2",
      "link": "https://animefire.plus/animes/grand-blue-season-2-todos-os-episodios",
      "texto_original": "Grand Blue Season 2",
      "rating": 8.72,
      "classificacao_etaria": "A14",
      "imagem_original": "https://animefire.plus/img/animes/grand-blue-season-2.webp",
      "imagem_pasta": "https://animefire.plus/img/animes/grand-blue-season-2/",
      "secao": "legendados,lancamentos",
      "pagina": 3,
      "total_episodios": 4,
      "link_video": "https://animefire.plus/video/grand-blue-season-2"
    },
    {
      "id": 1248,
      "nome": "Great Pretender (Dublado)",
      "link": "https://animefire.plus/animes/great-pretender-dublado-todos-os-episodios",
      "texto_original": "Great Pretender (Dublado)",
      "rating": 8.31,
      "classificacao_etaria": "A16",
      "imagem_original": "https://animefire.plus/img/animes/great-pretender.webp",
      "imagem_pasta": "https://animefire.plus/img/animes/great-pretender/",
      "secao": "dublados,legendados",
      "pagina": 20,
      "total_episodios": 23,
      "link_video": "https://animefire.plus/video/great-pretender-dublado"
    },
    {
      "id": 1250,
      "nome": "Great Teacher Onizuka",
      "link": "https://animefire.plus/animes/great-teacher-onizuka-todos-os-episodios",
      "texto_original": "Great Teacher Onizuka",
      "rating": 8.7,
      "classificacao_etaria": "A16",
      "imagem_original": "https://animefire.plus/img/animes/great-teacher-onizuka.webp",
      "imagem_pasta": "https://animefire.plus/img/animes/great-teacher-onizuka/",
      "secao": "legendados",
      "pagina": 57,
      "total_episodios": 43,
      "link_video": "https://animefire.plus/video/great-teacher-onizuka"
    }
  ],
  "pagination": {
    "current_page": 8,
    "per_page": 20,
    "total_items": 547,
    "total_pages": 28,
    "has_next": true,
    "has_prev": true
  }
}
