{
  "message": "Animes com rating entre 8 e 9",
  "rating_range": {
    "min": 8,
    "max": 9
  },
  "data": [
    {
      "id": 717,
      "nome": "D.Gray-Man",
      "link": "https://animefire.plus/animes/d-gray-man-todos-os-episodios",
      "texto_original": "D.Gray-Man",
      "rating": 8.08,
      "classificacao_etaria": "A14",
      "imagem_original": "https://animefire.plus/img/animes/d-gray-man.webp",
      "imagem_pasta": "https://animefire.plus/img/animes/d-gray-man/",
      "secao": "legendados",
      "pagina": 60,
      "total_episodios": 100,
      "link_video": "https://animefire.plus/video/d-gray-man"
    },
    {
      "id": 739,
      "nome": "Dandadan (Dublado)",
      "link": "https://animefire.plus/animes/dandadan-dublado-todos-os-episodios",
      "texto_original": "Dandadan (Dublado)",
      "rating": 8.48,
      "classificacao_etaria": "A16",
      "imagem_original": "https://animefire.plus/img/animes/dandadan.webp",
      "imagem_pasta": "https://animefire.plus/img/animes/dandadan/",
      "secao": "dublados,legendados",
      "pagina": 2,
      "total_episodios": 12,
      "link_video": "https://animefire.plus/video/dandadan-dublado"
    },
    {
      "id": 740,
      "nome": "Dandadan 2nd Season (Dublado)",
      "link": "https://animefire.plus/animes/dandadan-2nd-season-dublado-todos-os-episodios",
      "texto_original": "Dandadan 2nd Season (Dublado)",
      "rating": 8.49,
      "classificacao_etaria": "A16",
      "imagem_original": "https://animefire.plus/img/animes/dandadan-2nd-season.webp",
      "imagem_pasta": "https://animefire.plus/img/animes/dandadan-2nd-season/",
      "secao": "dublados,legendados,lancamentos",
      "pagina": 1,
      "total_episodios": 5,
      "link_video": "https://animefire.plus/video/dandadan-2nd-season-dublado"
    },
    {
      "id": 748,
      "nome": "Danshi Koukousei no Nichijou",
      "link": "https://animefire.plus/animes/danshi-koukousei-no-nichijou-todos-os-episodios",
      "texto_original": "Danshi Koukousei no Nichijou",
      "rating": 8.32,
      "classificacao_etaria": "A14",
      "imagem_original": "https://animefire.plus/img/animes/danshi-koukousei-no-nichijou.webp",
      "imagem_pasta": "https://animefire.plus/img/animes/danshi-koukousei-no-nichijou/",
      "secao": "legendados",
      "pagina": 113,
      "total_episodios": 9,
      "link_video": "https://animefire.plus/video/danshi-koukousei-no-nichijou"
    },
    {
      "id": 752,
      "nome": "Darker than Black: Kuro no Keiyakusha",
      "link": "https://animefire.plus/animes/darker-than-black-kuro-no-keiyakusha-todos-os-episodios",
      "texto_original": "Darker than Black: Kuro no Keiyakusha",
      "rating": 8.18,
      "classificacao_etaria": "A16",
      "imagem_original": "https://animefire.plus/img/animes/darker-than-black-kuro-no-keiyakusha.webp",
      "imagem_pasta": "https://animefire.plus/img/animes/darker-than-black-kuro-no-keiyakusha/",
      "secao": "legendados",
      "pagina": 163,
      "total_episodios": 26,
      "link_video": "https://animefire.plus/video/darker-than-black-kuro-no-keiyakusha"
    },
    {
      "id": 753,
      "nome": "Darker than Black: Kuro no Keiyakusha Gaiden",
      "link": "https://animefire.plus/animes/darker-than-black-kuro-no-keiyakusha-gaiden-todos-os-episodios",
      "texto_original": "Darker than Black: Kuro no Keiyakusha Gaiden",
      "rating": 8,
      "classificacao_etaria": "A16",
      "imagem_original": "https://animefire.plus/img/animes/darker-than-black-kuro-no-keiyakusha-gaiden.webp",
      "imagem_pasta": "https://animefire.plus/img/animes/darker-than-black-kuro-no-keiyakusha-gaiden/",
      "secao": "legendados",
      "pagina": 69,
      "total_episodios": 1,
      "link_video": "https://animefire.plus/video/darker-than-black-kuro-no-keiyakusha-gaiden"
    },
    {
      "id": 776,
      "nome": "Death Note (Dublado)",
      "link": "https://animefire.plus/animes/death-note-dublado-todos-os-episodios",
      "texto_original": "Death Note (Dublado)",
      "rating": 8.66,
      "classificacao_etaria": "A16",
      "imagem_original": "https://animefire.plus/img/animes/death-note.webp",
      "imagem_pasta": "https://animefire.plus/img/animes/death-note/",
      "secao": "dublados,legendados",
      "pagina": 26,
      "total_episodios": 37,
      "link_video": "https://animefire.plus/video/death-note-dublado"
    },
    {
      "id": 777,
      "nome": "Death Parade",
      "link": "https://animefire.plus/animes/death-parade-todos-os-episodios",
      "texto_original": "Death Parade",
      "rating": 8.23,
      "classificacao_etaria": "A16",
      "imagem_original": "https://animefire.plus/img/animes/death-parade.webp",
      "imagem_pasta": "https://animefire.plus/img/animes/death-parade/",
      "secao": "legendados",
      "pagina": 166,
      "total_episodios": 3,
      "link_video": "https://animefire.plus/video/death-parade"
    },
    {
      "id": 792,
      "nome": "Dennou Coil",
      "link": "https://animefire.plus/animes/dennou-coil-todos-os-episodios",
      "texto_original": "Dennou Coil",
      "rating": 8.12,
      "classificacao_etaria": null,
      "imagem_original": "https://animefire.plus/img/animes/dennou-coil.webp",
      "imagem_pasta": "https://animefire.plus/img/animes/dennou-coil/",
      "secao": "legendados",
      "pagina": 108,
      "total_episodios": 0,
      "link_video": "https://animefire.plus/video/dennou-coil"
    },
    {
      "id": 801,
      "nome": "Detroit Metal City",
      "link": "https://animefire.plus/animes/detroit-metal-city-todos-os-episodios",
      "texto_original": "Detroit Metal City",
      "rating": 8.19,
      "classificacao_etaria": "A16",
      "imagem_original": "https://animefire.plus/img/animes/detroit-metal-city.webp",
      "imagem_pasta": "https://animefire.plus/img/animes/detroit-metal-city/",
      "secao": "legendados",
      "pagina": 114,
      "total_episodios": 0,
      "link_video": "https://animefire.plus/video/detroit-metal-city"
    },
    {
      "id": 812,
      "nome": "Diamond no Ace: Act II",
      "link": "https://animefire.plus/animes/diamond-no-ace-act-ii-todos-os-episodios",
      "texto_original": "Diamond no Ace: Act II",
      "rating": 8.23,
      "classificacao_etaria": "A14",
      "imagem_original": "https://animefire.plus/img/animes/diamond-no-ace-act-ii.webp",
      "imagem_pasta": "https://animefire.plus/img/animes/diamond-no-ace-act-ii/",
      "secao": "legendados",
      "pagina": 164,
      "total_episodios": 0,
      "link_video": "https://animefire.plus/video/diamond-no-ace-act-ii"
    },
    {
      "id": 848,
      "nome": "Dorohedoro (Dublado)",
      "link": "https://animefire.plus/animes/dorohedoro-dublado-todos-os-episodios",
      "texto_original": "Dorohedoro (Dublado)",
      "rating": 8.13,
      "classificacao_etaria": "A16",
      "imagem_original": "https://animefire.plus/img/animes/dorohedoro.webp",
      "imagem_pasta": "https://animefire.plus/img/animes/dorohedoro/",
      "secao": "dublados,legendados",
      "pagina": 20,
      "total_episodios": 12,
      "link_video": "https://animefire.plus/video/dorohedoro-dublado"
    },
    {
      "id": 850,
      "nome": "Dororo",
      "link": "https://animefire.plus/animes/dororo-todos-os-episodios",
      "texto_original": "Dororo",
      "rating": 8.21,
      "classificacao_etaria": "A16",
      "imagem_original": "https://animefire.plus/img/animes/dororo.webp",
      "imagem_pasta": "https://animefire.plus/img/animes/dororo/",
      "secao": "legendados",
      "pagina": 41,
      "total_episodios": 24,
      "link_video": "https://animefire.plus/video/dororo"
    },
    {
      "id": 867,
      "nome": "Dr. Stone (Dublado)",
      "link": "https://animefire.plus/animes/dr-stone-dublado-todos-os-episodios",
      "texto_original": "Dr. Stone (Dublado)",
      "rating": 8.35,
      "classificacao_etaria": "A14",
      "imagem_original": "https://animefire.plus/img/animes/dr-stone.webp",
      "imagem_pasta": "https://animefire.plus/img/animes/dr-stone/",
      "secao": "dublados,legendados",
      "pagina": 20,
      "total_episodios": 24,
      "link_video": "https://animefire.plus/video/dr-stone-dublado"
    },
    {
      "id": 868,
      "nome": "Dr. Stone: New World (Dublado)",
      "link": "https://animefire.plus/animes/dr-stone-new-world-dublado-todos-os-episodios",
      "texto_original": "Dr. Stone: New World (Dublado)",
      "rating": 8.15,
      "classificacao_etaria": "A14",
      "imagem_original": "https://animefire.plus/img/animes/dr-stone-new-world.webp",
      "imagem_pasta": "https://animefire.plus/img/animes/dr-stone-new-world/",
      "secao": "dublados,legendados",
      "pagina": 7,
      "total_episodios": 11,
      "link_video": "https://animefire.plus/video/dr-stone-new-world-dublado"
    },
    {
      "id": 869,
      "nome": "Dr. Stone: New World Part 2 (Dublado)",
      "link": "https://animefire.plus/animes/dr-stone-new-world-part-2-dublado-todos-os-episodios",
      "texto_original": "Dr. Stone: New World Part 2 (Dublado)",
      "rating": 8.34,
      "classificacao_etaria": "A14",
      "imagem_original": "https://animefire.plus/img/animes/dr-stone-new-world-part-2.webp",
      "imagem_pasta": "https://animefire.plus/img/animes/dr-stone-new-world-part-2/",
      "secao": "dublados,legendados",
      "pagina": 5,
      "total_episodios": 11,
      "link_video": "https://animefire.plus/video/dr-stone-new-world-part-2-dublado"
    },
    {
      "id": 870,
      "nome": "Dr. Stone: Ryuusui (Dublado)",
      "link": "https://animefire.plus/animes/dr-stone-ryuusui-dublado-todos-os-episodios",
      "texto_original": "Dr. Stone: Ryuusui (Dublado)",
      "rating": 8.13,
      "classificacao_etaria": "A14",
      "imagem_original": "https://animefire.plus/img/animes/dr-stone-ryuusui.webp",
      "imagem_pasta": "https://animefire.plus/img/animes/dr-stone-ryuusui/",
      "secao": "dublados,legendados",
      "pagina": 9,
      "total_episodios": 1,
      "link_video": "https://animefire.plus/video/dr-stone-ryuusui-dublado"
    },
    {
      "id": 871,
      "nome": "Dr. Stone: Science Future (Dublado)",
      "link": "https://animefire.plus/animes/dr-stone-science-future-dublado-todos-os-episodios",
      "texto_original": "Dr. Stone: Science Future (Dublado)",
      "rating": 8.24,
      "classificacao_etaria": "A14",
      "imagem_original": "https://animefire.plus/img/animes/dr-stone-science-future.webp",
      "imagem_pasta": "https://animefire.plus/img/animes/dr-stone-science-future/",
      "secao": "dublados,legendados,lancamentos",
      "pagina": 1,
      "total_episodios": 12,
      "link_video": "https://animefire.plus/video/dr-stone-science-future-dublado"
    },
    {
      "id": 872,
      "nome": "Dr. Stone: Science Future Part 2",
      "link": "https://animefire.plus/animes/dr-stone-science-future-part-2-todos-os-episodios",
      "texto_original": "Dr. Stone: Science Future Part 2",
      "rating": 8.22,
      "classificacao_etaria": "A14",
      "imagem_original": "https://animefire.plus/img/animes/dr-stone-science-future-part-2.webp",
      "imagem_pasta": "https://animefire.plus/img/animes/dr-stone-science-future-part-2/",
      "secao": "legendados,lancamentos",
      "pagina": 1,
      "total_episodios": 4,
      "link_video": "https://animefire.plus/video/dr-stone-science-future-part-2"
    },
    {
      "id": 873,
      "nome": "Dr. Stone: Stone Wars (Dublado)",
      "link": "https://animefire.plus/animes/dr-stone-stone-wars-dublado-todos-os-episodios",
      "texto_original": "Dr. Stone: Stone Wars (Dublado)",
      "rating": 8.16,
      "classificacao_etaria": "A14",
      "imagem_original": "https://animefire.plus/img/animes/dr-stone-stone-wars.webp",
      "imagem_pasta": "https://animefire.plus/img/animes/dr-stone-stone-wars/",
      "secao": "dublados,legendados",
      "pagina": 18,
      "total_episodios": 11,
      "link_video": "https://animefire.plus/video/dr-stone-stone-wars-dublado"
    }
  ],
  "pagination": {
    "current_page": 5,
    "per_page": 20,
    "total_items": 547,
    "total_pages": 28,
    "has_next": true,
    "has_prev": true
  }
}
