{
  "message": "Animes com rating entre 8 e 9",
  "rating_range": {
    "min": 8,
    "max": 9
  },
  "data": [
    {
      "id": 8,
      "nome": "\"Oshi no Ko\" 2nd Season",
      "link": "https://animefire.plus/animes/oshi-no-ko-2nd-season-todos-os-episodios",
      "texto_original": "\"Oshi no Ko\" 2nd Season",
      "rating": 8.56,
      "classificacao_etaria": "A14",
      "imagem_original": "https://animefire.plus/img/animes/oshi-no-ko-2nd-season.webp",
      "imagem_pasta": "https://animefire.plus/img/animes/oshi-no-ko-2nd-season/",
      "secao": "legendados",
      "pagina": 12,
      "total_episodios": 13,
      "link_video": "https://animefire.plus/video/oshi-no-ko-2nd-season"
    },
    {
      "id": 28,
      "nome": "3-gatsu no Lion",
      "link": "https://animefire.plus/animes/3-gatsu-no-lion-todos-os-episodios",
      "texto_original": "3-gatsu no Lion",
      "rating": 8.44,
      "classificacao_etaria": "A14",
      "imagem_original": "https://animefire.plus/img/animes/3-gatsu-no-lion.webp",
      "imagem_pasta": "https://animefire.plus/img/animes/3-gatsu-no-lion/",
      "secao": "legendados",
      "pagina": 154,
      "total_episodios": 24,
      "link_video": "https://animefire.plus/video/3-gatsu-no-lion"
    },
    {
      "id": 29,
      "nome": "3-gatsu no Lion 2nd Season",
      "link": "https://animefire.plus/animes/3-gatsu-no-lion-2nd-season-todos-os-episodios",
      "texto_original": "3-gatsu no Lion 2nd Season",
      "rating": 8.92,
      "classificacao_etaria": "A14",
      "imagem_original": "https://animefire.plus/img/animes/3-gatsu-no-lion-2nd-season.webp",
      "imagem_pasta": "https://animefire.plus/img/animes/3-gatsu-no-lion-2nd-season/",
      "secao": "legendados",
      "pagina": 16,
      "total_episodios": 22,
      "link_video": "https://animefire.plus/video/3-gatsu-no-lion-2nd-season"
    },
    {
      "id": 37,
      "nome": "5-toubun no Hanayome ∬ (Dublado)",
      "link": "https://animefire.plus/animes/gotoubun-no-hanayome-2nd-season-dublado-todos-os-episodios",
      "texto_original": "5-toubun no Hanayome ∬ (Dublado)",
      "rating": 8.01,
      "classificacao_etaria": "A14",
      "imagem_original": "https://animefire.plus/img/animes/gotoubun-no-hanayome-2nd-season.webp",
      "imagem_pasta": "https://animefire.plus/img/animes/gotoubun-no-hanayome-2nd-season/",
      "secao": "dublados,legendados",
      "pagina": 8,
      "total_episodios": 12,
      "link_video": "https://animefire.plus/video/gotoubun-no-hanayome-2nd-season-dublado"
    },
    {
      "id": 41,
      "nome": "86 (Dublado)",
      "link": "https://animefire.plus/animes/86-dublado-todos-os-episodios",
      "texto_original": "86 (Dublado)",
      "rating": 8.33,
      "classificacao_etaria": "A16",
      "imagem_original": "https://animefire.plus/img/animes/86.webp",
      "imagem_pasta": "https://animefire.plus/img/animes/86/",
      "secao": "dublados",
      "pagina": 17,
      "total_episodios": 11,
      "link_video": "https://animefire.plus/video/86-dublado"
    },
    {
      "id": 42,
      "nome": "86 2nd Season",
      "link": "https://animefire.plus/animes/86-2nd-season-todos-os-episodios",
      "texto_original": "86 2nd Season",
      "rating": 8.72,
      "classificacao_etaria": "A16",
      "imagem_original": "https://animefire.plus/img/animes/86-2nd-season.webp",
      "imagem_pasta": "https://animefire.plus/img/animes/86-2nd-season/",
      "secao": "legendados",
      "pagina": 38,
      "total_episodios": 12,
      "link_video": "https://animefire.plus/video/86-2nd-season"
    },
    {
      "id": 108,
      "nome": "Akagami no Shirayuki-hime 2nd Season",
      "link": "https://animefire.plus/animes/akagami-no-shirayuki-hime-2nd-season-todos-os-episodios",
      "texto_original": "Akagami no Shirayuki-hime 2nd Season",
      "rating": 8.11,
      "classificacao_etaria": "A14",
      "imagem_original": "https://animefire.plus/img/animes/akagami-no-shirayuki-hime-2nd-season.webp",
      "imagem_pasta": "https://animefire.plus/img/animes/akagami-no-shirayuki-hime-2nd-season/",
      "secao": "legendados",
      "pagina": 158,
      "total_episodios": 0,
      "link_video": "https://animefire.plus/video/akagami-no-shirayuki-hime-2nd-season"
    },
    {
      "id": 118,
      "nome": "Akatsuki No Yona",
      "link": "https://animefire.plus/animes/akatsuki-no-yona-todos-os-episodios",
      "texto_original": "Akatsuki No Yona",
      "rating": 8.15,
      "classificacao_etaria": "A14",
      "imagem_original": "https://animefire.plus/img/animes/akatsuki-no-yona.webp",
      "imagem_pasta": "https://animefire.plus/img/animes/akatsuki-no-yona/",
      "secao": "legendados",
      "pagina": 149,
      "total_episodios": 0,
      "link_video": "https://animefire.plus/video/akatsuki-no-yona"
    },
    {
      "id": 119,
      "nome": "Akatsuki no Yona OVA",
      "link": "https://animefire.plus/animes/akatsuki-no-yona-ova-todos-os-episodios",
      "texto_original": "Akatsuki no Yona OVA",
      "rating": 8.16,
      "classificacao_etaria": "A14",
      "imagem_original": "https://animefire.plus/img/animes/akatsuki-no-yona-ova.webp",
      "imagem_pasta": "https://animefire.plus/img/animes/akatsuki-no-yona-ova/",
      "secao": "legendados",
      "pagina": 152,
      "total_episodios": 3,
      "link_video": "https://animefire.plus/video/akatsuki-no-yona-ova"
    },
    {
      "id": 169,
      "nome": "Angel Beats! (Dublado)",
      "link": "https://animefire.plus/animes/angel-beats-dublado-todos-os-episodios",
      "texto_original": "Angel Beats! (Dublado)",
      "rating": 8.2,
      "classificacao_etaria": "A14",
      "imagem_original": "https://animefire.plus/img/animes/angel-beats.webp",
      "imagem_pasta": "https://animefire.plus/img/animes/angel-beats/",
      "secao": "dublados,legendados",
      "pagina": 21,
      "total_episodios": 0,
      "link_video": "https://animefire.plus/video/angel-beats-dublado"
    },
    {
      "id": 184,
      "nome": "Ano Hi Mita Hana no Namae wo Bokutachi wa Mada Shiranai.",
      "link": "https://animefire.plus/animes/ano-hi-mita-hana-no-namae-wo-bokutachi-wa-mada-shiranai-todos-os-episodios",
      "texto_original": "Ano Hi Mita Hana no Namae wo Bokutachi wa Mada Shiranai.",
      "rating": 8.51,
      "classificacao_etaria": "A14",
      "imagem_original": "https://animefire.plus/img/animes/ano-hi-mita-hana-no-namae-wo-bokutachi-wa-mada-shiranai.webp",
      "imagem_pasta": "https://animefire.plus/img/animes/ano-hi-mita-hana-no-namae-wo-bokutachi-wa-mada-shiranai/",
      "secao": "legendados",
      "pagina": 172,
      "total_episodios": 11,
      "link_video": "https://animefire.plus/video/ano-hi-mita-hana-no-namae-wo-bokutachi-wa-mada-shiranai"
    },
    {
      "id": 190,
      "nome": "Ansatsu Kyoushitsu (Dublado)",
      "link": "https://animefire.plus/animes/ansatsu-kyoushitsu-dublado-todos-os-episodios",
      "texto_original": "Ansatsu Kyoushitsu (Dublado)",
      "rating": 8.13,
      "classificacao_etaria": "A14",
      "imagem_original": "https://animefire.plus/img/animes/ansatsu-kyoushitsu.webp",
      "imagem_pasta": "https://animefire.plus/img/animes/ansatsu-kyoushitsu/",
      "secao": "dublados,legendados",
      "pagina": 19,
      "total_episodios": 22,
      "link_video": "https://animefire.plus/video/ansatsu-kyoushitsu-dublado"
    },
    {
      "id": 191,
      "nome": "Ansatsu Kyoushitsu 2nd Season (Dublado)",
      "link": "https://animefire.plus/animes/ansatsu-kyoushitsu-2nd-season-dublado-todos-os-episodios",
      "texto_original": "Ansatsu Kyoushitsu 2nd Season (Dublado)",
      "rating": 8.55,
      "classificacao_etaria": "A14",
      "imagem_original": "https://animefire.plus/img/animes/ansatsu-kyoushitsu-2nd-season.webp",
      "imagem_pasta": "https://animefire.plus/img/animes/ansatsu-kyoushitsu-2nd-season/",
      "secao": "dublados,legendados",
      "pagina": 19,
      "total_episodios": 23,
      "link_video": "https://animefire.plus/video/ansatsu-kyoushitsu-2nd-season-dublado"
    },
    {
      "id": 195,
      "nome": "Ao Ashi (Dublado)",
      "link": "https://animefire.plus/animes/ao-ashi-dublado-todos-os-episodios",
      "texto_original": "Ao Ashi (Dublado)",
      "rating": 8.16,
      "classificacao_etaria": "A14",
      "imagem_original": "https://animefire.plus/img/animes/ao-ashi.webp",
      "imagem_pasta": "https://animefire.plus/img/animes/ao-ashi/",
      "secao": "dublados,legendados",
      "pagina": 11,
      "total_episodios": 24,
      "link_video": "https://animefire.plus/video/ao-ashi-dublado"
    },
    {
      "id": 202,
      "nome": "Ao no Exorcist: Yosuga-hen",
      "link": "https://animefire.plus/animes/ao-no-exorcist-yosuga-hen-todos-os-episodios",
      "texto_original": "Ao no Exorcist: Yosuga-hen",
      "rating": 8,
      "classificacao_etaria": "A14",
      "imagem_original": "https://animefire.plus/img/animes/ao-no-exorcist-yosuga-hen.webp",
      "imagem_pasta": "https://animefire.plus/img/animes/ao-no-exorcist-yosuga-hen/",
      "secao": "legendados",
      "pagina": 7,
      "total_episodios": 12,
      "link_video": "https://animefire.plus/video/ao-no-exorcist-yosuga-hen"
    },
    {
      "id": 204,
      "nome": "Ao no Hako",
      "link": "https://animefire.plus/animes/ao-no-hako-todos-os-episodios",
      "texto_original": "Ao no Hako",
      "rating": 8.2,
      "classificacao_etaria": "A14",
      "imagem_original": "https://animefire.plus/img/animes/ao-no-hako.webp",
      "imagem_pasta": "https://animefire.plus/img/animes/ao-no-hako/",
      "secao": "legendados",
      "pagina": 9,
      "total_episodios": 25,
      "link_video": "https://animefire.plus/video/ao-no-hako"
    },
    {
      "id": 214,
      "nome": "Apocalypse Hotel",
      "link": "https://animefire.plus/animes/apocalypse-hotel-todos-os-episodios",
      "texto_original": "Apocalypse Hotel",
      "rating": 8.04,
      "classificacao_etaria": "A14",
      "imagem_original": "https://animefire.plus/img/animes/apocalypse-hotel.webp",
      "imagem_pasta": "https://animefire.plus/img/animes/apocalypse-hotel/",
      "secao": "legendados",
      "pagina": 4,
      "total_episodios": 12,
      "link_video": "https://animefire.plus/video/apocalypse-hotel"
    },
    {
      "id": 231,
      "nome": "Aria The Avvenire",
      "link": "https://animefire.plus/animes/aria-the-avvenire-todos-os-episodios",
      "texto_original": "Aria The Avvenire",
      "rating": 8.04,
      "classificacao_etaria": null,
      "imagem_original": "https://animefire.plus/img/animes/aria-the-avvenire.webp",
      "imagem_pasta": "https://animefire.plus/img/animes/aria-the-avvenire/",
      "secao": "legendados",
      "pagina": 147,
      "total_episodios": 3,
      "link_video": "https://animefire.plus/video/aria-the-avvenire"
    },
    {
      "id": 232,
      "nome": "Aria The Natural",
      "link": "https://animefire.plus/animes/aria-the-natural-todos-os-episodios",
      "texto_original": "Aria The Natural",
      "rating": 8.2,
      "classificacao_etaria": null,
      "imagem_original": "https://animefire.plus/img/animes/aria-the-natural.webp",
      "imagem_pasta": "https://animefire.plus/img/animes/aria-the-natural/",
      "secao": "legendados",
      "pagina": 128,
      "total_episodios": 26,
      "link_video": "https://animefire.plus/video/aria-the-natural"
    },
    {
      "id": 233,
      "nome": "Aria The Origination",
      "link": "https://animefire.plus/animes/aria-the-origination-todos-os-episodios",
      "texto_original": "Aria The Origination",
      "rating": 8.53,
      "classificacao_etaria": null,
      "imagem_original": "https://animefire.plus/img/animes/aria-the-origination.webp",
      "imagem_pasta": "https://animefire.plus/img/animes/aria-the-origination/",
      "secao": "legendados",
      "pagina": 138,
      "total_episodios": 13,
      "link_video": "https://animefire.plus/video/aria-the-origination"
    }
  ],
  "pagination": {
    "current_page": 1,
    "per_page": 20,
    "total_items": 547,
    "total_pages": 28,
    "has_next": true,
    "has_prev": false
  }
}
