{
  "message": "Animes da seção: dublados",
  "section": "dublados",
  "data": [
    {
      "id": 154,
      "nome": "Amagami-san Chi no Enmusubi (Dublado)",
      "link": "https://animefire.plus/animes/amagami-san-chi-no-enmusubi-dublado-todos-os-episodios",
      "texto_original": "Amagami-san Chi no Enmusubi (Dublado)",
      "rating": 7.55,
      "classificacao_etaria": "A14",
      "imagem_original": "https://animefire.plus/img/animes/amagami-san-chi-no-enmusubi.webp",
      "imagem_pasta": "https://animefire.plus/img/animes/amagami-san-chi-no-enmusubi/",
      "secao": "dublados,legendados,lancamentos",
      "pagina": 2,
      "total_episodios": 24,
      "link_video": "https://animefire.plus/video/amagami-san-chi-no-enmusubi-dublado"
    },
    {
      "id": 169,
      "nome": "Angel Beats! (Dublado)",
      "link": "https://animefire.plus/animes/angel-beats-dublado-todos-os-episodios",
      "texto_original": "Angel Beats! (Dublado)",
      "rating": 8.2,
      "classificacao_etaria": "A14",
      "imagem_original": "https://animefire.plus/img/animes/angel-beats.webp",
      "imagem_pasta": "https://animefire.plus/img/animes/angel-beats/",
      "secao": "dublados,legendados",
      "pagina": 21,
      "total_episodios": 0,
      "link_video": "https://animefire.plus/video/angel-beats-dublado"
    },
    {
      "id": 190,
      "nome": "Ansatsu Kyoushitsu (Dublado)",
      "link": "https://animefire.plus/animes/ansatsu-kyoushitsu-dublado-todos-os-episodios",
      "texto_original": "Ansatsu Kyoushitsu (Dublado)",
      "rating": 8.13,
      "classificacao_etaria": "A14",
      "imagem_original": "https://animefire.plus/img/animes/ansatsu-kyoushitsu.webp",
      "imagem_pasta": "https://animefire.plus/img/animes/ansatsu-kyoushitsu/",
      "secao": "dublados,legendados",
      "pagina": 19,
      "total_episodios": 22,
      "link_video": "https://animefire.plus/video/ansatsu-kyoushitsu-dublado"
    },
    {
      "id": 191,
      "nome": "Ansatsu Kyoushitsu 2nd Season (Dublado)",
      "link": "https://animefire.plus/animes/ansatsu-kyoushitsu-2nd-season-dublado-todos-os-episodios",
      "texto_original": "Ansatsu Kyoushitsu 2nd Season (Dublado)",
      "rating": 8.55,
      "classificacao_etaria": "A14",
      "imagem_original": "https://animefire.plus/img/animes/ansatsu-kyoushitsu-2nd-season.webp",
      "imagem_pasta": "https://animefire.plus/img/animes/ansatsu-kyoushitsu-2nd-season/",
      "secao": "dublados,legendados",
      "pagina": 19,
      "total_episodios": 23,
      "link_video": "https://animefire.plus/video/ansatsu-kyoushitsu-2nd-season-dublado"
    },
    {
      "id": 195,
      "nome": "Ao Ashi (Dublado)",
      "link": "https://animefire.plus/animes/ao-ashi-dublado-todos-os-episodios",
      "texto_original": "Ao Ashi (Dublado)",
      "rating": 8.16,
      "classificacao_etaria": "A14",
      "imagem_original": "https://animefire.plus/img/animes/ao-ashi.webp",
      "imagem_pasta": "https://animefire.plus/img/animes/ao-ashi/",
      "secao": "dublados,legendados",
      "pagina": 11,
      "total_episodios": 24,
      "link_video": "https://animefire.plus/video/ao-ashi-dublado"
    },
    {
      "id": 198,
      "nome": "Ao no 6-gou (Dublado)",
      "link": "https://animefire.plus/animes/ao-no-6-gou-dublado-todos-os-episodios",
      "texto_original": "Ao no 6-gou (Dublado)",
      "rating": 7.06,
      "classificacao_etaria": "A14",
      "imagem_original": "https://animefire.plus/img/animes/ao-no-6-gou.webp",
      "imagem_pasta": "https://animefire.plus/img/animes/ao-no-6-gou/",
      "secao": "dublados,legendados",
      "pagina": 21,
      "total_episodios": 4,
      "link_video": "https://animefire.plus/video/ao-no-6-gou-dublado"
    },
    {
      "id": 215,
      "nome": "Appare-Ranman! (Dublado)",
      "link": "https://animefire.plus/animes/appare-ranman-dublado-todos-os-episodios",
      "texto_original": "Appare-Ranman! (Dublado)",
      "rating": 7.29,
      "classificacao_etaria": "A14",
      "imagem_original": "https://animefire.plus/img/animes/appare-ranman.webp",
      "imagem_pasta": "https://animefire.plus/img/animes/appare-ranman/",
      "secao": "dublados,legendados",
      "pagina": 13,
      "total_episodios": 13,
      "link_video": "https://animefire.plus/video/appare-ranman-dublado"
    },
    {
      "id": 230,
      "nome": "Aria the Animation (Dublado)",
      "link": "https://animefire.plus/animes/aria-the-animation-dublado-todos-os-episodios",
      "texto_original": "Aria the Animation (Dublado)",
      "rating": 7.67,
      "classificacao_etaria": null,
      "imagem_original": "https://animefire.plus/img/animes/aria-the-animation.webp",
      "imagem_pasta": "https://animefire.plus/img/animes/aria-the-animation/",
      "secao": "dublados,legendados",
      "pagina": 3,
      "total_episodios": 13,
      "link_video": "https://animefire.plus/video/aria-the-animation-dublado"
    },
    {
      "id": 234,
      "nome": "Arifureta Shokugyou de Sekai Saikyou (Dublado)",
      "link": "https://animefire.plus/animes/arifureta-shokugyou-de-sekai-saikyou-dublado-todos-os-episodios",
      "texto_original": "Arifureta Shokugyou de Sekai Saikyou (Dublado)",
      "rating": 6.64,
      "classificacao_etaria": "A14",
      "imagem_original": "https://animefire.plus/img/animes/arifureta-shokugyou-de-sekai-saikyou.webp",
      "imagem_pasta": "https://animefire.plus/img/animes/arifureta-shokugyou-de-sekai-saikyou/",
      "secao": "dublados,legendados",
      "pagina": 13,
      "total_episodios": 13,
      "link_video": "https://animefire.plus/video/arifureta-shokugyou-de-sekai-saikyou-dublado"
    },
    {
      "id": 235,
      "nome": "Arifureta Shokugyou de Sekai Saikyou 2nd Season (Dublado)",
      "link": "https://animefire.plus/animes/arifureta-shokugyou-de-sekai-saikyou-2nd-season-dublado-todos-os-episodios",
      "texto_original": "Arifureta Shokugyou de Sekai Saikyou 2nd Season (Dublado)",
      "rating": 7.15,
      "classificacao_etaria": "A14",
      "imagem_original": "https://animefire.plus/img/animes/arifureta-shokugyou-de-sekai-saikyou-2nd-season.webp",
      "imagem_pasta": "https://animefire.plus/img/animes/arifureta-shokugyou-de-sekai-saikyou-2nd-season/",
      "secao": "dublados,legendados",
      "pagina": 12,
      "total_episodios": 12,
      "link_video": "https://animefire.plus/video/arifureta-shokugyou-de-sekai-saikyou-2nd-season-dublado"
    },
    {
      "id": 236,
      "nome": "Arifureta Shokugyou de Sekai Saikyou 2nd Season Special (Dublado)",
      "link": "https://animefire.plus/animes/arifureta-shokugyou-de-sekai-saikyou-2nd-season-special-dublado-todos-os-episodios",
      "texto_original": "Arifureta Shokugyou de Sekai Saikyou 2nd Season Special (Dublado)",
      "rating": 6.94,
      "classificacao_etaria": "A14",
      "imagem_original": "https://animefire.plus/img/animes/arifureta-shokugyou-de-sekai-saikyou-2nd-season-special.webp",
      "imagem_pasta": "https://animefire.plus/img/animes/arifureta-shokugyou-de-sekai-saikyou-2nd-season-special/",
      "secao": "dublados,legendados",
      "pagina": 11,
      "total_episodios": 1,
      "link_video": "https://animefire.plus/video/arifureta-shokugyou-de-sekai-saikyou-2nd-season-special-dublado"
    },
    {
      "id": 237,
      "nome": "Arifureta Shokugyou de Sekai Saikyou Season 3 (Dublado)",
      "link": "https://animefire.plus/animes/arifureta-shokugyou-de-sekai-saikyou-season-3-dublado-todos-os-episodios",
      "texto_original": "Arifureta Shokugyou de Sekai Saikyou Season 3 (Dublado)",
      "rating": 7.02,
      "classificacao_etaria": "A16",
      "imagem_original": "https://animefire.plus/img/animes/arifureta-shokugyou-de-sekai-saikyou-season-3.webp",
      "imagem_pasta": "https://animefire.plus/img/animes/arifureta-shokugyou-de-sekai-saikyou-season-3/",
      "secao": "dublados,legendados,lancamentos",
      "pagina": 2,
      "total_episodios": 16,
      "link_video": "https://animefire.plus/video/arifureta-shokugyou-de-sekai-saikyou-season-3-dublado"
    },
    {
      "id": 239,
      "nome": "Arifureta Shokugyou de Sekai Saikyou: Maboroshi no Bouken to Kiseki no Kaigou (Dublado)",
      "link": "https://animefire.plus/animes/arifureta-shokugyou-de-sekai-saikyou-maboroshi-no-bouken-to-kiseki-no-kaigou-dublado-todos-os-episodios",
      "texto_original": "Arifureta Shokugyou de Sekai Saikyou: Maboroshi no Bouken to Kiseki no Kaigou (Dublado)",
      "rating": 7.16,
      "classificacao_etaria": "A14",
      "imagem_original": "https://animefire.plus/img/animes/arifureta-shokugyou-de-sekai-saikyou-maboroshi-no-bouken-to-kiseki-no-kaigou.webp",
      "imagem_pasta": "https://animefire.plus/img/animes/arifureta-shokugyou-de-sekai-saikyou-maboroshi-no-bouken-to-kiseki-no-kaigou/",
      "secao": "dublados,legendados",
      "pagina": 7,
      "total_episodios": 2,
      "link_video": "https://animefire.plus/video/arifureta-shokugyou-de-sekai-saikyou-maboroshi-no-bouken-to-kiseki-no-kaigou-dublado"
    },
    {
      "id": 261,
      "nome": "Ashita no Nadja (Dublado)",
      "link": "https://animefire.plus/animes/ashita-no-nadja-dublado-todos-os-episodios",
      "texto_original": "Ashita no Nadja (Dublado)",
      "rating": 7.6,
      "classificacao_etaria": null,
      "imagem_original": "https://animefire.plus/img/animes/ashita-no-nadja.webp",
      "imagem_pasta": "https://animefire.plus/img/animes/ashita-no-nadja/",
      "secao": "dublados,legendados",
      "pagina": 22,
      "total_episodios": 50,
      "link_video": "https://animefire.plus/video/ashita-no-nadja-dublado"
    },
    {
      "id": 276,
      "nome": "Avatar: A Lenda de Korra Livro 1 (Dublado)",
      "link": "https://animefire.plus/animes/avatar-a-lenda-de-korra-livro-1-dublado-todos-os-episodios",
      "texto_original": "Avatar: A Lenda de Korra Livro 1 (Dublado)",
      "rating": 8.05,
      "classificacao_etaria": null,
      "imagem_original": "https://animefire.plus/img/animes/avatar-a-lenda-de-korra-livro-1-dublado.webp",
      "imagem_pasta": "https://animefire.plus/img/animes/avatar-a-lenda-de-korra-livro-1-dublado/",
      "secao": "dublados",
      "pagina": 27,
      "total_episodios": 12,
      "link_video": "https://animefire.plus/video/avatar-a-lenda-de-korra-livro-1-dublado"
    },
    {
      "id": 277,
      "nome": "Avatar: A Lenda de Korra Livro 2 (Dublado)",
      "link": "https://animefire.plus/animes/avatar-a-lenda-de-korra-livro-2-dublado-todos-os-episodios",
      "texto_original": "Avatar: A Lenda de Korra Livro 2 (Dublado)",
      "rating": 8.05,
      "classificacao_etaria": null,
      "imagem_original": "https://animefire.plus/img/animes/avatar-a-lenda-de-korra-livro-2-dublado.webp",
      "imagem_pasta": "https://animefire.plus/img/animes/avatar-a-lenda-de-korra-livro-2-dublado/",
      "secao": "dublados",
      "pagina": 27,
      "total_episodios": 0,
      "link_video": "https://animefire.plus/video/avatar-a-lenda-de-korra-livro-2-dublado"
    },
    {
      "id": 278,
      "nome": "Avatar: A Lenda de Korra Livro 3 (Dublado)",
      "link": "https://animefire.plus/animes/avatar-a-lenda-de-korra-livro-3-dublado-todos-os-episodios",
      "texto_original": "Avatar: A Lenda de Korra Livro 3 (Dublado)",
      "rating": 8.05,
      "classificacao_etaria": null,
      "imagem_original": "https://animefire.plus/img/animes/avatar-a-lenda-de-korra-livro-3-dublado.webp",
      "imagem_pasta": "https://animefire.plus/img/animes/avatar-a-lenda-de-korra-livro-3-dublado/",
      "secao": "dublados",
      "pagina": 27,
      "total_episodios": 0,
      "link_video": "https://animefire.plus/video/avatar-a-lenda-de-korra-livro-3-dublado"
    },
    {
      "id": 287,
      "nome": "Azur Lane (Dublado)",
      "link": "https://animefire.plus/animes/azur-lane-dublado-todos-os-episodios",
      "texto_original": "Azur Lane (Dublado)",
      "rating": 6.28,
      "classificacao_etaria": "A18",
      "imagem_original": "https://animefire.plus/img/animes/azur-lane.webp",
      "imagem_pasta": "https://animefire.plus/img/animes/azur-lane/",
      "secao": "dublados,legendados",
      "pagina": 18,
      "total_episodios": 12,
      "link_video": "https://animefire.plus/video/azur-lane-dublado"
    },
    {
      "id": 294,
      "nome": "B: The Beginning (Dublado)",
      "link": "https://animefire.plus/animes/b-the-beginning-dublado-todos-os-episodios",
      "texto_original": "B: The Beginning (Dublado)",
      "rating": 7.49,
      "classificacao_etaria": "A16",
      "imagem_original": "https://animefire.plus/img/animes/b-the-beginning.webp",
      "imagem_pasta": "https://animefire.plus/img/animes/b-the-beginning/",
      "secao": "dublados,legendados",
      "pagina": 24,
      "total_episodios": 12,
      "link_video": "https://animefire.plus/video/b-the-beginning-dublado"
    },
    {
      "id": 295,
      "nome": "B: The Beginning Succession (Dublado)",
      "link": "https://animefire.plus/animes/b-the-beginning-succession-dublado-todos-os-episodios",
      "texto_original": "B: The Beginning Succession (Dublado)",
      "rating": 6.2,
      "classificacao_etaria": "A18",
      "imagem_original": "https://animefire.plus/img/animes/b-the-beginning-succession.webp",
      "imagem_pasta": "https://animefire.plus/img/animes/b-the-beginning-succession/",
      "secao": "dublados,legendados",
      "pagina": 18,
      "total_episodios": 6,
      "link_video": "https://animefire.plus/video/b-the-beginning-succession-dublado"
    }
  ],
  "pagination": {
    "current_page": 2,
    "per_page": 20,
    "total_items": 656,
    "total_pages": 33,
    "has_next": true,
    "has_prev": true
  }
}
