{
  "message": "Animes da seção: dublados",
  "section": "dublados",
  "data": [
    {
      "id": 4224,
      "nome": "Yasuke (Dublado)",
      "link": "https://animefire.plus/animes/yasuke-dublado-todos-os-episodios",
      "texto_original": "Yasuke (Dublado)",
      "rating": 5.75,
      "classificacao_etaria": "A16",
      "imagem_original": "https://animefire.plus/img/animes/yasuke.webp",
      "imagem_pasta": "https://animefire.plus/img/animes/yasuke/",
      "secao": "dublados,legendados",
      "pagina": 18,
      "total_episodios": 6,
      "link_video": "https://animefire.plus/video/yasuke-dublado"
    },
    {
      "id": 4252,
      "nome": "Youjo Senki (Dublado)",
      "link": "https://animefire.plus/animes/youjo-senki-dublado-todos-os-episodios",
      "texto_original": "Youjo Senki (Dublado)",
      "rating": 8.11,
      "classificacao_etaria": "A16",
      "imagem_original": "https://animefire.plus/img/animes/youjo-senki.webp",
      "imagem_pasta": "https://animefire.plus/img/animes/youjo-senki/",
      "secao": "dublados,legendados",
      "pagina": 26,
      "total_episodios": 12,
      "link_video": "https://animefire.plus/video/youjo-senki-dublado"
    },
    {
      "id": 4259,
      "nome": "Youkoso Jitsuryoku Shijou Shugi no Kyoushitsu e (Dublado)",
      "link": "https://animefire.plus/animes/youkoso-jitsuryoku-shijou-shugi-no-kyoushitsu-e-dublado-todos-os-episodios",
      "texto_original": "Youkoso Jitsuryoku Shijou Shugi no Kyoushitsu e (Dublado)",
      "rating": 7.86,
      "classificacao_etaria": "A14",
      "imagem_original": "https://animefire.plus/img/animes/youkoso-jitsuryoku-shijou-shugi-no-kyoushitsu-e.webp",
      "imagem_pasta": "https://animefire.plus/img/animes/youkoso-jitsuryoku-shijou-shugi-no-kyoushitsu-e/",
      "secao": "dublados",
      "pagina": 10,
      "total_episodios": 12,
      "link_video": "https://animefire.plus/video/youkoso-jitsuryoku-shijou-shugi-no-kyoushitsu-e-dublado"
    },
    {
      "id": 4261,
      "nome": "Youkoso Jitsuryoku Shijou Shugi no Kyoushitsu e (TV) 2nd Season (Dublado)",
      "link": "https://animefire.plus/animes/youkoso-jitsuryoku-shijou-shugi-no-kyoushitsu-e-tv-2nd-season-dublado-todos-os-episodios",
      "texto_original": "Youkoso Jitsuryoku Shijou Shugi no Kyoushitsu e (TV) 2nd Season (Dublado)",
      "rating": 8.07,
      "classificacao_etaria": "A14",
      "imagem_original": "https://animefire.plus/img/animes/youkoso-jitsuryoku-shijou-shugi-no-kyoushitsu-e-tv-2nd-season.webp",
      "imagem_pasta": "https://animefire.plus/img/animes/youkoso-jitsuryoku-shijou-shugi-no-kyoushitsu-e-tv-2nd-season/",
      "secao": "dublados,legendados,lancamentos",
      "pagina": 10,
      "total_episodios": 13,
      "link_video": "https://animefire.plus/video/youkoso-jitsuryoku-shijou-shugi-no-kyoushitsu-e-tv-2nd-season-dublado"
    },
    {
      "id": 4262,
      "nome": "Youkoso Jitsuryoku Shijou Shugi no Kyoushitsu e 2nd Season (Dublado)",
      "link": "https://animefire.plus/animes/youkoso-jitsuryoku-shijou-shugi-no-kyoushitsu-e-2nd-season-dublado-todos-os-episodios",
      "texto_original": "Youkoso Jitsuryoku Shijou Shugi no Kyoushitsu e 2nd Season (Dublado)",
      "rating": 8.07,
      "classificacao_etaria": "A14",
      "imagem_original": "https://animefire.plus/img/animes/youkoso-jitsuryoku-shijou-shugi-no-kyoushitsu-e-2nd-season.webp",
      "imagem_pasta": "https://animefire.plus/img/animes/youkoso-jitsuryoku-shijou-shugi-no-kyoushitsu-e-2nd-season/",
      "secao": "dublados",
      "pagina": 8,
      "total_episodios": 13,
      "link_video": "https://animefire.plus/video/youkoso-jitsuryoku-shijou-shugi-no-kyoushitsu-e-2nd-season-dublado"
    },
    {
      "id": 4264,
      "nome": "Youkoso Jitsuryoku Shijou Shugi no Kyoushitsu e 3rd Season (Dublado)",
      "link": "https://animefire.plus/animes/youkoso-jitsuryoku-shijou-shugi-no-kyoushitsu-e-3-dublado-todos-os-episodios",
      "texto_original": "Youkoso Jitsuryoku Shijou Shugi no Kyoushitsu e 3rd Season (Dublado)",
      "rating": 7.95,
      "classificacao_etaria": "A14",
      "imagem_original": "https://animefire.plus/img/animes/youkoso-jitsuryoku-shijou-shugi-no-kyoushitsu-e-3.webp",
      "imagem_pasta": "https://animefire.plus/img/animes/youkoso-jitsuryoku-shijou-shugi-no-kyoushitsu-e-3/",
      "secao": "dublados,lancamentos",
      "pagina": 3,
      "total_episodios": 10,
      "link_video": "https://animefire.plus/video/youkoso-jitsuryoku-shijou-shugi-no-kyoushitsu-e-3-dublado"
    },
    {
      "id": 4279,
      "nome": "Yu☆Gi☆Oh! VRAINS (Dublado)",
      "link": "https://animefire.plus/animes/yu-gi-oh-vrains-dublado-todos-os-episodios",
      "texto_original": "Yu☆Gi☆Oh! VRAINS (Dublado)",
      "rating": 6.64,
      "classificacao_etaria": "A14",
      "imagem_original": "https://animefire.plus/img/animes/yu-gi-oh-vrains.webp",
      "imagem_pasta": "https://animefire.plus/img/animes/yu-gi-oh-vrains/",
      "secao": "dublados",
      "pagina": 18,
      "total_episodios": 2,
      "link_video": "https://animefire.plus/video/yu-gi-oh-vrains-dublado"
    },
    {
      "id": 4282,
      "nome": "Yu☆Gi☆Oh!: Duel Monsters GX (Dublado)",
      "link": "https://animefire.plus/animes/yu-gi-oh-duel-monsters-gx-dublado-todos-os-episodios",
      "texto_original": "Yu☆Gi☆Oh!: Duel Monsters GX (Dublado)",
      "rating": 7.23,
      "classificacao_etaria": "A14",
      "imagem_original": "https://animefire.plus/img/animes/yu-gi-oh-duel-monsters-gx.webp",
      "imagem_pasta": "https://animefire.plus/img/animes/yu-gi-oh-duel-monsters-gx/",
      "secao": "dublados",
      "pagina": 27,
      "total_episodios": 20,
      "link_video": "https://animefire.plus/video/yu-gi-oh-duel-monsters-gx-dublado"
    },
    {
      "id": 4300,
      "nome": "Yuru Camp△ (Dublado)",
      "link": "https://animefire.plus/animes/yuru-camp-dublado-todos-os-episodios",
      "texto_original": "Yuru Camp△ (Dublado)",
      "rating": 8.27,
      "classificacao_etaria": "A14",
      "imagem_original": "https://animefire.plus/img/animes/yuru-camp.webp",
      "imagem_pasta": "https://animefire.plus/img/animes/yuru-camp/",
      "secao": "dublados,legendados",
      "pagina": 11,
      "total_episodios": 12,
      "link_video": "https://animefire.plus/video/yuru-camp-dublado"
    },
    {
      "id": 4302,
      "nome": "Yuru Camp△ Season 3 (Dublado)",
      "link": "https://animefire.plus/animes/yuru-camp-season-3-dublado-todos-os-episodios",
      "texto_original": "Yuru Camp△ Season 3 (Dublado)",
      "rating": 8.02,
      "classificacao_etaria": "A14",
      "imagem_original": "https://animefire.plus/img/animes/yuru-camp-season-3.webp",
      "imagem_pasta": "https://animefire.plus/img/animes/yuru-camp-season-3/",
      "secao": "dublados,legendados,lancamentos",
      "pagina": 2,
      "total_episodios": 12,
      "link_video": "https://animefire.plus/video/yuru-camp-season-3-dublado"
    },
    {
      "id": 4308,
      "nome": "Yuu☆Yuu☆Hakusho (Dublado)",
      "link": "https://animefire.plus/animes/yuu-yuu-hakusho-dublado-todos-os-episodios",
      "texto_original": "Yuu☆Yuu☆Hakusho (Dublado)",
      "rating": 8.45,
      "classificacao_etaria": "A14",
      "imagem_original": "https://animefire.plus/img/animes/yuu-yuu-hakusho.webp",
      "imagem_pasta": "https://animefire.plus/img/animes/yuu-yuu-hakusho/",
      "secao": "dublados,legendados",
      "pagina": 21,
      "total_episodios": 112,
      "link_video": "https://animefire.plus/video/yuu-yuu-hakusho-dublado"
    },
    {
      "id": 4317,
      "nome": "Yuukoku no Moriarty (Dublado)",
      "link": "https://animefire.plus/animes/yuukoku-no-moriarty-dublado-todos-os-episodios",
      "texto_original": "Yuukoku no Moriarty (Dublado)",
      "rating": 8.12,
      "classificacao_etaria": "A16",
      "imagem_original": "https://animefire.plus/img/animes/yuukoku-no-moriarty.webp",
      "imagem_pasta": "https://animefire.plus/img/animes/yuukoku-no-moriarty/",
      "secao": "dublados,legendados",
      "pagina": 13,
      "total_episodios": 11,
      "link_video": "https://animefire.plus/video/yuukoku-no-moriarty-dublado"
    },
    {
      "id": 4319,
      "nome": "Yuukoku no Moriarty Part 2 (Dublado)",
      "link": "https://animefire.plus/animes/yuukoku-no-moriarty-part-2-dublado-todos-os-episodios",
      "texto_original": "Yuukoku no Moriarty Part 2 (Dublado)",
      "rating": 8.29,
      "classificacao_etaria": "A16",
      "imagem_original": "https://animefire.plus/img/animes/yuukoku-no-moriarty-part-2.webp",
      "imagem_pasta": "https://animefire.plus/img/animes/yuukoku-no-moriarty-part-2/",
      "secao": "dublados",
      "pagina": 8,
      "total_episodios": 13,
      "link_video": "https://animefire.plus/video/yuukoku-no-moriarty-part-2-dublado"
    },
    {
      "id": 4322,
      "nome": "Yuusha Party wo Tsuihou sareta Beast Tamer, Saikyoushu no Nekomimi Shoujo to Deau (Dublado)",
      "link": "https://animefire.plus/animes/yuusha-party-wo-tsuihou-sareta-beast-tamer-saikyoushu-no-nekomimi-shoujo-to-deau-dublado-todos-os-episodios",
      "texto_original": "Yuusha Party wo Tsuihou sareta Beast Tamer, Saikyoushu no Nekomimi Shoujo to Deau (Dublado)",
      "rating": 6.91,
      "classificacao_etaria": "A14",
      "imagem_original": "https://animefire.plus/img/animes/yuusha-party-wo-tsuihou-sareta-beast-tamer-saikyoushu-no-nekomimi-shoujo-to-deau.webp",
      "imagem_pasta": "https://animefire.plus/img/animes/yuusha-party-wo-tsuihou-sareta-beast-tamer-saikyoushu-no-nekomimi-shoujo-to-deau/",
      "secao": "dublados,legendados,lancamentos",
      "pagina": 9,
      "total_episodios": 13,
      "link_video": "https://animefire.plus/video/yuusha-party-wo-tsuihou-sareta-beast-tamer-saikyoushu-no-nekomimi-shoujo-to-deau-dublado"
    },
    {
      "id": 4343,
      "nome": "Zenshuu. (Dublado)",
      "link": "https://animefire.plus/animes/zenshuu-dublado-todos-os-episodios",
      "texto_original": "Zenshuu. (Dublado)",
      "rating": 7.59,
      "classificacao_etaria": "A14",
      "imagem_original": "https://animefire.plus/img/animes/zenshuu.webp",
      "imagem_pasta": "https://animefire.plus/img/animes/zenshuu/",
      "secao": "dublados,legendados,lancamentos",
      "pagina": 2,
      "total_episodios": 12,
      "link_video": "https://animefire.plus/video/zenshuu-dublado"
    },
    {
      "id": 4362,
      "nome": "Zom 100: Zombie ni Naru made ni Shitai 100 no Koto (Dublado)",
      "link": "https://animefire.plus/animes/zom-100-zombie-ni-naru-made-ni-shitai-100-no-koto-dublado-todos-os-episodios",
      "texto_original": "Zom 100: Zombie ni Naru made ni Shitai 100 no Koto (Dublado)",
      "rating": 7.73,
      "classificacao_etaria": "A16",
      "imagem_original": "https://animefire.plus/img/animes/zom-100-zombie-ni-naru-made-ni-shitai-100-no-koto.webp",
      "imagem_pasta": "https://animefire.plus/img/animes/zom-100-zombie-ni-naru-made-ni-shitai-100-no-koto/",
      "secao": "dublados,legendados",
      "pagina": 6,
      "total_episodios": 12,
      "link_video": "https://animefire.plus/video/zom-100-zombie-ni-naru-made-ni-shitai-100-no-koto-dublado"
    }
  ],
  "pagination": {
    "current_page": 33,
    "per_page": 20,
    "total_items": 656,
    "total_pages": 33,
    "has_next": false,
    "has_prev": true
  }
}
