{
  "message": "Animes da seção: dublados",
  "section": "dublados",
  "data": [
    {
      "id": 2879,
      "nome": "Ore dake Haireru Kakushi Dungeon (Dublado)",
      "link": "https://animefire.plus/animes/ore-dake-haireru-kakushi-dungeon-dublado-todos-os-episodios",
      "texto_original": "Ore dake Haireru Kakushi Dungeon (Dublado)",
      "rating": 6.28,
      "classificacao_etaria": "A14",
      "imagem_original": "https://animefire.plus/img/animes/ore-dake-haireru-kakushi-dungeon.webp",
      "imagem_pasta": "https://animefire.plus/img/animes/ore-dake-haireru-kakushi-dungeon/",
      "secao": "dublados,legendados",
      "pagina": 18,
      "total_episodios": 12,
      "link_video": "https://animefire.plus/video/ore-dake-haireru-kakushi-dungeon-dublado"
    },
    {
      "id": 2880,
      "nome": "Ore dake Level Up na Ken (Dublado)",
      "link": "https://animefire.plus/animes/ore-dake-level-up-na-ken-dublado-todos-os-episodios",
      "texto_original": "Ore dake Level Up na Ken (Dublado)",
      "rating": 8.24,
      "classificacao_etaria": "A16",
      "imagem_original": "https://animefire.plus/img/animes/ore-dake-level-up-na-ken.webp",
      "imagem_pasta": "https://animefire.plus/img/animes/ore-dake-level-up-na-ken/",
      "secao": "dublados,legendados",
      "pagina": 4,
      "total_episodios": 12,
      "link_video": "https://animefire.plus/video/ore-dake-level-up-na-ken-dublado"
    },
    {
      "id": 2881,
      "nome": "Ore dake Level Up na Ken Season 2: Arise from the Shadow (Dublado)",
      "link": "https://animefire.plus/animes/ore-dake-level-up-na-ken-season-2-arise-from-the-shadow-dublado-todos-os-episodios",
      "texto_original": "Ore dake Level Up na Ken Season 2: Arise from the Shadow (Dublado)",
      "rating": 8.68,
      "classificacao_etaria": "A16",
      "imagem_original": "https://animefire.plus/img/animes/ore-dake-level-up-na-ken-season-2-arise-from-the-shadow.webp",
      "imagem_pasta": "https://animefire.plus/img/animes/ore-dake-level-up-na-ken-season-2-arise-from-the-shadow/",
      "secao": "dublados,legendados",
      "pagina": 1,
      "total_episodios": 13,
      "link_video": "https://animefire.plus/video/ore-dake-level-up-na-ken-season-2-arise-from-the-shadow-dublado"
    },
    {
      "id": 2897,
      "nome": "Orient (Dublado)",
      "link": "https://animefire.plus/animes/orient-dublado-todos-os-episodios",
      "texto_original": "Orient (Dublado)",
      "rating": 6.61,
      "classificacao_etaria": "A14",
      "imagem_original": "https://animefire.plus/img/animes/orient.webp",
      "imagem_pasta": "https://animefire.plus/img/animes/orient/",
      "secao": "dublados,legendados",
      "pagina": 12,
      "total_episodios": 12,
      "link_video": "https://animefire.plus/video/orient-dublado"
    },
    {
      "id": 2923,
      "nome": "Otonari ni Ginga (Dublado)",
      "link": "https://animefire.plus/animes/otonari-ni-ginga-dublado-todos-os-episodios",
      "texto_original": "Otonari ni Ginga (Dublado)",
      "rating": 7.15,
      "classificacao_etaria": "A14",
      "imagem_original": "https://animefire.plus/img/animes/otonari-ni-ginga.webp",
      "imagem_pasta": "https://animefire.plus/img/animes/otonari-ni-ginga/",
      "secao": "dublados,legendados",
      "pagina": 6,
      "total_episodios": 12,
      "link_video": "https://animefire.plus/video/otonari-ni-ginga-dublado"
    },
    {
      "id": 2929,
      "nome": "Ousama Ranking (Dublado)",
      "link": "https://animefire.plus/animes/ousama-ranking-dublado-todos-os-episodios",
      "texto_original": "Ousama Ranking (Dublado)",
      "rating": 8.49,
      "classificacao_etaria": "A14",
      "imagem_original": "https://animefire.plus/img/animes/ousama-ranking.webp",
      "imagem_pasta": "https://animefire.plus/img/animes/ousama-ranking/",
      "secao": "dublados,legendados",
      "pagina": 14,
      "total_episodios": 23,
      "link_video": "https://animefire.plus/video/ousama-ranking-dublado"
    },
    {
      "id": 2933,
      "nome": "Overlord (Dublado)",
      "link": "https://animefire.plus/animes/overlord-dublado-todos-os-episodios",
      "texto_original": "Overlord (Dublado)",
      "rating": 7.98,
      "classificacao_etaria": "A16",
      "imagem_original": "https://animefire.plus/img/animes/overlord.webp",
      "imagem_pasta": "https://animefire.plus/img/animes/overlord/",
      "secao": "dublados,legendados",
      "pagina": 19,
      "total_episodios": 13,
      "link_video": "https://animefire.plus/video/overlord-dublado"
    },
    {
      "id": 2934,
      "nome": "Overlord II (Dublado)",
      "link": "https://animefire.plus/animes/overlord-ii-dublado-todos-os-episodios",
      "texto_original": "Overlord II (Dublado)",
      "rating": 7.8,
      "classificacao_etaria": "A16",
      "imagem_original": "https://animefire.plus/img/animes/overlord-ii.webp",
      "imagem_pasta": "https://animefire.plus/img/animes/overlord-ii/",
      "secao": "dublados,legendados",
      "pagina": 19,
      "total_episodios": 13,
      "link_video": "https://animefire.plus/video/overlord-ii-dublado"
    },
    {
      "id": 2935,
      "nome": "Overlord III (Dublado)",
      "link": "https://animefire.plus/animes/overlord-iii-dublado-todos-os-episodios",
      "texto_original": "Overlord III (Dublado)",
      "rating": 7.98,
      "classificacao_etaria": "A16",
      "imagem_original": "https://animefire.plus/img/animes/overlord-iii.webp",
      "imagem_pasta": "https://animefire.plus/img/animes/overlord-iii/",
      "secao": "dublados,legendados",
      "pagina": 19,
      "total_episodios": 13,
      "link_video": "https://animefire.plus/video/overlord-iii-dublado"
    },
    {
      "id": 2936,
      "nome": "Overlord IV (Dublado)",
      "link": "https://animefire.plus/animes/overlord-iv-dublado-todos-os-episodios",
      "texto_original": "Overlord IV (Dublado)",
      "rating": 8.07,
      "classificacao_etaria": "A16",
      "imagem_original": "https://animefire.plus/img/animes/overlord-iv.webp",
      "imagem_pasta": "https://animefire.plus/img/animes/overlord-iv/",
      "secao": "dublados,legendados",
      "pagina": 10,
      "total_episodios": 13,
      "link_video": "https://animefire.plus/video/overlord-iv-dublado"
    },
    {
      "id": 2939,
      "nome": "Owari no Seraph (Dublado)",
      "link": "https://animefire.plus/animes/owari-no-seraph-dublado-todos-os-episodios",
      "texto_original": "Owari no Seraph (Dublado)",
      "rating": 7.49,
      "classificacao_etaria": "A16",
      "imagem_original": "https://animefire.plus/img/animes/owari-no-seraph.webp",
      "imagem_pasta": "https://animefire.plus/img/animes/owari-no-seraph/",
      "secao": "dublados,legendados",
      "pagina": 15,
      "total_episodios": 12,
      "link_video": "https://animefire.plus/video/owari-no-seraph-dublado"
    },
    {
      "id": 2941,
      "nome": "Owari no Seraph: Nagoya Kessen-hen (Dublado)",
      "link": "https://animefire.plus/animes/owari-no-seraph-nagoya-kessen-hen-dublado-todos-os-episodios",
      "texto_original": "Owari no Seraph: Nagoya Kessen-hen (Dublado)",
      "rating": 7.63,
      "classificacao_etaria": "A16",
      "imagem_original": "https://animefire.plus/img/animes/owari-no-seraph-nagoya-kessen-hen.webp",
      "imagem_pasta": "https://animefire.plus/img/animes/owari-no-seraph-nagoya-kessen-hen/",
      "secao": "dublados,legendados",
      "pagina": 15,
      "total_episodios": 12,
      "link_video": "https://animefire.plus/video/owari-no-seraph-nagoya-kessen-hen-dublado"
    },
    {
      "id": 2955,
      "nome": "Party kara Tsuihou sareta Sono Chiyushi, Jitsu wa Saikyou ni Tsuki (Dublado)",
      "link": "https://animefire.plus/animes/party-kara-tsuihou-sareta-sono-chiyushi-jitsu-wa-saikyou-ni-tsuki-dublado-todos-os-episodios",
      "texto_original": "Party kara Tsuihou sareta Sono Chiyushi, Jitsu wa Saikyou ni Tsuki (Dublado)",
      "rating": 5.7,
      "classificacao_etaria": "A14",
      "imagem_original": "https://animefire.plus/img/animes/party-kara-tsuihou-sareta-sono-chiyushi-jitsu-wa-saikyou-ni-tsuki.webp",
      "imagem_pasta": "https://animefire.plus/img/animes/party-kara-tsuihou-sareta-sono-chiyushi-jitsu-wa-saikyou-ni-tsuki/",
      "secao": "dublados,legendados,lancamentos",
      "pagina": 2,
      "total_episodios": 12,
      "link_video": "https://animefire.plus/video/party-kara-tsuihou-sareta-sono-chiyushi-jitsu-wa-saikyou-ni-tsuki-dublado"
    },
    {
      "id": 2982,
      "nome": "Piano no Mori (TV) (Dublado)",
      "link": "https://animefire.plus/animes/piano-no-mori-tv-dublado-todos-os-episodios",
      "texto_original": "Piano no Mori (TV) (Dublado)",
      "rating": 7.41,
      "classificacao_etaria": "A14",
      "imagem_original": "https://animefire.plus/img/animes/piano-no-mori-tv.webp",
      "imagem_pasta": "https://animefire.plus/img/animes/piano-no-mori-tv/",
      "secao": "dublados,legendados",
      "pagina": 24,
      "total_episodios": 12,
      "link_video": "https://animefire.plus/video/piano-no-mori-tv-dublado"
    },
    {
      "id": 2983,
      "nome": "Piano no Mori (TV) 2nd Season (Dublado)",
      "link": "https://animefire.plus/animes/piano-no-mori-tv-2nd-season-dublado-todos-os-episodios",
      "texto_original": "Piano no Mori (TV) 2nd Season (Dublado)",
      "rating": 7.4,
      "classificacao_etaria": "A14",
      "imagem_original": "https://animefire.plus/img/animes/piano-no-mori-tv-2nd-season.webp",
      "imagem_pasta": "https://animefire.plus/img/animes/piano-no-mori-tv-2nd-season/",
      "secao": "dublados,legendados",
      "pagina": 23,
      "total_episodios": 12,
      "link_video": "https://animefire.plus/video/piano-no-mori-tv-2nd-season-dublado"
    },
    {
      "id": 2993,
      "nome": "Platinum End (Dublado)",
      "link": "https://animefire.plus/animes/platinum-end-dublado-todos-os-episodios",
      "texto_original": "Platinum End (Dublado)",
      "rating": 6.02,
      "classificacao_etaria": "A16",
      "imagem_original": "https://animefire.plus/img/animes/platinum-end.webp",
      "imagem_pasta": "https://animefire.plus/img/animes/platinum-end/",
      "secao": "dublados,legendados",
      "pagina": 14,
      "total_episodios": 24,
      "link_video": "https://animefire.plus/video/platinum-end-dublado"
    },
    {
      "id": 2994,
      "nome": "Plunderer (Dublado)",
      "link": "https://animefire.plus/animes/plunderer-dublado-todos-os-episodios",
      "texto_original": "Plunderer (Dublado)",
      "rating": 6.56,
      "classificacao_etaria": "A14",
      "imagem_original": "https://animefire.plus/img/animes/plunderer.webp",
      "imagem_pasta": "https://animefire.plus/img/animes/plunderer/",
      "secao": "dublados,legendados",
      "pagina": 14,
      "total_episodios": 24,
      "link_video": "https://animefire.plus/video/plunderer-dublado"
    },
    {
      "id": 2995,
      "nome": "Pluto (Dublado)",
      "link": "https://animefire.plus/animes/pluto-dublado-todos-os-episodios",
      "texto_original": "Pluto (Dublado)",
      "rating": 8.45,
      "classificacao_etaria": "A14",
      "imagem_original": "https://animefire.plus/img/animes/pluto.webp",
      "imagem_pasta": "https://animefire.plus/img/animes/pluto/",
      "secao": "dublados,legendados",
      "pagina": 5,
      "total_episodios": 8,
      "link_video": "https://animefire.plus/video/pluto-dublado"
    },
    {
      "id": 2996,
      "nome": "Pokemon (2019) (Dublado)",
      "link": "https://animefire.plus/animes/pokemon-2019-dublado-todos-os-episodios",
      "texto_original": "Pokemon (2019) (Dublado)",
      "rating": 7.21,
      "classificacao_etaria": "A10",
      "imagem_original": "https://animefire.plus/img/animes/pokemon-2019.webp",
      "imagem_pasta": "https://animefire.plus/img/animes/pokemon-2019/",
      "secao": "dublados,legendados",
      "pagina": 17,
      "total_episodios": 76,
      "link_video": "https://animefire.plus/video/pokemon-2019-dublado"
    },
    {
      "id": 2997,
      "nome": "Pokemon (2019): Harukanaru Aoi Sora (Dublado)",
      "link": "https://animefire.plus/animes/pokemon-2019-harukanaru-aoi-sora-dublado-todos-os-episodios",
      "texto_original": "Pokemon (2019): Harukanaru Aoi Sora (Dublado)",
      "rating": 7.26,
      "classificacao_etaria": "A10",
      "imagem_original": "https://animefire.plus/img/animes/pokemon-2019-harukanaru-aoi-sora.webp",
      "imagem_pasta": "https://animefire.plus/img/animes/pokemon-2019-harukanaru-aoi-sora/",
      "secao": "dublados",
      "pagina": 3,
      "total_episodios": 1,
      "link_video": "https://animefire.plus/video/pokemon-2019-harukanaru-aoi-sora-dublado"
    }
  ],
  "pagination": {
    "current_page": 22,
    "per_page": 20,
    "total_items": 656,
    "total_pages": 33,
    "has_next": true,
    "has_prev": true
  }
}
