{
  "message": "Animes da seção: dublados",
  "section": "dublados",
  "data": [
    {
      "id": 3243,
      "nome": "Samurai Champloo (Dublado)",
      "link": "https://animefire.plus/animes/samurai-champloo-dublado-todos-os-episodios",
      "texto_original": "Samurai Champloo (Dublado)",
      "rating": 8.5,
      "classificacao_etaria": "A16",
      "imagem_original": "https://animefire.plus/img/animes/samurai-champloo.webp",
      "imagem_pasta": "https://animefire.plus/img/animes/samurai-champloo/",
      "secao": "dublados,legendados",
      "pagina": 25,
      "total_episodios": 26,
      "link_video": "https://animefire.plus/video/samurai-champloo-dublado"
    },
    {
      "id": 3259,
      "nome": "Sasaki to Miyano (Dublado)",
      "link": "https://animefire.plus/animes/sasaki-to-miyano-dublado-todos-os-episodios",
      "texto_original": "Sasaki to Miyano (Dublado)",
      "rating": 8.19,
      "classificacao_etaria": "A14",
      "imagem_original": "https://animefire.plus/img/animes/sasaki-to-miyano.webp",
      "imagem_pasta": "https://animefire.plus/img/animes/sasaki-to-miyano/",
      "secao": "dublados,legendados",
      "pagina": 9,
      "total_episodios": 13,
      "link_video": "https://animefire.plus/video/sasaki-to-miyano-dublado"
    },
    {
      "id": 3273,
      "nome": "Scarlet Nexus (Dublado)",
      "link": "https://animefire.plus/animes/scarlet-nexus-dublado-todos-os-episodios",
      "texto_original": "Scarlet Nexus (Dublado)",
      "rating": 5.72,
      "classificacao_etaria": "A14",
      "imagem_original": "https://animefire.plus/img/animes/scarlet-nexus.webp",
      "imagem_pasta": "https://animefire.plus/img/animes/scarlet-nexus/",
      "secao": "dublados,legendados",
      "pagina": 16,
      "total_episodios": 26,
      "link_video": "https://animefire.plus/video/scarlet-nexus-dublado"
    },
    {
      "id": 3279,
      "nome": "Schwarzesmarken (Dublado)",
      "link": "https://animefire.plus/animes/schwarzesmarken-dublado-todos-os-episodios",
      "texto_original": "Schwarzesmarken (Dublado)",
      "rating": 6.85,
      "classificacao_etaria": "A16",
      "imagem_original": "https://animefire.plus/img/animes/schwarzesmarken.webp",
      "imagem_pasta": "https://animefire.plus/img/animes/schwarzesmarken/",
      "secao": "dublados,legendados",
      "pagina": 23,
      "total_episodios": 12,
      "link_video": "https://animefire.plus/video/schwarzesmarken-dublado"
    },
    {
      "id": 3286,
      "nome": "Seijo no Maryoku wa Bannou Desu (Dublado)",
      "link": "https://animefire.plus/animes/seijo-no-maryoku-wa-bannou-desu-dublado-todos-os-episodios",
      "texto_original": "Seijo no Maryoku wa Bannou Desu (Dublado)",
      "rating": 7.31,
      "classificacao_etaria": "A14",
      "imagem_original": "https://animefire.plus/img/animes/seijo-no-maryoku-wa-bannou-desu.webp",
      "imagem_pasta": "https://animefire.plus/img/animes/seijo-no-maryoku-wa-bannou-desu/",
      "secao": "dublados,legendados",
      "pagina": 14,
      "total_episodios": 12,
      "link_video": "https://animefire.plus/video/seijo-no-maryoku-wa-bannou-desu-dublado"
    },
    {
      "id": 3300,
      "nome": "Seirei Gensouki (Dublado)",
      "link": "https://animefire.plus/animes/seirei-gensouki-dublado-todos-os-episodios",
      "texto_original": "Seirei Gensouki (Dublado)",
      "rating": 7.07,
      "classificacao_etaria": "A14",
      "imagem_original": "https://animefire.plus/img/animes/seirei-gensouki.webp",
      "imagem_pasta": "https://animefire.plus/img/animes/seirei-gensouki/",
      "secao": "dublados,legendados",
      "pagina": 13,
      "total_episodios": 12,
      "link_video": "https://animefire.plus/video/seirei-gensouki-dublado"
    },
    {
      "id": 3301,
      "nome": "Seirei Gensouki 2 (Dublado)",
      "link": "https://animefire.plus/animes/seirei-gensouki-2-dublado-todos-os-episodios",
      "texto_original": "Seirei Gensouki 2 (Dublado)",
      "rating": 6.87,
      "classificacao_etaria": "A14",
      "imagem_original": "https://animefire.plus/img/animes/seirei-gensouki-2.webp",
      "imagem_pasta": "https://animefire.plus/img/animes/seirei-gensouki-2/",
      "secao": "dublados,legendados,lancamentos",
      "pagina": 2,
      "total_episodios": 12,
      "link_video": "https://animefire.plus/video/seirei-gensouki-2-dublado"
    },
    {
      "id": 3318,
      "nome": "Sekai Saikou no Ansatsusha, Isekai Kizoku ni Tensei suru (Dublado)",
      "link": "https://animefire.plus/animes/sekai-saikou-no-ansatsusha-isekai-kizoku-ni-tensei-suru-dublado-todos-os-episodios",
      "texto_original": "Sekai Saikou no Ansatsusha, Isekai Kizoku ni Tensei suru (Dublado)",
      "rating": 7.33,
      "classificacao_etaria": "A14",
      "imagem_original": "https://animefire.plus/img/animes/sekai-saikou-no-ansatsusha-isekai-kizoku-ni-tensei-suru.webp",
      "imagem_pasta": "https://animefire.plus/img/animes/sekai-saikou-no-ansatsusha-isekai-kizoku-ni-tensei-suru/",
      "secao": "dublados,legendados",
      "pagina": 14,
      "total_episodios": 12,
      "link_video": "https://animefire.plus/video/sekai-saikou-no-ansatsusha-isekai-kizoku-ni-tensei-suru-dublado"
    },
    {
      "id": 3356,
      "nome": "Sentouin, Hakenshimasu! (Dublado)",
      "link": "https://animefire.plus/animes/sentouin-hakenshimasu-dublado-todos-os-episodios",
      "texto_original": "Sentouin, Hakenshimasu! (Dublado)",
      "rating": 7.14,
      "classificacao_etaria": "A14",
      "imagem_original": "https://animefire.plus/img/animes/sentouin-hakenshimasu.webp",
      "imagem_pasta": "https://animefire.plus/img/animes/sentouin-hakenshimasu/",
      "secao": "dublados,legendados",
      "pagina": 17,
      "total_episodios": 12,
      "link_video": "https://animefire.plus/video/sentouin-hakenshimasu-dublado"
    },
    {
      "id": 3361,
      "nome": "Serial Experiments Lain (Dublado)",
      "link": "https://animefire.plus/animes/serial-experiments-lain-dublado-todos-os-episodios",
      "texto_original": "Serial Experiments Lain (Dublado)",
      "rating": 8.01,
      "classificacao_etaria": "A16",
      "imagem_original": "https://animefire.plus/img/animes/serial-experiments-lain.webp",
      "imagem_pasta": "https://animefire.plus/img/animes/serial-experiments-lain/",
      "secao": "dublados,legendados",
      "pagina": 25,
      "total_episodios": 13,
      "link_video": "https://animefire.plus/video/serial-experiments-lain-dublado"
    },
    {
      "id": 3371,
      "nome": "Shadows House (Dublado)",
      "link": "https://animefire.plus/animes/shadows-house-dublado-todos-os-episodios",
      "texto_original": "Shadows House (Dublado)",
      "rating": 7.8,
      "classificacao_etaria": "A14",
      "imagem_original": "https://animefire.plus/img/animes/shadows-house.webp",
      "imagem_pasta": "https://animefire.plus/img/animes/shadows-house/",
      "secao": "dublados,legendados",
      "pagina": 13,
      "total_episodios": 13,
      "link_video": "https://animefire.plus/video/shadows-house-dublado"
    },
    {
      "id": 3372,
      "nome": "Shadows House 2nd Season (Dublado)",
      "link": "https://animefire.plus/animes/shadows-house-2nd-season-dublado-todos-os-episodios",
      "texto_original": "Shadows House 2nd Season (Dublado)",
      "rating": 8.01,
      "classificacao_etaria": "A14",
      "imagem_original": "https://animefire.plus/img/animes/shadows-house-2nd-season.webp",
      "imagem_pasta": "https://animefire.plus/img/animes/shadows-house-2nd-season/",
      "secao": "dublados,legendados",
      "pagina": 10,
      "total_episodios": 12,
      "link_video": "https://animefire.plus/video/shadows-house-2nd-season-dublado"
    },
    {
      "id": 3383,
      "nome": "Shaman King (2021) (Dublado)",
      "link": "https://animefire.plus/animes/shaman-king-2021-dublado-todos-os-episodios",
      "texto_original": "Shaman King (2021) (Dublado)",
      "rating": 6.9,
      "classificacao_etaria": "A14",
      "imagem_original": "https://animefire.plus/img/animes/shaman-king-2021.webp",
      "imagem_pasta": "https://animefire.plus/img/animes/shaman-king-2021/",
      "secao": "dublados,legendados",
      "pagina": 16,
      "total_episodios": 52,
      "link_video": "https://animefire.plus/video/shaman-king-2021-dublado"
    },
    {
      "id": 3384,
      "nome": "Shaman King (Dublado)",
      "link": "https://animefire.plus/animes/shaman-king-dublado-todos-os-episodios",
      "texto_original": "Shaman King (Dublado)",
      "rating": 7.79,
      "classificacao_etaria": "A14",
      "imagem_original": "https://animefire.plus/img/animes/shaman-king.webp",
      "imagem_pasta": "https://animefire.plus/img/animes/shaman-king/",
      "secao": "dublados,legendados",
      "pagina": 22,
      "total_episodios": 64,
      "link_video": "https://animefire.plus/video/shaman-king-dublado"
    },
    {
      "id": 3385,
      "nome": "Shaman King: Flowers (Dublado)",
      "link": "https://animefire.plus/animes/shaman-king-flowers-dublado-todos-os-episodios",
      "texto_original": "Shaman King: Flowers (Dublado)",
      "rating": 6.57,
      "classificacao_etaria": "A14",
      "imagem_original": "https://animefire.plus/img/animes/shaman-king-flowers.webp",
      "imagem_pasta": "https://animefire.plus/img/animes/shaman-king-flowers/",
      "secao": "dublados,legendados,lancamentos",
      "pagina": 3,
      "total_episodios": 12,
      "link_video": "https://animefire.plus/video/shaman-king-flowers-dublado"
    },
    {
      "id": 3387,
      "nome": "Shangri-La Frontier: Kusoge Hunter, Kamige ni Idoman to su (Dublado)",
      "link": "https://animefire.plus/animes/shangri-la-frontier-kusoge-hunter-kamige-ni-idoman-to-su-dublado-todos-os-episodios",
      "texto_original": "Shangri-La Frontier: Kusoge Hunter, Kamige ni Idoman to su (Dublado)",
      "rating": 8.1,
      "classificacao_etaria": "A14",
      "imagem_original": "https://animefire.plus/img/animes/shangri-la-frontier-kusoge-hunter-kamige-ni-idoman-to-su.webp",
      "imagem_pasta": "https://animefire.plus/img/animes/shangri-la-frontier-kusoge-hunter-kamige-ni-idoman-to-su/",
      "secao": "dublados,legendados",
      "pagina": 3,
      "total_episodios": 25,
      "link_video": "https://animefire.plus/video/shangri-la-frontier-kusoge-hunter-kamige-ni-idoman-to-su-dublado"
    },
    {
      "id": 3388,
      "nome": "Shangri-La Frontier: Kusoge Hunter, Kamige ni Idoman to su 2nd Season (Dublado)",
      "link": "https://animefire.plus/animes/shangri-la-frontier-kusoge-hunter-kamige-ni-idoman-to-su-2nd-season-dublado-todos-os-episodios",
      "texto_original": "Shangri-La Frontier: Kusoge Hunter, Kamige ni Idoman to su 2nd Season (Dublado)",
      "rating": 8.27,
      "classificacao_etaria": "A14",
      "imagem_original": "https://animefire.plus/img/animes/shangri-la-frontier-kusoge-hunter-kamige-ni-idoman-to-su-2nd-season.webp",
      "imagem_pasta": "https://animefire.plus/img/animes/shangri-la-frontier-kusoge-hunter-kamige-ni-idoman-to-su-2nd-season/",
      "secao": "dublados,legendados,lancamentos",
      "pagina": 2,
      "total_episodios": 25,
      "link_video": "https://animefire.plus/video/shangri-la-frontier-kusoge-hunter-kamige-ni-idoman-to-su-2nd-season-dublado"
    },
    {
      "id": 3404,
      "nome": "Shijou Saikyou no Daimaou, Murabito A ni Tensei suru (Dublado)",
      "link": "https://animefire.plus/animes/shijou-saikyou-no-daimaou-murabito-a-ni-tensei-suru-dublado-todos-os-episodios",
      "texto_original": "Shijou Saikyou no Daimaou, Murabito A ni Tensei suru (Dublado)",
      "rating": 6.29,
      "classificacao_etaria": "A14",
      "imagem_original": "https://animefire.plus/img/animes/shijou-saikyou-no-daimaou-murabito-a-ni-tensei-suru.webp",
      "imagem_pasta": "https://animefire.plus/img/animes/shijou-saikyou-no-daimaou-murabito-a-ni-tensei-suru/",
      "secao": "dublados,legendados",
      "pagina": 11,
      "total_episodios": 12,
      "link_video": "https://animefire.plus/video/shijou-saikyou-no-daimaou-murabito-a-ni-tensei-suru-dublado"
    },
    {
      "id": 3405,
      "nome": "Shijou Saikyou no Deshi Kenichi (Dublado)",
      "link": "https://animefire.plus/animes/shijou-saikyou-no-deshi-kenichi-dublado-todos-os-episodios",
      "texto_original": "Shijou Saikyou no Deshi Kenichi (Dublado)",
      "rating": 8.05,
      "classificacao_etaria": "A14",
      "imagem_original": "https://animefire.plus/img/animes/shijou-saikyou-no-deshi-kenichi.webp",
      "imagem_pasta": "https://animefire.plus/img/animes/shijou-saikyou-no-deshi-kenichi/",
      "secao": "dublados,legendados",
      "pagina": 3,
      "total_episodios": 41,
      "link_video": "https://animefire.plus/video/shijou-saikyou-no-deshi-kenichi-dublado"
    },
    {
      "id": 3409,
      "nome": "Shikanoko Nokonoko Koshitantan (Dublado)",
      "link": "https://animefire.plus/animes/shikanoko-nokonoko-koshitantan-dublado-todos-os-episodios",
      "texto_original": "Shikanoko Nokonoko Koshitantan (Dublado)",
      "rating": 6.98,
      "classificacao_etaria": "A14",
      "imagem_original": "https://animefire.plus/img/animes/shikanoko-nokonoko-koshitantan.webp",
      "imagem_pasta": "https://animefire.plus/img/animes/shikanoko-nokonoko-koshitantan/",
      "secao": "dublados,legendados,lancamentos",
      "pagina": 2,
      "total_episodios": 12,
      "link_video": "https://animefire.plus/video/shikanoko-nokonoko-koshitantan-dublado"
    }
  ],
  "pagination": {
    "current_page": 25,
    "per_page": 20,
    "total_items": 656,
    "total_pages": 33,
    "has_next": true,
    "has_prev": true
  }
}
