{
  "message": "Animes da seção: dublados",
  "section": "dublados",
  "data": [
    {
      "id": 2624,
      "nome": "Mushoku Tensei II: Isekai Ittara Honki Dasu - Shugo Jutsushi Fitz (Dublado)",
      "link": "https://animefire.plus/animes/mushoku-tensei-ii-isekai-ittara-honki-dasu---shugo-jutsushi-fitz-dublado-todos-os-episodios",
      "texto_original": "Mushoku Tensei II: Isekai Ittara Honki Dasu - Shugo Jutsushi Fitz (Dublado)",
      "rating": 7.54,
      "classificacao_etaria": "A16",
      "imagem_original": "https://animefire.plus/img/animes/mushoku-tensei-ii-isekai-ittara-honki-dasu---shugo-jutsushi-fitz.webp",
      "imagem_pasta": "https://animefire.plus/img/animes/mushoku-tensei-ii-isekai-ittara-honki-dasu---shugo-jutsushi-fitz/",
      "secao": "dublados",
      "pagina": 6,
      "total_episodios": 0,
      "link_video": "https://animefire.plus/video/mushoku-tensei-ii-isekai-ittara-honki-dasu---shugo-jutsushi-fitz-dublado"
    },
    {
      "id": 2625,
      "nome": "Mushoku Tensei II: Isekai Ittara Honki Dasu (Dublado)",
      "link": "https://animefire.plus/animes/mushoku-tensei-ii-isekai-ittara-honki-dasu-dublado-todos-os-episodios",
      "texto_original": "Mushoku Tensei II: Isekai Ittara Honki Dasu (Dublado)",
      "rating": 8.22,
      "classificacao_etaria": "A16",
      "imagem_original": "https://animefire.plus/img/animes/mushoku-tensei-ii-isekai-ittara-honki-dasu.webp",
      "imagem_pasta": "https://animefire.plus/img/animes/mushoku-tensei-ii-isekai-ittara-honki-dasu/",
      "secao": "dublados",
      "pagina": 6,
      "total_episodios": 12,
      "link_video": "https://animefire.plus/video/mushoku-tensei-ii-isekai-ittara-honki-dasu-dublado"
    },
    {
      "id": 2627,
      "nome": "Mushoku Tensei: Isekai Ittara Honki Dasu (Dublado)",
      "link": "https://animefire.plus/animes/mushoku-tensei-isekai-ittara-honki-dasu-dublado-todos-os-episodios",
      "texto_original": "Mushoku Tensei: Isekai Ittara Honki Dasu (Dublado)",
      "rating": 8.35,
      "classificacao_etaria": "A16",
      "imagem_original": "https://animefire.plus/img/animes/mushoku-tensei-isekai-ittara-honki-dasu.webp",
      "imagem_pasta": "https://animefire.plus/img/animes/mushoku-tensei-isekai-ittara-honki-dasu/",
      "secao": "dublados,legendados",
      "pagina": 16,
      "total_episodios": 11,
      "link_video": "https://animefire.plus/video/mushoku-tensei-isekai-ittara-honki-dasu-dublado"
    },
    {
      "id": 2628,
      "nome": "Mushoku Tensei: Isekai Ittara Honki Dasu 2nd Season (Dublado)",
      "link": "https://animefire.plus/animes/mushoku-tensei-isekai-ittara-honki-dasu-2nd-season-dublado-todos-os-episodios",
      "texto_original": "Mushoku Tensei: Isekai Ittara Honki Dasu 2nd Season (Dublado)",
      "rating": 8.63,
      "classificacao_etaria": "A16",
      "imagem_original": "https://animefire.plus/img/animes/mushoku-tensei-isekai-ittara-honki-dasu-2nd-season.webp",
      "imagem_pasta": "https://animefire.plus/img/animes/mushoku-tensei-isekai-ittara-honki-dasu-2nd-season/",
      "secao": "dublados,legendados",
      "pagina": 14,
      "total_episodios": 12,
      "link_video": "https://animefire.plus/video/mushoku-tensei-isekai-ittara-honki-dasu-2nd-season-dublado"
    },
    {
      "id": 2629,
      "nome": "Mushoku Tensei: Isekai Ittara Honki Dasu Special (Dublado)",
      "link": "https://animefire.plus/animes/mushoku-tensei-isekai-ittara-honki-dasu-special-dublado-todos-os-episodios",
      "texto_original": "Mushoku Tensei: Isekai Ittara Honki Dasu Special (Dublado)",
      "rating": 7.79,
      "classificacao_etaria": "A16",
      "imagem_original": "https://animefire.plus/img/animes/mushoku-tensei-isekai-ittara-honki-dasu-special.webp",
      "imagem_pasta": "https://animefire.plus/img/animes/mushoku-tensei-isekai-ittara-honki-dasu-special/",
      "secao": "dublados,legendados",
      "pagina": 10,
      "total_episodios": 1,
      "link_video": "https://animefire.plus/video/mushoku-tensei-isekai-ittara-honki-dasu-special-dublado"
    },
    {
      "id": 2636,
      "nome": "Muv-Luv Alternative: Total Eclipse (Dublado)",
      "link": "https://animefire.plus/animes/muv-luv-alternative-total-eclipse-dublado-todos-os-episodios",
      "texto_original": "Muv-Luv Alternative: Total Eclipse (Dublado)",
      "rating": 7.09,
      "classificacao_etaria": "A18",
      "imagem_original": "https://animefire.plus/img/animes/muv-luv-alternative-total-eclipse.webp",
      "imagem_pasta": "https://animefire.plus/img/animes/muv-luv-alternative-total-eclipse/",
      "secao": "dublados,legendados",
      "pagina": 4,
      "total_episodios": 24,
      "link_video": "https://animefire.plus/video/muv-luv-alternative-total-eclipse-dublado"
    },
    {
      "id": 2658,
      "nome": "Nanatsu no Taizai (Dublado)",
      "link": "https://animefire.plus/animes/nanatsu-no-taizai-dublado-todos-os-episodios",
      "texto_original": "Nanatsu no Taizai (Dublado)",
      "rating": 8.18,
      "classificacao_etaria": "A14",
      "imagem_original": "https://animefire.plus/img/animes/nanatsu-no-taizai.webp",
      "imagem_pasta": "https://animefire.plus/img/animes/nanatsu-no-taizai/",
      "secao": "dublados,legendados",
      "pagina": 26,
      "total_episodios": 24,
      "link_video": "https://animefire.plus/video/nanatsu-no-taizai-dublado"
    },
    {
      "id": 2662,
      "nome": "Nanatsu no Taizai: Ensa no Edinburgh (Dublado)",
      "link": "https://animefire.plus/animes/nanatsu-no-taizai-ensa-no-edinburgh-dublado-todos-os-episodios",
      "texto_original": "Nanatsu no Taizai: Ensa no Edinburgh (Dublado)",
      "rating": 6.21,
      "classificacao_etaria": "A14",
      "imagem_original": "https://animefire.plus/img/animes/nanatsu-no-taizai-ensa-no-edinburgh.webp",
      "imagem_pasta": "https://animefire.plus/img/animes/nanatsu-no-taizai-ensa-no-edinburgh/",
      "secao": "dublados,legendados",
      "pagina": 8,
      "total_episodios": 1,
      "link_video": "https://animefire.plus/video/nanatsu-no-taizai-ensa-no-edinburgh-dublado"
    },
    {
      "id": 2663,
      "nome": "Nanatsu no Taizai: Ensa no Edinburgh Part 2 (Dublado)",
      "link": "https://animefire.plus/animes/nanatsu-no-taizai-ensa-no-edinburgh-part-2-dublado-todos-os-episodios",
      "texto_original": "Nanatsu no Taizai: Ensa no Edinburgh Part 2 (Dublado)",
      "rating": 6.56,
      "classificacao_etaria": "A14",
      "imagem_original": "https://animefire.plus/img/animes/nanatsu-no-taizai-ensa-no-edinburgh-part-2.webp",
      "imagem_pasta": "https://animefire.plus/img/animes/nanatsu-no-taizai-ensa-no-edinburgh-part-2/",
      "secao": "dublados,legendados",
      "pagina": 6,
      "total_episodios": 1,
      "link_video": "https://animefire.plus/video/nanatsu-no-taizai-ensa-no-edinburgh-part-2-dublado"
    },
    {
      "id": 2664,
      "nome": "Nanatsu no Taizai: Fundo no Shinpan (Dublado)",
      "link": "https://animefire.plus/animes/nanatsu-no-taizai-fundo-no-shinpan-dublado-todos-os-episodios",
      "texto_original": "Nanatsu no Taizai: Fundo no Shinpan (Dublado)",
      "rating": 6.57,
      "classificacao_etaria": "A14",
      "imagem_original": "https://animefire.plus/img/animes/nanatsu-no-taizai-fundo-no-shinpan.webp",
      "imagem_pasta": "https://animefire.plus/img/animes/nanatsu-no-taizai-fundo-no-shinpan/",
      "secao": "dublados,legendados,lancamentos",
      "pagina": 16,
      "total_episodios": 24,
      "link_video": "https://animefire.plus/video/nanatsu-no-taizai-fundo-no-shinpan-dublado"
    },
    {
      "id": 2665,
      "nome": "Nanatsu no Taizai: Imashime no Fukkatsu (Dublado)",
      "link": "https://animefire.plus/animes/nanatsu-no-taizai-imashime-no-fukkatsu-dublado-todos-os-episodios",
      "texto_original": "Nanatsu no Taizai: Imashime no Fukkatsu (Dublado)",
      "rating": 8.22,
      "classificacao_etaria": "A14",
      "imagem_original": "https://animefire.plus/img/animes/nanatsu-no-taizai-imashime-no-fukkatsu.webp",
      "imagem_pasta": "https://animefire.plus/img/animes/nanatsu-no-taizai-imashime-no-fukkatsu/",
      "secao": "dublados,legendados",
      "pagina": 26,
      "total_episodios": 24,
      "link_video": "https://animefire.plus/video/nanatsu-no-taizai-imashime-no-fukkatsu-dublado"
    },
    {
      "id": 2666,
      "nome": "Nanatsu no Taizai: Kamigami no Gekirin (Dublado)",
      "link": "https://animefire.plus/animes/nanatsu-no-taizai-kamigami-no-gekirin-dublado-todos-os-episodios",
      "texto_original": "Nanatsu no Taizai: Kamigami no Gekirin (Dublado)",
      "rating": 6.38,
      "classificacao_etaria": "A14",
      "imagem_original": "https://animefire.plus/img/animes/nanatsu-no-taizai-kamigami-no-gekirin.webp",
      "imagem_pasta": "https://animefire.plus/img/animes/nanatsu-no-taizai-kamigami-no-gekirin/",
      "secao": "dublados,legendados",
      "pagina": 19,
      "total_episodios": 24,
      "link_video": "https://animefire.plus/video/nanatsu-no-taizai-kamigami-no-gekirin-dublado"
    },
    {
      "id": 2667,
      "nome": "Nanatsu no Taizai: Mokushiroku no Yonkishi (Dublado)",
      "link": "https://animefire.plus/animes/nanatsu-no-taizai-mokushiroku-no-yonkishi-dublado-todos-os-episodios",
      "texto_original": "Nanatsu no Taizai: Mokushiroku no Yonkishi (Dublado)",
      "rating": 7.26,
      "classificacao_etaria": "A14",
      "imagem_original": "https://animefire.plus/img/animes/nanatsu-no-taizai-mokushiroku-no-yonkishi.webp",
      "imagem_pasta": "https://animefire.plus/img/animes/nanatsu-no-taizai-mokushiroku-no-yonkishi/",
      "secao": "dublados,legendados",
      "pagina": 3,
      "total_episodios": 24,
      "link_video": "https://animefire.plus/video/nanatsu-no-taizai-mokushiroku-no-yonkishi-dublado"
    },
    {
      "id": 2678,
      "nome": "Naruto (Dublado)",
      "link": "https://animefire.plus/animes/naruto-dublado-todos-os-episodios",
      "texto_original": "Naruto (Dublado)",
      "rating": 7.88,
      "classificacao_etaria": "A14",
      "imagem_original": "https://animefire.plus/img/animes/naruto.webp",
      "imagem_pasta": "https://animefire.plus/img/animes/naruto/",
      "secao": "dublados,legendados",
      "pagina": 20,
      "total_episodios": 211,
      "link_video": "https://animefire.plus/video/naruto-dublado"
    },
    {
      "id": 2680,
      "nome": "Naruto: Shippuuden (Dublado)",
      "link": "https://animefire.plus/animes/naruto-shippuuden-dublado-todos-os-episodios",
      "texto_original": "Naruto: Shippuuden (Dublado)",
      "rating": 8.2,
      "classificacao_etaria": "A14",
      "imagem_original": "https://animefire.plus/img/animes/naruto-shippuuden.webp",
      "imagem_pasta": "https://animefire.plus/img/animes/naruto-shippuuden/",
      "secao": "dublados,legendados",
      "pagina": 27,
      "total_episodios": 0,
      "link_video": "https://animefire.plus/video/naruto-shippuuden-dublado"
    },
    {
      "id": 2700,
      "nome": "Nazotoki wa Dinner no Ato de (Dublado)",
      "link": "https://animefire.plus/animes/nazotoki-wa-dinner-no-ato-de-dublado-todos-os-episodios",
      "texto_original": "Nazotoki wa Dinner no Ato de (Dublado)",
      "rating": 6.48,
      "classificacao_etaria": "A14",
      "imagem_original": "https://animefire.plus/img/animes/nazotoki-wa-dinner-no-ato-de.webp",
      "imagem_pasta": "https://animefire.plus/img/animes/nazotoki-wa-dinner-no-ato-de/",
      "secao": "dublados,legendados",
      "pagina": 1,
      "total_episodios": 12,
      "link_video": "https://animefire.plus/video/nazotoki-wa-dinner-no-ato-de-dublado"
    },
    {
      "id": 2715,
      "nome": "Neon Genesis Evangelion (Dublado)",
      "link": "https://animefire.plus/animes/neon-genesis-evangelion-dublado-todos-os-episodios",
      "texto_original": "Neon Genesis Evangelion (Dublado)",
      "rating": 8.34,
      "classificacao_etaria": "A14",
      "imagem_original": "https://animefire.plus/img/animes/neon-genesis-evangelion.webp",
      "imagem_pasta": "https://animefire.plus/img/animes/neon-genesis-evangelion/",
      "secao": "dublados,legendados",
      "pagina": 26,
      "total_episodios": 26,
      "link_video": "https://animefire.plus/video/neon-genesis-evangelion-dublado"
    },
    {
      "id": 2717,
      "nome": "Net-juu no Susume (Dublado)",
      "link": "https://animefire.plus/animes/net-juu-no-susume-dublado-todos-os-episodios",
      "texto_original": "Net-juu no Susume (Dublado)",
      "rating": 7.76,
      "classificacao_etaria": "A14",
      "imagem_original": "https://animefire.plus/img/animes/net-juu-no-susume.webp",
      "imagem_pasta": "https://animefire.plus/img/animes/net-juu-no-susume/",
      "secao": "dublados,legendados",
      "pagina": 26,
      "total_episodios": 11,
      "link_video": "https://animefire.plus/video/net-juu-no-susume-dublado"
    },
    {
      "id": 2718,
      "nome": "Net-juu no Susume Special (Dublado)",
      "link": "https://animefire.plus/animes/net-juu-no-susume-special-dublado-todos-os-episodios",
      "texto_original": "Net-juu no Susume Special (Dublado)",
      "rating": 7.46,
      "classificacao_etaria": "A14",
      "imagem_original": "https://animefire.plus/img/animes/net-juu-no-susume-special.webp",
      "imagem_pasta": "https://animefire.plus/img/animes/net-juu-no-susume-special/",
      "secao": "dublados,legendados",
      "pagina": 24,
      "total_episodios": 1,
      "link_video": "https://animefire.plus/video/net-juu-no-susume-special-dublado"
    },
    {
      "id": 2727,
      "nome": "NieR:Automata Ver1.1a (Dublado)",
      "link": "https://animefire.plus/animes/nier-automata-ver1-1a-dublado-todos-os-episodios",
      "texto_original": "NieR:Automata Ver1.1a (Dublado)",
      "rating": 7.51,
      "classificacao_etaria": "A14",
      "imagem_original": "https://animefire.plus/img/animes/nier-automata-ver1-1a.webp",
      "imagem_pasta": "https://animefire.plus/img/animes/nier-automata-ver1-1a/",
      "secao": "dublados,legendados",
      "pagina": 7,
      "total_episodios": 12,
      "link_video": "https://animefire.plus/video/nier-automata-ver1-1a-dublado"
    }
  ],
  "pagination": {
    "current_page": 20,
    "per_page": 20,
    "total_items": 656,
    "total_pages": 33,
    "has_next": true,
    "has_prev": true
  }
}
