{
  "message": "Animes da seção: dublados",
  "section": "dublados",
  "data": [
    {
      "id": 2108,
      "nome": "Koukaku Kidoutai: SAC_2045 Season 2 (Dublado)",
      "link": "https://animefire.plus/animes/koukaku-kidoutai-sac-2045-season-2-dublado-todos-os-episodios",
      "texto_original": "Koukaku Kidoutai: SAC_2045 Season 2 (Dublado)",
      "rating": 6.84,
      "classificacao_etaria": "A16",
      "imagem_original": "https://animefire.plus/img/animes/koukaku-kidoutai-sac-2045-season-2.webp",
      "imagem_pasta": "https://animefire.plus/img/animes/koukaku-kidoutai-sac-2045-season-2/",
      "secao": "dublados,legendados",
      "pagina": 10,
      "total_episodios": 12,
      "link_video": "https://animefire.plus/video/koukaku-kidoutai-sac-2045-season-2-dublado"
    },
    {
      "id": 2129,
      "nome": "Kujira no Kora wa Sajou ni Utau (Dublado)",
      "link": "https://animefire.plus/animes/kujira-no-kora-wa-sajou-ni-utau-dublado-todos-os-episodios",
      "texto_original": "Kujira no Kora wa Sajou ni Utau (Dublado)",
      "rating": 7.26,
      "classificacao_etaria": "A14",
      "imagem_original": "https://animefire.plus/img/animes/kujira-no-kora-wa-sajou-ni-utau.webp",
      "imagem_pasta": "https://animefire.plus/img/animes/kujira-no-kora-wa-sajou-ni-utau/",
      "secao": "dublados,legendados",
      "pagina": 24,
      "total_episodios": 12,
      "link_video": "https://animefire.plus/video/kujira-no-kora-wa-sajou-ni-utau-dublado"
    },
    {
      "id": 2135,
      "nome": "Kumo Desu ga, Nani ka? (Dublado)",
      "link": "https://animefire.plus/animes/kumo-desu-ga-nani-ka-dublado-todos-os-episodios",
      "texto_original": "Kumo Desu ga, Nani ka? (Dublado)",
      "rating": 7.45,
      "classificacao_etaria": "A14",
      "imagem_original": "https://animefire.plus/img/animes/kumo-desu-ga-nani-ka.webp",
      "imagem_pasta": "https://animefire.plus/img/animes/kumo-desu-ga-nani-ka/",
      "secao": "dublados,legendados,lancamentos",
      "pagina": 18,
      "total_episodios": 24,
      "link_video": "https://animefire.plus/video/kumo-desu-ga-nani-ka-dublado"
    },
    {
      "id": 2146,
      "nome": "Kuro no Shoukanshi (Dublado)",
      "link": "https://animefire.plus/animes/kuro-no-shoukanshi-dublado-todos-os-episodios",
      "texto_original": "Kuro no Shoukanshi (Dublado)",
      "rating": 7.03,
      "classificacao_etaria": "A14",
      "imagem_original": "https://animefire.plus/img/animes/kuro-no-shoukanshi.webp",
      "imagem_pasta": "https://animefire.plus/img/animes/kuro-no-shoukanshi/",
      "secao": "dublados,legendados",
      "pagina": 10,
      "total_episodios": 12,
      "link_video": "https://animefire.plus/video/kuro-no-shoukanshi-dublado"
    },
    {
      "id": 2157,
      "nome": "Kuroshitsuji (Dublado)",
      "link": "https://animefire.plus/animes/kuroshitsuji-dublado-todos-os-episodios",
      "texto_original": "Kuroshitsuji (Dublado)",
      "rating": 7.71,
      "classificacao_etaria": "A16",
      "imagem_original": "https://animefire.plus/img/animes/kuroshitsuji.webp",
      "imagem_pasta": "https://animefire.plus/img/animes/kuroshitsuji/",
      "secao": "dublados,legendados",
      "pagina": 16,
      "total_episodios": 25,
      "link_video": "https://animefire.plus/video/kuroshitsuji-dublado"
    },
    {
      "id": 2158,
      "nome": "Kuroshitsuji II (Dublado)",
      "link": "https://animefire.plus/animes/kuroshitsuji-ii-dublado-todos-os-episodios",
      "texto_original": "Kuroshitsuji II (Dublado)",
      "rating": 7.19,
      "classificacao_etaria": "A16",
      "imagem_original": "https://animefire.plus/img/animes/kuroshitsuji-ii.webp",
      "imagem_pasta": "https://animefire.plus/img/animes/kuroshitsuji-ii/",
      "secao": "dublados,legendados",
      "pagina": 16,
      "total_episodios": 12,
      "link_video": "https://animefire.plus/video/kuroshitsuji-ii-dublado"
    },
    {
      "id": 2159,
      "nome": "Kuroshitsuji II Specials (Dublado)",
      "link": "https://animefire.plus/animes/kuroshitsuji-ii-specials-dublado-todos-os-episodios",
      "texto_original": "Kuroshitsuji II Specials (Dublado)",
      "rating": 7.44,
      "classificacao_etaria": "A14",
      "imagem_original": "https://animefire.plus/img/animes/kuroshitsuji-ii-specials.webp",
      "imagem_pasta": "https://animefire.plus/img/animes/kuroshitsuji-ii-specials/",
      "secao": "dublados,legendados",
      "pagina": 16,
      "total_episodios": 6,
      "link_video": "https://animefire.plus/video/kuroshitsuji-ii-specials-dublado"
    },
    {
      "id": 2165,
      "nome": "Kusuriya no Hitorigoto (Dublado)",
      "link": "https://animefire.plus/animes/kusuriya-no-hitorigoto-dublado-todos-os-episodios",
      "texto_original": "Kusuriya no Hitorigoto (Dublado)",
      "rating": 8.87,
      "classificacao_etaria": "A14",
      "imagem_original": "https://animefire.plus/img/animes/kusuriya-no-hitorigoto.webp",
      "imagem_pasta": "https://animefire.plus/img/animes/kusuriya-no-hitorigoto/",
      "secao": "dublados,legendados,lancamentos",
      "pagina": 3,
      "total_episodios": 24,
      "link_video": "https://animefire.plus/video/kusuriya-no-hitorigoto-dublado"
    },
    {
      "id": 2171,
      "nome": "Kuutei Dragons (Dublado)",
      "link": "https://animefire.plus/animes/kuutei-dragons-dublado-todos-os-episodios",
      "texto_original": "Kuutei Dragons (Dublado)",
      "rating": 7.05,
      "classificacao_etaria": "A14",
      "imagem_original": "https://animefire.plus/img/animes/kuutei-dragons.webp",
      "imagem_pasta": "https://animefire.plus/img/animes/kuutei-dragons/",
      "secao": "dublados,legendados",
      "pagina": 23,
      "total_episodios": 12,
      "link_video": "https://animefire.plus/video/kuutei-dragons-dublado"
    },
    {
      "id": 2196,
      "nome": "Kyuuketsuki Sugu Shinu (Dublado)",
      "link": "https://animefire.plus/animes/kyuuketsuki-sugu-shinu-dublado-todos-os-episodios",
      "texto_original": "Kyuuketsuki Sugu Shinu (Dublado)",
      "rating": 7.27,
      "classificacao_etaria": "A14",
      "imagem_original": "https://animefire.plus/img/animes/kyuuketsuki-sugu-shinu.webp",
      "imagem_pasta": "https://animefire.plus/img/animes/kyuuketsuki-sugu-shinu/",
      "secao": "dublados,legendados",
      "pagina": 14,
      "total_episodios": 12,
      "link_video": "https://animefire.plus/video/kyuuketsuki-sugu-shinu-dublado"
    },
    {
      "id": 2198,
      "nome": "Kyuukyoku Shinka shita Full Dive RPG ga Genjitsu yori mo Kusoge Dattara (Dublado)",
      "link": "https://animefire.plus/animes/kyuukyoku-shinka-shita-full-dive-rpg-ga-genjitsu-yori-mo-kusoge-dattara-dublado-todos-os-episodios",
      "texto_original": "Kyuukyoku Shinka shita Full Dive RPG ga Genjitsu yori mo Kusoge Dattara (Dublado)",
      "rating": 6.47,
      "classificacao_etaria": "A14",
      "imagem_original": "https://animefire.plus/img/animes/kyuukyoku-shinka-shita-full-dive-rpg-ga-genjitsu-yori-mo-kusoge-dattara.webp",
      "imagem_pasta": "https://animefire.plus/img/animes/kyuukyoku-shinka-shita-full-dive-rpg-ga-genjitsu-yori-mo-kusoge-dattara/",
      "secao": "dublados,legendados",
      "pagina": 15,
      "total_episodios": 12,
      "link_video": "https://animefire.plus/video/kyuukyoku-shinka-shita-full-dive-rpg-ga-genjitsu-yori-mo-kusoge-dattara-dublado"
    },
    {
      "id": 2209,
      "nome": "Lazarus (Dublado)",
      "link": "https://animefire.plus/animes/lazarus-dublado-todos-os-episodios",
      "texto_original": "Lazarus (Dublado)",
      "rating": 7.56,
      "classificacao_etaria": "A14",
      "imagem_original": "https://animefire.plus/img/animes/lazarus.webp",
      "imagem_pasta": "https://animefire.plus/img/animes/lazarus/",
      "secao": "dublados,legendados,lancamentos",
      "pagina": 1,
      "total_episodios": 13,
      "link_video": "https://animefire.plus/video/lazarus-dublado"
    },
    {
      "id": 2211,
      "nome": "Leadale no Daichi nite (Dublado)",
      "link": "https://animefire.plus/animes/leadale-no-daichi-nite-dublado-todos-os-episodios",
      "texto_original": "Leadale no Daichi nite (Dublado)",
      "rating": 6.95,
      "classificacao_etaria": "A14",
      "imagem_original": "https://animefire.plus/img/animes/leadale-no-daichi-nite.webp",
      "imagem_pasta": "https://animefire.plus/img/animes/leadale-no-daichi-nite/",
      "secao": "dublados,legendados",
      "pagina": 12,
      "total_episodios": 12,
      "link_video": "https://animefire.plus/video/leadale-no-daichi-nite-dublado"
    },
    {
      "id": 2215,
      "nome": "Level 1 dakedo Unique Skill de Saikyou desu (Dublado)",
      "link": "https://animefire.plus/animes/level-1-dakedo-unique-skill-de-saikyou-desu-dublado-todos-os-episodios",
      "texto_original": "Level 1 dakedo Unique Skill de Saikyou desu (Dublado)",
      "rating": 6.21,
      "classificacao_etaria": "A14",
      "imagem_original": "https://animefire.plus/img/animes/level-1-dakedo-unique-skill-de-saikyou-desu.webp",
      "imagem_pasta": "https://animefire.plus/img/animes/level-1-dakedo-unique-skill-de-saikyou-desu/",
      "secao": "dublados,legendados",
      "pagina": 7,
      "total_episodios": 12,
      "link_video": "https://animefire.plus/video/level-1-dakedo-unique-skill-de-saikyou-desu-dublado"
    },
    {
      "id": 2216,
      "nome": "Level E (Dublado)",
      "link": "https://animefire.plus/animes/level-e-dublado-todos-os-episodios",
      "texto_original": "Level E (Dublado)",
      "rating": 7.41,
      "classificacao_etaria": "A16",
      "imagem_original": "https://animefire.plus/img/animes/level-e.webp",
      "imagem_pasta": "https://animefire.plus/img/animes/level-e/",
      "secao": "dublados,legendados",
      "pagina": 4,
      "total_episodios": 13,
      "link_video": "https://animefire.plus/video/level-e-dublado"
    },
    {
      "id": 2217,
      "nome": "Levius (Dublado)",
      "link": "https://animefire.plus/animes/levius-dublado-todos-os-episodios",
      "texto_original": "Levius (Dublado)",
      "rating": 7.27,
      "classificacao_etaria": "A14",
      "imagem_original": "https://animefire.plus/img/animes/levius.webp",
      "imagem_pasta": "https://animefire.plus/img/animes/levius/",
      "secao": "dublados,legendados",
      "pagina": 25,
      "total_episodios": 12,
      "link_video": "https://animefire.plus/video/levius-dublado"
    },
    {
      "id": 2232,
      "nome": "Little Witch Academia (TV) (Dublado)",
      "link": "https://animefire.plus/animes/little-witch-academia-tv-dublado-todos-os-episodios",
      "texto_original": "Little Witch Academia (TV) (Dublado)",
      "rating": 8.02,
      "classificacao_etaria": null,
      "imagem_original": "https://animefire.plus/img/animes/little-witch-academia-tv.webp",
      "imagem_pasta": "https://animefire.plus/img/animes/little-witch-academia-tv/",
      "secao": "dublados,legendados",
      "pagina": 24,
      "total_episodios": 25,
      "link_video": "https://animefire.plus/video/little-witch-academia-tv-dublado"
    },
    {
      "id": 2236,
      "nome": "Log Horizon: Entaku Houkai (Dublado)",
      "link": "https://animefire.plus/animes/log-horizon-entaku-houkai-dublado-todos-os-episodios",
      "texto_original": "Log Horizon: Entaku Houkai (Dublado)",
      "rating": 7.07,
      "classificacao_etaria": "A14",
      "imagem_original": "https://animefire.plus/img/animes/log-horizon-entaku-houkai.webp",
      "imagem_pasta": "https://animefire.plus/img/animes/log-horizon-entaku-houkai/",
      "secao": "dublados,legendados",
      "pagina": 13,
      "total_episodios": 12,
      "link_video": "https://animefire.plus/video/log-horizon-entaku-houkai-dublado"
    },
    {
      "id": 2242,
      "nome": "Lost Song (Dublado)",
      "link": "https://animefire.plus/animes/lost-song-dublado-todos-os-episodios",
      "texto_original": "Lost Song (Dublado)",
      "rating": 7.16,
      "classificacao_etaria": "A14",
      "imagem_original": "https://animefire.plus/img/animes/lost-song.webp",
      "imagem_pasta": "https://animefire.plus/img/animes/lost-song/",
      "secao": "dublados,legendados",
      "pagina": 24,
      "total_episodios": 12,
      "link_video": "https://animefire.plus/video/lost-song-dublado"
    },
    {
      "id": 2274,
      "nome": "Lupin III: Part 5 (Dublado)",
      "link": "https://animefire.plus/animes/lupin-iii-part-5-dublado-todos-os-episodios",
      "texto_original": "Lupin III: Part 5 (Dublado)",
      "rating": 8.13,
      "classificacao_etaria": "A14",
      "imagem_original": "https://animefire.plus/img/animes/lupin-iii-part-5.webp",
      "imagem_pasta": "https://animefire.plus/img/animes/lupin-iii-part-5/",
      "secao": "dublados,legendados",
      "pagina": 4,
      "total_episodios": 24,
      "link_video": "https://animefire.plus/video/lupin-iii-part-5-dublado"
    }
  ],
  "pagination": {
    "current_page": 17,
    "per_page": 20,
    "total_items": 656,
    "total_pages": 33,
    "has_next": true,
    "has_prev": true
  }
}
