{
  "message": "Animes da seção: dublados",
  "section": "dublados",
  "data": [
    {
      "id": 2276,
      "nome": "Lupin III: Part 6 (Dublado)",
      "link": "https://animefire.plus/animes/lupin-iii-part-6-dublado-todos-os-episodios",
      "texto_original": "Lupin III: Part 6 (Dublado)",
      "rating": 7.2,
      "classificacao_etaria": "A14",
      "imagem_original": "https://animefire.plus/img/animes/lupin-iii-part-6.webp",
      "imagem_pasta": "https://animefire.plus/img/animes/lupin-iii-part-6/",
      "secao": "dublados,legendados",
      "pagina": 11,
      "total_episodios": 25,
      "link_video": "https://animefire.plus/video/lupin-iii-part-6-dublado"
    },
    {
      "id": 2284,
      "nome": "Lycoris Recoil (Dublado)",
      "link": "https://animefire.plus/animes/lycoris-recoil-dublado-todos-os-episodios",
      "texto_original": "Lycoris Recoil (Dublado)",
      "rating": 8.15,
      "classificacao_etaria": "A14",
      "imagem_original": "https://animefire.plus/img/animes/lycoris-recoil.webp",
      "imagem_pasta": "https://animefire.plus/img/animes/lycoris-recoil/",
      "secao": "dublados,legendados",
      "pagina": 10,
      "total_episodios": 13,
      "link_video": "https://animefire.plus/video/lycoris-recoil-dublado"
    },
    {
      "id": 2292,
      "nome": "Macross (Dublado)",
      "link": "https://animefire.plus/animes/macross-dublado-todos-os-episodios",
      "texto_original": "Macross (Dublado)",
      "rating": 7.96,
      "classificacao_etaria": "A14",
      "imagem_original": "https://animefire.plus/img/animes/macross.webp",
      "imagem_pasta": "https://animefire.plus/img/animes/macross/",
      "secao": "dublados,legendados",
      "pagina": 22,
      "total_episodios": 36,
      "link_video": "https://animefire.plus/video/macross-dublado"
    },
    {
      "id": 2305,
      "nome": "Magi: Sinbad no Bouken (Dublado)",
      "link": "https://animefire.plus/animes/magi-sinbad-no-bouken-dublado-todos-os-episodios",
      "texto_original": "Magi: Sinbad no Bouken (Dublado)",
      "rating": 7.89,
      "classificacao_etaria": "A14",
      "imagem_original": "https://animefire.plus/img/animes/magi-sinbad-no-bouken.webp",
      "imagem_pasta": "https://animefire.plus/img/animes/magi-sinbad-no-bouken/",
      "secao": "dublados,legendados",
      "pagina": 21,
      "total_episodios": 13,
      "link_video": "https://animefire.plus/video/magi-sinbad-no-bouken-dublado"
    },
    {
      "id": 2308,
      "nome": "Magia Record: Mahou Shoujo Madoka☆Magica Gaiden (TV) (Dublado)",
      "link": "https://animefire.plus/animes/magia-record-mahou-shoujo-madoka-magica-gaiden-tv-dublado-todos-os-episodios",
      "texto_original": "Magia Record: Mahou Shoujo Madoka☆Magica Gaiden (TV) (Dublado)",
      "rating": 6.79,
      "classificacao_etaria": "A14",
      "imagem_original": "https://animefire.plus/img/animes/magia-record-mahou-shoujo-madoka-magica-gaiden-tv.webp",
      "imagem_pasta": "https://animefire.plus/img/animes/magia-record-mahou-shoujo-madoka-magica-gaiden-tv/",
      "secao": "dublados,legendados",
      "pagina": 11,
      "total_episodios": 10,
      "link_video": "https://animefire.plus/video/magia-record-mahou-shoujo-madoka-magica-gaiden-tv-dublado"
    },
    {
      "id": 2310,
      "nome": "Magia Record: Mahou Shoujo Madoka☆Magica Gaiden (TV) 2nd Season - Kakusei Zenya (Dublado)",
      "link": "https://animefire.plus/animes/magia-record-mahou-shoujo-madoka-magica-gaiden-tv-2nd-season---kakusei-zenya-dublado-todos-os-episodios",
      "texto_original": "Magia Record: Mahou Shoujo Madoka☆Magica Gaiden (TV) 2nd Season - Kakusei Zenya (Dublado)",
      "rating": 7.01,
      "classificacao_etaria": "A14",
      "imagem_original": "https://animefire.plus/img/animes/magia-record-mahou-shoujo-madoka-magica-gaiden-tv-2nd-season---kakusei-zenya.webp",
      "imagem_pasta": "https://animefire.plus/img/animes/magia-record-mahou-shoujo-madoka-magica-gaiden-tv-2nd-season---kakusei-zenya/",
      "secao": "dublados",
      "pagina": 11,
      "total_episodios": 8,
      "link_video": "https://animefire.plus/video/magia-record-mahou-shoujo-madoka-magica-gaiden-tv-2nd-season---kakusei-zenya-dublado"
    },
    {
      "id": 2311,
      "nome": "Magia Record: Mahou Shoujo Madoka☆Magica Gaiden (TV) Final Season - Asaki Yume no Akatsuki (Dublado)",
      "link": "https://animefire.plus/animes/magia-record-mahou-shoujo-madoka-magica-gaiden-tv-final-season---asaki-yume-no-akatsuki-dublado-todos-os-episodios",
      "texto_original": "Magia Record: Mahou Shoujo Madoka☆Magica Gaiden (TV) Final Season - Asaki Yume no Akatsuki (Dublado)",
      "rating": 6.81,
      "classificacao_etaria": "A14",
      "imagem_original": "https://animefire.plus/img/animes/magia-record-mahou-shoujo-madoka-magica-gaiden-tv-final-season---asaki-yume-no-akatsuki.webp",
      "imagem_pasta": "https://animefire.plus/img/animes/magia-record-mahou-shoujo-madoka-magica-gaiden-tv-final-season---asaki-yume-no-akatsuki/",
      "secao": "dublados,legendados",
      "pagina": 11,
      "total_episodios": 0,
      "link_video": "https://animefire.plus/video/magia-record-mahou-shoujo-madoka-magica-gaiden-tv-final-season---asaki-yume-no-akatsuki-dublado"
    },
    {
      "id": 2316,
      "nome": "Magic Maker: Isekai Mahou no Tsukurikata (Dublado)",
      "link": "https://animefire.plus/animes/magic-maker-isekai-mahou-no-tsukurikata-dublado-todos-os-episodios",
      "texto_original": "Magic Maker: Isekai Mahou no Tsukurikata (Dublado)",
      "rating": 6.82,
      "classificacao_etaria": "A14",
      "imagem_original": "https://animefire.plus/img/animes/magic-maker-isekai-mahou-no-tsukurikata.webp",
      "imagem_pasta": "https://animefire.plus/img/animes/magic-maker-isekai-mahou-no-tsukurikata/",
      "secao": "dublados,legendados,lancamentos",
      "pagina": 2,
      "total_episodios": 12,
      "link_video": "https://animefire.plus/video/magic-maker-isekai-mahou-no-tsukurikata-dublado"
    },
    {
      "id": 2353,
      "nome": "Mahoutsukai No Yome (Dublado)",
      "link": "https://animefire.plus/animes/mahoutsukai-no-yome-dublado-todos-os-episodios",
      "texto_original": "Mahoutsukai No Yome (Dublado)",
      "rating": 8.15,
      "classificacao_etaria": "A14",
      "imagem_original": "https://animefire.plus/img/animes/mahoutsukai-no-yome.webp",
      "imagem_pasta": "https://animefire.plus/img/animes/mahoutsukai-no-yome/",
      "secao": "dublados,legendados",
      "pagina": 25,
      "total_episodios": 0,
      "link_video": "https://animefire.plus/video/mahoutsukai-no-yome-dublado"
    },
    {
      "id": 2354,
      "nome": "Mahoutsukai no Yome Season 2 (Dublado)",
      "link": "https://animefire.plus/animes/mahoutsukai-no-yome-season-2-dublado-todos-os-episodios",
      "texto_original": "Mahoutsukai no Yome Season 2 (Dublado)",
      "rating": 7.76,
      "classificacao_etaria": "A14",
      "imagem_original": "https://animefire.plus/img/animes/mahoutsukai-no-yome-season-2.webp",
      "imagem_pasta": "https://animefire.plus/img/animes/mahoutsukai-no-yome-season-2/",
      "secao": "dublados,legendados",
      "pagina": 6,
      "total_episodios": 12,
      "link_video": "https://animefire.plus/video/mahoutsukai-no-yome-season-2-dublado"
    },
    {
      "id": 2355,
      "nome": "Mahoutsukai no Yome Season 2 Part 2 (Dublado)",
      "link": "https://animefire.plus/animes/mahoutsukai-no-yome-season-2-part-2-dublado-todos-os-episodios",
      "texto_original": "Mahoutsukai no Yome Season 2 Part 2 (Dublado)",
      "rating": 7.9,
      "classificacao_etaria": "A14",
      "imagem_original": "https://animefire.plus/img/animes/mahoutsukai-no-yome-season-2-part-2.webp",
      "imagem_pasta": "https://animefire.plus/img/animes/mahoutsukai-no-yome-season-2-part-2/",
      "secao": "dublados,legendados",
      "pagina": 5,
      "total_episodios": 12,
      "link_video": "https://animefire.plus/video/mahoutsukai-no-yome-season-2-part-2-dublado"
    },
    {
      "id": 2356,
      "nome": "Mahoutsukai no Yome: Hoshi Matsu Hito (Dublado)",
      "link": "https://animefire.plus/animes/mahoutsukai-no-yome-hoshi-matsu-hito-dublado-todos-os-episodios",
      "texto_original": "Mahoutsukai no Yome: Hoshi Matsu Hito (Dublado)",
      "rating": 8.19,
      "classificacao_etaria": "A14",
      "imagem_original": "https://animefire.plus/img/animes/mahoutsukai-no-yome-hoshi-matsu-hito.webp",
      "imagem_pasta": "https://animefire.plus/img/animes/mahoutsukai-no-yome-hoshi-matsu-hito/",
      "secao": "dublados,legendados",
      "pagina": 24,
      "total_episodios": 3,
      "link_video": "https://animefire.plus/video/mahoutsukai-no-yome-hoshi-matsu-hito-dublado"
    },
    {
      "id": 2357,
      "nome": "Mahoutsukai no Yome: Nishi no Shounen to Seiran no Kishi (Dublado)",
      "link": "https://animefire.plus/animes/mahoutsukai-no-yome-nishi-no-shounen-to-seiran-no-kishi-dublado-todos-os-episodios",
      "texto_original": "Mahoutsukai no Yome: Nishi no Shounen to Seiran no Kishi (Dublado)",
      "rating": 7.56,
      "classificacao_etaria": "A14",
      "imagem_original": "https://animefire.plus/img/animes/mahoutsukai-no-yome-nishi-no-shounen-to-seiran-no-kishi.webp",
      "imagem_pasta": "https://animefire.plus/img/animes/mahoutsukai-no-yome-nishi-no-shounen-to-seiran-no-kishi/",
      "secao": "dublados,legendados",
      "pagina": 12,
      "total_episodios": 3,
      "link_video": "https://animefire.plus/video/mahoutsukai-no-yome-nishi-no-shounen-to-seiran-no-kishi-dublado"
    },
    {
      "id": 2360,
      "nome": "Mahoutsukai Reimeiki (Dublado)",
      "link": "https://animefire.plus/animes/mahoutsukai-reimeiki-dublado-todos-os-episodios",
      "texto_original": "Mahoutsukai Reimeiki (Dublado)",
      "rating": 6.39,
      "classificacao_etaria": "A14",
      "imagem_original": "https://animefire.plus/img/animes/mahoutsukai-reimeiki.webp",
      "imagem_pasta": "https://animefire.plus/img/animes/mahoutsukai-reimeiki/",
      "secao": "dublados,legendados",
      "pagina": 11,
      "total_episodios": 12,
      "link_video": "https://animefire.plus/video/mahoutsukai-reimeiki-dublado"
    },
    {
      "id": 2369,
      "nome": "Mairimashita! Iruma-kun (Dublado)",
      "link": "https://animefire.plus/animes/mairimashita-iruma-kun-dublado-todos-os-episodios",
      "texto_original": "Mairimashita! Iruma-kun (Dublado)",
      "rating": 7.75,
      "classificacao_etaria": "A14",
      "imagem_original": "https://animefire.plus/img/animes/mairimashita-iruma-kun.webp",
      "imagem_pasta": "https://animefire.plus/img/animes/mairimashita-iruma-kun/",
      "secao": "dublados,legendados",
      "pagina": 8,
      "total_episodios": 23,
      "link_video": "https://animefire.plus/video/mairimashita-iruma-kun-dublado"
    },
    {
      "id": 2370,
      "nome": "Mairimashita! Iruma-kun 2nd Season (Dublado)",
      "link": "https://animefire.plus/animes/mairimashita-iruma-kun-2nd-season-dublado-todos-os-episodios",
      "texto_original": "Mairimashita! Iruma-kun 2nd Season (Dublado)",
      "rating": 8.02,
      "classificacao_etaria": "A14",
      "imagem_original": "https://animefire.plus/img/animes/mairimashita-iruma-kun-2nd-season.webp",
      "imagem_pasta": "https://animefire.plus/img/animes/mairimashita-iruma-kun-2nd-season/",
      "secao": "dublados,legendados",
      "pagina": 6,
      "total_episodios": 21,
      "link_video": "https://animefire.plus/video/mairimashita-iruma-kun-2nd-season-dublado"
    },
    {
      "id": 2371,
      "nome": "Mairimashita! Iruma-kun 3rd Season (Dublado)",
      "link": "https://animefire.plus/animes/mairimashita-iruma-kun-3rd-season-dublado-todos-os-episodios",
      "texto_original": "Mairimashita! Iruma-kun 3rd Season (Dublado)",
      "rating": 7.82,
      "classificacao_etaria": "A14",
      "imagem_original": "https://animefire.plus/img/animes/mairimashita-iruma-kun-3rd-season.webp",
      "imagem_pasta": "https://animefire.plus/img/animes/mairimashita-iruma-kun-3rd-season/",
      "secao": "dublados,legendados",
      "pagina": 6,
      "total_episodios": 21,
      "link_video": "https://animefire.plus/video/mairimashita-iruma-kun-3rd-season-dublado"
    },
    {
      "id": 2377,
      "nome": "Majo no Tabitabi (Dublado)",
      "link": "https://animefire.plus/animes/majo-no-tabitabi-dublado-todos-os-episodios",
      "texto_original": "Majo no Tabitabi (Dublado)",
      "rating": 7.55,
      "classificacao_etaria": "A16",
      "imagem_original": "https://animefire.plus/img/animes/majo-no-tabitabi.webp",
      "imagem_pasta": "https://animefire.plus/img/animes/majo-no-tabitabi/",
      "secao": "dublados,legendados",
      "pagina": 13,
      "total_episodios": 12,
      "link_video": "https://animefire.plus/video/majo-no-tabitabi-dublado"
    },
    {
      "id": 2428,
      "nome": "Mars Red (Dublado)",
      "link": "https://animefire.plus/animes/mars-red-dublado-todos-os-episodios",
      "texto_original": "Mars Red (Dublado)",
      "rating": 6.58,
      "classificacao_etaria": "A14",
      "imagem_original": "https://animefire.plus/img/animes/mars-red.webp",
      "imagem_pasta": "https://animefire.plus/img/animes/mars-red/",
      "secao": "dublados,legendados",
      "pagina": 14,
      "total_episodios": 13,
      "link_video": "https://animefire.plus/video/mars-red-dublado"
    },
    {
      "id": 2432,
      "nome": "Masamune-kun no Revenge (Dublado)",
      "link": "https://animefire.plus/animes/masamune-kun-no-revenge-dublado-todos-os-episodios",
      "texto_original": "Masamune-kun no Revenge (Dublado)",
      "rating": 6.74,
      "classificacao_etaria": "A14",
      "imagem_original": "https://animefire.plus/img/animes/masamune-kun-no-revenge.webp",
      "imagem_pasta": "https://animefire.plus/img/animes/masamune-kun-no-revenge/",
      "secao": "dublados,legendados",
      "pagina": 7,
      "total_episodios": 12,
      "link_video": "https://animefire.plus/video/masamune-kun-no-revenge-dublado"
    }
  ],
  "pagination": {
    "current_page": 18,
    "per_page": 20,
    "total_items": 656,
    "total_pages": 33,
    "has_next": true,
    "has_prev": true
  }
}
