{
  "message": "Animes da seção: dublados",
  "section": "dublados",
  "data": [
    {
      "id": 1810,
      "nome": "Kaijuu 8-gou 2nd Season (Dublado)",
      "link": "https://animefire.plus/animes/kaijuu-8-gou-2nd-season-dublado-todos-os-episodios",
      "texto_original": "Kaijuu 8-gou 2nd Season (Dublado)",
      "rating": 7.92,
      "classificacao_etaria": "A14",
      "imagem_original": "https://animefire.plus/img/animes/kaijuu-8-gou-2nd-season.webp",
      "imagem_pasta": "https://animefire.plus/img/animes/kaijuu-8-gou-2nd-season/",
      "secao": "dublados,legendados,lancamentos",
      "pagina": 1,
      "total_episodios": 3,
      "link_video": "https://animefire.plus/video/kaijuu-8-gou-2nd-season-dublado"
    },
    {
      "id": 1817,
      "nome": "Kakegurui (Dublado)",
      "link": "https://animefire.plus/animes/kakegurui-dublado-todos-os-episodios",
      "texto_original": "Kakegurui (Dublado)",
      "rating": 7.55,
      "classificacao_etaria": "A16",
      "imagem_original": "https://animefire.plus/img/animes/kakegurui.webp",
      "imagem_pasta": "https://animefire.plus/img/animes/kakegurui/",
      "secao": "dublados,legendados",
      "pagina": 26,
      "total_episodios": 12,
      "link_video": "https://animefire.plus/video/kakegurui-dublado"
    },
    {
      "id": 1818,
      "nome": "Kakegurui Twin (Dublado)",
      "link": "https://animefire.plus/animes/kakegurui-twin-dublado-todos-os-episodios",
      "texto_original": "Kakegurui Twin (Dublado)",
      "rating": 7.18,
      "classificacao_etaria": "A14",
      "imagem_original": "https://animefire.plus/img/animes/kakegurui-twin.webp",
      "imagem_pasta": "https://animefire.plus/img/animes/kakegurui-twin/",
      "secao": "dublados,legendados,lancamentos",
      "pagina": 10,
      "total_episodios": 6,
      "link_video": "https://animefire.plus/video/kakegurui-twin-dublado"
    },
    {
      "id": 1820,
      "nome": "Kakegurui×× (Dublado)",
      "link": "https://animefire.plus/animes/kakegurui-2nd-season-dublado-todos-os-episodios",
      "texto_original": "Kakegurui×× (Dublado)",
      "rating": 7.4,
      "classificacao_etaria": "A16",
      "imagem_original": "https://animefire.plus/img/animes/kakegurui-2nd-season.webp",
      "imagem_pasta": "https://animefire.plus/img/animes/kakegurui-2nd-season/",
      "secao": "dublados",
      "pagina": 21,
      "total_episodios": 12,
      "link_video": "https://animefire.plus/video/kakegurui-2nd-season-dublado"
    },
    {
      "id": 1821,
      "nome": "Kakkou no Iinazuke (Dublado)",
      "link": "https://animefire.plus/animes/kakkou-no-iinazuke-dublado-todos-os-episodios",
      "texto_original": "Kakkou no Iinazuke (Dublado)",
      "rating": 6.87,
      "classificacao_etaria": "A14",
      "imagem_original": "https://animefire.plus/img/animes/kakkou-no-iinazuke.webp",
      "imagem_pasta": "https://animefire.plus/img/animes/kakkou-no-iinazuke/",
      "secao": "dublados,legendados",
      "pagina": 11,
      "total_episodios": 24,
      "link_video": "https://animefire.plus/video/kakkou-no-iinazuke-dublado"
    },
    {
      "id": 1829,
      "nome": "Kaleido Star (Dublado)",
      "link": "https://animefire.plus/animes/kaleido-star-dublado-todos-os-episodios",
      "texto_original": "Kaleido Star (Dublado)",
      "rating": 7.97,
      "classificacao_etaria": "A14",
      "imagem_original": "https://animefire.plus/img/animes/kaleido-star.webp",
      "imagem_pasta": "https://animefire.plus/img/animes/kaleido-star/",
      "secao": "dublados",
      "pagina": 23,
      "total_episodios": 26,
      "link_video": "https://animefire.plus/video/kaleido-star-dublado"
    },
    {
      "id": 1830,
      "nome": "Kaleido Star: Aratanaru Tsubasa - Extra Stage (Dublado)",
      "link": "https://animefire.plus/animes/kaleido-star-aratanaru-tsubasa---extra-stage-dublado-todos-os-episodios",
      "texto_original": "Kaleido Star: Aratanaru Tsubasa - Extra Stage (Dublado)",
      "rating": 7.55,
      "classificacao_etaria": "A10",
      "imagem_original": "https://animefire.plus/img/animes/kaleido-star-aratanaru-tsubasa---extra-stage.webp",
      "imagem_pasta": "https://animefire.plus/img/animes/kaleido-star-aratanaru-tsubasa---extra-stage/",
      "secao": "dublados",
      "pagina": 23,
      "total_episodios": 1,
      "link_video": "https://animefire.plus/video/kaleido-star-aratanaru-tsubasa---extra-stage-dublado"
    },
    {
      "id": 1835,
      "nome": "Kami no Tou (Dublado)",
      "link": "https://animefire.plus/animes/kami-no-tou-dublado-todos-os-episodios",
      "texto_original": "Kami no Tou (Dublado)",
      "rating": 7.56,
      "classificacao_etaria": "A14",
      "imagem_original": "https://animefire.plus/img/animes/kami-no-tou.webp",
      "imagem_pasta": "https://animefire.plus/img/animes/kami-no-tou/",
      "secao": "dublados,legendados",
      "pagina": 9,
      "total_episodios": 13,
      "link_video": "https://animefire.plus/video/kami-no-tou-dublado"
    },
    {
      "id": 1836,
      "nome": "Kami no Tou: Ouji no Kikan (Dublado)",
      "link": "https://animefire.plus/animes/kami-no-tou-ouji-no-kikan-dublado-todos-os-episodios",
      "texto_original": "Kami no Tou: Ouji no Kikan (Dublado)",
      "rating": 6.68,
      "classificacao_etaria": "A14",
      "imagem_original": "https://animefire.plus/img/animes/kami-no-tou-ouji-no-kikan.webp",
      "imagem_pasta": "https://animefire.plus/img/animes/kami-no-tou-ouji-no-kikan/",
      "secao": "dublados,legendados,lancamentos",
      "pagina": 1,
      "total_episodios": 26,
      "link_video": "https://animefire.plus/video/kami-no-tou-ouji-no-kikan-dublado"
    },
    {
      "id": 1842,
      "nome": "Kami wa Game ni Ueteiru. (Dublado)",
      "link": "https://animefire.plus/animes/kami-wa-game-ni-ueteiru-dublado-todos-os-episodios",
      "texto_original": "Kami wa Game ni Ueteiru. (Dublado)",
      "rating": 6.26,
      "classificacao_etaria": "A14",
      "imagem_original": "https://animefire.plus/img/animes/kami-wa-game-ni-ueteiru.webp",
      "imagem_pasta": "https://animefire.plus/img/animes/kami-wa-game-ni-ueteiru/",
      "secao": "dublados,legendados,lancamentos",
      "pagina": 3,
      "total_episodios": 13,
      "link_video": "https://animefire.plus/video/kami-wa-game-ni-ueteiru-dublado"
    },
    {
      "id": 1843,
      "nome": "Kami-tachi ni Hirowareta Otoko (Dublado)",
      "link": "https://animefire.plus/animes/kami-tachi-ni-hirowareta-otoko-dublado-todos-os-episodios",
      "texto_original": "Kami-tachi ni Hirowareta Otoko (Dublado)",
      "rating": 6.98,
      "classificacao_etaria": "A14",
      "imagem_original": "https://animefire.plus/img/animes/kami-tachi-ni-hirowareta-otoko.webp",
      "imagem_pasta": "https://animefire.plus/img/animes/kami-tachi-ni-hirowareta-otoko/",
      "secao": "dublados,legendados",
      "pagina": 5,
      "total_episodios": 12,
      "link_video": "https://animefire.plus/video/kami-tachi-ni-hirowareta-otoko-dublado"
    },
    {
      "id": 1845,
      "nome": "Kami-tachi ni Hirowareta Otoko 2nd Season (Dublado)",
      "link": "https://animefire.plus/animes/kami-tachi-ni-hirowareta-otoko-2-dublado-todos-os-episodios",
      "texto_original": "Kami-tachi ni Hirowareta Otoko 2nd Season (Dublado)",
      "rating": 6.81,
      "classificacao_etaria": "A14",
      "imagem_original": "https://animefire.plus/img/animes/kami-tachi-ni-hirowareta-otoko-2.webp",
      "imagem_pasta": "https://animefire.plus/img/animes/kami-tachi-ni-hirowareta-otoko-2/",
      "secao": "dublados",
      "pagina": 5,
      "total_episodios": 12,
      "link_video": "https://animefire.plus/video/kami-tachi-ni-hirowareta-otoko-2-dublado"
    },
    {
      "id": 1854,
      "nome": "Kamisama Hajimemashita (Dublado)",
      "link": "https://animefire.plus/animes/kamisama-hajimemashita-dublado-todos-os-episodios",
      "texto_original": "Kamisama Hajimemashita (Dublado)",
      "rating": 8.1,
      "classificacao_etaria": "A14",
      "imagem_original": "https://animefire.plus/img/animes/kamisama-hajimemashita.webp",
      "imagem_pasta": "https://animefire.plus/img/animes/kamisama-hajimemashita/",
      "secao": "dublados,legendados",
      "pagina": 4,
      "total_episodios": 5,
      "link_video": "https://animefire.plus/video/kamisama-hajimemashita-dublado"
    },
    {
      "id": 1868,
      "nome": "Kanchigai no Atelier Meister: Eiyuu Party no Moto Zatsuyougakari ga, Jitsu wa Sentou Igai ga SSS Rank Datta to Iu Yoku Aru Hanashi (Dublado)",
      "link": "https://animefire.plus/animes/kanchigai-no-atelier-meister-eiyuu-party-no-moto-zatsuyougakari-ga-jitsu-wa-sentou-igai-ga-sss-rank-datta-to-iu-yoku-aru-hanashi-dublado-todos-os-episodios",
      "texto_original": "Kanchigai no Atelier Meister: Eiyuu Party no Moto Zatsuyougakari ga, Jitsu wa Sentou Igai ga SSS Rank Datta to Iu Yoku Aru Hanashi (Dublado)",
      "rating": 6.45,
      "classificacao_etaria": "A14",
      "imagem_original": "https://animefire.plus/img/animes/kanchigai-no-atelier-meister-eiyuu-party-no-moto-zatsuyougakari-ga-jitsu-wa-sentou-igai-ga-sss-rank-datta-to-iu-yoku-aru-hanashi.webp",
      "imagem_pasta": "https://animefire.plus/img/animes/kanchigai-no-atelier-meister-eiyuu-party-no-moto-zatsuyougakari-ga-jitsu-wa-sentou-igai-ga-sss-rank-datta-to-iu-yoku-aru-hanashi/",
      "secao": "dublados,legendados,lancamentos",
      "pagina": 1,
      "total_episodios": 12,
      "link_video": "https://animefire.plus/video/kanchigai-no-atelier-meister-eiyuu-party-no-moto-zatsuyougakari-ga-jitsu-wa-sentou-igai-ga-sss-rank-datta-to-iu-yoku-aru-hanashi-dublado"
    },
    {
      "id": 1877,
      "nome": "Kanojo ga Koushaku-tei ni Itta Riyuu (Dublado)",
      "link": "https://animefire.plus/animes/kanojo-ga-koushaku-tei-ni-itta-riyuu-dublado-todos-os-episodios",
      "texto_original": "Kanojo ga Koushaku-tei ni Itta Riyuu (Dublado)",
      "rating": 7.53,
      "classificacao_etaria": "A14",
      "imagem_original": "https://animefire.plus/img/animes/kanojo-ga-koushaku-tei-ni-itta-riyuu.webp",
      "imagem_pasta": "https://animefire.plus/img/animes/kanojo-ga-koushaku-tei-ni-itta-riyuu/",
      "secao": "dublados,legendados",
      "pagina": 6,
      "total_episodios": 12,
      "link_video": "https://animefire.plus/video/kanojo-ga-koushaku-tei-ni-itta-riyuu-dublado"
    },
    {
      "id": 1878,
      "nome": "Kanojo mo Kanojo (Dublado)",
      "link": "https://animefire.plus/animes/kanojo-mo-kanojo-dublado-todos-os-episodios",
      "texto_original": "Kanojo mo Kanojo (Dublado)",
      "rating": 6.52,
      "classificacao_etaria": "A14",
      "imagem_original": "https://animefire.plus/img/animes/kanojo-mo-kanojo.webp",
      "imagem_pasta": "https://animefire.plus/img/animes/kanojo-mo-kanojo/",
      "secao": "dublados,legendados",
      "pagina": 4,
      "total_episodios": 12,
      "link_video": "https://animefire.plus/video/kanojo-mo-kanojo-dublado"
    },
    {
      "id": 1879,
      "nome": "Kanojo mo Kanojo Season 2 (Dublado)",
      "link": "https://animefire.plus/animes/kanojo-mo-kanojo-season-2-dublado-todos-os-episodios",
      "texto_original": "Kanojo mo Kanojo Season 2 (Dublado)",
      "rating": 7.01,
      "classificacao_etaria": "A14",
      "imagem_original": "https://animefire.plus/img/animes/kanojo-mo-kanojo-season-2.webp",
      "imagem_pasta": "https://animefire.plus/img/animes/kanojo-mo-kanojo-season-2/",
      "secao": "dublados,legendados",
      "pagina": 5,
      "total_episodios": 12,
      "link_video": "https://animefire.plus/video/kanojo-mo-kanojo-season-2-dublado"
    },
    {
      "id": 1881,
      "nome": "Kanojo, Okarishimasu (Dublado)",
      "link": "https://animefire.plus/animes/kanojo-okarishimasu-dublado-todos-os-episodios",
      "texto_original": "Kanojo, Okarishimasu (Dublado)",
      "rating": 7.19,
      "classificacao_etaria": "A14",
      "imagem_original": "https://animefire.plus/img/animes/kanojo-okarishimasu.webp",
      "imagem_pasta": "https://animefire.plus/img/animes/kanojo-okarishimasu/",
      "secao": "dublados,legendados",
      "pagina": 10,
      "total_episodios": 12,
      "link_video": "https://animefire.plus/video/kanojo-okarishimasu-dublado"
    },
    {
      "id": 1882,
      "nome": "Kanojo, Okarishimasu 2nd Season (Dublado)",
      "link": "https://animefire.plus/animes/kanojo-okarishimasu-2nd-season-dublado-todos-os-episodios",
      "texto_original": "Kanojo, Okarishimasu 2nd Season (Dublado)",
      "rating": 6.75,
      "classificacao_etaria": "A14",
      "imagem_original": "https://animefire.plus/img/animes/kanojo-okarishimasu-2nd-season.webp",
      "imagem_pasta": "https://animefire.plus/img/animes/kanojo-okarishimasu-2nd-season/",
      "secao": "dublados,legendados",
      "pagina": 10,
      "total_episodios": 12,
      "link_video": "https://animefire.plus/video/kanojo-okarishimasu-2nd-season-dublado"
    },
    {
      "id": 1883,
      "nome": "Kanojo, Okarishimasu 3rd Season (Dublado)",
      "link": "https://animefire.plus/animes/kanojo-okarishimasu-3rd-season-dublado-todos-os-episodios",
      "texto_original": "Kanojo, Okarishimasu 3rd Season (Dublado)",
      "rating": 7.01,
      "classificacao_etaria": "A14",
      "imagem_original": "https://animefire.plus/img/animes/kanojo-okarishimasu-3rd-season.webp",
      "imagem_pasta": "https://animefire.plus/img/animes/kanojo-okarishimasu-3rd-season/",
      "secao": "dublados,legendados,lancamentos",
      "pagina": 6,
      "total_episodios": 12,
      "link_video": "https://animefire.plus/video/kanojo-okarishimasu-3rd-season-dublado"
    }
  ],
  "pagination": {
    "current_page": 14,
    "per_page": 20,
    "total_items": 656,
    "total_pages": 33,
    "has_next": true,
    "has_prev": true
  }
}
