{
  "message": "Animes da seção: dublados",
  "section": "dublados",
  "data": [
    {
      "id": 494,
      "nome": "Brave 10 (Dublado)",
      "link": "https://animefire.plus/animes/brave-10-dublado-todos-os-episodios",
      "texto_original": "Brave 10 (Dublado)",
      "rating": 6.74,
      "classificacao_etaria": "A16",
      "imagem_original": "https://animefire.plus/img/animes/brave-10.webp",
      "imagem_pasta": "https://animefire.plus/img/animes/brave-10/",
      "secao": "dublados,legendados",
      "pagina": 3,
      "total_episodios": 12,
      "link_video": "https://animefire.plus/video/brave-10-dublado"
    },
    {
      "id": 500,
      "nome": "Bright: Samurai Soul (Dublado)",
      "link": "https://animefire.plus/animes/bright-samurai-soul-dublado-todos-os-episodios",
      "texto_original": "Bright: Samurai Soul (Dublado)",
      "rating": 5.39,
      "classificacao_etaria": "A16",
      "imagem_original": "https://animefire.plus/img/animes/bright-samurai-soul.webp",
      "imagem_pasta": "https://animefire.plus/img/animes/bright-samurai-soul/",
      "secao": "dublados,legendados",
      "pagina": 15,
      "total_episodios": 1,
      "link_video": "https://animefire.plus/video/bright-samurai-soul-dublado"
    },
    {
      "id": 505,
      "nome": "Bubble (Dublado)",
      "link": "https://animefire.plus/animes/bubble-dublado-todos-os-episodios",
      "texto_original": "Bubble (Dublado)",
      "rating": 7.24,
      "classificacao_etaria": "A14",
      "imagem_original": "https://animefire.plus/img/animes/bubble.webp",
      "imagem_pasta": "https://animefire.plus/img/animes/bubble/",
      "secao": "dublados,legendados",
      "pagina": 11,
      "total_episodios": 1,
      "link_video": "https://animefire.plus/video/bubble-dublado"
    },
    {
      "id": 511,
      "nome": "Bucchigiri?! (Dublado)",
      "link": "https://animefire.plus/animes/bucchigiri-dublado-todos-os-episodios",
      "texto_original": "Bucchigiri?! (Dublado)",
      "rating": 6.51,
      "classificacao_etaria": "A14",
      "imagem_original": "https://animefire.plus/img/animes/bucchigiri.webp",
      "imagem_pasta": "https://animefire.plus/img/animes/bucchigiri/",
      "secao": "dublados,legendados",
      "pagina": 3,
      "total_episodios": 12,
      "link_video": "https://animefire.plus/video/bucchigiri-dublado"
    },
    {
      "id": 518,
      "nome": "Bungou Stray Dogs (Dublado)",
      "link": "https://animefire.plus/animes/bungou-stray-dogs-dublado-todos-os-episodios",
      "texto_original": "Bungou Stray Dogs (Dublado)",
      "rating": 7.83,
      "classificacao_etaria": "A16",
      "imagem_original": "https://animefire.plus/img/animes/bungou-stray-dogs.webp",
      "imagem_pasta": "https://animefire.plus/img/animes/bungou-stray-dogs/",
      "secao": "dublados,legendados",
      "pagina": 28,
      "total_episodios": 0,
      "link_video": "https://animefire.plus/video/bungou-stray-dogs-dublado"
    },
    {
      "id": 519,
      "nome": "Bungou Stray Dogs 2nd season (Dublado)",
      "link": "https://animefire.plus/animes/bungou-stray-dogs-2nd-season-dublado-todos-os-episodios",
      "texto_original": "Bungou Stray Dogs 2nd season (Dublado)",
      "rating": 8.25,
      "classificacao_etaria": "A16",
      "imagem_original": "https://animefire.plus/img/animes/bungou-stray-dogs-2nd-season.webp",
      "imagem_pasta": "https://animefire.plus/img/animes/bungou-stray-dogs-2nd-season/",
      "secao": "dublados,legendados",
      "pagina": 23,
      "total_episodios": 0,
      "link_video": "https://animefire.plus/video/bungou-stray-dogs-2nd-season-dublado"
    },
    {
      "id": 520,
      "nome": "Bungou Stray Dogs 3rd Season (Dublado)",
      "link": "https://animefire.plus/animes/bungou-stray-dogs-3rd-season-dublado-todos-os-episodios",
      "texto_original": "Bungou Stray Dogs 3rd Season (Dublado)",
      "rating": 8.22,
      "classificacao_etaria": "A16",
      "imagem_original": "https://animefire.plus/img/animes/bungou-stray-dogs-3rd-season.webp",
      "imagem_pasta": "https://animefire.plus/img/animes/bungou-stray-dogs-3rd-season/",
      "secao": "dublados,legendados",
      "pagina": 8,
      "total_episodios": 12,
      "link_video": "https://animefire.plus/video/bungou-stray-dogs-3rd-season-dublado"
    },
    {
      "id": 522,
      "nome": "Bungou Stray Dogs 4th Season (Dublado)",
      "link": "https://animefire.plus/animes/bungou-stray-dogs-4-dublado-todos-os-episodios",
      "texto_original": "Bungou Stray Dogs 4th Season (Dublado)",
      "rating": 8.43,
      "classificacao_etaria": "A16",
      "imagem_original": "https://animefire.plus/img/animes/bungou-stray-dogs-4.webp",
      "imagem_pasta": "https://animefire.plus/img/animes/bungou-stray-dogs-4/",
      "secao": "dublados,lancamentos",
      "pagina": 7,
      "total_episodios": 0,
      "link_video": "https://animefire.plus/video/bungou-stray-dogs-4-dublado"
    },
    {
      "id": 523,
      "nome": "Bungou Stray Dogs 5th Season (Dublado)",
      "link": "https://animefire.plus/animes/bungou-stray-dogs-5th-season-dublado-todos-os-episodios",
      "texto_original": "Bungou Stray Dogs 5th Season (Dublado)",
      "rating": 8.62,
      "classificacao_etaria": "A16",
      "imagem_original": "https://animefire.plus/img/animes/bungou-stray-dogs-5th-season.webp",
      "imagem_pasta": "https://animefire.plus/img/animes/bungou-stray-dogs-5th-season/",
      "secao": "dublados,legendados",
      "pagina": 6,
      "total_episodios": 11,
      "link_video": "https://animefire.plus/video/bungou-stray-dogs-5th-season-dublado"
    },
    {
      "id": 525,
      "nome": "Bungou Stray Dogs: Hitori Ayumu (Dublado)",
      "link": "https://animefire.plus/animes/bungou-stray-dogs-hitori-ayumu-dublado-todos-os-episodios",
      "texto_original": "Bungou Stray Dogs: Hitori Ayumu (Dublado)",
      "rating": 7.71,
      "classificacao_etaria": "A14",
      "imagem_original": "https://animefire.plus/img/animes/bungou-stray-dogs-hitori-ayumu.webp",
      "imagem_pasta": "https://animefire.plus/img/animes/bungou-stray-dogs-hitori-ayumu/",
      "secao": "dublados,legendados",
      "pagina": 24,
      "total_episodios": 1,
      "link_video": "https://animefire.plus/video/bungou-stray-dogs-hitori-ayumu-dublado"
    },
    {
      "id": 531,
      "nome": "Burn Up! W (Dublado)",
      "link": "https://animefire.plus/animes/burn-up-w-dublado-todos-os-episodios",
      "texto_original": "Burn Up! W (Dublado)",
      "rating": 6.44,
      "classificacao_etaria": "A18",
      "imagem_original": "https://animefire.plus/img/animes/burn-up-w.webp",
      "imagem_pasta": "https://animefire.plus/img/animes/burn-up-w/",
      "secao": "dublados",
      "pagina": 26,
      "total_episodios": 0,
      "link_video": "https://animefire.plus/video/burn-up-w-dublado"
    },
    {
      "id": 545,
      "nome": "C Danchi (Dublado)",
      "link": "https://animefire.plus/animes/c-danchi-dublado-todos-os-episodios",
      "texto_original": "C Danchi (Dublado)",
      "rating": 5.44,
      "classificacao_etaria": "A16",
      "imagem_original": "https://animefire.plus/img/animes/c-danchi.webp",
      "imagem_pasta": "https://animefire.plus/img/animes/c-danchi/",
      "secao": "dublados,legendados",
      "pagina": 9,
      "total_episodios": 4,
      "link_video": "https://animefire.plus/video/c-danchi-dublado"
    },
    {
      "id": 558,
      "nome": "Captain Tsubasa (2018) (Dublado)",
      "link": "https://animefire.plus/animes/captain-tsubasa-2018-dublado-todos-os-episodios",
      "texto_original": "Captain Tsubasa (2018) (Dublado)",
      "rating": 7.46,
      "classificacao_etaria": null,
      "imagem_original": "https://animefire.plus/img/animes/captain-tsubasa-2018.webp",
      "imagem_pasta": "https://animefire.plus/img/animes/captain-tsubasa-2018/",
      "secao": "dublados,legendados",
      "pagina": 21,
      "total_episodios": 52,
      "link_video": "https://animefire.plus/video/captain-tsubasa-2018-dublado"
    },
    {
      "id": 559,
      "nome": "Captain Tsubasa Season 2: Junior Youth-hen (Dublado)",
      "link": "https://animefire.plus/animes/captain-tsubasa-season-2-junior-youth-hen-dublado-todos-os-episodios",
      "texto_original": "Captain Tsubasa Season 2: Junior Youth-hen (Dublado)",
      "rating": 7.43,
      "classificacao_etaria": null,
      "imagem_original": "https://animefire.plus/img/animes/captain-tsubasa-season-2-junior-youth-hen.webp",
      "imagem_pasta": "https://animefire.plus/img/animes/captain-tsubasa-season-2-junior-youth-hen/",
      "secao": "dublados,legendados",
      "pagina": 4,
      "total_episodios": 39,
      "link_video": "https://animefire.plus/video/captain-tsubasa-season-2-junior-youth-hen-dublado"
    },
    {
      "id": 561,
      "nome": "Cardcaptor Sakura (Dublado)",
      "link": "https://animefire.plus/animes/cardcaptor-sakura-dublado-todos-os-episodios",
      "texto_original": "Cardcaptor Sakura (Dublado)",
      "rating": 8.2,
      "classificacao_etaria": "A10",
      "imagem_original": "https://animefire.plus/img/animes/cardcaptor-sakura.webp",
      "imagem_pasta": "https://animefire.plus/img/animes/cardcaptor-sakura/",
      "secao": "dublados",
      "pagina": 27,
      "total_episodios": 15,
      "link_video": "https://animefire.plus/video/cardcaptor-sakura-dublado"
    },
    {
      "id": 583,
      "nome": "Carole & Tuesday (Dublado)",
      "link": "https://animefire.plus/animes/carole-tuesday-dublado-todos-os-episodios",
      "texto_original": "Carole & Tuesday (Dublado)",
      "rating": 7.98,
      "classificacao_etaria": "A14",
      "imagem_original": "https://animefire.plus/img/animes/carole-tuesday.webp",
      "imagem_pasta": "https://animefire.plus/img/animes/carole-tuesday/",
      "secao": "dublados,legendados",
      "pagina": 25,
      "total_episodios": 24,
      "link_video": "https://animefire.plus/video/carole-tuesday-dublado"
    },
    {
      "id": 590,
      "nome": "Chainsaw Man (Dublado)",
      "link": "https://animefire.plus/animes/chainsaw-man-dublado-todos-os-episodios",
      "texto_original": "Chainsaw Man (Dublado)",
      "rating": 8.44,
      "classificacao_etaria": "A16",
      "imagem_original": "https://animefire.plus/img/animes/chainsaw-man.webp",
      "imagem_pasta": "https://animefire.plus/img/animes/chainsaw-man/",
      "secao": "dublados,legendados",
      "pagina": 9,
      "total_episodios": 12,
      "link_video": "https://animefire.plus/video/chainsaw-man-dublado"
    },
    {
      "id": 607,
      "nome": "Chiisana Eiyuu: Kani to Tamago to Toumei Ningen (Dublado)",
      "link": "https://animefire.plus/animes/chiisana-eiyuu-kani-to-tamago-to-toumei-ningen-dublado-todos-os-episodios",
      "texto_original": "Chiisana Eiyuu: Kani to Tamago to Toumei Ningen (Dublado)",
      "rating": 7.06,
      "classificacao_etaria": null,
      "imagem_original": "https://animefire.plus/img/animes/chiisana-eiyuu-kani-to-tamago-to-toumei-ningen.webp",
      "imagem_pasta": "https://animefire.plus/img/animes/chiisana-eiyuu-kani-to-tamago-to-toumei-ningen/",
      "secao": "dublados,legendados",
      "pagina": 23,
      "total_episodios": 3,
      "link_video": "https://animefire.plus/video/chiisana-eiyuu-kani-to-tamago-to-toumei-ningen-dublado"
    },
    {
      "id": 608,
      "nome": "Chikyuu Shoujo Arjuna (Dublado)",
      "link": "https://animefire.plus/animes/chikyuu-shoujo-arjuna-dublado-todos-os-episodios",
      "texto_original": "Chikyuu Shoujo Arjuna (Dublado)",
      "rating": 6.91,
      "classificacao_etaria": "A14",
      "imagem_original": "https://animefire.plus/img/animes/chikyuu-shoujo-arjuna.webp",
      "imagem_pasta": "https://animefire.plus/img/animes/chikyuu-shoujo-arjuna/",
      "secao": "dublados,legendados",
      "pagina": 27,
      "total_episodios": 9,
      "link_video": "https://animefire.plus/video/chikyuu-shoujo-arjuna-dublado"
    },
    {
      "id": 615,
      "nome": "Chiyu Mahou no Machigatta Tsukaikata (Dublado)",
      "link": "https://animefire.plus/animes/chiyu-mahou-no-machigatta-tsukaikata-dublado-todos-os-episodios",
      "texto_original": "Chiyu Mahou no Machigatta Tsukaikata (Dublado)",
      "rating": 7.53,
      "classificacao_etaria": "A14",
      "imagem_original": "https://animefire.plus/img/animes/chiyu-mahou-no-machigatta-tsukaikata.webp",
      "imagem_pasta": "https://animefire.plus/img/animes/chiyu-mahou-no-machigatta-tsukaikata/",
      "secao": "dublados,legendados,lancamentos",
      "pagina": 3,
      "total_episodios": 13,
      "link_video": "https://animefire.plus/video/chiyu-mahou-no-machigatta-tsukaikata-dublado"
    }
  ],
  "pagination": {
    "current_page": 5,
    "per_page": 20,
    "total_items": 656,
    "total_pages": 33,
    "has_next": true,
    "has_prev": true
  }
}
