{
  "message": "Animes da seção: dublados",
  "section": "dublados",
  "data": [
    {
      "id": 2434,
      "nome": "Masamune-kun no Revenge R (Dublado)",
      "link": "https://animefire.plus/animes/masamune-kun-no-revenge-r-dublado-todos-os-episodios",
      "texto_original": "Masamune-kun no Revenge R (Dublado)",
      "rating": 7.23,
      "classificacao_etaria": "A14",
      "imagem_original": "https://animefire.plus/img/animes/masamune-kun-no-revenge-r.webp",
      "imagem_pasta": "https://animefire.plus/img/animes/masamune-kun-no-revenge-r/",
      "secao": "dublados,legendados",
      "pagina": 7,
      "total_episodios": 12,
      "link_video": "https://animefire.plus/video/masamune-kun-no-revenge-r-dublado"
    },
    {
      "id": 2438,
      "nome": "Mashle (Dublado)",
      "link": "https://animefire.plus/animes/mashle-dublado-todos-os-episodios",
      "texto_original": "Mashle (Dublado)",
      "rating": 7.62,
      "classificacao_etaria": "A14",
      "imagem_original": "https://animefire.plus/img/animes/mashle.jpg",
      "imagem_pasta": "https://animefire.plus/img/animes/mashle/",
      "secao": "dublados,legendados",
      "pagina": 7,
      "total_episodios": 12,
      "link_video": "https://animefire.plus/video/mashle-dublado"
    },
    {
      "id": 2440,
      "nome": "Mashle: Shinkakusha Kouho Senbatsu Shiken-hen (Dublado)",
      "link": "https://animefire.plus/animes/mashle-shinkakusha-kouho-senbatsu-shiken-hen-dublado-todos-os-episodios",
      "texto_original": "Mashle: Shinkakusha Kouho Senbatsu Shiken-hen (Dublado)",
      "rating": 7.79,
      "classificacao_etaria": "A14",
      "imagem_original": "https://animefire.plus/img/animes/mashle-shinkakusha-kouho-senbatsu-shiken-hen.webp",
      "imagem_pasta": "https://animefire.plus/img/animes/mashle-shinkakusha-kouho-senbatsu-shiken-hen/",
      "secao": "dublados,lancamentos",
      "pagina": 3,
      "total_episodios": 8,
      "link_video": "https://animefire.plus/video/mashle-shinkakusha-kouho-senbatsu-shiken-hen-dublado"
    },
    {
      "id": 2463,
      "nome": "Medarot (Dublado)",
      "link": "https://animefire.plus/animes/medarot-dublado-todos-os-episodios",
      "texto_original": "Medarot (Dublado)",
      "rating": 7.12,
      "classificacao_etaria": "A10",
      "imagem_original": "https://animefire.plus/img/animes/medarot.webp",
      "imagem_pasta": "https://animefire.plus/img/animes/medarot/",
      "secao": "dublados",
      "pagina": 26,
      "total_episodios": 52,
      "link_video": "https://animefire.plus/video/medarot-dublado"
    },
    {
      "id": 2465,
      "nome": "Megami Kouhosei (Dublado)",
      "link": "https://animefire.plus/animes/megami-kouhosei-dublado-todos-os-episodios",
      "texto_original": "Megami Kouhosei (Dublado)",
      "rating": 6.49,
      "classificacao_etaria": "A14",
      "imagem_original": "https://animefire.plus/img/animes/megami-kouhosei.webp",
      "imagem_pasta": "https://animefire.plus/img/animes/megami-kouhosei/",
      "secao": "dublados,legendados",
      "pagina": 26,
      "total_episodios": 12,
      "link_video": "https://animefire.plus/video/megami-kouhosei-dublado"
    },
    {
      "id": 2475,
      "nome": "Meikyuu Black Company (Dublado)",
      "link": "https://animefire.plus/animes/meikyuu-black-company-dublado-todos-os-episodios",
      "texto_original": "Meikyuu Black Company (Dublado)",
      "rating": 7.22,
      "classificacao_etaria": "A14",
      "imagem_original": "https://animefire.plus/img/animes/meikyuu-black-company.webp",
      "imagem_pasta": "https://animefire.plus/img/animes/meikyuu-black-company/",
      "secao": "dublados,legendados",
      "pagina": 16,
      "total_episodios": 12,
      "link_video": "https://animefire.plus/video/meikyuu-black-company-dublado"
    },
    {
      "id": 2482,
      "nome": "Metal Fight Beyblade (Dublado)",
      "link": "https://animefire.plus/animes/metal-fight-beyblade-dublado-todos-os-episodios",
      "texto_original": "Metal Fight Beyblade (Dublado)",
      "rating": 6.71,
      "classificacao_etaria": "A10",
      "imagem_original": "https://animefire.plus/img/animes/metal-fight-beyblade.webp",
      "imagem_pasta": "https://animefire.plus/img/animes/metal-fight-beyblade/",
      "secao": "dublados",
      "pagina": 26,
      "total_episodios": 51,
      "link_video": "https://animefire.plus/video/metal-fight-beyblade-dublado"
    },
    {
      "id": 2483,
      "nome": "Metallic Rouge (Dublado)",
      "link": "https://animefire.plus/animes/metallic-rouge-dublado-todos-os-episodios",
      "texto_original": "Metallic Rouge (Dublado)",
      "rating": 6.2,
      "classificacao_etaria": "A14",
      "imagem_original": "https://animefire.plus/img/animes/metallic-rouge.webp",
      "imagem_pasta": "https://animefire.plus/img/animes/metallic-rouge/",
      "secao": "dublados,legendados",
      "pagina": 4,
      "total_episodios": 13,
      "link_video": "https://animefire.plus/video/metallic-rouge-dublado"
    },
    {
      "id": 2486,
      "nome": "MF Ghost (Dublado)",
      "link": "https://animefire.plus/animes/mf-ghost-dublado-todos-os-episodios",
      "texto_original": "MF Ghost (Dublado)",
      "rating": 7.56,
      "classificacao_etaria": "A14",
      "imagem_original": "https://animefire.plus/img/animes/mf-ghost.webp",
      "imagem_pasta": "https://animefire.plus/img/animes/mf-ghost/",
      "secao": "dublados,legendados",
      "pagina": 5,
      "total_episodios": 12,
      "link_video": "https://animefire.plus/video/mf-ghost-dublado"
    },
    {
      "id": 2495,
      "nome": "Mieruko-chan (Dublado)",
      "link": "https://animefire.plus/animes/mieruko-chan-dublado-todos-os-episodios",
      "texto_original": "Mieruko-chan (Dublado)",
      "rating": 7.4,
      "classificacao_etaria": "A14",
      "imagem_original": "https://animefire.plus/img/animes/mieruko-chan.webp",
      "imagem_pasta": "https://animefire.plus/img/animes/mieruko-chan/",
      "secao": "dublados,legendados",
      "pagina": 14,
      "total_episodios": 12,
      "link_video": "https://animefire.plus/video/mieruko-chan-dublado"
    },
    {
      "id": 2519,
      "nome": "Mirai Nikki (Dublado)",
      "link": "https://animefire.plus/animes/mirai-nikki-dublado-todos-os-episodios",
      "texto_original": "Mirai Nikki (Dublado)",
      "rating": 7.22,
      "classificacao_etaria": "A16",
      "imagem_original": "https://animefire.plus/img/animes/mirai-nikki.webp",
      "imagem_pasta": "https://animefire.plus/img/animes/mirai-nikki/",
      "secao": "dublados,legendados",
      "pagina": 13,
      "total_episodios": 26,
      "link_video": "https://animefire.plus/video/mirai-nikki-dublado"
    },
    {
      "id": 2539,
      "nome": "Mob Psycho 100 (Dublado)",
      "link": "https://animefire.plus/animes/mob-psycho-100-dublado-todos-os-episodios",
      "texto_original": "Mob Psycho 100 (Dublado)",
      "rating": 8.5,
      "classificacao_etaria": "A14",
      "imagem_original": "https://animefire.plus/img/animes/mob-psycho-100.webp",
      "imagem_pasta": "https://animefire.plus/img/animes/mob-psycho-100/",
      "secao": "dublados,legendados",
      "pagina": 20,
      "total_episodios": 0,
      "link_video": "https://animefire.plus/video/mob-psycho-100-dublado"
    },
    {
      "id": 2540,
      "nome": "Mob Psycho 100 II (Dublado)",
      "link": "https://animefire.plus/animes/mob-psycho-100-ii-dublado-todos-os-episodios",
      "texto_original": "Mob Psycho 100 II (Dublado)",
      "rating": 8.88,
      "classificacao_etaria": "A14",
      "imagem_original": "https://animefire.plus/img/animes/mob-psycho-100-ii.webp",
      "imagem_pasta": "https://animefire.plus/img/animes/mob-psycho-100-ii/",
      "secao": "dublados,legendados",
      "pagina": 23,
      "total_episodios": 13,
      "link_video": "https://animefire.plus/video/mob-psycho-100-ii-dublado"
    },
    {
      "id": 2541,
      "nome": "Mob Psycho 100 III (Dublado)",
      "link": "https://animefire.plus/animes/mob-psycho-100-iii-dublado-todos-os-episodios",
      "texto_original": "Mob Psycho 100 III (Dublado)",
      "rating": 8.71,
      "classificacao_etaria": "A14",
      "imagem_original": "https://animefire.plus/img/animes/mob-psycho-100-iii.webp",
      "imagem_pasta": "https://animefire.plus/img/animes/mob-psycho-100-iii/",
      "secao": "dublados,legendados",
      "pagina": 9,
      "total_episodios": 12,
      "link_video": "https://animefire.plus/video/mob-psycho-100-iii-dublado"
    },
    {
      "id": 2543,
      "nome": "Mobile Suit Gundam 00 (Dublado)",
      "link": "https://animefire.plus/animes/mobile-suit-gundam-00-dublado-todos-os-episodios",
      "texto_original": "Mobile Suit Gundam 00 (Dublado)",
      "rating": 8.13,
      "classificacao_etaria": "A16",
      "imagem_original": "https://animefire.plus/img/animes/mobile-suit-gundam-00.webp",
      "imagem_pasta": "https://animefire.plus/img/animes/mobile-suit-gundam-00/",
      "secao": "dublados,legendados,lancamentos",
      "pagina": 18,
      "total_episodios": 25,
      "link_video": "https://animefire.plus/video/mobile-suit-gundam-00-dublado"
    },
    {
      "id": 2552,
      "nome": "Mobile Suit Gundam Wing (Dublado)",
      "link": "https://animefire.plus/animes/mobile-suit-gundam-wing-dublado-todos-os-episodios",
      "texto_original": "Mobile Suit Gundam Wing (Dublado)",
      "rating": 7.81,
      "classificacao_etaria": "A14",
      "imagem_original": "https://animefire.plus/img/animes/mobile-suit-gundam-wing.webp",
      "imagem_pasta": "https://animefire.plus/img/animes/mobile-suit-gundam-wing/",
      "secao": "dublados",
      "pagina": 27,
      "total_episodios": 12,
      "link_video": "https://animefire.plus/video/mobile-suit-gundam-wing-dublado"
    },
    {
      "id": 2588,
      "nome": "Monsters: Ippyaku Sanjou Hiryuu Jigoku (Dublado)",
      "link": "https://animefire.plus/animes/monsters-ippyaku-sanjou-hiryuu-jigoku-dublado-todos-os-episodios",
      "texto_original": "Monsters: Ippyaku Sanjou Hiryuu Jigoku (Dublado)",
      "rating": 7.7,
      "classificacao_etaria": "A14",
      "imagem_original": "https://animefire.plus/img/animes/monsters-ippyaku-sanjou-hiryuu-jigoku.webp",
      "imagem_pasta": "https://animefire.plus/img/animes/monsters-ippyaku-sanjou-hiryuu-jigoku/",
      "secao": "dublados,legendados",
      "pagina": 3,
      "total_episodios": 1,
      "link_video": "https://animefire.plus/video/monsters-ippyaku-sanjou-hiryuu-jigoku-dublado"
    },
    {
      "id": 2609,
      "nome": "Mujin Wakusei Survive (Dublado)",
      "link": "https://animefire.plus/animes/mujin-wakusei-survive-dublado-todos-os-episodios",
      "texto_original": "Mujin Wakusei Survive (Dublado)",
      "rating": 7.74,
      "classificacao_etaria": null,
      "imagem_original": "https://animefire.plus/img/animes/mujin-wakusei-survive.webp",
      "imagem_pasta": "https://animefire.plus/img/animes/mujin-wakusei-survive/",
      "secao": "dublados,legendados",
      "pagina": 27,
      "total_episodios": 52,
      "link_video": "https://animefire.plus/video/mujin-wakusei-survive-dublado"
    },
    {
      "id": 2619,
      "nome": "Mushikago no Cagaster (Dublado)",
      "link": "https://animefire.plus/animes/mushikago-no-cagaster-dublado-todos-os-episodios",
      "texto_original": "Mushikago no Cagaster (Dublado)",
      "rating": 6.57,
      "classificacao_etaria": "A16",
      "imagem_original": "https://animefire.plus/img/animes/mushikago-no-cagaster.webp",
      "imagem_pasta": "https://animefire.plus/img/animes/mushikago-no-cagaster/",
      "secao": "dublados,legendados",
      "pagina": 25,
      "total_episodios": 12,
      "link_video": "https://animefire.plus/video/mushikago-no-cagaster-dublado"
    },
    {
      "id": 2620,
      "nome": "Mushishi (Dublado)",
      "link": "https://animefire.plus/animes/mushishi-dublado-todos-os-episodios",
      "texto_original": "Mushishi (Dublado)",
      "rating": 8.71,
      "classificacao_etaria": "A14",
      "imagem_original": "https://animefire.plus/img/animes/mushishi.webp",
      "imagem_pasta": "https://animefire.plus/img/animes/mushishi/",
      "secao": "dublados,legendados",
      "pagina": 25,
      "total_episodios": 26,
      "link_video": "https://animefire.plus/video/mushishi-dublado"
    }
  ],
  "pagination": {
    "current_page": 19,
    "per_page": 20,
    "total_items": 656,
    "total_pages": 33,
    "has_next": true,
    "has_prev": true
  }
}
