{
  "message": "Animes da seção: dublados",
  "section": "dublados",
  "data": [
    {
      "id": 423,
      "nome": "Bleach (Dublado)",
      "link": "https://animefire.plus/animes/bleach-dublado-todos-os-episodios",
      "texto_original": "Bleach (Dublado)",
      "rating": 7.81,
      "classificacao_etaria": "A14",
      "imagem_original": "https://animefire.plus/img/animes/bleach.webp",
      "imagem_pasta": "https://animefire.plus/img/animes/bleach/",
      "secao": "dublados,legendados",
      "pagina": 21,
      "total_episodios": 366,
      "link_video": "https://animefire.plus/video/bleach-dublado"
    },
    {
      "id": 426,
      "nome": "Bleach: Sennen Kessen-hen - Ketsubetsu-tan (Dublado)",
      "link": "https://animefire.plus/animes/bleach-sennen-kessen-hen---ketsubetsu-tan-dublado-todos-os-episodios",
      "texto_original": "Bleach: Sennen Kessen-hen - Ketsubetsu-tan (Dublado)",
      "rating": 8.7,
      "classificacao_etaria": "A16",
      "imagem_original": "https://animefire.plus/img/animes/bleach-sennen-kessen-hen---ketsubetsu-tan.webp",
      "imagem_pasta": "https://animefire.plus/img/animes/bleach-sennen-kessen-hen---ketsubetsu-tan/",
      "secao": "dublados",
      "pagina": 6,
      "total_episodios": 13,
      "link_video": "https://animefire.plus/video/bleach-sennen-kessen-hen---ketsubetsu-tan-dublado"
    },
    {
      "id": 427,
      "nome": "Bleach: Sennen Kessen-hen - Soukoku-tan (Dublado)",
      "link": "https://animefire.plus/animes/bleach-sennen-kessen-hen---soukoku-tan-dublado-todos-os-episodios",
      "texto_original": "Bleach: Sennen Kessen-hen - Soukoku-tan (Dublado)",
      "rating": 8.67,
      "classificacao_etaria": "A16",
      "imagem_original": "https://animefire.plus/img/animes/bleach-sennen-kessen-hen---soukoku-tan.webp",
      "imagem_pasta": "https://animefire.plus/img/animes/bleach-sennen-kessen-hen---soukoku-tan/",
      "secao": "dublados,legendados",
      "pagina": 2,
      "total_episodios": 14,
      "link_video": "https://animefire.plus/video/bleach-sennen-kessen-hen---soukoku-tan-dublado"
    },
    {
      "id": 428,
      "nome": "Bleach: Sennen Kessen-hen (Dublado)",
      "link": "https://animefire.plus/animes/bleach-sennen-kessen-hen-dublado-todos-os-episodios",
      "texto_original": "Bleach: Sennen Kessen-hen (Dublado)",
      "rating": 8.99,
      "classificacao_etaria": "A16",
      "imagem_original": "https://animefire.plus/img/animes/bleach-sennen-kessen-hen.webp",
      "imagem_pasta": "https://animefire.plus/img/animes/bleach-sennen-kessen-hen/",
      "secao": "dublados,legendados",
      "pagina": 9,
      "total_episodios": 13,
      "link_video": "https://animefire.plus/video/bleach-sennen-kessen-hen-dublado"
    },
    {
      "id": 432,
      "nome": "Blood+ (Dublado)",
      "link": "https://animefire.plus/animes/blood-dublado-todos-os-episodios",
      "texto_original": "Blood+ (Dublado)",
      "rating": 7.69,
      "classificacao_etaria": "A16",
      "imagem_original": "https://animefire.plus/img/animes/blood.webp",
      "imagem_pasta": "https://animefire.plus/img/animes/blood/",
      "secao": "dublados,legendados",
      "pagina": 22,
      "total_episodios": 50,
      "link_video": "https://animefire.plus/video/blood-dublado"
    },
    {
      "id": 435,
      "nome": "Blue Dragon (Dublado)",
      "link": "https://animefire.plus/animes/blue-dragon-dublado-todos-os-episodios",
      "texto_original": "Blue Dragon (Dublado)",
      "rating": 6.43,
      "classificacao_etaria": "A10",
      "imagem_original": "https://animefire.plus/img/animes/blue-dragon.webp",
      "imagem_pasta": "https://animefire.plus/img/animes/blue-dragon/",
      "secao": "dublados",
      "pagina": 21,
      "total_episodios": 0,
      "link_video": "https://animefire.plus/video/blue-dragon-dublado"
    },
    {
      "id": 439,
      "nome": "Blue Lock (Dublado)",
      "link": "https://animefire.plus/animes/blue-lock-dublado-todos-os-episodios",
      "texto_original": "Blue Lock (Dublado)",
      "rating": 8.17,
      "classificacao_etaria": "A14",
      "imagem_original": "https://animefire.plus/img/animes/blue-lock.webp",
      "imagem_pasta": "https://animefire.plus/img/animes/blue-lock/",
      "secao": "dublados,legendados,lancamentos",
      "pagina": 8,
      "total_episodios": 24,
      "link_video": "https://animefire.plus/video/blue-lock-dublado"
    },
    {
      "id": 440,
      "nome": "Blue Lock vs. U-20 Japan (Dublado)",
      "link": "https://animefire.plus/animes/blue-lock-vs-u-20-japan-dublado-todos-os-episodios",
      "texto_original": "Blue Lock vs. U-20 Japan (Dublado)",
      "rating": 7.55,
      "classificacao_etaria": "A14",
      "imagem_original": "https://animefire.plus/img/animes/blue-lock-vs-u-20-japan.webp",
      "imagem_pasta": "https://animefire.plus/img/animes/blue-lock-vs-u-20-japan/",
      "secao": "dublados,legendados,lancamentos",
      "pagina": 2,
      "total_episodios": 14,
      "link_video": "https://animefire.plus/video/blue-lock-vs-u-20-japan-dublado"
    },
    {
      "id": 441,
      "nome": "Blue Period (Dublado)",
      "link": "https://animefire.plus/animes/blue-period-dublado-todos-os-episodios",
      "texto_original": "Blue Period (Dublado)",
      "rating": 7.79,
      "classificacao_etaria": "A14",
      "imagem_original": "https://animefire.plus/img/animes/blue-period.webp",
      "imagem_pasta": "https://animefire.plus/img/animes/blue-period/",
      "secao": "dublados,legendados",
      "pagina": 12,
      "total_episodios": 12,
      "link_video": "https://animefire.plus/video/blue-period-dublado"
    },
    {
      "id": 442,
      "nome": "Blue Reflection Ray (Dublado)",
      "link": "https://animefire.plus/animes/blue-reflection-ray-dublado-todos-os-episodios",
      "texto_original": "Blue Reflection Ray (Dublado)",
      "rating": 5.87,
      "classificacao_etaria": "A14",
      "imagem_original": "https://animefire.plus/img/animes/blue-reflection-ray.webp",
      "imagem_pasta": "https://animefire.plus/img/animes/blue-reflection-ray/",
      "secao": "dublados,legendados",
      "pagina": 10,
      "total_episodios": 24,
      "link_video": "https://animefire.plus/video/blue-reflection-ray-dublado"
    },
    {
      "id": 445,
      "nome": "BNA (Dublado)",
      "link": "https://animefire.plus/animes/bna-dublado-todos-os-episodios",
      "texto_original": "BNA (Dublado)",
      "rating": 7.45,
      "classificacao_etaria": "A14",
      "imagem_original": "https://animefire.plus/img/animes/bna.webp",
      "imagem_pasta": "https://animefire.plus/img/animes/bna/",
      "secao": "dublados",
      "pagina": 21,
      "total_episodios": 12,
      "link_video": "https://animefire.plus/video/bna-dublado"
    },
    {
      "id": 448,
      "nome": "Boku no Hero Academia (Dublado)",
      "link": "https://animefire.plus/animes/boku-no-hero-academia-dublado-todos-os-episodios",
      "texto_original": "Boku no Hero Academia (Dublado)",
      "rating": 8.16,
      "classificacao_etaria": "A14",
      "imagem_original": "https://animefire.plus/img/animes/boku-no-hero-academia.webp",
      "imagem_pasta": "https://animefire.plus/img/animes/boku-no-hero-academia/",
      "secao": "dublados,legendados",
      "pagina": 20,
      "total_episodios": 13,
      "link_video": "https://animefire.plus/video/boku-no-hero-academia-dublado"
    },
    {
      "id": 450,
      "nome": "Boku no Hero Academia 2nd Season (Dublado)",
      "link": "https://animefire.plus/animes/boku-no-hero-academia-2-dublado-todos-os-episodios",
      "texto_original": "Boku no Hero Academia 2nd Season (Dublado)",
      "rating": 8.39,
      "classificacao_etaria": "A14",
      "imagem_original": "https://animefire.plus/img/animes/boku-no-hero-academia-2.webp",
      "imagem_pasta": "https://animefire.plus/img/animes/boku-no-hero-academia-2/",
      "secao": "dublados",
      "pagina": 19,
      "total_episodios": 25,
      "link_video": "https://animefire.plus/video/boku-no-hero-academia-2-dublado"
    },
    {
      "id": 452,
      "nome": "Boku no Hero Academia 3rd Season (Dublado)",
      "link": "https://animefire.plus/animes/boku-no-hero-academia-3-dublado-todos-os-episodios",
      "texto_original": "Boku no Hero Academia 3rd Season (Dublado)",
      "rating": 8.31,
      "classificacao_etaria": "A14",
      "imagem_original": "https://animefire.plus/img/animes/boku-no-hero-academia-3.webp",
      "imagem_pasta": "https://animefire.plus/img/animes/boku-no-hero-academia-3/",
      "secao": "dublados",
      "pagina": 19,
      "total_episodios": 25,
      "link_video": "https://animefire.plus/video/boku-no-hero-academia-3-dublado"
    },
    {
      "id": 454,
      "nome": "Boku no Hero Academia 4th Season (Dublado)",
      "link": "https://animefire.plus/animes/boku-no-hero-academia-4-dublado-todos-os-episodios",
      "texto_original": "Boku no Hero Academia 4th Season (Dublado)",
      "rating": 8.11,
      "classificacao_etaria": "A14",
      "imagem_original": "https://animefire.plus/img/animes/boku-no-hero-academia-4.webp",
      "imagem_pasta": "https://animefire.plus/img/animes/boku-no-hero-academia-4/",
      "secao": "dublados",
      "pagina": 19,
      "total_episodios": 25,
      "link_video": "https://animefire.plus/video/boku-no-hero-academia-4-dublado"
    },
    {
      "id": 456,
      "nome": "Boku no Hero Academia 5th Season (Dublado)",
      "link": "https://animefire.plus/animes/boku-no-hero-academia-5-dublado-todos-os-episodios",
      "texto_original": "Boku no Hero Academia 5th Season (Dublado)",
      "rating": 7.35,
      "classificacao_etaria": "A14",
      "imagem_original": "https://animefire.plus/img/animes/boku-no-hero-academia-5.webp",
      "imagem_pasta": "https://animefire.plus/img/animes/boku-no-hero-academia-5/",
      "secao": "dublados",
      "pagina": 18,
      "total_episodios": 1,
      "link_video": "https://animefire.plus/video/boku-no-hero-academia-5-dublado"
    },
    {
      "id": 457,
      "nome": "Boku no Hero Academia 6th Season (Dublado)",
      "link": "https://animefire.plus/animes/boku-no-hero-academia-6th-season-dublado-todos-os-episodios",
      "texto_original": "Boku no Hero Academia 6th Season (Dublado)",
      "rating": 8.23,
      "classificacao_etaria": "A14",
      "imagem_original": "https://animefire.plus/img/animes/boku-no-hero-academia-6th-season.webp",
      "imagem_pasta": "https://animefire.plus/img/animes/boku-no-hero-academia-6th-season/",
      "secao": "dublados,legendados,lancamentos",
      "pagina": 9,
      "total_episodios": 25,
      "link_video": "https://animefire.plus/video/boku-no-hero-academia-6th-season-dublado"
    },
    {
      "id": 459,
      "nome": "Boku no Hero Academia: Ikinokore! Kesshi no Survival Kunren (Dublado)",
      "link": "https://animefire.plus/animes/boku-no-hero-academia-ikinokore-kesshi-no-survival-kunren-dublado-todos-os-episodios",
      "texto_original": "Boku no Hero Academia: Ikinokore! Kesshi no Survival Kunren (Dublado)",
      "rating": 7.1,
      "classificacao_etaria": "A14",
      "imagem_original": "https://animefire.plus/img/animes/boku-no-hero-academia-ikinokore-kesshi-no-survival-kunren.webp",
      "imagem_pasta": "https://animefire.plus/img/animes/boku-no-hero-academia-ikinokore-kesshi-no-survival-kunren/",
      "secao": "dublados,legendados",
      "pagina": 18,
      "total_episodios": 2,
      "link_video": "https://animefire.plus/video/boku-no-hero-academia-ikinokore-kesshi-no-survival-kunren-dublado"
    },
    {
      "id": 460,
      "nome": "Boku no Hero Academia: Memories (Dublado)",
      "link": "https://animefire.plus/animes/boku-no-hero-academia-memories-dublado-todos-os-episodios",
      "texto_original": "Boku no Hero Academia: Memories (Dublado)",
      "rating": 6.66,
      "classificacao_etaria": "A14",
      "imagem_original": "https://animefire.plus/img/animes/boku-no-hero-academia-memories.webp",
      "imagem_pasta": "https://animefire.plus/img/animes/boku-no-hero-academia-memories/",
      "secao": "dublados",
      "pagina": 2,
      "total_episodios": 0,
      "link_video": "https://animefire.plus/video/boku-no-hero-academia-memories-dublado"
    },
    {
      "id": 483,
      "nome": "Boruto: Naruto Next Generations (Dublado)",
      "link": "https://animefire.plus/animes/boruto-naruto-next-generations-dublado-todos-os-episodios",
      "texto_original": "Boruto: Naruto Next Generations (Dublado)",
      "rating": 5.9,
      "classificacao_etaria": "A14",
      "imagem_original": "https://animefire.plus/img/animes/boruto-naruto-next-generations.webp",
      "imagem_pasta": "https://animefire.plus/img/animes/boruto-naruto-next-generations/",
      "secao": "dublados,legendados,lancamentos",
      "pagina": 13,
      "total_episodios": 104,
      "link_video": "https://animefire.plus/video/boruto-naruto-next-generations-dublado"
    }
  ],
  "pagination": {
    "current_page": 4,
    "per_page": 20,
    "total_items": 656,
    "total_pages": 33,
    "has_next": true,
    "has_prev": true
  }
}
