{
  "message": "Animes da seção: dublados",
  "section": "dublados",
  "data": [
    {
      "id": 302,
      "nome": "Back Arrow (Dublado)",
      "link": "https://animefire.plus/animes/back-arrow-dublado-todos-os-episodios",
      "texto_original": "Back Arrow (Dublado)",
      "rating": 6.33,
      "classificacao_etaria": "A18",
      "imagem_original": "https://animefire.plus/img/animes/back-arrow.webp",
      "imagem_pasta": "https://animefire.plus/img/animes/back-arrow/",
      "secao": "dublados,legendados",
      "pagina": 13,
      "total_episodios": 24,
      "link_video": "https://animefire.plus/video/back-arrow-dublado"
    },
    {
      "id": 303,
      "nome": "Back Street Girls: Gokudolls (Dublado)",
      "link": "https://animefire.plus/animes/back-street-girls-gokudolls-dublado-todos-os-episodios",
      "texto_original": "Back Street Girls: Gokudolls (Dublado)",
      "rating": 6.93,
      "classificacao_etaria": "A16",
      "imagem_original": "https://animefire.plus/img/animes/back-street-girls-gokudolls.webp",
      "imagem_pasta": "https://animefire.plus/img/animes/back-street-girls-gokudolls/",
      "secao": "dublados,legendados",
      "pagina": 24,
      "total_episodios": 10,
      "link_video": "https://animefire.plus/video/back-street-girls-gokudolls-dublado"
    },
    {
      "id": 309,
      "nome": "Baki (Dublado)",
      "link": "https://animefire.plus/animes/baki-dublado-todos-os-episodios",
      "texto_original": "Baki (Dublado)",
      "rating": 7.33,
      "classificacao_etaria": "A16",
      "imagem_original": "https://animefire.plus/img/animes/baki.webp",
      "imagem_pasta": "https://animefire.plus/img/animes/baki/",
      "secao": "dublados,legendados",
      "pagina": 25,
      "total_episodios": 26,
      "link_video": "https://animefire.plus/video/baki-dublado"
    },
    {
      "id": 323,
      "nome": "Bakuten Shoot Beyblade (Dublado)",
      "link": "https://animefire.plus/animes/bakuten-shoot-beyblade-dublado-todos-os-episodios",
      "texto_original": "Bakuten Shoot Beyblade (Dublado)",
      "rating": 6.8,
      "classificacao_etaria": "A10",
      "imagem_original": "https://animefire.plus/img/animes/bakuten-shoot-beyblade.webp",
      "imagem_pasta": "https://animefire.plus/img/animes/bakuten-shoot-beyblade/",
      "secao": "dublados",
      "pagina": 27,
      "total_episodios": 51,
      "link_video": "https://animefire.plus/video/bakuten-shoot-beyblade-dublado"
    },
    {
      "id": 324,
      "nome": "Bakuten Shoot Beyblade 2002 (Dublado)",
      "link": "https://animefire.plus/animes/bakuten-shoot-beyblade-2002-dublado-todos-os-episodios",
      "texto_original": "Bakuten Shoot Beyblade 2002 (Dublado)",
      "rating": 6.75,
      "classificacao_etaria": "A10",
      "imagem_original": "https://animefire.plus/img/animes/bakuten-shoot-beyblade-2002.webp",
      "imagem_pasta": "https://animefire.plus/img/animes/bakuten-shoot-beyblade-2002/",
      "secao": "dublados",
      "pagina": 28,
      "total_episodios": 0,
      "link_video": "https://animefire.plus/video/bakuten-shoot-beyblade-2002-dublado"
    },
    {
      "id": 325,
      "nome": "Bakuten Shoot Beyblade G Revolution (Dublado)",
      "link": "https://animefire.plus/animes/bakuten-shoot-beyblade-g-revolution-dublado-todos-os-episodios",
      "texto_original": "Bakuten Shoot Beyblade G Revolution (Dublado)",
      "rating": 7.01,
      "classificacao_etaria": "A10",
      "imagem_original": "https://animefire.plus/img/animes/bakuten-shoot-beyblade-g-revolution.webp",
      "imagem_pasta": "https://animefire.plus/img/animes/bakuten-shoot-beyblade-g-revolution/",
      "secao": "dublados",
      "pagina": 27,
      "total_episodios": 11,
      "link_video": "https://animefire.plus/video/bakuten-shoot-beyblade-g-revolution-dublado"
    },
    {
      "id": 343,
      "nome": "Baraou no Souretsu (Dublado)",
      "link": "https://animefire.plus/animes/baraou-no-souretsu-dublado-todos-os-episodios",
      "texto_original": "Baraou no Souretsu (Dublado)",
      "rating": 6.39,
      "classificacao_etaria": "A14",
      "imagem_original": "https://animefire.plus/img/animes/baraou-no-souretsu.webp",
      "imagem_pasta": "https://animefire.plus/img/animes/baraou-no-souretsu/",
      "secao": "dublados,legendados",
      "pagina": 12,
      "total_episodios": 24,
      "link_video": "https://animefire.plus/video/baraou-no-souretsu-dublado"
    },
    {
      "id": 344,
      "nome": "Barom One (Dublado)",
      "link": "https://animefire.plus/animes/barom-one-dublado-todos-os-episodios",
      "texto_original": "Barom One (Dublado)",
      "rating": 5.39,
      "classificacao_etaria": "A14",
      "imagem_original": "https://animefire.plus/img/animes/barom-one.webp",
      "imagem_pasta": "https://animefire.plus/img/animes/barom-one/",
      "secao": "dublados,legendados",
      "pagina": 26,
      "total_episodios": 13,
      "link_video": "https://animefire.plus/video/barom-one-dublado"
    },
    {
      "id": 347,
      "nome": "Basilisk: Kouga Ninpou Chou (Dublado)",
      "link": "https://animefire.plus/animes/basilisk-kouga-ninpou-chou-dublado-todos-os-episodios",
      "texto_original": "Basilisk: Kouga Ninpou Chou (Dublado)",
      "rating": 7.63,
      "classificacao_etaria": "A16",
      "imagem_original": "https://animefire.plus/img/animes/basilisk-kouga-ninpou-chou.webp",
      "imagem_pasta": "https://animefire.plus/img/animes/basilisk-kouga-ninpou-chou/",
      "secao": "dublados,legendados",
      "pagina": 27,
      "total_episodios": 25,
      "link_video": "https://animefire.plus/video/basilisk-kouga-ninpou-chou-dublado"
    },
    {
      "id": 350,
      "nome": "Bastard!! Ankoku no Hakaishin (ONA) (Dublado)",
      "link": "https://animefire.plus/animes/bastard-ankoku-no-hakaishin-ona-dublado-todos-os-episodios",
      "texto_original": "Bastard!! Ankoku no Hakaishin (ONA) (Dublado)",
      "rating": 6.59,
      "classificacao_etaria": "A18",
      "imagem_original": "https://animefire.plus/img/animes/bastard-ankoku-no-hakaishin-ona.webp",
      "imagem_pasta": "https://animefire.plus/img/animes/bastard-ankoku-no-hakaishin-ona/",
      "secao": "dublados,legendados",
      "pagina": 10,
      "total_episodios": 13,
      "link_video": "https://animefire.plus/video/bastard-ankoku-no-hakaishin-ona-dublado"
    },
    {
      "id": 351,
      "nome": "Bastard!! Ankoku no Hakaishin (ONA) Part 2 (Dublado)",
      "link": "https://animefire.plus/animes/bastard-ankoku-no-hakaishin-ona-part-2-dublado-todos-os-episodios",
      "texto_original": "Bastard!! Ankoku no Hakaishin (ONA) Part 2 (Dublado)",
      "rating": 6.75,
      "classificacao_etaria": "A18",
      "imagem_original": "https://animefire.plus/img/animes/bastard-ankoku-no-hakaishin-ona-part-2.webp",
      "imagem_pasta": "https://animefire.plus/img/animes/bastard-ankoku-no-hakaishin-ona-part-2/",
      "secao": "dublados,legendados",
      "pagina": 9,
      "total_episodios": 11,
      "link_video": "https://animefire.plus/video/bastard-ankoku-no-hakaishin-ona-part-2-dublado"
    },
    {
      "id": 352,
      "nome": "Bastard!! Ankoku no Hakaishin Part 2 (ONA) (Dublado)",
      "link": "https://animefire.plus/animes/bastard-ankoku-no-hakaishin-part-2-ona-dublado-todos-os-episodios",
      "texto_original": "Bastard!! Ankoku no Hakaishin Part 2 (ONA) (Dublado)",
      "rating": 6.75,
      "classificacao_etaria": "A18",
      "imagem_original": "https://animefire.plus/img/animes/bastard-ankoku-no-hakaishin-part-2-ona.webp",
      "imagem_pasta": "https://animefire.plus/img/animes/bastard-ankoku-no-hakaishin-part-2-ona/",
      "secao": "dublados",
      "pagina": 8,
      "total_episodios": 11,
      "link_video": "https://animefire.plus/video/bastard-ankoku-no-hakaishin-part-2-ona-dublado"
    },
    {
      "id": 353,
      "nome": "Bastard!! Ankoku no Hakaishin Season 2 (ONA) (Dublado)",
      "link": "https://animefire.plus/animes/bastard-ankoku-no-hakaishin-season-2-ona-dublado-todos-os-episodios",
      "texto_original": "Bastard!! Ankoku no Hakaishin Season 2 (ONA) (Dublado)",
      "rating": 7.07,
      "classificacao_etaria": "A18",
      "imagem_original": "https://animefire.plus/img/animes/bastard-ankoku-no-hakaishin-season-2-ona.webp",
      "imagem_pasta": "https://animefire.plus/img/animes/bastard-ankoku-no-hakaishin-season-2-ona/",
      "secao": "dublados,legendados",
      "pagina": 6,
      "total_episodios": 15,
      "link_video": "https://animefire.plus/video/bastard-ankoku-no-hakaishin-season-2-ona-dublado"
    },
    {
      "id": 361,
      "nome": "Battle Spirits: Ryuuko no Ken (Dublado)",
      "link": "https://animefire.plus/animes/battle-spirits-ryuuko-no-ken-dublado-todos-os-episodios",
      "texto_original": "Battle Spirits: Ryuuko no Ken (Dublado)",
      "rating": 4.86,
      "classificacao_etaria": "A14",
      "imagem_original": "https://animefire.plus/img/animes/battle-spirits-ryuuko-no-ken.webp",
      "imagem_pasta": "https://animefire.plus/img/animes/battle-spirits-ryuuko-no-ken/",
      "secao": "dublados",
      "pagina": 22,
      "total_episodios": 1,
      "link_video": "https://animefire.plus/video/battle-spirits-ryuuko-no-ken-dublado"
    },
    {
      "id": 363,
      "nome": "Beastars (Dublado)",
      "link": "https://animefire.plus/animes/beastars-dublado-todos-os-episodios",
      "texto_original": "Beastars (Dublado)",
      "rating": 8.09,
      "classificacao_etaria": "A16",
      "imagem_original": "https://animefire.plus/img/animes/beastars.webp",
      "imagem_pasta": "https://animefire.plus/img/animes/beastars/",
      "secao": "dublados,legendados",
      "pagina": 25,
      "total_episodios": 12,
      "link_video": "https://animefire.plus/video/beastars-dublado"
    },
    {
      "id": 364,
      "nome": "Beastars 2nd Season (Dublado)",
      "link": "https://animefire.plus/animes/beastars-2nd-season-dublado-todos-os-episodios",
      "texto_original": "Beastars 2nd Season (Dublado)",
      "rating": 7.78,
      "classificacao_etaria": "A16",
      "imagem_original": "https://animefire.plus/img/animes/beastars-2nd-season.webp",
      "imagem_pasta": "https://animefire.plus/img/animes/beastars-2nd-season/",
      "secao": "dublados,legendados",
      "pagina": 16,
      "total_episodios": 12,
      "link_video": "https://animefire.plus/video/beastars-2nd-season-dublado"
    },
    {
      "id": 378,
      "nome": "Berserk: Ougon Jidai-hen - Memorial Edition (Dublado)",
      "link": "https://animefire.plus/animes/berserk-ougon-jidai-hen---memorial-edition-dublado-todos-os-episodios",
      "texto_original": "Berserk: Ougon Jidai-hen - Memorial Edition (Dublado)",
      "rating": 7.9,
      "classificacao_etaria": "A18",
      "imagem_original": "https://animefire.plus/img/animes/berserk-ougon-jidai-hen---memorial-edition.webp",
      "imagem_pasta": "https://animefire.plus/img/animes/berserk-ougon-jidai-hen---memorial-edition/",
      "secao": "dublados,legendados",
      "pagina": 9,
      "total_episodios": 13,
      "link_video": "https://animefire.plus/video/berserk-ougon-jidai-hen---memorial-edition-dublado"
    },
    {
      "id": 396,
      "nome": "Bishoujo Senshi Sailor Moon (Dublado)",
      "link": "https://animefire.plus/animes/bishoujo-senshi-sailor-moon-dublado-todos-os-episodios",
      "texto_original": "Bishoujo Senshi Sailor Moon (Dublado)",
      "rating": 7.74,
      "classificacao_etaria": "A14",
      "imagem_original": "https://animefire.plus/img/animes/bishoujo-senshi-sailor-moon.webp",
      "imagem_pasta": "https://animefire.plus/img/animes/bishoujo-senshi-sailor-moon/",
      "secao": "dublados,legendados",
      "pagina": 28,
      "total_episodios": 0,
      "link_video": "https://animefire.plus/video/bishoujo-senshi-sailor-moon-dublado"
    },
    {
      "id": 409,
      "nome": "Black Cat (Dublado)",
      "link": "https://animefire.plus/animes/black-cat-dublado-todos-os-episodios",
      "texto_original": "Black Cat (Dublado)",
      "rating": 7.41,
      "classificacao_etaria": "A14",
      "imagem_original": "https://animefire.plus/img/animes/black-cat.webp",
      "imagem_pasta": "https://animefire.plus/img/animes/black-cat/",
      "secao": "dublados,legendados",
      "pagina": 22,
      "total_episodios": 24,
      "link_video": "https://animefire.plus/video/black-cat-dublado"
    },
    {
      "id": 410,
      "nome": "Black Clover (Dublado)",
      "link": "https://animefire.plus/animes/black-clover-dublado-todos-os-episodios",
      "texto_original": "Black Clover (Dublado)",
      "rating": 7.27,
      "classificacao_etaria": "A14",
      "imagem_original": "https://animefire.plus/img/animes/black-clover.webp",
      "imagem_pasta": "https://animefire.plus/img/animes/black-clover/",
      "secao": "dublados,legendados",
      "pagina": 20,
      "total_episodios": 170,
      "link_video": "https://animefire.plus/video/black-clover-dublado"
    }
  ],
  "pagination": {
    "current_page": 3,
    "per_page": 20,
    "total_items": 656,
    "total_pages": 33,
    "has_next": true,
    "has_prev": true
  }
}
