{
  "message": "Animes da seção: dublados",
  "section": "dublados",
  "data": [
    {
      "id": 11,
      "nome": "009-1 (Dublado)",
      "link": "https://animefire.plus/animes/009-1-dublado-todos-os-episodios",
      "texto_original": "009-1 (Dublado)",
      "rating": 6.29,
      "classificacao_etaria": "A16",
      "imagem_original": "https://animefire.plus/img/animes/009-1.webp",
      "imagem_pasta": "https://animefire.plus/img/animes/009-1/",
      "secao": "dublados,legendados",
      "pagina": 21,
      "total_episodios": 13,
      "link_video": "https://animefire.plus/video/009-1-dublado"
    },
    {
      "id": 15,
      "nome": "100-man no Inochi no Ue ni Ore wa Tatteiru (Dublado)",
      "link": "https://animefire.plus/animes/100-man-no-inochi-no-ue-ni-ore-wa-tatteiru-dublado-todos-os-episodios",
      "texto_original": "100-man no Inochi no Ue ni Ore wa Tatteiru (Dublado)",
      "rating": 6.27,
      "classificacao_etaria": "A14",
      "imagem_original": "https://animefire.plus/img/animes/100-man-no-inochi-no-ue-ni-ore-wa-tatteiru.webp",
      "imagem_pasta": "https://animefire.plus/img/animes/100-man-no-inochi-no-ue-ni-ore-wa-tatteiru/",
      "secao": "dublados,legendados",
      "pagina": 20,
      "total_episodios": 12,
      "link_video": "https://animefire.plus/video/100-man-no-inochi-no-ue-ni-ore-wa-tatteiru-dublado"
    },
    {
      "id": 17,
      "nome": "100-man no Inochi no Ue ni Ore wa Tatteiru 2nd Season (Dublado)",
      "link": "https://animefire.plus/animes/100-man-no-inochi-no-ue-ni-ore-wa-tatteiru-2-dublado-todos-os-episodios",
      "texto_original": "100-man no Inochi no Ue ni Ore wa Tatteiru 2nd Season (Dublado)",
      "rating": 6.79,
      "classificacao_etaria": "A14",
      "imagem_original": "https://animefire.plus/img/animes/100-man-no-inochi-no-ue-ni-ore-wa-tatteiru-2.webp",
      "imagem_pasta": "https://animefire.plus/img/animes/100-man-no-inochi-no-ue-ni-ore-wa-tatteiru-2/",
      "secao": "dublados",
      "pagina": 16,
      "total_episodios": 5,
      "link_video": "https://animefire.plus/video/100-man-no-inochi-no-ue-ni-ore-wa-tatteiru-2-dublado"
    },
    {
      "id": 36,
      "nome": "5-toubun no Hanayome (Dublado)",
      "link": "https://animefire.plus/animes/5-toubun-no-hanayome-dublado-todos-os-episodios",
      "texto_original": "5-toubun no Hanayome (Dublado)",
      "rating": 7.67,
      "classificacao_etaria": "A14",
      "imagem_original": "https://animefire.plus/img/animes/5-toubun-no-hanayome.webp",
      "imagem_pasta": "https://animefire.plus/img/animes/5-toubun-no-hanayome/",
      "secao": "dublados,legendados",
      "pagina": 8,
      "total_episodios": 12,
      "link_video": "https://animefire.plus/video/5-toubun-no-hanayome-dublado"
    },
    {
      "id": 37,
      "nome": "5-toubun no Hanayome ∬ (Dublado)",
      "link": "https://animefire.plus/animes/gotoubun-no-hanayome-2nd-season-dublado-todos-os-episodios",
      "texto_original": "5-toubun no Hanayome ∬ (Dublado)",
      "rating": 8.01,
      "classificacao_etaria": "A14",
      "imagem_original": "https://animefire.plus/img/animes/gotoubun-no-hanayome-2nd-season.webp",
      "imagem_pasta": "https://animefire.plus/img/animes/gotoubun-no-hanayome-2nd-season/",
      "secao": "dublados,legendados",
      "pagina": 8,
      "total_episodios": 12,
      "link_video": "https://animefire.plus/video/gotoubun-no-hanayome-2nd-season-dublado"
    },
    {
      "id": 39,
      "nome": "7 Seeds (Dublado)",
      "link": "https://animefire.plus/animes/7-seeds-dublado-todos-os-episodios",
      "texto_original": "7 Seeds (Dublado)",
      "rating": 6.52,
      "classificacao_etaria": "A18",
      "imagem_original": "https://animefire.plus/img/animes/7-seeds.webp",
      "imagem_pasta": "https://animefire.plus/img/animes/7-seeds/",
      "secao": "dublados,legendados",
      "pagina": 23,
      "total_episodios": 12,
      "link_video": "https://animefire.plus/video/7-seeds-dublado"
    },
    {
      "id": 40,
      "nome": "7 Seeds 2nd Season (Dublado)",
      "link": "https://animefire.plus/animes/7-seeds-2nd-season-dublado-todos-os-episodios",
      "texto_original": "7 Seeds 2nd Season (Dublado)",
      "rating": 7.17,
      "classificacao_etaria": "A18",
      "imagem_original": "https://animefire.plus/img/animes/7-seeds-2nd-season.webp",
      "imagem_pasta": "https://animefire.plus/img/animes/7-seeds-2nd-season/",
      "secao": "dublados,legendados",
      "pagina": 23,
      "total_episodios": 12,
      "link_video": "https://animefire.plus/video/7-seeds-2nd-season-dublado"
    },
    {
      "id": 41,
      "nome": "86 (Dublado)",
      "link": "https://animefire.plus/animes/86-dublado-todos-os-episodios",
      "texto_original": "86 (Dublado)",
      "rating": 8.33,
      "classificacao_etaria": "A16",
      "imagem_original": "https://animefire.plus/img/animes/86.webp",
      "imagem_pasta": "https://animefire.plus/img/animes/86/",
      "secao": "dublados",
      "pagina": 17,
      "total_episodios": 11,
      "link_video": "https://animefire.plus/video/86-dublado"
    },
    {
      "id": 48,
      "nome": "A.I.C.O.: Incarnation (Dublado)",
      "link": "https://animefire.plus/animes/a-i-c-o-incarnation-dublado-todos-os-episodios",
      "texto_original": "A.I.C.O.: Incarnation (Dublado)",
      "rating": 6.76,
      "classificacao_etaria": "A16",
      "imagem_original": "https://animefire.plus/img/animes/a-i-c-o-incarnation.webp",
      "imagem_pasta": "https://animefire.plus/img/animes/a-i-c-o-incarnation/",
      "secao": "dublados,legendados",
      "pagina": 24,
      "total_episodios": 12,
      "link_video": "https://animefire.plus/video/a-i-c-o-incarnation-dublado"
    },
    {
      "id": 66,
      "nome": "Adachi to Shimamura (Dublado)",
      "link": "https://animefire.plus/animes/adachi-to-shimamura-dublado-todos-os-episodios",
      "texto_original": "Adachi to Shimamura (Dublado)",
      "rating": 7.13,
      "classificacao_etaria": "A14",
      "imagem_original": "https://animefire.plus/img/animes/adachi-to-shimamura.webp",
      "imagem_pasta": "https://animefire.plus/img/animes/adachi-to-shimamura/",
      "secao": "dublados,legendados",
      "pagina": 15,
      "total_episodios": 12,
      "link_video": "https://animefire.plus/video/adachi-to-shimamura-dublado"
    },
    {
      "id": 69,
      "nome": "Afro Samurai (Dublado)",
      "link": "https://animefire.plus/animes/afro-samurai-dublado-todos-os-episodios",
      "texto_original": "Afro Samurai (Dublado)",
      "rating": 7.37,
      "classificacao_etaria": "A18",
      "imagem_original": "https://animefire.plus/img/animes/afro-samurai.webp",
      "imagem_pasta": "https://animefire.plus/img/animes/afro-samurai/",
      "secao": "dublados,legendados",
      "pagina": 23,
      "total_episodios": 5,
      "link_video": "https://animefire.plus/video/afro-samurai-dublado"
    },
    {
      "id": 72,
      "nome": "Aggressive Retsuko (ONA) (Dublado)",
      "link": "https://animefire.plus/animes/aggressive-retsuko-ona-dublado-todos-os-episodios",
      "texto_original": "Aggressive Retsuko (ONA) (Dublado)",
      "rating": 7.77,
      "classificacao_etaria": "A14",
      "imagem_original": "https://animefire.plus/img/animes/aggressive-retsuko-ona.webp",
      "imagem_pasta": "https://animefire.plus/img/animes/aggressive-retsuko-ona/",
      "secao": "dublados,legendados",
      "pagina": 24,
      "total_episodios": 10,
      "link_video": "https://animefire.plus/video/aggressive-retsuko-ona-dublado"
    },
    {
      "id": 73,
      "nome": "Aggressive Retsuko (ONA) 2nd Season (Dublado)",
      "link": "https://animefire.plus/animes/aggressive-retsuko-ona-2nd-season-dublado-todos-os-episodios",
      "texto_original": "Aggressive Retsuko (ONA) 2nd Season (Dublado)",
      "rating": 7.8,
      "classificacao_etaria": "A14",
      "imagem_original": "https://animefire.plus/img/animes/aggressive-retsuko-ona-2nd-season.webp",
      "imagem_pasta": "https://animefire.plus/img/animes/aggressive-retsuko-ona-2nd-season/",
      "secao": "dublados,legendados",
      "pagina": 20,
      "total_episodios": 10,
      "link_video": "https://animefire.plus/video/aggressive-retsuko-ona-2nd-season-dublado"
    },
    {
      "id": 74,
      "nome": "Aggressive Retsuko: We Wish You a Metal Christmas (Dublado)",
      "link": "https://animefire.plus/animes/aggressive-retsuko-we-wish-you-a-metal-christmas-dublado-todos-os-episodios",
      "texto_original": "Aggressive Retsuko: We Wish You a Metal Christmas (Dublado)",
      "rating": 7.33,
      "classificacao_etaria": "A14",
      "imagem_original": "https://animefire.plus/img/animes/aggressive-retsuko-we-wish-you-a-metal-christmas.webp",
      "imagem_pasta": "https://animefire.plus/img/animes/aggressive-retsuko-we-wish-you-a-metal-christmas/",
      "secao": "dublados,legendados",
      "pagina": 24,
      "total_episodios": 1,
      "link_video": "https://animefire.plus/video/aggressive-retsuko-we-wish-you-a-metal-christmas-dublado"
    },
    {
      "id": 105,
      "nome": "Ajin (Dublado)",
      "link": "https://animefire.plus/animes/ajin-dublado-todos-os-episodios",
      "texto_original": "Ajin (Dublado)",
      "rating": 7.6,
      "classificacao_etaria": "A16",
      "imagem_original": "https://animefire.plus/img/animes/ajin.webp",
      "imagem_pasta": "https://animefire.plus/img/animes/ajin/",
      "secao": "dublados,legendados",
      "pagina": 26,
      "total_episodios": 13,
      "link_video": "https://animefire.plus/video/ajin-dublado"
    },
    {
      "id": 113,
      "nome": "Akai Koudan Zillion (Dublado)",
      "link": "https://animefire.plus/animes/akai-koudan-zillion-dublado-todos-os-episodios",
      "texto_original": "Akai Koudan Zillion (Dublado)",
      "rating": 6.61,
      "classificacao_etaria": "A14",
      "imagem_original": "https://animefire.plus/img/animes/akai-koudan-zillion.webp",
      "imagem_pasta": "https://animefire.plus/img/animes/akai-koudan-zillion/",
      "secao": "dublados",
      "pagina": 23,
      "total_episodios": 20,
      "link_video": "https://animefire.plus/video/akai-koudan-zillion-dublado"
    },
    {
      "id": 114,
      "nome": "Akame ga Kill! (Dublado)",
      "link": "https://animefire.plus/animes/akame-ga-kill-dublado-todos-os-episodios",
      "texto_original": "Akame ga Kill! (Dublado)",
      "rating": 7.66,
      "classificacao_etaria": "A16",
      "imagem_original": "https://animefire.plus/img/animes/akame-ga-kill.webp",
      "imagem_pasta": "https://animefire.plus/img/animes/akame-ga-kill/",
      "secao": "dublados,legendados",
      "pagina": 25,
      "total_episodios": 24,
      "link_video": "https://animefire.plus/video/akame-ga-kill-dublado"
    },
    {
      "id": 130,
      "nome": "Akudama Drive (Dublado)",
      "link": "https://animefire.plus/animes/akudama-drive-dublado-todos-os-episodios",
      "texto_original": "Akudama Drive (Dublado)",
      "rating": 7.65,
      "classificacao_etaria": "A16",
      "imagem_original": "https://animefire.plus/img/animes/akudama-drive.webp",
      "imagem_pasta": "https://animefire.plus/img/animes/akudama-drive/",
      "secao": "dublados,legendados",
      "pagina": 14,
      "total_episodios": 12,
      "link_video": "https://animefire.plus/video/akudama-drive-dublado"
    },
    {
      "id": 133,
      "nome": "Akuma-kun (ONA) (Dublado)",
      "link": "https://animefire.plus/animes/akuma-kun-ona-dublado-todos-os-episodios",
      "texto_original": "Akuma-kun (ONA) (Dublado)",
      "rating": 6.7,
      "classificacao_etaria": "A16",
      "imagem_original": "https://animefire.plus/img/animes/akuma-kun-ona.webp",
      "imagem_pasta": "https://animefire.plus/img/animes/akuma-kun-ona/",
      "secao": "dublados,legendados",
      "pagina": 4,
      "total_episodios": 12,
      "link_video": "https://animefire.plus/video/akuma-kun-ona-dublado"
    },
    {
      "id": 135,
      "nome": "Akuyaku Reijou nanode Last Boss wo Kattemimashita (Dublado)",
      "link": "https://animefire.plus/animes/akuyaku-reijou-nanode-last-boss-wo-kattemimashita-dublado-todos-os-episodios",
      "texto_original": "Akuyaku Reijou nanode Last Boss wo Kattemimashita (Dublado)",
      "rating": 7.2,
      "classificacao_etaria": "A14",
      "imagem_original": "https://animefire.plus/img/animes/akuyaku-reijou-nanode-last-boss-wo-kattemimashita.webp",
      "imagem_pasta": "https://animefire.plus/img/animes/akuyaku-reijou-nanode-last-boss-wo-kattemimashita/",
      "secao": "dublados,legendados",
      "pagina": 9,
      "total_episodios": 12,
      "link_video": "https://animefire.plus/video/akuyaku-reijou-nanode-last-boss-wo-kattemimashita-dublado"
    }
  ],
  "pagination": {
    "current_page": 1,
    "per_page": 20,
    "total_items": 656,
    "total_pages": 33,
    "has_next": true,
    "has_prev": false
  }
}
