{
  "message": "Animes da seção: dublados",
  "section": "dublados",
  "data": [
    {
      "id": 877,
      "nome": "Dragon Ball Heroes (Dublado)",
      "link": "https://animefire.plus/animes/dragon-ball-heroes-dublado-todos-os-episodios",
      "texto_original": "Dragon Ball Heroes (Dublado)",
      "rating": 5.62,
      "classificacao_etaria": "A14",
      "imagem_original": "https://animefire.plus/img/animes/dragon-ball-heroes.webp",
      "imagem_pasta": "https://animefire.plus/img/animes/dragon-ball-heroes/",
      "secao": "dublados,legendados,lancamentos",
      "pagina": 26,
      "total_episodios": 16,
      "link_video": "https://animefire.plus/video/dragon-ball-heroes-dublado"
    },
    {
      "id": 878,
      "nome": "Dragon Ball Kai (Dublado)",
      "link": "https://animefire.plus/animes/dragon-ball-kai-dublado-todos-os-episodios",
      "texto_original": "Dragon Ball Kai (Dublado)",
      "rating": 7.79,
      "classificacao_etaria": "A14",
      "imagem_original": "https://animefire.plus/img/animes/dragon-ball-kai.webp",
      "imagem_pasta": "https://animefire.plus/img/animes/dragon-ball-kai/",
      "secao": "dublados",
      "pagina": 21,
      "total_episodios": 26,
      "link_video": "https://animefire.plus/video/dragon-ball-kai-dublado"
    },
    {
      "id": 879,
      "nome": "Dragon Ball Super (Dublado)",
      "link": "https://animefire.plus/animes/dragon-ball-super-dublado-todos-os-episodios",
      "texto_original": "Dragon Ball Super (Dublado)",
      "rating": 7.66,
      "classificacao_etaria": "A14",
      "imagem_original": "https://animefire.plus/img/animes/dragon-ball-super.webp",
      "imagem_pasta": "https://animefire.plus/img/animes/dragon-ball-super/",
      "secao": "dublados",
      "pagina": 27,
      "total_episodios": 0,
      "link_video": "https://animefire.plus/video/dragon-ball-super-dublado"
    },
    {
      "id": 880,
      "nome": "Dragon Ball Z (Dublado)",
      "link": "https://animefire.plus/animes/dragon-ball-z-dublado-todos-os-episodios",
      "texto_original": "Dragon Ball Z (Dublado)",
      "rating": 8.15,
      "classificacao_etaria": "A14",
      "imagem_original": "https://animefire.plus/img/animes/dragon-ball-z.webp",
      "imagem_pasta": "https://animefire.plus/img/animes/dragon-ball-z/",
      "secao": "dublados",
      "pagina": 17,
      "total_episodios": 291,
      "link_video": "https://animefire.plus/video/dragon-ball-z-dublado"
    },
    {
      "id": 885,
      "nome": "Dragon Quest: Dai no Daibouken (TV) (Dublado)",
      "link": "https://animefire.plus/animes/dragon-quest-dai-no-daibouken-tv-dublado-todos-os-episodios",
      "texto_original": "Dragon Quest: Dai no Daibouken (TV) (Dublado)",
      "rating": 7.65,
      "classificacao_etaria": null,
      "imagem_original": "https://animefire.plus/img/animes/dragon-quest-dai-no-daibouken-tv.webp",
      "imagem_pasta": "https://animefire.plus/img/animes/dragon-quest-dai-no-daibouken-tv/",
      "secao": "dublados",
      "pagina": 20,
      "total_episodios": 46,
      "link_video": "https://animefire.plus/video/dragon-quest-dai-no-daibouken-tv-dublado"
    },
    {
      "id": 886,
      "nome": "Dragon, Ie wo Kau. (Dublado)",
      "link": "https://animefire.plus/animes/dragon-ie-wo-kau-dublado-todos-os-episodios",
      "texto_original": "Dragon, Ie wo Kau. (Dublado)",
      "rating": 6.42,
      "classificacao_etaria": "A14",
      "imagem_original": "https://animefire.plus/img/animes/dragon-ie-wo-kau.webp",
      "imagem_pasta": "https://animefire.plus/img/animes/dragon-ie-wo-kau/",
      "secao": "dublados,legendados",
      "pagina": 13,
      "total_episodios": 12,
      "link_video": "https://animefire.plus/video/dragon-ie-wo-kau-dublado"
    },
    {
      "id": 898,
      "nome": "Dungeon Meshi (Dublado)",
      "link": "https://animefire.plus/animes/dungeon-meshi-dublado-todos-os-episodios",
      "texto_original": "Dungeon Meshi (Dublado)",
      "rating": 8.6,
      "classificacao_etaria": "A14",
      "imagem_original": "https://animefire.plus/img/animes/dungeon-meshi.webp",
      "imagem_pasta": "https://animefire.plus/img/animes/dungeon-meshi/",
      "secao": "dublados,legendados,lancamentos",
      "pagina": 3,
      "total_episodios": 24,
      "link_video": "https://animefire.plus/video/dungeon-meshi-dublado"
    },
    {
      "id": 899,
      "nome": "Dungeon ni Deai wo Motomeru no wa Machigatteiru Darou ka (Dublado)",
      "link": "https://animefire.plus/animes/dungeon-ni-deai-wo-motomeru-no-wa-machigatteiru-darou-ka-dublado-todos-os-episodios",
      "texto_original": "Dungeon ni Deai wo Motomeru no wa Machigatteiru Darou ka (Dublado)",
      "rating": 7.75,
      "classificacao_etaria": "A14",
      "imagem_original": "https://animefire.plus/img/animes/dungeon-ni-deai-wo-motomeru-no-wa-machigatteiru-darou-ka.webp",
      "imagem_pasta": "https://animefire.plus/img/animes/dungeon-ni-deai-wo-motomeru-no-wa-machigatteiru-darou-ka/",
      "secao": "dublados,legendados",
      "pagina": 25,
      "total_episodios": 13,
      "link_video": "https://animefire.plus/video/dungeon-ni-deai-wo-motomeru-no-wa-machigatteiru-darou-ka-dublado"
    },
    {
      "id": 918,
      "nome": "Eden (ONA) (Dublado)",
      "link": "https://animefire.plus/animes/eden-ona-dublado-todos-os-episodios",
      "texto_original": "Eden (ONA) (Dublado)",
      "rating": 6.39,
      "classificacao_etaria": "A14",
      "imagem_original": "https://animefire.plus/img/animes/eden-ona.webp",
      "imagem_pasta": "https://animefire.plus/img/animes/eden-ona/",
      "secao": "dublados,legendados",
      "pagina": 17,
      "total_episodios": 3,
      "link_video": "https://animefire.plus/video/eden-ona-dublado"
    },
    {
      "id": 919,
      "nome": "Edens Zero (Dublado)",
      "link": "https://animefire.plus/animes/edens-zero-dublado-todos-os-episodios",
      "texto_original": "Edens Zero (Dublado)",
      "rating": 7.26,
      "classificacao_etaria": "A14",
      "imagem_original": "https://animefire.plus/img/animes/edens-zero.webp",
      "imagem_pasta": "https://animefire.plus/img/animes/edens-zero/",
      "secao": "dublados,legendados",
      "pagina": 16,
      "total_episodios": 25,
      "link_video": "https://animefire.plus/video/edens-zero-dublado"
    },
    {
      "id": 925,
      "nome": "Eightman After (Dublado)",
      "link": "https://animefire.plus/animes/eightman-after-dublado-todos-os-episodios",
      "texto_original": "Eightman After (Dublado)",
      "rating": 6.3,
      "classificacao_etaria": "A16",
      "imagem_original": "https://animefire.plus/img/animes/eightman-after.webp",
      "imagem_pasta": "https://animefire.plus/img/animes/eightman-after/",
      "secao": "dublados",
      "pagina": 27,
      "total_episodios": 4,
      "link_video": "https://animefire.plus/video/eightman-after-dublado"
    },
    {
      "id": 928,
      "nome": "Eiyuu Kyoushitsu (Dublado)",
      "link": "https://animefire.plus/animes/eiyuu-kyoushitsu-dublado-todos-os-episodios",
      "texto_original": "Eiyuu Kyoushitsu (Dublado)",
      "rating": 6.05,
      "classificacao_etaria": "A14",
      "imagem_original": "https://animefire.plus/img/animes/eiyuu-kyoushitsu.webp",
      "imagem_pasta": "https://animefire.plus/img/animes/eiyuu-kyoushitsu/",
      "secao": "dublados,legendados,lancamentos",
      "pagina": 6,
      "total_episodios": 12,
      "link_video": "https://animefire.plus/video/eiyuu-kyoushitsu-dublado"
    },
    {
      "id": 930,
      "nome": "Eizouken ni wa Te wo Dasu na! (Dublado)",
      "link": "https://animefire.plus/animes/eizouken-ni-wa-te-wo-dasu-na-dublado-todos-os-episodios",
      "texto_original": "Eizouken ni wa Te wo Dasu na! (Dublado)",
      "rating": 8.14,
      "classificacao_etaria": "A14",
      "imagem_original": "https://animefire.plus/img/animes/eizouken-ni-wa-te-wo-dasu-na.webp",
      "imagem_pasta": "https://animefire.plus/img/animes/eizouken-ni-wa-te-wo-dasu-na/",
      "secao": "dublados,legendados",
      "pagina": 12,
      "total_episodios": 12,
      "link_video": "https://animefire.plus/video/eizouken-ni-wa-te-wo-dasu-na-dublado"
    },
    {
      "id": 946,
      "nome": "Enen no Shouboutai (Dublado)",
      "link": "https://animefire.plus/animes/enen-no-shouboutai-dublado-todos-os-episodios",
      "texto_original": "Enen no Shouboutai (Dublado)",
      "rating": 7.68,
      "classificacao_etaria": "A14",
      "imagem_original": "https://animefire.plus/img/animes/enen-no-shouboutai.webp",
      "imagem_pasta": "https://animefire.plus/img/animes/enen-no-shouboutai/",
      "secao": "dublados,legendados",
      "pagina": 14,
      "total_episodios": 24,
      "link_video": "https://animefire.plus/video/enen-no-shouboutai-dublado"
    },
    {
      "id": 947,
      "nome": "Enen no Shouboutai: Ni no Shou (Dublado)",
      "link": "https://animefire.plus/animes/enen-no-shouboutai-ni-no-shou-dublado-todos-os-episodios",
      "texto_original": "Enen no Shouboutai: Ni no Shou (Dublado)",
      "rating": 7.76,
      "classificacao_etaria": "A14",
      "imagem_original": "https://animefire.plus/img/animes/enen-no-shouboutai-ni-no-shou.webp",
      "imagem_pasta": "https://animefire.plus/img/animes/enen-no-shouboutai-ni-no-shou/",
      "secao": "dublados,legendados",
      "pagina": 14,
      "total_episodios": 24,
      "link_video": "https://animefire.plus/video/enen-no-shouboutai-ni-no-shou-dublado"
    },
    {
      "id": 948,
      "nome": "Enen no Shouboutai: San no Shou (Dublado)",
      "link": "https://animefire.plus/animes/enen-no-shouboutai-san-no-shou-dublado-todos-os-episodios",
      "texto_original": "Enen no Shouboutai: San no Shou (Dublado)",
      "rating": 7.71,
      "classificacao_etaria": "A14",
      "imagem_original": "https://animefire.plus/img/animes/enen-no-shouboutai-san-no-shou.webp",
      "imagem_pasta": "https://animefire.plus/img/animes/enen-no-shouboutai-san-no-shou/",
      "secao": "dublados,legendados,lancamentos",
      "pagina": 1,
      "total_episodios": 12,
      "link_video": "https://animefire.plus/video/enen-no-shouboutai-san-no-shou-dublado"
    },
    {
      "id": 965,
      "nome": "Eyeshield 21 (Dublado)",
      "link": "https://animefire.plus/animes/eyeshield-21-dublado-todos-os-episodios",
      "texto_original": "Eyeshield 21 (Dublado)",
      "rating": 7.92,
      "classificacao_etaria": "A14",
      "imagem_original": "https://animefire.plus/img/animes/eyeshield-21.webp",
      "imagem_pasta": "https://animefire.plus/img/animes/eyeshield-21/",
      "secao": "dublados,legendados",
      "pagina": 4,
      "total_episodios": 142,
      "link_video": "https://animefire.plus/video/eyeshield-21-dublado"
    },
    {
      "id": 969,
      "nome": "Fairy Tail (Dublado)",
      "link": "https://animefire.plus/animes/fairy-tail-dublado-todos-os-episodios",
      "texto_original": "Fairy Tail (Dublado)",
      "rating": 7.64,
      "classificacao_etaria": "A14",
      "imagem_original": "https://animefire.plus/img/animes/fairy-tail.webp",
      "imagem_pasta": "https://animefire.plus/img/animes/fairy-tail/",
      "secao": "dublados,legendados,lancamentos",
      "pagina": 18,
      "total_episodios": 5,
      "link_video": "https://animefire.plus/video/fairy-tail-dublado"
    },
    {
      "id": 981,
      "nome": "Fatal Fury 2: The New Battle (Dublado)",
      "link": "https://animefire.plus/animes/fatal-fury-2-the-new-battle-dublado-todos-os-episodios",
      "texto_original": "Fatal Fury 2: The New Battle (Dublado)",
      "rating": 6.76,
      "classificacao_etaria": "A16",
      "imagem_original": "https://animefire.plus/img/animes/fatal-fury-2-the-new-battle.webp",
      "imagem_pasta": "https://animefire.plus/img/animes/fatal-fury-2-the-new-battle/",
      "secao": "dublados",
      "pagina": 21,
      "total_episodios": 1,
      "link_video": "https://animefire.plus/video/fatal-fury-2-the-new-battle-dublado"
    },
    {
      "id": 982,
      "nome": "Fatal Fury: Legend of the Hungry Wolf (Dublado)",
      "link": "https://animefire.plus/animes/fatal-fury-legend-of-the-hungry-wolf-dublado-todos-os-episodios",
      "texto_original": "Fatal Fury: Legend of the Hungry Wolf (Dublado)",
      "rating": 6.47,
      "classificacao_etaria": "A14",
      "imagem_original": "https://animefire.plus/img/animes/fatal-fury-legend-of-the-hungry-wolf.webp",
      "imagem_pasta": "https://animefire.plus/img/animes/fatal-fury-legend-of-the-hungry-wolf/",
      "secao": "dublados",
      "pagina": 21,
      "total_episodios": 1,
      "link_video": "https://animefire.plus/video/fatal-fury-legend-of-the-hungry-wolf-dublado"
    }
  ],
  "pagination": {
    "current_page": 8,
    "per_page": 20,
    "total_items": 656,
    "total_pages": 33,
    "has_next": true,
    "has_prev": true
  }
}
