{
  "message": "Animes da seção: dublados",
  "section": "dublados",
  "data": [
    {
      "id": 3166,
      "nome": "Rurouni Kenshin: Meiji Kenkaku Romantan - Kyoto Douran (Dublado)",
      "link": "https://animefire.plus/animes/rurouni-kenshin-meiji-kenkaku-romantan---kyoto-douran-dublado-todos-os-episodios",
      "texto_original": "Rurouni Kenshin: Meiji Kenkaku Romantan - Kyoto Douran (Dublado)",
      "rating": 7.77,
      "classificacao_etaria": "A16",
      "imagem_original": "https://animefire.plus/img/animes/rurouni-kenshin-meiji-kenkaku-romantan---kyoto-douran.webp",
      "imagem_pasta": "https://animefire.plus/img/animes/rurouni-kenshin-meiji-kenkaku-romantan---kyoto-douran/",
      "secao": "dublados,legendados,lancamentos",
      "pagina": 2,
      "total_episodios": 23,
      "link_video": "https://animefire.plus/video/rurouni-kenshin-meiji-kenkaku-romantan---kyoto-douran-dublado"
    },
    {
      "id": 3167,
      "nome": "Rurouni Kenshin: Meiji Kenkaku Romantan (2023) (Dublado)",
      "link": "https://animefire.plus/animes/rurouni-kenshin-meiji-kenkaku-romantan-2023-dublado-todos-os-episodios",
      "texto_original": "Rurouni Kenshin: Meiji Kenkaku Romantan (2023) (Dublado)",
      "rating": 7.63,
      "classificacao_etaria": "A14",
      "imagem_original": "https://animefire.plus/img/animes/rurouni-kenshin-meiji-kenkaku-romantan-2023.webp",
      "imagem_pasta": "https://animefire.plus/img/animes/rurouni-kenshin-meiji-kenkaku-romantan-2023/",
      "secao": "dublados,legendados",
      "pagina": 6,
      "total_episodios": 24,
      "link_video": "https://animefire.plus/video/rurouni-kenshin-meiji-kenkaku-romantan-2023-dublado"
    },
    {
      "id": 3168,
      "nome": "Rurouni Kenshin: Meiji Kenkaku Romantan (Dublado)",
      "link": "https://animefire.plus/animes/rurouni-kenshin-meiji-kenkaku-romantan-dublado-todos-os-episodios",
      "texto_original": "Rurouni Kenshin: Meiji Kenkaku Romantan (Dublado)",
      "rating": 8.32,
      "classificacao_etaria": "A14",
      "imagem_original": "https://animefire.plus/img/animes/rurouni-kenshin-meiji-kenkaku-romantan.webp",
      "imagem_pasta": "https://animefire.plus/img/animes/rurouni-kenshin-meiji-kenkaku-romantan/",
      "secao": "dublados",
      "pagina": 20,
      "total_episodios": 95,
      "link_video": "https://animefire.plus/video/rurouni-kenshin-meiji-kenkaku-romantan-dublado"
    },
    {
      "id": 3175,
      "nome": "Ryuusei Sentai Musumet (Dublado)",
      "link": "https://animefire.plus/animes/ryuusei-sentai-musumet-dublado-todos-os-episodios",
      "texto_original": "Ryuusei Sentai Musumet (Dublado)",
      "rating": 5.94,
      "classificacao_etaria": "A16",
      "imagem_original": "https://animefire.plus/img/animes/ryuusei-sentai-musumet.webp",
      "imagem_pasta": "https://animefire.plus/img/animes/ryuusei-sentai-musumet/",
      "secao": "dublados",
      "pagina": 26,
      "total_episodios": 0,
      "link_video": "https://animefire.plus/video/ryuusei-sentai-musumet-dublado"
    },
    {
      "id": 3182,
      "nome": "Saber Marionette J (Dublado)",
      "link": "https://animefire.plus/animes/saber-marionette-j-dublado-todos-os-episodios",
      "texto_original": "Saber Marionette J (Dublado)",
      "rating": 7.37,
      "classificacao_etaria": "A14",
      "imagem_original": "https://animefire.plus/img/animes/saber-marionette-j.webp",
      "imagem_pasta": "https://animefire.plus/img/animes/saber-marionette-j/",
      "secao": "dublados,legendados",
      "pagina": 21,
      "total_episodios": 24,
      "link_video": "https://animefire.plus/video/saber-marionette-j-dublado"
    },
    {
      "id": 3184,
      "nome": "Sabikui Bisco (Dublado)",
      "link": "https://animefire.plus/animes/sabikui-bisco-dublado-todos-os-episodios",
      "texto_original": "Sabikui Bisco (Dublado)",
      "rating": 7.14,
      "classificacao_etaria": "A14",
      "imagem_original": "https://animefire.plus/img/animes/sabikui-bisco.webp",
      "imagem_pasta": "https://animefire.plus/img/animes/sabikui-bisco/",
      "secao": "dublados,legendados",
      "pagina": 12,
      "total_episodios": 12,
      "link_video": "https://animefire.plus/video/sabikui-bisco-dublado"
    },
    {
      "id": 3188,
      "nome": "Saihate no Paladin (Dublado)",
      "link": "https://animefire.plus/animes/saihate-no-paladin-dublado-todos-os-episodios",
      "texto_original": "Saihate no Paladin (Dublado)",
      "rating": 6.88,
      "classificacao_etaria": "A14",
      "imagem_original": "https://animefire.plus/img/animes/saihate-no-paladin.webp",
      "imagem_pasta": "https://animefire.plus/img/animes/saihate-no-paladin/",
      "secao": "dublados,legendados",
      "pagina": 14,
      "total_episodios": 12,
      "link_video": "https://animefire.plus/video/saihate-no-paladin-dublado"
    },
    {
      "id": 3189,
      "nome": "Saihate no Paladin: Tetsusabi no Yama no Ou (Dublado)",
      "link": "https://animefire.plus/animes/saihate-no-paladin-tetsusabi-no-yama-no-ou-dublado-todos-os-episodios",
      "texto_original": "Saihate no Paladin: Tetsusabi no Yama no Ou (Dublado)",
      "rating": 7.43,
      "classificacao_etaria": "A14",
      "imagem_original": "https://animefire.plus/img/animes/saihate-no-paladin-tetsusabi-no-yama-no-ou.webp",
      "imagem_pasta": "https://animefire.plus/img/animes/saihate-no-paladin-tetsusabi-no-yama-no-ou/",
      "secao": "dublados,legendados",
      "pagina": 5,
      "total_episodios": 12,
      "link_video": "https://animefire.plus/video/saihate-no-paladin-tetsusabi-no-yama-no-ou-dublado"
    },
    {
      "id": 3191,
      "nome": "Saijaku Tamer wa Gomi Hiroi no Tabi wo Hajimemashita. (Dublado)",
      "link": "https://animefire.plus/animes/saijaku-tamer-wa-gomi-hiroi-no-tabi-wo-hajimemashita-dublado-todos-os-episodios",
      "texto_original": "Saijaku Tamer wa Gomi Hiroi no Tabi wo Hajimemashita. (Dublado)",
      "rating": 7.56,
      "classificacao_etaria": "A14",
      "imagem_original": "https://animefire.plus/img/animes/saijaku-tamer-wa-gomi-hiroi-no-tabi-wo-hajimemashita.webp",
      "imagem_pasta": "https://animefire.plus/img/animes/saijaku-tamer-wa-gomi-hiroi-no-tabi-wo-hajimemashita/",
      "secao": "dublados,legendados",
      "pagina": 4,
      "total_episodios": 12,
      "link_video": "https://animefire.plus/video/saijaku-tamer-wa-gomi-hiroi-no-tabi-wo-hajimemashita-dublado"
    },
    {
      "id": 3195,
      "nome": "Saiki Kusuo no Ψ-nan: Ψ-shidou-hen (Dublado)",
      "link": "https://animefire.plus/animes/saiki-kusuo-no--nan--shidou-hen-dublado-todos-os-episodios",
      "texto_original": "Saiki Kusuo no Ψ-nan: Ψ-shidou-hen (Dublado)",
      "rating": 8.18,
      "classificacao_etaria": "A14",
      "imagem_original": "https://animefire.plus/img/animes/saiki-kusuo-no--nan--shidou-hen.webp",
      "imagem_pasta": "https://animefire.plus/img/animes/saiki-kusuo-no--nan--shidou-hen/",
      "secao": "dublados",
      "pagina": 20,
      "total_episodios": 6,
      "link_video": "https://animefire.plus/video/saiki-kusuo-no--nan--shidou-hen-dublado"
    },
    {
      "id": 3205,
      "nome": "Saint Seiya (Dublado)",
      "link": "https://animefire.plus/animes/saint-seiya-dublado-todos-os-episodios",
      "texto_original": "Saint Seiya (Dublado)",
      "rating": 7.92,
      "classificacao_etaria": "A14",
      "imagem_original": "https://animefire.plus/img/animes/saint-seiya.webp",
      "imagem_pasta": "https://animefire.plus/img/animes/saint-seiya/",
      "secao": "dublados,legendados",
      "pagina": 28,
      "total_episodios": 145,
      "link_video": "https://animefire.plus/video/saint-seiya-dublado"
    },
    {
      "id": 3206,
      "nome": "Saint Seiya Omega (Dublado)",
      "link": "https://animefire.plus/animes/saint-seiya-omega-dublado-todos-os-episodios",
      "texto_original": "Saint Seiya Omega (Dublado)",
      "rating": 6.3,
      "classificacao_etaria": "A14",
      "imagem_original": "https://animefire.plus/img/animes/saint-seiya-omega.webp",
      "imagem_pasta": "https://animefire.plus/img/animes/saint-seiya-omega/",
      "secao": "dublados",
      "pagina": 20,
      "total_episodios": 97,
      "link_video": "https://animefire.plus/video/saint-seiya-omega-dublado"
    },
    {
      "id": 3211,
      "nome": "Saint Seiya: Soul of Gold (Dublado)",
      "link": "https://animefire.plus/animes/saint-seiya-soul-of-gold-dublado-todos-os-episodios",
      "texto_original": "Saint Seiya: Soul of Gold (Dublado)",
      "rating": 7.07,
      "classificacao_etaria": "A14",
      "imagem_original": "https://animefire.plus/img/animes/saint-seiya-soul-of-gold.webp",
      "imagem_pasta": "https://animefire.plus/img/animes/saint-seiya-soul-of-gold/",
      "secao": "dublados",
      "pagina": 20,
      "total_episodios": 13,
      "link_video": "https://animefire.plus/video/saint-seiya-soul-of-gold-dublado"
    },
    {
      "id": 3212,
      "nome": "Saint Seiya: The Lost Canvas - Meiou Shinwa (Dublado)",
      "link": "https://animefire.plus/animes/saint-seiya-the-lost-canvas---meiou-shinwa-dublado-todos-os-episodios",
      "texto_original": "Saint Seiya: The Lost Canvas - Meiou Shinwa (Dublado)",
      "rating": 7.98,
      "classificacao_etaria": "A14",
      "imagem_original": "https://animefire.plus/img/animes/saint-seiya-the-lost-canvas---meiou-shinwa.webp",
      "imagem_pasta": "https://animefire.plus/img/animes/saint-seiya-the-lost-canvas---meiou-shinwa/",
      "secao": "dublados,legendados",
      "pagina": 17,
      "total_episodios": 13,
      "link_video": "https://animefire.plus/video/saint-seiya-the-lost-canvas---meiou-shinwa-dublado"
    },
    {
      "id": 3213,
      "nome": "Saint Seiya: The Lost Canvas - Meiou Shinwa 2 (Dublado)",
      "link": "https://animefire.plus/animes/saint-seiya-the-lost-canvas---meiou-shinwa-2-dublado-todos-os-episodios",
      "texto_original": "Saint Seiya: The Lost Canvas - Meiou Shinwa 2 (Dublado)",
      "rating": 8.1,
      "classificacao_etaria": "A14",
      "imagem_original": "https://animefire.plus/img/animes/saint-seiya-the-lost-canvas---meiou-shinwa-2.webp",
      "imagem_pasta": "https://animefire.plus/img/animes/saint-seiya-the-lost-canvas---meiou-shinwa-2/",
      "secao": "dublados,legendados",
      "pagina": 17,
      "total_episodios": 13,
      "link_video": "https://animefire.plus/video/saint-seiya-the-lost-canvas---meiou-shinwa-2-dublado"
    },
    {
      "id": 3214,
      "nome": "Saishuu Heiki Kanojo (Dublado)",
      "link": "https://animefire.plus/animes/saishuu-heiki-kanojo-dublado-todos-os-episodios",
      "texto_original": "Saishuu Heiki Kanojo (Dublado)",
      "rating": 7.2,
      "classificacao_etaria": "A16",
      "imagem_original": "https://animefire.plus/img/animes/saishuu-heiki-kanojo.webp",
      "imagem_pasta": "https://animefire.plus/img/animes/saishuu-heiki-kanojo/",
      "secao": "dublados,legendados",
      "pagina": 25,
      "total_episodios": 13,
      "link_video": "https://animefire.plus/video/saishuu-heiki-kanojo-dublado"
    },
    {
      "id": 3223,
      "nome": "Sakamichi no Apollon (Dublado)",
      "link": "https://animefire.plus/animes/sakamichi-no-apollon-dublado-todos-os-episodios",
      "texto_original": "Sakamichi no Apollon (Dublado)",
      "rating": 8.32,
      "classificacao_etaria": "A14",
      "imagem_original": "https://animefire.plus/img/animes/sakamichi-no-apollon.webp",
      "imagem_pasta": "https://animefire.plus/img/animes/sakamichi-no-apollon/",
      "secao": "dublados,legendados",
      "pagina": 11,
      "total_episodios": 12,
      "link_video": "https://animefire.plus/video/sakamichi-no-apollon-dublado"
    },
    {
      "id": 3224,
      "nome": "Sakamoto Days (Dublado)",
      "link": "https://animefire.plus/animes/sakamoto-days-dublado-todos-os-episodios",
      "texto_original": "Sakamoto Days (Dublado)",
      "rating": 7.58,
      "classificacao_etaria": "A16",
      "imagem_original": "https://animefire.plus/img/animes/sakamoto-days.webp",
      "imagem_pasta": "https://animefire.plus/img/animes/sakamoto-days/",
      "secao": "dublados,legendados",
      "pagina": 1,
      "total_episodios": 11,
      "link_video": "https://animefire.plus/video/sakamoto-days-dublado"
    },
    {
      "id": 3225,
      "nome": "Sakamoto Days Part 2 (Dublado)",
      "link": "https://animefire.plus/animes/sakamoto-days-part-2-dublado-todos-os-episodios",
      "texto_original": "Sakamoto Days Part 2 (Dublado)",
      "rating": 7.88,
      "classificacao_etaria": "A16",
      "imagem_original": "https://animefire.plus/img/animes/sakamoto-days-part-2.webp",
      "imagem_pasta": "https://animefire.plus/img/animes/sakamoto-days-part-2/",
      "secao": "dublados,legendados,lancamentos",
      "pagina": 1,
      "total_episodios": 4,
      "link_video": "https://animefire.plus/video/sakamoto-days-part-2-dublado"
    },
    {
      "id": 3232,
      "nome": "Sakugan (Dublado)",
      "link": "https://animefire.plus/animes/sakugan-dublado-todos-os-episodios",
      "texto_original": "Sakugan (Dublado)",
      "rating": 6.51,
      "classificacao_etaria": "A14",
      "imagem_original": "https://animefire.plus/img/animes/sakugan.webp",
      "imagem_pasta": "https://animefire.plus/img/animes/sakugan/",
      "secao": "dublados,legendados",
      "pagina": 14,
      "total_episodios": 12,
      "link_video": "https://animefire.plus/video/sakugan-dublado"
    }
  ],
  "pagination": {
    "current_page": 24,
    "per_page": 20,
    "total_items": 656,
    "total_pages": 33,
    "has_next": true,
    "has_prev": true
  }
}
