{
  "message": "Animes da seção: lancamentos",
  "section": "lancamentos",
  "data": [
    {
      "id": 1883,
      "nome": "Kanojo, Okarishimasu 3rd Season (Dublado)",
      "link": "https://animefire.plus/animes/kanojo-okarishimasu-3rd-season-dublado-todos-os-episodios",
      "texto_original": "Kanojo, Okarishimasu 3rd Season (Dublado)",
      "rating": 7.01,
      "classificacao_etaria": "A14",
      "imagem_original": "https://animefire.plus/img/animes/kanojo-okarishimasu-3rd-season.webp",
      "imagem_pasta": "https://animefire.plus/img/animes/kanojo-okarishimasu-3rd-season/",
      "secao": "dublados,legendados,lancamentos",
      "pagina": 6,
      "total_episodios": 12,
      "link_video": "https://animefire.plus/video/kanojo-okarishimasu-3rd-season-dublado"
    },
    {
      "id": 1884,
      "nome": "Kanojo, Okarishimasu 4th Season",
      "link": "https://animefire.plus/animes/kanojo-okarishimasu-4th-season-todos-os-episodios",
      "texto_original": "Kanojo, Okarishimasu 4th Season",
      "rating": 6.2,
      "classificacao_etaria": "A14",
      "imagem_original": "https://animefire.plus/img/animes/kanojo-okarishimasu-4th-season.webp",
      "imagem_pasta": "https://animefire.plus/img/animes/kanojo-okarishimasu-4th-season/",
      "secao": "legendados,lancamentos",
      "pagina": 3,
      "total_episodios": 5,
      "link_video": "https://animefire.plus/video/kanojo-okarishimasu-4th-season"
    },
    {
      "id": 1891,
      "nome": "Kaoru Hana wa Rin to Saku",
      "link": "https://animefire.plus/animes/kaoru-hana-wa-rin-to-saku-todos-os-episodios",
      "texto_original": "Kaoru Hana wa Rin to Saku",
      "rating": 8.75,
      "classificacao_etaria": "A14",
      "imagem_original": "https://animefire.plus/img/animes/kaoru-hana-wa-rin-to-saku.webp",
      "imagem_pasta": "https://animefire.plus/img/animes/kaoru-hana-wa-rin-to-saku/",
      "secao": "legendados,lancamentos",
      "pagina": 3,
      "total_episodios": 4,
      "link_video": "https://animefire.plus/video/kaoru-hana-wa-rin-to-saku"
    },
    {
      "id": 1897,
      "nome": "Karaoke Iko!",
      "link": "https://animefire.plus/animes/karaoke-iko-todos-os-episodios",
      "texto_original": "Karaoke Iko!",
      "rating": 7.28,
      "classificacao_etaria": "A14",
      "imagem_original": "https://animefire.plus/img/animes/karaoke-iko.webp",
      "imagem_pasta": "https://animefire.plus/img/animes/karaoke-iko/",
      "secao": "legendados,lancamentos",
      "pagina": 1,
      "total_episodios": 2,
      "link_video": "https://animefire.plus/video/karaoke-iko"
    },
    {
      "id": 1906,
      "nome": "Katainaka no Ossan, Kensei ni Naru (Dublado)",
      "link": "https://animefire.plus/animes/katainaka-no-ossan-kensei-ni-naru-dublado-todos-os-episodios",
      "texto_original": "Katainaka no Ossan, Kensei ni Naru (Dublado)",
      "rating": 7.02,
      "classificacao_etaria": "A14",
      "imagem_original": "https://animefire.plus/img/animes/katainaka-no-ossan-kensei-ni-naru.webp",
      "imagem_pasta": "https://animefire.plus/img/animes/katainaka-no-ossan-kensei-ni-naru/",
      "secao": "dublados,legendados,lancamentos",
      "pagina": 1,
      "total_episodios": 12,
      "link_video": "https://animefire.plus/video/katainaka-no-ossan-kensei-ni-naru-dublado"
    },
    {
      "id": 1932,
      "nome": "Kekkon suru tte, Hontou desu ka (Dublado)",
      "link": "https://animefire.plus/animes/kekkon-suru-tte-hontou-desu-ka-dublado-todos-os-episodios",
      "texto_original": "Kekkon suru tte, Hontou desu ka (Dublado)",
      "rating": 7.12,
      "classificacao_etaria": "A14",
      "imagem_original": "https://animefire.plus/img/animes/kekkon-suru-tte-hontou-desu-ka.webp",
      "imagem_pasta": "https://animefire.plus/img/animes/kekkon-suru-tte-hontou-desu-ka/",
      "secao": "dublados,legendados,lancamentos",
      "pagina": 2,
      "total_episodios": 12,
      "link_video": "https://animefire.plus/video/kekkon-suru-tte-hontou-desu-ka-dublado"
    },
    {
      "id": 1933,
      "nome": "Kekkon Yubiwa Monogatari (Dublado)",
      "link": "https://animefire.plus/animes/kekkon-yubiwa-monogatari-dublado-todos-os-episodios",
      "texto_original": "Kekkon Yubiwa Monogatari (Dublado)",
      "rating": 6.06,
      "classificacao_etaria": "A18",
      "imagem_original": "https://animefire.plus/img/animes/kekkon-yubiwa-monogatari.webp",
      "imagem_pasta": "https://animefire.plus/img/animes/kekkon-yubiwa-monogatari/",
      "secao": "dublados,legendados,lancamentos",
      "pagina": 3,
      "total_episodios": 12,
      "link_video": "https://animefire.plus/video/kekkon-yubiwa-monogatari-dublado"
    },
    {
      "id": 1966,
      "nome": "Kijin Gentoushou",
      "link": "https://animefire.plus/animes/kijin-gentoushou-todos-os-episodios",
      "texto_original": "Kijin Gentoushou",
      "rating": 7.4,
      "classificacao_etaria": "A16",
      "imagem_original": "https://animefire.plus/img/animes/kijin-gentoushou.webp",
      "imagem_pasta": "https://animefire.plus/img/animes/kijin-gentoushou/",
      "secao": "legendados,lancamentos",
      "pagina": 6,
      "total_episodios": 16,
      "link_video": "https://animefire.plus/video/kijin-gentoushou"
    },
    {
      "id": 1993,
      "nome": "Kimi to Idol Precure♪",
      "link": "https://animefire.plus/animes/kimi-to-idol-precure-todos-os-episodios",
      "texto_original": "Kimi to Idol Precure♪",
      "rating": 7.43,
      "classificacao_etaria": null,
      "imagem_original": "https://animefire.plus/img/animes/kimi-to-idol-precure.webp",
      "imagem_pasta": "https://animefire.plus/img/animes/kimi-to-idol-precure/",
      "secao": "legendados,lancamentos",
      "pagina": 6,
      "total_episodios": 26,
      "link_video": "https://animefire.plus/video/kimi-to-idol-precure"
    },
    {
      "id": 1995,
      "nome": "Kimi wa Meido-sama. (Dublado)",
      "link": "https://animefire.plus/animes/kimi-wa-meido-sama-dublado-todos-os-episodios",
      "texto_original": "Kimi wa Meido-sama. (Dublado)",
      "rating": 7.07,
      "classificacao_etaria": "A14",
      "imagem_original": "https://animefire.plus/img/animes/kimi-wa-meido-sama.webp",
      "imagem_pasta": "https://animefire.plus/img/animes/kimi-wa-meido-sama/",
      "secao": "dublados,legendados,lancamentos",
      "pagina": 2,
      "total_episodios": 12,
      "link_video": "https://animefire.plus/video/kimi-wa-meido-sama-dublado"
    },
    {
      "id": 2004,
      "nome": "Kingdom 3rd Season",
      "link": "https://animefire.plus/animes/kingdom-3rd-season-todos-os-episodios",
      "texto_original": "Kingdom 3rd Season",
      "rating": 8.41,
      "classificacao_etaria": null,
      "imagem_original": "https://animefire.plus/img/animes/kingdom-3rd-season.webp",
      "imagem_pasta": "https://animefire.plus/img/animes/kingdom-3rd-season/",
      "secao": "legendados,lancamentos",
      "pagina": 81,
      "total_episodios": 26,
      "link_video": "https://animefire.plus/video/kingdom-3rd-season"
    },
    {
      "id": 2008,
      "nome": "Kinnikuman: Kanpeki Chоujin Shiso-hen Season 2",
      "link": "https://animefire.plus/animes/kinnikuman-kanpeki-choujin-shiso-hen-season-2-todos-os-episodios",
      "texto_original": "Kinnikuman: Kanpeki Chоujin Shiso-hen Season 2",
      "rating": 6.87,
      "classificacao_etaria": "A14",
      "imagem_original": "https://animefire.plus/img/animes/kinnikuman-kanpeki-choujin-shiso-hen-season-2.webp",
      "imagem_pasta": "https://animefire.plus/img/animes/kinnikuman-kanpeki-choujin-shiso-hen-season-2/",
      "secao": "legendados,lancamentos",
      "pagina": 6,
      "total_episodios": 1,
      "link_video": "https://animefire.plus/video/kinnikuman-kanpeki-choujin-shiso-hen-season-2"
    },
    {
      "id": 2030,
      "nome": "Kizetsu Yuusha to Ansatsu Hime",
      "link": "https://animefire.plus/animes/kizetsu-yuusha-to-ansatsu-hime-todos-os-episodios",
      "texto_original": "Kizetsu Yuusha to Ansatsu Hime",
      "rating": 6.38,
      "classificacao_etaria": "A14",
      "imagem_original": "https://animefire.plus/img/animes/kizetsu-yuusha-to-ansatsu-hime.webp",
      "imagem_pasta": "https://animefire.plus/img/animes/kizetsu-yuusha-to-ansatsu-hime/",
      "secao": "legendados,lancamentos",
      "pagina": 2,
      "total_episodios": 5,
      "link_video": "https://animefire.plus/video/kizetsu-yuusha-to-ansatsu-hime"
    },
    {
      "id": 2032,
      "nome": "Kizu darake Seijo yori Houfuku wo Komete",
      "link": "https://animefire.plus/animes/kizu-darake-seijo-yori-houfuku-wo-komete-todos-os-episodios",
      "texto_original": "Kizu darake Seijo yori Houfuku wo Komete",
      "rating": 5.59,
      "classificacao_etaria": "A14",
      "imagem_original": "https://animefire.plus/img/animes/kizu-darake-seijo-yori-houfuku-wo-komete.webp",
      "imagem_pasta": "https://animefire.plus/img/animes/kizu-darake-seijo-yori-houfuku-wo-komete/",
      "secao": "legendados,lancamentos",
      "pagina": 1,
      "total_episodios": 0,
      "link_video": "https://animefire.plus/video/kizu-darake-seijo-yori-houfuku-wo-komete"
    },
    {
      "id": 2033,
      "nome": "KJ File (Zoku-hen)",
      "link": "https://animefire.plus/animes/kj-file-zoku-hen-todos-os-episodios",
      "texto_original": "KJ File (Zoku-hen)",
      "rating": 5.23,
      "classificacao_etaria": "A14",
      "imagem_original": "https://animefire.plus/img/animes/kj-file-zoku-hen.webp",
      "imagem_pasta": "https://animefire.plus/img/animes/kj-file-zoku-hen/",
      "secao": "legendados,lancamentos",
      "pagina": 26,
      "total_episodios": 0,
      "link_video": "https://animefire.plus/video/kj-file-zoku-hen"
    },
    {
      "id": 2035,
      "nome": "Knights of the Zodiac: Saint Seiya - Battle for Sanctuary (Dublado)",
      "link": "https://animefire.plus/animes/knights-of-the-zodiac-saint-seiya---battle-for-sanctuary-dublado-todos-os-episodios",
      "texto_original": "Knights of the Zodiac: Saint Seiya - Battle for Sanctuary (Dublado)",
      "rating": 6.22,
      "classificacao_etaria": "A14",
      "imagem_original": "https://animefire.plus/img/animes/knights-of-the-zodiac-saint-seiya---battle-for-sanctuary.webp",
      "imagem_pasta": "https://animefire.plus/img/animes/knights-of-the-zodiac-saint-seiya---battle-for-sanctuary/",
      "secao": "dublados,legendados,lancamentos",
      "pagina": 8,
      "total_episodios": 12,
      "link_video": "https://animefire.plus/video/knights-of-the-zodiac-saint-seiya---battle-for-sanctuary-dublado"
    },
    {
      "id": 2091,
      "nome": "Kono Subarashii Sekai ni Shukufuku wo! 3: Bonus Stage",
      "link": "https://animefire.plus/animes/kono-subarashii-sekai-ni-shukufuku-wo-3-bonus-stage-todos-os-episodios",
      "texto_original": "Kono Subarashii Sekai ni Shukufuku wo! 3: Bonus Stage",
      "rating": 8.17,
      "classificacao_etaria": "A14",
      "imagem_original": "https://animefire.plus/img/animes/kono-subarashii-sekai-ni-shukufuku-wo-3-bonus-stage.webp",
      "imagem_pasta": "https://animefire.plus/img/animes/kono-subarashii-sekai-ni-shukufuku-wo-3-bonus-stage/",
      "secao": "legendados,lancamentos",
      "pagina": 3,
      "total_episodios": 0,
      "link_video": "https://animefire.plus/video/kono-subarashii-sekai-ni-shukufuku-wo-3-bonus-stage"
    },
    {
      "id": 2105,
      "nome": "Koujo Denka no Kateikyoushi",
      "link": "https://animefire.plus/animes/koujo-denka-no-kateikyoushi-todos-os-episodios",
      "texto_original": "Koujo Denka no Kateikyoushi",
      "rating": 6.67,
      "classificacao_etaria": "A14",
      "imagem_original": "https://animefire.plus/img/animes/koujo-denka-no-kateikyoushi.webp",
      "imagem_pasta": "https://animefire.plus/img/animes/koujo-denka-no-kateikyoushi/",
      "secao": "legendados,lancamentos",
      "pagina": 2,
      "total_episodios": 5,
      "link_video": "https://animefire.plus/video/koujo-denka-no-kateikyoushi"
    },
    {
      "id": 2135,
      "nome": "Kumo Desu ga, Nani ka? (Dublado)",
      "link": "https://animefire.plus/animes/kumo-desu-ga-nani-ka-dublado-todos-os-episodios",
      "texto_original": "Kumo Desu ga, Nani ka? (Dublado)",
      "rating": 7.45,
      "classificacao_etaria": "A14",
      "imagem_original": "https://animefire.plus/img/animes/kumo-desu-ga-nani-ka.webp",
      "imagem_pasta": "https://animefire.plus/img/animes/kumo-desu-ga-nani-ka/",
      "secao": "dublados,legendados,lancamentos",
      "pagina": 18,
      "total_episodios": 24,
      "link_video": "https://animefire.plus/video/kumo-desu-ga-nani-ka-dublado"
    },
    {
      "id": 2145,
      "nome": "Kuro Gal ni Natta kara Shinyuu to shitemita.",
      "link": "https://animefire.plus/animes/kuro-gal-ni-natta-kara-shinyuu-to-shitemita-todos-os-episodios",
      "texto_original": "Kuro Gal ni Natta kara Shinyuu to shitemita.",
      "rating": 6.2,
      "classificacao_etaria": "A18",
      "imagem_original": "https://animefire.plus/img/animes/kuro-gal-ni-natta-kara-shinyuu-to-shitemita.webp",
      "imagem_pasta": "https://animefire.plus/img/animes/kuro-gal-ni-natta-kara-shinyuu-to-shitemita/",
      "secao": "legendados,lancamentos",
      "pagina": 47,
      "total_episodios": 0,
      "link_video": "https://animefire.plus/video/kuro-gal-ni-natta-kara-shinyuu-to-shitemita"
    }
  ],
  "pagination": {
    "current_page": 7,
    "per_page": 20,
    "total_items": 285,
    "total_pages": 15,
    "has_next": true,
    "has_prev": true
  }
}
