{
  "message": "Animes da seção: lancamentos",
  "section": "lancamentos",
  "data": [
    {
      "id": 986,
      "nome": "Fate/Grand Carnival",
      "link": "https://animefire.plus/animes/fate-grand-carnival-todos-os-episodios",
      "texto_original": "Fate/Grand Carnival",
      "rating": 8.18,
      "classificacao_etaria": "A14",
      "imagem_original": "https://animefire.plus/img/animes/fate-grand-carnival.webp",
      "imagem_pasta": "https://animefire.plus/img/animes/fate-grand-carnival/",
      "secao": "legendados,lancamentos",
      "pagina": 48,
      "total_episodios": 2,
      "link_video": "https://animefire.plus/video/fate-grand-carnival"
    },
    {
      "id": 1000,
      "nome": "Fate/strange Fake",
      "link": "https://animefire.plus/animes/fate-strange-fake-todos-os-episodios",
      "texto_original": "Fate/strange Fake",
      "rating": null,
      "classificacao_etaria": "A16",
      "imagem_original": "https://animefire.plus/img/animes/fate-strange-fake.webp",
      "imagem_pasta": "https://animefire.plus/img/animes/fate-strange-fake/",
      "secao": "legendados,lancamentos",
      "pagina": 8,
      "total_episodios": 1,
      "link_video": "https://animefire.plus/video/fate-strange-fake"
    },
    {
      "id": 1005,
      "nome": "Fermat no Ryouri",
      "link": "https://animefire.plus/animes/fermat-no-ryouri-todos-os-episodios",
      "texto_original": "Fermat no Ryouri",
      "rating": 6.65,
      "classificacao_etaria": "A14",
      "imagem_original": "https://animefire.plus/img/animes/fermat-no-ryouri.webp",
      "imagem_pasta": "https://animefire.plus/img/animes/fermat-no-ryouri/",
      "secao": "legendados,lancamentos",
      "pagina": 2,
      "total_episodios": 4,
      "link_video": "https://animefire.plus/video/fermat-no-ryouri"
    },
    {
      "id": 1013,
      "nome": "Flaglia: Natsuyasumi no Monogatari",
      "link": "https://animefire.plus/animes/flaglia-natsuyasumi-no-monogatari-todos-os-episodios",
      "texto_original": "Flaglia: Natsuyasumi no Monogatari",
      "rating": 5.13,
      "classificacao_etaria": "A14",
      "imagem_original": "https://animefire.plus/img/animes/flaglia-natsuyasumi-no-monogatari.webp",
      "imagem_pasta": "https://animefire.plus/img/animes/flaglia-natsuyasumi-no-monogatari/",
      "secao": "legendados,lancamentos",
      "pagina": 26,
      "total_episodios": 0,
      "link_video": "https://animefire.plus/video/flaglia-natsuyasumi-no-monogatari"
    },
    {
      "id": 1017,
      "nome": "Food Court de, Mata Ashita.",
      "link": "https://animefire.plus/animes/food-court-de-mata-ashita-todos-os-episodios",
      "texto_original": "Food Court de, Mata Ashita.",
      "rating": 7.01,
      "classificacao_etaria": "A14",
      "imagem_original": "https://animefire.plus/img/animes/food-court-de-mata-ashita.webp",
      "imagem_pasta": "https://animefire.plus/img/animes/food-court-de-mata-ashita/",
      "secao": "legendados,lancamentos",
      "pagina": 2,
      "total_episodios": 4,
      "link_video": "https://animefire.plus/video/food-court-de-mata-ashita"
    },
    {
      "id": 1059,
      "nome": "Futari Solo Camp",
      "link": "https://animefire.plus/animes/futari-solo-camp-todos-os-episodios",
      "texto_original": "Futari Solo Camp",
      "rating": 6.52,
      "classificacao_etaria": "A14",
      "imagem_original": "https://animefire.plus/img/animes/futari-solo-camp.webp",
      "imagem_pasta": "https://animefire.plus/img/animes/futari-solo-camp/",
      "secao": "legendados,lancamentos",
      "pagina": 1,
      "total_episodios": 4,
      "link_video": "https://animefire.plus/video/futari-solo-camp"
    },
    {
      "id": 1075,
      "nome": "Gachiakuta (Dublado)",
      "link": "https://animefire.plus/animes/gachiakuta-dublado-todos-os-episodios",
      "texto_original": "Gachiakuta (Dublado)",
      "rating": 8.07,
      "classificacao_etaria": "A14",
      "imagem_original": "https://animefire.plus/img/animes/gachiakuta.webp",
      "imagem_pasta": "https://animefire.plus/img/animes/gachiakuta/",
      "secao": "dublados,legendados,lancamentos",
      "pagina": 1,
      "total_episodios": 4,
      "link_video": "https://animefire.plus/video/gachiakuta-dublado"
    },
    {
      "id": 1093,
      "nome": "Gal-gaku.: Hijiri Girls Square Gakuin",
      "link": "https://animefire.plus/animes/gal-gaku-hijiri-girls-square-gakuin-todos-os-episodios",
      "texto_original": "Gal-gaku.: Hijiri Girls Square Gakuin",
      "rating": 5.43,
      "classificacao_etaria": "A14",
      "imagem_original": "https://animefire.plus/img/animes/gal-gaku-hijiri-girls-square-gakuin.webp",
      "imagem_pasta": "https://animefire.plus/img/animes/gal-gaku-hijiri-girls-square-gakuin/",
      "secao": "legendados,lancamentos",
      "pagina": 58,
      "total_episodios": 5,
      "link_video": "https://animefire.plus/video/gal-gaku-hijiri-girls-square-gakuin"
    },
    {
      "id": 1100,
      "nome": "Game Center Shoujo to Ibunka Kouryuu",
      "link": "https://animefire.plus/animes/game-center-shoujo-to-ibunka-kouryuu-todos-os-episodios",
      "texto_original": "Game Center Shoujo to Ibunka Kouryuu",
      "rating": 6.84,
      "classificacao_etaria": "A14",
      "imagem_original": "https://animefire.plus/img/animes/game-center-shoujo-to-ibunka-kouryuu.webp",
      "imagem_pasta": "https://animefire.plus/img/animes/game-center-shoujo-to-ibunka-kouryuu/",
      "secao": "legendados,lancamentos",
      "pagina": 2,
      "total_episodios": 5,
      "link_video": "https://animefire.plus/video/game-center-shoujo-to-ibunka-kouryuu"
    },
    {
      "id": 1169,
      "nome": "Ginga Tokkyuu Milky☆Subway",
      "link": "https://animefire.plus/animes/ginga-tokkyuu-milky-subway-todos-os-episodios",
      "texto_original": "Ginga Tokkyuu Milky☆Subway",
      "rating": null,
      "classificacao_etaria": null,
      "imagem_original": "https://animefire.plus/img/animes/ginga-tokkyuu-milky-subway.webp",
      "imagem_pasta": "https://animefire.plus/img/animes/ginga-tokkyuu-milky-subway/",
      "secao": "legendados,lancamentos",
      "pagina": 1,
      "total_episodios": 0,
      "link_video": "https://animefire.plus/video/ginga-tokkyuu-milky-subway"
    },
    {
      "id": 1190,
      "nome": "Girls Band Cry",
      "link": "https://animefire.plus/animes/girls-band-cry-todos-os-episodios",
      "texto_original": "Girls Band Cry",
      "rating": 8.22,
      "classificacao_etaria": "A14",
      "imagem_original": "https://animefire.plus/img/animes/girls-band-cry.webp",
      "imagem_pasta": "https://animefire.plus/img/animes/girls-band-cry/",
      "secao": "legendados,lancamentos",
      "pagina": 13,
      "total_episodios": 3,
      "link_video": "https://animefire.plus/video/girls-band-cry"
    },
    {
      "id": 1242,
      "nome": "Grand Blue Season 2",
      "link": "https://animefire.plus/animes/grand-blue-season-2-todos-os-episodios",
      "texto_original": "Grand Blue Season 2",
      "rating": 8.72,
      "classificacao_etaria": "A14",
      "imagem_original": "https://animefire.plus/img/animes/grand-blue-season-2.webp",
      "imagem_pasta": "https://animefire.plus/img/animes/grand-blue-season-2/",
      "secao": "legendados,lancamentos",
      "pagina": 3,
      "total_episodios": 4,
      "link_video": "https://animefire.plus/video/grand-blue-season-2"
    },
    {
      "id": 1249,
      "nome": "Great Pretender: Razbliuto",
      "link": "https://animefire.plus/animes/great-pretender-razbliuto-todos-os-episodios",
      "texto_original": "Great Pretender: Razbliuto",
      "rating": 6.83,
      "classificacao_etaria": "A16",
      "imagem_original": "https://animefire.plus/img/animes/great-pretender-razbliuto.webp",
      "imagem_pasta": "https://animefire.plus/img/animes/great-pretender-razbliuto/",
      "secao": "legendados,lancamentos",
      "pagina": 16,
      "total_episodios": 1,
      "link_video": "https://animefire.plus/video/great-pretender-razbliuto"
    },
    {
      "id": 1255,
      "nome": "Grendizer U",
      "link": "https://animefire.plus/animes/grendizer-u-todos-os-episodios",
      "texto_original": "Grendizer U",
      "rating": null,
      "classificacao_etaria": "A14",
      "imagem_original": "https://animefire.plus/img/animes/grendizer-u.webp",
      "imagem_pasta": "https://animefire.plus/img/animes/grendizer-u/",
      "secao": "legendados,lancamentos",
      "pagina": 12,
      "total_episodios": 4,
      "link_video": "https://animefire.plus/video/grendizer-u"
    },
    {
      "id": 1270,
      "nome": "Guimi Zhi Zhu: Xiaochou Pian",
      "link": "https://animefire.plus/animes/guimi-zhi-zhu-xiaochou-pian-todos-os-episodios",
      "texto_original": "Guimi Zhi Zhu: Xiaochou Pian",
      "rating": 8.46,
      "classificacao_etaria": "A16",
      "imagem_original": "https://animefire.plus/img/animes/guimi-zhi-zhu-xiaochou-pian.webp",
      "imagem_pasta": "https://animefire.plus/img/animes/guimi-zhi-zhu-xiaochou-pian/",
      "secao": "legendados,lancamentos",
      "pagina": 1,
      "total_episodios": 7,
      "link_video": "https://animefire.plus/video/guimi-zhi-zhu-xiaochou-pian"
    },
    {
      "id": 1307,
      "nome": "Haigakura",
      "link": "https://animefire.plus/animes/haigakura-todos-os-episodios",
      "texto_original": "Haigakura",
      "rating": null,
      "classificacao_etaria": "A14",
      "imagem_original": "https://animefire.plus/img/animes/haigakura.webp",
      "imagem_pasta": "https://animefire.plus/img/animes/haigakura/",
      "secao": "legendados,lancamentos",
      "pagina": 9,
      "total_episodios": 7,
      "link_video": "https://animefire.plus/video/haigakura"
    },
    {
      "id": 1331,
      "nome": "Hakumei no Tsubasa",
      "link": "https://animefire.plus/animes/hakumei-no-tsubasa-todos-os-episodios",
      "texto_original": "Hakumei no Tsubasa",
      "rating": 7.61,
      "classificacao_etaria": "A10",
      "imagem_original": "https://animefire.plus/img/animes/hakumei-no-tsubasa.webp",
      "imagem_pasta": "https://animefire.plus/img/animes/hakumei-no-tsubasa/",
      "secao": "legendados,lancamentos",
      "pagina": 82,
      "total_episodios": 5,
      "link_video": "https://animefire.plus/video/hakumei-no-tsubasa"
    },
    {
      "id": 1336,
      "nome": "Hakuouki OVA (2021)",
      "link": "https://animefire.plus/animes/hakuouki-ova-2021-todos-os-episodios",
      "texto_original": "Hakuouki OVA (2021)",
      "rating": 7.05,
      "classificacao_etaria": "A16",
      "imagem_original": "https://animefire.plus/img/animes/hakuouki-ova-2021.webp",
      "imagem_pasta": "https://animefire.plus/img/animes/hakuouki-ova-2021/",
      "secao": "legendados,lancamentos",
      "pagina": 36,
      "total_episodios": 2,
      "link_video": "https://animefire.plus/video/hakuouki-ova-2021"
    },
    {
      "id": 1345,
      "nome": "Hamidashi Creative",
      "link": "https://animefire.plus/animes/hamidashi-creative-todos-os-episodios",
      "texto_original": "Hamidashi Creative",
      "rating": null,
      "classificacao_etaria": "A14",
      "imagem_original": "https://animefire.plus/img/animes/hamidashi-creative.webp",
      "imagem_pasta": "https://animefire.plus/img/animes/hamidashi-creative/",
      "secao": "legendados,lancamentos",
      "pagina": 10,
      "total_episodios": 7,
      "link_video": "https://animefire.plus/video/hamidashi-creative"
    },
    {
      "id": 1348,
      "nome": "Hana-Doll*: Reinterpretation of Flowering",
      "link": "https://animefire.plus/animes/hana-doll-reinterpretation-of-flowering-todos-os-episodios",
      "texto_original": "Hana-Doll*: Reinterpretation of Flowering",
      "rating": null,
      "classificacao_etaria": "A14",
      "imagem_original": "https://animefire.plus/img/animes/hana-doll-reinterpretation-of-flowering.webp",
      "imagem_pasta": "https://animefire.plus/img/animes/hana-doll-reinterpretation-of-flowering/",
      "secao": "legendados,lancamentos",
      "pagina": 4,
      "total_episodios": 0,
      "link_video": "https://animefire.plus/video/hana-doll-reinterpretation-of-flowering"
    }
  ],
  "pagination": {
    "current_page": 4,
    "per_page": 20,
    "total_items": 285,
    "total_pages": 15,
    "has_next": true,
    "has_prev": true
  }
}
