{
  "message": "Animes da seção: lancamentos",
  "section": "lancamentos",
  "data": [
    {
      "id": 3926,
      "nome": "Touhai: Ura Rate Mahjong Touhai Roku",
      "link": "https://animefire.plus/animes/touhai-ura-rate-mahjong-touhai-roku-todos-os-episodios",
      "texto_original": "Touhai: Ura Rate Mahjong Touhai Roku",
      "rating": 6.62,
      "classificacao_etaria": "A14",
      "imagem_original": "https://animefire.plus/img/animes/touhai-ura-rate-mahjong-touhai-roku.webp",
      "imagem_pasta": "https://animefire.plus/img/animes/touhai-ura-rate-mahjong-touhai-roku/",
      "secao": "legendados,lancamentos",
      "pagina": 10,
      "total_episodios": 5,
      "link_video": "https://animefire.plus/video/touhai-ura-rate-mahjong-touhai-roku"
    },
    {
      "id": 3931,
      "nome": "Toutotsu ni Egypt Shin 2",
      "link": "https://animefire.plus/animes/toutotsu-ni-egypt-shin-2-todos-os-episodios",
      "texto_original": "Toutotsu ni Egypt Shin 2",
      "rating": 6.62,
      "classificacao_etaria": null,
      "imagem_original": "https://animefire.plus/img/animes/toutotsu-ni-egypt-shin-2.webp",
      "imagem_pasta": "https://animefire.plus/img/animes/toutotsu-ni-egypt-shin-2/",
      "secao": "legendados,lancamentos",
      "pagina": 25,
      "total_episodios": 5,
      "link_video": "https://animefire.plus/video/toutotsu-ni-egypt-shin-2"
    },
    {
      "id": 3949,
      "nome": "Tsuihousha Shokudou e Youkoso!",
      "link": "https://animefire.plus/animes/tsuihousha-shokudou-e-youkoso-todos-os-episodios",
      "texto_original": "Tsuihousha Shokudou e Youkoso!",
      "rating": 7.19,
      "classificacao_etaria": "A14",
      "imagem_original": "https://animefire.plus/img/animes/tsuihousha-shokudou-e-youkoso.webp",
      "imagem_pasta": "https://animefire.plus/img/animes/tsuihousha-shokudou-e-youkoso/",
      "secao": "legendados,lancamentos",
      "pagina": 2,
      "total_episodios": 5,
      "link_video": "https://animefire.plus/video/tsuihousha-shokudou-e-youkoso"
    },
    {
      "id": 3953,
      "nome": "Tsuki ga Michibiku Isekai Douchuu 2nd Season (Dublado)",
      "link": "https://animefire.plus/animes/tsuki-ga-michibiku-isekai-douchuu-2-dublado-todos-os-episodios",
      "texto_original": "Tsuki ga Michibiku Isekai Douchuu 2nd Season (Dublado)",
      "rating": 7.84,
      "classificacao_etaria": "A14",
      "imagem_original": "https://animefire.plus/img/animes/tsuki-ga-michibiku-isekai-douchuu-2.webp",
      "imagem_pasta": "https://animefire.plus/img/animes/tsuki-ga-michibiku-isekai-douchuu-2/",
      "secao": "dublados,lancamentos",
      "pagina": 3,
      "total_episodios": 11,
      "link_video": "https://animefire.plus/video/tsuki-ga-michibiku-isekai-douchuu-2-dublado"
    },
    {
      "id": 3958,
      "nome": "Tsukipro The Animation 2",
      "link": "https://animefire.plus/animes/tsukipro-the-animation-2-todos-os-episodios",
      "texto_original": "Tsukipro The Animation 2",
      "rating": 6.41,
      "classificacao_etaria": "A14",
      "imagem_original": "https://animefire.plus/img/animes/tsukipro-the-animation-2.webp",
      "imagem_pasta": "https://animefire.plus/img/animes/tsukipro-the-animation-2/",
      "secao": "legendados,lancamentos",
      "pagina": 40,
      "total_episodios": 8,
      "link_video": "https://animefire.plus/video/tsukipro-the-animation-2"
    },
    {
      "id": 3972,
      "nome": "Tsuyokute New Saga",
      "link": "https://animefire.plus/animes/tsuyokute-new-saga-todos-os-episodios",
      "texto_original": "Tsuyokute New Saga",
      "rating": 6.69,
      "classificacao_etaria": "A14",
      "imagem_original": "https://animefire.plus/img/animes/tsuyokute-new-saga.webp",
      "imagem_pasta": "https://animefire.plus/img/animes/tsuyokute-new-saga/",
      "secao": "legendados,lancamentos",
      "pagina": 3,
      "total_episodios": 5,
      "link_video": "https://animefire.plus/video/tsuyokute-new-saga"
    },
    {
      "id": 3974,
      "nome": "Tu Bian Yingxiong X (Dublado)",
      "link": "https://animefire.plus/animes/tu-bian-yingxiong-x-dublado-todos-os-episodios",
      "texto_original": "Tu Bian Yingxiong X (Dublado)",
      "rating": 8.44,
      "classificacao_etaria": "A14",
      "imagem_original": "https://animefire.plus/img/animes/tu-bian-yingxiong-x.webp",
      "imagem_pasta": "https://animefire.plus/img/animes/tu-bian-yingxiong-x/",
      "secao": "dublados,legendados,lancamentos",
      "pagina": 1,
      "total_episodios": 18,
      "link_video": "https://animefire.plus/video/tu-bian-yingxiong-x-dublado"
    },
    {
      "id": 3975,
      "nome": "Turkey!",
      "link": "https://animefire.plus/animes/turkey-todos-os-episodios",
      "texto_original": "Turkey!",
      "rating": 6.29,
      "classificacao_etaria": "A14",
      "imagem_original": "https://animefire.plus/img/animes/turkey.webp",
      "imagem_pasta": "https://animefire.plus/img/animes/turkey/",
      "secao": "legendados,lancamentos",
      "pagina": 2,
      "total_episodios": 4,
      "link_video": "https://animefire.plus/video/turkey"
    },
    {
      "id": 3981,
      "nome": "Twins Hinahima",
      "link": "https://animefire.plus/animes/twins-hinahima-todos-os-episodios",
      "texto_original": "Twins Hinahima",
      "rating": null,
      "classificacao_etaria": "A14",
      "imagem_original": "https://animefire.plus/img/animes/twins-hinahima.webp",
      "imagem_pasta": "https://animefire.plus/img/animes/twins-hinahima/",
      "secao": "legendados,lancamentos",
      "pagina": 4,
      "total_episodios": 0,
      "link_video": "https://animefire.plus/video/twins-hinahima"
    },
    {
      "id": 4002,
      "nome": "Uchuujin MuuMuu",
      "link": "https://animefire.plus/animes/uchuujin-muumuu-todos-os-episodios",
      "texto_original": "Uchuujin MuuMuu",
      "rating": null,
      "classificacao_etaria": "A14",
      "imagem_original": "https://animefire.plus/img/animes/uchuujin-muumuu.webp",
      "imagem_pasta": "https://animefire.plus/img/animes/uchuujin-muumuu/",
      "secao": "legendados,lancamentos",
      "pagina": 4,
      "total_episodios": 0,
      "link_video": "https://animefire.plus/video/uchuujin-muumuu"
    },
    {
      "id": 4026,
      "nome": "UniteUp! Uni:Birth",
      "link": "https://animefire.plus/animes/uniteup-uni-birth-todos-os-episodios",
      "texto_original": "UniteUp! Uni:Birth",
      "rating": 6.75,
      "classificacao_etaria": "A14",
      "imagem_original": "https://animefire.plus/img/animes/uniteup-uni-birth.webp",
      "imagem_pasta": "https://animefire.plus/img/animes/uniteup-uni-birth/",
      "secao": "legendados,lancamentos",
      "pagina": 7,
      "total_episodios": 13,
      "link_video": "https://animefire.plus/video/uniteup-uni-birth"
    },
    {
      "id": 4050,
      "nome": "Utagoe wa Mille-Feuille",
      "link": "https://animefire.plus/animes/utagoe-wa-mille-feuille-todos-os-episodios",
      "texto_original": "Utagoe wa Mille-Feuille",
      "rating": 6.1,
      "classificacao_etaria": "A14",
      "imagem_original": "https://animefire.plus/img/animes/utagoe-wa-mille-feuille.webp",
      "imagem_pasta": "https://animefire.plus/img/animes/utagoe-wa-mille-feuille/",
      "secao": "legendados,lancamentos",
      "pagina": 1,
      "total_episodios": 0,
      "link_video": "https://animefire.plus/video/utagoe-wa-mille-feuille"
    },
    {
      "id": 4079,
      "nome": "Vigilante: Boku no Hero Academia Illegals (Dublado)",
      "link": "https://animefire.plus/animes/vigilante-boku-no-hero-academia-illegals-dublado-todos-os-episodios",
      "texto_original": "Vigilante: Boku no Hero Academia Illegals (Dublado)",
      "rating": 7.62,
      "classificacao_etaria": "A14",
      "imagem_original": "https://animefire.plus/img/animes/vigilante-boku-no-hero-academia-illegals.webp",
      "imagem_pasta": "https://animefire.plus/img/animes/vigilante-boku-no-hero-academia-illegals/",
      "secao": "dublados,legendados,lancamentos",
      "pagina": 1,
      "total_episodios": 13,
      "link_video": "https://animefire.plus/video/vigilante-boku-no-hero-academia-illegals-dublado"
    },
    {
      "id": 4092,
      "nome": "Waccha PriMagi!",
      "link": "https://animefire.plus/animes/waccha-primagi-todos-os-episodios",
      "texto_original": "Waccha PriMagi!",
      "rating": 7.04,
      "classificacao_etaria": null,
      "imagem_original": "https://animefire.plus/img/animes/waccha-primagi.webp",
      "imagem_pasta": "https://animefire.plus/img/animes/waccha-primagi/",
      "secao": "legendados,lancamentos",
      "pagina": 38,
      "total_episodios": 12,
      "link_video": "https://animefire.plus/video/waccha-primagi"
    },
    {
      "id": 4112,
      "nome": "Watari-kun no xx ga Houkai Sunzen",
      "link": "https://animefire.plus/animes/watari-kun-no-xx-ga-houkai-sunzen-todos-os-episodios",
      "texto_original": "Watari-kun no xx ga Houkai Sunzen",
      "rating": 6.38,
      "classificacao_etaria": "A14",
      "imagem_original": "https://animefire.plus/img/animes/watari-kun-no-xx-ga-houkai-sunzen.webp",
      "imagem_pasta": "https://animefire.plus/img/animes/watari-kun-no-xx-ga-houkai-sunzen/",
      "secao": "legendados,lancamentos",
      "pagina": 2,
      "total_episodios": 5,
      "link_video": "https://animefire.plus/video/watari-kun-no-xx-ga-houkai-sunzen"
    },
    {
      "id": 4113,
      "nome": "Watashi ga Koibito ni Nareru Wake Nai jan, Muri Muri! (※Muri ja Nakatta!?)",
      "link": "https://animefire.plus/animes/watashi-ga-koibito-ni-nareru-wake-nai-jan-muri-muri-muri-ja-nakatta-todos-os-episodios",
      "texto_original": "Watashi ga Koibito ni Nareru Wake Nai jan, Muri Muri! (※Muri ja Nakatta!?)",
      "rating": 7.59,
      "classificacao_etaria": "A14",
      "imagem_original": "https://animefire.plus/img/animes/watashi-ga-koibito-ni-nareru-wake-nai-jan-muri-muri-muri-ja-nakatta.webp",
      "imagem_pasta": "https://animefire.plus/img/animes/watashi-ga-koibito-ni-nareru-wake-nai-jan-muri-muri-muri-ja-nakatta/",
      "secao": "legendados,lancamentos",
      "pagina": 3,
      "total_episodios": 0,
      "link_video": "https://animefire.plus/video/watashi-ga-koibito-ni-nareru-wake-nai-jan-muri-muri-muri-ja-nakatta"
    },
    {
      "id": 4121,
      "nome": "Watashi no Shiawase na Kekkon (Dublado)",
      "link": "https://animefire.plus/animes/watashi-no-shiawase-na-kekkon-dublado-todos-os-episodios",
      "texto_original": "Watashi no Shiawase na Kekkon (Dublado)",
      "rating": 7.71,
      "classificacao_etaria": "A14",
      "imagem_original": "https://animefire.plus/img/animes/watashi-no-shiawase-na-kekkon.webp",
      "imagem_pasta": "https://animefire.plus/img/animes/watashi-no-shiawase-na-kekkon/",
      "secao": "dublados,legendados,lancamentos",
      "pagina": 7,
      "total_episodios": 10,
      "link_video": "https://animefire.plus/video/watashi-no-shiawase-na-kekkon-dublado"
    },
    {
      "id": 4122,
      "nome": "Watashi no Shiawase na Kekkon 2nd Season (Dublado)",
      "link": "https://animefire.plus/animes/watashi-no-shiawase-na-kekkon-2nd-season-dublado-todos-os-episodios",
      "texto_original": "Watashi no Shiawase na Kekkon 2nd Season (Dublado)",
      "rating": 7.42,
      "classificacao_etaria": "A14",
      "imagem_original": "https://animefire.plus/img/animes/watashi-no-shiawase-na-kekkon-2nd-season.webp",
      "imagem_pasta": "https://animefire.plus/img/animes/watashi-no-shiawase-na-kekkon-2nd-season/",
      "secao": "dublados,legendados,lancamentos",
      "pagina": 2,
      "total_episodios": 13,
      "link_video": "https://animefire.plus/video/watashi-no-shiawase-na-kekkon-2nd-season-dublado"
    },
    {
      "id": 4132,
      "nome": "Wind Breaker (Dublado)",
      "link": "https://animefire.plus/animes/wind-breaker-dublado-todos-os-episodios",
      "texto_original": "Wind Breaker (Dublado)",
      "rating": 7.73,
      "classificacao_etaria": "A14",
      "imagem_original": "https://animefire.plus/img/animes/wind-breaker.webp",
      "imagem_pasta": "https://animefire.plus/img/animes/wind-breaker/",
      "secao": "dublados,legendados,lancamentos",
      "pagina": 2,
      "total_episodios": 13,
      "link_video": "https://animefire.plus/video/wind-breaker-dublado"
    },
    {
      "id": 4133,
      "nome": "Wind Breaker Season 2 (Dublado)",
      "link": "https://animefire.plus/animes/wind-breaker-season-2-dublado-todos-os-episodios",
      "texto_original": "Wind Breaker Season 2 (Dublado)",
      "rating": 7.65,
      "classificacao_etaria": "A14",
      "imagem_original": "https://animefire.plus/img/animes/wind-breaker-season-2.webp",
      "imagem_pasta": "https://animefire.plus/img/animes/wind-breaker-season-2/",
      "secao": "dublados,legendados,lancamentos",
      "pagina": 1,
      "total_episodios": 12,
      "link_video": "https://animefire.plus/video/wind-breaker-season-2-dublado"
    }
  ],
  "pagination": {
    "current_page": 13,
    "per_page": 20,
    "total_items": 285,
    "total_pages": 15,
    "has_next": true,
    "has_prev": true
  }
}
