{
  "message": "Animes da seção: lancamentos",
  "section": "lancamentos",
  "data": [
    {
      "id": 740,
      "nome": "Dandadan 2nd Season (Dublado)",
      "link": "https://animefire.plus/animes/dandadan-2nd-season-dublado-todos-os-episodios",
      "texto_original": "Dandadan 2nd Season (Dublado)",
      "rating": 8.49,
      "classificacao_etaria": "A16",
      "imagem_original": "https://animefire.plus/img/animes/dandadan-2nd-season.webp",
      "imagem_pasta": "https://animefire.plus/img/animes/dandadan-2nd-season/",
      "secao": "dublados,legendados,lancamentos",
      "pagina": 1,
      "total_episodios": 5,
      "link_video": "https://animefire.plus/video/dandadan-2nd-season-dublado"
    },
    {
      "id": 760,
      "nome": "Date A Live IV",
      "link": "https://animefire.plus/animes/date-a-live-iv-todos-os-episodios",
      "texto_original": "Date A Live IV",
      "rating": 7.74,
      "classificacao_etaria": "A16",
      "imagem_original": "https://animefire.plus/img/animes/date-a-live-iv.webp",
      "imagem_pasta": "https://animefire.plus/img/animes/date-a-live-iv/",
      "secao": "legendados,lancamentos",
      "pagina": 39,
      "total_episodios": 5,
      "link_video": "https://animefire.plus/video/date-a-live-iv"
    },
    {
      "id": 781,
      "nome": "Deji Meets Girl",
      "link": "https://animefire.plus/animes/deji-meets-girl-todos-os-episodios",
      "texto_original": "Deji Meets Girl",
      "rating": 6.17,
      "classificacao_etaria": "A14",
      "imagem_original": "https://animefire.plus/img/animes/deji-meets-girl.webp",
      "imagem_pasta": "https://animefire.plus/img/animes/deji-meets-girl/",
      "secao": "legendados,lancamentos",
      "pagina": 39,
      "total_episodios": 0,
      "link_video": "https://animefire.plus/video/deji-meets-girl"
    },
    {
      "id": 782,
      "nome": "Dekin no Mogura",
      "link": "https://animefire.plus/animes/dekin-no-mogura-todos-os-episodios",
      "texto_original": "Dekin no Mogura",
      "rating": 6.16,
      "classificacao_etaria": "A14",
      "imagem_original": "https://animefire.plus/img/animes/dekin-no-mogura.webp",
      "imagem_pasta": "https://animefire.plus/img/animes/dekin-no-mogura/",
      "secao": "legendados,lancamentos",
      "pagina": 2,
      "total_episodios": 5,
      "link_video": "https://animefire.plus/video/dekin-no-mogura"
    },
    {
      "id": 783,
      "nome": "Dekiru Neko wa Kyou mo Yuuutsu",
      "link": "https://animefire.plus/animes/dekiru-neko-wa-kyou-mo-yuuutsu-todos-os-episodios",
      "texto_original": "Dekiru Neko wa Kyou mo Yuuutsu",
      "rating": 7.64,
      "classificacao_etaria": "A14",
      "imagem_original": "https://animefire.plus/img/animes/dekiru-neko-wa-kyou-mo-yuuutsu.jpg",
      "imagem_pasta": "https://animefire.plus/img/animes/dekiru-neko-wa-kyou-mo-yuuutsu/",
      "secao": "legendados,lancamentos",
      "pagina": 22,
      "total_episodios": 10,
      "link_video": "https://animefire.plus/video/dekiru-neko-wa-kyou-mo-yuuutsu"
    },
    {
      "id": 785,
      "nome": "Dekoboko Majo no Oyako Jijou (Dublado)",
      "link": "https://animefire.plus/animes/dekoboko-majo-no-oyako-jijou-dublado-todos-os-episodios",
      "texto_original": "Dekoboko Majo no Oyako Jijou (Dublado)",
      "rating": 6.76,
      "classificacao_etaria": "A14",
      "imagem_original": "https://animefire.plus/img/animes/dekoboko-majo-no-oyako-jijou.webp",
      "imagem_pasta": "https://animefire.plus/img/animes/dekoboko-majo-no-oyako-jijou/",
      "secao": "dublados,legendados,lancamentos",
      "pagina": 5,
      "total_episodios": 12,
      "link_video": "https://animefire.plus/video/dekoboko-majo-no-oyako-jijou-dublado"
    },
    {
      "id": 816,
      "nome": "Digimon Adventure (2020)",
      "link": "https://animefire.plus/animes/digimon-adventure-2020-todos-os-episodios",
      "texto_original": "Digimon Adventure (2020)",
      "rating": 6.78,
      "classificacao_etaria": "A10",
      "imagem_original": "https://animefire.plus/img/animes/digimon-adventure-2020.webp",
      "imagem_pasta": "https://animefire.plus/img/animes/digimon-adventure-2020/",
      "secao": "legendados,lancamentos",
      "pagina": 81,
      "total_episodios": 0,
      "link_video": "https://animefire.plus/video/digimon-adventure-2020"
    },
    {
      "id": 820,
      "nome": "Digimon Adventure: 20 Shuunen Memorial Story",
      "link": "https://animefire.plus/animes/digimon-adventure-20-shuunen-memorial-story-todos-os-episodios",
      "texto_original": "Digimon Adventure: 20 Shuunen Memorial Story",
      "rating": 6.75,
      "classificacao_etaria": null,
      "imagem_original": "https://animefire.plus/img/animes/digimon-adventure-20-shuunen-memorial-story.webp",
      "imagem_pasta": "https://animefire.plus/img/animes/digimon-adventure-20-shuunen-memorial-story/",
      "secao": "legendados,lancamentos",
      "pagina": 91,
      "total_episodios": 0,
      "link_video": "https://animefire.plus/video/digimon-adventure-20-shuunen-memorial-story"
    },
    {
      "id": 853,
      "nome": "Dosanko Gal wa Namara Menkoi (Dublado)",
      "link": "https://animefire.plus/animes/dosanko-gal-wa-namara-menkoi-dublado-todos-os-episodios",
      "texto_original": "Dosanko Gal wa Namara Menkoi (Dublado)",
      "rating": 7.04,
      "classificacao_etaria": "A14",
      "imagem_original": "https://animefire.plus/img/animes/dosanko-gal-wa-namara-menkoi.webp",
      "imagem_pasta": "https://animefire.plus/img/animes/dosanko-gal-wa-namara-menkoi/",
      "secao": "dublados,legendados,lancamentos",
      "pagina": 3,
      "total_episodios": 12,
      "link_video": "https://animefire.plus/video/dosanko-gal-wa-namara-menkoi-dublado"
    },
    {
      "id": 871,
      "nome": "Dr. Stone: Science Future (Dublado)",
      "link": "https://animefire.plus/animes/dr-stone-science-future-dublado-todos-os-episodios",
      "texto_original": "Dr. Stone: Science Future (Dublado)",
      "rating": 8.24,
      "classificacao_etaria": "A14",
      "imagem_original": "https://animefire.plus/img/animes/dr-stone-science-future.webp",
      "imagem_pasta": "https://animefire.plus/img/animes/dr-stone-science-future/",
      "secao": "dublados,legendados,lancamentos",
      "pagina": 1,
      "total_episodios": 12,
      "link_video": "https://animefire.plus/video/dr-stone-science-future-dublado"
    },
    {
      "id": 872,
      "nome": "Dr. Stone: Science Future Part 2",
      "link": "https://animefire.plus/animes/dr-stone-science-future-part-2-todos-os-episodios",
      "texto_original": "Dr. Stone: Science Future Part 2",
      "rating": 8.22,
      "classificacao_etaria": "A14",
      "imagem_original": "https://animefire.plus/img/animes/dr-stone-science-future-part-2.webp",
      "imagem_pasta": "https://animefire.plus/img/animes/dr-stone-science-future-part-2/",
      "secao": "legendados,lancamentos",
      "pagina": 1,
      "total_episodios": 4,
      "link_video": "https://animefire.plus/video/dr-stone-science-future-part-2"
    },
    {
      "id": 877,
      "nome": "Dragon Ball Heroes (Dublado)",
      "link": "https://animefire.plus/animes/dragon-ball-heroes-dublado-todos-os-episodios",
      "texto_original": "Dragon Ball Heroes (Dublado)",
      "rating": 5.62,
      "classificacao_etaria": "A14",
      "imagem_original": "https://animefire.plus/img/animes/dragon-ball-heroes.webp",
      "imagem_pasta": "https://animefire.plus/img/animes/dragon-ball-heroes/",
      "secao": "dublados,legendados,lancamentos",
      "pagina": 26,
      "total_episodios": 16,
      "link_video": "https://animefire.plus/video/dragon-ball-heroes-dublado"
    },
    {
      "id": 898,
      "nome": "Dungeon Meshi (Dublado)",
      "link": "https://animefire.plus/animes/dungeon-meshi-dublado-todos-os-episodios",
      "texto_original": "Dungeon Meshi (Dublado)",
      "rating": 8.6,
      "classificacao_etaria": "A14",
      "imagem_original": "https://animefire.plus/img/animes/dungeon-meshi.webp",
      "imagem_pasta": "https://animefire.plus/img/animes/dungeon-meshi/",
      "secao": "dublados,legendados,lancamentos",
      "pagina": 3,
      "total_episodios": 24,
      "link_video": "https://animefire.plus/video/dungeon-meshi-dublado"
    },
    {
      "id": 928,
      "nome": "Eiyuu Kyoushitsu (Dublado)",
      "link": "https://animefire.plus/animes/eiyuu-kyoushitsu-dublado-todos-os-episodios",
      "texto_original": "Eiyuu Kyoushitsu (Dublado)",
      "rating": 6.05,
      "classificacao_etaria": "A14",
      "imagem_original": "https://animefire.plus/img/animes/eiyuu-kyoushitsu.webp",
      "imagem_pasta": "https://animefire.plus/img/animes/eiyuu-kyoushitsu/",
      "secao": "dublados,legendados,lancamentos",
      "pagina": 6,
      "total_episodios": 12,
      "link_video": "https://animefire.plus/video/eiyuu-kyoushitsu-dublado"
    },
    {
      "id": 948,
      "nome": "Enen no Shouboutai: San no Shou (Dublado)",
      "link": "https://animefire.plus/animes/enen-no-shouboutai-san-no-shou-dublado-todos-os-episodios",
      "texto_original": "Enen no Shouboutai: San no Shou (Dublado)",
      "rating": 7.71,
      "classificacao_etaria": "A14",
      "imagem_original": "https://animefire.plus/img/animes/enen-no-shouboutai-san-no-shou.webp",
      "imagem_pasta": "https://animefire.plus/img/animes/enen-no-shouboutai-san-no-shou/",
      "secao": "dublados,legendados,lancamentos",
      "pagina": 1,
      "total_episodios": 12,
      "link_video": "https://animefire.plus/video/enen-no-shouboutai-san-no-shou-dublado"
    },
    {
      "id": 957,
      "nome": "Eternal Boys",
      "link": "https://animefire.plus/animes/eternal-boys-todos-os-episodios",
      "texto_original": "Eternal Boys",
      "rating": 6.53,
      "classificacao_etaria": "A14",
      "imagem_original": "https://animefire.plus/img/animes/eternal-boys.webp",
      "imagem_pasta": "https://animefire.plus/img/animes/eternal-boys/",
      "secao": "legendados,lancamentos",
      "pagina": 28,
      "total_episodios": 6,
      "link_video": "https://animefire.plus/video/eternal-boys"
    },
    {
      "id": 961,
      "nome": "Everyday Host",
      "link": "https://animefire.plus/animes/everyday-host-todos-os-episodios",
      "texto_original": "Everyday Host",
      "rating": null,
      "classificacao_etaria": "A14",
      "imagem_original": "https://animefire.plus/img/animes/everyday-host.webp",
      "imagem_pasta": "https://animefire.plus/img/animes/everyday-host/",
      "secao": "legendados,lancamentos",
      "pagina": 4,
      "total_episodios": 0,
      "link_video": "https://animefire.plus/video/everyday-host"
    },
    {
      "id": 969,
      "nome": "Fairy Tail (Dublado)",
      "link": "https://animefire.plus/animes/fairy-tail-dublado-todos-os-episodios",
      "texto_original": "Fairy Tail (Dublado)",
      "rating": 7.64,
      "classificacao_etaria": "A14",
      "imagem_original": "https://animefire.plus/img/animes/fairy-tail.webp",
      "imagem_pasta": "https://animefire.plus/img/animes/fairy-tail/",
      "secao": "dublados,legendados,lancamentos",
      "pagina": 18,
      "total_episodios": 5,
      "link_video": "https://animefire.plus/video/fairy-tail-dublado"
    },
    {
      "id": 972,
      "nome": "Fairy Tail: 100 Years Quest",
      "link": "https://animefire.plus/animes/fairy-tail-100-years-quest-todos-os-episodios",
      "texto_original": "Fairy Tail: 100 Years Quest",
      "rating": 7.61,
      "classificacao_etaria": "A14",
      "imagem_original": "https://animefire.plus/img/animes/fairy-tail-100-years-quest.webp",
      "imagem_pasta": "https://animefire.plus/img/animes/fairy-tail-100-years-quest/",
      "secao": "legendados,lancamentos",
      "pagina": 13,
      "total_episodios": 0,
      "link_video": "https://animefire.plus/video/fairy-tail-100-years-quest"
    },
    {
      "id": 973,
      "nome": "Fairy Tail: 100-nen Quest",
      "link": "https://animefire.plus/animes/fairy-tail-100-nen-quest-todos-os-episodios",
      "texto_original": "Fairy Tail: 100-nen Quest",
      "rating": 7.61,
      "classificacao_etaria": "A14",
      "imagem_original": "https://animefire.plus/img/animes/fairy-tail-100-nen-quest.webp",
      "imagem_pasta": "https://animefire.plus/img/animes/fairy-tail-100-nen-quest/",
      "secao": "legendados,lancamentos",
      "pagina": 11,
      "total_episodios": 14,
      "link_video": "https://animefire.plus/video/fairy-tail-100-nen-quest"
    }
  ],
  "pagination": {
    "current_page": 3,
    "per_page": 20,
    "total_items": 285,
    "total_pages": 15,
    "has_next": true,
    "has_prev": true
  }
}
