{
  "message": "Animes da seção: lancamentos",
  "section": "lancamentos",
  "data": [
    {
      "id": 3225,
      "nome": "Sakamoto Days Part 2 (Dublado)",
      "link": "https://animefire.plus/animes/sakamoto-days-part-2-dublado-todos-os-episodios",
      "texto_original": "Sakamoto Days Part 2 (Dublado)",
      "rating": 7.88,
      "classificacao_etaria": "A16",
      "imagem_original": "https://animefire.plus/img/animes/sakamoto-days-part-2.webp",
      "imagem_pasta": "https://animefire.plus/img/animes/sakamoto-days-part-2/",
      "secao": "dublados,legendados,lancamentos",
      "pagina": 1,
      "total_episodios": 4,
      "link_video": "https://animefire.plus/video/sakamoto-days-part-2-dublado"
    },
    {
      "id": 3249,
      "nome": "Sand Land: The Series",
      "link": "https://animefire.plus/animes/sand-land-the-series-todos-os-episodios",
      "texto_original": "Sand Land: The Series",
      "rating": 7.56,
      "classificacao_etaria": "A14",
      "imagem_original": "https://animefire.plus/img/animes/sand-land-the-series.webp",
      "imagem_pasta": "https://animefire.plus/img/animes/sand-land-the-series/",
      "secao": "legendados,lancamentos",
      "pagina": 15,
      "total_episodios": 1,
      "link_video": "https://animefire.plus/video/sand-land-the-series"
    },
    {
      "id": 3285,
      "nome": "Seija Musou: Salaryman, Isekai de Ikinokoru Tame ni Ayumu Michi",
      "link": "https://animefire.plus/animes/the-great-cleric-todos-os-episodios",
      "texto_original": "Seija Musou: Salaryman, Isekai de Ikinokoru Tame ni Ayumu Michi",
      "rating": 7.11,
      "classificacao_etaria": "A14",
      "imagem_original": "https://animefire.plus/img/animes/the-great-cleric.webp",
      "imagem_pasta": "https://animefire.plus/img/animes/the-great-cleric/",
      "secao": "legendados,lancamentos",
      "pagina": 21,
      "total_episodios": 0,
      "link_video": "https://animefire.plus/video/the-great-cleric"
    },
    {
      "id": 3301,
      "nome": "Seirei Gensouki 2 (Dublado)",
      "link": "https://animefire.plus/animes/seirei-gensouki-2-dublado-todos-os-episodios",
      "texto_original": "Seirei Gensouki 2 (Dublado)",
      "rating": 6.87,
      "classificacao_etaria": "A14",
      "imagem_original": "https://animefire.plus/img/animes/seirei-gensouki-2.webp",
      "imagem_pasta": "https://animefire.plus/img/animes/seirei-gensouki-2/",
      "secao": "dublados,legendados,lancamentos",
      "pagina": 2,
      "total_episodios": 12,
      "link_video": "https://animefire.plus/video/seirei-gensouki-2-dublado"
    },
    {
      "id": 3309,
      "nome": "Seishun Buta Yarou wa Santa Claus no Yume wo Minai",
      "link": "https://animefire.plus/animes/seishun-buta-yarou-wa-santa-claus-no-yume-wo-minai-todos-os-episodios",
      "texto_original": "Seishun Buta Yarou wa Santa Claus no Yume wo Minai",
      "rating": 8.34,
      "classificacao_etaria": "A14",
      "imagem_original": "https://animefire.plus/img/animes/seishun-buta-yarou-wa-santa-claus-no-yume-wo-minai.webp",
      "imagem_pasta": "https://animefire.plus/img/animes/seishun-buta-yarou-wa-santa-claus-no-yume-wo-minai/",
      "secao": "legendados,lancamentos",
      "pagina": 3,
      "total_episodios": 5,
      "link_video": "https://animefire.plus/video/seishun-buta-yarou-wa-santa-claus-no-yume-wo-minai"
    },
    {
      "id": 3374,
      "nome": "Shadowverse (TV)",
      "link": "https://animefire.plus/animes/shadowverse-tv-todos-os-episodios",
      "texto_original": "Shadowverse (TV)",
      "rating": 5.1,
      "classificacao_etaria": "A14",
      "imagem_original": "https://animefire.plus/img/animes/shadowverse-tv.webp",
      "imagem_pasta": "https://animefire.plus/img/animes/shadowverse-tv/",
      "secao": "legendados,lancamentos",
      "pagina": 81,
      "total_episodios": 7,
      "link_video": "https://animefire.plus/video/shadowverse-tv"
    },
    {
      "id": 3375,
      "nome": "Shadowverse Flame",
      "link": "https://animefire.plus/animes/shadowverse-flame-todos-os-episodios",
      "texto_original": "Shadowverse Flame",
      "rating": 6.73,
      "classificacao_etaria": "A14",
      "imagem_original": "https://animefire.plus/img/animes/shadowverse-flame.webp",
      "imagem_pasta": "https://animefire.plus/img/animes/shadowverse-flame/",
      "secao": "legendados,lancamentos",
      "pagina": 34,
      "total_episodios": 98,
      "link_video": "https://animefire.plus/video/shadowverse-flame"
    },
    {
      "id": 3385,
      "nome": "Shaman King: Flowers (Dublado)",
      "link": "https://animefire.plus/animes/shaman-king-flowers-dublado-todos-os-episodios",
      "texto_original": "Shaman King: Flowers (Dublado)",
      "rating": 6.57,
      "classificacao_etaria": "A14",
      "imagem_original": "https://animefire.plus/img/animes/shaman-king-flowers.webp",
      "imagem_pasta": "https://animefire.plus/img/animes/shaman-king-flowers/",
      "secao": "dublados,legendados,lancamentos",
      "pagina": 3,
      "total_episodios": 12,
      "link_video": "https://animefire.plus/video/shaman-king-flowers-dublado"
    },
    {
      "id": 3388,
      "nome": "Shangri-La Frontier: Kusoge Hunter, Kamige ni Idoman to su 2nd Season (Dublado)",
      "link": "https://animefire.plus/animes/shangri-la-frontier-kusoge-hunter-kamige-ni-idoman-to-su-2nd-season-dublado-todos-os-episodios",
      "texto_original": "Shangri-La Frontier: Kusoge Hunter, Kamige ni Idoman to su 2nd Season (Dublado)",
      "rating": 8.27,
      "classificacao_etaria": "A14",
      "imagem_original": "https://animefire.plus/img/animes/shangri-la-frontier-kusoge-hunter-kamige-ni-idoman-to-su-2nd-season.webp",
      "imagem_pasta": "https://animefire.plus/img/animes/shangri-la-frontier-kusoge-hunter-kamige-ni-idoman-to-su-2nd-season/",
      "secao": "dublados,legendados,lancamentos",
      "pagina": 2,
      "total_episodios": 25,
      "link_video": "https://animefire.plus/video/shangri-la-frontier-kusoge-hunter-kamige-ni-idoman-to-su-2nd-season-dublado"
    },
    {
      "id": 3393,
      "nome": "Shi Cao Lao Long Bei Guan Yi E Long Zhi Ming 2nd Season",
      "link": "https://animefire.plus/animes/shi-cao-lao-long-bei-guan-yi-e-long-zhi-ming-2nd-season-todos-os-episodios",
      "texto_original": "Shi Cao Lao Long Bei Guan Yi E Long Zhi Ming 2nd Season",
      "rating": 6.79,
      "classificacao_etaria": "A14",
      "imagem_original": "https://animefire.plus/img/animes/shi-cao-lao-long-bei-guan-yi-e-long-zhi-ming-2nd-season.webp",
      "imagem_pasta": "https://animefire.plus/img/animes/shi-cao-lao-long-bei-guan-yi-e-long-zhi-ming-2nd-season/",
      "secao": "legendados,lancamentos",
      "pagina": 9,
      "total_episodios": 4,
      "link_video": "https://animefire.plus/video/shi-cao-lao-long-bei-guan-yi-e-long-zhi-ming-2nd-season"
    },
    {
      "id": 3395,
      "nome": "Shi Yi Chang An: Ming Yue Ji Shi You",
      "link": "https://animefire.plus/animes/shi-yi-chang-an-ming-yue-ji-shi-you-todos-os-episodios",
      "texto_original": "Shi Yi Chang An: Ming Yue Ji Shi You",
      "rating": null,
      "classificacao_etaria": "A14",
      "imagem_original": "https://animefire.plus/img/animes/shi-yi-chang-an-ming-yue-ji-shi-you.webp",
      "imagem_pasta": "https://animefire.plus/img/animes/shi-yi-chang-an-ming-yue-ji-shi-you/",
      "secao": "legendados,lancamentos",
      "pagina": 50,
      "total_episodios": 7,
      "link_video": "https://animefire.plus/video/shi-yi-chang-an-ming-yue-ji-shi-you"
    },
    {
      "id": 3396,
      "nome": "Shibuya♡Hachi Part 3",
      "link": "https://animefire.plus/animes/shibuya-hachi-part-3-todos-os-episodios",
      "texto_original": "Shibuya♡Hachi Part 3",
      "rating": null,
      "classificacao_etaria": null,
      "imagem_original": "https://animefire.plus/img/animes/shibuya-hachi-part-3.webp",
      "imagem_pasta": "https://animefire.plus/img/animes/shibuya-hachi-part-3/",
      "secao": "legendados,lancamentos",
      "pagina": 4,
      "total_episodios": 0,
      "link_video": "https://animefire.plus/video/shibuya-hachi-part-3"
    },
    {
      "id": 3409,
      "nome": "Shikanoko Nokonoko Koshitantan (Dublado)",
      "link": "https://animefire.plus/animes/shikanoko-nokonoko-koshitantan-dublado-todos-os-episodios",
      "texto_original": "Shikanoko Nokonoko Koshitantan (Dublado)",
      "rating": 6.98,
      "classificacao_etaria": "A14",
      "imagem_original": "https://animefire.plus/img/animes/shikanoko-nokonoko-koshitantan.webp",
      "imagem_pasta": "https://animefire.plus/img/animes/shikanoko-nokonoko-koshitantan/",
      "secao": "dublados,legendados,lancamentos",
      "pagina": 2,
      "total_episodios": 12,
      "link_video": "https://animefire.plus/video/shikanoko-nokonoko-koshitantan-dublado"
    },
    {
      "id": 3415,
      "nome": "Shin Chuuka Ichiban! 2nd Season",
      "link": "https://animefire.plus/animes/shin-chuuka-ichiban-2nd-season-todos-os-episodios",
      "texto_original": "Shin Chuuka Ichiban! 2nd Season",
      "rating": 6.68,
      "classificacao_etaria": "A14",
      "imagem_original": "https://animefire.plus/img/animes/shin-chuuka-ichiban-2nd-season.webp",
      "imagem_pasta": "https://animefire.plus/img/animes/shin-chuuka-ichiban-2nd-season/",
      "secao": "legendados,lancamentos",
      "pagina": 48,
      "total_episodios": 6,
      "link_video": "https://animefire.plus/video/shin-chuuka-ichiban-2nd-season"
    },
    {
      "id": 3422,
      "nome": "Shin no Nakama ja Nai to Yuusha no Party wo Oidasareta node, Henkyou de Slow Life suru Koto ni Shimashita (Dublado)",
      "link": "https://animefire.plus/animes/shin-no-nakama-ja-nai-to-yuusha-no-party-wo-oidasareta-node-henkyou-de-slow-life-suru-koto-ni-shimashita-dublado-todos-os-episodios",
      "texto_original": "Shin no Nakama ja Nai to Yuusha no Party wo Oidasareta node, Henkyou de Slow Life suru Koto ni Shimashita (Dublado)",
      "rating": 6.92,
      "classificacao_etaria": "A14",
      "imagem_original": "https://animefire.plus/img/animes/shin-no-nakama-ja-nai-to-yuusha-no-party-wo-oidasareta-node-henkyou-de-slow-life-suru-koto-ni-shimashita.webp",
      "imagem_pasta": "https://animefire.plus/img/animes/shin-no-nakama-ja-nai-to-yuusha-no-party-wo-oidasareta-node-henkyou-de-slow-life-suru-koto-ni-shimashita/",
      "secao": "dublados,lancamentos",
      "pagina": 14,
      "total_episodios": 4,
      "link_video": "https://animefire.plus/video/shin-no-nakama-ja-nai-to-yuusha-no-party-wo-oidasareta-node-henkyou-de-slow-life-suru-koto-ni-shimashita-dublado"
    },
    {
      "id": 3425,
      "nome": "Shin Samurai-den Yaiba",
      "link": "https://animefire.plus/animes/shin-samurai-den-yaiba-todos-os-episodios",
      "texto_original": "Shin Samurai-den Yaiba",
      "rating": 7.28,
      "classificacao_etaria": "A14",
      "imagem_original": "https://animefire.plus/img/animes/shin-samurai-den-yaiba.webp",
      "imagem_pasta": "https://animefire.plus/img/animes/shin-samurai-den-yaiba/",
      "secao": "legendados,lancamentos",
      "pagina": 5,
      "total_episodios": 16,
      "link_video": "https://animefire.plus/video/shin-samurai-den-yaiba"
    },
    {
      "id": 3434,
      "nome": "Shin Tennis no Oujisama: U-17 World Cup Semifinal",
      "link": "https://animefire.plus/animes/shin-tennis-no-oujisama-u-17-world-cup-semifinal-todos-os-episodios",
      "texto_original": "Shin Tennis no Oujisama: U-17 World Cup Semifinal",
      "rating": 6.66,
      "classificacao_etaria": "A14",
      "imagem_original": "https://animefire.plus/img/animes/shin-tennis-no-oujisama-u-17-world-cup-semifinal.webp",
      "imagem_pasta": "https://animefire.plus/img/animes/shin-tennis-no-oujisama-u-17-world-cup-semifinal/",
      "secao": "legendados,lancamentos",
      "pagina": 9,
      "total_episodios": 3,
      "link_video": "https://animefire.plus/video/shin-tennis-no-oujisama-u-17-world-cup-semifinal"
    },
    {
      "id": 3435,
      "nome": "Shin Yaranai ka",
      "link": "https://animefire.plus/animes/shin-yaranai-ka-todos-os-episodios",
      "texto_original": "Shin Yaranai ka",
      "rating": 5.29,
      "classificacao_etaria": "A14",
      "imagem_original": "https://animefire.plus/img/animes/shin-yaranai-ka.webp",
      "imagem_pasta": "https://animefire.plus/img/animes/shin-yaranai-ka/",
      "secao": "legendados,lancamentos",
      "pagina": 14,
      "total_episodios": 0,
      "link_video": "https://animefire.plus/video/shin-yaranai-ka"
    },
    {
      "id": 3484,
      "nome": "Shiunji-ke no Kodomotachi (Dublado)",
      "link": "https://animefire.plus/animes/shiunji-ke-no-kodomotachi-dublado-todos-os-episodios",
      "texto_original": "Shiunji-ke no Kodomotachi (Dublado)",
      "rating": 7.1,
      "classificacao_etaria": "A14",
      "imagem_original": "https://animefire.plus/img/animes/shiunji-ke-no-kodomotachi.webp",
      "imagem_pasta": "https://animefire.plus/img/animes/shiunji-ke-no-kodomotachi/",
      "secao": "dublados,legendados,lancamentos",
      "pagina": 1,
      "total_episodios": 12,
      "link_video": "https://animefire.plus/video/shiunji-ke-no-kodomotachi-dublado"
    },
    {
      "id": 3512,
      "nome": "Shouxi Yu Ling Shi",
      "link": "https://animefire.plus/animes/shouxi-yu-ling-shi-todos-os-episodios",
      "texto_original": "Shouxi Yu Ling Shi",
      "rating": 6.52,
      "classificacao_etaria": "A14",
      "imagem_original": "https://animefire.plus/img/animes/shouxi-yu-ling-shi.webp",
      "imagem_pasta": "https://animefire.plus/img/animes/shouxi-yu-ling-shi/",
      "secao": "legendados,lancamentos",
      "pagina": 58,
      "total_episodios": 8,
      "link_video": "https://animefire.plus/video/shouxi-yu-ling-shi"
    }
  ],
  "pagination": {
    "current_page": 11,
    "per_page": 20,
    "total_items": 285,
    "total_pages": 15,
    "has_next": true,
    "has_prev": true
  }
}
