{
  "message": "Animes da seção: lancamentos",
  "section": "lancamentos",
  "data": [
    {
      "id": 2165,
      "nome": "Kusuriya no Hitorigoto (Dublado)",
      "link": "https://animefire.plus/animes/kusuriya-no-hitorigoto-dublado-todos-os-episodios",
      "texto_original": "Kusuriya no Hitorigoto (Dublado)",
      "rating": 8.87,
      "classificacao_etaria": "A14",
      "imagem_original": "https://animefire.plus/img/animes/kusuriya-no-hitorigoto.webp",
      "imagem_pasta": "https://animefire.plus/img/animes/kusuriya-no-hitorigoto/",
      "secao": "dublados,legendados,lancamentos",
      "pagina": 3,
      "total_episodios": 24,
      "link_video": "https://animefire.plus/video/kusuriya-no-hitorigoto-dublado"
    },
    {
      "id": 2187,
      "nome": "Kyoukai Senki: Kyokkou no Souki",
      "link": "https://animefire.plus/animes/kyoukai-senki-kyokkou-no-souki-todos-os-episodios",
      "texto_original": "Kyoukai Senki: Kyokkou no Souki",
      "rating": 5.72,
      "classificacao_etaria": "A14",
      "imagem_original": "https://animefire.plus/img/animes/kyoukai-senki-kyokkou-no-souki.webp",
      "imagem_pasta": "https://animefire.plus/img/animes/kyoukai-senki-kyokkou-no-souki/",
      "secao": "legendados,lancamentos",
      "pagina": 21,
      "total_episodios": 2,
      "link_video": "https://animefire.plus/video/kyoukai-senki-kyokkou-no-souki"
    },
    {
      "id": 2209,
      "nome": "Lazarus (Dublado)",
      "link": "https://animefire.plus/animes/lazarus-dublado-todos-os-episodios",
      "texto_original": "Lazarus (Dublado)",
      "rating": 7.56,
      "classificacao_etaria": "A14",
      "imagem_original": "https://animefire.plus/img/animes/lazarus.webp",
      "imagem_pasta": "https://animefire.plus/img/animes/lazarus/",
      "secao": "dublados,legendados,lancamentos",
      "pagina": 1,
      "total_episodios": 13,
      "link_video": "https://animefire.plus/video/lazarus-dublado"
    },
    {
      "id": 2219,
      "nome": "Liar Liar",
      "link": "https://animefire.plus/animes/liar-liar-todos-os-episodios",
      "texto_original": "Liar Liar",
      "rating": 6.32,
      "classificacao_etaria": "A14",
      "imagem_original": "https://animefire.plus/img/animes/liar-liar.jpg",
      "imagem_pasta": "https://animefire.plus/img/animes/liar-liar/",
      "secao": "legendados,lancamentos",
      "pagina": 23,
      "total_episodios": 11,
      "link_video": "https://animefire.plus/video/liar-liar"
    },
    {
      "id": 2290,
      "nome": "Machikado Mazoku: 2-choume",
      "link": "https://animefire.plus/animes/machikado-mazoku-2-choume-todos-os-episodios",
      "texto_original": "Machikado Mazoku: 2-choume",
      "rating": 7.84,
      "classificacao_etaria": "A14",
      "imagem_original": "https://animefire.plus/img/animes/machikado-mazoku-2-choume.webp",
      "imagem_pasta": "https://animefire.plus/img/animes/machikado-mazoku-2-choume/",
      "secao": "legendados,lancamentos",
      "pagina": 34,
      "total_episodios": 4,
      "link_video": "https://animefire.plus/video/machikado-mazoku-2-choume"
    },
    {
      "id": 2316,
      "nome": "Magic Maker: Isekai Mahou no Tsukurikata (Dublado)",
      "link": "https://animefire.plus/animes/magic-maker-isekai-mahou-no-tsukurikata-dublado-todos-os-episodios",
      "texto_original": "Magic Maker: Isekai Mahou no Tsukurikata (Dublado)",
      "rating": 6.82,
      "classificacao_etaria": "A14",
      "imagem_original": "https://animefire.plus/img/animes/magic-maker-isekai-mahou-no-tsukurikata.webp",
      "imagem_pasta": "https://animefire.plus/img/animes/magic-maker-isekai-mahou-no-tsukurikata/",
      "secao": "dublados,legendados,lancamentos",
      "pagina": 2,
      "total_episodios": 12,
      "link_video": "https://animefire.plus/video/magic-maker-isekai-mahou-no-tsukurikata-dublado"
    },
    {
      "id": 2359,
      "nome": "Mahoutsukai Precure!! Mirai Days",
      "link": "https://animefire.plus/animes/mahoutsukai-precure-mirai-days-todos-os-episodios",
      "texto_original": "Mahoutsukai Precure!! Mirai Days",
      "rating": 7.17,
      "classificacao_etaria": null,
      "imagem_original": "https://animefire.plus/img/animes/mahoutsukai-precure-mirai-days.webp",
      "imagem_pasta": "https://animefire.plus/img/animes/mahoutsukai-precure-mirai-days/",
      "secao": "legendados,lancamentos",
      "pagina": 7,
      "total_episodios": 10,
      "link_video": "https://animefire.plus/video/mahoutsukai-precure-mirai-days"
    },
    {
      "id": 2390,
      "nome": "Majutsushi Orphen Hagure Tabi",
      "link": "https://animefire.plus/animes/majutsushi-orphen-hagure-tabi-todos-os-episodios",
      "texto_original": "Majutsushi Orphen Hagure Tabi",
      "rating": 5.78,
      "classificacao_etaria": "A14",
      "imagem_original": "https://animefire.plus/img/animes/majutsushi-orphen-hagure-tabi.webp",
      "imagem_pasta": "https://animefire.plus/img/animes/majutsushi-orphen-hagure-tabi/",
      "secao": "legendados,lancamentos",
      "pagina": 93,
      "total_episodios": 0,
      "link_video": "https://animefire.plus/video/majutsushi-orphen-hagure-tabi"
    },
    {
      "id": 2393,
      "nome": "Majutsushi Orphen Hagure Tabi: Urbanrama-hen",
      "link": "https://animefire.plus/animes/majutsushi-orphen-hagure-tabi-urbanrama-hen-todos-os-episodios",
      "texto_original": "Majutsushi Orphen Hagure Tabi: Urbanrama-hen",
      "rating": 6.15,
      "classificacao_etaria": "A14",
      "imagem_original": "https://animefire.plus/img/animes/majutsushi-orphen-hagure-tabi-urbanrama-hen.webp",
      "imagem_pasta": "https://animefire.plus/img/animes/majutsushi-orphen-hagure-tabi-urbanrama-hen/",
      "secao": "legendados,lancamentos",
      "pagina": 25,
      "total_episodios": 4,
      "link_video": "https://animefire.plus/video/majutsushi-orphen-hagure-tabi-urbanrama-hen"
    },
    {
      "id": 2410,
      "nome": "Maou Evelogia ni Mi wo Sasage yo",
      "link": "https://animefire.plus/animes/maou-evelogia-ni-mi-wo-sasage-yo-todos-os-episodios",
      "texto_original": "Maou Evelogia ni Mi wo Sasage yo",
      "rating": 5.98,
      "classificacao_etaria": "A18",
      "imagem_original": "https://animefire.plus/img/animes/maou-evelogia-ni-mi-wo-sasage-yo.webp",
      "imagem_pasta": "https://animefire.plus/img/animes/maou-evelogia-ni-mi-wo-sasage-yo/",
      "secao": "legendados,lancamentos",
      "pagina": 39,
      "total_episodios": 0,
      "link_video": "https://animefire.plus/video/maou-evelogia-ni-mi-wo-sasage-yo"
    },
    {
      "id": 2412,
      "nome": "Maou Gakuin no Futekigousha: Shijou Saikyou no Maou no Shiso, Tensei shite Shison-tachi no Gakkou e Kayou II",
      "link": "https://animefire.plus/animes/maou-gakuin-no-futekigousha-shijou-saikyou-no-maou-no-shiso-tensei-shite-shison-tachi-no-gakkou-e-kayou-ii-todos-os-episodios",
      "texto_original": "Maou Gakuin no Futekigousha: Shijou Saikyou no Maou no Shiso, Tensei shite Shison-tachi no Gakkou e Kayou II",
      "rating": 6.85,
      "classificacao_etaria": "A16",
      "imagem_original": "https://animefire.plus/img/animes/maou-gakuin-no-futekigousha-shijou-saikyou-no-maou-no-shiso-tensei-shite-shison-tachi-no-gakkou-e-kayou-ii.webp",
      "imagem_pasta": "https://animefire.plus/img/animes/maou-gakuin-no-futekigousha-shijou-saikyou-no-maou-no-shiso-tensei-shite-shison-tachi-no-gakkou-e-kayou-ii/",
      "secao": "legendados,lancamentos",
      "pagina": 27,
      "total_episodios": 9,
      "link_video": "https://animefire.plus/video/maou-gakuin-no-futekigousha-shijou-saikyou-no-maou-no-shiso-tensei-shite-shison-tachi-no-gakkou-e-kayou-ii"
    },
    {
      "id": 2413,
      "nome": "Maou Gakuin no Futekigousha: Shijou Saikyou no Maou no Shiso, Tensei shite Shison-tachi no Gakkou e Kayou II Part 2",
      "link": "https://animefire.plus/animes/maou-gakuin-no-futekigousha-shijou-saikyou-no-maou-no-shiso-tensei-shite-shison-tachi-no-gakkou-e-kayou-ii-part-2-todos-os-episodios",
      "texto_original": "Maou Gakuin no Futekigousha: Shijou Saikyou no Maou no Shiso, Tensei shite Shison-tachi no Gakkou e Kayou II Part 2",
      "rating": 6.46,
      "classificacao_etaria": "A16",
      "imagem_original": "https://animefire.plus/img/animes/maou-gakuin-no-futekigousha-shijou-saikyou-no-maou-no-shiso-tensei-shite-shison-tachi-no-gakkou-e-kayou-ii-part-2.webp",
      "imagem_pasta": "https://animefire.plus/img/animes/maou-gakuin-no-futekigousha-shijou-saikyou-no-maou-no-shiso-tensei-shite-shison-tachi-no-gakkou-e-kayou-ii-part-2/",
      "secao": "legendados,lancamentos",
      "pagina": 16,
      "total_episodios": 0,
      "link_video": "https://animefire.plus/video/maou-gakuin-no-futekigousha-shijou-saikyou-no-maou-no-shiso-tensei-shite-shison-tachi-no-gakkou-e-kayou-ii-part-2"
    },
    {
      "id": 2435,
      "nome": "Mashin Souzouden Wataru",
      "link": "https://animefire.plus/animes/mashin-souzouden-wataru-todos-os-episodios",
      "texto_original": "Mashin Souzouden Wataru",
      "rating": null,
      "classificacao_etaria": null,
      "imagem_original": "https://animefire.plus/img/animes/mashin-souzouden-wataru.webp",
      "imagem_pasta": "https://animefire.plus/img/animes/mashin-souzouden-wataru/",
      "secao": "legendados,lancamentos",
      "pagina": 6,
      "total_episodios": 0,
      "link_video": "https://animefire.plus/video/mashin-souzouden-wataru"
    },
    {
      "id": 2440,
      "nome": "Mashle: Shinkakusha Kouho Senbatsu Shiken-hen (Dublado)",
      "link": "https://animefire.plus/animes/mashle-shinkakusha-kouho-senbatsu-shiken-hen-dublado-todos-os-episodios",
      "texto_original": "Mashle: Shinkakusha Kouho Senbatsu Shiken-hen (Dublado)",
      "rating": 7.79,
      "classificacao_etaria": "A14",
      "imagem_original": "https://animefire.plus/img/animes/mashle-shinkakusha-kouho-senbatsu-shiken-hen.webp",
      "imagem_pasta": "https://animefire.plus/img/animes/mashle-shinkakusha-kouho-senbatsu-shiken-hen/",
      "secao": "dublados,lancamentos",
      "pagina": 3,
      "total_episodios": 8,
      "link_video": "https://animefire.plus/video/mashle-shinkakusha-kouho-senbatsu-shiken-hen-dublado"
    },
    {
      "id": 2446,
      "nome": "Masuda Kousuke Gekijou: Gag Manga Biyori Go",
      "link": "https://animefire.plus/animes/masuda-kousuke-gekijou-gag-manga-biyori-go-todos-os-episodios",
      "texto_original": "Masuda Kousuke Gekijou: Gag Manga Biyori Go",
      "rating": 6.08,
      "classificacao_etaria": "A14",
      "imagem_original": "https://animefire.plus/img/animes/masuda-kousuke-gekijou-gag-manga-biyori-go.webp",
      "imagem_pasta": "https://animefire.plus/img/animes/masuda-kousuke-gekijou-gag-manga-biyori-go/",
      "secao": "legendados,lancamentos",
      "pagina": 4,
      "total_episodios": 0,
      "link_video": "https://animefire.plus/video/masuda-kousuke-gekijou-gag-manga-biyori-go"
    },
    {
      "id": 2449,
      "nome": "Mattaku Saikin no Tantei to Kitara",
      "link": "https://animefire.plus/animes/mattaku-saikin-no-tantei-to-kitara-todos-os-episodios",
      "texto_original": "Mattaku Saikin no Tantei to Kitara",
      "rating": 7.13,
      "classificacao_etaria": "A14",
      "imagem_original": "https://animefire.plus/img/animes/mattaku-saikin-no-tantei-to-kitara.webp",
      "imagem_pasta": "https://animefire.plus/img/animes/mattaku-saikin-no-tantei-to-kitara/",
      "secao": "legendados,lancamentos",
      "pagina": 2,
      "total_episodios": 5,
      "link_video": "https://animefire.plus/video/mattaku-saikin-no-tantei-to-kitara"
    },
    {
      "id": 2480,
      "nome": "Meng Qi Shi Shen: Huanxi Zhui Hun",
      "link": "https://animefire.plus/animes/meng-qi-shi-shen-huanxi-zhui-hun-todos-os-episodios",
      "texto_original": "Meng Qi Shi Shen: Huanxi Zhui Hun",
      "rating": 7.49,
      "classificacao_etaria": "A14",
      "imagem_original": "https://animefire.plus/img/animes/meng-qi-shi-shen-huanxi-zhui-hun.webp",
      "imagem_pasta": "https://animefire.plus/img/animes/meng-qi-shi-shen-huanxi-zhui-hun/",
      "secao": "legendados,lancamentos",
      "pagina": 30,
      "total_episodios": 11,
      "link_video": "https://animefire.plus/video/meng-qi-shi-shen-huanxi-zhui-hun"
    },
    {
      "id": 2484,
      "nome": "Mewkledreamy",
      "link": "https://animefire.plus/animes/mewkledreamy-todos-os-episodios",
      "texto_original": "Mewkledreamy",
      "rating": 6.5,
      "classificacao_etaria": null,
      "imagem_original": "https://animefire.plus/img/animes/mewkledreamy.webp",
      "imagem_pasta": "https://animefire.plus/img/animes/mewkledreamy/",
      "secao": "legendados,lancamentos",
      "pagina": 80,
      "total_episodios": 0,
      "link_video": "https://animefire.plus/video/mewkledreamy"
    },
    {
      "id": 2498,
      "nome": "Mikadono Sanshimai wa Angai, Choroi.",
      "link": "https://animefire.plus/animes/mikadono-sanshimai-wa-angai-choroi-todos-os-episodios",
      "texto_original": "Mikadono Sanshimai wa Angai, Choroi.",
      "rating": 7.58,
      "classificacao_etaria": "A14",
      "imagem_original": "https://animefire.plus/img/animes/mikadono-sanshimai-wa-angai-choroi.webp",
      "imagem_pasta": "https://animefire.plus/img/animes/mikadono-sanshimai-wa-angai-choroi/",
      "secao": "legendados,lancamentos",
      "pagina": 2,
      "total_episodios": 5,
      "link_video": "https://animefire.plus/video/mikadono-sanshimai-wa-angai-choroi"
    },
    {
      "id": 2524,
      "nome": "Miru: Watashi no Mirai",
      "link": "https://animefire.plus/animes/miru-watashi-no-mirai-todos-os-episodios",
      "texto_original": "Miru: Watashi no Mirai",
      "rating": 5.2,
      "classificacao_etaria": "A14",
      "imagem_original": "https://animefire.plus/img/animes/miru-watashi-no-mirai.webp",
      "imagem_pasta": "https://animefire.plus/img/animes/miru-watashi-no-mirai/",
      "secao": "legendados,lancamentos",
      "pagina": 4,
      "total_episodios": 0,
      "link_video": "https://animefire.plus/video/miru-watashi-no-mirai"
    }
  ],
  "pagination": {
    "current_page": 8,
    "per_page": 20,
    "total_items": 285,
    "total_pages": 15,
    "has_next": true,
    "has_prev": true
  }
}
