{
  "message": "Animes da seção: lancamentos",
  "section": "lancamentos",
  "data": [
    {
      "id": 3534,
      "nome": "Silent Witch: Chinmoku no Majo no Kakushigoto",
      "link": "https://animefire.plus/animes/silent-witch-chinmoku-no-majo-no-kakushigoto-todos-os-episodios",
      "texto_original": "Silent Witch: Chinmoku no Majo no Kakushigoto",
      "rating": 7.98,
      "classificacao_etaria": "A14",
      "imagem_original": "https://animefire.plus/img/animes/silent-witch-chinmoku-no-majo-no-kakushigoto.webp",
      "imagem_pasta": "https://animefire.plus/img/animes/silent-witch-chinmoku-no-majo-no-kakushigoto/",
      "secao": "legendados,lancamentos",
      "pagina": 3,
      "total_episodios": 5,
      "link_video": "https://animefire.plus/video/silent-witch-chinmoku-no-majo-no-kakushigoto"
    },
    {
      "id": 3571,
      "nome": "Sono Bisque Doll wa Koi wo Suru Season 2",
      "link": "https://animefire.plus/animes/sono-bisque-doll-wa-koi-wo-suru-season-2-todos-os-episodios",
      "texto_original": "Sono Bisque Doll wa Koi wo Suru Season 2",
      "rating": 8.39,
      "classificacao_etaria": "A14",
      "imagem_original": "https://animefire.plus/img/animes/sono-bisque-doll-wa-koi-wo-suru-season-2.webp",
      "imagem_pasta": "https://animefire.plus/img/animes/sono-bisque-doll-wa-koi-wo-suru-season-2/",
      "secao": "legendados,lancamentos",
      "pagina": 3,
      "total_episodios": 5,
      "link_video": "https://animefire.plus/video/sono-bisque-doll-wa-koi-wo-suru-season-2"
    },
    {
      "id": 3614,
      "nome": "Spy Kyoushitsu 2nd Season",
      "link": "https://animefire.plus/animes/spy-kyoushitsu-2nd-season-todos-os-episodios",
      "texto_original": "Spy Kyoushitsu 2nd Season",
      "rating": 7.15,
      "classificacao_etaria": "A14",
      "imagem_original": "https://animefire.plus/img/animes/spy-kyoushitsu-2nd-season.webp",
      "imagem_pasta": "https://animefire.plus/img/animes/spy-kyoushitsu-2nd-season/",
      "secao": "legendados,lancamentos",
      "pagina": 22,
      "total_episodios": 11,
      "link_video": "https://animefire.plus/video/spy-kyoushitsu-2nd-season"
    },
    {
      "id": 3646,
      "nome": "Strike the Blood Final",
      "link": "https://animefire.plus/animes/strike-the-blood-final-todos-os-episodios",
      "texto_original": "Strike the Blood Final",
      "rating": 6.89,
      "classificacao_etaria": "A18",
      "imagem_original": "https://animefire.plus/img/animes/strike-the-blood-final.webp",
      "imagem_pasta": "https://animefire.plus/img/animes/strike-the-blood-final/",
      "secao": "legendados,lancamentos",
      "pagina": 35,
      "total_episodios": 0,
      "link_video": "https://animefire.plus/video/strike-the-blood-final"
    },
    {
      "id": 3671,
      "nome": "Summer Pockets",
      "link": "https://animefire.plus/animes/summer-pockets-todos-os-episodios",
      "texto_original": "Summer Pockets",
      "rating": 7.29,
      "classificacao_etaria": "A14",
      "imagem_original": "https://animefire.plus/img/animes/summer-pockets.webp",
      "imagem_pasta": "https://animefire.plus/img/animes/summer-pockets/",
      "secao": "legendados,lancamentos",
      "pagina": 5,
      "total_episodios": 17,
      "link_video": "https://animefire.plus/video/summer-pockets"
    },
    {
      "id": 3672,
      "nome": "Summertime Render (Dublado)",
      "link": "https://animefire.plus/animes/summertime-render-dublado-todos-os-episodios",
      "texto_original": "Summertime Render (Dublado)",
      "rating": 8.47,
      "classificacao_etaria": "A16",
      "imagem_original": "https://animefire.plus/img/animes/summertime-render.webp",
      "imagem_pasta": "https://animefire.plus/img/animes/summertime-render/",
      "secao": "dublados,legendados,lancamentos",
      "pagina": 10,
      "total_episodios": 25,
      "link_video": "https://animefire.plus/video/summertime-render-dublado"
    },
    {
      "id": 3702,
      "nome": "Synduality: Noir",
      "link": "https://animefire.plus/animes/synduality-noir-todos-os-episodios",
      "texto_original": "Synduality: Noir",
      "rating": 6.81,
      "classificacao_etaria": "A14",
      "imagem_original": "https://animefire.plus/img/animes/synduality-noir.webp",
      "imagem_pasta": "https://animefire.plus/img/animes/synduality-noir/",
      "secao": "legendados,lancamentos",
      "pagina": 22,
      "total_episodios": 11,
      "link_video": "https://animefire.plus/video/synduality-noir"
    },
    {
      "id": 3720,
      "nome": "Takopii no Genzai",
      "link": "https://animefire.plus/animes/takopii-no-genzai-todos-os-episodios",
      "texto_original": "Takopii no Genzai",
      "rating": 8.99,
      "classificacao_etaria": "A14",
      "imagem_original": "https://animefire.plus/img/animes/takopii-no-genzai.webp",
      "imagem_pasta": "https://animefire.plus/img/animes/takopii-no-genzai/",
      "secao": "legendados,lancamentos",
      "pagina": 1,
      "total_episodios": 6,
      "link_video": "https://animefire.plus/video/takopii-no-genzai"
    },
    {
      "id": 3760,
      "nome": "Tate no Yuusha no Nariagari Season 4 (Dublado)",
      "link": "https://animefire.plus/animes/tate-no-yuusha-no-nariagari-season-4-dublado-todos-os-episodios",
      "texto_original": "Tate no Yuusha no Nariagari Season 4 (Dublado)",
      "rating": 7.34,
      "classificacao_etaria": "A14",
      "imagem_original": "https://animefire.plus/img/animes/tate-no-yuusha-no-nariagari-season-4.webp",
      "imagem_pasta": "https://animefire.plus/img/animes/tate-no-yuusha-no-nariagari-season-4/",
      "secao": "dublados,legendados,lancamentos",
      "pagina": 1,
      "total_episodios": 4,
      "link_video": "https://animefire.plus/video/tate-no-yuusha-no-nariagari-season-4-dublado"
    },
    {
      "id": 3772,
      "nome": "Temple",
      "link": "https://animefire.plus/animes/temple-todos-os-episodios",
      "texto_original": "Temple",
      "rating": 6.7,
      "classificacao_etaria": "A14",
      "imagem_original": "https://animefire.plus/img/animes/temple.jpg",
      "imagem_pasta": "https://animefire.plus/img/animes/temple/",
      "secao": "legendados,lancamentos",
      "pagina": 22,
      "total_episodios": 10,
      "link_video": "https://animefire.plus/video/temple"
    },
    {
      "id": 3798,
      "nome": "Tensei shitara Dainana Ouji Datta node, Kimama ni Majutsu wo Kiwamemasu 2nd Season",
      "link": "https://animefire.plus/animes/tensei-shitara-dainana-ouji-datta-node-kimama-ni-majutsu-wo-kiwamemasu-2nd-season-todos-os-episodios",
      "texto_original": "Tensei shitara Dainana Ouji Datta node, Kimama ni Majutsu wo Kiwamemasu 2nd Season",
      "rating": 7.63,
      "classificacao_etaria": "A14",
      "imagem_original": "https://animefire.plus/img/animes/tensei-shitara-dainana-ouji-datta-node-kimama-ni-majutsu-wo-kiwamemasu-2nd-season.webp",
      "imagem_pasta": "https://animefire.plus/img/animes/tensei-shitara-dainana-ouji-datta-node-kimama-ni-majutsu-wo-kiwamemasu-2nd-season/",
      "secao": "legendados,lancamentos",
      "pagina": 3,
      "total_episodios": 4,
      "link_video": "https://animefire.plus/video/tensei-shitara-dainana-ouji-datta-node-kimama-ni-majutsu-wo-kiwamemasu-2nd-season"
    },
    {
      "id": 3801,
      "nome": "Tensei shitara Slime Datta Ken 2nd Season (Dublado)",
      "link": "https://animefire.plus/animes/tensei-shitara-slime-datta-ken-2nd-season-dublado-todos-os-episodios",
      "texto_original": "Tensei shitara Slime Datta Ken 2nd Season (Dublado)",
      "rating": 8.35,
      "classificacao_etaria": "A14",
      "imagem_original": "https://animefire.plus/img/animes/tensei-shitara-slime-datta-ken-2nd-season.webp",
      "imagem_pasta": "https://animefire.plus/img/animes/tensei-shitara-slime-datta-ken-2nd-season/",
      "secao": "dublados,legendados,lancamentos",
      "pagina": 12,
      "total_episodios": 12,
      "link_video": "https://animefire.plus/video/tensei-shitara-slime-datta-ken-2nd-season-dublado"
    },
    {
      "id": 3805,
      "nome": "Tensei shitara Slime Datta Ken: Coleus no Yume (Dublado)",
      "link": "https://animefire.plus/animes/tensei-shitara-slime-datta-ken-coleus-no-yume-dublado-todos-os-episodios",
      "texto_original": "Tensei shitara Slime Datta Ken: Coleus no Yume (Dublado)",
      "rating": 7.58,
      "classificacao_etaria": "A14",
      "imagem_original": "https://animefire.plus/img/animes/tensei-shitara-slime-datta-ken-coleus-no-yume.webp",
      "imagem_pasta": "https://animefire.plus/img/animes/tensei-shitara-slime-datta-ken-coleus-no-yume/",
      "secao": "dublados,legendados,lancamentos",
      "pagina": 4,
      "total_episodios": 3,
      "link_video": "https://animefire.plus/video/tensei-shitara-slime-datta-ken-coleus-no-yume-dublado"
    },
    {
      "id": 3815,
      "nome": "Teppen!!!!!!!!!!!!!!!",
      "link": "https://animefire.plus/animes/teppen-laughing-039-til-you-cry-todos-os-episodios",
      "texto_original": "Teppen!!!!!!!!!!!!!!!",
      "rating": 6.61,
      "classificacao_etaria": "A14",
      "imagem_original": "https://animefire.plus/img/animes/teppen-laughing-039-til-you-cry.webp",
      "imagem_pasta": "https://animefire.plus/img/animes/teppen-laughing-039-til-you-cry/",
      "secao": "legendados,lancamentos",
      "pagina": 32,
      "total_episodios": 2,
      "link_video": "https://animefire.plus/video/teppen-laughing-039-til-you-cry"
    },
    {
      "id": 3838,
      "nome": "The Legend of Heroes: Sen no Kiseki - Northern War",
      "link": "https://animefire.plus/animes/the-legend-of-heroes-sen-no-kiseki---northern-war-todos-os-episodios",
      "texto_original": "The Legend of Heroes: Sen no Kiseki - Northern War",
      "rating": 5.63,
      "classificacao_etaria": "A14",
      "imagem_original": "https://animefire.plus/img/animes/the-legend-of-heroes-sen-no-kiseki---northern-war.webp",
      "imagem_pasta": "https://animefire.plus/img/animes/the-legend-of-heroes-sen-no-kiseki---northern-war/",
      "secao": "legendados,lancamentos",
      "pagina": 27,
      "total_episodios": 8,
      "link_video": "https://animefire.plus/video/the-legend-of-heroes-sen-no-kiseki---northern-war"
    },
    {
      "id": 3840,
      "nome": "The New Gate (Dublado)",
      "link": "https://animefire.plus/animes/the-new-gate-dublado-todos-os-episodios",
      "texto_original": "The New Gate (Dublado)",
      "rating": 6.45,
      "classificacao_etaria": "A14",
      "imagem_original": "https://animefire.plus/img/animes/the-new-gate.webp",
      "imagem_pasta": "https://animefire.plus/img/animes/the-new-gate/",
      "secao": "dublados,legendados,lancamentos",
      "pagina": 2,
      "total_episodios": 12,
      "link_video": "https://animefire.plus/video/the-new-gate-dublado"
    },
    {
      "id": 3847,
      "nome": "Tiger & Bunny 2 (Dublado)",
      "link": "https://animefire.plus/animes/tiger-bunny-2-dublado-todos-os-episodios",
      "texto_original": "Tiger & Bunny 2 (Dublado)",
      "rating": 7.42,
      "classificacao_etaria": "A14",
      "imagem_original": "https://animefire.plus/img/animes/tiger-bunny-2.webp",
      "imagem_pasta": "https://animefire.plus/img/animes/tiger-bunny-2/",
      "secao": "dublados,legendados,lancamentos",
      "pagina": 11,
      "total_episodios": 13,
      "link_video": "https://animefire.plus/video/tiger-bunny-2-dublado"
    },
    {
      "id": 3895,
      "nome": "Tokyo Revengers: Seiya Kessen-hen (Dublado)",
      "link": "https://animefire.plus/animes/tokyo-revengers-seiya-kessen-hen-dublado-todos-os-episodios",
      "texto_original": "Tokyo Revengers: Seiya Kessen-hen (Dublado)",
      "rating": 7.63,
      "classificacao_etaria": "A16",
      "imagem_original": "https://animefire.plus/img/animes/tokyo-revengers-seiya-kessen-hen.webp",
      "imagem_pasta": "https://animefire.plus/img/animes/tokyo-revengers-seiya-kessen-hen/",
      "secao": "dublados,legendados,lancamentos",
      "pagina": 7,
      "total_episodios": 12,
      "link_video": "https://animefire.plus/video/tokyo-revengers-seiya-kessen-hen-dublado"
    },
    {
      "id": 3911,
      "nome": "Tonikaku Kawaii (Dublado)",
      "link": "https://animefire.plus/animes/tonikaku-kawaii-dublado-todos-os-episodios",
      "texto_original": "Tonikaku Kawaii (Dublado)",
      "rating": 7.96,
      "classificacao_etaria": "A14",
      "imagem_original": "https://animefire.plus/img/animes/tonikaku-kawaii.webp",
      "imagem_pasta": "https://animefire.plus/img/animes/tonikaku-kawaii/",
      "secao": "dublados,legendados,lancamentos",
      "pagina": 19,
      "total_episodios": 11,
      "link_video": "https://animefire.plus/video/tonikaku-kawaii-dublado"
    },
    {
      "id": 3924,
      "nome": "Tougen Anki (Dublado)",
      "link": "https://animefire.plus/animes/tougen-anki-dublado-todos-os-episodios",
      "texto_original": "Tougen Anki (Dublado)",
      "rating": 7.04,
      "classificacao_etaria": "A14",
      "imagem_original": "https://animefire.plus/img/animes/tougen-anki.webp",
      "imagem_pasta": "https://animefire.plus/img/animes/tougen-anki/",
      "secao": "dublados,legendados,lancamentos",
      "pagina": 1,
      "total_episodios": 4,
      "link_video": "https://animefire.plus/video/tougen-anki-dublado"
    }
  ],
  "pagination": {
    "current_page": 12,
    "per_page": 20,
    "total_items": 285,
    "total_pages": 15,
    "has_next": true,
    "has_prev": true
  }
}
