{
  "message": "Animes da seção: lancamentos",
  "section": "lancamentos",
  "data": [
    {
      "id": 1718,
      "nome": "Jidou Hanbaiki ni Umarekawatta Ore wa Meikyuu wo Samayou 2nd Season",
      "link": "https://animefire.plus/animes/jidou-hanbaiki-ni-umarekawatta-ore-wa-meikyuu-wo-samayou-2nd-season-todos-os-episodios",
      "texto_original": "Jidou Hanbaiki ni Umarekawatta Ore wa Meikyuu wo Samayou 2nd Season",
      "rating": 6.61,
      "classificacao_etaria": "A14",
      "imagem_original": "https://animefire.plus/img/animes/jidou-hanbaiki-ni-umarekawatta-ore-wa-meikyuu-wo-samayou-2nd-season.webp",
      "imagem_pasta": "https://animefire.plus/img/animes/jidou-hanbaiki-ni-umarekawatta-ore-wa-meikyuu-wo-samayou-2nd-season/",
      "secao": "legendados,lancamentos",
      "pagina": 1,
      "total_episodios": 5,
      "link_video": "https://animefire.plus/video/jidou-hanbaiki-ni-umarekawatta-ore-wa-meikyuu-wo-samayou-2nd-season"
    },
    {
      "id": 1722,
      "nome": "Jigoku Sensei Nube (2025)",
      "link": "https://animefire.plus/animes/jigoku-sensei-nube-2025-todos-os-episodios",
      "texto_original": "Jigoku Sensei Nube (2025)",
      "rating": 6.69,
      "classificacao_etaria": "A14",
      "imagem_original": "https://animefire.plus/img/animes/jigoku-sensei-nube-2025.webp",
      "imagem_pasta": "https://animefire.plus/img/animes/jigoku-sensei-nube-2025/",
      "secao": "legendados,lancamentos",
      "pagina": 2,
      "total_episodios": 2,
      "link_video": "https://animefire.plus/video/jigoku-sensei-nube-2025"
    },
    {
      "id": 1731,
      "nome": "Jimihen!!: Jimiko wo Kaechau Jun Isei Kouyuu!!",
      "link": "https://animefire.plus/animes/jimihen-jimiko-wo-kaechau-jun-isei-kouyuu-todos-os-episodios",
      "texto_original": "Jimihen!!: Jimiko wo Kaechau Jun Isei Kouyuu!!",
      "rating": 6.38,
      "classificacao_etaria": "A18",
      "imagem_original": "https://animefire.plus/img/animes/jimihen-jimiko-wo-kaechau-jun-isei-kouyuu.webp",
      "imagem_pasta": "https://animefire.plus/img/animes/jimihen-jimiko-wo-kaechau-jun-isei-kouyuu/",
      "secao": "legendados,lancamentos",
      "pagina": 50,
      "total_episodios": 0,
      "link_video": "https://animefire.plus/video/jimihen-jimiko-wo-kaechau-jun-isei-kouyuu"
    },
    {
      "id": 1744,
      "nome": "JoJo no Kimyou na Bouken Part 6: Stone Ocean (Dublado)",
      "link": "https://animefire.plus/animes/jojo-no-kimyou-na-bouken-part-6-stone-ocean-dublado-todos-os-episodios",
      "texto_original": "JoJo no Kimyou na Bouken Part 6: Stone Ocean (Dublado)",
      "rating": 8.08,
      "classificacao_etaria": "A16",
      "imagem_original": "https://animefire.plus/img/animes/jojo-no-kimyou-na-bouken-part-6-stone-ocean.webp",
      "imagem_pasta": "https://animefire.plus/img/animes/jojo-no-kimyou-na-bouken-part-6-stone-ocean/",
      "secao": "dublados,legendados,lancamentos",
      "pagina": 13,
      "total_episodios": 38,
      "link_video": "https://animefire.plus/video/jojo-no-kimyou-na-bouken-part-6-stone-ocean-dublado"
    },
    {
      "id": 1781,
      "nome": "Kaeru no Pickles: Kimochi no Iro",
      "link": "https://animefire.plus/animes/kaeru-no-pickles-kimochi-no-iro-todos-os-episodios",
      "texto_original": "Kaeru no Pickles: Kimochi no Iro",
      "rating": null,
      "classificacao_etaria": null,
      "imagem_original": "https://animefire.plus/img/animes/kaeru-no-pickles-kimochi-no-iro.webp",
      "imagem_pasta": "https://animefire.plus/img/animes/kaeru-no-pickles-kimochi-no-iro/",
      "secao": "legendados,lancamentos",
      "pagina": 50,
      "total_episodios": 1,
      "link_video": "https://animefire.plus/video/kaeru-no-pickles-kimochi-no-iro"
    },
    {
      "id": 1783,
      "nome": "Kage no Jitsuryokusha ni Naritakute! (Dublado)",
      "link": "https://animefire.plus/animes/kage-no-jitsuryokusha-ni-naritakute-dublado-todos-os-episodios",
      "texto_original": "Kage no Jitsuryokusha ni Naritakute! (Dublado)",
      "rating": 8.25,
      "classificacao_etaria": "A16",
      "imagem_original": "https://animefire.plus/img/animes/kage-no-jitsuryokusha-ni-naritakute.webp",
      "imagem_pasta": "https://animefire.plus/img/animes/kage-no-jitsuryokusha-ni-naritakute/",
      "secao": "dublados,legendados,lancamentos",
      "pagina": 8,
      "total_episodios": 20,
      "link_video": "https://animefire.plus/video/kage-no-jitsuryokusha-ni-naritakute-dublado"
    },
    {
      "id": 1784,
      "nome": "Kage no Jitsuryokusha ni Naritakute! 2nd Season (Dublado)",
      "link": "https://animefire.plus/animes/kage-no-jitsuryokusha-ni-naritakute-2nd-season-dublado-todos-os-episodios",
      "texto_original": "Kage no Jitsuryokusha ni Naritakute! 2nd Season (Dublado)",
      "rating": 8.28,
      "classificacao_etaria": "A16",
      "imagem_original": "https://animefire.plus/img/animes/kage-no-jitsuryokusha-ni-naritakute-2nd-season.webp",
      "imagem_pasta": "https://animefire.plus/img/animes/kage-no-jitsuryokusha-ni-naritakute-2nd-season/",
      "secao": "dublados,legendados,lancamentos",
      "pagina": 5,
      "total_episodios": 12,
      "link_video": "https://animefire.plus/video/kage-no-jitsuryokusha-ni-naritakute-2nd-season-dublado"
    },
    {
      "id": 1791,
      "nome": "Kaguya-sama wa Kokurasetai: First Kiss wa Owaranai",
      "link": "https://animefire.plus/animes/kaguya-sama-wa-kokurasetai-first-kiss-wa-owaranai-todos-os-episodios",
      "texto_original": "Kaguya-sama wa Kokurasetai: First Kiss wa Owaranai",
      "rating": 8.73,
      "classificacao_etaria": "A14",
      "imagem_original": "https://animefire.plus/img/animes/kaguya-sama-wa-kokurasetai-first-kiss-wa-owaranai.jpg",
      "imagem_pasta": "https://animefire.plus/img/animes/kaguya-sama-wa-kokurasetai-first-kiss-wa-owaranai/",
      "secao": "legendados,lancamentos",
      "pagina": 25,
      "total_episodios": 4,
      "link_video": "https://animefire.plus/video/kaguya-sama-wa-kokurasetai-first-kiss-wa-owaranai"
    },
    {
      "id": 1809,
      "nome": "Kaijuu 8-gou (Dublado)",
      "link": "https://animefire.plus/animes/kaijuu-8-gou-dublado-todos-os-episodios",
      "texto_original": "Kaijuu 8-gou (Dublado)",
      "rating": 8.27,
      "classificacao_etaria": "A14",
      "imagem_original": "https://animefire.plus/img/animes/kaijuu-8-gou.webp",
      "imagem_pasta": "https://animefire.plus/img/animes/kaijuu-8-gou/",
      "secao": "dublados,legendados,lancamentos",
      "pagina": 3,
      "total_episodios": 12,
      "link_video": "https://animefire.plus/video/kaijuu-8-gou-dublado"
    },
    {
      "id": 1810,
      "nome": "Kaijuu 8-gou 2nd Season (Dublado)",
      "link": "https://animefire.plus/animes/kaijuu-8-gou-2nd-season-dublado-todos-os-episodios",
      "texto_original": "Kaijuu 8-gou 2nd Season (Dublado)",
      "rating": 7.92,
      "classificacao_etaria": "A14",
      "imagem_original": "https://animefire.plus/img/animes/kaijuu-8-gou-2nd-season.webp",
      "imagem_pasta": "https://animefire.plus/img/animes/kaijuu-8-gou-2nd-season/",
      "secao": "dublados,legendados,lancamentos",
      "pagina": 1,
      "total_episodios": 3,
      "link_video": "https://animefire.plus/video/kaijuu-8-gou-2nd-season-dublado"
    },
    {
      "id": 1812,
      "nome": "Kaijuu Sekai Seifuku (TV)",
      "link": "https://animefire.plus/animes/kaijuu-sekai-seifuku-tv-todos-os-episodios",
      "texto_original": "Kaijuu Sekai Seifuku (TV)",
      "rating": null,
      "classificacao_etaria": null,
      "imagem_original": "https://animefire.plus/img/animes/kaijuu-sekai-seifuku-tv.webp",
      "imagem_pasta": "https://animefire.plus/img/animes/kaijuu-sekai-seifuku-tv/",
      "secao": "legendados,lancamentos",
      "pagina": 4,
      "total_episodios": 0,
      "link_video": "https://animefire.plus/video/kaijuu-sekai-seifuku-tv"
    },
    {
      "id": 1818,
      "nome": "Kakegurui Twin (Dublado)",
      "link": "https://animefire.plus/animes/kakegurui-twin-dublado-todos-os-episodios",
      "texto_original": "Kakegurui Twin (Dublado)",
      "rating": 7.18,
      "classificacao_etaria": "A14",
      "imagem_original": "https://animefire.plus/img/animes/kakegurui-twin.webp",
      "imagem_pasta": "https://animefire.plus/img/animes/kakegurui-twin/",
      "secao": "dublados,legendados,lancamentos",
      "pagina": 10,
      "total_episodios": 6,
      "link_video": "https://animefire.plus/video/kakegurui-twin-dublado"
    },
    {
      "id": 1822,
      "nome": "Kakkou no Iinazuke Season 2",
      "link": "https://animefire.plus/animes/kakkou-no-iinazuke-season-2-todos-os-episodios",
      "texto_original": "Kakkou no Iinazuke Season 2",
      "rating": 7.02,
      "classificacao_etaria": "A14",
      "imagem_original": "https://animefire.plus/img/animes/kakkou-no-iinazuke-season-2.webp",
      "imagem_pasta": "https://animefire.plus/img/animes/kakkou-no-iinazuke-season-2/",
      "secao": "legendados,lancamentos",
      "pagina": 3,
      "total_episodios": 4,
      "link_video": "https://animefire.plus/video/kakkou-no-iinazuke-season-2"
    },
    {
      "id": 1828,
      "nome": "Kakushite! Makina-san!!",
      "link": "https://animefire.plus/animes/kakushite-makina-san-todos-os-episodios",
      "texto_original": "Kakushite! Makina-san!!",
      "rating": 5.52,
      "classificacao_etaria": "A18",
      "imagem_original": "https://animefire.plus/img/animes/kakushite-makina-san.webp",
      "imagem_pasta": "https://animefire.plus/img/animes/kakushite-makina-san/",
      "secao": "legendados,lancamentos",
      "pagina": 5,
      "total_episodios": 5,
      "link_video": "https://animefire.plus/video/kakushite-makina-san"
    },
    {
      "id": 1836,
      "nome": "Kami no Tou: Ouji no Kikan (Dublado)",
      "link": "https://animefire.plus/animes/kami-no-tou-ouji-no-kikan-dublado-todos-os-episodios",
      "texto_original": "Kami no Tou: Ouji no Kikan (Dublado)",
      "rating": 6.68,
      "classificacao_etaria": "A14",
      "imagem_original": "https://animefire.plus/img/animes/kami-no-tou-ouji-no-kikan.webp",
      "imagem_pasta": "https://animefire.plus/img/animes/kami-no-tou-ouji-no-kikan/",
      "secao": "dublados,legendados,lancamentos",
      "pagina": 1,
      "total_episodios": 26,
      "link_video": "https://animefire.plus/video/kami-no-tou-ouji-no-kikan-dublado"
    },
    {
      "id": 1842,
      "nome": "Kami wa Game ni Ueteiru. (Dublado)",
      "link": "https://animefire.plus/animes/kami-wa-game-ni-ueteiru-dublado-todos-os-episodios",
      "texto_original": "Kami wa Game ni Ueteiru. (Dublado)",
      "rating": 6.26,
      "classificacao_etaria": "A14",
      "imagem_original": "https://animefire.plus/img/animes/kami-wa-game-ni-ueteiru.webp",
      "imagem_pasta": "https://animefire.plus/img/animes/kami-wa-game-ni-ueteiru/",
      "secao": "dublados,legendados,lancamentos",
      "pagina": 3,
      "total_episodios": 13,
      "link_video": "https://animefire.plus/video/kami-wa-game-ni-ueteiru-dublado"
    },
    {
      "id": 1862,
      "nome": "Kamitsubaki-shi Kensetsuchuu.",
      "link": "https://animefire.plus/animes/kamitsubaki-shi-kensetsuchuu-todos-os-episodios",
      "texto_original": "Kamitsubaki-shi Kensetsuchuu.",
      "rating": 5.5,
      "classificacao_etaria": "A14",
      "imagem_original": "https://animefire.plus/img/animes/kamitsubaki-shi-kensetsuchuu.webp",
      "imagem_pasta": "https://animefire.plus/img/animes/kamitsubaki-shi-kensetsuchuu/",
      "secao": "legendados,lancamentos",
      "pagina": 1,
      "total_episodios": 4,
      "link_video": "https://animefire.plus/video/kamitsubaki-shi-kensetsuchuu"
    },
    {
      "id": 1868,
      "nome": "Kanchigai no Atelier Meister: Eiyuu Party no Moto Zatsuyougakari ga, Jitsu wa Sentou Igai ga SSS Rank Datta to Iu Yoku Aru Hanashi (Dublado)",
      "link": "https://animefire.plus/animes/kanchigai-no-atelier-meister-eiyuu-party-no-moto-zatsuyougakari-ga-jitsu-wa-sentou-igai-ga-sss-rank-datta-to-iu-yoku-aru-hanashi-dublado-todos-os-episodios",
      "texto_original": "Kanchigai no Atelier Meister: Eiyuu Party no Moto Zatsuyougakari ga, Jitsu wa Sentou Igai ga SSS Rank Datta to Iu Yoku Aru Hanashi (Dublado)",
      "rating": 6.45,
      "classificacao_etaria": "A14",
      "imagem_original": "https://animefire.plus/img/animes/kanchigai-no-atelier-meister-eiyuu-party-no-moto-zatsuyougakari-ga-jitsu-wa-sentou-igai-ga-sss-rank-datta-to-iu-yoku-aru-hanashi.webp",
      "imagem_pasta": "https://animefire.plus/img/animes/kanchigai-no-atelier-meister-eiyuu-party-no-moto-zatsuyougakari-ga-jitsu-wa-sentou-igai-ga-sss-rank-datta-to-iu-yoku-aru-hanashi/",
      "secao": "dublados,legendados,lancamentos",
      "pagina": 1,
      "total_episodios": 12,
      "link_video": "https://animefire.plus/video/kanchigai-no-atelier-meister-eiyuu-party-no-moto-zatsuyougakari-ga-jitsu-wa-sentou-igai-ga-sss-rank-datta-to-iu-yoku-aru-hanashi-dublado"
    },
    {
      "id": 1869,
      "nome": "KanColle: Itsuka Ano Umi de",
      "link": "https://animefire.plus/animes/kancolle-itsuka-ano-umi-de-todos-os-episodios",
      "texto_original": "KanColle: Itsuka Ano Umi de",
      "rating": 6.26,
      "classificacao_etaria": "A14",
      "imagem_original": "https://animefire.plus/img/animes/kancolle-itsuka-ano-umi-de.webp",
      "imagem_pasta": "https://animefire.plus/img/animes/kancolle-itsuka-ano-umi-de/",
      "secao": "legendados,lancamentos",
      "pagina": 30,
      "total_episodios": 6,
      "link_video": "https://animefire.plus/video/kancolle-itsuka-ano-umi-de"
    },
    {
      "id": 1873,
      "nome": "Kankin Kuiki Level X",
      "link": "https://animefire.plus/animes/kankin-kuiki-level-x-todos-os-episodios",
      "texto_original": "Kankin Kuiki Level X",
      "rating": 6.4,
      "classificacao_etaria": "A16",
      "imagem_original": "https://animefire.plus/img/animes/kankin-kuiki-level-x.webp",
      "imagem_pasta": "https://animefire.plus/img/animes/kankin-kuiki-level-x/",
      "secao": "legendados,lancamentos",
      "pagina": 10,
      "total_episodios": 0,
      "link_video": "https://animefire.plus/video/kankin-kuiki-level-x"
    }
  ],
  "pagination": {
    "current_page": 6,
    "per_page": 20,
    "total_items": 285,
    "total_pages": 15,
    "has_next": true,
    "has_prev": true
  }
}
