{
  "message": "Animes da seção: lancamentos",
  "section": "lancamentos",
  "data": [
    {
      "id": 4137,
      "nome": "Witch Watch (Dublado)",
      "link": "https://animefire.plus/animes/witch-watch-dublado-todos-os-episodios",
      "texto_original": "Witch Watch (Dublado)",
      "rating": 7.4,
      "classificacao_etaria": "A14",
      "imagem_original": "https://animefire.plus/img/animes/witch-watch.webp",
      "imagem_pasta": "https://animefire.plus/img/animes/witch-watch/",
      "secao": "dublados,legendados,lancamentos",
      "pagina": 1,
      "total_episodios": 18,
      "link_video": "https://animefire.plus/video/witch-watch-dublado"
    },
    {
      "id": 4144,
      "nome": "Wo Kai Dongwuyuan Naxie Nian",
      "link": "https://animefire.plus/animes/wo-kai-dongwuyuan-naxie-nian-todos-os-episodios",
      "texto_original": "Wo Kai Dongwuyuan Naxie Nian",
      "rating": 6.37,
      "classificacao_etaria": "A14",
      "imagem_original": "https://animefire.plus/img/animes/wo-kai-dongwuyuan-naxie-nian.webp",
      "imagem_pasta": "https://animefire.plus/img/animes/wo-kai-dongwuyuan-naxie-nian/",
      "secao": "legendados,lancamentos",
      "pagina": 75,
      "total_episodios": 4,
      "link_video": "https://animefire.plus/video/wo-kai-dongwuyuan-naxie-nian"
    },
    {
      "id": 4169,
      "nome": "Xian Feng Jian Yu Lu",
      "link": "https://animefire.plus/animes/xian-feng-jian-yu-lu-todos-os-episodios",
      "texto_original": "Xian Feng Jian Yu Lu",
      "rating": null,
      "classificacao_etaria": null,
      "imagem_original": "https://animefire.plus/img/animes/xian-feng-jian-yu-lu.webp",
      "imagem_pasta": "https://animefire.plus/img/animes/xian-feng-jian-yu-lu/",
      "secao": "legendados,lancamentos",
      "pagina": 57,
      "total_episodios": 1,
      "link_video": "https://animefire.plus/video/xian-feng-jian-yu-lu"
    },
    {
      "id": 4171,
      "nome": "Xian Wang de Richang Shenghuo 2nd Season",
      "link": "https://animefire.plus/animes/xian-wang-de-richang-shenghuo-2nd-season-todos-os-episodios",
      "texto_original": "Xian Wang de Richang Shenghuo 2nd Season",
      "rating": 7.38,
      "classificacao_etaria": "A14",
      "imagem_original": "https://animefire.plus/img/animes/xian-wang-de-richang-shenghuo-2nd-season.webp",
      "imagem_pasta": "https://animefire.plus/img/animes/xian-wang-de-richang-shenghuo-2nd-season/",
      "secao": "legendados,lancamentos",
      "pagina": 38,
      "total_episodios": 1,
      "link_video": "https://animefire.plus/video/xian-wang-de-richang-shenghuo-2nd-season"
    },
    {
      "id": 4208,
      "nome": "Yami Shibai 15",
      "link": "https://animefire.plus/animes/yami-shibai-15-todos-os-episodios",
      "texto_original": "Yami Shibai 15",
      "rating": 5.99,
      "classificacao_etaria": "A14",
      "imagem_original": "https://animefire.plus/img/animes/yami-shibai-15.webp",
      "imagem_pasta": "https://animefire.plus/img/animes/yami-shibai-15/",
      "secao": "legendados,lancamentos",
      "pagina": 1,
      "total_episodios": 4,
      "link_video": "https://animefire.plus/video/yami-shibai-15"
    },
    {
      "id": 4235,
      "nome": "Yi Nian Yong Heng",
      "link": "https://animefire.plus/animes/yi-nian-yong-heng-todos-os-episodios",
      "texto_original": "Yi Nian Yong Heng",
      "rating": 6.9,
      "classificacao_etaria": "A14",
      "imagem_original": "https://animefire.plus/img/animes/yi-nian-yong-heng.webp",
      "imagem_pasta": "https://animefire.plus/img/animes/yi-nian-yong-heng/",
      "secao": "legendados,lancamentos",
      "pagina": 51,
      "total_episodios": 11,
      "link_video": "https://animefire.plus/video/yi-nian-yong-heng"
    },
    {
      "id": 4237,
      "nome": "Yingxiong Zai Lin",
      "link": "https://animefire.plus/animes/yingxiong-zai-lin-todos-os-episodios",
      "texto_original": "Yingxiong Zai Lin",
      "rating": null,
      "classificacao_etaria": "A16",
      "imagem_original": "https://animefire.plus/img/animes/yingxiong-zai-lin.webp",
      "imagem_pasta": "https://animefire.plus/img/animes/yingxiong-zai-lin/",
      "secao": "legendados,lancamentos",
      "pagina": 50,
      "total_episodios": 9,
      "link_video": "https://animefire.plus/video/yingxiong-zai-lin"
    },
    {
      "id": 4240,
      "nome": "Yofukashi no Uta Season 2",
      "link": "https://animefire.plus/animes/yofukashi-no-uta-season-2-todos-os-episodios",
      "texto_original": "Yofukashi no Uta Season 2",
      "rating": 8.25,
      "classificacao_etaria": "A14",
      "imagem_original": "https://animefire.plus/img/animes/yofukashi-no-uta-season-2.webp",
      "imagem_pasta": "https://animefire.plus/img/animes/yofukashi-no-uta-season-2/",
      "secao": "legendados,lancamentos",
      "pagina": 1,
      "total_episodios": 5,
      "link_video": "https://animefire.plus/video/yofukashi-no-uta-season-2"
    },
    {
      "id": 4241,
      "nome": "Yojouhan Time Machine Blues",
      "link": "https://animefire.plus/animes/yojouhan-time-machine-blues-todos-os-episodios",
      "texto_original": "Yojouhan Time Machine Blues",
      "rating": 8.18,
      "classificacao_etaria": "A14",
      "imagem_original": "https://animefire.plus/img/animes/yojouhan-time-machine-blues.webp",
      "imagem_pasta": "https://animefire.plus/img/animes/yojouhan-time-machine-blues/",
      "secao": "legendados,lancamentos",
      "pagina": 28,
      "total_episodios": 4,
      "link_video": "https://animefire.plus/video/yojouhan-time-machine-blues"
    },
    {
      "id": 4253,
      "nome": "Youjo Senki II",
      "link": "https://animefire.plus/animes/youjo-senki-ii-todos-os-episodios",
      "texto_original": "Youjo Senki II",
      "rating": null,
      "classificacao_etaria": "A16",
      "imagem_original": "https://animefire.plus/img/animes/youjo-senki-ii.webp",
      "imagem_pasta": "https://animefire.plus/img/animes/youjo-senki-ii/",
      "secao": "legendados,lancamentos",
      "pagina": 19,
      "total_episodios": 0,
      "link_video": "https://animefire.plus/video/youjo-senki-ii"
    },
    {
      "id": 4255,
      "nome": "Youjo Shachou",
      "link": "https://animefire.plus/animes/youjo-shachou-todos-os-episodios",
      "texto_original": "Youjo Shachou",
      "rating": 6.59,
      "classificacao_etaria": "A14",
      "imagem_original": "https://animefire.plus/img/animes/youjo-shachou.webp",
      "imagem_pasta": "https://animefire.plus/img/animes/youjo-shachou/",
      "secao": "legendados,lancamentos",
      "pagina": 48,
      "total_episodios": 1,
      "link_video": "https://animefire.plus/video/youjo-shachou"
    },
    {
      "id": 4261,
      "nome": "Youkoso Jitsuryoku Shijou Shugi no Kyoushitsu e (TV) 2nd Season (Dublado)",
      "link": "https://animefire.plus/animes/youkoso-jitsuryoku-shijou-shugi-no-kyoushitsu-e-tv-2nd-season-dublado-todos-os-episodios",
      "texto_original": "Youkoso Jitsuryoku Shijou Shugi no Kyoushitsu e (TV) 2nd Season (Dublado)",
      "rating": 8.07,
      "classificacao_etaria": "A14",
      "imagem_original": "https://animefire.plus/img/animes/youkoso-jitsuryoku-shijou-shugi-no-kyoushitsu-e-tv-2nd-season.webp",
      "imagem_pasta": "https://animefire.plus/img/animes/youkoso-jitsuryoku-shijou-shugi-no-kyoushitsu-e-tv-2nd-season/",
      "secao": "dublados,legendados,lancamentos",
      "pagina": 10,
      "total_episodios": 13,
      "link_video": "https://animefire.plus/video/youkoso-jitsuryoku-shijou-shugi-no-kyoushitsu-e-tv-2nd-season-dublado"
    },
    {
      "id": 4264,
      "nome": "Youkoso Jitsuryoku Shijou Shugi no Kyoushitsu e 3rd Season (Dublado)",
      "link": "https://animefire.plus/animes/youkoso-jitsuryoku-shijou-shugi-no-kyoushitsu-e-3-dublado-todos-os-episodios",
      "texto_original": "Youkoso Jitsuryoku Shijou Shugi no Kyoushitsu e 3rd Season (Dublado)",
      "rating": 7.95,
      "classificacao_etaria": "A14",
      "imagem_original": "https://animefire.plus/img/animes/youkoso-jitsuryoku-shijou-shugi-no-kyoushitsu-e-3.webp",
      "imagem_pasta": "https://animefire.plus/img/animes/youkoso-jitsuryoku-shijou-shugi-no-kyoushitsu-e-3/",
      "secao": "dublados,lancamentos",
      "pagina": 3,
      "total_episodios": 10,
      "link_video": "https://animefire.plus/video/youkoso-jitsuryoku-shijou-shugi-no-kyoushitsu-e-3-dublado"
    },
    {
      "id": 4270,
      "nome": "Yowamushi Pedal: Limit Break",
      "link": "https://animefire.plus/animes/yowamushi-pedal-limit-break-todos-os-episodios",
      "texto_original": "Yowamushi Pedal: Limit Break",
      "rating": 7.39,
      "classificacao_etaria": "A14",
      "imagem_original": "https://animefire.plus/img/animes/yowamushi-pedal-limit-break.webp",
      "imagem_pasta": "https://animefire.plus/img/animes/yowamushi-pedal-limit-break/",
      "secao": "legendados,lancamentos",
      "pagina": 29,
      "total_episodios": 1,
      "link_video": "https://animefire.plus/video/yowamushi-pedal-limit-break"
    },
    {
      "id": 4274,
      "nome": "Yozakura-san Chi no Daisakusen",
      "link": "https://animefire.plus/animes/yozakura-san-chi-no-daisakusen-todos-os-episodios",
      "texto_original": "Yozakura-san Chi no Daisakusen",
      "rating": 7.56,
      "classificacao_etaria": "A14",
      "imagem_original": "https://animefire.plus/img/animes/yozakura-san-chi-no-daisakusen.webp",
      "imagem_pasta": "https://animefire.plus/img/animes/yozakura-san-chi-no-daisakusen/",
      "secao": "legendados,lancamentos",
      "pagina": 15,
      "total_episodios": 18,
      "link_video": "https://animefire.plus/video/yozakura-san-chi-no-daisakusen"
    },
    {
      "id": 4275,
      "nome": "Yu-Gi-Oh! Card Game: The Chronicles",
      "link": "https://animefire.plus/animes/yu-gi-oh-card-game-the-chronicles-todos-os-episodios",
      "texto_original": "Yu-Gi-Oh! Card Game: The Chronicles",
      "rating": null,
      "classificacao_etaria": "A14",
      "imagem_original": "https://animefire.plus/img/animes/yu-gi-oh-card-game-the-chronicles.webp",
      "imagem_pasta": "https://animefire.plus/img/animes/yu-gi-oh-card-game-the-chronicles/",
      "secao": "legendados,lancamentos",
      "pagina": 3,
      "total_episodios": 0,
      "link_video": "https://animefire.plus/video/yu-gi-oh-card-game-the-chronicles"
    },
    {
      "id": 4283,
      "nome": "Yu☆Gi☆Oh!: Go Rush!!",
      "link": "https://animefire.plus/animes/yu-gi-oh-go-rush-todos-os-episodios",
      "texto_original": "Yu☆Gi☆Oh!: Go Rush!!",
      "rating": 6.17,
      "classificacao_etaria": "A14",
      "imagem_original": "https://animefire.plus/img/animes/yu-gi-oh-go-rush.webp",
      "imagem_pasta": "https://animefire.plus/img/animes/yu-gi-oh-go-rush/",
      "secao": "legendados,lancamentos",
      "pagina": 33,
      "total_episodios": 2,
      "link_video": "https://animefire.plus/video/yu-gi-oh-go-rush"
    },
    {
      "id": 4284,
      "nome": "Yu☆Gi☆Oh!: Sevens",
      "link": "https://animefire.plus/animes/yu-gi-oh-sevens-todos-os-episodios",
      "texto_original": "Yu☆Gi☆Oh!: Sevens",
      "rating": 5.4,
      "classificacao_etaria": "A14",
      "imagem_original": "https://animefire.plus/img/animes/yu-gi-oh-sevens.webp",
      "imagem_pasta": "https://animefire.plus/img/animes/yu-gi-oh-sevens/",
      "secao": "legendados,lancamentos",
      "pagina": 81,
      "total_episodios": 9,
      "link_video": "https://animefire.plus/video/yu-gi-oh-sevens"
    },
    {
      "id": 4285,
      "nome": "Yubisaki kara Honki no Netsujou 2: Koibito wa Shouboushi",
      "link": "https://animefire.plus/animes/yubisaki-kara-honki-no-netsujou-2-koibito-wa-shouboushi-todos-os-episodios",
      "texto_original": "Yubisaki kara Honki no Netsujou 2: Koibito wa Shouboushi",
      "rating": 6.31,
      "classificacao_etaria": "A18",
      "imagem_original": "https://animefire.plus/img/animes/yubisaki-kara-honki-no-netsujou-2-koibito-wa-shouboushi.webp",
      "imagem_pasta": "https://animefire.plus/img/animes/yubisaki-kara-honki-no-netsujou-2-koibito-wa-shouboushi/",
      "secao": "legendados,lancamentos",
      "pagina": 40,
      "total_episodios": 0,
      "link_video": "https://animefire.plus/video/yubisaki-kara-honki-no-netsujou-2-koibito-wa-shouboushi"
    },
    {
      "id": 4302,
      "nome": "Yuru Camp△ Season 3 (Dublado)",
      "link": "https://animefire.plus/animes/yuru-camp-season-3-dublado-todos-os-episodios",
      "texto_original": "Yuru Camp△ Season 3 (Dublado)",
      "rating": 8.02,
      "classificacao_etaria": "A14",
      "imagem_original": "https://animefire.plus/img/animes/yuru-camp-season-3.webp",
      "imagem_pasta": "https://animefire.plus/img/animes/yuru-camp-season-3/",
      "secao": "dublados,legendados,lancamentos",
      "pagina": 2,
      "total_episodios": 12,
      "link_video": "https://animefire.plus/video/yuru-camp-season-3-dublado"
    }
  ],
  "pagination": {
    "current_page": 14,
    "per_page": 20,
    "total_items": 285,
    "total_pages": 15,
    "has_next": true,
    "has_prev": true
  }
}
