{
  "message": "Animes da seção: lancamentos",
  "section": "lancamentos",
  "data": [
    {
      "id": 2530,
      "nome": "Mix - Meisei Story 2nd Season",
      "link": "https://animefire.plus/animes/mix-meisei-story-2nd-season-todos-os-episodios",
      "texto_original": "Mix - Meisei Story 2nd Season",
      "rating": 6.98,
      "classificacao_etaria": "A14",
      "imagem_original": "https://animefire.plus/img/animes/mix-meisei-story-2nd-season.jpg",
      "imagem_pasta": "https://animefire.plus/img/animes/mix-meisei-story-2nd-season/",
      "secao": "legendados,lancamentos",
      "pagina": 25,
      "total_episodios": 18,
      "link_video": "https://animefire.plus/video/mix-meisei-story-2nd-season"
    },
    {
      "id": 2533,
      "nome": "Mizu Zokusei no Mahoutsukai",
      "link": "https://animefire.plus/animes/mizu-zokusei-no-mahoutsukai-todos-os-episodios",
      "texto_original": "Mizu Zokusei no Mahoutsukai",
      "rating": 7.21,
      "classificacao_etaria": "A14",
      "imagem_original": "https://animefire.plus/img/animes/mizu-zokusei-no-mahoutsukai.webp",
      "imagem_pasta": "https://animefire.plus/img/animes/mizu-zokusei-no-mahoutsukai/",
      "secao": "legendados,lancamentos",
      "pagina": 2,
      "total_episodios": 5,
      "link_video": "https://animefire.plus/video/mizu-zokusei-no-mahoutsukai"
    },
    {
      "id": 2543,
      "nome": "Mobile Suit Gundam 00 (Dublado)",
      "link": "https://animefire.plus/animes/mobile-suit-gundam-00-dublado-todos-os-episodios",
      "texto_original": "Mobile Suit Gundam 00 (Dublado)",
      "rating": 8.13,
      "classificacao_etaria": "A16",
      "imagem_original": "https://animefire.plus/img/animes/mobile-suit-gundam-00.webp",
      "imagem_pasta": "https://animefire.plus/img/animes/mobile-suit-gundam-00/",
      "secao": "dublados,legendados,lancamentos",
      "pagina": 18,
      "total_episodios": 25,
      "link_video": "https://animefire.plus/video/mobile-suit-gundam-00-dublado"
    },
    {
      "id": 2576,
      "nome": "Mononogatari",
      "link": "https://animefire.plus/animes/mononogatari-todos-os-episodios",
      "texto_original": "Mononogatari",
      "rating": 7.25,
      "classificacao_etaria": "A14",
      "imagem_original": "https://animefire.plus/img/animes/mononogatari.webp",
      "imagem_pasta": "https://animefire.plus/img/animes/mononogatari/",
      "secao": "legendados,lancamentos",
      "pagina": 25,
      "total_episodios": 24,
      "link_video": "https://animefire.plus/video/mononogatari"
    },
    {
      "id": 2590,
      "nome": "Moonrise",
      "link": "https://animefire.plus/animes/moonrise-todos-os-episodios",
      "texto_original": "Moonrise",
      "rating": null,
      "classificacao_etaria": "A16",
      "imagem_original": "https://animefire.plus/img/animes/moonrise.webp",
      "imagem_pasta": "https://animefire.plus/img/animes/moonrise/",
      "secao": "legendados,lancamentos",
      "pagina": 4,
      "total_episodios": 3,
      "link_video": "https://animefire.plus/video/moonrise"
    },
    {
      "id": 2602,
      "nome": "Muchuu sa, Kimi ni.",
      "link": "https://animefire.plus/animes/muchuu-sa-kimi-ni-todos-os-episodios",
      "texto_original": "Muchuu sa, Kimi ni.",
      "rating": null,
      "classificacao_etaria": null,
      "imagem_original": "https://animefire.plus/img/animes/muchuu-sa-kimi-ni.webp",
      "imagem_pasta": "https://animefire.plus/img/animes/muchuu-sa-kimi-ni/",
      "secao": "legendados,lancamentos",
      "pagina": 1,
      "total_episodios": 0,
      "link_video": "https://animefire.plus/video/muchuu-sa-kimi-ni"
    },
    {
      "id": 2612,
      "nome": "Murder Mystery of the Dead",
      "link": "https://animefire.plus/animes/murder-mystery-of-the-dead-todos-os-episodios",
      "texto_original": "Murder Mystery of the Dead",
      "rating": null,
      "classificacao_etaria": "A16",
      "imagem_original": "https://animefire.plus/img/animes/murder-mystery-of-the-dead.webp",
      "imagem_pasta": "https://animefire.plus/img/animes/murder-mystery-of-the-dead/",
      "secao": "legendados,lancamentos",
      "pagina": 10,
      "total_episodios": 0,
      "link_video": "https://animefire.plus/video/murder-mystery-of-the-dead"
    },
    {
      "id": 2637,
      "nome": "Muzik Tiger In the Forest",
      "link": "https://animefire.plus/animes/muzik-tiger-in-the-forest-todos-os-episodios",
      "texto_original": "Muzik Tiger In the Forest",
      "rating": null,
      "classificacao_etaria": "A14",
      "imagem_original": "https://animefire.plus/img/animes/muzik-tiger-in-the-forest.webp",
      "imagem_pasta": "https://animefire.plus/img/animes/muzik-tiger-in-the-forest/",
      "secao": "legendados,lancamentos",
      "pagina": 4,
      "total_episodios": 0,
      "link_video": "https://animefire.plus/video/muzik-tiger-in-the-forest"
    },
    {
      "id": 2664,
      "nome": "Nanatsu no Taizai: Fundo no Shinpan (Dublado)",
      "link": "https://animefire.plus/animes/nanatsu-no-taizai-fundo-no-shinpan-dublado-todos-os-episodios",
      "texto_original": "Nanatsu no Taizai: Fundo no Shinpan (Dublado)",
      "rating": 6.57,
      "classificacao_etaria": "A14",
      "imagem_original": "https://animefire.plus/img/animes/nanatsu-no-taizai-fundo-no-shinpan.webp",
      "imagem_pasta": "https://animefire.plus/img/animes/nanatsu-no-taizai-fundo-no-shinpan/",
      "secao": "dublados,legendados,lancamentos",
      "pagina": 16,
      "total_episodios": 24,
      "link_video": "https://animefire.plus/video/nanatsu-no-taizai-fundo-no-shinpan-dublado"
    },
    {
      "id": 2668,
      "nome": "Nanatsu no Taizai: Mokushiroku no Yonkishi 2nd Season",
      "link": "https://animefire.plus/animes/nanatsu-no-taizai-mokushiroku-no-yonkishi-2nd-season-todos-os-episodios",
      "texto_original": "Nanatsu no Taizai: Mokushiroku no Yonkishi 2nd Season",
      "rating": 7.43,
      "classificacao_etaria": "A14",
      "imagem_original": "https://animefire.plus/img/animes/nanatsu-no-taizai-mokushiroku-no-yonkishi-2nd-season.webp",
      "imagem_pasta": "https://animefire.plus/img/animes/nanatsu-no-taizai-mokushiroku-no-yonkishi-2nd-season/",
      "secao": "legendados,lancamentos",
      "pagina": 9,
      "total_episodios": 0,
      "link_video": "https://animefire.plus/video/nanatsu-no-taizai-mokushiroku-no-yonkishi-2nd-season"
    },
    {
      "id": 2702,
      "nome": "Necronomico no Cosmic Horror Show",
      "link": "https://animefire.plus/animes/necronomico-no-cosmic-horror-show-todos-os-episodios",
      "texto_original": "Necronomico no Cosmic Horror Show",
      "rating": 5.5,
      "classificacao_etaria": "A14",
      "imagem_original": "https://animefire.plus/img/animes/necronomico-no-cosmic-horror-show.webp",
      "imagem_pasta": "https://animefire.plus/img/animes/necronomico-no-cosmic-horror-show/",
      "secao": "legendados,lancamentos",
      "pagina": 1,
      "total_episodios": 5,
      "link_video": "https://animefire.plus/video/necronomico-no-cosmic-horror-show"
    },
    {
      "id": 2704,
      "nome": "NEET Kunoichi to Nazeka Dousei Hajimemashita",
      "link": "https://animefire.plus/animes/neet-kunoichi-to-nazeka-dousei-hajimemashita-todos-os-episodios",
      "texto_original": "NEET Kunoichi to Nazeka Dousei Hajimemashita",
      "rating": 6.12,
      "classificacao_etaria": "A14",
      "imagem_original": "https://animefire.plus/img/animes/neet-kunoichi-to-nazeka-dousei-hajimemashita.webp",
      "imagem_pasta": "https://animefire.plus/img/animes/neet-kunoichi-to-nazeka-dousei-hajimemashita/",
      "secao": "legendados,lancamentos",
      "pagina": 8,
      "total_episodios": 13,
      "link_video": "https://animefire.plus/video/neet-kunoichi-to-nazeka-dousei-hajimemashita"
    },
    {
      "id": 2722,
      "nome": "New Panty & Stocking with Garterbelt",
      "link": "https://animefire.plus/animes/new-panty-stocking-with-garterbelt-todos-os-episodios",
      "texto_original": "New Panty & Stocking with Garterbelt",
      "rating": 7.35,
      "classificacao_etaria": "A16",
      "imagem_original": "https://animefire.plus/img/animes/new-panty-stocking-with-garterbelt.webp",
      "imagem_pasta": "https://animefire.plus/img/animes/new-panty-stocking-with-garterbelt/",
      "secao": "legendados,lancamentos",
      "pagina": 1,
      "total_episodios": 4,
      "link_video": "https://animefire.plus/video/new-panty-stocking-with-garterbelt"
    },
    {
      "id": 2742,
      "nome": "Ninja Collection",
      "link": "https://animefire.plus/animes/ninja-collection-todos-os-episodios",
      "texto_original": "Ninja Collection",
      "rating": null,
      "classificacao_etaria": "A14",
      "imagem_original": "https://animefire.plus/img/animes/ninja-collection.webp",
      "imagem_pasta": "https://animefire.plus/img/animes/ninja-collection/",
      "secao": "legendados,lancamentos",
      "pagina": 57,
      "total_episodios": 11,
      "link_video": "https://animefire.plus/video/ninja-collection"
    },
    {
      "id": 2743,
      "nome": "Ninja Kamui (Dublado)",
      "link": "https://animefire.plus/animes/ninja-kamui-dublado-todos-os-episodios",
      "texto_original": "Ninja Kamui (Dublado)",
      "rating": 6.97,
      "classificacao_etaria": "A16",
      "imagem_original": "https://animefire.plus/img/animes/ninja-kamui.webp",
      "imagem_pasta": "https://animefire.plus/img/animes/ninja-kamui/",
      "secao": "dublados,legendados,lancamentos",
      "pagina": 3,
      "total_episodios": 13,
      "link_video": "https://animefire.plus/video/ninja-kamui-dublado"
    },
    {
      "id": 2750,
      "nome": "Nmeneko",
      "link": "https://animefire.plus/animes/nmeneko-todos-os-episodios",
      "texto_original": "Nmeneko",
      "rating": null,
      "classificacao_etaria": "A14",
      "imagem_original": "https://animefire.plus/img/animes/nmeneko.webp",
      "imagem_pasta": "https://animefire.plus/img/animes/nmeneko/",
      "secao": "legendados,lancamentos",
      "pagina": 4,
      "total_episodios": 0,
      "link_video": "https://animefire.plus/video/nmeneko"
    },
    {
      "id": 2797,
      "nome": "Nyaight of the Living Cat",
      "link": "https://animefire.plus/animes/nyaight-of-the-living-cat-todos-os-episodios",
      "texto_original": "Nyaight of the Living Cat",
      "rating": 6.35,
      "classificacao_etaria": "A14",
      "imagem_original": "https://animefire.plus/img/animes/nyaight-of-the-living-cat.webp",
      "imagem_pasta": "https://animefire.plus/img/animes/nyaight-of-the-living-cat/",
      "secao": "legendados,lancamentos",
      "pagina": 2,
      "total_episodios": 5,
      "link_video": "https://animefire.plus/video/nyaight-of-the-living-cat"
    },
    {
      "id": 2809,
      "nome": "Oide yo Mahou Shoujo Mura (Fuhou Senkyo)",
      "link": "https://animefire.plus/animes/oide-yo-mahou-shoujo-mura-fuhou-senkyo-todos-os-episodios",
      "texto_original": "Oide yo Mahou Shoujo Mura (Fuhou Senkyo)",
      "rating": null,
      "classificacao_etaria": "A14",
      "imagem_original": "https://animefire.plus/img/animes/oide-yo-mahou-shoujo-mura-fuhou-senkyo.webp",
      "imagem_pasta": "https://animefire.plus/img/animes/oide-yo-mahou-shoujo-mura-fuhou-senkyo/",
      "secao": "legendados,lancamentos",
      "pagina": 3,
      "total_episodios": 0,
      "link_video": "https://animefire.plus/video/oide-yo-mahou-shoujo-mura-fuhou-senkyo"
    },
    {
      "id": 2820,
      "nome": "Olympia Kyklos",
      "link": "https://animefire.plus/animes/olympia-kyklos-todos-os-episodios",
      "texto_original": "Olympia Kyklos",
      "rating": 7.02,
      "classificacao_etaria": "A14",
      "imagem_original": "https://animefire.plus/img/animes/olympia-kyklos.webp",
      "imagem_pasta": "https://animefire.plus/img/animes/olympia-kyklos/",
      "secao": "legendados,lancamentos",
      "pagina": 79,
      "total_episodios": 0,
      "link_video": "https://animefire.plus/video/olympia-kyklos"
    },
    {
      "id": 2826,
      "nome": "One Piece (Dublado)",
      "link": "https://animefire.plus/animes/one-piece-dublado-todos-os-episodios",
      "texto_original": "One Piece (Dublado)",
      "rating": 8.49,
      "classificacao_etaria": "A14",
      "imagem_original": "https://animefire.plus/img/animes/one-piece.webp",
      "imagem_pasta": "https://animefire.plus/img/animes/one-piece/",
      "secao": "dublados,legendados,lancamentos",
      "pagina": 20,
      "total_episodios": 834,
      "link_video": "https://animefire.plus/video/one-piece-dublado"
    }
  ],
  "pagination": {
    "current_page": 9,
    "per_page": 20,
    "total_items": 285,
    "total_pages": 15,
    "has_next": true,
    "has_prev": true
  }
}
