{
  "message": "Animes da seção: legendados",
  "section": "legendados",
  "data": [
    {
      "id": 1768,
      "nome": "Juuou Mujin No Fafnir",
      "link": "https://animefire.plus/animes/juuou-mujin-no-fafnir-todos-os-episodios",
      "texto_original": "Juuou Mujin No Fafnir",
      "rating": 6.39,
      "classificacao_etaria": "A14",
      "imagem_original": "https://animefire.plus/img/animes/juuou-mujin-no-fafnir.webp",
      "imagem_pasta": "https://animefire.plus/img/animes/juuou-mujin-no-fafnir/",
      "secao": "legendados",
      "pagina": 107,
      "total_episodios": 1,
      "link_video": "https://animefire.plus/video/juuou-mujin-no-fafnir"
    },
    {
      "id": 1769,
      "nome": "Juusenshi Gulkeeva",
      "link": "https://animefire.plus/animes/juusenshi-gulkeeva-todos-os-episodios",
      "texto_original": "Juusenshi Gulkeeva",
      "rating": 6.35,
      "classificacao_etaria": "A14",
      "imagem_original": "https://animefire.plus/img/animes/juusenshi-gulkeeva.webp",
      "imagem_pasta": "https://animefire.plus/img/animes/juusenshi-gulkeeva/",
      "secao": "legendados",
      "pagina": 68,
      "total_episodios": 26,
      "link_video": "https://animefire.plus/video/juusenshi-gulkeeva"
    },
    {
      "id": 1770,
      "nome": "Juushin Enbu: Hero Tales",
      "link": "https://animefire.plus/animes/juushin-enbu-hero-tales-todos-os-episodios",
      "texto_original": "Juushin Enbu: Hero Tales",
      "rating": 6.92,
      "classificacao_etaria": "A14",
      "imagem_original": "https://animefire.plus/img/animes/juushin-enbu-hero-tales.webp",
      "imagem_pasta": "https://animefire.plus/img/animes/juushin-enbu-hero-tales/",
      "secao": "legendados",
      "pagina": 148,
      "total_episodios": 26,
      "link_video": "https://animefire.plus/video/juushin-enbu-hero-tales"
    },
    {
      "id": 1771,
      "nome": "Juushinki Pandora (Dublado)",
      "link": "https://animefire.plus/animes/juushinki-pandora-dublado-todos-os-episodios",
      "texto_original": "Juushinki Pandora (Dublado)",
      "rating": 6.4,
      "classificacao_etaria": "A14",
      "imagem_original": "https://animefire.plus/img/animes/juushinki-pandora.webp",
      "imagem_pasta": "https://animefire.plus/img/animes/juushinki-pandora/",
      "secao": "dublados,legendados",
      "pagina": 24,
      "total_episodios": 26,
      "link_video": "https://animefire.plus/video/juushinki-pandora-dublado"
    },
    {
      "id": 1772,
      "nome": "Juusou Kikou Dancougar Nova",
      "link": "https://animefire.plus/animes/juusou-kikou-dancougar-nova-todos-os-episodios",
      "texto_original": "Juusou Kikou Dancougar Nova",
      "rating": 6,
      "classificacao_etaria": "A18",
      "imagem_original": "https://animefire.plus/img/animes/juusou-kikou-dancougar-nova.webp",
      "imagem_pasta": "https://animefire.plus/img/animes/juusou-kikou-dancougar-nova/",
      "secao": "legendados",
      "pagina": 78,
      "total_episodios": 12,
      "link_video": "https://animefire.plus/video/juusou-kikou-dancougar-nova"
    },
    {
      "id": 1773,
      "nome": "Jyu Oh Sei",
      "link": "https://animefire.plus/animes/jyu-oh-sei-todos-os-episodios",
      "texto_original": "Jyu Oh Sei",
      "rating": 7.32,
      "classificacao_etaria": "A16",
      "imagem_original": "https://animefire.plus/img/animes/jyu-oh-sei.webp",
      "imagem_pasta": "https://animefire.plus/img/animes/jyu-oh-sei/",
      "secao": "legendados",
      "pagina": 147,
      "total_episodios": 11,
      "link_video": "https://animefire.plus/video/jyu-oh-sei"
    },
    {
      "id": 1774,
      "nome": "K-On!",
      "link": "https://animefire.plus/animes/k-on-todos-os-episodios",
      "texto_original": "K-On!",
      "rating": 8.15,
      "classificacao_etaria": "A14",
      "imagem_original": "https://animefire.plus/img/animes/k-on.webp",
      "imagem_pasta": "https://animefire.plus/img/animes/k-on/",
      "secao": "legendados",
      "pagina": 143,
      "total_episodios": 14,
      "link_video": "https://animefire.plus/video/k-on"
    },
    {
      "id": 1775,
      "nome": "K-On!: Ura-On!",
      "link": "https://animefire.plus/animes/k-on-ura-on-todos-os-episodios",
      "texto_original": "K-On!: Ura-On!",
      "rating": 6.34,
      "classificacao_etaria": "A14",
      "imagem_original": "https://animefire.plus/img/animes/k-on-ura-on.webp",
      "imagem_pasta": "https://animefire.plus/img/animes/k-on-ura-on/",
      "secao": "legendados",
      "pagina": 66,
      "total_episodios": 2,
      "link_video": "https://animefire.plus/video/k-on-ura-on"
    },
    {
      "id": 1776,
      "nome": "K: Return Of Kings",
      "link": "https://animefire.plus/animes/k-return-of-kings-todos-os-episodios",
      "texto_original": "K: Return Of Kings",
      "rating": 7.74,
      "classificacao_etaria": "A14",
      "imagem_original": "https://animefire.plus/img/animes/k-return-of-kings.webp",
      "imagem_pasta": "https://animefire.plus/img/animes/k-return-of-kings/",
      "secao": "legendados",
      "pagina": 107,
      "total_episodios": 13,
      "link_video": "https://animefire.plus/video/k-return-of-kings"
    },
    {
      "id": 1777,
      "nome": "Kabukichou Sherlock",
      "link": "https://animefire.plus/animes/kabukichou-sherlock-todos-os-episodios",
      "texto_original": "Kabukichou Sherlock",
      "rating": 6.91,
      "classificacao_etaria": "A16",
      "imagem_original": "https://animefire.plus/img/animes/kabukichou-sherlock.webp",
      "imagem_pasta": "https://animefire.plus/img/animes/kabukichou-sherlock/",
      "secao": "legendados",
      "pagina": 110,
      "total_episodios": 0,
      "link_video": "https://animefire.plus/video/kabukichou-sherlock"
    },
    {
      "id": 1778,
      "nome": "Kabukichou Sherlock OVA",
      "link": "https://animefire.plus/animes/kabukichou-sherlock-ova-todos-os-episodios",
      "texto_original": "Kabukichou Sherlock OVA",
      "rating": 6.61,
      "classificacao_etaria": "A14",
      "imagem_original": "https://animefire.plus/img/animes/kabukichou-sherlock-ova.webp",
      "imagem_pasta": "https://animefire.plus/img/animes/kabukichou-sherlock-ova/",
      "secao": "legendados",
      "pagina": 50,
      "total_episodios": 1,
      "link_video": "https://animefire.plus/video/kabukichou-sherlock-ova"
    },
    {
      "id": 1779,
      "nome": "Kabushikigaisha Magi-Lumière",
      "link": "https://animefire.plus/animes/kabushikigaisha-magi-lumiere-todos-os-episodios",
      "texto_original": "Kabushikigaisha Magi-Lumière",
      "rating": 6.96,
      "classificacao_etaria": "A14",
      "imagem_original": "https://animefire.plus/img/animes/kabushikigaisha-magi-lumiere.webp",
      "imagem_pasta": "https://animefire.plus/img/animes/kabushikigaisha-magi-lumiere/",
      "secao": "legendados",
      "pagina": 10,
      "total_episodios": 12,
      "link_video": "https://animefire.plus/video/kabushikigaisha-magi-lumiere"
    },
    {
      "id": 1780,
      "nome": "Kachou Ouji",
      "link": "https://animefire.plus/animes/kachou-ouji-todos-os-episodios",
      "texto_original": "Kachou Ouji",
      "rating": 7.07,
      "classificacao_etaria": "A18",
      "imagem_original": "https://animefire.plus/img/animes/kachou-ouji.webp",
      "imagem_pasta": "https://animefire.plus/img/animes/kachou-ouji/",
      "secao": "legendados",
      "pagina": 168,
      "total_episodios": 0,
      "link_video": "https://animefire.plus/video/kachou-ouji"
    },
    {
      "id": 1781,
      "nome": "Kaeru no Pickles: Kimochi no Iro",
      "link": "https://animefire.plus/animes/kaeru-no-pickles-kimochi-no-iro-todos-os-episodios",
      "texto_original": "Kaeru no Pickles: Kimochi no Iro",
      "rating": null,
      "classificacao_etaria": null,
      "imagem_original": "https://animefire.plus/img/animes/kaeru-no-pickles-kimochi-no-iro.webp",
      "imagem_pasta": "https://animefire.plus/img/animes/kaeru-no-pickles-kimochi-no-iro/",
      "secao": "legendados,lancamentos",
      "pagina": 50,
      "total_episodios": 1,
      "link_video": "https://animefire.plus/video/kaeru-no-pickles-kimochi-no-iro"
    },
    {
      "id": 1782,
      "nome": "Kage kara Mamoru!",
      "link": "https://animefire.plus/animes/kage-kara-mamoru-todos-os-episodios",
      "texto_original": "Kage kara Mamoru!",
      "rating": 6.67,
      "classificacao_etaria": "A14",
      "imagem_original": "https://animefire.plus/img/animes/kage-kara-mamoru.webp",
      "imagem_pasta": "https://animefire.plus/img/animes/kage-kara-mamoru/",
      "secao": "legendados",
      "pagina": 133,
      "total_episodios": 12,
      "link_video": "https://animefire.plus/video/kage-kara-mamoru"
    },
    {
      "id": 1783,
      "nome": "Kage no Jitsuryokusha ni Naritakute! (Dublado)",
      "link": "https://animefire.plus/animes/kage-no-jitsuryokusha-ni-naritakute-dublado-todos-os-episodios",
      "texto_original": "Kage no Jitsuryokusha ni Naritakute! (Dublado)",
      "rating": 8.25,
      "classificacao_etaria": "A16",
      "imagem_original": "https://animefire.plus/img/animes/kage-no-jitsuryokusha-ni-naritakute.webp",
      "imagem_pasta": "https://animefire.plus/img/animes/kage-no-jitsuryokusha-ni-naritakute/",
      "secao": "dublados,legendados,lancamentos",
      "pagina": 8,
      "total_episodios": 20,
      "link_video": "https://animefire.plus/video/kage-no-jitsuryokusha-ni-naritakute-dublado"
    },
    {
      "id": 1784,
      "nome": "Kage no Jitsuryokusha ni Naritakute! 2nd Season (Dublado)",
      "link": "https://animefire.plus/animes/kage-no-jitsuryokusha-ni-naritakute-2nd-season-dublado-todos-os-episodios",
      "texto_original": "Kage no Jitsuryokusha ni Naritakute! 2nd Season (Dublado)",
      "rating": 8.28,
      "classificacao_etaria": "A16",
      "imagem_original": "https://animefire.plus/img/animes/kage-no-jitsuryokusha-ni-naritakute-2nd-season.webp",
      "imagem_pasta": "https://animefire.plus/img/animes/kage-no-jitsuryokusha-ni-naritakute-2nd-season/",
      "secao": "dublados,legendados,lancamentos",
      "pagina": 5,
      "total_episodios": 12,
      "link_video": "https://animefire.plus/video/kage-no-jitsuryokusha-ni-naritakute-2nd-season-dublado"
    },
    {
      "id": 1785,
      "nome": "Kageki Shoujo!! (Dublado)",
      "link": "https://animefire.plus/animes/kageki-shoujo-dublado-todos-os-episodios",
      "texto_original": "Kageki Shoujo!! (Dublado)",
      "rating": 7.72,
      "classificacao_etaria": "A14",
      "imagem_original": "https://animefire.plus/img/animes/kageki-shoujo.webp",
      "imagem_pasta": "https://animefire.plus/img/animes/kageki-shoujo/",
      "secao": "dublados,legendados",
      "pagina": 11,
      "total_episodios": 13,
      "link_video": "https://animefire.plus/video/kageki-shoujo-dublado"
    },
    {
      "id": 1786,
      "nome": "Kagewani",
      "link": "https://animefire.plus/animes/kagewani-todos-os-episodios",
      "texto_original": "Kagewani",
      "rating": 6.47,
      "classificacao_etaria": "A16",
      "imagem_original": "https://animefire.plus/img/animes/kagewani.webp",
      "imagem_pasta": "https://animefire.plus/img/animes/kagewani/",
      "secao": "legendados",
      "pagina": 104,
      "total_episodios": 13,
      "link_video": "https://animefire.plus/video/kagewani"
    },
    {
      "id": 1787,
      "nome": "Kagewani: Shou",
      "link": "https://animefire.plus/animes/kagewani-shou-todos-os-episodios",
      "texto_original": "Kagewani: Shou",
      "rating": 6.5,
      "classificacao_etaria": "A16",
      "imagem_original": "https://animefire.plus/img/animes/kagewani-shou.webp",
      "imagem_pasta": "https://animefire.plus/img/animes/kagewani-shou/",
      "secao": "legendados",
      "pagina": 103,
      "total_episodios": 13,
      "link_video": "https://animefire.plus/video/kagewani-shou"
    }
  ],
  "pagination": {
    "current_page": 87,
    "per_page": 20,
    "total_items": 4269,
    "total_pages": 214,
    "has_next": true,
    "has_prev": true
  }
}
