{
  "message": "Animes da seção: legendados",
  "section": "legendados",
  "data": [
    {
      "id": 204,
      "nome": "Ao no Hako",
      "link": "https://animefire.plus/animes/ao-no-hako-todos-os-episodios",
      "texto_original": "Ao no Hako",
      "rating": 8.2,
      "classificacao_etaria": "A14",
      "imagem_original": "https://animefire.plus/img/animes/ao-no-hako.webp",
      "imagem_pasta": "https://animefire.plus/img/animes/ao-no-hako/",
      "secao": "legendados",
      "pagina": 9,
      "total_episodios": 25,
      "link_video": "https://animefire.plus/video/ao-no-hako"
    },
    {
      "id": 205,
      "nome": "Ao no Kanata no Four Rhythm",
      "link": "https://animefire.plus/animes/ao-no-kanata-no-four-rhythm-todos-os-episodios",
      "texto_original": "Ao no Kanata no Four Rhythm",
      "rating": 6.83,
      "classificacao_etaria": "A14",
      "imagem_original": "https://animefire.plus/img/animes/ao-no-kanata-no-four-rhythm.webp",
      "imagem_pasta": "https://animefire.plus/img/animes/ao-no-kanata-no-four-rhythm/",
      "secao": "legendados",
      "pagina": 114,
      "total_episodios": 2,
      "link_video": "https://animefire.plus/video/ao-no-kanata-no-four-rhythm"
    },
    {
      "id": 206,
      "nome": "Ao no Miburo",
      "link": "https://animefire.plus/animes/ao-no-miburo-todos-os-episodios",
      "texto_original": "Ao no Miburo",
      "rating": 6.67,
      "classificacao_etaria": "A14",
      "imagem_original": "https://animefire.plus/img/animes/ao-no-miburo.webp",
      "imagem_pasta": "https://animefire.plus/img/animes/ao-no-miburo/",
      "secao": "legendados",
      "pagina": 10,
      "total_episodios": 24,
      "link_video": "https://animefire.plus/video/ao-no-miburo"
    },
    {
      "id": 207,
      "nome": "Aoharu x Kikanjuu",
      "link": "https://animefire.plus/animes/aoharu-x-kikanjuu-todos-os-episodios",
      "texto_original": "Aoharu x Kikanjuu",
      "rating": 7.27,
      "classificacao_etaria": "A14",
      "imagem_original": "https://animefire.plus/img/animes/aoharu-x-kikanjuu.webp",
      "imagem_pasta": "https://animefire.plus/img/animes/aoharu-x-kikanjuu/",
      "secao": "legendados",
      "pagina": 139,
      "total_episodios": 1,
      "link_video": "https://animefire.plus/video/aoharu-x-kikanjuu"
    },
    {
      "id": 208,
      "nome": "Aoi Bungaku Series",
      "link": "https://animefire.plus/animes/aoi-bungaku-series-todos-os-episodios",
      "texto_original": "Aoi Bungaku Series",
      "rating": 7.81,
      "classificacao_etaria": "A16",
      "imagem_original": "https://animefire.plus/img/animes/aoi-bungaku-series.webp",
      "imagem_pasta": "https://animefire.plus/img/animes/aoi-bungaku-series/",
      "secao": "legendados",
      "pagina": 117,
      "total_episodios": 12,
      "link_video": "https://animefire.plus/video/aoi-bungaku-series"
    },
    {
      "id": 209,
      "nome": "Aoi Hana",
      "link": "https://animefire.plus/animes/aoi-hana-todos-os-episodios",
      "texto_original": "Aoi Hana",
      "rating": 7.22,
      "classificacao_etaria": "A14",
      "imagem_original": "https://animefire.plus/img/animes/aoi-hana.webp",
      "imagem_pasta": "https://animefire.plus/img/animes/aoi-hana/",
      "secao": "legendados",
      "pagina": 101,
      "total_episodios": 11,
      "link_video": "https://animefire.plus/video/aoi-hana"
    },
    {
      "id": 210,
      "nome": "Aoi Sekai No Chuushin De",
      "link": "https://animefire.plus/animes/aoi-sekai-no-chuushin-de-todos-os-episodios",
      "texto_original": "Aoi Sekai No Chuushin De",
      "rating": 5.91,
      "classificacao_etaria": "A18",
      "imagem_original": "https://animefire.plus/img/animes/aoi-sekai-no-chuushin-de.webp",
      "imagem_pasta": "https://animefire.plus/img/animes/aoi-sekai-no-chuushin-de/",
      "secao": "legendados",
      "pagina": 106,
      "total_episodios": 0,
      "link_video": "https://animefire.plus/video/aoi-sekai-no-chuushin-de"
    },
    {
      "id": 211,
      "nome": "Aoi Umi no Tristia",
      "link": "https://animefire.plus/animes/aoi-umi-no-tristia-todos-os-episodios",
      "texto_original": "Aoi Umi no Tristia",
      "rating": 5.71,
      "classificacao_etaria": "A10",
      "imagem_original": "https://animefire.plus/img/animes/aoi-umi-no-tristia.webp",
      "imagem_pasta": "https://animefire.plus/img/animes/aoi-umi-no-tristia/",
      "secao": "legendados",
      "pagina": 56,
      "total_episodios": 2,
      "link_video": "https://animefire.plus/video/aoi-umi-no-tristia"
    },
    {
      "id": 212,
      "nome": "Aoki Hagane no Arpeggio: Ars Nova",
      "link": "https://animefire.plus/animes/aoki-hagane-no-arpeggio-ars-nova-todos-os-episodios",
      "texto_original": "Aoki Hagane no Arpeggio: Ars Nova",
      "rating": 7.47,
      "classificacao_etaria": "A14",
      "imagem_original": "https://animefire.plus/img/animes/aoki-hagane-no-arpeggio-ars-nova.webp",
      "imagem_pasta": "https://animefire.plus/img/animes/aoki-hagane-no-arpeggio-ars-nova/",
      "secao": "legendados",
      "pagina": 147,
      "total_episodios": 5,
      "link_video": "https://animefire.plus/video/aoki-hagane-no-arpeggio-ars-nova"
    },
    {
      "id": 213,
      "nome": "Aoki Honoo",
      "link": "https://animefire.plus/animes/aoki-honoo-todos-os-episodios",
      "texto_original": "Aoki Honoo",
      "rating": 5.02,
      "classificacao_etaria": "A18",
      "imagem_original": "https://animefire.plus/img/animes/aoki-honoo.webp",
      "imagem_pasta": "https://animefire.plus/img/animes/aoki-honoo/",
      "secao": "legendados",
      "pagina": 65,
      "total_episodios": 1,
      "link_video": "https://animefire.plus/video/aoki-honoo"
    },
    {
      "id": 214,
      "nome": "Apocalypse Hotel",
      "link": "https://animefire.plus/animes/apocalypse-hotel-todos-os-episodios",
      "texto_original": "Apocalypse Hotel",
      "rating": 8.04,
      "classificacao_etaria": "A14",
      "imagem_original": "https://animefire.plus/img/animes/apocalypse-hotel.webp",
      "imagem_pasta": "https://animefire.plus/img/animes/apocalypse-hotel/",
      "secao": "legendados",
      "pagina": 4,
      "total_episodios": 12,
      "link_video": "https://animefire.plus/video/apocalypse-hotel"
    },
    {
      "id": 215,
      "nome": "Appare-Ranman! (Dublado)",
      "link": "https://animefire.plus/animes/appare-ranman-dublado-todos-os-episodios",
      "texto_original": "Appare-Ranman! (Dublado)",
      "rating": 7.29,
      "classificacao_etaria": "A14",
      "imagem_original": "https://animefire.plus/img/animes/appare-ranman.webp",
      "imagem_pasta": "https://animefire.plus/img/animes/appare-ranman/",
      "secao": "dublados,legendados",
      "pagina": 13,
      "total_episodios": 13,
      "link_video": "https://animefire.plus/video/appare-ranman-dublado"
    },
    {
      "id": 216,
      "nome": "Aquarion Evol",
      "link": "https://animefire.plus/animes/aquarion-evol-todos-os-episodios",
      "texto_original": "Aquarion Evol",
      "rating": 7.23,
      "classificacao_etaria": "A14",
      "imagem_original": "https://animefire.plus/img/animes/aquarion-evol.webp",
      "imagem_pasta": "https://animefire.plus/img/animes/aquarion-evol/",
      "secao": "legendados",
      "pagina": 158,
      "total_episodios": 25,
      "link_video": "https://animefire.plus/video/aquarion-evol"
    },
    {
      "id": 217,
      "nome": "Aquarion Logos",
      "link": "https://animefire.plus/animes/aquarion-logos-todos-os-episodios",
      "texto_original": "Aquarion Logos",
      "rating": 5.82,
      "classificacao_etaria": "A14",
      "imagem_original": "https://animefire.plus/img/animes/aquarion-logos.webp",
      "imagem_pasta": "https://animefire.plus/img/animes/aquarion-logos/",
      "secao": "legendados",
      "pagina": 152,
      "total_episodios": 4,
      "link_video": "https://animefire.plus/video/aquarion-logos"
    },
    {
      "id": 218,
      "nome": "Araburu Kisetsu no Otome-domo yo.",
      "link": "https://animefire.plus/animes/araburu-kisetsu-no-otome-domo-yo-todos-os-episodios",
      "texto_original": "Araburu Kisetsu no Otome-domo yo.",
      "rating": 7.5,
      "classificacao_etaria": "A14",
      "imagem_original": "https://animefire.plus/img/animes/araburu-kisetsu-no-otome-domo-yo.webp",
      "imagem_pasta": "https://animefire.plus/img/animes/araburu-kisetsu-no-otome-domo-yo/",
      "secao": "legendados",
      "pagina": 161,
      "total_episodios": 12,
      "link_video": "https://animefire.plus/video/araburu-kisetsu-no-otome-domo-yo"
    },
    {
      "id": 219,
      "nome": "Araiguma Calcal-dan",
      "link": "https://animefire.plus/animes/araiguma-calcal-dan-todos-os-episodios",
      "texto_original": "Araiguma Calcal-dan",
      "rating": null,
      "classificacao_etaria": null,
      "imagem_original": "https://animefire.plus/img/animes/araiguma-calcal-dan.webp",
      "imagem_pasta": "https://animefire.plus/img/animes/araiguma-calcal-dan/",
      "secao": "legendados,lancamentos",
      "pagina": 4,
      "total_episodios": 0,
      "link_video": "https://animefire.plus/video/araiguma-calcal-dan"
    },
    {
      "id": 220,
      "nome": "Arakawa Under the Bridge",
      "link": "https://animefire.plus/animes/arakawa-under-the-bridge-todos-os-episodios",
      "texto_original": "Arakawa Under the Bridge",
      "rating": 7.65,
      "classificacao_etaria": "A14",
      "imagem_original": "https://animefire.plus/img/animes/arakawa-under-the-bridge.webp",
      "imagem_pasta": "https://animefire.plus/img/animes/arakawa-under-the-bridge/",
      "secao": "legendados",
      "pagina": 166,
      "total_episodios": 13,
      "link_video": "https://animefire.plus/video/arakawa-under-the-bridge"
    },
    {
      "id": 221,
      "nome": "Arakawa Under The Bridge X Bridge",
      "link": "https://animefire.plus/animes/arakawa-under-the-bridge-x-bridge-todos-os-episodios",
      "texto_original": "Arakawa Under The Bridge X Bridge",
      "rating": 7.79,
      "classificacao_etaria": "A14",
      "imagem_original": "https://animefire.plus/img/animes/arakawa-under-the-bridge-x-bridge.webp",
      "imagem_pasta": "https://animefire.plus/img/animes/arakawa-under-the-bridge-x-bridge/",
      "secao": "legendados",
      "pagina": 97,
      "total_episodios": 13,
      "link_video": "https://animefire.plus/video/arakawa-under-the-bridge-x-bridge"
    },
    {
      "id": 222,
      "nome": "Arata Kangatari",
      "link": "https://animefire.plus/animes/arata-kangatari-todos-os-episodios",
      "texto_original": "Arata Kangatari",
      "rating": 6.59,
      "classificacao_etaria": "A14",
      "imagem_original": "https://animefire.plus/img/animes/arata-kangatari.webp",
      "imagem_pasta": "https://animefire.plus/img/animes/arata-kangatari/",
      "secao": "legendados",
      "pagina": 168,
      "total_episodios": 1,
      "link_video": "https://animefire.plus/video/arata-kangatari"
    },
    {
      "id": 223,
      "nome": "Arc The Lad",
      "link": "https://animefire.plus/animes/arc-the-lad-todos-os-episodios",
      "texto_original": "Arc The Lad",
      "rating": 6.58,
      "classificacao_etaria": "A16",
      "imagem_original": "https://animefire.plus/img/animes/arc-the-lad.webp",
      "imagem_pasta": "https://animefire.plus/img/animes/arc-the-lad/",
      "secao": "legendados",
      "pagina": 96,
      "total_episodios": 26,
      "link_video": "https://animefire.plus/video/arc-the-lad"
    }
  ],
  "pagination": {
    "current_page": 11,
    "per_page": 20,
    "total_items": 4269,
    "total_pages": 214,
    "has_next": true,
    "has_prev": true
  }
}
