{
  "message": "Animes da seção: legendados",
  "section": "legendados",
  "data": [
    {
      "id": 433,
      "nome": "Bloodivores",
      "link": "https://animefire.plus/animes/bloodivores-todos-os-episodios",
      "texto_original": "Bloodivores",
      "rating": 5.64,
      "classificacao_etaria": "A16",
      "imagem_original": "https://animefire.plus/img/animes/bloodivores.webp",
      "imagem_pasta": "https://animefire.plus/img/animes/bloodivores/",
      "secao": "legendados",
      "pagina": 130,
      "total_episodios": 12,
      "link_video": "https://animefire.plus/video/bloodivores"
    },
    {
      "id": 434,
      "nome": "Blue Archive the Animation",
      "link": "https://animefire.plus/animes/blue-archive-the-animation-todos-os-episodios",
      "texto_original": "Blue Archive the Animation",
      "rating": 7.36,
      "classificacao_etaria": "A14",
      "imagem_original": "https://animefire.plus/img/animes/blue-archive-the-animation.webp",
      "imagem_pasta": "https://animefire.plus/img/animes/blue-archive-the-animation/",
      "secao": "legendados",
      "pagina": 15,
      "total_episodios": 12,
      "link_video": "https://animefire.plus/video/blue-archive-the-animation"
    },
    {
      "id": 436,
      "nome": "Blue Dragon: Tenkai no Shichi Ryuu",
      "link": "https://animefire.plus/animes/blue-dragon-tenkai-no-shichi-ryuu-todos-os-episodios",
      "texto_original": "Blue Dragon: Tenkai no Shichi Ryuu",
      "rating": 6.67,
      "classificacao_etaria": "A10",
      "imagem_original": "https://animefire.plus/img/animes/blue-dragon-tenkai-no-shichi-ryuu.webp",
      "imagem_pasta": "https://animefire.plus/img/animes/blue-dragon-tenkai-no-shichi-ryuu/",
      "secao": "legendados",
      "pagina": 115,
      "total_episodios": 26,
      "link_video": "https://animefire.plus/video/blue-dragon-tenkai-no-shichi-ryuu"
    },
    {
      "id": 437,
      "nome": "Blue Drop: Tenshi-tachi no Gikyoku",
      "link": "https://animefire.plus/animes/blue-drop-tenshi-tachi-no-gikyoku-todos-os-episodios",
      "texto_original": "Blue Drop: Tenshi-tachi no Gikyoku",
      "rating": 6.75,
      "classificacao_etaria": "A14",
      "imagem_original": "https://animefire.plus/img/animes/blue-drop-tenshi-tachi-no-gikyoku.webp",
      "imagem_pasta": "https://animefire.plus/img/animes/blue-drop-tenshi-tachi-no-gikyoku/",
      "secao": "legendados",
      "pagina": 75,
      "total_episodios": 13,
      "link_video": "https://animefire.plus/video/blue-drop-tenshi-tachi-no-gikyoku"
    },
    {
      "id": 438,
      "nome": "Blue Gender",
      "link": "https://animefire.plus/animes/blue-gender-todos-os-episodios",
      "texto_original": "Blue Gender",
      "rating": 7.1,
      "classificacao_etaria": "A18",
      "imagem_original": "https://animefire.plus/img/animes/blue-gender.webp",
      "imagem_pasta": "https://animefire.plus/img/animes/blue-gender/",
      "secao": "legendados",
      "pagina": 173,
      "total_episodios": 26,
      "link_video": "https://animefire.plus/video/blue-gender"
    },
    {
      "id": 439,
      "nome": "Blue Lock (Dublado)",
      "link": "https://animefire.plus/animes/blue-lock-dublado-todos-os-episodios",
      "texto_original": "Blue Lock (Dublado)",
      "rating": 8.17,
      "classificacao_etaria": "A14",
      "imagem_original": "https://animefire.plus/img/animes/blue-lock.webp",
      "imagem_pasta": "https://animefire.plus/img/animes/blue-lock/",
      "secao": "dublados,legendados,lancamentos",
      "pagina": 8,
      "total_episodios": 24,
      "link_video": "https://animefire.plus/video/blue-lock-dublado"
    },
    {
      "id": 440,
      "nome": "Blue Lock vs. U-20 Japan (Dublado)",
      "link": "https://animefire.plus/animes/blue-lock-vs-u-20-japan-dublado-todos-os-episodios",
      "texto_original": "Blue Lock vs. U-20 Japan (Dublado)",
      "rating": 7.55,
      "classificacao_etaria": "A14",
      "imagem_original": "https://animefire.plus/img/animes/blue-lock-vs-u-20-japan.webp",
      "imagem_pasta": "https://animefire.plus/img/animes/blue-lock-vs-u-20-japan/",
      "secao": "dublados,legendados,lancamentos",
      "pagina": 2,
      "total_episodios": 14,
      "link_video": "https://animefire.plus/video/blue-lock-vs-u-20-japan-dublado"
    },
    {
      "id": 441,
      "nome": "Blue Period (Dublado)",
      "link": "https://animefire.plus/animes/blue-period-dublado-todos-os-episodios",
      "texto_original": "Blue Period (Dublado)",
      "rating": 7.79,
      "classificacao_etaria": "A14",
      "imagem_original": "https://animefire.plus/img/animes/blue-period.webp",
      "imagem_pasta": "https://animefire.plus/img/animes/blue-period/",
      "secao": "dublados,legendados",
      "pagina": 12,
      "total_episodios": 12,
      "link_video": "https://animefire.plus/video/blue-period-dublado"
    },
    {
      "id": 442,
      "nome": "Blue Reflection Ray (Dublado)",
      "link": "https://animefire.plus/animes/blue-reflection-ray-dublado-todos-os-episodios",
      "texto_original": "Blue Reflection Ray (Dublado)",
      "rating": 5.87,
      "classificacao_etaria": "A14",
      "imagem_original": "https://animefire.plus/img/animes/blue-reflection-ray.webp",
      "imagem_pasta": "https://animefire.plus/img/animes/blue-reflection-ray/",
      "secao": "dublados,legendados",
      "pagina": 10,
      "total_episodios": 24,
      "link_video": "https://animefire.plus/video/blue-reflection-ray-dublado"
    },
    {
      "id": 443,
      "nome": "Blue Seed",
      "link": "https://animefire.plus/animes/blue-seed-todos-os-episodios",
      "texto_original": "Blue Seed",
      "rating": 7.09,
      "classificacao_etaria": "A14",
      "imagem_original": "https://animefire.plus/img/animes/blue-seed.webp",
      "imagem_pasta": "https://animefire.plus/img/animes/blue-seed/",
      "secao": "legendados",
      "pagina": 100,
      "total_episodios": 26,
      "link_video": "https://animefire.plus/video/blue-seed"
    },
    {
      "id": 444,
      "nome": "Blue Seed 2",
      "link": "https://animefire.plus/animes/blue-seed-2-todos-os-episodios",
      "texto_original": "Blue Seed 2",
      "rating": 6.45,
      "classificacao_etaria": "A16",
      "imagem_original": "https://animefire.plus/img/animes/blue-seed-2.webp",
      "imagem_pasta": "https://animefire.plus/img/animes/blue-seed-2/",
      "secao": "legendados",
      "pagina": 54,
      "total_episodios": 1,
      "link_video": "https://animefire.plus/video/blue-seed-2"
    },
    {
      "id": 446,
      "nome": "Bocchi the Rock!",
      "link": "https://animefire.plus/animes/bocchi-the-rock-todos-os-episodios",
      "texto_original": "Bocchi the Rock!",
      "rating": 8.75,
      "classificacao_etaria": "A14",
      "imagem_original": "https://animefire.plus/img/animes/bocchi-the-rock.webp",
      "imagem_pasta": "https://animefire.plus/img/animes/bocchi-the-rock/",
      "secao": "legendados",
      "pagina": 29,
      "total_episodios": 12,
      "link_video": "https://animefire.plus/video/bocchi-the-rock"
    },
    {
      "id": 447,
      "nome": "Boku dake ga Inai Machi",
      "link": "https://animefire.plus/animes/boku-dake-ga-inai-machi-todos-os-episodios",
      "texto_original": "Boku dake ga Inai Machi",
      "rating": 8.53,
      "classificacao_etaria": "A16",
      "imagem_original": "https://animefire.plus/img/animes/boku-dake-ga-inai-machi.webp",
      "imagem_pasta": "https://animefire.plus/img/animes/boku-dake-ga-inai-machi/",
      "secao": "legendados",
      "pagina": 118,
      "total_episodios": 0,
      "link_video": "https://animefire.plus/video/boku-dake-ga-inai-machi"
    },
    {
      "id": 448,
      "nome": "Boku no Hero Academia (Dublado)",
      "link": "https://animefire.plus/animes/boku-no-hero-academia-dublado-todos-os-episodios",
      "texto_original": "Boku no Hero Academia (Dublado)",
      "rating": 8.16,
      "classificacao_etaria": "A14",
      "imagem_original": "https://animefire.plus/img/animes/boku-no-hero-academia.webp",
      "imagem_pasta": "https://animefire.plus/img/animes/boku-no-hero-academia/",
      "secao": "dublados,legendados",
      "pagina": 20,
      "total_episodios": 13,
      "link_video": "https://animefire.plus/video/boku-no-hero-academia-dublado"
    },
    {
      "id": 449,
      "nome": "Boku no Hero Academia 2nd Season",
      "link": "https://animefire.plus/animes/boku-no-hero-academia-2nd-season-todos-os-episodios",
      "texto_original": "Boku no Hero Academia 2nd Season",
      "rating": 8.65,
      "classificacao_etaria": "A14",
      "imagem_original": "https://animefire.plus/img/animes/boku-no-hero-academia-2nd-season.webp",
      "imagem_pasta": "https://animefire.plus/img/animes/boku-no-hero-academia-2nd-season/",
      "secao": "legendados",
      "pagina": 137,
      "total_episodios": 0,
      "link_video": "https://animefire.plus/video/boku-no-hero-academia-2nd-season"
    },
    {
      "id": 451,
      "nome": "Boku no Hero Academia 3rd Season",
      "link": "https://animefire.plus/animes/boku-no-hero-academia-3rd-season-todos-os-episodios",
      "texto_original": "Boku no Hero Academia 3rd Season",
      "rating": 8.62,
      "classificacao_etaria": "A14",
      "imagem_original": "https://animefire.plus/img/animes/boku-no-hero-academia-3rd-season.webp",
      "imagem_pasta": "https://animefire.plus/img/animes/boku-no-hero-academia-3rd-season/",
      "secao": "legendados",
      "pagina": 122,
      "total_episodios": 0,
      "link_video": "https://animefire.plus/video/boku-no-hero-academia-3rd-season"
    },
    {
      "id": 453,
      "nome": "Boku no Hero Academia 4th Season",
      "link": "https://animefire.plus/animes/boku-no-hero-academia-4th-season-todos-os-episodios",
      "texto_original": "Boku no Hero Academia 4th Season",
      "rating": 8.06,
      "classificacao_etaria": "A14",
      "imagem_original": "https://animefire.plus/img/animes/boku-no-hero-academia-4th-season.webp",
      "imagem_pasta": "https://animefire.plus/img/animes/boku-no-hero-academia-4th-season/",
      "secao": "legendados",
      "pagina": 109,
      "total_episodios": 0,
      "link_video": "https://animefire.plus/video/boku-no-hero-academia-4th-season"
    },
    {
      "id": 455,
      "nome": "Boku no Hero Academia 5th Season",
      "link": "https://animefire.plus/animes/boku-no-hero-academia-5th-season-todos-os-episodios",
      "texto_original": "Boku no Hero Academia 5th Season",
      "rating": 7.35,
      "classificacao_etaria": "A14",
      "imagem_original": "https://animefire.plus/img/animes/boku-no-hero-academia-5th-season.webp",
      "imagem_pasta": "https://animefire.plus/img/animes/boku-no-hero-academia-5th-season/",
      "secao": "legendados",
      "pagina": 46,
      "total_episodios": 0,
      "link_video": "https://animefire.plus/video/boku-no-hero-academia-5th-season"
    },
    {
      "id": 457,
      "nome": "Boku no Hero Academia 6th Season (Dublado)",
      "link": "https://animefire.plus/animes/boku-no-hero-academia-6th-season-dublado-todos-os-episodios",
      "texto_original": "Boku no Hero Academia 6th Season (Dublado)",
      "rating": 8.23,
      "classificacao_etaria": "A14",
      "imagem_original": "https://animefire.plus/img/animes/boku-no-hero-academia-6th-season.webp",
      "imagem_pasta": "https://animefire.plus/img/animes/boku-no-hero-academia-6th-season/",
      "secao": "dublados,legendados,lancamentos",
      "pagina": 9,
      "total_episodios": 25,
      "link_video": "https://animefire.plus/video/boku-no-hero-academia-6th-season-dublado"
    },
    {
      "id": 458,
      "nome": "Boku no Hero Academia 7th Season",
      "link": "https://animefire.plus/animes/boku-no-hero-academia-7th-season-todos-os-episodios",
      "texto_original": "Boku no Hero Academia 7th Season",
      "rating": null,
      "classificacao_etaria": "A14",
      "imagem_original": "https://animefire.plus/img/animes/boku-no-hero-academia-7th-season.webp",
      "imagem_pasta": "https://animefire.plus/img/animes/boku-no-hero-academia-7th-season/",
      "secao": "legendados",
      "pagina": 19,
      "total_episodios": 21,
      "link_video": "https://animefire.plus/video/boku-no-hero-academia-7th-season"
    }
  ],
  "pagination": {
    "current_page": 22,
    "per_page": 20,
    "total_items": 4269,
    "total_pages": 214,
    "has_next": true,
    "has_prev": true
  }
}
