{
  "message": "Animes da seção: legendados",
  "section": "legendados",
  "data": [
    {
      "id": 1934,
      "nome": "Kemeko Deluxe!",
      "link": "https://animefire.plus/animes/kemeko-deluxe-todos-os-episodios",
      "texto_original": "Kemeko Deluxe!",
      "rating": 6.67,
      "classificacao_etaria": "A14",
      "imagem_original": "https://animefire.plus/img/animes/kemeko-deluxe.webp",
      "imagem_pasta": "https://animefire.plus/img/animes/kemeko-deluxe/",
      "secao": "legendados",
      "pagina": 137,
      "total_episodios": 12,
      "link_video": "https://animefire.plus/video/kemeko-deluxe"
    },
    {
      "id": 1935,
      "nome": "Kemono Friends",
      "link": "https://animefire.plus/animes/kemono-friends-todos-os-episodios",
      "texto_original": "Kemono Friends",
      "rating": 7.61,
      "classificacao_etaria": "A10",
      "imagem_original": "https://animefire.plus/img/animes/kemono-friends.webp",
      "imagem_pasta": "https://animefire.plus/img/animes/kemono-friends/",
      "secao": "legendados",
      "pagina": 63,
      "total_episodios": 12,
      "link_video": "https://animefire.plus/video/kemono-friends"
    },
    {
      "id": 1936,
      "nome": "Kemono Friends 2",
      "link": "https://animefire.plus/animes/kemono-friends-2-todos-os-episodios",
      "texto_original": "Kemono Friends 2",
      "rating": 5.87,
      "classificacao_etaria": "A14",
      "imagem_original": "https://animefire.plus/img/animes/kemono-friends-2.webp",
      "imagem_pasta": "https://animefire.plus/img/animes/kemono-friends-2/",
      "secao": "legendados",
      "pagina": 112,
      "total_episodios": 2,
      "link_video": "https://animefire.plus/video/kemono-friends-2"
    },
    {
      "id": 1937,
      "nome": "Kemono Jihen (Dublado)",
      "link": "https://animefire.plus/animes/kemono-jihen-dublado-todos-os-episodios",
      "texto_original": "Kemono Jihen (Dublado)",
      "rating": 7.36,
      "classificacao_etaria": "A16",
      "imagem_original": "https://animefire.plus/img/animes/kemono-jihen.webp",
      "imagem_pasta": "https://animefire.plus/img/animes/kemono-jihen/",
      "secao": "dublados,legendados",
      "pagina": 10,
      "total_episodios": 12,
      "link_video": "https://animefire.plus/video/kemono-jihen-dublado"
    },
    {
      "id": 1938,
      "nome": "Kemono no Souja Erin",
      "link": "https://animefire.plus/animes/kemono-no-souja-erin-todos-os-episodios",
      "texto_original": "Kemono no Souja Erin",
      "rating": 8.37,
      "classificacao_etaria": "A14",
      "imagem_original": "https://animefire.plus/img/animes/kemono-no-souja-erin.webp",
      "imagem_pasta": "https://animefire.plus/img/animes/kemono-no-souja-erin/",
      "secao": "legendados",
      "pagina": 72,
      "total_episodios": 50,
      "link_video": "https://animefire.plus/video/kemono-no-souja-erin"
    },
    {
      "id": 1939,
      "nome": "Kemonozume",
      "link": "https://animefire.plus/animes/kemonozume-todos-os-episodios",
      "texto_original": "Kemonozume",
      "rating": 7.46,
      "classificacao_etaria": "A18",
      "imagem_original": "https://animefire.plus/img/animes/kemonozume.webp",
      "imagem_pasta": "https://animefire.plus/img/animes/kemonozume/",
      "secao": "legendados",
      "pagina": 99,
      "total_episodios": 13,
      "link_video": "https://animefire.plus/video/kemonozume"
    },
    {
      "id": 1940,
      "nome": "Kemurikusa (TV)",
      "link": "https://animefire.plus/animes/kemurikusa-tv-todos-os-episodios",
      "texto_original": "Kemurikusa (TV)",
      "rating": 7.1,
      "classificacao_etaria": "A14",
      "imagem_original": "https://animefire.plus/img/animes/kemurikusa-tv.webp",
      "imagem_pasta": "https://animefire.plus/img/animes/kemurikusa-tv/",
      "secao": "legendados",
      "pagina": 60,
      "total_episodios": 12,
      "link_video": "https://animefire.plus/video/kemurikusa-tv"
    },
    {
      "id": 1941,
      "nome": "Ken En Ken: Aoki Kagayaki",
      "link": "https://animefire.plus/animes/ken-en-ken-aoki-kagayaki-todos-os-episodios",
      "texto_original": "Ken En Ken: Aoki Kagayaki",
      "rating": 6.14,
      "classificacao_etaria": "A14",
      "imagem_original": "https://animefire.plus/img/animes/ken-en-ken-aoki-kagayaki.webp",
      "imagem_pasta": "https://animefire.plus/img/animes/ken-en-ken-aoki-kagayaki/",
      "secao": "legendados",
      "pagina": 159,
      "total_episodios": 13,
      "link_video": "https://animefire.plus/video/ken-en-ken-aoki-kagayaki"
    },
    {
      "id": 1942,
      "nome": "Kengan Ashura (Dublado)",
      "link": "https://animefire.plus/animes/kengan-ashura-dublado-todos-os-episodios",
      "texto_original": "Kengan Ashura (Dublado)",
      "rating": 7.47,
      "classificacao_etaria": "A16",
      "imagem_original": "https://animefire.plus/img/animes/kengan-ashura.webp",
      "imagem_pasta": "https://animefire.plus/img/animes/kengan-ashura/",
      "secao": "dublados,legendados",
      "pagina": 25,
      "total_episodios": 12,
      "link_video": "https://animefire.plus/video/kengan-ashura-dublado"
    },
    {
      "id": 1944,
      "nome": "Kenja no Deshi wo Nanoru Kenja",
      "link": "https://animefire.plus/animes/kenja-no-deshi-wo-nanoru-kenja-todos-os-episodios",
      "texto_original": "Kenja no Deshi wo Nanoru Kenja",
      "rating": 6.33,
      "classificacao_etaria": "A14",
      "imagem_original": "https://animefire.plus/img/animes/kenja-no-deshi-wo-nanoru-kenja.webp",
      "imagem_pasta": "https://animefire.plus/img/animes/kenja-no-deshi-wo-nanoru-kenja/",
      "secao": "legendados",
      "pagina": 37,
      "total_episodios": 12,
      "link_video": "https://animefire.plus/video/kenja-no-deshi-wo-nanoru-kenja"
    },
    {
      "id": 1945,
      "nome": "Kenja no Mago (Dublado)",
      "link": "https://animefire.plus/animes/kenja-no-mago-dublado-todos-os-episodios",
      "texto_original": "Kenja no Mago (Dublado)",
      "rating": 6.58,
      "classificacao_etaria": "A14",
      "imagem_original": "https://animefire.plus/img/animes/kenja-no-mago.webp",
      "imagem_pasta": "https://animefire.plus/img/animes/kenja-no-mago/",
      "secao": "dublados,legendados",
      "pagina": 15,
      "total_episodios": 12,
      "link_video": "https://animefire.plus/video/kenja-no-mago-dublado"
    },
    {
      "id": 1946,
      "nome": "Kenka Banchou Otome: Girl Beats Boys",
      "link": "https://animefire.plus/animes/kenka-banchou-otome-girl-beats-boys-todos-os-episodios",
      "texto_original": "Kenka Banchou Otome: Girl Beats Boys",
      "rating": 6.59,
      "classificacao_etaria": "A14",
      "imagem_original": "https://animefire.plus/img/animes/kenka-banchou-otome-girl-beats-boys.webp",
      "imagem_pasta": "https://animefire.plus/img/animes/kenka-banchou-otome-girl-beats-boys/",
      "secao": "legendados",
      "pagina": 155,
      "total_episodios": 12,
      "link_video": "https://animefire.plus/video/kenka-banchou-otome-girl-beats-boys"
    },
    {
      "id": 1947,
      "nome": "Kenka Dokugaku",
      "link": "https://animefire.plus/animes/kenka-dokugaku-todos-os-episodios",
      "texto_original": "Kenka Dokugaku",
      "rating": 7.33,
      "classificacao_etaria": "A14",
      "imagem_original": "https://animefire.plus/img/animes/kenka-dokugaku.webp",
      "imagem_pasta": "https://animefire.plus/img/animes/kenka-dokugaku/",
      "secao": "legendados",
      "pagina": 14,
      "total_episodios": 12,
      "link_video": "https://animefire.plus/video/kenka-dokugaku"
    },
    {
      "id": 1948,
      "nome": "Kenkou Zenrakei Suieibu Umishou",
      "link": "https://animefire.plus/animes/kenkou-zenrakei-suieibu-umishou-todos-os-episodios",
      "texto_original": "Kenkou Zenrakei Suieibu Umishou",
      "rating": 7.17,
      "classificacao_etaria": "A14",
      "imagem_original": "https://animefire.plus/img/animes/kenkou-zenrakei-suieibu-umishou.webp",
      "imagem_pasta": "https://animefire.plus/img/animes/kenkou-zenrakei-suieibu-umishou/",
      "secao": "legendados",
      "pagina": 77,
      "total_episodios": 13,
      "link_video": "https://animefire.plus/video/kenkou-zenrakei-suieibu-umishou"
    },
    {
      "id": 1949,
      "nome": "Kennel Tokorozawa",
      "link": "https://animefire.plus/animes/kennel-tokorozawa-todos-os-episodios",
      "texto_original": "Kennel Tokorozawa",
      "rating": 4.44,
      "classificacao_etaria": "A18",
      "imagem_original": "https://animefire.plus/img/animes/kennel-tokorozawa.webp",
      "imagem_pasta": "https://animefire.plus/img/animes/kennel-tokorozawa/",
      "secao": "legendados",
      "pagina": 71,
      "total_episodios": 1,
      "link_video": "https://animefire.plus/video/kennel-tokorozawa"
    },
    {
      "id": 1950,
      "nome": "Kenpuu Denki Berserk",
      "link": "https://animefire.plus/animes/kenpuu-denki-berserk-todos-os-episodios",
      "texto_original": "Kenpuu Denki Berserk",
      "rating": 8.47,
      "classificacao_etaria": "A18",
      "imagem_original": "https://animefire.plus/img/animes/kenpuu-denki-berserk.webp",
      "imagem_pasta": "https://animefire.plus/img/animes/kenpuu-denki-berserk/",
      "secao": "legendados",
      "pagina": 126,
      "total_episodios": 25,
      "link_video": "https://animefire.plus/video/kenpuu-denki-berserk"
    },
    {
      "id": 1951,
      "nome": "Kenran Butou Sai: The Mars Daybreak",
      "link": "https://animefire.plus/animes/kenran-butou-sai-the-mars-daybreak-todos-os-episodios",
      "texto_original": "Kenran Butou Sai: The Mars Daybreak",
      "rating": 7.23,
      "classificacao_etaria": "A14",
      "imagem_original": "https://animefire.plus/img/animes/kenran-butou-sai-the-mars-daybreak.webp",
      "imagem_pasta": "https://animefire.plus/img/animes/kenran-butou-sai-the-mars-daybreak/",
      "secao": "legendados",
      "pagina": 138,
      "total_episodios": 26,
      "link_video": "https://animefire.plus/video/kenran-butou-sai-the-mars-daybreak"
    },
    {
      "id": 1952,
      "nome": "Kenzen Robo Daimidaler",
      "link": "https://animefire.plus/animes/kenzen-robo-daimidaler-todos-os-episodios",
      "texto_original": "Kenzen Robo Daimidaler",
      "rating": 6.24,
      "classificacao_etaria": "A18",
      "imagem_original": "https://animefire.plus/img/animes/kenzen-robo-daimidaler.webp",
      "imagem_pasta": "https://animefire.plus/img/animes/kenzen-robo-daimidaler/",
      "secao": "legendados",
      "pagina": 114,
      "total_episodios": 12,
      "link_video": "https://animefire.plus/video/kenzen-robo-daimidaler"
    },
    {
      "id": 1953,
      "nome": "Keppeki Danshi! Aoyama-kun",
      "link": "https://animefire.plus/animes/keppeki-danshi-aoyama-kun-todos-os-episodios",
      "texto_original": "Keppeki Danshi! Aoyama-kun",
      "rating": 7.06,
      "classificacao_etaria": "A14",
      "imagem_original": "https://animefire.plus/img/animes/keppeki-danshi-aoyama-kun.webp",
      "imagem_pasta": "https://animefire.plus/img/animes/keppeki-danshi-aoyama-kun/",
      "secao": "legendados",
      "pagina": 103,
      "total_episodios": 0,
      "link_video": "https://animefire.plus/video/keppeki-danshi-aoyama-kun"
    },
    {
      "id": 1954,
      "nome": "Key the Metal Idol",
      "link": "https://animefire.plus/animes/key-the-metal-idol-todos-os-episodios",
      "texto_original": "Key the Metal Idol",
      "rating": 6.91,
      "classificacao_etaria": "A18",
      "imagem_original": "https://animefire.plus/img/animes/key-the-metal-idol.webp",
      "imagem_pasta": "https://animefire.plus/img/animes/key-the-metal-idol/",
      "secao": "legendados",
      "pagina": 44,
      "total_episodios": 15,
      "link_video": "https://animefire.plus/video/key-the-metal-idol"
    }
  ],
  "pagination": {
    "current_page": 95,
    "per_page": 20,
    "total_items": 4269,
    "total_pages": 214,
    "has_next": true,
    "has_prev": true
  }
}
