{
  "message": "Animes da seção: legendados",
  "section": "legendados",
  "data": [
    {
      "id": 4030,
      "nome": "UQ Holder!: Mahou Sensei Negima! 2",
      "link": "https://animefire.plus/animes/uq-holder-mahou-sensei-negima-2-todos-os-episodios",
      "texto_original": "UQ Holder!: Mahou Sensei Negima! 2",
      "rating": 7.15,
      "classificacao_etaria": "A14",
      "imagem_original": "https://animefire.plus/img/animes/uq-holder-mahou-sensei-negima-2.webp",
      "imagem_pasta": "https://animefire.plus/img/animes/uq-holder-mahou-sensei-negima-2/",
      "secao": "legendados",
      "pagina": 114,
      "total_episodios": 12,
      "link_video": "https://animefire.plus/video/uq-holder-mahou-sensei-negima-2"
    },
    {
      "id": 4031,
      "nome": "Uragiri wa Boku no Namae wo Shitteiru",
      "link": "https://animefire.plus/animes/uragiri-wa-boku-no-namae-wo-shitteiru-todos-os-episodios",
      "texto_original": "Uragiri wa Boku no Namae wo Shitteiru",
      "rating": 7.37,
      "classificacao_etaria": "A16",
      "imagem_original": "https://animefire.plus/img/animes/uragiri-wa-boku-no-namae-wo-shitteiru.webp",
      "imagem_pasta": "https://animefire.plus/img/animes/uragiri-wa-boku-no-namae-wo-shitteiru/",
      "secao": "legendados",
      "pagina": 164,
      "total_episodios": 24,
      "link_video": "https://animefire.plus/video/uragiri-wa-boku-no-namae-wo-shitteiru"
    },
    {
      "id": 4032,
      "nome": "Urahara",
      "link": "https://animefire.plus/animes/urahara-todos-os-episodios",
      "texto_original": "Urahara",
      "rating": 5.82,
      "classificacao_etaria": "A14",
      "imagem_original": "https://animefire.plus/img/animes/urahara.webp",
      "imagem_pasta": "https://animefire.plus/img/animes/urahara/",
      "secao": "legendados",
      "pagina": 73,
      "total_episodios": 12,
      "link_video": "https://animefire.plus/video/urahara"
    },
    {
      "id": 4033,
      "nome": "Uramichi Oniisan (Dublado)",
      "link": "https://animefire.plus/animes/uramichi-oniisan-dublado-todos-os-episodios",
      "texto_original": "Uramichi Oniisan (Dublado)",
      "rating": 7.7,
      "classificacao_etaria": "A14",
      "imagem_original": "https://animefire.plus/img/animes/uramichi-oniisan.webp",
      "imagem_pasta": "https://animefire.plus/img/animes/uramichi-oniisan/",
      "secao": "dublados,legendados",
      "pagina": 12,
      "total_episodios": 13,
      "link_video": "https://animefire.plus/video/uramichi-oniisan-dublado"
    },
    {
      "id": 4034,
      "nome": "Urara Meirochou",
      "link": "https://animefire.plus/animes/urara-meirochou-todos-os-episodios",
      "texto_original": "Urara Meirochou",
      "rating": 7.2,
      "classificacao_etaria": "A14",
      "imagem_original": "https://animefire.plus/img/animes/urara-meirochou.webp",
      "imagem_pasta": "https://animefire.plus/img/animes/urara-meirochou/",
      "secao": "legendados",
      "pagina": 115,
      "total_episodios": 1,
      "link_video": "https://animefire.plus/video/urara-meirochou"
    },
    {
      "id": 4035,
      "nome": "Urasekai Picnic",
      "link": "https://animefire.plus/animes/urasekai-picnic-todos-os-episodios",
      "texto_original": "Urasekai Picnic",
      "rating": 6.66,
      "classificacao_etaria": "A16",
      "imagem_original": "https://animefire.plus/img/animes/urasekai-picnic.webp",
      "imagem_pasta": "https://animefire.plus/img/animes/urasekai-picnic/",
      "secao": "legendados",
      "pagina": 49,
      "total_episodios": 12,
      "link_video": "https://animefire.plus/video/urasekai-picnic"
    },
    {
      "id": 4036,
      "nome": "Urashimasakatasen no Nichijou",
      "link": "https://animefire.plus/animes/urashimasakatasen-no-nichijou-todos-os-episodios",
      "texto_original": "Urashimasakatasen no Nichijou",
      "rating": 5.96,
      "classificacao_etaria": "A14",
      "imagem_original": "https://animefire.plus/img/animes/urashimasakatasen-no-nichijou.webp",
      "imagem_pasta": "https://animefire.plus/img/animes/urashimasakatasen-no-nichijou/",
      "secao": "legendados",
      "pagina": 111,
      "total_episodios": 0,
      "link_video": "https://animefire.plus/video/urashimasakatasen-no-nichijou"
    },
    {
      "id": 4037,
      "nome": "Urawa no Usagi-chan",
      "link": "https://animefire.plus/animes/urawa-no-usagi-chan-todos-os-episodios",
      "texto_original": "Urawa no Usagi-chan",
      "rating": 5.4,
      "classificacao_etaria": "A10",
      "imagem_original": "https://animefire.plus/img/animes/urawa-no-usagi-chan.webp",
      "imagem_pasta": "https://animefire.plus/img/animes/urawa-no-usagi-chan/",
      "secao": "legendados",
      "pagina": 67,
      "total_episodios": 12,
      "link_video": "https://animefire.plus/video/urawa-no-usagi-chan"
    },
    {
      "id": 4038,
      "nome": "Urusei Yatsura",
      "link": "https://animefire.plus/animes/urusei-yatsura-todos-os-episodios",
      "texto_original": "Urusei Yatsura",
      "rating": 7.75,
      "classificacao_etaria": "A14",
      "imagem_original": "https://animefire.plus/img/animes/urusei-yatsura.webp",
      "imagem_pasta": "https://animefire.plus/img/animes/urusei-yatsura/",
      "secao": "legendados",
      "pagina": 168,
      "total_episodios": 195,
      "link_video": "https://animefire.plus/video/urusei-yatsura"
    },
    {
      "id": 4039,
      "nome": "Urusei Yatsura (2022)",
      "link": "https://animefire.plus/animes/urusei-yatsura-2022-todos-os-episodios",
      "texto_original": "Urusei Yatsura (2022)",
      "rating": 7.4,
      "classificacao_etaria": "A14",
      "imagem_original": "https://animefire.plus/img/animes/urusei-yatsura-2022.webp",
      "imagem_pasta": "https://animefire.plus/img/animes/urusei-yatsura-2022/",
      "secao": "legendados",
      "pagina": 29,
      "total_episodios": 23,
      "link_video": "https://animefire.plus/video/urusei-yatsura-2022"
    },
    {
      "id": 4040,
      "nome": "Urusei Yatsura (2022) 2nd Season",
      "link": "https://animefire.plus/animes/urusei-yatsura-2022-2nd-season-todos-os-episodios",
      "texto_original": "Urusei Yatsura (2022) 2nd Season",
      "rating": 7.84,
      "classificacao_etaria": "A14",
      "imagem_original": "https://animefire.plus/img/animes/urusei-yatsura-2022-2nd-season.webp",
      "imagem_pasta": "https://animefire.plus/img/animes/urusei-yatsura-2022-2nd-season/",
      "secao": "legendados",
      "pagina": 17,
      "total_episodios": 23,
      "link_video": "https://animefire.plus/video/urusei-yatsura-2022-2nd-season"
    },
    {
      "id": 4041,
      "nome": "Usagi Drop",
      "link": "https://animefire.plus/animes/usagi-drop-todos-os-episodios",
      "texto_original": "Usagi Drop",
      "rating": 8.49,
      "classificacao_etaria": "A14",
      "imagem_original": "https://animefire.plus/img/animes/usagi-drop.webp",
      "imagem_pasta": "https://animefire.plus/img/animes/usagi-drop/",
      "secao": "legendados",
      "pagina": 169,
      "total_episodios": 0,
      "link_video": "https://animefire.plus/video/usagi-drop"
    },
    {
      "id": 4042,
      "nome": "Usagi-chan de Cue!!",
      "link": "https://animefire.plus/animes/usagi-chan-de-cue-todos-os-episodios",
      "texto_original": "Usagi-chan de Cue!!",
      "rating": 5.7,
      "classificacao_etaria": "A18",
      "imagem_original": "https://animefire.plus/img/animes/usagi-chan-de-cue.webp",
      "imagem_pasta": "https://animefire.plus/img/animes/usagi-chan-de-cue/",
      "secao": "legendados",
      "pagina": 69,
      "total_episodios": 3,
      "link_video": "https://animefire.plus/video/usagi-chan-de-cue"
    },
    {
      "id": 4043,
      "nome": "Usakame",
      "link": "https://animefire.plus/animes/usakame-todos-os-episodios",
      "texto_original": "Usakame",
      "rating": 5.83,
      "classificacao_etaria": "A14",
      "imagem_original": "https://animefire.plus/img/animes/usakame.webp",
      "imagem_pasta": "https://animefire.plus/img/animes/usakame/",
      "secao": "legendados",
      "pagina": 159,
      "total_episodios": 9,
      "link_video": "https://animefire.plus/video/usakame"
    },
    {
      "id": 4044,
      "nome": "Ushinawareta Mirai wo Motomete",
      "link": "https://animefire.plus/animes/ushinawareta-mirai-wo-motomete-todos-os-episodios",
      "texto_original": "Ushinawareta Mirai wo Motomete",
      "rating": 6.83,
      "classificacao_etaria": "A14",
      "imagem_original": "https://animefire.plus/img/animes/ushinawareta-mirai-wo-motomete.webp",
      "imagem_pasta": "https://animefire.plus/img/animes/ushinawareta-mirai-wo-motomete/",
      "secao": "legendados",
      "pagina": 148,
      "total_episodios": 2,
      "link_video": "https://animefire.plus/video/ushinawareta-mirai-wo-motomete"
    },
    {
      "id": 4045,
      "nome": "Ushio To Tora (TV)",
      "link": "https://animefire.plus/animes/ushio-to-tora-tv-todos-os-episodios",
      "texto_original": "Ushio To Tora (TV)",
      "rating": 7.65,
      "classificacao_etaria": "A14",
      "imagem_original": "https://animefire.plus/img/animes/ushio-to-tora-tv.webp",
      "imagem_pasta": "https://animefire.plus/img/animes/ushio-to-tora-tv/",
      "secao": "legendados",
      "pagina": 100,
      "total_episodios": 2,
      "link_video": "https://animefire.plus/video/ushio-to-tora-tv"
    },
    {
      "id": 4046,
      "nome": "Ushio to Tora (TV) 2nd Season",
      "link": "https://animefire.plus/animes/ushio-to-tora-tv-2nd-season-todos-os-episodios",
      "texto_original": "Ushio to Tora (TV) 2nd Season",
      "rating": 8.03,
      "classificacao_etaria": "A14",
      "imagem_original": "https://animefire.plus/img/animes/ushio-to-tora-tv-2nd-season.webp",
      "imagem_pasta": "https://animefire.plus/img/animes/ushio-to-tora-tv-2nd-season/",
      "secao": "legendados",
      "pagina": 104,
      "total_episodios": 13,
      "link_video": "https://animefire.plus/video/ushio-to-tora-tv-2nd-season"
    },
    {
      "id": 4047,
      "nome": "Uta Kata",
      "link": "https://animefire.plus/animes/uta-kata-todos-os-episodios",
      "texto_original": "Uta Kata",
      "rating": 6.8,
      "classificacao_etaria": "A14",
      "imagem_original": "https://animefire.plus/img/animes/uta-kata.webp",
      "imagem_pasta": "https://animefire.plus/img/animes/uta-kata/",
      "secao": "legendados",
      "pagina": 120,
      "total_episodios": 13,
      "link_video": "https://animefire.plus/video/uta-kata"
    },
    {
      "id": 4048,
      "nome": "Uta no☆Prince-sama♪ Maji Love 1000%",
      "link": "https://animefire.plus/animes/uta-no-prince-sama-maji-love-1000-todos-os-episodios",
      "texto_original": "Uta no☆Prince-sama♪ Maji Love 1000%",
      "rating": 7.26,
      "classificacao_etaria": "A14",
      "imagem_original": "https://animefire.plus/img/animes/uta-no-prince-sama-maji-love-1000.webp",
      "imagem_pasta": "https://animefire.plus/img/animes/uta-no-prince-sama-maji-love-1000/",
      "secao": "legendados",
      "pagina": 131,
      "total_episodios": 13,
      "link_video": "https://animefire.plus/video/uta-no-prince-sama-maji-love-1000"
    },
    {
      "id": 4049,
      "nome": "Uta no☆Prince-sama♪ Maji Love Legend Star",
      "link": "https://animefire.plus/animes/uta-no-prince-sama-maji-love-legend-star-todos-os-episodios",
      "texto_original": "Uta no☆Prince-sama♪ Maji Love Legend Star",
      "rating": 7.35,
      "classificacao_etaria": "A14",
      "imagem_original": "https://animefire.plus/img/animes/uta-no-prince-sama-maji-love-legend-star.webp",
      "imagem_pasta": "https://animefire.plus/img/animes/uta-no-prince-sama-maji-love-legend-star/",
      "secao": "legendados",
      "pagina": 160,
      "total_episodios": 8,
      "link_video": "https://animefire.plus/video/uta-no-prince-sama-maji-love-legend-star"
    }
  ],
  "pagination": {
    "current_page": 198,
    "per_page": 20,
    "total_items": 4269,
    "total_pages": 214,
    "has_next": true,
    "has_prev": true
  }
}
