{
  "message": "Animes da seção: legendados",
  "section": "legendados",
  "data": [
    {
      "id": 330,
      "nome": "Bamboo Blade",
      "link": "https://animefire.plus/animes/bamboo-blade-todos-os-episodios",
      "texto_original": "Bamboo Blade",
      "rating": 7.38,
      "classificacao_etaria": "A14",
      "imagem_original": "https://animefire.plus/img/animes/bamboo-blade.webp",
      "imagem_pasta": "https://animefire.plus/img/animes/bamboo-blade/",
      "secao": "legendados",
      "pagina": 155,
      "total_episodios": 20,
      "link_video": "https://animefire.plus/video/bamboo-blade"
    },
    {
      "id": 331,
      "nome": "Banana Fish",
      "link": "https://animefire.plus/animes/banana-fish-todos-os-episodios",
      "texto_original": "Banana Fish",
      "rating": 8.32,
      "classificacao_etaria": "A16",
      "imagem_original": "https://animefire.plus/img/animes/banana-fish.webp",
      "imagem_pasta": "https://animefire.plus/img/animes/banana-fish/",
      "secao": "legendados",
      "pagina": 119,
      "total_episodios": 24,
      "link_video": "https://animefire.plus/video/banana-fish"
    },
    {
      "id": 332,
      "nome": "Bananya",
      "link": "https://animefire.plus/animes/bananya-todos-os-episodios",
      "texto_original": "Bananya",
      "rating": 6.8,
      "classificacao_etaria": null,
      "imagem_original": "https://animefire.plus/img/animes/bananya.webp",
      "imagem_pasta": "https://animefire.plus/img/animes/bananya/",
      "secao": "legendados",
      "pagina": 100,
      "total_episodios": 13,
      "link_video": "https://animefire.plus/video/bananya"
    },
    {
      "id": 333,
      "nome": "BanG Dream!",
      "link": "https://animefire.plus/animes/bang-dream-todos-os-episodios",
      "texto_original": "BanG Dream!",
      "rating": 7.02,
      "classificacao_etaria": "A14",
      "imagem_original": "https://animefire.plus/img/animes/bang-dream.webp",
      "imagem_pasta": "https://animefire.plus/img/animes/bang-dream/",
      "secao": "legendados",
      "pagina": 132,
      "total_episodios": 0,
      "link_video": "https://animefire.plus/video/bang-dream"
    },
    {
      "id": 334,
      "nome": "BanG Dream! 2nd Season",
      "link": "https://animefire.plus/animes/bang-dream-2nd-season-todos-os-episodios",
      "texto_original": "BanG Dream! 2nd Season",
      "rating": 7.6,
      "classificacao_etaria": "A14",
      "imagem_original": "https://animefire.plus/img/animes/bang-dream-2nd-season.webp",
      "imagem_pasta": "https://animefire.plus/img/animes/bang-dream-2nd-season/",
      "secao": "legendados",
      "pagina": 109,
      "total_episodios": 13,
      "link_video": "https://animefire.plus/video/bang-dream-2nd-season"
    },
    {
      "id": 335,
      "nome": "BanG Dream! 3rd Season",
      "link": "https://animefire.plus/animes/bang-dream-3rd-season-todos-os-episodios",
      "texto_original": "BanG Dream! 3rd Season",
      "rating": 8.05,
      "classificacao_etaria": "A14",
      "imagem_original": "https://animefire.plus/img/animes/bang-dream-3rd-season.webp",
      "imagem_pasta": "https://animefire.plus/img/animes/bang-dream-3rd-season/",
      "secao": "legendados",
      "pagina": 93,
      "total_episodios": 13,
      "link_video": "https://animefire.plus/video/bang-dream-3rd-season"
    },
    {
      "id": 336,
      "nome": "BanG Dream! Ave Mujica",
      "link": "https://animefire.plus/animes/bang-dream-ave-mujica-todos-os-episodios",
      "texto_original": "BanG Dream! Ave Mujica",
      "rating": 8.06,
      "classificacao_etaria": "A14",
      "imagem_original": "https://animefire.plus/img/animes/bang-dream-ave-mujica.webp",
      "imagem_pasta": "https://animefire.plus/img/animes/bang-dream-ave-mujica/",
      "secao": "legendados",
      "pagina": 7,
      "total_episodios": 13,
      "link_video": "https://animefire.plus/video/bang-dream-ave-mujica"
    },
    {
      "id": 337,
      "nome": "BanG Dream! Garupa☆Pico",
      "link": "https://animefire.plus/animes/bang-dream-garupa-pico-todos-os-episodios",
      "texto_original": "BanG Dream! Garupa☆Pico",
      "rating": 7.82,
      "classificacao_etaria": "A14",
      "imagem_original": "https://animefire.plus/img/animes/bang-dream-garupa-pico.webp",
      "imagem_pasta": "https://animefire.plus/img/animes/bang-dream-garupa-pico/",
      "secao": "legendados",
      "pagina": 59,
      "total_episodios": 12,
      "link_video": "https://animefire.plus/video/bang-dream-garupa-pico"
    },
    {
      "id": 338,
      "nome": "BanG Dream! Garupa☆Pico: Oomori",
      "link": "https://animefire.plus/animes/bang-dream-garupa-pico-oomori-todos-os-episodios",
      "texto_original": "BanG Dream! Garupa☆Pico: Oomori",
      "rating": 7.63,
      "classificacao_etaria": "A14",
      "imagem_original": "https://animefire.plus/img/animes/bang-dream-garupa-pico-oomori.webp",
      "imagem_pasta": "https://animefire.plus/img/animes/bang-dream-garupa-pico-oomori/",
      "secao": "legendados,lancamentos",
      "pagina": 79,
      "total_episodios": 1,
      "link_video": "https://animefire.plus/video/bang-dream-garupa-pico-oomori"
    },
    {
      "id": 339,
      "nome": "BanG Dream! Morfonication",
      "link": "https://animefire.plus/animes/bang-dream-morfonication-todos-os-episodios",
      "texto_original": "BanG Dream! Morfonication",
      "rating": 7.57,
      "classificacao_etaria": "A14",
      "imagem_original": "https://animefire.plus/img/animes/bang-dream-morfonication.webp",
      "imagem_pasta": "https://animefire.plus/img/animes/bang-dream-morfonication/",
      "secao": "legendados",
      "pagina": 30,
      "total_episodios": 1,
      "link_video": "https://animefire.plus/video/bang-dream-morfonication"
    },
    {
      "id": 340,
      "nome": "Bannou Bunka Neko-Musume",
      "link": "https://animefire.plus/animes/bannou-bunka-neko-musume-todos-os-episodios",
      "texto_original": "Bannou Bunka Neko-Musume",
      "rating": 6.75,
      "classificacao_etaria": "A18",
      "imagem_original": "https://animefire.plus/img/animes/bannou-bunka-neko-musume.webp",
      "imagem_pasta": "https://animefire.plus/img/animes/bannou-bunka-neko-musume/",
      "secao": "legendados",
      "pagina": 106,
      "total_episodios": 12,
      "link_video": "https://animefire.plus/video/bannou-bunka-neko-musume"
    },
    {
      "id": 341,
      "nome": "Baoh Raihousha",
      "link": "https://animefire.plus/animes/baoh-raihousha-todos-os-episodios",
      "texto_original": "Baoh Raihousha",
      "rating": 6.12,
      "classificacao_etaria": "A16",
      "imagem_original": "https://animefire.plus/img/animes/baoh-raihousha.webp",
      "imagem_pasta": "https://animefire.plus/img/animes/baoh-raihousha/",
      "secao": "legendados",
      "pagina": 57,
      "total_episodios": 1,
      "link_video": "https://animefire.plus/video/baoh-raihousha"
    },
    {
      "id": 342,
      "nome": "Barakamon",
      "link": "https://animefire.plus/animes/barakamon-todos-os-episodios",
      "texto_original": "Barakamon",
      "rating": 8.45,
      "classificacao_etaria": "A14",
      "imagem_original": "https://animefire.plus/img/animes/barakamon.webp",
      "imagem_pasta": "https://animefire.plus/img/animes/barakamon/",
      "secao": "legendados",
      "pagina": 175,
      "total_episodios": 3,
      "link_video": "https://animefire.plus/video/barakamon"
    },
    {
      "id": 343,
      "nome": "Baraou no Souretsu (Dublado)",
      "link": "https://animefire.plus/animes/baraou-no-souretsu-dublado-todos-os-episodios",
      "texto_original": "Baraou no Souretsu (Dublado)",
      "rating": 6.39,
      "classificacao_etaria": "A14",
      "imagem_original": "https://animefire.plus/img/animes/baraou-no-souretsu.webp",
      "imagem_pasta": "https://animefire.plus/img/animes/baraou-no-souretsu/",
      "secao": "dublados,legendados",
      "pagina": 12,
      "total_episodios": 24,
      "link_video": "https://animefire.plus/video/baraou-no-souretsu-dublado"
    },
    {
      "id": 344,
      "nome": "Barom One (Dublado)",
      "link": "https://animefire.plus/animes/barom-one-dublado-todos-os-episodios",
      "texto_original": "Barom One (Dublado)",
      "rating": 5.39,
      "classificacao_etaria": "A14",
      "imagem_original": "https://animefire.plus/img/animes/barom-one.webp",
      "imagem_pasta": "https://animefire.plus/img/animes/barom-one/",
      "secao": "dublados,legendados",
      "pagina": 26,
      "total_episodios": 13,
      "link_video": "https://animefire.plus/video/barom-one-dublado"
    },
    {
      "id": 345,
      "nome": "Bartender",
      "link": "https://animefire.plus/animes/bartender-todos-os-episodios",
      "texto_original": "Bartender",
      "rating": 7.4,
      "classificacao_etaria": "A14",
      "imagem_original": "https://animefire.plus/img/animes/bartender.webp",
      "imagem_pasta": "https://animefire.plus/img/animes/bartender/",
      "secao": "legendados",
      "pagina": 77,
      "total_episodios": 1,
      "link_video": "https://animefire.plus/video/bartender"
    },
    {
      "id": 346,
      "nome": "Bartender: Kami no Glass",
      "link": "https://animefire.plus/animes/bartender-kami-no-glass-todos-os-episodios",
      "texto_original": "Bartender: Kami no Glass",
      "rating": 7.38,
      "classificacao_etaria": "A14",
      "imagem_original": "https://animefire.plus/img/animes/bartender-kami-no-glass.webp",
      "imagem_pasta": "https://animefire.plus/img/animes/bartender-kami-no-glass/",
      "secao": "legendados",
      "pagina": 15,
      "total_episodios": 12,
      "link_video": "https://animefire.plus/video/bartender-kami-no-glass"
    },
    {
      "id": 347,
      "nome": "Basilisk: Kouga Ninpou Chou (Dublado)",
      "link": "https://animefire.plus/animes/basilisk-kouga-ninpou-chou-dublado-todos-os-episodios",
      "texto_original": "Basilisk: Kouga Ninpou Chou (Dublado)",
      "rating": 7.63,
      "classificacao_etaria": "A16",
      "imagem_original": "https://animefire.plus/img/animes/basilisk-kouga-ninpou-chou.webp",
      "imagem_pasta": "https://animefire.plus/img/animes/basilisk-kouga-ninpou-chou/",
      "secao": "dublados,legendados",
      "pagina": 27,
      "total_episodios": 25,
      "link_video": "https://animefire.plus/video/basilisk-kouga-ninpou-chou-dublado"
    },
    {
      "id": 348,
      "nome": "Basilisk: Ouka Ninpouchou",
      "link": "https://animefire.plus/animes/basilisk-ouka-ninpouchou-todos-os-episodios",
      "texto_original": "Basilisk: Ouka Ninpouchou",
      "rating": 5.52,
      "classificacao_etaria": "A16",
      "imagem_original": "https://animefire.plus/img/animes/basilisk-ouka-ninpouchou.webp",
      "imagem_pasta": "https://animefire.plus/img/animes/basilisk-ouka-ninpouchou/",
      "secao": "legendados",
      "pagina": 100,
      "total_episodios": 24,
      "link_video": "https://animefire.plus/video/basilisk-ouka-ninpouchou"
    },
    {
      "id": 349,
      "nome": "Basquash!",
      "link": "https://animefire.plus/animes/basquash-todos-os-episodios",
      "texto_original": "Basquash!",
      "rating": 7.31,
      "classificacao_etaria": "A14",
      "imagem_original": "https://animefire.plus/img/animes/basquash.webp",
      "imagem_pasta": "https://animefire.plus/img/animes/basquash/",
      "secao": "legendados",
      "pagina": 102,
      "total_episodios": 8,
      "link_video": "https://animefire.plus/video/basquash"
    }
  ],
  "pagination": {
    "current_page": 17,
    "per_page": 20,
    "total_items": 4269,
    "total_pages": 214,
    "has_next": true,
    "has_prev": true
  }
}
