{
  "message": "Animes da seção: legendados",
  "section": "legendados",
  "data": [
    {
      "id": 2668,
      "nome": "Nanatsu no Taizai: Mokushiroku no Yonkishi 2nd Season",
      "link": "https://animefire.plus/animes/nanatsu-no-taizai-mokushiroku-no-yonkishi-2nd-season-todos-os-episodios",
      "texto_original": "Nanatsu no Taizai: Mokushiroku no Yonkishi 2nd Season",
      "rating": 7.43,
      "classificacao_etaria": "A14",
      "imagem_original": "https://animefire.plus/img/animes/nanatsu-no-taizai-mokushiroku-no-yonkishi-2nd-season.webp",
      "imagem_pasta": "https://animefire.plus/img/animes/nanatsu-no-taizai-mokushiroku-no-yonkishi-2nd-season/",
      "secao": "legendados,lancamentos",
      "pagina": 9,
      "total_episodios": 0,
      "link_video": "https://animefire.plus/video/nanatsu-no-taizai-mokushiroku-no-yonkishi-2nd-season"
    },
    {
      "id": 2669,
      "nome": "Nanatsu no Taizai: Seisen no Shirushi",
      "link": "https://animefire.plus/animes/nanatsu-no-taizai-seisen-no-shirushi-todos-os-episodios",
      "texto_original": "Nanatsu no Taizai: Seisen no Shirushi",
      "rating": 7.39,
      "classificacao_etaria": "A14",
      "imagem_original": "https://animefire.plus/img/animes/nanatsu-no-taizai-seisen-no-shirushi.webp",
      "imagem_pasta": "https://animefire.plus/img/animes/nanatsu-no-taizai-seisen-no-shirushi/",
      "secao": "legendados",
      "pagina": 161,
      "total_episodios": 4,
      "link_video": "https://animefire.plus/video/nanatsu-no-taizai-seisen-no-shirushi"
    },
    {
      "id": 2670,
      "nome": "Nanbaka",
      "link": "https://animefire.plus/animes/nanbaka-todos-os-episodios",
      "texto_original": "Nanbaka",
      "rating": 7.41,
      "classificacao_etaria": "A14",
      "imagem_original": "https://animefire.plus/img/animes/nanbaka.webp",
      "imagem_pasta": "https://animefire.plus/img/animes/nanbaka/",
      "secao": "legendados",
      "pagina": 95,
      "total_episodios": 13,
      "link_video": "https://animefire.plus/video/nanbaka"
    },
    {
      "id": 2671,
      "nome": "Nanbaka 2",
      "link": "https://animefire.plus/animes/nanbaka-2-todos-os-episodios",
      "texto_original": "Nanbaka 2",
      "rating": 7.61,
      "classificacao_etaria": "A14",
      "imagem_original": "https://animefire.plus/img/animes/nanbaka-2.webp",
      "imagem_pasta": "https://animefire.plus/img/animes/nanbaka-2/",
      "secao": "legendados",
      "pagina": 104,
      "total_episodios": 12,
      "link_video": "https://animefire.plus/video/nanbaka-2"
    },
    {
      "id": 2672,
      "nome": "Nande Koko ni Sensei ga!?",
      "link": "https://animefire.plus/animes/nande-koko-ni-sensei-ga-todos-os-episodios",
      "texto_original": "Nande Koko ni Sensei ga!?",
      "rating": 6.47,
      "classificacao_etaria": "A18",
      "imagem_original": "https://animefire.plus/img/animes/nande-koko-ni-sensei-ga.webp",
      "imagem_pasta": "https://animefire.plus/img/animes/nande-koko-ni-sensei-ga/",
      "secao": "legendados",
      "pagina": 129,
      "total_episodios": 0,
      "link_video": "https://animefire.plus/video/nande-koko-ni-sensei-ga"
    },
    {
      "id": 2673,
      "nome": "Nande Koko ni Sensei ga!? Special",
      "link": "https://animefire.plus/animes/nande-koko-ni-sensei-ga-special-todos-os-episodios",
      "texto_original": "Nande Koko ni Sensei ga!? Special",
      "rating": 6.85,
      "classificacao_etaria": "A18",
      "imagem_original": "https://animefire.plus/img/animes/nande-koko-ni-sensei-ga-special.webp",
      "imagem_pasta": "https://animefire.plus/img/animes/nande-koko-ni-sensei-ga-special/",
      "secao": "legendados",
      "pagina": 84,
      "total_episodios": 1,
      "link_video": "https://animefire.plus/video/nande-koko-ni-sensei-ga-special"
    },
    {
      "id": 2674,
      "nome": "Nanocore",
      "link": "https://animefire.plus/animes/nanocore-todos-os-episodios",
      "texto_original": "Nanocore",
      "rating": 6.31,
      "classificacao_etaria": "A14",
      "imagem_original": "https://animefire.plus/img/animes/nanocore.webp",
      "imagem_pasta": "https://animefire.plus/img/animes/nanocore/",
      "secao": "legendados",
      "pagina": 172,
      "total_episodios": 10,
      "link_video": "https://animefire.plus/video/nanocore"
    },
    {
      "id": 2675,
      "nome": "Nanocore 2nd Season",
      "link": "https://animefire.plus/animes/nanocore-2nd-season-todos-os-episodios",
      "texto_original": "Nanocore 2nd Season",
      "rating": 6.65,
      "classificacao_etaria": "A14",
      "imagem_original": "https://animefire.plus/img/animes/nanocore-2nd-season.webp",
      "imagem_pasta": "https://animefire.plus/img/animes/nanocore-2nd-season/",
      "secao": "legendados",
      "pagina": 175,
      "total_episodios": 10,
      "link_video": "https://animefire.plus/video/nanocore-2nd-season"
    },
    {
      "id": 2676,
      "nome": "Narue no Sekai",
      "link": "https://animefire.plus/animes/narue-no-sekai-todos-os-episodios",
      "texto_original": "Narue no Sekai",
      "rating": 6.64,
      "classificacao_etaria": "A14",
      "imagem_original": "https://animefire.plus/img/animes/narue-no-sekai.webp",
      "imagem_pasta": "https://animefire.plus/img/animes/narue-no-sekai/",
      "secao": "legendados",
      "pagina": 164,
      "total_episodios": 12,
      "link_video": "https://animefire.plus/video/narue-no-sekai"
    },
    {
      "id": 2677,
      "nome": "Narutaru: Mukuro Naru Hoshi Tama Taru Ko",
      "link": "https://animefire.plus/animes/narutaru-mukuro-naru-hoshi-tama-taru-ko-todos-os-episodios",
      "texto_original": "Narutaru: Mukuro Naru Hoshi Tama Taru Ko",
      "rating": 6.15,
      "classificacao_etaria": "A16",
      "imagem_original": "https://animefire.plus/img/animes/narutaru-mukuro-naru-hoshi-tama-taru-ko.webp",
      "imagem_pasta": "https://animefire.plus/img/animes/narutaru-mukuro-naru-hoshi-tama-taru-ko/",
      "secao": "legendados",
      "pagina": 177,
      "total_episodios": 13,
      "link_video": "https://animefire.plus/video/narutaru-mukuro-naru-hoshi-tama-taru-ko"
    },
    {
      "id": 2678,
      "nome": "Naruto (Dublado)",
      "link": "https://animefire.plus/animes/naruto-dublado-todos-os-episodios",
      "texto_original": "Naruto (Dublado)",
      "rating": 7.88,
      "classificacao_etaria": "A14",
      "imagem_original": "https://animefire.plus/img/animes/naruto.webp",
      "imagem_pasta": "https://animefire.plus/img/animes/naruto/",
      "secao": "dublados,legendados",
      "pagina": 20,
      "total_episodios": 211,
      "link_video": "https://animefire.plus/video/naruto-dublado"
    },
    {
      "id": 2679,
      "nome": "Naruto SD: Rock Lee no Seishun Full-Power Ninden",
      "link": "https://animefire.plus/animes/naruto-sd-rock-lee-no-seishun-full-power-ninden-todos-os-episodios",
      "texto_original": "Naruto SD: Rock Lee no Seishun Full-Power Ninden",
      "rating": 7.15,
      "classificacao_etaria": "A14",
      "imagem_original": "https://animefire.plus/img/animes/naruto-sd-rock-lee-no-seishun-full-power-ninden.webp",
      "imagem_pasta": "https://animefire.plus/img/animes/naruto-sd-rock-lee-no-seishun-full-power-ninden/",
      "secao": "legendados",
      "pagina": 50,
      "total_episodios": 51,
      "link_video": "https://animefire.plus/video/naruto-sd-rock-lee-no-seishun-full-power-ninden"
    },
    {
      "id": 2680,
      "nome": "Naruto: Shippuuden (Dublado)",
      "link": "https://animefire.plus/animes/naruto-shippuuden-dublado-todos-os-episodios",
      "texto_original": "Naruto: Shippuuden (Dublado)",
      "rating": 8.2,
      "classificacao_etaria": "A14",
      "imagem_original": "https://animefire.plus/img/animes/naruto-shippuuden.webp",
      "imagem_pasta": "https://animefire.plus/img/animes/naruto-shippuuden/",
      "secao": "dublados,legendados",
      "pagina": 27,
      "total_episodios": 0,
      "link_video": "https://animefire.plus/video/naruto-shippuuden-dublado"
    },
    {
      "id": 2681,
      "nome": "Natsu e no Tobira",
      "link": "https://animefire.plus/animes/natsu-e-no-tobira-todos-os-episodios",
      "texto_original": "Natsu e no Tobira",
      "rating": 6.13,
      "classificacao_etaria": "A14",
      "imagem_original": "https://animefire.plus/img/animes/natsu-e-no-tobira.webp",
      "imagem_pasta": "https://animefire.plus/img/animes/natsu-e-no-tobira/",
      "secao": "legendados",
      "pagina": 88,
      "total_episodios": 1,
      "link_video": "https://animefire.plus/video/natsu-e-no-tobira"
    },
    {
      "id": 2682,
      "nome": "Natsu no Arashi!",
      "link": "https://animefire.plus/animes/natsu-no-arashi-todos-os-episodios",
      "texto_original": "Natsu no Arashi!",
      "rating": 7.33,
      "classificacao_etaria": "A14",
      "imagem_original": "https://animefire.plus/img/animes/natsu-no-arashi.webp",
      "imagem_pasta": "https://animefire.plus/img/animes/natsu-no-arashi/",
      "secao": "legendados",
      "pagina": 128,
      "total_episodios": 13,
      "link_video": "https://animefire.plus/video/natsu-no-arashi"
    },
    {
      "id": 2683,
      "nome": "Natsu no Arashi! Akinaichuu",
      "link": "https://animefire.plus/animes/natsu-no-arashi-akinaichuu-todos-os-episodios",
      "texto_original": "Natsu no Arashi! Akinaichuu",
      "rating": 7.38,
      "classificacao_etaria": "A14",
      "imagem_original": "https://animefire.plus/img/animes/natsu-no-arashi-akinaichuu.webp",
      "imagem_pasta": "https://animefire.plus/img/animes/natsu-no-arashi-akinaichuu/",
      "secao": "legendados",
      "pagina": 164,
      "total_episodios": 13,
      "link_video": "https://animefire.plus/video/natsu-no-arashi-akinaichuu"
    },
    {
      "id": 2684,
      "nome": "Natsu-iro Kiseki",
      "link": "https://animefire.plus/animes/natsu-iro-kiseki-todos-os-episodios",
      "texto_original": "Natsu-iro Kiseki",
      "rating": 7.04,
      "classificacao_etaria": "A14",
      "imagem_original": "https://animefire.plus/img/animes/natsu-iro-kiseki.webp",
      "imagem_pasta": "https://animefire.plus/img/animes/natsu-iro-kiseki/",
      "secao": "legendados",
      "pagina": 128,
      "total_episodios": 0,
      "link_video": "https://animefire.plus/video/natsu-iro-kiseki"
    },
    {
      "id": 2685,
      "nome": "Natsume Yuujinchou",
      "link": "https://animefire.plus/animes/natsume-yuujinchou-todos-os-episodios",
      "texto_original": "Natsume Yuujinchou",
      "rating": 8.38,
      "classificacao_etaria": "A14",
      "imagem_original": "https://animefire.plus/img/animes/natsume-yuujinchou.webp",
      "imagem_pasta": "https://animefire.plus/img/animes/natsume-yuujinchou/",
      "secao": "legendados",
      "pagina": 104,
      "total_episodios": 13,
      "link_video": "https://animefire.plus/video/natsume-yuujinchou"
    },
    {
      "id": 2686,
      "nome": "Natsume Yuujinchou Go",
      "link": "https://animefire.plus/animes/natsume-yuujinchou-go-todos-os-episodios",
      "texto_original": "Natsume Yuujinchou Go",
      "rating": 8.62,
      "classificacao_etaria": "A14",
      "imagem_original": "https://animefire.plus/img/animes/natsume-yuujinchou-go.webp",
      "imagem_pasta": "https://animefire.plus/img/animes/natsume-yuujinchou-go/",
      "secao": "legendados",
      "pagina": 148,
      "total_episodios": 11,
      "link_video": "https://animefire.plus/video/natsume-yuujinchou-go"
    },
    {
      "id": 2687,
      "nome": "Natsume Yuujinchou Go Specials",
      "link": "https://animefire.plus/animes/natsume-yuujinchou-go-specials-todos-os-episodios",
      "texto_original": "Natsume Yuujinchou Go Specials",
      "rating": 8.34,
      "classificacao_etaria": "A14",
      "imagem_original": "https://animefire.plus/img/animes/natsume-yuujinchou-go-specials.webp",
      "imagem_pasta": "https://animefire.plus/img/animes/natsume-yuujinchou-go-specials/",
      "secao": "legendados",
      "pagina": 84,
      "total_episodios": 2,
      "link_video": "https://animefire.plus/video/natsume-yuujinchou-go-specials"
    }
  ],
  "pagination": {
    "current_page": 131,
    "per_page": 20,
    "total_items": 4269,
    "total_pages": 214,
    "has_next": true,
    "has_prev": true
  }
}
