{
  "message": "Animes da seção: legendados",
  "section": "legendados",
  "data": [
    {
      "id": 4173,
      "nome": "Xian Wang de Richang Shenghuo 4",
      "link": "https://animefire.plus/animes/xian-wang-de-richang-shenghuo-4-todos-os-episodios",
      "texto_original": "Xian Wang de Richang Shenghuo 4",
      "rating": 7.48,
      "classificacao_etaria": "A14",
      "imagem_original": "https://animefire.plus/img/animes/xian-wang-de-richang-shenghuo-4.webp",
      "imagem_pasta": "https://animefire.plus/img/animes/xian-wang-de-richang-shenghuo-4/",
      "secao": "legendados",
      "pagina": 17,
      "total_episodios": 12,
      "link_video": "https://animefire.plus/video/xian-wang-de-richang-shenghuo-4"
    },
    {
      "id": 4174,
      "nome": "Xiaoke de Huatu Xie Hua",
      "link": "https://animefire.plus/animes/xiaoke-de-huatu-xie-hua-todos-os-episodios",
      "texto_original": "Xiaoke de Huatu Xie Hua",
      "rating": 6.84,
      "classificacao_etaria": null,
      "imagem_original": "https://animefire.plus/img/animes/xiaoke-de-huatu-xie-hua.webp",
      "imagem_pasta": "https://animefire.plus/img/animes/xiaoke-de-huatu-xie-hua/",
      "secao": "legendados",
      "pagina": 16,
      "total_episodios": 1,
      "link_video": "https://animefire.plus/video/xiaoke-de-huatu-xie-hua"
    },
    {
      "id": 4175,
      "nome": "Xie Wang Zhui Qi",
      "link": "https://animefire.plus/animes/xie-wang-zhui-qi-todos-os-episodios",
      "texto_original": "Xie Wang Zhui Qi",
      "rating": 6.7,
      "classificacao_etaria": "A14",
      "imagem_original": "https://animefire.plus/img/animes/xie-wang-zhui-qi.webp",
      "imagem_pasta": "https://animefire.plus/img/animes/xie-wang-zhui-qi/",
      "secao": "legendados",
      "pagina": 177,
      "total_episodios": 13,
      "link_video": "https://animefire.plus/video/xie-wang-zhui-qi"
    },
    {
      "id": 4176,
      "nome": "Xing Chen Bian",
      "link": "https://animefire.plus/animes/xing-chen-bian-todos-os-episodios",
      "texto_original": "Xing Chen Bian",
      "rating": 7.54,
      "classificacao_etaria": "A14",
      "imagem_original": "https://animefire.plus/img/animes/xing-chen-bian.webp",
      "imagem_pasta": "https://animefire.plus/img/animes/xing-chen-bian/",
      "secao": "legendados",
      "pagina": 60,
      "total_episodios": 10,
      "link_video": "https://animefire.plus/video/xing-chen-bian"
    },
    {
      "id": 4177,
      "nome": "xxxHOLiC",
      "link": "https://animefire.plus/animes/xxxholic-todos-os-episodios",
      "texto_original": "xxxHOLiC",
      "rating": 8.07,
      "classificacao_etaria": "A14",
      "imagem_original": "https://animefire.plus/img/animes/xxxholic.webp",
      "imagem_pasta": "https://animefire.plus/img/animes/xxxholic/",
      "secao": "legendados",
      "pagina": 128,
      "total_episodios": 24,
      "link_video": "https://animefire.plus/video/xxxholic"
    },
    {
      "id": 4178,
      "nome": "xxxHOLiC Kei",
      "link": "https://animefire.plus/animes/xxxholic-kei-todos-os-episodios",
      "texto_original": "xxxHOLiC Kei",
      "rating": 8.29,
      "classificacao_etaria": "A14",
      "imagem_original": "https://animefire.plus/img/animes/xxxholic-kei.webp",
      "imagem_pasta": "https://animefire.plus/img/animes/xxxholic-kei/",
      "secao": "legendados",
      "pagina": 163,
      "total_episodios": 13,
      "link_video": "https://animefire.plus/video/xxxholic-kei"
    },
    {
      "id": 4179,
      "nome": "XxxHOLiC Rou",
      "link": "https://animefire.plus/animes/xxxholic-rou-todos-os-episodios",
      "texto_original": "XxxHOLiC Rou",
      "rating": 8.23,
      "classificacao_etaria": "A14",
      "imagem_original": "https://animefire.plus/img/animes/xxxholic-rou.webp",
      "imagem_pasta": "https://animefire.plus/img/animes/xxxholic-rou/",
      "secao": "legendados",
      "pagina": 103,
      "total_episodios": 2,
      "link_video": "https://animefire.plus/video/xxxholic-rou"
    },
    {
      "id": 4180,
      "nome": "XxxHOLiC Shunmuki",
      "link": "https://animefire.plus/animes/xxxholic-shunmuki-todos-os-episodios",
      "texto_original": "XxxHOLiC Shunmuki",
      "rating": 8.13,
      "classificacao_etaria": "A14",
      "imagem_original": "https://animefire.plus/img/animes/xxxholic-shunmuki.webp",
      "imagem_pasta": "https://animefire.plus/img/animes/xxxholic-shunmuki/",
      "secao": "legendados",
      "pagina": 108,
      "total_episodios": 0,
      "link_video": "https://animefire.plus/video/xxxholic-shunmuki"
    },
    {
      "id": 4181,
      "nome": "Yagate Kimi ni Naru",
      "link": "https://animefire.plus/animes/yagate-kimi-ni-naru-todos-os-episodios",
      "texto_original": "Yagate Kimi ni Naru",
      "rating": 8.02,
      "classificacao_etaria": "A14",
      "imagem_original": "https://animefire.plus/img/animes/yagate-kimi-ni-naru.webp",
      "imagem_pasta": "https://animefire.plus/img/animes/yagate-kimi-ni-naru/",
      "secao": "legendados",
      "pagina": 135,
      "total_episodios": 13,
      "link_video": "https://animefire.plus/video/yagate-kimi-ni-naru"
    },
    {
      "id": 4182,
      "nome": "Yahari Ore no Seishun Love Comedy wa Machigatteiru.",
      "link": "https://animefire.plus/animes/yahari-ore-no-seishun-love-comedy-wa-machigatteiru-todos-os-episodios",
      "texto_original": "Yahari Ore no Seishun Love Comedy wa Machigatteiru.",
      "rating": 8.1,
      "classificacao_etaria": "A14",
      "imagem_original": "https://animefire.plus/img/animes/yahari-ore-no-seishun-love-comedy-wa-machigatteiru.webp",
      "imagem_pasta": "https://animefire.plus/img/animes/yahari-ore-no-seishun-love-comedy-wa-machigatteiru/",
      "secao": "legendados",
      "pagina": 122,
      "total_episodios": 13,
      "link_video": "https://animefire.plus/video/yahari-ore-no-seishun-love-comedy-wa-machigatteiru"
    },
    {
      "id": 4183,
      "nome": "Yahari Ore no Seishun Love Comedy wa Machigatteiru. Kan",
      "link": "https://animefire.plus/animes/yahari-ore-no-seishun-love-comedy-wa-machigatteiru-kan-todos-os-episodios",
      "texto_original": "Yahari Ore no Seishun Love Comedy wa Machigatteiru. Kan",
      "rating": null,
      "classificacao_etaria": "A14",
      "imagem_original": "https://animefire.plus/img/animes/yahari-ore-no-seishun-love-comedy-wa-machigatteiru-kan.webp",
      "imagem_pasta": "https://animefire.plus/img/animes/yahari-ore-no-seishun-love-comedy-wa-machigatteiru-kan/",
      "secao": "legendados",
      "pagina": 58,
      "total_episodios": 2,
      "link_video": "https://animefire.plus/video/yahari-ore-no-seishun-love-comedy-wa-machigatteiru-kan"
    },
    {
      "id": 4184,
      "nome": "Yahari Ore no Seishun Love Comedy wa Machigatteiru. Zoku",
      "link": "https://animefire.plus/animes/yahari-ore-no-seishun-love-comedy-wa-machigatteiru-zoku-todos-os-episodios",
      "texto_original": "Yahari Ore no Seishun Love Comedy wa Machigatteiru. Zoku",
      "rating": 8.29,
      "classificacao_etaria": "A14",
      "imagem_original": "https://animefire.plus/img/animes/yahari-ore-no-seishun-love-comedy-wa-machigatteiru-zoku.webp",
      "imagem_pasta": "https://animefire.plus/img/animes/yahari-ore-no-seishun-love-comedy-wa-machigatteiru-zoku/",
      "secao": "legendados",
      "pagina": 91,
      "total_episodios": 13,
      "link_video": "https://animefire.plus/video/yahari-ore-no-seishun-love-comedy-wa-machigatteiru-zoku"
    },
    {
      "id": 4185,
      "nome": "Yajikita Gakuen Douchuuki",
      "link": "https://animefire.plus/animes/yajikita-gakuen-douchuuki-todos-os-episodios",
      "texto_original": "Yajikita Gakuen Douchuuki",
      "rating": 5.79,
      "classificacao_etaria": "A14",
      "imagem_original": "https://animefire.plus/img/animes/yajikita-gakuen-douchuuki.webp",
      "imagem_pasta": "https://animefire.plus/img/animes/yajikita-gakuen-douchuuki/",
      "secao": "legendados",
      "pagina": 88,
      "total_episodios": 2,
      "link_video": "https://animefire.plus/video/yajikita-gakuen-douchuuki"
    },
    {
      "id": 4186,
      "nome": "Yakitate!! Japan",
      "link": "https://animefire.plus/animes/yakitate-japan-todos-os-episodios",
      "texto_original": "Yakitate!! Japan",
      "rating": 8.01,
      "classificacao_etaria": "A14",
      "imagem_original": "https://animefire.plus/img/animes/yakitate-japan.webp",
      "imagem_pasta": "https://animefire.plus/img/animes/yakitate-japan/",
      "secao": "legendados",
      "pagina": 113,
      "total_episodios": 24,
      "link_video": "https://animefire.plus/video/yakitate-japan"
    },
    {
      "id": 4187,
      "nome": "Yakunara Mug Cup mo",
      "link": "https://animefire.plus/animes/yakunara-mug-cup-mo-todos-os-episodios",
      "texto_original": "Yakunara Mug Cup mo",
      "rating": 6.54,
      "classificacao_etaria": "A14",
      "imagem_original": "https://animefire.plus/img/animes/yakunara-mug-cup-mo.webp",
      "imagem_pasta": "https://animefire.plus/img/animes/yakunara-mug-cup-mo/",
      "secao": "legendados",
      "pagina": 46,
      "total_episodios": 12,
      "link_video": "https://animefire.plus/video/yakunara-mug-cup-mo"
    },
    {
      "id": 4188,
      "nome": "Yakunara Mug Cup mo: Niban Gama",
      "link": "https://animefire.plus/animes/yakunara-mug-cup-mo-niban-gama-todos-os-episodios",
      "texto_original": "Yakunara Mug Cup mo: Niban Gama",
      "rating": 6.83,
      "classificacao_etaria": "A14",
      "imagem_original": "https://animefire.plus/img/animes/yakunara-mug-cup-mo-niban-gama.webp",
      "imagem_pasta": "https://animefire.plus/img/animes/yakunara-mug-cup-mo-niban-gama/",
      "secao": "legendados",
      "pagina": 38,
      "total_episodios": 12,
      "link_video": "https://animefire.plus/video/yakunara-mug-cup-mo-niban-gama"
    },
    {
      "id": 4189,
      "nome": "Yakusoku no Neverland",
      "link": "https://animefire.plus/animes/yakusoku-no-neverland-todos-os-episodios",
      "texto_original": "Yakusoku no Neverland",
      "rating": 8.65,
      "classificacao_etaria": "A16",
      "imagem_original": "https://animefire.plus/img/animes/yakusoku-no-neverland.webp",
      "imagem_pasta": "https://animefire.plus/img/animes/yakusoku-no-neverland/",
      "secao": "legendados",
      "pagina": 165,
      "total_episodios": 6,
      "link_video": "https://animefire.plus/video/yakusoku-no-neverland"
    },
    {
      "id": 4190,
      "nome": "Yakusoku no Neverland 2nd Season",
      "link": "https://animefire.plus/animes/yakusoku-no-neverland-2nd-season-todos-os-episodios",
      "texto_original": "Yakusoku no Neverland 2nd Season",
      "rating": 5.25,
      "classificacao_etaria": "A16",
      "imagem_original": "https://animefire.plus/img/animes/yakusoku-no-neverland-2nd-season.webp",
      "imagem_pasta": "https://animefire.plus/img/animes/yakusoku-no-neverland-2nd-season/",
      "secao": "legendados",
      "pagina": 48,
      "total_episodios": 11,
      "link_video": "https://animefire.plus/video/yakusoku-no-neverland-2nd-season"
    },
    {
      "id": 4191,
      "nome": "Yama no Susume",
      "link": "https://animefire.plus/animes/yama-no-susume-todos-os-episodios",
      "texto_original": "Yama no Susume",
      "rating": 6.84,
      "classificacao_etaria": "A14",
      "imagem_original": "https://animefire.plus/img/animes/yama-no-susume.webp",
      "imagem_pasta": "https://animefire.plus/img/animes/yama-no-susume/",
      "secao": "legendados",
      "pagina": 141,
      "total_episodios": 2,
      "link_video": "https://animefire.plus/video/yama-no-susume"
    },
    {
      "id": 4192,
      "nome": "Yama no Susume: Next Summit",
      "link": "https://animefire.plus/animes/yama-no-susume-next-summit-todos-os-episodios",
      "texto_original": "Yama no Susume: Next Summit",
      "rating": 7.64,
      "classificacao_etaria": "A14",
      "imagem_original": "https://animefire.plus/img/animes/yama-no-susume-next-summit.webp",
      "imagem_pasta": "https://animefire.plus/img/animes/yama-no-susume-next-summit/",
      "secao": "legendados",
      "pagina": 28,
      "total_episodios": 12,
      "link_video": "https://animefire.plus/video/yama-no-susume-next-summit"
    }
  ],
  "pagination": {
    "current_page": 205,
    "per_page": 20,
    "total_items": 4269,
    "total_pages": 214,
    "has_next": true,
    "has_prev": true
  }
}
