{
  "message": "Animes da seção: legendados",
  "section": "legendados",
  "data": [
    {
      "id": 392,
      "nome": "Binchou-tan",
      "link": "https://animefire.plus/animes/binchou-tan-todos-os-episodios",
      "texto_original": "Binchou-tan",
      "rating": 6.96,
      "classificacao_etaria": null,
      "imagem_original": "https://animefire.plus/img/animes/binchou-tan.webp",
      "imagem_pasta": "https://animefire.plus/img/animes/binchou-tan/",
      "secao": "legendados",
      "pagina": 155,
      "total_episodios": 6,
      "link_video": "https://animefire.plus/video/binchou-tan"
    },
    {
      "id": 393,
      "nome": "Binzume Yousei",
      "link": "https://animefire.plus/animes/binzume-yousei-todos-os-episodios",
      "texto_original": "Binzume Yousei",
      "rating": 6.5,
      "classificacao_etaria": null,
      "imagem_original": "https://animefire.plus/img/animes/binzume-yousei.webp",
      "imagem_pasta": "https://animefire.plus/img/animes/binzume-yousei/",
      "secao": "legendados",
      "pagina": 141,
      "total_episodios": 13,
      "link_video": "https://animefire.plus/video/binzume-yousei"
    },
    {
      "id": 394,
      "nome": "Bio Hunter",
      "link": "https://animefire.plus/animes/bio-hunter-todos-os-episodios",
      "texto_original": "Bio Hunter",
      "rating": 5.96,
      "classificacao_etaria": "A18",
      "imagem_original": "https://animefire.plus/img/animes/bio-hunter.webp",
      "imagem_pasta": "https://animefire.plus/img/animes/bio-hunter/",
      "secao": "legendados",
      "pagina": 66,
      "total_episodios": 1,
      "link_video": "https://animefire.plus/video/bio-hunter"
    },
    {
      "id": 395,
      "nome": "Birdie Wing: Golf Girls' Story",
      "link": "https://animefire.plus/animes/birdie-wing-golf-girls-story-todos-os-episodios",
      "texto_original": "Birdie Wing: Golf Girls' Story",
      "rating": 7.48,
      "classificacao_etaria": "A14",
      "imagem_original": "https://animefire.plus/img/animes/birdie-wing-golf-girls-story.webp",
      "imagem_pasta": "https://animefire.plus/img/animes/birdie-wing-golf-girls-story/",
      "secao": "legendados",
      "pagina": 33,
      "total_episodios": 13,
      "link_video": "https://animefire.plus/video/birdie-wing-golf-girls-story"
    },
    {
      "id": 396,
      "nome": "Bishoujo Senshi Sailor Moon (Dublado)",
      "link": "https://animefire.plus/animes/bishoujo-senshi-sailor-moon-dublado-todos-os-episodios",
      "texto_original": "Bishoujo Senshi Sailor Moon (Dublado)",
      "rating": 7.74,
      "classificacao_etaria": "A14",
      "imagem_original": "https://animefire.plus/img/animes/bishoujo-senshi-sailor-moon.webp",
      "imagem_pasta": "https://animefire.plus/img/animes/bishoujo-senshi-sailor-moon/",
      "secao": "dublados,legendados",
      "pagina": 28,
      "total_episodios": 0,
      "link_video": "https://animefire.plus/video/bishoujo-senshi-sailor-moon-dublado"
    },
    {
      "id": 397,
      "nome": "Bishoujo Senshi Sailor Moon Crystal",
      "link": "https://animefire.plus/animes/bishoujo-senshi-sailor-moon-crystal-todos-os-episodios",
      "texto_original": "Bishoujo Senshi Sailor Moon Crystal",
      "rating": 7.05,
      "classificacao_etaria": "A14",
      "imagem_original": "https://animefire.plus/img/animes/bishoujo-senshi-sailor-moon-crystal.webp",
      "imagem_pasta": "https://animefire.plus/img/animes/bishoujo-senshi-sailor-moon-crystal/",
      "secao": "legendados",
      "pagina": 96,
      "total_episodios": 3,
      "link_video": "https://animefire.plus/video/bishoujo-senshi-sailor-moon-crystal"
    },
    {
      "id": 398,
      "nome": "Bishoujo Senshi Sailor Moon R",
      "link": "https://animefire.plus/animes/bishoujo-senshi-sailor-moon-r-todos-os-episodios",
      "texto_original": "Bishoujo Senshi Sailor Moon R",
      "rating": 7.7,
      "classificacao_etaria": "A14",
      "imagem_original": "https://animefire.plus/img/animes/bishoujo-senshi-sailor-moon-r.webp",
      "imagem_pasta": "https://animefire.plus/img/animes/bishoujo-senshi-sailor-moon-r/",
      "secao": "legendados",
      "pagina": 72,
      "total_episodios": 43,
      "link_video": "https://animefire.plus/video/bishoujo-senshi-sailor-moon-r"
    },
    {
      "id": 399,
      "nome": "Bishoujo Senshi Sailor Moon S",
      "link": "https://animefire.plus/animes/bishoujo-senshi-sailor-moon-s-todos-os-episodios",
      "texto_original": "Bishoujo Senshi Sailor Moon S",
      "rating": 7.86,
      "classificacao_etaria": "A14",
      "imagem_original": "https://animefire.plus/img/animes/bishoujo-senshi-sailor-moon-s.webp",
      "imagem_pasta": "https://animefire.plus/img/animes/bishoujo-senshi-sailor-moon-s/",
      "secao": "legendados",
      "pagina": 72,
      "total_episodios": 38,
      "link_video": "https://animefire.plus/video/bishoujo-senshi-sailor-moon-s"
    },
    {
      "id": 400,
      "nome": "Bishoujo Senshi Sailor Moon SuperS",
      "link": "https://animefire.plus/animes/bishoujo-senshi-sailor-moon-supers-todos-os-episodios",
      "texto_original": "Bishoujo Senshi Sailor Moon SuperS",
      "rating": 7.65,
      "classificacao_etaria": "A14",
      "imagem_original": "https://animefire.plus/img/animes/bishoujo-senshi-sailor-moon-supers.webp",
      "imagem_pasta": "https://animefire.plus/img/animes/bishoujo-senshi-sailor-moon-supers/",
      "secao": "legendados",
      "pagina": 133,
      "total_episodios": 39,
      "link_video": "https://animefire.plus/video/bishoujo-senshi-sailor-moon-supers"
    },
    {
      "id": 401,
      "nome": "Bishoujo Senshi Sailor Moon: Sailor Stars",
      "link": "https://animefire.plus/animes/bishoujo-senshi-sailor-moon-sailor-stars-todos-os-episodios",
      "texto_original": "Bishoujo Senshi Sailor Moon: Sailor Stars",
      "rating": 7.99,
      "classificacao_etaria": "A14",
      "imagem_original": "https://animefire.plus/img/animes/bishoujo-senshi-sailor-moon-sailor-stars.webp",
      "imagem_pasta": "https://animefire.plus/img/animes/bishoujo-senshi-sailor-moon-sailor-stars/",
      "secao": "legendados",
      "pagina": 131,
      "total_episodios": 0,
      "link_video": "https://animefire.plus/video/bishoujo-senshi-sailor-moon-sailor-stars"
    },
    {
      "id": 402,
      "nome": "Bishoujo Senshi Sailor Moon: Sailor Stars - Hero Club",
      "link": "https://animefire.plus/animes/bishoujo-senshi-sailor-moon-sailor-stars---hero-club-todos-os-episodios",
      "texto_original": "Bishoujo Senshi Sailor Moon: Sailor Stars - Hero Club",
      "rating": 7.25,
      "classificacao_etaria": "A14",
      "imagem_original": "https://animefire.plus/img/animes/bishoujo-senshi-sailor-moon-sailor-stars---hero-club.webp",
      "imagem_pasta": "https://animefire.plus/img/animes/bishoujo-senshi-sailor-moon-sailor-stars---hero-club/",
      "secao": "legendados",
      "pagina": 72,
      "total_episodios": 3,
      "link_video": "https://animefire.plus/video/bishoujo-senshi-sailor-moon-sailor-stars---hero-club"
    },
    {
      "id": 403,
      "nome": "Bishoujo Yuugekitai Battle Skipper",
      "link": "https://animefire.plus/animes/bishoujo-yuugekitai-battle-skipper-todos-os-episodios",
      "texto_original": "Bishoujo Yuugekitai Battle Skipper",
      "rating": 5.23,
      "classificacao_etaria": "A14",
      "imagem_original": "https://animefire.plus/img/animes/bishoujo-yuugekitai-battle-skipper.webp",
      "imagem_pasta": "https://animefire.plus/img/animes/bishoujo-yuugekitai-battle-skipper/",
      "secao": "legendados",
      "pagina": 77,
      "total_episodios": 3,
      "link_video": "https://animefire.plus/video/bishoujo-yuugekitai-battle-skipper"
    },
    {
      "id": 404,
      "nome": "Bishoujo Yuugi Unit Crane Game Girls",
      "link": "https://animefire.plus/animes/bishoujo-yuugi-unit-crane-game-girls-todos-os-episodios",
      "texto_original": "Bishoujo Yuugi Unit Crane Game Girls",
      "rating": 4.44,
      "classificacao_etaria": "A10",
      "imagem_original": "https://animefire.plus/img/animes/bishoujo-yuugi-unit-crane-game-girls.webp",
      "imagem_pasta": "https://animefire.plus/img/animes/bishoujo-yuugi-unit-crane-game-girls/",
      "secao": "legendados",
      "pagina": 119,
      "total_episodios": 13,
      "link_video": "https://animefire.plus/video/bishoujo-yuugi-unit-crane-game-girls"
    },
    {
      "id": 405,
      "nome": "Bishoujo Yuugi Unit Crane Game Girls Galaxy",
      "link": "https://animefire.plus/animes/bishoujo-yuugi-unit-crane-game-girls-galaxy-todos-os-episodios",
      "texto_original": "Bishoujo Yuugi Unit Crane Game Girls Galaxy",
      "rating": 4.77,
      "classificacao_etaria": "A10",
      "imagem_original": "https://animefire.plus/img/animes/bishoujo-yuugi-unit-crane-game-girls-galaxy.webp",
      "imagem_pasta": "https://animefire.plus/img/animes/bishoujo-yuugi-unit-crane-game-girls-galaxy/",
      "secao": "legendados",
      "pagina": 146,
      "total_episodios": 3,
      "link_video": "https://animefire.plus/video/bishoujo-yuugi-unit-crane-game-girls-galaxy"
    },
    {
      "id": 406,
      "nome": "Bishounen Tanteidan",
      "link": "https://animefire.plus/animes/bishounen-tanteidan-todos-os-episodios",
      "texto_original": "Bishounen Tanteidan",
      "rating": 7.07,
      "classificacao_etaria": "A14",
      "imagem_original": "https://animefire.plus/img/animes/bishounen-tanteidan.webp",
      "imagem_pasta": "https://animefire.plus/img/animes/bishounen-tanteidan/",
      "secao": "legendados",
      "pagina": 46,
      "total_episodios": 12,
      "link_video": "https://animefire.plus/video/bishounen-tanteidan"
    },
    {
      "id": 407,
      "nome": "Black Blood Brothers",
      "link": "https://animefire.plus/animes/black-blood-brothers-todos-os-episodios",
      "texto_original": "Black Blood Brothers",
      "rating": 7.21,
      "classificacao_etaria": "A16",
      "imagem_original": "https://animefire.plus/img/animes/black-blood-brothers.webp",
      "imagem_pasta": "https://animefire.plus/img/animes/black-blood-brothers/",
      "secao": "legendados",
      "pagina": 151,
      "total_episodios": 6,
      "link_video": "https://animefire.plus/video/black-blood-brothers"
    },
    {
      "id": 408,
      "nome": "Black Bullet",
      "link": "https://animefire.plus/animes/black-bullet-todos-os-episodios",
      "texto_original": "Black Bullet",
      "rating": 7.33,
      "classificacao_etaria": "A16",
      "imagem_original": "https://animefire.plus/img/animes/black-bullet.webp",
      "imagem_pasta": "https://animefire.plus/img/animes/black-bullet/",
      "secao": "legendados",
      "pagina": 134,
      "total_episodios": 13,
      "link_video": "https://animefire.plus/video/black-bullet"
    },
    {
      "id": 409,
      "nome": "Black Cat (Dublado)",
      "link": "https://animefire.plus/animes/black-cat-dublado-todos-os-episodios",
      "texto_original": "Black Cat (Dublado)",
      "rating": 7.41,
      "classificacao_etaria": "A14",
      "imagem_original": "https://animefire.plus/img/animes/black-cat.webp",
      "imagem_pasta": "https://animefire.plus/img/animes/black-cat/",
      "secao": "dublados,legendados",
      "pagina": 22,
      "total_episodios": 24,
      "link_video": "https://animefire.plus/video/black-cat-dublado"
    },
    {
      "id": 410,
      "nome": "Black Clover (Dublado)",
      "link": "https://animefire.plus/animes/black-clover-dublado-todos-os-episodios",
      "texto_original": "Black Clover (Dublado)",
      "rating": 7.27,
      "classificacao_etaria": "A14",
      "imagem_original": "https://animefire.plus/img/animes/black-clover.webp",
      "imagem_pasta": "https://animefire.plus/img/animes/black-clover/",
      "secao": "dublados,legendados",
      "pagina": 20,
      "total_episodios": 170,
      "link_video": "https://animefire.plus/video/black-clover-dublado"
    },
    {
      "id": 411,
      "nome": "Black Jack",
      "link": "https://animefire.plus/animes/black-jack-todos-os-episodios",
      "texto_original": "Black Jack",
      "rating": 7.83,
      "classificacao_etaria": "A18",
      "imagem_original": "https://animefire.plus/img/animes/black-jack.webp",
      "imagem_pasta": "https://animefire.plus/img/animes/black-jack/",
      "secao": "legendados",
      "pagina": 175,
      "total_episodios": 0,
      "link_video": "https://animefire.plus/video/black-jack"
    }
  ],
  "pagination": {
    "current_page": 20,
    "per_page": 20,
    "total_items": 4269,
    "total_pages": 214,
    "has_next": true,
    "has_prev": true
  }
}
