{
  "message": "Animes da seção: legendados",
  "section": "legendados",
  "data": [
    {
      "id": 3604,
      "nome": "Souten no Ken",
      "link": "https://animefire.plus/animes/souten-no-ken-todos-os-episodios",
      "texto_original": "Souten no Ken",
      "rating": 6.75,
      "classificacao_etaria": "A16",
      "imagem_original": "https://animefire.plus/img/animes/souten-no-ken.webp",
      "imagem_pasta": "https://animefire.plus/img/animes/souten-no-ken/",
      "secao": "legendados",
      "pagina": 168,
      "total_episodios": 26,
      "link_video": "https://animefire.plus/video/souten-no-ken"
    },
    {
      "id": 3605,
      "nome": "Souten no Ken: Regenesis",
      "link": "https://animefire.plus/animes/souten-no-ken-regenesis-todos-os-episodios",
      "texto_original": "Souten no Ken: Regenesis",
      "rating": 5.7,
      "classificacao_etaria": "A16",
      "imagem_original": "https://animefire.plus/img/animes/souten-no-ken-regenesis.webp",
      "imagem_pasta": "https://animefire.plus/img/animes/souten-no-ken-regenesis/",
      "secao": "legendados",
      "pagina": 62,
      "total_episodios": 12,
      "link_video": "https://animefire.plus/video/souten-no-ken-regenesis"
    },
    {
      "id": 3606,
      "nome": "Space☆Dandy",
      "link": "https://animefire.plus/animes/space-dandy-todos-os-episodios",
      "texto_original": "Space☆Dandy",
      "rating": 7.89,
      "classificacao_etaria": "A14",
      "imagem_original": "https://animefire.plus/img/animes/space-dandy.webp",
      "imagem_pasta": "https://animefire.plus/img/animes/space-dandy/",
      "secao": "legendados",
      "pagina": 135,
      "total_episodios": 13,
      "link_video": "https://animefire.plus/video/space-dandy"
    },
    {
      "id": 3607,
      "nome": "Space☆Dandy 2nd Season",
      "link": "https://animefire.plus/animes/space-dandy-2nd-season-todos-os-episodios",
      "texto_original": "Space☆Dandy 2nd Season",
      "rating": 8.26,
      "classificacao_etaria": "A14",
      "imagem_original": "https://animefire.plus/img/animes/space-dandy-2nd-season.webp",
      "imagem_pasta": "https://animefire.plus/img/animes/space-dandy-2nd-season/",
      "secao": "legendados",
      "pagina": 150,
      "total_episodios": 4,
      "link_video": "https://animefire.plus/video/space-dandy-2nd-season"
    },
    {
      "id": 3608,
      "nome": "Special A",
      "link": "https://animefire.plus/animes/special-a-todos-os-episodios",
      "texto_original": "Special A",
      "rating": 7.68,
      "classificacao_etaria": "A14",
      "imagem_original": "https://animefire.plus/img/animes/special-a.webp",
      "imagem_pasta": "https://animefire.plus/img/animes/special-a/",
      "secao": "legendados",
      "pagina": 148,
      "total_episodios": 24,
      "link_video": "https://animefire.plus/video/special-a"
    },
    {
      "id": 3609,
      "nome": "Spectral Force",
      "link": "https://animefire.plus/animes/spectral-force-todos-os-episodios",
      "texto_original": "Spectral Force",
      "rating": 3.97,
      "classificacao_etaria": "A14",
      "imagem_original": "https://animefire.plus/img/animes/spectral-force.webp",
      "imagem_pasta": "https://animefire.plus/img/animes/spectral-force/",
      "secao": "legendados",
      "pagina": 69,
      "total_episodios": 2,
      "link_video": "https://animefire.plus/video/spectral-force"
    },
    {
      "id": 3610,
      "nome": "Speed Grapher",
      "link": "https://animefire.plus/animes/speed-grapher-todos-os-episodios",
      "texto_original": "Speed Grapher",
      "rating": 7.41,
      "classificacao_etaria": "A18",
      "imagem_original": "https://animefire.plus/img/animes/speed-grapher.webp",
      "imagem_pasta": "https://animefire.plus/img/animes/speed-grapher/",
      "secao": "legendados",
      "pagina": 165,
      "total_episodios": 24,
      "link_video": "https://animefire.plus/video/speed-grapher"
    },
    {
      "id": 3611,
      "nome": "Spiral: Suiri no Kizuna",
      "link": "https://animefire.plus/animes/spiral-suiri-no-kizuna-todos-os-episodios",
      "texto_original": "Spiral: Suiri no Kizuna",
      "rating": 7.33,
      "classificacao_etaria": "A14",
      "imagem_original": "https://animefire.plus/img/animes/spiral-suiri-no-kizuna.webp",
      "imagem_pasta": "https://animefire.plus/img/animes/spiral-suiri-no-kizuna/",
      "secao": "legendados",
      "pagina": 127,
      "total_episodios": 25,
      "link_video": "https://animefire.plus/video/spiral-suiri-no-kizuna"
    },
    {
      "id": 3612,
      "nome": "Spriggan (ONA) (Dublado)",
      "link": "https://animefire.plus/animes/spriggan-ona-dublado-todos-os-episodios",
      "texto_original": "Spriggan (ONA) (Dublado)",
      "rating": 6.86,
      "classificacao_etaria": "A16",
      "imagem_original": "https://animefire.plus/img/animes/spriggan-ona.webp",
      "imagem_pasta": "https://animefire.plus/img/animes/spriggan-ona/",
      "secao": "dublados,legendados",
      "pagina": 10,
      "total_episodios": 6,
      "link_video": "https://animefire.plus/video/spriggan-ona-dublado"
    },
    {
      "id": 3613,
      "nome": "Spy Kyoushitsu",
      "link": "https://animefire.plus/animes/spy-kyoushitsu-todos-os-episodios",
      "texto_original": "Spy Kyoushitsu",
      "rating": 6.4,
      "classificacao_etaria": "A14",
      "imagem_original": "https://animefire.plus/img/animes/spy-kyoushitsu.webp",
      "imagem_pasta": "https://animefire.plus/img/animes/spy-kyoushitsu/",
      "secao": "legendados",
      "pagina": 28,
      "total_episodios": 12,
      "link_video": "https://animefire.plus/video/spy-kyoushitsu"
    },
    {
      "id": 3614,
      "nome": "Spy Kyoushitsu 2nd Season",
      "link": "https://animefire.plus/animes/spy-kyoushitsu-2nd-season-todos-os-episodios",
      "texto_original": "Spy Kyoushitsu 2nd Season",
      "rating": 7.15,
      "classificacao_etaria": "A14",
      "imagem_original": "https://animefire.plus/img/animes/spy-kyoushitsu-2nd-season.webp",
      "imagem_pasta": "https://animefire.plus/img/animes/spy-kyoushitsu-2nd-season/",
      "secao": "legendados,lancamentos",
      "pagina": 22,
      "total_episodios": 11,
      "link_video": "https://animefire.plus/video/spy-kyoushitsu-2nd-season"
    },
    {
      "id": 3615,
      "nome": "Spy x Family (Dublado)",
      "link": "https://animefire.plus/animes/spy-x-family-dublado-todos-os-episodios",
      "texto_original": "Spy x Family (Dublado)",
      "rating": 8.52,
      "classificacao_etaria": "A14",
      "imagem_original": "https://animefire.plus/img/animes/spy-x-family.webp",
      "imagem_pasta": "https://animefire.plus/img/animes/spy-x-family/",
      "secao": "dublados,legendados",
      "pagina": 11,
      "total_episodios": 12,
      "link_video": "https://animefire.plus/video/spy-x-family-dublado"
    },
    {
      "id": 3616,
      "nome": "Spy x Family Part 2 (Dublado)",
      "link": "https://animefire.plus/animes/spy-x-family-part-2-dublado-todos-os-episodios",
      "texto_original": "Spy x Family Part 2 (Dublado)",
      "rating": 8.25,
      "classificacao_etaria": "A14",
      "imagem_original": "https://animefire.plus/img/animes/spy-x-family-part-2.webp",
      "imagem_pasta": "https://animefire.plus/img/animes/spy-x-family-part-2/",
      "secao": "dublados,legendados",
      "pagina": 9,
      "total_episodios": 13,
      "link_video": "https://animefire.plus/video/spy-x-family-part-2-dublado"
    },
    {
      "id": 3617,
      "nome": "Spy x Family Season 2 (Dublado)",
      "link": "https://animefire.plus/animes/spy-x-family-season-2-dublado-todos-os-episodios",
      "texto_original": "Spy x Family Season 2 (Dublado)",
      "rating": 8.07,
      "classificacao_etaria": "A14",
      "imagem_original": "https://animefire.plus/img/animes/spy-x-family-season-2.webp",
      "imagem_pasta": "https://animefire.plus/img/animes/spy-x-family-season-2/",
      "secao": "dublados,legendados",
      "pagina": 5,
      "total_episodios": 12,
      "link_video": "https://animefire.plus/video/spy-x-family-season-2-dublado"
    },
    {
      "id": 3618,
      "nome": "SSSS.Dynazenon",
      "link": "https://animefire.plus/animes/ssss-dynazenon-todos-os-episodios",
      "texto_original": "SSSS.Dynazenon",
      "rating": 7.43,
      "classificacao_etaria": "A14",
      "imagem_original": "https://animefire.plus/img/animes/ssss-dynazenon.webp",
      "imagem_pasta": "https://animefire.plus/img/animes/ssss-dynazenon/",
      "secao": "legendados",
      "pagina": 47,
      "total_episodios": 12,
      "link_video": "https://animefire.plus/video/ssss-dynazenon"
    },
    {
      "id": 3619,
      "nome": "SSSS.Gridman",
      "link": "https://animefire.plus/animes/ssss-gridman-todos-os-episodios",
      "texto_original": "SSSS.Gridman",
      "rating": 7.35,
      "classificacao_etaria": "A14",
      "imagem_original": "https://animefire.plus/img/animes/ssss-gridman.webp",
      "imagem_pasta": "https://animefire.plus/img/animes/ssss-gridman/",
      "secao": "legendados",
      "pagina": 117,
      "total_episodios": 3,
      "link_video": "https://animefire.plus/video/ssss-gridman"
    },
    {
      "id": 3620,
      "nome": "Stand My Heroes: Piece of Truth (Dublado)",
      "link": "https://animefire.plus/animes/stand-my-heroes-piece-of-truth-dublado-todos-os-episodios",
      "texto_original": "Stand My Heroes: Piece of Truth (Dublado)",
      "rating": 5.7,
      "classificacao_etaria": "A14",
      "imagem_original": "https://animefire.plus/img/animes/stand-my-heroes-piece-of-truth.webp",
      "imagem_pasta": "https://animefire.plus/img/animes/stand-my-heroes-piece-of-truth/",
      "secao": "dublados,legendados",
      "pagina": 18,
      "total_episodios": 12,
      "link_video": "https://animefire.plus/video/stand-my-heroes-piece-of-truth-dublado"
    },
    {
      "id": 3621,
      "nome": "Star Driver: Kagayaki no Takuto",
      "link": "https://animefire.plus/animes/star-driver-kagayaki-no-takuto-todos-os-episodios",
      "texto_original": "Star Driver: Kagayaki no Takuto",
      "rating": 7.26,
      "classificacao_etaria": "A14",
      "imagem_original": "https://animefire.plus/img/animes/star-driver-kagayaki-no-takuto.webp",
      "imagem_pasta": "https://animefire.plus/img/animes/star-driver-kagayaki-no-takuto/",
      "secao": "legendados",
      "pagina": 66,
      "total_episodios": 25,
      "link_video": "https://animefire.plus/video/star-driver-kagayaki-no-takuto"
    },
    {
      "id": 3622,
      "nome": "Star Ocean EX",
      "link": "https://animefire.plus/animes/star-ocean-ex-todos-os-episodios",
      "texto_original": "Star Ocean EX",
      "rating": 6.66,
      "classificacao_etaria": "A14",
      "imagem_original": "https://animefire.plus/img/animes/star-ocean-ex.webp",
      "imagem_pasta": "https://animefire.plus/img/animes/star-ocean-ex/",
      "secao": "legendados",
      "pagina": 119,
      "total_episodios": 26,
      "link_video": "https://animefire.plus/video/star-ocean-ex"
    },
    {
      "id": 3623,
      "nome": "Star Wars: Visions (Dublado)",
      "link": "https://animefire.plus/animes/star-wars-visions-dublado-todos-os-episodios",
      "texto_original": "Star Wars: Visions (Dublado)",
      "rating": 7.09,
      "classificacao_etaria": "A14",
      "imagem_original": "https://animefire.plus/img/animes/star-wars-visions.webp",
      "imagem_pasta": "https://animefire.plus/img/animes/star-wars-visions/",
      "secao": "dublados,legendados",
      "pagina": 15,
      "total_episodios": 9,
      "link_video": "https://animefire.plus/video/star-wars-visions-dublado"
    }
  ],
  "pagination": {
    "current_page": 177,
    "per_page": 20,
    "total_items": 4269,
    "total_pages": 214,
    "has_next": true,
    "has_prev": true
  }
}
