{
  "message": "Animes da seção: legendados",
  "section": "legendados",
  "data": [
    {
      "id": 350,
      "nome": "Bastard!! Ankoku no Hakaishin (ONA) (Dublado)",
      "link": "https://animefire.plus/animes/bastard-ankoku-no-hakaishin-ona-dublado-todos-os-episodios",
      "texto_original": "Bastard!! Ankoku no Hakaishin (ONA) (Dublado)",
      "rating": 6.59,
      "classificacao_etaria": "A18",
      "imagem_original": "https://animefire.plus/img/animes/bastard-ankoku-no-hakaishin-ona.webp",
      "imagem_pasta": "https://animefire.plus/img/animes/bastard-ankoku-no-hakaishin-ona/",
      "secao": "dublados,legendados",
      "pagina": 10,
      "total_episodios": 13,
      "link_video": "https://animefire.plus/video/bastard-ankoku-no-hakaishin-ona-dublado"
    },
    {
      "id": 351,
      "nome": "Bastard!! Ankoku no Hakaishin (ONA) Part 2 (Dublado)",
      "link": "https://animefire.plus/animes/bastard-ankoku-no-hakaishin-ona-part-2-dublado-todos-os-episodios",
      "texto_original": "Bastard!! Ankoku no Hakaishin (ONA) Part 2 (Dublado)",
      "rating": 6.75,
      "classificacao_etaria": "A18",
      "imagem_original": "https://animefire.plus/img/animes/bastard-ankoku-no-hakaishin-ona-part-2.webp",
      "imagem_pasta": "https://animefire.plus/img/animes/bastard-ankoku-no-hakaishin-ona-part-2/",
      "secao": "dublados,legendados",
      "pagina": 9,
      "total_episodios": 11,
      "link_video": "https://animefire.plus/video/bastard-ankoku-no-hakaishin-ona-part-2-dublado"
    },
    {
      "id": 353,
      "nome": "Bastard!! Ankoku no Hakaishin Season 2 (ONA) (Dublado)",
      "link": "https://animefire.plus/animes/bastard-ankoku-no-hakaishin-season-2-ona-dublado-todos-os-episodios",
      "texto_original": "Bastard!! Ankoku no Hakaishin Season 2 (ONA) (Dublado)",
      "rating": 7.07,
      "classificacao_etaria": "A18",
      "imagem_original": "https://animefire.plus/img/animes/bastard-ankoku-no-hakaishin-season-2-ona.webp",
      "imagem_pasta": "https://animefire.plus/img/animes/bastard-ankoku-no-hakaishin-season-2-ona/",
      "secao": "dublados,legendados",
      "pagina": 6,
      "total_episodios": 15,
      "link_video": "https://animefire.plus/video/bastard-ankoku-no-hakaishin-season-2-ona-dublado"
    },
    {
      "id": 354,
      "nome": "Bastard!!: Ankoku no Hakaishin",
      "link": "https://animefire.plus/animes/bastard-ankoku-no-hakaishin-todos-os-episodios",
      "texto_original": "Bastard!!: Ankoku no Hakaishin",
      "rating": 6.84,
      "classificacao_etaria": "A18",
      "imagem_original": "https://animefire.plus/img/animes/bastard-ankoku-no-hakaishin.webp",
      "imagem_pasta": "https://animefire.plus/img/animes/bastard-ankoku-no-hakaishin/",
      "secao": "legendados",
      "pagina": 113,
      "total_episodios": 6,
      "link_video": "https://animefire.plus/video/bastard-ankoku-no-hakaishin"
    },
    {
      "id": 355,
      "nome": "Battery",
      "link": "https://animefire.plus/animes/battery-todos-os-episodios",
      "texto_original": "Battery",
      "rating": 5.76,
      "classificacao_etaria": "A14",
      "imagem_original": "https://animefire.plus/img/animes/battery.webp",
      "imagem_pasta": "https://animefire.plus/img/animes/battery/",
      "secao": "legendados",
      "pagina": 148,
      "total_episodios": 7,
      "link_video": "https://animefire.plus/video/battery"
    },
    {
      "id": 356,
      "nome": "Battle Athletess Daiundoukai ReSTART!",
      "link": "https://animefire.plus/animes/battle-athletess-daiundoukai-restart-todos-os-episodios",
      "texto_original": "Battle Athletess Daiundoukai ReSTART!",
      "rating": 5.11,
      "classificacao_etaria": "A14",
      "imagem_original": "https://animefire.plus/img/animes/battle-athletess-daiundoukai-restart.webp",
      "imagem_pasta": "https://animefire.plus/img/animes/battle-athletess-daiundoukai-restart/",
      "secao": "legendados",
      "pagina": 45,
      "total_episodios": 12,
      "link_video": "https://animefire.plus/video/battle-athletess-daiundoukai-restart"
    },
    {
      "id": 357,
      "nome": "Battle Girl High School",
      "link": "https://animefire.plus/animes/battle-girl-high-school-todos-os-episodios",
      "texto_original": "Battle Girl High School",
      "rating": 5.9,
      "classificacao_etaria": "A14",
      "imagem_original": "https://animefire.plus/img/animes/battle-girl-high-school.webp",
      "imagem_pasta": "https://animefire.plus/img/animes/battle-girl-high-school/",
      "secao": "legendados",
      "pagina": 173,
      "total_episodios": 12,
      "link_video": "https://animefire.plus/video/battle-girl-high-school"
    },
    {
      "id": 358,
      "nome": "Battle Programmer Shirase",
      "link": "https://animefire.plus/animes/battle-programmer-shirase-todos-os-episodios",
      "texto_original": "Battle Programmer Shirase",
      "rating": 7,
      "classificacao_etaria": "A14",
      "imagem_original": "https://animefire.plus/img/animes/battle-programmer-shirase.webp",
      "imagem_pasta": "https://animefire.plus/img/animes/battle-programmer-shirase/",
      "secao": "legendados",
      "pagina": 165,
      "total_episodios": 5,
      "link_video": "https://animefire.plus/video/battle-programmer-shirase"
    },
    {
      "id": 359,
      "nome": "Battle Royal High School",
      "link": "https://animefire.plus/animes/battle-royal-high-school-todos-os-episodios",
      "texto_original": "Battle Royal High School",
      "rating": 5.59,
      "classificacao_etaria": "A18",
      "imagem_original": "https://animefire.plus/img/animes/battle-royal-high-school.webp",
      "imagem_pasta": "https://animefire.plus/img/animes/battle-royal-high-school/",
      "secao": "legendados",
      "pagina": 65,
      "total_episodios": 1,
      "link_video": "https://animefire.plus/video/battle-royal-high-school"
    },
    {
      "id": 360,
      "nome": "Battle Spirits: Burning Soul",
      "link": "https://animefire.plus/animes/battle-spirits-burning-soul-todos-os-episodios",
      "texto_original": "Battle Spirits: Burning Soul",
      "rating": 6.84,
      "classificacao_etaria": "A10",
      "imagem_original": "https://animefire.plus/img/animes/battle-spirits-burning-soul.webp",
      "imagem_pasta": "https://animefire.plus/img/animes/battle-spirits-burning-soul/",
      "secao": "legendados",
      "pagina": 174,
      "total_episodios": 51,
      "link_video": "https://animefire.plus/video/battle-spirits-burning-soul"
    },
    {
      "id": 362,
      "nome": "Bean Bandit",
      "link": "https://animefire.plus/animes/bean-bandit-todos-os-episodios",
      "texto_original": "Bean Bandit",
      "rating": 5.09,
      "classificacao_etaria": "A14",
      "imagem_original": "https://animefire.plus/img/animes/bean-bandit.webp",
      "imagem_pasta": "https://animefire.plus/img/animes/bean-bandit/",
      "secao": "legendados",
      "pagina": 33,
      "total_episodios": 1,
      "link_video": "https://animefire.plus/video/bean-bandit"
    },
    {
      "id": 363,
      "nome": "Beastars (Dublado)",
      "link": "https://animefire.plus/animes/beastars-dublado-todos-os-episodios",
      "texto_original": "Beastars (Dublado)",
      "rating": 8.09,
      "classificacao_etaria": "A16",
      "imagem_original": "https://animefire.plus/img/animes/beastars.webp",
      "imagem_pasta": "https://animefire.plus/img/animes/beastars/",
      "secao": "dublados,legendados",
      "pagina": 25,
      "total_episodios": 12,
      "link_video": "https://animefire.plus/video/beastars-dublado"
    },
    {
      "id": 364,
      "nome": "Beastars 2nd Season (Dublado)",
      "link": "https://animefire.plus/animes/beastars-2nd-season-dublado-todos-os-episodios",
      "texto_original": "Beastars 2nd Season (Dublado)",
      "rating": 7.78,
      "classificacao_etaria": "A16",
      "imagem_original": "https://animefire.plus/img/animes/beastars-2nd-season.webp",
      "imagem_pasta": "https://animefire.plus/img/animes/beastars-2nd-season/",
      "secao": "dublados,legendados",
      "pagina": 16,
      "total_episodios": 12,
      "link_video": "https://animefire.plus/video/beastars-2nd-season-dublado"
    },
    {
      "id": 365,
      "nome": "Beastars Final Season",
      "link": "https://animefire.plus/animes/beastars-final-season-todos-os-episodios",
      "texto_original": "Beastars Final Season",
      "rating": null,
      "classificacao_etaria": "A16",
      "imagem_original": "https://animefire.plus/img/animes/beastars-final-season.webp",
      "imagem_pasta": "https://animefire.plus/img/animes/beastars-final-season/",
      "secao": "legendados,lancamentos",
      "pagina": 9,
      "total_episodios": 0,
      "link_video": "https://animefire.plus/video/beastars-final-season"
    },
    {
      "id": 366,
      "nome": "Beatless",
      "link": "https://animefire.plus/animes/beatless-todos-os-episodios",
      "texto_original": "Beatless",
      "rating": 6.27,
      "classificacao_etaria": "A14",
      "imagem_original": "https://animefire.plus/img/animes/beatless.webp",
      "imagem_pasta": "https://animefire.plus/img/animes/beatless/",
      "secao": "legendados",
      "pagina": 113,
      "total_episodios": 18,
      "link_video": "https://animefire.plus/video/beatless"
    },
    {
      "id": 367,
      "nome": "Beatless Final Stage",
      "link": "https://animefire.plus/animes/beatless-final-stage-todos-os-episodios",
      "texto_original": "Beatless Final Stage",
      "rating": 6.87,
      "classificacao_etaria": "A14",
      "imagem_original": "https://animefire.plus/img/animes/beatless-final-stage.webp",
      "imagem_pasta": "https://animefire.plus/img/animes/beatless-final-stage/",
      "secao": "legendados",
      "pagina": 159,
      "total_episodios": 4,
      "link_video": "https://animefire.plus/video/beatless-final-stage"
    },
    {
      "id": 368,
      "nome": "Beatless Intermission",
      "link": "https://animefire.plus/animes/beatless-intermission-todos-os-episodios",
      "texto_original": "Beatless Intermission",
      "rating": 5.35,
      "classificacao_etaria": "A14",
      "imagem_original": "https://animefire.plus/img/animes/beatless-intermission.webp",
      "imagem_pasta": "https://animefire.plus/img/animes/beatless-intermission/",
      "secao": "legendados",
      "pagina": 134,
      "total_episodios": 4,
      "link_video": "https://animefire.plus/video/beatless-intermission"
    },
    {
      "id": 369,
      "nome": "Beck",
      "link": "https://animefire.plus/animes/beck-todos-os-episodios",
      "texto_original": "Beck",
      "rating": 8.35,
      "classificacao_etaria": "A16",
      "imagem_original": "https://animefire.plus/img/animes/beck.webp",
      "imagem_pasta": "https://animefire.plus/img/animes/beck/",
      "secao": "legendados",
      "pagina": 153,
      "total_episodios": 26,
      "link_video": "https://animefire.plus/video/beck"
    },
    {
      "id": 370,
      "nome": "Beelzebub",
      "link": "https://animefire.plus/animes/beelzebub-todos-os-episodios",
      "texto_original": "Beelzebub",
      "rating": 8.01,
      "classificacao_etaria": "A14",
      "imagem_original": "https://animefire.plus/img/animes/beelzebub.webp",
      "imagem_pasta": "https://animefire.plus/img/animes/beelzebub/",
      "secao": "legendados",
      "pagina": 158,
      "total_episodios": 53,
      "link_video": "https://animefire.plus/video/beelzebub"
    },
    {
      "id": 371,
      "nome": "Beelzebub-jou no Okinimesu mama.",
      "link": "https://animefire.plus/animes/beelzebub-jou-no-okinimesu-mama-todos-os-episodios",
      "texto_original": "Beelzebub-jou no Okinimesu mama.",
      "rating": 7.35,
      "classificacao_etaria": "A14",
      "imagem_original": "https://animefire.plus/img/animes/beelzebub-jou-no-okinimesu-mama.webp",
      "imagem_pasta": "https://animefire.plus/img/animes/beelzebub-jou-no-okinimesu-mama/",
      "secao": "legendados",
      "pagina": 145,
      "total_episodios": 12,
      "link_video": "https://animefire.plus/video/beelzebub-jou-no-okinimesu-mama"
    }
  ],
  "pagination": {
    "current_page": 18,
    "per_page": 20,
    "total_items": 4269,
    "total_pages": 214,
    "has_next": true,
    "has_prev": true
  }
}
