{
  "message": "Animes da seção: legendados",
  "section": "legendados",
  "data": [
    {
      "id": 1546,
      "nome": "Hug tto! Precure",
      "link": "https://animefire.plus/animes/hug-tto-precure-todos-os-episodios",
      "texto_original": "Hug tto! Precure",
      "rating": 7.76,
      "classificacao_etaria": null,
      "imagem_original": "https://animefire.plus/img/animes/hug-tto-precure.webp",
      "imagem_pasta": "https://animefire.plus/img/animes/hug-tto-precure/",
      "secao": "legendados",
      "pagina": 67,
      "total_episodios": 49,
      "link_video": "https://animefire.plus/video/hug-tto-precure"
    },
    {
      "id": 1547,
      "nome": "Human Bug Daigaku",
      "link": "https://animefire.plus/animes/human-bug-daigaku-todos-os-episodios",
      "texto_original": "Human Bug Daigaku",
      "rating": 6.68,
      "classificacao_etaria": "A14",
      "imagem_original": "https://animefire.plus/img/animes/human-bug-daigaku.webp",
      "imagem_pasta": "https://animefire.plus/img/animes/human-bug-daigaku/",
      "secao": "legendados",
      "pagina": 28,
      "total_episodios": 12,
      "link_video": "https://animefire.plus/video/human-bug-daigaku"
    },
    {
      "id": 1548,
      "nome": "Hundred",
      "link": "https://animefire.plus/animes/hundred-todos-os-episodios",
      "texto_original": "Hundred",
      "rating": 6.56,
      "classificacao_etaria": "A14",
      "imagem_original": "https://animefire.plus/img/animes/hundred.webp",
      "imagem_pasta": "https://animefire.plus/img/animes/hundred/",
      "secao": "legendados",
      "pagina": 174,
      "total_episodios": 12,
      "link_video": "https://animefire.plus/video/hundred"
    },
    {
      "id": 1549,
      "nome": "Hunter x Hunter (2011) (Dublado)",
      "link": "https://animefire.plus/animes/hunter-x-hunter-2011-dublado-todos-os-episodios",
      "texto_original": "Hunter x Hunter (2011) (Dublado)",
      "rating": 9.04,
      "classificacao_etaria": "A14",
      "imagem_original": "https://animefire.plus/img/animes/hunter-x-hunter-2011.webp",
      "imagem_pasta": "https://animefire.plus/img/animes/hunter-x-hunter-2011/",
      "secao": "dublados,legendados",
      "pagina": 6,
      "total_episodios": 148,
      "link_video": "https://animefire.plus/video/hunter-x-hunter-2011-dublado"
    },
    {
      "id": 1551,
      "nome": "Hunter x Hunter Pilot",
      "link": "https://animefire.plus/animes/hunter-x-hunter-pilot-todos-os-episodios",
      "texto_original": "Hunter x Hunter Pilot",
      "rating": 7.22,
      "classificacao_etaria": "A14",
      "imagem_original": "https://animefire.plus/img/animes/hunter-x-hunter-pilot.webp",
      "imagem_pasta": "https://animefire.plus/img/animes/hunter-x-hunter-pilot/",
      "secao": "legendados",
      "pagina": 69,
      "total_episodios": 1,
      "link_video": "https://animefire.plus/video/hunter-x-hunter-pilot"
    },
    {
      "id": 1552,
      "nome": "Hunter x Hunter: Greed Island",
      "link": "https://animefire.plus/animes/hunter-x-hunter-greed-island-todos-os-episodios",
      "texto_original": "Hunter x Hunter: Greed Island",
      "rating": 8.2,
      "classificacao_etaria": "A14",
      "imagem_original": "https://animefire.plus/img/animes/hunter-x-hunter-greed-island.webp",
      "imagem_pasta": "https://animefire.plus/img/animes/hunter-x-hunter-greed-island/",
      "secao": "legendados",
      "pagina": 43,
      "total_episodios": 8,
      "link_video": "https://animefire.plus/video/hunter-x-hunter-greed-island"
    },
    {
      "id": 1553,
      "nome": "Hunter x Hunter: Greed Island Final",
      "link": "https://animefire.plus/animes/hunter-x-hunter-greed-island-final-todos-os-episodios",
      "texto_original": "Hunter x Hunter: Greed Island Final",
      "rating": 8.28,
      "classificacao_etaria": "A14",
      "imagem_original": "https://animefire.plus/img/animes/hunter-x-hunter-greed-island-final.webp",
      "imagem_pasta": "https://animefire.plus/img/animes/hunter-x-hunter-greed-island-final/",
      "secao": "legendados",
      "pagina": 43,
      "total_episodios": 14,
      "link_video": "https://animefire.plus/video/hunter-x-hunter-greed-island-final"
    },
    {
      "id": 1554,
      "nome": "Huyao Xiao Hongniang",
      "link": "https://animefire.plus/animes/huyao-xiao-hongniang-todos-os-episodios",
      "texto_original": "Huyao Xiao Hongniang",
      "rating": 7.28,
      "classificacao_etaria": "A14",
      "imagem_original": "https://animefire.plus/img/animes/huyao-xiao-hongniang.webp",
      "imagem_pasta": "https://animefire.plus/img/animes/huyao-xiao-hongniang/",
      "secao": "legendados",
      "pagina": 85,
      "total_episodios": 13,
      "link_video": "https://animefire.plus/video/huyao-xiao-hongniang"
    },
    {
      "id": 1555,
      "nome": "Huyao Xiao Hongniang: Nan Guo",
      "link": "https://animefire.plus/animes/huyao-xiao-hongniang-nan-guo-todos-os-episodios",
      "texto_original": "Huyao Xiao Hongniang: Nan Guo",
      "rating": 7.61,
      "classificacao_etaria": "A14",
      "imagem_original": "https://animefire.plus/img/animes/huyao-xiao-hongniang-nan-guo.webp",
      "imagem_pasta": "https://animefire.plus/img/animes/huyao-xiao-hongniang-nan-guo/",
      "secao": "legendados",
      "pagina": 132,
      "total_episodios": 26,
      "link_video": "https://animefire.plus/video/huyao-xiao-hongniang-nan-guo"
    },
    {
      "id": 1556,
      "nome": "Huyao Xiao Hongniang: Qian Yan",
      "link": "https://animefire.plus/animes/huyao-xiao-hongniang-qian-yan-todos-os-episodios",
      "texto_original": "Huyao Xiao Hongniang: Qian Yan",
      "rating": 7.67,
      "classificacao_etaria": "A14",
      "imagem_original": "https://animefire.plus/img/animes/huyao-xiao-hongniang-qian-yan.webp",
      "imagem_pasta": "https://animefire.plus/img/animes/huyao-xiao-hongniang-qian-yan/",
      "secao": "legendados",
      "pagina": 123,
      "total_episodios": 15,
      "link_video": "https://animefire.plus/video/huyao-xiao-hongniang-qian-yan"
    },
    {
      "id": 1557,
      "nome": "Huyao Xiao Hongniang: Wangquan Fugui",
      "link": "https://animefire.plus/animes/huyao-xiao-hongniang-wangquan-fugui-todos-os-episodios",
      "texto_original": "Huyao Xiao Hongniang: Wangquan Fugui",
      "rating": 7.63,
      "classificacao_etaria": "A16",
      "imagem_original": "https://animefire.plus/img/animes/huyao-xiao-hongniang-wangquan-fugui.webp",
      "imagem_pasta": "https://animefire.plus/img/animes/huyao-xiao-hongniang-wangquan-fugui/",
      "secao": "legendados",
      "pagina": 85,
      "total_episodios": 14,
      "link_video": "https://animefire.plus/video/huyao-xiao-hongniang-wangquan-fugui"
    },
    {
      "id": 1558,
      "nome": "Huyao Xiao Hongniang: Yue Hong",
      "link": "https://animefire.plus/animes/huyao-xiao-hongniang-yue-hong-todos-os-episodios",
      "texto_original": "Huyao Xiao Hongniang: Yue Hong",
      "rating": 7.78,
      "classificacao_etaria": "A16",
      "imagem_original": "https://animefire.plus/img/animes/huyao-xiao-hongniang-yue-hong.webp",
      "imagem_pasta": "https://animefire.plus/img/animes/huyao-xiao-hongniang-yue-hong/",
      "secao": "legendados",
      "pagina": 172,
      "total_episodios": 13,
      "link_video": "https://animefire.plus/video/huyao-xiao-hongniang-yue-hong"
    },
    {
      "id": 1559,
      "nome": "Huyao Xiao Hongniang: Zhu Ye",
      "link": "https://animefire.plus/animes/huyao-xiao-hongniang-zhu-ye-todos-os-episodios",
      "texto_original": "Huyao Xiao Hongniang: Zhu Ye",
      "rating": 7.48,
      "classificacao_etaria": "A14",
      "imagem_original": "https://animefire.plus/img/animes/huyao-xiao-hongniang-zhu-ye.webp",
      "imagem_pasta": "https://animefire.plus/img/animes/huyao-xiao-hongniang-zhu-ye/",
      "secao": "legendados",
      "pagina": 112,
      "total_episodios": 12,
      "link_video": "https://animefire.plus/video/huyao-xiao-hongniang-zhu-ye"
    },
    {
      "id": 1560,
      "nome": "Hyakka Ryouran: Samurai After",
      "link": "https://animefire.plus/animes/hyakka-ryouran-samurai-after-todos-os-episodios",
      "texto_original": "Hyakka Ryouran: Samurai After",
      "rating": 6.72,
      "classificacao_etaria": "A18",
      "imagem_original": "https://animefire.plus/img/animes/hyakka-ryouran-samurai-after.webp",
      "imagem_pasta": "https://animefire.plus/img/animes/hyakka-ryouran-samurai-after/",
      "secao": "legendados",
      "pagina": 74,
      "total_episodios": 4,
      "link_video": "https://animefire.plus/video/hyakka-ryouran-samurai-after"
    },
    {
      "id": 1561,
      "nome": "Hyakka Ryouran: Samurai Bride",
      "link": "https://animefire.plus/animes/hyakka-ryouran-samurai-bride-todos-os-episodios",
      "texto_original": "Hyakka Ryouran: Samurai Bride",
      "rating": 6.85,
      "classificacao_etaria": "A18",
      "imagem_original": "https://animefire.plus/img/animes/hyakka-ryouran-samurai-bride.webp",
      "imagem_pasta": "https://animefire.plus/img/animes/hyakka-ryouran-samurai-bride/",
      "secao": "legendados",
      "pagina": 156,
      "total_episodios": 12,
      "link_video": "https://animefire.plus/video/hyakka-ryouran-samurai-bride"
    },
    {
      "id": 1562,
      "nome": "Hyakka Ryouran: Samurai Girls",
      "link": "https://animefire.plus/animes/hyakka-ryouran-samurai-girls-todos-os-episodios",
      "texto_original": "Hyakka Ryouran: Samurai Girls",
      "rating": 6.91,
      "classificacao_etaria": "A18",
      "imagem_original": "https://animefire.plus/img/animes/hyakka-ryouran-samurai-girls.webp",
      "imagem_pasta": "https://animefire.plus/img/animes/hyakka-ryouran-samurai-girls/",
      "secao": "legendados",
      "pagina": 139,
      "total_episodios": 12,
      "link_video": "https://animefire.plus/video/hyakka-ryouran-samurai-girls"
    },
    {
      "id": 1563,
      "nome": "Hyakko",
      "link": "https://animefire.plus/animes/hyakko-todos-os-episodios",
      "texto_original": "Hyakko",
      "rating": 7.29,
      "classificacao_etaria": "A14",
      "imagem_original": "https://animefire.plus/img/animes/hyakko.webp",
      "imagem_pasta": "https://animefire.plus/img/animes/hyakko/",
      "secao": "legendados",
      "pagina": 109,
      "total_episodios": 13,
      "link_video": "https://animefire.plus/video/hyakko"
    },
    {
      "id": 1564,
      "nome": "Hyakko Extra",
      "link": "https://animefire.plus/animes/hyakko-extra-todos-os-episodios",
      "texto_original": "Hyakko Extra",
      "rating": 6.78,
      "classificacao_etaria": "A14",
      "imagem_original": "https://animefire.plus/img/animes/hyakko-extra.webp",
      "imagem_pasta": "https://animefire.plus/img/animes/hyakko-extra/",
      "secao": "legendados",
      "pagina": 71,
      "total_episodios": 1,
      "link_video": "https://animefire.plus/video/hyakko-extra"
    },
    {
      "id": 1565,
      "nome": "Hyakujuu-Ou GoLion",
      "link": "https://animefire.plus/animes/hyakujuu-ou-golion-todos-os-episodios",
      "texto_original": "Hyakujuu-Ou GoLion",
      "rating": 6.82,
      "classificacao_etaria": "A14",
      "imagem_original": "https://animefire.plus/img/animes/hyakujuu-ou-golion.webp",
      "imagem_pasta": "https://animefire.plus/img/animes/hyakujuu-ou-golion/",
      "secao": "legendados",
      "pagina": 43,
      "total_episodios": 28,
      "link_video": "https://animefire.plus/video/hyakujuu-ou-golion"
    },
    {
      "id": 1566,
      "nome": "Hyakuren no Haou to Seiyaku no Valkyria",
      "link": "https://animefire.plus/animes/hyakuren-no-haou-to-seiyaku-no-valkyria-todos-os-episodios",
      "texto_original": "Hyakuren no Haou to Seiyaku no Valkyria",
      "rating": 6.07,
      "classificacao_etaria": "A14",
      "imagem_original": "https://animefire.plus/img/animes/hyakuren-no-haou-to-seiyaku-no-valkyria.webp",
      "imagem_pasta": "https://animefire.plus/img/animes/hyakuren-no-haou-to-seiyaku-no-valkyria/",
      "secao": "legendados",
      "pagina": 132,
      "total_episodios": 12,
      "link_video": "https://animefire.plus/video/hyakuren-no-haou-to-seiyaku-no-valkyria"
    }
  ],
  "pagination": {
    "current_page": 76,
    "per_page": 20,
    "total_items": 4269,
    "total_pages": 214,
    "has_next": true,
    "has_prev": true
  }
}
