{
  "message": "Animes da seção: legendados",
  "section": "legendados",
  "data": [
    {
      "id": 4299,
      "nome": "Yuri!!! on Ice",
      "link": "https://animefire.plus/animes/yuri-on-ice-todos-os-episodios",
      "texto_original": "Yuri!!! on Ice",
      "rating": 8.11,
      "classificacao_etaria": "A14",
      "imagem_original": "https://animefire.plus/img/animes/yuri-on-ice.webp",
      "imagem_pasta": "https://animefire.plus/img/animes/yuri-on-ice/",
      "secao": "legendados",
      "pagina": 116,
      "total_episodios": 1,
      "link_video": "https://animefire.plus/video/yuri-on-ice"
    },
    {
      "id": 4300,
      "nome": "Yuru Camp△ (Dublado)",
      "link": "https://animefire.plus/animes/yuru-camp-dublado-todos-os-episodios",
      "texto_original": "Yuru Camp△ (Dublado)",
      "rating": 8.27,
      "classificacao_etaria": "A14",
      "imagem_original": "https://animefire.plus/img/animes/yuru-camp.webp",
      "imagem_pasta": "https://animefire.plus/img/animes/yuru-camp/",
      "secao": "dublados,legendados",
      "pagina": 11,
      "total_episodios": 12,
      "link_video": "https://animefire.plus/video/yuru-camp-dublado"
    },
    {
      "id": 4301,
      "nome": "Yuru Camp△ Season 2",
      "link": "https://animefire.plus/animes/yuru-camp-season-2-todos-os-episodios",
      "texto_original": "Yuru Camp△ Season 2",
      "rating": 8.5,
      "classificacao_etaria": "A14",
      "imagem_original": "https://animefire.plus/img/animes/yuru-camp-season-2.webp",
      "imagem_pasta": "https://animefire.plus/img/animes/yuru-camp-season-2/",
      "secao": "legendados",
      "pagina": 50,
      "total_episodios": 13,
      "link_video": "https://animefire.plus/video/yuru-camp-season-2"
    },
    {
      "id": 4302,
      "nome": "Yuru Camp△ Season 3 (Dublado)",
      "link": "https://animefire.plus/animes/yuru-camp-season-3-dublado-todos-os-episodios",
      "texto_original": "Yuru Camp△ Season 3 (Dublado)",
      "rating": 8.02,
      "classificacao_etaria": "A14",
      "imagem_original": "https://animefire.plus/img/animes/yuru-camp-season-3.webp",
      "imagem_pasta": "https://animefire.plus/img/animes/yuru-camp-season-3/",
      "secao": "dublados,legendados,lancamentos",
      "pagina": 2,
      "total_episodios": 12,
      "link_video": "https://animefire.plus/video/yuru-camp-season-3-dublado"
    },
    {
      "id": 4303,
      "nome": "Yuru Camp△ Specials",
      "link": "https://animefire.plus/animes/yuru-camp-specials-todos-os-episodios",
      "texto_original": "Yuru Camp△ Specials",
      "rating": 7.61,
      "classificacao_etaria": "A14",
      "imagem_original": "https://animefire.plus/img/animes/yuru-camp-specials.webp",
      "imagem_pasta": "https://animefire.plus/img/animes/yuru-camp-specials/",
      "secao": "legendados",
      "pagina": 170,
      "total_episodios": 3,
      "link_video": "https://animefire.plus/video/yuru-camp-specials"
    },
    {
      "id": 4304,
      "nome": "Yuru Yuri",
      "link": "https://animefire.plus/animes/yuru-yuri-todos-os-episodios",
      "texto_original": "Yuru Yuri",
      "rating": 7.66,
      "classificacao_etaria": "A14",
      "imagem_original": "https://animefire.plus/img/animes/yuru-yuri.webp",
      "imagem_pasta": "https://animefire.plus/img/animes/yuru-yuri/",
      "secao": "legendados",
      "pagina": 105,
      "total_episodios": 12,
      "link_video": "https://animefire.plus/video/yuru-yuri"
    },
    {
      "id": 4305,
      "nome": "Yuru Yuri San☆Hai!",
      "link": "https://animefire.plus/animes/yuru-yuri-san-hai-todos-os-episodios",
      "texto_original": "Yuru Yuri San☆Hai!",
      "rating": 7.98,
      "classificacao_etaria": "A14",
      "imagem_original": "https://animefire.plus/img/animes/yuru-yuri-san-hai.webp",
      "imagem_pasta": "https://animefire.plus/img/animes/yuru-yuri-san-hai/",
      "secao": "legendados",
      "pagina": 75,
      "total_episodios": 12,
      "link_video": "https://animefire.plus/video/yuru-yuri-san-hai"
    },
    {
      "id": 4306,
      "nome": "Yurumates 3D",
      "link": "https://animefire.plus/animes/yurumates-3d-todos-os-episodios",
      "texto_original": "Yurumates 3D",
      "rating": 6.34,
      "classificacao_etaria": "A14",
      "imagem_original": "https://animefire.plus/img/animes/yurumates-3d.webp",
      "imagem_pasta": "https://animefire.plus/img/animes/yurumates-3d/",
      "secao": "legendados",
      "pagina": 101,
      "total_episodios": 13,
      "link_video": "https://animefire.plus/video/yurumates-3d"
    },
    {
      "id": 4307,
      "nome": "Yutori-chan",
      "link": "https://animefire.plus/animes/yutori-chan-todos-os-episodios",
      "texto_original": "Yutori-chan",
      "rating": 6.17,
      "classificacao_etaria": null,
      "imagem_original": "https://animefire.plus/img/animes/yutori-chan.webp",
      "imagem_pasta": "https://animefire.plus/img/animes/yutori-chan/",
      "secao": "legendados",
      "pagina": 156,
      "total_episodios": 25,
      "link_video": "https://animefire.plus/video/yutori-chan"
    },
    {
      "id": 4308,
      "nome": "Yuu☆Yuu☆Hakusho (Dublado)",
      "link": "https://animefire.plus/animes/yuu-yuu-hakusho-dublado-todos-os-episodios",
      "texto_original": "Yuu☆Yuu☆Hakusho (Dublado)",
      "rating": 8.45,
      "classificacao_etaria": "A14",
      "imagem_original": "https://animefire.plus/img/animes/yuu-yuu-hakusho.webp",
      "imagem_pasta": "https://animefire.plus/img/animes/yuu-yuu-hakusho/",
      "secao": "dublados,legendados",
      "pagina": 21,
      "total_episodios": 112,
      "link_video": "https://animefire.plus/video/yuu-yuu-hakusho-dublado"
    },
    {
      "id": 4309,
      "nome": "Yuu☆Yuu☆Hakusho Picture Drama",
      "link": "https://animefire.plus/animes/yuu-yuu-hakusho-picture-drama-todos-os-episodios",
      "texto_original": "Yuu☆Yuu☆Hakusho Picture Drama",
      "rating": 6.63,
      "classificacao_etaria": "A14",
      "imagem_original": "https://animefire.plus/img/animes/yuu-yuu-hakusho-picture-drama.webp",
      "imagem_pasta": "https://animefire.plus/img/animes/yuu-yuu-hakusho-picture-drama/",
      "secao": "legendados",
      "pagina": 70,
      "total_episodios": 1,
      "link_video": "https://animefire.plus/video/yuu-yuu-hakusho-picture-drama"
    },
    {
      "id": 4310,
      "nome": "Yuugo: Koushounin",
      "link": "https://animefire.plus/animes/yuugo-koushounin-todos-os-episodios",
      "texto_original": "Yuugo: Koushounin",
      "rating": 7.21,
      "classificacao_etaria": "A16",
      "imagem_original": "https://animefire.plus/img/animes/yuugo-koushounin.webp",
      "imagem_pasta": "https://animefire.plus/img/animes/yuugo-koushounin/",
      "secao": "legendados",
      "pagina": 157,
      "total_episodios": 13,
      "link_video": "https://animefire.plus/video/yuugo-koushounin"
    },
    {
      "id": 4311,
      "nome": "Yuukai Anna",
      "link": "https://animefire.plus/animes/yuukai-anna-todos-os-episodios",
      "texto_original": "Yuukai Anna",
      "rating": 5.09,
      "classificacao_etaria": "A16",
      "imagem_original": "https://animefire.plus/img/animes/yuukai-anna.webp",
      "imagem_pasta": "https://animefire.plus/img/animes/yuukai-anna/",
      "secao": "legendados",
      "pagina": 89,
      "total_episodios": 1,
      "link_video": "https://animefire.plus/video/yuukai-anna"
    },
    {
      "id": 4312,
      "nome": "Yuuki Bakuhatsu Bang Bravern",
      "link": "https://animefire.plus/animes/yuuki-bakuhatsu-bang-bravern-todos-os-episodios",
      "texto_original": "Yuuki Bakuhatsu Bang Bravern",
      "rating": 7.54,
      "classificacao_etaria": "A14",
      "imagem_original": "https://animefire.plus/img/animes/yuuki-bakuhatsu-bang-bravern.webp",
      "imagem_pasta": "https://animefire.plus/img/animes/yuuki-bakuhatsu-bang-bravern/",
      "secao": "legendados",
      "pagina": 16,
      "total_episodios": 12,
      "link_video": "https://animefire.plus/video/yuuki-bakuhatsu-bang-bravern"
    },
    {
      "id": 4313,
      "nome": "Yuuki Yuuna wa Yuusha de Aru",
      "link": "https://animefire.plus/animes/yuuki-yuuna-wa-yuusha-de-aru-todos-os-episodios",
      "texto_original": "Yuuki Yuuna wa Yuusha de Aru",
      "rating": 7.41,
      "classificacao_etaria": "A14",
      "imagem_original": "https://animefire.plus/img/animes/yuuki-yuuna-wa-yuusha-de-aru.webp",
      "imagem_pasta": "https://animefire.plus/img/animes/yuuki-yuuna-wa-yuusha-de-aru/",
      "secao": "legendados",
      "pagina": 61,
      "total_episodios": 12,
      "link_video": "https://animefire.plus/video/yuuki-yuuna-wa-yuusha-de-aru"
    },
    {
      "id": 4314,
      "nome": "Yuuki Yuuna wa Yuusha de Aru: Dai Mankai no Shou",
      "link": "https://animefire.plus/animes/yuuki-yuuna-wa-yuusha-de-aru-dai-mankai-no-shou-todos-os-episodios",
      "texto_original": "Yuuki Yuuna wa Yuusha de Aru: Dai Mankai no Shou",
      "rating": 7.3,
      "classificacao_etaria": "A14",
      "imagem_original": "https://animefire.plus/img/animes/yuuki-yuuna-wa-yuusha-de-aru-dai-mankai-no-shou.webp",
      "imagem_pasta": "https://animefire.plus/img/animes/yuuki-yuuna-wa-yuusha-de-aru-dai-mankai-no-shou/",
      "secao": "legendados",
      "pagina": 38,
      "total_episodios": 12,
      "link_video": "https://animefire.plus/video/yuuki-yuuna-wa-yuusha-de-aru-dai-mankai-no-shou"
    },
    {
      "id": 4315,
      "nome": "Yuuki Yuuna wa Yuusha de Aru: Washio Sumi no Shou",
      "link": "https://animefire.plus/animes/yuuki-yuuna-wa-yuusha-de-aru-washio-sumi-no-shou-todos-os-episodios",
      "texto_original": "Yuuki Yuuna wa Yuusha de Aru: Washio Sumi no Shou",
      "rating": 7.66,
      "classificacao_etaria": "A14",
      "imagem_original": "https://animefire.plus/img/animes/yuuki-yuuna-wa-yuusha-de-aru-washio-sumi-no-shou.webp",
      "imagem_pasta": "https://animefire.plus/img/animes/yuuki-yuuna-wa-yuusha-de-aru-washio-sumi-no-shou/",
      "secao": "legendados",
      "pagina": 63,
      "total_episodios": 6,
      "link_video": "https://animefire.plus/video/yuuki-yuuna-wa-yuusha-de-aru-washio-sumi-no-shou"
    },
    {
      "id": 4316,
      "nome": "Yuuki Yuuna wa Yuusha de Aru: Yuusha no Shou",
      "link": "https://animefire.plus/animes/yuuki-yuuna-wa-yuusha-de-aru-yuusha-no-shou-todos-os-episodios",
      "texto_original": "Yuuki Yuuna wa Yuusha de Aru: Yuusha no Shou",
      "rating": 7.67,
      "classificacao_etaria": "A14",
      "imagem_original": "https://animefire.plus/img/animes/yuuki-yuuna-wa-yuusha-de-aru-yuusha-no-shou.webp",
      "imagem_pasta": "https://animefire.plus/img/animes/yuuki-yuuna-wa-yuusha-de-aru-yuusha-no-shou/",
      "secao": "legendados",
      "pagina": 63,
      "total_episodios": 6,
      "link_video": "https://animefire.plus/video/yuuki-yuuna-wa-yuusha-de-aru-yuusha-no-shou"
    },
    {
      "id": 4317,
      "nome": "Yuukoku no Moriarty (Dublado)",
      "link": "https://animefire.plus/animes/yuukoku-no-moriarty-dublado-todos-os-episodios",
      "texto_original": "Yuukoku no Moriarty (Dublado)",
      "rating": 8.12,
      "classificacao_etaria": "A16",
      "imagem_original": "https://animefire.plus/img/animes/yuukoku-no-moriarty.webp",
      "imagem_pasta": "https://animefire.plus/img/animes/yuukoku-no-moriarty/",
      "secao": "dublados,legendados",
      "pagina": 13,
      "total_episodios": 11,
      "link_video": "https://animefire.plus/video/yuukoku-no-moriarty-dublado"
    },
    {
      "id": 4318,
      "nome": "Yuukoku no Moriarty 2nd Season",
      "link": "https://animefire.plus/animes/yuukoku-no-moriarty-2nd-season-todos-os-episodios",
      "texto_original": "Yuukoku no Moriarty 2nd Season",
      "rating": 8.28,
      "classificacao_etaria": "A16",
      "imagem_original": "https://animefire.plus/img/animes/yuukoku-no-moriarty-2nd-season.webp",
      "imagem_pasta": "https://animefire.plus/img/animes/yuukoku-no-moriarty-2nd-season/",
      "secao": "legendados",
      "pagina": 47,
      "total_episodios": 13,
      "link_video": "https://animefire.plus/video/yuukoku-no-moriarty-2nd-season"
    }
  ],
  "pagination": {
    "current_page": 211,
    "per_page": 20,
    "total_items": 4269,
    "total_pages": 214,
    "has_next": true,
    "has_prev": true
  }
}
