{
  "message": "Animes da seção: legendados",
  "section": "legendados",
  "data": [
    {
      "id": 2969,
      "nome": "Peter Grill to Kenja no Jikan",
      "link": "https://animefire.plus/animes/peter-grill-to-kenja-no-jikan-todos-os-episodios",
      "texto_original": "Peter Grill to Kenja no Jikan",
      "rating": 5.51,
      "classificacao_etaria": "A18",
      "imagem_original": "https://animefire.plus/img/animes/peter-grill-to-kenja-no-jikan.webp",
      "imagem_pasta": "https://animefire.plus/img/animes/peter-grill-to-kenja-no-jikan/",
      "secao": "legendados",
      "pagina": 58,
      "total_episodios": 12,
      "link_video": "https://animefire.plus/video/peter-grill-to-kenja-no-jikan"
    },
    {
      "id": 2970,
      "nome": "Peter Grill to Kenja no Jikan: Super Extra",
      "link": "https://animefire.plus/animes/peter-grill-to-kenja-no-jikan-super-extra-todos-os-episodios",
      "texto_original": "Peter Grill to Kenja no Jikan: Super Extra",
      "rating": 5.94,
      "classificacao_etaria": "A18",
      "imagem_original": "https://animefire.plus/img/animes/peter-grill-to-kenja-no-jikan-super-extra.webp",
      "imagem_pasta": "https://animefire.plus/img/animes/peter-grill-to-kenja-no-jikan-super-extra/",
      "secao": "legendados",
      "pagina": 29,
      "total_episodios": 12,
      "link_video": "https://animefire.plus/video/peter-grill-to-kenja-no-jikan-super-extra"
    },
    {
      "id": 2971,
      "nome": "Petshop of Horrors",
      "link": "https://animefire.plus/animes/petshop-of-horrors-todos-os-episodios",
      "texto_original": "Petshop of Horrors",
      "rating": 7.33,
      "classificacao_etaria": "A18",
      "imagem_original": "https://animefire.plus/img/animes/petshop-of-horrors.webp",
      "imagem_pasta": "https://animefire.plus/img/animes/petshop-of-horrors/",
      "secao": "legendados",
      "pagina": 113,
      "total_episodios": 4,
      "link_video": "https://animefire.plus/video/petshop-of-horrors"
    },
    {
      "id": 2972,
      "nome": "Phantasy Star Online 2 The Animation",
      "link": "https://animefire.plus/animes/phantasy-star-online-2-the-animation-todos-os-episodios",
      "texto_original": "Phantasy Star Online 2 The Animation",
      "rating": 6.43,
      "classificacao_etaria": "A14",
      "imagem_original": "https://animefire.plus/img/animes/phantasy-star-online-2-the-animation.webp",
      "imagem_pasta": "https://animefire.plus/img/animes/phantasy-star-online-2-the-animation/",
      "secao": "legendados",
      "pagina": 165,
      "total_episodios": 1,
      "link_video": "https://animefire.plus/video/phantasy-star-online-2-the-animation"
    },
    {
      "id": 2973,
      "nome": "Phantasy Star Online 2: Episode Oracle",
      "link": "https://animefire.plus/animes/phantasy-star-online-2-episode-oracle-todos-os-episodios",
      "texto_original": "Phantasy Star Online 2: Episode Oracle",
      "rating": 6.55,
      "classificacao_etaria": "A14",
      "imagem_original": "https://animefire.plus/img/animes/phantasy-star-online-2-episode-oracle.webp",
      "imagem_pasta": "https://animefire.plus/img/animes/phantasy-star-online-2-episode-oracle/",
      "secao": "legendados",
      "pagina": 110,
      "total_episodios": 1,
      "link_video": "https://animefire.plus/video/phantasy-star-online-2-episode-oracle"
    },
    {
      "id": 2974,
      "nome": "Phantom in the Twilight",
      "link": "https://animefire.plus/animes/phantom-in-the-twilight-todos-os-episodios",
      "texto_original": "Phantom in the Twilight",
      "rating": 6.52,
      "classificacao_etaria": "A14",
      "imagem_original": "https://animefire.plus/img/animes/phantom-in-the-twilight.webp",
      "imagem_pasta": "https://animefire.plus/img/animes/phantom-in-the-twilight/",
      "secao": "legendados",
      "pagina": 121,
      "total_episodios": 12,
      "link_video": "https://animefire.plus/video/phantom-in-the-twilight"
    },
    {
      "id": 2975,
      "nome": "Phantom: Requiem for the Phantom",
      "link": "https://animefire.plus/animes/phantom-requiem-for-the-phantom-todos-os-episodios",
      "texto_original": "Phantom: Requiem for the Phantom",
      "rating": 8.08,
      "classificacao_etaria": "A18",
      "imagem_original": "https://animefire.plus/img/animes/phantom-requiem-for-the-phantom.webp",
      "imagem_pasta": "https://animefire.plus/img/animes/phantom-requiem-for-the-phantom/",
      "secao": "legendados",
      "pagina": 137,
      "total_episodios": 26,
      "link_video": "https://animefire.plus/video/phantom-requiem-for-the-phantom"
    },
    {
      "id": 2976,
      "nome": "Phi Brain: Kami no Puzzle",
      "link": "https://animefire.plus/animes/phi-brain-kami-no-puzzle-todos-os-episodios",
      "texto_original": "Phi Brain: Kami no Puzzle",
      "rating": 7.26,
      "classificacao_etaria": "A14",
      "imagem_original": "https://animefire.plus/img/animes/phi-brain-kami-no-puzzle.webp",
      "imagem_pasta": "https://animefire.plus/img/animes/phi-brain-kami-no-puzzle/",
      "secao": "legendados",
      "pagina": 124,
      "total_episodios": 0,
      "link_video": "https://animefire.plus/video/phi-brain-kami-no-puzzle"
    },
    {
      "id": 2977,
      "nome": "Phi Brain: Kami no Puzzle - Orpheus Order-hen",
      "link": "https://animefire.plus/animes/phi-brain-kami-no-puzzle---orpheus-order-hen-todos-os-episodios",
      "texto_original": "Phi Brain: Kami no Puzzle - Orpheus Order-hen",
      "rating": 7.36,
      "classificacao_etaria": "A14",
      "imagem_original": "https://animefire.plus/img/animes/phi-brain-kami-no-puzzle---orpheus-order-hen.webp",
      "imagem_pasta": "https://animefire.plus/img/animes/phi-brain-kami-no-puzzle---orpheus-order-hen/",
      "secao": "legendados",
      "pagina": 154,
      "total_episodios": 5,
      "link_video": "https://animefire.plus/video/phi-brain-kami-no-puzzle---orpheus-order-hen"
    },
    {
      "id": 2978,
      "nome": "Phi Brain: Kami no Puzzle - Shukuteki! Rätsel-hen",
      "link": "https://animefire.plus/animes/phi-brain-kami-no-puzzle---shukuteki-raetsel-hen-todos-os-episodios",
      "texto_original": "Phi Brain: Kami no Puzzle - Shukuteki! Rätsel-hen",
      "rating": 7.36,
      "classificacao_etaria": "A14",
      "imagem_original": "https://animefire.plus/img/animes/phi-brain-kami-no-puzzle---shukuteki-raetsel-hen.webp",
      "imagem_pasta": "https://animefire.plus/img/animes/phi-brain-kami-no-puzzle---shukuteki-raetsel-hen/",
      "secao": "legendados",
      "pagina": 148,
      "total_episodios": 5,
      "link_video": "https://animefire.plus/video/phi-brain-kami-no-puzzle---shukuteki-raetsel-hen"
    },
    {
      "id": 2979,
      "nome": "Photokano",
      "link": "https://animefire.plus/animes/photokano-todos-os-episodios",
      "texto_original": "Photokano",
      "rating": 6.31,
      "classificacao_etaria": "A14",
      "imagem_original": "https://animefire.plus/img/animes/photokano.webp",
      "imagem_pasta": "https://animefire.plus/img/animes/photokano/",
      "secao": "legendados",
      "pagina": 133,
      "total_episodios": 3,
      "link_video": "https://animefire.plus/video/photokano"
    },
    {
      "id": 2980,
      "nome": "Piace: Watashi no Italian",
      "link": "https://animefire.plus/animes/piace-watashi-no-italian-todos-os-episodios",
      "texto_original": "Piace: Watashi no Italian",
      "rating": 5.89,
      "classificacao_etaria": "A14",
      "imagem_original": "https://animefire.plus/img/animes/piace-watashi-no-italian.webp",
      "imagem_pasta": "https://animefire.plus/img/animes/piace-watashi-no-italian/",
      "secao": "legendados",
      "pagina": 112,
      "total_episodios": 0,
      "link_video": "https://animefire.plus/video/piace-watashi-no-italian"
    },
    {
      "id": 2981,
      "nome": "Piano (TV)",
      "link": "https://animefire.plus/animes/piano-tv-todos-os-episodios",
      "texto_original": "Piano (TV)",
      "rating": 6.04,
      "classificacao_etaria": null,
      "imagem_original": "https://animefire.plus/img/animes/piano-tv.webp",
      "imagem_pasta": "https://animefire.plus/img/animes/piano-tv/",
      "secao": "legendados",
      "pagina": 136,
      "total_episodios": 10,
      "link_video": "https://animefire.plus/video/piano-tv"
    },
    {
      "id": 2982,
      "nome": "Piano no Mori (TV) (Dublado)",
      "link": "https://animefire.plus/animes/piano-no-mori-tv-dublado-todos-os-episodios",
      "texto_original": "Piano no Mori (TV) (Dublado)",
      "rating": 7.41,
      "classificacao_etaria": "A14",
      "imagem_original": "https://animefire.plus/img/animes/piano-no-mori-tv.webp",
      "imagem_pasta": "https://animefire.plus/img/animes/piano-no-mori-tv/",
      "secao": "dublados,legendados",
      "pagina": 24,
      "total_episodios": 12,
      "link_video": "https://animefire.plus/video/piano-no-mori-tv-dublado"
    },
    {
      "id": 2983,
      "nome": "Piano no Mori (TV) 2nd Season (Dublado)",
      "link": "https://animefire.plus/animes/piano-no-mori-tv-2nd-season-dublado-todos-os-episodios",
      "texto_original": "Piano no Mori (TV) 2nd Season (Dublado)",
      "rating": 7.4,
      "classificacao_etaria": "A14",
      "imagem_original": "https://animefire.plus/img/animes/piano-no-mori-tv-2nd-season.webp",
      "imagem_pasta": "https://animefire.plus/img/animes/piano-no-mori-tv-2nd-season/",
      "secao": "dublados,legendados",
      "pagina": 23,
      "total_episodios": 12,
      "link_video": "https://animefire.plus/video/piano-no-mori-tv-2nd-season-dublado"
    },
    {
      "id": 2984,
      "nome": "Ping Pong the Animation",
      "link": "https://animefire.plus/animes/ping-pong-the-animation-todos-os-episodios",
      "texto_original": "Ping Pong the Animation",
      "rating": 8.63,
      "classificacao_etaria": "A14",
      "imagem_original": "https://animefire.plus/img/animes/ping-pong-the-animation.webp",
      "imagem_pasta": "https://animefire.plus/img/animes/ping-pong-the-animation/",
      "secao": "legendados",
      "pagina": 147,
      "total_episodios": 10,
      "link_video": "https://animefire.plus/video/ping-pong-the-animation"
    },
    {
      "id": 2985,
      "nome": "Pingu in the City",
      "link": "https://animefire.plus/animes/pingu-in-the-city-todos-os-episodios",
      "texto_original": "Pingu in the City",
      "rating": 8.45,
      "classificacao_etaria": null,
      "imagem_original": "https://animefire.plus/img/animes/pingu-in-the-city.webp",
      "imagem_pasta": "https://animefire.plus/img/animes/pingu-in-the-city/",
      "secao": "legendados",
      "pagina": 126,
      "total_episodios": 15,
      "link_video": "https://animefire.plus/video/pingu-in-the-city"
    },
    {
      "id": 2986,
      "nome": "Pita Ten",
      "link": "https://animefire.plus/animes/pita-ten-todos-os-episodios",
      "texto_original": "Pita Ten",
      "rating": 7.02,
      "classificacao_etaria": null,
      "imagem_original": "https://animefire.plus/img/animes/pita-ten.webp",
      "imagem_pasta": "https://animefire.plus/img/animes/pita-ten/",
      "secao": "legendados",
      "pagina": 109,
      "total_episodios": 0,
      "link_video": "https://animefire.plus/video/pita-ten"
    },
    {
      "id": 2987,
      "nome": "Planet With",
      "link": "https://animefire.plus/animes/planet-with-todos-os-episodios",
      "texto_original": "Planet With",
      "rating": 7.37,
      "classificacao_etaria": "A14",
      "imagem_original": "https://animefire.plus/img/animes/planet-with.webp",
      "imagem_pasta": "https://animefire.plus/img/animes/planet-with/",
      "secao": "legendados",
      "pagina": 173,
      "total_episodios": 12,
      "link_video": "https://animefire.plus/video/planet-with"
    },
    {
      "id": 2988,
      "nome": "Planetarian: Chiisana Hoshi no Yume",
      "link": "https://animefire.plus/animes/planetarian-chiisana-hoshi-no-yume-todos-os-episodios",
      "texto_original": "Planetarian: Chiisana Hoshi no Yume",
      "rating": 7.59,
      "classificacao_etaria": "A14",
      "imagem_original": "https://animefire.plus/img/animes/planetarian-chiisana-hoshi-no-yume.webp",
      "imagem_pasta": "https://animefire.plus/img/animes/planetarian-chiisana-hoshi-no-yume/",
      "secao": "legendados",
      "pagina": 144,
      "total_episodios": 5,
      "link_video": "https://animefire.plus/video/planetarian-chiisana-hoshi-no-yume"
    }
  ],
  "pagination": {
    "current_page": 146,
    "per_page": 20,
    "total_items": 4269,
    "total_pages": 214,
    "has_next": true,
    "has_prev": true
  }
}
