{
  "message": "Animes da seção: legendados",
  "section": "legendados",
  "data": [
    {
      "id": 3805,
      "nome": "Tensei shitara Slime Datta Ken: Coleus no Yume (Dublado)",
      "link": "https://animefire.plus/animes/tensei-shitara-slime-datta-ken-coleus-no-yume-dublado-todos-os-episodios",
      "texto_original": "Tensei shitara Slime Datta Ken: Coleus no Yume (Dublado)",
      "rating": 7.58,
      "classificacao_etaria": "A14",
      "imagem_original": "https://animefire.plus/img/animes/tensei-shitara-slime-datta-ken-coleus-no-yume.webp",
      "imagem_pasta": "https://animefire.plus/img/animes/tensei-shitara-slime-datta-ken-coleus-no-yume/",
      "secao": "dublados,legendados,lancamentos",
      "pagina": 4,
      "total_episodios": 3,
      "link_video": "https://animefire.plus/video/tensei-shitara-slime-datta-ken-coleus-no-yume-dublado"
    },
    {
      "id": 3807,
      "nome": "Tenshi Kinryouku",
      "link": "https://animefire.plus/animes/tenshi-kinryouku-todos-os-episodios",
      "texto_original": "Tenshi Kinryouku",
      "rating": 6.39,
      "classificacao_etaria": "A18",
      "imagem_original": "https://animefire.plus/img/animes/tenshi-kinryouku.webp",
      "imagem_pasta": "https://animefire.plus/img/animes/tenshi-kinryouku/",
      "secao": "legendados",
      "pagina": 115,
      "total_episodios": 0,
      "link_video": "https://animefire.plus/video/tenshi-kinryouku"
    },
    {
      "id": 3808,
      "nome": "Tenshi Ni Narumon!",
      "link": "https://animefire.plus/animes/tenshi-ni-narumon-todos-os-episodios",
      "texto_original": "Tenshi Ni Narumon!",
      "rating": 6.79,
      "classificacao_etaria": "A14",
      "imagem_original": "https://animefire.plus/img/animes/tenshi-ni-narumon.webp",
      "imagem_pasta": "https://animefire.plus/img/animes/tenshi-ni-narumon/",
      "secao": "legendados",
      "pagina": 109,
      "total_episodios": 26,
      "link_video": "https://animefire.plus/video/tenshi-ni-narumon"
    },
    {
      "id": 3809,
      "nome": "Tenshi no 3P!",
      "link": "https://animefire.plus/animes/tenshi-no-3p-todos-os-episodios",
      "texto_original": "Tenshi no 3P!",
      "rating": 6.71,
      "classificacao_etaria": "A14",
      "imagem_original": "https://animefire.plus/img/animes/tenshi-no-3p.webp",
      "imagem_pasta": "https://animefire.plus/img/animes/tenshi-no-3p/",
      "secao": "legendados",
      "pagina": 76,
      "total_episodios": 12,
      "link_video": "https://animefire.plus/video/tenshi-no-3p"
    },
    {
      "id": 3810,
      "nome": "Tensui no Sakuna-hime",
      "link": "https://animefire.plus/animes/tensui-no-sakuna-hime-todos-os-episodios",
      "texto_original": "Tensui no Sakuna-hime",
      "rating": 6.74,
      "classificacao_etaria": "A14",
      "imagem_original": "https://animefire.plus/img/animes/tensui-no-sakuna-hime.webp",
      "imagem_pasta": "https://animefire.plus/img/animes/tensui-no-sakuna-hime/",
      "secao": "legendados",
      "pagina": 12,
      "total_episodios": 13,
      "link_video": "https://animefire.plus/video/tensui-no-sakuna-hime"
    },
    {
      "id": 3811,
      "nome": "Tensura Nikki: Tensei shitara Slime Datta Ken (Dublado)",
      "link": "https://animefire.plus/animes/tensura-nikki-tensei-shitara-slime-datta-ken-dublado-todos-os-episodios",
      "texto_original": "Tensura Nikki: Tensei shitara Slime Datta Ken (Dublado)",
      "rating": 7.59,
      "classificacao_etaria": "A14",
      "imagem_original": "https://animefire.plus/img/animes/tensura-nikki-tensei-shitara-slime-datta-ken.webp",
      "imagem_pasta": "https://animefire.plus/img/animes/tensura-nikki-tensei-shitara-slime-datta-ken/",
      "secao": "dublados,legendados",
      "pagina": 15,
      "total_episodios": 12,
      "link_video": "https://animefire.plus/video/tensura-nikki-tensei-shitara-slime-datta-ken-dublado"
    },
    {
      "id": 3812,
      "nome": "Tentai Senshi Sunred",
      "link": "https://animefire.plus/animes/tentai-senshi-sunred-todos-os-episodios",
      "texto_original": "Tentai Senshi Sunred",
      "rating": 7.88,
      "classificacao_etaria": "A14",
      "imagem_original": "https://animefire.plus/img/animes/tentai-senshi-sunred.webp",
      "imagem_pasta": "https://animefire.plus/img/animes/tentai-senshi-sunred/",
      "secao": "legendados",
      "pagina": 98,
      "total_episodios": 0,
      "link_video": "https://animefire.plus/video/tentai-senshi-sunred"
    },
    {
      "id": 3813,
      "nome": "Teogonia",
      "link": "https://animefire.plus/animes/teogonia-todos-os-episodios",
      "texto_original": "Teogonia",
      "rating": 6.93,
      "classificacao_etaria": "A14",
      "imagem_original": "https://animefire.plus/img/animes/teogonia.webp",
      "imagem_pasta": "https://animefire.plus/img/animes/teogonia/",
      "secao": "legendados",
      "pagina": 5,
      "total_episodios": 12,
      "link_video": "https://animefire.plus/video/teogonia"
    },
    {
      "id": 3814,
      "nome": "Teppen",
      "link": "https://animefire.plus/animes/teppen-todos-os-episodios",
      "texto_original": "Teppen",
      "rating": null,
      "classificacao_etaria": "A16",
      "imagem_original": "https://animefire.plus/img/animes/teppen.webp",
      "imagem_pasta": "https://animefire.plus/img/animes/teppen/",
      "secao": "legendados",
      "pagina": 32,
      "total_episodios": 0,
      "link_video": "https://animefire.plus/video/teppen"
    },
    {
      "id": 3815,
      "nome": "Teppen!!!!!!!!!!!!!!!",
      "link": "https://animefire.plus/animes/teppen-laughing-039-til-you-cry-todos-os-episodios",
      "texto_original": "Teppen!!!!!!!!!!!!!!!",
      "rating": 6.61,
      "classificacao_etaria": "A14",
      "imagem_original": "https://animefire.plus/img/animes/teppen-laughing-039-til-you-cry.webp",
      "imagem_pasta": "https://animefire.plus/img/animes/teppen-laughing-039-til-you-cry/",
      "secao": "legendados,lancamentos",
      "pagina": 32,
      "total_episodios": 2,
      "link_video": "https://animefire.plus/video/teppen-laughing-039-til-you-cry"
    },
    {
      "id": 3816,
      "nome": "Terminator 0",
      "link": "https://animefire.plus/animes/terminator-0-todos-os-episodios",
      "texto_original": "Terminator 0",
      "rating": 7.1,
      "classificacao_etaria": "A16",
      "imagem_original": "https://animefire.plus/img/animes/terminator-0.webp",
      "imagem_pasta": "https://animefire.plus/img/animes/terminator-0/",
      "secao": "legendados",
      "pagina": 10,
      "total_episodios": 8,
      "link_video": "https://animefire.plus/video/terminator-0"
    },
    {
      "id": 3817,
      "nome": "Terra Formars",
      "link": "https://animefire.plus/animes/terra-formars-todos-os-episodios",
      "texto_original": "Terra Formars",
      "rating": 7.11,
      "classificacao_etaria": "A16",
      "imagem_original": "https://animefire.plus/img/animes/terra-formars.webp",
      "imagem_pasta": "https://animefire.plus/img/animes/terra-formars/",
      "secao": "legendados",
      "pagina": 99,
      "total_episodios": 0,
      "link_video": "https://animefire.plus/video/terra-formars"
    },
    {
      "id": 3818,
      "nome": "Terra Formars Revenge",
      "link": "https://animefire.plus/animes/terra-formars-revenge-todos-os-episodios",
      "texto_original": "Terra Formars Revenge",
      "rating": 6.82,
      "classificacao_etaria": "A16",
      "imagem_original": "https://animefire.plus/img/animes/terra-formars-revenge.webp",
      "imagem_pasta": "https://animefire.plus/img/animes/terra-formars-revenge/",
      "secao": "legendados",
      "pagina": 97,
      "total_episodios": 1,
      "link_video": "https://animefire.plus/video/terra-formars-revenge"
    },
    {
      "id": 3819,
      "nome": "Tesagure! Bukatsumono Spin-off Purupurun Sharumu To Asobou",
      "link": "https://animefire.plus/animes/tesagure-bukatsumono-spin-off-purupurun-sharumu-to-asobou-todos-os-episodios",
      "texto_original": "Tesagure! Bukatsumono Spin-off Purupurun Sharumu To Asobou",
      "rating": 7.04,
      "classificacao_etaria": "A14",
      "imagem_original": "https://animefire.plus/img/animes/tesagure-bukatsumono-spin-off-purupurun-sharumu-to-asobou.webp",
      "imagem_pasta": "https://animefire.plus/img/animes/tesagure-bukatsumono-spin-off-purupurun-sharumu-to-asobou/",
      "secao": "legendados",
      "pagina": 101,
      "total_episodios": 12,
      "link_video": "https://animefire.plus/video/tesagure-bukatsumono-spin-off-purupurun-sharumu-to-asobou"
    },
    {
      "id": 3820,
      "nome": "Tesla Note",
      "link": "https://animefire.plus/animes/tesla-note-todos-os-episodios",
      "texto_original": "Tesla Note",
      "rating": 4.66,
      "classificacao_etaria": "A14",
      "imagem_original": "https://animefire.plus/img/animes/tesla-note.webp",
      "imagem_pasta": "https://animefire.plus/img/animes/tesla-note/",
      "secao": "legendados",
      "pagina": 38,
      "total_episodios": 13,
      "link_video": "https://animefire.plus/video/tesla-note"
    },
    {
      "id": 3821,
      "nome": "Tetsuwan Birdy Decode",
      "link": "https://animefire.plus/animes/tetsuwan-birdy-decode-todos-os-episodios",
      "texto_original": "Tetsuwan Birdy Decode",
      "rating": 7.5,
      "classificacao_etaria": "A14",
      "imagem_original": "https://animefire.plus/img/animes/tetsuwan-birdy-decode.webp",
      "imagem_pasta": "https://animefire.plus/img/animes/tetsuwan-birdy-decode/",
      "secao": "legendados",
      "pagina": 106,
      "total_episodios": 13,
      "link_video": "https://animefire.plus/video/tetsuwan-birdy-decode"
    },
    {
      "id": 3822,
      "nome": "Tetsuwan Birdy Decode:02",
      "link": "https://animefire.plus/animes/tetsuwan-birdy-decode-02-todos-os-episodios",
      "texto_original": "Tetsuwan Birdy Decode:02",
      "rating": 7.79,
      "classificacao_etaria": "A16",
      "imagem_original": "https://animefire.plus/img/animes/tetsuwan-birdy-decode-02.webp",
      "imagem_pasta": "https://animefire.plus/img/animes/tetsuwan-birdy-decode-02/",
      "secao": "legendados",
      "pagina": 166,
      "total_episodios": 2,
      "link_video": "https://animefire.plus/video/tetsuwan-birdy-decode-02"
    },
    {
      "id": 3823,
      "nome": "Texhnolyze",
      "link": "https://animefire.plus/animes/texhnolyze-todos-os-episodios",
      "texto_original": "Texhnolyze",
      "rating": 7.76,
      "classificacao_etaria": "A18",
      "imagem_original": "https://animefire.plus/img/animes/texhnolyze.webp",
      "imagem_pasta": "https://animefire.plus/img/animes/texhnolyze/",
      "secao": "legendados",
      "pagina": 144,
      "total_episodios": 22,
      "link_video": "https://animefire.plus/video/texhnolyze"
    },
    {
      "id": 3824,
      "nome": "The Animatrix (Dublado)",
      "link": "https://animefire.plus/animes/the-animatrix-dublado-todos-os-episodios",
      "texto_original": "The Animatrix (Dublado)",
      "rating": 7.32,
      "classificacao_etaria": "A16",
      "imagem_original": "https://animefire.plus/img/animes/the-animatrix.webp",
      "imagem_pasta": "https://animefire.plus/img/animes/the-animatrix/",
      "secao": "dublados,legendados",
      "pagina": 27,
      "total_episodios": 9,
      "link_video": "https://animefire.plus/video/the-animatrix-dublado"
    },
    {
      "id": 3825,
      "nome": "The Big O",
      "link": "https://animefire.plus/animes/the-big-o-todos-os-episodios",
      "texto_original": "The Big O",
      "rating": 7.54,
      "classificacao_etaria": "A14",
      "imagem_original": "https://animefire.plus/img/animes/the-big-o.webp",
      "imagem_pasta": "https://animefire.plus/img/animes/the-big-o/",
      "secao": "legendados",
      "pagina": 69,
      "total_episodios": 14,
      "link_video": "https://animefire.plus/video/the-big-o"
    }
  ],
  "pagination": {
    "current_page": 187,
    "per_page": 20,
    "total_items": 4269,
    "total_pages": 214,
    "has_next": true,
    "has_prev": true
  }
}
