{
  "message": "Animes da seção: legendados",
  "section": "legendados",
  "data": [
    {
      "id": 3051,
      "nome": "Puraore! Pride of Orange",
      "link": "https://animefire.plus/animes/puraore-pride-of-orange-todos-os-episodios",
      "texto_original": "Puraore! Pride of Orange",
      "rating": 6.23,
      "classificacao_etaria": "A14",
      "imagem_original": "https://animefire.plus/img/animes/puraore-pride-of-orange.webp",
      "imagem_pasta": "https://animefire.plus/img/animes/puraore-pride-of-orange/",
      "secao": "legendados",
      "pagina": 38,
      "total_episodios": 12,
      "link_video": "https://animefire.plus/video/puraore-pride-of-orange"
    },
    {
      "id": 3052,
      "nome": "Qualidea Code",
      "link": "https://animefire.plus/animes/qualidea-code-todos-os-episodios",
      "texto_original": "Qualidea Code",
      "rating": 6.58,
      "classificacao_etaria": "A14",
      "imagem_original": "https://animefire.plus/img/animes/qualidea-code.webp",
      "imagem_pasta": "https://animefire.plus/img/animes/qualidea-code/",
      "secao": "legendados",
      "pagina": 80,
      "total_episodios": 12,
      "link_video": "https://animefire.plus/video/qualidea-code"
    },
    {
      "id": 3053,
      "nome": "Quanzhi Fashi",
      "link": "https://animefire.plus/animes/quanzhi-fashi-todos-os-episodios",
      "texto_original": "Quanzhi Fashi",
      "rating": 7.47,
      "classificacao_etaria": "A14",
      "imagem_original": "https://animefire.plus/img/animes/quanzhi-fashi.webp",
      "imagem_pasta": "https://animefire.plus/img/animes/quanzhi-fashi/",
      "secao": "legendados",
      "pagina": 104,
      "total_episodios": 42,
      "link_video": "https://animefire.plus/video/quanzhi-fashi"
    },
    {
      "id": 3054,
      "nome": "Quanzhi Fashi 2nd Season",
      "link": "https://animefire.plus/animes/quanzhi-fashi-2nd-season-todos-os-episodios",
      "texto_original": "Quanzhi Fashi 2nd Season",
      "rating": 6.76,
      "classificacao_etaria": "A14",
      "imagem_original": "https://animefire.plus/img/animes/quanzhi-fashi-2nd-season.webp",
      "imagem_pasta": "https://animefire.plus/img/animes/quanzhi-fashi-2nd-season/",
      "secao": "legendados",
      "pagina": 177,
      "total_episodios": 12,
      "link_video": "https://animefire.plus/video/quanzhi-fashi-2nd-season"
    },
    {
      "id": 3055,
      "nome": "Quanzhi Fashi 3rd Season",
      "link": "https://animefire.plus/animes/quanzhi-fashi-3rd-season-todos-os-episodios",
      "texto_original": "Quanzhi Fashi 3rd Season",
      "rating": 7.56,
      "classificacao_etaria": "A14",
      "imagem_original": "https://animefire.plus/img/animes/quanzhi-fashi-3rd-season.webp",
      "imagem_pasta": "https://animefire.plus/img/animes/quanzhi-fashi-3rd-season/",
      "secao": "legendados",
      "pagina": 85,
      "total_episodios": 12,
      "link_video": "https://animefire.plus/video/quanzhi-fashi-3rd-season"
    },
    {
      "id": 3056,
      "nome": "Quanzhi Fashi 4th Season",
      "link": "https://animefire.plus/animes/quanzhi-fashi-4th-season-todos-os-episodios",
      "texto_original": "Quanzhi Fashi 4th Season",
      "rating": 7.34,
      "classificacao_etaria": "A14",
      "imagem_original": "https://animefire.plus/img/animes/quanzhi-fashi-4th-season.webp",
      "imagem_pasta": "https://animefire.plus/img/animes/quanzhi-fashi-4th-season/",
      "secao": "legendados",
      "pagina": 61,
      "total_episodios": 12,
      "link_video": "https://animefire.plus/video/quanzhi-fashi-4th-season"
    },
    {
      "id": 3057,
      "nome": "Quanzhi Gaoshou",
      "link": "https://animefire.plus/animes/quanzhi-gaoshou-todos-os-episodios",
      "texto_original": "Quanzhi Gaoshou",
      "rating": 8.09,
      "classificacao_etaria": "A14",
      "imagem_original": "https://animefire.plus/img/animes/quanzhi-gaoshou.webp",
      "imagem_pasta": "https://animefire.plus/img/animes/quanzhi-gaoshou/",
      "secao": "legendados",
      "pagina": 162,
      "total_episodios": 12,
      "link_video": "https://animefire.plus/video/quanzhi-gaoshou"
    },
    {
      "id": 3058,
      "nome": "Quanzhi Gaoshou 2",
      "link": "https://animefire.plus/animes/quanzhi-gaoshou-2-todos-os-episodios",
      "texto_original": "Quanzhi Gaoshou 2",
      "rating": 8.04,
      "classificacao_etaria": "A14",
      "imagem_original": "https://animefire.plus/img/animes/quanzhi-gaoshou-2.webp",
      "imagem_pasta": "https://animefire.plus/img/animes/quanzhi-gaoshou-2/",
      "secao": "legendados",
      "pagina": 53,
      "total_episodios": 12,
      "link_video": "https://animefire.plus/video/quanzhi-gaoshou-2"
    },
    {
      "id": 3059,
      "nome": "Queen's Blade: Gyokuza wo Tsugu Mono",
      "link": "https://animefire.plus/animes/queen-s-blade-gyokuza-wo-tsugu-mono-todos-os-episodios",
      "texto_original": "Queen's Blade: Gyokuza wo Tsugu Mono",
      "rating": 6.66,
      "classificacao_etaria": "A18",
      "imagem_original": "https://animefire.plus/img/animes/queen-s-blade-gyokuza-wo-tsugu-mono.webp",
      "imagem_pasta": "https://animefire.plus/img/animes/queen-s-blade-gyokuza-wo-tsugu-mono/",
      "secao": "legendados",
      "pagina": 141,
      "total_episodios": 12,
      "link_video": "https://animefire.plus/video/queen-s-blade-gyokuza-wo-tsugu-mono"
    },
    {
      "id": 3060,
      "nome": "Queen's Blade: Rebellion",
      "link": "https://animefire.plus/animes/queen-s-blade-rebellion-todos-os-episodios",
      "texto_original": "Queen's Blade: Rebellion",
      "rating": 6.42,
      "classificacao_etaria": "A18",
      "imagem_original": "https://animefire.plus/img/animes/queen-s-blade-rebellion.webp",
      "imagem_pasta": "https://animefire.plus/img/animes/queen-s-blade-rebellion/",
      "secao": "legendados",
      "pagina": 178,
      "total_episodios": 0,
      "link_video": "https://animefire.plus/video/queen-s-blade-rebellion"
    },
    {
      "id": 3061,
      "nome": "Queen's Blade: Rurou no Senshi",
      "link": "https://animefire.plus/animes/queen-s-blade-rurou-no-senshi-todos-os-episodios",
      "texto_original": "Queen's Blade: Rurou no Senshi",
      "rating": 6.25,
      "classificacao_etaria": "A18",
      "imagem_original": "https://animefire.plus/img/animes/queen-s-blade-rurou-no-senshi.webp",
      "imagem_pasta": "https://animefire.plus/img/animes/queen-s-blade-rurou-no-senshi/",
      "secao": "legendados",
      "pagina": 147,
      "total_episodios": 12,
      "link_video": "https://animefire.plus/video/queen-s-blade-rurou-no-senshi"
    },
    {
      "id": 3062,
      "nome": "R-15",
      "link": "https://animefire.plus/animes/r-15-todos-os-episodios",
      "texto_original": "R-15",
      "rating": 6.6,
      "classificacao_etaria": "A18",
      "imagem_original": "https://animefire.plus/img/animes/r-15.webp",
      "imagem_pasta": "https://animefire.plus/img/animes/r-15/",
      "secao": "legendados",
      "pagina": 120,
      "total_episodios": 0,
      "link_video": "https://animefire.plus/video/r-15"
    },
    {
      "id": 3063,
      "nome": "Radiant (Dublado)",
      "link": "https://animefire.plus/animes/radiant-dublado-todos-os-episodios",
      "texto_original": "Radiant (Dublado)",
      "rating": 6.88,
      "classificacao_etaria": "A14",
      "imagem_original": "https://animefire.plus/img/animes/radiant.webp",
      "imagem_pasta": "https://animefire.plus/img/animes/radiant/",
      "secao": "dublados,legendados",
      "pagina": 18,
      "total_episodios": 21,
      "link_video": "https://animefire.plus/video/radiant-dublado"
    },
    {
      "id": 3064,
      "nome": "Radiant 2nd Season",
      "link": "https://animefire.plus/animes/radiant-2nd-season-todos-os-episodios",
      "texto_original": "Radiant 2nd Season",
      "rating": 7.63,
      "classificacao_etaria": "A14",
      "imagem_original": "https://animefire.plus/img/animes/radiant-2nd-season.webp",
      "imagem_pasta": "https://animefire.plus/img/animes/radiant-2nd-season/",
      "secao": "legendados",
      "pagina": 111,
      "total_episodios": 21,
      "link_video": "https://animefire.plus/video/radiant-2nd-season"
    },
    {
      "id": 3066,
      "nome": "Ragna Crimson (Dublado)",
      "link": "https://animefire.plus/animes/ragna-crimson-dublado-todos-os-episodios",
      "texto_original": "Ragna Crimson (Dublado)",
      "rating": 7.55,
      "classificacao_etaria": "A14",
      "imagem_original": "https://animefire.plus/img/animes/ragna-crimson.webp",
      "imagem_pasta": "https://animefire.plus/img/animes/ragna-crimson/",
      "secao": "dublados,legendados,lancamentos",
      "pagina": 5,
      "total_episodios": 24,
      "link_video": "https://animefire.plus/video/ragna-crimson-dublado"
    },
    {
      "id": 3067,
      "nome": "Ragnarök The Animation (Dublado)",
      "link": "https://animefire.plus/animes/ragnaroek-the-animation-dublado-todos-os-episodios",
      "texto_original": "Ragnarök The Animation (Dublado)",
      "rating": 6.49,
      "classificacao_etaria": "A14",
      "imagem_original": "https://animefire.plus/img/animes/ragnaroek-the-animation.webp",
      "imagem_pasta": "https://animefire.plus/img/animes/ragnaroek-the-animation/",
      "secao": "dublados,legendados",
      "pagina": 23,
      "total_episodios": 26,
      "link_video": "https://animefire.plus/video/ragnaroek-the-animation-dublado"
    },
    {
      "id": 3068,
      "nome": "RahXephon",
      "link": "https://animefire.plus/animes/rahxephon-todos-os-episodios",
      "texto_original": "RahXephon",
      "rating": 7.48,
      "classificacao_etaria": "A14",
      "imagem_original": "https://animefire.plus/img/animes/rahxephon.webp",
      "imagem_pasta": "https://animefire.plus/img/animes/rahxephon/",
      "secao": "legendados",
      "pagina": 115,
      "total_episodios": 26,
      "link_video": "https://animefire.plus/video/rahxephon"
    },
    {
      "id": 3069,
      "nome": "Rail Romanesque",
      "link": "https://animefire.plus/animes/rail-romanesque-todos-os-episodios",
      "texto_original": "Rail Romanesque",
      "rating": null,
      "classificacao_etaria": "A14",
      "imagem_original": "https://animefire.plus/img/animes/rail-romanesque.webp",
      "imagem_pasta": "https://animefire.plus/img/animes/rail-romanesque/",
      "secao": "legendados",
      "pagina": 52,
      "total_episodios": 12,
      "link_video": "https://animefire.plus/video/rail-romanesque"
    },
    {
      "id": 3070,
      "nome": "Rail Wars!",
      "link": "https://animefire.plus/animes/rail-wars-todos-os-episodios",
      "texto_original": "Rail Wars!",
      "rating": 6.46,
      "classificacao_etaria": "A14",
      "imagem_original": "https://animefire.plus/img/animes/rail-wars.webp",
      "imagem_pasta": "https://animefire.plus/img/animes/rail-wars/",
      "secao": "legendados",
      "pagina": 151,
      "total_episodios": 8,
      "link_video": "https://animefire.plus/video/rail-wars"
    },
    {
      "id": 3071,
      "nome": "Rain Town",
      "link": "https://animefire.plus/animes/rain-town-todos-os-episodios",
      "texto_original": "Rain Town",
      "rating": 7.22,
      "classificacao_etaria": null,
      "imagem_original": "https://animefire.plus/img/animes/rain-town.webp",
      "imagem_pasta": "https://animefire.plus/img/animes/rain-town/",
      "secao": "legendados",
      "pagina": 69,
      "total_episodios": 1,
      "link_video": "https://animefire.plus/video/rain-town"
    }
  ],
  "pagination": {
    "current_page": 150,
    "per_page": 20,
    "total_items": 4269,
    "total_pages": 214,
    "has_next": true,
    "has_prev": true
  }
}
