{
  "message": "Animes da seção: legendados",
  "section": "legendados",
  "data": [
    {
      "id": 3133,
      "nome": "Rinshi!! Ekoda-chan",
      "link": "https://animefire.plus/animes/rinshi-ekoda-chan-todos-os-episodios",
      "texto_original": "Rinshi!! Ekoda-chan",
      "rating": 5.53,
      "classificacao_etaria": "A14",
      "imagem_original": "https://animefire.plus/img/animes/rinshi-ekoda-chan.webp",
      "imagem_pasta": "https://animefire.plus/img/animes/rinshi-ekoda-chan/",
      "secao": "legendados",
      "pagina": 109,
      "total_episodios": 12,
      "link_video": "https://animefire.plus/video/rinshi-ekoda-chan"
    },
    {
      "id": 3134,
      "nome": "Rio: Rainbow Gate!",
      "link": "https://animefire.plus/animes/rio-rainbow-gate-todos-os-episodios",
      "texto_original": "Rio: Rainbow Gate!",
      "rating": 5.96,
      "classificacao_etaria": "A14",
      "imagem_original": "https://animefire.plus/img/animes/rio-rainbow-gate.webp",
      "imagem_pasta": "https://animefire.plus/img/animes/rio-rainbow-gate/",
      "secao": "legendados",
      "pagina": 132,
      "total_episodios": 12,
      "link_video": "https://animefire.plus/video/rio-rainbow-gate"
    },
    {
      "id": 3135,
      "nome": "Ristorante Paradiso",
      "link": "https://animefire.plus/animes/ristorante-paradiso-todos-os-episodios",
      "texto_original": "Ristorante Paradiso",
      "rating": 7.42,
      "classificacao_etaria": "A14",
      "imagem_original": "https://animefire.plus/img/animes/ristorante-paradiso.webp",
      "imagem_pasta": "https://animefire.plus/img/animes/ristorante-paradiso/",
      "secao": "legendados",
      "pagina": 150,
      "total_episodios": 11,
      "link_video": "https://animefire.plus/video/ristorante-paradiso"
    },
    {
      "id": 3136,
      "nome": "Rizelmine",
      "link": "https://animefire.plus/animes/rizelmine-todos-os-episodios",
      "texto_original": "Rizelmine",
      "rating": 6.6,
      "classificacao_etaria": "A18",
      "imagem_original": "https://animefire.plus/img/animes/rizelmine.webp",
      "imagem_pasta": "https://animefire.plus/img/animes/rizelmine/",
      "secao": "legendados",
      "pagina": 115,
      "total_episodios": 24,
      "link_video": "https://animefire.plus/video/rizelmine"
    },
    {
      "id": 3137,
      "nome": "Ro-Kyu-Bu!",
      "link": "https://animefire.plus/animes/ro-kyu-bu-todos-os-episodios",
      "texto_original": "Ro-Kyu-Bu!",
      "rating": 6.95,
      "classificacao_etaria": "A14",
      "imagem_original": "https://animefire.plus/img/animes/ro-kyu-bu.webp",
      "imagem_pasta": "https://animefire.plus/img/animes/ro-kyu-bu/",
      "secao": "legendados",
      "pagina": 133,
      "total_episodios": 1,
      "link_video": "https://animefire.plus/video/ro-kyu-bu"
    },
    {
      "id": 3138,
      "nome": "Ro-Kyu-Bu! SS",
      "link": "https://animefire.plus/animes/ro-kyu-bu-ss-todos-os-episodios",
      "texto_original": "Ro-Kyu-Bu! SS",
      "rating": 7.22,
      "classificacao_etaria": "A14",
      "imagem_original": "https://animefire.plus/img/animes/ro-kyu-bu-ss.webp",
      "imagem_pasta": "https://animefire.plus/img/animes/ro-kyu-bu-ss/",
      "secao": "legendados",
      "pagina": 175,
      "total_episodios": 1,
      "link_video": "https://animefire.plus/video/ro-kyu-bu-ss"
    },
    {
      "id": 3139,
      "nome": "Ro-Kyu-Bu!: Tomoka no Ichigo Sundae",
      "link": "https://animefire.plus/animes/ro-kyu-bu-tomoka-no-ichigo-sundae-todos-os-episodios",
      "texto_original": "Ro-Kyu-Bu!: Tomoka no Ichigo Sundae",
      "rating": 7.03,
      "classificacao_etaria": "A14",
      "imagem_original": "https://animefire.plus/img/animes/ro-kyu-bu-tomoka-no-ichigo-sundae.webp",
      "imagem_pasta": "https://animefire.plus/img/animes/ro-kyu-bu-tomoka-no-ichigo-sundae/",
      "secao": "legendados",
      "pagina": 85,
      "total_episodios": 1,
      "link_video": "https://animefire.plus/video/ro-kyu-bu-tomoka-no-ichigo-sundae"
    },
    {
      "id": 3140,
      "nome": "RobiHachi",
      "link": "https://animefire.plus/animes/robihachi-todos-os-episodios",
      "texto_original": "RobiHachi",
      "rating": 6.51,
      "classificacao_etaria": "A14",
      "imagem_original": "https://animefire.plus/img/animes/robihachi.webp",
      "imagem_pasta": "https://animefire.plus/img/animes/robihachi/",
      "secao": "legendados",
      "pagina": 150,
      "total_episodios": 0,
      "link_video": "https://animefire.plus/video/robihachi"
    },
    {
      "id": 3141,
      "nome": "RoboMasters the Animated Series",
      "link": "https://animefire.plus/animes/robomasters-the-animated-series-todos-os-episodios",
      "texto_original": "RoboMasters the Animated Series",
      "rating": 6.57,
      "classificacao_etaria": "A14",
      "imagem_original": "https://animefire.plus/img/animes/robomasters-the-animated-series.webp",
      "imagem_pasta": "https://animefire.plus/img/animes/robomasters-the-animated-series/",
      "secao": "legendados",
      "pagina": 172,
      "total_episodios": 6,
      "link_video": "https://animefire.plus/video/robomasters-the-animated-series"
    },
    {
      "id": 3142,
      "nome": "Robotics;Notes",
      "link": "https://animefire.plus/animes/robotics-notes-todos-os-episodios",
      "texto_original": "Robotics;Notes",
      "rating": 7.39,
      "classificacao_etaria": "A14",
      "imagem_original": "https://animefire.plus/img/animes/robotics-notes.webp",
      "imagem_pasta": "https://animefire.plus/img/animes/robotics-notes/",
      "secao": "legendados",
      "pagina": 175,
      "total_episodios": 0,
      "link_video": "https://animefire.plus/video/robotics-notes"
    },
    {
      "id": 3143,
      "nome": "Rock wa Lady no Tashinami deshite",
      "link": "https://animefire.plus/animes/rock-wa-lady-no-tashinami-deshite-todos-os-episodios",
      "texto_original": "Rock wa Lady no Tashinami deshite",
      "rating": 7.92,
      "classificacao_etaria": "A14",
      "imagem_original": "https://animefire.plus/img/animes/rock-wa-lady-no-tashinami-deshite.webp",
      "imagem_pasta": "https://animefire.plus/img/animes/rock-wa-lady-no-tashinami-deshite/",
      "secao": "legendados",
      "pagina": 5,
      "total_episodios": 13,
      "link_video": "https://animefire.plus/video/rock-wa-lady-no-tashinami-deshite"
    },
    {
      "id": 3144,
      "nome": "Rockman.EXE Axess",
      "link": "https://animefire.plus/animes/rockman-exe-axess-todos-os-episodios",
      "texto_original": "Rockman.EXE Axess",
      "rating": 7.23,
      "classificacao_etaria": "A10",
      "imagem_original": "https://animefire.plus/img/animes/rockman-exe-axess.webp",
      "imagem_pasta": "https://animefire.plus/img/animes/rockman-exe-axess/",
      "secao": "legendados",
      "pagina": 146,
      "total_episodios": 36,
      "link_video": "https://animefire.plus/video/rockman-exe-axess"
    },
    {
      "id": 3145,
      "nome": "Rokka no Yuusha (Dublado)",
      "link": "https://animefire.plus/animes/rokka-no-yuusha-dublado-todos-os-episodios",
      "texto_original": "Rokka no Yuusha (Dublado)",
      "rating": 7.43,
      "classificacao_etaria": "A14",
      "imagem_original": "https://animefire.plus/img/animes/rokka-no-yuusha.webp",
      "imagem_pasta": "https://animefire.plus/img/animes/rokka-no-yuusha/",
      "secao": "dublados,legendados",
      "pagina": 25,
      "total_episodios": 12,
      "link_video": "https://animefire.plus/video/rokka-no-yuusha-dublado"
    },
    {
      "id": 3146,
      "nome": "Rokudenashi Majutsu Koushi to Akashic Records (Dublado)",
      "link": "https://animefire.plus/animes/rokudenashi-majutsu-koushi-to-akashic-records-dublado-todos-os-episodios",
      "texto_original": "Rokudenashi Majutsu Koushi to Akashic Records (Dublado)",
      "rating": 7.29,
      "classificacao_etaria": "A16",
      "imagem_original": "https://animefire.plus/img/animes/rokudenashi-majutsu-koushi-to-akashic-records.webp",
      "imagem_pasta": "https://animefire.plus/img/animes/rokudenashi-majutsu-koushi-to-akashic-records/",
      "secao": "dublados,legendados",
      "pagina": 23,
      "total_episodios": 12,
      "link_video": "https://animefire.plus/video/rokudenashi-majutsu-koushi-to-akashic-records-dublado"
    },
    {
      "id": 3147,
      "nome": "Rokudou no Onna-tachi",
      "link": "https://animefire.plus/animes/rokudou-no-onna-tachi-todos-os-episodios",
      "texto_original": "Rokudou no Onna-tachi",
      "rating": 6.41,
      "classificacao_etaria": "A14",
      "imagem_original": "https://animefire.plus/img/animes/rokudou-no-onna-tachi.jpg",
      "imagem_pasta": "https://animefire.plus/img/animes/rokudou-no-onna-tachi/",
      "secao": "legendados",
      "pagina": 24,
      "total_episodios": 12,
      "link_video": "https://animefire.plus/video/rokudou-no-onna-tachi"
    },
    {
      "id": 3148,
      "nome": "Rokuhoudou Yotsuiro Biyori",
      "link": "https://animefire.plus/animes/rokuhoudou-yotsuiro-biyori-todos-os-episodios",
      "texto_original": "Rokuhoudou Yotsuiro Biyori",
      "rating": 7.64,
      "classificacao_etaria": "A14",
      "imagem_original": "https://animefire.plus/img/animes/rokuhoudou-yotsuiro-biyori.webp",
      "imagem_pasta": "https://animefire.plus/img/animes/rokuhoudou-yotsuiro-biyori/",
      "secao": "legendados",
      "pagina": 152,
      "total_episodios": 9,
      "link_video": "https://animefire.plus/video/rokuhoudou-yotsuiro-biyori"
    },
    {
      "id": 3149,
      "nome": "Rokujouma no Shinryakusha!?",
      "link": "https://animefire.plus/animes/rokujouma-no-shinryakusha-todos-os-episodios",
      "texto_original": "Rokujouma no Shinryakusha!?",
      "rating": 7.27,
      "classificacao_etaria": "A14",
      "imagem_original": "https://animefire.plus/img/animes/rokujouma-no-shinryakusha.webp",
      "imagem_pasta": "https://animefire.plus/img/animes/rokujouma-no-shinryakusha/",
      "secao": "legendados",
      "pagina": 161,
      "total_episodios": 2,
      "link_video": "https://animefire.plus/video/rokujouma-no-shinryakusha"
    },
    {
      "id": 3150,
      "nome": "Rolling☆Girls",
      "link": "https://animefire.plus/animes/rolling-girls-todos-os-episodios",
      "texto_original": "Rolling☆Girls",
      "rating": 6.6,
      "classificacao_etaria": "A14",
      "imagem_original": "https://animefire.plus/img/animes/rolling-girls.webp",
      "imagem_pasta": "https://animefire.plus/img/animes/rolling-girls/",
      "secao": "legendados",
      "pagina": 56,
      "total_episodios": 12,
      "link_video": "https://animefire.plus/video/rolling-girls"
    },
    {
      "id": 3151,
      "nome": "Romantic Killer (Dublado)",
      "link": "https://animefire.plus/animes/romantic-killer-dublado-todos-os-episodios",
      "texto_original": "Romantic Killer (Dublado)",
      "rating": 7.94,
      "classificacao_etaria": "A14",
      "imagem_original": "https://animefire.plus/img/animes/romantic-killer.webp",
      "imagem_pasta": "https://animefire.plus/img/animes/romantic-killer/",
      "secao": "dublados,legendados",
      "pagina": 9,
      "total_episodios": 12,
      "link_video": "https://animefire.plus/video/romantic-killer-dublado"
    },
    {
      "id": 3152,
      "nome": "Romantica Clock",
      "link": "https://animefire.plus/animes/romantica-clock-todos-os-episodios",
      "texto_original": "Romantica Clock",
      "rating": 5.72,
      "classificacao_etaria": null,
      "imagem_original": "https://animefire.plus/img/animes/romantica-clock.webp",
      "imagem_pasta": "https://animefire.plus/img/animes/romantica-clock/",
      "secao": "legendados",
      "pagina": 43,
      "total_episodios": 3,
      "link_video": "https://animefire.plus/video/romantica-clock"
    }
  ],
  "pagination": {
    "current_page": 154,
    "per_page": 20,
    "total_items": 4269,
    "total_pages": 214,
    "has_next": true,
    "has_prev": true
  }
}
