{
  "message": "Animes da seção: legendados",
  "section": "legendados",
  "data": [
    {
      "id": 2221,
      "nome": "Ling Jian Zun",
      "link": "https://animefire.plus/animes/ling-jian-zun-todos-os-episodios",
      "texto_original": "Ling Jian Zun",
      "rating": 6.89,
      "classificacao_etaria": "A14",
      "imagem_original": "https://animefire.plus/img/animes/ling-jian-zun.webp",
      "imagem_pasta": "https://animefire.plus/img/animes/ling-jian-zun/",
      "secao": "legendados",
      "pagina": 80,
      "total_episodios": 30,
      "link_video": "https://animefire.plus/video/ling-jian-zun"
    },
    {
      "id": 2222,
      "nome": "Ling Qi",
      "link": "https://animefire.plus/animes/ling-qi-todos-os-episodios",
      "texto_original": "Ling Qi",
      "rating": 7.21,
      "classificacao_etaria": "A14",
      "imagem_original": "https://animefire.plus/img/animes/ling-qi.webp",
      "imagem_pasta": "https://animefire.plus/img/animes/ling-qi/",
      "secao": "legendados",
      "pagina": 176,
      "total_episodios": 10,
      "link_video": "https://animefire.plus/video/ling-qi"
    },
    {
      "id": 2223,
      "nome": "Ling Qi 2",
      "link": "https://animefire.plus/animes/ling-qi-2-todos-os-episodios",
      "texto_original": "Ling Qi 2",
      "rating": 7.62,
      "classificacao_etaria": "A14",
      "imagem_original": "https://animefire.plus/img/animes/ling-qi-2.webp",
      "imagem_pasta": "https://animefire.plus/img/animes/ling-qi-2/",
      "secao": "legendados",
      "pagina": 151,
      "total_episodios": 12,
      "link_video": "https://animefire.plus/video/ling-qi-2"
    },
    {
      "id": 2224,
      "nome": "Ling Yu",
      "link": "https://animefire.plus/animes/ling-yu-todos-os-episodios",
      "texto_original": "Ling Yu",
      "rating": 6.81,
      "classificacao_etaria": "A14",
      "imagem_original": "https://animefire.plus/img/animes/ling-yu.webp",
      "imagem_pasta": "https://animefire.plus/img/animes/ling-yu/",
      "secao": "legendados",
      "pagina": 114,
      "total_episodios": 10,
      "link_video": "https://animefire.plus/video/ling-yu"
    },
    {
      "id": 2225,
      "nome": "Ling Yu 2nd Season",
      "link": "https://animefire.plus/animes/ling-yu-2nd-season-todos-os-episodios",
      "texto_original": "Ling Yu 2nd Season",
      "rating": 7,
      "classificacao_etaria": "A14",
      "imagem_original": "https://animefire.plus/img/animes/ling-yu-2nd-season.webp",
      "imagem_pasta": "https://animefire.plus/img/animes/ling-yu-2nd-season/",
      "secao": "legendados",
      "pagina": 140,
      "total_episodios": 10,
      "link_video": "https://animefire.plus/video/ling-yu-2nd-season"
    },
    {
      "id": 2226,
      "nome": "Ling Yu: Di San Ji",
      "link": "https://animefire.plus/animes/ling-yu-di-san-ji-todos-os-episodios",
      "texto_original": "Ling Yu: Di San Ji",
      "rating": 6.91,
      "classificacao_etaria": "A14",
      "imagem_original": "https://animefire.plus/img/animes/ling-yu-di-san-ji.webp",
      "imagem_pasta": "https://animefire.plus/img/animes/ling-yu-di-san-ji/",
      "secao": "legendados",
      "pagina": 115,
      "total_episodios": 5,
      "link_video": "https://animefire.plus/video/ling-yu-di-san-ji"
    },
    {
      "id": 2227,
      "nome": "Listeners",
      "link": "https://animefire.plus/animes/listeners-todos-os-episodios",
      "texto_original": "Listeners",
      "rating": 5.38,
      "classificacao_etaria": "A14",
      "imagem_original": "https://animefire.plus/img/animes/listeners.webp",
      "imagem_pasta": "https://animefire.plus/img/animes/listeners/",
      "secao": "legendados",
      "pagina": 60,
      "total_episodios": 8,
      "link_video": "https://animefire.plus/video/listeners"
    },
    {
      "id": 2228,
      "nome": "Litchi DE Hikari Club",
      "link": "https://animefire.plus/animes/litchi-de-hikari-club-todos-os-episodios",
      "texto_original": "Litchi DE Hikari Club",
      "rating": 5.28,
      "classificacao_etaria": "A14",
      "imagem_original": "https://animefire.plus/img/animes/litchi-de-hikari-club.webp",
      "imagem_pasta": "https://animefire.plus/img/animes/litchi-de-hikari-club/",
      "secao": "legendados",
      "pagina": 177,
      "total_episodios": 8,
      "link_video": "https://animefire.plus/video/litchi-de-hikari-club"
    },
    {
      "id": 2229,
      "nome": "Little Busters!",
      "link": "https://animefire.plus/animes/little-busters-todos-os-episodios",
      "texto_original": "Little Busters!",
      "rating": 7.6,
      "classificacao_etaria": "A14",
      "imagem_original": "https://animefire.plus/img/animes/little-busters.webp",
      "imagem_pasta": "https://animefire.plus/img/animes/little-busters/",
      "secao": "legendados",
      "pagina": 116,
      "total_episodios": 0,
      "link_video": "https://animefire.plus/video/little-busters"
    },
    {
      "id": 2230,
      "nome": "Little Busters!: EX",
      "link": "https://animefire.plus/animes/little-busters-ex-todos-os-episodios",
      "texto_original": "Little Busters!: EX",
      "rating": 7.79,
      "classificacao_etaria": "A14",
      "imagem_original": "https://animefire.plus/img/animes/little-busters-ex.webp",
      "imagem_pasta": "https://animefire.plus/img/animes/little-busters-ex/",
      "secao": "legendados",
      "pagina": 75,
      "total_episodios": 9,
      "link_video": "https://animefire.plus/video/little-busters-ex"
    },
    {
      "id": 2231,
      "nome": "Little Busters!: Refrain",
      "link": "https://animefire.plus/animes/little-busters-refrain-todos-os-episodios",
      "texto_original": "Little Busters!: Refrain",
      "rating": 8.3,
      "classificacao_etaria": "A14",
      "imagem_original": "https://animefire.plus/img/animes/little-busters-refrain.webp",
      "imagem_pasta": "https://animefire.plus/img/animes/little-busters-refrain/",
      "secao": "legendados",
      "pagina": 143,
      "total_episodios": 4,
      "link_video": "https://animefire.plus/video/little-busters-refrain"
    },
    {
      "id": 2232,
      "nome": "Little Witch Academia (TV) (Dublado)",
      "link": "https://animefire.plus/animes/little-witch-academia-tv-dublado-todos-os-episodios",
      "texto_original": "Little Witch Academia (TV) (Dublado)",
      "rating": 8.02,
      "classificacao_etaria": null,
      "imagem_original": "https://animefire.plus/img/animes/little-witch-academia-tv.webp",
      "imagem_pasta": "https://animefire.plus/img/animes/little-witch-academia-tv/",
      "secao": "dublados,legendados",
      "pagina": 24,
      "total_episodios": 25,
      "link_video": "https://animefire.plus/video/little-witch-academia-tv-dublado"
    },
    {
      "id": 2233,
      "nome": "Lodoss-tou Senki: Eiyuu Kishi Den",
      "link": "https://animefire.plus/animes/lodoss-tou-senki-eiyuu-kishi-den-todos-os-episodios",
      "texto_original": "Lodoss-tou Senki: Eiyuu Kishi Den",
      "rating": 7.21,
      "classificacao_etaria": "A14",
      "imagem_original": "https://animefire.plus/img/animes/lodoss-tou-senki-eiyuu-kishi-den.webp",
      "imagem_pasta": "https://animefire.plus/img/animes/lodoss-tou-senki-eiyuu-kishi-den/",
      "secao": "legendados",
      "pagina": 128,
      "total_episodios": 27,
      "link_video": "https://animefire.plus/video/lodoss-tou-senki-eiyuu-kishi-den"
    },
    {
      "id": 2234,
      "nome": "Log Horizon",
      "link": "https://animefire.plus/animes/log-horizon-todos-os-episodios",
      "texto_original": "Log Horizon",
      "rating": 8.06,
      "classificacao_etaria": "A14",
      "imagem_original": "https://animefire.plus/img/animes/log-horizon.webp",
      "imagem_pasta": "https://animefire.plus/img/animes/log-horizon/",
      "secao": "legendados",
      "pagina": 121,
      "total_episodios": 4,
      "link_video": "https://animefire.plus/video/log-horizon"
    },
    {
      "id": 2235,
      "nome": "Log Horizon 2nd Season",
      "link": "https://animefire.plus/animes/log-horizon-2nd-season-todos-os-episodios",
      "texto_original": "Log Horizon 2nd Season",
      "rating": 7.64,
      "classificacao_etaria": "A14",
      "imagem_original": "https://animefire.plus/img/animes/log-horizon-2nd-season.webp",
      "imagem_pasta": "https://animefire.plus/img/animes/log-horizon-2nd-season/",
      "secao": "legendados",
      "pagina": 81,
      "total_episodios": 25,
      "link_video": "https://animefire.plus/video/log-horizon-2nd-season"
    },
    {
      "id": 2236,
      "nome": "Log Horizon: Entaku Houkai (Dublado)",
      "link": "https://animefire.plus/animes/log-horizon-entaku-houkai-dublado-todos-os-episodios",
      "texto_original": "Log Horizon: Entaku Houkai (Dublado)",
      "rating": 7.07,
      "classificacao_etaria": "A14",
      "imagem_original": "https://animefire.plus/img/animes/log-horizon-entaku-houkai.webp",
      "imagem_pasta": "https://animefire.plus/img/animes/log-horizon-entaku-houkai/",
      "secao": "dublados,legendados",
      "pagina": 13,
      "total_episodios": 12,
      "link_video": "https://animefire.plus/video/log-horizon-entaku-houkai-dublado"
    },
    {
      "id": 2237,
      "nome": "Long Riders!",
      "link": "https://animefire.plus/animes/long-riders-todos-os-episodios",
      "texto_original": "Long Riders!",
      "rating": 6.65,
      "classificacao_etaria": "A14",
      "imagem_original": "https://animefire.plus/img/animes/long-riders.webp",
      "imagem_pasta": "https://animefire.plus/img/animes/long-riders/",
      "secao": "legendados",
      "pagina": 119,
      "total_episodios": 2,
      "link_video": "https://animefire.plus/video/long-riders"
    },
    {
      "id": 2238,
      "nome": "Long Zu",
      "link": "https://animefire.plus/animes/long-zu-todos-os-episodios",
      "texto_original": "Long Zu",
      "rating": 7.27,
      "classificacao_etaria": "A14",
      "imagem_original": "https://animefire.plus/img/animes/long-zu.webp",
      "imagem_pasta": "https://animefire.plus/img/animes/long-zu/",
      "secao": "legendados",
      "pagina": 13,
      "total_episodios": 0,
      "link_video": "https://animefire.plus/video/long-zu"
    },
    {
      "id": 2239,
      "nome": "Loop 7-kaime no Akuyaku Reijou wa, Moto Tekikoku de Jiyuu Kimama na Hanayome Seikatsu wo Mankitsu suru",
      "link": "https://animefire.plus/animes/loop-7-kaime-no-akuyaku-reijou-wa-moto-tekikoku-de-jiyuu-kimama-na-hanayome-seikatsu-wo-mankitsu-suru-todos-os-episodios",
      "texto_original": "Loop 7-kaime no Akuyaku Reijou wa, Moto Tekikoku de Jiyuu Kimama na Hanayome Seikatsu wo Mankitsu suru",
      "rating": 7.52,
      "classificacao_etaria": "A14",
      "imagem_original": "https://animefire.plus/img/animes/loop-7-kaime-no-akuyaku-reijou-wa-moto-tekikoku-de-jiyuu-kimama-na-hanayome-seikatsu-wo-mankitsu-suru.webp",
      "imagem_pasta": "https://animefire.plus/img/animes/loop-7-kaime-no-akuyaku-reijou-wa-moto-tekikoku-de-jiyuu-kimama-na-hanayome-seikatsu-wo-mankitsu-suru/",
      "secao": "legendados",
      "pagina": 16,
      "total_episodios": 12,
      "link_video": "https://animefire.plus/video/loop-7-kaime-no-akuyaku-reijou-wa-moto-tekikoku-de-jiyuu-kimama-na-hanayome-seikatsu-wo-mankitsu-suru"
    },
    {
      "id": 2240,
      "nome": "Lord El-Melloi II Sei no Jikenbo: Rail Zeppelin Grace Note",
      "link": "https://animefire.plus/animes/lord-el-melloi-ii-sei-no-jikenbo-rail-zeppelin-grace-note-todos-os-episodios",
      "texto_original": "Lord El-Melloi II Sei no Jikenbo: Rail Zeppelin Grace Note",
      "rating": 7.36,
      "classificacao_etaria": "A16",
      "imagem_original": "https://animefire.plus/img/animes/lord-el-melloi-ii-sei-no-jikenbo-rail-zeppelin-grace-note.webp",
      "imagem_pasta": "https://animefire.plus/img/animes/lord-el-melloi-ii-sei-no-jikenbo-rail-zeppelin-grace-note/",
      "secao": "legendados",
      "pagina": 164,
      "total_episodios": 5,
      "link_video": "https://animefire.plus/video/lord-el-melloi-ii-sei-no-jikenbo-rail-zeppelin-grace-note"
    }
  ],
  "pagination": {
    "current_page": 109,
    "per_page": 20,
    "total_items": 4269,
    "total_pages": 214,
    "has_next": true,
    "has_prev": true
  }
}
