{
  "message": "Animes da seção: legendados",
  "section": "legendados",
  "data": [
    {
      "id": 4360,
      "nome": "Zoku Sayonara Zetsubou Sensei",
      "link": "https://animefire.plus/animes/zoku-sayonara-zetsubou-sensei-todos-os-episodios",
      "texto_original": "Zoku Sayonara Zetsubou Sensei",
      "rating": 7.97,
      "classificacao_etaria": "A16",
      "imagem_original": "https://animefire.plus/img/animes/zoku-sayonara-zetsubou-sensei.webp",
      "imagem_pasta": "https://animefire.plus/img/animes/zoku-sayonara-zetsubou-sensei/",
      "secao": "legendados",
      "pagina": 162,
      "total_episodios": 13,
      "link_video": "https://animefire.plus/video/zoku-sayonara-zetsubou-sensei"
    },
    {
      "id": 4361,
      "nome": "Zoku Touken Ranbu: Hanamaru",
      "link": "https://animefire.plus/animes/zoku-touken-ranbu-hanamaru-todos-os-episodios",
      "texto_original": "Zoku Touken Ranbu: Hanamaru",
      "rating": 7.4,
      "classificacao_etaria": "A14",
      "imagem_original": "https://animefire.plus/img/animes/zoku-touken-ranbu-hanamaru.webp",
      "imagem_pasta": "https://animefire.plus/img/animes/zoku-touken-ranbu-hanamaru/",
      "secao": "legendados",
      "pagina": 102,
      "total_episodios": 12,
      "link_video": "https://animefire.plus/video/zoku-touken-ranbu-hanamaru"
    },
    {
      "id": 4362,
      "nome": "Zom 100: Zombie ni Naru made ni Shitai 100 no Koto (Dublado)",
      "link": "https://animefire.plus/animes/zom-100-zombie-ni-naru-made-ni-shitai-100-no-koto-dublado-todos-os-episodios",
      "texto_original": "Zom 100: Zombie ni Naru made ni Shitai 100 no Koto (Dublado)",
      "rating": 7.73,
      "classificacao_etaria": "A16",
      "imagem_original": "https://animefire.plus/img/animes/zom-100-zombie-ni-naru-made-ni-shitai-100-no-koto.webp",
      "imagem_pasta": "https://animefire.plus/img/animes/zom-100-zombie-ni-naru-made-ni-shitai-100-no-koto/",
      "secao": "dublados,legendados",
      "pagina": 6,
      "total_episodios": 12,
      "link_video": "https://animefire.plus/video/zom-100-zombie-ni-naru-made-ni-shitai-100-no-koto-dublado"
    },
    {
      "id": 4363,
      "nome": "Zombie-Loan",
      "link": "https://animefire.plus/animes/zombie-loan-todos-os-episodios",
      "texto_original": "Zombie-Loan",
      "rating": 6.98,
      "classificacao_etaria": "A16",
      "imagem_original": "https://animefire.plus/img/animes/zombie-loan.webp",
      "imagem_pasta": "https://animefire.plus/img/animes/zombie-loan/",
      "secao": "legendados",
      "pagina": 175,
      "total_episodios": 13,
      "link_video": "https://animefire.plus/video/zombie-loan"
    },
    {
      "id": 4364,
      "nome": "Zombieland Saga",
      "link": "https://animefire.plus/animes/zombieland-saga-todos-os-episodios",
      "texto_original": "Zombieland Saga",
      "rating": 7.69,
      "classificacao_etaria": "A16",
      "imagem_original": "https://animefire.plus/img/animes/zombieland-saga.webp",
      "imagem_pasta": "https://animefire.plus/img/animes/zombieland-saga/",
      "secao": "legendados",
      "pagina": 139,
      "total_episodios": 12,
      "link_video": "https://animefire.plus/video/zombieland-saga"
    },
    {
      "id": 4365,
      "nome": "Zombieland Saga: Revenge",
      "link": "https://animefire.plus/animes/zombieland-saga-revenge-todos-os-episodios",
      "texto_original": "Zombieland Saga: Revenge",
      "rating": 7.99,
      "classificacao_etaria": "A16",
      "imagem_original": "https://animefire.plus/img/animes/zombieland-saga-revenge.webp",
      "imagem_pasta": "https://animefire.plus/img/animes/zombieland-saga-revenge/",
      "secao": "legendados",
      "pagina": 47,
      "total_episodios": 12,
      "link_video": "https://animefire.plus/video/zombieland-saga-revenge"
    },
    {
      "id": 4366,
      "nome": "Zone of the Enders: Dolores, I",
      "link": "https://animefire.plus/animes/zone-of-the-enders-dolores-i-todos-os-episodios",
      "texto_original": "Zone of the Enders: Dolores, I",
      "rating": 7.02,
      "classificacao_etaria": "A14",
      "imagem_original": "https://animefire.plus/img/animes/zone-of-the-enders-dolores-i.webp",
      "imagem_pasta": "https://animefire.plus/img/animes/zone-of-the-enders-dolores-i/",
      "secao": "legendados",
      "pagina": 174,
      "total_episodios": 26,
      "link_video": "https://animefire.plus/video/zone-of-the-enders-dolores-i"
    },
    {
      "id": 4367,
      "nome": "Zuoshou Shanglan",
      "link": "https://animefire.plus/animes/zuoshou-shanglan-todos-os-episodios",
      "texto_original": "Zuoshou Shanglan",
      "rating": 7.18,
      "classificacao_etaria": "A14",
      "imagem_original": "https://animefire.plus/img/animes/zuoshou-shanglan.webp",
      "imagem_pasta": "https://animefire.plus/img/animes/zuoshou-shanglan/",
      "secao": "legendados",
      "pagina": 18,
      "total_episodios": 3,
      "link_video": "https://animefire.plus/video/zuoshou-shanglan"
    },
    {
      "id": 4368,
      "nome": "Zutaboro Reijou wa Ane no Moto Konyakusha ni Dekiai sareru",
      "link": "https://animefire.plus/animes/zutaboro-reijou-wa-ane-no-moto-konyakusha-ni-dekiai-sareru-todos-os-episodios",
      "texto_original": "Zutaboro Reijou wa Ane no Moto Konyakusha ni Dekiai sareru",
      "rating": 7.21,
      "classificacao_etaria": "A14",
      "imagem_original": "https://animefire.plus/img/animes/zutaboro-reijou-wa-ane-no-moto-konyakusha-ni-dekiai-sareru.webp",
      "imagem_pasta": "https://animefire.plus/img/animes/zutaboro-reijou-wa-ane-no-moto-konyakusha-ni-dekiai-sareru/",
      "secao": "legendados,lancamentos",
      "pagina": 2,
      "total_episodios": 5,
      "link_video": "https://animefire.plus/video/zutaboro-reijou-wa-ane-no-moto-konyakusha-ni-dekiai-sareru"
    }
  ],
  "pagination": {
    "current_page": 214,
    "per_page": 20,
    "total_items": 4269,
    "total_pages": 214,
    "has_next": false,
    "has_prev": true
  }
}
