{
  "message": "Animes da seção: legendados",
  "section": "legendados",
  "data": [
    {
      "id": 3418,
      "nome": "Shin Koihime†Musou",
      "link": "https://animefire.plus/animes/shin-koihime-musou-todos-os-episodios",
      "texto_original": "Shin Koihime†Musou",
      "rating": 6.91,
      "classificacao_etaria": "A18",
      "imagem_original": "https://animefire.plus/img/animes/shin-koihime-musou.webp",
      "imagem_pasta": "https://animefire.plus/img/animes/shin-koihime-musou/",
      "secao": "legendados",
      "pagina": 175,
      "total_episodios": 12,
      "link_video": "https://animefire.plus/video/shin-koihime-musou"
    },
    {
      "id": 3419,
      "nome": "Shin Koihime†Musou: Live Revolution",
      "link": "https://animefire.plus/animes/shin-koihime-musou-live-revolution-todos-os-episodios",
      "texto_original": "Shin Koihime†Musou: Live Revolution",
      "rating": 6.61,
      "classificacao_etaria": "A14",
      "imagem_original": "https://animefire.plus/img/animes/shin-koihime-musou-live-revolution.webp",
      "imagem_pasta": "https://animefire.plus/img/animes/shin-koihime-musou-live-revolution/",
      "secao": "legendados",
      "pagina": 72,
      "total_episodios": 1,
      "link_video": "https://animefire.plus/video/shin-koihime-musou-live-revolution"
    },
    {
      "id": 3420,
      "nome": "Shin Kujakuou",
      "link": "https://animefire.plus/animes/shin-kujakuou-todos-os-episodios",
      "texto_original": "Shin Kujakuou",
      "rating": 6.06,
      "classificacao_etaria": "A18",
      "imagem_original": "https://animefire.plus/img/animes/shin-kujakuou.webp",
      "imagem_pasta": "https://animefire.plus/img/animes/shin-kujakuou/",
      "secao": "legendados",
      "pagina": 83,
      "total_episodios": 2,
      "link_video": "https://animefire.plus/video/shin-kujakuou"
    },
    {
      "id": 3421,
      "nome": "Shin no Nakama ja Nai to Yuusha no Party wo Oidasareta node, Henkyou de Slow Life suru Koto ni Shima",
      "link": "https://animefire.plus/animes/shin-no-nakama-ja-nai-to-yuusha-no-party-wo-oidasareta-node-henkyou-de-slow-life-suru-koto-ni-shima-todos-os-episodios",
      "texto_original": "Shin no Nakama ja Nai to Yuusha no Party wo Oidasareta node, Henkyou de Slow Life suru Koto ni Shima",
      "rating": 6.92,
      "classificacao_etaria": "A14",
      "imagem_original": "https://animefire.plus/img/animes/shin-no-nakama-ja-nai-to-yuusha-no-party-wo-oidasareta-node-henkyou-de-slow-life-suru-koto-ni-shima.webp",
      "imagem_pasta": "https://animefire.plus/img/animes/shin-no-nakama-ja-nai-to-yuusha-no-party-wo-oidasareta-node-henkyou-de-slow-life-suru-koto-ni-shima/",
      "secao": "legendados",
      "pagina": 39,
      "total_episodios": 13,
      "link_video": "https://animefire.plus/video/shin-no-nakama-ja-nai-to-yuusha-no-party-wo-oidasareta-node-henkyou-de-slow-life-suru-koto-ni-shima"
    },
    {
      "id": 3423,
      "nome": "Shin no Nakama ja Nai to Yuusha no Party wo Oidasareta node, Henkyou de Slow Life suru Koto ni Shimashita 2nd",
      "link": "https://animefire.plus/animes/shin-no-nakama-ja-nai-to-yuusha-no-party-wo-oidasareta-node-henkyou-de-slow-life-suru-koto-ni-shimashita-2nd-todos-os-episodios",
      "texto_original": "Shin no Nakama ja Nai to Yuusha no Party wo Oidasareta node, Henkyou de Slow Life suru Koto ni Shimashita 2nd",
      "rating": 6.76,
      "classificacao_etaria": "A14",
      "imagem_original": "https://animefire.plus/img/animes/shin-no-nakama-ja-nai-to-yuusha-no-party-wo-oidasareta-node-henkyou-de-slow-life-suru-koto-ni-shimashita-2nd.webp",
      "imagem_pasta": "https://animefire.plus/img/animes/shin-no-nakama-ja-nai-to-yuusha-no-party-wo-oidasareta-node-henkyou-de-slow-life-suru-koto-ni-shimashita-2nd/",
      "secao": "legendados",
      "pagina": 16,
      "total_episodios": 12,
      "link_video": "https://animefire.plus/video/shin-no-nakama-ja-nai-to-yuusha-no-party-wo-oidasareta-node-henkyou-de-slow-life-suru-koto-ni-shimashita-2nd"
    },
    {
      "id": 3424,
      "nome": "Shin Sakura Taisen the Animation",
      "link": "https://animefire.plus/animes/shin-sakura-taisen-the-animation-todos-os-episodios",
      "texto_original": "Shin Sakura Taisen the Animation",
      "rating": 5.81,
      "classificacao_etaria": "A14",
      "imagem_original": "https://animefire.plus/img/animes/shin-sakura-taisen-the-animation.webp",
      "imagem_pasta": "https://animefire.plus/img/animes/shin-sakura-taisen-the-animation/",
      "secao": "legendados",
      "pagina": 81,
      "total_episodios": 1,
      "link_video": "https://animefire.plus/video/shin-sakura-taisen-the-animation"
    },
    {
      "id": 3425,
      "nome": "Shin Samurai-den Yaiba",
      "link": "https://animefire.plus/animes/shin-samurai-den-yaiba-todos-os-episodios",
      "texto_original": "Shin Samurai-den Yaiba",
      "rating": 7.28,
      "classificacao_etaria": "A14",
      "imagem_original": "https://animefire.plus/img/animes/shin-samurai-den-yaiba.webp",
      "imagem_pasta": "https://animefire.plus/img/animes/shin-samurai-den-yaiba/",
      "secao": "legendados,lancamentos",
      "pagina": 5,
      "total_episodios": 16,
      "link_video": "https://animefire.plus/video/shin-samurai-den-yaiba"
    },
    {
      "id": 3426,
      "nome": "Shin Shinka no Mi: Shiranai Uchi ni Kachigumi Jinsei (Dublado)",
      "link": "https://animefire.plus/animes/shin-shinka-no-mi-shiranai-uchi-ni-kachigumi-jinsei-dublado-todos-os-episodios",
      "texto_original": "Shin Shinka no Mi: Shiranai Uchi ni Kachigumi Jinsei (Dublado)",
      "rating": 5.47,
      "classificacao_etaria": "A14",
      "imagem_original": "https://animefire.plus/img/animes/shin-shinka-no-mi-shiranai-uchi-ni-kachigumi-jinsei.webp",
      "imagem_pasta": "https://animefire.plus/img/animes/shin-shinka-no-mi-shiranai-uchi-ni-kachigumi-jinsei/",
      "secao": "dublados,legendados",
      "pagina": 5,
      "total_episodios": 12,
      "link_video": "https://animefire.plus/video/shin-shinka-no-mi-shiranai-uchi-ni-kachigumi-jinsei-dublado"
    },
    {
      "id": 3427,
      "nome": "Shin Shirayuki-hime Densetsu Prétear",
      "link": "https://animefire.plus/animes/shin-shirayuki-hime-densetsu-pretear-todos-os-episodios",
      "texto_original": "Shin Shirayuki-hime Densetsu Prétear",
      "rating": 7.28,
      "classificacao_etaria": "A14",
      "imagem_original": "https://animefire.plus/img/animes/shin-shirayuki-hime-densetsu-pretear.webp",
      "imagem_pasta": "https://animefire.plus/img/animes/shin-shirayuki-hime-densetsu-pretear/",
      "secao": "legendados",
      "pagina": 137,
      "total_episodios": 13,
      "link_video": "https://animefire.plus/video/shin-shirayuki-hime-densetsu-pretear"
    },
    {
      "id": 3428,
      "nome": "Shin Strange+",
      "link": "https://animefire.plus/animes/shin-strange-todos-os-episodios",
      "texto_original": "Shin Strange+",
      "rating": 6.3,
      "classificacao_etaria": "A14",
      "imagem_original": "https://animefire.plus/img/animes/shin-strange.webp",
      "imagem_pasta": "https://animefire.plus/img/animes/shin-strange/",
      "secao": "legendados",
      "pagina": 104,
      "total_episodios": 12,
      "link_video": "https://animefire.plus/video/shin-strange"
    },
    {
      "id": 3429,
      "nome": "Shin Tennis no Ouji-sama (Dublado)",
      "link": "https://animefire.plus/animes/shin-tennis-no-ouji-sama-dublado-todos-os-episodios",
      "texto_original": "Shin Tennis no Ouji-sama (Dublado)",
      "rating": 7.55,
      "classificacao_etaria": "A14",
      "imagem_original": "https://animefire.plus/img/animes/shin-tennis-no-ouji-sama.webp",
      "imagem_pasta": "https://animefire.plus/img/animes/shin-tennis-no-ouji-sama/",
      "secao": "dublados,legendados",
      "pagina": 15,
      "total_episodios": 13,
      "link_video": "https://animefire.plus/video/shin-tennis-no-ouji-sama-dublado"
    },
    {
      "id": 3430,
      "nome": "Shin Tennis no Ouji-sama OVA vs. Genius 10",
      "link": "https://animefire.plus/animes/shin-tennis-no-ouji-sama-ova-vs-genius-10-todos-os-episodios",
      "texto_original": "Shin Tennis no Ouji-sama OVA vs. Genius 10",
      "rating": 7.63,
      "classificacao_etaria": "A14",
      "imagem_original": "https://animefire.plus/img/animes/shin-tennis-no-ouji-sama-ova-vs-genius-10.webp",
      "imagem_pasta": "https://animefire.plus/img/animes/shin-tennis-no-ouji-sama-ova-vs-genius-10/",
      "secao": "legendados",
      "pagina": 55,
      "total_episodios": 10,
      "link_video": "https://animefire.plus/video/shin-tennis-no-ouji-sama-ova-vs-genius-10"
    },
    {
      "id": 3431,
      "nome": "Shin Tennis no Ouji-sama Specials",
      "link": "https://animefire.plus/animes/shin-tennis-no-ouji-sama-specials-todos-os-episodios",
      "texto_original": "Shin Tennis no Ouji-sama Specials",
      "rating": 7.52,
      "classificacao_etaria": "A14",
      "imagem_original": "https://animefire.plus/img/animes/shin-tennis-no-ouji-sama-specials.webp",
      "imagem_pasta": "https://animefire.plus/img/animes/shin-tennis-no-ouji-sama-specials/",
      "secao": "legendados",
      "pagina": 55,
      "total_episodios": 7,
      "link_video": "https://animefire.plus/video/shin-tennis-no-ouji-sama-specials"
    },
    {
      "id": 3433,
      "nome": "Shin Tennis no Ouji-sama: U-17 World Cup",
      "link": "https://animefire.plus/animes/shin-tennis-no-ouji-sama-u-17-world-cup-todos-os-episodios",
      "texto_original": "Shin Tennis no Ouji-sama: U-17 World Cup",
      "rating": 6.79,
      "classificacao_etaria": "A14",
      "imagem_original": "https://animefire.plus/img/animes/shin-tennis-no-ouji-sama-u-17-world-cup.webp",
      "imagem_pasta": "https://animefire.plus/img/animes/shin-tennis-no-ouji-sama-u-17-world-cup/",
      "secao": "legendados",
      "pagina": 31,
      "total_episodios": 13,
      "link_video": "https://animefire.plus/video/shin-tennis-no-ouji-sama-u-17-world-cup"
    },
    {
      "id": 3434,
      "nome": "Shin Tennis no Oujisama: U-17 World Cup Semifinal",
      "link": "https://animefire.plus/animes/shin-tennis-no-oujisama-u-17-world-cup-semifinal-todos-os-episodios",
      "texto_original": "Shin Tennis no Oujisama: U-17 World Cup Semifinal",
      "rating": 6.66,
      "classificacao_etaria": "A14",
      "imagem_original": "https://animefire.plus/img/animes/shin-tennis-no-oujisama-u-17-world-cup-semifinal.webp",
      "imagem_pasta": "https://animefire.plus/img/animes/shin-tennis-no-oujisama-u-17-world-cup-semifinal/",
      "secao": "legendados,lancamentos",
      "pagina": 9,
      "total_episodios": 3,
      "link_video": "https://animefire.plus/video/shin-tennis-no-oujisama-u-17-world-cup-semifinal"
    },
    {
      "id": 3435,
      "nome": "Shin Yaranai ka",
      "link": "https://animefire.plus/animes/shin-yaranai-ka-todos-os-episodios",
      "texto_original": "Shin Yaranai ka",
      "rating": 5.29,
      "classificacao_etaria": "A14",
      "imagem_original": "https://animefire.plus/img/animes/shin-yaranai-ka.webp",
      "imagem_pasta": "https://animefire.plus/img/animes/shin-yaranai-ka/",
      "secao": "legendados,lancamentos",
      "pagina": 14,
      "total_episodios": 0,
      "link_video": "https://animefire.plus/video/shin-yaranai-ka"
    },
    {
      "id": 3436,
      "nome": "Shinchou Yuusha: Kono Yuusha ga Ore Tueee Kuse ni Shinchou Sugiru",
      "link": "https://animefire.plus/animes/shinchou-yuusha-kono-yuusha-ga-ore-tueee-kuse-ni-shinchou-sugiru-todos-os-episodios",
      "texto_original": "Shinchou Yuusha: Kono Yuusha ga Ore Tueee Kuse ni Shinchou Sugiru",
      "rating": 7.55,
      "classificacao_etaria": "A16",
      "imagem_original": "https://animefire.plus/img/animes/shinchou-yuusha-kono-yuusha-ga-ore-tueee-kuse-ni-shinchou-sugiru.webp",
      "imagem_pasta": "https://animefire.plus/img/animes/shinchou-yuusha-kono-yuusha-ga-ore-tueee-kuse-ni-shinchou-sugiru/",
      "secao": "legendados",
      "pagina": 111,
      "total_episodios": 12,
      "link_video": "https://animefire.plus/video/shinchou-yuusha-kono-yuusha-ga-ore-tueee-kuse-ni-shinchou-sugiru"
    },
    {
      "id": 3437,
      "nome": "Shine Post",
      "link": "https://animefire.plus/animes/shine-post-todos-os-episodios",
      "texto_original": "Shine Post",
      "rating": 7.49,
      "classificacao_etaria": "A14",
      "imagem_original": "https://animefire.plus/img/animes/shine-post.webp",
      "imagem_pasta": "https://animefire.plus/img/animes/shine-post/",
      "secao": "legendados",
      "pagina": 30,
      "total_episodios": 12,
      "link_video": "https://animefire.plus/video/shine-post"
    },
    {
      "id": 3438,
      "nome": "Shingeki no Bahamut: Genesis",
      "link": "https://animefire.plus/animes/shingeki-no-bahamut-genesis-todos-os-episodios",
      "texto_original": "Shingeki no Bahamut: Genesis",
      "rating": 7.74,
      "classificacao_etaria": "A16",
      "imagem_original": "https://animefire.plus/img/animes/shingeki-no-bahamut-genesis.webp",
      "imagem_pasta": "https://animefire.plus/img/animes/shingeki-no-bahamut-genesis/",
      "secao": "legendados",
      "pagina": 135,
      "total_episodios": 0,
      "link_video": "https://animefire.plus/video/shingeki-no-bahamut-genesis"
    },
    {
      "id": 3439,
      "nome": "Shingeki no Bahamut: Virgin Soul",
      "link": "https://animefire.plus/animes/shingeki-no-bahamut-virgin-soul-todos-os-episodios",
      "texto_original": "Shingeki no Bahamut: Virgin Soul",
      "rating": 7.53,
      "classificacao_etaria": "A16",
      "imagem_original": "https://animefire.plus/img/animes/shingeki-no-bahamut-virgin-soul.webp",
      "imagem_pasta": "https://animefire.plus/img/animes/shingeki-no-bahamut-virgin-soul/",
      "secao": "legendados",
      "pagina": 148,
      "total_episodios": 24,
      "link_video": "https://animefire.plus/video/shingeki-no-bahamut-virgin-soul"
    }
  ],
  "pagination": {
    "current_page": 168,
    "per_page": 20,
    "total_items": 4269,
    "total_pages": 214,
    "has_next": true,
    "has_prev": true
  }
}
