{
  "message": "Animes da seção: legendados",
  "section": "legendados",
  "data": [
    {
      "id": 1344,
      "nome": "Hametsu no Oukoku",
      "link": "https://animefire.plus/animes/hametsu-no-oukoku-todos-os-episodios",
      "texto_original": "Hametsu no Oukoku",
      "rating": 6.22,
      "classificacao_etaria": "A16",
      "imagem_original": "https://animefire.plus/img/animes/hametsu-no-oukoku.webp",
      "imagem_pasta": "https://animefire.plus/img/animes/hametsu-no-oukoku/",
      "secao": "legendados",
      "pagina": 21,
      "total_episodios": 12,
      "link_video": "https://animefire.plus/video/hametsu-no-oukoku"
    },
    {
      "id": 1345,
      "nome": "Hamidashi Creative",
      "link": "https://animefire.plus/animes/hamidashi-creative-todos-os-episodios",
      "texto_original": "Hamidashi Creative",
      "rating": null,
      "classificacao_etaria": "A14",
      "imagem_original": "https://animefire.plus/img/animes/hamidashi-creative.webp",
      "imagem_pasta": "https://animefire.plus/img/animes/hamidashi-creative/",
      "secao": "legendados,lancamentos",
      "pagina": 10,
      "total_episodios": 7,
      "link_video": "https://animefire.plus/video/hamidashi-creative"
    },
    {
      "id": 1346,
      "nome": "Hana wa Saku, Shura no Gotoku",
      "link": "https://animefire.plus/animes/hana-wa-saku-shura-no-gotoku-todos-os-episodios",
      "texto_original": "Hana wa Saku, Shura no Gotoku",
      "rating": 7.12,
      "classificacao_etaria": "A14",
      "imagem_original": "https://animefire.plus/img/animes/hana-wa-saku-shura-no-gotoku.webp",
      "imagem_pasta": "https://animefire.plus/img/animes/hana-wa-saku-shura-no-gotoku/",
      "secao": "legendados",
      "pagina": 7,
      "total_episodios": 12,
      "link_video": "https://animefire.plus/video/hana-wa-saku-shura-no-gotoku"
    },
    {
      "id": 1347,
      "nome": "Hana yori Dango",
      "link": "https://animefire.plus/animes/hana-yori-dango-todos-os-episodios",
      "texto_original": "Hana yori Dango",
      "rating": 7.75,
      "classificacao_etaria": "A14",
      "imagem_original": "https://animefire.plus/img/animes/hana-yori-dango.webp",
      "imagem_pasta": "https://animefire.plus/img/animes/hana-yori-dango/",
      "secao": "legendados",
      "pagina": 71,
      "total_episodios": 51,
      "link_video": "https://animefire.plus/video/hana-yori-dango"
    },
    {
      "id": 1348,
      "nome": "Hana-Doll*: Reinterpretation of Flowering",
      "link": "https://animefire.plus/animes/hana-doll-reinterpretation-of-flowering-todos-os-episodios",
      "texto_original": "Hana-Doll*: Reinterpretation of Flowering",
      "rating": null,
      "classificacao_etaria": "A14",
      "imagem_original": "https://animefire.plus/img/animes/hana-doll-reinterpretation-of-flowering.webp",
      "imagem_pasta": "https://animefire.plus/img/animes/hana-doll-reinterpretation-of-flowering/",
      "secao": "legendados,lancamentos",
      "pagina": 4,
      "total_episodios": 0,
      "link_video": "https://animefire.plus/video/hana-doll-reinterpretation-of-flowering"
    },
    {
      "id": 1349,
      "nome": "Hanabi-chan wa Okuregachi",
      "link": "https://animefire.plus/animes/hanabi-chan-wa-okuregachi-todos-os-episodios",
      "texto_original": "Hanabi-chan wa Okuregachi",
      "rating": 6.13,
      "classificacao_etaria": "A14",
      "imagem_original": "https://animefire.plus/img/animes/hanabi-chan-wa-okuregachi.webp",
      "imagem_pasta": "https://animefire.plus/img/animes/hanabi-chan-wa-okuregachi/",
      "secao": "legendados",
      "pagina": 31,
      "total_episodios": 12,
      "link_video": "https://animefire.plus/video/hanabi-chan-wa-okuregachi"
    },
    {
      "id": 1350,
      "nome": "Hanamaru Youchien",
      "link": "https://animefire.plus/animes/hanamaru-youchien-todos-os-episodios",
      "texto_original": "Hanamaru Youchien",
      "rating": 7.37,
      "classificacao_etaria": "A14",
      "imagem_original": "https://animefire.plus/img/animes/hanamaru-youchien.webp",
      "imagem_pasta": "https://animefire.plus/img/animes/hanamaru-youchien/",
      "secao": "legendados",
      "pagina": 96,
      "total_episodios": 2,
      "link_video": "https://animefire.plus/video/hanamaru-youchien"
    },
    {
      "id": 1351,
      "nome": "Hanamonogatari",
      "link": "https://animefire.plus/animes/hanamonogatari-todos-os-episodios",
      "texto_original": "Hanamonogatari",
      "rating": 8.05,
      "classificacao_etaria": "A16",
      "imagem_original": "https://animefire.plus/img/animes/hanamonogatari.webp",
      "imagem_pasta": "https://animefire.plus/img/animes/hanamonogatari/",
      "secao": "legendados",
      "pagina": 175,
      "total_episodios": 5,
      "link_video": "https://animefire.plus/video/hanamonogatari"
    },
    {
      "id": 1352,
      "nome": "Hananoi-kun to Koi no Yamai (Dublado)",
      "link": "https://animefire.plus/animes/hananoi-kun-to-koi-no-yamai-dublado-todos-os-episodios",
      "texto_original": "Hananoi-kun to Koi no Yamai (Dublado)",
      "rating": 6.75,
      "classificacao_etaria": "A14",
      "imagem_original": "https://animefire.plus/img/animes/hananoi-kun-to-koi-no-yamai.webp",
      "imagem_pasta": "https://animefire.plus/img/animes/hananoi-kun-to-koi-no-yamai/",
      "secao": "dublados,legendados,lancamentos",
      "pagina": 2,
      "total_episodios": 12,
      "link_video": "https://animefire.plus/video/hananoi-kun-to-koi-no-yamai-dublado"
    },
    {
      "id": 1353,
      "nome": "Hanasaku Iroha",
      "link": "https://animefire.plus/animes/hanasaku-iroha-todos-os-episodios",
      "texto_original": "Hanasaku Iroha",
      "rating": 8,
      "classificacao_etaria": "A14",
      "imagem_original": "https://animefire.plus/img/animes/hanasaku-iroha.webp",
      "imagem_pasta": "https://animefire.plus/img/animes/hanasaku-iroha/",
      "secao": "legendados",
      "pagina": 105,
      "total_episodios": 26,
      "link_video": "https://animefire.plus/video/hanasaku-iroha"
    },
    {
      "id": 1354,
      "nome": "Hanaukyou Maid-tai",
      "link": "https://animefire.plus/animes/hanaukyou-maid-tai-todos-os-episodios",
      "texto_original": "Hanaukyou Maid-tai",
      "rating": 6.65,
      "classificacao_etaria": "A18",
      "imagem_original": "https://animefire.plus/img/animes/hanaukyou-maid-tai.webp",
      "imagem_pasta": "https://animefire.plus/img/animes/hanaukyou-maid-tai/",
      "secao": "legendados",
      "pagina": 70,
      "total_episodios": 12,
      "link_video": "https://animefire.plus/video/hanaukyou-maid-tai"
    },
    {
      "id": 1355,
      "nome": "Hanaukyou Maid-tai: La Verite",
      "link": "https://animefire.plus/animes/hanaukyou-maid-tai-la-verite-todos-os-episodios",
      "texto_original": "Hanaukyou Maid-tai: La Verite",
      "rating": 6.83,
      "classificacao_etaria": "A18",
      "imagem_original": "https://animefire.plus/img/animes/hanaukyou-maid-tai-la-verite.webp",
      "imagem_pasta": "https://animefire.plus/img/animes/hanaukyou-maid-tai-la-verite/",
      "secao": "legendados",
      "pagina": 70,
      "total_episodios": 12,
      "link_video": "https://animefire.plus/video/hanaukyou-maid-tai-la-verite"
    },
    {
      "id": 1356,
      "nome": "Hanayamata",
      "link": "https://animefire.plus/animes/hanayamata-todos-os-episodios",
      "texto_original": "Hanayamata",
      "rating": 7.37,
      "classificacao_etaria": "A14",
      "imagem_original": "https://animefire.plus/img/animes/hanayamata.webp",
      "imagem_pasta": "https://animefire.plus/img/animes/hanayamata/",
      "secao": "legendados",
      "pagina": 91,
      "total_episodios": 12,
      "link_video": "https://animefire.plus/video/hanayamata"
    },
    {
      "id": 1357,
      "nome": "Hanbun no Tsuki ga Noboru Sora",
      "link": "https://animefire.plus/animes/hanbun-no-tsuki-ga-noboru-sora-todos-os-episodios",
      "texto_original": "Hanbun no Tsuki ga Noboru Sora",
      "rating": 7.59,
      "classificacao_etaria": "A14",
      "imagem_original": "https://animefire.plus/img/animes/hanbun-no-tsuki-ga-noboru-sora.webp",
      "imagem_pasta": "https://animefire.plus/img/animes/hanbun-no-tsuki-ga-noboru-sora/",
      "secao": "legendados",
      "pagina": 146,
      "total_episodios": 6,
      "link_video": "https://animefire.plus/video/hanbun-no-tsuki-ga-noboru-sora"
    },
    {
      "id": 1358,
      "nome": "Hand Maid May",
      "link": "https://animefire.plus/animes/hand-maid-may-todos-os-episodios",
      "texto_original": "Hand Maid May",
      "rating": 6.8,
      "classificacao_etaria": "A14",
      "imagem_original": "https://animefire.plus/img/animes/hand-maid-may.webp",
      "imagem_pasta": "https://animefire.plus/img/animes/hand-maid-may/",
      "secao": "legendados",
      "pagina": 108,
      "total_episodios": 0,
      "link_video": "https://animefire.plus/video/hand-maid-may"
    },
    {
      "id": 1359,
      "nome": "Hand Shakers",
      "link": "https://animefire.plus/animes/hand-shakers-todos-os-episodios",
      "texto_original": "Hand Shakers",
      "rating": 5.46,
      "classificacao_etaria": "A14",
      "imagem_original": "https://animefire.plus/img/animes/hand-shakers.webp",
      "imagem_pasta": "https://animefire.plus/img/animes/hand-shakers/",
      "secao": "legendados",
      "pagina": 74,
      "total_episodios": 12,
      "link_video": "https://animefire.plus/video/hand-shakers"
    },
    {
      "id": 1360,
      "nome": "Hand Shakers: Go ago Go",
      "link": "https://animefire.plus/animes/hand-shakers-go-ago-go-todos-os-episodios",
      "texto_original": "Hand Shakers: Go ago Go",
      "rating": 5.72,
      "classificacao_etaria": "A14",
      "imagem_original": "https://animefire.plus/img/animes/hand-shakers-go-ago-go.webp",
      "imagem_pasta": "https://animefire.plus/img/animes/hand-shakers-go-ago-go/",
      "secao": "legendados",
      "pagina": 89,
      "total_episodios": 1,
      "link_video": "https://animefire.plus/video/hand-shakers-go-ago-go"
    },
    {
      "id": 1361,
      "nome": "Handa-kun",
      "link": "https://animefire.plus/animes/handa-kun-todos-os-episodios",
      "texto_original": "Handa-kun",
      "rating": 7.46,
      "classificacao_etaria": "A14",
      "imagem_original": "https://animefire.plus/img/animes/handa-kun.webp",
      "imagem_pasta": "https://animefire.plus/img/animes/handa-kun/",
      "secao": "legendados",
      "pagina": 174,
      "total_episodios": 12,
      "link_video": "https://animefire.plus/video/handa-kun"
    },
    {
      "id": 1362,
      "nome": "Handsome Girl",
      "link": "https://animefire.plus/animes/handsome-girl-todos-os-episodios",
      "texto_original": "Handsome Girl",
      "rating": 5.79,
      "classificacao_etaria": "A14",
      "imagem_original": "https://animefire.plus/img/animes/handsome-girl.webp",
      "imagem_pasta": "https://animefire.plus/img/animes/handsome-girl/",
      "secao": "legendados",
      "pagina": 70,
      "total_episodios": 1,
      "link_video": "https://animefire.plus/video/handsome-girl"
    },
    {
      "id": 1363,
      "nome": "Hanebado!",
      "link": "https://animefire.plus/animes/hanebado-todos-os-episodios",
      "texto_original": "Hanebado!",
      "rating": 7.08,
      "classificacao_etaria": "A14",
      "imagem_original": "https://animefire.plus/img/animes/hanebado.webp",
      "imagem_pasta": "https://animefire.plus/img/animes/hanebado/",
      "secao": "legendados",
      "pagina": 146,
      "total_episodios": 13,
      "link_video": "https://animefire.plus/video/hanebado"
    }
  ],
  "pagination": {
    "current_page": 66,
    "per_page": 20,
    "total_items": 4269,
    "total_pages": 214,
    "has_next": true,
    "has_prev": true
  }
}
