{
  "message": "Animes da seção: legendados",
  "section": "legendados",
  "data": [
    {
      "id": 954,
      "nome": "Escha & Logy no Atelier: Tasogare no Sora no Renkinjutsushi",
      "link": "https://animefire.plus/animes/escha-logy-no-atelier-tasogare-no-sora-no-renkinjutsushi-todos-os-episodios",
      "texto_original": "Escha & Logy no Atelier: Tasogare no Sora no Renkinjutsushi",
      "rating": 6.5,
      "classificacao_etaria": "A14",
      "imagem_original": "https://animefire.plus/img/animes/escha-logy-no-atelier-tasogare-no-sora-no-renkinjutsushi.webp",
      "imagem_pasta": "https://animefire.plus/img/animes/escha-logy-no-atelier-tasogare-no-sora-no-renkinjutsushi/",
      "secao": "legendados",
      "pagina": 171,
      "total_episodios": 12,
      "link_video": "https://animefire.plus/video/escha-logy-no-atelier-tasogare-no-sora-no-renkinjutsushi"
    },
    {
      "id": 955,
      "nome": "Escha Chron",
      "link": "https://animefire.plus/animes/escha-chron-todos-os-episodios",
      "texto_original": "Escha Chron",
      "rating": 6.54,
      "classificacao_etaria": "A14",
      "imagem_original": "https://animefire.plus/img/animes/escha-chron.webp",
      "imagem_pasta": "https://animefire.plus/img/animes/escha-chron/",
      "secao": "legendados",
      "pagina": 65,
      "total_episodios": 2,
      "link_video": "https://animefire.plus/video/escha-chron"
    },
    {
      "id": 956,
      "nome": "Estab-Life: Great Escape",
      "link": "https://animefire.plus/animes/estab-life-great-escape-todos-os-episodios",
      "texto_original": "Estab-Life: Great Escape",
      "rating": 6.47,
      "classificacao_etaria": "A14",
      "imagem_original": "https://animefire.plus/img/animes/estab-life-great-escape.webp",
      "imagem_pasta": "https://animefire.plus/img/animes/estab-life-great-escape/",
      "secao": "legendados",
      "pagina": 34,
      "total_episodios": 12,
      "link_video": "https://animefire.plus/video/estab-life-great-escape"
    },
    {
      "id": 957,
      "nome": "Eternal Boys",
      "link": "https://animefire.plus/animes/eternal-boys-todos-os-episodios",
      "texto_original": "Eternal Boys",
      "rating": 6.53,
      "classificacao_etaria": "A14",
      "imagem_original": "https://animefire.plus/img/animes/eternal-boys.webp",
      "imagem_pasta": "https://animefire.plus/img/animes/eternal-boys/",
      "secao": "legendados,lancamentos",
      "pagina": 28,
      "total_episodios": 6,
      "link_video": "https://animefire.plus/video/eternal-boys"
    },
    {
      "id": 958,
      "nome": "Etotama",
      "link": "https://animefire.plus/animes/etotama-todos-os-episodios",
      "texto_original": "Etotama",
      "rating": 6.95,
      "classificacao_etaria": "A14",
      "imagem_original": "https://animefire.plus/img/animes/etotama.webp",
      "imagem_pasta": "https://animefire.plus/img/animes/etotama/",
      "secao": "legendados",
      "pagina": 106,
      "total_episodios": 12,
      "link_video": "https://animefire.plus/video/etotama"
    },
    {
      "id": 959,
      "nome": "Eureka Seven AO",
      "link": "https://animefire.plus/animes/eureka-seven-ao-todos-os-episodios",
      "texto_original": "Eureka Seven AO",
      "rating": 6.78,
      "classificacao_etaria": "A14",
      "imagem_original": "https://animefire.plus/img/animes/eureka-seven-ao.webp",
      "imagem_pasta": "https://animefire.plus/img/animes/eureka-seven-ao/",
      "secao": "legendados",
      "pagina": 135,
      "total_episodios": 24,
      "link_video": "https://animefire.plus/video/eureka-seven-ao"
    },
    {
      "id": 960,
      "nome": "Eve no Jikan",
      "link": "https://animefire.plus/animes/eve-no-jikan-todos-os-episodios",
      "texto_original": "Eve no Jikan",
      "rating": 8.1,
      "classificacao_etaria": "A14",
      "imagem_original": "https://animefire.plus/img/animes/eve-no-jikan.webp",
      "imagem_pasta": "https://animefire.plus/img/animes/eve-no-jikan/",
      "secao": "legendados",
      "pagina": 53,
      "total_episodios": 6,
      "link_video": "https://animefire.plus/video/eve-no-jikan"
    },
    {
      "id": 961,
      "nome": "Everyday Host",
      "link": "https://animefire.plus/animes/everyday-host-todos-os-episodios",
      "texto_original": "Everyday Host",
      "rating": null,
      "classificacao_etaria": "A14",
      "imagem_original": "https://animefire.plus/img/animes/everyday-host.webp",
      "imagem_pasta": "https://animefire.plus/img/animes/everyday-host/",
      "secao": "legendados,lancamentos",
      "pagina": 4,
      "total_episodios": 0,
      "link_video": "https://animefire.plus/video/everyday-host"
    },
    {
      "id": 962,
      "nome": "Evil or Live",
      "link": "https://animefire.plus/animes/evil-or-live-todos-os-episodios",
      "texto_original": "Evil or Live",
      "rating": 5.97,
      "classificacao_etaria": "A16",
      "imagem_original": "https://animefire.plus/img/animes/evil-or-live.webp",
      "imagem_pasta": "https://animefire.plus/img/animes/evil-or-live/",
      "secao": "legendados",
      "pagina": 107,
      "total_episodios": 12,
      "link_video": "https://animefire.plus/video/evil-or-live"
    },
    {
      "id": 963,
      "nome": "Ex-Arm",
      "link": "https://animefire.plus/animes/ex-arm-todos-os-episodios",
      "texto_original": "Ex-Arm",
      "rating": 2.89,
      "classificacao_etaria": "A14",
      "imagem_original": "https://animefire.plus/img/animes/ex-arm.webp",
      "imagem_pasta": "https://animefire.plus/img/animes/ex-arm/",
      "secao": "legendados",
      "pagina": 49,
      "total_episodios": 12,
      "link_video": "https://animefire.plus/video/ex-arm"
    },
    {
      "id": 964,
      "nome": "Extreme Hearts",
      "link": "https://animefire.plus/animes/extreme-hearts-todos-os-episodios",
      "texto_original": "Extreme Hearts",
      "rating": 6.54,
      "classificacao_etaria": "A14",
      "imagem_original": "https://animefire.plus/img/animes/extreme-hearts.webp",
      "imagem_pasta": "https://animefire.plus/img/animes/extreme-hearts/",
      "secao": "legendados",
      "pagina": 31,
      "total_episodios": 12,
      "link_video": "https://animefire.plus/video/extreme-hearts"
    },
    {
      "id": 965,
      "nome": "Eyeshield 21 (Dublado)",
      "link": "https://animefire.plus/animes/eyeshield-21-dublado-todos-os-episodios",
      "texto_original": "Eyeshield 21 (Dublado)",
      "rating": 7.92,
      "classificacao_etaria": "A14",
      "imagem_original": "https://animefire.plus/img/animes/eyeshield-21.webp",
      "imagem_pasta": "https://animefire.plus/img/animes/eyeshield-21/",
      "secao": "dublados,legendados",
      "pagina": 4,
      "total_episodios": 142,
      "link_video": "https://animefire.plus/video/eyeshield-21-dublado"
    },
    {
      "id": 966,
      "nome": "Fairy Gone",
      "link": "https://animefire.plus/animes/fairy-gone-todos-os-episodios",
      "texto_original": "Fairy Gone",
      "rating": 5.81,
      "classificacao_etaria": "A14",
      "imagem_original": "https://animefire.plus/img/animes/fairy-gone.webp",
      "imagem_pasta": "https://animefire.plus/img/animes/fairy-gone/",
      "secao": "legendados",
      "pagina": 136,
      "total_episodios": 0,
      "link_video": "https://animefire.plus/video/fairy-gone"
    },
    {
      "id": 967,
      "nome": "Fairy Gone 2nd Season",
      "link": "https://animefire.plus/animes/fairy-gone-2nd-season-todos-os-episodios",
      "texto_original": "Fairy Gone 2nd Season",
      "rating": 6.39,
      "classificacao_etaria": "A14",
      "imagem_original": "https://animefire.plus/img/animes/fairy-gone-2nd-season.webp",
      "imagem_pasta": "https://animefire.plus/img/animes/fairy-gone-2nd-season/",
      "secao": "legendados",
      "pagina": 110,
      "total_episodios": 12,
      "link_video": "https://animefire.plus/video/fairy-gone-2nd-season"
    },
    {
      "id": 968,
      "nome": "Fairy Ranmaru: Anata no Kokoro Otasuke Shimasu",
      "link": "https://animefire.plus/animes/fairy-ranmaru-anata-no-kokoro-otasuke-shimasu-todos-os-episodios",
      "texto_original": "Fairy Ranmaru: Anata no Kokoro Otasuke Shimasu",
      "rating": 5.9,
      "classificacao_etaria": "A14",
      "imagem_original": "https://animefire.plus/img/animes/fairy-ranmaru-anata-no-kokoro-otasuke-shimasu.webp",
      "imagem_pasta": "https://animefire.plus/img/animes/fairy-ranmaru-anata-no-kokoro-otasuke-shimasu/",
      "secao": "legendados",
      "pagina": 46,
      "total_episodios": 12,
      "link_video": "https://animefire.plus/video/fairy-ranmaru-anata-no-kokoro-otasuke-shimasu"
    },
    {
      "id": 969,
      "nome": "Fairy Tail (Dublado)",
      "link": "https://animefire.plus/animes/fairy-tail-dublado-todos-os-episodios",
      "texto_original": "Fairy Tail (Dublado)",
      "rating": 7.64,
      "classificacao_etaria": "A14",
      "imagem_original": "https://animefire.plus/img/animes/fairy-tail.webp",
      "imagem_pasta": "https://animefire.plus/img/animes/fairy-tail/",
      "secao": "dublados,legendados,lancamentos",
      "pagina": 18,
      "total_episodios": 5,
      "link_video": "https://animefire.plus/video/fairy-tail-dublado"
    },
    {
      "id": 970,
      "nome": "Fairy Tail OVA",
      "link": "https://animefire.plus/animes/fairy-tail-ova-todos-os-episodios",
      "texto_original": "Fairy Tail OVA",
      "rating": 7.59,
      "classificacao_etaria": "A14",
      "imagem_original": "https://animefire.plus/img/animes/fairy-tail-ova.webp",
      "imagem_pasta": "https://animefire.plus/img/animes/fairy-tail-ova/",
      "secao": "legendados",
      "pagina": 62,
      "total_episodios": 6,
      "link_video": "https://animefire.plus/video/fairy-tail-ova"
    },
    {
      "id": 971,
      "nome": "Fairy Tail OVA (2016)",
      "link": "https://animefire.plus/animes/fairy-tail-ova-2016-todos-os-episodios",
      "texto_original": "Fairy Tail OVA (2016)",
      "rating": 7.31,
      "classificacao_etaria": "A14",
      "imagem_original": "https://animefire.plus/img/animes/fairy-tail-ova-2016.webp",
      "imagem_pasta": "https://animefire.plus/img/animes/fairy-tail-ova-2016/",
      "secao": "legendados",
      "pagina": 64,
      "total_episodios": 3,
      "link_video": "https://animefire.plus/video/fairy-tail-ova-2016"
    },
    {
      "id": 972,
      "nome": "Fairy Tail: 100 Years Quest",
      "link": "https://animefire.plus/animes/fairy-tail-100-years-quest-todos-os-episodios",
      "texto_original": "Fairy Tail: 100 Years Quest",
      "rating": 7.61,
      "classificacao_etaria": "A14",
      "imagem_original": "https://animefire.plus/img/animes/fairy-tail-100-years-quest.webp",
      "imagem_pasta": "https://animefire.plus/img/animes/fairy-tail-100-years-quest/",
      "secao": "legendados,lancamentos",
      "pagina": 13,
      "total_episodios": 0,
      "link_video": "https://animefire.plus/video/fairy-tail-100-years-quest"
    },
    {
      "id": 973,
      "nome": "Fairy Tail: 100-nen Quest",
      "link": "https://animefire.plus/animes/fairy-tail-100-nen-quest-todos-os-episodios",
      "texto_original": "Fairy Tail: 100-nen Quest",
      "rating": 7.61,
      "classificacao_etaria": "A14",
      "imagem_original": "https://animefire.plus/img/animes/fairy-tail-100-nen-quest.webp",
      "imagem_pasta": "https://animefire.plus/img/animes/fairy-tail-100-nen-quest/",
      "secao": "legendados,lancamentos",
      "pagina": 11,
      "total_episodios": 14,
      "link_video": "https://animefire.plus/video/fairy-tail-100-nen-quest"
    }
  ],
  "pagination": {
    "current_page": 47,
    "per_page": 20,
    "total_items": 4269,
    "total_pages": 214,
    "has_next": true,
    "has_prev": true
  }
}
