{
  "message": "Animes da seção: legendados",
  "section": "legendados",
  "data": [
    {
      "id": 372,
      "nome": "Ben-To",
      "link": "https://animefire.plus/animes/ben-to-todos-os-episodios",
      "texto_original": "Ben-To",
      "rating": 7.38,
      "classificacao_etaria": "A14",
      "imagem_original": "https://animefire.plus/img/animes/ben-to.webp",
      "imagem_pasta": "https://animefire.plus/img/animes/ben-to/",
      "secao": "legendados",
      "pagina": 165,
      "total_episodios": 0,
      "link_video": "https://animefire.plus/video/ben-to"
    },
    {
      "id": 373,
      "nome": "Benriya Saitou-san, Isekai ni Iku",
      "link": "https://animefire.plus/animes/benriya-saitou-san-isekai-ni-iku-todos-os-episodios",
      "texto_original": "Benriya Saitou-san, Isekai ni Iku",
      "rating": 7.38,
      "classificacao_etaria": "A16",
      "imagem_original": "https://animefire.plus/img/animes/benriya-saitou-san-isekai-ni-iku.webp",
      "imagem_pasta": "https://animefire.plus/img/animes/benriya-saitou-san-isekai-ni-iku/",
      "secao": "legendados",
      "pagina": 26,
      "total_episodios": 12,
      "link_video": "https://animefire.plus/video/benriya-saitou-san-isekai-ni-iku"
    },
    {
      "id": 374,
      "nome": "Bermuda Triangle: Colorful Pastrale",
      "link": "https://animefire.plus/animes/bermuda-triangle-colorful-pastrale-todos-os-episodios",
      "texto_original": "Bermuda Triangle: Colorful Pastrale",
      "rating": 5.46,
      "classificacao_etaria": "A14",
      "imagem_original": "https://animefire.plus/img/animes/bermuda-triangle-colorful-pastrale.webp",
      "imagem_pasta": "https://animefire.plus/img/animes/bermuda-triangle-colorful-pastrale/",
      "secao": "legendados",
      "pagina": 99,
      "total_episodios": 12,
      "link_video": "https://animefire.plus/video/bermuda-triangle-colorful-pastrale"
    },
    {
      "id": 375,
      "nome": "Bernard-jou Iwaku.",
      "link": "https://animefire.plus/animes/bernard-jou-iwaku-todos-os-episodios",
      "texto_original": "Bernard-jou Iwaku.",
      "rating": 6.01,
      "classificacao_etaria": "A14",
      "imagem_original": "https://animefire.plus/img/animes/bernard-jou-iwaku.webp",
      "imagem_pasta": "https://animefire.plus/img/animes/bernard-jou-iwaku/",
      "secao": "legendados",
      "pagina": 179,
      "total_episodios": 3,
      "link_video": "https://animefire.plus/video/bernard-jou-iwaku"
    },
    {
      "id": 376,
      "nome": "Berserk",
      "link": "https://animefire.plus/animes/berserk-todos-os-episodios",
      "texto_original": "Berserk",
      "rating": 6.51,
      "classificacao_etaria": "A18",
      "imagem_original": "https://animefire.plus/img/animes/berserk.webp",
      "imagem_pasta": "https://animefire.plus/img/animes/berserk/",
      "secao": "legendados",
      "pagina": 66,
      "total_episodios": 12,
      "link_video": "https://animefire.plus/video/berserk"
    },
    {
      "id": 377,
      "nome": "Berserk 2nd Season",
      "link": "https://animefire.plus/animes/berserk-2nd-season-todos-os-episodios",
      "texto_original": "Berserk 2nd Season",
      "rating": 6.98,
      "classificacao_etaria": "A16",
      "imagem_original": "https://animefire.plus/img/animes/berserk-2nd-season.webp",
      "imagem_pasta": "https://animefire.plus/img/animes/berserk-2nd-season/",
      "secao": "legendados",
      "pagina": 171,
      "total_episodios": 13,
      "link_video": "https://animefire.plus/video/berserk-2nd-season"
    },
    {
      "id": 378,
      "nome": "Berserk: Ougon Jidai-hen - Memorial Edition (Dublado)",
      "link": "https://animefire.plus/animes/berserk-ougon-jidai-hen---memorial-edition-dublado-todos-os-episodios",
      "texto_original": "Berserk: Ougon Jidai-hen - Memorial Edition (Dublado)",
      "rating": 7.9,
      "classificacao_etaria": "A18",
      "imagem_original": "https://animefire.plus/img/animes/berserk-ougon-jidai-hen---memorial-edition.webp",
      "imagem_pasta": "https://animefire.plus/img/animes/berserk-ougon-jidai-hen---memorial-edition/",
      "secao": "dublados,legendados",
      "pagina": 9,
      "total_episodios": 13,
      "link_video": "https://animefire.plus/video/berserk-ougon-jidai-hen---memorial-edition-dublado"
    },
    {
      "id": 379,
      "nome": "Beyblade Burst",
      "link": "https://animefire.plus/animes/beyblade-burst-todos-os-episodios",
      "texto_original": "Beyblade Burst",
      "rating": 6.58,
      "classificacao_etaria": "A10",
      "imagem_original": "https://animefire.plus/img/animes/beyblade-burst.webp",
      "imagem_pasta": "https://animefire.plus/img/animes/beyblade-burst/",
      "secao": "legendados",
      "pagina": 173,
      "total_episodios": 2,
      "link_video": "https://animefire.plus/video/beyblade-burst"
    },
    {
      "id": 380,
      "nome": "Beyblade Burst Dynamite Battle",
      "link": "https://animefire.plus/animes/beyblade-burst-dynamite-battle-todos-os-episodios",
      "texto_original": "Beyblade Burst Dynamite Battle",
      "rating": 6.23,
      "classificacao_etaria": null,
      "imagem_original": "https://animefire.plus/img/animes/beyblade-burst-dynamite-battle.webp",
      "imagem_pasta": "https://animefire.plus/img/animes/beyblade-burst-dynamite-battle/",
      "secao": "legendados,lancamentos",
      "pagina": 45,
      "total_episodios": 1,
      "link_video": "https://animefire.plus/video/beyblade-burst-dynamite-battle"
    },
    {
      "id": 381,
      "nome": "Beyblade Burst Sparking",
      "link": "https://animefire.plus/animes/beyblade-burst-sparking-todos-os-episodios",
      "texto_original": "Beyblade Burst Sparking",
      "rating": 6.29,
      "classificacao_etaria": "A10",
      "imagem_original": "https://animefire.plus/img/animes/beyblade-burst-sparking.webp",
      "imagem_pasta": "https://animefire.plus/img/animes/beyblade-burst-sparking/",
      "secao": "legendados",
      "pagina": 50,
      "total_episodios": 1,
      "link_video": "https://animefire.plus/video/beyblade-burst-sparking"
    },
    {
      "id": 382,
      "nome": "Biao Ren: Blades of the Guardians",
      "link": "https://animefire.plus/animes/biao-ren-blades-of-the-guardians-todos-os-episodios",
      "texto_original": "Biao Ren: Blades of the Guardians",
      "rating": 7.56,
      "classificacao_etaria": "A16",
      "imagem_original": "https://animefire.plus/img/animes/biao-ren-blades-of-the-guardians.webp",
      "imagem_pasta": "https://animefire.plus/img/animes/biao-ren-blades-of-the-guardians/",
      "secao": "legendados",
      "pagina": 18,
      "total_episodios": 15,
      "link_video": "https://animefire.plus/video/biao-ren-blades-of-the-guardians"
    },
    {
      "id": 383,
      "nome": "Big Order",
      "link": "https://animefire.plus/animes/big-order-todos-os-episodios",
      "texto_original": "Big Order",
      "rating": 5.85,
      "classificacao_etaria": "A18",
      "imagem_original": "https://animefire.plus/img/animes/big-order.webp",
      "imagem_pasta": "https://animefire.plus/img/animes/big-order/",
      "secao": "legendados",
      "pagina": 62,
      "total_episodios": 10,
      "link_video": "https://animefire.plus/video/big-order"
    },
    {
      "id": 384,
      "nome": "Big Order (TV)",
      "link": "https://animefire.plus/animes/big-order-tv-todos-os-episodios",
      "texto_original": "Big Order (TV)",
      "rating": 5.45,
      "classificacao_etaria": "A18",
      "imagem_original": "https://animefire.plus/img/animes/big-order-tv.webp",
      "imagem_pasta": "https://animefire.plus/img/animes/big-order-tv/",
      "secao": "legendados",
      "pagina": 79,
      "total_episodios": 10,
      "link_video": "https://animefire.plus/video/big-order-tv"
    },
    {
      "id": 385,
      "nome": "Bihada Ichizoku",
      "link": "https://animefire.plus/animes/bihada-ichizoku-todos-os-episodios",
      "texto_original": "Bihada Ichizoku",
      "rating": 5.8,
      "classificacao_etaria": "A14",
      "imagem_original": "https://animefire.plus/img/animes/bihada-ichizoku.webp",
      "imagem_pasta": "https://animefire.plus/img/animes/bihada-ichizoku/",
      "secao": "legendados",
      "pagina": 139,
      "total_episodios": 12,
      "link_video": "https://animefire.plus/video/bihada-ichizoku"
    },
    {
      "id": 386,
      "nome": "Bikini Warriors",
      "link": "https://animefire.plus/animes/bikini-warriors-todos-os-episodios",
      "texto_original": "Bikini Warriors",
      "rating": 5.28,
      "classificacao_etaria": "A18",
      "imagem_original": "https://animefire.plus/img/animes/bikini-warriors.webp",
      "imagem_pasta": "https://animefire.plus/img/animes/bikini-warriors/",
      "secao": "legendados",
      "pagina": 103,
      "total_episodios": 0,
      "link_video": "https://animefire.plus/video/bikini-warriors"
    },
    {
      "id": 387,
      "nome": "Binan Koukou Chikyuu Bouei-bu Haikara!",
      "link": "https://animefire.plus/animes/binan-koukou-chikyuu-bouei-bu-haikara-todos-os-episodios",
      "texto_original": "Binan Koukou Chikyuu Bouei-bu Haikara!",
      "rating": null,
      "classificacao_etaria": "A14",
      "imagem_original": "https://animefire.plus/img/animes/binan-koukou-chikyuu-bouei-bu-haikara.webp",
      "imagem_pasta": "https://animefire.plus/img/animes/binan-koukou-chikyuu-bouei-bu-haikara/",
      "secao": "legendados,lancamentos",
      "pagina": 1,
      "total_episodios": 0,
      "link_video": "https://animefire.plus/video/binan-koukou-chikyuu-bouei-bu-haikara"
    },
    {
      "id": 388,
      "nome": "Binan Koukou Chikyuu Boueibu Happy Kiss!",
      "link": "https://animefire.plus/animes/binan-koukou-chikyuu-boueibu-happy-kiss-todos-os-episodios",
      "texto_original": "Binan Koukou Chikyuu Boueibu Happy Kiss!",
      "rating": 6.58,
      "classificacao_etaria": "A14",
      "imagem_original": "https://animefire.plus/img/animes/binan-koukou-chikyuu-boueibu-happy-kiss.webp",
      "imagem_pasta": "https://animefire.plus/img/animes/binan-koukou-chikyuu-boueibu-happy-kiss/",
      "secao": "legendados",
      "pagina": 160,
      "total_episodios": 11,
      "link_video": "https://animefire.plus/video/binan-koukou-chikyuu-boueibu-happy-kiss"
    },
    {
      "id": 389,
      "nome": "Binan Koukou Chikyuu Boueibu LOVE!",
      "link": "https://animefire.plus/animes/binan-koukou-chikyuu-boueibu-love-todos-os-episodios",
      "texto_original": "Binan Koukou Chikyuu Boueibu LOVE!",
      "rating": 7,
      "classificacao_etaria": "A14",
      "imagem_original": "https://animefire.plus/img/animes/binan-koukou-chikyuu-boueibu-love.webp",
      "imagem_pasta": "https://animefire.plus/img/animes/binan-koukou-chikyuu-boueibu-love/",
      "secao": "legendados",
      "pagina": 143,
      "total_episodios": 8,
      "link_video": "https://animefire.plus/video/binan-koukou-chikyuu-boueibu-love"
    },
    {
      "id": 390,
      "nome": "Binbou Shimai Monogatari",
      "link": "https://animefire.plus/animes/binbou-shimai-monogatari-todos-os-episodios",
      "texto_original": "Binbou Shimai Monogatari",
      "rating": 6.92,
      "classificacao_etaria": null,
      "imagem_original": "https://animefire.plus/img/animes/binbou-shimai-monogatari.webp",
      "imagem_pasta": "https://animefire.plus/img/animes/binbou-shimai-monogatari/",
      "secao": "legendados",
      "pagina": 117,
      "total_episodios": 10,
      "link_video": "https://animefire.plus/video/binbou-shimai-monogatari"
    },
    {
      "id": 391,
      "nome": "Binbougami ga!",
      "link": "https://animefire.plus/animes/binbougami-ga-todos-os-episodios",
      "texto_original": "Binbougami ga!",
      "rating": 7.8,
      "classificacao_etaria": "A14",
      "imagem_original": "https://animefire.plus/img/animes/binbougami-ga.webp",
      "imagem_pasta": "https://animefire.plus/img/animes/binbougami-ga/",
      "secao": "legendados",
      "pagina": 119,
      "total_episodios": 12,
      "link_video": "https://animefire.plus/video/binbougami-ga"
    }
  ],
  "pagination": {
    "current_page": 19,
    "per_page": 20,
    "total_items": 4269,
    "total_pages": 214,
    "has_next": true,
    "has_prev": true
  }
}
