{
  "message": "Animes da seção: legendados",
  "section": "legendados",
  "data": [
    {
      "id": 2037,
      "nome": "Kobato.",
      "link": "https://animefire.plus/animes/kobato-todos-os-episodios",
      "texto_original": "Kobato.",
      "rating": 8.04,
      "classificacao_etaria": "A14",
      "imagem_original": "https://animefire.plus/img/animes/kobato.webp",
      "imagem_pasta": "https://animefire.plus/img/animes/kobato/",
      "secao": "legendados",
      "pagina": 123,
      "total_episodios": 23,
      "link_video": "https://animefire.plus/video/kobato"
    },
    {
      "id": 2038,
      "nome": "Kobayashi-san Chi no Maid Dragon (Dublado)",
      "link": "https://animefire.plus/animes/kobayashi-san-chi-no-maid-dragon-dublado-todos-os-episodios",
      "texto_original": "Kobayashi-san Chi no Maid Dragon (Dublado)",
      "rating": 8.14,
      "classificacao_etaria": "A14",
      "imagem_original": "https://animefire.plus/img/animes/kobayashi-san-chi-no-maid-dragon.webp",
      "imagem_pasta": "https://animefire.plus/img/animes/kobayashi-san-chi-no-maid-dragon/",
      "secao": "dublados,legendados",
      "pagina": 26,
      "total_episodios": 0,
      "link_video": "https://animefire.plus/video/kobayashi-san-chi-no-maid-dragon-dublado"
    },
    {
      "id": 2039,
      "nome": "Kobayashi-san Chi no Maid Dragon S (Dublado)",
      "link": "https://animefire.plus/animes/kobayashi-san-chi-no-maid-dragon-s-dublado-todos-os-episodios",
      "texto_original": "Kobayashi-san Chi no Maid Dragon S (Dublado)",
      "rating": 8.22,
      "classificacao_etaria": "A14",
      "imagem_original": "https://animefire.plus/img/animes/kobayashi-san-chi-no-maid-dragon-s.webp",
      "imagem_pasta": "https://animefire.plus/img/animes/kobayashi-san-chi-no-maid-dragon-s/",
      "secao": "dublados,legendados",
      "pagina": 16,
      "total_episodios": 12,
      "link_video": "https://animefire.plus/video/kobayashi-san-chi-no-maid-dragon-s-dublado"
    },
    {
      "id": 2041,
      "nome": "Kobayashi-san Chi no OO Dragon",
      "link": "https://animefire.plus/animes/kobayashi-san-chi-no-oo-dragon-todos-os-episodios",
      "texto_original": "Kobayashi-san Chi no OO Dragon",
      "rating": 7.26,
      "classificacao_etaria": "A14",
      "imagem_original": "https://animefire.plus/img/animes/kobayashi-san-chi-no-oo-dragon.webp",
      "imagem_pasta": "https://animefire.plus/img/animes/kobayashi-san-chi-no-oo-dragon/",
      "secao": "legendados",
      "pagina": 54,
      "total_episodios": 1,
      "link_video": "https://animefire.plus/video/kobayashi-san-chi-no-oo-dragon"
    },
    {
      "id": 2042,
      "nome": "Kochouki: Wakaki Nobunaga",
      "link": "https://animefire.plus/animes/kochouki-wakaki-nobunaga-todos-os-episodios",
      "texto_original": "Kochouki: Wakaki Nobunaga",
      "rating": 6.51,
      "classificacao_etaria": "A14",
      "imagem_original": "https://animefire.plus/img/animes/kochouki-wakaki-nobunaga.webp",
      "imagem_pasta": "https://animefire.plus/img/animes/kochouki-wakaki-nobunaga/",
      "secao": "legendados",
      "pagina": 155,
      "total_episodios": 6,
      "link_video": "https://animefire.plus/video/kochouki-wakaki-nobunaga"
    },
    {
      "id": 2044,
      "nome": "Kodomo no Jikan (TV)",
      "link": "https://animefire.plus/animes/kodomo-no-jikan-tv-todos-os-episodios",
      "texto_original": "Kodomo no Jikan (TV)",
      "rating": 6.97,
      "classificacao_etaria": "A16",
      "imagem_original": "https://animefire.plus/img/animes/kodomo-no-jikan-tv.webp",
      "imagem_pasta": "https://animefire.plus/img/animes/kodomo-no-jikan-tv/",
      "secao": "legendados",
      "pagina": 154,
      "total_episodios": 12,
      "link_video": "https://animefire.plus/video/kodomo-no-jikan-tv"
    },
    {
      "id": 2045,
      "nome": "Kodomo no Omocha (TV)",
      "link": "https://animefire.plus/animes/kodomo-no-omocha-tv-todos-os-episodios",
      "texto_original": "Kodomo no Omocha (TV)",
      "rating": 8.07,
      "classificacao_etaria": "A14",
      "imagem_original": "https://animefire.plus/img/animes/kodomo-no-omocha-tv.webp",
      "imagem_pasta": "https://animefire.plus/img/animes/kodomo-no-omocha-tv/",
      "secao": "legendados",
      "pagina": 68,
      "total_episodios": 102,
      "link_video": "https://animefire.plus/video/kodomo-no-omocha-tv"
    },
    {
      "id": 2046,
      "nome": "Koharu Biyori",
      "link": "https://animefire.plus/animes/koharu-biyori-todos-os-episodios",
      "texto_original": "Koharu Biyori",
      "rating": 6.66,
      "classificacao_etaria": "A18",
      "imagem_original": "https://animefire.plus/img/animes/koharu-biyori.webp",
      "imagem_pasta": "https://animefire.plus/img/animes/koharu-biyori/",
      "secao": "legendados",
      "pagina": 61,
      "total_episodios": 0,
      "link_video": "https://animefire.plus/video/koharu-biyori"
    },
    {
      "id": 2047,
      "nome": "Koi Kaze",
      "link": "https://animefire.plus/animes/koi-kaze-todos-os-episodios",
      "texto_original": "Koi Kaze",
      "rating": 7.24,
      "classificacao_etaria": "A16",
      "imagem_original": "https://animefire.plus/img/animes/koi-kaze.webp",
      "imagem_pasta": "https://animefire.plus/img/animes/koi-kaze/",
      "secao": "legendados",
      "pagina": 173,
      "total_episodios": 13,
      "link_video": "https://animefire.plus/video/koi-kaze"
    },
    {
      "id": 2048,
      "nome": "Koi Koi 7",
      "link": "https://animefire.plus/animes/koi-koi-7-todos-os-episodios",
      "texto_original": "Koi Koi 7",
      "rating": 5.88,
      "classificacao_etaria": "A18",
      "imagem_original": "https://animefire.plus/img/animes/koi-koi-7.webp",
      "imagem_pasta": "https://animefire.plus/img/animes/koi-koi-7/",
      "secao": "legendados",
      "pagina": 128,
      "total_episodios": 13,
      "link_video": "https://animefire.plus/video/koi-koi-7"
    },
    {
      "id": 2049,
      "nome": "Koi to Producer: EVOL×LOVE",
      "link": "https://animefire.plus/animes/koi-to-producer-evol-love-todos-os-episodios",
      "texto_original": "Koi to Producer: EVOL×LOVE",
      "rating": null,
      "classificacao_etaria": "A14",
      "imagem_original": "https://animefire.plus/img/animes/koi-to-producer-evol-love.webp",
      "imagem_pasta": "https://animefire.plus/img/animes/koi-to-producer-evol-love/",
      "secao": "legendados",
      "pagina": 57,
      "total_episodios": 12,
      "link_video": "https://animefire.plus/video/koi-to-producer-evol-love"
    },
    {
      "id": 2050,
      "nome": "Koi to Senkyo to Chocolate",
      "link": "https://animefire.plus/animes/koi-to-senkyo-to-chocolate-todos-os-episodios",
      "texto_original": "Koi to Senkyo to Chocolate",
      "rating": 7.21,
      "classificacao_etaria": "A14",
      "imagem_original": "https://animefire.plus/img/animes/koi-to-senkyo-to-chocolate.webp",
      "imagem_pasta": "https://animefire.plus/img/animes/koi-to-senkyo-to-chocolate/",
      "secao": "legendados",
      "pagina": 162,
      "total_episodios": 5,
      "link_video": "https://animefire.plus/video/koi-to-senkyo-to-chocolate"
    },
    {
      "id": 2051,
      "nome": "Koi to Senkyo to Chocolate: Koi Imouto!",
      "link": "https://animefire.plus/animes/koi-to-senkyo-to-chocolate-koi-imouto-todos-os-episodios",
      "texto_original": "Koi to Senkyo to Chocolate: Koi Imouto!",
      "rating": 6.91,
      "classificacao_etaria": "A14",
      "imagem_original": "https://animefire.plus/img/animes/koi-to-senkyo-to-chocolate-koi-imouto.webp",
      "imagem_pasta": "https://animefire.plus/img/animes/koi-to-senkyo-to-chocolate-koi-imouto/",
      "secao": "legendados",
      "pagina": 54,
      "total_episodios": 1,
      "link_video": "https://animefire.plus/video/koi-to-senkyo-to-chocolate-koi-imouto"
    },
    {
      "id": 2052,
      "nome": "Koi to Uso",
      "link": "https://animefire.plus/animes/koi-to-uso-todos-os-episodios",
      "texto_original": "Koi to Uso",
      "rating": 6.75,
      "classificacao_etaria": "A14",
      "imagem_original": "https://animefire.plus/img/animes/koi-to-uso.webp",
      "imagem_pasta": "https://animefire.plus/img/animes/koi-to-uso/",
      "secao": "legendados",
      "pagina": 118,
      "total_episodios": 12,
      "link_video": "https://animefire.plus/video/koi-to-uso"
    },
    {
      "id": 2053,
      "nome": "Koi to Uso OVA",
      "link": "https://animefire.plus/animes/koi-to-uso-ova-todos-os-episodios",
      "texto_original": "Koi to Uso OVA",
      "rating": 6.46,
      "classificacao_etaria": "A14",
      "imagem_original": "https://animefire.plus/img/animes/koi-to-uso-ova.webp",
      "imagem_pasta": "https://animefire.plus/img/animes/koi-to-uso-ova/",
      "secao": "legendados",
      "pagina": 78,
      "total_episodios": 1,
      "link_video": "https://animefire.plus/video/koi-to-uso-ova"
    },
    {
      "id": 2054,
      "nome": "Koi to Yobu ni wa Kimochi Warui",
      "link": "https://animefire.plus/animes/koi-to-yobu-ni-wa-kimochi-warui-todos-os-episodios",
      "texto_original": "Koi to Yobu ni wa Kimochi Warui",
      "rating": 7.12,
      "classificacao_etaria": "A14",
      "imagem_original": "https://animefire.plus/img/animes/koi-to-yobu-ni-wa-kimochi-warui.webp",
      "imagem_pasta": "https://animefire.plus/img/animes/koi-to-yobu-ni-wa-kimochi-warui/",
      "secao": "legendados",
      "pagina": 47,
      "total_episodios": 12,
      "link_video": "https://animefire.plus/video/koi-to-yobu-ni-wa-kimochi-warui"
    },
    {
      "id": 2055,
      "nome": "Koi wa Ameagari no You ni",
      "link": "https://animefire.plus/animes/koi-wa-ameagari-no-you-ni-todos-os-episodios",
      "texto_original": "Koi wa Ameagari no You ni",
      "rating": 7.6,
      "classificacao_etaria": "A14",
      "imagem_original": "https://animefire.plus/img/animes/koi-wa-ameagari-no-you-ni.webp",
      "imagem_pasta": "https://animefire.plus/img/animes/koi-wa-ameagari-no-you-ni/",
      "secao": "legendados",
      "pagina": 120,
      "total_episodios": 12,
      "link_video": "https://animefire.plus/video/koi-wa-ameagari-no-you-ni"
    },
    {
      "id": 2056,
      "nome": "Koi wa Futago de Warikirenai",
      "link": "https://animefire.plus/animes/koi-wa-futago-de-warikirenai-todos-os-episodios",
      "texto_original": "Koi wa Futago de Warikirenai",
      "rating": 6.26,
      "classificacao_etaria": "A14",
      "imagem_original": "https://animefire.plus/img/animes/koi-wa-futago-de-warikirenai.webp",
      "imagem_pasta": "https://animefire.plus/img/animes/koi-wa-futago-de-warikirenai/",
      "secao": "legendados",
      "pagina": 13,
      "total_episodios": 12,
      "link_video": "https://animefire.plus/video/koi-wa-futago-de-warikirenai"
    },
    {
      "id": 2057,
      "nome": "Koi wa Sekai Seifuku no Ato de (Dublado)",
      "link": "https://animefire.plus/animes/koi-wa-sekai-seifuku-no-ato-de-dublado-todos-os-episodios",
      "texto_original": "Koi wa Sekai Seifuku no Ato de (Dublado)",
      "rating": 7.38,
      "classificacao_etaria": "A14",
      "imagem_original": "https://animefire.plus/img/animes/koi-wa-sekai-seifuku-no-ato-de.webp",
      "imagem_pasta": "https://animefire.plus/img/animes/koi-wa-sekai-seifuku-no-ato-de/",
      "secao": "dublados,legendados",
      "pagina": 11,
      "total_episodios": 12,
      "link_video": "https://animefire.plus/video/koi-wa-sekai-seifuku-no-ato-de-dublado"
    },
    {
      "id": 2058,
      "nome": "Koihime†Musou",
      "link": "https://animefire.plus/animes/koihime-musou-todos-os-episodios",
      "texto_original": "Koihime†Musou",
      "rating": 6.82,
      "classificacao_etaria": "A18",
      "imagem_original": "https://animefire.plus/img/animes/koihime-musou.webp",
      "imagem_pasta": "https://animefire.plus/img/animes/koihime-musou/",
      "secao": "legendados",
      "pagina": 127,
      "total_episodios": 12,
      "link_video": "https://animefire.plus/video/koihime-musou"
    }
  ],
  "pagination": {
    "current_page": 100,
    "per_page": 20,
    "total_items": 4269,
    "total_pages": 214,
    "has_next": true,
    "has_prev": true
  }
}
