{
  "message": "Animes da seção: legendados",
  "section": "legendados",
  "data": [
    {
      "id": 2161,
      "nome": "Kuroshitsuji: Book of Murder",
      "link": "https://animefire.plus/animes/kuroshitsuji-book-of-murder-todos-os-episodios",
      "texto_original": "Kuroshitsuji: Book of Murder",
      "rating": 8.29,
      "classificacao_etaria": "A16",
      "imagem_original": "https://animefire.plus/img/animes/kuroshitsuji-book-of-murder.webp",
      "imagem_pasta": "https://animefire.plus/img/animes/kuroshitsuji-book-of-murder/",
      "secao": "legendados",
      "pagina": 103,
      "total_episodios": 2,
      "link_video": "https://animefire.plus/video/kuroshitsuji-book-of-murder"
    },
    {
      "id": 2162,
      "nome": "Kuroshitsuji: Kishuku Gakkou-hen",
      "link": "https://animefire.plus/animes/kuroshitsuji-kishuku-gakkou-hen-todos-os-episodios",
      "texto_original": "Kuroshitsuji: Kishuku Gakkou-hen",
      "rating": 7.86,
      "classificacao_etaria": "A16",
      "imagem_original": "https://animefire.plus/img/animes/kuroshitsuji-kishuku-gakkou-hen.webp",
      "imagem_pasta": "https://animefire.plus/img/animes/kuroshitsuji-kishuku-gakkou-hen/",
      "secao": "legendados",
      "pagina": 15,
      "total_episodios": 11,
      "link_video": "https://animefire.plus/video/kuroshitsuji-kishuku-gakkou-hen"
    },
    {
      "id": 2163,
      "nome": "Kuroshitsuji: Midori no Majo-hen",
      "link": "https://animefire.plus/animes/kuroshitsuji-midori-no-majo-hen-todos-os-episodios",
      "texto_original": "Kuroshitsuji: Midori no Majo-hen",
      "rating": 8.18,
      "classificacao_etaria": "A16",
      "imagem_original": "https://animefire.plus/img/animes/kuroshitsuji-midori-no-majo-hen.webp",
      "imagem_pasta": "https://animefire.plus/img/animes/kuroshitsuji-midori-no-majo-hen/",
      "secao": "legendados",
      "pagina": 6,
      "total_episodios": 13,
      "link_video": "https://animefire.plus/video/kuroshitsuji-midori-no-majo-hen"
    },
    {
      "id": 2164,
      "nome": "Kurozuka",
      "link": "https://animefire.plus/animes/kurozuka-todos-os-episodios",
      "texto_original": "Kurozuka",
      "rating": 7,
      "classificacao_etaria": "A16",
      "imagem_original": "https://animefire.plus/img/animes/kurozuka.webp",
      "imagem_pasta": "https://animefire.plus/img/animes/kurozuka/",
      "secao": "legendados",
      "pagina": 158,
      "total_episodios": 0,
      "link_video": "https://animefire.plus/video/kurozuka"
    },
    {
      "id": 2165,
      "nome": "Kusuriya no Hitorigoto (Dublado)",
      "link": "https://animefire.plus/animes/kusuriya-no-hitorigoto-dublado-todos-os-episodios",
      "texto_original": "Kusuriya no Hitorigoto (Dublado)",
      "rating": 8.87,
      "classificacao_etaria": "A14",
      "imagem_original": "https://animefire.plus/img/animes/kusuriya-no-hitorigoto.webp",
      "imagem_pasta": "https://animefire.plus/img/animes/kusuriya-no-hitorigoto/",
      "secao": "dublados,legendados,lancamentos",
      "pagina": 3,
      "total_episodios": 24,
      "link_video": "https://animefire.plus/video/kusuriya-no-hitorigoto-dublado"
    },
    {
      "id": 2166,
      "nome": "Kusuriya no Hitorigoto 2nd Season",
      "link": "https://animefire.plus/animes/kusuriya-no-hitorigoto-2nd-season-todos-os-episodios",
      "texto_original": "Kusuriya no Hitorigoto 2nd Season",
      "rating": 8.92,
      "classificacao_etaria": "A14",
      "imagem_original": "https://animefire.plus/img/animes/kusuriya-no-hitorigoto-2nd-season.webp",
      "imagem_pasta": "https://animefire.plus/img/animes/kusuriya-no-hitorigoto-2nd-season/",
      "secao": "legendados",
      "pagina": 6,
      "total_episodios": 24,
      "link_video": "https://animefire.plus/video/kusuriya-no-hitorigoto-2nd-season"
    },
    {
      "id": 2167,
      "nome": "Kuttsukiboshi",
      "link": "https://animefire.plus/animes/kuttsukiboshi-todos-os-episodios",
      "texto_original": "Kuttsukiboshi",
      "rating": 6.1,
      "classificacao_etaria": "A18",
      "imagem_original": "https://animefire.plus/img/animes/kuttsukiboshi.webp",
      "imagem_pasta": "https://animefire.plus/img/animes/kuttsukiboshi/",
      "secao": "legendados",
      "pagina": 44,
      "total_episodios": 2,
      "link_video": "https://animefire.plus/video/kuttsukiboshi"
    },
    {
      "id": 2168,
      "nome": "Kuuchuu Buranko",
      "link": "https://animefire.plus/animes/kuuchuu-buranko-todos-os-episodios",
      "texto_original": "Kuuchuu Buranko",
      "rating": 8.01,
      "classificacao_etaria": "A16",
      "imagem_original": "https://animefire.plus/img/animes/kuuchuu-buranko.webp",
      "imagem_pasta": "https://animefire.plus/img/animes/kuuchuu-buranko/",
      "secao": "legendados",
      "pagina": 129,
      "total_episodios": 11,
      "link_video": "https://animefire.plus/video/kuuchuu-buranko"
    },
    {
      "id": 2169,
      "nome": "Kuusen Madoushi Kouhosei No Kyoukan",
      "link": "https://animefire.plus/animes/kuusen-madoushi-kouhosei-no-kyoukan-todos-os-episodios",
      "texto_original": "Kuusen Madoushi Kouhosei No Kyoukan",
      "rating": 6.56,
      "classificacao_etaria": "A14",
      "imagem_original": "https://animefire.plus/img/animes/kuusen-madoushi-kouhosei-no-kyoukan.webp",
      "imagem_pasta": "https://animefire.plus/img/animes/kuusen-madoushi-kouhosei-no-kyoukan/",
      "secao": "legendados",
      "pagina": 107,
      "total_episodios": 12,
      "link_video": "https://animefire.plus/video/kuusen-madoushi-kouhosei-no-kyoukan"
    },
    {
      "id": 2170,
      "nome": "Kuusen Madoushi Kouhosei no Kyoukan: Lecty no, Ikimonogatari",
      "link": "https://animefire.plus/animes/kuusen-madoushi-kouhosei-no-kyoukan-lecty-no-ikimonogatari-todos-os-episodios",
      "texto_original": "Kuusen Madoushi Kouhosei no Kyoukan: Lecty no, Ikimonogatari",
      "rating": 6.45,
      "classificacao_etaria": "A14",
      "imagem_original": "https://animefire.plus/img/animes/kuusen-madoushi-kouhosei-no-kyoukan-lecty-no-ikimonogatari.webp",
      "imagem_pasta": "https://animefire.plus/img/animes/kuusen-madoushi-kouhosei-no-kyoukan-lecty-no-ikimonogatari/",
      "secao": "legendados",
      "pagina": 71,
      "total_episodios": 1,
      "link_video": "https://animefire.plus/video/kuusen-madoushi-kouhosei-no-kyoukan-lecty-no-ikimonogatari"
    },
    {
      "id": 2171,
      "nome": "Kuutei Dragons (Dublado)",
      "link": "https://animefire.plus/animes/kuutei-dragons-dublado-todos-os-episodios",
      "texto_original": "Kuutei Dragons (Dublado)",
      "rating": 7.05,
      "classificacao_etaria": "A14",
      "imagem_original": "https://animefire.plus/img/animes/kuutei-dragons.webp",
      "imagem_pasta": "https://animefire.plus/img/animes/kuutei-dragons/",
      "secao": "dublados,legendados",
      "pagina": 23,
      "total_episodios": 12,
      "link_video": "https://animefire.plus/video/kuutei-dragons-dublado"
    },
    {
      "id": 2172,
      "nome": "Kuzu no Honkai",
      "link": "https://animefire.plus/animes/kuzu-no-honkai-todos-os-episodios",
      "texto_original": "Kuzu no Honkai",
      "rating": 7.48,
      "classificacao_etaria": "A18",
      "imagem_original": "https://animefire.plus/img/animes/kuzu-no-honkai.webp",
      "imagem_pasta": "https://animefire.plus/img/animes/kuzu-no-honkai/",
      "secao": "legendados",
      "pagina": 121,
      "total_episodios": 2,
      "link_video": "https://animefire.plus/video/kuzu-no-honkai"
    },
    {
      "id": 2173,
      "nome": "Kyochuu Rettou",
      "link": "https://animefire.plus/animes/kyochuu-rettou-todos-os-episodios",
      "texto_original": "Kyochuu Rettou",
      "rating": 4.53,
      "classificacao_etaria": "A18",
      "imagem_original": "https://animefire.plus/img/animes/kyochuu-rettou.webp",
      "imagem_pasta": "https://animefire.plus/img/animes/kyochuu-rettou/",
      "secao": "legendados",
      "pagina": 87,
      "total_episodios": 1,
      "link_video": "https://animefire.plus/video/kyochuu-rettou"
    },
    {
      "id": 2174,
      "nome": "Kyokou Suiri",
      "link": "https://animefire.plus/animes/kyokou-suiri-todos-os-episodios",
      "texto_original": "Kyokou Suiri",
      "rating": 6.96,
      "classificacao_etaria": "A16",
      "imagem_original": "https://animefire.plus/img/animes/kyokou-suiri.webp",
      "imagem_pasta": "https://animefire.plus/img/animes/kyokou-suiri/",
      "secao": "legendados",
      "pagina": 92,
      "total_episodios": 0,
      "link_video": "https://animefire.plus/video/kyokou-suiri"
    },
    {
      "id": 2175,
      "nome": "Kyokou Suiri Season 2",
      "link": "https://animefire.plus/animes/kyokou-suiri-season-2-todos-os-episodios",
      "texto_original": "Kyokou Suiri Season 2",
      "rating": 7.35,
      "classificacao_etaria": "A16",
      "imagem_original": "https://animefire.plus/img/animes/kyokou-suiri-season-2.webp",
      "imagem_pasta": "https://animefire.plus/img/animes/kyokou-suiri-season-2/",
      "secao": "legendados",
      "pagina": 27,
      "total_episodios": 12,
      "link_video": "https://animefire.plus/video/kyokou-suiri-season-2"
    },
    {
      "id": 2176,
      "nome": "Kyoto Teramachi Sanjou no Holmes",
      "link": "https://animefire.plus/animes/kyoto-teramachi-sanjou-no-holmes-todos-os-episodios",
      "texto_original": "Kyoto Teramachi Sanjou no Holmes",
      "rating": 6.81,
      "classificacao_etaria": "A14",
      "imagem_original": "https://animefire.plus/img/animes/kyoto-teramachi-sanjou-no-holmes.webp",
      "imagem_pasta": "https://animefire.plus/img/animes/kyoto-teramachi-sanjou-no-holmes/",
      "secao": "legendados",
      "pagina": 143,
      "total_episodios": 12,
      "link_video": "https://animefire.plus/video/kyoto-teramachi-sanjou-no-holmes"
    },
    {
      "id": 2177,
      "nome": "Kyou kara Maou!",
      "link": "https://animefire.plus/animes/kyou-kara-maou-todos-os-episodios",
      "texto_original": "Kyou kara Maou!",
      "rating": 7.81,
      "classificacao_etaria": "A14",
      "imagem_original": "https://animefire.plus/img/animes/kyou-kara-maou.webp",
      "imagem_pasta": "https://animefire.plus/img/animes/kyou-kara-maou/",
      "secao": "legendados",
      "pagina": 135,
      "total_episodios": 76,
      "link_video": "https://animefire.plus/video/kyou-kara-maou"
    },
    {
      "id": 2178,
      "nome": "Kyou kara Maou! 3rd Series",
      "link": "https://animefire.plus/animes/kyou-kara-maou-3rd-series-todos-os-episodios",
      "texto_original": "Kyou kara Maou! 3rd Series",
      "rating": 7.85,
      "classificacao_etaria": "A14",
      "imagem_original": "https://animefire.plus/img/animes/kyou-kara-maou-3rd-series.webp",
      "imagem_pasta": "https://animefire.plus/img/animes/kyou-kara-maou-3rd-series/",
      "secao": "legendados",
      "pagina": 76,
      "total_episodios": 39,
      "link_video": "https://animefire.plus/video/kyou-kara-maou-3rd-series"
    },
    {
      "id": 2179,
      "nome": "Kyou kara Maou! R",
      "link": "https://animefire.plus/animes/kyou-kara-maou-r-todos-os-episodios",
      "texto_original": "Kyou kara Maou! R",
      "rating": 7.49,
      "classificacao_etaria": "A14",
      "imagem_original": "https://animefire.plus/img/animes/kyou-kara-maou-r.webp",
      "imagem_pasta": "https://animefire.plus/img/animes/kyou-kara-maou-r/",
      "secao": "legendados",
      "pagina": 76,
      "total_episodios": 5,
      "link_video": "https://animefire.plus/video/kyou-kara-maou-r"
    },
    {
      "id": 2180,
      "nome": "Kyou no 5 no 2",
      "link": "https://animefire.plus/animes/kyou-no-5-no-2-todos-os-episodios",
      "texto_original": "Kyou no 5 no 2",
      "rating": 7.27,
      "classificacao_etaria": "A14",
      "imagem_original": "https://animefire.plus/img/animes/kyou-no-5-no-2.webp",
      "imagem_pasta": "https://animefire.plus/img/animes/kyou-no-5-no-2/",
      "secao": "legendados",
      "pagina": 118,
      "total_episodios": 11,
      "link_video": "https://animefire.plus/video/kyou-no-5-no-2"
    }
  ],
  "pagination": {
    "current_page": 106,
    "per_page": 20,
    "total_items": 4269,
    "total_pages": 214,
    "has_next": true,
    "has_prev": true
  }
}
