{
  "message": "Animes da seção: legendados",
  "section": "legendados",
  "data": [
    {
      "id": 2849,
      "nome": "Ongaku Shoujo (TV)",
      "link": "https://animefire.plus/animes/ongaku-shoujo-tv-todos-os-episodios",
      "texto_original": "Ongaku Shoujo (TV)",
      "rating": 6.02,
      "classificacao_etaria": "A14",
      "imagem_original": "https://animefire.plus/img/animes/ongaku-shoujo-tv.webp",
      "imagem_pasta": "https://animefire.plus/img/animes/ongaku-shoujo-tv/",
      "secao": "legendados",
      "pagina": 127,
      "total_episodios": 12,
      "link_video": "https://animefire.plus/video/ongaku-shoujo-tv"
    },
    {
      "id": 2850,
      "nome": "Onigiri",
      "link": "https://animefire.plus/animes/onigiri-todos-os-episodios",
      "texto_original": "Onigiri",
      "rating": 5.42,
      "classificacao_etaria": "A14",
      "imagem_original": "https://animefire.plus/img/animes/onigiri.webp",
      "imagem_pasta": "https://animefire.plus/img/animes/onigiri/",
      "secao": "legendados",
      "pagina": 127,
      "total_episodios": 10,
      "link_video": "https://animefire.plus/video/onigiri"
    },
    {
      "id": 2851,
      "nome": "Onihei",
      "link": "https://animefire.plus/animes/onihei-todos-os-episodios",
      "texto_original": "Onihei",
      "rating": 7.35,
      "classificacao_etaria": "A16",
      "imagem_original": "https://animefire.plus/img/animes/onihei.webp",
      "imagem_pasta": "https://animefire.plus/img/animes/onihei/",
      "secao": "legendados",
      "pagina": 149,
      "total_episodios": 6,
      "link_video": "https://animefire.plus/video/onihei"
    },
    {
      "id": 2852,
      "nome": "Oniichan dakedo Ai sae Areba Kankeinai yo ne!",
      "link": "https://animefire.plus/animes/oniichan-dakedo-ai-sae-areba-kankeinai-yo-ne-todos-os-episodios",
      "texto_original": "Oniichan dakedo Ai sae Areba Kankeinai yo ne!",
      "rating": 6.67,
      "classificacao_etaria": "A18",
      "imagem_original": "https://animefire.plus/img/animes/oniichan-dakedo-ai-sae-areba-kankeinai-yo-ne.webp",
      "imagem_pasta": "https://animefire.plus/img/animes/oniichan-dakedo-ai-sae-areba-kankeinai-yo-ne/",
      "secao": "legendados",
      "pagina": 160,
      "total_episodios": 0,
      "link_video": "https://animefire.plus/video/oniichan-dakedo-ai-sae-areba-kankeinai-yo-ne"
    },
    {
      "id": 2853,
      "nome": "Oniichan dakedo Ai sae Areba Kankeinai yo ne! Specials",
      "link": "https://animefire.plus/animes/oniichan-dakedo-ai-sae-areba-kankeinai-yo-ne-specials-todos-os-episodios",
      "texto_original": "Oniichan dakedo Ai sae Areba Kankeinai yo ne! Specials",
      "rating": 6.29,
      "classificacao_etaria": "A18",
      "imagem_original": "https://animefire.plus/img/animes/oniichan-dakedo-ai-sae-areba-kankeinai-yo-ne-specials.webp",
      "imagem_pasta": "https://animefire.plus/img/animes/oniichan-dakedo-ai-sae-areba-kankeinai-yo-ne-specials/",
      "secao": "legendados",
      "pagina": 57,
      "total_episodios": 6,
      "link_video": "https://animefire.plus/video/oniichan-dakedo-ai-sae-areba-kankeinai-yo-ne-specials"
    },
    {
      "id": 2854,
      "nome": "Oniichan no Koto nanka Zenzen Suki ja Nai n da kara ne!!",
      "link": "https://animefire.plus/animes/oniichan-no-koto-nanka-zenzen-suki-ja-nai-n-da-kara-ne-todos-os-episodios",
      "texto_original": "Oniichan no Koto nanka Zenzen Suki ja Nai n da kara ne!!",
      "rating": 6.24,
      "classificacao_etaria": "A14",
      "imagem_original": "https://animefire.plus/img/animes/oniichan-no-koto-nanka-zenzen-suki-ja-nai-n-da-kara-ne.webp",
      "imagem_pasta": "https://animefire.plus/img/animes/oniichan-no-koto-nanka-zenzen-suki-ja-nai-n-da-kara-ne/",
      "secao": "legendados",
      "pagina": 142,
      "total_episodios": 13,
      "link_video": "https://animefire.plus/video/oniichan-no-koto-nanka-zenzen-suki-ja-nai-n-da-kara-ne"
    },
    {
      "id": 2855,
      "nome": "Oniichan wa Oshimai!",
      "link": "https://animefire.plus/animes/oniichan-wa-oshimai-todos-os-episodios",
      "texto_original": "Oniichan wa Oshimai!",
      "rating": 7.65,
      "classificacao_etaria": "A14",
      "imagem_original": "https://animefire.plus/img/animes/oniichan-wa-oshimai.webp",
      "imagem_pasta": "https://animefire.plus/img/animes/oniichan-wa-oshimai/",
      "secao": "legendados",
      "pagina": 27,
      "total_episodios": 12,
      "link_video": "https://animefire.plus/video/oniichan-wa-oshimai"
    },
    {
      "id": 2856,
      "nome": "Oniisama e...",
      "link": "https://animefire.plus/animes/oniisama-e-todos-os-episodios",
      "texto_original": "Oniisama e...",
      "rating": 7.78,
      "classificacao_etaria": "A14",
      "imagem_original": "https://animefire.plus/img/animes/oniisama-e.webp",
      "imagem_pasta": "https://animefire.plus/img/animes/oniisama-e/",
      "secao": "legendados",
      "pagina": 55,
      "total_episodios": 39,
      "link_video": "https://animefire.plus/video/oniisama-e"
    },
    {
      "id": 2857,
      "nome": "Onimusha (Dublado)",
      "link": "https://animefire.plus/animes/onimusha-dublado-todos-os-episodios",
      "texto_original": "Onimusha (Dublado)",
      "rating": 6.55,
      "classificacao_etaria": "A16",
      "imagem_original": "https://animefire.plus/img/animes/onimusha.webp",
      "imagem_pasta": "https://animefire.plus/img/animes/onimusha/",
      "secao": "dublados,legendados",
      "pagina": 4,
      "total_episodios": 8,
      "link_video": "https://animefire.plus/video/onimusha-dublado"
    },
    {
      "id": 2858,
      "nome": "Onipan!",
      "link": "https://animefire.plus/animes/onipan-todos-os-episodios",
      "texto_original": "Onipan!",
      "rating": 6.5,
      "classificacao_etaria": "A10",
      "imagem_original": "https://animefire.plus/img/animes/onipan.webp",
      "imagem_pasta": "https://animefire.plus/img/animes/onipan/",
      "secao": "legendados,lancamentos",
      "pagina": 33,
      "total_episodios": 6,
      "link_video": "https://animefire.plus/video/onipan"
    },
    {
      "id": 2859,
      "nome": "Onmyou Kaiten Re:Birth",
      "link": "https://animefire.plus/animes/onmyou-kaiten-re-birth-todos-os-episodios",
      "texto_original": "Onmyou Kaiten Re:Birth",
      "rating": 6.51,
      "classificacao_etaria": "A14",
      "imagem_original": "https://animefire.plus/img/animes/onmyou-kaiten-re-birth.webp",
      "imagem_pasta": "https://animefire.plus/img/animes/onmyou-kaiten-re-birth/",
      "secao": "legendados,lancamentos",
      "pagina": 1,
      "total_episodios": 5,
      "link_video": "https://animefire.plus/video/onmyou-kaiten-re-birth"
    },
    {
      "id": 2860,
      "nome": "Onmyou Taisenki",
      "link": "https://animefire.plus/animes/onmyou-taisenki-todos-os-episodios",
      "texto_original": "Onmyou Taisenki",
      "rating": 7.26,
      "classificacao_etaria": "A14",
      "imagem_original": "https://animefire.plus/img/animes/onmyou-taisenki.webp",
      "imagem_pasta": "https://animefire.plus/img/animes/onmyou-taisenki/",
      "secao": "legendados",
      "pagina": 178,
      "total_episodios": 4,
      "link_video": "https://animefire.plus/video/onmyou-taisenki"
    },
    {
      "id": 2861,
      "nome": "Onmyouji (Dublado)",
      "link": "https://animefire.plus/animes/onmyouji-dublado-todos-os-episodios",
      "texto_original": "Onmyouji (Dublado)",
      "rating": 6.98,
      "classificacao_etaria": "A14",
      "imagem_original": "https://animefire.plus/img/animes/onmyouji.webp",
      "imagem_pasta": "https://animefire.plus/img/animes/onmyouji/",
      "secao": "dublados,legendados",
      "pagina": 4,
      "total_episodios": 13,
      "link_video": "https://animefire.plus/video/onmyouji-dublado"
    },
    {
      "id": 2862,
      "nome": "Onsen Yousei Hakone-chan",
      "link": "https://animefire.plus/animes/onsen-yousei-hakone-chan-todos-os-episodios",
      "texto_original": "Onsen Yousei Hakone-chan",
      "rating": 5.9,
      "classificacao_etaria": "A14",
      "imagem_original": "https://animefire.plus/img/animes/onsen-yousei-hakone-chan.webp",
      "imagem_pasta": "https://animefire.plus/img/animes/onsen-yousei-hakone-chan/",
      "secao": "legendados",
      "pagina": 107,
      "total_episodios": 13,
      "link_video": "https://animefire.plus/video/onsen-yousei-hakone-chan"
    },
    {
      "id": 2863,
      "nome": "Ontama!",
      "link": "https://animefire.plus/animes/ontama-todos-os-episodios",
      "texto_original": "Ontama!",
      "rating": 6.74,
      "classificacao_etaria": null,
      "imagem_original": "https://animefire.plus/img/animes/ontama.webp",
      "imagem_pasta": "https://animefire.plus/img/animes/ontama/",
      "secao": "legendados",
      "pagina": 43,
      "total_episodios": 5,
      "link_video": "https://animefire.plus/video/ontama"
    },
    {
      "id": 2864,
      "nome": "Onyankopon",
      "link": "https://animefire.plus/animes/onyankopon-todos-os-episodios",
      "texto_original": "Onyankopon",
      "rating": 4.5,
      "classificacao_etaria": null,
      "imagem_original": "https://animefire.plus/img/animes/onyankopon.webp",
      "imagem_pasta": "https://animefire.plus/img/animes/onyankopon/",
      "secao": "legendados",
      "pagina": 147,
      "total_episodios": 11,
      "link_video": "https://animefire.plus/video/onyankopon"
    },
    {
      "id": 2865,
      "nome": "Ooi! Tonbo",
      "link": "https://animefire.plus/animes/ooi-tonbo-todos-os-episodios",
      "texto_original": "Ooi! Tonbo",
      "rating": 7.11,
      "classificacao_etaria": "A14",
      "imagem_original": "https://animefire.plus/img/animes/ooi-tonbo.webp",
      "imagem_pasta": "https://animefire.plus/img/animes/ooi-tonbo/",
      "secao": "legendados,lancamentos",
      "pagina": 14,
      "total_episodios": 1,
      "link_video": "https://animefire.plus/video/ooi-tonbo"
    },
    {
      "id": 2866,
      "nome": "Ooi! Tonbo 2nd Season",
      "link": "https://animefire.plus/animes/ooi-tonbo-2nd-season-todos-os-episodios",
      "texto_original": "Ooi! Tonbo 2nd Season",
      "rating": 7.31,
      "classificacao_etaria": "A14",
      "imagem_original": "https://animefire.plus/img/animes/ooi-tonbo-2nd-season.webp",
      "imagem_pasta": "https://animefire.plus/img/animes/ooi-tonbo-2nd-season/",
      "secao": "legendados,lancamentos",
      "pagina": 9,
      "total_episodios": 2,
      "link_video": "https://animefire.plus/video/ooi-tonbo-2nd-season"
    },
    {
      "id": 2867,
      "nome": "Ookami Shoujo to Kuro Ouji",
      "link": "https://animefire.plus/animes/ookami-shoujo-to-kuro-ouji-todos-os-episodios",
      "texto_original": "Ookami Shoujo to Kuro Ouji",
      "rating": 7.37,
      "classificacao_etaria": "A14",
      "imagem_original": "https://animefire.plus/img/animes/ookami-shoujo-to-kuro-ouji.webp",
      "imagem_pasta": "https://animefire.plus/img/animes/ookami-shoujo-to-kuro-ouji/",
      "secao": "legendados",
      "pagina": 123,
      "total_episodios": 12,
      "link_video": "https://animefire.plus/video/ookami-shoujo-to-kuro-ouji"
    },
    {
      "id": 2868,
      "nome": "Ookami to Koushinryou (Dublado)",
      "link": "https://animefire.plus/animes/ookami-to-koushinryou-dublado-todos-os-episodios",
      "texto_original": "Ookami to Koushinryou (Dublado)",
      "rating": 8.24,
      "classificacao_etaria": "A14",
      "imagem_original": "https://animefire.plus/img/animes/ookami-to-koushinryou.webp",
      "imagem_pasta": "https://animefire.plus/img/animes/ookami-to-koushinryou/",
      "secao": "dublados,legendados",
      "pagina": 13,
      "total_episodios": 13,
      "link_video": "https://animefire.plus/video/ookami-to-koushinryou-dublado"
    }
  ],
  "pagination": {
    "current_page": 140,
    "per_page": 20,
    "total_items": 4269,
    "total_pages": 214,
    "has_next": true,
    "has_prev": true
  }
}
