{
  "message": "Animes da seção: legendados",
  "section": "legendados",
  "data": [
    {
      "id": 2141,
      "nome": "Kurayami Santa",
      "link": "https://animefire.plus/animes/kurayami-santa-todos-os-episodios",
      "texto_original": "Kurayami Santa",
      "rating": 5.22,
      "classificacao_etaria": "A14",
      "imagem_original": "https://animefire.plus/img/animes/kurayami-santa.webp",
      "imagem_pasta": "https://animefire.plus/img/animes/kurayami-santa/",
      "secao": "legendados",
      "pagina": 134,
      "total_episodios": 1,
      "link_video": "https://animefire.plus/video/kurayami-santa"
    },
    {
      "id": 2142,
      "nome": "Kure-nai",
      "link": "https://animefire.plus/animes/kure-nai-todos-os-episodios",
      "texto_original": "Kure-nai",
      "rating": 7.43,
      "classificacao_etaria": "A14",
      "imagem_original": "https://animefire.plus/img/animes/kure-nai.webp",
      "imagem_pasta": "https://animefire.plus/img/animes/kure-nai/",
      "secao": "legendados",
      "pagina": 167,
      "total_episodios": 12,
      "link_video": "https://animefire.plus/video/kure-nai"
    },
    {
      "id": 2143,
      "nome": "Kure-nai OVA",
      "link": "https://animefire.plus/animes/kure-nai-ova-todos-os-episodios",
      "texto_original": "Kure-nai OVA",
      "rating": 6.85,
      "classificacao_etaria": "A14",
      "imagem_original": "https://animefire.plus/img/animes/kure-nai-ova.webp",
      "imagem_pasta": "https://animefire.plus/img/animes/kure-nai-ova/",
      "secao": "legendados",
      "pagina": 72,
      "total_episodios": 2,
      "link_video": "https://animefire.plus/video/kure-nai-ova"
    },
    {
      "id": 2144,
      "nome": "Kurenai Sanshirou",
      "link": "https://animefire.plus/animes/kurenai-sanshirou-todos-os-episodios",
      "texto_original": "Kurenai Sanshirou",
      "rating": 6.6,
      "classificacao_etaria": "A14",
      "imagem_original": "https://animefire.plus/img/animes/kurenai-sanshirou.webp",
      "imagem_pasta": "https://animefire.plus/img/animes/kurenai-sanshirou/",
      "secao": "legendados",
      "pagina": 112,
      "total_episodios": 26,
      "link_video": "https://animefire.plus/video/kurenai-sanshirou"
    },
    {
      "id": 2145,
      "nome": "Kuro Gal ni Natta kara Shinyuu to shitemita.",
      "link": "https://animefire.plus/animes/kuro-gal-ni-natta-kara-shinyuu-to-shitemita-todos-os-episodios",
      "texto_original": "Kuro Gal ni Natta kara Shinyuu to shitemita.",
      "rating": 6.2,
      "classificacao_etaria": "A18",
      "imagem_original": "https://animefire.plus/img/animes/kuro-gal-ni-natta-kara-shinyuu-to-shitemita.webp",
      "imagem_pasta": "https://animefire.plus/img/animes/kuro-gal-ni-natta-kara-shinyuu-to-shitemita/",
      "secao": "legendados,lancamentos",
      "pagina": 47,
      "total_episodios": 0,
      "link_video": "https://animefire.plus/video/kuro-gal-ni-natta-kara-shinyuu-to-shitemita"
    },
    {
      "id": 2146,
      "nome": "Kuro no Shoukanshi (Dublado)",
      "link": "https://animefire.plus/animes/kuro-no-shoukanshi-dublado-todos-os-episodios",
      "texto_original": "Kuro no Shoukanshi (Dublado)",
      "rating": 7.03,
      "classificacao_etaria": "A14",
      "imagem_original": "https://animefire.plus/img/animes/kuro-no-shoukanshi.webp",
      "imagem_pasta": "https://animefire.plus/img/animes/kuro-no-shoukanshi/",
      "secao": "dublados,legendados",
      "pagina": 10,
      "total_episodios": 12,
      "link_video": "https://animefire.plus/video/kuro-no-shoukanshi-dublado"
    },
    {
      "id": 2147,
      "nome": "Kurogane no Linebarrels",
      "link": "https://animefire.plus/animes/kurogane-no-linebarrels-todos-os-episodios",
      "texto_original": "Kurogane no Linebarrels",
      "rating": 7.01,
      "classificacao_etaria": "A16",
      "imagem_original": "https://animefire.plus/img/animes/kurogane-no-linebarrels.webp",
      "imagem_pasta": "https://animefire.plus/img/animes/kurogane-no-linebarrels/",
      "secao": "legendados",
      "pagina": 115,
      "total_episodios": 24,
      "link_video": "https://animefire.plus/video/kurogane-no-linebarrels"
    },
    {
      "id": 2148,
      "nome": "Kuroiwa Medaka ni Watashi no Kawaii ga Tsuujinai",
      "link": "https://animefire.plus/animes/kuroiwa-medaka-ni-watashi-no-kawaii-ga-tsuujinai-todos-os-episodios",
      "texto_original": "Kuroiwa Medaka ni Watashi no Kawaii ga Tsuujinai",
      "rating": 6.57,
      "classificacao_etaria": "A14",
      "imagem_original": "https://animefire.plus/img/animes/kuroiwa-medaka-ni-watashi-no-kawaii-ga-tsuujinai.webp",
      "imagem_pasta": "https://animefire.plus/img/animes/kuroiwa-medaka-ni-watashi-no-kawaii-ga-tsuujinai/",
      "secao": "legendados",
      "pagina": 8,
      "total_episodios": 12,
      "link_video": "https://animefire.plus/video/kuroiwa-medaka-ni-watashi-no-kawaii-ga-tsuujinai"
    },
    {
      "id": 2149,
      "nome": "Kurokami The Animation",
      "link": "https://animefire.plus/animes/kurokami-the-animation-todos-os-episodios",
      "texto_original": "Kurokami The Animation",
      "rating": 7.22,
      "classificacao_etaria": "A16",
      "imagem_original": "https://animefire.plus/img/animes/kurokami-the-animation.webp",
      "imagem_pasta": "https://animefire.plus/img/animes/kurokami-the-animation/",
      "secao": "legendados",
      "pagina": 177,
      "total_episodios": 23,
      "link_video": "https://animefire.plus/video/kurokami-the-animation"
    },
    {
      "id": 2150,
      "nome": "Kuroko no Basket",
      "link": "https://animefire.plus/animes/kuroko-no-basket-todos-os-episodios",
      "texto_original": "Kuroko no Basket",
      "rating": 8.32,
      "classificacao_etaria": "A14",
      "imagem_original": "https://animefire.plus/img/animes/kuroko-no-basket.webp",
      "imagem_pasta": "https://animefire.plus/img/animes/kuroko-no-basket/",
      "secao": "legendados",
      "pagina": 176,
      "total_episodios": 0,
      "link_video": "https://animefire.plus/video/kuroko-no-basket"
    },
    {
      "id": 2151,
      "nome": "Kuroko no Basket 2nd Season",
      "link": "https://animefire.plus/animes/kuroko-no-basket-2nd-season-todos-os-episodios",
      "texto_original": "Kuroko no Basket 2nd Season",
      "rating": 8.44,
      "classificacao_etaria": "A14",
      "imagem_original": "https://animefire.plus/img/animes/kuroko-no-basket-2nd-season.webp",
      "imagem_pasta": "https://animefire.plus/img/animes/kuroko-no-basket-2nd-season/",
      "secao": "legendados",
      "pagina": 132,
      "total_episodios": 0,
      "link_video": "https://animefire.plus/video/kuroko-no-basket-2nd-season"
    },
    {
      "id": 2152,
      "nome": "Kuroko no Basket 3rd Season",
      "link": "https://animefire.plus/animes/kuroko-no-basket-3rd-season-todos-os-episodios",
      "texto_original": "Kuroko no Basket 3rd Season",
      "rating": 8.49,
      "classificacao_etaria": "A14",
      "imagem_original": "https://animefire.plus/img/animes/kuroko-no-basket-3rd-season.webp",
      "imagem_pasta": "https://animefire.plus/img/animes/kuroko-no-basket-3rd-season/",
      "secao": "legendados",
      "pagina": 127,
      "total_episodios": 0,
      "link_video": "https://animefire.plus/video/kuroko-no-basket-3rd-season"
    },
    {
      "id": 2153,
      "nome": "Kuroko no Basket: Last Game NG-shuu",
      "link": "https://animefire.plus/animes/kuroko-no-basket-last-game-ng-shuu-todos-os-episodios",
      "texto_original": "Kuroko no Basket: Last Game NG-shuu",
      "rating": 7.78,
      "classificacao_etaria": "A14",
      "imagem_original": "https://animefire.plus/img/animes/kuroko-no-basket-last-game-ng-shuu.webp",
      "imagem_pasta": "https://animefire.plus/img/animes/kuroko-no-basket-last-game-ng-shuu/",
      "secao": "legendados",
      "pagina": 87,
      "total_episodios": 1,
      "link_video": "https://animefire.plus/video/kuroko-no-basket-last-game-ng-shuu"
    },
    {
      "id": 2154,
      "nome": "Kuroko no Basket: Oshaberi Shiyou ka",
      "link": "https://animefire.plus/animes/kuroko-no-basket-oshaberi-shiyou-ka-todos-os-episodios",
      "texto_original": "Kuroko no Basket: Oshaberi Shiyou ka",
      "rating": 7.12,
      "classificacao_etaria": "A14",
      "imagem_original": "https://animefire.plus/img/animes/kuroko-no-basket-oshaberi-shiyou-ka.webp",
      "imagem_pasta": "https://animefire.plus/img/animes/kuroko-no-basket-oshaberi-shiyou-ka/",
      "secao": "legendados",
      "pagina": 87,
      "total_episodios": 1,
      "link_video": "https://animefire.plus/video/kuroko-no-basket-oshaberi-shiyou-ka"
    },
    {
      "id": 2155,
      "nome": "Kuromajo-san ga Tooru!!",
      "link": "https://animefire.plus/animes/kuromajo-san-ga-tooru-todos-os-episodios",
      "texto_original": "Kuromajo-san ga Tooru!!",
      "rating": 6.49,
      "classificacao_etaria": "A10",
      "imagem_original": "https://animefire.plus/img/animes/kuromajo-san-ga-tooru.webp",
      "imagem_pasta": "https://animefire.plus/img/animes/kuromajo-san-ga-tooru/",
      "secao": "legendados",
      "pagina": 78,
      "total_episodios": 60,
      "link_video": "https://animefire.plus/video/kuromajo-san-ga-tooru"
    },
    {
      "id": 2156,
      "nome": "Kuromukuro",
      "link": "https://animefire.plus/animes/kuromukuro-todos-os-episodios",
      "texto_original": "Kuromukuro",
      "rating": 7.32,
      "classificacao_etaria": "A16",
      "imagem_original": "https://animefire.plus/img/animes/kuromukuro.webp",
      "imagem_pasta": "https://animefire.plus/img/animes/kuromukuro/",
      "secao": "legendados",
      "pagina": 106,
      "total_episodios": 25,
      "link_video": "https://animefire.plus/video/kuromukuro"
    },
    {
      "id": 2157,
      "nome": "Kuroshitsuji (Dublado)",
      "link": "https://animefire.plus/animes/kuroshitsuji-dublado-todos-os-episodios",
      "texto_original": "Kuroshitsuji (Dublado)",
      "rating": 7.71,
      "classificacao_etaria": "A16",
      "imagem_original": "https://animefire.plus/img/animes/kuroshitsuji.webp",
      "imagem_pasta": "https://animefire.plus/img/animes/kuroshitsuji/",
      "secao": "dublados,legendados",
      "pagina": 16,
      "total_episodios": 25,
      "link_video": "https://animefire.plus/video/kuroshitsuji-dublado"
    },
    {
      "id": 2158,
      "nome": "Kuroshitsuji II (Dublado)",
      "link": "https://animefire.plus/animes/kuroshitsuji-ii-dublado-todos-os-episodios",
      "texto_original": "Kuroshitsuji II (Dublado)",
      "rating": 7.19,
      "classificacao_etaria": "A16",
      "imagem_original": "https://animefire.plus/img/animes/kuroshitsuji-ii.webp",
      "imagem_pasta": "https://animefire.plus/img/animes/kuroshitsuji-ii/",
      "secao": "dublados,legendados",
      "pagina": 16,
      "total_episodios": 12,
      "link_video": "https://animefire.plus/video/kuroshitsuji-ii-dublado"
    },
    {
      "id": 2159,
      "nome": "Kuroshitsuji II Specials (Dublado)",
      "link": "https://animefire.plus/animes/kuroshitsuji-ii-specials-dublado-todos-os-episodios",
      "texto_original": "Kuroshitsuji II Specials (Dublado)",
      "rating": 7.44,
      "classificacao_etaria": "A14",
      "imagem_original": "https://animefire.plus/img/animes/kuroshitsuji-ii-specials.webp",
      "imagem_pasta": "https://animefire.plus/img/animes/kuroshitsuji-ii-specials/",
      "secao": "dublados,legendados",
      "pagina": 16,
      "total_episodios": 6,
      "link_video": "https://animefire.plus/video/kuroshitsuji-ii-specials-dublado"
    },
    {
      "id": 2160,
      "nome": "Kuroshitsuji: Book of Circus",
      "link": "https://animefire.plus/animes/kuroshitsuji-book-of-circus-todos-os-episodios",
      "texto_original": "Kuroshitsuji: Book of Circus",
      "rating": 8.29,
      "classificacao_etaria": "A16",
      "imagem_original": "https://animefire.plus/img/animes/kuroshitsuji-book-of-circus.webp",
      "imagem_pasta": "https://animefire.plus/img/animes/kuroshitsuji-book-of-circus/",
      "secao": "legendados",
      "pagina": 113,
      "total_episodios": 10,
      "link_video": "https://animefire.plus/video/kuroshitsuji-book-of-circus"
    }
  ],
  "pagination": {
    "current_page": 105,
    "per_page": 20,
    "total_items": 4269,
    "total_pages": 214,
    "has_next": true,
    "has_prev": true
  }
}
