{
  "message": "Animes da seção: legendados",
  "section": "legendados",
  "data": [
    {
      "id": 2748,
      "nome": "Nisekoi 2nd season",
      "link": "https://animefire.plus/animes/nisekoi-2nd-season-todos-os-episodios",
      "texto_original": "Nisekoi 2nd season",
      "rating": 7.43,
      "classificacao_etaria": "A14",
      "imagem_original": "https://animefire.plus/img/animes/nisekoi-2nd-season.webp",
      "imagem_pasta": "https://animefire.plus/img/animes/nisekoi-2nd-season/",
      "secao": "legendados",
      "pagina": 79,
      "total_episodios": 12,
      "link_video": "https://animefire.plus/video/nisekoi-2nd-season"
    },
    {
      "id": 2749,
      "nome": "Nisemonogatari",
      "link": "https://animefire.plus/animes/nisemonogatari-todos-os-episodios",
      "texto_original": "Nisemonogatari",
      "rating": 8.2,
      "classificacao_etaria": "A16",
      "imagem_original": "https://animefire.plus/img/animes/nisemonogatari.webp",
      "imagem_pasta": "https://animefire.plus/img/animes/nisemonogatari/",
      "secao": "legendados",
      "pagina": 148,
      "total_episodios": 1,
      "link_video": "https://animefire.plus/video/nisemonogatari"
    },
    {
      "id": 2750,
      "nome": "Nmeneko",
      "link": "https://animefire.plus/animes/nmeneko-todos-os-episodios",
      "texto_original": "Nmeneko",
      "rating": null,
      "classificacao_etaria": "A14",
      "imagem_original": "https://animefire.plus/img/animes/nmeneko.webp",
      "imagem_pasta": "https://animefire.plus/img/animes/nmeneko/",
      "secao": "legendados,lancamentos",
      "pagina": 4,
      "total_episodios": 0,
      "link_video": "https://animefire.plus/video/nmeneko"
    },
    {
      "id": 2751,
      "nome": "No Game No Life (Dublado)",
      "link": "https://animefire.plus/animes/no-game-no-life-dublado-todos-os-episodios",
      "texto_original": "No Game No Life (Dublado)",
      "rating": 8.29,
      "classificacao_etaria": "A14",
      "imagem_original": "https://animefire.plus/img/animes/no-game-no-life.webp",
      "imagem_pasta": "https://animefire.plus/img/animes/no-game-no-life/",
      "secao": "dublados,legendados",
      "pagina": 22,
      "total_episodios": 12,
      "link_video": "https://animefire.plus/video/no-game-no-life-dublado"
    },
    {
      "id": 2752,
      "nome": "No Game No Life Specials",
      "link": "https://animefire.plus/animes/no-game-no-life-specials-todos-os-episodios",
      "texto_original": "No Game No Life Specials",
      "rating": 6.76,
      "classificacao_etaria": "A14",
      "imagem_original": "https://animefire.plus/img/animes/no-game-no-life-specials.webp",
      "imagem_pasta": "https://animefire.plus/img/animes/no-game-no-life-specials/",
      "secao": "legendados",
      "pagina": 75,
      "total_episodios": 3,
      "link_video": "https://animefire.plus/video/no-game-no-life-specials"
    },
    {
      "id": 2753,
      "nome": "No Game No Life: Zero",
      "link": "https://animefire.plus/animes/no-game-no-life-zero-todos-os-episodios",
      "texto_original": "No Game No Life: Zero",
      "rating": 8.56,
      "classificacao_etaria": "A14",
      "imagem_original": "https://animefire.plus/img/animes/no-game-no-life-zero.webp",
      "imagem_pasta": "https://animefire.plus/img/animes/no-game-no-life-zero/",
      "secao": "legendados",
      "pagina": 105,
      "total_episodios": 4,
      "link_video": "https://animefire.plus/video/no-game-no-life-zero"
    },
    {
      "id": 2754,
      "nome": "No Guns Life",
      "link": "https://animefire.plus/animes/no-guns-life-todos-os-episodios",
      "texto_original": "No Guns Life",
      "rating": 6.89,
      "classificacao_etaria": "A14",
      "imagem_original": "https://animefire.plus/img/animes/no-guns-life.webp",
      "imagem_pasta": "https://animefire.plus/img/animes/no-guns-life/",
      "secao": "legendados",
      "pagina": 110,
      "total_episodios": 0,
      "link_video": "https://animefire.plus/video/no-guns-life"
    },
    {
      "id": 2755,
      "nome": "No Guns Life 2nd Season",
      "link": "https://animefire.plus/animes/no-guns-life-2nd-season-todos-os-episodios",
      "texto_original": "No Guns Life 2nd Season",
      "rating": null,
      "classificacao_etaria": "A14",
      "imagem_original": "https://animefire.plus/img/animes/no-guns-life-2nd-season.webp",
      "imagem_pasta": "https://animefire.plus/img/animes/no-guns-life-2nd-season/",
      "secao": "legendados",
      "pagina": 58,
      "total_episodios": 12,
      "link_video": "https://animefire.plus/video/no-guns-life-2nd-season"
    },
    {
      "id": 2756,
      "nome": "No.6",
      "link": "https://animefire.plus/animes/no-6-todos-os-episodios",
      "texto_original": "No.6",
      "rating": 7.69,
      "classificacao_etaria": "A16",
      "imagem_original": "https://animefire.plus/img/animes/no-6.webp",
      "imagem_pasta": "https://animefire.plus/img/animes/no-6/",
      "secao": "legendados",
      "pagina": 161,
      "total_episodios": 11,
      "link_video": "https://animefire.plus/video/no-6"
    },
    {
      "id": 2757,
      "nome": "Noblesse (Dublado)",
      "link": "https://animefire.plus/animes/noblesse-dublado-todos-os-episodios",
      "texto_original": "Noblesse (Dublado)",
      "rating": 6.6,
      "classificacao_etaria": "A16",
      "imagem_original": "https://animefire.plus/img/animes/noblesse.webp",
      "imagem_pasta": "https://animefire.plus/img/animes/noblesse/",
      "secao": "dublados,legendados",
      "pagina": 20,
      "total_episodios": 13,
      "link_video": "https://animefire.plus/video/noblesse-dublado"
    },
    {
      "id": 2758,
      "nome": "Noblesse: Awakening",
      "link": "https://animefire.plus/animes/noblesse-awakening-todos-os-episodios",
      "texto_original": "Noblesse: Awakening",
      "rating": 7.67,
      "classificacao_etaria": "A16",
      "imagem_original": "https://animefire.plus/img/animes/noblesse-awakening.webp",
      "imagem_pasta": "https://animefire.plus/img/animes/noblesse-awakening/",
      "secao": "legendados",
      "pagina": 153,
      "total_episodios": 1,
      "link_video": "https://animefire.plus/video/noblesse-awakening"
    },
    {
      "id": 2759,
      "nome": "Noblesse: Pamyeol-ui Sijak",
      "link": "https://animefire.plus/animes/noblesse-pamyeol-ui-sijak-todos-os-episodios",
      "texto_original": "Noblesse: Pamyeol-ui Sijak",
      "rating": 7.43,
      "classificacao_etaria": "A16",
      "imagem_original": "https://animefire.plus/img/animes/noblesse-pamyeol-ui-sijak.webp",
      "imagem_pasta": "https://animefire.plus/img/animes/noblesse-pamyeol-ui-sijak/",
      "secao": "legendados",
      "pagina": 51,
      "total_episodios": 1,
      "link_video": "https://animefire.plus/video/noblesse-pamyeol-ui-sijak"
    },
    {
      "id": 2760,
      "nome": "Nobunaga Concerto",
      "link": "https://animefire.plus/animes/nobunaga-concerto-todos-os-episodios",
      "texto_original": "Nobunaga Concerto",
      "rating": 7.69,
      "classificacao_etaria": "A14",
      "imagem_original": "https://animefire.plus/img/animes/nobunaga-concerto.webp",
      "imagem_pasta": "https://animefire.plus/img/animes/nobunaga-concerto/",
      "secao": "legendados",
      "pagina": 141,
      "total_episodios": 7,
      "link_video": "https://animefire.plus/video/nobunaga-concerto"
    },
    {
      "id": 2761,
      "nome": "Nobunaga No Shinobi",
      "link": "https://animefire.plus/animes/nobunaga-no-shinobi-todos-os-episodios",
      "texto_original": "Nobunaga No Shinobi",
      "rating": 7.09,
      "classificacao_etaria": "A14",
      "imagem_original": "https://animefire.plus/img/animes/nobunaga-no-shinobi.webp",
      "imagem_pasta": "https://animefire.plus/img/animes/nobunaga-no-shinobi/",
      "secao": "legendados",
      "pagina": 59,
      "total_episodios": 59,
      "link_video": "https://animefire.plus/video/nobunaga-no-shinobi"
    },
    {
      "id": 2762,
      "nome": "Nobunaga no Shinobi: Anegawa Ishiyama-hen",
      "link": "https://animefire.plus/animes/nobunaga-no-shinobi-anegawa-ishiyama-hen-todos-os-episodios",
      "texto_original": "Nobunaga no Shinobi: Anegawa Ishiyama-hen",
      "rating": 7.05,
      "classificacao_etaria": "A14",
      "imagem_original": "https://animefire.plus/img/animes/nobunaga-no-shinobi-anegawa-ishiyama-hen.webp",
      "imagem_pasta": "https://animefire.plus/img/animes/nobunaga-no-shinobi-anegawa-ishiyama-hen/",
      "secao": "legendados",
      "pagina": 124,
      "total_episodios": 20,
      "link_video": "https://animefire.plus/video/nobunaga-no-shinobi-anegawa-ishiyama-hen"
    },
    {
      "id": 2763,
      "nome": "Nobunaga the Fool",
      "link": "https://animefire.plus/animes/nobunaga-the-fool-todos-os-episodios",
      "texto_original": "Nobunaga the Fool",
      "rating": 6.76,
      "classificacao_etaria": "A16",
      "imagem_original": "https://animefire.plus/img/animes/nobunaga-the-fool.webp",
      "imagem_pasta": "https://animefire.plus/img/animes/nobunaga-the-fool/",
      "secao": "legendados",
      "pagina": 142,
      "total_episodios": 24,
      "link_video": "https://animefire.plus/video/nobunaga-the-fool"
    },
    {
      "id": 2764,
      "nome": "Nobunaga-sensei no Osanazuma",
      "link": "https://animefire.plus/animes/nobunaga-sensei-no-osanazuma-todos-os-episodios",
      "texto_original": "Nobunaga-sensei no Osanazuma",
      "rating": 5.28,
      "classificacao_etaria": "A18",
      "imagem_original": "https://animefire.plus/img/animes/nobunaga-sensei-no-osanazuma.webp",
      "imagem_pasta": "https://animefire.plus/img/animes/nobunaga-sensei-no-osanazuma/",
      "secao": "legendados",
      "pagina": 136,
      "total_episodios": 0,
      "link_video": "https://animefire.plus/video/nobunaga-sensei-no-osanazuma"
    },
    {
      "id": 2765,
      "nome": "Nobunagun",
      "link": "https://animefire.plus/animes/nobunagun-todos-os-episodios",
      "texto_original": "Nobunagun",
      "rating": 6.77,
      "classificacao_etaria": "A16",
      "imagem_original": "https://animefire.plus/img/animes/nobunagun.webp",
      "imagem_pasta": "https://animefire.plus/img/animes/nobunagun/",
      "secao": "legendados",
      "pagina": 171,
      "total_episodios": 13,
      "link_video": "https://animefire.plus/video/nobunagun"
    },
    {
      "id": 2766,
      "nome": "Nodame Cantabile (Dublado)",
      "link": "https://animefire.plus/animes/nodame-cantabile-dublado-todos-os-episodios",
      "texto_original": "Nodame Cantabile (Dublado)",
      "rating": 8.38,
      "classificacao_etaria": "A14",
      "imagem_original": "https://animefire.plus/img/animes/nodame-cantabile.webp",
      "imagem_pasta": "https://animefire.plus/img/animes/nodame-cantabile/",
      "secao": "dublados,legendados",
      "pagina": 27,
      "total_episodios": 22,
      "link_video": "https://animefire.plus/video/nodame-cantabile-dublado"
    },
    {
      "id": 2767,
      "nome": "Nodame Cantabile: Finale",
      "link": "https://animefire.plus/animes/nodame-cantabile-finale-todos-os-episodios",
      "texto_original": "Nodame Cantabile: Finale",
      "rating": 8.32,
      "classificacao_etaria": "A14",
      "imagem_original": "https://animefire.plus/img/animes/nodame-cantabile-finale.webp",
      "imagem_pasta": "https://animefire.plus/img/animes/nodame-cantabile-finale/",
      "secao": "legendados",
      "pagina": 177,
      "total_episodios": 11,
      "link_video": "https://animefire.plus/video/nodame-cantabile-finale"
    }
  ],
  "pagination": {
    "current_page": 135,
    "per_page": 20,
    "total_items": 4269,
    "total_pages": 214,
    "has_next": true,
    "has_prev": true
  }
}
