{
  "message": "Animes da seção: legendados",
  "section": "legendados",
  "data": [
    {
      "id": 542,
      "nome": "Buzzer Beater 2nd Season",
      "link": "https://animefire.plus/animes/buzzer-beater-2nd-season-todos-os-episodios",
      "texto_original": "Buzzer Beater 2nd Season",
      "rating": 6.86,
      "classificacao_etaria": "A14",
      "imagem_original": "https://animefire.plus/img/animes/buzzer-beater-2nd-season.webp",
      "imagem_pasta": "https://animefire.plus/img/animes/buzzer-beater-2nd-season/",
      "secao": "legendados",
      "pagina": 75,
      "total_episodios": 13,
      "link_video": "https://animefire.plus/video/buzzer-beater-2nd-season"
    },
    {
      "id": 543,
      "nome": "Bye Bye, Earth",
      "link": "https://animefire.plus/animes/bye-bye-earth-todos-os-episodios",
      "texto_original": "Bye Bye, Earth",
      "rating": 6.06,
      "classificacao_etaria": "A14",
      "imagem_original": "https://animefire.plus/img/animes/bye-bye-earth.webp",
      "imagem_pasta": "https://animefire.plus/img/animes/bye-bye-earth/",
      "secao": "legendados",
      "pagina": 12,
      "total_episodios": 10,
      "link_video": "https://animefire.plus/video/bye-bye-earth"
    },
    {
      "id": 544,
      "nome": "Bye Bye, Earth 2nd Season",
      "link": "https://animefire.plus/animes/bye-bye-earth-2nd-season-todos-os-episodios",
      "texto_original": "Bye Bye, Earth 2nd Season",
      "rating": 6.2,
      "classificacao_etaria": "A14",
      "imagem_original": "https://animefire.plus/img/animes/bye-bye-earth-2nd-season.webp",
      "imagem_pasta": "https://animefire.plus/img/animes/bye-bye-earth-2nd-season/",
      "secao": "legendados",
      "pagina": 5,
      "total_episodios": 10,
      "link_video": "https://animefire.plus/video/bye-bye-earth-2nd-season"
    },
    {
      "id": 545,
      "nome": "C Danchi (Dublado)",
      "link": "https://animefire.plus/animes/c-danchi-dublado-todos-os-episodios",
      "texto_original": "C Danchi (Dublado)",
      "rating": 5.44,
      "classificacao_etaria": "A16",
      "imagem_original": "https://animefire.plus/img/animes/c-danchi.webp",
      "imagem_pasta": "https://animefire.plus/img/animes/c-danchi/",
      "secao": "dublados,legendados",
      "pagina": 9,
      "total_episodios": 4,
      "link_video": "https://animefire.plus/video/c-danchi-dublado"
    },
    {
      "id": 546,
      "nome": "C: The Money Of Soul And Possibility Control",
      "link": "https://animefire.plus/animes/c-the-money-of-soul-and-possibility-control-todos-os-episodios",
      "texto_original": "C: The Money Of Soul And Possibility Control",
      "rating": 7.33,
      "classificacao_etaria": "A14",
      "imagem_original": "https://animefire.plus/img/animes/c-the-money-of-soul-and-possibility-control.webp",
      "imagem_pasta": "https://animefire.plus/img/animes/c-the-money-of-soul-and-possibility-control/",
      "secao": "legendados",
      "pagina": 96,
      "total_episodios": 11,
      "link_video": "https://animefire.plus/video/c-the-money-of-soul-and-possibility-control"
    },
    {
      "id": 547,
      "nome": "Caligula",
      "link": "https://animefire.plus/animes/caligula-todos-os-episodios",
      "texto_original": "Caligula",
      "rating": 6.17,
      "classificacao_etaria": "A14",
      "imagem_original": "https://animefire.plus/img/animes/caligula.webp",
      "imagem_pasta": "https://animefire.plus/img/animes/caligula/",
      "secao": "legendados",
      "pagina": 117,
      "total_episodios": 12,
      "link_video": "https://animefire.plus/video/caligula"
    },
    {
      "id": 548,
      "nome": "Campione!: Matsurowanu Kamigami to Kamigoroshi no Maou",
      "link": "https://animefire.plus/animes/campione-matsurowanu-kamigami-to-kamigoroshi-no-maou-todos-os-episodios",
      "texto_original": "Campione!: Matsurowanu Kamigami to Kamigoroshi no Maou",
      "rating": 7.23,
      "classificacao_etaria": "A14",
      "imagem_original": "https://animefire.plus/img/animes/campione-matsurowanu-kamigami-to-kamigoroshi-no-maou.webp",
      "imagem_pasta": "https://animefire.plus/img/animes/campione-matsurowanu-kamigami-to-kamigoroshi-no-maou/",
      "secao": "legendados",
      "pagina": 128,
      "total_episodios": 0,
      "link_video": "https://animefire.plus/video/campione-matsurowanu-kamigami-to-kamigoroshi-no-maou"
    },
    {
      "id": 549,
      "nome": "Canaan",
      "link": "https://animefire.plus/animes/canaan-todos-os-episodios",
      "texto_original": "Canaan",
      "rating": 7.33,
      "classificacao_etaria": "A16",
      "imagem_original": "https://animefire.plus/img/animes/canaan.webp",
      "imagem_pasta": "https://animefire.plus/img/animes/canaan/",
      "secao": "legendados",
      "pagina": 137,
      "total_episodios": 13,
      "link_video": "https://animefire.plus/video/canaan"
    },
    {
      "id": 550,
      "nome": "Candy Boy Episode: EX01 - Mirai Yohouzu",
      "link": "https://animefire.plus/animes/candy-boy-episode-ex01---mirai-yohouzu-todos-os-episodios",
      "texto_original": "Candy Boy Episode: EX01 - Mirai Yohouzu",
      "rating": 6.89,
      "classificacao_etaria": "A14",
      "imagem_original": "https://animefire.plus/img/animes/candy-boy-episode-ex01---mirai-yohouzu.webp",
      "imagem_pasta": "https://animefire.plus/img/animes/candy-boy-episode-ex01---mirai-yohouzu/",
      "secao": "legendados",
      "pagina": 63,
      "total_episodios": 1,
      "link_video": "https://animefire.plus/video/candy-boy-episode-ex01---mirai-yohouzu"
    },
    {
      "id": 551,
      "nome": "Candy Boy Episode: EX02 - Shiawase Kyouyuu Riron",
      "link": "https://animefire.plus/animes/candy-boy-episode-ex02---shiawase-kyouyuu-riron-todos-os-episodios",
      "texto_original": "Candy Boy Episode: EX02 - Shiawase Kyouyuu Riron",
      "rating": 6.85,
      "classificacao_etaria": "A14",
      "imagem_original": "https://animefire.plus/img/animes/candy-boy-episode-ex02---shiawase-kyouyuu-riron.webp",
      "imagem_pasta": "https://animefire.plus/img/animes/candy-boy-episode-ex02---shiawase-kyouyuu-riron/",
      "secao": "legendados",
      "pagina": 63,
      "total_episodios": 1,
      "link_video": "https://animefire.plus/video/candy-boy-episode-ex02---shiawase-kyouyuu-riron"
    },
    {
      "id": 552,
      "nome": "Candy Boy: Nonchalant Talk of the Certain Twin Sisters in Daily Life",
      "link": "https://animefire.plus/animes/candy-boy-nonchalant-talk-of-the-certain-twin-sisters-in-daily-life-todos-os-episodios",
      "texto_original": "Candy Boy: Nonchalant Talk of the Certain Twin Sisters in Daily Life",
      "rating": 6.98,
      "classificacao_etaria": "A14",
      "imagem_original": "https://animefire.plus/img/animes/candy-boy-nonchalant-talk-of-the-certain-twin-sisters-in-daily-life.webp",
      "imagem_pasta": "https://animefire.plus/img/animes/candy-boy-nonchalant-talk-of-the-certain-twin-sisters-in-daily-life/",
      "secao": "legendados",
      "pagina": 118,
      "total_episodios": 0,
      "link_video": "https://animefire.plus/video/candy-boy-nonchalant-talk-of-the-certain-twin-sisters-in-daily-life"
    },
    {
      "id": 553,
      "nome": "Candy☆Boy: Side Story For Archive",
      "link": "https://animefire.plus/animes/candy-boy-side-story-for-archive-todos-os-episodios",
      "texto_original": "Candy☆Boy: Side Story For Archive",
      "rating": 6.88,
      "classificacao_etaria": "A14",
      "imagem_original": "https://animefire.plus/img/animes/candy-boy-side-story-for-archive.webp",
      "imagem_pasta": "https://animefire.plus/img/animes/candy-boy-side-story-for-archive/",
      "secao": "legendados",
      "pagina": 63,
      "total_episodios": 1,
      "link_video": "https://animefire.plus/video/candy-boy-side-story-for-archive"
    },
    {
      "id": 554,
      "nome": "Cannon Busters",
      "link": "https://animefire.plus/animes/cannon-busters-todos-os-episodios",
      "texto_original": "Cannon Busters",
      "rating": 6.47,
      "classificacao_etaria": "A16",
      "imagem_original": "https://animefire.plus/img/animes/cannon-busters.webp",
      "imagem_pasta": "https://animefire.plus/img/animes/cannon-busters/",
      "secao": "legendados",
      "pagina": 170,
      "total_episodios": 12,
      "link_video": "https://animefire.plus/video/cannon-busters"
    },
    {
      "id": 555,
      "nome": "Capeta",
      "link": "https://animefire.plus/animes/capeta-todos-os-episodios",
      "texto_original": "Capeta",
      "rating": 7.84,
      "classificacao_etaria": "A10",
      "imagem_original": "https://animefire.plus/img/animes/capeta.webp",
      "imagem_pasta": "https://animefire.plus/img/animes/capeta/",
      "secao": "legendados",
      "pagina": 55,
      "total_episodios": 52,
      "link_video": "https://animefire.plus/video/capeta"
    },
    {
      "id": 556,
      "nome": "Captain Earth",
      "link": "https://animefire.plus/animes/captain-earth-todos-os-episodios",
      "texto_original": "Captain Earth",
      "rating": 6.46,
      "classificacao_etaria": "A14",
      "imagem_original": "https://animefire.plus/img/animes/captain-earth.webp",
      "imagem_pasta": "https://animefire.plus/img/animes/captain-earth/",
      "secao": "legendados",
      "pagina": 124,
      "total_episodios": 25,
      "link_video": "https://animefire.plus/video/captain-earth"
    },
    {
      "id": 557,
      "nome": "Captain Tsubasa",
      "link": "https://animefire.plus/animes/captain-tsubasa-todos-os-episodios",
      "texto_original": "Captain Tsubasa",
      "rating": 7.31,
      "classificacao_etaria": null,
      "imagem_original": "https://animefire.plus/img/animes/captain-tsubasa.webp",
      "imagem_pasta": "https://animefire.plus/img/animes/captain-tsubasa/",
      "secao": "legendados",
      "pagina": 59,
      "total_episodios": 46,
      "link_video": "https://animefire.plus/video/captain-tsubasa"
    },
    {
      "id": 558,
      "nome": "Captain Tsubasa (2018) (Dublado)",
      "link": "https://animefire.plus/animes/captain-tsubasa-2018-dublado-todos-os-episodios",
      "texto_original": "Captain Tsubasa (2018) (Dublado)",
      "rating": 7.46,
      "classificacao_etaria": null,
      "imagem_original": "https://animefire.plus/img/animes/captain-tsubasa-2018.webp",
      "imagem_pasta": "https://animefire.plus/img/animes/captain-tsubasa-2018/",
      "secao": "dublados,legendados",
      "pagina": 21,
      "total_episodios": 52,
      "link_video": "https://animefire.plus/video/captain-tsubasa-2018-dublado"
    },
    {
      "id": 559,
      "nome": "Captain Tsubasa Season 2: Junior Youth-hen (Dublado)",
      "link": "https://animefire.plus/animes/captain-tsubasa-season-2-junior-youth-hen-dublado-todos-os-episodios",
      "texto_original": "Captain Tsubasa Season 2: Junior Youth-hen (Dublado)",
      "rating": 7.43,
      "classificacao_etaria": null,
      "imagem_original": "https://animefire.plus/img/animes/captain-tsubasa-season-2-junior-youth-hen.webp",
      "imagem_pasta": "https://animefire.plus/img/animes/captain-tsubasa-season-2-junior-youth-hen/",
      "secao": "dublados,legendados",
      "pagina": 4,
      "total_episodios": 39,
      "link_video": "https://animefire.plus/video/captain-tsubasa-season-2-junior-youth-hen-dublado"
    },
    {
      "id": 560,
      "nome": "Caramel Honey",
      "link": "https://animefire.plus/animes/caramel-honey-todos-os-episodios",
      "texto_original": "Caramel Honey",
      "rating": 6.86,
      "classificacao_etaria": "A14",
      "imagem_original": "https://animefire.plus/img/animes/caramel-honey.webp",
      "imagem_pasta": "https://animefire.plus/img/animes/caramel-honey/",
      "secao": "legendados",
      "pagina": 59,
      "total_episodios": 3,
      "link_video": "https://animefire.plus/video/caramel-honey"
    },
    {
      "id": 562,
      "nome": "Cardcaptor Sakura: Clear Card-hen",
      "link": "https://animefire.plus/animes/cardcaptor-sakura-clear-card-hen-todos-os-episodios",
      "texto_original": "Cardcaptor Sakura: Clear Card-hen",
      "rating": 7.87,
      "classificacao_etaria": "A10",
      "imagem_original": "https://animefire.plus/img/animes/cardcaptor-sakura-clear-card-hen.webp",
      "imagem_pasta": "https://animefire.plus/img/animes/cardcaptor-sakura-clear-card-hen/",
      "secao": "legendados",
      "pagina": 106,
      "total_episodios": 22,
      "link_video": "https://animefire.plus/video/cardcaptor-sakura-clear-card-hen"
    }
  ],
  "pagination": {
    "current_page": 27,
    "per_page": 20,
    "total_items": 4269,
    "total_pages": 214,
    "has_next": true,
    "has_prev": true
  }
}
