{
  "message": "Animes da seção: legendados",
  "section": "legendados",
  "data": [
    {
      "id": 1203,
      "nome": "Goblin Slayer (Dublado)",
      "link": "https://animefire.plus/animes/goblin-slayer-dublado-todos-os-episodios",
      "texto_original": "Goblin Slayer (Dublado)",
      "rating": 7.42,
      "classificacao_etaria": "A16",
      "imagem_original": "https://animefire.plus/img/animes/goblin-slayer.webp",
      "imagem_pasta": "https://animefire.plus/img/animes/goblin-slayer/",
      "secao": "dublados,legendados",
      "pagina": 2,
      "total_episodios": 0,
      "link_video": "https://animefire.plus/video/goblin-slayer-dublado"
    },
    {
      "id": 1204,
      "nome": "Goblin Slayer II (Dublado)",
      "link": "https://animefire.plus/animes/goblin-slayer-ii-dublado-todos-os-episodios",
      "texto_original": "Goblin Slayer II (Dublado)",
      "rating": 7.21,
      "classificacao_etaria": "A16",
      "imagem_original": "https://animefire.plus/img/animes/goblin-slayer-ii.webp",
      "imagem_pasta": "https://animefire.plus/img/animes/goblin-slayer-ii/",
      "secao": "dublados,legendados",
      "pagina": 5,
      "total_episodios": 12,
      "link_video": "https://animefire.plus/video/goblin-slayer-ii-dublado"
    },
    {
      "id": 1205,
      "nome": "Gochuumon wa Usagi Desu ka?",
      "link": "https://animefire.plus/animes/gochuumon-wa-usagi-desu-ka-todos-os-episodios",
      "texto_original": "Gochuumon wa Usagi Desu ka?",
      "rating": 7.58,
      "classificacao_etaria": "A14",
      "imagem_original": "https://animefire.plus/img/animes/gochuumon-wa-usagi-desu-ka.webp",
      "imagem_pasta": "https://animefire.plus/img/animes/gochuumon-wa-usagi-desu-ka/",
      "secao": "legendados",
      "pagina": 172,
      "total_episodios": 13,
      "link_video": "https://animefire.plus/video/gochuumon-wa-usagi-desu-ka"
    },
    {
      "id": 1206,
      "nome": "Gochuumon wa Usagi Desu ka? BLOOM",
      "link": "https://animefire.plus/animes/gochuumon-wa-usagi-desu-ka-bloom-todos-os-episodios",
      "texto_original": "Gochuumon wa Usagi Desu ka? BLOOM",
      "rating": null,
      "classificacao_etaria": "A14",
      "imagem_original": "https://animefire.plus/img/animes/gochuumon-wa-usagi-desu-ka-bloom.webp",
      "imagem_pasta": "https://animefire.plus/img/animes/gochuumon-wa-usagi-desu-ka-bloom/",
      "secao": "legendados",
      "pagina": 51,
      "total_episodios": 12,
      "link_video": "https://animefire.plus/video/gochuumon-wa-usagi-desu-ka-bloom"
    },
    {
      "id": 1207,
      "nome": "Gochuumon wa Usagi Desu ka??",
      "link": "https://animefire.plus/animes/is-the-order-a-rabbit-todos-os-episodios",
      "texto_original": "Gochuumon wa Usagi Desu ka??",
      "rating": 7.84,
      "classificacao_etaria": "A14",
      "imagem_original": "https://animefire.plus/img/animes/is-the-order-a-rabbit.webp",
      "imagem_pasta": "https://animefire.plus/img/animes/is-the-order-a-rabbit/",
      "secao": "legendados",
      "pagina": 51,
      "total_episodios": 12,
      "link_video": "https://animefire.plus/video/is-the-order-a-rabbit"
    },
    {
      "id": 1208,
      "nome": "Gochuumon wa Usagi Desu ka??: Sing for You",
      "link": "https://animefire.plus/animes/gochuumon-wa-usagi-desu-ka-sing-for-you-todos-os-episodios",
      "texto_original": "Gochuumon wa Usagi Desu ka??: Sing for You",
      "rating": 7.73,
      "classificacao_etaria": "A14",
      "imagem_original": "https://animefire.plus/img/animes/gochuumon-wa-usagi-desu-ka-sing-for-you.webp",
      "imagem_pasta": "https://animefire.plus/img/animes/gochuumon-wa-usagi-desu-ka-sing-for-you/",
      "secao": "legendados",
      "pagina": 88,
      "total_episodios": 1,
      "link_video": "https://animefire.plus/video/gochuumon-wa-usagi-desu-ka-sing-for-you"
    },
    {
      "id": 1209,
      "nome": "God Eater",
      "link": "https://animefire.plus/animes/god-eater-todos-os-episodios",
      "texto_original": "God Eater",
      "rating": 7.37,
      "classificacao_etaria": "A16",
      "imagem_original": "https://animefire.plus/img/animes/god-eater.webp",
      "imagem_pasta": "https://animefire.plus/img/animes/god-eater/",
      "secao": "legendados",
      "pagina": 73,
      "total_episodios": 13,
      "link_video": "https://animefire.plus/video/god-eater"
    },
    {
      "id": 1210,
      "nome": "Godzilla: S.P (Dublado)",
      "link": "https://animefire.plus/animes/godzilla-s-p-dublado-todos-os-episodios",
      "texto_original": "Godzilla: S.P (Dublado)",
      "rating": 6.65,
      "classificacao_etaria": "A14",
      "imagem_original": "https://animefire.plus/img/animes/godzilla-s-p.webp",
      "imagem_pasta": "https://animefire.plus/img/animes/godzilla-s-p/",
      "secao": "dublados,legendados",
      "pagina": 17,
      "total_episodios": 13,
      "link_video": "https://animefire.plus/video/godzilla-s-p-dublado"
    },
    {
      "id": 1211,
      "nome": "Gokinjo Monogatari",
      "link": "https://animefire.plus/animes/gokinjo-monogatari-todos-os-episodios",
      "texto_original": "Gokinjo Monogatari",
      "rating": 7.46,
      "classificacao_etaria": "A14",
      "imagem_original": "https://animefire.plus/img/animes/gokinjo-monogatari.webp",
      "imagem_pasta": "https://animefire.plus/img/animes/gokinjo-monogatari/",
      "secao": "legendados",
      "pagina": 77,
      "total_episodios": 50,
      "link_video": "https://animefire.plus/video/gokinjo-monogatari"
    },
    {
      "id": 1212,
      "nome": "Gokujo.: Gokurakuin Joshikou Ryou Monogatari",
      "link": "https://animefire.plus/animes/gokujo-gokurakuin-joshikou-ryou-monogatari-todos-os-episodios",
      "texto_original": "Gokujo.: Gokurakuin Joshikou Ryou Monogatari",
      "rating": 6.21,
      "classificacao_etaria": "A14",
      "imagem_original": "https://animefire.plus/img/animes/gokujo-gokurakuin-joshikou-ryou-monogatari.webp",
      "imagem_pasta": "https://animefire.plus/img/animes/gokujo-gokurakuin-joshikou-ryou-monogatari/",
      "secao": "legendados",
      "pagina": 76,
      "total_episodios": 12,
      "link_video": "https://animefire.plus/video/gokujo-gokurakuin-joshikou-ryou-monogatari"
    },
    {
      "id": 1213,
      "nome": "Gokujou!! Mecha Mote Iinchou Second Collection",
      "link": "https://animefire.plus/animes/gokujou-mecha-mote-iinchou-second-collection-todos-os-episodios",
      "texto_original": "Gokujou!! Mecha Mote Iinchou Second Collection",
      "rating": 6.51,
      "classificacao_etaria": "A10",
      "imagem_original": "https://animefire.plus/img/animes/gokujou-mecha-mote-iinchou-second-collection.webp",
      "imagem_pasta": "https://animefire.plus/img/animes/gokujou-mecha-mote-iinchou-second-collection/",
      "secao": "legendados",
      "pagina": 113,
      "total_episodios": 51,
      "link_video": "https://animefire.plus/video/gokujou-mecha-mote-iinchou-second-collection"
    },
    {
      "id": 1214,
      "nome": "Gokukoku no Brynhildr",
      "link": "https://animefire.plus/animes/gokukoku-no-brynhildr-todos-os-episodios",
      "texto_original": "Gokukoku no Brynhildr",
      "rating": 7.03,
      "classificacao_etaria": "A18",
      "imagem_original": "https://animefire.plus/img/animes/gokukoku-no-brynhildr.webp",
      "imagem_pasta": "https://animefire.plus/img/animes/gokukoku-no-brynhildr/",
      "secao": "legendados",
      "pagina": 113,
      "total_episodios": 13,
      "link_video": "https://animefire.plus/video/gokukoku-no-brynhildr"
    },
    {
      "id": 1215,
      "nome": "Gokusen",
      "link": "https://animefire.plus/animes/gokusen-todos-os-episodios",
      "texto_original": "Gokusen",
      "rating": 7.46,
      "classificacao_etaria": "A16",
      "imagem_original": "https://animefire.plus/img/animes/gokusen.webp",
      "imagem_pasta": "https://animefire.plus/img/animes/gokusen/",
      "secao": "legendados",
      "pagina": 100,
      "total_episodios": 13,
      "link_video": "https://animefire.plus/video/gokusen"
    },
    {
      "id": 1216,
      "nome": "Gokushufudou (Dublado)",
      "link": "https://animefire.plus/animes/gokushufudou-dublado-todos-os-episodios",
      "texto_original": "Gokushufudou (Dublado)",
      "rating": 7.26,
      "classificacao_etaria": "A14",
      "imagem_original": "https://animefire.plus/img/animes/gokushufudou.webp",
      "imagem_pasta": "https://animefire.plus/img/animes/gokushufudou/",
      "secao": "dublados,legendados",
      "pagina": 18,
      "total_episodios": 6,
      "link_video": "https://animefire.plus/video/gokushufudou-dublado"
    },
    {
      "id": 1217,
      "nome": "Gokushufudou Part 2 (Dublado)",
      "link": "https://animefire.plus/animes/gokushufudou-part-2-dublado-todos-os-episodios",
      "texto_original": "Gokushufudou Part 2 (Dublado)",
      "rating": 7.54,
      "classificacao_etaria": "A14",
      "imagem_original": "https://animefire.plus/img/animes/gokushufudou-part-2.webp",
      "imagem_pasta": "https://animefire.plus/img/animes/gokushufudou-part-2/",
      "secao": "dublados,legendados",
      "pagina": 15,
      "total_episodios": 5,
      "link_video": "https://animefire.plus/video/gokushufudou-part-2-dublado"
    },
    {
      "id": 1218,
      "nome": "Gokushufudou Season 2 (Dublado)",
      "link": "https://animefire.plus/animes/gokushufudou-season-2-dublado-todos-os-episodios",
      "texto_original": "Gokushufudou Season 2 (Dublado)",
      "rating": 7.57,
      "classificacao_etaria": "A14",
      "imagem_original": "https://animefire.plus/img/animes/gokushufudou-season-2.webp",
      "imagem_pasta": "https://animefire.plus/img/animes/gokushufudou-season-2/",
      "secao": "dublados,legendados",
      "pagina": 8,
      "total_episodios": 5,
      "link_video": "https://animefire.plus/video/gokushufudou-season-2-dublado"
    },
    {
      "id": 1219,
      "nome": "Golden Boy",
      "link": "https://animefire.plus/animes/golden-boy-todos-os-episodios",
      "texto_original": "Golden Boy",
      "rating": 8.05,
      "classificacao_etaria": "A18",
      "imagem_original": "https://animefire.plus/img/animes/golden-boy.webp",
      "imagem_pasta": "https://animefire.plus/img/animes/golden-boy/",
      "secao": "legendados",
      "pagina": 101,
      "total_episodios": 6,
      "link_video": "https://animefire.plus/video/golden-boy"
    },
    {
      "id": 1220,
      "nome": "Golden Kamuy",
      "link": "https://animefire.plus/animes/golden-kamuy-todos-os-episodios",
      "texto_original": "Golden Kamuy",
      "rating": 7.8,
      "classificacao_etaria": "A16",
      "imagem_original": "https://animefire.plus/img/animes/golden-kamuy.webp",
      "imagem_pasta": "https://animefire.plus/img/animes/golden-kamuy/",
      "secao": "legendados",
      "pagina": 140,
      "total_episodios": 12,
      "link_video": "https://animefire.plus/video/golden-kamuy"
    },
    {
      "id": 1221,
      "nome": "Golden Kamuy 2nd Season",
      "link": "https://animefire.plus/animes/golden-kamuy-2nd-season-todos-os-episodios",
      "texto_original": "Golden Kamuy 2nd Season",
      "rating": 8.17,
      "classificacao_etaria": "A16",
      "imagem_original": "https://animefire.plus/img/animes/golden-kamuy-2nd-season.webp",
      "imagem_pasta": "https://animefire.plus/img/animes/golden-kamuy-2nd-season/",
      "secao": "legendados",
      "pagina": 179,
      "total_episodios": 12,
      "link_video": "https://animefire.plus/video/golden-kamuy-2nd-season"
    },
    {
      "id": 1222,
      "nome": "Golden Kamuy 2nd Season OVA",
      "link": "https://animefire.plus/animes/golden-kamuy-2nd-season-ova-todos-os-episodios",
      "texto_original": "Golden Kamuy 2nd Season OVA",
      "rating": 7.44,
      "classificacao_etaria": "A16",
      "imagem_original": "https://animefire.plus/img/animes/golden-kamuy-2nd-season-ova.webp",
      "imagem_pasta": "https://animefire.plus/img/animes/golden-kamuy-2nd-season-ova/",
      "secao": "legendados",
      "pagina": 84,
      "total_episodios": 2,
      "link_video": "https://animefire.plus/video/golden-kamuy-2nd-season-ova"
    }
  ],
  "pagination": {
    "current_page": 59,
    "per_page": 20,
    "total_items": 4269,
    "total_pages": 214,
    "has_next": true,
    "has_prev": true
  }
}
