{
  "message": "Animes da seção: legendados",
  "section": "legendados",
  "data": [
    {
      "id": 1263,
      "nome": "Guardian Hearts-Power UP!",
      "link": "https://animefire.plus/animes/guardian-hearts-power-up-todos-os-episodios",
      "texto_original": "Guardian Hearts-Power UP!",
      "rating": 5.94,
      "classificacao_etaria": "A16",
      "imagem_original": "https://animefire.plus/img/animes/guardian-hearts-power-up.webp",
      "imagem_pasta": "https://animefire.plus/img/animes/guardian-hearts-power-up/",
      "secao": "legendados",
      "pagina": 70,
      "total_episodios": 2,
      "link_video": "https://animefire.plus/video/guardian-hearts-power-up"
    },
    {
      "id": 1264,
      "nome": "Gugure! Kokkuri-san",
      "link": "https://animefire.plus/animes/gugure-kokkuri-san-todos-os-episodios",
      "texto_original": "Gugure! Kokkuri-san",
      "rating": 7.64,
      "classificacao_etaria": "A14",
      "imagem_original": "https://animefire.plus/img/animes/gugure-kokkuri-san.webp",
      "imagem_pasta": "https://animefire.plus/img/animes/gugure-kokkuri-san/",
      "secao": "legendados",
      "pagina": 146,
      "total_episodios": 7,
      "link_video": "https://animefire.plus/video/gugure-kokkuri-san"
    },
    {
      "id": 1265,
      "nome": "Gugure! Kokkuri-san Specials",
      "link": "https://animefire.plus/animes/gugure-kokkuri-san-specials-todos-os-episodios",
      "texto_original": "Gugure! Kokkuri-san Specials",
      "rating": 7.23,
      "classificacao_etaria": "A14",
      "imagem_original": "https://animefire.plus/img/animes/gugure-kokkuri-san-specials.webp",
      "imagem_pasta": "https://animefire.plus/img/animes/gugure-kokkuri-san-specials/",
      "secao": "legendados",
      "pagina": 84,
      "total_episodios": 4,
      "link_video": "https://animefire.plus/video/gugure-kokkuri-san-specials"
    },
    {
      "id": 1266,
      "nome": "Guild no Uketsukejou desu ga, Zangyou wa Iya nanode Boss wo Solo Toubatsu Shiyou to Omoimasu",
      "link": "https://animefire.plus/animes/guild-no-uketsukejou-desu-ga-zangyou-wa-iya-nanode-boss-wo-solo-toubatsu-shiyou-to-omoimasu-todos-os-episodios",
      "texto_original": "Guild no Uketsukejou desu ga, Zangyou wa Iya nanode Boss wo Solo Toubatsu Shiyou to Omoimasu",
      "rating": 6.66,
      "classificacao_etaria": "A14",
      "imagem_original": "https://animefire.plus/img/animes/guild-no-uketsukejou-desu-ga-zangyou-wa-iya-nanode-boss-wo-solo-toubatsu-shiyou-to-omoimasu.webp",
      "imagem_pasta": "https://animefire.plus/img/animes/guild-no-uketsukejou-desu-ga-zangyou-wa-iya-nanode-boss-wo-solo-toubatsu-shiyou-to-omoimasu/",
      "secao": "legendados",
      "pagina": 8,
      "total_episodios": 12,
      "link_video": "https://animefire.plus/video/guild-no-uketsukejou-desu-ga-zangyou-wa-iya-nanode-boss-wo-solo-toubatsu-shiyou-to-omoimasu"
    },
    {
      "id": 1267,
      "nome": "Guilty Crown",
      "link": "https://animefire.plus/animes/guilty-crown-todos-os-episodios",
      "texto_original": "Guilty Crown",
      "rating": 7.68,
      "classificacao_etaria": "A16",
      "imagem_original": "https://animefire.plus/img/animes/guilty-crown.webp",
      "imagem_pasta": "https://animefire.plus/img/animes/guilty-crown/",
      "secao": "legendados",
      "pagina": 127,
      "total_episodios": 22,
      "link_video": "https://animefire.plus/video/guilty-crown"
    },
    {
      "id": 1268,
      "nome": "Guilty Crown: 4-koma Gekijou",
      "link": "https://animefire.plus/animes/guilty-crown-4-koma-gekijou-todos-os-episodios",
      "texto_original": "Guilty Crown: 4-koma Gekijou",
      "rating": 7.07,
      "classificacao_etaria": "A16",
      "imagem_original": "https://animefire.plus/img/animes/guilty-crown-4-koma-gekijou.webp",
      "imagem_pasta": "https://animefire.plus/img/animes/guilty-crown-4-koma-gekijou/",
      "secao": "legendados",
      "pagina": 88,
      "total_episodios": 0,
      "link_video": "https://animefire.plus/video/guilty-crown-4-koma-gekijou"
    },
    {
      "id": 1269,
      "nome": "Guilty Gear Strive: Dual Rulers",
      "link": "https://animefire.plus/animes/guilty-gear-strive-dual-rulers-todos-os-episodios",
      "texto_original": "Guilty Gear Strive: Dual Rulers",
      "rating": 5.94,
      "classificacao_etaria": "A14",
      "imagem_original": "https://animefire.plus/img/animes/guilty-gear-strive-dual-rulers.webp",
      "imagem_pasta": "https://animefire.plus/img/animes/guilty-gear-strive-dual-rulers/",
      "secao": "legendados",
      "pagina": 5,
      "total_episodios": 8,
      "link_video": "https://animefire.plus/video/guilty-gear-strive-dual-rulers"
    },
    {
      "id": 1270,
      "nome": "Guimi Zhi Zhu: Xiaochou Pian",
      "link": "https://animefire.plus/animes/guimi-zhi-zhu-xiaochou-pian-todos-os-episodios",
      "texto_original": "Guimi Zhi Zhu: Xiaochou Pian",
      "rating": 8.46,
      "classificacao_etaria": "A16",
      "imagem_original": "https://animefire.plus/img/animes/guimi-zhi-zhu-xiaochou-pian.webp",
      "imagem_pasta": "https://animefire.plus/img/animes/guimi-zhi-zhu-xiaochou-pian/",
      "secao": "legendados,lancamentos",
      "pagina": 1,
      "total_episodios": 7,
      "link_video": "https://animefire.plus/video/guimi-zhi-zhu-xiaochou-pian"
    },
    {
      "id": 1271,
      "nome": "Guin Saga",
      "link": "https://animefire.plus/animes/guin-saga-todos-os-episodios",
      "texto_original": "Guin Saga",
      "rating": 7.22,
      "classificacao_etaria": "A14",
      "imagem_original": "https://animefire.plus/img/animes/guin-saga.webp",
      "imagem_pasta": "https://animefire.plus/img/animes/guin-saga/",
      "secao": "legendados",
      "pagina": 64,
      "total_episodios": 26,
      "link_video": "https://animefire.plus/video/guin-saga"
    },
    {
      "id": 1272,
      "nome": "Gun Frontier",
      "link": "https://animefire.plus/animes/gun-frontier-todos-os-episodios",
      "texto_original": "Gun Frontier",
      "rating": 6.63,
      "classificacao_etaria": "A14",
      "imagem_original": "https://animefire.plus/img/animes/gun-frontier.webp",
      "imagem_pasta": "https://animefire.plus/img/animes/gun-frontier/",
      "secao": "legendados",
      "pagina": 125,
      "total_episodios": 12,
      "link_video": "https://animefire.plus/video/gun-frontier"
    },
    {
      "id": 1273,
      "nome": "Gun X Sword",
      "link": "https://animefire.plus/animes/gun-x-sword-todos-os-episodios",
      "texto_original": "Gun X Sword",
      "rating": 7.33,
      "classificacao_etaria": "A14",
      "imagem_original": "https://animefire.plus/img/animes/gun-x-sword.webp",
      "imagem_pasta": "https://animefire.plus/img/animes/gun-x-sword/",
      "secao": "legendados",
      "pagina": 105,
      "total_episodios": 26,
      "link_video": "https://animefire.plus/video/gun-x-sword"
    },
    {
      "id": 1274,
      "nome": "Gundam Build Divers",
      "link": "https://animefire.plus/animes/gundam-build-divers-todos-os-episodios",
      "texto_original": "Gundam Build Divers",
      "rating": 6.36,
      "classificacao_etaria": "A14",
      "imagem_original": "https://animefire.plus/img/animes/gundam-build-divers.webp",
      "imagem_pasta": "https://animefire.plus/img/animes/gundam-build-divers/",
      "secao": "legendados",
      "pagina": 73,
      "total_episodios": 25,
      "link_video": "https://animefire.plus/video/gundam-build-divers"
    },
    {
      "id": 1275,
      "nome": "Gundam Build Divers Prologue",
      "link": "https://animefire.plus/animes/gundam-build-divers-prologue-todos-os-episodios",
      "texto_original": "Gundam Build Divers Prologue",
      "rating": 6.54,
      "classificacao_etaria": null,
      "imagem_original": "https://animefire.plus/img/animes/gundam-build-divers-prologue.webp",
      "imagem_pasta": "https://animefire.plus/img/animes/gundam-build-divers-prologue/",
      "secao": "legendados",
      "pagina": 84,
      "total_episodios": 1,
      "link_video": "https://animefire.plus/video/gundam-build-divers-prologue"
    },
    {
      "id": 1276,
      "nome": "Gundam Build Divers Re:Rise",
      "link": "https://animefire.plus/animes/gundam-build-divers-re-rise-todos-os-episodios",
      "texto_original": "Gundam Build Divers Re:Rise",
      "rating": 7.03,
      "classificacao_etaria": "A14",
      "imagem_original": "https://animefire.plus/img/animes/gundam-build-divers-re-rise.webp",
      "imagem_pasta": "https://animefire.plus/img/animes/gundam-build-divers-re-rise/",
      "secao": "legendados",
      "pagina": 109,
      "total_episodios": 2,
      "link_video": "https://animefire.plus/video/gundam-build-divers-re-rise"
    },
    {
      "id": 1277,
      "nome": "Gundam Build Divers Re:Rise 2nd Season",
      "link": "https://animefire.plus/animes/gundam-build-divers-re-rise-2nd-season-todos-os-episodios",
      "texto_original": "Gundam Build Divers Re:Rise 2nd Season",
      "rating": 7.56,
      "classificacao_etaria": null,
      "imagem_original": "https://animefire.plus/img/animes/gundam-build-divers-re-rise-2nd-season.webp",
      "imagem_pasta": "https://animefire.plus/img/animes/gundam-build-divers-re-rise-2nd-season/",
      "secao": "legendados",
      "pagina": 80,
      "total_episodios": 6,
      "link_video": "https://animefire.plus/video/gundam-build-divers-re-rise-2nd-season"
    },
    {
      "id": 1278,
      "nome": "Gundam Build Fighters",
      "link": "https://animefire.plus/animes/gundam-build-fighters-todos-os-episodios",
      "texto_original": "Gundam Build Fighters",
      "rating": 7.89,
      "classificacao_etaria": null,
      "imagem_original": "https://animefire.plus/img/animes/gundam-build-fighters.webp",
      "imagem_pasta": "https://animefire.plus/img/animes/gundam-build-fighters/",
      "secao": "legendados",
      "pagina": 122,
      "total_episodios": 4,
      "link_video": "https://animefire.plus/video/gundam-build-fighters"
    },
    {
      "id": 1279,
      "nome": "Gundam Build Fighters Try",
      "link": "https://animefire.plus/animes/gundam-build-fighters-try-todos-os-episodios",
      "texto_original": "Gundam Build Fighters Try",
      "rating": 7.39,
      "classificacao_etaria": null,
      "imagem_original": "https://animefire.plus/img/animes/gundam-build-fighters-try.webp",
      "imagem_pasta": "https://animefire.plus/img/animes/gundam-build-fighters-try/",
      "secao": "legendados",
      "pagina": 142,
      "total_episodios": 0,
      "link_video": "https://animefire.plus/video/gundam-build-fighters-try"
    },
    {
      "id": 1280,
      "nome": "Gundam Vs Hello Kitty",
      "link": "https://animefire.plus/animes/gundam-vs-hello-kitty-todos-os-episodios",
      "texto_original": "Gundam Vs Hello Kitty",
      "rating": 6.39,
      "classificacao_etaria": null,
      "imagem_original": "https://animefire.plus/img/animes/gundam-vs-hello-kitty.webp",
      "imagem_pasta": "https://animefire.plus/img/animes/gundam-vs-hello-kitty/",
      "secao": "legendados",
      "pagina": 92,
      "total_episodios": 0,
      "link_video": "https://animefire.plus/video/gundam-vs-hello-kitty"
    },
    {
      "id": 1281,
      "nome": "Gungrave",
      "link": "https://animefire.plus/animes/gungrave-todos-os-episodios",
      "texto_original": "Gungrave",
      "rating": 7.9,
      "classificacao_etaria": "A16",
      "imagem_original": "https://animefire.plus/img/animes/gungrave.webp",
      "imagem_pasta": "https://animefire.plus/img/animes/gungrave/",
      "secao": "legendados",
      "pagina": 101,
      "total_episodios": 26,
      "link_video": "https://animefire.plus/video/gungrave"
    },
    {
      "id": 1282,
      "nome": "Gunjou no Fanfare",
      "link": "https://animefire.plus/animes/gunjou-no-fanfare-todos-os-episodios",
      "texto_original": "Gunjou no Fanfare",
      "rating": 6.15,
      "classificacao_etaria": "A14",
      "imagem_original": "https://animefire.plus/img/animes/gunjou-no-fanfare.webp",
      "imagem_pasta": "https://animefire.plus/img/animes/gunjou-no-fanfare/",
      "secao": "legendados",
      "pagina": 33,
      "total_episodios": 13,
      "link_video": "https://animefire.plus/video/gunjou-no-fanfare"
    }
  ],
  "pagination": {
    "current_page": 62,
    "per_page": 20,
    "total_items": 4269,
    "total_pages": 214,
    "has_next": true,
    "has_prev": true
  }
}
