{
  "message": "Animes da seção: legendados",
  "section": "legendados",
  "data": [
    {
      "id": 3826,
      "nome": "The Fable",
      "link": "https://animefire.plus/animes/the-fable-todos-os-episodios",
      "texto_original": "The Fable",
      "rating": 8.13,
      "classificacao_etaria": "A14",
      "imagem_original": "https://animefire.plus/img/animes/the-fable.webp",
      "imagem_pasta": "https://animefire.plus/img/animes/the-fable/",
      "secao": "legendados",
      "pagina": 14,
      "total_episodios": 25,
      "link_video": "https://animefire.plus/video/the-fable"
    },
    {
      "id": 3827,
      "nome": "The God of High School (Dublado)",
      "link": "https://animefire.plus/animes/the-god-of-high-school-dublado-todos-os-episodios",
      "texto_original": "The God of High School (Dublado)",
      "rating": 7.07,
      "classificacao_etaria": "A14",
      "imagem_original": "https://animefire.plus/img/animes/the-god-of-high-school.webp",
      "imagem_pasta": "https://animefire.plus/img/animes/the-god-of-high-school/",
      "secao": "dublados,legendados",
      "pagina": 8,
      "total_episodios": 13,
      "link_video": "https://animefire.plus/video/the-god-of-high-school-dublado"
    },
    {
      "id": 3828,
      "nome": "The iDOLM@STER",
      "link": "https://animefire.plus/animes/the-idolmaster-todos-os-episodios",
      "texto_original": "The iDOLM@STER",
      "rating": 7.65,
      "classificacao_etaria": "A14",
      "imagem_original": "https://animefire.plus/img/animes/the-idolmaster.webp",
      "imagem_pasta": "https://animefire.plus/img/animes/the-idolmaster/",
      "secao": "legendados",
      "pagina": 76,
      "total_episodios": 26,
      "link_video": "https://animefire.plus/video/the-idolmaster"
    },
    {
      "id": 3829,
      "nome": "The iDOLM@STER Cinderella Girls",
      "link": "https://animefire.plus/animes/the-idolmaster-cinderella-girls-todos-os-episodios",
      "texto_original": "The iDOLM@STER Cinderella Girls",
      "rating": 7.17,
      "classificacao_etaria": "A14",
      "imagem_original": "https://animefire.plus/img/animes/the-idolmaster-cinderella-girls.webp",
      "imagem_pasta": "https://animefire.plus/img/animes/the-idolmaster-cinderella-girls/",
      "secao": "legendados",
      "pagina": 76,
      "total_episodios": 13,
      "link_video": "https://animefire.plus/video/the-idolmaster-cinderella-girls"
    },
    {
      "id": 3830,
      "nome": "The iDOLM@STER Cinderella Girls: Anytime, Anywhere with Cinderella.",
      "link": "https://animefire.plus/animes/the-idolmaster-cinderella-girls-anytime-anywhere-with-cinderella-todos-os-episodios",
      "texto_original": "The iDOLM@STER Cinderella Girls: Anytime, Anywhere with Cinderella.",
      "rating": 7.34,
      "classificacao_etaria": "A14",
      "imagem_original": "https://animefire.plus/img/animes/the-idolmaster-cinderella-girls-anytime-anywhere-with-cinderella.webp",
      "imagem_pasta": "https://animefire.plus/img/animes/the-idolmaster-cinderella-girls-anytime-anywhere-with-cinderella/",
      "secao": "legendados",
      "pagina": 64,
      "total_episodios": 1,
      "link_video": "https://animefire.plus/video/the-idolmaster-cinderella-girls-anytime-anywhere-with-cinderella"
    },
    {
      "id": 3831,
      "nome": "The iDOLM@STER Million Live!",
      "link": "https://animefire.plus/animes/the-idolmaster-million-live-todos-os-episodios",
      "texto_original": "The iDOLM@STER Million Live!",
      "rating": 6.92,
      "classificacao_etaria": "A14",
      "imagem_original": "https://animefire.plus/img/animes/the-idolmaster-million-live.webp",
      "imagem_pasta": "https://animefire.plus/img/animes/the-idolmaster-million-live/",
      "secao": "legendados",
      "pagina": 19,
      "total_episodios": 12,
      "link_video": "https://animefire.plus/video/the-idolmaster-million-live"
    },
    {
      "id": 3832,
      "nome": "The iDOLM@STER Shiny Colors",
      "link": "https://animefire.plus/animes/the-idolmaster-shiny-colors-todos-os-episodios",
      "texto_original": "The iDOLM@STER Shiny Colors",
      "rating": 6.08,
      "classificacao_etaria": "A14",
      "imagem_original": "https://animefire.plus/img/animes/the-idolmaster-shiny-colors.webp",
      "imagem_pasta": "https://animefire.plus/img/animes/the-idolmaster-shiny-colors/",
      "secao": "legendados",
      "pagina": 14,
      "total_episodios": 12,
      "link_video": "https://animefire.plus/video/the-idolmaster-shiny-colors"
    },
    {
      "id": 3833,
      "nome": "The iDOLM@STER Shiny Colors 2nd Season",
      "link": "https://animefire.plus/animes/the-idolmaster-shiny-colors-2nd-season-todos-os-episodios",
      "texto_original": "The iDOLM@STER Shiny Colors 2nd Season",
      "rating": 6.33,
      "classificacao_etaria": "A14",
      "imagem_original": "https://animefire.plus/img/animes/the-idolmaster-shiny-colors-2nd-season.webp",
      "imagem_pasta": "https://animefire.plus/img/animes/the-idolmaster-shiny-colors-2nd-season/",
      "secao": "legendados",
      "pagina": 9,
      "total_episodios": 12,
      "link_video": "https://animefire.plus/video/the-idolmaster-shiny-colors-2nd-season"
    },
    {
      "id": 3834,
      "nome": "The iDOLM@STER SideM",
      "link": "https://animefire.plus/animes/the-idolmaster-sidem-todos-os-episodios",
      "texto_original": "The iDOLM@STER SideM",
      "rating": 7.25,
      "classificacao_etaria": "A14",
      "imagem_original": "https://animefire.plus/img/animes/the-idolmaster-sidem.webp",
      "imagem_pasta": "https://animefire.plus/img/animes/the-idolmaster-sidem/",
      "secao": "legendados",
      "pagina": 73,
      "total_episodios": 13,
      "link_video": "https://animefire.plus/video/the-idolmaster-sidem"
    },
    {
      "id": 3835,
      "nome": "The iDOLM@STER SideM: 315 Variety Pack! Made In Passion!",
      "link": "https://animefire.plus/animes/the-idolmatster-sidem-315-variety-pack-made-in-passion-todos-os-episodios",
      "texto_original": "The iDOLM@STER SideM: 315 Variety Pack! Made In Passion!",
      "rating": 6.53,
      "classificacao_etaria": "A14",
      "imagem_original": "https://animefire.plus/img/animes/the-idolmatster-sidem-315-variety-pack-made-in-passion.webp",
      "imagem_pasta": "https://animefire.plus/img/animes/the-idolmatster-sidem-315-variety-pack-made-in-passion/",
      "secao": "legendados",
      "pagina": 87,
      "total_episodios": 1,
      "link_video": "https://animefire.plus/video/the-idolmatster-sidem-315-variety-pack-made-in-passion"
    },
    {
      "id": 3836,
      "nome": "The iDOLM@STER SideM: Wake Atte Mini!",
      "link": "https://animefire.plus/animes/the-idolmatster-sidem-wake-atte-mini-todos-os-episodios",
      "texto_original": "The iDOLM@STER SideM: Wake Atte Mini!",
      "rating": 6.18,
      "classificacao_etaria": "A14",
      "imagem_original": "https://animefire.plus/img/animes/the-idolmatster-sidem-wake-atte-mini.webp",
      "imagem_pasta": "https://animefire.plus/img/animes/the-idolmatster-sidem-wake-atte-mini/",
      "secao": "legendados",
      "pagina": 87,
      "total_episodios": 1,
      "link_video": "https://animefire.plus/video/the-idolmatster-sidem-wake-atte-mini"
    },
    {
      "id": 3837,
      "nome": "The King of Fighters: Destiny",
      "link": "https://animefire.plus/animes/the-king-of-fighters-destiny-todos-os-episodios",
      "texto_original": "The King of Fighters: Destiny",
      "rating": 6.64,
      "classificacao_etaria": "A14",
      "imagem_original": "https://animefire.plus/img/animes/the-king-of-fighters-destiny.webp",
      "imagem_pasta": "https://animefire.plus/img/animes/the-king-of-fighters-destiny/",
      "secao": "legendados",
      "pagina": 59,
      "total_episodios": 24,
      "link_video": "https://animefire.plus/video/the-king-of-fighters-destiny"
    },
    {
      "id": 3838,
      "nome": "The Legend of Heroes: Sen no Kiseki - Northern War",
      "link": "https://animefire.plus/animes/the-legend-of-heroes-sen-no-kiseki---northern-war-todos-os-episodios",
      "texto_original": "The Legend of Heroes: Sen no Kiseki - Northern War",
      "rating": 5.63,
      "classificacao_etaria": "A14",
      "imagem_original": "https://animefire.plus/img/animes/the-legend-of-heroes-sen-no-kiseki---northern-war.webp",
      "imagem_pasta": "https://animefire.plus/img/animes/the-legend-of-heroes-sen-no-kiseki---northern-war/",
      "secao": "legendados,lancamentos",
      "pagina": 27,
      "total_episodios": 8,
      "link_video": "https://animefire.plus/video/the-legend-of-heroes-sen-no-kiseki---northern-war"
    },
    {
      "id": 3839,
      "nome": "The Marginal Service",
      "link": "https://animefire.plus/animes/the-marginal-service-todos-os-episodios",
      "texto_original": "The Marginal Service",
      "rating": 5.5,
      "classificacao_etaria": "A14",
      "imagem_original": "https://animefire.plus/img/animes/the-marginal-service.jpg",
      "imagem_pasta": "https://animefire.plus/img/animes/the-marginal-service/",
      "secao": "legendados",
      "pagina": 24,
      "total_episodios": 12,
      "link_video": "https://animefire.plus/video/the-marginal-service"
    },
    {
      "id": 3840,
      "nome": "The New Gate (Dublado)",
      "link": "https://animefire.plus/animes/the-new-gate-dublado-todos-os-episodios",
      "texto_original": "The New Gate (Dublado)",
      "rating": 6.45,
      "classificacao_etaria": "A14",
      "imagem_original": "https://animefire.plus/img/animes/the-new-gate.webp",
      "imagem_pasta": "https://animefire.plus/img/animes/the-new-gate/",
      "secao": "dublados,legendados,lancamentos",
      "pagina": 2,
      "total_episodios": 12,
      "link_video": "https://animefire.plus/video/the-new-gate-dublado"
    },
    {
      "id": 3841,
      "nome": "The Reflection",
      "link": "https://animefire.plus/animes/the-reflection-todos-os-episodios",
      "texto_original": "The Reflection",
      "rating": 5.16,
      "classificacao_etaria": "A14",
      "imagem_original": "https://animefire.plus/img/animes/the-reflection.webp",
      "imagem_pasta": "https://animefire.plus/img/animes/the-reflection/",
      "secao": "legendados",
      "pagina": 64,
      "total_episodios": 12,
      "link_video": "https://animefire.plus/video/the-reflection"
    },
    {
      "id": 3842,
      "nome": "The SoulTaker: Tamashii-gari",
      "link": "https://animefire.plus/animes/the-soultaker-tamashii-gari-todos-os-episodios",
      "texto_original": "The SoulTaker: Tamashii-gari",
      "rating": 6.44,
      "classificacao_etaria": "A14",
      "imagem_original": "https://animefire.plus/img/animes/the-soultaker-tamashii-gari.webp",
      "imagem_pasta": "https://animefire.plus/img/animes/the-soultaker-tamashii-gari/",
      "secao": "legendados",
      "pagina": 129,
      "total_episodios": 13,
      "link_video": "https://animefire.plus/video/the-soultaker-tamashii-gari"
    },
    {
      "id": 3843,
      "nome": "The Third: Aoi Hitomi No Shoujo",
      "link": "https://animefire.plus/animes/the-third-aoi-hitomi-no-shoujo-todos-os-episodios",
      "texto_original": "The Third: Aoi Hitomi No Shoujo",
      "rating": 7.37,
      "classificacao_etaria": "A16",
      "imagem_original": "https://animefire.plus/img/animes/the-third-aoi-hitomi-no-shoujo.webp",
      "imagem_pasta": "https://animefire.plus/img/animes/the-third-aoi-hitomi-no-shoujo/",
      "secao": "legendados",
      "pagina": 108,
      "total_episodios": 15,
      "link_video": "https://animefire.plus/video/the-third-aoi-hitomi-no-shoujo"
    },
    {
      "id": 3844,
      "nome": "Tian Guan Cifu Er",
      "link": "https://animefire.plus/animes/tian-guan-cifu-er-todos-os-episodios",
      "texto_original": "Tian Guan Cifu Er",
      "rating": 8.65,
      "classificacao_etaria": "A14",
      "imagem_original": "https://animefire.plus/img/animes/tian-guan-cifu-er.webp",
      "imagem_pasta": "https://animefire.plus/img/animes/tian-guan-cifu-er/",
      "secao": "legendados",
      "pagina": 17,
      "total_episodios": 0,
      "link_video": "https://animefire.plus/video/tian-guan-cifu-er"
    },
    {
      "id": 3845,
      "nome": "Tide-Line Blue",
      "link": "https://animefire.plus/animes/tide-line-blue-todos-os-episodios",
      "texto_original": "Tide-Line Blue",
      "rating": 6.71,
      "classificacao_etaria": "A14",
      "imagem_original": "https://animefire.plus/img/animes/tide-line-blue.webp",
      "imagem_pasta": "https://animefire.plus/img/animes/tide-line-blue/",
      "secao": "legendados",
      "pagina": 141,
      "total_episodios": 13,
      "link_video": "https://animefire.plus/video/tide-line-blue"
    }
  ],
  "pagination": {
    "current_page": 188,
    "per_page": 20,
    "total_items": 4269,
    "total_pages": 214,
    "has_next": true,
    "has_prev": true
  }
}
