{
  "message": "Animes da seção: legendados",
  "section": "legendados",
  "data": [
    {
      "id": 4009,
      "nome": "Ultra Maniac",
      "link": "https://animefire.plus/animes/ultra-maniac-todos-os-episodios",
      "texto_original": "Ultra Maniac",
      "rating": 7.25,
      "classificacao_etaria": null,
      "imagem_original": "https://animefire.plus/img/animes/ultra-maniac.webp",
      "imagem_pasta": "https://animefire.plus/img/animes/ultra-maniac/",
      "secao": "legendados",
      "pagina": 157,
      "total_episodios": 7,
      "link_video": "https://animefire.plus/video/ultra-maniac"
    },
    {
      "id": 4011,
      "nome": "Ultraviolet: Code 044",
      "link": "https://animefire.plus/animes/ultraviolet-code-044-todos-os-episodios",
      "texto_original": "Ultraviolet: Code 044",
      "rating": 5.98,
      "classificacao_etaria": "A16",
      "imagem_original": "https://animefire.plus/img/animes/ultraviolet-code-044.webp",
      "imagem_pasta": "https://animefire.plus/img/animes/ultraviolet-code-044/",
      "secao": "legendados",
      "pagina": 175,
      "total_episodios": 12,
      "link_video": "https://animefire.plus/video/ultraviolet-code-044"
    },
    {
      "id": 4012,
      "nome": "Ulysses: Jehanne Darc to Renkin no Kishi",
      "link": "https://animefire.plus/animes/ulysses-jehanne-darc-to-renkin-no-kishi-todos-os-episodios",
      "texto_original": "Ulysses: Jehanne Darc to Renkin no Kishi",
      "rating": 5.51,
      "classificacao_etaria": "A14",
      "imagem_original": "https://animefire.plus/img/animes/ulysses-jehanne-darc-to-renkin-no-kishi.webp",
      "imagem_pasta": "https://animefire.plus/img/animes/ulysses-jehanne-darc-to-renkin-no-kishi/",
      "secao": "legendados",
      "pagina": 143,
      "total_episodios": 12,
      "link_video": "https://animefire.plus/video/ulysses-jehanne-darc-to-renkin-no-kishi"
    },
    {
      "id": 4013,
      "nome": "Uma Musume: Cinderella Gray",
      "link": "https://animefire.plus/animes/uma-musume-cinderella-gray-todos-os-episodios",
      "texto_original": "Uma Musume: Cinderella Gray",
      "rating": 8.52,
      "classificacao_etaria": "A14",
      "imagem_original": "https://animefire.plus/img/animes/uma-musume-cinderella-gray.webp",
      "imagem_pasta": "https://animefire.plus/img/animes/uma-musume-cinderella-gray/",
      "secao": "legendados",
      "pagina": 5,
      "total_episodios": 13,
      "link_video": "https://animefire.plus/video/uma-musume-cinderella-gray"
    },
    {
      "id": 4014,
      "nome": "Uma Musume: Pretty Derby",
      "link": "https://animefire.plus/animes/uma-musume-pretty-derby-todos-os-episodios",
      "texto_original": "Uma Musume: Pretty Derby",
      "rating": 7.44,
      "classificacao_etaria": "A14",
      "imagem_original": "https://animefire.plus/img/animes/uma-musume-pretty-derby.webp",
      "imagem_pasta": "https://animefire.plus/img/animes/uma-musume-pretty-derby/",
      "secao": "legendados",
      "pagina": 165,
      "total_episodios": 12,
      "link_video": "https://animefire.plus/video/uma-musume-pretty-derby"
    },
    {
      "id": 4015,
      "nome": "Uma Musume: Pretty Derby - BNW no Chikai",
      "link": "https://animefire.plus/animes/uma-musume-pretty-derby---bnw-no-chikai-todos-os-episodios",
      "texto_original": "Uma Musume: Pretty Derby - BNW no Chikai",
      "rating": 7.04,
      "classificacao_etaria": "A14",
      "imagem_original": "https://animefire.plus/img/animes/uma-musume-pretty-derby---bnw-no-chikai.webp",
      "imagem_pasta": "https://animefire.plus/img/animes/uma-musume-pretty-derby---bnw-no-chikai/",
      "secao": "legendados",
      "pagina": 45,
      "total_episodios": 3,
      "link_video": "https://animefire.plus/video/uma-musume-pretty-derby---bnw-no-chikai"
    },
    {
      "id": 4016,
      "nome": "Uma Musume: Pretty Derby (TV)",
      "link": "https://animefire.plus/animes/uma-musume-pretty-derby-tv-todos-os-episodios",
      "texto_original": "Uma Musume: Pretty Derby (TV)",
      "rating": 7.37,
      "classificacao_etaria": "A14",
      "imagem_original": "https://animefire.plus/img/animes/uma-musume-pretty-derby-tv.webp",
      "imagem_pasta": "https://animefire.plus/img/animes/uma-musume-pretty-derby-tv/",
      "secao": "legendados",
      "pagina": 87,
      "total_episodios": 13,
      "link_video": "https://animefire.plus/video/uma-musume-pretty-derby-tv"
    },
    {
      "id": 4017,
      "nome": "Uma Musume: Pretty Derby Season 2",
      "link": "https://animefire.plus/animes/uma-musume-pretty-derby-season-2-todos-os-episodios",
      "texto_original": "Uma Musume: Pretty Derby Season 2",
      "rating": 8.06,
      "classificacao_etaria": "A14",
      "imagem_original": "https://animefire.plus/img/animes/uma-musume-pretty-derby-season-2.webp",
      "imagem_pasta": "https://animefire.plus/img/animes/uma-musume-pretty-derby-season-2/",
      "secao": "legendados",
      "pagina": 49,
      "total_episodios": 13,
      "link_video": "https://animefire.plus/video/uma-musume-pretty-derby-season-2"
    },
    {
      "id": 4018,
      "nome": "Umayon",
      "link": "https://animefire.plus/animes/umayon-todos-os-episodios",
      "texto_original": "Umayon",
      "rating": null,
      "classificacao_etaria": "A14",
      "imagem_original": "https://animefire.plus/img/animes/umayon.webp",
      "imagem_pasta": "https://animefire.plus/img/animes/umayon/",
      "secao": "legendados",
      "pagina": 58,
      "total_episodios": 1,
      "link_video": "https://animefire.plus/video/umayon"
    },
    {
      "id": 4019,
      "nome": "Umi Monogatari: Anata ga Ite Kureta Koto",
      "link": "https://animefire.plus/animes/umi-monogatari-anata-ga-ite-kureta-koto-todos-os-episodios",
      "texto_original": "Umi Monogatari: Anata ga Ite Kureta Koto",
      "rating": 6.71,
      "classificacao_etaria": "A14",
      "imagem_original": "https://animefire.plus/img/animes/umi-monogatari-anata-ga-ite-kureta-koto.webp",
      "imagem_pasta": "https://animefire.plus/img/animes/umi-monogatari-anata-ga-ite-kureta-koto/",
      "secao": "legendados",
      "pagina": 149,
      "total_episodios": 12,
      "link_video": "https://animefire.plus/video/umi-monogatari-anata-ga-ite-kureta-koto"
    },
    {
      "id": 4020,
      "nome": "Umineko no Naku Koro ni",
      "link": "https://animefire.plus/animes/umineko-no-naku-koro-ni-todos-os-episodios",
      "texto_original": "Umineko no Naku Koro ni",
      "rating": 7.23,
      "classificacao_etaria": "A16",
      "imagem_original": "https://animefire.plus/img/animes/umineko-no-naku-koro-ni.webp",
      "imagem_pasta": "https://animefire.plus/img/animes/umineko-no-naku-koro-ni/",
      "secao": "legendados",
      "pagina": 112,
      "total_episodios": 26,
      "link_video": "https://animefire.plus/video/umineko-no-naku-koro-ni"
    },
    {
      "id": 4021,
      "nome": "UN-GO",
      "link": "https://animefire.plus/animes/un-go-todos-os-episodios",
      "texto_original": "UN-GO",
      "rating": 7.46,
      "classificacao_etaria": "A16",
      "imagem_original": "https://animefire.plus/img/animes/un-go.webp",
      "imagem_pasta": "https://animefire.plus/img/animes/un-go/",
      "secao": "legendados",
      "pagina": 170,
      "total_episodios": 11,
      "link_video": "https://animefire.plus/video/un-go"
    },
    {
      "id": 4022,
      "nome": "Undead Girl Murder Farce",
      "link": "https://animefire.plus/animes/undead-girl-murder-farce-todos-os-episodios",
      "texto_original": "Undead Girl Murder Farce",
      "rating": 7.85,
      "classificacao_etaria": "A16",
      "imagem_original": "https://animefire.plus/img/animes/undead-girl-murder-farce.jpg",
      "imagem_pasta": "https://animefire.plus/img/animes/undead-girl-murder-farce/",
      "secao": "legendados",
      "pagina": 22,
      "total_episodios": 13,
      "link_video": "https://animefire.plus/video/undead-girl-murder-farce"
    },
    {
      "id": 4023,
      "nome": "Undead Unluck (Dublado)",
      "link": "https://animefire.plus/animes/undead-unluck-dublado-todos-os-episodios",
      "texto_original": "Undead Unluck (Dublado)",
      "rating": 7.79,
      "classificacao_etaria": "A16",
      "imagem_original": "https://animefire.plus/img/animes/undead-unluck.webp",
      "imagem_pasta": "https://animefire.plus/img/animes/undead-unluck/",
      "secao": "dublados,legendados",
      "pagina": 4,
      "total_episodios": 24,
      "link_video": "https://animefire.plus/video/undead-unluck-dublado"
    },
    {
      "id": 4024,
      "nome": "Under Ninja",
      "link": "https://animefire.plus/animes/under-ninja-todos-os-episodios",
      "texto_original": "Under Ninja",
      "rating": 6.92,
      "classificacao_etaria": "A16",
      "imagem_original": "https://animefire.plus/img/animes/under-ninja.webp",
      "imagem_pasta": "https://animefire.plus/img/animes/under-ninja/",
      "secao": "legendados",
      "pagina": 20,
      "total_episodios": 12,
      "link_video": "https://animefire.plus/video/under-ninja"
    },
    {
      "id": 4025,
      "nome": "UniteUp!",
      "link": "https://animefire.plus/animes/uniteup-todos-os-episodios",
      "texto_original": "UniteUp!",
      "rating": 7.02,
      "classificacao_etaria": "A14",
      "imagem_original": "https://animefire.plus/img/animes/uniteup.webp",
      "imagem_pasta": "https://animefire.plus/img/animes/uniteup/",
      "secao": "legendados",
      "pagina": 25,
      "total_episodios": 12,
      "link_video": "https://animefire.plus/video/uniteup"
    },
    {
      "id": 4026,
      "nome": "UniteUp! Uni:Birth",
      "link": "https://animefire.plus/animes/uniteup-uni-birth-todos-os-episodios",
      "texto_original": "UniteUp! Uni:Birth",
      "rating": 6.75,
      "classificacao_etaria": "A14",
      "imagem_original": "https://animefire.plus/img/animes/uniteup-uni-birth.webp",
      "imagem_pasta": "https://animefire.plus/img/animes/uniteup-uni-birth/",
      "secao": "legendados,lancamentos",
      "pagina": 7,
      "total_episodios": 13,
      "link_video": "https://animefire.plus/video/uniteup-uni-birth"
    },
    {
      "id": 4027,
      "nome": "Unnamed Memory",
      "link": "https://animefire.plus/animes/unnamed-memory-todos-os-episodios",
      "texto_original": "Unnamed Memory",
      "rating": 6.77,
      "classificacao_etaria": "A14",
      "imagem_original": "https://animefire.plus/img/animes/unnamed-memory.webp",
      "imagem_pasta": "https://animefire.plus/img/animes/unnamed-memory/",
      "secao": "legendados",
      "pagina": 15,
      "total_episodios": 12,
      "link_video": "https://animefire.plus/video/unnamed-memory"
    },
    {
      "id": 4028,
      "nome": "Unnamed Memory Act.2",
      "link": "https://animefire.plus/animes/unnamed-memory-act-2-todos-os-episodios",
      "texto_original": "Unnamed Memory Act.2",
      "rating": 7.11,
      "classificacao_etaria": "A14",
      "imagem_original": "https://animefire.plus/img/animes/unnamed-memory-act-2.webp",
      "imagem_pasta": "https://animefire.plus/img/animes/unnamed-memory-act-2/",
      "secao": "legendados",
      "pagina": 7,
      "total_episodios": 12,
      "link_video": "https://animefire.plus/video/unnamed-memory-act-2"
    },
    {
      "id": 4029,
      "nome": "Upotte!!",
      "link": "https://animefire.plus/animes/upotte-todos-os-episodios",
      "texto_original": "Upotte!!",
      "rating": 6.55,
      "classificacao_etaria": "A14",
      "imagem_original": "https://animefire.plus/img/animes/upotte.webp",
      "imagem_pasta": "https://animefire.plus/img/animes/upotte/",
      "secao": "legendados",
      "pagina": 91,
      "total_episodios": 0,
      "link_video": "https://animefire.plus/video/upotte"
    }
  ],
  "pagination": {
    "current_page": 197,
    "per_page": 20,
    "total_items": 4269,
    "total_pages": 214,
    "has_next": true,
    "has_prev": true
  }
}
