{
  "message": "Animes da seção: legendados",
  "section": "legendados",
  "data": [
    {
      "id": 1809,
      "nome": "Kaijuu 8-gou (Dublado)",
      "link": "https://animefire.plus/animes/kaijuu-8-gou-dublado-todos-os-episodios",
      "texto_original": "Kaijuu 8-gou (Dublado)",
      "rating": 8.27,
      "classificacao_etaria": "A14",
      "imagem_original": "https://animefire.plus/img/animes/kaijuu-8-gou.webp",
      "imagem_pasta": "https://animefire.plus/img/animes/kaijuu-8-gou/",
      "secao": "dublados,legendados,lancamentos",
      "pagina": 3,
      "total_episodios": 12,
      "link_video": "https://animefire.plus/video/kaijuu-8-gou-dublado"
    },
    {
      "id": 1810,
      "nome": "Kaijuu 8-gou 2nd Season (Dublado)",
      "link": "https://animefire.plus/animes/kaijuu-8-gou-2nd-season-dublado-todos-os-episodios",
      "texto_original": "Kaijuu 8-gou 2nd Season (Dublado)",
      "rating": 7.92,
      "classificacao_etaria": "A14",
      "imagem_original": "https://animefire.plus/img/animes/kaijuu-8-gou-2nd-season.webp",
      "imagem_pasta": "https://animefire.plus/img/animes/kaijuu-8-gou-2nd-season/",
      "secao": "dublados,legendados,lancamentos",
      "pagina": 1,
      "total_episodios": 3,
      "link_video": "https://animefire.plus/video/kaijuu-8-gou-2nd-season-dublado"
    },
    {
      "id": 1811,
      "nome": "Kaijuu 8-gou: Hoshina no Kyuujitsu",
      "link": "https://animefire.plus/animes/kaijuu-8-gou-hoshina-no-kyuujitsu-todos-os-episodios",
      "texto_original": "Kaijuu 8-gou: Hoshina no Kyuujitsu",
      "rating": 6.77,
      "classificacao_etaria": "A14",
      "imagem_original": "https://animefire.plus/img/animes/kaijuu-8-gou-hoshina-no-kyuujitsu.webp",
      "imagem_pasta": "https://animefire.plus/img/animes/kaijuu-8-gou-hoshina-no-kyuujitsu/",
      "secao": "legendados",
      "pagina": 1,
      "total_episodios": 1,
      "link_video": "https://animefire.plus/video/kaijuu-8-gou-hoshina-no-kyuujitsu"
    },
    {
      "id": 1812,
      "nome": "Kaijuu Sekai Seifuku (TV)",
      "link": "https://animefire.plus/animes/kaijuu-sekai-seifuku-tv-todos-os-episodios",
      "texto_original": "Kaijuu Sekai Seifuku (TV)",
      "rating": null,
      "classificacao_etaria": null,
      "imagem_original": "https://animefire.plus/img/animes/kaijuu-sekai-seifuku-tv.webp",
      "imagem_pasta": "https://animefire.plus/img/animes/kaijuu-sekai-seifuku-tv/",
      "secao": "legendados,lancamentos",
      "pagina": 4,
      "total_episodios": 0,
      "link_video": "https://animefire.plus/video/kaijuu-sekai-seifuku-tv"
    },
    {
      "id": 1813,
      "nome": "Kaiketsu Jouki Tanteidan",
      "link": "https://animefire.plus/animes/kaiketsu-jouki-tanteidan-todos-os-episodios",
      "texto_original": "Kaiketsu Jouki Tanteidan",
      "rating": 6.72,
      "classificacao_etaria": "A14",
      "imagem_original": "https://animefire.plus/img/animes/kaiketsu-jouki-tanteidan.webp",
      "imagem_pasta": "https://animefire.plus/img/animes/kaiketsu-jouki-tanteidan/",
      "secao": "legendados",
      "pagina": 112,
      "total_episodios": 26,
      "link_video": "https://animefire.plus/video/kaiketsu-jouki-tanteidan"
    },
    {
      "id": 1814,
      "nome": "Kaiko sareta Ankoku Heishi (30-dai) no Slow na Second Life",
      "link": "https://animefire.plus/animes/kaiko-sareta-ankoku-heishi-30-dai-no-slow-na-second-life-todos-os-episodios",
      "texto_original": "Kaiko sareta Ankoku Heishi (30-dai) no Slow na Second Life",
      "rating": 7.01,
      "classificacao_etaria": "A14",
      "imagem_original": "https://animefire.plus/img/animes/kaiko-sareta-ankoku-heishi-30-dai-no-slow-na-second-life.webp",
      "imagem_pasta": "https://animefire.plus/img/animes/kaiko-sareta-ankoku-heishi-30-dai-no-slow-na-second-life/",
      "secao": "legendados",
      "pagina": 27,
      "total_episodios": 12,
      "link_video": "https://animefire.plus/video/kaiko-sareta-ankoku-heishi-30-dai-no-slow-na-second-life"
    },
    {
      "id": 1815,
      "nome": "Kaitou Joker",
      "link": "https://animefire.plus/animes/kaitou-joker-todos-os-episodios",
      "texto_original": "Kaitou Joker",
      "rating": 6.99,
      "classificacao_etaria": null,
      "imagem_original": "https://animefire.plus/img/animes/kaitou-joker.webp",
      "imagem_pasta": "https://animefire.plus/img/animes/kaitou-joker/",
      "secao": "legendados",
      "pagina": 163,
      "total_episodios": 0,
      "link_video": "https://animefire.plus/video/kaitou-joker"
    },
    {
      "id": 1816,
      "nome": "Kaizoku Oujo",
      "link": "https://animefire.plus/animes/kaizoku-oujo-todos-os-episodios",
      "texto_original": "Kaizoku Oujo",
      "rating": 7.07,
      "classificacao_etaria": "A14",
      "imagem_original": "https://animefire.plus/img/animes/kaizoku-oujo.webp",
      "imagem_pasta": "https://animefire.plus/img/animes/kaizoku-oujo/",
      "secao": "legendados",
      "pagina": 39,
      "total_episodios": 12,
      "link_video": "https://animefire.plus/video/kaizoku-oujo"
    },
    {
      "id": 1817,
      "nome": "Kakegurui (Dublado)",
      "link": "https://animefire.plus/animes/kakegurui-dublado-todos-os-episodios",
      "texto_original": "Kakegurui (Dublado)",
      "rating": 7.55,
      "classificacao_etaria": "A16",
      "imagem_original": "https://animefire.plus/img/animes/kakegurui.webp",
      "imagem_pasta": "https://animefire.plus/img/animes/kakegurui/",
      "secao": "dublados,legendados",
      "pagina": 26,
      "total_episodios": 12,
      "link_video": "https://animefire.plus/video/kakegurui-dublado"
    },
    {
      "id": 1818,
      "nome": "Kakegurui Twin (Dublado)",
      "link": "https://animefire.plus/animes/kakegurui-twin-dublado-todos-os-episodios",
      "texto_original": "Kakegurui Twin (Dublado)",
      "rating": 7.18,
      "classificacao_etaria": "A14",
      "imagem_original": "https://animefire.plus/img/animes/kakegurui-twin.webp",
      "imagem_pasta": "https://animefire.plus/img/animes/kakegurui-twin/",
      "secao": "dublados,legendados,lancamentos",
      "pagina": 10,
      "total_episodios": 6,
      "link_video": "https://animefire.plus/video/kakegurui-twin-dublado"
    },
    {
      "id": 1819,
      "nome": "Kakegurui××",
      "link": "https://animefire.plus/animes/kakegurui-xx-todos-os-episodios",
      "texto_original": "Kakegurui××",
      "rating": 7.33,
      "classificacao_etaria": "A16",
      "imagem_original": "https://animefire.plus/img/animes/kakegurui-xx.webp",
      "imagem_pasta": "https://animefire.plus/img/animes/kakegurui-xx/",
      "secao": "legendados",
      "pagina": 167,
      "total_episodios": 6,
      "link_video": "https://animefire.plus/video/kakegurui-xx"
    },
    {
      "id": 1821,
      "nome": "Kakkou no Iinazuke (Dublado)",
      "link": "https://animefire.plus/animes/kakkou-no-iinazuke-dublado-todos-os-episodios",
      "texto_original": "Kakkou no Iinazuke (Dublado)",
      "rating": 6.87,
      "classificacao_etaria": "A14",
      "imagem_original": "https://animefire.plus/img/animes/kakkou-no-iinazuke.webp",
      "imagem_pasta": "https://animefire.plus/img/animes/kakkou-no-iinazuke/",
      "secao": "dublados,legendados",
      "pagina": 11,
      "total_episodios": 24,
      "link_video": "https://animefire.plus/video/kakkou-no-iinazuke-dublado"
    },
    {
      "id": 1822,
      "nome": "Kakkou no Iinazuke Season 2",
      "link": "https://animefire.plus/animes/kakkou-no-iinazuke-season-2-todos-os-episodios",
      "texto_original": "Kakkou no Iinazuke Season 2",
      "rating": 7.02,
      "classificacao_etaria": "A14",
      "imagem_original": "https://animefire.plus/img/animes/kakkou-no-iinazuke-season-2.webp",
      "imagem_pasta": "https://animefire.plus/img/animes/kakkou-no-iinazuke-season-2/",
      "secao": "legendados,lancamentos",
      "pagina": 3,
      "total_episodios": 4,
      "link_video": "https://animefire.plus/video/kakkou-no-iinazuke-season-2"
    },
    {
      "id": 1823,
      "nome": "Kakugo no Susume",
      "link": "https://animefire.plus/animes/kakugo-no-susume-todos-os-episodios",
      "texto_original": "Kakugo no Susume",
      "rating": 4.7,
      "classificacao_etaria": "A18",
      "imagem_original": "https://animefire.plus/img/animes/kakugo-no-susume.webp",
      "imagem_pasta": "https://animefire.plus/img/animes/kakugo-no-susume/",
      "secao": "legendados",
      "pagina": 76,
      "total_episodios": 2,
      "link_video": "https://animefire.plus/video/kakugo-no-susume"
    },
    {
      "id": 1824,
      "nome": "Kakumeiki Valvrave",
      "link": "https://animefire.plus/animes/kakumeiki-valvrave-todos-os-episodios",
      "texto_original": "Kakumeiki Valvrave",
      "rating": 7.24,
      "classificacao_etaria": "A16",
      "imagem_original": "https://animefire.plus/img/animes/kakumeiki-valvrave.webp",
      "imagem_pasta": "https://animefire.plus/img/animes/kakumeiki-valvrave/",
      "secao": "legendados",
      "pagina": 146,
      "total_episodios": 12,
      "link_video": "https://animefire.plus/video/kakumeiki-valvrave"
    },
    {
      "id": 1825,
      "nome": "Kakumeiki Valvrave 2nd Season",
      "link": "https://animefire.plus/animes/kakumeiki-valvrave-2nd-season-todos-os-episodios",
      "texto_original": "Kakumeiki Valvrave 2nd Season",
      "rating": 7.36,
      "classificacao_etaria": "A16",
      "imagem_original": "https://animefire.plus/img/animes/kakumeiki-valvrave-2nd-season.webp",
      "imagem_pasta": "https://animefire.plus/img/animes/kakumeiki-valvrave-2nd-season/",
      "secao": "legendados",
      "pagina": 141,
      "total_episodios": 5,
      "link_video": "https://animefire.plus/video/kakumeiki-valvrave-2nd-season"
    },
    {
      "id": 1826,
      "nome": "Kakuriyo no Yadomeshi",
      "link": "https://animefire.plus/animes/kakuriyo-no-yadomeshi-todos-os-episodios",
      "texto_original": "Kakuriyo no Yadomeshi",
      "rating": 7.61,
      "classificacao_etaria": "A14",
      "imagem_original": "https://animefire.plus/img/animes/kakuriyo-no-yadomeshi.webp",
      "imagem_pasta": "https://animefire.plus/img/animes/kakuriyo-no-yadomeshi/",
      "secao": "legendados",
      "pagina": 162,
      "total_episodios": 26,
      "link_video": "https://animefire.plus/video/kakuriyo-no-yadomeshi"
    },
    {
      "id": 1827,
      "nome": "Kakushigoto (TV)",
      "link": "https://animefire.plus/animes/kakushigoto-tv-todos-os-episodios",
      "texto_original": "Kakushigoto (TV)",
      "rating": 8.02,
      "classificacao_etaria": "A14",
      "imagem_original": "https://animefire.plus/img/animes/kakushigoto-tv.webp",
      "imagem_pasta": "https://animefire.plus/img/animes/kakushigoto-tv/",
      "secao": "legendados",
      "pagina": 81,
      "total_episodios": 0,
      "link_video": "https://animefire.plus/video/kakushigoto-tv"
    },
    {
      "id": 1828,
      "nome": "Kakushite! Makina-san!!",
      "link": "https://animefire.plus/animes/kakushite-makina-san-todos-os-episodios",
      "texto_original": "Kakushite! Makina-san!!",
      "rating": 5.52,
      "classificacao_etaria": "A18",
      "imagem_original": "https://animefire.plus/img/animes/kakushite-makina-san.webp",
      "imagem_pasta": "https://animefire.plus/img/animes/kakushite-makina-san/",
      "secao": "legendados,lancamentos",
      "pagina": 5,
      "total_episodios": 5,
      "link_video": "https://animefire.plus/video/kakushite-makina-san"
    },
    {
      "id": 1831,
      "nome": "Kaleido Star: Good da yo! Goood!!",
      "link": "https://animefire.plus/animes/kaleido-star-good-da-yo-goood-todos-os-episodios",
      "texto_original": "Kaleido Star: Good da yo! Goood!!",
      "rating": 6.79,
      "classificacao_etaria": null,
      "imagem_original": "https://animefire.plus/img/animes/kaleido-star-good-da-yo-goood.webp",
      "imagem_pasta": "https://animefire.plus/img/animes/kaleido-star-good-da-yo-goood/",
      "secao": "legendados",
      "pagina": 53,
      "total_episodios": 1,
      "link_video": "https://animefire.plus/video/kaleido-star-good-da-yo-goood"
    }
  ],
  "pagination": {
    "current_page": 89,
    "per_page": 20,
    "total_items": 4269,
    "total_pages": 214,
    "has_next": true,
    "has_prev": true
  }
}
