{
  "message": "Animes da seção: legendados",
  "section": "legendados",
  "data": [
    {
      "id": 2281,
      "nome": "Lupin Zero",
      "link": "https://animefire.plus/animes/lupin-zero-todos-os-episodios",
      "texto_original": "Lupin Zero",
      "rating": 7.39,
      "classificacao_etaria": "A18",
      "imagem_original": "https://animefire.plus/img/animes/lupin-zero.webp",
      "imagem_pasta": "https://animefire.plus/img/animes/lupin-zero/",
      "secao": "legendados",
      "pagina": 27,
      "total_episodios": 6,
      "link_video": "https://animefire.plus/video/lupin-zero"
    },
    {
      "id": 2282,
      "nome": "Lv1 Maou to One Room Yuusha",
      "link": "https://animefire.plus/animes/lv1-maou-to-one-room-yuusha-todos-os-episodios",
      "texto_original": "Lv1 Maou to One Room Yuusha",
      "rating": 7.14,
      "classificacao_etaria": "A14",
      "imagem_original": "https://animefire.plus/img/animes/lv1-maou-to-one-room-yuusha.jpg",
      "imagem_pasta": "https://animefire.plus/img/animes/lv1-maou-to-one-room-yuusha/",
      "secao": "legendados",
      "pagina": 22,
      "total_episodios": 12,
      "link_video": "https://animefire.plus/video/lv1-maou-to-one-room-yuusha"
    },
    {
      "id": 2283,
      "nome": "Lv2 kara Cheat datta Motoyuusha Kouho no Mattari Isekai Life",
      "link": "https://animefire.plus/animes/lv2-kara-cheat-datta-motoyuusha-kouho-no-mattari-isekai-life-todos-os-episodios",
      "texto_original": "Lv2 kara Cheat datta Motoyuusha Kouho no Mattari Isekai Life",
      "rating": 6.82,
      "classificacao_etaria": "A14",
      "imagem_original": "https://animefire.plus/img/animes/lv2-kara-cheat-datta-motoyuusha-kouho-no-mattari-isekai-life.webp",
      "imagem_pasta": "https://animefire.plus/img/animes/lv2-kara-cheat-datta-motoyuusha-kouho-no-mattari-isekai-life/",
      "secao": "legendados",
      "pagina": 15,
      "total_episodios": 12,
      "link_video": "https://animefire.plus/video/lv2-kara-cheat-datta-motoyuusha-kouho-no-mattari-isekai-life"
    },
    {
      "id": 2284,
      "nome": "Lycoris Recoil (Dublado)",
      "link": "https://animefire.plus/animes/lycoris-recoil-dublado-todos-os-episodios",
      "texto_original": "Lycoris Recoil (Dublado)",
      "rating": 8.15,
      "classificacao_etaria": "A14",
      "imagem_original": "https://animefire.plus/img/animes/lycoris-recoil.webp",
      "imagem_pasta": "https://animefire.plus/img/animes/lycoris-recoil/",
      "secao": "dublados,legendados",
      "pagina": 10,
      "total_episodios": 13,
      "link_video": "https://animefire.plus/video/lycoris-recoil-dublado"
    },
    {
      "id": 2285,
      "nome": "Lycoris Recoil: Friends Are Thieves of Time.",
      "link": "https://animefire.plus/animes/lycoris-recoil-friends-are-thieves-of-time-todos-os-episodios",
      "texto_original": "Lycoris Recoil: Friends Are Thieves of Time.",
      "rating": 7.72,
      "classificacao_etaria": "A14",
      "imagem_original": "https://animefire.plus/img/animes/lycoris-recoil-friends-are-thieves-of-time.webp",
      "imagem_pasta": "https://animefire.plus/img/animes/lycoris-recoil-friends-are-thieves-of-time/",
      "secao": "legendados",
      "pagina": 4,
      "total_episodios": 6,
      "link_video": "https://animefire.plus/video/lycoris-recoil-friends-are-thieves-of-time"
    },
    {
      "id": 2286,
      "nome": "M3: Sono Kuroki Hagane",
      "link": "https://animefire.plus/animes/m3-sono-kuroki-hagane-todos-os-episodios",
      "texto_original": "M3: Sono Kuroki Hagane",
      "rating": 6.66,
      "classificacao_etaria": "A16",
      "imagem_original": "https://animefire.plus/img/animes/m3-sono-kuroki-hagane.webp",
      "imagem_pasta": "https://animefire.plus/img/animes/m3-sono-kuroki-hagane/",
      "secao": "legendados",
      "pagina": 136,
      "total_episodios": 12,
      "link_video": "https://animefire.plus/video/m3-sono-kuroki-hagane"
    },
    {
      "id": 2287,
      "nome": "Maburaho",
      "link": "https://animefire.plus/animes/maburaho-todos-os-episodios",
      "texto_original": "Maburaho",
      "rating": 6.9,
      "classificacao_etaria": "A18",
      "imagem_original": "https://animefire.plus/img/animes/maburaho.webp",
      "imagem_pasta": "https://animefire.plus/img/animes/maburaho/",
      "secao": "legendados",
      "pagina": 170,
      "total_episodios": 24,
      "link_video": "https://animefire.plus/video/maburaho"
    },
    {
      "id": 2288,
      "nome": "Macademi Wasshoi!",
      "link": "https://animefire.plus/animes/macademi-wasshoi-todos-os-episodios",
      "texto_original": "Macademi Wasshoi!",
      "rating": 7.02,
      "classificacao_etaria": "A18",
      "imagem_original": "https://animefire.plus/img/animes/macademi-wasshoi.webp",
      "imagem_pasta": "https://animefire.plus/img/animes/macademi-wasshoi/",
      "secao": "legendados",
      "pagina": 143,
      "total_episodios": 0,
      "link_video": "https://animefire.plus/video/macademi-wasshoi"
    },
    {
      "id": 2289,
      "nome": "Machikado Mazoku",
      "link": "https://animefire.plus/animes/machikado-mazoku-todos-os-episodios",
      "texto_original": "Machikado Mazoku",
      "rating": 7.68,
      "classificacao_etaria": "A14",
      "imagem_original": "https://animefire.plus/img/animes/machikado-mazoku.webp",
      "imagem_pasta": "https://animefire.plus/img/animes/machikado-mazoku/",
      "secao": "legendados",
      "pagina": 119,
      "total_episodios": 2,
      "link_video": "https://animefire.plus/video/machikado-mazoku"
    },
    {
      "id": 2290,
      "nome": "Machikado Mazoku: 2-choume",
      "link": "https://animefire.plus/animes/machikado-mazoku-2-choume-todos-os-episodios",
      "texto_original": "Machikado Mazoku: 2-choume",
      "rating": 7.84,
      "classificacao_etaria": "A14",
      "imagem_original": "https://animefire.plus/img/animes/machikado-mazoku-2-choume.webp",
      "imagem_pasta": "https://animefire.plus/img/animes/machikado-mazoku-2-choume/",
      "secao": "legendados,lancamentos",
      "pagina": 34,
      "total_episodios": 4,
      "link_video": "https://animefire.plus/video/machikado-mazoku-2-choume"
    },
    {
      "id": 2291,
      "nome": "Machine-Doll wa Kizutsukanai",
      "link": "https://animefire.plus/animes/machine-doll-wa-kizutsukanai-todos-os-episodios",
      "texto_original": "Machine-Doll wa Kizutsukanai",
      "rating": 7.28,
      "classificacao_etaria": "A18",
      "imagem_original": "https://animefire.plus/img/animes/machine-doll-wa-kizutsukanai.webp",
      "imagem_pasta": "https://animefire.plus/img/animes/machine-doll-wa-kizutsukanai/",
      "secao": "legendados",
      "pagina": 154,
      "total_episodios": 4,
      "link_video": "https://animefire.plus/video/machine-doll-wa-kizutsukanai"
    },
    {
      "id": 2292,
      "nome": "Macross (Dublado)",
      "link": "https://animefire.plus/animes/macross-dublado-todos-os-episodios",
      "texto_original": "Macross (Dublado)",
      "rating": 7.96,
      "classificacao_etaria": "A14",
      "imagem_original": "https://animefire.plus/img/animes/macross.webp",
      "imagem_pasta": "https://animefire.plus/img/animes/macross/",
      "secao": "dublados,legendados",
      "pagina": 22,
      "total_episodios": 36,
      "link_video": "https://animefire.plus/video/macross-dublado"
    },
    {
      "id": 2293,
      "nome": "Macross 7",
      "link": "https://animefire.plus/animes/macross-7-todos-os-episodios",
      "texto_original": "Macross 7",
      "rating": 7.14,
      "classificacao_etaria": "A14",
      "imagem_original": "https://animefire.plus/img/animes/macross-7.webp",
      "imagem_pasta": "https://animefire.plus/img/animes/macross-7/",
      "secao": "legendados",
      "pagina": 60,
      "total_episodios": 49,
      "link_video": "https://animefire.plus/video/macross-7"
    },
    {
      "id": 2294,
      "nome": "Macross F",
      "link": "https://animefire.plus/animes/macross-f-todos-os-episodios",
      "texto_original": "Macross F",
      "rating": 7.96,
      "classificacao_etaria": "A14",
      "imagem_original": "https://animefire.plus/img/animes/macross-f.webp",
      "imagem_pasta": "https://animefire.plus/img/animes/macross-f/",
      "secao": "legendados",
      "pagina": 176,
      "total_episodios": 0,
      "link_video": "https://animefire.plus/video/macross-f"
    },
    {
      "id": 2295,
      "nome": "Macross Zero",
      "link": "https://animefire.plus/animes/macross-zero-todos-os-episodios",
      "texto_original": "Macross Zero",
      "rating": 7.54,
      "classificacao_etaria": "A18",
      "imagem_original": "https://animefire.plus/img/animes/macross-zero.webp",
      "imagem_pasta": "https://animefire.plus/img/animes/macross-zero/",
      "secao": "legendados",
      "pagina": 45,
      "total_episodios": 3,
      "link_video": "https://animefire.plus/video/macross-zero"
    },
    {
      "id": 2296,
      "nome": "Madan no Ou to Vanadis",
      "link": "https://animefire.plus/animes/madan-no-ou-to-vanadis-todos-os-episodios",
      "texto_original": "Madan no Ou to Vanadis",
      "rating": 7.29,
      "classificacao_etaria": "A16",
      "imagem_original": "https://animefire.plus/img/animes/madan-no-ou-to-vanadis.webp",
      "imagem_pasta": "https://animefire.plus/img/animes/madan-no-ou-to-vanadis/",
      "secao": "legendados",
      "pagina": 160,
      "total_episodios": 1,
      "link_video": "https://animefire.plus/video/madan-no-ou-to-vanadis"
    },
    {
      "id": 2297,
      "nome": "Made in Abyss",
      "link": "https://animefire.plus/animes/made-in-abyss-todos-os-episodios",
      "texto_original": "Made in Abyss",
      "rating": 8.85,
      "classificacao_etaria": "A16",
      "imagem_original": "https://animefire.plus/img/animes/made-in-abyss.webp",
      "imagem_pasta": "https://animefire.plus/img/animes/made-in-abyss/",
      "secao": "legendados",
      "pagina": 168,
      "total_episodios": 14,
      "link_video": "https://animefire.plus/video/made-in-abyss"
    },
    {
      "id": 2298,
      "nome": "Made in Abyss: Retsujitsu no Ougonkyou",
      "link": "https://animefire.plus/animes/made-in-abyss-retsujitsu-no-ougonkyou-todos-os-episodios",
      "texto_original": "Made in Abyss: Retsujitsu no Ougonkyou",
      "rating": 8.61,
      "classificacao_etaria": "A16",
      "imagem_original": "https://animefire.plus/img/animes/made-in-abyss-retsujitsu-no-ougonkyou.webp",
      "imagem_pasta": "https://animefire.plus/img/animes/made-in-abyss-retsujitsu-no-ougonkyou/",
      "secao": "legendados",
      "pagina": 31,
      "total_episodios": 12,
      "link_video": "https://animefire.plus/video/made-in-abyss-retsujitsu-no-ougonkyou"
    },
    {
      "id": 2299,
      "nome": "Madlax",
      "link": "https://animefire.plus/animes/madlax-todos-os-episodios",
      "texto_original": "Madlax",
      "rating": 7.12,
      "classificacao_etaria": "A14",
      "imagem_original": "https://animefire.plus/img/animes/madlax.webp",
      "imagem_pasta": "https://animefire.plus/img/animes/madlax/",
      "secao": "legendados",
      "pagina": 142,
      "total_episodios": 26,
      "link_video": "https://animefire.plus/video/madlax"
    },
    {
      "id": 2300,
      "nome": "Madou King Granzort",
      "link": "https://animefire.plus/animes/madou-king-granzort-todos-os-episodios",
      "texto_original": "Madou King Granzort",
      "rating": 7.09,
      "classificacao_etaria": null,
      "imagem_original": "https://animefire.plus/img/animes/madou-king-granzort.webp",
      "imagem_pasta": "https://animefire.plus/img/animes/madou-king-granzort/",
      "secao": "legendados",
      "pagina": 65,
      "total_episodios": 41,
      "link_video": "https://animefire.plus/video/madou-king-granzort"
    }
  ],
  "pagination": {
    "current_page": 112,
    "per_page": 20,
    "total_items": 4269,
    "total_pages": 214,
    "has_next": true,
    "has_prev": true
  }
}
