{
  "message": "Animes da seção: legendados",
  "section": "legendados",
  "data": [
    {
      "id": 3093,
      "nome": "Re:Zero kara Hajimeru Isekai Seikatsu 2nd Season (Dublado)",
      "link": "https://animefire.plus/animes/re-zero-kara-hajimeru-isekai-seikatsu-2nd-season-dublado-todos-os-episodios",
      "texto_original": "Re:Zero kara Hajimeru Isekai Seikatsu 2nd Season (Dublado)",
      "rating": 8.43,
      "classificacao_etaria": "A16",
      "imagem_original": "https://animefire.plus/img/animes/re-zero-kara-hajimeru-isekai-seikatsu-2nd-season.webp",
      "imagem_pasta": "https://animefire.plus/img/animes/re-zero-kara-hajimeru-isekai-seikatsu-2nd-season/",
      "secao": "dublados,legendados",
      "pagina": 16,
      "total_episodios": 13,
      "link_video": "https://animefire.plus/video/re-zero-kara-hajimeru-isekai-seikatsu-2nd-season-dublado"
    },
    {
      "id": 3094,
      "nome": "Re:Zero kara Hajimeru Isekai Seikatsu 2nd Season Part 2",
      "link": "https://animefire.plus/animes/re-zero-kara-hajimeru-isekai-seikatsu-2nd-season-part-2-todos-os-episodios",
      "texto_original": "Re:Zero kara Hajimeru Isekai Seikatsu 2nd Season Part 2",
      "rating": 8.42,
      "classificacao_etaria": "A16",
      "imagem_original": "https://animefire.plus/img/animes/re-zero-kara-hajimeru-isekai-seikatsu-2nd-season-part-2.webp",
      "imagem_pasta": "https://animefire.plus/img/animes/re-zero-kara-hajimeru-isekai-seikatsu-2nd-season-part-2/",
      "secao": "legendados",
      "pagina": 50,
      "total_episodios": 8,
      "link_video": "https://animefire.plus/video/re-zero-kara-hajimeru-isekai-seikatsu-2nd-season-part-2"
    },
    {
      "id": 3095,
      "nome": "Re:Zero kara Hajimeru Isekai Seikatsu 3rd Season",
      "link": "https://animefire.plus/animes/re-zero-kara-hajimeru-isekai-seikatsu-3rd-season-todos-os-episodios",
      "texto_original": "Re:Zero kara Hajimeru Isekai Seikatsu 3rd Season",
      "rating": 8.45,
      "classificacao_etaria": "A16",
      "imagem_original": "https://animefire.plus/img/animes/re-zero-kara-hajimeru-isekai-seikatsu-3rd-season.webp",
      "imagem_pasta": "https://animefire.plus/img/animes/re-zero-kara-hajimeru-isekai-seikatsu-3rd-season/",
      "secao": "legendados",
      "pagina": 11,
      "total_episodios": 16,
      "link_video": "https://animefire.plus/video/re-zero-kara-hajimeru-isekai-seikatsu-3rd-season"
    },
    {
      "id": 3096,
      "nome": "Re:Zero kara Hajimeru Isekai Seikatsu: Shin Henshuu-ban",
      "link": "https://animefire.plus/animes/re-zero-kara-hajimeru-isekai-seikatsu-shin-henshuu-ban-todos-os-episodios",
      "texto_original": "Re:Zero kara Hajimeru Isekai Seikatsu: Shin Henshuu-ban",
      "rating": null,
      "classificacao_etaria": null,
      "imagem_original": "https://animefire.plus/img/animes/re-zero-kara-hajimeru-isekai-seikatsu-shin-henshuu-ban.webp",
      "imagem_pasta": "https://animefire.plus/img/animes/re-zero-kara-hajimeru-isekai-seikatsu-shin-henshuu-ban/",
      "secao": "legendados,lancamentos",
      "pagina": 93,
      "total_episodios": 13,
      "link_video": "https://animefire.plus/video/re-zero-kara-hajimeru-isekai-seikatsu-shin-henshuu-ban"
    },
    {
      "id": 3097,
      "nome": "Rebirth",
      "link": "https://animefire.plus/animes/rebirth-todos-os-episodios",
      "texto_original": "Rebirth",
      "rating": 5.37,
      "classificacao_etaria": "A14",
      "imagem_original": "https://animefire.plus/img/animes/rebirth.webp",
      "imagem_pasta": "https://animefire.plus/img/animes/rebirth/",
      "secao": "legendados,lancamentos",
      "pagina": 92,
      "total_episodios": 0,
      "link_video": "https://animefire.plus/video/rebirth"
    },
    {
      "id": 3098,
      "nome": "Recorder to Randoseru Do♪",
      "link": "https://animefire.plus/animes/recorder-to-randoseru-do-todos-os-episodios",
      "texto_original": "Recorder to Randoseru Do♪",
      "rating": 6.75,
      "classificacao_etaria": "A14",
      "imagem_original": "https://animefire.plus/img/animes/recorder-to-randoseru-do.webp",
      "imagem_pasta": "https://animefire.plus/img/animes/recorder-to-randoseru-do/",
      "secao": "legendados",
      "pagina": 117,
      "total_episodios": 0,
      "link_video": "https://animefire.plus/video/recorder-to-randoseru-do"
    },
    {
      "id": 3099,
      "nome": "Recorder to Randoseru Mi☆",
      "link": "https://animefire.plus/animes/recorder-to-randoseru-mi-todos-os-episodios",
      "texto_original": "Recorder to Randoseru Mi☆",
      "rating": 6.75,
      "classificacao_etaria": "A14",
      "imagem_original": "https://animefire.plus/img/animes/recorder-to-randoseru-mi.webp",
      "imagem_pasta": "https://animefire.plus/img/animes/recorder-to-randoseru-mi/",
      "secao": "legendados",
      "pagina": 174,
      "total_episodios": 12,
      "link_video": "https://animefire.plus/video/recorder-to-randoseru-mi"
    },
    {
      "id": 3100,
      "nome": "Recorder To Randoseru Re♪",
      "link": "https://animefire.plus/animes/recorder-to-randoseru-re-todos-os-episodios",
      "texto_original": "Recorder To Randoseru Re♪",
      "rating": 6.93,
      "classificacao_etaria": "A14",
      "imagem_original": "https://animefire.plus/img/animes/recorder-to-randoseru-re.webp",
      "imagem_pasta": "https://animefire.plus/img/animes/recorder-to-randoseru-re/",
      "secao": "legendados",
      "pagina": 100,
      "total_episodios": 0,
      "link_video": "https://animefire.plus/video/recorder-to-randoseru-re"
    },
    {
      "id": 3101,
      "nome": "Red Garden",
      "link": "https://animefire.plus/animes/red-garden-todos-os-episodios",
      "texto_original": "Red Garden",
      "rating": 7.15,
      "classificacao_etaria": "A16",
      "imagem_original": "https://animefire.plus/img/animes/red-garden.webp",
      "imagem_pasta": "https://animefire.plus/img/animes/red-garden/",
      "secao": "legendados",
      "pagina": 131,
      "total_episodios": 22,
      "link_video": "https://animefire.plus/video/red-garden"
    },
    {
      "id": 3102,
      "nome": "Regalia: The Three Sacred Stars",
      "link": "https://animefire.plus/animes/regalia-the-three-sacred-stars-todos-os-episodios",
      "texto_original": "Regalia: The Three Sacred Stars",
      "rating": 6.02,
      "classificacao_etaria": "A14",
      "imagem_original": "https://animefire.plus/img/animes/regalia-the-three-sacred-stars.webp",
      "imagem_pasta": "https://animefire.plus/img/animes/regalia-the-three-sacred-stars/",
      "secao": "legendados",
      "pagina": 172,
      "total_episodios": 0,
      "link_video": "https://animefire.plus/video/regalia-the-three-sacred-stars"
    },
    {
      "id": 3103,
      "nome": "Reikenzan: Eichi e no Shikaku",
      "link": "https://animefire.plus/animes/reikenzan-eichi-e-no-shikaku-todos-os-episodios",
      "texto_original": "Reikenzan: Eichi e no Shikaku",
      "rating": 7.03,
      "classificacao_etaria": "A14",
      "imagem_original": "https://animefire.plus/img/animes/reikenzan-eichi-e-no-shikaku.webp",
      "imagem_pasta": "https://animefire.plus/img/animes/reikenzan-eichi-e-no-shikaku/",
      "secao": "legendados",
      "pagina": 151,
      "total_episodios": 12,
      "link_video": "https://animefire.plus/video/reikenzan-eichi-e-no-shikaku"
    },
    {
      "id": 3104,
      "nome": "Reikenzan: Hoshikuzu-tachi no Utage",
      "link": "https://animefire.plus/animes/reikenzan-hoshikuzu-tachi-no-utage-todos-os-episodios",
      "texto_original": "Reikenzan: Hoshikuzu-tachi no Utage",
      "rating": 7.21,
      "classificacao_etaria": "A14",
      "imagem_original": "https://animefire.plus/img/animes/reikenzan-hoshikuzu-tachi-no-utage.webp",
      "imagem_pasta": "https://animefire.plus/img/animes/reikenzan-hoshikuzu-tachi-no-utage/",
      "secao": "legendados",
      "pagina": 166,
      "total_episodios": 12,
      "link_video": "https://animefire.plus/video/reikenzan-hoshikuzu-tachi-no-utage"
    },
    {
      "id": 3105,
      "nome": "Rekishi ni Nokoru Akujo ni Naru zo",
      "link": "https://animefire.plus/animes/rekishi-ni-nokoru-akujo-ni-naru-zo-todos-os-episodios",
      "texto_original": "Rekishi ni Nokoru Akujo ni Naru zo",
      "rating": 7.33,
      "classificacao_etaria": "A14",
      "imagem_original": "https://animefire.plus/img/animes/rekishi-ni-nokoru-akujo-ni-naru-zo.webp",
      "imagem_pasta": "https://animefire.plus/img/animes/rekishi-ni-nokoru-akujo-ni-naru-zo/",
      "secao": "legendados",
      "pagina": 11,
      "total_episodios": 13,
      "link_video": "https://animefire.plus/video/rekishi-ni-nokoru-akujo-ni-naru-zo"
    },
    {
      "id": 3106,
      "nome": "Rekka no Honoo",
      "link": "https://animefire.plus/animes/rekka-no-honoo-todos-os-episodios",
      "texto_original": "Rekka no Honoo",
      "rating": 7.41,
      "classificacao_etaria": "A14",
      "imagem_original": "https://animefire.plus/img/animes/rekka-no-honoo.webp",
      "imagem_pasta": "https://animefire.plus/img/animes/rekka-no-honoo/",
      "secao": "legendados",
      "pagina": 162,
      "total_episodios": 42,
      "link_video": "https://animefire.plus/video/rekka-no-honoo"
    },
    {
      "id": 3107,
      "nome": "Release the Spyce",
      "link": "https://animefire.plus/animes/release-the-spyce-todos-os-episodios",
      "texto_original": "Release the Spyce",
      "rating": 7.09,
      "classificacao_etaria": "A14",
      "imagem_original": "https://animefire.plus/img/animes/release-the-spyce.webp",
      "imagem_pasta": "https://animefire.plus/img/animes/release-the-spyce/",
      "secao": "legendados",
      "pagina": 156,
      "total_episodios": 12,
      "link_video": "https://animefire.plus/video/release-the-spyce"
    },
    {
      "id": 3108,
      "nome": "Relic Armor Legaciam",
      "link": "https://animefire.plus/animes/relic-armor-legaciam-todos-os-episodios",
      "texto_original": "Relic Armor Legaciam",
      "rating": 5.66,
      "classificacao_etaria": "A14",
      "imagem_original": "https://animefire.plus/img/animes/relic-armor-legaciam.webp",
      "imagem_pasta": "https://animefire.plus/img/animes/relic-armor-legaciam/",
      "secao": "legendados",
      "pagina": 70,
      "total_episodios": 1,
      "link_video": "https://animefire.plus/video/relic-armor-legaciam"
    },
    {
      "id": 3109,
      "nome": "ReLIFE",
      "link": "https://animefire.plus/animes/relife-todos-os-episodios",
      "texto_original": "ReLIFE",
      "rating": 8.09,
      "classificacao_etaria": "A14",
      "imagem_original": "https://animefire.plus/img/animes/relife.webp",
      "imagem_pasta": "https://animefire.plus/img/animes/relife/",
      "secao": "legendados",
      "pagina": 79,
      "total_episodios": 13,
      "link_video": "https://animefire.plus/video/relife"
    },
    {
      "id": 3110,
      "nome": "ReLIFE: Kanketsu-hen",
      "link": "https://animefire.plus/animes/relife-kanketsu-hen-todos-os-episodios",
      "texto_original": "ReLIFE: Kanketsu-hen",
      "rating": 8.32,
      "classificacao_etaria": "A14",
      "imagem_original": "https://animefire.plus/img/animes/relife-kanketsu-hen.webp",
      "imagem_pasta": "https://animefire.plus/img/animes/relife-kanketsu-hen/",
      "secao": "legendados",
      "pagina": 164,
      "total_episodios": 4,
      "link_video": "https://animefire.plus/video/relife-kanketsu-hen"
    },
    {
      "id": 3111,
      "nome": "Renai Boukun",
      "link": "https://animefire.plus/animes/renai-boukun-todos-os-episodios",
      "texto_original": "Renai Boukun",
      "rating": 6.86,
      "classificacao_etaria": "A14",
      "imagem_original": "https://animefire.plus/img/animes/renai-boukun.webp",
      "imagem_pasta": "https://animefire.plus/img/animes/renai-boukun/",
      "secao": "legendados",
      "pagina": 143,
      "total_episodios": 12,
      "link_video": "https://animefire.plus/video/renai-boukun"
    },
    {
      "id": 3112,
      "nome": "Renai Flops",
      "link": "https://animefire.plus/animes/renai-flops-todos-os-episodios",
      "texto_original": "Renai Flops",
      "rating": 6.7,
      "classificacao_etaria": "A18",
      "imagem_original": "https://animefire.plus/img/animes/renai-flops.webp",
      "imagem_pasta": "https://animefire.plus/img/animes/renai-flops/",
      "secao": "legendados",
      "pagina": 29,
      "total_episodios": 12,
      "link_video": "https://animefire.plus/video/renai-flops"
    }
  ],
  "pagination": {
    "current_page": 152,
    "per_page": 20,
    "total_items": 4269,
    "total_pages": 214,
    "has_next": true,
    "has_prev": true
  }
}
