{
  "message": "Animes da seção: legendados",
  "section": "legendados",
  "data": [
    {
      "id": 3624,
      "nome": "Star☆Twinkle Precure",
      "link": "https://animefire.plus/animes/star-twinkle-precure-todos-os-episodios",
      "texto_original": "Star☆Twinkle Precure",
      "rating": 7.26,
      "classificacao_etaria": null,
      "imagem_original": "https://animefire.plus/img/animes/star-twinkle-precure.webp",
      "imagem_pasta": "https://animefire.plus/img/animes/star-twinkle-precure/",
      "secao": "legendados",
      "pagina": 122,
      "total_episodios": 0,
      "link_video": "https://animefire.plus/video/star-twinkle-precure"
    },
    {
      "id": 3625,
      "nome": "Starmyu",
      "link": "https://animefire.plus/animes/starmyu-todos-os-episodios",
      "texto_original": "Starmyu",
      "rating": 7.06,
      "classificacao_etaria": "A14",
      "imagem_original": "https://animefire.plus/img/animes/starmyu.webp",
      "imagem_pasta": "https://animefire.plus/img/animes/starmyu/",
      "secao": "legendados",
      "pagina": 149,
      "total_episodios": 1,
      "link_video": "https://animefire.plus/video/starmyu"
    },
    {
      "id": 3626,
      "nome": "Starmyu 2nd Season",
      "link": "https://animefire.plus/animes/starmyu-2nd-season-todos-os-episodios",
      "texto_original": "Starmyu 2nd Season",
      "rating": 7.46,
      "classificacao_etaria": "A14",
      "imagem_original": "https://animefire.plus/img/animes/starmyu-2nd-season.webp",
      "imagem_pasta": "https://animefire.plus/img/animes/starmyu-2nd-season/",
      "secao": "legendados",
      "pagina": 98,
      "total_episodios": 12,
      "link_video": "https://animefire.plus/video/starmyu-2nd-season"
    },
    {
      "id": 3627,
      "nome": "Starmyu 3rd Season",
      "link": "https://animefire.plus/animes/starmyu-3rd-season-todos-os-episodios",
      "texto_original": "Starmyu 3rd Season",
      "rating": 6.89,
      "classificacao_etaria": "A14",
      "imagem_original": "https://animefire.plus/img/animes/starmyu-3rd-season.webp",
      "imagem_pasta": "https://animefire.plus/img/animes/starmyu-3rd-season/",
      "secao": "legendados",
      "pagina": 95,
      "total_episodios": 12,
      "link_video": "https://animefire.plus/video/starmyu-3rd-season"
    },
    {
      "id": 3628,
      "nome": "Starmyu in Halloween",
      "link": "https://animefire.plus/animes/starmyu-in-halloween-todos-os-episodios",
      "texto_original": "Starmyu in Halloween",
      "rating": 6.92,
      "classificacao_etaria": null,
      "imagem_original": "https://animefire.plus/img/animes/starmyu-in-halloween.webp",
      "imagem_pasta": "https://animefire.plus/img/animes/starmyu-in-halloween/",
      "secao": "legendados",
      "pagina": 86,
      "total_episodios": 1,
      "link_video": "https://animefire.plus/video/starmyu-in-halloween"
    },
    {
      "id": 3629,
      "nome": "Starry☆Sky",
      "link": "https://animefire.plus/animes/starry-sky-todos-os-episodios",
      "texto_original": "Starry☆Sky",
      "rating": 6.23,
      "classificacao_etaria": "A14",
      "imagem_original": "https://animefire.plus/img/animes/starry-sky.webp",
      "imagem_pasta": "https://animefire.plus/img/animes/starry-sky/",
      "secao": "legendados",
      "pagina": 119,
      "total_episodios": 26,
      "link_video": "https://animefire.plus/video/starry-sky"
    },
    {
      "id": 3630,
      "nome": "Starship Operators",
      "link": "https://animefire.plus/animes/starship-operators-todos-os-episodios",
      "texto_original": "Starship Operators",
      "rating": 7.02,
      "classificacao_etaria": "A14",
      "imagem_original": "https://animefire.plus/img/animes/starship-operators.webp",
      "imagem_pasta": "https://animefire.plus/img/animes/starship-operators/",
      "secao": "legendados",
      "pagina": 75,
      "total_episodios": 13,
      "link_video": "https://animefire.plus/video/starship-operators"
    },
    {
      "id": 3631,
      "nome": "Steins;Gate (Dublado)",
      "link": "https://animefire.plus/animes/steins-gate-dublado-todos-os-episodios",
      "texto_original": "Steins;Gate (Dublado)",
      "rating": 9.12,
      "classificacao_etaria": "A14",
      "imagem_original": "https://animefire.plus/img/animes/steins-gate.webp",
      "imagem_pasta": "https://animefire.plus/img/animes/steins-gate/",
      "secao": "dublados,legendados",
      "pagina": 19,
      "total_episodios": 25,
      "link_video": "https://animefire.plus/video/steins-gate-dublado"
    },
    {
      "id": 3632,
      "nome": "Steins;Gate 0 (Dublado)",
      "link": "https://animefire.plus/animes/steins-gate-0-dublado-todos-os-episodios",
      "texto_original": "Steins;Gate 0 (Dublado)",
      "rating": 8.52,
      "classificacao_etaria": "A14",
      "imagem_original": "https://animefire.plus/img/animes/steins-gate-0.webp",
      "imagem_pasta": "https://animefire.plus/img/animes/steins-gate-0/",
      "secao": "dublados,legendados",
      "pagina": 18,
      "total_episodios": 23,
      "link_video": "https://animefire.plus/video/steins-gate-0-dublado"
    },
    {
      "id": 3633,
      "nome": "Steins;Gate 0: Kesshou Takei no Valentine - Bittersweet Intermedio (Dublado)",
      "link": "https://animefire.plus/animes/steins-gate-0-kesshou-takei-no-valentine---bittersweet-intermedio-dublado-todos-os-episodios",
      "texto_original": "Steins;Gate 0: Kesshou Takei no Valentine - Bittersweet Intermedio (Dublado)",
      "rating": 7.14,
      "classificacao_etaria": "A14",
      "imagem_original": "https://animefire.plus/img/animes/steins-gate-0-kesshou-takei-no-valentine---bittersweet-intermedio.webp",
      "imagem_pasta": "https://animefire.plus/img/animes/steins-gate-0-kesshou-takei-no-valentine---bittersweet-intermedio/",
      "secao": "dublados,legendados",
      "pagina": 18,
      "total_episodios": 1,
      "link_video": "https://animefire.plus/video/steins-gate-0-kesshou-takei-no-valentine---bittersweet-intermedio-dublado"
    },
    {
      "id": 3634,
      "nome": "Steins;Gate: Kyoukaimenjou no Missing Link - Divide By Zero (Dublado)",
      "link": "https://animefire.plus/animes/steins-gate-kyoukaimenjou-no-missing-link---divide-by-zero-dublado-todos-os-episodios",
      "texto_original": "Steins;Gate: Kyoukaimenjou no Missing Link - Divide By Zero (Dublado)",
      "rating": 8.26,
      "classificacao_etaria": "A14",
      "imagem_original": "https://animefire.plus/img/animes/steins-gate-kyoukaimenjou-no-missing-link---divide-by-zero.webp",
      "imagem_pasta": "https://animefire.plus/img/animes/steins-gate-kyoukaimenjou-no-missing-link---divide-by-zero/",
      "secao": "dublados,legendados",
      "pagina": 18,
      "total_episodios": 1,
      "link_video": "https://animefire.plus/video/steins-gate-kyoukaimenjou-no-missing-link---divide-by-zero-dublado"
    },
    {
      "id": 3635,
      "nome": "Steins;Gate: Soumei Eichi no Cognitive Computing",
      "link": "https://animefire.plus/animes/steins-gate-soumei-eichi-no-cognitive-computing-todos-os-episodios",
      "texto_original": "Steins;Gate: Soumei Eichi no Cognitive Computing",
      "rating": 7.43,
      "classificacao_etaria": "A14",
      "imagem_original": "https://animefire.plus/img/animes/steins-gate-soumei-eichi-no-cognitive-computing.webp",
      "imagem_pasta": "https://animefire.plus/img/animes/steins-gate-soumei-eichi-no-cognitive-computing/",
      "secao": "legendados",
      "pagina": 68,
      "total_episodios": 4,
      "link_video": "https://animefire.plus/video/steins-gate-soumei-eichi-no-cognitive-computing"
    },
    {
      "id": 3636,
      "nome": "Stella Jogakuin Koutou-ka C³-bu",
      "link": "https://animefire.plus/animes/stella-jogakuin-koutou-ka-c--bu-todos-os-episodios",
      "texto_original": "Stella Jogakuin Koutou-ka C³-bu",
      "rating": 6.57,
      "classificacao_etaria": "A14",
      "imagem_original": "https://animefire.plus/img/animes/stella-jogakuin-koutou-ka-c--bu.webp",
      "imagem_pasta": "https://animefire.plus/img/animes/stella-jogakuin-koutou-ka-c--bu/",
      "secao": "legendados",
      "pagina": 156,
      "total_episodios": 13,
      "link_video": "https://animefire.plus/video/stella-jogakuin-koutou-ka-c--bu"
    },
    {
      "id": 3637,
      "nome": "Stella no Mahou",
      "link": "https://animefire.plus/animes/stella-no-mahou-todos-os-episodios",
      "texto_original": "Stella no Mahou",
      "rating": 6.91,
      "classificacao_etaria": "A14",
      "imagem_original": "https://animefire.plus/img/animes/stella-no-mahou.webp",
      "imagem_pasta": "https://animefire.plus/img/animes/stella-no-mahou/",
      "secao": "legendados",
      "pagina": 165,
      "total_episodios": 12,
      "link_video": "https://animefire.plus/video/stella-no-mahou"
    },
    {
      "id": 3638,
      "nome": "Strait Jacket",
      "link": "https://animefire.plus/animes/strait-jacket-todos-os-episodios",
      "texto_original": "Strait Jacket",
      "rating": 6.86,
      "classificacao_etaria": "A16",
      "imagem_original": "https://animefire.plus/img/animes/strait-jacket.webp",
      "imagem_pasta": "https://animefire.plus/img/animes/strait-jacket/",
      "secao": "legendados",
      "pagina": 78,
      "total_episodios": 3,
      "link_video": "https://animefire.plus/video/strait-jacket"
    },
    {
      "id": 3639,
      "nome": "Strange+",
      "link": "https://animefire.plus/animes/strange-todos-os-episodios",
      "texto_original": "Strange+",
      "rating": 6.03,
      "classificacao_etaria": "A14",
      "imagem_original": "https://animefire.plus/img/animes/strange.webp",
      "imagem_pasta": "https://animefire.plus/img/animes/strange/",
      "secao": "legendados",
      "pagina": 100,
      "total_episodios": 12,
      "link_video": "https://animefire.plus/video/strange"
    },
    {
      "id": 3640,
      "nome": "Stratos 4 (Dublado)",
      "link": "https://animefire.plus/animes/stratos-4-dublado-todos-os-episodios",
      "texto_original": "Stratos 4 (Dublado)",
      "rating": 6.68,
      "classificacao_etaria": "A14",
      "imagem_original": "https://animefire.plus/img/animes/stratos-4.webp",
      "imagem_pasta": "https://animefire.plus/img/animes/stratos-4/",
      "secao": "dublados,legendados",
      "pagina": 23,
      "total_episodios": 13,
      "link_video": "https://animefire.plus/video/stratos-4-dublado"
    },
    {
      "id": 3641,
      "nome": "Stratos 4 Advance",
      "link": "https://animefire.plus/animes/stratos-4-advance-todos-os-episodios",
      "texto_original": "Stratos 4 Advance",
      "rating": 6.87,
      "classificacao_etaria": "A14",
      "imagem_original": "https://animefire.plus/img/animes/stratos-4-advance.webp",
      "imagem_pasta": "https://animefire.plus/img/animes/stratos-4-advance/",
      "secao": "legendados",
      "pagina": 79,
      "total_episodios": 8,
      "link_video": "https://animefire.plus/video/stratos-4-advance"
    },
    {
      "id": 3642,
      "nome": "Strawberry Panic",
      "link": "https://animefire.plus/animes/strawberry-panic-todos-os-episodios",
      "texto_original": "Strawberry Panic",
      "rating": 7.39,
      "classificacao_etaria": "A14",
      "imagem_original": "https://animefire.plus/img/animes/strawberry-panic.webp",
      "imagem_pasta": "https://animefire.plus/img/animes/strawberry-panic/",
      "secao": "legendados",
      "pagina": 123,
      "total_episodios": 26,
      "link_video": "https://animefire.plus/video/strawberry-panic"
    },
    {
      "id": 3643,
      "nome": "Street Fighter II V (Dublado)",
      "link": "https://animefire.plus/animes/street-fighter-ii-v-dublado-todos-os-episodios",
      "texto_original": "Street Fighter II V (Dublado)",
      "rating": 7.08,
      "classificacao_etaria": "A14",
      "imagem_original": "https://animefire.plus/img/animes/street-fighter-ii-v.webp",
      "imagem_pasta": "https://animefire.plus/img/animes/street-fighter-ii-v/",
      "secao": "dublados,legendados",
      "pagina": 22,
      "total_episodios": 29,
      "link_video": "https://animefire.plus/video/street-fighter-ii-v-dublado"
    }
  ],
  "pagination": {
    "current_page": 178,
    "per_page": 20,
    "total_items": 4269,
    "total_pages": 214,
    "has_next": true,
    "has_prev": true
  }
}
