{
  "message": "Animes da seção: legendados",
  "section": "legendados",
  "data": [
    {
      "id": 3989,
      "nome": "Uchi Tama?! Uchi no Tama Shirimasen ka?",
      "link": "https://animefire.plus/animes/uchi-tama-uchi-no-tama-shirimasen-ka-todos-os-episodios",
      "texto_original": "Uchi Tama?! Uchi no Tama Shirimasen ka?",
      "rating": 6.9,
      "classificacao_etaria": "A14",
      "imagem_original": "https://animefire.plus/img/animes/uchi-tama-uchi-no-tama-shirimasen-ka.webp",
      "imagem_pasta": "https://animefire.plus/img/animes/uchi-tama-uchi-no-tama-shirimasen-ka/",
      "secao": "legendados",
      "pagina": 92,
      "total_episodios": 1,
      "link_video": "https://animefire.plus/video/uchi-tama-uchi-no-tama-shirimasen-ka"
    },
    {
      "id": 3990,
      "nome": "Uchouten Kazoku",
      "link": "https://animefire.plus/animes/uchouten-kazoku-todos-os-episodios",
      "texto_original": "Uchouten Kazoku",
      "rating": 7.94,
      "classificacao_etaria": "A14",
      "imagem_original": "https://animefire.plus/img/animes/uchouten-kazoku.webp",
      "imagem_pasta": "https://animefire.plus/img/animes/uchouten-kazoku/",
      "secao": "legendados",
      "pagina": 137,
      "total_episodios": 0,
      "link_video": "https://animefire.plus/video/uchouten-kazoku"
    },
    {
      "id": 3991,
      "nome": "Uchouten Kazoku 2",
      "link": "https://animefire.plus/animes/uchouten-kazoku-2-todos-os-episodios",
      "texto_original": "Uchouten Kazoku 2",
      "rating": 8.2,
      "classificacao_etaria": "A14",
      "imagem_original": "https://animefire.plus/img/animes/uchouten-kazoku-2.webp",
      "imagem_pasta": "https://animefire.plus/img/animes/uchouten-kazoku-2/",
      "secao": "legendados",
      "pagina": 133,
      "total_episodios": 12,
      "link_video": "https://animefire.plus/video/uchouten-kazoku-2"
    },
    {
      "id": 3992,
      "nome": "Uchuu Kaizoku Captain Herlock",
      "link": "https://animefire.plus/animes/uchuu-kaizoku-captain-herlock-todos-os-episodios",
      "texto_original": "Uchuu Kaizoku Captain Herlock",
      "rating": 7.7,
      "classificacao_etaria": "A14",
      "imagem_original": "https://animefire.plus/img/animes/uchuu-kaizoku-captain-herlock.webp",
      "imagem_pasta": "https://animefire.plus/img/animes/uchuu-kaizoku-captain-herlock/",
      "secao": "legendados",
      "pagina": 43,
      "total_episodios": 42,
      "link_video": "https://animefire.plus/video/uchuu-kaizoku-captain-herlock"
    },
    {
      "id": 3993,
      "nome": "Uchuu Kazoku Carlvinson",
      "link": "https://animefire.plus/animes/uchuu-kazoku-carlvinson-todos-os-episodios",
      "texto_original": "Uchuu Kazoku Carlvinson",
      "rating": 6.44,
      "classificacao_etaria": "A14",
      "imagem_original": "https://animefire.plus/img/animes/uchuu-kazoku-carlvinson.webp",
      "imagem_pasta": "https://animefire.plus/img/animes/uchuu-kazoku-carlvinson/",
      "secao": "legendados",
      "pagina": 54,
      "total_episodios": 1,
      "link_video": "https://animefire.plus/video/uchuu-kazoku-carlvinson"
    },
    {
      "id": 3994,
      "nome": "Uchuu Kyoudai",
      "link": "https://animefire.plus/animes/uchuu-kyoudai-todos-os-episodios",
      "texto_original": "Uchuu Kyoudai",
      "rating": 8.53,
      "classificacao_etaria": "A14",
      "imagem_original": "https://animefire.plus/img/animes/uchuu-kyoudai.webp",
      "imagem_pasta": "https://animefire.plus/img/animes/uchuu-kyoudai/",
      "secao": "legendados",
      "pagina": 68,
      "total_episodios": 99,
      "link_video": "https://animefire.plus/video/uchuu-kyoudai"
    },
    {
      "id": 3995,
      "nome": "Uchuu no Senshi",
      "link": "https://animefire.plus/animes/uchuu-no-senshi-todos-os-episodios",
      "texto_original": "Uchuu no Senshi",
      "rating": 6.21,
      "classificacao_etaria": "A16",
      "imagem_original": "https://animefire.plus/img/animes/uchuu-no-senshi.webp",
      "imagem_pasta": "https://animefire.plus/img/animes/uchuu-no-senshi/",
      "secao": "legendados",
      "pagina": 55,
      "total_episodios": 6,
      "link_video": "https://animefire.plus/video/uchuu-no-senshi"
    },
    {
      "id": 3996,
      "nome": "Uchuu no Stellvia",
      "link": "https://animefire.plus/animes/uchuu-no-stellvia-todos-os-episodios",
      "texto_original": "Uchuu no Stellvia",
      "rating": 7.44,
      "classificacao_etaria": "A14",
      "imagem_original": "https://animefire.plus/img/animes/uchuu-no-stellvia.webp",
      "imagem_pasta": "https://animefire.plus/img/animes/uchuu-no-stellvia/",
      "secao": "legendados",
      "pagina": 165,
      "total_episodios": 26,
      "link_video": "https://animefire.plus/video/uchuu-no-stellvia"
    },
    {
      "id": 3997,
      "nome": "Uchuu Patrol Luluco",
      "link": "https://animefire.plus/animes/uchuu-patrol-luluco-todos-os-episodios",
      "texto_original": "Uchuu Patrol Luluco",
      "rating": 7.66,
      "classificacao_etaria": "A14",
      "imagem_original": "https://animefire.plus/img/animes/uchuu-patrol-luluco.webp",
      "imagem_pasta": "https://animefire.plus/img/animes/uchuu-patrol-luluco/",
      "secao": "legendados",
      "pagina": 140,
      "total_episodios": 13,
      "link_video": "https://animefire.plus/video/uchuu-patrol-luluco"
    },
    {
      "id": 3998,
      "nome": "Uchuu Senkan Tiramisù",
      "link": "https://animefire.plus/animes/uchuu-senkan-tiramisu-todos-os-episodios",
      "texto_original": "Uchuu Senkan Tiramisù",
      "rating": 6.4,
      "classificacao_etaria": "A14",
      "imagem_original": "https://animefire.plus/img/animes/uchuu-senkan-tiramisu.webp",
      "imagem_pasta": "https://animefire.plus/img/animes/uchuu-senkan-tiramisu/",
      "secao": "legendados",
      "pagina": 150,
      "total_episodios": 4,
      "link_video": "https://animefire.plus/video/uchuu-senkan-tiramisu"
    },
    {
      "id": 3999,
      "nome": "Uchuu Senkan Tiramisù Specials",
      "link": "https://animefire.plus/animes/uchuu-senkan-tiramisu-specials-todos-os-episodios",
      "texto_original": "Uchuu Senkan Tiramisù Specials",
      "rating": 6.37,
      "classificacao_etaria": "A14",
      "imagem_original": "https://animefire.plus/img/animes/uchuu-senkan-tiramisu-specials.webp",
      "imagem_pasta": "https://animefire.plus/img/animes/uchuu-senkan-tiramisu-specials/",
      "secao": "legendados",
      "pagina": 118,
      "total_episodios": 3,
      "link_video": "https://animefire.plus/video/uchuu-senkan-tiramisu-specials"
    },
    {
      "id": 4000,
      "nome": "Uchuu Senkan Yamato 2199",
      "link": "https://animefire.plus/animes/uchuu-senkan-yamato-2199-todos-os-episodios",
      "texto_original": "Uchuu Senkan Yamato 2199",
      "rating": 8.39,
      "classificacao_etaria": "A14",
      "imagem_original": "https://animefire.plus/img/animes/uchuu-senkan-yamato-2199.webp",
      "imagem_pasta": "https://animefire.plus/img/animes/uchuu-senkan-yamato-2199/",
      "secao": "legendados",
      "pagina": 134,
      "total_episodios": 30,
      "link_video": "https://animefire.plus/video/uchuu-senkan-yamato-2199"
    },
    {
      "id": 4001,
      "nome": "Uchuu Senkan Yamato 2202: Ai no Senshi-tachi",
      "link": "https://animefire.plus/animes/uchuu-senkan-yamato-2202-ai-no-senshi-tachi-todos-os-episodios",
      "texto_original": "Uchuu Senkan Yamato 2202: Ai no Senshi-tachi",
      "rating": 7.69,
      "classificacao_etaria": "A14",
      "imagem_original": "https://animefire.plus/img/animes/uchuu-senkan-yamato-2202-ai-no-senshi-tachi.webp",
      "imagem_pasta": "https://animefire.plus/img/animes/uchuu-senkan-yamato-2202-ai-no-senshi-tachi/",
      "secao": "legendados",
      "pagina": 42,
      "total_episodios": 26,
      "link_video": "https://animefire.plus/video/uchuu-senkan-yamato-2202-ai-no-senshi-tachi"
    },
    {
      "id": 4002,
      "nome": "Uchuujin MuuMuu",
      "link": "https://animefire.plus/animes/uchuujin-muumuu-todos-os-episodios",
      "texto_original": "Uchuujin MuuMuu",
      "rating": null,
      "classificacao_etaria": "A14",
      "imagem_original": "https://animefire.plus/img/animes/uchuujin-muumuu.webp",
      "imagem_pasta": "https://animefire.plus/img/animes/uchuujin-muumuu/",
      "secao": "legendados,lancamentos",
      "pagina": 4,
      "total_episodios": 0,
      "link_video": "https://animefire.plus/video/uchuujin-muumuu"
    },
    {
      "id": 4003,
      "nome": "Udon no Kuni no Kiniro Kemari",
      "link": "https://animefire.plus/animes/udon-no-kuni-no-kiniro-kemari-todos-os-episodios",
      "texto_original": "Udon no Kuni no Kiniro Kemari",
      "rating": 7.81,
      "classificacao_etaria": "A14",
      "imagem_original": "https://animefire.plus/img/animes/udon-no-kuni-no-kiniro-kemari.webp",
      "imagem_pasta": "https://animefire.plus/img/animes/udon-no-kuni-no-kiniro-kemari/",
      "secao": "legendados",
      "pagina": 159,
      "total_episodios": 8,
      "link_video": "https://animefire.plus/video/udon-no-kuni-no-kiniro-kemari"
    },
    {
      "id": 4004,
      "nome": "Ueki no Housoku",
      "link": "https://animefire.plus/animes/ueki-no-housoku-todos-os-episodios",
      "texto_original": "Ueki no Housoku",
      "rating": 7.83,
      "classificacao_etaria": "A14",
      "imagem_original": "https://animefire.plus/img/animes/ueki-no-housoku.webp",
      "imagem_pasta": "https://animefire.plus/img/animes/ueki-no-housoku/",
      "secao": "legendados",
      "pagina": 175,
      "total_episodios": 4,
      "link_video": "https://animefire.plus/video/ueki-no-housoku"
    },
    {
      "id": 4005,
      "nome": "Ueno-san wa Bukiyou",
      "link": "https://animefire.plus/animes/ueno-san-wa-bukiyou-todos-os-episodios",
      "texto_original": "Ueno-san wa Bukiyou",
      "rating": 6.64,
      "classificacao_etaria": "A14",
      "imagem_original": "https://animefire.plus/img/animes/ueno-san-wa-bukiyou.webp",
      "imagem_pasta": "https://animefire.plus/img/animes/ueno-san-wa-bukiyou/",
      "secao": "legendados",
      "pagina": 101,
      "total_episodios": 12,
      "link_video": "https://animefire.plus/video/ueno-san-wa-bukiyou"
    },
    {
      "id": 4006,
      "nome": "UFO Princess Valkyrie",
      "link": "https://animefire.plus/animes/ufo-princess-valkyrie-todos-os-episodios",
      "texto_original": "UFO Princess Valkyrie",
      "rating": 6.83,
      "classificacao_etaria": "A18",
      "imagem_original": "https://animefire.plus/img/animes/ufo-princess-valkyrie.webp",
      "imagem_pasta": "https://animefire.plus/img/animes/ufo-princess-valkyrie/",
      "secao": "legendados",
      "pagina": 106,
      "total_episodios": 0,
      "link_video": "https://animefire.plus/video/ufo-princess-valkyrie"
    },
    {
      "id": 4007,
      "nome": "UFO Senshi Dai Apolon",
      "link": "https://animefire.plus/animes/ufo-senshi-dai-apolon-todos-os-episodios",
      "texto_original": "UFO Senshi Dai Apolon",
      "rating": 6.17,
      "classificacao_etaria": "A14",
      "imagem_original": "https://animefire.plus/img/animes/ufo-senshi-dai-apolon.webp",
      "imagem_pasta": "https://animefire.plus/img/animes/ufo-senshi-dai-apolon/",
      "secao": "legendados",
      "pagina": 78,
      "total_episodios": 26,
      "link_video": "https://animefire.plus/video/ufo-senshi-dai-apolon"
    },
    {
      "id": 4008,
      "nome": "UG☆Ultimate Girls",
      "link": "https://animefire.plus/animes/ug-ultimate-girls-todos-os-episodios",
      "texto_original": "UG☆Ultimate Girls",
      "rating": 5.68,
      "classificacao_etaria": "A14",
      "imagem_original": "https://animefire.plus/img/animes/ug-ultimate-girls.webp",
      "imagem_pasta": "https://animefire.plus/img/animes/ug-ultimate-girls/",
      "secao": "legendados",
      "pagina": 113,
      "total_episodios": 12,
      "link_video": "https://animefire.plus/video/ug-ultimate-girls"
    }
  ],
  "pagination": {
    "current_page": 196,
    "per_page": 20,
    "total_items": 4269,
    "total_pages": 214,
    "has_next": true,
    "has_prev": true
  }
}
