{
  "message": "Animes da seção: legendados",
  "section": "legendados",
  "data": [
    {
      "id": 2322,
      "nome": "Mahoromatic: Automatic Maiden",
      "link": "https://animefire.plus/animes/mahoromatic-automatic-maiden-todos-os-episodios",
      "texto_original": "Mahoromatic: Automatic Maiden",
      "rating": 7.24,
      "classificacao_etaria": "A18",
      "imagem_original": "https://animefire.plus/img/animes/mahoromatic-automatic-maiden.webp",
      "imagem_pasta": "https://animefire.plus/img/animes/mahoromatic-automatic-maiden/",
      "secao": "legendados",
      "pagina": 116,
      "total_episodios": 0,
      "link_video": "https://animefire.plus/video/mahoromatic-automatic-maiden"
    },
    {
      "id": 2323,
      "nome": "Mahoromatic: Motto Utsukushii Mono",
      "link": "https://animefire.plus/animes/mahoromatic-motto-utsukushii-mono-todos-os-episodios",
      "texto_original": "Mahoromatic: Motto Utsukushii Mono",
      "rating": 7.2,
      "classificacao_etaria": "A18",
      "imagem_original": "https://animefire.plus/img/animes/mahoromatic-motto-utsukushii-mono.webp",
      "imagem_pasta": "https://animefire.plus/img/animes/mahoromatic-motto-utsukushii-mono/",
      "secao": "legendados",
      "pagina": 70,
      "total_episodios": 14,
      "link_video": "https://animefire.plus/video/mahoromatic-motto-utsukushii-mono"
    },
    {
      "id": 2324,
      "nome": "Mahoromatic: Tadaima Okaeri",
      "link": "https://animefire.plus/animes/mahoromatic-tadaima-okaeri-todos-os-episodios",
      "texto_original": "Mahoromatic: Tadaima Okaeri",
      "rating": 7.09,
      "classificacao_etaria": "A18",
      "imagem_original": "https://animefire.plus/img/animes/mahoromatic-tadaima-okaeri.webp",
      "imagem_pasta": "https://animefire.plus/img/animes/mahoromatic-tadaima-okaeri/",
      "secao": "legendados",
      "pagina": 70,
      "total_episodios": 2,
      "link_video": "https://animefire.plus/video/mahoromatic-tadaima-okaeri"
    },
    {
      "id": 2325,
      "nome": "Mahou Sensei Negima!",
      "link": "https://animefire.plus/animes/mahou-sensei-negima-todos-os-episodios",
      "texto_original": "Mahou Sensei Negima!",
      "rating": 7.06,
      "classificacao_etaria": "A14",
      "imagem_original": "https://animefire.plus/img/animes/mahou-sensei-negima.webp",
      "imagem_pasta": "https://animefire.plus/img/animes/mahou-sensei-negima/",
      "secao": "legendados",
      "pagina": 112,
      "total_episodios": 26,
      "link_video": "https://animefire.plus/video/mahou-sensei-negima"
    },
    {
      "id": 2326,
      "nome": "Mahou Senshi Louie",
      "link": "https://animefire.plus/animes/mahou-senshi-louie-todos-os-episodios",
      "texto_original": "Mahou Senshi Louie",
      "rating": 7.22,
      "classificacao_etaria": "A14",
      "imagem_original": "https://animefire.plus/img/animes/mahou-senshi-louie.webp",
      "imagem_pasta": "https://animefire.plus/img/animes/mahou-senshi-louie/",
      "secao": "legendados",
      "pagina": 126,
      "total_episodios": 8,
      "link_video": "https://animefire.plus/video/mahou-senshi-louie"
    },
    {
      "id": 2327,
      "nome": "Mahou Sensou",
      "link": "https://animefire.plus/animes/mahou-sensou-todos-os-episodios",
      "texto_original": "Mahou Sensou",
      "rating": 6.14,
      "classificacao_etaria": "A14",
      "imagem_original": "https://animefire.plus/img/animes/mahou-sensou.webp",
      "imagem_pasta": "https://animefire.plus/img/animes/mahou-sensou/",
      "secao": "legendados",
      "pagina": 122,
      "total_episodios": 12,
      "link_video": "https://animefire.plus/video/mahou-sensou"
    },
    {
      "id": 2328,
      "nome": "Mahou Shoujo Ikusei Keikaku",
      "link": "https://animefire.plus/animes/mahou-shoujo-ikusei-keikaku-todos-os-episodios",
      "texto_original": "Mahou Shoujo Ikusei Keikaku",
      "rating": 7.09,
      "classificacao_etaria": "A16",
      "imagem_original": "https://animefire.plus/img/animes/mahou-shoujo-ikusei-keikaku.webp",
      "imagem_pasta": "https://animefire.plus/img/animes/mahou-shoujo-ikusei-keikaku/",
      "secao": "legendados",
      "pagina": 169,
      "total_episodios": 12,
      "link_video": "https://animefire.plus/video/mahou-shoujo-ikusei-keikaku"
    },
    {
      "id": 2329,
      "nome": "Mahou Shoujo Lalabel: Umi ga Yobu Natsuyasumi",
      "link": "https://animefire.plus/animes/mahou-shoujo-lalabel-umi-ga-yobu-natsuyasumi-todos-os-episodios",
      "texto_original": "Mahou Shoujo Lalabel: Umi ga Yobu Natsuyasumi",
      "rating": 5.78,
      "classificacao_etaria": null,
      "imagem_original": "https://animefire.plus/img/animes/mahou-shoujo-lalabel-umi-ga-yobu-natsuyasumi.webp",
      "imagem_pasta": "https://animefire.plus/img/animes/mahou-shoujo-lalabel-umi-ga-yobu-natsuyasumi/",
      "secao": "legendados",
      "pagina": 83,
      "total_episodios": 1,
      "link_video": "https://animefire.plus/video/mahou-shoujo-lalabel-umi-ga-yobu-natsuyasumi"
    },
    {
      "id": 2330,
      "nome": "Mahou Shoujo Lyrical Nanoha",
      "link": "https://animefire.plus/animes/mahou-shoujo-lyrical-nanoha-todos-os-episodios",
      "texto_original": "Mahou Shoujo Lyrical Nanoha",
      "rating": 7.47,
      "classificacao_etaria": "A14",
      "imagem_original": "https://animefire.plus/img/animes/mahou-shoujo-lyrical-nanoha.webp",
      "imagem_pasta": "https://animefire.plus/img/animes/mahou-shoujo-lyrical-nanoha/",
      "secao": "legendados",
      "pagina": 153,
      "total_episodios": 13,
      "link_video": "https://animefire.plus/video/mahou-shoujo-lyrical-nanoha"
    },
    {
      "id": 2331,
      "nome": "Mahou Shoujo Lyrical Nanoha A's",
      "link": "https://animefire.plus/animes/mahou-shoujo-lyrical-nanoha-a-s-todos-os-episodios",
      "texto_original": "Mahou Shoujo Lyrical Nanoha A's",
      "rating": 8.04,
      "classificacao_etaria": "A14",
      "imagem_original": "https://animefire.plus/img/animes/mahou-shoujo-lyrical-nanoha-a-s.webp",
      "imagem_pasta": "https://animefire.plus/img/animes/mahou-shoujo-lyrical-nanoha-a-s/",
      "secao": "legendados",
      "pagina": 147,
      "total_episodios": 13,
      "link_video": "https://animefire.plus/video/mahou-shoujo-lyrical-nanoha-a-s"
    },
    {
      "id": 2332,
      "nome": "Mahou Shoujo Lyrical Nanoha StrikerS",
      "link": "https://animefire.plus/animes/mahou-shoujo-lyrical-nanoha-strikers-todos-os-episodios",
      "texto_original": "Mahou Shoujo Lyrical Nanoha StrikerS",
      "rating": 7.7,
      "classificacao_etaria": "A14",
      "imagem_original": "https://animefire.plus/img/animes/mahou-shoujo-lyrical-nanoha-strikers.webp",
      "imagem_pasta": "https://animefire.plus/img/animes/mahou-shoujo-lyrical-nanoha-strikers/",
      "secao": "legendados",
      "pagina": 121,
      "total_episodios": 12,
      "link_video": "https://animefire.plus/video/mahou-shoujo-lyrical-nanoha-strikers"
    },
    {
      "id": 2333,
      "nome": "Mahou Shoujo Lyrical Nanoha ViVid",
      "link": "https://animefire.plus/animes/mahou-shoujo-lyrical-nanoha-vivid-todos-os-episodios",
      "texto_original": "Mahou Shoujo Lyrical Nanoha ViVid",
      "rating": 6.76,
      "classificacao_etaria": "A14",
      "imagem_original": "https://animefire.plus/img/animes/mahou-shoujo-lyrical-nanoha-vivid.webp",
      "imagem_pasta": "https://animefire.plus/img/animes/mahou-shoujo-lyrical-nanoha-vivid/",
      "secao": "legendados",
      "pagina": 60,
      "total_episodios": 0,
      "link_video": "https://animefire.plus/video/mahou-shoujo-lyrical-nanoha-vivid"
    },
    {
      "id": 2334,
      "nome": "Mahou Shoujo Madoka★Magica",
      "link": "https://animefire.plus/animes/mahou-shoujo-madoka-magica-todos-os-episodios",
      "texto_original": "Mahou Shoujo Madoka★Magica",
      "rating": 8.43,
      "classificacao_etaria": "A14",
      "imagem_original": "https://animefire.plus/img/animes/mahou-shoujo-madoka-magica.webp",
      "imagem_pasta": "https://animefire.plus/img/animes/mahou-shoujo-madoka-magica/",
      "secao": "legendados",
      "pagina": 172,
      "total_episodios": 12,
      "link_video": "https://animefire.plus/video/mahou-shoujo-madoka-magica"
    },
    {
      "id": 2335,
      "nome": "Mahou Shoujo Magical Destroyers",
      "link": "https://animefire.plus/animes/mahou-shoujo-magical-destroyers-todos-os-episodios",
      "texto_original": "Mahou Shoujo Magical Destroyers",
      "rating": 6.25,
      "classificacao_etaria": "A14",
      "imagem_original": "https://animefire.plus/img/animes/mahou-shoujo-magical-destroyers.jpg",
      "imagem_pasta": "https://animefire.plus/img/animes/mahou-shoujo-magical-destroyers/",
      "secao": "legendados",
      "pagina": 23,
      "total_episodios": 12,
      "link_video": "https://animefire.plus/video/mahou-shoujo-magical-destroyers"
    },
    {
      "id": 2336,
      "nome": "Mahou Shoujo Nante Mou Ii Desukara.",
      "link": "https://animefire.plus/animes/mahou-shoujo-nante-mou-ii-desukara-todos-os-episodios",
      "texto_original": "Mahou Shoujo Nante Mou Ii Desukara.",
      "rating": 5.97,
      "classificacao_etaria": "A14",
      "imagem_original": "https://animefire.plus/img/animes/mahou-shoujo-nante-mou-ii-desukara.webp",
      "imagem_pasta": "https://animefire.plus/img/animes/mahou-shoujo-nante-mou-ii-desukara/",
      "secao": "legendados",
      "pagina": 140,
      "total_episodios": 1,
      "link_video": "https://animefire.plus/video/mahou-shoujo-nante-mou-ii-desukara"
    },
    {
      "id": 2337,
      "nome": "Mahou Shoujo Nante Mou Ii Desukara. Second Season",
      "link": "https://animefire.plus/animes/mahou-shoujo-nante-mou-ii-desukara-second-season-todos-os-episodios",
      "texto_original": "Mahou Shoujo Nante Mou Ii Desukara. Second Season",
      "rating": 6.08,
      "classificacao_etaria": "A14",
      "imagem_original": "https://animefire.plus/img/animes/mahou-shoujo-nante-mou-ii-desukara-second-season.webp",
      "imagem_pasta": "https://animefire.plus/img/animes/mahou-shoujo-nante-mou-ii-desukara-second-season/",
      "secao": "legendados",
      "pagina": 78,
      "total_episodios": 12,
      "link_video": "https://animefire.plus/video/mahou-shoujo-nante-mou-ii-desukara-second-season"
    },
    {
      "id": 2338,
      "nome": "Mahou Shoujo ni Akogarete",
      "link": "https://animefire.plus/animes/mahou-shoujo-ni-akogarete-todos-os-episodios",
      "texto_original": "Mahou Shoujo ni Akogarete",
      "rating": 7.62,
      "classificacao_etaria": "A18",
      "imagem_original": "https://animefire.plus/img/animes/mahou-shoujo-ni-akogarete.webp",
      "imagem_pasta": "https://animefire.plus/img/animes/mahou-shoujo-ni-akogarete/",
      "secao": "legendados",
      "pagina": 17,
      "total_episodios": 13,
      "link_video": "https://animefire.plus/video/mahou-shoujo-ni-akogarete"
    },
    {
      "id": 2339,
      "nome": "Mahou Shoujo Ore",
      "link": "https://animefire.plus/animes/mahou-shoujo-ore-todos-os-episodios",
      "texto_original": "Mahou Shoujo Ore",
      "rating": 6.7,
      "classificacao_etaria": "A14",
      "imagem_original": "https://animefire.plus/img/animes/mahou-shoujo-ore.webp",
      "imagem_pasta": "https://animefire.plus/img/animes/mahou-shoujo-ore/",
      "secao": "legendados",
      "pagina": 121,
      "total_episodios": 12,
      "link_video": "https://animefire.plus/video/mahou-shoujo-ore"
    },
    {
      "id": 2340,
      "nome": "Mahou Shoujo Site",
      "link": "https://animefire.plus/animes/mahou-shoujo-site-todos-os-episodios",
      "texto_original": "Mahou Shoujo Site",
      "rating": 6.56,
      "classificacao_etaria": "A16",
      "imagem_original": "https://animefire.plus/img/animes/mahou-shoujo-site.webp",
      "imagem_pasta": "https://animefire.plus/img/animes/mahou-shoujo-site/",
      "secao": "legendados",
      "pagina": 177,
      "total_episodios": 12,
      "link_video": "https://animefire.plus/video/mahou-shoujo-site"
    },
    {
      "id": 2341,
      "nome": "Mahou Shoujo Taisen",
      "link": "https://animefire.plus/animes/mahou-shoujo-taisen-todos-os-episodios",
      "texto_original": "Mahou Shoujo Taisen",
      "rating": 5.79,
      "classificacao_etaria": "A14",
      "imagem_original": "https://animefire.plus/img/animes/mahou-shoujo-taisen.webp",
      "imagem_pasta": "https://animefire.plus/img/animes/mahou-shoujo-taisen/",
      "secao": "legendados",
      "pagina": 159,
      "total_episodios": 11,
      "link_video": "https://animefire.plus/video/mahou-shoujo-taisen"
    }
  ],
  "pagination": {
    "current_page": 114,
    "per_page": 20,
    "total_items": 4269,
    "total_pages": 214,
    "has_next": true,
    "has_prev": true
  }
}
