{
  "message": "Animes da seção: legendados",
  "section": "legendados",
  "data": [
    {
      "id": 1627,
      "nome": "Initial D Fifth Stage",
      "link": "https://animefire.plus/animes/initial-d-fifth-stage-todos-os-episodios",
      "texto_original": "Initial D Fifth Stage",
      "rating": 8.14,
      "classificacao_etaria": "A14",
      "imagem_original": "https://animefire.plus/img/animes/initial-d-fifth-stage.webp",
      "imagem_pasta": "https://animefire.plus/img/animes/initial-d-fifth-stage/",
      "secao": "legendados",
      "pagina": 151,
      "total_episodios": 0,
      "link_video": "https://animefire.plus/video/initial-d-fifth-stage"
    },
    {
      "id": 1628,
      "nome": "Initial D Final Stage",
      "link": "https://animefire.plus/animes/initial-d-final-stage-todos-os-episodios",
      "texto_original": "Initial D Final Stage",
      "rating": 8.28,
      "classificacao_etaria": "A14",
      "imagem_original": "https://animefire.plus/img/animes/initial-d-final-stage.webp",
      "imagem_pasta": "https://animefire.plus/img/animes/initial-d-final-stage/",
      "secao": "legendados",
      "pagina": 102,
      "total_episodios": 4,
      "link_video": "https://animefire.plus/video/initial-d-final-stage"
    },
    {
      "id": 1629,
      "nome": "Initial D First Stage",
      "link": "https://animefire.plus/animes/initial-d-first-stage-todos-os-episodios",
      "texto_original": "Initial D First Stage",
      "rating": 8.31,
      "classificacao_etaria": "A14",
      "imagem_original": "https://animefire.plus/img/animes/initial-d-first-stage.webp",
      "imagem_pasta": "https://animefire.plus/img/animes/initial-d-first-stage/",
      "secao": "legendados",
      "pagina": 147,
      "total_episodios": 26,
      "link_video": "https://animefire.plus/video/initial-d-first-stage"
    },
    {
      "id": 1630,
      "nome": "Initial D Fourth Stage",
      "link": "https://animefire.plus/animes/initial-d-fourth-stage-todos-os-episodios",
      "texto_original": "Initial D Fourth Stage",
      "rating": 8.2,
      "classificacao_etaria": "A14",
      "imagem_original": "https://animefire.plus/img/animes/initial-d-fourth-stage.webp",
      "imagem_pasta": "https://animefire.plus/img/animes/initial-d-fourth-stage/",
      "secao": "legendados",
      "pagina": 133,
      "total_episodios": 24,
      "link_video": "https://animefire.plus/video/initial-d-fourth-stage"
    },
    {
      "id": 1631,
      "nome": "Initial D Second Stage",
      "link": "https://animefire.plus/animes/initial-d-second-stage-todos-os-episodios",
      "texto_original": "Initial D Second Stage",
      "rating": 8.17,
      "classificacao_etaria": "A14",
      "imagem_original": "https://animefire.plus/img/animes/initial-d-second-stage.webp",
      "imagem_pasta": "https://animefire.plus/img/animes/initial-d-second-stage/",
      "secao": "legendados",
      "pagina": 159,
      "total_episodios": 13,
      "link_video": "https://animefire.plus/video/initial-d-second-stage"
    },
    {
      "id": 1632,
      "nome": "Innocent Venus",
      "link": "https://animefire.plus/animes/innocent-venus-todos-os-episodios",
      "texto_original": "Innocent Venus",
      "rating": 6.89,
      "classificacao_etaria": "A14",
      "imagem_original": "https://animefire.plus/img/animes/innocent-venus.webp",
      "imagem_pasta": "https://animefire.plus/img/animes/innocent-venus/",
      "secao": "legendados",
      "pagina": 156,
      "total_episodios": 12,
      "link_video": "https://animefire.plus/video/innocent-venus"
    },
    {
      "id": 1633,
      "nome": "Inou-Battle wa Nichijou-kei no Naka de",
      "link": "https://animefire.plus/animes/inou-battle-wa-nichijou-kei-no-naka-de-todos-os-episodios",
      "texto_original": "Inou-Battle wa Nichijou-kei no Naka de",
      "rating": 7.21,
      "classificacao_etaria": "A14",
      "imagem_original": "https://animefire.plus/img/animes/inou-battle-wa-nichijou-kei-no-naka-de.webp",
      "imagem_pasta": "https://animefire.plus/img/animes/inou-battle-wa-nichijou-kei-no-naka-de/",
      "secao": "legendados",
      "pagina": 79,
      "total_episodios": 12,
      "link_video": "https://animefire.plus/video/inou-battle-wa-nichijou-kei-no-naka-de"
    },
    {
      "id": 1634,
      "nome": "Interstella5555: The 5tory of The 5ecret 5tar 5ystem",
      "link": "https://animefire.plus/animes/interstella5555-the-5tory-of-the-5ecret-5tar-5ystem-todos-os-episodios",
      "texto_original": "Interstella5555: The 5tory of The 5ecret 5tar 5ystem",
      "rating": 8.16,
      "classificacao_etaria": null,
      "imagem_original": "https://animefire.plus/img/animes/interstella5555-the-5tory-of-the-5ecret-5tar-5ystem.webp",
      "imagem_pasta": "https://animefire.plus/img/animes/interstella5555-the-5tory-of-the-5ecret-5tar-5ystem/",
      "secao": "legendados",
      "pagina": 171,
      "total_episodios": 14,
      "link_video": "https://animefire.plus/video/interstella5555-the-5tory-of-the-5ecret-5tar-5ystem"
    },
    {
      "id": 1635,
      "nome": "Inu ni Nattara Suki na Hito ni Hirowareta.",
      "link": "https://animefire.plus/animes/inu-ni-nattara-suki-na-hito-ni-hirowareta-todos-os-episodios",
      "texto_original": "Inu ni Nattara Suki na Hito ni Hirowareta.",
      "rating": 5.04,
      "classificacao_etaria": "A18",
      "imagem_original": "https://animefire.plus/img/animes/inu-ni-nattara-suki-na-hito-ni-hirowareta.webp",
      "imagem_pasta": "https://animefire.plus/img/animes/inu-ni-nattara-suki-na-hito-ni-hirowareta/",
      "secao": "legendados,lancamentos",
      "pagina": 27,
      "total_episodios": 14,
      "link_video": "https://animefire.plus/video/inu-ni-nattara-suki-na-hito-ni-hirowareta"
    },
    {
      "id": 1636,
      "nome": "Inu ni Nattara Suki na Hito ni Hirowareta. Specials",
      "link": "https://animefire.plus/animes/inu-ni-nattara-suki-na-hito-ni-hirowareta-specials-todos-os-episodios",
      "texto_original": "Inu ni Nattara Suki na Hito ni Hirowareta. Specials",
      "rating": 5.3,
      "classificacao_etaria": "A18",
      "imagem_original": "https://animefire.plus/img/animes/inu-ni-nattara-suki-na-hito-ni-hirowareta-specials.webp",
      "imagem_pasta": "https://animefire.plus/img/animes/inu-ni-nattara-suki-na-hito-ni-hirowareta-specials/",
      "secao": "legendados",
      "pagina": 21,
      "total_episodios": 1,
      "link_video": "https://animefire.plus/video/inu-ni-nattara-suki-na-hito-ni-hirowareta-specials"
    },
    {
      "id": 1637,
      "nome": "Inu to Hasami wa Tsukaiyou",
      "link": "https://animefire.plus/animes/inu-to-hasami-wa-tsukaiyou-todos-os-episodios",
      "texto_original": "Inu to Hasami wa Tsukaiyou",
      "rating": 6.66,
      "classificacao_etaria": "A14",
      "imagem_original": "https://animefire.plus/img/animes/inu-to-hasami-wa-tsukaiyou.webp",
      "imagem_pasta": "https://animefire.plus/img/animes/inu-to-hasami-wa-tsukaiyou/",
      "secao": "legendados",
      "pagina": 171,
      "total_episodios": 5,
      "link_video": "https://animefire.plus/video/inu-to-hasami-wa-tsukaiyou"
    },
    {
      "id": 1638,
      "nome": "Inu to Neko Docchi mo Katteru to Mainichi Tanoshii",
      "link": "https://animefire.plus/animes/inu-to-neko-docchi-mo-katteru-to-mainichi-tanoshii-todos-os-episodios",
      "texto_original": "Inu to Neko Docchi mo Katteru to Mainichi Tanoshii",
      "rating": null,
      "classificacao_etaria": null,
      "imagem_original": "https://animefire.plus/img/animes/inu-to-neko-docchi-mo-katteru-to-mainichi-tanoshii.webp",
      "imagem_pasta": "https://animefire.plus/img/animes/inu-to-neko-docchi-mo-katteru-to-mainichi-tanoshii/",
      "secao": "legendados,lancamentos",
      "pagina": 52,
      "total_episodios": 12,
      "link_video": "https://animefire.plus/video/inu-to-neko-docchi-mo-katteru-to-mainichi-tanoshii"
    },
    {
      "id": 1639,
      "nome": "Inu x Boku SS",
      "link": "https://animefire.plus/animes/inu-x-boku-ss-todos-os-episodios",
      "texto_original": "Inu x Boku SS",
      "rating": 7.59,
      "classificacao_etaria": "A14",
      "imagem_original": "https://animefire.plus/img/animes/inu-x-boku-ss.webp",
      "imagem_pasta": "https://animefire.plus/img/animes/inu-x-boku-ss/",
      "secao": "legendados",
      "pagina": 170,
      "total_episodios": 8,
      "link_video": "https://animefire.plus/video/inu-x-boku-ss"
    },
    {
      "id": 1640,
      "nome": "Inugami-san to Nekoyama-san",
      "link": "https://animefire.plus/animes/inugami-san-to-nekoyama-san-todos-os-episodios",
      "texto_original": "Inugami-san to Nekoyama-san",
      "rating": 6.64,
      "classificacao_etaria": "A14",
      "imagem_original": "https://animefire.plus/img/animes/inugami-san-to-nekoyama-san.webp",
      "imagem_pasta": "https://animefire.plus/img/animes/inugami-san-to-nekoyama-san/",
      "secao": "legendados",
      "pagina": 166,
      "total_episodios": 12,
      "link_video": "https://animefire.plus/video/inugami-san-to-nekoyama-san"
    },
    {
      "id": 1641,
      "nome": "Inukami!",
      "link": "https://animefire.plus/animes/inukami-todos-os-episodios",
      "texto_original": "Inukami!",
      "rating": 7.33,
      "classificacao_etaria": "A14",
      "imagem_original": "https://animefire.plus/img/animes/inukami.webp",
      "imagem_pasta": "https://animefire.plus/img/animes/inukami/",
      "secao": "legendados",
      "pagina": 117,
      "total_episodios": 26,
      "link_video": "https://animefire.plus/video/inukami"
    },
    {
      "id": 1642,
      "nome": "InuYasha (Dublado)",
      "link": "https://animefire.plus/animes/inuyasha-dublado-todos-os-episodios",
      "texto_original": "InuYasha (Dublado)",
      "rating": 7.91,
      "classificacao_etaria": "A14",
      "imagem_original": "https://animefire.plus/img/animes/inuyasha.webp",
      "imagem_pasta": "https://animefire.plus/img/animes/inuyasha/",
      "secao": "dublados,legendados",
      "pagina": 27,
      "total_episodios": 167,
      "link_video": "https://animefire.plus/video/inuyasha-dublado"
    },
    {
      "id": 1643,
      "nome": "InuYasha: Kanketsu-hen",
      "link": "https://animefire.plus/animes/inuyasha-kanketsu-hen-todos-os-episodios",
      "texto_original": "InuYasha: Kanketsu-hen",
      "rating": 8.3,
      "classificacao_etaria": "A14",
      "imagem_original": "https://animefire.plus/img/animes/inuyasha-kanketsu-hen.webp",
      "imagem_pasta": "https://animefire.plus/img/animes/inuyasha-kanketsu-hen/",
      "secao": "legendados",
      "pagina": 116,
      "total_episodios": 26,
      "link_video": "https://animefire.plus/video/inuyasha-kanketsu-hen"
    },
    {
      "id": 1644,
      "nome": "Inuyashiki",
      "link": "https://animefire.plus/animes/inuyashiki-todos-os-episodios",
      "texto_original": "Inuyashiki",
      "rating": 7.81,
      "classificacao_etaria": "A16",
      "imagem_original": "https://animefire.plus/img/animes/inuyashiki.webp",
      "imagem_pasta": "https://animefire.plus/img/animes/inuyashiki/",
      "secao": "legendados",
      "pagina": 168,
      "total_episodios": 11,
      "link_video": "https://animefire.plus/video/inuyashiki"
    },
    {
      "id": 1645,
      "nome": "Ippatsu Hicchuu!! Devander",
      "link": "https://animefire.plus/animes/ippatsu-hicchuu-devander-todos-os-episodios",
      "texto_original": "Ippatsu Hicchuu!! Devander",
      "rating": 5.62,
      "classificacao_etaria": null,
      "imagem_original": "https://animefire.plus/img/animes/ippatsu-hicchuu-devander.webp",
      "imagem_pasta": "https://animefire.plus/img/animes/ippatsu-hicchuu-devander/",
      "secao": "legendados",
      "pagina": 72,
      "total_episodios": 1,
      "link_video": "https://animefire.plus/video/ippatsu-hicchuu-devander"
    },
    {
      "id": 1646,
      "nome": "Iria: Zeiram The Animation",
      "link": "https://animefire.plus/animes/iria-zeiram-the-animation-todos-os-episodios",
      "texto_original": "Iria: Zeiram The Animation",
      "rating": 7.15,
      "classificacao_etaria": "A16",
      "imagem_original": "https://animefire.plus/img/animes/iria-zeiram-the-animation.webp",
      "imagem_pasta": "https://animefire.plus/img/animes/iria-zeiram-the-animation/",
      "secao": "legendados",
      "pagina": 133,
      "total_episodios": 6,
      "link_video": "https://animefire.plus/video/iria-zeiram-the-animation"
    }
  ],
  "pagination": {
    "current_page": 80,
    "per_page": 20,
    "total_items": 4269,
    "total_pages": 214,
    "has_next": true,
    "has_prev": true
  }
}
