{
  "message": "Animes da seção: legendados",
  "section": "legendados",
  "data": [
    {
      "id": 2688,
      "nome": "Natsume Yuujinchou Roku",
      "link": "https://animefire.plus/animes/natsume-yuujinchou-roku-todos-os-episodios",
      "texto_original": "Natsume Yuujinchou Roku",
      "rating": 8.7,
      "classificacao_etaria": "A14",
      "imagem_original": "https://animefire.plus/img/animes/natsume-yuujinchou-roku.webp",
      "imagem_pasta": "https://animefire.plus/img/animes/natsume-yuujinchou-roku/",
      "secao": "legendados",
      "pagina": 156,
      "total_episodios": 11,
      "link_video": "https://animefire.plus/video/natsume-yuujinchou-roku"
    },
    {
      "id": 2689,
      "nome": "Natsume Yuujinchou Roku Specials",
      "link": "https://animefire.plus/animes/natsume-yuujinchou-roku-specials-todos-os-episodios",
      "texto_original": "Natsume Yuujinchou Roku Specials",
      "rating": 8.42,
      "classificacao_etaria": "A14",
      "imagem_original": "https://animefire.plus/img/animes/natsume-yuujinchou-roku-specials.webp",
      "imagem_pasta": "https://animefire.plus/img/animes/natsume-yuujinchou-roku-specials/",
      "secao": "legendados",
      "pagina": 84,
      "total_episodios": 2,
      "link_video": "https://animefire.plus/video/natsume-yuujinchou-roku-specials"
    },
    {
      "id": 2690,
      "nome": "Natsume Yuujinchou San",
      "link": "https://animefire.plus/animes/natsume-yuujinchou-san-todos-os-episodios",
      "texto_original": "Natsume Yuujinchou San",
      "rating": 8.62,
      "classificacao_etaria": "A14",
      "imagem_original": "https://animefire.plus/img/animes/natsume-yuujinchou-san.webp",
      "imagem_pasta": "https://animefire.plus/img/animes/natsume-yuujinchou-san/",
      "secao": "legendados",
      "pagina": 74,
      "total_episodios": 13,
      "link_video": "https://animefire.plus/video/natsume-yuujinchou-san"
    },
    {
      "id": 2691,
      "nome": "Natsume Yuujinchou Shi",
      "link": "https://animefire.plus/animes/natsume-yuujinchou-shi-todos-os-episodios",
      "texto_original": "Natsume Yuujinchou Shi",
      "rating": 8.7,
      "classificacao_etaria": "A14",
      "imagem_original": "https://animefire.plus/img/animes/natsume-yuujinchou-shi.webp",
      "imagem_pasta": "https://animefire.plus/img/animes/natsume-yuujinchou-shi/",
      "secao": "legendados",
      "pagina": 90,
      "total_episodios": 13,
      "link_video": "https://animefire.plus/video/natsume-yuujinchou-shi"
    },
    {
      "id": 2692,
      "nome": "Natsume Yuujinchou Shichi",
      "link": "https://animefire.plus/animes/natsume-yuujinchou-shichi-todos-os-episodios",
      "texto_original": "Natsume Yuujinchou Shichi",
      "rating": 8.57,
      "classificacao_etaria": "A14",
      "imagem_original": "https://animefire.plus/img/animes/natsume-yuujinchou-shichi.webp",
      "imagem_pasta": "https://animefire.plus/img/animes/natsume-yuujinchou-shichi/",
      "secao": "legendados",
      "pagina": 10,
      "total_episodios": 12,
      "link_video": "https://animefire.plus/video/natsume-yuujinchou-shichi"
    },
    {
      "id": 2693,
      "nome": "Natsume Yuujinchou: Itsuka Yuki no Hi ni",
      "link": "https://animefire.plus/animes/natsume-yuujinchou-itsuka-yuki-no-hi-ni-todos-os-episodios",
      "texto_original": "Natsume Yuujinchou: Itsuka Yuki no Hi ni",
      "rating": 8.37,
      "classificacao_etaria": "A14",
      "imagem_original": "https://animefire.plus/img/animes/natsume-yuujinchou-itsuka-yuki-no-hi-ni.webp",
      "imagem_pasta": "https://animefire.plus/img/animes/natsume-yuujinchou-itsuka-yuki-no-hi-ni/",
      "secao": "legendados",
      "pagina": 64,
      "total_episodios": 1,
      "link_video": "https://animefire.plus/video/natsume-yuujinchou-itsuka-yuki-no-hi-ni"
    },
    {
      "id": 2694,
      "nome": "Natsume Yuujinchou: Nyanko-sensei to Hajimete no Otsukai",
      "link": "https://animefire.plus/animes/natsume-yuujinchou-nyanko-sensei-to-hajimete-no-otsukai-todos-os-episodios",
      "texto_original": "Natsume Yuujinchou: Nyanko-sensei to Hajimete no Otsukai",
      "rating": 7.67,
      "classificacao_etaria": "A14",
      "imagem_original": "https://animefire.plus/img/animes/natsume-yuujinchou-nyanko-sensei-to-hajimete-no-otsukai.webp",
      "imagem_pasta": "https://animefire.plus/img/animes/natsume-yuujinchou-nyanko-sensei-to-hajimete-no-otsukai/",
      "secao": "legendados",
      "pagina": 88,
      "total_episodios": 1,
      "link_video": "https://animefire.plus/video/natsume-yuujinchou-nyanko-sensei-to-hajimete-no-otsukai"
    },
    {
      "id": 2695,
      "nome": "Natsunagu!",
      "link": "https://animefire.plus/animes/natsunagu-todos-os-episodios",
      "texto_original": "Natsunagu!",
      "rating": 5.84,
      "classificacao_etaria": "A14",
      "imagem_original": "https://animefire.plus/img/animes/natsunagu.webp",
      "imagem_pasta": "https://animefire.plus/img/animes/natsunagu/",
      "secao": "legendados",
      "pagina": 93,
      "total_episodios": 0,
      "link_video": "https://animefire.plus/video/natsunagu"
    },
    {
      "id": 2696,
      "nome": "Natsuyuki Rendezvous",
      "link": "https://animefire.plus/animes/natsuyuki-rendezvous-todos-os-episodios",
      "texto_original": "Natsuyuki Rendezvous",
      "rating": 7.33,
      "classificacao_etaria": "A14",
      "imagem_original": "https://animefire.plus/img/animes/natsuyuki-rendezvous.webp",
      "imagem_pasta": "https://animefire.plus/img/animes/natsuyuki-rendezvous/",
      "secao": "legendados",
      "pagina": 160,
      "total_episodios": 0,
      "link_video": "https://animefire.plus/video/natsuyuki-rendezvous"
    },
    {
      "id": 2697,
      "nome": "Nayuta",
      "link": "https://animefire.plus/animes/nayuta-todos-os-episodios",
      "texto_original": "Nayuta",
      "rating": 5.6,
      "classificacao_etaria": "A14",
      "imagem_original": "https://animefire.plus/img/animes/nayuta.webp",
      "imagem_pasta": "https://animefire.plus/img/animes/nayuta/",
      "secao": "legendados",
      "pagina": 69,
      "total_episodios": 1,
      "link_video": "https://animefire.plus/video/nayuta"
    },
    {
      "id": 2698,
      "nome": "Naze Boku no Sekai wo Daremo Oboeteinai no ka?",
      "link": "https://animefire.plus/animes/naze-boku-no-sekai-wo-daremo-oboeteinai-no-ka-todos-os-episodios",
      "texto_original": "Naze Boku no Sekai wo Daremo Oboeteinai no ka?",
      "rating": 6.23,
      "classificacao_etaria": "A14",
      "imagem_original": "https://animefire.plus/img/animes/naze-boku-no-sekai-wo-daremo-oboeteinai-no-ka.webp",
      "imagem_pasta": "https://animefire.plus/img/animes/naze-boku-no-sekai-wo-daremo-oboeteinai-no-ka/",
      "secao": "legendados",
      "pagina": 13,
      "total_episodios": 12,
      "link_video": "https://animefire.plus/video/naze-boku-no-sekai-wo-daremo-oboeteinai-no-ka"
    },
    {
      "id": 2699,
      "nome": "Nazo no Kanojo X",
      "link": "https://animefire.plus/animes/nazo-no-kanojo-x-todos-os-episodios",
      "texto_original": "Nazo no Kanojo X",
      "rating": 7.33,
      "classificacao_etaria": "A14",
      "imagem_original": "https://animefire.plus/img/animes/nazo-no-kanojo-x.webp",
      "imagem_pasta": "https://animefire.plus/img/animes/nazo-no-kanojo-x/",
      "secao": "legendados",
      "pagina": 140,
      "total_episodios": 0,
      "link_video": "https://animefire.plus/video/nazo-no-kanojo-x"
    },
    {
      "id": 2700,
      "nome": "Nazotoki wa Dinner no Ato de (Dublado)",
      "link": "https://animefire.plus/animes/nazotoki-wa-dinner-no-ato-de-dublado-todos-os-episodios",
      "texto_original": "Nazotoki wa Dinner no Ato de (Dublado)",
      "rating": 6.48,
      "classificacao_etaria": "A14",
      "imagem_original": "https://animefire.plus/img/animes/nazotoki-wa-dinner-no-ato-de.webp",
      "imagem_pasta": "https://animefire.plus/img/animes/nazotoki-wa-dinner-no-ato-de/",
      "secao": "dublados,legendados",
      "pagina": 1,
      "total_episodios": 12,
      "link_video": "https://animefire.plus/video/nazotoki-wa-dinner-no-ato-de-dublado"
    },
    {
      "id": 2701,
      "nome": "Nazotokine",
      "link": "https://animefire.plus/animes/nazotokine-todos-os-episodios",
      "texto_original": "Nazotokine",
      "rating": 4.9,
      "classificacao_etaria": "A14",
      "imagem_original": "https://animefire.plus/img/animes/nazotokine.webp",
      "imagem_pasta": "https://animefire.plus/img/animes/nazotokine/",
      "secao": "legendados",
      "pagina": 168,
      "total_episodios": 3,
      "link_video": "https://animefire.plus/video/nazotokine"
    },
    {
      "id": 2702,
      "nome": "Necronomico no Cosmic Horror Show",
      "link": "https://animefire.plus/animes/necronomico-no-cosmic-horror-show-todos-os-episodios",
      "texto_original": "Necronomico no Cosmic Horror Show",
      "rating": 5.5,
      "classificacao_etaria": "A14",
      "imagem_original": "https://animefire.plus/img/animes/necronomico-no-cosmic-horror-show.webp",
      "imagem_pasta": "https://animefire.plus/img/animes/necronomico-no-cosmic-horror-show/",
      "secao": "legendados,lancamentos",
      "pagina": 1,
      "total_episodios": 5,
      "link_video": "https://animefire.plus/video/necronomico-no-cosmic-horror-show"
    },
    {
      "id": 2703,
      "nome": "Needless",
      "link": "https://animefire.plus/animes/needless-todos-os-episodios",
      "texto_original": "Needless",
      "rating": 7.35,
      "classificacao_etaria": "A16",
      "imagem_original": "https://animefire.plus/img/animes/needless.webp",
      "imagem_pasta": "https://animefire.plus/img/animes/needless/",
      "secao": "legendados",
      "pagina": 116,
      "total_episodios": 24,
      "link_video": "https://animefire.plus/video/needless"
    },
    {
      "id": 2704,
      "nome": "NEET Kunoichi to Nazeka Dousei Hajimemashita",
      "link": "https://animefire.plus/animes/neet-kunoichi-to-nazeka-dousei-hajimemashita-todos-os-episodios",
      "texto_original": "NEET Kunoichi to Nazeka Dousei Hajimemashita",
      "rating": 6.12,
      "classificacao_etaria": "A14",
      "imagem_original": "https://animefire.plus/img/animes/neet-kunoichi-to-nazeka-dousei-hajimemashita.webp",
      "imagem_pasta": "https://animefire.plus/img/animes/neet-kunoichi-to-nazeka-dousei-hajimemashita/",
      "secao": "legendados,lancamentos",
      "pagina": 8,
      "total_episodios": 13,
      "link_video": "https://animefire.plus/video/neet-kunoichi-to-nazeka-dousei-hajimemashita"
    },
    {
      "id": 2705,
      "nome": "NegaPosi Angler",
      "link": "https://animefire.plus/animes/negaposi-angler-todos-os-episodios",
      "texto_original": "NegaPosi Angler",
      "rating": 7.37,
      "classificacao_etaria": "A14",
      "imagem_original": "https://animefire.plus/img/animes/negaposi-angler.webp",
      "imagem_pasta": "https://animefire.plus/img/animes/negaposi-angler/",
      "secao": "legendados",
      "pagina": 10,
      "total_episodios": 12,
      "link_video": "https://animefire.plus/video/negaposi-angler"
    },
    {
      "id": 2706,
      "nome": "Nejimaki Seirei Senki: Tenkyou No Alderamin",
      "link": "https://animefire.plus/animes/nejimaki-seirei-senki-tenkyou-no-alderamin-todos-os-episodios",
      "texto_original": "Nejimaki Seirei Senki: Tenkyou No Alderamin",
      "rating": 7.84,
      "classificacao_etaria": "A16",
      "imagem_original": "https://animefire.plus/img/animes/nejimaki-seirei-senki-tenkyou-no-alderamin.webp",
      "imagem_pasta": "https://animefire.plus/img/animes/nejimaki-seirei-senki-tenkyou-no-alderamin/",
      "secao": "legendados",
      "pagina": 102,
      "total_episodios": 0,
      "link_video": "https://animefire.plus/video/nejimaki-seirei-senki-tenkyou-no-alderamin"
    },
    {
      "id": 2707,
      "nome": "Neko Hiki no Oruorane",
      "link": "https://animefire.plus/animes/neko-hiki-no-oruorane-todos-os-episodios",
      "texto_original": "Neko Hiki no Oruorane",
      "rating": 6.33,
      "classificacao_etaria": "A14",
      "imagem_original": "https://animefire.plus/img/animes/neko-hiki-no-oruorane.webp",
      "imagem_pasta": "https://animefire.plus/img/animes/neko-hiki-no-oruorane/",
      "secao": "legendados",
      "pagina": 85,
      "total_episodios": 1,
      "link_video": "https://animefire.plus/video/neko-hiki-no-oruorane"
    }
  ],
  "pagination": {
    "current_page": 132,
    "per_page": 20,
    "total_items": 4269,
    "total_pages": 214,
    "has_next": true,
    "has_prev": true
  }
}
