{
  "message": "Animes da seção: legendados",
  "section": "legendados",
  "data": [
    {
      "id": 43,
      "nome": "9: Ruler's Crown",
      "link": "https://animefire.plus/animes/9-ruler-s-crown-todos-os-episodios",
      "texto_original": "9: Ruler's Crown",
      "rating": 5.92,
      "classificacao_etaria": "A14",
      "imagem_original": "https://animefire.plus/img/animes/9-ruler-s-crown.webp",
      "imagem_pasta": "https://animefire.plus/img/animes/9-ruler-s-crown/",
      "secao": "legendados,lancamentos",
      "pagina": 1,
      "total_episodios": 1,
      "link_video": "https://animefire.plus/video/9-ruler-s-crown"
    },
    {
      "id": 44,
      "nome": "91 Days",
      "link": "https://animefire.plus/animes/91-days-todos-os-episodios",
      "texto_original": "91 Days",
      "rating": 7.88,
      "classificacao_etaria": "A16",
      "imagem_original": "https://animefire.plus/img/animes/91-days.webp",
      "imagem_pasta": "https://animefire.plus/img/animes/91-days/",
      "secao": "legendados",
      "pagina": 171,
      "total_episodios": 0,
      "link_video": "https://animefire.plus/video/91-days"
    },
    {
      "id": 45,
      "nome": "A-Channel",
      "link": "https://animefire.plus/animes/a-channel-todos-os-episodios",
      "texto_original": "A-Channel",
      "rating": 7,
      "classificacao_etaria": "A14",
      "imagem_original": "https://animefire.plus/img/animes/a-channel.webp",
      "imagem_pasta": "https://animefire.plus/img/animes/a-channel/",
      "secao": "legendados",
      "pagina": 90,
      "total_episodios": 12,
      "link_video": "https://animefire.plus/video/a-channel"
    },
    {
      "id": 46,
      "nome": "A-Channel: Nabe wo Tabeyou",
      "link": "https://animefire.plus/animes/a-channel-nabe-wo-tabeyou-todos-os-episodios",
      "texto_original": "A-Channel: Nabe wo Tabeyou",
      "rating": 6.92,
      "classificacao_etaria": "A14",
      "imagem_original": "https://animefire.plus/img/animes/a-channel-nabe-wo-tabeyou.webp",
      "imagem_pasta": "https://animefire.plus/img/animes/a-channel-nabe-wo-tabeyou/",
      "secao": "legendados",
      "pagina": 88,
      "total_episodios": 1,
      "link_video": "https://animefire.plus/video/a-channel-nabe-wo-tabeyou"
    },
    {
      "id": 47,
      "nome": "A-Rank Party wo Ridatsu shita Ore wa, Moto Oshiego-tachi to Meikyuu Shinbu wo Mezasu.",
      "link": "https://animefire.plus/animes/a-rank-party-wo-ridatsu-shita-ore-wa-moto-oshiego-tachi-to-meikyuu-shinbu-wo-mezasu-todos-os-episodios",
      "texto_original": "A-Rank Party wo Ridatsu shita Ore wa, Moto Oshiego-tachi to Meikyuu Shinbu wo Mezasu.",
      "rating": 6.58,
      "classificacao_etaria": "A14",
      "imagem_original": "https://animefire.plus/img/animes/a-rank-party-wo-ridatsu-shita-ore-wa-moto-oshiego-tachi-to-meikyuu-shinbu-wo-mezasu.webp",
      "imagem_pasta": "https://animefire.plus/img/animes/a-rank-party-wo-ridatsu-shita-ore-wa-moto-oshiego-tachi-to-meikyuu-shinbu-wo-mezasu/",
      "secao": "legendados",
      "pagina": 7,
      "total_episodios": 24,
      "link_video": "https://animefire.plus/video/a-rank-party-wo-ridatsu-shita-ore-wa-moto-oshiego-tachi-to-meikyuu-shinbu-wo-mezasu"
    },
    {
      "id": 48,
      "nome": "A.I.C.O.: Incarnation (Dublado)",
      "link": "https://animefire.plus/animes/a-i-c-o-incarnation-dublado-todos-os-episodios",
      "texto_original": "A.I.C.O.: Incarnation (Dublado)",
      "rating": 6.76,
      "classificacao_etaria": "A16",
      "imagem_original": "https://animefire.plus/img/animes/a-i-c-o-incarnation.webp",
      "imagem_pasta": "https://animefire.plus/img/animes/a-i-c-o-incarnation/",
      "secao": "dublados,legendados",
      "pagina": 24,
      "total_episodios": 12,
      "link_video": "https://animefire.plus/video/a-i-c-o-incarnation-dublado"
    },
    {
      "id": 49,
      "nome": "A3! Season Autumn & Winter",
      "link": "https://animefire.plus/animes/a3-season-autumn-winter-todos-os-episodios",
      "texto_original": "A3! Season Autumn & Winter",
      "rating": null,
      "classificacao_etaria": "A14",
      "imagem_original": "https://animefire.plus/img/animes/a3-season-autumn-winter.webp",
      "imagem_pasta": "https://animefire.plus/img/animes/a3-season-autumn-winter/",
      "secao": "legendados",
      "pagina": 51,
      "total_episodios": 12,
      "link_video": "https://animefire.plus/video/a3-season-autumn-winter"
    },
    {
      "id": 50,
      "nome": "A3! Season Spring & Summer",
      "link": "https://animefire.plus/animes/a3-season-spring-summer-todos-os-episodios",
      "texto_original": "A3! Season Spring & Summer",
      "rating": 7.14,
      "classificacao_etaria": "A14",
      "imagem_original": "https://animefire.plus/img/animes/a3-season-spring-summer.webp",
      "imagem_pasta": "https://animefire.plus/img/animes/a3-season-spring-summer/",
      "secao": "legendados",
      "pagina": 92,
      "total_episodios": 3,
      "link_video": "https://animefire.plus/video/a3-season-spring-summer"
    },
    {
      "id": 51,
      "nome": "Aa! Megami-sama!",
      "link": "https://animefire.plus/animes/aa-megami-sama-todos-os-episodios",
      "texto_original": "Aa! Megami-sama!",
      "rating": 7.31,
      "classificacao_etaria": "A14",
      "imagem_original": "https://animefire.plus/img/animes/aa-megami-sama.webp",
      "imagem_pasta": "https://animefire.plus/img/animes/aa-megami-sama/",
      "secao": "legendados",
      "pagina": 42,
      "total_episodios": 5,
      "link_video": "https://animefire.plus/video/aa-megami-sama"
    },
    {
      "id": 52,
      "nome": "Aa! Megami-sama! (TV)",
      "link": "https://animefire.plus/animes/aa-megami-sama-tv-todos-os-episodios",
      "texto_original": "Aa! Megami-sama! (TV)",
      "rating": 7.41,
      "classificacao_etaria": "A14",
      "imagem_original": "https://animefire.plus/img/animes/aa-megami-sama-tv.webp",
      "imagem_pasta": "https://animefire.plus/img/animes/aa-megami-sama-tv/",
      "secao": "legendados",
      "pagina": 123,
      "total_episodios": 26,
      "link_video": "https://animefire.plus/video/aa-megami-sama-tv"
    },
    {
      "id": 53,
      "nome": "Abarenbou Rikishi!! Matsutarou",
      "link": "https://animefire.plus/animes/abarenbou-rikishi-matsutarou-todos-os-episodios",
      "texto_original": "Abarenbou Rikishi!! Matsutarou",
      "rating": 6.15,
      "classificacao_etaria": "A14",
      "imagem_original": "https://animefire.plus/img/animes/abarenbou-rikishi-matsutarou.webp",
      "imagem_pasta": "https://animefire.plus/img/animes/abarenbou-rikishi-matsutarou/",
      "secao": "legendados",
      "pagina": 164,
      "total_episodios": 13,
      "link_video": "https://animefire.plus/video/abarenbou-rikishi-matsutarou"
    },
    {
      "id": 54,
      "nome": "Abciee Shuugyou Nikki",
      "link": "https://animefire.plus/animes/abciee-shuugyou-nikki-todos-os-episodios",
      "texto_original": "Abciee Shuugyou Nikki",
      "rating": 5.43,
      "classificacao_etaria": "A10",
      "imagem_original": "https://animefire.plus/img/animes/abciee-shuugyou-nikki.webp",
      "imagem_pasta": "https://animefire.plus/img/animes/abciee-shuugyou-nikki/",
      "secao": "legendados",
      "pagina": 48,
      "total_episodios": 12,
      "link_video": "https://animefire.plus/video/abciee-shuugyou-nikki"
    },
    {
      "id": 55,
      "nome": "Abenobashi Mahou☆Shoutengai",
      "link": "https://animefire.plus/animes/abenobashi-mahou-shoutengai-todos-os-episodios",
      "texto_original": "Abenobashi Mahou☆Shoutengai",
      "rating": 7.32,
      "classificacao_etaria": "A18",
      "imagem_original": "https://animefire.plus/img/animes/abenobashi-mahou-shoutengai.webp",
      "imagem_pasta": "https://animefire.plus/img/animes/abenobashi-mahou-shoutengai/",
      "secao": "legendados",
      "pagina": 159,
      "total_episodios": 13,
      "link_video": "https://animefire.plus/video/abenobashi-mahou-shoutengai"
    },
    {
      "id": 56,
      "nome": "Absolute Duo",
      "link": "https://animefire.plus/animes/absolute-duo-todos-os-episodios",
      "texto_original": "Absolute Duo",
      "rating": 6.71,
      "classificacao_etaria": "A16",
      "imagem_original": "https://animefire.plus/img/animes/absolute-duo.webp",
      "imagem_pasta": "https://animefire.plus/img/animes/absolute-duo/",
      "secao": "legendados",
      "pagina": 120,
      "total_episodios": 4,
      "link_video": "https://animefire.plus/video/absolute-duo"
    },
    {
      "id": 57,
      "nome": "ACCA: 13-ku Kansatsu-ka",
      "link": "https://animefire.plus/animes/acca-13-ku-kansatsu-ka-todos-os-episodios",
      "texto_original": "ACCA: 13-ku Kansatsu-ka",
      "rating": 7.71,
      "classificacao_etaria": "A14",
      "imagem_original": "https://animefire.plus/img/animes/acca-13-ku-kansatsu-ka.webp",
      "imagem_pasta": "https://animefire.plus/img/animes/acca-13-ku-kansatsu-ka/",
      "secao": "legendados",
      "pagina": 152,
      "total_episodios": 12,
      "link_video": "https://animefire.plus/video/acca-13-ku-kansatsu-ka"
    },
    {
      "id": 58,
      "nome": "ACCA: 13-ku Kansatsu-ka - Regards",
      "link": "https://animefire.plus/animes/acca-13-ku-kansatsu-ka---regards-todos-os-episodios",
      "texto_original": "ACCA: 13-ku Kansatsu-ka - Regards",
      "rating": 7.14,
      "classificacao_etaria": "A14",
      "imagem_original": "https://animefire.plus/img/animes/acca-13-ku-kansatsu-ka---regards.webp",
      "imagem_pasta": "https://animefire.plus/img/animes/acca-13-ku-kansatsu-ka---regards/",
      "secao": "legendados",
      "pagina": 71,
      "total_episodios": 1,
      "link_video": "https://animefire.plus/video/acca-13-ku-kansatsu-ka---regards"
    },
    {
      "id": 59,
      "nome": "Accel World",
      "link": "https://animefire.plus/animes/accel-world-todos-os-episodios",
      "texto_original": "Accel World",
      "rating": 7.47,
      "classificacao_etaria": "A14",
      "imagem_original": "https://animefire.plus/img/animes/accel-world.webp",
      "imagem_pasta": "https://animefire.plus/img/animes/accel-world/",
      "secao": "legendados",
      "pagina": 164,
      "total_episodios": 0,
      "link_video": "https://animefire.plus/video/accel-world"
    },
    {
      "id": 60,
      "nome": "Acchi Kocchi (TV)",
      "link": "https://animefire.plus/animes/acchi-kocchi-tv-todos-os-episodios",
      "texto_original": "Acchi Kocchi (TV)",
      "rating": 7.59,
      "classificacao_etaria": "A14",
      "imagem_original": "https://animefire.plus/img/animes/acchi-kocchi-tv.webp",
      "imagem_pasta": "https://animefire.plus/img/animes/acchi-kocchi-tv/",
      "secao": "legendados",
      "pagina": 154,
      "total_episodios": 0,
      "link_video": "https://animefire.plus/video/acchi-kocchi-tv"
    },
    {
      "id": 61,
      "nome": "Ace wo Nerae!",
      "link": "https://animefire.plus/animes/ace-wo-nerae-todos-os-episodios",
      "texto_original": "Ace wo Nerae!",
      "rating": 7.01,
      "classificacao_etaria": "A14",
      "imagem_original": "https://animefire.plus/img/animes/ace-wo-nerae.webp",
      "imagem_pasta": "https://animefire.plus/img/animes/ace-wo-nerae/",
      "secao": "legendados",
      "pagina": 72,
      "total_episodios": 26,
      "link_video": "https://animefire.plus/video/ace-wo-nerae"
    },
    {
      "id": 62,
      "nome": "Ace wo Nerae! 2",
      "link": "https://animefire.plus/animes/ace-wo-nerae-2-todos-os-episodios",
      "texto_original": "Ace wo Nerae! 2",
      "rating": 6.82,
      "classificacao_etaria": "A14",
      "imagem_original": "https://animefire.plus/img/animes/ace-wo-nerae-2.webp",
      "imagem_pasta": "https://animefire.plus/img/animes/ace-wo-nerae-2/",
      "secao": "legendados",
      "pagina": 55,
      "total_episodios": 13,
      "link_video": "https://animefire.plus/video/ace-wo-nerae-2"
    }
  ],
  "pagination": {
    "current_page": 3,
    "per_page": 20,
    "total_items": 4269,
    "total_pages": 214,
    "has_next": true,
    "has_prev": true
  }
}
