{
  "message": "Animes da seção: legendados",
  "section": "legendados",
  "data": [
    {
      "id": 867,
      "nome": "Dr. Stone (Dublado)",
      "link": "https://animefire.plus/animes/dr-stone-dublado-todos-os-episodios",
      "texto_original": "Dr. Stone (Dublado)",
      "rating": 8.35,
      "classificacao_etaria": "A14",
      "imagem_original": "https://animefire.plus/img/animes/dr-stone.webp",
      "imagem_pasta": "https://animefire.plus/img/animes/dr-stone/",
      "secao": "dublados,legendados",
      "pagina": 20,
      "total_episodios": 24,
      "link_video": "https://animefire.plus/video/dr-stone-dublado"
    },
    {
      "id": 868,
      "nome": "Dr. Stone: New World (Dublado)",
      "link": "https://animefire.plus/animes/dr-stone-new-world-dublado-todos-os-episodios",
      "texto_original": "Dr. Stone: New World (Dublado)",
      "rating": 8.15,
      "classificacao_etaria": "A14",
      "imagem_original": "https://animefire.plus/img/animes/dr-stone-new-world.webp",
      "imagem_pasta": "https://animefire.plus/img/animes/dr-stone-new-world/",
      "secao": "dublados,legendados",
      "pagina": 7,
      "total_episodios": 11,
      "link_video": "https://animefire.plus/video/dr-stone-new-world-dublado"
    },
    {
      "id": 869,
      "nome": "Dr. Stone: New World Part 2 (Dublado)",
      "link": "https://animefire.plus/animes/dr-stone-new-world-part-2-dublado-todos-os-episodios",
      "texto_original": "Dr. Stone: New World Part 2 (Dublado)",
      "rating": 8.34,
      "classificacao_etaria": "A14",
      "imagem_original": "https://animefire.plus/img/animes/dr-stone-new-world-part-2.webp",
      "imagem_pasta": "https://animefire.plus/img/animes/dr-stone-new-world-part-2/",
      "secao": "dublados,legendados",
      "pagina": 5,
      "total_episodios": 11,
      "link_video": "https://animefire.plus/video/dr-stone-new-world-part-2-dublado"
    },
    {
      "id": 870,
      "nome": "Dr. Stone: Ryuusui (Dublado)",
      "link": "https://animefire.plus/animes/dr-stone-ryuusui-dublado-todos-os-episodios",
      "texto_original": "Dr. Stone: Ryuusui (Dublado)",
      "rating": 8.13,
      "classificacao_etaria": "A14",
      "imagem_original": "https://animefire.plus/img/animes/dr-stone-ryuusui.webp",
      "imagem_pasta": "https://animefire.plus/img/animes/dr-stone-ryuusui/",
      "secao": "dublados,legendados",
      "pagina": 9,
      "total_episodios": 1,
      "link_video": "https://animefire.plus/video/dr-stone-ryuusui-dublado"
    },
    {
      "id": 871,
      "nome": "Dr. Stone: Science Future (Dublado)",
      "link": "https://animefire.plus/animes/dr-stone-science-future-dublado-todos-os-episodios",
      "texto_original": "Dr. Stone: Science Future (Dublado)",
      "rating": 8.24,
      "classificacao_etaria": "A14",
      "imagem_original": "https://animefire.plus/img/animes/dr-stone-science-future.webp",
      "imagem_pasta": "https://animefire.plus/img/animes/dr-stone-science-future/",
      "secao": "dublados,legendados,lancamentos",
      "pagina": 1,
      "total_episodios": 12,
      "link_video": "https://animefire.plus/video/dr-stone-science-future-dublado"
    },
    {
      "id": 872,
      "nome": "Dr. Stone: Science Future Part 2",
      "link": "https://animefire.plus/animes/dr-stone-science-future-part-2-todos-os-episodios",
      "texto_original": "Dr. Stone: Science Future Part 2",
      "rating": 8.22,
      "classificacao_etaria": "A14",
      "imagem_original": "https://animefire.plus/img/animes/dr-stone-science-future-part-2.webp",
      "imagem_pasta": "https://animefire.plus/img/animes/dr-stone-science-future-part-2/",
      "secao": "legendados,lancamentos",
      "pagina": 1,
      "total_episodios": 4,
      "link_video": "https://animefire.plus/video/dr-stone-science-future-part-2"
    },
    {
      "id": 873,
      "nome": "Dr. Stone: Stone Wars (Dublado)",
      "link": "https://animefire.plus/animes/dr-stone-stone-wars-dublado-todos-os-episodios",
      "texto_original": "Dr. Stone: Stone Wars (Dublado)",
      "rating": 8.16,
      "classificacao_etaria": "A14",
      "imagem_original": "https://animefire.plus/img/animes/dr-stone-stone-wars.webp",
      "imagem_pasta": "https://animefire.plus/img/animes/dr-stone-stone-wars/",
      "secao": "dublados,legendados",
      "pagina": 18,
      "total_episodios": 11,
      "link_video": "https://animefire.plus/video/dr-stone-stone-wars-dublado"
    },
    {
      "id": 875,
      "nome": "Dragon Ball Daima (Dublado)",
      "link": "https://animefire.plus/animes/dragon-ball-daima-dublado-todos-os-episodios",
      "texto_original": "Dragon Ball Daima (Dublado)",
      "rating": 7.63,
      "classificacao_etaria": "A14",
      "imagem_original": "https://animefire.plus/img/animes/dragon-ball-daima.webp",
      "imagem_pasta": "https://animefire.plus/img/animes/dragon-ball-daima/",
      "secao": "dublados,legendados",
      "pagina": 1,
      "total_episodios": 20,
      "link_video": "https://animefire.plus/video/dragon-ball-daima-dublado"
    },
    {
      "id": 877,
      "nome": "Dragon Ball Heroes (Dublado)",
      "link": "https://animefire.plus/animes/dragon-ball-heroes-dublado-todos-os-episodios",
      "texto_original": "Dragon Ball Heroes (Dublado)",
      "rating": 5.62,
      "classificacao_etaria": "A14",
      "imagem_original": "https://animefire.plus/img/animes/dragon-ball-heroes.webp",
      "imagem_pasta": "https://animefire.plus/img/animes/dragon-ball-heroes/",
      "secao": "dublados,legendados,lancamentos",
      "pagina": 26,
      "total_episodios": 16,
      "link_video": "https://animefire.plus/video/dragon-ball-heroes-dublado"
    },
    {
      "id": 881,
      "nome": "Dragon Crisis!",
      "link": "https://animefire.plus/animes/dragon-crisis-todos-os-episodios",
      "texto_original": "Dragon Crisis!",
      "rating": 6.82,
      "classificacao_etaria": "A14",
      "imagem_original": "https://animefire.plus/img/animes/dragon-crisis.webp",
      "imagem_pasta": "https://animefire.plus/img/animes/dragon-crisis/",
      "secao": "legendados",
      "pagina": 161,
      "total_episodios": 12,
      "link_video": "https://animefire.plus/video/dragon-crisis"
    },
    {
      "id": 882,
      "nome": "Dragon Drive",
      "link": "https://animefire.plus/animes/dragon-drive-todos-os-episodios",
      "texto_original": "Dragon Drive",
      "rating": 6.81,
      "classificacao_etaria": "A10",
      "imagem_original": "https://animefire.plus/img/animes/dragon-drive.webp",
      "imagem_pasta": "https://animefire.plus/img/animes/dragon-drive/",
      "secao": "legendados",
      "pagina": 125,
      "total_episodios": 38,
      "link_video": "https://animefire.plus/video/dragon-drive"
    },
    {
      "id": 883,
      "nome": "Dragon Fist",
      "link": "https://animefire.plus/animes/dragon-fist-todos-os-episodios",
      "texto_original": "Dragon Fist",
      "rating": 4.76,
      "classificacao_etaria": "A14",
      "imagem_original": "https://animefire.plus/img/animes/dragon-fist.webp",
      "imagem_pasta": "https://animefire.plus/img/animes/dragon-fist/",
      "secao": "legendados",
      "pagina": 87,
      "total_episodios": 1,
      "link_video": "https://animefire.plus/video/dragon-fist"
    },
    {
      "id": 884,
      "nome": "Dragon Quest: Dai no Daibouken (2020)",
      "link": "https://animefire.plus/animes/dragon-quest-dai-no-daibouken-2020-todos-os-episodios",
      "texto_original": "Dragon Quest: Dai no Daibouken (2020)",
      "rating": null,
      "classificacao_etaria": "A14",
      "imagem_original": "https://animefire.plus/img/animes/dragon-quest-dai-no-daibouken-2020.webp",
      "imagem_pasta": "https://animefire.plus/img/animes/dragon-quest-dai-no-daibouken-2020/",
      "secao": "legendados",
      "pagina": 52,
      "total_episodios": 100,
      "link_video": "https://animefire.plus/video/dragon-quest-dai-no-daibouken-2020"
    },
    {
      "id": 886,
      "nome": "Dragon, Ie wo Kau. (Dublado)",
      "link": "https://animefire.plus/animes/dragon-ie-wo-kau-dublado-todos-os-episodios",
      "texto_original": "Dragon, Ie wo Kau. (Dublado)",
      "rating": 6.42,
      "classificacao_etaria": "A14",
      "imagem_original": "https://animefire.plus/img/animes/dragon-ie-wo-kau.webp",
      "imagem_pasta": "https://animefire.plus/img/animes/dragon-ie-wo-kau/",
      "secao": "dublados,legendados",
      "pagina": 13,
      "total_episodios": 12,
      "link_video": "https://animefire.plus/video/dragon-ie-wo-kau-dublado"
    },
    {
      "id": 887,
      "nome": "Dragon's Dogma",
      "link": "https://animefire.plus/animes/dragon-s-dogma-todos-os-episodios",
      "texto_original": "Dragon's Dogma",
      "rating": 5.86,
      "classificacao_etaria": "A18",
      "imagem_original": "https://animefire.plus/img/animes/dragon-s-dogma.webp",
      "imagem_pasta": "https://animefire.plus/img/animes/dragon-s-dogma/",
      "secao": "legendados",
      "pagina": 42,
      "total_episodios": 7,
      "link_video": "https://animefire.plus/video/dragon-s-dogma"
    },
    {
      "id": 888,
      "nome": "Dragonaut: The Resonance",
      "link": "https://animefire.plus/animes/dragonaut-the-resonance-todos-os-episodios",
      "texto_original": "Dragonaut: The Resonance",
      "rating": 6.73,
      "classificacao_etaria": "A14",
      "imagem_original": "https://animefire.plus/img/animes/dragonaut-the-resonance.webp",
      "imagem_pasta": "https://animefire.plus/img/animes/dragonaut-the-resonance/",
      "secao": "legendados",
      "pagina": 145,
      "total_episodios": 25,
      "link_video": "https://animefire.plus/video/dragonaut-the-resonance"
    },
    {
      "id": 889,
      "nome": "DRAMAtical Murder",
      "link": "https://animefire.plus/animes/dramatical-murder-todos-os-episodios",
      "texto_original": "DRAMAtical Murder",
      "rating": 6.18,
      "classificacao_etaria": "A14",
      "imagem_original": "https://animefire.plus/img/animes/dramatical-murder.webp",
      "imagem_pasta": "https://animefire.plus/img/animes/dramatical-murder/",
      "secao": "legendados",
      "pagina": 92,
      "total_episodios": 12,
      "link_video": "https://animefire.plus/video/dramatical-murder"
    },
    {
      "id": 890,
      "nome": "Dream Festival!",
      "link": "https://animefire.plus/animes/dream-festival-todos-os-episodios",
      "texto_original": "Dream Festival!",
      "rating": 6.9,
      "classificacao_etaria": "A14",
      "imagem_original": "https://animefire.plus/img/animes/dream-festival.webp",
      "imagem_pasta": "https://animefire.plus/img/animes/dream-festival/",
      "secao": "legendados",
      "pagina": 144,
      "total_episodios": 12,
      "link_video": "https://animefire.plus/video/dream-festival"
    },
    {
      "id": 891,
      "nome": "Dream Festival! R",
      "link": "https://animefire.plus/animes/dream-festival-r-todos-os-episodios",
      "texto_original": "Dream Festival! R",
      "rating": 6.93,
      "classificacao_etaria": "A14",
      "imagem_original": "https://animefire.plus/img/animes/dream-festival-r.webp",
      "imagem_pasta": "https://animefire.plus/img/animes/dream-festival-r/",
      "secao": "legendados",
      "pagina": 63,
      "total_episodios": 12,
      "link_video": "https://animefire.plus/video/dream-festival-r"
    },
    {
      "id": 892,
      "nome": "Drifters",
      "link": "https://animefire.plus/animes/drifters-todos-os-episodios",
      "texto_original": "Drifters",
      "rating": 8.02,
      "classificacao_etaria": "A16",
      "imagem_original": "https://animefire.plus/img/animes/drifters.webp",
      "imagem_pasta": "https://animefire.plus/img/animes/drifters/",
      "secao": "legendados",
      "pagina": 136,
      "total_episodios": 3,
      "link_video": "https://animefire.plus/video/drifters"
    }
  ],
  "pagination": {
    "current_page": 43,
    "per_page": 20,
    "total_items": 4269,
    "total_pages": 214,
    "has_next": true,
    "has_prev": true
  }
}
