{
  "message": "Animes da seção: legendados",
  "section": "legendados",
  "data": [
    {
      "id": 307,
      "nome": "Baka to Test to Shoukanjuu Ni!",
      "link": "https://animefire.plus/animes/baka-to-test-to-shoukanjuu-ni-todos-os-episodios",
      "texto_original": "Baka to Test to Shoukanjuu Ni!",
      "rating": 7.87,
      "classificacao_etaria": "A14",
      "imagem_original": "https://animefire.plus/img/animes/baka-to-test-to-shoukanjuu-ni.webp",
      "imagem_pasta": "https://animefire.plus/img/animes/baka-to-test-to-shoukanjuu-ni/",
      "secao": "legendados",
      "pagina": 142,
      "total_episodios": 12,
      "link_video": "https://animefire.plus/video/baka-to-test-to-shoukanjuu-ni"
    },
    {
      "id": 308,
      "nome": "Bakemonogatari",
      "link": "https://animefire.plus/animes/bakemonogatari-todos-os-episodios",
      "texto_original": "Bakemonogatari",
      "rating": 8.35,
      "classificacao_etaria": "A16",
      "imagem_original": "https://animefire.plus/img/animes/bakemonogatari.webp",
      "imagem_pasta": "https://animefire.plus/img/animes/bakemonogatari/",
      "secao": "legendados",
      "pagina": 162,
      "total_episodios": 15,
      "link_video": "https://animefire.plus/video/bakemonogatari"
    },
    {
      "id": 309,
      "nome": "Baki (Dublado)",
      "link": "https://animefire.plus/animes/baki-dublado-todos-os-episodios",
      "texto_original": "Baki (Dublado)",
      "rating": 7.33,
      "classificacao_etaria": "A16",
      "imagem_original": "https://animefire.plus/img/animes/baki.webp",
      "imagem_pasta": "https://animefire.plus/img/animes/baki/",
      "secao": "dublados,legendados",
      "pagina": 25,
      "total_episodios": 26,
      "link_video": "https://animefire.plus/video/baki-dublado"
    },
    {
      "id": 310,
      "nome": "Baki 2nd Season",
      "link": "https://animefire.plus/animes/baki-2nd-season-todos-os-episodios",
      "texto_original": "Baki 2nd Season",
      "rating": 7.47,
      "classificacao_etaria": "A16",
      "imagem_original": "https://animefire.plus/img/animes/baki-2nd-season.webp",
      "imagem_pasta": "https://animefire.plus/img/animes/baki-2nd-season/",
      "secao": "legendados",
      "pagina": 61,
      "total_episodios": 13,
      "link_video": "https://animefire.plus/video/baki-2nd-season"
    },
    {
      "id": 311,
      "nome": "Bakugan Battle Brawlers: Gundalian Invaders",
      "link": "https://animefire.plus/animes/bakugan-battle-brawlers-gundalian-invaders-todos-os-episodios",
      "texto_original": "Bakugan Battle Brawlers: Gundalian Invaders",
      "rating": 6.32,
      "classificacao_etaria": null,
      "imagem_original": "https://animefire.plus/img/animes/bakugan-battle-brawlers-gundalian-invaders.webp",
      "imagem_pasta": "https://animefire.plus/img/animes/bakugan-battle-brawlers-gundalian-invaders/",
      "secao": "legendados",
      "pagina": 130,
      "total_episodios": 4,
      "link_video": "https://animefire.plus/video/bakugan-battle-brawlers-gundalian-invaders"
    },
    {
      "id": 312,
      "nome": "Bakuman.",
      "link": "https://animefire.plus/animes/bakuman-todos-os-episodios",
      "texto_original": "Bakuman.",
      "rating": 8.29,
      "classificacao_etaria": "A14",
      "imagem_original": "https://animefire.plus/img/animes/bakuman.webp",
      "imagem_pasta": "https://animefire.plus/img/animes/bakuman/",
      "secao": "legendados",
      "pagina": 160,
      "total_episodios": 25,
      "link_video": "https://animefire.plus/video/bakuman"
    },
    {
      "id": 313,
      "nome": "Bakuman. 2nd Season",
      "link": "https://animefire.plus/animes/bakuman-2nd-season-todos-os-episodios",
      "texto_original": "Bakuman. 2nd Season",
      "rating": 8.45,
      "classificacao_etaria": "A14",
      "imagem_original": "https://animefire.plus/img/animes/bakuman-2nd-season.webp",
      "imagem_pasta": "https://animefire.plus/img/animes/bakuman-2nd-season/",
      "secao": "legendados",
      "pagina": 161,
      "total_episodios": 25,
      "link_video": "https://animefire.plus/video/bakuman-2nd-season"
    },
    {
      "id": 314,
      "nome": "Bakuman. 3rd Season",
      "link": "https://animefire.plus/animes/bakuman-3rd-season-todos-os-episodios",
      "texto_original": "Bakuman. 3rd Season",
      "rating": 8.63,
      "classificacao_etaria": "A14",
      "imagem_original": "https://animefire.plus/img/animes/bakuman-3rd-season.webp",
      "imagem_pasta": "https://animefire.plus/img/animes/bakuman-3rd-season/",
      "secao": "legendados",
      "pagina": 123,
      "total_episodios": 25,
      "link_video": "https://animefire.plus/video/bakuman-3rd-season"
    },
    {
      "id": 315,
      "nome": "Bakumatsu",
      "link": "https://animefire.plus/animes/bakumatsu-todos-os-episodios",
      "texto_original": "Bakumatsu",
      "rating": 5.89,
      "classificacao_etaria": "A14",
      "imagem_original": "https://animefire.plus/img/animes/bakumatsu.webp",
      "imagem_pasta": "https://animefire.plus/img/animes/bakumatsu/",
      "secao": "legendados",
      "pagina": 152,
      "total_episodios": 12,
      "link_video": "https://animefire.plus/video/bakumatsu"
    },
    {
      "id": 316,
      "nome": "Bakumatsu Gijinden Roman",
      "link": "https://animefire.plus/animes/bakumatsu-gijinden-roman-todos-os-episodios",
      "texto_original": "Bakumatsu Gijinden Roman",
      "rating": 6.18,
      "classificacao_etaria": "A14",
      "imagem_original": "https://animefire.plus/img/animes/bakumatsu-gijinden-roman.webp",
      "imagem_pasta": "https://animefire.plus/img/animes/bakumatsu-gijinden-roman/",
      "secao": "legendados",
      "pagina": 102,
      "total_episodios": 0,
      "link_video": "https://animefire.plus/video/bakumatsu-gijinden-roman"
    },
    {
      "id": 317,
      "nome": "Bakumatsu Kikansetsu Irohanihoheto",
      "link": "https://animefire.plus/animes/bakumatsu-kikansetsu-irohanihoheto-todos-os-episodios",
      "texto_original": "Bakumatsu Kikansetsu Irohanihoheto",
      "rating": 7.17,
      "classificacao_etaria": "A14",
      "imagem_original": "https://animefire.plus/img/animes/bakumatsu-kikansetsu-irohanihoheto.webp",
      "imagem_pasta": "https://animefire.plus/img/animes/bakumatsu-kikansetsu-irohanihoheto/",
      "secao": "legendados",
      "pagina": 149,
      "total_episodios": 26,
      "link_video": "https://animefire.plus/video/bakumatsu-kikansetsu-irohanihoheto"
    },
    {
      "id": 318,
      "nome": "Bakumatsu Rock",
      "link": "https://animefire.plus/animes/bakumatsu-rock-todos-os-episodios",
      "texto_original": "Bakumatsu Rock",
      "rating": 6.12,
      "classificacao_etaria": "A14",
      "imagem_original": "https://animefire.plus/img/animes/bakumatsu-rock.webp",
      "imagem_pasta": "https://animefire.plus/img/animes/bakumatsu-rock/",
      "secao": "legendados",
      "pagina": 156,
      "total_episodios": 3,
      "link_video": "https://animefire.plus/video/bakumatsu-rock"
    },
    {
      "id": 319,
      "nome": "Bakumatsu: Crisis",
      "link": "https://animefire.plus/animes/bakumatsu-crisis-todos-os-episodios",
      "texto_original": "Bakumatsu: Crisis",
      "rating": 5.69,
      "classificacao_etaria": "A14",
      "imagem_original": "https://animefire.plus/img/animes/bakumatsu-crisis.webp",
      "imagem_pasta": "https://animefire.plus/img/animes/bakumatsu-crisis/",
      "secao": "legendados",
      "pagina": 132,
      "total_episodios": 6,
      "link_video": "https://animefire.plus/video/bakumatsu-crisis"
    },
    {
      "id": 320,
      "nome": "Bakuon!!",
      "link": "https://animefire.plus/animes/bakuon-todos-os-episodios",
      "texto_original": "Bakuon!!",
      "rating": 6.51,
      "classificacao_etaria": "A14",
      "imagem_original": "https://animefire.plus/img/animes/bakuon.webp",
      "imagem_pasta": "https://animefire.plus/img/animes/bakuon/",
      "secao": "legendados",
      "pagina": 103,
      "total_episodios": 12,
      "link_video": "https://animefire.plus/video/bakuon"
    },
    {
      "id": 321,
      "nome": "Bakuretsu Hunters",
      "link": "https://animefire.plus/animes/bakuretsu-hunters-todos-os-episodios",
      "texto_original": "Bakuretsu Hunters",
      "rating": 6.78,
      "classificacao_etaria": "A16",
      "imagem_original": "https://animefire.plus/img/animes/bakuretsu-hunters.webp",
      "imagem_pasta": "https://animefire.plus/img/animes/bakuretsu-hunters/",
      "secao": "legendados",
      "pagina": 122,
      "total_episodios": 26,
      "link_video": "https://animefire.plus/video/bakuretsu-hunters"
    },
    {
      "id": 322,
      "nome": "Bakuretsu Tenshi",
      "link": "https://animefire.plus/animes/bakuretsu-tenshi-todos-os-episodios",
      "texto_original": "Bakuretsu Tenshi",
      "rating": 6.88,
      "classificacao_etaria": "A14",
      "imagem_original": "https://animefire.plus/img/animes/bakuretsu-tenshi.webp",
      "imagem_pasta": "https://animefire.plus/img/animes/bakuretsu-tenshi/",
      "secao": "legendados",
      "pagina": 172,
      "total_episodios": 24,
      "link_video": "https://animefire.plus/video/bakuretsu-tenshi"
    },
    {
      "id": 326,
      "nome": "Bakuten!!",
      "link": "https://animefire.plus/animes/bakuten-todos-os-episodios",
      "texto_original": "Bakuten!!",
      "rating": 7.49,
      "classificacao_etaria": "A14",
      "imagem_original": "https://animefire.plus/img/animes/bakuten.webp",
      "imagem_pasta": "https://animefire.plus/img/animes/bakuten/",
      "secao": "legendados",
      "pagina": 46,
      "total_episodios": 12,
      "link_video": "https://animefire.plus/video/bakuten"
    },
    {
      "id": 327,
      "nome": "Baldr Force Exe Resolution",
      "link": "https://animefire.plus/animes/baldr-force-exe-resolution-todos-os-episodios",
      "texto_original": "Baldr Force Exe Resolution",
      "rating": 6.5,
      "classificacao_etaria": "A18",
      "imagem_original": "https://animefire.plus/img/animes/baldr-force-exe-resolution.webp",
      "imagem_pasta": "https://animefire.plus/img/animes/baldr-force-exe-resolution/",
      "secao": "legendados",
      "pagina": 69,
      "total_episodios": 4,
      "link_video": "https://animefire.plus/video/baldr-force-exe-resolution"
    },
    {
      "id": 328,
      "nome": "Ballpark de Tsukamaete!",
      "link": "https://animefire.plus/animes/ballpark-de-tsukamaete-todos-os-episodios",
      "texto_original": "Ballpark de Tsukamaete!",
      "rating": 7.16,
      "classificacao_etaria": "A14",
      "imagem_original": "https://animefire.plus/img/animes/ballpark-de-tsukamaete.webp",
      "imagem_pasta": "https://animefire.plus/img/animes/ballpark-de-tsukamaete/",
      "secao": "legendados",
      "pagina": 4,
      "total_episodios": 12,
      "link_video": "https://animefire.plus/video/ballpark-de-tsukamaete"
    },
    {
      "id": 329,
      "nome": "Ballroom e Youkoso",
      "link": "https://animefire.plus/animes/ballroom-e-youkoso-todos-os-episodios",
      "texto_original": "Ballroom e Youkoso",
      "rating": 8.26,
      "classificacao_etaria": "A14",
      "imagem_original": "https://animefire.plus/img/animes/ballroom-e-youkoso.webp",
      "imagem_pasta": "https://animefire.plus/img/animes/ballroom-e-youkoso/",
      "secao": "legendados",
      "pagina": 80,
      "total_episodios": 0,
      "link_video": "https://animefire.plus/video/ballroom-e-youkoso"
    }
  ],
  "pagination": {
    "current_page": 16,
    "per_page": 20,
    "total_items": 4269,
    "total_pages": 214,
    "has_next": true,
    "has_prev": true
  }
}
