{
  "message": "Animes da seção: legendados",
  "section": "legendados",
  "data": [
    {
      "id": 2181,
      "nome": "Kyou no Asuka Show",
      "link": "https://animefire.plus/animes/kyou-no-asuka-show-todos-os-episodios",
      "texto_original": "Kyou no Asuka Show",
      "rating": 6.57,
      "classificacao_etaria": "A14",
      "imagem_original": "https://animefire.plus/img/animes/kyou-no-asuka-show.webp",
      "imagem_pasta": "https://animefire.plus/img/animes/kyou-no-asuka-show/",
      "secao": "legendados",
      "pagina": 12,
      "total_episodios": 20,
      "link_video": "https://animefire.plus/video/kyou-no-asuka-show"
    },
    {
      "id": 2182,
      "nome": "Kyougoku Natsuhiko: Kousetsu Hyaku Monogatari",
      "link": "https://animefire.plus/animes/kyougoku-natsuhiko-kousetsu-hyaku-monogatari-todos-os-episodios",
      "texto_original": "Kyougoku Natsuhiko: Kousetsu Hyaku Monogatari",
      "rating": 7.2,
      "classificacao_etaria": "A16",
      "imagem_original": "https://animefire.plus/img/animes/kyougoku-natsuhiko-kousetsu-hyaku-monogatari.webp",
      "imagem_pasta": "https://animefire.plus/img/animes/kyougoku-natsuhiko-kousetsu-hyaku-monogatari/",
      "secao": "legendados",
      "pagina": 151,
      "total_episodios": 13,
      "link_video": "https://animefire.plus/video/kyougoku-natsuhiko-kousetsu-hyaku-monogatari"
    },
    {
      "id": 2183,
      "nome": "Kyoukai no Kanata",
      "link": "https://animefire.plus/animes/kyoukai-no-kanata-todos-os-episodios",
      "texto_original": "Kyoukai no Kanata",
      "rating": 7.86,
      "classificacao_etaria": "A14",
      "imagem_original": "https://animefire.plus/img/animes/kyoukai-no-kanata.webp",
      "imagem_pasta": "https://animefire.plus/img/animes/kyoukai-no-kanata/",
      "secao": "legendados",
      "pagina": 169,
      "total_episodios": 5,
      "link_video": "https://animefire.plus/video/kyoukai-no-kanata"
    },
    {
      "id": 2184,
      "nome": "Kyoukai no Rinne (TV)",
      "link": "https://animefire.plus/animes/kyoukai-no-rinne-tv-todos-os-episodios",
      "texto_original": "Kyoukai no Rinne (TV)",
      "rating": 6.93,
      "classificacao_etaria": "A14",
      "imagem_original": "https://animefire.plus/img/animes/kyoukai-no-rinne-tv.webp",
      "imagem_pasta": "https://animefire.plus/img/animes/kyoukai-no-rinne-tv/",
      "secao": "legendados",
      "pagina": 91,
      "total_episodios": 25,
      "link_video": "https://animefire.plus/video/kyoukai-no-rinne-tv"
    },
    {
      "id": 2185,
      "nome": "Kyoukai Senki",
      "link": "https://animefire.plus/animes/kyoukai-senki-todos-os-episodios",
      "texto_original": "Kyoukai Senki",
      "rating": 6.31,
      "classificacao_etaria": "A14",
      "imagem_original": "https://animefire.plus/img/animes/kyoukai-senki.webp",
      "imagem_pasta": "https://animefire.plus/img/animes/kyoukai-senki/",
      "secao": "legendados",
      "pagina": 38,
      "total_episodios": 13,
      "link_video": "https://animefire.plus/video/kyoukai-senki"
    },
    {
      "id": 2186,
      "nome": "Kyoukai Senki Part 2",
      "link": "https://animefire.plus/animes/kyoukai-senki-part-2-todos-os-episodios",
      "texto_original": "Kyoukai Senki Part 2",
      "rating": 6.53,
      "classificacao_etaria": "A14",
      "imagem_original": "https://animefire.plus/img/animes/kyoukai-senki-part-2.webp",
      "imagem_pasta": "https://animefire.plus/img/animes/kyoukai-senki-part-2/",
      "secao": "legendados",
      "pagina": 33,
      "total_episodios": 12,
      "link_video": "https://animefire.plus/video/kyoukai-senki-part-2"
    },
    {
      "id": 2187,
      "nome": "Kyoukai Senki: Kyokkou no Souki",
      "link": "https://animefire.plus/animes/kyoukai-senki-kyokkou-no-souki-todos-os-episodios",
      "texto_original": "Kyoukai Senki: Kyokkou no Souki",
      "rating": 5.72,
      "classificacao_etaria": "A14",
      "imagem_original": "https://animefire.plus/img/animes/kyoukai-senki-kyokkou-no-souki.webp",
      "imagem_pasta": "https://animefire.plus/img/animes/kyoukai-senki-kyokkou-no-souki/",
      "secao": "legendados,lancamentos",
      "pagina": 21,
      "total_episodios": 2,
      "link_video": "https://animefire.plus/video/kyoukai-senki-kyokkou-no-souki"
    },
    {
      "id": 2188,
      "nome": "Kyoukaisenjou no Horizon",
      "link": "https://animefire.plus/animes/kyoukaisenjou-no-horizon-todos-os-episodios",
      "texto_original": "Kyoukaisenjou no Horizon",
      "rating": 7.19,
      "classificacao_etaria": "A14",
      "imagem_original": "https://animefire.plus/img/animes/kyoukaisenjou-no-horizon.webp",
      "imagem_pasta": "https://animefire.plus/img/animes/kyoukaisenjou-no-horizon/",
      "secao": "legendados",
      "pagina": 171,
      "total_episodios": 13,
      "link_video": "https://animefire.plus/video/kyoukaisenjou-no-horizon"
    },
    {
      "id": 2189,
      "nome": "Kyoukaisenjou no Horizon II",
      "link": "https://animefire.plus/animes/kyoukaisenjou-no-horizon-ii-todos-os-episodios",
      "texto_original": "Kyoukaisenjou no Horizon II",
      "rating": 7.63,
      "classificacao_etaria": "A18",
      "imagem_original": "https://animefire.plus/img/animes/kyoukaisenjou-no-horizon-ii.webp",
      "imagem_pasta": "https://animefire.plus/img/animes/kyoukaisenjou-no-horizon-ii/",
      "secao": "legendados",
      "pagina": 136,
      "total_episodios": 7,
      "link_video": "https://animefire.plus/video/kyoukaisenjou-no-horizon-ii"
    },
    {
      "id": 2190,
      "nome": "Kyoushirou to Towa no Sora",
      "link": "https://animefire.plus/animes/kyoushirou-to-towa-no-sora-todos-os-episodios",
      "texto_original": "Kyoushirou to Towa no Sora",
      "rating": 6.58,
      "classificacao_etaria": "A14",
      "imagem_original": "https://animefire.plus/img/animes/kyoushirou-to-towa-no-sora.webp",
      "imagem_pasta": "https://animefire.plus/img/animes/kyoushirou-to-towa-no-sora/",
      "secao": "legendados",
      "pagina": 177,
      "total_episodios": 12,
      "link_video": "https://animefire.plus/video/kyoushirou-to-towa-no-sora"
    },
    {
      "id": 2191,
      "nome": "Kyoushoku Soukou Guyver (2005)",
      "link": "https://animefire.plus/animes/kyoushoku-soukou-guyver-2005-todos-os-episodios",
      "texto_original": "Kyoushoku Soukou Guyver (2005)",
      "rating": 7.27,
      "classificacao_etaria": "A14",
      "imagem_original": "https://animefire.plus/img/animes/kyoushoku-soukou-guyver-2005.webp",
      "imagem_pasta": "https://animefire.plus/img/animes/kyoushoku-soukou-guyver-2005/",
      "secao": "legendados",
      "pagina": 68,
      "total_episodios": 24,
      "link_video": "https://animefire.plus/video/kyoushoku-soukou-guyver-2005"
    },
    {
      "id": 2192,
      "nome": "Kyousou Giga (TV)",
      "link": "https://animefire.plus/animes/kyousou-giga-tv-todos-os-episodios",
      "texto_original": "Kyousou Giga (TV)",
      "rating": 7.84,
      "classificacao_etaria": "A14",
      "imagem_original": "https://animefire.plus/img/animes/kyousou-giga-tv.webp",
      "imagem_pasta": "https://animefire.plus/img/animes/kyousou-giga-tv/",
      "secao": "legendados",
      "pagina": 94,
      "total_episodios": 10,
      "link_video": "https://animefire.plus/video/kyousou-giga-tv"
    },
    {
      "id": 2193,
      "nome": "Kyuujitsu no Warumono-san",
      "link": "https://animefire.plus/animes/kyuujitsu-no-warumono-san-todos-os-episodios",
      "texto_original": "Kyuujitsu no Warumono-san",
      "rating": 7.25,
      "classificacao_etaria": "A14",
      "imagem_original": "https://animefire.plus/img/animes/kyuujitsu-no-warumono-san.webp",
      "imagem_pasta": "https://animefire.plus/img/animes/kyuujitsu-no-warumono-san/",
      "secao": "legendados",
      "pagina": 17,
      "total_episodios": 12,
      "link_video": "https://animefire.plus/video/kyuujitsu-no-warumono-san"
    },
    {
      "id": 2194,
      "nome": "Kyuuketsuhime Miyu",
      "link": "https://animefire.plus/animes/kyuuketsuhime-miyu-todos-os-episodios",
      "texto_original": "Kyuuketsuhime Miyu",
      "rating": 7.01,
      "classificacao_etaria": "A14",
      "imagem_original": "https://animefire.plus/img/animes/kyuuketsuhime-miyu.webp",
      "imagem_pasta": "https://animefire.plus/img/animes/kyuuketsuhime-miyu/",
      "secao": "legendados",
      "pagina": 66,
      "total_episodios": 4,
      "link_video": "https://animefire.plus/video/kyuuketsuhime-miyu"
    },
    {
      "id": 2195,
      "nome": "Kyuuketsuhime Miyu (TV)",
      "link": "https://animefire.plus/animes/kyuuketsuhime-miyu-tv-todos-os-episodios",
      "texto_original": "Kyuuketsuhime Miyu (TV)",
      "rating": 7.2,
      "classificacao_etaria": "A16",
      "imagem_original": "https://animefire.plus/img/animes/kyuuketsuhime-miyu-tv.webp",
      "imagem_pasta": "https://animefire.plus/img/animes/kyuuketsuhime-miyu-tv/",
      "secao": "legendados",
      "pagina": 158,
      "total_episodios": 26,
      "link_video": "https://animefire.plus/video/kyuuketsuhime-miyu-tv"
    },
    {
      "id": 2196,
      "nome": "Kyuuketsuki Sugu Shinu (Dublado)",
      "link": "https://animefire.plus/animes/kyuuketsuki-sugu-shinu-dublado-todos-os-episodios",
      "texto_original": "Kyuuketsuki Sugu Shinu (Dublado)",
      "rating": 7.27,
      "classificacao_etaria": "A14",
      "imagem_original": "https://animefire.plus/img/animes/kyuuketsuki-sugu-shinu.webp",
      "imagem_pasta": "https://animefire.plus/img/animes/kyuuketsuki-sugu-shinu/",
      "secao": "dublados,legendados",
      "pagina": 14,
      "total_episodios": 12,
      "link_video": "https://animefire.plus/video/kyuuketsuki-sugu-shinu-dublado"
    },
    {
      "id": 2197,
      "nome": "Kyuuketsuki Sugu Shinu 2",
      "link": "https://animefire.plus/animes/kyuuketsuki-sugu-shinu-2-todos-os-episodios",
      "texto_original": "Kyuuketsuki Sugu Shinu 2",
      "rating": 7.45,
      "classificacao_etaria": "A14",
      "imagem_original": "https://animefire.plus/img/animes/kyuuketsuki-sugu-shinu-2.webp",
      "imagem_pasta": "https://animefire.plus/img/animes/kyuuketsuki-sugu-shinu-2/",
      "secao": "legendados",
      "pagina": 25,
      "total_episodios": 12,
      "link_video": "https://animefire.plus/video/kyuuketsuki-sugu-shinu-2"
    },
    {
      "id": 2198,
      "nome": "Kyuukyoku Shinka shita Full Dive RPG ga Genjitsu yori mo Kusoge Dattara (Dublado)",
      "link": "https://animefire.plus/animes/kyuukyoku-shinka-shita-full-dive-rpg-ga-genjitsu-yori-mo-kusoge-dattara-dublado-todos-os-episodios",
      "texto_original": "Kyuukyoku Shinka shita Full Dive RPG ga Genjitsu yori mo Kusoge Dattara (Dublado)",
      "rating": 6.47,
      "classificacao_etaria": "A14",
      "imagem_original": "https://animefire.plus/img/animes/kyuukyoku-shinka-shita-full-dive-rpg-ga-genjitsu-yori-mo-kusoge-dattara.webp",
      "imagem_pasta": "https://animefire.plus/img/animes/kyuukyoku-shinka-shita-full-dive-rpg-ga-genjitsu-yori-mo-kusoge-dattara/",
      "secao": "dublados,legendados",
      "pagina": 15,
      "total_episodios": 12,
      "link_video": "https://animefire.plus/video/kyuukyoku-shinka-shita-full-dive-rpg-ga-genjitsu-yori-mo-kusoge-dattara-dublado"
    },
    {
      "id": 2199,
      "nome": "Ladies versus Butlers!",
      "link": "https://animefire.plus/animes/ladies-versus-butlers-todos-os-episodios",
      "texto_original": "Ladies versus Butlers!",
      "rating": 6.77,
      "classificacao_etaria": "A18",
      "imagem_original": "https://animefire.plus/img/animes/ladies-versus-butlers.webp",
      "imagem_pasta": "https://animefire.plus/img/animes/ladies-versus-butlers/",
      "secao": "legendados",
      "pagina": 115,
      "total_episodios": 12,
      "link_video": "https://animefire.plus/video/ladies-versus-butlers"
    },
    {
      "id": 2200,
      "nome": "Lady Jewelpet",
      "link": "https://animefire.plus/animes/lady-jewelpet-todos-os-episodios",
      "texto_original": "Lady Jewelpet",
      "rating": 7.4,
      "classificacao_etaria": "A10",
      "imagem_original": "https://animefire.plus/img/animes/lady-jewelpet.webp",
      "imagem_pasta": "https://animefire.plus/img/animes/lady-jewelpet/",
      "secao": "legendados",
      "pagina": 56,
      "total_episodios": 52,
      "link_video": "https://animefire.plus/video/lady-jewelpet"
    }
  ],
  "pagination": {
    "current_page": 107,
    "per_page": 20,
    "total_items": 4269,
    "total_pages": 214,
    "has_next": true,
    "has_prev": true
  }
}
