{
  "message": "Animes da seção: legendados",
  "section": "legendados",
  "data": [
    {
      "id": 287,
      "nome": "Azur Lane (Dublado)",
      "link": "https://animefire.plus/animes/azur-lane-dublado-todos-os-episodios",
      "texto_original": "Azur Lane (Dublado)",
      "rating": 6.28,
      "classificacao_etaria": "A18",
      "imagem_original": "https://animefire.plus/img/animes/azur-lane.webp",
      "imagem_pasta": "https://animefire.plus/img/animes/azur-lane/",
      "secao": "dublados,legendados",
      "pagina": 18,
      "total_episodios": 12,
      "link_video": "https://animefire.plus/video/azur-lane-dublado"
    },
    {
      "id": 288,
      "nome": "Azur Lane: Bisoku Zenshin!",
      "link": "https://animefire.plus/animes/azur-lane-bisoku-zenshin-todos-os-episodios",
      "texto_original": "Azur Lane: Bisoku Zenshin!",
      "rating": 7,
      "classificacao_etaria": "A14",
      "imagem_original": "https://animefire.plus/img/animes/azur-lane-bisoku-zenshin.webp",
      "imagem_pasta": "https://animefire.plus/img/animes/azur-lane-bisoku-zenshin/",
      "secao": "legendados",
      "pagina": 48,
      "total_episodios": 12,
      "link_video": "https://animefire.plus/video/azur-lane-bisoku-zenshin"
    },
    {
      "id": 289,
      "nome": "Azur Lane: Bisoku Zenshin! Hokorashiki Bokou ni Shukusai wo",
      "link": "https://animefire.plus/animes/azur-lane-bisoku-zenshin-hokorashiki-bokou-ni-shukusai-wo-todos-os-episodios",
      "texto_original": "Azur Lane: Bisoku Zenshin! Hokorashiki Bokou ni Shukusai wo",
      "rating": 6.84,
      "classificacao_etaria": "A14",
      "imagem_original": "https://animefire.plus/img/animes/azur-lane-bisoku-zenshin-hokorashiki-bokou-ni-shukusai-wo.webp",
      "imagem_pasta": "https://animefire.plus/img/animes/azur-lane-bisoku-zenshin-hokorashiki-bokou-ni-shukusai-wo/",
      "secao": "legendados",
      "pagina": 37,
      "total_episodios": 1,
      "link_video": "https://animefire.plus/video/azur-lane-bisoku-zenshin-hokorashiki-bokou-ni-shukusai-wo"
    },
    {
      "id": 290,
      "nome": "B-gata H-kei",
      "link": "https://animefire.plus/animes/b-gata-h-kei-todos-os-episodios",
      "texto_original": "B-gata H-kei",
      "rating": 7.06,
      "classificacao_etaria": "A18",
      "imagem_original": "https://animefire.plus/img/animes/b-gata-h-kei.webp",
      "imagem_pasta": "https://animefire.plus/img/animes/b-gata-h-kei/",
      "secao": "legendados",
      "pagina": 150,
      "total_episodios": 11,
      "link_video": "https://animefire.plus/video/b-gata-h-kei"
    },
    {
      "id": 291,
      "nome": "B-Project: Kodou*Ambitious",
      "link": "https://animefire.plus/animes/b-project-kodou-ambitious-todos-os-episodios",
      "texto_original": "B-Project: Kodou*Ambitious",
      "rating": 6.75,
      "classificacao_etaria": "A14",
      "imagem_original": "https://animefire.plus/img/animes/b-project-kodou-ambitious.webp",
      "imagem_pasta": "https://animefire.plus/img/animes/b-project-kodou-ambitious/",
      "secao": "legendados",
      "pagina": 122,
      "total_episodios": 11,
      "link_video": "https://animefire.plus/video/b-project-kodou-ambitious"
    },
    {
      "id": 292,
      "nome": "B-Project: Netsuretsu*Love Call",
      "link": "https://animefire.plus/animes/b-project-netsuretsu-love-call-todos-os-episodios",
      "texto_original": "B-Project: Netsuretsu*Love Call",
      "rating": 6.3,
      "classificacao_etaria": "A14",
      "imagem_original": "https://animefire.plus/img/animes/b-project-netsuretsu-love-call.webp",
      "imagem_pasta": "https://animefire.plus/img/animes/b-project-netsuretsu-love-call/",
      "secao": "legendados",
      "pagina": 19,
      "total_episodios": 12,
      "link_video": "https://animefire.plus/video/b-project-netsuretsu-love-call"
    },
    {
      "id": 293,
      "nome": "B-Project: Zecchou*Emotion",
      "link": "https://animefire.plus/animes/b-project-zecchou-emotion-todos-os-episodios",
      "texto_original": "B-Project: Zecchou*Emotion",
      "rating": 6.71,
      "classificacao_etaria": "A14",
      "imagem_original": "https://animefire.plus/img/animes/b-project-zecchou-emotion.webp",
      "imagem_pasta": "https://animefire.plus/img/animes/b-project-zecchou-emotion/",
      "secao": "legendados",
      "pagina": 115,
      "total_episodios": 12,
      "link_video": "https://animefire.plus/video/b-project-zecchou-emotion"
    },
    {
      "id": 294,
      "nome": "B: The Beginning (Dublado)",
      "link": "https://animefire.plus/animes/b-the-beginning-dublado-todos-os-episodios",
      "texto_original": "B: The Beginning (Dublado)",
      "rating": 7.49,
      "classificacao_etaria": "A16",
      "imagem_original": "https://animefire.plus/img/animes/b-the-beginning.webp",
      "imagem_pasta": "https://animefire.plus/img/animes/b-the-beginning/",
      "secao": "dublados,legendados",
      "pagina": 24,
      "total_episodios": 12,
      "link_video": "https://animefire.plus/video/b-the-beginning-dublado"
    },
    {
      "id": 295,
      "nome": "B: The Beginning Succession (Dublado)",
      "link": "https://animefire.plus/animes/b-the-beginning-succession-dublado-todos-os-episodios",
      "texto_original": "B: The Beginning Succession (Dublado)",
      "rating": 6.2,
      "classificacao_etaria": "A18",
      "imagem_original": "https://animefire.plus/img/animes/b-the-beginning-succession.webp",
      "imagem_pasta": "https://animefire.plus/img/animes/b-the-beginning-succession/",
      "secao": "dublados,legendados",
      "pagina": 18,
      "total_episodios": 6,
      "link_video": "https://animefire.plus/video/b-the-beginning-succession-dublado"
    },
    {
      "id": 296,
      "nome": "Babanbabanban Vampire",
      "link": "https://animefire.plus/animes/babanbabanban-vampire-todos-os-episodios",
      "texto_original": "Babanbabanban Vampire",
      "rating": null,
      "classificacao_etaria": "A14",
      "imagem_original": "https://animefire.plus/img/animes/babanbabanban-vampire.webp",
      "imagem_pasta": "https://animefire.plus/img/animes/babanbabanban-vampire/",
      "secao": "legendados",
      "pagina": 7,
      "total_episodios": 12,
      "link_video": "https://animefire.plus/video/babanbabanban-vampire"
    },
    {
      "id": 297,
      "nome": "Baby Princess 3D Paradise 0 [Love]",
      "link": "https://animefire.plus/animes/baby-princess-3d-paradise-0-love-todos-os-episodios",
      "texto_original": "Baby Princess 3D Paradise 0 [Love]",
      "rating": 6.47,
      "classificacao_etaria": "A18",
      "imagem_original": "https://animefire.plus/img/animes/baby-princess-3d-paradise-0-love.webp",
      "imagem_pasta": "https://animefire.plus/img/animes/baby-princess-3d-paradise-0-love/",
      "secao": "legendados",
      "pagina": 53,
      "total_episodios": 1,
      "link_video": "https://animefire.plus/video/baby-princess-3d-paradise-0-love"
    },
    {
      "id": 298,
      "nome": "Baby Steps",
      "link": "https://animefire.plus/animes/baby-steps-todos-os-episodios",
      "texto_original": "Baby Steps",
      "rating": 7.92,
      "classificacao_etaria": "A14",
      "imagem_original": "https://animefire.plus/img/animes/baby-steps.webp",
      "imagem_pasta": "https://animefire.plus/img/animes/baby-steps/",
      "secao": "legendados",
      "pagina": 145,
      "total_episodios": 25,
      "link_video": "https://animefire.plus/video/baby-steps"
    },
    {
      "id": 299,
      "nome": "Baby Steps 2nd Season",
      "link": "https://animefire.plus/animes/baby-steps-2nd-season-todos-os-episodios",
      "texto_original": "Baby Steps 2nd Season",
      "rating": 8.12,
      "classificacao_etaria": "A14",
      "imagem_original": "https://animefire.plus/img/animes/baby-steps-2nd-season.webp",
      "imagem_pasta": "https://animefire.plus/img/animes/baby-steps-2nd-season/",
      "secao": "legendados",
      "pagina": 90,
      "total_episodios": 4,
      "link_video": "https://animefire.plus/video/baby-steps-2nd-season"
    },
    {
      "id": 300,
      "nome": "Babylon",
      "link": "https://animefire.plus/animes/babylon-todos-os-episodios",
      "texto_original": "Babylon",
      "rating": 6.82,
      "classificacao_etaria": "A16",
      "imagem_original": "https://animefire.plus/img/animes/babylon.webp",
      "imagem_pasta": "https://animefire.plus/img/animes/babylon/",
      "secao": "legendados",
      "pagina": 110,
      "total_episodios": 3,
      "link_video": "https://animefire.plus/video/babylon"
    },
    {
      "id": 301,
      "nome": "Baccano!",
      "link": "https://animefire.plus/animes/baccano-todos-os-episodios",
      "texto_original": "Baccano!",
      "rating": 8.42,
      "classificacao_etaria": "A16",
      "imagem_original": "https://animefire.plus/img/animes/baccano.webp",
      "imagem_pasta": "https://animefire.plus/img/animes/baccano/",
      "secao": "legendados",
      "pagina": 51,
      "total_episodios": 13,
      "link_video": "https://animefire.plus/video/baccano"
    },
    {
      "id": 302,
      "nome": "Back Arrow (Dublado)",
      "link": "https://animefire.plus/animes/back-arrow-dublado-todos-os-episodios",
      "texto_original": "Back Arrow (Dublado)",
      "rating": 6.33,
      "classificacao_etaria": "A18",
      "imagem_original": "https://animefire.plus/img/animes/back-arrow.webp",
      "imagem_pasta": "https://animefire.plus/img/animes/back-arrow/",
      "secao": "dublados,legendados",
      "pagina": 13,
      "total_episodios": 24,
      "link_video": "https://animefire.plus/video/back-arrow-dublado"
    },
    {
      "id": 303,
      "nome": "Back Street Girls: Gokudolls (Dublado)",
      "link": "https://animefire.plus/animes/back-street-girls-gokudolls-dublado-todos-os-episodios",
      "texto_original": "Back Street Girls: Gokudolls (Dublado)",
      "rating": 6.93,
      "classificacao_etaria": "A16",
      "imagem_original": "https://animefire.plus/img/animes/back-street-girls-gokudolls.webp",
      "imagem_pasta": "https://animefire.plus/img/animes/back-street-girls-gokudolls/",
      "secao": "dublados,legendados",
      "pagina": 24,
      "total_episodios": 10,
      "link_video": "https://animefire.plus/video/back-street-girls-gokudolls-dublado"
    },
    {
      "id": 304,
      "nome": "Bad Girl",
      "link": "https://animefire.plus/animes/bad-girl-todos-os-episodios",
      "texto_original": "Bad Girl",
      "rating": 6.8,
      "classificacao_etaria": null,
      "imagem_original": "https://animefire.plus/img/animes/bad-girl.webp",
      "imagem_pasta": "https://animefire.plus/img/animes/bad-girl/",
      "secao": "legendados,lancamentos",
      "pagina": 2,
      "total_episodios": 5,
      "link_video": "https://animefire.plus/video/bad-girl"
    },
    {
      "id": 305,
      "nome": "Baka to Test to Shoukanjuu",
      "link": "https://animefire.plus/animes/baka-to-test-to-shoukanjuu-todos-os-episodios",
      "texto_original": "Baka to Test to Shoukanjuu",
      "rating": 7.72,
      "classificacao_etaria": "A14",
      "imagem_original": "https://animefire.plus/img/animes/baka-to-test-to-shoukanjuu.webp",
      "imagem_pasta": "https://animefire.plus/img/animes/baka-to-test-to-shoukanjuu/",
      "secao": "legendados",
      "pagina": 167,
      "total_episodios": 13,
      "link_video": "https://animefire.plus/video/baka-to-test-to-shoukanjuu"
    },
    {
      "id": 306,
      "nome": "Baka to Test to Shoukanjuu Mini Anime",
      "link": "https://animefire.plus/animes/baka-to-test-to-shoukanjuu-mini-anime-todos-os-episodios",
      "texto_original": "Baka to Test to Shoukanjuu Mini Anime",
      "rating": 6.75,
      "classificacao_etaria": "A14",
      "imagem_original": "https://animefire.plus/img/animes/baka-to-test-to-shoukanjuu-mini-anime.webp",
      "imagem_pasta": "https://animefire.plus/img/animes/baka-to-test-to-shoukanjuu-mini-anime/",
      "secao": "legendados",
      "pagina": 85,
      "total_episodios": 1,
      "link_video": "https://animefire.plus/video/baka-to-test-to-shoukanjuu-mini-anime"
    }
  ],
  "pagination": {
    "current_page": 15,
    "per_page": 20,
    "total_items": 4269,
    "total_pages": 214,
    "has_next": true,
    "has_prev": true
  }
}
