{
  "message": "Animes da seção: legendados",
  "section": "legendados",
  "data": [
    {
      "id": 1384,
      "nome": "Hataraku Maou-sama!!",
      "link": "https://animefire.plus/animes/the-devil-is-a-part-timer-2nd-season-todos-os-episodios",
      "texto_original": "Hataraku Maou-sama!!",
      "rating": 6.65,
      "classificacao_etaria": "A14",
      "imagem_original": "https://animefire.plus/img/animes/the-devil-is-a-part-timer-2nd-season.webp",
      "imagem_pasta": "https://animefire.plus/img/animes/the-devil-is-a-part-timer-2nd-season/",
      "secao": "legendados",
      "pagina": 30,
      "total_episodios": 6,
      "link_video": "https://animefire.plus/video/the-devil-is-a-part-timer-2nd-season"
    },
    {
      "id": 1385,
      "nome": "Hataraku Maou-sama!! 2nd Season (Dublado)",
      "link": "https://animefire.plus/animes/hataraku-maou-sama-2nd-season-dublado-todos-os-episodios",
      "texto_original": "Hataraku Maou-sama!! 2nd Season (Dublado)",
      "rating": 6.67,
      "classificacao_etaria": "A14",
      "imagem_original": "https://animefire.plus/img/animes/hataraku-maou-sama-2nd-season.webp",
      "imagem_pasta": "https://animefire.plus/img/animes/hataraku-maou-sama-2nd-season/",
      "secao": "dublados,legendados",
      "pagina": 6,
      "total_episodios": 12,
      "link_video": "https://animefire.plus/video/hataraku-maou-sama-2nd-season-dublado"
    },
    {
      "id": 1386,
      "nome": "Hataraku Saibou",
      "link": "https://animefire.plus/animes/hataraku-saibou-todos-os-episodios",
      "texto_original": "Hataraku Saibou",
      "rating": 7.81,
      "classificacao_etaria": "A14",
      "imagem_original": "https://animefire.plus/img/animes/hataraku-saibou.webp",
      "imagem_pasta": "https://animefire.plus/img/animes/hataraku-saibou/",
      "secao": "legendados",
      "pagina": 147,
      "total_episodios": 13,
      "link_video": "https://animefire.plus/video/hataraku-saibou"
    },
    {
      "id": 1387,
      "nome": "Hataraku Saibou (TV)",
      "link": "https://animefire.plus/animes/hataraku-saibou-tv-todos-os-episodios",
      "texto_original": "Hataraku Saibou (TV)",
      "rating": 7.75,
      "classificacao_etaria": "A14",
      "imagem_original": "https://animefire.plus/img/animes/hataraku-saibou-tv.webp",
      "imagem_pasta": "https://animefire.plus/img/animes/hataraku-saibou-tv/",
      "secao": "legendados",
      "pagina": 85,
      "total_episodios": 12,
      "link_video": "https://animefire.plus/video/hataraku-saibou-tv"
    },
    {
      "id": 1388,
      "nome": "Hataraku Saibou Black (TV)",
      "link": "https://animefire.plus/animes/hataraku-saibou-black-tv-todos-os-episodios",
      "texto_original": "Hataraku Saibou Black (TV)",
      "rating": 7.52,
      "classificacao_etaria": "A14",
      "imagem_original": "https://animefire.plus/img/animes/hataraku-saibou-black-tv.webp",
      "imagem_pasta": "https://animefire.plus/img/animes/hataraku-saibou-black-tv/",
      "secao": "legendados",
      "pagina": 50,
      "total_episodios": 13,
      "link_video": "https://animefire.plus/video/hataraku-saibou-black-tv"
    },
    {
      "id": 1389,
      "nome": "Hataraku Saibou: Kaze Shoukougun",
      "link": "https://animefire.plus/animes/hataraku-saibou-kaze-shoukougun-todos-os-episodios",
      "texto_original": "Hataraku Saibou: Kaze Shoukougun",
      "rating": 7.35,
      "classificacao_etaria": "A14",
      "imagem_original": "https://animefire.plus/img/animes/hataraku-saibou-kaze-shoukougun.webp",
      "imagem_pasta": "https://animefire.plus/img/animes/hataraku-saibou-kaze-shoukougun/",
      "secao": "legendados",
      "pagina": 82,
      "total_episodios": 1,
      "link_video": "https://animefire.plus/video/hataraku-saibou-kaze-shoukougun"
    },
    {
      "id": 1390,
      "nome": "Hataraku Saibou!!",
      "link": "https://animefire.plus/animes/cells-at-work-2nd-season-todos-os-episodios",
      "texto_original": "Hataraku Saibou!!",
      "rating": 7.38,
      "classificacao_etaria": "A14",
      "imagem_original": "https://animefire.plus/img/animes/cells-at-work-2nd-season.webp",
      "imagem_pasta": "https://animefire.plus/img/animes/cells-at-work-2nd-season/",
      "secao": "legendados",
      "pagina": 50,
      "total_episodios": 8,
      "link_video": "https://animefire.plus/video/cells-at-work-2nd-season"
    },
    {
      "id": 1391,
      "nome": "Hatena☆Illusion",
      "link": "https://animefire.plus/animes/hatena-illusion-todos-os-episodios",
      "texto_original": "Hatena☆Illusion",
      "rating": 5.37,
      "classificacao_etaria": "A14",
      "imagem_original": "https://animefire.plus/img/animes/hatena-illusion.webp",
      "imagem_pasta": "https://animefire.plus/img/animes/hatena-illusion/",
      "secao": "legendados",
      "pagina": 93,
      "total_episodios": 3,
      "link_video": "https://animefire.plus/video/hatena-illusion"
    },
    {
      "id": 1392,
      "nome": "Hatenkou Yuugi",
      "link": "https://animefire.plus/animes/hatenkou-yuugi-todos-os-episodios",
      "texto_original": "Hatenkou Yuugi",
      "rating": 7.23,
      "classificacao_etaria": "A14",
      "imagem_original": "https://animefire.plus/img/animes/hatenkou-yuugi.webp",
      "imagem_pasta": "https://animefire.plus/img/animes/hatenkou-yuugi/",
      "secao": "legendados",
      "pagina": 101,
      "total_episodios": 0,
      "link_video": "https://animefire.plus/video/hatenkou-yuugi"
    },
    {
      "id": 1393,
      "nome": "Hatsukoi Limited.",
      "link": "https://animefire.plus/animes/hatsukoi-limited-todos-os-episodios",
      "texto_original": "Hatsukoi Limited.",
      "rating": 7.35,
      "classificacao_etaria": "A14",
      "imagem_original": "https://animefire.plus/img/animes/hatsukoi-limited.webp",
      "imagem_pasta": "https://animefire.plus/img/animes/hatsukoi-limited/",
      "secao": "legendados",
      "pagina": 71,
      "total_episodios": 12,
      "link_video": "https://animefire.plus/video/hatsukoi-limited"
    },
    {
      "id": 1394,
      "nome": "Hatsukoi Limited.: Gentei Shoujo",
      "link": "https://animefire.plus/animes/hatsukoi-limited-gentei-shoujo-todos-os-episodios",
      "texto_original": "Hatsukoi Limited.: Gentei Shoujo",
      "rating": 6.73,
      "classificacao_etaria": "A14",
      "imagem_original": "https://animefire.plus/img/animes/hatsukoi-limited-gentei-shoujo.webp",
      "imagem_pasta": "https://animefire.plus/img/animes/hatsukoi-limited-gentei-shoujo/",
      "secao": "legendados",
      "pagina": 78,
      "total_episodios": 1,
      "link_video": "https://animefire.plus/video/hatsukoi-limited-gentei-shoujo"
    },
    {
      "id": 1395,
      "nome": "Hatsukoi Monster",
      "link": "https://animefire.plus/animes/hatsukoi-monster-todos-os-episodios",
      "texto_original": "Hatsukoi Monster",
      "rating": 5.83,
      "classificacao_etaria": "A14",
      "imagem_original": "https://animefire.plus/img/animes/hatsukoi-monster.webp",
      "imagem_pasta": "https://animefire.plus/img/animes/hatsukoi-monster/",
      "secao": "legendados",
      "pagina": 104,
      "total_episodios": 12,
      "link_video": "https://animefire.plus/video/hatsukoi-monster"
    },
    {
      "id": 1396,
      "nome": "Haunted Junction",
      "link": "https://animefire.plus/animes/haunted-junction-todos-os-episodios",
      "texto_original": "Haunted Junction",
      "rating": 6.79,
      "classificacao_etaria": "A14",
      "imagem_original": "https://animefire.plus/img/animes/haunted-junction.webp",
      "imagem_pasta": "https://animefire.plus/img/animes/haunted-junction/",
      "secao": "legendados",
      "pagina": 100,
      "total_episodios": 0,
      "link_video": "https://animefire.plus/video/haunted-junction"
    },
    {
      "id": 1397,
      "nome": "Hayate no Gotoku!",
      "link": "https://animefire.plus/animes/hayate-no-gotoku-todos-os-episodios",
      "texto_original": "Hayate no Gotoku!",
      "rating": 7.62,
      "classificacao_etaria": "A14",
      "imagem_original": "https://animefire.plus/img/animes/hayate-no-gotoku.webp",
      "imagem_pasta": "https://animefire.plus/img/animes/hayate-no-gotoku/",
      "secao": "legendados",
      "pagina": 66,
      "total_episodios": 46,
      "link_video": "https://animefire.plus/video/hayate-no-gotoku"
    },
    {
      "id": 1398,
      "nome": "Hayate no Gotoku! Can't Take My Eyes Off You",
      "link": "https://animefire.plus/animes/hayate-no-gotoku-can-t-take-my-eyes-off-you-todos-os-episodios",
      "texto_original": "Hayate no Gotoku! Can't Take My Eyes Off You",
      "rating": 7.06,
      "classificacao_etaria": "A14",
      "imagem_original": "https://animefire.plus/img/animes/hayate-no-gotoku-can-t-take-my-eyes-off-you.webp",
      "imagem_pasta": "https://animefire.plus/img/animes/hayate-no-gotoku-can-t-take-my-eyes-off-you/",
      "secao": "legendados",
      "pagina": 66,
      "total_episodios": 12,
      "link_video": "https://animefire.plus/video/hayate-no-gotoku-can-t-take-my-eyes-off-you"
    },
    {
      "id": 1399,
      "nome": "Hayate no Gotoku! Cuties",
      "link": "https://animefire.plus/animes/hayate-no-gotoku-cuties-todos-os-episodios",
      "texto_original": "Hayate no Gotoku! Cuties",
      "rating": 7.09,
      "classificacao_etaria": "A14",
      "imagem_original": "https://animefire.plus/img/animes/hayate-no-gotoku-cuties.webp",
      "imagem_pasta": "https://animefire.plus/img/animes/hayate-no-gotoku-cuties/",
      "secao": "legendados",
      "pagina": 82,
      "total_episodios": 12,
      "link_video": "https://animefire.plus/video/hayate-no-gotoku-cuties"
    },
    {
      "id": 1400,
      "nome": "Hayate no Gotoku! OVA",
      "link": "https://animefire.plus/animes/hayate-no-gotoku-ova-todos-os-episodios",
      "texto_original": "Hayate no Gotoku! OVA",
      "rating": 7.18,
      "classificacao_etaria": "A14",
      "imagem_original": "https://animefire.plus/img/animes/hayate-no-gotoku-ova.webp",
      "imagem_pasta": "https://animefire.plus/img/animes/hayate-no-gotoku-ova/",
      "secao": "legendados",
      "pagina": 85,
      "total_episodios": 3,
      "link_video": "https://animefire.plus/video/hayate-no-gotoku-ova"
    },
    {
      "id": 1401,
      "nome": "Hazure Skill \"Kinomi Master\": Skill no Mi (Tabetara Shinu) wo Mugen ni Taberareru You ni Natta Ken ni Tsuite",
      "link": "https://animefire.plus/animes/hazure-skill-kinomi-master-skill-no-mi-tabetara-shinu-wo-mugen-ni-taberareru-you-ni-natta-ken-ni-tsuite-todos-os-episodios",
      "texto_original": "Hazure Skill \"Kinomi Master\": Skill no Mi (Tabetara Shinu) wo Mugen ni Taberareru You ni Natta Ken ni Tsuite",
      "rating": 5.76,
      "classificacao_etaria": "A14",
      "imagem_original": "https://animefire.plus/img/animes/hazure-skill-kinomi-master-skill-no-mi-tabetara-shinu-wo-mugen-ni-taberareru-you-ni-natta-ken-ni-tsuite.webp",
      "imagem_pasta": "https://animefire.plus/img/animes/hazure-skill-kinomi-master-skill-no-mi-tabetara-shinu-wo-mugen-ni-taberareru-you-ni-natta-ken-ni-tsuite/",
      "secao": "legendados",
      "pagina": 7,
      "total_episodios": 12,
      "link_video": "https://animefire.plus/video/hazure-skill-kinomi-master-skill-no-mi-tabetara-shinu-wo-mugen-ni-taberareru-you-ni-natta-ken-ni-tsuite"
    },
    {
      "id": 1402,
      "nome": "Hazurewaku no \"Joutai Ijou Skill\" de Saikyou ni Natta Ore ga Subete wo Juurin suru made",
      "link": "https://animefire.plus/animes/hazurewaku-no-joutai-ijou-skill-de-saikyou-ni-natta-ore-ga-subete-wo-juurin-suru-made-todos-os-episodios",
      "texto_original": "Hazurewaku no \"Joutai Ijou Skill\" de Saikyou ni Natta Ore ga Subete wo Juurin suru made",
      "rating": 6.48,
      "classificacao_etaria": "A14",
      "imagem_original": "https://animefire.plus/img/animes/hazurewaku-no-joutai-ijou-skill-de-saikyou-ni-natta-ore-ga-subete-wo-juurin-suru-made.webp",
      "imagem_pasta": "https://animefire.plus/img/animes/hazurewaku-no-joutai-ijou-skill-de-saikyou-ni-natta-ore-ga-subete-wo-juurin-suru-made/",
      "secao": "legendados",
      "pagina": 13,
      "total_episodios": 12,
      "link_video": "https://animefire.plus/video/hazurewaku-no-joutai-ijou-skill-de-saikyou-ni-natta-ore-ga-subete-wo-juurin-suru-made"
    },
    {
      "id": 1403,
      "nome": "Healer Girl",
      "link": "https://animefire.plus/animes/healer-girl-todos-os-episodios",
      "texto_original": "Healer Girl",
      "rating": 7.3,
      "classificacao_etaria": "A14",
      "imagem_original": "https://animefire.plus/img/animes/healer-girl.webp",
      "imagem_pasta": "https://animefire.plus/img/animes/healer-girl/",
      "secao": "legendados",
      "pagina": 33,
      "total_episodios": 12,
      "link_video": "https://animefire.plus/video/healer-girl"
    }
  ],
  "pagination": {
    "current_page": 68,
    "per_page": 20,
    "total_items": 4269,
    "total_pages": 214,
    "has_next": true,
    "has_prev": true
  }
}
