{
  "message": "Animes da seção: legendados",
  "section": "legendados",
  "data": [
    {
      "id": 103,
      "nome": "Aishiteruze Baby★★",
      "link": "https://animefire.plus/animes/aishiteruze-baby-todos-os-episodios",
      "texto_original": "Aishiteruze Baby★★",
      "rating": 7.54,
      "classificacao_etaria": "A14",
      "imagem_original": "https://animefire.plus/img/animes/aishiteruze-baby.webp",
      "imagem_pasta": "https://animefire.plus/img/animes/aishiteruze-baby/",
      "secao": "legendados",
      "pagina": 146,
      "total_episodios": 26,
      "link_video": "https://animefire.plus/video/aishiteruze-baby"
    },
    {
      "id": 104,
      "nome": "Aiura",
      "link": "https://animefire.plus/animes/aiura-todos-os-episodios",
      "texto_original": "Aiura",
      "rating": 6.75,
      "classificacao_etaria": null,
      "imagem_original": "https://animefire.plus/img/animes/aiura.webp",
      "imagem_pasta": "https://animefire.plus/img/animes/aiura/",
      "secao": "legendados",
      "pagina": 109,
      "total_episodios": 12,
      "link_video": "https://animefire.plus/video/aiura"
    },
    {
      "id": 105,
      "nome": "Ajin (Dublado)",
      "link": "https://animefire.plus/animes/ajin-dublado-todos-os-episodios",
      "texto_original": "Ajin (Dublado)",
      "rating": 7.6,
      "classificacao_etaria": "A16",
      "imagem_original": "https://animefire.plus/img/animes/ajin.webp",
      "imagem_pasta": "https://animefire.plus/img/animes/ajin/",
      "secao": "dublados,legendados",
      "pagina": 26,
      "total_episodios": 13,
      "link_video": "https://animefire.plus/video/ajin-dublado"
    },
    {
      "id": 106,
      "nome": "Ajin 2nd Season",
      "link": "https://animefire.plus/animes/ajin-2nd-season-todos-os-episodios",
      "texto_original": "Ajin 2nd Season",
      "rating": 7.82,
      "classificacao_etaria": "A16",
      "imagem_original": "https://animefire.plus/img/animes/ajin-2nd-season.webp",
      "imagem_pasta": "https://animefire.plus/img/animes/ajin-2nd-season/",
      "secao": "legendados",
      "pagina": 136,
      "total_episodios": 13,
      "link_video": "https://animefire.plus/video/ajin-2nd-season"
    },
    {
      "id": 107,
      "nome": "Akagami no Shirayuki-hime",
      "link": "https://animefire.plus/animes/akagami-no-shirayuki-hime-todos-os-episodios",
      "texto_original": "Akagami no Shirayuki-hime",
      "rating": 7.9,
      "classificacao_etaria": "A14",
      "imagem_original": "https://animefire.plus/img/animes/akagami-no-shirayuki-hime.webp",
      "imagem_pasta": "https://animefire.plus/img/animes/akagami-no-shirayuki-hime/",
      "secao": "legendados",
      "pagina": 178,
      "total_episodios": 12,
      "link_video": "https://animefire.plus/video/akagami-no-shirayuki-hime"
    },
    {
      "id": 108,
      "nome": "Akagami no Shirayuki-hime 2nd Season",
      "link": "https://animefire.plus/animes/akagami-no-shirayuki-hime-2nd-season-todos-os-episodios",
      "texto_original": "Akagami no Shirayuki-hime 2nd Season",
      "rating": 8.11,
      "classificacao_etaria": "A14",
      "imagem_original": "https://animefire.plus/img/animes/akagami-no-shirayuki-hime-2nd-season.webp",
      "imagem_pasta": "https://animefire.plus/img/animes/akagami-no-shirayuki-hime-2nd-season/",
      "secao": "legendados",
      "pagina": 158,
      "total_episodios": 0,
      "link_video": "https://animefire.plus/video/akagami-no-shirayuki-hime-2nd-season"
    },
    {
      "id": 109,
      "nome": "Akagami no Shirayuki-hime: Nandemonai Takaramono, Kono Page",
      "link": "https://animefire.plus/animes/akagami-no-shirayuki-hime-nandemonai-takaramono-kono-page-todos-os-episodios",
      "texto_original": "Akagami no Shirayuki-hime: Nandemonai Takaramono, Kono Page",
      "rating": 7.74,
      "classificacao_etaria": "A14",
      "imagem_original": "https://animefire.plus/img/animes/akagami-no-shirayuki-hime-nandemonai-takaramono-kono-page.webp",
      "imagem_pasta": "https://animefire.plus/img/animes/akagami-no-shirayuki-hime-nandemonai-takaramono-kono-page/",
      "secao": "legendados",
      "pagina": 78,
      "total_episodios": 1,
      "link_video": "https://animefire.plus/video/akagami-no-shirayuki-hime-nandemonai-takaramono-kono-page"
    },
    {
      "id": 110,
      "nome": "Akage no Anne",
      "link": "https://animefire.plus/animes/akage-no-anne-todos-os-episodios",
      "texto_original": "Akage no Anne",
      "rating": 7.7,
      "classificacao_etaria": null,
      "imagem_original": "https://animefire.plus/img/animes/akage-no-anne.webp",
      "imagem_pasta": "https://animefire.plus/img/animes/akage-no-anne/",
      "secao": "legendados",
      "pagina": 55,
      "total_episodios": 50,
      "link_video": "https://animefire.plus/video/akage-no-anne"
    },
    {
      "id": 111,
      "nome": "Akahori Gedou Hour Rabuge",
      "link": "https://animefire.plus/animes/akahori-gedou-hour-rabuge-todos-os-episodios",
      "texto_original": "Akahori Gedou Hour Rabuge",
      "rating": 6.25,
      "classificacao_etaria": "A14",
      "imagem_original": "https://animefire.plus/img/animes/akahori-gedou-hour-rabuge.webp",
      "imagem_pasta": "https://animefire.plus/img/animes/akahori-gedou-hour-rabuge/",
      "secao": "legendados",
      "pagina": 118,
      "total_episodios": 13,
      "link_video": "https://animefire.plus/video/akahori-gedou-hour-rabuge"
    },
    {
      "id": 112,
      "nome": "Akai Hayate",
      "link": "https://animefire.plus/animes/akai-hayate-todos-os-episodios",
      "texto_original": "Akai Hayate",
      "rating": 5.48,
      "classificacao_etaria": "A18",
      "imagem_original": "https://animefire.plus/img/animes/akai-hayate.webp",
      "imagem_pasta": "https://animefire.plus/img/animes/akai-hayate/",
      "secao": "legendados",
      "pagina": 76,
      "total_episodios": 4,
      "link_video": "https://animefire.plus/video/akai-hayate"
    },
    {
      "id": 114,
      "nome": "Akame ga Kill! (Dublado)",
      "link": "https://animefire.plus/animes/akame-ga-kill-dublado-todos-os-episodios",
      "texto_original": "Akame ga Kill! (Dublado)",
      "rating": 7.66,
      "classificacao_etaria": "A16",
      "imagem_original": "https://animefire.plus/img/animes/akame-ga-kill.webp",
      "imagem_pasta": "https://animefire.plus/img/animes/akame-ga-kill/",
      "secao": "dublados,legendados",
      "pagina": 25,
      "total_episodios": 24,
      "link_video": "https://animefire.plus/video/akame-ga-kill-dublado"
    },
    {
      "id": 115,
      "nome": "Akame ga Kill!: AkaKill! Gekijou",
      "link": "https://animefire.plus/animes/akame-ga-kill-akakill-gekijou-todos-os-episodios",
      "texto_original": "Akame ga Kill!: AkaKill! Gekijou",
      "rating": 6.62,
      "classificacao_etaria": "A14",
      "imagem_original": "https://animefire.plus/img/animes/akame-ga-kill-akakill-gekijou.webp",
      "imagem_pasta": "https://animefire.plus/img/animes/akame-ga-kill-akakill-gekijou/",
      "secao": "legendados",
      "pagina": 89,
      "total_episodios": 24,
      "link_video": "https://animefire.plus/video/akame-ga-kill-akakill-gekijou"
    },
    {
      "id": 116,
      "nome": "Akaneiro ni Somaru Saka",
      "link": "https://animefire.plus/animes/akaneiro-ni-somaru-saka-todos-os-episodios",
      "texto_original": "Akaneiro ni Somaru Saka",
      "rating": 6.57,
      "classificacao_etaria": "A18",
      "imagem_original": "https://animefire.plus/img/animes/akaneiro-ni-somaru-saka.webp",
      "imagem_pasta": "https://animefire.plus/img/animes/akaneiro-ni-somaru-saka/",
      "secao": "legendados",
      "pagina": 123,
      "total_episodios": 0,
      "link_video": "https://animefire.plus/video/akaneiro-ni-somaru-saka"
    },
    {
      "id": 117,
      "nome": "Akanesasu Shoujo",
      "link": "https://animefire.plus/animes/akanesasu-shoujo-todos-os-episodios",
      "texto_original": "Akanesasu Shoujo",
      "rating": 6.57,
      "classificacao_etaria": "A14",
      "imagem_original": "https://animefire.plus/img/animes/akanesasu-shoujo.webp",
      "imagem_pasta": "https://animefire.plus/img/animes/akanesasu-shoujo/",
      "secao": "legendados",
      "pagina": 153,
      "total_episodios": 12,
      "link_video": "https://animefire.plus/video/akanesasu-shoujo"
    },
    {
      "id": 118,
      "nome": "Akatsuki No Yona",
      "link": "https://animefire.plus/animes/akatsuki-no-yona-todos-os-episodios",
      "texto_original": "Akatsuki No Yona",
      "rating": 8.15,
      "classificacao_etaria": "A14",
      "imagem_original": "https://animefire.plus/img/animes/akatsuki-no-yona.webp",
      "imagem_pasta": "https://animefire.plus/img/animes/akatsuki-no-yona/",
      "secao": "legendados",
      "pagina": 149,
      "total_episodios": 0,
      "link_video": "https://animefire.plus/video/akatsuki-no-yona"
    },
    {
      "id": 119,
      "nome": "Akatsuki no Yona OVA",
      "link": "https://animefire.plus/animes/akatsuki-no-yona-ova-todos-os-episodios",
      "texto_original": "Akatsuki no Yona OVA",
      "rating": 8.16,
      "classificacao_etaria": "A14",
      "imagem_original": "https://animefire.plus/img/animes/akatsuki-no-yona-ova.webp",
      "imagem_pasta": "https://animefire.plus/img/animes/akatsuki-no-yona-ova/",
      "secao": "legendados",
      "pagina": 152,
      "total_episodios": 3,
      "link_video": "https://animefire.plus/video/akatsuki-no-yona-ova"
    },
    {
      "id": 120,
      "nome": "AKB0048",
      "link": "https://animefire.plus/animes/akb0048-todos-os-episodios",
      "texto_original": "AKB0048",
      "rating": 7.48,
      "classificacao_etaria": "A14",
      "imagem_original": "https://animefire.plus/img/animes/akb0048.webp",
      "imagem_pasta": "https://animefire.plus/img/animes/akb0048/",
      "secao": "legendados",
      "pagina": 128,
      "total_episodios": 13,
      "link_video": "https://animefire.plus/video/akb0048"
    },
    {
      "id": 121,
      "nome": "AKB0048: Next Stage",
      "link": "https://animefire.plus/animes/akb0048-next-stage-todos-os-episodios",
      "texto_original": "AKB0048: Next Stage",
      "rating": 7.75,
      "classificacao_etaria": "A14",
      "imagem_original": "https://animefire.plus/img/animes/akb0048-next-stage.webp",
      "imagem_pasta": "https://animefire.plus/img/animes/akb0048-next-stage/",
      "secao": "legendados",
      "pagina": 159,
      "total_episodios": 13,
      "link_video": "https://animefire.plus/video/akb0048-next-stage"
    },
    {
      "id": 122,
      "nome": "Akebi-chan no Sailor-fuku",
      "link": "https://animefire.plus/animes/akebi-chan-no-sailor-fuku-todos-os-episodios",
      "texto_original": "Akebi-chan no Sailor-fuku",
      "rating": 7.65,
      "classificacao_etaria": "A14",
      "imagem_original": "https://animefire.plus/img/animes/akebi-chan-no-sailor-fuku.webp",
      "imagem_pasta": "https://animefire.plus/img/animes/akebi-chan-no-sailor-fuku/",
      "secao": "legendados",
      "pagina": 36,
      "total_episodios": 12,
      "link_video": "https://animefire.plus/video/akebi-chan-no-sailor-fuku"
    },
    {
      "id": 123,
      "nome": "Aki-Sora",
      "link": "https://animefire.plus/animes/aki-sora-todos-os-episodios",
      "texto_original": "Aki-Sora",
      "rating": 6.2,
      "classificacao_etaria": "A18",
      "imagem_original": "https://animefire.plus/img/animes/aki-sora.webp",
      "imagem_pasta": "https://animefire.plus/img/animes/aki-sora/",
      "secao": "legendados",
      "pagina": 128,
      "total_episodios": 3,
      "link_video": "https://animefire.plus/video/aki-sora"
    }
  ],
  "pagination": {
    "current_page": 6,
    "per_page": 20,
    "total_items": 4269,
    "total_pages": 214,
    "has_next": true,
    "has_prev": true
  }
}
