{
  "message": "Animes da seção: legendados",
  "section": "legendados",
  "data": [
    {
      "id": 264,
      "nome": "Asobi Asobase Specials",
      "link": "https://animefire.plus/animes/asobi-asobase-specials-todos-os-episodios",
      "texto_original": "Asobi Asobase Specials",
      "rating": 7.59,
      "classificacao_etaria": "A14",
      "imagem_original": "https://animefire.plus/img/animes/asobi-asobase-specials.webp",
      "imagem_pasta": "https://animefire.plus/img/animes/asobi-asobase-specials/",
      "secao": "legendados",
      "pagina": 85,
      "total_episodios": 2,
      "link_video": "https://animefire.plus/video/asobi-asobase-specials"
    },
    {
      "id": 265,
      "nome": "Asobi ni Iku yo!",
      "link": "https://animefire.plus/animes/asobi-ni-iku-yo-todos-os-episodios",
      "texto_original": "Asobi ni Iku yo!",
      "rating": 6.77,
      "classificacao_etaria": "A18",
      "imagem_original": "https://animefire.plus/img/animes/asobi-ni-iku-yo.webp",
      "imagem_pasta": "https://animefire.plus/img/animes/asobi-ni-iku-yo/",
      "secao": "legendados",
      "pagina": 122,
      "total_episodios": 12,
      "link_video": "https://animefire.plus/video/asobi-ni-iku-yo"
    },
    {
      "id": 266,
      "nome": "Assassins Pride",
      "link": "https://animefire.plus/animes/assassins-pride-todos-os-episodios",
      "texto_original": "Assassins Pride",
      "rating": 5.94,
      "classificacao_etaria": "A14",
      "imagem_original": "https://animefire.plus/img/animes/assassins-pride.webp",
      "imagem_pasta": "https://animefire.plus/img/animes/assassins-pride/",
      "secao": "legendados",
      "pagina": 110,
      "total_episodios": 1,
      "link_video": "https://animefire.plus/video/assassins-pride"
    },
    {
      "id": 267,
      "nome": "Assault Lily: Bouquet",
      "link": "https://animefire.plus/animes/assault-lily-bouquet-todos-os-episodios",
      "texto_original": "Assault Lily: Bouquet",
      "rating": null,
      "classificacao_etaria": "A14",
      "imagem_original": "https://animefire.plus/img/animes/assault-lily-bouquet.webp",
      "imagem_pasta": "https://animefire.plus/img/animes/assault-lily-bouquet/",
      "secao": "legendados",
      "pagina": 52,
      "total_episodios": 12,
      "link_video": "https://animefire.plus/video/assault-lily-bouquet"
    },
    {
      "id": 268,
      "nome": "Astarotte no Omocha!",
      "link": "https://animefire.plus/animes/astarotte-no-omocha-todos-os-episodios",
      "texto_original": "Astarotte no Omocha!",
      "rating": 6.69,
      "classificacao_etaria": "A14",
      "imagem_original": "https://animefire.plus/img/animes/astarotte-no-omocha.webp",
      "imagem_pasta": "https://animefire.plus/img/animes/astarotte-no-omocha/",
      "secao": "legendados",
      "pagina": 93,
      "total_episodios": 12,
      "link_video": "https://animefire.plus/video/astarotte-no-omocha"
    },
    {
      "id": 269,
      "nome": "Astro Note",
      "link": "https://animefire.plus/animes/astro-note-todos-os-episodios",
      "texto_original": "Astro Note",
      "rating": 6.55,
      "classificacao_etaria": "A14",
      "imagem_original": "https://animefire.plus/img/animes/astro-note.webp",
      "imagem_pasta": "https://animefire.plus/img/animes/astro-note/",
      "secao": "legendados",
      "pagina": 14,
      "total_episodios": 12,
      "link_video": "https://animefire.plus/video/astro-note"
    },
    {
      "id": 270,
      "nome": "Asu no Yoichi!",
      "link": "https://animefire.plus/animes/asu-no-yoichi-todos-os-episodios",
      "texto_original": "Asu no Yoichi!",
      "rating": 6.91,
      "classificacao_etaria": "A14",
      "imagem_original": "https://animefire.plus/img/animes/asu-no-yoichi.webp",
      "imagem_pasta": "https://animefire.plus/img/animes/asu-no-yoichi/",
      "secao": "legendados",
      "pagina": 150,
      "total_episodios": 12,
      "link_video": "https://animefire.plus/video/asu-no-yoichi"
    },
    {
      "id": 271,
      "nome": "Asura Cryin'",
      "link": "https://animefire.plus/animes/asura-cryin-todos-os-episodios",
      "texto_original": "Asura Cryin'",
      "rating": 7.02,
      "classificacao_etaria": "A14",
      "imagem_original": "https://animefire.plus/img/animes/asura-cryin.webp",
      "imagem_pasta": "https://animefire.plus/img/animes/asura-cryin/",
      "secao": "legendados",
      "pagina": 172,
      "total_episodios": 13,
      "link_video": "https://animefire.plus/video/asura-cryin"
    },
    {
      "id": 272,
      "nome": "Atarashii Joushi wa Do Tennen",
      "link": "https://animefire.plus/animes/atarashii-joushi-wa-do-tennen-todos-os-episodios",
      "texto_original": "Atarashii Joushi wa Do Tennen",
      "rating": 7.92,
      "classificacao_etaria": "A14",
      "imagem_original": "https://animefire.plus/img/animes/atarashii-joushi-wa-do-tennen.webp",
      "imagem_pasta": "https://animefire.plus/img/animes/atarashii-joushi-wa-do-tennen/",
      "secao": "legendados",
      "pagina": 20,
      "total_episodios": 12,
      "link_video": "https://animefire.plus/video/atarashii-joushi-wa-do-tennen"
    },
    {
      "id": 273,
      "nome": "Atasha Kawajiri Kodama Da yo: Dangerous Lifehacker no Tadareta Seikatsu",
      "link": "https://animefire.plus/animes/atasha-kawajiri-kodama-da-yo-dangerous-lifehacker-no-tadareta-seikatsu-todos-os-episodios",
      "texto_original": "Atasha Kawajiri Kodama Da yo: Dangerous Lifehacker no Tadareta Seikatsu",
      "rating": 5.72,
      "classificacao_etaria": "A14",
      "imagem_original": "https://animefire.plus/img/animes/atasha-kawajiri-kodama-da-yo-dangerous-lifehacker-no-tadareta-seikatsu.webp",
      "imagem_pasta": "https://animefire.plus/img/animes/atasha-kawajiri-kodama-da-yo-dangerous-lifehacker-no-tadareta-seikatsu/",
      "secao": "legendados,lancamentos",
      "pagina": 35,
      "total_episodios": 11,
      "link_video": "https://animefire.plus/video/atasha-kawajiri-kodama-da-yo-dangerous-lifehacker-no-tadareta-seikatsu"
    },
    {
      "id": 274,
      "nome": "Atom: The Beginning",
      "link": "https://animefire.plus/animes/atom-the-beginning-todos-os-episodios",
      "texto_original": "Atom: The Beginning",
      "rating": 6.91,
      "classificacao_etaria": "A14",
      "imagem_original": "https://animefire.plus/img/animes/atom-the-beginning.webp",
      "imagem_pasta": "https://animefire.plus/img/animes/atom-the-beginning/",
      "secao": "legendados",
      "pagina": 163,
      "total_episodios": 12,
      "link_video": "https://animefire.plus/video/atom-the-beginning"
    },
    {
      "id": 275,
      "nome": "Atri: My Dear Moments",
      "link": "https://animefire.plus/animes/atri-my-dear-moments-todos-os-episodios",
      "texto_original": "Atri: My Dear Moments",
      "rating": 7.19,
      "classificacao_etaria": "A14",
      "imagem_original": "https://animefire.plus/img/animes/atri-my-dear-moments.webp",
      "imagem_pasta": "https://animefire.plus/img/animes/atri-my-dear-moments/",
      "secao": "legendados",
      "pagina": 13,
      "total_episodios": 13,
      "link_video": "https://animefire.plus/video/atri-my-dear-moments"
    },
    {
      "id": 279,
      "nome": "Avatar: A Lenda de Korra Livro 4",
      "link": "https://animefire.plus/animes/avatar-a-lenda-de-korra-livro-4-todos-os-episodios",
      "texto_original": "Avatar: A Lenda de Korra Livro 4",
      "rating": 8.05,
      "classificacao_etaria": null,
      "imagem_original": "https://animefire.plus/img/animes/avatar-a-lenda-de-korra-livro-4.webp",
      "imagem_pasta": "https://animefire.plus/img/animes/avatar-a-lenda-de-korra-livro-4/",
      "secao": "legendados",
      "pagina": 114,
      "total_episodios": 0,
      "link_video": "https://animefire.plus/video/avatar-a-lenda-de-korra-livro-4"
    },
    {
      "id": 280,
      "nome": "Avenger",
      "link": "https://animefire.plus/animes/avenger-todos-os-episodios",
      "texto_original": "Avenger",
      "rating": 5.96,
      "classificacao_etaria": "A16",
      "imagem_original": "https://animefire.plus/img/animes/avenger.webp",
      "imagem_pasta": "https://animefire.plus/img/animes/avenger/",
      "secao": "legendados",
      "pagina": 179,
      "total_episodios": 13,
      "link_video": "https://animefire.plus/video/avenger"
    },
    {
      "id": 281,
      "nome": "Ayaka",
      "link": "https://animefire.plus/animes/ayaka-todos-os-episodios",
      "texto_original": "Ayaka",
      "rating": 6.43,
      "classificacao_etaria": "A14",
      "imagem_original": "https://animefire.plus/img/animes/ayaka.jpg",
      "imagem_pasta": "https://animefire.plus/img/animes/ayaka/",
      "secao": "legendados",
      "pagina": 23,
      "total_episodios": 12,
      "link_video": "https://animefire.plus/video/ayaka"
    },
    {
      "id": 282,
      "nome": "Ayakashi",
      "link": "https://animefire.plus/animes/ayakashi-todos-os-episodios",
      "texto_original": "Ayakashi",
      "rating": 6.43,
      "classificacao_etaria": "A16",
      "imagem_original": "https://animefire.plus/img/animes/ayakashi.webp",
      "imagem_pasta": "https://animefire.plus/img/animes/ayakashi/",
      "secao": "legendados",
      "pagina": 145,
      "total_episodios": 12,
      "link_video": "https://animefire.plus/video/ayakashi"
    },
    {
      "id": 283,
      "nome": "Ayakashi Triangle",
      "link": "https://animefire.plus/animes/ayakashi-triangle-todos-os-episodios",
      "texto_original": "Ayakashi Triangle",
      "rating": 6.45,
      "classificacao_etaria": "A18",
      "imagem_original": "https://animefire.plus/img/animes/ayakashi-triangle.webp",
      "imagem_pasta": "https://animefire.plus/img/animes/ayakashi-triangle/",
      "secao": "legendados",
      "pagina": 26,
      "total_episodios": 12,
      "link_video": "https://animefire.plus/video/ayakashi-triangle"
    },
    {
      "id": 284,
      "nome": "Ayakashi: Japanese Classic Horror",
      "link": "https://animefire.plus/animes/ayakashi-japanese-classic-horror-todos-os-episodios",
      "texto_original": "Ayakashi: Japanese Classic Horror",
      "rating": 7.52,
      "classificacao_etaria": "A16",
      "imagem_original": "https://animefire.plus/img/animes/ayakashi-japanese-classic-horror.webp",
      "imagem_pasta": "https://animefire.plus/img/animes/ayakashi-japanese-classic-horror/",
      "secao": "legendados",
      "pagina": 154,
      "total_episodios": 11,
      "link_video": "https://animefire.plus/video/ayakashi-japanese-classic-horror"
    },
    {
      "id": 285,
      "nome": "Ayashi no Ceres",
      "link": "https://animefire.plus/animes/ayashi-no-ceres-todos-os-episodios",
      "texto_original": "Ayashi no Ceres",
      "rating": 7.32,
      "classificacao_etaria": "A16",
      "imagem_original": "https://animefire.plus/img/animes/ayashi-no-ceres.webp",
      "imagem_pasta": "https://animefire.plus/img/animes/ayashi-no-ceres/",
      "secao": "legendados",
      "pagina": 144,
      "total_episodios": 24,
      "link_video": "https://animefire.plus/video/ayashi-no-ceres"
    },
    {
      "id": 286,
      "nome": "Azumanga Daioh",
      "link": "https://animefire.plus/animes/azumanga-daioh-todos-os-episodios",
      "texto_original": "Azumanga Daioh",
      "rating": 8.03,
      "classificacao_etaria": "A14",
      "imagem_original": "https://animefire.plus/img/animes/azumanga-daioh.webp",
      "imagem_pasta": "https://animefire.plus/img/animes/azumanga-daioh/",
      "secao": "legendados",
      "pagina": 152,
      "total_episodios": 26,
      "link_video": "https://animefire.plus/video/azumanga-daioh"
    }
  ],
  "pagination": {
    "current_page": 14,
    "per_page": 20,
    "total_items": 4269,
    "total_pages": 214,
    "has_next": true,
    "has_prev": true
  }
}
