{
  "message": "Animes da seção: legendados",
  "section": "legendados",
  "data": [
    {
      "id": 412,
      "nome": "Black Lagoon",
      "link": "https://animefire.plus/animes/black-lagoon-todos-os-episodios",
      "texto_original": "Black Lagoon",
      "rating": 8.11,
      "classificacao_etaria": "A16",
      "imagem_original": "https://animefire.plus/img/animes/black-lagoon.webp",
      "imagem_pasta": "https://animefire.plus/img/animes/black-lagoon/",
      "secao": "legendados",
      "pagina": 112,
      "total_episodios": 12,
      "link_video": "https://animefire.plus/video/black-lagoon"
    },
    {
      "id": 413,
      "nome": "Black Lagoon Omake",
      "link": "https://animefire.plus/animes/black-lagoon-omake-todos-os-episodios",
      "texto_original": "Black Lagoon Omake",
      "rating": 6.81,
      "classificacao_etaria": "A14",
      "imagem_original": "https://animefire.plus/img/animes/black-lagoon-omake.webp",
      "imagem_pasta": "https://animefire.plus/img/animes/black-lagoon-omake/",
      "secao": "legendados",
      "pagina": 43,
      "total_episodios": 5,
      "link_video": "https://animefire.plus/video/black-lagoon-omake"
    },
    {
      "id": 414,
      "nome": "Black Lagoon: The Second Barrage",
      "link": "https://animefire.plus/animes/black-lagoon-the-second-barrage-todos-os-episodios",
      "texto_original": "Black Lagoon: The Second Barrage",
      "rating": 8.25,
      "classificacao_etaria": "A16",
      "imagem_original": "https://animefire.plus/img/animes/black-lagoon-the-second-barrage.webp",
      "imagem_pasta": "https://animefire.plus/img/animes/black-lagoon-the-second-barrage/",
      "secao": "legendados",
      "pagina": 162,
      "total_episodios": 12,
      "link_video": "https://animefire.plus/video/black-lagoon-the-second-barrage"
    },
    {
      "id": 415,
      "nome": "Black Magic M-66",
      "link": "https://animefire.plus/animes/black-magic-m-66-todos-os-episodios",
      "texto_original": "Black Magic M-66",
      "rating": 6.39,
      "classificacao_etaria": "A16",
      "imagem_original": "https://animefire.plus/img/animes/black-magic-m-66.webp",
      "imagem_pasta": "https://animefire.plus/img/animes/black-magic-m-66/",
      "secao": "legendados",
      "pagina": 56,
      "total_episodios": 1,
      "link_video": "https://animefire.plus/video/black-magic-m-66"
    },
    {
      "id": 416,
      "nome": "Black★Rock Shooter (TV)",
      "link": "https://animefire.plus/animes/black-rock-shooter-tv-todos-os-episodios",
      "texto_original": "Black★Rock Shooter (TV)",
      "rating": 6.95,
      "classificacao_etaria": "A14",
      "imagem_original": "https://animefire.plus/img/animes/black-rock-shooter-tv.webp",
      "imagem_pasta": "https://animefire.plus/img/animes/black-rock-shooter-tv/",
      "secao": "legendados",
      "pagina": 143,
      "total_episodios": 8,
      "link_video": "https://animefire.plus/video/black-rock-shooter-tv"
    },
    {
      "id": 417,
      "nome": "Blade",
      "link": "https://animefire.plus/animes/blade-todos-os-episodios",
      "texto_original": "Blade",
      "rating": 6.3,
      "classificacao_etaria": "A16",
      "imagem_original": "https://animefire.plus/img/animes/blade.webp",
      "imagem_pasta": "https://animefire.plus/img/animes/blade/",
      "secao": "legendados",
      "pagina": 135,
      "total_episodios": 12,
      "link_video": "https://animefire.plus/video/blade"
    },
    {
      "id": 418,
      "nome": "Blade & Soul",
      "link": "https://animefire.plus/animes/blade-soul-todos-os-episodios",
      "texto_original": "Blade & Soul",
      "rating": 6.17,
      "classificacao_etaria": "A16",
      "imagem_original": "https://animefire.plus/img/animes/blade-soul.webp",
      "imagem_pasta": "https://animefire.plus/img/animes/blade-soul/",
      "secao": "legendados",
      "pagina": 112,
      "total_episodios": 13,
      "link_video": "https://animefire.plus/video/blade-soul"
    },
    {
      "id": 419,
      "nome": "Blade of the Immortal",
      "link": "https://animefire.plus/animes/blade-of-the-immortal-todos-os-episodios",
      "texto_original": "Blade of the Immortal",
      "rating": 6.87,
      "classificacao_etaria": "A16",
      "imagem_original": "https://animefire.plus/img/animes/blade-of-the-immortal.webp",
      "imagem_pasta": "https://animefire.plus/img/animes/blade-of-the-immortal/",
      "secao": "legendados",
      "pagina": 121,
      "total_episodios": 13,
      "link_video": "https://animefire.plus/video/blade-of-the-immortal"
    },
    {
      "id": 420,
      "nome": "Blade Runner: Black Lotus",
      "link": "https://animefire.plus/animes/blade-runner-black-lotus-todos-os-episodios",
      "texto_original": "Blade Runner: Black Lotus",
      "rating": 6.28,
      "classificacao_etaria": "A16",
      "imagem_original": "https://animefire.plus/img/animes/blade-runner-black-lotus.webp",
      "imagem_pasta": "https://animefire.plus/img/animes/blade-runner-black-lotus/",
      "secao": "legendados",
      "pagina": 37,
      "total_episodios": 13,
      "link_video": "https://animefire.plus/video/blade-runner-black-lotus"
    },
    {
      "id": 421,
      "nome": "Blassreiter",
      "link": "https://animefire.plus/animes/blassreiter-todos-os-episodios",
      "texto_original": "Blassreiter",
      "rating": 7,
      "classificacao_etaria": "A16",
      "imagem_original": "https://animefire.plus/img/animes/blassreiter.webp",
      "imagem_pasta": "https://animefire.plus/img/animes/blassreiter/",
      "secao": "legendados",
      "pagina": 114,
      "total_episodios": 24,
      "link_video": "https://animefire.plus/video/blassreiter"
    },
    {
      "id": 422,
      "nome": "BlazBlue: Alter Memory",
      "link": "https://animefire.plus/animes/blazblue-alter-memory-todos-os-episodios",
      "texto_original": "BlazBlue: Alter Memory",
      "rating": 6.21,
      "classificacao_etaria": "A16",
      "imagem_original": "https://animefire.plus/img/animes/blazblue-alter-memory.webp",
      "imagem_pasta": "https://animefire.plus/img/animes/blazblue-alter-memory/",
      "secao": "legendados",
      "pagina": 122,
      "total_episodios": 4,
      "link_video": "https://animefire.plus/video/blazblue-alter-memory"
    },
    {
      "id": 423,
      "nome": "Bleach (Dublado)",
      "link": "https://animefire.plus/animes/bleach-dublado-todos-os-episodios",
      "texto_original": "Bleach (Dublado)",
      "rating": 7.81,
      "classificacao_etaria": "A14",
      "imagem_original": "https://animefire.plus/img/animes/bleach.webp",
      "imagem_pasta": "https://animefire.plus/img/animes/bleach/",
      "secao": "dublados,legendados",
      "pagina": 21,
      "total_episodios": 366,
      "link_video": "https://animefire.plus/video/bleach-dublado"
    },
    {
      "id": 424,
      "nome": "Bleach Colorful!: Gotei Juusan Yatai Daisakusen!",
      "link": "https://animefire.plus/animes/bleach-colorful-gotei-juusan-yatai-daisakusen-todos-os-episodios",
      "texto_original": "Bleach Colorful!: Gotei Juusan Yatai Daisakusen!",
      "rating": 6.5,
      "classificacao_etaria": "A14",
      "imagem_original": "https://animefire.plus/img/animes/bleach-colorful-gotei-juusan-yatai-daisakusen.webp",
      "imagem_pasta": "https://animefire.plus/img/animes/bleach-colorful-gotei-juusan-yatai-daisakusen/",
      "secao": "legendados",
      "pagina": 86,
      "total_episodios": 1,
      "link_video": "https://animefire.plus/video/bleach-colorful-gotei-juusan-yatai-daisakusen"
    },
    {
      "id": 425,
      "nome": "Bleach: Sennen Kessen-hen - Ketsubetsu-tan",
      "link": "https://animefire.plus/animes/bleach-sennen-kessen-hen-ketsubetsu-tan-todos-os-episodios",
      "texto_original": "Bleach: Sennen Kessen-hen - Ketsubetsu-tan",
      "rating": 8.7,
      "classificacao_etaria": "A16",
      "imagem_original": "https://animefire.plus/img/animes/bleach-sennen-kessen-hen-ketsubetsu-tan.jpg",
      "imagem_pasta": "https://animefire.plus/img/animes/bleach-sennen-kessen-hen-ketsubetsu-tan/",
      "secao": "legendados",
      "pagina": 23,
      "total_episodios": 7,
      "link_video": "https://animefire.plus/video/bleach-sennen-kessen-hen-ketsubetsu-tan"
    },
    {
      "id": 427,
      "nome": "Bleach: Sennen Kessen-hen - Soukoku-tan (Dublado)",
      "link": "https://animefire.plus/animes/bleach-sennen-kessen-hen---soukoku-tan-dublado-todos-os-episodios",
      "texto_original": "Bleach: Sennen Kessen-hen - Soukoku-tan (Dublado)",
      "rating": 8.67,
      "classificacao_etaria": "A16",
      "imagem_original": "https://animefire.plus/img/animes/bleach-sennen-kessen-hen---soukoku-tan.webp",
      "imagem_pasta": "https://animefire.plus/img/animes/bleach-sennen-kessen-hen---soukoku-tan/",
      "secao": "dublados,legendados",
      "pagina": 2,
      "total_episodios": 14,
      "link_video": "https://animefire.plus/video/bleach-sennen-kessen-hen---soukoku-tan-dublado"
    },
    {
      "id": 428,
      "nome": "Bleach: Sennen Kessen-hen (Dublado)",
      "link": "https://animefire.plus/animes/bleach-sennen-kessen-hen-dublado-todos-os-episodios",
      "texto_original": "Bleach: Sennen Kessen-hen (Dublado)",
      "rating": 8.99,
      "classificacao_etaria": "A16",
      "imagem_original": "https://animefire.plus/img/animes/bleach-sennen-kessen-hen.webp",
      "imagem_pasta": "https://animefire.plus/img/animes/bleach-sennen-kessen-hen/",
      "secao": "dublados,legendados",
      "pagina": 9,
      "total_episodios": 13,
      "link_video": "https://animefire.plus/video/bleach-sennen-kessen-hen-dublado"
    },
    {
      "id": 429,
      "nome": "Blend S",
      "link": "https://animefire.plus/animes/blend-s-todos-os-episodios",
      "texto_original": "Blend S",
      "rating": 7.52,
      "classificacao_etaria": "A14",
      "imagem_original": "https://animefire.plus/img/animes/blend-s.webp",
      "imagem_pasta": "https://animefire.plus/img/animes/blend-s/",
      "secao": "legendados",
      "pagina": 121,
      "total_episodios": 12,
      "link_video": "https://animefire.plus/video/blend-s"
    },
    {
      "id": 430,
      "nome": "Blood Lad",
      "link": "https://animefire.plus/animes/blood-lad-todos-os-episodios",
      "texto_original": "Blood Lad",
      "rating": 7.47,
      "classificacao_etaria": "A14",
      "imagem_original": "https://animefire.plus/img/animes/blood-lad.webp",
      "imagem_pasta": "https://animefire.plus/img/animes/blood-lad/",
      "secao": "legendados",
      "pagina": 124,
      "total_episodios": 0,
      "link_video": "https://animefire.plus/video/blood-lad"
    },
    {
      "id": 431,
      "nome": "Blood-C",
      "link": "https://animefire.plus/animes/blood-c-todos-os-episodios",
      "texto_original": "Blood-C",
      "rating": 6.67,
      "classificacao_etaria": "A16",
      "imagem_original": "https://animefire.plus/img/animes/blood-c.webp",
      "imagem_pasta": "https://animefire.plus/img/animes/blood-c/",
      "secao": "legendados",
      "pagina": 158,
      "total_episodios": 12,
      "link_video": "https://animefire.plus/video/blood-c"
    },
    {
      "id": 432,
      "nome": "Blood+ (Dublado)",
      "link": "https://animefire.plus/animes/blood-dublado-todos-os-episodios",
      "texto_original": "Blood+ (Dublado)",
      "rating": 7.69,
      "classificacao_etaria": "A16",
      "imagem_original": "https://animefire.plus/img/animes/blood.webp",
      "imagem_pasta": "https://animefire.plus/img/animes/blood/",
      "secao": "dublados,legendados",
      "pagina": 22,
      "total_episodios": 50,
      "link_video": "https://animefire.plus/video/blood-dublado"
    }
  ],
  "pagination": {
    "current_page": 21,
    "per_page": 20,
    "total_items": 4269,
    "total_pages": 214,
    "has_next": true,
    "has_prev": true
  }
}
