{
  "message": "Animes da seção: legendados",
  "section": "legendados",
  "data": [
    {
      "id": 1567,
      "nome": "Hybrid Child",
      "link": "https://animefire.plus/animes/hybrid-child-todos-os-episodios",
      "texto_original": "Hybrid Child",
      "rating": 7.84,
      "classificacao_etaria": "A14",
      "imagem_original": "https://animefire.plus/img/animes/hybrid-child.webp",
      "imagem_pasta": "https://animefire.plus/img/animes/hybrid-child/",
      "secao": "legendados",
      "pagina": 80,
      "total_episodios": 4,
      "link_video": "https://animefire.plus/video/hybrid-child"
    },
    {
      "id": 1568,
      "nome": "Hyouka",
      "link": "https://animefire.plus/animes/hyouka-todos-os-episodios",
      "texto_original": "Hyouka",
      "rating": 8.15,
      "classificacao_etaria": "A14",
      "imagem_original": "https://animefire.plus/img/animes/hyouka.webp",
      "imagem_pasta": "https://animefire.plus/img/animes/hyouka/",
      "secao": "legendados",
      "pagina": 172,
      "total_episodios": 22,
      "link_video": "https://animefire.plus/video/hyouka"
    },
    {
      "id": 1569,
      "nome": "Hyouken no Majutsushi ga Sekai wo Suberu (Dublado)",
      "link": "https://animefire.plus/animes/hyouken-no-majutsushi-ga-sekai-wo-suberu-dublado-todos-os-episodios",
      "texto_original": "Hyouken no Majutsushi ga Sekai wo Suberu (Dublado)",
      "rating": 6.36,
      "classificacao_etaria": "A14",
      "imagem_original": "https://animefire.plus/img/animes/hyouken-no-majutsushi-ga-sekai-wo-suberu.webp",
      "imagem_pasta": "https://animefire.plus/img/animes/hyouken-no-majutsushi-ga-sekai-wo-suberu/",
      "secao": "dublados,legendados",
      "pagina": 4,
      "total_episodios": 12,
      "link_video": "https://animefire.plus/video/hyouken-no-majutsushi-ga-sekai-wo-suberu-dublado"
    },
    {
      "id": 1570,
      "nome": "Hypnosis Mic: Division Rap Battle - Rhyme Anima",
      "link": "https://animefire.plus/animes/hypnosis-mic-division-rap-battle---rhyme-anima-todos-os-episodios",
      "texto_original": "Hypnosis Mic: Division Rap Battle - Rhyme Anima",
      "rating": null,
      "classificacao_etaria": "A16",
      "imagem_original": "https://animefire.plus/img/animes/hypnosis-mic-division-rap-battle---rhyme-anima.webp",
      "imagem_pasta": "https://animefire.plus/img/animes/hypnosis-mic-division-rap-battle---rhyme-anima/",
      "secao": "legendados",
      "pagina": 52,
      "total_episodios": 13,
      "link_video": "https://animefire.plus/video/hypnosis-mic-division-rap-battle---rhyme-anima"
    },
    {
      "id": 1571,
      "nome": "Hypnosis Mic: Division Rap Battle - Rhyme Anima +",
      "link": "https://animefire.plus/animes/hypmic-2nd-season-todos-os-episodios",
      "texto_original": "Hypnosis Mic: Division Rap Battle - Rhyme Anima +",
      "rating": 6.86,
      "classificacao_etaria": "A16",
      "imagem_original": "https://animefire.plus/img/animes/hypmic-2nd-season.webp",
      "imagem_pasta": "https://animefire.plus/img/animes/hypmic-2nd-season/",
      "secao": "legendados,lancamentos",
      "pagina": 19,
      "total_episodios": 1,
      "link_video": "https://animefire.plus/video/hypmic-2nd-season"
    },
    {
      "id": 1572,
      "nome": "I My Me! Strawberry Eggs",
      "link": "https://animefire.plus/animes/i-my-me-strawberry-eggs-todos-os-episodios",
      "texto_original": "I My Me! Strawberry Eggs",
      "rating": 6.87,
      "classificacao_etaria": "A14",
      "imagem_original": "https://animefire.plus/img/animes/i-my-me-strawberry-eggs.webp",
      "imagem_pasta": "https://animefire.plus/img/animes/i-my-me-strawberry-eggs/",
      "secao": "legendados",
      "pagina": 99,
      "total_episodios": 0,
      "link_video": "https://animefire.plus/video/i-my-me-strawberry-eggs"
    },
    {
      "id": 1573,
      "nome": "I: Wish You Were Here",
      "link": "https://animefire.plus/animes/i-wish-you-were-here-todos-os-episodios",
      "texto_original": "I: Wish You Were Here",
      "rating": 6.13,
      "classificacao_etaria": "A16",
      "imagem_original": "https://animefire.plus/img/animes/i-wish-you-were-here.webp",
      "imagem_pasta": "https://animefire.plus/img/animes/i-wish-you-were-here/",
      "secao": "legendados",
      "pagina": 113,
      "total_episodios": 4,
      "link_video": "https://animefire.plus/video/i-wish-you-were-here"
    },
    {
      "id": 1574,
      "nome": "I''s Pure",
      "link": "https://animefire.plus/animes/i-s-pure-todos-os-episodios",
      "texto_original": "I''s Pure",
      "rating": 6.89,
      "classificacao_etaria": "A18",
      "imagem_original": "https://animefire.plus/img/animes/i-s-pure.webp",
      "imagem_pasta": "https://animefire.plus/img/animes/i-s-pure/",
      "secao": "legendados",
      "pagina": 43,
      "total_episodios": 6,
      "link_video": "https://animefire.plus/video/i-s-pure"
    },
    {
      "id": 1575,
      "nome": "I''s Pure Bonus",
      "link": "https://animefire.plus/animes/i-s-pure-bonus-todos-os-episodios",
      "texto_original": "I''s Pure Bonus",
      "rating": 6.45,
      "classificacao_etaria": "A18",
      "imagem_original": "https://animefire.plus/img/animes/i-s-pure-bonus.webp",
      "imagem_pasta": "https://animefire.plus/img/animes/i-s-pure-bonus/",
      "secao": "legendados",
      "pagina": 43,
      "total_episodios": 5,
      "link_video": "https://animefire.plus/video/i-s-pure-bonus"
    },
    {
      "id": 1576,
      "nome": "I★Chu: Halfway Through the Idol",
      "link": "https://animefire.plus/animes/i-chu-halfway-through-the-idol-todos-os-episodios",
      "texto_original": "I★Chu: Halfway Through the Idol",
      "rating": 6.57,
      "classificacao_etaria": "A14",
      "imagem_original": "https://animefire.plus/img/animes/i-chu-halfway-through-the-idol.webp",
      "imagem_pasta": "https://animefire.plus/img/animes/i-chu-halfway-through-the-idol/",
      "secao": "legendados",
      "pagina": 48,
      "total_episodios": 12,
      "link_video": "https://animefire.plus/video/i-chu-halfway-through-the-idol"
    },
    {
      "id": 1577,
      "nome": "Ichiban Ushiro no Daimaou",
      "link": "https://animefire.plus/animes/ichiban-ushiro-no-daimaou-todos-os-episodios",
      "texto_original": "Ichiban Ushiro no Daimaou",
      "rating": 7.08,
      "classificacao_etaria": "A18",
      "imagem_original": "https://animefire.plus/img/animes/ichiban-ushiro-no-daimaou.webp",
      "imagem_pasta": "https://animefire.plus/img/animes/ichiban-ushiro-no-daimaou/",
      "secao": "legendados",
      "pagina": 124,
      "total_episodios": 12,
      "link_video": "https://animefire.plus/video/ichiban-ushiro-no-daimaou"
    },
    {
      "id": 1578,
      "nome": "Ichigo 100%",
      "link": "https://animefire.plus/animes/ichigo-100-todos-os-episodios",
      "texto_original": "Ichigo 100%",
      "rating": 6.75,
      "classificacao_etaria": "A14",
      "imagem_original": "https://animefire.plus/img/animes/ichigo-100.webp",
      "imagem_pasta": "https://animefire.plus/img/animes/ichigo-100/",
      "secao": "legendados",
      "pagina": 156,
      "total_episodios": 12,
      "link_video": "https://animefire.plus/video/ichigo-100"
    },
    {
      "id": 1579,
      "nome": "Ichigo 100% Special 2",
      "link": "https://animefire.plus/animes/ichigo-100-special-2-todos-os-episodios",
      "texto_original": "Ichigo 100% Special 2",
      "rating": 6.92,
      "classificacao_etaria": "A14",
      "imagem_original": "https://animefire.plus/img/animes/ichigo-100-special-2.webp",
      "imagem_pasta": "https://animefire.plus/img/animes/ichigo-100-special-2/",
      "secao": "legendados",
      "pagina": 82,
      "total_episodios": 1,
      "link_video": "https://animefire.plus/video/ichigo-100-special-2"
    },
    {
      "id": 1580,
      "nome": "Ichigo Mashimaro",
      "link": "https://animefire.plus/animes/ichigo-mashimaro-todos-os-episodios",
      "texto_original": "Ichigo Mashimaro",
      "rating": 7.71,
      "classificacao_etaria": "A14",
      "imagem_original": "https://animefire.plus/img/animes/ichigo-mashimaro.webp",
      "imagem_pasta": "https://animefire.plus/img/animes/ichigo-mashimaro/",
      "secao": "legendados",
      "pagina": 123,
      "total_episodios": 12,
      "link_video": "https://animefire.plus/video/ichigo-mashimaro"
    },
    {
      "id": 1581,
      "nome": "Ichigo Mashimaro Encore",
      "link": "https://animefire.plus/animes/ichigo-mashimaro-encore-todos-os-episodios",
      "texto_original": "Ichigo Mashimaro Encore",
      "rating": 7.72,
      "classificacao_etaria": "A14",
      "imagem_original": "https://animefire.plus/img/animes/ichigo-mashimaro-encore.webp",
      "imagem_pasta": "https://animefire.plus/img/animes/ichigo-mashimaro-encore/",
      "secao": "legendados",
      "pagina": 67,
      "total_episodios": 2,
      "link_video": "https://animefire.plus/video/ichigo-mashimaro-encore"
    },
    {
      "id": 1582,
      "nome": "Iczer-Girl Iczelion",
      "link": "https://animefire.plus/animes/iczer-girl-iczelion-todos-os-episodios",
      "texto_original": "Iczer-Girl Iczelion",
      "rating": 5.68,
      "classificacao_etaria": "A18",
      "imagem_original": "https://animefire.plus/img/animes/iczer-girl-iczelion.webp",
      "imagem_pasta": "https://animefire.plus/img/animes/iczer-girl-iczelion/",
      "secao": "legendados",
      "pagina": 67,
      "total_episodios": 2,
      "link_video": "https://animefire.plus/video/iczer-girl-iczelion"
    },
    {
      "id": 1583,
      "nome": "ID-0 (Dublado)",
      "link": "https://animefire.plus/animes/id-0-dublado-todos-os-episodios",
      "texto_original": "ID-0 (Dublado)",
      "rating": 6.64,
      "classificacao_etaria": "A14",
      "imagem_original": "https://animefire.plus/img/animes/id-0.webp",
      "imagem_pasta": "https://animefire.plus/img/animes/id-0/",
      "secao": "dublados,legendados",
      "pagina": 21,
      "total_episodios": 12,
      "link_video": "https://animefire.plus/video/id-0-dublado"
    },
    {
      "id": 1584,
      "nome": "ID:Invaded (Dublado)",
      "link": "https://animefire.plus/animes/id-invaded-dublado-todos-os-episodios",
      "texto_original": "ID:Invaded (Dublado)",
      "rating": 7.87,
      "classificacao_etaria": "A16",
      "imagem_original": "https://animefire.plus/img/animes/id-invaded.webp",
      "imagem_pasta": "https://animefire.plus/img/animes/id-invaded/",
      "secao": "dublados,legendados",
      "pagina": 15,
      "total_episodios": 13,
      "link_video": "https://animefire.plus/video/id-invaded-dublado"
    },
    {
      "id": 1585,
      "nome": "Idol Jihen",
      "link": "https://animefire.plus/animes/idol-jihen-todos-os-episodios",
      "texto_original": "Idol Jihen",
      "rating": 5.7,
      "classificacao_etaria": "A14",
      "imagem_original": "https://animefire.plus/img/animes/idol-jihen.webp",
      "imagem_pasta": "https://animefire.plus/img/animes/idol-jihen/",
      "secao": "legendados",
      "pagina": 176,
      "total_episodios": 1,
      "link_video": "https://animefire.plus/video/idol-jihen"
    },
    {
      "id": 1586,
      "nome": "Idol Land PriPara",
      "link": "https://animefire.plus/animes/idol-land-pripara-todos-os-episodios",
      "texto_original": "Idol Land PriPara",
      "rating": 7.41,
      "classificacao_etaria": "A14",
      "imagem_original": "https://animefire.plus/img/animes/idol-land-pripara.webp",
      "imagem_pasta": "https://animefire.plus/img/animes/idol-land-pripara/",
      "secao": "legendados,lancamentos",
      "pagina": 35,
      "total_episodios": 0,
      "link_video": "https://animefire.plus/video/idol-land-pripara"
    }
  ],
  "pagination": {
    "current_page": 77,
    "per_page": 20,
    "total_items": 4269,
    "total_pages": 214,
    "has_next": true,
    "has_prev": true
  }
}
