{
  "message": "Animes da seção: legendados",
  "section": "legendados",
  "data": [
    {
      "id": 1243,
      "nome": "Grandeek",
      "link": "https://animefire.plus/animes/grandeek-todos-os-episodios",
      "texto_original": "Grandeek",
      "rating": 5.73,
      "classificacao_etaria": "A16",
      "imagem_original": "https://animefire.plus/img/animes/grandeek.webp",
      "imagem_pasta": "https://animefire.plus/img/animes/grandeek/",
      "secao": "legendados",
      "pagina": 66,
      "total_episodios": 1,
      "link_video": "https://animefire.plus/video/grandeek"
    },
    {
      "id": 1244,
      "nome": "Grappler Baki",
      "link": "https://animefire.plus/animes/grappler-baki-todos-os-episodios",
      "texto_original": "Grappler Baki",
      "rating": 6.81,
      "classificacao_etaria": "A16",
      "imagem_original": "https://animefire.plus/img/animes/grappler-baki.webp",
      "imagem_pasta": "https://animefire.plus/img/animes/grappler-baki/",
      "secao": "legendados",
      "pagina": 62,
      "total_episodios": 24,
      "link_video": "https://animefire.plus/video/grappler-baki"
    },
    {
      "id": 1245,
      "nome": "Grappler Baki (TV)",
      "link": "https://animefire.plus/animes/grappler-baki-tv-todos-os-episodios",
      "texto_original": "Grappler Baki (TV)",
      "rating": 7.49,
      "classificacao_etaria": "A14",
      "imagem_original": "https://animefire.plus/img/animes/grappler-baki-tv.webp",
      "imagem_pasta": "https://animefire.plus/img/animes/grappler-baki-tv/",
      "secao": "legendados",
      "pagina": 173,
      "total_episodios": 24,
      "link_video": "https://animefire.plus/video/grappler-baki-tv"
    },
    {
      "id": 1246,
      "nome": "Grappler Baki: Saidai Tournament-hen",
      "link": "https://animefire.plus/animes/grappler-baki-saidai-tournament-hen-todos-os-episodios",
      "texto_original": "Grappler Baki: Saidai Tournament-hen",
      "rating": 7.46,
      "classificacao_etaria": "A16",
      "imagem_original": "https://animefire.plus/img/animes/grappler-baki-saidai-tournament-hen.webp",
      "imagem_pasta": "https://animefire.plus/img/animes/grappler-baki-saidai-tournament-hen/",
      "secao": "legendados",
      "pagina": 67,
      "total_episodios": 24,
      "link_video": "https://animefire.plus/video/grappler-baki-saidai-tournament-hen"
    },
    {
      "id": 1247,
      "nome": "Gravitation",
      "link": "https://animefire.plus/animes/gravitation-todos-os-episodios",
      "texto_original": "Gravitation",
      "rating": 7.16,
      "classificacao_etaria": "A14",
      "imagem_original": "https://animefire.plus/img/animes/gravitation.webp",
      "imagem_pasta": "https://animefire.plus/img/animes/gravitation/",
      "secao": "legendados",
      "pagina": 97,
      "total_episodios": 13,
      "link_video": "https://animefire.plus/video/gravitation"
    },
    {
      "id": 1248,
      "nome": "Great Pretender (Dublado)",
      "link": "https://animefire.plus/animes/great-pretender-dublado-todos-os-episodios",
      "texto_original": "Great Pretender (Dublado)",
      "rating": 8.31,
      "classificacao_etaria": "A16",
      "imagem_original": "https://animefire.plus/img/animes/great-pretender.webp",
      "imagem_pasta": "https://animefire.plus/img/animes/great-pretender/",
      "secao": "dublados,legendados",
      "pagina": 20,
      "total_episodios": 23,
      "link_video": "https://animefire.plus/video/great-pretender-dublado"
    },
    {
      "id": 1249,
      "nome": "Great Pretender: Razbliuto",
      "link": "https://animefire.plus/animes/great-pretender-razbliuto-todos-os-episodios",
      "texto_original": "Great Pretender: Razbliuto",
      "rating": 6.83,
      "classificacao_etaria": "A16",
      "imagem_original": "https://animefire.plus/img/animes/great-pretender-razbliuto.webp",
      "imagem_pasta": "https://animefire.plus/img/animes/great-pretender-razbliuto/",
      "secao": "legendados,lancamentos",
      "pagina": 16,
      "total_episodios": 1,
      "link_video": "https://animefire.plus/video/great-pretender-razbliuto"
    },
    {
      "id": 1250,
      "nome": "Great Teacher Onizuka",
      "link": "https://animefire.plus/animes/great-teacher-onizuka-todos-os-episodios",
      "texto_original": "Great Teacher Onizuka",
      "rating": 8.7,
      "classificacao_etaria": "A16",
      "imagem_original": "https://animefire.plus/img/animes/great-teacher-onizuka.webp",
      "imagem_pasta": "https://animefire.plus/img/animes/great-teacher-onizuka/",
      "secao": "legendados",
      "pagina": 57,
      "total_episodios": 43,
      "link_video": "https://animefire.plus/video/great-teacher-onizuka"
    },
    {
      "id": 1251,
      "nome": "Green Green",
      "link": "https://animefire.plus/animes/green-green-todos-os-episodios",
      "texto_original": "Green Green",
      "rating": 6.32,
      "classificacao_etaria": "A18",
      "imagem_original": "https://animefire.plus/img/animes/green-green.webp",
      "imagem_pasta": "https://animefire.plus/img/animes/green-green/",
      "secao": "legendados",
      "pagina": 117,
      "total_episodios": 12,
      "link_video": "https://animefire.plus/video/green-green"
    },
    {
      "id": 1252,
      "nome": "Green Green OVA",
      "link": "https://animefire.plus/animes/green-green-ova-todos-os-episodios",
      "texto_original": "Green Green OVA",
      "rating": 6.03,
      "classificacao_etaria": "A14",
      "imagem_original": "https://animefire.plus/img/animes/green-green-ova.webp",
      "imagem_pasta": "https://animefire.plus/img/animes/green-green-ova/",
      "secao": "legendados",
      "pagina": 70,
      "total_episodios": 1,
      "link_video": "https://animefire.plus/video/green-green-ova"
    },
    {
      "id": 1253,
      "nome": "Green Green Specials",
      "link": "https://animefire.plus/animes/green-green-specials-todos-os-episodios",
      "texto_original": "Green Green Specials",
      "rating": 6.27,
      "classificacao_etaria": "A18",
      "imagem_original": "https://animefire.plus/img/animes/green-green-specials.webp",
      "imagem_pasta": "https://animefire.plus/img/animes/green-green-specials/",
      "secao": "legendados",
      "pagina": 70,
      "total_episodios": 1,
      "link_video": "https://animefire.plus/video/green-green-specials"
    },
    {
      "id": 1254,
      "nome": "Grenadier: Hohoemi No Senshi",
      "link": "https://animefire.plus/animes/grenadier-hohoemi-no-senshi-todos-os-episodios",
      "texto_original": "Grenadier: Hohoemi No Senshi",
      "rating": 6.78,
      "classificacao_etaria": "A14",
      "imagem_original": "https://animefire.plus/img/animes/grenadier-hohoemi-no-senshi.webp",
      "imagem_pasta": "https://animefire.plus/img/animes/grenadier-hohoemi-no-senshi/",
      "secao": "legendados",
      "pagina": 101,
      "total_episodios": 12,
      "link_video": "https://animefire.plus/video/grenadier-hohoemi-no-senshi"
    },
    {
      "id": 1255,
      "nome": "Grendizer U",
      "link": "https://animefire.plus/animes/grendizer-u-todos-os-episodios",
      "texto_original": "Grendizer U",
      "rating": null,
      "classificacao_etaria": "A14",
      "imagem_original": "https://animefire.plus/img/animes/grendizer-u.webp",
      "imagem_pasta": "https://animefire.plus/img/animes/grendizer-u/",
      "secao": "legendados,lancamentos",
      "pagina": 12,
      "total_episodios": 4,
      "link_video": "https://animefire.plus/video/grendizer-u"
    },
    {
      "id": 1256,
      "nome": "Grimms Notes The Animation",
      "link": "https://animefire.plus/animes/grimms-notes-the-animation-todos-os-episodios",
      "texto_original": "Grimms Notes The Animation",
      "rating": 5.99,
      "classificacao_etaria": "A14",
      "imagem_original": "https://animefire.plus/img/animes/grimms-notes-the-animation.webp",
      "imagem_pasta": "https://animefire.plus/img/animes/grimms-notes-the-animation/",
      "secao": "legendados",
      "pagina": 101,
      "total_episodios": 0,
      "link_video": "https://animefire.plus/video/grimms-notes-the-animation"
    },
    {
      "id": 1257,
      "nome": "Grisaia no Kajitsu",
      "link": "https://animefire.plus/animes/grisaia-no-kajitsu-todos-os-episodios",
      "texto_original": "Grisaia no Kajitsu",
      "rating": 7.64,
      "classificacao_etaria": "A18",
      "imagem_original": "https://animefire.plus/img/animes/grisaia-no-kajitsu.webp",
      "imagem_pasta": "https://animefire.plus/img/animes/grisaia-no-kajitsu/",
      "secao": "legendados",
      "pagina": 91,
      "total_episodios": 13,
      "link_video": "https://animefire.plus/video/grisaia-no-kajitsu"
    },
    {
      "id": 1258,
      "nome": "Grisaia no Meikyuu: Caprice no Mayu 0",
      "link": "https://animefire.plus/animes/grisaia-no-meikyuu-caprice-no-mayu-0-todos-os-episodios",
      "texto_original": "Grisaia no Meikyuu: Caprice no Mayu 0",
      "rating": 7.97,
      "classificacao_etaria": "A18",
      "imagem_original": "https://animefire.plus/img/animes/grisaia-no-meikyuu-caprice-no-mayu-0.webp",
      "imagem_pasta": "https://animefire.plus/img/animes/grisaia-no-meikyuu-caprice-no-mayu-0/",
      "secao": "legendados",
      "pagina": 73,
      "total_episodios": 2,
      "link_video": "https://animefire.plus/video/grisaia-no-meikyuu-caprice-no-mayu-0"
    },
    {
      "id": 1259,
      "nome": "Grisaia No Rakuen",
      "link": "https://animefire.plus/animes/grisaia-no-rakuen-todos-os-episodios",
      "texto_original": "Grisaia No Rakuen",
      "rating": 7.98,
      "classificacao_etaria": "A16",
      "imagem_original": "https://animefire.plus/img/animes/grisaia-no-rakuen.webp",
      "imagem_pasta": "https://animefire.plus/img/animes/grisaia-no-rakuen/",
      "secao": "legendados",
      "pagina": 91,
      "total_episodios": 10,
      "link_video": "https://animefire.plus/video/grisaia-no-rakuen"
    },
    {
      "id": 1260,
      "nome": "Grisaia: Phantom Trigger",
      "link": "https://animefire.plus/animes/grisaia-phantom-trigger-todos-os-episodios",
      "texto_original": "Grisaia: Phantom Trigger",
      "rating": 6.38,
      "classificacao_etaria": "A16",
      "imagem_original": "https://animefire.plus/img/animes/grisaia-phantom-trigger.webp",
      "imagem_pasta": "https://animefire.plus/img/animes/grisaia-phantom-trigger/",
      "secao": "legendados",
      "pagina": 8,
      "total_episodios": 13,
      "link_video": "https://animefire.plus/video/grisaia-phantom-trigger"
    },
    {
      "id": 1261,
      "nome": "Groove Adventure Rave",
      "link": "https://animefire.plus/animes/groove-adventure-rave-todos-os-episodios",
      "texto_original": "Groove Adventure Rave",
      "rating": 7.36,
      "classificacao_etaria": "A14",
      "imagem_original": "https://animefire.plus/img/animes/groove-adventure-rave.webp",
      "imagem_pasta": "https://animefire.plus/img/animes/groove-adventure-rave/",
      "secao": "legendados",
      "pagina": 128,
      "total_episodios": 0,
      "link_video": "https://animefire.plus/video/groove-adventure-rave"
    },
    {
      "id": 1262,
      "nome": "Guardian Hearts",
      "link": "https://animefire.plus/animes/guardian-hearts-todos-os-episodios",
      "texto_original": "Guardian Hearts",
      "rating": 5.92,
      "classificacao_etaria": "A18",
      "imagem_original": "https://animefire.plus/img/animes/guardian-hearts.webp",
      "imagem_pasta": "https://animefire.plus/img/animes/guardian-hearts/",
      "secao": "legendados",
      "pagina": 70,
      "total_episodios": 3,
      "link_video": "https://animefire.plus/video/guardian-hearts"
    }
  ],
  "pagination": {
    "current_page": 61,
    "per_page": 20,
    "total_items": 4269,
    "total_pages": 214,
    "has_next": true,
    "has_prev": true
  }
}
