{
  "message": "Animes da seção: legendados",
  "section": "legendados",
  "data": [
    {
      "id": 1747,
      "nome": "Jormungand",
      "link": "https://animefire.plus/animes/jormungand-todos-os-episodios",
      "texto_original": "Jormungand",
      "rating": 7.91,
      "classificacao_etaria": "A18",
      "imagem_original": "https://animefire.plus/img/animes/jormungand.webp",
      "imagem_pasta": "https://animefire.plus/img/animes/jormungand/",
      "secao": "legendados",
      "pagina": 143,
      "total_episodios": 7,
      "link_video": "https://animefire.plus/video/jormungand"
    },
    {
      "id": 1748,
      "nome": "Jormungand: Perfect Order",
      "link": "https://animefire.plus/animes/jormungand-perfect-order-todos-os-episodios",
      "texto_original": "Jormungand: Perfect Order",
      "rating": 8,
      "classificacao_etaria": "A18",
      "imagem_original": "https://animefire.plus/img/animes/jormungand-perfect-order.webp",
      "imagem_pasta": "https://animefire.plus/img/animes/jormungand-perfect-order/",
      "secao": "legendados",
      "pagina": 147,
      "total_episodios": 0,
      "link_video": "https://animefire.plus/video/jormungand-perfect-order"
    },
    {
      "id": 1749,
      "nome": "Joshikausei",
      "link": "https://animefire.plus/animes/joshikausei-todos-os-episodios",
      "texto_original": "Joshikausei",
      "rating": 5.76,
      "classificacao_etaria": "A14",
      "imagem_original": "https://animefire.plus/img/animes/joshikausei.webp",
      "imagem_pasta": "https://animefire.plus/img/animes/joshikausei/",
      "secao": "legendados",
      "pagina": 138,
      "total_episodios": 0,
      "link_video": "https://animefire.plus/video/joshikausei"
    },
    {
      "id": 1750,
      "nome": "Joshikousei no Mudazukai",
      "link": "https://animefire.plus/animes/joshikousei-no-mudazukai-todos-os-episodios",
      "texto_original": "Joshikousei no Mudazukai",
      "rating": 7.71,
      "classificacao_etaria": "A14",
      "imagem_original": "https://animefire.plus/img/animes/joshikousei-no-mudazukai.webp",
      "imagem_pasta": "https://animefire.plus/img/animes/joshikousei-no-mudazukai/",
      "secao": "legendados",
      "pagina": 112,
      "total_episodios": 5,
      "link_video": "https://animefire.plus/video/joshikousei-no-mudazukai"
    },
    {
      "id": 1751,
      "nome": "Joshiraku",
      "link": "https://animefire.plus/animes/joshiraku-todos-os-episodios",
      "texto_original": "Joshiraku",
      "rating": 7.52,
      "classificacao_etaria": "A14",
      "imagem_original": "https://animefire.plus/img/animes/joshiraku.webp",
      "imagem_pasta": "https://animefire.plus/img/animes/joshiraku/",
      "secao": "legendados",
      "pagina": 149,
      "total_episodios": 4,
      "link_video": "https://animefire.plus/video/joshiraku"
    },
    {
      "id": 1752,
      "nome": "Joukamachi no Dandelion",
      "link": "https://animefire.plus/animes/joukamachi-no-dandelion-todos-os-episodios",
      "texto_original": "Joukamachi no Dandelion",
      "rating": 7.29,
      "classificacao_etaria": "A14",
      "imagem_original": "https://animefire.plus/img/animes/joukamachi-no-dandelion.webp",
      "imagem_pasta": "https://animefire.plus/img/animes/joukamachi-no-dandelion/",
      "secao": "legendados",
      "pagina": 163,
      "total_episodios": 0,
      "link_video": "https://animefire.plus/video/joukamachi-no-dandelion"
    },
    {
      "id": 1753,
      "nome": "Jouran: The Princess of Snow and Blood",
      "link": "https://animefire.plus/animes/jouran-the-princess-of-snow-and-blood-todos-os-episodios",
      "texto_original": "Jouran: The Princess of Snow and Blood",
      "rating": 6.11,
      "classificacao_etaria": "A16",
      "imagem_original": "https://animefire.plus/img/animes/jouran-the-princess-of-snow-and-blood.webp",
      "imagem_pasta": "https://animefire.plus/img/animes/jouran-the-princess-of-snow-and-blood/",
      "secao": "legendados",
      "pagina": 47,
      "total_episodios": 12,
      "link_video": "https://animefire.plus/video/jouran-the-princess-of-snow-and-blood"
    },
    {
      "id": 1755,
      "nome": "Jujutsu Kaisen (TV) (Dublado)",
      "link": "https://animefire.plus/animes/jujutsu-kaisen-tv-dublado-todos-os-episodios",
      "texto_original": "Jujutsu Kaisen (TV) (Dublado)",
      "rating": 8.39,
      "classificacao_etaria": "A16",
      "imagem_original": "https://animefire.plus/img/animes/jujutsu-kaisen-tv.webp",
      "imagem_pasta": "https://animefire.plus/img/animes/jujutsu-kaisen-tv/",
      "secao": "dublados,legendados",
      "pagina": 19,
      "total_episodios": 11,
      "link_video": "https://animefire.plus/video/jujutsu-kaisen-tv-dublado"
    },
    {
      "id": 1756,
      "nome": "Jujutsu Kaisen 2nd Season (Dublado)",
      "link": "https://animefire.plus/animes/jujutsu-kaisen-2nd-season-dublado-todos-os-episodios",
      "texto_original": "Jujutsu Kaisen 2nd Season (Dublado)",
      "rating": 8.74,
      "classificacao_etaria": "A16",
      "imagem_original": "https://animefire.plus/img/animes/jujutsu-kaisen-2nd-season.webp",
      "imagem_pasta": "https://animefire.plus/img/animes/jujutsu-kaisen-2nd-season/",
      "secao": "dublados,legendados",
      "pagina": 6,
      "total_episodios": 23,
      "link_video": "https://animefire.plus/video/jujutsu-kaisen-2nd-season-dublado"
    },
    {
      "id": 1757,
      "nome": "Jungle de Ikou!",
      "link": "https://animefire.plus/animes/jungle-de-ikou-todos-os-episodios",
      "texto_original": "Jungle de Ikou!",
      "rating": 5.51,
      "classificacao_etaria": "A14",
      "imagem_original": "https://animefire.plus/img/animes/jungle-de-ikou.webp",
      "imagem_pasta": "https://animefire.plus/img/animes/jungle-de-ikou/",
      "secao": "legendados",
      "pagina": 137,
      "total_episodios": 3,
      "link_video": "https://animefire.plus/video/jungle-de-ikou"
    },
    {
      "id": 1758,
      "nome": "Junjou Romantica",
      "link": "https://animefire.plus/animes/junjou-romantica-todos-os-episodios",
      "texto_original": "Junjou Romantica",
      "rating": 7.92,
      "classificacao_etaria": "A14",
      "imagem_original": "https://animefire.plus/img/animes/junjou-romantica.webp",
      "imagem_pasta": "https://animefire.plus/img/animes/junjou-romantica/",
      "secao": "legendados",
      "pagina": 139,
      "total_episodios": 12,
      "link_video": "https://animefire.plus/video/junjou-romantica"
    },
    {
      "id": 1759,
      "nome": "Junjou Romantica 2",
      "link": "https://animefire.plus/animes/junjou-romantica-2-todos-os-episodios",
      "texto_original": "Junjou Romantica 2",
      "rating": 8.09,
      "classificacao_etaria": "A14",
      "imagem_original": "https://animefire.plus/img/animes/junjou-romantica-2.webp",
      "imagem_pasta": "https://animefire.plus/img/animes/junjou-romantica-2/",
      "secao": "legendados",
      "pagina": 125,
      "total_episodios": 12,
      "link_video": "https://animefire.plus/video/junjou-romantica-2"
    },
    {
      "id": 1760,
      "nome": "Junjou Romantica 3",
      "link": "https://animefire.plus/animes/junjou-romantica-3-todos-os-episodios",
      "texto_original": "Junjou Romantica 3",
      "rating": 8.03,
      "classificacao_etaria": "A14",
      "imagem_original": "https://animefire.plus/img/animes/junjou-romantica-3.webp",
      "imagem_pasta": "https://animefire.plus/img/animes/junjou-romantica-3/",
      "secao": "legendados",
      "pagina": 179,
      "total_episodios": 1,
      "link_video": "https://animefire.plus/video/junjou-romantica-3"
    },
    {
      "id": 1761,
      "nome": "Junketsu no Maria",
      "link": "https://animefire.plus/animes/junketsu-no-maria-todos-os-episodios",
      "texto_original": "Junketsu no Maria",
      "rating": 7.21,
      "classificacao_etaria": "A16",
      "imagem_original": "https://animefire.plus/img/animes/junketsu-no-maria.webp",
      "imagem_pasta": "https://animefire.plus/img/animes/junketsu-no-maria/",
      "secao": "legendados",
      "pagina": 138,
      "total_episodios": 2,
      "link_video": "https://animefire.plus/video/junketsu-no-maria"
    },
    {
      "id": 1762,
      "nome": "Just Because!",
      "link": "https://animefire.plus/animes/just-because-todos-os-episodios",
      "texto_original": "Just Because!",
      "rating": 7.37,
      "classificacao_etaria": "A14",
      "imagem_original": "https://animefire.plus/img/animes/just-because.webp",
      "imagem_pasta": "https://animefire.plus/img/animes/just-because/",
      "secao": "legendados",
      "pagina": 148,
      "total_episodios": 12,
      "link_video": "https://animefire.plus/video/just-because"
    },
    {
      "id": 1763,
      "nome": "Juubee Ninpuuchou: Ryuuhougyoku-hen",
      "link": "https://animefire.plus/animes/juubee-ninpuuchou-ryuuhougyoku-hen-todos-os-episodios",
      "texto_original": "Juubee Ninpuuchou: Ryuuhougyoku-hen",
      "rating": 6.7,
      "classificacao_etaria": "A16",
      "imagem_original": "https://animefire.plus/img/animes/juubee-ninpuuchou-ryuuhougyoku-hen.webp",
      "imagem_pasta": "https://animefire.plus/img/animes/juubee-ninpuuchou-ryuuhougyoku-hen/",
      "secao": "legendados",
      "pagina": 57,
      "total_episodios": 13,
      "link_video": "https://animefire.plus/video/juubee-ninpuuchou-ryuuhougyoku-hen"
    },
    {
      "id": 1764,
      "nome": "Juubee-chan 2: Siberia Yagyuu no Gyakushuu",
      "link": "https://animefire.plus/animes/juubee-chan-2-siberia-yagyuu-no-gyakushuu-todos-os-episodios",
      "texto_original": "Juubee-chan 2: Siberia Yagyuu no Gyakushuu",
      "rating": 6.93,
      "classificacao_etaria": "A14",
      "imagem_original": "https://animefire.plus/img/animes/juubee-chan-2-siberia-yagyuu-no-gyakushuu.webp",
      "imagem_pasta": "https://animefire.plus/img/animes/juubee-chan-2-siberia-yagyuu-no-gyakushuu/",
      "secao": "legendados",
      "pagina": 168,
      "total_episodios": 13,
      "link_video": "https://animefire.plus/video/juubee-chan-2-siberia-yagyuu-no-gyakushuu"
    },
    {
      "id": 1765,
      "nome": "Juubee-chan: Lovely Gantai no Himitsu",
      "link": "https://animefire.plus/animes/juubee-chan-lovely-gantai-no-himitsu-todos-os-episodios",
      "texto_original": "Juubee-chan: Lovely Gantai no Himitsu",
      "rating": 6.71,
      "classificacao_etaria": "A14",
      "imagem_original": "https://animefire.plus/img/animes/juubee-chan-lovely-gantai-no-himitsu.webp",
      "imagem_pasta": "https://animefire.plus/img/animes/juubee-chan-lovely-gantai-no-himitsu/",
      "secao": "legendados",
      "pagina": 143,
      "total_episodios": 12,
      "link_video": "https://animefire.plus/video/juubee-chan-lovely-gantai-no-himitsu"
    },
    {
      "id": 1766,
      "nome": "Juuni Kokuki",
      "link": "https://animefire.plus/animes/juuni-kokuki-todos-os-episodios",
      "texto_original": "Juuni Kokuki",
      "rating": 8.08,
      "classificacao_etaria": "A14",
      "imagem_original": "https://animefire.plus/img/animes/juuni-kokuki.webp",
      "imagem_pasta": "https://animefire.plus/img/animes/juuni-kokuki/",
      "secao": "legendados",
      "pagina": 76,
      "total_episodios": 45,
      "link_video": "https://animefire.plus/video/juuni-kokuki"
    },
    {
      "id": 1767,
      "nome": "Juuni Taisen",
      "link": "https://animefire.plus/animes/juuni-taisen-todos-os-episodios",
      "texto_original": "Juuni Taisen",
      "rating": 6.64,
      "classificacao_etaria": "A16",
      "imagem_original": "https://animefire.plus/img/animes/juuni-taisen.webp",
      "imagem_pasta": "https://animefire.plus/img/animes/juuni-taisen/",
      "secao": "legendados",
      "pagina": 137,
      "total_episodios": 12,
      "link_video": "https://animefire.plus/video/juuni-taisen"
    }
  ],
  "pagination": {
    "current_page": 86,
    "per_page": 20,
    "total_items": 4269,
    "total_pages": 214,
    "has_next": true,
    "has_prev": true
  }
}
