{
  "message": "Animes da seção: legendados",
  "section": "legendados",
  "data": [
    {
      "id": 1893,
      "nome": "Karakai Jouzu no Takagi-san",
      "link": "https://animefire.plus/animes/karakai-jouzu-no-takagi-san-todos-os-episodios",
      "texto_original": "Karakai Jouzu no Takagi-san",
      "rating": 7.89,
      "classificacao_etaria": "A14",
      "imagem_original": "https://animefire.plus/img/animes/karakai-jouzu-no-takagi-san.webp",
      "imagem_pasta": "https://animefire.plus/img/animes/karakai-jouzu-no-takagi-san/",
      "secao": "legendados",
      "pagina": 144,
      "total_episodios": 12,
      "link_video": "https://animefire.plus/video/karakai-jouzu-no-takagi-san"
    },
    {
      "id": 1894,
      "nome": "Karakai Jouzu no Takagi-san 2 (Dublado)",
      "link": "https://animefire.plus/animes/karakai-jouzu-no-takagi-san-2-dublado-todos-os-episodios",
      "texto_original": "Karakai Jouzu no Takagi-san 2 (Dublado)",
      "rating": 8.24,
      "classificacao_etaria": "A14",
      "imagem_original": "https://animefire.plus/img/animes/karakai-jouzu-no-takagi-san-2.webp",
      "imagem_pasta": "https://animefire.plus/img/animes/karakai-jouzu-no-takagi-san-2/",
      "secao": "dublados,legendados",
      "pagina": 22,
      "total_episodios": 12,
      "link_video": "https://animefire.plus/video/karakai-jouzu-no-takagi-san-2-dublado"
    },
    {
      "id": 1895,
      "nome": "Karakai Jouzu no Takagi-san 3",
      "link": "https://animefire.plus/animes/karakai-jouzu-no-takagi-san-3-todos-os-episodios",
      "texto_original": "Karakai Jouzu no Takagi-san 3",
      "rating": 8.38,
      "classificacao_etaria": "A14",
      "imagem_original": "https://animefire.plus/img/animes/karakai-jouzu-no-takagi-san-3.webp",
      "imagem_pasta": "https://animefire.plus/img/animes/karakai-jouzu-no-takagi-san-3/",
      "secao": "legendados",
      "pagina": 36,
      "total_episodios": 12,
      "link_video": "https://animefire.plus/video/karakai-jouzu-no-takagi-san-3"
    },
    {
      "id": 1896,
      "nome": "Karakuri Circus (TV)",
      "link": "https://animefire.plus/animes/karakuri-circus-tv-todos-os-episodios",
      "texto_original": "Karakuri Circus (TV)",
      "rating": 7.09,
      "classificacao_etaria": "A14",
      "imagem_original": "https://animefire.plus/img/animes/karakuri-circus-tv.webp",
      "imagem_pasta": "https://animefire.plus/img/animes/karakuri-circus-tv/",
      "secao": "legendados",
      "pagina": 40,
      "total_episodios": 1,
      "link_video": "https://animefire.plus/video/karakuri-circus-tv"
    },
    {
      "id": 1897,
      "nome": "Karaoke Iko!",
      "link": "https://animefire.plus/animes/karaoke-iko-todos-os-episodios",
      "texto_original": "Karaoke Iko!",
      "rating": 7.28,
      "classificacao_etaria": "A14",
      "imagem_original": "https://animefire.plus/img/animes/karaoke-iko.webp",
      "imagem_pasta": "https://animefire.plus/img/animes/karaoke-iko/",
      "secao": "legendados,lancamentos",
      "pagina": 1,
      "total_episodios": 2,
      "link_video": "https://animefire.plus/video/karaoke-iko"
    },
    {
      "id": 1898,
      "nome": "Karas",
      "link": "https://animefire.plus/animes/karas-todos-os-episodios",
      "texto_original": "Karas",
      "rating": 7.44,
      "classificacao_etaria": "A16",
      "imagem_original": "https://animefire.plus/img/animes/karas.webp",
      "imagem_pasta": "https://animefire.plus/img/animes/karas/",
      "secao": "legendados",
      "pagina": 77,
      "total_episodios": 6,
      "link_video": "https://animefire.plus/video/karas"
    },
    {
      "id": 1899,
      "nome": "Karasu wa Aruji wo Erabanai",
      "link": "https://animefire.plus/animes/karasu-wa-aruji-wo-erabanai-todos-os-episodios",
      "texto_original": "Karasu wa Aruji wo Erabanai",
      "rating": 8.05,
      "classificacao_etaria": "A14",
      "imagem_original": "https://animefire.plus/img/animes/karasu-wa-aruji-wo-erabanai.webp",
      "imagem_pasta": "https://animefire.plus/img/animes/karasu-wa-aruji-wo-erabanai/",
      "secao": "legendados",
      "pagina": 13,
      "total_episodios": 20,
      "link_video": "https://animefire.plus/video/karasu-wa-aruji-wo-erabanai"
    },
    {
      "id": 1900,
      "nome": "Karen Senki",
      "link": "https://animefire.plus/animes/karen-senki-todos-os-episodios",
      "texto_original": "Karen Senki",
      "rating": 5.82,
      "classificacao_etaria": "A14",
      "imagem_original": "https://animefire.plus/img/animes/karen-senki.webp",
      "imagem_pasta": "https://animefire.plus/img/animes/karen-senki/",
      "secao": "legendados",
      "pagina": 178,
      "total_episodios": 4,
      "link_video": "https://animefire.plus/video/karen-senki"
    },
    {
      "id": 1901,
      "nome": "Kareshi Kanojo no Jijou",
      "link": "https://animefire.plus/animes/kareshi-kanojo-no-jijou-todos-os-episodios",
      "texto_original": "Kareshi Kanojo no Jijou",
      "rating": 7.64,
      "classificacao_etaria": "A14",
      "imagem_original": "https://animefire.plus/img/animes/kareshi-kanojo-no-jijou.webp",
      "imagem_pasta": "https://animefire.plus/img/animes/kareshi-kanojo-no-jijou/",
      "secao": "legendados",
      "pagina": 171,
      "total_episodios": 14,
      "link_video": "https://animefire.plus/video/kareshi-kanojo-no-jijou"
    },
    {
      "id": 1902,
      "nome": "Karin",
      "link": "https://animefire.plus/animes/karin-todos-os-episodios",
      "texto_original": "Karin",
      "rating": 7.25,
      "classificacao_etaria": "A14",
      "imagem_original": "https://animefire.plus/img/animes/karin.webp",
      "imagem_pasta": "https://animefire.plus/img/animes/karin/",
      "secao": "legendados",
      "pagina": 161,
      "total_episodios": 24,
      "link_video": "https://animefire.plus/video/karin"
    },
    {
      "id": 1903,
      "nome": "Karneval",
      "link": "https://animefire.plus/animes/karneval-todos-os-episodios",
      "texto_original": "Karneval",
      "rating": 7.27,
      "classificacao_etaria": "A14",
      "imagem_original": "https://animefire.plus/img/animes/karneval.webp",
      "imagem_pasta": "https://animefire.plus/img/animes/karneval/",
      "secao": "legendados",
      "pagina": 161,
      "total_episodios": 9,
      "link_video": "https://animefire.plus/video/karneval"
    },
    {
      "id": 1904,
      "nome": "Karneval (TV)",
      "link": "https://animefire.plus/animes/karneval-tv-todos-os-episodios",
      "texto_original": "Karneval (TV)",
      "rating": 7.19,
      "classificacao_etaria": "A14",
      "imagem_original": "https://animefire.plus/img/animes/karneval-tv.webp",
      "imagem_pasta": "https://animefire.plus/img/animes/karneval-tv/",
      "secao": "legendados",
      "pagina": 72,
      "total_episodios": 13,
      "link_video": "https://animefire.plus/video/karneval-tv"
    },
    {
      "id": 1905,
      "nome": "Kashimashi: Girl Meets Girl",
      "link": "https://animefire.plus/animes/kashimashi-girl-meets-girl-todos-os-episodios",
      "texto_original": "Kashimashi: Girl Meets Girl",
      "rating": 6.72,
      "classificacao_etaria": "A14",
      "imagem_original": "https://animefire.plus/img/animes/kashimashi-girl-meets-girl.webp",
      "imagem_pasta": "https://animefire.plus/img/animes/kashimashi-girl-meets-girl/",
      "secao": "legendados",
      "pagina": 171,
      "total_episodios": 0,
      "link_video": "https://animefire.plus/video/kashimashi-girl-meets-girl"
    },
    {
      "id": 1906,
      "nome": "Katainaka no Ossan, Kensei ni Naru (Dublado)",
      "link": "https://animefire.plus/animes/katainaka-no-ossan-kensei-ni-naru-dublado-todos-os-episodios",
      "texto_original": "Katainaka no Ossan, Kensei ni Naru (Dublado)",
      "rating": 7.02,
      "classificacao_etaria": "A14",
      "imagem_original": "https://animefire.plus/img/animes/katainaka-no-ossan-kensei-ni-naru.webp",
      "imagem_pasta": "https://animefire.plus/img/animes/katainaka-no-ossan-kensei-ni-naru/",
      "secao": "dublados,legendados,lancamentos",
      "pagina": 1,
      "total_episodios": 12,
      "link_video": "https://animefire.plus/video/katainaka-no-ossan-kensei-ni-naru-dublado"
    },
    {
      "id": 1907,
      "nome": "Katanagatari",
      "link": "https://animefire.plus/animes/katanagatari-todos-os-episodios",
      "texto_original": "Katanagatari",
      "rating": 8.4,
      "classificacao_etaria": "A16",
      "imagem_original": "https://animefire.plus/img/animes/katanagatari.webp",
      "imagem_pasta": "https://animefire.plus/img/animes/katanagatari/",
      "secao": "legendados",
      "pagina": 108,
      "total_episodios": 0,
      "link_video": "https://animefire.plus/video/katanagatari"
    },
    {
      "id": 1908,
      "nome": "Katekyo Hitman Reborn!",
      "link": "https://animefire.plus/animes/katekyo-hitman-reborn-todos-os-episodios",
      "texto_original": "Katekyo Hitman Reborn!",
      "rating": 8.27,
      "classificacao_etaria": "A14",
      "imagem_original": "https://animefire.plus/img/animes/katekyo-hitman-reborn.webp",
      "imagem_pasta": "https://animefire.plus/img/animes/katekyo-hitman-reborn/",
      "secao": "legendados",
      "pagina": 152,
      "total_episodios": 104,
      "link_video": "https://animefire.plus/video/katekyo-hitman-reborn"
    },
    {
      "id": 1909,
      "nome": "Katsugeki Shoujo Tanteidan",
      "link": "https://animefire.plus/animes/katsugeki-shoujo-tanteidan-todos-os-episodios",
      "texto_original": "Katsugeki Shoujo Tanteidan",
      "rating": 4.81,
      "classificacao_etaria": null,
      "imagem_original": "https://animefire.plus/img/animes/katsugeki-shoujo-tanteidan.webp",
      "imagem_pasta": "https://animefire.plus/img/animes/katsugeki-shoujo-tanteidan/",
      "secao": "legendados",
      "pagina": 72,
      "total_episodios": 1,
      "link_video": "https://animefire.plus/video/katsugeki-shoujo-tanteidan"
    },
    {
      "id": 1910,
      "nome": "Katsugeki/Touken Ranbu",
      "link": "https://animefire.plus/animes/katsugeki-touken-ranbu-todos-os-episodios",
      "texto_original": "Katsugeki/Touken Ranbu",
      "rating": 6.79,
      "classificacao_etaria": "A14",
      "imagem_original": "https://animefire.plus/img/animes/katsugeki-touken-ranbu.webp",
      "imagem_pasta": "https://animefire.plus/img/animes/katsugeki-touken-ranbu/",
      "secao": "legendados",
      "pagina": 106,
      "total_episodios": 13,
      "link_video": "https://animefire.plus/video/katsugeki-touken-ranbu"
    },
    {
      "id": 1911,
      "nome": "Katsute Kami Datta Kemono-tachi e",
      "link": "https://animefire.plus/animes/katsute-kami-datta-kemono-tachi-e-todos-os-episodios",
      "texto_original": "Katsute Kami Datta Kemono-tachi e",
      "rating": 6.41,
      "classificacao_etaria": "A16",
      "imagem_original": "https://animefire.plus/img/animes/katsute-kami-datta-kemono-tachi-e.webp",
      "imagem_pasta": "https://animefire.plus/img/animes/katsute-kami-datta-kemono-tachi-e/",
      "secao": "legendados",
      "pagina": 112,
      "total_episodios": 0,
      "link_video": "https://animefire.plus/video/katsute-kami-datta-kemono-tachi-e"
    },
    {
      "id": 1912,
      "nome": "Katsute Mahou Shoujo to Aku wa Tekitai shiteita.",
      "link": "https://animefire.plus/animes/katsute-mahou-shoujo-to-aku-wa-tekitai-shiteita-todos-os-episodios",
      "texto_original": "Katsute Mahou Shoujo to Aku wa Tekitai shiteita.",
      "rating": 7.56,
      "classificacao_etaria": "A14",
      "imagem_original": "https://animefire.plus/img/animes/katsute-mahou-shoujo-to-aku-wa-tekitai-shiteita.webp",
      "imagem_pasta": "https://animefire.plus/img/animes/katsute-mahou-shoujo-to-aku-wa-tekitai-shiteita/",
      "secao": "legendados",
      "pagina": 13,
      "total_episodios": 12,
      "link_video": "https://animefire.plus/video/katsute-mahou-shoujo-to-aku-wa-tekitai-shiteita"
    }
  ],
  "pagination": {
    "current_page": 93,
    "per_page": 20,
    "total_items": 4269,
    "total_pages": 214,
    "has_next": true,
    "has_prev": true
  }
}
