{
  "message": "Animes da seção: legendados",
  "section": "legendados",
  "data": [
    {
      "id": 1100,
      "nome": "Game Center Shoujo to Ibunka Kouryuu",
      "link": "https://animefire.plus/animes/game-center-shoujo-to-ibunka-kouryuu-todos-os-episodios",
      "texto_original": "Game Center Shoujo to Ibunka Kouryuu",
      "rating": 6.84,
      "classificacao_etaria": "A14",
      "imagem_original": "https://animefire.plus/img/animes/game-center-shoujo-to-ibunka-kouryuu.webp",
      "imagem_pasta": "https://animefire.plus/img/animes/game-center-shoujo-to-ibunka-kouryuu/",
      "secao": "legendados,lancamentos",
      "pagina": 2,
      "total_episodios": 5,
      "link_video": "https://animefire.plus/video/game-center-shoujo-to-ibunka-kouryuu"
    },
    {
      "id": 1101,
      "nome": "Gamers!",
      "link": "https://animefire.plus/animes/gamers-todos-os-episodios",
      "texto_original": "Gamers!",
      "rating": 7.15,
      "classificacao_etaria": "A14",
      "imagem_original": "https://animefire.plus/img/animes/gamers.webp",
      "imagem_pasta": "https://animefire.plus/img/animes/gamers/",
      "secao": "legendados",
      "pagina": 178,
      "total_episodios": 12,
      "link_video": "https://animefire.plus/video/gamers"
    },
    {
      "id": 1102,
      "nome": "Ganbare Douki-chan",
      "link": "https://animefire.plus/animes/ganbare-douki-chan-todos-os-episodios",
      "texto_original": "Ganbare Douki-chan",
      "rating": 6.52,
      "classificacao_etaria": "A14",
      "imagem_original": "https://animefire.plus/img/animes/ganbare-douki-chan.webp",
      "imagem_pasta": "https://animefire.plus/img/animes/ganbare-douki-chan/",
      "secao": "legendados",
      "pagina": 39,
      "total_episodios": 12,
      "link_video": "https://animefire.plus/video/ganbare-douki-chan"
    },
    {
      "id": 1103,
      "nome": "Ganbare Douki-chan Special",
      "link": "https://animefire.plus/animes/ganbare-douki-chan-special-todos-os-episodios",
      "texto_original": "Ganbare Douki-chan Special",
      "rating": 6.4,
      "classificacao_etaria": "A14",
      "imagem_original": "https://animefire.plus/img/animes/ganbare-douki-chan-special.webp",
      "imagem_pasta": "https://animefire.plus/img/animes/ganbare-douki-chan-special/",
      "secao": "legendados",
      "pagina": 31,
      "total_episodios": 1,
      "link_video": "https://animefire.plus/video/ganbare-douki-chan-special"
    },
    {
      "id": 1104,
      "nome": "Ganbare! Kickers",
      "link": "https://animefire.plus/animes/ganbare-kickers-todos-os-episodios",
      "texto_original": "Ganbare! Kickers",
      "rating": 6.82,
      "classificacao_etaria": null,
      "imagem_original": "https://animefire.plus/img/animes/ganbare-kickers.webp",
      "imagem_pasta": "https://animefire.plus/img/animes/ganbare-kickers/",
      "secao": "legendados",
      "pagina": 84,
      "total_episodios": 0,
      "link_video": "https://animefire.plus/video/ganbare-kickers"
    },
    {
      "id": 1105,
      "nome": "Gangsta.",
      "link": "https://animefire.plus/animes/gangsta-todos-os-episodios",
      "texto_original": "Gangsta.",
      "rating": 7.45,
      "classificacao_etaria": "A16",
      "imagem_original": "https://animefire.plus/img/animes/gangsta.webp",
      "imagem_pasta": "https://animefire.plus/img/animes/gangsta/",
      "secao": "legendados",
      "pagina": 129,
      "total_episodios": 0,
      "link_video": "https://animefire.plus/video/gangsta"
    },
    {
      "id": 1106,
      "nome": "Gankutsuou (Dublado)",
      "link": "https://animefire.plus/animes/gankutsuou-dublado-todos-os-episodios",
      "texto_original": "Gankutsuou (Dublado)",
      "rating": 8.19,
      "classificacao_etaria": "A16",
      "imagem_original": "https://animefire.plus/img/animes/gankutsuou.webp",
      "imagem_pasta": "https://animefire.plus/img/animes/gankutsuou/",
      "secao": "dublados,legendados",
      "pagina": 22,
      "total_episodios": 24,
      "link_video": "https://animefire.plus/video/gankutsuou-dublado"
    },
    {
      "id": 1107,
      "nome": "Gantz (Dublado)",
      "link": "https://animefire.plus/animes/gantz-dublado-todos-os-episodios",
      "texto_original": "Gantz (Dublado)",
      "rating": 7.09,
      "classificacao_etaria": "A18",
      "imagem_original": "https://animefire.plus/img/animes/gantz.webp",
      "imagem_pasta": "https://animefire.plus/img/animes/gantz/",
      "secao": "dublados,legendados",
      "pagina": 21,
      "total_episodios": 26,
      "link_video": "https://animefire.plus/video/gantz-dublado"
    },
    {
      "id": 1108,
      "nome": "Gantz 2nd Stage",
      "link": "https://animefire.plus/animes/gantz-2nd-stage-todos-os-episodios",
      "texto_original": "Gantz 2nd Stage",
      "rating": 7.13,
      "classificacao_etaria": "A18",
      "imagem_original": "https://animefire.plus/img/animes/gantz-2nd-stage.webp",
      "imagem_pasta": "https://animefire.plus/img/animes/gantz-2nd-stage/",
      "secao": "legendados",
      "pagina": 63,
      "total_episodios": 13,
      "link_video": "https://animefire.plus/video/gantz-2nd-stage"
    },
    {
      "id": 1109,
      "nome": "Garo Movie: Divine Flame",
      "link": "https://animefire.plus/animes/garo-movie-divine-flame-todos-os-episodios",
      "texto_original": "Garo Movie: Divine Flame",
      "rating": 7.71,
      "classificacao_etaria": "A18",
      "imagem_original": "https://animefire.plus/img/animes/garo-movie-divine-flame.webp",
      "imagem_pasta": "https://animefire.plus/img/animes/garo-movie-divine-flame/",
      "secao": "legendados",
      "pagina": 96,
      "total_episodios": 2,
      "link_video": "https://animefire.plus/video/garo-movie-divine-flame"
    },
    {
      "id": 1110,
      "nome": "Garo: Guren no Tsuki",
      "link": "https://animefire.plus/animes/garo-guren-no-tsuki-todos-os-episodios",
      "texto_original": "Garo: Guren no Tsuki",
      "rating": 5.9,
      "classificacao_etaria": "A14",
      "imagem_original": "https://animefire.plus/img/animes/garo-guren-no-tsuki.webp",
      "imagem_pasta": "https://animefire.plus/img/animes/garo-guren-no-tsuki/",
      "secao": "legendados",
      "pagina": 63,
      "total_episodios": 24,
      "link_video": "https://animefire.plus/video/garo-guren-no-tsuki"
    },
    {
      "id": 1111,
      "nome": "Garo: Honoo no Kokuin",
      "link": "https://animefire.plus/animes/garo-honoo-no-kokuin-todos-os-episodios",
      "texto_original": "Garo: Honoo no Kokuin",
      "rating": 7.47,
      "classificacao_etaria": "A16",
      "imagem_original": "https://animefire.plus/img/animes/garo-honoo-no-kokuin.webp",
      "imagem_pasta": "https://animefire.plus/img/animes/garo-honoo-no-kokuin/",
      "secao": "legendados",
      "pagina": 138,
      "total_episodios": 0,
      "link_video": "https://animefire.plus/video/garo-honoo-no-kokuin"
    },
    {
      "id": 1112,
      "nome": "Garo: Vanishing Line",
      "link": "https://animefire.plus/animes/garo-vanishing-line-todos-os-episodios",
      "texto_original": "Garo: Vanishing Line",
      "rating": 7.23,
      "classificacao_etaria": "A16",
      "imagem_original": "https://animefire.plus/img/animes/garo-vanishing-line.webp",
      "imagem_pasta": "https://animefire.plus/img/animes/garo-vanishing-line/",
      "secao": "legendados",
      "pagina": 94,
      "total_episodios": 24,
      "link_video": "https://animefire.plus/video/garo-vanishing-line"
    },
    {
      "id": 1113,
      "nome": "Gasaraki",
      "link": "https://animefire.plus/animes/gasaraki-todos-os-episodios",
      "texto_original": "Gasaraki",
      "rating": 6.69,
      "classificacao_etaria": "A14",
      "imagem_original": "https://animefire.plus/img/animes/gasaraki.webp",
      "imagem_pasta": "https://animefire.plus/img/animes/gasaraki/",
      "secao": "legendados",
      "pagina": 156,
      "total_episodios": 25,
      "link_video": "https://animefire.plus/video/gasaraki"
    },
    {
      "id": 1114,
      "nome": "Gatchaman Crowds",
      "link": "https://animefire.plus/animes/gatchaman-crowds-todos-os-episodios",
      "texto_original": "Gatchaman Crowds",
      "rating": 7.39,
      "classificacao_etaria": "A14",
      "imagem_original": "https://animefire.plus/img/animes/gatchaman-crowds.webp",
      "imagem_pasta": "https://animefire.plus/img/animes/gatchaman-crowds/",
      "secao": "legendados",
      "pagina": 119,
      "total_episodios": 0,
      "link_video": "https://animefire.plus/video/gatchaman-crowds"
    },
    {
      "id": 1115,
      "nome": "Gatchaman Crowds Insight",
      "link": "https://animefire.plus/animes/gatchaman-crowds-insight-todos-os-episodios",
      "texto_original": "Gatchaman Crowds Insight",
      "rating": 7.36,
      "classificacao_etaria": "A14",
      "imagem_original": "https://animefire.plus/img/animes/gatchaman-crowds-insight.webp",
      "imagem_pasta": "https://animefire.plus/img/animes/gatchaman-crowds-insight/",
      "secao": "legendados",
      "pagina": 101,
      "total_episodios": 0,
      "link_video": "https://animefire.plus/video/gatchaman-crowds-insight"
    },
    {
      "id": 1116,
      "nome": "Gate Keepers",
      "link": "https://animefire.plus/animes/gate-keepers-todos-os-episodios",
      "texto_original": "Gate Keepers",
      "rating": 7.02,
      "classificacao_etaria": "A14",
      "imagem_original": "https://animefire.plus/img/animes/gate-keepers.webp",
      "imagem_pasta": "https://animefire.plus/img/animes/gate-keepers/",
      "secao": "legendados",
      "pagina": 105,
      "total_episodios": 24,
      "link_video": "https://animefire.plus/video/gate-keepers"
    },
    {
      "id": 1117,
      "nome": "Gate Keepers 21",
      "link": "https://animefire.plus/animes/gate-keepers-21-todos-os-episodios",
      "texto_original": "Gate Keepers 21",
      "rating": 6.84,
      "classificacao_etaria": "A14",
      "imagem_original": "https://animefire.plus/img/animes/gate-keepers-21.webp",
      "imagem_pasta": "https://animefire.plus/img/animes/gate-keepers-21/",
      "secao": "legendados",
      "pagina": 101,
      "total_episodios": 6,
      "link_video": "https://animefire.plus/video/gate-keepers-21"
    },
    {
      "id": 1118,
      "nome": "Gate: Jieitai Kanochi Nite, Kaku Tatakaeri",
      "link": "https://animefire.plus/animes/gate-jieitai-kanochi-nite-kaku-tatakaeri-todos-os-episodios",
      "texto_original": "Gate: Jieitai Kanochi Nite, Kaku Tatakaeri",
      "rating": 7.85,
      "classificacao_etaria": "A16",
      "imagem_original": "https://animefire.plus/img/animes/gate-jieitai-kanochi-nite-kaku-tatakaeri.webp",
      "imagem_pasta": "https://animefire.plus/img/animes/gate-jieitai-kanochi-nite-kaku-tatakaeri/",
      "secao": "legendados",
      "pagina": 105,
      "total_episodios": 0,
      "link_video": "https://animefire.plus/video/gate-jieitai-kanochi-nite-kaku-tatakaeri"
    },
    {
      "id": 1119,
      "nome": "Gate: Jieitai Kanochi nite, Kaku Tatakaeri 2nd Season",
      "link": "https://animefire.plus/animes/gate-jieitai-kanochi-nite-kaku-tatakaeri-2nd-season-todos-os-episodios",
      "texto_original": "Gate: Jieitai Kanochi nite, Kaku Tatakaeri 2nd Season",
      "rating": 7.82,
      "classificacao_etaria": "A16",
      "imagem_original": "https://animefire.plus/img/animes/gate-jieitai-kanochi-nite-kaku-tatakaeri-2nd-season.webp",
      "imagem_pasta": "https://animefire.plus/img/animes/gate-jieitai-kanochi-nite-kaku-tatakaeri-2nd-season/",
      "secao": "legendados",
      "pagina": 58,
      "total_episodios": 0,
      "link_video": "https://animefire.plus/video/gate-jieitai-kanochi-nite-kaku-tatakaeri-2nd-season"
    }
  ],
  "pagination": {
    "current_page": 54,
    "per_page": 20,
    "total_items": 4269,
    "total_pages": 214,
    "has_next": true,
    "has_prev": true
  }
}
