{
  "message": "Animes da seção: legendados",
  "section": "legendados",
  "data": [
    {
      "id": 2809,
      "nome": "Oide yo Mahou Shoujo Mura (Fuhou Senkyo)",
      "link": "https://animefire.plus/animes/oide-yo-mahou-shoujo-mura-fuhou-senkyo-todos-os-episodios",
      "texto_original": "Oide yo Mahou Shoujo Mura (Fuhou Senkyo)",
      "rating": null,
      "classificacao_etaria": "A14",
      "imagem_original": "https://animefire.plus/img/animes/oide-yo-mahou-shoujo-mura-fuhou-senkyo.webp",
      "imagem_pasta": "https://animefire.plus/img/animes/oide-yo-mahou-shoujo-mura-fuhou-senkyo/",
      "secao": "legendados,lancamentos",
      "pagina": 3,
      "total_episodios": 0,
      "link_video": "https://animefire.plus/video/oide-yo-mahou-shoujo-mura-fuhou-senkyo"
    },
    {
      "id": 2810,
      "nome": "Ojamajo Doremi",
      "link": "https://animefire.plus/animes/ojamajo-doremi-todos-os-episodios",
      "texto_original": "Ojamajo Doremi",
      "rating": 7.2,
      "classificacao_etaria": null,
      "imagem_original": "https://animefire.plus/img/animes/ojamajo-doremi.webp",
      "imagem_pasta": "https://animefire.plus/img/animes/ojamajo-doremi/",
      "secao": "legendados",
      "pagina": 59,
      "total_episodios": 10,
      "link_video": "https://animefire.plus/video/ojamajo-doremi"
    },
    {
      "id": 2811,
      "nome": "Ojisan to Marshmallow",
      "link": "https://animefire.plus/animes/ojisan-to-marshmallow-todos-os-episodios",
      "texto_original": "Ojisan to Marshmallow",
      "rating": 6.63,
      "classificacao_etaria": "A14",
      "imagem_original": "https://animefire.plus/img/animes/ojisan-to-marshmallow.webp",
      "imagem_pasta": "https://animefire.plus/img/animes/ojisan-to-marshmallow/",
      "secao": "legendados",
      "pagina": 62,
      "total_episodios": 1,
      "link_video": "https://animefire.plus/video/ojisan-to-marshmallow"
    },
    {
      "id": 2812,
      "nome": "Ojou to Banken-kun",
      "link": "https://animefire.plus/animes/ojou-to-banken-kun-todos-os-episodios",
      "texto_original": "Ojou to Banken-kun",
      "rating": 5.67,
      "classificacao_etaria": "A14",
      "imagem_original": "https://animefire.plus/img/animes/ojou-to-banken-kun.webp",
      "imagem_pasta": "https://animefire.plus/img/animes/ojou-to-banken-kun/",
      "secao": "legendados",
      "pagina": 21,
      "total_episodios": 13,
      "link_video": "https://animefire.plus/video/ojou-to-banken-kun"
    },
    {
      "id": 2813,
      "nome": "Okashi na Tensei",
      "link": "https://animefire.plus/animes/okashi-na-tensei-todos-os-episodios",
      "texto_original": "Okashi na Tensei",
      "rating": 6.7,
      "classificacao_etaria": "A14",
      "imagem_original": "https://animefire.plus/img/animes/okashi-na-tensei.jpg",
      "imagem_pasta": "https://animefire.plus/img/animes/okashi-na-tensei/",
      "secao": "legendados",
      "pagina": 22,
      "total_episodios": 12,
      "link_video": "https://animefire.plus/video/okashi-na-tensei"
    },
    {
      "id": 2814,
      "nome": "Okinawa de Suki ni Natta Ko ga Hougen Sugite Tsurasugiru",
      "link": "https://animefire.plus/animes/okinawa-de-suki-ni-natta-ko-ga-hougen-sugite-tsurasugiru-todos-os-episodios",
      "texto_original": "Okinawa de Suki ni Natta Ko ga Hougen Sugite Tsurasugiru",
      "rating": 7.1,
      "classificacao_etaria": "A14",
      "imagem_original": "https://animefire.plus/img/animes/okinawa-de-suki-ni-natta-ko-ga-hougen-sugite-tsurasugiru.webp",
      "imagem_pasta": "https://animefire.plus/img/animes/okinawa-de-suki-ni-natta-ko-ga-hougen-sugite-tsurasugiru/",
      "secao": "legendados",
      "pagina": 8,
      "total_episodios": 12,
      "link_video": "https://animefire.plus/video/okinawa-de-suki-ni-natta-ko-ga-hougen-sugite-tsurasugiru"
    },
    {
      "id": 2815,
      "nome": "Okusama ga Seitokaichou!",
      "link": "https://animefire.plus/animes/okusama-ga-seitokaichou-todos-os-episodios",
      "texto_original": "Okusama ga Seitokaichou!",
      "rating": 6.8,
      "classificacao_etaria": "A18",
      "imagem_original": "https://animefire.plus/img/animes/okusama-ga-seitokaichou.webp",
      "imagem_pasta": "https://animefire.plus/img/animes/okusama-ga-seitokaichou/",
      "secao": "legendados",
      "pagina": 140,
      "total_episodios": 0,
      "link_video": "https://animefire.plus/video/okusama-ga-seitokaichou"
    },
    {
      "id": 2816,
      "nome": "Okusama ga Seitokaichou!: Seitokaichou to Ofuro Asobi",
      "link": "https://animefire.plus/animes/okusama-ga-seitokaichou-seitokaichou-to-ofuro-asobi-todos-os-episodios",
      "texto_original": "Okusama ga Seitokaichou!: Seitokaichou to Ofuro Asobi",
      "rating": 6.82,
      "classificacao_etaria": "A18",
      "imagem_original": "https://animefire.plus/img/animes/okusama-ga-seitokaichou-seitokaichou-to-ofuro-asobi.webp",
      "imagem_pasta": "https://animefire.plus/img/animes/okusama-ga-seitokaichou-seitokaichou-to-ofuro-asobi/",
      "secao": "legendados",
      "pagina": 59,
      "total_episodios": 1,
      "link_video": "https://animefire.plus/video/okusama-ga-seitokaichou-seitokaichou-to-ofuro-asobi"
    },
    {
      "id": 2817,
      "nome": "Okusama ga Seitokaichou!+!",
      "link": "https://animefire.plus/animes/my-wife-is-the-student-council-president-todos-os-episodios",
      "texto_original": "Okusama ga Seitokaichou!+!",
      "rating": 6.7,
      "classificacao_etaria": "A18",
      "imagem_original": "https://animefire.plus/img/animes/my-wife-is-the-student-council-president.webp",
      "imagem_pasta": "https://animefire.plus/img/animes/my-wife-is-the-student-council-president/",
      "secao": "legendados",
      "pagina": 59,
      "total_episodios": 12,
      "link_video": "https://animefire.plus/video/my-wife-is-the-student-council-president"
    },
    {
      "id": 2818,
      "nome": "Okusama wa Joshikousei (TV)",
      "link": "https://animefire.plus/animes/okusama-wa-joshikousei-tv-todos-os-episodios",
      "texto_original": "Okusama wa Joshikousei (TV)",
      "rating": 6.41,
      "classificacao_etaria": "A14",
      "imagem_original": "https://animefire.plus/img/animes/okusama-wa-joshikousei-tv.webp",
      "imagem_pasta": "https://animefire.plus/img/animes/okusama-wa-joshikousei-tv/",
      "secao": "legendados",
      "pagina": 159,
      "total_episodios": 13,
      "link_video": "https://animefire.plus/video/okusama-wa-joshikousei-tv"
    },
    {
      "id": 2819,
      "nome": "Okusama wa Mahou Shoujo",
      "link": "https://animefire.plus/animes/okusama-wa-mahou-shoujo-todos-os-episodios",
      "texto_original": "Okusama wa Mahou Shoujo",
      "rating": 6.36,
      "classificacao_etaria": "A14",
      "imagem_original": "https://animefire.plus/img/animes/okusama-wa-mahou-shoujo.webp",
      "imagem_pasta": "https://animefire.plus/img/animes/okusama-wa-mahou-shoujo/",
      "secao": "legendados",
      "pagina": 146,
      "total_episodios": 13,
      "link_video": "https://animefire.plus/video/okusama-wa-mahou-shoujo"
    },
    {
      "id": 2820,
      "nome": "Olympia Kyklos",
      "link": "https://animefire.plus/animes/olympia-kyklos-todos-os-episodios",
      "texto_original": "Olympia Kyklos",
      "rating": 7.02,
      "classificacao_etaria": "A14",
      "imagem_original": "https://animefire.plus/img/animes/olympia-kyklos.webp",
      "imagem_pasta": "https://animefire.plus/img/animes/olympia-kyklos/",
      "secao": "legendados,lancamentos",
      "pagina": 79,
      "total_episodios": 0,
      "link_video": "https://animefire.plus/video/olympia-kyklos"
    },
    {
      "id": 2821,
      "nome": "Omae wa Mada Gunma wo Shiranai",
      "link": "https://animefire.plus/animes/omae-wa-mada-gunma-wo-shiranai-todos-os-episodios",
      "texto_original": "Omae wa Mada Gunma wo Shiranai",
      "rating": 5.26,
      "classificacao_etaria": "A14",
      "imagem_original": "https://animefire.plus/img/animes/omae-wa-mada-gunma-wo-shiranai.webp",
      "imagem_pasta": "https://animefire.plus/img/animes/omae-wa-mada-gunma-wo-shiranai/",
      "secao": "legendados",
      "pagina": 136,
      "total_episodios": 12,
      "link_video": "https://animefire.plus/video/omae-wa-mada-gunma-wo-shiranai"
    },
    {
      "id": 2822,
      "nome": "Omamori Himari",
      "link": "https://animefire.plus/animes/omamori-himari-todos-os-episodios",
      "texto_original": "Omamori Himari",
      "rating": 7.06,
      "classificacao_etaria": "A18",
      "imagem_original": "https://animefire.plus/img/animes/omamori-himari.webp",
      "imagem_pasta": "https://animefire.plus/img/animes/omamori-himari/",
      "secao": "legendados",
      "pagina": 124,
      "total_episodios": 0,
      "link_video": "https://animefire.plus/video/omamori-himari"
    },
    {
      "id": 2823,
      "nome": "Omishi Mahou Gekijou: Risky★Safety",
      "link": "https://animefire.plus/animes/omishi-mahou-gekijou-risky-safety-todos-os-episodios",
      "texto_original": "Omishi Mahou Gekijou: Risky★Safety",
      "rating": 6.76,
      "classificacao_etaria": "A10",
      "imagem_original": "https://animefire.plus/img/animes/omishi-mahou-gekijou-risky-safety.webp",
      "imagem_pasta": "https://animefire.plus/img/animes/omishi-mahou-gekijou-risky-safety/",
      "secao": "legendados",
      "pagina": 144,
      "total_episodios": 24,
      "link_video": "https://animefire.plus/video/omishi-mahou-gekijou-risky-safety"
    },
    {
      "id": 2824,
      "nome": "Omoi No Kakera",
      "link": "https://animefire.plus/animes/omoi-no-kakera-todos-os-episodios",
      "texto_original": "Omoi No Kakera",
      "rating": 6.58,
      "classificacao_etaria": "A14",
      "imagem_original": "https://animefire.plus/img/animes/omoi-no-kakera.webp",
      "imagem_pasta": "https://animefire.plus/img/animes/omoi-no-kakera/",
      "secao": "legendados",
      "pagina": 101,
      "total_episodios": 1,
      "link_video": "https://animefire.plus/video/omoi-no-kakera"
    },
    {
      "id": 2825,
      "nome": "One Outs",
      "link": "https://animefire.plus/animes/one-outs-todos-os-episodios",
      "texto_original": "One Outs",
      "rating": 8.39,
      "classificacao_etaria": "A14",
      "imagem_original": "https://animefire.plus/img/animes/one-outs.webp",
      "imagem_pasta": "https://animefire.plus/img/animes/one-outs/",
      "secao": "legendados",
      "pagina": 114,
      "total_episodios": 25,
      "link_video": "https://animefire.plus/video/one-outs"
    },
    {
      "id": 2826,
      "nome": "One Piece (Dublado)",
      "link": "https://animefire.plus/animes/one-piece-dublado-todos-os-episodios",
      "texto_original": "One Piece (Dublado)",
      "rating": 8.49,
      "classificacao_etaria": "A14",
      "imagem_original": "https://animefire.plus/img/animes/one-piece.webp",
      "imagem_pasta": "https://animefire.plus/img/animes/one-piece/",
      "secao": "dublados,legendados,lancamentos",
      "pagina": 20,
      "total_episodios": 834,
      "link_video": "https://animefire.plus/video/one-piece-dublado"
    },
    {
      "id": 2827,
      "nome": "One Piece 3D2Y: Ace no shi wo Koete! Luffy Nakama Tono Chikai",
      "link": "https://animefire.plus/animes/one-piece-3d2y-ace-no-shi-wo-koete-luffy-nakama-tono-chikai-todos-os-episodios",
      "texto_original": "One Piece 3D2Y: Ace no shi wo Koete! Luffy Nakama Tono Chikai",
      "rating": 7.97,
      "classificacao_etaria": "A14",
      "imagem_original": "https://animefire.plus/img/animes/one-piece-3d2y-ace-no-shi-wo-koete-luffy-nakama-tono-chikai.webp",
      "imagem_pasta": "https://animefire.plus/img/animes/one-piece-3d2y-ace-no-shi-wo-koete-luffy-nakama-tono-chikai/",
      "secao": "legendados",
      "pagina": 77,
      "total_episodios": 1,
      "link_video": "https://animefire.plus/video/one-piece-3d2y-ace-no-shi-wo-koete-luffy-nakama-tono-chikai"
    },
    {
      "id": 2828,
      "nome": "One Piece Film: Strong World Episode 0",
      "link": "https://animefire.plus/animes/one-piece-film-strong-world-episode-0-todos-os-episodios",
      "texto_original": "One Piece Film: Strong World Episode 0",
      "rating": 8.04,
      "classificacao_etaria": "A14",
      "imagem_original": "https://animefire.plus/img/animes/one-piece-film-strong-world-episode-0.webp",
      "imagem_pasta": "https://animefire.plus/img/animes/one-piece-film-strong-world-episode-0/",
      "secao": "legendados",
      "pagina": 77,
      "total_episodios": 1,
      "link_video": "https://animefire.plus/video/one-piece-film-strong-world-episode-0"
    }
  ],
  "pagination": {
    "current_page": 138,
    "per_page": 20,
    "total_items": 4269,
    "total_pages": 214,
    "has_next": true,
    "has_prev": true
  }
}
