{
  "message": "Animes da seção: legendados",
  "section": "legendados",
  "data": [
    {
      "id": 1163,
      "nome": "Ginga e Kickoff!!",
      "link": "https://animefire.plus/animes/ginga-e-kickoff-todos-os-episodios",
      "texto_original": "Ginga e Kickoff!!",
      "rating": 7.33,
      "classificacao_etaria": "A10",
      "imagem_original": "https://animefire.plus/img/animes/ginga-e-kickoff.webp",
      "imagem_pasta": "https://animefire.plus/img/animes/ginga-e-kickoff/",
      "secao": "legendados",
      "pagina": 135,
      "total_episodios": 22,
      "link_video": "https://animefire.plus/video/ginga-e-kickoff"
    },
    {
      "id": 1164,
      "nome": "Ginga Eiyuu Densetsu",
      "link": "https://animefire.plus/animes/ginga-eiyuu-densetsu-todos-os-episodios",
      "texto_original": "Ginga Eiyuu Densetsu",
      "rating": 9.06,
      "classificacao_etaria": "A16",
      "imagem_original": "https://animefire.plus/img/animes/ginga-eiyuu-densetsu.webp",
      "imagem_pasta": "https://animefire.plus/img/animes/ginga-eiyuu-densetsu/",
      "secao": "legendados",
      "pagina": 42,
      "total_episodios": 110,
      "link_video": "https://animefire.plus/video/ginga-eiyuu-densetsu"
    },
    {
      "id": 1165,
      "nome": "Ginga Eiyuu Densetsu: Die Neue These - Kaikou",
      "link": "https://animefire.plus/animes/ginga-eiyuu-densetsu-die-neue-these---kaikou-todos-os-episodios",
      "texto_original": "Ginga Eiyuu Densetsu: Die Neue These - Kaikou",
      "rating": 7.64,
      "classificacao_etaria": "A16",
      "imagem_original": "https://animefire.plus/img/animes/ginga-eiyuu-densetsu-die-neue-these---kaikou.webp",
      "imagem_pasta": "https://animefire.plus/img/animes/ginga-eiyuu-densetsu-die-neue-these---kaikou/",
      "secao": "legendados",
      "pagina": 177,
      "total_episodios": 10,
      "link_video": "https://animefire.plus/video/ginga-eiyuu-densetsu-die-neue-these---kaikou"
    },
    {
      "id": 1166,
      "nome": "Ginga Hyouryuu Vifam",
      "link": "https://animefire.plus/animes/ginga-hyouryuu-vifam-todos-os-episodios",
      "texto_original": "Ginga Hyouryuu Vifam",
      "rating": 7.09,
      "classificacao_etaria": null,
      "imagem_original": "https://animefire.plus/img/animes/ginga-hyouryuu-vifam.webp",
      "imagem_pasta": "https://animefire.plus/img/animes/ginga-hyouryuu-vifam/",
      "secao": "legendados",
      "pagina": 65,
      "total_episodios": 46,
      "link_video": "https://animefire.plus/video/ginga-hyouryuu-vifam"
    },
    {
      "id": 1167,
      "nome": "Ginga Kikoutai Majestic Prince",
      "link": "https://animefire.plus/animes/ginga-kikoutai-majestic-prince-todos-os-episodios",
      "texto_original": "Ginga Kikoutai Majestic Prince",
      "rating": 7.4,
      "classificacao_etaria": "A14",
      "imagem_original": "https://animefire.plus/img/animes/ginga-kikoutai-majestic-prince.webp",
      "imagem_pasta": "https://animefire.plus/img/animes/ginga-kikoutai-majestic-prince/",
      "secao": "legendados",
      "pagina": 175,
      "total_episodios": 24,
      "link_video": "https://animefire.plus/video/ginga-kikoutai-majestic-prince"
    },
    {
      "id": 1168,
      "nome": "Ginga Nagareboshi Gin",
      "link": "https://animefire.plus/animes/ginga-nagareboshi-gin-todos-os-episodios",
      "texto_original": "Ginga Nagareboshi Gin",
      "rating": 8.05,
      "classificacao_etaria": "A14",
      "imagem_original": "https://animefire.plus/img/animes/ginga-nagareboshi-gin.webp",
      "imagem_pasta": "https://animefire.plus/img/animes/ginga-nagareboshi-gin/",
      "secao": "legendados",
      "pagina": 56,
      "total_episodios": 21,
      "link_video": "https://animefire.plus/video/ginga-nagareboshi-gin"
    },
    {
      "id": 1169,
      "nome": "Ginga Tokkyuu Milky☆Subway",
      "link": "https://animefire.plus/animes/ginga-tokkyuu-milky-subway-todos-os-episodios",
      "texto_original": "Ginga Tokkyuu Milky☆Subway",
      "rating": null,
      "classificacao_etaria": null,
      "imagem_original": "https://animefire.plus/img/animes/ginga-tokkyuu-milky-subway.webp",
      "imagem_pasta": "https://animefire.plus/img/animes/ginga-tokkyuu-milky-subway/",
      "secao": "legendados,lancamentos",
      "pagina": 1,
      "total_episodios": 0,
      "link_video": "https://animefire.plus/video/ginga-tokkyuu-milky-subway"
    },
    {
      "id": 1170,
      "nome": "Gingitsune",
      "link": "https://animefire.plus/animes/gingitsune-todos-os-episodios",
      "texto_original": "Gingitsune",
      "rating": 7.21,
      "classificacao_etaria": "A14",
      "imagem_original": "https://animefire.plus/img/animes/gingitsune.webp",
      "imagem_pasta": "https://animefire.plus/img/animes/gingitsune/",
      "secao": "legendados",
      "pagina": 94,
      "total_episodios": 12,
      "link_video": "https://animefire.plus/video/gingitsune"
    },
    {
      "id": 1171,
      "nome": "Gintama",
      "link": "https://animefire.plus/animes/gintama-todos-os-episodios",
      "texto_original": "Gintama",
      "rating": 8.98,
      "classificacao_etaria": "A14",
      "imagem_original": "https://animefire.plus/img/animes/gintama.webp",
      "imagem_pasta": "https://animefire.plus/img/animes/gintama/",
      "secao": "legendados",
      "pagina": 74,
      "total_episodios": 24,
      "link_video": "https://animefire.plus/video/gintama"
    },
    {
      "id": 1172,
      "nome": "Gintama: Dai Hanseikai",
      "link": "https://animefire.plus/animes/gintama-dai-hanseikai-todos-os-episodios",
      "texto_original": "Gintama: Dai Hanseikai",
      "rating": 8.07,
      "classificacao_etaria": "A14",
      "imagem_original": "https://animefire.plus/img/animes/gintama-dai-hanseikai.webp",
      "imagem_pasta": "https://animefire.plus/img/animes/gintama-dai-hanseikai/",
      "secao": "legendados",
      "pagina": 67,
      "total_episodios": 1,
      "link_video": "https://animefire.plus/video/gintama-dai-hanseikai"
    },
    {
      "id": 1173,
      "nome": "Gintama: Monster Strike-hen",
      "link": "https://animefire.plus/animes/gintama-monster-strike-hen-todos-os-episodios",
      "texto_original": "Gintama: Monster Strike-hen",
      "rating": 7.35,
      "classificacao_etaria": "A14",
      "imagem_original": "https://animefire.plus/img/animes/gintama-monster-strike-hen.webp",
      "imagem_pasta": "https://animefire.plus/img/animes/gintama-monster-strike-hen/",
      "secao": "legendados",
      "pagina": 94,
      "total_episodios": 1,
      "link_video": "https://animefire.plus/video/gintama-monster-strike-hen"
    },
    {
      "id": 1174,
      "nome": "Gintama: Nanigoto mo Saiyo ga Kanjin nano de Tasho Senobisuru Kurai ga Choudoyoi",
      "link": "https://animefire.plus/animes/gintama-nanigoto-mo-saiyo-ga-kanjin-nano-de-tasho-senobisuru-kurai-ga-choudoyoi-todos-os-episodios",
      "texto_original": "Gintama: Nanigoto mo Saiyo ga Kanjin nano de Tasho Senobisuru Kurai ga Choudoyoi",
      "rating": 8.09,
      "classificacao_etaria": "A14",
      "imagem_original": "https://animefire.plus/img/animes/gintama-nanigoto-mo-saiyo-ga-kanjin-nano-de-tasho-senobisuru-kurai-ga-choudoyoi.webp",
      "imagem_pasta": "https://animefire.plus/img/animes/gintama-nanigoto-mo-saiyo-ga-kanjin-nano-de-tasho-senobisuru-kurai-ga-choudoyoi/",
      "secao": "legendados",
      "pagina": 67,
      "total_episodios": 1,
      "link_video": "https://animefire.plus/video/gintama-nanigoto-mo-saiyo-ga-kanjin-nano-de-tasho-senobisuru-kurai-ga-choudoyoi"
    },
    {
      "id": 1175,
      "nome": "Gintama: Shinyaku Benizakura-hen",
      "link": "https://animefire.plus/animes/gintama-shinyaku-benizakura-hen-todos-os-episodios",
      "texto_original": "Gintama: Shinyaku Benizakura-hen",
      "rating": 8.27,
      "classificacao_etaria": "A14",
      "imagem_original": "https://animefire.plus/img/animes/gintama-shinyaku-benizakura-hen.webp",
      "imagem_pasta": "https://animefire.plus/img/animes/gintama-shinyaku-benizakura-hen/",
      "secao": "legendados",
      "pagina": 68,
      "total_episodios": 1,
      "link_video": "https://animefire.plus/video/gintama-shinyaku-benizakura-hen"
    },
    {
      "id": 1176,
      "nome": "Gintama: Shiroyasha Koutan",
      "link": "https://animefire.plus/animes/gintama-shiroyasha-koutan-todos-os-episodios",
      "texto_original": "Gintama: Shiroyasha Koutan",
      "rating": 8.34,
      "classificacao_etaria": "A14",
      "imagem_original": "https://animefire.plus/img/animes/gintama-shiroyasha-koutan.webp",
      "imagem_pasta": "https://animefire.plus/img/animes/gintama-shiroyasha-koutan/",
      "secao": "legendados",
      "pagina": 67,
      "total_episodios": 1,
      "link_video": "https://animefire.plus/video/gintama-shiroyasha-koutan"
    },
    {
      "id": 1177,
      "nome": "Gintama: The Semi-Final",
      "link": "https://animefire.plus/animes/gintama-the-semi-final-todos-os-episodios",
      "texto_original": "Gintama: The Semi-Final",
      "rating": 8.46,
      "classificacao_etaria": "A14",
      "imagem_original": "https://animefire.plus/img/animes/gintama-the-semi-final.webp",
      "imagem_pasta": "https://animefire.plus/img/animes/gintama-the-semi-final/",
      "secao": "legendados",
      "pagina": 36,
      "total_episodios": 2,
      "link_video": "https://animefire.plus/video/gintama-the-semi-final"
    },
    {
      "id": 1178,
      "nome": "Gintama.",
      "link": "https://animefire.plus/animes/gintama-season-5-todos-os-episodios",
      "texto_original": "Gintama.",
      "rating": 8.98,
      "classificacao_etaria": "A14",
      "imagem_original": "https://animefire.plus/img/animes/gintama-season-5.webp",
      "imagem_pasta": "https://animefire.plus/img/animes/gintama-season-5/",
      "secao": "legendados",
      "pagina": 53,
      "total_episodios": 12,
      "link_video": "https://animefire.plus/video/gintama-season-5"
    },
    {
      "id": 1179,
      "nome": "Gintama.: Porori-hen",
      "link": "https://animefire.plus/animes/gintama-porori-hen-todos-os-episodios",
      "texto_original": "Gintama.: Porori-hen",
      "rating": 8.54,
      "classificacao_etaria": "A14",
      "imagem_original": "https://animefire.plus/img/animes/gintama-porori-hen.webp",
      "imagem_pasta": "https://animefire.plus/img/animes/gintama-porori-hen/",
      "secao": "legendados",
      "pagina": 74,
      "total_episodios": 13,
      "link_video": "https://animefire.plus/video/gintama-porori-hen"
    },
    {
      "id": 1180,
      "nome": "Gintama.: Shirogane no Tamashii-hen",
      "link": "https://animefire.plus/animes/gintama-shirogane-no-tamashii-hen-todos-os-episodios",
      "texto_original": "Gintama.: Shirogane no Tamashii-hen",
      "rating": 8.79,
      "classificacao_etaria": "A14",
      "imagem_original": "https://animefire.plus/img/animes/gintama-shirogane-no-tamashii-hen.webp",
      "imagem_pasta": "https://animefire.plus/img/animes/gintama-shirogane-no-tamashii-hen/",
      "secao": "legendados",
      "pagina": 74,
      "total_episodios": 12,
      "link_video": "https://animefire.plus/video/gintama-shirogane-no-tamashii-hen"
    },
    {
      "id": 1181,
      "nome": "Gintama.: Shirogane no Tamashii-hen - Kouhan-sen",
      "link": "https://animefire.plus/animes/gintama-shirogane-no-tamashii-hen---kouhan-sen-todos-os-episodios",
      "texto_original": "Gintama.: Shirogane no Tamashii-hen - Kouhan-sen",
      "rating": 8.84,
      "classificacao_etaria": "A14",
      "imagem_original": "https://animefire.plus/img/animes/gintama-shirogane-no-tamashii-hen---kouhan-sen.webp",
      "imagem_pasta": "https://animefire.plus/img/animes/gintama-shirogane-no-tamashii-hen---kouhan-sen/",
      "secao": "legendados",
      "pagina": 74,
      "total_episodios": 14,
      "link_video": "https://animefire.plus/video/gintama-shirogane-no-tamashii-hen---kouhan-sen"
    },
    {
      "id": 1182,
      "nome": "Gintama'",
      "link": "https://animefire.plus/animes/gintama-season-2-todos-os-episodios",
      "texto_original": "Gintama'",
      "rating": 9.09,
      "classificacao_etaria": "A14",
      "imagem_original": "https://animefire.plus/img/animes/gintama-season-2.webp",
      "imagem_pasta": "https://animefire.plus/img/animes/gintama-season-2/",
      "secao": "legendados",
      "pagina": 53,
      "total_episodios": 51,
      "link_video": "https://animefire.plus/video/gintama-season-2"
    }
  ],
  "pagination": {
    "current_page": 57,
    "per_page": 20,
    "total_items": 4269,
    "total_pages": 214,
    "has_next": true,
    "has_prev": true
  }
}
