{
  "message": "Animes da seção: legendados",
  "section": "legendados",
  "data": [
    {
      "id": 3908,
      "nome": "Tondemo Skill de Isekai Hourou Meshi",
      "link": "https://animefire.plus/animes/tondemo-skill-de-isekai-hourou-meshi-todos-os-episodios",
      "texto_original": "Tondemo Skill de Isekai Hourou Meshi",
      "rating": 7.64,
      "classificacao_etaria": "A14",
      "imagem_original": "https://animefire.plus/img/animes/tondemo-skill-de-isekai-hourou-meshi.webp",
      "imagem_pasta": "https://animefire.plus/img/animes/tondemo-skill-de-isekai-hourou-meshi/",
      "secao": "legendados",
      "pagina": 26,
      "total_episodios": 12,
      "link_video": "https://animefire.plus/video/tondemo-skill-de-isekai-hourou-meshi"
    },
    {
      "id": 3909,
      "nome": "Tong Ling Fei",
      "link": "https://animefire.plus/animes/tong-ling-fei-todos-os-episodios",
      "texto_original": "Tong Ling Fei",
      "rating": 8.04,
      "classificacao_etaria": "A14",
      "imagem_original": "https://animefire.plus/img/animes/tong-ling-fei.webp",
      "imagem_pasta": "https://animefire.plus/img/animes/tong-ling-fei/",
      "secao": "legendados",
      "pagina": 128,
      "total_episodios": 16,
      "link_video": "https://animefire.plus/video/tong-ling-fei"
    },
    {
      "id": 3910,
      "nome": "Tong Zhi Zhe",
      "link": "https://animefire.plus/animes/tong-zhi-zhe-todos-os-episodios",
      "texto_original": "Tong Zhi Zhe",
      "rating": 6.64,
      "classificacao_etaria": "A16",
      "imagem_original": "https://animefire.plus/img/animes/tong-zhi-zhe.webp",
      "imagem_pasta": "https://animefire.plus/img/animes/tong-zhi-zhe/",
      "secao": "legendados",
      "pagina": 160,
      "total_episodios": 10,
      "link_video": "https://animefire.plus/video/tong-zhi-zhe"
    },
    {
      "id": 3911,
      "nome": "Tonikaku Kawaii (Dublado)",
      "link": "https://animefire.plus/animes/tonikaku-kawaii-dublado-todos-os-episodios",
      "texto_original": "Tonikaku Kawaii (Dublado)",
      "rating": 7.96,
      "classificacao_etaria": "A14",
      "imagem_original": "https://animefire.plus/img/animes/tonikaku-kawaii.webp",
      "imagem_pasta": "https://animefire.plus/img/animes/tonikaku-kawaii/",
      "secao": "dublados,legendados,lancamentos",
      "pagina": 19,
      "total_episodios": 11,
      "link_video": "https://animefire.plus/video/tonikaku-kawaii-dublado"
    },
    {
      "id": 3912,
      "nome": "Tonikaku Kawaii 2nd Season (Dublado)",
      "link": "https://animefire.plus/animes/tonikaku-kawaii-2nd-season-dublado-todos-os-episodios",
      "texto_original": "Tonikaku Kawaii 2nd Season (Dublado)",
      "rating": 7.62,
      "classificacao_etaria": "A14",
      "imagem_original": "https://animefire.plus/img/animes/tonikaku-kawaii-2nd-season.webp",
      "imagem_pasta": "https://animefire.plus/img/animes/tonikaku-kawaii-2nd-season/",
      "secao": "dublados,legendados",
      "pagina": 7,
      "total_episodios": 12,
      "link_video": "https://animefire.plus/video/tonikaku-kawaii-2nd-season-dublado"
    },
    {
      "id": 3913,
      "nome": "Tonikaku Kawaii: Joshikou-hen (Dublado)",
      "link": "https://animefire.plus/animes/tonikaku-kawaii-joshikou-hen-dublado-todos-os-episodios",
      "texto_original": "Tonikaku Kawaii: Joshikou-hen (Dublado)",
      "rating": 7.76,
      "classificacao_etaria": "A14",
      "imagem_original": "https://animefire.plus/img/animes/tonikaku-kawaii-joshikou-hen.webp",
      "imagem_pasta": "https://animefire.plus/img/animes/tonikaku-kawaii-joshikou-hen/",
      "secao": "dublados,legendados",
      "pagina": 7,
      "total_episodios": 4,
      "link_video": "https://animefire.plus/video/tonikaku-kawaii-joshikou-hen-dublado"
    },
    {
      "id": 3914,
      "nome": "Tonikaku Kawaii: Seifuku (Dublado)",
      "link": "https://animefire.plus/animes/tonikaku-kawaii-seifuku-dublado-todos-os-episodios",
      "texto_original": "Tonikaku Kawaii: Seifuku (Dublado)",
      "rating": 7.72,
      "classificacao_etaria": "A14",
      "imagem_original": "https://animefire.plus/img/animes/tonikaku-kawaii-seifuku.webp",
      "imagem_pasta": "https://animefire.plus/img/animes/tonikaku-kawaii-seifuku/",
      "secao": "dublados,legendados",
      "pagina": 6,
      "total_episodios": 1,
      "link_video": "https://animefire.plus/video/tonikaku-kawaii-seifuku-dublado"
    },
    {
      "id": 3915,
      "nome": "Tonikaku Kawaii: SNS (Dublado)",
      "link": "https://animefire.plus/animes/tonikaku-kawaii-sns-dublado-todos-os-episodios",
      "texto_original": "Tonikaku Kawaii: SNS (Dublado)",
      "rating": 8.01,
      "classificacao_etaria": "A14",
      "imagem_original": "https://animefire.plus/img/animes/tonikaku-kawaii-sns.webp",
      "imagem_pasta": "https://animefire.plus/img/animes/tonikaku-kawaii-sns/",
      "secao": "dublados,legendados",
      "pagina": 15,
      "total_episodios": 1,
      "link_video": "https://animefire.plus/video/tonikaku-kawaii-sns-dublado"
    },
    {
      "id": 3916,
      "nome": "Top wo Nerae 2! Diebuster",
      "link": "https://animefire.plus/animes/top-wo-nerae-2-diebuster-todos-os-episodios",
      "texto_original": "Top wo Nerae 2! Diebuster",
      "rating": 7.66,
      "classificacao_etaria": "A18",
      "imagem_original": "https://animefire.plus/img/animes/top-wo-nerae-2-diebuster.webp",
      "imagem_pasta": "https://animefire.plus/img/animes/top-wo-nerae-2-diebuster/",
      "secao": "legendados",
      "pagina": 41,
      "total_episodios": 6,
      "link_video": "https://animefire.plus/video/top-wo-nerae-2-diebuster"
    },
    {
      "id": 3917,
      "nome": "Top wo Nerae! Gunbuster",
      "link": "https://animefire.plus/animes/top-wo-nerae-gunbuster-todos-os-episodios",
      "texto_original": "Top wo Nerae! Gunbuster",
      "rating": 7.89,
      "classificacao_etaria": "A18",
      "imagem_original": "https://animefire.plus/img/animes/top-wo-nerae-gunbuster.webp",
      "imagem_pasta": "https://animefire.plus/img/animes/top-wo-nerae-gunbuster/",
      "secao": "legendados",
      "pagina": 53,
      "total_episodios": 1,
      "link_video": "https://animefire.plus/video/top-wo-nerae-gunbuster"
    },
    {
      "id": 3918,
      "nome": "Toradora!",
      "link": "https://animefire.plus/animes/toradora-todos-os-episodios",
      "texto_original": "Toradora!",
      "rating": 8.36,
      "classificacao_etaria": "A14",
      "imagem_original": "https://animefire.plus/img/animes/toradora.webp",
      "imagem_pasta": "https://animefire.plus/img/animes/toradora/",
      "secao": "legendados",
      "pagina": 173,
      "total_episodios": 0,
      "link_video": "https://animefire.plus/video/toradora"
    },
    {
      "id": 3919,
      "nome": "Toradora!: Bentou no Gokui",
      "link": "https://animefire.plus/animes/toradora-bentou-no-gokui-todos-os-episodios",
      "texto_original": "Toradora!: Bentou no Gokui",
      "rating": 7.48,
      "classificacao_etaria": "A14",
      "imagem_original": "https://animefire.plus/img/animes/toradora-bentou-no-gokui.webp",
      "imagem_pasta": "https://animefire.plus/img/animes/toradora-bentou-no-gokui/",
      "secao": "legendados",
      "pagina": 71,
      "total_episodios": 1,
      "link_video": "https://animefire.plus/video/toradora-bentou-no-gokui"
    },
    {
      "id": 3920,
      "nome": "Toradora!: SOS! Kuishinbou Banbanzai",
      "link": "https://animefire.plus/animes/toradora-sos-kuishinbou-banbanzai-todos-os-episodios",
      "texto_original": "Toradora!: SOS! Kuishinbou Banbanzai",
      "rating": 6.38,
      "classificacao_etaria": "A14",
      "imagem_original": "https://animefire.plus/img/animes/toradora-sos-kuishinbou-banbanzai.webp",
      "imagem_pasta": "https://animefire.plus/img/animes/toradora-sos-kuishinbou-banbanzai/",
      "secao": "legendados",
      "pagina": 71,
      "total_episodios": 4,
      "link_video": "https://animefire.plus/video/toradora-sos-kuishinbou-banbanzai"
    },
    {
      "id": 3921,
      "nome": "Toriko",
      "link": "https://animefire.plus/animes/toriko-todos-os-episodios",
      "texto_original": "Toriko",
      "rating": 7.61,
      "classificacao_etaria": "A14",
      "imagem_original": "https://animefire.plus/img/animes/toriko.webp",
      "imagem_pasta": "https://animefire.plus/img/animes/toriko/",
      "secao": "legendados",
      "pagina": 74,
      "total_episodios": 18,
      "link_video": "https://animefire.plus/video/toriko"
    },
    {
      "id": 3922,
      "nome": "Toshokan Sensou",
      "link": "https://animefire.plus/animes/toshokan-sensou-todos-os-episodios",
      "texto_original": "Toshokan Sensou",
      "rating": 7.54,
      "classificacao_etaria": "A14",
      "imagem_original": "https://animefire.plus/img/animes/toshokan-sensou.webp",
      "imagem_pasta": "https://animefire.plus/img/animes/toshokan-sensou/",
      "secao": "legendados",
      "pagina": 102,
      "total_episodios": 12,
      "link_video": "https://animefire.plus/video/toshokan-sensou"
    },
    {
      "id": 3923,
      "nome": "Totsukuni no Shoujo",
      "link": "https://animefire.plus/animes/totsukuni-no-shoujo-todos-os-episodios",
      "texto_original": "Totsukuni no Shoujo",
      "rating": 7.5,
      "classificacao_etaria": null,
      "imagem_original": "https://animefire.plus/img/animes/totsukuni-no-shoujo.webp",
      "imagem_pasta": "https://animefire.plus/img/animes/totsukuni-no-shoujo/",
      "secao": "legendados",
      "pagina": 87,
      "total_episodios": 1,
      "link_video": "https://animefire.plus/video/totsukuni-no-shoujo"
    },
    {
      "id": 3924,
      "nome": "Tougen Anki (Dublado)",
      "link": "https://animefire.plus/animes/tougen-anki-dublado-todos-os-episodios",
      "texto_original": "Tougen Anki (Dublado)",
      "rating": 7.04,
      "classificacao_etaria": "A14",
      "imagem_original": "https://animefire.plus/img/animes/tougen-anki.webp",
      "imagem_pasta": "https://animefire.plus/img/animes/tougen-anki/",
      "secao": "dublados,legendados,lancamentos",
      "pagina": 1,
      "total_episodios": 4,
      "link_video": "https://animefire.plus/video/tougen-anki-dublado"
    },
    {
      "id": 3925,
      "nome": "Touhai Densetsu Akagi: Yami ni Maiorita Tensai",
      "link": "https://animefire.plus/animes/touhai-densetsu-akagi-yami-ni-maiorita-tensai-todos-os-episodios",
      "texto_original": "Touhai Densetsu Akagi: Yami ni Maiorita Tensai",
      "rating": 7.98,
      "classificacao_etaria": "A16",
      "imagem_original": "https://animefire.plus/img/animes/touhai-densetsu-akagi-yami-ni-maiorita-tensai.webp",
      "imagem_pasta": "https://animefire.plus/img/animes/touhai-densetsu-akagi-yami-ni-maiorita-tensai/",
      "secao": "legendados",
      "pagina": 169,
      "total_episodios": 26,
      "link_video": "https://animefire.plus/video/touhai-densetsu-akagi-yami-ni-maiorita-tensai"
    },
    {
      "id": 3926,
      "nome": "Touhai: Ura Rate Mahjong Touhai Roku",
      "link": "https://animefire.plus/animes/touhai-ura-rate-mahjong-touhai-roku-todos-os-episodios",
      "texto_original": "Touhai: Ura Rate Mahjong Touhai Roku",
      "rating": 6.62,
      "classificacao_etaria": "A14",
      "imagem_original": "https://animefire.plus/img/animes/touhai-ura-rate-mahjong-touhai-roku.webp",
      "imagem_pasta": "https://animefire.plus/img/animes/touhai-ura-rate-mahjong-touhai-roku/",
      "secao": "legendados,lancamentos",
      "pagina": 10,
      "total_episodios": 5,
      "link_video": "https://animefire.plus/video/touhai-ura-rate-mahjong-touhai-roku"
    },
    {
      "id": 3927,
      "nome": "Touka Gettan",
      "link": "https://animefire.plus/animes/touka-gettan-todos-os-episodios",
      "texto_original": "Touka Gettan",
      "rating": 6.63,
      "classificacao_etaria": "A16",
      "imagem_original": "https://animefire.plus/img/animes/touka-gettan.webp",
      "imagem_pasta": "https://animefire.plus/img/animes/touka-gettan/",
      "secao": "legendados",
      "pagina": 121,
      "total_episodios": 26,
      "link_video": "https://animefire.plus/video/touka-gettan"
    }
  ],
  "pagination": {
    "current_page": 192,
    "per_page": 20,
    "total_items": 4269,
    "total_pages": 214,
    "has_next": true,
    "has_prev": true
  }
}
