{
  "message": "Animes da seção: legendados",
  "section": "legendados",
  "data": [
    {
      "id": 2829,
      "nome": "One Piece: Adventure of Nebulandia",
      "link": "https://animefire.plus/animes/one-piece-adventure-of-nebulandia-todos-os-episodios",
      "texto_original": "One Piece: Adventure of Nebulandia",
      "rating": 7.34,
      "classificacao_etaria": "A14",
      "imagem_original": "https://animefire.plus/img/animes/one-piece-adventure-of-nebulandia.webp",
      "imagem_pasta": "https://animefire.plus/img/animes/one-piece-adventure-of-nebulandia/",
      "secao": "legendados",
      "pagina": 74,
      "total_episodios": 0,
      "link_video": "https://animefire.plus/video/one-piece-adventure-of-nebulandia"
    },
    {
      "id": 2830,
      "nome": "One Piece: Episode of Luffy - Hand Island no Bouken",
      "link": "https://animefire.plus/animes/one-piece-episode-of-luffy---hand-island-no-bouken-todos-os-episodios",
      "texto_original": "One Piece: Episode of Luffy - Hand Island no Bouken",
      "rating": 7.7,
      "classificacao_etaria": "A14",
      "imagem_original": "https://animefire.plus/img/animes/one-piece-episode-of-luffy---hand-island-no-bouken.webp",
      "imagem_pasta": "https://animefire.plus/img/animes/one-piece-episode-of-luffy---hand-island-no-bouken/",
      "secao": "legendados",
      "pagina": 75,
      "total_episodios": 0,
      "link_video": "https://animefire.plus/video/one-piece-episode-of-luffy---hand-island-no-bouken"
    },
    {
      "id": 2831,
      "nome": "One Piece: Episode of Merry - Mou Hitori no Nakama no Monogatari",
      "link": "https://animefire.plus/animes/one-piece-episode-of-merry---mou-hitori-no-nakama-no-monogatari-todos-os-episodios",
      "texto_original": "One Piece: Episode of Merry - Mou Hitori no Nakama no Monogatari",
      "rating": 8.22,
      "classificacao_etaria": "A14",
      "imagem_original": "https://animefire.plus/img/animes/one-piece-episode-of-merry---mou-hitori-no-nakama-no-monogatari.webp",
      "imagem_pasta": "https://animefire.plus/img/animes/one-piece-episode-of-merry---mou-hitori-no-nakama-no-monogatari/",
      "secao": "legendados",
      "pagina": 75,
      "total_episodios": 0,
      "link_video": "https://animefire.plus/video/one-piece-episode-of-merry---mou-hitori-no-nakama-no-monogatari"
    },
    {
      "id": 2832,
      "nome": "One Piece: Episode of Nami - Koukaishi no Namida to Nakama no Kizuna",
      "link": "https://animefire.plus/animes/one-piece-episode-of-nami---koukaishi-no-namida-to-nakama-no-kizuna-todos-os-episodios",
      "texto_original": "One Piece: Episode of Nami - Koukaishi no Namida to Nakama no Kizuna",
      "rating": 8.17,
      "classificacao_etaria": "A14",
      "imagem_original": "https://animefire.plus/img/animes/one-piece-episode-of-nami---koukaishi-no-namida-to-nakama-no-kizuna.webp",
      "imagem_pasta": "https://animefire.plus/img/animes/one-piece-episode-of-nami---koukaishi-no-namida-to-nakama-no-kizuna/",
      "secao": "legendados",
      "pagina": 74,
      "total_episodios": 0,
      "link_video": "https://animefire.plus/video/one-piece-episode-of-nami---koukaishi-no-namida-to-nakama-no-kizuna"
    },
    {
      "id": 2833,
      "nome": "One Piece: Episode of Sorajima",
      "link": "https://animefire.plus/animes/one-piece-episode-of-sorajima-todos-os-episodios",
      "texto_original": "One Piece: Episode of Sorajima",
      "rating": 7.13,
      "classificacao_etaria": "A14",
      "imagem_original": "https://animefire.plus/img/animes/one-piece-episode-of-sorajima.webp",
      "imagem_pasta": "https://animefire.plus/img/animes/one-piece-episode-of-sorajima/",
      "secao": "legendados",
      "pagina": 75,
      "total_episodios": 0,
      "link_video": "https://animefire.plus/video/one-piece-episode-of-sorajima"
    },
    {
      "id": 2834,
      "nome": "One Piece: Gyojin Tou-hen",
      "link": "https://animefire.plus/animes/one-piece-gyojin-tou-hen-todos-os-episodios",
      "texto_original": "One Piece: Gyojin Tou-hen",
      "rating": 7.92,
      "classificacao_etaria": "A14",
      "imagem_original": "https://animefire.plus/img/animes/one-piece-gyojin-tou-hen.webp",
      "imagem_pasta": "https://animefire.plus/img/animes/one-piece-gyojin-tou-hen/",
      "secao": "legendados",
      "pagina": 8,
      "total_episodios": 21,
      "link_video": "https://animefire.plus/video/one-piece-gyojin-tou-hen"
    },
    {
      "id": 2835,
      "nome": "One Piece: Heart of Gold",
      "link": "https://animefire.plus/animes/one-piece-heart-of-gold-todos-os-episodios",
      "texto_original": "One Piece: Heart of Gold",
      "rating": 7.58,
      "classificacao_etaria": "A14",
      "imagem_original": "https://animefire.plus/img/animes/one-piece-heart-of-gold.webp",
      "imagem_pasta": "https://animefire.plus/img/animes/one-piece-heart-of-gold/",
      "secao": "legendados",
      "pagina": 78,
      "total_episodios": 1,
      "link_video": "https://animefire.plus/video/one-piece-heart-of-gold"
    },
    {
      "id": 2836,
      "nome": "One Piece: Taose! Kaizoku Ganzack",
      "link": "https://animefire.plus/animes/one-piece-taose-kaizoku-ganzack-todos-os-episodios",
      "texto_original": "One Piece: Taose! Kaizoku Ganzack",
      "rating": 6.76,
      "classificacao_etaria": "A10",
      "imagem_original": "https://animefire.plus/img/animes/one-piece-taose-kaizoku-ganzack.webp",
      "imagem_pasta": "https://animefire.plus/img/animes/one-piece-taose-kaizoku-ganzack/",
      "secao": "legendados",
      "pagina": 55,
      "total_episodios": 1,
      "link_video": "https://animefire.plus/video/one-piece-taose-kaizoku-ganzack"
    },
    {
      "id": 2837,
      "nome": "One Pound Gospel",
      "link": "https://animefire.plus/animes/one-pound-gospel-todos-os-episodios",
      "texto_original": "One Pound Gospel",
      "rating": 6.5,
      "classificacao_etaria": "A14",
      "imagem_original": "https://animefire.plus/img/animes/one-pound-gospel.webp",
      "imagem_pasta": "https://animefire.plus/img/animes/one-pound-gospel/",
      "secao": "legendados",
      "pagina": 66,
      "total_episodios": 1,
      "link_video": "https://animefire.plus/video/one-pound-gospel"
    },
    {
      "id": 2838,
      "nome": "One Punch Man (Dublado)",
      "link": "https://animefire.plus/animes/one-punch-man-dublado-todos-os-episodios",
      "texto_original": "One Punch Man (Dublado)",
      "rating": 8.7,
      "classificacao_etaria": "A16",
      "imagem_original": "https://animefire.plus/img/animes/one-punch-man.webp",
      "imagem_pasta": "https://animefire.plus/img/animes/one-punch-man/",
      "secao": "dublados,legendados",
      "pagina": 28,
      "total_episodios": 12,
      "link_video": "https://animefire.plus/video/one-punch-man-dublado"
    },
    {
      "id": 2839,
      "nome": "One Punch Man 2nd Season (Dublado)",
      "link": "https://animefire.plus/animes/one-punch-man-2nd-season-dublado-todos-os-episodios",
      "texto_original": "One Punch Man 2nd Season (Dublado)",
      "rating": 7.44,
      "classificacao_etaria": "A16",
      "imagem_original": "https://animefire.plus/img/animes/one-punch-man-2nd-season.webp",
      "imagem_pasta": "https://animefire.plus/img/animes/one-punch-man-2nd-season/",
      "secao": "dublados,legendados",
      "pagina": 13,
      "total_episodios": 12,
      "link_video": "https://animefire.plus/video/one-punch-man-2nd-season-dublado"
    },
    {
      "id": 2840,
      "nome": "One Punch Man 2nd Season Commemorative Special",
      "link": "https://animefire.plus/animes/one-punch-man-2nd-season-commemorative-special-todos-os-episodios",
      "texto_original": "One Punch Man 2nd Season Commemorative Special",
      "rating": 6.71,
      "classificacao_etaria": "A16",
      "imagem_original": "https://animefire.plus/img/animes/one-punch-man-2nd-season-commemorative-special.webp",
      "imagem_pasta": "https://animefire.plus/img/animes/one-punch-man-2nd-season-commemorative-special/",
      "secao": "legendados",
      "pagina": 89,
      "total_episodios": 1,
      "link_video": "https://animefire.plus/video/one-punch-man-2nd-season-commemorative-special"
    },
    {
      "id": 2841,
      "nome": "One Punch Man 3",
      "link": "https://animefire.plus/animes/one-punch-man-3-todos-os-episodios",
      "texto_original": "One Punch Man 3",
      "rating": null,
      "classificacao_etaria": "A16",
      "imagem_original": "https://animefire.plus/img/animes/one-punch-man-3.webp",
      "imagem_pasta": "https://animefire.plus/img/animes/one-punch-man-3/",
      "secao": "legendados,lancamentos",
      "pagina": 19,
      "total_episodios": 0,
      "link_video": "https://animefire.plus/video/one-punch-man-3"
    },
    {
      "id": 2842,
      "nome": "One Room",
      "link": "https://animefire.plus/animes/one-room-todos-os-episodios",
      "texto_original": "One Room",
      "rating": 5.7,
      "classificacao_etaria": "A14",
      "imagem_original": "https://animefire.plus/img/animes/one-room.webp",
      "imagem_pasta": "https://animefire.plus/img/animes/one-room/",
      "secao": "legendados",
      "pagina": 155,
      "total_episodios": 12,
      "link_video": "https://animefire.plus/video/one-room"
    },
    {
      "id": 2843,
      "nome": "One Room 2nd Season",
      "link": "https://animefire.plus/animes/one-room-2nd-season-todos-os-episodios",
      "texto_original": "One Room 2nd Season",
      "rating": 6.33,
      "classificacao_etaria": "A14",
      "imagem_original": "https://animefire.plus/img/animes/one-room-2nd-season.webp",
      "imagem_pasta": "https://animefire.plus/img/animes/one-room-2nd-season/",
      "secao": "legendados",
      "pagina": 162,
      "total_episodios": 12,
      "link_video": "https://animefire.plus/video/one-room-2nd-season"
    },
    {
      "id": 2844,
      "nome": "One Room Third Season",
      "link": "https://animefire.plus/animes/one-room-third-season-todos-os-episodios",
      "texto_original": "One Room Third Season",
      "rating": null,
      "classificacao_etaria": "A14",
      "imagem_original": "https://animefire.plus/img/animes/one-room-third-season.webp",
      "imagem_pasta": "https://animefire.plus/img/animes/one-room-third-season/",
      "secao": "legendados",
      "pagina": 51,
      "total_episodios": 12,
      "link_video": "https://animefire.plus/video/one-room-third-season"
    },
    {
      "id": 2845,
      "nome": "One Room, Hiatari Futsuu, Tenshi-tsuki.",
      "link": "https://animefire.plus/animes/one-room-hiatari-futsuu-tenshi-tsuki-todos-os-episodios",
      "texto_original": "One Room, Hiatari Futsuu, Tenshi-tsuki.",
      "rating": 7.03,
      "classificacao_etaria": "A14",
      "imagem_original": "https://animefire.plus/img/animes/one-room-hiatari-futsuu-tenshi-tsuki.webp",
      "imagem_pasta": "https://animefire.plus/img/animes/one-room-hiatari-futsuu-tenshi-tsuki/",
      "secao": "legendados",
      "pagina": 14,
      "total_episodios": 12,
      "link_video": "https://animefire.plus/video/one-room-hiatari-futsuu-tenshi-tsuki"
    },
    {
      "id": 2846,
      "nome": "Oneechan ga Kita",
      "link": "https://animefire.plus/animes/oneechan-ga-kita-todos-os-episodios",
      "texto_original": "Oneechan ga Kita",
      "rating": 6.46,
      "classificacao_etaria": "A14",
      "imagem_original": "https://animefire.plus/img/animes/oneechan-ga-kita.webp",
      "imagem_pasta": "https://animefire.plus/img/animes/oneechan-ga-kita/",
      "secao": "legendados",
      "pagina": 171,
      "total_episodios": 12,
      "link_video": "https://animefire.plus/video/oneechan-ga-kita"
    },
    {
      "id": 2847,
      "nome": "Onegai☆Teacher",
      "link": "https://animefire.plus/animes/onegai-teacher-todos-os-episodios",
      "texto_original": "Onegai☆Teacher",
      "rating": 7.27,
      "classificacao_etaria": "A14",
      "imagem_original": "https://animefire.plus/img/animes/onegai-teacher.webp",
      "imagem_pasta": "https://animefire.plus/img/animes/onegai-teacher/",
      "secao": "legendados",
      "pagina": 112,
      "total_episodios": 12,
      "link_video": "https://animefire.plus/video/onegai-teacher"
    },
    {
      "id": 2848,
      "nome": "Onegai☆Twins",
      "link": "https://animefire.plus/animes/onegai-twins-todos-os-episodios",
      "texto_original": "Onegai☆Twins",
      "rating": 6.96,
      "classificacao_etaria": "A14",
      "imagem_original": "https://animefire.plus/img/animes/onegai-twins.webp",
      "imagem_pasta": "https://animefire.plus/img/animes/onegai-twins/",
      "secao": "legendados",
      "pagina": 178,
      "total_episodios": 12,
      "link_video": "https://animefire.plus/video/onegai-twins"
    }
  ],
  "pagination": {
    "current_page": 139,
    "per_page": 20,
    "total_items": 4269,
    "total_pages": 214,
    "has_next": true,
    "has_prev": true
  }
}
