{
  "message": "Animes da seção: legendados",
  "section": "legendados",
  "data": [
    {
      "id": 22,
      "nome": "18if",
      "link": "https://animefire.plus/animes/18if-todos-os-episodios",
      "texto_original": "18if",
      "rating": 6.28,
      "classificacao_etaria": "A16",
      "imagem_original": "https://animefire.plus/img/animes/18if.webp",
      "imagem_pasta": "https://animefire.plus/img/animes/18if/",
      "secao": "legendados",
      "pagina": 125,
      "total_episodios": 0,
      "link_video": "https://animefire.plus/video/18if"
    },
    {
      "id": 23,
      "nome": "2.43: Seiin Koukou Danshi Volley-bu",
      "link": "https://animefire.plus/animes/2-43-seiin-koukou-danshi-volley-bu-todos-os-episodios",
      "texto_original": "2.43: Seiin Koukou Danshi Volley-bu",
      "rating": 6.14,
      "classificacao_etaria": "A14",
      "imagem_original": "https://animefire.plus/img/animes/2-43-seiin-koukou-danshi-volley-bu.webp",
      "imagem_pasta": "https://animefire.plus/img/animes/2-43-seiin-koukou-danshi-volley-bu/",
      "secao": "legendados",
      "pagina": 49,
      "total_episodios": 12,
      "link_video": "https://animefire.plus/video/2-43-seiin-koukou-danshi-volley-bu"
    },
    {
      "id": 24,
      "nome": "2.5-jigen no Ririsa",
      "link": "https://animefire.plus/animes/2-5-jigen-no-ririsa-todos-os-episodios",
      "texto_original": "2.5-jigen no Ririsa",
      "rating": 7.42,
      "classificacao_etaria": "A14",
      "imagem_original": "https://animefire.plus/img/animes/2-5-jigen-no-ririsa.webp",
      "imagem_pasta": "https://animefire.plus/img/animes/2-5-jigen-no-ririsa/",
      "secao": "legendados",
      "pagina": 13,
      "total_episodios": 24,
      "link_video": "https://animefire.plus/video/2-5-jigen-no-ririsa"
    },
    {
      "id": 25,
      "nome": "22/7",
      "link": "https://animefire.plus/animes/22-7-todos-os-episodios",
      "texto_original": "22/7",
      "rating": 6.81,
      "classificacao_etaria": "A14",
      "imagem_original": "https://animefire.plus/img/animes/22-7.webp",
      "imagem_pasta": "https://animefire.plus/img/animes/22-7/",
      "secao": "legendados",
      "pagina": 92,
      "total_episodios": 11,
      "link_video": "https://animefire.plus/video/22-7"
    },
    {
      "id": 26,
      "nome": "22/7: 8＋3=?",
      "link": "https://animefire.plus/animes/22-7-8-3-todos-os-episodios",
      "texto_original": "22/7: 8＋3=?",
      "rating": 6.6,
      "classificacao_etaria": "A14",
      "imagem_original": "https://animefire.plus/img/animes/22-7-8-3.webp",
      "imagem_pasta": "https://animefire.plus/img/animes/22-7-8-3/",
      "secao": "legendados",
      "pagina": 53,
      "total_episodios": 1,
      "link_video": "https://animefire.plus/video/22-7-8-3"
    },
    {
      "id": 27,
      "nome": "25-sai no Joshikousei",
      "link": "https://animefire.plus/animes/25-sai-no-joshikousei-todos-os-episodios",
      "texto_original": "25-sai no Joshikousei",
      "rating": 5.55,
      "classificacao_etaria": "A18",
      "imagem_original": "https://animefire.plus/img/animes/25-sai-no-joshikousei.webp",
      "imagem_pasta": "https://animefire.plus/img/animes/25-sai-no-joshikousei/",
      "secao": "legendados",
      "pagina": 61,
      "total_episodios": 12,
      "link_video": "https://animefire.plus/video/25-sai-no-joshikousei"
    },
    {
      "id": 28,
      "nome": "3-gatsu no Lion",
      "link": "https://animefire.plus/animes/3-gatsu-no-lion-todos-os-episodios",
      "texto_original": "3-gatsu no Lion",
      "rating": 8.44,
      "classificacao_etaria": "A14",
      "imagem_original": "https://animefire.plus/img/animes/3-gatsu-no-lion.webp",
      "imagem_pasta": "https://animefire.plus/img/animes/3-gatsu-no-lion/",
      "secao": "legendados",
      "pagina": 154,
      "total_episodios": 24,
      "link_video": "https://animefire.plus/video/3-gatsu-no-lion"
    },
    {
      "id": 29,
      "nome": "3-gatsu no Lion 2nd Season",
      "link": "https://animefire.plus/animes/3-gatsu-no-lion-2nd-season-todos-os-episodios",
      "texto_original": "3-gatsu no Lion 2nd Season",
      "rating": 8.92,
      "classificacao_etaria": "A14",
      "imagem_original": "https://animefire.plus/img/animes/3-gatsu-no-lion-2nd-season.webp",
      "imagem_pasta": "https://animefire.plus/img/animes/3-gatsu-no-lion-2nd-season/",
      "secao": "legendados",
      "pagina": 16,
      "total_episodios": 22,
      "link_video": "https://animefire.plus/video/3-gatsu-no-lion-2nd-season"
    },
    {
      "id": 30,
      "nome": "30-sai made Doutei dato Mahoutsukai ni Nareru Rashii",
      "link": "https://animefire.plus/animes/30-sai-made-doutei-dato-mahoutsukai-ni-nareru-rashii-todos-os-episodios",
      "texto_original": "30-sai made Doutei dato Mahoutsukai ni Nareru Rashii",
      "rating": 7.64,
      "classificacao_etaria": "A14",
      "imagem_original": "https://animefire.plus/img/animes/30-sai-made-doutei-dato-mahoutsukai-ni-nareru-rashii.webp",
      "imagem_pasta": "https://animefire.plus/img/animes/30-sai-made-doutei-dato-mahoutsukai-ni-nareru-rashii/",
      "secao": "legendados",
      "pagina": 16,
      "total_episodios": 12,
      "link_video": "https://animefire.plus/video/30-sai-made-doutei-dato-mahoutsukai-ni-nareru-rashii"
    },
    {
      "id": 31,
      "nome": "30-Sai No Hoken Taiiku",
      "link": "https://animefire.plus/animes/30-sai-no-hoken-taiiku-todos-os-episodios",
      "texto_original": "30-Sai No Hoken Taiiku",
      "rating": 6.77,
      "classificacao_etaria": "A16",
      "imagem_original": "https://animefire.plus/img/animes/30-sai-no-hoken-taiiku.webp",
      "imagem_pasta": "https://animefire.plus/img/animes/30-sai-no-hoken-taiiku/",
      "secao": "legendados",
      "pagina": 109,
      "total_episodios": 0,
      "link_video": "https://animefire.plus/video/30-sai-no-hoken-taiiku"
    },
    {
      "id": 32,
      "nome": "3D Kanojo: Real Girl",
      "link": "https://animefire.plus/animes/3d-kanojo-real-girl-todos-os-episodios",
      "texto_original": "3D Kanojo: Real Girl",
      "rating": 6.84,
      "classificacao_etaria": "A14",
      "imagem_original": "https://animefire.plus/img/animes/3d-kanojo-real-girl.webp",
      "imagem_pasta": "https://animefire.plus/img/animes/3d-kanojo-real-girl/",
      "secao": "legendados",
      "pagina": 178,
      "total_episodios": 12,
      "link_video": "https://animefire.plus/video/3d-kanojo-real-girl"
    },
    {
      "id": 33,
      "nome": "3D Kanojo: Real Girl 2nd Season",
      "link": "https://animefire.plus/animes/3d-kanojo-real-girl-2nd-season-todos-os-episodios",
      "texto_original": "3D Kanojo: Real Girl 2nd Season",
      "rating": 7.66,
      "classificacao_etaria": "A14",
      "imagem_original": "https://animefire.plus/img/animes/3d-kanojo-real-girl-2nd-season.webp",
      "imagem_pasta": "https://animefire.plus/img/animes/3d-kanojo-real-girl-2nd-season/",
      "secao": "legendados",
      "pagina": 109,
      "total_episodios": 12,
      "link_video": "https://animefire.plus/video/3d-kanojo-real-girl-2nd-season"
    },
    {
      "id": 34,
      "nome": "3x3 Eyes",
      "link": "https://animefire.plus/animes/3x3-eyes-todos-os-episodios",
      "texto_original": "3x3 Eyes",
      "rating": 6.88,
      "classificacao_etaria": "A16",
      "imagem_original": "https://animefire.plus/img/animes/3x3-eyes.webp",
      "imagem_pasta": "https://animefire.plus/img/animes/3x3-eyes/",
      "secao": "legendados",
      "pagina": 135,
      "total_episodios": 0,
      "link_video": "https://animefire.plus/video/3x3-eyes"
    },
    {
      "id": 35,
      "nome": "4-nin wa Sorezore Uso wo Tsuku",
      "link": "https://animefire.plus/animes/4-nin-wa-sorezore-uso-wo-tsuku-todos-os-episodios",
      "texto_original": "4-nin wa Sorezore Uso wo Tsuku",
      "rating": 7.13,
      "classificacao_etaria": "A14",
      "imagem_original": "https://animefire.plus/img/animes/4-nin-wa-sorezore-uso-wo-tsuku.webp",
      "imagem_pasta": "https://animefire.plus/img/animes/4-nin-wa-sorezore-uso-wo-tsuku/",
      "secao": "legendados",
      "pagina": 28,
      "total_episodios": 11,
      "link_video": "https://animefire.plus/video/4-nin-wa-sorezore-uso-wo-tsuku"
    },
    {
      "id": 36,
      "nome": "5-toubun no Hanayome (Dublado)",
      "link": "https://animefire.plus/animes/5-toubun-no-hanayome-dublado-todos-os-episodios",
      "texto_original": "5-toubun no Hanayome (Dublado)",
      "rating": 7.67,
      "classificacao_etaria": "A14",
      "imagem_original": "https://animefire.plus/img/animes/5-toubun-no-hanayome.webp",
      "imagem_pasta": "https://animefire.plus/img/animes/5-toubun-no-hanayome/",
      "secao": "dublados,legendados",
      "pagina": 8,
      "total_episodios": 12,
      "link_video": "https://animefire.plus/video/5-toubun-no-hanayome-dublado"
    },
    {
      "id": 37,
      "nome": "5-toubun no Hanayome ∬ (Dublado)",
      "link": "https://animefire.plus/animes/gotoubun-no-hanayome-2nd-season-dublado-todos-os-episodios",
      "texto_original": "5-toubun no Hanayome ∬ (Dublado)",
      "rating": 8.01,
      "classificacao_etaria": "A14",
      "imagem_original": "https://animefire.plus/img/animes/gotoubun-no-hanayome-2nd-season.webp",
      "imagem_pasta": "https://animefire.plus/img/animes/gotoubun-no-hanayome-2nd-season/",
      "secao": "dublados,legendados",
      "pagina": 8,
      "total_episodios": 12,
      "link_video": "https://animefire.plus/video/gotoubun-no-hanayome-2nd-season-dublado"
    },
    {
      "id": 38,
      "nome": "5-toubun no Hanayome∽",
      "link": "https://animefire.plus/animes/the-quintessential-quintuplets-todos-os-episodios",
      "texto_original": "5-toubun no Hanayome∽",
      "rating": 7.95,
      "classificacao_etaria": "A14",
      "imagem_original": "https://animefire.plus/img/animes/the-quintessential-quintuplets.webp",
      "imagem_pasta": "https://animefire.plus/img/animes/the-quintessential-quintuplets/",
      "secao": "legendados",
      "pagina": 21,
      "total_episodios": 1,
      "link_video": "https://animefire.plus/video/the-quintessential-quintuplets"
    },
    {
      "id": 39,
      "nome": "7 Seeds (Dublado)",
      "link": "https://animefire.plus/animes/7-seeds-dublado-todos-os-episodios",
      "texto_original": "7 Seeds (Dublado)",
      "rating": 6.52,
      "classificacao_etaria": "A18",
      "imagem_original": "https://animefire.plus/img/animes/7-seeds.webp",
      "imagem_pasta": "https://animefire.plus/img/animes/7-seeds/",
      "secao": "dublados,legendados",
      "pagina": 23,
      "total_episodios": 12,
      "link_video": "https://animefire.plus/video/7-seeds-dublado"
    },
    {
      "id": 40,
      "nome": "7 Seeds 2nd Season (Dublado)",
      "link": "https://animefire.plus/animes/7-seeds-2nd-season-dublado-todos-os-episodios",
      "texto_original": "7 Seeds 2nd Season (Dublado)",
      "rating": 7.17,
      "classificacao_etaria": "A18",
      "imagem_original": "https://animefire.plus/img/animes/7-seeds-2nd-season.webp",
      "imagem_pasta": "https://animefire.plus/img/animes/7-seeds-2nd-season/",
      "secao": "dublados,legendados",
      "pagina": 23,
      "total_episodios": 12,
      "link_video": "https://animefire.plus/video/7-seeds-2nd-season-dublado"
    },
    {
      "id": 42,
      "nome": "86 2nd Season",
      "link": "https://animefire.plus/animes/86-2nd-season-todos-os-episodios",
      "texto_original": "86 2nd Season",
      "rating": 8.72,
      "classificacao_etaria": "A16",
      "imagem_original": "https://animefire.plus/img/animes/86-2nd-season.webp",
      "imagem_pasta": "https://animefire.plus/img/animes/86-2nd-season/",
      "secao": "legendados",
      "pagina": 38,
      "total_episodios": 12,
      "link_video": "https://animefire.plus/video/86-2nd-season"
    }
  ],
  "pagination": {
    "current_page": 2,
    "per_page": 20,
    "total_items": 4269,
    "total_pages": 214,
    "has_next": true,
    "has_prev": true
  }
}
