{
  "message": "Animes da seção: legendados",
  "section": "legendados",
  "data": [
    {
      "id": 1058,
      "nome": "Futari Ecchi (2014)",
      "link": "https://animefire.plus/animes/futari-ecchi-2014-todos-os-episodios",
      "texto_original": "Futari Ecchi (2014)",
      "rating": 6.23,
      "classificacao_etaria": "A18",
      "imagem_original": "https://animefire.plus/img/animes/futari-ecchi-2014.webp",
      "imagem_pasta": "https://animefire.plus/img/animes/futari-ecchi-2014/",
      "secao": "legendados",
      "pagina": 70,
      "total_episodios": 1,
      "link_video": "https://animefire.plus/video/futari-ecchi-2014"
    },
    {
      "id": 1059,
      "nome": "Futari Solo Camp",
      "link": "https://animefire.plus/animes/futari-solo-camp-todos-os-episodios",
      "texto_original": "Futari Solo Camp",
      "rating": 6.52,
      "classificacao_etaria": "A14",
      "imagem_original": "https://animefire.plus/img/animes/futari-solo-camp.webp",
      "imagem_pasta": "https://animefire.plus/img/animes/futari-solo-camp/",
      "secao": "legendados,lancamentos",
      "pagina": 1,
      "total_episodios": 4,
      "link_video": "https://animefire.plus/video/futari-solo-camp"
    },
    {
      "id": 1060,
      "nome": "Futari wa Milky Holmes",
      "link": "https://animefire.plus/animes/futari-wa-milky-holmes-todos-os-episodios",
      "texto_original": "Futari wa Milky Holmes",
      "rating": 5.82,
      "classificacao_etaria": "A14",
      "imagem_original": "https://animefire.plus/img/animes/futari-wa-milky-holmes.webp",
      "imagem_pasta": "https://animefire.plus/img/animes/futari-wa-milky-holmes/",
      "secao": "legendados",
      "pagina": 83,
      "total_episodios": 12,
      "link_video": "https://animefire.plus/video/futari-wa-milky-holmes"
    },
    {
      "id": 1061,
      "nome": "Futari Wa Precure",
      "link": "https://animefire.plus/animes/futari-wa-precure-todos-os-episodios",
      "texto_original": "Futari Wa Precure",
      "rating": 7.01,
      "classificacao_etaria": null,
      "imagem_original": "https://animefire.plus/img/animes/futari-wa-precure.webp",
      "imagem_pasta": "https://animefire.plus/img/animes/futari-wa-precure/",
      "secao": "legendados",
      "pagina": 59,
      "total_episodios": 5,
      "link_video": "https://animefire.plus/video/futari-wa-precure"
    },
    {
      "id": 1062,
      "nome": "Futari Wa Precure: Splash☆Star",
      "link": "https://animefire.plus/animes/futari-wa-precure-splash-star-todos-os-episodios",
      "texto_original": "Futari Wa Precure: Splash☆Star",
      "rating": 7.21,
      "classificacao_etaria": null,
      "imagem_original": "https://animefire.plus/img/animes/futari-wa-precure-splash-star.webp",
      "imagem_pasta": "https://animefire.plus/img/animes/futari-wa-precure-splash-star/",
      "secao": "legendados",
      "pagina": 107,
      "total_episodios": 14,
      "link_video": "https://animefire.plus/video/futari-wa-precure-splash-star"
    },
    {
      "id": 1063,
      "nome": "Futoku no Guild",
      "link": "https://animefire.plus/animes/futoku-no-guild-todos-os-episodios",
      "texto_original": "Futoku no Guild",
      "rating": 6.54,
      "classificacao_etaria": "A18",
      "imagem_original": "https://animefire.plus/img/animes/futoku-no-guild.webp",
      "imagem_pasta": "https://animefire.plus/img/animes/futoku-no-guild/",
      "secao": "legendados",
      "pagina": 29,
      "total_episodios": 12,
      "link_video": "https://animefire.plus/video/futoku-no-guild"
    },
    {
      "id": 1064,
      "nome": "Futsal Boys!!!!!",
      "link": "https://animefire.plus/animes/futsal-boys-todos-os-episodios",
      "texto_original": "Futsal Boys!!!!!",
      "rating": 5.46,
      "classificacao_etaria": "A14",
      "imagem_original": "https://animefire.plus/img/animes/futsal-boys.webp",
      "imagem_pasta": "https://animefire.plus/img/animes/futsal-boys/",
      "secao": "legendados",
      "pagina": 35,
      "total_episodios": 12,
      "link_video": "https://animefire.plus/video/futsal-boys"
    },
    {
      "id": 1065,
      "nome": "Futsuu no Joshikousei ga [Locodol] Yattemita.",
      "link": "https://animefire.plus/animes/futsuu-no-joshikousei-ga-locodol-yattemita-todos-os-episodios",
      "texto_original": "Futsuu no Joshikousei ga [Locodol] Yattemita.",
      "rating": 6.93,
      "classificacao_etaria": "A14",
      "imagem_original": "https://animefire.plus/img/animes/futsuu-no-joshikousei-ga-locodol-yattemita.webp",
      "imagem_pasta": "https://animefire.plus/img/animes/futsuu-no-joshikousei-ga-locodol-yattemita/",
      "secao": "legendados",
      "pagina": 116,
      "total_episodios": 0,
      "link_video": "https://animefire.plus/video/futsuu-no-joshikousei-ga-locodol-yattemita"
    },
    {
      "id": 1066,
      "nome": "Future Card Buddyfight",
      "link": "https://animefire.plus/animes/future-card-buddyfight-todos-os-episodios",
      "texto_original": "Future Card Buddyfight",
      "rating": 7.05,
      "classificacao_etaria": "A10",
      "imagem_original": "https://animefire.plus/img/animes/future-card-buddyfight.webp",
      "imagem_pasta": "https://animefire.plus/img/animes/future-card-buddyfight/",
      "secao": "legendados",
      "pagina": 152,
      "total_episodios": 2,
      "link_video": "https://animefire.plus/video/future-card-buddyfight"
    },
    {
      "id": 1067,
      "nome": "Fuufu Ijou, Koibito Miman. (Dublado)",
      "link": "https://animefire.plus/animes/fuufu-ijou-koibito-miman-dublado-todos-os-episodios",
      "texto_original": "Fuufu Ijou, Koibito Miman. (Dublado)",
      "rating": 7.59,
      "classificacao_etaria": "A14",
      "imagem_original": "https://animefire.plus/img/animes/fuufu-ijou-koibito-miman.webp",
      "imagem_pasta": "https://animefire.plus/img/animes/fuufu-ijou-koibito-miman/",
      "secao": "dublados,legendados",
      "pagina": 9,
      "total_episodios": 12,
      "link_video": "https://animefire.plus/video/fuufu-ijou-koibito-miman-dublado"
    },
    {
      "id": 1068,
      "nome": "Fuuka",
      "link": "https://animefire.plus/animes/fuuka-todos-os-episodios",
      "texto_original": "Fuuka",
      "rating": 6.71,
      "classificacao_etaria": "A18",
      "imagem_original": "https://animefire.plus/img/animes/fuuka.webp",
      "imagem_pasta": "https://animefire.plus/img/animes/fuuka/",
      "secao": "legendados",
      "pagina": 111,
      "total_episodios": 12,
      "link_video": "https://animefire.plus/video/fuuka"
    },
    {
      "id": 1070,
      "nome": "Fuuto Tantei (Dublado)",
      "link": "https://animefire.plus/animes/fuuto-tantei-dublado-todos-os-episodios",
      "texto_original": "Fuuto Tantei (Dublado)",
      "rating": 7.32,
      "classificacao_etaria": "A14",
      "imagem_original": "https://animefire.plus/img/animes/fuuto-tantei.webp",
      "imagem_pasta": "https://animefire.plus/img/animes/fuuto-tantei/",
      "secao": "dublados,legendados",
      "pagina": 10,
      "total_episodios": 12,
      "link_video": "https://animefire.plus/video/fuuto-tantei-dublado"
    },
    {
      "id": 1071,
      "nome": "Fuuun Ishin Dai☆Shogun",
      "link": "https://animefire.plus/animes/fuuun-ishin-dai-shogun-todos-os-episodios",
      "texto_original": "Fuuun Ishin Dai☆Shogun",
      "rating": 5.78,
      "classificacao_etaria": "A16",
      "imagem_original": "https://animefire.plus/img/animes/fuuun-ishin-dai-shogun.webp",
      "imagem_pasta": "https://animefire.plus/img/animes/fuuun-ishin-dai-shogun/",
      "secao": "legendados",
      "pagina": 123,
      "total_episodios": 12,
      "link_video": "https://animefire.plus/video/fuuun-ishin-dai-shogun"
    },
    {
      "id": 1072,
      "nome": "G-On Riders",
      "link": "https://animefire.plus/animes/g-on-riders-todos-os-episodios",
      "texto_original": "G-On Riders",
      "rating": 5.87,
      "classificacao_etaria": "A16",
      "imagem_original": "https://animefire.plus/img/animes/g-on-riders.webp",
      "imagem_pasta": "https://animefire.plus/img/animes/g-on-riders/",
      "secao": "legendados",
      "pagina": 69,
      "total_episodios": 13,
      "link_video": "https://animefire.plus/video/g-on-riders"
    },
    {
      "id": 1073,
      "nome": "Ga-Rei: Zero",
      "link": "https://animefire.plus/animes/ga-rei-zero-todos-os-episodios",
      "texto_original": "Ga-Rei: Zero",
      "rating": 7.68,
      "classificacao_etaria": "A16",
      "imagem_original": "https://animefire.plus/img/animes/ga-rei-zero.webp",
      "imagem_pasta": "https://animefire.plus/img/animes/ga-rei-zero/",
      "secao": "legendados",
      "pagina": 174,
      "total_episodios": 12,
      "link_video": "https://animefire.plus/video/ga-rei-zero"
    },
    {
      "id": 1074,
      "nome": "Gabriel DropOut",
      "link": "https://animefire.plus/animes/gabriel-dropout-todos-os-episodios",
      "texto_original": "Gabriel DropOut",
      "rating": 7.57,
      "classificacao_etaria": "A14",
      "imagem_original": "https://animefire.plus/img/animes/gabriel-dropout.webp",
      "imagem_pasta": "https://animefire.plus/img/animes/gabriel-dropout/",
      "secao": "legendados",
      "pagina": 107,
      "total_episodios": 12,
      "link_video": "https://animefire.plus/video/gabriel-dropout"
    },
    {
      "id": 1075,
      "nome": "Gachiakuta (Dublado)",
      "link": "https://animefire.plus/animes/gachiakuta-dublado-todos-os-episodios",
      "texto_original": "Gachiakuta (Dublado)",
      "rating": 8.07,
      "classificacao_etaria": "A14",
      "imagem_original": "https://animefire.plus/img/animes/gachiakuta.webp",
      "imagem_pasta": "https://animefire.plus/img/animes/gachiakuta/",
      "secao": "dublados,legendados,lancamentos",
      "pagina": 1,
      "total_episodios": 4,
      "link_video": "https://animefire.plus/video/gachiakuta-dublado"
    },
    {
      "id": 1076,
      "nome": "Gad Guard",
      "link": "https://animefire.plus/animes/gad-guard-todos-os-episodios",
      "texto_original": "Gad Guard",
      "rating": 6.76,
      "classificacao_etaria": "A14",
      "imagem_original": "https://animefire.plus/img/animes/gad-guard.webp",
      "imagem_pasta": "https://animefire.plus/img/animes/gad-guard/",
      "secao": "legendados",
      "pagina": 170,
      "total_episodios": 26,
      "link_video": "https://animefire.plus/video/gad-guard"
    },
    {
      "id": 1077,
      "nome": "Gaikotsu Kishi-sama, Tadaima Isekai e Odekakechuu",
      "link": "https://animefire.plus/animes/gaikotsu-kishi-sama-tadaima-isekai-e-odekakechuu-todos-os-episodios",
      "texto_original": "Gaikotsu Kishi-sama, Tadaima Isekai e Odekakechuu",
      "rating": 7.14,
      "classificacao_etaria": "A16",
      "imagem_original": "https://animefire.plus/img/animes/gaikotsu-kishi-sama-tadaima-isekai-e-odekakechuu.webp",
      "imagem_pasta": "https://animefire.plus/img/animes/gaikotsu-kishi-sama-tadaima-isekai-e-odekakechuu/",
      "secao": "legendados",
      "pagina": 35,
      "total_episodios": 12,
      "link_video": "https://animefire.plus/video/gaikotsu-kishi-sama-tadaima-isekai-e-odekakechuu"
    },
    {
      "id": 1078,
      "nome": "Gaikotsu Shotenin Honda-san",
      "link": "https://animefire.plus/animes/gaikotsu-shotenin-honda-san-todos-os-episodios",
      "texto_original": "Gaikotsu Shotenin Honda-san",
      "rating": 7.4,
      "classificacao_etaria": "A14",
      "imagem_original": "https://animefire.plus/img/animes/gaikotsu-shotenin-honda-san.webp",
      "imagem_pasta": "https://animefire.plus/img/animes/gaikotsu-shotenin-honda-san/",
      "secao": "legendados",
      "pagina": 126,
      "total_episodios": 12,
      "link_video": "https://animefire.plus/video/gaikotsu-shotenin-honda-san"
    }
  ],
  "pagination": {
    "current_page": 52,
    "per_page": 20,
    "total_items": 4269,
    "total_pages": 214,
    "has_next": true,
    "has_prev": true
  }
}
