{
  "message": "Animes da seção: legendados",
  "section": "legendados",
  "data": [
    {
      "id": 480,
      "nome": "Bokutachi wa Benkyou ga Dekinai OVA",
      "link": "https://animefire.plus/animes/bokutachi-wa-benkyou-ga-dekinai-ova-todos-os-episodios",
      "texto_original": "Bokutachi wa Benkyou ga Dekinai OVA",
      "rating": 7.36,
      "classificacao_etaria": "A14",
      "imagem_original": "https://animefire.plus/img/animes/bokutachi-wa-benkyou-ga-dekinai-ova.webp",
      "imagem_pasta": "https://animefire.plus/img/animes/bokutachi-wa-benkyou-ga-dekinai-ova/",
      "secao": "legendados",
      "pagina": 80,
      "total_episodios": 2,
      "link_video": "https://animefire.plus/video/bokutachi-wa-benkyou-ga-dekinai-ova"
    },
    {
      "id": 481,
      "nome": "Boogiepop wa Warawanai",
      "link": "https://animefire.plus/animes/boogiepop-wa-warawanai-todos-os-episodios",
      "texto_original": "Boogiepop wa Warawanai",
      "rating": 7.21,
      "classificacao_etaria": "A18",
      "imagem_original": "https://animefire.plus/img/animes/boogiepop-wa-warawanai.webp",
      "imagem_pasta": "https://animefire.plus/img/animes/boogiepop-wa-warawanai/",
      "secao": "legendados",
      "pagina": 163,
      "total_episodios": 8,
      "link_video": "https://animefire.plus/video/boogiepop-wa-warawanai"
    },
    {
      "id": 482,
      "nome": "Boogiepop wa Warawanai (2019)",
      "link": "https://animefire.plus/animes/boogiepop-wa-warawanai-2019-todos-os-episodios",
      "texto_original": "Boogiepop wa Warawanai (2019)",
      "rating": 7.1,
      "classificacao_etaria": "A16",
      "imagem_original": "https://animefire.plus/img/animes/boogiepop-wa-warawanai-2019.webp",
      "imagem_pasta": "https://animefire.plus/img/animes/boogiepop-wa-warawanai-2019/",
      "secao": "legendados",
      "pagina": 96,
      "total_episodios": 18,
      "link_video": "https://animefire.plus/video/boogiepop-wa-warawanai-2019"
    },
    {
      "id": 483,
      "nome": "Boruto: Naruto Next Generations (Dublado)",
      "link": "https://animefire.plus/animes/boruto-naruto-next-generations-dublado-todos-os-episodios",
      "texto_original": "Boruto: Naruto Next Generations (Dublado)",
      "rating": 5.9,
      "classificacao_etaria": "A14",
      "imagem_original": "https://animefire.plus/img/animes/boruto-naruto-next-generations.webp",
      "imagem_pasta": "https://animefire.plus/img/animes/boruto-naruto-next-generations/",
      "secao": "dublados,legendados,lancamentos",
      "pagina": 13,
      "total_episodios": 104,
      "link_video": "https://animefire.plus/video/boruto-naruto-next-generations-dublado"
    },
    {
      "id": 484,
      "nome": "Botsuraku Yotei no Kizoku dakedo, Hima Datta kara Mahou wo Kiwametemita",
      "link": "https://animefire.plus/animes/botsuraku-yotei-no-kizoku-dakedo-hima-datta-kara-mahou-wo-kiwametemita-todos-os-episodios",
      "texto_original": "Botsuraku Yotei no Kizoku dakedo, Hima Datta kara Mahou wo Kiwametemita",
      "rating": 6.08,
      "classificacao_etaria": "A14",
      "imagem_original": "https://animefire.plus/img/animes/botsuraku-yotei-no-kizoku-dakedo-hima-datta-kara-mahou-wo-kiwametemita.webp",
      "imagem_pasta": "https://animefire.plus/img/animes/botsuraku-yotei-no-kizoku-dakedo-hima-datta-kara-mahou-wo-kiwametemita/",
      "secao": "legendados",
      "pagina": 7,
      "total_episodios": 12,
      "link_video": "https://animefire.plus/video/botsuraku-yotei-no-kizoku-dakedo-hima-datta-kara-mahou-wo-kiwametemita"
    },
    {
      "id": 485,
      "nome": "Bouken Ou Beet",
      "link": "https://animefire.plus/animes/bouken-ou-beet-todos-os-episodios",
      "texto_original": "Bouken Ou Beet",
      "rating": 7.03,
      "classificacao_etaria": "A10",
      "imagem_original": "https://animefire.plus/img/animes/bouken-ou-beet.webp",
      "imagem_pasta": "https://animefire.plus/img/animes/bouken-ou-beet/",
      "secao": "legendados",
      "pagina": 123,
      "total_episodios": 52,
      "link_video": "https://animefire.plus/video/bouken-ou-beet"
    },
    {
      "id": 486,
      "nome": "Bouken Ou Beet Excellion",
      "link": "https://animefire.plus/animes/bouken-ou-beet-excellion-todos-os-episodios",
      "texto_original": "Bouken Ou Beet Excellion",
      "rating": 6.78,
      "classificacao_etaria": "A10",
      "imagem_original": "https://animefire.plus/img/animes/bouken-ou-beet-excellion.webp",
      "imagem_pasta": "https://animefire.plus/img/animes/bouken-ou-beet-excellion/",
      "secao": "legendados",
      "pagina": 125,
      "total_episodios": 24,
      "link_video": "https://animefire.plus/video/bouken-ou-beet-excellion"
    },
    {
      "id": 487,
      "nome": "Boukensha ni Naritai to Miyako ni Deteitta Musume ga S-Rank ni Natteta",
      "link": "https://animefire.plus/animes/boukensha-ni-naritai-to-miyako-ni-deteitta-musume-ga-s-rank-ni-natteta-todos-os-episodios",
      "texto_original": "Boukensha ni Naritai to Miyako ni Deteitta Musume ga S-Rank ni Natteta",
      "rating": 6.76,
      "classificacao_etaria": "A14",
      "imagem_original": "https://animefire.plus/img/animes/boukensha-ni-naritai-to-miyako-ni-deteitta-musume-ga-s-rank-ni-natteta.webp",
      "imagem_pasta": "https://animefire.plus/img/animes/boukensha-ni-naritai-to-miyako-ni-deteitta-musume-ga-s-rank-ni-natteta/",
      "secao": "legendados",
      "pagina": 21,
      "total_episodios": 13,
      "link_video": "https://animefire.plus/video/boukensha-ni-naritai-to-miyako-ni-deteitta-musume-ga-s-rank-ni-natteta"
    },
    {
      "id": 488,
      "nome": "Boukyaku Battery",
      "link": "https://animefire.plus/animes/boukyaku-battery-todos-os-episodios",
      "texto_original": "Boukyaku Battery",
      "rating": 6.2,
      "classificacao_etaria": "A14",
      "imagem_original": "https://animefire.plus/img/animes/boukyaku-battery.webp",
      "imagem_pasta": "https://animefire.plus/img/animes/boukyaku-battery/",
      "secao": "legendados",
      "pagina": 14,
      "total_episodios": 0,
      "link_video": "https://animefire.plus/video/boukyaku-battery"
    },
    {
      "id": 489,
      "nome": "Boukyaku Battery (TV)",
      "link": "https://animefire.plus/animes/boukyaku-battery-tv-todos-os-episodios",
      "texto_original": "Boukyaku Battery (TV)",
      "rating": 7.52,
      "classificacao_etaria": "A14",
      "imagem_original": "https://animefire.plus/img/animes/boukyaku-battery-tv.webp",
      "imagem_pasta": "https://animefire.plus/img/animes/boukyaku-battery-tv/",
      "secao": "legendados",
      "pagina": 14,
      "total_episodios": 12,
      "link_video": "https://animefire.plus/video/boukyaku-battery-tv"
    },
    {
      "id": 490,
      "nome": "Bounen no Xamdou",
      "link": "https://animefire.plus/animes/bounen-no-xamdou-todos-os-episodios",
      "texto_original": "Bounen no Xamdou",
      "rating": 7.74,
      "classificacao_etaria": "A14",
      "imagem_original": "https://animefire.plus/img/animes/bounen-no-xamdou.webp",
      "imagem_pasta": "https://animefire.plus/img/animes/bounen-no-xamdou/",
      "secao": "legendados",
      "pagina": 175,
      "total_episodios": 26,
      "link_video": "https://animefire.plus/video/bounen-no-xamdou"
    },
    {
      "id": 491,
      "nome": "Boushoku no Berserk",
      "link": "https://animefire.plus/animes/boushoku-no-berserk-todos-os-episodios",
      "texto_original": "Boushoku no Berserk",
      "rating": 6.73,
      "classificacao_etaria": "A14",
      "imagem_original": "https://animefire.plus/img/animes/boushoku-no-berserk.webp",
      "imagem_pasta": "https://animefire.plus/img/animes/boushoku-no-berserk/",
      "secao": "legendados",
      "pagina": 20,
      "total_episodios": 12,
      "link_video": "https://animefire.plus/video/boushoku-no-berserk"
    },
    {
      "id": 492,
      "nome": "Boys Be...",
      "link": "https://animefire.plus/animes/boys-be-todos-os-episodios",
      "texto_original": "Boys Be...",
      "rating": 6.46,
      "classificacao_etaria": "A14",
      "imagem_original": "https://animefire.plus/img/animes/boys-be.webp",
      "imagem_pasta": "https://animefire.plus/img/animes/boys-be/",
      "secao": "legendados",
      "pagina": 54,
      "total_episodios": 13,
      "link_video": "https://animefire.plus/video/boys-be"
    },
    {
      "id": 493,
      "nome": "Brain Powerd",
      "link": "https://animefire.plus/animes/brain-powerd-todos-os-episodios",
      "texto_original": "Brain Powerd",
      "rating": 6.15,
      "classificacao_etaria": "A14",
      "imagem_original": "https://animefire.plus/img/animes/brain-powerd.webp",
      "imagem_pasta": "https://animefire.plus/img/animes/brain-powerd/",
      "secao": "legendados",
      "pagina": 170,
      "total_episodios": 26,
      "link_video": "https://animefire.plus/video/brain-powerd"
    },
    {
      "id": 494,
      "nome": "Brave 10 (Dublado)",
      "link": "https://animefire.plus/animes/brave-10-dublado-todos-os-episodios",
      "texto_original": "Brave 10 (Dublado)",
      "rating": 6.74,
      "classificacao_etaria": "A16",
      "imagem_original": "https://animefire.plus/img/animes/brave-10.webp",
      "imagem_pasta": "https://animefire.plus/img/animes/brave-10/",
      "secao": "dublados,legendados",
      "pagina": 3,
      "total_episodios": 12,
      "link_video": "https://animefire.plus/video/brave-10-dublado"
    },
    {
      "id": 495,
      "nome": "Brave Beats",
      "link": "https://animefire.plus/animes/brave-beats-todos-os-episodios",
      "texto_original": "Brave Beats",
      "rating": 6.57,
      "classificacao_etaria": null,
      "imagem_original": "https://animefire.plus/img/animes/brave-beats.webp",
      "imagem_pasta": "https://animefire.plus/img/animes/brave-beats/",
      "secao": "legendados",
      "pagina": 116,
      "total_episodios": 2,
      "link_video": "https://animefire.plus/video/brave-beats"
    },
    {
      "id": 496,
      "nome": "Brave Story",
      "link": "https://animefire.plus/animes/brave-story-todos-os-episodios",
      "texto_original": "Brave Story",
      "rating": 7.52,
      "classificacao_etaria": null,
      "imagem_original": "https://animefire.plus/img/animes/brave-story.webp",
      "imagem_pasta": "https://animefire.plus/img/animes/brave-story/",
      "secao": "legendados",
      "pagina": 161,
      "total_episodios": 0,
      "link_video": "https://animefire.plus/video/brave-story"
    },
    {
      "id": 497,
      "nome": "Brave Witches",
      "link": "https://animefire.plus/animes/brave-witches-todos-os-episodios",
      "texto_original": "Brave Witches",
      "rating": 6.86,
      "classificacao_etaria": "A18",
      "imagem_original": "https://animefire.plus/img/animes/brave-witches.webp",
      "imagem_pasta": "https://animefire.plus/img/animes/brave-witches/",
      "secao": "legendados",
      "pagina": 90,
      "total_episodios": 12,
      "link_video": "https://animefire.plus/video/brave-witches"
    },
    {
      "id": 498,
      "nome": "Break Blade",
      "link": "https://animefire.plus/animes/break-blade-todos-os-episodios",
      "texto_original": "Break Blade",
      "rating": 7.35,
      "classificacao_etaria": "A16",
      "imagem_original": "https://animefire.plus/img/animes/break-blade.webp",
      "imagem_pasta": "https://animefire.plus/img/animes/break-blade/",
      "secao": "legendados",
      "pagina": 123,
      "total_episodios": 11,
      "link_video": "https://animefire.plus/video/break-blade"
    },
    {
      "id": 499,
      "nome": "Breakers",
      "link": "https://animefire.plus/animes/breakers-todos-os-episodios",
      "texto_original": "Breakers",
      "rating": 6.35,
      "classificacao_etaria": "A14",
      "imagem_original": "https://animefire.plus/img/animes/breakers.webp",
      "imagem_pasta": "https://animefire.plus/img/animes/breakers/",
      "secao": "legendados",
      "pagina": 92,
      "total_episodios": 0,
      "link_video": "https://animefire.plus/video/breakers"
    }
  ],
  "pagination": {
    "current_page": 24,
    "per_page": 20,
    "total_items": 4269,
    "total_pages": 214,
    "has_next": true,
    "has_prev": true
  }
}
