{
  "message": "Animes da seção: legendados",
  "section": "legendados",
  "data": [
    {
      "id": 1995,
      "nome": "Kimi wa Meido-sama. (Dublado)",
      "link": "https://animefire.plus/animes/kimi-wa-meido-sama-dublado-todos-os-episodios",
      "texto_original": "Kimi wa Meido-sama. (Dublado)",
      "rating": 7.07,
      "classificacao_etaria": "A14",
      "imagem_original": "https://animefire.plus/img/animes/kimi-wa-meido-sama.webp",
      "imagem_pasta": "https://animefire.plus/img/animes/kimi-wa-meido-sama/",
      "secao": "dublados,legendados,lancamentos",
      "pagina": 2,
      "total_episodios": 12,
      "link_video": "https://animefire.plus/video/kimi-wa-meido-sama-dublado"
    },
    {
      "id": 1996,
      "nome": "KimiKiss Pure Rouge",
      "link": "https://animefire.plus/animes/kimikiss-pure-rouge-todos-os-episodios",
      "texto_original": "KimiKiss Pure Rouge",
      "rating": 7.4,
      "classificacao_etaria": "A14",
      "imagem_original": "https://animefire.plus/img/animes/kimikiss-pure-rouge.webp",
      "imagem_pasta": "https://animefire.plus/img/animes/kimikiss-pure-rouge/",
      "secao": "legendados",
      "pagina": 130,
      "total_episodios": 24,
      "link_video": "https://animefire.plus/video/kimikiss-pure-rouge"
    },
    {
      "id": 1997,
      "nome": "Kindaichi Shounen No Jikenbo Returns",
      "link": "https://animefire.plus/animes/kindaichi-shounen-no-jikenbo-returns-todos-os-episodios",
      "texto_original": "Kindaichi Shounen No Jikenbo Returns",
      "rating": 7.59,
      "classificacao_etaria": "A16",
      "imagem_original": "https://animefire.plus/img/animes/kindaichi-shounen-no-jikenbo-returns.webp",
      "imagem_pasta": "https://animefire.plus/img/animes/kindaichi-shounen-no-jikenbo-returns/",
      "secao": "legendados",
      "pagina": 96,
      "total_episodios": 3,
      "link_video": "https://animefire.plus/video/kindaichi-shounen-no-jikenbo-returns"
    },
    {
      "id": 1998,
      "nome": "Kindaichi Shounen no Jikenbo Returns 2nd Season",
      "link": "https://animefire.plus/animes/kindaichi-shounen-no-jikenbo-returns-2nd-season-todos-os-episodios",
      "texto_original": "Kindaichi Shounen no Jikenbo Returns 2nd Season",
      "rating": 7.68,
      "classificacao_etaria": "A16",
      "imagem_original": "https://animefire.plus/img/animes/kindaichi-shounen-no-jikenbo-returns-2nd-season.webp",
      "imagem_pasta": "https://animefire.plus/img/animes/kindaichi-shounen-no-jikenbo-returns-2nd-season/",
      "secao": "legendados",
      "pagina": 74,
      "total_episodios": 22,
      "link_video": "https://animefire.plus/video/kindaichi-shounen-no-jikenbo-returns-2nd-season"
    },
    {
      "id": 2000,
      "nome": "King of Prism: Shiny Seven Stars",
      "link": "https://animefire.plus/animes/king-of-prism-shiny-seven-stars-todos-os-episodios",
      "texto_original": "King of Prism: Shiny Seven Stars",
      "rating": 6.4,
      "classificacao_etaria": "A14",
      "imagem_original": "https://animefire.plus/img/animes/king-of-prism-shiny-seven-stars.webp",
      "imagem_pasta": "https://animefire.plus/img/animes/king-of-prism-shiny-seven-stars/",
      "secao": "legendados",
      "pagina": 126,
      "total_episodios": 12,
      "link_video": "https://animefire.plus/video/king-of-prism-shiny-seven-stars"
    },
    {
      "id": 2001,
      "nome": "King's Raid: Ishi wo Tsugumono-tachi",
      "link": "https://animefire.plus/animes/king-s-raid-ishi-wo-tsugumono-tachi-todos-os-episodios",
      "texto_original": "King's Raid: Ishi wo Tsugumono-tachi",
      "rating": null,
      "classificacao_etaria": "A14",
      "imagem_original": "https://animefire.plus/img/animes/king-s-raid-ishi-wo-tsugumono-tachi.webp",
      "imagem_pasta": "https://animefire.plus/img/animes/king-s-raid-ishi-wo-tsugumono-tachi/",
      "secao": "legendados",
      "pagina": 52,
      "total_episodios": 26,
      "link_video": "https://animefire.plus/video/king-s-raid-ishi-wo-tsugumono-tachi"
    },
    {
      "id": 2002,
      "nome": "Kingdom",
      "link": "https://animefire.plus/animes/kingdom-todos-os-episodios",
      "texto_original": "Kingdom",
      "rating": 8.14,
      "classificacao_etaria": "A16",
      "imagem_original": "https://animefire.plus/img/animes/kingdom.webp",
      "imagem_pasta": "https://animefire.plus/img/animes/kingdom/",
      "secao": "legendados",
      "pagina": 141,
      "total_episodios": 5,
      "link_video": "https://animefire.plus/video/kingdom"
    },
    {
      "id": 2003,
      "nome": "Kingdom 2nd Season",
      "link": "https://animefire.plus/animes/kingdom-2nd-season-todos-os-episodios",
      "texto_original": "Kingdom 2nd Season",
      "rating": 8.43,
      "classificacao_etaria": "A16",
      "imagem_original": "https://animefire.plus/img/animes/kingdom-2nd-season.webp",
      "imagem_pasta": "https://animefire.plus/img/animes/kingdom-2nd-season/",
      "secao": "legendados",
      "pagina": 177,
      "total_episodios": 21,
      "link_video": "https://animefire.plus/video/kingdom-2nd-season"
    },
    {
      "id": 2004,
      "nome": "Kingdom 3rd Season",
      "link": "https://animefire.plus/animes/kingdom-3rd-season-todos-os-episodios",
      "texto_original": "Kingdom 3rd Season",
      "rating": 8.41,
      "classificacao_etaria": null,
      "imagem_original": "https://animefire.plus/img/animes/kingdom-3rd-season.webp",
      "imagem_pasta": "https://animefire.plus/img/animes/kingdom-3rd-season/",
      "secao": "legendados,lancamentos",
      "pagina": 81,
      "total_episodios": 26,
      "link_video": "https://animefire.plus/video/kingdom-3rd-season"
    },
    {
      "id": 2005,
      "nome": "Kingdom 4th Season",
      "link": "https://animefire.plus/animes/kingdom-4-todos-os-episodios",
      "texto_original": "Kingdom 4th Season",
      "rating": 8.73,
      "classificacao_etaria": "A16",
      "imagem_original": "https://animefire.plus/img/animes/kingdom-4.webp",
      "imagem_pasta": "https://animefire.plus/img/animes/kingdom-4/",
      "secao": "legendados",
      "pagina": 33,
      "total_episodios": 26,
      "link_video": "https://animefire.plus/video/kingdom-4"
    },
    {
      "id": 2006,
      "nome": "Kingdom 5th Season",
      "link": "https://animefire.plus/animes/kingdom-5th-season-todos-os-episodios",
      "texto_original": "Kingdom 5th Season",
      "rating": 8.72,
      "classificacao_etaria": "A16",
      "imagem_original": "https://animefire.plus/img/animes/kingdom-5th-season.webp",
      "imagem_pasta": "https://animefire.plus/img/animes/kingdom-5th-season/",
      "secao": "legendados",
      "pagina": 17,
      "total_episodios": 13,
      "link_video": "https://animefire.plus/video/kingdom-5th-season"
    },
    {
      "id": 2007,
      "nome": "Kiniro Mosaic",
      "link": "https://animefire.plus/animes/kiniro-mosaic-todos-os-episodios",
      "texto_original": "Kiniro Mosaic",
      "rating": 7.33,
      "classificacao_etaria": "A14",
      "imagem_original": "https://animefire.plus/img/animes/kiniro-mosaic.webp",
      "imagem_pasta": "https://animefire.plus/img/animes/kiniro-mosaic/",
      "secao": "legendados",
      "pagina": 158,
      "total_episodios": 6,
      "link_video": "https://animefire.plus/video/kiniro-mosaic"
    },
    {
      "id": 2008,
      "nome": "Kinnikuman: Kanpeki Chоujin Shiso-hen Season 2",
      "link": "https://animefire.plus/animes/kinnikuman-kanpeki-choujin-shiso-hen-season-2-todos-os-episodios",
      "texto_original": "Kinnikuman: Kanpeki Chоujin Shiso-hen Season 2",
      "rating": 6.87,
      "classificacao_etaria": "A14",
      "imagem_original": "https://animefire.plus/img/animes/kinnikuman-kanpeki-choujin-shiso-hen-season-2.webp",
      "imagem_pasta": "https://animefire.plus/img/animes/kinnikuman-kanpeki-choujin-shiso-hen-season-2/",
      "secao": "legendados,lancamentos",
      "pagina": 6,
      "total_episodios": 1,
      "link_video": "https://animefire.plus/video/kinnikuman-kanpeki-choujin-shiso-hen-season-2"
    },
    {
      "id": 2009,
      "nome": "Kino no Tabi: The Beautiful World",
      "link": "https://animefire.plus/animes/kino-no-tabi-the-beautiful-world-todos-os-episodios",
      "texto_original": "Kino no Tabi: The Beautiful World",
      "rating": 8.4,
      "classificacao_etaria": "A16",
      "imagem_original": "https://animefire.plus/img/animes/kino-no-tabi-the-beautiful-world.webp",
      "imagem_pasta": "https://animefire.plus/img/animes/kino-no-tabi-the-beautiful-world/",
      "secao": "legendados",
      "pagina": 124,
      "total_episodios": 13,
      "link_video": "https://animefire.plus/video/kino-no-tabi-the-beautiful-world"
    },
    {
      "id": 2010,
      "nome": "Kino no Tabi: The Beautiful World - The Animated Series",
      "link": "https://animefire.plus/animes/kino-no-tabi-the-beautiful-world---the-animated-series-todos-os-episodios",
      "texto_original": "Kino no Tabi: The Beautiful World - The Animated Series",
      "rating": 7.62,
      "classificacao_etaria": "A16",
      "imagem_original": "https://animefire.plus/img/animes/kino-no-tabi-the-beautiful-world---the-animated-series.webp",
      "imagem_pasta": "https://animefire.plus/img/animes/kino-no-tabi-the-beautiful-world---the-animated-series/",
      "secao": "legendados",
      "pagina": 98,
      "total_episodios": 12,
      "link_video": "https://animefire.plus/video/kino-no-tabi-the-beautiful-world---the-animated-series"
    },
    {
      "id": 2011,
      "nome": "Kinoko Inu",
      "link": "https://animefire.plus/animes/kinoko-inu-todos-os-episodios",
      "texto_original": "Kinoko Inu",
      "rating": 6.89,
      "classificacao_etaria": "A14",
      "imagem_original": "https://animefire.plus/img/animes/kinoko-inu.webp",
      "imagem_pasta": "https://animefire.plus/img/animes/kinoko-inu/",
      "secao": "legendados",
      "pagina": 9,
      "total_episodios": 12,
      "link_video": "https://animefire.plus/video/kinoko-inu"
    },
    {
      "id": 2012,
      "nome": "Kinsou no Vermeil: Gakeppuchi Majutsushi wa Saikyou no Yakusai to Mahou Sekai wo Tsukisusumu",
      "link": "https://animefire.plus/animes/kinsou-no-vermeil-gakeppuchi-majutsushi-wa-saikyou-no-yakusai-to-mahou-sekai-wo-tsukisusumu-todos-os-episodios",
      "texto_original": "Kinsou no Vermeil: Gakeppuchi Majutsushi wa Saikyou no Yakusai to Mahou Sekai wo Tsukisusumu",
      "rating": 6.8,
      "classificacao_etaria": "A14",
      "imagem_original": "https://animefire.plus/img/animes/kinsou-no-vermeil-gakeppuchi-majutsushi-wa-saikyou-no-yakusai-to-mahou-sekai-wo-tsukisusumu.webp",
      "imagem_pasta": "https://animefire.plus/img/animes/kinsou-no-vermeil-gakeppuchi-majutsushi-wa-saikyou-no-yakusai-to-mahou-sekai-wo-tsukisusumu/",
      "secao": "legendados",
      "pagina": 31,
      "total_episodios": 12,
      "link_video": "https://animefire.plus/video/kinsou-no-vermeil-gakeppuchi-majutsushi-wa-saikyou-no-yakusai-to-mahou-sekai-wo-tsukisusumu"
    },
    {
      "id": 2013,
      "nome": "Kirakira☆Precure A La Mode",
      "link": "https://animefire.plus/animes/kirakira-precure-a-la-mode-todos-os-episodios",
      "texto_original": "Kirakira☆Precure A La Mode",
      "rating": 6.88,
      "classificacao_etaria": null,
      "imagem_original": "https://animefire.plus/img/animes/kirakira-precure-a-la-mode.webp",
      "imagem_pasta": "https://animefire.plus/img/animes/kirakira-precure-a-la-mode/",
      "secao": "legendados",
      "pagina": 67,
      "total_episodios": 49,
      "link_video": "https://animefire.plus/video/kirakira-precure-a-la-mode"
    },
    {
      "id": 2014,
      "nome": "Kirara",
      "link": "https://animefire.plus/animes/kirara-todos-os-episodios",
      "texto_original": "Kirara",
      "rating": 6.21,
      "classificacao_etaria": "A18",
      "imagem_original": "https://animefire.plus/img/animes/kirara.webp",
      "imagem_pasta": "https://animefire.plus/img/animes/kirara/",
      "secao": "legendados",
      "pagina": 66,
      "total_episodios": 1,
      "link_video": "https://animefire.plus/video/kirara"
    },
    {
      "id": 2015,
      "nome": "Kiratto Pri☆chan",
      "link": "https://animefire.plus/animes/kiratto-pri-chan-todos-os-episodios",
      "texto_original": "Kiratto Pri☆chan",
      "rating": 6.87,
      "classificacao_etaria": "A10",
      "imagem_original": "https://animefire.plus/img/animes/kiratto-pri-chan.webp",
      "imagem_pasta": "https://animefire.plus/img/animes/kiratto-pri-chan/",
      "secao": "legendados",
      "pagina": 124,
      "total_episodios": 10,
      "link_video": "https://animefire.plus/video/kiratto-pri-chan"
    }
  ],
  "pagination": {
    "current_page": 98,
    "per_page": 20,
    "total_items": 4269,
    "total_pages": 214,
    "has_next": true,
    "has_prev": true
  }
}
