{
  "message": "Animes da seção: legendados",
  "section": "legendados",
  "data": [
    {
      "id": 1526,
      "nome": "Horimiya (Dublado)",
      "link": "https://animefire.plus/animes/horimiya-dublado-todos-os-episodios",
      "texto_original": "Horimiya (Dublado)",
      "rating": 8.19,
      "classificacao_etaria": "A14",
      "imagem_original": "https://animefire.plus/img/animes/horimiya.webp",
      "imagem_pasta": "https://animefire.plus/img/animes/horimiya/",
      "secao": "dublados,legendados",
      "pagina": 15,
      "total_episodios": 13,
      "link_video": "https://animefire.plus/video/horimiya-dublado"
    },
    {
      "id": 1527,
      "nome": "Horimiya: Piece (Dublado)",
      "link": "https://animefire.plus/animes/horimiya-piece-dublado-todos-os-episodios",
      "texto_original": "Horimiya: Piece (Dublado)",
      "rating": 8.14,
      "classificacao_etaria": "A14",
      "imagem_original": "https://animefire.plus/img/animes/horimiya-piece.webp",
      "imagem_pasta": "https://animefire.plus/img/animes/horimiya-piece/",
      "secao": "dublados,legendados",
      "pagina": 6,
      "total_episodios": 13,
      "link_video": "https://animefire.plus/video/horimiya-piece-dublado"
    },
    {
      "id": 1528,
      "nome": "Hortensia Saga (TV)",
      "link": "https://animefire.plus/animes/hortensia-saga-tv-todos-os-episodios",
      "texto_original": "Hortensia Saga (TV)",
      "rating": 5.84,
      "classificacao_etaria": "A14",
      "imagem_original": "https://animefire.plus/img/animes/hortensia-saga-tv.webp",
      "imagem_pasta": "https://animefire.plus/img/animes/hortensia-saga-tv/",
      "secao": "legendados",
      "pagina": 49,
      "total_episodios": 12,
      "link_video": "https://animefire.plus/video/hortensia-saga-tv"
    },
    {
      "id": 1529,
      "nome": "Hoshi no Samidare (Dublado)",
      "link": "https://animefire.plus/animes/hoshi-no-samidare-dublado-todos-os-episodios",
      "texto_original": "Hoshi no Samidare (Dublado)",
      "rating": 5.63,
      "classificacao_etaria": "A14",
      "imagem_original": "https://animefire.plus/img/animes/hoshi-no-samidare.webp",
      "imagem_pasta": "https://animefire.plus/img/animes/hoshi-no-samidare/",
      "secao": "dublados,legendados",
      "pagina": 10,
      "total_episodios": 24,
      "link_video": "https://animefire.plus/video/hoshi-no-samidare-dublado"
    },
    {
      "id": 1530,
      "nome": "Hoshiai no Sora",
      "link": "https://animefire.plus/animes/hoshiai-no-sora-todos-os-episodios",
      "texto_original": "Hoshiai no Sora",
      "rating": 7.52,
      "classificacao_etaria": "A14",
      "imagem_original": "https://animefire.plus/img/animes/hoshiai-no-sora.webp",
      "imagem_pasta": "https://animefire.plus/img/animes/hoshiai-no-sora/",
      "secao": "legendados",
      "pagina": 110,
      "total_episodios": 1,
      "link_video": "https://animefire.plus/video/hoshiai-no-sora"
    },
    {
      "id": 1531,
      "nome": "Hoshifuru Oukoku no Nina (Dublado)",
      "link": "https://animefire.plus/animes/hoshifuru-oukoku-no-nina-dublado-todos-os-episodios",
      "texto_original": "Hoshifuru Oukoku no Nina (Dublado)",
      "rating": 7.38,
      "classificacao_etaria": "A14",
      "imagem_original": "https://animefire.plus/img/animes/hoshifuru-oukoku-no-nina.webp",
      "imagem_pasta": "https://animefire.plus/img/animes/hoshifuru-oukoku-no-nina/",
      "secao": "dublados,legendados,lancamentos",
      "pagina": 2,
      "total_episodios": 12,
      "link_video": "https://animefire.plus/video/hoshifuru-oukoku-no-nina-dublado"
    },
    {
      "id": 1532,
      "nome": "Hoshikuzu Paradise",
      "link": "https://animefire.plus/animes/hoshikuzu-paradise-todos-os-episodios",
      "texto_original": "Hoshikuzu Paradise",
      "rating": 5.59,
      "classificacao_etaria": "A14",
      "imagem_original": "https://animefire.plus/img/animes/hoshikuzu-paradise.webp",
      "imagem_pasta": "https://animefire.plus/img/animes/hoshikuzu-paradise/",
      "secao": "legendados",
      "pagina": 69,
      "total_episodios": 1,
      "link_video": "https://animefire.plus/video/hoshikuzu-paradise"
    },
    {
      "id": 1533,
      "nome": "Hoshikuzu Telepath",
      "link": "https://animefire.plus/animes/hoshikuzu-telepath-todos-os-episodios",
      "texto_original": "Hoshikuzu Telepath",
      "rating": 7.15,
      "classificacao_etaria": "A14",
      "imagem_original": "https://animefire.plus/img/animes/hoshikuzu-telepath.webp",
      "imagem_pasta": "https://animefire.plus/img/animes/hoshikuzu-telepath/",
      "secao": "legendados",
      "pagina": 19,
      "total_episodios": 12,
      "link_video": "https://animefire.plus/video/hoshikuzu-telepath"
    },
    {
      "id": 1534,
      "nome": "Hoshizora e Kakaru Hashi",
      "link": "https://animefire.plus/animes/hoshizora-e-kakaru-hashi-todos-os-episodios",
      "texto_original": "Hoshizora e Kakaru Hashi",
      "rating": 6.92,
      "classificacao_etaria": "A18",
      "imagem_original": "https://animefire.plus/img/animes/hoshizora-e-kakaru-hashi.webp",
      "imagem_pasta": "https://animefire.plus/img/animes/hoshizora-e-kakaru-hashi/",
      "secao": "legendados",
      "pagina": 138,
      "total_episodios": 12,
      "link_video": "https://animefire.plus/video/hoshizora-e-kakaru-hashi"
    },
    {
      "id": 1535,
      "nome": "Hotaru Kagayaku",
      "link": "https://animefire.plus/animes/hotaru-kagayaku-todos-os-episodios",
      "texto_original": "Hotaru Kagayaku",
      "rating": null,
      "classificacao_etaria": null,
      "imagem_original": "https://animefire.plus/img/animes/hotaru-kagayaku.webp",
      "imagem_pasta": "https://animefire.plus/img/animes/hotaru-kagayaku/",
      "secao": "legendados",
      "pagina": 82,
      "total_episodios": 1,
      "link_video": "https://animefire.plus/video/hotaru-kagayaku"
    },
    {
      "id": 1536,
      "nome": "Hotarubi no Mori e",
      "link": "https://animefire.plus/animes/hotarubi-no-mori-e-todos-os-episodios",
      "texto_original": "Hotarubi no Mori e",
      "rating": 8.49,
      "classificacao_etaria": null,
      "imagem_original": "https://animefire.plus/img/animes/hotarubi-no-mori-e.webp",
      "imagem_pasta": "https://animefire.plus/img/animes/hotarubi-no-mori-e/",
      "secao": "legendados",
      "pagina": 104,
      "total_episodios": 1,
      "link_video": "https://animefire.plus/video/hotarubi-no-mori-e"
    },
    {
      "id": 1537,
      "nome": "Hotel Inhumans",
      "link": "https://animefire.plus/animes/hotel-inhumans-todos-os-episodios",
      "texto_original": "Hotel Inhumans",
      "rating": 6.54,
      "classificacao_etaria": "A14",
      "imagem_original": "https://animefire.plus/img/animes/hotel-inhumans.webp",
      "imagem_pasta": "https://animefire.plus/img/animes/hotel-inhumans/",
      "secao": "legendados,lancamentos",
      "pagina": 1,
      "total_episodios": 5,
      "link_video": "https://animefire.plus/video/hotel-inhumans"
    },
    {
      "id": 1538,
      "nome": "Houkago No Pleiades",
      "link": "https://animefire.plus/animes/houkago-no-pleiades-todos-os-episodios",
      "texto_original": "Houkago No Pleiades",
      "rating": 6.16,
      "classificacao_etaria": null,
      "imagem_original": "https://animefire.plus/img/animes/houkago-no-pleiades.webp",
      "imagem_pasta": "https://animefire.plus/img/animes/houkago-no-pleiades/",
      "secao": "legendados",
      "pagina": 59,
      "total_episodios": 12,
      "link_video": "https://animefire.plus/video/houkago-no-pleiades"
    },
    {
      "id": 1539,
      "nome": "Houkago Saikoro Club",
      "link": "https://animefire.plus/animes/houkago-saikoro-club-todos-os-episodios",
      "texto_original": "Houkago Saikoro Club",
      "rating": 6.72,
      "classificacao_etaria": "A14",
      "imagem_original": "https://animefire.plus/img/animes/houkago-saikoro-club.webp",
      "imagem_pasta": "https://animefire.plus/img/animes/houkago-saikoro-club/",
      "secao": "legendados",
      "pagina": 111,
      "total_episodios": 0,
      "link_video": "https://animefire.plus/video/houkago-saikoro-club"
    },
    {
      "id": 1540,
      "nome": "Houkago Shounen Hanako-kun",
      "link": "https://animefire.plus/animes/houkago-shounen-hanako-kun-todos-os-episodios",
      "texto_original": "Houkago Shounen Hanako-kun",
      "rating": 7.1,
      "classificacao_etaria": "A14",
      "imagem_original": "https://animefire.plus/img/animes/houkago-shounen-hanako-kun.webp",
      "imagem_pasta": "https://animefire.plus/img/animes/houkago-shounen-hanako-kun/",
      "secao": "legendados",
      "pagina": 19,
      "total_episodios": 4,
      "link_video": "https://animefire.plus/video/houkago-shounen-hanako-kun"
    },
    {
      "id": 1541,
      "nome": "Houkago Shounen Hanako-kun Part 2",
      "link": "https://animefire.plus/animes/houkago-shounen-hanako-kun-part-2-todos-os-episodios",
      "texto_original": "Houkago Shounen Hanako-kun Part 2",
      "rating": 7.09,
      "classificacao_etaria": "A14",
      "imagem_original": "https://animefire.plus/img/animes/houkago-shounen-hanako-kun-part-2.webp",
      "imagem_pasta": "https://animefire.plus/img/animes/houkago-shounen-hanako-kun-part-2/",
      "secao": "legendados",
      "pagina": 10,
      "total_episodios": 4,
      "link_video": "https://animefire.plus/video/houkago-shounen-hanako-kun-part-2"
    },
    {
      "id": 1542,
      "nome": "Houkago Teibou Nisshi",
      "link": "https://animefire.plus/animes/houkago-teibou-nisshi-todos-os-episodios",
      "texto_original": "Houkago Teibou Nisshi",
      "rating": 7.38,
      "classificacao_etaria": "A14",
      "imagem_original": "https://animefire.plus/img/animes/houkago-teibou-nisshi.webp",
      "imagem_pasta": "https://animefire.plus/img/animes/houkago-teibou-nisshi/",
      "secao": "legendados",
      "pagina": 81,
      "total_episodios": 0,
      "link_video": "https://animefire.plus/video/houkago-teibou-nisshi"
    },
    {
      "id": 1543,
      "nome": "Hourou Musuko",
      "link": "https://animefire.plus/animes/hourou-musuko-todos-os-episodios",
      "texto_original": "Hourou Musuko",
      "rating": 7.79,
      "classificacao_etaria": "A14",
      "imagem_original": "https://animefire.plus/img/animes/hourou-musuko.webp",
      "imagem_pasta": "https://animefire.plus/img/animes/hourou-musuko/",
      "secao": "legendados",
      "pagina": 102,
      "total_episodios": 11,
      "link_video": "https://animefire.plus/video/hourou-musuko"
    },
    {
      "id": 1544,
      "nome": "Houseki no Kuni",
      "link": "https://animefire.plus/animes/houseki-no-kuni-todos-os-episodios",
      "texto_original": "Houseki no Kuni",
      "rating": 6.54,
      "classificacao_etaria": "A14",
      "imagem_original": "https://animefire.plus/img/animes/houseki-no-kuni.webp",
      "imagem_pasta": "https://animefire.plus/img/animes/houseki-no-kuni/",
      "secao": "legendados",
      "pagina": 62,
      "total_episodios": 12,
      "link_video": "https://animefire.plus/video/houseki-no-kuni"
    },
    {
      "id": 1545,
      "nome": "Housekishou Richard-shi no Nazo Kantei",
      "link": "https://animefire.plus/animes/housekishou-richard-shi-no-nazo-kantei-todos-os-episodios",
      "texto_original": "Housekishou Richard-shi no Nazo Kantei",
      "rating": 7.16,
      "classificacao_etaria": "A14",
      "imagem_original": "https://animefire.plus/img/animes/housekishou-richard-shi-no-nazo-kantei.webp",
      "imagem_pasta": "https://animefire.plus/img/animes/housekishou-richard-shi-no-nazo-kantei/",
      "secao": "legendados",
      "pagina": 92,
      "total_episodios": 1,
      "link_video": "https://animefire.plus/video/housekishou-richard-shi-no-nazo-kantei"
    }
  ],
  "pagination": {
    "current_page": 75,
    "per_page": 20,
    "total_items": 4269,
    "total_pages": 214,
    "has_next": true,
    "has_prev": true
  }
}
