{
  "message": "Animes da seção: legendados",
  "section": "legendados",
  "data": [
    {
      "id": 1832,
      "nome": "Kaleido Star: Legend of Phoenix - Layla Hamilton Monogatari",
      "link": "https://animefire.plus/animes/kaleido-star-legend-of-phoenix---layla-hamilton-monogatari-todos-os-episodios",
      "texto_original": "Kaleido Star: Legend of Phoenix - Layla Hamilton Monogatari",
      "rating": 7.91,
      "classificacao_etaria": "A10",
      "imagem_original": "https://animefire.plus/img/animes/kaleido-star-legend-of-phoenix---layla-hamilton-monogatari.webp",
      "imagem_pasta": "https://animefire.plus/img/animes/kaleido-star-legend-of-phoenix---layla-hamilton-monogatari/",
      "secao": "legendados",
      "pagina": 79,
      "total_episodios": 0,
      "link_video": "https://animefire.plus/video/kaleido-star-legend-of-phoenix---layla-hamilton-monogatari"
    },
    {
      "id": 1833,
      "nome": "Kamen no Maid Guy",
      "link": "https://animefire.plus/animes/kamen-no-maid-guy-todos-os-episodios",
      "texto_original": "Kamen no Maid Guy",
      "rating": 7.09,
      "classificacao_etaria": "A18",
      "imagem_original": "https://animefire.plus/img/animes/kamen-no-maid-guy.webp",
      "imagem_pasta": "https://animefire.plus/img/animes/kamen-no-maid-guy/",
      "secao": "legendados",
      "pagina": 156,
      "total_episodios": 12,
      "link_video": "https://animefire.plus/video/kamen-no-maid-guy"
    },
    {
      "id": 1834,
      "nome": "Kami Kuzu☆Idol",
      "link": "https://animefire.plus/animes/kami-kuzu-idol-todos-os-episodios",
      "texto_original": "Kami Kuzu☆Idol",
      "rating": 6.74,
      "classificacao_etaria": "A14",
      "imagem_original": "https://animefire.plus/img/animes/kami-kuzu-idol.webp",
      "imagem_pasta": "https://animefire.plus/img/animes/kami-kuzu-idol/",
      "secao": "legendados",
      "pagina": 32,
      "total_episodios": 10,
      "link_video": "https://animefire.plus/video/kami-kuzu-idol"
    },
    {
      "id": 1835,
      "nome": "Kami no Tou (Dublado)",
      "link": "https://animefire.plus/animes/kami-no-tou-dublado-todos-os-episodios",
      "texto_original": "Kami no Tou (Dublado)",
      "rating": 7.56,
      "classificacao_etaria": "A14",
      "imagem_original": "https://animefire.plus/img/animes/kami-no-tou.webp",
      "imagem_pasta": "https://animefire.plus/img/animes/kami-no-tou/",
      "secao": "dublados,legendados",
      "pagina": 9,
      "total_episodios": 13,
      "link_video": "https://animefire.plus/video/kami-no-tou-dublado"
    },
    {
      "id": 1836,
      "nome": "Kami no Tou: Ouji no Kikan (Dublado)",
      "link": "https://animefire.plus/animes/kami-no-tou-ouji-no-kikan-dublado-todos-os-episodios",
      "texto_original": "Kami no Tou: Ouji no Kikan (Dublado)",
      "rating": 6.68,
      "classificacao_etaria": "A14",
      "imagem_original": "https://animefire.plus/img/animes/kami-no-tou-ouji-no-kikan.webp",
      "imagem_pasta": "https://animefire.plus/img/animes/kami-no-tou-ouji-no-kikan/",
      "secao": "dublados,legendados,lancamentos",
      "pagina": 1,
      "total_episodios": 26,
      "link_video": "https://animefire.plus/video/kami-no-tou-ouji-no-kikan-dublado"
    },
    {
      "id": 1837,
      "nome": "Kami Nomi Zo Shiru Sekai",
      "link": "https://animefire.plus/animes/kami-nomi-zo-shiru-sekai-todos-os-episodios",
      "texto_original": "Kami Nomi Zo Shiru Sekai",
      "rating": 7.83,
      "classificacao_etaria": "A14",
      "imagem_original": "https://animefire.plus/img/animes/kami-nomi-zo-shiru-sekai.webp",
      "imagem_pasta": "https://animefire.plus/img/animes/kami-nomi-zo-shiru-sekai/",
      "secao": "legendados",
      "pagina": 96,
      "total_episodios": 12,
      "link_video": "https://animefire.plus/video/kami-nomi-zo-shiru-sekai"
    },
    {
      "id": 1838,
      "nome": "Kami nomi zo Shiru Sekai II",
      "link": "https://animefire.plus/animes/kami-nomi-zo-shiru-sekai-ii-todos-os-episodios",
      "texto_original": "Kami nomi zo Shiru Sekai II",
      "rating": 7.99,
      "classificacao_etaria": "A14",
      "imagem_original": "https://animefire.plus/img/animes/kami-nomi-zo-shiru-sekai-ii.webp",
      "imagem_pasta": "https://animefire.plus/img/animes/kami-nomi-zo-shiru-sekai-ii/",
      "secao": "legendados",
      "pagina": 74,
      "total_episodios": 12,
      "link_video": "https://animefire.plus/video/kami-nomi-zo-shiru-sekai-ii"
    },
    {
      "id": 1839,
      "nome": "Kami nomi zo Shiru Sekai: 4-nin to Idol",
      "link": "https://animefire.plus/animes/kami-nomi-zo-shiru-sekai-4-nin-to-idol-todos-os-episodios",
      "texto_original": "Kami nomi zo Shiru Sekai: 4-nin to Idol",
      "rating": 7.35,
      "classificacao_etaria": "A14",
      "imagem_original": "https://animefire.plus/img/animes/kami-nomi-zo-shiru-sekai-4-nin-to-idol.webp",
      "imagem_pasta": "https://animefire.plus/img/animes/kami-nomi-zo-shiru-sekai-4-nin-to-idol/",
      "secao": "legendados",
      "pagina": 64,
      "total_episodios": 1,
      "link_video": "https://animefire.plus/video/kami-nomi-zo-shiru-sekai-4-nin-to-idol"
    },
    {
      "id": 1840,
      "nome": "Kami nomi zo Shiru Sekai: Megami-hen",
      "link": "https://animefire.plus/animes/kami-nomi-zo-shiru-sekai-megami-hen-todos-os-episodios",
      "texto_original": "Kami nomi zo Shiru Sekai: Megami-hen",
      "rating": 8.11,
      "classificacao_etaria": "A14",
      "imagem_original": "https://animefire.plus/img/animes/kami-nomi-zo-shiru-sekai-megami-hen.webp",
      "imagem_pasta": "https://animefire.plus/img/animes/kami-nomi-zo-shiru-sekai-megami-hen/",
      "secao": "legendados",
      "pagina": 57,
      "total_episodios": 12,
      "link_video": "https://animefire.plus/video/kami-nomi-zo-shiru-sekai-megami-hen"
    },
    {
      "id": 1841,
      "nome": "Kami nomi zo Shiru Sekai: Tenri-hen",
      "link": "https://animefire.plus/animes/kami-nomi-zo-shiru-sekai-tenri-hen-todos-os-episodios",
      "texto_original": "Kami nomi zo Shiru Sekai: Tenri-hen",
      "rating": 7.75,
      "classificacao_etaria": "A14",
      "imagem_original": "https://animefire.plus/img/animes/kami-nomi-zo-shiru-sekai-tenri-hen.webp",
      "imagem_pasta": "https://animefire.plus/img/animes/kami-nomi-zo-shiru-sekai-tenri-hen/",
      "secao": "legendados",
      "pagina": 64,
      "total_episodios": 1,
      "link_video": "https://animefire.plus/video/kami-nomi-zo-shiru-sekai-tenri-hen"
    },
    {
      "id": 1842,
      "nome": "Kami wa Game ni Ueteiru. (Dublado)",
      "link": "https://animefire.plus/animes/kami-wa-game-ni-ueteiru-dublado-todos-os-episodios",
      "texto_original": "Kami wa Game ni Ueteiru. (Dublado)",
      "rating": 6.26,
      "classificacao_etaria": "A14",
      "imagem_original": "https://animefire.plus/img/animes/kami-wa-game-ni-ueteiru.webp",
      "imagem_pasta": "https://animefire.plus/img/animes/kami-wa-game-ni-ueteiru/",
      "secao": "dublados,legendados,lancamentos",
      "pagina": 3,
      "total_episodios": 13,
      "link_video": "https://animefire.plus/video/kami-wa-game-ni-ueteiru-dublado"
    },
    {
      "id": 1843,
      "nome": "Kami-tachi ni Hirowareta Otoko (Dublado)",
      "link": "https://animefire.plus/animes/kami-tachi-ni-hirowareta-otoko-dublado-todos-os-episodios",
      "texto_original": "Kami-tachi ni Hirowareta Otoko (Dublado)",
      "rating": 6.98,
      "classificacao_etaria": "A14",
      "imagem_original": "https://animefire.plus/img/animes/kami-tachi-ni-hirowareta-otoko.webp",
      "imagem_pasta": "https://animefire.plus/img/animes/kami-tachi-ni-hirowareta-otoko/",
      "secao": "dublados,legendados",
      "pagina": 5,
      "total_episodios": 12,
      "link_video": "https://animefire.plus/video/kami-tachi-ni-hirowareta-otoko-dublado"
    },
    {
      "id": 1844,
      "nome": "Kami-tachi ni Hirowareta Otoko 2nd Season",
      "link": "https://animefire.plus/animes/kami-tachi-ni-hirowareta-otoko-2nd-season-todos-os-episodios",
      "texto_original": "Kami-tachi ni Hirowareta Otoko 2nd Season",
      "rating": 6.81,
      "classificacao_etaria": "A14",
      "imagem_original": "https://animefire.plus/img/animes/kami-tachi-ni-hirowareta-otoko-2nd-season.webp",
      "imagem_pasta": "https://animefire.plus/img/animes/kami-tachi-ni-hirowareta-otoko-2nd-season/",
      "secao": "legendados",
      "pagina": 28,
      "total_episodios": 12,
      "link_video": "https://animefire.plus/video/kami-tachi-ni-hirowareta-otoko-2nd-season"
    },
    {
      "id": 1846,
      "nome": "Kamichama Karin",
      "link": "https://animefire.plus/animes/kamichama-karin-todos-os-episodios",
      "texto_original": "Kamichama Karin",
      "rating": 7.42,
      "classificacao_etaria": "A14",
      "imagem_original": "https://animefire.plus/img/animes/kamichama-karin.webp",
      "imagem_pasta": "https://animefire.plus/img/animes/kamichama-karin/",
      "secao": "legendados",
      "pagina": 115,
      "total_episodios": 26,
      "link_video": "https://animefire.plus/video/kamichama-karin"
    },
    {
      "id": 1847,
      "nome": "Kamichu!",
      "link": "https://animefire.plus/animes/kamichu-todos-os-episodios",
      "texto_original": "Kamichu!",
      "rating": 7.45,
      "classificacao_etaria": null,
      "imagem_original": "https://animefire.plus/img/animes/kamichu.webp",
      "imagem_pasta": "https://animefire.plus/img/animes/kamichu/",
      "secao": "legendados",
      "pagina": 151,
      "total_episodios": 16,
      "link_video": "https://animefire.plus/video/kamichu"
    },
    {
      "id": 1848,
      "nome": "Kamierabi",
      "link": "https://animefire.plus/animes/kamierabi-todos-os-episodios",
      "texto_original": "Kamierabi",
      "rating": 5.82,
      "classificacao_etaria": "A14",
      "imagem_original": "https://animefire.plus/img/animes/kamierabi.webp",
      "imagem_pasta": "https://animefire.plus/img/animes/kamierabi/",
      "secao": "legendados",
      "pagina": 20,
      "total_episodios": 12,
      "link_video": "https://animefire.plus/video/kamierabi"
    },
    {
      "id": 1849,
      "nome": "Kamierabi 2nd Season",
      "link": "https://animefire.plus/animes/kamierabi-2nd-season-todos-os-episodios",
      "texto_original": "Kamierabi 2nd Season",
      "rating": 6.19,
      "classificacao_etaria": "A14",
      "imagem_original": "https://animefire.plus/img/animes/kamierabi-2nd-season.webp",
      "imagem_pasta": "https://animefire.plus/img/animes/kamierabi-2nd-season/",
      "secao": "legendados",
      "pagina": 10,
      "total_episodios": 12,
      "link_video": "https://animefire.plus/video/kamierabi-2nd-season"
    },
    {
      "id": 1850,
      "nome": "Kamigami no Asobi",
      "link": "https://animefire.plus/animes/kamigami-no-asobi-todos-os-episodios",
      "texto_original": "Kamigami no Asobi",
      "rating": 7.26,
      "classificacao_etaria": "A14",
      "imagem_original": "https://animefire.plus/img/animes/kamigami-no-asobi.webp",
      "imagem_pasta": "https://animefire.plus/img/animes/kamigami-no-asobi/",
      "secao": "legendados",
      "pagina": 156,
      "total_episodios": 0,
      "link_video": "https://animefire.plus/video/kamigami-no-asobi"
    },
    {
      "id": 1851,
      "nome": "Kamikaze Kaitou Jeanne",
      "link": "https://animefire.plus/animes/kamikaze-kaitou-jeanne-todos-os-episodios",
      "texto_original": "Kamikaze Kaitou Jeanne",
      "rating": 7.52,
      "classificacao_etaria": "A14",
      "imagem_original": "https://animefire.plus/img/animes/kamikaze-kaitou-jeanne.webp",
      "imagem_pasta": "https://animefire.plus/img/animes/kamikaze-kaitou-jeanne/",
      "secao": "legendados",
      "pagina": 114,
      "total_episodios": 0,
      "link_video": "https://animefire.plus/video/kamikaze-kaitou-jeanne"
    },
    {
      "id": 1852,
      "nome": "Kaminaki Sekai no Kamisama Katsudou",
      "link": "https://animefire.plus/animes/kaminaki-sekai-no-kamisama-katsudou-todos-os-episodios",
      "texto_original": "Kaminaki Sekai no Kamisama Katsudou",
      "rating": 6.68,
      "classificacao_etaria": "A16",
      "imagem_original": "https://animefire.plus/img/animes/kaminaki-sekai-no-kamisama-katsudou.jpg",
      "imagem_pasta": "https://animefire.plus/img/animes/kaminaki-sekai-no-kamisama-katsudou/",
      "secao": "legendados",
      "pagina": 24,
      "total_episodios": 12,
      "link_video": "https://animefire.plus/video/kaminaki-sekai-no-kamisama-katsudou"
    }
  ],
  "pagination": {
    "current_page": 90,
    "per_page": 20,
    "total_items": 4269,
    "total_pages": 214,
    "has_next": true,
    "has_prev": true
  }
}
