{
  "message": "Animes da seção: legendados",
  "section": "legendados",
  "data": [
    {
      "id": 1707,
      "nome": "Jashin-chan Dropkick",
      "link": "https://animefire.plus/animes/jashin-chan-dropkick-todos-os-episodios",
      "texto_original": "Jashin-chan Dropkick",
      "rating": 6.91,
      "classificacao_etaria": "A14",
      "imagem_original": "https://animefire.plus/img/animes/jashin-chan-dropkick.webp",
      "imagem_pasta": "https://animefire.plus/img/animes/jashin-chan-dropkick/",
      "secao": "legendados",
      "pagina": 126,
      "total_episodios": 12,
      "link_video": "https://animefire.plus/video/jashin-chan-dropkick"
    },
    {
      "id": 1708,
      "nome": "Jashin-chan Dropkick 2nd Season",
      "link": "https://animefire.plus/animes/jashin-chan-dropkick-2nd-season-todos-os-episodios",
      "texto_original": "Jashin-chan Dropkick 2nd Season",
      "rating": 7.42,
      "classificacao_etaria": "A14",
      "imagem_original": "https://animefire.plus/img/animes/jashin-chan-dropkick-2nd-season.webp",
      "imagem_pasta": "https://animefire.plus/img/animes/jashin-chan-dropkick-2nd-season/",
      "secao": "legendados",
      "pagina": 81,
      "total_episodios": 12,
      "link_video": "https://animefire.plus/video/jashin-chan-dropkick-2nd-season"
    },
    {
      "id": 1709,
      "nome": "Jashin-chan Dropkick Episode 12",
      "link": "https://animefire.plus/animes/jashin-chan-dropkick-episode-12-todos-os-episodios",
      "texto_original": "Jashin-chan Dropkick Episode 12",
      "rating": 7.08,
      "classificacao_etaria": "A14",
      "imagem_original": "https://animefire.plus/img/animes/jashin-chan-dropkick-episode-12.webp",
      "imagem_pasta": "https://animefire.plus/img/animes/jashin-chan-dropkick-episode-12/",
      "secao": "legendados",
      "pagina": 86,
      "total_episodios": 1,
      "link_video": "https://animefire.plus/video/jashin-chan-dropkick-episode-12"
    },
    {
      "id": 1710,
      "nome": "Jashin-chan Dropkick X",
      "link": "https://animefire.plus/animes/jashin-chan-dropkick-x-todos-os-episodios",
      "texto_original": "Jashin-chan Dropkick X",
      "rating": 7.42,
      "classificacao_etaria": "A14",
      "imagem_original": "https://animefire.plus/img/animes/jashin-chan-dropkick-x.webp",
      "imagem_pasta": "https://animefire.plus/img/animes/jashin-chan-dropkick-x/",
      "secao": "legendados",
      "pagina": 31,
      "total_episodios": 12,
      "link_video": "https://animefire.plus/video/jashin-chan-dropkick-x"
    },
    {
      "id": 1711,
      "nome": "Ji Yao Lu: Qicheng Pian",
      "link": "https://animefire.plus/animes/ji-yao-lu-qicheng-pian-todos-os-episodios",
      "texto_original": "Ji Yao Lu: Qicheng Pian",
      "rating": 6.41,
      "classificacao_etaria": "A14",
      "imagem_original": "https://animefire.plus/img/animes/ji-yao-lu-qicheng-pian.webp",
      "imagem_pasta": "https://animefire.plus/img/animes/ji-yao-lu-qicheng-pian/",
      "secao": "legendados",
      "pagina": 8,
      "total_episodios": 12,
      "link_video": "https://animefire.plus/video/ji-yao-lu-qicheng-pian"
    },
    {
      "id": 1712,
      "nome": "Jian Wangchao",
      "link": "https://animefire.plus/animes/jian-wangchao-todos-os-episodios",
      "texto_original": "Jian Wangchao",
      "rating": 6.01,
      "classificacao_etaria": "A14",
      "imagem_original": "https://animefire.plus/img/animes/jian-wangchao.webp",
      "imagem_pasta": "https://animefire.plus/img/animes/jian-wangchao/",
      "secao": "legendados",
      "pagina": 61,
      "total_episodios": 7,
      "link_video": "https://animefire.plus/video/jian-wangchao"
    },
    {
      "id": 1713,
      "nome": "Jibaku Shounen Hanako-kun (Dublado)",
      "link": "https://animefire.plus/animes/jibaku-shounen-hanako-kun-dublado-todos-os-episodios",
      "texto_original": "Jibaku Shounen Hanako-kun (Dublado)",
      "rating": 7.83,
      "classificacao_etaria": "A14",
      "imagem_original": "https://animefire.plus/img/animes/jibaku-shounen-hanako-kun.webp",
      "imagem_pasta": "https://animefire.plus/img/animes/jibaku-shounen-hanako-kun/",
      "secao": "dublados,legendados",
      "pagina": 15,
      "total_episodios": 12,
      "link_video": "https://animefire.plus/video/jibaku-shounen-hanako-kun-dublado"
    },
    {
      "id": 1714,
      "nome": "Jibaku Shounen Hanako-kun 2",
      "link": "https://animefire.plus/animes/jibaku-shounen-hanako-kun-2-todos-os-episodios",
      "texto_original": "Jibaku Shounen Hanako-kun 2",
      "rating": 7.9,
      "classificacao_etaria": "A14",
      "imagem_original": "https://animefire.plus/img/animes/jibaku-shounen-hanako-kun-2.webp",
      "imagem_pasta": "https://animefire.plus/img/animes/jibaku-shounen-hanako-kun-2/",
      "secao": "legendados",
      "pagina": 8,
      "total_episodios": 12,
      "link_video": "https://animefire.plus/video/jibaku-shounen-hanako-kun-2"
    },
    {
      "id": 1715,
      "nome": "Jibaku Shounen Hanako-kun 2 Part 2",
      "link": "https://animefire.plus/animes/jibaku-shounen-hanako-kun-2-part-2-todos-os-episodios",
      "texto_original": "Jibaku Shounen Hanako-kun 2 Part 2",
      "rating": 7.92,
      "classificacao_etaria": "A14",
      "imagem_original": "https://animefire.plus/img/animes/jibaku-shounen-hanako-kun-2-part-2.webp",
      "imagem_pasta": "https://animefire.plus/img/animes/jibaku-shounen-hanako-kun-2-part-2/",
      "secao": "legendados,lancamentos",
      "pagina": 2,
      "total_episodios": 5,
      "link_video": "https://animefire.plus/video/jibaku-shounen-hanako-kun-2-part-2"
    },
    {
      "id": 1716,
      "nome": "Jibaku-kun",
      "link": "https://animefire.plus/animes/jibaku-kun-todos-os-episodios",
      "texto_original": "Jibaku-kun",
      "rating": 7.49,
      "classificacao_etaria": "A14",
      "imagem_original": "https://animefire.plus/img/animes/jibaku-kun.webp",
      "imagem_pasta": "https://animefire.plus/img/animes/jibaku-kun/",
      "secao": "legendados",
      "pagina": 179,
      "total_episodios": 26,
      "link_video": "https://animefire.plus/video/jibaku-kun"
    },
    {
      "id": 1717,
      "nome": "Jidou Hanbaiki ni Umarekawatta Ore wa Meikyuu wo Samayou (Dublado)",
      "link": "https://animefire.plus/animes/jidou-hanbaiki-ni-umarekawatta-ore-wa-meikyuu-wo-samayou-dublado-todos-os-episodios",
      "texto_original": "Jidou Hanbaiki ni Umarekawatta Ore wa Meikyuu wo Samayou (Dublado)",
      "rating": 6.45,
      "classificacao_etaria": "A14",
      "imagem_original": "https://animefire.plus/img/animes/jidou-hanbaiki-ni-umarekawatta-ore-wa-meikyuu-wo-samayou.webp",
      "imagem_pasta": "https://animefire.plus/img/animes/jidou-hanbaiki-ni-umarekawatta-ore-wa-meikyuu-wo-samayou/",
      "secao": "dublados,legendados",
      "pagina": 6,
      "total_episodios": 12,
      "link_video": "https://animefire.plus/video/jidou-hanbaiki-ni-umarekawatta-ore-wa-meikyuu-wo-samayou-dublado"
    },
    {
      "id": 1718,
      "nome": "Jidou Hanbaiki ni Umarekawatta Ore wa Meikyuu wo Samayou 2nd Season",
      "link": "https://animefire.plus/animes/jidou-hanbaiki-ni-umarekawatta-ore-wa-meikyuu-wo-samayou-2nd-season-todos-os-episodios",
      "texto_original": "Jidou Hanbaiki ni Umarekawatta Ore wa Meikyuu wo Samayou 2nd Season",
      "rating": 6.61,
      "classificacao_etaria": "A14",
      "imagem_original": "https://animefire.plus/img/animes/jidou-hanbaiki-ni-umarekawatta-ore-wa-meikyuu-wo-samayou-2nd-season.webp",
      "imagem_pasta": "https://animefire.plus/img/animes/jidou-hanbaiki-ni-umarekawatta-ore-wa-meikyuu-wo-samayou-2nd-season/",
      "secao": "legendados,lancamentos",
      "pagina": 1,
      "total_episodios": 5,
      "link_video": "https://animefire.plus/video/jidou-hanbaiki-ni-umarekawatta-ore-wa-meikyuu-wo-samayou-2nd-season"
    },
    {
      "id": 1719,
      "nome": "Jie Mo Ren",
      "link": "https://animefire.plus/animes/jie-mo-ren-todos-os-episodios",
      "texto_original": "Jie Mo Ren",
      "rating": 6.34,
      "classificacao_etaria": "A14",
      "imagem_original": "https://animefire.plus/img/animes/jie-mo-ren.webp",
      "imagem_pasta": "https://animefire.plus/img/animes/jie-mo-ren/",
      "secao": "legendados",
      "pagina": 147,
      "total_episodios": 14,
      "link_video": "https://animefire.plus/video/jie-mo-ren"
    },
    {
      "id": 1720,
      "nome": "Jie Yao",
      "link": "https://animefire.plus/animes/jie-yao-todos-os-episodios",
      "texto_original": "Jie Yao",
      "rating": 7.01,
      "classificacao_etaria": "A14",
      "imagem_original": "https://animefire.plus/img/animes/jie-yao.webp",
      "imagem_pasta": "https://animefire.plus/img/animes/jie-yao/",
      "secao": "legendados",
      "pagina": 90,
      "total_episodios": 0,
      "link_video": "https://animefire.plus/video/jie-yao"
    },
    {
      "id": 1721,
      "nome": "Jigoku Sensei Nube",
      "link": "https://animefire.plus/animes/jigoku-sensei-nube-todos-os-episodios",
      "texto_original": "Jigoku Sensei Nube",
      "rating": 7.62,
      "classificacao_etaria": "A14",
      "imagem_original": "https://animefire.plus/img/animes/jigoku-sensei-nube.webp",
      "imagem_pasta": "https://animefire.plus/img/animes/jigoku-sensei-nube/",
      "secao": "legendados",
      "pagina": 122,
      "total_episodios": 49,
      "link_video": "https://animefire.plus/video/jigoku-sensei-nube"
    },
    {
      "id": 1722,
      "nome": "Jigoku Sensei Nube (2025)",
      "link": "https://animefire.plus/animes/jigoku-sensei-nube-2025-todos-os-episodios",
      "texto_original": "Jigoku Sensei Nube (2025)",
      "rating": 6.69,
      "classificacao_etaria": "A14",
      "imagem_original": "https://animefire.plus/img/animes/jigoku-sensei-nube-2025.webp",
      "imagem_pasta": "https://animefire.plus/img/animes/jigoku-sensei-nube-2025/",
      "secao": "legendados,lancamentos",
      "pagina": 2,
      "total_episodios": 2,
      "link_video": "https://animefire.plus/video/jigoku-sensei-nube-2025"
    },
    {
      "id": 1723,
      "nome": "Jigoku Shoujo (Dublado)",
      "link": "https://animefire.plus/animes/jigoku-shoujo-dublado-todos-os-episodios",
      "texto_original": "Jigoku Shoujo (Dublado)",
      "rating": 7.68,
      "classificacao_etaria": "A16",
      "imagem_original": "https://animefire.plus/img/animes/jigoku-shoujo.webp",
      "imagem_pasta": "https://animefire.plus/img/animes/jigoku-shoujo/",
      "secao": "dublados,legendados",
      "pagina": 25,
      "total_episodios": 26,
      "link_video": "https://animefire.plus/video/jigoku-shoujo-dublado"
    },
    {
      "id": 1724,
      "nome": "Jigoku Shoujo Futakomori",
      "link": "https://animefire.plus/animes/jigoku-shoujo-futakomori-todos-os-episodios",
      "texto_original": "Jigoku Shoujo Futakomori",
      "rating": 8.01,
      "classificacao_etaria": "A16",
      "imagem_original": "https://animefire.plus/img/animes/jigoku-shoujo-futakomori.webp",
      "imagem_pasta": "https://animefire.plus/img/animes/jigoku-shoujo-futakomori/",
      "secao": "legendados",
      "pagina": 177,
      "total_episodios": 0,
      "link_video": "https://animefire.plus/video/jigoku-shoujo-futakomori"
    },
    {
      "id": 1725,
      "nome": "Jigoku Shoujo Mitsuganae",
      "link": "https://animefire.plus/animes/jigoku-shoujo-mitsuganae-todos-os-episodios",
      "texto_original": "Jigoku Shoujo Mitsuganae",
      "rating": 7.72,
      "classificacao_etaria": "A16",
      "imagem_original": "https://animefire.plus/img/animes/jigoku-shoujo-mitsuganae.webp",
      "imagem_pasta": "https://animefire.plus/img/animes/jigoku-shoujo-mitsuganae/",
      "secao": "legendados",
      "pagina": 167,
      "total_episodios": 0,
      "link_video": "https://animefire.plus/video/jigoku-shoujo-mitsuganae"
    },
    {
      "id": 1726,
      "nome": "Jigoku Shoujo: Yoi no Togi",
      "link": "https://animefire.plus/animes/jigoku-shoujo-yoi-no-togi-todos-os-episodios",
      "texto_original": "Jigoku Shoujo: Yoi no Togi",
      "rating": 6.61,
      "classificacao_etaria": "A16",
      "imagem_original": "https://animefire.plus/img/animes/jigoku-shoujo-yoi-no-togi.webp",
      "imagem_pasta": "https://animefire.plus/img/animes/jigoku-shoujo-yoi-no-togi/",
      "secao": "legendados",
      "pagina": 126,
      "total_episodios": 12,
      "link_video": "https://animefire.plus/video/jigoku-shoujo-yoi-no-togi"
    }
  ],
  "pagination": {
    "current_page": 84,
    "per_page": 20,
    "total_items": 4269,
    "total_pages": 214,
    "has_next": true,
    "has_prev": true
  }
}
