{
  "message": "Animes da seção: legendados",
  "section": "legendados",
  "data": [
    {
      "id": 827,
      "nome": "Digimon Xros Wars: Aku no Death General to Nanatsu no Oukoku",
      "link": "https://animefire.plus/animes/digimon-xros-wars-aku-no-death-general-to-nanatsu-no-oukoku-todos-os-episodios",
      "texto_original": "Digimon Xros Wars: Aku no Death General to Nanatsu no Oukoku",
      "rating": 7.32,
      "classificacao_etaria": "A10",
      "imagem_original": "https://animefire.plus/img/animes/digimon-xros-wars-aku-no-death-general-to-nanatsu-no-oukoku.webp",
      "imagem_pasta": "https://animefire.plus/img/animes/digimon-xros-wars-aku-no-death-general-to-nanatsu-no-oukoku/",
      "secao": "legendados",
      "pagina": 148,
      "total_episodios": 0,
      "link_video": "https://animefire.plus/video/digimon-xros-wars-aku-no-death-general-to-nanatsu-no-oukoku"
    },
    {
      "id": 828,
      "nome": "Digimon Xros Wars: Toki wo Kakeru Shounen Hunter-tachi",
      "link": "https://animefire.plus/animes/digimon-xros-wars-toki-wo-kakeru-shounen-hunter-tachi-todos-os-episodios",
      "texto_original": "Digimon Xros Wars: Toki wo Kakeru Shounen Hunter-tachi",
      "rating": 6.47,
      "classificacao_etaria": "A10",
      "imagem_original": "https://animefire.plus/img/animes/digimon-xros-wars-toki-wo-kakeru-shounen-hunter-tachi.webp",
      "imagem_pasta": "https://animefire.plus/img/animes/digimon-xros-wars-toki-wo-kakeru-shounen-hunter-tachi/",
      "secao": "legendados",
      "pagina": 55,
      "total_episodios": 25,
      "link_video": "https://animefire.plus/video/digimon-xros-wars-toki-wo-kakeru-shounen-hunter-tachi"
    },
    {
      "id": 829,
      "nome": "Dimension W",
      "link": "https://animefire.plus/animes/dimension-w-todos-os-episodios",
      "texto_original": "Dimension W",
      "rating": 7.29,
      "classificacao_etaria": "A16",
      "imagem_original": "https://animefire.plus/img/animes/dimension-w.webp",
      "imagem_pasta": "https://animefire.plus/img/animes/dimension-w/",
      "secao": "legendados",
      "pagina": 162,
      "total_episodios": 3,
      "link_video": "https://animefire.plus/video/dimension-w"
    },
    {
      "id": 830,
      "nome": "Dirty Pair",
      "link": "https://animefire.plus/animes/dirty-pair-todos-os-episodios",
      "texto_original": "Dirty Pair",
      "rating": 7.18,
      "classificacao_etaria": "A18",
      "imagem_original": "https://animefire.plus/img/animes/dirty-pair.webp",
      "imagem_pasta": "https://animefire.plus/img/animes/dirty-pair/",
      "secao": "legendados",
      "pagina": 77,
      "total_episodios": 26,
      "link_video": "https://animefire.plus/video/dirty-pair"
    },
    {
      "id": 831,
      "nome": "Dive!!",
      "link": "https://animefire.plus/animes/dive-todos-os-episodios",
      "texto_original": "Dive!!",
      "rating": 6.15,
      "classificacao_etaria": "A14",
      "imagem_original": "https://animefire.plus/img/animes/dive.webp",
      "imagem_pasta": "https://animefire.plus/img/animes/dive/",
      "secao": "legendados",
      "pagina": 138,
      "total_episodios": 12,
      "link_video": "https://animefire.plus/video/dive"
    },
    {
      "id": 832,
      "nome": "Divergence Eve",
      "link": "https://animefire.plus/animes/divergence-eve-todos-os-episodios",
      "texto_original": "Divergence Eve",
      "rating": 6,
      "classificacao_etaria": "A18",
      "imagem_original": "https://animefire.plus/img/animes/divergence-eve.webp",
      "imagem_pasta": "https://animefire.plus/img/animes/divergence-eve/",
      "secao": "legendados",
      "pagina": 103,
      "total_episodios": 0,
      "link_video": "https://animefire.plus/video/divergence-eve"
    },
    {
      "id": 833,
      "nome": "Divergence Eve 2: Misaki Chronicles",
      "link": "https://animefire.plus/animes/divergence-eve-2-misaki-chronicles-todos-os-episodios",
      "texto_original": "Divergence Eve 2: Misaki Chronicles",
      "rating": 6.35,
      "classificacao_etaria": "A14",
      "imagem_original": "https://animefire.plus/img/animes/divergence-eve-2-misaki-chronicles.webp",
      "imagem_pasta": "https://animefire.plus/img/animes/divergence-eve-2-misaki-chronicles/",
      "secao": "legendados",
      "pagina": 108,
      "total_episodios": 13,
      "link_video": "https://animefire.plus/video/divergence-eve-2-misaki-chronicles"
    },
    {
      "id": 834,
      "nome": "Divine Gate",
      "link": "https://animefire.plus/animes/divine-gate-todos-os-episodios",
      "texto_original": "Divine Gate",
      "rating": 5.75,
      "classificacao_etaria": "A14",
      "imagem_original": "https://animefire.plus/img/animes/divine-gate.webp",
      "imagem_pasta": "https://animefire.plus/img/animes/divine-gate/",
      "secao": "legendados",
      "pagina": 114,
      "total_episodios": 0,
      "link_video": "https://animefire.plus/video/divine-gate"
    },
    {
      "id": 835,
      "nome": "DNA² (Dublado)",
      "link": "https://animefire.plus/animes/dna-dublado-todos-os-episodios",
      "texto_original": "DNA² (Dublado)",
      "rating": 6.73,
      "classificacao_etaria": "A14",
      "imagem_original": "https://animefire.plus/img/animes/dna.webp",
      "imagem_pasta": "https://animefire.plus/img/animes/dna/",
      "secao": "dublados,legendados",
      "pagina": 25,
      "total_episodios": 12,
      "link_video": "https://animefire.plus/video/dna-dublado"
    },
    {
      "id": 836,
      "nome": "Do It Yourself!!",
      "link": "https://animefire.plus/animes/do-it-yourself-todos-os-episodios",
      "texto_original": "Do It Yourself!!",
      "rating": 7.45,
      "classificacao_etaria": "A14",
      "imagem_original": "https://animefire.plus/img/animes/do-it-yourself.webp",
      "imagem_pasta": "https://animefire.plus/img/animes/do-it-yourself/",
      "secao": "legendados",
      "pagina": 29,
      "total_episodios": 12,
      "link_video": "https://animefire.plus/video/do-it-yourself"
    },
    {
      "id": 837,
      "nome": "Dog Days",
      "link": "https://animefire.plus/animes/dog-days-todos-os-episodios",
      "texto_original": "Dog Days",
      "rating": 7.02,
      "classificacao_etaria": "A14",
      "imagem_original": "https://animefire.plus/img/animes/dog-days.webp",
      "imagem_pasta": "https://animefire.plus/img/animes/dog-days/",
      "secao": "legendados",
      "pagina": 57,
      "total_episodios": 13,
      "link_video": "https://animefire.plus/video/dog-days"
    },
    {
      "id": 838,
      "nome": "Dog Days'",
      "link": "https://animefire.plus/animes/dog-days-2-todos-os-episodios",
      "texto_original": "Dog Days'",
      "rating": 7.14,
      "classificacao_etaria": "A14",
      "imagem_original": "https://animefire.plus/img/animes/dog-days-2.webp",
      "imagem_pasta": "https://animefire.plus/img/animes/dog-days-2/",
      "secao": "legendados",
      "pagina": 57,
      "total_episodios": 13,
      "link_video": "https://animefire.plus/video/dog-days-2"
    },
    {
      "id": 839,
      "nome": "Dog Days''",
      "link": "https://animefire.plus/animes/dog-days-3-todos-os-episodios",
      "texto_original": "Dog Days''",
      "rating": 7.03,
      "classificacao_etaria": "A14",
      "imagem_original": "https://animefire.plus/img/animes/dog-days-3.webp",
      "imagem_pasta": "https://animefire.plus/img/animes/dog-days-3/",
      "secao": "legendados",
      "pagina": 57,
      "total_episodios": 0,
      "link_video": "https://animefire.plus/video/dog-days-3"
    },
    {
      "id": 840,
      "nome": "Dogeza de Tanondemita",
      "link": "https://animefire.plus/animes/dogeza-de-tanondemita-todos-os-episodios",
      "texto_original": "Dogeza de Tanondemita",
      "rating": null,
      "classificacao_etaria": "A18",
      "imagem_original": "https://animefire.plus/img/animes/dogeza-de-tanondemita.webp",
      "imagem_pasta": "https://animefire.plus/img/animes/dogeza-de-tanondemita/",
      "secao": "legendados",
      "pagina": 51,
      "total_episodios": 12,
      "link_video": "https://animefire.plus/video/dogeza-de-tanondemita"
    },
    {
      "id": 841,
      "nome": "Dokidoki! Precure (Dublado)",
      "link": "https://animefire.plus/animes/dokidoki-precure-dublado-todos-os-episodios",
      "texto_original": "Dokidoki! Precure (Dublado)",
      "rating": 6.73,
      "classificacao_etaria": null,
      "imagem_original": "https://animefire.plus/img/animes/dokidoki-precure.webp",
      "imagem_pasta": "https://animefire.plus/img/animes/dokidoki-precure/",
      "secao": "dublados,legendados",
      "pagina": 22,
      "total_episodios": 30,
      "link_video": "https://animefire.plus/video/dokidoki-precure-dublado"
    },
    {
      "id": 842,
      "nome": "Dokyuu Hentai HxEros",
      "link": "https://animefire.plus/animes/dokyuu-hentai-hxeros-todos-os-episodios",
      "texto_original": "Dokyuu Hentai HxEros",
      "rating": 5.74,
      "classificacao_etaria": "A18",
      "imagem_original": "https://animefire.plus/img/animes/dokyuu-hentai-hxeros.webp",
      "imagem_pasta": "https://animefire.plus/img/animes/dokyuu-hentai-hxeros/",
      "secao": "legendados",
      "pagina": 58,
      "total_episodios": 12,
      "link_video": "https://animefire.plus/video/dokyuu-hentai-hxeros"
    },
    {
      "id": 843,
      "nome": "Dokyuu Hentai HxEros OVA",
      "link": "https://animefire.plus/animes/dokyuu-hentai-hxeros-ova-todos-os-episodios",
      "texto_original": "Dokyuu Hentai HxEros OVA",
      "rating": 6.2,
      "classificacao_etaria": "A18",
      "imagem_original": "https://animefire.plus/img/animes/dokyuu-hentai-hxeros-ova.webp",
      "imagem_pasta": "https://animefire.plus/img/animes/dokyuu-hentai-hxeros-ova/",
      "secao": "legendados",
      "pagina": 50,
      "total_episodios": 2,
      "link_video": "https://animefire.plus/video/dokyuu-hentai-hxeros-ova"
    },
    {
      "id": 844,
      "nome": "Dolls' Frontline",
      "link": "https://animefire.plus/animes/dolls-frontline-todos-os-episodios",
      "texto_original": "Dolls' Frontline",
      "rating": 5.86,
      "classificacao_etaria": "A14",
      "imagem_original": "https://animefire.plus/img/animes/dolls-frontline.webp",
      "imagem_pasta": "https://animefire.plus/img/animes/dolls-frontline/",
      "secao": "legendados",
      "pagina": 37,
      "total_episodios": 12,
      "link_video": "https://animefire.plus/video/dolls-frontline"
    },
    {
      "id": 845,
      "nome": "Domestic na Kanojo",
      "link": "https://animefire.plus/animes/domestic-na-kanojo-todos-os-episodios",
      "texto_original": "Domestic na Kanojo",
      "rating": 6.77,
      "classificacao_etaria": "A18",
      "imagem_original": "https://animefire.plus/img/animes/domestic-na-kanojo.webp",
      "imagem_pasta": "https://animefire.plus/img/animes/domestic-na-kanojo/",
      "secao": "legendados",
      "pagina": 98,
      "total_episodios": 12,
      "link_video": "https://animefire.plus/video/domestic-na-kanojo"
    },
    {
      "id": 846,
      "nome": "Donten ni Warau",
      "link": "https://animefire.plus/animes/donten-ni-warau-todos-os-episodios",
      "texto_original": "Donten ni Warau",
      "rating": 7.59,
      "classificacao_etaria": "A14",
      "imagem_original": "https://animefire.plus/img/animes/donten-ni-warau.webp",
      "imagem_pasta": "https://animefire.plus/img/animes/donten-ni-warau/",
      "secao": "legendados",
      "pagina": 120,
      "total_episodios": 0,
      "link_video": "https://animefire.plus/video/donten-ni-warau"
    }
  ],
  "pagination": {
    "current_page": 41,
    "per_page": 20,
    "total_items": 4269,
    "total_pages": 214,
    "has_next": true,
    "has_prev": true
  }
}
