{
  "message": "Animes da seção: legendados",
  "section": "legendados",
  "data": [
    {
      "id": 1506,
      "nome": "Hitoribocchi no Isekai Kouryaku",
      "link": "https://animefire.plus/animes/hitoribocchi-no-isekai-kouryaku-todos-os-episodios",
      "texto_original": "Hitoribocchi no Isekai Kouryaku",
      "rating": 6.57,
      "classificacao_etaria": "A14",
      "imagem_original": "https://animefire.plus/img/animes/hitoribocchi-no-isekai-kouryaku.webp",
      "imagem_pasta": "https://animefire.plus/img/animes/hitoribocchi-no-isekai-kouryaku/",
      "secao": "legendados",
      "pagina": 11,
      "total_episodios": 12,
      "link_video": "https://animefire.plus/video/hitoribocchi-no-isekai-kouryaku"
    },
    {
      "id": 1507,
      "nome": "Hitoribocchi no Marumaru Seikatsu",
      "link": "https://animefire.plus/animes/hitoribocchi-no-marumaru-seikatsu-todos-os-episodios",
      "texto_original": "Hitoribocchi no Marumaru Seikatsu",
      "rating": 7.51,
      "classificacao_etaria": "A14",
      "imagem_original": "https://animefire.plus/img/animes/hitoribocchi-no-marumaru-seikatsu.webp",
      "imagem_pasta": "https://animefire.plus/img/animes/hitoribocchi-no-marumaru-seikatsu/",
      "secao": "legendados",
      "pagina": 138,
      "total_episodios": 0,
      "link_video": "https://animefire.plus/video/hitoribocchi-no-marumaru-seikatsu"
    },
    {
      "id": 1508,
      "nome": "Hitorijime My Hero",
      "link": "https://animefire.plus/animes/hitorijime-my-hero-todos-os-episodios",
      "texto_original": "Hitorijime My Hero",
      "rating": 7.6,
      "classificacao_etaria": "A14",
      "imagem_original": "https://animefire.plus/img/animes/hitorijime-my-hero.webp",
      "imagem_pasta": "https://animefire.plus/img/animes/hitorijime-my-hero/",
      "secao": "legendados",
      "pagina": 120,
      "total_episodios": 12,
      "link_video": "https://animefire.plus/video/hitorijime-my-hero"
    },
    {
      "id": 1509,
      "nome": "Hitozuma no Kuchibiru wa Kan Chuuhai no Aji ga Shite",
      "link": "https://animefire.plus/animes/hitozuma-no-kuchibiru-wa-kan-chuuhai-no-aji-ga-shite-todos-os-episodios",
      "texto_original": "Hitozuma no Kuchibiru wa Kan Chuuhai no Aji ga Shite",
      "rating": 5.8,
      "classificacao_etaria": "A18",
      "imagem_original": "https://animefire.plus/img/animes/hitozuma-no-kuchibiru-wa-kan-chuuhai-no-aji-ga-shite.webp",
      "imagem_pasta": "https://animefire.plus/img/animes/hitozuma-no-kuchibiru-wa-kan-chuuhai-no-aji-ga-shite/",
      "secao": "legendados,lancamentos",
      "pagina": 3,
      "total_episodios": 0,
      "link_video": "https://animefire.plus/video/hitozuma-no-kuchibiru-wa-kan-chuuhai-no-aji-ga-shite"
    },
    {
      "id": 1510,
      "nome": "Hitsugi no Chaika",
      "link": "https://animefire.plus/animes/hitsugi-no-chaika-todos-os-episodios",
      "texto_original": "Hitsugi no Chaika",
      "rating": 7.37,
      "classificacao_etaria": "A16",
      "imagem_original": "https://animefire.plus/img/animes/hitsugi-no-chaika.webp",
      "imagem_pasta": "https://animefire.plus/img/animes/hitsugi-no-chaika/",
      "secao": "legendados",
      "pagina": 163,
      "total_episodios": 12,
      "link_video": "https://animefire.plus/video/hitsugi-no-chaika"
    },
    {
      "id": 1511,
      "nome": "Hitsugi no Chaika: Avenging Battle",
      "link": "https://animefire.plus/animes/hitsugi-no-chaika-avenging-battle-todos-os-episodios",
      "texto_original": "Hitsugi no Chaika: Avenging Battle",
      "rating": 7.28,
      "classificacao_etaria": "A16",
      "imagem_original": "https://animefire.plus/img/animes/hitsugi-no-chaika-avenging-battle.webp",
      "imagem_pasta": "https://animefire.plus/img/animes/hitsugi-no-chaika-avenging-battle/",
      "secao": "legendados",
      "pagina": 160,
      "total_episodios": 2,
      "link_video": "https://animefire.plus/video/hitsugi-no-chaika-avenging-battle"
    },
    {
      "id": 1512,
      "nome": "Hiyokoi",
      "link": "https://animefire.plus/animes/hiyokoi-todos-os-episodios",
      "texto_original": "Hiyokoi",
      "rating": 7.36,
      "classificacao_etaria": "A14",
      "imagem_original": "https://animefire.plus/img/animes/hiyokoi.webp",
      "imagem_pasta": "https://animefire.plus/img/animes/hiyokoi/",
      "secao": "legendados",
      "pagina": 56,
      "total_episodios": 1,
      "link_video": "https://animefire.plus/video/hiyokoi"
    },
    {
      "id": 1513,
      "nome": "Hokuto No Ken",
      "link": "https://animefire.plus/animes/hokuto-no-ken-todos-os-episodios",
      "texto_original": "Hokuto No Ken",
      "rating": 8.01,
      "classificacao_etaria": "A18",
      "imagem_original": "https://animefire.plus/img/animes/hokuto-no-ken.webp",
      "imagem_pasta": "https://animefire.plus/img/animes/hokuto-no-ken/",
      "secao": "legendados",
      "pagina": 60,
      "total_episodios": 107,
      "link_video": "https://animefire.plus/video/hokuto-no-ken"
    },
    {
      "id": 1514,
      "nome": "Hokuto no Ken 2",
      "link": "https://animefire.plus/animes/hokuto-no-ken-2-todos-os-episodios",
      "texto_original": "Hokuto no Ken 2",
      "rating": 7.58,
      "classificacao_etaria": "A16",
      "imagem_original": "https://animefire.plus/img/animes/hokuto-no-ken-2.webp",
      "imagem_pasta": "https://animefire.plus/img/animes/hokuto-no-ken-2/",
      "secao": "legendados",
      "pagina": 77,
      "total_episodios": 43,
      "link_video": "https://animefire.plus/video/hokuto-no-ken-2"
    },
    {
      "id": 1515,
      "nome": "Holy Knight",
      "link": "https://animefire.plus/animes/holy-knight-todos-os-episodios",
      "texto_original": "Holy Knight",
      "rating": 6.07,
      "classificacao_etaria": "A18",
      "imagem_original": "https://animefire.plus/img/animes/holy-knight.webp",
      "imagem_pasta": "https://animefire.plus/img/animes/holy-knight/",
      "secao": "legendados",
      "pagina": 61,
      "total_episodios": 0,
      "link_video": "https://animefire.plus/video/holy-knight"
    },
    {
      "id": 1516,
      "nome": "Honey Lemon Soda",
      "link": "https://animefire.plus/animes/honey-lemon-soda-todos-os-episodios",
      "texto_original": "Honey Lemon Soda",
      "rating": 7.17,
      "classificacao_etaria": "A14",
      "imagem_original": "https://animefire.plus/img/animes/honey-lemon-soda.webp",
      "imagem_pasta": "https://animefire.plus/img/animes/honey-lemon-soda/",
      "secao": "legendados",
      "pagina": 7,
      "total_episodios": 12,
      "link_video": "https://animefire.plus/video/honey-lemon-soda"
    },
    {
      "id": 1517,
      "nome": "Honobono Log",
      "link": "https://animefire.plus/animes/honobono-log-todos-os-episodios",
      "texto_original": "Honobono Log",
      "rating": 7.47,
      "classificacao_etaria": null,
      "imagem_original": "https://animefire.plus/img/animes/honobono-log.webp",
      "imagem_pasta": "https://animefire.plus/img/animes/honobono-log/",
      "secao": "legendados",
      "pagina": 107,
      "total_episodios": 10,
      "link_video": "https://animefire.plus/video/honobono-log"
    },
    {
      "id": 1518,
      "nome": "Honoo no Mirage",
      "link": "https://animefire.plus/animes/honoo-no-mirage-todos-os-episodios",
      "texto_original": "Honoo no Mirage",
      "rating": 6.67,
      "classificacao_etaria": "A14",
      "imagem_original": "https://animefire.plus/img/animes/honoo-no-mirage.webp",
      "imagem_pasta": "https://animefire.plus/img/animes/honoo-no-mirage/",
      "secao": "legendados",
      "pagina": 119,
      "total_episodios": 13,
      "link_video": "https://animefire.plus/video/honoo-no-mirage"
    },
    {
      "id": 1519,
      "nome": "Honzuki no Gekokujou: Shisho ni Naru Tame ni wa Shudan wo Erandeiraremasen",
      "link": "https://animefire.plus/animes/honzuki-no-gekokujou-shisho-ni-naru-tame-ni-wa-shudan-wo-erandeiraremasen-todos-os-episodios",
      "texto_original": "Honzuki no Gekokujou: Shisho ni Naru Tame ni wa Shudan wo Erandeiraremasen",
      "rating": 8.03,
      "classificacao_etaria": "A14",
      "imagem_original": "https://animefire.plus/img/animes/honzuki-no-gekokujou-shisho-ni-naru-tame-ni-wa-shudan-wo-erandeiraremasen.webp",
      "imagem_pasta": "https://animefire.plus/img/animes/honzuki-no-gekokujou-shisho-ni-naru-tame-ni-wa-shudan-wo-erandeiraremasen/",
      "secao": "legendados",
      "pagina": 111,
      "total_episodios": 14,
      "link_video": "https://animefire.plus/video/honzuki-no-gekokujou-shisho-ni-naru-tame-ni-wa-shudan-wo-erandeiraremasen"
    },
    {
      "id": 1520,
      "nome": "Honzuki no Gekokujou: Shisho ni Naru Tame ni wa Shudan wo Erandeiraremasen 2nd Season",
      "link": "https://animefire.plus/animes/honzuki-no-gekokujou-shisho-ni-naru-tame-ni-wa-shudan-wo-erandeiraremasen-2nd-season-todos-os-episodios",
      "texto_original": "Honzuki no Gekokujou: Shisho ni Naru Tame ni wa Shudan wo Erandeiraremasen 2nd Season",
      "rating": 8.16,
      "classificacao_etaria": "A14",
      "imagem_original": "https://animefire.plus/img/animes/honzuki-no-gekokujou-shisho-ni-naru-tame-ni-wa-shudan-wo-erandeiraremasen-2nd-season.webp",
      "imagem_pasta": "https://animefire.plus/img/animes/honzuki-no-gekokujou-shisho-ni-naru-tame-ni-wa-shudan-wo-erandeiraremasen-2nd-season/",
      "secao": "legendados",
      "pagina": 81,
      "total_episodios": 1,
      "link_video": "https://animefire.plus/video/honzuki-no-gekokujou-shisho-ni-naru-tame-ni-wa-shudan-wo-erandeiraremasen-2nd-season"
    },
    {
      "id": 1521,
      "nome": "Honzuki no Gekokujou: Shisho ni Naru Tame ni wa Shudan wo Erandeiraremasen 3rd Season",
      "link": "https://animefire.plus/animes/honzuki-no-gekokujou-shisho-ni-naru-tame-ni-wa-shudan-wo-erandeiraremasen-3rd-season-todos-os-episodios",
      "texto_original": "Honzuki no Gekokujou: Shisho ni Naru Tame ni wa Shudan wo Erandeiraremasen 3rd Season",
      "rating": 8.07,
      "classificacao_etaria": "A14",
      "imagem_original": "https://animefire.plus/img/animes/honzuki-no-gekokujou-shisho-ni-naru-tame-ni-wa-shudan-wo-erandeiraremasen-3rd-season.webp",
      "imagem_pasta": "https://animefire.plus/img/animes/honzuki-no-gekokujou-shisho-ni-naru-tame-ni-wa-shudan-wo-erandeiraremasen-3rd-season/",
      "secao": "legendados",
      "pagina": 34,
      "total_episodios": 10,
      "link_video": "https://animefire.plus/video/honzuki-no-gekokujou-shisho-ni-naru-tame-ni-wa-shudan-wo-erandeiraremasen-3rd-season"
    },
    {
      "id": 1522,
      "nome": "Hoozuki no Reitetsu",
      "link": "https://animefire.plus/animes/hoozuki-no-reitetsu-todos-os-episodios",
      "texto_original": "Hoozuki no Reitetsu",
      "rating": 7.81,
      "classificacao_etaria": "A14",
      "imagem_original": "https://animefire.plus/img/animes/hoozuki-no-reitetsu.webp",
      "imagem_pasta": "https://animefire.plus/img/animes/hoozuki-no-reitetsu/",
      "secao": "legendados",
      "pagina": 63,
      "total_episodios": 13,
      "link_video": "https://animefire.plus/video/hoozuki-no-reitetsu"
    },
    {
      "id": 1523,
      "nome": "Hoozuki no Reitetsu 2nd Season",
      "link": "https://animefire.plus/animes/hoozuki-no-reitetsu-2nd-season-todos-os-episodios",
      "texto_original": "Hoozuki no Reitetsu 2nd Season",
      "rating": 7.88,
      "classificacao_etaria": "A14",
      "imagem_original": "https://animefire.plus/img/animes/hoozuki-no-reitetsu-2nd-season.webp",
      "imagem_pasta": "https://animefire.plus/img/animes/hoozuki-no-reitetsu-2nd-season/",
      "secao": "legendados",
      "pagina": 63,
      "total_episodios": 26,
      "link_video": "https://animefire.plus/video/hoozuki-no-reitetsu-2nd-season"
    },
    {
      "id": 1524,
      "nome": "Hoozuki no Reitetsu 2nd Season: Sono Ni",
      "link": "https://animefire.plus/animes/hoozuki-no-reitetsu-2nd-season-sono-ni-todos-os-episodios",
      "texto_original": "Hoozuki no Reitetsu 2nd Season: Sono Ni",
      "rating": 7.85,
      "classificacao_etaria": "A14",
      "imagem_original": "https://animefire.plus/img/animes/hoozuki-no-reitetsu-2nd-season-sono-ni.webp",
      "imagem_pasta": "https://animefire.plus/img/animes/hoozuki-no-reitetsu-2nd-season-sono-ni/",
      "secao": "legendados",
      "pagina": 120,
      "total_episodios": 13,
      "link_video": "https://animefire.plus/video/hoozuki-no-reitetsu-2nd-season-sono-ni"
    },
    {
      "id": 1525,
      "nome": "Hori-san to Miyamura-kun",
      "link": "https://animefire.plus/animes/hori-san-to-miyamura-kun-todos-os-episodios",
      "texto_original": "Hori-san to Miyamura-kun",
      "rating": 7.36,
      "classificacao_etaria": "A14",
      "imagem_original": "https://animefire.plus/img/animes/hori-san-to-miyamura-kun.webp",
      "imagem_pasta": "https://animefire.plus/img/animes/hori-san-to-miyamura-kun/",
      "secao": "legendados",
      "pagina": 61,
      "total_episodios": 3,
      "link_video": "https://animefire.plus/video/hori-san-to-miyamura-kun"
    }
  ],
  "pagination": {
    "current_page": 74,
    "per_page": 20,
    "total_items": 4269,
    "total_pages": 214,
    "has_next": true,
    "has_prev": true
  }
}
