{
  "message": "Animes da seção: legendados",
  "section": "legendados",
  "data": [
    {
      "id": 3664,
      "nome": "Suisei no Gargantia",
      "link": "https://animefire.plus/animes/suisei-no-gargantia-todos-os-episodios",
      "texto_original": "Suisei no Gargantia",
      "rating": 7.57,
      "classificacao_etaria": "A14",
      "imagem_original": "https://animefire.plus/img/animes/suisei-no-gargantia.webp",
      "imagem_pasta": "https://animefire.plus/img/animes/suisei-no-gargantia/",
      "secao": "legendados",
      "pagina": 135,
      "total_episodios": 13,
      "link_video": "https://animefire.plus/video/suisei-no-gargantia"
    },
    {
      "id": 3665,
      "nome": "Suisei no Gargantia: Meguru Kouro, Haruka",
      "link": "https://animefire.plus/animes/suisei-no-gargantia-meguru-kouro-haruka-todos-os-episodios",
      "texto_original": "Suisei no Gargantia: Meguru Kouro, Haruka",
      "rating": 7.36,
      "classificacao_etaria": "A14",
      "imagem_original": "https://animefire.plus/img/animes/suisei-no-gargantia-meguru-kouro-haruka.webp",
      "imagem_pasta": "https://animefire.plus/img/animes/suisei-no-gargantia-meguru-kouro-haruka/",
      "secao": "legendados",
      "pagina": 40,
      "total_episodios": 2,
      "link_video": "https://animefire.plus/video/suisei-no-gargantia-meguru-kouro-haruka"
    },
    {
      "id": 3666,
      "nome": "Suite Precure♪",
      "link": "https://animefire.plus/animes/suite-precure-todos-os-episodios",
      "texto_original": "Suite Precure♪",
      "rating": 7.35,
      "classificacao_etaria": null,
      "imagem_original": "https://animefire.plus/img/animes/suite-precure.webp",
      "imagem_pasta": "https://animefire.plus/img/animes/suite-precure/",
      "secao": "legendados",
      "pagina": 139,
      "total_episodios": 46,
      "link_video": "https://animefire.plus/video/suite-precure"
    },
    {
      "id": 3668,
      "nome": "Suki na Ko ga Megane wo Wasureta",
      "link": "https://animefire.plus/animes/suki-na-ko-ga-megane-wo-wasureta-todos-os-episodios",
      "texto_original": "Suki na Ko ga Megane wo Wasureta",
      "rating": 7.14,
      "classificacao_etaria": "A14",
      "imagem_original": "https://animefire.plus/img/animes/suki-na-ko-ga-megane-wo-wasureta.jpg",
      "imagem_pasta": "https://animefire.plus/img/animes/suki-na-ko-ga-megane-wo-wasureta/",
      "secao": "legendados",
      "pagina": 23,
      "total_episodios": 13,
      "link_video": "https://animefire.plus/video/suki-na-ko-ga-megane-wo-wasureta"
    },
    {
      "id": 3669,
      "nome": "Sukitte Ii na yo.",
      "link": "https://animefire.plus/animes/sukitte-ii-na-yo-todos-os-episodios",
      "texto_original": "Sukitte Ii na yo.",
      "rating": 7.64,
      "classificacao_etaria": "A14",
      "imagem_original": "https://animefire.plus/img/animes/sukitte-ii-na-yo.webp",
      "imagem_pasta": "https://animefire.plus/img/animes/sukitte-ii-na-yo/",
      "secao": "legendados",
      "pagina": 162,
      "total_episodios": 0,
      "link_video": "https://animefire.plus/video/sukitte-ii-na-yo"
    },
    {
      "id": 3670,
      "nome": "Sukitte Ii na yo.: Dareka ga",
      "link": "https://animefire.plus/animes/sukitte-ii-na-yo-dareka-ga-todos-os-episodios",
      "texto_original": "Sukitte Ii na yo.: Dareka ga",
      "rating": 7.27,
      "classificacao_etaria": "A14",
      "imagem_original": "https://animefire.plus/img/animes/sukitte-ii-na-yo-dareka-ga.webp",
      "imagem_pasta": "https://animefire.plus/img/animes/sukitte-ii-na-yo-dareka-ga/",
      "secao": "legendados",
      "pagina": 42,
      "total_episodios": 1,
      "link_video": "https://animefire.plus/video/sukitte-ii-na-yo-dareka-ga"
    },
    {
      "id": 3671,
      "nome": "Summer Pockets",
      "link": "https://animefire.plus/animes/summer-pockets-todos-os-episodios",
      "texto_original": "Summer Pockets",
      "rating": 7.29,
      "classificacao_etaria": "A14",
      "imagem_original": "https://animefire.plus/img/animes/summer-pockets.webp",
      "imagem_pasta": "https://animefire.plus/img/animes/summer-pockets/",
      "secao": "legendados,lancamentos",
      "pagina": 5,
      "total_episodios": 17,
      "link_video": "https://animefire.plus/video/summer-pockets"
    },
    {
      "id": 3672,
      "nome": "Summertime Render (Dublado)",
      "link": "https://animefire.plus/animes/summertime-render-dublado-todos-os-episodios",
      "texto_original": "Summertime Render (Dublado)",
      "rating": 8.47,
      "classificacao_etaria": "A16",
      "imagem_original": "https://animefire.plus/img/animes/summertime-render.webp",
      "imagem_pasta": "https://animefire.plus/img/animes/summertime-render/",
      "secao": "dublados,legendados,lancamentos",
      "pagina": 10,
      "total_episodios": 25,
      "link_video": "https://animefire.plus/video/summertime-render-dublado"
    },
    {
      "id": 3673,
      "nome": "Sumomomo Momomo: Chijou Saikyou no Yome",
      "link": "https://animefire.plus/animes/sumomomo-momomo-chijou-saikyou-no-yome-todos-os-episodios",
      "texto_original": "Sumomomo Momomo: Chijou Saikyou no Yome",
      "rating": 7,
      "classificacao_etaria": "A14",
      "imagem_original": "https://animefire.plus/img/animes/sumomomo-momomo-chijou-saikyou-no-yome.webp",
      "imagem_pasta": "https://animefire.plus/img/animes/sumomomo-momomo-chijou-saikyou-no-yome/",
      "secao": "legendados",
      "pagina": 157,
      "total_episodios": 24,
      "link_video": "https://animefire.plus/video/sumomomo-momomo-chijou-saikyou-no-yome"
    },
    {
      "id": 3674,
      "nome": "Sunohara-sou no Kanrinin-san",
      "link": "https://animefire.plus/animes/sunohara-sou-no-kanrinin-san-todos-os-episodios",
      "texto_original": "Sunohara-sou no Kanrinin-san",
      "rating": 7.05,
      "classificacao_etaria": "A14",
      "imagem_original": "https://animefire.plus/img/animes/sunohara-sou-no-kanrinin-san.webp",
      "imagem_pasta": "https://animefire.plus/img/animes/sunohara-sou-no-kanrinin-san/",
      "secao": "legendados",
      "pagina": 150,
      "total_episodios": 9,
      "link_video": "https://animefire.plus/video/sunohara-sou-no-kanrinin-san"
    },
    {
      "id": 3675,
      "nome": "Super Cub (Dublado)",
      "link": "https://animefire.plus/animes/super-cub-dublado-todos-os-episodios",
      "texto_original": "Super Cub (Dublado)",
      "rating": 7.45,
      "classificacao_etaria": "A14",
      "imagem_original": "https://animefire.plus/img/animes/super-cub.webp",
      "imagem_pasta": "https://animefire.plus/img/animes/super-cub/",
      "secao": "dublados,legendados",
      "pagina": 13,
      "total_episodios": 12,
      "link_video": "https://animefire.plus/video/super-cub-dublado"
    },
    {
      "id": 3676,
      "nome": "Super Danganronpa 2.5: Komaeda Nagito to Sekai no Hakaimono",
      "link": "https://animefire.plus/animes/super-danganronpa-2-5-komaeda-nagito-to-sekai-no-hakaimono-todos-os-episodios",
      "texto_original": "Super Danganronpa 2.5: Komaeda Nagito to Sekai no Hakaimono",
      "rating": 7.35,
      "classificacao_etaria": "A16",
      "imagem_original": "https://animefire.plus/img/animes/super-danganronpa-2-5-komaeda-nagito-to-sekai-no-hakaimono.webp",
      "imagem_pasta": "https://animefire.plus/img/animes/super-danganronpa-2-5-komaeda-nagito-to-sekai-no-hakaimono/",
      "secao": "legendados",
      "pagina": 174,
      "total_episodios": 1,
      "link_video": "https://animefire.plus/video/super-danganronpa-2-5-komaeda-nagito-to-sekai-no-hakaimono"
    },
    {
      "id": 3677,
      "nome": "Super Lovers",
      "link": "https://animefire.plus/animes/super-lovers-todos-os-episodios",
      "texto_original": "Super Lovers",
      "rating": 7.44,
      "classificacao_etaria": "A14",
      "imagem_original": "https://animefire.plus/img/animes/super-lovers.webp",
      "imagem_pasta": "https://animefire.plus/img/animes/super-lovers/",
      "secao": "legendados",
      "pagina": 109,
      "total_episodios": 10,
      "link_video": "https://animefire.plus/video/super-lovers"
    },
    {
      "id": 3678,
      "nome": "Super Lovers 2",
      "link": "https://animefire.plus/animes/super-lovers-2-todos-os-episodios",
      "texto_original": "Super Lovers 2",
      "rating": 7.64,
      "classificacao_etaria": "A14",
      "imagem_original": "https://animefire.plus/img/animes/super-lovers-2.webp",
      "imagem_pasta": "https://animefire.plus/img/animes/super-lovers-2/",
      "secao": "legendados",
      "pagina": 153,
      "total_episodios": 0,
      "link_video": "https://animefire.plus/video/super-lovers-2"
    },
    {
      "id": 3679,
      "nome": "Super Mario World: Mario to Yoshi no Bouken Land (Dublado)",
      "link": "https://animefire.plus/animes/super-mario-world-mario-to-yoshi-no-bouken-land-dublado-todos-os-episodios",
      "texto_original": "Super Mario World: Mario to Yoshi no Bouken Land (Dublado)",
      "rating": 5.38,
      "classificacao_etaria": null,
      "imagem_original": "https://animefire.plus/img/animes/super-mario-world-mario-to-yoshi-no-bouken-land.webp",
      "imagem_pasta": "https://animefire.plus/img/animes/super-mario-world-mario-to-yoshi-no-bouken-land/",
      "secao": "dublados,legendados",
      "pagina": 23,
      "total_episodios": 1,
      "link_video": "https://animefire.plus/video/super-mario-world-mario-to-yoshi-no-bouken-land-dublado"
    },
    {
      "id": 3680,
      "nome": "Super Robot Taisen OG: Divine Wars",
      "link": "https://animefire.plus/animes/super-robot-taisen-og-divine-wars-todos-os-episodios",
      "texto_original": "Super Robot Taisen OG: Divine Wars",
      "rating": 6.89,
      "classificacao_etaria": "A14",
      "imagem_original": "https://animefire.plus/img/animes/super-robot-taisen-og-divine-wars.webp",
      "imagem_pasta": "https://animefire.plus/img/animes/super-robot-taisen-og-divine-wars/",
      "secao": "legendados",
      "pagina": 141,
      "total_episodios": 26,
      "link_video": "https://animefire.plus/video/super-robot-taisen-og-divine-wars"
    },
    {
      "id": 3681,
      "nome": "Super Robot Taisen OG: The Inspector",
      "link": "https://animefire.plus/animes/super-robot-taisen-og-the-inspector-todos-os-episodios",
      "texto_original": "Super Robot Taisen OG: The Inspector",
      "rating": 7.31,
      "classificacao_etaria": "A14",
      "imagem_original": "https://animefire.plus/img/animes/super-robot-taisen-og-the-inspector.webp",
      "imagem_pasta": "https://animefire.plus/img/animes/super-robot-taisen-og-the-inspector/",
      "secao": "legendados",
      "pagina": 130,
      "total_episodios": 26,
      "link_video": "https://animefire.plus/video/super-robot-taisen-og-the-inspector"
    },
    {
      "id": 3682,
      "nome": "Super Seisyun Brothers",
      "link": "https://animefire.plus/animes/super-seisyun-brothers-todos-os-episodios",
      "texto_original": "Super Seisyun Brothers",
      "rating": 6.88,
      "classificacao_etaria": "A14",
      "imagem_original": "https://animefire.plus/img/animes/super-seisyun-brothers.webp",
      "imagem_pasta": "https://animefire.plus/img/animes/super-seisyun-brothers/",
      "secao": "legendados",
      "pagina": 170,
      "total_episodios": 7,
      "link_video": "https://animefire.plus/video/super-seisyun-brothers"
    },
    {
      "id": 3683,
      "nome": "Supernatural The Animation",
      "link": "https://animefire.plus/animes/supernatural-the-animation-todos-os-episodios",
      "texto_original": "Supernatural The Animation",
      "rating": 7.1,
      "classificacao_etaria": "A16",
      "imagem_original": "https://animefire.plus/img/animes/supernatural-the-animation.webp",
      "imagem_pasta": "https://animefire.plus/img/animes/supernatural-the-animation/",
      "secao": "legendados",
      "pagina": 159,
      "total_episodios": 22,
      "link_video": "https://animefire.plus/video/supernatural-the-animation"
    },
    {
      "id": 3684,
      "nome": "Sushi Police",
      "link": "https://animefire.plus/animes/sushi-police-todos-os-episodios",
      "texto_original": "Sushi Police",
      "rating": 4.69,
      "classificacao_etaria": "A14",
      "imagem_original": "https://animefire.plus/img/animes/sushi-police.webp",
      "imagem_pasta": "https://animefire.plus/img/animes/sushi-police/",
      "secao": "legendados",
      "pagina": 149,
      "total_episodios": 1,
      "link_video": "https://animefire.plus/video/sushi-police"
    }
  ],
  "pagination": {
    "current_page": 180,
    "per_page": 20,
    "total_items": 4269,
    "total_pages": 214,
    "has_next": true,
    "has_prev": true
  }
}
