{
  "message": "Animes da seção: legendados",
  "section": "legendados",
  "data": [
    {
      "id": 1324,
      "nome": "Hajimete no Gal",
      "link": "https://animefire.plus/animes/hajimete-no-gal-todos-os-episodios",
      "texto_original": "Hajimete no Gal",
      "rating": 6.18,
      "classificacao_etaria": "A14",
      "imagem_original": "https://animefire.plus/img/animes/hajimete-no-gal.webp",
      "imagem_pasta": "https://animefire.plus/img/animes/hajimete-no-gal/",
      "secao": "legendados",
      "pagina": 80,
      "total_episodios": 11,
      "link_video": "https://animefire.plus/video/hajimete-no-gal"
    },
    {
      "id": 1325,
      "nome": "Hajimete no Gal: Hajimete no Bunkasai",
      "link": "https://animefire.plus/animes/hajimete-no-gal-hajimete-no-bunkasai-todos-os-episodios",
      "texto_original": "Hajimete no Gal: Hajimete no Bunkasai",
      "rating": 6.5,
      "classificacao_etaria": "A14",
      "imagem_original": "https://animefire.plus/img/animes/hajimete-no-gal-hajimete-no-bunkasai.webp",
      "imagem_pasta": "https://animefire.plus/img/animes/hajimete-no-gal-hajimete-no-bunkasai/",
      "secao": "legendados",
      "pagina": 78,
      "total_episodios": 1,
      "link_video": "https://animefire.plus/video/hajimete-no-gal-hajimete-no-bunkasai"
    },
    {
      "id": 1326,
      "nome": "Hakata Mentai! Pirikarako-chan",
      "link": "https://animefire.plus/animes/hakata-mentai-pirikarako-chan-todos-os-episodios",
      "texto_original": "Hakata Mentai! Pirikarako-chan",
      "rating": 5.05,
      "classificacao_etaria": null,
      "imagem_original": "https://animefire.plus/img/animes/hakata-mentai-pirikarako-chan.webp",
      "imagem_pasta": "https://animefire.plus/img/animes/hakata-mentai-pirikarako-chan/",
      "secao": "legendados",
      "pagina": 75,
      "total_episodios": 12,
      "link_video": "https://animefire.plus/video/hakata-mentai-pirikarako-chan"
    },
    {
      "id": 1327,
      "nome": "Hakata Tonkotsu Ramens",
      "link": "https://animefire.plus/animes/hakata-tonkotsu-ramens-todos-os-episodios",
      "texto_original": "Hakata Tonkotsu Ramens",
      "rating": 7.5,
      "classificacao_etaria": "A16",
      "imagem_original": "https://animefire.plus/img/animes/hakata-tonkotsu-ramens.webp",
      "imagem_pasta": "https://animefire.plus/img/animes/hakata-tonkotsu-ramens/",
      "secao": "legendados",
      "pagina": 102,
      "total_episodios": 0,
      "link_video": "https://animefire.plus/video/hakata-tonkotsu-ramens"
    },
    {
      "id": 1328,
      "nome": "Hakkenden: Touhou Hakken Ibun",
      "link": "https://animefire.plus/animes/hakkenden-touhou-hakken-ibun-todos-os-episodios",
      "texto_original": "Hakkenden: Touhou Hakken Ibun",
      "rating": 7.52,
      "classificacao_etaria": "A14",
      "imagem_original": "https://animefire.plus/img/animes/hakkenden-touhou-hakken-ibun.webp",
      "imagem_pasta": "https://animefire.plus/img/animes/hakkenden-touhou-hakken-ibun/",
      "secao": "legendados",
      "pagina": 124,
      "total_episodios": 13,
      "link_video": "https://animefire.plus/video/hakkenden-touhou-hakken-ibun"
    },
    {
      "id": 1329,
      "nome": "Hakkenden: Touhou Hakken Ibun 2nd Season",
      "link": "https://animefire.plus/animes/hakkenden-touhou-hakken-ibun-2nd-season-todos-os-episodios",
      "texto_original": "Hakkenden: Touhou Hakken Ibun 2nd Season",
      "rating": 7.75,
      "classificacao_etaria": "A14",
      "imagem_original": "https://animefire.plus/img/animes/hakkenden-touhou-hakken-ibun-2nd-season.webp",
      "imagem_pasta": "https://animefire.plus/img/animes/hakkenden-touhou-hakken-ibun-2nd-season/",
      "secao": "legendados",
      "pagina": 155,
      "total_episodios": 0,
      "link_video": "https://animefire.plus/video/hakkenden-touhou-hakken-ibun-2nd-season"
    },
    {
      "id": 1330,
      "nome": "Hakozume: Kouban Joshi no Gyakushuu",
      "link": "https://animefire.plus/animes/hakozume-kouban-joshi-no-gyakushuu-todos-os-episodios",
      "texto_original": "Hakozume: Kouban Joshi no Gyakushuu",
      "rating": 7.16,
      "classificacao_etaria": "A14",
      "imagem_original": "https://animefire.plus/img/animes/hakozume-kouban-joshi-no-gyakushuu.webp",
      "imagem_pasta": "https://animefire.plus/img/animes/hakozume-kouban-joshi-no-gyakushuu/",
      "secao": "legendados",
      "pagina": 36,
      "total_episodios": 13,
      "link_video": "https://animefire.plus/video/hakozume-kouban-joshi-no-gyakushuu"
    },
    {
      "id": 1331,
      "nome": "Hakumei no Tsubasa",
      "link": "https://animefire.plus/animes/hakumei-no-tsubasa-todos-os-episodios",
      "texto_original": "Hakumei no Tsubasa",
      "rating": 7.61,
      "classificacao_etaria": "A10",
      "imagem_original": "https://animefire.plus/img/animes/hakumei-no-tsubasa.webp",
      "imagem_pasta": "https://animefire.plus/img/animes/hakumei-no-tsubasa/",
      "secao": "legendados,lancamentos",
      "pagina": 82,
      "total_episodios": 5,
      "link_video": "https://animefire.plus/video/hakumei-no-tsubasa"
    },
    {
      "id": 1332,
      "nome": "Hakumei to Mikochi",
      "link": "https://animefire.plus/animes/hakumei-to-mikochi-todos-os-episodios",
      "texto_original": "Hakumei to Mikochi",
      "rating": 7.66,
      "classificacao_etaria": "A14",
      "imagem_original": "https://animefire.plus/img/animes/hakumei-to-mikochi.webp",
      "imagem_pasta": "https://animefire.plus/img/animes/hakumei-to-mikochi/",
      "secao": "legendados",
      "pagina": 156,
      "total_episodios": 12,
      "link_video": "https://animefire.plus/video/hakumei-to-mikochi"
    },
    {
      "id": 1333,
      "nome": "Hakuouki",
      "link": "https://animefire.plus/animes/hakuouki-todos-os-episodios",
      "texto_original": "Hakuouki",
      "rating": 7.51,
      "classificacao_etaria": "A16",
      "imagem_original": "https://animefire.plus/img/animes/hakuouki.webp",
      "imagem_pasta": "https://animefire.plus/img/animes/hakuouki/",
      "secao": "legendados",
      "pagina": 96,
      "total_episodios": 12,
      "link_video": "https://animefire.plus/video/hakuouki"
    },
    {
      "id": 1334,
      "nome": "Hakuouki Hekketsuroku",
      "link": "https://animefire.plus/animes/hakuouki-hekketsuroku-todos-os-episodios",
      "texto_original": "Hakuouki Hekketsuroku",
      "rating": 7.7,
      "classificacao_etaria": "A16",
      "imagem_original": "https://animefire.plus/img/animes/hakuouki-hekketsuroku.webp",
      "imagem_pasta": "https://animefire.plus/img/animes/hakuouki-hekketsuroku/",
      "secao": "legendados",
      "pagina": 111,
      "total_episodios": 10,
      "link_video": "https://animefire.plus/video/hakuouki-hekketsuroku"
    },
    {
      "id": 1335,
      "nome": "Hakuouki OVA",
      "link": "https://animefire.plus/animes/hakuouki-ova-todos-os-episodios",
      "texto_original": "Hakuouki OVA",
      "rating": 7.42,
      "classificacao_etaria": "A14",
      "imagem_original": "https://animefire.plus/img/animes/hakuouki-ova.webp",
      "imagem_pasta": "https://animefire.plus/img/animes/hakuouki-ova/",
      "secao": "legendados",
      "pagina": 36,
      "total_episodios": 0,
      "link_video": "https://animefire.plus/video/hakuouki-ova"
    },
    {
      "id": 1336,
      "nome": "Hakuouki OVA (2021)",
      "link": "https://animefire.plus/animes/hakuouki-ova-2021-todos-os-episodios",
      "texto_original": "Hakuouki OVA (2021)",
      "rating": 7.05,
      "classificacao_etaria": "A16",
      "imagem_original": "https://animefire.plus/img/animes/hakuouki-ova-2021.webp",
      "imagem_pasta": "https://animefire.plus/img/animes/hakuouki-ova-2021/",
      "secao": "legendados,lancamentos",
      "pagina": 36,
      "total_episodios": 2,
      "link_video": "https://animefire.plus/video/hakuouki-ova-2021"
    },
    {
      "id": 1337,
      "nome": "Hakuouki Reimeiroku",
      "link": "https://animefire.plus/animes/hakuouki-reimeiroku-todos-os-episodios",
      "texto_original": "Hakuouki Reimeiroku",
      "rating": 7.58,
      "classificacao_etaria": "A16",
      "imagem_original": "https://animefire.plus/img/animes/hakuouki-reimeiroku.webp",
      "imagem_pasta": "https://animefire.plus/img/animes/hakuouki-reimeiroku/",
      "secao": "legendados",
      "pagina": 111,
      "total_episodios": 5,
      "link_video": "https://animefire.plus/video/hakuouki-reimeiroku"
    },
    {
      "id": 1338,
      "nome": "Hakuouki Sekkaroku",
      "link": "https://animefire.plus/animes/hakuouki-sekkaroku-todos-os-episodios",
      "texto_original": "Hakuouki Sekkaroku",
      "rating": 7.68,
      "classificacao_etaria": "A14",
      "imagem_original": "https://animefire.plus/img/animes/hakuouki-sekkaroku.webp",
      "imagem_pasta": "https://animefire.plus/img/animes/hakuouki-sekkaroku/",
      "secao": "legendados",
      "pagina": 62,
      "total_episodios": 6,
      "link_video": "https://animefire.plus/video/hakuouki-sekkaroku"
    },
    {
      "id": 1339,
      "nome": "Hakushaku To Yousei",
      "link": "https://animefire.plus/animes/hakushaku-to-yousei-todos-os-episodios",
      "texto_original": "Hakushaku To Yousei",
      "rating": 7.38,
      "classificacao_etaria": "A14",
      "imagem_original": "https://animefire.plus/img/animes/hakushaku-to-yousei.webp",
      "imagem_pasta": "https://animefire.plus/img/animes/hakushaku-to-yousei/",
      "secao": "legendados",
      "pagina": 97,
      "total_episodios": 12,
      "link_video": "https://animefire.plus/video/hakushaku-to-yousei"
    },
    {
      "id": 1340,
      "nome": "Hakyuu Houshin Engi",
      "link": "https://animefire.plus/animes/hakyuu-houshin-engi-todos-os-episodios",
      "texto_original": "Hakyuu Houshin Engi",
      "rating": 5.67,
      "classificacao_etaria": "A14",
      "imagem_original": "https://animefire.plus/img/animes/hakyuu-houshin-engi.webp",
      "imagem_pasta": "https://animefire.plus/img/animes/hakyuu-houshin-engi/",
      "secao": "legendados",
      "pagina": 139,
      "total_episodios": 24,
      "link_video": "https://animefire.plus/video/hakyuu-houshin-engi"
    },
    {
      "id": 1341,
      "nome": "Halo Legends",
      "link": "https://animefire.plus/animes/halo-legends-todos-os-episodios",
      "texto_original": "Halo Legends",
      "rating": 7.11,
      "classificacao_etaria": "A14",
      "imagem_original": "https://animefire.plus/img/animes/halo-legends.webp",
      "imagem_pasta": "https://animefire.plus/img/animes/halo-legends/",
      "secao": "legendados",
      "pagina": 107,
      "total_episodios": 8,
      "link_video": "https://animefire.plus/video/halo-legends"
    },
    {
      "id": 1342,
      "nome": "Hamatora The Animation",
      "link": "https://animefire.plus/animes/hamatora-the-animation-todos-os-episodios",
      "texto_original": "Hamatora The Animation",
      "rating": 7.36,
      "classificacao_etaria": "A16",
      "imagem_original": "https://animefire.plus/img/animes/hamatora-the-animation.webp",
      "imagem_pasta": "https://animefire.plus/img/animes/hamatora-the-animation/",
      "secao": "legendados",
      "pagina": 91,
      "total_episodios": 12,
      "link_video": "https://animefire.plus/video/hamatora-the-animation"
    },
    {
      "id": 1343,
      "nome": "Hametsu no Mars",
      "link": "https://animefire.plus/animes/hametsu-no-mars-todos-os-episodios",
      "texto_original": "Hametsu no Mars",
      "rating": 2.31,
      "classificacao_etaria": "A16",
      "imagem_original": "https://animefire.plus/img/animes/hametsu-no-mars.webp",
      "imagem_pasta": "https://animefire.plus/img/animes/hametsu-no-mars/",
      "secao": "legendados",
      "pagina": 89,
      "total_episodios": 1,
      "link_video": "https://animefire.plus/video/hametsu-no-mars"
    }
  ],
  "pagination": {
    "current_page": 65,
    "per_page": 20,
    "total_items": 4269,
    "total_pages": 214,
    "has_next": true,
    "has_prev": true
  }
}
