{
  "message": "Animes da seção: legendados",
  "section": "legendados",
  "data": [
    {
      "id": 1913,
      "nome": "Katte ni Shirokuma",
      "link": "https://animefire.plus/animes/katte-ni-shirokuma-todos-os-episodios",
      "texto_original": "Katte ni Shirokuma",
      "rating": 5.64,
      "classificacao_etaria": "A18",
      "imagem_original": "https://animefire.plus/img/animes/katte-ni-shirokuma.webp",
      "imagem_pasta": "https://animefire.plus/img/animes/katte-ni-shirokuma/",
      "secao": "legendados",
      "pagina": 86,
      "total_episodios": 1,
      "link_video": "https://animefire.plus/video/katte-ni-shirokuma"
    },
    {
      "id": 1914,
      "nome": "Kawagoe Boys Sing",
      "link": "https://animefire.plus/animes/kawagoe-boys-sing-todos-os-episodios",
      "texto_original": "Kawagoe Boys Sing",
      "rating": 5.66,
      "classificacao_etaria": "A14",
      "imagem_original": "https://animefire.plus/img/animes/kawagoe-boys-sing.webp",
      "imagem_pasta": "https://animefire.plus/img/animes/kawagoe-boys-sing/",
      "secao": "legendados",
      "pagina": 19,
      "total_episodios": 12,
      "link_video": "https://animefire.plus/video/kawagoe-boys-sing"
    },
    {
      "id": 1915,
      "nome": "Kawaii dake ja Nai Shikimori-san (Dublado)",
      "link": "https://animefire.plus/animes/kawaii-dake-ja-nai-shikimori-san-dublado-todos-os-episodios",
      "texto_original": "Kawaii dake ja Nai Shikimori-san (Dublado)",
      "rating": 6.94,
      "classificacao_etaria": "A14",
      "imagem_original": "https://animefire.plus/img/animes/kawaii-dake-ja-nai-shikimori-san.webp",
      "imagem_pasta": "https://animefire.plus/img/animes/kawaii-dake-ja-nai-shikimori-san/",
      "secao": "dublados,legendados",
      "pagina": 11,
      "total_episodios": 12,
      "link_video": "https://animefire.plus/video/kawaii-dake-ja-nai-shikimori-san-dublado"
    },
    {
      "id": 1916,
      "nome": "Kawaikereba Hentai demo Suki ni Natte Kuremasu ka?",
      "link": "https://animefire.plus/animes/kawaikereba-hentai-demo-suki-ni-natte-kuremasu-ka-todos-os-episodios",
      "texto_original": "Kawaikereba Hentai demo Suki ni Natte Kuremasu ka?",
      "rating": 6.6,
      "classificacao_etaria": "A14",
      "imagem_original": "https://animefire.plus/img/animes/kawaikereba-hentai-demo-suki-ni-natte-kuremasu-ka.webp",
      "imagem_pasta": "https://animefire.plus/img/animes/kawaikereba-hentai-demo-suki-ni-natte-kuremasu-ka/",
      "secao": "legendados",
      "pagina": 162,
      "total_episodios": 5,
      "link_video": "https://animefire.plus/video/kawaikereba-hentai-demo-suki-ni-natte-kuremasu-ka"
    },
    {
      "id": 1917,
      "nome": "Kawaisugi Crisis",
      "link": "https://animefire.plus/animes/kawaisugi-crisis-todos-os-episodios",
      "texto_original": "Kawaisugi Crisis",
      "rating": 6.81,
      "classificacao_etaria": "A14",
      "imagem_original": "https://animefire.plus/img/animes/kawaisugi-crisis.jpg",
      "imagem_pasta": "https://animefire.plus/img/animes/kawaisugi-crisis/",
      "secao": "legendados",
      "pagina": 24,
      "total_episodios": 12,
      "link_video": "https://animefire.plus/video/kawaisugi-crisis"
    },
    {
      "id": 1918,
      "nome": "Kaze ga Tsuyoku Fuiteiru",
      "link": "https://animefire.plus/animes/kaze-ga-tsuyoku-fuiteiru-todos-os-episodios",
      "texto_original": "Kaze ga Tsuyoku Fuiteiru",
      "rating": 8.52,
      "classificacao_etaria": "A14",
      "imagem_original": "https://animefire.plus/img/animes/kaze-ga-tsuyoku-fuiteiru.webp",
      "imagem_pasta": "https://animefire.plus/img/animes/kaze-ga-tsuyoku-fuiteiru/",
      "secao": "legendados",
      "pagina": 162,
      "total_episodios": 23,
      "link_video": "https://animefire.plus/video/kaze-ga-tsuyoku-fuiteiru"
    },
    {
      "id": 1919,
      "nome": "Kaze no Matasaburou (Movie)",
      "link": "https://animefire.plus/animes/kaze-no-matasaburou-movie-todos-os-episodios",
      "texto_original": "Kaze no Matasaburou (Movie)",
      "rating": 6.15,
      "classificacao_etaria": null,
      "imagem_original": "https://animefire.plus/img/animes/kaze-no-matasaburou-movie.webp",
      "imagem_pasta": "https://animefire.plus/img/animes/kaze-no-matasaburou-movie/",
      "secao": "legendados",
      "pagina": 86,
      "total_episodios": 1,
      "link_video": "https://animefire.plus/video/kaze-no-matasaburou-movie"
    },
    {
      "id": 1920,
      "nome": "Kaze no Stigma",
      "link": "https://animefire.plus/animes/kaze-no-stigma-todos-os-episodios",
      "texto_original": "Kaze no Stigma",
      "rating": 7.4,
      "classificacao_etaria": "A14",
      "imagem_original": "https://animefire.plus/img/animes/kaze-no-stigma.webp",
      "imagem_pasta": "https://animefire.plus/img/animes/kaze-no-stigma/",
      "secao": "legendados",
      "pagina": 120,
      "total_episodios": 24,
      "link_video": "https://animefire.plus/video/kaze-no-stigma"
    },
    {
      "id": 1922,
      "nome": "Keifuku-san",
      "link": "https://animefire.plus/animes/keifuku-san-todos-os-episodios",
      "texto_original": "Keifuku-san",
      "rating": 5.98,
      "classificacao_etaria": null,
      "imagem_original": "https://animefire.plus/img/animes/keifuku-san.webp",
      "imagem_pasta": "https://animefire.plus/img/animes/keifuku-san/",
      "secao": "legendados",
      "pagina": 65,
      "total_episodios": 1,
      "link_video": "https://animefire.plus/video/keifuku-san"
    },
    {
      "id": 1923,
      "nome": "Keijo!!!!!!!!",
      "link": "https://animefire.plus/animes/keijo-todos-os-episodios",
      "texto_original": "Keijo!!!!!!!!",
      "rating": 7.24,
      "classificacao_etaria": "A14",
      "imagem_original": "https://animefire.plus/img/animes/keijo.webp",
      "imagem_pasta": "https://animefire.plus/img/animes/keijo/",
      "secao": "legendados",
      "pagina": 154,
      "total_episodios": 1,
      "link_video": "https://animefire.plus/video/keijo"
    },
    {
      "id": 1924,
      "nome": "Keikenzumi na Kimi to, Keiken Zero na Ore ga, Otsukiai suru Hanashi.",
      "link": "https://animefire.plus/animes/keikenzumi-na-kimi-to-keiken-zero-na-ore-ga-otsukiai-suru-hanashi-todos-os-episodios",
      "texto_original": "Keikenzumi na Kimi to, Keiken Zero na Ore ga, Otsukiai suru Hanashi.",
      "rating": 6.76,
      "classificacao_etaria": "A14",
      "imagem_original": "https://animefire.plus/img/animes/keikenzumi-na-kimi-to-keiken-zero-na-ore-ga-otsukiai-suru-hanashi.webp",
      "imagem_pasta": "https://animefire.plus/img/animes/keikenzumi-na-kimi-to-keiken-zero-na-ore-ga-otsukiai-suru-hanashi/",
      "secao": "legendados",
      "pagina": 21,
      "total_episodios": 12,
      "link_video": "https://animefire.plus/video/keikenzumi-na-kimi-to-keiken-zero-na-ore-ga-otsukiai-suru-hanashi"
    },
    {
      "id": 1925,
      "nome": "Keishichou Tokumubu Tokushu Kyouakuhan Taisakushitsu Dainanaka: Tokunana",
      "link": "https://animefire.plus/animes/keishichou-tokumubu-tokushu-kyouakuhan-taisakushitsu-dainanaka-tokunana-todos-os-episodios",
      "texto_original": "Keishichou Tokumubu Tokushu Kyouakuhan Taisakushitsu Dainanaka: Tokunana",
      "rating": 6.02,
      "classificacao_etaria": "A14",
      "imagem_original": "https://animefire.plus/img/animes/keishichou-tokumubu-tokushu-kyouakuhan-taisakushitsu-dainanaka-tokunana.webp",
      "imagem_pasta": "https://animefire.plus/img/animes/keishichou-tokumubu-tokushu-kyouakuhan-taisakushitsu-dainanaka-tokunana/",
      "secao": "legendados",
      "pagina": 110,
      "total_episodios": 12,
      "link_video": "https://animefire.plus/video/keishichou-tokumubu-tokushu-kyouakuhan-taisakushitsu-dainanaka-tokunana"
    },
    {
      "id": 1926,
      "nome": "Keishichou Tokumubu Tokushu Kyouakuhan Taisakushitsu Dainanaka: Tokunana OVA",
      "link": "https://animefire.plus/animes/keishichou-tokumubu-tokushu-kyouakuhan-taisakushitsu-dainanaka-tokunana-ova-todos-os-episodios",
      "texto_original": "Keishichou Tokumubu Tokushu Kyouakuhan Taisakushitsu Dainanaka: Tokunana OVA",
      "rating": 6.03,
      "classificacao_etaria": null,
      "imagem_original": "https://animefire.plus/img/animes/keishichou-tokumubu-tokushu-kyouakuhan-taisakushitsu-dainanaka-tokunana-ova.webp",
      "imagem_pasta": "https://animefire.plus/img/animes/keishichou-tokumubu-tokushu-kyouakuhan-taisakushitsu-dainanaka-tokunana-ova/",
      "secao": "legendados",
      "pagina": 57,
      "total_episodios": 1,
      "link_video": "https://animefire.plus/video/keishichou-tokumubu-tokushu-kyouakuhan-taisakushitsu-dainanaka-tokunana-ova"
    },
    {
      "id": 1927,
      "nome": "Keitai Shoujo",
      "link": "https://animefire.plus/animes/keitai-shoujo-todos-os-episodios",
      "texto_original": "Keitai Shoujo",
      "rating": 5.36,
      "classificacao_etaria": "A14",
      "imagem_original": "https://animefire.plus/img/animes/keitai-shoujo.webp",
      "imagem_pasta": "https://animefire.plus/img/animes/keitai-shoujo/",
      "secao": "legendados",
      "pagina": 131,
      "total_episodios": 5,
      "link_video": "https://animefire.plus/video/keitai-shoujo"
    },
    {
      "id": 1928,
      "nome": "Kekkai Sensen (Dublado)",
      "link": "https://animefire.plus/animes/kekkai-sensen-dublado-todos-os-episodios",
      "texto_original": "Kekkai Sensen (Dublado)",
      "rating": 7.66,
      "classificacao_etaria": "A16",
      "imagem_original": "https://animefire.plus/img/animes/kekkai-sensen.webp",
      "imagem_pasta": "https://animefire.plus/img/animes/kekkai-sensen/",
      "secao": "dublados,legendados",
      "pagina": 20,
      "total_episodios": 13,
      "link_video": "https://animefire.plus/video/kekkai-sensen-dublado"
    },
    {
      "id": 1929,
      "nome": "Kekkai Sensen & Beyond (Dublado)",
      "link": "https://animefire.plus/animes/kekkai-sensen-beyond-dublado-todos-os-episodios",
      "texto_original": "Kekkai Sensen & Beyond (Dublado)",
      "rating": 7.9,
      "classificacao_etaria": "A16",
      "imagem_original": "https://animefire.plus/img/animes/kekkai-sensen-beyond.webp",
      "imagem_pasta": "https://animefire.plus/img/animes/kekkai-sensen-beyond/",
      "secao": "dublados,legendados",
      "pagina": 19,
      "total_episodios": 12,
      "link_video": "https://animefire.plus/video/kekkai-sensen-beyond-dublado"
    },
    {
      "id": 1930,
      "nome": "Kekkai Sensen: Ousama no Restaurant no Ousama",
      "link": "https://animefire.plus/animes/kekkai-sensen-ousama-no-restaurant-no-ousama-todos-os-episodios",
      "texto_original": "Kekkai Sensen: Ousama no Restaurant no Ousama",
      "rating": 7.43,
      "classificacao_etaria": "A16",
      "imagem_original": "https://animefire.plus/img/animes/kekkai-sensen-ousama-no-restaurant-no-ousama.webp",
      "imagem_pasta": "https://animefire.plus/img/animes/kekkai-sensen-ousama-no-restaurant-no-ousama/",
      "secao": "legendados",
      "pagina": 86,
      "total_episodios": 1,
      "link_video": "https://animefire.plus/video/kekkai-sensen-ousama-no-restaurant-no-ousama"
    },
    {
      "id": 1931,
      "nome": "Kekkaishi",
      "link": "https://animefire.plus/animes/kekkaishi-todos-os-episodios",
      "texto_original": "Kekkaishi",
      "rating": 7.68,
      "classificacao_etaria": "A14",
      "imagem_original": "https://animefire.plus/img/animes/kekkaishi.webp",
      "imagem_pasta": "https://animefire.plus/img/animes/kekkaishi/",
      "secao": "legendados",
      "pagina": 175,
      "total_episodios": 34,
      "link_video": "https://animefire.plus/video/kekkaishi"
    },
    {
      "id": 1932,
      "nome": "Kekkon suru tte, Hontou desu ka (Dublado)",
      "link": "https://animefire.plus/animes/kekkon-suru-tte-hontou-desu-ka-dublado-todos-os-episodios",
      "texto_original": "Kekkon suru tte, Hontou desu ka (Dublado)",
      "rating": 7.12,
      "classificacao_etaria": "A14",
      "imagem_original": "https://animefire.plus/img/animes/kekkon-suru-tte-hontou-desu-ka.webp",
      "imagem_pasta": "https://animefire.plus/img/animes/kekkon-suru-tte-hontou-desu-ka/",
      "secao": "dublados,legendados,lancamentos",
      "pagina": 2,
      "total_episodios": 12,
      "link_video": "https://animefire.plus/video/kekkon-suru-tte-hontou-desu-ka-dublado"
    },
    {
      "id": 1933,
      "nome": "Kekkon Yubiwa Monogatari (Dublado)",
      "link": "https://animefire.plus/animes/kekkon-yubiwa-monogatari-dublado-todos-os-episodios",
      "texto_original": "Kekkon Yubiwa Monogatari (Dublado)",
      "rating": 6.06,
      "classificacao_etaria": "A18",
      "imagem_original": "https://animefire.plus/img/animes/kekkon-yubiwa-monogatari.webp",
      "imagem_pasta": "https://animefire.plus/img/animes/kekkon-yubiwa-monogatari/",
      "secao": "dublados,legendados,lancamentos",
      "pagina": 3,
      "total_episodios": 12,
      "link_video": "https://animefire.plus/video/kekkon-yubiwa-monogatari-dublado"
    }
  ],
  "pagination": {
    "current_page": 94,
    "per_page": 20,
    "total_items": 4269,
    "total_pages": 214,
    "has_next": true,
    "has_prev": true
  }
}
