{
  "message": "Animes da seção: legendados",
  "section": "legendados",
  "data": [
    {
      "id": 2909,
      "nome": "Osomatsu-san 3rd Season",
      "link": "https://animefire.plus/animes/osomatsu-san-3rd-season-todos-os-episodios",
      "texto_original": "Osomatsu-san 3rd Season",
      "rating": null,
      "classificacao_etaria": "A16",
      "imagem_original": "https://animefire.plus/img/animes/osomatsu-san-3rd-season.webp",
      "imagem_pasta": "https://animefire.plus/img/animes/osomatsu-san-3rd-season/",
      "secao": "legendados",
      "pagina": 51,
      "total_episodios": 25,
      "link_video": "https://animefire.plus/video/osomatsu-san-3rd-season"
    },
    {
      "id": 2910,
      "nome": "Osomatsu-san 4th Season",
      "link": "https://animefire.plus/animes/osomatsu-san-4th-season-todos-os-episodios",
      "texto_original": "Osomatsu-san 4th Season",
      "rating": 6.67,
      "classificacao_etaria": "A16",
      "imagem_original": "https://animefire.plus/img/animes/osomatsu-san-4th-season.webp",
      "imagem_pasta": "https://animefire.plus/img/animes/osomatsu-san-4th-season/",
      "secao": "legendados,lancamentos",
      "pagina": 1,
      "total_episodios": 4,
      "link_video": "https://animefire.plus/video/osomatsu-san-4th-season"
    },
    {
      "id": 2911,
      "nome": "Osomatsu-san: Ouma de Kobanashi",
      "link": "https://animefire.plus/animes/osomatsu-san-ouma-de-kobanashi-todos-os-episodios",
      "texto_original": "Osomatsu-san: Ouma de Kobanashi",
      "rating": 7.31,
      "classificacao_etaria": "A16",
      "imagem_original": "https://animefire.plus/img/animes/osomatsu-san-ouma-de-kobanashi.webp",
      "imagem_pasta": "https://animefire.plus/img/animes/osomatsu-san-ouma-de-kobanashi/",
      "secao": "legendados",
      "pagina": 89,
      "total_episodios": 1,
      "link_video": "https://animefire.plus/video/osomatsu-san-ouma-de-kobanashi"
    },
    {
      "id": 2912,
      "nome": "Otaku no Video",
      "link": "https://animefire.plus/animes/otaku-no-video-todos-os-episodios",
      "texto_original": "Otaku no Video",
      "rating": 7.16,
      "classificacao_etaria": "A18",
      "imagem_original": "https://animefire.plus/img/animes/otaku-no-video.webp",
      "imagem_pasta": "https://animefire.plus/img/animes/otaku-no-video/",
      "secao": "legendados",
      "pagina": 66,
      "total_episodios": 2,
      "link_video": "https://animefire.plus/video/otaku-no-video"
    },
    {
      "id": 2913,
      "nome": "Otogizoushi",
      "link": "https://animefire.plus/animes/otogizoushi-todos-os-episodios",
      "texto_original": "Otogizoushi",
      "rating": 7.03,
      "classificacao_etaria": "A14",
      "imagem_original": "https://animefire.plus/img/animes/otogizoushi.webp",
      "imagem_pasta": "https://animefire.plus/img/animes/otogizoushi/",
      "secao": "legendados",
      "pagina": 122,
      "total_episodios": 0,
      "link_video": "https://animefire.plus/video/otogizoushi"
    },
    {
      "id": 2914,
      "nome": "Otome Game no Hametsu Flag shika Nai Akuyaku Reijou ni Tensei shiteshimatta...",
      "link": "https://animefire.plus/animes/otome-game-no-hametsu-flag-shika-nai-akuyaku-reijou-ni-tensei-shiteshimatta-todos-os-episodios",
      "texto_original": "Otome Game no Hametsu Flag shika Nai Akuyaku Reijou ni Tensei shiteshimatta...",
      "rating": 7.49,
      "classificacao_etaria": "A14",
      "imagem_original": "https://animefire.plus/img/animes/otome-game-no-hametsu-flag-shika-nai-akuyaku-reijou-ni-tensei-shiteshimatta.webp",
      "imagem_pasta": "https://animefire.plus/img/animes/otome-game-no-hametsu-flag-shika-nai-akuyaku-reijou-ni-tensei-shiteshimatta/",
      "secao": "legendados",
      "pagina": 81,
      "total_episodios": 12,
      "link_video": "https://animefire.plus/video/otome-game-no-hametsu-flag-shika-nai-akuyaku-reijou-ni-tensei-shiteshimatta"
    },
    {
      "id": 2915,
      "nome": "Otome Game no Hametsu Flag shika Nai Akuyaku Reijou ni Tensei shiteshimatta... OVA",
      "link": "https://animefire.plus/animes/otome-game-no-hametsu-flag-shika-nai-akuyaku-reijou-ni-tensei-shiteshimatta-ova-todos-os-episodios",
      "texto_original": "Otome Game no Hametsu Flag shika Nai Akuyaku Reijou ni Tensei shiteshimatta... OVA",
      "rating": 6.87,
      "classificacao_etaria": "A14",
      "imagem_original": "https://animefire.plus/img/animes/otome-game-no-hametsu-flag-shika-nai-akuyaku-reijou-ni-tensei-shiteshimatta-ova.webp",
      "imagem_pasta": "https://animefire.plus/img/animes/otome-game-no-hametsu-flag-shika-nai-akuyaku-reijou-ni-tensei-shiteshimatta-ova/",
      "secao": "legendados",
      "pagina": 36,
      "total_episodios": 1,
      "link_video": "https://animefire.plus/video/otome-game-no-hametsu-flag-shika-nai-akuyaku-reijou-ni-tensei-shiteshimatta-ova"
    },
    {
      "id": 2916,
      "nome": "Otome Game no Hametsu Flag shika Nai Akuyaku Reijou ni Tensei shiteshimatta... X",
      "link": "https://animefire.plus/animes/otome-game-no-hametsu-flag-shika-nai-akuyaku-reijou-ni-tensei-shiteshimatta-x-todos-os-episodios",
      "texto_original": "Otome Game no Hametsu Flag shika Nai Akuyaku Reijou ni Tensei shiteshimatta... X",
      "rating": 7.25,
      "classificacao_etaria": "A14",
      "imagem_original": "https://animefire.plus/img/animes/otome-game-no-hametsu-flag-shika-nai-akuyaku-reijou-ni-tensei-shiteshimatta-x.webp",
      "imagem_pasta": "https://animefire.plus/img/animes/otome-game-no-hametsu-flag-shika-nai-akuyaku-reijou-ni-tensei-shiteshimatta-x/",
      "secao": "legendados",
      "pagina": 45,
      "total_episodios": 12,
      "link_video": "https://animefire.plus/video/otome-game-no-hametsu-flag-shika-nai-akuyaku-reijou-ni-tensei-shiteshimatta-x"
    },
    {
      "id": 2917,
      "nome": "Otome Game Sekai wa Mob ni Kibishii Sekai desu",
      "link": "https://animefire.plus/animes/otome-game-sekai-wa-mob-ni-kibishii-sekai-desu-todos-os-episodios",
      "texto_original": "Otome Game Sekai wa Mob ni Kibishii Sekai desu",
      "rating": 7.32,
      "classificacao_etaria": "A14",
      "imagem_original": "https://animefire.plus/img/animes/otome-game-sekai-wa-mob-ni-kibishii-sekai-desu.webp",
      "imagem_pasta": "https://animefire.plus/img/animes/otome-game-sekai-wa-mob-ni-kibishii-sekai-desu/",
      "secao": "legendados",
      "pagina": 34,
      "total_episodios": 12,
      "link_video": "https://animefire.plus/video/otome-game-sekai-wa-mob-ni-kibishii-sekai-desu"
    },
    {
      "id": 2918,
      "nome": "Otome wa Boku ni Koishiteru",
      "link": "https://animefire.plus/animes/otome-wa-boku-ni-koishiteru-todos-os-episodios",
      "texto_original": "Otome wa Boku ni Koishiteru",
      "rating": 7.12,
      "classificacao_etaria": "A14",
      "imagem_original": "https://animefire.plus/img/animes/otome-wa-boku-ni-koishiteru.webp",
      "imagem_pasta": "https://animefire.plus/img/animes/otome-wa-boku-ni-koishiteru/",
      "secao": "legendados",
      "pagina": 134,
      "total_episodios": 12,
      "link_video": "https://animefire.plus/video/otome-wa-boku-ni-koishiteru"
    },
    {
      "id": 2919,
      "nome": "Otome wa Boku ni Koishiteru: Trinkle Stars The Animation",
      "link": "https://animefire.plus/animes/otome-wa-boku-ni-koishiteru-trinkle-stars-the-animation-todos-os-episodios",
      "texto_original": "Otome wa Boku ni Koishiteru: Trinkle Stars The Animation",
      "rating": 5.58,
      "classificacao_etaria": "A14",
      "imagem_original": "https://animefire.plus/img/animes/otome-wa-boku-ni-koishiteru-trinkle-stars-the-animation.webp",
      "imagem_pasta": "https://animefire.plus/img/animes/otome-wa-boku-ni-koishiteru-trinkle-stars-the-animation/",
      "secao": "legendados,lancamentos",
      "pagina": 38,
      "total_episodios": 0,
      "link_video": "https://animefire.plus/video/otome-wa-boku-ni-koishiteru-trinkle-stars-the-animation"
    },
    {
      "id": 2920,
      "nome": "Otome Youkai Zakuro",
      "link": "https://animefire.plus/animes/otome-youkai-zakuro-todos-os-episodios",
      "texto_original": "Otome Youkai Zakuro",
      "rating": 7.54,
      "classificacao_etaria": "A14",
      "imagem_original": "https://animefire.plus/img/animes/otome-youkai-zakuro.webp",
      "imagem_pasta": "https://animefire.plus/img/animes/otome-youkai-zakuro/",
      "secao": "legendados",
      "pagina": 150,
      "total_episodios": 13,
      "link_video": "https://animefire.plus/video/otome-youkai-zakuro"
    },
    {
      "id": 2921,
      "nome": "Otona no Bouguya-san",
      "link": "https://animefire.plus/animes/otona-no-bouguya-san-todos-os-episodios",
      "texto_original": "Otona no Bouguya-san",
      "rating": 5.71,
      "classificacao_etaria": "A14",
      "imagem_original": "https://animefire.plus/img/animes/otona-no-bouguya-san.webp",
      "imagem_pasta": "https://animefire.plus/img/animes/otona-no-bouguya-san/",
      "secao": "legendados",
      "pagina": 105,
      "total_episodios": 12,
      "link_video": "https://animefire.plus/video/otona-no-bouguya-san"
    },
    {
      "id": 2922,
      "nome": "Otona no Bouguya-san 2nd Season",
      "link": "https://animefire.plus/animes/otona-no-bouguya-san-2-todos-os-episodios",
      "texto_original": "Otona no Bouguya-san 2nd Season",
      "rating": 5.49,
      "classificacao_etaria": "A14",
      "imagem_original": "https://animefire.plus/img/animes/otona-no-bouguya-san-2.webp",
      "imagem_pasta": "https://animefire.plus/img/animes/otona-no-bouguya-san-2/",
      "secao": "legendados",
      "pagina": 48,
      "total_episodios": 12,
      "link_video": "https://animefire.plus/video/otona-no-bouguya-san-2"
    },
    {
      "id": 2923,
      "nome": "Otonari ni Ginga (Dublado)",
      "link": "https://animefire.plus/animes/otonari-ni-ginga-dublado-todos-os-episodios",
      "texto_original": "Otonari ni Ginga (Dublado)",
      "rating": 7.15,
      "classificacao_etaria": "A14",
      "imagem_original": "https://animefire.plus/img/animes/otonari-ni-ginga.webp",
      "imagem_pasta": "https://animefire.plus/img/animes/otonari-ni-ginga/",
      "secao": "dublados,legendados",
      "pagina": 6,
      "total_episodios": 12,
      "link_video": "https://animefire.plus/video/otonari-ni-ginga-dublado"
    },
    {
      "id": 2924,
      "nome": "Otonari no Tenshi-sama ni Itsunomanika Dame Ningen ni Sareteita Ken",
      "link": "https://animefire.plus/animes/otonari-no-tenshi-sama-ni-itsunomanika-dame-ningen-ni-sareteita-ken-todos-os-episodios",
      "texto_original": "Otonari no Tenshi-sama ni Itsunomanika Dame Ningen ni Sareteita Ken",
      "rating": 7.84,
      "classificacao_etaria": "A14",
      "imagem_original": "https://animefire.plus/img/animes/otonari-no-tenshi-sama-ni-itsunomanika-dame-ningen-ni-sareteita-ken.webp",
      "imagem_pasta": "https://animefire.plus/img/animes/otonari-no-tenshi-sama-ni-itsunomanika-dame-ningen-ni-sareteita-ken/",
      "secao": "legendados",
      "pagina": 28,
      "total_episodios": 12,
      "link_video": "https://animefire.plus/video/otonari-no-tenshi-sama-ni-itsunomanika-dame-ningen-ni-sareteita-ken"
    },
    {
      "id": 2925,
      "nome": "Ou Dorobou Jing",
      "link": "https://animefire.plus/animes/ou-dorobou-jing-todos-os-episodios",
      "texto_original": "Ou Dorobou Jing",
      "rating": 7.29,
      "classificacao_etaria": "A14",
      "imagem_original": "https://animefire.plus/img/animes/ou-dorobou-jing.webp",
      "imagem_pasta": "https://animefire.plus/img/animes/ou-dorobou-jing/",
      "secao": "legendados",
      "pagina": 134,
      "total_episodios": 13,
      "link_video": "https://animefire.plus/video/ou-dorobou-jing"
    },
    {
      "id": 2926,
      "nome": "Ouran Koukou Host Club",
      "link": "https://animefire.plus/animes/ouran-koukou-host-club-todos-os-episodios",
      "texto_original": "Ouran Koukou Host Club",
      "rating": 8.31,
      "classificacao_etaria": "A14",
      "imagem_original": "https://animefire.plus/img/animes/ouran-koukou-host-club.webp",
      "imagem_pasta": "https://animefire.plus/img/animes/ouran-koukou-host-club/",
      "secao": "legendados",
      "pagina": 116,
      "total_episodios": 5,
      "link_video": "https://animefire.plus/video/ouran-koukou-host-club"
    },
    {
      "id": 2927,
      "nome": "Ouritsu Uchuugun: Honneamise no Tsubasa Pilot",
      "link": "https://animefire.plus/animes/ouritsu-uchuugun-honneamise-no-tsubasa-pilot-todos-os-episodios",
      "texto_original": "Ouritsu Uchuugun: Honneamise no Tsubasa Pilot",
      "rating": 6.05,
      "classificacao_etaria": "A14",
      "imagem_original": "https://animefire.plus/img/animes/ouritsu-uchuugun-honneamise-no-tsubasa-pilot.webp",
      "imagem_pasta": "https://animefire.plus/img/animes/ouritsu-uchuugun-honneamise-no-tsubasa-pilot/",
      "secao": "legendados",
      "pagina": 85,
      "total_episodios": 1,
      "link_video": "https://animefire.plus/video/ouritsu-uchuugun-honneamise-no-tsubasa-pilot"
    },
    {
      "id": 2928,
      "nome": "Ousama Game The Animation",
      "link": "https://animefire.plus/animes/ousama-game-the-animation-todos-os-episodios",
      "texto_original": "Ousama Game The Animation",
      "rating": 5.15,
      "classificacao_etaria": "A16",
      "imagem_original": "https://animefire.plus/img/animes/ousama-game-the-animation.webp",
      "imagem_pasta": "https://animefire.plus/img/animes/ousama-game-the-animation/",
      "secao": "legendados",
      "pagina": 95,
      "total_episodios": 12,
      "link_video": "https://animefire.plus/video/ousama-game-the-animation"
    }
  ],
  "pagination": {
    "current_page": 143,
    "per_page": 20,
    "total_items": 4269,
    "total_pages": 214,
    "has_next": true,
    "has_prev": true
  }
}
