{
  "message": "Animes da seção: legendados",
  "section": "legendados",
  "data": [
    {
      "id": 3298,
      "nome": "Seikon no Qwaser",
      "link": "https://animefire.plus/animes/seikon-no-qwaser-todos-os-episodios",
      "texto_original": "Seikon no Qwaser",
      "rating": 6.34,
      "classificacao_etaria": "A18",
      "imagem_original": "https://animefire.plus/img/animes/seikon-no-qwaser.webp",
      "imagem_pasta": "https://animefire.plus/img/animes/seikon-no-qwaser/",
      "secao": "legendados",
      "pagina": 18,
      "total_episodios": 24,
      "link_video": "https://animefire.plus/video/seikon-no-qwaser"
    },
    {
      "id": 3299,
      "nome": "Seikon no Qwaser II",
      "link": "https://animefire.plus/animes/seikon-no-qwaser-ii-todos-os-episodios",
      "texto_original": "Seikon no Qwaser II",
      "rating": 6.55,
      "classificacao_etaria": "A18",
      "imagem_original": "https://animefire.plus/img/animes/seikon-no-qwaser-ii.webp",
      "imagem_pasta": "https://animefire.plus/img/animes/seikon-no-qwaser-ii/",
      "secao": "legendados",
      "pagina": 115,
      "total_episodios": 12,
      "link_video": "https://animefire.plus/video/seikon-no-qwaser-ii"
    },
    {
      "id": 3300,
      "nome": "Seirei Gensouki (Dublado)",
      "link": "https://animefire.plus/animes/seirei-gensouki-dublado-todos-os-episodios",
      "texto_original": "Seirei Gensouki (Dublado)",
      "rating": 7.07,
      "classificacao_etaria": "A14",
      "imagem_original": "https://animefire.plus/img/animes/seirei-gensouki.webp",
      "imagem_pasta": "https://animefire.plus/img/animes/seirei-gensouki/",
      "secao": "dublados,legendados",
      "pagina": 13,
      "total_episodios": 12,
      "link_video": "https://animefire.plus/video/seirei-gensouki-dublado"
    },
    {
      "id": 3301,
      "nome": "Seirei Gensouki 2 (Dublado)",
      "link": "https://animefire.plus/animes/seirei-gensouki-2-dublado-todos-os-episodios",
      "texto_original": "Seirei Gensouki 2 (Dublado)",
      "rating": 6.87,
      "classificacao_etaria": "A14",
      "imagem_original": "https://animefire.plus/img/animes/seirei-gensouki-2.webp",
      "imagem_pasta": "https://animefire.plus/img/animes/seirei-gensouki-2/",
      "secao": "dublados,legendados,lancamentos",
      "pagina": 2,
      "total_episodios": 12,
      "link_video": "https://animefire.plus/video/seirei-gensouki-2-dublado"
    },
    {
      "id": 3302,
      "nome": "Seirei no Moribito",
      "link": "https://animefire.plus/animes/seirei-no-moribito-todos-os-episodios",
      "texto_original": "Seirei no Moribito",
      "rating": 8.19,
      "classificacao_etaria": "A14",
      "imagem_original": "https://animefire.plus/img/animes/seirei-no-moribito.webp",
      "imagem_pasta": "https://animefire.plus/img/animes/seirei-no-moribito/",
      "secao": "legendados",
      "pagina": 157,
      "total_episodios": 26,
      "link_video": "https://animefire.plus/video/seirei-no-moribito"
    },
    {
      "id": 3303,
      "nome": "Seireitsukai no Blade Dance",
      "link": "https://animefire.plus/animes/seireitsukai-no-blade-dance-todos-os-episodios",
      "texto_original": "Seireitsukai no Blade Dance",
      "rating": 7.04,
      "classificacao_etaria": "A14",
      "imagem_original": "https://animefire.plus/img/animes/seireitsukai-no-blade-dance.webp",
      "imagem_pasta": "https://animefire.plus/img/animes/seireitsukai-no-blade-dance/",
      "secao": "legendados",
      "pagina": 118,
      "total_episodios": 3,
      "link_video": "https://animefire.plus/video/seireitsukai-no-blade-dance"
    },
    {
      "id": 3304,
      "nome": "Seiren",
      "link": "https://animefire.plus/animes/seiren-todos-os-episodios",
      "texto_original": "Seiren",
      "rating": 6.38,
      "classificacao_etaria": "A14",
      "imagem_original": "https://animefire.plus/img/animes/seiren.webp",
      "imagem_pasta": "https://animefire.plus/img/animes/seiren/",
      "secao": "legendados",
      "pagina": 128,
      "total_episodios": 0,
      "link_video": "https://animefire.plus/video/seiren"
    },
    {
      "id": 3305,
      "nome": "Seisen Cerberus: Ryuukoku no Fatalités",
      "link": "https://animefire.plus/animes/seisen-cerberus-ryuukoku-no-fatalites-todos-os-episodios",
      "texto_original": "Seisen Cerberus: Ryuukoku no Fatalités",
      "rating": 5.7,
      "classificacao_etaria": "A16",
      "imagem_original": "https://animefire.plus/img/animes/seisen-cerberus-ryuukoku-no-fatalites.webp",
      "imagem_pasta": "https://animefire.plus/img/animes/seisen-cerberus-ryuukoku-no-fatalites/",
      "secao": "legendados",
      "pagina": 89,
      "total_episodios": 13,
      "link_video": "https://animefire.plus/video/seisen-cerberus-ryuukoku-no-fatalites"
    },
    {
      "id": 3306,
      "nome": "Seisenshi Dunbine",
      "link": "https://animefire.plus/animes/seisenshi-dunbine-todos-os-episodios",
      "texto_original": "Seisenshi Dunbine",
      "rating": 7.16,
      "classificacao_etaria": "A14",
      "imagem_original": "https://animefire.plus/img/animes/seisenshi-dunbine.webp",
      "imagem_pasta": "https://animefire.plus/img/animes/seisenshi-dunbine/",
      "secao": "legendados",
      "pagina": 115,
      "total_episodios": 49,
      "link_video": "https://animefire.plus/video/seisenshi-dunbine"
    },
    {
      "id": 3307,
      "nome": "Seisenshi Dunbine OVA",
      "link": "https://animefire.plus/animes/seisenshi-dunbine-ova-todos-os-episodios",
      "texto_original": "Seisenshi Dunbine OVA",
      "rating": 5.8,
      "classificacao_etaria": "A14",
      "imagem_original": "https://animefire.plus/img/animes/seisenshi-dunbine-ova.webp",
      "imagem_pasta": "https://animefire.plus/img/animes/seisenshi-dunbine-ova/",
      "secao": "legendados",
      "pagina": 142,
      "total_episodios": 3,
      "link_video": "https://animefire.plus/video/seisenshi-dunbine-ova"
    },
    {
      "id": 3308,
      "nome": "Seishun Buta Yarou wa Bunny Girl Senpai no Yume wo Minai",
      "link": "https://animefire.plus/animes/seishun-buta-yarou-wa-bunny-girl-senpai-no-yume-wo-minai-todos-os-episodios",
      "texto_original": "Seishun Buta Yarou wa Bunny Girl Senpai no Yume wo Minai",
      "rating": 8.47,
      "classificacao_etaria": "A14",
      "imagem_original": "https://animefire.plus/img/animes/seishun-buta-yarou-wa-bunny-girl-senpai-no-yume-wo-minai.webp",
      "imagem_pasta": "https://animefire.plus/img/animes/seishun-buta-yarou-wa-bunny-girl-senpai-no-yume-wo-minai/",
      "secao": "legendados",
      "pagina": 146,
      "total_episodios": 13,
      "link_video": "https://animefire.plus/video/seishun-buta-yarou-wa-bunny-girl-senpai-no-yume-wo-minai"
    },
    {
      "id": 3309,
      "nome": "Seishun Buta Yarou wa Santa Claus no Yume wo Minai",
      "link": "https://animefire.plus/animes/seishun-buta-yarou-wa-santa-claus-no-yume-wo-minai-todos-os-episodios",
      "texto_original": "Seishun Buta Yarou wa Santa Claus no Yume wo Minai",
      "rating": 8.34,
      "classificacao_etaria": "A14",
      "imagem_original": "https://animefire.plus/img/animes/seishun-buta-yarou-wa-santa-claus-no-yume-wo-minai.webp",
      "imagem_pasta": "https://animefire.plus/img/animes/seishun-buta-yarou-wa-santa-claus-no-yume-wo-minai/",
      "secao": "legendados,lancamentos",
      "pagina": 3,
      "total_episodios": 5,
      "link_video": "https://animefire.plus/video/seishun-buta-yarou-wa-santa-claus-no-yume-wo-minai"
    },
    {
      "id": 3310,
      "nome": "Seitokai No Ichizon",
      "link": "https://animefire.plus/animes/seitokai-no-ichizon-todos-os-episodios",
      "texto_original": "Seitokai No Ichizon",
      "rating": 7.42,
      "classificacao_etaria": "A14",
      "imagem_original": "https://animefire.plus/img/animes/seitokai-no-ichizon.webp",
      "imagem_pasta": "https://animefire.plus/img/animes/seitokai-no-ichizon/",
      "secao": "legendados",
      "pagina": 99,
      "total_episodios": 12,
      "link_video": "https://animefire.plus/video/seitokai-no-ichizon"
    },
    {
      "id": 3311,
      "nome": "Seitokai no Ichizon Lv.2",
      "link": "https://animefire.plus/animes/seitokai-no-ichizon-lv-2-todos-os-episodios",
      "texto_original": "Seitokai no Ichizon Lv.2",
      "rating": 7.43,
      "classificacao_etaria": "A14",
      "imagem_original": "https://animefire.plus/img/animes/seitokai-no-ichizon-lv-2.webp",
      "imagem_pasta": "https://animefire.plus/img/animes/seitokai-no-ichizon-lv-2/",
      "secao": "legendados",
      "pagina": 122,
      "total_episodios": 10,
      "link_video": "https://animefire.plus/video/seitokai-no-ichizon-lv-2"
    },
    {
      "id": 3312,
      "nome": "Seitokai no Ichizon Lv.2: Watasu Seitokai",
      "link": "https://animefire.plus/animes/seitokai-no-ichizon-lv-2-watasu-seitokai-todos-os-episodios",
      "texto_original": "Seitokai no Ichizon Lv.2: Watasu Seitokai",
      "rating": 7.35,
      "classificacao_etaria": "A14",
      "imagem_original": "https://animefire.plus/img/animes/seitokai-no-ichizon-lv-2-watasu-seitokai.webp",
      "imagem_pasta": "https://animefire.plus/img/animes/seitokai-no-ichizon-lv-2-watasu-seitokai/",
      "secao": "legendados",
      "pagina": 86,
      "total_episodios": 1,
      "link_video": "https://animefire.plus/video/seitokai-no-ichizon-lv-2-watasu-seitokai"
    },
    {
      "id": 3313,
      "nome": "Seitokai Yakuindomo",
      "link": "https://animefire.plus/animes/seitokai-yakuindomo-todos-os-episodios",
      "texto_original": "Seitokai Yakuindomo",
      "rating": 7.66,
      "classificacao_etaria": "A16",
      "imagem_original": "https://animefire.plus/img/animes/seitokai-yakuindomo.webp",
      "imagem_pasta": "https://animefire.plus/img/animes/seitokai-yakuindomo/",
      "secao": "legendados",
      "pagina": 162,
      "total_episodios": 13,
      "link_video": "https://animefire.plus/video/seitokai-yakuindomo"
    },
    {
      "id": 3314,
      "nome": "Seitokai Yakuindomo*",
      "link": "https://animefire.plus/animes/seitokai-yakuindomo-2-todos-os-episodios",
      "texto_original": "Seitokai Yakuindomo*",
      "rating": 7.78,
      "classificacao_etaria": "A16",
      "imagem_original": "https://animefire.plus/img/animes/seitokai-yakuindomo.webp",
      "imagem_pasta": "https://animefire.plus/img/animes/seitokai-yakuindomo/",
      "secao": "legendados",
      "pagina": 90,
      "total_episodios": 0,
      "link_video": "https://animefire.plus/video/seitokai-yakuindomo-2"
    },
    {
      "id": 3315,
      "nome": "Seiyuu Radio no Uraomote",
      "link": "https://animefire.plus/animes/seiyuu-radio-no-uraomote-todos-os-episodios",
      "texto_original": "Seiyuu Radio no Uraomote",
      "rating": 6.95,
      "classificacao_etaria": "A14",
      "imagem_original": "https://animefire.plus/img/animes/seiyuu-radio-no-uraomote.webp",
      "imagem_pasta": "https://animefire.plus/img/animes/seiyuu-radio-no-uraomote/",
      "secao": "legendados",
      "pagina": 14,
      "total_episodios": 12,
      "link_video": "https://animefire.plus/video/seiyuu-radio-no-uraomote"
    },
    {
      "id": 3316,
      "nome": "Sekai de Ichiban Tsuyoku Naritai!",
      "link": "https://animefire.plus/animes/sekai-de-ichiban-tsuyoku-naritai-todos-os-episodios",
      "texto_original": "Sekai de Ichiban Tsuyoku Naritai!",
      "rating": 5.9,
      "classificacao_etaria": "A18",
      "imagem_original": "https://animefire.plus/img/animes/sekai-de-ichiban-tsuyoku-naritai.webp",
      "imagem_pasta": "https://animefire.plus/img/animes/sekai-de-ichiban-tsuyoku-naritai/",
      "secao": "legendados",
      "pagina": 117,
      "total_episodios": 4,
      "link_video": "https://animefire.plus/video/sekai-de-ichiban-tsuyoku-naritai"
    },
    {
      "id": 3317,
      "nome": "Sekai de Ichiban Tsuyoku Naritai! Specials",
      "link": "https://animefire.plus/animes/sekai-de-ichiban-tsuyoku-naritai-specials-todos-os-episodios",
      "texto_original": "Sekai de Ichiban Tsuyoku Naritai! Specials",
      "rating": 5.77,
      "classificacao_etaria": "A18",
      "imagem_original": "https://animefire.plus/img/animes/sekai-de-ichiban-tsuyoku-naritai-specials.webp",
      "imagem_pasta": "https://animefire.plus/img/animes/sekai-de-ichiban-tsuyoku-naritai-specials/",
      "secao": "legendados",
      "pagina": 54,
      "total_episodios": 1,
      "link_video": "https://animefire.plus/video/sekai-de-ichiban-tsuyoku-naritai-specials"
    }
  ],
  "pagination": {
    "current_page": 162,
    "per_page": 20,
    "total_items": 4269,
    "total_pages": 214,
    "has_next": true,
    "has_prev": true
  }
}
