{
  "message": "Animes da seção: legendados",
  "section": "legendados",
  "data": [
    {
      "id": 1364,
      "nome": "Hangyakusei Million Arthur",
      "link": "https://animefire.plus/animes/hangyakusei-million-arthur-todos-os-episodios",
      "texto_original": "Hangyakusei Million Arthur",
      "rating": 6.28,
      "classificacao_etaria": "A14",
      "imagem_original": "https://animefire.plus/img/animes/hangyakusei-million-arthur.webp",
      "imagem_pasta": "https://animefire.plus/img/animes/hangyakusei-million-arthur/",
      "secao": "legendados",
      "pagina": 116,
      "total_episodios": 10,
      "link_video": "https://animefire.plus/video/hangyakusei-million-arthur"
    },
    {
      "id": 1365,
      "nome": "Hangyakusei Million Arthur 2nd Season",
      "link": "https://animefire.plus/animes/hangyakusei-million-arthur-2nd-season-todos-os-episodios",
      "texto_original": "Hangyakusei Million Arthur 2nd Season",
      "rating": 6.35,
      "classificacao_etaria": "A14",
      "imagem_original": "https://animefire.plus/img/animes/hangyakusei-million-arthur-2nd-season.webp",
      "imagem_pasta": "https://animefire.plus/img/animes/hangyakusei-million-arthur-2nd-season/",
      "secao": "legendados",
      "pagina": 130,
      "total_episodios": 6,
      "link_video": "https://animefire.plus/video/hangyakusei-million-arthur-2nd-season"
    },
    {
      "id": 1366,
      "nome": "Hangyakusei Million Arthur Special",
      "link": "https://animefire.plus/animes/hangyakusei-million-arthur-special-todos-os-episodios",
      "texto_original": "Hangyakusei Million Arthur Special",
      "rating": 6.37,
      "classificacao_etaria": "A14",
      "imagem_original": "https://animefire.plus/img/animes/hangyakusei-million-arthur-special.webp",
      "imagem_pasta": "https://animefire.plus/img/animes/hangyakusei-million-arthur-special/",
      "secao": "legendados",
      "pagina": 94,
      "total_episodios": 1,
      "link_video": "https://animefire.plus/video/hangyakusei-million-arthur-special"
    },
    {
      "id": 1367,
      "nome": "Hanma Baki: Son of Ogre (Dublado)",
      "link": "https://animefire.plus/animes/hanma-baki-son-of-ogre-dublado-todos-os-episodios",
      "texto_original": "Hanma Baki: Son of Ogre (Dublado)",
      "rating": 7.64,
      "classificacao_etaria": "A16",
      "imagem_original": "https://animefire.plus/img/animes/hanma-baki-son-of-ogre.webp",
      "imagem_pasta": "https://animefire.plus/img/animes/hanma-baki-son-of-ogre/",
      "secao": "dublados,legendados",
      "pagina": 15,
      "total_episodios": 12,
      "link_video": "https://animefire.plus/video/hanma-baki-son-of-ogre-dublado"
    },
    {
      "id": 1368,
      "nome": "Hanma Baki: Son of Ogre 2nd Season (Dublado)",
      "link": "https://animefire.plus/animes/hanma-baki-son-of-ogre-2nd-season-dublado-todos-os-episodios",
      "texto_original": "Hanma Baki: Son of Ogre 2nd Season (Dublado)",
      "rating": 7.94,
      "classificacao_etaria": "A16",
      "imagem_original": "https://animefire.plus/img/animes/hanma-baki-son-of-ogre-2nd-season.webp",
      "imagem_pasta": "https://animefire.plus/img/animes/hanma-baki-son-of-ogre-2nd-season/",
      "secao": "dublados,legendados",
      "pagina": 6,
      "total_episodios": 27,
      "link_video": "https://animefire.plus/video/hanma-baki-son-of-ogre-2nd-season-dublado"
    },
    {
      "id": 1369,
      "nome": "Hanoka",
      "link": "https://animefire.plus/animes/hanoka-todos-os-episodios",
      "texto_original": "Hanoka",
      "rating": 3.82,
      "classificacao_etaria": "A14",
      "imagem_original": "https://animefire.plus/img/animes/hanoka.webp",
      "imagem_pasta": "https://animefire.plus/img/animes/hanoka/",
      "secao": "legendados",
      "pagina": 56,
      "total_episodios": 12,
      "link_video": "https://animefire.plus/video/hanoka"
    },
    {
      "id": 1370,
      "nome": "Hantsu x Trash",
      "link": "https://animefire.plus/animes/hantsu-x-trash-todos-os-episodios",
      "texto_original": "Hantsu x Trash",
      "rating": 5.26,
      "classificacao_etaria": "A18",
      "imagem_original": "https://animefire.plus/img/animes/hantsu-x-trash.webp",
      "imagem_pasta": "https://animefire.plus/img/animes/hantsu-x-trash/",
      "secao": "legendados",
      "pagina": 150,
      "total_episodios": 3,
      "link_video": "https://animefire.plus/video/hantsu-x-trash"
    },
    {
      "id": 1371,
      "nome": "Hanyou no Yashahime: Sengoku Otogizoushi - Ni no Shou (Dublado)",
      "link": "https://animefire.plus/animes/hanyou-no-yashahime-sengoku-otogizoushi---ni-no-shou-dublado-todos-os-episodios",
      "texto_original": "Hanyou no Yashahime: Sengoku Otogizoushi - Ni no Shou (Dublado)",
      "rating": 7.06,
      "classificacao_etaria": "A14",
      "imagem_original": "https://animefire.plus/img/animes/hanyou-no-yashahime-sengoku-otogizoushi---ni-no-shou.webp",
      "imagem_pasta": "https://animefire.plus/img/animes/hanyou-no-yashahime-sengoku-otogizoushi---ni-no-shou/",
      "secao": "dublados,legendados",
      "pagina": 14,
      "total_episodios": 24,
      "link_video": "https://animefire.plus/video/hanyou-no-yashahime-sengoku-otogizoushi---ni-no-shou-dublado"
    },
    {
      "id": 1372,
      "nome": "Hanyou no Yashahime: Sengoku Otogizoushi (Dublado)",
      "link": "https://animefire.plus/animes/hanyou-no-yashahime-sengoku-otogizoushi-dublado-todos-os-episodios",
      "texto_original": "Hanyou no Yashahime: Sengoku Otogizoushi (Dublado)",
      "rating": 7.36,
      "classificacao_etaria": "A14",
      "imagem_original": "https://animefire.plus/img/animes/hanyou-no-yashahime-sengoku-otogizoushi.webp",
      "imagem_pasta": "https://animefire.plus/img/animes/hanyou-no-yashahime-sengoku-otogizoushi/",
      "secao": "dublados,legendados,lancamentos",
      "pagina": 19,
      "total_episodios": 24,
      "link_video": "https://animefire.plus/video/hanyou-no-yashahime-sengoku-otogizoushi-dublado"
    },
    {
      "id": 1373,
      "nome": "Happiness Charge Precure!",
      "link": "https://animefire.plus/animes/happiness-charge-precure-todos-os-episodios",
      "texto_original": "Happiness Charge Precure!",
      "rating": 6.8,
      "classificacao_etaria": null,
      "imagem_original": "https://animefire.plus/img/animes/happiness-charge-precure.webp",
      "imagem_pasta": "https://animefire.plus/img/animes/happiness-charge-precure/",
      "secao": "legendados",
      "pagina": 67,
      "total_episodios": 49,
      "link_video": "https://animefire.plus/video/happiness-charge-precure"
    },
    {
      "id": 1374,
      "nome": "Happy Seven: The TV Manga",
      "link": "https://animefire.plus/animes/happy-seven-the-tv-manga-todos-os-episodios",
      "texto_original": "Happy Seven: The TV Manga",
      "rating": 6.39,
      "classificacao_etaria": "A10",
      "imagem_original": "https://animefire.plus/img/animes/happy-seven-the-tv-manga.webp",
      "imagem_pasta": "https://animefire.plus/img/animes/happy-seven-the-tv-manga/",
      "secao": "legendados",
      "pagina": 107,
      "total_episodios": 13,
      "link_video": "https://animefire.plus/video/happy-seven-the-tv-manga"
    },
    {
      "id": 1375,
      "nome": "Happy Sugar Life",
      "link": "https://animefire.plus/animes/happy-sugar-life-todos-os-episodios",
      "texto_original": "Happy Sugar Life",
      "rating": 7.04,
      "classificacao_etaria": "A16",
      "imagem_original": "https://animefire.plus/img/animes/happy-sugar-life.webp",
      "imagem_pasta": "https://animefire.plus/img/animes/happy-sugar-life/",
      "secao": "legendados",
      "pagina": 142,
      "total_episodios": 12,
      "link_video": "https://animefire.plus/video/happy-sugar-life"
    },
    {
      "id": 1376,
      "nome": "HaruChika: Haruta To Chika Wa Seishun Suru",
      "link": "https://animefire.plus/animes/haruchika-haruta-to-chika-wa-seishun-suru-todos-os-episodios",
      "texto_original": "HaruChika: Haruta To Chika Wa Seishun Suru",
      "rating": 6.41,
      "classificacao_etaria": "A14",
      "imagem_original": "https://animefire.plus/img/animes/haruchika-haruta-to-chika-wa-seishun-suru.webp",
      "imagem_pasta": "https://animefire.plus/img/animes/haruchika-haruta-to-chika-wa-seishun-suru/",
      "secao": "legendados",
      "pagina": 96,
      "total_episodios": 12,
      "link_video": "https://animefire.plus/video/haruchika-haruta-to-chika-wa-seishun-suru"
    },
    {
      "id": 1377,
      "nome": "Harukana Receive",
      "link": "https://animefire.plus/animes/harukana-receive-todos-os-episodios",
      "texto_original": "Harukana Receive",
      "rating": 6.84,
      "classificacao_etaria": "A14",
      "imagem_original": "https://animefire.plus/img/animes/harukana-receive.webp",
      "imagem_pasta": "https://animefire.plus/img/animes/harukana-receive/",
      "secao": "legendados",
      "pagina": 161,
      "total_episodios": 12,
      "link_video": "https://animefire.plus/video/harukana-receive"
    },
    {
      "id": 1378,
      "nome": "Harukanaru Toki No Naka De: Hachiyou Shou",
      "link": "https://animefire.plus/animes/harukanaru-toki-no-naka-de-hachiyou-shou-todos-os-episodios",
      "texto_original": "Harukanaru Toki No Naka De: Hachiyou Shou",
      "rating": 7.12,
      "classificacao_etaria": "A14",
      "imagem_original": "https://animefire.plus/img/animes/harukanaru-toki-no-naka-de-hachiyou-shou.webp",
      "imagem_pasta": "https://animefire.plus/img/animes/harukanaru-toki-no-naka-de-hachiyou-shou/",
      "secao": "legendados",
      "pagina": 100,
      "total_episodios": 26,
      "link_video": "https://animefire.plus/video/harukanaru-toki-no-naka-de-hachiyou-shou"
    },
    {
      "id": 1379,
      "nome": "Hashi no Mukou",
      "link": "https://animefire.plus/animes/hashi-no-mukou-todos-os-episodios",
      "texto_original": "Hashi no Mukou",
      "rating": 5.94,
      "classificacao_etaria": "A16",
      "imagem_original": "https://animefire.plus/img/animes/hashi-no-mukou.webp",
      "imagem_pasta": "https://animefire.plus/img/animes/hashi-no-mukou/",
      "secao": "legendados",
      "pagina": 56,
      "total_episodios": 1,
      "link_video": "https://animefire.plus/video/hashi-no-mukou"
    },
    {
      "id": 1380,
      "nome": "Hashiri Tsuzukete Yokattatte.",
      "link": "https://animefire.plus/animes/hashiri-tsuzukete-yokattatte-todos-os-episodios",
      "texto_original": "Hashiri Tsuzukete Yokattatte.",
      "rating": 6.49,
      "classificacao_etaria": "A14",
      "imagem_original": "https://animefire.plus/img/animes/hashiri-tsuzukete-yokattatte.webp",
      "imagem_pasta": "https://animefire.plus/img/animes/hashiri-tsuzukete-yokattatte/",
      "secao": "legendados",
      "pagina": 146,
      "total_episodios": 4,
      "link_video": "https://animefire.plus/video/hashiri-tsuzukete-yokattatte"
    },
    {
      "id": 1381,
      "nome": "Hataage! Kemono Michi",
      "link": "https://animefire.plus/animes/hataage-kemono-michi-todos-os-episodios",
      "texto_original": "Hataage! Kemono Michi",
      "rating": 6.69,
      "classificacao_etaria": "A14",
      "imagem_original": "https://animefire.plus/img/animes/hataage-kemono-michi.webp",
      "imagem_pasta": "https://animefire.plus/img/animes/hataage-kemono-michi/",
      "secao": "legendados",
      "pagina": 111,
      "total_episodios": 0,
      "link_video": "https://animefire.plus/video/hataage-kemono-michi"
    },
    {
      "id": 1382,
      "nome": "Hataraki Man",
      "link": "https://animefire.plus/animes/hataraki-man-todos-os-episodios",
      "texto_original": "Hataraki Man",
      "rating": 7.08,
      "classificacao_etaria": "A14",
      "imagem_original": "https://animefire.plus/img/animes/hataraki-man.webp",
      "imagem_pasta": "https://animefire.plus/img/animes/hataraki-man/",
      "secao": "legendados",
      "pagina": 137,
      "total_episodios": 11,
      "link_video": "https://animefire.plus/video/hataraki-man"
    },
    {
      "id": 1383,
      "nome": "Hataraku Maou-sama!",
      "link": "https://animefire.plus/animes/hataraku-maou-sama-todos-os-episodios",
      "texto_original": "Hataraku Maou-sama!",
      "rating": 7.9,
      "classificacao_etaria": "A14",
      "imagem_original": "https://animefire.plus/img/animes/hataraku-maou-sama.webp",
      "imagem_pasta": "https://animefire.plus/img/animes/hataraku-maou-sama/",
      "secao": "legendados",
      "pagina": 90,
      "total_episodios": 0,
      "link_video": "https://animefire.plus/video/hataraku-maou-sama"
    }
  ],
  "pagination": {
    "current_page": 67,
    "per_page": 20,
    "total_items": 4269,
    "total_pages": 214,
    "has_next": true,
    "has_prev": true
  }
}
