{
  "message": "Animes da seção: legendados",
  "section": "legendados",
  "data": [
    {
      "id": 1975,
      "nome": "Kimetsu Gakuen: Valentine-hen",
      "link": "https://animefire.plus/animes/kimetsu-gakuen-valentine-hen-todos-os-episodios",
      "texto_original": "Kimetsu Gakuen: Valentine-hen",
      "rating": 6.68,
      "classificacao_etaria": "A14",
      "imagem_original": "https://animefire.plus/img/animes/kimetsu-gakuen-valentine-hen.webp",
      "imagem_pasta": "https://animefire.plus/img/animes/kimetsu-gakuen-valentine-hen/",
      "secao": "legendados",
      "pagina": 46,
      "total_episodios": 4,
      "link_video": "https://animefire.plus/video/kimetsu-gakuen-valentine-hen"
    },
    {
      "id": 1976,
      "nome": "Kimetsu no Yaiba (Dublado)",
      "link": "https://animefire.plus/animes/kimetsu-no-yaiba-dublado-todos-os-episodios",
      "texto_original": "Kimetsu no Yaiba (Dublado)",
      "rating": 8.64,
      "classificacao_etaria": "A16",
      "imagem_original": "https://animefire.plus/img/animes/kimetsu-no-yaiba.webp",
      "imagem_pasta": "https://animefire.plus/img/animes/kimetsu-no-yaiba/",
      "secao": "dublados,legendados",
      "pagina": 18,
      "total_episodios": 26,
      "link_video": "https://animefire.plus/video/kimetsu-no-yaiba-dublado"
    },
    {
      "id": 1977,
      "nome": "Kimetsu no Yaiba: Hashira Geiko-hen",
      "link": "https://animefire.plus/animes/kimetsu-no-yaiba-hashira-geiko-hen-todos-os-episodios",
      "texto_original": "Kimetsu no Yaiba: Hashira Geiko-hen",
      "rating": null,
      "classificacao_etaria": "A16",
      "imagem_original": "https://animefire.plus/img/animes/kimetsu-no-yaiba-hashira-geiko-hen.webp",
      "imagem_pasta": "https://animefire.plus/img/animes/kimetsu-no-yaiba-hashira-geiko-hen/",
      "secao": "legendados",
      "pagina": 19,
      "total_episodios": 8,
      "link_video": "https://animefire.plus/video/kimetsu-no-yaiba-hashira-geiko-hen"
    },
    {
      "id": 1978,
      "nome": "Kimetsu no Yaiba: Katanakaji no Sato-hen (Dublado)",
      "link": "https://animefire.plus/animes/kimetsu-no-yaiba-katanakaji-no-sato-hen-dublado-todos-os-episodios",
      "texto_original": "Kimetsu no Yaiba: Katanakaji no Sato-hen (Dublado)",
      "rating": 8.18,
      "classificacao_etaria": "A16",
      "imagem_original": "https://animefire.plus/img/animes/kimetsu-no-yaiba-katanakaji-no-sato-hen.webp",
      "imagem_pasta": "https://animefire.plus/img/animes/kimetsu-no-yaiba-katanakaji-no-sato-hen/",
      "secao": "dublados,legendados",
      "pagina": 5,
      "total_episodios": 11,
      "link_video": "https://animefire.plus/video/kimetsu-no-yaiba-katanakaji-no-sato-hen-dublado"
    },
    {
      "id": 1979,
      "nome": "Kimetsu no Yaiba: Mugen Ressha-hen (Dublado)",
      "link": "https://animefire.plus/animes/kimetsu-no-yaiba-mugen-ressha-hen-dublado-todos-os-episodios",
      "texto_original": "Kimetsu no Yaiba: Mugen Ressha-hen (Dublado)",
      "rating": 8.35,
      "classificacao_etaria": "A16",
      "imagem_original": "https://animefire.plus/img/animes/kimetsu-no-yaiba-mugen-ressha-hen.webp",
      "imagem_pasta": "https://animefire.plus/img/animes/kimetsu-no-yaiba-mugen-ressha-hen/",
      "secao": "dublados,legendados",
      "pagina": 10,
      "total_episodios": 7,
      "link_video": "https://animefire.plus/video/kimetsu-no-yaiba-mugen-ressha-hen-dublado"
    },
    {
      "id": 1980,
      "nome": "Kimetsu no Yaiba: Yuukaku-hen (Dublado)",
      "link": "https://animefire.plus/animes/kimetsu-no-yaiba-yuukaku-hen-dublado-todos-os-episodios",
      "texto_original": "Kimetsu no Yaiba: Yuukaku-hen (Dublado)",
      "rating": 8.71,
      "classificacao_etaria": "A16",
      "imagem_original": "https://animefire.plus/img/animes/kimetsu-no-yaiba-yuukaku-hen.webp",
      "imagem_pasta": "https://animefire.plus/img/animes/kimetsu-no-yaiba-yuukaku-hen/",
      "secao": "dublados,legendados",
      "pagina": 13,
      "total_episodios": 11,
      "link_video": "https://animefire.plus/video/kimetsu-no-yaiba-yuukaku-hen-dublado"
    },
    {
      "id": 1981,
      "nome": "Kimi ga Aruji de Shitsuji ga Ore de",
      "link": "https://animefire.plus/animes/kimi-ga-aruji-de-shitsuji-ga-ore-de-todos-os-episodios",
      "texto_original": "Kimi ga Aruji de Shitsuji ga Ore de",
      "rating": 7.25,
      "classificacao_etaria": "A18",
      "imagem_original": "https://animefire.plus/img/animes/kimi-ga-aruji-de-shitsuji-ga-ore-de.webp",
      "imagem_pasta": "https://animefire.plus/img/animes/kimi-ga-aruji-de-shitsuji-ga-ore-de/",
      "secao": "legendados",
      "pagina": 119,
      "total_episodios": 13,
      "link_video": "https://animefire.plus/video/kimi-ga-aruji-de-shitsuji-ga-ore-de"
    },
    {
      "id": 1982,
      "nome": "Kimi ga Nozomu Eien",
      "link": "https://animefire.plus/animes/kimi-ga-nozomu-eien-todos-os-episodios",
      "texto_original": "Kimi ga Nozomu Eien",
      "rating": 7.32,
      "classificacao_etaria": "A18",
      "imagem_original": "https://animefire.plus/img/animes/kimi-ga-nozomu-eien.webp",
      "imagem_pasta": "https://animefire.plus/img/animes/kimi-ga-nozomu-eien/",
      "secao": "legendados",
      "pagina": 171,
      "total_episodios": 14,
      "link_video": "https://animefire.plus/video/kimi-ga-nozomu-eien"
    },
    {
      "id": 1983,
      "nome": "Kimi ni Todoke",
      "link": "https://animefire.plus/animes/kimi-ni-todoke-todos-os-episodios",
      "texto_original": "Kimi ni Todoke",
      "rating": 8.1,
      "classificacao_etaria": "A14",
      "imagem_original": "https://animefire.plus/img/animes/kimi-ni-todoke.webp",
      "imagem_pasta": "https://animefire.plus/img/animes/kimi-ni-todoke/",
      "secao": "legendados",
      "pagina": 159,
      "total_episodios": 25,
      "link_video": "https://animefire.plus/video/kimi-ni-todoke"
    },
    {
      "id": 1984,
      "nome": "Kimi ni Todoke 2nd Season",
      "link": "https://animefire.plus/animes/kimi-ni-todoke-2nd-season-todos-os-episodios",
      "texto_original": "Kimi ni Todoke 2nd Season",
      "rating": 8.1,
      "classificacao_etaria": "A14",
      "imagem_original": "https://animefire.plus/img/animes/kimi-ni-todoke-2nd-season.webp",
      "imagem_pasta": "https://animefire.plus/img/animes/kimi-ni-todoke-2nd-season/",
      "secao": "legendados",
      "pagina": 114,
      "total_episodios": 1,
      "link_video": "https://animefire.plus/video/kimi-ni-todoke-2nd-season"
    },
    {
      "id": 1985,
      "nome": "Kimi ni Todoke 2nd Season: Minitodo Gekijou",
      "link": "https://animefire.plus/animes/kimi-ni-todoke-2nd-season-minitodo-gekijou-todos-os-episodios",
      "texto_original": "Kimi ni Todoke 2nd Season: Minitodo Gekijou",
      "rating": 7.34,
      "classificacao_etaria": "A14",
      "imagem_original": "https://animefire.plus/img/animes/kimi-ni-todoke-2nd-season-minitodo-gekijou.webp",
      "imagem_pasta": "https://animefire.plus/img/animes/kimi-ni-todoke-2nd-season-minitodo-gekijou/",
      "secao": "legendados",
      "pagina": 83,
      "total_episodios": 4,
      "link_video": "https://animefire.plus/video/kimi-ni-todoke-2nd-season-minitodo-gekijou"
    },
    {
      "id": 1986,
      "nome": "Kimi no Iru Machi",
      "link": "https://animefire.plus/animes/kimi-no-iru-machi-todos-os-episodios",
      "texto_original": "Kimi no Iru Machi",
      "rating": 7.08,
      "classificacao_etaria": "A18",
      "imagem_original": "https://animefire.plus/img/animes/kimi-no-iru-machi.webp",
      "imagem_pasta": "https://animefire.plus/img/animes/kimi-no-iru-machi/",
      "secao": "legendados",
      "pagina": 155,
      "total_episodios": 12,
      "link_video": "https://animefire.plus/video/kimi-no-iru-machi"
    },
    {
      "id": 1987,
      "nome": "Kimi no Koto ga Daidaidaidaidaisuki na 100-nin no Kanojo",
      "link": "https://animefire.plus/animes/kimi-no-koto-ga-daidaidaidaidaisuki-na-100-nin-no-kanojo-todos-os-episodios",
      "texto_original": "Kimi no Koto ga Daidaidaidaidaisuki na 100-nin no Kanojo",
      "rating": 7.7,
      "classificacao_etaria": "A14",
      "imagem_original": "https://animefire.plus/img/animes/kimi-no-koto-ga-daidaidaidaidaisuki-na-100-nin-no-kanojo.webp",
      "imagem_pasta": "https://animefire.plus/img/animes/kimi-no-koto-ga-daidaidaidaidaisuki-na-100-nin-no-kanojo/",
      "secao": "legendados",
      "pagina": 19,
      "total_episodios": 12,
      "link_video": "https://animefire.plus/video/kimi-no-koto-ga-daidaidaidaidaisuki-na-100-nin-no-kanojo"
    },
    {
      "id": 1988,
      "nome": "Kimi no Koto ga Daidaidaidaidaisuki na 100-nin no Kanojo 2nd Season",
      "link": "https://animefire.plus/animes/kimi-no-koto-ga-daidaidaidaidaisuki-na-100-nin-no-kanojo-2nd-season-todos-os-episodios",
      "texto_original": "Kimi no Koto ga Daidaidaidaidaisuki na 100-nin no Kanojo 2nd Season",
      "rating": 7.94,
      "classificacao_etaria": "A14",
      "imagem_original": "https://animefire.plus/img/animes/kimi-no-koto-ga-daidaidaidaidaisuki-na-100-nin-no-kanojo-2nd-season.webp",
      "imagem_pasta": "https://animefire.plus/img/animes/kimi-no-koto-ga-daidaidaidaidaisuki-na-100-nin-no-kanojo-2nd-season/",
      "secao": "legendados",
      "pagina": 8,
      "total_episodios": 12,
      "link_video": "https://animefire.plus/video/kimi-no-koto-ga-daidaidaidaidaisuki-na-100-nin-no-kanojo-2nd-season"
    },
    {
      "id": 1989,
      "nome": "Kimi to Boku no Saigo no Senjou, Aruiwa Sekai ga Hajimaru Seisen (Dublado)",
      "link": "https://animefire.plus/animes/kimi-to-boku-no-saigo-no-senjou-aruiwa-sekai-ga-hajimaru-seisen-dublado-todos-os-episodios",
      "texto_original": "Kimi to Boku no Saigo no Senjou, Aruiwa Sekai ga Hajimaru Seisen (Dublado)",
      "rating": 6.59,
      "classificacao_etaria": "A14",
      "imagem_original": "https://animefire.plus/img/animes/kimi-to-boku-no-saigo-no-senjou-aruiwa-sekai-ga-hajimaru-seisen.webp",
      "imagem_pasta": "https://animefire.plus/img/animes/kimi-to-boku-no-saigo-no-senjou-aruiwa-sekai-ga-hajimaru-seisen/",
      "secao": "dublados,legendados",
      "pagina": 14,
      "total_episodios": 12,
      "link_video": "https://animefire.plus/video/kimi-to-boku-no-saigo-no-senjou-aruiwa-sekai-ga-hajimaru-seisen-dublado"
    },
    {
      "id": 1990,
      "nome": "Kimi to Boku no Saigo no Senjou, Aruiwa Sekai ga Hajimaru Seisen Season II",
      "link": "https://animefire.plus/animes/kimi-to-boku-no-saigo-no-senjou-aruiwa-sekai-ga-hajimaru-seisen-season-ii-todos-os-episodios",
      "texto_original": "Kimi to Boku no Saigo no Senjou, Aruiwa Sekai ga Hajimaru Seisen Season II",
      "rating": 6.75,
      "classificacao_etaria": "A14",
      "imagem_original": "https://animefire.plus/img/animes/kimi-to-boku-no-saigo-no-senjou-aruiwa-sekai-ga-hajimaru-seisen-season-ii.webp",
      "imagem_pasta": "https://animefire.plus/img/animes/kimi-to-boku-no-saigo-no-senjou-aruiwa-sekai-ga-hajimaru-seisen-season-ii/",
      "secao": "legendados",
      "pagina": 13,
      "total_episodios": 12,
      "link_video": "https://animefire.plus/video/kimi-to-boku-no-saigo-no-senjou-aruiwa-sekai-ga-hajimaru-seisen-season-ii"
    },
    {
      "id": 1991,
      "nome": "Kimi to Boku.",
      "link": "https://animefire.plus/animes/kimi-to-boku-todos-os-episodios",
      "texto_original": "Kimi to Boku.",
      "rating": 7.78,
      "classificacao_etaria": "A14",
      "imagem_original": "https://animefire.plus/img/animes/kimi-to-boku.webp",
      "imagem_pasta": "https://animefire.plus/img/animes/kimi-to-boku/",
      "secao": "legendados",
      "pagina": 159,
      "total_episodios": 12,
      "link_video": "https://animefire.plus/video/kimi-to-boku"
    },
    {
      "id": 1992,
      "nome": "Kimi to Boku. 2",
      "link": "https://animefire.plus/animes/kimi-to-boku-2-todos-os-episodios",
      "texto_original": "Kimi to Boku. 2",
      "rating": 8.01,
      "classificacao_etaria": "A14",
      "imagem_original": "https://animefire.plus/img/animes/kimi-to-boku-2.webp",
      "imagem_pasta": "https://animefire.plus/img/animes/kimi-to-boku-2/",
      "secao": "legendados",
      "pagina": 64,
      "total_episodios": 13,
      "link_video": "https://animefire.plus/video/kimi-to-boku-2"
    },
    {
      "id": 1993,
      "nome": "Kimi to Idol Precure♪",
      "link": "https://animefire.plus/animes/kimi-to-idol-precure-todos-os-episodios",
      "texto_original": "Kimi to Idol Precure♪",
      "rating": 7.43,
      "classificacao_etaria": null,
      "imagem_original": "https://animefire.plus/img/animes/kimi-to-idol-precure.webp",
      "imagem_pasta": "https://animefire.plus/img/animes/kimi-to-idol-precure/",
      "secao": "legendados,lancamentos",
      "pagina": 6,
      "total_episodios": 26,
      "link_video": "https://animefire.plus/video/kimi-to-idol-precure"
    },
    {
      "id": 1994,
      "nome": "Kimi wa Houkago Insomnia",
      "link": "https://animefire.plus/animes/kimi-wa-houkago-insomnia-todos-os-episodios",
      "texto_original": "Kimi wa Houkago Insomnia",
      "rating": 8.08,
      "classificacao_etaria": "A14",
      "imagem_original": "https://animefire.plus/img/animes/kimi-wa-houkago-insomnia.jpg",
      "imagem_pasta": "https://animefire.plus/img/animes/kimi-wa-houkago-insomnia/",
      "secao": "legendados",
      "pagina": 24,
      "total_episodios": 13,
      "link_video": "https://animefire.plus/video/kimi-wa-houkago-insomnia"
    }
  ],
  "pagination": {
    "current_page": 97,
    "per_page": 20,
    "total_items": 4269,
    "total_pages": 214,
    "has_next": true,
    "has_prev": true
  }
}
