{
  "message": "Animes da seção: legendados",
  "section": "legendados",
  "data": [
    {
      "id": 3544,
      "nome": "Skip to Loafer (Dublado)",
      "link": "https://animefire.plus/animes/skip-to-loafer-dublado-todos-os-episodios",
      "texto_original": "Skip to Loafer (Dublado)",
      "rating": 8.11,
      "classificacao_etaria": "A14",
      "imagem_original": "https://animefire.plus/img/animes/skip-to-loafer.webp",
      "imagem_pasta": "https://animefire.plus/img/animes/skip-to-loafer/",
      "secao": "dublados,legendados",
      "pagina": 7,
      "total_episodios": 12,
      "link_video": "https://animefire.plus/video/skip-to-loafer-dublado"
    },
    {
      "id": 3545,
      "nome": "Skull Man",
      "link": "https://animefire.plus/animes/skull-man-todos-os-episodios",
      "texto_original": "Skull Man",
      "rating": 6.71,
      "classificacao_etaria": "A14",
      "imagem_original": "https://animefire.plus/img/animes/skull-man.webp",
      "imagem_pasta": "https://animefire.plus/img/animes/skull-man/",
      "secao": "legendados",
      "pagina": 138,
      "total_episodios": 13,
      "link_video": "https://animefire.plus/video/skull-man"
    },
    {
      "id": 3546,
      "nome": "Sky Girls",
      "link": "https://animefire.plus/animes/sky-girls-todos-os-episodios",
      "texto_original": "Sky Girls",
      "rating": 7.07,
      "classificacao_etaria": "A14",
      "imagem_original": "https://animefire.plus/img/animes/sky-girls.webp",
      "imagem_pasta": "https://animefire.plus/img/animes/sky-girls/",
      "secao": "legendados",
      "pagina": 178,
      "total_episodios": 26,
      "link_video": "https://animefire.plus/video/sky-girls"
    },
    {
      "id": 3547,
      "nome": "Slam Dunk",
      "link": "https://animefire.plus/animes/slam-dunk-todos-os-episodios",
      "texto_original": "Slam Dunk",
      "rating": 8.53,
      "classificacao_etaria": "A14",
      "imagem_original": "https://animefire.plus/img/animes/slam-dunk.webp",
      "imagem_pasta": "https://animefire.plus/img/animes/slam-dunk/",
      "secao": "legendados",
      "pagina": 73,
      "total_episodios": 101,
      "link_video": "https://animefire.plus/video/slam-dunk"
    },
    {
      "id": 3548,
      "nome": "Slayers (Dublado)",
      "link": "https://animefire.plus/animes/slayers-dublado-todos-os-episodios",
      "texto_original": "Slayers (Dublado)",
      "rating": 7.75,
      "classificacao_etaria": "A14",
      "imagem_original": "https://animefire.plus/img/animes/slayers.webp",
      "imagem_pasta": "https://animefire.plus/img/animes/slayers/",
      "secao": "dublados,legendados",
      "pagina": 17,
      "total_episodios": 26,
      "link_video": "https://animefire.plus/video/slayers-dublado"
    },
    {
      "id": 3549,
      "nome": "Slayers Evolution-R",
      "link": "https://animefire.plus/animes/slayers-evolution-r-todos-os-episodios",
      "texto_original": "Slayers Evolution-R",
      "rating": 7.49,
      "classificacao_etaria": "A14",
      "imagem_original": "https://animefire.plus/img/animes/slayers-evolution-r.webp",
      "imagem_pasta": "https://animefire.plus/img/animes/slayers-evolution-r/",
      "secao": "legendados",
      "pagina": 173,
      "total_episodios": 0,
      "link_video": "https://animefire.plus/video/slayers-evolution-r"
    },
    {
      "id": 3550,
      "nome": "Slayers Excellent",
      "link": "https://animefire.plus/animes/slayers-excellent-todos-os-episodios",
      "texto_original": "Slayers Excellent",
      "rating": 7.33,
      "classificacao_etaria": "A14",
      "imagem_original": "https://animefire.plus/img/animes/slayers-excellent.webp",
      "imagem_pasta": "https://animefire.plus/img/animes/slayers-excellent/",
      "secao": "legendados",
      "pagina": 45,
      "total_episodios": 3,
      "link_video": "https://animefire.plus/video/slayers-excellent"
    },
    {
      "id": 3551,
      "nome": "Slayers Next",
      "link": "https://animefire.plus/animes/slayers-next-todos-os-episodios",
      "texto_original": "Slayers Next",
      "rating": 8.1,
      "classificacao_etaria": "A14",
      "imagem_original": "https://animefire.plus/img/animes/slayers-next.webp",
      "imagem_pasta": "https://animefire.plus/img/animes/slayers-next/",
      "secao": "legendados",
      "pagina": 171,
      "total_episodios": 0,
      "link_video": "https://animefire.plus/video/slayers-next"
    },
    {
      "id": 3552,
      "nome": "Slayers Revolution",
      "link": "https://animefire.plus/animes/slayers-revolution-todos-os-episodios",
      "texto_original": "Slayers Revolution",
      "rating": 7.34,
      "classificacao_etaria": "A14",
      "imagem_original": "https://animefire.plus/img/animes/slayers-revolution.webp",
      "imagem_pasta": "https://animefire.plus/img/animes/slayers-revolution/",
      "secao": "legendados",
      "pagina": 166,
      "total_episodios": 0,
      "link_video": "https://animefire.plus/video/slayers-revolution"
    },
    {
      "id": 3553,
      "nome": "Slayers Special",
      "link": "https://animefire.plus/animes/slayers-special-todos-os-episodios",
      "texto_original": "Slayers Special",
      "rating": 7.37,
      "classificacao_etaria": "A14",
      "imagem_original": "https://animefire.plus/img/animes/slayers-special.webp",
      "imagem_pasta": "https://animefire.plus/img/animes/slayers-special/",
      "secao": "legendados",
      "pagina": 45,
      "total_episodios": 3,
      "link_video": "https://animefire.plus/video/slayers-special"
    },
    {
      "id": 3554,
      "nome": "Slayers Try",
      "link": "https://animefire.plus/animes/slayers-try-todos-os-episodios",
      "texto_original": "Slayers Try",
      "rating": 7.89,
      "classificacao_etaria": "A14",
      "imagem_original": "https://animefire.plus/img/animes/slayers-try.webp",
      "imagem_pasta": "https://animefire.plus/img/animes/slayers-try/",
      "secao": "legendados",
      "pagina": 136,
      "total_episodios": 0,
      "link_video": "https://animefire.plus/video/slayers-try"
    },
    {
      "id": 3555,
      "nome": "Slime Taoshite 300-nen, Shiranai Uchi ni Level Max ni Nattemashita (Dublado)",
      "link": "https://animefire.plus/animes/slime-taoshite-300-nen-shiranai-uchi-ni-level-max-ni-nattemashita-dublado-todos-os-episodios",
      "texto_original": "Slime Taoshite 300-nen, Shiranai Uchi ni Level Max ni Nattemashita (Dublado)",
      "rating": 6.9,
      "classificacao_etaria": "A14",
      "imagem_original": "https://animefire.plus/img/animes/slime-taoshite-300-nen-shiranai-uchi-ni-level-max-ni-nattemashita.webp",
      "imagem_pasta": "https://animefire.plus/img/animes/slime-taoshite-300-nen-shiranai-uchi-ni-level-max-ni-nattemashita/",
      "secao": "dublados,legendados",
      "pagina": 17,
      "total_episodios": 12,
      "link_video": "https://animefire.plus/video/slime-taoshite-300-nen-shiranai-uchi-ni-level-max-ni-nattemashita-dublado"
    },
    {
      "id": 3556,
      "nome": "Slime Taoshite 300-nen, Shiranai Uchi ni Level Max ni Nattemashita: Sono Ni",
      "link": "https://animefire.plus/animes/slime-taoshite-300-nen-shiranai-uchi-ni-level-max-ni-nattemashita-sono-ni-todos-os-episodios",
      "texto_original": "Slime Taoshite 300-nen, Shiranai Uchi ni Level Max ni Nattemashita: Sono Ni",
      "rating": 6.69,
      "classificacao_etaria": "A14",
      "imagem_original": "https://animefire.plus/img/animes/slime-taoshite-300-nen-shiranai-uchi-ni-level-max-ni-nattemashita-sono-ni.webp",
      "imagem_pasta": "https://animefire.plus/img/animes/slime-taoshite-300-nen-shiranai-uchi-ni-level-max-ni-nattemashita-sono-ni/",
      "secao": "legendados",
      "pagina": 6,
      "total_episodios": 12,
      "link_video": "https://animefire.plus/video/slime-taoshite-300-nen-shiranai-uchi-ni-level-max-ni-nattemashita-sono-ni"
    },
    {
      "id": 3557,
      "nome": "Slow Loop",
      "link": "https://animefire.plus/animes/slow-loop-todos-os-episodios",
      "texto_original": "Slow Loop",
      "rating": 7.25,
      "classificacao_etaria": "A14",
      "imagem_original": "https://animefire.plus/img/animes/slow-loop.webp",
      "imagem_pasta": "https://animefire.plus/img/animes/slow-loop/",
      "secao": "legendados",
      "pagina": 36,
      "total_episodios": 12,
      "link_video": "https://animefire.plus/video/slow-loop"
    },
    {
      "id": 3558,
      "nome": "Slow Start",
      "link": "https://animefire.plus/animes/slow-start-todos-os-episodios",
      "texto_original": "Slow Start",
      "rating": 7.11,
      "classificacao_etaria": "A14",
      "imagem_original": "https://animefire.plus/img/animes/slow-start.webp",
      "imagem_pasta": "https://animefire.plus/img/animes/slow-start/",
      "secao": "legendados",
      "pagina": 107,
      "total_episodios": 12,
      "link_video": "https://animefire.plus/video/slow-start"
    },
    {
      "id": 3559,
      "nome": "Smile Precure! (Dublado)",
      "link": "https://animefire.plus/animes/smile-precure-dublado-todos-os-episodios",
      "texto_original": "Smile Precure! (Dublado)",
      "rating": 6.95,
      "classificacao_etaria": null,
      "imagem_original": "https://animefire.plus/img/animes/smile-precure.webp",
      "imagem_pasta": "https://animefire.plus/img/animes/smile-precure/",
      "secao": "dublados,legendados",
      "pagina": 22,
      "total_episodios": 40,
      "link_video": "https://animefire.plus/video/smile-precure-dublado"
    },
    {
      "id": 3560,
      "nome": "Snack Basue",
      "link": "https://animefire.plus/animes/snack-basue-todos-os-episodios",
      "texto_original": "Snack Basue",
      "rating": 6.5,
      "classificacao_etaria": "A14",
      "imagem_original": "https://animefire.plus/img/animes/snack-basue.webp",
      "imagem_pasta": "https://animefire.plus/img/animes/snack-basue/",
      "secao": "legendados",
      "pagina": 16,
      "total_episodios": 13,
      "link_video": "https://animefire.plus/video/snack-basue"
    },
    {
      "id": 3561,
      "nome": "So Ra No Wo To",
      "link": "https://animefire.plus/animes/so-ra-no-wo-to-todos-os-episodios",
      "texto_original": "So Ra No Wo To",
      "rating": 7.58,
      "classificacao_etaria": "A14",
      "imagem_original": "https://animefire.plus/img/animes/so-ra-no-wo-to.webp",
      "imagem_pasta": "https://animefire.plus/img/animes/so-ra-no-wo-to/",
      "secao": "legendados",
      "pagina": 140,
      "total_episodios": 12,
      "link_video": "https://animefire.plus/video/so-ra-no-wo-to"
    },
    {
      "id": 3562,
      "nome": "Softenni",
      "link": "https://animefire.plus/animes/softenni-todos-os-episodios",
      "texto_original": "Softenni",
      "rating": 6.57,
      "classificacao_etaria": "A18",
      "imagem_original": "https://animefire.plus/img/animes/softenni.webp",
      "imagem_pasta": "https://animefire.plus/img/animes/softenni/",
      "secao": "legendados",
      "pagina": 179,
      "total_episodios": 12,
      "link_video": "https://animefire.plus/video/softenni"
    },
    {
      "id": 3563,
      "nome": "Sokushi Cheat ga Saikyou sugite, Isekai no Yatsura ga Marude Aite ni Naranai n desu ga.",
      "link": "https://animefire.plus/animes/sokushi-cheat-ga-saikyou-sugite-isekai-no-yatsura-ga-marude-aite-ni-naranai-n-desu-ga-todos-os-episodios",
      "texto_original": "Sokushi Cheat ga Saikyou sugite, Isekai no Yatsura ga Marude Aite ni Naranai n desu ga.",
      "rating": 6.37,
      "classificacao_etaria": null,
      "imagem_original": "https://animefire.plus/img/animes/sokushi-cheat-ga-saikyou-sugite-isekai-no-yatsura-ga-marude-aite-ni-naranai-n-desu-ga.webp",
      "imagem_pasta": "https://animefire.plus/img/animes/sokushi-cheat-ga-saikyou-sugite-isekai-no-yatsura-ga-marude-aite-ni-naranai-n-desu-ga/",
      "secao": "legendados",
      "pagina": 18,
      "total_episodios": 12,
      "link_video": "https://animefire.plus/video/sokushi-cheat-ga-saikyou-sugite-isekai-no-yatsura-ga-marude-aite-ni-naranai-n-desu-ga"
    }
  ],
  "pagination": {
    "current_page": 174,
    "per_page": 20,
    "total_items": 4269,
    "total_pages": 214,
    "has_next": true,
    "has_prev": true
  }
}
