{
  "message": "Animes da seção: legendados",
  "section": "legendados",
  "data": [
    {
      "id": 2059,
      "nome": "Koihime†Musou OVA Omake",
      "link": "https://animefire.plus/animes/koihime-musou-ova-omake-todos-os-episodios",
      "texto_original": "Koihime†Musou OVA Omake",
      "rating": 6.24,
      "classificacao_etaria": "A18",
      "imagem_original": "https://animefire.plus/img/animes/koihime-musou-ova-omake.webp",
      "imagem_pasta": "https://animefire.plus/img/animes/koihime-musou-ova-omake/",
      "secao": "legendados",
      "pagina": 71,
      "total_episodios": 1,
      "link_video": "https://animefire.plus/video/koihime-musou-ova-omake"
    },
    {
      "id": 2060,
      "nome": "Koisuru Asteroid",
      "link": "https://animefire.plus/animes/koisuru-asteroid-todos-os-episodios",
      "texto_original": "Koisuru Asteroid",
      "rating": 6.87,
      "classificacao_etaria": "A14",
      "imagem_original": "https://animefire.plus/img/animes/koisuru-asteroid.webp",
      "imagem_pasta": "https://animefire.plus/img/animes/koisuru-asteroid/",
      "secao": "legendados",
      "pagina": 93,
      "total_episodios": 0,
      "link_video": "https://animefire.plus/video/koisuru-asteroid"
    },
    {
      "id": 2061,
      "nome": "Koisuru One Piece",
      "link": "https://animefire.plus/animes/koisuru-one-piece-todos-os-episodios",
      "texto_original": "Koisuru One Piece",
      "rating": 6.77,
      "classificacao_etaria": "A14",
      "imagem_original": "https://animefire.plus/img/animes/koisuru-one-piece.webp",
      "imagem_pasta": "https://animefire.plus/img/animes/koisuru-one-piece/",
      "secao": "legendados",
      "pagina": 4,
      "total_episodios": 0,
      "link_video": "https://animefire.plus/video/koisuru-one-piece"
    },
    {
      "id": 2062,
      "nome": "Koisuru Tenshi Angelique: Kagayaki no Ashita",
      "link": "https://animefire.plus/animes/koisuru-tenshi-angelique-kagayaki-no-ashita-todos-os-episodios",
      "texto_original": "Koisuru Tenshi Angelique: Kagayaki no Ashita",
      "rating": 7.09,
      "classificacao_etaria": "A14",
      "imagem_original": "https://animefire.plus/img/animes/koisuru-tenshi-angelique-kagayaki-no-ashita.webp",
      "imagem_pasta": "https://animefire.plus/img/animes/koisuru-tenshi-angelique-kagayaki-no-ashita/",
      "secao": "legendados",
      "pagina": 149,
      "total_episodios": 12,
      "link_video": "https://animefire.plus/video/koisuru-tenshi-angelique-kagayaki-no-ashita"
    },
    {
      "id": 2063,
      "nome": "Koisuru Tenshi Angelique: Kagayaki no Ashita Special",
      "link": "https://animefire.plus/animes/koisuru-tenshi-angelique-kagayaki-no-ashita-special-todos-os-episodios",
      "texto_original": "Koisuru Tenshi Angelique: Kagayaki no Ashita Special",
      "rating": 6.74,
      "classificacao_etaria": "A14",
      "imagem_original": "https://animefire.plus/img/animes/koisuru-tenshi-angelique-kagayaki-no-ashita-special.webp",
      "imagem_pasta": "https://animefire.plus/img/animes/koisuru-tenshi-angelique-kagayaki-no-ashita-special/",
      "secao": "legendados",
      "pagina": 86,
      "total_episodios": 1,
      "link_video": "https://animefire.plus/video/koisuru-tenshi-angelique-kagayaki-no-ashita-special"
    },
    {
      "id": 2064,
      "nome": "Koisuru Tenshi Angelique: Kokoro no Mezameru Toki",
      "link": "https://animefire.plus/animes/koisuru-tenshi-angelique-kokoro-no-mezameru-toki-todos-os-episodios",
      "texto_original": "Koisuru Tenshi Angelique: Kokoro no Mezameru Toki",
      "rating": 6.96,
      "classificacao_etaria": "A14",
      "imagem_original": "https://animefire.plus/img/animes/koisuru-tenshi-angelique-kokoro-no-mezameru-toki.webp",
      "imagem_pasta": "https://animefire.plus/img/animes/koisuru-tenshi-angelique-kokoro-no-mezameru-toki/",
      "secao": "legendados",
      "pagina": 130,
      "total_episodios": 13,
      "link_video": "https://animefire.plus/video/koisuru-tenshi-angelique-kokoro-no-mezameru-toki"
    },
    {
      "id": 2065,
      "nome": "Kokkoku",
      "link": "https://animefire.plus/animes/kokkoku-todos-os-episodios",
      "texto_original": "Kokkoku",
      "rating": 7.14,
      "classificacao_etaria": "A16",
      "imagem_original": "https://animefire.plus/img/animes/kokkoku.webp",
      "imagem_pasta": "https://animefire.plus/img/animes/kokkoku/",
      "secao": "legendados",
      "pagina": 138,
      "total_episodios": 12,
      "link_video": "https://animefire.plus/video/kokkoku"
    },
    {
      "id": 2066,
      "nome": "Kokoro Connect",
      "link": "https://animefire.plus/animes/kokoro-connect-todos-os-episodios",
      "texto_original": "Kokoro Connect",
      "rating": 7.91,
      "classificacao_etaria": "A14",
      "imagem_original": "https://animefire.plus/img/animes/kokoro-connect.webp",
      "imagem_pasta": "https://animefire.plus/img/animes/kokoro-connect/",
      "secao": "legendados",
      "pagina": 170,
      "total_episodios": 5,
      "link_video": "https://animefire.plus/video/kokoro-connect"
    },
    {
      "id": 2067,
      "nome": "Kokoro Connect: Michi Random",
      "link": "https://animefire.plus/animes/kokoro-connect-michi-random-todos-os-episodios",
      "texto_original": "Kokoro Connect: Michi Random",
      "rating": 8.05,
      "classificacao_etaria": "A14",
      "imagem_original": "https://animefire.plus/img/animes/kokoro-connect-michi-random.webp",
      "imagem_pasta": "https://animefire.plus/img/animes/kokoro-connect-michi-random/",
      "secao": "legendados",
      "pagina": 70,
      "total_episodios": 1,
      "link_video": "https://animefire.plus/video/kokoro-connect-michi-random"
    },
    {
      "id": 2068,
      "nome": "Kokoro Toshokan",
      "link": "https://animefire.plus/animes/kokoro-toshokan-todos-os-episodios",
      "texto_original": "Kokoro Toshokan",
      "rating": 6.53,
      "classificacao_etaria": "A10",
      "imagem_original": "https://animefire.plus/img/animes/kokoro-toshokan.webp",
      "imagem_pasta": "https://animefire.plus/img/animes/kokoro-toshokan/",
      "secao": "legendados",
      "pagina": 122,
      "total_episodios": 13,
      "link_video": "https://animefire.plus/video/kokoro-toshokan"
    },
    {
      "id": 2069,
      "nome": "Komatta Jiisan",
      "link": "https://animefire.plus/animes/komatta-jiisan-todos-os-episodios",
      "texto_original": "Komatta Jiisan",
      "rating": 6.42,
      "classificacao_etaria": "A14",
      "imagem_original": "https://animefire.plus/img/animes/komatta-jiisan.webp",
      "imagem_pasta": "https://animefire.plus/img/animes/komatta-jiisan/",
      "secao": "legendados",
      "pagina": 79,
      "total_episodios": 0,
      "link_video": "https://animefire.plus/video/komatta-jiisan"
    },
    {
      "id": 2070,
      "nome": "Komi-san wa, Comyushou desu.",
      "link": "https://animefire.plus/animes/komi-san-wa-comyushou-desu-todos-os-episodios",
      "texto_original": "Komi-san wa, Comyushou desu.",
      "rating": 7.82,
      "classificacao_etaria": "A14",
      "imagem_original": "https://animefire.plus/img/animes/komi-san-wa-comyushou-desu.webp",
      "imagem_pasta": "https://animefire.plus/img/animes/komi-san-wa-comyushou-desu/",
      "secao": "legendados",
      "pagina": 39,
      "total_episodios": 12,
      "link_video": "https://animefire.plus/video/komi-san-wa-comyushou-desu"
    },
    {
      "id": 2071,
      "nome": "Komi-san wa, Comyushou desu. 2nd Season",
      "link": "https://animefire.plus/animes/komi-san-wa-comyushou-desu-2-todos-os-episodios",
      "texto_original": "Komi-san wa, Comyushou desu. 2nd Season",
      "rating": 7.99,
      "classificacao_etaria": "A14",
      "imagem_original": "https://animefire.plus/img/animes/komi-san-wa-comyushou-desu-2.webp",
      "imagem_pasta": "https://animefire.plus/img/animes/komi-san-wa-comyushou-desu-2/",
      "secao": "legendados",
      "pagina": 33,
      "total_episodios": 12,
      "link_video": "https://animefire.plus/video/komi-san-wa-comyushou-desu-2"
    },
    {
      "id": 2073,
      "nome": "Komori-san wa Kotowarenai!",
      "link": "https://animefire.plus/animes/komori-san-wa-kotowarenai-todos-os-episodios",
      "texto_original": "Komori-san wa Kotowarenai!",
      "rating": 6.3,
      "classificacao_etaria": "A14",
      "imagem_original": "https://animefire.plus/img/animes/komori-san-wa-kotowarenai.webp",
      "imagem_pasta": "https://animefire.plus/img/animes/komori-san-wa-kotowarenai/",
      "secao": "legendados",
      "pagina": 128,
      "total_episodios": 12,
      "link_video": "https://animefire.plus/video/komori-san-wa-kotowarenai"
    },
    {
      "id": 2074,
      "nome": "Konbini Kareshi",
      "link": "https://animefire.plus/animes/konbini-kareshi-todos-os-episodios",
      "texto_original": "Konbini Kareshi",
      "rating": 6.4,
      "classificacao_etaria": "A14",
      "imagem_original": "https://animefire.plus/img/animes/konbini-kareshi.webp",
      "imagem_pasta": "https://animefire.plus/img/animes/konbini-kareshi/",
      "secao": "legendados",
      "pagina": 142,
      "total_episodios": 12,
      "link_video": "https://animefire.plus/video/konbini-kareshi"
    },
    {
      "id": 2075,
      "nome": "Konjiki no Gash Bell!! (Dublado)",
      "link": "https://animefire.plus/animes/konjiki-no-gash-bell-dublado-todos-os-episodios",
      "texto_original": "Konjiki no Gash Bell!! (Dublado)",
      "rating": 7.56,
      "classificacao_etaria": "A14",
      "imagem_original": "https://animefire.plus/img/animes/konjiki-no-gash-bell.webp",
      "imagem_pasta": "https://animefire.plus/img/animes/konjiki-no-gash-bell/",
      "secao": "dublados,legendados",
      "pagina": 20,
      "total_episodios": 150,
      "link_video": "https://animefire.plus/video/konjiki-no-gash-bell-dublado"
    },
    {
      "id": 2076,
      "nome": "Kono Aozora ni Yakusoku wo: Youkoso Tsugumi Ryou e",
      "link": "https://animefire.plus/animes/kono-aozora-ni-yakusoku-wo-youkoso-tsugumi-ryou-e-todos-os-episodios",
      "texto_original": "Kono Aozora ni Yakusoku wo: Youkoso Tsugumi Ryou e",
      "rating": 6.27,
      "classificacao_etaria": "A14",
      "imagem_original": "https://animefire.plus/img/animes/kono-aozora-ni-yakusoku-wo-youkoso-tsugumi-ryou-e.webp",
      "imagem_pasta": "https://animefire.plus/img/animes/kono-aozora-ni-yakusoku-wo-youkoso-tsugumi-ryou-e/",
      "secao": "legendados",
      "pagina": 176,
      "total_episodios": 13,
      "link_video": "https://animefire.plus/video/kono-aozora-ni-yakusoku-wo-youkoso-tsugumi-ryou-e"
    },
    {
      "id": 2077,
      "nome": "Kono Bijutsubu Ni Wa Mondai Ga Aru!",
      "link": "https://animefire.plus/animes/kono-bijutsubu-ni-wa-mondai-ga-aru-todos-os-episodios",
      "texto_original": "Kono Bijutsubu Ni Wa Mondai Ga Aru!",
      "rating": 7.37,
      "classificacao_etaria": "A14",
      "imagem_original": "https://animefire.plus/img/animes/kono-bijutsubu-ni-wa-mondai-ga-aru.webp",
      "imagem_pasta": "https://animefire.plus/img/animes/kono-bijutsubu-ni-wa-mondai-ga-aru/",
      "secao": "legendados",
      "pagina": 108,
      "total_episodios": 12,
      "link_video": "https://animefire.plus/video/kono-bijutsubu-ni-wa-mondai-ga-aru"
    },
    {
      "id": 2078,
      "nome": "Kono Danshi, Ningyo Hiroimashita.",
      "link": "https://animefire.plus/animes/kono-danshi-ningyo-hiroimashita-todos-os-episodios",
      "texto_original": "Kono Danshi, Ningyo Hiroimashita.",
      "rating": 7.54,
      "classificacao_etaria": "A14",
      "imagem_original": "https://animefire.plus/img/animes/kono-danshi-ningyo-hiroimashita.webp",
      "imagem_pasta": "https://animefire.plus/img/animes/kono-danshi-ningyo-hiroimashita/",
      "secao": "legendados",
      "pagina": 86,
      "total_episodios": 1,
      "link_video": "https://animefire.plus/video/kono-danshi-ningyo-hiroimashita"
    },
    {
      "id": 2079,
      "nome": "Kono Healer, Mendokusai",
      "link": "https://animefire.plus/animes/kono-healer-mendokusai-todos-os-episodios",
      "texto_original": "Kono Healer, Mendokusai",
      "rating": 6.34,
      "classificacao_etaria": "A14",
      "imagem_original": "https://animefire.plus/img/animes/kono-healer-mendokusai.webp",
      "imagem_pasta": "https://animefire.plus/img/animes/kono-healer-mendokusai/",
      "secao": "legendados",
      "pagina": 33,
      "total_episodios": 12,
      "link_video": "https://animefire.plus/video/kono-healer-mendokusai"
    }
  ],
  "pagination": {
    "current_page": 101,
    "per_page": 20,
    "total_items": 4269,
    "total_pages": 214,
    "has_next": true,
    "has_prev": true
  }
}
