{
  "message": "Animes da seção: legendados",
  "section": "legendados",
  "data": [
    {
      "id": 3846,
      "nome": "Tiger & Bunny (Dublado)",
      "link": "https://animefire.plus/animes/tiger-bunny-dublado-todos-os-episodios",
      "texto_original": "Tiger & Bunny (Dublado)",
      "rating": 7.94,
      "classificacao_etaria": "A14",
      "imagem_original": "https://animefire.plus/img/animes/tiger-bunny.webp",
      "imagem_pasta": "https://animefire.plus/img/animes/tiger-bunny/",
      "secao": "dublados,legendados",
      "pagina": 18,
      "total_episodios": 25,
      "link_video": "https://animefire.plus/video/tiger-bunny-dublado"
    },
    {
      "id": 3847,
      "nome": "Tiger & Bunny 2 (Dublado)",
      "link": "https://animefire.plus/animes/tiger-bunny-2-dublado-todos-os-episodios",
      "texto_original": "Tiger & Bunny 2 (Dublado)",
      "rating": 7.42,
      "classificacao_etaria": "A14",
      "imagem_original": "https://animefire.plus/img/animes/tiger-bunny-2.webp",
      "imagem_pasta": "https://animefire.plus/img/animes/tiger-bunny-2/",
      "secao": "dublados,legendados,lancamentos",
      "pagina": 11,
      "total_episodios": 13,
      "link_video": "https://animefire.plus/video/tiger-bunny-2-dublado"
    },
    {
      "id": 3848,
      "nome": "Time Bokan 24",
      "link": "https://animefire.plus/animes/time-bokan-24-todos-os-episodios",
      "texto_original": "Time Bokan 24",
      "rating": 5.89,
      "classificacao_etaria": "A14",
      "imagem_original": "https://animefire.plus/img/animes/time-bokan-24.webp",
      "imagem_pasta": "https://animefire.plus/img/animes/time-bokan-24/",
      "secao": "legendados",
      "pagina": 64,
      "total_episodios": 24,
      "link_video": "https://animefire.plus/video/time-bokan-24"
    },
    {
      "id": 3849,
      "nome": "Time Bokan: Gyakushuu no San Akunin",
      "link": "https://animefire.plus/animes/time-bokan-gyakushuu-no-san-akunin-todos-os-episodios",
      "texto_original": "Time Bokan: Gyakushuu no San Akunin",
      "rating": 5.77,
      "classificacao_etaria": "A14",
      "imagem_original": "https://animefire.plus/img/animes/time-bokan-gyakushuu-no-san-akunin.webp",
      "imagem_pasta": "https://animefire.plus/img/animes/time-bokan-gyakushuu-no-san-akunin/",
      "secao": "legendados",
      "pagina": 97,
      "total_episodios": 24,
      "link_video": "https://animefire.plus/video/time-bokan-gyakushuu-no-san-akunin"
    },
    {
      "id": 3850,
      "nome": "Time Travel Shoujo: Mari Waka to 8-nin no Kagakusha-tachi",
      "link": "https://animefire.plus/animes/time-travel-shoujo-mari-waka-to-8-nin-no-kagakusha-tachi-todos-os-episodios",
      "texto_original": "Time Travel Shoujo: Mari Waka to 8-nin no Kagakusha-tachi",
      "rating": 6.57,
      "classificacao_etaria": "A10",
      "imagem_original": "https://animefire.plus/img/animes/time-travel-shoujo-mari-waka-to-8-nin-no-kagakusha-tachi.webp",
      "imagem_pasta": "https://animefire.plus/img/animes/time-travel-shoujo-mari-waka-to-8-nin-no-kagakusha-tachi/",
      "secao": "legendados",
      "pagina": 177,
      "total_episodios": 0,
      "link_video": "https://animefire.plus/video/time-travel-shoujo-mari-waka-to-8-nin-no-kagakusha-tachi"
    },
    {
      "id": 3851,
      "nome": "To Be Hero",
      "link": "https://animefire.plus/animes/to-be-hero-todos-os-episodios",
      "texto_original": "To Be Hero",
      "rating": 7.04,
      "classificacao_etaria": "A14",
      "imagem_original": "https://animefire.plus/img/animes/to-be-hero.webp",
      "imagem_pasta": "https://animefire.plus/img/animes/to-be-hero/",
      "secao": "legendados",
      "pagina": 99,
      "total_episodios": 12,
      "link_video": "https://animefire.plus/video/to-be-hero"
    },
    {
      "id": 3852,
      "nome": "To Heart",
      "link": "https://animefire.plus/animes/to-heart-todos-os-episodios",
      "texto_original": "To Heart",
      "rating": 6.65,
      "classificacao_etaria": "A14",
      "imagem_original": "https://animefire.plus/img/animes/to-heart.webp",
      "imagem_pasta": "https://animefire.plus/img/animes/to-heart/",
      "secao": "legendados",
      "pagina": 161,
      "total_episodios": 13,
      "link_video": "https://animefire.plus/video/to-heart"
    },
    {
      "id": 3853,
      "nome": "To Heart 2",
      "link": "https://animefire.plus/animes/to-heart-2-todos-os-episodios",
      "texto_original": "To Heart 2",
      "rating": 6.58,
      "classificacao_etaria": "A14",
      "imagem_original": "https://animefire.plus/img/animes/to-heart-2.webp",
      "imagem_pasta": "https://animefire.plus/img/animes/to-heart-2/",
      "secao": "legendados",
      "pagina": 147,
      "total_episodios": 12,
      "link_video": "https://animefire.plus/video/to-heart-2"
    },
    {
      "id": 3854,
      "nome": "To Heart: Remember My Memories",
      "link": "https://animefire.plus/animes/to-heart-remember-my-memories-todos-os-episodios",
      "texto_original": "To Heart: Remember My Memories",
      "rating": 6.51,
      "classificacao_etaria": "A14",
      "imagem_original": "https://animefire.plus/img/animes/to-heart-remember-my-memories.webp",
      "imagem_pasta": "https://animefire.plus/img/animes/to-heart-remember-my-memories/",
      "secao": "legendados",
      "pagina": 137,
      "total_episodios": 13,
      "link_video": "https://animefire.plus/video/to-heart-remember-my-memories"
    },
    {
      "id": 3855,
      "nome": "To LOVE-Ru",
      "link": "https://animefire.plus/animes/to-love-ru-todos-os-episodios",
      "texto_original": "To LOVE-Ru",
      "rating": 7.21,
      "classificacao_etaria": "A18",
      "imagem_original": "https://animefire.plus/img/animes/to-love-ru.webp",
      "imagem_pasta": "https://animefire.plus/img/animes/to-love-ru/",
      "secao": "legendados",
      "pagina": 138,
      "total_episodios": 0,
      "link_video": "https://animefire.plus/video/to-love-ru"
    },
    {
      "id": 3856,
      "nome": "To LOVE-Ru Darkness",
      "link": "https://animefire.plus/animes/to-love-ru-darkness-todos-os-episodios",
      "texto_original": "To LOVE-Ru Darkness",
      "rating": 7.65,
      "classificacao_etaria": "A18",
      "imagem_original": "https://animefire.plus/img/animes/to-love-ru-darkness.webp",
      "imagem_pasta": "https://animefire.plus/img/animes/to-love-ru-darkness/",
      "secao": "legendados",
      "pagina": 116,
      "total_episodios": 0,
      "link_video": "https://animefire.plus/video/to-love-ru-darkness"
    },
    {
      "id": 3857,
      "nome": "To LOVE-Ru Darkness 2nd",
      "link": "https://animefire.plus/animes/to-love-ru-darkness-2nd-todos-os-episodios",
      "texto_original": "To LOVE-Ru Darkness 2nd",
      "rating": 7.65,
      "classificacao_etaria": "A18",
      "imagem_original": "https://animefire.plus/img/animes/to-love-ru-darkness-2nd.webp",
      "imagem_pasta": "https://animefire.plus/img/animes/to-love-ru-darkness-2nd/",
      "secao": "legendados",
      "pagina": 146,
      "total_episodios": 0,
      "link_video": "https://animefire.plus/video/to-love-ru-darkness-2nd"
    },
    {
      "id": 3858,
      "nome": "Toaru Hikuushi E No Koiuta",
      "link": "https://animefire.plus/animes/toaru-hikuushi-e-no-koiuta-todos-os-episodios",
      "texto_original": "Toaru Hikuushi E No Koiuta",
      "rating": 7.24,
      "classificacao_etaria": "A14",
      "imagem_original": "https://animefire.plus/img/animes/toaru-hikuushi-e-no-koiuta.webp",
      "imagem_pasta": "https://animefire.plus/img/animes/toaru-hikuushi-e-no-koiuta/",
      "secao": "legendados",
      "pagina": 101,
      "total_episodios": 13,
      "link_video": "https://animefire.plus/video/toaru-hikuushi-e-no-koiuta"
    },
    {
      "id": 3859,
      "nome": "Toaru Kagaku no Accelerator",
      "link": "https://animefire.plus/animes/toaru-kagaku-no-accelerator-todos-os-episodios",
      "texto_original": "Toaru Kagaku no Accelerator",
      "rating": 7.18,
      "classificacao_etaria": "A16",
      "imagem_original": "https://animefire.plus/img/animes/toaru-kagaku-no-accelerator.webp",
      "imagem_pasta": "https://animefire.plus/img/animes/toaru-kagaku-no-accelerator/",
      "secao": "legendados",
      "pagina": 176,
      "total_episodios": 2,
      "link_video": "https://animefire.plus/video/toaru-kagaku-no-accelerator"
    },
    {
      "id": 3860,
      "nome": "Toaru Kagaku no Railgun",
      "link": "https://animefire.plus/animes/toaru-kagaku-no-railgun-todos-os-episodios",
      "texto_original": "Toaru Kagaku no Railgun",
      "rating": 7.8,
      "classificacao_etaria": "A14",
      "imagem_original": "https://animefire.plus/img/animes/toaru-kagaku-no-railgun.webp",
      "imagem_pasta": "https://animefire.plus/img/animes/toaru-kagaku-no-railgun/",
      "secao": "legendados",
      "pagina": 138,
      "total_episodios": 24,
      "link_video": "https://animefire.plus/video/toaru-kagaku-no-railgun"
    },
    {
      "id": 3861,
      "nome": "Toaru Kagaku no Railgun S",
      "link": "https://animefire.plus/animes/toaru-kagaku-no-railgun-s-todos-os-episodios",
      "texto_original": "Toaru Kagaku no Railgun S",
      "rating": 8.11,
      "classificacao_etaria": "A16",
      "imagem_original": "https://animefire.plus/img/animes/toaru-kagaku-no-railgun-s.webp",
      "imagem_pasta": "https://animefire.plus/img/animes/toaru-kagaku-no-railgun-s/",
      "secao": "legendados",
      "pagina": 150,
      "total_episodios": 0,
      "link_video": "https://animefire.plus/video/toaru-kagaku-no-railgun-s"
    },
    {
      "id": 3862,
      "nome": "Toaru Kagaku no Railgun S: Daiji na Koto wa Zenbu Sentou ni Osowatta",
      "link": "https://animefire.plus/animes/toaru-kagaku-no-railgun-s-daiji-na-koto-wa-zenbu-sentou-ni-osowatta-todos-os-episodios",
      "texto_original": "Toaru Kagaku no Railgun S: Daiji na Koto wa Zenbu Sentou ni Osowatta",
      "rating": 6.81,
      "classificacao_etaria": "A14",
      "imagem_original": "https://animefire.plus/img/animes/toaru-kagaku-no-railgun-s-daiji-na-koto-wa-zenbu-sentou-ni-osowatta.webp",
      "imagem_pasta": "https://animefire.plus/img/animes/toaru-kagaku-no-railgun-s-daiji-na-koto-wa-zenbu-sentou-ni-osowatta/",
      "secao": "legendados",
      "pagina": 68,
      "total_episodios": 1,
      "link_video": "https://animefire.plus/video/toaru-kagaku-no-railgun-s-daiji-na-koto-wa-zenbu-sentou-ni-osowatta"
    },
    {
      "id": 3863,
      "nome": "Toaru Kagaku no Railgun S: Motto Marutto Railgun",
      "link": "https://animefire.plus/animes/toaru-kagaku-no-railgun-s-motto-marutto-railgun-todos-os-episodios",
      "texto_original": "Toaru Kagaku no Railgun S: Motto Marutto Railgun",
      "rating": 7.07,
      "classificacao_etaria": "A14",
      "imagem_original": "https://animefire.plus/img/animes/toaru-kagaku-no-railgun-s-motto-marutto-railgun.webp",
      "imagem_pasta": "https://animefire.plus/img/animes/toaru-kagaku-no-railgun-s-motto-marutto-railgun/",
      "secao": "legendados",
      "pagina": 68,
      "total_episodios": 2,
      "link_video": "https://animefire.plus/video/toaru-kagaku-no-railgun-s-motto-marutto-railgun"
    },
    {
      "id": 3864,
      "nome": "Toaru Kagaku no Railgun T",
      "link": "https://animefire.plus/animes/toaru-kagaku-no-railgun-t-todos-os-episodios",
      "texto_original": "Toaru Kagaku no Railgun T",
      "rating": 8.25,
      "classificacao_etaria": "A16",
      "imagem_original": "https://animefire.plus/img/animes/toaru-kagaku-no-railgun-t.webp",
      "imagem_pasta": "https://animefire.plus/img/animes/toaru-kagaku-no-railgun-t/",
      "secao": "legendados",
      "pagina": 92,
      "total_episodios": 1,
      "link_video": "https://animefire.plus/video/toaru-kagaku-no-railgun-t"
    },
    {
      "id": 3865,
      "nome": "Toaru Majutsu no Index (Dublado)",
      "link": "https://animefire.plus/animes/toaru-majutsu-no-index-dublado-todos-os-episodios",
      "texto_original": "Toaru Majutsu no Index (Dublado)",
      "rating": 7.49,
      "classificacao_etaria": "A16",
      "imagem_original": "https://animefire.plus/img/animes/toaru-majutsu-no-index.webp",
      "imagem_pasta": "https://animefire.plus/img/animes/toaru-majutsu-no-index/",
      "secao": "dublados,legendados",
      "pagina": 20,
      "total_episodios": 24,
      "link_video": "https://animefire.plus/video/toaru-majutsu-no-index-dublado"
    }
  ],
  "pagination": {
    "current_page": 189,
    "per_page": 20,
    "total_items": 4269,
    "total_pages": 214,
    "has_next": true,
    "has_prev": true
  }
}
