{
  "message": "Animes da seção: legendados",
  "section": "legendados",
  "data": [
    {
      "id": 3928,
      "nome": "Touken Ranbu Kai: Kyoden Moyuru Honnouji",
      "link": "https://animefire.plus/animes/touken-ranbu-kai-kyoden-moyuru-honnouji-todos-os-episodios",
      "texto_original": "Touken Ranbu Kai: Kyoden Moyuru Honnouji",
      "rating": 6.09,
      "classificacao_etaria": "A14",
      "imagem_original": "https://animefire.plus/img/animes/touken-ranbu-kai-kyoden-moyuru-honnouji.webp",
      "imagem_pasta": "https://animefire.plus/img/animes/touken-ranbu-kai-kyoden-moyuru-honnouji/",
      "secao": "legendados",
      "pagina": 14,
      "total_episodios": 8,
      "link_video": "https://animefire.plus/video/touken-ranbu-kai-kyoden-moyuru-honnouji"
    },
    {
      "id": 3929,
      "nome": "Touken Ranbu: Hanamaru",
      "link": "https://animefire.plus/animes/touken-ranbu-hanamaru-todos-os-episodios",
      "texto_original": "Touken Ranbu: Hanamaru",
      "rating": 6.89,
      "classificacao_etaria": "A14",
      "imagem_original": "https://animefire.plus/img/animes/touken-ranbu-hanamaru.webp",
      "imagem_pasta": "https://animefire.plus/img/animes/touken-ranbu-hanamaru/",
      "secao": "legendados",
      "pagina": 106,
      "total_episodios": 12,
      "link_video": "https://animefire.plus/video/touken-ranbu-hanamaru"
    },
    {
      "id": 3930,
      "nome": "Toutotsu ni Egypt Kami",
      "link": "https://animefire.plus/animes/toutotsu-ni-egypt-kami-todos-os-episodios",
      "texto_original": "Toutotsu ni Egypt Kami",
      "rating": null,
      "classificacao_etaria": null,
      "imagem_original": "https://animefire.plus/img/animes/toutotsu-ni-egypt-kami.webp",
      "imagem_pasta": "https://animefire.plus/img/animes/toutotsu-ni-egypt-kami/",
      "secao": "legendados",
      "pagina": 50,
      "total_episodios": 10,
      "link_video": "https://animefire.plus/video/toutotsu-ni-egypt-kami"
    },
    {
      "id": 3931,
      "nome": "Toutotsu ni Egypt Shin 2",
      "link": "https://animefire.plus/animes/toutotsu-ni-egypt-shin-2-todos-os-episodios",
      "texto_original": "Toutotsu ni Egypt Shin 2",
      "rating": 6.62,
      "classificacao_etaria": null,
      "imagem_original": "https://animefire.plus/img/animes/toutotsu-ni-egypt-shin-2.webp",
      "imagem_pasta": "https://animefire.plus/img/animes/toutotsu-ni-egypt-shin-2/",
      "secao": "legendados,lancamentos",
      "pagina": 25,
      "total_episodios": 5,
      "link_video": "https://animefire.plus/video/toutotsu-ni-egypt-shin-2"
    },
    {
      "id": 3932,
      "nome": "Triage X",
      "link": "https://animefire.plus/animes/triage-x-todos-os-episodios",
      "texto_original": "Triage X",
      "rating": 6.36,
      "classificacao_etaria": "A18",
      "imagem_original": "https://animefire.plus/img/animes/triage-x.webp",
      "imagem_pasta": "https://animefire.plus/img/animes/triage-x/",
      "secao": "legendados",
      "pagina": 73,
      "total_episodios": 0,
      "link_video": "https://animefire.plus/video/triage-x"
    },
    {
      "id": 3933,
      "nome": "Tribe Nine (Dublado)",
      "link": "https://animefire.plus/animes/tribe-nine-dublado-todos-os-episodios",
      "texto_original": "Tribe Nine (Dublado)",
      "rating": 6.08,
      "classificacao_etaria": "A16",
      "imagem_original": "https://animefire.plus/img/animes/tribe-nine.webp",
      "imagem_pasta": "https://animefire.plus/img/animes/tribe-nine/",
      "secao": "dublados,legendados",
      "pagina": 12,
      "total_episodios": 12,
      "link_video": "https://animefire.plus/video/tribe-nine-dublado"
    },
    {
      "id": 3934,
      "nome": "Trickster: Edogawa Ranpo \"Shounen Tanteidan\" yori",
      "link": "https://animefire.plus/animes/trickster-edogawa-ranpo-shounen-tanteidan-yori-todos-os-episodios",
      "texto_original": "Trickster: Edogawa Ranpo \"Shounen Tanteidan\" yori",
      "rating": 6.29,
      "classificacao_etaria": "A14",
      "imagem_original": "https://animefire.plus/img/animes/trickster-edogawa-ranpo-shounen-tanteidan-yori.webp",
      "imagem_pasta": "https://animefire.plus/img/animes/trickster-edogawa-ranpo-shounen-tanteidan-yori/",
      "secao": "legendados",
      "pagina": 167,
      "total_episodios": 7,
      "link_video": "https://animefire.plus/video/trickster-edogawa-ranpo-shounen-tanteidan-yori"
    },
    {
      "id": 3935,
      "nome": "Trigun (Dublado)",
      "link": "https://animefire.plus/animes/trigun-dublado-todos-os-episodios",
      "texto_original": "Trigun (Dublado)",
      "rating": 8.25,
      "classificacao_etaria": "A14",
      "imagem_original": "https://animefire.plus/img/animes/trigun.webp",
      "imagem_pasta": "https://animefire.plus/img/animes/trigun/",
      "secao": "dublados,legendados",
      "pagina": 22,
      "total_episodios": 26,
      "link_video": "https://animefire.plus/video/trigun-dublado"
    },
    {
      "id": 3936,
      "nome": "Trigun Stampede (Dublado)",
      "link": "https://animefire.plus/animes/trigun-stampede-dublado-todos-os-episodios",
      "texto_original": "Trigun Stampede (Dublado)",
      "rating": 7.83,
      "classificacao_etaria": "A14",
      "imagem_original": "https://animefire.plus/img/animes/trigun-stampede.webp",
      "imagem_pasta": "https://animefire.plus/img/animes/trigun-stampede/",
      "secao": "dublados,legendados",
      "pagina": 7,
      "total_episodios": 12,
      "link_video": "https://animefire.plus/video/trigun-stampede-dublado"
    },
    {
      "id": 3937,
      "nome": "Trillion Game",
      "link": "https://animefire.plus/animes/trillion-game-todos-os-episodios",
      "texto_original": "Trillion Game",
      "rating": 7.56,
      "classificacao_etaria": "A14",
      "imagem_original": "https://animefire.plus/img/animes/trillion-game.webp",
      "imagem_pasta": "https://animefire.plus/img/animes/trillion-game/",
      "secao": "legendados",
      "pagina": 9,
      "total_episodios": 26,
      "link_video": "https://animefire.plus/video/trillion-game"
    },
    {
      "id": 3938,
      "nome": "Trinity Seven",
      "link": "https://animefire.plus/animes/trinity-seven-todos-os-episodios",
      "texto_original": "Trinity Seven",
      "rating": 7.37,
      "classificacao_etaria": "A14",
      "imagem_original": "https://animefire.plus/img/animes/trinity-seven.webp",
      "imagem_pasta": "https://animefire.plus/img/animes/trinity-seven/",
      "secao": "legendados",
      "pagina": 100,
      "total_episodios": 12,
      "link_video": "https://animefire.plus/video/trinity-seven"
    },
    {
      "id": 3939,
      "nome": "Tropical-Rouge! Precure",
      "link": "https://animefire.plus/animes/tropical-rouge-precure-todos-os-episodios",
      "texto_original": "Tropical-Rouge! Precure",
      "rating": 7.4,
      "classificacao_etaria": null,
      "imagem_original": "https://animefire.plus/img/animes/tropical-rouge-precure.webp",
      "imagem_pasta": "https://animefire.plus/img/animes/tropical-rouge-precure/",
      "secao": "legendados",
      "pagina": 48,
      "total_episodios": 18,
      "link_video": "https://animefire.plus/video/tropical-rouge-precure"
    },
    {
      "id": 3940,
      "nome": "True Tears",
      "link": "https://animefire.plus/animes/true-tears-todos-os-episodios",
      "texto_original": "True Tears",
      "rating": 7.45,
      "classificacao_etaria": "A14",
      "imagem_original": "https://animefire.plus/img/animes/true-tears.webp",
      "imagem_pasta": "https://animefire.plus/img/animes/true-tears/",
      "secao": "legendados",
      "pagina": 168,
      "total_episodios": 13,
      "link_video": "https://animefire.plus/video/true-tears"
    },
    {
      "id": 3941,
      "nome": "Try Knights",
      "link": "https://animefire.plus/animes/try-knights-todos-os-episodios",
      "texto_original": "Try Knights",
      "rating": 4.7,
      "classificacao_etaria": "A14",
      "imagem_original": "https://animefire.plus/img/animes/try-knights.webp",
      "imagem_pasta": "https://animefire.plus/img/animes/try-knights/",
      "secao": "legendados",
      "pagina": 118,
      "total_episodios": 1,
      "link_video": "https://animefire.plus/video/try-knights"
    },
    {
      "id": 3942,
      "nome": "Tsubasa Chronicle",
      "link": "https://animefire.plus/animes/tsubasa-chronicle-todos-os-episodios",
      "texto_original": "Tsubasa Chronicle",
      "rating": 7.62,
      "classificacao_etaria": "A14",
      "imagem_original": "https://animefire.plus/img/animes/tsubasa-chronicle.webp",
      "imagem_pasta": "https://animefire.plus/img/animes/tsubasa-chronicle/",
      "secao": "legendados",
      "pagina": 162,
      "total_episodios": 52,
      "link_video": "https://animefire.plus/video/tsubasa-chronicle"
    },
    {
      "id": 3943,
      "nome": "Tsubasa: Shunraiki",
      "link": "https://animefire.plus/animes/tsubasa-shunraiki-todos-os-episodios",
      "texto_original": "Tsubasa: Shunraiki",
      "rating": 8.15,
      "classificacao_etaria": "A16",
      "imagem_original": "https://animefire.plus/img/animes/tsubasa-shunraiki.webp",
      "imagem_pasta": "https://animefire.plus/img/animes/tsubasa-shunraiki/",
      "secao": "legendados",
      "pagina": 62,
      "total_episodios": 1,
      "link_video": "https://animefire.plus/video/tsubasa-shunraiki"
    },
    {
      "id": 3944,
      "nome": "Tsubasa: Tokyo Revelations",
      "link": "https://animefire.plus/animes/tsubasa-tokyo-revelations-todos-os-episodios",
      "texto_original": "Tsubasa: Tokyo Revelations",
      "rating": 8.34,
      "classificacao_etaria": "A16",
      "imagem_original": "https://animefire.plus/img/animes/tsubasa-tokyo-revelations.webp",
      "imagem_pasta": "https://animefire.plus/img/animes/tsubasa-tokyo-revelations/",
      "secao": "legendados",
      "pagina": 62,
      "total_episodios": 1,
      "link_video": "https://animefire.plus/video/tsubasa-tokyo-revelations"
    },
    {
      "id": 3945,
      "nome": "Tsue to Tsurugi no Wistoria",
      "link": "https://animefire.plus/animes/tsue-to-tsurugi-no-wistoria-todos-os-episodios",
      "texto_original": "Tsue to Tsurugi no Wistoria",
      "rating": 7.87,
      "classificacao_etaria": "A14",
      "imagem_original": "https://animefire.plus/img/animes/tsue-to-tsurugi-no-wistoria.webp",
      "imagem_pasta": "https://animefire.plus/img/animes/tsue-to-tsurugi-no-wistoria/",
      "secao": "legendados",
      "pagina": 13,
      "total_episodios": 12,
      "link_video": "https://animefire.plus/video/tsue-to-tsurugi-no-wistoria"
    },
    {
      "id": 3946,
      "nome": "Tsugu Tsugumomo",
      "link": "https://animefire.plus/animes/tsugu-tsugumomo-todos-os-episodios",
      "texto_original": "Tsugu Tsugumomo",
      "rating": 7.51,
      "classificacao_etaria": "A18",
      "imagem_original": "https://animefire.plus/img/animes/tsugu-tsugumomo.webp",
      "imagem_pasta": "https://animefire.plus/img/animes/tsugu-tsugumomo/",
      "secao": "legendados",
      "pagina": 60,
      "total_episodios": 1,
      "link_video": "https://animefire.plus/video/tsugu-tsugumomo"
    },
    {
      "id": 3947,
      "nome": "Tsugumomo",
      "link": "https://animefire.plus/animes/tsugumomo-todos-os-episodios",
      "texto_original": "Tsugumomo",
      "rating": 7.11,
      "classificacao_etaria": "A18",
      "imagem_original": "https://animefire.plus/img/animes/tsugumomo.webp",
      "imagem_pasta": "https://animefire.plus/img/animes/tsugumomo/",
      "secao": "legendados",
      "pagina": 106,
      "total_episodios": 12,
      "link_video": "https://animefire.plus/video/tsugumomo"
    }
  ],
  "pagination": {
    "current_page": 193,
    "per_page": 20,
    "total_items": 4269,
    "total_pages": 214,
    "has_next": true,
    "has_prev": true
  }
}
