{
  "message": "Animes da seção: legendados",
  "section": "legendados",
  "data": [
    {
      "id": 4092,
      "nome": "Waccha PriMagi!",
      "link": "https://animefire.plus/animes/waccha-primagi-todos-os-episodios",
      "texto_original": "Waccha PriMagi!",
      "rating": 7.04,
      "classificacao_etaria": null,
      "imagem_original": "https://animefire.plus/img/animes/waccha-primagi.webp",
      "imagem_pasta": "https://animefire.plus/img/animes/waccha-primagi/",
      "secao": "legendados,lancamentos",
      "pagina": 38,
      "total_episodios": 12,
      "link_video": "https://animefire.plus/video/waccha-primagi"
    },
    {
      "id": 4093,
      "nome": "Wagamama High Spec",
      "link": "https://animefire.plus/animes/wagamama-high-spec-todos-os-episodios",
      "texto_original": "Wagamama High Spec",
      "rating": 5.45,
      "classificacao_etaria": "A14",
      "imagem_original": "https://animefire.plus/img/animes/wagamama-high-spec.webp",
      "imagem_pasta": "https://animefire.plus/img/animes/wagamama-high-spec/",
      "secao": "legendados",
      "pagina": 115,
      "total_episodios": 9,
      "link_video": "https://animefire.plus/video/wagamama-high-spec"
    },
    {
      "id": 4094,
      "nome": "Wagaya no Oinari-sama.",
      "link": "https://animefire.plus/animes/wagaya-no-oinari-sama-todos-os-episodios",
      "texto_original": "Wagaya no Oinari-sama.",
      "rating": 7.26,
      "classificacao_etaria": "A14",
      "imagem_original": "https://animefire.plus/img/animes/wagaya-no-oinari-sama.webp",
      "imagem_pasta": "https://animefire.plus/img/animes/wagaya-no-oinari-sama/",
      "secao": "legendados",
      "pagina": 145,
      "total_episodios": 19,
      "link_video": "https://animefire.plus/video/wagaya-no-oinari-sama"
    },
    {
      "id": 4095,
      "nome": "Wakaba*Girl",
      "link": "https://animefire.plus/animes/wakaba-girl-todos-os-episodios",
      "texto_original": "Wakaba*Girl",
      "rating": 6.92,
      "classificacao_etaria": "A14",
      "imagem_original": "https://animefire.plus/img/animes/wakaba-girl.webp",
      "imagem_pasta": "https://animefire.plus/img/animes/wakaba-girl/",
      "secao": "legendados",
      "pagina": 62,
      "total_episodios": 13,
      "link_video": "https://animefire.plus/video/wakaba-girl"
    },
    {
      "id": 4096,
      "nome": "Wakako-zake",
      "link": "https://animefire.plus/animes/wakako-zake-todos-os-episodios",
      "texto_original": "Wakako-zake",
      "rating": 6.69,
      "classificacao_etaria": "A14",
      "imagem_original": "https://animefire.plus/img/animes/wakako-zake.webp",
      "imagem_pasta": "https://animefire.plus/img/animes/wakako-zake/",
      "secao": "legendados",
      "pagina": 103,
      "total_episodios": 12,
      "link_video": "https://animefire.plus/video/wakako-zake"
    },
    {
      "id": 4097,
      "nome": "Wake Up, Girls!",
      "link": "https://animefire.plus/animes/wake-up-girls-todos-os-episodios",
      "texto_original": "Wake Up, Girls!",
      "rating": 7.01,
      "classificacao_etaria": "A14",
      "imagem_original": "https://animefire.plus/img/animes/wake-up-girls.webp",
      "imagem_pasta": "https://animefire.plus/img/animes/wake-up-girls/",
      "secao": "legendados",
      "pagina": 75,
      "total_episodios": 12,
      "link_video": "https://animefire.plus/video/wake-up-girls"
    },
    {
      "id": 4098,
      "nome": "Wake Up, Girls! Shin Shou",
      "link": "https://animefire.plus/animes/wake-up-girls-shin-shou-todos-os-episodios",
      "texto_original": "Wake Up, Girls! Shin Shou",
      "rating": 6.5,
      "classificacao_etaria": "A14",
      "imagem_original": "https://animefire.plus/img/animes/wake-up-girls-shin-shou.webp",
      "imagem_pasta": "https://animefire.plus/img/animes/wake-up-girls-shin-shou/",
      "secao": "legendados",
      "pagina": 75,
      "total_episodios": 12,
      "link_video": "https://animefire.plus/video/wake-up-girls-shin-shou"
    },
    {
      "id": 4099,
      "nome": "Walkure Romanze",
      "link": "https://animefire.plus/animes/walkure-romanze-todos-os-episodios",
      "texto_original": "Walkure Romanze",
      "rating": 6.49,
      "classificacao_etaria": "A18",
      "imagem_original": "https://animefire.plus/img/animes/walkure-romanze.webp",
      "imagem_pasta": "https://animefire.plus/img/animes/walkure-romanze/",
      "secao": "legendados",
      "pagina": 144,
      "total_episodios": 5,
      "link_video": "https://animefire.plus/video/walkure-romanze"
    },
    {
      "id": 4100,
      "nome": "Wan Jie Xian Zong",
      "link": "https://animefire.plus/animes/wan-jie-xian-zong-todos-os-episodios",
      "texto_original": "Wan Jie Xian Zong",
      "rating": 7.39,
      "classificacao_etaria": "A14",
      "imagem_original": "https://animefire.plus/img/animes/wan-jie-xian-zong.webp",
      "imagem_pasta": "https://animefire.plus/img/animes/wan-jie-xian-zong/",
      "secao": "legendados",
      "pagina": 80,
      "total_episodios": 90,
      "link_video": "https://animefire.plus/video/wan-jie-xian-zong"
    },
    {
      "id": 4101,
      "nome": "Wan Sheng Jie",
      "link": "https://animefire.plus/animes/wan-sheng-jie-todos-os-episodios",
      "texto_original": "Wan Sheng Jie",
      "rating": 7.95,
      "classificacao_etaria": "A14",
      "imagem_original": "https://animefire.plus/img/animes/wan-sheng-jie.webp",
      "imagem_pasta": "https://animefire.plus/img/animes/wan-sheng-jie/",
      "secao": "legendados",
      "pagina": 27,
      "total_episodios": 1,
      "link_video": "https://animefire.plus/video/wan-sheng-jie"
    },
    {
      "id": 4102,
      "nome": "Wan Sheng Jie 2",
      "link": "https://animefire.plus/animes/wan-sheng-jie-2-todos-os-episodios",
      "texto_original": "Wan Sheng Jie 2",
      "rating": 7.95,
      "classificacao_etaria": "A14",
      "imagem_original": "https://animefire.plus/img/animes/wan-sheng-jie-2.webp",
      "imagem_pasta": "https://animefire.plus/img/animes/wan-sheng-jie-2/",
      "secao": "legendados",
      "pagina": 27,
      "total_episodios": 1,
      "link_video": "https://animefire.plus/video/wan-sheng-jie-2"
    },
    {
      "id": 4103,
      "nome": "Wan Sheng Jie 3",
      "link": "https://animefire.plus/animes/wan-sheng-jie-3-todos-os-episodios",
      "texto_original": "Wan Sheng Jie 3",
      "rating": 8.01,
      "classificacao_etaria": "A14",
      "imagem_original": "https://animefire.plus/img/animes/wan-sheng-jie-3.webp",
      "imagem_pasta": "https://animefire.plus/img/animes/wan-sheng-jie-3/",
      "secao": "legendados",
      "pagina": 27,
      "total_episodios": 1,
      "link_video": "https://animefire.plus/video/wan-sheng-jie-3"
    },
    {
      "id": 4104,
      "nome": "Wangan Midnight",
      "link": "https://animefire.plus/animes/wangan-midnight-todos-os-episodios",
      "texto_original": "Wangan Midnight",
      "rating": 7.5,
      "classificacao_etaria": "A14",
      "imagem_original": "https://animefire.plus/img/animes/wangan-midnight.webp",
      "imagem_pasta": "https://animefire.plus/img/animes/wangan-midnight/",
      "secao": "legendados",
      "pagina": 174,
      "total_episodios": 26,
      "link_video": "https://animefire.plus/video/wangan-midnight"
    },
    {
      "id": 4105,
      "nome": "Wangpai Yushi",
      "link": "https://animefire.plus/animes/wangpai-yushi-todos-os-episodios",
      "texto_original": "Wangpai Yushi",
      "rating": 6.77,
      "classificacao_etaria": "A14",
      "imagem_original": "https://animefire.plus/img/animes/wangpai-yushi.webp",
      "imagem_pasta": "https://animefire.plus/img/animes/wangpai-yushi/",
      "secao": "legendados",
      "pagina": 134,
      "total_episodios": 17,
      "link_video": "https://animefire.plus/video/wangpai-yushi"
    },
    {
      "id": 4106,
      "nome": "Wangpai Yushi Di 0 Ji",
      "link": "https://animefire.plus/animes/wangpai-yushi-di-0-ji-todos-os-episodios",
      "texto_original": "Wangpai Yushi Di 0 Ji",
      "rating": 6.06,
      "classificacao_etaria": "A10",
      "imagem_original": "https://animefire.plus/img/animes/wangpai-yushi-di-0-ji.webp",
      "imagem_pasta": "https://animefire.plus/img/animes/wangpai-yushi-di-0-ji/",
      "secao": "legendados",
      "pagina": 88,
      "total_episodios": 1,
      "link_video": "https://animefire.plus/video/wangpai-yushi-di-0-ji"
    },
    {
      "id": 4107,
      "nome": "Wangu Xian Qiong",
      "link": "https://animefire.plus/animes/wangu-xian-qiong-todos-os-episodios",
      "texto_original": "Wangu Xian Qiong",
      "rating": 7.04,
      "classificacao_etaria": "A14",
      "imagem_original": "https://animefire.plus/img/animes/wangu-xian-qiong.webp",
      "imagem_pasta": "https://animefire.plus/img/animes/wangu-xian-qiong/",
      "secao": "legendados",
      "pagina": 83,
      "total_episodios": 12,
      "link_video": "https://animefire.plus/video/wangu-xian-qiong"
    },
    {
      "id": 4108,
      "nome": "Wangu Xian Qiong 2nd Season",
      "link": "https://animefire.plus/animes/wangu-xian-qiong-2nd-season-todos-os-episodios",
      "texto_original": "Wangu Xian Qiong 2nd Season",
      "rating": 6.93,
      "classificacao_etaria": "A14",
      "imagem_original": "https://animefire.plus/img/animes/wangu-xian-qiong-2nd-season.webp",
      "imagem_pasta": "https://animefire.plus/img/animes/wangu-xian-qiong-2nd-season/",
      "secao": "legendados",
      "pagina": 88,
      "total_episodios": 12,
      "link_video": "https://animefire.plus/video/wangu-xian-qiong-2nd-season"
    },
    {
      "id": 4109,
      "nome": "Wanna-Be's",
      "link": "https://animefire.plus/animes/wanna-be-s-todos-os-episodios",
      "texto_original": "Wanna-Be's",
      "rating": 5.2,
      "classificacao_etaria": "A18",
      "imagem_original": "https://animefire.plus/img/animes/wanna-be-s.webp",
      "imagem_pasta": "https://animefire.plus/img/animes/wanna-be-s/",
      "secao": "legendados",
      "pagina": 68,
      "total_episodios": 1,
      "link_video": "https://animefire.plus/video/wanna-be-s"
    },
    {
      "id": 4110,
      "nome": "Warau Arsnotoria Sun!",
      "link": "https://animefire.plus/animes/warau-arsnotoria-sun-todos-os-episodios",
      "texto_original": "Warau Arsnotoria Sun!",
      "rating": 5.8,
      "classificacao_etaria": "A14",
      "imagem_original": "https://animefire.plus/img/animes/warau-arsnotoria-sun.webp",
      "imagem_pasta": "https://animefire.plus/img/animes/warau-arsnotoria-sun/",
      "secao": "legendados",
      "pagina": 31,
      "total_episodios": 12,
      "link_video": "https://animefire.plus/video/warau-arsnotoria-sun"
    },
    {
      "id": 4111,
      "nome": "Warau Salesman New",
      "link": "https://animefire.plus/animes/warau-salesman-new-todos-os-episodios",
      "texto_original": "Warau Salesman New",
      "rating": 6.28,
      "classificacao_etaria": "A14",
      "imagem_original": "https://animefire.plus/img/animes/warau-salesman-new.webp",
      "imagem_pasta": "https://animefire.plus/img/animes/warau-salesman-new/",
      "secao": "legendados",
      "pagina": 99,
      "total_episodios": 12,
      "link_video": "https://animefire.plus/video/warau-salesman-new"
    }
  ],
  "pagination": {
    "current_page": 201,
    "per_page": 20,
    "total_items": 4269,
    "total_pages": 214,
    "has_next": true,
    "has_prev": true
  }
}
