{
  "message": "Animes da seção: legendados",
  "section": "legendados",
  "data": [
    {
      "id": 3522,
      "nome": "Shuumatsu no Harem",
      "link": "https://animefire.plus/animes/shuumatsu-no-harem-todos-os-episodios",
      "texto_original": "Shuumatsu no Harem",
      "rating": 5.9,
      "classificacao_etaria": "A18",
      "imagem_original": "https://animefire.plus/img/animes/shuumatsu-no-harem.webp",
      "imagem_pasta": "https://animefire.plus/img/animes/shuumatsu-no-harem/",
      "secao": "legendados",
      "pagina": 39,
      "total_episodios": 11,
      "link_video": "https://animefire.plus/video/shuumatsu-no-harem"
    },
    {
      "id": 3523,
      "nome": "Shuumatsu no Izetta",
      "link": "https://animefire.plus/animes/shuumatsu-no-izetta-todos-os-episodios",
      "texto_original": "Shuumatsu no Izetta",
      "rating": 6.82,
      "classificacao_etaria": "A16",
      "imagem_original": "https://animefire.plus/img/animes/shuumatsu-no-izetta.webp",
      "imagem_pasta": "https://animefire.plus/img/animes/shuumatsu-no-izetta/",
      "secao": "legendados",
      "pagina": 116,
      "total_episodios": 12,
      "link_video": "https://animefire.plus/video/shuumatsu-no-izetta"
    },
    {
      "id": 3524,
      "nome": "Shuumatsu no Walküre (Dublado)",
      "link": "https://animefire.plus/animes/shuumatsu-no-walk-re-dublado-todos-os-episodios",
      "texto_original": "Shuumatsu no Walküre (Dublado)",
      "rating": 6.81,
      "classificacao_etaria": "A16",
      "imagem_original": "https://animefire.plus/img/animes/shuumatsu-no-walk-re.webp",
      "imagem_pasta": "https://animefire.plus/img/animes/shuumatsu-no-walk-re/",
      "secao": "dublados,legendados",
      "pagina": 17,
      "total_episodios": 12,
      "link_video": "https://animefire.plus/video/shuumatsu-no-walk-re-dublado"
    },
    {
      "id": 3525,
      "nome": "Shuumatsu no Walküre II (Dublado)",
      "link": "https://animefire.plus/animes/shuumatsu-no-walk-re-ii-dublado-todos-os-episodios",
      "texto_original": "Shuumatsu no Walküre II (Dublado)",
      "rating": 7.49,
      "classificacao_etaria": "A16",
      "imagem_original": "https://animefire.plus/img/animes/shuumatsu-no-walk-re-ii.webp",
      "imagem_pasta": "https://animefire.plus/img/animes/shuumatsu-no-walk-re-ii/",
      "secao": "dublados,legendados",
      "pagina": 8,
      "total_episodios": 15,
      "link_video": "https://animefire.plus/video/shuumatsu-no-walk-re-ii-dublado"
    },
    {
      "id": 3526,
      "nome": "Shuumatsu Train Doko e Iku?",
      "link": "https://animefire.plus/animes/shuumatsu-train-doko-e-iku-todos-os-episodios",
      "texto_original": "Shuumatsu Train Doko e Iku?",
      "rating": 7.37,
      "classificacao_etaria": "A14",
      "imagem_original": "https://animefire.plus/img/animes/shuumatsu-train-doko-e-iku.webp",
      "imagem_pasta": "https://animefire.plus/img/animes/shuumatsu-train-doko-e-iku/",
      "secao": "legendados",
      "pagina": 14,
      "total_episodios": 12,
      "link_video": "https://animefire.plus/video/shuumatsu-train-doko-e-iku"
    },
    {
      "id": 3528,
      "nome": "Shy 2nd Season",
      "link": "https://animefire.plus/animes/shy-2nd-season-todos-os-episodios",
      "texto_original": "Shy 2nd Season",
      "rating": 6.92,
      "classificacao_etaria": "A14",
      "imagem_original": "https://animefire.plus/img/animes/shy-2nd-season.webp",
      "imagem_pasta": "https://animefire.plus/img/animes/shy-2nd-season/",
      "secao": "legendados",
      "pagina": 12,
      "total_episodios": 12,
      "link_video": "https://animefire.plus/video/shy-2nd-season"
    },
    {
      "id": 3529,
      "nome": "Si Ling Bianma: Zhi Shijie Caozong Zhe",
      "link": "https://animefire.plus/animes/si-ling-bianma-zhi-shijie-caozong-zhe-todos-os-episodios",
      "texto_original": "Si Ling Bianma: Zhi Shijie Caozong Zhe",
      "rating": 5.53,
      "classificacao_etaria": "A16",
      "imagem_original": "https://animefire.plus/img/animes/si-ling-bianma-zhi-shijie-caozong-zhe.webp",
      "imagem_pasta": "https://animefire.plus/img/animes/si-ling-bianma-zhi-shijie-caozong-zhe/",
      "secao": "legendados",
      "pagina": 83,
      "total_episodios": 12,
      "link_video": "https://animefire.plus/video/si-ling-bianma-zhi-shijie-caozong-zhe"
    },
    {
      "id": 3530,
      "nome": "Si Ling Bianma: Zhi Shijie Caozong Zhe Recap",
      "link": "https://animefire.plus/animes/si-ling-bianma-zhi-shijie-caozong-zhe-recap-todos-os-episodios",
      "texto_original": "Si Ling Bianma: Zhi Shijie Caozong Zhe Recap",
      "rating": null,
      "classificacao_etaria": "A16",
      "imagem_original": "https://animefire.plus/img/animes/si-ling-bianma-zhi-shijie-caozong-zhe-recap.webp",
      "imagem_pasta": "https://animefire.plus/img/animes/si-ling-bianma-zhi-shijie-caozong-zhe-recap/",
      "secao": "legendados",
      "pagina": 83,
      "total_episodios": 1,
      "link_video": "https://animefire.plus/video/si-ling-bianma-zhi-shijie-caozong-zhe-recap"
    },
    {
      "id": 3531,
      "nome": "Sidonia no Kishi (Dublado)",
      "link": "https://animefire.plus/animes/sidonia-no-kishi-dublado-todos-os-episodios",
      "texto_original": "Sidonia no Kishi (Dublado)",
      "rating": 7.65,
      "classificacao_etaria": "A18",
      "imagem_original": "https://animefire.plus/img/animes/sidonia-no-kishi.webp",
      "imagem_pasta": "https://animefire.plus/img/animes/sidonia-no-kishi/",
      "secao": "dublados,legendados",
      "pagina": 8,
      "total_episodios": 12,
      "link_video": "https://animefire.plus/video/sidonia-no-kishi-dublado"
    },
    {
      "id": 3532,
      "nome": "Sidonia No Kishi: Daikyuu Wakusei Seneki",
      "link": "https://animefire.plus/animes/sidonia-no-kishi-daikyuu-wakusei-seneki-todos-os-episodios",
      "texto_original": "Sidonia No Kishi: Daikyuu Wakusei Seneki",
      "rating": 7.84,
      "classificacao_etaria": "A16",
      "imagem_original": "https://animefire.plus/img/animes/sidonia-no-kishi-daikyuu-wakusei-seneki.webp",
      "imagem_pasta": "https://animefire.plus/img/animes/sidonia-no-kishi-daikyuu-wakusei-seneki/",
      "secao": "legendados",
      "pagina": 103,
      "total_episodios": 5,
      "link_video": "https://animefire.plus/video/sidonia-no-kishi-daikyuu-wakusei-seneki"
    },
    {
      "id": 3533,
      "nome": "Silent Möbius",
      "link": "https://animefire.plus/animes/silent-moebius-todos-os-episodios",
      "texto_original": "Silent Möbius",
      "rating": 6.88,
      "classificacao_etaria": "A14",
      "imagem_original": "https://animefire.plus/img/animes/silent-moebius.webp",
      "imagem_pasta": "https://animefire.plus/img/animes/silent-moebius/",
      "secao": "legendados",
      "pagina": 136,
      "total_episodios": 26,
      "link_video": "https://animefire.plus/video/silent-moebius"
    },
    {
      "id": 3534,
      "nome": "Silent Witch: Chinmoku no Majo no Kakushigoto",
      "link": "https://animefire.plus/animes/silent-witch-chinmoku-no-majo-no-kakushigoto-todos-os-episodios",
      "texto_original": "Silent Witch: Chinmoku no Majo no Kakushigoto",
      "rating": 7.98,
      "classificacao_etaria": "A14",
      "imagem_original": "https://animefire.plus/img/animes/silent-witch-chinmoku-no-majo-no-kakushigoto.webp",
      "imagem_pasta": "https://animefire.plus/img/animes/silent-witch-chinmoku-no-majo-no-kakushigoto/",
      "secao": "legendados,lancamentos",
      "pagina": 3,
      "total_episodios": 5,
      "link_video": "https://animefire.plus/video/silent-witch-chinmoku-no-majo-no-kakushigoto"
    },
    {
      "id": 3535,
      "nome": "Simoun",
      "link": "https://animefire.plus/animes/simoun-todos-os-episodios",
      "texto_original": "Simoun",
      "rating": 7.5,
      "classificacao_etaria": "A14",
      "imagem_original": "https://animefire.plus/img/animes/simoun.webp",
      "imagem_pasta": "https://animefire.plus/img/animes/simoun/",
      "secao": "legendados",
      "pagina": 97,
      "total_episodios": 0,
      "link_video": "https://animefire.plus/video/simoun"
    },
    {
      "id": 3536,
      "nome": "Sin: Nanatsu no Taizai",
      "link": "https://animefire.plus/animes/sin-nanatsu-no-taizai-todos-os-episodios",
      "texto_original": "Sin: Nanatsu no Taizai",
      "rating": 5.75,
      "classificacao_etaria": "A18",
      "imagem_original": "https://animefire.plus/img/animes/sin-nanatsu-no-taizai.webp",
      "imagem_pasta": "https://animefire.plus/img/animes/sin-nanatsu-no-taizai/",
      "secao": "legendados",
      "pagina": 103,
      "total_episodios": 12,
      "link_video": "https://animefire.plus/video/sin-nanatsu-no-taizai"
    },
    {
      "id": 3537,
      "nome": "Sirius (Dublado)",
      "link": "https://animefire.plus/animes/sirius-dublado-todos-os-episodios",
      "texto_original": "Sirius (Dublado)",
      "rating": 7.18,
      "classificacao_etaria": "A16",
      "imagem_original": "https://animefire.plus/img/animes/sirius.webp",
      "imagem_pasta": "https://animefire.plus/img/animes/sirius/",
      "secao": "dublados,legendados",
      "pagina": 25,
      "total_episodios": 12,
      "link_video": "https://animefire.plus/video/sirius-dublado"
    },
    {
      "id": 3538,
      "nome": "Sister Princess",
      "link": "https://animefire.plus/animes/sister-princess-todos-os-episodios",
      "texto_original": "Sister Princess",
      "rating": 6.5,
      "classificacao_etaria": "A14",
      "imagem_original": "https://animefire.plus/img/animes/sister-princess.webp",
      "imagem_pasta": "https://animefire.plus/img/animes/sister-princess/",
      "secao": "legendados",
      "pagina": 140,
      "total_episodios": 26,
      "link_video": "https://animefire.plus/video/sister-princess"
    },
    {
      "id": 3539,
      "nome": "Sister Princess: Re Pure",
      "link": "https://animefire.plus/animes/sister-princess-re-pure-todos-os-episodios",
      "texto_original": "Sister Princess: Re Pure",
      "rating": 6.31,
      "classificacao_etaria": "A14",
      "imagem_original": "https://animefire.plus/img/animes/sister-princess-re-pure.webp",
      "imagem_pasta": "https://animefire.plus/img/animes/sister-princess-re-pure/",
      "secao": "legendados",
      "pagina": 150,
      "total_episodios": 13,
      "link_video": "https://animefire.plus/video/sister-princess-re-pure"
    },
    {
      "id": 3541,
      "nome": "Skate-Leading☆Stars",
      "link": "https://animefire.plus/animes/skate-leading-stars-todos-os-episodios",
      "texto_original": "Skate-Leading☆Stars",
      "rating": 6.45,
      "classificacao_etaria": "A14",
      "imagem_original": "https://animefire.plus/img/animes/skate-leading-stars.webp",
      "imagem_pasta": "https://animefire.plus/img/animes/skate-leading-stars/",
      "secao": "legendados",
      "pagina": 49,
      "total_episodios": 12,
      "link_video": "https://animefire.plus/video/skate-leading-stars"
    },
    {
      "id": 3542,
      "nome": "SKET Dance",
      "link": "https://animefire.plus/animes/sket-dance-todos-os-episodios",
      "texto_original": "SKET Dance",
      "rating": 8.28,
      "classificacao_etaria": "A14",
      "imagem_original": "https://animefire.plus/img/animes/sket-dance.webp",
      "imagem_pasta": "https://animefire.plus/img/animes/sket-dance/",
      "secao": "legendados",
      "pagina": 75,
      "total_episodios": 77,
      "link_video": "https://animefire.plus/video/sket-dance"
    },
    {
      "id": 3543,
      "nome": "Skip Beat! (Dublado)",
      "link": "https://animefire.plus/animes/skip-beat-dublado-todos-os-episodios",
      "texto_original": "Skip Beat! (Dublado)",
      "rating": 8.08,
      "classificacao_etaria": "A14",
      "imagem_original": "https://animefire.plus/img/animes/skip-beat.webp",
      "imagem_pasta": "https://animefire.plus/img/animes/skip-beat/",
      "secao": "dublados,legendados",
      "pagina": 3,
      "total_episodios": 25,
      "link_video": "https://animefire.plus/video/skip-beat-dublado"
    }
  ],
  "pagination": {
    "current_page": 173,
    "per_page": 20,
    "total_items": 4269,
    "total_pages": 214,
    "has_next": true,
    "has_prev": true
  }
}
