{
  "message": "Animes da seção: legendados",
  "section": "legendados",
  "data": [
    {
      "id": 2929,
      "nome": "Ousama Ranking (Dublado)",
      "link": "https://animefire.plus/animes/ousama-ranking-dublado-todos-os-episodios",
      "texto_original": "Ousama Ranking (Dublado)",
      "rating": 8.49,
      "classificacao_etaria": "A14",
      "imagem_original": "https://animefire.plus/img/animes/ousama-ranking.webp",
      "imagem_pasta": "https://animefire.plus/img/animes/ousama-ranking/",
      "secao": "dublados,legendados",
      "pagina": 14,
      "total_episodios": 23,
      "link_video": "https://animefire.plus/video/ousama-ranking-dublado"
    },
    {
      "id": 2930,
      "nome": "Oushitsu Kyoushi Heine",
      "link": "https://animefire.plus/animes/oushitsu-kyoushi-heine-todos-os-episodios",
      "texto_original": "Oushitsu Kyoushi Heine",
      "rating": 7.51,
      "classificacao_etaria": "A14",
      "imagem_original": "https://animefire.plus/img/animes/oushitsu-kyoushi-heine.webp",
      "imagem_pasta": "https://animefire.plus/img/animes/oushitsu-kyoushi-heine/",
      "secao": "legendados",
      "pagina": 64,
      "total_episodios": 12,
      "link_video": "https://animefire.plus/video/oushitsu-kyoushi-heine"
    },
    {
      "id": 2931,
      "nome": "Outbreak Company",
      "link": "https://animefire.plus/animes/outbreak-company-todos-os-episodios",
      "texto_original": "Outbreak Company",
      "rating": 7.44,
      "classificacao_etaria": "A14",
      "imagem_original": "https://animefire.plus/img/animes/outbreak-company.webp",
      "imagem_pasta": "https://animefire.plus/img/animes/outbreak-company/",
      "secao": "legendados",
      "pagina": 155,
      "total_episodios": 4,
      "link_video": "https://animefire.plus/video/outbreak-company"
    },
    {
      "id": 2932,
      "nome": "Over Drive",
      "link": "https://animefire.plus/animes/over-drive-todos-os-episodios",
      "texto_original": "Over Drive",
      "rating": 7.66,
      "classificacao_etaria": "A14",
      "imagem_original": "https://animefire.plus/img/animes/over-drive.webp",
      "imagem_pasta": "https://animefire.plus/img/animes/over-drive/",
      "secao": "legendados",
      "pagina": 159,
      "total_episodios": 26,
      "link_video": "https://animefire.plus/video/over-drive"
    },
    {
      "id": 2933,
      "nome": "Overlord (Dublado)",
      "link": "https://animefire.plus/animes/overlord-dublado-todos-os-episodios",
      "texto_original": "Overlord (Dublado)",
      "rating": 7.98,
      "classificacao_etaria": "A16",
      "imagem_original": "https://animefire.plus/img/animes/overlord.webp",
      "imagem_pasta": "https://animefire.plus/img/animes/overlord/",
      "secao": "dublados,legendados",
      "pagina": 19,
      "total_episodios": 13,
      "link_video": "https://animefire.plus/video/overlord-dublado"
    },
    {
      "id": 2934,
      "nome": "Overlord II (Dublado)",
      "link": "https://animefire.plus/animes/overlord-ii-dublado-todos-os-episodios",
      "texto_original": "Overlord II (Dublado)",
      "rating": 7.8,
      "classificacao_etaria": "A16",
      "imagem_original": "https://animefire.plus/img/animes/overlord-ii.webp",
      "imagem_pasta": "https://animefire.plus/img/animes/overlord-ii/",
      "secao": "dublados,legendados",
      "pagina": 19,
      "total_episodios": 13,
      "link_video": "https://animefire.plus/video/overlord-ii-dublado"
    },
    {
      "id": 2935,
      "nome": "Overlord III (Dublado)",
      "link": "https://animefire.plus/animes/overlord-iii-dublado-todos-os-episodios",
      "texto_original": "Overlord III (Dublado)",
      "rating": 7.98,
      "classificacao_etaria": "A16",
      "imagem_original": "https://animefire.plus/img/animes/overlord-iii.webp",
      "imagem_pasta": "https://animefire.plus/img/animes/overlord-iii/",
      "secao": "dublados,legendados",
      "pagina": 19,
      "total_episodios": 13,
      "link_video": "https://animefire.plus/video/overlord-iii-dublado"
    },
    {
      "id": 2936,
      "nome": "Overlord IV (Dublado)",
      "link": "https://animefire.plus/animes/overlord-iv-dublado-todos-os-episodios",
      "texto_original": "Overlord IV (Dublado)",
      "rating": 8.07,
      "classificacao_etaria": "A16",
      "imagem_original": "https://animefire.plus/img/animes/overlord-iv.webp",
      "imagem_pasta": "https://animefire.plus/img/animes/overlord-iv/",
      "secao": "dublados,legendados",
      "pagina": 10,
      "total_episodios": 13,
      "link_video": "https://animefire.plus/video/overlord-iv-dublado"
    },
    {
      "id": 2937,
      "nome": "Overlord: Ple Ple Pleiades",
      "link": "https://animefire.plus/animes/overlord-ple-ple-pleiades-todos-os-episodios",
      "texto_original": "Overlord: Ple Ple Pleiades",
      "rating": 7.07,
      "classificacao_etaria": "A14",
      "imagem_original": "https://animefire.plus/img/animes/overlord-ple-ple-pleiades.webp",
      "imagem_pasta": "https://animefire.plus/img/animes/overlord-ple-ple-pleiades/",
      "secao": "legendados",
      "pagina": 112,
      "total_episodios": 3,
      "link_video": "https://animefire.plus/video/overlord-ple-ple-pleiades"
    },
    {
      "id": 2938,
      "nome": "Overtake!",
      "link": "https://animefire.plus/animes/overtake-todos-os-episodios",
      "texto_original": "Overtake!",
      "rating": 7.52,
      "classificacao_etaria": "A14",
      "imagem_original": "https://animefire.plus/img/animes/overtake.webp",
      "imagem_pasta": "https://animefire.plus/img/animes/overtake/",
      "secao": "legendados",
      "pagina": 20,
      "total_episodios": 12,
      "link_video": "https://animefire.plus/video/overtake"
    },
    {
      "id": 2939,
      "nome": "Owari no Seraph (Dublado)",
      "link": "https://animefire.plus/animes/owari-no-seraph-dublado-todos-os-episodios",
      "texto_original": "Owari no Seraph (Dublado)",
      "rating": 7.49,
      "classificacao_etaria": "A16",
      "imagem_original": "https://animefire.plus/img/animes/owari-no-seraph.webp",
      "imagem_pasta": "https://animefire.plus/img/animes/owari-no-seraph/",
      "secao": "dublados,legendados",
      "pagina": 15,
      "total_episodios": 12,
      "link_video": "https://animefire.plus/video/owari-no-seraph-dublado"
    },
    {
      "id": 2940,
      "nome": "Owari no Seraph: Kyuuketsuki Shahar",
      "link": "https://animefire.plus/animes/owari-no-seraph-kyuuketsuki-shahar-todos-os-episodios",
      "texto_original": "Owari no Seraph: Kyuuketsuki Shahar",
      "rating": 7.18,
      "classificacao_etaria": "A16",
      "imagem_original": "https://animefire.plus/img/animes/owari-no-seraph-kyuuketsuki-shahar.webp",
      "imagem_pasta": "https://animefire.plus/img/animes/owari-no-seraph-kyuuketsuki-shahar/",
      "secao": "legendados",
      "pagina": 67,
      "total_episodios": 1,
      "link_video": "https://animefire.plus/video/owari-no-seraph-kyuuketsuki-shahar"
    },
    {
      "id": 2941,
      "nome": "Owari no Seraph: Nagoya Kessen-hen (Dublado)",
      "link": "https://animefire.plus/animes/owari-no-seraph-nagoya-kessen-hen-dublado-todos-os-episodios",
      "texto_original": "Owari no Seraph: Nagoya Kessen-hen (Dublado)",
      "rating": 7.63,
      "classificacao_etaria": "A16",
      "imagem_original": "https://animefire.plus/img/animes/owari-no-seraph-nagoya-kessen-hen.webp",
      "imagem_pasta": "https://animefire.plus/img/animes/owari-no-seraph-nagoya-kessen-hen/",
      "secao": "dublados,legendados",
      "pagina": 15,
      "total_episodios": 12,
      "link_video": "https://animefire.plus/video/owari-no-seraph-nagoya-kessen-hen-dublado"
    },
    {
      "id": 2942,
      "nome": "Owarimonogatari",
      "link": "https://animefire.plus/animes/owarimonogatari-todos-os-episodios",
      "texto_original": "Owarimonogatari",
      "rating": 8.46,
      "classificacao_etaria": "A16",
      "imagem_original": "https://animefire.plus/img/animes/owarimonogatari.webp",
      "imagem_pasta": "https://animefire.plus/img/animes/owarimonogatari/",
      "secao": "legendados",
      "pagina": 74,
      "total_episodios": 12,
      "link_video": "https://animefire.plus/video/owarimonogatari"
    },
    {
      "id": 2943,
      "nome": "Owarimonogatari 2nd Season",
      "link": "https://animefire.plus/animes/owarimonogatari-2nd-season-todos-os-episodios",
      "texto_original": "Owarimonogatari 2nd Season",
      "rating": 8.95,
      "classificacao_etaria": "A16",
      "imagem_original": "https://animefire.plus/img/animes/owarimonogatari-2nd-season.webp",
      "imagem_pasta": "https://animefire.plus/img/animes/owarimonogatari-2nd-season/",
      "secao": "legendados",
      "pagina": 99,
      "total_episodios": 3,
      "link_video": "https://animefire.plus/video/owarimonogatari-2nd-season"
    },
    {
      "id": 2944,
      "nome": "Ozma",
      "link": "https://animefire.plus/animes/ozma-todos-os-episodios",
      "texto_original": "Ozma",
      "rating": 6.13,
      "classificacao_etaria": "A14",
      "imagem_original": "https://animefire.plus/img/animes/ozma.webp",
      "imagem_pasta": "https://animefire.plus/img/animes/ozma/",
      "secao": "legendados",
      "pagina": 139,
      "total_episodios": 6,
      "link_video": "https://animefire.plus/video/ozma"
    },
    {
      "id": 2945,
      "nome": "Ozmafia!!",
      "link": "https://animefire.plus/animes/ozmafia-todos-os-episodios",
      "texto_original": "Ozmafia!!",
      "rating": 5.5,
      "classificacao_etaria": "A14",
      "imagem_original": "https://animefire.plus/img/animes/ozmafia.webp",
      "imagem_pasta": "https://animefire.plus/img/animes/ozmafia/",
      "secao": "legendados",
      "pagina": 144,
      "total_episodios": 0,
      "link_video": "https://animefire.plus/video/ozmafia"
    },
    {
      "id": 2946,
      "nome": "Pan de Peace!",
      "link": "https://animefire.plus/animes/pan-de-peace-todos-os-episodios",
      "texto_original": "Pan de Peace!",
      "rating": 5.61,
      "classificacao_etaria": "A14",
      "imagem_original": "https://animefire.plus/img/animes/pan-de-peace.webp",
      "imagem_pasta": "https://animefire.plus/img/animes/pan-de-peace/",
      "secao": "legendados",
      "pagina": 61,
      "total_episodios": 13,
      "link_video": "https://animefire.plus/video/pan-de-peace"
    },
    {
      "id": 2947,
      "nome": "Pandora Hearts",
      "link": "https://animefire.plus/animes/pandora-hearts-todos-os-episodios",
      "texto_original": "Pandora Hearts",
      "rating": 7.81,
      "classificacao_etaria": "A14",
      "imagem_original": "https://animefire.plus/img/animes/pandora-hearts.webp",
      "imagem_pasta": "https://animefire.plus/img/animes/pandora-hearts/",
      "secao": "legendados",
      "pagina": 162,
      "total_episodios": 25,
      "link_video": "https://animefire.plus/video/pandora-hearts"
    },
    {
      "id": 2948,
      "nome": "Pandora to Akubi",
      "link": "https://animefire.plus/animes/pandora-to-akubi-todos-os-episodios",
      "texto_original": "Pandora to Akubi",
      "rating": 6.13,
      "classificacao_etaria": null,
      "imagem_original": "https://animefire.plus/img/animes/pandora-to-akubi.webp",
      "imagem_pasta": "https://animefire.plus/img/animes/pandora-to-akubi/",
      "secao": "legendados",
      "pagina": 89,
      "total_episodios": 2,
      "link_video": "https://animefire.plus/video/pandora-to-akubi"
    }
  ],
  "pagination": {
    "current_page": 144,
    "per_page": 20,
    "total_items": 4269,
    "total_pages": 214,
    "has_next": true,
    "has_prev": true
  }
}
