{
  "message": "Animes da seção: legendados",
  "section": "legendados",
  "data": [
    {
      "id": 934,
      "nome": "El Hazard: The Magnificent World",
      "link": "https://animefire.plus/animes/el-hazard-the-magnificent-world-todos-os-episodios",
      "texto_original": "El Hazard: The Magnificent World",
      "rating": 7.34,
      "classificacao_etaria": "A14",
      "imagem_original": "https://animefire.plus/img/animes/el-hazard-the-magnificent-world.webp",
      "imagem_pasta": "https://animefire.plus/img/animes/el-hazard-the-magnificent-world/",
      "secao": "legendados",
      "pagina": 63,
      "total_episodios": 7,
      "link_video": "https://animefire.plus/video/el-hazard-the-magnificent-world"
    },
    {
      "id": 935,
      "nome": "El Hazard: The Wanderers",
      "link": "https://animefire.plus/animes/el-hazard-the-wanderers-todos-os-episodios",
      "texto_original": "El Hazard: The Wanderers",
      "rating": 7.04,
      "classificacao_etaria": "A14",
      "imagem_original": "https://animefire.plus/img/animes/el-hazard-the-wanderers.webp",
      "imagem_pasta": "https://animefire.plus/img/animes/el-hazard-the-wanderers/",
      "secao": "legendados",
      "pagina": 95,
      "total_episodios": 0,
      "link_video": "https://animefire.plus/video/el-hazard-the-wanderers"
    },
    {
      "id": 936,
      "nome": "ēlDLIVE",
      "link": "https://animefire.plus/animes/eldlive-todos-os-episodios",
      "texto_original": "ēlDLIVE",
      "rating": 6.25,
      "classificacao_etaria": "A14",
      "imagem_original": "https://animefire.plus/img/animes/eldlive.webp",
      "imagem_pasta": "https://animefire.plus/img/animes/eldlive/",
      "secao": "legendados",
      "pagina": 154,
      "total_episodios": 1,
      "link_video": "https://animefire.plus/video/eldlive"
    },
    {
      "id": 937,
      "nome": "Element Hunters",
      "link": "https://animefire.plus/animes/element-hunters-todos-os-episodios",
      "texto_original": "Element Hunters",
      "rating": 6.69,
      "classificacao_etaria": null,
      "imagem_original": "https://animefire.plus/img/animes/element-hunters.webp",
      "imagem_pasta": "https://animefire.plus/img/animes/element-hunters/",
      "secao": "legendados",
      "pagina": 167,
      "total_episodios": 13,
      "link_video": "https://animefire.plus/video/element-hunters"
    },
    {
      "id": 938,
      "nome": "Elf wo Karu Mono-tachi",
      "link": "https://animefire.plus/animes/elf-wo-karu-mono-tachi-todos-os-episodios",
      "texto_original": "Elf wo Karu Mono-tachi",
      "rating": 7.08,
      "classificacao_etaria": "A14",
      "imagem_original": "https://animefire.plus/img/animes/elf-wo-karu-mono-tachi.webp",
      "imagem_pasta": "https://animefire.plus/img/animes/elf-wo-karu-mono-tachi/",
      "secao": "legendados",
      "pagina": 142,
      "total_episodios": 0,
      "link_video": "https://animefire.plus/video/elf-wo-karu-mono-tachi"
    },
    {
      "id": 939,
      "nome": "Elf wo Karu Mono-tachi II",
      "link": "https://animefire.plus/animes/elf-wo-karu-mono-tachi-ii-todos-os-episodios",
      "texto_original": "Elf wo Karu Mono-tachi II",
      "rating": 7.11,
      "classificacao_etaria": "A14",
      "imagem_original": "https://animefire.plus/img/animes/elf-wo-karu-mono-tachi-ii.webp",
      "imagem_pasta": "https://animefire.plus/img/animes/elf-wo-karu-mono-tachi-ii/",
      "secao": "legendados",
      "pagina": 172,
      "total_episodios": 0,
      "link_video": "https://animefire.plus/video/elf-wo-karu-mono-tachi-ii"
    },
    {
      "id": 940,
      "nome": "Elf-san wa Yaserarenai.",
      "link": "https://animefire.plus/animes/elf-san-wa-yaserarenai-todos-os-episodios",
      "texto_original": "Elf-san wa Yaserarenai.",
      "rating": 5.6,
      "classificacao_etaria": "A18",
      "imagem_original": "https://animefire.plus/img/animes/elf-san-wa-yaserarenai.webp",
      "imagem_pasta": "https://animefire.plus/img/animes/elf-san-wa-yaserarenai/",
      "secao": "legendados",
      "pagina": 12,
      "total_episodios": 12,
      "link_video": "https://animefire.plus/video/elf-san-wa-yaserarenai"
    },
    {
      "id": 941,
      "nome": "Elfen Lied",
      "link": "https://animefire.plus/animes/elfen-lied-todos-os-episodios",
      "texto_original": "Elfen Lied",
      "rating": 7.7,
      "classificacao_etaria": "A18",
      "imagem_original": "https://animefire.plus/img/animes/elfen-lied.webp",
      "imagem_pasta": "https://animefire.plus/img/animes/elfen-lied/",
      "secao": "legendados",
      "pagina": 130,
      "total_episodios": 13,
      "link_video": "https://animefire.plus/video/elfen-lied"
    },
    {
      "id": 942,
      "nome": "Elsword: El-ui Yeoin",
      "link": "https://animefire.plus/animes/elsword-el-ui-yeoin-todos-os-episodios",
      "texto_original": "Elsword: El-ui Yeoin",
      "rating": 6.26,
      "classificacao_etaria": "A14",
      "imagem_original": "https://animefire.plus/img/animes/elsword-el-ui-yeoin.webp",
      "imagem_pasta": "https://animefire.plus/img/animes/elsword-el-ui-yeoin/",
      "secao": "legendados",
      "pagina": 168,
      "total_episodios": 2,
      "link_video": "https://animefire.plus/video/elsword-el-ui-yeoin"
    },
    {
      "id": 943,
      "nome": "Emiya-san Chi no Kyou no Gohan",
      "link": "https://animefire.plus/animes/emiya-san-chi-no-kyou-no-gohan-todos-os-episodios",
      "texto_original": "Emiya-san Chi no Kyou no Gohan",
      "rating": 7.91,
      "classificacao_etaria": "A14",
      "imagem_original": "https://animefire.plus/img/animes/emiya-san-chi-no-kyou-no-gohan.webp",
      "imagem_pasta": "https://animefire.plus/img/animes/emiya-san-chi-no-kyou-no-gohan/",
      "secao": "legendados",
      "pagina": 162,
      "total_episodios": 5,
      "link_video": "https://animefire.plus/video/emiya-san-chi-no-kyou-no-gohan"
    },
    {
      "id": 944,
      "nome": "Endride",
      "link": "https://animefire.plus/animes/endride-todos-os-episodios",
      "texto_original": "Endride",
      "rating": 5.76,
      "classificacao_etaria": "A14",
      "imagem_original": "https://animefire.plus/img/animes/endride.webp",
      "imagem_pasta": "https://animefire.plus/img/animes/endride/",
      "secao": "legendados",
      "pagina": 159,
      "total_episodios": 5,
      "link_video": "https://animefire.plus/video/endride"
    },
    {
      "id": 945,
      "nome": "Endro~!",
      "link": "https://animefire.plus/animes/endro-todos-os-episodios",
      "texto_original": "Endro~!",
      "rating": 6.95,
      "classificacao_etaria": "A14",
      "imagem_original": "https://animefire.plus/img/animes/endro.webp",
      "imagem_pasta": "https://animefire.plus/img/animes/endro/",
      "secao": "legendados",
      "pagina": 90,
      "total_episodios": 12,
      "link_video": "https://animefire.plus/video/endro"
    },
    {
      "id": 946,
      "nome": "Enen no Shouboutai (Dublado)",
      "link": "https://animefire.plus/animes/enen-no-shouboutai-dublado-todos-os-episodios",
      "texto_original": "Enen no Shouboutai (Dublado)",
      "rating": 7.68,
      "classificacao_etaria": "A14",
      "imagem_original": "https://animefire.plus/img/animes/enen-no-shouboutai.webp",
      "imagem_pasta": "https://animefire.plus/img/animes/enen-no-shouboutai/",
      "secao": "dublados,legendados",
      "pagina": 14,
      "total_episodios": 24,
      "link_video": "https://animefire.plus/video/enen-no-shouboutai-dublado"
    },
    {
      "id": 947,
      "nome": "Enen no Shouboutai: Ni no Shou (Dublado)",
      "link": "https://animefire.plus/animes/enen-no-shouboutai-ni-no-shou-dublado-todos-os-episodios",
      "texto_original": "Enen no Shouboutai: Ni no Shou (Dublado)",
      "rating": 7.76,
      "classificacao_etaria": "A14",
      "imagem_original": "https://animefire.plus/img/animes/enen-no-shouboutai-ni-no-shou.webp",
      "imagem_pasta": "https://animefire.plus/img/animes/enen-no-shouboutai-ni-no-shou/",
      "secao": "dublados,legendados",
      "pagina": 14,
      "total_episodios": 24,
      "link_video": "https://animefire.plus/video/enen-no-shouboutai-ni-no-shou-dublado"
    },
    {
      "id": 948,
      "nome": "Enen no Shouboutai: San no Shou (Dublado)",
      "link": "https://animefire.plus/animes/enen-no-shouboutai-san-no-shou-dublado-todos-os-episodios",
      "texto_original": "Enen no Shouboutai: San no Shou (Dublado)",
      "rating": 7.71,
      "classificacao_etaria": "A14",
      "imagem_original": "https://animefire.plus/img/animes/enen-no-shouboutai-san-no-shou.webp",
      "imagem_pasta": "https://animefire.plus/img/animes/enen-no-shouboutai-san-no-shou/",
      "secao": "dublados,legendados,lancamentos",
      "pagina": 1,
      "total_episodios": 12,
      "link_video": "https://animefire.plus/video/enen-no-shouboutai-san-no-shou-dublado"
    },
    {
      "id": 949,
      "nome": "Engage Kiss",
      "link": "https://animefire.plus/animes/engage-kiss-todos-os-episodios",
      "texto_original": "Engage Kiss",
      "rating": 6.79,
      "classificacao_etaria": "A14",
      "imagem_original": "https://animefire.plus/img/animes/engage-kiss.webp",
      "imagem_pasta": "https://animefire.plus/img/animes/engage-kiss/",
      "secao": "legendados",
      "pagina": 32,
      "total_episodios": 13,
      "link_video": "https://animefire.plus/video/engage-kiss"
    },
    {
      "id": 950,
      "nome": "Ensemble Stars!",
      "link": "https://animefire.plus/animes/ensemble-stars-todos-os-episodios",
      "texto_original": "Ensemble Stars!",
      "rating": 6.83,
      "classificacao_etaria": "A14",
      "imagem_original": "https://animefire.plus/img/animes/ensemble-stars.webp",
      "imagem_pasta": "https://animefire.plus/img/animes/ensemble-stars/",
      "secao": "legendados",
      "pagina": 159,
      "total_episodios": 8,
      "link_video": "https://animefire.plus/video/ensemble-stars"
    },
    {
      "id": 951,
      "nome": "Erementar Gerad",
      "link": "https://animefire.plus/animes/erementar-gerad-todos-os-episodios",
      "texto_original": "Erementar Gerad",
      "rating": 7.37,
      "classificacao_etaria": "A14",
      "imagem_original": "https://animefire.plus/img/animes/erementar-gerad.webp",
      "imagem_pasta": "https://animefire.plus/img/animes/erementar-gerad/",
      "secao": "legendados",
      "pagina": 122,
      "total_episodios": 0,
      "link_video": "https://animefire.plus/video/erementar-gerad"
    },
    {
      "id": 952,
      "nome": "Ergo Proxy",
      "link": "https://animefire.plus/animes/ergo-proxy-todos-os-episodios",
      "texto_original": "Ergo Proxy",
      "rating": 7.97,
      "classificacao_etaria": "A16",
      "imagem_original": "https://animefire.plus/img/animes/ergo-proxy.webp",
      "imagem_pasta": "https://animefire.plus/img/animes/ergo-proxy/",
      "secao": "legendados",
      "pagina": 172,
      "total_episodios": 23,
      "link_video": "https://animefire.plus/video/ergo-proxy"
    },
    {
      "id": 953,
      "nome": "Eromanga-sensei",
      "link": "https://animefire.plus/animes/eromanga-sensei-todos-os-episodios",
      "texto_original": "Eromanga-sensei",
      "rating": 6.79,
      "classificacao_etaria": "A14",
      "imagem_original": "https://animefire.plus/img/animes/eromanga-sensei.webp",
      "imagem_pasta": "https://animefire.plus/img/animes/eromanga-sensei/",
      "secao": "legendados",
      "pagina": 108,
      "total_episodios": 12,
      "link_video": "https://animefire.plus/video/eromanga-sensei"
    }
  ],
  "pagination": {
    "current_page": 46,
    "per_page": 20,
    "total_items": 4269,
    "total_pages": 214,
    "has_next": true,
    "has_prev": true
  }
}
