{
  "message": "Animes da seção: legendados",
  "section": "legendados",
  "data": [
    {
      "id": 2606,
      "nome": "Muhyo to Rouji no Mahouritsu Soudan Jimusho",
      "link": "https://animefire.plus/animes/muhyo-to-rouji-no-mahouritsu-soudan-jimusho-todos-os-episodios",
      "texto_original": "Muhyo to Rouji no Mahouritsu Soudan Jimusho",
      "rating": 6.72,
      "classificacao_etaria": "A14",
      "imagem_original": "https://animefire.plus/img/animes/muhyo-to-rouji-no-mahouritsu-soudan-jimusho.webp",
      "imagem_pasta": "https://animefire.plus/img/animes/muhyo-to-rouji-no-mahouritsu-soudan-jimusho/",
      "secao": "legendados",
      "pagina": 122,
      "total_episodios": 12,
      "link_video": "https://animefire.plus/video/muhyo-to-rouji-no-mahouritsu-soudan-jimusho"
    },
    {
      "id": 2607,
      "nome": "Muhyo to Rouji no Mahouritsu Soudan Jimusho 2nd Season",
      "link": "https://animefire.plus/animes/muhyo-to-rouji-no-mahouritsu-soudan-jimusho-2nd-season-todos-os-episodios",
      "texto_original": "Muhyo to Rouji no Mahouritsu Soudan Jimusho 2nd Season",
      "rating": 6.84,
      "classificacao_etaria": "A14",
      "imagem_original": "https://animefire.plus/img/animes/muhyo-to-rouji-no-mahouritsu-soudan-jimusho-2nd-season.webp",
      "imagem_pasta": "https://animefire.plus/img/animes/muhyo-to-rouji-no-mahouritsu-soudan-jimusho-2nd-season/",
      "secao": "legendados",
      "pagina": 58,
      "total_episodios": 5,
      "link_video": "https://animefire.plus/video/muhyo-to-rouji-no-mahouritsu-soudan-jimusho-2nd-season"
    },
    {
      "id": 2608,
      "nome": "Mujaki No Rakuen",
      "link": "https://animefire.plus/animes/mujaki-no-rakuen-todos-os-episodios",
      "texto_original": "Mujaki No Rakuen",
      "rating": 6.02,
      "classificacao_etaria": "A14",
      "imagem_original": "https://animefire.plus/img/animes/mujaki-no-rakuen.webp",
      "imagem_pasta": "https://animefire.plus/img/animes/mujaki-no-rakuen/",
      "secao": "legendados",
      "pagina": 109,
      "total_episodios": 3,
      "link_video": "https://animefire.plus/video/mujaki-no-rakuen"
    },
    {
      "id": 2609,
      "nome": "Mujin Wakusei Survive (Dublado)",
      "link": "https://animefire.plus/animes/mujin-wakusei-survive-dublado-todos-os-episodios",
      "texto_original": "Mujin Wakusei Survive (Dublado)",
      "rating": 7.74,
      "classificacao_etaria": null,
      "imagem_original": "https://animefire.plus/img/animes/mujin-wakusei-survive.webp",
      "imagem_pasta": "https://animefire.plus/img/animes/mujin-wakusei-survive/",
      "secao": "dublados,legendados",
      "pagina": 27,
      "total_episodios": 52,
      "link_video": "https://animefire.plus/video/mujin-wakusei-survive-dublado"
    },
    {
      "id": 2610,
      "nome": "Munou na Nana",
      "link": "https://animefire.plus/animes/munou-na-nana-todos-os-episodios",
      "texto_original": "Munou na Nana",
      "rating": null,
      "classificacao_etaria": "A16",
      "imagem_original": "https://animefire.plus/img/animes/munou-na-nana.webp",
      "imagem_pasta": "https://animefire.plus/img/animes/munou-na-nana/",
      "secao": "legendados",
      "pagina": 52,
      "total_episodios": 13,
      "link_video": "https://animefire.plus/video/munou-na-nana"
    },
    {
      "id": 2611,
      "nome": "Murai no Koi",
      "link": "https://animefire.plus/animes/murai-no-koi-todos-os-episodios",
      "texto_original": "Murai no Koi",
      "rating": 7.52,
      "classificacao_etaria": "A14",
      "imagem_original": "https://animefire.plus/img/animes/murai-no-koi.webp",
      "imagem_pasta": "https://animefire.plus/img/animes/murai-no-koi/",
      "secao": "legendados",
      "pagina": 9,
      "total_episodios": 12,
      "link_video": "https://animefire.plus/video/murai-no-koi"
    },
    {
      "id": 2612,
      "nome": "Murder Mystery of the Dead",
      "link": "https://animefire.plus/animes/murder-mystery-of-the-dead-todos-os-episodios",
      "texto_original": "Murder Mystery of the Dead",
      "rating": null,
      "classificacao_etaria": "A16",
      "imagem_original": "https://animefire.plus/img/animes/murder-mystery-of-the-dead.webp",
      "imagem_pasta": "https://animefire.plus/img/animes/murder-mystery-of-the-dead/",
      "secao": "legendados,lancamentos",
      "pagina": 10,
      "total_episodios": 0,
      "link_video": "https://animefire.plus/video/murder-mystery-of-the-dead"
    },
    {
      "id": 2613,
      "nome": "Murenase! Seton Gakuen",
      "link": "https://animefire.plus/animes/murenase-seton-gakuen-todos-os-episodios",
      "texto_original": "Murenase! Seton Gakuen",
      "rating": 7.08,
      "classificacao_etaria": "A14",
      "imagem_original": "https://animefire.plus/img/animes/murenase-seton-gakuen.webp",
      "imagem_pasta": "https://animefire.plus/img/animes/murenase-seton-gakuen/",
      "secao": "legendados",
      "pagina": 93,
      "total_episodios": 12,
      "link_video": "https://animefire.plus/video/murenase-seton-gakuen"
    },
    {
      "id": 2614,
      "nome": "Musaigen no Phantom World",
      "link": "https://animefire.plus/animes/musaigen-no-phantom-world-todos-os-episodios",
      "texto_original": "Musaigen no Phantom World",
      "rating": 6.98,
      "classificacao_etaria": "A14",
      "imagem_original": "https://animefire.plus/img/animes/musaigen-no-phantom-world.webp",
      "imagem_pasta": "https://animefire.plus/img/animes/musaigen-no-phantom-world/",
      "secao": "legendados",
      "pagina": 159,
      "total_episodios": 3,
      "link_video": "https://animefire.plus/video/musaigen-no-phantom-world"
    },
    {
      "id": 2615,
      "nome": "Musashino!",
      "link": "https://animefire.plus/animes/musashino-todos-os-episodios",
      "texto_original": "Musashino!",
      "rating": 4.65,
      "classificacao_etaria": "A10",
      "imagem_original": "https://animefire.plus/img/animes/musashino.webp",
      "imagem_pasta": "https://animefire.plus/img/animes/musashino/",
      "secao": "legendados",
      "pagina": 32,
      "total_episodios": 12,
      "link_video": "https://animefire.plus/video/musashino"
    },
    {
      "id": 2616,
      "nome": "Mushibugyou",
      "link": "https://animefire.plus/animes/mushibugyou-todos-os-episodios",
      "texto_original": "Mushibugyou",
      "rating": 7.42,
      "classificacao_etaria": "A14",
      "imagem_original": "https://animefire.plus/img/animes/mushibugyou.webp",
      "imagem_pasta": "https://animefire.plus/img/animes/mushibugyou/",
      "secao": "legendados",
      "pagina": 106,
      "total_episodios": 26,
      "link_video": "https://animefire.plus/video/mushibugyou"
    },
    {
      "id": 2617,
      "nome": "Mushibugyou OVA",
      "link": "https://animefire.plus/animes/mushibugyou-ova-todos-os-episodios",
      "texto_original": "Mushibugyou OVA",
      "rating": 7.14,
      "classificacao_etaria": "A14",
      "imagem_original": "https://animefire.plus/img/animes/mushibugyou-ova.webp",
      "imagem_pasta": "https://animefire.plus/img/animes/mushibugyou-ova/",
      "secao": "legendados",
      "pagina": 128,
      "total_episodios": 3,
      "link_video": "https://animefire.plus/video/mushibugyou-ova"
    },
    {
      "id": 2618,
      "nome": "Mushikaburi-hime",
      "link": "https://animefire.plus/animes/mushikaburi-hime-todos-os-episodios",
      "texto_original": "Mushikaburi-hime",
      "rating": 6.87,
      "classificacao_etaria": "A14",
      "imagem_original": "https://animefire.plus/img/animes/mushikaburi-hime.webp",
      "imagem_pasta": "https://animefire.plus/img/animes/mushikaburi-hime/",
      "secao": "legendados",
      "pagina": 29,
      "total_episodios": 12,
      "link_video": "https://animefire.plus/video/mushikaburi-hime"
    },
    {
      "id": 2619,
      "nome": "Mushikago no Cagaster (Dublado)",
      "link": "https://animefire.plus/animes/mushikago-no-cagaster-dublado-todos-os-episodios",
      "texto_original": "Mushikago no Cagaster (Dublado)",
      "rating": 6.57,
      "classificacao_etaria": "A16",
      "imagem_original": "https://animefire.plus/img/animes/mushikago-no-cagaster.webp",
      "imagem_pasta": "https://animefire.plus/img/animes/mushikago-no-cagaster/",
      "secao": "dublados,legendados",
      "pagina": 25,
      "total_episodios": 12,
      "link_video": "https://animefire.plus/video/mushikago-no-cagaster-dublado"
    },
    {
      "id": 2620,
      "nome": "Mushishi (Dublado)",
      "link": "https://animefire.plus/animes/mushishi-dublado-todos-os-episodios",
      "texto_original": "Mushishi (Dublado)",
      "rating": 8.71,
      "classificacao_etaria": "A14",
      "imagem_original": "https://animefire.plus/img/animes/mushishi.webp",
      "imagem_pasta": "https://animefire.plus/img/animes/mushishi/",
      "secao": "dublados,legendados",
      "pagina": 25,
      "total_episodios": 26,
      "link_video": "https://animefire.plus/video/mushishi-dublado"
    },
    {
      "id": 2621,
      "nome": "Mushishi Zoku Shou",
      "link": "https://animefire.plus/animes/mushishi-zoku-shou-todos-os-episodios",
      "texto_original": "Mushishi Zoku Shou",
      "rating": 8.74,
      "classificacao_etaria": "A14",
      "imagem_original": "https://animefire.plus/img/animes/mushishi-zoku-shou.webp",
      "imagem_pasta": "https://animefire.plus/img/animes/mushishi-zoku-shou/",
      "secao": "legendados",
      "pagina": 135,
      "total_episodios": 10,
      "link_video": "https://animefire.plus/video/mushishi-zoku-shou"
    },
    {
      "id": 2622,
      "nome": "Mushishi: Hihamukage",
      "link": "https://animefire.plus/animes/mushishi-hihamukage-todos-os-episodios",
      "texto_original": "Mushishi: Hihamukage",
      "rating": 8.6,
      "classificacao_etaria": "A14",
      "imagem_original": "https://animefire.plus/img/animes/mushishi-hihamukage.webp",
      "imagem_pasta": "https://animefire.plus/img/animes/mushishi-hihamukage/",
      "secao": "legendados",
      "pagina": 65,
      "total_episodios": 1,
      "link_video": "https://animefire.plus/video/mushishi-hihamukage"
    },
    {
      "id": 2623,
      "nome": "Mushoku Tensei II: Isekai Ittara Honki Dasu",
      "link": "https://animefire.plus/animes/mushoku-tensei-ii-sekai-ittara-honki-dasu-todos-os-episodios",
      "texto_original": "Mushoku Tensei II: Isekai Ittara Honki Dasu",
      "rating": 8.22,
      "classificacao_etaria": "A16",
      "imagem_original": "https://animefire.plus/img/animes/mushoku-tensei-II-sekai-ittara-honki-dasu.jpg",
      "imagem_pasta": "https://animefire.plus/img/animes/mushoku-tensei-II-sekai-ittara-honki-dasu/",
      "secao": "legendados",
      "pagina": 23,
      "total_episodios": 4,
      "link_video": "https://animefire.plus/video/mushoku-tensei-ii-sekai-ittara-honki-dasu"
    },
    {
      "id": 2626,
      "nome": "Mushoku Tensei II: Isekai Ittara Honki Dasu Part 2",
      "link": "https://animefire.plus/animes/mushoku-tensei-ii-isekai-ittara-honki-dasu-part-2-todos-os-episodios",
      "texto_original": "Mushoku Tensei II: Isekai Ittara Honki Dasu Part 2",
      "rating": 8.41,
      "classificacao_etaria": "A16",
      "imagem_original": "https://animefire.plus/img/animes/mushoku-tensei-ii-isekai-ittara-honki-dasu-part-2.webp",
      "imagem_pasta": "https://animefire.plus/img/animes/mushoku-tensei-ii-isekai-ittara-honki-dasu-part-2/",
      "secao": "legendados",
      "pagina": 15,
      "total_episodios": 12,
      "link_video": "https://animefire.plus/video/mushoku-tensei-ii-isekai-ittara-honki-dasu-part-2"
    },
    {
      "id": 2627,
      "nome": "Mushoku Tensei: Isekai Ittara Honki Dasu (Dublado)",
      "link": "https://animefire.plus/animes/mushoku-tensei-isekai-ittara-honki-dasu-dublado-todos-os-episodios",
      "texto_original": "Mushoku Tensei: Isekai Ittara Honki Dasu (Dublado)",
      "rating": 8.35,
      "classificacao_etaria": "A16",
      "imagem_original": "https://animefire.plus/img/animes/mushoku-tensei-isekai-ittara-honki-dasu.webp",
      "imagem_pasta": "https://animefire.plus/img/animes/mushoku-tensei-isekai-ittara-honki-dasu/",
      "secao": "dublados,legendados",
      "pagina": 16,
      "total_episodios": 11,
      "link_video": "https://animefire.plus/video/mushoku-tensei-isekai-ittara-honki-dasu-dublado"
    }
  ],
  "pagination": {
    "current_page": 128,
    "per_page": 20,
    "total_items": 4269,
    "total_pages": 214,
    "has_next": true,
    "has_prev": true
  }
}
