{
  "message": "Animes da seção: legendados",
  "section": "legendados",
  "data": [
    {
      "id": 3278,
      "nome": "Schoolgirl Strikers: Animation Channel",
      "link": "https://animefire.plus/animes/schoolgirl-strikers-animation-channel-todos-os-episodios",
      "texto_original": "Schoolgirl Strikers: Animation Channel",
      "rating": 5.72,
      "classificacao_etaria": "A14",
      "imagem_original": "https://animefire.plus/img/animes/schoolgirl-strikers-animation-channel.webp",
      "imagem_pasta": "https://animefire.plus/img/animes/schoolgirl-strikers-animation-channel/",
      "secao": "legendados",
      "pagina": 118,
      "total_episodios": 13,
      "link_video": "https://animefire.plus/video/schoolgirl-strikers-animation-channel"
    },
    {
      "id": 3279,
      "nome": "Schwarzesmarken (Dublado)",
      "link": "https://animefire.plus/animes/schwarzesmarken-dublado-todos-os-episodios",
      "texto_original": "Schwarzesmarken (Dublado)",
      "rating": 6.85,
      "classificacao_etaria": "A16",
      "imagem_original": "https://animefire.plus/img/animes/schwarzesmarken.webp",
      "imagem_pasta": "https://animefire.plus/img/animes/schwarzesmarken/",
      "secao": "dublados,legendados",
      "pagina": 23,
      "total_episodios": 12,
      "link_video": "https://animefire.plus/video/schwarzesmarken-dublado"
    },
    {
      "id": 3280,
      "nome": "Scrapped Princess",
      "link": "https://animefire.plus/animes/scrapped-princess-todos-os-episodios",
      "texto_original": "Scrapped Princess",
      "rating": 7.46,
      "classificacao_etaria": "A14",
      "imagem_original": "https://animefire.plus/img/animes/scrapped-princess.webp",
      "imagem_pasta": "https://animefire.plus/img/animes/scrapped-princess/",
      "secao": "legendados",
      "pagina": 125,
      "total_episodios": 24,
      "link_video": "https://animefire.plus/video/scrapped-princess"
    },
    {
      "id": 3281,
      "nome": "SD Gundam World Heroes",
      "link": "https://animefire.plus/animes/sd-gundam-world-heroes-todos-os-episodios",
      "texto_original": "SD Gundam World Heroes",
      "rating": 5.69,
      "classificacao_etaria": "A10",
      "imagem_original": "https://animefire.plus/img/animes/sd-gundam-world-heroes.webp",
      "imagem_pasta": "https://animefire.plus/img/animes/sd-gundam-world-heroes/",
      "secao": "legendados",
      "pagina": 46,
      "total_episodios": 24,
      "link_video": "https://animefire.plus/video/sd-gundam-world-heroes"
    },
    {
      "id": 3282,
      "nome": "SD Gundam World: Sangoku Souketsuden",
      "link": "https://animefire.plus/animes/sd-gundam-world-sangoku-souketsuden-todos-os-episodios",
      "texto_original": "SD Gundam World: Sangoku Souketsuden",
      "rating": 5.9,
      "classificacao_etaria": "A10",
      "imagem_original": "https://animefire.plus/img/animes/sd-gundam-world-sangoku-souketsuden.webp",
      "imagem_pasta": "https://animefire.plus/img/animes/sd-gundam-world-sangoku-souketsuden/",
      "secao": "legendados",
      "pagina": 62,
      "total_episodios": 0,
      "link_video": "https://animefire.plus/video/sd-gundam-world-sangoku-souketsuden"
    },
    {
      "id": 3283,
      "nome": "Seihou Tenshi Angel Links",
      "link": "https://animefire.plus/animes/seihou-tenshi-angel-links-todos-os-episodios",
      "texto_original": "Seihou Tenshi Angel Links",
      "rating": 6.01,
      "classificacao_etaria": "A14",
      "imagem_original": "https://animefire.plus/img/animes/seihou-tenshi-angel-links.webp",
      "imagem_pasta": "https://animefire.plus/img/animes/seihou-tenshi-angel-links/",
      "secao": "legendados",
      "pagina": 162,
      "total_episodios": 13,
      "link_video": "https://animefire.plus/video/seihou-tenshi-angel-links"
    },
    {
      "id": 3284,
      "nome": "Seija Musou: Salaryman, Isekai de Ikinokoru Tame ni Ayumu Mic",
      "link": "https://animefire.plus/animes/seija-musou-salaryman-isekai-de-ikinokoru-tame-ni-ayumu-michi-todos-os-episodios",
      "texto_original": "Seija Musou: Salaryman, Isekai de Ikinokoru Tame ni Ayumu Mic",
      "rating": 7.11,
      "classificacao_etaria": "A14",
      "imagem_original": "https://animefire.plus/img/animes/seija-musou-salaryman-isekai-de-ikinokoru-tame-ni-ayumu-michi.jpg",
      "imagem_pasta": "https://animefire.plus/img/animes/seija-musou-salaryman-isekai-de-ikinokoru-tame-ni-ayumu-michi/",
      "secao": "legendados",
      "pagina": 22,
      "total_episodios": 12,
      "link_video": "https://animefire.plus/video/seija-musou-salaryman-isekai-de-ikinokoru-tame-ni-ayumu-michi"
    },
    {
      "id": 3285,
      "nome": "Seija Musou: Salaryman, Isekai de Ikinokoru Tame ni Ayumu Michi",
      "link": "https://animefire.plus/animes/the-great-cleric-todos-os-episodios",
      "texto_original": "Seija Musou: Salaryman, Isekai de Ikinokoru Tame ni Ayumu Michi",
      "rating": 7.11,
      "classificacao_etaria": "A14",
      "imagem_original": "https://animefire.plus/img/animes/the-great-cleric.webp",
      "imagem_pasta": "https://animefire.plus/img/animes/the-great-cleric/",
      "secao": "legendados,lancamentos",
      "pagina": 21,
      "total_episodios": 0,
      "link_video": "https://animefire.plus/video/the-great-cleric"
    },
    {
      "id": 3286,
      "nome": "Seijo no Maryoku wa Bannou Desu (Dublado)",
      "link": "https://animefire.plus/animes/seijo-no-maryoku-wa-bannou-desu-dublado-todos-os-episodios",
      "texto_original": "Seijo no Maryoku wa Bannou Desu (Dublado)",
      "rating": 7.31,
      "classificacao_etaria": "A14",
      "imagem_original": "https://animefire.plus/img/animes/seijo-no-maryoku-wa-bannou-desu.webp",
      "imagem_pasta": "https://animefire.plus/img/animes/seijo-no-maryoku-wa-bannou-desu/",
      "secao": "dublados,legendados",
      "pagina": 14,
      "total_episodios": 12,
      "link_video": "https://animefire.plus/video/seijo-no-maryoku-wa-bannou-desu-dublado"
    },
    {
      "id": 3287,
      "nome": "Seijo no Maryoku wa Bannou desu Season 2",
      "link": "https://animefire.plus/animes/seijo-no-maryoku-wa-bannou-desu-season-2-todos-os-episodios",
      "texto_original": "Seijo no Maryoku wa Bannou desu Season 2",
      "rating": 7.44,
      "classificacao_etaria": "A14",
      "imagem_original": "https://animefire.plus/img/animes/seijo-no-maryoku-wa-bannou-desu-season-2.webp",
      "imagem_pasta": "https://animefire.plus/img/animes/seijo-no-maryoku-wa-bannou-desu-season-2/",
      "secao": "legendados",
      "pagina": 19,
      "total_episodios": 12,
      "link_video": "https://animefire.plus/video/seijo-no-maryoku-wa-bannou-desu-season-2"
    },
    {
      "id": 3288,
      "nome": "Seikai no Senki",
      "link": "https://animefire.plus/animes/seikai-no-senki-todos-os-episodios",
      "texto_original": "Seikai no Senki",
      "rating": 7.73,
      "classificacao_etaria": "A14",
      "imagem_original": "https://animefire.plus/img/animes/seikai-no-senki.webp",
      "imagem_pasta": "https://animefire.plus/img/animes/seikai-no-senki/",
      "secao": "legendados",
      "pagina": 54,
      "total_episodios": 13,
      "link_video": "https://animefire.plus/video/seikai-no-senki"
    },
    {
      "id": 3289,
      "nome": "Seikai no Senki II",
      "link": "https://animefire.plus/animes/seikai-no-senki-ii-todos-os-episodios",
      "texto_original": "Seikai no Senki II",
      "rating": 7.85,
      "classificacao_etaria": "A14",
      "imagem_original": "https://animefire.plus/img/animes/seikai-no-senki-ii.webp",
      "imagem_pasta": "https://animefire.plus/img/animes/seikai-no-senki-ii/",
      "secao": "legendados",
      "pagina": 54,
      "total_episodios": 10,
      "link_video": "https://animefire.plus/video/seikai-no-senki-ii"
    },
    {
      "id": 3290,
      "nome": "Seikai no Senki III",
      "link": "https://animefire.plus/animes/seikai-no-senki-iii-todos-os-episodios",
      "texto_original": "Seikai no Senki III",
      "rating": 7.71,
      "classificacao_etaria": "A14",
      "imagem_original": "https://animefire.plus/img/animes/seikai-no-senki-iii.webp",
      "imagem_pasta": "https://animefire.plus/img/animes/seikai-no-senki-iii/",
      "secao": "legendados",
      "pagina": 54,
      "total_episodios": 1,
      "link_video": "https://animefire.plus/video/seikai-no-senki-iii"
    },
    {
      "id": 3291,
      "nome": "Seikaisuru Kado",
      "link": "https://animefire.plus/animes/seikaisuru-kado-todos-os-episodios",
      "texto_original": "Seikaisuru Kado",
      "rating": 6.87,
      "classificacao_etaria": "A14",
      "imagem_original": "https://animefire.plus/img/animes/seikaisuru-kado.webp",
      "imagem_pasta": "https://animefire.plus/img/animes/seikaisuru-kado/",
      "secao": "legendados",
      "pagina": 73,
      "total_episodios": 12,
      "link_video": "https://animefire.plus/video/seikaisuru-kado"
    },
    {
      "id": 3292,
      "nome": "Seiken Densetsu: Legend of Mana - The Teardrop Crystal",
      "link": "https://animefire.plus/animes/seiken-densetsu-legend-of-mana---the-teardrop-crystal-todos-os-episodios",
      "texto_original": "Seiken Densetsu: Legend of Mana - The Teardrop Crystal",
      "rating": 5.47,
      "classificacao_etaria": "A14",
      "imagem_original": "https://animefire.plus/img/animes/seiken-densetsu-legend-of-mana---the-teardrop-crystal.webp",
      "imagem_pasta": "https://animefire.plus/img/animes/seiken-densetsu-legend-of-mana---the-teardrop-crystal/",
      "secao": "legendados",
      "pagina": 28,
      "total_episodios": 12,
      "link_video": "https://animefire.plus/video/seiken-densetsu-legend-of-mana---the-teardrop-crystal"
    },
    {
      "id": 3293,
      "nome": "Seiken Gakuin no Makentsukai",
      "link": "https://animefire.plus/animes/seiken-gakuin-no-makentsukai-todos-os-episodios",
      "texto_original": "Seiken Gakuin no Makentsukai",
      "rating": 6.2,
      "classificacao_etaria": "A14",
      "imagem_original": "https://animefire.plus/img/animes/seiken-gakuin-no-makentsukai.webp",
      "imagem_pasta": "https://animefire.plus/img/animes/seiken-gakuin-no-makentsukai/",
      "secao": "legendados",
      "pagina": 21,
      "total_episodios": 12,
      "link_video": "https://animefire.plus/video/seiken-gakuin-no-makentsukai"
    },
    {
      "id": 3294,
      "nome": "Seiken no Blacksmith",
      "link": "https://animefire.plus/animes/seiken-no-blacksmith-todos-os-episodios",
      "texto_original": "Seiken no Blacksmith",
      "rating": 6.86,
      "classificacao_etaria": "A18",
      "imagem_original": "https://animefire.plus/img/animes/seiken-no-blacksmith.webp",
      "imagem_pasta": "https://animefire.plus/img/animes/seiken-no-blacksmith/",
      "secao": "legendados",
      "pagina": 128,
      "total_episodios": 12,
      "link_video": "https://animefire.plus/video/seiken-no-blacksmith"
    },
    {
      "id": 3295,
      "nome": "Seiken Tsukai No World Break",
      "link": "https://animefire.plus/animes/seiken-tsukai-no-world-break-todos-os-episodios",
      "texto_original": "Seiken Tsukai No World Break",
      "rating": 7.11,
      "classificacao_etaria": "A16",
      "imagem_original": "https://animefire.plus/img/animes/seiken-tsukai-no-world-break.webp",
      "imagem_pasta": "https://animefire.plus/img/animes/seiken-tsukai-no-world-break/",
      "secao": "legendados",
      "pagina": 101,
      "total_episodios": 12,
      "link_video": "https://animefire.plus/video/seiken-tsukai-no-world-break"
    },
    {
      "id": 3296,
      "nome": "Seikimatsu Occult Gakuin",
      "link": "https://animefire.plus/animes/seikimatsu-occult-gakuin-todos-os-episodios",
      "texto_original": "Seikimatsu Occult Gakuin",
      "rating": 7.11,
      "classificacao_etaria": "A16",
      "imagem_original": "https://animefire.plus/img/animes/seikimatsu-occult-gakuin.webp",
      "imagem_pasta": "https://animefire.plus/img/animes/seikimatsu-occult-gakuin/",
      "secao": "legendados",
      "pagina": 175,
      "total_episodios": 13,
      "link_video": "https://animefire.plus/video/seikimatsu-occult-gakuin"
    },
    {
      "id": 3297,
      "nome": "Seikoku no Dragonar",
      "link": "https://animefire.plus/animes/seikoku-no-dragonar-todos-os-episodios",
      "texto_original": "Seikoku no Dragonar",
      "rating": 6.68,
      "classificacao_etaria": "A18",
      "imagem_original": "https://animefire.plus/img/animes/seikoku-no-dragonar.webp",
      "imagem_pasta": "https://animefire.plus/img/animes/seikoku-no-dragonar/",
      "secao": "legendados",
      "pagina": 157,
      "total_episodios": 0,
      "link_video": "https://animefire.plus/video/seikoku-no-dragonar"
    }
  ],
  "pagination": {
    "current_page": 161,
    "per_page": 20,
    "total_items": 4269,
    "total_pages": 214,
    "has_next": true,
    "has_prev": true
  }
}
