{
  "message": "Animes da seção: legendados",
  "section": "legendados",
  "data": [
    {
      "id": 2989,
      "nome": "Planetes",
      "link": "https://animefire.plus/animes/planetes-todos-os-episodios",
      "texto_original": "Planetes",
      "rating": 8.34,
      "classificacao_etaria": "A14",
      "imagem_original": "https://animefire.plus/img/animes/planetes.webp",
      "imagem_pasta": "https://animefire.plus/img/animes/planetes/",
      "secao": "legendados",
      "pagina": 154,
      "total_episodios": 26,
      "link_video": "https://animefire.plus/video/planetes"
    },
    {
      "id": 2990,
      "nome": "Plastic Little",
      "link": "https://animefire.plus/animes/plastic-little-todos-os-episodios",
      "texto_original": "Plastic Little",
      "rating": 6.17,
      "classificacao_etaria": "A18",
      "imagem_original": "https://animefire.plus/img/animes/plastic-little.webp",
      "imagem_pasta": "https://animefire.plus/img/animes/plastic-little/",
      "secao": "legendados",
      "pagina": 66,
      "total_episodios": 1,
      "link_video": "https://animefire.plus/video/plastic-little"
    },
    {
      "id": 2991,
      "nome": "Plastic Memories",
      "link": "https://animefire.plus/animes/plastic-memories-todos-os-episodios",
      "texto_original": "Plastic Memories",
      "rating": 7.97,
      "classificacao_etaria": "A14",
      "imagem_original": "https://animefire.plus/img/animes/plastic-memories.webp",
      "imagem_pasta": "https://animefire.plus/img/animes/plastic-memories/",
      "secao": "legendados",
      "pagina": 79,
      "total_episodios": 13,
      "link_video": "https://animefire.plus/video/plastic-memories"
    },
    {
      "id": 2992,
      "nome": "Plastic Neesan",
      "link": "https://animefire.plus/animes/plastic-neesan-todos-os-episodios",
      "texto_original": "Plastic Neesan",
      "rating": 7.29,
      "classificacao_etaria": "A14",
      "imagem_original": "https://animefire.plus/img/animes/plastic-neesan.webp",
      "imagem_pasta": "https://animefire.plus/img/animes/plastic-neesan/",
      "secao": "legendados",
      "pagina": 67,
      "total_episodios": 1,
      "link_video": "https://animefire.plus/video/plastic-neesan"
    },
    {
      "id": 2993,
      "nome": "Platinum End (Dublado)",
      "link": "https://animefire.plus/animes/platinum-end-dublado-todos-os-episodios",
      "texto_original": "Platinum End (Dublado)",
      "rating": 6.02,
      "classificacao_etaria": "A16",
      "imagem_original": "https://animefire.plus/img/animes/platinum-end.webp",
      "imagem_pasta": "https://animefire.plus/img/animes/platinum-end/",
      "secao": "dublados,legendados",
      "pagina": 14,
      "total_episodios": 24,
      "link_video": "https://animefire.plus/video/platinum-end-dublado"
    },
    {
      "id": 2994,
      "nome": "Plunderer (Dublado)",
      "link": "https://animefire.plus/animes/plunderer-dublado-todos-os-episodios",
      "texto_original": "Plunderer (Dublado)",
      "rating": 6.56,
      "classificacao_etaria": "A14",
      "imagem_original": "https://animefire.plus/img/animes/plunderer.webp",
      "imagem_pasta": "https://animefire.plus/img/animes/plunderer/",
      "secao": "dublados,legendados",
      "pagina": 14,
      "total_episodios": 24,
      "link_video": "https://animefire.plus/video/plunderer-dublado"
    },
    {
      "id": 2995,
      "nome": "Pluto (Dublado)",
      "link": "https://animefire.plus/animes/pluto-dublado-todos-os-episodios",
      "texto_original": "Pluto (Dublado)",
      "rating": 8.45,
      "classificacao_etaria": "A14",
      "imagem_original": "https://animefire.plus/img/animes/pluto.webp",
      "imagem_pasta": "https://animefire.plus/img/animes/pluto/",
      "secao": "dublados,legendados",
      "pagina": 5,
      "total_episodios": 8,
      "link_video": "https://animefire.plus/video/pluto-dublado"
    },
    {
      "id": 2996,
      "nome": "Pokemon (2019) (Dublado)",
      "link": "https://animefire.plus/animes/pokemon-2019-dublado-todos-os-episodios",
      "texto_original": "Pokemon (2019) (Dublado)",
      "rating": 7.21,
      "classificacao_etaria": "A10",
      "imagem_original": "https://animefire.plus/img/animes/pokemon-2019.webp",
      "imagem_pasta": "https://animefire.plus/img/animes/pokemon-2019/",
      "secao": "dublados,legendados",
      "pagina": 17,
      "total_episodios": 76,
      "link_video": "https://animefire.plus/video/pokemon-2019-dublado"
    },
    {
      "id": 2998,
      "nome": "Pokemon (2019): Kami to Yobareshi Arceus (Dublado)",
      "link": "https://animefire.plus/animes/pokemon-2019-kami-to-yobareshi-arceus-dublado-todos-os-episodios",
      "texto_original": "Pokemon (2019): Kami to Yobareshi Arceus (Dublado)",
      "rating": 6.67,
      "classificacao_etaria": "A10",
      "imagem_original": "https://animefire.plus/img/animes/pokemon-2019-kami-to-yobareshi-arceus.webp",
      "imagem_pasta": "https://animefire.plus/img/animes/pokemon-2019-kami-to-yobareshi-arceus/",
      "secao": "dublados,legendados",
      "pagina": 9,
      "total_episodios": 1,
      "link_video": "https://animefire.plus/video/pokemon-2019-kami-to-yobareshi-arceus-dublado"
    },
    {
      "id": 3000,
      "nome": "Pokemon Advanced Generation (Dublado)",
      "link": "https://animefire.plus/animes/pokemon-advanced-generation-dublado-todos-os-episodios",
      "texto_original": "Pokemon Advanced Generation (Dublado)",
      "rating": 7.18,
      "classificacao_etaria": "A10",
      "imagem_original": "https://animefire.plus/img/animes/pokemon-advanced-generation.webp",
      "imagem_pasta": "https://animefire.plus/img/animes/pokemon-advanced-generation/",
      "secao": "dublados,legendados",
      "pagina": 28,
      "total_episodios": 104,
      "link_video": "https://animefire.plus/video/pokemon-advanced-generation-dublado"
    },
    {
      "id": 3001,
      "nome": "Pokemon Best Wishes! Season 2",
      "link": "https://animefire.plus/animes/pokemon-best-wishes-season-2-todos-os-episodios",
      "texto_original": "Pokemon Best Wishes! Season 2",
      "rating": 6.59,
      "classificacao_etaria": "A10",
      "imagem_original": "https://animefire.plus/img/animes/pokemon-best-wishes-season-2.webp",
      "imagem_pasta": "https://animefire.plus/img/animes/pokemon-best-wishes-season-2/",
      "secao": "legendados",
      "pagina": 129,
      "total_episodios": 3,
      "link_video": "https://animefire.plus/video/pokemon-best-wishes-season-2"
    },
    {
      "id": 3002,
      "nome": "Pokemon Diamond & Pearl",
      "link": "https://animefire.plus/animes/pokemon-diamond-pearl-todos-os-episodios",
      "texto_original": "Pokemon Diamond & Pearl",
      "rating": 7.24,
      "classificacao_etaria": "A10",
      "imagem_original": "https://animefire.plus/img/animes/pokemon-diamond-pearl.webp",
      "imagem_pasta": "https://animefire.plus/img/animes/pokemon-diamond-pearl/",
      "secao": "legendados",
      "pagina": 126,
      "total_episodios": 186,
      "link_video": "https://animefire.plus/video/pokemon-diamond-pearl"
    },
    {
      "id": 3003,
      "nome": "Pokemon Legends Arceus: Yuki Hodo Kishi Futaai",
      "link": "https://animefire.plus/animes/pokemon-legends-arceus-yuki-hodo-kishi-futaai-todos-os-episodios",
      "texto_original": "Pokemon Legends Arceus: Yuki Hodo Kishi Futaai",
      "rating": 7.41,
      "classificacao_etaria": "A10",
      "imagem_original": "https://animefire.plus/img/animes/pokemon-legends-arceus-yuki-hodo-kishi-futaai.webp",
      "imagem_pasta": "https://animefire.plus/img/animes/pokemon-legends-arceus-yuki-hodo-kishi-futaai/",
      "secao": "legendados",
      "pagina": 32,
      "total_episodios": 3,
      "link_video": "https://animefire.plus/video/pokemon-legends-arceus-yuki-hodo-kishi-futaai"
    },
    {
      "id": 3004,
      "nome": "Pokemon Movie 21: Minna no Monogatari",
      "link": "https://animefire.plus/animes/pokemon-movie-21-minna-no-monogatari-todos-os-episodios",
      "texto_original": "Pokemon Movie 21: Minna no Monogatari",
      "rating": 7.37,
      "classificacao_etaria": "A10",
      "imagem_original": "https://animefire.plus/img/animes/pokemon-movie-21-minna-no-monogatari.webp",
      "imagem_pasta": "https://animefire.plus/img/animes/pokemon-movie-21-minna-no-monogatari/",
      "secao": "legendados",
      "pagina": 104,
      "total_episodios": 3,
      "link_video": "https://animefire.plus/video/pokemon-movie-21-minna-no-monogatari"
    },
    {
      "id": 3005,
      "nome": "Pokemon Sun & Moon",
      "link": "https://animefire.plus/animes/pokemon-sun-moon-todos-os-episodios",
      "texto_original": "Pokemon Sun & Moon",
      "rating": 6.79,
      "classificacao_etaria": "A10",
      "imagem_original": "https://animefire.plus/img/animes/pokemon-sun-moon.webp",
      "imagem_pasta": "https://animefire.plus/img/animes/pokemon-sun-moon/",
      "secao": "legendados",
      "pagina": 178,
      "total_episodios": 108,
      "link_video": "https://animefire.plus/video/pokemon-sun-moon"
    },
    {
      "id": 3006,
      "nome": "Pokemon XY (Dublado)",
      "link": "https://animefire.plus/animes/pokemon-xy-dublado-todos-os-episodios",
      "texto_original": "Pokemon XY (Dublado)",
      "rating": 7.4,
      "classificacao_etaria": "A10",
      "imagem_original": "https://animefire.plus/img/animes/pokemon-xy.webp",
      "imagem_pasta": "https://animefire.plus/img/animes/pokemon-xy/",
      "secao": "dublados,legendados",
      "pagina": 27,
      "total_episodios": 100,
      "link_video": "https://animefire.plus/video/pokemon-xy-dublado"
    },
    {
      "id": 3007,
      "nome": "Pokemon XY: Mega Evolution",
      "link": "https://animefire.plus/animes/pokemon-xy-mega-evolution-todos-os-episodios",
      "texto_original": "Pokemon XY: Mega Evolution",
      "rating": 7.5,
      "classificacao_etaria": "A10",
      "imagem_original": "https://animefire.plus/img/animes/pokemon-xy-mega-evolution.webp",
      "imagem_pasta": "https://animefire.plus/img/animes/pokemon-xy-mega-evolution/",
      "secao": "legendados",
      "pagina": 79,
      "total_episodios": 4,
      "link_video": "https://animefire.plus/video/pokemon-xy-mega-evolution"
    },
    {
      "id": 3008,
      "nome": "Pokemon XY&Z",
      "link": "https://animefire.plus/animes/pokemon-xy-z-todos-os-episodios",
      "texto_original": "Pokemon XY&Z",
      "rating": 7.7,
      "classificacao_etaria": "A10",
      "imagem_original": "https://animefire.plus/img/animes/pokemon-xy-z.webp",
      "imagem_pasta": "https://animefire.plus/img/animes/pokemon-xy-z/",
      "secao": "legendados",
      "pagina": 75,
      "total_episodios": 47,
      "link_video": "https://animefire.plus/video/pokemon-xy-z"
    },
    {
      "id": 3009,
      "nome": "Pokemon: Mezase Pokemon Master",
      "link": "https://animefire.plus/animes/pokemon-mezase-pokemon-master-todos-os-episodios",
      "texto_original": "Pokemon: Mezase Pokemon Master",
      "rating": 7.59,
      "classificacao_etaria": "A10",
      "imagem_original": "https://animefire.plus/img/animes/pokemon-mezase-pokemon-master.webp",
      "imagem_pasta": "https://animefire.plus/img/animes/pokemon-mezase-pokemon-master/",
      "secao": "legendados,lancamentos",
      "pagina": 25,
      "total_episodios": 2,
      "link_video": "https://animefire.plus/video/pokemon-mezase-pokemon-master"
    },
    {
      "id": 3010,
      "nome": "Pokemon: The Origin",
      "link": "https://animefire.plus/animes/pokemon-the-origin-todos-os-episodios",
      "texto_original": "Pokemon: The Origin",
      "rating": 7.86,
      "classificacao_etaria": "A10",
      "imagem_original": "https://animefire.plus/img/animes/pokemon-the-origin.webp",
      "imagem_pasta": "https://animefire.plus/img/animes/pokemon-the-origin/",
      "secao": "legendados",
      "pagina": 165,
      "total_episodios": 0,
      "link_video": "https://animefire.plus/video/pokemon-the-origin"
    }
  ],
  "pagination": {
    "current_page": 147,
    "per_page": 20,
    "total_items": 4269,
    "total_pages": 214,
    "has_next": true,
    "has_prev": true
  }
}
