{
  "message": "Animes da seção: dublados",
  "section": "dublados",
  "data": [
    {
      "id": 3806,
      "nome": "Tensei shitara Slime Datta Ken: Kanwa - Veldora Nikki (Dublado)",
      "link": "https://animefire.plus/animes/tensei-shitara-slime-datta-ken-kanwa---veldora-nikki-dublado-todos-os-episodios",
      "texto_original": "Tensei shitara Slime Datta Ken: Kanwa - Veldora Nikki (Dublado)",
      "rating": 6.57,
      "classificacao_etaria": "A14",
      "imagem_original": "https://animefire.plus/img/animes/tensei-shitara-slime-datta-ken-kanwa---veldora-nikki.webp",
      "imagem_pasta": "https://animefire.plus/img/animes/tensei-shitara-slime-datta-ken-kanwa---veldora-nikki/",
      "secao": "dublados",
      "pagina": 16,
      "total_episodios": 1,
      "link_video": "https://animefire.plus/video/tensei-shitara-slime-datta-ken-kanwa---veldora-nikki-dublado"
    },
    {
      "id": 3811,
      "nome": "Tensura Nikki: Tensei shitara Slime Datta Ken (Dublado)",
      "link": "https://animefire.plus/animes/tensura-nikki-tensei-shitara-slime-datta-ken-dublado-todos-os-episodios",
      "texto_original": "Tensura Nikki: Tensei shitara Slime Datta Ken (Dublado)",
      "rating": 7.59,
      "classificacao_etaria": "A14",
      "imagem_original": "https://animefire.plus/img/animes/tensura-nikki-tensei-shitara-slime-datta-ken.webp",
      "imagem_pasta": "https://animefire.plus/img/animes/tensura-nikki-tensei-shitara-slime-datta-ken/",
      "secao": "dublados,legendados",
      "pagina": 15,
      "total_episodios": 12,
      "link_video": "https://animefire.plus/video/tensura-nikki-tensei-shitara-slime-datta-ken-dublado"
    },
    {
      "id": 3824,
      "nome": "The Animatrix (Dublado)",
      "link": "https://animefire.plus/animes/the-animatrix-dublado-todos-os-episodios",
      "texto_original": "The Animatrix (Dublado)",
      "rating": 7.32,
      "classificacao_etaria": "A16",
      "imagem_original": "https://animefire.plus/img/animes/the-animatrix.webp",
      "imagem_pasta": "https://animefire.plus/img/animes/the-animatrix/",
      "secao": "dublados,legendados",
      "pagina": 27,
      "total_episodios": 9,
      "link_video": "https://animefire.plus/video/the-animatrix-dublado"
    },
    {
      "id": 3827,
      "nome": "The God of High School (Dublado)",
      "link": "https://animefire.plus/animes/the-god-of-high-school-dublado-todos-os-episodios",
      "texto_original": "The God of High School (Dublado)",
      "rating": 7.07,
      "classificacao_etaria": "A14",
      "imagem_original": "https://animefire.plus/img/animes/the-god-of-high-school.webp",
      "imagem_pasta": "https://animefire.plus/img/animes/the-god-of-high-school/",
      "secao": "dublados,legendados",
      "pagina": 8,
      "total_episodios": 13,
      "link_video": "https://animefire.plus/video/the-god-of-high-school-dublado"
    },
    {
      "id": 3840,
      "nome": "The New Gate (Dublado)",
      "link": "https://animefire.plus/animes/the-new-gate-dublado-todos-os-episodios",
      "texto_original": "The New Gate (Dublado)",
      "rating": 6.45,
      "classificacao_etaria": "A14",
      "imagem_original": "https://animefire.plus/img/animes/the-new-gate.webp",
      "imagem_pasta": "https://animefire.plus/img/animes/the-new-gate/",
      "secao": "dublados,legendados,lancamentos",
      "pagina": 2,
      "total_episodios": 12,
      "link_video": "https://animefire.plus/video/the-new-gate-dublado"
    },
    {
      "id": 3846,
      "nome": "Tiger & Bunny (Dublado)",
      "link": "https://animefire.plus/animes/tiger-bunny-dublado-todos-os-episodios",
      "texto_original": "Tiger & Bunny (Dublado)",
      "rating": 7.94,
      "classificacao_etaria": "A14",
      "imagem_original": "https://animefire.plus/img/animes/tiger-bunny.webp",
      "imagem_pasta": "https://animefire.plus/img/animes/tiger-bunny/",
      "secao": "dublados,legendados",
      "pagina": 18,
      "total_episodios": 25,
      "link_video": "https://animefire.plus/video/tiger-bunny-dublado"
    },
    {
      "id": 3847,
      "nome": "Tiger & Bunny 2 (Dublado)",
      "link": "https://animefire.plus/animes/tiger-bunny-2-dublado-todos-os-episodios",
      "texto_original": "Tiger & Bunny 2 (Dublado)",
      "rating": 7.42,
      "classificacao_etaria": "A14",
      "imagem_original": "https://animefire.plus/img/animes/tiger-bunny-2.webp",
      "imagem_pasta": "https://animefire.plus/img/animes/tiger-bunny-2/",
      "secao": "dublados,legendados,lancamentos",
      "pagina": 11,
      "total_episodios": 13,
      "link_video": "https://animefire.plus/video/tiger-bunny-2-dublado"
    },
    {
      "id": 3865,
      "nome": "Toaru Majutsu no Index (Dublado)",
      "link": "https://animefire.plus/animes/toaru-majutsu-no-index-dublado-todos-os-episodios",
      "texto_original": "Toaru Majutsu no Index (Dublado)",
      "rating": 7.49,
      "classificacao_etaria": "A16",
      "imagem_original": "https://animefire.plus/img/animes/toaru-majutsu-no-index.webp",
      "imagem_pasta": "https://animefire.plus/img/animes/toaru-majutsu-no-index/",
      "secao": "dublados,legendados",
      "pagina": 20,
      "total_episodios": 24,
      "link_video": "https://animefire.plus/video/toaru-majutsu-no-index-dublado"
    },
    {
      "id": 3881,
      "nome": "Tokyo Ghoul (Dublado)",
      "link": "https://animefire.plus/animes/tokyo-ghoul-dublado-todos-os-episodios",
      "texto_original": "Tokyo Ghoul (Dublado)",
      "rating": 7.82,
      "classificacao_etaria": "A16",
      "imagem_original": "https://animefire.plus/img/animes/tokyo-ghoul.webp",
      "imagem_pasta": "https://animefire.plus/img/animes/tokyo-ghoul/",
      "secao": "dublados,legendados",
      "pagina": 19,
      "total_episodios": 12,
      "link_video": "https://animefire.plus/video/tokyo-ghoul-dublado"
    },
    {
      "id": 3882,
      "nome": "Tokyo Ghoul √A (Dublado)",
      "link": "https://animefire.plus/animes/tokyo-ghoul-a-dublado-todos-os-episodios",
      "texto_original": "Tokyo Ghoul √A (Dublado)",
      "rating": 7.1,
      "classificacao_etaria": "A16",
      "imagem_original": "https://animefire.plus/img/animes/tokyo-ghoul-a.webp",
      "imagem_pasta": "https://animefire.plus/img/animes/tokyo-ghoul-a/",
      "secao": "dublados,legendados",
      "pagina": 19,
      "total_episodios": 12,
      "link_video": "https://animefire.plus/video/tokyo-ghoul-a-dublado"
    },
    {
      "id": 3883,
      "nome": "Tokyo Ghoul: \"Jack\" (Dublado)",
      "link": "https://animefire.plus/animes/tokyo-ghoul-jack-dublado-todos-os-episodios",
      "texto_original": "Tokyo Ghoul: \"Jack\" (Dublado)",
      "rating": 7.35,
      "classificacao_etaria": "A16",
      "imagem_original": "https://animefire.plus/img/animes/tokyo-ghoul-jack.webp",
      "imagem_pasta": "https://animefire.plus/img/animes/tokyo-ghoul-jack/",
      "secao": "dublados",
      "pagina": 17,
      "total_episodios": 1,
      "link_video": "https://animefire.plus/video/tokyo-ghoul-jack-dublado"
    },
    {
      "id": 3884,
      "nome": "Tokyo Ghoul: \"Pinto\" (Dublado)",
      "link": "https://animefire.plus/animes/tokyo-ghoul-pinto-dublado-todos-os-episodios",
      "texto_original": "Tokyo Ghoul: \"Pinto\" (Dublado)",
      "rating": 7.24,
      "classificacao_etaria": "A16",
      "imagem_original": "https://animefire.plus/img/animes/tokyo-ghoul-pinto.webp",
      "imagem_pasta": "https://animefire.plus/img/animes/tokyo-ghoul-pinto/",
      "secao": "dublados",
      "pagina": 17,
      "total_episodios": 1,
      "link_video": "https://animefire.plus/video/tokyo-ghoul-pinto-dublado"
    },
    {
      "id": 3885,
      "nome": "Tokyo Ghoul:re (Dublado)",
      "link": "https://animefire.plus/animes/tokyo-ghoul-re-dublado-todos-os-episodios",
      "texto_original": "Tokyo Ghoul:re (Dublado)",
      "rating": 6.59,
      "classificacao_etaria": "A16",
      "imagem_original": "https://animefire.plus/img/animes/tokyo-ghoul-re.webp",
      "imagem_pasta": "https://animefire.plus/img/animes/tokyo-ghoul-re/",
      "secao": "dublados,legendados",
      "pagina": 19,
      "total_episodios": 12,
      "link_video": "https://animefire.plus/video/tokyo-ghoul-re-dublado"
    },
    {
      "id": 3886,
      "nome": "Tokyo Ghoul:re 2nd Season (Dublado)",
      "link": "https://animefire.plus/animes/tokyo-ghoul-re-2nd-season-dublado-todos-os-episodios",
      "texto_original": "Tokyo Ghoul:re 2nd Season (Dublado)",
      "rating": 6.33,
      "classificacao_etaria": "A16",
      "imagem_original": "https://animefire.plus/img/animes/tokyo-ghoul-re-2nd-season.webp",
      "imagem_pasta": "https://animefire.plus/img/animes/tokyo-ghoul-re-2nd-season/",
      "secao": "dublados,legendados",
      "pagina": 19,
      "total_episodios": 12,
      "link_video": "https://animefire.plus/video/tokyo-ghoul-re-2nd-season-dublado"
    },
    {
      "id": 3894,
      "nome": "Tokyo Revengers (Dublado)",
      "link": "https://animefire.plus/animes/tokyo-revengers-dublado-todos-os-episodios",
      "texto_original": "Tokyo Revengers (Dublado)",
      "rating": 7.85,
      "classificacao_etaria": "A16",
      "imagem_original": "https://animefire.plus/img/animes/tokyo-revengers.webp",
      "imagem_pasta": "https://animefire.plus/img/animes/tokyo-revengers/",
      "secao": "dublados,legendados",
      "pagina": 17,
      "total_episodios": 24,
      "link_video": "https://animefire.plus/video/tokyo-revengers-dublado"
    },
    {
      "id": 3895,
      "nome": "Tokyo Revengers: Seiya Kessen-hen (Dublado)",
      "link": "https://animefire.plus/animes/tokyo-revengers-seiya-kessen-hen-dublado-todos-os-episodios",
      "texto_original": "Tokyo Revengers: Seiya Kessen-hen (Dublado)",
      "rating": 7.63,
      "classificacao_etaria": "A16",
      "imagem_original": "https://animefire.plus/img/animes/tokyo-revengers-seiya-kessen-hen.webp",
      "imagem_pasta": "https://animefire.plus/img/animes/tokyo-revengers-seiya-kessen-hen/",
      "secao": "dublados,legendados,lancamentos",
      "pagina": 7,
      "total_episodios": 12,
      "link_video": "https://animefire.plus/video/tokyo-revengers-seiya-kessen-hen-dublado"
    },
    {
      "id": 3911,
      "nome": "Tonikaku Kawaii (Dublado)",
      "link": "https://animefire.plus/animes/tonikaku-kawaii-dublado-todos-os-episodios",
      "texto_original": "Tonikaku Kawaii (Dublado)",
      "rating": 7.96,
      "classificacao_etaria": "A14",
      "imagem_original": "https://animefire.plus/img/animes/tonikaku-kawaii.webp",
      "imagem_pasta": "https://animefire.plus/img/animes/tonikaku-kawaii/",
      "secao": "dublados,legendados,lancamentos",
      "pagina": 19,
      "total_episodios": 11,
      "link_video": "https://animefire.plus/video/tonikaku-kawaii-dublado"
    },
    {
      "id": 3912,
      "nome": "Tonikaku Kawaii 2nd Season (Dublado)",
      "link": "https://animefire.plus/animes/tonikaku-kawaii-2nd-season-dublado-todos-os-episodios",
      "texto_original": "Tonikaku Kawaii 2nd Season (Dublado)",
      "rating": 7.62,
      "classificacao_etaria": "A14",
      "imagem_original": "https://animefire.plus/img/animes/tonikaku-kawaii-2nd-season.webp",
      "imagem_pasta": "https://animefire.plus/img/animes/tonikaku-kawaii-2nd-season/",
      "secao": "dublados,legendados",
      "pagina": 7,
      "total_episodios": 12,
      "link_video": "https://animefire.plus/video/tonikaku-kawaii-2nd-season-dublado"
    },
    {
      "id": 3913,
      "nome": "Tonikaku Kawaii: Joshikou-hen (Dublado)",
      "link": "https://animefire.plus/animes/tonikaku-kawaii-joshikou-hen-dublado-todos-os-episodios",
      "texto_original": "Tonikaku Kawaii: Joshikou-hen (Dublado)",
      "rating": 7.76,
      "classificacao_etaria": "A14",
      "imagem_original": "https://animefire.plus/img/animes/tonikaku-kawaii-joshikou-hen.webp",
      "imagem_pasta": "https://animefire.plus/img/animes/tonikaku-kawaii-joshikou-hen/",
      "secao": "dublados,legendados",
      "pagina": 7,
      "total_episodios": 4,
      "link_video": "https://animefire.plus/video/tonikaku-kawaii-joshikou-hen-dublado"
    },
    {
      "id": 3914,
      "nome": "Tonikaku Kawaii: Seifuku (Dublado)",
      "link": "https://animefire.plus/animes/tonikaku-kawaii-seifuku-dublado-todos-os-episodios",
      "texto_original": "Tonikaku Kawaii: Seifuku (Dublado)",
      "rating": 7.72,
      "classificacao_etaria": "A14",
      "imagem_original": "https://animefire.plus/img/animes/tonikaku-kawaii-seifuku.webp",
      "imagem_pasta": "https://animefire.plus/img/animes/tonikaku-kawaii-seifuku/",
      "secao": "dublados,legendados",
      "pagina": 6,
      "total_episodios": 1,
      "link_video": "https://animefire.plus/video/tonikaku-kawaii-seifuku-dublado"
    }
  ],
  "pagination": {
    "current_page": 30,
    "per_page": 20,
    "total_items": 656,
    "total_pages": 33,
    "has_next": true,
    "has_prev": true
  }
}
