{
  "message": "Animes da seção: dublados",
  "section": "dublados",
  "data": [
    {
      "id": 4079,
      "nome": "Vigilante: Boku no Hero Academia Illegals (Dublado)",
      "link": "https://animefire.plus/animes/vigilante-boku-no-hero-academia-illegals-dublado-todos-os-episodios",
      "texto_original": "Vigilante: Boku no Hero Academia Illegals (Dublado)",
      "rating": 7.62,
      "classificacao_etaria": "A14",
      "imagem_original": "https://animefire.plus/img/animes/vigilante-boku-no-hero-academia-illegals.webp",
      "imagem_pasta": "https://animefire.plus/img/animes/vigilante-boku-no-hero-academia-illegals/",
      "secao": "dublados,legendados,lancamentos",
      "pagina": 1,
      "total_episodios": 13,
      "link_video": "https://animefire.plus/video/vigilante-boku-no-hero-academia-illegals-dublado"
    },
    {
      "id": 4080,
      "nome": "Vinland Saga (Dublado)",
      "link": "https://animefire.plus/animes/vinland-saga-dublado-todos-os-episodios",
      "texto_original": "Vinland Saga (Dublado)",
      "rating": 8.72,
      "classificacao_etaria": "A16",
      "imagem_original": "https://animefire.plus/img/animes/vinland-saga.webp",
      "imagem_pasta": "https://animefire.plus/img/animes/vinland-saga/",
      "secao": "dublados,legendados",
      "pagina": 16,
      "total_episodios": 24,
      "link_video": "https://animefire.plus/video/vinland-saga-dublado"
    },
    {
      "id": 4081,
      "nome": "Vinland Saga Season 2 (Dublado)",
      "link": "https://animefire.plus/animes/vinland-saga-season-2-dublado-todos-os-episodios",
      "texto_original": "Vinland Saga Season 2 (Dublado)",
      "rating": 8.81,
      "classificacao_etaria": "A16",
      "imagem_original": "https://animefire.plus/img/animes/vinland-saga-season-2.webp",
      "imagem_pasta": "https://animefire.plus/img/animes/vinland-saga-season-2/",
      "secao": "dublados,legendados",
      "pagina": 7,
      "total_episodios": 24,
      "link_video": "https://animefire.plus/video/vinland-saga-season-2-dublado"
    },
    {
      "id": 4082,
      "nome": "Violet Evergarden (Dublado)",
      "link": "https://animefire.plus/animes/violet-evergarden-dublado-todos-os-episodios",
      "texto_original": "Violet Evergarden (Dublado)",
      "rating": 8.62,
      "classificacao_etaria": "A14",
      "imagem_original": "https://animefire.plus/img/animes/violet-evergarden.webp",
      "imagem_pasta": "https://animefire.plus/img/animes/violet-evergarden/",
      "secao": "dublados,legendados",
      "pagina": 25,
      "total_episodios": 13,
      "link_video": "https://animefire.plus/video/violet-evergarden-dublado"
    },
    {
      "id": 4088,
      "nome": "Vivy: Fluorite Eye's Song (Dublado)",
      "link": "https://animefire.plus/animes/vivy-fluorite-eye-s-song-dublado-todos-os-episodios",
      "texto_original": "Vivy: Fluorite Eye's Song (Dublado)",
      "rating": 8.38,
      "classificacao_etaria": "A16",
      "imagem_original": "https://animefire.plus/img/animes/vivy-fluorite-eye-s-song.webp",
      "imagem_pasta": "https://animefire.plus/img/animes/vivy-fluorite-eye-s-song/",
      "secao": "dublados,legendados",
      "pagina": 15,
      "total_episodios": 13,
      "link_video": "https://animefire.plus/video/vivy-fluorite-eye-s-song-dublado"
    },
    {
      "id": 4120,
      "nome": "Watashi no Oshi wa Akuyaku Reijou. (Dublado)",
      "link": "https://animefire.plus/animes/watashi-no-oshi-wa-akuyaku-reijou-dublado-todos-os-episodios",
      "texto_original": "Watashi no Oshi wa Akuyaku Reijou. (Dublado)",
      "rating": 7.35,
      "classificacao_etaria": "A14",
      "imagem_original": "https://animefire.plus/img/animes/watashi-no-oshi-wa-akuyaku-reijou.webp",
      "imagem_pasta": "https://animefire.plus/img/animes/watashi-no-oshi-wa-akuyaku-reijou/",
      "secao": "dublados,legendados",
      "pagina": 5,
      "total_episodios": 12,
      "link_video": "https://animefire.plus/video/watashi-no-oshi-wa-akuyaku-reijou-dublado"
    },
    {
      "id": 4121,
      "nome": "Watashi no Shiawase na Kekkon (Dublado)",
      "link": "https://animefire.plus/animes/watashi-no-shiawase-na-kekkon-dublado-todos-os-episodios",
      "texto_original": "Watashi no Shiawase na Kekkon (Dublado)",
      "rating": 7.71,
      "classificacao_etaria": "A14",
      "imagem_original": "https://animefire.plus/img/animes/watashi-no-shiawase-na-kekkon.webp",
      "imagem_pasta": "https://animefire.plus/img/animes/watashi-no-shiawase-na-kekkon/",
      "secao": "dublados,legendados,lancamentos",
      "pagina": 7,
      "total_episodios": 10,
      "link_video": "https://animefire.plus/video/watashi-no-shiawase-na-kekkon-dublado"
    },
    {
      "id": 4122,
      "nome": "Watashi no Shiawase na Kekkon 2nd Season (Dublado)",
      "link": "https://animefire.plus/animes/watashi-no-shiawase-na-kekkon-2nd-season-dublado-todos-os-episodios",
      "texto_original": "Watashi no Shiawase na Kekkon 2nd Season (Dublado)",
      "rating": 7.42,
      "classificacao_etaria": "A14",
      "imagem_original": "https://animefire.plus/img/animes/watashi-no-shiawase-na-kekkon-2nd-season.webp",
      "imagem_pasta": "https://animefire.plus/img/animes/watashi-no-shiawase-na-kekkon-2nd-season/",
      "secao": "dublados,legendados,lancamentos",
      "pagina": 2,
      "total_episodios": 13,
      "link_video": "https://animefire.plus/video/watashi-no-shiawase-na-kekkon-2nd-season-dublado"
    },
    {
      "id": 4124,
      "nome": "Watashi no Yuri wa Oshigoto desu! (Dublado)",
      "link": "https://animefire.plus/animes/watashi-no-yuri-wa-oshigoto-desu-dublado-todos-os-episodios",
      "texto_original": "Watashi no Yuri wa Oshigoto desu! (Dublado)",
      "rating": 6.68,
      "classificacao_etaria": "A14",
      "imagem_original": "https://animefire.plus/img/animes/watashi-no-yuri-wa-oshigoto-desu.webp",
      "imagem_pasta": "https://animefire.plus/img/animes/watashi-no-yuri-wa-oshigoto-desu/",
      "secao": "dublados,legendados",
      "pagina": 7,
      "total_episodios": 12,
      "link_video": "https://animefire.plus/video/watashi-no-yuri-wa-oshigoto-desu-dublado"
    },
    {
      "id": 4127,
      "nome": "Whistle! (Dublado)",
      "link": "https://animefire.plus/animes/whistle-dublado-todos-os-episodios",
      "texto_original": "Whistle! (Dublado)",
      "rating": 7.42,
      "classificacao_etaria": null,
      "imagem_original": "https://animefire.plus/img/animes/whistle.webp",
      "imagem_pasta": "https://animefire.plus/img/animes/whistle/",
      "secao": "dublados",
      "pagina": 23,
      "total_episodios": 39,
      "link_video": "https://animefire.plus/video/whistle-dublado"
    },
    {
      "id": 4132,
      "nome": "Wind Breaker (Dublado)",
      "link": "https://animefire.plus/animes/wind-breaker-dublado-todos-os-episodios",
      "texto_original": "Wind Breaker (Dublado)",
      "rating": 7.73,
      "classificacao_etaria": "A14",
      "imagem_original": "https://animefire.plus/img/animes/wind-breaker.webp",
      "imagem_pasta": "https://animefire.plus/img/animes/wind-breaker/",
      "secao": "dublados,legendados,lancamentos",
      "pagina": 2,
      "total_episodios": 13,
      "link_video": "https://animefire.plus/video/wind-breaker-dublado"
    },
    {
      "id": 4133,
      "nome": "Wind Breaker Season 2 (Dublado)",
      "link": "https://animefire.plus/animes/wind-breaker-season-2-dublado-todos-os-episodios",
      "texto_original": "Wind Breaker Season 2 (Dublado)",
      "rating": 7.65,
      "classificacao_etaria": "A14",
      "imagem_original": "https://animefire.plus/img/animes/wind-breaker-season-2.webp",
      "imagem_pasta": "https://animefire.plus/img/animes/wind-breaker-season-2/",
      "secao": "dublados,legendados,lancamentos",
      "pagina": 1,
      "total_episodios": 12,
      "link_video": "https://animefire.plus/video/wind-breaker-season-2-dublado"
    },
    {
      "id": 4137,
      "nome": "Witch Watch (Dublado)",
      "link": "https://animefire.plus/animes/witch-watch-dublado-todos-os-episodios",
      "texto_original": "Witch Watch (Dublado)",
      "rating": 7.4,
      "classificacao_etaria": "A14",
      "imagem_original": "https://animefire.plus/img/animes/witch-watch.webp",
      "imagem_pasta": "https://animefire.plus/img/animes/witch-watch/",
      "secao": "dublados,legendados,lancamentos",
      "pagina": 1,
      "total_episodios": 18,
      "link_video": "https://animefire.plus/video/witch-watch-dublado"
    },
    {
      "id": 4147,
      "nome": "Wolf's Rain (Dublado)",
      "link": "https://animefire.plus/animes/wolf-s-rain-dublado-todos-os-episodios",
      "texto_original": "Wolf's Rain (Dublado)",
      "rating": 7.88,
      "classificacao_etaria": "A14",
      "imagem_original": "https://animefire.plus/img/animes/wolf-s-rain.webp",
      "imagem_pasta": "https://animefire.plus/img/animes/wolf-s-rain/",
      "secao": "dublados,legendados",
      "pagina": 25,
      "total_episodios": 26,
      "link_video": "https://animefire.plus/video/wolf-s-rain-dublado"
    },
    {
      "id": 4150,
      "nome": "Wonder Egg Priority (Dublado)",
      "link": "https://animefire.plus/animes/wonder-egg-priority-dublado-todos-os-episodios",
      "texto_original": "Wonder Egg Priority (Dublado)",
      "rating": 7.55,
      "classificacao_etaria": "A16",
      "imagem_original": "https://animefire.plus/img/animes/wonder-egg-priority.webp",
      "imagem_pasta": "https://animefire.plus/img/animes/wonder-egg-priority/",
      "secao": "dublados,legendados",
      "pagina": 15,
      "total_episodios": 12,
      "link_video": "https://animefire.plus/video/wonder-egg-priority-dublado"
    },
    {
      "id": 4197,
      "nome": "Yamada-kun to 7-nin no Majo (TV) (Dublado)",
      "link": "https://animefire.plus/animes/yamada-kun-to-7-nin-no-majo-tv-dublado-todos-os-episodios",
      "texto_original": "Yamada-kun to 7-nin no Majo (TV) (Dublado)",
      "rating": 7.74,
      "classificacao_etaria": "A14",
      "imagem_original": "https://animefire.plus/img/animes/yamada-kun-to-7-nin-no-majo-tv.webp",
      "imagem_pasta": "https://animefire.plus/img/animes/yamada-kun-to-7-nin-no-majo-tv/",
      "secao": "dublados",
      "pagina": 23,
      "total_episodios": 12,
      "link_video": "https://animefire.plus/video/yamada-kun-to-7-nin-no-majo-tv-dublado"
    },
    {
      "id": 4202,
      "nome": "Yami Shibai (Dublado)",
      "link": "https://animefire.plus/animes/yami-shibai-dublado-todos-os-episodios",
      "texto_original": "Yami Shibai (Dublado)",
      "rating": 7,
      "classificacao_etaria": "A14",
      "imagem_original": "https://animefire.plus/img/animes/yami-shibai.webp",
      "imagem_pasta": "https://animefire.plus/img/animes/yami-shibai/",
      "secao": "dublados,legendados",
      "pagina": 4,
      "total_episodios": 13,
      "link_video": "https://animefire.plus/video/yami-shibai-dublado"
    },
    {
      "id": 4209,
      "nome": "Yami Shibai 2 (Dublado)",
      "link": "https://animefire.plus/animes/yami-shibai-2-dublado-todos-os-episodios",
      "texto_original": "Yami Shibai 2 (Dublado)",
      "rating": 6.51,
      "classificacao_etaria": "A14",
      "imagem_original": "https://animefire.plus/img/animes/yami-shibai-2.webp",
      "imagem_pasta": "https://animefire.plus/img/animes/yami-shibai-2/",
      "secao": "dublados,legendados",
      "pagina": 4,
      "total_episodios": 13,
      "link_video": "https://animefire.plus/video/yami-shibai-2-dublado"
    },
    {
      "id": 4210,
      "nome": "Yami Shibai 3 (Dublado)",
      "link": "https://animefire.plus/animes/yami-shibai-3-dublado-todos-os-episodios",
      "texto_original": "Yami Shibai 3 (Dublado)",
      "rating": 6.33,
      "classificacao_etaria": "A14",
      "imagem_original": "https://animefire.plus/img/animes/yami-shibai-3.webp",
      "imagem_pasta": "https://animefire.plus/img/animes/yami-shibai-3/",
      "secao": "dublados,legendados",
      "pagina": 4,
      "total_episodios": 13,
      "link_video": "https://animefire.plus/video/yami-shibai-3-dublado"
    },
    {
      "id": 4211,
      "nome": "Yami Shibai 4 (Dublado)",
      "link": "https://animefire.plus/animes/yami-shibai-4-dublado-todos-os-episodios",
      "texto_original": "Yami Shibai 4 (Dublado)",
      "rating": 5.81,
      "classificacao_etaria": "A14",
      "imagem_original": "https://animefire.plus/img/animes/yami-shibai-4.webp",
      "imagem_pasta": "https://animefire.plus/img/animes/yami-shibai-4/",
      "secao": "dublados,legendados",
      "pagina": 4,
      "total_episodios": 13,
      "link_video": "https://animefire.plus/video/yami-shibai-4-dublado"
    }
  ],
  "pagination": {
    "current_page": 32,
    "per_page": 20,
    "total_items": 656,
    "total_pages": 33,
    "has_next": true,
    "has_prev": true
  }
}
