{
  "message": "Animes da seção: dublados",
  "section": "dublados",
  "data": [
    {
      "id": 2018,
      "nome": "Kishibe Rohan wa Ugokanai (Dublado)",
      "link": "https://animefire.plus/animes/kishibe-rohan-wa-ugokanai-dublado-todos-os-episodios",
      "texto_original": "Kishibe Rohan wa Ugokanai (Dublado)",
      "rating": 7.61,
      "classificacao_etaria": "A16",
      "imagem_original": "https://animefire.plus/img/animes/kishibe-rohan-wa-ugokanai.webp",
      "imagem_pasta": "https://animefire.plus/img/animes/kishibe-rohan-wa-ugokanai/",
      "secao": "dublados,legendados",
      "pagina": 18,
      "total_episodios": 9,
      "link_video": "https://animefire.plus/video/kishibe-rohan-wa-ugokanai-dublado"
    },
    {
      "id": 2035,
      "nome": "Knights of the Zodiac: Saint Seiya - Battle for Sanctuary (Dublado)",
      "link": "https://animefire.plus/animes/knights-of-the-zodiac-saint-seiya---battle-for-sanctuary-dublado-todos-os-episodios",
      "texto_original": "Knights of the Zodiac: Saint Seiya - Battle for Sanctuary (Dublado)",
      "rating": 6.22,
      "classificacao_etaria": "A14",
      "imagem_original": "https://animefire.plus/img/animes/knights-of-the-zodiac-saint-seiya---battle-for-sanctuary.webp",
      "imagem_pasta": "https://animefire.plus/img/animes/knights-of-the-zodiac-saint-seiya---battle-for-sanctuary/",
      "secao": "dublados,legendados,lancamentos",
      "pagina": 8,
      "total_episodios": 12,
      "link_video": "https://animefire.plus/video/knights-of-the-zodiac-saint-seiya---battle-for-sanctuary-dublado"
    },
    {
      "id": 2036,
      "nome": "Knights of the Zodiac: Saint Seiya (Dublado)",
      "link": "https://animefire.plus/animes/knights-of-the-zodiac-saint-seiya-dublado-todos-os-episodios",
      "texto_original": "Knights of the Zodiac: Saint Seiya (Dublado)",
      "rating": 5.15,
      "classificacao_etaria": "A14",
      "imagem_original": "https://animefire.plus/img/animes/knights-of-the-zodiac-saint-seiya.webp",
      "imagem_pasta": "https://animefire.plus/img/animes/knights-of-the-zodiac-saint-seiya/",
      "secao": "dublados",
      "pagina": 24,
      "total_episodios": 12,
      "link_video": "https://animefire.plus/video/knights-of-the-zodiac-saint-seiya-dublado"
    },
    {
      "id": 2038,
      "nome": "Kobayashi-san Chi no Maid Dragon (Dublado)",
      "link": "https://animefire.plus/animes/kobayashi-san-chi-no-maid-dragon-dublado-todos-os-episodios",
      "texto_original": "Kobayashi-san Chi no Maid Dragon (Dublado)",
      "rating": 8.14,
      "classificacao_etaria": "A14",
      "imagem_original": "https://animefire.plus/img/animes/kobayashi-san-chi-no-maid-dragon.webp",
      "imagem_pasta": "https://animefire.plus/img/animes/kobayashi-san-chi-no-maid-dragon/",
      "secao": "dublados,legendados",
      "pagina": 26,
      "total_episodios": 0,
      "link_video": "https://animefire.plus/video/kobayashi-san-chi-no-maid-dragon-dublado"
    },
    {
      "id": 2039,
      "nome": "Kobayashi-san Chi no Maid Dragon S (Dublado)",
      "link": "https://animefire.plus/animes/kobayashi-san-chi-no-maid-dragon-s-dublado-todos-os-episodios",
      "texto_original": "Kobayashi-san Chi no Maid Dragon S (Dublado)",
      "rating": 8.22,
      "classificacao_etaria": "A14",
      "imagem_original": "https://animefire.plus/img/animes/kobayashi-san-chi-no-maid-dragon-s.webp",
      "imagem_pasta": "https://animefire.plus/img/animes/kobayashi-san-chi-no-maid-dragon-s/",
      "secao": "dublados,legendados",
      "pagina": 16,
      "total_episodios": 12,
      "link_video": "https://animefire.plus/video/kobayashi-san-chi-no-maid-dragon-s-dublado"
    },
    {
      "id": 2040,
      "nome": "Kobayashi-san Chi no Maid Dragon S: Nippon no Omotenashi - Attend wa Dragon Desu (Dublado)",
      "link": "https://animefire.plus/animes/kobayashi-san-chi-no-maid-dragon-s-nippon-no-omotenashi---attend-wa-dragon-desu-dublado-todos-os-episodios",
      "texto_original": "Kobayashi-san Chi no Maid Dragon S: Nippon no Omotenashi - Attend wa Dragon Desu (Dublado)",
      "rating": 7.79,
      "classificacao_etaria": "A14",
      "imagem_original": "https://animefire.plus/img/animes/kobayashi-san-chi-no-maid-dragon-s-nippon-no-omotenashi---attend-wa-dragon-desu.webp",
      "imagem_pasta": "https://animefire.plus/img/animes/kobayashi-san-chi-no-maid-dragon-s-nippon-no-omotenashi---attend-wa-dragon-desu/",
      "secao": "dublados",
      "pagina": 10,
      "total_episodios": 1,
      "link_video": "https://animefire.plus/video/kobayashi-san-chi-no-maid-dragon-s-nippon-no-omotenashi---attend-wa-dragon-desu-dublado"
    },
    {
      "id": 2043,
      "nome": "Kodai Ouja Kyouryuu King (Dublado)",
      "link": "https://animefire.plus/animes/kodai-ouja-kyouryuu-king-dublado-todos-os-episodios",
      "texto_original": "Kodai Ouja Kyouryuu King (Dublado)",
      "rating": 6.13,
      "classificacao_etaria": "A10",
      "imagem_original": "https://animefire.plus/img/animes/kodai-ouja-kyouryuu-king.webp",
      "imagem_pasta": "https://animefire.plus/img/animes/kodai-ouja-kyouryuu-king/",
      "secao": "dublados",
      "pagina": 28,
      "total_episodios": 57,
      "link_video": "https://animefire.plus/video/kodai-ouja-kyouryuu-king-dublado"
    },
    {
      "id": 2057,
      "nome": "Koi wa Sekai Seifuku no Ato de (Dublado)",
      "link": "https://animefire.plus/animes/koi-wa-sekai-seifuku-no-ato-de-dublado-todos-os-episodios",
      "texto_original": "Koi wa Sekai Seifuku no Ato de (Dublado)",
      "rating": 7.38,
      "classificacao_etaria": "A14",
      "imagem_original": "https://animefire.plus/img/animes/koi-wa-sekai-seifuku-no-ato-de.webp",
      "imagem_pasta": "https://animefire.plus/img/animes/koi-wa-sekai-seifuku-no-ato-de/",
      "secao": "dublados,legendados",
      "pagina": 11,
      "total_episodios": 12,
      "link_video": "https://animefire.plus/video/koi-wa-sekai-seifuku-no-ato-de-dublado"
    },
    {
      "id": 2072,
      "nome": "Komi-san wa, Comyushou desu. 2nd Season (Dublado)",
      "link": "https://animefire.plus/animes/komi-san-wa-comyushou-desu-2nd-season-dublado-todos-os-episodios",
      "texto_original": "Komi-san wa, Comyushou desu. 2nd Season (Dublado)",
      "rating": 7.99,
      "classificacao_etaria": "A14",
      "imagem_original": "https://animefire.plus/img/animes/komi-san-wa-comyushou-desu-2nd-season.webp",
      "imagem_pasta": "https://animefire.plus/img/animes/komi-san-wa-comyushou-desu-2nd-season/",
      "secao": "dublados",
      "pagina": 9,
      "total_episodios": 12,
      "link_video": "https://animefire.plus/video/komi-san-wa-comyushou-desu-2nd-season-dublado"
    },
    {
      "id": 2075,
      "nome": "Konjiki no Gash Bell!! (Dublado)",
      "link": "https://animefire.plus/animes/konjiki-no-gash-bell-dublado-todos-os-episodios",
      "texto_original": "Konjiki no Gash Bell!! (Dublado)",
      "rating": 7.56,
      "classificacao_etaria": "A14",
      "imagem_original": "https://animefire.plus/img/animes/konjiki-no-gash-bell.webp",
      "imagem_pasta": "https://animefire.plus/img/animes/konjiki-no-gash-bell/",
      "secao": "dublados,legendados",
      "pagina": 20,
      "total_episodios": 150,
      "link_video": "https://animefire.plus/video/konjiki-no-gash-bell-dublado"
    },
    {
      "id": 2083,
      "nome": "Kono Oto Tomare! (Dublado)",
      "link": "https://animefire.plus/animes/kono-oto-tomare-dublado-todos-os-episodios",
      "texto_original": "Kono Oto Tomare! (Dublado)",
      "rating": 7.89,
      "classificacao_etaria": "A14",
      "imagem_original": "https://animefire.plus/img/animes/kono-oto-tomare.webp",
      "imagem_pasta": "https://animefire.plus/img/animes/kono-oto-tomare/",
      "secao": "dublados,legendados",
      "pagina": 13,
      "total_episodios": 13,
      "link_video": "https://animefire.plus/video/kono-oto-tomare-dublado"
    },
    {
      "id": 2084,
      "nome": "Kono Oto Tomare! 2nd Season (Dublado)",
      "link": "https://animefire.plus/animes/kono-oto-tomare-2nd-season-dublado-todos-os-episodios",
      "texto_original": "Kono Oto Tomare! 2nd Season (Dublado)",
      "rating": 8.42,
      "classificacao_etaria": "A14",
      "imagem_original": "https://animefire.plus/img/animes/kono-oto-tomare-2nd-season.webp",
      "imagem_pasta": "https://animefire.plus/img/animes/kono-oto-tomare-2nd-season/",
      "secao": "dublados,legendados",
      "pagina": 13,
      "total_episodios": 13,
      "link_video": "https://animefire.plus/video/kono-oto-tomare-2nd-season-dublado"
    },
    {
      "id": 2086,
      "nome": "Kono Subarashii Sekai ni Bakuen wo! (Dublado)",
      "link": "https://animefire.plus/animes/kono-subarashii-sekai-ni-bakuen-wo-dublado-todos-os-episodios",
      "texto_original": "Kono Subarashii Sekai ni Bakuen wo! (Dublado)",
      "rating": 7.51,
      "classificacao_etaria": "A14",
      "imagem_original": "https://animefire.plus/img/animes/kono-subarashii-sekai-ni-bakuen-wo.webp",
      "imagem_pasta": "https://animefire.plus/img/animes/kono-subarashii-sekai-ni-bakuen-wo/",
      "secao": "dublados,legendados",
      "pagina": 7,
      "total_episodios": 12,
      "link_video": "https://animefire.plus/video/kono-subarashii-sekai-ni-bakuen-wo-dublado"
    },
    {
      "id": 2087,
      "nome": "Kono Subarashii Sekai ni Shukufuku wo! (Dublado)",
      "link": "https://animefire.plus/animes/kono-subarashii-sekai-ni-shukufuku-wo-dublado-todos-os-episodios",
      "texto_original": "Kono Subarashii Sekai ni Shukufuku wo! (Dublado)",
      "rating": 8.18,
      "classificacao_etaria": "A14",
      "imagem_original": "https://animefire.plus/img/animes/kono-subarashii-sekai-ni-shukufuku-wo.webp",
      "imagem_pasta": "https://animefire.plus/img/animes/kono-subarashii-sekai-ni-shukufuku-wo/",
      "secao": "dublados,legendados",
      "pagina": 26,
      "total_episodios": 10,
      "link_video": "https://animefire.plus/video/kono-subarashii-sekai-ni-shukufuku-wo-dublado"
    },
    {
      "id": 2088,
      "nome": "Kono Subarashii Sekai ni Shukufuku wo! 2 (Dublado)",
      "link": "https://animefire.plus/animes/kono-subarashii-sekai-ni-shukufuku-wo-2-dublado-todos-os-episodios",
      "texto_original": "Kono Subarashii Sekai ni Shukufuku wo! 2 (Dublado)",
      "rating": 8.36,
      "classificacao_etaria": "A14",
      "imagem_original": "https://animefire.plus/img/animes/kono-subarashii-sekai-ni-shukufuku-wo-2.webp",
      "imagem_pasta": "https://animefire.plus/img/animes/kono-subarashii-sekai-ni-shukufuku-wo-2/",
      "secao": "dublados,legendados",
      "pagina": 26,
      "total_episodios": 10,
      "link_video": "https://animefire.plus/video/kono-subarashii-sekai-ni-shukufuku-wo-2-dublado"
    },
    {
      "id": 2089,
      "nome": "Kono Subarashii Sekai ni Shukufuku wo! 2: Kono Subarashii Geijutsu ni Shukufuku wo! (Dublado)",
      "link": "https://animefire.plus/animes/kono-subarashii-sekai-ni-shukufuku-wo-2-kono-subarashii-geijutsu-ni-shukufuku-wo-dublado-todos-os-episodios",
      "texto_original": "Kono Subarashii Sekai ni Shukufuku wo! 2: Kono Subarashii Geijutsu ni Shukufuku wo! (Dublado)",
      "rating": 8.11,
      "classificacao_etaria": "A14",
      "imagem_original": "https://animefire.plus/img/animes/kono-subarashii-sekai-ni-shukufuku-wo-2-kono-subarashii-geijutsu-ni-shukufuku-wo.webp",
      "imagem_pasta": "https://animefire.plus/img/animes/kono-subarashii-sekai-ni-shukufuku-wo-2-kono-subarashii-geijutsu-ni-shukufuku-wo/",
      "secao": "dublados",
      "pagina": 24,
      "total_episodios": 1,
      "link_video": "https://animefire.plus/video/kono-subarashii-sekai-ni-shukufuku-wo-2-kono-subarashii-geijutsu-ni-shukufuku-wo-dublado"
    },
    {
      "id": 2090,
      "nome": "Kono Subarashii Sekai ni Shukufuku wo! 3 (Dublado)",
      "link": "https://animefire.plus/animes/kono-subarashii-sekai-ni-shukufuku-wo-3-dublado-todos-os-episodios",
      "texto_original": "Kono Subarashii Sekai ni Shukufuku wo! 3 (Dublado)",
      "rating": 8.35,
      "classificacao_etaria": "A14",
      "imagem_original": "https://animefire.plus/img/animes/kono-subarashii-sekai-ni-shukufuku-wo-3.webp",
      "imagem_pasta": "https://animefire.plus/img/animes/kono-subarashii-sekai-ni-shukufuku-wo-3/",
      "secao": "dublados,legendados",
      "pagina": 2,
      "total_episodios": 11,
      "link_video": "https://animefire.plus/video/kono-subarashii-sekai-ni-shukufuku-wo-3-dublado"
    },
    {
      "id": 2101,
      "nome": "Koroshi Ai (Dublado)",
      "link": "https://animefire.plus/animes/koroshi-ai-dublado-todos-os-episodios",
      "texto_original": "Koroshi Ai (Dublado)",
      "rating": 6.9,
      "classificacao_etaria": "A16",
      "imagem_original": "https://animefire.plus/img/animes/koroshi-ai.webp",
      "imagem_pasta": "https://animefire.plus/img/animes/koroshi-ai/",
      "secao": "dublados,legendados",
      "pagina": 12,
      "total_episodios": 12,
      "link_video": "https://animefire.plus/video/koroshi-ai-dublado"
    },
    {
      "id": 2102,
      "nome": "Kotarou wa Hitorigurashi (Dublado)",
      "link": "https://animefire.plus/animes/kotarou-wa-hitorigurashi-dublado-todos-os-episodios",
      "texto_original": "Kotarou wa Hitorigurashi (Dublado)",
      "rating": 8.16,
      "classificacao_etaria": "A14",
      "imagem_original": "https://animefire.plus/img/animes/kotarou-wa-hitorigurashi.webp",
      "imagem_pasta": "https://animefire.plus/img/animes/kotarou-wa-hitorigurashi/",
      "secao": "dublados,legendados",
      "pagina": 12,
      "total_episodios": 10,
      "link_video": "https://animefire.plus/video/kotarou-wa-hitorigurashi-dublado"
    },
    {
      "id": 2107,
      "nome": "Koukaku Kidoutai: SAC_2045 (Dublado)",
      "link": "https://animefire.plus/animes/koukaku-kidoutai-sac-2045-dublado-todos-os-episodios",
      "texto_original": "Koukaku Kidoutai: SAC_2045 (Dublado)",
      "rating": 6.74,
      "classificacao_etaria": "A16",
      "imagem_original": "https://animefire.plus/img/animes/koukaku-kidoutai-sac-2045.webp",
      "imagem_pasta": "https://animefire.plus/img/animes/koukaku-kidoutai-sac-2045/",
      "secao": "dublados,legendados",
      "pagina": 20,
      "total_episodios": 12,
      "link_video": "https://animefire.plus/video/koukaku-kidoutai-sac-2045-dublado"
    }
  ],
  "pagination": {
    "current_page": 16,
    "per_page": 20,
    "total_items": 656,
    "total_pages": 33,
    "has_next": true,
    "has_prev": true
  }
}
