{
  "message": "Animes da seção: dublados",
  "section": "dublados",
  "data": [
    {
      "id": 3471,
      "nome": "Shinreigari (Dublado)",
      "link": "https://animefire.plus/animes/shinreigari-dublado-todos-os-episodios",
      "texto_original": "Shinreigari (Dublado)",
      "rating": 7.47,
      "classificacao_etaria": "A14",
      "imagem_original": "https://animefire.plus/img/animes/shinreigari.webp",
      "imagem_pasta": "https://animefire.plus/img/animes/shinreigari/",
      "secao": "dublados,legendados",
      "pagina": 20,
      "total_episodios": 22,
      "link_video": "https://animefire.plus/video/shinreigari-dublado"
    },
    {
      "id": 3472,
      "nome": "Shinryaku! Ika Musume (Dublado)",
      "link": "https://animefire.plus/animes/shinryaku-ika-musume-dublado-todos-os-episodios",
      "texto_original": "Shinryaku! Ika Musume (Dublado)",
      "rating": 7.41,
      "classificacao_etaria": "A14",
      "imagem_original": "https://animefire.plus/img/animes/shinryaku-ika-musume.webp",
      "imagem_pasta": "https://animefire.plus/img/animes/shinryaku-ika-musume/",
      "secao": "dublados,legendados",
      "pagina": 5,
      "total_episodios": 12,
      "link_video": "https://animefire.plus/video/shinryaku-ika-musume-dublado"
    },
    {
      "id": 3473,
      "nome": "Shinryaku!? Ika Musume (Dublado)",
      "link": "https://animefire.plus/animes/the-invader-comes-from-the-bottom-of-the-sea-dublado-todos-os-episodios",
      "texto_original": "Shinryaku!? Ika Musume (Dublado)",
      "rating": 7.47,
      "classificacao_etaria": "A14",
      "imagem_original": "https://animefire.plus/img/animes/the-invader-comes-from-the-bottom-of-the-sea.webp",
      "imagem_pasta": "https://animefire.plus/img/animes/the-invader-comes-from-the-bottom-of-the-sea/",
      "secao": "dublados",
      "pagina": 4,
      "total_episodios": 12,
      "link_video": "https://animefire.plus/video/the-invader-comes-from-the-bottom-of-the-sea-dublado"
    },
    {
      "id": 3484,
      "nome": "Shiunji-ke no Kodomotachi (Dublado)",
      "link": "https://animefire.plus/animes/shiunji-ke-no-kodomotachi-dublado-todos-os-episodios",
      "texto_original": "Shiunji-ke no Kodomotachi (Dublado)",
      "rating": 7.1,
      "classificacao_etaria": "A14",
      "imagem_original": "https://animefire.plus/img/animes/shiunji-ke-no-kodomotachi.webp",
      "imagem_pasta": "https://animefire.plus/img/animes/shiunji-ke-no-kodomotachi/",
      "secao": "dublados,legendados,lancamentos",
      "pagina": 1,
      "total_episodios": 12,
      "link_video": "https://animefire.plus/video/shiunji-ke-no-kodomotachi-dublado"
    },
    {
      "id": 3487,
      "nome": "Shokugeki no Souma (Dublado)",
      "link": "https://animefire.plus/animes/shokugeki-no-souma-dublado-todos-os-episodios",
      "texto_original": "Shokugeki no Souma (Dublado)",
      "rating": 8.33,
      "classificacao_etaria": "A14",
      "imagem_original": "https://animefire.plus/img/animes/shokugeki-no-souma.webp",
      "imagem_pasta": "https://animefire.plus/img/animes/shokugeki-no-souma/",
      "secao": "dublados,legendados",
      "pagina": 19,
      "total_episodios": 24,
      "link_video": "https://animefire.plus/video/shokugeki-no-souma-dublado"
    },
    {
      "id": 3490,
      "nome": "Shokugeki no Souma: Ni no Sara (Dublado)",
      "link": "https://animefire.plus/animes/shokugeki-no-souma-ni-no-sara-dublado-todos-os-episodios",
      "texto_original": "Shokugeki no Souma: Ni no Sara (Dublado)",
      "rating": 8.25,
      "classificacao_etaria": "A14",
      "imagem_original": "https://animefire.plus/img/animes/shokugeki-no-souma-ni-no-sara.webp",
      "imagem_pasta": "https://animefire.plus/img/animes/shokugeki-no-souma-ni-no-sara/",
      "secao": "dublados,legendados",
      "pagina": 19,
      "total_episodios": 13,
      "link_video": "https://animefire.plus/video/shokugeki-no-souma-ni-no-sara-dublado"
    },
    {
      "id": 3524,
      "nome": "Shuumatsu no Walküre (Dublado)",
      "link": "https://animefire.plus/animes/shuumatsu-no-walk-re-dublado-todos-os-episodios",
      "texto_original": "Shuumatsu no Walküre (Dublado)",
      "rating": 6.81,
      "classificacao_etaria": "A16",
      "imagem_original": "https://animefire.plus/img/animes/shuumatsu-no-walk-re.webp",
      "imagem_pasta": "https://animefire.plus/img/animes/shuumatsu-no-walk-re/",
      "secao": "dublados,legendados",
      "pagina": 17,
      "total_episodios": 12,
      "link_video": "https://animefire.plus/video/shuumatsu-no-walk-re-dublado"
    },
    {
      "id": 3525,
      "nome": "Shuumatsu no Walküre II (Dublado)",
      "link": "https://animefire.plus/animes/shuumatsu-no-walk-re-ii-dublado-todos-os-episodios",
      "texto_original": "Shuumatsu no Walküre II (Dublado)",
      "rating": 7.49,
      "classificacao_etaria": "A16",
      "imagem_original": "https://animefire.plus/img/animes/shuumatsu-no-walk-re-ii.webp",
      "imagem_pasta": "https://animefire.plus/img/animes/shuumatsu-no-walk-re-ii/",
      "secao": "dublados,legendados",
      "pagina": 8,
      "total_episodios": 15,
      "link_video": "https://animefire.plus/video/shuumatsu-no-walk-re-ii-dublado"
    },
    {
      "id": 3527,
      "nome": "Shy (Dublado)",
      "link": "https://animefire.plus/animes/shy-dublado-todos-os-episodios",
      "texto_original": "Shy (Dublado)",
      "rating": 6.71,
      "classificacao_etaria": "A14",
      "imagem_original": "https://animefire.plus/img/animes/shy.webp",
      "imagem_pasta": "https://animefire.plus/img/animes/shy/",
      "secao": "dublados",
      "pagina": 5,
      "total_episodios": 12,
      "link_video": "https://animefire.plus/video/shy-dublado"
    },
    {
      "id": 3531,
      "nome": "Sidonia no Kishi (Dublado)",
      "link": "https://animefire.plus/animes/sidonia-no-kishi-dublado-todos-os-episodios",
      "texto_original": "Sidonia no Kishi (Dublado)",
      "rating": 7.65,
      "classificacao_etaria": "A18",
      "imagem_original": "https://animefire.plus/img/animes/sidonia-no-kishi.webp",
      "imagem_pasta": "https://animefire.plus/img/animes/sidonia-no-kishi/",
      "secao": "dublados,legendados",
      "pagina": 8,
      "total_episodios": 12,
      "link_video": "https://animefire.plus/video/sidonia-no-kishi-dublado"
    },
    {
      "id": 3537,
      "nome": "Sirius (Dublado)",
      "link": "https://animefire.plus/animes/sirius-dublado-todos-os-episodios",
      "texto_original": "Sirius (Dublado)",
      "rating": 7.18,
      "classificacao_etaria": "A16",
      "imagem_original": "https://animefire.plus/img/animes/sirius.webp",
      "imagem_pasta": "https://animefire.plus/img/animes/sirius/",
      "secao": "dublados,legendados",
      "pagina": 25,
      "total_episodios": 12,
      "link_video": "https://animefire.plus/video/sirius-dublado"
    },
    {
      "id": 3540,
      "nome": "SK∞ (Dublado)",
      "link": "https://animefire.plus/animes/sk-dublado-todos-os-episodios",
      "texto_original": "SK∞ (Dublado)",
      "rating": 8,
      "classificacao_etaria": "A14",
      "imagem_original": "https://animefire.plus/img/animes/sk.webp",
      "imagem_pasta": "https://animefire.plus/img/animes/sk/",
      "secao": "dublados",
      "pagina": 15,
      "total_episodios": 12,
      "link_video": "https://animefire.plus/video/sk-dublado"
    },
    {
      "id": 3543,
      "nome": "Skip Beat! (Dublado)",
      "link": "https://animefire.plus/animes/skip-beat-dublado-todos-os-episodios",
      "texto_original": "Skip Beat! (Dublado)",
      "rating": 8.08,
      "classificacao_etaria": "A14",
      "imagem_original": "https://animefire.plus/img/animes/skip-beat.webp",
      "imagem_pasta": "https://animefire.plus/img/animes/skip-beat/",
      "secao": "dublados,legendados",
      "pagina": 3,
      "total_episodios": 25,
      "link_video": "https://animefire.plus/video/skip-beat-dublado"
    },
    {
      "id": 3544,
      "nome": "Skip to Loafer (Dublado)",
      "link": "https://animefire.plus/animes/skip-to-loafer-dublado-todos-os-episodios",
      "texto_original": "Skip to Loafer (Dublado)",
      "rating": 8.11,
      "classificacao_etaria": "A14",
      "imagem_original": "https://animefire.plus/img/animes/skip-to-loafer.webp",
      "imagem_pasta": "https://animefire.plus/img/animes/skip-to-loafer/",
      "secao": "dublados,legendados",
      "pagina": 7,
      "total_episodios": 12,
      "link_video": "https://animefire.plus/video/skip-to-loafer-dublado"
    },
    {
      "id": 3548,
      "nome": "Slayers (Dublado)",
      "link": "https://animefire.plus/animes/slayers-dublado-todos-os-episodios",
      "texto_original": "Slayers (Dublado)",
      "rating": 7.75,
      "classificacao_etaria": "A14",
      "imagem_original": "https://animefire.plus/img/animes/slayers.webp",
      "imagem_pasta": "https://animefire.plus/img/animes/slayers/",
      "secao": "dublados,legendados",
      "pagina": 17,
      "total_episodios": 26,
      "link_video": "https://animefire.plus/video/slayers-dublado"
    },
    {
      "id": 3555,
      "nome": "Slime Taoshite 300-nen, Shiranai Uchi ni Level Max ni Nattemashita (Dublado)",
      "link": "https://animefire.plus/animes/slime-taoshite-300-nen-shiranai-uchi-ni-level-max-ni-nattemashita-dublado-todos-os-episodios",
      "texto_original": "Slime Taoshite 300-nen, Shiranai Uchi ni Level Max ni Nattemashita (Dublado)",
      "rating": 6.9,
      "classificacao_etaria": "A14",
      "imagem_original": "https://animefire.plus/img/animes/slime-taoshite-300-nen-shiranai-uchi-ni-level-max-ni-nattemashita.webp",
      "imagem_pasta": "https://animefire.plus/img/animes/slime-taoshite-300-nen-shiranai-uchi-ni-level-max-ni-nattemashita/",
      "secao": "dublados,legendados",
      "pagina": 17,
      "total_episodios": 12,
      "link_video": "https://animefire.plus/video/slime-taoshite-300-nen-shiranai-uchi-ni-level-max-ni-nattemashita-dublado"
    },
    {
      "id": 3559,
      "nome": "Smile Precure! (Dublado)",
      "link": "https://animefire.plus/animes/smile-precure-dublado-todos-os-episodios",
      "texto_original": "Smile Precure! (Dublado)",
      "rating": 6.95,
      "classificacao_etaria": null,
      "imagem_original": "https://animefire.plus/img/animes/smile-precure.webp",
      "imagem_pasta": "https://animefire.plus/img/animes/smile-precure/",
      "secao": "dublados,legendados",
      "pagina": 22,
      "total_episodios": 40,
      "link_video": "https://animefire.plus/video/smile-precure-dublado"
    },
    {
      "id": 3569,
      "nome": "Sonny Boy (Dublado)",
      "link": "https://animefire.plus/animes/sonny-boy-dublado-todos-os-episodios",
      "texto_original": "Sonny Boy (Dublado)",
      "rating": 7.83,
      "classificacao_etaria": "A14",
      "imagem_original": "https://animefire.plus/img/animes/sonny-boy.webp",
      "imagem_pasta": "https://animefire.plus/img/animes/sonny-boy/",
      "secao": "dublados,legendados",
      "pagina": 16,
      "total_episodios": 12,
      "link_video": "https://animefire.plus/video/sonny-boy-dublado"
    },
    {
      "id": 3570,
      "nome": "Sono Bisque Doll wa Koi wo Suru (Dublado)",
      "link": "https://animefire.plus/animes/sono-bisque-doll-wa-koi-wo-suru-dublado-todos-os-episodios",
      "texto_original": "Sono Bisque Doll wa Koi wo Suru (Dublado)",
      "rating": 8.15,
      "classificacao_etaria": "A14",
      "imagem_original": "https://animefire.plus/img/animes/sono-bisque-doll-wa-koi-wo-suru.webp",
      "imagem_pasta": "https://animefire.plus/img/animes/sono-bisque-doll-wa-koi-wo-suru/",
      "secao": "dublados,legendados",
      "pagina": 12,
      "total_episodios": 12,
      "link_video": "https://animefire.plus/video/sono-bisque-doll-wa-koi-wo-suru-dublado"
    },
    {
      "id": 3592,
      "nome": "Soul Eater (Dublado)",
      "link": "https://animefire.plus/animes/soul-eater-dublado-todos-os-episodios",
      "texto_original": "Soul Eater (Dublado)",
      "rating": 7.85,
      "classificacao_etaria": "A14",
      "imagem_original": "https://animefire.plus/img/animes/soul-eater.webp",
      "imagem_pasta": "https://animefire.plus/img/animes/soul-eater/",
      "secao": "dublados,legendados",
      "pagina": 13,
      "total_episodios": 51,
      "link_video": "https://animefire.plus/video/soul-eater-dublado"
    }
  ],
  "pagination": {
    "current_page": 27,
    "per_page": 20,
    "total_items": 656,
    "total_pages": 33,
    "has_next": true,
    "has_prev": true
  }
}
