{
  "message": "Animes da seção: dublados",
  "section": "dublados",
  "data": [
    {
      "id": 1310,
      "nome": "Haikyuu!! Second Season (Dublado)",
      "link": "https://animefire.plus/animes/haikyuu-second-season-dublado-todos-os-episodios",
      "texto_original": "Haikyuu!! Second Season (Dublado)",
      "rating": 8.64,
      "classificacao_etaria": "A14",
      "imagem_original": "https://animefire.plus/img/animes/haikyuu-second-season.webp",
      "imagem_pasta": "https://animefire.plus/img/animes/haikyuu-second-season/",
      "secao": "dublados,legendados",
      "pagina": 8,
      "total_episodios": 25,
      "link_video": "https://animefire.plus/video/haikyuu-second-season-dublado"
    },
    {
      "id": 1318,
      "nome": "Haiyore! Nyaruko-san (Dublado)",
      "link": "https://animefire.plus/animes/haiyore-nyaruko-san-dublado-todos-os-episodios",
      "texto_original": "Haiyore! Nyaruko-san (Dublado)",
      "rating": 6.99,
      "classificacao_etaria": "A14",
      "imagem_original": "https://animefire.plus/img/animes/haiyore-nyaruko-san.webp",
      "imagem_pasta": "https://animefire.plus/img/animes/haiyore-nyaruko-san/",
      "secao": "dublados,legendados",
      "pagina": 5,
      "total_episodios": 12,
      "link_video": "https://animefire.plus/video/haiyore-nyaruko-san-dublado"
    },
    {
      "id": 1320,
      "nome": "Haiyore! Nyaruko-san W (Dublado)",
      "link": "https://animefire.plus/animes/haiyore-nyaruko-san-w-dublado-todos-os-episodios",
      "texto_original": "Haiyore! Nyaruko-san W (Dublado)",
      "rating": 7.22,
      "classificacao_etaria": "A14",
      "imagem_original": "https://animefire.plus/img/animes/haiyore-nyaruko-san-w.webp",
      "imagem_pasta": "https://animefire.plus/img/animes/haiyore-nyaruko-san-w/",
      "secao": "dublados,legendados",
      "pagina": 4,
      "total_episodios": 12,
      "link_video": "https://animefire.plus/video/haiyore-nyaruko-san-w-dublado"
    },
    {
      "id": 1352,
      "nome": "Hananoi-kun to Koi no Yamai (Dublado)",
      "link": "https://animefire.plus/animes/hananoi-kun-to-koi-no-yamai-dublado-todos-os-episodios",
      "texto_original": "Hananoi-kun to Koi no Yamai (Dublado)",
      "rating": 6.75,
      "classificacao_etaria": "A14",
      "imagem_original": "https://animefire.plus/img/animes/hananoi-kun-to-koi-no-yamai.webp",
      "imagem_pasta": "https://animefire.plus/img/animes/hananoi-kun-to-koi-no-yamai/",
      "secao": "dublados,legendados,lancamentos",
      "pagina": 2,
      "total_episodios": 12,
      "link_video": "https://animefire.plus/video/hananoi-kun-to-koi-no-yamai-dublado"
    },
    {
      "id": 1367,
      "nome": "Hanma Baki: Son of Ogre (Dublado)",
      "link": "https://animefire.plus/animes/hanma-baki-son-of-ogre-dublado-todos-os-episodios",
      "texto_original": "Hanma Baki: Son of Ogre (Dublado)",
      "rating": 7.64,
      "classificacao_etaria": "A16",
      "imagem_original": "https://animefire.plus/img/animes/hanma-baki-son-of-ogre.webp",
      "imagem_pasta": "https://animefire.plus/img/animes/hanma-baki-son-of-ogre/",
      "secao": "dublados,legendados",
      "pagina": 15,
      "total_episodios": 12,
      "link_video": "https://animefire.plus/video/hanma-baki-son-of-ogre-dublado"
    },
    {
      "id": 1368,
      "nome": "Hanma Baki: Son of Ogre 2nd Season (Dublado)",
      "link": "https://animefire.plus/animes/hanma-baki-son-of-ogre-2nd-season-dublado-todos-os-episodios",
      "texto_original": "Hanma Baki: Son of Ogre 2nd Season (Dublado)",
      "rating": 7.94,
      "classificacao_etaria": "A16",
      "imagem_original": "https://animefire.plus/img/animes/hanma-baki-son-of-ogre-2nd-season.webp",
      "imagem_pasta": "https://animefire.plus/img/animes/hanma-baki-son-of-ogre-2nd-season/",
      "secao": "dublados,legendados",
      "pagina": 6,
      "total_episodios": 27,
      "link_video": "https://animefire.plus/video/hanma-baki-son-of-ogre-2nd-season-dublado"
    },
    {
      "id": 1371,
      "nome": "Hanyou no Yashahime: Sengoku Otogizoushi - Ni no Shou (Dublado)",
      "link": "https://animefire.plus/animes/hanyou-no-yashahime-sengoku-otogizoushi---ni-no-shou-dublado-todos-os-episodios",
      "texto_original": "Hanyou no Yashahime: Sengoku Otogizoushi - Ni no Shou (Dublado)",
      "rating": 7.06,
      "classificacao_etaria": "A14",
      "imagem_original": "https://animefire.plus/img/animes/hanyou-no-yashahime-sengoku-otogizoushi---ni-no-shou.webp",
      "imagem_pasta": "https://animefire.plus/img/animes/hanyou-no-yashahime-sengoku-otogizoushi---ni-no-shou/",
      "secao": "dublados,legendados",
      "pagina": 14,
      "total_episodios": 24,
      "link_video": "https://animefire.plus/video/hanyou-no-yashahime-sengoku-otogizoushi---ni-no-shou-dublado"
    },
    {
      "id": 1372,
      "nome": "Hanyou no Yashahime: Sengoku Otogizoushi (Dublado)",
      "link": "https://animefire.plus/animes/hanyou-no-yashahime-sengoku-otogizoushi-dublado-todos-os-episodios",
      "texto_original": "Hanyou no Yashahime: Sengoku Otogizoushi (Dublado)",
      "rating": 7.36,
      "classificacao_etaria": "A14",
      "imagem_original": "https://animefire.plus/img/animes/hanyou-no-yashahime-sengoku-otogizoushi.webp",
      "imagem_pasta": "https://animefire.plus/img/animes/hanyou-no-yashahime-sengoku-otogizoushi/",
      "secao": "dublados,legendados,lancamentos",
      "pagina": 19,
      "total_episodios": 24,
      "link_video": "https://animefire.plus/video/hanyou-no-yashahime-sengoku-otogizoushi-dublado"
    },
    {
      "id": 1385,
      "nome": "Hataraku Maou-sama!! 2nd Season (Dublado)",
      "link": "https://animefire.plus/animes/hataraku-maou-sama-2nd-season-dublado-todos-os-episodios",
      "texto_original": "Hataraku Maou-sama!! 2nd Season (Dublado)",
      "rating": 6.67,
      "classificacao_etaria": "A14",
      "imagem_original": "https://animefire.plus/img/animes/hataraku-maou-sama-2nd-season.webp",
      "imagem_pasta": "https://animefire.plus/img/animes/hataraku-maou-sama-2nd-season/",
      "secao": "dublados,legendados",
      "pagina": 6,
      "total_episodios": 12,
      "link_video": "https://animefire.plus/video/hataraku-maou-sama-2nd-season-dublado"
    },
    {
      "id": 1414,
      "nome": "Hellsing (Dublado)",
      "link": "https://animefire.plus/animes/hellsing-dublado-todos-os-episodios",
      "texto_original": "Hellsing (Dublado)",
      "rating": 7.58,
      "classificacao_etaria": "A16",
      "imagem_original": "https://animefire.plus/img/animes/hellsing.webp",
      "imagem_pasta": "https://animefire.plus/img/animes/hellsing/",
      "secao": "dublados,legendados",
      "pagina": 26,
      "total_episodios": 13,
      "link_video": "https://animefire.plus/video/hellsing-dublado"
    },
    {
      "id": 1421,
      "nome": "Heppoko Jikken Animation Excel♥Saga (Dublado)",
      "link": "https://animefire.plus/animes/heppoko-jikken-animation-excel-saga-dublado-todos-os-episodios",
      "texto_original": "Heppoko Jikken Animation Excel♥Saga (Dublado)",
      "rating": 7.51,
      "classificacao_etaria": "A16",
      "imagem_original": "https://animefire.plus/img/animes/heppoko-jikken-animation-excel-saga.webp",
      "imagem_pasta": "https://animefire.plus/img/animes/heppoko-jikken-animation-excel-saga/",
      "secao": "dublados,legendados",
      "pagina": 22,
      "total_episodios": 26,
      "link_video": "https://animefire.plus/video/heppoko-jikken-animation-excel-saga-dublado"
    },
    {
      "id": 1423,
      "nome": "Hero Mask (2019) (Dublado)",
      "link": "https://animefire.plus/animes/hero-mask-2019-dublado-todos-os-episodios",
      "texto_original": "Hero Mask (2019) (Dublado)",
      "rating": 6.61,
      "classificacao_etaria": "A16",
      "imagem_original": "https://animefire.plus/img/animes/hero-mask-2019.webp",
      "imagem_pasta": "https://animefire.plus/img/animes/hero-mask-2019/",
      "secao": "dublados,legendados",
      "pagina": 21,
      "total_episodios": 9,
      "link_video": "https://animefire.plus/video/hero-mask-2019-dublado"
    },
    {
      "id": 1424,
      "nome": "Hero Mask (Dublado)",
      "link": "https://animefire.plus/animes/hero-mask-dublado-todos-os-episodios",
      "texto_original": "Hero Mask (Dublado)",
      "rating": 6.39,
      "classificacao_etaria": "A16",
      "imagem_original": "https://animefire.plus/img/animes/hero-mask.webp",
      "imagem_pasta": "https://animefire.plus/img/animes/hero-mask/",
      "secao": "dublados,legendados",
      "pagina": 25,
      "total_episodios": 15,
      "link_video": "https://animefire.plus/video/hero-mask-dublado"
    },
    {
      "id": 1460,
      "nome": "High Score Girl (Dublado)",
      "link": "https://animefire.plus/animes/high-score-girl-dublado-todos-os-episodios",
      "texto_original": "High Score Girl (Dublado)",
      "rating": 8.02,
      "classificacao_etaria": "A14",
      "imagem_original": "https://animefire.plus/img/animes/high-score-girl.webp",
      "imagem_pasta": "https://animefire.plus/img/animes/high-score-girl/",
      "secao": "dublados,legendados",
      "pagina": 24,
      "total_episodios": 12,
      "link_video": "https://animefire.plus/video/high-score-girl-dublado"
    },
    {
      "id": 1461,
      "nome": "High Score Girl II (Dublado)",
      "link": "https://animefire.plus/animes/high-score-girl-ii-dublado-todos-os-episodios",
      "texto_original": "High Score Girl II (Dublado)",
      "rating": 8.21,
      "classificacao_etaria": "A14",
      "imagem_original": "https://animefire.plus/img/animes/high-score-girl-ii.webp",
      "imagem_pasta": "https://animefire.plus/img/animes/high-score-girl-ii/",
      "secao": "dublados,legendados",
      "pagina": 23,
      "total_episodios": 9,
      "link_video": "https://animefire.plus/video/high-score-girl-ii-dublado"
    },
    {
      "id": 1462,
      "nome": "High Score Girl: Extra Stage (Dublado)",
      "link": "https://animefire.plus/animes/high-score-girl-extra-stage-dublado-todos-os-episodios",
      "texto_original": "High Score Girl: Extra Stage (Dublado)",
      "rating": 8.07,
      "classificacao_etaria": "A14",
      "imagem_original": "https://animefire.plus/img/animes/high-score-girl-extra-stage.webp",
      "imagem_pasta": "https://animefire.plus/img/animes/high-score-girl-extra-stage/",
      "secao": "dublados,legendados",
      "pagina": 24,
      "total_episodios": 3,
      "link_video": "https://animefire.plus/video/high-score-girl-extra-stage-dublado"
    },
    {
      "id": 1467,
      "nome": "Higurashi no Naku Koro ni Gou (Dublado)",
      "link": "https://animefire.plus/animes/higurashi-no-naku-koro-ni-gou-dublado-todos-os-episodios",
      "texto_original": "Higurashi no Naku Koro ni Gou (Dublado)",
      "rating": 7.22,
      "classificacao_etaria": "A16",
      "imagem_original": "https://animefire.plus/img/animes/higurashi-no-naku-koro-ni-gou.webp",
      "imagem_pasta": "https://animefire.plus/img/animes/higurashi-no-naku-koro-ni-gou/",
      "secao": "dublados",
      "pagina": 14,
      "total_episodios": 24,
      "link_video": "https://animefire.plus/video/higurashi-no-naku-koro-ni-gou-dublado"
    },
    {
      "id": 1480,
      "nome": "Hikaru no Go (Dublado)",
      "link": "https://animefire.plus/animes/hikaru-no-go-dublado-todos-os-episodios",
      "texto_original": "Hikaru no Go (Dublado)",
      "rating": 8.07,
      "classificacao_etaria": "A14",
      "imagem_original": "https://animefire.plus/img/animes/hikaru-no-go.webp",
      "imagem_pasta": "https://animefire.plus/img/animes/hikaru-no-go/",
      "secao": "dublados",
      "pagina": 3,
      "total_episodios": 10,
      "link_video": "https://animefire.plus/video/hikaru-no-go-dublado"
    },
    {
      "id": 1498,
      "nome": "Hisone to Maso-tan (Dublado)",
      "link": "https://animefire.plus/animes/hisone-to-maso-tan-dublado-todos-os-episodios",
      "texto_original": "Hisone to Maso-tan (Dublado)",
      "rating": 7.45,
      "classificacao_etaria": "A14",
      "imagem_original": "https://animefire.plus/img/animes/hisone-to-maso-tan.webp",
      "imagem_pasta": "https://animefire.plus/img/animes/hisone-to-maso-tan/",
      "secao": "dublados,legendados",
      "pagina": 24,
      "total_episodios": 12,
      "link_video": "https://animefire.plus/video/hisone-to-maso-tan-dublado"
    },
    {
      "id": 1526,
      "nome": "Horimiya (Dublado)",
      "link": "https://animefire.plus/animes/horimiya-dublado-todos-os-episodios",
      "texto_original": "Horimiya (Dublado)",
      "rating": 8.19,
      "classificacao_etaria": "A14",
      "imagem_original": "https://animefire.plus/img/animes/horimiya.webp",
      "imagem_pasta": "https://animefire.plus/img/animes/horimiya/",
      "secao": "dublados,legendados",
      "pagina": 15,
      "total_episodios": 13,
      "link_video": "https://animefire.plus/video/horimiya-dublado"
    }
  ],
  "pagination": {
    "current_page": 11,
    "per_page": 20,
    "total_items": 656,
    "total_pages": 33,
    "has_next": true,
    "has_prev": true
  }
}
