{
  "message": "Animes da seção: dublados",
  "section": "dublados",
  "data": [
    {
      "id": 983,
      "nome": "Fate/Apocrypha (Dublado)",
      "link": "https://animefire.plus/animes/fate-apocrypha-dublado-todos-os-episodios",
      "texto_original": "Fate/Apocrypha (Dublado)",
      "rating": 7.16,
      "classificacao_etaria": "A16",
      "imagem_original": "https://animefire.plus/img/animes/fate-apocrypha.webp",
      "imagem_pasta": "https://animefire.plus/img/animes/fate-apocrypha/",
      "secao": "dublados,legendados",
      "pagina": 17,
      "total_episodios": 25,
      "link_video": "https://animefire.plus/video/fate-apocrypha-dublado"
    },
    {
      "id": 985,
      "nome": "Fate/Extra: Last Encore (Dublado)",
      "link": "https://animefire.plus/animes/fate-extra-last-encore-dublado-todos-os-episodios",
      "texto_original": "Fate/Extra: Last Encore (Dublado)",
      "rating": 6.38,
      "classificacao_etaria": "A16",
      "imagem_original": "https://animefire.plus/img/animes/fate-extra-last-encore.webp",
      "imagem_pasta": "https://animefire.plus/img/animes/fate-extra-last-encore/",
      "secao": "dublados,legendados",
      "pagina": 24,
      "total_episodios": 10,
      "link_video": "https://animefire.plus/video/fate-extra-last-encore-dublado"
    },
    {
      "id": 997,
      "nome": "Fate/Stay Night (Dublado)",
      "link": "https://animefire.plus/animes/fate-stay-night-dublado-todos-os-episodios",
      "texto_original": "Fate/Stay Night (Dublado)",
      "rating": 7.46,
      "classificacao_etaria": "A16",
      "imagem_original": "https://animefire.plus/img/animes/fate-stay-night.webp",
      "imagem_pasta": "https://animefire.plus/img/animes/fate-stay-night/",
      "secao": "dublados,legendados",
      "pagina": 26,
      "total_episodios": 24,
      "link_video": "https://animefire.plus/video/fate-stay-night-dublado"
    },
    {
      "id": 1023,
      "nome": "Free! (Dublado)",
      "link": "https://animefire.plus/animes/free-dublado-todos-os-episodios",
      "texto_original": "Free! (Dublado)",
      "rating": 7.48,
      "classificacao_etaria": "A14",
      "imagem_original": "https://animefire.plus/img/animes/free.webp",
      "imagem_pasta": "https://animefire.plus/img/animes/free/",
      "secao": "dublados,legendados",
      "pagina": 24,
      "total_episodios": 12,
      "link_video": "https://animefire.plus/video/free-dublado"
    },
    {
      "id": 1032,
      "nome": "Fruits Basket 1st Season (Dublado)",
      "link": "https://animefire.plus/animes/fruits-basket-1st-season-dublado-todos-os-episodios",
      "texto_original": "Fruits Basket 1st Season (Dublado)",
      "rating": 8.2,
      "classificacao_etaria": "A14",
      "imagem_original": "https://animefire.plus/img/animes/fruits-basket-1st-season.webp",
      "imagem_pasta": "https://animefire.plus/img/animes/fruits-basket-1st-season/",
      "secao": "dublados",
      "pagina": 17,
      "total_episodios": 25,
      "link_video": "https://animefire.plus/video/fruits-basket-1st-season-dublado"
    },
    {
      "id": 1033,
      "nome": "Fruits Basket 2nd Season (Dublado)",
      "link": "https://animefire.plus/animes/fruits-basket-2nd-season-dublado-todos-os-episodios",
      "texto_original": "Fruits Basket 2nd Season (Dublado)",
      "rating": 8.55,
      "classificacao_etaria": "A14",
      "imagem_original": "https://animefire.plus/img/animes/fruits-basket-2nd-season.webp",
      "imagem_pasta": "https://animefire.plus/img/animes/fruits-basket-2nd-season/",
      "secao": "dublados,legendados",
      "pagina": 17,
      "total_episodios": 25,
      "link_video": "https://animefire.plus/video/fruits-basket-2nd-season-dublado"
    },
    {
      "id": 1034,
      "nome": "Fruits Basket: The Final (Dublado)",
      "link": "https://animefire.plus/animes/fruits-basket-the-final-dublado-todos-os-episodios",
      "texto_original": "Fruits Basket: The Final (Dublado)",
      "rating": 8.95,
      "classificacao_etaria": "A14",
      "imagem_original": "https://animefire.plus/img/animes/fruits-basket-the-final.webp",
      "imagem_pasta": "https://animefire.plus/img/animes/fruits-basket-the-final/",
      "secao": "dublados,legendados",
      "pagina": 17,
      "total_episodios": 13,
      "link_video": "https://animefire.plus/video/fruits-basket-the-final-dublado"
    },
    {
      "id": 1046,
      "nome": "Fullmetal Alchemist (Dublado)",
      "link": "https://animefire.plus/animes/fullmetal-alchemist-dublado-todos-os-episodios",
      "texto_original": "Fullmetal Alchemist (Dublado)",
      "rating": 8.22,
      "classificacao_etaria": "A16",
      "imagem_original": "https://animefire.plus/img/animes/fullmetal-alchemist.webp",
      "imagem_pasta": "https://animefire.plus/img/animes/fullmetal-alchemist/",
      "secao": "dublados,legendados",
      "pagina": 21,
      "total_episodios": 51,
      "link_video": "https://animefire.plus/video/fullmetal-alchemist-dublado"
    },
    {
      "id": 1047,
      "nome": "Fullmetal Alchemist: Brotherhood (Dublado)",
      "link": "https://animefire.plus/animes/fullmetal-alchemist-brotherhood-dublado-todos-os-episodios",
      "texto_original": "Fullmetal Alchemist: Brotherhood (Dublado)",
      "rating": 9.23,
      "classificacao_etaria": "A16",
      "imagem_original": "https://animefire.plus/img/animes/fullmetal-alchemist-brotherhood.webp",
      "imagem_pasta": "https://animefire.plus/img/animes/fullmetal-alchemist-brotherhood/",
      "secao": "dublados",
      "pagina": 25,
      "total_episodios": 64,
      "link_video": "https://animefire.plus/video/fullmetal-alchemist-brotherhood-dublado"
    },
    {
      "id": 1048,
      "nome": "Fumetsu no Anata e (Dublado)",
      "link": "https://animefire.plus/animes/fumetsu-no-anata-e-dublado-todos-os-episodios",
      "texto_original": "Fumetsu no Anata e (Dublado)",
      "rating": 8.34,
      "classificacao_etaria": "A16",
      "imagem_original": "https://animefire.plus/img/animes/fumetsu-no-anata-e.webp",
      "imagem_pasta": "https://animefire.plus/img/animes/fumetsu-no-anata-e/",
      "secao": "dublados,legendados",
      "pagina": 17,
      "total_episodios": 20,
      "link_video": "https://animefire.plus/video/fumetsu-no-anata-e-dublado"
    },
    {
      "id": 1049,
      "nome": "Fumetsu no Anata e 2nd Season (Dublado)",
      "link": "https://animefire.plus/animes/fumetsu-no-anata-e-2nd-season-dublado-todos-os-episodios",
      "texto_original": "Fumetsu no Anata e 2nd Season (Dublado)",
      "rating": 8.1,
      "classificacao_etaria": "A16",
      "imagem_original": "https://animefire.plus/img/animes/fumetsu-no-anata-e-2nd-season.webp",
      "imagem_pasta": "https://animefire.plus/img/animes/fumetsu-no-anata-e-2nd-season/",
      "secao": "dublados,legendados",
      "pagina": 8,
      "total_episodios": 20,
      "link_video": "https://animefire.plus/video/fumetsu-no-anata-e-2nd-season-dublado"
    },
    {
      "id": 1067,
      "nome": "Fuufu Ijou, Koibito Miman. (Dublado)",
      "link": "https://animefire.plus/animes/fuufu-ijou-koibito-miman-dublado-todos-os-episodios",
      "texto_original": "Fuufu Ijou, Koibito Miman. (Dublado)",
      "rating": 7.59,
      "classificacao_etaria": "A14",
      "imagem_original": "https://animefire.plus/img/animes/fuufu-ijou-koibito-miman.webp",
      "imagem_pasta": "https://animefire.plus/img/animes/fuufu-ijou-koibito-miman/",
      "secao": "dublados,legendados",
      "pagina": 9,
      "total_episodios": 12,
      "link_video": "https://animefire.plus/video/fuufu-ijou-koibito-miman-dublado"
    },
    {
      "id": 1069,
      "nome": "Fuuma no Kojirou: Yasha-hen (Dublado)",
      "link": "https://animefire.plus/animes/fuuma-no-kojirou-yasha-hen-dublado-todos-os-episodios",
      "texto_original": "Fuuma no Kojirou: Yasha-hen (Dublado)",
      "rating": 6.71,
      "classificacao_etaria": "A16",
      "imagem_original": "https://animefire.plus/img/animes/fuuma-no-kojirou-yasha-hen.webp",
      "imagem_pasta": "https://animefire.plus/img/animes/fuuma-no-kojirou-yasha-hen/",
      "secao": "dublados",
      "pagina": 27,
      "total_episodios": 4,
      "link_video": "https://animefire.plus/video/fuuma-no-kojirou-yasha-hen-dublado"
    },
    {
      "id": 1070,
      "nome": "Fuuto Tantei (Dublado)",
      "link": "https://animefire.plus/animes/fuuto-tantei-dublado-todos-os-episodios",
      "texto_original": "Fuuto Tantei (Dublado)",
      "rating": 7.32,
      "classificacao_etaria": "A14",
      "imagem_original": "https://animefire.plus/img/animes/fuuto-tantei.webp",
      "imagem_pasta": "https://animefire.plus/img/animes/fuuto-tantei/",
      "secao": "dublados,legendados",
      "pagina": 10,
      "total_episodios": 12,
      "link_video": "https://animefire.plus/video/fuuto-tantei-dublado"
    },
    {
      "id": 1075,
      "nome": "Gachiakuta (Dublado)",
      "link": "https://animefire.plus/animes/gachiakuta-dublado-todos-os-episodios",
      "texto_original": "Gachiakuta (Dublado)",
      "rating": 8.07,
      "classificacao_etaria": "A14",
      "imagem_original": "https://animefire.plus/img/animes/gachiakuta.webp",
      "imagem_pasta": "https://animefire.plus/img/animes/gachiakuta/",
      "secao": "dublados,legendados,lancamentos",
      "pagina": 1,
      "total_episodios": 4,
      "link_video": "https://animefire.plus/video/gachiakuta-dublado"
    },
    {
      "id": 1080,
      "nome": "Gakkou no Kaidan (Dublado)",
      "link": "https://animefire.plus/animes/gakkou-no-kaidan-dublado-todos-os-episodios",
      "texto_original": "Gakkou no Kaidan (Dublado)",
      "rating": 7.7,
      "classificacao_etaria": "A14",
      "imagem_original": "https://animefire.plus/img/animes/gakkou-no-kaidan.webp",
      "imagem_pasta": "https://animefire.plus/img/animes/gakkou-no-kaidan/",
      "secao": "dublados",
      "pagina": 22,
      "total_episodios": 20,
      "link_video": "https://animefire.plus/video/gakkou-no-kaidan-dublado"
    },
    {
      "id": 1094,
      "nome": "Galaxy Angel (Dublado)",
      "link": "https://animefire.plus/animes/galaxy-angel-dublado-todos-os-episodios",
      "texto_original": "Galaxy Angel (Dublado)",
      "rating": 7.02,
      "classificacao_etaria": "A14",
      "imagem_original": "https://animefire.plus/img/animes/galaxy-angel.webp",
      "imagem_pasta": "https://animefire.plus/img/animes/galaxy-angel/",
      "secao": "dublados,legendados",
      "pagina": 17,
      "total_episodios": 26,
      "link_video": "https://animefire.plus/video/galaxy-angel-dublado"
    },
    {
      "id": 1106,
      "nome": "Gankutsuou (Dublado)",
      "link": "https://animefire.plus/animes/gankutsuou-dublado-todos-os-episodios",
      "texto_original": "Gankutsuou (Dublado)",
      "rating": 8.19,
      "classificacao_etaria": "A16",
      "imagem_original": "https://animefire.plus/img/animes/gankutsuou.webp",
      "imagem_pasta": "https://animefire.plus/img/animes/gankutsuou/",
      "secao": "dublados,legendados",
      "pagina": 22,
      "total_episodios": 24,
      "link_video": "https://animefire.plus/video/gankutsuou-dublado"
    },
    {
      "id": 1107,
      "nome": "Gantz (Dublado)",
      "link": "https://animefire.plus/animes/gantz-dublado-todos-os-episodios",
      "texto_original": "Gantz (Dublado)",
      "rating": 7.09,
      "classificacao_etaria": "A18",
      "imagem_original": "https://animefire.plus/img/animes/gantz.webp",
      "imagem_pasta": "https://animefire.plus/img/animes/gantz/",
      "secao": "dublados,legendados",
      "pagina": 21,
      "total_episodios": 26,
      "link_video": "https://animefire.plus/video/gantz-dublado"
    },
    {
      "id": 1125,
      "nome": "Gekkan Shoujo Nozaki-kun (Dublado)",
      "link": "https://animefire.plus/animes/gekkan-shoujo-nozaki-kun-dublado-todos-os-episodios",
      "texto_original": "Gekkan Shoujo Nozaki-kun (Dublado)",
      "rating": 8.05,
      "classificacao_etaria": "A14",
      "imagem_original": "https://animefire.plus/img/animes/gekkan-shoujo-nozaki-kun.webp",
      "imagem_pasta": "https://animefire.plus/img/animes/gekkan-shoujo-nozaki-kun/",
      "secao": "dublados,legendados",
      "pagina": 23,
      "total_episodios": 12,
      "link_video": "https://animefire.plus/video/gekkan-shoujo-nozaki-kun-dublado"
    }
  ],
  "pagination": {
    "current_page": 9,
    "per_page": 20,
    "total_items": 656,
    "total_pages": 33,
    "has_next": true,
    "has_prev": true
  }
}
