{
  "message": "Animes da seção: dublados",
  "section": "dublados",
  "data": [
    {
      "id": 2998,
      "nome": "Pokemon (2019): Kami to Yobareshi Arceus (Dublado)",
      "link": "https://animefire.plus/animes/pokemon-2019-kami-to-yobareshi-arceus-dublado-todos-os-episodios",
      "texto_original": "Pokemon (2019): Kami to Yobareshi Arceus (Dublado)",
      "rating": 6.67,
      "classificacao_etaria": "A10",
      "imagem_original": "https://animefire.plus/img/animes/pokemon-2019-kami-to-yobareshi-arceus.webp",
      "imagem_pasta": "https://animefire.plus/img/animes/pokemon-2019-kami-to-yobareshi-arceus/",
      "secao": "dublados,legendados",
      "pagina": 9,
      "total_episodios": 1,
      "link_video": "https://animefire.plus/video/pokemon-2019-kami-to-yobareshi-arceus-dublado"
    },
    {
      "id": 2999,
      "nome": "Pokemon (Dublado)",
      "link": "https://animefire.plus/animes/pokemon-dublado-todos-os-episodios",
      "texto_original": "Pokemon (Dublado)",
      "rating": 7.42,
      "classificacao_etaria": "A10",
      "imagem_original": "https://animefire.plus/img/animes/pokemon.webp",
      "imagem_pasta": "https://animefire.plus/img/animes/pokemon/",
      "secao": "dublados",
      "pagina": 27,
      "total_episodios": 0,
      "link_video": "https://animefire.plus/video/pokemon-dublado"
    },
    {
      "id": 3000,
      "nome": "Pokemon Advanced Generation (Dublado)",
      "link": "https://animefire.plus/animes/pokemon-advanced-generation-dublado-todos-os-episodios",
      "texto_original": "Pokemon Advanced Generation (Dublado)",
      "rating": 7.18,
      "classificacao_etaria": "A10",
      "imagem_original": "https://animefire.plus/img/animes/pokemon-advanced-generation.webp",
      "imagem_pasta": "https://animefire.plus/img/animes/pokemon-advanced-generation/",
      "secao": "dublados,legendados",
      "pagina": 28,
      "total_episodios": 104,
      "link_video": "https://animefire.plus/video/pokemon-advanced-generation-dublado"
    },
    {
      "id": 3006,
      "nome": "Pokemon XY (Dublado)",
      "link": "https://animefire.plus/animes/pokemon-xy-dublado-todos-os-episodios",
      "texto_original": "Pokemon XY (Dublado)",
      "rating": 7.4,
      "classificacao_etaria": "A10",
      "imagem_original": "https://animefire.plus/img/animes/pokemon-xy.webp",
      "imagem_pasta": "https://animefire.plus/img/animes/pokemon-xy/",
      "secao": "dublados,legendados",
      "pagina": 27,
      "total_episodios": 100,
      "link_video": "https://animefire.plus/video/pokemon-xy-dublado"
    },
    {
      "id": 3063,
      "nome": "Radiant (Dublado)",
      "link": "https://animefire.plus/animes/radiant-dublado-todos-os-episodios",
      "texto_original": "Radiant (Dublado)",
      "rating": 6.88,
      "classificacao_etaria": "A14",
      "imagem_original": "https://animefire.plus/img/animes/radiant.webp",
      "imagem_pasta": "https://animefire.plus/img/animes/radiant/",
      "secao": "dublados,legendados",
      "pagina": 18,
      "total_episodios": 21,
      "link_video": "https://animefire.plus/video/radiant-dublado"
    },
    {
      "id": 3065,
      "nome": "Radiant 2nd Season (Dublado)",
      "link": "https://animefire.plus/animes/radiant-2-dublado-todos-os-episodios",
      "texto_original": "Radiant 2nd Season (Dublado)",
      "rating": 7.62,
      "classificacao_etaria": "A14",
      "imagem_original": "https://animefire.plus/img/animes/radiant-2.webp",
      "imagem_pasta": "https://animefire.plus/img/animes/radiant-2/",
      "secao": "dublados",
      "pagina": 18,
      "total_episodios": 21,
      "link_video": "https://animefire.plus/video/radiant-2-dublado"
    },
    {
      "id": 3066,
      "nome": "Ragna Crimson (Dublado)",
      "link": "https://animefire.plus/animes/ragna-crimson-dublado-todos-os-episodios",
      "texto_original": "Ragna Crimson (Dublado)",
      "rating": 7.55,
      "classificacao_etaria": "A14",
      "imagem_original": "https://animefire.plus/img/animes/ragna-crimson.webp",
      "imagem_pasta": "https://animefire.plus/img/animes/ragna-crimson/",
      "secao": "dublados,legendados,lancamentos",
      "pagina": 5,
      "total_episodios": 24,
      "link_video": "https://animefire.plus/video/ragna-crimson-dublado"
    },
    {
      "id": 3067,
      "nome": "Ragnarök The Animation (Dublado)",
      "link": "https://animefire.plus/animes/ragnaroek-the-animation-dublado-todos-os-episodios",
      "texto_original": "Ragnarök The Animation (Dublado)",
      "rating": 6.49,
      "classificacao_etaria": "A14",
      "imagem_original": "https://animefire.plus/img/animes/ragnaroek-the-animation.webp",
      "imagem_pasta": "https://animefire.plus/img/animes/ragnaroek-the-animation/",
      "secao": "dublados,legendados",
      "pagina": 23,
      "total_episodios": 26,
      "link_video": "https://animefire.plus/video/ragnaroek-the-animation-dublado"
    },
    {
      "id": 3080,
      "nome": "Ranma ½ (Dublado)",
      "link": "https://animefire.plus/animes/ranma-dublado-todos-os-episodios",
      "texto_original": "Ranma ½ (Dublado)",
      "rating": 7.78,
      "classificacao_etaria": "A18",
      "imagem_original": "https://animefire.plus/img/animes/ranma.webp",
      "imagem_pasta": "https://animefire.plus/img/animes/ranma/",
      "secao": "dublados",
      "pagina": 23,
      "total_episodios": 161,
      "link_video": "https://animefire.plus/video/ranma-dublado"
    },
    {
      "id": 3086,
      "nome": "Re-Main (Dublado)",
      "link": "https://animefire.plus/animes/re-main-dublado-todos-os-episodios",
      "texto_original": "Re-Main (Dublado)",
      "rating": 7.19,
      "classificacao_etaria": "A14",
      "imagem_original": "https://animefire.plus/img/animes/re-main.webp",
      "imagem_pasta": "https://animefire.plus/img/animes/re-main/",
      "secao": "dublados,legendados",
      "pagina": 11,
      "total_episodios": 12,
      "link_video": "https://animefire.plus/video/re-main-dublado"
    },
    {
      "id": 3089,
      "nome": "Re:Monster (Dublado)",
      "link": "https://animefire.plus/animes/re-monster-dublado-todos-os-episodios",
      "texto_original": "Re:Monster (Dublado)",
      "rating": 6.55,
      "classificacao_etaria": "A14",
      "imagem_original": "https://animefire.plus/img/animes/re-monster.webp",
      "imagem_pasta": "https://animefire.plus/img/animes/re-monster/",
      "secao": "dublados,legendados,lancamentos",
      "pagina": 3,
      "total_episodios": 12,
      "link_video": "https://animefire.plus/video/re-monster-dublado"
    },
    {
      "id": 3092,
      "nome": "Re:Zero kara Hajimeru Isekai Seikatsu (Dublado)",
      "link": "https://animefire.plus/animes/re-zero-kara-hajimeru-isekai-seikatsu-dublado-todos-os-episodios",
      "texto_original": "Re:Zero kara Hajimeru Isekai Seikatsu (Dublado)",
      "rating": 8.35,
      "classificacao_etaria": "A16",
      "imagem_original": "https://animefire.plus/img/animes/re-zero-kara-hajimeru-isekai-seikatsu.webp",
      "imagem_pasta": "https://animefire.plus/img/animes/re-zero-kara-hajimeru-isekai-seikatsu/",
      "secao": "dublados,legendados",
      "pagina": 26,
      "total_episodios": 26,
      "link_video": "https://animefire.plus/video/re-zero-kara-hajimeru-isekai-seikatsu-dublado"
    },
    {
      "id": 3093,
      "nome": "Re:Zero kara Hajimeru Isekai Seikatsu 2nd Season (Dublado)",
      "link": "https://animefire.plus/animes/re-zero-kara-hajimeru-isekai-seikatsu-2nd-season-dublado-todos-os-episodios",
      "texto_original": "Re:Zero kara Hajimeru Isekai Seikatsu 2nd Season (Dublado)",
      "rating": 8.43,
      "classificacao_etaria": "A16",
      "imagem_original": "https://animefire.plus/img/animes/re-zero-kara-hajimeru-isekai-seikatsu-2nd-season.webp",
      "imagem_pasta": "https://animefire.plus/img/animes/re-zero-kara-hajimeru-isekai-seikatsu-2nd-season/",
      "secao": "dublados,legendados",
      "pagina": 16,
      "total_episodios": 13,
      "link_video": "https://animefire.plus/video/re-zero-kara-hajimeru-isekai-seikatsu-2nd-season-dublado"
    },
    {
      "id": 3118,
      "nome": "Revisions (Dublado)",
      "link": "https://animefire.plus/animes/revisions-dublado-todos-os-episodios",
      "texto_original": "Revisions (Dublado)",
      "rating": 6.17,
      "classificacao_etaria": "A14",
      "imagem_original": "https://animefire.plus/img/animes/revisions.webp",
      "imagem_pasta": "https://animefire.plus/img/animes/revisions/",
      "secao": "dublados,legendados",
      "pagina": 25,
      "total_episodios": 12,
      "link_video": "https://animefire.plus/video/revisions-dublado"
    },
    {
      "id": 3124,
      "nome": "Rikei ga Koi ni Ochita no de Shoumei shitemita. (Dublado)",
      "link": "https://animefire.plus/animes/rikei-ga-koi-ni-ochita-no-de-shoumei-shitemita-dublado-todos-os-episodios",
      "texto_original": "Rikei ga Koi ni Ochita no de Shoumei shitemita. (Dublado)",
      "rating": 7.36,
      "classificacao_etaria": "A14",
      "imagem_original": "https://animefire.plus/img/animes/rikei-ga-koi-ni-ochita-no-de-shoumei-shitemita.webp",
      "imagem_pasta": "https://animefire.plus/img/animes/rikei-ga-koi-ni-ochita-no-de-shoumei-shitemita/",
      "secao": "dublados,legendados",
      "pagina": 8,
      "total_episodios": 12,
      "link_video": "https://animefire.plus/video/rikei-ga-koi-ni-ochita-no-de-shoumei-shitemita-dublado"
    },
    {
      "id": 3125,
      "nome": "Rikei ga Koi ni Ochita no de Shoumei shitemita. Heart (Dublado)",
      "link": "https://animefire.plus/animes/rikei-ga-koi-ni-ochita-no-de-shoumei-shitemita-heart-dublado-todos-os-episodios",
      "texto_original": "Rikei ga Koi ni Ochita no de Shoumei shitemita. Heart (Dublado)",
      "rating": 7.3,
      "classificacao_etaria": "A14",
      "imagem_original": "https://animefire.plus/img/animes/rikei-ga-koi-ni-ochita-no-de-shoumei-shitemita-heart.webp",
      "imagem_pasta": "https://animefire.plus/img/animes/rikei-ga-koi-ni-ochita-no-de-shoumei-shitemita-heart/",
      "secao": "dublados,legendados",
      "pagina": 12,
      "total_episodios": 12,
      "link_video": "https://animefire.plus/video/rikei-ga-koi-ni-ochita-no-de-shoumei-shitemita-heart-dublado"
    },
    {
      "id": 3145,
      "nome": "Rokka no Yuusha (Dublado)",
      "link": "https://animefire.plus/animes/rokka-no-yuusha-dublado-todos-os-episodios",
      "texto_original": "Rokka no Yuusha (Dublado)",
      "rating": 7.43,
      "classificacao_etaria": "A14",
      "imagem_original": "https://animefire.plus/img/animes/rokka-no-yuusha.webp",
      "imagem_pasta": "https://animefire.plus/img/animes/rokka-no-yuusha/",
      "secao": "dublados,legendados",
      "pagina": 25,
      "total_episodios": 12,
      "link_video": "https://animefire.plus/video/rokka-no-yuusha-dublado"
    },
    {
      "id": 3146,
      "nome": "Rokudenashi Majutsu Koushi to Akashic Records (Dublado)",
      "link": "https://animefire.plus/animes/rokudenashi-majutsu-koushi-to-akashic-records-dublado-todos-os-episodios",
      "texto_original": "Rokudenashi Majutsu Koushi to Akashic Records (Dublado)",
      "rating": 7.29,
      "classificacao_etaria": "A16",
      "imagem_original": "https://animefire.plus/img/animes/rokudenashi-majutsu-koushi-to-akashic-records.webp",
      "imagem_pasta": "https://animefire.plus/img/animes/rokudenashi-majutsu-koushi-to-akashic-records/",
      "secao": "dublados,legendados",
      "pagina": 23,
      "total_episodios": 12,
      "link_video": "https://animefire.plus/video/rokudenashi-majutsu-koushi-to-akashic-records-dublado"
    },
    {
      "id": 3151,
      "nome": "Romantic Killer (Dublado)",
      "link": "https://animefire.plus/animes/romantic-killer-dublado-todos-os-episodios",
      "texto_original": "Romantic Killer (Dublado)",
      "rating": 7.94,
      "classificacao_etaria": "A14",
      "imagem_original": "https://animefire.plus/img/animes/romantic-killer.webp",
      "imagem_pasta": "https://animefire.plus/img/animes/romantic-killer/",
      "secao": "dublados,legendados",
      "pagina": 9,
      "total_episodios": 12,
      "link_video": "https://animefire.plus/video/romantic-killer-dublado"
    },
    {
      "id": 3158,
      "nome": "Rougo ni Sonaete Isekai de 8-manmai no Kinka wo Tamemasu (Dublado)",
      "link": "https://animefire.plus/animes/rougo-ni-sonaete-isekai-de-8-manmai-no-kinka-wo-tamemasu-dublado-todos-os-episodios",
      "texto_original": "Rougo ni Sonaete Isekai de 8-manmai no Kinka wo Tamemasu (Dublado)",
      "rating": 6.94,
      "classificacao_etaria": "A14",
      "imagem_original": "https://animefire.plus/img/animes/rougo-ni-sonaete-isekai-de-8-manmai-no-kinka-wo-tamemasu.webp",
      "imagem_pasta": "https://animefire.plus/img/animes/rougo-ni-sonaete-isekai-de-8-manmai-no-kinka-wo-tamemasu/",
      "secao": "dublados,legendados",
      "pagina": 5,
      "total_episodios": 12,
      "link_video": "https://animefire.plus/video/rougo-ni-sonaete-isekai-de-8-manmai-no-kinka-wo-tamemasu-dublado"
    }
  ],
  "pagination": {
    "current_page": 23,
    "per_page": 20,
    "total_items": 656,
    "total_pages": 33,
    "has_next": true,
    "has_prev": true
  }
}
