{
  "message": "Animes da seção: dublados",
  "section": "dublados",
  "data": [
    {
      "id": 653,
      "nome": "Cinderella Monogatari (Dublado)",
      "link": "https://animefire.plus/animes/cinderella-monogatari-dublado-todos-os-episodios",
      "texto_original": "Cinderella Monogatari (Dublado)",
      "rating": 7.43,
      "classificacao_etaria": null,
      "imagem_original": "https://animefire.plus/img/animes/cinderella-monogatari.webp",
      "imagem_pasta": "https://animefire.plus/img/animes/cinderella-monogatari/",
      "secao": "dublados",
      "pagina": 27,
      "total_episodios": 0,
      "link_video": "https://animefire.plus/video/cinderella-monogatari-dublado"
    },
    {
      "id": 658,
      "nome": "City the Animation (Dublado)",
      "link": "https://animefire.plus/animes/city-the-animation-dublado-todos-os-episodios",
      "texto_original": "City the Animation (Dublado)",
      "rating": 7.84,
      "classificacao_etaria": "A14",
      "imagem_original": "https://animefire.plus/img/animes/city-the-animation.webp",
      "imagem_pasta": "https://animefire.plus/img/animes/city-the-animation/",
      "secao": "dublados,legendados,lancamentos",
      "pagina": 1,
      "total_episodios": 5,
      "link_video": "https://animefire.plus/video/city-the-animation-dublado"
    },
    {
      "id": 665,
      "nome": "Claymore (Dublado)",
      "link": "https://animefire.plus/animes/claymore-dublado-todos-os-episodios",
      "texto_original": "Claymore (Dublado)",
      "rating": 7.78,
      "classificacao_etaria": "A18",
      "imagem_original": "https://animefire.plus/img/animes/claymore.webp",
      "imagem_pasta": "https://animefire.plus/img/animes/claymore/",
      "secao": "dublados,legendados",
      "pagina": 18,
      "total_episodios": 26,
      "link_video": "https://animefire.plus/video/claymore-dublado"
    },
    {
      "id": 667,
      "nome": "Clevatess: Majuu no Ou to Akago to Shikabane no Yuusha (Dublado)",
      "link": "https://animefire.plus/animes/clevatess-majuu-no-ou-to-akago-to-shikabane-no-yuusha-dublado-todos-os-episodios",
      "texto_original": "Clevatess: Majuu no Ou to Akago to Shikabane no Yuusha (Dublado)",
      "rating": 7.92,
      "classificacao_etaria": "A16",
      "imagem_original": "https://animefire.plus/img/animes/clevatess-majuu-no-ou-to-akago-to-shikabane-no-yuusha.webp",
      "imagem_pasta": "https://animefire.plus/img/animes/clevatess-majuu-no-ou-to-akago-to-shikabane-no-yuusha/",
      "secao": "dublados,legendados,lancamentos",
      "pagina": 1,
      "total_episodios": 5,
      "link_video": "https://animefire.plus/video/clevatess-majuu-no-ou-to-akago-to-shikabane-no-yuusha-dublado"
    },
    {
      "id": 699,
      "nome": "Cowboy Bebop (Dublado)",
      "link": "https://animefire.plus/animes/cowboy-bebop-dublado-todos-os-episodios",
      "texto_original": "Cowboy Bebop (Dublado)",
      "rating": 8.77,
      "classificacao_etaria": "A16",
      "imagem_original": "https://animefire.plus/img/animes/cowboy-bebop.webp",
      "imagem_pasta": "https://animefire.plus/img/animes/cowboy-bebop/",
      "secao": "dublados,legendados",
      "pagina": 15,
      "total_episodios": 3,
      "link_video": "https://animefire.plus/video/cowboy-bebop-dublado"
    },
    {
      "id": 702,
      "nome": "Cross Fight B-Daman (Dublado)",
      "link": "https://animefire.plus/animes/cross-fight-b-daman-dublado-todos-os-episodios",
      "texto_original": "Cross Fight B-Daman (Dublado)",
      "rating": 6.52,
      "classificacao_etaria": null,
      "imagem_original": "https://animefire.plus/img/animes/cross-fight-b-daman.webp",
      "imagem_pasta": "https://animefire.plus/img/animes/cross-fight-b-daman/",
      "secao": "dublados,legendados",
      "pagina": 25,
      "total_episodios": 10,
      "link_video": "https://animefire.plus/video/cross-fight-b-daman-dublado"
    },
    {
      "id": 709,
      "nome": "Cyberpunk: Edgerunners (Dublado)",
      "link": "https://animefire.plus/animes/cyberpunk-edgerunners-dublado-todos-os-episodios",
      "texto_original": "Cyberpunk: Edgerunners (Dublado)",
      "rating": 8.6,
      "classificacao_etaria": "A18",
      "imagem_original": "https://animefire.plus/img/animes/cyberpunk-edgerunners.webp",
      "imagem_pasta": "https://animefire.plus/img/animes/cyberpunk-edgerunners/",
      "secao": "dublados,legendados",
      "pagina": 9,
      "total_episodios": 10,
      "link_video": "https://animefire.plus/video/cyberpunk-edgerunners-dublado"
    },
    {
      "id": 735,
      "nome": "Dance Dance Danseur (Dublado)",
      "link": "https://animefire.plus/animes/dance-dance-danseur-dublado-todos-os-episodios",
      "texto_original": "Dance Dance Danseur (Dublado)",
      "rating": 7.81,
      "classificacao_etaria": "A14",
      "imagem_original": "https://animefire.plus/img/animes/dance-dance-danseur.webp",
      "imagem_pasta": "https://animefire.plus/img/animes/dance-dance-danseur/",
      "secao": "dublados,legendados",
      "pagina": 11,
      "total_episodios": 11,
      "link_video": "https://animefire.plus/video/dance-dance-danseur-dublado"
    },
    {
      "id": 739,
      "nome": "Dandadan (Dublado)",
      "link": "https://animefire.plus/animes/dandadan-dublado-todos-os-episodios",
      "texto_original": "Dandadan (Dublado)",
      "rating": 8.48,
      "classificacao_etaria": "A16",
      "imagem_original": "https://animefire.plus/img/animes/dandadan.webp",
      "imagem_pasta": "https://animefire.plus/img/animes/dandadan/",
      "secao": "dublados,legendados",
      "pagina": 2,
      "total_episodios": 12,
      "link_video": "https://animefire.plus/video/dandadan-dublado"
    },
    {
      "id": 740,
      "nome": "Dandadan 2nd Season (Dublado)",
      "link": "https://animefire.plus/animes/dandadan-2nd-season-dublado-todos-os-episodios",
      "texto_original": "Dandadan 2nd Season (Dublado)",
      "rating": 8.49,
      "classificacao_etaria": "A16",
      "imagem_original": "https://animefire.plus/img/animes/dandadan-2nd-season.webp",
      "imagem_pasta": "https://animefire.plus/img/animes/dandadan-2nd-season/",
      "secao": "dublados,legendados,lancamentos",
      "pagina": 1,
      "total_episodios": 5,
      "link_video": "https://animefire.plus/video/dandadan-2nd-season-dublado"
    },
    {
      "id": 755,
      "nome": "Darling in the FranXX (Dublado)",
      "link": "https://animefire.plus/animes/darling-in-the-franxx-dublado-todos-os-episodios",
      "texto_original": "Darling in the FranXX (Dublado)",
      "rating": 7.52,
      "classificacao_etaria": "A14",
      "imagem_original": "https://animefire.plus/img/animes/darling-in-the-franxx.webp",
      "imagem_pasta": "https://animefire.plus/img/animes/darling-in-the-franxx/",
      "secao": "dublados,legendados",
      "pagina": 26,
      "total_episodios": 0,
      "link_video": "https://animefire.plus/video/darling-in-the-franxx-dublado"
    },
    {
      "id": 758,
      "nome": "Date A Live II (Dublado)",
      "link": "https://animefire.plus/animes/date-a-live-ii-dublado-todos-os-episodios",
      "texto_original": "Date A Live II (Dublado)",
      "rating": 7.2,
      "classificacao_etaria": "A16",
      "imagem_original": "https://animefire.plus/img/animes/date-a-live-ii.webp",
      "imagem_pasta": "https://animefire.plus/img/animes/date-a-live-ii/",
      "secao": "dublados,legendados",
      "pagina": 9,
      "total_episodios": 7,
      "link_video": "https://animefire.plus/video/date-a-live-ii-dublado"
    },
    {
      "id": 759,
      "nome": "Date A Live III (Dublado)",
      "link": "https://animefire.plus/animes/date-a-live-iii-dublado-todos-os-episodios",
      "texto_original": "Date A Live III (Dublado)",
      "rating": 7.19,
      "classificacao_etaria": "A16",
      "imagem_original": "https://animefire.plus/img/animes/date-a-live-iii.webp",
      "imagem_pasta": "https://animefire.plus/img/animes/date-a-live-iii/",
      "secao": "dublados,legendados",
      "pagina": 8,
      "total_episodios": 12,
      "link_video": "https://animefire.plus/video/date-a-live-iii-dublado"
    },
    {
      "id": 771,
      "nome": "Dear Boys (Dublado)",
      "link": "https://animefire.plus/animes/dear-boys-dublado-todos-os-episodios",
      "texto_original": "Dear Boys (Dublado)",
      "rating": 6.88,
      "classificacao_etaria": "A14",
      "imagem_original": "https://animefire.plus/img/animes/dear-boys.webp",
      "imagem_pasta": "https://animefire.plus/img/animes/dear-boys/",
      "secao": "dublados",
      "pagina": 22,
      "total_episodios": 26,
      "link_video": "https://animefire.plus/video/dear-boys-dublado"
    },
    {
      "id": 775,
      "nome": "Death March kara Hajimaru Isekai Kyousoukyoku (Dublado)",
      "link": "https://animefire.plus/animes/death-march-kara-hajimaru-isekai-kyousoukyoku-dublado-todos-os-episodios",
      "texto_original": "Death March kara Hajimaru Isekai Kyousoukyoku (Dublado)",
      "rating": 6.84,
      "classificacao_etaria": "A14",
      "imagem_original": "https://animefire.plus/img/animes/death-march-kara-hajimaru-isekai-kyousoukyoku.webp",
      "imagem_pasta": "https://animefire.plus/img/animes/death-march-kara-hajimaru-isekai-kyousoukyoku/",
      "secao": "dublados,legendados",
      "pagina": 28,
      "total_episodios": 12,
      "link_video": "https://animefire.plus/video/death-march-kara-hajimaru-isekai-kyousoukyoku-dublado"
    },
    {
      "id": 776,
      "nome": "Death Note (Dublado)",
      "link": "https://animefire.plus/animes/death-note-dublado-todos-os-episodios",
      "texto_original": "Death Note (Dublado)",
      "rating": 8.66,
      "classificacao_etaria": "A16",
      "imagem_original": "https://animefire.plus/img/animes/death-note.webp",
      "imagem_pasta": "https://animefire.plus/img/animes/death-note/",
      "secao": "dublados,legendados",
      "pagina": 26,
      "total_episodios": 37,
      "link_video": "https://animefire.plus/video/death-note-dublado"
    },
    {
      "id": 778,
      "nome": "Deatte 5-byou de Battle (Dublado)",
      "link": "https://animefire.plus/animes/deatte-5-byou-de-battle-dublado-todos-os-episodios",
      "texto_original": "Deatte 5-byou de Battle (Dublado)",
      "rating": 6.75,
      "classificacao_etaria": "A16",
      "imagem_original": "https://animefire.plus/img/animes/deatte-5-byou-de-battle.webp",
      "imagem_pasta": "https://animefire.plus/img/animes/deatte-5-byou-de-battle/",
      "secao": "dublados,legendados",
      "pagina": 15,
      "total_episodios": 12,
      "link_video": "https://animefire.plus/video/deatte-5-byou-de-battle-dublado"
    },
    {
      "id": 779,
      "nome": "Deca-Dence (Dublado)",
      "link": "https://animefire.plus/animes/deca-dence-dublado-todos-os-episodios",
      "texto_original": "Deca-Dence (Dublado)",
      "rating": 7.42,
      "classificacao_etaria": "A14",
      "imagem_original": "https://animefire.plus/img/animes/deca-dence.webp",
      "imagem_pasta": "https://animefire.plus/img/animes/deca-dence/",
      "secao": "dublados,legendados",
      "pagina": 15,
      "total_episodios": 12,
      "link_video": "https://animefire.plus/video/deca-dence-dublado"
    },
    {
      "id": 780,
      "nome": "Deep Insanity: The Lost Child (Dublado)",
      "link": "https://animefire.plus/animes/deep-insanity-the-lost-child-dublado-todos-os-episodios",
      "texto_original": "Deep Insanity: The Lost Child (Dublado)",
      "rating": 5.6,
      "classificacao_etaria": "A14",
      "imagem_original": "https://animefire.plus/img/animes/deep-insanity-the-lost-child.webp",
      "imagem_pasta": "https://animefire.plus/img/animes/deep-insanity-the-lost-child/",
      "secao": "dublados,legendados",
      "pagina": 14,
      "total_episodios": 12,
      "link_video": "https://animefire.plus/video/deep-insanity-the-lost-child-dublado"
    },
    {
      "id": 785,
      "nome": "Dekoboko Majo no Oyako Jijou (Dublado)",
      "link": "https://animefire.plus/animes/dekoboko-majo-no-oyako-jijou-dublado-todos-os-episodios",
      "texto_original": "Dekoboko Majo no Oyako Jijou (Dublado)",
      "rating": 6.76,
      "classificacao_etaria": "A14",
      "imagem_original": "https://animefire.plus/img/animes/dekoboko-majo-no-oyako-jijou.webp",
      "imagem_pasta": "https://animefire.plus/img/animes/dekoboko-majo-no-oyako-jijou/",
      "secao": "dublados,legendados,lancamentos",
      "pagina": 5,
      "total_episodios": 12,
      "link_video": "https://animefire.plus/video/dekoboko-majo-no-oyako-jijou-dublado"
    }
  ],
  "pagination": {
    "current_page": 6,
    "per_page": 20,
    "total_items": 656,
    "total_pages": 33,
    "has_next": true,
    "has_prev": true
  }
}
