{
  "message": "Animes da seção: dublados",
  "section": "dublados",
  "data": [
    {
      "id": 3697,
      "nome": "Sword Art Online: Alicization (Dublado)",
      "link": "https://animefire.plus/animes/sword-art-online-alicization-dublado-todos-os-episodios",
      "texto_original": "Sword Art Online: Alicization (Dublado)",
      "rating": 7.56,
      "classificacao_etaria": "A16",
      "imagem_original": "https://animefire.plus/img/animes/sword-art-online-alicization.webp",
      "imagem_pasta": "https://animefire.plus/img/animes/sword-art-online-alicization/",
      "secao": "dublados,legendados",
      "pagina": 12,
      "total_episodios": 24,
      "link_video": "https://animefire.plus/video/sword-art-online-alicization-dublado"
    },
    {
      "id": 3721,
      "nome": "Takt Op. Destiny (Dublado)",
      "link": "https://animefire.plus/animes/takt-op-destiny-dublado-todos-os-episodios",
      "texto_original": "Takt Op. Destiny (Dublado)",
      "rating": 7.16,
      "classificacao_etaria": "A14",
      "imagem_original": "https://animefire.plus/img/animes/takt-op-destiny.webp",
      "imagem_pasta": "https://animefire.plus/img/animes/takt-op-destiny/",
      "secao": "dublados,legendados",
      "pagina": 10,
      "total_episodios": 12,
      "link_video": "https://animefire.plus/video/takt-op-destiny-dublado"
    },
    {
      "id": 3749,
      "nome": "Tantei wa Mou, Shindeiru. (Dublado)",
      "link": "https://animefire.plus/animes/tantei-wa-mou-shindeiru-dublado-todos-os-episodios",
      "texto_original": "Tantei wa Mou, Shindeiru. (Dublado)",
      "rating": 6.42,
      "classificacao_etaria": "A14",
      "imagem_original": "https://animefire.plus/img/animes/tantei-wa-mou-shindeiru.webp",
      "imagem_pasta": "https://animefire.plus/img/animes/tantei-wa-mou-shindeiru/",
      "secao": "dublados,legendados",
      "pagina": 12,
      "total_episodios": 12,
      "link_video": "https://animefire.plus/video/tantei-wa-mou-shindeiru-dublado"
    },
    {
      "id": 3757,
      "nome": "Tate no Yuusha no Nariagari (Dublado)",
      "link": "https://animefire.plus/animes/tate-no-yuusha-no-nariagari-dublado-todos-os-episodios",
      "texto_original": "Tate no Yuusha no Nariagari (Dublado)",
      "rating": 8.01,
      "classificacao_etaria": "A14",
      "imagem_original": "https://animefire.plus/img/animes/tate-no-yuusha-no-nariagari.webp",
      "imagem_pasta": "https://animefire.plus/img/animes/tate-no-yuusha-no-nariagari/",
      "secao": "dublados,legendados",
      "pagina": 16,
      "total_episodios": 25,
      "link_video": "https://animefire.plus/video/tate-no-yuusha-no-nariagari-dublado"
    },
    {
      "id": 3758,
      "nome": "Tate no Yuusha no Nariagari Season 2 (Dublado)",
      "link": "https://animefire.plus/animes/tate-no-yuusha-no-nariagari-season-2-dublado-todos-os-episodios",
      "texto_original": "Tate no Yuusha no Nariagari Season 2 (Dublado)",
      "rating": 6.53,
      "classificacao_etaria": "A14",
      "imagem_original": "https://animefire.plus/img/animes/tate-no-yuusha-no-nariagari-season-2.webp",
      "imagem_pasta": "https://animefire.plus/img/animes/tate-no-yuusha-no-nariagari-season-2/",
      "secao": "dublados,legendados",
      "pagina": 11,
      "total_episodios": 13,
      "link_video": "https://animefire.plus/video/tate-no-yuusha-no-nariagari-season-2-dublado"
    },
    {
      "id": 3759,
      "nome": "Tate no Yuusha no Nariagari Season 3 (Dublado)",
      "link": "https://animefire.plus/animes/tate-no-yuusha-no-nariagari-season-3-dublado-todos-os-episodios",
      "texto_original": "Tate no Yuusha no Nariagari Season 3 (Dublado)",
      "rating": 7.1,
      "classificacao_etaria": "A14",
      "imagem_original": "https://animefire.plus/img/animes/tate-no-yuusha-no-nariagari-season-3.webp",
      "imagem_pasta": "https://animefire.plus/img/animes/tate-no-yuusha-no-nariagari-season-3/",
      "secao": "dublados,legendados",
      "pagina": 5,
      "total_episodios": 12,
      "link_video": "https://animefire.plus/video/tate-no-yuusha-no-nariagari-season-3-dublado"
    },
    {
      "id": 3760,
      "nome": "Tate no Yuusha no Nariagari Season 4 (Dublado)",
      "link": "https://animefire.plus/animes/tate-no-yuusha-no-nariagari-season-4-dublado-todos-os-episodios",
      "texto_original": "Tate no Yuusha no Nariagari Season 4 (Dublado)",
      "rating": 7.34,
      "classificacao_etaria": "A14",
      "imagem_original": "https://animefire.plus/img/animes/tate-no-yuusha-no-nariagari-season-4.webp",
      "imagem_pasta": "https://animefire.plus/img/animes/tate-no-yuusha-no-nariagari-season-4/",
      "secao": "dublados,legendados,lancamentos",
      "pagina": 1,
      "total_episodios": 4,
      "link_video": "https://animefire.plus/video/tate-no-yuusha-no-nariagari-season-4-dublado"
    },
    {
      "id": 3761,
      "nome": "Tatoeba Last Dungeon Mae no Mura no Shounen ga Joban no Machi de Kurasu Youna Monogatari (Dublado)",
      "link": "https://animefire.plus/animes/tatoeba-last-dungeon-mae-no-mura-no-shounen-ga-joban-no-machi-de-kurasu-youna-monogatari-dublado-todos-os-episodios",
      "texto_original": "Tatoeba Last Dungeon Mae no Mura no Shounen ga Joban no Machi de Kurasu Youna Monogatari (Dublado)",
      "rating": 6.33,
      "classificacao_etaria": "A14",
      "imagem_original": "https://animefire.plus/img/animes/tatoeba-last-dungeon-mae-no-mura-no-shounen-ga-joban-no-machi-de-kurasu-youna-monogatari.webp",
      "imagem_pasta": "https://animefire.plus/img/animes/tatoeba-last-dungeon-mae-no-mura-no-shounen-ga-joban-no-machi-de-kurasu-youna-monogatari/",
      "secao": "dublados,legendados",
      "pagina": 15,
      "total_episodios": 12,
      "link_video": "https://animefire.plus/video/tatoeba-last-dungeon-mae-no-mura-no-shounen-ga-joban-no-machi-de-kurasu-youna-monogatari-dublado"
    },
    {
      "id": 3767,
      "nome": "Tegamibachi (Dublado)",
      "link": "https://animefire.plus/animes/tegamibachi-dublado-todos-os-episodios",
      "texto_original": "Tegamibachi (Dublado)",
      "rating": 7.61,
      "classificacao_etaria": "A14",
      "imagem_original": "https://animefire.plus/img/animes/tegamibachi.webp",
      "imagem_pasta": "https://animefire.plus/img/animes/tegamibachi/",
      "secao": "dublados,legendados",
      "pagina": 3,
      "total_episodios": 3,
      "link_video": "https://animefire.plus/video/tegamibachi-dublado"
    },
    {
      "id": 3771,
      "nome": "Tekken: Bloodline (Dublado)",
      "link": "https://animefire.plus/animes/tekken-bloodline-dublado-todos-os-episodios",
      "texto_original": "Tekken: Bloodline (Dublado)",
      "rating": 6.44,
      "classificacao_etaria": "A16",
      "imagem_original": "https://animefire.plus/img/animes/tekken-bloodline.webp",
      "imagem_pasta": "https://animefire.plus/img/animes/tekken-bloodline/",
      "secao": "dublados,legendados",
      "pagina": 10,
      "total_episodios": 6,
      "link_video": "https://animefire.plus/video/tekken-bloodline-dublado"
    },
    {
      "id": 3779,
      "nome": "Tengoku Daimakyou (Dublado)",
      "link": "https://animefire.plus/animes/tengoku-daimakyou-dublado-todos-os-episodios",
      "texto_original": "Tengoku Daimakyou (Dublado)",
      "rating": 8.21,
      "classificacao_etaria": "A16",
      "imagem_original": "https://animefire.plus/img/animes/tengoku-daimakyou.jpg",
      "imagem_pasta": "https://animefire.plus/img/animes/tengoku-daimakyou/",
      "secao": "dublados,legendados",
      "pagina": 7,
      "total_episodios": 13,
      "link_video": "https://animefire.plus/video/tengoku-daimakyou-dublado"
    },
    {
      "id": 3783,
      "nome": "Tenkuu Senki Shurato (Dublado)",
      "link": "https://animefire.plus/animes/tenkuu-senki-shurato-dublado-todos-os-episodios",
      "texto_original": "Tenkuu Senki Shurato (Dublado)",
      "rating": 7.26,
      "classificacao_etaria": "A14",
      "imagem_original": "https://animefire.plus/img/animes/tenkuu-senki-shurato.webp",
      "imagem_pasta": "https://animefire.plus/img/animes/tenkuu-senki-shurato/",
      "secao": "dublados,legendados",
      "pagina": 22,
      "total_episodios": 38,
      "link_video": "https://animefire.plus/video/tenkuu-senki-shurato-dublado"
    },
    {
      "id": 3784,
      "nome": "Tenkuu Shinpan (Dublado)",
      "link": "https://animefire.plus/animes/tenkuu-shinpan-dublado-todos-os-episodios",
      "texto_original": "Tenkuu Shinpan (Dublado)",
      "rating": 6.68,
      "classificacao_etaria": "A16",
      "imagem_original": "https://animefire.plus/img/animes/tenkuu-shinpan.webp",
      "imagem_pasta": "https://animefire.plus/img/animes/tenkuu-shinpan/",
      "secao": "dublados,legendados",
      "pagina": 18,
      "total_episodios": 12,
      "link_video": "https://animefire.plus/video/tenkuu-shinpan-dublado"
    },
    {
      "id": 3791,
      "nome": "Tensai Ouji no Akaji Kokka Saisei Jutsu (Dublado)",
      "link": "https://animefire.plus/animes/tensai-ouji-no-akaji-kokka-saisei-jutsu-dublado-todos-os-episodios",
      "texto_original": "Tensai Ouji no Akaji Kokka Saisei Jutsu (Dublado)",
      "rating": 7.39,
      "classificacao_etaria": "A14",
      "imagem_original": "https://animefire.plus/img/animes/tensai-ouji-no-akaji-kokka-saisei-jutsu.webp",
      "imagem_pasta": "https://animefire.plus/img/animes/tensai-ouji-no-akaji-kokka-saisei-jutsu/",
      "secao": "dublados,legendados",
      "pagina": 12,
      "total_episodios": 12,
      "link_video": "https://animefire.plus/video/tensai-ouji-no-akaji-kokka-saisei-jutsu-dublado"
    },
    {
      "id": 3793,
      "nome": "Tensei Kizoku no Isekai Boukenroku: Jichou wo Shiranai Kamigami no Shito (Dublado)",
      "link": "https://animefire.plus/animes/tensei-kizoku-no-isekai-boukenroku-jichou-wo-shiranai-kamigami-no-shito-dublado-todos-os-episodios",
      "texto_original": "Tensei Kizoku no Isekai Boukenroku: Jichou wo Shiranai Kamigami no Shito (Dublado)",
      "rating": 6.68,
      "classificacao_etaria": "A14",
      "imagem_original": "https://animefire.plus/img/animes/tensei-kizoku-no-isekai-boukenroku-jichou-wo-shiranai-kamigami-no-shito.webp",
      "imagem_pasta": "https://animefire.plus/img/animes/tensei-kizoku-no-isekai-boukenroku-jichou-wo-shiranai-kamigami-no-shito/",
      "secao": "dublados,legendados",
      "pagina": 7,
      "total_episodios": 12,
      "link_video": "https://animefire.plus/video/tensei-kizoku-no-isekai-boukenroku-jichou-wo-shiranai-kamigami-no-shito-dublado"
    },
    {
      "id": 3800,
      "nome": "Tensei shitara Slime Datta Ken (Dublado)",
      "link": "https://animefire.plus/animes/tensei-shitara-slime-datta-ken-dublado-todos-os-episodios",
      "texto_original": "Tensei shitara Slime Datta Ken (Dublado)",
      "rating": 8.1,
      "classificacao_etaria": "A14",
      "imagem_original": "https://animefire.plus/img/animes/tensei-shitara-slime-datta-ken.webp",
      "imagem_pasta": "https://animefire.plus/img/animes/tensei-shitara-slime-datta-ken/",
      "secao": "dublados,legendados",
      "pagina": 16,
      "total_episodios": 24,
      "link_video": "https://animefire.plus/video/tensei-shitara-slime-datta-ken-dublado"
    },
    {
      "id": 3801,
      "nome": "Tensei shitara Slime Datta Ken 2nd Season (Dublado)",
      "link": "https://animefire.plus/animes/tensei-shitara-slime-datta-ken-2nd-season-dublado-todos-os-episodios",
      "texto_original": "Tensei shitara Slime Datta Ken 2nd Season (Dublado)",
      "rating": 8.35,
      "classificacao_etaria": "A14",
      "imagem_original": "https://animefire.plus/img/animes/tensei-shitara-slime-datta-ken-2nd-season.webp",
      "imagem_pasta": "https://animefire.plus/img/animes/tensei-shitara-slime-datta-ken-2nd-season/",
      "secao": "dublados,legendados,lancamentos",
      "pagina": 12,
      "total_episodios": 12,
      "link_video": "https://animefire.plus/video/tensei-shitara-slime-datta-ken-2nd-season-dublado"
    },
    {
      "id": 3802,
      "nome": "Tensei shitara Slime Datta Ken 2nd Season Part 2 (Dublado)",
      "link": "https://animefire.plus/animes/tensei-shitara-slime-datta-ken-2nd-season-part-2-dublado-todos-os-episodios",
      "texto_original": "Tensei shitara Slime Datta Ken 2nd Season Part 2 (Dublado)",
      "rating": 8.3,
      "classificacao_etaria": "A14",
      "imagem_original": "https://animefire.plus/img/animes/tensei-shitara-slime-datta-ken-2nd-season-part-2.webp",
      "imagem_pasta": "https://animefire.plus/img/animes/tensei-shitara-slime-datta-ken-2nd-season-part-2/",
      "secao": "dublados,legendados",
      "pagina": 12,
      "total_episodios": 12,
      "link_video": "https://animefire.plus/video/tensei-shitara-slime-datta-ken-2nd-season-part-2-dublado"
    },
    {
      "id": 3804,
      "nome": "Tensei shitara Slime Datta Ken OVA (Dublado)",
      "link": "https://animefire.plus/animes/tensei-shitara-slime-datta-ken-ova-dublado-todos-os-episodios",
      "texto_original": "Tensei shitara Slime Datta Ken OVA (Dublado)",
      "rating": 7.47,
      "classificacao_etaria": "A14",
      "imagem_original": "https://animefire.plus/img/animes/tensei-shitara-slime-datta-ken-ova.webp",
      "imagem_pasta": "https://animefire.plus/img/animes/tensei-shitara-slime-datta-ken-ova/",
      "secao": "dublados,legendados",
      "pagina": 16,
      "total_episodios": 5,
      "link_video": "https://animefire.plus/video/tensei-shitara-slime-datta-ken-ova-dublado"
    },
    {
      "id": 3805,
      "nome": "Tensei shitara Slime Datta Ken: Coleus no Yume (Dublado)",
      "link": "https://animefire.plus/animes/tensei-shitara-slime-datta-ken-coleus-no-yume-dublado-todos-os-episodios",
      "texto_original": "Tensei shitara Slime Datta Ken: Coleus no Yume (Dublado)",
      "rating": 7.58,
      "classificacao_etaria": "A14",
      "imagem_original": "https://animefire.plus/img/animes/tensei-shitara-slime-datta-ken-coleus-no-yume.webp",
      "imagem_pasta": "https://animefire.plus/img/animes/tensei-shitara-slime-datta-ken-coleus-no-yume/",
      "secao": "dublados,legendados,lancamentos",
      "pagina": 4,
      "total_episodios": 3,
      "link_video": "https://animefire.plus/video/tensei-shitara-slime-datta-ken-coleus-no-yume-dublado"
    }
  ],
  "pagination": {
    "current_page": 29,
    "per_page": 20,
    "total_items": 656,
    "total_pages": 33,
    "has_next": true,
    "has_prev": true
  }
}
