{
  "message": "Animes da seção: dublados",
  "section": "dublados",
  "data": [
    {
      "id": 1131,
      "nome": "Genjitsu Shugi Yuusha no Oukoku Saikenki (Dublado)",
      "link": "https://animefire.plus/animes/genjitsu-shugi-yuusha-no-oukoku-saikenki-dublado-todos-os-episodios",
      "texto_original": "Genjitsu Shugi Yuusha no Oukoku Saikenki (Dublado)",
      "rating": 7.25,
      "classificacao_etaria": "A14",
      "imagem_original": "https://animefire.plus/img/animes/genjitsu-shugi-yuusha-no-oukoku-saikenki.webp",
      "imagem_pasta": "https://animefire.plus/img/animes/genjitsu-shugi-yuusha-no-oukoku-saikenki/",
      "secao": "dublados,legendados",
      "pagina": 16,
      "total_episodios": 13,
      "link_video": "https://animefire.plus/video/genjitsu-shugi-yuusha-no-oukoku-saikenki-dublado"
    },
    {
      "id": 1133,
      "nome": "Genjitsu Shugi Yuusha no Oukoku Saikenki Part 2 (Dublado)",
      "link": "https://animefire.plus/animes/genjitsu-shugi-yuusha-no-oukoku-saikenki-part-2-dublado-todos-os-episodios",
      "texto_original": "Genjitsu Shugi Yuusha no Oukoku Saikenki Part 2 (Dublado)",
      "rating": 7.43,
      "classificacao_etaria": "A14",
      "imagem_original": "https://animefire.plus/img/animes/genjitsu-shugi-yuusha-no-oukoku-saikenki-part-2.webp",
      "imagem_pasta": "https://animefire.plus/img/animes/genjitsu-shugi-yuusha-no-oukoku-saikenki-part-2/",
      "secao": "dublados",
      "pagina": 12,
      "total_episodios": 12,
      "link_video": "https://animefire.plus/video/genjitsu-shugi-yuusha-no-oukoku-saikenki-part-2-dublado"
    },
    {
      "id": 1134,
      "nome": "Genma Taisen: Shinwa Zenya no Shou (Dublado)",
      "link": "https://animefire.plus/animes/genma-taisen-shinwa-zenya-no-shou-dublado-todos-os-episodios",
      "texto_original": "Genma Taisen: Shinwa Zenya no Shou (Dublado)",
      "rating": 5.22,
      "classificacao_etaria": "A14",
      "imagem_original": "https://animefire.plus/img/animes/genma-taisen-shinwa-zenya-no-shou.webp",
      "imagem_pasta": "https://animefire.plus/img/animes/genma-taisen-shinwa-zenya-no-shou/",
      "secao": "dublados,legendados",
      "pagina": 26,
      "total_episodios": 0,
      "link_video": "https://animefire.plus/video/genma-taisen-shinwa-zenya-no-shou-dublado"
    },
    {
      "id": 1135,
      "nome": "Genocyber (Dublado)",
      "link": "https://animefire.plus/animes/genocyber-dublado-todos-os-episodios",
      "texto_original": "Genocyber (Dublado)",
      "rating": 5.87,
      "classificacao_etaria": "A16",
      "imagem_original": "https://animefire.plus/img/animes/genocyber.webp",
      "imagem_pasta": "https://animefire.plus/img/animes/genocyber/",
      "secao": "dublados",
      "pagina": 21,
      "total_episodios": 3,
      "link_video": "https://animefire.plus/video/genocyber-dublado"
    },
    {
      "id": 1141,
      "nome": "Gensou Jotan Ellcia (Dublado)",
      "link": "https://animefire.plus/animes/gensou-jotan-ellcia-dublado-todos-os-episodios",
      "texto_original": "Gensou Jotan Ellcia (Dublado)",
      "rating": 6.02,
      "classificacao_etaria": "A14",
      "imagem_original": "https://animefire.plus/img/animes/gensou-jotan-ellcia.webp",
      "imagem_pasta": "https://animefire.plus/img/animes/gensou-jotan-ellcia/",
      "secao": "dublados",
      "pagina": 22,
      "total_episodios": 4,
      "link_video": "https://animefire.plus/video/gensou-jotan-ellcia-dublado"
    },
    {
      "id": 1194,
      "nome": "Given (Dublado)",
      "link": "https://animefire.plus/animes/given-dublado-todos-os-episodios",
      "texto_original": "Given (Dublado)",
      "rating": 8.34,
      "classificacao_etaria": "A14",
      "imagem_original": "https://animefire.plus/img/animes/given.webp",
      "imagem_pasta": "https://animefire.plus/img/animes/given/",
      "secao": "dublados,legendados",
      "pagina": 7,
      "total_episodios": 11,
      "link_video": "https://animefire.plus/video/given-dublado"
    },
    {
      "id": 1200,
      "nome": "Gleipnir (Dublado)",
      "link": "https://animefire.plus/animes/gleipnir-dublado-todos-os-episodios",
      "texto_original": "Gleipnir (Dublado)",
      "rating": 7.01,
      "classificacao_etaria": "A16",
      "imagem_original": "https://animefire.plus/img/animes/gleipnir.webp",
      "imagem_pasta": "https://animefire.plus/img/animes/gleipnir/",
      "secao": "dublados,legendados",
      "pagina": 14,
      "total_episodios": 13,
      "link_video": "https://animefire.plus/video/gleipnir-dublado"
    },
    {
      "id": 1203,
      "nome": "Goblin Slayer (Dublado)",
      "link": "https://animefire.plus/animes/goblin-slayer-dublado-todos-os-episodios",
      "texto_original": "Goblin Slayer (Dublado)",
      "rating": 7.42,
      "classificacao_etaria": "A16",
      "imagem_original": "https://animefire.plus/img/animes/goblin-slayer.webp",
      "imagem_pasta": "https://animefire.plus/img/animes/goblin-slayer/",
      "secao": "dublados,legendados",
      "pagina": 2,
      "total_episodios": 0,
      "link_video": "https://animefire.plus/video/goblin-slayer-dublado"
    },
    {
      "id": 1204,
      "nome": "Goblin Slayer II (Dublado)",
      "link": "https://animefire.plus/animes/goblin-slayer-ii-dublado-todos-os-episodios",
      "texto_original": "Goblin Slayer II (Dublado)",
      "rating": 7.21,
      "classificacao_etaria": "A16",
      "imagem_original": "https://animefire.plus/img/animes/goblin-slayer-ii.webp",
      "imagem_pasta": "https://animefire.plus/img/animes/goblin-slayer-ii/",
      "secao": "dublados,legendados",
      "pagina": 5,
      "total_episodios": 12,
      "link_video": "https://animefire.plus/video/goblin-slayer-ii-dublado"
    },
    {
      "id": 1210,
      "nome": "Godzilla: S.P (Dublado)",
      "link": "https://animefire.plus/animes/godzilla-s-p-dublado-todos-os-episodios",
      "texto_original": "Godzilla: S.P (Dublado)",
      "rating": 6.65,
      "classificacao_etaria": "A14",
      "imagem_original": "https://animefire.plus/img/animes/godzilla-s-p.webp",
      "imagem_pasta": "https://animefire.plus/img/animes/godzilla-s-p/",
      "secao": "dublados,legendados",
      "pagina": 17,
      "total_episodios": 13,
      "link_video": "https://animefire.plus/video/godzilla-s-p-dublado"
    },
    {
      "id": 1216,
      "nome": "Gokushufudou (Dublado)",
      "link": "https://animefire.plus/animes/gokushufudou-dublado-todos-os-episodios",
      "texto_original": "Gokushufudou (Dublado)",
      "rating": 7.26,
      "classificacao_etaria": "A14",
      "imagem_original": "https://animefire.plus/img/animes/gokushufudou.webp",
      "imagem_pasta": "https://animefire.plus/img/animes/gokushufudou/",
      "secao": "dublados,legendados",
      "pagina": 18,
      "total_episodios": 6,
      "link_video": "https://animefire.plus/video/gokushufudou-dublado"
    },
    {
      "id": 1217,
      "nome": "Gokushufudou Part 2 (Dublado)",
      "link": "https://animefire.plus/animes/gokushufudou-part-2-dublado-todos-os-episodios",
      "texto_original": "Gokushufudou Part 2 (Dublado)",
      "rating": 7.54,
      "classificacao_etaria": "A14",
      "imagem_original": "https://animefire.plus/img/animes/gokushufudou-part-2.webp",
      "imagem_pasta": "https://animefire.plus/img/animes/gokushufudou-part-2/",
      "secao": "dublados,legendados",
      "pagina": 15,
      "total_episodios": 5,
      "link_video": "https://animefire.plus/video/gokushufudou-part-2-dublado"
    },
    {
      "id": 1218,
      "nome": "Gokushufudou Season 2 (Dublado)",
      "link": "https://animefire.plus/animes/gokushufudou-season-2-dublado-todos-os-episodios",
      "texto_original": "Gokushufudou Season 2 (Dublado)",
      "rating": 7.57,
      "classificacao_etaria": "A14",
      "imagem_original": "https://animefire.plus/img/animes/gokushufudou-season-2.webp",
      "imagem_pasta": "https://animefire.plus/img/animes/gokushufudou-season-2/",
      "secao": "dublados,legendados",
      "pagina": 8,
      "total_episodios": 5,
      "link_video": "https://animefire.plus/video/gokushufudou-season-2-dublado"
    },
    {
      "id": 1229,
      "nome": "Good Night World (Dublado)",
      "link": "https://animefire.plus/animes/good-night-world-dublado-todos-os-episodios",
      "texto_original": "Good Night World (Dublado)",
      "rating": 7.06,
      "classificacao_etaria": "A16",
      "imagem_original": "https://animefire.plus/img/animes/good-night-world.webp",
      "imagem_pasta": "https://animefire.plus/img/animes/good-night-world/",
      "secao": "dublados,legendados",
      "pagina": 5,
      "total_episodios": 12,
      "link_video": "https://animefire.plus/video/good-night-world-dublado"
    },
    {
      "id": 1248,
      "nome": "Great Pretender (Dublado)",
      "link": "https://animefire.plus/animes/great-pretender-dublado-todos-os-episodios",
      "texto_original": "Great Pretender (Dublado)",
      "rating": 8.31,
      "classificacao_etaria": "A16",
      "imagem_original": "https://animefire.plus/img/animes/great-pretender.webp",
      "imagem_pasta": "https://animefire.plus/img/animes/great-pretender/",
      "secao": "dublados,legendados",
      "pagina": 20,
      "total_episodios": 23,
      "link_video": "https://animefire.plus/video/great-pretender-dublado"
    },
    {
      "id": 1283,
      "nome": "Gunjou no Magmell (Dublado)",
      "link": "https://animefire.plus/animes/gunjou-no-magmell-dublado-todos-os-episodios",
      "texto_original": "Gunjou no Magmell (Dublado)",
      "rating": 6.04,
      "classificacao_etaria": "A14",
      "imagem_original": "https://animefire.plus/img/animes/gunjou-no-magmell.webp",
      "imagem_pasta": "https://animefire.plus/img/animes/gunjou-no-magmell/",
      "secao": "dublados,legendados",
      "pagina": 22,
      "total_episodios": 13,
      "link_video": "https://animefire.plus/video/gunjou-no-magmell-dublado"
    },
    {
      "id": 1284,
      "nome": "Gunnm (Dublado)",
      "link": "https://animefire.plus/animes/gunnm-dublado-todos-os-episodios",
      "texto_original": "Gunnm (Dublado)",
      "rating": 7.1,
      "classificacao_etaria": "A18",
      "imagem_original": "https://animefire.plus/img/animes/gunnm.webp",
      "imagem_pasta": "https://animefire.plus/img/animes/gunnm/",
      "secao": "dublados,legendados",
      "pagina": 21,
      "total_episodios": 2,
      "link_video": "https://animefire.plus/video/gunnm-dublado"
    },
    {
      "id": 1288,
      "nome": "Gunsmith Cats (Dublado)",
      "link": "https://animefire.plus/animes/gunsmith-cats-dublado-todos-os-episodios",
      "texto_original": "Gunsmith Cats (Dublado)",
      "rating": 7.27,
      "classificacao_etaria": "A14",
      "imagem_original": "https://animefire.plus/img/animes/gunsmith-cats.webp",
      "imagem_pasta": "https://animefire.plus/img/animes/gunsmith-cats/",
      "secao": "dublados",
      "pagina": 23,
      "total_episodios": 3,
      "link_video": "https://animefire.plus/video/gunsmith-cats-dublado"
    },
    {
      "id": 1298,
      "nome": "Gyakuten Sekai no Denchi Shoujo (Dublado)",
      "link": "https://animefire.plus/animes/gyakuten-sekai-no-denchi-shoujo-dublado-todos-os-episodios",
      "texto_original": "Gyakuten Sekai no Denchi Shoujo (Dublado)",
      "rating": 6.3,
      "classificacao_etaria": "A14",
      "imagem_original": "https://animefire.plus/img/animes/gyakuten-sekai-no-denchi-shoujo.webp",
      "imagem_pasta": "https://animefire.plus/img/animes/gyakuten-sekai-no-denchi-shoujo/",
      "secao": "dublados,legendados",
      "pagina": 14,
      "total_episodios": 12,
      "link_video": "https://animefire.plus/video/gyakuten-sekai-no-denchi-shoujo-dublado"
    },
    {
      "id": 1308,
      "nome": "Haikyuu!! (Dublado)",
      "link": "https://animefire.plus/animes/haikyuu-dublado-todos-os-episodios",
      "texto_original": "Haikyuu!! (Dublado)",
      "rating": 8.45,
      "classificacao_etaria": "A14",
      "imagem_original": "https://animefire.plus/img/animes/haikyuu.webp",
      "imagem_pasta": "https://animefire.plus/img/animes/haikyuu/",
      "secao": "dublados,legendados",
      "pagina": 9,
      "total_episodios": 25,
      "link_video": "https://animefire.plus/video/haikyuu-dublado"
    }
  ],
  "pagination": {
    "current_page": 10,
    "per_page": 20,
    "total_items": 656,
    "total_pages": 33,
    "has_next": true,
    "has_prev": true
  }
}
