{
  "message": "Animes da seção: dublados",
  "section": "dublados",
  "data": [
    {
      "id": 3601,
      "nome": "Sousou no Frieren (Dublado)",
      "link": "https://animefire.plus/animes/sousou-no-frieren-dublado-todos-os-episodios",
      "texto_original": "Sousou no Frieren (Dublado)",
      "rating": 9.3,
      "classificacao_etaria": "A14",
      "imagem_original": "https://animefire.plus/img/animes/sousou-no-frieren.webp",
      "imagem_pasta": "https://animefire.plus/img/animes/sousou-no-frieren/",
      "secao": "dublados,legendados",
      "pagina": 5,
      "total_episodios": 28,
      "link_video": "https://animefire.plus/video/sousou-no-frieren-dublado"
    },
    {
      "id": 3612,
      "nome": "Spriggan (ONA) (Dublado)",
      "link": "https://animefire.plus/animes/spriggan-ona-dublado-todos-os-episodios",
      "texto_original": "Spriggan (ONA) (Dublado)",
      "rating": 6.86,
      "classificacao_etaria": "A16",
      "imagem_original": "https://animefire.plus/img/animes/spriggan-ona.webp",
      "imagem_pasta": "https://animefire.plus/img/animes/spriggan-ona/",
      "secao": "dublados,legendados",
      "pagina": 10,
      "total_episodios": 6,
      "link_video": "https://animefire.plus/video/spriggan-ona-dublado"
    },
    {
      "id": 3615,
      "nome": "Spy x Family (Dublado)",
      "link": "https://animefire.plus/animes/spy-x-family-dublado-todos-os-episodios",
      "texto_original": "Spy x Family (Dublado)",
      "rating": 8.52,
      "classificacao_etaria": "A14",
      "imagem_original": "https://animefire.plus/img/animes/spy-x-family.webp",
      "imagem_pasta": "https://animefire.plus/img/animes/spy-x-family/",
      "secao": "dublados,legendados",
      "pagina": 11,
      "total_episodios": 12,
      "link_video": "https://animefire.plus/video/spy-x-family-dublado"
    },
    {
      "id": 3616,
      "nome": "Spy x Family Part 2 (Dublado)",
      "link": "https://animefire.plus/animes/spy-x-family-part-2-dublado-todos-os-episodios",
      "texto_original": "Spy x Family Part 2 (Dublado)",
      "rating": 8.25,
      "classificacao_etaria": "A14",
      "imagem_original": "https://animefire.plus/img/animes/spy-x-family-part-2.webp",
      "imagem_pasta": "https://animefire.plus/img/animes/spy-x-family-part-2/",
      "secao": "dublados,legendados",
      "pagina": 9,
      "total_episodios": 13,
      "link_video": "https://animefire.plus/video/spy-x-family-part-2-dublado"
    },
    {
      "id": 3617,
      "nome": "Spy x Family Season 2 (Dublado)",
      "link": "https://animefire.plus/animes/spy-x-family-season-2-dublado-todos-os-episodios",
      "texto_original": "Spy x Family Season 2 (Dublado)",
      "rating": 8.07,
      "classificacao_etaria": "A14",
      "imagem_original": "https://animefire.plus/img/animes/spy-x-family-season-2.webp",
      "imagem_pasta": "https://animefire.plus/img/animes/spy-x-family-season-2/",
      "secao": "dublados,legendados",
      "pagina": 5,
      "total_episodios": 12,
      "link_video": "https://animefire.plus/video/spy-x-family-season-2-dublado"
    },
    {
      "id": 3620,
      "nome": "Stand My Heroes: Piece of Truth (Dublado)",
      "link": "https://animefire.plus/animes/stand-my-heroes-piece-of-truth-dublado-todos-os-episodios",
      "texto_original": "Stand My Heroes: Piece of Truth (Dublado)",
      "rating": 5.7,
      "classificacao_etaria": "A14",
      "imagem_original": "https://animefire.plus/img/animes/stand-my-heroes-piece-of-truth.webp",
      "imagem_pasta": "https://animefire.plus/img/animes/stand-my-heroes-piece-of-truth/",
      "secao": "dublados,legendados",
      "pagina": 18,
      "total_episodios": 12,
      "link_video": "https://animefire.plus/video/stand-my-heroes-piece-of-truth-dublado"
    },
    {
      "id": 3623,
      "nome": "Star Wars: Visions (Dublado)",
      "link": "https://animefire.plus/animes/star-wars-visions-dublado-todos-os-episodios",
      "texto_original": "Star Wars: Visions (Dublado)",
      "rating": 7.09,
      "classificacao_etaria": "A14",
      "imagem_original": "https://animefire.plus/img/animes/star-wars-visions.webp",
      "imagem_pasta": "https://animefire.plus/img/animes/star-wars-visions/",
      "secao": "dublados,legendados",
      "pagina": 15,
      "total_episodios": 9,
      "link_video": "https://animefire.plus/video/star-wars-visions-dublado"
    },
    {
      "id": 3631,
      "nome": "Steins;Gate (Dublado)",
      "link": "https://animefire.plus/animes/steins-gate-dublado-todos-os-episodios",
      "texto_original": "Steins;Gate (Dublado)",
      "rating": 9.12,
      "classificacao_etaria": "A14",
      "imagem_original": "https://animefire.plus/img/animes/steins-gate.webp",
      "imagem_pasta": "https://animefire.plus/img/animes/steins-gate/",
      "secao": "dublados,legendados",
      "pagina": 19,
      "total_episodios": 25,
      "link_video": "https://animefire.plus/video/steins-gate-dublado"
    },
    {
      "id": 3632,
      "nome": "Steins;Gate 0 (Dublado)",
      "link": "https://animefire.plus/animes/steins-gate-0-dublado-todos-os-episodios",
      "texto_original": "Steins;Gate 0 (Dublado)",
      "rating": 8.52,
      "classificacao_etaria": "A14",
      "imagem_original": "https://animefire.plus/img/animes/steins-gate-0.webp",
      "imagem_pasta": "https://animefire.plus/img/animes/steins-gate-0/",
      "secao": "dublados,legendados",
      "pagina": 18,
      "total_episodios": 23,
      "link_video": "https://animefire.plus/video/steins-gate-0-dublado"
    },
    {
      "id": 3633,
      "nome": "Steins;Gate 0: Kesshou Takei no Valentine - Bittersweet Intermedio (Dublado)",
      "link": "https://animefire.plus/animes/steins-gate-0-kesshou-takei-no-valentine---bittersweet-intermedio-dublado-todos-os-episodios",
      "texto_original": "Steins;Gate 0: Kesshou Takei no Valentine - Bittersweet Intermedio (Dublado)",
      "rating": 7.14,
      "classificacao_etaria": "A14",
      "imagem_original": "https://animefire.plus/img/animes/steins-gate-0-kesshou-takei-no-valentine---bittersweet-intermedio.webp",
      "imagem_pasta": "https://animefire.plus/img/animes/steins-gate-0-kesshou-takei-no-valentine---bittersweet-intermedio/",
      "secao": "dublados,legendados",
      "pagina": 18,
      "total_episodios": 1,
      "link_video": "https://animefire.plus/video/steins-gate-0-kesshou-takei-no-valentine---bittersweet-intermedio-dublado"
    },
    {
      "id": 3634,
      "nome": "Steins;Gate: Kyoukaimenjou no Missing Link - Divide By Zero (Dublado)",
      "link": "https://animefire.plus/animes/steins-gate-kyoukaimenjou-no-missing-link---divide-by-zero-dublado-todos-os-episodios",
      "texto_original": "Steins;Gate: Kyoukaimenjou no Missing Link - Divide By Zero (Dublado)",
      "rating": 8.26,
      "classificacao_etaria": "A14",
      "imagem_original": "https://animefire.plus/img/animes/steins-gate-kyoukaimenjou-no-missing-link---divide-by-zero.webp",
      "imagem_pasta": "https://animefire.plus/img/animes/steins-gate-kyoukaimenjou-no-missing-link---divide-by-zero/",
      "secao": "dublados,legendados",
      "pagina": 18,
      "total_episodios": 1,
      "link_video": "https://animefire.plus/video/steins-gate-kyoukaimenjou-no-missing-link---divide-by-zero-dublado"
    },
    {
      "id": 3640,
      "nome": "Stratos 4 (Dublado)",
      "link": "https://animefire.plus/animes/stratos-4-dublado-todos-os-episodios",
      "texto_original": "Stratos 4 (Dublado)",
      "rating": 6.68,
      "classificacao_etaria": "A14",
      "imagem_original": "https://animefire.plus/img/animes/stratos-4.webp",
      "imagem_pasta": "https://animefire.plus/img/animes/stratos-4/",
      "secao": "dublados,legendados",
      "pagina": 23,
      "total_episodios": 13,
      "link_video": "https://animefire.plus/video/stratos-4-dublado"
    },
    {
      "id": 3643,
      "nome": "Street Fighter II V (Dublado)",
      "link": "https://animefire.plus/animes/street-fighter-ii-v-dublado-todos-os-episodios",
      "texto_original": "Street Fighter II V (Dublado)",
      "rating": 7.08,
      "classificacao_etaria": "A14",
      "imagem_original": "https://animefire.plus/img/animes/street-fighter-ii-v.webp",
      "imagem_pasta": "https://animefire.plus/img/animes/street-fighter-ii-v/",
      "secao": "dublados,legendados",
      "pagina": 22,
      "total_episodios": 29,
      "link_video": "https://animefire.plus/video/street-fighter-ii-v-dublado"
    },
    {
      "id": 3658,
      "nome": "Subarashiki Kono Sekai The Animation (Dublado)",
      "link": "https://animefire.plus/animes/subarashiki-kono-sekai-the-animation-dublado-todos-os-episodios",
      "texto_original": "Subarashiki Kono Sekai The Animation (Dublado)",
      "rating": 6.15,
      "classificacao_etaria": "A14",
      "imagem_original": "https://animefire.plus/img/animes/subarashiki-kono-sekai-the-animation.webp",
      "imagem_pasta": "https://animefire.plus/img/animes/subarashiki-kono-sekai-the-animation/",
      "secao": "dublados,legendados",
      "pagina": 17,
      "total_episodios": 12,
      "link_video": "https://animefire.plus/video/subarashiki-kono-sekai-the-animation-dublado"
    },
    {
      "id": 3667,
      "nome": "Sukeban Deka (Dublado)",
      "link": "https://animefire.plus/animes/sukeban-deka-dublado-todos-os-episodios",
      "texto_original": "Sukeban Deka (Dublado)",
      "rating": 6.51,
      "classificacao_etaria": "A16",
      "imagem_original": "https://animefire.plus/img/animes/sukeban-deka.webp",
      "imagem_pasta": "https://animefire.plus/img/animes/sukeban-deka/",
      "secao": "dublados",
      "pagina": 22,
      "total_episodios": 2,
      "link_video": "https://animefire.plus/video/sukeban-deka-dublado"
    },
    {
      "id": 3672,
      "nome": "Summertime Render (Dublado)",
      "link": "https://animefire.plus/animes/summertime-render-dublado-todos-os-episodios",
      "texto_original": "Summertime Render (Dublado)",
      "rating": 8.47,
      "classificacao_etaria": "A16",
      "imagem_original": "https://animefire.plus/img/animes/summertime-render.webp",
      "imagem_pasta": "https://animefire.plus/img/animes/summertime-render/",
      "secao": "dublados,legendados,lancamentos",
      "pagina": 10,
      "total_episodios": 25,
      "link_video": "https://animefire.plus/video/summertime-render-dublado"
    },
    {
      "id": 3675,
      "nome": "Super Cub (Dublado)",
      "link": "https://animefire.plus/animes/super-cub-dublado-todos-os-episodios",
      "texto_original": "Super Cub (Dublado)",
      "rating": 7.45,
      "classificacao_etaria": "A14",
      "imagem_original": "https://animefire.plus/img/animes/super-cub.webp",
      "imagem_pasta": "https://animefire.plus/img/animes/super-cub/",
      "secao": "dublados,legendados",
      "pagina": 13,
      "total_episodios": 12,
      "link_video": "https://animefire.plus/video/super-cub-dublado"
    },
    {
      "id": 3679,
      "nome": "Super Mario World: Mario to Yoshi no Bouken Land (Dublado)",
      "link": "https://animefire.plus/animes/super-mario-world-mario-to-yoshi-no-bouken-land-dublado-todos-os-episodios",
      "texto_original": "Super Mario World: Mario to Yoshi no Bouken Land (Dublado)",
      "rating": 5.38,
      "classificacao_etaria": null,
      "imagem_original": "https://animefire.plus/img/animes/super-mario-world-mario-to-yoshi-no-bouken-land.webp",
      "imagem_pasta": "https://animefire.plus/img/animes/super-mario-world-mario-to-yoshi-no-bouken-land/",
      "secao": "dublados,legendados",
      "pagina": 23,
      "total_episodios": 1,
      "link_video": "https://animefire.plus/video/super-mario-world-mario-to-yoshi-no-bouken-land-dublado"
    },
    {
      "id": 3690,
      "nome": "Sword Art Online (Dublado)",
      "link": "https://animefire.plus/animes/sword-art-online-dublado-todos-os-episodios",
      "texto_original": "Sword Art Online (Dublado)",
      "rating": 7.2,
      "classificacao_etaria": "A14",
      "imagem_original": "https://animefire.plus/img/animes/sword-art-online.webp",
      "imagem_pasta": "https://animefire.plus/img/animes/sword-art-online/",
      "secao": "dublados,legendados",
      "pagina": 13,
      "total_episodios": 25,
      "link_video": "https://animefire.plus/video/sword-art-online-dublado"
    },
    {
      "id": 3693,
      "nome": "Sword Art Online II (Dublado)",
      "link": "https://animefire.plus/animes/sword-art-online-ii-dublado-todos-os-episodios",
      "texto_original": "Sword Art Online II (Dublado)",
      "rating": 6.72,
      "classificacao_etaria": "A14",
      "imagem_original": "https://animefire.plus/img/animes/sword-art-online-ii.webp",
      "imagem_pasta": "https://animefire.plus/img/animes/sword-art-online-ii/",
      "secao": "dublados,legendados",
      "pagina": 13,
      "total_episodios": 24,
      "link_video": "https://animefire.plus/video/sword-art-online-ii-dublado"
    }
  ],
  "pagination": {
    "current_page": 28,
    "per_page": 20,
    "total_items": 656,
    "total_pages": 33,
    "has_next": true,
    "has_prev": true
  }
}
