{
  "message": "Animes da seção: dublados",
  "section": "dublados",
  "data": [
    {
      "id": 1717,
      "nome": "Jidou Hanbaiki ni Umarekawatta Ore wa Meikyuu wo Samayou (Dublado)",
      "link": "https://animefire.plus/animes/jidou-hanbaiki-ni-umarekawatta-ore-wa-meikyuu-wo-samayou-dublado-todos-os-episodios",
      "texto_original": "Jidou Hanbaiki ni Umarekawatta Ore wa Meikyuu wo Samayou (Dublado)",
      "rating": 6.45,
      "classificacao_etaria": "A14",
      "imagem_original": "https://animefire.plus/img/animes/jidou-hanbaiki-ni-umarekawatta-ore-wa-meikyuu-wo-samayou.webp",
      "imagem_pasta": "https://animefire.plus/img/animes/jidou-hanbaiki-ni-umarekawatta-ore-wa-meikyuu-wo-samayou/",
      "secao": "dublados,legendados",
      "pagina": 6,
      "total_episodios": 12,
      "link_video": "https://animefire.plus/video/jidou-hanbaiki-ni-umarekawatta-ore-wa-meikyuu-wo-samayou-dublado"
    },
    {
      "id": 1723,
      "nome": "Jigoku Shoujo (Dublado)",
      "link": "https://animefire.plus/animes/jigoku-shoujo-dublado-todos-os-episodios",
      "texto_original": "Jigoku Shoujo (Dublado)",
      "rating": 7.68,
      "classificacao_etaria": "A16",
      "imagem_original": "https://animefire.plus/img/animes/jigoku-shoujo.webp",
      "imagem_pasta": "https://animefire.plus/img/animes/jigoku-shoujo/",
      "secao": "dublados,legendados",
      "pagina": 25,
      "total_episodios": 26,
      "link_video": "https://animefire.plus/video/jigoku-shoujo-dublado"
    },
    {
      "id": 1727,
      "nome": "Jigokuraku (Dublado)",
      "link": "https://animefire.plus/animes/jigokuraku-dublado-todos-os-episodios",
      "texto_original": "Jigokuraku (Dublado)",
      "rating": 8.09,
      "classificacao_etaria": "A16",
      "imagem_original": "https://animefire.plus/img/animes/jigokuraku.webp",
      "imagem_pasta": "https://animefire.plus/img/animes/jigokuraku/",
      "secao": "dublados,legendados",
      "pagina": 7,
      "total_episodios": 13,
      "link_video": "https://animefire.plus/video/jigokuraku-dublado"
    },
    {
      "id": 1739,
      "nome": "JoJo no Kimyou na Bouken (TV) (Dublado)",
      "link": "https://animefire.plus/animes/jojo-no-kimyou-na-bouken-tv-dublado-todos-os-episodios",
      "texto_original": "JoJo no Kimyou na Bouken (TV) (Dublado)",
      "rating": 7.99,
      "classificacao_etaria": "A16",
      "imagem_original": "https://animefire.plus/img/animes/jojo-no-kimyou-na-bouken-tv.webp",
      "imagem_pasta": "https://animefire.plus/img/animes/jojo-no-kimyou-na-bouken-tv/",
      "secao": "dublados,legendados",
      "pagina": 17,
      "total_episodios": 26,
      "link_video": "https://animefire.plus/video/jojo-no-kimyou-na-bouken-tv-dublado"
    },
    {
      "id": 1740,
      "nome": "JoJo no Kimyou na Bouken Part 3: Stardust Crusaders (Dublado)",
      "link": "https://animefire.plus/animes/jojo-no-kimyou-na-bouken-part-3-stardust-crusaders-dublado-todos-os-episodios",
      "texto_original": "JoJo no Kimyou na Bouken Part 3: Stardust Crusaders (Dublado)",
      "rating": 8.09,
      "classificacao_etaria": "A16",
      "imagem_original": "https://animefire.plus/img/animes/jojo-no-kimyou-na-bouken-part-3-stardust-crusaders.webp",
      "imagem_pasta": "https://animefire.plus/img/animes/jojo-no-kimyou-na-bouken-part-3-stardust-crusaders/",
      "secao": "dublados,legendados",
      "pagina": 15,
      "total_episodios": 24,
      "link_video": "https://animefire.plus/video/jojo-no-kimyou-na-bouken-part-3-stardust-crusaders-dublado"
    },
    {
      "id": 1741,
      "nome": "JoJo no Kimyou na Bouken Part 3: Stardust Crusaders 2nd Season (Dublado)",
      "link": "https://animefire.plus/animes/jojo-no-kimyou-na-bouken-part-3-stardust-crusaders-2nd-season-dublado-todos-os-episodios",
      "texto_original": "JoJo no Kimyou na Bouken Part 3: Stardust Crusaders 2nd Season (Dublado)",
      "rating": 8.43,
      "classificacao_etaria": "A16",
      "imagem_original": "https://animefire.plus/img/animes/jojo-no-kimyou-na-bouken-part-3-stardust-crusaders-2nd-season.webp",
      "imagem_pasta": "https://animefire.plus/img/animes/jojo-no-kimyou-na-bouken-part-3-stardust-crusaders-2nd-season/",
      "secao": "dublados,legendados",
      "pagina": 15,
      "total_episodios": 24,
      "link_video": "https://animefire.plus/video/jojo-no-kimyou-na-bouken-part-3-stardust-crusaders-2nd-season-dublado"
    },
    {
      "id": 1743,
      "nome": "JoJo no Kimyou na Bouken Part 5: Ougon no Kaze (Dublado)",
      "link": "https://animefire.plus/animes/jojo-no-kimyou-na-bouken-part-5-ougon-no-kaze-dublado-todos-os-episodios",
      "texto_original": "JoJo no Kimyou na Bouken Part 5: Ougon no Kaze (Dublado)",
      "rating": 8.58,
      "classificacao_etaria": "A16",
      "imagem_original": "https://animefire.plus/img/animes/jojo-no-kimyou-na-bouken-part-5-ougon-no-kaze.webp",
      "imagem_pasta": "https://animefire.plus/img/animes/jojo-no-kimyou-na-bouken-part-5-ougon-no-kaze/",
      "secao": "dublados,legendados",
      "pagina": 5,
      "total_episodios": 41,
      "link_video": "https://animefire.plus/video/jojo-no-kimyou-na-bouken-part-5-ougon-no-kaze-dublado"
    },
    {
      "id": 1744,
      "nome": "JoJo no Kimyou na Bouken Part 6: Stone Ocean (Dublado)",
      "link": "https://animefire.plus/animes/jojo-no-kimyou-na-bouken-part-6-stone-ocean-dublado-todos-os-episodios",
      "texto_original": "JoJo no Kimyou na Bouken Part 6: Stone Ocean (Dublado)",
      "rating": 8.08,
      "classificacao_etaria": "A16",
      "imagem_original": "https://animefire.plus/img/animes/jojo-no-kimyou-na-bouken-part-6-stone-ocean.webp",
      "imagem_pasta": "https://animefire.plus/img/animes/jojo-no-kimyou-na-bouken-part-6-stone-ocean/",
      "secao": "dublados,legendados,lancamentos",
      "pagina": 13,
      "total_episodios": 38,
      "link_video": "https://animefire.plus/video/jojo-no-kimyou-na-bouken-part-6-stone-ocean-dublado"
    },
    {
      "id": 1746,
      "nome": "Joker Game (Dublado)",
      "link": "https://animefire.plus/animes/joker-game-dublado-todos-os-episodios",
      "texto_original": "Joker Game (Dublado)",
      "rating": 7.08,
      "classificacao_etaria": "A16",
      "imagem_original": "https://animefire.plus/img/animes/joker-game.webp",
      "imagem_pasta": "https://animefire.plus/img/animes/joker-game/",
      "secao": "dublados,legendados",
      "pagina": 24,
      "total_episodios": 12,
      "link_video": "https://animefire.plus/video/joker-game-dublado"
    },
    {
      "id": 1754,
      "nome": "Jujutsu Kaisen (Dublado)",
      "link": "https://animefire.plus/animes/jujutsu-kaisen-dublado-todos-os-episodios",
      "texto_original": "Jujutsu Kaisen (Dublado)",
      "rating": 8.66,
      "classificacao_etaria": "A16",
      "imagem_original": "https://animefire.plus/img/animes/jujutsu-kaisen.webp",
      "imagem_pasta": "https://animefire.plus/img/animes/jujutsu-kaisen/",
      "secao": "dublados",
      "pagina": 8,
      "total_episodios": 24,
      "link_video": "https://animefire.plus/video/jujutsu-kaisen-dublado"
    },
    {
      "id": 1755,
      "nome": "Jujutsu Kaisen (TV) (Dublado)",
      "link": "https://animefire.plus/animes/jujutsu-kaisen-tv-dublado-todos-os-episodios",
      "texto_original": "Jujutsu Kaisen (TV) (Dublado)",
      "rating": 8.39,
      "classificacao_etaria": "A16",
      "imagem_original": "https://animefire.plus/img/animes/jujutsu-kaisen-tv.webp",
      "imagem_pasta": "https://animefire.plus/img/animes/jujutsu-kaisen-tv/",
      "secao": "dublados,legendados",
      "pagina": 19,
      "total_episodios": 11,
      "link_video": "https://animefire.plus/video/jujutsu-kaisen-tv-dublado"
    },
    {
      "id": 1756,
      "nome": "Jujutsu Kaisen 2nd Season (Dublado)",
      "link": "https://animefire.plus/animes/jujutsu-kaisen-2nd-season-dublado-todos-os-episodios",
      "texto_original": "Jujutsu Kaisen 2nd Season (Dublado)",
      "rating": 8.74,
      "classificacao_etaria": "A16",
      "imagem_original": "https://animefire.plus/img/animes/jujutsu-kaisen-2nd-season.webp",
      "imagem_pasta": "https://animefire.plus/img/animes/jujutsu-kaisen-2nd-season/",
      "secao": "dublados,legendados",
      "pagina": 6,
      "total_episodios": 23,
      "link_video": "https://animefire.plus/video/jujutsu-kaisen-2nd-season-dublado"
    },
    {
      "id": 1771,
      "nome": "Juushinki Pandora (Dublado)",
      "link": "https://animefire.plus/animes/juushinki-pandora-dublado-todos-os-episodios",
      "texto_original": "Juushinki Pandora (Dublado)",
      "rating": 6.4,
      "classificacao_etaria": "A14",
      "imagem_original": "https://animefire.plus/img/animes/juushinki-pandora.webp",
      "imagem_pasta": "https://animefire.plus/img/animes/juushinki-pandora/",
      "secao": "dublados,legendados",
      "pagina": 24,
      "total_episodios": 26,
      "link_video": "https://animefire.plus/video/juushinki-pandora-dublado"
    },
    {
      "id": 1783,
      "nome": "Kage no Jitsuryokusha ni Naritakute! (Dublado)",
      "link": "https://animefire.plus/animes/kage-no-jitsuryokusha-ni-naritakute-dublado-todos-os-episodios",
      "texto_original": "Kage no Jitsuryokusha ni Naritakute! (Dublado)",
      "rating": 8.25,
      "classificacao_etaria": "A16",
      "imagem_original": "https://animefire.plus/img/animes/kage-no-jitsuryokusha-ni-naritakute.webp",
      "imagem_pasta": "https://animefire.plus/img/animes/kage-no-jitsuryokusha-ni-naritakute/",
      "secao": "dublados,legendados,lancamentos",
      "pagina": 8,
      "total_episodios": 20,
      "link_video": "https://animefire.plus/video/kage-no-jitsuryokusha-ni-naritakute-dublado"
    },
    {
      "id": 1784,
      "nome": "Kage no Jitsuryokusha ni Naritakute! 2nd Season (Dublado)",
      "link": "https://animefire.plus/animes/kage-no-jitsuryokusha-ni-naritakute-2nd-season-dublado-todos-os-episodios",
      "texto_original": "Kage no Jitsuryokusha ni Naritakute! 2nd Season (Dublado)",
      "rating": 8.28,
      "classificacao_etaria": "A16",
      "imagem_original": "https://animefire.plus/img/animes/kage-no-jitsuryokusha-ni-naritakute-2nd-season.webp",
      "imagem_pasta": "https://animefire.plus/img/animes/kage-no-jitsuryokusha-ni-naritakute-2nd-season/",
      "secao": "dublados,legendados,lancamentos",
      "pagina": 5,
      "total_episodios": 12,
      "link_video": "https://animefire.plus/video/kage-no-jitsuryokusha-ni-naritakute-2nd-season-dublado"
    },
    {
      "id": 1785,
      "nome": "Kageki Shoujo!! (Dublado)",
      "link": "https://animefire.plus/animes/kageki-shoujo-dublado-todos-os-episodios",
      "texto_original": "Kageki Shoujo!! (Dublado)",
      "rating": 7.72,
      "classificacao_etaria": "A14",
      "imagem_original": "https://animefire.plus/img/animes/kageki-shoujo.webp",
      "imagem_pasta": "https://animefire.plus/img/animes/kageki-shoujo/",
      "secao": "dublados,legendados",
      "pagina": 11,
      "total_episodios": 13,
      "link_video": "https://animefire.plus/video/kageki-shoujo-dublado"
    },
    {
      "id": 1792,
      "nome": "Kaguya-sama wa Kokurasetai: Tensai-tachi no Renai Zunousen (Dublado)",
      "link": "https://animefire.plus/animes/kaguya-sama-love-is-war-dublado-todos-os-episodios",
      "texto_original": "Kaguya-sama wa Kokurasetai: Tensai-tachi no Renai Zunousen (Dublado)",
      "rating": 8.41,
      "classificacao_etaria": "A14",
      "imagem_original": "https://animefire.plus/img/animes/kaguya-sama-love-is-war.webp",
      "imagem_pasta": "https://animefire.plus/img/animes/kaguya-sama-love-is-war/",
      "secao": "dublados",
      "pagina": 16,
      "total_episodios": 12,
      "link_video": "https://animefire.plus/video/kaguya-sama-love-is-war-dublado"
    },
    {
      "id": 1794,
      "nome": "Kaguya-sama wa Kokurasetai: Ultra Romantic (Dublado)",
      "link": "https://animefire.plus/animes/kaguya-sama-wa-kokurasetai-ultra-romantic-dublado-todos-os-episodios",
      "texto_original": "Kaguya-sama wa Kokurasetai: Ultra Romantic (Dublado)",
      "rating": 8.97,
      "classificacao_etaria": "A14",
      "imagem_original": "https://animefire.plus/img/animes/kaguya-sama-wa-kokurasetai-ultra-romantic.webp",
      "imagem_pasta": "https://animefire.plus/img/animes/kaguya-sama-wa-kokurasetai-ultra-romantic/",
      "secao": "dublados,legendados",
      "pagina": 11,
      "total_episodios": 13,
      "link_video": "https://animefire.plus/video/kaguya-sama-wa-kokurasetai-ultra-romantic-dublado"
    },
    {
      "id": 1796,
      "nome": "Kaguya-sama wa Kokurasetai?: Tensai-tachi no Renai Zunousen (Dublado)",
      "link": "https://animefire.plus/animes/kaguya-sama-wa-kokurasetai-tensai-tachi-no-renai-zunousen-dublado-todos-os-episodios",
      "texto_original": "Kaguya-sama wa Kokurasetai?: Tensai-tachi no Renai Zunousen (Dublado)",
      "rating": 8.68,
      "classificacao_etaria": "A14",
      "imagem_original": "https://animefire.plus/img/animes/kaguya-sama-love-is-war-season-2.webp",
      "imagem_pasta": "https://animefire.plus/img/animes/kaguya-sama-love-is-war-season-2/",
      "secao": "dublados,legendados",
      "pagina": 16,
      "total_episodios": 12,
      "link_video": "https://animefire.plus/video/kaguya-sama-wa-kokurasetai-tensai-tachi-no-renai-zunousen-dublado"
    },
    {
      "id": 1809,
      "nome": "Kaijuu 8-gou (Dublado)",
      "link": "https://animefire.plus/animes/kaijuu-8-gou-dublado-todos-os-episodios",
      "texto_original": "Kaijuu 8-gou (Dublado)",
      "rating": 8.27,
      "classificacao_etaria": "A14",
      "imagem_original": "https://animefire.plus/img/animes/kaijuu-8-gou.webp",
      "imagem_pasta": "https://animefire.plus/img/animes/kaijuu-8-gou/",
      "secao": "dublados,legendados,lancamentos",
      "pagina": 3,
      "total_episodios": 12,
      "link_video": "https://animefire.plus/video/kaijuu-8-gou-dublado"
    }
  ],
  "pagination": {
    "current_page": 13,
    "per_page": 20,
    "total_items": 656,
    "total_pages": 33,
    "has_next": true,
    "has_prev": true
  }
}
