{
  "message": "Animes da seção: dublados",
  "section": "dublados",
  "data": [
    {
      "id": 1527,
      "nome": "Horimiya: Piece (Dublado)",
      "link": "https://animefire.plus/animes/horimiya-piece-dublado-todos-os-episodios",
      "texto_original": "Horimiya: Piece (Dublado)",
      "rating": 8.14,
      "classificacao_etaria": "A14",
      "imagem_original": "https://animefire.plus/img/animes/horimiya-piece.webp",
      "imagem_pasta": "https://animefire.plus/img/animes/horimiya-piece/",
      "secao": "dublados,legendados",
      "pagina": 6,
      "total_episodios": 13,
      "link_video": "https://animefire.plus/video/horimiya-piece-dublado"
    },
    {
      "id": 1529,
      "nome": "Hoshi no Samidare (Dublado)",
      "link": "https://animefire.plus/animes/hoshi-no-samidare-dublado-todos-os-episodios",
      "texto_original": "Hoshi no Samidare (Dublado)",
      "rating": 5.63,
      "classificacao_etaria": "A14",
      "imagem_original": "https://animefire.plus/img/animes/hoshi-no-samidare.webp",
      "imagem_pasta": "https://animefire.plus/img/animes/hoshi-no-samidare/",
      "secao": "dublados,legendados",
      "pagina": 10,
      "total_episodios": 24,
      "link_video": "https://animefire.plus/video/hoshi-no-samidare-dublado"
    },
    {
      "id": 1531,
      "nome": "Hoshifuru Oukoku no Nina (Dublado)",
      "link": "https://animefire.plus/animes/hoshifuru-oukoku-no-nina-dublado-todos-os-episodios",
      "texto_original": "Hoshifuru Oukoku no Nina (Dublado)",
      "rating": 7.38,
      "classificacao_etaria": "A14",
      "imagem_original": "https://animefire.plus/img/animes/hoshifuru-oukoku-no-nina.webp",
      "imagem_pasta": "https://animefire.plus/img/animes/hoshifuru-oukoku-no-nina/",
      "secao": "dublados,legendados,lancamentos",
      "pagina": 2,
      "total_episodios": 12,
      "link_video": "https://animefire.plus/video/hoshifuru-oukoku-no-nina-dublado"
    },
    {
      "id": 1549,
      "nome": "Hunter x Hunter (2011) (Dublado)",
      "link": "https://animefire.plus/animes/hunter-x-hunter-2011-dublado-todos-os-episodios",
      "texto_original": "Hunter x Hunter (2011) (Dublado)",
      "rating": 9.04,
      "classificacao_etaria": "A14",
      "imagem_original": "https://animefire.plus/img/animes/hunter-x-hunter-2011.webp",
      "imagem_pasta": "https://animefire.plus/img/animes/hunter-x-hunter-2011/",
      "secao": "dublados,legendados",
      "pagina": 6,
      "total_episodios": 148,
      "link_video": "https://animefire.plus/video/hunter-x-hunter-2011-dublado"
    },
    {
      "id": 1550,
      "nome": "Hunter x Hunter (Dublado)",
      "link": "https://animefire.plus/animes/hunter-x-hunter-dublado-todos-os-episodios",
      "texto_original": "Hunter x Hunter (Dublado)",
      "rating": 8.43,
      "classificacao_etaria": "A14",
      "imagem_original": "https://animefire.plus/img/animes/hunter-x-hunter.webp",
      "imagem_pasta": "https://animefire.plus/img/animes/hunter-x-hunter/",
      "secao": "dublados",
      "pagina": 22,
      "total_episodios": 92,
      "link_video": "https://animefire.plus/video/hunter-x-hunter-dublado"
    },
    {
      "id": 1569,
      "nome": "Hyouken no Majutsushi ga Sekai wo Suberu (Dublado)",
      "link": "https://animefire.plus/animes/hyouken-no-majutsushi-ga-sekai-wo-suberu-dublado-todos-os-episodios",
      "texto_original": "Hyouken no Majutsushi ga Sekai wo Suberu (Dublado)",
      "rating": 6.36,
      "classificacao_etaria": "A14",
      "imagem_original": "https://animefire.plus/img/animes/hyouken-no-majutsushi-ga-sekai-wo-suberu.webp",
      "imagem_pasta": "https://animefire.plus/img/animes/hyouken-no-majutsushi-ga-sekai-wo-suberu/",
      "secao": "dublados,legendados",
      "pagina": 4,
      "total_episodios": 12,
      "link_video": "https://animefire.plus/video/hyouken-no-majutsushi-ga-sekai-wo-suberu-dublado"
    },
    {
      "id": 1583,
      "nome": "ID-0 (Dublado)",
      "link": "https://animefire.plus/animes/id-0-dublado-todos-os-episodios",
      "texto_original": "ID-0 (Dublado)",
      "rating": 6.64,
      "classificacao_etaria": "A14",
      "imagem_original": "https://animefire.plus/img/animes/id-0.webp",
      "imagem_pasta": "https://animefire.plus/img/animes/id-0/",
      "secao": "dublados,legendados",
      "pagina": 21,
      "total_episodios": 12,
      "link_video": "https://animefire.plus/video/id-0-dublado"
    },
    {
      "id": 1584,
      "nome": "ID:Invaded (Dublado)",
      "link": "https://animefire.plus/animes/id-invaded-dublado-todos-os-episodios",
      "texto_original": "ID:Invaded (Dublado)",
      "rating": 7.87,
      "classificacao_etaria": "A16",
      "imagem_original": "https://animefire.plus/img/animes/id-invaded.webp",
      "imagem_pasta": "https://animefire.plus/img/animes/id-invaded/",
      "secao": "dublados,legendados",
      "pagina": 15,
      "total_episodios": 13,
      "link_video": "https://animefire.plus/video/id-invaded-dublado"
    },
    {
      "id": 1598,
      "nome": "Ijiranaide, Nagatoro-san (Dublado)",
      "link": "https://animefire.plus/animes/ijiranaide-nagatoro-san-dublado-todos-os-episodios",
      "texto_original": "Ijiranaide, Nagatoro-san (Dublado)",
      "rating": 7.21,
      "classificacao_etaria": "A14",
      "imagem_original": "https://animefire.plus/img/animes/ijiranaide-nagatoro-san.webp",
      "imagem_pasta": "https://animefire.plus/img/animes/ijiranaide-nagatoro-san/",
      "secao": "dublados,legendados",
      "pagina": 13,
      "total_episodios": 12,
      "link_video": "https://animefire.plus/video/ijiranaide-nagatoro-san-dublado"
    },
    {
      "id": 1599,
      "nome": "Ijiranaide, Nagatoro-san 2nd Attack (Dublado)",
      "link": "https://animefire.plus/animes/ijiranaide-nagatoro-san-2nd-attack-dublado-todos-os-episodios",
      "texto_original": "Ijiranaide, Nagatoro-san 2nd Attack (Dublado)",
      "rating": 7.45,
      "classificacao_etaria": "A14",
      "imagem_original": "https://animefire.plus/img/animes/ijiranaide-nagatoro-san-2nd-attack.webp",
      "imagem_pasta": "https://animefire.plus/img/animes/ijiranaide-nagatoro-san-2nd-attack/",
      "secao": "dublados,legendados,lancamentos",
      "pagina": 8,
      "total_episodios": 12,
      "link_video": "https://animefire.plus/video/ijiranaide-nagatoro-san-2nd-attack-dublado"
    },
    {
      "id": 1603,
      "nome": "Ikkitousen (Dublado)",
      "link": "https://animefire.plus/animes/ikkitousen-dublado-todos-os-episodios",
      "texto_original": "Ikkitousen (Dublado)",
      "rating": 6.48,
      "classificacao_etaria": "A18",
      "imagem_original": "https://animefire.plus/img/animes/ikkitousen.webp",
      "imagem_pasta": "https://animefire.plus/img/animes/ikkitousen/",
      "secao": "dublados,legendados",
      "pagina": 21,
      "total_episodios": 0,
      "link_video": "https://animefire.plus/video/ikkitousen-dublado"
    },
    {
      "id": 1622,
      "nome": "Ingress the Animation (Dublado)",
      "link": "https://animefire.plus/animes/ingress-the-animation-dublado-todos-os-episodios",
      "texto_original": "Ingress the Animation (Dublado)",
      "rating": 6.45,
      "classificacao_etaria": "A16",
      "imagem_original": "https://animefire.plus/img/animes/ingress-the-animation.webp",
      "imagem_pasta": "https://animefire.plus/img/animes/ingress-the-animation/",
      "secao": "dublados,legendados",
      "pagina": 22,
      "total_episodios": 11,
      "link_video": "https://animefire.plus/video/ingress-the-animation-dublado"
    },
    {
      "id": 1642,
      "nome": "InuYasha (Dublado)",
      "link": "https://animefire.plus/animes/inuyasha-dublado-todos-os-episodios",
      "texto_original": "InuYasha (Dublado)",
      "rating": 7.91,
      "classificacao_etaria": "A14",
      "imagem_original": "https://animefire.plus/img/animes/inuyasha.webp",
      "imagem_pasta": "https://animefire.plus/img/animes/inuyasha/",
      "secao": "dublados,legendados",
      "pagina": 27,
      "total_episodios": 167,
      "link_video": "https://animefire.plus/video/inuyasha-dublado"
    },
    {
      "id": 1653,
      "nome": "Isekai de Cheat Skill wo Te ni Shita Ore wa, Genjitsu Sekai wo mo Musou Suru: Level Up wa Jinsei wo Kaeta (Dublado)",
      "link": "https://animefire.plus/animes/isekai-de-cheat-skill-wo-te-ni-shita-ore-wa-genjitsu-sekai-wo-mo-musou-suru-level-up-wa-jinsei-wo-kaeta-dublado-todos-os-episodios",
      "texto_original": "Isekai de Cheat Skill wo Te ni Shita Ore wa, Genjitsu Sekai wo mo Musou Suru: Level Up wa Jinsei wo Kaeta (Dublado)",
      "rating": 6.34,
      "classificacao_etaria": "A14",
      "imagem_original": "https://animefire.plus/img/animes/isekai-de-cheat-skill-wo-te-ni-shita-ore-wa-genjitsu-sekai-wo-mo-musou-suru-level-up-wa-jinsei-wo-kaeta.jpg",
      "imagem_pasta": "https://animefire.plus/img/animes/isekai-de-cheat-skill-wo-te-ni-shita-ore-wa-genjitsu-sekai-wo-mo-musou-suru-level-up-wa-jinsei-wo-kaeta/",
      "secao": "dublados,legendados",
      "pagina": 7,
      "total_episodios": 13,
      "link_video": "https://animefire.plus/video/isekai-de-cheat-skill-wo-te-ni-shita-ore-wa-genjitsu-sekai-wo-mo-musou-suru-level-up-wa-jinsei-wo-kaeta-dublado"
    },
    {
      "id": 1672,
      "nome": "Isekai wa Smartphone to Tomo ni. (Dublado)",
      "link": "https://animefire.plus/animes/isekai-wa-smartphone-to-tomo-ni-dublado-todos-os-episodios",
      "texto_original": "Isekai wa Smartphone to Tomo ni. (Dublado)",
      "rating": 6.5,
      "classificacao_etaria": "A14",
      "imagem_original": "https://animefire.plus/img/animes/isekai-wa-smartphone-to-tomo-ni.webp",
      "imagem_pasta": "https://animefire.plus/img/animes/isekai-wa-smartphone-to-tomo-ni/",
      "secao": "dublados,legendados",
      "pagina": 24,
      "total_episodios": 3,
      "link_video": "https://animefire.plus/video/isekai-wa-smartphone-to-tomo-ni-dublado"
    },
    {
      "id": 1673,
      "nome": "Isekai wa Smartphone to Tomo ni. 2 (Dublado)",
      "link": "https://animefire.plus/animes/isekai-wa-smartphone-to-tomo-ni-2-dublado-todos-os-episodios",
      "texto_original": "Isekai wa Smartphone to Tomo ni. 2 (Dublado)",
      "rating": 6.41,
      "classificacao_etaria": "A14",
      "imagem_original": "https://animefire.plus/img/animes/isekai-wa-smartphone-to-tomo-ni-2.webp",
      "imagem_pasta": "https://animefire.plus/img/animes/isekai-wa-smartphone-to-tomo-ni-2/",
      "secao": "dublados,legendados",
      "pagina": 7,
      "total_episodios": 12,
      "link_video": "https://animefire.plus/video/isekai-wa-smartphone-to-tomo-ni-2-dublado"
    },
    {
      "id": 1691,
      "nome": "Itou Junji: Maniac (Dublado)",
      "link": "https://animefire.plus/animes/itou-junji-maniac-dublado-todos-os-episodios",
      "texto_original": "Itou Junji: Maniac (Dublado)",
      "rating": 6.66,
      "classificacao_etaria": "A16",
      "imagem_original": "https://animefire.plus/img/animes/itou-junji-maniac.webp",
      "imagem_pasta": "https://animefire.plus/img/animes/itou-junji-maniac/",
      "secao": "dublados,legendados",
      "pagina": 8,
      "total_episodios": 12,
      "link_video": "https://animefire.plus/video/itou-junji-maniac-dublado"
    },
    {
      "id": 1702,
      "nome": "Izure Saikyou no Renkinjutsushi? (Dublado)",
      "link": "https://animefire.plus/animes/izure-saikyou-no-renkinjutsushi-dublado-todos-os-episodios",
      "texto_original": "Izure Saikyou no Renkinjutsushi? (Dublado)",
      "rating": 6.61,
      "classificacao_etaria": "A14",
      "imagem_original": "https://animefire.plus/img/animes/izure-saikyou-no-renkinjutsushi.webp",
      "imagem_pasta": "https://animefire.plus/img/animes/izure-saikyou-no-renkinjutsushi/",
      "secao": "dublados,legendados,lancamentos",
      "pagina": 1,
      "total_episodios": 12,
      "link_video": "https://animefire.plus/video/izure-saikyou-no-renkinjutsushi-dublado"
    },
    {
      "id": 1703,
      "nome": "Jahy-sama wa Kujikenai! (Dublado)",
      "link": "https://animefire.plus/animes/jahy-sama-wa-kujikenai-dublado-todos-os-episodios",
      "texto_original": "Jahy-sama wa Kujikenai! (Dublado)",
      "rating": 7.01,
      "classificacao_etaria": "A14",
      "imagem_original": "https://animefire.plus/img/animes/jahy-sama-wa-kujikenai.webp",
      "imagem_pasta": "https://animefire.plus/img/animes/jahy-sama-wa-kujikenai/",
      "secao": "dublados,legendados",
      "pagina": 9,
      "total_episodios": 20,
      "link_video": "https://animefire.plus/video/jahy-sama-wa-kujikenai-dublado"
    },
    {
      "id": 1713,
      "nome": "Jibaku Shounen Hanako-kun (Dublado)",
      "link": "https://animefire.plus/animes/jibaku-shounen-hanako-kun-dublado-todos-os-episodios",
      "texto_original": "Jibaku Shounen Hanako-kun (Dublado)",
      "rating": 7.83,
      "classificacao_etaria": "A14",
      "imagem_original": "https://animefire.plus/img/animes/jibaku-shounen-hanako-kun.webp",
      "imagem_pasta": "https://animefire.plus/img/animes/jibaku-shounen-hanako-kun/",
      "secao": "dublados,legendados",
      "pagina": 15,
      "total_episodios": 12,
      "link_video": "https://animefire.plus/video/jibaku-shounen-hanako-kun-dublado"
    }
  ],
  "pagination": {
    "current_page": 12,
    "per_page": 20,
    "total_items": 656,
    "total_pages": 33,
    "has_next": true,
    "has_prev": true
  }
}
