{
  "message": "Animes da seção: dublados",
  "section": "dublados",
  "data": [
    {
      "id": 3412,
      "nome": "Shikkakumon no Saikyou Kenja (Dublado)",
      "link": "https://animefire.plus/animes/shikkakumon-no-saikyou-kenja-dublado-todos-os-episodios",
      "texto_original": "Shikkakumon no Saikyou Kenja (Dublado)",
      "rating": 6.22,
      "classificacao_etaria": "A14",
      "imagem_original": "https://animefire.plus/img/animes/shikkakumon-no-saikyou-kenja.webp",
      "imagem_pasta": "https://animefire.plus/img/animes/shikkakumon-no-saikyou-kenja/",
      "secao": "dublados,legendados",
      "pagina": 12,
      "total_episodios": 12,
      "link_video": "https://animefire.plus/video/shikkakumon-no-saikyou-kenja-dublado"
    },
    {
      "id": 3422,
      "nome": "Shin no Nakama ja Nai to Yuusha no Party wo Oidasareta node, Henkyou de Slow Life suru Koto ni Shimashita (Dublado)",
      "link": "https://animefire.plus/animes/shin-no-nakama-ja-nai-to-yuusha-no-party-wo-oidasareta-node-henkyou-de-slow-life-suru-koto-ni-shimashita-dublado-todos-os-episodios",
      "texto_original": "Shin no Nakama ja Nai to Yuusha no Party wo Oidasareta node, Henkyou de Slow Life suru Koto ni Shimashita (Dublado)",
      "rating": 6.92,
      "classificacao_etaria": "A14",
      "imagem_original": "https://animefire.plus/img/animes/shin-no-nakama-ja-nai-to-yuusha-no-party-wo-oidasareta-node-henkyou-de-slow-life-suru-koto-ni-shimashita.webp",
      "imagem_pasta": "https://animefire.plus/img/animes/shin-no-nakama-ja-nai-to-yuusha-no-party-wo-oidasareta-node-henkyou-de-slow-life-suru-koto-ni-shimashita/",
      "secao": "dublados,lancamentos",
      "pagina": 14,
      "total_episodios": 4,
      "link_video": "https://animefire.plus/video/shin-no-nakama-ja-nai-to-yuusha-no-party-wo-oidasareta-node-henkyou-de-slow-life-suru-koto-ni-shimashita-dublado"
    },
    {
      "id": 3426,
      "nome": "Shin Shinka no Mi: Shiranai Uchi ni Kachigumi Jinsei (Dublado)",
      "link": "https://animefire.plus/animes/shin-shinka-no-mi-shiranai-uchi-ni-kachigumi-jinsei-dublado-todos-os-episodios",
      "texto_original": "Shin Shinka no Mi: Shiranai Uchi ni Kachigumi Jinsei (Dublado)",
      "rating": 5.47,
      "classificacao_etaria": "A14",
      "imagem_original": "https://animefire.plus/img/animes/shin-shinka-no-mi-shiranai-uchi-ni-kachigumi-jinsei.webp",
      "imagem_pasta": "https://animefire.plus/img/animes/shin-shinka-no-mi-shiranai-uchi-ni-kachigumi-jinsei/",
      "secao": "dublados,legendados",
      "pagina": 5,
      "total_episodios": 12,
      "link_video": "https://animefire.plus/video/shin-shinka-no-mi-shiranai-uchi-ni-kachigumi-jinsei-dublado"
    },
    {
      "id": 3429,
      "nome": "Shin Tennis no Ouji-sama (Dublado)",
      "link": "https://animefire.plus/animes/shin-tennis-no-ouji-sama-dublado-todos-os-episodios",
      "texto_original": "Shin Tennis no Ouji-sama (Dublado)",
      "rating": 7.55,
      "classificacao_etaria": "A14",
      "imagem_original": "https://animefire.plus/img/animes/shin-tennis-no-ouji-sama.webp",
      "imagem_pasta": "https://animefire.plus/img/animes/shin-tennis-no-ouji-sama/",
      "secao": "dublados,legendados",
      "pagina": 15,
      "total_episodios": 13,
      "link_video": "https://animefire.plus/video/shin-tennis-no-ouji-sama-dublado"
    },
    {
      "id": 3432,
      "nome": "Shin Tennis no Ouji-sama: Hyoutei vs. Rikkai - Game of Future (Dublado)",
      "link": "https://animefire.plus/animes/shin-tennis-no-ouji-sama-hyoutei-vs-rikkai---game-of-future-dublado-todos-os-episodios",
      "texto_original": "Shin Tennis no Ouji-sama: Hyoutei vs. Rikkai - Game of Future (Dublado)",
      "rating": 7.11,
      "classificacao_etaria": "A14",
      "imagem_original": "https://animefire.plus/img/animes/shin-tennis-no-ouji-sama-hyoutei-vs-rikkai---game-of-future.webp",
      "imagem_pasta": "https://animefire.plus/img/animes/shin-tennis-no-ouji-sama-hyoutei-vs-rikkai---game-of-future/",
      "secao": "dublados",
      "pagina": 16,
      "total_episodios": 2,
      "link_video": "https://animefire.plus/video/shin-tennis-no-ouji-sama-hyoutei-vs-rikkai---game-of-future-dublado"
    },
    {
      "id": 3440,
      "nome": "Shingeki no Kyojin (Dublado)",
      "link": "https://animefire.plus/animes/shingeki-no-kyojin-dublado-todos-os-episodios",
      "texto_original": "Shingeki no Kyojin (Dublado)",
      "rating": 8.45,
      "classificacao_etaria": "A16",
      "imagem_original": "https://animefire.plus/img/animes/shingeki-no-kyojin.webp",
      "imagem_pasta": "https://animefire.plus/img/animes/shingeki-no-kyojin/",
      "secao": "dublados,legendados",
      "pagina": 19,
      "total_episodios": 25,
      "link_video": "https://animefire.plus/video/shingeki-no-kyojin-dublado"
    },
    {
      "id": 3441,
      "nome": "Shingeki no Kyojin OVA (Dublado)",
      "link": "https://animefire.plus/animes/shingeki-no-kyojin-ova-dublado-todos-os-episodios",
      "texto_original": "Shingeki no Kyojin OVA (Dublado)",
      "rating": 7.86,
      "classificacao_etaria": "A16",
      "imagem_original": "https://animefire.plus/img/animes/shingeki-no-kyojin-ova.webp",
      "imagem_pasta": "https://animefire.plus/img/animes/shingeki-no-kyojin-ova/",
      "secao": "dublados,legendados",
      "pagina": 11,
      "total_episodios": 3,
      "link_video": "https://animefire.plus/video/shingeki-no-kyojin-ova-dublado"
    },
    {
      "id": 3442,
      "nome": "Shingeki no Kyojin Season 2 (Dublado)",
      "link": "https://animefire.plus/animes/shingeki-no-kyojin-season-2-dublado-todos-os-episodios",
      "texto_original": "Shingeki no Kyojin Season 2 (Dublado)",
      "rating": 8.4,
      "classificacao_etaria": "A16",
      "imagem_original": "https://animefire.plus/img/animes/shingeki-no-kyojin-season-2.webp",
      "imagem_pasta": "https://animefire.plus/img/animes/shingeki-no-kyojin-season-2/",
      "secao": "dublados,legendados",
      "pagina": 19,
      "total_episodios": 12,
      "link_video": "https://animefire.plus/video/shingeki-no-kyojin-season-2-dublado"
    },
    {
      "id": 3443,
      "nome": "Shingeki no Kyojin Season 3 (Dublado)",
      "link": "https://animefire.plus/animes/shingeki-no-kyojin-season-3-dublado-todos-os-episodios",
      "texto_original": "Shingeki no Kyojin Season 3 (Dublado)",
      "rating": 8.54,
      "classificacao_etaria": "A16",
      "imagem_original": "https://animefire.plus/img/animes/shingeki-no-kyojin-season-3.webp",
      "imagem_pasta": "https://animefire.plus/img/animes/shingeki-no-kyojin-season-3/",
      "secao": "dublados,legendados",
      "pagina": 19,
      "total_episodios": 12,
      "link_video": "https://animefire.plus/video/shingeki-no-kyojin-season-3-dublado"
    },
    {
      "id": 3444,
      "nome": "Shingeki no Kyojin Season 3 Part 2 (Dublado)",
      "link": "https://animefire.plus/animes/shingeki-no-kyojin-season-3-part-2-dublado-todos-os-episodios",
      "texto_original": "Shingeki no Kyojin Season 3 Part 2 (Dublado)",
      "rating": 9.07,
      "classificacao_etaria": "A16",
      "imagem_original": "https://animefire.plus/img/animes/shingeki-no-kyojin-season-3-part-2.webp",
      "imagem_pasta": "https://animefire.plus/img/animes/shingeki-no-kyojin-season-3-part-2/",
      "secao": "dublados,legendados",
      "pagina": 19,
      "total_episodios": 10,
      "link_video": "https://animefire.plus/video/shingeki-no-kyojin-season-3-part-2-dublado"
    },
    {
      "id": 3445,
      "nome": "Shingeki no Kyojin: Kuinaki Sentaku (Dublado)",
      "link": "https://animefire.plus/animes/shingeki-no-kyojin-kuinaki-sentaku-dublado-todos-os-episodios",
      "texto_original": "Shingeki no Kyojin: Kuinaki Sentaku (Dublado)",
      "rating": 8.41,
      "classificacao_etaria": "A16",
      "imagem_original": "https://animefire.plus/img/animes/shingeki-no-kyojin-kuinaki-sentaku.webp",
      "imagem_pasta": "https://animefire.plus/img/animes/shingeki-no-kyojin-kuinaki-sentaku/",
      "secao": "dublados,legendados",
      "pagina": 11,
      "total_episodios": 2,
      "link_video": "https://animefire.plus/video/shingeki-no-kyojin-kuinaki-sentaku-dublado"
    },
    {
      "id": 3446,
      "nome": "Shingeki no Kyojin: Lost Girls (Dublado)",
      "link": "https://animefire.plus/animes/shingeki-no-kyojin-lost-girls-dublado-todos-os-episodios",
      "texto_original": "Shingeki no Kyojin: Lost Girls (Dublado)",
      "rating": 7.8,
      "classificacao_etaria": "A16",
      "imagem_original": "https://animefire.plus/img/animes/shingeki-no-kyojin-lost-girls.webp",
      "imagem_pasta": "https://animefire.plus/img/animes/shingeki-no-kyojin-lost-girls/",
      "secao": "dublados,legendados",
      "pagina": 10,
      "total_episodios": 3,
      "link_video": "https://animefire.plus/video/shingeki-no-kyojin-lost-girls-dublado"
    },
    {
      "id": 3448,
      "nome": "Shingeki no Kyojin: The Final Season - Kanketsu-hen (Dublado)",
      "link": "https://animefire.plus/animes/shingeki-no-kyojin-the-final-season---kanketsu-hen-dublado-todos-os-episodios",
      "texto_original": "Shingeki no Kyojin: The Final Season - Kanketsu-hen (Dublado)",
      "rating": 8.86,
      "classificacao_etaria": "A16",
      "imagem_original": "https://animefire.plus/img/animes/shingeki-no-kyojin-the-final-season---kanketsu-hen.webp",
      "imagem_pasta": "https://animefire.plus/img/animes/shingeki-no-kyojin-the-final-season---kanketsu-hen/",
      "secao": "dublados",
      "pagina": 28,
      "total_episodios": 1,
      "link_video": "https://animefire.plus/video/shingeki-no-kyojin-the-final-season---kanketsu-hen-dublado"
    },
    {
      "id": 3449,
      "nome": "Shingeki no Kyojin: The Final Season (Dublado)",
      "link": "https://animefire.plus/animes/shingeki-no-kyojin-the-final-season-dublado-todos-os-episodios",
      "texto_original": "Shingeki no Kyojin: The Final Season (Dublado)",
      "rating": 9.14,
      "classificacao_etaria": "A16",
      "imagem_original": "https://animefire.plus/img/animes/shingeki-no-kyojin-the-final-season.webp",
      "imagem_pasta": "https://animefire.plus/img/animes/shingeki-no-kyojin-the-final-season/",
      "secao": "dublados,legendados",
      "pagina": 18,
      "total_episodios": 9,
      "link_video": "https://animefire.plus/video/shingeki-no-kyojin-the-final-season-dublado"
    },
    {
      "id": 3450,
      "nome": "Shingeki no Kyojin: The Final Season Part 2 (Dublado)",
      "link": "https://animefire.plus/animes/shingeki-no-kyojin-the-final-season-part-2-dublado-todos-os-episodios",
      "texto_original": "Shingeki no Kyojin: The Final Season Part 2 (Dublado)",
      "rating": 8.76,
      "classificacao_etaria": "A16",
      "imagem_original": "https://animefire.plus/img/animes/shingeki-no-kyojin-the-final-season-part-2.webp",
      "imagem_pasta": "https://animefire.plus/img/animes/shingeki-no-kyojin-the-final-season-part-2/",
      "secao": "dublados,legendados",
      "pagina": 12,
      "total_episodios": 12,
      "link_video": "https://animefire.plus/video/shingeki-no-kyojin-the-final-season-part-2-dublado"
    },
    {
      "id": 3452,
      "nome": "Shingetsutan Tsukihime (Dublado)",
      "link": "https://animefire.plus/animes/shingetsutan-tsukihime-dublado-todos-os-episodios",
      "texto_original": "Shingetsutan Tsukihime (Dublado)",
      "rating": 6.83,
      "classificacao_etaria": "A16",
      "imagem_original": "https://animefire.plus/img/animes/shingetsutan-tsukihime.webp",
      "imagem_pasta": "https://animefire.plus/img/animes/shingetsutan-tsukihime/",
      "secao": "dublados,legendados",
      "pagina": 8,
      "total_episodios": 12,
      "link_video": "https://animefire.plus/video/shingetsutan-tsukihime-dublado"
    },
    {
      "id": 3453,
      "nome": "Shinigami Bocchan to Kuro Maid (Dublado)",
      "link": "https://animefire.plus/animes/shinigami-bocchan-to-kuro-maid-dublado-todos-os-episodios",
      "texto_original": "Shinigami Bocchan to Kuro Maid (Dublado)",
      "rating": 7.59,
      "classificacao_etaria": "A14",
      "imagem_original": "https://animefire.plus/img/animes/shinigami-bocchan-to-kuro-maid.webp",
      "imagem_pasta": "https://animefire.plus/img/animes/shinigami-bocchan-to-kuro-maid/",
      "secao": "dublados,legendados",
      "pagina": 12,
      "total_episodios": 12,
      "link_video": "https://animefire.plus/video/shinigami-bocchan-to-kuro-maid-dublado"
    },
    {
      "id": 3454,
      "nome": "Shinigami Bocchan to Kuro Maid 2nd Season (Dublado)",
      "link": "https://animefire.plus/animes/shinigami-bocchan-to-kuro-maid-2nd-season-dublado-todos-os-episodios",
      "texto_original": "Shinigami Bocchan to Kuro Maid 2nd Season (Dublado)",
      "rating": 7.62,
      "classificacao_etaria": "A14",
      "imagem_original": "https://animefire.plus/img/animes/shinigami-bocchan-to-kuro-maid-2nd-season.webp",
      "imagem_pasta": "https://animefire.plus/img/animes/shinigami-bocchan-to-kuro-maid-2nd-season/",
      "secao": "dublados,legendados",
      "pagina": 4,
      "total_episodios": 12,
      "link_video": "https://animefire.plus/video/shinigami-bocchan-to-kuro-maid-2nd-season-dublado"
    },
    {
      "id": 3459,
      "nome": "Shinka no Mi: Shiranai Uchi ni Kachigumi Jinsei (Dublado)",
      "link": "https://animefire.plus/animes/shinka-no-mi-shiranai-uchi-ni-kachigumi-jinsei-dublado-todos-os-episodios",
      "texto_original": "Shinka no Mi: Shiranai Uchi ni Kachigumi Jinsei (Dublado)",
      "rating": 6.17,
      "classificacao_etaria": "A14",
      "imagem_original": "https://animefire.plus/img/animes/shinka-no-mi-shiranai-uchi-ni-kachigumi-jinsei.webp",
      "imagem_pasta": "https://animefire.plus/img/animes/shinka-no-mi-shiranai-uchi-ni-kachigumi-jinsei/",
      "secao": "dublados,legendados",
      "pagina": 14,
      "total_episodios": 12,
      "link_video": "https://animefire.plus/video/shinka-no-mi-shiranai-uchi-ni-kachigumi-jinsei-dublado"
    },
    {
      "id": 3469,
      "nome": "Shinobi no Ittoki (Dublado)",
      "link": "https://animefire.plus/animes/shinobi-no-ittoki-dublado-todos-os-episodios",
      "texto_original": "Shinobi no Ittoki (Dublado)",
      "rating": 6.06,
      "classificacao_etaria": "A14",
      "imagem_original": "https://animefire.plus/img/animes/shinobi-no-ittoki.webp",
      "imagem_pasta": "https://animefire.plus/img/animes/shinobi-no-ittoki/",
      "secao": "dublados,legendados",
      "pagina": 9,
      "total_episodios": 12,
      "link_video": "https://animefire.plus/video/shinobi-no-ittoki-dublado"
    }
  ],
  "pagination": {
    "current_page": 26,
    "per_page": 20,
    "total_items": 656,
    "total_pages": 33,
    "has_next": true,
    "has_prev": true
  }
}
