{
  "message": "Animes da seção: lancamentos",
  "section": "lancamentos",
  "data": [
    {
      "id": 9,
      "nome": "\"Oshi no Ko\" Season 2",
      "link": "https://animefire.plus/animes/oshi-no-ko-season-2-todos-os-episodios",
      "texto_original": "\"Oshi no Ko\" Season 2",
      "rating": null,
      "classificacao_etaria": "A14",
      "imagem_original": "https://animefire.plus/img/animes/oshi-no-ko-season-2.webp",
      "imagem_pasta": "https://animefire.plus/img/animes/oshi-no-ko-season-2/",
      "secao": "legendados,lancamentos",
      "pagina": 19,
      "total_episodios": 0,
      "link_video": "https://animefire.plus/video/oshi-no-ko-season-2"
    },
    {
      "id": 21,
      "nome": "180 Byou de Kimi no Mimi wo Shiawase ni Dekiru ka?",
      "link": "https://animefire.plus/animes/180-byou-de-kimi-no-mimi-wo-shiawase-ni-dekiru-ka-todos-os-episodios",
      "texto_original": "180 Byou de Kimi no Mimi wo Shiawase ni Dekiru ka?",
      "rating": 5.3,
      "classificacao_etaria": "A14",
      "imagem_original": "https://animefire.plus/img/animes/180-byou-de-kimi-no-mimi-wo-shiawase-ni-dekiru-ka.webp",
      "imagem_pasta": "https://animefire.plus/img/animes/180-byou-de-kimi-no-mimi-wo-shiawase-ni-dekiru-ka/",
      "secao": "legendados,lancamentos",
      "pagina": 38,
      "total_episodios": 6,
      "link_video": "https://animefire.plus/video/180-byou-de-kimi-no-mimi-wo-shiawase-ni-dekiru-ka"
    },
    {
      "id": 43,
      "nome": "9: Ruler's Crown",
      "link": "https://animefire.plus/animes/9-ruler-s-crown-todos-os-episodios",
      "texto_original": "9: Ruler's Crown",
      "rating": 5.92,
      "classificacao_etaria": "A14",
      "imagem_original": "https://animefire.plus/img/animes/9-ruler-s-crown.webp",
      "imagem_pasta": "https://animefire.plus/img/animes/9-ruler-s-crown/",
      "secao": "legendados,lancamentos",
      "pagina": 1,
      "total_episodios": 1,
      "link_video": "https://animefire.plus/video/9-ruler-s-crown"
    },
    {
      "id": 154,
      "nome": "Amagami-san Chi no Enmusubi (Dublado)",
      "link": "https://animefire.plus/animes/amagami-san-chi-no-enmusubi-dublado-todos-os-episodios",
      "texto_original": "Amagami-san Chi no Enmusubi (Dublado)",
      "rating": 7.55,
      "classificacao_etaria": "A14",
      "imagem_original": "https://animefire.plus/img/animes/amagami-san-chi-no-enmusubi.webp",
      "imagem_pasta": "https://animefire.plus/img/animes/amagami-san-chi-no-enmusubi/",
      "secao": "dublados,legendados,lancamentos",
      "pagina": 2,
      "total_episodios": 24,
      "link_video": "https://animefire.plus/video/amagami-san-chi-no-enmusubi-dublado"
    },
    {
      "id": 159,
      "nome": "Ame to Kimi to",
      "link": "https://animefire.plus/animes/ame-to-kimi-to-todos-os-episodios",
      "texto_original": "Ame to Kimi to",
      "rating": 7.45,
      "classificacao_etaria": "A14",
      "imagem_original": "https://animefire.plus/img/animes/ame-to-kimi-to.webp",
      "imagem_pasta": "https://animefire.plus/img/animes/ame-to-kimi-to/",
      "secao": "legendados,lancamentos",
      "pagina": 2,
      "total_episodios": 5,
      "link_video": "https://animefire.plus/video/ame-to-kimi-to"
    },
    {
      "id": 175,
      "nome": "Ani ni Tsukeru Kusuri wa Nai! 5",
      "link": "https://animefire.plus/animes/ani-ni-tsukeru-kusuri-wa-nai-5-todos-os-episodios",
      "texto_original": "Ani ni Tsukeru Kusuri wa Nai! 5",
      "rating": 7.34,
      "classificacao_etaria": "A14",
      "imagem_original": "https://animefire.plus/img/animes/ani-ni-tsukeru-kusuri-wa-nai-5.webp",
      "imagem_pasta": "https://animefire.plus/img/animes/ani-ni-tsukeru-kusuri-wa-nai-5/",
      "secao": "legendados,lancamentos",
      "pagina": 30,
      "total_episodios": 2,
      "link_video": "https://animefire.plus/video/ani-ni-tsukeru-kusuri-wa-nai-5"
    },
    {
      "id": 183,
      "nome": "Anne Shirley",
      "link": "https://animefire.plus/animes/anne-shirley-todos-os-episodios",
      "texto_original": "Anne Shirley",
      "rating": 7.78,
      "classificacao_etaria": "A14",
      "imagem_original": "https://animefire.plus/img/animes/anne-shirley.webp",
      "imagem_pasta": "https://animefire.plus/img/animes/anne-shirley/",
      "secao": "legendados,lancamentos",
      "pagina": 5,
      "total_episodios": 18,
      "link_video": "https://animefire.plus/video/anne-shirley"
    },
    {
      "id": 219,
      "nome": "Araiguma Calcal-dan",
      "link": "https://animefire.plus/animes/araiguma-calcal-dan-todos-os-episodios",
      "texto_original": "Araiguma Calcal-dan",
      "rating": null,
      "classificacao_etaria": null,
      "imagem_original": "https://animefire.plus/img/animes/araiguma-calcal-dan.webp",
      "imagem_pasta": "https://animefire.plus/img/animes/araiguma-calcal-dan/",
      "secao": "legendados,lancamentos",
      "pagina": 4,
      "total_episodios": 0,
      "link_video": "https://animefire.plus/video/araiguma-calcal-dan"
    },
    {
      "id": 237,
      "nome": "Arifureta Shokugyou de Sekai Saikyou Season 3 (Dublado)",
      "link": "https://animefire.plus/animes/arifureta-shokugyou-de-sekai-saikyou-season-3-dublado-todos-os-episodios",
      "texto_original": "Arifureta Shokugyou de Sekai Saikyou Season 3 (Dublado)",
      "rating": 7.02,
      "classificacao_etaria": "A16",
      "imagem_original": "https://animefire.plus/img/animes/arifureta-shokugyou-de-sekai-saikyou-season-3.webp",
      "imagem_pasta": "https://animefire.plus/img/animes/arifureta-shokugyou-de-sekai-saikyou-season-3/",
      "secao": "dublados,legendados,lancamentos",
      "pagina": 2,
      "total_episodios": 16,
      "link_video": "https://animefire.plus/video/arifureta-shokugyou-de-sekai-saikyou-season-3-dublado"
    },
    {
      "id": 241,
      "nome": "Arknights: Rise from Ember",
      "link": "https://animefire.plus/animes/arknights-rise-from-ember-todos-os-episodios",
      "texto_original": "Arknights: Rise from Ember",
      "rating": 7.7,
      "classificacao_etaria": "A14",
      "imagem_original": "https://animefire.plus/img/animes/arknights-rise-from-ember.webp",
      "imagem_pasta": "https://animefire.plus/img/animes/arknights-rise-from-ember/",
      "secao": "legendados,lancamentos",
      "pagina": 2,
      "total_episodios": 4,
      "link_video": "https://animefire.plus/video/arknights-rise-from-ember"
    },
    {
      "id": 242,
      "nome": "Arknights: Touin Kiro",
      "link": "https://animefire.plus/animes/arknights-touin-kiro-todos-os-episodios",
      "texto_original": "Arknights: Touin Kiro",
      "rating": 7.58,
      "classificacao_etaria": "A14",
      "imagem_original": "https://animefire.plus/img/animes/arknights-touin-kiro.webp",
      "imagem_pasta": "https://animefire.plus/img/animes/arknights-touin-kiro/",
      "secao": "legendados,lancamentos",
      "pagina": 19,
      "total_episodios": 3,
      "link_video": "https://animefire.plus/video/arknights-touin-kiro"
    },
    {
      "id": 249,
      "nome": "Aru Asa Dummy Head Mic ni Natteita Ore-kun no Jinsei",
      "link": "https://animefire.plus/animes/aru-asa-dummy-head-mic-ni-natteita-ore-kun-no-jinsei-todos-os-episodios",
      "texto_original": "Aru Asa Dummy Head Mic ni Natteita Ore-kun no Jinsei",
      "rating": 5,
      "classificacao_etaria": "A14",
      "imagem_original": "https://animefire.plus/img/animes/aru-asa-dummy-head-mic-ni-natteita-ore-kun-no-jinsei.webp",
      "imagem_pasta": "https://animefire.plus/img/animes/aru-asa-dummy-head-mic-ni-natteita-ore-kun-no-jinsei/",
      "secao": "legendados,lancamentos",
      "pagina": 28,
      "total_episodios": 2,
      "link_video": "https://animefire.plus/video/aru-asa-dummy-head-mic-ni-natteita-ore-kun-no-jinsei"
    },
    {
      "id": 255,
      "nome": "Asateer: Mirai no Mukashi Banashi",
      "link": "https://animefire.plus/animes/asateer-mirai-no-mukashi-banashi-todos-os-episodios",
      "texto_original": "Asateer: Mirai no Mukashi Banashi",
      "rating": 5.89,
      "classificacao_etaria": "A10",
      "imagem_original": "https://animefire.plus/img/animes/asateer-mirai-no-mukashi-banashi.webp",
      "imagem_pasta": "https://animefire.plus/img/animes/asateer-mirai-no-mukashi-banashi/",
      "secao": "legendados,lancamentos",
      "pagina": 81,
      "total_episodios": 0,
      "link_video": "https://animefire.plus/video/asateer-mirai-no-mukashi-banashi"
    },
    {
      "id": 257,
      "nome": "Asatir: Mirai No Mukashi Banashi",
      "link": "https://animefire.plus/animes/asatir-mirai-no-mukashi-banashi-todos-os-episodios",
      "texto_original": "Asatir: Mirai No Mukashi Banashi",
      "rating": 5.89,
      "classificacao_etaria": "A10",
      "imagem_original": "https://animefire.plus/img/animes/asatir-mirai-no-mukashi-banashi.webp",
      "imagem_pasta": "https://animefire.plus/img/animes/asatir-mirai-no-mukashi-banashi/",
      "secao": "legendados,lancamentos",
      "pagina": 60,
      "total_episodios": 1,
      "link_video": "https://animefire.plus/video/asatir-mirai-no-mukashi-banashi"
    },
    {
      "id": 273,
      "nome": "Atasha Kawajiri Kodama Da yo: Dangerous Lifehacker no Tadareta Seikatsu",
      "link": "https://animefire.plus/animes/atasha-kawajiri-kodama-da-yo-dangerous-lifehacker-no-tadareta-seikatsu-todos-os-episodios",
      "texto_original": "Atasha Kawajiri Kodama Da yo: Dangerous Lifehacker no Tadareta Seikatsu",
      "rating": 5.72,
      "classificacao_etaria": "A14",
      "imagem_original": "https://animefire.plus/img/animes/atasha-kawajiri-kodama-da-yo-dangerous-lifehacker-no-tadareta-seikatsu.webp",
      "imagem_pasta": "https://animefire.plus/img/animes/atasha-kawajiri-kodama-da-yo-dangerous-lifehacker-no-tadareta-seikatsu/",
      "secao": "legendados,lancamentos",
      "pagina": 35,
      "total_episodios": 11,
      "link_video": "https://animefire.plus/video/atasha-kawajiri-kodama-da-yo-dangerous-lifehacker-no-tadareta-seikatsu"
    },
    {
      "id": 304,
      "nome": "Bad Girl",
      "link": "https://animefire.plus/animes/bad-girl-todos-os-episodios",
      "texto_original": "Bad Girl",
      "rating": 6.8,
      "classificacao_etaria": null,
      "imagem_original": "https://animefire.plus/img/animes/bad-girl.webp",
      "imagem_pasta": "https://animefire.plus/img/animes/bad-girl/",
      "secao": "legendados,lancamentos",
      "pagina": 2,
      "total_episodios": 5,
      "link_video": "https://animefire.plus/video/bad-girl"
    },
    {
      "id": 338,
      "nome": "BanG Dream! Garupa☆Pico: Oomori",
      "link": "https://animefire.plus/animes/bang-dream-garupa-pico-oomori-todos-os-episodios",
      "texto_original": "BanG Dream! Garupa☆Pico: Oomori",
      "rating": 7.63,
      "classificacao_etaria": "A14",
      "imagem_original": "https://animefire.plus/img/animes/bang-dream-garupa-pico-oomori.webp",
      "imagem_pasta": "https://animefire.plus/img/animes/bang-dream-garupa-pico-oomori/",
      "secao": "legendados,lancamentos",
      "pagina": 79,
      "total_episodios": 1,
      "link_video": "https://animefire.plus/video/bang-dream-garupa-pico-oomori"
    },
    {
      "id": 365,
      "nome": "Beastars Final Season",
      "link": "https://animefire.plus/animes/beastars-final-season-todos-os-episodios",
      "texto_original": "Beastars Final Season",
      "rating": null,
      "classificacao_etaria": "A16",
      "imagem_original": "https://animefire.plus/img/animes/beastars-final-season.webp",
      "imagem_pasta": "https://animefire.plus/img/animes/beastars-final-season/",
      "secao": "legendados,lancamentos",
      "pagina": 9,
      "total_episodios": 0,
      "link_video": "https://animefire.plus/video/beastars-final-season"
    },
    {
      "id": 380,
      "nome": "Beyblade Burst Dynamite Battle",
      "link": "https://animefire.plus/animes/beyblade-burst-dynamite-battle-todos-os-episodios",
      "texto_original": "Beyblade Burst Dynamite Battle",
      "rating": 6.23,
      "classificacao_etaria": null,
      "imagem_original": "https://animefire.plus/img/animes/beyblade-burst-dynamite-battle.webp",
      "imagem_pasta": "https://animefire.plus/img/animes/beyblade-burst-dynamite-battle/",
      "secao": "legendados,lancamentos",
      "pagina": 45,
      "total_episodios": 1,
      "link_video": "https://animefire.plus/video/beyblade-burst-dynamite-battle"
    },
    {
      "id": 387,
      "nome": "Binan Koukou Chikyuu Bouei-bu Haikara!",
      "link": "https://animefire.plus/animes/binan-koukou-chikyuu-bouei-bu-haikara-todos-os-episodios",
      "texto_original": "Binan Koukou Chikyuu Bouei-bu Haikara!",
      "rating": null,
      "classificacao_etaria": "A14",
      "imagem_original": "https://animefire.plus/img/animes/binan-koukou-chikyuu-bouei-bu-haikara.webp",
      "imagem_pasta": "https://animefire.plus/img/animes/binan-koukou-chikyuu-bouei-bu-haikara/",
      "secao": "legendados,lancamentos",
      "pagina": 1,
      "total_episodios": 0,
      "link_video": "https://animefire.plus/video/binan-koukou-chikyuu-bouei-bu-haikara"
    }
  ],
  "pagination": {
    "current_page": 1,
    "per_page": 20,
    "total_items": 285,
    "total_pages": 15,
    "has_next": true,
    "has_prev": false
  }
}
