{
  "message": "Animes da seção: lancamentos",
  "section": "lancamentos",
  "data": [
    {
      "id": 1352,
      "nome": "Hananoi-kun to Koi no Yamai (Dublado)",
      "link": "https://animefire.plus/animes/hananoi-kun-to-koi-no-yamai-dublado-todos-os-episodios",
      "texto_original": "Hananoi-kun to Koi no Yamai (Dublado)",
      "rating": 6.75,
      "classificacao_etaria": "A14",
      "imagem_original": "https://animefire.plus/img/animes/hananoi-kun-to-koi-no-yamai.webp",
      "imagem_pasta": "https://animefire.plus/img/animes/hananoi-kun-to-koi-no-yamai/",
      "secao": "dublados,legendados,lancamentos",
      "pagina": 2,
      "total_episodios": 12,
      "link_video": "https://animefire.plus/video/hananoi-kun-to-koi-no-yamai-dublado"
    },
    {
      "id": 1372,
      "nome": "Hanyou no Yashahime: Sengoku Otogizoushi (Dublado)",
      "link": "https://animefire.plus/animes/hanyou-no-yashahime-sengoku-otogizoushi-dublado-todos-os-episodios",
      "texto_original": "Hanyou no Yashahime: Sengoku Otogizoushi (Dublado)",
      "rating": 7.36,
      "classificacao_etaria": "A14",
      "imagem_original": "https://animefire.plus/img/animes/hanyou-no-yashahime-sengoku-otogizoushi.webp",
      "imagem_pasta": "https://animefire.plus/img/animes/hanyou-no-yashahime-sengoku-otogizoushi/",
      "secao": "dublados,legendados,lancamentos",
      "pagina": 19,
      "total_episodios": 24,
      "link_video": "https://animefire.plus/video/hanyou-no-yashahime-sengoku-otogizoushi-dublado"
    },
    {
      "id": 1404,
      "nome": "Healin' Good♡Precure",
      "link": "https://animefire.plus/animes/healin-good-precure-todos-os-episodios",
      "texto_original": "Healin' Good♡Precure",
      "rating": 6.83,
      "classificacao_etaria": null,
      "imagem_original": "https://animefire.plus/img/animes/healin-good-precure.webp",
      "imagem_pasta": "https://animefire.plus/img/animes/healin-good-precure/",
      "secao": "legendados,lancamentos",
      "pagina": 91,
      "total_episodios": 0,
      "link_video": "https://animefire.plus/video/healin-good-precure"
    },
    {
      "id": 1479,
      "nome": "Hikaru ga Shinda Natsu",
      "link": "https://animefire.plus/animes/hikaru-ga-shinda-natsu-todos-os-episodios",
      "texto_original": "Hikaru ga Shinda Natsu",
      "rating": 8.18,
      "classificacao_etaria": "A16",
      "imagem_original": "https://animefire.plus/img/animes/hikaru-ga-shinda-natsu.webp",
      "imagem_pasta": "https://animefire.plus/img/animes/hikaru-ga-shinda-natsu/",
      "secao": "legendados,lancamentos",
      "pagina": 3,
      "total_episodios": 5,
      "link_video": "https://animefire.plus/video/hikaru-ga-shinda-natsu"
    },
    {
      "id": 1486,
      "nome": "Himitsu no AiPri: Ring-hen",
      "link": "https://animefire.plus/animes/himitsu-no-aipri-ring-hen-todos-os-episodios",
      "texto_original": "Himitsu no AiPri: Ring-hen",
      "rating": null,
      "classificacao_etaria": "A10",
      "imagem_original": "https://animefire.plus/img/animes/himitsu-no-aipri-ring-hen.webp",
      "imagem_pasta": "https://animefire.plus/img/animes/himitsu-no-aipri-ring-hen/",
      "secao": "legendados,lancamentos",
      "pagina": 4,
      "total_episodios": 0,
      "link_video": "https://animefire.plus/video/himitsu-no-aipri-ring-hen"
    },
    {
      "id": 1487,
      "nome": "Himitsukessha Taka no Tsume: Golden Spell",
      "link": "https://animefire.plus/animes/himitsukessha-taka-no-tsume-golden-spell-todos-os-episodios",
      "texto_original": "Himitsukessha Taka no Tsume: Golden Spell",
      "rating": 5.71,
      "classificacao_etaria": null,
      "imagem_original": "https://animefire.plus/img/animes/himitsukessha-taka-no-tsume-golden-spell.webp",
      "imagem_pasta": "https://animefire.plus/img/animes/himitsukessha-taka-no-tsume-golden-spell/",
      "secao": "legendados,lancamentos",
      "pagina": 50,
      "total_episodios": 3,
      "link_video": "https://animefire.plus/video/himitsukessha-taka-no-tsume-golden-spell"
    },
    {
      "id": 1509,
      "nome": "Hitozuma no Kuchibiru wa Kan Chuuhai no Aji ga Shite",
      "link": "https://animefire.plus/animes/hitozuma-no-kuchibiru-wa-kan-chuuhai-no-aji-ga-shite-todos-os-episodios",
      "texto_original": "Hitozuma no Kuchibiru wa Kan Chuuhai no Aji ga Shite",
      "rating": 5.8,
      "classificacao_etaria": "A18",
      "imagem_original": "https://animefire.plus/img/animes/hitozuma-no-kuchibiru-wa-kan-chuuhai-no-aji-ga-shite.webp",
      "imagem_pasta": "https://animefire.plus/img/animes/hitozuma-no-kuchibiru-wa-kan-chuuhai-no-aji-ga-shite/",
      "secao": "legendados,lancamentos",
      "pagina": 3,
      "total_episodios": 0,
      "link_video": "https://animefire.plus/video/hitozuma-no-kuchibiru-wa-kan-chuuhai-no-aji-ga-shite"
    },
    {
      "id": 1531,
      "nome": "Hoshifuru Oukoku no Nina (Dublado)",
      "link": "https://animefire.plus/animes/hoshifuru-oukoku-no-nina-dublado-todos-os-episodios",
      "texto_original": "Hoshifuru Oukoku no Nina (Dublado)",
      "rating": 7.38,
      "classificacao_etaria": "A14",
      "imagem_original": "https://animefire.plus/img/animes/hoshifuru-oukoku-no-nina.webp",
      "imagem_pasta": "https://animefire.plus/img/animes/hoshifuru-oukoku-no-nina/",
      "secao": "dublados,legendados,lancamentos",
      "pagina": 2,
      "total_episodios": 12,
      "link_video": "https://animefire.plus/video/hoshifuru-oukoku-no-nina-dublado"
    },
    {
      "id": 1537,
      "nome": "Hotel Inhumans",
      "link": "https://animefire.plus/animes/hotel-inhumans-todos-os-episodios",
      "texto_original": "Hotel Inhumans",
      "rating": 6.54,
      "classificacao_etaria": "A14",
      "imagem_original": "https://animefire.plus/img/animes/hotel-inhumans.webp",
      "imagem_pasta": "https://animefire.plus/img/animes/hotel-inhumans/",
      "secao": "legendados,lancamentos",
      "pagina": 1,
      "total_episodios": 5,
      "link_video": "https://animefire.plus/video/hotel-inhumans"
    },
    {
      "id": 1571,
      "nome": "Hypnosis Mic: Division Rap Battle - Rhyme Anima +",
      "link": "https://animefire.plus/animes/hypmic-2nd-season-todos-os-episodios",
      "texto_original": "Hypnosis Mic: Division Rap Battle - Rhyme Anima +",
      "rating": 6.86,
      "classificacao_etaria": "A16",
      "imagem_original": "https://animefire.plus/img/animes/hypmic-2nd-season.webp",
      "imagem_pasta": "https://animefire.plus/img/animes/hypmic-2nd-season/",
      "secao": "legendados,lancamentos",
      "pagina": 19,
      "total_episodios": 1,
      "link_video": "https://animefire.plus/video/hypmic-2nd-season"
    },
    {
      "id": 1586,
      "nome": "Idol Land PriPara",
      "link": "https://animefire.plus/animes/idol-land-pripara-todos-os-episodios",
      "texto_original": "Idol Land PriPara",
      "rating": 7.41,
      "classificacao_etaria": "A14",
      "imagem_original": "https://animefire.plus/img/animes/idol-land-pripara.webp",
      "imagem_pasta": "https://animefire.plus/img/animes/idol-land-pripara/",
      "secao": "legendados,lancamentos",
      "pagina": 35,
      "total_episodios": 0,
      "link_video": "https://animefire.plus/video/idol-land-pripara"
    },
    {
      "id": 1592,
      "nome": "IDOLiSH7: Third Beat! Part 2",
      "link": "https://animefire.plus/animes/idolish7-third-beat-part-2-todos-os-episodios",
      "texto_original": "IDOLiSH7: Third Beat! Part 2",
      "rating": 8.34,
      "classificacao_etaria": "A14",
      "imagem_original": "https://animefire.plus/img/animes/idolish7-third-beat-part-2.webp",
      "imagem_pasta": "https://animefire.plus/img/animes/idolish7-third-beat-part-2/",
      "secao": "legendados,lancamentos",
      "pagina": 28,
      "total_episodios": 6,
      "link_video": "https://animefire.plus/video/idolish7-third-beat-part-2"
    },
    {
      "id": 1599,
      "nome": "Ijiranaide, Nagatoro-san 2nd Attack (Dublado)",
      "link": "https://animefire.plus/animes/ijiranaide-nagatoro-san-2nd-attack-dublado-todos-os-episodios",
      "texto_original": "Ijiranaide, Nagatoro-san 2nd Attack (Dublado)",
      "rating": 7.45,
      "classificacao_etaria": "A14",
      "imagem_original": "https://animefire.plus/img/animes/ijiranaide-nagatoro-san-2nd-attack.webp",
      "imagem_pasta": "https://animefire.plus/img/animes/ijiranaide-nagatoro-san-2nd-attack/",
      "secao": "dublados,legendados,lancamentos",
      "pagina": 8,
      "total_episodios": 12,
      "link_video": "https://animefire.plus/video/ijiranaide-nagatoro-san-2nd-attack-dublado"
    },
    {
      "id": 1635,
      "nome": "Inu ni Nattara Suki na Hito ni Hirowareta.",
      "link": "https://animefire.plus/animes/inu-ni-nattara-suki-na-hito-ni-hirowareta-todos-os-episodios",
      "texto_original": "Inu ni Nattara Suki na Hito ni Hirowareta.",
      "rating": 5.04,
      "classificacao_etaria": "A18",
      "imagem_original": "https://animefire.plus/img/animes/inu-ni-nattara-suki-na-hito-ni-hirowareta.webp",
      "imagem_pasta": "https://animefire.plus/img/animes/inu-ni-nattara-suki-na-hito-ni-hirowareta/",
      "secao": "legendados,lancamentos",
      "pagina": 27,
      "total_episodios": 14,
      "link_video": "https://animefire.plus/video/inu-ni-nattara-suki-na-hito-ni-hirowareta"
    },
    {
      "id": 1638,
      "nome": "Inu to Neko Docchi mo Katteru to Mainichi Tanoshii",
      "link": "https://animefire.plus/animes/inu-to-neko-docchi-mo-katteru-to-mainichi-tanoshii-todos-os-episodios",
      "texto_original": "Inu to Neko Docchi mo Katteru to Mainichi Tanoshii",
      "rating": null,
      "classificacao_etaria": null,
      "imagem_original": "https://animefire.plus/img/animes/inu-to-neko-docchi-mo-katteru-to-mainichi-tanoshii.webp",
      "imagem_pasta": "https://animefire.plus/img/animes/inu-to-neko-docchi-mo-katteru-to-mainichi-tanoshii/",
      "secao": "legendados,lancamentos",
      "pagina": 52,
      "total_episodios": 12,
      "link_video": "https://animefire.plus/video/inu-to-neko-docchi-mo-katteru-to-mainichi-tanoshii"
    },
    {
      "id": 1660,
      "nome": "Isekai Mokushiroku Mynoghra: Hametsu no Bunmei de Hajimeru Sekai Seifuku",
      "link": "https://animefire.plus/animes/isekai-mokushiroku-mynoghra-hametsu-no-bunmei-de-hajimeru-sekai-seifuku-todos-os-episodios",
      "texto_original": "Isekai Mokushiroku Mynoghra: Hametsu no Bunmei de Hajimeru Sekai Seifuku",
      "rating": 7,
      "classificacao_etaria": "A14",
      "imagem_original": "https://animefire.plus/img/animes/isekai-mokushiroku-mynoghra-hametsu-no-bunmei-de-hajimeru-sekai-seifuku.webp",
      "imagem_pasta": "https://animefire.plus/img/animes/isekai-mokushiroku-mynoghra-hametsu-no-bunmei-de-hajimeru-sekai-seifuku/",
      "secao": "legendados,lancamentos",
      "pagina": 3,
      "total_episodios": 5,
      "link_video": "https://animefire.plus/video/isekai-mokushiroku-mynoghra-hametsu-no-bunmei-de-hajimeru-sekai-seifuku"
    },
    {
      "id": 1663,
      "nome": "Isekai Ojisan",
      "link": "https://animefire.plus/animes/isekai-ojisan-todos-os-episodios",
      "texto_original": "Isekai Ojisan",
      "rating": 7.76,
      "classificacao_etaria": "A14",
      "imagem_original": "https://animefire.plus/img/animes/isekai-ojisan.webp",
      "imagem_pasta": "https://animefire.plus/img/animes/isekai-ojisan/",
      "secao": "legendados,lancamentos",
      "pagina": 31,
      "total_episodios": 12,
      "link_video": "https://animefire.plus/video/isekai-ojisan"
    },
    {
      "id": 1702,
      "nome": "Izure Saikyou no Renkinjutsushi? (Dublado)",
      "link": "https://animefire.plus/animes/izure-saikyou-no-renkinjutsushi-dublado-todos-os-episodios",
      "texto_original": "Izure Saikyou no Renkinjutsushi? (Dublado)",
      "rating": 6.61,
      "classificacao_etaria": "A14",
      "imagem_original": "https://animefire.plus/img/animes/izure-saikyou-no-renkinjutsushi.webp",
      "imagem_pasta": "https://animefire.plus/img/animes/izure-saikyou-no-renkinjutsushi/",
      "secao": "dublados,legendados,lancamentos",
      "pagina": 1,
      "total_episodios": 12,
      "link_video": "https://animefire.plus/video/izure-saikyou-no-renkinjutsushi-dublado"
    },
    {
      "id": 1706,
      "nome": "Jantama Pong☆",
      "link": "https://animefire.plus/animes/jantama-pong-todos-os-episodios",
      "texto_original": "Jantama Pong☆",
      "rating": 6.08,
      "classificacao_etaria": "A14",
      "imagem_original": "https://animefire.plus/img/animes/jantama-pong.webp",
      "imagem_pasta": "https://animefire.plus/img/animes/jantama-pong/",
      "secao": "legendados,lancamentos",
      "pagina": 33,
      "total_episodios": 0,
      "link_video": "https://animefire.plus/video/jantama-pong"
    },
    {
      "id": 1715,
      "nome": "Jibaku Shounen Hanako-kun 2 Part 2",
      "link": "https://animefire.plus/animes/jibaku-shounen-hanako-kun-2-part-2-todos-os-episodios",
      "texto_original": "Jibaku Shounen Hanako-kun 2 Part 2",
      "rating": 7.92,
      "classificacao_etaria": "A14",
      "imagem_original": "https://animefire.plus/img/animes/jibaku-shounen-hanako-kun-2-part-2.webp",
      "imagem_pasta": "https://animefire.plus/img/animes/jibaku-shounen-hanako-kun-2-part-2/",
      "secao": "legendados,lancamentos",
      "pagina": 2,
      "total_episodios": 5,
      "link_video": "https://animefire.plus/video/jibaku-shounen-hanako-kun-2-part-2"
    }
  ],
  "pagination": {
    "current_page": 5,
    "per_page": 20,
    "total_items": 285,
    "total_pages": 15,
    "has_next": true,
    "has_prev": true
  }
}
