{
  "message": "Animes da seção: lancamentos",
  "section": "lancamentos",
  "data": [
    {
      "id": 439,
      "nome": "Blue Lock (Dublado)",
      "link": "https://animefire.plus/animes/blue-lock-dublado-todos-os-episodios",
      "texto_original": "Blue Lock (Dublado)",
      "rating": 8.17,
      "classificacao_etaria": "A14",
      "imagem_original": "https://animefire.plus/img/animes/blue-lock.webp",
      "imagem_pasta": "https://animefire.plus/img/animes/blue-lock/",
      "secao": "dublados,legendados,lancamentos",
      "pagina": 8,
      "total_episodios": 24,
      "link_video": "https://animefire.plus/video/blue-lock-dublado"
    },
    {
      "id": 440,
      "nome": "Blue Lock vs. U-20 Japan (Dublado)",
      "link": "https://animefire.plus/animes/blue-lock-vs-u-20-japan-dublado-todos-os-episodios",
      "texto_original": "Blue Lock vs. U-20 Japan (Dublado)",
      "rating": 7.55,
      "classificacao_etaria": "A14",
      "imagem_original": "https://animefire.plus/img/animes/blue-lock-vs-u-20-japan.webp",
      "imagem_pasta": "https://animefire.plus/img/animes/blue-lock-vs-u-20-japan/",
      "secao": "dublados,legendados,lancamentos",
      "pagina": 2,
      "total_episodios": 14,
      "link_video": "https://animefire.plus/video/blue-lock-vs-u-20-japan-dublado"
    },
    {
      "id": 457,
      "nome": "Boku no Hero Academia 6th Season (Dublado)",
      "link": "https://animefire.plus/animes/boku-no-hero-academia-6th-season-dublado-todos-os-episodios",
      "texto_original": "Boku no Hero Academia 6th Season (Dublado)",
      "rating": 8.23,
      "classificacao_etaria": "A14",
      "imagem_original": "https://animefire.plus/img/animes/boku-no-hero-academia-6th-season.webp",
      "imagem_pasta": "https://animefire.plus/img/animes/boku-no-hero-academia-6th-season/",
      "secao": "dublados,legendados,lancamentos",
      "pagina": 9,
      "total_episodios": 25,
      "link_video": "https://animefire.plus/video/boku-no-hero-academia-6th-season-dublado"
    },
    {
      "id": 467,
      "nome": "Boku to Roboko",
      "link": "https://animefire.plus/animes/boku-to-roboko-todos-os-episodios",
      "texto_original": "Boku to Roboko",
      "rating": 6.83,
      "classificacao_etaria": "A14",
      "imagem_original": "https://animefire.plus/img/animes/boku-to-roboko.webp",
      "imagem_pasta": "https://animefire.plus/img/animes/boku-to-roboko/",
      "secao": "legendados,lancamentos",
      "pagina": 26,
      "total_episodios": 1,
      "link_video": "https://animefire.plus/video/boku-to-roboko"
    },
    {
      "id": 483,
      "nome": "Boruto: Naruto Next Generations (Dublado)",
      "link": "https://animefire.plus/animes/boruto-naruto-next-generations-dublado-todos-os-episodios",
      "texto_original": "Boruto: Naruto Next Generations (Dublado)",
      "rating": 5.9,
      "classificacao_etaria": "A14",
      "imagem_original": "https://animefire.plus/img/animes/boruto-naruto-next-generations.webp",
      "imagem_pasta": "https://animefire.plus/img/animes/boruto-naruto-next-generations/",
      "secao": "dublados,legendados,lancamentos",
      "pagina": 13,
      "total_episodios": 104,
      "link_video": "https://animefire.plus/video/boruto-naruto-next-generations-dublado"
    },
    {
      "id": 516,
      "nome": "Build Divide: Code White",
      "link": "https://animefire.plus/animes/build-divide-code-white-todos-os-episodios",
      "texto_original": "Build Divide: Code White",
      "rating": 6.64,
      "classificacao_etaria": "A14",
      "imagem_original": "https://animefire.plus/img/animes/build-divide-code-white.webp",
      "imagem_pasta": "https://animefire.plus/img/animes/build-divide-code-white/",
      "secao": "legendados,lancamentos",
      "pagina": 34,
      "total_episodios": 3,
      "link_video": "https://animefire.plus/video/build-divide-code-white"
    },
    {
      "id": 521,
      "nome": "Bungou Stray Dogs 4th Season",
      "link": "https://animefire.plus/animes/bungou-stray-dogs-4th-season-todos-os-episodios",
      "texto_original": "Bungou Stray Dogs 4th Season",
      "rating": 8.43,
      "classificacao_etaria": "A16",
      "imagem_original": "https://animefire.plus/img/animes/bungou-stray-dogs-4th-season.webp",
      "imagem_pasta": "https://animefire.plus/img/animes/bungou-stray-dogs-4th-season/",
      "secao": "legendados,lancamentos",
      "pagina": 27,
      "total_episodios": 14,
      "link_video": "https://animefire.plus/video/bungou-stray-dogs-4th-season"
    },
    {
      "id": 522,
      "nome": "Bungou Stray Dogs 4th Season (Dublado)",
      "link": "https://animefire.plus/animes/bungou-stray-dogs-4-dublado-todos-os-episodios",
      "texto_original": "Bungou Stray Dogs 4th Season (Dublado)",
      "rating": 8.43,
      "classificacao_etaria": "A16",
      "imagem_original": "https://animefire.plus/img/animes/bungou-stray-dogs-4.webp",
      "imagem_pasta": "https://animefire.plus/img/animes/bungou-stray-dogs-4/",
      "secao": "dublados,lancamentos",
      "pagina": 7,
      "total_episodios": 0,
      "link_video": "https://animefire.plus/video/bungou-stray-dogs-4-dublado"
    },
    {
      "id": 533,
      "nome": "Busamen Gachi Fighter",
      "link": "https://animefire.plus/animes/busamen-gachi-fighter-todos-os-episodios",
      "texto_original": "Busamen Gachi Fighter",
      "rating": 6.5,
      "classificacao_etaria": "A14",
      "imagem_original": "https://animefire.plus/img/animes/busamen-gachi-fighter.webp",
      "imagem_pasta": "https://animefire.plus/img/animes/busamen-gachi-fighter/",
      "secao": "legendados,lancamentos",
      "pagina": 2,
      "total_episodios": 5,
      "link_video": "https://animefire.plus/video/busamen-gachi-fighter"
    },
    {
      "id": 537,
      "nome": "Busu ni Hanataba wo.",
      "link": "https://animefire.plus/animes/busu-ni-hanataba-wo-todos-os-episodios",
      "texto_original": "Busu ni Hanataba wo.",
      "rating": 6.69,
      "classificacao_etaria": "A14",
      "imagem_original": "https://animefire.plus/img/animes/busu-ni-hanataba-wo.webp",
      "imagem_pasta": "https://animefire.plus/img/animes/busu-ni-hanataba-wo/",
      "secao": "legendados,lancamentos",
      "pagina": 2,
      "total_episodios": 1,
      "link_video": "https://animefire.plus/video/busu-ni-hanataba-wo"
    },
    {
      "id": 569,
      "nome": "Cardfight!! Vanguard Gaiden: If",
      "link": "https://animefire.plus/animes/cardfight-vanguard-gaiden-if-todos-os-episodios",
      "texto_original": "Cardfight!! Vanguard Gaiden: If",
      "rating": 6.41,
      "classificacao_etaria": "A14",
      "imagem_original": "https://animefire.plus/img/animes/cardfight-vanguard-gaiden-if.webp",
      "imagem_pasta": "https://animefire.plus/img/animes/cardfight-vanguard-gaiden-if/",
      "secao": "legendados,lancamentos",
      "pagina": 61,
      "total_episodios": 4,
      "link_video": "https://animefire.plus/video/cardfight-vanguard-gaiden-if"
    },
    {
      "id": 572,
      "nome": "Cardfight!! Vanguard: Divinez Deluxe Kesshou-hen",
      "link": "https://animefire.plus/animes/cardfight-vanguard-divinez-deluxe-kesshou-hen-todos-os-episodios",
      "texto_original": "Cardfight!! Vanguard: Divinez Deluxe Kesshou-hen",
      "rating": null,
      "classificacao_etaria": "A14",
      "imagem_original": "https://animefire.plus/img/animes/cardfight-vanguard-divinez-deluxe-kesshou-hen.webp",
      "imagem_pasta": "https://animefire.plus/img/animes/cardfight-vanguard-divinez-deluxe-kesshou-hen/",
      "secao": "legendados,lancamentos",
      "pagina": 1,
      "total_episodios": 0,
      "link_video": "https://animefire.plus/video/cardfight-vanguard-divinez-deluxe-kesshou-hen"
    },
    {
      "id": 573,
      "nome": "Cardfight!! Vanguard: Divinez Deluxe-hen",
      "link": "https://animefire.plus/animes/cardfight-vanguard-divinez-deluxe-hen-todos-os-episodios",
      "texto_original": "Cardfight!! Vanguard: Divinez Deluxe-hen",
      "rating": null,
      "classificacao_etaria": "A14",
      "imagem_original": "https://animefire.plus/img/animes/cardfight-vanguard-divinez-deluxe-hen.webp",
      "imagem_pasta": "https://animefire.plus/img/animes/cardfight-vanguard-divinez-deluxe-hen/",
      "secao": "legendados,lancamentos",
      "pagina": 6,
      "total_episodios": 0,
      "link_video": "https://animefire.plus/video/cardfight-vanguard-divinez-deluxe-hen"
    },
    {
      "id": 580,
      "nome": "Cardfight!! Vanguard: will+Dress Season 2",
      "link": "https://animefire.plus/animes/cardfight-vanguard-will-dress-season-2-todos-os-episodios",
      "texto_original": "Cardfight!! Vanguard: will+Dress Season 2",
      "rating": 6.73,
      "classificacao_etaria": "A14",
      "imagem_original": "https://animefire.plus/img/animes/cardfight-vanguard-will-dress-season-2.webp",
      "imagem_pasta": "https://animefire.plus/img/animes/cardfight-vanguard-will-dress-season-2/",
      "secao": "legendados,lancamentos",
      "pagina": 25,
      "total_episodios": 4,
      "link_video": "https://animefire.plus/video/cardfight-vanguard-will-dress-season-2"
    },
    {
      "id": 581,
      "nome": "Cardfight!! Vanguard: will+Dress Season 3",
      "link": "https://animefire.plus/animes/cardfight-vanguard-will-dress-season-3-todos-os-episodios",
      "texto_original": "Cardfight!! Vanguard: will+Dress Season 3",
      "rating": 6.57,
      "classificacao_etaria": "A14",
      "imagem_original": "https://animefire.plus/img/animes/cardfight-vanguard-will-dress-season-3.jpg",
      "imagem_pasta": "https://animefire.plus/img/animes/cardfight-vanguard-will-dress-season-3/",
      "secao": "legendados,lancamentos",
      "pagina": 22,
      "total_episodios": 9,
      "link_video": "https://animefire.plus/video/cardfight-vanguard-will-dress-season-3"
    },
    {
      "id": 600,
      "nome": "Chi.: Chikyuu no Undou ni Tsuite",
      "link": "https://animefire.plus/animes/chi-chikyuu-no-undou-ni-tsuite-todos-os-episodios",
      "texto_original": "Chi.: Chikyuu no Undou ni Tsuite",
      "rating": 8.71,
      "classificacao_etaria": "A16",
      "imagem_original": "https://animefire.plus/img/animes/chi-chikyuu-no-undou-ni-tsuite.webp",
      "imagem_pasta": "https://animefire.plus/img/animes/chi-chikyuu-no-undou-ni-tsuite/",
      "secao": "legendados,lancamentos",
      "pagina": 9,
      "total_episodios": 6,
      "link_video": "https://animefire.plus/video/chi-chikyuu-no-undou-ni-tsuite"
    },
    {
      "id": 606,
      "nome": "Chiikawa",
      "link": "https://animefire.plus/animes/chiikawa-todos-os-episodios",
      "texto_original": "Chiikawa",
      "rating": 7.03,
      "classificacao_etaria": null,
      "imagem_original": "https://animefire.plus/img/animes/chiikawa.webp",
      "imagem_pasta": "https://animefire.plus/img/animes/chiikawa/",
      "secao": "legendados,lancamentos",
      "pagina": 30,
      "total_episodios": 0,
      "link_video": "https://animefire.plus/video/chiikawa"
    },
    {
      "id": 615,
      "nome": "Chiyu Mahou no Machigatta Tsukaikata (Dublado)",
      "link": "https://animefire.plus/animes/chiyu-mahou-no-machigatta-tsukaikata-dublado-todos-os-episodios",
      "texto_original": "Chiyu Mahou no Machigatta Tsukaikata (Dublado)",
      "rating": 7.53,
      "classificacao_etaria": "A14",
      "imagem_original": "https://animefire.plus/img/animes/chiyu-mahou-no-machigatta-tsukaikata.webp",
      "imagem_pasta": "https://animefire.plus/img/animes/chiyu-mahou-no-machigatta-tsukaikata/",
      "secao": "dublados,legendados,lancamentos",
      "pagina": 3,
      "total_episodios": 13,
      "link_video": "https://animefire.plus/video/chiyu-mahou-no-machigatta-tsukaikata-dublado"
    },
    {
      "id": 658,
      "nome": "City the Animation (Dublado)",
      "link": "https://animefire.plus/animes/city-the-animation-dublado-todos-os-episodios",
      "texto_original": "City the Animation (Dublado)",
      "rating": 7.84,
      "classificacao_etaria": "A14",
      "imagem_original": "https://animefire.plus/img/animes/city-the-animation.webp",
      "imagem_pasta": "https://animefire.plus/img/animes/city-the-animation/",
      "secao": "dublados,legendados,lancamentos",
      "pagina": 1,
      "total_episodios": 5,
      "link_video": "https://animefire.plus/video/city-the-animation-dublado"
    },
    {
      "id": 667,
      "nome": "Clevatess: Majuu no Ou to Akago to Shikabane no Yuusha (Dublado)",
      "link": "https://animefire.plus/animes/clevatess-majuu-no-ou-to-akago-to-shikabane-no-yuusha-dublado-todos-os-episodios",
      "texto_original": "Clevatess: Majuu no Ou to Akago to Shikabane no Yuusha (Dublado)",
      "rating": 7.92,
      "classificacao_etaria": "A16",
      "imagem_original": "https://animefire.plus/img/animes/clevatess-majuu-no-ou-to-akago-to-shikabane-no-yuusha.webp",
      "imagem_pasta": "https://animefire.plus/img/animes/clevatess-majuu-no-ou-to-akago-to-shikabane-no-yuusha/",
      "secao": "dublados,legendados,lancamentos",
      "pagina": 1,
      "total_episodios": 5,
      "link_video": "https://animefire.plus/video/clevatess-majuu-no-ou-to-akago-to-shikabane-no-yuusha-dublado"
    }
  ],
  "pagination": {
    "current_page": 2,
    "per_page": 20,
    "total_items": 285,
    "total_pages": 15,
    "has_next": true,
    "has_prev": true
  }
}
