{
  "message": "Animes da seção: legendados",
  "section": "legendados",
  "data": [
    {
      "id": 4050,
      "nome": "Utagoe wa Mille-Feuille",
      "link": "https://animefire.plus/animes/utagoe-wa-mille-feuille-todos-os-episodios",
      "texto_original": "Utagoe wa Mille-Feuille",
      "rating": 6.1,
      "classificacao_etaria": "A14",
      "imagem_original": "https://animefire.plus/img/animes/utagoe-wa-mille-feuille.webp",
      "imagem_pasta": "https://animefire.plus/img/animes/utagoe-wa-mille-feuille/",
      "secao": "legendados,lancamentos",
      "pagina": 1,
      "total_episodios": 0,
      "link_video": "https://animefire.plus/video/utagoe-wa-mille-feuille"
    },
    {
      "id": 4051,
      "nome": "Utawarerumono",
      "link": "https://animefire.plus/animes/utawarerumono-todos-os-episodios",
      "texto_original": "Utawarerumono",
      "rating": 7.72,
      "classificacao_etaria": "A16",
      "imagem_original": "https://animefire.plus/img/animes/utawarerumono.webp",
      "imagem_pasta": "https://animefire.plus/img/animes/utawarerumono/",
      "secao": "legendados",
      "pagina": 145,
      "total_episodios": 26,
      "link_video": "https://animefire.plus/video/utawarerumono"
    },
    {
      "id": 4052,
      "nome": "Utawarerumono: Futari no Hakuoro",
      "link": "https://animefire.plus/animes/utawarerumono-futari-no-hakuoro-todos-os-episodios",
      "texto_original": "Utawarerumono: Futari no Hakuoro",
      "rating": 7.51,
      "classificacao_etaria": "A14",
      "imagem_original": "https://animefire.plus/img/animes/utawarerumono-futari-no-hakuoro.webp",
      "imagem_pasta": "https://animefire.plus/img/animes/utawarerumono-futari-no-hakuoro/",
      "secao": "legendados",
      "pagina": 32,
      "total_episodios": 28,
      "link_video": "https://animefire.plus/video/utawarerumono-futari-no-hakuoro"
    },
    {
      "id": 4053,
      "nome": "Utawarerumono: Itsuwari No Kamen",
      "link": "https://animefire.plus/animes/utawarerumono-itsuwari-no-kamen-todos-os-episodios",
      "texto_original": "Utawarerumono: Itsuwari No Kamen",
      "rating": 7.31,
      "classificacao_etaria": "A14",
      "imagem_original": "https://animefire.plus/img/animes/utawarerumono-itsuwari-no-kamen.webp",
      "imagem_pasta": "https://animefire.plus/img/animes/utawarerumono-itsuwari-no-kamen/",
      "secao": "legendados",
      "pagina": 95,
      "total_episodios": 25,
      "link_video": "https://animefire.plus/video/utawarerumono-itsuwari-no-kamen"
    },
    {
      "id": 4054,
      "nome": "Utawarerumono: Tusukuru-koujo no Karei Naru Hibi",
      "link": "https://animefire.plus/animes/utawarerumono-tusukuru-koujo-no-karei-naru-hibi-todos-os-episodios",
      "texto_original": "Utawarerumono: Tusukuru-koujo no Karei Naru Hibi",
      "rating": 6.74,
      "classificacao_etaria": "A14",
      "imagem_original": "https://animefire.plus/img/animes/utawarerumono-tusukuru-koujo-no-karei-naru-hibi.webp",
      "imagem_pasta": "https://animefire.plus/img/animes/utawarerumono-tusukuru-koujo-no-karei-naru-hibi/",
      "secao": "legendados",
      "pagina": 83,
      "total_episodios": 1,
      "link_video": "https://animefire.plus/video/utawarerumono-tusukuru-koujo-no-karei-naru-hibi"
    },
    {
      "id": 4055,
      "nome": "Uzaki-chan wa Asobitai! (Dublado)",
      "link": "https://animefire.plus/animes/uzaki-chan-wa-asobitai-dublado-todos-os-episodios",
      "texto_original": "Uzaki-chan wa Asobitai! (Dublado)",
      "rating": 7,
      "classificacao_etaria": "A14",
      "imagem_original": "https://animefire.plus/img/animes/uzaki-chan-wa-asobitai.webp",
      "imagem_pasta": "https://animefire.plus/img/animes/uzaki-chan-wa-asobitai/",
      "secao": "dublados,legendados",
      "pagina": 9,
      "total_episodios": 12,
      "link_video": "https://animefire.plus/video/uzaki-chan-wa-asobitai-dublado"
    },
    {
      "id": 4056,
      "nome": "Uzaki-chan wa Asobitai! Double (Dublado)",
      "link": "https://animefire.plus/animes/uzaki-chan-wa-asobitai-double-dublado-todos-os-episodios",
      "texto_original": "Uzaki-chan wa Asobitai! Double (Dublado)",
      "rating": 7.24,
      "classificacao_etaria": "A14",
      "imagem_original": "https://animefire.plus/img/animes/uzaki-chan-wa-asobitai-double.webp",
      "imagem_pasta": "https://animefire.plus/img/animes/uzaki-chan-wa-asobitai-double/",
      "secao": "dublados,legendados",
      "pagina": 9,
      "total_episodios": 13,
      "link_video": "https://animefire.plus/video/uzaki-chan-wa-asobitai-double-dublado"
    },
    {
      "id": 4057,
      "nome": "Uzumaki (Dublado)",
      "link": "https://animefire.plus/animes/uzumaki-dublado-todos-os-episodios",
      "texto_original": "Uzumaki (Dublado)",
      "rating": 5.72,
      "classificacao_etaria": "A16",
      "imagem_original": "https://animefire.plus/img/animes/uzumaki.webp",
      "imagem_pasta": "https://animefire.plus/img/animes/uzumaki/",
      "secao": "dublados,legendados",
      "pagina": 2,
      "total_episodios": 4,
      "link_video": "https://animefire.plus/video/uzumaki-dublado"
    },
    {
      "id": 4058,
      "nome": "Val x Love",
      "link": "https://animefire.plus/animes/val-x-love-todos-os-episodios",
      "texto_original": "Val x Love",
      "rating": 5.89,
      "classificacao_etaria": "A16",
      "imagem_original": "https://animefire.plus/img/animes/val-x-love.webp",
      "imagem_pasta": "https://animefire.plus/img/animes/val-x-love/",
      "secao": "legendados",
      "pagina": 110,
      "total_episodios": 0,
      "link_video": "https://animefire.plus/video/val-x-love"
    },
    {
      "id": 4059,
      "nome": "Valkyrie Drive: Mermaid",
      "link": "https://animefire.plus/animes/valkyrie-drive-mermaid-todos-os-episodios",
      "texto_original": "Valkyrie Drive: Mermaid",
      "rating": 6.21,
      "classificacao_etaria": "A18",
      "imagem_original": "https://animefire.plus/img/animes/valkyrie-drive-mermaid.webp",
      "imagem_pasta": "https://animefire.plus/img/animes/valkyrie-drive-mermaid/",
      "secao": "legendados",
      "pagina": 91,
      "total_episodios": 0,
      "link_video": "https://animefire.plus/video/valkyrie-drive-mermaid"
    },
    {
      "id": 4060,
      "nome": "Vampire Dormitory",
      "link": "https://animefire.plus/animes/vampire-dormitory-todos-os-episodios",
      "texto_original": "Vampire Dormitory",
      "rating": 6.22,
      "classificacao_etaria": "A14",
      "imagem_original": "https://animefire.plus/img/animes/vampire-dormitory.webp",
      "imagem_pasta": "https://animefire.plus/img/animes/vampire-dormitory/",
      "secao": "legendados",
      "pagina": 15,
      "total_episodios": 12,
      "link_video": "https://animefire.plus/video/vampire-dormitory"
    },
    {
      "id": 4061,
      "nome": "Vampire Holmes",
      "link": "https://animefire.plus/animes/vampire-holmes-todos-os-episodios",
      "texto_original": "Vampire Holmes",
      "rating": 3.5,
      "classificacao_etaria": "A14",
      "imagem_original": "https://animefire.plus/img/animes/vampire-holmes.webp",
      "imagem_pasta": "https://animefire.plus/img/animes/vampire-holmes/",
      "secao": "legendados",
      "pagina": 148,
      "total_episodios": 0,
      "link_video": "https://animefire.plus/video/vampire-holmes"
    },
    {
      "id": 4062,
      "nome": "Vampire Hunter",
      "link": "https://animefire.plus/animes/vampire-hunter-todos-os-episodios",
      "texto_original": "Vampire Hunter",
      "rating": 6.74,
      "classificacao_etaria": "A16",
      "imagem_original": "https://animefire.plus/img/animes/vampire-hunter.webp",
      "imagem_pasta": "https://animefire.plus/img/animes/vampire-hunter/",
      "secao": "legendados",
      "pagina": 172,
      "total_episodios": 4,
      "link_video": "https://animefire.plus/video/vampire-hunter"
    },
    {
      "id": 4063,
      "nome": "Vampire in the Garden (Dublado)",
      "link": "https://animefire.plus/animes/vampire-in-the-garden-dublado-todos-os-episodios",
      "texto_original": "Vampire in the Garden (Dublado)",
      "rating": 7.14,
      "classificacao_etaria": "A14",
      "imagem_original": "https://animefire.plus/img/animes/vampire-in-the-garden.webp",
      "imagem_pasta": "https://animefire.plus/img/animes/vampire-in-the-garden/",
      "secao": "dublados,legendados",
      "pagina": 11,
      "total_episodios": 5,
      "link_video": "https://animefire.plus/video/vampire-in-the-garden-dublado"
    },
    {
      "id": 4064,
      "nome": "Vampire Knight",
      "link": "https://animefire.plus/animes/vampire-knight-todos-os-episodios",
      "texto_original": "Vampire Knight",
      "rating": 7.25,
      "classificacao_etaria": "A14",
      "imagem_original": "https://animefire.plus/img/animes/vampire-knight.webp",
      "imagem_pasta": "https://animefire.plus/img/animes/vampire-knight/",
      "secao": "legendados",
      "pagina": 169,
      "total_episodios": 13,
      "link_video": "https://animefire.plus/video/vampire-knight"
    },
    {
      "id": 4065,
      "nome": "Vampire Knight: Guilty",
      "link": "https://animefire.plus/animes/vampire-knight-guilty-todos-os-episodios",
      "texto_original": "Vampire Knight: Guilty",
      "rating": 7.41,
      "classificacao_etaria": "A14",
      "imagem_original": "https://animefire.plus/img/animes/vampire-knight-guilty.webp",
      "imagem_pasta": "https://animefire.plus/img/animes/vampire-knight-guilty/",
      "secao": "legendados",
      "pagina": 155,
      "total_episodios": 13,
      "link_video": "https://animefire.plus/video/vampire-knight-guilty"
    },
    {
      "id": 4066,
      "nome": "Vandread",
      "link": "https://animefire.plus/animes/vandread-todos-os-episodios",
      "texto_original": "Vandread",
      "rating": 7.27,
      "classificacao_etaria": "A14",
      "imagem_original": "https://animefire.plus/img/animes/vandread.webp",
      "imagem_pasta": "https://animefire.plus/img/animes/vandread/",
      "secao": "legendados",
      "pagina": 134,
      "total_episodios": 13,
      "link_video": "https://animefire.plus/video/vandread"
    },
    {
      "id": 4067,
      "nome": "Vandread: The Second Stage",
      "link": "https://animefire.plus/animes/vandread-the-second-stage-todos-os-episodios",
      "texto_original": "Vandread: The Second Stage",
      "rating": 7.48,
      "classificacao_etaria": "A14",
      "imagem_original": "https://animefire.plus/img/animes/vandread-the-second-stage.webp",
      "imagem_pasta": "https://animefire.plus/img/animes/vandread-the-second-stage/",
      "secao": "legendados",
      "pagina": 165,
      "total_episodios": 13,
      "link_video": "https://animefire.plus/video/vandread-the-second-stage"
    },
    {
      "id": 4068,
      "nome": "Vanitas no Carte (Dublado)",
      "link": "https://animefire.plus/animes/vanitas-no-carte-dublado-todos-os-episodios",
      "texto_original": "Vanitas no Carte (Dublado)",
      "rating": 7.9,
      "classificacao_etaria": "A16",
      "imagem_original": "https://animefire.plus/img/animes/vanitas-no-carte.webp",
      "imagem_pasta": "https://animefire.plus/img/animes/vanitas-no-carte/",
      "secao": "dublados,legendados",
      "pagina": 16,
      "total_episodios": 12,
      "link_video": "https://animefire.plus/video/vanitas-no-carte-dublado"
    },
    {
      "id": 4069,
      "nome": "Vanitas no Karte 2nd Season",
      "link": "https://animefire.plus/animes/vanitas-no-karte-2nd-season-todos-os-episodios",
      "texto_original": "Vanitas no Karte 2nd Season",
      "rating": 8.19,
      "classificacao_etaria": "A16",
      "imagem_original": "https://animefire.plus/img/animes/vanitas-no-karte-2nd-season.webp",
      "imagem_pasta": "https://animefire.plus/img/animes/vanitas-no-karte-2nd-season/",
      "secao": "legendados",
      "pagina": 36,
      "total_episodios": 12,
      "link_video": "https://animefire.plus/video/vanitas-no-karte-2nd-season"
    }
  ],
  "pagination": {
    "current_page": 199,
    "per_page": 20,
    "total_items": 4269,
    "total_pages": 214,
    "has_next": true,
    "has_prev": true
  }
}
