{
  "message": "Animes da seção: legendados",
  "section": "legendados",
  "data": [
    {
      "id": 2016,
      "nome": "Kisaki Kyouiku kara Nigetai Watashi",
      "link": "https://animefire.plus/animes/kisaki-kyouiku-kara-nigetai-watashi-todos-os-episodios",
      "texto_original": "Kisaki Kyouiku kara Nigetai Watashi",
      "rating": 5.65,
      "classificacao_etaria": "A14",
      "imagem_original": "https://animefire.plus/img/animes/kisaki-kyouiku-kara-nigetai-watashi.webp",
      "imagem_pasta": "https://animefire.plus/img/animes/kisaki-kyouiku-kara-nigetai-watashi/",
      "secao": "legendados",
      "pagina": 7,
      "total_episodios": 12,
      "link_video": "https://animefire.plus/video/kisaki-kyouiku-kara-nigetai-watashi"
    },
    {
      "id": 2017,
      "nome": "Kiseijuu: Sei no Kakuritsu (Dublado)",
      "link": "https://animefire.plus/animes/kiseijuu-sei-no-kakuritsu-dublado-todos-os-episodios",
      "texto_original": "Kiseijuu: Sei no Kakuritsu (Dublado)",
      "rating": 8.46,
      "classificacao_etaria": "A16",
      "imagem_original": "https://animefire.plus/img/animes/kiseijuu-sei-no-kakuritsu.webp",
      "imagem_pasta": "https://animefire.plus/img/animes/kiseijuu-sei-no-kakuritsu/",
      "secao": "dublados,legendados",
      "pagina": 23,
      "total_episodios": 24,
      "link_video": "https://animefire.plus/video/kiseijuu-sei-no-kakuritsu-dublado"
    },
    {
      "id": 2018,
      "nome": "Kishibe Rohan wa Ugokanai (Dublado)",
      "link": "https://animefire.plus/animes/kishibe-rohan-wa-ugokanai-dublado-todos-os-episodios",
      "texto_original": "Kishibe Rohan wa Ugokanai (Dublado)",
      "rating": 7.61,
      "classificacao_etaria": "A16",
      "imagem_original": "https://animefire.plus/img/animes/kishibe-rohan-wa-ugokanai.webp",
      "imagem_pasta": "https://animefire.plus/img/animes/kishibe-rohan-wa-ugokanai/",
      "secao": "dublados,legendados",
      "pagina": 18,
      "total_episodios": 9,
      "link_video": "https://animefire.plus/video/kishibe-rohan-wa-ugokanai-dublado"
    },
    {
      "id": 2019,
      "nome": "Kishin Douji Zenki",
      "link": "https://animefire.plus/animes/kishin-douji-zenki-todos-os-episodios",
      "texto_original": "Kishin Douji Zenki",
      "rating": 7.06,
      "classificacao_etaria": "A14",
      "imagem_original": "https://animefire.plus/img/animes/kishin-douji-zenki.webp",
      "imagem_pasta": "https://animefire.plus/img/animes/kishin-douji-zenki/",
      "secao": "legendados",
      "pagina": 169,
      "total_episodios": 21,
      "link_video": "https://animefire.plus/video/kishin-douji-zenki"
    },
    {
      "id": 2020,
      "nome": "Kishin Houkou Demonbane",
      "link": "https://animefire.plus/animes/kishin-houkou-demonbane-todos-os-episodios",
      "texto_original": "Kishin Houkou Demonbane",
      "rating": 6.08,
      "classificacao_etaria": "A14",
      "imagem_original": "https://animefire.plus/img/animes/kishin-houkou-demonbane.webp",
      "imagem_pasta": "https://animefire.plus/img/animes/kishin-houkou-demonbane/",
      "secao": "legendados",
      "pagina": 61,
      "total_episodios": 0,
      "link_video": "https://animefire.plus/video/kishin-houkou-demonbane"
    },
    {
      "id": 2021,
      "nome": "Kishin Houkou Demonbane (TV)",
      "link": "https://animefire.plus/animes/kishin-houkou-demonbane-tv-todos-os-episodios",
      "texto_original": "Kishin Houkou Demonbane (TV)",
      "rating": 6.61,
      "classificacao_etaria": "A16",
      "imagem_original": "https://animefire.plus/img/animes/kishin-houkou-demonbane-tv.webp",
      "imagem_pasta": "https://animefire.plus/img/animes/kishin-houkou-demonbane-tv/",
      "secao": "legendados",
      "pagina": 82,
      "total_episodios": 0,
      "link_video": "https://animefire.plus/video/kishin-houkou-demonbane-tv"
    },
    {
      "id": 2022,
      "nome": "Kishin Taisen Gigantic Formula",
      "link": "https://animefire.plus/animes/kishin-taisen-gigantic-formula-todos-os-episodios",
      "texto_original": "Kishin Taisen Gigantic Formula",
      "rating": 6.92,
      "classificacao_etaria": "A14",
      "imagem_original": "https://animefire.plus/img/animes/kishin-taisen-gigantic-formula.webp",
      "imagem_pasta": "https://animefire.plus/img/animes/kishin-taisen-gigantic-formula/",
      "secao": "legendados",
      "pagina": 167,
      "total_episodios": 20,
      "link_video": "https://animefire.plus/video/kishin-taisen-gigantic-formula"
    },
    {
      "id": 2023,
      "nome": "Kishuku Gakkou no Juliet",
      "link": "https://animefire.plus/animes/kishuku-gakkou-no-juliet-todos-os-episodios",
      "texto_original": "Kishuku Gakkou no Juliet",
      "rating": 7.61,
      "classificacao_etaria": "A14",
      "imagem_original": "https://animefire.plus/img/animes/kishuku-gakkou-no-juliet.webp",
      "imagem_pasta": "https://animefire.plus/img/animes/kishuku-gakkou-no-juliet/",
      "secao": "legendados",
      "pagina": 167,
      "total_episodios": 12,
      "link_video": "https://animefire.plus/video/kishuku-gakkou-no-juliet"
    },
    {
      "id": 2024,
      "nome": "Kiss Dum: Engage Planet",
      "link": "https://animefire.plus/animes/kiss-dum-engage-planet-todos-os-episodios",
      "texto_original": "Kiss Dum: Engage Planet",
      "rating": 6.69,
      "classificacao_etaria": "A14",
      "imagem_original": "https://animefire.plus/img/animes/kiss-dum-engage-planet.webp",
      "imagem_pasta": "https://animefire.plus/img/animes/kiss-dum-engage-planet/",
      "secao": "legendados",
      "pagina": 176,
      "total_episodios": 21,
      "link_video": "https://animefire.plus/video/kiss-dum-engage-planet"
    },
    {
      "id": 2025,
      "nome": "Kiss x Sis",
      "link": "https://animefire.plus/animes/kiss-x-sis-todos-os-episodios",
      "texto_original": "Kiss x Sis",
      "rating": 7.11,
      "classificacao_etaria": "A18",
      "imagem_original": "https://animefire.plus/img/animes/kiss-x-sis.webp",
      "imagem_pasta": "https://animefire.plus/img/animes/kiss-x-sis/",
      "secao": "legendados",
      "pagina": 154,
      "total_episodios": 12,
      "link_video": "https://animefire.plus/video/kiss-x-sis"
    },
    {
      "id": 2026,
      "nome": "Kiss x Sis (TV)",
      "link": "https://animefire.plus/animes/kiss-x-sis-tv-todos-os-episodios",
      "texto_original": "Kiss x Sis (TV)",
      "rating": 6.78,
      "classificacao_etaria": "A14",
      "imagem_original": "https://animefire.plus/img/animes/kiss-x-sis-tv.webp",
      "imagem_pasta": "https://animefire.plus/img/animes/kiss-x-sis-tv/",
      "secao": "legendados",
      "pagina": 73,
      "total_episodios": 12,
      "link_video": "https://animefire.plus/video/kiss-x-sis-tv"
    },
    {
      "id": 2027,
      "nome": "Kitakubu Katsudou Kiroku",
      "link": "https://animefire.plus/animes/kitakubu-katsudou-kiroku-todos-os-episodios",
      "texto_original": "Kitakubu Katsudou Kiroku",
      "rating": 6.82,
      "classificacao_etaria": "A14",
      "imagem_original": "https://animefire.plus/img/animes/kitakubu-katsudou-kiroku.webp",
      "imagem_pasta": "https://animefire.plus/img/animes/kitakubu-katsudou-kiroku/",
      "secao": "legendados",
      "pagina": 124,
      "total_episodios": 12,
      "link_video": "https://animefire.plus/video/kitakubu-katsudou-kiroku"
    },
    {
      "id": 2028,
      "nome": "Kitsune no Koe",
      "link": "https://animefire.plus/animes/kitsune-no-koe-todos-os-episodios",
      "texto_original": "Kitsune no Koe",
      "rating": 6.62,
      "classificacao_etaria": "A14",
      "imagem_original": "https://animefire.plus/img/animes/kitsune-no-koe.webp",
      "imagem_pasta": "https://animefire.plus/img/animes/kitsune-no-koe/",
      "secao": "legendados",
      "pagina": 158,
      "total_episodios": 12,
      "link_video": "https://animefire.plus/video/kitsune-no-koe"
    },
    {
      "id": 2029,
      "nome": "Kitsutsuki Tanteidokoro",
      "link": "https://animefire.plus/animes/kitsutsuki-tanteidokoro-todos-os-episodios",
      "texto_original": "Kitsutsuki Tanteidokoro",
      "rating": 6.03,
      "classificacao_etaria": "A16",
      "imagem_original": "https://animefire.plus/img/animes/kitsutsuki-tanteidokoro.webp",
      "imagem_pasta": "https://animefire.plus/img/animes/kitsutsuki-tanteidokoro/",
      "secao": "legendados",
      "pagina": 80,
      "total_episodios": 1,
      "link_video": "https://animefire.plus/video/kitsutsuki-tanteidokoro"
    },
    {
      "id": 2030,
      "nome": "Kizetsu Yuusha to Ansatsu Hime",
      "link": "https://animefire.plus/animes/kizetsu-yuusha-to-ansatsu-hime-todos-os-episodios",
      "texto_original": "Kizetsu Yuusha to Ansatsu Hime",
      "rating": 6.38,
      "classificacao_etaria": "A14",
      "imagem_original": "https://animefire.plus/img/animes/kizetsu-yuusha-to-ansatsu-hime.webp",
      "imagem_pasta": "https://animefire.plus/img/animes/kizetsu-yuusha-to-ansatsu-hime/",
      "secao": "legendados,lancamentos",
      "pagina": 2,
      "total_episodios": 5,
      "link_video": "https://animefire.plus/video/kizetsu-yuusha-to-ansatsu-hime"
    },
    {
      "id": 2031,
      "nome": "Kiznaiver",
      "link": "https://animefire.plus/animes/kiznaiver-todos-os-episodios",
      "texto_original": "Kiznaiver",
      "rating": 7.54,
      "classificacao_etaria": "A14",
      "imagem_original": "https://animefire.plus/img/animes/kiznaiver.webp",
      "imagem_pasta": "https://animefire.plus/img/animes/kiznaiver/",
      "secao": "legendados",
      "pagina": 139,
      "total_episodios": 12,
      "link_video": "https://animefire.plus/video/kiznaiver"
    },
    {
      "id": 2032,
      "nome": "Kizu darake Seijo yori Houfuku wo Komete",
      "link": "https://animefire.plus/animes/kizu-darake-seijo-yori-houfuku-wo-komete-todos-os-episodios",
      "texto_original": "Kizu darake Seijo yori Houfuku wo Komete",
      "rating": 5.59,
      "classificacao_etaria": "A14",
      "imagem_original": "https://animefire.plus/img/animes/kizu-darake-seijo-yori-houfuku-wo-komete.webp",
      "imagem_pasta": "https://animefire.plus/img/animes/kizu-darake-seijo-yori-houfuku-wo-komete/",
      "secao": "legendados,lancamentos",
      "pagina": 1,
      "total_episodios": 0,
      "link_video": "https://animefire.plus/video/kizu-darake-seijo-yori-houfuku-wo-komete"
    },
    {
      "id": 2033,
      "nome": "KJ File (Zoku-hen)",
      "link": "https://animefire.plus/animes/kj-file-zoku-hen-todos-os-episodios",
      "texto_original": "KJ File (Zoku-hen)",
      "rating": 5.23,
      "classificacao_etaria": "A14",
      "imagem_original": "https://animefire.plus/img/animes/kj-file-zoku-hen.webp",
      "imagem_pasta": "https://animefire.plus/img/animes/kj-file-zoku-hen/",
      "secao": "legendados,lancamentos",
      "pagina": 26,
      "total_episodios": 0,
      "link_video": "https://animefire.plus/video/kj-file-zoku-hen"
    },
    {
      "id": 2034,
      "nome": "Knight's & Magic",
      "link": "https://animefire.plus/animes/knight-s-magic-todos-os-episodios",
      "texto_original": "Knight's & Magic",
      "rating": 7.28,
      "classificacao_etaria": "A14",
      "imagem_original": "https://animefire.plus/img/animes/knight-s-magic.webp",
      "imagem_pasta": "https://animefire.plus/img/animes/knight-s-magic/",
      "secao": "legendados",
      "pagina": 101,
      "total_episodios": 13,
      "link_video": "https://animefire.plus/video/knight-s-magic"
    },
    {
      "id": 2035,
      "nome": "Knights of the Zodiac: Saint Seiya - Battle for Sanctuary (Dublado)",
      "link": "https://animefire.plus/animes/knights-of-the-zodiac-saint-seiya---battle-for-sanctuary-dublado-todos-os-episodios",
      "texto_original": "Knights of the Zodiac: Saint Seiya - Battle for Sanctuary (Dublado)",
      "rating": 6.22,
      "classificacao_etaria": "A14",
      "imagem_original": "https://animefire.plus/img/animes/knights-of-the-zodiac-saint-seiya---battle-for-sanctuary.webp",
      "imagem_pasta": "https://animefire.plus/img/animes/knights-of-the-zodiac-saint-seiya---battle-for-sanctuary/",
      "secao": "dublados,legendados,lancamentos",
      "pagina": 8,
      "total_episodios": 12,
      "link_video": "https://animefire.plus/video/knights-of-the-zodiac-saint-seiya---battle-for-sanctuary-dublado"
    }
  ],
  "pagination": {
    "current_page": 99,
    "per_page": 20,
    "total_items": 4269,
    "total_pages": 214,
    "has_next": true,
    "has_prev": true
  }
}
