{
  "message": "Animes da seção: legendados",
  "section": "legendados",
  "data": [
    {
      "id": 2648,
      "nome": "Nakanohito Genome [Jikkyouchuu]: Knots of Memories",
      "link": "https://animefire.plus/animes/nakanohito-genome-jikkyouchuu-knots-of-memories-todos-os-episodios",
      "texto_original": "Nakanohito Genome [Jikkyouchuu]: Knots of Memories",
      "rating": 6.79,
      "classificacao_etaria": "A14",
      "imagem_original": "https://animefire.plus/img/animes/nakanohito-genome-jikkyouchuu-knots-of-memories.webp",
      "imagem_pasta": "https://animefire.plus/img/animes/nakanohito-genome-jikkyouchuu-knots-of-memories/",
      "secao": "legendados",
      "pagina": 42,
      "total_episodios": 1,
      "link_video": "https://animefire.plus/video/nakanohito-genome-jikkyouchuu-knots-of-memories"
    },
    {
      "id": 2649,
      "nome": "Nami Yo Kiitekure",
      "link": "https://animefire.plus/animes/nami-yo-kiitekure-todos-os-episodios",
      "texto_original": "Nami Yo Kiitekure",
      "rating": 7.37,
      "classificacao_etaria": "A16",
      "imagem_original": "https://animefire.plus/img/animes/nami-yo-kiitekure.webp",
      "imagem_pasta": "https://animefire.plus/img/animes/nami-yo-kiitekure/",
      "secao": "legendados",
      "pagina": 60,
      "total_episodios": 8,
      "link_video": "https://animefire.plus/video/nami-yo-kiitekure"
    },
    {
      "id": 2650,
      "nome": "Namu Amida Butsu!: Rendai Utena",
      "link": "https://animefire.plus/animes/namu-amida-butsu-rendai-utena-todos-os-episodios",
      "texto_original": "Namu Amida Butsu!: Rendai Utena",
      "rating": 6.07,
      "classificacao_etaria": "A14",
      "imagem_original": "https://animefire.plus/img/animes/namu-amida-butsu-rendai-utena.webp",
      "imagem_pasta": "https://animefire.plus/img/animes/namu-amida-butsu-rendai-utena/",
      "secao": "legendados",
      "pagina": 142,
      "total_episodios": 0,
      "link_video": "https://animefire.plus/video/namu-amida-butsu-rendai-utena"
    },
    {
      "id": 2651,
      "nome": "Nana",
      "link": "https://animefire.plus/animes/nana-todos-os-episodios",
      "texto_original": "Nana",
      "rating": 8.48,
      "classificacao_etaria": "A18",
      "imagem_original": "https://animefire.plus/img/animes/nana.webp",
      "imagem_pasta": "https://animefire.plus/img/animes/nana/",
      "secao": "legendados",
      "pagina": 150,
      "total_episodios": 11,
      "link_video": "https://animefire.plus/video/nana"
    },
    {
      "id": 2652,
      "nome": "Nana Maru San Batsu",
      "link": "https://animefire.plus/animes/nana-maru-san-batsu-todos-os-episodios",
      "texto_original": "Nana Maru San Batsu",
      "rating": 6.79,
      "classificacao_etaria": "A14",
      "imagem_original": "https://animefire.plus/img/animes/nana-maru-san-batsu.webp",
      "imagem_pasta": "https://animefire.plus/img/animes/nana-maru-san-batsu/",
      "secao": "legendados",
      "pagina": 169,
      "total_episodios": 12,
      "link_video": "https://animefire.plus/video/nana-maru-san-batsu"
    },
    {
      "id": 2653,
      "nome": "Nana Toshi Monogatari: Hokkyokukai Sensen",
      "link": "https://animefire.plus/animes/nana-toshi-monogatari-hokkyokukai-sensen-todos-os-episodios",
      "texto_original": "Nana Toshi Monogatari: Hokkyokukai Sensen",
      "rating": 6.3,
      "classificacao_etaria": "A14",
      "imagem_original": "https://animefire.plus/img/animes/nana-toshi-monogatari-hokkyokukai-sensen.webp",
      "imagem_pasta": "https://animefire.plus/img/animes/nana-toshi-monogatari-hokkyokukai-sensen/",
      "secao": "legendados",
      "pagina": 72,
      "total_episodios": 2,
      "link_video": "https://animefire.plus/video/nana-toshi-monogatari-hokkyokukai-sensen"
    },
    {
      "id": 2654,
      "nome": "Nanaka 6/17",
      "link": "https://animefire.plus/animes/nanaka-6-17-todos-os-episodios",
      "texto_original": "Nanaka 6/17",
      "rating": 6.7,
      "classificacao_etaria": "A14",
      "imagem_original": "https://animefire.plus/img/animes/nanaka-6-17.webp",
      "imagem_pasta": "https://animefire.plus/img/animes/nanaka-6-17/",
      "secao": "legendados",
      "pagina": 141,
      "total_episodios": 12,
      "link_video": "https://animefire.plus/video/nanaka-6-17"
    },
    {
      "id": 2655,
      "nome": "Nanatsu no Bitoku",
      "link": "https://animefire.plus/animes/nanatsu-no-bitoku-todos-os-episodios",
      "texto_original": "Nanatsu no Bitoku",
      "rating": 5.27,
      "classificacao_etaria": "A18",
      "imagem_original": "https://animefire.plus/img/animes/nanatsu-no-bitoku.webp",
      "imagem_pasta": "https://animefire.plus/img/animes/nanatsu-no-bitoku/",
      "secao": "legendados",
      "pagina": 146,
      "total_episodios": 7,
      "link_video": "https://animefire.plus/video/nanatsu-no-bitoku"
    },
    {
      "id": 2656,
      "nome": "Nanatsu no Bitoku Specials",
      "link": "https://animefire.plus/animes/nanatsu-no-bitoku-specials-todos-os-episodios",
      "texto_original": "Nanatsu no Bitoku Specials",
      "rating": 5.52,
      "classificacao_etaria": "A18",
      "imagem_original": "https://animefire.plus/img/animes/nanatsu-no-bitoku-specials.webp",
      "imagem_pasta": "https://animefire.plus/img/animes/nanatsu-no-bitoku-specials/",
      "secao": "legendados",
      "pagina": 84,
      "total_episodios": 2,
      "link_video": "https://animefire.plus/video/nanatsu-no-bitoku-specials"
    },
    {
      "id": 2657,
      "nome": "Nanatsu no Maken ga Shihai suru",
      "link": "https://animefire.plus/animes/nanatsu-no-maken-ga-shihai-suru-todos-os-episodios",
      "texto_original": "Nanatsu no Maken ga Shihai suru",
      "rating": 6.56,
      "classificacao_etaria": "A14",
      "imagem_original": "https://animefire.plus/img/animes/nanatsu-no-maken-ga-shihai-suru.jpg",
      "imagem_pasta": "https://animefire.plus/img/animes/nanatsu-no-maken-ga-shihai-suru/",
      "secao": "legendados",
      "pagina": 23,
      "total_episodios": 15,
      "link_video": "https://animefire.plus/video/nanatsu-no-maken-ga-shihai-suru"
    },
    {
      "id": 2658,
      "nome": "Nanatsu no Taizai (Dublado)",
      "link": "https://animefire.plus/animes/nanatsu-no-taizai-dublado-todos-os-episodios",
      "texto_original": "Nanatsu no Taizai (Dublado)",
      "rating": 8.18,
      "classificacao_etaria": "A14",
      "imagem_original": "https://animefire.plus/img/animes/nanatsu-no-taizai.webp",
      "imagem_pasta": "https://animefire.plus/img/animes/nanatsu-no-taizai/",
      "secao": "dublados,legendados",
      "pagina": 26,
      "total_episodios": 24,
      "link_video": "https://animefire.plus/video/nanatsu-no-taizai-dublado"
    },
    {
      "id": 2659,
      "nome": "Nanatsu no Taizai Movie: Tenkuu no Torawarebito",
      "link": "https://animefire.plus/animes/nanatsu-no-taizai-movie-tenkuu-no-torawarebito-todos-os-episodios",
      "texto_original": "Nanatsu no Taizai Movie: Tenkuu no Torawarebito",
      "rating": 7.66,
      "classificacao_etaria": "A14",
      "imagem_original": "https://animefire.plus/img/animes/nanatsu-no-taizai-movie-tenkuu-no-torawarebito.webp",
      "imagem_pasta": "https://animefire.plus/img/animes/nanatsu-no-taizai-movie-tenkuu-no-torawarebito/",
      "secao": "legendados",
      "pagina": 106,
      "total_episodios": 3,
      "link_video": "https://animefire.plus/video/nanatsu-no-taizai-movie-tenkuu-no-torawarebito"
    },
    {
      "id": 2660,
      "nome": "Nanatsu no Taizai OVA",
      "link": "https://animefire.plus/animes/nanatsu-no-taizai-ova-todos-os-episodios",
      "texto_original": "Nanatsu no Taizai OVA",
      "rating": 7.57,
      "classificacao_etaria": "A14",
      "imagem_original": "https://animefire.plus/img/animes/nanatsu-no-taizai-ova.webp",
      "imagem_pasta": "https://animefire.plus/img/animes/nanatsu-no-taizai-ova/",
      "secao": "legendados",
      "pagina": 43,
      "total_episodios": 2,
      "link_video": "https://animefire.plus/video/nanatsu-no-taizai-ova"
    },
    {
      "id": 2661,
      "nome": "Nanatsu no Taizai: Eiyuu-tachi wa Hashagu",
      "link": "https://animefire.plus/animes/nanatsu-no-taizai-eiyuu-tachi-wa-hashagu-todos-os-episodios",
      "texto_original": "Nanatsu no Taizai: Eiyuu-tachi wa Hashagu",
      "rating": 7.22,
      "classificacao_etaria": "A14",
      "imagem_original": "https://animefire.plus/img/animes/nanatsu-no-taizai-eiyuu-tachi-wa-hashagu.webp",
      "imagem_pasta": "https://animefire.plus/img/animes/nanatsu-no-taizai-eiyuu-tachi-wa-hashagu/",
      "secao": "legendados",
      "pagina": 84,
      "total_episodios": 1,
      "link_video": "https://animefire.plus/video/nanatsu-no-taizai-eiyuu-tachi-wa-hashagu"
    },
    {
      "id": 2662,
      "nome": "Nanatsu no Taizai: Ensa no Edinburgh (Dublado)",
      "link": "https://animefire.plus/animes/nanatsu-no-taizai-ensa-no-edinburgh-dublado-todos-os-episodios",
      "texto_original": "Nanatsu no Taizai: Ensa no Edinburgh (Dublado)",
      "rating": 6.21,
      "classificacao_etaria": "A14",
      "imagem_original": "https://animefire.plus/img/animes/nanatsu-no-taizai-ensa-no-edinburgh.webp",
      "imagem_pasta": "https://animefire.plus/img/animes/nanatsu-no-taizai-ensa-no-edinburgh/",
      "secao": "dublados,legendados",
      "pagina": 8,
      "total_episodios": 1,
      "link_video": "https://animefire.plus/video/nanatsu-no-taizai-ensa-no-edinburgh-dublado"
    },
    {
      "id": 2663,
      "nome": "Nanatsu no Taizai: Ensa no Edinburgh Part 2 (Dublado)",
      "link": "https://animefire.plus/animes/nanatsu-no-taizai-ensa-no-edinburgh-part-2-dublado-todos-os-episodios",
      "texto_original": "Nanatsu no Taizai: Ensa no Edinburgh Part 2 (Dublado)",
      "rating": 6.56,
      "classificacao_etaria": "A14",
      "imagem_original": "https://animefire.plus/img/animes/nanatsu-no-taizai-ensa-no-edinburgh-part-2.webp",
      "imagem_pasta": "https://animefire.plus/img/animes/nanatsu-no-taizai-ensa-no-edinburgh-part-2/",
      "secao": "dublados,legendados",
      "pagina": 6,
      "total_episodios": 1,
      "link_video": "https://animefire.plus/video/nanatsu-no-taizai-ensa-no-edinburgh-part-2-dublado"
    },
    {
      "id": 2664,
      "nome": "Nanatsu no Taizai: Fundo no Shinpan (Dublado)",
      "link": "https://animefire.plus/animes/nanatsu-no-taizai-fundo-no-shinpan-dublado-todos-os-episodios",
      "texto_original": "Nanatsu no Taizai: Fundo no Shinpan (Dublado)",
      "rating": 6.57,
      "classificacao_etaria": "A14",
      "imagem_original": "https://animefire.plus/img/animes/nanatsu-no-taizai-fundo-no-shinpan.webp",
      "imagem_pasta": "https://animefire.plus/img/animes/nanatsu-no-taizai-fundo-no-shinpan/",
      "secao": "dublados,legendados,lancamentos",
      "pagina": 16,
      "total_episodios": 24,
      "link_video": "https://animefire.plus/video/nanatsu-no-taizai-fundo-no-shinpan-dublado"
    },
    {
      "id": 2665,
      "nome": "Nanatsu no Taizai: Imashime no Fukkatsu (Dublado)",
      "link": "https://animefire.plus/animes/nanatsu-no-taizai-imashime-no-fukkatsu-dublado-todos-os-episodios",
      "texto_original": "Nanatsu no Taizai: Imashime no Fukkatsu (Dublado)",
      "rating": 8.22,
      "classificacao_etaria": "A14",
      "imagem_original": "https://animefire.plus/img/animes/nanatsu-no-taizai-imashime-no-fukkatsu.webp",
      "imagem_pasta": "https://animefire.plus/img/animes/nanatsu-no-taizai-imashime-no-fukkatsu/",
      "secao": "dublados,legendados",
      "pagina": 26,
      "total_episodios": 24,
      "link_video": "https://animefire.plus/video/nanatsu-no-taizai-imashime-no-fukkatsu-dublado"
    },
    {
      "id": 2666,
      "nome": "Nanatsu no Taizai: Kamigami no Gekirin (Dublado)",
      "link": "https://animefire.plus/animes/nanatsu-no-taizai-kamigami-no-gekirin-dublado-todos-os-episodios",
      "texto_original": "Nanatsu no Taizai: Kamigami no Gekirin (Dublado)",
      "rating": 6.38,
      "classificacao_etaria": "A14",
      "imagem_original": "https://animefire.plus/img/animes/nanatsu-no-taizai-kamigami-no-gekirin.webp",
      "imagem_pasta": "https://animefire.plus/img/animes/nanatsu-no-taizai-kamigami-no-gekirin/",
      "secao": "dublados,legendados",
      "pagina": 19,
      "total_episodios": 24,
      "link_video": "https://animefire.plus/video/nanatsu-no-taizai-kamigami-no-gekirin-dublado"
    },
    {
      "id": 2667,
      "nome": "Nanatsu no Taizai: Mokushiroku no Yonkishi (Dublado)",
      "link": "https://animefire.plus/animes/nanatsu-no-taizai-mokushiroku-no-yonkishi-dublado-todos-os-episodios",
      "texto_original": "Nanatsu no Taizai: Mokushiroku no Yonkishi (Dublado)",
      "rating": 7.26,
      "classificacao_etaria": "A14",
      "imagem_original": "https://animefire.plus/img/animes/nanatsu-no-taizai-mokushiroku-no-yonkishi.webp",
      "imagem_pasta": "https://animefire.plus/img/animes/nanatsu-no-taizai-mokushiroku-no-yonkishi/",
      "secao": "dublados,legendados",
      "pagina": 3,
      "total_episodios": 24,
      "link_video": "https://animefire.plus/video/nanatsu-no-taizai-mokushiroku-no-yonkishi-dublado"
    }
  ],
  "pagination": {
    "current_page": 130,
    "per_page": 20,
    "total_items": 4269,
    "total_pages": 214,
    "has_next": true,
    "has_prev": true
  }
}
