{
  "message": "Animes da seção: legendados",
  "section": "legendados",
  "data": [
    {
      "id": 4214,
      "nome": "Yami Shibai 7",
      "link": "https://animefire.plus/animes/yami-shibai-7-todos-os-episodios",
      "texto_original": "Yami Shibai 7",
      "rating": 5.91,
      "classificacao_etaria": "A14",
      "imagem_original": "https://animefire.plus/img/animes/yami-shibai-7.webp",
      "imagem_pasta": "https://animefire.plus/img/animes/yami-shibai-7/",
      "secao": "legendados",
      "pagina": 84,
      "total_episodios": 13,
      "link_video": "https://animefire.plus/video/yami-shibai-7"
    },
    {
      "id": 4215,
      "nome": "Yami Shibai 8",
      "link": "https://animefire.plus/animes/yami-shibai-8-todos-os-episodios",
      "texto_original": "Yami Shibai 8",
      "rating": 5.83,
      "classificacao_etaria": "A14",
      "imagem_original": "https://animefire.plus/img/animes/yami-shibai-8.webp",
      "imagem_pasta": "https://animefire.plus/img/animes/yami-shibai-8/",
      "secao": "legendados",
      "pagina": 49,
      "total_episodios": 13,
      "link_video": "https://animefire.plus/video/yami-shibai-8"
    },
    {
      "id": 4216,
      "nome": "Yami Shibai 9",
      "link": "https://animefire.plus/animes/yami-shibai-9-todos-os-episodios",
      "texto_original": "Yami Shibai 9",
      "rating": 5.92,
      "classificacao_etaria": "A14",
      "imagem_original": "https://animefire.plus/img/animes/yami-shibai-9.webp",
      "imagem_pasta": "https://animefire.plus/img/animes/yami-shibai-9/",
      "secao": "legendados",
      "pagina": 40,
      "total_episodios": 13,
      "link_video": "https://animefire.plus/video/yami-shibai-9"
    },
    {
      "id": 4217,
      "nome": "Yami To Boushi To Hon No Tabibito",
      "link": "https://animefire.plus/animes/yami-to-boushi-to-hon-no-tabibito-todos-os-episodios",
      "texto_original": "Yami To Boushi To Hon No Tabibito",
      "rating": 6.65,
      "classificacao_etaria": "A18",
      "imagem_original": "https://animefire.plus/img/animes/yami-to-boushi-to-hon-no-tabibito.webp",
      "imagem_pasta": "https://animefire.plus/img/animes/yami-to-boushi-to-hon-no-tabibito/",
      "secao": "legendados",
      "pagina": 102,
      "total_episodios": 13,
      "link_video": "https://animefire.plus/video/yami-to-boushi-to-hon-no-tabibito"
    },
    {
      "id": 4218,
      "nome": "Yankee-kun na Yamada-kun to Megane-chan to Majo",
      "link": "https://animefire.plus/animes/yankee-kun-na-yamada-kun-to-megane-chan-to-majo-todos-os-episodios",
      "texto_original": "Yankee-kun na Yamada-kun to Megane-chan to Majo",
      "rating": 7.15,
      "classificacao_etaria": "A14",
      "imagem_original": "https://animefire.plus/img/animes/yankee-kun-na-yamada-kun-to-megane-chan-to-majo.webp",
      "imagem_pasta": "https://animefire.plus/img/animes/yankee-kun-na-yamada-kun-to-megane-chan-to-majo/",
      "secao": "legendados",
      "pagina": 89,
      "total_episodios": 1,
      "link_video": "https://animefire.plus/video/yankee-kun-na-yamada-kun-to-megane-chan-to-majo"
    },
    {
      "id": 4219,
      "nome": "Yao Jing Zhong Zhi Shou Ce",
      "link": "https://animefire.plus/animes/yao-jing-zhong-zhi-shou-ce-todos-os-episodios",
      "texto_original": "Yao Jing Zhong Zhi Shou Ce",
      "rating": 6.57,
      "classificacao_etaria": "A14",
      "imagem_original": "https://animefire.plus/img/animes/yao-jing-zhong-zhi-shou-ce.webp",
      "imagem_pasta": "https://animefire.plus/img/animes/yao-jing-zhong-zhi-shou-ce/",
      "secao": "legendados",
      "pagina": 92,
      "total_episodios": 0,
      "link_video": "https://animefire.plus/video/yao-jing-zhong-zhi-shou-ce"
    },
    {
      "id": 4220,
      "nome": "Yaoguai Mingdan",
      "link": "https://animefire.plus/animes/yaoguai-mingdan-todos-os-episodios",
      "texto_original": "Yaoguai Mingdan",
      "rating": 7.12,
      "classificacao_etaria": "A14",
      "imagem_original": "https://animefire.plus/img/animes/yaoguai-mingdan.webp",
      "imagem_pasta": "https://animefire.plus/img/animes/yaoguai-mingdan/",
      "secao": "legendados",
      "pagina": 131,
      "total_episodios": 18,
      "link_video": "https://animefire.plus/video/yaoguai-mingdan"
    },
    {
      "id": 4221,
      "nome": "Yaoguai Mingdan 2nd Season",
      "link": "https://animefire.plus/animes/yaoguai-mingdan-2nd-season-todos-os-episodios",
      "texto_original": "Yaoguai Mingdan 2nd Season",
      "rating": 7.78,
      "classificacao_etaria": "A16",
      "imagem_original": "https://animefire.plus/img/animes/yaoguai-mingdan-2nd-season.webp",
      "imagem_pasta": "https://animefire.plus/img/animes/yaoguai-mingdan-2nd-season/",
      "secao": "legendados",
      "pagina": 82,
      "total_episodios": 21,
      "link_video": "https://animefire.plus/video/yaoguai-mingdan-2nd-season"
    },
    {
      "id": 4222,
      "nome": "Yarichin☆Bitch-bu",
      "link": "https://animefire.plus/animes/yarichin-bitch-bu-todos-os-episodios",
      "texto_original": "Yarichin☆Bitch-bu",
      "rating": 7.11,
      "classificacao_etaria": "A18",
      "imagem_original": "https://animefire.plus/img/animes/yarichin-bitch-bu.webp",
      "imagem_pasta": "https://animefire.plus/img/animes/yarichin-bitch-bu/",
      "secao": "legendados",
      "pagina": 89,
      "total_episodios": 2,
      "link_video": "https://animefire.plus/video/yarichin-bitch-bu"
    },
    {
      "id": 4223,
      "nome": "Yarinaoshi Reijou wa Ryuutei Heika wo Kouryakuchuu",
      "link": "https://animefire.plus/animes/yarinaoshi-reijou-wa-ryuutei-heika-wo-kouryakuchuu-todos-os-episodios",
      "texto_original": "Yarinaoshi Reijou wa Ryuutei Heika wo Kouryakuchuu",
      "rating": 7.01,
      "classificacao_etaria": "A14",
      "imagem_original": "https://animefire.plus/img/animes/yarinaoshi-reijou-wa-ryuutei-heika-wo-kouryakuchuu.webp",
      "imagem_pasta": "https://animefire.plus/img/animes/yarinaoshi-reijou-wa-ryuutei-heika-wo-kouryakuchuu/",
      "secao": "legendados",
      "pagina": 11,
      "total_episodios": 12,
      "link_video": "https://animefire.plus/video/yarinaoshi-reijou-wa-ryuutei-heika-wo-kouryakuchuu"
    },
    {
      "id": 4224,
      "nome": "Yasuke (Dublado)",
      "link": "https://animefire.plus/animes/yasuke-dublado-todos-os-episodios",
      "texto_original": "Yasuke (Dublado)",
      "rating": 5.75,
      "classificacao_etaria": "A16",
      "imagem_original": "https://animefire.plus/img/animes/yasuke.webp",
      "imagem_pasta": "https://animefire.plus/img/animes/yasuke/",
      "secao": "dublados,legendados",
      "pagina": 18,
      "total_episodios": 6,
      "link_video": "https://animefire.plus/video/yasuke-dublado"
    },
    {
      "id": 4225,
      "nome": "Yatogame-chan Kansatsu Nikki",
      "link": "https://animefire.plus/animes/yatogame-chan-kansatsu-nikki-todos-os-episodios",
      "texto_original": "Yatogame-chan Kansatsu Nikki",
      "rating": 6.21,
      "classificacao_etaria": "A14",
      "imagem_original": "https://animefire.plus/img/animes/yatogame-chan-kansatsu-nikki.webp",
      "imagem_pasta": "https://animefire.plus/img/animes/yatogame-chan-kansatsu-nikki/",
      "secao": "legendados",
      "pagina": 166,
      "total_episodios": 0,
      "link_video": "https://animefire.plus/video/yatogame-chan-kansatsu-nikki"
    },
    {
      "id": 4226,
      "nome": "Yatogame-chan Kansatsu Nikki 4th Season",
      "link": "https://animefire.plus/animes/yatogame-chan-kansatsu-nikki-4-todos-os-episodios",
      "texto_original": "Yatogame-chan Kansatsu Nikki 4th Season",
      "rating": 6.3,
      "classificacao_etaria": "A14",
      "imagem_original": "https://animefire.plus/img/animes/yatogame-chan-kansatsu-nikki-4.webp",
      "imagem_pasta": "https://animefire.plus/img/animes/yatogame-chan-kansatsu-nikki-4/",
      "secao": "legendados",
      "pagina": 33,
      "total_episodios": 1,
      "link_video": "https://animefire.plus/video/yatogame-chan-kansatsu-nikki-4"
    },
    {
      "id": 4227,
      "nome": "Yatogame-chan Kansatsu Nikki Nisatsume",
      "link": "https://animefire.plus/animes/yatogame-chan-kansatsu-nikki-nisatsume-todos-os-episodios",
      "texto_original": "Yatogame-chan Kansatsu Nikki Nisatsume",
      "rating": 6.31,
      "classificacao_etaria": "A14",
      "imagem_original": "https://animefire.plus/img/animes/yatogame-chan-kansatsu-nikki-nisatsume.webp",
      "imagem_pasta": "https://animefire.plus/img/animes/yatogame-chan-kansatsu-nikki-nisatsume/",
      "secao": "legendados",
      "pagina": 93,
      "total_episodios": 12,
      "link_video": "https://animefire.plus/video/yatogame-chan-kansatsu-nikki-nisatsume"
    },
    {
      "id": 4228,
      "nome": "Yatogame-chan Kansatsu Nikki Sansatsume",
      "link": "https://animefire.plus/animes/yatogame-chan-kansatsu-nikki-sansatsume-todos-os-episodios",
      "texto_original": "Yatogame-chan Kansatsu Nikki Sansatsume",
      "rating": 6.38,
      "classificacao_etaria": "A14",
      "imagem_original": "https://animefire.plus/img/animes/yatogame-chan-kansatsu-nikki-sansatsume.webp",
      "imagem_pasta": "https://animefire.plus/img/animes/yatogame-chan-kansatsu-nikki-sansatsume/",
      "secao": "legendados",
      "pagina": 49,
      "total_episodios": 12,
      "link_video": "https://animefire.plus/video/yatogame-chan-kansatsu-nikki-sansatsume"
    },
    {
      "id": 4229,
      "nome": "Yatogame-chan Kansatsu Nikki Yonsatsume",
      "link": "https://animefire.plus/animes/yatogame-chan-kansatsu-nikki-yonsatsume-todos-os-episodios",
      "texto_original": "Yatogame-chan Kansatsu Nikki Yonsatsume",
      "rating": 6.3,
      "classificacao_etaria": "A14",
      "imagem_original": "https://animefire.plus/img/animes/yatogame-chan-kansatsu-nikki-yonsatsume.webp",
      "imagem_pasta": "https://animefire.plus/img/animes/yatogame-chan-kansatsu-nikki-yonsatsume/",
      "secao": "legendados",
      "pagina": 33,
      "total_episodios": 10,
      "link_video": "https://animefire.plus/video/yatogame-chan-kansatsu-nikki-yonsatsume"
    },
    {
      "id": 4230,
      "nome": "Yawara!",
      "link": "https://animefire.plus/animes/yawara-todos-os-episodios",
      "texto_original": "Yawara!",
      "rating": 7.47,
      "classificacao_etaria": "A14",
      "imagem_original": "https://animefire.plus/img/animes/yawara.webp",
      "imagem_pasta": "https://animefire.plus/img/animes/yawara/",
      "secao": "legendados",
      "pagina": 43,
      "total_episodios": 53,
      "link_video": "https://animefire.plus/video/yawara"
    },
    {
      "id": 4231,
      "nome": "Yeosin Gangnim",
      "link": "https://animefire.plus/animes/yeosin-gangnim-todos-os-episodios",
      "texto_original": "Yeosin Gangnim",
      "rating": 6.6,
      "classificacao_etaria": "A14",
      "imagem_original": "https://animefire.plus/img/animes/yeosin-gangnim.webp",
      "imagem_pasta": "https://animefire.plus/img/animes/yeosin-gangnim/",
      "secao": "legendados",
      "pagina": 10,
      "total_episodios": 13,
      "link_video": "https://animefire.plus/video/yeosin-gangnim"
    },
    {
      "id": 4232,
      "nome": "Yes! Precure 5 GoGo!",
      "link": "https://animefire.plus/animes/yes-precure-5-gogo-todos-os-episodios",
      "texto_original": "Yes! Precure 5 GoGo!",
      "rating": 7.15,
      "classificacao_etaria": null,
      "imagem_original": "https://animefire.plus/img/animes/yes-precure-5-gogo.webp",
      "imagem_pasta": "https://animefire.plus/img/animes/yes-precure-5-gogo/",
      "secao": "legendados",
      "pagina": 66,
      "total_episodios": 48,
      "link_video": "https://animefire.plus/video/yes-precure-5-gogo"
    },
    {
      "id": 4233,
      "nome": "Yesterday Wo Utatte",
      "link": "https://animefire.plus/animes/yesterday-wo-utatte-todos-os-episodios",
      "texto_original": "Yesterday Wo Utatte",
      "rating": 7.01,
      "classificacao_etaria": "A14",
      "imagem_original": "https://animefire.plus/img/animes/yesterday-wo-utatte.webp",
      "imagem_pasta": "https://animefire.plus/img/animes/yesterday-wo-utatte/",
      "secao": "legendados",
      "pagina": 60,
      "total_episodios": 1,
      "link_video": "https://animefire.plus/video/yesterday-wo-utatte"
    }
  ],
  "pagination": {
    "current_page": 207,
    "per_page": 20,
    "total_items": 4269,
    "total_pages": 214,
    "has_next": true,
    "has_prev": true
  }
}
