{
  "message": "Animes da seção: legendados",
  "section": "legendados",
  "data": [
    {
      "id": 244,
      "nome": "ARP Backstage Pass",
      "link": "https://animefire.plus/animes/arp-backstage-pass-todos-os-episodios",
      "texto_original": "ARP Backstage Pass",
      "rating": 5.59,
      "classificacao_etaria": "A14",
      "imagem_original": "https://animefire.plus/img/animes/arp-backstage-pass.webp",
      "imagem_pasta": "https://animefire.plus/img/animes/arp-backstage-pass/",
      "secao": "legendados",
      "pagina": 92,
      "total_episodios": 1,
      "link_video": "https://animefire.plus/video/arp-backstage-pass"
    },
    {
      "id": 245,
      "nome": "Ars no Kyojuu",
      "link": "https://animefire.plus/animes/ars-no-kyojuu-todos-os-episodios",
      "texto_original": "Ars no Kyojuu",
      "rating": 6.04,
      "classificacao_etaria": "A14",
      "imagem_original": "https://animefire.plus/img/animes/ars-no-kyojuu.webp",
      "imagem_pasta": "https://animefire.plus/img/animes/ars-no-kyojuu/",
      "secao": "legendados",
      "pagina": 26,
      "total_episodios": 12,
      "link_video": "https://animefire.plus/video/ars-no-kyojuu"
    },
    {
      "id": 246,
      "nome": "Arslan Senki (TV)",
      "link": "https://animefire.plus/animes/arslan-senki-tv-todos-os-episodios",
      "texto_original": "Arslan Senki (TV)",
      "rating": 7.77,
      "classificacao_etaria": "A16",
      "imagem_original": "https://animefire.plus/img/animes/arslan-senki-tv.webp",
      "imagem_pasta": "https://animefire.plus/img/animes/arslan-senki-tv/",
      "secao": "legendados",
      "pagina": 95,
      "total_episodios": 4,
      "link_video": "https://animefire.plus/video/arslan-senki-tv"
    },
    {
      "id": 247,
      "nome": "Arslan Senki (TV): Fuujin Ranbu",
      "link": "https://animefire.plus/animes/arslan-senki-tv-fuujin-ranbu-todos-os-episodios",
      "texto_original": "Arslan Senki (TV): Fuujin Ranbu",
      "rating": 7.59,
      "classificacao_etaria": "A14",
      "imagem_original": "https://animefire.plus/img/animes/arslan-senki-tv-fuujin-ranbu.webp",
      "imagem_pasta": "https://animefire.plus/img/animes/arslan-senki-tv-fuujin-ranbu/",
      "secao": "legendados",
      "pagina": 124,
      "total_episodios": 0,
      "link_video": "https://animefire.plus/video/arslan-senki-tv-fuujin-ranbu"
    },
    {
      "id": 248,
      "nome": "Arte",
      "link": "https://animefire.plus/animes/arte-todos-os-episodios",
      "texto_original": "Arte",
      "rating": 7.17,
      "classificacao_etaria": "A14",
      "imagem_original": "https://animefire.plus/img/animes/arte.webp",
      "imagem_pasta": "https://animefire.plus/img/animes/arte/",
      "secao": "legendados",
      "pagina": 60,
      "total_episodios": 8,
      "link_video": "https://animefire.plus/video/arte"
    },
    {
      "id": 249,
      "nome": "Aru Asa Dummy Head Mic ni Natteita Ore-kun no Jinsei",
      "link": "https://animefire.plus/animes/aru-asa-dummy-head-mic-ni-natteita-ore-kun-no-jinsei-todos-os-episodios",
      "texto_original": "Aru Asa Dummy Head Mic ni Natteita Ore-kun no Jinsei",
      "rating": 5,
      "classificacao_etaria": "A14",
      "imagem_original": "https://animefire.plus/img/animes/aru-asa-dummy-head-mic-ni-natteita-ore-kun-no-jinsei.webp",
      "imagem_pasta": "https://animefire.plus/img/animes/aru-asa-dummy-head-mic-ni-natteita-ore-kun-no-jinsei/",
      "secao": "legendados,lancamentos",
      "pagina": 28,
      "total_episodios": 2,
      "link_video": "https://animefire.plus/video/aru-asa-dummy-head-mic-ni-natteita-ore-kun-no-jinsei"
    },
    {
      "id": 250,
      "nome": "Aru Majo ga Shinu Made",
      "link": "https://animefire.plus/animes/aru-majo-ga-shinu-made-todos-os-episodios",
      "texto_original": "Aru Majo ga Shinu Made",
      "rating": 7.35,
      "classificacao_etaria": "A14",
      "imagem_original": "https://animefire.plus/img/animes/aru-majo-ga-shinu-made.webp",
      "imagem_pasta": "https://animefire.plus/img/animes/aru-majo-ga-shinu-made/",
      "secao": "legendados",
      "pagina": 5,
      "total_episodios": 12,
      "link_video": "https://animefire.plus/video/aru-majo-ga-shinu-made"
    },
    {
      "id": 251,
      "nome": "Aru Tabibito no Nikki",
      "link": "https://animefire.plus/animes/aru-tabibito-no-nikki-todos-os-episodios",
      "texto_original": "Aru Tabibito no Nikki",
      "rating": 7.16,
      "classificacao_etaria": null,
      "imagem_original": "https://animefire.plus/img/animes/aru-tabibito-no-nikki.webp",
      "imagem_pasta": "https://animefire.plus/img/animes/aru-tabibito-no-nikki/",
      "secao": "legendados",
      "pagina": 69,
      "total_episodios": 6,
      "link_video": "https://animefire.plus/video/aru-tabibito-no-nikki"
    },
    {
      "id": 252,
      "nome": "Aru Tabibito no Nikki Specials",
      "link": "https://animefire.plus/animes/aru-tabibito-no-nikki-specials-todos-os-episodios",
      "texto_original": "Aru Tabibito no Nikki Specials",
      "rating": 6.41,
      "classificacao_etaria": null,
      "imagem_original": "https://animefire.plus/img/animes/aru-tabibito-no-nikki-specials.webp",
      "imagem_pasta": "https://animefire.plus/img/animes/aru-tabibito-no-nikki-specials/",
      "secao": "legendados",
      "pagina": 72,
      "total_episodios": 3,
      "link_video": "https://animefire.plus/video/aru-tabibito-no-nikki-specials"
    },
    {
      "id": 253,
      "nome": "Asagao to Kase-san.",
      "link": "https://animefire.plus/animes/asagao-to-kase-san-todos-os-episodios",
      "texto_original": "Asagao to Kase-san.",
      "rating": 7.89,
      "classificacao_etaria": "A14",
      "imagem_original": "https://animefire.plus/img/animes/asagao-to-kase-san.webp",
      "imagem_pasta": "https://animefire.plus/img/animes/asagao-to-kase-san/",
      "secao": "legendados",
      "pagina": 109,
      "total_episodios": 0,
      "link_video": "https://animefire.plus/video/asagao-to-kase-san"
    },
    {
      "id": 254,
      "nome": "Asagiri no Miko",
      "link": "https://animefire.plus/animes/asagiri-no-miko-todos-os-episodios",
      "texto_original": "Asagiri no Miko",
      "rating": 6.24,
      "classificacao_etaria": "A10",
      "imagem_original": "https://animefire.plus/img/animes/asagiri-no-miko.webp",
      "imagem_pasta": "https://animefire.plus/img/animes/asagiri-no-miko/",
      "secao": "legendados",
      "pagina": 137,
      "total_episodios": 13,
      "link_video": "https://animefire.plus/video/asagiri-no-miko"
    },
    {
      "id": 255,
      "nome": "Asateer: Mirai no Mukashi Banashi",
      "link": "https://animefire.plus/animes/asateer-mirai-no-mukashi-banashi-todos-os-episodios",
      "texto_original": "Asateer: Mirai no Mukashi Banashi",
      "rating": 5.89,
      "classificacao_etaria": "A10",
      "imagem_original": "https://animefire.plus/img/animes/asateer-mirai-no-mukashi-banashi.webp",
      "imagem_pasta": "https://animefire.plus/img/animes/asateer-mirai-no-mukashi-banashi/",
      "secao": "legendados,lancamentos",
      "pagina": 81,
      "total_episodios": 0,
      "link_video": "https://animefire.plus/video/asateer-mirai-no-mukashi-banashi"
    },
    {
      "id": 256,
      "nome": "Asatir 2: Mirai no Mukashi Banashi",
      "link": "https://animefire.plus/animes/asatir-2-mirai-no-mukashi-banashi-todos-os-episodios",
      "texto_original": "Asatir 2: Mirai no Mukashi Banashi",
      "rating": 6.37,
      "classificacao_etaria": "A10",
      "imagem_original": "https://animefire.plus/img/animes/asatir-2-mirai-no-mukashi-banashi.webp",
      "imagem_pasta": "https://animefire.plus/img/animes/asatir-2-mirai-no-mukashi-banashi/",
      "secao": "legendados",
      "pagina": 8,
      "total_episodios": 13,
      "link_video": "https://animefire.plus/video/asatir-2-mirai-no-mukashi-banashi"
    },
    {
      "id": 257,
      "nome": "Asatir: Mirai No Mukashi Banashi",
      "link": "https://animefire.plus/animes/asatir-mirai-no-mukashi-banashi-todos-os-episodios",
      "texto_original": "Asatir: Mirai No Mukashi Banashi",
      "rating": 5.89,
      "classificacao_etaria": "A10",
      "imagem_original": "https://animefire.plus/img/animes/asatir-mirai-no-mukashi-banashi.webp",
      "imagem_pasta": "https://animefire.plus/img/animes/asatir-mirai-no-mukashi-banashi/",
      "secao": "legendados,lancamentos",
      "pagina": 60,
      "total_episodios": 1,
      "link_video": "https://animefire.plus/video/asatir-mirai-no-mukashi-banashi"
    },
    {
      "id": 258,
      "nome": "Ashiaraiyashiki no Juunin-tachi.",
      "link": "https://animefire.plus/animes/ashiaraiyashiki-no-juunin-tachi-todos-os-episodios",
      "texto_original": "Ashiaraiyashiki no Juunin-tachi.",
      "rating": 5.06,
      "classificacao_etaria": "A14",
      "imagem_original": "https://animefire.plus/img/animes/ashiaraiyashiki-no-juunin-tachi.webp",
      "imagem_pasta": "https://animefire.plus/img/animes/ashiaraiyashiki-no-juunin-tachi/",
      "secao": "legendados",
      "pagina": 69,
      "total_episodios": 1,
      "link_video": "https://animefire.plus/video/ashiaraiyashiki-no-juunin-tachi"
    },
    {
      "id": 259,
      "nome": "Ashita no Joe",
      "link": "https://animefire.plus/animes/ashita-no-joe-todos-os-episodios",
      "texto_original": "Ashita no Joe",
      "rating": 8.21,
      "classificacao_etaria": "A14",
      "imagem_original": "https://animefire.plus/img/animes/ashita-no-joe.webp",
      "imagem_pasta": "https://animefire.plus/img/animes/ashita-no-joe/",
      "secao": "legendados",
      "pagina": 131,
      "total_episodios": 0,
      "link_video": "https://animefire.plus/video/ashita-no-joe"
    },
    {
      "id": 260,
      "nome": "Ashita no Joe 2",
      "link": "https://animefire.plus/animes/ashita-no-joe-2-todos-os-episodios",
      "texto_original": "Ashita no Joe 2",
      "rating": 8.52,
      "classificacao_etaria": "A14",
      "imagem_original": "https://animefire.plus/img/animes/ashita-no-joe-2.webp",
      "imagem_pasta": "https://animefire.plus/img/animes/ashita-no-joe-2/",
      "secao": "legendados",
      "pagina": 161,
      "total_episodios": 47,
      "link_video": "https://animefire.plus/video/ashita-no-joe-2"
    },
    {
      "id": 261,
      "nome": "Ashita no Nadja (Dublado)",
      "link": "https://animefire.plus/animes/ashita-no-nadja-dublado-todos-os-episodios",
      "texto_original": "Ashita no Nadja (Dublado)",
      "rating": 7.6,
      "classificacao_etaria": null,
      "imagem_original": "https://animefire.plus/img/animes/ashita-no-nadja.webp",
      "imagem_pasta": "https://animefire.plus/img/animes/ashita-no-nadja/",
      "secao": "dublados,legendados",
      "pagina": 22,
      "total_episodios": 50,
      "link_video": "https://animefire.plus/video/ashita-no-nadja-dublado"
    },
    {
      "id": 262,
      "nome": "Asobi Asobase",
      "link": "https://animefire.plus/animes/asobi-asobase-todos-os-episodios",
      "texto_original": "Asobi Asobase",
      "rating": 8.23,
      "classificacao_etaria": "A14",
      "imagem_original": "https://animefire.plus/img/animes/asobi-asobase.webp",
      "imagem_pasta": "https://animefire.plus/img/animes/asobi-asobase/",
      "secao": "legendados",
      "pagina": 170,
      "total_episodios": 12,
      "link_video": "https://animefire.plus/video/asobi-asobase"
    },
    {
      "id": 263,
      "nome": "Asobi Asobase OVA",
      "link": "https://animefire.plus/animes/asobi-asobase-ova-todos-os-episodios",
      "texto_original": "Asobi Asobase OVA",
      "rating": 7.51,
      "classificacao_etaria": "A14",
      "imagem_original": "https://animefire.plus/img/animes/asobi-asobase-ova.webp",
      "imagem_pasta": "https://animefire.plus/img/animes/asobi-asobase-ova/",
      "secao": "legendados",
      "pagina": 85,
      "total_episodios": 1,
      "link_video": "https://animefire.plus/video/asobi-asobase-ova"
    }
  ],
  "pagination": {
    "current_page": 13,
    "per_page": 20,
    "total_items": 4269,
    "total_pages": 214,
    "has_next": true,
    "has_prev": true
  }
}
