{
  "message": "Animes da seção: legendados",
  "section": "legendados",
  "data": [
    {
      "id": 1788,
      "nome": "Kagi Hime Monogatari: Eikyuu Alice Rondo",
      "link": "https://animefire.plus/animes/kagi-hime-monogatari-eikyuu-alice-rondo-todos-os-episodios",
      "texto_original": "Kagi Hime Monogatari: Eikyuu Alice Rondo",
      "rating": 6.24,
      "classificacao_etaria": "A14",
      "imagem_original": "https://animefire.plus/img/animes/kagi-hime-monogatari-eikyuu-alice-rondo.webp",
      "imagem_pasta": "https://animefire.plus/img/animes/kagi-hime-monogatari-eikyuu-alice-rondo/",
      "secao": "legendados",
      "pagina": 71,
      "total_episodios": 13,
      "link_video": "https://animefire.plus/video/kagi-hime-monogatari-eikyuu-alice-rondo"
    },
    {
      "id": 1789,
      "nome": "Kaginado",
      "link": "https://animefire.plus/animes/kaginado-todos-os-episodios",
      "texto_original": "Kaginado",
      "rating": 7.13,
      "classificacao_etaria": "A14",
      "imagem_original": "https://animefire.plus/img/animes/kaginado.webp",
      "imagem_pasta": "https://animefire.plus/img/animes/kaginado/",
      "secao": "legendados",
      "pagina": 37,
      "total_episodios": 12,
      "link_video": "https://animefire.plus/video/kaginado"
    },
    {
      "id": 1790,
      "nome": "Kaginado Season 2",
      "link": "https://animefire.plus/animes/kaginado-season-2-todos-os-episodios",
      "texto_original": "Kaginado Season 2",
      "rating": 7.35,
      "classificacao_etaria": "A14",
      "imagem_original": "https://animefire.plus/img/animes/kaginado-season-2.webp",
      "imagem_pasta": "https://animefire.plus/img/animes/kaginado-season-2/",
      "secao": "legendados",
      "pagina": 33,
      "total_episodios": 12,
      "link_video": "https://animefire.plus/video/kaginado-season-2"
    },
    {
      "id": 1791,
      "nome": "Kaguya-sama wa Kokurasetai: First Kiss wa Owaranai",
      "link": "https://animefire.plus/animes/kaguya-sama-wa-kokurasetai-first-kiss-wa-owaranai-todos-os-episodios",
      "texto_original": "Kaguya-sama wa Kokurasetai: First Kiss wa Owaranai",
      "rating": 8.73,
      "classificacao_etaria": "A14",
      "imagem_original": "https://animefire.plus/img/animes/kaguya-sama-wa-kokurasetai-first-kiss-wa-owaranai.jpg",
      "imagem_pasta": "https://animefire.plus/img/animes/kaguya-sama-wa-kokurasetai-first-kiss-wa-owaranai/",
      "secao": "legendados,lancamentos",
      "pagina": 25,
      "total_episodios": 4,
      "link_video": "https://animefire.plus/video/kaguya-sama-wa-kokurasetai-first-kiss-wa-owaranai"
    },
    {
      "id": 1793,
      "nome": "Kaguya-sama wa Kokurasetai: Tensai-tachi no Renai Zunousen OVA",
      "link": "https://animefire.plus/animes/kaguya-sama-wa-kokurasetai-tensai-tachi-no-renai-zunousen-ova-todos-os-episodios",
      "texto_original": "Kaguya-sama wa Kokurasetai: Tensai-tachi no Renai Zunousen OVA",
      "rating": 7.58,
      "classificacao_etaria": "A14",
      "imagem_original": "https://animefire.plus/img/animes/kaguya-sama-wa-kokurasetai-tensai-tachi-no-renai-zunousen-ova.webp",
      "imagem_pasta": "https://animefire.plus/img/animes/kaguya-sama-wa-kokurasetai-tensai-tachi-no-renai-zunousen-ova/",
      "secao": "legendados",
      "pagina": 46,
      "total_episodios": 1,
      "link_video": "https://animefire.plus/video/kaguya-sama-wa-kokurasetai-tensai-tachi-no-renai-zunousen-ova"
    },
    {
      "id": 1794,
      "nome": "Kaguya-sama wa Kokurasetai: Ultra Romantic (Dublado)",
      "link": "https://animefire.plus/animes/kaguya-sama-wa-kokurasetai-ultra-romantic-dublado-todos-os-episodios",
      "texto_original": "Kaguya-sama wa Kokurasetai: Ultra Romantic (Dublado)",
      "rating": 8.97,
      "classificacao_etaria": "A14",
      "imagem_original": "https://animefire.plus/img/animes/kaguya-sama-wa-kokurasetai-ultra-romantic.webp",
      "imagem_pasta": "https://animefire.plus/img/animes/kaguya-sama-wa-kokurasetai-ultra-romantic/",
      "secao": "dublados,legendados",
      "pagina": 11,
      "total_episodios": 13,
      "link_video": "https://animefire.plus/video/kaguya-sama-wa-kokurasetai-ultra-romantic-dublado"
    },
    {
      "id": 1795,
      "nome": "Kaguya-sama wa Kokurasetai?: Tensai-tachi no Renai Zunousen",
      "link": "https://animefire.plus/animes/kaguya-sama-love-is-war-season-2-todos-os-episodios",
      "texto_original": "Kaguya-sama wa Kokurasetai?: Tensai-tachi no Renai Zunousen",
      "rating": 8.74,
      "classificacao_etaria": "A14",
      "imagem_original": "https://animefire.plus/img/animes/kaguya-sama-love-is-war-season-2.webp",
      "imagem_pasta": "https://animefire.plus/img/animes/kaguya-sama-love-is-war-season-2/",
      "secao": "legendados",
      "pagina": 61,
      "total_episodios": 6,
      "link_video": "https://animefire.plus/video/kaguya-sama-love-is-war-season-2"
    },
    {
      "id": 1796,
      "nome": "Kaguya-sama wa Kokurasetai?: Tensai-tachi no Renai Zunousen (Dublado)",
      "link": "https://animefire.plus/animes/kaguya-sama-wa-kokurasetai-tensai-tachi-no-renai-zunousen-dublado-todos-os-episodios",
      "texto_original": "Kaguya-sama wa Kokurasetai?: Tensai-tachi no Renai Zunousen (Dublado)",
      "rating": 8.68,
      "classificacao_etaria": "A14",
      "imagem_original": "https://animefire.plus/img/animes/kaguya-sama-love-is-war-season-2.webp",
      "imagem_pasta": "https://animefire.plus/img/animes/kaguya-sama-love-is-war-season-2/",
      "secao": "dublados,legendados",
      "pagina": 16,
      "total_episodios": 12,
      "link_video": "https://animefire.plus/video/kaguya-sama-wa-kokurasetai-tensai-tachi-no-renai-zunousen-dublado"
    },
    {
      "id": 1797,
      "nome": "Kai Byoui Ramune",
      "link": "https://animefire.plus/animes/kai-byoui-ramune-todos-os-episodios",
      "texto_original": "Kai Byoui Ramune",
      "rating": 7.15,
      "classificacao_etaria": "A14",
      "imagem_original": "https://animefire.plus/img/animes/kai-byoui-ramune.webp",
      "imagem_pasta": "https://animefire.plus/img/animes/kai-byoui-ramune/",
      "secao": "legendados",
      "pagina": 49,
      "total_episodios": 12,
      "link_video": "https://animefire.plus/video/kai-byoui-ramune"
    },
    {
      "id": 1798,
      "nome": "Kai Doh Maru",
      "link": "https://animefire.plus/animes/kai-doh-maru-todos-os-episodios",
      "texto_original": "Kai Doh Maru",
      "rating": 5.64,
      "classificacao_etaria": "A16",
      "imagem_original": "https://animefire.plus/img/animes/kai-doh-maru.webp",
      "imagem_pasta": "https://animefire.plus/img/animes/kai-doh-maru/",
      "secao": "legendados",
      "pagina": 86,
      "total_episodios": 1,
      "link_video": "https://animefire.plus/video/kai-doh-maru"
    },
    {
      "id": 1799,
      "nome": "Kai Feng Qitan: Zhege Baogong Bu Taixing",
      "link": "https://animefire.plus/animes/kai-feng-qitan-zhege-baogong-bu-taixing-todos-os-episodios",
      "texto_original": "Kai Feng Qitan: Zhege Baogong Bu Taixing",
      "rating": 6.22,
      "classificacao_etaria": "A14",
      "imagem_original": "https://animefire.plus/img/animes/kai-feng-qitan-zhege-baogong-bu-taixing.webp",
      "imagem_pasta": "https://animefire.plus/img/animes/kai-feng-qitan-zhege-baogong-bu-taixing/",
      "secao": "legendados",
      "pagina": 140,
      "total_episodios": 10,
      "link_video": "https://animefire.plus/video/kai-feng-qitan-zhege-baogong-bu-taixing"
    },
    {
      "id": 1800,
      "nome": "Kaiba",
      "link": "https://animefire.plus/animes/kaiba-todos-os-episodios",
      "texto_original": "Kaiba",
      "rating": 8.16,
      "classificacao_etaria": "A18",
      "imagem_original": "https://animefire.plus/img/animes/kaiba.webp",
      "imagem_pasta": "https://animefire.plus/img/animes/kaiba/",
      "secao": "legendados",
      "pagina": 92,
      "total_episodios": 12,
      "link_video": "https://animefire.plus/video/kaiba"
    },
    {
      "id": 1801,
      "nome": "Kaibutsu Oujo",
      "link": "https://animefire.plus/animes/kaibutsu-oujo-todos-os-episodios",
      "texto_original": "Kaibutsu Oujo",
      "rating": 7.09,
      "classificacao_etaria": "A14",
      "imagem_original": "https://animefire.plus/img/animes/kaibutsu-oujo.webp",
      "imagem_pasta": "https://animefire.plus/img/animes/kaibutsu-oujo/",
      "secao": "legendados",
      "pagina": 165,
      "total_episodios": 25,
      "link_video": "https://animefire.plus/video/kaibutsu-oujo"
    },
    {
      "id": 1802,
      "nome": "Kaibutsu Oujo (OVA)",
      "link": "https://animefire.plus/animes/kaibutsu-oujo-ova-todos-os-episodios",
      "texto_original": "Kaibutsu Oujo (OVA)",
      "rating": 7.1,
      "classificacao_etaria": "A16",
      "imagem_original": "https://animefire.plus/img/animes/kaibutsu-oujo-ova.webp",
      "imagem_pasta": "https://animefire.plus/img/animes/kaibutsu-oujo-ova/",
      "secao": "legendados",
      "pagina": 71,
      "total_episodios": 1,
      "link_video": "https://animefire.plus/video/kaibutsu-oujo-ova"
    },
    {
      "id": 1803,
      "nome": "Kaichou wa Maid-sama!",
      "link": "https://animefire.plus/animes/kaichou-wa-maid-sama-todos-os-episodios",
      "texto_original": "Kaichou wa Maid-sama!",
      "rating": 8.18,
      "classificacao_etaria": "A14",
      "imagem_original": "https://animefire.plus/img/animes/kaichou-wa-maid-sama.webp",
      "imagem_pasta": "https://animefire.plus/img/animes/kaichou-wa-maid-sama/",
      "secao": "legendados",
      "pagina": 157,
      "total_episodios": 26,
      "link_video": "https://animefire.plus/video/kaichou-wa-maid-sama"
    },
    {
      "id": 1804,
      "nome": "Kaichuu!",
      "link": "https://animefire.plus/animes/kaichuu-todos-os-episodios",
      "texto_original": "Kaichuu!",
      "rating": 5.88,
      "classificacao_etaria": "A14",
      "imagem_original": "https://animefire.plus/img/animes/kaichuu.webp",
      "imagem_pasta": "https://animefire.plus/img/animes/kaichuu/",
      "secao": "legendados",
      "pagina": 64,
      "total_episodios": 4,
      "link_video": "https://animefire.plus/video/kaichuu"
    },
    {
      "id": 1805,
      "nome": "Kaidan Restaurant",
      "link": "https://animefire.plus/animes/kaidan-restaurant-todos-os-episodios",
      "texto_original": "Kaidan Restaurant",
      "rating": 7.33,
      "classificacao_etaria": "A10",
      "imagem_original": "https://animefire.plus/img/animes/kaidan-restaurant.webp",
      "imagem_pasta": "https://animefire.plus/img/animes/kaidan-restaurant/",
      "secao": "legendados",
      "pagina": 134,
      "total_episodios": 19,
      "link_video": "https://animefire.plus/video/kaidan-restaurant"
    },
    {
      "id": 1806,
      "nome": "Kaifuku Jutsushi no Yarinaoshi",
      "link": "https://animefire.plus/animes/kaifuku-jutsushi-no-yarinaoshi-todos-os-episodios",
      "texto_original": "Kaifuku Jutsushi no Yarinaoshi",
      "rating": 6.32,
      "classificacao_etaria": "A18",
      "imagem_original": "https://animefire.plus/img/animes/kaifuku-jutsushi-no-yarinaoshi.webp",
      "imagem_pasta": "https://animefire.plus/img/animes/kaifuku-jutsushi-no-yarinaoshi/",
      "secao": "legendados",
      "pagina": 48,
      "total_episodios": 12,
      "link_video": "https://animefire.plus/video/kaifuku-jutsushi-no-yarinaoshi"
    },
    {
      "id": 1807,
      "nome": "Kaii to Otome to Kamikakushi",
      "link": "https://animefire.plus/animes/kaii-to-otome-to-kamikakushi-todos-os-episodios",
      "texto_original": "Kaii to Otome to Kamikakushi",
      "rating": 6.76,
      "classificacao_etaria": "A14",
      "imagem_original": "https://animefire.plus/img/animes/kaii-to-otome-to-kamikakushi.webp",
      "imagem_pasta": "https://animefire.plus/img/animes/kaii-to-otome-to-kamikakushi/",
      "secao": "legendados",
      "pagina": 15,
      "total_episodios": 12,
      "link_video": "https://animefire.plus/video/kaii-to-otome-to-kamikakushi"
    },
    {
      "id": 1808,
      "nome": "Kaijin Kaihatsu-bu no Kuroitsu-san",
      "link": "https://animefire.plus/animes/kaijin-kaihatsu-bu-no-kuroitsu-san-todos-os-episodios",
      "texto_original": "Kaijin Kaihatsu-bu no Kuroitsu-san",
      "rating": 6.7,
      "classificacao_etaria": "A14",
      "imagem_original": "https://animefire.plus/img/animes/kaijin-kaihatsu-bu-no-kuroitsu-san.webp",
      "imagem_pasta": "https://animefire.plus/img/animes/kaijin-kaihatsu-bu-no-kuroitsu-san/",
      "secao": "legendados",
      "pagina": 36,
      "total_episodios": 12,
      "link_video": "https://animefire.plus/video/kaijin-kaihatsu-bu-no-kuroitsu-san"
    }
  ],
  "pagination": {
    "current_page": 88,
    "per_page": 20,
    "total_items": 4269,
    "total_pages": 214,
    "has_next": true,
    "has_prev": true
  }
}
