{
  "message": "Animes da seção: legendados",
  "section": "legendados",
  "data": [
    {
      "id": 2101,
      "nome": "Koroshi Ai (Dublado)",
      "link": "https://animefire.plus/animes/koroshi-ai-dublado-todos-os-episodios",
      "texto_original": "Koroshi Ai (Dublado)",
      "rating": 6.9,
      "classificacao_etaria": "A16",
      "imagem_original": "https://animefire.plus/img/animes/koroshi-ai.webp",
      "imagem_pasta": "https://animefire.plus/img/animes/koroshi-ai/",
      "secao": "dublados,legendados",
      "pagina": 12,
      "total_episodios": 12,
      "link_video": "https://animefire.plus/video/koroshi-ai-dublado"
    },
    {
      "id": 2102,
      "nome": "Kotarou wa Hitorigurashi (Dublado)",
      "link": "https://animefire.plus/animes/kotarou-wa-hitorigurashi-dublado-todos-os-episodios",
      "texto_original": "Kotarou wa Hitorigurashi (Dublado)",
      "rating": 8.16,
      "classificacao_etaria": "A14",
      "imagem_original": "https://animefire.plus/img/animes/kotarou-wa-hitorigurashi.webp",
      "imagem_pasta": "https://animefire.plus/img/animes/kotarou-wa-hitorigurashi/",
      "secao": "dublados,legendados",
      "pagina": 12,
      "total_episodios": 10,
      "link_video": "https://animefire.plus/video/kotarou-wa-hitorigurashi-dublado"
    },
    {
      "id": 2103,
      "nome": "Kotoura-san",
      "link": "https://animefire.plus/animes/kotoura-san-todos-os-episodios",
      "texto_original": "Kotoura-san",
      "rating": 7.33,
      "classificacao_etaria": "A14",
      "imagem_original": "https://animefire.plus/img/animes/kotoura-san.webp",
      "imagem_pasta": "https://animefire.plus/img/animes/kotoura-san/",
      "secao": "legendados",
      "pagina": 121,
      "total_episodios": 12,
      "link_video": "https://animefire.plus/video/kotoura-san"
    },
    {
      "id": 2104,
      "nome": "Koufuku Graffiti",
      "link": "https://animefire.plus/animes/koufuku-graffiti-todos-os-episodios",
      "texto_original": "Koufuku Graffiti",
      "rating": 6.83,
      "classificacao_etaria": "A14",
      "imagem_original": "https://animefire.plus/img/animes/koufuku-graffiti.webp",
      "imagem_pasta": "https://animefire.plus/img/animes/koufuku-graffiti/",
      "secao": "legendados",
      "pagina": 112,
      "total_episodios": 3,
      "link_video": "https://animefire.plus/video/koufuku-graffiti"
    },
    {
      "id": 2105,
      "nome": "Koujo Denka no Kateikyoushi",
      "link": "https://animefire.plus/animes/koujo-denka-no-kateikyoushi-todos-os-episodios",
      "texto_original": "Koujo Denka no Kateikyoushi",
      "rating": 6.67,
      "classificacao_etaria": "A14",
      "imagem_original": "https://animefire.plus/img/animes/koujo-denka-no-kateikyoushi.webp",
      "imagem_pasta": "https://animefire.plus/img/animes/koujo-denka-no-kateikyoushi/",
      "secao": "legendados,lancamentos",
      "pagina": 2,
      "total_episodios": 5,
      "link_video": "https://animefire.plus/video/koujo-denka-no-kateikyoushi"
    },
    {
      "id": 2106,
      "nome": "Koukaku Kidoutai Arise: Alternative Architecture",
      "link": "https://animefire.plus/animes/koukaku-kidoutai-arise-alternative-architecture-todos-os-episodios",
      "texto_original": "Koukaku Kidoutai Arise: Alternative Architecture",
      "rating": 7.27,
      "classificacao_etaria": "A16",
      "imagem_original": "https://animefire.plus/img/animes/koukaku-kidoutai-arise-alternative-architecture.webp",
      "imagem_pasta": "https://animefire.plus/img/animes/koukaku-kidoutai-arise-alternative-architecture/",
      "secao": "legendados",
      "pagina": 75,
      "total_episodios": 10,
      "link_video": "https://animefire.plus/video/koukaku-kidoutai-arise-alternative-architecture"
    },
    {
      "id": 2107,
      "nome": "Koukaku Kidoutai: SAC_2045 (Dublado)",
      "link": "https://animefire.plus/animes/koukaku-kidoutai-sac-2045-dublado-todos-os-episodios",
      "texto_original": "Koukaku Kidoutai: SAC_2045 (Dublado)",
      "rating": 6.74,
      "classificacao_etaria": "A16",
      "imagem_original": "https://animefire.plus/img/animes/koukaku-kidoutai-sac-2045.webp",
      "imagem_pasta": "https://animefire.plus/img/animes/koukaku-kidoutai-sac-2045/",
      "secao": "dublados,legendados",
      "pagina": 20,
      "total_episodios": 12,
      "link_video": "https://animefire.plus/video/koukaku-kidoutai-sac-2045-dublado"
    },
    {
      "id": 2108,
      "nome": "Koukaku Kidoutai: SAC_2045 Season 2 (Dublado)",
      "link": "https://animefire.plus/animes/koukaku-kidoutai-sac-2045-season-2-dublado-todos-os-episodios",
      "texto_original": "Koukaku Kidoutai: SAC_2045 Season 2 (Dublado)",
      "rating": 6.84,
      "classificacao_etaria": "A16",
      "imagem_original": "https://animefire.plus/img/animes/koukaku-kidoutai-sac-2045-season-2.webp",
      "imagem_pasta": "https://animefire.plus/img/animes/koukaku-kidoutai-sac-2045-season-2/",
      "secao": "dublados,legendados",
      "pagina": 10,
      "total_episodios": 12,
      "link_video": "https://animefire.plus/video/koukaku-kidoutai-sac-2045-season-2-dublado"
    },
    {
      "id": 2109,
      "nome": "Koukaku no Pandora",
      "link": "https://animefire.plus/animes/koukaku-no-pandora-todos-os-episodios",
      "texto_original": "Koukaku no Pandora",
      "rating": 6.59,
      "classificacao_etaria": "A14",
      "imagem_original": "https://animefire.plus/img/animes/koukaku-no-pandora.webp",
      "imagem_pasta": "https://animefire.plus/img/animes/koukaku-no-pandora/",
      "secao": "legendados",
      "pagina": 169,
      "total_episodios": 12,
      "link_video": "https://animefire.plus/video/koukaku-no-pandora"
    },
    {
      "id": 2110,
      "nome": "Koukyoushihen Eureka Seven",
      "link": "https://animefire.plus/animes/koukyoushihen-eureka-seven-todos-os-episodios",
      "texto_original": "Koukyoushihen Eureka Seven",
      "rating": 8.13,
      "classificacao_etaria": "A14",
      "imagem_original": "https://animefire.plus/img/animes/koukyoushihen-eureka-seven.webp",
      "imagem_pasta": "https://animefire.plus/img/animes/koukyoushihen-eureka-seven/",
      "secao": "legendados",
      "pagina": 119,
      "total_episodios": 5,
      "link_video": "https://animefire.plus/video/koukyoushihen-eureka-seven"
    },
    {
      "id": 2111,
      "nome": "Koukyoushihen Eureka Seven: New Order",
      "link": "https://animefire.plus/animes/koukyoushihen-eureka-seven-new-order-todos-os-episodios",
      "texto_original": "Koukyoushihen Eureka Seven: New Order",
      "rating": 6.64,
      "classificacao_etaria": "A14",
      "imagem_original": "https://animefire.plus/img/animes/koukyoushihen-eureka-seven-new-order.webp",
      "imagem_pasta": "https://animefire.plus/img/animes/koukyoushihen-eureka-seven-new-order/",
      "secao": "legendados",
      "pagina": 86,
      "total_episodios": 1,
      "link_video": "https://animefire.plus/video/koukyoushihen-eureka-seven-new-order"
    },
    {
      "id": 2112,
      "nome": "Koukyuu no Karasu",
      "link": "https://animefire.plus/animes/koukyuu-no-karasu-todos-os-episodios",
      "texto_original": "Koukyuu no Karasu",
      "rating": 7.54,
      "classificacao_etaria": "A14",
      "imagem_original": "https://animefire.plus/img/animes/koukyuu-no-karasu.webp",
      "imagem_pasta": "https://animefire.plus/img/animes/koukyuu-no-karasu/",
      "secao": "legendados",
      "pagina": 29,
      "total_episodios": 13,
      "link_video": "https://animefire.plus/video/koukyuu-no-karasu"
    },
    {
      "id": 2113,
      "nome": "Koume-chan ga Iku!",
      "link": "https://animefire.plus/animes/koume-chan-ga-iku-todos-os-episodios",
      "texto_original": "Koume-chan ga Iku!",
      "rating": 5.95,
      "classificacao_etaria": "A14",
      "imagem_original": "https://animefire.plus/img/animes/koume-chan-ga-iku.webp",
      "imagem_pasta": "https://animefire.plus/img/animes/koume-chan-ga-iku/",
      "secao": "legendados",
      "pagina": 44,
      "total_episodios": 12,
      "link_video": "https://animefire.plus/video/koume-chan-ga-iku"
    },
    {
      "id": 2114,
      "nome": "Koutetsu Sangokushi",
      "link": "https://animefire.plus/animes/koutetsu-sangokushi-todos-os-episodios",
      "texto_original": "Koutetsu Sangokushi",
      "rating": 6.37,
      "classificacao_etaria": "A14",
      "imagem_original": "https://animefire.plus/img/animes/koutetsu-sangokushi.webp",
      "imagem_pasta": "https://animefire.plus/img/animes/koutetsu-sangokushi/",
      "secao": "legendados",
      "pagina": 161,
      "total_episodios": 2,
      "link_video": "https://animefire.plus/video/koutetsu-sangokushi"
    },
    {
      "id": 2115,
      "nome": "Koutetsu Tenshi Kurumi",
      "link": "https://animefire.plus/animes/koutetsu-tenshi-kurumi-todos-os-episodios",
      "texto_original": "Koutetsu Tenshi Kurumi",
      "rating": 6.85,
      "classificacao_etaria": "A18",
      "imagem_original": "https://animefire.plus/img/animes/koutetsu-tenshi-kurumi.webp",
      "imagem_pasta": "https://animefire.plus/img/animes/koutetsu-tenshi-kurumi/",
      "secao": "legendados",
      "pagina": 165,
      "total_episodios": 0,
      "link_video": "https://animefire.plus/video/koutetsu-tenshi-kurumi"
    },
    {
      "id": 2116,
      "nome": "Koutetsu Tenshi Kurumi 2",
      "link": "https://animefire.plus/animes/koutetsu-tenshi-kurumi-2-todos-os-episodios",
      "texto_original": "Koutetsu Tenshi Kurumi 2",
      "rating": 6.36,
      "classificacao_etaria": "A18",
      "imagem_original": "https://animefire.plus/img/animes/koutetsu-tenshi-kurumi-2.webp",
      "imagem_pasta": "https://animefire.plus/img/animes/koutetsu-tenshi-kurumi-2/",
      "secao": "legendados",
      "pagina": 118,
      "total_episodios": 0,
      "link_video": "https://animefire.plus/video/koutetsu-tenshi-kurumi-2"
    },
    {
      "id": 2117,
      "nome": "Koutetsujou no Kabaneri",
      "link": "https://animefire.plus/animes/koutetsujou-no-kabaneri-todos-os-episodios",
      "texto_original": "Koutetsujou no Kabaneri",
      "rating": 7.3,
      "classificacao_etaria": "A16",
      "imagem_original": "https://animefire.plus/img/animes/koutetsujou-no-kabaneri.webp",
      "imagem_pasta": "https://animefire.plus/img/animes/koutetsujou-no-kabaneri/",
      "secao": "legendados",
      "pagina": 153,
      "total_episodios": 5,
      "link_video": "https://animefire.plus/video/koutetsujou-no-kabaneri"
    },
    {
      "id": 2118,
      "nome": "Koutetsushin Jeeg",
      "link": "https://animefire.plus/animes/koutetsushin-jeeg-todos-os-episodios",
      "texto_original": "Koutetsushin Jeeg",
      "rating": 7.02,
      "classificacao_etaria": "A14",
      "imagem_original": "https://animefire.plus/img/animes/koutetsushin-jeeg.webp",
      "imagem_pasta": "https://animefire.plus/img/animes/koutetsushin-jeeg/",
      "secao": "legendados",
      "pagina": 125,
      "total_episodios": 13,
      "link_video": "https://animefire.plus/video/koutetsushin-jeeg"
    },
    {
      "id": 2119,
      "nome": "Kouya no Kotobuki Hikoutai",
      "link": "https://animefire.plus/animes/kouya-no-kotobuki-hikoutai-todos-os-episodios",
      "texto_original": "Kouya no Kotobuki Hikoutai",
      "rating": 6.86,
      "classificacao_etaria": "A14",
      "imagem_original": "https://animefire.plus/img/animes/kouya-no-kotobuki-hikoutai.webp",
      "imagem_pasta": "https://animefire.plus/img/animes/kouya-no-kotobuki-hikoutai/",
      "secao": "legendados",
      "pagina": 102,
      "total_episodios": 12,
      "link_video": "https://animefire.plus/video/kouya-no-kotobuki-hikoutai"
    },
    {
      "id": 2120,
      "nome": "Kowabon",
      "link": "https://animefire.plus/animes/kowabon-todos-os-episodios",
      "texto_original": "Kowabon",
      "rating": 5.25,
      "classificacao_etaria": "A14",
      "imagem_original": "https://animefire.plus/img/animes/kowabon.webp",
      "imagem_pasta": "https://animefire.plus/img/animes/kowabon/",
      "secao": "legendados",
      "pagina": 59,
      "total_episodios": 13,
      "link_video": "https://animefire.plus/video/kowabon"
    }
  ],
  "pagination": {
    "current_page": 103,
    "per_page": 20,
    "total_items": 4269,
    "total_pages": 214,
    "has_next": true,
    "has_prev": true
  }
}
