{
  "message": "Animes da seção: legendados",
  "section": "legendados",
  "data": [
    {
      "id": 2485,
      "nome": "Mezzo DSA",
      "link": "https://animefire.plus/animes/mezzo-dsa-todos-os-episodios",
      "texto_original": "Mezzo DSA",
      "rating": 6.74,
      "classificacao_etaria": "A18",
      "imagem_original": "https://animefire.plus/img/animes/mezzo-dsa.webp",
      "imagem_pasta": "https://animefire.plus/img/animes/mezzo-dsa/",
      "secao": "legendados",
      "pagina": 166,
      "total_episodios": 13,
      "link_video": "https://animefire.plus/video/mezzo-dsa"
    },
    {
      "id": 2486,
      "nome": "MF Ghost (Dublado)",
      "link": "https://animefire.plus/animes/mf-ghost-dublado-todos-os-episodios",
      "texto_original": "MF Ghost (Dublado)",
      "rating": 7.56,
      "classificacao_etaria": "A14",
      "imagem_original": "https://animefire.plus/img/animes/mf-ghost.webp",
      "imagem_pasta": "https://animefire.plus/img/animes/mf-ghost/",
      "secao": "dublados,legendados",
      "pagina": 5,
      "total_episodios": 12,
      "link_video": "https://animefire.plus/video/mf-ghost-dublado"
    },
    {
      "id": 2487,
      "nome": "MF Ghost 2nd Season",
      "link": "https://animefire.plus/animes/mf-ghost-2nd-season-todos-os-episodios",
      "texto_original": "MF Ghost 2nd Season",
      "rating": 7.8,
      "classificacao_etaria": "A14",
      "imagem_original": "https://animefire.plus/img/animes/mf-ghost-2nd-season.webp",
      "imagem_pasta": "https://animefire.plus/img/animes/mf-ghost-2nd-season/",
      "secao": "legendados",
      "pagina": 9,
      "total_episodios": 12,
      "link_video": "https://animefire.plus/video/mf-ghost-2nd-season"
    },
    {
      "id": 2488,
      "nome": "Mi Yu Xing Zhe",
      "link": "https://animefire.plus/animes/mi-yu-xing-zhe-todos-os-episodios",
      "texto_original": "Mi Yu Xing Zhe",
      "rating": 7.56,
      "classificacao_etaria": "A16",
      "imagem_original": "https://animefire.plus/img/animes/mi-yu-xing-zhe.webp",
      "imagem_pasta": "https://animefire.plus/img/animes/mi-yu-xing-zhe/",
      "secao": "legendados",
      "pagina": 174,
      "total_episodios": 12,
      "link_video": "https://animefire.plus/video/mi-yu-xing-zhe"
    },
    {
      "id": 2489,
      "nome": "Miami Guns",
      "link": "https://animefire.plus/animes/miami-guns-todos-os-episodios",
      "texto_original": "Miami Guns",
      "rating": 6.56,
      "classificacao_etaria": "A16",
      "imagem_original": "https://animefire.plus/img/animes/miami-guns.webp",
      "imagem_pasta": "https://animefire.plus/img/animes/miami-guns/",
      "secao": "legendados",
      "pagina": 147,
      "total_episodios": 13,
      "link_video": "https://animefire.plus/video/miami-guns"
    },
    {
      "id": 2490,
      "nome": "Michiko to Hatchin",
      "link": "https://animefire.plus/animes/michiko-to-hatchin-todos-os-episodios",
      "texto_original": "Michiko to Hatchin",
      "rating": 7.87,
      "classificacao_etaria": "A16",
      "imagem_original": "https://animefire.plus/img/animes/michiko-to-hatchin.webp",
      "imagem_pasta": "https://animefire.plus/img/animes/michiko-to-hatchin/",
      "secao": "legendados",
      "pagina": 177,
      "total_episodios": 22,
      "link_video": "https://animefire.plus/video/michiko-to-hatchin"
    },
    {
      "id": 2491,
      "nome": "Midara na Ao-chan wa Benkyou ga Dekinai",
      "link": "https://animefire.plus/animes/midara-na-ao-chan-wa-benkyou-ga-dekinai-todos-os-episodios",
      "texto_original": "Midara na Ao-chan wa Benkyou ga Dekinai",
      "rating": 6.79,
      "classificacao_etaria": "A14",
      "imagem_original": "https://animefire.plus/img/animes/midara-na-ao-chan-wa-benkyou-ga-dekinai.webp",
      "imagem_pasta": "https://animefire.plus/img/animes/midara-na-ao-chan-wa-benkyou-ga-dekinai/",
      "secao": "legendados",
      "pagina": 160,
      "total_episodios": 0,
      "link_video": "https://animefire.plus/video/midara-na-ao-chan-wa-benkyou-ga-dekinai"
    },
    {
      "id": 2492,
      "nome": "Midnight Eye: Gokuu",
      "link": "https://animefire.plus/animes/midnight-eye-gokuu-todos-os-episodios",
      "texto_original": "Midnight Eye: Gokuu",
      "rating": 6.5,
      "classificacao_etaria": "A18",
      "imagem_original": "https://animefire.plus/img/animes/midnight-eye-gokuu.webp",
      "imagem_pasta": "https://animefire.plus/img/animes/midnight-eye-gokuu/",
      "secao": "legendados",
      "pagina": 84,
      "total_episodios": 1,
      "link_video": "https://animefire.plus/video/midnight-eye-gokuu"
    },
    {
      "id": 2493,
      "nome": "Midnight Eye: Gokuu II",
      "link": "https://animefire.plus/animes/midnight-eye-gokuu-ii-todos-os-episodios",
      "texto_original": "Midnight Eye: Gokuu II",
      "rating": 6.29,
      "classificacao_etaria": "A18",
      "imagem_original": "https://animefire.plus/img/animes/midnight-eye-gokuu-ii.webp",
      "imagem_pasta": "https://animefire.plus/img/animes/midnight-eye-gokuu-ii/",
      "secao": "legendados",
      "pagina": 84,
      "total_episodios": 1,
      "link_video": "https://animefire.plus/video/midnight-eye-gokuu-ii"
    },
    {
      "id": 2494,
      "nome": "Midori no Hibi",
      "link": "https://animefire.plus/animes/midori-no-hibi-todos-os-episodios",
      "texto_original": "Midori no Hibi",
      "rating": 7.36,
      "classificacao_etaria": "A18",
      "imagem_original": "https://animefire.plus/img/animes/midori-no-hibi.webp",
      "imagem_pasta": "https://animefire.plus/img/animes/midori-no-hibi/",
      "secao": "legendados",
      "pagina": 163,
      "total_episodios": 13,
      "link_video": "https://animefire.plus/video/midori-no-hibi"
    },
    {
      "id": 2495,
      "nome": "Mieruko-chan (Dublado)",
      "link": "https://animefire.plus/animes/mieruko-chan-dublado-todos-os-episodios",
      "texto_original": "Mieruko-chan (Dublado)",
      "rating": 7.4,
      "classificacao_etaria": "A14",
      "imagem_original": "https://animefire.plus/img/animes/mieruko-chan.webp",
      "imagem_pasta": "https://animefire.plus/img/animes/mieruko-chan/",
      "secao": "dublados,legendados",
      "pagina": 14,
      "total_episodios": 12,
      "link_video": "https://animefire.plus/video/mieruko-chan-dublado"
    },
    {
      "id": 2496,
      "nome": "Migi to Dali",
      "link": "https://animefire.plus/animes/migi-to-dali-todos-os-episodios",
      "texto_original": "Migi to Dali",
      "rating": 7.7,
      "classificacao_etaria": "A14",
      "imagem_original": "https://animefire.plus/img/animes/migi-to-dali.webp",
      "imagem_pasta": "https://animefire.plus/img/animes/migi-to-dali/",
      "secao": "legendados",
      "pagina": 20,
      "total_episodios": 13,
      "link_video": "https://animefire.plus/video/migi-to-dali"
    },
    {
      "id": 2497,
      "nome": "Miira no Kaikata",
      "link": "https://animefire.plus/animes/miira-no-kaikata-todos-os-episodios",
      "texto_original": "Miira no Kaikata",
      "rating": 7.52,
      "classificacao_etaria": "A14",
      "imagem_original": "https://animefire.plus/img/animes/miira-no-kaikata.webp",
      "imagem_pasta": "https://animefire.plus/img/animes/miira-no-kaikata/",
      "secao": "legendados",
      "pagina": 106,
      "total_episodios": 12,
      "link_video": "https://animefire.plus/video/miira-no-kaikata"
    },
    {
      "id": 2498,
      "nome": "Mikadono Sanshimai wa Angai, Choroi.",
      "link": "https://animefire.plus/animes/mikadono-sanshimai-wa-angai-choroi-todos-os-episodios",
      "texto_original": "Mikadono Sanshimai wa Angai, Choroi.",
      "rating": 7.58,
      "classificacao_etaria": "A14",
      "imagem_original": "https://animefire.plus/img/animes/mikadono-sanshimai-wa-angai-choroi.webp",
      "imagem_pasta": "https://animefire.plus/img/animes/mikadono-sanshimai-wa-angai-choroi/",
      "secao": "legendados,lancamentos",
      "pagina": 2,
      "total_episodios": 5,
      "link_video": "https://animefire.plus/video/mikadono-sanshimai-wa-angai-choroi"
    },
    {
      "id": 2499,
      "nome": "Mikagura Gakuen Kumikyoku",
      "link": "https://animefire.plus/animes/mikagura-gakuen-kumikyoku-todos-os-episodios",
      "texto_original": "Mikagura Gakuen Kumikyoku",
      "rating": 6.7,
      "classificacao_etaria": "A14",
      "imagem_original": "https://animefire.plus/img/animes/mikagura-gakuen-kumikyoku.webp",
      "imagem_pasta": "https://animefire.plus/img/animes/mikagura-gakuen-kumikyoku/",
      "secao": "legendados",
      "pagina": 61,
      "total_episodios": 2,
      "link_video": "https://animefire.plus/video/mikagura-gakuen-kumikyoku"
    },
    {
      "id": 2500,
      "nome": "Mikagura Gakuen Kumikyoku (TV)",
      "link": "https://animefire.plus/animes/mikagura-gakuen-kumikyoku-tv-todos-os-episodios",
      "texto_original": "Mikagura Gakuen Kumikyoku (TV)",
      "rating": 6.78,
      "classificacao_etaria": "A14",
      "imagem_original": "https://animefire.plus/img/animes/mikagura-gakuen-kumikyoku-tv.webp",
      "imagem_pasta": "https://animefire.plus/img/animes/mikagura-gakuen-kumikyoku-tv/",
      "secao": "legendados",
      "pagina": 126,
      "total_episodios": 1,
      "link_video": "https://animefire.plus/video/mikagura-gakuen-kumikyoku-tv"
    },
    {
      "id": 2501,
      "nome": "Mikakunin de Shinkoukei",
      "link": "https://animefire.plus/animes/mikakunin-de-shinkoukei-todos-os-episodios",
      "texto_original": "Mikakunin de Shinkoukei",
      "rating": 7.52,
      "classificacao_etaria": "A14",
      "imagem_original": "https://animefire.plus/img/animes/mikakunin-de-shinkoukei.webp",
      "imagem_pasta": "https://animefire.plus/img/animes/mikakunin-de-shinkoukei/",
      "secao": "legendados",
      "pagina": 167,
      "total_episodios": 12,
      "link_video": "https://animefire.plus/video/mikakunin-de-shinkoukei"
    },
    {
      "id": 2502,
      "nome": "Mikeneko Holmes no Yuurei Joushu",
      "link": "https://animefire.plus/animes/mikeneko-holmes-no-yuurei-joushu-todos-os-episodios",
      "texto_original": "Mikeneko Holmes no Yuurei Joushu",
      "rating": 5.95,
      "classificacao_etaria": "A14",
      "imagem_original": "https://animefire.plus/img/animes/mikeneko-holmes-no-yuurei-joushu.webp",
      "imagem_pasta": "https://animefire.plus/img/animes/mikeneko-holmes-no-yuurei-joushu/",
      "secao": "legendados",
      "pagina": 56,
      "total_episodios": 1,
      "link_video": "https://animefire.plus/video/mikeneko-holmes-no-yuurei-joushu"
    },
    {
      "id": 2503,
      "nome": "Military!",
      "link": "https://animefire.plus/animes/military-todos-os-episodios",
      "texto_original": "Military!",
      "rating": 5.84,
      "classificacao_etaria": "A14",
      "imagem_original": "https://animefire.plus/img/animes/military.webp",
      "imagem_pasta": "https://animefire.plus/img/animes/military/",
      "secao": "legendados",
      "pagina": 64,
      "total_episodios": 12,
      "link_video": "https://animefire.plus/video/military"
    },
    {
      "id": 2504,
      "nome": "Million Doll",
      "link": "https://animefire.plus/animes/million-doll-todos-os-episodios",
      "texto_original": "Million Doll",
      "rating": 4.84,
      "classificacao_etaria": "A14",
      "imagem_original": "https://animefire.plus/img/animes/million-doll.webp",
      "imagem_pasta": "https://animefire.plus/img/animes/million-doll/",
      "secao": "legendados",
      "pagina": 163,
      "total_episodios": 0,
      "link_video": "https://animefire.plus/video/million-doll"
    }
  ],
  "pagination": {
    "current_page": 122,
    "per_page": 20,
    "total_items": 4269,
    "total_pages": 214,
    "has_next": true,
    "has_prev": true
  }
}
