{
  "message": "Animes da seção: legendados",
  "section": "legendados",
  "data": [
    {
      "id": 4234,
      "nome": "Yesterday wo Utatte Haishin-ban Episode",
      "link": "https://animefire.plus/animes/yesterday-wo-utatte-haishin-ban-episode-todos-os-episodios",
      "texto_original": "Yesterday wo Utatte Haishin-ban Episode",
      "rating": 6.66,
      "classificacao_etaria": "A14",
      "imagem_original": "https://animefire.plus/img/animes/yesterday-wo-utatte-haishin-ban-episode.webp",
      "imagem_pasta": "https://animefire.plus/img/animes/yesterday-wo-utatte-haishin-ban-episode/",
      "secao": "legendados",
      "pagina": 58,
      "total_episodios": 6,
      "link_video": "https://animefire.plus/video/yesterday-wo-utatte-haishin-ban-episode"
    },
    {
      "id": 4235,
      "nome": "Yi Nian Yong Heng",
      "link": "https://animefire.plus/animes/yi-nian-yong-heng-todos-os-episodios",
      "texto_original": "Yi Nian Yong Heng",
      "rating": 6.9,
      "classificacao_etaria": "A14",
      "imagem_original": "https://animefire.plus/img/animes/yi-nian-yong-heng.webp",
      "imagem_pasta": "https://animefire.plus/img/animes/yi-nian-yong-heng/",
      "secao": "legendados,lancamentos",
      "pagina": 51,
      "total_episodios": 11,
      "link_video": "https://animefire.plus/video/yi-nian-yong-heng"
    },
    {
      "id": 4236,
      "nome": "Yichang Shengwu Jianwenlu",
      "link": "https://animefire.plus/animes/yichang-shengwu-jianwenlu-todos-os-episodios",
      "texto_original": "Yichang Shengwu Jianwenlu",
      "rating": 6.38,
      "classificacao_etaria": "A14",
      "imagem_original": "https://animefire.plus/img/animes/yichang-shengwu-jianwenlu.webp",
      "imagem_pasta": "https://animefire.plus/img/animes/yichang-shengwu-jianwenlu/",
      "secao": "legendados",
      "pagina": 68,
      "total_episodios": 0,
      "link_video": "https://animefire.plus/video/yichang-shengwu-jianwenlu"
    },
    {
      "id": 4237,
      "nome": "Yingxiong Zai Lin",
      "link": "https://animefire.plus/animes/yingxiong-zai-lin-todos-os-episodios",
      "texto_original": "Yingxiong Zai Lin",
      "rating": null,
      "classificacao_etaria": "A16",
      "imagem_original": "https://animefire.plus/img/animes/yingxiong-zai-lin.webp",
      "imagem_pasta": "https://animefire.plus/img/animes/yingxiong-zai-lin/",
      "secao": "legendados,lancamentos",
      "pagina": 50,
      "total_episodios": 9,
      "link_video": "https://animefire.plus/video/yingxiong-zai-lin"
    },
    {
      "id": 4238,
      "nome": "Yoake Mae yori Ruriiro na: Crescent Love",
      "link": "https://animefire.plus/animes/yoake-mae-yori-ruriiro-na-crescent-love-todos-os-episodios",
      "texto_original": "Yoake Mae yori Ruriiro na: Crescent Love",
      "rating": 7.19,
      "classificacao_etaria": "A14",
      "imagem_original": "https://animefire.plus/img/animes/yoake-mae-yori-ruriiro-na-crescent-love.webp",
      "imagem_pasta": "https://animefire.plus/img/animes/yoake-mae-yori-ruriiro-na-crescent-love/",
      "secao": "legendados",
      "pagina": 121,
      "total_episodios": 12,
      "link_video": "https://animefire.plus/video/yoake-mae-yori-ruriiro-na-crescent-love"
    },
    {
      "id": 4239,
      "nome": "Yofukashi no Uta",
      "link": "https://animefire.plus/animes/yofukashi-no-uta-todos-os-episodios",
      "texto_original": "Yofukashi no Uta",
      "rating": 7.95,
      "classificacao_etaria": "A14",
      "imagem_original": "https://animefire.plus/img/animes/yofukashi-no-uta.webp",
      "imagem_pasta": "https://animefire.plus/img/animes/yofukashi-no-uta/",
      "secao": "legendados",
      "pagina": 32,
      "total_episodios": 13,
      "link_video": "https://animefire.plus/video/yofukashi-no-uta"
    },
    {
      "id": 4240,
      "nome": "Yofukashi no Uta Season 2",
      "link": "https://animefire.plus/animes/yofukashi-no-uta-season-2-todos-os-episodios",
      "texto_original": "Yofukashi no Uta Season 2",
      "rating": 8.25,
      "classificacao_etaria": "A14",
      "imagem_original": "https://animefire.plus/img/animes/yofukashi-no-uta-season-2.webp",
      "imagem_pasta": "https://animefire.plus/img/animes/yofukashi-no-uta-season-2/",
      "secao": "legendados,lancamentos",
      "pagina": 1,
      "total_episodios": 5,
      "link_video": "https://animefire.plus/video/yofukashi-no-uta-season-2"
    },
    {
      "id": 4241,
      "nome": "Yojouhan Time Machine Blues",
      "link": "https://animefire.plus/animes/yojouhan-time-machine-blues-todos-os-episodios",
      "texto_original": "Yojouhan Time Machine Blues",
      "rating": 8.18,
      "classificacao_etaria": "A14",
      "imagem_original": "https://animefire.plus/img/animes/yojouhan-time-machine-blues.webp",
      "imagem_pasta": "https://animefire.plus/img/animes/yojouhan-time-machine-blues/",
      "secao": "legendados,lancamentos",
      "pagina": 28,
      "total_episodios": 4,
      "link_video": "https://animefire.plus/video/yojouhan-time-machine-blues"
    },
    {
      "id": 4242,
      "nome": "Yoku Wakaru Gendai Mahou",
      "link": "https://animefire.plus/animes/yoku-wakaru-gendai-mahou-todos-os-episodios",
      "texto_original": "Yoku Wakaru Gendai Mahou",
      "rating": 6.5,
      "classificacao_etaria": "A14",
      "imagem_original": "https://animefire.plus/img/animes/yoku-wakaru-gendai-mahou.webp",
      "imagem_pasta": "https://animefire.plus/img/animes/yoku-wakaru-gendai-mahou/",
      "secao": "legendados",
      "pagina": 103,
      "total_episodios": 0,
      "link_video": "https://animefire.plus/video/yoku-wakaru-gendai-mahou"
    },
    {
      "id": 4243,
      "nome": "Yomigaeru Sora: Rescue Wings",
      "link": "https://animefire.plus/animes/yomigaeru-sora-rescue-wings-todos-os-episodios",
      "texto_original": "Yomigaeru Sora: Rescue Wings",
      "rating": 7.48,
      "classificacao_etaria": "A14",
      "imagem_original": "https://animefire.plus/img/animes/yomigaeru-sora-rescue-wings.webp",
      "imagem_pasta": "https://animefire.plus/img/animes/yomigaeru-sora-rescue-wings/",
      "secao": "legendados",
      "pagina": 104,
      "total_episodios": 12,
      "link_video": "https://animefire.plus/video/yomigaeru-sora-rescue-wings"
    },
    {
      "id": 4244,
      "nome": "Yondemasu yo, Azazel-san. (TV)",
      "link": "https://animefire.plus/animes/yondemasu-yo-azazel-san-tv-todos-os-episodios",
      "texto_original": "Yondemasu yo, Azazel-san. (TV)",
      "rating": 7.6,
      "classificacao_etaria": "A16",
      "imagem_original": "https://animefire.plus/img/animes/yondemasu-yo-azazel-san-tv.webp",
      "imagem_pasta": "https://animefire.plus/img/animes/yondemasu-yo-azazel-san-tv/",
      "secao": "legendados",
      "pagina": 122,
      "total_episodios": 3,
      "link_video": "https://animefire.plus/video/yondemasu-yo-azazel-san-tv"
    },
    {
      "id": 4245,
      "nome": "Yondemasu Yo, Azazel-san. Z",
      "link": "https://animefire.plus/animes/yondemasu-yo-azazel-san-z-todos-os-episodios",
      "texto_original": "Yondemasu Yo, Azazel-san. Z",
      "rating": 7.63,
      "classificacao_etaria": "A16",
      "imagem_original": "https://animefire.plus/img/animes/yondemasu-yo-azazel-san-z.webp",
      "imagem_pasta": "https://animefire.plus/img/animes/yondemasu-yo-azazel-san-z/",
      "secao": "legendados",
      "pagina": 107,
      "total_episodios": 3,
      "link_video": "https://animefire.plus/video/yondemasu-yo-azazel-san-z"
    },
    {
      "id": 4246,
      "nome": "Yoroiden Samurai Troopers Gaiden",
      "link": "https://animefire.plus/animes/yoroiden-samurai-troopers-gaiden-todos-os-episodios",
      "texto_original": "Yoroiden Samurai Troopers Gaiden",
      "rating": 6.63,
      "classificacao_etaria": "A14",
      "imagem_original": "https://animefire.plus/img/animes/yoroiden-samurai-troopers-gaiden.webp",
      "imagem_pasta": "https://animefire.plus/img/animes/yoroiden-samurai-troopers-gaiden/",
      "secao": "legendados",
      "pagina": 79,
      "total_episodios": 2,
      "link_video": "https://animefire.plus/video/yoroiden-samurai-troopers-gaiden"
    },
    {
      "id": 4247,
      "nome": "Yoroiden Samurai Troopers Kikoutei Densetsu",
      "link": "https://animefire.plus/animes/yoroiden-samurai-troopers-kikoutei-densetsu-todos-os-episodios",
      "texto_original": "Yoroiden Samurai Troopers Kikoutei Densetsu",
      "rating": 6.59,
      "classificacao_etaria": "A14",
      "imagem_original": "https://animefire.plus/img/animes/yoroiden-samurai-troopers-kikoutei-densetsu.webp",
      "imagem_pasta": "https://animefire.plus/img/animes/yoroiden-samurai-troopers-kikoutei-densetsu/",
      "secao": "legendados",
      "pagina": 79,
      "total_episodios": 4,
      "link_video": "https://animefire.plus/video/yoroiden-samurai-troopers-kikoutei-densetsu"
    },
    {
      "id": 4248,
      "nome": "Yoru no Kuni",
      "link": "https://animefire.plus/animes/yoru-no-kuni-todos-os-episodios",
      "texto_original": "Yoru no Kuni",
      "rating": 7.44,
      "classificacao_etaria": null,
      "imagem_original": "https://animefire.plus/img/animes/yoru-no-kuni.webp",
      "imagem_pasta": "https://animefire.plus/img/animes/yoru-no-kuni/",
      "secao": "legendados",
      "pagina": 45,
      "total_episodios": 3,
      "link_video": "https://animefire.plus/video/yoru-no-kuni"
    },
    {
      "id": 4249,
      "nome": "Yoru no Kurage wa Oyogenai",
      "link": "https://animefire.plus/animes/yoru-no-kurage-wa-oyogenai-todos-os-episodios",
      "texto_original": "Yoru no Kurage wa Oyogenai",
      "rating": 7.75,
      "classificacao_etaria": "A14",
      "imagem_original": "https://animefire.plus/img/animes/yoru-no-kurage-wa-oyogenai.webp",
      "imagem_pasta": "https://animefire.plus/img/animes/yoru-no-kurage-wa-oyogenai/",
      "secao": "legendados",
      "pagina": 15,
      "total_episodios": 12,
      "link_video": "https://animefire.plus/video/yoru-no-kurage-wa-oyogenai"
    },
    {
      "id": 4250,
      "nome": "Yoru no Yatterman",
      "link": "https://animefire.plus/animes/yoru-no-yatterman-todos-os-episodios",
      "texto_original": "Yoru no Yatterman",
      "rating": 6.54,
      "classificacao_etaria": "A14",
      "imagem_original": "https://animefire.plus/img/animes/yoru-no-yatterman.webp",
      "imagem_pasta": "https://animefire.plus/img/animes/yoru-no-yatterman/",
      "secao": "legendados",
      "pagina": 95,
      "total_episodios": 8,
      "link_video": "https://animefire.plus/video/yoru-no-yatterman"
    },
    {
      "id": 4251,
      "nome": "Yosuga no Sora: In Solitude, Where We Are Least Alone.",
      "link": "https://animefire.plus/animes/yosuga-no-sora-in-solitude-where-we-are-least-alone-todos-os-episodios",
      "texto_original": "Yosuga no Sora: In Solitude, Where We Are Least Alone.",
      "rating": 6.5,
      "classificacao_etaria": "A18",
      "imagem_original": "https://animefire.plus/img/animes/yosuga-no-sora-in-solitude-where-we-are-least-alone.webp",
      "imagem_pasta": "https://animefire.plus/img/animes/yosuga-no-sora-in-solitude-where-we-are-least-alone/",
      "secao": "legendados",
      "pagina": 172,
      "total_episodios": 12,
      "link_video": "https://animefire.plus/video/yosuga-no-sora-in-solitude-where-we-are-least-alone"
    },
    {
      "id": 4252,
      "nome": "Youjo Senki (Dublado)",
      "link": "https://animefire.plus/animes/youjo-senki-dublado-todos-os-episodios",
      "texto_original": "Youjo Senki (Dublado)",
      "rating": 8.11,
      "classificacao_etaria": "A16",
      "imagem_original": "https://animefire.plus/img/animes/youjo-senki.webp",
      "imagem_pasta": "https://animefire.plus/img/animes/youjo-senki/",
      "secao": "dublados,legendados",
      "pagina": 26,
      "total_episodios": 12,
      "link_video": "https://animefire.plus/video/youjo-senki-dublado"
    },
    {
      "id": 4253,
      "nome": "Youjo Senki II",
      "link": "https://animefire.plus/animes/youjo-senki-ii-todos-os-episodios",
      "texto_original": "Youjo Senki II",
      "rating": null,
      "classificacao_etaria": "A16",
      "imagem_original": "https://animefire.plus/img/animes/youjo-senki-ii.webp",
      "imagem_pasta": "https://animefire.plus/img/animes/youjo-senki-ii/",
      "secao": "legendados,lancamentos",
      "pagina": 19,
      "total_episodios": 0,
      "link_video": "https://animefire.plus/video/youjo-senki-ii"
    }
  ],
  "pagination": {
    "current_page": 208,
    "per_page": 20,
    "total_items": 4269,
    "total_pages": 214,
    "has_next": true,
    "has_prev": true
  }
}
