{
  "message": "Animes da seção: legendados",
  "section": "legendados",
  "data": [
    {
      "id": 1955,
      "nome": "Kiba",
      "link": "https://animefire.plus/animes/kiba-todos-os-episodios",
      "texto_original": "Kiba",
      "rating": 7.38,
      "classificacao_etaria": "A14",
      "imagem_original": "https://animefire.plus/img/animes/kiba.webp",
      "imagem_pasta": "https://animefire.plus/img/animes/kiba/",
      "secao": "legendados",
      "pagina": 168,
      "total_episodios": 51,
      "link_video": "https://animefire.plus/video/kiba"
    },
    {
      "id": 1956,
      "nome": "Kibou no Chikara: Otona Precure '23",
      "link": "https://animefire.plus/animes/kibou-no-chikara-otona-precure-23-todos-os-episodios",
      "texto_original": "Kibou no Chikara: Otona Precure '23",
      "rating": 6.56,
      "classificacao_etaria": "A14",
      "imagem_original": "https://animefire.plus/img/animes/kibou-no-chikara-otona-precure-23.webp",
      "imagem_pasta": "https://animefire.plus/img/animes/kibou-no-chikara-otona-precure-23/",
      "secao": "legendados",
      "pagina": 19,
      "total_episodios": 12,
      "link_video": "https://animefire.plus/video/kibou-no-chikara-otona-precure-23"
    },
    {
      "id": 1957,
      "nome": "Kiddy GiRL-AND",
      "link": "https://animefire.plus/animes/kiddy-girl-and-todos-os-episodios",
      "texto_original": "Kiddy GiRL-AND",
      "rating": 6.93,
      "classificacao_etaria": "A14",
      "imagem_original": "https://animefire.plus/img/animes/kiddy-girl-and.webp",
      "imagem_pasta": "https://animefire.plus/img/animes/kiddy-girl-and/",
      "secao": "legendados",
      "pagina": 142,
      "total_episodios": 24,
      "link_video": "https://animefire.plus/video/kiddy-girl-and"
    },
    {
      "id": 1958,
      "nome": "Kiddy Grade",
      "link": "https://animefire.plus/animes/kiddy-grade-todos-os-episodios",
      "texto_original": "Kiddy Grade",
      "rating": 7.27,
      "classificacao_etaria": "A18",
      "imagem_original": "https://animefire.plus/img/animes/kiddy-grade.webp",
      "imagem_pasta": "https://animefire.plus/img/animes/kiddy-grade/",
      "secao": "legendados",
      "pagina": 150,
      "total_episodios": 24,
      "link_video": "https://animefire.plus/video/kiddy-grade"
    },
    {
      "id": 1959,
      "nome": "Kidou Keisatsu Patlabor",
      "link": "https://animefire.plus/animes/kidou-keisatsu-patlabor-todos-os-episodios",
      "texto_original": "Kidou Keisatsu Patlabor",
      "rating": 7.29,
      "classificacao_etaria": "A14",
      "imagem_original": "https://animefire.plus/img/animes/kidou-keisatsu-patlabor.webp",
      "imagem_pasta": "https://animefire.plus/img/animes/kidou-keisatsu-patlabor/",
      "secao": "legendados",
      "pagina": 42,
      "total_episodios": 7,
      "link_video": "https://animefire.plus/video/kidou-keisatsu-patlabor"
    },
    {
      "id": 1960,
      "nome": "Kidou Keisatsu Patlabor: New OVA",
      "link": "https://animefire.plus/animes/kidou-keisatsu-patlabor-new-ova-todos-os-episodios",
      "texto_original": "Kidou Keisatsu Patlabor: New OVA",
      "rating": 7.55,
      "classificacao_etaria": "A14",
      "imagem_original": "https://animefire.plus/img/animes/kidou-keisatsu-patlabor-new-ova.webp",
      "imagem_pasta": "https://animefire.plus/img/animes/kidou-keisatsu-patlabor-new-ova/",
      "secao": "legendados",
      "pagina": 44,
      "total_episodios": 16,
      "link_video": "https://animefire.plus/video/kidou-keisatsu-patlabor-new-ova"
    },
    {
      "id": 1961,
      "nome": "Kidou Keisatsu Patlabor: On Television",
      "link": "https://animefire.plus/animes/kidou-keisatsu-patlabor-on-television-todos-os-episodios",
      "texto_original": "Kidou Keisatsu Patlabor: On Television",
      "rating": 7.71,
      "classificacao_etaria": "A14",
      "imagem_original": "https://animefire.plus/img/animes/kidou-keisatsu-patlabor-on-television.webp",
      "imagem_pasta": "https://animefire.plus/img/animes/kidou-keisatsu-patlabor-on-television/",
      "secao": "legendados",
      "pagina": 120,
      "total_episodios": 0,
      "link_video": "https://animefire.plus/video/kidou-keisatsu-patlabor-on-television"
    },
    {
      "id": 1962,
      "nome": "Kidou Senkan Nadesico",
      "link": "https://animefire.plus/animes/kidou-senkan-nadesico-todos-os-episodios",
      "texto_original": "Kidou Senkan Nadesico",
      "rating": 7.56,
      "classificacao_etaria": "A14",
      "imagem_original": "https://animefire.plus/img/animes/kidou-senkan-nadesico.webp",
      "imagem_pasta": "https://animefire.plus/img/animes/kidou-senkan-nadesico/",
      "secao": "legendados",
      "pagina": 129,
      "total_episodios": 26,
      "link_video": "https://animefire.plus/video/kidou-senkan-nadesico"
    },
    {
      "id": 1963,
      "nome": "Kidou Senshi Gundam: GQuuuuuuX",
      "link": "https://animefire.plus/animes/kidou-senshi-gundam-gquuuuuux-todos-os-episodios",
      "texto_original": "Kidou Senshi Gundam: GQuuuuuuX",
      "rating": 7.05,
      "classificacao_etaria": "A14",
      "imagem_original": "https://animefire.plus/img/animes/kidou-senshi-gundam-gquuuuuux.webp",
      "imagem_pasta": "https://animefire.plus/img/animes/kidou-senshi-gundam-gquuuuuux/",
      "secao": "legendados",
      "pagina": 5,
      "total_episodios": 12,
      "link_video": "https://animefire.plus/video/kidou-senshi-gundam-gquuuuuux"
    },
    {
      "id": 1964,
      "nome": "Kidou Shinsengumi Moeyo Ken TV",
      "link": "https://animefire.plus/animes/kidou-shinsengumi-moeyo-ken-tv-todos-os-episodios",
      "texto_original": "Kidou Shinsengumi Moeyo Ken TV",
      "rating": 6.24,
      "classificacao_etaria": "A14",
      "imagem_original": "https://animefire.plus/img/animes/kidou-shinsengumi-moeyo-ken-tv.webp",
      "imagem_pasta": "https://animefire.plus/img/animes/kidou-shinsengumi-moeyo-ken-tv/",
      "secao": "legendados",
      "pagina": 123,
      "total_episodios": 13,
      "link_video": "https://animefire.plus/video/kidou-shinsengumi-moeyo-ken-tv"
    },
    {
      "id": 1965,
      "nome": "Kiitarou Shounen no Youkai Enikki",
      "link": "https://animefire.plus/animes/kiitarou-shounen-no-youkai-enikki-todos-os-episodios",
      "texto_original": "Kiitarou Shounen no Youkai Enikki",
      "rating": 6.48,
      "classificacao_etaria": "A14",
      "imagem_original": "https://animefire.plus/img/animes/kiitarou-shounen-no-youkai-enikki.webp",
      "imagem_pasta": "https://animefire.plus/img/animes/kiitarou-shounen-no-youkai-enikki/",
      "secao": "legendados",
      "pagina": 155,
      "total_episodios": 2,
      "link_video": "https://animefire.plus/video/kiitarou-shounen-no-youkai-enikki"
    },
    {
      "id": 1966,
      "nome": "Kijin Gentoushou",
      "link": "https://animefire.plus/animes/kijin-gentoushou-todos-os-episodios",
      "texto_original": "Kijin Gentoushou",
      "rating": 7.4,
      "classificacao_etaria": "A16",
      "imagem_original": "https://animefire.plus/img/animes/kijin-gentoushou.webp",
      "imagem_pasta": "https://animefire.plus/img/animes/kijin-gentoushou/",
      "secao": "legendados,lancamentos",
      "pagina": 6,
      "total_episodios": 16,
      "link_video": "https://animefire.plus/video/kijin-gentoushou"
    },
    {
      "id": 1967,
      "nome": "Kikaider 01 The Animation",
      "link": "https://animefire.plus/animes/kikaider-01-the-animation-todos-os-episodios",
      "texto_original": "Kikaider 01 The Animation",
      "rating": 6.84,
      "classificacao_etaria": "A14",
      "imagem_original": "https://animefire.plus/img/animes/kikaider-01-the-animation.webp",
      "imagem_pasta": "https://animefire.plus/img/animes/kikaider-01-the-animation/",
      "secao": "legendados",
      "pagina": 129,
      "total_episodios": 4,
      "link_video": "https://animefire.plus/video/kikaider-01-the-animation"
    },
    {
      "id": 1968,
      "nome": "Kikansha no Mahou wa Tokubetsu desu",
      "link": "https://animefire.plus/animes/kikansha-no-mahou-wa-tokubetsu-desu-todos-os-episodios",
      "texto_original": "Kikansha no Mahou wa Tokubetsu desu",
      "rating": 7.06,
      "classificacao_etaria": "A14",
      "imagem_original": "https://animefire.plus/img/animes/kikansha-no-mahou-wa-tokubetsu-desu.webp",
      "imagem_pasta": "https://animefire.plus/img/animes/kikansha-no-mahou-wa-tokubetsu-desu/",
      "secao": "legendados",
      "pagina": 20,
      "total_episodios": 12,
      "link_video": "https://animefire.plus/video/kikansha-no-mahou-wa-tokubetsu-desu"
    },
    {
      "id": 1969,
      "nome": "Kikou Kai Galient",
      "link": "https://animefire.plus/animes/kikou-kai-galient-todos-os-episodios",
      "texto_original": "Kikou Kai Galient",
      "rating": 6.6,
      "classificacao_etaria": "A14",
      "imagem_original": "https://animefire.plus/img/animes/kikou-kai-galient.webp",
      "imagem_pasta": "https://animefire.plus/img/animes/kikou-kai-galient/",
      "secao": "legendados",
      "pagina": 147,
      "total_episodios": 25,
      "link_video": "https://animefire.plus/video/kikou-kai-galient"
    },
    {
      "id": 1970,
      "nome": "Kikoushi Enma",
      "link": "https://animefire.plus/animes/kikoushi-enma-todos-os-episodios",
      "texto_original": "Kikoushi Enma",
      "rating": 7.16,
      "classificacao_etaria": "A18",
      "imagem_original": "https://animefire.plus/img/animes/kikoushi-enma.webp",
      "imagem_pasta": "https://animefire.plus/img/animes/kikoushi-enma/",
      "secao": "legendados",
      "pagina": 66,
      "total_episodios": 4,
      "link_video": "https://animefire.plus/video/kikoushi-enma"
    },
    {
      "id": 1971,
      "nome": "Kill la Kill",
      "link": "https://animefire.plus/animes/kill-la-kill-todos-os-episodios",
      "texto_original": "Kill la Kill",
      "rating": 8.17,
      "classificacao_etaria": "A14",
      "imagem_original": "https://animefire.plus/img/animes/kill-la-kill.webp",
      "imagem_pasta": "https://animefire.plus/img/animes/kill-la-kill/",
      "secao": "legendados",
      "pagina": 109,
      "total_episodios": 24,
      "link_video": "https://animefire.plus/video/kill-la-kill"
    },
    {
      "id": 1972,
      "nome": "Kill Me Baby",
      "link": "https://animefire.plus/animes/kill-me-baby-todos-os-episodios",
      "texto_original": "Kill Me Baby",
      "rating": 6.92,
      "classificacao_etaria": "A14",
      "imagem_original": "https://animefire.plus/img/animes/kill-me-baby.webp",
      "imagem_pasta": "https://animefire.plus/img/animes/kill-me-baby/",
      "secao": "legendados",
      "pagina": 153,
      "total_episodios": 0,
      "link_video": "https://animefire.plus/video/kill-me-baby"
    },
    {
      "id": 1973,
      "nome": "Killing Bites",
      "link": "https://animefire.plus/animes/killing-bites-todos-os-episodios",
      "texto_original": "Killing Bites",
      "rating": 6.79,
      "classificacao_etaria": "A18",
      "imagem_original": "https://animefire.plus/img/animes/killing-bites.webp",
      "imagem_pasta": "https://animefire.plus/img/animes/killing-bites/",
      "secao": "legendados",
      "pagina": 109,
      "total_episodios": 12,
      "link_video": "https://animefire.plus/video/killing-bites"
    },
    {
      "id": 1974,
      "nome": "Kimagure Orange☆Road",
      "link": "https://animefire.plus/animes/kimagure-orange-road-todos-os-episodios",
      "texto_original": "Kimagure Orange☆Road",
      "rating": 7.63,
      "classificacao_etaria": "A14",
      "imagem_original": "https://animefire.plus/img/animes/kimagure-orange-road.webp",
      "imagem_pasta": "https://animefire.plus/img/animes/kimagure-orange-road/",
      "secao": "legendados",
      "pagina": 120,
      "total_episodios": 48,
      "link_video": "https://animefire.plus/video/kimagure-orange-road"
    }
  ],
  "pagination": {
    "current_page": 96,
    "per_page": 20,
    "total_items": 4269,
    "total_pages": 214,
    "has_next": true,
    "has_prev": true
  }
}
