{
  "message": "Animes da seção: legendados",
  "section": "legendados",
  "data": [
    {
      "id": 2708,
      "nome": "Neko Neko Fantasia",
      "link": "https://animefire.plus/animes/neko-neko-fantasia-todos-os-episodios",
      "texto_original": "Neko Neko Fantasia",
      "rating": 5.96,
      "classificacao_etaria": null,
      "imagem_original": "https://animefire.plus/img/animes/neko-neko-fantasia.webp",
      "imagem_pasta": "https://animefire.plus/img/animes/neko-neko-fantasia/",
      "secao": "legendados",
      "pagina": 85,
      "total_episodios": 1,
      "link_video": "https://animefire.plus/video/neko-neko-fantasia"
    },
    {
      "id": 2709,
      "nome": "Nekogami Yaoyorozu",
      "link": "https://animefire.plus/animes/nekogami-yaoyorozu-todos-os-episodios",
      "texto_original": "Nekogami Yaoyorozu",
      "rating": 6.68,
      "classificacao_etaria": "A14",
      "imagem_original": "https://animefire.plus/img/animes/nekogami-yaoyorozu.webp",
      "imagem_pasta": "https://animefire.plus/img/animes/nekogami-yaoyorozu/",
      "secao": "legendados",
      "pagina": 112,
      "total_episodios": 12,
      "link_video": "https://animefire.plus/video/nekogami-yaoyorozu"
    },
    {
      "id": 2710,
      "nome": "Nekojiru-sou",
      "link": "https://animefire.plus/animes/nekojiru-sou-todos-os-episodios",
      "texto_original": "Nekojiru-sou",
      "rating": 7.34,
      "classificacao_etaria": "A14",
      "imagem_original": "https://animefire.plus/img/animes/nekojiru-sou.webp",
      "imagem_pasta": "https://animefire.plus/img/animes/nekojiru-sou/",
      "secao": "legendados",
      "pagina": 56,
      "total_episodios": 1,
      "link_video": "https://animefire.plus/video/nekojiru-sou"
    },
    {
      "id": 2711,
      "nome": "Nekomonogatari: Kuro",
      "link": "https://animefire.plus/animes/nekomonogatari-kuro-todos-os-episodios",
      "texto_original": "Nekomonogatari: Kuro",
      "rating": 8.03,
      "classificacao_etaria": "A16",
      "imagem_original": "https://animefire.plus/img/animes/nekomonogatari-kuro.webp",
      "imagem_pasta": "https://animefire.plus/img/animes/nekomonogatari-kuro/",
      "secao": "legendados",
      "pagina": 148,
      "total_episodios": 4,
      "link_video": "https://animefire.plus/video/nekomonogatari-kuro"
    },
    {
      "id": 2712,
      "nome": "Nekopara",
      "link": "https://animefire.plus/animes/nekopara-todos-os-episodios",
      "texto_original": "Nekopara",
      "rating": 6.76,
      "classificacao_etaria": "A14",
      "imagem_original": "https://animefire.plus/img/animes/nekopara.webp",
      "imagem_pasta": "https://animefire.plus/img/animes/nekopara/",
      "secao": "legendados",
      "pagina": 93,
      "total_episodios": 2,
      "link_video": "https://animefire.plus/video/nekopara"
    },
    {
      "id": 2713,
      "nome": "Nekopara: Koneko no Hi no Yakusoku",
      "link": "https://animefire.plus/animes/nekopara-koneko-no-hi-no-yakusoku-todos-os-episodios",
      "texto_original": "Nekopara: Koneko no Hi no Yakusoku",
      "rating": 7.13,
      "classificacao_etaria": "A14",
      "imagem_original": "https://animefire.plus/img/animes/nekopara-koneko-no-hi-no-yakusoku.webp",
      "imagem_pasta": "https://animefire.plus/img/animes/nekopara-koneko-no-hi-no-yakusoku/",
      "secao": "legendados",
      "pagina": 67,
      "total_episodios": 1,
      "link_video": "https://animefire.plus/video/nekopara-koneko-no-hi-no-yakusoku"
    },
    {
      "id": 2714,
      "nome": "Neo Angelique Abyss: Second Age",
      "link": "https://animefire.plus/animes/neo-angelique-abyss-second-age-todos-os-episodios",
      "texto_original": "Neo Angelique Abyss: Second Age",
      "rating": 7.14,
      "classificacao_etaria": "A14",
      "imagem_original": "https://animefire.plus/img/animes/neo-angelique-abyss-second-age.webp",
      "imagem_pasta": "https://animefire.plus/img/animes/neo-angelique-abyss-second-age/",
      "secao": "legendados",
      "pagina": 133,
      "total_episodios": 13,
      "link_video": "https://animefire.plus/video/neo-angelique-abyss-second-age"
    },
    {
      "id": 2715,
      "nome": "Neon Genesis Evangelion (Dublado)",
      "link": "https://animefire.plus/animes/neon-genesis-evangelion-dublado-todos-os-episodios",
      "texto_original": "Neon Genesis Evangelion (Dublado)",
      "rating": 8.34,
      "classificacao_etaria": "A14",
      "imagem_original": "https://animefire.plus/img/animes/neon-genesis-evangelion.webp",
      "imagem_pasta": "https://animefire.plus/img/animes/neon-genesis-evangelion/",
      "secao": "dublados,legendados",
      "pagina": 26,
      "total_episodios": 26,
      "link_video": "https://animefire.plus/video/neon-genesis-evangelion-dublado"
    },
    {
      "id": 2716,
      "nome": "Neppuu Kairiku Bushi Road",
      "link": "https://animefire.plus/animes/neppuu-kairiku-bushi-road-todos-os-episodios",
      "texto_original": "Neppuu Kairiku Bushi Road",
      "rating": 7.26,
      "classificacao_etaria": "A16",
      "imagem_original": "https://animefire.plus/img/animes/neppuu-kairiku-bushi-road.webp",
      "imagem_pasta": "https://animefire.plus/img/animes/neppuu-kairiku-bushi-road/",
      "secao": "legendados",
      "pagina": 82,
      "total_episodios": 1,
      "link_video": "https://animefire.plus/video/neppuu-kairiku-bushi-road"
    },
    {
      "id": 2717,
      "nome": "Net-juu no Susume (Dublado)",
      "link": "https://animefire.plus/animes/net-juu-no-susume-dublado-todos-os-episodios",
      "texto_original": "Net-juu no Susume (Dublado)",
      "rating": 7.76,
      "classificacao_etaria": "A14",
      "imagem_original": "https://animefire.plus/img/animes/net-juu-no-susume.webp",
      "imagem_pasta": "https://animefire.plus/img/animes/net-juu-no-susume/",
      "secao": "dublados,legendados",
      "pagina": 26,
      "total_episodios": 11,
      "link_video": "https://animefire.plus/video/net-juu-no-susume-dublado"
    },
    {
      "id": 2718,
      "nome": "Net-juu no Susume Special (Dublado)",
      "link": "https://animefire.plus/animes/net-juu-no-susume-special-dublado-todos-os-episodios",
      "texto_original": "Net-juu no Susume Special (Dublado)",
      "rating": 7.46,
      "classificacao_etaria": "A14",
      "imagem_original": "https://animefire.plus/img/animes/net-juu-no-susume-special.webp",
      "imagem_pasta": "https://animefire.plus/img/animes/net-juu-no-susume-special/",
      "secao": "dublados,legendados",
      "pagina": 24,
      "total_episodios": 1,
      "link_video": "https://animefire.plus/video/net-juu-no-susume-special-dublado"
    },
    {
      "id": 2719,
      "nome": "Netoge no Yome wa Onnanoko ja Nai to Omotta?",
      "link": "https://animefire.plus/animes/netoge-no-yome-wa-onnanoko-ja-nai-to-omotta-todos-os-episodios",
      "texto_original": "Netoge no Yome wa Onnanoko ja Nai to Omotta?",
      "rating": 7.02,
      "classificacao_etaria": "A14",
      "imagem_original": "https://animefire.plus/img/animes/netoge-no-yome-wa-onnanoko-ja-nai-to-omotta.webp",
      "imagem_pasta": "https://animefire.plus/img/animes/netoge-no-yome-wa-onnanoko-ja-nai-to-omotta/",
      "secao": "legendados",
      "pagina": 147,
      "total_episodios": 5,
      "link_video": "https://animefire.plus/video/netoge-no-yome-wa-onnanoko-ja-nai-to-omotta"
    },
    {
      "id": 2720,
      "nome": "Netsuzou TRap",
      "link": "https://animefire.plus/animes/netsuzou-trap-todos-os-episodios",
      "texto_original": "Netsuzou TRap",
      "rating": 5.42,
      "classificacao_etaria": "A18",
      "imagem_original": "https://animefire.plus/img/animes/netsuzou-trap.webp",
      "imagem_pasta": "https://animefire.plus/img/animes/netsuzou-trap/",
      "secao": "legendados",
      "pagina": 62,
      "total_episodios": 12,
      "link_video": "https://animefire.plus/video/netsuzou-trap"
    },
    {
      "id": 2721,
      "nome": "New Game!",
      "link": "https://animefire.plus/animes/new-game-todos-os-episodios",
      "texto_original": "New Game!",
      "rating": 7.66,
      "classificacao_etaria": "A14",
      "imagem_original": "https://animefire.plus/img/animes/new-game.webp",
      "imagem_pasta": "https://animefire.plus/img/animes/new-game/",
      "secao": "legendados",
      "pagina": 57,
      "total_episodios": 12,
      "link_video": "https://animefire.plus/video/new-game"
    },
    {
      "id": 2722,
      "nome": "New Panty & Stocking with Garterbelt",
      "link": "https://animefire.plus/animes/new-panty-stocking-with-garterbelt-todos-os-episodios",
      "texto_original": "New Panty & Stocking with Garterbelt",
      "rating": 7.35,
      "classificacao_etaria": "A16",
      "imagem_original": "https://animefire.plus/img/animes/new-panty-stocking-with-garterbelt.webp",
      "imagem_pasta": "https://animefire.plus/img/animes/new-panty-stocking-with-garterbelt/",
      "secao": "legendados,lancamentos",
      "pagina": 1,
      "total_episodios": 4,
      "link_video": "https://animefire.plus/video/new-panty-stocking-with-garterbelt"
    },
    {
      "id": 2723,
      "nome": "NHK ni Youkoso!",
      "link": "https://animefire.plus/animes/nhk-ni-youkoso-todos-os-episodios",
      "texto_original": "NHK ni Youkoso!",
      "rating": 8.36,
      "classificacao_etaria": "A18",
      "imagem_original": "https://animefire.plus/img/animes/nhk-ni-youkoso.webp",
      "imagem_pasta": "https://animefire.plus/img/animes/nhk-ni-youkoso/",
      "secao": "legendados",
      "pagina": 145,
      "total_episodios": 24,
      "link_video": "https://animefire.plus/video/nhk-ni-youkoso"
    },
    {
      "id": 2724,
      "nome": "Ni Zhuan Ci Yuan: AI Jue Qi",
      "link": "https://animefire.plus/animes/ni-zhuan-ci-yuan-ai-jue-qi-todos-os-episodios",
      "texto_original": "Ni Zhuan Ci Yuan: AI Jue Qi",
      "rating": null,
      "classificacao_etaria": "A14",
      "imagem_original": "https://animefire.plus/img/animes/ni-zhuan-ci-yuan-ai-jue-qi.webp",
      "imagem_pasta": "https://animefire.plus/img/animes/ni-zhuan-ci-yuan-ai-jue-qi/",
      "secao": "legendados",
      "pagina": 80,
      "total_episodios": 12,
      "link_video": "https://animefire.plus/video/ni-zhuan-ci-yuan-ai-jue-qi"
    },
    {
      "id": 2725,
      "nome": "Nichijou",
      "link": "https://animefire.plus/animes/nichijou-todos-os-episodios",
      "texto_original": "Nichijou",
      "rating": 8.51,
      "classificacao_etaria": "A14",
      "imagem_original": "https://animefire.plus/img/animes/nichijou.webp",
      "imagem_pasta": "https://animefire.plus/img/animes/nichijou/",
      "secao": "legendados",
      "pagina": 174,
      "total_episodios": 26,
      "link_video": "https://animefire.plus/video/nichijou"
    },
    {
      "id": 2726,
      "nome": "Niehime to Kemono no Ou",
      "link": "https://animefire.plus/animes/niehime-to-kemono-no-ou-todos-os-episodios",
      "texto_original": "Niehime to Kemono no Ou",
      "rating": 7.93,
      "classificacao_etaria": "A14",
      "imagem_original": "https://animefire.plus/img/animes/niehime-to-kemono-no-ou.jpg",
      "imagem_pasta": "https://animefire.plus/img/animes/niehime-to-kemono-no-ou/",
      "secao": "legendados",
      "pagina": 23,
      "total_episodios": 24,
      "link_video": "https://animefire.plus/video/niehime-to-kemono-no-ou"
    },
    {
      "id": 2727,
      "nome": "NieR:Automata Ver1.1a (Dublado)",
      "link": "https://animefire.plus/animes/nier-automata-ver1-1a-dublado-todos-os-episodios",
      "texto_original": "NieR:Automata Ver1.1a (Dublado)",
      "rating": 7.51,
      "classificacao_etaria": "A14",
      "imagem_original": "https://animefire.plus/img/animes/nier-automata-ver1-1a.webp",
      "imagem_pasta": "https://animefire.plus/img/animes/nier-automata-ver1-1a/",
      "secao": "dublados,legendados",
      "pagina": 7,
      "total_episodios": 12,
      "link_video": "https://animefire.plus/video/nier-automata-ver1-1a-dublado"
    }
  ],
  "pagination": {
    "current_page": 133,
    "per_page": 20,
    "total_items": 4269,
    "total_pages": 214,
    "has_next": true,
    "has_prev": true
  }
}
