{
  "message": "Animes da seção: legendados",
  "section": "legendados",
  "data": [
    {
      "id": 2545,
      "nome": "Mobile Suit Gundam 0083: Stardust Memory",
      "link": "https://animefire.plus/animes/mobile-suit-gundam-0083-stardust-memory-todos-os-episodios",
      "texto_original": "Mobile Suit Gundam 0083: Stardust Memory",
      "rating": 7.29,
      "classificacao_etaria": "A14",
      "imagem_original": "https://animefire.plus/img/animes/mobile-suit-gundam-0083-stardust-memory.webp",
      "imagem_pasta": "https://animefire.plus/img/animes/mobile-suit-gundam-0083-stardust-memory/",
      "secao": "legendados",
      "pagina": 42,
      "total_episodios": 13,
      "link_video": "https://animefire.plus/video/mobile-suit-gundam-0083-stardust-memory"
    },
    {
      "id": 2546,
      "nome": "Mobile Suit Gundam AGE",
      "link": "https://animefire.plus/animes/mobile-suit-gundam-age-todos-os-episodios",
      "texto_original": "Mobile Suit Gundam AGE",
      "rating": 6.55,
      "classificacao_etaria": "A14",
      "imagem_original": "https://animefire.plus/img/animes/mobile-suit-gundam-age.webp",
      "imagem_pasta": "https://animefire.plus/img/animes/mobile-suit-gundam-age/",
      "secao": "legendados",
      "pagina": 151,
      "total_episodios": 1,
      "link_video": "https://animefire.plus/video/mobile-suit-gundam-age"
    },
    {
      "id": 2547,
      "nome": "Mobile Suit Gundam SEED",
      "link": "https://animefire.plus/animes/mobile-suit-gundam-seed-todos-os-episodios",
      "texto_original": "Mobile Suit Gundam SEED",
      "rating": 7.86,
      "classificacao_etaria": "A16",
      "imagem_original": "https://animefire.plus/img/animes/mobile-suit-gundam-seed.webp",
      "imagem_pasta": "https://animefire.plus/img/animes/mobile-suit-gundam-seed/",
      "secao": "legendados",
      "pagina": 131,
      "total_episodios": 50,
      "link_video": "https://animefire.plus/video/mobile-suit-gundam-seed"
    },
    {
      "id": 2548,
      "nome": "Mobile Suit Gundam SEED Destiny",
      "link": "https://animefire.plus/animes/mobile-suit-gundam-seed-destiny-todos-os-episodios",
      "texto_original": "Mobile Suit Gundam SEED Destiny",
      "rating": 7.29,
      "classificacao_etaria": "A16",
      "imagem_original": "https://animefire.plus/img/animes/mobile-suit-gundam-seed-destiny.webp",
      "imagem_pasta": "https://animefire.plus/img/animes/mobile-suit-gundam-seed-destiny/",
      "secao": "legendados",
      "pagina": 131,
      "total_episodios": 50,
      "link_video": "https://animefire.plus/video/mobile-suit-gundam-seed-destiny"
    },
    {
      "id": 2549,
      "nome": "Mobile Suit Gundam Thunderbolt",
      "link": "https://animefire.plus/animes/mobile-suit-gundam-thunderbolt-todos-os-episodios",
      "texto_original": "Mobile Suit Gundam Thunderbolt",
      "rating": 7.96,
      "classificacao_etaria": "A16",
      "imagem_original": "https://animefire.plus/img/animes/mobile-suit-gundam-thunderbolt.webp",
      "imagem_pasta": "https://animefire.plus/img/animes/mobile-suit-gundam-thunderbolt/",
      "secao": "legendados",
      "pagina": 167,
      "total_episodios": 0,
      "link_video": "https://animefire.plus/video/mobile-suit-gundam-thunderbolt"
    },
    {
      "id": 2550,
      "nome": "Mobile Suit Gundam Thunderbolt 2nd Season",
      "link": "https://animefire.plus/animes/mobile-suit-gundam-thunderbolt-2nd-season-todos-os-episodios",
      "texto_original": "Mobile Suit Gundam Thunderbolt 2nd Season",
      "rating": 7.28,
      "classificacao_etaria": "A16",
      "imagem_original": "https://animefire.plus/img/animes/mobile-suit-gundam-thunderbolt-2nd-season.webp",
      "imagem_pasta": "https://animefire.plus/img/animes/mobile-suit-gundam-thunderbolt-2nd-season/",
      "secao": "legendados",
      "pagina": 55,
      "total_episodios": 4,
      "link_video": "https://animefire.plus/video/mobile-suit-gundam-thunderbolt-2nd-season"
    },
    {
      "id": 2551,
      "nome": "Mobile Suit Gundam Unicorn RE:0096",
      "link": "https://animefire.plus/animes/mobile-suit-gundam-unicorn-re-0096-todos-os-episodios",
      "texto_original": "Mobile Suit Gundam Unicorn RE:0096",
      "rating": 7.59,
      "classificacao_etaria": "A14",
      "imagem_original": "https://animefire.plus/img/animes/mobile-suit-gundam-unicorn-re-0096.webp",
      "imagem_pasta": "https://animefire.plus/img/animes/mobile-suit-gundam-unicorn-re-0096/",
      "secao": "legendados",
      "pagina": 170,
      "total_episodios": 2,
      "link_video": "https://animefire.plus/video/mobile-suit-gundam-unicorn-re-0096"
    },
    {
      "id": 2553,
      "nome": "Mobile Suit Gundam-san",
      "link": "https://animefire.plus/animes/mobile-suit-gundam-san-todos-os-episodios",
      "texto_original": "Mobile Suit Gundam-san",
      "rating": 6.21,
      "classificacao_etaria": "A14",
      "imagem_original": "https://animefire.plus/img/animes/mobile-suit-gundam-san.webp",
      "imagem_pasta": "https://animefire.plus/img/animes/mobile-suit-gundam-san/",
      "secao": "legendados",
      "pagina": 101,
      "total_episodios": 13,
      "link_video": "https://animefire.plus/video/mobile-suit-gundam-san"
    },
    {
      "id": 2554,
      "nome": "Mobile Suit Gundam: Iron-Blooded Orphans",
      "link": "https://animefire.plus/animes/mobile-suit-gundam-iron-blooded-orphans-todos-os-episodios",
      "texto_original": "Mobile Suit Gundam: Iron-Blooded Orphans",
      "rating": 8.03,
      "classificacao_etaria": "A16",
      "imagem_original": "https://animefire.plus/img/animes/mobile-suit-gundam-iron-blooded-orphans.webp",
      "imagem_pasta": "https://animefire.plus/img/animes/mobile-suit-gundam-iron-blooded-orphans/",
      "secao": "legendados",
      "pagina": 121,
      "total_episodios": 2,
      "link_video": "https://animefire.plus/video/mobile-suit-gundam-iron-blooded-orphans"
    },
    {
      "id": 2555,
      "nome": "Mobile Suit Gundam: Iron-Blooded Orphans 2nd Season",
      "link": "https://animefire.plus/animes/mobile-suit-gundam-iron-blooded-orphans-2nd-season-todos-os-episodios",
      "texto_original": "Mobile Suit Gundam: Iron-Blooded Orphans 2nd Season",
      "rating": 8.26,
      "classificacao_etaria": "A16",
      "imagem_original": "https://animefire.plus/img/animes/mobile-suit-gundam-iron-blooded-orphans-2nd-season.webp",
      "imagem_pasta": "https://animefire.plus/img/animes/mobile-suit-gundam-iron-blooded-orphans-2nd-season/",
      "secao": "legendados",
      "pagina": 64,
      "total_episodios": 25,
      "link_video": "https://animefire.plus/video/mobile-suit-gundam-iron-blooded-orphans-2nd-season"
    },
    {
      "id": 2556,
      "nome": "Mobile Suit Gundam: The 08th MS Team",
      "link": "https://animefire.plus/animes/mobile-suit-gundam-the-08th-ms-team-todos-os-episodios",
      "texto_original": "Mobile Suit Gundam: The 08th MS Team",
      "rating": 8.03,
      "classificacao_etaria": "A14",
      "imagem_original": "https://animefire.plus/img/animes/mobile-suit-gundam-the-08th-ms-team.webp",
      "imagem_pasta": "https://animefire.plus/img/animes/mobile-suit-gundam-the-08th-ms-team/",
      "secao": "legendados",
      "pagina": 55,
      "total_episodios": 12,
      "link_video": "https://animefire.plus/video/mobile-suit-gundam-the-08th-ms-team"
    },
    {
      "id": 2557,
      "nome": "Mobile Suit Gundam: The Origin",
      "link": "https://animefire.plus/animes/mobile-suit-gundam-the-origin-todos-os-episodios",
      "texto_original": "Mobile Suit Gundam: The Origin",
      "rating": 8.33,
      "classificacao_etaria": "A18",
      "imagem_original": "https://animefire.plus/img/animes/mobile-suit-gundam-the-origin.webp",
      "imagem_pasta": "https://animefire.plus/img/animes/mobile-suit-gundam-the-origin/",
      "secao": "legendados",
      "pagina": 178,
      "total_episodios": 5,
      "link_video": "https://animefire.plus/video/mobile-suit-gundam-the-origin"
    },
    {
      "id": 2558,
      "nome": "Mobile Suit Gundam: The Witch from Mercury",
      "link": "https://animefire.plus/animes/mobile-suit-gundam-the-witch-from-mercury-todos-os-episodios",
      "texto_original": "Mobile Suit Gundam: The Witch from Mercury",
      "rating": 7.85,
      "classificacao_etaria": "A16",
      "imagem_original": "https://animefire.plus/img/animes/mobile-suit-gundam-the-witch-from-mercury.webp",
      "imagem_pasta": "https://animefire.plus/img/animes/mobile-suit-gundam-the-witch-from-mercury/",
      "secao": "legendados",
      "pagina": 29,
      "total_episodios": 12,
      "link_video": "https://animefire.plus/video/mobile-suit-gundam-the-witch-from-mercury"
    },
    {
      "id": 2559,
      "nome": "Mobile Suit Gundam: Twilight Axis",
      "link": "https://animefire.plus/animes/mobile-suit-gundam-twilight-axis-todos-os-episodios",
      "texto_original": "Mobile Suit Gundam: Twilight Axis",
      "rating": 5.02,
      "classificacao_etaria": "A14",
      "imagem_original": "https://animefire.plus/img/animes/mobile-suit-gundam-twilight-axis.webp",
      "imagem_pasta": "https://animefire.plus/img/animes/mobile-suit-gundam-twilight-axis/",
      "secao": "legendados",
      "pagina": 149,
      "total_episodios": 9,
      "link_video": "https://animefire.plus/video/mobile-suit-gundam-twilight-axis"
    },
    {
      "id": 2560,
      "nome": "Mobile Suit Victory Gundam",
      "link": "https://animefire.plus/animes/mobile-suit-victory-gundam-todos-os-episodios",
      "texto_original": "Mobile Suit Victory Gundam",
      "rating": 6.76,
      "classificacao_etaria": "A14",
      "imagem_original": "https://animefire.plus/img/animes/mobile-suit-victory-gundam.webp",
      "imagem_pasta": "https://animefire.plus/img/animes/mobile-suit-victory-gundam/",
      "secao": "legendados",
      "pagina": 55,
      "total_episodios": 51,
      "link_video": "https://animefire.plus/video/mobile-suit-victory-gundam"
    },
    {
      "id": 2561,
      "nome": "Mobile Suit Zeta Gundam",
      "link": "https://animefire.plus/animes/mobile-suit-zeta-gundam-todos-os-episodios",
      "texto_original": "Mobile Suit Zeta Gundam",
      "rating": 7.93,
      "classificacao_etaria": "A14",
      "imagem_original": "https://animefire.plus/img/animes/mobile-suit-zeta-gundam.webp",
      "imagem_pasta": "https://animefire.plus/img/animes/mobile-suit-zeta-gundam/",
      "secao": "legendados",
      "pagina": 55,
      "total_episodios": 50,
      "link_video": "https://animefire.plus/video/mobile-suit-zeta-gundam"
    },
    {
      "id": 2562,
      "nome": "Moetan",
      "link": "https://animefire.plus/animes/moetan-todos-os-episodios",
      "texto_original": "Moetan",
      "rating": 6.48,
      "classificacao_etaria": "A18",
      "imagem_original": "https://animefire.plus/img/animes/moetan.webp",
      "imagem_pasta": "https://animefire.plus/img/animes/moetan/",
      "secao": "legendados",
      "pagina": 145,
      "total_episodios": 0,
      "link_video": "https://animefire.plus/video/moetan"
    },
    {
      "id": 2563,
      "nome": "Mokke",
      "link": "https://animefire.plus/animes/mokke-todos-os-episodios",
      "texto_original": "Mokke",
      "rating": 7.13,
      "classificacao_etaria": "A10",
      "imagem_original": "https://animefire.plus/img/animes/mokke.webp",
      "imagem_pasta": "https://animefire.plus/img/animes/mokke/",
      "secao": "legendados",
      "pagina": 139,
      "total_episodios": 24,
      "link_video": "https://animefire.plus/video/mokke"
    },
    {
      "id": 2564,
      "nome": "Momentary Lily",
      "link": "https://animefire.plus/animes/momentary-lily-todos-os-episodios",
      "texto_original": "Momentary Lily",
      "rating": 5.92,
      "classificacao_etaria": "A14",
      "imagem_original": "https://animefire.plus/img/animes/momentary-lily.webp",
      "imagem_pasta": "https://animefire.plus/img/animes/momentary-lily/",
      "secao": "legendados",
      "pagina": 7,
      "total_episodios": 14,
      "link_video": "https://animefire.plus/video/momentary-lily"
    },
    {
      "id": 2565,
      "nome": "Momo Kyun Sword",
      "link": "https://animefire.plus/animes/momo-kyun-sword-todos-os-episodios",
      "texto_original": "Momo Kyun Sword",
      "rating": 5.65,
      "classificacao_etaria": "A14",
      "imagem_original": "https://animefire.plus/img/animes/momo-kyun-sword.webp",
      "imagem_pasta": "https://animefire.plus/img/animes/momo-kyun-sword/",
      "secao": "legendados",
      "pagina": 145,
      "total_episodios": 4,
      "link_video": "https://animefire.plus/video/momo-kyun-sword"
    }
  ],
  "pagination": {
    "current_page": 125,
    "per_page": 20,
    "total_items": 4269,
    "total_pages": 214,
    "has_next": true,
    "has_prev": true
  }
}
