{
  "message": "Animes da seção: legendados",
  "section": "legendados",
  "data": [
    {
      "id": 4133,
      "nome": "Wind Breaker Season 2 (Dublado)",
      "link": "https://animefire.plus/animes/wind-breaker-season-2-dublado-todos-os-episodios",
      "texto_original": "Wind Breaker Season 2 (Dublado)",
      "rating": 7.65,
      "classificacao_etaria": "A14",
      "imagem_original": "https://animefire.plus/img/animes/wind-breaker-season-2.webp",
      "imagem_pasta": "https://animefire.plus/img/animes/wind-breaker-season-2/",
      "secao": "dublados,legendados,lancamentos",
      "pagina": 1,
      "total_episodios": 12,
      "link_video": "https://animefire.plus/video/wind-breaker-season-2-dublado"
    },
    {
      "id": 4134,
      "nome": "Wind: A Breath of Heart (TV)",
      "link": "https://animefire.plus/animes/wind-a-breath-of-heart-tv-todos-os-episodios",
      "texto_original": "Wind: A Breath of Heart (TV)",
      "rating": 6.06,
      "classificacao_etaria": "A14",
      "imagem_original": "https://animefire.plus/img/animes/wind-a-breath-of-heart-tv.webp",
      "imagem_pasta": "https://animefire.plus/img/animes/wind-a-breath-of-heart-tv/",
      "secao": "legendados",
      "pagina": 155,
      "total_episodios": 13,
      "link_video": "https://animefire.plus/video/wind-a-breath-of-heart-tv"
    },
    {
      "id": 4135,
      "nome": "Witch Craft Works",
      "link": "https://animefire.plus/animes/witch-craft-works-todos-os-episodios",
      "texto_original": "Witch Craft Works",
      "rating": 7.18,
      "classificacao_etaria": "A14",
      "imagem_original": "https://animefire.plus/img/animes/witch-craft-works.webp",
      "imagem_pasta": "https://animefire.plus/img/animes/witch-craft-works/",
      "secao": "legendados",
      "pagina": 107,
      "total_episodios": 12,
      "link_video": "https://animefire.plus/video/witch-craft-works"
    },
    {
      "id": 4136,
      "nome": "Witch Hunter Robin",
      "link": "https://animefire.plus/animes/witch-hunter-robin-todos-os-episodios",
      "texto_original": "Witch Hunter Robin",
      "rating": 7.32,
      "classificacao_etaria": "A14",
      "imagem_original": "https://animefire.plus/img/animes/witch-hunter-robin.webp",
      "imagem_pasta": "https://animefire.plus/img/animes/witch-hunter-robin/",
      "secao": "legendados",
      "pagina": 156,
      "total_episodios": 26,
      "link_video": "https://animefire.plus/video/witch-hunter-robin"
    },
    {
      "id": 4137,
      "nome": "Witch Watch (Dublado)",
      "link": "https://animefire.plus/animes/witch-watch-dublado-todos-os-episodios",
      "texto_original": "Witch Watch (Dublado)",
      "rating": 7.4,
      "classificacao_etaria": "A14",
      "imagem_original": "https://animefire.plus/img/animes/witch-watch.webp",
      "imagem_pasta": "https://animefire.plus/img/animes/witch-watch/",
      "secao": "dublados,legendados,lancamentos",
      "pagina": 1,
      "total_episodios": 18,
      "link_video": "https://animefire.plus/video/witch-watch-dublado"
    },
    {
      "id": 4138,
      "nome": "Witchblade",
      "link": "https://animefire.plus/animes/witchblade-todos-os-episodios",
      "texto_original": "Witchblade",
      "rating": 7.34,
      "classificacao_etaria": "A16",
      "imagem_original": "https://animefire.plus/img/animes/witchblade.webp",
      "imagem_pasta": "https://animefire.plus/img/animes/witchblade/",
      "secao": "legendados",
      "pagina": 134,
      "total_episodios": 2,
      "link_video": "https://animefire.plus/video/witchblade"
    },
    {
      "id": 4139,
      "nome": "WIXOSS Diva(A)Live",
      "link": "https://animefire.plus/animes/wixoss-diva-a-live-todos-os-episodios",
      "texto_original": "WIXOSS Diva(A)Live",
      "rating": 5.6,
      "classificacao_etaria": "A14",
      "imagem_original": "https://animefire.plus/img/animes/wixoss-diva-a-live.webp",
      "imagem_pasta": "https://animefire.plus/img/animes/wixoss-diva-a-live/",
      "secao": "legendados",
      "pagina": 48,
      "total_episodios": 12,
      "link_video": "https://animefire.plus/video/wixoss-diva-a-live"
    },
    {
      "id": 4140,
      "nome": "Wizard Barristers: Benmashi Cecil",
      "link": "https://animefire.plus/animes/wizard-barristers-benmashi-cecil-todos-os-episodios",
      "texto_original": "Wizard Barristers: Benmashi Cecil",
      "rating": 6.22,
      "classificacao_etaria": "A14",
      "imagem_original": "https://animefire.plus/img/animes/wizard-barristers-benmashi-cecil.webp",
      "imagem_pasta": "https://animefire.plus/img/animes/wizard-barristers-benmashi-cecil/",
      "secao": "legendados",
      "pagina": 164,
      "total_episodios": 12,
      "link_video": "https://animefire.plus/video/wizard-barristers-benmashi-cecil"
    },
    {
      "id": 4141,
      "nome": "Wo De Ni Tian Shen Qi",
      "link": "https://animefire.plus/animes/wo-de-ni-tian-shen-qi-todos-os-episodios",
      "texto_original": "Wo De Ni Tian Shen Qi",
      "rating": 6.62,
      "classificacao_etaria": "A14",
      "imagem_original": "https://animefire.plus/img/animes/wo-de-ni-tian-shen-qi.webp",
      "imagem_pasta": "https://animefire.plus/img/animes/wo-de-ni-tian-shen-qi/",
      "secao": "legendados",
      "pagina": 163,
      "total_episodios": 16,
      "link_video": "https://animefire.plus/video/wo-de-ni-tian-shen-qi"
    },
    {
      "id": 4142,
      "nome": "Wo De Tian Jie Nu You",
      "link": "https://animefire.plus/animes/wo-de-tian-jie-nu-you-todos-os-episodios",
      "texto_original": "Wo De Tian Jie Nu You",
      "rating": 6.64,
      "classificacao_etaria": "A16",
      "imagem_original": "https://animefire.plus/img/animes/wo-de-tian-jie-nu-you.webp",
      "imagem_pasta": "https://animefire.plus/img/animes/wo-de-tian-jie-nu-you/",
      "secao": "legendados",
      "pagina": 59,
      "total_episodios": 15,
      "link_video": "https://animefire.plus/video/wo-de-tian-jie-nu-you"
    },
    {
      "id": 4143,
      "nome": "Wo De Tian Jie Nv You",
      "link": "https://animefire.plus/animes/wo-de-tian-jie-nv-you-todos-os-episodios",
      "texto_original": "Wo De Tian Jie Nv You",
      "rating": 6.73,
      "classificacao_etaria": "A16",
      "imagem_original": "https://animefire.plus/img/animes/wo-de-tian-jie-nv-you.webp",
      "imagem_pasta": "https://animefire.plus/img/animes/wo-de-tian-jie-nv-you/",
      "secao": "legendados",
      "pagina": 126,
      "total_episodios": 15,
      "link_video": "https://animefire.plus/video/wo-de-tian-jie-nv-you"
    },
    {
      "id": 4144,
      "nome": "Wo Kai Dongwuyuan Naxie Nian",
      "link": "https://animefire.plus/animes/wo-kai-dongwuyuan-naxie-nian-todos-os-episodios",
      "texto_original": "Wo Kai Dongwuyuan Naxie Nian",
      "rating": 6.37,
      "classificacao_etaria": "A14",
      "imagem_original": "https://animefire.plus/img/animes/wo-kai-dongwuyuan-naxie-nian.webp",
      "imagem_pasta": "https://animefire.plus/img/animes/wo-kai-dongwuyuan-naxie-nian/",
      "secao": "legendados,lancamentos",
      "pagina": 75,
      "total_episodios": 4,
      "link_video": "https://animefire.plus/video/wo-kai-dongwuyuan-naxie-nian"
    },
    {
      "id": 4145,
      "nome": "Wo Shi Jiang Xiaobai",
      "link": "https://animefire.plus/animes/wo-shi-jiang-xiaobai-todos-os-episodios",
      "texto_original": "Wo Shi Jiang Xiaobai",
      "rating": 7.34,
      "classificacao_etaria": "A14",
      "imagem_original": "https://animefire.plus/img/animes/wo-shi-jiang-xiaobai.webp",
      "imagem_pasta": "https://animefire.plus/img/animes/wo-shi-jiang-xiaobai/",
      "secao": "legendados",
      "pagina": 168,
      "total_episodios": 12,
      "link_video": "https://animefire.plus/video/wo-shi-jiang-xiaobai"
    },
    {
      "id": 4146,
      "nome": "Wo Shi Jiang Xiaobai 2nd Season",
      "link": "https://animefire.plus/animes/wo-shi-jiang-xiaobai-2nd-season-todos-os-episodios",
      "texto_original": "Wo Shi Jiang Xiaobai 2nd Season",
      "rating": null,
      "classificacao_etaria": "A14",
      "imagem_original": "https://animefire.plus/img/animes/wo-shi-jiang-xiaobai-2nd-season.webp",
      "imagem_pasta": "https://animefire.plus/img/animes/wo-shi-jiang-xiaobai-2nd-season/",
      "secao": "legendados",
      "pagina": 84,
      "total_episodios": 12,
      "link_video": "https://animefire.plus/video/wo-shi-jiang-xiaobai-2nd-season"
    },
    {
      "id": 4147,
      "nome": "Wolf's Rain (Dublado)",
      "link": "https://animefire.plus/animes/wolf-s-rain-dublado-todos-os-episodios",
      "texto_original": "Wolf's Rain (Dublado)",
      "rating": 7.88,
      "classificacao_etaria": "A14",
      "imagem_original": "https://animefire.plus/img/animes/wolf-s-rain.webp",
      "imagem_pasta": "https://animefire.plus/img/animes/wolf-s-rain/",
      "secao": "dublados,legendados",
      "pagina": 25,
      "total_episodios": 26,
      "link_video": "https://animefire.plus/video/wolf-s-rain-dublado"
    },
    {
      "id": 4148,
      "nome": "Wolf's Rain OVA",
      "link": "https://animefire.plus/animes/wolf-s-rain-ova-todos-os-episodios",
      "texto_original": "Wolf's Rain OVA",
      "rating": 8.02,
      "classificacao_etaria": "A14",
      "imagem_original": "https://animefire.plus/img/animes/wolf-s-rain-ova.webp",
      "imagem_pasta": "https://animefire.plus/img/animes/wolf-s-rain-ova/",
      "secao": "legendados",
      "pagina": 45,
      "total_episodios": 4,
      "link_video": "https://animefire.plus/video/wolf-s-rain-ova"
    },
    {
      "id": 4149,
      "nome": "Wolverine",
      "link": "https://animefire.plus/animes/wolverine-todos-os-episodios",
      "texto_original": "Wolverine",
      "rating": 6.18,
      "classificacao_etaria": "A14",
      "imagem_original": "https://animefire.plus/img/animes/wolverine.webp",
      "imagem_pasta": "https://animefire.plus/img/animes/wolverine/",
      "secao": "legendados",
      "pagina": 131,
      "total_episodios": 12,
      "link_video": "https://animefire.plus/video/wolverine"
    },
    {
      "id": 4150,
      "nome": "Wonder Egg Priority (Dublado)",
      "link": "https://animefire.plus/animes/wonder-egg-priority-dublado-todos-os-episodios",
      "texto_original": "Wonder Egg Priority (Dublado)",
      "rating": 7.55,
      "classificacao_etaria": "A16",
      "imagem_original": "https://animefire.plus/img/animes/wonder-egg-priority.webp",
      "imagem_pasta": "https://animefire.plus/img/animes/wonder-egg-priority/",
      "secao": "dublados,legendados",
      "pagina": 15,
      "total_episodios": 12,
      "link_video": "https://animefire.plus/video/wonder-egg-priority-dublado"
    },
    {
      "id": 4151,
      "nome": "Wonder Egg Priority Special",
      "link": "https://animefire.plus/animes/wonder-egg-priority-special-todos-os-episodios",
      "texto_original": "Wonder Egg Priority Special",
      "rating": 5.15,
      "classificacao_etaria": "A16",
      "imagem_original": "https://animefire.plus/img/animes/wonder-egg-priority-special.webp",
      "imagem_pasta": "https://animefire.plus/img/animes/wonder-egg-priority-special/",
      "secao": "legendados",
      "pagina": 38,
      "total_episodios": 1,
      "link_video": "https://animefire.plus/video/wonder-egg-priority-special"
    },
    {
      "id": 4152,
      "nome": "Wonderful Precure!",
      "link": "https://animefire.plus/animes/wonderful-precure-todos-os-episodios",
      "texto_original": "Wonderful Precure!",
      "rating": 7.57,
      "classificacao_etaria": null,
      "imagem_original": "https://animefire.plus/img/animes/wonderful-precure.webp",
      "imagem_pasta": "https://animefire.plus/img/animes/wonderful-precure/",
      "secao": "legendados",
      "pagina": 16,
      "total_episodios": 50,
      "link_video": "https://animefire.plus/video/wonderful-precure"
    }
  ],
  "pagination": {
    "current_page": 203,
    "per_page": 20,
    "total_items": 4269,
    "total_pages": 214,
    "has_next": true,
    "has_prev": true
  }
}
