{
  "message": "Animes da seção: legendados",
  "section": "legendados",
  "data": [
    {
      "id": 3113,
      "nome": "Renkin San-kyuu Magical? Pokaan",
      "link": "https://animefire.plus/animes/renkin-san-kyuu-magical-pokaan-todos-os-episodios",
      "texto_original": "Renkin San-kyuu Magical? Pokaan",
      "rating": 7,
      "classificacao_etaria": "A18",
      "imagem_original": "https://animefire.plus/img/animes/renkin-san-kyuu-magical-pokaan.webp",
      "imagem_pasta": "https://animefire.plus/img/animes/renkin-san-kyuu-magical-pokaan/",
      "secao": "legendados",
      "pagina": 65,
      "total_episodios": 12,
      "link_video": "https://animefire.plus/video/renkin-san-kyuu-magical-pokaan"
    },
    {
      "id": 3114,
      "nome": "Renmei Kuugun Koukuu Mahou Ongakutai Luminous Witches",
      "link": "https://animefire.plus/animes/renmei-kuugun-koukuu-mahou-ongakutai-luminous-witches-todos-os-episodios",
      "texto_original": "Renmei Kuugun Koukuu Mahou Ongakutai Luminous Witches",
      "rating": 6.69,
      "classificacao_etaria": "A14",
      "imagem_original": "https://animefire.plus/img/animes/renmei-kuugun-koukuu-mahou-ongakutai-luminous-witches.webp",
      "imagem_pasta": "https://animefire.plus/img/animes/renmei-kuugun-koukuu-mahou-ongakutai-luminous-witches/",
      "secao": "legendados",
      "pagina": 31,
      "total_episodios": 12,
      "link_video": "https://animefire.plus/video/renmei-kuugun-koukuu-mahou-ongakutai-luminous-witches"
    },
    {
      "id": 3115,
      "nome": "Rental Magica",
      "link": "https://animefire.plus/animes/rental-magica-todos-os-episodios",
      "texto_original": "Rental Magica",
      "rating": 7.12,
      "classificacao_etaria": "A14",
      "imagem_original": "https://animefire.plus/img/animes/rental-magica.webp",
      "imagem_pasta": "https://animefire.plus/img/animes/rental-magica/",
      "secao": "legendados",
      "pagina": 141,
      "total_episodios": 24,
      "link_video": "https://animefire.plus/video/rental-magica"
    },
    {
      "id": 3116,
      "nome": "RErideD: Tokigoe no Derrida",
      "link": "https://animefire.plus/animes/rerided-tokigoe-no-derrida-todos-os-episodios",
      "texto_original": "RErideD: Tokigoe no Derrida",
      "rating": 5.8,
      "classificacao_etaria": "A14",
      "imagem_original": "https://animefire.plus/img/animes/rerided-tokigoe-no-derrida.webp",
      "imagem_pasta": "https://animefire.plus/img/animes/rerided-tokigoe-no-derrida/",
      "secao": "legendados",
      "pagina": 135,
      "total_episodios": 12,
      "link_video": "https://animefire.plus/video/rerided-tokigoe-no-derrida"
    },
    {
      "id": 3117,
      "nome": "Revenger",
      "link": "https://animefire.plus/animes/revenger-todos-os-episodios",
      "texto_original": "Revenger",
      "rating": 6.67,
      "classificacao_etaria": "A16",
      "imagem_original": "https://animefire.plus/img/animes/revenger.webp",
      "imagem_pasta": "https://animefire.plus/img/animes/revenger/",
      "secao": "legendados",
      "pagina": 27,
      "total_episodios": 12,
      "link_video": "https://animefire.plus/video/revenger"
    },
    {
      "id": 3118,
      "nome": "Revisions (Dublado)",
      "link": "https://animefire.plus/animes/revisions-dublado-todos-os-episodios",
      "texto_original": "Revisions (Dublado)",
      "rating": 6.17,
      "classificacao_etaria": "A14",
      "imagem_original": "https://animefire.plus/img/animes/revisions.webp",
      "imagem_pasta": "https://animefire.plus/img/animes/revisions/",
      "secao": "dublados,legendados",
      "pagina": 25,
      "total_episodios": 12,
      "link_video": "https://animefire.plus/video/revisions-dublado"
    },
    {
      "id": 3119,
      "nome": "Rewrite",
      "link": "https://animefire.plus/animes/rewrite-todos-os-episodios",
      "texto_original": "Rewrite",
      "rating": 6.74,
      "classificacao_etaria": "A14",
      "imagem_original": "https://animefire.plus/img/animes/rewrite.webp",
      "imagem_pasta": "https://animefire.plus/img/animes/rewrite/",
      "secao": "legendados",
      "pagina": 64,
      "total_episodios": 24,
      "link_video": "https://animefire.plus/video/rewrite"
    },
    {
      "id": 3120,
      "nome": "Rhea Gall Force",
      "link": "https://animefire.plus/animes/rhea-gall-force-todos-os-episodios",
      "texto_original": "Rhea Gall Force",
      "rating": 6.3,
      "classificacao_etaria": "A16",
      "imagem_original": "https://animefire.plus/img/animes/rhea-gall-force.webp",
      "imagem_pasta": "https://animefire.plus/img/animes/rhea-gall-force/",
      "secao": "legendados",
      "pagina": 56,
      "total_episodios": 1,
      "link_video": "https://animefire.plus/video/rhea-gall-force"
    },
    {
      "id": 3121,
      "nome": "RideBack",
      "link": "https://animefire.plus/animes/rideback-todos-os-episodios",
      "texto_original": "RideBack",
      "rating": 7.33,
      "classificacao_etaria": "A14",
      "imagem_original": "https://animefire.plus/img/animes/rideback.webp",
      "imagem_pasta": "https://animefire.plus/img/animes/rideback/",
      "secao": "legendados",
      "pagina": 130,
      "total_episodios": 12,
      "link_video": "https://animefire.plus/video/rideback"
    },
    {
      "id": 3122,
      "nome": "Riding Bean",
      "link": "https://animefire.plus/animes/riding-bean-todos-os-episodios",
      "texto_original": "Riding Bean",
      "rating": 7.09,
      "classificacao_etaria": "A18",
      "imagem_original": "https://animefire.plus/img/animes/riding-bean.webp",
      "imagem_pasta": "https://animefire.plus/img/animes/riding-bean/",
      "secao": "legendados",
      "pagina": 67,
      "total_episodios": 1,
      "link_video": "https://animefire.plus/video/riding-bean"
    },
    {
      "id": 3123,
      "nome": "Rifle Is Beautiful",
      "link": "https://animefire.plus/animes/rifle-is-beautiful-todos-os-episodios",
      "texto_original": "Rifle Is Beautiful",
      "rating": 6.19,
      "classificacao_etaria": "A14",
      "imagem_original": "https://animefire.plus/img/animes/rifle-is-beautiful.webp",
      "imagem_pasta": "https://animefire.plus/img/animes/rifle-is-beautiful/",
      "secao": "legendados",
      "pagina": 109,
      "total_episodios": 1,
      "link_video": "https://animefire.plus/video/rifle-is-beautiful"
    },
    {
      "id": 3124,
      "nome": "Rikei ga Koi ni Ochita no de Shoumei shitemita. (Dublado)",
      "link": "https://animefire.plus/animes/rikei-ga-koi-ni-ochita-no-de-shoumei-shitemita-dublado-todos-os-episodios",
      "texto_original": "Rikei ga Koi ni Ochita no de Shoumei shitemita. (Dublado)",
      "rating": 7.36,
      "classificacao_etaria": "A14",
      "imagem_original": "https://animefire.plus/img/animes/rikei-ga-koi-ni-ochita-no-de-shoumei-shitemita.webp",
      "imagem_pasta": "https://animefire.plus/img/animes/rikei-ga-koi-ni-ochita-no-de-shoumei-shitemita/",
      "secao": "dublados,legendados",
      "pagina": 8,
      "total_episodios": 12,
      "link_video": "https://animefire.plus/video/rikei-ga-koi-ni-ochita-no-de-shoumei-shitemita-dublado"
    },
    {
      "id": 3125,
      "nome": "Rikei ga Koi ni Ochita no de Shoumei shitemita. Heart (Dublado)",
      "link": "https://animefire.plus/animes/rikei-ga-koi-ni-ochita-no-de-shoumei-shitemita-heart-dublado-todos-os-episodios",
      "texto_original": "Rikei ga Koi ni Ochita no de Shoumei shitemita. Heart (Dublado)",
      "rating": 7.3,
      "classificacao_etaria": "A14",
      "imagem_original": "https://animefire.plus/img/animes/rikei-ga-koi-ni-ochita-no-de-shoumei-shitemita-heart.webp",
      "imagem_pasta": "https://animefire.plus/img/animes/rikei-ga-koi-ni-ochita-no-de-shoumei-shitemita-heart/",
      "secao": "dublados,legendados",
      "pagina": 12,
      "total_episodios": 12,
      "link_video": "https://animefire.plus/video/rikei-ga-koi-ni-ochita-no-de-shoumei-shitemita-heart-dublado"
    },
    {
      "id": 3126,
      "nome": "Ring Ni Kakero 1",
      "link": "https://animefire.plus/animes/ring-ni-kakero-1-todos-os-episodios",
      "texto_original": "Ring Ni Kakero 1",
      "rating": 6.5,
      "classificacao_etaria": "A10",
      "imagem_original": "https://animefire.plus/img/animes/ring-ni-kakero-1.webp",
      "imagem_pasta": "https://animefire.plus/img/animes/ring-ni-kakero-1/",
      "secao": "legendados",
      "pagina": 101,
      "total_episodios": 0,
      "link_video": "https://animefire.plus/video/ring-ni-kakero-1"
    },
    {
      "id": 3127,
      "nome": "Ring Ni Kakero 1: Kage Dou-hen",
      "link": "https://animefire.plus/animes/ring-ni-kakero-1-kage-dou-hen-todos-os-episodios",
      "texto_original": "Ring Ni Kakero 1: Kage Dou-hen",
      "rating": 6.75,
      "classificacao_etaria": "A14",
      "imagem_original": "https://animefire.plus/img/animes/ring-ni-kakero-1-kage-dou-hen.webp",
      "imagem_pasta": "https://animefire.plus/img/animes/ring-ni-kakero-1-kage-dou-hen/",
      "secao": "legendados",
      "pagina": 108,
      "total_episodios": 6,
      "link_video": "https://animefire.plus/video/ring-ni-kakero-1-kage-dou-hen"
    },
    {
      "id": 3128,
      "nome": "Ring ni Kakero 1: Nichibei Kessen-hen",
      "link": "https://animefire.plus/animes/ring-ni-kakero-1-nichibei-kessen-hen-todos-os-episodios",
      "texto_original": "Ring ni Kakero 1: Nichibei Kessen-hen",
      "rating": 6.72,
      "classificacao_etaria": "A14",
      "imagem_original": "https://animefire.plus/img/animes/ring-ni-kakero-1-nichibei-kessen-hen.webp",
      "imagem_pasta": "https://animefire.plus/img/animes/ring-ni-kakero-1-nichibei-kessen-hen/",
      "secao": "legendados",
      "pagina": 159,
      "total_episodios": 12,
      "link_video": "https://animefire.plus/video/ring-ni-kakero-1-nichibei-kessen-hen"
    },
    {
      "id": 3129,
      "nome": "Ring Ni Kakero 1: Sekai Taikai-hen",
      "link": "https://animefire.plus/animes/ring-ni-kakero-1-sekai-taikai-hen-todos-os-episodios",
      "texto_original": "Ring Ni Kakero 1: Sekai Taikai-hen",
      "rating": 6.77,
      "classificacao_etaria": "A14",
      "imagem_original": "https://animefire.plus/img/animes/ring-ni-kakero-1-sekai-taikai-hen.webp",
      "imagem_pasta": "https://animefire.plus/img/animes/ring-ni-kakero-1-sekai-taikai-hen/",
      "secao": "legendados",
      "pagina": 103,
      "total_episodios": 6,
      "link_video": "https://animefire.plus/video/ring-ni-kakero-1-sekai-taikai-hen"
    },
    {
      "id": 3130,
      "nome": "Rinne no Lagrange",
      "link": "https://animefire.plus/animes/rinne-no-lagrange-todos-os-episodios",
      "texto_original": "Rinne no Lagrange",
      "rating": 6.97,
      "classificacao_etaria": "A14",
      "imagem_original": "https://animefire.plus/img/animes/rinne-no-lagrange.webp",
      "imagem_pasta": "https://animefire.plus/img/animes/rinne-no-lagrange/",
      "secao": "legendados",
      "pagina": 153,
      "total_episodios": 12,
      "link_video": "https://animefire.plus/video/rinne-no-lagrange"
    },
    {
      "id": 3131,
      "nome": "Rinne no Lagrange Season 2",
      "link": "https://animefire.plus/animes/rinne-no-lagrange-season-2-todos-os-episodios",
      "texto_original": "Rinne no Lagrange Season 2",
      "rating": 7.03,
      "classificacao_etaria": "A14",
      "imagem_original": "https://animefire.plus/img/animes/rinne-no-lagrange-season-2.webp",
      "imagem_pasta": "https://animefire.plus/img/animes/rinne-no-lagrange-season-2/",
      "secao": "legendados",
      "pagina": 161,
      "total_episodios": 3,
      "link_video": "https://animefire.plus/video/rinne-no-lagrange-season-2"
    },
    {
      "id": 3132,
      "nome": "Rinne no Lagrange: Kamogawa Days",
      "link": "https://animefire.plus/animes/rinne-no-lagrange-kamogawa-days-todos-os-episodios",
      "texto_original": "Rinne no Lagrange: Kamogawa Days",
      "rating": 6.82,
      "classificacao_etaria": "A14",
      "imagem_original": "https://animefire.plus/img/animes/rinne-no-lagrange-kamogawa-days.webp",
      "imagem_pasta": "https://animefire.plus/img/animes/rinne-no-lagrange-kamogawa-days/",
      "secao": "legendados",
      "pagina": 71,
      "total_episodios": 1,
      "link_video": "https://animefire.plus/video/rinne-no-lagrange-kamogawa-days"
    }
  ],
  "pagination": {
    "current_page": 153,
    "per_page": 20,
    "total_items": 4269,
    "total_pages": 214,
    "has_next": true,
    "has_prev": true
  }
}
