{
  "message": "Animes da seção: legendados",
  "section": "legendados",
  "data": [
    {
      "id": 1079,
      "nome": "Gaist Crusher",
      "link": "https://animefire.plus/animes/gaist-crusher-todos-os-episodios",
      "texto_original": "Gaist Crusher",
      "rating": 6.01,
      "classificacao_etaria": "A10",
      "imagem_original": "https://animefire.plus/img/animes/gaist-crusher.webp",
      "imagem_pasta": "https://animefire.plus/img/animes/gaist-crusher/",
      "secao": "legendados",
      "pagina": 179,
      "total_episodios": 3,
      "link_video": "https://animefire.plus/video/gaist-crusher"
    },
    {
      "id": 1081,
      "nome": "Gakkougurashi!",
      "link": "https://animefire.plus/animes/gakkougurashi-todos-os-episodios",
      "texto_original": "Gakkougurashi!",
      "rating": 7.64,
      "classificacao_etaria": "A16",
      "imagem_original": "https://animefire.plus/img/animes/gakkougurashi.webp",
      "imagem_pasta": "https://animefire.plus/img/animes/gakkougurashi/",
      "secao": "legendados",
      "pagina": 57,
      "total_episodios": 12,
      "link_video": "https://animefire.plus/video/gakkougurashi"
    },
    {
      "id": 1082,
      "nome": "Gakuen Alice",
      "link": "https://animefire.plus/animes/gakuen-alice-todos-os-episodios",
      "texto_original": "Gakuen Alice",
      "rating": 7.75,
      "classificacao_etaria": null,
      "imagem_original": "https://animefire.plus/img/animes/gakuen-alice.webp",
      "imagem_pasta": "https://animefire.plus/img/animes/gakuen-alice/",
      "secao": "legendados",
      "pagina": 176,
      "total_episodios": 26,
      "link_video": "https://animefire.plus/video/gakuen-alice"
    },
    {
      "id": 1083,
      "nome": "Gakuen Babysitters",
      "link": "https://animefire.plus/animes/gakuen-babysitters-todos-os-episodios",
      "texto_original": "Gakuen Babysitters",
      "rating": 7.91,
      "classificacao_etaria": "A14",
      "imagem_original": "https://animefire.plus/img/animes/gakuen-babysitters.webp",
      "imagem_pasta": "https://animefire.plus/img/animes/gakuen-babysitters/",
      "secao": "legendados",
      "pagina": 102,
      "total_episodios": 12,
      "link_video": "https://animefire.plus/video/gakuen-babysitters"
    },
    {
      "id": 1084,
      "nome": "Gakuen Babysitters Special",
      "link": "https://animefire.plus/animes/gakuen-babysitters-special-todos-os-episodios",
      "texto_original": "Gakuen Babysitters Special",
      "rating": 7.59,
      "classificacao_etaria": "A14",
      "imagem_original": "https://animefire.plus/img/animes/gakuen-babysitters-special.webp",
      "imagem_pasta": "https://animefire.plus/img/animes/gakuen-babysitters-special/",
      "secao": "legendados",
      "pagina": 88,
      "total_episodios": 1,
      "link_video": "https://animefire.plus/video/gakuen-babysitters-special"
    },
    {
      "id": 1085,
      "nome": "Gakuen Basara",
      "link": "https://animefire.plus/animes/gakuen-basara-todos-os-episodios",
      "texto_original": "Gakuen Basara",
      "rating": 6.22,
      "classificacao_etaria": "A14",
      "imagem_original": "https://animefire.plus/img/animes/gakuen-basara.webp",
      "imagem_pasta": "https://animefire.plus/img/animes/gakuen-basara/",
      "secao": "legendados",
      "pagina": 151,
      "total_episodios": 12,
      "link_video": "https://animefire.plus/video/gakuen-basara"
    },
    {
      "id": 1086,
      "nome": "Gakuen Handsome",
      "link": "https://animefire.plus/animes/gakuen-handsome-todos-os-episodios",
      "texto_original": "Gakuen Handsome",
      "rating": 6.52,
      "classificacao_etaria": "A14",
      "imagem_original": "https://animefire.plus/img/animes/gakuen-handsome.webp",
      "imagem_pasta": "https://animefire.plus/img/animes/gakuen-handsome/",
      "secao": "legendados",
      "pagina": 171,
      "total_episodios": 7,
      "link_video": "https://animefire.plus/video/gakuen-handsome"
    },
    {
      "id": 1087,
      "nome": "Gakuen Heaven",
      "link": "https://animefire.plus/animes/gakuen-heaven-todos-os-episodios",
      "texto_original": "Gakuen Heaven",
      "rating": 6.69,
      "classificacao_etaria": "A14",
      "imagem_original": "https://animefire.plus/img/animes/gakuen-heaven.webp",
      "imagem_pasta": "https://animefire.plus/img/animes/gakuen-heaven/",
      "secao": "legendados",
      "pagina": 105,
      "total_episodios": 13,
      "link_video": "https://animefire.plus/video/gakuen-heaven"
    },
    {
      "id": 1088,
      "nome": "Gakuen Tokusou Hikaruon",
      "link": "https://animefire.plus/animes/gakuen-tokusou-hikaruon-todos-os-episodios",
      "texto_original": "Gakuen Tokusou Hikaruon",
      "rating": 5.56,
      "classificacao_etaria": "A18",
      "imagem_original": "https://animefire.plus/img/animes/gakuen-tokusou-hikaruon.webp",
      "imagem_pasta": "https://animefire.plus/img/animes/gakuen-tokusou-hikaruon/",
      "secao": "legendados",
      "pagina": 44,
      "total_episodios": 1,
      "link_video": "https://animefire.plus/video/gakuen-tokusou-hikaruon"
    },
    {
      "id": 1089,
      "nome": "Gakuen Utopia Manabi Straight!",
      "link": "https://animefire.plus/animes/gakuen-utopia-manabi-straight-todos-os-episodios",
      "texto_original": "Gakuen Utopia Manabi Straight!",
      "rating": 7.32,
      "classificacao_etaria": null,
      "imagem_original": "https://animefire.plus/img/animes/gakuen-utopia-manabi-straight.webp",
      "imagem_pasta": "https://animefire.plus/img/animes/gakuen-utopia-manabi-straight/",
      "secao": "legendados",
      "pagina": 130,
      "total_episodios": 12,
      "link_video": "https://animefire.plus/video/gakuen-utopia-manabi-straight"
    },
    {
      "id": 1090,
      "nome": "Gakusen Toshi Asterisk",
      "link": "https://animefire.plus/animes/gakusen-toshi-asterisk-todos-os-episodios",
      "texto_original": "Gakusen Toshi Asterisk",
      "rating": 7.09,
      "classificacao_etaria": "A14",
      "imagem_original": "https://animefire.plus/img/animes/gakusen-toshi-asterisk.webp",
      "imagem_pasta": "https://animefire.plus/img/animes/gakusen-toshi-asterisk/",
      "secao": "legendados",
      "pagina": 105,
      "total_episodios": 12,
      "link_video": "https://animefire.plus/video/gakusen-toshi-asterisk"
    },
    {
      "id": 1091,
      "nome": "Gakusen Toshi Asterisk 2nd Season",
      "link": "https://animefire.plus/animes/gakusen-toshi-asterisk-2nd-season-todos-os-episodios",
      "texto_original": "Gakusen Toshi Asterisk 2nd Season",
      "rating": 7.28,
      "classificacao_etaria": "A14",
      "imagem_original": "https://animefire.plus/img/animes/gakusen-toshi-asterisk-2nd-season.webp",
      "imagem_pasta": "https://animefire.plus/img/animes/gakusen-toshi-asterisk-2nd-season/",
      "secao": "legendados",
      "pagina": 106,
      "total_episodios": 12,
      "link_video": "https://animefire.plus/video/gakusen-toshi-asterisk-2nd-season"
    },
    {
      "id": 1092,
      "nome": "Gal to Kyouryuu",
      "link": "https://animefire.plus/animes/gal-to-kyouryuu-todos-os-episodios",
      "texto_original": "Gal to Kyouryuu",
      "rating": 6.45,
      "classificacao_etaria": "A14",
      "imagem_original": "https://animefire.plus/img/animes/gal-to-kyouryuu.webp",
      "imagem_pasta": "https://animefire.plus/img/animes/gal-to-kyouryuu/",
      "secao": "legendados",
      "pagina": 81,
      "total_episodios": 1,
      "link_video": "https://animefire.plus/video/gal-to-kyouryuu"
    },
    {
      "id": 1093,
      "nome": "Gal-gaku.: Hijiri Girls Square Gakuin",
      "link": "https://animefire.plus/animes/gal-gaku-hijiri-girls-square-gakuin-todos-os-episodios",
      "texto_original": "Gal-gaku.: Hijiri Girls Square Gakuin",
      "rating": 5.43,
      "classificacao_etaria": "A14",
      "imagem_original": "https://animefire.plus/img/animes/gal-gaku-hijiri-girls-square-gakuin.webp",
      "imagem_pasta": "https://animefire.plus/img/animes/gal-gaku-hijiri-girls-square-gakuin/",
      "secao": "legendados,lancamentos",
      "pagina": 58,
      "total_episodios": 5,
      "link_video": "https://animefire.plus/video/gal-gaku-hijiri-girls-square-gakuin"
    },
    {
      "id": 1094,
      "nome": "Galaxy Angel (Dublado)",
      "link": "https://animefire.plus/animes/galaxy-angel-dublado-todos-os-episodios",
      "texto_original": "Galaxy Angel (Dublado)",
      "rating": 7.02,
      "classificacao_etaria": "A14",
      "imagem_original": "https://animefire.plus/img/animes/galaxy-angel.webp",
      "imagem_pasta": "https://animefire.plus/img/animes/galaxy-angel/",
      "secao": "dublados,legendados",
      "pagina": 17,
      "total_episodios": 26,
      "link_video": "https://animefire.plus/video/galaxy-angel-dublado"
    },
    {
      "id": 1095,
      "nome": "Galaxy Angel Music Collection: Shouen to Shien no Cassoulet",
      "link": "https://animefire.plus/animes/galaxy-angel-music-collection-shouen-to-shien-no-cassoulet-todos-os-episodios",
      "texto_original": "Galaxy Angel Music Collection: Shouen to Shien no Cassoulet",
      "rating": 6.99,
      "classificacao_etaria": "A14",
      "imagem_original": "https://animefire.plus/img/animes/galaxy-angel-music-collection-shouen-to-shien-no-cassoulet.webp",
      "imagem_pasta": "https://animefire.plus/img/animes/galaxy-angel-music-collection-shouen-to-shien-no-cassoulet/",
      "secao": "legendados",
      "pagina": 84,
      "total_episodios": 1,
      "link_video": "https://animefire.plus/video/galaxy-angel-music-collection-shouen-to-shien-no-cassoulet"
    },
    {
      "id": 1096,
      "nome": "Galaxy Angel Z",
      "link": "https://animefire.plus/animes/galaxy-angel-z-todos-os-episodios",
      "texto_original": "Galaxy Angel Z",
      "rating": 7.24,
      "classificacao_etaria": "A10",
      "imagem_original": "https://animefire.plus/img/animes/galaxy-angel-z.webp",
      "imagem_pasta": "https://animefire.plus/img/animes/galaxy-angel-z/",
      "secao": "legendados",
      "pagina": 151,
      "total_episodios": 9,
      "link_video": "https://animefire.plus/video/galaxy-angel-z"
    },
    {
      "id": 1097,
      "nome": "Galilei Donna",
      "link": "https://animefire.plus/animes/galilei-donna-todos-os-episodios",
      "texto_original": "Galilei Donna",
      "rating": 6.46,
      "classificacao_etaria": "A16",
      "imagem_original": "https://animefire.plus/img/animes/galilei-donna.webp",
      "imagem_pasta": "https://animefire.plus/img/animes/galilei-donna/",
      "secao": "legendados",
      "pagina": 134,
      "total_episodios": 3,
      "link_video": "https://animefire.plus/video/galilei-donna"
    },
    {
      "id": 1098,
      "nome": "Gall Force 3: Stardust War",
      "link": "https://animefire.plus/animes/gall-force-3-stardust-war-todos-os-episodios",
      "texto_original": "Gall Force 3: Stardust War",
      "rating": 6.36,
      "classificacao_etaria": "A18",
      "imagem_original": "https://animefire.plus/img/animes/gall-force-3-stardust-war.webp",
      "imagem_pasta": "https://animefire.plus/img/animes/gall-force-3-stardust-war/",
      "secao": "legendados",
      "pagina": 42,
      "total_episodios": 1,
      "link_video": "https://animefire.plus/video/gall-force-3-stardust-war"
    },
    {
      "id": 1099,
      "nome": "Gall Force: The Revolution",
      "link": "https://animefire.plus/animes/gall-force-the-revolution-todos-os-episodios",
      "texto_original": "Gall Force: The Revolution",
      "rating": 6.05,
      "classificacao_etaria": "A18",
      "imagem_original": "https://animefire.plus/img/animes/gall-force-the-revolution.webp",
      "imagem_pasta": "https://animefire.plus/img/animes/gall-force-the-revolution/",
      "secao": "legendados",
      "pagina": 158,
      "total_episodios": 4,
      "link_video": "https://animefire.plus/video/gall-force-the-revolution"
    }
  ],
  "pagination": {
    "current_page": 53,
    "per_page": 20,
    "total_items": 4269,
    "total_pages": 214,
    "has_next": true,
    "has_prev": true
  }
}
