{
  "message": "Animes da seção: legendados",
  "section": "legendados",
  "data": [
    {
      "id": 2628,
      "nome": "Mushoku Tensei: Isekai Ittara Honki Dasu 2nd Season (Dublado)",
      "link": "https://animefire.plus/animes/mushoku-tensei-isekai-ittara-honki-dasu-2nd-season-dublado-todos-os-episodios",
      "texto_original": "Mushoku Tensei: Isekai Ittara Honki Dasu 2nd Season (Dublado)",
      "rating": 8.63,
      "classificacao_etaria": "A16",
      "imagem_original": "https://animefire.plus/img/animes/mushoku-tensei-isekai-ittara-honki-dasu-2nd-season.webp",
      "imagem_pasta": "https://animefire.plus/img/animes/mushoku-tensei-isekai-ittara-honki-dasu-2nd-season/",
      "secao": "dublados,legendados",
      "pagina": 14,
      "total_episodios": 12,
      "link_video": "https://animefire.plus/video/mushoku-tensei-isekai-ittara-honki-dasu-2nd-season-dublado"
    },
    {
      "id": 2629,
      "nome": "Mushoku Tensei: Isekai Ittara Honki Dasu Special (Dublado)",
      "link": "https://animefire.plus/animes/mushoku-tensei-isekai-ittara-honki-dasu-special-dublado-todos-os-episodios",
      "texto_original": "Mushoku Tensei: Isekai Ittara Honki Dasu Special (Dublado)",
      "rating": 7.79,
      "classificacao_etaria": "A16",
      "imagem_original": "https://animefire.plus/img/animes/mushoku-tensei-isekai-ittara-honki-dasu-special.webp",
      "imagem_pasta": "https://animefire.plus/img/animes/mushoku-tensei-isekai-ittara-honki-dasu-special/",
      "secao": "dublados,legendados",
      "pagina": 10,
      "total_episodios": 1,
      "link_video": "https://animefire.plus/video/mushoku-tensei-isekai-ittara-honki-dasu-special-dublado"
    },
    {
      "id": 2630,
      "nome": "Muteki Choujin Zanbot 3",
      "link": "https://animefire.plus/animes/muteki-choujin-zanbot-3-todos-os-episodios",
      "texto_original": "Muteki Choujin Zanbot 3",
      "rating": 6.9,
      "classificacao_etaria": "A14",
      "imagem_original": "https://animefire.plus/img/animes/muteki-choujin-zanbot-3.webp",
      "imagem_pasta": "https://animefire.plus/img/animes/muteki-choujin-zanbot-3/",
      "secao": "legendados",
      "pagina": 54,
      "total_episodios": 23,
      "link_video": "https://animefire.plus/video/muteki-choujin-zanbot-3"
    },
    {
      "id": 2631,
      "nome": "Muteki Kanban Musume",
      "link": "https://animefire.plus/animes/muteki-kanban-musume-todos-os-episodios",
      "texto_original": "Muteki Kanban Musume",
      "rating": 7.17,
      "classificacao_etaria": "A14",
      "imagem_original": "https://animefire.plus/img/animes/muteki-kanban-musume.webp",
      "imagem_pasta": "https://animefire.plus/img/animes/muteki-kanban-musume/",
      "secao": "legendados",
      "pagina": 170,
      "total_episodios": 12,
      "link_video": "https://animefire.plus/video/muteki-kanban-musume"
    },
    {
      "id": 2632,
      "nome": "Muteking the Dancing Hero",
      "link": "https://animefire.plus/animes/muteking-the-dancing-hero-todos-os-episodios",
      "texto_original": "Muteking the Dancing Hero",
      "rating": 5.84,
      "classificacao_etaria": "A14",
      "imagem_original": "https://animefire.plus/img/animes/muteking-the-dancing-hero.webp",
      "imagem_pasta": "https://animefire.plus/img/animes/muteking-the-dancing-hero/",
      "secao": "legendados",
      "pagina": 38,
      "total_episodios": 12,
      "link_video": "https://animefire.plus/video/muteking-the-dancing-hero"
    },
    {
      "id": 2633,
      "nome": "Mutsu Enmei Ryuu Gaiden: Shura no Toki",
      "link": "https://animefire.plus/animes/mutsu-enmei-ryuu-gaiden-shura-no-toki-todos-os-episodios",
      "texto_original": "Mutsu Enmei Ryuu Gaiden: Shura no Toki",
      "rating": 7.63,
      "classificacao_etaria": "A14",
      "imagem_original": "https://animefire.plus/img/animes/mutsu-enmei-ryuu-gaiden-shura-no-toki.webp",
      "imagem_pasta": "https://animefire.plus/img/animes/mutsu-enmei-ryuu-gaiden-shura-no-toki/",
      "secao": "legendados",
      "pagina": 148,
      "total_episodios": 26,
      "link_video": "https://animefire.plus/video/mutsu-enmei-ryuu-gaiden-shura-no-toki"
    },
    {
      "id": 2634,
      "nome": "Muv-Luv Alternative",
      "link": "https://animefire.plus/animes/muv-luv-alternative-todos-os-episodios",
      "texto_original": "Muv-Luv Alternative",
      "rating": 5.83,
      "classificacao_etaria": "A18",
      "imagem_original": "https://animefire.plus/img/animes/muv-luv-alternative.webp",
      "imagem_pasta": "https://animefire.plus/img/animes/muv-luv-alternative/",
      "secao": "legendados",
      "pagina": 37,
      "total_episodios": 12,
      "link_video": "https://animefire.plus/video/muv-luv-alternative"
    },
    {
      "id": 2635,
      "nome": "Muv-Luv Alternative 2nd Season",
      "link": "https://animefire.plus/animes/muv-luv-alternative-2nd-season-todos-os-episodios",
      "texto_original": "Muv-Luv Alternative 2nd Season",
      "rating": 6.53,
      "classificacao_etaria": "A18",
      "imagem_original": "https://animefire.plus/img/animes/muv-luv-alternative-2nd-season.webp",
      "imagem_pasta": "https://animefire.plus/img/animes/muv-luv-alternative-2nd-season/",
      "secao": "legendados",
      "pagina": 28,
      "total_episodios": 12,
      "link_video": "https://animefire.plus/video/muv-luv-alternative-2nd-season"
    },
    {
      "id": 2636,
      "nome": "Muv-Luv Alternative: Total Eclipse (Dublado)",
      "link": "https://animefire.plus/animes/muv-luv-alternative-total-eclipse-dublado-todos-os-episodios",
      "texto_original": "Muv-Luv Alternative: Total Eclipse (Dublado)",
      "rating": 7.09,
      "classificacao_etaria": "A18",
      "imagem_original": "https://animefire.plus/img/animes/muv-luv-alternative-total-eclipse.webp",
      "imagem_pasta": "https://animefire.plus/img/animes/muv-luv-alternative-total-eclipse/",
      "secao": "dublados,legendados",
      "pagina": 4,
      "total_episodios": 24,
      "link_video": "https://animefire.plus/video/muv-luv-alternative-total-eclipse-dublado"
    },
    {
      "id": 2637,
      "nome": "Muzik Tiger In the Forest",
      "link": "https://animefire.plus/animes/muzik-tiger-in-the-forest-todos-os-episodios",
      "texto_original": "Muzik Tiger In the Forest",
      "rating": null,
      "classificacao_etaria": "A14",
      "imagem_original": "https://animefire.plus/img/animes/muzik-tiger-in-the-forest.webp",
      "imagem_pasta": "https://animefire.plus/img/animes/muzik-tiger-in-the-forest/",
      "secao": "legendados,lancamentos",
      "pagina": 4,
      "total_episodios": 0,
      "link_video": "https://animefire.plus/video/muzik-tiger-in-the-forest"
    },
    {
      "id": 2638,
      "nome": "Myself; Yourself",
      "link": "https://animefire.plus/animes/myself-yourself-todos-os-episodios",
      "texto_original": "Myself; Yourself",
      "rating": 7.3,
      "classificacao_etaria": "A14",
      "imagem_original": "https://animefire.plus/img/animes/myself-yourself.webp",
      "imagem_pasta": "https://animefire.plus/img/animes/myself-yourself/",
      "secao": "legendados",
      "pagina": 127,
      "total_episodios": 13,
      "link_video": "https://animefire.plus/video/myself-yourself"
    },
    {
      "id": 2639,
      "nome": "Na Nare Hana Nare",
      "link": "https://animefire.plus/animes/na-nare-hana-nare-todos-os-episodios",
      "texto_original": "Na Nare Hana Nare",
      "rating": 6.37,
      "classificacao_etaria": "A14",
      "imagem_original": "https://animefire.plus/img/animes/na-nare-hana-nare.webp",
      "imagem_pasta": "https://animefire.plus/img/animes/na-nare-hana-nare/",
      "secao": "legendados",
      "pagina": 11,
      "total_episodios": 12,
      "link_video": "https://animefire.plus/video/na-nare-hana-nare"
    },
    {
      "id": 2640,
      "nome": "Nabari no Ou",
      "link": "https://animefire.plus/animes/nabari-no-ou-todos-os-episodios",
      "texto_original": "Nabari no Ou",
      "rating": 7.37,
      "classificacao_etaria": "A14",
      "imagem_original": "https://animefire.plus/img/animes/nabari-no-ou.webp",
      "imagem_pasta": "https://animefire.plus/img/animes/nabari-no-ou/",
      "secao": "legendados",
      "pagina": 159,
      "total_episodios": 26,
      "link_video": "https://animefire.plus/video/nabari-no-ou"
    },
    {
      "id": 2641,
      "nome": "Nagareboshi Lens",
      "link": "https://animefire.plus/animes/nagareboshi-lens-todos-os-episodios",
      "texto_original": "Nagareboshi Lens",
      "rating": 6.72,
      "classificacao_etaria": null,
      "imagem_original": "https://animefire.plus/img/animes/nagareboshi-lens.webp",
      "imagem_pasta": "https://animefire.plus/img/animes/nagareboshi-lens/",
      "secao": "legendados",
      "pagina": 106,
      "total_episodios": 1,
      "link_video": "https://animefire.plus/video/nagareboshi-lens"
    },
    {
      "id": 2642,
      "nome": "Nagasarete Airantou",
      "link": "https://animefire.plus/animes/nagasarete-airantou-todos-os-episodios",
      "texto_original": "Nagasarete Airantou",
      "rating": 7.36,
      "classificacao_etaria": "A14",
      "imagem_original": "https://animefire.plus/img/animes/nagasarete-airantou.webp",
      "imagem_pasta": "https://animefire.plus/img/animes/nagasarete-airantou/",
      "secao": "legendados",
      "pagina": 154,
      "total_episodios": 26,
      "link_video": "https://animefire.plus/video/nagasarete-airantou"
    },
    {
      "id": 2643,
      "nome": "Nagato Yuki-chan no Shoushitsu",
      "link": "https://animefire.plus/animes/nagato-yuki-chan-no-shoushitsu-todos-os-episodios",
      "texto_original": "Nagato Yuki-chan no Shoushitsu",
      "rating": 6.74,
      "classificacao_etaria": "A14",
      "imagem_original": "https://animefire.plus/img/animes/nagato-yuki-chan-no-shoushitsu.webp",
      "imagem_pasta": "https://animefire.plus/img/animes/nagato-yuki-chan-no-shoushitsu/",
      "secao": "legendados",
      "pagina": 76,
      "total_episodios": 16,
      "link_video": "https://animefire.plus/video/nagato-yuki-chan-no-shoushitsu"
    },
    {
      "id": 2644,
      "nome": "Nageki no Bourei wa Intai shitai",
      "link": "https://animefire.plus/animes/nageki-no-bourei-wa-intai-shitai-todos-os-episodios",
      "texto_original": "Nageki no Bourei wa Intai shitai",
      "rating": 7.04,
      "classificacao_etaria": "A14",
      "imagem_original": "https://animefire.plus/img/animes/nageki-no-bourei-wa-intai-shitai.webp",
      "imagem_pasta": "https://animefire.plus/img/animes/nageki-no-bourei-wa-intai-shitai/",
      "secao": "legendados",
      "pagina": 11,
      "total_episodios": 13,
      "link_video": "https://animefire.plus/video/nageki-no-bourei-wa-intai-shitai"
    },
    {
      "id": 2645,
      "nome": "Nagi no Asu kara",
      "link": "https://animefire.plus/animes/nagi-no-asu-kara-todos-os-episodios",
      "texto_original": "Nagi no Asu kara",
      "rating": 8.2,
      "classificacao_etaria": "A14",
      "imagem_original": "https://animefire.plus/img/animes/nagi-no-asu-kara.webp",
      "imagem_pasta": "https://animefire.plus/img/animes/nagi-no-asu-kara/",
      "secao": "legendados",
      "pagina": 136,
      "total_episodios": 5,
      "link_video": "https://animefire.plus/video/nagi-no-asu-kara"
    },
    {
      "id": 2646,
      "nome": "Najica Dengeki Sakusen",
      "link": "https://animefire.plus/animes/najica-dengeki-sakusen-todos-os-episodios",
      "texto_original": "Najica Dengeki Sakusen",
      "rating": 6.05,
      "classificacao_etaria": "A18",
      "imagem_original": "https://animefire.plus/img/animes/najica-dengeki-sakusen.webp",
      "imagem_pasta": "https://animefire.plus/img/animes/najica-dengeki-sakusen/",
      "secao": "legendados",
      "pagina": 154,
      "total_episodios": 12,
      "link_video": "https://animefire.plus/video/najica-dengeki-sakusen"
    },
    {
      "id": 2647,
      "nome": "Nakanohito Genome [Jikkyouchuu]",
      "link": "https://animefire.plus/animes/nakanohito-genome-jikkyouchuu-todos-os-episodios",
      "texto_original": "Nakanohito Genome [Jikkyouchuu]",
      "rating": 6.87,
      "classificacao_etaria": "A14",
      "imagem_original": "https://animefire.plus/img/animes/nakanohito-genome-jikkyouchuu.webp",
      "imagem_pasta": "https://animefire.plus/img/animes/nakanohito-genome-jikkyouchuu/",
      "secao": "legendados",
      "pagina": 157,
      "total_episodios": 2,
      "link_video": "https://animefire.plus/video/nakanohito-genome-jikkyouchuu"
    }
  ],
  "pagination": {
    "current_page": 129,
    "per_page": 20,
    "total_items": 4269,
    "total_pages": 214,
    "has_next": true,
    "has_prev": true
  }
}
