{
  "message": "Animes da seção: legendados",
  "section": "legendados",
  "data": [
    {
      "id": 4193,
      "nome": "Yama no Susume: Omoide Present",
      "link": "https://animefire.plus/animes/yama-no-susume-omoide-present-todos-os-episodios",
      "texto_original": "Yama no Susume: Omoide Present",
      "rating": 7.4,
      "classificacao_etaria": "A14",
      "imagem_original": "https://animefire.plus/img/animes/yama-no-susume-omoide-present.webp",
      "imagem_pasta": "https://animefire.plus/img/animes/yama-no-susume-omoide-present/",
      "secao": "legendados",
      "pagina": 88,
      "total_episodios": 1,
      "link_video": "https://animefire.plus/video/yama-no-susume-omoide-present"
    },
    {
      "id": 4194,
      "nome": "Yama no Susume: Second Season",
      "link": "https://animefire.plus/animes/yama-no-susume-second-season-todos-os-episodios",
      "texto_original": "Yama no Susume: Second Season",
      "rating": 7.58,
      "classificacao_etaria": "A14",
      "imagem_original": "https://animefire.plus/img/animes/yama-no-susume-second-season.webp",
      "imagem_pasta": "https://animefire.plus/img/animes/yama-no-susume-second-season/",
      "secao": "legendados",
      "pagina": 125,
      "total_episodios": 24,
      "link_video": "https://animefire.plus/video/yama-no-susume-second-season"
    },
    {
      "id": 4195,
      "nome": "Yama no Susume: Third Season",
      "link": "https://animefire.plus/animes/yama-no-susume-third-season-todos-os-episodios",
      "texto_original": "Yama no Susume: Third Season",
      "rating": 7.61,
      "classificacao_etaria": "A14",
      "imagem_original": "https://animefire.plus/img/animes/yama-no-susume-third-season.webp",
      "imagem_pasta": "https://animefire.plus/img/animes/yama-no-susume-third-season/",
      "secao": "legendados",
      "pagina": 148,
      "total_episodios": 13,
      "link_video": "https://animefire.plus/video/yama-no-susume-third-season"
    },
    {
      "id": 4196,
      "nome": "Yamada-kun to 7-nin no Majo",
      "link": "https://animefire.plus/animes/yamada-kun-to-7-nin-no-majo-todos-os-episodios",
      "texto_original": "Yamada-kun to 7-nin no Majo",
      "rating": 7.78,
      "classificacao_etaria": "A14",
      "imagem_original": "https://animefire.plus/img/animes/yamada-kun-to-7-nin-no-majo.webp",
      "imagem_pasta": "https://animefire.plus/img/animes/yamada-kun-to-7-nin-no-majo/",
      "secao": "legendados",
      "pagina": 94,
      "total_episodios": 0,
      "link_video": "https://animefire.plus/video/yamada-kun-to-7-nin-no-majo"
    },
    {
      "id": 4198,
      "nome": "Yamada-kun to 7-nin no Majo: Mou Hitotsu no Suzaku-sai",
      "link": "https://animefire.plus/animes/yamada-kun-to-7-nin-no-majo-mou-hitotsu-no-suzaku-sai-todos-os-episodios",
      "texto_original": "Yamada-kun to 7-nin no Majo: Mou Hitotsu no Suzaku-sai",
      "rating": 7.48,
      "classificacao_etaria": "A14",
      "imagem_original": "https://animefire.plus/img/animes/yamada-kun-to-7-nin-no-majo-mou-hitotsu-no-suzaku-sai.webp",
      "imagem_pasta": "https://animefire.plus/img/animes/yamada-kun-to-7-nin-no-majo-mou-hitotsu-no-suzaku-sai/",
      "secao": "legendados",
      "pagina": 54,
      "total_episodios": 2,
      "link_video": "https://animefire.plus/video/yamada-kun-to-7-nin-no-majo-mou-hitotsu-no-suzaku-sai"
    },
    {
      "id": 4199,
      "nome": "Yamada-kun to Lv999 no Koi o Suru",
      "link": "https://animefire.plus/animes/yamada-kun-to-lv999-no-koi-o-suru-todos-os-episodios",
      "texto_original": "Yamada-kun to Lv999 no Koi o Suru",
      "rating": 7.77,
      "classificacao_etaria": "A14",
      "imagem_original": "https://animefire.plus/img/animes/yamada-kun-to-lv999-no-koi-o-suru.jpg",
      "imagem_pasta": "https://animefire.plus/img/animes/yamada-kun-to-lv999-no-koi-o-suru/",
      "secao": "legendados",
      "pagina": 25,
      "total_episodios": 13,
      "link_video": "https://animefire.plus/video/yamada-kun-to-lv999-no-koi-o-suru"
    },
    {
      "id": 4200,
      "nome": "Yamato Nadeshiko Shichihenge♥",
      "link": "https://animefire.plus/animes/yamato-nadeshiko-shichihenge-todos-os-episodios",
      "texto_original": "Yamato Nadeshiko Shichihenge♥",
      "rating": 7.84,
      "classificacao_etaria": "A14",
      "imagem_original": "https://animefire.plus/img/animes/yamato-nadeshiko-shichihenge.webp",
      "imagem_pasta": "https://animefire.plus/img/animes/yamato-nadeshiko-shichihenge/",
      "secao": "legendados",
      "pagina": 146,
      "total_episodios": 11,
      "link_video": "https://animefire.plus/video/yamato-nadeshiko-shichihenge"
    },
    {
      "id": 4201,
      "nome": "Yami no Matsuei",
      "link": "https://animefire.plus/animes/yami-no-matsuei-todos-os-episodios",
      "texto_original": "Yami no Matsuei",
      "rating": 7.17,
      "classificacao_etaria": "A16",
      "imagem_original": "https://animefire.plus/img/animes/yami-no-matsuei.webp",
      "imagem_pasta": "https://animefire.plus/img/animes/yami-no-matsuei/",
      "secao": "legendados",
      "pagina": 146,
      "total_episodios": 13,
      "link_video": "https://animefire.plus/video/yami-no-matsuei"
    },
    {
      "id": 4202,
      "nome": "Yami Shibai (Dublado)",
      "link": "https://animefire.plus/animes/yami-shibai-dublado-todos-os-episodios",
      "texto_original": "Yami Shibai (Dublado)",
      "rating": 7,
      "classificacao_etaria": "A14",
      "imagem_original": "https://animefire.plus/img/animes/yami-shibai.webp",
      "imagem_pasta": "https://animefire.plus/img/animes/yami-shibai/",
      "secao": "dublados,legendados",
      "pagina": 4,
      "total_episodios": 13,
      "link_video": "https://animefire.plus/video/yami-shibai-dublado"
    },
    {
      "id": 4203,
      "nome": "Yami Shibai 10",
      "link": "https://animefire.plus/animes/yami-shibai-10-todos-os-episodios",
      "texto_original": "Yami Shibai 10",
      "rating": 6.19,
      "classificacao_etaria": "A14",
      "imagem_original": "https://animefire.plus/img/animes/yami-shibai-10.webp",
      "imagem_pasta": "https://animefire.plus/img/animes/yami-shibai-10/",
      "secao": "legendados",
      "pagina": 35,
      "total_episodios": 13,
      "link_video": "https://animefire.plus/video/yami-shibai-10"
    },
    {
      "id": 4204,
      "nome": "Yami Shibai 11",
      "link": "https://animefire.plus/animes/yami-shibai-11-todos-os-episodios",
      "texto_original": "Yami Shibai 11",
      "rating": 5.83,
      "classificacao_etaria": "A14",
      "imagem_original": "https://animefire.plus/img/animes/yami-shibai-11.webp",
      "imagem_pasta": "https://animefire.plus/img/animes/yami-shibai-11/",
      "secao": "legendados",
      "pagina": 22,
      "total_episodios": 13,
      "link_video": "https://animefire.plus/video/yami-shibai-11"
    },
    {
      "id": 4205,
      "nome": "Yami Shibai 12",
      "link": "https://animefire.plus/animes/yami-shibai-12-todos-os-episodios",
      "texto_original": "Yami Shibai 12",
      "rating": 5.87,
      "classificacao_etaria": "A14",
      "imagem_original": "https://animefire.plus/img/animes/yami-shibai-12.webp",
      "imagem_pasta": "https://animefire.plus/img/animes/yami-shibai-12/",
      "secao": "legendados",
      "pagina": 16,
      "total_episodios": 13,
      "link_video": "https://animefire.plus/video/yami-shibai-12"
    },
    {
      "id": 4206,
      "nome": "Yami Shibai 13",
      "link": "https://animefire.plus/animes/yami-shibai-13-todos-os-episodios",
      "texto_original": "Yami Shibai 13",
      "rating": 6.03,
      "classificacao_etaria": "A14",
      "imagem_original": "https://animefire.plus/img/animes/yami-shibai-13.webp",
      "imagem_pasta": "https://animefire.plus/img/animes/yami-shibai-13/",
      "secao": "legendados",
      "pagina": 11,
      "total_episodios": 13,
      "link_video": "https://animefire.plus/video/yami-shibai-13"
    },
    {
      "id": 4207,
      "nome": "Yami Shibai 14",
      "link": "https://animefire.plus/animes/yami-shibai-14-todos-os-episodios",
      "texto_original": "Yami Shibai 14",
      "rating": 5.79,
      "classificacao_etaria": "A14",
      "imagem_original": "https://animefire.plus/img/animes/yami-shibai-14.webp",
      "imagem_pasta": "https://animefire.plus/img/animes/yami-shibai-14/",
      "secao": "legendados",
      "pagina": 6,
      "total_episodios": 13,
      "link_video": "https://animefire.plus/video/yami-shibai-14"
    },
    {
      "id": 4208,
      "nome": "Yami Shibai 15",
      "link": "https://animefire.plus/animes/yami-shibai-15-todos-os-episodios",
      "texto_original": "Yami Shibai 15",
      "rating": 5.99,
      "classificacao_etaria": "A14",
      "imagem_original": "https://animefire.plus/img/animes/yami-shibai-15.webp",
      "imagem_pasta": "https://animefire.plus/img/animes/yami-shibai-15/",
      "secao": "legendados,lancamentos",
      "pagina": 1,
      "total_episodios": 4,
      "link_video": "https://animefire.plus/video/yami-shibai-15"
    },
    {
      "id": 4209,
      "nome": "Yami Shibai 2 (Dublado)",
      "link": "https://animefire.plus/animes/yami-shibai-2-dublado-todos-os-episodios",
      "texto_original": "Yami Shibai 2 (Dublado)",
      "rating": 6.51,
      "classificacao_etaria": "A14",
      "imagem_original": "https://animefire.plus/img/animes/yami-shibai-2.webp",
      "imagem_pasta": "https://animefire.plus/img/animes/yami-shibai-2/",
      "secao": "dublados,legendados",
      "pagina": 4,
      "total_episodios": 13,
      "link_video": "https://animefire.plus/video/yami-shibai-2-dublado"
    },
    {
      "id": 4210,
      "nome": "Yami Shibai 3 (Dublado)",
      "link": "https://animefire.plus/animes/yami-shibai-3-dublado-todos-os-episodios",
      "texto_original": "Yami Shibai 3 (Dublado)",
      "rating": 6.33,
      "classificacao_etaria": "A14",
      "imagem_original": "https://animefire.plus/img/animes/yami-shibai-3.webp",
      "imagem_pasta": "https://animefire.plus/img/animes/yami-shibai-3/",
      "secao": "dublados,legendados",
      "pagina": 4,
      "total_episodios": 13,
      "link_video": "https://animefire.plus/video/yami-shibai-3-dublado"
    },
    {
      "id": 4211,
      "nome": "Yami Shibai 4 (Dublado)",
      "link": "https://animefire.plus/animes/yami-shibai-4-dublado-todos-os-episodios",
      "texto_original": "Yami Shibai 4 (Dublado)",
      "rating": 5.81,
      "classificacao_etaria": "A14",
      "imagem_original": "https://animefire.plus/img/animes/yami-shibai-4.webp",
      "imagem_pasta": "https://animefire.plus/img/animes/yami-shibai-4/",
      "secao": "dublados,legendados",
      "pagina": 4,
      "total_episodios": 13,
      "link_video": "https://animefire.plus/video/yami-shibai-4-dublado"
    },
    {
      "id": 4212,
      "nome": "Yami Shibai 5",
      "link": "https://animefire.plus/animes/yami-shibai-5-todos-os-episodios",
      "texto_original": "Yami Shibai 5",
      "rating": 6.29,
      "classificacao_etaria": "A14",
      "imagem_original": "https://animefire.plus/img/animes/yami-shibai-5.webp",
      "imagem_pasta": "https://animefire.plus/img/animes/yami-shibai-5/",
      "secao": "legendados",
      "pagina": 73,
      "total_episodios": 13,
      "link_video": "https://animefire.plus/video/yami-shibai-5"
    },
    {
      "id": 4213,
      "nome": "Yami Shibai 6",
      "link": "https://animefire.plus/animes/yami-shibai-6-todos-os-episodios",
      "texto_original": "Yami Shibai 6",
      "rating": 6.13,
      "classificacao_etaria": "A14",
      "imagem_original": "https://animefire.plus/img/animes/yami-shibai-6.webp",
      "imagem_pasta": "https://animefire.plus/img/animes/yami-shibai-6/",
      "secao": "legendados",
      "pagina": 171,
      "total_episodios": 13,
      "link_video": "https://animefire.plus/video/yami-shibai-6"
    }
  ],
  "pagination": {
    "current_page": 206,
    "per_page": 20,
    "total_items": 4269,
    "total_pages": 214,
    "has_next": true,
    "has_prev": true
  }
}
