{
  "message": "Animes da seção: legendados",
  "section": "legendados",
  "data": [
    {
      "id": 2728,
      "nome": "NieR:Automata Ver1.1a Part 2",
      "link": "https://animefire.plus/animes/nier-automata-ver1-1a-part-2-todos-os-episodios",
      "texto_original": "NieR:Automata Ver1.1a Part 2",
      "rating": 8.05,
      "classificacao_etaria": "A14",
      "imagem_original": "https://animefire.plus/img/animes/nier-automata-ver1-1a-part-2.webp",
      "imagem_pasta": "https://animefire.plus/img/animes/nier-automata-ver1-1a-part-2/",
      "secao": "legendados",
      "pagina": 12,
      "total_episodios": 12,
      "link_video": "https://animefire.plus/video/nier-automata-ver1-1a-part-2"
    },
    {
      "id": 2729,
      "nome": "Nige Jouzu no Wakagimi",
      "link": "https://animefire.plus/animes/nige-jouzu-no-wakagimi-todos-os-episodios",
      "texto_original": "Nige Jouzu no Wakagimi",
      "rating": 7.8,
      "classificacao_etaria": "A16",
      "imagem_original": "https://animefire.plus/img/animes/nige-jouzu-no-wakagimi.webp",
      "imagem_pasta": "https://animefire.plus/img/animes/nige-jouzu-no-wakagimi/",
      "secao": "legendados",
      "pagina": 13,
      "total_episodios": 12,
      "link_video": "https://animefire.plus/video/nige-jouzu-no-wakagimi"
    },
    {
      "id": 2730,
      "nome": "Night Head 2041",
      "link": "https://animefire.plus/animes/night-head-2041-todos-os-episodios",
      "texto_original": "Night Head 2041",
      "rating": 6.5,
      "classificacao_etaria": "A16",
      "imagem_original": "https://animefire.plus/img/animes/night-head-2041.webp",
      "imagem_pasta": "https://animefire.plus/img/animes/night-head-2041/",
      "secao": "legendados",
      "pagina": 40,
      "total_episodios": 12,
      "link_video": "https://animefire.plus/video/night-head-2041"
    },
    {
      "id": 2731,
      "nome": "Night Head Genesis",
      "link": "https://animefire.plus/animes/night-head-genesis-todos-os-episodios",
      "texto_original": "Night Head Genesis",
      "rating": 6.83,
      "classificacao_etaria": "A16",
      "imagem_original": "https://animefire.plus/img/animes/night-head-genesis.webp",
      "imagem_pasta": "https://animefire.plus/img/animes/night-head-genesis/",
      "secao": "legendados",
      "pagina": 147,
      "total_episodios": 24,
      "link_video": "https://animefire.plus/video/night-head-genesis"
    },
    {
      "id": 2732,
      "nome": "Night Walker: Mayonaka no Tantei",
      "link": "https://animefire.plus/animes/night-walker-mayonaka-no-tantei-todos-os-episodios",
      "texto_original": "Night Walker: Mayonaka no Tantei",
      "rating": 7.03,
      "classificacao_etaria": "A18",
      "imagem_original": "https://animefire.plus/img/animes/night-walker-mayonaka-no-tantei.webp",
      "imagem_pasta": "https://animefire.plus/img/animes/night-walker-mayonaka-no-tantei/",
      "secao": "legendados",
      "pagina": 138,
      "total_episodios": 12,
      "link_video": "https://animefire.plus/video/night-walker-mayonaka-no-tantei"
    },
    {
      "id": 2733,
      "nome": "Night Wizard",
      "link": "https://animefire.plus/animes/night-wizard-todos-os-episodios",
      "texto_original": "Night Wizard",
      "rating": 6.75,
      "classificacao_etaria": "A14",
      "imagem_original": "https://animefire.plus/img/animes/night-wizard.webp",
      "imagem_pasta": "https://animefire.plus/img/animes/night-wizard/",
      "secao": "legendados",
      "pagina": 178,
      "total_episodios": 9,
      "link_video": "https://animefire.plus/video/night-wizard"
    },
    {
      "id": 2734,
      "nome": "Nihon Chinbotsu 2020 (Dublado)",
      "link": "https://animefire.plus/animes/nihon-chinbotsu-2020-dublado-todos-os-episodios",
      "texto_original": "Nihon Chinbotsu 2020 (Dublado)",
      "rating": 6.67,
      "classificacao_etaria": "A16",
      "imagem_original": "https://animefire.plus/img/animes/nihon-chinbotsu-2020.webp",
      "imagem_pasta": "https://animefire.plus/img/animes/nihon-chinbotsu-2020/",
      "secao": "dublados,legendados",
      "pagina": 20,
      "total_episodios": 10,
      "link_video": "https://animefire.plus/video/nihon-chinbotsu-2020-dublado"
    },
    {
      "id": 2735,
      "nome": "Nihon e Youkoso Elf-san.",
      "link": "https://animefire.plus/animes/nihon-e-youkoso-elf-san-todos-os-episodios",
      "texto_original": "Nihon e Youkoso Elf-san.",
      "rating": 7.29,
      "classificacao_etaria": "A14",
      "imagem_original": "https://animefire.plus/img/animes/nihon-e-youkoso-elf-san.webp",
      "imagem_pasta": "https://animefire.plus/img/animes/nihon-e-youkoso-elf-san/",
      "secao": "legendados",
      "pagina": 7,
      "total_episodios": 12,
      "link_video": "https://animefire.plus/video/nihon-e-youkoso-elf-san"
    },
    {
      "id": 2736,
      "nome": "Nijiiro Days",
      "link": "https://animefire.plus/animes/nijiiro-days-todos-os-episodios",
      "texto_original": "Nijiiro Days",
      "rating": 7.47,
      "classificacao_etaria": "A14",
      "imagem_original": "https://animefire.plus/img/animes/nijiiro-days.webp",
      "imagem_pasta": "https://animefire.plus/img/animes/nijiiro-days/",
      "secao": "legendados",
      "pagina": 113,
      "total_episodios": 16,
      "link_video": "https://animefire.plus/video/nijiiro-days"
    },
    {
      "id": 2737,
      "nome": "Nijiyon Animation",
      "link": "https://animefire.plus/animes/nijiyon-animation-todos-os-episodios",
      "texto_original": "Nijiyon Animation",
      "rating": 6.81,
      "classificacao_etaria": "A14",
      "imagem_original": "https://animefire.plus/img/animes/nijiyon-animation.webp",
      "imagem_pasta": "https://animefire.plus/img/animes/nijiyon-animation/",
      "secao": "legendados",
      "pagina": 25,
      "total_episodios": 12,
      "link_video": "https://animefire.plus/video/nijiyon-animation"
    },
    {
      "id": 2738,
      "nome": "Nijiyon Animation 2",
      "link": "https://animefire.plus/animes/nijiyon-animation-2-todos-os-episodios",
      "texto_original": "Nijiyon Animation 2",
      "rating": 6.85,
      "classificacao_etaria": "A14",
      "imagem_original": "https://animefire.plus/img/animes/nijiyon-animation-2.webp",
      "imagem_pasta": "https://animefire.plus/img/animes/nijiyon-animation-2/",
      "secao": "legendados",
      "pagina": 14,
      "total_episodios": 12,
      "link_video": "https://animefire.plus/video/nijiyon-animation-2"
    },
    {
      "id": 2739,
      "nome": "Nijuu Mensou no Musume",
      "link": "https://animefire.plus/animes/nijuu-mensou-no-musume-todos-os-episodios",
      "texto_original": "Nijuu Mensou no Musume",
      "rating": 7.61,
      "classificacao_etaria": "A14",
      "imagem_original": "https://animefire.plus/img/animes/nijuu-mensou-no-musume.webp",
      "imagem_pasta": "https://animefire.plus/img/animes/nijuu-mensou-no-musume/",
      "secao": "legendados",
      "pagina": 173,
      "total_episodios": 22,
      "link_video": "https://animefire.plus/video/nijuu-mensou-no-musume"
    },
    {
      "id": 2740,
      "nome": "Nil Admirari no Tenbin",
      "link": "https://animefire.plus/animes/nil-admirari-no-tenbin-todos-os-episodios",
      "texto_original": "Nil Admirari no Tenbin",
      "rating": 6.67,
      "classificacao_etaria": "A14",
      "imagem_original": "https://animefire.plus/img/animes/nil-admirari-no-tenbin.webp",
      "imagem_pasta": "https://animefire.plus/img/animes/nil-admirari-no-tenbin/",
      "secao": "legendados",
      "pagina": 146,
      "total_episodios": 12,
      "link_video": "https://animefire.plus/video/nil-admirari-no-tenbin"
    },
    {
      "id": 2741,
      "nome": "Ningen Fushin no Boukensha-tachi ga Sekai wo Sukuu you desu (Dublado)",
      "link": "https://animefire.plus/animes/ningen-fushin-no-boukensha-tachi-ga-sekai-wo-sukuu-you-desu-dublado-todos-os-episodios",
      "texto_original": "Ningen Fushin no Boukensha-tachi ga Sekai wo Sukuu you desu (Dublado)",
      "rating": 6.33,
      "classificacao_etaria": "A14",
      "imagem_original": "https://animefire.plus/img/animes/ningen-fushin-no-boukensha-tachi-ga-sekai-wo-sukuu-you-desu.webp",
      "imagem_pasta": "https://animefire.plus/img/animes/ningen-fushin-no-boukensha-tachi-ga-sekai-wo-sukuu-you-desu/",
      "secao": "dublados,legendados",
      "pagina": 6,
      "total_episodios": 12,
      "link_video": "https://animefire.plus/video/ningen-fushin-no-boukensha-tachi-ga-sekai-wo-sukuu-you-desu-dublado"
    },
    {
      "id": 2742,
      "nome": "Ninja Collection",
      "link": "https://animefire.plus/animes/ninja-collection-todos-os-episodios",
      "texto_original": "Ninja Collection",
      "rating": null,
      "classificacao_etaria": "A14",
      "imagem_original": "https://animefire.plus/img/animes/ninja-collection.webp",
      "imagem_pasta": "https://animefire.plus/img/animes/ninja-collection/",
      "secao": "legendados,lancamentos",
      "pagina": 57,
      "total_episodios": 11,
      "link_video": "https://animefire.plus/video/ninja-collection"
    },
    {
      "id": 2743,
      "nome": "Ninja Kamui (Dublado)",
      "link": "https://animefire.plus/animes/ninja-kamui-dublado-todos-os-episodios",
      "texto_original": "Ninja Kamui (Dublado)",
      "rating": 6.97,
      "classificacao_etaria": "A16",
      "imagem_original": "https://animefire.plus/img/animes/ninja-kamui.webp",
      "imagem_pasta": "https://animefire.plus/img/animes/ninja-kamui/",
      "secao": "dublados,legendados,lancamentos",
      "pagina": 3,
      "total_episodios": 13,
      "link_video": "https://animefire.plus/video/ninja-kamui-dublado"
    },
    {
      "id": 2744,
      "nome": "Ninja Ryuukenden",
      "link": "https://animefire.plus/animes/ninja-ryuukenden-todos-os-episodios",
      "texto_original": "Ninja Ryuukenden",
      "rating": 5.68,
      "classificacao_etaria": "A16",
      "imagem_original": "https://animefire.plus/img/animes/ninja-ryuukenden.webp",
      "imagem_pasta": "https://animefire.plus/img/animes/ninja-ryuukenden/",
      "secao": "legendados",
      "pagina": 77,
      "total_episodios": 1,
      "link_video": "https://animefire.plus/video/ninja-ryuukenden"
    },
    {
      "id": 2745,
      "nome": "Ninja Slayer From Animation",
      "link": "https://animefire.plus/animes/ninja-slayer-from-animation-todos-os-episodios",
      "texto_original": "Ninja Slayer From Animation",
      "rating": 6.59,
      "classificacao_etaria": "A16",
      "imagem_original": "https://animefire.plus/img/animes/ninja-slayer-from-animation.webp",
      "imagem_pasta": "https://animefire.plus/img/animes/ninja-slayer-from-animation/",
      "secao": "legendados",
      "pagina": 150,
      "total_episodios": 4,
      "link_video": "https://animefire.plus/video/ninja-slayer-from-animation"
    },
    {
      "id": 2746,
      "nome": "Ninja to Koroshiya no Futarigurashi",
      "link": "https://animefire.plus/animes/ninja-to-koroshiya-no-futarigurashi-todos-os-episodios",
      "texto_original": "Ninja to Koroshiya no Futarigurashi",
      "rating": 7.63,
      "classificacao_etaria": "A14",
      "imagem_original": "https://animefire.plus/img/animes/ninja-to-koroshiya-no-futarigurashi.webp",
      "imagem_pasta": "https://animefire.plus/img/animes/ninja-to-koroshiya-no-futarigurashi/",
      "secao": "legendados",
      "pagina": 4,
      "total_episodios": 12,
      "link_video": "https://animefire.plus/video/ninja-to-koroshiya-no-futarigurashi"
    },
    {
      "id": 2747,
      "nome": "Nisekoi",
      "link": "https://animefire.plus/animes/nisekoi-todos-os-episodios",
      "texto_original": "Nisekoi",
      "rating": 7.71,
      "classificacao_etaria": "A14",
      "imagem_original": "https://animefire.plus/img/animes/nisekoi.webp",
      "imagem_pasta": "https://animefire.plus/img/animes/nisekoi/",
      "secao": "legendados",
      "pagina": 79,
      "total_episodios": 20,
      "link_video": "https://animefire.plus/video/nisekoi"
    }
  ],
  "pagination": {
    "current_page": 134,
    "per_page": 20,
    "total_items": 4269,
    "total_pages": 214,
    "has_next": true,
    "has_prev": true
  }
}
