{
  "message": "Animes da seção: legendados",
  "section": "legendados",
  "data": [
    {
      "id": 2241,
      "nome": "Lord of Vermilion: Guren no Ou",
      "link": "https://animefire.plus/animes/lord-of-vermilion-guren-no-ou-todos-os-episodios",
      "texto_original": "Lord of Vermilion: Guren no Ou",
      "rating": 5.44,
      "classificacao_etaria": "A14",
      "imagem_original": "https://animefire.plus/img/animes/lord-of-vermilion-guren-no-ou.webp",
      "imagem_pasta": "https://animefire.plus/img/animes/lord-of-vermilion-guren-no-ou/",
      "secao": "legendados",
      "pagina": 177,
      "total_episodios": 12,
      "link_video": "https://animefire.plus/video/lord-of-vermilion-guren-no-ou"
    },
    {
      "id": 2242,
      "nome": "Lost Song (Dublado)",
      "link": "https://animefire.plus/animes/lost-song-dublado-todos-os-episodios",
      "texto_original": "Lost Song (Dublado)",
      "rating": 7.16,
      "classificacao_etaria": "A14",
      "imagem_original": "https://animefire.plus/img/animes/lost-song.webp",
      "imagem_pasta": "https://animefire.plus/img/animes/lost-song/",
      "secao": "dublados,legendados",
      "pagina": 24,
      "total_episodios": 12,
      "link_video": "https://animefire.plus/video/lost-song-dublado"
    },
    {
      "id": 2243,
      "nome": "Lost Universe",
      "link": "https://animefire.plus/animes/lost-universe-todos-os-episodios",
      "texto_original": "Lost Universe",
      "rating": 7.06,
      "classificacao_etaria": "A14",
      "imagem_original": "https://animefire.plus/img/animes/lost-universe.webp",
      "imagem_pasta": "https://animefire.plus/img/animes/lost-universe/",
      "secao": "legendados",
      "pagina": 167,
      "total_episodios": 26,
      "link_video": "https://animefire.plus/video/lost-universe"
    },
    {
      "id": 2244,
      "nome": "Lostorage Conflated WIXOSS",
      "link": "https://animefire.plus/animes/lostorage-conflated-wixoss-todos-os-episodios",
      "texto_original": "Lostorage Conflated WIXOSS",
      "rating": 7.19,
      "classificacao_etaria": "A16",
      "imagem_original": "https://animefire.plus/img/animes/lostorage-conflated-wixoss.webp",
      "imagem_pasta": "https://animefire.plus/img/animes/lostorage-conflated-wixoss/",
      "secao": "legendados",
      "pagina": 159,
      "total_episodios": 13,
      "link_video": "https://animefire.plus/video/lostorage-conflated-wixoss"
    },
    {
      "id": 2245,
      "nome": "Lostorage Incited WIXOSS",
      "link": "https://animefire.plus/animes/lostorage-incited-wixoss-todos-os-episodios",
      "texto_original": "Lostorage Incited WIXOSS",
      "rating": 6.78,
      "classificacao_etaria": "A16",
      "imagem_original": "https://animefire.plus/img/animes/lostorage-incited-wixoss.webp",
      "imagem_pasta": "https://animefire.plus/img/animes/lostorage-incited-wixoss/",
      "secao": "legendados",
      "pagina": 117,
      "total_episodios": 5,
      "link_video": "https://animefire.plus/video/lostorage-incited-wixoss"
    },
    {
      "id": 2246,
      "nome": "Love All Play",
      "link": "https://animefire.plus/animes/love-all-play-todos-os-episodios",
      "texto_original": "Love All Play",
      "rating": 6.54,
      "classificacao_etaria": "A14",
      "imagem_original": "https://animefire.plus/img/animes/love-all-play.webp",
      "imagem_pasta": "https://animefire.plus/img/animes/love-all-play/",
      "secao": "legendados",
      "pagina": 34,
      "total_episodios": 24,
      "link_video": "https://animefire.plus/video/love-all-play"
    },
    {
      "id": 2247,
      "nome": "Love Hina",
      "link": "https://animefire.plus/animes/love-hina-todos-os-episodios",
      "texto_original": "Love Hina",
      "rating": 7.22,
      "classificacao_etaria": "A14",
      "imagem_original": "https://animefire.plus/img/animes/love-hina.webp",
      "imagem_pasta": "https://animefire.plus/img/animes/love-hina/",
      "secao": "legendados",
      "pagina": 150,
      "total_episodios": 24,
      "link_video": "https://animefire.plus/video/love-hina"
    },
    {
      "id": 2248,
      "nome": "Love Lab",
      "link": "https://animefire.plus/animes/love-lab-todos-os-episodios",
      "texto_original": "Love Lab",
      "rating": 7.43,
      "classificacao_etaria": "A14",
      "imagem_original": "https://animefire.plus/img/animes/love-lab.webp",
      "imagem_pasta": "https://animefire.plus/img/animes/love-lab/",
      "secao": "legendados",
      "pagina": 140,
      "total_episodios": 6,
      "link_video": "https://animefire.plus/video/love-lab"
    },
    {
      "id": 2249,
      "nome": "Love Live! Nijigasaki Gakuen School Idol Doukoukai",
      "link": "https://animefire.plus/animes/love-live-nijigasaki-gakuen-school-idol-doukoukai-todos-os-episodios",
      "texto_original": "Love Live! Nijigasaki Gakuen School Idol Doukoukai",
      "rating": null,
      "classificacao_etaria": "A14",
      "imagem_original": "https://animefire.plus/img/animes/love-live-nijigasaki-gakuen-school-idol-doukoukai.webp",
      "imagem_pasta": "https://animefire.plus/img/animes/love-live-nijigasaki-gakuen-school-idol-doukoukai/",
      "secao": "legendados",
      "pagina": 52,
      "total_episodios": 13,
      "link_video": "https://animefire.plus/video/love-live-nijigasaki-gakuen-school-idol-doukoukai"
    },
    {
      "id": 2250,
      "nome": "Love Live! Nijigasaki Gakuen School Idol Doukoukai 2nd Season",
      "link": "https://animefire.plus/animes/love-live-nijigasaki-gakuen-school-idol-doukoukai-2-todos-os-episodios",
      "texto_original": "Love Live! Nijigasaki Gakuen School Idol Doukoukai 2nd Season",
      "rating": 7.66,
      "classificacao_etaria": "A14",
      "imagem_original": "https://animefire.plus/img/animes/love-live-nijigasaki-gakuen-school-idol-doukoukai-2.webp",
      "imagem_pasta": "https://animefire.plus/img/animes/love-live-nijigasaki-gakuen-school-idol-doukoukai-2/",
      "secao": "legendados",
      "pagina": 34,
      "total_episodios": 13,
      "link_video": "https://animefire.plus/video/love-live-nijigasaki-gakuen-school-idol-doukoukai-2"
    },
    {
      "id": 2251,
      "nome": "Love Live! Nijigasaki Gakuen School Idol Doukoukai: Next Sky",
      "link": "https://animefire.plus/animes/love-live-nijigasaki-gakuen-school-idol-doukoukai-next-sky-todos-os-episodios",
      "texto_original": "Love Live! Nijigasaki Gakuen School Idol Doukoukai: Next Sky",
      "rating": 7.29,
      "classificacao_etaria": "A14",
      "imagem_original": "https://animefire.plus/img/animes/love-live-nijigasaki-gakuen-school-idol-doukoukai-next-sky.webp",
      "imagem_pasta": "https://animefire.plus/img/animes/love-live-nijigasaki-gakuen-school-idol-doukoukai-next-sky/",
      "secao": "legendados",
      "pagina": 18,
      "total_episodios": 1,
      "link_video": "https://animefire.plus/video/love-live-nijigasaki-gakuen-school-idol-doukoukai-next-sky"
    },
    {
      "id": 2252,
      "nome": "Love Live! School Idol Project",
      "link": "https://animefire.plus/animes/love-live-school-idol-project-todos-os-episodios",
      "texto_original": "Love Live! School Idol Project",
      "rating": 7.57,
      "classificacao_etaria": "A14",
      "imagem_original": "https://animefire.plus/img/animes/love-live-school-idol-project.webp",
      "imagem_pasta": "https://animefire.plus/img/animes/love-live-school-idol-project/",
      "secao": "legendados",
      "pagina": 175,
      "total_episodios": 6,
      "link_video": "https://animefire.plus/video/love-live-school-idol-project"
    },
    {
      "id": 2253,
      "nome": "Love Live! School Idol Project 2nd Season",
      "link": "https://animefire.plus/animes/love-live-school-idol-project-2nd-season-todos-os-episodios",
      "texto_original": "Love Live! School Idol Project 2nd Season",
      "rating": 7.93,
      "classificacao_etaria": "A14",
      "imagem_original": "https://animefire.plus/img/animes/love-live-school-idol-project-2nd-season.webp",
      "imagem_pasta": "https://animefire.plus/img/animes/love-live-school-idol-project-2nd-season/",
      "secao": "legendados",
      "pagina": 137,
      "total_episodios": 13,
      "link_video": "https://animefire.plus/video/love-live-school-idol-project-2nd-season"
    },
    {
      "id": 2254,
      "nome": "Love Live! Sunshine!!",
      "link": "https://animefire.plus/animes/love-live-sunshine-todos-os-episodios",
      "texto_original": "Love Live! Sunshine!!",
      "rating": 7.5,
      "classificacao_etaria": "A14",
      "imagem_original": "https://animefire.plus/img/animes/love-live-sunshine.webp",
      "imagem_pasta": "https://animefire.plus/img/animes/love-live-sunshine/",
      "secao": "legendados",
      "pagina": 140,
      "total_episodios": 0,
      "link_video": "https://animefire.plus/video/love-live-sunshine"
    },
    {
      "id": 2255,
      "nome": "Love Live! Sunshine!! 2nd Season",
      "link": "https://animefire.plus/animes/love-live-sunshine-2nd-season-todos-os-episodios",
      "texto_original": "Love Live! Sunshine!! 2nd Season",
      "rating": 7.65,
      "classificacao_etaria": "A14",
      "imagem_original": "https://animefire.plus/img/animes/love-live-sunshine-2nd-season.webp",
      "imagem_pasta": "https://animefire.plus/img/animes/love-live-sunshine-2nd-season/",
      "secao": "legendados",
      "pagina": 90,
      "total_episodios": 0,
      "link_video": "https://animefire.plus/video/love-live-sunshine-2nd-season"
    },
    {
      "id": 2256,
      "nome": "Love Live! Superstar!!",
      "link": "https://animefire.plus/animes/love-live-superstar-todos-os-episodios",
      "texto_original": "Love Live! Superstar!!",
      "rating": 7.92,
      "classificacao_etaria": "A14",
      "imagem_original": "https://animefire.plus/img/animes/love-live-superstar.webp",
      "imagem_pasta": "https://animefire.plus/img/animes/love-live-superstar/",
      "secao": "legendados",
      "pagina": 40,
      "total_episodios": 12,
      "link_video": "https://animefire.plus/video/love-live-superstar"
    },
    {
      "id": 2257,
      "nome": "Love Live! Superstar!! 2nd Season",
      "link": "https://animefire.plus/animes/love-live-superstar-2nd-season-todos-os-episodios",
      "texto_original": "Love Live! Superstar!! 2nd Season",
      "rating": 7.67,
      "classificacao_etaria": "A14",
      "imagem_original": "https://animefire.plus/img/animes/love-live-superstar-2nd-season.webp",
      "imagem_pasta": "https://animefire.plus/img/animes/love-live-superstar-2nd-season/",
      "secao": "legendados",
      "pagina": 30,
      "total_episodios": 12,
      "link_video": "https://animefire.plus/video/love-live-superstar-2nd-season"
    },
    {
      "id": 2258,
      "nome": "Love Live! Superstar!! 3rd Season",
      "link": "https://animefire.plus/animes/love-live-superstar-3rd-season-todos-os-episodios",
      "texto_original": "Love Live! Superstar!! 3rd Season",
      "rating": 7.89,
      "classificacao_etaria": "A14",
      "imagem_original": "https://animefire.plus/img/animes/love-live-superstar-3rd-season.webp",
      "imagem_pasta": "https://animefire.plus/img/animes/love-live-superstar-3rd-season/",
      "secao": "legendados",
      "pagina": 9,
      "total_episodios": 12,
      "link_video": "https://animefire.plus/video/love-live-superstar-3rd-season"
    },
    {
      "id": 2259,
      "nome": "Love Stage!!",
      "link": "https://animefire.plus/animes/love-stage-todos-os-episodios",
      "texto_original": "Love Stage!!",
      "rating": 7.56,
      "classificacao_etaria": "A14",
      "imagem_original": "https://animefire.plus/img/animes/love-stage.webp",
      "imagem_pasta": "https://animefire.plus/img/animes/love-stage/",
      "secao": "legendados",
      "pagina": 165,
      "total_episodios": 4,
      "link_video": "https://animefire.plus/video/love-stage"
    },
    {
      "id": 2260,
      "nome": "Love♥Love?",
      "link": "https://animefire.plus/animes/love-love-todos-os-episodios",
      "texto_original": "Love♥Love?",
      "rating": 5.98,
      "classificacao_etaria": "A18",
      "imagem_original": "https://animefire.plus/img/animes/love-love.webp",
      "imagem_pasta": "https://animefire.plus/img/animes/love-love/",
      "secao": "legendados",
      "pagina": 127,
      "total_episodios": 9,
      "link_video": "https://animefire.plus/video/love-love"
    }
  ],
  "pagination": {
    "current_page": 110,
    "per_page": 20,
    "total_items": 4269,
    "total_pages": 214,
    "has_next": true,
    "has_prev": true
  }
}
