{
  "message": "Animes da seção: legendados",
  "section": "legendados",
  "data": [
    {
      "id": 1223,
      "nome": "Golden Kamuy 3rd Season",
      "link": "https://animefire.plus/animes/golden-kamuy-3rd-season-todos-os-episodios",
      "texto_original": "Golden Kamuy 3rd Season",
      "rating": null,
      "classificacao_etaria": "A16",
      "imagem_original": "https://animefire.plus/img/animes/golden-kamuy-3rd-season.webp",
      "imagem_pasta": "https://animefire.plus/img/animes/golden-kamuy-3rd-season/",
      "secao": "legendados",
      "pagina": 51,
      "total_episodios": 12,
      "link_video": "https://animefire.plus/video/golden-kamuy-3rd-season"
    },
    {
      "id": 1224,
      "nome": "Golden Kamuy 4th Season",
      "link": "https://animefire.plus/animes/golden-kamuy-4th-season-todos-os-episodios",
      "texto_original": "Golden Kamuy 4th Season",
      "rating": 8.12,
      "classificacao_etaria": "A16",
      "imagem_original": "https://animefire.plus/img/animes/golden-kamuy-4th-season.webp",
      "imagem_pasta": "https://animefire.plus/img/animes/golden-kamuy-4th-season/",
      "secao": "legendados",
      "pagina": 29,
      "total_episodios": 13,
      "link_video": "https://animefire.plus/video/golden-kamuy-4th-season"
    },
    {
      "id": 1225,
      "nome": "Golden Kamuy OVA",
      "link": "https://animefire.plus/animes/golden-kamuy-ova-todos-os-episodios",
      "texto_original": "Golden Kamuy OVA",
      "rating": 7.16,
      "classificacao_etaria": "A16",
      "imagem_original": "https://animefire.plus/img/animes/golden-kamuy-ova.webp",
      "imagem_pasta": "https://animefire.plus/img/animes/golden-kamuy-ova/",
      "secao": "legendados",
      "pagina": 88,
      "total_episodios": 1,
      "link_video": "https://animefire.plus/video/golden-kamuy-ova"
    },
    {
      "id": 1226,
      "nome": "Golden Time",
      "link": "https://animefire.plus/animes/golden-time-todos-os-episodios",
      "texto_original": "Golden Time",
      "rating": 7.87,
      "classificacao_etaria": "A14",
      "imagem_original": "https://animefire.plus/img/animes/golden-time.webp",
      "imagem_pasta": "https://animefire.plus/img/animes/golden-time/",
      "secao": "legendados",
      "pagina": 162,
      "total_episodios": 6,
      "link_video": "https://animefire.plus/video/golden-time"
    },
    {
      "id": 1227,
      "nome": "Golgo 13 (TV)",
      "link": "https://animefire.plus/animes/golgo-13-tv-todos-os-episodios",
      "texto_original": "Golgo 13 (TV)",
      "rating": 7.53,
      "classificacao_etaria": "A18",
      "imagem_original": "https://animefire.plus/img/animes/golgo-13-tv.webp",
      "imagem_pasta": "https://animefire.plus/img/animes/golgo-13-tv/",
      "secao": "legendados",
      "pagina": 45,
      "total_episodios": 50,
      "link_video": "https://animefire.plus/video/golgo-13-tv"
    },
    {
      "id": 1228,
      "nome": "Golgo 13: Queen Bee",
      "link": "https://animefire.plus/animes/golgo-13-queen-bee-todos-os-episodios",
      "texto_original": "Golgo 13: Queen Bee",
      "rating": 6.59,
      "classificacao_etaria": "A18",
      "imagem_original": "https://animefire.plus/img/animes/golgo-13-queen-bee.webp",
      "imagem_pasta": "https://animefire.plus/img/animes/golgo-13-queen-bee/",
      "secao": "legendados",
      "pagina": 45,
      "total_episodios": 1,
      "link_video": "https://animefire.plus/video/golgo-13-queen-bee"
    },
    {
      "id": 1229,
      "nome": "Good Night World (Dublado)",
      "link": "https://animefire.plus/animes/good-night-world-dublado-todos-os-episodios",
      "texto_original": "Good Night World (Dublado)",
      "rating": 7.06,
      "classificacao_etaria": "A16",
      "imagem_original": "https://animefire.plus/img/animes/good-night-world.webp",
      "imagem_pasta": "https://animefire.plus/img/animes/good-night-world/",
      "secao": "dublados,legendados",
      "pagina": 5,
      "total_episodios": 12,
      "link_video": "https://animefire.plus/video/good-night-world-dublado"
    },
    {
      "id": 1230,
      "nome": "Gorilla no Kami kara Kago sareta Reijou wa Ouritsu Kishidan de Kawaigarareru",
      "link": "https://animefire.plus/animes/gorilla-no-kami-kara-kago-sareta-reijou-wa-ouritsu-kishidan-de-kawaigarareru-todos-os-episodios",
      "texto_original": "Gorilla no Kami kara Kago sareta Reijou wa Ouritsu Kishidan de Kawaigarareru",
      "rating": 6.52,
      "classificacao_etaria": "A14",
      "imagem_original": "https://animefire.plus/img/animes/gorilla-no-kami-kara-kago-sareta-reijou-wa-ouritsu-kishidan-de-kawaigarareru.webp",
      "imagem_pasta": "https://animefire.plus/img/animes/gorilla-no-kami-kara-kago-sareta-reijou-wa-ouritsu-kishidan-de-kawaigarareru/",
      "secao": "legendados",
      "pagina": 5,
      "total_episodios": 12,
      "link_video": "https://animefire.plus/video/gorilla-no-kami-kara-kago-sareta-reijou-wa-ouritsu-kishidan-de-kawaigarareru"
    },
    {
      "id": 1231,
      "nome": "Gosenzo-sama Banbanzai!",
      "link": "https://animefire.plus/animes/gosenzo-sama-banbanzai-todos-os-episodios",
      "texto_original": "Gosenzo-sama Banbanzai!",
      "rating": 7.33,
      "classificacao_etaria": "A16",
      "imagem_original": "https://animefire.plus/img/animes/gosenzo-sama-banbanzai.webp",
      "imagem_pasta": "https://animefire.plus/img/animes/gosenzo-sama-banbanzai/",
      "secao": "legendados",
      "pagina": 173,
      "total_episodios": 6,
      "link_video": "https://animefire.plus/video/gosenzo-sama-banbanzai"
    },
    {
      "id": 1232,
      "nome": "Goshuushou-sama Ninomiya-kun",
      "link": "https://animefire.plus/animes/goshuushou-sama-ninomiya-kun-todos-os-episodios",
      "texto_original": "Goshuushou-sama Ninomiya-kun",
      "rating": 6.8,
      "classificacao_etaria": "A18",
      "imagem_original": "https://animefire.plus/img/animes/goshuushou-sama-ninomiya-kun.webp",
      "imagem_pasta": "https://animefire.plus/img/animes/goshuushou-sama-ninomiya-kun/",
      "secao": "legendados",
      "pagina": 104,
      "total_episodios": 12,
      "link_video": "https://animefire.plus/video/goshuushou-sama-ninomiya-kun"
    },
    {
      "id": 1233,
      "nome": "Gosick",
      "link": "https://animefire.plus/animes/gosick-todos-os-episodios",
      "texto_original": "Gosick",
      "rating": 8.17,
      "classificacao_etaria": "A16",
      "imagem_original": "https://animefire.plus/img/animes/gosick.webp",
      "imagem_pasta": "https://animefire.plus/img/animes/gosick/",
      "secao": "legendados",
      "pagina": 160,
      "total_episodios": 24,
      "link_video": "https://animefire.plus/video/gosick"
    },
    {
      "id": 1234,
      "nome": "Goukon ni Ittara Onna ga Inakatta Hanashi",
      "link": "https://animefire.plus/animes/goukon-ni-ittara-onna-ga-inakatta-hanashi-todos-os-episodios",
      "texto_original": "Goukon ni Ittara Onna ga Inakatta Hanashi",
      "rating": 7.4,
      "classificacao_etaria": "A14",
      "imagem_original": "https://animefire.plus/img/animes/goukon-ni-ittara-onna-ga-inakatta-hanashi.webp",
      "imagem_pasta": "https://animefire.plus/img/animes/goukon-ni-ittara-onna-ga-inakatta-hanashi/",
      "secao": "legendados",
      "pagina": 9,
      "total_episodios": 12,
      "link_video": "https://animefire.plus/video/goukon-ni-ittara-onna-ga-inakatta-hanashi"
    },
    {
      "id": 1235,
      "nome": "Granbelm",
      "link": "https://animefire.plus/animes/granbelm-todos-os-episodios",
      "texto_original": "Granbelm",
      "rating": 6.75,
      "classificacao_etaria": "A14",
      "imagem_original": "https://animefire.plus/img/animes/granbelm.webp",
      "imagem_pasta": "https://animefire.plus/img/animes/granbelm/",
      "secao": "legendados",
      "pagina": 174,
      "total_episodios": 7,
      "link_video": "https://animefire.plus/video/granbelm"
    },
    {
      "id": 1236,
      "nome": "Granblue Fantasy The Animation",
      "link": "https://animefire.plus/animes/granblue-fantasy-the-animation-todos-os-episodios",
      "texto_original": "Granblue Fantasy The Animation",
      "rating": 6.8,
      "classificacao_etaria": "A14",
      "imagem_original": "https://animefire.plus/img/animes/granblue-fantasy-the-animation.webp",
      "imagem_pasta": "https://animefire.plus/img/animes/granblue-fantasy-the-animation/",
      "secao": "legendados",
      "pagina": 110,
      "total_episodios": 13,
      "link_video": "https://animefire.plus/video/granblue-fantasy-the-animation"
    },
    {
      "id": 1237,
      "nome": "Granblue Fantasy The Animation Season 2",
      "link": "https://animefire.plus/animes/granblue-fantasy-the-animation-season-2-todos-os-episodios",
      "texto_original": "Granblue Fantasy The Animation Season 2",
      "rating": 6.78,
      "classificacao_etaria": "A14",
      "imagem_original": "https://animefire.plus/img/animes/granblue-fantasy-the-animation-season-2.webp",
      "imagem_pasta": "https://animefire.plus/img/animes/granblue-fantasy-the-animation-season-2/",
      "secao": "legendados",
      "pagina": 110,
      "total_episodios": 13,
      "link_video": "https://animefire.plus/video/granblue-fantasy-the-animation-season-2"
    },
    {
      "id": 1238,
      "nome": "Granblue Fantasy The Animation: Kabocha no Lantern",
      "link": "https://animefire.plus/animes/granblue-fantasy-the-animation-kabocha-no-lantern-todos-os-episodios",
      "texto_original": "Granblue Fantasy The Animation: Kabocha no Lantern",
      "rating": 6.67,
      "classificacao_etaria": "A14",
      "imagem_original": "https://animefire.plus/img/animes/granblue-fantasy-the-animation-kabocha-no-lantern.webp",
      "imagem_pasta": "https://animefire.plus/img/animes/granblue-fantasy-the-animation-kabocha-no-lantern/",
      "secao": "legendados",
      "pagina": 88,
      "total_episodios": 1,
      "link_video": "https://animefire.plus/video/granblue-fantasy-the-animation-kabocha-no-lantern"
    },
    {
      "id": 1239,
      "nome": "Grancrest Senki",
      "link": "https://animefire.plus/animes/grancrest-senki-todos-os-episodios",
      "texto_original": "Grancrest Senki",
      "rating": 7.34,
      "classificacao_etaria": "A16",
      "imagem_original": "https://animefire.plus/img/animes/grancrest-senki.webp",
      "imagem_pasta": "https://animefire.plus/img/animes/grancrest-senki/",
      "secao": "legendados",
      "pagina": 133,
      "total_episodios": 25,
      "link_video": "https://animefire.plus/video/grancrest-senki"
    },
    {
      "id": 1240,
      "nome": "Grancrest Senki Tsuisou",
      "link": "https://animefire.plus/animes/grancrest-senki-tsuisou-todos-os-episodios",
      "texto_original": "Grancrest Senki Tsuisou",
      "rating": 6.51,
      "classificacao_etaria": "A16",
      "imagem_original": "https://animefire.plus/img/animes/grancrest-senki-tsuisou.webp",
      "imagem_pasta": "https://animefire.plus/img/animes/grancrest-senki-tsuisou/",
      "secao": "legendados",
      "pagina": 84,
      "total_episodios": 1,
      "link_video": "https://animefire.plus/video/grancrest-senki-tsuisou"
    },
    {
      "id": 1241,
      "nome": "Grand Blue",
      "link": "https://animefire.plus/animes/grand-blue-todos-os-episodios",
      "texto_original": "Grand Blue",
      "rating": 8.42,
      "classificacao_etaria": "A14",
      "imagem_original": "https://animefire.plus/img/animes/grand-blue.webp",
      "imagem_pasta": "https://animefire.plus/img/animes/grand-blue/",
      "secao": "legendados",
      "pagina": 142,
      "total_episodios": 12,
      "link_video": "https://animefire.plus/video/grand-blue"
    },
    {
      "id": 1242,
      "nome": "Grand Blue Season 2",
      "link": "https://animefire.plus/animes/grand-blue-season-2-todos-os-episodios",
      "texto_original": "Grand Blue Season 2",
      "rating": 8.72,
      "classificacao_etaria": "A14",
      "imagem_original": "https://animefire.plus/img/animes/grand-blue-season-2.webp",
      "imagem_pasta": "https://animefire.plus/img/animes/grand-blue-season-2/",
      "secao": "legendados,lancamentos",
      "pagina": 3,
      "total_episodios": 4,
      "link_video": "https://animefire.plus/video/grand-blue-season-2"
    }
  ],
  "pagination": {
    "current_page": 60,
    "per_page": 20,
    "total_items": 4269,
    "total_pages": 214,
    "has_next": true,
    "has_prev": true
  }
}
