{
  "message": "Animes da seção: legendados",
  "section": "legendados",
  "data": [
    {
      "id": 3338,
      "nome": "Senjou no Valkyria",
      "link": "https://animefire.plus/animes/senjou-no-valkyria-todos-os-episodios",
      "texto_original": "Senjou no Valkyria",
      "rating": 7.68,
      "classificacao_etaria": "A14",
      "imagem_original": "https://animefire.plus/img/animes/senjou-no-valkyria.webp",
      "imagem_pasta": "https://animefire.plus/img/animes/senjou-no-valkyria/",
      "secao": "legendados",
      "pagina": 126,
      "total_episodios": 26,
      "link_video": "https://animefire.plus/video/senjou-no-valkyria"
    },
    {
      "id": 3339,
      "nome": "Senjou no Valkyria 3: Tagatame no Juusou",
      "link": "https://animefire.plus/animes/senjou-no-valkyria-3-tagatame-no-juusou-todos-os-episodios",
      "texto_original": "Senjou no Valkyria 3: Tagatame no Juusou",
      "rating": 7.33,
      "classificacao_etaria": "A14",
      "imagem_original": "https://animefire.plus/img/animes/senjou-no-valkyria-3-tagatame-no-juusou.webp",
      "imagem_pasta": "https://animefire.plus/img/animes/senjou-no-valkyria-3-tagatame-no-juusou/",
      "secao": "legendados",
      "pagina": 86,
      "total_episodios": 2,
      "link_video": "https://animefire.plus/video/senjou-no-valkyria-3-tagatame-no-juusou"
    },
    {
      "id": 3340,
      "nome": "Senjou no Valkyria: SenVal Theater",
      "link": "https://animefire.plus/animes/senjou-no-valkyria-senval-theater-todos-os-episodios",
      "texto_original": "Senjou no Valkyria: SenVal Theater",
      "rating": 6.83,
      "classificacao_etaria": "A14",
      "imagem_original": "https://animefire.plus/img/animes/senjou-no-valkyria-senval-theater.webp",
      "imagem_pasta": "https://animefire.plus/img/animes/senjou-no-valkyria-senval-theater/",
      "secao": "legendados",
      "pagina": 140,
      "total_episodios": 9,
      "link_video": "https://animefire.plus/video/senjou-no-valkyria-senval-theater"
    },
    {
      "id": 3341,
      "nome": "Senjuushi",
      "link": "https://animefire.plus/animes/senjuushi-todos-os-episodios",
      "texto_original": "Senjuushi",
      "rating": 4.97,
      "classificacao_etaria": "A14",
      "imagem_original": "https://animefire.plus/img/animes/senjuushi.webp",
      "imagem_pasta": "https://animefire.plus/img/animes/senjuushi/",
      "secao": "legendados",
      "pagina": 173,
      "total_episodios": 11,
      "link_video": "https://animefire.plus/video/senjuushi"
    },
    {
      "id": 3342,
      "nome": "Senki Zesshou Symphogear",
      "link": "https://animefire.plus/animes/senki-zesshou-symphogear-todos-os-episodios",
      "texto_original": "Senki Zesshou Symphogear",
      "rating": 7.08,
      "classificacao_etaria": "A14",
      "imagem_original": "https://animefire.plus/img/animes/senki-zesshou-symphogear.webp",
      "imagem_pasta": "https://animefire.plus/img/animes/senki-zesshou-symphogear/",
      "secao": "legendados",
      "pagina": 106,
      "total_episodios": 13,
      "link_video": "https://animefire.plus/video/senki-zesshou-symphogear"
    },
    {
      "id": 3343,
      "nome": "Senki Zesshou Symphogear AXZ",
      "link": "https://animefire.plus/animes/senki-zesshou-symphogear-axz-todos-os-episodios",
      "texto_original": "Senki Zesshou Symphogear AXZ",
      "rating": 7.62,
      "classificacao_etaria": "A14",
      "imagem_original": "https://animefire.plus/img/animes/senki-zesshou-symphogear-axz.webp",
      "imagem_pasta": "https://animefire.plus/img/animes/senki-zesshou-symphogear-axz/",
      "secao": "legendados",
      "pagina": 77,
      "total_episodios": 13,
      "link_video": "https://animefire.plus/video/senki-zesshou-symphogear-axz"
    },
    {
      "id": 3344,
      "nome": "Senki Zesshou Symphogear G",
      "link": "https://animefire.plus/animes/senki-zesshou-symphogear-g-todos-os-episodios",
      "texto_original": "Senki Zesshou Symphogear G",
      "rating": 7.48,
      "classificacao_etaria": "A14",
      "imagem_original": "https://animefire.plus/img/animes/senki-zesshou-symphogear-g.webp",
      "imagem_pasta": "https://animefire.plus/img/animes/senki-zesshou-symphogear-g/",
      "secao": "legendados",
      "pagina": 62,
      "total_episodios": 13,
      "link_video": "https://animefire.plus/video/senki-zesshou-symphogear-g"
    },
    {
      "id": 3345,
      "nome": "Senki Zesshou Symphogear GX",
      "link": "https://animefire.plus/animes/senki-zesshou-symphogear-gx-todos-os-episodios",
      "texto_original": "Senki Zesshou Symphogear GX",
      "rating": 7.45,
      "classificacao_etaria": "A14",
      "imagem_original": "https://animefire.plus/img/animes/senki-zesshou-symphogear-gx.webp",
      "imagem_pasta": "https://animefire.plus/img/animes/senki-zesshou-symphogear-gx/",
      "secao": "legendados",
      "pagina": 62,
      "total_episodios": 13,
      "link_video": "https://animefire.plus/video/senki-zesshou-symphogear-gx"
    },
    {
      "id": 3346,
      "nome": "Senki Zesshou Symphogear XV",
      "link": "https://animefire.plus/animes/senki-zesshou-symphogear-xv-todos-os-episodios",
      "texto_original": "Senki Zesshou Symphogear XV",
      "rating": 8.21,
      "classificacao_etaria": "A14",
      "imagem_original": "https://animefire.plus/img/animes/senki-zesshou-symphogear-xv.webp",
      "imagem_pasta": "https://animefire.plus/img/animes/senki-zesshou-symphogear-xv/",
      "secao": "legendados",
      "pagina": 152,
      "total_episodios": 4,
      "link_video": "https://animefire.plus/video/senki-zesshou-symphogear-xv"
    },
    {
      "id": 3347,
      "nome": "Senkou no Night Raid",
      "link": "https://animefire.plus/animes/senkou-no-night-raid-todos-os-episodios",
      "texto_original": "Senkou no Night Raid",
      "rating": 6.92,
      "classificacao_etaria": "A16",
      "imagem_original": "https://animefire.plus/img/animes/senkou-no-night-raid.webp",
      "imagem_pasta": "https://animefire.plus/img/animes/senkou-no-night-raid/",
      "secao": "legendados",
      "pagina": 127,
      "total_episodios": 13,
      "link_video": "https://animefire.plus/video/senkou-no-night-raid"
    },
    {
      "id": 3348,
      "nome": "Senpai ga Uzai Kouhai no Hanashi",
      "link": "https://animefire.plus/animes/senpai-ga-uzai-kouhai-no-hanashi-todos-os-episodios",
      "texto_original": "Senpai ga Uzai Kouhai no Hanashi",
      "rating": 7.55,
      "classificacao_etaria": "A14",
      "imagem_original": "https://animefire.plus/img/animes/senpai-ga-uzai-kouhai-no-hanashi.webp",
      "imagem_pasta": "https://animefire.plus/img/animes/senpai-ga-uzai-kouhai-no-hanashi/",
      "secao": "legendados",
      "pagina": 37,
      "total_episodios": 12,
      "link_video": "https://animefire.plus/video/senpai-ga-uzai-kouhai-no-hanashi"
    },
    {
      "id": 3349,
      "nome": "Senpai wa Otokonoko",
      "link": "https://animefire.plus/animes/senpai-wa-otokonoko-todos-os-episodios",
      "texto_original": "Senpai wa Otokonoko",
      "rating": 7.3,
      "classificacao_etaria": "A14",
      "imagem_original": "https://animefire.plus/img/animes/senpai-wa-otokonoko.webp",
      "imagem_pasta": "https://animefire.plus/img/animes/senpai-wa-otokonoko/",
      "secao": "legendados",
      "pagina": 12,
      "total_episodios": 12,
      "link_video": "https://animefire.plus/video/senpai-wa-otokonoko"
    },
    {
      "id": 3350,
      "nome": "Senran Kagura",
      "link": "https://animefire.plus/animes/senran-kagura-todos-os-episodios",
      "texto_original": "Senran Kagura",
      "rating": 6.43,
      "classificacao_etaria": "A14",
      "imagem_original": "https://animefire.plus/img/animes/senran-kagura.webp",
      "imagem_pasta": "https://animefire.plus/img/animes/senran-kagura/",
      "secao": "legendados",
      "pagina": 161,
      "total_episodios": 6,
      "link_video": "https://animefire.plus/video/senran-kagura"
    },
    {
      "id": 3351,
      "nome": "Senran Kagura Shinovi Master: Tokyo Youma-hen",
      "link": "https://animefire.plus/animes/senran-kagura-shinovi-master-tokyo-youma-hen-todos-os-episodios",
      "texto_original": "Senran Kagura Shinovi Master: Tokyo Youma-hen",
      "rating": 6.36,
      "classificacao_etaria": "A18",
      "imagem_original": "https://animefire.plus/img/animes/senran-kagura-shinovi-master-tokyo-youma-hen.webp",
      "imagem_pasta": "https://animefire.plus/img/animes/senran-kagura-shinovi-master-tokyo-youma-hen/",
      "secao": "legendados",
      "pagina": 157,
      "total_episodios": 12,
      "link_video": "https://animefire.plus/video/senran-kagura-shinovi-master-tokyo-youma-hen"
    },
    {
      "id": 3352,
      "nome": "Senryuu Shoujo",
      "link": "https://animefire.plus/animes/senryuu-shoujo-todos-os-episodios",
      "texto_original": "Senryuu Shoujo",
      "rating": 7.41,
      "classificacao_etaria": "A14",
      "imagem_original": "https://animefire.plus/img/animes/senryuu-shoujo.webp",
      "imagem_pasta": "https://animefire.plus/img/animes/senryuu-shoujo/",
      "secao": "legendados",
      "pagina": 147,
      "total_episodios": 0,
      "link_video": "https://animefire.plus/video/senryuu-shoujo"
    },
    {
      "id": 3353,
      "nome": "Sentai Daishikkaku",
      "link": "https://animefire.plus/animes/sentai-daishikkaku-todos-os-episodios",
      "texto_original": "Sentai Daishikkaku",
      "rating": 7.32,
      "classificacao_etaria": "A14",
      "imagem_original": "https://animefire.plus/img/animes/sentai-daishikkaku.webp",
      "imagem_pasta": "https://animefire.plus/img/animes/sentai-daishikkaku/",
      "secao": "legendados",
      "pagina": 15,
      "total_episodios": 12,
      "link_video": "https://animefire.plus/video/sentai-daishikkaku"
    },
    {
      "id": 3354,
      "nome": "Sentai Daishikkaku 2nd Season",
      "link": "https://animefire.plus/animes/sentai-daishikkaku-2nd-season-todos-os-episodios",
      "texto_original": "Sentai Daishikkaku 2nd Season",
      "rating": 7.1,
      "classificacao_etaria": "A14",
      "imagem_original": "https://animefire.plus/img/animes/sentai-daishikkaku-2nd-season.webp",
      "imagem_pasta": "https://animefire.plus/img/animes/sentai-daishikkaku-2nd-season/",
      "secao": "legendados",
      "pagina": 6,
      "total_episodios": 12,
      "link_video": "https://animefire.plus/video/sentai-daishikkaku-2nd-season"
    },
    {
      "id": 3355,
      "nome": "Sentai Red Isekai de Boukensha ni Naru",
      "link": "https://animefire.plus/animes/sentai-red-isekai-de-boukensha-ni-naru-todos-os-episodios",
      "texto_original": "Sentai Red Isekai de Boukensha ni Naru",
      "rating": 6.8,
      "classificacao_etaria": "A14",
      "imagem_original": "https://animefire.plus/img/animes/sentai-red-isekai-de-boukensha-ni-naru.webp",
      "imagem_pasta": "https://animefire.plus/img/animes/sentai-red-isekai-de-boukensha-ni-naru/",
      "secao": "legendados",
      "pagina": 6,
      "total_episodios": 12,
      "link_video": "https://animefire.plus/video/sentai-red-isekai-de-boukensha-ni-naru"
    },
    {
      "id": 3356,
      "nome": "Sentouin, Hakenshimasu! (Dublado)",
      "link": "https://animefire.plus/animes/sentouin-hakenshimasu-dublado-todos-os-episodios",
      "texto_original": "Sentouin, Hakenshimasu! (Dublado)",
      "rating": 7.14,
      "classificacao_etaria": "A14",
      "imagem_original": "https://animefire.plus/img/animes/sentouin-hakenshimasu.webp",
      "imagem_pasta": "https://animefire.plus/img/animes/sentouin-hakenshimasu/",
      "secao": "dublados,legendados",
      "pagina": 17,
      "total_episodios": 12,
      "link_video": "https://animefire.plus/video/sentouin-hakenshimasu-dublado"
    },
    {
      "id": 3357,
      "nome": "Senyoku no Sigrdrifa",
      "link": "https://animefire.plus/animes/senyoku-no-sigrdrifa-todos-os-episodios",
      "texto_original": "Senyoku no Sigrdrifa",
      "rating": null,
      "classificacao_etaria": "A14",
      "imagem_original": "https://animefire.plus/img/animes/senyoku-no-sigrdrifa.webp",
      "imagem_pasta": "https://animefire.plus/img/animes/senyoku-no-sigrdrifa/",
      "secao": "legendados",
      "pagina": 52,
      "total_episodios": 12,
      "link_video": "https://animefire.plus/video/senyoku-no-sigrdrifa"
    }
  ],
  "pagination": {
    "current_page": 164,
    "per_page": 20,
    "total_items": 4269,
    "total_pages": 214,
    "has_next": true,
    "has_prev": true
  }
}
