{
  "message": "Animes da seção: legendados",
  "section": "legendados",
  "data": [
    {
      "id": 2505,
      "nome": "Min Diao Ju Yi Wen Lu",
      "link": "https://animefire.plus/animes/min-diao-ju-yi-wen-lu-todos-os-episodios",
      "texto_original": "Min Diao Ju Yi Wen Lu",
      "rating": 6.68,
      "classificacao_etaria": "A16",
      "imagem_original": "https://animefire.plus/img/animes/min-diao-ju-yi-wen-lu.webp",
      "imagem_pasta": "https://animefire.plus/img/animes/min-diao-ju-yi-wen-lu/",
      "secao": "legendados",
      "pagina": 43,
      "total_episodios": 5,
      "link_video": "https://animefire.plus/video/min-diao-ju-yi-wen-lu"
    },
    {
      "id": 2506,
      "nome": "Minami Kamakura Koukou Joshi Jitenshabu",
      "link": "https://animefire.plus/animes/minami-kamakura-koukou-joshi-jitenshabu-todos-os-episodios",
      "texto_original": "Minami Kamakura Koukou Joshi Jitenshabu",
      "rating": 6.26,
      "classificacao_etaria": "A14",
      "imagem_original": "https://animefire.plus/img/animes/minami-kamakura-koukou-joshi-jitenshabu.webp",
      "imagem_pasta": "https://animefire.plus/img/animes/minami-kamakura-koukou-joshi-jitenshabu/",
      "secao": "legendados",
      "pagina": 44,
      "total_episodios": 12,
      "link_video": "https://animefire.plus/video/minami-kamakura-koukou-joshi-jitenshabu"
    },
    {
      "id": 2507,
      "nome": "Minami Kamakura Koukou Joshi Jitenshabu: Kita yo, Taiwan!",
      "link": "https://animefire.plus/animes/minami-kamakura-koukou-joshi-jitenshabu-kita-yo-taiwan-todos-os-episodios",
      "texto_original": "Minami Kamakura Koukou Joshi Jitenshabu: Kita yo, Taiwan!",
      "rating": 6.5,
      "classificacao_etaria": "A14",
      "imagem_original": "https://animefire.plus/img/animes/minami-kamakura-koukou-joshi-jitenshabu-kita-yo-taiwan.webp",
      "imagem_pasta": "https://animefire.plus/img/animes/minami-kamakura-koukou-joshi-jitenshabu-kita-yo-taiwan/",
      "secao": "legendados",
      "pagina": 44,
      "total_episodios": 1,
      "link_video": "https://animefire.plus/video/minami-kamakura-koukou-joshi-jitenshabu-kita-yo-taiwan"
    },
    {
      "id": 2508,
      "nome": "Minami-ke",
      "link": "https://animefire.plus/animes/minami-ke-todos-os-episodios",
      "texto_original": "Minami-ke",
      "rating": 7.74,
      "classificacao_etaria": "A14",
      "imagem_original": "https://animefire.plus/img/animes/minami-ke.webp",
      "imagem_pasta": "https://animefire.plus/img/animes/minami-ke/",
      "secao": "legendados",
      "pagina": 176,
      "total_episodios": 13,
      "link_video": "https://animefire.plus/video/minami-ke"
    },
    {
      "id": 2509,
      "nome": "Minami-ke Natsuyasumi",
      "link": "https://animefire.plus/animes/minami-ke-natsuyasumi-todos-os-episodios",
      "texto_original": "Minami-ke Natsuyasumi",
      "rating": 7.4,
      "classificacao_etaria": "A14",
      "imagem_original": "https://animefire.plus/img/animes/minami-ke-natsuyasumi.webp",
      "imagem_pasta": "https://animefire.plus/img/animes/minami-ke-natsuyasumi/",
      "secao": "legendados",
      "pagina": 55,
      "total_episodios": 1,
      "link_video": "https://animefire.plus/video/minami-ke-natsuyasumi"
    },
    {
      "id": 2510,
      "nome": "Minami-ke Okaeri",
      "link": "https://animefire.plus/animes/minami-ke-okaeri-todos-os-episodios",
      "texto_original": "Minami-ke Okaeri",
      "rating": 7.62,
      "classificacao_etaria": "A14",
      "imagem_original": "https://animefire.plus/img/animes/minami-ke-okaeri.webp",
      "imagem_pasta": "https://animefire.plus/img/animes/minami-ke-okaeri/",
      "secao": "legendados",
      "pagina": 126,
      "total_episodios": 13,
      "link_video": "https://animefire.plus/video/minami-ke-okaeri"
    },
    {
      "id": 2511,
      "nome": "Minami-ke Okawari",
      "link": "https://animefire.plus/animes/minami-ke-okawari-todos-os-episodios",
      "texto_original": "Minami-ke Okawari",
      "rating": 7.39,
      "classificacao_etaria": "A14",
      "imagem_original": "https://animefire.plus/img/animes/minami-ke-okawari.webp",
      "imagem_pasta": "https://animefire.plus/img/animes/minami-ke-okawari/",
      "secao": "legendados",
      "pagina": 114,
      "total_episodios": 13,
      "link_video": "https://animefire.plus/video/minami-ke-okawari"
    },
    {
      "id": 2512,
      "nome": "Minami-ke Omatase",
      "link": "https://animefire.plus/animes/minami-ke-omatase-todos-os-episodios",
      "texto_original": "Minami-ke Omatase",
      "rating": 7.42,
      "classificacao_etaria": "A14",
      "imagem_original": "https://animefire.plus/img/animes/minami-ke-omatase.webp",
      "imagem_pasta": "https://animefire.plus/img/animes/minami-ke-omatase/",
      "secao": "legendados",
      "pagina": 55,
      "total_episodios": 1,
      "link_video": "https://animefire.plus/video/minami-ke-omatase"
    },
    {
      "id": 2513,
      "nome": "Minami-ke Tadaima",
      "link": "https://animefire.plus/animes/minami-ke-tadaima-todos-os-episodios",
      "texto_original": "Minami-ke Tadaima",
      "rating": 7.74,
      "classificacao_etaria": "A14",
      "imagem_original": "https://animefire.plus/img/animes/minami-ke-tadaima.webp",
      "imagem_pasta": "https://animefire.plus/img/animes/minami-ke-tadaima/",
      "secao": "legendados",
      "pagina": 178,
      "total_episodios": 0,
      "link_video": "https://animefire.plus/video/minami-ke-tadaima"
    },
    {
      "id": 2514,
      "nome": "Mini Dragon",
      "link": "https://animefire.plus/animes/mini-dragon-todos-os-episodios",
      "texto_original": "Mini Dragon",
      "rating": 7.34,
      "classificacao_etaria": "A14",
      "imagem_original": "https://animefire.plus/img/animes/mini-dragon.webp",
      "imagem_pasta": "https://animefire.plus/img/animes/mini-dragon/",
      "secao": "legendados",
      "pagina": 46,
      "total_episodios": 13,
      "link_video": "https://animefire.plus/video/mini-dragon"
    },
    {
      "id": 2515,
      "nome": "Mini Sengoku Basara Two: Tsukiyo no Katakura-kun",
      "link": "https://animefire.plus/animes/mini-sengoku-basara-two-tsukiyo-no-katakura-kun-todos-os-episodios",
      "texto_original": "Mini Sengoku Basara Two: Tsukiyo no Katakura-kun",
      "rating": 6.81,
      "classificacao_etaria": null,
      "imagem_original": "https://animefire.plus/img/animes/mini-sengoku-basara-two-tsukiyo-no-katakura-kun.webp",
      "imagem_pasta": "https://animefire.plus/img/animes/mini-sengoku-basara-two-tsukiyo-no-katakura-kun/",
      "secao": "legendados",
      "pagina": 70,
      "total_episodios": 7,
      "link_video": "https://animefire.plus/video/mini-sengoku-basara-two-tsukiyo-no-katakura-kun"
    },
    {
      "id": 2516,
      "nome": "Mini Toji",
      "link": "https://animefire.plus/animes/mini-toji-todos-os-episodios",
      "texto_original": "Mini Toji",
      "rating": 6.14,
      "classificacao_etaria": null,
      "imagem_original": "https://animefire.plus/img/animes/mini-toji.webp",
      "imagem_pasta": "https://animefire.plus/img/animes/mini-toji/",
      "secao": "legendados",
      "pagina": 105,
      "total_episodios": 10,
      "link_video": "https://animefire.plus/video/mini-toji"
    },
    {
      "id": 2517,
      "nome": "Mini Yuri",
      "link": "https://animefire.plus/animes/mini-yuri-todos-os-episodios",
      "texto_original": "Mini Yuri",
      "rating": 6.74,
      "classificacao_etaria": "A14",
      "imagem_original": "https://animefire.plus/img/animes/mini-yuri.webp",
      "imagem_pasta": "https://animefire.plus/img/animes/mini-yuri/",
      "secao": "legendados",
      "pagina": 84,
      "total_episodios": 4,
      "link_video": "https://animefire.plus/video/mini-yuri"
    },
    {
      "id": 2518,
      "nome": "Minna Atsumare! Falcom Gakuen",
      "link": "https://animefire.plus/animes/minna-atsumare-falcom-gakuen-todos-os-episodios",
      "texto_original": "Minna Atsumare! Falcom Gakuen",
      "rating": 5.89,
      "classificacao_etaria": "A14",
      "imagem_original": "https://animefire.plus/img/animes/minna-atsumare-falcom-gakuen.webp",
      "imagem_pasta": "https://animefire.plus/img/animes/minna-atsumare-falcom-gakuen/",
      "secao": "legendados",
      "pagina": 108,
      "total_episodios": 13,
      "link_video": "https://animefire.plus/video/minna-atsumare-falcom-gakuen"
    },
    {
      "id": 2519,
      "nome": "Mirai Nikki (Dublado)",
      "link": "https://animefire.plus/animes/mirai-nikki-dublado-todos-os-episodios",
      "texto_original": "Mirai Nikki (Dublado)",
      "rating": 7.22,
      "classificacao_etaria": "A16",
      "imagem_original": "https://animefire.plus/img/animes/mirai-nikki.webp",
      "imagem_pasta": "https://animefire.plus/img/animes/mirai-nikki/",
      "secao": "dublados,legendados",
      "pagina": 13,
      "total_episodios": 26,
      "link_video": "https://animefire.plus/video/mirai-nikki-dublado"
    },
    {
      "id": 2520,
      "nome": "Mirai Nikki: Redial",
      "link": "https://animefire.plus/animes/mirai-nikki-redial-todos-os-episodios",
      "texto_original": "Mirai Nikki: Redial",
      "rating": 7.46,
      "classificacao_etaria": "A16",
      "imagem_original": "https://animefire.plus/img/animes/mirai-nikki-redial.webp",
      "imagem_pasta": "https://animefire.plus/img/animes/mirai-nikki-redial/",
      "secao": "legendados",
      "pagina": 60,
      "total_episodios": 1,
      "link_video": "https://animefire.plus/video/mirai-nikki-redial"
    },
    {
      "id": 2521,
      "nome": "Mirai no Mirai",
      "link": "https://animefire.plus/animes/mirai-no-mirai-todos-os-episodios",
      "texto_original": "Mirai no Mirai",
      "rating": 7.45,
      "classificacao_etaria": null,
      "imagem_original": "https://animefire.plus/img/animes/mirai-no-mirai.webp",
      "imagem_pasta": "https://animefire.plus/img/animes/mirai-no-mirai/",
      "secao": "legendados",
      "pagina": 96,
      "total_episodios": 3,
      "link_video": "https://animefire.plus/video/mirai-no-mirai"
    },
    {
      "id": 2522,
      "nome": "Miru Tights",
      "link": "https://animefire.plus/animes/miru-tights-todos-os-episodios",
      "texto_original": "Miru Tights",
      "rating": 6.58,
      "classificacao_etaria": "A14",
      "imagem_original": "https://animefire.plus/img/animes/miru-tights.webp",
      "imagem_pasta": "https://animefire.plus/img/animes/miru-tights/",
      "secao": "legendados",
      "pagina": 112,
      "total_episodios": 0,
      "link_video": "https://animefire.plus/video/miru-tights"
    },
    {
      "id": 2523,
      "nome": "Miru Tights: Cosplay Satsuei Tights",
      "link": "https://animefire.plus/animes/miru-tights-cosplay-satsuei-tights-todos-os-episodios",
      "texto_original": "Miru Tights: Cosplay Satsuei Tights",
      "rating": 6.59,
      "classificacao_etaria": "A14",
      "imagem_original": "https://animefire.plus/img/animes/miru-tights-cosplay-satsuei-tights.webp",
      "imagem_pasta": "https://animefire.plus/img/animes/miru-tights-cosplay-satsuei-tights/",
      "secao": "legendados",
      "pagina": 88,
      "total_episodios": 1,
      "link_video": "https://animefire.plus/video/miru-tights-cosplay-satsuei-tights"
    },
    {
      "id": 2524,
      "nome": "Miru: Watashi no Mirai",
      "link": "https://animefire.plus/animes/miru-watashi-no-mirai-todos-os-episodios",
      "texto_original": "Miru: Watashi no Mirai",
      "rating": 5.2,
      "classificacao_etaria": "A14",
      "imagem_original": "https://animefire.plus/img/animes/miru-watashi-no-mirai.webp",
      "imagem_pasta": "https://animefire.plus/img/animes/miru-watashi-no-mirai/",
      "secao": "legendados,lancamentos",
      "pagina": 4,
      "total_episodios": 0,
      "link_video": "https://animefire.plus/video/miru-watashi-no-mirai"
    }
  ],
  "pagination": {
    "current_page": 123,
    "per_page": 20,
    "total_items": 4269,
    "total_pages": 214,
    "has_next": true,
    "has_prev": true
  }
}
