{
  "message": "Animes da seção: legendados",
  "section": "legendados",
  "data": [
    {
      "id": 764,
      "nome": "Dead Dead Demons Dededede Destruction (ONA)",
      "link": "https://animefire.plus/animes/dead-dead-demons-dededede-destruction-ona-todos-os-episodios",
      "texto_original": "Dead Dead Demons Dededede Destruction (ONA)",
      "rating": 7.92,
      "classificacao_etaria": "A14",
      "imagem_original": "https://animefire.plus/img/animes/dead-dead-demons-dededede-destruction-ona.webp",
      "imagem_pasta": "https://animefire.plus/img/animes/dead-dead-demons-dededede-destruction-ona/",
      "secao": "legendados",
      "pagina": 12,
      "total_episodios": 17,
      "link_video": "https://animefire.plus/video/dead-dead-demons-dededede-destruction-ona"
    },
    {
      "id": 765,
      "nome": "Dead Heat",
      "link": "https://animefire.plus/animes/dead-heat-todos-os-episodios",
      "texto_original": "Dead Heat",
      "rating": 5.54,
      "classificacao_etaria": "A14",
      "imagem_original": "https://animefire.plus/img/animes/dead-heat.webp",
      "imagem_pasta": "https://animefire.plus/img/animes/dead-heat/",
      "secao": "legendados",
      "pagina": 70,
      "total_episodios": 1,
      "link_video": "https://animefire.plus/video/dead-heat"
    },
    {
      "id": 766,
      "nome": "Dead Mount Death Play",
      "link": "https://animefire.plus/animes/dead-mount-death-play-todos-os-episodios",
      "texto_original": "Dead Mount Death Play",
      "rating": 7.27,
      "classificacao_etaria": "A16",
      "imagem_original": "https://animefire.plus/img/animes/dead-mount-death-play.jpg",
      "imagem_pasta": "https://animefire.plus/img/animes/dead-mount-death-play/",
      "secao": "legendados",
      "pagina": 24,
      "total_episodios": 12,
      "link_video": "https://animefire.plus/video/dead-mount-death-play"
    },
    {
      "id": 767,
      "nome": "Dead Mount Death Play Part 2",
      "link": "https://animefire.plus/animes/dead-mount-death-play-part-2-todos-os-episodios",
      "texto_original": "Dead Mount Death Play Part 2",
      "rating": 7.48,
      "classificacao_etaria": "A16",
      "imagem_original": "https://animefire.plus/img/animes/dead-mount-death-play-part-2.webp",
      "imagem_pasta": "https://animefire.plus/img/animes/dead-mount-death-play-part-2/",
      "secao": "legendados",
      "pagina": 19,
      "total_episodios": 12,
      "link_video": "https://animefire.plus/video/dead-mount-death-play-part-2"
    },
    {
      "id": 768,
      "nome": "Deadman Wonderland",
      "link": "https://animefire.plus/animes/deadman-wonderland-todos-os-episodios",
      "texto_original": "Deadman Wonderland",
      "rating": 7.36,
      "classificacao_etaria": "A16",
      "imagem_original": "https://animefire.plus/img/animes/deadman-wonderland.webp",
      "imagem_pasta": "https://animefire.plus/img/animes/deadman-wonderland/",
      "secao": "legendados",
      "pagina": 171,
      "total_episodios": 12,
      "link_video": "https://animefire.plus/video/deadman-wonderland"
    },
    {
      "id": 769,
      "nome": "Deadman Wonderland: Akai Knife Tsukai",
      "link": "https://animefire.plus/animes/deadman-wonderland-akai-knife-tsukai-todos-os-episodios",
      "texto_original": "Deadman Wonderland: Akai Knife Tsukai",
      "rating": 7.02,
      "classificacao_etaria": "A16",
      "imagem_original": "https://animefire.plus/img/animes/deadman-wonderland-akai-knife-tsukai.webp",
      "imagem_pasta": "https://animefire.plus/img/animes/deadman-wonderland-akai-knife-tsukai/",
      "secao": "legendados",
      "pagina": 62,
      "total_episodios": 1,
      "link_video": "https://animefire.plus/video/deadman-wonderland-akai-knife-tsukai"
    },
    {
      "id": 770,
      "nome": "Deaimon",
      "link": "https://animefire.plus/animes/deaimon-todos-os-episodios",
      "texto_original": "Deaimon",
      "rating": 7.55,
      "classificacao_etaria": "A14",
      "imagem_original": "https://animefire.plus/img/animes/deaimon.webp",
      "imagem_pasta": "https://animefire.plus/img/animes/deaimon/",
      "secao": "legendados",
      "pagina": 34,
      "total_episodios": 12,
      "link_video": "https://animefire.plus/video/deaimon"
    },
    {
      "id": 772,
      "nome": "DearS",
      "link": "https://animefire.plus/animes/dears-todos-os-episodios",
      "texto_original": "DearS",
      "rating": 6.71,
      "classificacao_etaria": "A18",
      "imagem_original": "https://animefire.plus/img/animes/dears.webp",
      "imagem_pasta": "https://animefire.plus/img/animes/dears/",
      "secao": "legendados",
      "pagina": 162,
      "total_episodios": 12,
      "link_video": "https://animefire.plus/video/dears"
    },
    {
      "id": 773,
      "nome": "DearS: Kin no Tama Desu no?",
      "link": "https://animefire.plus/animes/dears-kin-no-tama-desu-no-todos-os-episodios",
      "texto_original": "DearS: Kin no Tama Desu no?",
      "rating": 6.83,
      "classificacao_etaria": "A18",
      "imagem_original": "https://animefire.plus/img/animes/dears-kin-no-tama-desu-no.webp",
      "imagem_pasta": "https://animefire.plus/img/animes/dears-kin-no-tama-desu-no/",
      "secao": "legendados",
      "pagina": 43,
      "total_episodios": 1,
      "link_video": "https://animefire.plus/video/dears-kin-no-tama-desu-no"
    },
    {
      "id": 774,
      "nome": "Death Billiards",
      "link": "https://animefire.plus/animes/death-billiards-todos-os-episodios",
      "texto_original": "Death Billiards",
      "rating": 7.98,
      "classificacao_etaria": "A16",
      "imagem_original": "https://animefire.plus/img/animes/death-billiards.webp",
      "imagem_pasta": "https://animefire.plus/img/animes/death-billiards/",
      "secao": "legendados",
      "pagina": 106,
      "total_episodios": 1,
      "link_video": "https://animefire.plus/video/death-billiards"
    },
    {
      "id": 775,
      "nome": "Death March kara Hajimaru Isekai Kyousoukyoku (Dublado)",
      "link": "https://animefire.plus/animes/death-march-kara-hajimaru-isekai-kyousoukyoku-dublado-todos-os-episodios",
      "texto_original": "Death March kara Hajimaru Isekai Kyousoukyoku (Dublado)",
      "rating": 6.84,
      "classificacao_etaria": "A14",
      "imagem_original": "https://animefire.plus/img/animes/death-march-kara-hajimaru-isekai-kyousoukyoku.webp",
      "imagem_pasta": "https://animefire.plus/img/animes/death-march-kara-hajimaru-isekai-kyousoukyoku/",
      "secao": "dublados,legendados",
      "pagina": 28,
      "total_episodios": 12,
      "link_video": "https://animefire.plus/video/death-march-kara-hajimaru-isekai-kyousoukyoku-dublado"
    },
    {
      "id": 776,
      "nome": "Death Note (Dublado)",
      "link": "https://animefire.plus/animes/death-note-dublado-todos-os-episodios",
      "texto_original": "Death Note (Dublado)",
      "rating": 8.66,
      "classificacao_etaria": "A16",
      "imagem_original": "https://animefire.plus/img/animes/death-note.webp",
      "imagem_pasta": "https://animefire.plus/img/animes/death-note/",
      "secao": "dublados,legendados",
      "pagina": 26,
      "total_episodios": 37,
      "link_video": "https://animefire.plus/video/death-note-dublado"
    },
    {
      "id": 777,
      "nome": "Death Parade",
      "link": "https://animefire.plus/animes/death-parade-todos-os-episodios",
      "texto_original": "Death Parade",
      "rating": 8.23,
      "classificacao_etaria": "A16",
      "imagem_original": "https://animefire.plus/img/animes/death-parade.webp",
      "imagem_pasta": "https://animefire.plus/img/animes/death-parade/",
      "secao": "legendados",
      "pagina": 166,
      "total_episodios": 3,
      "link_video": "https://animefire.plus/video/death-parade"
    },
    {
      "id": 778,
      "nome": "Deatte 5-byou de Battle (Dublado)",
      "link": "https://animefire.plus/animes/deatte-5-byou-de-battle-dublado-todos-os-episodios",
      "texto_original": "Deatte 5-byou de Battle (Dublado)",
      "rating": 6.75,
      "classificacao_etaria": "A16",
      "imagem_original": "https://animefire.plus/img/animes/deatte-5-byou-de-battle.webp",
      "imagem_pasta": "https://animefire.plus/img/animes/deatte-5-byou-de-battle/",
      "secao": "dublados,legendados",
      "pagina": 15,
      "total_episodios": 12,
      "link_video": "https://animefire.plus/video/deatte-5-byou-de-battle-dublado"
    },
    {
      "id": 779,
      "nome": "Deca-Dence (Dublado)",
      "link": "https://animefire.plus/animes/deca-dence-dublado-todos-os-episodios",
      "texto_original": "Deca-Dence (Dublado)",
      "rating": 7.42,
      "classificacao_etaria": "A14",
      "imagem_original": "https://animefire.plus/img/animes/deca-dence.webp",
      "imagem_pasta": "https://animefire.plus/img/animes/deca-dence/",
      "secao": "dublados,legendados",
      "pagina": 15,
      "total_episodios": 12,
      "link_video": "https://animefire.plus/video/deca-dence-dublado"
    },
    {
      "id": 780,
      "nome": "Deep Insanity: The Lost Child (Dublado)",
      "link": "https://animefire.plus/animes/deep-insanity-the-lost-child-dublado-todos-os-episodios",
      "texto_original": "Deep Insanity: The Lost Child (Dublado)",
      "rating": 5.6,
      "classificacao_etaria": "A14",
      "imagem_original": "https://animefire.plus/img/animes/deep-insanity-the-lost-child.webp",
      "imagem_pasta": "https://animefire.plus/img/animes/deep-insanity-the-lost-child/",
      "secao": "dublados,legendados",
      "pagina": 14,
      "total_episodios": 12,
      "link_video": "https://animefire.plus/video/deep-insanity-the-lost-child-dublado"
    },
    {
      "id": 781,
      "nome": "Deji Meets Girl",
      "link": "https://animefire.plus/animes/deji-meets-girl-todos-os-episodios",
      "texto_original": "Deji Meets Girl",
      "rating": 6.17,
      "classificacao_etaria": "A14",
      "imagem_original": "https://animefire.plus/img/animes/deji-meets-girl.webp",
      "imagem_pasta": "https://animefire.plus/img/animes/deji-meets-girl/",
      "secao": "legendados,lancamentos",
      "pagina": 39,
      "total_episodios": 0,
      "link_video": "https://animefire.plus/video/deji-meets-girl"
    },
    {
      "id": 782,
      "nome": "Dekin no Mogura",
      "link": "https://animefire.plus/animes/dekin-no-mogura-todos-os-episodios",
      "texto_original": "Dekin no Mogura",
      "rating": 6.16,
      "classificacao_etaria": "A14",
      "imagem_original": "https://animefire.plus/img/animes/dekin-no-mogura.webp",
      "imagem_pasta": "https://animefire.plus/img/animes/dekin-no-mogura/",
      "secao": "legendados,lancamentos",
      "pagina": 2,
      "total_episodios": 5,
      "link_video": "https://animefire.plus/video/dekin-no-mogura"
    },
    {
      "id": 783,
      "nome": "Dekiru Neko wa Kyou mo Yuuutsu",
      "link": "https://animefire.plus/animes/dekiru-neko-wa-kyou-mo-yuuutsu-todos-os-episodios",
      "texto_original": "Dekiru Neko wa Kyou mo Yuuutsu",
      "rating": 7.64,
      "classificacao_etaria": "A14",
      "imagem_original": "https://animefire.plus/img/animes/dekiru-neko-wa-kyou-mo-yuuutsu.jpg",
      "imagem_pasta": "https://animefire.plus/img/animes/dekiru-neko-wa-kyou-mo-yuuutsu/",
      "secao": "legendados,lancamentos",
      "pagina": 22,
      "total_episodios": 10,
      "link_video": "https://animefire.plus/video/dekiru-neko-wa-kyou-mo-yuuutsu"
    },
    {
      "id": 784,
      "nome": "Dekisokonai to Yobareta Motoeiyuu wa Jikka kara Tsuihou sareta node Sukikatte ni Ikiru Koto ni Shita",
      "link": "https://animefire.plus/animes/dekisokonai-to-yobareta-motoeiyuu-wa-jikka-kara-tsuihou-sareta-node-sukikatte-ni-ikiru-koto-ni-shita-todos-os-episodios",
      "texto_original": "Dekisokonai to Yobareta Motoeiyuu wa Jikka kara Tsuihou sareta node Sukikatte ni Ikiru Koto ni Shita",
      "rating": 5.22,
      "classificacao_etaria": "A14",
      "imagem_original": "https://animefire.plus/img/animes/dekisokonai-to-yobareta-motoeiyuu-wa-jikka-kara-tsuihou-sareta-node-sukikatte-ni-ikiru-koto-ni-shita.webp",
      "imagem_pasta": "https://animefire.plus/img/animes/dekisokonai-to-yobareta-motoeiyuu-wa-jikka-kara-tsuihou-sareta-node-sukikatte-ni-ikiru-koto-ni-shita/",
      "secao": "legendados",
      "pagina": 14,
      "total_episodios": 12,
      "link_video": "https://animefire.plus/video/dekisokonai-to-yobareta-motoeiyuu-wa-jikka-kara-tsuihou-sareta-node-sukikatte-ni-ikiru-koto-ni-shita"
    }
  ],
  "pagination": {
    "current_page": 38,
    "per_page": 20,
    "total_items": 4269,
    "total_pages": 214,
    "has_next": true,
    "has_prev": true
  }
}
