{
  "message": "Animes da seção: legendados",
  "section": "legendados",
  "data": [
    {
      "id": 2869,
      "nome": "Ookami to Koushinryou II (Dublado)",
      "link": "https://animefire.plus/animes/ookami-to-koushinryou-ii-dublado-todos-os-episodios",
      "texto_original": "Ookami to Koushinryou II (Dublado)",
      "rating": 8.34,
      "classificacao_etaria": "A14",
      "imagem_original": "https://animefire.plus/img/animes/ookami-to-koushinryou-ii.webp",
      "imagem_pasta": "https://animefire.plus/img/animes/ookami-to-koushinryou-ii/",
      "secao": "dublados,legendados",
      "pagina": 13,
      "total_episodios": 12,
      "link_video": "https://animefire.plus/video/ookami-to-koushinryou-ii-dublado"
    },
    {
      "id": 2870,
      "nome": "Ookami to Koushinryou: Merchant Meets the Wise Wolf",
      "link": "https://animefire.plus/animes/ookami-to-koushinryou-merchant-meets-the-wise-wolf-todos-os-episodios",
      "texto_original": "Ookami to Koushinryou: Merchant Meets the Wise Wolf",
      "rating": 8.11,
      "classificacao_etaria": "A14",
      "imagem_original": "https://animefire.plus/img/animes/ookami-to-koushinryou-merchant-meets-the-wise-wolf.webp",
      "imagem_pasta": "https://animefire.plus/img/animes/ookami-to-koushinryou-merchant-meets-the-wise-wolf/",
      "secao": "legendados",
      "pagina": 15,
      "total_episodios": 13,
      "link_video": "https://animefire.plus/video/ookami-to-koushinryou-merchant-meets-the-wise-wolf"
    },
    {
      "id": 2871,
      "nome": "Ookami-san to Shichinin no Nakama-tachi",
      "link": "https://animefire.plus/animes/ookami-san-to-shichinin-no-nakama-tachi-todos-os-episodios",
      "texto_original": "Ookami-san to Shichinin no Nakama-tachi",
      "rating": 7.31,
      "classificacao_etaria": "A14",
      "imagem_original": "https://animefire.plus/img/animes/ookami-san-to-shichinin-no-nakama-tachi.webp",
      "imagem_pasta": "https://animefire.plus/img/animes/ookami-san-to-shichinin-no-nakama-tachi/",
      "secao": "legendados",
      "pagina": 149,
      "total_episodios": 0,
      "link_video": "https://animefire.plus/video/ookami-san-to-shichinin-no-nakama-tachi"
    },
    {
      "id": 2872,
      "nome": "Ookamikakushi",
      "link": "https://animefire.plus/animes/ookamikakushi-todos-os-episodios",
      "texto_original": "Ookamikakushi",
      "rating": 6.36,
      "classificacao_etaria": "A14",
      "imagem_original": "https://animefire.plus/img/animes/ookamikakushi.webp",
      "imagem_pasta": "https://animefire.plus/img/animes/ookamikakushi/",
      "secao": "legendados",
      "pagina": 57,
      "total_episodios": 12,
      "link_video": "https://animefire.plus/video/ookamikakushi"
    },
    {
      "id": 2873,
      "nome": "Ookiku Furikabutte",
      "link": "https://animefire.plus/animes/ookiku-furikabutte-todos-os-episodios",
      "texto_original": "Ookiku Furikabutte",
      "rating": 8.03,
      "classificacao_etaria": "A14",
      "imagem_original": "https://animefire.plus/img/animes/ookiku-furikabutte.webp",
      "imagem_pasta": "https://animefire.plus/img/animes/ookiku-furikabutte/",
      "secao": "legendados",
      "pagina": 117,
      "total_episodios": 25,
      "link_video": "https://animefire.plus/video/ookiku-furikabutte"
    },
    {
      "id": 2874,
      "nome": "Ookiku Furikabutte: Natsu no Taikai-hen",
      "link": "https://animefire.plus/animes/ookiku-furikabutte-natsu-no-taikai-hen-todos-os-episodios",
      "texto_original": "Ookiku Furikabutte: Natsu no Taikai-hen",
      "rating": 8.1,
      "classificacao_etaria": "A14",
      "imagem_original": "https://animefire.plus/img/animes/ookiku-furikabutte-natsu-no-taikai-hen.webp",
      "imagem_pasta": "https://animefire.plus/img/animes/ookiku-furikabutte-natsu-no-taikai-hen/",
      "secao": "legendados",
      "pagina": 157,
      "total_episodios": 13,
      "link_video": "https://animefire.plus/video/ookiku-furikabutte-natsu-no-taikai-hen"
    },
    {
      "id": 2875,
      "nome": "Ookiku Furikabutte: Natsu no Taikai-hen – Mokuhyou",
      "link": "https://animefire.plus/animes/ookiku-furikabutte-natsu-no-taikai-hen-mokuhyou-todos-os-episodios",
      "texto_original": "Ookiku Furikabutte: Natsu no Taikai-hen – Mokuhyou",
      "rating": 7.44,
      "classificacao_etaria": null,
      "imagem_original": "https://animefire.plus/img/animes/ookiku-furikabutte-natsu-no-taikai-hen-mokuhyou.webp",
      "imagem_pasta": "https://animefire.plus/img/animes/ookiku-furikabutte-natsu-no-taikai-hen-mokuhyou/",
      "secao": "legendados",
      "pagina": 89,
      "total_episodios": 1,
      "link_video": "https://animefire.plus/video/ookiku-furikabutte-natsu-no-taikai-hen-mokuhyou"
    },
    {
      "id": 2876,
      "nome": "Ooyukiumi no Kaina",
      "link": "https://animefire.plus/animes/ooyukiumi-no-kaina-todos-os-episodios",
      "texto_original": "Ooyukiumi no Kaina",
      "rating": 6.68,
      "classificacao_etaria": "A14",
      "imagem_original": "https://animefire.plus/img/animes/ooyukiumi-no-kaina.webp",
      "imagem_pasta": "https://animefire.plus/img/animes/ooyukiumi-no-kaina/",
      "secao": "legendados",
      "pagina": 27,
      "total_episodios": 11,
      "link_video": "https://animefire.plus/video/ooyukiumi-no-kaina"
    },
    {
      "id": 2877,
      "nome": "Opus.COLORs",
      "link": "https://animefire.plus/animes/opus-colors-todos-os-episodios",
      "texto_original": "Opus.COLORs",
      "rating": 5.75,
      "classificacao_etaria": "A14",
      "imagem_original": "https://animefire.plus/img/animes/opus-colors.jpg",
      "imagem_pasta": "https://animefire.plus/img/animes/opus-colors/",
      "secao": "legendados",
      "pagina": 24,
      "total_episodios": 12,
      "link_video": "https://animefire.plus/video/opus-colors"
    },
    {
      "id": 2878,
      "nome": "Orange (Dublado)",
      "link": "https://animefire.plus/animes/orange-dublado-todos-os-episodios",
      "texto_original": "Orange (Dublado)",
      "rating": 7.66,
      "classificacao_etaria": "A14",
      "imagem_original": "https://animefire.plus/img/animes/orange.webp",
      "imagem_pasta": "https://animefire.plus/img/animes/orange/",
      "secao": "dublados,legendados",
      "pagina": 25,
      "total_episodios": 13,
      "link_video": "https://animefire.plus/video/orange-dublado"
    },
    {
      "id": 2879,
      "nome": "Ore dake Haireru Kakushi Dungeon (Dublado)",
      "link": "https://animefire.plus/animes/ore-dake-haireru-kakushi-dungeon-dublado-todos-os-episodios",
      "texto_original": "Ore dake Haireru Kakushi Dungeon (Dublado)",
      "rating": 6.28,
      "classificacao_etaria": "A14",
      "imagem_original": "https://animefire.plus/img/animes/ore-dake-haireru-kakushi-dungeon.webp",
      "imagem_pasta": "https://animefire.plus/img/animes/ore-dake-haireru-kakushi-dungeon/",
      "secao": "dublados,legendados",
      "pagina": 18,
      "total_episodios": 12,
      "link_video": "https://animefire.plus/video/ore-dake-haireru-kakushi-dungeon-dublado"
    },
    {
      "id": 2880,
      "nome": "Ore dake Level Up na Ken (Dublado)",
      "link": "https://animefire.plus/animes/ore-dake-level-up-na-ken-dublado-todos-os-episodios",
      "texto_original": "Ore dake Level Up na Ken (Dublado)",
      "rating": 8.24,
      "classificacao_etaria": "A16",
      "imagem_original": "https://animefire.plus/img/animes/ore-dake-level-up-na-ken.webp",
      "imagem_pasta": "https://animefire.plus/img/animes/ore-dake-level-up-na-ken/",
      "secao": "dublados,legendados",
      "pagina": 4,
      "total_episodios": 12,
      "link_video": "https://animefire.plus/video/ore-dake-level-up-na-ken-dublado"
    },
    {
      "id": 2881,
      "nome": "Ore dake Level Up na Ken Season 2: Arise from the Shadow (Dublado)",
      "link": "https://animefire.plus/animes/ore-dake-level-up-na-ken-season-2-arise-from-the-shadow-dublado-todos-os-episodios",
      "texto_original": "Ore dake Level Up na Ken Season 2: Arise from the Shadow (Dublado)",
      "rating": 8.68,
      "classificacao_etaria": "A16",
      "imagem_original": "https://animefire.plus/img/animes/ore-dake-level-up-na-ken-season-2-arise-from-the-shadow.webp",
      "imagem_pasta": "https://animefire.plus/img/animes/ore-dake-level-up-na-ken-season-2-arise-from-the-shadow/",
      "secao": "dublados,legendados",
      "pagina": 1,
      "total_episodios": 13,
      "link_video": "https://animefire.plus/video/ore-dake-level-up-na-ken-season-2-arise-from-the-shadow-dublado"
    },
    {
      "id": 2882,
      "nome": "Ore ga Ojousama Gakkou ni \"Shomin Sample\" Toshite Gets♥Sareta Ken",
      "link": "https://animefire.plus/animes/ore-ga-ojousama-gakkou-ni-shomin-sample-toshite-gets-sareta-ken-todos-os-episodios",
      "texto_original": "Ore ga Ojousama Gakkou ni \"Shomin Sample\" Toshite Gets♥Sareta Ken",
      "rating": 6.99,
      "classificacao_etaria": "A14",
      "imagem_original": "https://animefire.plus/img/animes/ore-ga-ojousama-gakkou-ni-shomin-sample-toshite-gets-sareta-ken.webp",
      "imagem_pasta": "https://animefire.plus/img/animes/ore-ga-ojousama-gakkou-ni-shomin-sample-toshite-gets-sareta-ken/",
      "secao": "legendados",
      "pagina": 135,
      "total_episodios": 12,
      "link_video": "https://animefire.plus/video/ore-ga-ojousama-gakkou-ni-shomin-sample-toshite-gets-sareta-ken"
    },
    {
      "id": 2883,
      "nome": "Ore ga Suki nano wa Imouto dakedo Imouto ja Nai",
      "link": "https://animefire.plus/animes/ore-ga-suki-nano-wa-imouto-dakedo-imouto-ja-nai-todos-os-episodios",
      "texto_original": "Ore ga Suki nano wa Imouto dakedo Imouto ja Nai",
      "rating": 5.11,
      "classificacao_etaria": "A18",
      "imagem_original": "https://animefire.plus/img/animes/ore-ga-suki-nano-wa-imouto-dakedo-imouto-ja-nai.webp",
      "imagem_pasta": "https://animefire.plus/img/animes/ore-ga-suki-nano-wa-imouto-dakedo-imouto-ja-nai/",
      "secao": "legendados",
      "pagina": 97,
      "total_episodios": 10,
      "link_video": "https://animefire.plus/video/ore-ga-suki-nano-wa-imouto-dakedo-imouto-ja-nai"
    },
    {
      "id": 2884,
      "nome": "Ore Monogatari!!",
      "link": "https://animefire.plus/animes/ore-monogatari-todos-os-episodios",
      "texto_original": "Ore Monogatari!!",
      "rating": 8.04,
      "classificacao_etaria": "A14",
      "imagem_original": "https://animefire.plus/img/animes/ore-monogatari.webp",
      "imagem_pasta": "https://animefire.plus/img/animes/ore-monogatari/",
      "secao": "legendados",
      "pagina": 103,
      "total_episodios": 24,
      "link_video": "https://animefire.plus/video/ore-monogatari"
    },
    {
      "id": 2885,
      "nome": "Ore no Imouto ga Konnani Kawaii Wake ga Nai",
      "link": "https://animefire.plus/animes/ore-no-imouto-ga-konnani-kawaii-wake-ga-nai-todos-os-episodios",
      "texto_original": "Ore no Imouto ga Konnani Kawaii Wake ga Nai",
      "rating": 7.27,
      "classificacao_etaria": "A14",
      "imagem_original": "https://animefire.plus/img/animes/ore-no-imouto-ga-konnani-kawaii-wake-ga-nai.webp",
      "imagem_pasta": "https://animefire.plus/img/animes/ore-no-imouto-ga-konnani-kawaii-wake-ga-nai/",
      "secao": "legendados",
      "pagina": 154,
      "total_episodios": 12,
      "link_video": "https://animefire.plus/video/ore-no-imouto-ga-konnani-kawaii-wake-ga-nai"
    },
    {
      "id": 2886,
      "nome": "Ore no Imouto ga Konnani Kawaii Wake ga Nai.",
      "link": "https://animefire.plus/animes/oreimo-2-todos-os-episodios",
      "texto_original": "Ore no Imouto ga Konnani Kawaii Wake ga Nai.",
      "rating": 7.14,
      "classificacao_etaria": "A14",
      "imagem_original": "https://animefire.plus/img/animes/oreimo-2.webp",
      "imagem_pasta": "https://animefire.plus/img/animes/oreimo-2/",
      "secao": "legendados",
      "pagina": 59,
      "total_episodios": 0,
      "link_video": "https://animefire.plus/video/oreimo-2"
    },
    {
      "id": 2887,
      "nome": "Ore no Kanojo to Osananajimi ga Shuraba Sugiru",
      "link": "https://animefire.plus/animes/ore-no-kanojo-to-osananajimi-ga-shuraba-sugiru-todos-os-episodios",
      "texto_original": "Ore no Kanojo to Osananajimi ga Shuraba Sugiru",
      "rating": 7.23,
      "classificacao_etaria": "A14",
      "imagem_original": "https://animefire.plus/img/animes/ore-no-kanojo-to-osananajimi-ga-shuraba-sugiru.webp",
      "imagem_pasta": "https://animefire.plus/img/animes/ore-no-kanojo-to-osananajimi-ga-shuraba-sugiru/",
      "secao": "legendados",
      "pagina": 164,
      "total_episodios": 13,
      "link_video": "https://animefire.plus/video/ore-no-kanojo-to-osananajimi-ga-shuraba-sugiru"
    },
    {
      "id": 2888,
      "nome": "Ore no Nounai Sentakushi ga, Gakuen Love Comedy wo Zenryoku de Jama Shiteiru",
      "link": "https://animefire.plus/animes/ore-no-nounai-sentakushi-ga-gakuen-love-comedy-wo-zenryoku-de-jama-shiteiru-todos-os-episodios",
      "texto_original": "Ore no Nounai Sentakushi ga, Gakuen Love Comedy wo Zenryoku de Jama Shiteiru",
      "rating": 7.4,
      "classificacao_etaria": "A14",
      "imagem_original": "https://animefire.plus/img/animes/ore-no-nounai-sentakushi-ga-gakuen-love-comedy-wo-zenryoku-de-jama-shiteiru.webp",
      "imagem_pasta": "https://animefire.plus/img/animes/ore-no-nounai-sentakushi-ga-gakuen-love-comedy-wo-zenryoku-de-jama-shiteiru/",
      "secao": "legendados",
      "pagina": 135,
      "total_episodios": 4,
      "link_video": "https://animefire.plus/video/ore-no-nounai-sentakushi-ga-gakuen-love-comedy-wo-zenryoku-de-jama-shiteiru"
    }
  ],
  "pagination": {
    "current_page": 141,
    "per_page": 20,
    "total_items": 4269,
    "total_pages": 214,
    "has_next": true,
    "has_prev": true
  }
}
