{
  "message": "Animes da seção: legendados",
  "section": "legendados",
  "data": [
    {
      "id": 4320,
      "nome": "Yuusha ga Shinda!",
      "link": "https://animefire.plus/animes/yuusha-ga-shinda-todos-os-episodios",
      "texto_original": "Yuusha ga Shinda!",
      "rating": 6.6,
      "classificacao_etaria": "A14",
      "imagem_original": "https://animefire.plus/img/animes/yuusha-ga-shinda.jpg",
      "imagem_pasta": "https://animefire.plus/img/animes/yuusha-ga-shinda/",
      "secao": "legendados",
      "pagina": 24,
      "total_episodios": 12,
      "link_video": "https://animefire.plus/video/yuusha-ga-shinda"
    },
    {
      "id": 4321,
      "nome": "Yuusha ni Narenakatta Ore wa Shibushibu Shuushoku wo Ketsui Shimashita.",
      "link": "https://animefire.plus/animes/yuusha-ni-narenakatta-ore-wa-shibushibu-shuushoku-wo-ketsui-shimashita-todos-os-episodios",
      "texto_original": "Yuusha ni Narenakatta Ore wa Shibushibu Shuushoku wo Ketsui Shimashita.",
      "rating": 7.01,
      "classificacao_etaria": "A18",
      "imagem_original": "https://animefire.plus/img/animes/yuusha-ni-narenakatta-ore-wa-shibushibu-shuushoku-wo-ketsui-shimashita.webp",
      "imagem_pasta": "https://animefire.plus/img/animes/yuusha-ni-narenakatta-ore-wa-shibushibu-shuushoku-wo-ketsui-shimashita/",
      "secao": "legendados",
      "pagina": 141,
      "total_episodios": 4,
      "link_video": "https://animefire.plus/video/yuusha-ni-narenakatta-ore-wa-shibushibu-shuushoku-wo-ketsui-shimashita"
    },
    {
      "id": 4322,
      "nome": "Yuusha Party wo Tsuihou sareta Beast Tamer, Saikyoushu no Nekomimi Shoujo to Deau (Dublado)",
      "link": "https://animefire.plus/animes/yuusha-party-wo-tsuihou-sareta-beast-tamer-saikyoushu-no-nekomimi-shoujo-to-deau-dublado-todos-os-episodios",
      "texto_original": "Yuusha Party wo Tsuihou sareta Beast Tamer, Saikyoushu no Nekomimi Shoujo to Deau (Dublado)",
      "rating": 6.91,
      "classificacao_etaria": "A14",
      "imagem_original": "https://animefire.plus/img/animes/yuusha-party-wo-tsuihou-sareta-beast-tamer-saikyoushu-no-nekomimi-shoujo-to-deau.webp",
      "imagem_pasta": "https://animefire.plus/img/animes/yuusha-party-wo-tsuihou-sareta-beast-tamer-saikyoushu-no-nekomimi-shoujo-to-deau/",
      "secao": "dublados,legendados,lancamentos",
      "pagina": 9,
      "total_episodios": 13,
      "link_video": "https://animefire.plus/video/yuusha-party-wo-tsuihou-sareta-beast-tamer-saikyoushu-no-nekomimi-shoujo-to-deau-dublado"
    },
    {
      "id": 4323,
      "nome": "Yuusha Party wo Tsuihou sareta Shiromadoushi, S-Rank Boukensha ni Hirowareru: Kono Shiromadoushi ga Kikakugai Sugiru",
      "link": "https://animefire.plus/animes/yuusha-party-wo-tsuihou-sareta-shiromadoushi-s-rank-boukensha-ni-hirowareru-kono-shiromadoushi-ga-kikakugai-sugiru-todos-os-episodios",
      "texto_original": "Yuusha Party wo Tsuihou sareta Shiromadoushi, S-Rank Boukensha ni Hirowareru: Kono Shiromadoushi ga Kikakugai Sugiru",
      "rating": 6.47,
      "classificacao_etaria": "A14",
      "imagem_original": "https://animefire.plus/img/animes/yuusha-party-wo-tsuihou-sareta-shiromadoushi-s-rank-boukensha-ni-hirowareru-kono-shiromadoushi-ga-kikakugai-sugiru.webp",
      "imagem_pasta": "https://animefire.plus/img/animes/yuusha-party-wo-tsuihou-sareta-shiromadoushi-s-rank-boukensha-ni-hirowareru-kono-shiromadoushi-ga-kikakugai-sugiru/",
      "secao": "legendados,lancamentos",
      "pagina": 2,
      "total_episodios": 5,
      "link_video": "https://animefire.plus/video/yuusha-party-wo-tsuihou-sareta-shiromadoushi-s-rank-boukensha-ni-hirowareru-kono-shiromadoushi-ga-kikakugai-sugiru"
    },
    {
      "id": 4324,
      "nome": "Yuusha, Yamemasu",
      "link": "https://animefire.plus/animes/yuusha-yamemasu-todos-os-episodios",
      "texto_original": "Yuusha, Yamemasu",
      "rating": 7,
      "classificacao_etaria": "A14",
      "imagem_original": "https://animefire.plus/img/animes/yuusha-yamemasu.webp",
      "imagem_pasta": "https://animefire.plus/img/animes/yuusha-yamemasu/",
      "secao": "legendados",
      "pagina": 34,
      "total_episodios": 12,
      "link_video": "https://animefire.plus/video/yuusha-yamemasu"
    },
    {
      "id": 4325,
      "nome": "Yuusha, Yamemasu: Kenshuu Ryokou wa Mokuteki wo Miushinau na",
      "link": "https://animefire.plus/animes/yuusha-yamemasu-kenshuu-ryokou-wa-mokuteki-wo-miushinau-na-todos-os-episodios",
      "texto_original": "Yuusha, Yamemasu: Kenshuu Ryokou wa Mokuteki wo Miushinau na",
      "rating": 6.55,
      "classificacao_etaria": "A14",
      "imagem_original": "https://animefire.plus/img/animes/yuusha-yamemasu-kenshuu-ryokou-wa-mokuteki-wo-miushinau-na.webp",
      "imagem_pasta": "https://animefire.plus/img/animes/yuusha-yamemasu-kenshuu-ryokou-wa-mokuteki-wo-miushinau-na/",
      "secao": "legendados",
      "pagina": 32,
      "total_episodios": 2,
      "link_video": "https://animefire.plus/video/yuusha-yamemasu-kenshuu-ryokou-wa-mokuteki-wo-miushinau-na"
    },
    {
      "id": 4326,
      "nome": "Yuyushiki",
      "link": "https://animefire.plus/animes/yuyushiki-todos-os-episodios",
      "texto_original": "Yuyushiki",
      "rating": 7.43,
      "classificacao_etaria": "A14",
      "imagem_original": "https://animefire.plus/img/animes/yuyushiki.webp",
      "imagem_pasta": "https://animefire.plus/img/animes/yuyushiki/",
      "secao": "legendados",
      "pagina": 178,
      "total_episodios": 3,
      "link_video": "https://animefire.plus/video/yuyushiki"
    },
    {
      "id": 4327,
      "nome": "Yuyushiki: Komarasetari, Komarasaretari",
      "link": "https://animefire.plus/animes/yuyushiki-komarasetari-komarasaretari-todos-os-episodios",
      "texto_original": "Yuyushiki: Komarasetari, Komarasaretari",
      "rating": 7.36,
      "classificacao_etaria": "A14",
      "imagem_original": "https://animefire.plus/img/animes/yuyushiki-komarasetari-komarasaretari.webp",
      "imagem_pasta": "https://animefire.plus/img/animes/yuyushiki-komarasetari-komarasaretari/",
      "secao": "legendados",
      "pagina": 89,
      "total_episodios": 1,
      "link_video": "https://animefire.plus/video/yuyushiki-komarasetari-komarasaretari"
    },
    {
      "id": 4328,
      "nome": "Yuyushiki: Nyanyashiki",
      "link": "https://animefire.plus/animes/yuyushiki-nyanyashiki-todos-os-episodios",
      "texto_original": "Yuyushiki: Nyanyashiki",
      "rating": 6.3,
      "classificacao_etaria": "A14",
      "imagem_original": "https://animefire.plus/img/animes/yuyushiki-nyanyashiki.webp",
      "imagem_pasta": "https://animefire.plus/img/animes/yuyushiki-nyanyashiki/",
      "secao": "legendados",
      "pagina": 85,
      "total_episodios": 1,
      "link_video": "https://animefire.plus/video/yuyushiki-nyanyashiki"
    },
    {
      "id": 4329,
      "nome": "Yuzuki-san Chi no Yonkyoudai.",
      "link": "https://animefire.plus/animes/yuzuki-san-chi-no-yonkyoudai-todos-os-episodios",
      "texto_original": "Yuzuki-san Chi no Yonkyoudai.",
      "rating": 7.87,
      "classificacao_etaria": "A14",
      "imagem_original": "https://animefire.plus/img/animes/yuzuki-san-chi-no-yonkyoudai.webp",
      "imagem_pasta": "https://animefire.plus/img/animes/yuzuki-san-chi-no-yonkyoudai/",
      "secao": "legendados",
      "pagina": 20,
      "total_episodios": 12,
      "link_video": "https://animefire.plus/video/yuzuki-san-chi-no-yonkyoudai"
    },
    {
      "id": 4330,
      "nome": "Z/X: Code Reunion",
      "link": "https://animefire.plus/animes/z-x-code-reunion-todos-os-episodios",
      "texto_original": "Z/X: Code Reunion",
      "rating": 5.68,
      "classificacao_etaria": "A14",
      "imagem_original": "https://animefire.plus/img/animes/z-x-code-reunion.webp",
      "imagem_pasta": "https://animefire.plus/img/animes/z-x-code-reunion/",
      "secao": "legendados",
      "pagina": 89,
      "total_episodios": 0,
      "link_video": "https://animefire.plus/video/z-x-code-reunion"
    },
    {
      "id": 4331,
      "nome": "Zan Sayonara Zetsubou Sensei",
      "link": "https://animefire.plus/animes/zan-sayonara-zetsubou-sensei-todos-os-episodios",
      "texto_original": "Zan Sayonara Zetsubou Sensei",
      "rating": 7.95,
      "classificacao_etaria": "A16",
      "imagem_original": "https://animefire.plus/img/animes/zan-sayonara-zetsubou-sensei.webp",
      "imagem_pasta": "https://animefire.plus/img/animes/zan-sayonara-zetsubou-sensei/",
      "secao": "legendados",
      "pagina": 163,
      "total_episodios": 1,
      "link_video": "https://animefire.plus/video/zan-sayonara-zetsubou-sensei"
    },
    {
      "id": 4332,
      "nome": "Zan Sayonara Zetsubou Sensei Bangaichi",
      "link": "https://animefire.plus/animes/zan-sayonara-zetsubou-sensei-bangaichi-todos-os-episodios",
      "texto_original": "Zan Sayonara Zetsubou Sensei Bangaichi",
      "rating": 7.83,
      "classificacao_etaria": "A16",
      "imagem_original": "https://animefire.plus/img/animes/zan-sayonara-zetsubou-sensei-bangaichi.webp",
      "imagem_pasta": "https://animefire.plus/img/animes/zan-sayonara-zetsubou-sensei-bangaichi/",
      "secao": "legendados",
      "pagina": 85,
      "total_episodios": 2,
      "link_video": "https://animefire.plus/video/zan-sayonara-zetsubou-sensei-bangaichi"
    },
    {
      "id": 4333,
      "nome": "Zankyou no Terror",
      "link": "https://animefire.plus/animes/zankyou-no-terror-todos-os-episodios",
      "texto_original": "Zankyou no Terror",
      "rating": 8.18,
      "classificacao_etaria": "A16",
      "imagem_original": "https://animefire.plus/img/animes/zankyou-no-terror.webp",
      "imagem_pasta": "https://animefire.plus/img/animes/zankyou-no-terror/",
      "secao": "legendados",
      "pagina": 149,
      "total_episodios": 2,
      "link_video": "https://animefire.plus/video/zankyou-no-terror"
    },
    {
      "id": 4334,
      "nome": "Zanting! Rang Wo Cha Gonglue",
      "link": "https://animefire.plus/animes/zanting-rang-wo-cha-gonglue-todos-os-episodios",
      "texto_original": "Zanting! Rang Wo Cha Gonglue",
      "rating": 6.41,
      "classificacao_etaria": "A14",
      "imagem_original": "https://animefire.plus/img/animes/zanting-rang-wo-cha-gonglue.webp",
      "imagem_pasta": "https://animefire.plus/img/animes/zanting-rang-wo-cha-gonglue/",
      "secao": "legendados,lancamentos",
      "pagina": 19,
      "total_episodios": 6,
      "link_video": "https://animefire.plus/video/zanting-rang-wo-cha-gonglue"
    },
    {
      "id": 4335,
      "nome": "Zashiki Warashi no Tatami-chan",
      "link": "https://animefire.plus/animes/zashiki-warashi-no-tatami-chan-todos-os-episodios",
      "texto_original": "Zashiki Warashi no Tatami-chan",
      "rating": 5.23,
      "classificacao_etaria": "A14",
      "imagem_original": "https://animefire.plus/img/animes/zashiki-warashi-no-tatami-chan.webp",
      "imagem_pasta": "https://animefire.plus/img/animes/zashiki-warashi-no-tatami-chan/",
      "secao": "legendados",
      "pagina": 80,
      "total_episodios": 0,
      "link_video": "https://animefire.plus/video/zashiki-warashi-no-tatami-chan"
    },
    {
      "id": 4336,
      "nome": "Zatsu Tabi: That's Journey",
      "link": "https://animefire.plus/animes/zatsu-tabi-that-s-journey-todos-os-episodios",
      "texto_original": "Zatsu Tabi: That's Journey",
      "rating": 6.93,
      "classificacao_etaria": "A14",
      "imagem_original": "https://animefire.plus/img/animes/zatsu-tabi-that-s-journey.webp",
      "imagem_pasta": "https://animefire.plus/img/animes/zatsu-tabi-that-s-journey/",
      "secao": "legendados",
      "pagina": 5,
      "total_episodios": 12,
      "link_video": "https://animefire.plus/video/zatsu-tabi-that-s-journey"
    },
    {
      "id": 4337,
      "nome": "Ze Tian Ji",
      "link": "https://animefire.plus/animes/ze-tian-ji-todos-os-episodios",
      "texto_original": "Ze Tian Ji",
      "rating": 6.96,
      "classificacao_etaria": "A14",
      "imagem_original": "https://animefire.plus/img/animes/ze-tian-ji.webp",
      "imagem_pasta": "https://animefire.plus/img/animes/ze-tian-ji/",
      "secao": "legendados",
      "pagina": 142,
      "total_episodios": 13,
      "link_video": "https://animefire.plus/video/ze-tian-ji"
    },
    {
      "id": 4338,
      "nome": "Ze Tian Ji 2nd Season",
      "link": "https://animefire.plus/animes/ze-tian-ji-2nd-season-todos-os-episodios",
      "texto_original": "Ze Tian Ji 2nd Season",
      "rating": 7.09,
      "classificacao_etaria": "A14",
      "imagem_original": "https://animefire.plus/img/animes/ze-tian-ji-2nd-season.webp",
      "imagem_pasta": "https://animefire.plus/img/animes/ze-tian-ji-2nd-season/",
      "secao": "legendados",
      "pagina": 158,
      "total_episodios": 12,
      "link_video": "https://animefire.plus/video/ze-tian-ji-2nd-season"
    },
    {
      "id": 4339,
      "nome": "Ze Tian Ji 3rd Season",
      "link": "https://animefire.plus/animes/ze-tian-ji-3rd-season-todos-os-episodios",
      "texto_original": "Ze Tian Ji 3rd Season",
      "rating": 6.86,
      "classificacao_etaria": "A14",
      "imagem_original": "https://animefire.plus/img/animes/ze-tian-ji-3rd-season.webp",
      "imagem_pasta": "https://animefire.plus/img/animes/ze-tian-ji-3rd-season/",
      "secao": "legendados",
      "pagina": 118,
      "total_episodios": 12,
      "link_video": "https://animefire.plus/video/ze-tian-ji-3rd-season"
    }
  ],
  "pagination": {
    "current_page": 212,
    "per_page": 20,
    "total_items": 4269,
    "total_pages": 214,
    "has_next": true,
    "has_prev": true
  }
}
