{
  "message": "Animes da seção: legendados",
  "section": "legendados",
  "data": [
    {
      "id": 2949,
      "nome": "Paniponi Dash!",
      "link": "https://animefire.plus/animes/paniponi-dash-todos-os-episodios",
      "texto_original": "Paniponi Dash!",
      "rating": 7.47,
      "classificacao_etaria": "A14",
      "imagem_original": "https://animefire.plus/img/animes/paniponi-dash.webp",
      "imagem_pasta": "https://animefire.plus/img/animes/paniponi-dash/",
      "secao": "legendados",
      "pagina": 56,
      "total_episodios": 26,
      "link_video": "https://animefire.plus/video/paniponi-dash"
    },
    {
      "id": 2950,
      "nome": "Panty & Stocking with Garterbelt",
      "link": "https://animefire.plus/animes/panty-stocking-with-garterbelt-todos-os-episodios",
      "texto_original": "Panty & Stocking with Garterbelt",
      "rating": 7.77,
      "classificacao_etaria": "A16",
      "imagem_original": "https://animefire.plus/img/animes/panty-stocking-with-garterbelt.webp",
      "imagem_pasta": "https://animefire.plus/img/animes/panty-stocking-with-garterbelt/",
      "secao": "legendados",
      "pagina": 161,
      "total_episodios": 13,
      "link_video": "https://animefire.plus/video/panty-stocking-with-garterbelt"
    },
    {
      "id": 2951,
      "nome": "Papa no Iukoto wo Kikinasai!",
      "link": "https://animefire.plus/animes/papa-no-iukoto-wo-kikinasai-todos-os-episodios",
      "texto_original": "Papa no Iukoto wo Kikinasai!",
      "rating": 7.42,
      "classificacao_etaria": "A14",
      "imagem_original": "https://animefire.plus/img/animes/papa-no-iukoto-wo-kikinasai.webp",
      "imagem_pasta": "https://animefire.plus/img/animes/papa-no-iukoto-wo-kikinasai/",
      "secao": "legendados",
      "pagina": 132,
      "total_episodios": 3,
      "link_video": "https://animefire.plus/video/papa-no-iukoto-wo-kikinasai"
    },
    {
      "id": 2952,
      "nome": "Paradise Kiss",
      "link": "https://animefire.plus/animes/paradise-kiss-todos-os-episodios",
      "texto_original": "Paradise Kiss",
      "rating": 7.88,
      "classificacao_etaria": "A16",
      "imagem_original": "https://animefire.plus/img/animes/paradise-kiss.webp",
      "imagem_pasta": "https://animefire.plus/img/animes/paradise-kiss/",
      "secao": "legendados",
      "pagina": 149,
      "total_episodios": 12,
      "link_video": "https://animefire.plus/video/paradise-kiss"
    },
    {
      "id": 2953,
      "nome": "Paradox Live the Animation",
      "link": "https://animefire.plus/animes/paradox-live-the-animation-todos-os-episodios",
      "texto_original": "Paradox Live the Animation",
      "rating": 6.86,
      "classificacao_etaria": "A14",
      "imagem_original": "https://animefire.plus/img/animes/paradox-live-the-animation.webp",
      "imagem_pasta": "https://animefire.plus/img/animes/paradox-live-the-animation/",
      "secao": "legendados",
      "pagina": 19,
      "total_episodios": 12,
      "link_video": "https://animefire.plus/video/paradox-live-the-animation"
    },
    {
      "id": 2954,
      "nome": "Paripi Koumei",
      "link": "https://animefire.plus/animes/paripi-koumei-todos-os-episodios",
      "texto_original": "Paripi Koumei",
      "rating": 8.11,
      "classificacao_etaria": "A14",
      "imagem_original": "https://animefire.plus/img/animes/paripi-koumei.webp",
      "imagem_pasta": "https://animefire.plus/img/animes/paripi-koumei/",
      "secao": "legendados",
      "pagina": 34,
      "total_episodios": 12,
      "link_video": "https://animefire.plus/video/paripi-koumei"
    },
    {
      "id": 2955,
      "nome": "Party kara Tsuihou sareta Sono Chiyushi, Jitsu wa Saikyou ni Tsuki (Dublado)",
      "link": "https://animefire.plus/animes/party-kara-tsuihou-sareta-sono-chiyushi-jitsu-wa-saikyou-ni-tsuki-dublado-todos-os-episodios",
      "texto_original": "Party kara Tsuihou sareta Sono Chiyushi, Jitsu wa Saikyou ni Tsuki (Dublado)",
      "rating": 5.7,
      "classificacao_etaria": "A14",
      "imagem_original": "https://animefire.plus/img/animes/party-kara-tsuihou-sareta-sono-chiyushi-jitsu-wa-saikyou-ni-tsuki.webp",
      "imagem_pasta": "https://animefire.plus/img/animes/party-kara-tsuihou-sareta-sono-chiyushi-jitsu-wa-saikyou-ni-tsuki/",
      "secao": "dublados,legendados,lancamentos",
      "pagina": 2,
      "total_episodios": 12,
      "link_video": "https://animefire.plus/video/party-kara-tsuihou-sareta-sono-chiyushi-jitsu-wa-saikyou-ni-tsuki-dublado"
    },
    {
      "id": 2956,
      "nome": "Pastel Life",
      "link": "https://animefire.plus/animes/pastel-life-todos-os-episodios",
      "texto_original": "Pastel Life",
      "rating": 6.62,
      "classificacao_etaria": "A14",
      "imagem_original": "https://animefire.plus/img/animes/pastel-life.webp",
      "imagem_pasta": "https://animefire.plus/img/animes/pastel-life/",
      "secao": "legendados",
      "pagina": 67,
      "total_episodios": 6,
      "link_video": "https://animefire.plus/video/pastel-life"
    },
    {
      "id": 2957,
      "nome": "Pastel Memories",
      "link": "https://animefire.plus/animes/pastel-memories-todos-os-episodios",
      "texto_original": "Pastel Memories",
      "rating": 5.12,
      "classificacao_etaria": "A14",
      "imagem_original": "https://animefire.plus/img/animes/pastel-memories.webp",
      "imagem_pasta": "https://animefire.plus/img/animes/pastel-memories/",
      "secao": "legendados",
      "pagina": 107,
      "total_episodios": 12,
      "link_video": "https://animefire.plus/video/pastel-memories"
    },
    {
      "id": 2958,
      "nome": "Patalliro Saiyuuki!",
      "link": "https://animefire.plus/animes/patalliro-saiyuuki-todos-os-episodios",
      "texto_original": "Patalliro Saiyuuki!",
      "rating": 6.58,
      "classificacao_etaria": "A14",
      "imagem_original": "https://animefire.plus/img/animes/patalliro-saiyuuki.webp",
      "imagem_pasta": "https://animefire.plus/img/animes/patalliro-saiyuuki/",
      "secao": "legendados",
      "pagina": 44,
      "total_episodios": 9,
      "link_video": "https://animefire.plus/video/patalliro-saiyuuki"
    },
    {
      "id": 2959,
      "nome": "Patalliro!",
      "link": "https://animefire.plus/animes/patalliro-todos-os-episodios",
      "texto_original": "Patalliro!",
      "rating": 7.24,
      "classificacao_etaria": "A14",
      "imagem_original": "https://animefire.plus/img/animes/patalliro.webp",
      "imagem_pasta": "https://animefire.plus/img/animes/patalliro/",
      "secao": "legendados",
      "pagina": 43,
      "total_episodios": 35,
      "link_video": "https://animefire.plus/video/patalliro"
    },
    {
      "id": 2960,
      "nome": "Peace Maker Kurogane",
      "link": "https://animefire.plus/animes/peace-maker-kurogane-todos-os-episodios",
      "texto_original": "Peace Maker Kurogane",
      "rating": 7.39,
      "classificacao_etaria": "A16",
      "imagem_original": "https://animefire.plus/img/animes/peace-maker-kurogane.webp",
      "imagem_pasta": "https://animefire.plus/img/animes/peace-maker-kurogane/",
      "secao": "legendados",
      "pagina": 163,
      "total_episodios": 24,
      "link_video": "https://animefire.plus/video/peace-maker-kurogane"
    },
    {
      "id": 2961,
      "nome": "Peach Boy Riverside",
      "link": "https://animefire.plus/animes/peach-boy-riverside-todos-os-episodios",
      "texto_original": "Peach Boy Riverside",
      "rating": 6.24,
      "classificacao_etaria": "A16",
      "imagem_original": "https://animefire.plus/img/animes/peach-boy-riverside.webp",
      "imagem_pasta": "https://animefire.plus/img/animes/peach-boy-riverside/",
      "secao": "legendados",
      "pagina": 41,
      "total_episodios": 12,
      "link_video": "https://animefire.plus/video/peach-boy-riverside"
    },
    {
      "id": 2962,
      "nome": "Peach Girl",
      "link": "https://animefire.plus/animes/peach-girl-todos-os-episodios",
      "texto_original": "Peach Girl",
      "rating": 7.11,
      "classificacao_etaria": "A14",
      "imagem_original": "https://animefire.plus/img/animes/peach-girl.webp",
      "imagem_pasta": "https://animefire.plus/img/animes/peach-girl/",
      "secao": "legendados",
      "pagina": 165,
      "total_episodios": 25,
      "link_video": "https://animefire.plus/video/peach-girl"
    },
    {
      "id": 2963,
      "nome": "Peeping Life TV: Season 1??",
      "link": "https://animefire.plus/animes/peeping-life-tv-season-1-todos-os-episodios",
      "texto_original": "Peeping Life TV: Season 1??",
      "rating": 5.72,
      "classificacao_etaria": null,
      "imagem_original": "https://animefire.plus/img/animes/peeping-life-tv-season-1.webp",
      "imagem_pasta": "https://animefire.plus/img/animes/peeping-life-tv-season-1/",
      "secao": "legendados",
      "pagina": 165,
      "total_episodios": 10,
      "link_video": "https://animefire.plus/video/peeping-life-tv-season-1"
    },
    {
      "id": 2964,
      "nome": "Penguin Musume♥Heart",
      "link": "https://animefire.plus/animes/penguin-musume-heart-todos-os-episodios",
      "texto_original": "Penguin Musume♥Heart",
      "rating": 6.81,
      "classificacao_etaria": "A18",
      "imagem_original": "https://animefire.plus/img/animes/penguin-musume-heart.webp",
      "imagem_pasta": "https://animefire.plus/img/animes/penguin-musume-heart/",
      "secao": "legendados",
      "pagina": 133,
      "total_episodios": 22,
      "link_video": "https://animefire.plus/video/penguin-musume-heart"
    },
    {
      "id": 2965,
      "nome": "Persona 4 the Animation",
      "link": "https://animefire.plus/animes/persona-4-the-animation-todos-os-episodios",
      "texto_original": "Persona 4 the Animation",
      "rating": 7.59,
      "classificacao_etaria": "A14",
      "imagem_original": "https://animefire.plus/img/animes/persona-4-the-animation.webp",
      "imagem_pasta": "https://animefire.plus/img/animes/persona-4-the-animation/",
      "secao": "legendados",
      "pagina": 165,
      "total_episodios": 15,
      "link_video": "https://animefire.plus/video/persona-4-the-animation"
    },
    {
      "id": 2966,
      "nome": "Persona 4 the Golden Animation",
      "link": "https://animefire.plus/animes/persona-4-the-golden-animation-todos-os-episodios",
      "texto_original": "Persona 4 the Golden Animation",
      "rating": 6.67,
      "classificacao_etaria": "A14",
      "imagem_original": "https://animefire.plus/img/animes/persona-4-the-golden-animation.webp",
      "imagem_pasta": "https://animefire.plus/img/animes/persona-4-the-golden-animation/",
      "secao": "legendados",
      "pagina": 74,
      "total_episodios": 12,
      "link_video": "https://animefire.plus/video/persona-4-the-golden-animation"
    },
    {
      "id": 2967,
      "nome": "Persona 5 the Animation",
      "link": "https://animefire.plus/animes/persona-5-the-animation-todos-os-episodios",
      "texto_original": "Persona 5 the Animation",
      "rating": 6.71,
      "classificacao_etaria": "A16",
      "imagem_original": "https://animefire.plus/img/animes/persona-5-the-animation.webp",
      "imagem_pasta": "https://animefire.plus/img/animes/persona-5-the-animation/",
      "secao": "legendados",
      "pagina": 120,
      "total_episodios": 26,
      "link_video": "https://animefire.plus/video/persona-5-the-animation"
    },
    {
      "id": 2968,
      "nome": "Persona: Trinity Soul",
      "link": "https://animefire.plus/animes/persona-trinity-soul-todos-os-episodios",
      "texto_original": "Persona: Trinity Soul",
      "rating": 6.66,
      "classificacao_etaria": "A14",
      "imagem_original": "https://animefire.plus/img/animes/persona-trinity-soul.webp",
      "imagem_pasta": "https://animefire.plus/img/animes/persona-trinity-soul/",
      "secao": "legendados",
      "pagina": 136,
      "total_episodios": 26,
      "link_video": "https://animefire.plus/video/persona-trinity-soul"
    }
  ],
  "pagination": {
    "current_page": 145,
    "per_page": 20,
    "total_items": 4269,
    "total_pages": 214,
    "has_next": true,
    "has_prev": true
  }
}
