{
  "message": "Animes da seção: legendados",
  "section": "legendados",
  "data": [
    {
      "id": 893,
      "nome": "Drifters: Special Edition",
      "link": "https://animefire.plus/animes/drifters-special-edition-todos-os-episodios",
      "texto_original": "Drifters: Special Edition",
      "rating": 7.75,
      "classificacao_etaria": "A16",
      "imagem_original": "https://animefire.plus/img/animes/drifters-special-edition.webp",
      "imagem_pasta": "https://animefire.plus/img/animes/drifters-special-edition/",
      "secao": "legendados",
      "pagina": 87,
      "total_episodios": 2,
      "link_video": "https://animefire.plus/video/drifters-special-edition"
    },
    {
      "id": 894,
      "nome": "Druaga No Tou: The Aegis Of Uruk",
      "link": "https://animefire.plus/animes/druaga-no-tou-the-aegis-of-uruk-todos-os-episodios",
      "texto_original": "Druaga No Tou: The Aegis Of Uruk",
      "rating": 7.25,
      "classificacao_etaria": "A14",
      "imagem_original": "https://animefire.plus/img/animes/druaga-no-tou-the-aegis-of-uruk.webp",
      "imagem_pasta": "https://animefire.plus/img/animes/druaga-no-tou-the-aegis-of-uruk/",
      "secao": "legendados",
      "pagina": 99,
      "total_episodios": 12,
      "link_video": "https://animefire.plus/video/druaga-no-tou-the-aegis-of-uruk"
    },
    {
      "id": 895,
      "nome": "Druaga no Tou: The Sword of Uruk",
      "link": "https://animefire.plus/animes/druaga-no-tou-the-sword-of-uruk-todos-os-episodios",
      "texto_original": "Druaga no Tou: The Sword of Uruk",
      "rating": 7.27,
      "classificacao_etaria": "A14",
      "imagem_original": "https://animefire.plus/img/animes/druaga-no-tou-the-sword-of-uruk.webp",
      "imagem_pasta": "https://animefire.plus/img/animes/druaga-no-tou-the-sword-of-uruk/",
      "secao": "legendados",
      "pagina": 71,
      "total_episodios": 12,
      "link_video": "https://animefire.plus/video/druaga-no-tou-the-sword-of-uruk"
    },
    {
      "id": 896,
      "nome": "Duan Nao",
      "link": "https://animefire.plus/animes/duan-nao-todos-os-episodios",
      "texto_original": "Duan Nao",
      "rating": 6.56,
      "classificacao_etaria": "A16",
      "imagem_original": "https://animefire.plus/img/animes/duan-nao.webp",
      "imagem_pasta": "https://animefire.plus/img/animes/duan-nao/",
      "secao": "legendados",
      "pagina": 163,
      "total_episodios": 14,
      "link_video": "https://animefire.plus/video/duan-nao"
    },
    {
      "id": 897,
      "nome": "Dumbbell Nan Kilo Moteru?",
      "link": "https://animefire.plus/animes/dumbbell-nan-kilo-moteru-todos-os-episodios",
      "texto_original": "Dumbbell Nan Kilo Moteru?",
      "rating": 7.36,
      "classificacao_etaria": "A14",
      "imagem_original": "https://animefire.plus/img/animes/dumbbell-nan-kilo-moteru.webp",
      "imagem_pasta": "https://animefire.plus/img/animes/dumbbell-nan-kilo-moteru/",
      "secao": "legendados",
      "pagina": 164,
      "total_episodios": 4,
      "link_video": "https://animefire.plus/video/dumbbell-nan-kilo-moteru"
    },
    {
      "id": 898,
      "nome": "Dungeon Meshi (Dublado)",
      "link": "https://animefire.plus/animes/dungeon-meshi-dublado-todos-os-episodios",
      "texto_original": "Dungeon Meshi (Dublado)",
      "rating": 8.6,
      "classificacao_etaria": "A14",
      "imagem_original": "https://animefire.plus/img/animes/dungeon-meshi.webp",
      "imagem_pasta": "https://animefire.plus/img/animes/dungeon-meshi/",
      "secao": "dublados,legendados,lancamentos",
      "pagina": 3,
      "total_episodios": 24,
      "link_video": "https://animefire.plus/video/dungeon-meshi-dublado"
    },
    {
      "id": 899,
      "nome": "Dungeon ni Deai wo Motomeru no wa Machigatteiru Darou ka (Dublado)",
      "link": "https://animefire.plus/animes/dungeon-ni-deai-wo-motomeru-no-wa-machigatteiru-darou-ka-dublado-todos-os-episodios",
      "texto_original": "Dungeon ni Deai wo Motomeru no wa Machigatteiru Darou ka (Dublado)",
      "rating": 7.75,
      "classificacao_etaria": "A14",
      "imagem_original": "https://animefire.plus/img/animes/dungeon-ni-deai-wo-motomeru-no-wa-machigatteiru-darou-ka.webp",
      "imagem_pasta": "https://animefire.plus/img/animes/dungeon-ni-deai-wo-motomeru-no-wa-machigatteiru-darou-ka/",
      "secao": "dublados,legendados",
      "pagina": 25,
      "total_episodios": 13,
      "link_video": "https://animefire.plus/video/dungeon-ni-deai-wo-motomeru-no-wa-machigatteiru-darou-ka-dublado"
    },
    {
      "id": 900,
      "nome": "Dungeon ni Deai wo Motomeru no wa Machigatteiru Darou ka Gaiden: Sword Oratoria",
      "link": "https://animefire.plus/animes/dungeon-ni-deai-wo-motomeru-no-wa-machigatteiru-darou-ka-gaiden-sword-oratoria-todos-os-episodios",
      "texto_original": "Dungeon ni Deai wo Motomeru no wa Machigatteiru Darou ka Gaiden: Sword Oratoria",
      "rating": 7.13,
      "classificacao_etaria": "A14",
      "imagem_original": "https://animefire.plus/img/animes/dungeon-ni-deai-wo-motomeru-no-wa-machigatteiru-darou-ka-gaiden-sword-oratoria.webp",
      "imagem_pasta": "https://animefire.plus/img/animes/dungeon-ni-deai-wo-motomeru-no-wa-machigatteiru-darou-ka-gaiden-sword-oratoria/",
      "secao": "legendados",
      "pagina": 115,
      "total_episodios": 12,
      "link_video": "https://animefire.plus/video/dungeon-ni-deai-wo-motomeru-no-wa-machigatteiru-darou-ka-gaiden-sword-oratoria"
    },
    {
      "id": 901,
      "nome": "Dungeon ni Deai wo Motomeru no wa Machigatteiru Darou ka II",
      "link": "https://animefire.plus/animes/dungeon-ni-deai-wo-motomeru-no-wa-machigatteiru-darou-ka-ii-todos-os-episodios",
      "texto_original": "Dungeon ni Deai wo Motomeru no wa Machigatteiru Darou ka II",
      "rating": 7.24,
      "classificacao_etaria": "A14",
      "imagem_original": "https://animefire.plus/img/animes/dungeon-ni-deai-wo-motomeru-no-wa-machigatteiru-darou-ka-ii.webp",
      "imagem_pasta": "https://animefire.plus/img/animes/dungeon-ni-deai-wo-motomeru-no-wa-machigatteiru-darou-ka-ii/",
      "secao": "legendados",
      "pagina": 167,
      "total_episodios": 12,
      "link_video": "https://animefire.plus/video/dungeon-ni-deai-wo-motomeru-no-wa-machigatteiru-darou-ka-ii"
    },
    {
      "id": 902,
      "nome": "Dungeon ni Deai wo Motomeru no wa Machigatteiru Darou ka II: Past & Future",
      "link": "https://animefire.plus/animes/dungeon-ni-deai-wo-motomeru-no-wa-machigatteiru-darou-ka-ii-past-future-todos-os-episodios",
      "texto_original": "Dungeon ni Deai wo Motomeru no wa Machigatteiru Darou ka II: Past & Future",
      "rating": 6.68,
      "classificacao_etaria": "A14",
      "imagem_original": "https://animefire.plus/img/animes/dungeon-ni-deai-wo-motomeru-no-wa-machigatteiru-darou-ka-ii-past-future.webp",
      "imagem_pasta": "https://animefire.plus/img/animes/dungeon-ni-deai-wo-motomeru-no-wa-machigatteiru-darou-ka-ii-past-future/",
      "secao": "legendados",
      "pagina": 87,
      "total_episodios": 0,
      "link_video": "https://animefire.plus/video/dungeon-ni-deai-wo-motomeru-no-wa-machigatteiru-darou-ka-ii-past-future"
    },
    {
      "id": 903,
      "nome": "Dungeon ni Deai wo Motomeru no wa Machigatteiru Darou ka III",
      "link": "https://animefire.plus/animes/dungeon-ni-deai-wo-motomeru-no-wa-machigatteiru-darou-ka-iii-todos-os-episodios",
      "texto_original": "Dungeon ni Deai wo Motomeru no wa Machigatteiru Darou ka III",
      "rating": null,
      "classificacao_etaria": "A14",
      "imagem_original": "https://animefire.plus/img/animes/dungeon-ni-deai-wo-motomeru-no-wa-machigatteiru-darou-ka-iii.webp",
      "imagem_pasta": "https://animefire.plus/img/animes/dungeon-ni-deai-wo-motomeru-no-wa-machigatteiru-darou-ka-iii/",
      "secao": "legendados",
      "pagina": 53,
      "total_episodios": 12,
      "link_video": "https://animefire.plus/video/dungeon-ni-deai-wo-motomeru-no-wa-machigatteiru-darou-ka-iii"
    },
    {
      "id": 904,
      "nome": "Dungeon ni Deai wo Motomeru no wa Machigatteiru Darou ka III OVA",
      "link": "https://animefire.plus/animes/dungeon-ni-deai-wo-motomeru-no-wa-machigatteiru-darou-ka-iii-ova-todos-os-episodios",
      "texto_original": "Dungeon ni Deai wo Motomeru no wa Machigatteiru Darou ka III OVA",
      "rating": 6.91,
      "classificacao_etaria": "A14",
      "imagem_original": "https://animefire.plus/img/animes/dungeon-ni-deai-wo-motomeru-no-wa-machigatteiru-darou-ka-iii-ova.webp",
      "imagem_pasta": "https://animefire.plus/img/animes/dungeon-ni-deai-wo-motomeru-no-wa-machigatteiru-darou-ka-iii-ova/",
      "secao": "legendados",
      "pagina": 46,
      "total_episodios": 1,
      "link_video": "https://animefire.plus/video/dungeon-ni-deai-wo-motomeru-no-wa-machigatteiru-darou-ka-iii-ova"
    },
    {
      "id": 905,
      "nome": "Dungeon ni Deai wo Motomeru no wa Machigatteiru Darou ka IV: Fuka Shou - Yakusai-hen",
      "link": "https://animefire.plus/animes/dungeon-ni-deai-wo-motomeru-no-wa-machigatteiru-darou-ka-iv-fuka-shou---yakusai-hen-todos-os-episodios",
      "texto_original": "Dungeon ni Deai wo Motomeru no wa Machigatteiru Darou ka IV: Fuka Shou - Yakusai-hen",
      "rating": 8.25,
      "classificacao_etaria": "A16",
      "imagem_original": "https://animefire.plus/img/animes/dungeon-ni-deai-wo-motomeru-no-wa-machigatteiru-darou-ka-iv-fuka-shou---yakusai-hen.webp",
      "imagem_pasta": "https://animefire.plus/img/animes/dungeon-ni-deai-wo-motomeru-no-wa-machigatteiru-darou-ka-iv-fuka-shou---yakusai-hen/",
      "secao": "legendados",
      "pagina": 26,
      "total_episodios": 11,
      "link_video": "https://animefire.plus/video/dungeon-ni-deai-wo-motomeru-no-wa-machigatteiru-darou-ka-iv-fuka-shou---yakusai-hen"
    },
    {
      "id": 906,
      "nome": "Dungeon ni Deai wo Motomeru no wa Machigatteiru Darou ka IV: Shin Shou - Meikyuu-hen",
      "link": "https://animefire.plus/animes/dungeon-ni-deai-wo-motomeru-no-wa-machigatteiru-darou-ka-iv-shin-shou---meikyuu-hen-todos-os-episodios",
      "texto_original": "Dungeon ni Deai wo Motomeru no wa Machigatteiru Darou ka IV: Shin Shou - Meikyuu-hen",
      "rating": 7.75,
      "classificacao_etaria": "A16",
      "imagem_original": "https://animefire.plus/img/animes/dungeon-ni-deai-wo-motomeru-no-wa-machigatteiru-darou-ka-iv-shin-shou---meikyuu-hen.webp",
      "imagem_pasta": "https://animefire.plus/img/animes/dungeon-ni-deai-wo-motomeru-no-wa-machigatteiru-darou-ka-iv-shin-shou---meikyuu-hen/",
      "secao": "legendados",
      "pagina": 30,
      "total_episodios": 11,
      "link_video": "https://animefire.plus/video/dungeon-ni-deai-wo-motomeru-no-wa-machigatteiru-darou-ka-iv-shin-shou---meikyuu-hen"
    },
    {
      "id": 907,
      "nome": "Dungeon ni Deai wo Motomeru no wa Machigatteiru Darou ka V: Houjou no Megami-hen",
      "link": "https://animefire.plus/animes/dungeon-ni-deai-wo-motomeru-no-wa-machigatteiru-darou-ka-v-houjou-no-megami-hen-todos-os-episodios",
      "texto_original": "Dungeon ni Deai wo Motomeru no wa Machigatteiru Darou ka V: Houjou no Megami-hen",
      "rating": 7.9,
      "classificacao_etaria": "A14",
      "imagem_original": "https://animefire.plus/img/animes/dungeon-ni-deai-wo-motomeru-no-wa-machigatteiru-darou-ka-v-houjou-no-megami-hen.webp",
      "imagem_pasta": "https://animefire.plus/img/animes/dungeon-ni-deai-wo-motomeru-no-wa-machigatteiru-darou-ka-v-houjou-no-megami-hen/",
      "secao": "legendados",
      "pagina": 10,
      "total_episodios": 15,
      "link_video": "https://animefire.plus/video/dungeon-ni-deai-wo-motomeru-no-wa-machigatteiru-darou-ka-v-houjou-no-megami-hen"
    },
    {
      "id": 908,
      "nome": "Dungeon no Naka no Hito",
      "link": "https://animefire.plus/animes/dungeon-no-naka-no-hito-todos-os-episodios",
      "texto_original": "Dungeon no Naka no Hito",
      "rating": 7.12,
      "classificacao_etaria": "A14",
      "imagem_original": "https://animefire.plus/img/animes/dungeon-no-naka-no-hito.webp",
      "imagem_pasta": "https://animefire.plus/img/animes/dungeon-no-naka-no-hito/",
      "secao": "legendados",
      "pagina": 12,
      "total_episodios": 12,
      "link_video": "https://animefire.plus/video/dungeon-no-naka-no-hito"
    },
    {
      "id": 909,
      "nome": "Durarara!!",
      "link": "https://animefire.plus/animes/durarara-todos-os-episodios",
      "texto_original": "Durarara!!",
      "rating": 8.22,
      "classificacao_etaria": "A16",
      "imagem_original": "https://animefire.plus/img/animes/durarara.webp",
      "imagem_pasta": "https://animefire.plus/img/animes/durarara/",
      "secao": "legendados",
      "pagina": 61,
      "total_episodios": 26,
      "link_video": "https://animefire.plus/video/durarara"
    },
    {
      "id": 910,
      "nome": "Durarara!!x2 Ketsu",
      "link": "https://animefire.plus/animes/durarara-x2-ketsu-todos-os-episodios",
      "texto_original": "Durarara!!x2 Ketsu",
      "rating": 8.16,
      "classificacao_etaria": "A16",
      "imagem_original": "https://animefire.plus/img/animes/durarara-x2-ketsu.webp",
      "imagem_pasta": "https://animefire.plus/img/animes/durarara-x2-ketsu/",
      "secao": "legendados",
      "pagina": 128,
      "total_episodios": 12,
      "link_video": "https://animefire.plus/video/durarara-x2-ketsu"
    },
    {
      "id": 911,
      "nome": "Durarara!!x2 Shou",
      "link": "https://animefire.plus/animes/durarara-x2-shou-todos-os-episodios",
      "texto_original": "Durarara!!x2 Shou",
      "rating": 8.06,
      "classificacao_etaria": "A16",
      "imagem_original": "https://animefire.plus/img/animes/durarara-x2-shou.webp",
      "imagem_pasta": "https://animefire.plus/img/animes/durarara-x2-shou/",
      "secao": "legendados",
      "pagina": 61,
      "total_episodios": 12,
      "link_video": "https://animefire.plus/video/durarara-x2-shou"
    },
    {
      "id": 912,
      "nome": "Durarara!!x2 Ten",
      "link": "https://animefire.plus/animes/durarara-x2-ten-todos-os-episodios",
      "texto_original": "Durarara!!x2 Ten",
      "rating": 8.07,
      "classificacao_etaria": "A16",
      "imagem_original": "https://animefire.plus/img/animes/durarara-x2-ten.webp",
      "imagem_pasta": "https://animefire.plus/img/animes/durarara-x2-ten/",
      "secao": "legendados",
      "pagina": 103,
      "total_episodios": 12,
      "link_video": "https://animefire.plus/video/durarara-x2-ten"
    }
  ],
  "pagination": {
    "current_page": 44,
    "per_page": 20,
    "total_items": 4269,
    "total_pages": 214,
    "has_next": true,
    "has_prev": true
  }
}
