{
  "message": "Animes da seção: legendados",
  "section": "legendados",
  "data": [
    {
      "id": 3725,
      "nome": "Tales of Luminaria: The Fateful Crossroad",
      "link": "https://animefire.plus/animes/tales-of-luminaria-the-fateful-crossroad-todos-os-episodios",
      "texto_original": "Tales of Luminaria: The Fateful Crossroad",
      "rating": 6.16,
      "classificacao_etaria": "A14",
      "imagem_original": "https://animefire.plus/img/animes/tales-of-luminaria-the-fateful-crossroad.webp",
      "imagem_pasta": "https://animefire.plus/img/animes/tales-of-luminaria-the-fateful-crossroad/",
      "secao": "legendados",
      "pagina": 35,
      "total_episodios": 2,
      "link_video": "https://animefire.plus/video/tales-of-luminaria-the-fateful-crossroad"
    },
    {
      "id": 3726,
      "nome": "Tales of Phantasia The Animation",
      "link": "https://animefire.plus/animes/tales-of-phantasia-the-animation-todos-os-episodios",
      "texto_original": "Tales of Phantasia The Animation",
      "rating": 6.84,
      "classificacao_etaria": "A14",
      "imagem_original": "https://animefire.plus/img/animes/tales-of-phantasia-the-animation.webp",
      "imagem_pasta": "https://animefire.plus/img/animes/tales-of-phantasia-the-animation/",
      "secao": "legendados",
      "pagina": 69,
      "total_episodios": 4,
      "link_video": "https://animefire.plus/video/tales-of-phantasia-the-animation"
    },
    {
      "id": 3727,
      "nome": "Tales Of Symphonia The Animation: Tethe'alla-hen",
      "link": "https://animefire.plus/animes/tales-of-symphonia-the-animation-tethe-alla-hen-todos-os-episodios",
      "texto_original": "Tales Of Symphonia The Animation: Tethe'alla-hen",
      "rating": 7.56,
      "classificacao_etaria": "A14",
      "imagem_original": "https://animefire.plus/img/animes/tales-of-symphonia-the-animation-tethe-alla-hen.webp",
      "imagem_pasta": "https://animefire.plus/img/animes/tales-of-symphonia-the-animation-tethe-alla-hen/",
      "secao": "legendados",
      "pagina": 99,
      "total_episodios": 4,
      "link_video": "https://animefire.plus/video/tales-of-symphonia-the-animation-tethe-alla-hen"
    },
    {
      "id": 3728,
      "nome": "Tales of the Abyss",
      "link": "https://animefire.plus/animes/tales-of-the-abyss-todos-os-episodios",
      "texto_original": "Tales of the Abyss",
      "rating": 7.39,
      "classificacao_etaria": "A14",
      "imagem_original": "https://animefire.plus/img/animes/tales-of-the-abyss.webp",
      "imagem_pasta": "https://animefire.plus/img/animes/tales-of-the-abyss/",
      "secao": "legendados",
      "pagina": 131,
      "total_episodios": 26,
      "link_video": "https://animefire.plus/video/tales-of-the-abyss"
    },
    {
      "id": 3729,
      "nome": "Tales of Zestiria the Cross",
      "link": "https://animefire.plus/animes/tales-of-zestiria-the-cross-todos-os-episodios",
      "texto_original": "Tales of Zestiria the Cross",
      "rating": 7.39,
      "classificacao_etaria": "A14",
      "imagem_original": "https://animefire.plus/img/animes/tales-of-zestiria-the-cross.webp",
      "imagem_pasta": "https://animefire.plus/img/animes/tales-of-zestiria-the-cross/",
      "secao": "legendados",
      "pagina": 81,
      "total_episodios": 12,
      "link_video": "https://animefire.plus/video/tales-of-zestiria-the-cross"
    },
    {
      "id": 3730,
      "nome": "Tales of Zestiria the Cross 2nd Season",
      "link": "https://animefire.plus/animes/tales-of-zestiria-the-cross-2nd-season-todos-os-episodios",
      "texto_original": "Tales of Zestiria the Cross 2nd Season",
      "rating": 7.4,
      "classificacao_etaria": "A14",
      "imagem_original": "https://animefire.plus/img/animes/tales-of-zestiria-the-cross-2nd-season.webp",
      "imagem_pasta": "https://animefire.plus/img/animes/tales-of-zestiria-the-cross-2nd-season/",
      "secao": "legendados",
      "pagina": 81,
      "total_episodios": 13,
      "link_video": "https://animefire.plus/video/tales-of-zestiria-the-cross-2nd-season"
    },
    {
      "id": 3731,
      "nome": "Tamako Market",
      "link": "https://animefire.plus/animes/tamako-market-todos-os-episodios",
      "texto_original": "Tamako Market",
      "rating": 7.38,
      "classificacao_etaria": "A14",
      "imagem_original": "https://animefire.plus/img/animes/tamako-market.webp",
      "imagem_pasta": "https://animefire.plus/img/animes/tamako-market/",
      "secao": "legendados",
      "pagina": 79,
      "total_episodios": 12,
      "link_video": "https://animefire.plus/video/tamako-market"
    },
    {
      "id": 3732,
      "nome": "Tamako Market Specials",
      "link": "https://animefire.plus/animes/tamako-market-specials-todos-os-episodios",
      "texto_original": "Tamako Market Specials",
      "rating": 6.32,
      "classificacao_etaria": "A14",
      "imagem_original": "https://animefire.plus/img/animes/tamako-market-specials.webp",
      "imagem_pasta": "https://animefire.plus/img/animes/tamako-market-specials/",
      "secao": "legendados",
      "pagina": 67,
      "total_episodios": 6,
      "link_video": "https://animefire.plus/video/tamako-market-specials"
    },
    {
      "id": 3733,
      "nome": "Tamayomi",
      "link": "https://animefire.plus/animes/tamayomi-todos-os-episodios",
      "texto_original": "Tamayomi",
      "rating": 5.73,
      "classificacao_etaria": "A14",
      "imagem_original": "https://animefire.plus/img/animes/tamayomi.webp",
      "imagem_pasta": "https://animefire.plus/img/animes/tamayomi/",
      "secao": "legendados",
      "pagina": 82,
      "total_episodios": 0,
      "link_video": "https://animefire.plus/video/tamayomi"
    },
    {
      "id": 3734,
      "nome": "Tamayura",
      "link": "https://animefire.plus/animes/tamayura-todos-os-episodios",
      "texto_original": "Tamayura",
      "rating": 7.16,
      "classificacao_etaria": null,
      "imagem_original": "https://animefire.plus/img/animes/tamayura.webp",
      "imagem_pasta": "https://animefire.plus/img/animes/tamayura/",
      "secao": "legendados",
      "pagina": 56,
      "total_episodios": 2,
      "link_video": "https://animefire.plus/video/tamayura"
    },
    {
      "id": 3735,
      "nome": "Tamayura: Hitotose",
      "link": "https://animefire.plus/animes/tamayura-hitotose-todos-os-episodios",
      "texto_original": "Tamayura: Hitotose",
      "rating": 7.32,
      "classificacao_etaria": null,
      "imagem_original": "https://animefire.plus/img/animes/tamayura-hitotose.webp",
      "imagem_pasta": "https://animefire.plus/img/animes/tamayura-hitotose/",
      "secao": "legendados",
      "pagina": 119,
      "total_episodios": 12,
      "link_video": "https://animefire.plus/video/tamayura-hitotose"
    },
    {
      "id": 3736,
      "nome": "Tamayura: More Aggressive",
      "link": "https://animefire.plus/animes/tamayura-more-aggressive-todos-os-episodios",
      "texto_original": "Tamayura: More Aggressive",
      "rating": 7.58,
      "classificacao_etaria": null,
      "imagem_original": "https://animefire.plus/img/animes/tamayura-more-aggressive.webp",
      "imagem_pasta": "https://animefire.plus/img/animes/tamayura-more-aggressive/",
      "secao": "legendados",
      "pagina": 140,
      "total_episodios": 0,
      "link_video": "https://animefire.plus/video/tamayura-more-aggressive"
    },
    {
      "id": 3737,
      "nome": "Tanaka-kun Wa Itsumo Kedaruge",
      "link": "https://animefire.plus/animes/tanaka-kun-wa-itsumo-kedaruge-todos-os-episodios",
      "texto_original": "Tanaka-kun Wa Itsumo Kedaruge",
      "rating": 7.99,
      "classificacao_etaria": "A14",
      "imagem_original": "https://animefire.plus/img/animes/tanaka-kun-wa-itsumo-kedaruge.webp",
      "imagem_pasta": "https://animefire.plus/img/animes/tanaka-kun-wa-itsumo-kedaruge/",
      "secao": "legendados",
      "pagina": 96,
      "total_episodios": 12,
      "link_video": "https://animefire.plus/video/tanaka-kun-wa-itsumo-kedaruge"
    },
    {
      "id": 3738,
      "nome": "Tanaka-kun wa Itsumo Kedaruge Specials",
      "link": "https://animefire.plus/animes/tanaka-kun-wa-itsumo-kedaruge-specials-todos-os-episodios",
      "texto_original": "Tanaka-kun wa Itsumo Kedaruge Specials",
      "rating": 7.41,
      "classificacao_etaria": "A14",
      "imagem_original": "https://animefire.plus/img/animes/tanaka-kun-wa-itsumo-kedaruge-specials.webp",
      "imagem_pasta": "https://animefire.plus/img/animes/tanaka-kun-wa-itsumo-kedaruge-specials/",
      "secao": "legendados",
      "pagina": 42,
      "total_episodios": 7,
      "link_video": "https://animefire.plus/video/tanaka-kun-wa-itsumo-kedaruge-specials"
    },
    {
      "id": 3739,
      "nome": "Tanpen Unico: Kuroi Kumo to Shiroi Hane",
      "link": "https://animefire.plus/animes/tanpen-unico-kuroi-kumo-to-shiroi-hane-todos-os-episodios",
      "texto_original": "Tanpen Unico: Kuroi Kumo to Shiroi Hane",
      "rating": 6.24,
      "classificacao_etaria": null,
      "imagem_original": "https://animefire.plus/img/animes/tanpen-unico-kuroi-kumo-to-shiroi-hane.webp",
      "imagem_pasta": "https://animefire.plus/img/animes/tanpen-unico-kuroi-kumo-to-shiroi-hane/",
      "secao": "legendados",
      "pagina": 65,
      "total_episodios": 1,
      "link_video": "https://animefire.plus/video/tanpen-unico-kuroi-kumo-to-shiroi-hane"
    },
    {
      "id": 3740,
      "nome": "Tantei Gakuen Q",
      "link": "https://animefire.plus/animes/tantei-gakuen-q-todos-os-episodios",
      "texto_original": "Tantei Gakuen Q",
      "rating": 7.83,
      "classificacao_etaria": "A14",
      "imagem_original": "https://animefire.plus/img/animes/tantei-gakuen-q.webp",
      "imagem_pasta": "https://animefire.plus/img/animes/tantei-gakuen-q/",
      "secao": "legendados",
      "pagina": 167,
      "total_episodios": 11,
      "link_video": "https://animefire.plus/video/tantei-gakuen-q"
    },
    {
      "id": 3741,
      "nome": "Tantei Kageki Milky Holmes TD",
      "link": "https://animefire.plus/animes/tantei-kageki-milky-holmes-td-todos-os-episodios",
      "texto_original": "Tantei Kageki Milky Holmes TD",
      "rating": 6.47,
      "classificacao_etaria": "A14",
      "imagem_original": "https://animefire.plus/img/animes/tantei-kageki-milky-holmes-td.webp",
      "imagem_pasta": "https://animefire.plus/img/animes/tantei-kageki-milky-holmes-td/",
      "secao": "legendados",
      "pagina": 126,
      "total_episodios": 1,
      "link_video": "https://animefire.plus/video/tantei-kageki-milky-holmes-td"
    },
    {
      "id": 3742,
      "nome": "Tantei Opera Milky Holmes",
      "link": "https://animefire.plus/animes/tantei-opera-milky-holmes-todos-os-episodios",
      "texto_original": "Tantei Opera Milky Holmes",
      "rating": 6.99,
      "classificacao_etaria": "A14",
      "imagem_original": "https://animefire.plus/img/animes/tantei-opera-milky-holmes.webp",
      "imagem_pasta": "https://animefire.plus/img/animes/tantei-opera-milky-holmes/",
      "secao": "legendados",
      "pagina": 97,
      "total_episodios": 0,
      "link_video": "https://animefire.plus/video/tantei-opera-milky-holmes"
    },
    {
      "id": 3743,
      "nome": "Tantei Opera Milky Holmes Dai 2 Maku",
      "link": "https://animefire.plus/animes/tantei-opera-milky-holmes-dai-2-maku-todos-os-episodios",
      "texto_original": "Tantei Opera Milky Holmes Dai 2 Maku",
      "rating": 7.27,
      "classificacao_etaria": "A14",
      "imagem_original": "https://animefire.plus/img/animes/tantei-opera-milky-holmes-dai-2-maku.webp",
      "imagem_pasta": "https://animefire.plus/img/animes/tantei-opera-milky-holmes-dai-2-maku/",
      "secao": "legendados",
      "pagina": 177,
      "total_episodios": 9,
      "link_video": "https://animefire.plus/video/tantei-opera-milky-holmes-dai-2-maku"
    },
    {
      "id": 3744,
      "nome": "Tantei Opera Milky Holmes: Alternative",
      "link": "https://animefire.plus/animes/tantei-opera-milky-holmes-alternative-todos-os-episodios",
      "texto_original": "Tantei Opera Milky Holmes: Alternative",
      "rating": 6.54,
      "classificacao_etaria": "A14",
      "imagem_original": "https://animefire.plus/img/animes/tantei-opera-milky-holmes-alternative.webp",
      "imagem_pasta": "https://animefire.plus/img/animes/tantei-opera-milky-holmes-alternative/",
      "secao": "legendados",
      "pagina": 83,
      "total_episodios": 2,
      "link_video": "https://animefire.plus/video/tantei-opera-milky-holmes-alternative"
    }
  ],
  "pagination": {
    "current_page": 183,
    "per_page": 20,
    "total_items": 4269,
    "total_pages": 214,
    "has_next": true,
    "has_prev": true
  }
}
