{
  "message": "Animes da seção: legendados",
  "section": "legendados",
  "data": [
    {
      "id": 1587,
      "nome": "Idol Memories",
      "link": "https://animefire.plus/animes/idol-memories-todos-os-episodios",
      "texto_original": "Idol Memories",
      "rating": 5.36,
      "classificacao_etaria": "A14",
      "imagem_original": "https://animefire.plus/img/animes/idol-memories.webp",
      "imagem_pasta": "https://animefire.plus/img/animes/idol-memories/",
      "secao": "legendados",
      "pagina": 142,
      "total_episodios": 3,
      "link_video": "https://animefire.plus/video/idol-memories"
    },
    {
      "id": 1588,
      "nome": "Idol Time PriPara",
      "link": "https://animefire.plus/animes/idol-time-pripara-todos-os-episodios",
      "texto_original": "Idol Time PriPara",
      "rating": 7.3,
      "classificacao_etaria": "A10",
      "imagem_original": "https://animefire.plus/img/animes/idol-time-pripara.webp",
      "imagem_pasta": "https://animefire.plus/img/animes/idol-time-pripara/",
      "secao": "legendados",
      "pagina": 149,
      "total_episodios": 51,
      "link_video": "https://animefire.plus/video/idol-time-pripara"
    },
    {
      "id": 1589,
      "nome": "IDOLiSH7",
      "link": "https://animefire.plus/animes/idolish7-todos-os-episodios",
      "texto_original": "IDOLiSH7",
      "rating": 8.04,
      "classificacao_etaria": "A14",
      "imagem_original": "https://animefire.plus/img/animes/idolish7.webp",
      "imagem_pasta": "https://animefire.plus/img/animes/idolish7/",
      "secao": "legendados",
      "pagina": 105,
      "total_episodios": 17,
      "link_video": "https://animefire.plus/video/idolish7"
    },
    {
      "id": 1590,
      "nome": "IDOLiSH7: Second Beat!",
      "link": "https://animefire.plus/animes/idolish7-second-beat-todos-os-episodios",
      "texto_original": "IDOLiSH7: Second Beat!",
      "rating": 8.15,
      "classificacao_etaria": "A14",
      "imagem_original": "https://animefire.plus/img/animes/idolish7-second-beat.webp",
      "imagem_pasta": "https://animefire.plus/img/animes/idolish7-second-beat/",
      "secao": "legendados",
      "pagina": 93,
      "total_episodios": 15,
      "link_video": "https://animefire.plus/video/idolish7-second-beat"
    },
    {
      "id": 1591,
      "nome": "IDOLiSH7: Third Beat!",
      "link": "https://animefire.plus/animes/idolish7-third-beat-todos-os-episodios",
      "texto_original": "IDOLiSH7: Third Beat!",
      "rating": 8.24,
      "classificacao_etaria": "A14",
      "imagem_original": "https://animefire.plus/img/animes/idolish7-third-beat.webp",
      "imagem_pasta": "https://animefire.plus/img/animes/idolish7-third-beat/",
      "secao": "legendados",
      "pagina": 41,
      "total_episodios": 13,
      "link_video": "https://animefire.plus/video/idolish7-third-beat"
    },
    {
      "id": 1592,
      "nome": "IDOLiSH7: Third Beat! Part 2",
      "link": "https://animefire.plus/animes/idolish7-third-beat-part-2-todos-os-episodios",
      "texto_original": "IDOLiSH7: Third Beat! Part 2",
      "rating": 8.34,
      "classificacao_etaria": "A14",
      "imagem_original": "https://animefire.plus/img/animes/idolish7-third-beat-part-2.webp",
      "imagem_pasta": "https://animefire.plus/img/animes/idolish7-third-beat-part-2/",
      "secao": "legendados,lancamentos",
      "pagina": 28,
      "total_episodios": 6,
      "link_video": "https://animefire.plus/video/idolish7-third-beat-part-2"
    },
    {
      "id": 1593,
      "nome": "Idolls!",
      "link": "https://animefire.plus/animes/idolls-todos-os-episodios",
      "texto_original": "Idolls!",
      "rating": 5.05,
      "classificacao_etaria": "A14",
      "imagem_original": "https://animefire.plus/img/animes/idolls.webp",
      "imagem_pasta": "https://animefire.plus/img/animes/idolls/",
      "secao": "legendados",
      "pagina": 48,
      "total_episodios": 10,
      "link_video": "https://animefire.plus/video/idolls"
    },
    {
      "id": 1594,
      "nome": "iDOLM@STER Xenoglossia",
      "link": "https://animefire.plus/animes/idolmatster-xenoglossia-todos-os-episodios",
      "texto_original": "iDOLM@STER Xenoglossia",
      "rating": 6.6,
      "classificacao_etaria": "A14",
      "imagem_original": "https://animefire.plus/img/animes/idolmatster-xenoglossia.webp",
      "imagem_pasta": "https://animefire.plus/img/animes/idolmatster-xenoglossia/",
      "secao": "legendados",
      "pagina": 130,
      "total_episodios": 26,
      "link_video": "https://animefire.plus/video/idolmatster-xenoglossia"
    },
    {
      "id": 1595,
      "nome": "Idoly Pride",
      "link": "https://animefire.plus/animes/idoly-pride-todos-os-episodios",
      "texto_original": "Idoly Pride",
      "rating": 7.41,
      "classificacao_etaria": "A14",
      "imagem_original": "https://animefire.plus/img/animes/idoly-pride.webp",
      "imagem_pasta": "https://animefire.plus/img/animes/idoly-pride/",
      "secao": "legendados",
      "pagina": 48,
      "total_episodios": 12,
      "link_video": "https://animefire.plus/video/idoly-pride"
    },
    {
      "id": 1596,
      "nome": "Ie Naki Ko Remy",
      "link": "https://animefire.plus/animes/ie-naki-ko-remy-todos-os-episodios",
      "texto_original": "Ie Naki Ko Remy",
      "rating": 7.97,
      "classificacao_etaria": null,
      "imagem_original": "https://animefire.plus/img/animes/ie-naki-ko-remy.webp",
      "imagem_pasta": "https://animefire.plus/img/animes/ie-naki-ko-remy/",
      "secao": "legendados",
      "pagina": 71,
      "total_episodios": 26,
      "link_video": "https://animefire.plus/video/ie-naki-ko-remy"
    },
    {
      "id": 1597,
      "nome": "Ijime: Ikenie no Kyoushitsu",
      "link": "https://animefire.plus/animes/ijime-ikenie-no-kyoushitsu-todos-os-episodios",
      "texto_original": "Ijime: Ikenie no Kyoushitsu",
      "rating": 5.2,
      "classificacao_etaria": "A14",
      "imagem_original": "https://animefire.plus/img/animes/ijime-ikenie-no-kyoushitsu.webp",
      "imagem_pasta": "https://animefire.plus/img/animes/ijime-ikenie-no-kyoushitsu/",
      "secao": "legendados",
      "pagina": 43,
      "total_episodios": 1,
      "link_video": "https://animefire.plus/video/ijime-ikenie-no-kyoushitsu"
    },
    {
      "id": 1598,
      "nome": "Ijiranaide, Nagatoro-san (Dublado)",
      "link": "https://animefire.plus/animes/ijiranaide-nagatoro-san-dublado-todos-os-episodios",
      "texto_original": "Ijiranaide, Nagatoro-san (Dublado)",
      "rating": 7.21,
      "classificacao_etaria": "A14",
      "imagem_original": "https://animefire.plus/img/animes/ijiranaide-nagatoro-san.webp",
      "imagem_pasta": "https://animefire.plus/img/animes/ijiranaide-nagatoro-san/",
      "secao": "dublados,legendados",
      "pagina": 13,
      "total_episodios": 12,
      "link_video": "https://animefire.plus/video/ijiranaide-nagatoro-san-dublado"
    },
    {
      "id": 1599,
      "nome": "Ijiranaide, Nagatoro-san 2nd Attack (Dublado)",
      "link": "https://animefire.plus/animes/ijiranaide-nagatoro-san-2nd-attack-dublado-todos-os-episodios",
      "texto_original": "Ijiranaide, Nagatoro-san 2nd Attack (Dublado)",
      "rating": 7.45,
      "classificacao_etaria": "A14",
      "imagem_original": "https://animefire.plus/img/animes/ijiranaide-nagatoro-san-2nd-attack.webp",
      "imagem_pasta": "https://animefire.plus/img/animes/ijiranaide-nagatoro-san-2nd-attack/",
      "secao": "dublados,legendados,lancamentos",
      "pagina": 8,
      "total_episodios": 12,
      "link_video": "https://animefire.plus/video/ijiranaide-nagatoro-san-2nd-attack-dublado"
    },
    {
      "id": 1600,
      "nome": "Ike! Ina-chuu Takkyuubu",
      "link": "https://animefire.plus/animes/ike-ina-chuu-takkyuubu-todos-os-episodios",
      "texto_original": "Ike! Ina-chuu Takkyuubu",
      "rating": 7.58,
      "classificacao_etaria": "A18",
      "imagem_original": "https://animefire.plus/img/animes/ike-ina-chuu-takkyuubu.webp",
      "imagem_pasta": "https://animefire.plus/img/animes/ike-ina-chuu-takkyuubu/",
      "secao": "legendados",
      "pagina": 55,
      "total_episodios": 26,
      "link_video": "https://animefire.plus/video/ike-ina-chuu-takkyuubu"
    },
    {
      "id": 1601,
      "nome": "Ikebukuro PR Anime",
      "link": "https://animefire.plus/animes/ikebukuro-pr-anime-todos-os-episodios",
      "texto_original": "Ikebukuro PR Anime",
      "rating": 6.12,
      "classificacao_etaria": null,
      "imagem_original": "https://animefire.plus/img/animes/ikebukuro-pr-anime.webp",
      "imagem_pasta": "https://animefire.plus/img/animes/ikebukuro-pr-anime/",
      "secao": "legendados",
      "pagina": 85,
      "total_episodios": 1,
      "link_video": "https://animefire.plus/video/ikebukuro-pr-anime"
    },
    {
      "id": 1602,
      "nome": "Ikebukuro West Gate Park",
      "link": "https://animefire.plus/animes/ikebukuro-west-gate-park-todos-os-episodios",
      "texto_original": "Ikebukuro West Gate Park",
      "rating": null,
      "classificacao_etaria": "A14",
      "imagem_original": "https://animefire.plus/img/animes/ikebukuro-west-gate-park.webp",
      "imagem_pasta": "https://animefire.plus/img/animes/ikebukuro-west-gate-park/",
      "secao": "legendados",
      "pagina": 52,
      "total_episodios": 12,
      "link_video": "https://animefire.plus/video/ikebukuro-west-gate-park"
    },
    {
      "id": 1603,
      "nome": "Ikkitousen (Dublado)",
      "link": "https://animefire.plus/animes/ikkitousen-dublado-todos-os-episodios",
      "texto_original": "Ikkitousen (Dublado)",
      "rating": 6.48,
      "classificacao_etaria": "A18",
      "imagem_original": "https://animefire.plus/img/animes/ikkitousen.webp",
      "imagem_pasta": "https://animefire.plus/img/animes/ikkitousen/",
      "secao": "dublados,legendados",
      "pagina": 21,
      "total_episodios": 0,
      "link_video": "https://animefire.plus/video/ikkitousen-dublado"
    },
    {
      "id": 1604,
      "nome": "Ikkitousen: Dragon Destiny",
      "link": "https://animefire.plus/animes/ikkitousen-dragon-destiny-todos-os-episodios",
      "texto_original": "Ikkitousen: Dragon Destiny",
      "rating": 6.89,
      "classificacao_etaria": "A18",
      "imagem_original": "https://animefire.plus/img/animes/ikkitousen-dragon-destiny.webp",
      "imagem_pasta": "https://animefire.plus/img/animes/ikkitousen-dragon-destiny/",
      "secao": "legendados",
      "pagina": 168,
      "total_episodios": 12,
      "link_video": "https://animefire.plus/video/ikkitousen-dragon-destiny"
    },
    {
      "id": 1605,
      "nome": "Ikkitousen: Extravaganza Epoch",
      "link": "https://animefire.plus/animes/ikkitousen-extravaganza-epoch-todos-os-episodios",
      "texto_original": "Ikkitousen: Extravaganza Epoch",
      "rating": 6.67,
      "classificacao_etaria": "A18",
      "imagem_original": "https://animefire.plus/img/animes/ikkitousen-extravaganza-epoch.webp",
      "imagem_pasta": "https://animefire.plus/img/animes/ikkitousen-extravaganza-epoch/",
      "secao": "legendados",
      "pagina": 86,
      "total_episodios": 2,
      "link_video": "https://animefire.plus/video/ikkitousen-extravaganza-epoch"
    },
    {
      "id": 1606,
      "nome": "Ikkitousen: Great Guardians",
      "link": "https://animefire.plus/animes/ikkitousen-great-guardians-todos-os-episodios",
      "texto_original": "Ikkitousen: Great Guardians",
      "rating": 6.88,
      "classificacao_etaria": "A18",
      "imagem_original": "https://animefire.plus/img/animes/ikkitousen-great-guardians.webp",
      "imagem_pasta": "https://animefire.plus/img/animes/ikkitousen-great-guardians/",
      "secao": "legendados",
      "pagina": 144,
      "total_episodios": 12,
      "link_video": "https://animefire.plus/video/ikkitousen-great-guardians"
    }
  ],
  "pagination": {
    "current_page": 78,
    "per_page": 20,
    "total_items": 4269,
    "total_pages": 214,
    "has_next": true,
    "has_prev": true
  }
}
