{
  "message": "Animes da seção: legendados",
  "section": "legendados",
  "data": [
    {
      "id": 3011,
      "nome": "Pon no Michi",
      "link": "https://animefire.plus/animes/pon-no-michi-todos-os-episodios",
      "texto_original": "Pon no Michi",
      "rating": 6.48,
      "classificacao_etaria": "A14",
      "imagem_original": "https://animefire.plus/img/animes/pon-no-michi.webp",
      "imagem_pasta": "https://animefire.plus/img/animes/pon-no-michi/",
      "secao": "legendados",
      "pagina": 17,
      "total_episodios": 12,
      "link_video": "https://animefire.plus/video/pon-no-michi"
    },
    {
      "id": 3012,
      "nome": "PopoloCrois",
      "link": "https://animefire.plus/animes/popolocrois-todos-os-episodios",
      "texto_original": "PopoloCrois",
      "rating": 7.09,
      "classificacao_etaria": "A10",
      "imagem_original": "https://animefire.plus/img/animes/popolocrois.webp",
      "imagem_pasta": "https://animefire.plus/img/animes/popolocrois/",
      "secao": "legendados",
      "pagina": 164,
      "total_episodios": 26,
      "link_video": "https://animefire.plus/video/popolocrois"
    },
    {
      "id": 3013,
      "nome": "Popolocrois Monogatari",
      "link": "https://animefire.plus/animes/popolocrois-monogatari-todos-os-episodios",
      "texto_original": "Popolocrois Monogatari",
      "rating": 7.17,
      "classificacao_etaria": "A10",
      "imagem_original": "https://animefire.plus/img/animes/popolocrois-monogatari.webp",
      "imagem_pasta": "https://animefire.plus/img/animes/popolocrois-monogatari/",
      "secao": "legendados",
      "pagina": 149,
      "total_episodios": 25,
      "link_video": "https://animefire.plus/video/popolocrois-monogatari"
    },
    {
      "id": 3014,
      "nome": "Popotan",
      "link": "https://animefire.plus/animes/popotan-todos-os-episodios",
      "texto_original": "Popotan",
      "rating": 6.36,
      "classificacao_etaria": "A18",
      "imagem_original": "https://animefire.plus/img/animes/popotan.webp",
      "imagem_pasta": "https://animefire.plus/img/animes/popotan/",
      "secao": "legendados",
      "pagina": 132,
      "total_episodios": 12,
      "link_video": "https://animefire.plus/video/popotan"
    },
    {
      "id": 3015,
      "nome": "Pops",
      "link": "https://animefire.plus/animes/pops-todos-os-episodios",
      "texto_original": "Pops",
      "rating": 5.61,
      "classificacao_etaria": "A14",
      "imagem_original": "https://animefire.plus/img/animes/pops.webp",
      "imagem_pasta": "https://animefire.plus/img/animes/pops/",
      "secao": "legendados",
      "pagina": 85,
      "total_episodios": 1,
      "link_video": "https://animefire.plus/video/pops"
    },
    {
      "id": 3016,
      "nome": "Poputepipikku",
      "link": "https://animefire.plus/animes/poputepipikku-todos-os-episodios",
      "texto_original": "Poputepipikku",
      "rating": 7.33,
      "classificacao_etaria": "A14",
      "imagem_original": "https://animefire.plus/img/animes/poputepipikku.webp",
      "imagem_pasta": "https://animefire.plus/img/animes/poputepipikku/",
      "secao": "legendados",
      "pagina": 155,
      "total_episodios": 12,
      "link_video": "https://animefire.plus/video/poputepipikku"
    },
    {
      "id": 3017,
      "nome": "Poputepipikku 2nd Season",
      "link": "https://animefire.plus/animes/poputepipikku-2nd-season-todos-os-episodios",
      "texto_original": "Poputepipikku 2nd Season",
      "rating": 7.53,
      "classificacao_etaria": "A14",
      "imagem_original": "https://animefire.plus/img/animes/poputepipikku-2nd-season.webp",
      "imagem_pasta": "https://animefire.plus/img/animes/poputepipikku-2nd-season/",
      "secao": "legendados",
      "pagina": 28,
      "total_episodios": 12,
      "link_video": "https://animefire.plus/video/poputepipikku-2nd-season"
    },
    {
      "id": 3018,
      "nome": "Potion-danomi de Ikinobimasu!",
      "link": "https://animefire.plus/animes/potion-danomi-de-ikinobimasu-todos-os-episodios",
      "texto_original": "Potion-danomi de Ikinobimasu!",
      "rating": 6.55,
      "classificacao_etaria": "A14",
      "imagem_original": "https://animefire.plus/img/animes/potion-danomi-de-ikinobimasu.webp",
      "imagem_pasta": "https://animefire.plus/img/animes/potion-danomi-de-ikinobimasu/",
      "secao": "legendados",
      "pagina": 20,
      "total_episodios": 12,
      "link_video": "https://animefire.plus/video/potion-danomi-de-ikinobimasu"
    },
    {
      "id": 3019,
      "nome": "Power Stone",
      "link": "https://animefire.plus/animes/power-stone-todos-os-episodios",
      "texto_original": "Power Stone",
      "rating": 6.54,
      "classificacao_etaria": "A10",
      "imagem_original": "https://animefire.plus/img/animes/power-stone.webp",
      "imagem_pasta": "https://animefire.plus/img/animes/power-stone/",
      "secao": "legendados",
      "pagina": 105,
      "total_episodios": 18,
      "link_video": "https://animefire.plus/video/power-stone"
    },
    {
      "id": 3020,
      "nome": "Poyopoyo Kansatsu Nikki",
      "link": "https://animefire.plus/animes/poyopoyo-kansatsu-nikki-todos-os-episodios",
      "texto_original": "Poyopoyo Kansatsu Nikki",
      "rating": 7.71,
      "classificacao_etaria": "A10",
      "imagem_original": "https://animefire.plus/img/animes/poyopoyo-kansatsu-nikki.webp",
      "imagem_pasta": "https://animefire.plus/img/animes/poyopoyo-kansatsu-nikki/",
      "secao": "legendados",
      "pagina": 74,
      "total_episodios": 52,
      "link_video": "https://animefire.plus/video/poyopoyo-kansatsu-nikki"
    },
    {
      "id": 3021,
      "nome": "Precure All Stars DX the Dance Live♥: Miracle Dance Stage e Youkoso",
      "link": "https://animefire.plus/animes/precure-all-stars-dx-the-dance-live-miracle-dance-stage-e-youkoso-todos-os-episodios",
      "texto_original": "Precure All Stars DX the Dance Live♥: Miracle Dance Stage e Youkoso",
      "rating": 6.96,
      "classificacao_etaria": null,
      "imagem_original": "https://animefire.plus/img/animes/precure-all-stars-dx-the-dance-live-miracle-dance-stage-e-youkoso.webp",
      "imagem_pasta": "https://animefire.plus/img/animes/precure-all-stars-dx-the-dance-live-miracle-dance-stage-e-youkoso/",
      "secao": "legendados",
      "pagina": 76,
      "total_episodios": 1,
      "link_video": "https://animefire.plus/video/precure-all-stars-dx-the-dance-live-miracle-dance-stage-e-youkoso"
    },
    {
      "id": 3022,
      "nome": "Precure All Stars GoGo Dream Live!",
      "link": "https://animefire.plus/animes/precure-all-stars-gogo-dream-live-todos-os-episodios",
      "texto_original": "Precure All Stars GoGo Dream Live!",
      "rating": 6.85,
      "classificacao_etaria": null,
      "imagem_original": "https://animefire.plus/img/animes/precure-all-stars-gogo-dream-live.webp",
      "imagem_pasta": "https://animefire.plus/img/animes/precure-all-stars-gogo-dream-live/",
      "secao": "legendados",
      "pagina": 76,
      "total_episodios": 1,
      "link_video": "https://animefire.plus/video/precure-all-stars-gogo-dream-live"
    },
    {
      "id": 3023,
      "nome": "Prima Doll",
      "link": "https://animefire.plus/animes/prima-doll-todos-os-episodios",
      "texto_original": "Prima Doll",
      "rating": 7.08,
      "classificacao_etaria": "A14",
      "imagem_original": "https://animefire.plus/img/animes/prima-doll.webp",
      "imagem_pasta": "https://animefire.plus/img/animes/prima-doll/",
      "secao": "legendados",
      "pagina": 31,
      "total_episodios": 12,
      "link_video": "https://animefire.plus/video/prima-doll"
    },
    {
      "id": 3024,
      "nome": "Prince of Stride: Alternative",
      "link": "https://animefire.plus/animes/prince-of-stride-alternative-todos-os-episodios",
      "texto_original": "Prince of Stride: Alternative",
      "rating": 7.01,
      "classificacao_etaria": "A14",
      "imagem_original": "https://animefire.plus/img/animes/prince-of-stride-alternative.webp",
      "imagem_pasta": "https://animefire.plus/img/animes/prince-of-stride-alternative/",
      "secao": "legendados",
      "pagina": 149,
      "total_episodios": 12,
      "link_video": "https://animefire.plus/video/prince-of-stride-alternative"
    },
    {
      "id": 3025,
      "nome": "Princess Connect! Re:Dive",
      "link": "https://animefire.plus/animes/princess-connect-re-dive-todos-os-episodios",
      "texto_original": "Princess Connect! Re:Dive",
      "rating": 7.06,
      "classificacao_etaria": "A14",
      "imagem_original": "https://animefire.plus/img/animes/princess-connect-re-dive.webp",
      "imagem_pasta": "https://animefire.plus/img/animes/princess-connect-re-dive/",
      "secao": "legendados",
      "pagina": 81,
      "total_episodios": 1,
      "link_video": "https://animefire.plus/video/princess-connect-re-dive"
    },
    {
      "id": 3026,
      "nome": "Princess Connect! Re:Dive Season 2",
      "link": "https://animefire.plus/animes/princess-connect-re-dive-season-2-todos-os-episodios",
      "texto_original": "Princess Connect! Re:Dive Season 2",
      "rating": 7.77,
      "classificacao_etaria": "A14",
      "imagem_original": "https://animefire.plus/img/animes/princess-connect-re-dive-season-2.webp",
      "imagem_pasta": "https://animefire.plus/img/animes/princess-connect-re-dive-season-2/",
      "secao": "legendados",
      "pagina": 36,
      "total_episodios": 12,
      "link_video": "https://animefire.plus/video/princess-connect-re-dive-season-2"
    },
    {
      "id": 3027,
      "nome": "Princess Lover!",
      "link": "https://animefire.plus/animes/princess-lover-todos-os-episodios",
      "texto_original": "Princess Lover!",
      "rating": 6.92,
      "classificacao_etaria": "A18",
      "imagem_original": "https://animefire.plus/img/animes/princess-lover.webp",
      "imagem_pasta": "https://animefire.plus/img/animes/princess-lover/",
      "secao": "legendados",
      "pagina": 151,
      "total_episodios": 12,
      "link_video": "https://animefire.plus/video/princess-lover"
    },
    {
      "id": 3028,
      "nome": "Princess Minerva",
      "link": "https://animefire.plus/animes/princess-minerva-todos-os-episodios",
      "texto_original": "Princess Minerva",
      "rating": 5.58,
      "classificacao_etaria": "A18",
      "imagem_original": "https://animefire.plus/img/animes/princess-minerva.webp",
      "imagem_pasta": "https://animefire.plus/img/animes/princess-minerva/",
      "secao": "legendados",
      "pagina": 69,
      "total_episodios": 1,
      "link_video": "https://animefire.plus/video/princess-minerva"
    },
    {
      "id": 3029,
      "nome": "Princess Princess",
      "link": "https://animefire.plus/animes/princess-princess-todos-os-episodios",
      "texto_original": "Princess Princess",
      "rating": 7.11,
      "classificacao_etaria": "A14",
      "imagem_original": "https://animefire.plus/img/animes/princess-princess.webp",
      "imagem_pasta": "https://animefire.plus/img/animes/princess-princess/",
      "secao": "legendados",
      "pagina": 118,
      "total_episodios": 12,
      "link_video": "https://animefire.plus/video/princess-princess"
    },
    {
      "id": 3030,
      "nome": "Princess Principal",
      "link": "https://animefire.plus/animes/princess-principal-todos-os-episodios",
      "texto_original": "Princess Principal",
      "rating": 7.7,
      "classificacao_etaria": "A16",
      "imagem_original": "https://animefire.plus/img/animes/princess-principal.webp",
      "imagem_pasta": "https://animefire.plus/img/animes/princess-principal/",
      "secao": "legendados",
      "pagina": 123,
      "total_episodios": 12,
      "link_video": "https://animefire.plus/video/princess-principal"
    }
  ],
  "pagination": {
    "current_page": 148,
    "per_page": 20,
    "total_items": 4269,
    "total_pages": 214,
    "has_next": true,
    "has_prev": true
  }
}
