{
  "message": "Animes da seção: legendados",
  "section": "legendados",
  "data": [
    {
      "id": 4153,
      "nome": "Working!!",
      "link": "https://animefire.plus/animes/working-todos-os-episodios",
      "texto_original": "Working!!",
      "rating": 7.77,
      "classificacao_etaria": "A14",
      "imagem_original": "https://animefire.plus/img/animes/working.webp",
      "imagem_pasta": "https://animefire.plus/img/animes/working/",
      "secao": "legendados",
      "pagina": 165,
      "total_episodios": 13,
      "link_video": "https://animefire.plus/video/working"
    },
    {
      "id": 4154,
      "nome": "Working!!!",
      "link": "https://animefire.plus/animes/wagnaria-3-todos-os-episodios",
      "texto_original": "Working!!!",
      "rating": 8.07,
      "classificacao_etaria": "A14",
      "imagem_original": "https://animefire.plus/img/animes/wagnaria-3.webp",
      "imagem_pasta": "https://animefire.plus/img/animes/wagnaria-3/",
      "secao": "legendados",
      "pagina": 72,
      "total_episodios": 13,
      "link_video": "https://animefire.plus/video/wagnaria-3"
    },
    {
      "id": 4155,
      "nome": "World Destruction: Sekai Bokumetsu no Rokunin",
      "link": "https://animefire.plus/animes/world-destruction-sekai-bokumetsu-no-rokunin-todos-os-episodios",
      "texto_original": "World Destruction: Sekai Bokumetsu no Rokunin",
      "rating": 7.04,
      "classificacao_etaria": "A14",
      "imagem_original": "https://animefire.plus/img/animes/world-destruction-sekai-bokumetsu-no-rokunin.webp",
      "imagem_pasta": "https://animefire.plus/img/animes/world-destruction-sekai-bokumetsu-no-rokunin/",
      "secao": "legendados",
      "pagina": 124,
      "total_episodios": 13,
      "link_video": "https://animefire.plus/video/world-destruction-sekai-bokumetsu-no-rokunin"
    },
    {
      "id": 4156,
      "nome": "World Trigger",
      "link": "https://animefire.plus/animes/world-trigger-todos-os-episodios",
      "texto_original": "World Trigger",
      "rating": 7.59,
      "classificacao_etaria": "A14",
      "imagem_original": "https://animefire.plus/img/animes/world-trigger.webp",
      "imagem_pasta": "https://animefire.plus/img/animes/world-trigger/",
      "secao": "legendados",
      "pagina": 53,
      "total_episodios": 73,
      "link_video": "https://animefire.plus/video/world-trigger"
    },
    {
      "id": 4157,
      "nome": "World Trigger 2nd Season",
      "link": "https://animefire.plus/animes/world-trigger-2nd-season-todos-os-episodios",
      "texto_original": "World Trigger 2nd Season",
      "rating": 8.04,
      "classificacao_etaria": "A14",
      "imagem_original": "https://animefire.plus/img/animes/world-trigger-2nd-season.webp",
      "imagem_pasta": "https://animefire.plus/img/animes/world-trigger-2nd-season/",
      "secao": "legendados",
      "pagina": 49,
      "total_episodios": 12,
      "link_video": "https://animefire.plus/video/world-trigger-2nd-season"
    },
    {
      "id": 4158,
      "nome": "World Trigger 3rd Season",
      "link": "https://animefire.plus/animes/world-trigger-3rd-season-todos-os-episodios",
      "texto_original": "World Trigger 3rd Season",
      "rating": 8.25,
      "classificacao_etaria": "A14",
      "imagem_original": "https://animefire.plus/img/animes/world-trigger-3rd-season.webp",
      "imagem_pasta": "https://animefire.plus/img/animes/world-trigger-3rd-season/",
      "secao": "legendados",
      "pagina": 37,
      "total_episodios": 14,
      "link_video": "https://animefire.plus/video/world-trigger-3rd-season"
    },
    {
      "id": 4159,
      "nome": "World Witches Hasshin Shimasu!",
      "link": "https://animefire.plus/animes/world-witches-hasshin-shimasu-todos-os-episodios",
      "texto_original": "World Witches Hasshin Shimasu!",
      "rating": 6.5,
      "classificacao_etaria": "A14",
      "imagem_original": "https://animefire.plus/img/animes/world-witches-hasshin-shimasu.webp",
      "imagem_pasta": "https://animefire.plus/img/animes/world-witches-hasshin-shimasu/",
      "secao": "legendados",
      "pagina": 48,
      "total_episodios": 12,
      "link_video": "https://animefire.plus/video/world-witches-hasshin-shimasu"
    },
    {
      "id": 4160,
      "nome": "Wotaku ni Koi wa Muzukashii",
      "link": "https://animefire.plus/animes/wotaku-ni-koi-wa-muzukashii-todos-os-episodios",
      "texto_original": "Wotaku ni Koi wa Muzukashii",
      "rating": 8.06,
      "classificacao_etaria": "A14",
      "imagem_original": "https://animefire.plus/img/animes/wotaku-ni-koi-wa-muzukashii.webp",
      "imagem_pasta": "https://animefire.plus/img/animes/wotaku-ni-koi-wa-muzukashii/",
      "secao": "legendados",
      "pagina": 174,
      "total_episodios": 11,
      "link_video": "https://animefire.plus/video/wotaku-ni-koi-wa-muzukashii"
    },
    {
      "id": 4161,
      "nome": "Wotaku ni Koi wa Muzukashii: Youth",
      "link": "https://animefire.plus/animes/wotaku-ni-koi-wa-muzukashii-youth-todos-os-episodios",
      "texto_original": "Wotaku ni Koi wa Muzukashii: Youth",
      "rating": 7.86,
      "classificacao_etaria": "A14",
      "imagem_original": "https://animefire.plus/img/animes/wotaku-ni-koi-wa-muzukashii-youth.webp",
      "imagem_pasta": "https://animefire.plus/img/animes/wotaku-ni-koi-wa-muzukashii-youth/",
      "secao": "legendados",
      "pagina": 88,
      "total_episodios": 1,
      "link_video": "https://animefire.plus/video/wotaku-ni-koi-wa-muzukashii-youth"
    },
    {
      "id": 4162,
      "nome": "Wu Geng Ji",
      "link": "https://animefire.plus/animes/wu-geng-ji-todos-os-episodios",
      "texto_original": "Wu Geng Ji",
      "rating": 7.6,
      "classificacao_etaria": "A14",
      "imagem_original": "https://animefire.plus/img/animes/wu-geng-ji.webp",
      "imagem_pasta": "https://animefire.plus/img/animes/wu-geng-ji/",
      "secao": "legendados",
      "pagina": 144,
      "total_episodios": 30,
      "link_video": "https://animefire.plus/video/wu-geng-ji"
    },
    {
      "id": 4163,
      "nome": "Wu Shan Wu Xing",
      "link": "https://animefire.plus/animes/wu-shan-wu-xing-todos-os-episodios",
      "texto_original": "Wu Shan Wu Xing",
      "rating": 8.02,
      "classificacao_etaria": "A16",
      "imagem_original": "https://animefire.plus/img/animes/wu-shan-wu-xing.webp",
      "imagem_pasta": "https://animefire.plus/img/animes/wu-shan-wu-xing/",
      "secao": "legendados",
      "pagina": 48,
      "total_episodios": 3,
      "link_video": "https://animefire.plus/video/wu-shan-wu-xing"
    },
    {
      "id": 4164,
      "nome": "Wu Shen Zhu Zai",
      "link": "https://animefire.plus/animes/wu-shen-zhu-zai-todos-os-episodios",
      "texto_original": "Wu Shen Zhu Zai",
      "rating": 7.07,
      "classificacao_etaria": "A14",
      "imagem_original": "https://animefire.plus/img/animes/wu-shen-zhu-zai.webp",
      "imagem_pasta": "https://animefire.plus/img/animes/wu-shen-zhu-zai/",
      "secao": "legendados",
      "pagina": 72,
      "total_episodios": 25,
      "link_video": "https://animefire.plus/video/wu-shen-zhu-zai"
    },
    {
      "id": 4165,
      "nome": "WWW.Working!!",
      "link": "https://animefire.plus/animes/www-working-todos-os-episodios",
      "texto_original": "WWW.Working!!",
      "rating": 7.52,
      "classificacao_etaria": "A14",
      "imagem_original": "https://animefire.plus/img/animes/www-working.webp",
      "imagem_pasta": "https://animefire.plus/img/animes/www-working/",
      "secao": "legendados",
      "pagina": 135,
      "total_episodios": 8,
      "link_video": "https://animefire.plus/video/www-working"
    },
    {
      "id": 4166,
      "nome": "X-Men",
      "link": "https://animefire.plus/animes/x-men-todos-os-episodios",
      "texto_original": "X-Men",
      "rating": 6.44,
      "classificacao_etaria": "A14",
      "imagem_original": "https://animefire.plus/img/animes/x-men.webp",
      "imagem_pasta": "https://animefire.plus/img/animes/x-men/",
      "secao": "legendados",
      "pagina": 139,
      "total_episodios": 0,
      "link_video": "https://animefire.plus/video/x-men"
    },
    {
      "id": 4167,
      "nome": "Xenosaga The Animation",
      "link": "https://animefire.plus/animes/xenosaga-the-animation-todos-os-episodios",
      "texto_original": "Xenosaga The Animation",
      "rating": 6.42,
      "classificacao_etaria": "A14",
      "imagem_original": "https://animefire.plus/img/animes/xenosaga-the-animation.webp",
      "imagem_pasta": "https://animefire.plus/img/animes/xenosaga-the-animation/",
      "secao": "legendados",
      "pagina": 135,
      "total_episodios": 12,
      "link_video": "https://animefire.plus/video/xenosaga-the-animation"
    },
    {
      "id": 4168,
      "nome": "Xia Gan Yi Dan Shen Jianxin",
      "link": "https://animefire.plus/animes/xia-gan-yi-dan-shen-jianxin-todos-os-episodios",
      "texto_original": "Xia Gan Yi Dan Shen Jianxin",
      "rating": 7.14,
      "classificacao_etaria": "A14",
      "imagem_original": "https://animefire.plus/img/animes/xia-gan-yi-dan-shen-jianxin.webp",
      "imagem_pasta": "https://animefire.plus/img/animes/xia-gan-yi-dan-shen-jianxin/",
      "secao": "legendados",
      "pagina": 81,
      "total_episodios": 12,
      "link_video": "https://animefire.plus/video/xia-gan-yi-dan-shen-jianxin"
    },
    {
      "id": 4169,
      "nome": "Xian Feng Jian Yu Lu",
      "link": "https://animefire.plus/animes/xian-feng-jian-yu-lu-todos-os-episodios",
      "texto_original": "Xian Feng Jian Yu Lu",
      "rating": null,
      "classificacao_etaria": null,
      "imagem_original": "https://animefire.plus/img/animes/xian-feng-jian-yu-lu.webp",
      "imagem_pasta": "https://animefire.plus/img/animes/xian-feng-jian-yu-lu/",
      "secao": "legendados,lancamentos",
      "pagina": 57,
      "total_episodios": 1,
      "link_video": "https://animefire.plus/video/xian-feng-jian-yu-lu"
    },
    {
      "id": 4170,
      "nome": "Xian Wang de Richang Shenghuo",
      "link": "https://animefire.plus/animes/xian-wang-de-richang-shenghuo-todos-os-episodios",
      "texto_original": "Xian Wang de Richang Shenghuo",
      "rating": 7.19,
      "classificacao_etaria": "A14",
      "imagem_original": "https://animefire.plus/img/animes/xian-wang-de-richang-shenghuo.webp",
      "imagem_pasta": "https://animefire.plus/img/animes/xian-wang-de-richang-shenghuo/",
      "secao": "legendados",
      "pagina": 91,
      "total_episodios": 15,
      "link_video": "https://animefire.plus/video/xian-wang-de-richang-shenghuo"
    },
    {
      "id": 4171,
      "nome": "Xian Wang de Richang Shenghuo 2nd Season",
      "link": "https://animefire.plus/animes/xian-wang-de-richang-shenghuo-2nd-season-todos-os-episodios",
      "texto_original": "Xian Wang de Richang Shenghuo 2nd Season",
      "rating": 7.38,
      "classificacao_etaria": "A14",
      "imagem_original": "https://animefire.plus/img/animes/xian-wang-de-richang-shenghuo-2nd-season.webp",
      "imagem_pasta": "https://animefire.plus/img/animes/xian-wang-de-richang-shenghuo-2nd-season/",
      "secao": "legendados,lancamentos",
      "pagina": 38,
      "total_episodios": 1,
      "link_video": "https://animefire.plus/video/xian-wang-de-richang-shenghuo-2nd-season"
    },
    {
      "id": 4172,
      "nome": "Xian Wang de Richang Shenghuo 3",
      "link": "https://animefire.plus/animes/xian-wang-de-richang-shenghuo-3-todos-os-episodios",
      "texto_original": "Xian Wang de Richang Shenghuo 3",
      "rating": 7.35,
      "classificacao_etaria": "A14",
      "imagem_original": "https://animefire.plus/img/animes/xian-wang-de-richang-shenghuo-3.webp",
      "imagem_pasta": "https://animefire.plus/img/animes/xian-wang-de-richang-shenghuo-3/",
      "secao": "legendados",
      "pagina": 28,
      "total_episodios": 12,
      "link_video": "https://animefire.plus/video/xian-wang-de-richang-shenghuo-3"
    }
  ],
  "pagination": {
    "current_page": 204,
    "per_page": 20,
    "total_items": 4269,
    "total_pages": 214,
    "has_next": true,
    "has_prev": true
  }
}
