{
  "message": "Animes da seção: legendados",
  "section": "legendados",
  "data": [
    {
      "id": 3072,
      "nome": "Rainbow: Nisha Rokubou no Shichinin",
      "link": "https://animefire.plus/animes/rainbow-nisha-rokubou-no-shichinin-todos-os-episodios",
      "texto_original": "Rainbow: Nisha Rokubou no Shichinin",
      "rating": 8.56,
      "classificacao_etaria": "A16",
      "imagem_original": "https://animefire.plus/img/animes/rainbow-nisha-rokubou-no-shichinin.webp",
      "imagem_pasta": "https://animefire.plus/img/animes/rainbow-nisha-rokubou-no-shichinin/",
      "secao": "legendados",
      "pagina": 141,
      "total_episodios": 26,
      "link_video": "https://animefire.plus/video/rainbow-nisha-rokubou-no-shichinin"
    },
    {
      "id": 3073,
      "nome": "Raise wa Tanin ga Ii",
      "link": "https://animefire.plus/animes/raise-wa-tanin-ga-ii-todos-os-episodios",
      "texto_original": "Raise wa Tanin ga Ii",
      "rating": 7.18,
      "classificacao_etaria": "A14",
      "imagem_original": "https://animefire.plus/img/animes/raise-wa-tanin-ga-ii.webp",
      "imagem_pasta": "https://animefire.plus/img/animes/raise-wa-tanin-ga-ii/",
      "secao": "legendados",
      "pagina": 9,
      "total_episodios": 12,
      "link_video": "https://animefire.plus/video/raise-wa-tanin-ga-ii"
    },
    {
      "id": 3074,
      "nome": "Rakudai Kishi No Cavalry",
      "link": "https://animefire.plus/animes/rakudai-kishi-no-cavalry-todos-os-episodios",
      "texto_original": "Rakudai Kishi No Cavalry",
      "rating": 7.71,
      "classificacao_etaria": "A16",
      "imagem_original": "https://animefire.plus/img/animes/rakudai-kishi-no-cavalry.webp",
      "imagem_pasta": "https://animefire.plus/img/animes/rakudai-kishi-no-cavalry/",
      "secao": "legendados",
      "pagina": 99,
      "total_episodios": 12,
      "link_video": "https://animefire.plus/video/rakudai-kishi-no-cavalry"
    },
    {
      "id": 3075,
      "nome": "Rakugo Tennyo Oyui",
      "link": "https://animefire.plus/animes/rakugo-tennyo-oyui-todos-os-episodios",
      "texto_original": "Rakugo Tennyo Oyui",
      "rating": 6.09,
      "classificacao_etaria": "A14",
      "imagem_original": "https://animefire.plus/img/animes/rakugo-tennyo-oyui.webp",
      "imagem_pasta": "https://animefire.plus/img/animes/rakugo-tennyo-oyui/",
      "secao": "legendados",
      "pagina": 166,
      "total_episodios": 12,
      "link_video": "https://animefire.plus/video/rakugo-tennyo-oyui"
    },
    {
      "id": 3076,
      "nome": "Ramen Akaneko",
      "link": "https://animefire.plus/animes/ramen-akaneko-todos-os-episodios",
      "texto_original": "Ramen Akaneko",
      "rating": 7.38,
      "classificacao_etaria": "A14",
      "imagem_original": "https://animefire.plus/img/animes/ramen-akaneko.webp",
      "imagem_pasta": "https://animefire.plus/img/animes/ramen-akaneko/",
      "secao": "legendados",
      "pagina": 12,
      "total_episodios": 12,
      "link_video": "https://animefire.plus/video/ramen-akaneko"
    },
    {
      "id": 3077,
      "nome": "Ramen Daisuki Koizumi-san",
      "link": "https://animefire.plus/animes/ramen-daisuki-koizumi-san-todos-os-episodios",
      "texto_original": "Ramen Daisuki Koizumi-san",
      "rating": 6.54,
      "classificacao_etaria": "A14",
      "imagem_original": "https://animefire.plus/img/animes/ramen-daisuki-koizumi-san.webp",
      "imagem_pasta": "https://animefire.plus/img/animes/ramen-daisuki-koizumi-san/",
      "secao": "legendados",
      "pagina": 133,
      "total_episodios": 12,
      "link_video": "https://animefire.plus/video/ramen-daisuki-koizumi-san"
    },
    {
      "id": 3078,
      "nome": "Rang Wo Men Shao Ba",
      "link": "https://animefire.plus/animes/rang-wo-men-shao-ba-todos-os-episodios",
      "texto_original": "Rang Wo Men Shao Ba",
      "rating": 6.03,
      "classificacao_etaria": "A14",
      "imagem_original": "https://animefire.plus/img/animes/rang-wo-men-shao-ba.webp",
      "imagem_pasta": "https://animefire.plus/img/animes/rang-wo-men-shao-ba/",
      "secao": "legendados",
      "pagina": 82,
      "total_episodios": 2,
      "link_video": "https://animefire.plus/video/rang-wo-men-shao-ba"
    },
    {
      "id": 3079,
      "nome": "Ranma ½ (2024)",
      "link": "https://animefire.plus/animes/ranma-2024-todos-os-episodios",
      "texto_original": "Ranma ½ (2024)",
      "rating": 8.01,
      "classificacao_etaria": "A14",
      "imagem_original": "https://animefire.plus/img/animes/ranma-2024.webp",
      "imagem_pasta": "https://animefire.plus/img/animes/ranma-2024/",
      "secao": "legendados",
      "pagina": 11,
      "total_episodios": 12,
      "link_video": "https://animefire.plus/video/ranma-2024"
    },
    {
      "id": 3081,
      "nome": "Ranpo Kitan: Game of Laplace",
      "link": "https://animefire.plus/animes/ranpo-kitan-game-of-laplace-todos-os-episodios",
      "texto_original": "Ranpo Kitan: Game of Laplace",
      "rating": 6.67,
      "classificacao_etaria": "A16",
      "imagem_original": "https://animefire.plus/img/animes/ranpo-kitan-game-of-laplace.webp",
      "imagem_pasta": "https://animefire.plus/img/animes/ranpo-kitan-game-of-laplace/",
      "secao": "legendados",
      "pagina": 178,
      "total_episodios": 0,
      "link_video": "https://animefire.plus/video/ranpo-kitan-game-of-laplace"
    },
    {
      "id": 3082,
      "nome": "Ray The Animation",
      "link": "https://animefire.plus/animes/ray-the-animation-todos-os-episodios",
      "texto_original": "Ray The Animation",
      "rating": 6.72,
      "classificacao_etaria": "A14",
      "imagem_original": "https://animefire.plus/img/animes/ray-the-animation.webp",
      "imagem_pasta": "https://animefire.plus/img/animes/ray-the-animation/",
      "secao": "legendados",
      "pagina": 131,
      "total_episodios": 13,
      "link_video": "https://animefire.plus/video/ray-the-animation"
    },
    {
      "id": 3083,
      "nome": "RD Sennou Chousashitsu",
      "link": "https://animefire.plus/animes/rd-sennou-chousashitsu-todos-os-episodios",
      "texto_original": "RD Sennou Chousashitsu",
      "rating": 7.17,
      "classificacao_etaria": "A16",
      "imagem_original": "https://animefire.plus/img/animes/rd-sennou-chousashitsu.webp",
      "imagem_pasta": "https://animefire.plus/img/animes/rd-sennou-chousashitsu/",
      "secao": "legendados",
      "pagina": 161,
      "total_episodios": 26,
      "link_video": "https://animefire.plus/video/rd-sennou-chousashitsu"
    },
    {
      "id": 3084,
      "nome": "RDG: Red Data Girl",
      "link": "https://animefire.plus/animes/rdg-red-data-girl-todos-os-episodios",
      "texto_original": "RDG: Red Data Girl",
      "rating": 6.65,
      "classificacao_etaria": "A14",
      "imagem_original": "https://animefire.plus/img/animes/rdg-red-data-girl.webp",
      "imagem_pasta": "https://animefire.plus/img/animes/rdg-red-data-girl/",
      "secao": "legendados",
      "pagina": 175,
      "total_episodios": 4,
      "link_video": "https://animefire.plus/video/rdg-red-data-girl"
    },
    {
      "id": 3085,
      "nome": "Re-Kan!",
      "link": "https://animefire.plus/animes/re-kan-todos-os-episodios",
      "texto_original": "Re-Kan!",
      "rating": 6.8,
      "classificacao_etaria": "A14",
      "imagem_original": "https://animefire.plus/img/animes/re-kan.webp",
      "imagem_pasta": "https://animefire.plus/img/animes/re-kan/",
      "secao": "legendados",
      "pagina": 91,
      "total_episodios": 4,
      "link_video": "https://animefire.plus/video/re-kan"
    },
    {
      "id": 3086,
      "nome": "Re-Main (Dublado)",
      "link": "https://animefire.plus/animes/re-main-dublado-todos-os-episodios",
      "texto_original": "Re-Main (Dublado)",
      "rating": 7.19,
      "classificacao_etaria": "A14",
      "imagem_original": "https://animefire.plus/img/animes/re-main.webp",
      "imagem_pasta": "https://animefire.plus/img/animes/re-main/",
      "secao": "dublados,legendados",
      "pagina": 11,
      "total_episodios": 12,
      "link_video": "https://animefire.plus/video/re-main-dublado"
    },
    {
      "id": 3087,
      "nome": "Re:␣Hamatora",
      "link": "https://animefire.plus/animes/re-hamatora-todos-os-episodios",
      "texto_original": "Re:␣Hamatora",
      "rating": 7.45,
      "classificacao_etaria": "A16",
      "imagem_original": "https://animefire.plus/img/animes/re-hamatora.webp",
      "imagem_pasta": "https://animefire.plus/img/animes/re-hamatora/",
      "secao": "legendados",
      "pagina": 91,
      "total_episodios": 12,
      "link_video": "https://animefire.plus/video/re-hamatora"
    },
    {
      "id": 3088,
      "nome": "Re:Creators",
      "link": "https://animefire.plus/animes/re-creators-todos-os-episodios",
      "texto_original": "Re:Creators",
      "rating": 7.64,
      "classificacao_etaria": "A16",
      "imagem_original": "https://animefire.plus/img/animes/re-creators.webp",
      "imagem_pasta": "https://animefire.plus/img/animes/re-creators/",
      "secao": "legendados",
      "pagina": 121,
      "total_episodios": 22,
      "link_video": "https://animefire.plus/video/re-creators"
    },
    {
      "id": 3089,
      "nome": "Re:Monster (Dublado)",
      "link": "https://animefire.plus/animes/re-monster-dublado-todos-os-episodios",
      "texto_original": "Re:Monster (Dublado)",
      "rating": 6.55,
      "classificacao_etaria": "A14",
      "imagem_original": "https://animefire.plus/img/animes/re-monster.webp",
      "imagem_pasta": "https://animefire.plus/img/animes/re-monster/",
      "secao": "dublados,legendados,lancamentos",
      "pagina": 3,
      "total_episodios": 12,
      "link_video": "https://animefire.plus/video/re-monster-dublado"
    },
    {
      "id": 3090,
      "nome": "Re:Stage! Dream Days♪",
      "link": "https://animefire.plus/animes/re-stage-dream-days-todos-os-episodios",
      "texto_original": "Re:Stage! Dream Days♪",
      "rating": 6.69,
      "classificacao_etaria": "A14",
      "imagem_original": "https://animefire.plus/img/animes/re-stage-dream-days.webp",
      "imagem_pasta": "https://animefire.plus/img/animes/re-stage-dream-days/",
      "secao": "legendados",
      "pagina": 158,
      "total_episodios": 4,
      "link_video": "https://animefire.plus/video/re-stage-dream-days"
    },
    {
      "id": 3091,
      "nome": "Re:Zero kara Hajimeru Isekai Seikatsu - Memory Snow",
      "link": "https://animefire.plus/animes/re-zero-kara-hajimeru-isekai-seikatsu---memory-snow-todos-os-episodios",
      "texto_original": "Re:Zero kara Hajimeru Isekai Seikatsu - Memory Snow",
      "rating": 7.65,
      "classificacao_etaria": "A14",
      "imagem_original": "https://animefire.plus/img/animes/re-zero-kara-hajimeru-isekai-seikatsu---memory-snow.webp",
      "imagem_pasta": "https://animefire.plus/img/animes/re-zero-kara-hajimeru-isekai-seikatsu---memory-snow/",
      "secao": "legendados",
      "pagina": 98,
      "total_episodios": 1,
      "link_video": "https://animefire.plus/video/re-zero-kara-hajimeru-isekai-seikatsu---memory-snow"
    },
    {
      "id": 3092,
      "nome": "Re:Zero kara Hajimeru Isekai Seikatsu (Dublado)",
      "link": "https://animefire.plus/animes/re-zero-kara-hajimeru-isekai-seikatsu-dublado-todos-os-episodios",
      "texto_original": "Re:Zero kara Hajimeru Isekai Seikatsu (Dublado)",
      "rating": 8.35,
      "classificacao_etaria": "A16",
      "imagem_original": "https://animefire.plus/img/animes/re-zero-kara-hajimeru-isekai-seikatsu.webp",
      "imagem_pasta": "https://animefire.plus/img/animes/re-zero-kara-hajimeru-isekai-seikatsu/",
      "secao": "dublados,legendados",
      "pagina": 26,
      "total_episodios": 26,
      "link_video": "https://animefire.plus/video/re-zero-kara-hajimeru-isekai-seikatsu-dublado"
    }
  ],
  "pagination": {
    "current_page": 151,
    "per_page": 20,
    "total_items": 4269,
    "total_pages": 214,
    "has_next": true,
    "has_prev": true
  }
}
