{
  "message": "Animes da seção: legendados",
  "section": "legendados",
  "data": [
    {
      "id": 913,
      "nome": "Dynamic Chord",
      "link": "https://animefire.plus/animes/dynamic-chord-todos-os-episodios",
      "texto_original": "Dynamic Chord",
      "rating": 4.68,
      "classificacao_etaria": "A14",
      "imagem_original": "https://animefire.plus/img/animes/dynamic-chord.webp",
      "imagem_pasta": "https://animefire.plus/img/animes/dynamic-chord/",
      "secao": "legendados",
      "pagina": 164,
      "total_episodios": 10,
      "link_video": "https://animefire.plus/video/dynamic-chord"
    },
    {
      "id": 914,
      "nome": "Early Reins",
      "link": "https://animefire.plus/animes/early-reins-todos-os-episodios",
      "texto_original": "Early Reins",
      "rating": 5.93,
      "classificacao_etaria": "A16",
      "imagem_original": "https://animefire.plus/img/animes/early-reins.webp",
      "imagem_pasta": "https://animefire.plus/img/animes/early-reins/",
      "secao": "legendados",
      "pagina": 66,
      "total_episodios": 1,
      "link_video": "https://animefire.plus/video/early-reins"
    },
    {
      "id": 915,
      "nome": "Eat-Man",
      "link": "https://animefire.plus/animes/eat-man-todos-os-episodios",
      "texto_original": "Eat-Man",
      "rating": 6.57,
      "classificacao_etaria": "A16",
      "imagem_original": "https://animefire.plus/img/animes/eat-man.webp",
      "imagem_pasta": "https://animefire.plus/img/animes/eat-man/",
      "secao": "legendados",
      "pagina": 105,
      "total_episodios": 12,
      "link_video": "https://animefire.plus/video/eat-man"
    },
    {
      "id": 916,
      "nome": "Eat-Man '98",
      "link": "https://animefire.plus/animes/eat-man-98-todos-os-episodios",
      "texto_original": "Eat-Man '98",
      "rating": 6.84,
      "classificacao_etaria": "A14",
      "imagem_original": "https://animefire.plus/img/animes/eat-man-98.webp",
      "imagem_pasta": "https://animefire.plus/img/animes/eat-man-98/",
      "secao": "legendados",
      "pagina": 97,
      "total_episodios": 12,
      "link_video": "https://animefire.plus/video/eat-man-98"
    },
    {
      "id": 917,
      "nome": "Ebiten: Kouritsu Ebisugawa Koukou Tenmonbu",
      "link": "https://animefire.plus/animes/ebiten-kouritsu-ebisugawa-koukou-tenmonbu-todos-os-episodios",
      "texto_original": "Ebiten: Kouritsu Ebisugawa Koukou Tenmonbu",
      "rating": 6.27,
      "classificacao_etaria": "A18",
      "imagem_original": "https://animefire.plus/img/animes/ebiten-kouritsu-ebisugawa-koukou-tenmonbu.webp",
      "imagem_pasta": "https://animefire.plus/img/animes/ebiten-kouritsu-ebisugawa-koukou-tenmonbu/",
      "secao": "legendados",
      "pagina": 99,
      "total_episodios": 10,
      "link_video": "https://animefire.plus/video/ebiten-kouritsu-ebisugawa-koukou-tenmonbu"
    },
    {
      "id": 918,
      "nome": "Eden (ONA) (Dublado)",
      "link": "https://animefire.plus/animes/eden-ona-dublado-todos-os-episodios",
      "texto_original": "Eden (ONA) (Dublado)",
      "rating": 6.39,
      "classificacao_etaria": "A14",
      "imagem_original": "https://animefire.plus/img/animes/eden-ona.webp",
      "imagem_pasta": "https://animefire.plus/img/animes/eden-ona/",
      "secao": "dublados,legendados",
      "pagina": 17,
      "total_episodios": 3,
      "link_video": "https://animefire.plus/video/eden-ona-dublado"
    },
    {
      "id": 919,
      "nome": "Edens Zero (Dublado)",
      "link": "https://animefire.plus/animes/edens-zero-dublado-todos-os-episodios",
      "texto_original": "Edens Zero (Dublado)",
      "rating": 7.26,
      "classificacao_etaria": "A14",
      "imagem_original": "https://animefire.plus/img/animes/edens-zero.webp",
      "imagem_pasta": "https://animefire.plus/img/animes/edens-zero/",
      "secao": "dublados,legendados",
      "pagina": 16,
      "total_episodios": 25,
      "link_video": "https://animefire.plus/video/edens-zero-dublado"
    },
    {
      "id": 920,
      "nome": "Edens Zero 2nd Season",
      "link": "https://animefire.plus/animes/edens-zero-2nd-season-todos-os-episodios",
      "texto_original": "Edens Zero 2nd Season",
      "rating": 7.43,
      "classificacao_etaria": "A14",
      "imagem_original": "https://animefire.plus/img/animes/edens-zero-2nd-season.jpg",
      "imagem_pasta": "https://animefire.plus/img/animes/edens-zero-2nd-season/",
      "secao": "legendados",
      "pagina": 24,
      "total_episodios": 25,
      "link_video": "https://animefire.plus/video/edens-zero-2nd-season"
    },
    {
      "id": 921,
      "nome": "Edomae Elf",
      "link": "https://animefire.plus/animes/edomae-elf-todos-os-episodios",
      "texto_original": "Edomae Elf",
      "rating": 7.25,
      "classificacao_etaria": "A14",
      "imagem_original": "https://animefire.plus/img/animes/edomae-elf.jpg",
      "imagem_pasta": "https://animefire.plus/img/animes/edomae-elf/",
      "secao": "legendados",
      "pagina": 23,
      "total_episodios": 12,
      "link_video": "https://animefire.plus/video/edomae-elf"
    },
    {
      "id": 922,
      "nome": "ef: A Tale of Melodies.",
      "link": "https://animefire.plus/animes/ef-a-tale-of-melodies-todos-os-episodios",
      "texto_original": "ef: A Tale of Melodies.",
      "rating": 8.09,
      "classificacao_etaria": "A14",
      "imagem_original": "https://animefire.plus/img/animes/ef-a-tale-of-melodies.webp",
      "imagem_pasta": "https://animefire.plus/img/animes/ef-a-tale-of-melodies/",
      "secao": "legendados",
      "pagina": 168,
      "total_episodios": 12,
      "link_video": "https://animefire.plus/video/ef-a-tale-of-melodies"
    },
    {
      "id": 923,
      "nome": "ef: A Tale of Memories.",
      "link": "https://animefire.plus/animes/ef-a-tale-of-memories-todos-os-episodios",
      "texto_original": "ef: A Tale of Memories.",
      "rating": 8.02,
      "classificacao_etaria": "A14",
      "imagem_original": "https://animefire.plus/img/animes/ef-a-tale-of-memories.webp",
      "imagem_pasta": "https://animefire.plus/img/animes/ef-a-tale-of-memories/",
      "secao": "legendados",
      "pagina": 173,
      "total_episodios": 12,
      "link_video": "https://animefire.plus/video/ef-a-tale-of-memories"
    },
    {
      "id": 924,
      "nome": "Egao no Daika",
      "link": "https://animefire.plus/animes/egao-no-daika-todos-os-episodios",
      "texto_original": "Egao no Daika",
      "rating": 6.06,
      "classificacao_etaria": "A14",
      "imagem_original": "https://animefire.plus/img/animes/egao-no-daika.webp",
      "imagem_pasta": "https://animefire.plus/img/animes/egao-no-daika/",
      "secao": "legendados",
      "pagina": 98,
      "total_episodios": 12,
      "link_video": "https://animefire.plus/video/egao-no-daika"
    },
    {
      "id": 926,
      "nome": "Eikoku Koi Monogatari Emma",
      "link": "https://animefire.plus/animes/eikoku-koi-monogatari-emma-todos-os-episodios",
      "texto_original": "Eikoku Koi Monogatari Emma",
      "rating": 7.68,
      "classificacao_etaria": null,
      "imagem_original": "https://animefire.plus/img/animes/eikoku-koi-monogatari-emma.webp",
      "imagem_pasta": "https://animefire.plus/img/animes/eikoku-koi-monogatari-emma/",
      "secao": "legendados",
      "pagina": 55,
      "total_episodios": 12,
      "link_video": "https://animefire.plus/video/eikoku-koi-monogatari-emma"
    },
    {
      "id": 927,
      "nome": "Eikoku Koi Monogatari Emma: Molders-hen",
      "link": "https://animefire.plus/animes/eikoku-koi-monogatari-emma-molders-hen-todos-os-episodios",
      "texto_original": "Eikoku Koi Monogatari Emma: Molders-hen",
      "rating": 7.89,
      "classificacao_etaria": null,
      "imagem_original": "https://animefire.plus/img/animes/eikoku-koi-monogatari-emma-molders-hen.webp",
      "imagem_pasta": "https://animefire.plus/img/animes/eikoku-koi-monogatari-emma-molders-hen/",
      "secao": "legendados",
      "pagina": 56,
      "total_episodios": 13,
      "link_video": "https://animefire.plus/video/eikoku-koi-monogatari-emma-molders-hen"
    },
    {
      "id": 928,
      "nome": "Eiyuu Kyoushitsu (Dublado)",
      "link": "https://animefire.plus/animes/eiyuu-kyoushitsu-dublado-todos-os-episodios",
      "texto_original": "Eiyuu Kyoushitsu (Dublado)",
      "rating": 6.05,
      "classificacao_etaria": "A14",
      "imagem_original": "https://animefire.plus/img/animes/eiyuu-kyoushitsu.webp",
      "imagem_pasta": "https://animefire.plus/img/animes/eiyuu-kyoushitsu/",
      "secao": "dublados,legendados,lancamentos",
      "pagina": 6,
      "total_episodios": 12,
      "link_video": "https://animefire.plus/video/eiyuu-kyoushitsu-dublado"
    },
    {
      "id": 929,
      "nome": "Eiyuuou, Bu wo Kiwameru Tame Tenseisu: Soshite, Sekai Saikyou no Minarai Kishi♀",
      "link": "https://animefire.plus/animes/eiyuuou-bu-wo-kiwameru-tame-tenseisu-soshite-sekai-saikyou-no-minarai-kishi-todos-os-episodios",
      "texto_original": "Eiyuuou, Bu wo Kiwameru Tame Tenseisu: Soshite, Sekai Saikyou no Minarai Kishi♀",
      "rating": 6.56,
      "classificacao_etaria": "A14",
      "imagem_original": "https://animefire.plus/img/animes/eiyuuou-bu-wo-kiwameru-tame-tenseisu-soshite-sekai-saikyou-no-minarai-kishi.webp",
      "imagem_pasta": "https://animefire.plus/img/animes/eiyuuou-bu-wo-kiwameru-tame-tenseisu-soshite-sekai-saikyou-no-minarai-kishi/",
      "secao": "legendados",
      "pagina": 27,
      "total_episodios": 12,
      "link_video": "https://animefire.plus/video/eiyuuou-bu-wo-kiwameru-tame-tenseisu-soshite-sekai-saikyou-no-minarai-kishi"
    },
    {
      "id": 930,
      "nome": "Eizouken ni wa Te wo Dasu na! (Dublado)",
      "link": "https://animefire.plus/animes/eizouken-ni-wa-te-wo-dasu-na-dublado-todos-os-episodios",
      "texto_original": "Eizouken ni wa Te wo Dasu na! (Dublado)",
      "rating": 8.14,
      "classificacao_etaria": "A14",
      "imagem_original": "https://animefire.plus/img/animes/eizouken-ni-wa-te-wo-dasu-na.webp",
      "imagem_pasta": "https://animefire.plus/img/animes/eizouken-ni-wa-te-wo-dasu-na/",
      "secao": "dublados,legendados",
      "pagina": 12,
      "total_episodios": 12,
      "link_video": "https://animefire.plus/video/eizouken-ni-wa-te-wo-dasu-na-dublado"
    },
    {
      "id": 931,
      "nome": "El Cazador de la Bruja",
      "link": "https://animefire.plus/animes/el-cazador-de-la-bruja-todos-os-episodios",
      "texto_original": "El Cazador de la Bruja",
      "rating": 7.28,
      "classificacao_etaria": "A14",
      "imagem_original": "https://animefire.plus/img/animes/el-cazador-de-la-bruja.webp",
      "imagem_pasta": "https://animefire.plus/img/animes/el-cazador-de-la-bruja/",
      "secao": "legendados",
      "pagina": 113,
      "total_episodios": 26,
      "link_video": "https://animefire.plus/video/el-cazador-de-la-bruja"
    },
    {
      "id": 932,
      "nome": "El Hazard 2: The Magnificent World",
      "link": "https://animefire.plus/animes/el-hazard-2-the-magnificent-world-todos-os-episodios",
      "texto_original": "El Hazard 2: The Magnificent World",
      "rating": 6.86,
      "classificacao_etaria": "A14",
      "imagem_original": "https://animefire.plus/img/animes/el-hazard-2-the-magnificent-world.webp",
      "imagem_pasta": "https://animefire.plus/img/animes/el-hazard-2-the-magnificent-world/",
      "secao": "legendados",
      "pagina": 63,
      "total_episodios": 1,
      "link_video": "https://animefire.plus/video/el-hazard-2-the-magnificent-world"
    },
    {
      "id": 933,
      "nome": "El Hazard: The Alternative World",
      "link": "https://animefire.plus/animes/el-hazard-the-alternative-world-todos-os-episodios",
      "texto_original": "El Hazard: The Alternative World",
      "rating": 6.89,
      "classificacao_etaria": "A14",
      "imagem_original": "https://animefire.plus/img/animes/el-hazard-the-alternative-world.webp",
      "imagem_pasta": "https://animefire.plus/img/animes/el-hazard-the-alternative-world/",
      "secao": "legendados",
      "pagina": 99,
      "total_episodios": 13,
      "link_video": "https://animefire.plus/video/el-hazard-the-alternative-world"
    }
  ],
  "pagination": {
    "current_page": 45,
    "per_page": 20,
    "total_items": 4269,
    "total_pages": 214,
    "has_next": true,
    "has_prev": true
  }
}
