{
  "message": "Animes da seção: legendados",
  "section": "legendados",
  "data": [
    {
      "id": 4071,
      "nome": "Vanquished Queens",
      "link": "https://animefire.plus/animes/vanquished-queens-todos-os-episodios",
      "texto_original": "Vanquished Queens",
      "rating": 6.1,
      "classificacao_etaria": "A18",
      "imagem_original": "https://animefire.plus/img/animes/vanquished-queens.webp",
      "imagem_pasta": "https://animefire.plus/img/animes/vanquished-queens/",
      "secao": "legendados",
      "pagina": 76,
      "total_episodios": 4,
      "link_video": "https://animefire.plus/video/vanquished-queens"
    },
    {
      "id": 4072,
      "nome": "Variable Geo",
      "link": "https://animefire.plus/animes/variable-geo-todos-os-episodios",
      "texto_original": "Variable Geo",
      "rating": 5.69,
      "classificacao_etaria": "A18",
      "imagem_original": "https://animefire.plus/img/animes/variable-geo.webp",
      "imagem_pasta": "https://animefire.plus/img/animes/variable-geo/",
      "secao": "legendados",
      "pagina": 138,
      "total_episodios": 3,
      "link_video": "https://animefire.plus/video/variable-geo"
    },
    {
      "id": 4073,
      "nome": "Vatican Kiseki Chousakan",
      "link": "https://animefire.plus/animes/vatican-kiseki-chousakan-todos-os-episodios",
      "texto_original": "Vatican Kiseki Chousakan",
      "rating": 6.43,
      "classificacao_etaria": "A16",
      "imagem_original": "https://animefire.plus/img/animes/vatican-kiseki-chousakan.webp",
      "imagem_pasta": "https://animefire.plus/img/animes/vatican-kiseki-chousakan/",
      "secao": "legendados",
      "pagina": 167,
      "total_episodios": 12,
      "link_video": "https://animefire.plus/video/vatican-kiseki-chousakan"
    },
    {
      "id": 4074,
      "nome": "Vazzrock the Animation",
      "link": "https://animefire.plus/animes/vazzrock-the-animation-todos-os-episodios",
      "texto_original": "Vazzrock the Animation",
      "rating": 5.45,
      "classificacao_etaria": "A14",
      "imagem_original": "https://animefire.plus/img/animes/vazzrock-the-animation.webp",
      "imagem_pasta": "https://animefire.plus/img/animes/vazzrock-the-animation/",
      "secao": "legendados",
      "pagina": 28,
      "total_episodios": 13,
      "link_video": "https://animefire.plus/video/vazzrock-the-animation"
    },
    {
      "id": 4075,
      "nome": "Venus Project: Climax",
      "link": "https://animefire.plus/animes/venus-project-climax-todos-os-episodios",
      "texto_original": "Venus Project: Climax",
      "rating": 5.41,
      "classificacao_etaria": "A14",
      "imagem_original": "https://animefire.plus/img/animes/venus-project-climax.webp",
      "imagem_pasta": "https://animefire.plus/img/animes/venus-project-climax/",
      "secao": "legendados",
      "pagina": 98,
      "total_episodios": 6,
      "link_video": "https://animefire.plus/video/venus-project-climax"
    },
    {
      "id": 4076,
      "nome": "Venus Versus Virus",
      "link": "https://animefire.plus/animes/venus-versus-virus-todos-os-episodios",
      "texto_original": "Venus Versus Virus",
      "rating": 6.47,
      "classificacao_etaria": "A14",
      "imagem_original": "https://animefire.plus/img/animes/venus-versus-virus.webp",
      "imagem_pasta": "https://animefire.plus/img/animes/venus-versus-virus/",
      "secao": "legendados",
      "pagina": 164,
      "total_episodios": 12,
      "link_video": "https://animefire.plus/video/venus-versus-virus"
    },
    {
      "id": 4077,
      "nome": "Video Girl Ai",
      "link": "https://animefire.plus/animes/video-girl-ai-todos-os-episodios",
      "texto_original": "Video Girl Ai",
      "rating": 7.23,
      "classificacao_etaria": "A18",
      "imagem_original": "https://animefire.plus/img/animes/video-girl-ai.webp",
      "imagem_pasta": "https://animefire.plus/img/animes/video-girl-ai/",
      "secao": "legendados",
      "pagina": 77,
      "total_episodios": 6,
      "link_video": "https://animefire.plus/video/video-girl-ai"
    },
    {
      "id": 4079,
      "nome": "Vigilante: Boku no Hero Academia Illegals (Dublado)",
      "link": "https://animefire.plus/animes/vigilante-boku-no-hero-academia-illegals-dublado-todos-os-episodios",
      "texto_original": "Vigilante: Boku no Hero Academia Illegals (Dublado)",
      "rating": 7.62,
      "classificacao_etaria": "A14",
      "imagem_original": "https://animefire.plus/img/animes/vigilante-boku-no-hero-academia-illegals.webp",
      "imagem_pasta": "https://animefire.plus/img/animes/vigilante-boku-no-hero-academia-illegals/",
      "secao": "dublados,legendados,lancamentos",
      "pagina": 1,
      "total_episodios": 13,
      "link_video": "https://animefire.plus/video/vigilante-boku-no-hero-academia-illegals-dublado"
    },
    {
      "id": 4080,
      "nome": "Vinland Saga (Dublado)",
      "link": "https://animefire.plus/animes/vinland-saga-dublado-todos-os-episodios",
      "texto_original": "Vinland Saga (Dublado)",
      "rating": 8.72,
      "classificacao_etaria": "A16",
      "imagem_original": "https://animefire.plus/img/animes/vinland-saga.webp",
      "imagem_pasta": "https://animefire.plus/img/animes/vinland-saga/",
      "secao": "dublados,legendados",
      "pagina": 16,
      "total_episodios": 24,
      "link_video": "https://animefire.plus/video/vinland-saga-dublado"
    },
    {
      "id": 4081,
      "nome": "Vinland Saga Season 2 (Dublado)",
      "link": "https://animefire.plus/animes/vinland-saga-season-2-dublado-todos-os-episodios",
      "texto_original": "Vinland Saga Season 2 (Dublado)",
      "rating": 8.81,
      "classificacao_etaria": "A16",
      "imagem_original": "https://animefire.plus/img/animes/vinland-saga-season-2.webp",
      "imagem_pasta": "https://animefire.plus/img/animes/vinland-saga-season-2/",
      "secao": "dublados,legendados",
      "pagina": 7,
      "total_episodios": 24,
      "link_video": "https://animefire.plus/video/vinland-saga-season-2-dublado"
    },
    {
      "id": 4082,
      "nome": "Violet Evergarden (Dublado)",
      "link": "https://animefire.plus/animes/violet-evergarden-dublado-todos-os-episodios",
      "texto_original": "Violet Evergarden (Dublado)",
      "rating": 8.62,
      "classificacao_etaria": "A14",
      "imagem_original": "https://animefire.plus/img/animes/violet-evergarden.webp",
      "imagem_pasta": "https://animefire.plus/img/animes/violet-evergarden/",
      "secao": "dublados,legendados",
      "pagina": 25,
      "total_episodios": 13,
      "link_video": "https://animefire.plus/video/violet-evergarden-dublado"
    },
    {
      "id": 4083,
      "nome": "Viper's Creed",
      "link": "https://animefire.plus/animes/viper-s-creed-todos-os-episodios",
      "texto_original": "Viper's Creed",
      "rating": 6.8,
      "classificacao_etaria": "A14",
      "imagem_original": "https://animefire.plus/img/animes/viper-s-creed.webp",
      "imagem_pasta": "https://animefire.plus/img/animes/viper-s-creed/",
      "secao": "legendados",
      "pagina": 147,
      "total_episodios": 12,
      "link_video": "https://animefire.plus/video/viper-s-creed"
    },
    {
      "id": 4084,
      "nome": "Virtual-san wa Miteiru",
      "link": "https://animefire.plus/animes/virtual-san-wa-miteiru-todos-os-episodios",
      "texto_original": "Virtual-san wa Miteiru",
      "rating": 5.42,
      "classificacao_etaria": "A14",
      "imagem_original": "https://animefire.plus/img/animes/virtual-san-wa-miteiru.webp",
      "imagem_pasta": "https://animefire.plus/img/animes/virtual-san-wa-miteiru/",
      "secao": "legendados",
      "pagina": 97,
      "total_episodios": 12,
      "link_video": "https://animefire.plus/video/virtual-san-wa-miteiru"
    },
    {
      "id": 4085,
      "nome": "Visual Prison",
      "link": "https://animefire.plus/animes/visual-prison-todos-os-episodios",
      "texto_original": "Visual Prison",
      "rating": 6.72,
      "classificacao_etaria": "A14",
      "imagem_original": "https://animefire.plus/img/animes/visual-prison.webp",
      "imagem_pasta": "https://animefire.plus/img/animes/visual-prison/",
      "secao": "legendados",
      "pagina": 39,
      "total_episodios": 12,
      "link_video": "https://animefire.plus/video/visual-prison"
    },
    {
      "id": 4086,
      "nome": "ViVid Strike!",
      "link": "https://animefire.plus/animes/vivid-strike-todos-os-episodios",
      "texto_original": "ViVid Strike!",
      "rating": 7.22,
      "classificacao_etaria": "A14",
      "imagem_original": "https://animefire.plus/img/animes/vivid-strike.webp",
      "imagem_pasta": "https://animefire.plus/img/animes/vivid-strike/",
      "secao": "legendados",
      "pagina": 142,
      "total_episodios": 5,
      "link_video": "https://animefire.plus/video/vivid-strike"
    },
    {
      "id": 4087,
      "nome": "ViVid Strike! Specials",
      "link": "https://animefire.plus/animes/vivid-strike-specials-todos-os-episodios",
      "texto_original": "ViVid Strike! Specials",
      "rating": 6.71,
      "classificacao_etaria": "A14",
      "imagem_original": "https://animefire.plus/img/animes/vivid-strike-specials.webp",
      "imagem_pasta": "https://animefire.plus/img/animes/vivid-strike-specials/",
      "secao": "legendados",
      "pagina": 68,
      "total_episodios": 1,
      "link_video": "https://animefire.plus/video/vivid-strike-specials"
    },
    {
      "id": 4088,
      "nome": "Vivy: Fluorite Eye's Song (Dublado)",
      "link": "https://animefire.plus/animes/vivy-fluorite-eye-s-song-dublado-todos-os-episodios",
      "texto_original": "Vivy: Fluorite Eye's Song (Dublado)",
      "rating": 8.38,
      "classificacao_etaria": "A16",
      "imagem_original": "https://animefire.plus/img/animes/vivy-fluorite-eye-s-song.webp",
      "imagem_pasta": "https://animefire.plus/img/animes/vivy-fluorite-eye-s-song/",
      "secao": "dublados,legendados",
      "pagina": 15,
      "total_episodios": 13,
      "link_video": "https://animefire.plus/video/vivy-fluorite-eye-s-song-dublado"
    },
    {
      "id": 4089,
      "nome": "Vlad Love",
      "link": "https://animefire.plus/animes/vlad-love-todos-os-episodios",
      "texto_original": "Vlad Love",
      "rating": null,
      "classificacao_etaria": "A14",
      "imagem_original": "https://animefire.plus/img/animes/vlad-love.webp",
      "imagem_pasta": "https://animefire.plus/img/animes/vlad-love/",
      "secao": "legendados",
      "pagina": 49,
      "total_episodios": 12,
      "link_video": "https://animefire.plus/video/vlad-love"
    },
    {
      "id": 4090,
      "nome": "VTuber Nandaga Haishin Kiri Wasuretara Densetsu ni Natteta",
      "link": "https://animefire.plus/animes/vtuber-nandaga-haishin-kiri-wasuretara-densetsu-ni-natteta-todos-os-episodios",
      "texto_original": "VTuber Nandaga Haishin Kiri Wasuretara Densetsu ni Natteta",
      "rating": 7.03,
      "classificacao_etaria": "A14",
      "imagem_original": "https://animefire.plus/img/animes/vtuber-nandaga-haishin-kiri-wasuretara-densetsu-ni-natteta.webp",
      "imagem_pasta": "https://animefire.plus/img/animes/vtuber-nandaga-haishin-kiri-wasuretara-densetsu-ni-natteta/",
      "secao": "legendados",
      "pagina": 11,
      "total_episodios": 12,
      "link_video": "https://animefire.plus/video/vtuber-nandaga-haishin-kiri-wasuretara-densetsu-ni-natteta"
    },
    {
      "id": 4091,
      "nome": "W: Wish",
      "link": "https://animefire.plus/animes/w-wish-todos-os-episodios",
      "texto_original": "W: Wish",
      "rating": 6.24,
      "classificacao_etaria": "A14",
      "imagem_original": "https://animefire.plus/img/animes/w-wish.webp",
      "imagem_pasta": "https://animefire.plus/img/animes/w-wish/",
      "secao": "legendados",
      "pagina": 153,
      "total_episodios": 13,
      "link_video": "https://animefire.plus/video/w-wish"
    }
  ],
  "pagination": {
    "current_page": 200,
    "per_page": 20,
    "total_items": 4269,
    "total_pages": 214,
    "has_next": true,
    "has_prev": true
  }
}
