{
  "message": "Animes da seção: legendados",
  "section": "legendados",
  "data": [
    {
      "id": 3358,
      "nome": "Senyuu.",
      "link": "https://animefire.plus/animes/senyuu-todos-os-episodios",
      "texto_original": "Senyuu.",
      "rating": 7.4,
      "classificacao_etaria": "A14",
      "imagem_original": "https://animefire.plus/img/animes/senyuu.webp",
      "imagem_pasta": "https://animefire.plus/img/animes/senyuu/",
      "secao": "legendados",
      "pagina": 91,
      "total_episodios": 13,
      "link_video": "https://animefire.plus/video/senyuu"
    },
    {
      "id": 3359,
      "nome": "Senyuu. 2",
      "link": "https://animefire.plus/animes/senyuu-2-todos-os-episodios",
      "texto_original": "Senyuu. 2",
      "rating": 7.53,
      "classificacao_etaria": "A14",
      "imagem_original": "https://animefire.plus/img/animes/senyuu-2.webp",
      "imagem_pasta": "https://animefire.plus/img/animes/senyuu-2/",
      "secao": "legendados",
      "pagina": 91,
      "total_episodios": 13,
      "link_video": "https://animefire.plus/video/senyuu-2"
    },
    {
      "id": 3360,
      "nome": "Seraphim Call",
      "link": "https://animefire.plus/animes/seraphim-call-todos-os-episodios",
      "texto_original": "Seraphim Call",
      "rating": 6.09,
      "classificacao_etaria": "A14",
      "imagem_original": "https://animefire.plus/img/animes/seraphim-call.webp",
      "imagem_pasta": "https://animefire.plus/img/animes/seraphim-call/",
      "secao": "legendados",
      "pagina": 140,
      "total_episodios": 12,
      "link_video": "https://animefire.plus/video/seraphim-call"
    },
    {
      "id": 3361,
      "nome": "Serial Experiments Lain (Dublado)",
      "link": "https://animefire.plus/animes/serial-experiments-lain-dublado-todos-os-episodios",
      "texto_original": "Serial Experiments Lain (Dublado)",
      "rating": 8.01,
      "classificacao_etaria": "A16",
      "imagem_original": "https://animefire.plus/img/animes/serial-experiments-lain.webp",
      "imagem_pasta": "https://animefire.plus/img/animes/serial-experiments-lain/",
      "secao": "dublados,legendados",
      "pagina": 25,
      "total_episodios": 13,
      "link_video": "https://animefire.plus/video/serial-experiments-lain-dublado"
    },
    {
      "id": 3362,
      "nome": "Servamp",
      "link": "https://animefire.plus/animes/servamp-todos-os-episodios",
      "texto_original": "Servamp",
      "rating": 7.09,
      "classificacao_etaria": "A16",
      "imagem_original": "https://animefire.plus/img/animes/servamp.webp",
      "imagem_pasta": "https://animefire.plus/img/animes/servamp/",
      "secao": "legendados",
      "pagina": 166,
      "total_episodios": 12,
      "link_video": "https://animefire.plus/video/servamp"
    },
    {
      "id": 3363,
      "nome": "Servamp Specials",
      "link": "https://animefire.plus/animes/servamp-specials-todos-os-episodios",
      "texto_original": "Servamp Specials",
      "rating": 7.1,
      "classificacao_etaria": "A14",
      "imagem_original": "https://animefire.plus/img/animes/servamp-specials.webp",
      "imagem_pasta": "https://animefire.plus/img/animes/servamp-specials/",
      "secao": "legendados",
      "pagina": 120,
      "total_episodios": 4,
      "link_video": "https://animefire.plus/video/servamp-specials"
    },
    {
      "id": 3364,
      "nome": "Servant x Service",
      "link": "https://animefire.plus/animes/servant-x-service-todos-os-episodios",
      "texto_original": "Servant x Service",
      "rating": 7.73,
      "classificacao_etaria": "A14",
      "imagem_original": "https://animefire.plus/img/animes/servant-x-service.webp",
      "imagem_pasta": "https://animefire.plus/img/animes/servant-x-service/",
      "secao": "legendados",
      "pagina": 82,
      "total_episodios": 13,
      "link_video": "https://animefire.plus/video/servant-x-service"
    },
    {
      "id": 3365,
      "nome": "Seto no Hanayome",
      "link": "https://animefire.plus/animes/seto-no-hanayome-todos-os-episodios",
      "texto_original": "Seto no Hanayome",
      "rating": 7.81,
      "classificacao_etaria": "A14",
      "imagem_original": "https://animefire.plus/img/animes/seto-no-hanayome.webp",
      "imagem_pasta": "https://animefire.plus/img/animes/seto-no-hanayome/",
      "secao": "legendados",
      "pagina": 62,
      "total_episodios": 26,
      "link_video": "https://animefire.plus/video/seto-no-hanayome"
    },
    {
      "id": 3366,
      "nome": "Seven Knights Revolution: Eiyuu no Keishousha",
      "link": "https://animefire.plus/animes/seven-knights-revolution-eiyuu-no-keishousha-todos-os-episodios",
      "texto_original": "Seven Knights Revolution: Eiyuu no Keishousha",
      "rating": 6.3,
      "classificacao_etaria": "A16",
      "imagem_original": "https://animefire.plus/img/animes/seven-knights-revolution-eiyuu-no-keishousha.webp",
      "imagem_pasta": "https://animefire.plus/img/animes/seven-knights-revolution-eiyuu-no-keishousha/",
      "secao": "legendados",
      "pagina": 46,
      "total_episodios": 12,
      "link_video": "https://animefire.plus/video/seven-knights-revolution-eiyuu-no-keishousha"
    },
    {
      "id": 3367,
      "nome": "Sewayaki Kitsune no Senko-san",
      "link": "https://animefire.plus/animes/sewayaki-kitsune-no-senko-san-todos-os-episodios",
      "texto_original": "Sewayaki Kitsune no Senko-san",
      "rating": 7.36,
      "classificacao_etaria": "A14",
      "imagem_original": "https://animefire.plus/img/animes/sewayaki-kitsune-no-senko-san.webp",
      "imagem_pasta": "https://animefire.plus/img/animes/sewayaki-kitsune-no-senko-san/",
      "secao": "legendados",
      "pagina": 140,
      "total_episodios": 5,
      "link_video": "https://animefire.plus/video/sewayaki-kitsune-no-senko-san"
    },
    {
      "id": 3368,
      "nome": "Sex Pistols",
      "link": "https://animefire.plus/animes/sex-pistols-todos-os-episodios",
      "texto_original": "Sex Pistols",
      "rating": 6.83,
      "classificacao_etaria": "A18",
      "imagem_original": "https://animefire.plus/img/animes/sex-pistols.webp",
      "imagem_pasta": "https://animefire.plus/img/animes/sex-pistols/",
      "secao": "legendados",
      "pagina": 96,
      "total_episodios": 2,
      "link_video": "https://animefire.plus/video/sex-pistols"
    },
    {
      "id": 3369,
      "nome": "Shachiku-san wa Youjo Yuurei ni Iyasaretai.",
      "link": "https://animefire.plus/animes/shachiku-san-wa-youjo-yuurei-ni-iyasaretai-todos-os-episodios",
      "texto_original": "Shachiku-san wa Youjo Yuurei ni Iyasaretai.",
      "rating": 7.11,
      "classificacao_etaria": "A14",
      "imagem_original": "https://animefire.plus/img/animes/shachiku-san-wa-youjo-yuurei-ni-iyasaretai.webp",
      "imagem_pasta": "https://animefire.plus/img/animes/shachiku-san-wa-youjo-yuurei-ni-iyasaretai/",
      "secao": "legendados",
      "pagina": 33,
      "total_episodios": 12,
      "link_video": "https://animefire.plus/video/shachiku-san-wa-youjo-yuurei-ni-iyasaretai"
    },
    {
      "id": 3370,
      "nome": "Shachou, Battle no Jikan Desu!",
      "link": "https://animefire.plus/animes/shachou-battle-no-jikan-desu-todos-os-episodios",
      "texto_original": "Shachou, Battle no Jikan Desu!",
      "rating": 5.87,
      "classificacao_etaria": "A14",
      "imagem_original": "https://animefire.plus/img/animes/shachou-battle-no-jikan-desu.webp",
      "imagem_pasta": "https://animefire.plus/img/animes/shachou-battle-no-jikan-desu/",
      "secao": "legendados",
      "pagina": 81,
      "total_episodios": 1,
      "link_video": "https://animefire.plus/video/shachou-battle-no-jikan-desu"
    },
    {
      "id": 3371,
      "nome": "Shadows House (Dublado)",
      "link": "https://animefire.plus/animes/shadows-house-dublado-todos-os-episodios",
      "texto_original": "Shadows House (Dublado)",
      "rating": 7.8,
      "classificacao_etaria": "A14",
      "imagem_original": "https://animefire.plus/img/animes/shadows-house.webp",
      "imagem_pasta": "https://animefire.plus/img/animes/shadows-house/",
      "secao": "dublados,legendados",
      "pagina": 13,
      "total_episodios": 13,
      "link_video": "https://animefire.plus/video/shadows-house-dublado"
    },
    {
      "id": 3372,
      "nome": "Shadows House 2nd Season (Dublado)",
      "link": "https://animefire.plus/animes/shadows-house-2nd-season-dublado-todos-os-episodios",
      "texto_original": "Shadows House 2nd Season (Dublado)",
      "rating": 8.01,
      "classificacao_etaria": "A14",
      "imagem_original": "https://animefire.plus/img/animes/shadows-house-2nd-season.webp",
      "imagem_pasta": "https://animefire.plus/img/animes/shadows-house-2nd-season/",
      "secao": "dublados,legendados",
      "pagina": 10,
      "total_episodios": 12,
      "link_video": "https://animefire.plus/video/shadows-house-2nd-season-dublado"
    },
    {
      "id": 3373,
      "nome": "Shadowverse",
      "link": "https://animefire.plus/animes/shadowverse-todos-os-episodios",
      "texto_original": "Shadowverse",
      "rating": null,
      "classificacao_etaria": null,
      "imagem_original": "https://animefire.plus/img/animes/shadowverse.webp",
      "imagem_pasta": "https://animefire.plus/img/animes/shadowverse/",
      "secao": "legendados",
      "pagina": 80,
      "total_episodios": 0,
      "link_video": "https://animefire.plus/video/shadowverse"
    },
    {
      "id": 3374,
      "nome": "Shadowverse (TV)",
      "link": "https://animefire.plus/animes/shadowverse-tv-todos-os-episodios",
      "texto_original": "Shadowverse (TV)",
      "rating": 5.1,
      "classificacao_etaria": "A14",
      "imagem_original": "https://animefire.plus/img/animes/shadowverse-tv.webp",
      "imagem_pasta": "https://animefire.plus/img/animes/shadowverse-tv/",
      "secao": "legendados,lancamentos",
      "pagina": 81,
      "total_episodios": 7,
      "link_video": "https://animefire.plus/video/shadowverse-tv"
    },
    {
      "id": 3375,
      "nome": "Shadowverse Flame",
      "link": "https://animefire.plus/animes/shadowverse-flame-todos-os-episodios",
      "texto_original": "Shadowverse Flame",
      "rating": 6.73,
      "classificacao_etaria": "A14",
      "imagem_original": "https://animefire.plus/img/animes/shadowverse-flame.webp",
      "imagem_pasta": "https://animefire.plus/img/animes/shadowverse-flame/",
      "secao": "legendados,lancamentos",
      "pagina": 34,
      "total_episodios": 98,
      "link_video": "https://animefire.plus/video/shadowverse-flame"
    },
    {
      "id": 3376,
      "nome": "Shakugan no Shana",
      "link": "https://animefire.plus/animes/shakugan-no-shana-todos-os-episodios",
      "texto_original": "Shakugan no Shana",
      "rating": 7.62,
      "classificacao_etaria": "A14",
      "imagem_original": "https://animefire.plus/img/animes/shakugan-no-shana.webp",
      "imagem_pasta": "https://animefire.plus/img/animes/shakugan-no-shana/",
      "secao": "legendados",
      "pagina": 166,
      "total_episodios": 24,
      "link_video": "https://animefire.plus/video/shakugan-no-shana"
    },
    {
      "id": 3377,
      "nome": "Shakugan no Shana II (Second)",
      "link": "https://animefire.plus/animes/shakugan-no-shana-ii-second-todos-os-episodios",
      "texto_original": "Shakugan no Shana II (Second)",
      "rating": 7.69,
      "classificacao_etaria": "A14",
      "imagem_original": "https://animefire.plus/img/animes/shakugan-no-shana-ii-second.webp",
      "imagem_pasta": "https://animefire.plus/img/animes/shakugan-no-shana-ii-second/",
      "secao": "legendados",
      "pagina": 119,
      "total_episodios": 24,
      "link_video": "https://animefire.plus/video/shakugan-no-shana-ii-second"
    }
  ],
  "pagination": {
    "current_page": 165,
    "per_page": 20,
    "total_items": 4269,
    "total_pages": 214,
    "has_next": true,
    "has_prev": true
  }
}
