{
  "message": "Animes da seção: legendados",
  "section": "legendados",
  "data": [
    {
      "id": 3031,
      "nome": "Princess Tutu",
      "link": "https://animefire.plus/animes/princess-tutu-todos-os-episodios",
      "texto_original": "Princess Tutu",
      "rating": 8.17,
      "classificacao_etaria": "A14",
      "imagem_original": "https://animefire.plus/img/animes/princess-tutu.webp",
      "imagem_pasta": "https://animefire.plus/img/animes/princess-tutu/",
      "secao": "legendados",
      "pagina": 61,
      "total_episodios": 26,
      "link_video": "https://animefire.plus/video/princess-tutu"
    },
    {
      "id": 3032,
      "nome": "Princession Orchestra",
      "link": "https://animefire.plus/animes/princession-orchestra-todos-os-episodios",
      "texto_original": "Princession Orchestra",
      "rating": null,
      "classificacao_etaria": "A14",
      "imagem_original": "https://animefire.plus/img/animes/princession-orchestra.webp",
      "imagem_pasta": "https://animefire.plus/img/animes/princession-orchestra/",
      "secao": "legendados,lancamentos",
      "pagina": 4,
      "total_episodios": 0,
      "link_video": "https://animefire.plus/video/princession-orchestra"
    },
    {
      "id": 3033,
      "nome": "PriPara",
      "link": "https://animefire.plus/animes/pripara-todos-os-episodios",
      "texto_original": "PriPara",
      "rating": 7.62,
      "classificacao_etaria": "A10",
      "imagem_original": "https://animefire.plus/img/animes/pripara.webp",
      "imagem_pasta": "https://animefire.plus/img/animes/pripara/",
      "secao": "legendados",
      "pagina": 177,
      "total_episodios": 140,
      "link_video": "https://animefire.plus/video/pripara"
    },
    {
      "id": 3034,
      "nome": "Prism Ark",
      "link": "https://animefire.plus/animes/prism-ark-todos-os-episodios",
      "texto_original": "Prism Ark",
      "rating": 6.52,
      "classificacao_etaria": "A18",
      "imagem_original": "https://animefire.plus/img/animes/prism-ark.webp",
      "imagem_pasta": "https://animefire.plus/img/animes/prism-ark/",
      "secao": "legendados",
      "pagina": 179,
      "total_episodios": 12,
      "link_video": "https://animefire.plus/video/prism-ark"
    },
    {
      "id": 3035,
      "nome": "Prism Magical: Prism Generations!",
      "link": "https://animefire.plus/animes/prism-magical-prism-generations-todos-os-episodios",
      "texto_original": "Prism Magical: Prism Generations!",
      "rating": 5.16,
      "classificacao_etaria": "A18",
      "imagem_original": "https://animefire.plus/img/animes/prism-magical-prism-generations.webp",
      "imagem_pasta": "https://animefire.plus/img/animes/prism-magical-prism-generations/",
      "secao": "legendados",
      "pagina": 82,
      "total_episodios": 1,
      "link_video": "https://animefire.plus/video/prism-magical-prism-generations"
    },
    {
      "id": 3036,
      "nome": "Prison School",
      "link": "https://animefire.plus/animes/prison-school-todos-os-episodios",
      "texto_original": "Prison School",
      "rating": 7.85,
      "classificacao_etaria": "A18",
      "imagem_original": "https://animefire.plus/img/animes/prison-school.webp",
      "imagem_pasta": "https://animefire.plus/img/animes/prison-school/",
      "secao": "legendados",
      "pagina": 152,
      "total_episodios": 0,
      "link_video": "https://animefire.plus/video/prison-school"
    },
    {
      "id": 3037,
      "nome": "Project Scard: Praeter no Kizu",
      "link": "https://animefire.plus/animes/project-scard-praeter-no-kizu-todos-os-episodios",
      "texto_original": "Project Scard: Praeter no Kizu",
      "rating": 5.93,
      "classificacao_etaria": "A14",
      "imagem_original": "https://animefire.plus/img/animes/project-scard-praeter-no-kizu.webp",
      "imagem_pasta": "https://animefire.plus/img/animes/project-scard-praeter-no-kizu/",
      "secao": "legendados,lancamentos",
      "pagina": 48,
      "total_episodios": 3,
      "link_video": "https://animefire.plus/video/project-scard-praeter-no-kizu"
    },
    {
      "id": 3038,
      "nome": "Promare: Galo-hen",
      "link": "https://animefire.plus/animes/promare-galo-hen-todos-os-episodios",
      "texto_original": "Promare: Galo-hen",
      "rating": 6.92,
      "classificacao_etaria": "A14",
      "imagem_original": "https://animefire.plus/img/animes/promare-galo-hen.webp",
      "imagem_pasta": "https://animefire.plus/img/animes/promare-galo-hen/",
      "secao": "legendados",
      "pagina": 90,
      "total_episodios": 0,
      "link_video": "https://animefire.plus/video/promare-galo-hen"
    },
    {
      "id": 3039,
      "nome": "Promare: Lio-hen",
      "link": "https://animefire.plus/animes/promare-lio-hen-todos-os-episodios",
      "texto_original": "Promare: Lio-hen",
      "rating": 7.06,
      "classificacao_etaria": "A14",
      "imagem_original": "https://animefire.plus/img/animes/promare-lio-hen.webp",
      "imagem_pasta": "https://animefire.plus/img/animes/promare-lio-hen/",
      "secao": "legendados",
      "pagina": 90,
      "total_episodios": 0,
      "link_video": "https://animefire.plus/video/promare-lio-hen"
    },
    {
      "id": 3040,
      "nome": "Psycho-Pass",
      "link": "https://animefire.plus/animes/psycho-pass-todos-os-episodios",
      "texto_original": "Psycho-Pass",
      "rating": 8.42,
      "classificacao_etaria": "A16",
      "imagem_original": "https://animefire.plus/img/animes/psycho-pass.webp",
      "imagem_pasta": "https://animefire.plus/img/animes/psycho-pass/",
      "secao": "legendados",
      "pagina": 113,
      "total_episodios": 1,
      "link_video": "https://animefire.plus/video/psycho-pass"
    },
    {
      "id": 3041,
      "nome": "Psycho-Pass 2",
      "link": "https://animefire.plus/animes/psycho-pass-2-todos-os-episodios",
      "texto_original": "Psycho-Pass 2",
      "rating": 7.51,
      "classificacao_etaria": "A16",
      "imagem_original": "https://animefire.plus/img/animes/psycho-pass-2.webp",
      "imagem_pasta": "https://animefire.plus/img/animes/psycho-pass-2/",
      "secao": "legendados",
      "pagina": 142,
      "total_episodios": 0,
      "link_video": "https://animefire.plus/video/psycho-pass-2"
    },
    {
      "id": 3042,
      "nome": "Psycho-Pass 3",
      "link": "https://animefire.plus/animes/psycho-pass-3-todos-os-episodios",
      "texto_original": "Psycho-Pass 3",
      "rating": 7.54,
      "classificacao_etaria": "A16",
      "imagem_original": "https://animefire.plus/img/animes/psycho-pass-3.webp",
      "imagem_pasta": "https://animefire.plus/img/animes/psycho-pass-3/",
      "secao": "legendados",
      "pagina": 95,
      "total_episodios": 0,
      "link_video": "https://animefire.plus/video/psycho-pass-3"
    },
    {
      "id": 3043,
      "nome": "Puchi Pri*Yucie",
      "link": "https://animefire.plus/animes/puchi-pri-yucie-todos-os-episodios",
      "texto_original": "Puchi Pri*Yucie",
      "rating": 7.45,
      "classificacao_etaria": null,
      "imagem_original": "https://animefire.plus/img/animes/puchi-pri-yucie.webp",
      "imagem_pasta": "https://animefire.plus/img/animes/puchi-pri-yucie/",
      "secao": "legendados",
      "pagina": 85,
      "total_episodios": 26,
      "link_video": "https://animefire.plus/video/puchi-pri-yucie"
    },
    {
      "id": 3044,
      "nome": "Pugyuru",
      "link": "https://animefire.plus/animes/pugyuru-todos-os-episodios",
      "texto_original": "Pugyuru",
      "rating": 5.79,
      "classificacao_etaria": "A14",
      "imagem_original": "https://animefire.plus/img/animes/pugyuru.webp",
      "imagem_pasta": "https://animefire.plus/img/animes/pugyuru/",
      "secao": "legendados",
      "pagina": 169,
      "total_episodios": 13,
      "link_video": "https://animefire.plus/video/pugyuru"
    },
    {
      "id": 3045,
      "nome": "Pumpkin Scissors",
      "link": "https://animefire.plus/animes/pumpkin-scissors-todos-os-episodios",
      "texto_original": "Pumpkin Scissors",
      "rating": 7.21,
      "classificacao_etaria": "A16",
      "imagem_original": "https://animefire.plus/img/animes/pumpkin-scissors.webp",
      "imagem_pasta": "https://animefire.plus/img/animes/pumpkin-scissors/",
      "secao": "legendados",
      "pagina": 115,
      "total_episodios": 0,
      "link_video": "https://animefire.plus/video/pumpkin-scissors"
    },
    {
      "id": 3046,
      "nome": "Punch Line",
      "link": "https://animefire.plus/animes/punch-line-todos-os-episodios",
      "texto_original": "Punch Line",
      "rating": 7.05,
      "classificacao_etaria": "A14",
      "imagem_original": "https://animefire.plus/img/animes/punch-line.webp",
      "imagem_pasta": "https://animefire.plus/img/animes/punch-line/",
      "secao": "legendados",
      "pagina": 64,
      "total_episodios": 12,
      "link_video": "https://animefire.plus/video/punch-line"
    },
    {
      "id": 3047,
      "nome": "Puniru wa Kawaii Slime",
      "link": "https://animefire.plus/animes/puniru-wa-kawaii-slime-todos-os-episodios",
      "texto_original": "Puniru wa Kawaii Slime",
      "rating": 6.91,
      "classificacao_etaria": "A16",
      "imagem_original": "https://animefire.plus/img/animes/puniru-wa-kawaii-slime.webp",
      "imagem_pasta": "https://animefire.plus/img/animes/puniru-wa-kawaii-slime/",
      "secao": "legendados",
      "pagina": 9,
      "total_episodios": 12,
      "link_video": "https://animefire.plus/video/puniru-wa-kawaii-slime"
    },
    {
      "id": 3048,
      "nome": "Puniru wa Kawaii Slime 2nd Season",
      "link": "https://animefire.plus/animes/puniru-wa-kawaii-slime-2nd-season-todos-os-episodios",
      "texto_original": "Puniru wa Kawaii Slime 2nd Season",
      "rating": 7.03,
      "classificacao_etaria": "A14",
      "imagem_original": "https://animefire.plus/img/animes/puniru-wa-kawaii-slime-2nd-season.webp",
      "imagem_pasta": "https://animefire.plus/img/animes/puniru-wa-kawaii-slime-2nd-season/",
      "secao": "legendados,lancamentos",
      "pagina": 1,
      "total_episodios": 5,
      "link_video": "https://animefire.plus/video/puniru-wa-kawaii-slime-2nd-season"
    },
    {
      "id": 3049,
      "nome": "Pupa",
      "link": "https://animefire.plus/animes/pupa-todos-os-episodios",
      "texto_original": "Pupa",
      "rating": 3.63,
      "classificacao_etaria": "A16",
      "imagem_original": "https://animefire.plus/img/animes/pupa.webp",
      "imagem_pasta": "https://animefire.plus/img/animes/pupa/",
      "secao": "legendados",
      "pagina": 173,
      "total_episodios": 12,
      "link_video": "https://animefire.plus/video/pupa"
    },
    {
      "id": 3050,
      "nome": "Pupipo!",
      "link": "https://animefire.plus/animes/pupipo-todos-os-episodios",
      "texto_original": "Pupipo!",
      "rating": 6.83,
      "classificacao_etaria": "A10",
      "imagem_original": "https://animefire.plus/img/animes/pupipo.webp",
      "imagem_pasta": "https://animefire.plus/img/animes/pupipo/",
      "secao": "legendados",
      "pagina": 79,
      "total_episodios": 14,
      "link_video": "https://animefire.plus/video/pupipo"
    }
  ],
  "pagination": {
    "current_page": 149,
    "per_page": 20,
    "total_items": 4269,
    "total_pages": 214,
    "has_next": true,
    "has_prev": true
  }
}
