{
  "message": "Animes da seção: legendados",
  "section": "legendados",
  "data": [
    {
      "id": 1404,
      "nome": "Healin' Good♡Precure",
      "link": "https://animefire.plus/animes/healin-good-precure-todos-os-episodios",
      "texto_original": "Healin' Good♡Precure",
      "rating": 6.83,
      "classificacao_etaria": null,
      "imagem_original": "https://animefire.plus/img/animes/healin-good-precure.webp",
      "imagem_pasta": "https://animefire.plus/img/animes/healin-good-precure/",
      "secao": "legendados,lancamentos",
      "pagina": 91,
      "total_episodios": 0,
      "link_video": "https://animefire.plus/video/healin-good-precure"
    },
    {
      "id": 1405,
      "nome": "Heartcatch Precure!",
      "link": "https://animefire.plus/animes/heartcatch-precure-todos-os-episodios",
      "texto_original": "Heartcatch Precure!",
      "rating": 7.82,
      "classificacao_etaria": "A16",
      "imagem_original": "https://animefire.plus/img/animes/heartcatch-precure.webp",
      "imagem_pasta": "https://animefire.plus/img/animes/heartcatch-precure/",
      "secao": "legendados",
      "pagina": 67,
      "total_episodios": 49,
      "link_video": "https://animefire.plus/video/heartcatch-precure"
    },
    {
      "id": 1406,
      "nome": "Heavy Object",
      "link": "https://animefire.plus/animes/heavy-object-todos-os-episodios",
      "texto_original": "Heavy Object",
      "rating": 7.35,
      "classificacao_etaria": "A14",
      "imagem_original": "https://animefire.plus/img/animes/heavy-object.webp",
      "imagem_pasta": "https://animefire.plus/img/animes/heavy-object/",
      "secao": "legendados",
      "pagina": 108,
      "total_episodios": 24,
      "link_video": "https://animefire.plus/video/heavy-object"
    },
    {
      "id": 1407,
      "nome": "Heibai Wushang",
      "link": "https://animefire.plus/animes/heibai-wushang-todos-os-episodios",
      "texto_original": "Heibai Wushang",
      "rating": 6.39,
      "classificacao_etaria": "A14",
      "imagem_original": "https://animefire.plus/img/animes/heibai-wushang.webp",
      "imagem_pasta": "https://animefire.plus/img/animes/heibai-wushang/",
      "secao": "legendados",
      "pagina": 143,
      "total_episodios": 12,
      "link_video": "https://animefire.plus/video/heibai-wushang"
    },
    {
      "id": 1408,
      "nome": "Heibai Wushang 2nd Season",
      "link": "https://animefire.plus/animes/heibai-wushang-2nd-season-todos-os-episodios",
      "texto_original": "Heibai Wushang 2nd Season",
      "rating": 6.6,
      "classificacao_etaria": "A14",
      "imagem_original": "https://animefire.plus/img/animes/heibai-wushang-2nd-season.webp",
      "imagem_pasta": "https://animefire.plus/img/animes/heibai-wushang-2nd-season/",
      "secao": "legendados",
      "pagina": 136,
      "total_episodios": 12,
      "link_video": "https://animefire.plus/video/heibai-wushang-2nd-season"
    },
    {
      "id": 1409,
      "nome": "Heike Monogatari",
      "link": "https://animefire.plus/animes/heike-monogatari-todos-os-episodios",
      "texto_original": "Heike Monogatari",
      "rating": 7.79,
      "classificacao_etaria": "A14",
      "imagem_original": "https://animefire.plus/img/animes/heike-monogatari.webp",
      "imagem_pasta": "https://animefire.plus/img/animes/heike-monogatari/",
      "secao": "legendados",
      "pagina": 38,
      "total_episodios": 11,
      "link_video": "https://animefire.plus/video/heike-monogatari"
    },
    {
      "id": 1410,
      "nome": "Heion Sedai no Idaten-tachi",
      "link": "https://animefire.plus/animes/heion-sedai-no-idaten-tachi-todos-os-episodios",
      "texto_original": "Heion Sedai no Idaten-tachi",
      "rating": 7.61,
      "classificacao_etaria": "A16",
      "imagem_original": "https://animefire.plus/img/animes/heion-sedai-no-idaten-tachi.webp",
      "imagem_pasta": "https://animefire.plus/img/animes/heion-sedai-no-idaten-tachi/",
      "secao": "legendados",
      "pagina": 45,
      "total_episodios": 11,
      "link_video": "https://animefire.plus/video/heion-sedai-no-idaten-tachi"
    },
    {
      "id": 1411,
      "nome": "Helck",
      "link": "https://animefire.plus/animes/helck-todos-os-episodios",
      "texto_original": "Helck",
      "rating": 7.28,
      "classificacao_etaria": "A14",
      "imagem_original": "https://animefire.plus/img/animes/helck.webp",
      "imagem_pasta": "https://animefire.plus/img/animes/helck/",
      "secao": "legendados",
      "pagina": 22,
      "total_episodios": 24,
      "link_video": "https://animefire.plus/video/helck"
    },
    {
      "id": 1412,
      "nome": "Hello Harinezumi: Satsui no Ryoubun",
      "link": "https://animefire.plus/animes/hello-harinezumi-satsui-no-ryoubun-todos-os-episodios",
      "texto_original": "Hello Harinezumi: Satsui no Ryoubun",
      "rating": 6.45,
      "classificacao_etaria": "A18",
      "imagem_original": "https://animefire.plus/img/animes/hello-harinezumi-satsui-no-ryoubun.webp",
      "imagem_pasta": "https://animefire.plus/img/animes/hello-harinezumi-satsui-no-ryoubun/",
      "secao": "legendados",
      "pagina": 70,
      "total_episodios": 1,
      "link_video": "https://animefire.plus/video/hello-harinezumi-satsui-no-ryoubun"
    },
    {
      "id": 1413,
      "nome": "Hello!! Kiniro Mosaic",
      "link": "https://animefire.plus/animes/hello-kiniro-mosaic-todos-os-episodios",
      "texto_original": "Hello!! Kiniro Mosaic",
      "rating": 7.59,
      "classificacao_etaria": "A14",
      "imagem_original": "https://animefire.plus/img/animes/hello-kiniro-mosaic.webp",
      "imagem_pasta": "https://animefire.plus/img/animes/hello-kiniro-mosaic/",
      "secao": "legendados",
      "pagina": 95,
      "total_episodios": 12,
      "link_video": "https://animefire.plus/video/hello-kiniro-mosaic"
    },
    {
      "id": 1414,
      "nome": "Hellsing (Dublado)",
      "link": "https://animefire.plus/animes/hellsing-dublado-todos-os-episodios",
      "texto_original": "Hellsing (Dublado)",
      "rating": 7.58,
      "classificacao_etaria": "A16",
      "imagem_original": "https://animefire.plus/img/animes/hellsing.webp",
      "imagem_pasta": "https://animefire.plus/img/animes/hellsing/",
      "secao": "dublados,legendados",
      "pagina": 26,
      "total_episodios": 13,
      "link_video": "https://animefire.plus/video/hellsing-dublado"
    },
    {
      "id": 1415,
      "nome": "Hellsing Ultimate",
      "link": "https://animefire.plus/animes/hellsing-ultimate-todos-os-episodios",
      "texto_original": "Hellsing Ultimate",
      "rating": 8.44,
      "classificacao_etaria": "A16",
      "imagem_original": "https://animefire.plus/img/animes/hellsing-ultimate.webp",
      "imagem_pasta": "https://animefire.plus/img/animes/hellsing-ultimate/",
      "secao": "legendados",
      "pagina": 72,
      "total_episodios": 13,
      "link_video": "https://animefire.plus/video/hellsing-ultimate"
    },
    {
      "id": 1416,
      "nome": "Hellsing: The Dawn",
      "link": "https://animefire.plus/animes/hellsing-the-dawn-todos-os-episodios",
      "texto_original": "Hellsing: The Dawn",
      "rating": 7.28,
      "classificacao_etaria": "A16",
      "imagem_original": "https://animefire.plus/img/animes/hellsing-the-dawn.webp",
      "imagem_pasta": "https://animefire.plus/img/animes/hellsing-the-dawn/",
      "secao": "legendados",
      "pagina": 96,
      "total_episodios": 3,
      "link_video": "https://animefire.plus/video/hellsing-the-dawn"
    },
    {
      "id": 1417,
      "nome": "Henjin no Salad Bowl",
      "link": "https://animefire.plus/animes/henjin-no-salad-bowl-todos-os-episodios",
      "texto_original": "Henjin no Salad Bowl",
      "rating": 7.27,
      "classificacao_etaria": "A14",
      "imagem_original": "https://animefire.plus/img/animes/henjin-no-salad-bowl.webp",
      "imagem_pasta": "https://animefire.plus/img/animes/henjin-no-salad-bowl/",
      "secao": "legendados",
      "pagina": 14,
      "total_episodios": 12,
      "link_video": "https://animefire.plus/video/henjin-no-salad-bowl"
    },
    {
      "id": 1418,
      "nome": "Henkei Shoujo",
      "link": "https://animefire.plus/animes/henkei-shoujo-todos-os-episodios",
      "texto_original": "Henkei Shoujo",
      "rating": 5.73,
      "classificacao_etaria": "A14",
      "imagem_original": "https://animefire.plus/img/animes/henkei-shoujo.webp",
      "imagem_pasta": "https://animefire.plus/img/animes/henkei-shoujo/",
      "secao": "legendados",
      "pagina": 159,
      "total_episodios": 5,
      "link_video": "https://animefire.plus/video/henkei-shoujo"
    },
    {
      "id": 1419,
      "nome": "Hentai Ouji to Warawanai Neko.",
      "link": "https://animefire.plus/animes/hentai-ouji-to-warawanai-neko-todos-os-episodios",
      "texto_original": "Hentai Ouji to Warawanai Neko.",
      "rating": 7.35,
      "classificacao_etaria": "A14",
      "imagem_original": "https://animefire.plus/img/animes/hentai-ouji-to-warawanai-neko.webp",
      "imagem_pasta": "https://animefire.plus/img/animes/hentai-ouji-to-warawanai-neko/",
      "secao": "legendados",
      "pagina": 156,
      "total_episodios": 12,
      "link_video": "https://animefire.plus/video/hentai-ouji-to-warawanai-neko"
    },
    {
      "id": 1420,
      "nome": "Hentatsu (TV)",
      "link": "https://animefire.plus/animes/hentatsu-tv-todos-os-episodios",
      "texto_original": "Hentatsu (TV)",
      "rating": 5.1,
      "classificacao_etaria": null,
      "imagem_original": "https://animefire.plus/img/animes/hentatsu-tv.webp",
      "imagem_pasta": "https://animefire.plus/img/animes/hentatsu-tv/",
      "secao": "legendados",
      "pagina": 80,
      "total_episodios": 0,
      "link_video": "https://animefire.plus/video/hentatsu-tv"
    },
    {
      "id": 1421,
      "nome": "Heppoko Jikken Animation Excel♥Saga (Dublado)",
      "link": "https://animefire.plus/animes/heppoko-jikken-animation-excel-saga-dublado-todos-os-episodios",
      "texto_original": "Heppoko Jikken Animation Excel♥Saga (Dublado)",
      "rating": 7.51,
      "classificacao_etaria": "A16",
      "imagem_original": "https://animefire.plus/img/animes/heppoko-jikken-animation-excel-saga.webp",
      "imagem_pasta": "https://animefire.plus/img/animes/heppoko-jikken-animation-excel-saga/",
      "secao": "dublados,legendados",
      "pagina": 22,
      "total_episodios": 26,
      "link_video": "https://animefire.plus/video/heppoko-jikken-animation-excel-saga-dublado"
    },
    {
      "id": 1422,
      "nome": "Hero Bank",
      "link": "https://animefire.plus/animes/hero-bank-todos-os-episodios",
      "texto_original": "Hero Bank",
      "rating": 6.12,
      "classificacao_etaria": "A10",
      "imagem_original": "https://animefire.plus/img/animes/hero-bank.webp",
      "imagem_pasta": "https://animefire.plus/img/animes/hero-bank/",
      "secao": "legendados",
      "pagina": 158,
      "total_episodios": 17,
      "link_video": "https://animefire.plus/video/hero-bank"
    },
    {
      "id": 1423,
      "nome": "Hero Mask (2019) (Dublado)",
      "link": "https://animefire.plus/animes/hero-mask-2019-dublado-todos-os-episodios",
      "texto_original": "Hero Mask (2019) (Dublado)",
      "rating": 6.61,
      "classificacao_etaria": "A16",
      "imagem_original": "https://animefire.plus/img/animes/hero-mask-2019.webp",
      "imagem_pasta": "https://animefire.plus/img/animes/hero-mask-2019/",
      "secao": "dublados,legendados",
      "pagina": 21,
      "total_episodios": 9,
      "link_video": "https://animefire.plus/video/hero-mask-2019-dublado"
    }
  ],
  "pagination": {
    "current_page": 69,
    "per_page": 20,
    "total_items": 4269,
    "total_pages": 214,
    "has_next": true,
    "has_prev": true
  }
}
