{
  "message": "Animes com rating entre 0 e 5",
  "rating_range": {
    "min": 0,
    "max": 5
  },
  "data": [
    {
      "id": 160,
      "nome": "Ame-iro Cocoa",
      "link": "https://animefire.plus/animes/ame-iro-cocoa-todos-os-episodios",
      "texto_original": "Ame-iro Cocoa",
      "rating": 4.76,
      "classificacao_etaria": "A14",
      "imagem_original": "https://animefire.plus/img/animes/ame-iro-cocoa.webp",
      "imagem_pasta": "https://animefire.plus/img/animes/ame-iro-cocoa/",
      "secao": "legendados",
      "pagina": 136,
      "total_episodios": 12,
      "link_video": "https://animefire.plus/video/ame-iro-cocoa"
    },
    {
      "id": 161,
      "nome": "Ame-iro Cocoa in Hawaii",
      "link": "https://animefire.plus/animes/ame-iro-cocoa-in-hawaii-todos-os-episodios",
      "texto_original": "Ame-iro Cocoa in Hawaii",
      "rating": 4.83,
      "classificacao_etaria": "A14",
      "imagem_original": "https://animefire.plus/img/animes/ame-iro-cocoa-in-hawaii.webp",
      "imagem_pasta": "https://animefire.plus/img/animes/ame-iro-cocoa-in-hawaii/",
      "secao": "legendados",
      "pagina": 135,
      "total_episodios": 1,
      "link_video": "https://animefire.plus/video/ame-iro-cocoa-in-hawaii"
    },
    {
      "id": 162,
      "nome": "Ame-iro Cocoa: Rainy Color e Youkoso!",
      "link": "https://animefire.plus/animes/ame-iro-cocoa-rainy-color-e-youkoso-todos-os-episodios",
      "texto_original": "Ame-iro Cocoa: Rainy Color e Youkoso!",
      "rating": 4.84,
      "classificacao_etaria": "A14",
      "imagem_original": "https://animefire.plus/img/animes/ame-iro-cocoa-rainy-color-e-youkoso.webp",
      "imagem_pasta": "https://animefire.plus/img/animes/ame-iro-cocoa-rainy-color-e-youkoso/",
      "secao": "legendados",
      "pagina": 147,
      "total_episodios": 12,
      "link_video": "https://animefire.plus/video/ame-iro-cocoa-rainy-color-e-youkoso"
    },
    {
      "id": 249,
      "nome": "Aru Asa Dummy Head Mic ni Natteita Ore-kun no Jinsei",
      "link": "https://animefire.plus/animes/aru-asa-dummy-head-mic-ni-natteita-ore-kun-no-jinsei-todos-os-episodios",
      "texto_original": "Aru Asa Dummy Head Mic ni Natteita Ore-kun no Jinsei",
      "rating": 5,
      "classificacao_etaria": "A14",
      "imagem_original": "https://animefire.plus/img/animes/aru-asa-dummy-head-mic-ni-natteita-ore-kun-no-jinsei.webp",
      "imagem_pasta": "https://animefire.plus/img/animes/aru-asa-dummy-head-mic-ni-natteita-ore-kun-no-jinsei/",
      "secao": "legendados,lancamentos",
      "pagina": 28,
      "total_episodios": 2,
      "link_video": "https://animefire.plus/video/aru-asa-dummy-head-mic-ni-natteita-ore-kun-no-jinsei"
    },
    {
      "id": 361,
      "nome": "Battle Spirits: Ryuuko no Ken (Dublado)",
      "link": "https://animefire.plus/animes/battle-spirits-ryuuko-no-ken-dublado-todos-os-episodios",
      "texto_original": "Battle Spirits: Ryuuko no Ken (Dublado)",
      "rating": 4.86,
      "classificacao_etaria": "A14",
      "imagem_original": "https://animefire.plus/img/animes/battle-spirits-ryuuko-no-ken.webp",
      "imagem_pasta": "https://animefire.plus/img/animes/battle-spirits-ryuuko-no-ken/",
      "secao": "dublados",
      "pagina": 22,
      "total_episodios": 1,
      "link_video": "https://animefire.plus/video/battle-spirits-ryuuko-no-ken-dublado"
    },
    {
      "id": 404,
      "nome": "Bishoujo Yuugi Unit Crane Game Girls",
      "link": "https://animefire.plus/animes/bishoujo-yuugi-unit-crane-game-girls-todos-os-episodios",
      "texto_original": "Bishoujo Yuugi Unit Crane Game Girls",
      "rating": 4.44,
      "classificacao_etaria": "A10",
      "imagem_original": "https://animefire.plus/img/animes/bishoujo-yuugi-unit-crane-game-girls.webp",
      "imagem_pasta": "https://animefire.plus/img/animes/bishoujo-yuugi-unit-crane-game-girls/",
      "secao": "legendados",
      "pagina": 119,
      "total_episodios": 13,
      "link_video": "https://animefire.plus/video/bishoujo-yuugi-unit-crane-game-girls"
    },
    {
      "id": 405,
      "nome": "Bishoujo Yuugi Unit Crane Game Girls Galaxy",
      "link": "https://animefire.plus/animes/bishoujo-yuugi-unit-crane-game-girls-galaxy-todos-os-episodios",
      "texto_original": "Bishoujo Yuugi Unit Crane Game Girls Galaxy",
      "rating": 4.77,
      "classificacao_etaria": "A10",
      "imagem_original": "https://animefire.plus/img/animes/bishoujo-yuugi-unit-crane-game-girls-galaxy.webp",
      "imagem_pasta": "https://animefire.plus/img/animes/bishoujo-yuugi-unit-crane-game-girls-galaxy/",
      "secao": "legendados",
      "pagina": 146,
      "total_episodios": 3,
      "link_video": "https://animefire.plus/video/bishoujo-yuugi-unit-crane-game-girls-galaxy"
    },
    {
      "id": 622,
      "nome": "Chou Henshin Cosprayers",
      "link": "https://animefire.plus/animes/chou-henshin-cosprayers-todos-os-episodios",
      "texto_original": "Chou Henshin Cosprayers",
      "rating": 4.93,
      "classificacao_etaria": "A14",
      "imagem_original": "https://animefire.plus/img/animes/chou-henshin-cosprayers.webp",
      "imagem_pasta": "https://animefire.plus/img/animes/chou-henshin-cosprayers/",
      "secao": "legendados",
      "pagina": 42,
      "total_episodios": 22,
      "link_video": "https://animefire.plus/video/chou-henshin-cosprayers"
    },
    {
      "id": 763,
      "nome": "De:vadasy",
      "link": "https://animefire.plus/animes/de-vadasy-todos-os-episodios",
      "texto_original": "De:vadasy",
      "rating": 4.8,
      "classificacao_etaria": "A18",
      "imagem_original": "https://animefire.plus/img/animes/de-vadasy.webp",
      "imagem_pasta": "https://animefire.plus/img/animes/de-vadasy/",
      "secao": "legendados",
      "pagina": 69,
      "total_episodios": 3,
      "link_video": "https://animefire.plus/video/de-vadasy"
    },
    {
      "id": 855,
      "nome": "Double Circle",
      "link": "https://animefire.plus/animes/double-circle-todos-os-episodios",
      "texto_original": "Double Circle",
      "rating": 4.94,
      "classificacao_etaria": "A14",
      "imagem_original": "https://animefire.plus/img/animes/double-circle.webp",
      "imagem_pasta": "https://animefire.plus/img/animes/double-circle/",
      "secao": "legendados",
      "pagina": 113,
      "total_episodios": 6,
      "link_video": "https://animefire.plus/video/double-circle"
    },
    {
      "id": 883,
      "nome": "Dragon Fist",
      "link": "https://animefire.plus/animes/dragon-fist-todos-os-episodios",
      "texto_original": "Dragon Fist",
      "rating": 4.76,
      "classificacao_etaria": "A14",
      "imagem_original": "https://animefire.plus/img/animes/dragon-fist.webp",
      "imagem_pasta": "https://animefire.plus/img/animes/dragon-fist/",
      "secao": "legendados",
      "pagina": 87,
      "total_episodios": 1,
      "link_video": "https://animefire.plus/video/dragon-fist"
    },
    {
      "id": 913,
      "nome": "Dynamic Chord",
      "link": "https://animefire.plus/animes/dynamic-chord-todos-os-episodios",
      "texto_original": "Dynamic Chord",
      "rating": 4.68,
      "classificacao_etaria": "A14",
      "imagem_original": "https://animefire.plus/img/animes/dynamic-chord.webp",
      "imagem_pasta": "https://animefire.plus/img/animes/dynamic-chord/",
      "secao": "legendados",
      "pagina": 164,
      "total_episodios": 10,
      "link_video": "https://animefire.plus/video/dynamic-chord"
    },
    {
      "id": 963,
      "nome": "Ex-Arm",
      "link": "https://animefire.plus/animes/ex-arm-todos-os-episodios",
      "texto_original": "Ex-Arm",
      "rating": 2.89,
      "classificacao_etaria": "A14",
      "imagem_original": "https://animefire.plus/img/animes/ex-arm.webp",
      "imagem_pasta": "https://animefire.plus/img/animes/ex-arm/",
      "secao": "legendados",
      "pagina": 49,
      "total_episodios": 12,
      "link_video": "https://animefire.plus/video/ex-arm"
    },
    {
      "id": 1018,
      "nome": "Forest Fairy Five",
      "link": "https://animefire.plus/animes/forest-fairy-five-todos-os-episodios",
      "texto_original": "Forest Fairy Five",
      "rating": 3.26,
      "classificacao_etaria": "A10",
      "imagem_original": "https://animefire.plus/img/animes/forest-fairy-five.webp",
      "imagem_pasta": "https://animefire.plus/img/animes/forest-fairy-five/",
      "secao": "legendados",
      "pagina": 113,
      "total_episodios": 4,
      "link_video": "https://animefire.plus/video/forest-fairy-five"
    },
    {
      "id": 1343,
      "nome": "Hametsu no Mars",
      "link": "https://animefire.plus/animes/hametsu-no-mars-todos-os-episodios",
      "texto_original": "Hametsu no Mars",
      "rating": 2.31,
      "classificacao_etaria": "A16",
      "imagem_original": "https://animefire.plus/img/animes/hametsu-no-mars.webp",
      "imagem_pasta": "https://animefire.plus/img/animes/hametsu-no-mars/",
      "secao": "legendados",
      "pagina": 89,
      "total_episodios": 1,
      "link_video": "https://animefire.plus/video/hametsu-no-mars"
    },
    {
      "id": 1369,
      "nome": "Hanoka",
      "link": "https://animefire.plus/animes/hanoka-todos-os-episodios",
      "texto_original": "Hanoka",
      "rating": 3.82,
      "classificacao_etaria": "A14",
      "imagem_original": "https://animefire.plus/img/animes/hanoka.webp",
      "imagem_pasta": "https://animefire.plus/img/animes/hanoka/",
      "secao": "legendados",
      "pagina": 56,
      "total_episodios": 12,
      "link_video": "https://animefire.plus/video/hanoka"
    },
    {
      "id": 1648,
      "nome": "Iron Virgin Jun",
      "link": "https://animefire.plus/animes/iron-virgin-jun-todos-os-episodios",
      "texto_original": "Iron Virgin Jun",
      "rating": 4.58,
      "classificacao_etaria": "A16",
      "imagem_original": "https://animefire.plus/img/animes/iron-virgin-jun.webp",
      "imagem_pasta": "https://animefire.plus/img/animes/iron-virgin-jun/",
      "secao": "legendados",
      "pagina": 43,
      "total_episodios": 1,
      "link_video": "https://animefire.plus/video/iron-virgin-jun"
    },
    {
      "id": 1681,
      "nome": "Issho ni Sleeping: Sleeping with Hinako",
      "link": "https://animefire.plus/animes/issho-ni-sleeping-sleeping-with-hinako-todos-os-episodios",
      "texto_original": "Issho ni Sleeping: Sleeping with Hinako",
      "rating": 4.46,
      "classificacao_etaria": "A14",
      "imagem_original": "https://animefire.plus/img/animes/issho-ni-sleeping-sleeping-with-hinako.webp",
      "imagem_pasta": "https://animefire.plus/img/animes/issho-ni-sleeping-sleeping-with-hinako/",
      "secao": "legendados",
      "pagina": 90,
      "total_episodios": 1,
      "link_video": "https://animefire.plus/video/issho-ni-sleeping-sleeping-with-hinako"
    },
    {
      "id": 1823,
      "nome": "Kakugo no Susume",
      "link": "https://animefire.plus/animes/kakugo-no-susume-todos-os-episodios",
      "texto_original": "Kakugo no Susume",
      "rating": 4.7,
      "classificacao_etaria": "A18",
      "imagem_original": "https://animefire.plus/img/animes/kakugo-no-susume.webp",
      "imagem_pasta": "https://animefire.plus/img/animes/kakugo-no-susume/",
      "secao": "legendados",
      "pagina": 76,
      "total_episodios": 2,
      "link_video": "https://animefire.plus/video/kakugo-no-susume"
    },
    {
      "id": 1909,
      "nome": "Katsugeki Shoujo Tanteidan",
      "link": "https://animefire.plus/animes/katsugeki-shoujo-tanteidan-todos-os-episodios",
      "texto_original": "Katsugeki Shoujo Tanteidan",
      "rating": 4.81,
      "classificacao_etaria": null,
      "imagem_original": "https://animefire.plus/img/animes/katsugeki-shoujo-tanteidan.webp",
      "imagem_pasta": "https://animefire.plus/img/animes/katsugeki-shoujo-tanteidan/",
      "secao": "legendados",
      "pagina": 72,
      "total_episodios": 1,
      "link_video": "https://animefire.plus/video/katsugeki-shoujo-tanteidan"
    }
  ],
  "pagination": {
    "current_page": 1,
    "per_page": 20,
    "total_items": 42,
    "total_pages": 3,
    "has_next": true,
    "has_prev": false
  }
}
