{
  "message": "Animes com rating entre 5 e 7",
  "rating_range": {
    "min": 5,
    "max": 7
  },
  "data": [
    {
      "id": 3486,
      "nome": "Shokei Shoujo no Virgin Road",
      "link": "https://animefire.plus/animes/shokei-shoujo-no-virgin-road-todos-os-episodios",
      "texto_original": "Shokei Shoujo no Virgin Road",
      "rating": 6.76,
      "classificacao_etaria": "A16",
      "imagem_original": "https://animefire.plus/img/animes/shokei-shoujo-no-virgin-road.webp",
      "imagem_pasta": "https://animefire.plus/img/animes/shokei-shoujo-no-virgin-road/",
      "secao": "legendados",
      "pagina": 34,
      "total_episodios": 12,
      "link_video": "https://animefire.plus/video/shokei-shoujo-no-virgin-road"
    },
    {
      "id": 3497,
      "nome": "Shoot! Goal to the Future",
      "link": "https://animefire.plus/animes/shoot-goal-to-the-future-todos-os-episodios",
      "texto_original": "Shoot! Goal to the Future",
      "rating": 5.29,
      "classificacao_etaria": "A14",
      "imagem_original": "https://animefire.plus/img/animes/shoot-goal-to-the-future.webp",
      "imagem_pasta": "https://animefire.plus/img/animes/shoot-goal-to-the-future/",
      "secao": "legendados",
      "pagina": 32,
      "total_episodios": 13,
      "link_video": "https://animefire.plus/video/shoot-goal-to-the-future"
    },
    {
      "id": 3500,
      "nome": "Shoujo-tachi wa Kouya wo Mezasu",
      "link": "https://animefire.plus/animes/shoujo-tachi-wa-kouya-wo-mezasu-todos-os-episodios",
      "texto_original": "Shoujo-tachi wa Kouya wo Mezasu",
      "rating": 6.38,
      "classificacao_etaria": "A14",
      "imagem_original": "https://animefire.plus/img/animes/shoujo-tachi-wa-kouya-wo-mezasu.webp",
      "imagem_pasta": "https://animefire.plus/img/animes/shoujo-tachi-wa-kouya-wo-mezasu/",
      "secao": "legendados",
      "pagina": 173,
      "total_episodios": 3,
      "link_video": "https://animefire.plus/video/shoujo-tachi-wa-kouya-wo-mezasu"
    },
    {
      "id": 3503,
      "nome": "Shoumetsu Toshi",
      "link": "https://animefire.plus/animes/shoumetsu-toshi-todos-os-episodios",
      "texto_original": "Shoumetsu Toshi",
      "rating": 5.46,
      "classificacao_etaria": "A14",
      "imagem_original": "https://animefire.plus/img/animes/shoumetsu-toshi.webp",
      "imagem_pasta": "https://animefire.plus/img/animes/shoumetsu-toshi/",
      "secao": "legendados",
      "pagina": 125,
      "total_episodios": 7,
      "link_video": "https://animefire.plus/video/shoumetsu-toshi"
    },
    {
      "id": 3504,
      "nome": "Shounen Hollywood: Holly Stage for 49",
      "link": "https://animefire.plus/animes/shounen-hollywood-holly-stage-for-49-todos-os-episodios",
      "texto_original": "Shounen Hollywood: Holly Stage for 49",
      "rating": 6.14,
      "classificacao_etaria": "A14",
      "imagem_original": "https://animefire.plus/img/animes/shounen-hollywood-holly-stage-for-49.webp",
      "imagem_pasta": "https://animefire.plus/img/animes/shounen-hollywood-holly-stage-for-49/",
      "secao": "legendados",
      "pagina": 179,
      "total_episodios": 13,
      "link_video": "https://animefire.plus/video/shounen-hollywood-holly-stage-for-49"
    },
    {
      "id": 3507,
      "nome": "Shounen to Sakura",
      "link": "https://animefire.plus/animes/shounen-to-sakura-todos-os-episodios",
      "texto_original": "Shounen to Sakura",
      "rating": 5.85,
      "classificacao_etaria": null,
      "imagem_original": "https://animefire.plus/img/animes/shounen-to-sakura.webp",
      "imagem_pasta": "https://animefire.plus/img/animes/shounen-to-sakura/",
      "secao": "legendados",
      "pagina": 55,
      "total_episodios": 1,
      "link_video": "https://animefire.plus/video/shounen-to-sakura"
    },
    {
      "id": 3512,
      "nome": "Shouxi Yu Ling Shi",
      "link": "https://animefire.plus/animes/shouxi-yu-ling-shi-todos-os-episodios",
      "texto_original": "Shouxi Yu Ling Shi",
      "rating": 6.52,
      "classificacao_etaria": "A14",
      "imagem_original": "https://animefire.plus/img/animes/shouxi-yu-ling-shi.webp",
      "imagem_pasta": "https://animefire.plus/img/animes/shouxi-yu-ling-shi/",
      "secao": "legendados,lancamentos",
      "pagina": 58,
      "total_episodios": 8,
      "link_video": "https://animefire.plus/video/shouxi-yu-ling-shi"
    },
    {
      "id": 3514,
      "nome": "Show By Rock!! Mashumairesh!!",
      "link": "https://animefire.plus/animes/show-by-rock-mashumairesh-todos-os-episodios",
      "texto_original": "Show By Rock!! Mashumairesh!!",
      "rating": 6.91,
      "classificacao_etaria": "A14",
      "imagem_original": "https://animefire.plus/img/animes/show-by-rock-mashumairesh.webp",
      "imagem_pasta": "https://animefire.plus/img/animes/show-by-rock-mashumairesh/",
      "secao": "legendados",
      "pagina": 93,
      "total_episodios": 0,
      "link_video": "https://animefire.plus/video/show-by-rock-mashumairesh"
    },
    {
      "id": 3517,
      "nome": "Shuffle! Memories",
      "link": "https://animefire.plus/animes/shuffle-memories-todos-os-episodios",
      "texto_original": "Shuffle! Memories",
      "rating": 6.61,
      "classificacao_etaria": "A14",
      "imagem_original": "https://animefire.plus/img/animes/shuffle-memories.webp",
      "imagem_pasta": "https://animefire.plus/img/animes/shuffle-memories/",
      "secao": "legendados",
      "pagina": 132,
      "total_episodios": 12,
      "link_video": "https://animefire.plus/video/shuffle-memories"
    },
    {
      "id": 3518,
      "nome": "Shugo Chara! Party!",
      "link": "https://animefire.plus/animes/shugo-chara-party-todos-os-episodios",
      "texto_original": "Shugo Chara! Party!",
      "rating": 6.63,
      "classificacao_etaria": "A10",
      "imagem_original": "https://animefire.plus/img/animes/shugo-chara-party.webp",
      "imagem_pasta": "https://animefire.plus/img/animes/shugo-chara-party/",
      "secao": "legendados",
      "pagina": 63,
      "total_episodios": 25,
      "link_video": "https://animefire.plus/video/shugo-chara-party"
    },
    {
      "id": 3520,
      "nome": "Shukufuku No Campanella",
      "link": "https://animefire.plus/animes/shukufuku-no-campanella-todos-os-episodios",
      "texto_original": "Shukufuku No Campanella",
      "rating": 6.36,
      "classificacao_etaria": "A18",
      "imagem_original": "https://animefire.plus/img/animes/shukufuku-no-campanella.webp",
      "imagem_pasta": "https://animefire.plus/img/animes/shukufuku-no-campanella/",
      "secao": "legendados",
      "pagina": 108,
      "total_episodios": 12,
      "link_video": "https://animefire.plus/video/shukufuku-no-campanella"
    },
    {
      "id": 3522,
      "nome": "Shuumatsu no Harem",
      "link": "https://animefire.plus/animes/shuumatsu-no-harem-todos-os-episodios",
      "texto_original": "Shuumatsu no Harem",
      "rating": 5.9,
      "classificacao_etaria": "A18",
      "imagem_original": "https://animefire.plus/img/animes/shuumatsu-no-harem.webp",
      "imagem_pasta": "https://animefire.plus/img/animes/shuumatsu-no-harem/",
      "secao": "legendados",
      "pagina": 39,
      "total_episodios": 11,
      "link_video": "https://animefire.plus/video/shuumatsu-no-harem"
    },
    {
      "id": 3523,
      "nome": "Shuumatsu no Izetta",
      "link": "https://animefire.plus/animes/shuumatsu-no-izetta-todos-os-episodios",
      "texto_original": "Shuumatsu no Izetta",
      "rating": 6.82,
      "classificacao_etaria": "A16",
      "imagem_original": "https://animefire.plus/img/animes/shuumatsu-no-izetta.webp",
      "imagem_pasta": "https://animefire.plus/img/animes/shuumatsu-no-izetta/",
      "secao": "legendados",
      "pagina": 116,
      "total_episodios": 12,
      "link_video": "https://animefire.plus/video/shuumatsu-no-izetta"
    },
    {
      "id": 3524,
      "nome": "Shuumatsu no Walküre (Dublado)",
      "link": "https://animefire.plus/animes/shuumatsu-no-walk-re-dublado-todos-os-episodios",
      "texto_original": "Shuumatsu no Walküre (Dublado)",
      "rating": 6.81,
      "classificacao_etaria": "A16",
      "imagem_original": "https://animefire.plus/img/animes/shuumatsu-no-walk-re.webp",
      "imagem_pasta": "https://animefire.plus/img/animes/shuumatsu-no-walk-re/",
      "secao": "dublados,legendados",
      "pagina": 17,
      "total_episodios": 12,
      "link_video": "https://animefire.plus/video/shuumatsu-no-walk-re-dublado"
    },
    {
      "id": 3527,
      "nome": "Shy (Dublado)",
      "link": "https://animefire.plus/animes/shy-dublado-todos-os-episodios",
      "texto_original": "Shy (Dublado)",
      "rating": 6.71,
      "classificacao_etaria": "A14",
      "imagem_original": "https://animefire.plus/img/animes/shy.webp",
      "imagem_pasta": "https://animefire.plus/img/animes/shy/",
      "secao": "dublados",
      "pagina": 5,
      "total_episodios": 12,
      "link_video": "https://animefire.plus/video/shy-dublado"
    },
    {
      "id": 3528,
      "nome": "Shy 2nd Season",
      "link": "https://animefire.plus/animes/shy-2nd-season-todos-os-episodios",
      "texto_original": "Shy 2nd Season",
      "rating": 6.92,
      "classificacao_etaria": "A14",
      "imagem_original": "https://animefire.plus/img/animes/shy-2nd-season.webp",
      "imagem_pasta": "https://animefire.plus/img/animes/shy-2nd-season/",
      "secao": "legendados",
      "pagina": 12,
      "total_episodios": 12,
      "link_video": "https://animefire.plus/video/shy-2nd-season"
    },
    {
      "id": 3529,
      "nome": "Si Ling Bianma: Zhi Shijie Caozong Zhe",
      "link": "https://animefire.plus/animes/si-ling-bianma-zhi-shijie-caozong-zhe-todos-os-episodios",
      "texto_original": "Si Ling Bianma: Zhi Shijie Caozong Zhe",
      "rating": 5.53,
      "classificacao_etaria": "A16",
      "imagem_original": "https://animefire.plus/img/animes/si-ling-bianma-zhi-shijie-caozong-zhe.webp",
      "imagem_pasta": "https://animefire.plus/img/animes/si-ling-bianma-zhi-shijie-caozong-zhe/",
      "secao": "legendados",
      "pagina": 83,
      "total_episodios": 12,
      "link_video": "https://animefire.plus/video/si-ling-bianma-zhi-shijie-caozong-zhe"
    },
    {
      "id": 3533,
      "nome": "Silent Möbius",
      "link": "https://animefire.plus/animes/silent-moebius-todos-os-episodios",
      "texto_original": "Silent Möbius",
      "rating": 6.88,
      "classificacao_etaria": "A14",
      "imagem_original": "https://animefire.plus/img/animes/silent-moebius.webp",
      "imagem_pasta": "https://animefire.plus/img/animes/silent-moebius/",
      "secao": "legendados",
      "pagina": 136,
      "total_episodios": 26,
      "link_video": "https://animefire.plus/video/silent-moebius"
    },
    {
      "id": 3536,
      "nome": "Sin: Nanatsu no Taizai",
      "link": "https://animefire.plus/animes/sin-nanatsu-no-taizai-todos-os-episodios",
      "texto_original": "Sin: Nanatsu no Taizai",
      "rating": 5.75,
      "classificacao_etaria": "A18",
      "imagem_original": "https://animefire.plus/img/animes/sin-nanatsu-no-taizai.webp",
      "imagem_pasta": "https://animefire.plus/img/animes/sin-nanatsu-no-taizai/",
      "secao": "legendados",
      "pagina": 103,
      "total_episodios": 12,
      "link_video": "https://animefire.plus/video/sin-nanatsu-no-taizai"
    },
    {
      "id": 3538,
      "nome": "Sister Princess",
      "link": "https://animefire.plus/animes/sister-princess-todos-os-episodios",
      "texto_original": "Sister Princess",
      "rating": 6.5,
      "classificacao_etaria": "A14",
      "imagem_original": "https://animefire.plus/img/animes/sister-princess.webp",
      "imagem_pasta": "https://animefire.plus/img/animes/sister-princess/",
      "secao": "legendados",
      "pagina": 140,
      "total_episodios": 26,
      "link_video": "https://animefire.plus/video/sister-princess"
    }
  ],
  "pagination": {
    "current_page": 74,
    "per_page": 20,
    "total_items": 1805,
    "total_pages": 91,
    "has_next": true,
    "has_prev": true
  }
}
