{
  "message": "Animes com rating entre 5 e 7",
  "rating_range": {
    "min": 5,
    "max": 7
  },
  "data": [
    {
      "id": 2123,
      "nome": "Ku Pao Ying Xiong",
      "link": "https://animefire.plus/animes/ku-pao-ying-xiong-todos-os-episodios",
      "texto_original": "Ku Pao Ying Xiong",
      "rating": 5.9,
      "classificacao_etaria": null,
      "imagem_original": "https://animefire.plus/img/animes/ku-pao-ying-xiong.webp",
      "imagem_pasta": "https://animefire.plus/img/animes/ku-pao-ying-xiong/",
      "secao": "legendados",
      "pagina": 86,
      "total_episodios": 13,
      "link_video": "https://animefire.plus/video/ku-pao-ying-xiong"
    },
    {
      "id": 2127,
      "nome": "Kujakuou",
      "link": "https://animefire.plus/animes/kujakuou-todos-os-episodios",
      "texto_original": "Kujakuou",
      "rating": 6.04,
      "classificacao_etaria": "A18",
      "imagem_original": "https://animefire.plus/img/animes/kujakuou.webp",
      "imagem_pasta": "https://animefire.plus/img/animes/kujakuou/",
      "secao": "legendados",
      "pagina": 164,
      "total_episodios": 3,
      "link_video": "https://animefire.plus/video/kujakuou"
    },
    {
      "id": 2128,
      "nome": "Kujibiki Unbalance",
      "link": "https://animefire.plus/animes/kujibiki-unbalance-todos-os-episodios",
      "texto_original": "Kujibiki Unbalance",
      "rating": 6.13,
      "classificacao_etaria": "A14",
      "imagem_original": "https://animefire.plus/img/animes/kujibiki-unbalance.webp",
      "imagem_pasta": "https://animefire.plus/img/animes/kujibiki-unbalance/",
      "secao": "legendados",
      "pagina": 66,
      "total_episodios": 3,
      "link_video": "https://animefire.plus/video/kujibiki-unbalance"
    },
    {
      "id": 2130,
      "nome": "Kuma Kuma Kuma Bear",
      "link": "https://animefire.plus/animes/kuma-kuma-kuma-bear-todos-os-episodios",
      "texto_original": "Kuma Kuma Kuma Bear",
      "rating": 6.86,
      "classificacao_etaria": "A14",
      "imagem_original": "https://animefire.plus/img/animes/kuma-kuma-kuma-bear.webp",
      "imagem_pasta": "https://animefire.plus/img/animes/kuma-kuma-kuma-bear/",
      "secao": "legendados",
      "pagina": 51,
      "total_episodios": 0,
      "link_video": "https://animefire.plus/video/kuma-kuma-kuma-bear"
    },
    {
      "id": 2132,
      "nome": "Kuma Miko",
      "link": "https://animefire.plus/animes/kuma-miko-todos-os-episodios",
      "texto_original": "Kuma Miko",
      "rating": 6.33,
      "classificacao_etaria": "A14",
      "imagem_original": "https://animefire.plus/img/animes/kuma-miko.webp",
      "imagem_pasta": "https://animefire.plus/img/animes/kuma-miko/",
      "secao": "legendados",
      "pagina": 166,
      "total_episodios": 5,
      "link_video": "https://animefire.plus/video/kuma-miko"
    },
    {
      "id": 2133,
      "nome": "Kuma Miko Specials",
      "link": "https://animefire.plus/animes/kuma-miko-specials-todos-os-episodios",
      "texto_original": "Kuma Miko Specials",
      "rating": 6.53,
      "classificacao_etaria": "A14",
      "imagem_original": "https://animefire.plus/img/animes/kuma-miko-specials.webp",
      "imagem_pasta": "https://animefire.plus/img/animes/kuma-miko-specials/",
      "secao": "legendados",
      "pagina": 86,
      "total_episodios": 2,
      "link_video": "https://animefire.plus/video/kuma-miko-specials"
    },
    {
      "id": 2137,
      "nome": "Kurage no Shokudou",
      "link": "https://animefire.plus/animes/kurage-no-shokudou-todos-os-episodios",
      "texto_original": "Kurage no Shokudou",
      "rating": 6.27,
      "classificacao_etaria": "A14",
      "imagem_original": "https://animefire.plus/img/animes/kurage-no-shokudou.webp",
      "imagem_pasta": "https://animefire.plus/img/animes/kurage-no-shokudou/",
      "secao": "legendados",
      "pagina": 79,
      "total_episodios": 1,
      "link_video": "https://animefire.plus/video/kurage-no-shokudou"
    },
    {
      "id": 2139,
      "nome": "Kuragehime: Eiyuu Retsuden☆",
      "link": "https://animefire.plus/animes/kuragehime-eiyuu-retsuden-todos-os-episodios",
      "texto_original": "Kuragehime: Eiyuu Retsuden☆",
      "rating": 6.6,
      "classificacao_etaria": "A14",
      "imagem_original": "https://animefire.plus/img/animes/kuragehime-eiyuu-retsuden.webp",
      "imagem_pasta": "https://animefire.plus/img/animes/kuragehime-eiyuu-retsuden/",
      "secao": "legendados",
      "pagina": 77,
      "total_episodios": 4,
      "link_video": "https://animefire.plus/video/kuragehime-eiyuu-retsuden"
    },
    {
      "id": 2141,
      "nome": "Kurayami Santa",
      "link": "https://animefire.plus/animes/kurayami-santa-todos-os-episodios",
      "texto_original": "Kurayami Santa",
      "rating": 5.22,
      "classificacao_etaria": "A14",
      "imagem_original": "https://animefire.plus/img/animes/kurayami-santa.webp",
      "imagem_pasta": "https://animefire.plus/img/animes/kurayami-santa/",
      "secao": "legendados",
      "pagina": 134,
      "total_episodios": 1,
      "link_video": "https://animefire.plus/video/kurayami-santa"
    },
    {
      "id": 2143,
      "nome": "Kure-nai OVA",
      "link": "https://animefire.plus/animes/kure-nai-ova-todos-os-episodios",
      "texto_original": "Kure-nai OVA",
      "rating": 6.85,
      "classificacao_etaria": "A14",
      "imagem_original": "https://animefire.plus/img/animes/kure-nai-ova.webp",
      "imagem_pasta": "https://animefire.plus/img/animes/kure-nai-ova/",
      "secao": "legendados",
      "pagina": 72,
      "total_episodios": 2,
      "link_video": "https://animefire.plus/video/kure-nai-ova"
    },
    {
      "id": 2144,
      "nome": "Kurenai Sanshirou",
      "link": "https://animefire.plus/animes/kurenai-sanshirou-todos-os-episodios",
      "texto_original": "Kurenai Sanshirou",
      "rating": 6.6,
      "classificacao_etaria": "A14",
      "imagem_original": "https://animefire.plus/img/animes/kurenai-sanshirou.webp",
      "imagem_pasta": "https://animefire.plus/img/animes/kurenai-sanshirou/",
      "secao": "legendados",
      "pagina": 112,
      "total_episodios": 26,
      "link_video": "https://animefire.plus/video/kurenai-sanshirou"
    },
    {
      "id": 2145,
      "nome": "Kuro Gal ni Natta kara Shinyuu to shitemita.",
      "link": "https://animefire.plus/animes/kuro-gal-ni-natta-kara-shinyuu-to-shitemita-todos-os-episodios",
      "texto_original": "Kuro Gal ni Natta kara Shinyuu to shitemita.",
      "rating": 6.2,
      "classificacao_etaria": "A18",
      "imagem_original": "https://animefire.plus/img/animes/kuro-gal-ni-natta-kara-shinyuu-to-shitemita.webp",
      "imagem_pasta": "https://animefire.plus/img/animes/kuro-gal-ni-natta-kara-shinyuu-to-shitemita/",
      "secao": "legendados,lancamentos",
      "pagina": 47,
      "total_episodios": 0,
      "link_video": "https://animefire.plus/video/kuro-gal-ni-natta-kara-shinyuu-to-shitemita"
    },
    {
      "id": 2148,
      "nome": "Kuroiwa Medaka ni Watashi no Kawaii ga Tsuujinai",
      "link": "https://animefire.plus/animes/kuroiwa-medaka-ni-watashi-no-kawaii-ga-tsuujinai-todos-os-episodios",
      "texto_original": "Kuroiwa Medaka ni Watashi no Kawaii ga Tsuujinai",
      "rating": 6.57,
      "classificacao_etaria": "A14",
      "imagem_original": "https://animefire.plus/img/animes/kuroiwa-medaka-ni-watashi-no-kawaii-ga-tsuujinai.webp",
      "imagem_pasta": "https://animefire.plus/img/animes/kuroiwa-medaka-ni-watashi-no-kawaii-ga-tsuujinai/",
      "secao": "legendados",
      "pagina": 8,
      "total_episodios": 12,
      "link_video": "https://animefire.plus/video/kuroiwa-medaka-ni-watashi-no-kawaii-ga-tsuujinai"
    },
    {
      "id": 2155,
      "nome": "Kuromajo-san ga Tooru!!",
      "link": "https://animefire.plus/animes/kuromajo-san-ga-tooru-todos-os-episodios",
      "texto_original": "Kuromajo-san ga Tooru!!",
      "rating": 6.49,
      "classificacao_etaria": "A10",
      "imagem_original": "https://animefire.plus/img/animes/kuromajo-san-ga-tooru.webp",
      "imagem_pasta": "https://animefire.plus/img/animes/kuromajo-san-ga-tooru/",
      "secao": "legendados",
      "pagina": 78,
      "total_episodios": 60,
      "link_video": "https://animefire.plus/video/kuromajo-san-ga-tooru"
    },
    {
      "id": 2164,
      "nome": "Kurozuka",
      "link": "https://animefire.plus/animes/kurozuka-todos-os-episodios",
      "texto_original": "Kurozuka",
      "rating": 7,
      "classificacao_etaria": "A16",
      "imagem_original": "https://animefire.plus/img/animes/kurozuka.webp",
      "imagem_pasta": "https://animefire.plus/img/animes/kurozuka/",
      "secao": "legendados",
      "pagina": 158,
      "total_episodios": 0,
      "link_video": "https://animefire.plus/video/kurozuka"
    },
    {
      "id": 2167,
      "nome": "Kuttsukiboshi",
      "link": "https://animefire.plus/animes/kuttsukiboshi-todos-os-episodios",
      "texto_original": "Kuttsukiboshi",
      "rating": 6.1,
      "classificacao_etaria": "A18",
      "imagem_original": "https://animefire.plus/img/animes/kuttsukiboshi.webp",
      "imagem_pasta": "https://animefire.plus/img/animes/kuttsukiboshi/",
      "secao": "legendados",
      "pagina": 44,
      "total_episodios": 2,
      "link_video": "https://animefire.plus/video/kuttsukiboshi"
    },
    {
      "id": 2169,
      "nome": "Kuusen Madoushi Kouhosei No Kyoukan",
      "link": "https://animefire.plus/animes/kuusen-madoushi-kouhosei-no-kyoukan-todos-os-episodios",
      "texto_original": "Kuusen Madoushi Kouhosei No Kyoukan",
      "rating": 6.56,
      "classificacao_etaria": "A14",
      "imagem_original": "https://animefire.plus/img/animes/kuusen-madoushi-kouhosei-no-kyoukan.webp",
      "imagem_pasta": "https://animefire.plus/img/animes/kuusen-madoushi-kouhosei-no-kyoukan/",
      "secao": "legendados",
      "pagina": 107,
      "total_episodios": 12,
      "link_video": "https://animefire.plus/video/kuusen-madoushi-kouhosei-no-kyoukan"
    },
    {
      "id": 2170,
      "nome": "Kuusen Madoushi Kouhosei no Kyoukan: Lecty no, Ikimonogatari",
      "link": "https://animefire.plus/animes/kuusen-madoushi-kouhosei-no-kyoukan-lecty-no-ikimonogatari-todos-os-episodios",
      "texto_original": "Kuusen Madoushi Kouhosei no Kyoukan: Lecty no, Ikimonogatari",
      "rating": 6.45,
      "classificacao_etaria": "A14",
      "imagem_original": "https://animefire.plus/img/animes/kuusen-madoushi-kouhosei-no-kyoukan-lecty-no-ikimonogatari.webp",
      "imagem_pasta": "https://animefire.plus/img/animes/kuusen-madoushi-kouhosei-no-kyoukan-lecty-no-ikimonogatari/",
      "secao": "legendados",
      "pagina": 71,
      "total_episodios": 1,
      "link_video": "https://animefire.plus/video/kuusen-madoushi-kouhosei-no-kyoukan-lecty-no-ikimonogatari"
    },
    {
      "id": 2174,
      "nome": "Kyokou Suiri",
      "link": "https://animefire.plus/animes/kyokou-suiri-todos-os-episodios",
      "texto_original": "Kyokou Suiri",
      "rating": 6.96,
      "classificacao_etaria": "A16",
      "imagem_original": "https://animefire.plus/img/animes/kyokou-suiri.webp",
      "imagem_pasta": "https://animefire.plus/img/animes/kyokou-suiri/",
      "secao": "legendados",
      "pagina": 92,
      "total_episodios": 0,
      "link_video": "https://animefire.plus/video/kyokou-suiri"
    },
    {
      "id": 2176,
      "nome": "Kyoto Teramachi Sanjou no Holmes",
      "link": "https://animefire.plus/animes/kyoto-teramachi-sanjou-no-holmes-todos-os-episodios",
      "texto_original": "Kyoto Teramachi Sanjou no Holmes",
      "rating": 6.81,
      "classificacao_etaria": "A14",
      "imagem_original": "https://animefire.plus/img/animes/kyoto-teramachi-sanjou-no-holmes.webp",
      "imagem_pasta": "https://animefire.plus/img/animes/kyoto-teramachi-sanjou-no-holmes/",
      "secao": "legendados",
      "pagina": 143,
      "total_episodios": 12,
      "link_video": "https://animefire.plus/video/kyoto-teramachi-sanjou-no-holmes"
    }
  ],
  "pagination": {
    "current_page": 47,
    "per_page": 20,
    "total_items": 1805,
    "total_pages": 91,
    "has_next": true,
    "has_prev": true
  }
}
