{
  "message": "Animes com rating entre 5 e 7",
  "rating_range": {
    "min": 5,
    "max": 7
  },
  "data": [
    {
      "id": 1654,
      "nome": "Isekai de Mofumofu Nadenade suru Tame ni Ganbattemasu.",
      "link": "https://animefire.plus/animes/isekai-de-mofumofu-nadenade-suru-tame-ni-ganbattemasu-todos-os-episodios",
      "texto_original": "Isekai de Mofumofu Nadenade suru Tame ni Ganbattemasu.",
      "rating": 6.78,
      "classificacao_etaria": "A14",
      "imagem_original": "https://animefire.plus/img/animes/isekai-de-mofumofu-nadenade-suru-tame-ni-ganbattemasu.webp",
      "imagem_pasta": "https://animefire.plus/img/animes/isekai-de-mofumofu-nadenade-suru-tame-ni-ganbattemasu/",
      "secao": "legendados",
      "pagina": 17,
      "total_episodios": 12,
      "link_video": "https://animefire.plus/video/isekai-de-mofumofu-nadenade-suru-tame-ni-ganbattemasu"
    },
    {
      "id": 1657,
      "nome": "Isekai Maou to Shoukan Shoujo no Dorei Majutsu Ω",
      "link": "https://animefire.plus/animes/how-not-to-summon-a-demon-lord-todos-os-episodios",
      "texto_original": "Isekai Maou to Shoukan Shoujo no Dorei Majutsu Ω",
      "rating": 6.69,
      "classificacao_etaria": "A14",
      "imagem_original": "https://animefire.plus/img/animes/how-not-to-summon-a-demon-lord.webp",
      "imagem_pasta": "https://animefire.plus/img/animes/how-not-to-summon-a-demon-lord/",
      "secao": "legendados",
      "pagina": 48,
      "total_episodios": 2,
      "link_video": "https://animefire.plus/video/how-not-to-summon-a-demon-lord"
    },
    {
      "id": 1658,
      "nome": "Isekai Meikyuu de Harem wo",
      "link": "https://animefire.plus/animes/isekai-meikyuu-de-harem-wo-todos-os-episodios",
      "texto_original": "Isekai Meikyuu de Harem wo",
      "rating": 6.54,
      "classificacao_etaria": "A18",
      "imagem_original": "https://animefire.plus/img/animes/isekai-meikyuu-de-harem-wo.webp",
      "imagem_pasta": "https://animefire.plus/img/animes/isekai-meikyuu-de-harem-wo/",
      "secao": "legendados",
      "pagina": 31,
      "total_episodios": 12,
      "link_video": "https://animefire.plus/video/isekai-meikyuu-de-harem-wo"
    },
    {
      "id": 1659,
      "nome": "Isekai Meikyuu de Harem wo Specials",
      "link": "https://animefire.plus/animes/isekai-meikyuu-de-harem-wo-specials-todos-os-episodios",
      "texto_original": "Isekai Meikyuu de Harem wo Specials",
      "rating": 6.65,
      "classificacao_etaria": "A18",
      "imagem_original": "https://animefire.plus/img/animes/isekai-meikyuu-de-harem-wo-specials.webp",
      "imagem_pasta": "https://animefire.plus/img/animes/isekai-meikyuu-de-harem-wo-specials/",
      "secao": "legendados",
      "pagina": 25,
      "total_episodios": 2,
      "link_video": "https://animefire.plus/video/isekai-meikyuu-de-harem-wo-specials"
    },
    {
      "id": 1660,
      "nome": "Isekai Mokushiroku Mynoghra: Hametsu no Bunmei de Hajimeru Sekai Seifuku",
      "link": "https://animefire.plus/animes/isekai-mokushiroku-mynoghra-hametsu-no-bunmei-de-hajimeru-sekai-seifuku-todos-os-episodios",
      "texto_original": "Isekai Mokushiroku Mynoghra: Hametsu no Bunmei de Hajimeru Sekai Seifuku",
      "rating": 7,
      "classificacao_etaria": "A14",
      "imagem_original": "https://animefire.plus/img/animes/isekai-mokushiroku-mynoghra-hametsu-no-bunmei-de-hajimeru-sekai-seifuku.webp",
      "imagem_pasta": "https://animefire.plus/img/animes/isekai-mokushiroku-mynoghra-hametsu-no-bunmei-de-hajimeru-sekai-seifuku/",
      "secao": "legendados,lancamentos",
      "pagina": 3,
      "total_episodios": 5,
      "link_video": "https://animefire.plus/video/isekai-mokushiroku-mynoghra-hametsu-no-bunmei-de-hajimeru-sekai-seifuku"
    },
    {
      "id": 1664,
      "nome": "Isekai One Turn Kill Neesan: Ane Douhan no Isekai Seikatsu Hajimemashita",
      "link": "https://animefire.plus/animes/isekai-one-turn-kill-neesan-ane-douhan-no-isekai-seikatsu-hajimemashita-todos-os-episodios",
      "texto_original": "Isekai One Turn Kill Neesan: Ane Douhan no Isekai Seikatsu Hajimemashita",
      "rating": 6.31,
      "classificacao_etaria": "A14",
      "imagem_original": "https://animefire.plus/img/animes/isekai-one-turn-kill-neesan-ane-douhan-no-isekai-seikatsu-hajimemashita.jpg",
      "imagem_pasta": "https://animefire.plus/img/animes/isekai-one-turn-kill-neesan-ane-douhan-no-isekai-seikatsu-hajimemashita/",
      "secao": "legendados",
      "pagina": 24,
      "total_episodios": 12,
      "link_video": "https://animefire.plus/video/isekai-one-turn-kill-neesan-ane-douhan-no-isekai-seikatsu-hajimemashita"
    },
    {
      "id": 1670,
      "nome": "Isekai Shoukan wa Nidome desu",
      "link": "https://animefire.plus/animes/isekai-shoukan-wa-nidome-desu-todos-os-episodios",
      "texto_original": "Isekai Shoukan wa Nidome desu",
      "rating": 5.67,
      "classificacao_etaria": "A14",
      "imagem_original": "https://animefire.plus/img/animes/isekai-shoukan-wa-nidome-desu.jpg",
      "imagem_pasta": "https://animefire.plus/img/animes/isekai-shoukan-wa-nidome-desu/",
      "secao": "legendados",
      "pagina": 24,
      "total_episodios": 12,
      "link_video": "https://animefire.plus/video/isekai-shoukan-wa-nidome-desu"
    },
    {
      "id": 1671,
      "nome": "Isekai Suicide Squad",
      "link": "https://animefire.plus/animes/isekai-suicide-squad-todos-os-episodios",
      "texto_original": "Isekai Suicide Squad",
      "rating": 6.41,
      "classificacao_etaria": "A16",
      "imagem_original": "https://animefire.plus/img/animes/isekai-suicide-squad.webp",
      "imagem_pasta": "https://animefire.plus/img/animes/isekai-suicide-squad/",
      "secao": "legendados",
      "pagina": 12,
      "total_episodios": 10,
      "link_video": "https://animefire.plus/video/isekai-suicide-squad"
    },
    {
      "id": 1672,
      "nome": "Isekai wa Smartphone to Tomo ni. (Dublado)",
      "link": "https://animefire.plus/animes/isekai-wa-smartphone-to-tomo-ni-dublado-todos-os-episodios",
      "texto_original": "Isekai wa Smartphone to Tomo ni. (Dublado)",
      "rating": 6.5,
      "classificacao_etaria": "A14",
      "imagem_original": "https://animefire.plus/img/animes/isekai-wa-smartphone-to-tomo-ni.webp",
      "imagem_pasta": "https://animefire.plus/img/animes/isekai-wa-smartphone-to-tomo-ni/",
      "secao": "dublados,legendados",
      "pagina": 24,
      "total_episodios": 3,
      "link_video": "https://animefire.plus/video/isekai-wa-smartphone-to-tomo-ni-dublado"
    },
    {
      "id": 1673,
      "nome": "Isekai wa Smartphone to Tomo ni. 2 (Dublado)",
      "link": "https://animefire.plus/animes/isekai-wa-smartphone-to-tomo-ni-2-dublado-todos-os-episodios",
      "texto_original": "Isekai wa Smartphone to Tomo ni. 2 (Dublado)",
      "rating": 6.41,
      "classificacao_etaria": "A14",
      "imagem_original": "https://animefire.plus/img/animes/isekai-wa-smartphone-to-tomo-ni-2.webp",
      "imagem_pasta": "https://animefire.plus/img/animes/isekai-wa-smartphone-to-tomo-ni-2/",
      "secao": "dublados,legendados",
      "pagina": 7,
      "total_episodios": 12,
      "link_video": "https://animefire.plus/video/isekai-wa-smartphone-to-tomo-ni-2-dublado"
    },
    {
      "id": 1675,
      "nome": "Isekai Yururi Kikou: Kosodateshinagara Boukensha Shimasu",
      "link": "https://animefire.plus/animes/isekai-yururi-kikou-kosodateshinagara-boukensha-shimasu-todos-os-episodios",
      "texto_original": "Isekai Yururi Kikou: Kosodateshinagara Boukensha Shimasu",
      "rating": 6.67,
      "classificacao_etaria": "A14",
      "imagem_original": "https://animefire.plus/img/animes/isekai-yururi-kikou-kosodateshinagara-boukensha-shimasu.webp",
      "imagem_pasta": "https://animefire.plus/img/animes/isekai-yururi-kikou-kosodateshinagara-boukensha-shimasu/",
      "secao": "legendados",
      "pagina": 11,
      "total_episodios": 12,
      "link_video": "https://animefire.plus/video/isekai-yururi-kikou-kosodateshinagara-boukensha-shimasu"
    },
    {
      "id": 1676,
      "nome": "Ishida to Asakura",
      "link": "https://animefire.plus/animes/ishida-to-asakura-todos-os-episodios",
      "texto_original": "Ishida to Asakura",
      "rating": 5.96,
      "classificacao_etaria": "A14",
      "imagem_original": "https://animefire.plus/img/animes/ishida-to-asakura.webp",
      "imagem_pasta": "https://animefire.plus/img/animes/ishida-to-asakura/",
      "secao": "legendados",
      "pagina": 121,
      "total_episodios": 12,
      "link_video": "https://animefire.plus/video/ishida-to-asakura"
    },
    {
      "id": 1677,
      "nome": "Ishura",
      "link": "https://animefire.plus/animes/ishura-todos-os-episodios",
      "texto_original": "Ishura",
      "rating": 6.72,
      "classificacao_etaria": "A14",
      "imagem_original": "https://animefire.plus/img/animes/ishura.webp",
      "imagem_pasta": "https://animefire.plus/img/animes/ishura/",
      "secao": "legendados",
      "pagina": 17,
      "total_episodios": 12,
      "link_video": "https://animefire.plus/video/ishura"
    },
    {
      "id": 1680,
      "nome": "Island",
      "link": "https://animefire.plus/animes/island-todos-os-episodios",
      "texto_original": "Island",
      "rating": 6.52,
      "classificacao_etaria": "A14",
      "imagem_original": "https://animefire.plus/img/animes/island.webp",
      "imagem_pasta": "https://animefire.plus/img/animes/island/",
      "secao": "legendados",
      "pagina": 170,
      "total_episodios": 12,
      "link_video": "https://animefire.plus/video/island"
    },
    {
      "id": 1682,
      "nome": "Isshun de Chiryou shiteita noni Yakutatazu to Tsuihou sareta Tensai Chiyushi, Yami Healer toshite Tanoshiku Ikiru",
      "link": "https://animefire.plus/animes/isshun-de-chiryou-shiteita-noni-yakutatazu-to-tsuihou-sareta-tensai-chiyushi-yami-healer-toshite-tanoshiku-ikiru-todos-os-episodios",
      "texto_original": "Isshun de Chiryou shiteita noni Yakutatazu to Tsuihou sareta Tensai Chiyushi, Yami Healer toshite Tanoshiku Ikiru",
      "rating": 6.86,
      "classificacao_etaria": "A14",
      "imagem_original": "https://animefire.plus/img/animes/isshun-de-chiryou-shiteita-noni-yakutatazu-to-tsuihou-sareta-tensai-chiyushi-yami-healer-toshite-tanoshiku-ikiru.webp",
      "imagem_pasta": "https://animefire.plus/img/animes/isshun-de-chiryou-shiteita-noni-yakutatazu-to-tsuihou-sareta-tensai-chiyushi-yami-healer-toshite-tanoshiku-ikiru/",
      "secao": "legendados",
      "pagina": 5,
      "total_episodios": 12,
      "link_video": "https://animefire.plus/video/isshun-de-chiryou-shiteita-noni-yakutatazu-to-tsuihou-sareta-tensai-chiyushi-yami-healer-toshite-tanoshiku-ikiru"
    },
    {
      "id": 1684,
      "nome": "Isuca",
      "link": "https://animefire.plus/animes/isuca-todos-os-episodios",
      "texto_original": "Isuca",
      "rating": 6.13,
      "classificacao_etaria": "A18",
      "imagem_original": "https://animefire.plus/img/animes/isuca.webp",
      "imagem_pasta": "https://animefire.plus/img/animes/isuca/",
      "secao": "legendados",
      "pagina": 97,
      "total_episodios": 10,
      "link_video": "https://animefire.plus/video/isuca"
    },
    {
      "id": 1688,
      "nome": "Itazuraguma no Gloomy",
      "link": "https://animefire.plus/animes/itazuraguma-no-gloomy-todos-os-episodios",
      "texto_original": "Itazuraguma no Gloomy",
      "rating": 5.28,
      "classificacao_etaria": "A16",
      "imagem_original": "https://animefire.plus/img/animes/itazuraguma-no-gloomy.webp",
      "imagem_pasta": "https://animefire.plus/img/animes/itazuraguma-no-gloomy/",
      "secao": "legendados",
      "pagina": 45,
      "total_episodios": 12,
      "link_video": "https://animefire.plus/video/itazuraguma-no-gloomy"
    },
    {
      "id": 1689,
      "nome": "Itoshi no Muco",
      "link": "https://animefire.plus/animes/itoshi-no-muco-todos-os-episodios",
      "texto_original": "Itoshi no Muco",
      "rating": 6.83,
      "classificacao_etaria": "A10",
      "imagem_original": "https://animefire.plus/img/animes/itoshi-no-muco.webp",
      "imagem_pasta": "https://animefire.plus/img/animes/itoshi-no-muco/",
      "secao": "legendados",
      "pagina": 174,
      "total_episodios": 25,
      "link_video": "https://animefire.plus/video/itoshi-no-muco"
    },
    {
      "id": 1690,
      "nome": "Itou Junji: Collection",
      "link": "https://animefire.plus/animes/itou-junji-collection-todos-os-episodios",
      "texto_original": "Itou Junji: Collection",
      "rating": 6.2,
      "classificacao_etaria": "A16",
      "imagem_original": "https://animefire.plus/img/animes/itou-junji-collection.webp",
      "imagem_pasta": "https://animefire.plus/img/animes/itou-junji-collection/",
      "secao": "legendados",
      "pagina": 148,
      "total_episodios": 12,
      "link_video": "https://animefire.plus/video/itou-junji-collection"
    },
    {
      "id": 1691,
      "nome": "Itou Junji: Maniac (Dublado)",
      "link": "https://animefire.plus/animes/itou-junji-maniac-dublado-todos-os-episodios",
      "texto_original": "Itou Junji: Maniac (Dublado)",
      "rating": 6.66,
      "classificacao_etaria": "A16",
      "imagem_original": "https://animefire.plus/img/animes/itou-junji-maniac.webp",
      "imagem_pasta": "https://animefire.plus/img/animes/itou-junji-maniac/",
      "secao": "dublados,legendados",
      "pagina": 8,
      "total_episodios": 12,
      "link_video": "https://animefire.plus/video/itou-junji-maniac-dublado"
    }
  ],
  "pagination": {
    "current_page": 37,
    "per_page": 20,
    "total_items": 1805,
    "total_pages": 91,
    "has_next": true,
    "has_prev": true
  }
}
