{
  "message": "Animes com rating entre 5 e 7",
  "rating_range": {
    "min": 5,
    "max": 7
  },
  "data": [
    {
      "id": 1290,
      "nome": "Guomin Laogong Dai Huijia 2nd season",
      "link": "https://animefire.plus/animes/guomin-laogong-dai-huijia-2nd-season-todos-os-episodios",
      "texto_original": "Guomin Laogong Dai Huijia 2nd season",
      "rating": 6.66,
      "classificacao_etaria": "A14",
      "imagem_original": "https://animefire.plus/img/animes/guomin-laogong-dai-huijia-2nd-season.webp",
      "imagem_pasta": "https://animefire.plus/img/animes/guomin-laogong-dai-huijia-2nd-season/",
      "secao": "legendados",
      "pagina": 88,
      "total_episodios": 12,
      "link_video": "https://animefire.plus/video/guomin-laogong-dai-huijia-2nd-season"
    },
    {
      "id": 1291,
      "nome": "Guomin Laogong Dai Huijia 3rd Season",
      "link": "https://animefire.plus/animes/guomin-laogong-dai-huijia-3rd-season-todos-os-episodios",
      "texto_original": "Guomin Laogong Dai Huijia 3rd Season",
      "rating": 6.65,
      "classificacao_etaria": "A14",
      "imagem_original": "https://animefire.plus/img/animes/guomin-laogong-dai-huijia-3rd-season.webp",
      "imagem_pasta": "https://animefire.plus/img/animes/guomin-laogong-dai-huijia-3rd-season/",
      "secao": "legendados",
      "pagina": 132,
      "total_episodios": 12,
      "link_video": "https://animefire.plus/video/guomin-laogong-dai-huijia-3rd-season"
    },
    {
      "id": 1292,
      "nome": "Guomin Laogong Dai Huijia 4th Season",
      "link": "https://animefire.plus/animes/guomin-laogong-dai-huijia-4th-season-todos-os-episodios",
      "texto_original": "Guomin Laogong Dai Huijia 4th Season",
      "rating": 6.5,
      "classificacao_etaria": "A14",
      "imagem_original": "https://animefire.plus/img/animes/guomin-laogong-dai-huijia-4th-season.webp",
      "imagem_pasta": "https://animefire.plus/img/animes/guomin-laogong-dai-huijia-4th-season/",
      "secao": "legendados",
      "pagina": 88,
      "total_episodios": 12,
      "link_video": "https://animefire.plus/video/guomin-laogong-dai-huijia-4th-season"
    },
    {
      "id": 1294,
      "nome": "Gurazeni",
      "link": "https://animefire.plus/animes/gurazeni-todos-os-episodios",
      "texto_original": "Gurazeni",
      "rating": 6.38,
      "classificacao_etaria": "A14",
      "imagem_original": "https://animefire.plus/img/animes/gurazeni.webp",
      "imagem_pasta": "https://animefire.plus/img/animes/gurazeni/",
      "secao": "legendados",
      "pagina": 103,
      "total_episodios": 0,
      "link_video": "https://animefire.plus/video/gurazeni"
    },
    {
      "id": 1297,
      "nome": "Gyakuten Saiban: Sono \"Shinjitsu\", Igi Ari!",
      "link": "https://animefire.plus/animes/gyakuten-saiban-sono-shinjitsu-igi-ari-todos-os-episodios",
      "texto_original": "Gyakuten Saiban: Sono \"Shinjitsu\", Igi Ari!",
      "rating": 6.47,
      "classificacao_etaria": "A14",
      "imagem_original": "https://animefire.plus/img/animes/gyakuten-saiban-sono-shinjitsu-igi-ari.webp",
      "imagem_pasta": "https://animefire.plus/img/animes/gyakuten-saiban-sono-shinjitsu-igi-ari/",
      "secao": "legendados",
      "pagina": 116,
      "total_episodios": 9,
      "link_video": "https://animefire.plus/video/gyakuten-saiban-sono-shinjitsu-igi-ari"
    },
    {
      "id": 1298,
      "nome": "Gyakuten Sekai no Denchi Shoujo (Dublado)",
      "link": "https://animefire.plus/animes/gyakuten-sekai-no-denchi-shoujo-dublado-todos-os-episodios",
      "texto_original": "Gyakuten Sekai no Denchi Shoujo (Dublado)",
      "rating": 6.3,
      "classificacao_etaria": "A14",
      "imagem_original": "https://animefire.plus/img/animes/gyakuten-sekai-no-denchi-shoujo.webp",
      "imagem_pasta": "https://animefire.plus/img/animes/gyakuten-sekai-no-denchi-shoujo/",
      "secao": "dublados,legendados",
      "pagina": 14,
      "total_episodios": 12,
      "link_video": "https://animefire.plus/video/gyakuten-sekai-no-denchi-shoujo-dublado"
    },
    {
      "id": 1300,
      "nome": "Hachi-nan tte, Sore wa Nai deshou!",
      "link": "https://animefire.plus/animes/hachi-nan-tte-sore-wa-nai-deshou-todos-os-episodios",
      "texto_original": "Hachi-nan tte, Sore wa Nai deshou!",
      "rating": 6.19,
      "classificacao_etaria": "A14",
      "imagem_original": "https://animefire.plus/img/animes/hachi-nan-tte-sore-wa-nai-deshou.webp",
      "imagem_pasta": "https://animefire.plus/img/animes/hachi-nan-tte-sore-wa-nai-deshou/",
      "secao": "legendados",
      "pagina": 81,
      "total_episodios": 2,
      "link_video": "https://animefire.plus/video/hachi-nan-tte-sore-wa-nai-deshou"
    },
    {
      "id": 1301,
      "nome": "Hachigatsu no Cinderella Nine",
      "link": "https://animefire.plus/animes/hachigatsu-no-cinderella-nine-todos-os-episodios",
      "texto_original": "Hachigatsu no Cinderella Nine",
      "rating": 6.08,
      "classificacao_etaria": "A14",
      "imagem_original": "https://animefire.plus/img/animes/hachigatsu-no-cinderella-nine.webp",
      "imagem_pasta": "https://animefire.plus/img/animes/hachigatsu-no-cinderella-nine/",
      "secao": "legendados",
      "pagina": 179,
      "total_episodios": 0,
      "link_video": "https://animefire.plus/video/hachigatsu-no-cinderella-nine"
    },
    {
      "id": 1303,
      "nome": "Hacka Doll The Animation",
      "link": "https://animefire.plus/animes/hacka-doll-the-animation-todos-os-episodios",
      "texto_original": "Hacka Doll The Animation",
      "rating": 6.45,
      "classificacao_etaria": "A14",
      "imagem_original": "https://animefire.plus/img/animes/hacka-doll-the-animation.webp",
      "imagem_pasta": "https://animefire.plus/img/animes/hacka-doll-the-animation/",
      "secao": "legendados",
      "pagina": 74,
      "total_episodios": 13,
      "link_video": "https://animefire.plus/video/hacka-doll-the-animation"
    },
    {
      "id": 1309,
      "nome": "Haikyuu!! Quest Picture Drama",
      "link": "https://animefire.plus/animes/haikyuu-quest-picture-drama-todos-os-episodios",
      "texto_original": "Haikyuu!! Quest Picture Drama",
      "rating": 6.52,
      "classificacao_etaria": "A14",
      "imagem_original": "https://animefire.plus/img/animes/haikyuu-quest-picture-drama.webp",
      "imagem_pasta": "https://animefire.plus/img/animes/haikyuu-quest-picture-drama/",
      "secao": "legendados",
      "pagina": 157,
      "total_episodios": 3,
      "link_video": "https://animefire.plus/video/haikyuu-quest-picture-drama"
    },
    {
      "id": 1316,
      "nome": "Haitai Nanafa",
      "link": "https://animefire.plus/animes/haitai-nanafa-todos-os-episodios",
      "texto_original": "Haitai Nanafa",
      "rating": 6.01,
      "classificacao_etaria": "A14",
      "imagem_original": "https://animefire.plus/img/animes/haitai-nanafa.webp",
      "imagem_pasta": "https://animefire.plus/img/animes/haitai-nanafa/",
      "secao": "legendados",
      "pagina": 71,
      "total_episodios": 13,
      "link_video": "https://animefire.plus/video/haitai-nanafa"
    },
    {
      "id": 1317,
      "nome": "Haite Kudasai, Takamine-san",
      "link": "https://animefire.plus/animes/haite-kudasai-takamine-san-todos-os-episodios",
      "texto_original": "Haite Kudasai, Takamine-san",
      "rating": 6.23,
      "classificacao_etaria": "A18",
      "imagem_original": "https://animefire.plus/img/animes/haite-kudasai-takamine-san.webp",
      "imagem_pasta": "https://animefire.plus/img/animes/haite-kudasai-takamine-san/",
      "secao": "legendados",
      "pagina": 6,
      "total_episodios": 12,
      "link_video": "https://animefire.plus/video/haite-kudasai-takamine-san"
    },
    {
      "id": 1318,
      "nome": "Haiyore! Nyaruko-san (Dublado)",
      "link": "https://animefire.plus/animes/haiyore-nyaruko-san-dublado-todos-os-episodios",
      "texto_original": "Haiyore! Nyaruko-san (Dublado)",
      "rating": 6.99,
      "classificacao_etaria": "A14",
      "imagem_original": "https://animefire.plus/img/animes/haiyore-nyaruko-san.webp",
      "imagem_pasta": "https://animefire.plus/img/animes/haiyore-nyaruko-san/",
      "secao": "dublados,legendados",
      "pagina": 5,
      "total_episodios": 12,
      "link_video": "https://animefire.plus/video/haiyore-nyaruko-san-dublado"
    },
    {
      "id": 1324,
      "nome": "Hajimete no Gal",
      "link": "https://animefire.plus/animes/hajimete-no-gal-todos-os-episodios",
      "texto_original": "Hajimete no Gal",
      "rating": 6.18,
      "classificacao_etaria": "A14",
      "imagem_original": "https://animefire.plus/img/animes/hajimete-no-gal.webp",
      "imagem_pasta": "https://animefire.plus/img/animes/hajimete-no-gal/",
      "secao": "legendados",
      "pagina": 80,
      "total_episodios": 11,
      "link_video": "https://animefire.plus/video/hajimete-no-gal"
    },
    {
      "id": 1325,
      "nome": "Hajimete no Gal: Hajimete no Bunkasai",
      "link": "https://animefire.plus/animes/hajimete-no-gal-hajimete-no-bunkasai-todos-os-episodios",
      "texto_original": "Hajimete no Gal: Hajimete no Bunkasai",
      "rating": 6.5,
      "classificacao_etaria": "A14",
      "imagem_original": "https://animefire.plus/img/animes/hajimete-no-gal-hajimete-no-bunkasai.webp",
      "imagem_pasta": "https://animefire.plus/img/animes/hajimete-no-gal-hajimete-no-bunkasai/",
      "secao": "legendados",
      "pagina": 78,
      "total_episodios": 1,
      "link_video": "https://animefire.plus/video/hajimete-no-gal-hajimete-no-bunkasai"
    },
    {
      "id": 1326,
      "nome": "Hakata Mentai! Pirikarako-chan",
      "link": "https://animefire.plus/animes/hakata-mentai-pirikarako-chan-todos-os-episodios",
      "texto_original": "Hakata Mentai! Pirikarako-chan",
      "rating": 5.05,
      "classificacao_etaria": null,
      "imagem_original": "https://animefire.plus/img/animes/hakata-mentai-pirikarako-chan.webp",
      "imagem_pasta": "https://animefire.plus/img/animes/hakata-mentai-pirikarako-chan/",
      "secao": "legendados",
      "pagina": 75,
      "total_episodios": 12,
      "link_video": "https://animefire.plus/video/hakata-mentai-pirikarako-chan"
    },
    {
      "id": 1340,
      "nome": "Hakyuu Houshin Engi",
      "link": "https://animefire.plus/animes/hakyuu-houshin-engi-todos-os-episodios",
      "texto_original": "Hakyuu Houshin Engi",
      "rating": 5.67,
      "classificacao_etaria": "A14",
      "imagem_original": "https://animefire.plus/img/animes/hakyuu-houshin-engi.webp",
      "imagem_pasta": "https://animefire.plus/img/animes/hakyuu-houshin-engi/",
      "secao": "legendados",
      "pagina": 139,
      "total_episodios": 24,
      "link_video": "https://animefire.plus/video/hakyuu-houshin-engi"
    },
    {
      "id": 1344,
      "nome": "Hametsu no Oukoku",
      "link": "https://animefire.plus/animes/hametsu-no-oukoku-todos-os-episodios",
      "texto_original": "Hametsu no Oukoku",
      "rating": 6.22,
      "classificacao_etaria": "A16",
      "imagem_original": "https://animefire.plus/img/animes/hametsu-no-oukoku.webp",
      "imagem_pasta": "https://animefire.plus/img/animes/hametsu-no-oukoku/",
      "secao": "legendados",
      "pagina": 21,
      "total_episodios": 12,
      "link_video": "https://animefire.plus/video/hametsu-no-oukoku"
    },
    {
      "id": 1349,
      "nome": "Hanabi-chan wa Okuregachi",
      "link": "https://animefire.plus/animes/hanabi-chan-wa-okuregachi-todos-os-episodios",
      "texto_original": "Hanabi-chan wa Okuregachi",
      "rating": 6.13,
      "classificacao_etaria": "A14",
      "imagem_original": "https://animefire.plus/img/animes/hanabi-chan-wa-okuregachi.webp",
      "imagem_pasta": "https://animefire.plus/img/animes/hanabi-chan-wa-okuregachi/",
      "secao": "legendados",
      "pagina": 31,
      "total_episodios": 12,
      "link_video": "https://animefire.plus/video/hanabi-chan-wa-okuregachi"
    },
    {
      "id": 1352,
      "nome": "Hananoi-kun to Koi no Yamai (Dublado)",
      "link": "https://animefire.plus/animes/hananoi-kun-to-koi-no-yamai-dublado-todos-os-episodios",
      "texto_original": "Hananoi-kun to Koi no Yamai (Dublado)",
      "rating": 6.75,
      "classificacao_etaria": "A14",
      "imagem_original": "https://animefire.plus/img/animes/hananoi-kun-to-koi-no-yamai.webp",
      "imagem_pasta": "https://animefire.plus/img/animes/hananoi-kun-to-koi-no-yamai/",
      "secao": "dublados,legendados,lancamentos",
      "pagina": 2,
      "total_episodios": 12,
      "link_video": "https://animefire.plus/video/hananoi-kun-to-koi-no-yamai-dublado"
    }
  ],
  "pagination": {
    "current_page": 30,
    "per_page": 20,
    "total_items": 1805,
    "total_pages": 91,
    "has_next": true,
    "has_prev": true
  }
}
