{
  "message": "Animes com rating entre 5 e 7",
  "rating_range": {
    "min": 5,
    "max": 7
  },
  "data": [
    {
      "id": 4209,
      "nome": "Yami Shibai 2 (Dublado)",
      "link": "https://animefire.plus/animes/yami-shibai-2-dublado-todos-os-episodios",
      "texto_original": "Yami Shibai 2 (Dublado)",
      "rating": 6.51,
      "classificacao_etaria": "A14",
      "imagem_original": "https://animefire.plus/img/animes/yami-shibai-2.webp",
      "imagem_pasta": "https://animefire.plus/img/animes/yami-shibai-2/",
      "secao": "dublados,legendados",
      "pagina": 4,
      "total_episodios": 13,
      "link_video": "https://animefire.plus/video/yami-shibai-2-dublado"
    },
    {
      "id": 4210,
      "nome": "Yami Shibai 3 (Dublado)",
      "link": "https://animefire.plus/animes/yami-shibai-3-dublado-todos-os-episodios",
      "texto_original": "Yami Shibai 3 (Dublado)",
      "rating": 6.33,
      "classificacao_etaria": "A14",
      "imagem_original": "https://animefire.plus/img/animes/yami-shibai-3.webp",
      "imagem_pasta": "https://animefire.plus/img/animes/yami-shibai-3/",
      "secao": "dublados,legendados",
      "pagina": 4,
      "total_episodios": 13,
      "link_video": "https://animefire.plus/video/yami-shibai-3-dublado"
    },
    {
      "id": 4211,
      "nome": "Yami Shibai 4 (Dublado)",
      "link": "https://animefire.plus/animes/yami-shibai-4-dublado-todos-os-episodios",
      "texto_original": "Yami Shibai 4 (Dublado)",
      "rating": 5.81,
      "classificacao_etaria": "A14",
      "imagem_original": "https://animefire.plus/img/animes/yami-shibai-4.webp",
      "imagem_pasta": "https://animefire.plus/img/animes/yami-shibai-4/",
      "secao": "dublados,legendados",
      "pagina": 4,
      "total_episodios": 13,
      "link_video": "https://animefire.plus/video/yami-shibai-4-dublado"
    },
    {
      "id": 4212,
      "nome": "Yami Shibai 5",
      "link": "https://animefire.plus/animes/yami-shibai-5-todos-os-episodios",
      "texto_original": "Yami Shibai 5",
      "rating": 6.29,
      "classificacao_etaria": "A14",
      "imagem_original": "https://animefire.plus/img/animes/yami-shibai-5.webp",
      "imagem_pasta": "https://animefire.plus/img/animes/yami-shibai-5/",
      "secao": "legendados",
      "pagina": 73,
      "total_episodios": 13,
      "link_video": "https://animefire.plus/video/yami-shibai-5"
    },
    {
      "id": 4213,
      "nome": "Yami Shibai 6",
      "link": "https://animefire.plus/animes/yami-shibai-6-todos-os-episodios",
      "texto_original": "Yami Shibai 6",
      "rating": 6.13,
      "classificacao_etaria": "A14",
      "imagem_original": "https://animefire.plus/img/animes/yami-shibai-6.webp",
      "imagem_pasta": "https://animefire.plus/img/animes/yami-shibai-6/",
      "secao": "legendados",
      "pagina": 171,
      "total_episodios": 13,
      "link_video": "https://animefire.plus/video/yami-shibai-6"
    },
    {
      "id": 4214,
      "nome": "Yami Shibai 7",
      "link": "https://animefire.plus/animes/yami-shibai-7-todos-os-episodios",
      "texto_original": "Yami Shibai 7",
      "rating": 5.91,
      "classificacao_etaria": "A14",
      "imagem_original": "https://animefire.plus/img/animes/yami-shibai-7.webp",
      "imagem_pasta": "https://animefire.plus/img/animes/yami-shibai-7/",
      "secao": "legendados",
      "pagina": 84,
      "total_episodios": 13,
      "link_video": "https://animefire.plus/video/yami-shibai-7"
    },
    {
      "id": 4215,
      "nome": "Yami Shibai 8",
      "link": "https://animefire.plus/animes/yami-shibai-8-todos-os-episodios",
      "texto_original": "Yami Shibai 8",
      "rating": 5.83,
      "classificacao_etaria": "A14",
      "imagem_original": "https://animefire.plus/img/animes/yami-shibai-8.webp",
      "imagem_pasta": "https://animefire.plus/img/animes/yami-shibai-8/",
      "secao": "legendados",
      "pagina": 49,
      "total_episodios": 13,
      "link_video": "https://animefire.plus/video/yami-shibai-8"
    },
    {
      "id": 4216,
      "nome": "Yami Shibai 9",
      "link": "https://animefire.plus/animes/yami-shibai-9-todos-os-episodios",
      "texto_original": "Yami Shibai 9",
      "rating": 5.92,
      "classificacao_etaria": "A14",
      "imagem_original": "https://animefire.plus/img/animes/yami-shibai-9.webp",
      "imagem_pasta": "https://animefire.plus/img/animes/yami-shibai-9/",
      "secao": "legendados",
      "pagina": 40,
      "total_episodios": 13,
      "link_video": "https://animefire.plus/video/yami-shibai-9"
    },
    {
      "id": 4217,
      "nome": "Yami To Boushi To Hon No Tabibito",
      "link": "https://animefire.plus/animes/yami-to-boushi-to-hon-no-tabibito-todos-os-episodios",
      "texto_original": "Yami To Boushi To Hon No Tabibito",
      "rating": 6.65,
      "classificacao_etaria": "A18",
      "imagem_original": "https://animefire.plus/img/animes/yami-to-boushi-to-hon-no-tabibito.webp",
      "imagem_pasta": "https://animefire.plus/img/animes/yami-to-boushi-to-hon-no-tabibito/",
      "secao": "legendados",
      "pagina": 102,
      "total_episodios": 13,
      "link_video": "https://animefire.plus/video/yami-to-boushi-to-hon-no-tabibito"
    },
    {
      "id": 4219,
      "nome": "Yao Jing Zhong Zhi Shou Ce",
      "link": "https://animefire.plus/animes/yao-jing-zhong-zhi-shou-ce-todos-os-episodios",
      "texto_original": "Yao Jing Zhong Zhi Shou Ce",
      "rating": 6.57,
      "classificacao_etaria": "A14",
      "imagem_original": "https://animefire.plus/img/animes/yao-jing-zhong-zhi-shou-ce.webp",
      "imagem_pasta": "https://animefire.plus/img/animes/yao-jing-zhong-zhi-shou-ce/",
      "secao": "legendados",
      "pagina": 92,
      "total_episodios": 0,
      "link_video": "https://animefire.plus/video/yao-jing-zhong-zhi-shou-ce"
    },
    {
      "id": 4224,
      "nome": "Yasuke (Dublado)",
      "link": "https://animefire.plus/animes/yasuke-dublado-todos-os-episodios",
      "texto_original": "Yasuke (Dublado)",
      "rating": 5.75,
      "classificacao_etaria": "A16",
      "imagem_original": "https://animefire.plus/img/animes/yasuke.webp",
      "imagem_pasta": "https://animefire.plus/img/animes/yasuke/",
      "secao": "dublados,legendados",
      "pagina": 18,
      "total_episodios": 6,
      "link_video": "https://animefire.plus/video/yasuke-dublado"
    },
    {
      "id": 4225,
      "nome": "Yatogame-chan Kansatsu Nikki",
      "link": "https://animefire.plus/animes/yatogame-chan-kansatsu-nikki-todos-os-episodios",
      "texto_original": "Yatogame-chan Kansatsu Nikki",
      "rating": 6.21,
      "classificacao_etaria": "A14",
      "imagem_original": "https://animefire.plus/img/animes/yatogame-chan-kansatsu-nikki.webp",
      "imagem_pasta": "https://animefire.plus/img/animes/yatogame-chan-kansatsu-nikki/",
      "secao": "legendados",
      "pagina": 166,
      "total_episodios": 0,
      "link_video": "https://animefire.plus/video/yatogame-chan-kansatsu-nikki"
    },
    {
      "id": 4226,
      "nome": "Yatogame-chan Kansatsu Nikki 4th Season",
      "link": "https://animefire.plus/animes/yatogame-chan-kansatsu-nikki-4-todos-os-episodios",
      "texto_original": "Yatogame-chan Kansatsu Nikki 4th Season",
      "rating": 6.3,
      "classificacao_etaria": "A14",
      "imagem_original": "https://animefire.plus/img/animes/yatogame-chan-kansatsu-nikki-4.webp",
      "imagem_pasta": "https://animefire.plus/img/animes/yatogame-chan-kansatsu-nikki-4/",
      "secao": "legendados",
      "pagina": 33,
      "total_episodios": 1,
      "link_video": "https://animefire.plus/video/yatogame-chan-kansatsu-nikki-4"
    },
    {
      "id": 4227,
      "nome": "Yatogame-chan Kansatsu Nikki Nisatsume",
      "link": "https://animefire.plus/animes/yatogame-chan-kansatsu-nikki-nisatsume-todos-os-episodios",
      "texto_original": "Yatogame-chan Kansatsu Nikki Nisatsume",
      "rating": 6.31,
      "classificacao_etaria": "A14",
      "imagem_original": "https://animefire.plus/img/animes/yatogame-chan-kansatsu-nikki-nisatsume.webp",
      "imagem_pasta": "https://animefire.plus/img/animes/yatogame-chan-kansatsu-nikki-nisatsume/",
      "secao": "legendados",
      "pagina": 93,
      "total_episodios": 12,
      "link_video": "https://animefire.plus/video/yatogame-chan-kansatsu-nikki-nisatsume"
    },
    {
      "id": 4228,
      "nome": "Yatogame-chan Kansatsu Nikki Sansatsume",
      "link": "https://animefire.plus/animes/yatogame-chan-kansatsu-nikki-sansatsume-todos-os-episodios",
      "texto_original": "Yatogame-chan Kansatsu Nikki Sansatsume",
      "rating": 6.38,
      "classificacao_etaria": "A14",
      "imagem_original": "https://animefire.plus/img/animes/yatogame-chan-kansatsu-nikki-sansatsume.webp",
      "imagem_pasta": "https://animefire.plus/img/animes/yatogame-chan-kansatsu-nikki-sansatsume/",
      "secao": "legendados",
      "pagina": 49,
      "total_episodios": 12,
      "link_video": "https://animefire.plus/video/yatogame-chan-kansatsu-nikki-sansatsume"
    },
    {
      "id": 4229,
      "nome": "Yatogame-chan Kansatsu Nikki Yonsatsume",
      "link": "https://animefire.plus/animes/yatogame-chan-kansatsu-nikki-yonsatsume-todos-os-episodios",
      "texto_original": "Yatogame-chan Kansatsu Nikki Yonsatsume",
      "rating": 6.3,
      "classificacao_etaria": "A14",
      "imagem_original": "https://animefire.plus/img/animes/yatogame-chan-kansatsu-nikki-yonsatsume.webp",
      "imagem_pasta": "https://animefire.plus/img/animes/yatogame-chan-kansatsu-nikki-yonsatsume/",
      "secao": "legendados",
      "pagina": 33,
      "total_episodios": 10,
      "link_video": "https://animefire.plus/video/yatogame-chan-kansatsu-nikki-yonsatsume"
    },
    {
      "id": 4231,
      "nome": "Yeosin Gangnim",
      "link": "https://animefire.plus/animes/yeosin-gangnim-todos-os-episodios",
      "texto_original": "Yeosin Gangnim",
      "rating": 6.6,
      "classificacao_etaria": "A14",
      "imagem_original": "https://animefire.plus/img/animes/yeosin-gangnim.webp",
      "imagem_pasta": "https://animefire.plus/img/animes/yeosin-gangnim/",
      "secao": "legendados",
      "pagina": 10,
      "total_episodios": 13,
      "link_video": "https://animefire.plus/video/yeosin-gangnim"
    },
    {
      "id": 4234,
      "nome": "Yesterday wo Utatte Haishin-ban Episode",
      "link": "https://animefire.plus/animes/yesterday-wo-utatte-haishin-ban-episode-todos-os-episodios",
      "texto_original": "Yesterday wo Utatte Haishin-ban Episode",
      "rating": 6.66,
      "classificacao_etaria": "A14",
      "imagem_original": "https://animefire.plus/img/animes/yesterday-wo-utatte-haishin-ban-episode.webp",
      "imagem_pasta": "https://animefire.plus/img/animes/yesterday-wo-utatte-haishin-ban-episode/",
      "secao": "legendados",
      "pagina": 58,
      "total_episodios": 6,
      "link_video": "https://animefire.plus/video/yesterday-wo-utatte-haishin-ban-episode"
    },
    {
      "id": 4235,
      "nome": "Yi Nian Yong Heng",
      "link": "https://animefire.plus/animes/yi-nian-yong-heng-todos-os-episodios",
      "texto_original": "Yi Nian Yong Heng",
      "rating": 6.9,
      "classificacao_etaria": "A14",
      "imagem_original": "https://animefire.plus/img/animes/yi-nian-yong-heng.webp",
      "imagem_pasta": "https://animefire.plus/img/animes/yi-nian-yong-heng/",
      "secao": "legendados,lancamentos",
      "pagina": 51,
      "total_episodios": 11,
      "link_video": "https://animefire.plus/video/yi-nian-yong-heng"
    },
    {
      "id": 4236,
      "nome": "Yichang Shengwu Jianwenlu",
      "link": "https://animefire.plus/animes/yichang-shengwu-jianwenlu-todos-os-episodios",
      "texto_original": "Yichang Shengwu Jianwenlu",
      "rating": 6.38,
      "classificacao_etaria": "A14",
      "imagem_original": "https://animefire.plus/img/animes/yichang-shengwu-jianwenlu.webp",
      "imagem_pasta": "https://animefire.plus/img/animes/yichang-shengwu-jianwenlu/",
      "secao": "legendados",
      "pagina": 68,
      "total_episodios": 0,
      "link_video": "https://animefire.plus/video/yichang-shengwu-jianwenlu"
    }
  ],
  "pagination": {
    "current_page": 88,
    "per_page": 20,
    "total_items": 1805,
    "total_pages": 91,
    "has_next": true,
    "has_prev": true
  }
}
