{
  "message": "Animes com rating entre 5 e 7",
  "rating_range": {
    "min": 5,
    "max": 7
  },
  "data": [
    {
      "id": 1159,
      "nome": "Gin no Guardian II",
      "link": "https://animefire.plus/animes/gin-no-guardian-ii-todos-os-episodios",
      "texto_original": "Gin no Guardian II",
      "rating": 6.71,
      "classificacao_etaria": "A14",
      "imagem_original": "https://animefire.plus/img/animes/gin-no-guardian-ii.webp",
      "imagem_pasta": "https://animefire.plus/img/animes/gin-no-guardian-ii/",
      "secao": "legendados",
      "pagina": 76,
      "total_episodios": 6,
      "link_video": "https://animefire.plus/video/gin-no-guardian-ii"
    },
    {
      "id": 1187,
      "nome": "Ginyuu Mokushiroku Meine Liebe",
      "link": "https://animefire.plus/animes/ginyuu-mokushiroku-meine-liebe-todos-os-episodios",
      "texto_original": "Ginyuu Mokushiroku Meine Liebe",
      "rating": 6.5,
      "classificacao_etaria": "A14",
      "imagem_original": "https://animefire.plus/img/animes/ginyuu-mokushiroku-meine-liebe.webp",
      "imagem_pasta": "https://animefire.plus/img/animes/ginyuu-mokushiroku-meine-liebe/",
      "secao": "legendados",
      "pagina": 105,
      "total_episodios": 13,
      "link_video": "https://animefire.plus/video/ginyuu-mokushiroku-meine-liebe"
    },
    {
      "id": 1188,
      "nome": "Ginyuu Mokushiroku Meine Liebe Wieder",
      "link": "https://animefire.plus/animes/ginyuu-mokushiroku-meine-liebe-wieder-todos-os-episodios",
      "texto_original": "Ginyuu Mokushiroku Meine Liebe Wieder",
      "rating": 6.76,
      "classificacao_etaria": "A14",
      "imagem_original": "https://animefire.plus/img/animes/ginyuu-mokushiroku-meine-liebe-wieder.webp",
      "imagem_pasta": "https://animefire.plus/img/animes/ginyuu-mokushiroku-meine-liebe-wieder/",
      "secao": "legendados",
      "pagina": 104,
      "total_episodios": 13,
      "link_video": "https://animefire.plus/video/ginyuu-mokushiroku-meine-liebe-wieder"
    },
    {
      "id": 1191,
      "nome": "Girls Bravo: First Season",
      "link": "https://animefire.plus/animes/girls-bravo-first-season-todos-os-episodios",
      "texto_original": "Girls Bravo: First Season",
      "rating": 6.57,
      "classificacao_etaria": "A18",
      "imagem_original": "https://animefire.plus/img/animes/girls-bravo-first-season.webp",
      "imagem_pasta": "https://animefire.plus/img/animes/girls-bravo-first-season/",
      "secao": "legendados",
      "pagina": 141,
      "total_episodios": 11,
      "link_video": "https://animefire.plus/video/girls-bravo-first-season"
    },
    {
      "id": 1192,
      "nome": "Girls Bravo: Second Season",
      "link": "https://animefire.plus/animes/girls-bravo-second-season-todos-os-episodios",
      "texto_original": "Girls Bravo: Second Season",
      "rating": 6.79,
      "classificacao_etaria": "A18",
      "imagem_original": "https://animefire.plus/img/animes/girls-bravo-second-season.webp",
      "imagem_pasta": "https://animefire.plus/img/animes/girls-bravo-second-season/",
      "secao": "legendados",
      "pagina": 133,
      "total_episodios": 13,
      "link_video": "https://animefire.plus/video/girls-bravo-second-season"
    },
    {
      "id": 1193,
      "nome": "Girly Air Force",
      "link": "https://animefire.plus/animes/girly-air-force-todos-os-episodios",
      "texto_original": "Girly Air Force",
      "rating": 6.18,
      "classificacao_etaria": "A14",
      "imagem_original": "https://animefire.plus/img/animes/girly-air-force.webp",
      "imagem_pasta": "https://animefire.plus/img/animes/girly-air-force/",
      "secao": "legendados",
      "pagina": 117,
      "total_episodios": 6,
      "link_video": "https://animefire.plus/video/girly-air-force"
    },
    {
      "id": 1198,
      "nome": "Glass no Kantai: La Legende du Vent de l'Univers",
      "link": "https://animefire.plus/animes/glass-no-kantai-la-legende-du-vent-de-l-univers-todos-os-episodios",
      "texto_original": "Glass no Kantai: La Legende du Vent de l'Univers",
      "rating": 6.63,
      "classificacao_etaria": "A14",
      "imagem_original": "https://animefire.plus/img/animes/glass-no-kantai-la-legende-du-vent-de-l-univers.webp",
      "imagem_pasta": "https://animefire.plus/img/animes/glass-no-kantai-la-legende-du-vent-de-l-univers/",
      "secao": "legendados",
      "pagina": 138,
      "total_episodios": 0,
      "link_video": "https://animefire.plus/video/glass-no-kantai-la-legende-du-vent-de-l-univers"
    },
    {
      "id": 1199,
      "nome": "Glasslip",
      "link": "https://animefire.plus/animes/glasslip-todos-os-episodios",
      "texto_original": "Glasslip",
      "rating": 5.53,
      "classificacao_etaria": "A14",
      "imagem_original": "https://animefire.plus/img/animes/glasslip.webp",
      "imagem_pasta": "https://animefire.plus/img/animes/glasslip/",
      "secao": "legendados",
      "pagina": 129,
      "total_episodios": 13,
      "link_video": "https://animefire.plus/video/glasslip"
    },
    {
      "id": 1201,
      "nome": "Go! Go! 575",
      "link": "https://animefire.plus/animes/go-go-575-todos-os-episodios",
      "texto_original": "Go! Go! 575",
      "rating": 5.69,
      "classificacao_etaria": "A14",
      "imagem_original": "https://animefire.plus/img/animes/go-go-575.webp",
      "imagem_pasta": "https://animefire.plus/img/animes/go-go-575/",
      "secao": "legendados",
      "pagina": 151,
      "total_episodios": 4,
      "link_video": "https://animefire.plus/video/go-go-575"
    },
    {
      "id": 1210,
      "nome": "Godzilla: S.P (Dublado)",
      "link": "https://animefire.plus/animes/godzilla-s-p-dublado-todos-os-episodios",
      "texto_original": "Godzilla: S.P (Dublado)",
      "rating": 6.65,
      "classificacao_etaria": "A14",
      "imagem_original": "https://animefire.plus/img/animes/godzilla-s-p.webp",
      "imagem_pasta": "https://animefire.plus/img/animes/godzilla-s-p/",
      "secao": "dublados,legendados",
      "pagina": 17,
      "total_episodios": 13,
      "link_video": "https://animefire.plus/video/godzilla-s-p-dublado"
    },
    {
      "id": 1212,
      "nome": "Gokujo.: Gokurakuin Joshikou Ryou Monogatari",
      "link": "https://animefire.plus/animes/gokujo-gokurakuin-joshikou-ryou-monogatari-todos-os-episodios",
      "texto_original": "Gokujo.: Gokurakuin Joshikou Ryou Monogatari",
      "rating": 6.21,
      "classificacao_etaria": "A14",
      "imagem_original": "https://animefire.plus/img/animes/gokujo-gokurakuin-joshikou-ryou-monogatari.webp",
      "imagem_pasta": "https://animefire.plus/img/animes/gokujo-gokurakuin-joshikou-ryou-monogatari/",
      "secao": "legendados",
      "pagina": 76,
      "total_episodios": 12,
      "link_video": "https://animefire.plus/video/gokujo-gokurakuin-joshikou-ryou-monogatari"
    },
    {
      "id": 1213,
      "nome": "Gokujou!! Mecha Mote Iinchou Second Collection",
      "link": "https://animefire.plus/animes/gokujou-mecha-mote-iinchou-second-collection-todos-os-episodios",
      "texto_original": "Gokujou!! Mecha Mote Iinchou Second Collection",
      "rating": 6.51,
      "classificacao_etaria": "A10",
      "imagem_original": "https://animefire.plus/img/animes/gokujou-mecha-mote-iinchou-second-collection.webp",
      "imagem_pasta": "https://animefire.plus/img/animes/gokujou-mecha-mote-iinchou-second-collection/",
      "secao": "legendados",
      "pagina": 113,
      "total_episodios": 51,
      "link_video": "https://animefire.plus/video/gokujou-mecha-mote-iinchou-second-collection"
    },
    {
      "id": 1228,
      "nome": "Golgo 13: Queen Bee",
      "link": "https://animefire.plus/animes/golgo-13-queen-bee-todos-os-episodios",
      "texto_original": "Golgo 13: Queen Bee",
      "rating": 6.59,
      "classificacao_etaria": "A18",
      "imagem_original": "https://animefire.plus/img/animes/golgo-13-queen-bee.webp",
      "imagem_pasta": "https://animefire.plus/img/animes/golgo-13-queen-bee/",
      "secao": "legendados",
      "pagina": 45,
      "total_episodios": 1,
      "link_video": "https://animefire.plus/video/golgo-13-queen-bee"
    },
    {
      "id": 1230,
      "nome": "Gorilla no Kami kara Kago sareta Reijou wa Ouritsu Kishidan de Kawaigarareru",
      "link": "https://animefire.plus/animes/gorilla-no-kami-kara-kago-sareta-reijou-wa-ouritsu-kishidan-de-kawaigarareru-todos-os-episodios",
      "texto_original": "Gorilla no Kami kara Kago sareta Reijou wa Ouritsu Kishidan de Kawaigarareru",
      "rating": 6.52,
      "classificacao_etaria": "A14",
      "imagem_original": "https://animefire.plus/img/animes/gorilla-no-kami-kara-kago-sareta-reijou-wa-ouritsu-kishidan-de-kawaigarareru.webp",
      "imagem_pasta": "https://animefire.plus/img/animes/gorilla-no-kami-kara-kago-sareta-reijou-wa-ouritsu-kishidan-de-kawaigarareru/",
      "secao": "legendados",
      "pagina": 5,
      "total_episodios": 12,
      "link_video": "https://animefire.plus/video/gorilla-no-kami-kara-kago-sareta-reijou-wa-ouritsu-kishidan-de-kawaigarareru"
    },
    {
      "id": 1232,
      "nome": "Goshuushou-sama Ninomiya-kun",
      "link": "https://animefire.plus/animes/goshuushou-sama-ninomiya-kun-todos-os-episodios",
      "texto_original": "Goshuushou-sama Ninomiya-kun",
      "rating": 6.8,
      "classificacao_etaria": "A18",
      "imagem_original": "https://animefire.plus/img/animes/goshuushou-sama-ninomiya-kun.webp",
      "imagem_pasta": "https://animefire.plus/img/animes/goshuushou-sama-ninomiya-kun/",
      "secao": "legendados",
      "pagina": 104,
      "total_episodios": 12,
      "link_video": "https://animefire.plus/video/goshuushou-sama-ninomiya-kun"
    },
    {
      "id": 1235,
      "nome": "Granbelm",
      "link": "https://animefire.plus/animes/granbelm-todos-os-episodios",
      "texto_original": "Granbelm",
      "rating": 6.75,
      "classificacao_etaria": "A14",
      "imagem_original": "https://animefire.plus/img/animes/granbelm.webp",
      "imagem_pasta": "https://animefire.plus/img/animes/granbelm/",
      "secao": "legendados",
      "pagina": 174,
      "total_episodios": 7,
      "link_video": "https://animefire.plus/video/granbelm"
    },
    {
      "id": 1236,
      "nome": "Granblue Fantasy The Animation",
      "link": "https://animefire.plus/animes/granblue-fantasy-the-animation-todos-os-episodios",
      "texto_original": "Granblue Fantasy The Animation",
      "rating": 6.8,
      "classificacao_etaria": "A14",
      "imagem_original": "https://animefire.plus/img/animes/granblue-fantasy-the-animation.webp",
      "imagem_pasta": "https://animefire.plus/img/animes/granblue-fantasy-the-animation/",
      "secao": "legendados",
      "pagina": 110,
      "total_episodios": 13,
      "link_video": "https://animefire.plus/video/granblue-fantasy-the-animation"
    },
    {
      "id": 1237,
      "nome": "Granblue Fantasy The Animation Season 2",
      "link": "https://animefire.plus/animes/granblue-fantasy-the-animation-season-2-todos-os-episodios",
      "texto_original": "Granblue Fantasy The Animation Season 2",
      "rating": 6.78,
      "classificacao_etaria": "A14",
      "imagem_original": "https://animefire.plus/img/animes/granblue-fantasy-the-animation-season-2.webp",
      "imagem_pasta": "https://animefire.plus/img/animes/granblue-fantasy-the-animation-season-2/",
      "secao": "legendados",
      "pagina": 110,
      "total_episodios": 13,
      "link_video": "https://animefire.plus/video/granblue-fantasy-the-animation-season-2"
    },
    {
      "id": 1238,
      "nome": "Granblue Fantasy The Animation: Kabocha no Lantern",
      "link": "https://animefire.plus/animes/granblue-fantasy-the-animation-kabocha-no-lantern-todos-os-episodios",
      "texto_original": "Granblue Fantasy The Animation: Kabocha no Lantern",
      "rating": 6.67,
      "classificacao_etaria": "A14",
      "imagem_original": "https://animefire.plus/img/animes/granblue-fantasy-the-animation-kabocha-no-lantern.webp",
      "imagem_pasta": "https://animefire.plus/img/animes/granblue-fantasy-the-animation-kabocha-no-lantern/",
      "secao": "legendados",
      "pagina": 88,
      "total_episodios": 1,
      "link_video": "https://animefire.plus/video/granblue-fantasy-the-animation-kabocha-no-lantern"
    },
    {
      "id": 1240,
      "nome": "Grancrest Senki Tsuisou",
      "link": "https://animefire.plus/animes/grancrest-senki-tsuisou-todos-os-episodios",
      "texto_original": "Grancrest Senki Tsuisou",
      "rating": 6.51,
      "classificacao_etaria": "A16",
      "imagem_original": "https://animefire.plus/img/animes/grancrest-senki-tsuisou.webp",
      "imagem_pasta": "https://animefire.plus/img/animes/grancrest-senki-tsuisou/",
      "secao": "legendados",
      "pagina": 84,
      "total_episodios": 1,
      "link_video": "https://animefire.plus/video/grancrest-senki-tsuisou"
    }
  ],
  "pagination": {
    "current_page": 28,
    "per_page": 20,
    "total_items": 1805,
    "total_pages": 91,
    "has_next": true,
    "has_prev": true
  }
}
