{
  "message": "Animes com rating entre 5 e 7",
  "rating_range": {
    "min": 5,
    "max": 7
  },
  "data": [
    {
      "id": 126,
      "nome": "Akihabara Dennou-gumi",
      "link": "https://animefire.plus/animes/akihabara-dennou-gumi-todos-os-episodios",
      "texto_original": "Akihabara Dennou-gumi",
      "rating": 6.64,
      "classificacao_etaria": "A14",
      "imagem_original": "https://animefire.plus/img/animes/akihabara-dennou-gumi.webp",
      "imagem_pasta": "https://animefire.plus/img/animes/akihabara-dennou-gumi/",
      "secao": "legendados",
      "pagina": 140,
      "total_episodios": 26,
      "link_video": "https://animefire.plus/video/akihabara-dennou-gumi"
    },
    {
      "id": 127,
      "nome": "Akikan!",
      "link": "https://animefire.plus/animes/akikan-todos-os-episodios",
      "texto_original": "Akikan!",
      "rating": 6.29,
      "classificacao_etaria": "A14",
      "imagem_original": "https://animefire.plus/img/animes/akikan.webp",
      "imagem_pasta": "https://animefire.plus/img/animes/akikan/",
      "secao": "legendados",
      "pagina": 169,
      "total_episodios": 9,
      "link_video": "https://animefire.plus/video/akikan"
    },
    {
      "id": 128,
      "nome": "Akkun to Kanojo",
      "link": "https://animefire.plus/animes/akkun-to-kanojo-todos-os-episodios",
      "texto_original": "Akkun to Kanojo",
      "rating": 6.9,
      "classificacao_etaria": "A14",
      "imagem_original": "https://animefire.plus/img/animes/akkun-to-kanojo.webp",
      "imagem_pasta": "https://animefire.plus/img/animes/akkun-to-kanojo/",
      "secao": "legendados",
      "pagina": 131,
      "total_episodios": 25,
      "link_video": "https://animefire.plus/video/akkun-to-kanojo"
    },
    {
      "id": 131,
      "nome": "Akuemon",
      "link": "https://animefire.plus/animes/akuemon-todos-os-episodios",
      "texto_original": "Akuemon",
      "rating": 6.04,
      "classificacao_etaria": "A14",
      "imagem_original": "https://animefire.plus/img/animes/akuemon.webp",
      "imagem_pasta": "https://animefire.plus/img/animes/akuemon/",
      "secao": "legendados",
      "pagina": 77,
      "total_episodios": 1,
      "link_video": "https://animefire.plus/video/akuemon"
    },
    {
      "id": 132,
      "nome": "Akuma no Riddle",
      "link": "https://animefire.plus/animes/akuma-no-riddle-todos-os-episodios",
      "texto_original": "Akuma no Riddle",
      "rating": 6.74,
      "classificacao_etaria": "A16",
      "imagem_original": "https://animefire.plus/img/animes/akuma-no-riddle.webp",
      "imagem_pasta": "https://animefire.plus/img/animes/akuma-no-riddle/",
      "secao": "legendados",
      "pagina": 170,
      "total_episodios": 3,
      "link_video": "https://animefire.plus/video/akuma-no-riddle"
    },
    {
      "id": 133,
      "nome": "Akuma-kun (ONA) (Dublado)",
      "link": "https://animefire.plus/animes/akuma-kun-ona-dublado-todos-os-episodios",
      "texto_original": "Akuma-kun (ONA) (Dublado)",
      "rating": 6.7,
      "classificacao_etaria": "A16",
      "imagem_original": "https://animefire.plus/img/animes/akuma-kun-ona.webp",
      "imagem_pasta": "https://animefire.plus/img/animes/akuma-kun-ona/",
      "secao": "dublados,legendados",
      "pagina": 4,
      "total_episodios": 12,
      "link_video": "https://animefire.plus/video/akuma-kun-ona-dublado"
    },
    {
      "id": 138,
      "nome": "Alexander Senki",
      "link": "https://animefire.plus/animes/alexander-senki-todos-os-episodios",
      "texto_original": "Alexander Senki",
      "rating": 5.79,
      "classificacao_etaria": "A18",
      "imagem_original": "https://animefire.plus/img/animes/alexander-senki.webp",
      "imagem_pasta": "https://animefire.plus/img/animes/alexander-senki/",
      "secao": "legendados",
      "pagina": 119,
      "total_episodios": 13,
      "link_video": "https://animefire.plus/video/alexander-senki"
    },
    {
      "id": 139,
      "nome": "Alice Gear Aegis Expansion",
      "link": "https://animefire.plus/animes/alice-gear-aegis-expansion-todos-os-episodios",
      "texto_original": "Alice Gear Aegis Expansion",
      "rating": 5.72,
      "classificacao_etaria": "A14",
      "imagem_original": "https://animefire.plus/img/animes/alice-gear-aegis-expansion.jpg",
      "imagem_pasta": "https://animefire.plus/img/animes/alice-gear-aegis-expansion/",
      "secao": "legendados",
      "pagina": 24,
      "total_episodios": 12,
      "link_video": "https://animefire.plus/video/alice-gear-aegis-expansion"
    },
    {
      "id": 140,
      "nome": "Alice in Deadly School",
      "link": "https://animefire.plus/animes/alice-in-deadly-school-todos-os-episodios",
      "texto_original": "Alice in Deadly School",
      "rating": 5.18,
      "classificacao_etaria": "A14",
      "imagem_original": "https://animefire.plus/img/animes/alice-in-deadly-school.webp",
      "imagem_pasta": "https://animefire.plus/img/animes/alice-in-deadly-school/",
      "secao": "legendados",
      "pagina": 46,
      "total_episodios": 0,
      "link_video": "https://animefire.plus/video/alice-in-deadly-school"
    },
    {
      "id": 141,
      "nome": "Alice or Alice: Siscon Niisan to Futago no Imouto",
      "link": "https://animefire.plus/animes/alice-or-alice-siscon-niisan-to-futago-no-imouto-todos-os-episodios",
      "texto_original": "Alice or Alice: Siscon Niisan to Futago no Imouto",
      "rating": 5.4,
      "classificacao_etaria": "A14",
      "imagem_original": "https://animefire.plus/img/animes/alice-or-alice-siscon-niisan-to-futago-no-imouto.webp",
      "imagem_pasta": "https://animefire.plus/img/animes/alice-or-alice-siscon-niisan-to-futago-no-imouto/",
      "secao": "legendados",
      "pagina": 116,
      "total_episodios": 11,
      "link_video": "https://animefire.plus/video/alice-or-alice-siscon-niisan-to-futago-no-imouto"
    },
    {
      "id": 143,
      "nome": "Alien 9",
      "link": "https://animefire.plus/animes/alien-9-todos-os-episodios",
      "texto_original": "Alien 9",
      "rating": 6.68,
      "classificacao_etaria": "A16",
      "imagem_original": "https://animefire.plus/img/animes/alien-9.webp",
      "imagem_pasta": "https://animefire.plus/img/animes/alien-9/",
      "secao": "legendados",
      "pagina": 165,
      "total_episodios": 4,
      "link_video": "https://animefire.plus/video/alien-9"
    },
    {
      "id": 146,
      "nome": "Altered Carbon: Resleeved",
      "link": "https://animefire.plus/animes/altered-carbon-resleeved-todos-os-episodios",
      "texto_original": "Altered Carbon: Resleeved",
      "rating": 6.56,
      "classificacao_etaria": "A16",
      "imagem_original": "https://animefire.plus/img/animes/altered-carbon-resleeved.webp",
      "imagem_pasta": "https://animefire.plus/img/animes/altered-carbon-resleeved/",
      "secao": "legendados",
      "pagina": 78,
      "total_episodios": 1,
      "link_video": "https://animefire.plus/video/altered-carbon-resleeved"
    },
    {
      "id": 148,
      "nome": "Amaenaide yo!!",
      "link": "https://animefire.plus/animes/amaenaide-yo-todos-os-episodios",
      "texto_original": "Amaenaide yo!!",
      "rating": 6.58,
      "classificacao_etaria": "A18",
      "imagem_original": "https://animefire.plus/img/animes/amaenaide-yo.webp",
      "imagem_pasta": "https://animefire.plus/img/animes/amaenaide-yo/",
      "secao": "legendados",
      "pagina": 166,
      "total_episodios": 13,
      "link_video": "https://animefire.plus/video/amaenaide-yo"
    },
    {
      "id": 149,
      "nome": "Amaenaide yo!! Katsu!!",
      "link": "https://animefire.plus/animes/amaenaide-yo-katsu-todos-os-episodios",
      "texto_original": "Amaenaide yo!! Katsu!!",
      "rating": 6.8,
      "classificacao_etaria": "A18",
      "imagem_original": "https://animefire.plus/img/animes/amaenaide-yo-katsu.webp",
      "imagem_pasta": "https://animefire.plus/img/animes/amaenaide-yo-katsu/",
      "secao": "legendados",
      "pagina": 145,
      "total_episodios": 13,
      "link_video": "https://animefire.plus/video/amaenaide-yo-katsu"
    },
    {
      "id": 152,
      "nome": "Amagami SS+ Plus Picture Drama",
      "link": "https://animefire.plus/animes/amagami-ss-plus-picture-drama-todos-os-episodios",
      "texto_original": "Amagami SS+ Plus Picture Drama",
      "rating": 6.56,
      "classificacao_etaria": "A14",
      "imagem_original": "https://animefire.plus/img/animes/amagami-ss-plus-picture-drama.webp",
      "imagem_pasta": "https://animefire.plus/img/animes/amagami-ss-plus-picture-drama/",
      "secao": "legendados",
      "pagina": 69,
      "total_episodios": 1,
      "link_video": "https://animefire.plus/video/amagami-ss-plus-picture-drama"
    },
    {
      "id": 158,
      "nome": "Amatsuki",
      "link": "https://animefire.plus/animes/amatsuki-todos-os-episodios",
      "texto_original": "Amatsuki",
      "rating": 6.97,
      "classificacao_etaria": "A14",
      "imagem_original": "https://animefire.plus/img/animes/amatsuki.webp",
      "imagem_pasta": "https://animefire.plus/img/animes/amatsuki/",
      "secao": "legendados",
      "pagina": 133,
      "total_episodios": 12,
      "link_video": "https://animefire.plus/video/amatsuki"
    },
    {
      "id": 164,
      "nome": "Amnesia",
      "link": "https://animefire.plus/animes/amnesia-todos-os-episodios",
      "texto_original": "Amnesia",
      "rating": 6.29,
      "classificacao_etaria": "A14",
      "imagem_original": "https://animefire.plus/img/animes/amnesia.webp",
      "imagem_pasta": "https://animefire.plus/img/animes/amnesia/",
      "secao": "legendados",
      "pagina": 153,
      "total_episodios": 12,
      "link_video": "https://animefire.plus/video/amnesia"
    },
    {
      "id": 165,
      "nome": "Amon Saga",
      "link": "https://animefire.plus/animes/amon-saga-todos-os-episodios",
      "texto_original": "Amon Saga",
      "rating": 5.47,
      "classificacao_etaria": "A16",
      "imagem_original": "https://animefire.plus/img/animes/amon-saga.webp",
      "imagem_pasta": "https://animefire.plus/img/animes/amon-saga/",
      "secao": "legendados",
      "pagina": 42,
      "total_episodios": 1,
      "link_video": "https://animefire.plus/video/amon-saga"
    },
    {
      "id": 166,
      "nome": "Ane Log: Moyako Neesan no Honpen wo Tobidashite Tomaranai Monologue Specials",
      "link": "https://animefire.plus/animes/ane-log-moyako-neesan-no-honpen-wo-tobidashite-tomaranai-monologue-specials-todos-os-episodios",
      "texto_original": "Ane Log: Moyako Neesan no Honpen wo Tobidashite Tomaranai Monologue Specials",
      "rating": 5.35,
      "classificacao_etaria": "A14",
      "imagem_original": "https://animefire.plus/img/animes/ane-log-moyako-neesan-no-honpen-wo-tobidashite-tomaranai-monologue-specials.webp",
      "imagem_pasta": "https://animefire.plus/img/animes/ane-log-moyako-neesan-no-honpen-wo-tobidashite-tomaranai-monologue-specials/",
      "secao": "legendados",
      "pagina": 82,
      "total_episodios": 3,
      "link_video": "https://animefire.plus/video/ane-log-moyako-neesan-no-honpen-wo-tobidashite-tomaranai-monologue-specials"
    },
    {
      "id": 167,
      "nome": "Ane Log: Moyako Neesan no Tomaranai Monologue",
      "link": "https://animefire.plus/animes/ane-log-moyako-neesan-no-tomaranai-monologue-todos-os-episodios",
      "texto_original": "Ane Log: Moyako Neesan no Tomaranai Monologue",
      "rating": 6.22,
      "classificacao_etaria": "A14",
      "imagem_original": "https://animefire.plus/img/animes/ane-log-moyako-neesan-no-tomaranai-monologue.webp",
      "imagem_pasta": "https://animefire.plus/img/animes/ane-log-moyako-neesan-no-tomaranai-monologue/",
      "secao": "legendados",
      "pagina": 90,
      "total_episodios": 0,
      "link_video": "https://animefire.plus/video/ane-log-moyako-neesan-no-tomaranai-monologue"
    }
  ],
  "pagination": {
    "current_page": 4,
    "per_page": 20,
    "total_items": 1805,
    "total_pages": 91,
    "has_next": true,
    "has_prev": true
  }
}
