{
  "message": "Animes com rating entre 5 e 7",
  "rating_range": {
    "min": 5,
    "max": 7
  },
  "data": [
    {
      "id": 3334,
      "nome": "Sengoku Night Blood",
      "link": "https://animefire.plus/animes/sengoku-night-blood-todos-os-episodios",
      "texto_original": "Sengoku Night Blood",
      "rating": 6.16,
      "classificacao_etaria": "A14",
      "imagem_original": "https://animefire.plus/img/animes/sengoku-night-blood.webp",
      "imagem_pasta": "https://animefire.plus/img/animes/sengoku-night-blood/",
      "secao": "legendados",
      "pagina": 102,
      "total_episodios": 9,
      "link_video": "https://animefire.plus/video/sengoku-night-blood"
    },
    {
      "id": 3335,
      "nome": "Sengoku Otome: Momoiro Paradox",
      "link": "https://animefire.plus/animes/sengoku-otome-momoiro-paradox-todos-os-episodios",
      "texto_original": "Sengoku Otome: Momoiro Paradox",
      "rating": 6.66,
      "classificacao_etaria": "A18",
      "imagem_original": "https://animefire.plus/img/animes/sengoku-otome-momoiro-paradox.webp",
      "imagem_pasta": "https://animefire.plus/img/animes/sengoku-otome-momoiro-paradox/",
      "secao": "legendados",
      "pagina": 115,
      "total_episodios": 12,
      "link_video": "https://animefire.plus/video/sengoku-otome-momoiro-paradox"
    },
    {
      "id": 3336,
      "nome": "Sengoku Youko",
      "link": "https://animefire.plus/animes/sengoku-youko-todos-os-episodios",
      "texto_original": "Sengoku Youko",
      "rating": 6.99,
      "classificacao_etaria": "A14",
      "imagem_original": "https://animefire.plus/img/animes/sengoku-youko.webp",
      "imagem_pasta": "https://animefire.plus/img/animes/sengoku-youko/",
      "secao": "legendados",
      "pagina": 16,
      "total_episodios": 13,
      "link_video": "https://animefire.plus/video/sengoku-youko"
    },
    {
      "id": 3340,
      "nome": "Senjou no Valkyria: SenVal Theater",
      "link": "https://animefire.plus/animes/senjou-no-valkyria-senval-theater-todos-os-episodios",
      "texto_original": "Senjou no Valkyria: SenVal Theater",
      "rating": 6.83,
      "classificacao_etaria": "A14",
      "imagem_original": "https://animefire.plus/img/animes/senjou-no-valkyria-senval-theater.webp",
      "imagem_pasta": "https://animefire.plus/img/animes/senjou-no-valkyria-senval-theater/",
      "secao": "legendados",
      "pagina": 140,
      "total_episodios": 9,
      "link_video": "https://animefire.plus/video/senjou-no-valkyria-senval-theater"
    },
    {
      "id": 3347,
      "nome": "Senkou no Night Raid",
      "link": "https://animefire.plus/animes/senkou-no-night-raid-todos-os-episodios",
      "texto_original": "Senkou no Night Raid",
      "rating": 6.92,
      "classificacao_etaria": "A16",
      "imagem_original": "https://animefire.plus/img/animes/senkou-no-night-raid.webp",
      "imagem_pasta": "https://animefire.plus/img/animes/senkou-no-night-raid/",
      "secao": "legendados",
      "pagina": 127,
      "total_episodios": 13,
      "link_video": "https://animefire.plus/video/senkou-no-night-raid"
    },
    {
      "id": 3350,
      "nome": "Senran Kagura",
      "link": "https://animefire.plus/animes/senran-kagura-todos-os-episodios",
      "texto_original": "Senran Kagura",
      "rating": 6.43,
      "classificacao_etaria": "A14",
      "imagem_original": "https://animefire.plus/img/animes/senran-kagura.webp",
      "imagem_pasta": "https://animefire.plus/img/animes/senran-kagura/",
      "secao": "legendados",
      "pagina": 161,
      "total_episodios": 6,
      "link_video": "https://animefire.plus/video/senran-kagura"
    },
    {
      "id": 3351,
      "nome": "Senran Kagura Shinovi Master: Tokyo Youma-hen",
      "link": "https://animefire.plus/animes/senran-kagura-shinovi-master-tokyo-youma-hen-todos-os-episodios",
      "texto_original": "Senran Kagura Shinovi Master: Tokyo Youma-hen",
      "rating": 6.36,
      "classificacao_etaria": "A18",
      "imagem_original": "https://animefire.plus/img/animes/senran-kagura-shinovi-master-tokyo-youma-hen.webp",
      "imagem_pasta": "https://animefire.plus/img/animes/senran-kagura-shinovi-master-tokyo-youma-hen/",
      "secao": "legendados",
      "pagina": 157,
      "total_episodios": 12,
      "link_video": "https://animefire.plus/video/senran-kagura-shinovi-master-tokyo-youma-hen"
    },
    {
      "id": 3355,
      "nome": "Sentai Red Isekai de Boukensha ni Naru",
      "link": "https://animefire.plus/animes/sentai-red-isekai-de-boukensha-ni-naru-todos-os-episodios",
      "texto_original": "Sentai Red Isekai de Boukensha ni Naru",
      "rating": 6.8,
      "classificacao_etaria": "A14",
      "imagem_original": "https://animefire.plus/img/animes/sentai-red-isekai-de-boukensha-ni-naru.webp",
      "imagem_pasta": "https://animefire.plus/img/animes/sentai-red-isekai-de-boukensha-ni-naru/",
      "secao": "legendados",
      "pagina": 6,
      "total_episodios": 12,
      "link_video": "https://animefire.plus/video/sentai-red-isekai-de-boukensha-ni-naru"
    },
    {
      "id": 3360,
      "nome": "Seraphim Call",
      "link": "https://animefire.plus/animes/seraphim-call-todos-os-episodios",
      "texto_original": "Seraphim Call",
      "rating": 6.09,
      "classificacao_etaria": "A14",
      "imagem_original": "https://animefire.plus/img/animes/seraphim-call.webp",
      "imagem_pasta": "https://animefire.plus/img/animes/seraphim-call/",
      "secao": "legendados",
      "pagina": 140,
      "total_episodios": 12,
      "link_video": "https://animefire.plus/video/seraphim-call"
    },
    {
      "id": 3366,
      "nome": "Seven Knights Revolution: Eiyuu no Keishousha",
      "link": "https://animefire.plus/animes/seven-knights-revolution-eiyuu-no-keishousha-todos-os-episodios",
      "texto_original": "Seven Knights Revolution: Eiyuu no Keishousha",
      "rating": 6.3,
      "classificacao_etaria": "A16",
      "imagem_original": "https://animefire.plus/img/animes/seven-knights-revolution-eiyuu-no-keishousha.webp",
      "imagem_pasta": "https://animefire.plus/img/animes/seven-knights-revolution-eiyuu-no-keishousha/",
      "secao": "legendados",
      "pagina": 46,
      "total_episodios": 12,
      "link_video": "https://animefire.plus/video/seven-knights-revolution-eiyuu-no-keishousha"
    },
    {
      "id": 3368,
      "nome": "Sex Pistols",
      "link": "https://animefire.plus/animes/sex-pistols-todos-os-episodios",
      "texto_original": "Sex Pistols",
      "rating": 6.83,
      "classificacao_etaria": "A18",
      "imagem_original": "https://animefire.plus/img/animes/sex-pistols.webp",
      "imagem_pasta": "https://animefire.plus/img/animes/sex-pistols/",
      "secao": "legendados",
      "pagina": 96,
      "total_episodios": 2,
      "link_video": "https://animefire.plus/video/sex-pistols"
    },
    {
      "id": 3370,
      "nome": "Shachou, Battle no Jikan Desu!",
      "link": "https://animefire.plus/animes/shachou-battle-no-jikan-desu-todos-os-episodios",
      "texto_original": "Shachou, Battle no Jikan Desu!",
      "rating": 5.87,
      "classificacao_etaria": "A14",
      "imagem_original": "https://animefire.plus/img/animes/shachou-battle-no-jikan-desu.webp",
      "imagem_pasta": "https://animefire.plus/img/animes/shachou-battle-no-jikan-desu/",
      "secao": "legendados",
      "pagina": 81,
      "total_episodios": 1,
      "link_video": "https://animefire.plus/video/shachou-battle-no-jikan-desu"
    },
    {
      "id": 3374,
      "nome": "Shadowverse (TV)",
      "link": "https://animefire.plus/animes/shadowverse-tv-todos-os-episodios",
      "texto_original": "Shadowverse (TV)",
      "rating": 5.1,
      "classificacao_etaria": "A14",
      "imagem_original": "https://animefire.plus/img/animes/shadowverse-tv.webp",
      "imagem_pasta": "https://animefire.plus/img/animes/shadowverse-tv/",
      "secao": "legendados,lancamentos",
      "pagina": 81,
      "total_episodios": 7,
      "link_video": "https://animefire.plus/video/shadowverse-tv"
    },
    {
      "id": 3375,
      "nome": "Shadowverse Flame",
      "link": "https://animefire.plus/animes/shadowverse-flame-todos-os-episodios",
      "texto_original": "Shadowverse Flame",
      "rating": 6.73,
      "classificacao_etaria": "A14",
      "imagem_original": "https://animefire.plus/img/animes/shadowverse-flame.webp",
      "imagem_pasta": "https://animefire.plus/img/animes/shadowverse-flame/",
      "secao": "legendados,lancamentos",
      "pagina": 34,
      "total_episodios": 98,
      "link_video": "https://animefire.plus/video/shadowverse-flame"
    },
    {
      "id": 3383,
      "nome": "Shaman King (2021) (Dublado)",
      "link": "https://animefire.plus/animes/shaman-king-2021-dublado-todos-os-episodios",
      "texto_original": "Shaman King (2021) (Dublado)",
      "rating": 6.9,
      "classificacao_etaria": "A14",
      "imagem_original": "https://animefire.plus/img/animes/shaman-king-2021.webp",
      "imagem_pasta": "https://animefire.plus/img/animes/shaman-king-2021/",
      "secao": "dublados,legendados",
      "pagina": 16,
      "total_episodios": 52,
      "link_video": "https://animefire.plus/video/shaman-king-2021-dublado"
    },
    {
      "id": 3385,
      "nome": "Shaman King: Flowers (Dublado)",
      "link": "https://animefire.plus/animes/shaman-king-flowers-dublado-todos-os-episodios",
      "texto_original": "Shaman King: Flowers (Dublado)",
      "rating": 6.57,
      "classificacao_etaria": "A14",
      "imagem_original": "https://animefire.plus/img/animes/shaman-king-flowers.webp",
      "imagem_pasta": "https://animefire.plus/img/animes/shaman-king-flowers/",
      "secao": "dublados,legendados,lancamentos",
      "pagina": 3,
      "total_episodios": 12,
      "link_video": "https://animefire.plus/video/shaman-king-flowers-dublado"
    },
    {
      "id": 3389,
      "nome": "Shao Nu Qian Xian Ren Xing Xiao Ju Chang",
      "link": "https://animefire.plus/animes/shao-nu-qian-xian-ren-xing-xiao-ju-chang-todos-os-episodios",
      "texto_original": "Shao Nu Qian Xian Ren Xing Xiao Ju Chang",
      "rating": 6.73,
      "classificacao_etaria": "A14",
      "imagem_original": "https://animefire.plus/img/animes/shao-nu-qian-xian-ren-xing-xiao-ju-chang.webp",
      "imagem_pasta": "https://animefire.plus/img/animes/shao-nu-qian-xian-ren-xing-xiao-ju-chang/",
      "secao": "legendados",
      "pagina": 80,
      "total_episodios": 12,
      "link_video": "https://animefire.plus/video/shao-nu-qian-xian-ren-xing-xiao-ju-chang"
    },
    {
      "id": 3391,
      "nome": "Shen Ming Zhi Zhou",
      "link": "https://animefire.plus/animes/shen-ming-zhi-zhou-todos-os-episodios",
      "texto_original": "Shen Ming Zhi Zhou",
      "rating": 6.51,
      "classificacao_etaria": "A14",
      "imagem_original": "https://animefire.plus/img/animes/shen-ming-zhi-zhou.webp",
      "imagem_pasta": "https://animefire.plus/img/animes/shen-ming-zhi-zhou/",
      "secao": "legendados",
      "pagina": 149,
      "total_episodios": 12,
      "link_video": "https://animefire.plus/video/shen-ming-zhi-zhou"
    },
    {
      "id": 3392,
      "nome": "Shenmue the Animation",
      "link": "https://animefire.plus/animes/shenmue-the-animation-todos-os-episodios",
      "texto_original": "Shenmue the Animation",
      "rating": 6.67,
      "classificacao_etaria": "A16",
      "imagem_original": "https://animefire.plus/img/animes/shenmue-the-animation.webp",
      "imagem_pasta": "https://animefire.plus/img/animes/shenmue-the-animation/",
      "secao": "legendados",
      "pagina": 34,
      "total_episodios": 13,
      "link_video": "https://animefire.plus/video/shenmue-the-animation"
    },
    {
      "id": 3393,
      "nome": "Shi Cao Lao Long Bei Guan Yi E Long Zhi Ming 2nd Season",
      "link": "https://animefire.plus/animes/shi-cao-lao-long-bei-guan-yi-e-long-zhi-ming-2nd-season-todos-os-episodios",
      "texto_original": "Shi Cao Lao Long Bei Guan Yi E Long Zhi Ming 2nd Season",
      "rating": 6.79,
      "classificacao_etaria": "A14",
      "imagem_original": "https://animefire.plus/img/animes/shi-cao-lao-long-bei-guan-yi-e-long-zhi-ming-2nd-season.webp",
      "imagem_pasta": "https://animefire.plus/img/animes/shi-cao-lao-long-bei-guan-yi-e-long-zhi-ming-2nd-season/",
      "secao": "legendados,lancamentos",
      "pagina": 9,
      "total_episodios": 4,
      "link_video": "https://animefire.plus/video/shi-cao-lao-long-bei-guan-yi-e-long-zhi-ming-2nd-season"
    }
  ],
  "pagination": {
    "current_page": 71,
    "per_page": 20,
    "total_items": 1805,
    "total_pages": 91,
    "has_next": true,
    "has_prev": true
  }
}
