{
  "message": "Animes com rating entre 5 e 7",
  "rating_range": {
    "min": 5,
    "max": 7
  },
  "data": [
    {
      "id": 3972,
      "nome": "Tsuyokute New Saga",
      "link": "https://animefire.plus/animes/tsuyokute-new-saga-todos-os-episodios",
      "texto_original": "Tsuyokute New Saga",
      "rating": 6.69,
      "classificacao_etaria": "A14",
      "imagem_original": "https://animefire.plus/img/animes/tsuyokute-new-saga.webp",
      "imagem_pasta": "https://animefire.plus/img/animes/tsuyokute-new-saga/",
      "secao": "legendados,lancamentos",
      "pagina": 3,
      "total_episodios": 5,
      "link_video": "https://animefire.plus/video/tsuyokute-new-saga"
    },
    {
      "id": 3975,
      "nome": "Turkey!",
      "link": "https://animefire.plus/animes/turkey-todos-os-episodios",
      "texto_original": "Turkey!",
      "rating": 6.29,
      "classificacao_etaria": "A14",
      "imagem_original": "https://animefire.plus/img/animes/turkey.webp",
      "imagem_pasta": "https://animefire.plus/img/animes/turkey/",
      "secao": "legendados,lancamentos",
      "pagina": 2,
      "total_episodios": 4,
      "link_video": "https://animefire.plus/video/turkey"
    },
    {
      "id": 3976,
      "nome": "Turnover",
      "link": "https://animefire.plus/animes/turnover-todos-os-episodios",
      "texto_original": "Turnover",
      "rating": 5.73,
      "classificacao_etaria": null,
      "imagem_original": "https://animefire.plus/img/animes/turnover.webp",
      "imagem_pasta": "https://animefire.plus/img/animes/turnover/",
      "secao": "legendados",
      "pagina": 83,
      "total_episodios": 1,
      "link_video": "https://animefire.plus/video/turnover"
    },
    {
      "id": 3977,
      "nome": "TV Yarou Nanaana: Wakuwaku Doukutsu Land",
      "link": "https://animefire.plus/animes/tv-yarou-nanaana-wakuwaku-doukutsu-land-todos-os-episodios",
      "texto_original": "TV Yarou Nanaana: Wakuwaku Doukutsu Land",
      "rating": 6.06,
      "classificacao_etaria": "A14",
      "imagem_original": "https://animefire.plus/img/animes/tv-yarou-nanaana-wakuwaku-doukutsu-land.webp",
      "imagem_pasta": "https://animefire.plus/img/animes/tv-yarou-nanaana-wakuwaku-doukutsu-land/",
      "secao": "legendados",
      "pagina": 61,
      "total_episodios": 21,
      "link_video": "https://animefire.plus/video/tv-yarou-nanaana-wakuwaku-doukutsu-land"
    },
    {
      "id": 3978,
      "nome": "Twin Angel Break",
      "link": "https://animefire.plus/animes/twin-angel-break-todos-os-episodios",
      "texto_original": "Twin Angel Break",
      "rating": 5.94,
      "classificacao_etaria": "A14",
      "imagem_original": "https://animefire.plus/img/animes/twin-angel-break.webp",
      "imagem_pasta": "https://animefire.plus/img/animes/twin-angel-break/",
      "secao": "legendados",
      "pagina": 127,
      "total_episodios": 12,
      "link_video": "https://animefire.plus/video/twin-angel-break"
    },
    {
      "id": 3979,
      "nome": "Twinkle Heart: Gingakei made Todokanai",
      "link": "https://animefire.plus/animes/twinkle-heart-gingakei-made-todokanai-todos-os-episodios",
      "texto_original": "Twinkle Heart: Gingakei made Todokanai",
      "rating": 5.35,
      "classificacao_etaria": "A14",
      "imagem_original": "https://animefire.plus/img/animes/twinkle-heart-gingakei-made-todokanai.webp",
      "imagem_pasta": "https://animefire.plus/img/animes/twinkle-heart-gingakei-made-todokanai/",
      "secao": "legendados",
      "pagina": 69,
      "total_episodios": 1,
      "link_video": "https://animefire.plus/video/twinkle-heart-gingakei-made-todokanai"
    },
    {
      "id": 3982,
      "nome": "Two Car",
      "link": "https://animefire.plus/animes/two-car-todos-os-episodios",
      "texto_original": "Two Car",
      "rating": 5.73,
      "classificacao_etaria": "A14",
      "imagem_original": "https://animefire.plus/img/animes/two-car.webp",
      "imagem_pasta": "https://animefire.plus/img/animes/two-car/",
      "secao": "legendados",
      "pagina": 108,
      "total_episodios": 12,
      "link_video": "https://animefire.plus/video/two-car"
    },
    {
      "id": 3983,
      "nome": "Tytania",
      "link": "https://animefire.plus/animes/tytania-todos-os-episodios",
      "texto_original": "Tytania",
      "rating": 6.86,
      "classificacao_etaria": "A14",
      "imagem_original": "https://animefire.plus/img/animes/tytania.webp",
      "imagem_pasta": "https://animefire.plus/img/animes/tytania/",
      "secao": "legendados",
      "pagina": 176,
      "total_episodios": 26,
      "link_video": "https://animefire.plus/video/tytania"
    },
    {
      "id": 3984,
      "nome": "Übel Blatt",
      "link": "https://animefire.plus/animes/uebel-blatt-todos-os-episodios",
      "texto_original": "Übel Blatt",
      "rating": 6.3,
      "classificacao_etaria": "A16",
      "imagem_original": "https://animefire.plus/img/animes/uebel-blatt.webp",
      "imagem_pasta": "https://animefire.plus/img/animes/uebel-blatt/",
      "secao": "legendados",
      "pagina": 8,
      "total_episodios": 12,
      "link_video": "https://animefire.plus/video/uebel-blatt"
    },
    {
      "id": 3985,
      "nome": "Uchi no Kaisha no Chiisai Senpai no Hanashi (Dublado)",
      "link": "https://animefire.plus/animes/uchi-no-kaisha-no-chiisai-senpai-no-hanashi-dublado-todos-os-episodios",
      "texto_original": "Uchi no Kaisha no Chiisai Senpai no Hanashi (Dublado)",
      "rating": 6.9,
      "classificacao_etaria": "A14",
      "imagem_original": "https://animefire.plus/img/animes/uchi-no-kaisha-no-chiisai-senpai-no-hanashi.webp",
      "imagem_pasta": "https://animefire.plus/img/animes/uchi-no-kaisha-no-chiisai-senpai-no-hanashi/",
      "secao": "dublados,legendados",
      "pagina": 6,
      "total_episodios": 12,
      "link_video": "https://animefire.plus/video/uchi-no-kaisha-no-chiisai-senpai-no-hanashi-dublado"
    },
    {
      "id": 3988,
      "nome": "Uchi no Shishou wa Shippo ga Nai",
      "link": "https://animefire.plus/animes/uchi-no-shishou-wa-shippo-ga-nai-todos-os-episodios",
      "texto_original": "Uchi no Shishou wa Shippo ga Nai",
      "rating": 6.73,
      "classificacao_etaria": "A14",
      "imagem_original": "https://animefire.plus/img/animes/uchi-no-shishou-wa-shippo-ga-nai.webp",
      "imagem_pasta": "https://animefire.plus/img/animes/uchi-no-shishou-wa-shippo-ga-nai/",
      "secao": "legendados",
      "pagina": 28,
      "total_episodios": 13,
      "link_video": "https://animefire.plus/video/uchi-no-shishou-wa-shippo-ga-nai"
    },
    {
      "id": 3989,
      "nome": "Uchi Tama?! Uchi no Tama Shirimasen ka?",
      "link": "https://animefire.plus/animes/uchi-tama-uchi-no-tama-shirimasen-ka-todos-os-episodios",
      "texto_original": "Uchi Tama?! Uchi no Tama Shirimasen ka?",
      "rating": 6.9,
      "classificacao_etaria": "A14",
      "imagem_original": "https://animefire.plus/img/animes/uchi-tama-uchi-no-tama-shirimasen-ka.webp",
      "imagem_pasta": "https://animefire.plus/img/animes/uchi-tama-uchi-no-tama-shirimasen-ka/",
      "secao": "legendados",
      "pagina": 92,
      "total_episodios": 1,
      "link_video": "https://animefire.plus/video/uchi-tama-uchi-no-tama-shirimasen-ka"
    },
    {
      "id": 3993,
      "nome": "Uchuu Kazoku Carlvinson",
      "link": "https://animefire.plus/animes/uchuu-kazoku-carlvinson-todos-os-episodios",
      "texto_original": "Uchuu Kazoku Carlvinson",
      "rating": 6.44,
      "classificacao_etaria": "A14",
      "imagem_original": "https://animefire.plus/img/animes/uchuu-kazoku-carlvinson.webp",
      "imagem_pasta": "https://animefire.plus/img/animes/uchuu-kazoku-carlvinson/",
      "secao": "legendados",
      "pagina": 54,
      "total_episodios": 1,
      "link_video": "https://animefire.plus/video/uchuu-kazoku-carlvinson"
    },
    {
      "id": 3995,
      "nome": "Uchuu no Senshi",
      "link": "https://animefire.plus/animes/uchuu-no-senshi-todos-os-episodios",
      "texto_original": "Uchuu no Senshi",
      "rating": 6.21,
      "classificacao_etaria": "A16",
      "imagem_original": "https://animefire.plus/img/animes/uchuu-no-senshi.webp",
      "imagem_pasta": "https://animefire.plus/img/animes/uchuu-no-senshi/",
      "secao": "legendados",
      "pagina": 55,
      "total_episodios": 6,
      "link_video": "https://animefire.plus/video/uchuu-no-senshi"
    },
    {
      "id": 3998,
      "nome": "Uchuu Senkan Tiramisù",
      "link": "https://animefire.plus/animes/uchuu-senkan-tiramisu-todos-os-episodios",
      "texto_original": "Uchuu Senkan Tiramisù",
      "rating": 6.4,
      "classificacao_etaria": "A14",
      "imagem_original": "https://animefire.plus/img/animes/uchuu-senkan-tiramisu.webp",
      "imagem_pasta": "https://animefire.plus/img/animes/uchuu-senkan-tiramisu/",
      "secao": "legendados",
      "pagina": 150,
      "total_episodios": 4,
      "link_video": "https://animefire.plus/video/uchuu-senkan-tiramisu"
    },
    {
      "id": 3999,
      "nome": "Uchuu Senkan Tiramisù Specials",
      "link": "https://animefire.plus/animes/uchuu-senkan-tiramisu-specials-todos-os-episodios",
      "texto_original": "Uchuu Senkan Tiramisù Specials",
      "rating": 6.37,
      "classificacao_etaria": "A14",
      "imagem_original": "https://animefire.plus/img/animes/uchuu-senkan-tiramisu-specials.webp",
      "imagem_pasta": "https://animefire.plus/img/animes/uchuu-senkan-tiramisu-specials/",
      "secao": "legendados",
      "pagina": 118,
      "total_episodios": 3,
      "link_video": "https://animefire.plus/video/uchuu-senkan-tiramisu-specials"
    },
    {
      "id": 4005,
      "nome": "Ueno-san wa Bukiyou",
      "link": "https://animefire.plus/animes/ueno-san-wa-bukiyou-todos-os-episodios",
      "texto_original": "Ueno-san wa Bukiyou",
      "rating": 6.64,
      "classificacao_etaria": "A14",
      "imagem_original": "https://animefire.plus/img/animes/ueno-san-wa-bukiyou.webp",
      "imagem_pasta": "https://animefire.plus/img/animes/ueno-san-wa-bukiyou/",
      "secao": "legendados",
      "pagina": 101,
      "total_episodios": 12,
      "link_video": "https://animefire.plus/video/ueno-san-wa-bukiyou"
    },
    {
      "id": 4006,
      "nome": "UFO Princess Valkyrie",
      "link": "https://animefire.plus/animes/ufo-princess-valkyrie-todos-os-episodios",
      "texto_original": "UFO Princess Valkyrie",
      "rating": 6.83,
      "classificacao_etaria": "A18",
      "imagem_original": "https://animefire.plus/img/animes/ufo-princess-valkyrie.webp",
      "imagem_pasta": "https://animefire.plus/img/animes/ufo-princess-valkyrie/",
      "secao": "legendados",
      "pagina": 106,
      "total_episodios": 0,
      "link_video": "https://animefire.plus/video/ufo-princess-valkyrie"
    },
    {
      "id": 4007,
      "nome": "UFO Senshi Dai Apolon",
      "link": "https://animefire.plus/animes/ufo-senshi-dai-apolon-todos-os-episodios",
      "texto_original": "UFO Senshi Dai Apolon",
      "rating": 6.17,
      "classificacao_etaria": "A14",
      "imagem_original": "https://animefire.plus/img/animes/ufo-senshi-dai-apolon.webp",
      "imagem_pasta": "https://animefire.plus/img/animes/ufo-senshi-dai-apolon/",
      "secao": "legendados",
      "pagina": 78,
      "total_episodios": 26,
      "link_video": "https://animefire.plus/video/ufo-senshi-dai-apolon"
    },
    {
      "id": 4008,
      "nome": "UG☆Ultimate Girls",
      "link": "https://animefire.plus/animes/ug-ultimate-girls-todos-os-episodios",
      "texto_original": "UG☆Ultimate Girls",
      "rating": 5.68,
      "classificacao_etaria": "A14",
      "imagem_original": "https://animefire.plus/img/animes/ug-ultimate-girls.webp",
      "imagem_pasta": "https://animefire.plus/img/animes/ug-ultimate-girls/",
      "secao": "legendados",
      "pagina": 113,
      "total_episodios": 12,
      "link_video": "https://animefire.plus/video/ug-ultimate-girls"
    }
  ],
  "pagination": {
    "current_page": 83,
    "per_page": 20,
    "total_items": 1805,
    "total_pages": 91,
    "has_next": true,
    "has_prev": true
  }
}
