{
  "message": "Animes com rating entre 5 e 7",
  "rating_range": {
    "min": 5,
    "max": 7
  },
  "data": [
    {
      "id": 2643,
      "nome": "Nagato Yuki-chan no Shoushitsu",
      "link": "https://animefire.plus/animes/nagato-yuki-chan-no-shoushitsu-todos-os-episodios",
      "texto_original": "Nagato Yuki-chan no Shoushitsu",
      "rating": 6.74,
      "classificacao_etaria": "A14",
      "imagem_original": "https://animefire.plus/img/animes/nagato-yuki-chan-no-shoushitsu.webp",
      "imagem_pasta": "https://animefire.plus/img/animes/nagato-yuki-chan-no-shoushitsu/",
      "secao": "legendados",
      "pagina": 76,
      "total_episodios": 16,
      "link_video": "https://animefire.plus/video/nagato-yuki-chan-no-shoushitsu"
    },
    {
      "id": 2646,
      "nome": "Najica Dengeki Sakusen",
      "link": "https://animefire.plus/animes/najica-dengeki-sakusen-todos-os-episodios",
      "texto_original": "Najica Dengeki Sakusen",
      "rating": 6.05,
      "classificacao_etaria": "A18",
      "imagem_original": "https://animefire.plus/img/animes/najica-dengeki-sakusen.webp",
      "imagem_pasta": "https://animefire.plus/img/animes/najica-dengeki-sakusen/",
      "secao": "legendados",
      "pagina": 154,
      "total_episodios": 12,
      "link_video": "https://animefire.plus/video/najica-dengeki-sakusen"
    },
    {
      "id": 2647,
      "nome": "Nakanohito Genome [Jikkyouchuu]",
      "link": "https://animefire.plus/animes/nakanohito-genome-jikkyouchuu-todos-os-episodios",
      "texto_original": "Nakanohito Genome [Jikkyouchuu]",
      "rating": 6.87,
      "classificacao_etaria": "A14",
      "imagem_original": "https://animefire.plus/img/animes/nakanohito-genome-jikkyouchuu.webp",
      "imagem_pasta": "https://animefire.plus/img/animes/nakanohito-genome-jikkyouchuu/",
      "secao": "legendados",
      "pagina": 157,
      "total_episodios": 2,
      "link_video": "https://animefire.plus/video/nakanohito-genome-jikkyouchuu"
    },
    {
      "id": 2648,
      "nome": "Nakanohito Genome [Jikkyouchuu]: Knots of Memories",
      "link": "https://animefire.plus/animes/nakanohito-genome-jikkyouchuu-knots-of-memories-todos-os-episodios",
      "texto_original": "Nakanohito Genome [Jikkyouchuu]: Knots of Memories",
      "rating": 6.79,
      "classificacao_etaria": "A14",
      "imagem_original": "https://animefire.plus/img/animes/nakanohito-genome-jikkyouchuu-knots-of-memories.webp",
      "imagem_pasta": "https://animefire.plus/img/animes/nakanohito-genome-jikkyouchuu-knots-of-memories/",
      "secao": "legendados",
      "pagina": 42,
      "total_episodios": 1,
      "link_video": "https://animefire.plus/video/nakanohito-genome-jikkyouchuu-knots-of-memories"
    },
    {
      "id": 2650,
      "nome": "Namu Amida Butsu!: Rendai Utena",
      "link": "https://animefire.plus/animes/namu-amida-butsu-rendai-utena-todos-os-episodios",
      "texto_original": "Namu Amida Butsu!: Rendai Utena",
      "rating": 6.07,
      "classificacao_etaria": "A14",
      "imagem_original": "https://animefire.plus/img/animes/namu-amida-butsu-rendai-utena.webp",
      "imagem_pasta": "https://animefire.plus/img/animes/namu-amida-butsu-rendai-utena/",
      "secao": "legendados",
      "pagina": 142,
      "total_episodios": 0,
      "link_video": "https://animefire.plus/video/namu-amida-butsu-rendai-utena"
    },
    {
      "id": 2652,
      "nome": "Nana Maru San Batsu",
      "link": "https://animefire.plus/animes/nana-maru-san-batsu-todos-os-episodios",
      "texto_original": "Nana Maru San Batsu",
      "rating": 6.79,
      "classificacao_etaria": "A14",
      "imagem_original": "https://animefire.plus/img/animes/nana-maru-san-batsu.webp",
      "imagem_pasta": "https://animefire.plus/img/animes/nana-maru-san-batsu/",
      "secao": "legendados",
      "pagina": 169,
      "total_episodios": 12,
      "link_video": "https://animefire.plus/video/nana-maru-san-batsu"
    },
    {
      "id": 2653,
      "nome": "Nana Toshi Monogatari: Hokkyokukai Sensen",
      "link": "https://animefire.plus/animes/nana-toshi-monogatari-hokkyokukai-sensen-todos-os-episodios",
      "texto_original": "Nana Toshi Monogatari: Hokkyokukai Sensen",
      "rating": 6.3,
      "classificacao_etaria": "A14",
      "imagem_original": "https://animefire.plus/img/animes/nana-toshi-monogatari-hokkyokukai-sensen.webp",
      "imagem_pasta": "https://animefire.plus/img/animes/nana-toshi-monogatari-hokkyokukai-sensen/",
      "secao": "legendados",
      "pagina": 72,
      "total_episodios": 2,
      "link_video": "https://animefire.plus/video/nana-toshi-monogatari-hokkyokukai-sensen"
    },
    {
      "id": 2654,
      "nome": "Nanaka 6/17",
      "link": "https://animefire.plus/animes/nanaka-6-17-todos-os-episodios",
      "texto_original": "Nanaka 6/17",
      "rating": 6.7,
      "classificacao_etaria": "A14",
      "imagem_original": "https://animefire.plus/img/animes/nanaka-6-17.webp",
      "imagem_pasta": "https://animefire.plus/img/animes/nanaka-6-17/",
      "secao": "legendados",
      "pagina": 141,
      "total_episodios": 12,
      "link_video": "https://animefire.plus/video/nanaka-6-17"
    },
    {
      "id": 2655,
      "nome": "Nanatsu no Bitoku",
      "link": "https://animefire.plus/animes/nanatsu-no-bitoku-todos-os-episodios",
      "texto_original": "Nanatsu no Bitoku",
      "rating": 5.27,
      "classificacao_etaria": "A18",
      "imagem_original": "https://animefire.plus/img/animes/nanatsu-no-bitoku.webp",
      "imagem_pasta": "https://animefire.plus/img/animes/nanatsu-no-bitoku/",
      "secao": "legendados",
      "pagina": 146,
      "total_episodios": 7,
      "link_video": "https://animefire.plus/video/nanatsu-no-bitoku"
    },
    {
      "id": 2656,
      "nome": "Nanatsu no Bitoku Specials",
      "link": "https://animefire.plus/animes/nanatsu-no-bitoku-specials-todos-os-episodios",
      "texto_original": "Nanatsu no Bitoku Specials",
      "rating": 5.52,
      "classificacao_etaria": "A18",
      "imagem_original": "https://animefire.plus/img/animes/nanatsu-no-bitoku-specials.webp",
      "imagem_pasta": "https://animefire.plus/img/animes/nanatsu-no-bitoku-specials/",
      "secao": "legendados",
      "pagina": 84,
      "total_episodios": 2,
      "link_video": "https://animefire.plus/video/nanatsu-no-bitoku-specials"
    },
    {
      "id": 2657,
      "nome": "Nanatsu no Maken ga Shihai suru",
      "link": "https://animefire.plus/animes/nanatsu-no-maken-ga-shihai-suru-todos-os-episodios",
      "texto_original": "Nanatsu no Maken ga Shihai suru",
      "rating": 6.56,
      "classificacao_etaria": "A14",
      "imagem_original": "https://animefire.plus/img/animes/nanatsu-no-maken-ga-shihai-suru.jpg",
      "imagem_pasta": "https://animefire.plus/img/animes/nanatsu-no-maken-ga-shihai-suru/",
      "secao": "legendados",
      "pagina": 23,
      "total_episodios": 15,
      "link_video": "https://animefire.plus/video/nanatsu-no-maken-ga-shihai-suru"
    },
    {
      "id": 2662,
      "nome": "Nanatsu no Taizai: Ensa no Edinburgh (Dublado)",
      "link": "https://animefire.plus/animes/nanatsu-no-taizai-ensa-no-edinburgh-dublado-todos-os-episodios",
      "texto_original": "Nanatsu no Taizai: Ensa no Edinburgh (Dublado)",
      "rating": 6.21,
      "classificacao_etaria": "A14",
      "imagem_original": "https://animefire.plus/img/animes/nanatsu-no-taizai-ensa-no-edinburgh.webp",
      "imagem_pasta": "https://animefire.plus/img/animes/nanatsu-no-taizai-ensa-no-edinburgh/",
      "secao": "dublados,legendados",
      "pagina": 8,
      "total_episodios": 1,
      "link_video": "https://animefire.plus/video/nanatsu-no-taizai-ensa-no-edinburgh-dublado"
    },
    {
      "id": 2663,
      "nome": "Nanatsu no Taizai: Ensa no Edinburgh Part 2 (Dublado)",
      "link": "https://animefire.plus/animes/nanatsu-no-taizai-ensa-no-edinburgh-part-2-dublado-todos-os-episodios",
      "texto_original": "Nanatsu no Taizai: Ensa no Edinburgh Part 2 (Dublado)",
      "rating": 6.56,
      "classificacao_etaria": "A14",
      "imagem_original": "https://animefire.plus/img/animes/nanatsu-no-taizai-ensa-no-edinburgh-part-2.webp",
      "imagem_pasta": "https://animefire.plus/img/animes/nanatsu-no-taizai-ensa-no-edinburgh-part-2/",
      "secao": "dublados,legendados",
      "pagina": 6,
      "total_episodios": 1,
      "link_video": "https://animefire.plus/video/nanatsu-no-taizai-ensa-no-edinburgh-part-2-dublado"
    },
    {
      "id": 2664,
      "nome": "Nanatsu no Taizai: Fundo no Shinpan (Dublado)",
      "link": "https://animefire.plus/animes/nanatsu-no-taizai-fundo-no-shinpan-dublado-todos-os-episodios",
      "texto_original": "Nanatsu no Taizai: Fundo no Shinpan (Dublado)",
      "rating": 6.57,
      "classificacao_etaria": "A14",
      "imagem_original": "https://animefire.plus/img/animes/nanatsu-no-taizai-fundo-no-shinpan.webp",
      "imagem_pasta": "https://animefire.plus/img/animes/nanatsu-no-taizai-fundo-no-shinpan/",
      "secao": "dublados,legendados,lancamentos",
      "pagina": 16,
      "total_episodios": 24,
      "link_video": "https://animefire.plus/video/nanatsu-no-taizai-fundo-no-shinpan-dublado"
    },
    {
      "id": 2666,
      "nome": "Nanatsu no Taizai: Kamigami no Gekirin (Dublado)",
      "link": "https://animefire.plus/animes/nanatsu-no-taizai-kamigami-no-gekirin-dublado-todos-os-episodios",
      "texto_original": "Nanatsu no Taizai: Kamigami no Gekirin (Dublado)",
      "rating": 6.38,
      "classificacao_etaria": "A14",
      "imagem_original": "https://animefire.plus/img/animes/nanatsu-no-taizai-kamigami-no-gekirin.webp",
      "imagem_pasta": "https://animefire.plus/img/animes/nanatsu-no-taizai-kamigami-no-gekirin/",
      "secao": "dublados,legendados",
      "pagina": 19,
      "total_episodios": 24,
      "link_video": "https://animefire.plus/video/nanatsu-no-taizai-kamigami-no-gekirin-dublado"
    },
    {
      "id": 2672,
      "nome": "Nande Koko ni Sensei ga!?",
      "link": "https://animefire.plus/animes/nande-koko-ni-sensei-ga-todos-os-episodios",
      "texto_original": "Nande Koko ni Sensei ga!?",
      "rating": 6.47,
      "classificacao_etaria": "A18",
      "imagem_original": "https://animefire.plus/img/animes/nande-koko-ni-sensei-ga.webp",
      "imagem_pasta": "https://animefire.plus/img/animes/nande-koko-ni-sensei-ga/",
      "secao": "legendados",
      "pagina": 129,
      "total_episodios": 0,
      "link_video": "https://animefire.plus/video/nande-koko-ni-sensei-ga"
    },
    {
      "id": 2673,
      "nome": "Nande Koko ni Sensei ga!? Special",
      "link": "https://animefire.plus/animes/nande-koko-ni-sensei-ga-special-todos-os-episodios",
      "texto_original": "Nande Koko ni Sensei ga!? Special",
      "rating": 6.85,
      "classificacao_etaria": "A18",
      "imagem_original": "https://animefire.plus/img/animes/nande-koko-ni-sensei-ga-special.webp",
      "imagem_pasta": "https://animefire.plus/img/animes/nande-koko-ni-sensei-ga-special/",
      "secao": "legendados",
      "pagina": 84,
      "total_episodios": 1,
      "link_video": "https://animefire.plus/video/nande-koko-ni-sensei-ga-special"
    },
    {
      "id": 2674,
      "nome": "Nanocore",
      "link": "https://animefire.plus/animes/nanocore-todos-os-episodios",
      "texto_original": "Nanocore",
      "rating": 6.31,
      "classificacao_etaria": "A14",
      "imagem_original": "https://animefire.plus/img/animes/nanocore.webp",
      "imagem_pasta": "https://animefire.plus/img/animes/nanocore/",
      "secao": "legendados",
      "pagina": 172,
      "total_episodios": 10,
      "link_video": "https://animefire.plus/video/nanocore"
    },
    {
      "id": 2675,
      "nome": "Nanocore 2nd Season",
      "link": "https://animefire.plus/animes/nanocore-2nd-season-todos-os-episodios",
      "texto_original": "Nanocore 2nd Season",
      "rating": 6.65,
      "classificacao_etaria": "A14",
      "imagem_original": "https://animefire.plus/img/animes/nanocore-2nd-season.webp",
      "imagem_pasta": "https://animefire.plus/img/animes/nanocore-2nd-season/",
      "secao": "legendados",
      "pagina": 175,
      "total_episodios": 10,
      "link_video": "https://animefire.plus/video/nanocore-2nd-season"
    },
    {
      "id": 2676,
      "nome": "Narue no Sekai",
      "link": "https://animefire.plus/animes/narue-no-sekai-todos-os-episodios",
      "texto_original": "Narue no Sekai",
      "rating": 6.64,
      "classificacao_etaria": "A14",
      "imagem_original": "https://animefire.plus/img/animes/narue-no-sekai.webp",
      "imagem_pasta": "https://animefire.plus/img/animes/narue-no-sekai/",
      "secao": "legendados",
      "pagina": 164,
      "total_episodios": 12,
      "link_video": "https://animefire.plus/video/narue-no-sekai"
    }
  ],
  "pagination": {
    "current_page": 57,
    "per_page": 20,
    "total_items": 1805,
    "total_pages": 91,
    "has_next": true,
    "has_prev": true
  }
}
