{
  "message": "Animes com rating entre 5 e 7",
  "rating_range": {
    "min": 5,
    "max": 7
  },
  "data": [
    {
      "id": 3539,
      "nome": "Sister Princess: Re Pure",
      "link": "https://animefire.plus/animes/sister-princess-re-pure-todos-os-episodios",
      "texto_original": "Sister Princess: Re Pure",
      "rating": 6.31,
      "classificacao_etaria": "A14",
      "imagem_original": "https://animefire.plus/img/animes/sister-princess-re-pure.webp",
      "imagem_pasta": "https://animefire.plus/img/animes/sister-princess-re-pure/",
      "secao": "legendados",
      "pagina": 150,
      "total_episodios": 13,
      "link_video": "https://animefire.plus/video/sister-princess-re-pure"
    },
    {
      "id": 3541,
      "nome": "Skate-Leading☆Stars",
      "link": "https://animefire.plus/animes/skate-leading-stars-todos-os-episodios",
      "texto_original": "Skate-Leading☆Stars",
      "rating": 6.45,
      "classificacao_etaria": "A14",
      "imagem_original": "https://animefire.plus/img/animes/skate-leading-stars.webp",
      "imagem_pasta": "https://animefire.plus/img/animes/skate-leading-stars/",
      "secao": "legendados",
      "pagina": 49,
      "total_episodios": 12,
      "link_video": "https://animefire.plus/video/skate-leading-stars"
    },
    {
      "id": 3545,
      "nome": "Skull Man",
      "link": "https://animefire.plus/animes/skull-man-todos-os-episodios",
      "texto_original": "Skull Man",
      "rating": 6.71,
      "classificacao_etaria": "A14",
      "imagem_original": "https://animefire.plus/img/animes/skull-man.webp",
      "imagem_pasta": "https://animefire.plus/img/animes/skull-man/",
      "secao": "legendados",
      "pagina": 138,
      "total_episodios": 13,
      "link_video": "https://animefire.plus/video/skull-man"
    },
    {
      "id": 3555,
      "nome": "Slime Taoshite 300-nen, Shiranai Uchi ni Level Max ni Nattemashita (Dublado)",
      "link": "https://animefire.plus/animes/slime-taoshite-300-nen-shiranai-uchi-ni-level-max-ni-nattemashita-dublado-todos-os-episodios",
      "texto_original": "Slime Taoshite 300-nen, Shiranai Uchi ni Level Max ni Nattemashita (Dublado)",
      "rating": 6.9,
      "classificacao_etaria": "A14",
      "imagem_original": "https://animefire.plus/img/animes/slime-taoshite-300-nen-shiranai-uchi-ni-level-max-ni-nattemashita.webp",
      "imagem_pasta": "https://animefire.plus/img/animes/slime-taoshite-300-nen-shiranai-uchi-ni-level-max-ni-nattemashita/",
      "secao": "dublados,legendados",
      "pagina": 17,
      "total_episodios": 12,
      "link_video": "https://animefire.plus/video/slime-taoshite-300-nen-shiranai-uchi-ni-level-max-ni-nattemashita-dublado"
    },
    {
      "id": 3556,
      "nome": "Slime Taoshite 300-nen, Shiranai Uchi ni Level Max ni Nattemashita: Sono Ni",
      "link": "https://animefire.plus/animes/slime-taoshite-300-nen-shiranai-uchi-ni-level-max-ni-nattemashita-sono-ni-todos-os-episodios",
      "texto_original": "Slime Taoshite 300-nen, Shiranai Uchi ni Level Max ni Nattemashita: Sono Ni",
      "rating": 6.69,
      "classificacao_etaria": "A14",
      "imagem_original": "https://animefire.plus/img/animes/slime-taoshite-300-nen-shiranai-uchi-ni-level-max-ni-nattemashita-sono-ni.webp",
      "imagem_pasta": "https://animefire.plus/img/animes/slime-taoshite-300-nen-shiranai-uchi-ni-level-max-ni-nattemashita-sono-ni/",
      "secao": "legendados",
      "pagina": 6,
      "total_episodios": 12,
      "link_video": "https://animefire.plus/video/slime-taoshite-300-nen-shiranai-uchi-ni-level-max-ni-nattemashita-sono-ni"
    },
    {
      "id": 3559,
      "nome": "Smile Precure! (Dublado)",
      "link": "https://animefire.plus/animes/smile-precure-dublado-todos-os-episodios",
      "texto_original": "Smile Precure! (Dublado)",
      "rating": 6.95,
      "classificacao_etaria": null,
      "imagem_original": "https://animefire.plus/img/animes/smile-precure.webp",
      "imagem_pasta": "https://animefire.plus/img/animes/smile-precure/",
      "secao": "dublados,legendados",
      "pagina": 22,
      "total_episodios": 40,
      "link_video": "https://animefire.plus/video/smile-precure-dublado"
    },
    {
      "id": 3560,
      "nome": "Snack Basue",
      "link": "https://animefire.plus/animes/snack-basue-todos-os-episodios",
      "texto_original": "Snack Basue",
      "rating": 6.5,
      "classificacao_etaria": "A14",
      "imagem_original": "https://animefire.plus/img/animes/snack-basue.webp",
      "imagem_pasta": "https://animefire.plus/img/animes/snack-basue/",
      "secao": "legendados",
      "pagina": 16,
      "total_episodios": 13,
      "link_video": "https://animefire.plus/video/snack-basue"
    },
    {
      "id": 3562,
      "nome": "Softenni",
      "link": "https://animefire.plus/animes/softenni-todos-os-episodios",
      "texto_original": "Softenni",
      "rating": 6.57,
      "classificacao_etaria": "A18",
      "imagem_original": "https://animefire.plus/img/animes/softenni.webp",
      "imagem_pasta": "https://animefire.plus/img/animes/softenni/",
      "secao": "legendados",
      "pagina": 179,
      "total_episodios": 12,
      "link_video": "https://animefire.plus/video/softenni"
    },
    {
      "id": 3563,
      "nome": "Sokushi Cheat ga Saikyou sugite, Isekai no Yatsura ga Marude Aite ni Naranai n desu ga.",
      "link": "https://animefire.plus/animes/sokushi-cheat-ga-saikyou-sugite-isekai-no-yatsura-ga-marude-aite-ni-naranai-n-desu-ga-todos-os-episodios",
      "texto_original": "Sokushi Cheat ga Saikyou sugite, Isekai no Yatsura ga Marude Aite ni Naranai n desu ga.",
      "rating": 6.37,
      "classificacao_etaria": null,
      "imagem_original": "https://animefire.plus/img/animes/sokushi-cheat-ga-saikyou-sugite-isekai-no-yatsura-ga-marude-aite-ni-naranai-n-desu-ga.webp",
      "imagem_pasta": "https://animefire.plus/img/animes/sokushi-cheat-ga-saikyou-sugite-isekai-no-yatsura-ga-marude-aite-ni-naranai-n-desu-ga/",
      "secao": "legendados",
      "pagina": 18,
      "total_episodios": 12,
      "link_video": "https://animefire.plus/video/sokushi-cheat-ga-saikyou-sugite-isekai-no-yatsura-ga-marude-aite-ni-naranai-n-desu-ga"
    },
    {
      "id": 3564,
      "nome": "Sol Levante",
      "link": "https://animefire.plus/animes/sol-levante-todos-os-episodios",
      "texto_original": "Sol Levante",
      "rating": 5.14,
      "classificacao_etaria": "A14",
      "imagem_original": "https://animefire.plus/img/animes/sol-levante.webp",
      "imagem_pasta": "https://animefire.plus/img/animes/sol-levante/",
      "secao": "legendados",
      "pagina": 53,
      "total_episodios": 1,
      "link_video": "https://animefire.plus/video/sol-levante"
    },
    {
      "id": 3568,
      "nome": "SoniAni: Super Sonico The Animation",
      "link": "https://animefire.plus/animes/soniani-super-sonico-the-animation-todos-os-episodios",
      "texto_original": "SoniAni: Super Sonico The Animation",
      "rating": 6.18,
      "classificacao_etaria": "A14",
      "imagem_original": "https://animefire.plus/img/animes/soniani-super-sonico-the-animation.webp",
      "imagem_pasta": "https://animefire.plus/img/animes/soniani-super-sonico-the-animation/",
      "secao": "legendados",
      "pagina": 115,
      "total_episodios": 12,
      "link_video": "https://animefire.plus/video/soniani-super-sonico-the-animation"
    },
    {
      "id": 3572,
      "nome": "Sono Toki, Kanojo wa.",
      "link": "https://animefire.plus/animes/sono-toki-kanojo-wa-todos-os-episodios",
      "texto_original": "Sono Toki, Kanojo wa.",
      "rating": 5.71,
      "classificacao_etaria": "A14",
      "imagem_original": "https://animefire.plus/img/animes/sono-toki-kanojo-wa.webp",
      "imagem_pasta": "https://animefire.plus/img/animes/sono-toki-kanojo-wa/",
      "secao": "legendados",
      "pagina": 169,
      "total_episodios": 12,
      "link_video": "https://animefire.plus/video/sono-toki-kanojo-wa"
    },
    {
      "id": 3574,
      "nome": "Sora no Method",
      "link": "https://animefire.plus/animes/sora-no-method-todos-os-episodios",
      "texto_original": "Sora no Method",
      "rating": 6.81,
      "classificacao_etaria": "A14",
      "imagem_original": "https://animefire.plus/img/animes/sora-no-method.webp",
      "imagem_pasta": "https://animefire.plus/img/animes/sora-no-method/",
      "secao": "legendados",
      "pagina": 127,
      "total_episodios": 13,
      "link_video": "https://animefire.plus/video/sora-no-method"
    },
    {
      "id": 3577,
      "nome": "Sora to Umi no Aida",
      "link": "https://animefire.plus/animes/sora-to-umi-no-aida-todos-os-episodios",
      "texto_original": "Sora to Umi no Aida",
      "rating": 5.74,
      "classificacao_etaria": "A14",
      "imagem_original": "https://animefire.plus/img/animes/sora-to-umi-no-aida.webp",
      "imagem_pasta": "https://animefire.plus/img/animes/sora-to-umi-no-aida/",
      "secao": "legendados",
      "pagina": 129,
      "total_episodios": 12,
      "link_video": "https://animefire.plus/video/sora-to-umi-no-aida"
    },
    {
      "id": 3579,
      "nome": "Sorairo Utility",
      "link": "https://animefire.plus/animes/sorairo-utility-todos-os-episodios",
      "texto_original": "Sorairo Utility",
      "rating": 6.52,
      "classificacao_etaria": "A14",
      "imagem_original": "https://animefire.plus/img/animes/sorairo-utility.webp",
      "imagem_pasta": "https://animefire.plus/img/animes/sorairo-utility/",
      "secao": "legendados",
      "pagina": 35,
      "total_episodios": 1,
      "link_video": "https://animefire.plus/video/sorairo-utility"
    },
    {
      "id": 3586,
      "nome": "Sorette♡Dakara ne!",
      "link": "https://animefire.plus/animes/sorette-dakara-ne-todos-os-episodios",
      "texto_original": "Sorette♡Dakara ne!",
      "rating": 5.04,
      "classificacao_etaria": "A14",
      "imagem_original": "https://animefire.plus/img/animes/sorette-dakara-ne.webp",
      "imagem_pasta": "https://animefire.plus/img/animes/sorette-dakara-ne/",
      "secao": "legendados",
      "pagina": 43,
      "total_episodios": 1,
      "link_video": "https://animefire.plus/video/sorette-dakara-ne"
    },
    {
      "id": 3587,
      "nome": "Soukou Musume Senki",
      "link": "https://animefire.plus/animes/soukou-musume-senki-todos-os-episodios",
      "texto_original": "Soukou Musume Senki",
      "rating": 5.78,
      "classificacao_etaria": "A14",
      "imagem_original": "https://animefire.plus/img/animes/soukou-musume-senki.webp",
      "imagem_pasta": "https://animefire.plus/img/animes/soukou-musume-senki/",
      "secao": "legendados",
      "pagina": 48,
      "total_episodios": 12,
      "link_video": "https://animefire.plus/video/soukou-musume-senki"
    },
    {
      "id": 3591,
      "nome": "Soul Buster",
      "link": "https://animefire.plus/animes/soul-buster-todos-os-episodios",
      "texto_original": "Soul Buster",
      "rating": 5.84,
      "classificacao_etaria": "A14",
      "imagem_original": "https://animefire.plus/img/animes/soul-buster.webp",
      "imagem_pasta": "https://animefire.plus/img/animes/soul-buster/",
      "secao": "legendados",
      "pagina": 61,
      "total_episodios": 12,
      "link_video": "https://animefire.plus/video/soul-buster"
    },
    {
      "id": 3593,
      "nome": "Soul Eater NOT!",
      "link": "https://animefire.plus/animes/soul-eater-not-todos-os-episodios",
      "texto_original": "Soul Eater NOT!",
      "rating": 6.16,
      "classificacao_etaria": "A14",
      "imagem_original": "https://animefire.plus/img/animes/soul-eater-not.webp",
      "imagem_pasta": "https://animefire.plus/img/animes/soul-eater-not/",
      "secao": "legendados",
      "pagina": 170,
      "total_episodios": 11,
      "link_video": "https://animefire.plus/video/soul-eater-not"
    },
    {
      "id": 3594,
      "nome": "Soul Link",
      "link": "https://animefire.plus/animes/soul-link-todos-os-episodios",
      "texto_original": "Soul Link",
      "rating": 6.19,
      "classificacao_etaria": "A16",
      "imagem_original": "https://animefire.plus/img/animes/soul-link.webp",
      "imagem_pasta": "https://animefire.plus/img/animes/soul-link/",
      "secao": "legendados",
      "pagina": 145,
      "total_episodios": 13,
      "link_video": "https://animefire.plus/video/soul-link"
    }
  ],
  "pagination": {
    "current_page": 75,
    "per_page": 20,
    "total_items": 1805,
    "total_pages": 91,
    "has_next": true,
    "has_prev": true
  }
}
