{
  "message": "Animes com rating entre 5 e 7",
  "rating_range": {
    "min": 5,
    "max": 7
  },
  "data": [
    {
      "id": 2008,
      "nome": "Kinnikuman: Kanpeki Chоujin Shiso-hen Season 2",
      "link": "https://animefire.plus/animes/kinnikuman-kanpeki-choujin-shiso-hen-season-2-todos-os-episodios",
      "texto_original": "Kinnikuman: Kanpeki Chоujin Shiso-hen Season 2",
      "rating": 6.87,
      "classificacao_etaria": "A14",
      "imagem_original": "https://animefire.plus/img/animes/kinnikuman-kanpeki-choujin-shiso-hen-season-2.webp",
      "imagem_pasta": "https://animefire.plus/img/animes/kinnikuman-kanpeki-choujin-shiso-hen-season-2/",
      "secao": "legendados,lancamentos",
      "pagina": 6,
      "total_episodios": 1,
      "link_video": "https://animefire.plus/video/kinnikuman-kanpeki-choujin-shiso-hen-season-2"
    },
    {
      "id": 2011,
      "nome": "Kinoko Inu",
      "link": "https://animefire.plus/animes/kinoko-inu-todos-os-episodios",
      "texto_original": "Kinoko Inu",
      "rating": 6.89,
      "classificacao_etaria": "A14",
      "imagem_original": "https://animefire.plus/img/animes/kinoko-inu.webp",
      "imagem_pasta": "https://animefire.plus/img/animes/kinoko-inu/",
      "secao": "legendados",
      "pagina": 9,
      "total_episodios": 12,
      "link_video": "https://animefire.plus/video/kinoko-inu"
    },
    {
      "id": 2012,
      "nome": "Kinsou no Vermeil: Gakeppuchi Majutsushi wa Saikyou no Yakusai to Mahou Sekai wo Tsukisusumu",
      "link": "https://animefire.plus/animes/kinsou-no-vermeil-gakeppuchi-majutsushi-wa-saikyou-no-yakusai-to-mahou-sekai-wo-tsukisusumu-todos-os-episodios",
      "texto_original": "Kinsou no Vermeil: Gakeppuchi Majutsushi wa Saikyou no Yakusai to Mahou Sekai wo Tsukisusumu",
      "rating": 6.8,
      "classificacao_etaria": "A14",
      "imagem_original": "https://animefire.plus/img/animes/kinsou-no-vermeil-gakeppuchi-majutsushi-wa-saikyou-no-yakusai-to-mahou-sekai-wo-tsukisusumu.webp",
      "imagem_pasta": "https://animefire.plus/img/animes/kinsou-no-vermeil-gakeppuchi-majutsushi-wa-saikyou-no-yakusai-to-mahou-sekai-wo-tsukisusumu/",
      "secao": "legendados",
      "pagina": 31,
      "total_episodios": 12,
      "link_video": "https://animefire.plus/video/kinsou-no-vermeil-gakeppuchi-majutsushi-wa-saikyou-no-yakusai-to-mahou-sekai-wo-tsukisusumu"
    },
    {
      "id": 2013,
      "nome": "Kirakira☆Precure A La Mode",
      "link": "https://animefire.plus/animes/kirakira-precure-a-la-mode-todos-os-episodios",
      "texto_original": "Kirakira☆Precure A La Mode",
      "rating": 6.88,
      "classificacao_etaria": null,
      "imagem_original": "https://animefire.plus/img/animes/kirakira-precure-a-la-mode.webp",
      "imagem_pasta": "https://animefire.plus/img/animes/kirakira-precure-a-la-mode/",
      "secao": "legendados",
      "pagina": 67,
      "total_episodios": 49,
      "link_video": "https://animefire.plus/video/kirakira-precure-a-la-mode"
    },
    {
      "id": 2014,
      "nome": "Kirara",
      "link": "https://animefire.plus/animes/kirara-todos-os-episodios",
      "texto_original": "Kirara",
      "rating": 6.21,
      "classificacao_etaria": "A18",
      "imagem_original": "https://animefire.plus/img/animes/kirara.webp",
      "imagem_pasta": "https://animefire.plus/img/animes/kirara/",
      "secao": "legendados",
      "pagina": 66,
      "total_episodios": 1,
      "link_video": "https://animefire.plus/video/kirara"
    },
    {
      "id": 2015,
      "nome": "Kiratto Pri☆chan",
      "link": "https://animefire.plus/animes/kiratto-pri-chan-todos-os-episodios",
      "texto_original": "Kiratto Pri☆chan",
      "rating": 6.87,
      "classificacao_etaria": "A10",
      "imagem_original": "https://animefire.plus/img/animes/kiratto-pri-chan.webp",
      "imagem_pasta": "https://animefire.plus/img/animes/kiratto-pri-chan/",
      "secao": "legendados",
      "pagina": 124,
      "total_episodios": 10,
      "link_video": "https://animefire.plus/video/kiratto-pri-chan"
    },
    {
      "id": 2016,
      "nome": "Kisaki Kyouiku kara Nigetai Watashi",
      "link": "https://animefire.plus/animes/kisaki-kyouiku-kara-nigetai-watashi-todos-os-episodios",
      "texto_original": "Kisaki Kyouiku kara Nigetai Watashi",
      "rating": 5.65,
      "classificacao_etaria": "A14",
      "imagem_original": "https://animefire.plus/img/animes/kisaki-kyouiku-kara-nigetai-watashi.webp",
      "imagem_pasta": "https://animefire.plus/img/animes/kisaki-kyouiku-kara-nigetai-watashi/",
      "secao": "legendados",
      "pagina": 7,
      "total_episodios": 12,
      "link_video": "https://animefire.plus/video/kisaki-kyouiku-kara-nigetai-watashi"
    },
    {
      "id": 2020,
      "nome": "Kishin Houkou Demonbane",
      "link": "https://animefire.plus/animes/kishin-houkou-demonbane-todos-os-episodios",
      "texto_original": "Kishin Houkou Demonbane",
      "rating": 6.08,
      "classificacao_etaria": "A14",
      "imagem_original": "https://animefire.plus/img/animes/kishin-houkou-demonbane.webp",
      "imagem_pasta": "https://animefire.plus/img/animes/kishin-houkou-demonbane/",
      "secao": "legendados",
      "pagina": 61,
      "total_episodios": 0,
      "link_video": "https://animefire.plus/video/kishin-houkou-demonbane"
    },
    {
      "id": 2021,
      "nome": "Kishin Houkou Demonbane (TV)",
      "link": "https://animefire.plus/animes/kishin-houkou-demonbane-tv-todos-os-episodios",
      "texto_original": "Kishin Houkou Demonbane (TV)",
      "rating": 6.61,
      "classificacao_etaria": "A16",
      "imagem_original": "https://animefire.plus/img/animes/kishin-houkou-demonbane-tv.webp",
      "imagem_pasta": "https://animefire.plus/img/animes/kishin-houkou-demonbane-tv/",
      "secao": "legendados",
      "pagina": 82,
      "total_episodios": 0,
      "link_video": "https://animefire.plus/video/kishin-houkou-demonbane-tv"
    },
    {
      "id": 2022,
      "nome": "Kishin Taisen Gigantic Formula",
      "link": "https://animefire.plus/animes/kishin-taisen-gigantic-formula-todos-os-episodios",
      "texto_original": "Kishin Taisen Gigantic Formula",
      "rating": 6.92,
      "classificacao_etaria": "A14",
      "imagem_original": "https://animefire.plus/img/animes/kishin-taisen-gigantic-formula.webp",
      "imagem_pasta": "https://animefire.plus/img/animes/kishin-taisen-gigantic-formula/",
      "secao": "legendados",
      "pagina": 167,
      "total_episodios": 20,
      "link_video": "https://animefire.plus/video/kishin-taisen-gigantic-formula"
    },
    {
      "id": 2024,
      "nome": "Kiss Dum: Engage Planet",
      "link": "https://animefire.plus/animes/kiss-dum-engage-planet-todos-os-episodios",
      "texto_original": "Kiss Dum: Engage Planet",
      "rating": 6.69,
      "classificacao_etaria": "A14",
      "imagem_original": "https://animefire.plus/img/animes/kiss-dum-engage-planet.webp",
      "imagem_pasta": "https://animefire.plus/img/animes/kiss-dum-engage-planet/",
      "secao": "legendados",
      "pagina": 176,
      "total_episodios": 21,
      "link_video": "https://animefire.plus/video/kiss-dum-engage-planet"
    },
    {
      "id": 2026,
      "nome": "Kiss x Sis (TV)",
      "link": "https://animefire.plus/animes/kiss-x-sis-tv-todos-os-episodios",
      "texto_original": "Kiss x Sis (TV)",
      "rating": 6.78,
      "classificacao_etaria": "A14",
      "imagem_original": "https://animefire.plus/img/animes/kiss-x-sis-tv.webp",
      "imagem_pasta": "https://animefire.plus/img/animes/kiss-x-sis-tv/",
      "secao": "legendados",
      "pagina": 73,
      "total_episodios": 12,
      "link_video": "https://animefire.plus/video/kiss-x-sis-tv"
    },
    {
      "id": 2027,
      "nome": "Kitakubu Katsudou Kiroku",
      "link": "https://animefire.plus/animes/kitakubu-katsudou-kiroku-todos-os-episodios",
      "texto_original": "Kitakubu Katsudou Kiroku",
      "rating": 6.82,
      "classificacao_etaria": "A14",
      "imagem_original": "https://animefire.plus/img/animes/kitakubu-katsudou-kiroku.webp",
      "imagem_pasta": "https://animefire.plus/img/animes/kitakubu-katsudou-kiroku/",
      "secao": "legendados",
      "pagina": 124,
      "total_episodios": 12,
      "link_video": "https://animefire.plus/video/kitakubu-katsudou-kiroku"
    },
    {
      "id": 2028,
      "nome": "Kitsune no Koe",
      "link": "https://animefire.plus/animes/kitsune-no-koe-todos-os-episodios",
      "texto_original": "Kitsune no Koe",
      "rating": 6.62,
      "classificacao_etaria": "A14",
      "imagem_original": "https://animefire.plus/img/animes/kitsune-no-koe.webp",
      "imagem_pasta": "https://animefire.plus/img/animes/kitsune-no-koe/",
      "secao": "legendados",
      "pagina": 158,
      "total_episodios": 12,
      "link_video": "https://animefire.plus/video/kitsune-no-koe"
    },
    {
      "id": 2029,
      "nome": "Kitsutsuki Tanteidokoro",
      "link": "https://animefire.plus/animes/kitsutsuki-tanteidokoro-todos-os-episodios",
      "texto_original": "Kitsutsuki Tanteidokoro",
      "rating": 6.03,
      "classificacao_etaria": "A16",
      "imagem_original": "https://animefire.plus/img/animes/kitsutsuki-tanteidokoro.webp",
      "imagem_pasta": "https://animefire.plus/img/animes/kitsutsuki-tanteidokoro/",
      "secao": "legendados",
      "pagina": 80,
      "total_episodios": 1,
      "link_video": "https://animefire.plus/video/kitsutsuki-tanteidokoro"
    },
    {
      "id": 2030,
      "nome": "Kizetsu Yuusha to Ansatsu Hime",
      "link": "https://animefire.plus/animes/kizetsu-yuusha-to-ansatsu-hime-todos-os-episodios",
      "texto_original": "Kizetsu Yuusha to Ansatsu Hime",
      "rating": 6.38,
      "classificacao_etaria": "A14",
      "imagem_original": "https://animefire.plus/img/animes/kizetsu-yuusha-to-ansatsu-hime.webp",
      "imagem_pasta": "https://animefire.plus/img/animes/kizetsu-yuusha-to-ansatsu-hime/",
      "secao": "legendados,lancamentos",
      "pagina": 2,
      "total_episodios": 5,
      "link_video": "https://animefire.plus/video/kizetsu-yuusha-to-ansatsu-hime"
    },
    {
      "id": 2032,
      "nome": "Kizu darake Seijo yori Houfuku wo Komete",
      "link": "https://animefire.plus/animes/kizu-darake-seijo-yori-houfuku-wo-komete-todos-os-episodios",
      "texto_original": "Kizu darake Seijo yori Houfuku wo Komete",
      "rating": 5.59,
      "classificacao_etaria": "A14",
      "imagem_original": "https://animefire.plus/img/animes/kizu-darake-seijo-yori-houfuku-wo-komete.webp",
      "imagem_pasta": "https://animefire.plus/img/animes/kizu-darake-seijo-yori-houfuku-wo-komete/",
      "secao": "legendados,lancamentos",
      "pagina": 1,
      "total_episodios": 0,
      "link_video": "https://animefire.plus/video/kizu-darake-seijo-yori-houfuku-wo-komete"
    },
    {
      "id": 2033,
      "nome": "KJ File (Zoku-hen)",
      "link": "https://animefire.plus/animes/kj-file-zoku-hen-todos-os-episodios",
      "texto_original": "KJ File (Zoku-hen)",
      "rating": 5.23,
      "classificacao_etaria": "A14",
      "imagem_original": "https://animefire.plus/img/animes/kj-file-zoku-hen.webp",
      "imagem_pasta": "https://animefire.plus/img/animes/kj-file-zoku-hen/",
      "secao": "legendados,lancamentos",
      "pagina": 26,
      "total_episodios": 0,
      "link_video": "https://animefire.plus/video/kj-file-zoku-hen"
    },
    {
      "id": 2035,
      "nome": "Knights of the Zodiac: Saint Seiya - Battle for Sanctuary (Dublado)",
      "link": "https://animefire.plus/animes/knights-of-the-zodiac-saint-seiya---battle-for-sanctuary-dublado-todos-os-episodios",
      "texto_original": "Knights of the Zodiac: Saint Seiya - Battle for Sanctuary (Dublado)",
      "rating": 6.22,
      "classificacao_etaria": "A14",
      "imagem_original": "https://animefire.plus/img/animes/knights-of-the-zodiac-saint-seiya---battle-for-sanctuary.webp",
      "imagem_pasta": "https://animefire.plus/img/animes/knights-of-the-zodiac-saint-seiya---battle-for-sanctuary/",
      "secao": "dublados,legendados,lancamentos",
      "pagina": 8,
      "total_episodios": 12,
      "link_video": "https://animefire.plus/video/knights-of-the-zodiac-saint-seiya---battle-for-sanctuary-dublado"
    },
    {
      "id": 2036,
      "nome": "Knights of the Zodiac: Saint Seiya (Dublado)",
      "link": "https://animefire.plus/animes/knights-of-the-zodiac-saint-seiya-dublado-todos-os-episodios",
      "texto_original": "Knights of the Zodiac: Saint Seiya (Dublado)",
      "rating": 5.15,
      "classificacao_etaria": "A14",
      "imagem_original": "https://animefire.plus/img/animes/knights-of-the-zodiac-saint-seiya.webp",
      "imagem_pasta": "https://animefire.plus/img/animes/knights-of-the-zodiac-saint-seiya/",
      "secao": "dublados",
      "pagina": 24,
      "total_episodios": 12,
      "link_video": "https://animefire.plus/video/knights-of-the-zodiac-saint-seiya-dublado"
    }
  ],
  "pagination": {
    "current_page": 44,
    "per_page": 20,
    "total_items": 1805,
    "total_pages": 91,
    "has_next": true,
    "has_prev": true
  }
}
