{
  "message": "Animes com rating entre 5 e 7",
  "rating_range": {
    "min": 5,
    "max": 7
  },
  "data": [
    {
      "id": 3850,
      "nome": "Time Travel Shoujo: Mari Waka to 8-nin no Kagakusha-tachi",
      "link": "https://animefire.plus/animes/time-travel-shoujo-mari-waka-to-8-nin-no-kagakusha-tachi-todos-os-episodios",
      "texto_original": "Time Travel Shoujo: Mari Waka to 8-nin no Kagakusha-tachi",
      "rating": 6.57,
      "classificacao_etaria": "A10",
      "imagem_original": "https://animefire.plus/img/animes/time-travel-shoujo-mari-waka-to-8-nin-no-kagakusha-tachi.webp",
      "imagem_pasta": "https://animefire.plus/img/animes/time-travel-shoujo-mari-waka-to-8-nin-no-kagakusha-tachi/",
      "secao": "legendados",
      "pagina": 177,
      "total_episodios": 0,
      "link_video": "https://animefire.plus/video/time-travel-shoujo-mari-waka-to-8-nin-no-kagakusha-tachi"
    },
    {
      "id": 3852,
      "nome": "To Heart",
      "link": "https://animefire.plus/animes/to-heart-todos-os-episodios",
      "texto_original": "To Heart",
      "rating": 6.65,
      "classificacao_etaria": "A14",
      "imagem_original": "https://animefire.plus/img/animes/to-heart.webp",
      "imagem_pasta": "https://animefire.plus/img/animes/to-heart/",
      "secao": "legendados",
      "pagina": 161,
      "total_episodios": 13,
      "link_video": "https://animefire.plus/video/to-heart"
    },
    {
      "id": 3853,
      "nome": "To Heart 2",
      "link": "https://animefire.plus/animes/to-heart-2-todos-os-episodios",
      "texto_original": "To Heart 2",
      "rating": 6.58,
      "classificacao_etaria": "A14",
      "imagem_original": "https://animefire.plus/img/animes/to-heart-2.webp",
      "imagem_pasta": "https://animefire.plus/img/animes/to-heart-2/",
      "secao": "legendados",
      "pagina": 147,
      "total_episodios": 12,
      "link_video": "https://animefire.plus/video/to-heart-2"
    },
    {
      "id": 3854,
      "nome": "To Heart: Remember My Memories",
      "link": "https://animefire.plus/animes/to-heart-remember-my-memories-todos-os-episodios",
      "texto_original": "To Heart: Remember My Memories",
      "rating": 6.51,
      "classificacao_etaria": "A14",
      "imagem_original": "https://animefire.plus/img/animes/to-heart-remember-my-memories.webp",
      "imagem_pasta": "https://animefire.plus/img/animes/to-heart-remember-my-memories/",
      "secao": "legendados",
      "pagina": 137,
      "total_episodios": 13,
      "link_video": "https://animefire.plus/video/to-heart-remember-my-memories"
    },
    {
      "id": 3862,
      "nome": "Toaru Kagaku no Railgun S: Daiji na Koto wa Zenbu Sentou ni Osowatta",
      "link": "https://animefire.plus/animes/toaru-kagaku-no-railgun-s-daiji-na-koto-wa-zenbu-sentou-ni-osowatta-todos-os-episodios",
      "texto_original": "Toaru Kagaku no Railgun S: Daiji na Koto wa Zenbu Sentou ni Osowatta",
      "rating": 6.81,
      "classificacao_etaria": "A14",
      "imagem_original": "https://animefire.plus/img/animes/toaru-kagaku-no-railgun-s-daiji-na-koto-wa-zenbu-sentou-ni-osowatta.webp",
      "imagem_pasta": "https://animefire.plus/img/animes/toaru-kagaku-no-railgun-s-daiji-na-koto-wa-zenbu-sentou-ni-osowatta/",
      "secao": "legendados",
      "pagina": 68,
      "total_episodios": 1,
      "link_video": "https://animefire.plus/video/toaru-kagaku-no-railgun-s-daiji-na-koto-wa-zenbu-sentou-ni-osowatta"
    },
    {
      "id": 3867,
      "nome": "Toaru Majutsu no Index III",
      "link": "https://animefire.plus/animes/toaru-majutsu-no-index-iii-todos-os-episodios",
      "texto_original": "Toaru Majutsu no Index III",
      "rating": 6.75,
      "classificacao_etaria": "A14",
      "imagem_original": "https://animefire.plus/img/animes/toaru-majutsu-no-index-iii.webp",
      "imagem_pasta": "https://animefire.plus/img/animes/toaru-majutsu-no-index-iii/",
      "secao": "legendados",
      "pagina": 89,
      "total_episodios": 1,
      "link_video": "https://animefire.plus/video/toaru-majutsu-no-index-iii"
    },
    {
      "id": 3868,
      "nome": "Toaru Majutsu no Index-tan",
      "link": "https://animefire.plus/animes/toaru-majutsu-no-index-tan-todos-os-episodios",
      "texto_original": "Toaru Majutsu no Index-tan",
      "rating": 6.98,
      "classificacao_etaria": "A14",
      "imagem_original": "https://animefire.plus/img/animes/toaru-majutsu-no-index-tan.webp",
      "imagem_pasta": "https://animefire.plus/img/animes/toaru-majutsu-no-index-tan/",
      "secao": "legendados",
      "pagina": 54,
      "total_episodios": 1,
      "link_video": "https://animefire.plus/video/toaru-majutsu-no-index-tan"
    },
    {
      "id": 3869,
      "nome": "Toaru Majutsu no Index-tan II",
      "link": "https://animefire.plus/animes/toaru-majutsu-no-index-tan-ii-todos-os-episodios",
      "texto_original": "Toaru Majutsu no Index-tan II",
      "rating": 6.99,
      "classificacao_etaria": "A14",
      "imagem_original": "https://animefire.plus/img/animes/toaru-majutsu-no-index-tan-ii.webp",
      "imagem_pasta": "https://animefire.plus/img/animes/toaru-majutsu-no-index-tan-ii/",
      "secao": "legendados",
      "pagina": 78,
      "total_episodios": 2,
      "link_video": "https://animefire.plus/video/toaru-majutsu-no-index-tan-ii"
    },
    {
      "id": 3871,
      "nome": "Toaru Ossan no VRMMO Katsudouki",
      "link": "https://animefire.plus/animes/toaru-ossan-no-vrmmo-katsudouki-todos-os-episodios",
      "texto_original": "Toaru Ossan no VRMMO Katsudouki",
      "rating": 6.39,
      "classificacao_etaria": "A14",
      "imagem_original": "https://animefire.plus/img/animes/toaru-ossan-no-vrmmo-katsudouki.webp",
      "imagem_pasta": "https://animefire.plus/img/animes/toaru-ossan-no-vrmmo-katsudouki/",
      "secao": "legendados",
      "pagina": 20,
      "total_episodios": 12,
      "link_video": "https://animefire.plus/video/toaru-ossan-no-vrmmo-katsudouki"
    },
    {
      "id": 3872,
      "nome": "Togainu no Chi",
      "link": "https://animefire.plus/animes/togainu-no-chi-todos-os-episodios",
      "texto_original": "Togainu no Chi",
      "rating": 6.38,
      "classificacao_etaria": "A16",
      "imagem_original": "https://animefire.plus/img/animes/togainu-no-chi.webp",
      "imagem_pasta": "https://animefire.plus/img/animes/togainu-no-chi/",
      "secao": "legendados",
      "pagina": 175,
      "total_episodios": 12,
      "link_video": "https://animefire.plus/video/togainu-no-chi"
    },
    {
      "id": 3873,
      "nome": "Toji no Miko",
      "link": "https://animefire.plus/animes/toji-no-miko-todos-os-episodios",
      "texto_original": "Toji no Miko",
      "rating": 6.94,
      "classificacao_etaria": "A14",
      "imagem_original": "https://animefire.plus/img/animes/toji-no-miko.webp",
      "imagem_pasta": "https://animefire.plus/img/animes/toji-no-miko/",
      "secao": "legendados",
      "pagina": 175,
      "total_episodios": 25,
      "link_video": "https://animefire.plus/video/toji-no-miko"
    },
    {
      "id": 3874,
      "nome": "Toji no Miko: Kizamishi Issen no Tomoshibi OVA",
      "link": "https://animefire.plus/animes/toji-no-miko-kizamishi-issen-no-tomoshibi-ova-todos-os-episodios",
      "texto_original": "Toji no Miko: Kizamishi Issen no Tomoshibi OVA",
      "rating": 6.61,
      "classificacao_etaria": "A14",
      "imagem_original": "https://animefire.plus/img/animes/toji-no-miko-kizamishi-issen-no-tomoshibi-ova.webp",
      "imagem_pasta": "https://animefire.plus/img/animes/toji-no-miko-kizamishi-issen-no-tomoshibi-ova/",
      "secao": "legendados",
      "pagina": 50,
      "total_episodios": 2,
      "link_video": "https://animefire.plus/video/toji-no-miko-kizamishi-issen-no-tomoshibi-ova"
    },
    {
      "id": 3875,
      "nome": "Toki wa Meguru: Tokyo Station",
      "link": "https://animefire.plus/animes/toki-wa-meguru-tokyo-station-todos-os-episodios",
      "texto_original": "Toki wa Meguru: Tokyo Station",
      "rating": 6.59,
      "classificacao_etaria": null,
      "imagem_original": "https://animefire.plus/img/animes/toki-wa-meguru-tokyo-station.webp",
      "imagem_pasta": "https://animefire.plus/img/animes/toki-wa-meguru-tokyo-station/",
      "secao": "legendados",
      "pagina": 70,
      "total_episodios": 1,
      "link_video": "https://animefire.plus/video/toki-wa-meguru-tokyo-station"
    },
    {
      "id": 3879,
      "nome": "Tokkou",
      "link": "https://animefire.plus/animes/tokkou-todos-os-episodios",
      "texto_original": "Tokkou",
      "rating": 6.65,
      "classificacao_etaria": "A16",
      "imagem_original": "https://animefire.plus/img/animes/tokkou.webp",
      "imagem_pasta": "https://animefire.plus/img/animes/tokkou/",
      "secao": "legendados",
      "pagina": 150,
      "total_episodios": 13,
      "link_video": "https://animefire.plus/video/tokkou"
    },
    {
      "id": 3880,
      "nome": "Tokyo 24-ku",
      "link": "https://animefire.plus/animes/tokyo-24-ku-todos-os-episodios",
      "texto_original": "Tokyo 24-ku",
      "rating": 6.34,
      "classificacao_etaria": "A14",
      "imagem_original": "https://animefire.plus/img/animes/tokyo-24-ku.webp",
      "imagem_pasta": "https://animefire.plus/img/animes/tokyo-24-ku/",
      "secao": "legendados",
      "pagina": 35,
      "total_episodios": 12,
      "link_video": "https://animefire.plus/video/tokyo-24-ku"
    },
    {
      "id": 3885,
      "nome": "Tokyo Ghoul:re (Dublado)",
      "link": "https://animefire.plus/animes/tokyo-ghoul-re-dublado-todos-os-episodios",
      "texto_original": "Tokyo Ghoul:re (Dublado)",
      "rating": 6.59,
      "classificacao_etaria": "A16",
      "imagem_original": "https://animefire.plus/img/animes/tokyo-ghoul-re.webp",
      "imagem_pasta": "https://animefire.plus/img/animes/tokyo-ghoul-re/",
      "secao": "dublados,legendados",
      "pagina": 19,
      "total_episodios": 12,
      "link_video": "https://animefire.plus/video/tokyo-ghoul-re-dublado"
    },
    {
      "id": 3886,
      "nome": "Tokyo Ghoul:re 2nd Season (Dublado)",
      "link": "https://animefire.plus/animes/tokyo-ghoul-re-2nd-season-dublado-todos-os-episodios",
      "texto_original": "Tokyo Ghoul:re 2nd Season (Dublado)",
      "rating": 6.33,
      "classificacao_etaria": "A16",
      "imagem_original": "https://animefire.plus/img/animes/tokyo-ghoul-re-2nd-season.webp",
      "imagem_pasta": "https://animefire.plus/img/animes/tokyo-ghoul-re-2nd-season/",
      "secao": "dublados,legendados",
      "pagina": 19,
      "total_episodios": 12,
      "link_video": "https://animefire.plus/video/tokyo-ghoul-re-2nd-season-dublado"
    },
    {
      "id": 3891,
      "nome": "Tokyo Mew Mew",
      "link": "https://animefire.plus/animes/tokyo-mew-mew-todos-os-episodios",
      "texto_original": "Tokyo Mew Mew",
      "rating": 6.99,
      "classificacao_etaria": "A14",
      "imagem_original": "https://animefire.plus/img/animes/tokyo-mew-mew.webp",
      "imagem_pasta": "https://animefire.plus/img/animes/tokyo-mew-mew/",
      "secao": "legendados",
      "pagina": 54,
      "total_episodios": 52,
      "link_video": "https://animefire.plus/video/tokyo-mew-mew"
    },
    {
      "id": 3892,
      "nome": "Tokyo Mew Mew New ♡",
      "link": "https://animefire.plus/animes/tokyo-mew-mew-new-todos-os-episodios",
      "texto_original": "Tokyo Mew Mew New ♡",
      "rating": 6.61,
      "classificacao_etaria": "A14",
      "imagem_original": "https://animefire.plus/img/animes/tokyo-mew-mew-new.webp",
      "imagem_pasta": "https://animefire.plus/img/animes/tokyo-mew-mew-new/",
      "secao": "legendados",
      "pagina": 31,
      "total_episodios": 12,
      "link_video": "https://animefire.plus/video/tokyo-mew-mew-new"
    },
    {
      "id": 3897,
      "nome": "Tokyo Tribe 2",
      "link": "https://animefire.plus/animes/tokyo-tribe-2-todos-os-episodios",
      "texto_original": "Tokyo Tribe 2",
      "rating": 6.83,
      "classificacao_etaria": "A18",
      "imagem_original": "https://animefire.plus/img/animes/tokyo-tribe-2.webp",
      "imagem_pasta": "https://animefire.plus/img/animes/tokyo-tribe-2/",
      "secao": "legendados",
      "pagina": 100,
      "total_episodios": 0,
      "link_video": "https://animefire.plus/video/tokyo-tribe-2"
    }
  ],
  "pagination": {
    "current_page": 81,
    "per_page": 20,
    "total_items": 1805,
    "total_pages": 91,
    "has_next": true,
    "has_prev": true
  }
}
