{
  "message": "Animes com rating entre 5 e 7",
  "rating_range": {
    "min": 5,
    "max": 7
  },
  "data": [
    {
      "id": 2225,
      "nome": "Ling Yu 2nd Season",
      "link": "https://animefire.plus/animes/ling-yu-2nd-season-todos-os-episodios",
      "texto_original": "Ling Yu 2nd Season",
      "rating": 7,
      "classificacao_etaria": "A14",
      "imagem_original": "https://animefire.plus/img/animes/ling-yu-2nd-season.webp",
      "imagem_pasta": "https://animefire.plus/img/animes/ling-yu-2nd-season/",
      "secao": "legendados",
      "pagina": 140,
      "total_episodios": 10,
      "link_video": "https://animefire.plus/video/ling-yu-2nd-season"
    },
    {
      "id": 2226,
      "nome": "Ling Yu: Di San Ji",
      "link": "https://animefire.plus/animes/ling-yu-di-san-ji-todos-os-episodios",
      "texto_original": "Ling Yu: Di San Ji",
      "rating": 6.91,
      "classificacao_etaria": "A14",
      "imagem_original": "https://animefire.plus/img/animes/ling-yu-di-san-ji.webp",
      "imagem_pasta": "https://animefire.plus/img/animes/ling-yu-di-san-ji/",
      "secao": "legendados",
      "pagina": 115,
      "total_episodios": 5,
      "link_video": "https://animefire.plus/video/ling-yu-di-san-ji"
    },
    {
      "id": 2227,
      "nome": "Listeners",
      "link": "https://animefire.plus/animes/listeners-todos-os-episodios",
      "texto_original": "Listeners",
      "rating": 5.38,
      "classificacao_etaria": "A14",
      "imagem_original": "https://animefire.plus/img/animes/listeners.webp",
      "imagem_pasta": "https://animefire.plus/img/animes/listeners/",
      "secao": "legendados",
      "pagina": 60,
      "total_episodios": 8,
      "link_video": "https://animefire.plus/video/listeners"
    },
    {
      "id": 2228,
      "nome": "Litchi DE Hikari Club",
      "link": "https://animefire.plus/animes/litchi-de-hikari-club-todos-os-episodios",
      "texto_original": "Litchi DE Hikari Club",
      "rating": 5.28,
      "classificacao_etaria": "A14",
      "imagem_original": "https://animefire.plus/img/animes/litchi-de-hikari-club.webp",
      "imagem_pasta": "https://animefire.plus/img/animes/litchi-de-hikari-club/",
      "secao": "legendados",
      "pagina": 177,
      "total_episodios": 8,
      "link_video": "https://animefire.plus/video/litchi-de-hikari-club"
    },
    {
      "id": 2237,
      "nome": "Long Riders!",
      "link": "https://animefire.plus/animes/long-riders-todos-os-episodios",
      "texto_original": "Long Riders!",
      "rating": 6.65,
      "classificacao_etaria": "A14",
      "imagem_original": "https://animefire.plus/img/animes/long-riders.webp",
      "imagem_pasta": "https://animefire.plus/img/animes/long-riders/",
      "secao": "legendados",
      "pagina": 119,
      "total_episodios": 2,
      "link_video": "https://animefire.plus/video/long-riders"
    },
    {
      "id": 2241,
      "nome": "Lord of Vermilion: Guren no Ou",
      "link": "https://animefire.plus/animes/lord-of-vermilion-guren-no-ou-todos-os-episodios",
      "texto_original": "Lord of Vermilion: Guren no Ou",
      "rating": 5.44,
      "classificacao_etaria": "A14",
      "imagem_original": "https://animefire.plus/img/animes/lord-of-vermilion-guren-no-ou.webp",
      "imagem_pasta": "https://animefire.plus/img/animes/lord-of-vermilion-guren-no-ou/",
      "secao": "legendados",
      "pagina": 177,
      "total_episodios": 12,
      "link_video": "https://animefire.plus/video/lord-of-vermilion-guren-no-ou"
    },
    {
      "id": 2245,
      "nome": "Lostorage Incited WIXOSS",
      "link": "https://animefire.plus/animes/lostorage-incited-wixoss-todos-os-episodios",
      "texto_original": "Lostorage Incited WIXOSS",
      "rating": 6.78,
      "classificacao_etaria": "A16",
      "imagem_original": "https://animefire.plus/img/animes/lostorage-incited-wixoss.webp",
      "imagem_pasta": "https://animefire.plus/img/animes/lostorage-incited-wixoss/",
      "secao": "legendados",
      "pagina": 117,
      "total_episodios": 5,
      "link_video": "https://animefire.plus/video/lostorage-incited-wixoss"
    },
    {
      "id": 2246,
      "nome": "Love All Play",
      "link": "https://animefire.plus/animes/love-all-play-todos-os-episodios",
      "texto_original": "Love All Play",
      "rating": 6.54,
      "classificacao_etaria": "A14",
      "imagem_original": "https://animefire.plus/img/animes/love-all-play.webp",
      "imagem_pasta": "https://animefire.plus/img/animes/love-all-play/",
      "secao": "legendados",
      "pagina": 34,
      "total_episodios": 24,
      "link_video": "https://animefire.plus/video/love-all-play"
    },
    {
      "id": 2260,
      "nome": "Love♥Love?",
      "link": "https://animefire.plus/animes/love-love-todos-os-episodios",
      "texto_original": "Love♥Love?",
      "rating": 5.98,
      "classificacao_etaria": "A18",
      "imagem_original": "https://animefire.plus/img/animes/love-love.webp",
      "imagem_pasta": "https://animefire.plus/img/animes/love-love/",
      "secao": "legendados",
      "pagina": 127,
      "total_episodios": 9,
      "link_video": "https://animefire.plus/video/love-love"
    },
    {
      "id": 2263,
      "nome": "Lu Shidai",
      "link": "https://animefire.plus/animes/lu-shidai-todos-os-episodios",
      "texto_original": "Lu Shidai",
      "rating": 6.68,
      "classificacao_etaria": "A14",
      "imagem_original": "https://animefire.plus/img/animes/lu-shidai.webp",
      "imagem_pasta": "https://animefire.plus/img/animes/lu-shidai/",
      "secao": "legendados",
      "pagina": 167,
      "total_episodios": 27,
      "link_video": "https://animefire.plus/video/lu-shidai"
    },
    {
      "id": 2264,
      "nome": "Luck & Logic",
      "link": "https://animefire.plus/animes/luck-logic-todos-os-episodios",
      "texto_original": "Luck & Logic",
      "rating": 6.2,
      "classificacao_etaria": "A14",
      "imagem_original": "https://animefire.plus/img/animes/luck-logic.webp",
      "imagem_pasta": "https://animefire.plus/img/animes/luck-logic/",
      "secao": "legendados",
      "pagina": 141,
      "total_episodios": 1,
      "link_video": "https://animefire.plus/video/luck-logic"
    },
    {
      "id": 2267,
      "nome": "Luger Code 1951",
      "link": "https://animefire.plus/animes/luger-code-1951-todos-os-episodios",
      "texto_original": "Luger Code 1951",
      "rating": 6.49,
      "classificacao_etaria": "A16",
      "imagem_original": "https://animefire.plus/img/animes/luger-code-1951.webp",
      "imagem_pasta": "https://animefire.plus/img/animes/luger-code-1951/",
      "secao": "legendados",
      "pagina": 159,
      "total_episodios": 1,
      "link_video": "https://animefire.plus/video/luger-code-1951"
    },
    {
      "id": 2270,
      "nome": "Lupin III vs. Cat's Eye",
      "link": "https://animefire.plus/animes/lupin-iii-vs-cat-s-eye-todos-os-episodios",
      "texto_original": "Lupin III vs. Cat's Eye",
      "rating": 6.57,
      "classificacao_etaria": "A14",
      "imagem_original": "https://animefire.plus/img/animes/lupin-iii-vs-cat-s-eye.webp",
      "imagem_pasta": "https://animefire.plus/img/animes/lupin-iii-vs-cat-s-eye/",
      "secao": "legendados",
      "pagina": 25,
      "total_episodios": 1,
      "link_video": "https://animefire.plus/video/lupin-iii-vs-cat-s-eye"
    },
    {
      "id": 2272,
      "nome": "Lupin III: Goodbye Partner",
      "link": "https://animefire.plus/animes/lupin-iii-goodbye-partner-todos-os-episodios",
      "texto_original": "Lupin III: Goodbye Partner",
      "rating": 6.83,
      "classificacao_etaria": "A14",
      "imagem_original": "https://animefire.plus/img/animes/lupin-iii-goodbye-partner.webp",
      "imagem_pasta": "https://animefire.plus/img/animes/lupin-iii-goodbye-partner/",
      "secao": "legendados",
      "pagina": 56,
      "total_episodios": 1,
      "link_video": "https://animefire.plus/video/lupin-iii-goodbye-partner"
    },
    {
      "id": 2278,
      "nome": "Lupin III: Prison of the Past",
      "link": "https://animefire.plus/animes/lupin-iii-prison-of-the-past-todos-os-episodios",
      "texto_original": "Lupin III: Prison of the Past",
      "rating": 6.79,
      "classificacao_etaria": "A14",
      "imagem_original": "https://animefire.plus/img/animes/lupin-iii-prison-of-the-past.webp",
      "imagem_pasta": "https://animefire.plus/img/animes/lupin-iii-prison-of-the-past/",
      "secao": "legendados",
      "pagina": 68,
      "total_episodios": 1,
      "link_video": "https://animefire.plus/video/lupin-iii-prison-of-the-past"
    },
    {
      "id": 2280,
      "nome": "Lupin VIII",
      "link": "https://animefire.plus/animes/lupin-viii-todos-os-episodios",
      "texto_original": "Lupin VIII",
      "rating": 5.68,
      "classificacao_etaria": "A14",
      "imagem_original": "https://animefire.plus/img/animes/lupin-viii.webp",
      "imagem_pasta": "https://animefire.plus/img/animes/lupin-viii/",
      "secao": "legendados",
      "pagina": 87,
      "total_episodios": 1,
      "link_video": "https://animefire.plus/video/lupin-viii"
    },
    {
      "id": 2283,
      "nome": "Lv2 kara Cheat datta Motoyuusha Kouho no Mattari Isekai Life",
      "link": "https://animefire.plus/animes/lv2-kara-cheat-datta-motoyuusha-kouho-no-mattari-isekai-life-todos-os-episodios",
      "texto_original": "Lv2 kara Cheat datta Motoyuusha Kouho no Mattari Isekai Life",
      "rating": 6.82,
      "classificacao_etaria": "A14",
      "imagem_original": "https://animefire.plus/img/animes/lv2-kara-cheat-datta-motoyuusha-kouho-no-mattari-isekai-life.webp",
      "imagem_pasta": "https://animefire.plus/img/animes/lv2-kara-cheat-datta-motoyuusha-kouho-no-mattari-isekai-life/",
      "secao": "legendados",
      "pagina": 15,
      "total_episodios": 12,
      "link_video": "https://animefire.plus/video/lv2-kara-cheat-datta-motoyuusha-kouho-no-mattari-isekai-life"
    },
    {
      "id": 2286,
      "nome": "M3: Sono Kuroki Hagane",
      "link": "https://animefire.plus/animes/m3-sono-kuroki-hagane-todos-os-episodios",
      "texto_original": "M3: Sono Kuroki Hagane",
      "rating": 6.66,
      "classificacao_etaria": "A16",
      "imagem_original": "https://animefire.plus/img/animes/m3-sono-kuroki-hagane.webp",
      "imagem_pasta": "https://animefire.plus/img/animes/m3-sono-kuroki-hagane/",
      "secao": "legendados",
      "pagina": 136,
      "total_episodios": 12,
      "link_video": "https://animefire.plus/video/m3-sono-kuroki-hagane"
    },
    {
      "id": 2287,
      "nome": "Maburaho",
      "link": "https://animefire.plus/animes/maburaho-todos-os-episodios",
      "texto_original": "Maburaho",
      "rating": 6.9,
      "classificacao_etaria": "A18",
      "imagem_original": "https://animefire.plus/img/animes/maburaho.webp",
      "imagem_pasta": "https://animefire.plus/img/animes/maburaho/",
      "secao": "legendados",
      "pagina": 170,
      "total_episodios": 24,
      "link_video": "https://animefire.plus/video/maburaho"
    },
    {
      "id": 2301,
      "nome": "Madougushi Dahliya wa Utsumukanai",
      "link": "https://animefire.plus/animes/madougushi-dahliya-wa-utsumukanai-todos-os-episodios",
      "texto_original": "Madougushi Dahliya wa Utsumukanai",
      "rating": 6.8,
      "classificacao_etaria": "A14",
      "imagem_original": "https://animefire.plus/img/animes/madougushi-dahliya-wa-utsumukanai.webp",
      "imagem_pasta": "https://animefire.plus/img/animes/madougushi-dahliya-wa-utsumukanai/",
      "secao": "legendados",
      "pagina": 12,
      "total_episodios": 12,
      "link_video": "https://animefire.plus/video/madougushi-dahliya-wa-utsumukanai"
    }
  ],
  "pagination": {
    "current_page": 49,
    "per_page": 20,
    "total_items": 1805,
    "total_pages": 91,
    "has_next": true,
    "has_prev": true
  }
}
