{
  "message": "Animes com rating entre 5 e 7",
  "rating_range": {
    "min": 5,
    "max": 7
  },
  "data": [
    {
      "id": 1122,
      "nome": "Gekidol",
      "link": "https://animefire.plus/animes/gekidol-todos-os-episodios",
      "texto_original": "Gekidol",
      "rating": 5.5,
      "classificacao_etaria": "A14",
      "imagem_original": "https://animefire.plus/img/animes/gekidol.webp",
      "imagem_pasta": "https://animefire.plus/img/animes/gekidol/",
      "secao": "legendados",
      "pagina": 48,
      "total_episodios": 12,
      "link_video": "https://animefire.plus/video/gekidol"
    },
    {
      "id": 1123,
      "nome": "Gekiganger 3: The Movie",
      "link": "https://animefire.plus/animes/gekiganger-3-the-movie-todos-os-episodios",
      "texto_original": "Gekiganger 3: The Movie",
      "rating": 6.51,
      "classificacao_etaria": "A14",
      "imagem_original": "https://animefire.plus/img/animes/gekiganger-3-the-movie.webp",
      "imagem_pasta": "https://animefire.plus/img/animes/gekiganger-3-the-movie/",
      "secao": "legendados",
      "pagina": 71,
      "total_episodios": 1,
      "link_video": "https://animefire.plus/video/gekiganger-3-the-movie"
    },
    {
      "id": 1124,
      "nome": "Gekkan Mousou Kagaku",
      "link": "https://animefire.plus/animes/gekkan-mousou-kagaku-todos-os-episodios",
      "texto_original": "Gekkan Mousou Kagaku",
      "rating": 5.4,
      "classificacao_etaria": "A18",
      "imagem_original": "https://animefire.plus/img/animes/gekkan-mousou-kagaku.webp",
      "imagem_pasta": "https://animefire.plus/img/animes/gekkan-mousou-kagaku/",
      "secao": "legendados",
      "pagina": 16,
      "total_episodios": 12,
      "link_video": "https://animefire.plus/video/gekkan-mousou-kagaku"
    },
    {
      "id": 1126,
      "nome": "Genei wo Kakeru Taiyou",
      "link": "https://animefire.plus/animes/genei-wo-kakeru-taiyou-todos-os-episodios",
      "texto_original": "Genei wo Kakeru Taiyou",
      "rating": 6.48,
      "classificacao_etaria": "A16",
      "imagem_original": "https://animefire.plus/img/animes/genei-wo-kakeru-taiyou.webp",
      "imagem_pasta": "https://animefire.plus/img/animes/genei-wo-kakeru-taiyou/",
      "secao": "legendados",
      "pagina": 152,
      "total_episodios": 4,
      "link_video": "https://animefire.plus/video/genei-wo-kakeru-taiyou"
    },
    {
      "id": 1128,
      "nome": "Geneshaft",
      "link": "https://animefire.plus/animes/geneshaft-todos-os-episodios",
      "texto_original": "Geneshaft",
      "rating": 6.4,
      "classificacao_etaria": "A14",
      "imagem_original": "https://animefire.plus/img/animes/geneshaft.webp",
      "imagem_pasta": "https://animefire.plus/img/animes/geneshaft/",
      "secao": "legendados",
      "pagina": 70,
      "total_episodios": 13,
      "link_video": "https://animefire.plus/video/geneshaft"
    },
    {
      "id": 1129,
      "nome": "Genji Monogatari Sennenki",
      "link": "https://animefire.plus/animes/genji-monogatari-sennenki-todos-os-episodios",
      "texto_original": "Genji Monogatari Sennenki",
      "rating": 6.95,
      "classificacao_etaria": "A14",
      "imagem_original": "https://animefire.plus/img/animes/genji-monogatari-sennenki.webp",
      "imagem_pasta": "https://animefire.plus/img/animes/genji-monogatari-sennenki/",
      "secao": "legendados",
      "pagina": 66,
      "total_episodios": 11,
      "link_video": "https://animefire.plus/video/genji-monogatari-sennenki"
    },
    {
      "id": 1130,
      "nome": "Genjitsu no Yohane: Sunshine in the Mirror",
      "link": "https://animefire.plus/animes/genjitsu-no-yohane-sunshine-in-the-mirror-todos-os-episodios",
      "texto_original": "Genjitsu no Yohane: Sunshine in the Mirror",
      "rating": 6.85,
      "classificacao_etaria": "A14",
      "imagem_original": "https://animefire.plus/img/animes/genjitsu-no-yohane-sunshine-in-the-mirror.jpg",
      "imagem_pasta": "https://animefire.plus/img/animes/genjitsu-no-yohane-sunshine-in-the-mirror/",
      "secao": "legendados",
      "pagina": 23,
      "total_episodios": 13,
      "link_video": "https://animefire.plus/video/genjitsu-no-yohane-sunshine-in-the-mirror"
    },
    {
      "id": 1134,
      "nome": "Genma Taisen: Shinwa Zenya no Shou (Dublado)",
      "link": "https://animefire.plus/animes/genma-taisen-shinwa-zenya-no-shou-dublado-todos-os-episodios",
      "texto_original": "Genma Taisen: Shinwa Zenya no Shou (Dublado)",
      "rating": 5.22,
      "classificacao_etaria": "A14",
      "imagem_original": "https://animefire.plus/img/animes/genma-taisen-shinwa-zenya-no-shou.webp",
      "imagem_pasta": "https://animefire.plus/img/animes/genma-taisen-shinwa-zenya-no-shou/",
      "secao": "dublados,legendados",
      "pagina": 26,
      "total_episodios": 0,
      "link_video": "https://animefire.plus/video/genma-taisen-shinwa-zenya-no-shou-dublado"
    },
    {
      "id": 1135,
      "nome": "Genocyber (Dublado)",
      "link": "https://animefire.plus/animes/genocyber-dublado-todos-os-episodios",
      "texto_original": "Genocyber (Dublado)",
      "rating": 5.87,
      "classificacao_etaria": "A16",
      "imagem_original": "https://animefire.plus/img/animes/genocyber.webp",
      "imagem_pasta": "https://animefire.plus/img/animes/genocyber/",
      "secao": "dublados",
      "pagina": 21,
      "total_episodios": 3,
      "link_video": "https://animefire.plus/video/genocyber-dublado"
    },
    {
      "id": 1140,
      "nome": "Genshiken Nidaime Specials",
      "link": "https://animefire.plus/animes/genshiken-nidaime-specials-todos-os-episodios",
      "texto_original": "Genshiken Nidaime Specials",
      "rating": 6.89,
      "classificacao_etaria": "A16",
      "imagem_original": "https://animefire.plus/img/animes/genshiken-nidaime-specials.webp",
      "imagem_pasta": "https://animefire.plus/img/animes/genshiken-nidaime-specials/",
      "secao": "legendados",
      "pagina": 129,
      "total_episodios": 4,
      "link_video": "https://animefire.plus/video/genshiken-nidaime-specials"
    },
    {
      "id": 1141,
      "nome": "Gensou Jotan Ellcia (Dublado)",
      "link": "https://animefire.plus/animes/gensou-jotan-ellcia-dublado-todos-os-episodios",
      "texto_original": "Gensou Jotan Ellcia (Dublado)",
      "rating": 6.02,
      "classificacao_etaria": "A14",
      "imagem_original": "https://animefire.plus/img/animes/gensou-jotan-ellcia.webp",
      "imagem_pasta": "https://animefire.plus/img/animes/gensou-jotan-ellcia/",
      "secao": "dublados",
      "pagina": 22,
      "total_episodios": 4,
      "link_video": "https://animefire.plus/video/gensou-jotan-ellcia-dublado"
    },
    {
      "id": 1142,
      "nome": "Gensou Sangokushi: Tengen Reishinki",
      "link": "https://animefire.plus/animes/gensou-sangokushi-tengen-reishinki-todos-os-episodios",
      "texto_original": "Gensou Sangokushi: Tengen Reishinki",
      "rating": 5.31,
      "classificacao_etaria": "A14",
      "imagem_original": "https://animefire.plus/img/animes/gensou-sangokushi-tengen-reishinki.webp",
      "imagem_pasta": "https://animefire.plus/img/animes/gensou-sangokushi-tengen-reishinki/",
      "secao": "legendados",
      "pagina": 36,
      "total_episodios": 12,
      "link_video": "https://animefire.plus/video/gensou-sangokushi-tengen-reishinki"
    },
    {
      "id": 1146,
      "nome": "Getsumen To Heiki Mina",
      "link": "https://animefire.plus/animes/getsumen-to-heiki-mina-todos-os-episodios",
      "texto_original": "Getsumen To Heiki Mina",
      "rating": 6.33,
      "classificacao_etaria": "A14",
      "imagem_original": "https://animefire.plus/img/animes/getsumen-to-heiki-mina.webp",
      "imagem_pasta": "https://animefire.plus/img/animes/getsumen-to-heiki-mina/",
      "secao": "legendados",
      "pagina": 103,
      "total_episodios": 11,
      "link_video": "https://animefire.plus/video/getsumen-to-heiki-mina"
    },
    {
      "id": 1147,
      "nome": "Getsuyoubi no Tawawa",
      "link": "https://animefire.plus/animes/getsuyoubi-no-tawawa-todos-os-episodios",
      "texto_original": "Getsuyoubi no Tawawa",
      "rating": 6.52,
      "classificacao_etaria": "A14",
      "imagem_original": "https://animefire.plus/img/animes/getsuyoubi-no-tawawa.webp",
      "imagem_pasta": "https://animefire.plus/img/animes/getsuyoubi-no-tawawa/",
      "secao": "legendados",
      "pagina": 122,
      "total_episodios": 12,
      "link_video": "https://animefire.plus/video/getsuyoubi-no-tawawa"
    },
    {
      "id": 1148,
      "nome": "Getsuyoubi no Tawawa 2",
      "link": "https://animefire.plus/animes/getsuyoubi-no-tawawa-2-todos-os-episodios",
      "texto_original": "Getsuyoubi no Tawawa 2",
      "rating": 6.61,
      "classificacao_etaria": "A14",
      "imagem_original": "https://animefire.plus/img/animes/getsuyoubi-no-tawawa-2.webp",
      "imagem_pasta": "https://animefire.plus/img/animes/getsuyoubi-no-tawawa-2/",
      "secao": "legendados",
      "pagina": 38,
      "total_episodios": 12,
      "link_video": "https://animefire.plus/video/getsuyoubi-no-tawawa-2"
    },
    {
      "id": 1149,
      "nome": "Getter Robo Arc",
      "link": "https://animefire.plus/animes/getter-robo-arc-todos-os-episodios",
      "texto_original": "Getter Robo Arc",
      "rating": 6.16,
      "classificacao_etaria": "A14",
      "imagem_original": "https://animefire.plus/img/animes/getter-robo-arc.webp",
      "imagem_pasta": "https://animefire.plus/img/animes/getter-robo-arc/",
      "secao": "legendados",
      "pagina": 40,
      "total_episodios": 13,
      "link_video": "https://animefire.plus/video/getter-robo-arc"
    },
    {
      "id": 1151,
      "nome": "Gi(a)rlish Number",
      "link": "https://animefire.plus/animes/gi-a-rlish-number-todos-os-episodios",
      "texto_original": "Gi(a)rlish Number",
      "rating": 6.95,
      "classificacao_etaria": "A14",
      "imagem_original": "https://animefire.plus/img/animes/gi-a-rlish-number.webp",
      "imagem_pasta": "https://animefire.plus/img/animes/gi-a-rlish-number/",
      "secao": "legendados",
      "pagina": 119,
      "total_episodios": 3,
      "link_video": "https://animefire.plus/video/gi-a-rlish-number"
    },
    {
      "id": 1154,
      "nome": "Gift: Eternal Rainbow",
      "link": "https://animefire.plus/animes/gift-eternal-rainbow-todos-os-episodios",
      "texto_original": "Gift: Eternal Rainbow",
      "rating": 6.7,
      "classificacao_etaria": "A14",
      "imagem_original": "https://animefire.plus/img/animes/gift-eternal-rainbow.webp",
      "imagem_pasta": "https://animefire.plus/img/animes/gift-eternal-rainbow/",
      "secao": "legendados",
      "pagina": 105,
      "total_episodios": 12,
      "link_video": "https://animefire.plus/video/gift-eternal-rainbow"
    },
    {
      "id": 1156,
      "nome": "Gilgamesh",
      "link": "https://animefire.plus/animes/gilgamesh-todos-os-episodios",
      "texto_original": "Gilgamesh",
      "rating": 6.72,
      "classificacao_etaria": "A16",
      "imagem_original": "https://animefire.plus/img/animes/gilgamesh.webp",
      "imagem_pasta": "https://animefire.plus/img/animes/gilgamesh/",
      "secao": "legendados",
      "pagina": 99,
      "total_episodios": 26,
      "link_video": "https://animefire.plus/video/gilgamesh"
    },
    {
      "id": 1158,
      "nome": "Gin no Guardian",
      "link": "https://animefire.plus/animes/gin-no-guardian-todos-os-episodios",
      "texto_original": "Gin no Guardian",
      "rating": 6.35,
      "classificacao_etaria": "A14",
      "imagem_original": "https://animefire.plus/img/animes/gin-no-guardian.webp",
      "imagem_pasta": "https://animefire.plus/img/animes/gin-no-guardian/",
      "secao": "legendados",
      "pagina": 135,
      "total_episodios": 12,
      "link_video": "https://animefire.plus/video/gin-no-guardian"
    }
  ],
  "pagination": {
    "current_page": 27,
    "per_page": 20,
    "total_items": 1805,
    "total_pages": 91,
    "has_next": true,
    "has_prev": true
  }
}
