{
  "message": "Animes com rating entre 5 e 7",
  "rating_range": {
    "min": 5,
    "max": 7
  },
  "data": [
    {
      "id": 3754,
      "nome": "Tasuuketsu",
      "link": "https://animefire.plus/animes/tasuuketsu-todos-os-episodios",
      "texto_original": "Tasuuketsu",
      "rating": 5.55,
      "classificacao_etaria": "A14",
      "imagem_original": "https://animefire.plus/img/animes/tasuuketsu.webp",
      "imagem_pasta": "https://animefire.plus/img/animes/tasuuketsu/",
      "secao": "legendados",
      "pagina": 12,
      "total_episodios": 24,
      "link_video": "https://animefire.plus/video/tasuuketsu"
    },
    {
      "id": 3755,
      "nome": "Tatakae!! Iczer-1",
      "link": "https://animefire.plus/animes/tatakae-iczer-1-todos-os-episodios",
      "texto_original": "Tatakae!! Iczer-1",
      "rating": 6.1,
      "classificacao_etaria": "A18",
      "imagem_original": "https://animefire.plus/img/animes/tatakae-iczer-1.webp",
      "imagem_pasta": "https://animefire.plus/img/animes/tatakae-iczer-1/",
      "secao": "legendados",
      "pagina": 76,
      "total_episodios": 3,
      "link_video": "https://animefire.plus/video/tatakae-iczer-1"
    },
    {
      "id": 3758,
      "nome": "Tate no Yuusha no Nariagari Season 2 (Dublado)",
      "link": "https://animefire.plus/animes/tate-no-yuusha-no-nariagari-season-2-dublado-todos-os-episodios",
      "texto_original": "Tate no Yuusha no Nariagari Season 2 (Dublado)",
      "rating": 6.53,
      "classificacao_etaria": "A14",
      "imagem_original": "https://animefire.plus/img/animes/tate-no-yuusha-no-nariagari-season-2.webp",
      "imagem_pasta": "https://animefire.plus/img/animes/tate-no-yuusha-no-nariagari-season-2/",
      "secao": "dublados,legendados",
      "pagina": 11,
      "total_episodios": 13,
      "link_video": "https://animefire.plus/video/tate-no-yuusha-no-nariagari-season-2-dublado"
    },
    {
      "id": 3761,
      "nome": "Tatoeba Last Dungeon Mae no Mura no Shounen ga Joban no Machi de Kurasu Youna Monogatari (Dublado)",
      "link": "https://animefire.plus/animes/tatoeba-last-dungeon-mae-no-mura-no-shounen-ga-joban-no-machi-de-kurasu-youna-monogatari-dublado-todos-os-episodios",
      "texto_original": "Tatoeba Last Dungeon Mae no Mura no Shounen ga Joban no Machi de Kurasu Youna Monogatari (Dublado)",
      "rating": 6.33,
      "classificacao_etaria": "A14",
      "imagem_original": "https://animefire.plus/img/animes/tatoeba-last-dungeon-mae-no-mura-no-shounen-ga-joban-no-machi-de-kurasu-youna-monogatari.webp",
      "imagem_pasta": "https://animefire.plus/img/animes/tatoeba-last-dungeon-mae-no-mura-no-shounen-ga-joban-no-machi-de-kurasu-youna-monogatari/",
      "secao": "dublados,legendados",
      "pagina": 15,
      "total_episodios": 12,
      "link_video": "https://animefire.plus/video/tatoeba-last-dungeon-mae-no-mura-no-shounen-ga-joban-no-machi-de-kurasu-youna-monogatari-dublado"
    },
    {
      "id": 3762,
      "nome": "Tattoon Master",
      "link": "https://animefire.plus/animes/tattoon-master-todos-os-episodios",
      "texto_original": "Tattoon Master",
      "rating": 6.16,
      "classificacao_etaria": "A14",
      "imagem_original": "https://animefire.plus/img/animes/tattoon-master.webp",
      "imagem_pasta": "https://animefire.plus/img/animes/tattoon-master/",
      "secao": "legendados",
      "pagina": 69,
      "total_episodios": 2,
      "link_video": "https://animefire.plus/video/tattoon-master"
    },
    {
      "id": 3763,
      "nome": "Tayutama: Kiss On My Deity",
      "link": "https://animefire.plus/animes/tayutama-kiss-on-my-deity-todos-os-episodios",
      "texto_original": "Tayutama: Kiss On My Deity",
      "rating": 6.84,
      "classificacao_etaria": "A14",
      "imagem_original": "https://animefire.plus/img/animes/tayutama-kiss-on-my-deity.webp",
      "imagem_pasta": "https://animefire.plus/img/animes/tayutama-kiss-on-my-deity/",
      "secao": "legendados",
      "pagina": 98,
      "total_episodios": 0,
      "link_video": "https://animefire.plus/video/tayutama-kiss-on-my-deity"
    },
    {
      "id": 3766,
      "nome": "Technoroid: Overmind",
      "link": "https://animefire.plus/animes/technoroid-overmind-todos-os-episodios",
      "texto_original": "Technoroid: Overmind",
      "rating": 6.52,
      "classificacao_etaria": "A14",
      "imagem_original": "https://animefire.plus/img/animes/technoroid-overmind.webp",
      "imagem_pasta": "https://animefire.plus/img/animes/technoroid-overmind/",
      "secao": "legendados",
      "pagina": 26,
      "total_episodios": 12,
      "link_video": "https://animefire.plus/video/technoroid-overmind"
    },
    {
      "id": 3769,
      "nome": "Teizokurei Daydream",
      "link": "https://animefire.plus/animes/teizokurei-daydream-todos-os-episodios",
      "texto_original": "Teizokurei Daydream",
      "rating": 6.27,
      "classificacao_etaria": "A18",
      "imagem_original": "https://animefire.plus/img/animes/teizokurei-daydream.webp",
      "imagem_pasta": "https://animefire.plus/img/animes/teizokurei-daydream/",
      "secao": "legendados",
      "pagina": 97,
      "total_episodios": 4,
      "link_video": "https://animefire.plus/video/teizokurei-daydream"
    },
    {
      "id": 3770,
      "nome": "Tejina-senpai",
      "link": "https://animefire.plus/animes/tejina-senpai-todos-os-episodios",
      "texto_original": "Tejina-senpai",
      "rating": 6.47,
      "classificacao_etaria": "A14",
      "imagem_original": "https://animefire.plus/img/animes/tejina-senpai.webp",
      "imagem_pasta": "https://animefire.plus/img/animes/tejina-senpai/",
      "secao": "legendados",
      "pagina": 148,
      "total_episodios": 0,
      "link_video": "https://animefire.plus/video/tejina-senpai"
    },
    {
      "id": 3771,
      "nome": "Tekken: Bloodline (Dublado)",
      "link": "https://animefire.plus/animes/tekken-bloodline-dublado-todos-os-episodios",
      "texto_original": "Tekken: Bloodline (Dublado)",
      "rating": 6.44,
      "classificacao_etaria": "A16",
      "imagem_original": "https://animefire.plus/img/animes/tekken-bloodline.webp",
      "imagem_pasta": "https://animefire.plus/img/animes/tekken-bloodline/",
      "secao": "dublados,legendados",
      "pagina": 10,
      "total_episodios": 6,
      "link_video": "https://animefire.plus/video/tekken-bloodline-dublado"
    },
    {
      "id": 3772,
      "nome": "Temple",
      "link": "https://animefire.plus/animes/temple-todos-os-episodios",
      "texto_original": "Temple",
      "rating": 6.7,
      "classificacao_etaria": "A14",
      "imagem_original": "https://animefire.plus/img/animes/temple.jpg",
      "imagem_pasta": "https://animefire.plus/img/animes/temple/",
      "secao": "legendados,lancamentos",
      "pagina": 22,
      "total_episodios": 10,
      "link_video": "https://animefire.plus/video/temple"
    },
    {
      "id": 3773,
      "nome": "Temple Specials",
      "link": "https://animefire.plus/animes/temple-specials-todos-os-episodios",
      "texto_original": "Temple Specials",
      "rating": 6.49,
      "classificacao_etaria": "A14",
      "imagem_original": "https://animefire.plus/img/animes/temple-specials.webp",
      "imagem_pasta": "https://animefire.plus/img/animes/temple-specials/",
      "secao": "legendados",
      "pagina": 17,
      "total_episodios": 1,
      "link_video": "https://animefire.plus/video/temple-specials"
    },
    {
      "id": 3775,
      "nome": "Tenchi Muyou! Ryououki 4th Season",
      "link": "https://animefire.plus/animes/tenchi-muyou-ryououki-4-todos-os-episodios",
      "texto_original": "Tenchi Muyou! Ryououki 4th Season",
      "rating": 6.69,
      "classificacao_etaria": "A14",
      "imagem_original": "https://animefire.plus/img/animes/tenchi-muyou-ryououki-4.webp",
      "imagem_pasta": "https://animefire.plus/img/animes/tenchi-muyou-ryououki-4/",
      "secao": "legendados",
      "pagina": 54,
      "total_episodios": 0,
      "link_video": "https://animefire.plus/video/tenchi-muyou-ryououki-4"
    },
    {
      "id": 3776,
      "nome": "Tenchi Muyou! Ryououki 5th Season",
      "link": "https://animefire.plus/animes/tenchi-muyou-ryououki-5th-season-todos-os-episodios",
      "texto_original": "Tenchi Muyou! Ryououki 5th Season",
      "rating": 6.24,
      "classificacao_etaria": "A14",
      "imagem_original": "https://animefire.plus/img/animes/tenchi-muyou-ryououki-5th-season.webp",
      "imagem_pasta": "https://animefire.plus/img/animes/tenchi-muyou-ryououki-5th-season/",
      "secao": "legendados",
      "pagina": 90,
      "total_episodios": 0,
      "link_video": "https://animefire.plus/video/tenchi-muyou-ryououki-5th-season"
    },
    {
      "id": 3781,
      "nome": "Tenka Hyakken: Meiji-kan e Youkoso!",
      "link": "https://animefire.plus/animes/tenka-hyakken-meiji-kan-e-youkoso-todos-os-episodios",
      "texto_original": "Tenka Hyakken: Meiji-kan e Youkoso!",
      "rating": 5.06,
      "classificacao_etaria": "A14",
      "imagem_original": "https://animefire.plus/img/animes/tenka-hyakken-meiji-kan-e-youkoso.webp",
      "imagem_pasta": "https://animefire.plus/img/animes/tenka-hyakken-meiji-kan-e-youkoso/",
      "secao": "legendados",
      "pagina": 109,
      "total_episodios": 2,
      "link_video": "https://animefire.plus/video/tenka-hyakken-meiji-kan-e-youkoso"
    },
    {
      "id": 3784,
      "nome": "Tenkuu Shinpan (Dublado)",
      "link": "https://animefire.plus/animes/tenkuu-shinpan-dublado-todos-os-episodios",
      "texto_original": "Tenkuu Shinpan (Dublado)",
      "rating": 6.68,
      "classificacao_etaria": "A16",
      "imagem_original": "https://animefire.plus/img/animes/tenkuu-shinpan.webp",
      "imagem_pasta": "https://animefire.plus/img/animes/tenkuu-shinpan/",
      "secao": "dublados,legendados",
      "pagina": 18,
      "total_episodios": 12,
      "link_video": "https://animefire.plus/video/tenkuu-shinpan-dublado"
    },
    {
      "id": 3792,
      "nome": "Tensei Kenja no Isekai Life: Dai-2 no Shokugyou wo Ete, Sekai Saikyou ni Narimashita",
      "link": "https://animefire.plus/animes/tensei-kenja-no-isekai-life-dai-2-no-shokugyou-wo-ete-sekai-saikyou-ni-narimashita-todos-os-episodios",
      "texto_original": "Tensei Kenja no Isekai Life: Dai-2 no Shokugyou wo Ete, Sekai Saikyou ni Narimashita",
      "rating": 6.33,
      "classificacao_etaria": "A14",
      "imagem_original": "https://animefire.plus/img/animes/tensei-kenja-no-isekai-life-dai-2-no-shokugyou-wo-ete-sekai-saikyou-ni-narimashita.webp",
      "imagem_pasta": "https://animefire.plus/img/animes/tensei-kenja-no-isekai-life-dai-2-no-shokugyou-wo-ete-sekai-saikyou-ni-narimashita/",
      "secao": "legendados",
      "pagina": 31,
      "total_episodios": 12,
      "link_video": "https://animefire.plus/video/tensei-kenja-no-isekai-life-dai-2-no-shokugyou-wo-ete-sekai-saikyou-ni-narimashita"
    },
    {
      "id": 3793,
      "nome": "Tensei Kizoku no Isekai Boukenroku: Jichou wo Shiranai Kamigami no Shito (Dublado)",
      "link": "https://animefire.plus/animes/tensei-kizoku-no-isekai-boukenroku-jichou-wo-shiranai-kamigami-no-shito-dublado-todos-os-episodios",
      "texto_original": "Tensei Kizoku no Isekai Boukenroku: Jichou wo Shiranai Kamigami no Shito (Dublado)",
      "rating": 6.68,
      "classificacao_etaria": "A14",
      "imagem_original": "https://animefire.plus/img/animes/tensei-kizoku-no-isekai-boukenroku-jichou-wo-shiranai-kamigami-no-shito.webp",
      "imagem_pasta": "https://animefire.plus/img/animes/tensei-kizoku-no-isekai-boukenroku-jichou-wo-shiranai-kamigami-no-shito/",
      "secao": "dublados,legendados",
      "pagina": 7,
      "total_episodios": 12,
      "link_video": "https://animefire.plus/video/tensei-kizoku-no-isekai-boukenroku-jichou-wo-shiranai-kamigami-no-shito-dublado"
    },
    {
      "id": 3806,
      "nome": "Tensei shitara Slime Datta Ken: Kanwa - Veldora Nikki (Dublado)",
      "link": "https://animefire.plus/animes/tensei-shitara-slime-datta-ken-kanwa---veldora-nikki-dublado-todos-os-episodios",
      "texto_original": "Tensei shitara Slime Datta Ken: Kanwa - Veldora Nikki (Dublado)",
      "rating": 6.57,
      "classificacao_etaria": "A14",
      "imagem_original": "https://animefire.plus/img/animes/tensei-shitara-slime-datta-ken-kanwa---veldora-nikki.webp",
      "imagem_pasta": "https://animefire.plus/img/animes/tensei-shitara-slime-datta-ken-kanwa---veldora-nikki/",
      "secao": "dublados",
      "pagina": 16,
      "total_episodios": 1,
      "link_video": "https://animefire.plus/video/tensei-shitara-slime-datta-ken-kanwa---veldora-nikki-dublado"
    },
    {
      "id": 3807,
      "nome": "Tenshi Kinryouku",
      "link": "https://animefire.plus/animes/tenshi-kinryouku-todos-os-episodios",
      "texto_original": "Tenshi Kinryouku",
      "rating": 6.39,
      "classificacao_etaria": "A18",
      "imagem_original": "https://animefire.plus/img/animes/tenshi-kinryouku.webp",
      "imagem_pasta": "https://animefire.plus/img/animes/tenshi-kinryouku/",
      "secao": "legendados",
      "pagina": 115,
      "total_episodios": 0,
      "link_video": "https://animefire.plus/video/tenshi-kinryouku"
    }
  ],
  "pagination": {
    "current_page": 79,
    "per_page": 20,
    "total_items": 1805,
    "total_pages": 91,
    "has_next": true,
    "has_prev": true
  }
}
