{
  "message": "Animes com rating entre 5 e 7",
  "rating_range": {
    "min": 5,
    "max": 7
  },
  "data": [
    {
      "id": 1734,
      "nome": "Jinki:Extend",
      "link": "https://animefire.plus/animes/jinki-extend-todos-os-episodios",
      "texto_original": "Jinki:Extend",
      "rating": 6.2,
      "classificacao_etaria": "A16",
      "imagem_original": "https://animefire.plus/img/animes/jinki-extend.webp",
      "imagem_pasta": "https://animefire.plus/img/animes/jinki-extend/",
      "secao": "legendados",
      "pagina": 125,
      "total_episodios": 12,
      "link_video": "https://animefire.plus/video/jinki-extend"
    },
    {
      "id": 1736,
      "nome": "Jinsei",
      "link": "https://animefire.plus/animes/jinsei-todos-os-episodios",
      "texto_original": "Jinsei",
      "rating": 6.54,
      "classificacao_etaria": "A14",
      "imagem_original": "https://animefire.plus/img/animes/jinsei.webp",
      "imagem_pasta": "https://animefire.plus/img/animes/jinsei/",
      "secao": "legendados",
      "pagina": 153,
      "total_episodios": 4,
      "link_video": "https://animefire.plus/video/jinsei"
    },
    {
      "id": 1737,
      "nome": "Jitsu wa Ore, Saikyou deshita?",
      "link": "https://animefire.plus/animes/jitsu-wa-ore-saikyou-deshita-todos-os-episodios",
      "texto_original": "Jitsu wa Ore, Saikyou deshita?",
      "rating": 6.48,
      "classificacao_etaria": "A14",
      "imagem_original": "https://animefire.plus/img/animes/jitsu-wa-ore-saikyou-deshita.jpg",
      "imagem_pasta": "https://animefire.plus/img/animes/jitsu-wa-ore-saikyou-deshita/",
      "secao": "legendados",
      "pagina": 23,
      "total_episodios": 12,
      "link_video": "https://animefire.plus/video/jitsu-wa-ore-saikyou-deshita"
    },
    {
      "id": 1749,
      "nome": "Joshikausei",
      "link": "https://animefire.plus/animes/joshikausei-todos-os-episodios",
      "texto_original": "Joshikausei",
      "rating": 5.76,
      "classificacao_etaria": "A14",
      "imagem_original": "https://animefire.plus/img/animes/joshikausei.webp",
      "imagem_pasta": "https://animefire.plus/img/animes/joshikausei/",
      "secao": "legendados",
      "pagina": 138,
      "total_episodios": 0,
      "link_video": "https://animefire.plus/video/joshikausei"
    },
    {
      "id": 1753,
      "nome": "Jouran: The Princess of Snow and Blood",
      "link": "https://animefire.plus/animes/jouran-the-princess-of-snow-and-blood-todos-os-episodios",
      "texto_original": "Jouran: The Princess of Snow and Blood",
      "rating": 6.11,
      "classificacao_etaria": "A16",
      "imagem_original": "https://animefire.plus/img/animes/jouran-the-princess-of-snow-and-blood.webp",
      "imagem_pasta": "https://animefire.plus/img/animes/jouran-the-princess-of-snow-and-blood/",
      "secao": "legendados",
      "pagina": 47,
      "total_episodios": 12,
      "link_video": "https://animefire.plus/video/jouran-the-princess-of-snow-and-blood"
    },
    {
      "id": 1757,
      "nome": "Jungle de Ikou!",
      "link": "https://animefire.plus/animes/jungle-de-ikou-todos-os-episodios",
      "texto_original": "Jungle de Ikou!",
      "rating": 5.51,
      "classificacao_etaria": "A14",
      "imagem_original": "https://animefire.plus/img/animes/jungle-de-ikou.webp",
      "imagem_pasta": "https://animefire.plus/img/animes/jungle-de-ikou/",
      "secao": "legendados",
      "pagina": 137,
      "total_episodios": 3,
      "link_video": "https://animefire.plus/video/jungle-de-ikou"
    },
    {
      "id": 1763,
      "nome": "Juubee Ninpuuchou: Ryuuhougyoku-hen",
      "link": "https://animefire.plus/animes/juubee-ninpuuchou-ryuuhougyoku-hen-todos-os-episodios",
      "texto_original": "Juubee Ninpuuchou: Ryuuhougyoku-hen",
      "rating": 6.7,
      "classificacao_etaria": "A16",
      "imagem_original": "https://animefire.plus/img/animes/juubee-ninpuuchou-ryuuhougyoku-hen.webp",
      "imagem_pasta": "https://animefire.plus/img/animes/juubee-ninpuuchou-ryuuhougyoku-hen/",
      "secao": "legendados",
      "pagina": 57,
      "total_episodios": 13,
      "link_video": "https://animefire.plus/video/juubee-ninpuuchou-ryuuhougyoku-hen"
    },
    {
      "id": 1764,
      "nome": "Juubee-chan 2: Siberia Yagyuu no Gyakushuu",
      "link": "https://animefire.plus/animes/juubee-chan-2-siberia-yagyuu-no-gyakushuu-todos-os-episodios",
      "texto_original": "Juubee-chan 2: Siberia Yagyuu no Gyakushuu",
      "rating": 6.93,
      "classificacao_etaria": "A14",
      "imagem_original": "https://animefire.plus/img/animes/juubee-chan-2-siberia-yagyuu-no-gyakushuu.webp",
      "imagem_pasta": "https://animefire.plus/img/animes/juubee-chan-2-siberia-yagyuu-no-gyakushuu/",
      "secao": "legendados",
      "pagina": 168,
      "total_episodios": 13,
      "link_video": "https://animefire.plus/video/juubee-chan-2-siberia-yagyuu-no-gyakushuu"
    },
    {
      "id": 1765,
      "nome": "Juubee-chan: Lovely Gantai no Himitsu",
      "link": "https://animefire.plus/animes/juubee-chan-lovely-gantai-no-himitsu-todos-os-episodios",
      "texto_original": "Juubee-chan: Lovely Gantai no Himitsu",
      "rating": 6.71,
      "classificacao_etaria": "A14",
      "imagem_original": "https://animefire.plus/img/animes/juubee-chan-lovely-gantai-no-himitsu.webp",
      "imagem_pasta": "https://animefire.plus/img/animes/juubee-chan-lovely-gantai-no-himitsu/",
      "secao": "legendados",
      "pagina": 143,
      "total_episodios": 12,
      "link_video": "https://animefire.plus/video/juubee-chan-lovely-gantai-no-himitsu"
    },
    {
      "id": 1767,
      "nome": "Juuni Taisen",
      "link": "https://animefire.plus/animes/juuni-taisen-todos-os-episodios",
      "texto_original": "Juuni Taisen",
      "rating": 6.64,
      "classificacao_etaria": "A16",
      "imagem_original": "https://animefire.plus/img/animes/juuni-taisen.webp",
      "imagem_pasta": "https://animefire.plus/img/animes/juuni-taisen/",
      "secao": "legendados",
      "pagina": 137,
      "total_episodios": 12,
      "link_video": "https://animefire.plus/video/juuni-taisen"
    },
    {
      "id": 1768,
      "nome": "Juuou Mujin No Fafnir",
      "link": "https://animefire.plus/animes/juuou-mujin-no-fafnir-todos-os-episodios",
      "texto_original": "Juuou Mujin No Fafnir",
      "rating": 6.39,
      "classificacao_etaria": "A14",
      "imagem_original": "https://animefire.plus/img/animes/juuou-mujin-no-fafnir.webp",
      "imagem_pasta": "https://animefire.plus/img/animes/juuou-mujin-no-fafnir/",
      "secao": "legendados",
      "pagina": 107,
      "total_episodios": 1,
      "link_video": "https://animefire.plus/video/juuou-mujin-no-fafnir"
    },
    {
      "id": 1769,
      "nome": "Juusenshi Gulkeeva",
      "link": "https://animefire.plus/animes/juusenshi-gulkeeva-todos-os-episodios",
      "texto_original": "Juusenshi Gulkeeva",
      "rating": 6.35,
      "classificacao_etaria": "A14",
      "imagem_original": "https://animefire.plus/img/animes/juusenshi-gulkeeva.webp",
      "imagem_pasta": "https://animefire.plus/img/animes/juusenshi-gulkeeva/",
      "secao": "legendados",
      "pagina": 68,
      "total_episodios": 26,
      "link_video": "https://animefire.plus/video/juusenshi-gulkeeva"
    },
    {
      "id": 1770,
      "nome": "Juushin Enbu: Hero Tales",
      "link": "https://animefire.plus/animes/juushin-enbu-hero-tales-todos-os-episodios",
      "texto_original": "Juushin Enbu: Hero Tales",
      "rating": 6.92,
      "classificacao_etaria": "A14",
      "imagem_original": "https://animefire.plus/img/animes/juushin-enbu-hero-tales.webp",
      "imagem_pasta": "https://animefire.plus/img/animes/juushin-enbu-hero-tales/",
      "secao": "legendados",
      "pagina": 148,
      "total_episodios": 26,
      "link_video": "https://animefire.plus/video/juushin-enbu-hero-tales"
    },
    {
      "id": 1771,
      "nome": "Juushinki Pandora (Dublado)",
      "link": "https://animefire.plus/animes/juushinki-pandora-dublado-todos-os-episodios",
      "texto_original": "Juushinki Pandora (Dublado)",
      "rating": 6.4,
      "classificacao_etaria": "A14",
      "imagem_original": "https://animefire.plus/img/animes/juushinki-pandora.webp",
      "imagem_pasta": "https://animefire.plus/img/animes/juushinki-pandora/",
      "secao": "dublados,legendados",
      "pagina": 24,
      "total_episodios": 26,
      "link_video": "https://animefire.plus/video/juushinki-pandora-dublado"
    },
    {
      "id": 1772,
      "nome": "Juusou Kikou Dancougar Nova",
      "link": "https://animefire.plus/animes/juusou-kikou-dancougar-nova-todos-os-episodios",
      "texto_original": "Juusou Kikou Dancougar Nova",
      "rating": 6,
      "classificacao_etaria": "A18",
      "imagem_original": "https://animefire.plus/img/animes/juusou-kikou-dancougar-nova.webp",
      "imagem_pasta": "https://animefire.plus/img/animes/juusou-kikou-dancougar-nova/",
      "secao": "legendados",
      "pagina": 78,
      "total_episodios": 12,
      "link_video": "https://animefire.plus/video/juusou-kikou-dancougar-nova"
    },
    {
      "id": 1775,
      "nome": "K-On!: Ura-On!",
      "link": "https://animefire.plus/animes/k-on-ura-on-todos-os-episodios",
      "texto_original": "K-On!: Ura-On!",
      "rating": 6.34,
      "classificacao_etaria": "A14",
      "imagem_original": "https://animefire.plus/img/animes/k-on-ura-on.webp",
      "imagem_pasta": "https://animefire.plus/img/animes/k-on-ura-on/",
      "secao": "legendados",
      "pagina": 66,
      "total_episodios": 2,
      "link_video": "https://animefire.plus/video/k-on-ura-on"
    },
    {
      "id": 1777,
      "nome": "Kabukichou Sherlock",
      "link": "https://animefire.plus/animes/kabukichou-sherlock-todos-os-episodios",
      "texto_original": "Kabukichou Sherlock",
      "rating": 6.91,
      "classificacao_etaria": "A16",
      "imagem_original": "https://animefire.plus/img/animes/kabukichou-sherlock.webp",
      "imagem_pasta": "https://animefire.plus/img/animes/kabukichou-sherlock/",
      "secao": "legendados",
      "pagina": 110,
      "total_episodios": 0,
      "link_video": "https://animefire.plus/video/kabukichou-sherlock"
    },
    {
      "id": 1778,
      "nome": "Kabukichou Sherlock OVA",
      "link": "https://animefire.plus/animes/kabukichou-sherlock-ova-todos-os-episodios",
      "texto_original": "Kabukichou Sherlock OVA",
      "rating": 6.61,
      "classificacao_etaria": "A14",
      "imagem_original": "https://animefire.plus/img/animes/kabukichou-sherlock-ova.webp",
      "imagem_pasta": "https://animefire.plus/img/animes/kabukichou-sherlock-ova/",
      "secao": "legendados",
      "pagina": 50,
      "total_episodios": 1,
      "link_video": "https://animefire.plus/video/kabukichou-sherlock-ova"
    },
    {
      "id": 1779,
      "nome": "Kabushikigaisha Magi-Lumière",
      "link": "https://animefire.plus/animes/kabushikigaisha-magi-lumiere-todos-os-episodios",
      "texto_original": "Kabushikigaisha Magi-Lumière",
      "rating": 6.96,
      "classificacao_etaria": "A14",
      "imagem_original": "https://animefire.plus/img/animes/kabushikigaisha-magi-lumiere.webp",
      "imagem_pasta": "https://animefire.plus/img/animes/kabushikigaisha-magi-lumiere/",
      "secao": "legendados",
      "pagina": 10,
      "total_episodios": 12,
      "link_video": "https://animefire.plus/video/kabushikigaisha-magi-lumiere"
    },
    {
      "id": 1782,
      "nome": "Kage kara Mamoru!",
      "link": "https://animefire.plus/animes/kage-kara-mamoru-todos-os-episodios",
      "texto_original": "Kage kara Mamoru!",
      "rating": 6.67,
      "classificacao_etaria": "A14",
      "imagem_original": "https://animefire.plus/img/animes/kage-kara-mamoru.webp",
      "imagem_pasta": "https://animefire.plus/img/animes/kage-kara-mamoru/",
      "secao": "legendados",
      "pagina": 133,
      "total_episodios": 12,
      "link_video": "https://animefire.plus/video/kage-kara-mamoru"
    }
  ],
  "pagination": {
    "current_page": 39,
    "per_page": 20,
    "total_items": 1805,
    "total_pages": 91,
    "has_next": true,
    "has_prev": true
  }
}
