{
  "message": "Animes com rating entre 5 e 7",
  "rating_range": {
    "min": 5,
    "max": 7
  },
  "data": [
    {
      "id": 799,
      "nome": "Detective Conan: The Fugitive Kogorou Mouri",
      "link": "https://animefire.plus/animes/detective-conan-the-fugitive-kogorou-mouri-todos-os-episodios",
      "texto_original": "Detective Conan: The Fugitive Kogorou Mouri",
      "rating": 7,
      "classificacao_etaria": "A14",
      "imagem_original": "https://animefire.plus/img/animes/detective-conan-the-fugitive-kogorou-mouri.webp",
      "imagem_pasta": "https://animefire.plus/img/animes/detective-conan-the-fugitive-kogorou-mouri/",
      "secao": "legendados",
      "pagina": 83,
      "total_episodios": 1,
      "link_video": "https://animefire.plus/video/detective-conan-the-fugitive-kogorou-mouri"
    },
    {
      "id": 800,
      "nome": "Detonator Orgun",
      "link": "https://animefire.plus/animes/detonator-orgun-todos-os-episodios",
      "texto_original": "Detonator Orgun",
      "rating": 6.5,
      "classificacao_etaria": "A18",
      "imagem_original": "https://animefire.plus/img/animes/detonator-orgun.webp",
      "imagem_pasta": "https://animefire.plus/img/animes/detonator-orgun/",
      "secao": "legendados",
      "pagina": 77,
      "total_episodios": 3,
      "link_video": "https://animefire.plus/video/detonator-orgun"
    },
    {
      "id": 803,
      "nome": "Devil Survivor 2 The Animation",
      "link": "https://animefire.plus/animes/devil-survivor-2-the-animation-todos-os-episodios",
      "texto_original": "Devil Survivor 2 The Animation",
      "rating": 6.99,
      "classificacao_etaria": "A16",
      "imagem_original": "https://animefire.plus/img/animes/devil-survivor-2-the-animation.webp",
      "imagem_pasta": "https://animefire.plus/img/animes/devil-survivor-2-the-animation/",
      "secao": "legendados",
      "pagina": 160,
      "total_episodios": 13,
      "link_video": "https://animefire.plus/video/devil-survivor-2-the-animation"
    },
    {
      "id": 804,
      "nome": "Devilman Lady",
      "link": "https://animefire.plus/animes/devilman-lady-todos-os-episodios",
      "texto_original": "Devilman Lady",
      "rating": 6.76,
      "classificacao_etaria": "A18",
      "imagem_original": "https://animefire.plus/img/animes/devilman-lady.webp",
      "imagem_pasta": "https://animefire.plus/img/animes/devilman-lady/",
      "secao": "legendados",
      "pagina": 98,
      "total_episodios": 26,
      "link_video": "https://animefire.plus/video/devilman-lady"
    },
    {
      "id": 806,
      "nome": "Devils Line",
      "link": "https://animefire.plus/animes/devils-line-todos-os-episodios",
      "texto_original": "Devils Line",
      "rating": 6.89,
      "classificacao_etaria": "A16",
      "imagem_original": "https://animefire.plus/img/animes/devils-line.webp",
      "imagem_pasta": "https://animefire.plus/img/animes/devils-line/",
      "secao": "legendados",
      "pagina": 160,
      "total_episodios": 12,
      "link_video": "https://animefire.plus/video/devils-line"
    },
    {
      "id": 807,
      "nome": "Devils Line: Anytime Anywhere",
      "link": "https://animefire.plus/animes/devils-line-anytime-anywhere-todos-os-episodios",
      "texto_original": "Devils Line: Anytime Anywhere",
      "rating": 6.88,
      "classificacao_etaria": "A16",
      "imagem_original": "https://animefire.plus/img/animes/devils-line-anytime-anywhere.webp",
      "imagem_pasta": "https://animefire.plus/img/animes/devils-line-anytime-anywhere/",
      "secao": "legendados",
      "pagina": 42,
      "total_episodios": 1,
      "link_video": "https://animefire.plus/video/devils-line-anytime-anywhere"
    },
    {
      "id": 808,
      "nome": "Di Gi Charat",
      "link": "https://animefire.plus/animes/di-gi-charat-todos-os-episodios",
      "texto_original": "Di Gi Charat",
      "rating": 6.79,
      "classificacao_etaria": null,
      "imagem_original": "https://animefire.plus/img/animes/di-gi-charat.webp",
      "imagem_pasta": "https://animefire.plus/img/animes/di-gi-charat/",
      "secao": "legendados",
      "pagina": 129,
      "total_episodios": 12,
      "link_video": "https://animefire.plus/video/di-gi-charat"
    },
    {
      "id": 809,
      "nome": "Di Wang Gong Lue",
      "link": "https://animefire.plus/animes/di-wang-gong-lue-todos-os-episodios",
      "texto_original": "Di Wang Gong Lue",
      "rating": 6.65,
      "classificacao_etaria": "A14",
      "imagem_original": "https://animefire.plus/img/animes/di-wang-gong-lue.webp",
      "imagem_pasta": "https://animefire.plus/img/animes/di-wang-gong-lue/",
      "secao": "legendados",
      "pagina": 155,
      "total_episodios": 20,
      "link_video": "https://animefire.plus/video/di-wang-gong-lue"
    },
    {
      "id": 810,
      "nome": "Diabolik Lovers",
      "link": "https://animefire.plus/animes/diabolik-lovers-todos-os-episodios",
      "texto_original": "Diabolik Lovers",
      "rating": 5.65,
      "classificacao_etaria": "A16",
      "imagem_original": "https://animefire.plus/img/animes/diabolik-lovers.webp",
      "imagem_pasta": "https://animefire.plus/img/animes/diabolik-lovers/",
      "secao": "legendados",
      "pagina": 160,
      "total_episodios": 6,
      "link_video": "https://animefire.plus/video/diabolik-lovers"
    },
    {
      "id": 811,
      "nome": "Diabolik Lovers More,Blood",
      "link": "https://animefire.plus/animes/diabolik-lovers-more-blood-todos-os-episodios",
      "texto_original": "Diabolik Lovers More,Blood",
      "rating": 5.83,
      "classificacao_etaria": "A16",
      "imagem_original": "https://animefire.plus/img/animes/diabolik-lovers-more-blood.webp",
      "imagem_pasta": "https://animefire.plus/img/animes/diabolik-lovers-more-blood/",
      "secao": "legendados",
      "pagina": 63,
      "total_episodios": 12,
      "link_video": "https://animefire.plus/video/diabolik-lovers-more-blood"
    },
    {
      "id": 814,
      "nome": "Dies Irae",
      "link": "https://animefire.plus/animes/dies-irae-todos-os-episodios",
      "texto_original": "Dies Irae",
      "rating": 5.49,
      "classificacao_etaria": "A16",
      "imagem_original": "https://animefire.plus/img/animes/dies-irae.webp",
      "imagem_pasta": "https://animefire.plus/img/animes/dies-irae/",
      "secao": "legendados",
      "pagina": 98,
      "total_episodios": 17,
      "link_video": "https://animefire.plus/video/dies-irae"
    },
    {
      "id": 815,
      "nome": "Dies Irae: To the Ring Reincarnation",
      "link": "https://animefire.plus/animes/dies-irae-to-the-ring-reincarnation-todos-os-episodios",
      "texto_original": "Dies Irae: To the Ring Reincarnation",
      "rating": 6.15,
      "classificacao_etaria": "A16",
      "imagem_original": "https://animefire.plus/img/animes/dies-irae-to-the-ring-reincarnation.webp",
      "imagem_pasta": "https://animefire.plus/img/animes/dies-irae-to-the-ring-reincarnation/",
      "secao": "legendados",
      "pagina": 171,
      "total_episodios": 6,
      "link_video": "https://animefire.plus/video/dies-irae-to-the-ring-reincarnation"
    },
    {
      "id": 816,
      "nome": "Digimon Adventure (2020)",
      "link": "https://animefire.plus/animes/digimon-adventure-2020-todos-os-episodios",
      "texto_original": "Digimon Adventure (2020)",
      "rating": 6.78,
      "classificacao_etaria": "A10",
      "imagem_original": "https://animefire.plus/img/animes/digimon-adventure-2020.webp",
      "imagem_pasta": "https://animefire.plus/img/animes/digimon-adventure-2020/",
      "secao": "legendados,lancamentos",
      "pagina": 81,
      "total_episodios": 0,
      "link_video": "https://animefire.plus/video/digimon-adventure-2020"
    },
    {
      "id": 820,
      "nome": "Digimon Adventure: 20 Shuunen Memorial Story",
      "link": "https://animefire.plus/animes/digimon-adventure-20-shuunen-memorial-story-todos-os-episodios",
      "texto_original": "Digimon Adventure: 20 Shuunen Memorial Story",
      "rating": 6.75,
      "classificacao_etaria": null,
      "imagem_original": "https://animefire.plus/img/animes/digimon-adventure-20-shuunen-memorial-story.webp",
      "imagem_pasta": "https://animefire.plus/img/animes/digimon-adventure-20-shuunen-memorial-story/",
      "secao": "legendados,lancamentos",
      "pagina": 91,
      "total_episodios": 0,
      "link_video": "https://animefire.plus/video/digimon-adventure-20-shuunen-memorial-story"
    },
    {
      "id": 822,
      "nome": "Digimon Ghost Game",
      "link": "https://animefire.plus/animes/digimon-ghost-game-todos-os-episodios",
      "texto_original": "Digimon Ghost Game",
      "rating": 6.73,
      "classificacao_etaria": "A14",
      "imagem_original": "https://animefire.plus/img/animes/digimon-ghost-game.webp",
      "imagem_pasta": "https://animefire.plus/img/animes/digimon-ghost-game/",
      "secao": "legendados",
      "pagina": 38,
      "total_episodios": 67,
      "link_video": "https://animefire.plus/video/digimon-ghost-game"
    },
    {
      "id": 825,
      "nome": "Digimon Universe: Appli Monsters",
      "link": "https://animefire.plus/animes/digimon-universe-appli-monsters-todos-os-episodios",
      "texto_original": "Digimon Universe: Appli Monsters",
      "rating": 6.7,
      "classificacao_etaria": "A10",
      "imagem_original": "https://animefire.plus/img/animes/digimon-universe-appli-monsters.webp",
      "imagem_pasta": "https://animefire.plus/img/animes/digimon-universe-appli-monsters/",
      "secao": "legendados",
      "pagina": 65,
      "total_episodios": 52,
      "link_video": "https://animefire.plus/video/digimon-universe-appli-monsters"
    },
    {
      "id": 826,
      "nome": "Digimon Xros Wars",
      "link": "https://animefire.plus/animes/digimon-xros-wars-todos-os-episodios",
      "texto_original": "Digimon Xros Wars",
      "rating": 6.76,
      "classificacao_etaria": "A10",
      "imagem_original": "https://animefire.plus/img/animes/digimon-xros-wars.webp",
      "imagem_pasta": "https://animefire.plus/img/animes/digimon-xros-wars/",
      "secao": "legendados",
      "pagina": 55,
      "total_episodios": 29,
      "link_video": "https://animefire.plus/video/digimon-xros-wars"
    },
    {
      "id": 828,
      "nome": "Digimon Xros Wars: Toki wo Kakeru Shounen Hunter-tachi",
      "link": "https://animefire.plus/animes/digimon-xros-wars-toki-wo-kakeru-shounen-hunter-tachi-todos-os-episodios",
      "texto_original": "Digimon Xros Wars: Toki wo Kakeru Shounen Hunter-tachi",
      "rating": 6.47,
      "classificacao_etaria": "A10",
      "imagem_original": "https://animefire.plus/img/animes/digimon-xros-wars-toki-wo-kakeru-shounen-hunter-tachi.webp",
      "imagem_pasta": "https://animefire.plus/img/animes/digimon-xros-wars-toki-wo-kakeru-shounen-hunter-tachi/",
      "secao": "legendados",
      "pagina": 55,
      "total_episodios": 25,
      "link_video": "https://animefire.plus/video/digimon-xros-wars-toki-wo-kakeru-shounen-hunter-tachi"
    },
    {
      "id": 831,
      "nome": "Dive!!",
      "link": "https://animefire.plus/animes/dive-todos-os-episodios",
      "texto_original": "Dive!!",
      "rating": 6.15,
      "classificacao_etaria": "A14",
      "imagem_original": "https://animefire.plus/img/animes/dive.webp",
      "imagem_pasta": "https://animefire.plus/img/animes/dive/",
      "secao": "legendados",
      "pagina": 138,
      "total_episodios": 12,
      "link_video": "https://animefire.plus/video/dive"
    },
    {
      "id": 832,
      "nome": "Divergence Eve",
      "link": "https://animefire.plus/animes/divergence-eve-todos-os-episodios",
      "texto_original": "Divergence Eve",
      "rating": 6,
      "classificacao_etaria": "A18",
      "imagem_original": "https://animefire.plus/img/animes/divergence-eve.webp",
      "imagem_pasta": "https://animefire.plus/img/animes/divergence-eve/",
      "secao": "legendados",
      "pagina": 103,
      "total_episodios": 0,
      "link_video": "https://animefire.plus/video/divergence-eve"
    }
  ],
  "pagination": {
    "current_page": 20,
    "per_page": 20,
    "total_items": 1805,
    "total_pages": 91,
    "has_next": true,
    "has_prev": true
  }
}
