{
  "message": "Animes com rating entre 5 e 7",
  "rating_range": {
    "min": 5,
    "max": 7
  },
  "data": [
    {
      "id": 168,
      "nome": "Ange Vierge",
      "link": "https://animefire.plus/animes/ange-vierge-todos-os-episodios",
      "texto_original": "Ange Vierge",
      "rating": 6.09,
      "classificacao_etaria": "A18",
      "imagem_original": "https://animefire.plus/img/animes/ange-vierge.webp",
      "imagem_pasta": "https://animefire.plus/img/animes/ange-vierge/",
      "secao": "legendados",
      "pagina": 90,
      "total_episodios": 12,
      "link_video": "https://animefire.plus/video/ange-vierge"
    },
    {
      "id": 170,
      "nome": "Angel Cop",
      "link": "https://animefire.plus/animes/angel-cop-todos-os-episodios",
      "texto_original": "Angel Cop",
      "rating": 5.94,
      "classificacao_etaria": "A18",
      "imagem_original": "https://animefire.plus/img/animes/angel-cop.webp",
      "imagem_pasta": "https://animefire.plus/img/animes/angel-cop/",
      "secao": "legendados",
      "pagina": 53,
      "total_episodios": 6,
      "link_video": "https://animefire.plus/video/angel-cop"
    },
    {
      "id": 174,
      "nome": "Ani ni Tsukeru Kusuri wa Nai! 4",
      "link": "https://animefire.plus/animes/ani-ni-tsukeru-kusuri-wa-nai-4-todos-os-episodios",
      "texto_original": "Ani ni Tsukeru Kusuri wa Nai! 4",
      "rating": 6.77,
      "classificacao_etaria": "A14",
      "imagem_original": "https://animefire.plus/img/animes/ani-ni-tsukeru-kusuri-wa-nai-4.webp",
      "imagem_pasta": "https://animefire.plus/img/animes/ani-ni-tsukeru-kusuri-wa-nai-4/",
      "secao": "legendados",
      "pagina": 52,
      "total_episodios": 12,
      "link_video": "https://animefire.plus/video/ani-ni-tsukeru-kusuri-wa-nai-4"
    },
    {
      "id": 177,
      "nome": "Anime de Wakaru Shinryounaika",
      "link": "https://animefire.plus/animes/anime-de-wakaru-shinryounaika-todos-os-episodios",
      "texto_original": "Anime de Wakaru Shinryounaika",
      "rating": 6.63,
      "classificacao_etaria": "A14",
      "imagem_original": "https://animefire.plus/img/animes/anime-de-wakaru-shinryounaika.webp",
      "imagem_pasta": "https://animefire.plus/img/animes/anime-de-wakaru-shinryounaika/",
      "secao": "legendados",
      "pagina": 68,
      "total_episodios": 20,
      "link_video": "https://animefire.plus/video/anime-de-wakaru-shinryounaika"
    },
    {
      "id": 178,
      "nome": "Anime Tenchou",
      "link": "https://animefire.plus/animes/anime-tenchou-todos-os-episodios",
      "texto_original": "Anime Tenchou",
      "rating": 6.08,
      "classificacao_etaria": null,
      "imagem_original": "https://animefire.plus/img/animes/anime-tenchou.webp",
      "imagem_pasta": "https://animefire.plus/img/animes/anime-tenchou/",
      "secao": "legendados",
      "pagina": 85,
      "total_episodios": 1,
      "link_video": "https://animefire.plus/video/anime-tenchou"
    },
    {
      "id": 179,
      "nome": "Animegataris",
      "link": "https://animefire.plus/animes/animegataris-todos-os-episodios",
      "texto_original": "Animegataris",
      "rating": 6.55,
      "classificacao_etaria": "A14",
      "imagem_original": "https://animefire.plus/img/animes/animegataris.webp",
      "imagem_pasta": "https://animefire.plus/img/animes/animegataris/",
      "secao": "legendados",
      "pagina": 103,
      "total_episodios": 12,
      "link_video": "https://animefire.plus/video/animegataris"
    },
    {
      "id": 180,
      "nome": "Anitore! EX",
      "link": "https://animefire.plus/animes/anitore-ex-todos-os-episodios",
      "texto_original": "Anitore! EX",
      "rating": 5.5,
      "classificacao_etaria": "A14",
      "imagem_original": "https://animefire.plus/img/animes/anitore-ex.webp",
      "imagem_pasta": "https://animefire.plus/img/animes/anitore-ex/",
      "secao": "legendados",
      "pagina": 98,
      "total_episodios": 12,
      "link_video": "https://animefire.plus/video/anitore-ex"
    },
    {
      "id": 181,
      "nome": "Anitore! XX: Hitotsu Yane no Shita de",
      "link": "https://animefire.plus/animes/anitore-xx-hitotsu-yane-no-shita-de-todos-os-episodios",
      "texto_original": "Anitore! XX: Hitotsu Yane no Shita de",
      "rating": 5.67,
      "classificacao_etaria": "A14",
      "imagem_original": "https://animefire.plus/img/animes/anitore-xx-hitotsu-yane-no-shita-de.webp",
      "imagem_pasta": "https://animefire.plus/img/animes/anitore-xx-hitotsu-yane-no-shita-de/",
      "secao": "legendados",
      "pagina": 130,
      "total_episodios": 0,
      "link_video": "https://animefire.plus/video/anitore-xx-hitotsu-yane-no-shita-de"
    },
    {
      "id": 185,
      "nome": "Ano Ko ni 1000%",
      "link": "https://animefire.plus/animes/ano-ko-ni-1000-todos-os-episodios",
      "texto_original": "Ano Ko ni 1000%",
      "rating": 5.26,
      "classificacao_etaria": "A14",
      "imagem_original": "https://animefire.plus/img/animes/ano-ko-ni-1000.webp",
      "imagem_pasta": "https://animefire.plus/img/animes/ano-ko-ni-1000/",
      "secao": "legendados",
      "pagina": 65,
      "total_episodios": 1,
      "link_video": "https://animefire.plus/video/ano-ko-ni-1000"
    },
    {
      "id": 205,
      "nome": "Ao no Kanata no Four Rhythm",
      "link": "https://animefire.plus/animes/ao-no-kanata-no-four-rhythm-todos-os-episodios",
      "texto_original": "Ao no Kanata no Four Rhythm",
      "rating": 6.83,
      "classificacao_etaria": "A14",
      "imagem_original": "https://animefire.plus/img/animes/ao-no-kanata-no-four-rhythm.webp",
      "imagem_pasta": "https://animefire.plus/img/animes/ao-no-kanata-no-four-rhythm/",
      "secao": "legendados",
      "pagina": 114,
      "total_episodios": 2,
      "link_video": "https://animefire.plus/video/ao-no-kanata-no-four-rhythm"
    },
    {
      "id": 206,
      "nome": "Ao no Miburo",
      "link": "https://animefire.plus/animes/ao-no-miburo-todos-os-episodios",
      "texto_original": "Ao no Miburo",
      "rating": 6.67,
      "classificacao_etaria": "A14",
      "imagem_original": "https://animefire.plus/img/animes/ao-no-miburo.webp",
      "imagem_pasta": "https://animefire.plus/img/animes/ao-no-miburo/",
      "secao": "legendados",
      "pagina": 10,
      "total_episodios": 24,
      "link_video": "https://animefire.plus/video/ao-no-miburo"
    },
    {
      "id": 210,
      "nome": "Aoi Sekai No Chuushin De",
      "link": "https://animefire.plus/animes/aoi-sekai-no-chuushin-de-todos-os-episodios",
      "texto_original": "Aoi Sekai No Chuushin De",
      "rating": 5.91,
      "classificacao_etaria": "A18",
      "imagem_original": "https://animefire.plus/img/animes/aoi-sekai-no-chuushin-de.webp",
      "imagem_pasta": "https://animefire.plus/img/animes/aoi-sekai-no-chuushin-de/",
      "secao": "legendados",
      "pagina": 106,
      "total_episodios": 0,
      "link_video": "https://animefire.plus/video/aoi-sekai-no-chuushin-de"
    },
    {
      "id": 211,
      "nome": "Aoi Umi no Tristia",
      "link": "https://animefire.plus/animes/aoi-umi-no-tristia-todos-os-episodios",
      "texto_original": "Aoi Umi no Tristia",
      "rating": 5.71,
      "classificacao_etaria": "A10",
      "imagem_original": "https://animefire.plus/img/animes/aoi-umi-no-tristia.webp",
      "imagem_pasta": "https://animefire.plus/img/animes/aoi-umi-no-tristia/",
      "secao": "legendados",
      "pagina": 56,
      "total_episodios": 2,
      "link_video": "https://animefire.plus/video/aoi-umi-no-tristia"
    },
    {
      "id": 213,
      "nome": "Aoki Honoo",
      "link": "https://animefire.plus/animes/aoki-honoo-todos-os-episodios",
      "texto_original": "Aoki Honoo",
      "rating": 5.02,
      "classificacao_etaria": "A18",
      "imagem_original": "https://animefire.plus/img/animes/aoki-honoo.webp",
      "imagem_pasta": "https://animefire.plus/img/animes/aoki-honoo/",
      "secao": "legendados",
      "pagina": 65,
      "total_episodios": 1,
      "link_video": "https://animefire.plus/video/aoki-honoo"
    },
    {
      "id": 217,
      "nome": "Aquarion Logos",
      "link": "https://animefire.plus/animes/aquarion-logos-todos-os-episodios",
      "texto_original": "Aquarion Logos",
      "rating": 5.82,
      "classificacao_etaria": "A14",
      "imagem_original": "https://animefire.plus/img/animes/aquarion-logos.webp",
      "imagem_pasta": "https://animefire.plus/img/animes/aquarion-logos/",
      "secao": "legendados",
      "pagina": 152,
      "total_episodios": 4,
      "link_video": "https://animefire.plus/video/aquarion-logos"
    },
    {
      "id": 222,
      "nome": "Arata Kangatari",
      "link": "https://animefire.plus/animes/arata-kangatari-todos-os-episodios",
      "texto_original": "Arata Kangatari",
      "rating": 6.59,
      "classificacao_etaria": "A14",
      "imagem_original": "https://animefire.plus/img/animes/arata-kangatari.webp",
      "imagem_pasta": "https://animefire.plus/img/animes/arata-kangatari/",
      "secao": "legendados",
      "pagina": 168,
      "total_episodios": 1,
      "link_video": "https://animefire.plus/video/arata-kangatari"
    },
    {
      "id": 223,
      "nome": "Arc The Lad",
      "link": "https://animefire.plus/animes/arc-the-lad-todos-os-episodios",
      "texto_original": "Arc The Lad",
      "rating": 6.58,
      "classificacao_etaria": "A16",
      "imagem_original": "https://animefire.plus/img/animes/arc-the-lad.webp",
      "imagem_pasta": "https://animefire.plus/img/animes/arc-the-lad/",
      "secao": "legendados",
      "pagina": 96,
      "total_episodios": 26,
      "link_video": "https://animefire.plus/video/arc-the-lad"
    },
    {
      "id": 224,
      "nome": "Arcana Famiglia",
      "link": "https://animefire.plus/animes/arcana-famiglia-todos-os-episodios",
      "texto_original": "Arcana Famiglia",
      "rating": 6.39,
      "classificacao_etaria": "A14",
      "imagem_original": "https://animefire.plus/img/animes/arcana-famiglia.webp",
      "imagem_pasta": "https://animefire.plus/img/animes/arcana-famiglia/",
      "secao": "legendados",
      "pagina": 127,
      "total_episodios": 7,
      "link_video": "https://animefire.plus/video/arcana-famiglia"
    },
    {
      "id": 228,
      "nome": "Argento Soma",
      "link": "https://animefire.plus/animes/argento-soma-todos-os-episodios",
      "texto_original": "Argento Soma",
      "rating": 6.86,
      "classificacao_etaria": "A14",
      "imagem_original": "https://animefire.plus/img/animes/argento-soma.webp",
      "imagem_pasta": "https://animefire.plus/img/animes/argento-soma/",
      "secao": "legendados",
      "pagina": 132,
      "total_episodios": 26,
      "link_video": "https://animefire.plus/video/argento-soma"
    },
    {
      "id": 229,
      "nome": "Argonavis from BanG Dream!",
      "link": "https://animefire.plus/animes/argonavis-from-bang-dream-todos-os-episodios",
      "texto_original": "Argonavis from BanG Dream!",
      "rating": 6.76,
      "classificacao_etaria": "A14",
      "imagem_original": "https://animefire.plus/img/animes/argonavis-from-bang-dream.webp",
      "imagem_pasta": "https://animefire.plus/img/animes/argonavis-from-bang-dream/",
      "secao": "legendados",
      "pagina": 79,
      "total_episodios": 0,
      "link_video": "https://animefire.plus/video/argonavis-from-bang-dream"
    }
  ],
  "pagination": {
    "current_page": 5,
    "per_page": 20,
    "total_items": 1805,
    "total_pages": 91,
    "has_next": true,
    "has_prev": true
  }
}
