{
  "message": "Animes com rating entre 5 e 7",
  "rating_range": {
    "min": 5,
    "max": 7
  },
  "data": [
    {
      "id": 4242,
      "nome": "Yoku Wakaru Gendai Mahou",
      "link": "https://animefire.plus/animes/yoku-wakaru-gendai-mahou-todos-os-episodios",
      "texto_original": "Yoku Wakaru Gendai Mahou",
      "rating": 6.5,
      "classificacao_etaria": "A14",
      "imagem_original": "https://animefire.plus/img/animes/yoku-wakaru-gendai-mahou.webp",
      "imagem_pasta": "https://animefire.plus/img/animes/yoku-wakaru-gendai-mahou/",
      "secao": "legendados",
      "pagina": 103,
      "total_episodios": 0,
      "link_video": "https://animefire.plus/video/yoku-wakaru-gendai-mahou"
    },
    {
      "id": 4246,
      "nome": "Yoroiden Samurai Troopers Gaiden",
      "link": "https://animefire.plus/animes/yoroiden-samurai-troopers-gaiden-todos-os-episodios",
      "texto_original": "Yoroiden Samurai Troopers Gaiden",
      "rating": 6.63,
      "classificacao_etaria": "A14",
      "imagem_original": "https://animefire.plus/img/animes/yoroiden-samurai-troopers-gaiden.webp",
      "imagem_pasta": "https://animefire.plus/img/animes/yoroiden-samurai-troopers-gaiden/",
      "secao": "legendados",
      "pagina": 79,
      "total_episodios": 2,
      "link_video": "https://animefire.plus/video/yoroiden-samurai-troopers-gaiden"
    },
    {
      "id": 4247,
      "nome": "Yoroiden Samurai Troopers Kikoutei Densetsu",
      "link": "https://animefire.plus/animes/yoroiden-samurai-troopers-kikoutei-densetsu-todos-os-episodios",
      "texto_original": "Yoroiden Samurai Troopers Kikoutei Densetsu",
      "rating": 6.59,
      "classificacao_etaria": "A14",
      "imagem_original": "https://animefire.plus/img/animes/yoroiden-samurai-troopers-kikoutei-densetsu.webp",
      "imagem_pasta": "https://animefire.plus/img/animes/yoroiden-samurai-troopers-kikoutei-densetsu/",
      "secao": "legendados",
      "pagina": 79,
      "total_episodios": 4,
      "link_video": "https://animefire.plus/video/yoroiden-samurai-troopers-kikoutei-densetsu"
    },
    {
      "id": 4250,
      "nome": "Yoru no Yatterman",
      "link": "https://animefire.plus/animes/yoru-no-yatterman-todos-os-episodios",
      "texto_original": "Yoru no Yatterman",
      "rating": 6.54,
      "classificacao_etaria": "A14",
      "imagem_original": "https://animefire.plus/img/animes/yoru-no-yatterman.webp",
      "imagem_pasta": "https://animefire.plus/img/animes/yoru-no-yatterman/",
      "secao": "legendados",
      "pagina": 95,
      "total_episodios": 8,
      "link_video": "https://animefire.plus/video/yoru-no-yatterman"
    },
    {
      "id": 4251,
      "nome": "Yosuga no Sora: In Solitude, Where We Are Least Alone.",
      "link": "https://animefire.plus/animes/yosuga-no-sora-in-solitude-where-we-are-least-alone-todos-os-episodios",
      "texto_original": "Yosuga no Sora: In Solitude, Where We Are Least Alone.",
      "rating": 6.5,
      "classificacao_etaria": "A18",
      "imagem_original": "https://animefire.plus/img/animes/yosuga-no-sora-in-solitude-where-we-are-least-alone.webp",
      "imagem_pasta": "https://animefire.plus/img/animes/yosuga-no-sora-in-solitude-where-we-are-least-alone/",
      "secao": "legendados",
      "pagina": 172,
      "total_episodios": 12,
      "link_video": "https://animefire.plus/video/yosuga-no-sora-in-solitude-where-we-are-least-alone"
    },
    {
      "id": 4255,
      "nome": "Youjo Shachou",
      "link": "https://animefire.plus/animes/youjo-shachou-todos-os-episodios",
      "texto_original": "Youjo Shachou",
      "rating": 6.59,
      "classificacao_etaria": "A14",
      "imagem_original": "https://animefire.plus/img/animes/youjo-shachou.webp",
      "imagem_pasta": "https://animefire.plus/img/animes/youjo-shachou/",
      "secao": "legendados,lancamentos",
      "pagina": 48,
      "total_episodios": 1,
      "link_video": "https://animefire.plus/video/youjo-shachou"
    },
    {
      "id": 4266,
      "nome": "Your Forma",
      "link": "https://animefire.plus/animes/your-forma-todos-os-episodios",
      "texto_original": "Your Forma",
      "rating": 6.25,
      "classificacao_etaria": "A14",
      "imagem_original": "https://animefire.plus/img/animes/your-forma.webp",
      "imagem_pasta": "https://animefire.plus/img/animes/your-forma/",
      "secao": "legendados",
      "pagina": 5,
      "total_episodios": 13,
      "link_video": "https://animefire.plus/video/your-forma"
    },
    {
      "id": 4267,
      "nome": "Yowai 5000-nen no Soushoku Dragon, Iwarenaki Jaryuu Nintei",
      "link": "https://animefire.plus/animes/yowai-5000-nen-no-soushoku-dragon-iwarenaki-jaryuu-nintei-todos-os-episodios",
      "texto_original": "Yowai 5000-nen no Soushoku Dragon, Iwarenaki Jaryuu Nintei",
      "rating": 6.74,
      "classificacao_etaria": "A14",
      "imagem_original": "https://animefire.plus/img/animes/yowai-5000-nen-no-soushoku-dragon-iwarenaki-jaryuu-nintei.webp",
      "imagem_pasta": "https://animefire.plus/img/animes/yowai-5000-nen-no-soushoku-dragon-iwarenaki-jaryuu-nintei/",
      "secao": "legendados",
      "pagina": 30,
      "total_episodios": 12,
      "link_video": "https://animefire.plus/video/yowai-5000-nen-no-soushoku-dragon-iwarenaki-jaryuu-nintei"
    },
    {
      "id": 4272,
      "nome": "Yozakura Quartet",
      "link": "https://animefire.plus/animes/yozakura-quartet-todos-os-episodios",
      "texto_original": "Yozakura Quartet",
      "rating": 6.89,
      "classificacao_etaria": "A14",
      "imagem_original": "https://animefire.plus/img/animes/yozakura-quartet.webp",
      "imagem_pasta": "https://animefire.plus/img/animes/yozakura-quartet/",
      "secao": "legendados",
      "pagina": 136,
      "total_episodios": 12,
      "link_video": "https://animefire.plus/video/yozakura-quartet"
    },
    {
      "id": 4279,
      "nome": "Yu☆Gi☆Oh! VRAINS (Dublado)",
      "link": "https://animefire.plus/animes/yu-gi-oh-vrains-dublado-todos-os-episodios",
      "texto_original": "Yu☆Gi☆Oh! VRAINS (Dublado)",
      "rating": 6.64,
      "classificacao_etaria": "A14",
      "imagem_original": "https://animefire.plus/img/animes/yu-gi-oh-vrains.webp",
      "imagem_pasta": "https://animefire.plus/img/animes/yu-gi-oh-vrains/",
      "secao": "dublados",
      "pagina": 18,
      "total_episodios": 2,
      "link_video": "https://animefire.plus/video/yu-gi-oh-vrains-dublado"
    },
    {
      "id": 4280,
      "nome": "Yu☆Gi☆Oh! Zexal",
      "link": "https://animefire.plus/animes/yu-gi-oh-zexal-todos-os-episodios",
      "texto_original": "Yu☆Gi☆Oh! Zexal",
      "rating": 6.47,
      "classificacao_etaria": "A14",
      "imagem_original": "https://animefire.plus/img/animes/yu-gi-oh-zexal.webp",
      "imagem_pasta": "https://animefire.plus/img/animes/yu-gi-oh-zexal/",
      "secao": "legendados",
      "pagina": 125,
      "total_episodios": 41,
      "link_video": "https://animefire.plus/video/yu-gi-oh-zexal"
    },
    {
      "id": 4281,
      "nome": "Yu☆Gi☆Oh! Zexal Second",
      "link": "https://animefire.plus/animes/yu-gi-oh-zexal-second-todos-os-episodios",
      "texto_original": "Yu☆Gi☆Oh! Zexal Second",
      "rating": 6.88,
      "classificacao_etaria": "A14",
      "imagem_original": "https://animefire.plus/img/animes/yu-gi-oh-zexal-second.webp",
      "imagem_pasta": "https://animefire.plus/img/animes/yu-gi-oh-zexal-second/",
      "secao": "legendados",
      "pagina": 56,
      "total_episodios": 73,
      "link_video": "https://animefire.plus/video/yu-gi-oh-zexal-second"
    },
    {
      "id": 4283,
      "nome": "Yu☆Gi☆Oh!: Go Rush!!",
      "link": "https://animefire.plus/animes/yu-gi-oh-go-rush-todos-os-episodios",
      "texto_original": "Yu☆Gi☆Oh!: Go Rush!!",
      "rating": 6.17,
      "classificacao_etaria": "A14",
      "imagem_original": "https://animefire.plus/img/animes/yu-gi-oh-go-rush.webp",
      "imagem_pasta": "https://animefire.plus/img/animes/yu-gi-oh-go-rush/",
      "secao": "legendados,lancamentos",
      "pagina": 33,
      "total_episodios": 2,
      "link_video": "https://animefire.plus/video/yu-gi-oh-go-rush"
    },
    {
      "id": 4284,
      "nome": "Yu☆Gi☆Oh!: Sevens",
      "link": "https://animefire.plus/animes/yu-gi-oh-sevens-todos-os-episodios",
      "texto_original": "Yu☆Gi☆Oh!: Sevens",
      "rating": 5.4,
      "classificacao_etaria": "A14",
      "imagem_original": "https://animefire.plus/img/animes/yu-gi-oh-sevens.webp",
      "imagem_pasta": "https://animefire.plus/img/animes/yu-gi-oh-sevens/",
      "secao": "legendados,lancamentos",
      "pagina": 81,
      "total_episodios": 9,
      "link_video": "https://animefire.plus/video/yu-gi-oh-sevens"
    },
    {
      "id": 4285,
      "nome": "Yubisaki kara Honki no Netsujou 2: Koibito wa Shouboushi",
      "link": "https://animefire.plus/animes/yubisaki-kara-honki-no-netsujou-2-koibito-wa-shouboushi-todos-os-episodios",
      "texto_original": "Yubisaki kara Honki no Netsujou 2: Koibito wa Shouboushi",
      "rating": 6.31,
      "classificacao_etaria": "A18",
      "imagem_original": "https://animefire.plus/img/animes/yubisaki-kara-honki-no-netsujou-2-koibito-wa-shouboushi.webp",
      "imagem_pasta": "https://animefire.plus/img/animes/yubisaki-kara-honki-no-netsujou-2-koibito-wa-shouboushi/",
      "secao": "legendados,lancamentos",
      "pagina": 40,
      "total_episodios": 0,
      "link_video": "https://animefire.plus/video/yubisaki-kara-honki-no-netsujou-2-koibito-wa-shouboushi"
    },
    {
      "id": 4287,
      "nome": "Yume Oukoku to Nemureru 100-nin no Ouji-sama",
      "link": "https://animefire.plus/animes/yume-oukoku-to-nemureru-100-nin-no-ouji-sama-todos-os-episodios",
      "texto_original": "Yume Oukoku to Nemureru 100-nin no Ouji-sama",
      "rating": 5.99,
      "classificacao_etaria": "A14",
      "imagem_original": "https://animefire.plus/img/animes/yume-oukoku-to-nemureru-100-nin-no-ouji-sama.webp",
      "imagem_pasta": "https://animefire.plus/img/animes/yume-oukoku-to-nemureru-100-nin-no-ouji-sama/",
      "secao": "legendados",
      "pagina": 163,
      "total_episodios": 11,
      "link_video": "https://animefire.plus/video/yume-oukoku-to-nemureru-100-nin-no-ouji-sama"
    },
    {
      "id": 4288,
      "nome": "Yume Tsukai",
      "link": "https://animefire.plus/animes/yume-tsukai-todos-os-episodios",
      "texto_original": "Yume Tsukai",
      "rating": 6.49,
      "classificacao_etaria": "A10",
      "imagem_original": "https://animefire.plus/img/animes/yume-tsukai.webp",
      "imagem_pasta": "https://animefire.plus/img/animes/yume-tsukai/",
      "secao": "legendados",
      "pagina": 164,
      "total_episodios": 12,
      "link_video": "https://animefire.plus/video/yume-tsukai"
    },
    {
      "id": 4291,
      "nome": "Yumedamaya Kidan",
      "link": "https://animefire.plus/animes/yumedamaya-kidan-todos-os-episodios",
      "texto_original": "Yumedamaya Kidan",
      "rating": 6.57,
      "classificacao_etaria": "A10",
      "imagem_original": "https://animefire.plus/img/animes/yumedamaya-kidan.webp",
      "imagem_pasta": "https://animefire.plus/img/animes/yumedamaya-kidan/",
      "secao": "legendados",
      "pagina": 70,
      "total_episodios": 1,
      "link_video": "https://animefire.plus/video/yumedamaya-kidan"
    },
    {
      "id": 4293,
      "nome": "Yumemiru Danshi wa Genjitsushugisha",
      "link": "https://animefire.plus/animes/yumemiru-danshi-wa-genjitsushugisha-todos-os-episodios",
      "texto_original": "Yumemiru Danshi wa Genjitsushugisha",
      "rating": 6.62,
      "classificacao_etaria": "A14",
      "imagem_original": "https://animefire.plus/img/animes/yumemiru-danshi-wa-genjitsushugisha.jpg",
      "imagem_pasta": "https://animefire.plus/img/animes/yumemiru-danshi-wa-genjitsushugisha/",
      "secao": "legendados",
      "pagina": 22,
      "total_episodios": 12,
      "link_video": "https://animefire.plus/video/yumemiru-danshi-wa-genjitsushugisha"
    },
    {
      "id": 4294,
      "nome": "Yumeria",
      "link": "https://animefire.plus/animes/yumeria-todos-os-episodios",
      "texto_original": "Yumeria",
      "rating": 6.19,
      "classificacao_etaria": "A14",
      "imagem_original": "https://animefire.plus/img/animes/yumeria.webp",
      "imagem_pasta": "https://animefire.plus/img/animes/yumeria/",
      "secao": "legendados",
      "pagina": 133,
      "total_episodios": 12,
      "link_video": "https://animefire.plus/video/yumeria"
    }
  ],
  "pagination": {
    "current_page": 89,
    "per_page": 20,
    "total_items": 1805,
    "total_pages": 91,
    "has_next": true,
    "has_prev": true
  }
}
