{
  "message": "Animes com rating entre 5 e 7",
  "rating_range": {
    "min": 5,
    "max": 7
  },
  "data": [
    {
      "id": 629,
      "nome": "Choujin Koukousei-tachi wa Isekai demo Yoyuu de Ikinuku you desu!",
      "link": "https://animefire.plus/animes/choujin-koukousei-tachi-wa-isekai-demo-yoyuu-de-ikinuku-you-desu-todos-os-episodios",
      "texto_original": "Choujin Koukousei-tachi wa Isekai demo Yoyuu de Ikinuku you desu!",
      "rating": 6.34,
      "classificacao_etaria": "A14",
      "imagem_original": "https://animefire.plus/img/animes/choujin-koukousei-tachi-wa-isekai-demo-yoyuu-de-ikinuku-you-desu.webp",
      "imagem_pasta": "https://animefire.plus/img/animes/choujin-koukousei-tachi-wa-isekai-demo-yoyuu-de-ikinuku-you-desu/",
      "secao": "legendados",
      "pagina": 111,
      "total_episodios": 0,
      "link_video": "https://animefire.plus/video/choujin-koukousei-tachi-wa-isekai-demo-yoyuu-de-ikinuku-you-desu"
    },
    {
      "id": 630,
      "nome": "Choujuushin Gravion",
      "link": "https://animefire.plus/animes/choujuushin-gravion-todos-os-episodios",
      "texto_original": "Choujuushin Gravion",
      "rating": 6.45,
      "classificacao_etaria": "A14",
      "imagem_original": "https://animefire.plus/img/animes/choujuushin-gravion.webp",
      "imagem_pasta": "https://animefire.plus/img/animes/choujuushin-gravion/",
      "secao": "legendados",
      "pagina": 157,
      "total_episodios": 13,
      "link_video": "https://animefire.plus/video/choujuushin-gravion"
    },
    {
      "id": 631,
      "nome": "Choujuushin Gravion Zwei",
      "link": "https://animefire.plus/animes/choujuushin-gravion-zwei-todos-os-episodios",
      "texto_original": "Choujuushin Gravion Zwei",
      "rating": 6.7,
      "classificacao_etaria": "A18",
      "imagem_original": "https://animefire.plus/img/animes/choujuushin-gravion-zwei.webp",
      "imagem_pasta": "https://animefire.plus/img/animes/choujuushin-gravion-zwei/",
      "secao": "legendados",
      "pagina": 119,
      "total_episodios": 12,
      "link_video": "https://animefire.plus/video/choujuushin-gravion-zwei"
    },
    {
      "id": 632,
      "nome": "Choukadou Girl ⅙",
      "link": "https://animefire.plus/animes/choukadou-girl-todos-os-episodios",
      "texto_original": "Choukadou Girl ⅙",
      "rating": 6,
      "classificacao_etaria": "A14",
      "imagem_original": "https://animefire.plus/img/animes/choukadou-girl.webp",
      "imagem_pasta": "https://animefire.plus/img/animes/choukadou-girl/",
      "secao": "legendados",
      "pagina": 167,
      "total_episodios": 12,
      "link_video": "https://animefire.plus/video/choukadou-girl"
    },
    {
      "id": 633,
      "nome": "Chousoku Henkei Gyrozetter",
      "link": "https://animefire.plus/animes/chousoku-henkei-gyrozetter-todos-os-episodios",
      "texto_original": "Chousoku Henkei Gyrozetter",
      "rating": 6.49,
      "classificacao_etaria": null,
      "imagem_original": "https://animefire.plus/img/animes/chousoku-henkei-gyrozetter.webp",
      "imagem_pasta": "https://animefire.plus/img/animes/chousoku-henkei-gyrozetter/",
      "secao": "legendados",
      "pagina": 114,
      "total_episodios": 0,
      "link_video": "https://animefire.plus/video/chousoku-henkei-gyrozetter"
    },
    {
      "id": 636,
      "nome": "Chrno Crusade: Az demo Wakaru Chrno Crusade Kouza",
      "link": "https://animefire.plus/animes/chrno-crusade-az-demo-wakaru-chrno-crusade-kouza-todos-os-episodios",
      "texto_original": "Chrno Crusade: Az demo Wakaru Chrno Crusade Kouza",
      "rating": 6.57,
      "classificacao_etaria": "A14",
      "imagem_original": "https://animefire.plus/img/animes/chrno-crusade-az-demo-wakaru-chrno-crusade-kouza.webp",
      "imagem_pasta": "https://animefire.plus/img/animes/chrno-crusade-az-demo-wakaru-chrno-crusade-kouza/",
      "secao": "legendados",
      "pagina": 70,
      "total_episodios": 11,
      "link_video": "https://animefire.plus/video/chrno-crusade-az-demo-wakaru-chrno-crusade-kouza"
    },
    {
      "id": 638,
      "nome": "Chu Feng: B.E.E",
      "link": "https://animefire.plus/animes/chu-feng-b-e-e-todos-os-episodios",
      "texto_original": "Chu Feng: B.E.E",
      "rating": 5.99,
      "classificacao_etaria": "A16",
      "imagem_original": "https://animefire.plus/img/animes/chu-feng-b-e-e.webp",
      "imagem_pasta": "https://animefire.plus/img/animes/chu-feng-b-e-e/",
      "secao": "legendados",
      "pagina": 154,
      "total_episodios": 6,
      "link_video": "https://animefire.plus/video/chu-feng-b-e-e"
    },
    {
      "id": 639,
      "nome": "Chu-Bra!!",
      "link": "https://animefire.plus/animes/chu-bra-todos-os-episodios",
      "texto_original": "Chu-Bra!!",
      "rating": 6.28,
      "classificacao_etaria": "A18",
      "imagem_original": "https://animefire.plus/img/animes/chu-bra.webp",
      "imagem_pasta": "https://animefire.plus/img/animes/chu-bra/",
      "secao": "legendados",
      "pagina": 131,
      "total_episodios": 12,
      "link_video": "https://animefire.plus/video/chu-bra"
    },
    {
      "id": 640,
      "nome": "Chuubyou Gekihatsu Boy",
      "link": "https://animefire.plus/animes/chuubyou-gekihatsu-boy-todos-os-episodios",
      "texto_original": "Chuubyou Gekihatsu Boy",
      "rating": 6.78,
      "classificacao_etaria": "A14",
      "imagem_original": "https://animefire.plus/img/animes/chuubyou-gekihatsu-boy.webp",
      "imagem_pasta": "https://animefire.plus/img/animes/chuubyou-gekihatsu-boy/",
      "secao": "legendados",
      "pagina": 110,
      "total_episodios": 0,
      "link_video": "https://animefire.plus/video/chuubyou-gekihatsu-boy"
    },
    {
      "id": 641,
      "nome": "Chuubyou Gekihatsu Boy Special",
      "link": "https://animefire.plus/animes/chuubyou-gekihatsu-boy-special-todos-os-episodios",
      "texto_original": "Chuubyou Gekihatsu Boy Special",
      "rating": 6.83,
      "classificacao_etaria": "A14",
      "imagem_original": "https://animefire.plus/img/animes/chuubyou-gekihatsu-boy-special.webp",
      "imagem_pasta": "https://animefire.plus/img/animes/chuubyou-gekihatsu-boy-special/",
      "secao": "legendados",
      "pagina": 51,
      "total_episodios": 1,
      "link_video": "https://animefire.plus/video/chuubyou-gekihatsu-boy-special"
    },
    {
      "id": 647,
      "nome": "Chuunibyou demo Koi ga Shitai!: Depth of Field - Ai to Nikushimi Gekijou",
      "link": "https://animefire.plus/animes/chuunibyou-demo-koi-ga-shitai-depth-of-field---ai-to-nikushimi-gekijou-todos-os-episodios",
      "texto_original": "Chuunibyou demo Koi ga Shitai!: Depth of Field - Ai to Nikushimi Gekijou",
      "rating": 6.72,
      "classificacao_etaria": "A14",
      "imagem_original": "https://animefire.plus/img/animes/chuunibyou-demo-koi-ga-shitai-depth-of-field---ai-to-nikushimi-gekijou.webp",
      "imagem_pasta": "https://animefire.plus/img/animes/chuunibyou-demo-koi-ga-shitai-depth-of-field---ai-to-nikushimi-gekijou/",
      "secao": "legendados",
      "pagina": 44,
      "total_episodios": 7,
      "link_video": "https://animefire.plus/video/chuunibyou-demo-koi-ga-shitai-depth-of-field---ai-to-nikushimi-gekijou"
    },
    {
      "id": 649,
      "nome": "Chuuzenji-sensei Mononoke Kougiroku: Sensei ga Nazo wo Hodoite Shimau kara.",
      "link": "https://animefire.plus/animes/chuuzenji-sensei-mononoke-kougiroku-sensei-ga-nazo-wo-hodoite-shimau-kara-todos-os-episodios",
      "texto_original": "Chuuzenji-sensei Mononoke Kougiroku: Sensei ga Nazo wo Hodoite Shimau kara.",
      "rating": 6.52,
      "classificacao_etaria": "A14",
      "imagem_original": "https://animefire.plus/img/animes/chuuzenji-sensei-mononoke-kougiroku-sensei-ga-nazo-wo-hodoite-shimau-kara.webp",
      "imagem_pasta": "https://animefire.plus/img/animes/chuuzenji-sensei-mononoke-kougiroku-sensei-ga-nazo-wo-hodoite-shimau-kara/",
      "secao": "legendados",
      "pagina": 4,
      "total_episodios": 12,
      "link_video": "https://animefire.plus/video/chuuzenji-sensei-mononoke-kougiroku-sensei-ga-nazo-wo-hodoite-shimau-kara"
    },
    {
      "id": 650,
      "nome": "Cinderella Boy",
      "link": "https://animefire.plus/animes/cinderella-boy-todos-os-episodios",
      "texto_original": "Cinderella Boy",
      "rating": 6.35,
      "classificacao_etaria": "A14",
      "imagem_original": "https://animefire.plus/img/animes/cinderella-boy.webp",
      "imagem_pasta": "https://animefire.plus/img/animes/cinderella-boy/",
      "secao": "legendados",
      "pagina": 96,
      "total_episodios": 0,
      "link_video": "https://animefire.plus/video/cinderella-boy"
    },
    {
      "id": 651,
      "nome": "Cinderella Girls Gekijou",
      "link": "https://animefire.plus/animes/cinderella-girls-gekijou-todos-os-episodios",
      "texto_original": "Cinderella Girls Gekijou",
      "rating": 6.56,
      "classificacao_etaria": "A14",
      "imagem_original": "https://animefire.plus/img/animes/cinderella-girls-gekijou.webp",
      "imagem_pasta": "https://animefire.plus/img/animes/cinderella-girls-gekijou/",
      "secao": "legendados",
      "pagina": 63,
      "total_episodios": 52,
      "link_video": "https://animefire.plus/video/cinderella-girls-gekijou"
    },
    {
      "id": 652,
      "nome": "Cinderella Girls Gekijou 3rd Season",
      "link": "https://animefire.plus/animes/cinderella-girls-gekijou-3rd-season-todos-os-episodios",
      "texto_original": "Cinderella Girls Gekijou 3rd Season",
      "rating": 6.56,
      "classificacao_etaria": "A14",
      "imagem_original": "https://animefire.plus/img/animes/cinderella-girls-gekijou-3rd-season.webp",
      "imagem_pasta": "https://animefire.plus/img/animes/cinderella-girls-gekijou-3rd-season/",
      "secao": "legendados",
      "pagina": 177,
      "total_episodios": 13,
      "link_video": "https://animefire.plus/video/cinderella-girls-gekijou-3rd-season"
    },
    {
      "id": 654,
      "nome": "Circlet Princess",
      "link": "https://animefire.plus/animes/circlet-princess-todos-os-episodios",
      "texto_original": "Circlet Princess",
      "rating": 6,
      "classificacao_etaria": "A14",
      "imagem_original": "https://animefire.plus/img/animes/circlet-princess.webp",
      "imagem_pasta": "https://animefire.plus/img/animes/circlet-princess/",
      "secao": "legendados",
      "pagina": 111,
      "total_episodios": 12,
      "link_video": "https://animefire.plus/video/circlet-princess"
    },
    {
      "id": 655,
      "nome": "Citrus",
      "link": "https://animefire.plus/animes/citrus-todos-os-episodios",
      "texto_original": "Citrus",
      "rating": 6.77,
      "classificacao_etaria": "A14",
      "imagem_original": "https://animefire.plus/img/animes/citrus.webp",
      "imagem_pasta": "https://animefire.plus/img/animes/citrus/",
      "secao": "legendados",
      "pagina": 100,
      "total_episodios": 12,
      "link_video": "https://animefire.plus/video/citrus"
    },
    {
      "id": 659,
      "nome": "CLAMP Gakuen Tanteidan",
      "link": "https://animefire.plus/animes/clamp-gakuen-tanteidan-todos-os-episodios",
      "texto_original": "CLAMP Gakuen Tanteidan",
      "rating": 6.98,
      "classificacao_etaria": null,
      "imagem_original": "https://animefire.plus/img/animes/clamp-gakuen-tanteidan.webp",
      "imagem_pasta": "https://animefire.plus/img/animes/clamp-gakuen-tanteidan/",
      "secao": "legendados",
      "pagina": 96,
      "total_episodios": 26,
      "link_video": "https://animefire.plus/video/clamp-gakuen-tanteidan"
    },
    {
      "id": 662,
      "nome": "Class no Daikirai na Joshi to Kekkon suru Koto ni Natta.",
      "link": "https://animefire.plus/animes/class-no-daikirai-na-joshi-to-kekkon-suru-koto-ni-natta-todos-os-episodios",
      "texto_original": "Class no Daikirai na Joshi to Kekkon suru Koto ni Natta.",
      "rating": 6.77,
      "classificacao_etaria": "A14",
      "imagem_original": "https://animefire.plus/img/animes/class-no-daikirai-na-joshi-to-kekkon-suru-koto-ni-natta.webp",
      "imagem_pasta": "https://animefire.plus/img/animes/class-no-daikirai-na-joshi-to-kekkon-suru-koto-ni-natta/",
      "secao": "legendados",
      "pagina": 8,
      "total_episodios": 12,
      "link_video": "https://animefire.plus/video/class-no-daikirai-na-joshi-to-kekkon-suru-koto-ni-natta"
    },
    {
      "id": 663,
      "nome": "Classic★Stars",
      "link": "https://animefire.plus/animes/classic-stars-todos-os-episodios",
      "texto_original": "Classic★Stars",
      "rating": 5.66,
      "classificacao_etaria": "A14",
      "imagem_original": "https://animefire.plus/img/animes/classic-stars.webp",
      "imagem_pasta": "https://animefire.plus/img/animes/classic-stars/",
      "secao": "legendados",
      "pagina": 4,
      "total_episodios": 13,
      "link_video": "https://animefire.plus/video/classic-stars"
    }
  ],
  "pagination": {
    "current_page": 16,
    "per_page": 20,
    "total_items": 1805,
    "total_pages": 91,
    "has_next": true,
    "has_prev": true
  }
}
