{
  "message": "Animes com rating entre 5 e 7",
  "rating_range": {
    "min": 5,
    "max": 7
  },
  "data": [
    {
      "id": 3130,
      "nome": "Rinne no Lagrange",
      "link": "https://animefire.plus/animes/rinne-no-lagrange-todos-os-episodios",
      "texto_original": "Rinne no Lagrange",
      "rating": 6.97,
      "classificacao_etaria": "A14",
      "imagem_original": "https://animefire.plus/img/animes/rinne-no-lagrange.webp",
      "imagem_pasta": "https://animefire.plus/img/animes/rinne-no-lagrange/",
      "secao": "legendados",
      "pagina": 153,
      "total_episodios": 12,
      "link_video": "https://animefire.plus/video/rinne-no-lagrange"
    },
    {
      "id": 3132,
      "nome": "Rinne no Lagrange: Kamogawa Days",
      "link": "https://animefire.plus/animes/rinne-no-lagrange-kamogawa-days-todos-os-episodios",
      "texto_original": "Rinne no Lagrange: Kamogawa Days",
      "rating": 6.82,
      "classificacao_etaria": "A14",
      "imagem_original": "https://animefire.plus/img/animes/rinne-no-lagrange-kamogawa-days.webp",
      "imagem_pasta": "https://animefire.plus/img/animes/rinne-no-lagrange-kamogawa-days/",
      "secao": "legendados",
      "pagina": 71,
      "total_episodios": 1,
      "link_video": "https://animefire.plus/video/rinne-no-lagrange-kamogawa-days"
    },
    {
      "id": 3133,
      "nome": "Rinshi!! Ekoda-chan",
      "link": "https://animefire.plus/animes/rinshi-ekoda-chan-todos-os-episodios",
      "texto_original": "Rinshi!! Ekoda-chan",
      "rating": 5.53,
      "classificacao_etaria": "A14",
      "imagem_original": "https://animefire.plus/img/animes/rinshi-ekoda-chan.webp",
      "imagem_pasta": "https://animefire.plus/img/animes/rinshi-ekoda-chan/",
      "secao": "legendados",
      "pagina": 109,
      "total_episodios": 12,
      "link_video": "https://animefire.plus/video/rinshi-ekoda-chan"
    },
    {
      "id": 3134,
      "nome": "Rio: Rainbow Gate!",
      "link": "https://animefire.plus/animes/rio-rainbow-gate-todos-os-episodios",
      "texto_original": "Rio: Rainbow Gate!",
      "rating": 5.96,
      "classificacao_etaria": "A14",
      "imagem_original": "https://animefire.plus/img/animes/rio-rainbow-gate.webp",
      "imagem_pasta": "https://animefire.plus/img/animes/rio-rainbow-gate/",
      "secao": "legendados",
      "pagina": 132,
      "total_episodios": 12,
      "link_video": "https://animefire.plus/video/rio-rainbow-gate"
    },
    {
      "id": 3136,
      "nome": "Rizelmine",
      "link": "https://animefire.plus/animes/rizelmine-todos-os-episodios",
      "texto_original": "Rizelmine",
      "rating": 6.6,
      "classificacao_etaria": "A18",
      "imagem_original": "https://animefire.plus/img/animes/rizelmine.webp",
      "imagem_pasta": "https://animefire.plus/img/animes/rizelmine/",
      "secao": "legendados",
      "pagina": 115,
      "total_episodios": 24,
      "link_video": "https://animefire.plus/video/rizelmine"
    },
    {
      "id": 3137,
      "nome": "Ro-Kyu-Bu!",
      "link": "https://animefire.plus/animes/ro-kyu-bu-todos-os-episodios",
      "texto_original": "Ro-Kyu-Bu!",
      "rating": 6.95,
      "classificacao_etaria": "A14",
      "imagem_original": "https://animefire.plus/img/animes/ro-kyu-bu.webp",
      "imagem_pasta": "https://animefire.plus/img/animes/ro-kyu-bu/",
      "secao": "legendados",
      "pagina": 133,
      "total_episodios": 1,
      "link_video": "https://animefire.plus/video/ro-kyu-bu"
    },
    {
      "id": 3140,
      "nome": "RobiHachi",
      "link": "https://animefire.plus/animes/robihachi-todos-os-episodios",
      "texto_original": "RobiHachi",
      "rating": 6.51,
      "classificacao_etaria": "A14",
      "imagem_original": "https://animefire.plus/img/animes/robihachi.webp",
      "imagem_pasta": "https://animefire.plus/img/animes/robihachi/",
      "secao": "legendados",
      "pagina": 150,
      "total_episodios": 0,
      "link_video": "https://animefire.plus/video/robihachi"
    },
    {
      "id": 3141,
      "nome": "RoboMasters the Animated Series",
      "link": "https://animefire.plus/animes/robomasters-the-animated-series-todos-os-episodios",
      "texto_original": "RoboMasters the Animated Series",
      "rating": 6.57,
      "classificacao_etaria": "A14",
      "imagem_original": "https://animefire.plus/img/animes/robomasters-the-animated-series.webp",
      "imagem_pasta": "https://animefire.plus/img/animes/robomasters-the-animated-series/",
      "secao": "legendados",
      "pagina": 172,
      "total_episodios": 6,
      "link_video": "https://animefire.plus/video/robomasters-the-animated-series"
    },
    {
      "id": 3147,
      "nome": "Rokudou no Onna-tachi",
      "link": "https://animefire.plus/animes/rokudou-no-onna-tachi-todos-os-episodios",
      "texto_original": "Rokudou no Onna-tachi",
      "rating": 6.41,
      "classificacao_etaria": "A14",
      "imagem_original": "https://animefire.plus/img/animes/rokudou-no-onna-tachi.jpg",
      "imagem_pasta": "https://animefire.plus/img/animes/rokudou-no-onna-tachi/",
      "secao": "legendados",
      "pagina": 24,
      "total_episodios": 12,
      "link_video": "https://animefire.plus/video/rokudou-no-onna-tachi"
    },
    {
      "id": 3150,
      "nome": "Rolling☆Girls",
      "link": "https://animefire.plus/animes/rolling-girls-todos-os-episodios",
      "texto_original": "Rolling☆Girls",
      "rating": 6.6,
      "classificacao_etaria": "A14",
      "imagem_original": "https://animefire.plus/img/animes/rolling-girls.webp",
      "imagem_pasta": "https://animefire.plus/img/animes/rolling-girls/",
      "secao": "legendados",
      "pagina": 56,
      "total_episodios": 12,
      "link_video": "https://animefire.plus/video/rolling-girls"
    },
    {
      "id": 3152,
      "nome": "Romantica Clock",
      "link": "https://animefire.plus/animes/romantica-clock-todos-os-episodios",
      "texto_original": "Romantica Clock",
      "rating": 5.72,
      "classificacao_etaria": null,
      "imagem_original": "https://animefire.plus/img/animes/romantica-clock.webp",
      "imagem_pasta": "https://animefire.plus/img/animes/romantica-clock/",
      "secao": "legendados",
      "pagina": 43,
      "total_episodios": 3,
      "link_video": "https://animefire.plus/video/romantica-clock"
    },
    {
      "id": 3158,
      "nome": "Rougo ni Sonaete Isekai de 8-manmai no Kinka wo Tamemasu (Dublado)",
      "link": "https://animefire.plus/animes/rougo-ni-sonaete-isekai-de-8-manmai-no-kinka-wo-tamemasu-dublado-todos-os-episodios",
      "texto_original": "Rougo ni Sonaete Isekai de 8-manmai no Kinka wo Tamemasu (Dublado)",
      "rating": 6.94,
      "classificacao_etaria": "A14",
      "imagem_original": "https://animefire.plus/img/animes/rougo-ni-sonaete-isekai-de-8-manmai-no-kinka-wo-tamemasu.webp",
      "imagem_pasta": "https://animefire.plus/img/animes/rougo-ni-sonaete-isekai-de-8-manmai-no-kinka-wo-tamemasu/",
      "secao": "dublados,legendados",
      "pagina": 5,
      "total_episodios": 12,
      "link_video": "https://animefire.plus/video/rougo-ni-sonaete-isekai-de-8-manmai-no-kinka-wo-tamemasu-dublado"
    },
    {
      "id": 3162,
      "nome": "RPG Fudousan",
      "link": "https://animefire.plus/animes/rpg-fudousan-todos-os-episodios",
      "texto_original": "RPG Fudousan",
      "rating": 6.69,
      "classificacao_etaria": "A14",
      "imagem_original": "https://animefire.plus/img/animes/rpg-fudousan.webp",
      "imagem_pasta": "https://animefire.plus/img/animes/rpg-fudousan/",
      "secao": "legendados",
      "pagina": 34,
      "total_episodios": 12,
      "link_video": "https://animefire.plus/video/rpg-fudousan"
    },
    {
      "id": 3169,
      "nome": "RWBY: Hyousetsu Teikoku",
      "link": "https://animefire.plus/animes/rwby-hyousetsu-teikoku-todos-os-episodios",
      "texto_original": "RWBY: Hyousetsu Teikoku",
      "rating": 6.35,
      "classificacao_etaria": "A14",
      "imagem_original": "https://animefire.plus/img/animes/rwby-hyousetsu-teikoku.webp",
      "imagem_pasta": "https://animefire.plus/img/animes/rwby-hyousetsu-teikoku/",
      "secao": "legendados",
      "pagina": 32,
      "total_episodios": 12,
      "link_video": "https://animefire.plus/video/rwby-hyousetsu-teikoku"
    },
    {
      "id": 3175,
      "nome": "Ryuusei Sentai Musumet (Dublado)",
      "link": "https://animefire.plus/animes/ryuusei-sentai-musumet-dublado-todos-os-episodios",
      "texto_original": "Ryuusei Sentai Musumet (Dublado)",
      "rating": 5.94,
      "classificacao_etaria": "A16",
      "imagem_original": "https://animefire.plus/img/animes/ryuusei-sentai-musumet.webp",
      "imagem_pasta": "https://animefire.plus/img/animes/ryuusei-sentai-musumet/",
      "secao": "dublados",
      "pagina": 26,
      "total_episodios": 0,
      "link_video": "https://animefire.plus/video/ryuusei-sentai-musumet-dublado"
    },
    {
      "id": 3176,
      "nome": "Ryuuseiki Gakusaver",
      "link": "https://animefire.plus/animes/ryuuseiki-gakusaver-todos-os-episodios",
      "texto_original": "Ryuuseiki Gakusaver",
      "rating": 6.49,
      "classificacao_etaria": "A14",
      "imagem_original": "https://animefire.plus/img/animes/ryuuseiki-gakusaver.webp",
      "imagem_pasta": "https://animefire.plus/img/animes/ryuuseiki-gakusaver/",
      "secao": "legendados",
      "pagina": 56,
      "total_episodios": 6,
      "link_video": "https://animefire.plus/video/ryuuseiki-gakusaver"
    },
    {
      "id": 3177,
      "nome": "Ryza no Atelier: Tokoyami no Joou to Himitsu no Kakurega",
      "link": "https://animefire.plus/animes/ryza-no-atelier-tokoyami-no-joou-to-himitsu-no-kakurega-todos-os-episodios",
      "texto_original": "Ryza no Atelier: Tokoyami no Joou to Himitsu no Kakurega",
      "rating": 6.41,
      "classificacao_etaria": "A14",
      "imagem_original": "https://animefire.plus/img/animes/ryza-no-atelier-tokoyami-no-joou-to-himitsu-no-kakurega.jpg",
      "imagem_pasta": "https://animefire.plus/img/animes/ryza-no-atelier-tokoyami-no-joou-to-himitsu-no-kakurega/",
      "secao": "legendados",
      "pagina": 23,
      "total_episodios": 12,
      "link_video": "https://animefire.plus/video/ryza-no-atelier-tokoyami-no-joou-to-himitsu-no-kakurega"
    },
    {
      "id": 3178,
      "nome": "S-Rank Monster no \"Behemoth\" dakedo, Neko to Machigawarete Elf Musume no Pet toshite Kurashitemasu",
      "link": "https://animefire.plus/animes/s-rank-monster-no-behemoth-dakedo-neko-to-machigawarete-elf-musume-no-pet-toshite-kurashitemasu-todos-os-episodios",
      "texto_original": "S-Rank Monster no \"Behemoth\" dakedo, Neko to Machigawarete Elf Musume no Pet toshite Kurashitemasu",
      "rating": 5.79,
      "classificacao_etaria": "A18",
      "imagem_original": "https://animefire.plus/img/animes/s-rank-monster-no-behemoth-dakedo-neko-to-machigawarete-elf-musume-no-pet-toshite-kurashitemasu.webp",
      "imagem_pasta": "https://animefire.plus/img/animes/s-rank-monster-no-behemoth-dakedo-neko-to-machigawarete-elf-musume-no-pet-toshite-kurashitemasu/",
      "secao": "legendados",
      "pagina": 8,
      "total_episodios": 12,
      "link_video": "https://animefire.plus/video/s-rank-monster-no-behemoth-dakedo-neko-to-machigawarete-elf-musume-no-pet-toshite-kurashitemasu"
    },
    {
      "id": 3185,
      "nome": "Sacred Seven",
      "link": "https://animefire.plus/animes/sacred-seven-todos-os-episodios",
      "texto_original": "Sacred Seven",
      "rating": 6.7,
      "classificacao_etaria": "A14",
      "imagem_original": "https://animefire.plus/img/animes/sacred-seven.webp",
      "imagem_pasta": "https://animefire.plus/img/animes/sacred-seven/",
      "secao": "legendados",
      "pagina": 149,
      "total_episodios": 12,
      "link_video": "https://animefire.plus/video/sacred-seven"
    },
    {
      "id": 3188,
      "nome": "Saihate no Paladin (Dublado)",
      "link": "https://animefire.plus/animes/saihate-no-paladin-dublado-todos-os-episodios",
      "texto_original": "Saihate no Paladin (Dublado)",
      "rating": 6.88,
      "classificacao_etaria": "A14",
      "imagem_original": "https://animefire.plus/img/animes/saihate-no-paladin.webp",
      "imagem_pasta": "https://animefire.plus/img/animes/saihate-no-paladin/",
      "secao": "dublados,legendados",
      "pagina": 14,
      "total_episodios": 12,
      "link_video": "https://animefire.plus/video/saihate-no-paladin-dublado"
    }
  ],
  "pagination": {
    "current_page": 67,
    "per_page": 20,
    "total_items": 1805,
    "total_pages": 91,
    "has_next": true,
    "has_prev": true
  }
}
