{
  "message": "Animes com rating entre 5 e 7",
  "rating_range": {
    "min": 5,
    "max": 7
  },
  "data": [
    {
      "id": 4010,
      "nome": "Ultraman (Dublado)",
      "link": "https://animefire.plus/animes/ultraman-dublado-todos-os-episodios",
      "texto_original": "Ultraman (Dublado)",
      "rating": 6.78,
      "classificacao_etaria": "A16",
      "imagem_original": "https://animefire.plus/img/animes/ultraman.webp",
      "imagem_pasta": "https://animefire.plus/img/animes/ultraman/",
      "secao": "dublados",
      "pagina": 23,
      "total_episodios": 13,
      "link_video": "https://animefire.plus/video/ultraman-dublado"
    },
    {
      "id": 4011,
      "nome": "Ultraviolet: Code 044",
      "link": "https://animefire.plus/animes/ultraviolet-code-044-todos-os-episodios",
      "texto_original": "Ultraviolet: Code 044",
      "rating": 5.98,
      "classificacao_etaria": "A16",
      "imagem_original": "https://animefire.plus/img/animes/ultraviolet-code-044.webp",
      "imagem_pasta": "https://animefire.plus/img/animes/ultraviolet-code-044/",
      "secao": "legendados",
      "pagina": 175,
      "total_episodios": 12,
      "link_video": "https://animefire.plus/video/ultraviolet-code-044"
    },
    {
      "id": 4012,
      "nome": "Ulysses: Jehanne Darc to Renkin no Kishi",
      "link": "https://animefire.plus/animes/ulysses-jehanne-darc-to-renkin-no-kishi-todos-os-episodios",
      "texto_original": "Ulysses: Jehanne Darc to Renkin no Kishi",
      "rating": 5.51,
      "classificacao_etaria": "A14",
      "imagem_original": "https://animefire.plus/img/animes/ulysses-jehanne-darc-to-renkin-no-kishi.webp",
      "imagem_pasta": "https://animefire.plus/img/animes/ulysses-jehanne-darc-to-renkin-no-kishi/",
      "secao": "legendados",
      "pagina": 143,
      "total_episodios": 12,
      "link_video": "https://animefire.plus/video/ulysses-jehanne-darc-to-renkin-no-kishi"
    },
    {
      "id": 4019,
      "nome": "Umi Monogatari: Anata ga Ite Kureta Koto",
      "link": "https://animefire.plus/animes/umi-monogatari-anata-ga-ite-kureta-koto-todos-os-episodios",
      "texto_original": "Umi Monogatari: Anata ga Ite Kureta Koto",
      "rating": 6.71,
      "classificacao_etaria": "A14",
      "imagem_original": "https://animefire.plus/img/animes/umi-monogatari-anata-ga-ite-kureta-koto.webp",
      "imagem_pasta": "https://animefire.plus/img/animes/umi-monogatari-anata-ga-ite-kureta-koto/",
      "secao": "legendados",
      "pagina": 149,
      "total_episodios": 12,
      "link_video": "https://animefire.plus/video/umi-monogatari-anata-ga-ite-kureta-koto"
    },
    {
      "id": 4024,
      "nome": "Under Ninja",
      "link": "https://animefire.plus/animes/under-ninja-todos-os-episodios",
      "texto_original": "Under Ninja",
      "rating": 6.92,
      "classificacao_etaria": "A16",
      "imagem_original": "https://animefire.plus/img/animes/under-ninja.webp",
      "imagem_pasta": "https://animefire.plus/img/animes/under-ninja/",
      "secao": "legendados",
      "pagina": 20,
      "total_episodios": 12,
      "link_video": "https://animefire.plus/video/under-ninja"
    },
    {
      "id": 4026,
      "nome": "UniteUp! Uni:Birth",
      "link": "https://animefire.plus/animes/uniteup-uni-birth-todos-os-episodios",
      "texto_original": "UniteUp! Uni:Birth",
      "rating": 6.75,
      "classificacao_etaria": "A14",
      "imagem_original": "https://animefire.plus/img/animes/uniteup-uni-birth.webp",
      "imagem_pasta": "https://animefire.plus/img/animes/uniteup-uni-birth/",
      "secao": "legendados,lancamentos",
      "pagina": 7,
      "total_episodios": 13,
      "link_video": "https://animefire.plus/video/uniteup-uni-birth"
    },
    {
      "id": 4027,
      "nome": "Unnamed Memory",
      "link": "https://animefire.plus/animes/unnamed-memory-todos-os-episodios",
      "texto_original": "Unnamed Memory",
      "rating": 6.77,
      "classificacao_etaria": "A14",
      "imagem_original": "https://animefire.plus/img/animes/unnamed-memory.webp",
      "imagem_pasta": "https://animefire.plus/img/animes/unnamed-memory/",
      "secao": "legendados",
      "pagina": 15,
      "total_episodios": 12,
      "link_video": "https://animefire.plus/video/unnamed-memory"
    },
    {
      "id": 4029,
      "nome": "Upotte!!",
      "link": "https://animefire.plus/animes/upotte-todos-os-episodios",
      "texto_original": "Upotte!!",
      "rating": 6.55,
      "classificacao_etaria": "A14",
      "imagem_original": "https://animefire.plus/img/animes/upotte.webp",
      "imagem_pasta": "https://animefire.plus/img/animes/upotte/",
      "secao": "legendados",
      "pagina": 91,
      "total_episodios": 0,
      "link_video": "https://animefire.plus/video/upotte"
    },
    {
      "id": 4032,
      "nome": "Urahara",
      "link": "https://animefire.plus/animes/urahara-todos-os-episodios",
      "texto_original": "Urahara",
      "rating": 5.82,
      "classificacao_etaria": "A14",
      "imagem_original": "https://animefire.plus/img/animes/urahara.webp",
      "imagem_pasta": "https://animefire.plus/img/animes/urahara/",
      "secao": "legendados",
      "pagina": 73,
      "total_episodios": 12,
      "link_video": "https://animefire.plus/video/urahara"
    },
    {
      "id": 4035,
      "nome": "Urasekai Picnic",
      "link": "https://animefire.plus/animes/urasekai-picnic-todos-os-episodios",
      "texto_original": "Urasekai Picnic",
      "rating": 6.66,
      "classificacao_etaria": "A16",
      "imagem_original": "https://animefire.plus/img/animes/urasekai-picnic.webp",
      "imagem_pasta": "https://animefire.plus/img/animes/urasekai-picnic/",
      "secao": "legendados",
      "pagina": 49,
      "total_episodios": 12,
      "link_video": "https://animefire.plus/video/urasekai-picnic"
    },
    {
      "id": 4036,
      "nome": "Urashimasakatasen no Nichijou",
      "link": "https://animefire.plus/animes/urashimasakatasen-no-nichijou-todos-os-episodios",
      "texto_original": "Urashimasakatasen no Nichijou",
      "rating": 5.96,
      "classificacao_etaria": "A14",
      "imagem_original": "https://animefire.plus/img/animes/urashimasakatasen-no-nichijou.webp",
      "imagem_pasta": "https://animefire.plus/img/animes/urashimasakatasen-no-nichijou/",
      "secao": "legendados",
      "pagina": 111,
      "total_episodios": 0,
      "link_video": "https://animefire.plus/video/urashimasakatasen-no-nichijou"
    },
    {
      "id": 4037,
      "nome": "Urawa no Usagi-chan",
      "link": "https://animefire.plus/animes/urawa-no-usagi-chan-todos-os-episodios",
      "texto_original": "Urawa no Usagi-chan",
      "rating": 5.4,
      "classificacao_etaria": "A10",
      "imagem_original": "https://animefire.plus/img/animes/urawa-no-usagi-chan.webp",
      "imagem_pasta": "https://animefire.plus/img/animes/urawa-no-usagi-chan/",
      "secao": "legendados",
      "pagina": 67,
      "total_episodios": 12,
      "link_video": "https://animefire.plus/video/urawa-no-usagi-chan"
    },
    {
      "id": 4042,
      "nome": "Usagi-chan de Cue!!",
      "link": "https://animefire.plus/animes/usagi-chan-de-cue-todos-os-episodios",
      "texto_original": "Usagi-chan de Cue!!",
      "rating": 5.7,
      "classificacao_etaria": "A18",
      "imagem_original": "https://animefire.plus/img/animes/usagi-chan-de-cue.webp",
      "imagem_pasta": "https://animefire.plus/img/animes/usagi-chan-de-cue/",
      "secao": "legendados",
      "pagina": 69,
      "total_episodios": 3,
      "link_video": "https://animefire.plus/video/usagi-chan-de-cue"
    },
    {
      "id": 4043,
      "nome": "Usakame",
      "link": "https://animefire.plus/animes/usakame-todos-os-episodios",
      "texto_original": "Usakame",
      "rating": 5.83,
      "classificacao_etaria": "A14",
      "imagem_original": "https://animefire.plus/img/animes/usakame.webp",
      "imagem_pasta": "https://animefire.plus/img/animes/usakame/",
      "secao": "legendados",
      "pagina": 159,
      "total_episodios": 9,
      "link_video": "https://animefire.plus/video/usakame"
    },
    {
      "id": 4044,
      "nome": "Ushinawareta Mirai wo Motomete",
      "link": "https://animefire.plus/animes/ushinawareta-mirai-wo-motomete-todos-os-episodios",
      "texto_original": "Ushinawareta Mirai wo Motomete",
      "rating": 6.83,
      "classificacao_etaria": "A14",
      "imagem_original": "https://animefire.plus/img/animes/ushinawareta-mirai-wo-motomete.webp",
      "imagem_pasta": "https://animefire.plus/img/animes/ushinawareta-mirai-wo-motomete/",
      "secao": "legendados",
      "pagina": 148,
      "total_episodios": 2,
      "link_video": "https://animefire.plus/video/ushinawareta-mirai-wo-motomete"
    },
    {
      "id": 4047,
      "nome": "Uta Kata",
      "link": "https://animefire.plus/animes/uta-kata-todos-os-episodios",
      "texto_original": "Uta Kata",
      "rating": 6.8,
      "classificacao_etaria": "A14",
      "imagem_original": "https://animefire.plus/img/animes/uta-kata.webp",
      "imagem_pasta": "https://animefire.plus/img/animes/uta-kata/",
      "secao": "legendados",
      "pagina": 120,
      "total_episodios": 13,
      "link_video": "https://animefire.plus/video/uta-kata"
    },
    {
      "id": 4050,
      "nome": "Utagoe wa Mille-Feuille",
      "link": "https://animefire.plus/animes/utagoe-wa-mille-feuille-todos-os-episodios",
      "texto_original": "Utagoe wa Mille-Feuille",
      "rating": 6.1,
      "classificacao_etaria": "A14",
      "imagem_original": "https://animefire.plus/img/animes/utagoe-wa-mille-feuille.webp",
      "imagem_pasta": "https://animefire.plus/img/animes/utagoe-wa-mille-feuille/",
      "secao": "legendados,lancamentos",
      "pagina": 1,
      "total_episodios": 0,
      "link_video": "https://animefire.plus/video/utagoe-wa-mille-feuille"
    },
    {
      "id": 4054,
      "nome": "Utawarerumono: Tusukuru-koujo no Karei Naru Hibi",
      "link": "https://animefire.plus/animes/utawarerumono-tusukuru-koujo-no-karei-naru-hibi-todos-os-episodios",
      "texto_original": "Utawarerumono: Tusukuru-koujo no Karei Naru Hibi",
      "rating": 6.74,
      "classificacao_etaria": "A14",
      "imagem_original": "https://animefire.plus/img/animes/utawarerumono-tusukuru-koujo-no-karei-naru-hibi.webp",
      "imagem_pasta": "https://animefire.plus/img/animes/utawarerumono-tusukuru-koujo-no-karei-naru-hibi/",
      "secao": "legendados",
      "pagina": 83,
      "total_episodios": 1,
      "link_video": "https://animefire.plus/video/utawarerumono-tusukuru-koujo-no-karei-naru-hibi"
    },
    {
      "id": 4055,
      "nome": "Uzaki-chan wa Asobitai! (Dublado)",
      "link": "https://animefire.plus/animes/uzaki-chan-wa-asobitai-dublado-todos-os-episodios",
      "texto_original": "Uzaki-chan wa Asobitai! (Dublado)",
      "rating": 7,
      "classificacao_etaria": "A14",
      "imagem_original": "https://animefire.plus/img/animes/uzaki-chan-wa-asobitai.webp",
      "imagem_pasta": "https://animefire.plus/img/animes/uzaki-chan-wa-asobitai/",
      "secao": "dublados,legendados",
      "pagina": 9,
      "total_episodios": 12,
      "link_video": "https://animefire.plus/video/uzaki-chan-wa-asobitai-dublado"
    },
    {
      "id": 4057,
      "nome": "Uzumaki (Dublado)",
      "link": "https://animefire.plus/animes/uzumaki-dublado-todos-os-episodios",
      "texto_original": "Uzumaki (Dublado)",
      "rating": 5.72,
      "classificacao_etaria": "A16",
      "imagem_original": "https://animefire.plus/img/animes/uzumaki.webp",
      "imagem_pasta": "https://animefire.plus/img/animes/uzumaki/",
      "secao": "dublados,legendados",
      "pagina": 2,
      "total_episodios": 4,
      "link_video": "https://animefire.plus/video/uzumaki-dublado"
    }
  ],
  "pagination": {
    "current_page": 84,
    "per_page": 20,
    "total_items": 1805,
    "total_pages": 91,
    "has_next": true,
    "has_prev": true
  }
}
