{
  "message": "Animes com rating entre 5 e 7",
  "rating_range": {
    "min": 5,
    "max": 7
  },
  "data": [
    {
      "id": 3097,
      "nome": "Rebirth",
      "link": "https://animefire.plus/animes/rebirth-todos-os-episodios",
      "texto_original": "Rebirth",
      "rating": 5.37,
      "classificacao_etaria": "A14",
      "imagem_original": "https://animefire.plus/img/animes/rebirth.webp",
      "imagem_pasta": "https://animefire.plus/img/animes/rebirth/",
      "secao": "legendados,lancamentos",
      "pagina": 92,
      "total_episodios": 0,
      "link_video": "https://animefire.plus/video/rebirth"
    },
    {
      "id": 3098,
      "nome": "Recorder to Randoseru Do♪",
      "link": "https://animefire.plus/animes/recorder-to-randoseru-do-todos-os-episodios",
      "texto_original": "Recorder to Randoseru Do♪",
      "rating": 6.75,
      "classificacao_etaria": "A14",
      "imagem_original": "https://animefire.plus/img/animes/recorder-to-randoseru-do.webp",
      "imagem_pasta": "https://animefire.plus/img/animes/recorder-to-randoseru-do/",
      "secao": "legendados",
      "pagina": 117,
      "total_episodios": 0,
      "link_video": "https://animefire.plus/video/recorder-to-randoseru-do"
    },
    {
      "id": 3099,
      "nome": "Recorder to Randoseru Mi☆",
      "link": "https://animefire.plus/animes/recorder-to-randoseru-mi-todos-os-episodios",
      "texto_original": "Recorder to Randoseru Mi☆",
      "rating": 6.75,
      "classificacao_etaria": "A14",
      "imagem_original": "https://animefire.plus/img/animes/recorder-to-randoseru-mi.webp",
      "imagem_pasta": "https://animefire.plus/img/animes/recorder-to-randoseru-mi/",
      "secao": "legendados",
      "pagina": 174,
      "total_episodios": 12,
      "link_video": "https://animefire.plus/video/recorder-to-randoseru-mi"
    },
    {
      "id": 3100,
      "nome": "Recorder To Randoseru Re♪",
      "link": "https://animefire.plus/animes/recorder-to-randoseru-re-todos-os-episodios",
      "texto_original": "Recorder To Randoseru Re♪",
      "rating": 6.93,
      "classificacao_etaria": "A14",
      "imagem_original": "https://animefire.plus/img/animes/recorder-to-randoseru-re.webp",
      "imagem_pasta": "https://animefire.plus/img/animes/recorder-to-randoseru-re/",
      "secao": "legendados",
      "pagina": 100,
      "total_episodios": 0,
      "link_video": "https://animefire.plus/video/recorder-to-randoseru-re"
    },
    {
      "id": 3102,
      "nome": "Regalia: The Three Sacred Stars",
      "link": "https://animefire.plus/animes/regalia-the-three-sacred-stars-todos-os-episodios",
      "texto_original": "Regalia: The Three Sacred Stars",
      "rating": 6.02,
      "classificacao_etaria": "A14",
      "imagem_original": "https://animefire.plus/img/animes/regalia-the-three-sacred-stars.webp",
      "imagem_pasta": "https://animefire.plus/img/animes/regalia-the-three-sacred-stars/",
      "secao": "legendados",
      "pagina": 172,
      "total_episodios": 0,
      "link_video": "https://animefire.plus/video/regalia-the-three-sacred-stars"
    },
    {
      "id": 3108,
      "nome": "Relic Armor Legaciam",
      "link": "https://animefire.plus/animes/relic-armor-legaciam-todos-os-episodios",
      "texto_original": "Relic Armor Legaciam",
      "rating": 5.66,
      "classificacao_etaria": "A14",
      "imagem_original": "https://animefire.plus/img/animes/relic-armor-legaciam.webp",
      "imagem_pasta": "https://animefire.plus/img/animes/relic-armor-legaciam/",
      "secao": "legendados",
      "pagina": 70,
      "total_episodios": 1,
      "link_video": "https://animefire.plus/video/relic-armor-legaciam"
    },
    {
      "id": 3111,
      "nome": "Renai Boukun",
      "link": "https://animefire.plus/animes/renai-boukun-todos-os-episodios",
      "texto_original": "Renai Boukun",
      "rating": 6.86,
      "classificacao_etaria": "A14",
      "imagem_original": "https://animefire.plus/img/animes/renai-boukun.webp",
      "imagem_pasta": "https://animefire.plus/img/animes/renai-boukun/",
      "secao": "legendados",
      "pagina": 143,
      "total_episodios": 12,
      "link_video": "https://animefire.plus/video/renai-boukun"
    },
    {
      "id": 3112,
      "nome": "Renai Flops",
      "link": "https://animefire.plus/animes/renai-flops-todos-os-episodios",
      "texto_original": "Renai Flops",
      "rating": 6.7,
      "classificacao_etaria": "A18",
      "imagem_original": "https://animefire.plus/img/animes/renai-flops.webp",
      "imagem_pasta": "https://animefire.plus/img/animes/renai-flops/",
      "secao": "legendados",
      "pagina": 29,
      "total_episodios": 12,
      "link_video": "https://animefire.plus/video/renai-flops"
    },
    {
      "id": 3113,
      "nome": "Renkin San-kyuu Magical? Pokaan",
      "link": "https://animefire.plus/animes/renkin-san-kyuu-magical-pokaan-todos-os-episodios",
      "texto_original": "Renkin San-kyuu Magical? Pokaan",
      "rating": 7,
      "classificacao_etaria": "A18",
      "imagem_original": "https://animefire.plus/img/animes/renkin-san-kyuu-magical-pokaan.webp",
      "imagem_pasta": "https://animefire.plus/img/animes/renkin-san-kyuu-magical-pokaan/",
      "secao": "legendados",
      "pagina": 65,
      "total_episodios": 12,
      "link_video": "https://animefire.plus/video/renkin-san-kyuu-magical-pokaan"
    },
    {
      "id": 3114,
      "nome": "Renmei Kuugun Koukuu Mahou Ongakutai Luminous Witches",
      "link": "https://animefire.plus/animes/renmei-kuugun-koukuu-mahou-ongakutai-luminous-witches-todos-os-episodios",
      "texto_original": "Renmei Kuugun Koukuu Mahou Ongakutai Luminous Witches",
      "rating": 6.69,
      "classificacao_etaria": "A14",
      "imagem_original": "https://animefire.plus/img/animes/renmei-kuugun-koukuu-mahou-ongakutai-luminous-witches.webp",
      "imagem_pasta": "https://animefire.plus/img/animes/renmei-kuugun-koukuu-mahou-ongakutai-luminous-witches/",
      "secao": "legendados",
      "pagina": 31,
      "total_episodios": 12,
      "link_video": "https://animefire.plus/video/renmei-kuugun-koukuu-mahou-ongakutai-luminous-witches"
    },
    {
      "id": 3116,
      "nome": "RErideD: Tokigoe no Derrida",
      "link": "https://animefire.plus/animes/rerided-tokigoe-no-derrida-todos-os-episodios",
      "texto_original": "RErideD: Tokigoe no Derrida",
      "rating": 5.8,
      "classificacao_etaria": "A14",
      "imagem_original": "https://animefire.plus/img/animes/rerided-tokigoe-no-derrida.webp",
      "imagem_pasta": "https://animefire.plus/img/animes/rerided-tokigoe-no-derrida/",
      "secao": "legendados",
      "pagina": 135,
      "total_episodios": 12,
      "link_video": "https://animefire.plus/video/rerided-tokigoe-no-derrida"
    },
    {
      "id": 3117,
      "nome": "Revenger",
      "link": "https://animefire.plus/animes/revenger-todos-os-episodios",
      "texto_original": "Revenger",
      "rating": 6.67,
      "classificacao_etaria": "A16",
      "imagem_original": "https://animefire.plus/img/animes/revenger.webp",
      "imagem_pasta": "https://animefire.plus/img/animes/revenger/",
      "secao": "legendados",
      "pagina": 27,
      "total_episodios": 12,
      "link_video": "https://animefire.plus/video/revenger"
    },
    {
      "id": 3118,
      "nome": "Revisions (Dublado)",
      "link": "https://animefire.plus/animes/revisions-dublado-todos-os-episodios",
      "texto_original": "Revisions (Dublado)",
      "rating": 6.17,
      "classificacao_etaria": "A14",
      "imagem_original": "https://animefire.plus/img/animes/revisions.webp",
      "imagem_pasta": "https://animefire.plus/img/animes/revisions/",
      "secao": "dublados,legendados",
      "pagina": 25,
      "total_episodios": 12,
      "link_video": "https://animefire.plus/video/revisions-dublado"
    },
    {
      "id": 3119,
      "nome": "Rewrite",
      "link": "https://animefire.plus/animes/rewrite-todos-os-episodios",
      "texto_original": "Rewrite",
      "rating": 6.74,
      "classificacao_etaria": "A14",
      "imagem_original": "https://animefire.plus/img/animes/rewrite.webp",
      "imagem_pasta": "https://animefire.plus/img/animes/rewrite/",
      "secao": "legendados",
      "pagina": 64,
      "total_episodios": 24,
      "link_video": "https://animefire.plus/video/rewrite"
    },
    {
      "id": 3120,
      "nome": "Rhea Gall Force",
      "link": "https://animefire.plus/animes/rhea-gall-force-todos-os-episodios",
      "texto_original": "Rhea Gall Force",
      "rating": 6.3,
      "classificacao_etaria": "A16",
      "imagem_original": "https://animefire.plus/img/animes/rhea-gall-force.webp",
      "imagem_pasta": "https://animefire.plus/img/animes/rhea-gall-force/",
      "secao": "legendados",
      "pagina": 56,
      "total_episodios": 1,
      "link_video": "https://animefire.plus/video/rhea-gall-force"
    },
    {
      "id": 3123,
      "nome": "Rifle Is Beautiful",
      "link": "https://animefire.plus/animes/rifle-is-beautiful-todos-os-episodios",
      "texto_original": "Rifle Is Beautiful",
      "rating": 6.19,
      "classificacao_etaria": "A14",
      "imagem_original": "https://animefire.plus/img/animes/rifle-is-beautiful.webp",
      "imagem_pasta": "https://animefire.plus/img/animes/rifle-is-beautiful/",
      "secao": "legendados",
      "pagina": 109,
      "total_episodios": 1,
      "link_video": "https://animefire.plus/video/rifle-is-beautiful"
    },
    {
      "id": 3126,
      "nome": "Ring Ni Kakero 1",
      "link": "https://animefire.plus/animes/ring-ni-kakero-1-todos-os-episodios",
      "texto_original": "Ring Ni Kakero 1",
      "rating": 6.5,
      "classificacao_etaria": "A10",
      "imagem_original": "https://animefire.plus/img/animes/ring-ni-kakero-1.webp",
      "imagem_pasta": "https://animefire.plus/img/animes/ring-ni-kakero-1/",
      "secao": "legendados",
      "pagina": 101,
      "total_episodios": 0,
      "link_video": "https://animefire.plus/video/ring-ni-kakero-1"
    },
    {
      "id": 3127,
      "nome": "Ring Ni Kakero 1: Kage Dou-hen",
      "link": "https://animefire.plus/animes/ring-ni-kakero-1-kage-dou-hen-todos-os-episodios",
      "texto_original": "Ring Ni Kakero 1: Kage Dou-hen",
      "rating": 6.75,
      "classificacao_etaria": "A14",
      "imagem_original": "https://animefire.plus/img/animes/ring-ni-kakero-1-kage-dou-hen.webp",
      "imagem_pasta": "https://animefire.plus/img/animes/ring-ni-kakero-1-kage-dou-hen/",
      "secao": "legendados",
      "pagina": 108,
      "total_episodios": 6,
      "link_video": "https://animefire.plus/video/ring-ni-kakero-1-kage-dou-hen"
    },
    {
      "id": 3128,
      "nome": "Ring ni Kakero 1: Nichibei Kessen-hen",
      "link": "https://animefire.plus/animes/ring-ni-kakero-1-nichibei-kessen-hen-todos-os-episodios",
      "texto_original": "Ring ni Kakero 1: Nichibei Kessen-hen",
      "rating": 6.72,
      "classificacao_etaria": "A14",
      "imagem_original": "https://animefire.plus/img/animes/ring-ni-kakero-1-nichibei-kessen-hen.webp",
      "imagem_pasta": "https://animefire.plus/img/animes/ring-ni-kakero-1-nichibei-kessen-hen/",
      "secao": "legendados",
      "pagina": 159,
      "total_episodios": 12,
      "link_video": "https://animefire.plus/video/ring-ni-kakero-1-nichibei-kessen-hen"
    },
    {
      "id": 3129,
      "nome": "Ring Ni Kakero 1: Sekai Taikai-hen",
      "link": "https://animefire.plus/animes/ring-ni-kakero-1-sekai-taikai-hen-todos-os-episodios",
      "texto_original": "Ring Ni Kakero 1: Sekai Taikai-hen",
      "rating": 6.77,
      "classificacao_etaria": "A14",
      "imagem_original": "https://animefire.plus/img/animes/ring-ni-kakero-1-sekai-taikai-hen.webp",
      "imagem_pasta": "https://animefire.plus/img/animes/ring-ni-kakero-1-sekai-taikai-hen/",
      "secao": "legendados",
      "pagina": 103,
      "total_episodios": 6,
      "link_video": "https://animefire.plus/video/ring-ni-kakero-1-sekai-taikai-hen"
    }
  ],
  "pagination": {
    "current_page": 66,
    "per_page": 20,
    "total_items": 1805,
    "total_pages": 91,
    "has_next": true,
    "has_prev": true
  }
}
