{
  "message": "Animes com rating entre 5 e 7",
  "rating_range": {
    "min": 5,
    "max": 7
  },
  "data": [
    {
      "id": 234,
      "nome": "Arifureta Shokugyou de Sekai Saikyou (Dublado)",
      "link": "https://animefire.plus/animes/arifureta-shokugyou-de-sekai-saikyou-dublado-todos-os-episodios",
      "texto_original": "Arifureta Shokugyou de Sekai Saikyou (Dublado)",
      "rating": 6.64,
      "classificacao_etaria": "A14",
      "imagem_original": "https://animefire.plus/img/animes/arifureta-shokugyou-de-sekai-saikyou.webp",
      "imagem_pasta": "https://animefire.plus/img/animes/arifureta-shokugyou-de-sekai-saikyou/",
      "secao": "dublados,legendados",
      "pagina": 13,
      "total_episodios": 13,
      "link_video": "https://animefire.plus/video/arifureta-shokugyou-de-sekai-saikyou-dublado"
    },
    {
      "id": 236,
      "nome": "Arifureta Shokugyou de Sekai Saikyou 2nd Season Special (Dublado)",
      "link": "https://animefire.plus/animes/arifureta-shokugyou-de-sekai-saikyou-2nd-season-special-dublado-todos-os-episodios",
      "texto_original": "Arifureta Shokugyou de Sekai Saikyou 2nd Season Special (Dublado)",
      "rating": 6.94,
      "classificacao_etaria": "A14",
      "imagem_original": "https://animefire.plus/img/animes/arifureta-shokugyou-de-sekai-saikyou-2nd-season-special.webp",
      "imagem_pasta": "https://animefire.plus/img/animes/arifureta-shokugyou-de-sekai-saikyou-2nd-season-special/",
      "secao": "dublados,legendados",
      "pagina": 11,
      "total_episodios": 1,
      "link_video": "https://animefire.plus/video/arifureta-shokugyou-de-sekai-saikyou-2nd-season-special-dublado"
    },
    {
      "id": 238,
      "nome": "Arifureta Shokugyou de Sekai Saikyou Specials",
      "link": "https://animefire.plus/animes/arifureta-shokugyou-de-sekai-saikyou-specials-todos-os-episodios",
      "texto_original": "Arifureta Shokugyou de Sekai Saikyou Specials",
      "rating": 6.53,
      "classificacao_etaria": "A14",
      "imagem_original": "https://animefire.plus/img/animes/arifureta-shokugyou-de-sekai-saikyou-specials.webp",
      "imagem_pasta": "https://animefire.plus/img/animes/arifureta-shokugyou-de-sekai-saikyou-specials/",
      "secao": "legendados",
      "pagina": 93,
      "total_episodios": 2,
      "link_video": "https://animefire.plus/video/arifureta-shokugyou-de-sekai-saikyou-specials"
    },
    {
      "id": 243,
      "nome": "Around 40 Otoko no Isekai Tsuuhan",
      "link": "https://animefire.plus/animes/around-40-otoko-no-isekai-tsuuhan-todos-os-episodios",
      "texto_original": "Around 40 Otoko no Isekai Tsuuhan",
      "rating": 6.35,
      "classificacao_etaria": "A14",
      "imagem_original": "https://animefire.plus/img/animes/around-40-otoko-no-isekai-tsuuhan.webp",
      "imagem_pasta": "https://animefire.plus/img/animes/around-40-otoko-no-isekai-tsuuhan/",
      "secao": "legendados",
      "pagina": 7,
      "total_episodios": 13,
      "link_video": "https://animefire.plus/video/around-40-otoko-no-isekai-tsuuhan"
    },
    {
      "id": 244,
      "nome": "ARP Backstage Pass",
      "link": "https://animefire.plus/animes/arp-backstage-pass-todos-os-episodios",
      "texto_original": "ARP Backstage Pass",
      "rating": 5.59,
      "classificacao_etaria": "A14",
      "imagem_original": "https://animefire.plus/img/animes/arp-backstage-pass.webp",
      "imagem_pasta": "https://animefire.plus/img/animes/arp-backstage-pass/",
      "secao": "legendados",
      "pagina": 92,
      "total_episodios": 1,
      "link_video": "https://animefire.plus/video/arp-backstage-pass"
    },
    {
      "id": 245,
      "nome": "Ars no Kyojuu",
      "link": "https://animefire.plus/animes/ars-no-kyojuu-todos-os-episodios",
      "texto_original": "Ars no Kyojuu",
      "rating": 6.04,
      "classificacao_etaria": "A14",
      "imagem_original": "https://animefire.plus/img/animes/ars-no-kyojuu.webp",
      "imagem_pasta": "https://animefire.plus/img/animes/ars-no-kyojuu/",
      "secao": "legendados",
      "pagina": 26,
      "total_episodios": 12,
      "link_video": "https://animefire.plus/video/ars-no-kyojuu"
    },
    {
      "id": 249,
      "nome": "Aru Asa Dummy Head Mic ni Natteita Ore-kun no Jinsei",
      "link": "https://animefire.plus/animes/aru-asa-dummy-head-mic-ni-natteita-ore-kun-no-jinsei-todos-os-episodios",
      "texto_original": "Aru Asa Dummy Head Mic ni Natteita Ore-kun no Jinsei",
      "rating": 5,
      "classificacao_etaria": "A14",
      "imagem_original": "https://animefire.plus/img/animes/aru-asa-dummy-head-mic-ni-natteita-ore-kun-no-jinsei.webp",
      "imagem_pasta": "https://animefire.plus/img/animes/aru-asa-dummy-head-mic-ni-natteita-ore-kun-no-jinsei/",
      "secao": "legendados,lancamentos",
      "pagina": 28,
      "total_episodios": 2,
      "link_video": "https://animefire.plus/video/aru-asa-dummy-head-mic-ni-natteita-ore-kun-no-jinsei"
    },
    {
      "id": 252,
      "nome": "Aru Tabibito no Nikki Specials",
      "link": "https://animefire.plus/animes/aru-tabibito-no-nikki-specials-todos-os-episodios",
      "texto_original": "Aru Tabibito no Nikki Specials",
      "rating": 6.41,
      "classificacao_etaria": null,
      "imagem_original": "https://animefire.plus/img/animes/aru-tabibito-no-nikki-specials.webp",
      "imagem_pasta": "https://animefire.plus/img/animes/aru-tabibito-no-nikki-specials/",
      "secao": "legendados",
      "pagina": 72,
      "total_episodios": 3,
      "link_video": "https://animefire.plus/video/aru-tabibito-no-nikki-specials"
    },
    {
      "id": 254,
      "nome": "Asagiri no Miko",
      "link": "https://animefire.plus/animes/asagiri-no-miko-todos-os-episodios",
      "texto_original": "Asagiri no Miko",
      "rating": 6.24,
      "classificacao_etaria": "A10",
      "imagem_original": "https://animefire.plus/img/animes/asagiri-no-miko.webp",
      "imagem_pasta": "https://animefire.plus/img/animes/asagiri-no-miko/",
      "secao": "legendados",
      "pagina": 137,
      "total_episodios": 13,
      "link_video": "https://animefire.plus/video/asagiri-no-miko"
    },
    {
      "id": 255,
      "nome": "Asateer: Mirai no Mukashi Banashi",
      "link": "https://animefire.plus/animes/asateer-mirai-no-mukashi-banashi-todos-os-episodios",
      "texto_original": "Asateer: Mirai no Mukashi Banashi",
      "rating": 5.89,
      "classificacao_etaria": "A10",
      "imagem_original": "https://animefire.plus/img/animes/asateer-mirai-no-mukashi-banashi.webp",
      "imagem_pasta": "https://animefire.plus/img/animes/asateer-mirai-no-mukashi-banashi/",
      "secao": "legendados,lancamentos",
      "pagina": 81,
      "total_episodios": 0,
      "link_video": "https://animefire.plus/video/asateer-mirai-no-mukashi-banashi"
    },
    {
      "id": 256,
      "nome": "Asatir 2: Mirai no Mukashi Banashi",
      "link": "https://animefire.plus/animes/asatir-2-mirai-no-mukashi-banashi-todos-os-episodios",
      "texto_original": "Asatir 2: Mirai no Mukashi Banashi",
      "rating": 6.37,
      "classificacao_etaria": "A10",
      "imagem_original": "https://animefire.plus/img/animes/asatir-2-mirai-no-mukashi-banashi.webp",
      "imagem_pasta": "https://animefire.plus/img/animes/asatir-2-mirai-no-mukashi-banashi/",
      "secao": "legendados",
      "pagina": 8,
      "total_episodios": 13,
      "link_video": "https://animefire.plus/video/asatir-2-mirai-no-mukashi-banashi"
    },
    {
      "id": 257,
      "nome": "Asatir: Mirai No Mukashi Banashi",
      "link": "https://animefire.plus/animes/asatir-mirai-no-mukashi-banashi-todos-os-episodios",
      "texto_original": "Asatir: Mirai No Mukashi Banashi",
      "rating": 5.89,
      "classificacao_etaria": "A10",
      "imagem_original": "https://animefire.plus/img/animes/asatir-mirai-no-mukashi-banashi.webp",
      "imagem_pasta": "https://animefire.plus/img/animes/asatir-mirai-no-mukashi-banashi/",
      "secao": "legendados,lancamentos",
      "pagina": 60,
      "total_episodios": 1,
      "link_video": "https://animefire.plus/video/asatir-mirai-no-mukashi-banashi"
    },
    {
      "id": 258,
      "nome": "Ashiaraiyashiki no Juunin-tachi.",
      "link": "https://animefire.plus/animes/ashiaraiyashiki-no-juunin-tachi-todos-os-episodios",
      "texto_original": "Ashiaraiyashiki no Juunin-tachi.",
      "rating": 5.06,
      "classificacao_etaria": "A14",
      "imagem_original": "https://animefire.plus/img/animes/ashiaraiyashiki-no-juunin-tachi.webp",
      "imagem_pasta": "https://animefire.plus/img/animes/ashiaraiyashiki-no-juunin-tachi/",
      "secao": "legendados",
      "pagina": 69,
      "total_episodios": 1,
      "link_video": "https://animefire.plus/video/ashiaraiyashiki-no-juunin-tachi"
    },
    {
      "id": 265,
      "nome": "Asobi ni Iku yo!",
      "link": "https://animefire.plus/animes/asobi-ni-iku-yo-todos-os-episodios",
      "texto_original": "Asobi ni Iku yo!",
      "rating": 6.77,
      "classificacao_etaria": "A18",
      "imagem_original": "https://animefire.plus/img/animes/asobi-ni-iku-yo.webp",
      "imagem_pasta": "https://animefire.plus/img/animes/asobi-ni-iku-yo/",
      "secao": "legendados",
      "pagina": 122,
      "total_episodios": 12,
      "link_video": "https://animefire.plus/video/asobi-ni-iku-yo"
    },
    {
      "id": 266,
      "nome": "Assassins Pride",
      "link": "https://animefire.plus/animes/assassins-pride-todos-os-episodios",
      "texto_original": "Assassins Pride",
      "rating": 5.94,
      "classificacao_etaria": "A14",
      "imagem_original": "https://animefire.plus/img/animes/assassins-pride.webp",
      "imagem_pasta": "https://animefire.plus/img/animes/assassins-pride/",
      "secao": "legendados",
      "pagina": 110,
      "total_episodios": 1,
      "link_video": "https://animefire.plus/video/assassins-pride"
    },
    {
      "id": 268,
      "nome": "Astarotte no Omocha!",
      "link": "https://animefire.plus/animes/astarotte-no-omocha-todos-os-episodios",
      "texto_original": "Astarotte no Omocha!",
      "rating": 6.69,
      "classificacao_etaria": "A14",
      "imagem_original": "https://animefire.plus/img/animes/astarotte-no-omocha.webp",
      "imagem_pasta": "https://animefire.plus/img/animes/astarotte-no-omocha/",
      "secao": "legendados",
      "pagina": 93,
      "total_episodios": 12,
      "link_video": "https://animefire.plus/video/astarotte-no-omocha"
    },
    {
      "id": 269,
      "nome": "Astro Note",
      "link": "https://animefire.plus/animes/astro-note-todos-os-episodios",
      "texto_original": "Astro Note",
      "rating": 6.55,
      "classificacao_etaria": "A14",
      "imagem_original": "https://animefire.plus/img/animes/astro-note.webp",
      "imagem_pasta": "https://animefire.plus/img/animes/astro-note/",
      "secao": "legendados",
      "pagina": 14,
      "total_episodios": 12,
      "link_video": "https://animefire.plus/video/astro-note"
    },
    {
      "id": 270,
      "nome": "Asu no Yoichi!",
      "link": "https://animefire.plus/animes/asu-no-yoichi-todos-os-episodios",
      "texto_original": "Asu no Yoichi!",
      "rating": 6.91,
      "classificacao_etaria": "A14",
      "imagem_original": "https://animefire.plus/img/animes/asu-no-yoichi.webp",
      "imagem_pasta": "https://animefire.plus/img/animes/asu-no-yoichi/",
      "secao": "legendados",
      "pagina": 150,
      "total_episodios": 12,
      "link_video": "https://animefire.plus/video/asu-no-yoichi"
    },
    {
      "id": 273,
      "nome": "Atasha Kawajiri Kodama Da yo: Dangerous Lifehacker no Tadareta Seikatsu",
      "link": "https://animefire.plus/animes/atasha-kawajiri-kodama-da-yo-dangerous-lifehacker-no-tadareta-seikatsu-todos-os-episodios",
      "texto_original": "Atasha Kawajiri Kodama Da yo: Dangerous Lifehacker no Tadareta Seikatsu",
      "rating": 5.72,
      "classificacao_etaria": "A14",
      "imagem_original": "https://animefire.plus/img/animes/atasha-kawajiri-kodama-da-yo-dangerous-lifehacker-no-tadareta-seikatsu.webp",
      "imagem_pasta": "https://animefire.plus/img/animes/atasha-kawajiri-kodama-da-yo-dangerous-lifehacker-no-tadareta-seikatsu/",
      "secao": "legendados,lancamentos",
      "pagina": 35,
      "total_episodios": 11,
      "link_video": "https://animefire.plus/video/atasha-kawajiri-kodama-da-yo-dangerous-lifehacker-no-tadareta-seikatsu"
    },
    {
      "id": 274,
      "nome": "Atom: The Beginning",
      "link": "https://animefire.plus/animes/atom-the-beginning-todos-os-episodios",
      "texto_original": "Atom: The Beginning",
      "rating": 6.91,
      "classificacao_etaria": "A14",
      "imagem_original": "https://animefire.plus/img/animes/atom-the-beginning.webp",
      "imagem_pasta": "https://animefire.plus/img/animes/atom-the-beginning/",
      "secao": "legendados",
      "pagina": 163,
      "total_episodios": 12,
      "link_video": "https://animefire.plus/video/atom-the-beginning"
    }
  ],
  "pagination": {
    "current_page": 6,
    "per_page": 20,
    "total_items": 1805,
    "total_pages": 91,
    "has_next": true,
    "has_prev": true
  }
}
