{
  "message": "Animes com rating entre 5 e 7",
  "rating_range": {
    "min": 5,
    "max": 7
  },
  "data": [
    {
      "id": 556,
      "nome": "Captain Earth",
      "link": "https://animefire.plus/animes/captain-earth-todos-os-episodios",
      "texto_original": "Captain Earth",
      "rating": 6.46,
      "classificacao_etaria": "A14",
      "imagem_original": "https://animefire.plus/img/animes/captain-earth.webp",
      "imagem_pasta": "https://animefire.plus/img/animes/captain-earth/",
      "secao": "legendados",
      "pagina": 124,
      "total_episodios": 25,
      "link_video": "https://animefire.plus/video/captain-earth"
    },
    {
      "id": 560,
      "nome": "Caramel Honey",
      "link": "https://animefire.plus/animes/caramel-honey-todos-os-episodios",
      "texto_original": "Caramel Honey",
      "rating": 6.86,
      "classificacao_etaria": "A14",
      "imagem_original": "https://animefire.plus/img/animes/caramel-honey.webp",
      "imagem_pasta": "https://animefire.plus/img/animes/caramel-honey/",
      "secao": "legendados",
      "pagina": 59,
      "total_episodios": 3,
      "link_video": "https://animefire.plus/video/caramel-honey"
    },
    {
      "id": 564,
      "nome": "Cardfight!! Vanguard G",
      "link": "https://animefire.plus/animes/cardfight-vanguard-g-todos-os-episodios",
      "texto_original": "Cardfight!! Vanguard G",
      "rating": 6.62,
      "classificacao_etaria": "A14",
      "imagem_original": "https://animefire.plus/img/animes/cardfight-vanguard-g.webp",
      "imagem_pasta": "https://animefire.plus/img/animes/cardfight-vanguard-g/",
      "secao": "legendados",
      "pagina": 66,
      "total_episodios": 48,
      "link_video": "https://animefire.plus/video/cardfight-vanguard-g"
    },
    {
      "id": 565,
      "nome": "Cardfight!! Vanguard G: GIRS Crisis-hen",
      "link": "https://animefire.plus/animes/cardfight-vanguard-g-girs-crisis-hen-todos-os-episodios",
      "texto_original": "Cardfight!! Vanguard G: GIRS Crisis-hen",
      "rating": 6.73,
      "classificacao_etaria": "A14",
      "imagem_original": "https://animefire.plus/img/animes/cardfight-vanguard-g-girs-crisis-hen.webp",
      "imagem_pasta": "https://animefire.plus/img/animes/cardfight-vanguard-g-girs-crisis-hen/",
      "secao": "legendados",
      "pagina": 59,
      "total_episodios": 26,
      "link_video": "https://animefire.plus/video/cardfight-vanguard-g-girs-crisis-hen"
    },
    {
      "id": 566,
      "nome": "Cardfight!! Vanguard G: Next",
      "link": "https://animefire.plus/animes/cardfight-vanguard-g-next-todos-os-episodios",
      "texto_original": "Cardfight!! Vanguard G: Next",
      "rating": 6.66,
      "classificacao_etaria": "A14",
      "imagem_original": "https://animefire.plus/img/animes/cardfight-vanguard-g-next.webp",
      "imagem_pasta": "https://animefire.plus/img/animes/cardfight-vanguard-g-next/",
      "secao": "legendados",
      "pagina": 59,
      "total_episodios": 52,
      "link_video": "https://animefire.plus/video/cardfight-vanguard-g-next"
    },
    {
      "id": 567,
      "nome": "Cardfight!! Vanguard G: Stride Gate-hen",
      "link": "https://animefire.plus/animes/cardfight-vanguard-g-stride-gate-hen-todos-os-episodios",
      "texto_original": "Cardfight!! Vanguard G: Stride Gate-hen",
      "rating": 6.85,
      "classificacao_etaria": "A14",
      "imagem_original": "https://animefire.plus/img/animes/cardfight-vanguard-g-stride-gate-hen.webp",
      "imagem_pasta": "https://animefire.plus/img/animes/cardfight-vanguard-g-stride-gate-hen/",
      "secao": "legendados",
      "pagina": 107,
      "total_episodios": 24,
      "link_video": "https://animefire.plus/video/cardfight-vanguard-g-stride-gate-hen"
    },
    {
      "id": 568,
      "nome": "Cardfight!! Vanguard G: Z",
      "link": "https://animefire.plus/animes/cardfight-vanguard-g-z-todos-os-episodios",
      "texto_original": "Cardfight!! Vanguard G: Z",
      "rating": 6.59,
      "classificacao_etaria": "A14",
      "imagem_original": "https://animefire.plus/img/animes/cardfight-vanguard-g-z.webp",
      "imagem_pasta": "https://animefire.plus/img/animes/cardfight-vanguard-g-z/",
      "secao": "legendados",
      "pagina": 175,
      "total_episodios": 16,
      "link_video": "https://animefire.plus/video/cardfight-vanguard-g-z"
    },
    {
      "id": 569,
      "nome": "Cardfight!! Vanguard Gaiden: If",
      "link": "https://animefire.plus/animes/cardfight-vanguard-gaiden-if-todos-os-episodios",
      "texto_original": "Cardfight!! Vanguard Gaiden: If",
      "rating": 6.41,
      "classificacao_etaria": "A14",
      "imagem_original": "https://animefire.plus/img/animes/cardfight-vanguard-gaiden-if.webp",
      "imagem_pasta": "https://animefire.plus/img/animes/cardfight-vanguard-gaiden-if/",
      "secao": "legendados,lancamentos",
      "pagina": 61,
      "total_episodios": 4,
      "link_video": "https://animefire.plus/video/cardfight-vanguard-gaiden-if"
    },
    {
      "id": 570,
      "nome": "Cardfight!! Vanguard: Asia Circuit-hen",
      "link": "https://animefire.plus/animes/cardfight-vanguard-asia-circuit-hen-todos-os-episodios",
      "texto_original": "Cardfight!! Vanguard: Asia Circuit-hen",
      "rating": 6.98,
      "classificacao_etaria": "A14",
      "imagem_original": "https://animefire.plus/img/animes/cardfight-vanguard-asia-circuit-hen.webp",
      "imagem_pasta": "https://animefire.plus/img/animes/cardfight-vanguard-asia-circuit-hen/",
      "secao": "legendados",
      "pagina": 172,
      "total_episodios": 0,
      "link_video": "https://animefire.plus/video/cardfight-vanguard-asia-circuit-hen"
    },
    {
      "id": 575,
      "nome": "Cardfight!! Vanguard: Legion Mate-hen",
      "link": "https://animefire.plus/animes/cardfight-vanguard-legion-mate-hen-todos-os-episodios",
      "texto_original": "Cardfight!! Vanguard: Legion Mate-hen",
      "rating": 6.98,
      "classificacao_etaria": "A14",
      "imagem_original": "https://animefire.plus/img/animes/cardfight-vanguard-legion-mate-hen.webp",
      "imagem_pasta": "https://animefire.plus/img/animes/cardfight-vanguard-legion-mate-hen/",
      "secao": "legendados",
      "pagina": 130,
      "total_episodios": 0,
      "link_video": "https://animefire.plus/video/cardfight-vanguard-legion-mate-hen"
    },
    {
      "id": 577,
      "nome": "Cardfight!! Vanguard: overDress",
      "link": "https://animefire.plus/animes/cardfight-vanguard-overdress-todos-os-episodios",
      "texto_original": "Cardfight!! Vanguard: overDress",
      "rating": 5.97,
      "classificacao_etaria": "A14",
      "imagem_original": "https://animefire.plus/img/animes/cardfight-vanguard-overdress.webp",
      "imagem_pasta": "https://animefire.plus/img/animes/cardfight-vanguard-overdress/",
      "secao": "legendados",
      "pagina": 46,
      "total_episodios": 12,
      "link_video": "https://animefire.plus/video/cardfight-vanguard-overdress"
    },
    {
      "id": 578,
      "nome": "Cardfight!! Vanguard: overDress Season 2",
      "link": "https://animefire.plus/animes/cardfight-vanguard-overdress-season-2-todos-os-episodios",
      "texto_original": "Cardfight!! Vanguard: overDress Season 2",
      "rating": 6.7,
      "classificacao_etaria": "A14",
      "imagem_original": "https://animefire.plus/img/animes/cardfight-vanguard-overdress-season-2.webp",
      "imagem_pasta": "https://animefire.plus/img/animes/cardfight-vanguard-overdress-season-2/",
      "secao": "legendados",
      "pagina": 38,
      "total_episodios": 13,
      "link_video": "https://animefire.plus/video/cardfight-vanguard-overdress-season-2"
    },
    {
      "id": 579,
      "nome": "Cardfight!! Vanguard: will+Dress",
      "link": "https://animefire.plus/animes/cardfight-vanguard-will-dress-todos-os-episodios",
      "texto_original": "Cardfight!! Vanguard: will+Dress",
      "rating": 6.85,
      "classificacao_etaria": "A14",
      "imagem_original": "https://animefire.plus/img/animes/cardfight-vanguard-will-dress.webp",
      "imagem_pasta": "https://animefire.plus/img/animes/cardfight-vanguard-will-dress/",
      "secao": "legendados",
      "pagina": 31,
      "total_episodios": 13,
      "link_video": "https://animefire.plus/video/cardfight-vanguard-will-dress"
    },
    {
      "id": 580,
      "nome": "Cardfight!! Vanguard: will+Dress Season 2",
      "link": "https://animefire.plus/animes/cardfight-vanguard-will-dress-season-2-todos-os-episodios",
      "texto_original": "Cardfight!! Vanguard: will+Dress Season 2",
      "rating": 6.73,
      "classificacao_etaria": "A14",
      "imagem_original": "https://animefire.plus/img/animes/cardfight-vanguard-will-dress-season-2.webp",
      "imagem_pasta": "https://animefire.plus/img/animes/cardfight-vanguard-will-dress-season-2/",
      "secao": "legendados,lancamentos",
      "pagina": 25,
      "total_episodios": 4,
      "link_video": "https://animefire.plus/video/cardfight-vanguard-will-dress-season-2"
    },
    {
      "id": 581,
      "nome": "Cardfight!! Vanguard: will+Dress Season 3",
      "link": "https://animefire.plus/animes/cardfight-vanguard-will-dress-season-3-todos-os-episodios",
      "texto_original": "Cardfight!! Vanguard: will+Dress Season 3",
      "rating": 6.57,
      "classificacao_etaria": "A14",
      "imagem_original": "https://animefire.plus/img/animes/cardfight-vanguard-will-dress-season-3.jpg",
      "imagem_pasta": "https://animefire.plus/img/animes/cardfight-vanguard-will-dress-season-3/",
      "secao": "legendados,lancamentos",
      "pagina": 22,
      "total_episodios": 9,
      "link_video": "https://animefire.plus/video/cardfight-vanguard-will-dress-season-3"
    },
    {
      "id": 585,
      "nome": "Casshern: Robot Hunter",
      "link": "https://animefire.plus/animes/casshern-robot-hunter-todos-os-episodios",
      "texto_original": "Casshern: Robot Hunter",
      "rating": 6.36,
      "classificacao_etaria": "A14",
      "imagem_original": "https://animefire.plus/img/animes/casshern-robot-hunter.webp",
      "imagem_pasta": "https://animefire.plus/img/animes/casshern-robot-hunter/",
      "secao": "legendados",
      "pagina": 55,
      "total_episodios": 4,
      "link_video": "https://animefire.plus/video/casshern-robot-hunter"
    },
    {
      "id": 587,
      "nome": "Centaur no Nayami",
      "link": "https://animefire.plus/animes/centaur-no-nayami-todos-os-episodios",
      "texto_original": "Centaur no Nayami",
      "rating": 6.54,
      "classificacao_etaria": "A18",
      "imagem_original": "https://animefire.plus/img/animes/centaur-no-nayami.webp",
      "imagem_pasta": "https://animefire.plus/img/animes/centaur-no-nayami/",
      "secao": "legendados",
      "pagina": 94,
      "total_episodios": 12,
      "link_video": "https://animefire.plus/video/centaur-no-nayami"
    },
    {
      "id": 588,
      "nome": "Cestvs: The Roman Fighter",
      "link": "https://animefire.plus/animes/cestvs-the-roman-fighter-todos-os-episodios",
      "texto_original": "Cestvs: The Roman Fighter",
      "rating": 5.96,
      "classificacao_etaria": "A14",
      "imagem_original": "https://animefire.plus/img/animes/cestvs-the-roman-fighter.webp",
      "imagem_pasta": "https://animefire.plus/img/animes/cestvs-the-roman-fighter/",
      "secao": "legendados",
      "pagina": 45,
      "total_episodios": 11,
      "link_video": "https://animefire.plus/video/cestvs-the-roman-fighter"
    },
    {
      "id": 589,
      "nome": "Chain Chronicle: Haecceitas no Hikari",
      "link": "https://animefire.plus/animes/chain-chronicle-haecceitas-no-hikari-todos-os-episodios",
      "texto_original": "Chain Chronicle: Haecceitas no Hikari",
      "rating": 6.79,
      "classificacao_etaria": "A14",
      "imagem_original": "https://animefire.plus/img/animes/chain-chronicle-haecceitas-no-hikari.webp",
      "imagem_pasta": "https://animefire.plus/img/animes/chain-chronicle-haecceitas-no-hikari/",
      "secao": "legendados",
      "pagina": 95,
      "total_episodios": 12,
      "link_video": "https://animefire.plus/video/chain-chronicle-haecceitas-no-hikari"
    },
    {
      "id": 592,
      "nome": "Chao You Bing",
      "link": "https://animefire.plus/animes/chao-you-bing-todos-os-episodios",
      "texto_original": "Chao You Bing",
      "rating": 5.86,
      "classificacao_etaria": "A16",
      "imagem_original": "https://animefire.plus/img/animes/chao-you-bing.webp",
      "imagem_pasta": "https://animefire.plus/img/animes/chao-you-bing/",
      "secao": "legendados",
      "pagina": 163,
      "total_episodios": 4,
      "link_video": "https://animefire.plus/video/chao-you-bing"
    }
  ],
  "pagination": {
    "current_page": 14,
    "per_page": 20,
    "total_items": 1805,
    "total_pages": 91,
    "has_next": true,
    "has_prev": true
  }
}
