{
  "message": "Animes com rating entre 5 e 7",
  "rating_range": {
    "min": 5,
    "max": 7
  },
  "data": [
    {
      "id": 1394,
      "nome": "Hatsukoi Limited.: Gentei Shoujo",
      "link": "https://animefire.plus/animes/hatsukoi-limited-gentei-shoujo-todos-os-episodios",
      "texto_original": "Hatsukoi Limited.: Gentei Shoujo",
      "rating": 6.73,
      "classificacao_etaria": "A14",
      "imagem_original": "https://animefire.plus/img/animes/hatsukoi-limited-gentei-shoujo.webp",
      "imagem_pasta": "https://animefire.plus/img/animes/hatsukoi-limited-gentei-shoujo/",
      "secao": "legendados",
      "pagina": 78,
      "total_episodios": 1,
      "link_video": "https://animefire.plus/video/hatsukoi-limited-gentei-shoujo"
    },
    {
      "id": 1395,
      "nome": "Hatsukoi Monster",
      "link": "https://animefire.plus/animes/hatsukoi-monster-todos-os-episodios",
      "texto_original": "Hatsukoi Monster",
      "rating": 5.83,
      "classificacao_etaria": "A14",
      "imagem_original": "https://animefire.plus/img/animes/hatsukoi-monster.webp",
      "imagem_pasta": "https://animefire.plus/img/animes/hatsukoi-monster/",
      "secao": "legendados",
      "pagina": 104,
      "total_episodios": 12,
      "link_video": "https://animefire.plus/video/hatsukoi-monster"
    },
    {
      "id": 1396,
      "nome": "Haunted Junction",
      "link": "https://animefire.plus/animes/haunted-junction-todos-os-episodios",
      "texto_original": "Haunted Junction",
      "rating": 6.79,
      "classificacao_etaria": "A14",
      "imagem_original": "https://animefire.plus/img/animes/haunted-junction.webp",
      "imagem_pasta": "https://animefire.plus/img/animes/haunted-junction/",
      "secao": "legendados",
      "pagina": 100,
      "total_episodios": 0,
      "link_video": "https://animefire.plus/video/haunted-junction"
    },
    {
      "id": 1401,
      "nome": "Hazure Skill \"Kinomi Master\": Skill no Mi (Tabetara Shinu) wo Mugen ni Taberareru You ni Natta Ken ni Tsuite",
      "link": "https://animefire.plus/animes/hazure-skill-kinomi-master-skill-no-mi-tabetara-shinu-wo-mugen-ni-taberareru-you-ni-natta-ken-ni-tsuite-todos-os-episodios",
      "texto_original": "Hazure Skill \"Kinomi Master\": Skill no Mi (Tabetara Shinu) wo Mugen ni Taberareru You ni Natta Ken ni Tsuite",
      "rating": 5.76,
      "classificacao_etaria": "A14",
      "imagem_original": "https://animefire.plus/img/animes/hazure-skill-kinomi-master-skill-no-mi-tabetara-shinu-wo-mugen-ni-taberareru-you-ni-natta-ken-ni-tsuite.webp",
      "imagem_pasta": "https://animefire.plus/img/animes/hazure-skill-kinomi-master-skill-no-mi-tabetara-shinu-wo-mugen-ni-taberareru-you-ni-natta-ken-ni-tsuite/",
      "secao": "legendados",
      "pagina": 7,
      "total_episodios": 12,
      "link_video": "https://animefire.plus/video/hazure-skill-kinomi-master-skill-no-mi-tabetara-shinu-wo-mugen-ni-taberareru-you-ni-natta-ken-ni-tsuite"
    },
    {
      "id": 1402,
      "nome": "Hazurewaku no \"Joutai Ijou Skill\" de Saikyou ni Natta Ore ga Subete wo Juurin suru made",
      "link": "https://animefire.plus/animes/hazurewaku-no-joutai-ijou-skill-de-saikyou-ni-natta-ore-ga-subete-wo-juurin-suru-made-todos-os-episodios",
      "texto_original": "Hazurewaku no \"Joutai Ijou Skill\" de Saikyou ni Natta Ore ga Subete wo Juurin suru made",
      "rating": 6.48,
      "classificacao_etaria": "A14",
      "imagem_original": "https://animefire.plus/img/animes/hazurewaku-no-joutai-ijou-skill-de-saikyou-ni-natta-ore-ga-subete-wo-juurin-suru-made.webp",
      "imagem_pasta": "https://animefire.plus/img/animes/hazurewaku-no-joutai-ijou-skill-de-saikyou-ni-natta-ore-ga-subete-wo-juurin-suru-made/",
      "secao": "legendados",
      "pagina": 13,
      "total_episodios": 12,
      "link_video": "https://animefire.plus/video/hazurewaku-no-joutai-ijou-skill-de-saikyou-ni-natta-ore-ga-subete-wo-juurin-suru-made"
    },
    {
      "id": 1404,
      "nome": "Healin' Good♡Precure",
      "link": "https://animefire.plus/animes/healin-good-precure-todos-os-episodios",
      "texto_original": "Healin' Good♡Precure",
      "rating": 6.83,
      "classificacao_etaria": null,
      "imagem_original": "https://animefire.plus/img/animes/healin-good-precure.webp",
      "imagem_pasta": "https://animefire.plus/img/animes/healin-good-precure/",
      "secao": "legendados,lancamentos",
      "pagina": 91,
      "total_episodios": 0,
      "link_video": "https://animefire.plus/video/healin-good-precure"
    },
    {
      "id": 1407,
      "nome": "Heibai Wushang",
      "link": "https://animefire.plus/animes/heibai-wushang-todos-os-episodios",
      "texto_original": "Heibai Wushang",
      "rating": 6.39,
      "classificacao_etaria": "A14",
      "imagem_original": "https://animefire.plus/img/animes/heibai-wushang.webp",
      "imagem_pasta": "https://animefire.plus/img/animes/heibai-wushang/",
      "secao": "legendados",
      "pagina": 143,
      "total_episodios": 12,
      "link_video": "https://animefire.plus/video/heibai-wushang"
    },
    {
      "id": 1408,
      "nome": "Heibai Wushang 2nd Season",
      "link": "https://animefire.plus/animes/heibai-wushang-2nd-season-todos-os-episodios",
      "texto_original": "Heibai Wushang 2nd Season",
      "rating": 6.6,
      "classificacao_etaria": "A14",
      "imagem_original": "https://animefire.plus/img/animes/heibai-wushang-2nd-season.webp",
      "imagem_pasta": "https://animefire.plus/img/animes/heibai-wushang-2nd-season/",
      "secao": "legendados",
      "pagina": 136,
      "total_episodios": 12,
      "link_video": "https://animefire.plus/video/heibai-wushang-2nd-season"
    },
    {
      "id": 1412,
      "nome": "Hello Harinezumi: Satsui no Ryoubun",
      "link": "https://animefire.plus/animes/hello-harinezumi-satsui-no-ryoubun-todos-os-episodios",
      "texto_original": "Hello Harinezumi: Satsui no Ryoubun",
      "rating": 6.45,
      "classificacao_etaria": "A18",
      "imagem_original": "https://animefire.plus/img/animes/hello-harinezumi-satsui-no-ryoubun.webp",
      "imagem_pasta": "https://animefire.plus/img/animes/hello-harinezumi-satsui-no-ryoubun/",
      "secao": "legendados",
      "pagina": 70,
      "total_episodios": 1,
      "link_video": "https://animefire.plus/video/hello-harinezumi-satsui-no-ryoubun"
    },
    {
      "id": 1418,
      "nome": "Henkei Shoujo",
      "link": "https://animefire.plus/animes/henkei-shoujo-todos-os-episodios",
      "texto_original": "Henkei Shoujo",
      "rating": 5.73,
      "classificacao_etaria": "A14",
      "imagem_original": "https://animefire.plus/img/animes/henkei-shoujo.webp",
      "imagem_pasta": "https://animefire.plus/img/animes/henkei-shoujo/",
      "secao": "legendados",
      "pagina": 159,
      "total_episodios": 5,
      "link_video": "https://animefire.plus/video/henkei-shoujo"
    },
    {
      "id": 1420,
      "nome": "Hentatsu (TV)",
      "link": "https://animefire.plus/animes/hentatsu-tv-todos-os-episodios",
      "texto_original": "Hentatsu (TV)",
      "rating": 5.1,
      "classificacao_etaria": null,
      "imagem_original": "https://animefire.plus/img/animes/hentatsu-tv.webp",
      "imagem_pasta": "https://animefire.plus/img/animes/hentatsu-tv/",
      "secao": "legendados",
      "pagina": 80,
      "total_episodios": 0,
      "link_video": "https://animefire.plus/video/hentatsu-tv"
    },
    {
      "id": 1422,
      "nome": "Hero Bank",
      "link": "https://animefire.plus/animes/hero-bank-todos-os-episodios",
      "texto_original": "Hero Bank",
      "rating": 6.12,
      "classificacao_etaria": "A10",
      "imagem_original": "https://animefire.plus/img/animes/hero-bank.webp",
      "imagem_pasta": "https://animefire.plus/img/animes/hero-bank/",
      "secao": "legendados",
      "pagina": 158,
      "total_episodios": 17,
      "link_video": "https://animefire.plus/video/hero-bank"
    },
    {
      "id": 1423,
      "nome": "Hero Mask (2019) (Dublado)",
      "link": "https://animefire.plus/animes/hero-mask-2019-dublado-todos-os-episodios",
      "texto_original": "Hero Mask (2019) (Dublado)",
      "rating": 6.61,
      "classificacao_etaria": "A16",
      "imagem_original": "https://animefire.plus/img/animes/hero-mask-2019.webp",
      "imagem_pasta": "https://animefire.plus/img/animes/hero-mask-2019/",
      "secao": "dublados,legendados",
      "pagina": 21,
      "total_episodios": 9,
      "link_video": "https://animefire.plus/video/hero-mask-2019-dublado"
    },
    {
      "id": 1424,
      "nome": "Hero Mask (Dublado)",
      "link": "https://animefire.plus/animes/hero-mask-dublado-todos-os-episodios",
      "texto_original": "Hero Mask (Dublado)",
      "rating": 6.39,
      "classificacao_etaria": "A16",
      "imagem_original": "https://animefire.plus/img/animes/hero-mask.webp",
      "imagem_pasta": "https://animefire.plus/img/animes/hero-mask/",
      "secao": "dublados,legendados",
      "pagina": 25,
      "total_episodios": 15,
      "link_video": "https://animefire.plus/video/hero-mask-dublado"
    },
    {
      "id": 1427,
      "nome": "Heroman",
      "link": "https://animefire.plus/animes/heroman-todos-os-episodios",
      "texto_original": "Heroman",
      "rating": 6.86,
      "classificacao_etaria": "A14",
      "imagem_original": "https://animefire.plus/img/animes/heroman.webp",
      "imagem_pasta": "https://animefire.plus/img/animes/heroman/",
      "secao": "legendados",
      "pagina": 71,
      "total_episodios": 26,
      "link_video": "https://animefire.plus/video/heroman"
    },
    {
      "id": 1431,
      "nome": "Hetalia World★Stars",
      "link": "https://animefire.plus/animes/hetalia-world-stars-todos-os-episodios",
      "texto_original": "Hetalia World★Stars",
      "rating": 6.86,
      "classificacao_etaria": "A14",
      "imagem_original": "https://animefire.plus/img/animes/hetalia-world-stars.webp",
      "imagem_pasta": "https://animefire.plus/img/animes/hetalia-world-stars/",
      "secao": "legendados",
      "pagina": 46,
      "total_episodios": 12,
      "link_video": "https://animefire.plus/video/hetalia-world-stars"
    },
    {
      "id": 1437,
      "nome": "Hi☆sCoool! SeHa Girls",
      "link": "https://animefire.plus/animes/hi-scoool-seha-girls-todos-os-episodios",
      "texto_original": "Hi☆sCoool! SeHa Girls",
      "rating": 6.57,
      "classificacao_etaria": "A14",
      "imagem_original": "https://animefire.plus/img/animes/hi-scoool-seha-girls.webp",
      "imagem_pasta": "https://animefire.plus/img/animes/hi-scoool-seha-girls/",
      "secao": "legendados",
      "pagina": 98,
      "total_episodios": 13,
      "link_video": "https://animefire.plus/video/hi-scoool-seha-girls"
    },
    {
      "id": 1442,
      "nome": "Hibike! Euphonium: Suisougaku-bu no Nichijou",
      "link": "https://animefire.plus/animes/hibike-euphonium-suisougaku-bu-no-nichijou-todos-os-episodios",
      "texto_original": "Hibike! Euphonium: Suisougaku-bu no Nichijou",
      "rating": 6.76,
      "classificacao_etaria": "A14",
      "imagem_original": "https://animefire.plus/img/animes/hibike-euphonium-suisougaku-bu-no-nichijou.webp",
      "imagem_pasta": "https://animefire.plus/img/animes/hibike-euphonium-suisougaku-bu-no-nichijou/",
      "secao": "legendados",
      "pagina": 119,
      "total_episodios": 7,
      "link_video": "https://animefire.plus/video/hibike-euphonium-suisougaku-bu-no-nichijou"
    },
    {
      "id": 1447,
      "nome": "Hidan no Aria AA",
      "link": "https://animefire.plus/animes/hidan-no-aria-aa-todos-os-episodios",
      "texto_original": "Hidan no Aria AA",
      "rating": 6.35,
      "classificacao_etaria": "A14",
      "imagem_original": "https://animefire.plus/img/animes/hidan-no-aria-aa.webp",
      "imagem_pasta": "https://animefire.plus/img/animes/hidan-no-aria-aa/",
      "secao": "legendados",
      "pagina": 157,
      "total_episodios": 12,
      "link_video": "https://animefire.plus/video/hidan-no-aria-aa"
    },
    {
      "id": 1457,
      "nome": "High School DxD Hero: Taiikukan-ura no Holy",
      "link": "https://animefire.plus/animes/high-school-dxd-hero-taiikukan-ura-no-holy-todos-os-episodios",
      "texto_original": "High School DxD Hero: Taiikukan-ura no Holy",
      "rating": 6.91,
      "classificacao_etaria": "A18",
      "imagem_original": "https://animefire.plus/img/animes/high-school-dxd-hero-taiikukan-ura-no-holy.webp",
      "imagem_pasta": "https://animefire.plus/img/animes/high-school-dxd-hero-taiikukan-ura-no-holy/",
      "secao": "legendados",
      "pagina": 82,
      "total_episodios": 1,
      "link_video": "https://animefire.plus/video/high-school-dxd-hero-taiikukan-ura-no-holy"
    }
  ],
  "pagination": {
    "current_page": 32,
    "per_page": 20,
    "total_items": 1805,
    "total_pages": 91,
    "has_next": true,
    "has_prev": true
  }
}
