{
  "message": "Animes com rating entre 5 e 7",
  "rating_range": {
    "min": 5,
    "max": 7
  },
  "data": [
    {
      "id": 530,
      "nome": "Burn Up!",
      "link": "https://animefire.plus/animes/burn-up-todos-os-episodios",
      "texto_original": "Burn Up!",
      "rating": 6.09,
      "classificacao_etaria": "A18",
      "imagem_original": "https://animefire.plus/img/animes/burn-up.webp",
      "imagem_pasta": "https://animefire.plus/img/animes/burn-up/",
      "secao": "legendados",
      "pagina": 45,
      "total_episodios": 1,
      "link_video": "https://animefire.plus/video/burn-up"
    },
    {
      "id": 531,
      "nome": "Burn Up! W (Dublado)",
      "link": "https://animefire.plus/animes/burn-up-w-dublado-todos-os-episodios",
      "texto_original": "Burn Up! W (Dublado)",
      "rating": 6.44,
      "classificacao_etaria": "A18",
      "imagem_original": "https://animefire.plus/img/animes/burn-up-w.webp",
      "imagem_pasta": "https://animefire.plus/img/animes/burn-up-w/",
      "secao": "dublados",
      "pagina": 26,
      "total_episodios": 0,
      "link_video": "https://animefire.plus/video/burn-up-w-dublado"
    },
    {
      "id": 532,
      "nome": "Bus Gamer",
      "link": "https://animefire.plus/animes/bus-gamer-todos-os-episodios",
      "texto_original": "Bus Gamer",
      "rating": 6.6,
      "classificacao_etaria": "A14",
      "imagem_original": "https://animefire.plus/img/animes/bus-gamer.webp",
      "imagem_pasta": "https://animefire.plus/img/animes/bus-gamer/",
      "secao": "legendados",
      "pagina": 127,
      "total_episodios": 3,
      "link_video": "https://animefire.plus/video/bus-gamer"
    },
    {
      "id": 533,
      "nome": "Busamen Gachi Fighter",
      "link": "https://animefire.plus/animes/busamen-gachi-fighter-todos-os-episodios",
      "texto_original": "Busamen Gachi Fighter",
      "rating": 6.5,
      "classificacao_etaria": "A14",
      "imagem_original": "https://animefire.plus/img/animes/busamen-gachi-fighter.webp",
      "imagem_pasta": "https://animefire.plus/img/animes/busamen-gachi-fighter/",
      "secao": "legendados,lancamentos",
      "pagina": 2,
      "total_episodios": 5,
      "link_video": "https://animefire.plus/video/busamen-gachi-fighter"
    },
    {
      "id": 535,
      "nome": "Busou Shinki",
      "link": "https://animefire.plus/animes/busou-shinki-todos-os-episodios",
      "texto_original": "Busou Shinki",
      "rating": 6.36,
      "classificacao_etaria": "A14",
      "imagem_original": "https://animefire.plus/img/animes/busou-shinki.webp",
      "imagem_pasta": "https://animefire.plus/img/animes/busou-shinki/",
      "secao": "legendados",
      "pagina": 134,
      "total_episodios": 12,
      "link_video": "https://animefire.plus/video/busou-shinki"
    },
    {
      "id": 537,
      "nome": "Busu ni Hanataba wo.",
      "link": "https://animefire.plus/animes/busu-ni-hanataba-wo-todos-os-episodios",
      "texto_original": "Busu ni Hanataba wo.",
      "rating": 6.69,
      "classificacao_etaria": "A14",
      "imagem_original": "https://animefire.plus/img/animes/busu-ni-hanataba-wo.webp",
      "imagem_pasta": "https://animefire.plus/img/animes/busu-ni-hanataba-wo/",
      "secao": "legendados,lancamentos",
      "pagina": 2,
      "total_episodios": 1,
      "link_video": "https://animefire.plus/video/busu-ni-hanataba-wo"
    },
    {
      "id": 538,
      "nome": "Buta no Liver wa Kanetsu Shiro",
      "link": "https://animefire.plus/animes/buta-no-liver-wa-kanetsu-shiro-todos-os-episodios",
      "texto_original": "Buta no Liver wa Kanetsu Shiro",
      "rating": 6.29,
      "classificacao_etaria": "A14",
      "imagem_original": "https://animefire.plus/img/animes/buta-no-liver-wa-kanetsu-shiro.webp",
      "imagem_pasta": "https://animefire.plus/img/animes/buta-no-liver-wa-kanetsu-shiro/",
      "secao": "legendados",
      "pagina": 20,
      "total_episodios": 12,
      "link_video": "https://animefire.plus/video/buta-no-liver-wa-kanetsu-shiro"
    },
    {
      "id": 539,
      "nome": "Butlers: Chitose Momotose Monogatari",
      "link": "https://animefire.plus/animes/butlers-chitose-momotose-monogatari-todos-os-episodios",
      "texto_original": "Butlers: Chitose Momotose Monogatari",
      "rating": 5.72,
      "classificacao_etaria": "A14",
      "imagem_original": "https://animefire.plus/img/animes/butlers-chitose-momotose-monogatari.webp",
      "imagem_pasta": "https://animefire.plus/img/animes/butlers-chitose-momotose-monogatari/",
      "secao": "legendados",
      "pagina": 138,
      "total_episodios": 12,
      "link_video": "https://animefire.plus/video/butlers-chitose-momotose-monogatari"
    },
    {
      "id": 540,
      "nome": "Buttobi!! CPU",
      "link": "https://animefire.plus/animes/buttobi-cpu-todos-os-episodios",
      "texto_original": "Buttobi!! CPU",
      "rating": 6.33,
      "classificacao_etaria": "A18",
      "imagem_original": "https://animefire.plus/img/animes/buttobi-cpu.webp",
      "imagem_pasta": "https://animefire.plus/img/animes/buttobi-cpu/",
      "secao": "legendados",
      "pagina": 176,
      "total_episodios": 3,
      "link_video": "https://animefire.plus/video/buttobi-cpu"
    },
    {
      "id": 541,
      "nome": "Buzzer Beater",
      "link": "https://animefire.plus/animes/buzzer-beater-todos-os-episodios",
      "texto_original": "Buzzer Beater",
      "rating": 6.63,
      "classificacao_etaria": "A14",
      "imagem_original": "https://animefire.plus/img/animes/buzzer-beater.webp",
      "imagem_pasta": "https://animefire.plus/img/animes/buzzer-beater/",
      "secao": "legendados",
      "pagina": 105,
      "total_episodios": 13,
      "link_video": "https://animefire.plus/video/buzzer-beater"
    },
    {
      "id": 542,
      "nome": "Buzzer Beater 2nd Season",
      "link": "https://animefire.plus/animes/buzzer-beater-2nd-season-todos-os-episodios",
      "texto_original": "Buzzer Beater 2nd Season",
      "rating": 6.86,
      "classificacao_etaria": "A14",
      "imagem_original": "https://animefire.plus/img/animes/buzzer-beater-2nd-season.webp",
      "imagem_pasta": "https://animefire.plus/img/animes/buzzer-beater-2nd-season/",
      "secao": "legendados",
      "pagina": 75,
      "total_episodios": 13,
      "link_video": "https://animefire.plus/video/buzzer-beater-2nd-season"
    },
    {
      "id": 543,
      "nome": "Bye Bye, Earth",
      "link": "https://animefire.plus/animes/bye-bye-earth-todos-os-episodios",
      "texto_original": "Bye Bye, Earth",
      "rating": 6.06,
      "classificacao_etaria": "A14",
      "imagem_original": "https://animefire.plus/img/animes/bye-bye-earth.webp",
      "imagem_pasta": "https://animefire.plus/img/animes/bye-bye-earth/",
      "secao": "legendados",
      "pagina": 12,
      "total_episodios": 10,
      "link_video": "https://animefire.plus/video/bye-bye-earth"
    },
    {
      "id": 544,
      "nome": "Bye Bye, Earth 2nd Season",
      "link": "https://animefire.plus/animes/bye-bye-earth-2nd-season-todos-os-episodios",
      "texto_original": "Bye Bye, Earth 2nd Season",
      "rating": 6.2,
      "classificacao_etaria": "A14",
      "imagem_original": "https://animefire.plus/img/animes/bye-bye-earth-2nd-season.webp",
      "imagem_pasta": "https://animefire.plus/img/animes/bye-bye-earth-2nd-season/",
      "secao": "legendados",
      "pagina": 5,
      "total_episodios": 10,
      "link_video": "https://animefire.plus/video/bye-bye-earth-2nd-season"
    },
    {
      "id": 545,
      "nome": "C Danchi (Dublado)",
      "link": "https://animefire.plus/animes/c-danchi-dublado-todos-os-episodios",
      "texto_original": "C Danchi (Dublado)",
      "rating": 5.44,
      "classificacao_etaria": "A16",
      "imagem_original": "https://animefire.plus/img/animes/c-danchi.webp",
      "imagem_pasta": "https://animefire.plus/img/animes/c-danchi/",
      "secao": "dublados,legendados",
      "pagina": 9,
      "total_episodios": 4,
      "link_video": "https://animefire.plus/video/c-danchi-dublado"
    },
    {
      "id": 547,
      "nome": "Caligula",
      "link": "https://animefire.plus/animes/caligula-todos-os-episodios",
      "texto_original": "Caligula",
      "rating": 6.17,
      "classificacao_etaria": "A14",
      "imagem_original": "https://animefire.plus/img/animes/caligula.webp",
      "imagem_pasta": "https://animefire.plus/img/animes/caligula/",
      "secao": "legendados",
      "pagina": 117,
      "total_episodios": 12,
      "link_video": "https://animefire.plus/video/caligula"
    },
    {
      "id": 550,
      "nome": "Candy Boy Episode: EX01 - Mirai Yohouzu",
      "link": "https://animefire.plus/animes/candy-boy-episode-ex01---mirai-yohouzu-todos-os-episodios",
      "texto_original": "Candy Boy Episode: EX01 - Mirai Yohouzu",
      "rating": 6.89,
      "classificacao_etaria": "A14",
      "imagem_original": "https://animefire.plus/img/animes/candy-boy-episode-ex01---mirai-yohouzu.webp",
      "imagem_pasta": "https://animefire.plus/img/animes/candy-boy-episode-ex01---mirai-yohouzu/",
      "secao": "legendados",
      "pagina": 63,
      "total_episodios": 1,
      "link_video": "https://animefire.plus/video/candy-boy-episode-ex01---mirai-yohouzu"
    },
    {
      "id": 551,
      "nome": "Candy Boy Episode: EX02 - Shiawase Kyouyuu Riron",
      "link": "https://animefire.plus/animes/candy-boy-episode-ex02---shiawase-kyouyuu-riron-todos-os-episodios",
      "texto_original": "Candy Boy Episode: EX02 - Shiawase Kyouyuu Riron",
      "rating": 6.85,
      "classificacao_etaria": "A14",
      "imagem_original": "https://animefire.plus/img/animes/candy-boy-episode-ex02---shiawase-kyouyuu-riron.webp",
      "imagem_pasta": "https://animefire.plus/img/animes/candy-boy-episode-ex02---shiawase-kyouyuu-riron/",
      "secao": "legendados",
      "pagina": 63,
      "total_episodios": 1,
      "link_video": "https://animefire.plus/video/candy-boy-episode-ex02---shiawase-kyouyuu-riron"
    },
    {
      "id": 552,
      "nome": "Candy Boy: Nonchalant Talk of the Certain Twin Sisters in Daily Life",
      "link": "https://animefire.plus/animes/candy-boy-nonchalant-talk-of-the-certain-twin-sisters-in-daily-life-todos-os-episodios",
      "texto_original": "Candy Boy: Nonchalant Talk of the Certain Twin Sisters in Daily Life",
      "rating": 6.98,
      "classificacao_etaria": "A14",
      "imagem_original": "https://animefire.plus/img/animes/candy-boy-nonchalant-talk-of-the-certain-twin-sisters-in-daily-life.webp",
      "imagem_pasta": "https://animefire.plus/img/animes/candy-boy-nonchalant-talk-of-the-certain-twin-sisters-in-daily-life/",
      "secao": "legendados",
      "pagina": 118,
      "total_episodios": 0,
      "link_video": "https://animefire.plus/video/candy-boy-nonchalant-talk-of-the-certain-twin-sisters-in-daily-life"
    },
    {
      "id": 553,
      "nome": "Candy☆Boy: Side Story For Archive",
      "link": "https://animefire.plus/animes/candy-boy-side-story-for-archive-todos-os-episodios",
      "texto_original": "Candy☆Boy: Side Story For Archive",
      "rating": 6.88,
      "classificacao_etaria": "A14",
      "imagem_original": "https://animefire.plus/img/animes/candy-boy-side-story-for-archive.webp",
      "imagem_pasta": "https://animefire.plus/img/animes/candy-boy-side-story-for-archive/",
      "secao": "legendados",
      "pagina": 63,
      "total_episodios": 1,
      "link_video": "https://animefire.plus/video/candy-boy-side-story-for-archive"
    },
    {
      "id": 554,
      "nome": "Cannon Busters",
      "link": "https://animefire.plus/animes/cannon-busters-todos-os-episodios",
      "texto_original": "Cannon Busters",
      "rating": 6.47,
      "classificacao_etaria": "A16",
      "imagem_original": "https://animefire.plus/img/animes/cannon-busters.webp",
      "imagem_pasta": "https://animefire.plus/img/animes/cannon-busters/",
      "secao": "legendados",
      "pagina": 170,
      "total_episodios": 12,
      "link_video": "https://animefire.plus/video/cannon-busters"
    }
  ],
  "pagination": {
    "current_page": 13,
    "per_page": 20,
    "total_items": 1805,
    "total_pages": 91,
    "has_next": true,
    "has_prev": true
  }
}
