{
  "message": "Animes com rating entre 5 e 7",
  "rating_range": {
    "min": 5,
    "max": 7
  },
  "data": [
    {
      "id": 2840,
      "nome": "One Punch Man 2nd Season Commemorative Special",
      "link": "https://animefire.plus/animes/one-punch-man-2nd-season-commemorative-special-todos-os-episodios",
      "texto_original": "One Punch Man 2nd Season Commemorative Special",
      "rating": 6.71,
      "classificacao_etaria": "A16",
      "imagem_original": "https://animefire.plus/img/animes/one-punch-man-2nd-season-commemorative-special.webp",
      "imagem_pasta": "https://animefire.plus/img/animes/one-punch-man-2nd-season-commemorative-special/",
      "secao": "legendados",
      "pagina": 89,
      "total_episodios": 1,
      "link_video": "https://animefire.plus/video/one-punch-man-2nd-season-commemorative-special"
    },
    {
      "id": 2842,
      "nome": "One Room",
      "link": "https://animefire.plus/animes/one-room-todos-os-episodios",
      "texto_original": "One Room",
      "rating": 5.7,
      "classificacao_etaria": "A14",
      "imagem_original": "https://animefire.plus/img/animes/one-room.webp",
      "imagem_pasta": "https://animefire.plus/img/animes/one-room/",
      "secao": "legendados",
      "pagina": 155,
      "total_episodios": 12,
      "link_video": "https://animefire.plus/video/one-room"
    },
    {
      "id": 2843,
      "nome": "One Room 2nd Season",
      "link": "https://animefire.plus/animes/one-room-2nd-season-todos-os-episodios",
      "texto_original": "One Room 2nd Season",
      "rating": 6.33,
      "classificacao_etaria": "A14",
      "imagem_original": "https://animefire.plus/img/animes/one-room-2nd-season.webp",
      "imagem_pasta": "https://animefire.plus/img/animes/one-room-2nd-season/",
      "secao": "legendados",
      "pagina": 162,
      "total_episodios": 12,
      "link_video": "https://animefire.plus/video/one-room-2nd-season"
    },
    {
      "id": 2846,
      "nome": "Oneechan ga Kita",
      "link": "https://animefire.plus/animes/oneechan-ga-kita-todos-os-episodios",
      "texto_original": "Oneechan ga Kita",
      "rating": 6.46,
      "classificacao_etaria": "A14",
      "imagem_original": "https://animefire.plus/img/animes/oneechan-ga-kita.webp",
      "imagem_pasta": "https://animefire.plus/img/animes/oneechan-ga-kita/",
      "secao": "legendados",
      "pagina": 171,
      "total_episodios": 12,
      "link_video": "https://animefire.plus/video/oneechan-ga-kita"
    },
    {
      "id": 2848,
      "nome": "Onegai☆Twins",
      "link": "https://animefire.plus/animes/onegai-twins-todos-os-episodios",
      "texto_original": "Onegai☆Twins",
      "rating": 6.96,
      "classificacao_etaria": "A14",
      "imagem_original": "https://animefire.plus/img/animes/onegai-twins.webp",
      "imagem_pasta": "https://animefire.plus/img/animes/onegai-twins/",
      "secao": "legendados",
      "pagina": 178,
      "total_episodios": 12,
      "link_video": "https://animefire.plus/video/onegai-twins"
    },
    {
      "id": 2849,
      "nome": "Ongaku Shoujo (TV)",
      "link": "https://animefire.plus/animes/ongaku-shoujo-tv-todos-os-episodios",
      "texto_original": "Ongaku Shoujo (TV)",
      "rating": 6.02,
      "classificacao_etaria": "A14",
      "imagem_original": "https://animefire.plus/img/animes/ongaku-shoujo-tv.webp",
      "imagem_pasta": "https://animefire.plus/img/animes/ongaku-shoujo-tv/",
      "secao": "legendados",
      "pagina": 127,
      "total_episodios": 12,
      "link_video": "https://animefire.plus/video/ongaku-shoujo-tv"
    },
    {
      "id": 2850,
      "nome": "Onigiri",
      "link": "https://animefire.plus/animes/onigiri-todos-os-episodios",
      "texto_original": "Onigiri",
      "rating": 5.42,
      "classificacao_etaria": "A14",
      "imagem_original": "https://animefire.plus/img/animes/onigiri.webp",
      "imagem_pasta": "https://animefire.plus/img/animes/onigiri/",
      "secao": "legendados",
      "pagina": 127,
      "total_episodios": 10,
      "link_video": "https://animefire.plus/video/onigiri"
    },
    {
      "id": 2852,
      "nome": "Oniichan dakedo Ai sae Areba Kankeinai yo ne!",
      "link": "https://animefire.plus/animes/oniichan-dakedo-ai-sae-areba-kankeinai-yo-ne-todos-os-episodios",
      "texto_original": "Oniichan dakedo Ai sae Areba Kankeinai yo ne!",
      "rating": 6.67,
      "classificacao_etaria": "A18",
      "imagem_original": "https://animefire.plus/img/animes/oniichan-dakedo-ai-sae-areba-kankeinai-yo-ne.webp",
      "imagem_pasta": "https://animefire.plus/img/animes/oniichan-dakedo-ai-sae-areba-kankeinai-yo-ne/",
      "secao": "legendados",
      "pagina": 160,
      "total_episodios": 0,
      "link_video": "https://animefire.plus/video/oniichan-dakedo-ai-sae-areba-kankeinai-yo-ne"
    },
    {
      "id": 2853,
      "nome": "Oniichan dakedo Ai sae Areba Kankeinai yo ne! Specials",
      "link": "https://animefire.plus/animes/oniichan-dakedo-ai-sae-areba-kankeinai-yo-ne-specials-todos-os-episodios",
      "texto_original": "Oniichan dakedo Ai sae Areba Kankeinai yo ne! Specials",
      "rating": 6.29,
      "classificacao_etaria": "A18",
      "imagem_original": "https://animefire.plus/img/animes/oniichan-dakedo-ai-sae-areba-kankeinai-yo-ne-specials.webp",
      "imagem_pasta": "https://animefire.plus/img/animes/oniichan-dakedo-ai-sae-areba-kankeinai-yo-ne-specials/",
      "secao": "legendados",
      "pagina": 57,
      "total_episodios": 6,
      "link_video": "https://animefire.plus/video/oniichan-dakedo-ai-sae-areba-kankeinai-yo-ne-specials"
    },
    {
      "id": 2854,
      "nome": "Oniichan no Koto nanka Zenzen Suki ja Nai n da kara ne!!",
      "link": "https://animefire.plus/animes/oniichan-no-koto-nanka-zenzen-suki-ja-nai-n-da-kara-ne-todos-os-episodios",
      "texto_original": "Oniichan no Koto nanka Zenzen Suki ja Nai n da kara ne!!",
      "rating": 6.24,
      "classificacao_etaria": "A14",
      "imagem_original": "https://animefire.plus/img/animes/oniichan-no-koto-nanka-zenzen-suki-ja-nai-n-da-kara-ne.webp",
      "imagem_pasta": "https://animefire.plus/img/animes/oniichan-no-koto-nanka-zenzen-suki-ja-nai-n-da-kara-ne/",
      "secao": "legendados",
      "pagina": 142,
      "total_episodios": 13,
      "link_video": "https://animefire.plus/video/oniichan-no-koto-nanka-zenzen-suki-ja-nai-n-da-kara-ne"
    },
    {
      "id": 2857,
      "nome": "Onimusha (Dublado)",
      "link": "https://animefire.plus/animes/onimusha-dublado-todos-os-episodios",
      "texto_original": "Onimusha (Dublado)",
      "rating": 6.55,
      "classificacao_etaria": "A16",
      "imagem_original": "https://animefire.plus/img/animes/onimusha.webp",
      "imagem_pasta": "https://animefire.plus/img/animes/onimusha/",
      "secao": "dublados,legendados",
      "pagina": 4,
      "total_episodios": 8,
      "link_video": "https://animefire.plus/video/onimusha-dublado"
    },
    {
      "id": 2858,
      "nome": "Onipan!",
      "link": "https://animefire.plus/animes/onipan-todos-os-episodios",
      "texto_original": "Onipan!",
      "rating": 6.5,
      "classificacao_etaria": "A10",
      "imagem_original": "https://animefire.plus/img/animes/onipan.webp",
      "imagem_pasta": "https://animefire.plus/img/animes/onipan/",
      "secao": "legendados,lancamentos",
      "pagina": 33,
      "total_episodios": 6,
      "link_video": "https://animefire.plus/video/onipan"
    },
    {
      "id": 2859,
      "nome": "Onmyou Kaiten Re:Birth",
      "link": "https://animefire.plus/animes/onmyou-kaiten-re-birth-todos-os-episodios",
      "texto_original": "Onmyou Kaiten Re:Birth",
      "rating": 6.51,
      "classificacao_etaria": "A14",
      "imagem_original": "https://animefire.plus/img/animes/onmyou-kaiten-re-birth.webp",
      "imagem_pasta": "https://animefire.plus/img/animes/onmyou-kaiten-re-birth/",
      "secao": "legendados,lancamentos",
      "pagina": 1,
      "total_episodios": 5,
      "link_video": "https://animefire.plus/video/onmyou-kaiten-re-birth"
    },
    {
      "id": 2861,
      "nome": "Onmyouji (Dublado)",
      "link": "https://animefire.plus/animes/onmyouji-dublado-todos-os-episodios",
      "texto_original": "Onmyouji (Dublado)",
      "rating": 6.98,
      "classificacao_etaria": "A14",
      "imagem_original": "https://animefire.plus/img/animes/onmyouji.webp",
      "imagem_pasta": "https://animefire.plus/img/animes/onmyouji/",
      "secao": "dublados,legendados",
      "pagina": 4,
      "total_episodios": 13,
      "link_video": "https://animefire.plus/video/onmyouji-dublado"
    },
    {
      "id": 2862,
      "nome": "Onsen Yousei Hakone-chan",
      "link": "https://animefire.plus/animes/onsen-yousei-hakone-chan-todos-os-episodios",
      "texto_original": "Onsen Yousei Hakone-chan",
      "rating": 5.9,
      "classificacao_etaria": "A14",
      "imagem_original": "https://animefire.plus/img/animes/onsen-yousei-hakone-chan.webp",
      "imagem_pasta": "https://animefire.plus/img/animes/onsen-yousei-hakone-chan/",
      "secao": "legendados",
      "pagina": 107,
      "total_episodios": 13,
      "link_video": "https://animefire.plus/video/onsen-yousei-hakone-chan"
    },
    {
      "id": 2863,
      "nome": "Ontama!",
      "link": "https://animefire.plus/animes/ontama-todos-os-episodios",
      "texto_original": "Ontama!",
      "rating": 6.74,
      "classificacao_etaria": null,
      "imagem_original": "https://animefire.plus/img/animes/ontama.webp",
      "imagem_pasta": "https://animefire.plus/img/animes/ontama/",
      "secao": "legendados",
      "pagina": 43,
      "total_episodios": 5,
      "link_video": "https://animefire.plus/video/ontama"
    },
    {
      "id": 2872,
      "nome": "Ookamikakushi",
      "link": "https://animefire.plus/animes/ookamikakushi-todos-os-episodios",
      "texto_original": "Ookamikakushi",
      "rating": 6.36,
      "classificacao_etaria": "A14",
      "imagem_original": "https://animefire.plus/img/animes/ookamikakushi.webp",
      "imagem_pasta": "https://animefire.plus/img/animes/ookamikakushi/",
      "secao": "legendados",
      "pagina": 57,
      "total_episodios": 12,
      "link_video": "https://animefire.plus/video/ookamikakushi"
    },
    {
      "id": 2876,
      "nome": "Ooyukiumi no Kaina",
      "link": "https://animefire.plus/animes/ooyukiumi-no-kaina-todos-os-episodios",
      "texto_original": "Ooyukiumi no Kaina",
      "rating": 6.68,
      "classificacao_etaria": "A14",
      "imagem_original": "https://animefire.plus/img/animes/ooyukiumi-no-kaina.webp",
      "imagem_pasta": "https://animefire.plus/img/animes/ooyukiumi-no-kaina/",
      "secao": "legendados",
      "pagina": 27,
      "total_episodios": 11,
      "link_video": "https://animefire.plus/video/ooyukiumi-no-kaina"
    },
    {
      "id": 2877,
      "nome": "Opus.COLORs",
      "link": "https://animefire.plus/animes/opus-colors-todos-os-episodios",
      "texto_original": "Opus.COLORs",
      "rating": 5.75,
      "classificacao_etaria": "A14",
      "imagem_original": "https://animefire.plus/img/animes/opus-colors.jpg",
      "imagem_pasta": "https://animefire.plus/img/animes/opus-colors/",
      "secao": "legendados",
      "pagina": 24,
      "total_episodios": 12,
      "link_video": "https://animefire.plus/video/opus-colors"
    },
    {
      "id": 2879,
      "nome": "Ore dake Haireru Kakushi Dungeon (Dublado)",
      "link": "https://animefire.plus/animes/ore-dake-haireru-kakushi-dungeon-dublado-todos-os-episodios",
      "texto_original": "Ore dake Haireru Kakushi Dungeon (Dublado)",
      "rating": 6.28,
      "classificacao_etaria": "A14",
      "imagem_original": "https://animefire.plus/img/animes/ore-dake-haireru-kakushi-dungeon.webp",
      "imagem_pasta": "https://animefire.plus/img/animes/ore-dake-haireru-kakushi-dungeon/",
      "secao": "dublados,legendados",
      "pagina": 18,
      "total_episodios": 12,
      "link_video": "https://animefire.plus/video/ore-dake-haireru-kakushi-dungeon-dublado"
    }
  ],
  "pagination": {
    "current_page": 61,
    "per_page": 20,
    "total_items": 1805,
    "total_pages": 91,
    "has_next": true,
    "has_prev": true
  }
}
