{
  "message": "Animes com rating entre 5 e 7",
  "rating_range": {
    "min": 5,
    "max": 7
  },
  "data": [
    {
      "id": 4144,
      "nome": "Wo Kai Dongwuyuan Naxie Nian",
      "link": "https://animefire.plus/animes/wo-kai-dongwuyuan-naxie-nian-todos-os-episodios",
      "texto_original": "Wo Kai Dongwuyuan Naxie Nian",
      "rating": 6.37,
      "classificacao_etaria": "A14",
      "imagem_original": "https://animefire.plus/img/animes/wo-kai-dongwuyuan-naxie-nian.webp",
      "imagem_pasta": "https://animefire.plus/img/animes/wo-kai-dongwuyuan-naxie-nian/",
      "secao": "legendados,lancamentos",
      "pagina": 75,
      "total_episodios": 4,
      "link_video": "https://animefire.plus/video/wo-kai-dongwuyuan-naxie-nian"
    },
    {
      "id": 4149,
      "nome": "Wolverine",
      "link": "https://animefire.plus/animes/wolverine-todos-os-episodios",
      "texto_original": "Wolverine",
      "rating": 6.18,
      "classificacao_etaria": "A14",
      "imagem_original": "https://animefire.plus/img/animes/wolverine.webp",
      "imagem_pasta": "https://animefire.plus/img/animes/wolverine/",
      "secao": "legendados",
      "pagina": 131,
      "total_episodios": 12,
      "link_video": "https://animefire.plus/video/wolverine"
    },
    {
      "id": 4151,
      "nome": "Wonder Egg Priority Special",
      "link": "https://animefire.plus/animes/wonder-egg-priority-special-todos-os-episodios",
      "texto_original": "Wonder Egg Priority Special",
      "rating": 5.15,
      "classificacao_etaria": "A16",
      "imagem_original": "https://animefire.plus/img/animes/wonder-egg-priority-special.webp",
      "imagem_pasta": "https://animefire.plus/img/animes/wonder-egg-priority-special/",
      "secao": "legendados",
      "pagina": 38,
      "total_episodios": 1,
      "link_video": "https://animefire.plus/video/wonder-egg-priority-special"
    },
    {
      "id": 4159,
      "nome": "World Witches Hasshin Shimasu!",
      "link": "https://animefire.plus/animes/world-witches-hasshin-shimasu-todos-os-episodios",
      "texto_original": "World Witches Hasshin Shimasu!",
      "rating": 6.5,
      "classificacao_etaria": "A14",
      "imagem_original": "https://animefire.plus/img/animes/world-witches-hasshin-shimasu.webp",
      "imagem_pasta": "https://animefire.plus/img/animes/world-witches-hasshin-shimasu/",
      "secao": "legendados",
      "pagina": 48,
      "total_episodios": 12,
      "link_video": "https://animefire.plus/video/world-witches-hasshin-shimasu"
    },
    {
      "id": 4166,
      "nome": "X-Men",
      "link": "https://animefire.plus/animes/x-men-todos-os-episodios",
      "texto_original": "X-Men",
      "rating": 6.44,
      "classificacao_etaria": "A14",
      "imagem_original": "https://animefire.plus/img/animes/x-men.webp",
      "imagem_pasta": "https://animefire.plus/img/animes/x-men/",
      "secao": "legendados",
      "pagina": 139,
      "total_episodios": 0,
      "link_video": "https://animefire.plus/video/x-men"
    },
    {
      "id": 4167,
      "nome": "Xenosaga The Animation",
      "link": "https://animefire.plus/animes/xenosaga-the-animation-todos-os-episodios",
      "texto_original": "Xenosaga The Animation",
      "rating": 6.42,
      "classificacao_etaria": "A14",
      "imagem_original": "https://animefire.plus/img/animes/xenosaga-the-animation.webp",
      "imagem_pasta": "https://animefire.plus/img/animes/xenosaga-the-animation/",
      "secao": "legendados",
      "pagina": 135,
      "total_episodios": 12,
      "link_video": "https://animefire.plus/video/xenosaga-the-animation"
    },
    {
      "id": 4174,
      "nome": "Xiaoke de Huatu Xie Hua",
      "link": "https://animefire.plus/animes/xiaoke-de-huatu-xie-hua-todos-os-episodios",
      "texto_original": "Xiaoke de Huatu Xie Hua",
      "rating": 6.84,
      "classificacao_etaria": null,
      "imagem_original": "https://animefire.plus/img/animes/xiaoke-de-huatu-xie-hua.webp",
      "imagem_pasta": "https://animefire.plus/img/animes/xiaoke-de-huatu-xie-hua/",
      "secao": "legendados",
      "pagina": 16,
      "total_episodios": 1,
      "link_video": "https://animefire.plus/video/xiaoke-de-huatu-xie-hua"
    },
    {
      "id": 4175,
      "nome": "Xie Wang Zhui Qi",
      "link": "https://animefire.plus/animes/xie-wang-zhui-qi-todos-os-episodios",
      "texto_original": "Xie Wang Zhui Qi",
      "rating": 6.7,
      "classificacao_etaria": "A14",
      "imagem_original": "https://animefire.plus/img/animes/xie-wang-zhui-qi.webp",
      "imagem_pasta": "https://animefire.plus/img/animes/xie-wang-zhui-qi/",
      "secao": "legendados",
      "pagina": 177,
      "total_episodios": 13,
      "link_video": "https://animefire.plus/video/xie-wang-zhui-qi"
    },
    {
      "id": 4185,
      "nome": "Yajikita Gakuen Douchuuki",
      "link": "https://animefire.plus/animes/yajikita-gakuen-douchuuki-todos-os-episodios",
      "texto_original": "Yajikita Gakuen Douchuuki",
      "rating": 5.79,
      "classificacao_etaria": "A14",
      "imagem_original": "https://animefire.plus/img/animes/yajikita-gakuen-douchuuki.webp",
      "imagem_pasta": "https://animefire.plus/img/animes/yajikita-gakuen-douchuuki/",
      "secao": "legendados",
      "pagina": 88,
      "total_episodios": 2,
      "link_video": "https://animefire.plus/video/yajikita-gakuen-douchuuki"
    },
    {
      "id": 4187,
      "nome": "Yakunara Mug Cup mo",
      "link": "https://animefire.plus/animes/yakunara-mug-cup-mo-todos-os-episodios",
      "texto_original": "Yakunara Mug Cup mo",
      "rating": 6.54,
      "classificacao_etaria": "A14",
      "imagem_original": "https://animefire.plus/img/animes/yakunara-mug-cup-mo.webp",
      "imagem_pasta": "https://animefire.plus/img/animes/yakunara-mug-cup-mo/",
      "secao": "legendados",
      "pagina": 46,
      "total_episodios": 12,
      "link_video": "https://animefire.plus/video/yakunara-mug-cup-mo"
    },
    {
      "id": 4188,
      "nome": "Yakunara Mug Cup mo: Niban Gama",
      "link": "https://animefire.plus/animes/yakunara-mug-cup-mo-niban-gama-todos-os-episodios",
      "texto_original": "Yakunara Mug Cup mo: Niban Gama",
      "rating": 6.83,
      "classificacao_etaria": "A14",
      "imagem_original": "https://animefire.plus/img/animes/yakunara-mug-cup-mo-niban-gama.webp",
      "imagem_pasta": "https://animefire.plus/img/animes/yakunara-mug-cup-mo-niban-gama/",
      "secao": "legendados",
      "pagina": 38,
      "total_episodios": 12,
      "link_video": "https://animefire.plus/video/yakunara-mug-cup-mo-niban-gama"
    },
    {
      "id": 4190,
      "nome": "Yakusoku no Neverland 2nd Season",
      "link": "https://animefire.plus/animes/yakusoku-no-neverland-2nd-season-todos-os-episodios",
      "texto_original": "Yakusoku no Neverland 2nd Season",
      "rating": 5.25,
      "classificacao_etaria": "A16",
      "imagem_original": "https://animefire.plus/img/animes/yakusoku-no-neverland-2nd-season.webp",
      "imagem_pasta": "https://animefire.plus/img/animes/yakusoku-no-neverland-2nd-season/",
      "secao": "legendados",
      "pagina": 48,
      "total_episodios": 11,
      "link_video": "https://animefire.plus/video/yakusoku-no-neverland-2nd-season"
    },
    {
      "id": 4191,
      "nome": "Yama no Susume",
      "link": "https://animefire.plus/animes/yama-no-susume-todos-os-episodios",
      "texto_original": "Yama no Susume",
      "rating": 6.84,
      "classificacao_etaria": "A14",
      "imagem_original": "https://animefire.plus/img/animes/yama-no-susume.webp",
      "imagem_pasta": "https://animefire.plus/img/animes/yama-no-susume/",
      "secao": "legendados",
      "pagina": 141,
      "total_episodios": 2,
      "link_video": "https://animefire.plus/video/yama-no-susume"
    },
    {
      "id": 4202,
      "nome": "Yami Shibai (Dublado)",
      "link": "https://animefire.plus/animes/yami-shibai-dublado-todos-os-episodios",
      "texto_original": "Yami Shibai (Dublado)",
      "rating": 7,
      "classificacao_etaria": "A14",
      "imagem_original": "https://animefire.plus/img/animes/yami-shibai.webp",
      "imagem_pasta": "https://animefire.plus/img/animes/yami-shibai/",
      "secao": "dublados,legendados",
      "pagina": 4,
      "total_episodios": 13,
      "link_video": "https://animefire.plus/video/yami-shibai-dublado"
    },
    {
      "id": 4203,
      "nome": "Yami Shibai 10",
      "link": "https://animefire.plus/animes/yami-shibai-10-todos-os-episodios",
      "texto_original": "Yami Shibai 10",
      "rating": 6.19,
      "classificacao_etaria": "A14",
      "imagem_original": "https://animefire.plus/img/animes/yami-shibai-10.webp",
      "imagem_pasta": "https://animefire.plus/img/animes/yami-shibai-10/",
      "secao": "legendados",
      "pagina": 35,
      "total_episodios": 13,
      "link_video": "https://animefire.plus/video/yami-shibai-10"
    },
    {
      "id": 4204,
      "nome": "Yami Shibai 11",
      "link": "https://animefire.plus/animes/yami-shibai-11-todos-os-episodios",
      "texto_original": "Yami Shibai 11",
      "rating": 5.83,
      "classificacao_etaria": "A14",
      "imagem_original": "https://animefire.plus/img/animes/yami-shibai-11.webp",
      "imagem_pasta": "https://animefire.plus/img/animes/yami-shibai-11/",
      "secao": "legendados",
      "pagina": 22,
      "total_episodios": 13,
      "link_video": "https://animefire.plus/video/yami-shibai-11"
    },
    {
      "id": 4205,
      "nome": "Yami Shibai 12",
      "link": "https://animefire.plus/animes/yami-shibai-12-todos-os-episodios",
      "texto_original": "Yami Shibai 12",
      "rating": 5.87,
      "classificacao_etaria": "A14",
      "imagem_original": "https://animefire.plus/img/animes/yami-shibai-12.webp",
      "imagem_pasta": "https://animefire.plus/img/animes/yami-shibai-12/",
      "secao": "legendados",
      "pagina": 16,
      "total_episodios": 13,
      "link_video": "https://animefire.plus/video/yami-shibai-12"
    },
    {
      "id": 4206,
      "nome": "Yami Shibai 13",
      "link": "https://animefire.plus/animes/yami-shibai-13-todos-os-episodios",
      "texto_original": "Yami Shibai 13",
      "rating": 6.03,
      "classificacao_etaria": "A14",
      "imagem_original": "https://animefire.plus/img/animes/yami-shibai-13.webp",
      "imagem_pasta": "https://animefire.plus/img/animes/yami-shibai-13/",
      "secao": "legendados",
      "pagina": 11,
      "total_episodios": 13,
      "link_video": "https://animefire.plus/video/yami-shibai-13"
    },
    {
      "id": 4207,
      "nome": "Yami Shibai 14",
      "link": "https://animefire.plus/animes/yami-shibai-14-todos-os-episodios",
      "texto_original": "Yami Shibai 14",
      "rating": 5.79,
      "classificacao_etaria": "A14",
      "imagem_original": "https://animefire.plus/img/animes/yami-shibai-14.webp",
      "imagem_pasta": "https://animefire.plus/img/animes/yami-shibai-14/",
      "secao": "legendados",
      "pagina": 6,
      "total_episodios": 13,
      "link_video": "https://animefire.plus/video/yami-shibai-14"
    },
    {
      "id": 4208,
      "nome": "Yami Shibai 15",
      "link": "https://animefire.plus/animes/yami-shibai-15-todos-os-episodios",
      "texto_original": "Yami Shibai 15",
      "rating": 5.99,
      "classificacao_etaria": "A14",
      "imagem_original": "https://animefire.plus/img/animes/yami-shibai-15.webp",
      "imagem_pasta": "https://animefire.plus/img/animes/yami-shibai-15/",
      "secao": "legendados,lancamentos",
      "pagina": 1,
      "total_episodios": 4,
      "link_video": "https://animefire.plus/video/yami-shibai-15"
    }
  ],
  "pagination": {
    "current_page": 87,
    "per_page": 20,
    "total_items": 1805,
    "total_pages": 91,
    "has_next": true,
    "has_prev": true
  }
}
