{
  "message": "Animes com rating entre 5 e 7",
  "rating_range": {
    "min": 5,
    "max": 7
  },
  "data": [
    {
      "id": 357,
      "nome": "Battle Girl High School",
      "link": "https://animefire.plus/animes/battle-girl-high-school-todos-os-episodios",
      "texto_original": "Battle Girl High School",
      "rating": 5.9,
      "classificacao_etaria": "A14",
      "imagem_original": "https://animefire.plus/img/animes/battle-girl-high-school.webp",
      "imagem_pasta": "https://animefire.plus/img/animes/battle-girl-high-school/",
      "secao": "legendados",
      "pagina": 173,
      "total_episodios": 12,
      "link_video": "https://animefire.plus/video/battle-girl-high-school"
    },
    {
      "id": 358,
      "nome": "Battle Programmer Shirase",
      "link": "https://animefire.plus/animes/battle-programmer-shirase-todos-os-episodios",
      "texto_original": "Battle Programmer Shirase",
      "rating": 7,
      "classificacao_etaria": "A14",
      "imagem_original": "https://animefire.plus/img/animes/battle-programmer-shirase.webp",
      "imagem_pasta": "https://animefire.plus/img/animes/battle-programmer-shirase/",
      "secao": "legendados",
      "pagina": 165,
      "total_episodios": 5,
      "link_video": "https://animefire.plus/video/battle-programmer-shirase"
    },
    {
      "id": 359,
      "nome": "Battle Royal High School",
      "link": "https://animefire.plus/animes/battle-royal-high-school-todos-os-episodios",
      "texto_original": "Battle Royal High School",
      "rating": 5.59,
      "classificacao_etaria": "A18",
      "imagem_original": "https://animefire.plus/img/animes/battle-royal-high-school.webp",
      "imagem_pasta": "https://animefire.plus/img/animes/battle-royal-high-school/",
      "secao": "legendados",
      "pagina": 65,
      "total_episodios": 1,
      "link_video": "https://animefire.plus/video/battle-royal-high-school"
    },
    {
      "id": 360,
      "nome": "Battle Spirits: Burning Soul",
      "link": "https://animefire.plus/animes/battle-spirits-burning-soul-todos-os-episodios",
      "texto_original": "Battle Spirits: Burning Soul",
      "rating": 6.84,
      "classificacao_etaria": "A10",
      "imagem_original": "https://animefire.plus/img/animes/battle-spirits-burning-soul.webp",
      "imagem_pasta": "https://animefire.plus/img/animes/battle-spirits-burning-soul/",
      "secao": "legendados",
      "pagina": 174,
      "total_episodios": 51,
      "link_video": "https://animefire.plus/video/battle-spirits-burning-soul"
    },
    {
      "id": 362,
      "nome": "Bean Bandit",
      "link": "https://animefire.plus/animes/bean-bandit-todos-os-episodios",
      "texto_original": "Bean Bandit",
      "rating": 5.09,
      "classificacao_etaria": "A14",
      "imagem_original": "https://animefire.plus/img/animes/bean-bandit.webp",
      "imagem_pasta": "https://animefire.plus/img/animes/bean-bandit/",
      "secao": "legendados",
      "pagina": 33,
      "total_episodios": 1,
      "link_video": "https://animefire.plus/video/bean-bandit"
    },
    {
      "id": 366,
      "nome": "Beatless",
      "link": "https://animefire.plus/animes/beatless-todos-os-episodios",
      "texto_original": "Beatless",
      "rating": 6.27,
      "classificacao_etaria": "A14",
      "imagem_original": "https://animefire.plus/img/animes/beatless.webp",
      "imagem_pasta": "https://animefire.plus/img/animes/beatless/",
      "secao": "legendados",
      "pagina": 113,
      "total_episodios": 18,
      "link_video": "https://animefire.plus/video/beatless"
    },
    {
      "id": 367,
      "nome": "Beatless Final Stage",
      "link": "https://animefire.plus/animes/beatless-final-stage-todos-os-episodios",
      "texto_original": "Beatless Final Stage",
      "rating": 6.87,
      "classificacao_etaria": "A14",
      "imagem_original": "https://animefire.plus/img/animes/beatless-final-stage.webp",
      "imagem_pasta": "https://animefire.plus/img/animes/beatless-final-stage/",
      "secao": "legendados",
      "pagina": 159,
      "total_episodios": 4,
      "link_video": "https://animefire.plus/video/beatless-final-stage"
    },
    {
      "id": 368,
      "nome": "Beatless Intermission",
      "link": "https://animefire.plus/animes/beatless-intermission-todos-os-episodios",
      "texto_original": "Beatless Intermission",
      "rating": 5.35,
      "classificacao_etaria": "A14",
      "imagem_original": "https://animefire.plus/img/animes/beatless-intermission.webp",
      "imagem_pasta": "https://animefire.plus/img/animes/beatless-intermission/",
      "secao": "legendados",
      "pagina": 134,
      "total_episodios": 4,
      "link_video": "https://animefire.plus/video/beatless-intermission"
    },
    {
      "id": 374,
      "nome": "Bermuda Triangle: Colorful Pastrale",
      "link": "https://animefire.plus/animes/bermuda-triangle-colorful-pastrale-todos-os-episodios",
      "texto_original": "Bermuda Triangle: Colorful Pastrale",
      "rating": 5.46,
      "classificacao_etaria": "A14",
      "imagem_original": "https://animefire.plus/img/animes/bermuda-triangle-colorful-pastrale.webp",
      "imagem_pasta": "https://animefire.plus/img/animes/bermuda-triangle-colorful-pastrale/",
      "secao": "legendados",
      "pagina": 99,
      "total_episodios": 12,
      "link_video": "https://animefire.plus/video/bermuda-triangle-colorful-pastrale"
    },
    {
      "id": 375,
      "nome": "Bernard-jou Iwaku.",
      "link": "https://animefire.plus/animes/bernard-jou-iwaku-todos-os-episodios",
      "texto_original": "Bernard-jou Iwaku.",
      "rating": 6.01,
      "classificacao_etaria": "A14",
      "imagem_original": "https://animefire.plus/img/animes/bernard-jou-iwaku.webp",
      "imagem_pasta": "https://animefire.plus/img/animes/bernard-jou-iwaku/",
      "secao": "legendados",
      "pagina": 179,
      "total_episodios": 3,
      "link_video": "https://animefire.plus/video/bernard-jou-iwaku"
    },
    {
      "id": 376,
      "nome": "Berserk",
      "link": "https://animefire.plus/animes/berserk-todos-os-episodios",
      "texto_original": "Berserk",
      "rating": 6.51,
      "classificacao_etaria": "A18",
      "imagem_original": "https://animefire.plus/img/animes/berserk.webp",
      "imagem_pasta": "https://animefire.plus/img/animes/berserk/",
      "secao": "legendados",
      "pagina": 66,
      "total_episodios": 12,
      "link_video": "https://animefire.plus/video/berserk"
    },
    {
      "id": 377,
      "nome": "Berserk 2nd Season",
      "link": "https://animefire.plus/animes/berserk-2nd-season-todos-os-episodios",
      "texto_original": "Berserk 2nd Season",
      "rating": 6.98,
      "classificacao_etaria": "A16",
      "imagem_original": "https://animefire.plus/img/animes/berserk-2nd-season.webp",
      "imagem_pasta": "https://animefire.plus/img/animes/berserk-2nd-season/",
      "secao": "legendados",
      "pagina": 171,
      "total_episodios": 13,
      "link_video": "https://animefire.plus/video/berserk-2nd-season"
    },
    {
      "id": 379,
      "nome": "Beyblade Burst",
      "link": "https://animefire.plus/animes/beyblade-burst-todos-os-episodios",
      "texto_original": "Beyblade Burst",
      "rating": 6.58,
      "classificacao_etaria": "A10",
      "imagem_original": "https://animefire.plus/img/animes/beyblade-burst.webp",
      "imagem_pasta": "https://animefire.plus/img/animes/beyblade-burst/",
      "secao": "legendados",
      "pagina": 173,
      "total_episodios": 2,
      "link_video": "https://animefire.plus/video/beyblade-burst"
    },
    {
      "id": 380,
      "nome": "Beyblade Burst Dynamite Battle",
      "link": "https://animefire.plus/animes/beyblade-burst-dynamite-battle-todos-os-episodios",
      "texto_original": "Beyblade Burst Dynamite Battle",
      "rating": 6.23,
      "classificacao_etaria": null,
      "imagem_original": "https://animefire.plus/img/animes/beyblade-burst-dynamite-battle.webp",
      "imagem_pasta": "https://animefire.plus/img/animes/beyblade-burst-dynamite-battle/",
      "secao": "legendados,lancamentos",
      "pagina": 45,
      "total_episodios": 1,
      "link_video": "https://animefire.plus/video/beyblade-burst-dynamite-battle"
    },
    {
      "id": 381,
      "nome": "Beyblade Burst Sparking",
      "link": "https://animefire.plus/animes/beyblade-burst-sparking-todos-os-episodios",
      "texto_original": "Beyblade Burst Sparking",
      "rating": 6.29,
      "classificacao_etaria": "A10",
      "imagem_original": "https://animefire.plus/img/animes/beyblade-burst-sparking.webp",
      "imagem_pasta": "https://animefire.plus/img/animes/beyblade-burst-sparking/",
      "secao": "legendados",
      "pagina": 50,
      "total_episodios": 1,
      "link_video": "https://animefire.plus/video/beyblade-burst-sparking"
    },
    {
      "id": 383,
      "nome": "Big Order",
      "link": "https://animefire.plus/animes/big-order-todos-os-episodios",
      "texto_original": "Big Order",
      "rating": 5.85,
      "classificacao_etaria": "A18",
      "imagem_original": "https://animefire.plus/img/animes/big-order.webp",
      "imagem_pasta": "https://animefire.plus/img/animes/big-order/",
      "secao": "legendados",
      "pagina": 62,
      "total_episodios": 10,
      "link_video": "https://animefire.plus/video/big-order"
    },
    {
      "id": 384,
      "nome": "Big Order (TV)",
      "link": "https://animefire.plus/animes/big-order-tv-todos-os-episodios",
      "texto_original": "Big Order (TV)",
      "rating": 5.45,
      "classificacao_etaria": "A18",
      "imagem_original": "https://animefire.plus/img/animes/big-order-tv.webp",
      "imagem_pasta": "https://animefire.plus/img/animes/big-order-tv/",
      "secao": "legendados",
      "pagina": 79,
      "total_episodios": 10,
      "link_video": "https://animefire.plus/video/big-order-tv"
    },
    {
      "id": 385,
      "nome": "Bihada Ichizoku",
      "link": "https://animefire.plus/animes/bihada-ichizoku-todos-os-episodios",
      "texto_original": "Bihada Ichizoku",
      "rating": 5.8,
      "classificacao_etaria": "A14",
      "imagem_original": "https://animefire.plus/img/animes/bihada-ichizoku.webp",
      "imagem_pasta": "https://animefire.plus/img/animes/bihada-ichizoku/",
      "secao": "legendados",
      "pagina": 139,
      "total_episodios": 12,
      "link_video": "https://animefire.plus/video/bihada-ichizoku"
    },
    {
      "id": 386,
      "nome": "Bikini Warriors",
      "link": "https://animefire.plus/animes/bikini-warriors-todos-os-episodios",
      "texto_original": "Bikini Warriors",
      "rating": 5.28,
      "classificacao_etaria": "A18",
      "imagem_original": "https://animefire.plus/img/animes/bikini-warriors.webp",
      "imagem_pasta": "https://animefire.plus/img/animes/bikini-warriors/",
      "secao": "legendados",
      "pagina": 103,
      "total_episodios": 0,
      "link_video": "https://animefire.plus/video/bikini-warriors"
    },
    {
      "id": 388,
      "nome": "Binan Koukou Chikyuu Boueibu Happy Kiss!",
      "link": "https://animefire.plus/animes/binan-koukou-chikyuu-boueibu-happy-kiss-todos-os-episodios",
      "texto_original": "Binan Koukou Chikyuu Boueibu Happy Kiss!",
      "rating": 6.58,
      "classificacao_etaria": "A14",
      "imagem_original": "https://animefire.plus/img/animes/binan-koukou-chikyuu-boueibu-happy-kiss.webp",
      "imagem_pasta": "https://animefire.plus/img/animes/binan-koukou-chikyuu-boueibu-happy-kiss/",
      "secao": "legendados",
      "pagina": 160,
      "total_episodios": 11,
      "link_video": "https://animefire.plus/video/binan-koukou-chikyuu-boueibu-happy-kiss"
    }
  ],
  "pagination": {
    "current_page": 9,
    "per_page": 20,
    "total_items": 1805,
    "total_pages": 91,
    "has_next": true,
    "has_prev": true
  }
}
