{
  "message": "Animes com rating entre 7 e 8",
  "rating_range": {
    "min": 7,
    "max": 8
  },
  "data": [
    {
      "id": 3214,
      "nome": "Saishuu Heiki Kanojo (Dublado)",
      "link": "https://animefire.plus/animes/saishuu-heiki-kanojo-dublado-todos-os-episodios",
      "texto_original": "Saishuu Heiki Kanojo (Dublado)",
      "rating": 7.2,
      "classificacao_etaria": "A16",
      "imagem_original": "https://animefire.plus/img/animes/saishuu-heiki-kanojo.webp",
      "imagem_pasta": "https://animefire.plus/img/animes/saishuu-heiki-kanojo/",
      "secao": "dublados,legendados",
      "pagina": 25,
      "total_episodios": 13,
      "link_video": "https://animefire.plus/video/saishuu-heiki-kanojo-dublado"
    },
    {
      "id": 3217,
      "nome": "Saiyuuki Gaiden",
      "link": "https://animefire.plus/animes/saiyuuki-gaiden-todos-os-episodios",
      "texto_original": "Saiyuuki Gaiden",
      "rating": 7.95,
      "classificacao_etaria": "A16",
      "imagem_original": "https://animefire.plus/img/animes/saiyuuki-gaiden.webp",
      "imagem_pasta": "https://animefire.plus/img/animes/saiyuuki-gaiden/",
      "secao": "legendados",
      "pagina": 152,
      "total_episodios": 3,
      "link_video": "https://animefire.plus/video/saiyuuki-gaiden"
    },
    {
      "id": 3218,
      "nome": "Saiyuuki Reload",
      "link": "https://animefire.plus/animes/saiyuuki-reload-todos-os-episodios",
      "texto_original": "Saiyuuki Reload",
      "rating": 7.49,
      "classificacao_etaria": "A14",
      "imagem_original": "https://animefire.plus/img/animes/saiyuuki-reload.webp",
      "imagem_pasta": "https://animefire.plus/img/animes/saiyuuki-reload/",
      "secao": "legendados",
      "pagina": 176,
      "total_episodios": 25,
      "link_video": "https://animefire.plus/video/saiyuuki-reload"
    },
    {
      "id": 3219,
      "nome": "Saiyuuki Reload Blast",
      "link": "https://animefire.plus/animes/saiyuuki-reload-blast-todos-os-episodios",
      "texto_original": "Saiyuuki Reload Blast",
      "rating": 7.33,
      "classificacao_etaria": "A14",
      "imagem_original": "https://animefire.plus/img/animes/saiyuuki-reload-blast.webp",
      "imagem_pasta": "https://animefire.plus/img/animes/saiyuuki-reload-blast/",
      "secao": "legendados",
      "pagina": 114,
      "total_episodios": 12,
      "link_video": "https://animefire.plus/video/saiyuuki-reload-blast"
    },
    {
      "id": 3220,
      "nome": "Saiyuuki Reload Gunlock",
      "link": "https://animefire.plus/animes/saiyuuki-reload-gunlock-todos-os-episodios",
      "texto_original": "Saiyuuki Reload Gunlock",
      "rating": 7.5,
      "classificacao_etaria": "A14",
      "imagem_original": "https://animefire.plus/img/animes/saiyuuki-reload-gunlock.webp",
      "imagem_pasta": "https://animefire.plus/img/animes/saiyuuki-reload-gunlock/",
      "secao": "legendados",
      "pagina": 176,
      "total_episodios": 26,
      "link_video": "https://animefire.plus/video/saiyuuki-reload-gunlock"
    },
    {
      "id": 3221,
      "nome": "Saiyuuki Reload: Burial",
      "link": "https://animefire.plus/animes/saiyuuki-reload-burial-todos-os-episodios",
      "texto_original": "Saiyuuki Reload: Burial",
      "rating": 7.96,
      "classificacao_etaria": "A14",
      "imagem_original": "https://animefire.plus/img/animes/saiyuuki-reload-burial.webp",
      "imagem_pasta": "https://animefire.plus/img/animes/saiyuuki-reload-burial/",
      "secao": "legendados",
      "pagina": 113,
      "total_episodios": 3,
      "link_video": "https://animefire.plus/video/saiyuuki-reload-burial"
    },
    {
      "id": 3224,
      "nome": "Sakamoto Days (Dublado)",
      "link": "https://animefire.plus/animes/sakamoto-days-dublado-todos-os-episodios",
      "texto_original": "Sakamoto Days (Dublado)",
      "rating": 7.58,
      "classificacao_etaria": "A16",
      "imagem_original": "https://animefire.plus/img/animes/sakamoto-days.webp",
      "imagem_pasta": "https://animefire.plus/img/animes/sakamoto-days/",
      "secao": "dublados,legendados",
      "pagina": 1,
      "total_episodios": 11,
      "link_video": "https://animefire.plus/video/sakamoto-days-dublado"
    },
    {
      "id": 3225,
      "nome": "Sakamoto Days Part 2 (Dublado)",
      "link": "https://animefire.plus/animes/sakamoto-days-part-2-dublado-todos-os-episodios",
      "texto_original": "Sakamoto Days Part 2 (Dublado)",
      "rating": 7.88,
      "classificacao_etaria": "A16",
      "imagem_original": "https://animefire.plus/img/animes/sakamoto-days-part-2.webp",
      "imagem_pasta": "https://animefire.plus/img/animes/sakamoto-days-part-2/",
      "secao": "dublados,legendados,lancamentos",
      "pagina": 1,
      "total_episodios": 4,
      "link_video": "https://animefire.plus/video/sakamoto-days-part-2-dublado"
    },
    {
      "id": 3226,
      "nome": "Sakamoto Desu ga?",
      "link": "https://animefire.plus/animes/sakamoto-desu-ga-todos-os-episodios",
      "texto_original": "Sakamoto Desu ga?",
      "rating": 7.67,
      "classificacao_etaria": "A14",
      "imagem_original": "https://animefire.plus/img/animes/sakamoto-desu-ga.webp",
      "imagem_pasta": "https://animefire.plus/img/animes/sakamoto-desu-ga/",
      "secao": "legendados",
      "pagina": 117,
      "total_episodios": 7,
      "link_video": "https://animefire.plus/video/sakamoto-desu-ga"
    },
    {
      "id": 3227,
      "nome": "Saki",
      "link": "https://animefire.plus/animes/saki-todos-os-episodios",
      "texto_original": "Saki",
      "rating": 7.5,
      "classificacao_etaria": "A14",
      "imagem_original": "https://animefire.plus/img/animes/saki.webp",
      "imagem_pasta": "https://animefire.plus/img/animes/saki/",
      "secao": "legendados",
      "pagina": 65,
      "total_episodios": 25,
      "link_video": "https://animefire.plus/video/saki"
    },
    {
      "id": 3228,
      "nome": "Saki Achiga-hen: Episode of Side-A",
      "link": "https://animefire.plus/animes/saki-achiga-hen-episode-of-side-a-todos-os-episodios",
      "texto_original": "Saki Achiga-hen: Episode of Side-A",
      "rating": 7.34,
      "classificacao_etaria": "A14",
      "imagem_original": "https://animefire.plus/img/animes/saki-achiga-hen-episode-of-side-a.webp",
      "imagem_pasta": "https://animefire.plus/img/animes/saki-achiga-hen-episode-of-side-a/",
      "secao": "legendados",
      "pagina": 65,
      "total_episodios": 12,
      "link_video": "https://animefire.plus/video/saki-achiga-hen-episode-of-side-a"
    },
    {
      "id": 3230,
      "nome": "Saki Zenkoku-hen",
      "link": "https://animefire.plus/animes/saki-zenkoku-hen-todos-os-episodios",
      "texto_original": "Saki Zenkoku-hen",
      "rating": 7.45,
      "classificacao_etaria": "A14",
      "imagem_original": "https://animefire.plus/img/animes/saki-zenkoku-hen.webp",
      "imagem_pasta": "https://animefire.plus/img/animes/saki-zenkoku-hen/",
      "secao": "legendados",
      "pagina": 65,
      "total_episodios": 13,
      "link_video": "https://animefire.plus/video/saki-zenkoku-hen"
    },
    {
      "id": 3231,
      "nome": "Sakigake!! Cromartie Koukou",
      "link": "https://animefire.plus/animes/sakigake-cromartie-koukou-todos-os-episodios",
      "texto_original": "Sakigake!! Cromartie Koukou",
      "rating": 7.93,
      "classificacao_etaria": "A14",
      "imagem_original": "https://animefire.plus/img/animes/sakigake-cromartie-koukou.webp",
      "imagem_pasta": "https://animefire.plus/img/animes/sakigake-cromartie-koukou/",
      "secao": "legendados",
      "pagina": 45,
      "total_episodios": 25,
      "link_video": "https://animefire.plus/video/sakigake-cromartie-koukou"
    },
    {
      "id": 3234,
      "nome": "Sakura Quest",
      "link": "https://animefire.plus/animes/sakura-quest-todos-os-episodios",
      "texto_original": "Sakura Quest",
      "rating": 7.46,
      "classificacao_etaria": "A14",
      "imagem_original": "https://animefire.plus/img/animes/sakura-quest.webp",
      "imagem_pasta": "https://animefire.plus/img/animes/sakura-quest/",
      "secao": "legendados",
      "pagina": 153,
      "total_episodios": 24,
      "link_video": "https://animefire.plus/video/sakura-quest"
    },
    {
      "id": 3236,
      "nome": "Sakura Trick",
      "link": "https://animefire.plus/animes/sakura-trick-todos-os-episodios",
      "texto_original": "Sakura Trick",
      "rating": 7.12,
      "classificacao_etaria": "A14",
      "imagem_original": "https://animefire.plus/img/animes/sakura-trick.webp",
      "imagem_pasta": "https://animefire.plus/img/animes/sakura-trick/",
      "secao": "legendados",
      "pagina": 129,
      "total_episodios": 12,
      "link_video": "https://animefire.plus/video/sakura-trick"
    },
    {
      "id": 3238,
      "nome": "Sakurada Reset",
      "link": "https://animefire.plus/animes/sakurada-reset-todos-os-episodios",
      "texto_original": "Sakurada Reset",
      "rating": 7.42,
      "classificacao_etaria": "A14",
      "imagem_original": "https://animefire.plus/img/animes/sakurada-reset.webp",
      "imagem_pasta": "https://animefire.plus/img/animes/sakurada-reset/",
      "secao": "legendados",
      "pagina": 147,
      "total_episodios": 24,
      "link_video": "https://animefire.plus/video/sakurada-reset"
    },
    {
      "id": 3239,
      "nome": "Sakurako-san no Ashimoto ni wa Shitai ga Umatteiru",
      "link": "https://animefire.plus/animes/sakurako-san-no-ashimoto-ni-wa-shitai-ga-umatteiru-todos-os-episodios",
      "texto_original": "Sakurako-san no Ashimoto ni wa Shitai ga Umatteiru",
      "rating": 7.46,
      "classificacao_etaria": "A16",
      "imagem_original": "https://animefire.plus/img/animes/sakurako-san-no-ashimoto-ni-wa-shitai-ga-umatteiru.webp",
      "imagem_pasta": "https://animefire.plus/img/animes/sakurako-san-no-ashimoto-ni-wa-shitai-ga-umatteiru/",
      "secao": "legendados",
      "pagina": 154,
      "total_episodios": 12,
      "link_video": "https://animefire.plus/video/sakurako-san-no-ashimoto-ni-wa-shitai-ga-umatteiru"
    },
    {
      "id": 3242,
      "nome": "Samurai 7",
      "link": "https://animefire.plus/animes/samurai-7-todos-os-episodios",
      "texto_original": "Samurai 7",
      "rating": 7.55,
      "classificacao_etaria": "A14",
      "imagem_original": "https://animefire.plus/img/animes/samurai-7.webp",
      "imagem_pasta": "https://animefire.plus/img/animes/samurai-7/",
      "secao": "legendados",
      "pagina": 112,
      "total_episodios": 25,
      "link_video": "https://animefire.plus/video/samurai-7"
    },
    {
      "id": 3249,
      "nome": "Sand Land: The Series",
      "link": "https://animefire.plus/animes/sand-land-the-series-todos-os-episodios",
      "texto_original": "Sand Land: The Series",
      "rating": 7.56,
      "classificacao_etaria": "A14",
      "imagem_original": "https://animefire.plus/img/animes/sand-land-the-series.webp",
      "imagem_pasta": "https://animefire.plus/img/animes/sand-land-the-series/",
      "secao": "legendados,lancamentos",
      "pagina": 15,
      "total_episodios": 1,
      "link_video": "https://animefire.plus/video/sand-land-the-series"
    },
    {
      "id": 3252,
      "nome": "Sankarea",
      "link": "https://animefire.plus/animes/sankarea-todos-os-episodios",
      "texto_original": "Sankarea",
      "rating": 7.46,
      "classificacao_etaria": "A18",
      "imagem_original": "https://animefire.plus/img/animes/sankarea.webp",
      "imagem_pasta": "https://animefire.plus/img/animes/sankarea/",
      "secao": "legendados",
      "pagina": 158,
      "total_episodios": 12,
      "link_video": "https://animefire.plus/video/sankarea"
    }
  ],
  "pagination": {
    "current_page": 69,
    "per_page": 20,
    "total_items": 1905,
    "total_pages": 96,
    "has_next": true,
    "has_prev": true
  }
}
