{
  "message": "Animes com rating entre 7 e 8",
  "rating_range": {
    "min": 7,
    "max": 8
  },
  "data": [
    {
      "id": 212,
      "nome": "Aoki Hagane no Arpeggio: Ars Nova",
      "link": "https://animefire.plus/animes/aoki-hagane-no-arpeggio-ars-nova-todos-os-episodios",
      "texto_original": "Aoki Hagane no Arpeggio: Ars Nova",
      "rating": 7.47,
      "classificacao_etaria": "A14",
      "imagem_original": "https://animefire.plus/img/animes/aoki-hagane-no-arpeggio-ars-nova.webp",
      "imagem_pasta": "https://animefire.plus/img/animes/aoki-hagane-no-arpeggio-ars-nova/",
      "secao": "legendados",
      "pagina": 147,
      "total_episodios": 5,
      "link_video": "https://animefire.plus/video/aoki-hagane-no-arpeggio-ars-nova"
    },
    {
      "id": 215,
      "nome": "Appare-Ranman! (Dublado)",
      "link": "https://animefire.plus/animes/appare-ranman-dublado-todos-os-episodios",
      "texto_original": "Appare-Ranman! (Dublado)",
      "rating": 7.29,
      "classificacao_etaria": "A14",
      "imagem_original": "https://animefire.plus/img/animes/appare-ranman.webp",
      "imagem_pasta": "https://animefire.plus/img/animes/appare-ranman/",
      "secao": "dublados,legendados",
      "pagina": 13,
      "total_episodios": 13,
      "link_video": "https://animefire.plus/video/appare-ranman-dublado"
    },
    {
      "id": 216,
      "nome": "Aquarion Evol",
      "link": "https://animefire.plus/animes/aquarion-evol-todos-os-episodios",
      "texto_original": "Aquarion Evol",
      "rating": 7.23,
      "classificacao_etaria": "A14",
      "imagem_original": "https://animefire.plus/img/animes/aquarion-evol.webp",
      "imagem_pasta": "https://animefire.plus/img/animes/aquarion-evol/",
      "secao": "legendados",
      "pagina": 158,
      "total_episodios": 25,
      "link_video": "https://animefire.plus/video/aquarion-evol"
    },
    {
      "id": 218,
      "nome": "Araburu Kisetsu no Otome-domo yo.",
      "link": "https://animefire.plus/animes/araburu-kisetsu-no-otome-domo-yo-todos-os-episodios",
      "texto_original": "Araburu Kisetsu no Otome-domo yo.",
      "rating": 7.5,
      "classificacao_etaria": "A14",
      "imagem_original": "https://animefire.plus/img/animes/araburu-kisetsu-no-otome-domo-yo.webp",
      "imagem_pasta": "https://animefire.plus/img/animes/araburu-kisetsu-no-otome-domo-yo/",
      "secao": "legendados",
      "pagina": 161,
      "total_episodios": 12,
      "link_video": "https://animefire.plus/video/araburu-kisetsu-no-otome-domo-yo"
    },
    {
      "id": 220,
      "nome": "Arakawa Under the Bridge",
      "link": "https://animefire.plus/animes/arakawa-under-the-bridge-todos-os-episodios",
      "texto_original": "Arakawa Under the Bridge",
      "rating": 7.65,
      "classificacao_etaria": "A14",
      "imagem_original": "https://animefire.plus/img/animes/arakawa-under-the-bridge.webp",
      "imagem_pasta": "https://animefire.plus/img/animes/arakawa-under-the-bridge/",
      "secao": "legendados",
      "pagina": 166,
      "total_episodios": 13,
      "link_video": "https://animefire.plus/video/arakawa-under-the-bridge"
    },
    {
      "id": 221,
      "nome": "Arakawa Under The Bridge X Bridge",
      "link": "https://animefire.plus/animes/arakawa-under-the-bridge-x-bridge-todos-os-episodios",
      "texto_original": "Arakawa Under The Bridge X Bridge",
      "rating": 7.79,
      "classificacao_etaria": "A14",
      "imagem_original": "https://animefire.plus/img/animes/arakawa-under-the-bridge-x-bridge.webp",
      "imagem_pasta": "https://animefire.plus/img/animes/arakawa-under-the-bridge-x-bridge/",
      "secao": "legendados",
      "pagina": 97,
      "total_episodios": 13,
      "link_video": "https://animefire.plus/video/arakawa-under-the-bridge-x-bridge"
    },
    {
      "id": 225,
      "nome": "Area 88",
      "link": "https://animefire.plus/animes/area-88-todos-os-episodios",
      "texto_original": "Area 88",
      "rating": 7.6,
      "classificacao_etaria": "A18",
      "imagem_original": "https://animefire.plus/img/animes/area-88.webp",
      "imagem_pasta": "https://animefire.plus/img/animes/area-88/",
      "secao": "legendados",
      "pagina": 103,
      "total_episodios": 12,
      "link_video": "https://animefire.plus/video/area-88"
    },
    {
      "id": 226,
      "nome": "Area 88 (TV)",
      "link": "https://animefire.plus/animes/area-88-tv-todos-os-episodios",
      "texto_original": "Area 88 (TV)",
      "rating": 7.04,
      "classificacao_etaria": "A14",
      "imagem_original": "https://animefire.plus/img/animes/area-88-tv.webp",
      "imagem_pasta": "https://animefire.plus/img/animes/area-88-tv/",
      "secao": "legendados",
      "pagina": 74,
      "total_episodios": 12,
      "link_video": "https://animefire.plus/video/area-88-tv"
    },
    {
      "id": 227,
      "nome": "Area no Kishi",
      "link": "https://animefire.plus/animes/area-no-kishi-todos-os-episodios",
      "texto_original": "Area no Kishi",
      "rating": 7.31,
      "classificacao_etaria": "A14",
      "imagem_original": "https://animefire.plus/img/animes/area-no-kishi.webp",
      "imagem_pasta": "https://animefire.plus/img/animes/area-no-kishi/",
      "secao": "legendados",
      "pagina": 157,
      "total_episodios": 37,
      "link_video": "https://animefire.plus/video/area-no-kishi"
    },
    {
      "id": 230,
      "nome": "Aria the Animation (Dublado)",
      "link": "https://animefire.plus/animes/aria-the-animation-dublado-todos-os-episodios",
      "texto_original": "Aria the Animation (Dublado)",
      "rating": 7.67,
      "classificacao_etaria": null,
      "imagem_original": "https://animefire.plus/img/animes/aria-the-animation.webp",
      "imagem_pasta": "https://animefire.plus/img/animes/aria-the-animation/",
      "secao": "dublados,legendados",
      "pagina": 3,
      "total_episodios": 13,
      "link_video": "https://animefire.plus/video/aria-the-animation-dublado"
    },
    {
      "id": 235,
      "nome": "Arifureta Shokugyou de Sekai Saikyou 2nd Season (Dublado)",
      "link": "https://animefire.plus/animes/arifureta-shokugyou-de-sekai-saikyou-2nd-season-dublado-todos-os-episodios",
      "texto_original": "Arifureta Shokugyou de Sekai Saikyou 2nd Season (Dublado)",
      "rating": 7.15,
      "classificacao_etaria": "A14",
      "imagem_original": "https://animefire.plus/img/animes/arifureta-shokugyou-de-sekai-saikyou-2nd-season.webp",
      "imagem_pasta": "https://animefire.plus/img/animes/arifureta-shokugyou-de-sekai-saikyou-2nd-season/",
      "secao": "dublados,legendados",
      "pagina": 12,
      "total_episodios": 12,
      "link_video": "https://animefire.plus/video/arifureta-shokugyou-de-sekai-saikyou-2nd-season-dublado"
    },
    {
      "id": 237,
      "nome": "Arifureta Shokugyou de Sekai Saikyou Season 3 (Dublado)",
      "link": "https://animefire.plus/animes/arifureta-shokugyou-de-sekai-saikyou-season-3-dublado-todos-os-episodios",
      "texto_original": "Arifureta Shokugyou de Sekai Saikyou Season 3 (Dublado)",
      "rating": 7.02,
      "classificacao_etaria": "A16",
      "imagem_original": "https://animefire.plus/img/animes/arifureta-shokugyou-de-sekai-saikyou-season-3.webp",
      "imagem_pasta": "https://animefire.plus/img/animes/arifureta-shokugyou-de-sekai-saikyou-season-3/",
      "secao": "dublados,legendados,lancamentos",
      "pagina": 2,
      "total_episodios": 16,
      "link_video": "https://animefire.plus/video/arifureta-shokugyou-de-sekai-saikyou-season-3-dublado"
    },
    {
      "id": 239,
      "nome": "Arifureta Shokugyou de Sekai Saikyou: Maboroshi no Bouken to Kiseki no Kaigou (Dublado)",
      "link": "https://animefire.plus/animes/arifureta-shokugyou-de-sekai-saikyou-maboroshi-no-bouken-to-kiseki-no-kaigou-dublado-todos-os-episodios",
      "texto_original": "Arifureta Shokugyou de Sekai Saikyou: Maboroshi no Bouken to Kiseki no Kaigou (Dublado)",
      "rating": 7.16,
      "classificacao_etaria": "A14",
      "imagem_original": "https://animefire.plus/img/animes/arifureta-shokugyou-de-sekai-saikyou-maboroshi-no-bouken-to-kiseki-no-kaigou.webp",
      "imagem_pasta": "https://animefire.plus/img/animes/arifureta-shokugyou-de-sekai-saikyou-maboroshi-no-bouken-to-kiseki-no-kaigou/",
      "secao": "dublados,legendados",
      "pagina": 7,
      "total_episodios": 2,
      "link_video": "https://animefire.plus/video/arifureta-shokugyou-de-sekai-saikyou-maboroshi-no-bouken-to-kiseki-no-kaigou-dublado"
    },
    {
      "id": 240,
      "nome": "Arknights: Reimei Zensou",
      "link": "https://animefire.plus/animes/arknights-reimei-zensou-todos-os-episodios",
      "texto_original": "Arknights: Reimei Zensou",
      "rating": 7.07,
      "classificacao_etaria": "A14",
      "imagem_original": "https://animefire.plus/img/animes/arknights-reimei-zensou.webp",
      "imagem_pasta": "https://animefire.plus/img/animes/arknights-reimei-zensou/",
      "secao": "legendados",
      "pagina": 29,
      "total_episodios": 8,
      "link_video": "https://animefire.plus/video/arknights-reimei-zensou"
    },
    {
      "id": 241,
      "nome": "Arknights: Rise from Ember",
      "link": "https://animefire.plus/animes/arknights-rise-from-ember-todos-os-episodios",
      "texto_original": "Arknights: Rise from Ember",
      "rating": 7.7,
      "classificacao_etaria": "A14",
      "imagem_original": "https://animefire.plus/img/animes/arknights-rise-from-ember.webp",
      "imagem_pasta": "https://animefire.plus/img/animes/arknights-rise-from-ember/",
      "secao": "legendados,lancamentos",
      "pagina": 2,
      "total_episodios": 4,
      "link_video": "https://animefire.plus/video/arknights-rise-from-ember"
    },
    {
      "id": 242,
      "nome": "Arknights: Touin Kiro",
      "link": "https://animefire.plus/animes/arknights-touin-kiro-todos-os-episodios",
      "texto_original": "Arknights: Touin Kiro",
      "rating": 7.58,
      "classificacao_etaria": "A14",
      "imagem_original": "https://animefire.plus/img/animes/arknights-touin-kiro.webp",
      "imagem_pasta": "https://animefire.plus/img/animes/arknights-touin-kiro/",
      "secao": "legendados,lancamentos",
      "pagina": 19,
      "total_episodios": 3,
      "link_video": "https://animefire.plus/video/arknights-touin-kiro"
    },
    {
      "id": 246,
      "nome": "Arslan Senki (TV)",
      "link": "https://animefire.plus/animes/arslan-senki-tv-todos-os-episodios",
      "texto_original": "Arslan Senki (TV)",
      "rating": 7.77,
      "classificacao_etaria": "A16",
      "imagem_original": "https://animefire.plus/img/animes/arslan-senki-tv.webp",
      "imagem_pasta": "https://animefire.plus/img/animes/arslan-senki-tv/",
      "secao": "legendados",
      "pagina": 95,
      "total_episodios": 4,
      "link_video": "https://animefire.plus/video/arslan-senki-tv"
    },
    {
      "id": 247,
      "nome": "Arslan Senki (TV): Fuujin Ranbu",
      "link": "https://animefire.plus/animes/arslan-senki-tv-fuujin-ranbu-todos-os-episodios",
      "texto_original": "Arslan Senki (TV): Fuujin Ranbu",
      "rating": 7.59,
      "classificacao_etaria": "A14",
      "imagem_original": "https://animefire.plus/img/animes/arslan-senki-tv-fuujin-ranbu.webp",
      "imagem_pasta": "https://animefire.plus/img/animes/arslan-senki-tv-fuujin-ranbu/",
      "secao": "legendados",
      "pagina": 124,
      "total_episodios": 0,
      "link_video": "https://animefire.plus/video/arslan-senki-tv-fuujin-ranbu"
    },
    {
      "id": 248,
      "nome": "Arte",
      "link": "https://animefire.plus/animes/arte-todos-os-episodios",
      "texto_original": "Arte",
      "rating": 7.17,
      "classificacao_etaria": "A14",
      "imagem_original": "https://animefire.plus/img/animes/arte.webp",
      "imagem_pasta": "https://animefire.plus/img/animes/arte/",
      "secao": "legendados",
      "pagina": 60,
      "total_episodios": 8,
      "link_video": "https://animefire.plus/video/arte"
    },
    {
      "id": 250,
      "nome": "Aru Majo ga Shinu Made",
      "link": "https://animefire.plus/animes/aru-majo-ga-shinu-made-todos-os-episodios",
      "texto_original": "Aru Majo ga Shinu Made",
      "rating": 7.35,
      "classificacao_etaria": "A14",
      "imagem_original": "https://animefire.plus/img/animes/aru-majo-ga-shinu-made.webp",
      "imagem_pasta": "https://animefire.plus/img/animes/aru-majo-ga-shinu-made/",
      "secao": "legendados",
      "pagina": 5,
      "total_episodios": 12,
      "link_video": "https://animefire.plus/video/aru-majo-ga-shinu-made"
    }
  ],
  "pagination": {
    "current_page": 6,
    "per_page": 20,
    "total_items": 1905,
    "total_pages": 96,
    "has_next": true,
    "has_prev": true
  }
}
