{
  "message": "Animes com rating entre 7 e 8",
  "rating_range": {
    "min": 7,
    "max": 8
  },
  "data": [
    {
      "id": 3371,
      "nome": "Shadows House (Dublado)",
      "link": "https://animefire.plus/animes/shadows-house-dublado-todos-os-episodios",
      "texto_original": "Shadows House (Dublado)",
      "rating": 7.8,
      "classificacao_etaria": "A14",
      "imagem_original": "https://animefire.plus/img/animes/shadows-house.webp",
      "imagem_pasta": "https://animefire.plus/img/animes/shadows-house/",
      "secao": "dublados,legendados",
      "pagina": 13,
      "total_episodios": 13,
      "link_video": "https://animefire.plus/video/shadows-house-dublado"
    },
    {
      "id": 3376,
      "nome": "Shakugan no Shana",
      "link": "https://animefire.plus/animes/shakugan-no-shana-todos-os-episodios",
      "texto_original": "Shakugan no Shana",
      "rating": 7.62,
      "classificacao_etaria": "A14",
      "imagem_original": "https://animefire.plus/img/animes/shakugan-no-shana.webp",
      "imagem_pasta": "https://animefire.plus/img/animes/shakugan-no-shana/",
      "secao": "legendados",
      "pagina": 166,
      "total_episodios": 24,
      "link_video": "https://animefire.plus/video/shakugan-no-shana"
    },
    {
      "id": 3377,
      "nome": "Shakugan no Shana II (Second)",
      "link": "https://animefire.plus/animes/shakugan-no-shana-ii-second-todos-os-episodios",
      "texto_original": "Shakugan no Shana II (Second)",
      "rating": 7.69,
      "classificacao_etaria": "A14",
      "imagem_original": "https://animefire.plus/img/animes/shakugan-no-shana-ii-second.webp",
      "imagem_pasta": "https://animefire.plus/img/animes/shakugan-no-shana-ii-second/",
      "secao": "legendados",
      "pagina": 119,
      "total_episodios": 24,
      "link_video": "https://animefire.plus/video/shakugan-no-shana-ii-second"
    },
    {
      "id": 3378,
      "nome": "Shakugan no Shana III (Final)",
      "link": "https://animefire.plus/animes/shakugan-no-shana-iii-final-todos-os-episodios",
      "texto_original": "Shakugan no Shana III (Final)",
      "rating": 7.64,
      "classificacao_etaria": "A14",
      "imagem_original": "https://animefire.plus/img/animes/shakugan-no-shana-iii-final.webp",
      "imagem_pasta": "https://animefire.plus/img/animes/shakugan-no-shana-iii-final/",
      "secao": "legendados",
      "pagina": 112,
      "total_episodios": 24,
      "link_video": "https://animefire.plus/video/shakugan-no-shana-iii-final"
    },
    {
      "id": 3379,
      "nome": "Shakugan no Shana-tan II (Second)",
      "link": "https://animefire.plus/animes/shakugan-no-shana-tan-ii-second-todos-os-episodios",
      "texto_original": "Shakugan no Shana-tan II (Second)",
      "rating": 7.22,
      "classificacao_etaria": "A14",
      "imagem_original": "https://animefire.plus/img/animes/shakugan-no-shana-tan-ii-second.webp",
      "imagem_pasta": "https://animefire.plus/img/animes/shakugan-no-shana-tan-ii-second/",
      "secao": "legendados",
      "pagina": 71,
      "total_episodios": 3,
      "link_video": "https://animefire.plus/video/shakugan-no-shana-tan-ii-second"
    },
    {
      "id": 3380,
      "nome": "Shakugan no Shana-tan III (Final): Final Destruction",
      "link": "https://animefire.plus/animes/shakugan-no-shana-tan-iii-final-final-destruction-todos-os-episodios",
      "texto_original": "Shakugan no Shana-tan III (Final): Final Destruction",
      "rating": 7.09,
      "classificacao_etaria": "A14",
      "imagem_original": "https://animefire.plus/img/animes/shakugan-no-shana-tan-iii-final-final-destruction.webp",
      "imagem_pasta": "https://animefire.plus/img/animes/shakugan-no-shana-tan-iii-final-final-destruction/",
      "secao": "legendados",
      "pagina": 78,
      "total_episodios": 2,
      "link_video": "https://animefire.plus/video/shakugan-no-shana-tan-iii-final-final-destruction"
    },
    {
      "id": 3381,
      "nome": "Shakunetsu Kabaddi",
      "link": "https://animefire.plus/animes/shakunetsu-kabaddi-todos-os-episodios",
      "texto_original": "Shakunetsu Kabaddi",
      "rating": 7.01,
      "classificacao_etaria": "A14",
      "imagem_original": "https://animefire.plus/img/animes/shakunetsu-kabaddi.webp",
      "imagem_pasta": "https://animefire.plus/img/animes/shakunetsu-kabaddi/",
      "secao": "legendados",
      "pagina": 47,
      "total_episodios": 12,
      "link_video": "https://animefire.plus/video/shakunetsu-kabaddi"
    },
    {
      "id": 3382,
      "nome": "Shakunetsu no Takkyuu Musume",
      "link": "https://animefire.plus/animes/shakunetsu-no-takkyuu-musume-todos-os-episodios",
      "texto_original": "Shakunetsu no Takkyuu Musume",
      "rating": 7.14,
      "classificacao_etaria": "A14",
      "imagem_original": "https://animefire.plus/img/animes/shakunetsu-no-takkyuu-musume.webp",
      "imagem_pasta": "https://animefire.plus/img/animes/shakunetsu-no-takkyuu-musume/",
      "secao": "legendados",
      "pagina": 143,
      "total_episodios": 10,
      "link_video": "https://animefire.plus/video/shakunetsu-no-takkyuu-musume"
    },
    {
      "id": 3384,
      "nome": "Shaman King (Dublado)",
      "link": "https://animefire.plus/animes/shaman-king-dublado-todos-os-episodios",
      "texto_original": "Shaman King (Dublado)",
      "rating": 7.79,
      "classificacao_etaria": "A14",
      "imagem_original": "https://animefire.plus/img/animes/shaman-king.webp",
      "imagem_pasta": "https://animefire.plus/img/animes/shaman-king/",
      "secao": "dublados,legendados",
      "pagina": 22,
      "total_episodios": 64,
      "link_video": "https://animefire.plus/video/shaman-king-dublado"
    },
    {
      "id": 3386,
      "nome": "Shangri-La",
      "link": "https://animefire.plus/animes/shangri-la-todos-os-episodios",
      "texto_original": "Shangri-La",
      "rating": 7.11,
      "classificacao_etaria": "A14",
      "imagem_original": "https://animefire.plus/img/animes/shangri-la.webp",
      "imagem_pasta": "https://animefire.plus/img/animes/shangri-la/",
      "secao": "legendados",
      "pagina": 151,
      "total_episodios": 24,
      "link_video": "https://animefire.plus/video/shangri-la"
    },
    {
      "id": 3399,
      "nome": "Shigatsu wa Kimi no Uso: Moments",
      "link": "https://animefire.plus/animes/shigatsu-wa-kimi-no-uso-moments-todos-os-episodios",
      "texto_original": "Shigatsu wa Kimi no Uso: Moments",
      "rating": 7.73,
      "classificacao_etaria": "A14",
      "imagem_original": "https://animefire.plus/img/animes/shigatsu-wa-kimi-no-uso-moments.webp",
      "imagem_pasta": "https://animefire.plus/img/animes/shigatsu-wa-kimi-no-uso-moments/",
      "secao": "legendados",
      "pagina": 54,
      "total_episodios": 1,
      "link_video": "https://animefire.plus/video/shigatsu-wa-kimi-no-uso-moments"
    },
    {
      "id": 3400,
      "nome": "Shigofumi",
      "link": "https://animefire.plus/animes/shigofumi-todos-os-episodios",
      "texto_original": "Shigofumi",
      "rating": 7.54,
      "classificacao_etaria": "A16",
      "imagem_original": "https://animefire.plus/img/animes/shigofumi.webp",
      "imagem_pasta": "https://animefire.plus/img/animes/shigofumi/",
      "secao": "legendados",
      "pagina": 157,
      "total_episodios": 12,
      "link_video": "https://animefire.plus/video/shigofumi"
    },
    {
      "id": 3403,
      "nome": "Shigurui",
      "link": "https://animefire.plus/animes/shigurui-todos-os-episodios",
      "texto_original": "Shigurui",
      "rating": 7.47,
      "classificacao_etaria": "A18",
      "imagem_original": "https://animefire.plus/img/animes/shigurui.webp",
      "imagem_pasta": "https://animefire.plus/img/animes/shigurui/",
      "secao": "legendados",
      "pagina": 151,
      "total_episodios": 12,
      "link_video": "https://animefire.plus/video/shigurui"
    },
    {
      "id": 3406,
      "nome": "Shijou Saikyou no Deshi Kenichi OVA",
      "link": "https://animefire.plus/animes/shijou-saikyou-no-deshi-kenichi-ova-todos-os-episodios",
      "texto_original": "Shijou Saikyou no Deshi Kenichi OVA",
      "rating": 7.96,
      "classificacao_etaria": "A18",
      "imagem_original": "https://animefire.plus/img/animes/shijou-saikyou-no-deshi-kenichi-ova.webp",
      "imagem_pasta": "https://animefire.plus/img/animes/shijou-saikyou-no-deshi-kenichi-ova/",
      "secao": "legendados",
      "pagina": 65,
      "total_episodios": 1,
      "link_video": "https://animefire.plus/video/shijou-saikyou-no-deshi-kenichi-ova"
    },
    {
      "id": 3407,
      "nome": "Shikabane Hime: Aka",
      "link": "https://animefire.plus/animes/shikabane-hime-aka-todos-os-episodios",
      "texto_original": "Shikabane Hime: Aka",
      "rating": 7.31,
      "classificacao_etaria": "A16",
      "imagem_original": "https://animefire.plus/img/animes/shikabane-hime-aka.webp",
      "imagem_pasta": "https://animefire.plus/img/animes/shikabane-hime-aka/",
      "secao": "legendados",
      "pagina": 177,
      "total_episodios": 12,
      "link_video": "https://animefire.plus/video/shikabane-hime-aka"
    },
    {
      "id": 3408,
      "nome": "Shikabane Hime: Kuro",
      "link": "https://animefire.plus/animes/shikabane-hime-kuro-todos-os-episodios",
      "texto_original": "Shikabane Hime: Kuro",
      "rating": 7.38,
      "classificacao_etaria": "A16",
      "imagem_original": "https://animefire.plus/img/animes/shikabane-hime-kuro.webp",
      "imagem_pasta": "https://animefire.plus/img/animes/shikabane-hime-kuro/",
      "secao": "legendados",
      "pagina": 147,
      "total_episodios": 12,
      "link_video": "https://animefire.plus/video/shikabane-hime-kuro"
    },
    {
      "id": 3410,
      "nome": "Shiki",
      "link": "https://animefire.plus/animes/shiki-todos-os-episodios",
      "texto_original": "Shiki",
      "rating": 7.87,
      "classificacao_etaria": "A16",
      "imagem_original": "https://animefire.plus/img/animes/shiki.webp",
      "imagem_pasta": "https://animefire.plus/img/animes/shiki/",
      "secao": "legendados",
      "pagina": 154,
      "total_episodios": 22,
      "link_video": "https://animefire.plus/video/shiki"
    },
    {
      "id": 3413,
      "nome": "Shimoneta to Iu Gainen ga Sonzai Shinai Taikutsu na Sekai",
      "link": "https://animefire.plus/animes/shimoneta-to-iu-gainen-ga-sonzai-shinai-taikutsu-na-sekai-todos-os-episodios",
      "texto_original": "Shimoneta to Iu Gainen ga Sonzai Shinai Taikutsu na Sekai",
      "rating": 7.46,
      "classificacao_etaria": "A18",
      "imagem_original": "https://animefire.plus/img/animes/shimoneta-to-iu-gainen-ga-sonzai-shinai-taikutsu-na-sekai.webp",
      "imagem_pasta": "https://animefire.plus/img/animes/shimoneta-to-iu-gainen-ga-sonzai-shinai-taikutsu-na-sekai/",
      "secao": "legendados",
      "pagina": 125,
      "total_episodios": 1,
      "link_video": "https://animefire.plus/video/shimoneta-to-iu-gainen-ga-sonzai-shinai-taikutsu-na-sekai"
    },
    {
      "id": 3425,
      "nome": "Shin Samurai-den Yaiba",
      "link": "https://animefire.plus/animes/shin-samurai-den-yaiba-todos-os-episodios",
      "texto_original": "Shin Samurai-den Yaiba",
      "rating": 7.28,
      "classificacao_etaria": "A14",
      "imagem_original": "https://animefire.plus/img/animes/shin-samurai-den-yaiba.webp",
      "imagem_pasta": "https://animefire.plus/img/animes/shin-samurai-den-yaiba/",
      "secao": "legendados,lancamentos",
      "pagina": 5,
      "total_episodios": 16,
      "link_video": "https://animefire.plus/video/shin-samurai-den-yaiba"
    },
    {
      "id": 3427,
      "nome": "Shin Shirayuki-hime Densetsu Prétear",
      "link": "https://animefire.plus/animes/shin-shirayuki-hime-densetsu-pretear-todos-os-episodios",
      "texto_original": "Shin Shirayuki-hime Densetsu Prétear",
      "rating": 7.28,
      "classificacao_etaria": "A14",
      "imagem_original": "https://animefire.plus/img/animes/shin-shirayuki-hime-densetsu-pretear.webp",
      "imagem_pasta": "https://animefire.plus/img/animes/shin-shirayuki-hime-densetsu-pretear/",
      "secao": "legendados",
      "pagina": 137,
      "total_episodios": 13,
      "link_video": "https://animefire.plus/video/shin-shirayuki-hime-densetsu-pretear"
    }
  ],
  "pagination": {
    "current_page": 73,
    "per_page": 20,
    "total_items": 1905,
    "total_pages": 96,
    "has_next": true,
    "has_prev": true
  }
}
