{
  "message": "Animes com rating entre 7 e 8",
  "rating_range": {
    "min": 7,
    "max": 8
  },
  "data": [
    {
      "id": 1600,
      "nome": "Ike! Ina-chuu Takkyuubu",
      "link": "https://animefire.plus/animes/ike-ina-chuu-takkyuubu-todos-os-episodios",
      "texto_original": "Ike! Ina-chuu Takkyuubu",
      "rating": 7.58,
      "classificacao_etaria": "A18",
      "imagem_original": "https://animefire.plus/img/animes/ike-ina-chuu-takkyuubu.webp",
      "imagem_pasta": "https://animefire.plus/img/animes/ike-ina-chuu-takkyuubu/",
      "secao": "legendados",
      "pagina": 55,
      "total_episodios": 26,
      "link_video": "https://animefire.plus/video/ike-ina-chuu-takkyuubu"
    },
    {
      "id": 1609,
      "nome": "Ikoku Meiro no Croisée The Animation",
      "link": "https://animefire.plus/animes/ikoku-meiro-no-croisee-the-animation-todos-os-episodios",
      "texto_original": "Ikoku Meiro no Croisée The Animation",
      "rating": 7.46,
      "classificacao_etaria": null,
      "imagem_original": "https://animefire.plus/img/animes/ikoku-meiro-no-croisee-the-animation.webp",
      "imagem_pasta": "https://animefire.plus/img/animes/ikoku-meiro-no-croisee-the-animation/",
      "secao": "legendados",
      "pagina": 166,
      "total_episodios": 12,
      "link_video": "https://animefire.plus/video/ikoku-meiro-no-croisee-the-animation"
    },
    {
      "id": 1610,
      "nome": "Ima, Soko ni Iru Boku",
      "link": "https://animefire.plus/animes/ima-soko-ni-iru-boku-todos-os-episodios",
      "texto_original": "Ima, Soko ni Iru Boku",
      "rating": 7.72,
      "classificacao_etaria": "A16",
      "imagem_original": "https://animefire.plus/img/animes/ima-soko-ni-iru-boku.webp",
      "imagem_pasta": "https://animefire.plus/img/animes/ima-soko-ni-iru-boku/",
      "secao": "legendados",
      "pagina": 173,
      "total_episodios": 0,
      "link_video": "https://animefire.plus/video/ima-soko-ni-iru-boku"
    },
    {
      "id": 1611,
      "nome": "Imouto Sae Ireba Ii.",
      "link": "https://animefire.plus/animes/imouto-sae-ireba-ii-todos-os-episodios",
      "texto_original": "Imouto Sae Ireba Ii.",
      "rating": 7.44,
      "classificacao_etaria": "A14",
      "imagem_original": "https://animefire.plus/img/animes/imouto-sae-ireba-ii.webp",
      "imagem_pasta": "https://animefire.plus/img/animes/imouto-sae-ireba-ii/",
      "secao": "legendados",
      "pagina": 60,
      "total_episodios": 12,
      "link_video": "https://animefire.plus/video/imouto-sae-ireba-ii"
    },
    {
      "id": 1612,
      "nome": "Inari, Konkon, Koi Iroha.",
      "link": "https://animefire.plus/animes/inari-konkon-koi-iroha-todos-os-episodios",
      "texto_original": "Inari, Konkon, Koi Iroha.",
      "rating": 7.27,
      "classificacao_etaria": "A14",
      "imagem_original": "https://animefire.plus/img/animes/inari-konkon-koi-iroha.webp",
      "imagem_pasta": "https://animefire.plus/img/animes/inari-konkon-koi-iroha/",
      "secao": "legendados",
      "pagina": 154,
      "total_episodios": 10,
      "link_video": "https://animefire.plus/video/inari-konkon-koi-iroha"
    },
    {
      "id": 1613,
      "nome": "Inazuma Eleven",
      "link": "https://animefire.plus/animes/inazuma-eleven-todos-os-episodios",
      "texto_original": "Inazuma Eleven",
      "rating": 7.67,
      "classificacao_etaria": null,
      "imagem_original": "https://animefire.plus/img/animes/inazuma-eleven.webp",
      "imagem_pasta": "https://animefire.plus/img/animes/inazuma-eleven/",
      "secao": "legendados",
      "pagina": 152,
      "total_episodios": 40,
      "link_video": "https://animefire.plus/video/inazuma-eleven"
    },
    {
      "id": 1614,
      "nome": "Inazuma Eleven Go",
      "link": "https://animefire.plus/animes/inazuma-eleven-go-todos-os-episodios",
      "texto_original": "Inazuma Eleven Go",
      "rating": 7.04,
      "classificacao_etaria": null,
      "imagem_original": "https://animefire.plus/img/animes/inazuma-eleven-go.webp",
      "imagem_pasta": "https://animefire.plus/img/animes/inazuma-eleven-go/",
      "secao": "legendados",
      "pagina": 66,
      "total_episodios": 7,
      "link_video": "https://animefire.plus/video/inazuma-eleven-go"
    },
    {
      "id": 1615,
      "nome": "Inazuma Eleven Go: Chrono Stone",
      "link": "https://animefire.plus/animes/inazuma-eleven-go-chrono-stone-todos-os-episodios",
      "texto_original": "Inazuma Eleven Go: Chrono Stone",
      "rating": 7.22,
      "classificacao_etaria": null,
      "imagem_original": "https://animefire.plus/img/animes/inazuma-eleven-go-chrono-stone.webp",
      "imagem_pasta": "https://animefire.plus/img/animes/inazuma-eleven-go-chrono-stone/",
      "secao": "legendados",
      "pagina": 60,
      "total_episodios": 51,
      "link_video": "https://animefire.plus/video/inazuma-eleven-go-chrono-stone"
    },
    {
      "id": 1618,
      "nome": "Inazuma Eleven: Orion no Kokuin",
      "link": "https://animefire.plus/animes/inazuma-eleven-orion-no-kokuin-todos-os-episodios",
      "texto_original": "Inazuma Eleven: Orion no Kokuin",
      "rating": 7.23,
      "classificacao_etaria": null,
      "imagem_original": "https://animefire.plus/img/animes/inazuma-eleven-orion-no-kokuin.webp",
      "imagem_pasta": "https://animefire.plus/img/animes/inazuma-eleven-orion-no-kokuin/",
      "secao": "legendados",
      "pagina": 124,
      "total_episodios": 27,
      "link_video": "https://animefire.plus/video/inazuma-eleven-orion-no-kokuin"
    },
    {
      "id": 1619,
      "nome": "Inferno Cop",
      "link": "https://animefire.plus/animes/inferno-cop-todos-os-episodios",
      "texto_original": "Inferno Cop",
      "rating": 7.3,
      "classificacao_etaria": "A16",
      "imagem_original": "https://animefire.plus/img/animes/inferno-cop.webp",
      "imagem_pasta": "https://animefire.plus/img/animes/inferno-cop/",
      "secao": "legendados",
      "pagina": 73,
      "total_episodios": 13,
      "link_video": "https://animefire.plus/video/inferno-cop"
    },
    {
      "id": 1623,
      "nome": "Initial D Battle Stage",
      "link": "https://animefire.plus/animes/initial-d-battle-stage-todos-os-episodios",
      "texto_original": "Initial D Battle Stage",
      "rating": 7.57,
      "classificacao_etaria": null,
      "imagem_original": "https://animefire.plus/img/animes/initial-d-battle-stage.webp",
      "imagem_pasta": "https://animefire.plus/img/animes/initial-d-battle-stage/",
      "secao": "legendados",
      "pagina": 53,
      "total_episodios": 1,
      "link_video": "https://animefire.plus/video/initial-d-battle-stage"
    },
    {
      "id": 1624,
      "nome": "Initial D Battle Stage 2",
      "link": "https://animefire.plus/animes/initial-d-battle-stage-2-todos-os-episodios",
      "texto_original": "Initial D Battle Stage 2",
      "rating": 7.64,
      "classificacao_etaria": "A14",
      "imagem_original": "https://animefire.plus/img/animes/initial-d-battle-stage-2.webp",
      "imagem_pasta": "https://animefire.plus/img/animes/initial-d-battle-stage-2/",
      "secao": "legendados",
      "pagina": 44,
      "total_episodios": 1,
      "link_video": "https://animefire.plus/video/initial-d-battle-stage-2"
    },
    {
      "id": 1625,
      "nome": "Initial D Extra Stage",
      "link": "https://animefire.plus/animes/initial-d-extra-stage-todos-os-episodios",
      "texto_original": "Initial D Extra Stage",
      "rating": 7.37,
      "classificacao_etaria": "A18",
      "imagem_original": "https://animefire.plus/img/animes/initial-d-extra-stage.webp",
      "imagem_pasta": "https://animefire.plus/img/animes/initial-d-extra-stage/",
      "secao": "legendados",
      "pagina": 72,
      "total_episodios": 1,
      "link_video": "https://animefire.plus/video/initial-d-extra-stage"
    },
    {
      "id": 1626,
      "nome": "Initial D Extra Stage 2",
      "link": "https://animefire.plus/animes/initial-d-extra-stage-2-todos-os-episodios",
      "texto_original": "Initial D Extra Stage 2",
      "rating": 7.42,
      "classificacao_etaria": "A14",
      "imagem_original": "https://animefire.plus/img/animes/initial-d-extra-stage-2.webp",
      "imagem_pasta": "https://animefire.plus/img/animes/initial-d-extra-stage-2/",
      "secao": "legendados",
      "pagina": 56,
      "total_episodios": 1,
      "link_video": "https://animefire.plus/video/initial-d-extra-stage-2"
    },
    {
      "id": 1633,
      "nome": "Inou-Battle wa Nichijou-kei no Naka de",
      "link": "https://animefire.plus/animes/inou-battle-wa-nichijou-kei-no-naka-de-todos-os-episodios",
      "texto_original": "Inou-Battle wa Nichijou-kei no Naka de",
      "rating": 7.21,
      "classificacao_etaria": "A14",
      "imagem_original": "https://animefire.plus/img/animes/inou-battle-wa-nichijou-kei-no-naka-de.webp",
      "imagem_pasta": "https://animefire.plus/img/animes/inou-battle-wa-nichijou-kei-no-naka-de/",
      "secao": "legendados",
      "pagina": 79,
      "total_episodios": 12,
      "link_video": "https://animefire.plus/video/inou-battle-wa-nichijou-kei-no-naka-de"
    },
    {
      "id": 1639,
      "nome": "Inu x Boku SS",
      "link": "https://animefire.plus/animes/inu-x-boku-ss-todos-os-episodios",
      "texto_original": "Inu x Boku SS",
      "rating": 7.59,
      "classificacao_etaria": "A14",
      "imagem_original": "https://animefire.plus/img/animes/inu-x-boku-ss.webp",
      "imagem_pasta": "https://animefire.plus/img/animes/inu-x-boku-ss/",
      "secao": "legendados",
      "pagina": 170,
      "total_episodios": 8,
      "link_video": "https://animefire.plus/video/inu-x-boku-ss"
    },
    {
      "id": 1641,
      "nome": "Inukami!",
      "link": "https://animefire.plus/animes/inukami-todos-os-episodios",
      "texto_original": "Inukami!",
      "rating": 7.33,
      "classificacao_etaria": "A14",
      "imagem_original": "https://animefire.plus/img/animes/inukami.webp",
      "imagem_pasta": "https://animefire.plus/img/animes/inukami/",
      "secao": "legendados",
      "pagina": 117,
      "total_episodios": 26,
      "link_video": "https://animefire.plus/video/inukami"
    },
    {
      "id": 1642,
      "nome": "InuYasha (Dublado)",
      "link": "https://animefire.plus/animes/inuyasha-dublado-todos-os-episodios",
      "texto_original": "InuYasha (Dublado)",
      "rating": 7.91,
      "classificacao_etaria": "A14",
      "imagem_original": "https://animefire.plus/img/animes/inuyasha.webp",
      "imagem_pasta": "https://animefire.plus/img/animes/inuyasha/",
      "secao": "dublados,legendados",
      "pagina": 27,
      "total_episodios": 167,
      "link_video": "https://animefire.plus/video/inuyasha-dublado"
    },
    {
      "id": 1644,
      "nome": "Inuyashiki",
      "link": "https://animefire.plus/animes/inuyashiki-todos-os-episodios",
      "texto_original": "Inuyashiki",
      "rating": 7.81,
      "classificacao_etaria": "A16",
      "imagem_original": "https://animefire.plus/img/animes/inuyashiki.webp",
      "imagem_pasta": "https://animefire.plus/img/animes/inuyashiki/",
      "secao": "legendados",
      "pagina": 168,
      "total_episodios": 11,
      "link_video": "https://animefire.plus/video/inuyashiki"
    },
    {
      "id": 1646,
      "nome": "Iria: Zeiram The Animation",
      "link": "https://animefire.plus/animes/iria-zeiram-the-animation-todos-os-episodios",
      "texto_original": "Iria: Zeiram The Animation",
      "rating": 7.15,
      "classificacao_etaria": "A16",
      "imagem_original": "https://animefire.plus/img/animes/iria-zeiram-the-animation.webp",
      "imagem_pasta": "https://animefire.plus/img/animes/iria-zeiram-the-animation/",
      "secao": "legendados",
      "pagina": 133,
      "total_episodios": 6,
      "link_video": "https://animefire.plus/video/iria-zeiram-the-animation"
    }
  ],
  "pagination": {
    "current_page": 34,
    "per_page": 20,
    "total_items": 1905,
    "total_pages": 96,
    "has_next": true,
    "has_prev": true
  }
}
