{
  "message": "Animes com rating entre 7 e 8",
  "rating_range": {
    "min": 7,
    "max": 8
  },
  "data": [
    {
      "id": 2459,
      "nome": "Mecha-ude",
      "link": "https://animefire.plus/animes/mecha-ude-todos-os-episodios",
      "texto_original": "Mecha-ude",
      "rating": 7.11,
      "classificacao_etaria": "A14",
      "imagem_original": "https://animefire.plus/img/animes/mecha-ude.webp",
      "imagem_pasta": "https://animefire.plus/img/animes/mecha-ude/",
      "secao": "legendados",
      "pagina": 106,
      "total_episodios": 1,
      "link_video": "https://animefire.plus/video/mecha-ude"
    },
    {
      "id": 2461,
      "nome": "Medaka Box",
      "link": "https://animefire.plus/animes/medaka-box-todos-os-episodios",
      "texto_original": "Medaka Box",
      "rating": 7.15,
      "classificacao_etaria": "A14",
      "imagem_original": "https://animefire.plus/img/animes/medaka-box.webp",
      "imagem_pasta": "https://animefire.plus/img/animes/medaka-box/",
      "secao": "legendados",
      "pagina": 177,
      "total_episodios": 0,
      "link_video": "https://animefire.plus/video/medaka-box"
    },
    {
      "id": 2462,
      "nome": "Medaka Box Abnormal",
      "link": "https://animefire.plus/animes/medaka-box-abnormal-todos-os-episodios",
      "texto_original": "Medaka Box Abnormal",
      "rating": 7.53,
      "classificacao_etaria": "A14",
      "imagem_original": "https://animefire.plus/img/animes/medaka-box-abnormal.webp",
      "imagem_pasta": "https://animefire.plus/img/animes/medaka-box-abnormal/",
      "secao": "legendados",
      "pagina": 125,
      "total_episodios": 0,
      "link_video": "https://animefire.plus/video/medaka-box-abnormal"
    },
    {
      "id": 2463,
      "nome": "Medarot (Dublado)",
      "link": "https://animefire.plus/animes/medarot-dublado-todos-os-episodios",
      "texto_original": "Medarot (Dublado)",
      "rating": 7.12,
      "classificacao_etaria": "A10",
      "imagem_original": "https://animefire.plus/img/animes/medarot.webp",
      "imagem_pasta": "https://animefire.plus/img/animes/medarot/",
      "secao": "dublados",
      "pagina": 26,
      "total_episodios": 52,
      "link_video": "https://animefire.plus/video/medarot-dublado"
    },
    {
      "id": 2466,
      "nome": "Megami no Café Terrace",
      "link": "https://animefire.plus/animes/megami-no-cafe-terrace-todos-os-episodios",
      "texto_original": "Megami no Café Terrace",
      "rating": 7.31,
      "classificacao_etaria": "A14",
      "imagem_original": "https://animefire.plus/img/animes/megami-no-cafe-terrace.jpg",
      "imagem_pasta": "https://animefire.plus/img/animes/megami-no-cafe-terrace/",
      "secao": "legendados",
      "pagina": 23,
      "total_episodios": 12,
      "link_video": "https://animefire.plus/video/megami-no-cafe-terrace"
    },
    {
      "id": 2467,
      "nome": "Megami no Café Terrace 2nd Season",
      "link": "https://animefire.plus/animes/megami-no-cafe-terrace-2nd-season-todos-os-episodios",
      "texto_original": "Megami no Café Terrace 2nd Season",
      "rating": 7.39,
      "classificacao_etaria": "A14",
      "imagem_original": "https://animefire.plus/img/animes/megami-no-cafe-terrace-2nd-season.webp",
      "imagem_pasta": "https://animefire.plus/img/animes/megami-no-cafe-terrace-2nd-season/",
      "secao": "legendados",
      "pagina": 12,
      "total_episodios": 12,
      "link_video": "https://animefire.plus/video/megami-no-cafe-terrace-2nd-season"
    },
    {
      "id": 2475,
      "nome": "Meikyuu Black Company (Dublado)",
      "link": "https://animefire.plus/animes/meikyuu-black-company-dublado-todos-os-episodios",
      "texto_original": "Meikyuu Black Company (Dublado)",
      "rating": 7.22,
      "classificacao_etaria": "A14",
      "imagem_original": "https://animefire.plus/img/animes/meikyuu-black-company.webp",
      "imagem_pasta": "https://animefire.plus/img/animes/meikyuu-black-company/",
      "secao": "dublados,legendados",
      "pagina": 16,
      "total_episodios": 12,
      "link_video": "https://animefire.plus/video/meikyuu-black-company-dublado"
    },
    {
      "id": 2477,
      "nome": "Mekakucity Actors",
      "link": "https://animefire.plus/animes/mekakucity-actors-todos-os-episodios",
      "texto_original": "Mekakucity Actors",
      "rating": 7.17,
      "classificacao_etaria": "A14",
      "imagem_original": "https://animefire.plus/img/animes/mekakucity-actors.webp",
      "imagem_pasta": "https://animefire.plus/img/animes/mekakucity-actors/",
      "secao": "legendados",
      "pagina": 148,
      "total_episodios": 12,
      "link_video": "https://animefire.plus/video/mekakucity-actors"
    },
    {
      "id": 2479,
      "nome": "Meng Qi Shi Shen",
      "link": "https://animefire.plus/animes/meng-qi-shi-shen-todos-os-episodios",
      "texto_original": "Meng Qi Shi Shen",
      "rating": 7.42,
      "classificacao_etaria": "A14",
      "imagem_original": "https://animefire.plus/img/animes/meng-qi-shi-shen.webp",
      "imagem_pasta": "https://animefire.plus/img/animes/meng-qi-shi-shen/",
      "secao": "legendados",
      "pagina": 170,
      "total_episodios": 12,
      "link_video": "https://animefire.plus/video/meng-qi-shi-shen"
    },
    {
      "id": 2480,
      "nome": "Meng Qi Shi Shen: Huanxi Zhui Hun",
      "link": "https://animefire.plus/animes/meng-qi-shi-shen-huanxi-zhui-hun-todos-os-episodios",
      "texto_original": "Meng Qi Shi Shen: Huanxi Zhui Hun",
      "rating": 7.49,
      "classificacao_etaria": "A14",
      "imagem_original": "https://animefire.plus/img/animes/meng-qi-shi-shen-huanxi-zhui-hun.webp",
      "imagem_pasta": "https://animefire.plus/img/animes/meng-qi-shi-shen-huanxi-zhui-hun/",
      "secao": "legendados,lancamentos",
      "pagina": 30,
      "total_episodios": 11,
      "link_video": "https://animefire.plus/video/meng-qi-shi-shen-huanxi-zhui-hun"
    },
    {
      "id": 2486,
      "nome": "MF Ghost (Dublado)",
      "link": "https://animefire.plus/animes/mf-ghost-dublado-todos-os-episodios",
      "texto_original": "MF Ghost (Dublado)",
      "rating": 7.56,
      "classificacao_etaria": "A14",
      "imagem_original": "https://animefire.plus/img/animes/mf-ghost.webp",
      "imagem_pasta": "https://animefire.plus/img/animes/mf-ghost/",
      "secao": "dublados,legendados",
      "pagina": 5,
      "total_episodios": 12,
      "link_video": "https://animefire.plus/video/mf-ghost-dublado"
    },
    {
      "id": 2487,
      "nome": "MF Ghost 2nd Season",
      "link": "https://animefire.plus/animes/mf-ghost-2nd-season-todos-os-episodios",
      "texto_original": "MF Ghost 2nd Season",
      "rating": 7.8,
      "classificacao_etaria": "A14",
      "imagem_original": "https://animefire.plus/img/animes/mf-ghost-2nd-season.webp",
      "imagem_pasta": "https://animefire.plus/img/animes/mf-ghost-2nd-season/",
      "secao": "legendados",
      "pagina": 9,
      "total_episodios": 12,
      "link_video": "https://animefire.plus/video/mf-ghost-2nd-season"
    },
    {
      "id": 2488,
      "nome": "Mi Yu Xing Zhe",
      "link": "https://animefire.plus/animes/mi-yu-xing-zhe-todos-os-episodios",
      "texto_original": "Mi Yu Xing Zhe",
      "rating": 7.56,
      "classificacao_etaria": "A16",
      "imagem_original": "https://animefire.plus/img/animes/mi-yu-xing-zhe.webp",
      "imagem_pasta": "https://animefire.plus/img/animes/mi-yu-xing-zhe/",
      "secao": "legendados",
      "pagina": 174,
      "total_episodios": 12,
      "link_video": "https://animefire.plus/video/mi-yu-xing-zhe"
    },
    {
      "id": 2490,
      "nome": "Michiko to Hatchin",
      "link": "https://animefire.plus/animes/michiko-to-hatchin-todos-os-episodios",
      "texto_original": "Michiko to Hatchin",
      "rating": 7.87,
      "classificacao_etaria": "A16",
      "imagem_original": "https://animefire.plus/img/animes/michiko-to-hatchin.webp",
      "imagem_pasta": "https://animefire.plus/img/animes/michiko-to-hatchin/",
      "secao": "legendados",
      "pagina": 177,
      "total_episodios": 22,
      "link_video": "https://animefire.plus/video/michiko-to-hatchin"
    },
    {
      "id": 2494,
      "nome": "Midori no Hibi",
      "link": "https://animefire.plus/animes/midori-no-hibi-todos-os-episodios",
      "texto_original": "Midori no Hibi",
      "rating": 7.36,
      "classificacao_etaria": "A18",
      "imagem_original": "https://animefire.plus/img/animes/midori-no-hibi.webp",
      "imagem_pasta": "https://animefire.plus/img/animes/midori-no-hibi/",
      "secao": "legendados",
      "pagina": 163,
      "total_episodios": 13,
      "link_video": "https://animefire.plus/video/midori-no-hibi"
    },
    {
      "id": 2495,
      "nome": "Mieruko-chan (Dublado)",
      "link": "https://animefire.plus/animes/mieruko-chan-dublado-todos-os-episodios",
      "texto_original": "Mieruko-chan (Dublado)",
      "rating": 7.4,
      "classificacao_etaria": "A14",
      "imagem_original": "https://animefire.plus/img/animes/mieruko-chan.webp",
      "imagem_pasta": "https://animefire.plus/img/animes/mieruko-chan/",
      "secao": "dublados,legendados",
      "pagina": 14,
      "total_episodios": 12,
      "link_video": "https://animefire.plus/video/mieruko-chan-dublado"
    },
    {
      "id": 2496,
      "nome": "Migi to Dali",
      "link": "https://animefire.plus/animes/migi-to-dali-todos-os-episodios",
      "texto_original": "Migi to Dali",
      "rating": 7.7,
      "classificacao_etaria": "A14",
      "imagem_original": "https://animefire.plus/img/animes/migi-to-dali.webp",
      "imagem_pasta": "https://animefire.plus/img/animes/migi-to-dali/",
      "secao": "legendados",
      "pagina": 20,
      "total_episodios": 13,
      "link_video": "https://animefire.plus/video/migi-to-dali"
    },
    {
      "id": 2497,
      "nome": "Miira no Kaikata",
      "link": "https://animefire.plus/animes/miira-no-kaikata-todos-os-episodios",
      "texto_original": "Miira no Kaikata",
      "rating": 7.52,
      "classificacao_etaria": "A14",
      "imagem_original": "https://animefire.plus/img/animes/miira-no-kaikata.webp",
      "imagem_pasta": "https://animefire.plus/img/animes/miira-no-kaikata/",
      "secao": "legendados",
      "pagina": 106,
      "total_episodios": 12,
      "link_video": "https://animefire.plus/video/miira-no-kaikata"
    },
    {
      "id": 2498,
      "nome": "Mikadono Sanshimai wa Angai, Choroi.",
      "link": "https://animefire.plus/animes/mikadono-sanshimai-wa-angai-choroi-todos-os-episodios",
      "texto_original": "Mikadono Sanshimai wa Angai, Choroi.",
      "rating": 7.58,
      "classificacao_etaria": "A14",
      "imagem_original": "https://animefire.plus/img/animes/mikadono-sanshimai-wa-angai-choroi.webp",
      "imagem_pasta": "https://animefire.plus/img/animes/mikadono-sanshimai-wa-angai-choroi/",
      "secao": "legendados,lancamentos",
      "pagina": 2,
      "total_episodios": 5,
      "link_video": "https://animefire.plus/video/mikadono-sanshimai-wa-angai-choroi"
    },
    {
      "id": 2501,
      "nome": "Mikakunin de Shinkoukei",
      "link": "https://animefire.plus/animes/mikakunin-de-shinkoukei-todos-os-episodios",
      "texto_original": "Mikakunin de Shinkoukei",
      "rating": 7.52,
      "classificacao_etaria": "A14",
      "imagem_original": "https://animefire.plus/img/animes/mikakunin-de-shinkoukei.webp",
      "imagem_pasta": "https://animefire.plus/img/animes/mikakunin-de-shinkoukei/",
      "secao": "legendados",
      "pagina": 167,
      "total_episodios": 12,
      "link_video": "https://animefire.plus/video/mikakunin-de-shinkoukei"
    }
  ],
  "pagination": {
    "current_page": 53,
    "per_page": 20,
    "total_items": 1905,
    "total_pages": 96,
    "has_next": true,
    "has_prev": true
  }
}
