{
  "message": "Animes com rating entre 7 e 8",
  "rating_range": {
    "min": 7,
    "max": 8
  },
  "data": [
    {
      "id": 2289,
      "nome": "Machikado Mazoku",
      "link": "https://animefire.plus/animes/machikado-mazoku-todos-os-episodios",
      "texto_original": "Machikado Mazoku",
      "rating": 7.68,
      "classificacao_etaria": "A14",
      "imagem_original": "https://animefire.plus/img/animes/machikado-mazoku.webp",
      "imagem_pasta": "https://animefire.plus/img/animes/machikado-mazoku/",
      "secao": "legendados",
      "pagina": 119,
      "total_episodios": 2,
      "link_video": "https://animefire.plus/video/machikado-mazoku"
    },
    {
      "id": 2290,
      "nome": "Machikado Mazoku: 2-choume",
      "link": "https://animefire.plus/animes/machikado-mazoku-2-choume-todos-os-episodios",
      "texto_original": "Machikado Mazoku: 2-choume",
      "rating": 7.84,
      "classificacao_etaria": "A14",
      "imagem_original": "https://animefire.plus/img/animes/machikado-mazoku-2-choume.webp",
      "imagem_pasta": "https://animefire.plus/img/animes/machikado-mazoku-2-choume/",
      "secao": "legendados,lancamentos",
      "pagina": 34,
      "total_episodios": 4,
      "link_video": "https://animefire.plus/video/machikado-mazoku-2-choume"
    },
    {
      "id": 2291,
      "nome": "Machine-Doll wa Kizutsukanai",
      "link": "https://animefire.plus/animes/machine-doll-wa-kizutsukanai-todos-os-episodios",
      "texto_original": "Machine-Doll wa Kizutsukanai",
      "rating": 7.28,
      "classificacao_etaria": "A18",
      "imagem_original": "https://animefire.plus/img/animes/machine-doll-wa-kizutsukanai.webp",
      "imagem_pasta": "https://animefire.plus/img/animes/machine-doll-wa-kizutsukanai/",
      "secao": "legendados",
      "pagina": 154,
      "total_episodios": 4,
      "link_video": "https://animefire.plus/video/machine-doll-wa-kizutsukanai"
    },
    {
      "id": 2292,
      "nome": "Macross (Dublado)",
      "link": "https://animefire.plus/animes/macross-dublado-todos-os-episodios",
      "texto_original": "Macross (Dublado)",
      "rating": 7.96,
      "classificacao_etaria": "A14",
      "imagem_original": "https://animefire.plus/img/animes/macross.webp",
      "imagem_pasta": "https://animefire.plus/img/animes/macross/",
      "secao": "dublados,legendados",
      "pagina": 22,
      "total_episodios": 36,
      "link_video": "https://animefire.plus/video/macross-dublado"
    },
    {
      "id": 2293,
      "nome": "Macross 7",
      "link": "https://animefire.plus/animes/macross-7-todos-os-episodios",
      "texto_original": "Macross 7",
      "rating": 7.14,
      "classificacao_etaria": "A14",
      "imagem_original": "https://animefire.plus/img/animes/macross-7.webp",
      "imagem_pasta": "https://animefire.plus/img/animes/macross-7/",
      "secao": "legendados",
      "pagina": 60,
      "total_episodios": 49,
      "link_video": "https://animefire.plus/video/macross-7"
    },
    {
      "id": 2294,
      "nome": "Macross F",
      "link": "https://animefire.plus/animes/macross-f-todos-os-episodios",
      "texto_original": "Macross F",
      "rating": 7.96,
      "classificacao_etaria": "A14",
      "imagem_original": "https://animefire.plus/img/animes/macross-f.webp",
      "imagem_pasta": "https://animefire.plus/img/animes/macross-f/",
      "secao": "legendados",
      "pagina": 176,
      "total_episodios": 0,
      "link_video": "https://animefire.plus/video/macross-f"
    },
    {
      "id": 2295,
      "nome": "Macross Zero",
      "link": "https://animefire.plus/animes/macross-zero-todos-os-episodios",
      "texto_original": "Macross Zero",
      "rating": 7.54,
      "classificacao_etaria": "A18",
      "imagem_original": "https://animefire.plus/img/animes/macross-zero.webp",
      "imagem_pasta": "https://animefire.plus/img/animes/macross-zero/",
      "secao": "legendados",
      "pagina": 45,
      "total_episodios": 3,
      "link_video": "https://animefire.plus/video/macross-zero"
    },
    {
      "id": 2296,
      "nome": "Madan no Ou to Vanadis",
      "link": "https://animefire.plus/animes/madan-no-ou-to-vanadis-todos-os-episodios",
      "texto_original": "Madan no Ou to Vanadis",
      "rating": 7.29,
      "classificacao_etaria": "A16",
      "imagem_original": "https://animefire.plus/img/animes/madan-no-ou-to-vanadis.webp",
      "imagem_pasta": "https://animefire.plus/img/animes/madan-no-ou-to-vanadis/",
      "secao": "legendados",
      "pagina": 160,
      "total_episodios": 1,
      "link_video": "https://animefire.plus/video/madan-no-ou-to-vanadis"
    },
    {
      "id": 2299,
      "nome": "Madlax",
      "link": "https://animefire.plus/animes/madlax-todos-os-episodios",
      "texto_original": "Madlax",
      "rating": 7.12,
      "classificacao_etaria": "A14",
      "imagem_original": "https://animefire.plus/img/animes/madlax.webp",
      "imagem_pasta": "https://animefire.plus/img/animes/madlax/",
      "secao": "legendados",
      "pagina": 142,
      "total_episodios": 26,
      "link_video": "https://animefire.plus/video/madlax"
    },
    {
      "id": 2300,
      "nome": "Madou King Granzort",
      "link": "https://animefire.plus/animes/madou-king-granzort-todos-os-episodios",
      "texto_original": "Madou King Granzort",
      "rating": 7.09,
      "classificacao_etaria": null,
      "imagem_original": "https://animefire.plus/img/animes/madou-king-granzort.webp",
      "imagem_pasta": "https://animefire.plus/img/animes/madou-king-granzort/",
      "secao": "legendados",
      "pagina": 65,
      "total_episodios": 41,
      "link_video": "https://animefire.plus/video/madou-king-granzort"
    },
    {
      "id": 2302,
      "nome": "Maebashi Witches",
      "link": "https://animefire.plus/animes/maebashi-witches-todos-os-episodios",
      "texto_original": "Maebashi Witches",
      "rating": 7,
      "classificacao_etaria": "A14",
      "imagem_original": "https://animefire.plus/img/animes/maebashi-witches.webp",
      "imagem_pasta": "https://animefire.plus/img/animes/maebashi-witches/",
      "secao": "legendados",
      "pagina": 4,
      "total_episodios": 12,
      "link_video": "https://animefire.plus/video/maebashi-witches"
    },
    {
      "id": 2305,
      "nome": "Magi: Sinbad no Bouken (Dublado)",
      "link": "https://animefire.plus/animes/magi-sinbad-no-bouken-dublado-todos-os-episodios",
      "texto_original": "Magi: Sinbad no Bouken (Dublado)",
      "rating": 7.89,
      "classificacao_etaria": "A14",
      "imagem_original": "https://animefire.plus/img/animes/magi-sinbad-no-bouken.webp",
      "imagem_pasta": "https://animefire.plus/img/animes/magi-sinbad-no-bouken/",
      "secao": "dublados,legendados",
      "pagina": 21,
      "total_episodios": 13,
      "link_video": "https://animefire.plus/video/magi-sinbad-no-bouken-dublado"
    },
    {
      "id": 2309,
      "nome": "Magia Record: Mahou Shoujo Madoka☆Magica Gaiden (TV) 2nd Season",
      "link": "https://animefire.plus/animes/magia-record-mahou-shoujo-madoka-magica-gaiden-tv-2nd-season-todos-os-episodios",
      "texto_original": "Magia Record: Mahou Shoujo Madoka☆Magica Gaiden (TV) 2nd Season",
      "rating": 7.01,
      "classificacao_etaria": "A14",
      "imagem_original": "https://animefire.plus/img/animes/magia-record-mahou-shoujo-madoka-magica-gaiden-tv-2nd-season.webp",
      "imagem_pasta": "https://animefire.plus/img/animes/magia-record-mahou-shoujo-madoka-magica-gaiden-tv-2nd-season/",
      "secao": "legendados",
      "pagina": 40,
      "total_episodios": 8,
      "link_video": "https://animefire.plus/video/magia-record-mahou-shoujo-madoka-magica-gaiden-tv-2nd-season"
    },
    {
      "id": 2310,
      "nome": "Magia Record: Mahou Shoujo Madoka☆Magica Gaiden (TV) 2nd Season - Kakusei Zenya (Dublado)",
      "link": "https://animefire.plus/animes/magia-record-mahou-shoujo-madoka-magica-gaiden-tv-2nd-season---kakusei-zenya-dublado-todos-os-episodios",
      "texto_original": "Magia Record: Mahou Shoujo Madoka☆Magica Gaiden (TV) 2nd Season - Kakusei Zenya (Dublado)",
      "rating": 7.01,
      "classificacao_etaria": "A14",
      "imagem_original": "https://animefire.plus/img/animes/magia-record-mahou-shoujo-madoka-magica-gaiden-tv-2nd-season---kakusei-zenya.webp",
      "imagem_pasta": "https://animefire.plus/img/animes/magia-record-mahou-shoujo-madoka-magica-gaiden-tv-2nd-season---kakusei-zenya/",
      "secao": "dublados",
      "pagina": 11,
      "total_episodios": 8,
      "link_video": "https://animefire.plus/video/magia-record-mahou-shoujo-madoka-magica-gaiden-tv-2nd-season---kakusei-zenya-dublado"
    },
    {
      "id": 2312,
      "nome": "Magic Kaito",
      "link": "https://animefire.plus/animes/magic-kaito-todos-os-episodios",
      "texto_original": "Magic Kaito",
      "rating": 7.94,
      "classificacao_etaria": "A14",
      "imagem_original": "https://animefire.plus/img/animes/magic-kaito.webp",
      "imagem_pasta": "https://animefire.plus/img/animes/magic-kaito/",
      "secao": "legendados",
      "pagina": 144,
      "total_episodios": 12,
      "link_video": "https://animefire.plus/video/magic-kaito"
    },
    {
      "id": 2313,
      "nome": "Magic Kaito 1412",
      "link": "https://animefire.plus/animes/magic-kaito-1412-todos-os-episodios",
      "texto_original": "Magic Kaito 1412",
      "rating": 7.95,
      "classificacao_etaria": "A14",
      "imagem_original": "https://animefire.plus/img/animes/magic-kaito-1412.webp",
      "imagem_pasta": "https://animefire.plus/img/animes/magic-kaito-1412/",
      "secao": "legendados",
      "pagina": 160,
      "total_episodios": 1,
      "link_video": "https://animefire.plus/video/magic-kaito-1412"
    },
    {
      "id": 2314,
      "nome": "Magic Knight Rayearth",
      "link": "https://animefire.plus/animes/magic-knight-rayearth-todos-os-episodios",
      "texto_original": "Magic Knight Rayearth",
      "rating": 7.52,
      "classificacao_etaria": "A14",
      "imagem_original": "https://animefire.plus/img/animes/magic-knight-rayearth.webp",
      "imagem_pasta": "https://animefire.plus/img/animes/magic-knight-rayearth/",
      "secao": "legendados",
      "pagina": 171,
      "total_episodios": 20,
      "link_video": "https://animefire.plus/video/magic-knight-rayearth"
    },
    {
      "id": 2315,
      "nome": "Magic Knight Rayearth II",
      "link": "https://animefire.plus/animes/magic-knight-rayearth-ii-todos-os-episodios",
      "texto_original": "Magic Knight Rayearth II",
      "rating": 7.59,
      "classificacao_etaria": "A14",
      "imagem_original": "https://animefire.plus/img/animes/magic-knight-rayearth-ii.webp",
      "imagem_pasta": "https://animefire.plus/img/animes/magic-knight-rayearth-ii/",
      "secao": "legendados",
      "pagina": 107,
      "total_episodios": 29,
      "link_video": "https://animefire.plus/video/magic-knight-rayearth-ii"
    },
    {
      "id": 2317,
      "nome": "Magic-Kyun! Renaissance",
      "link": "https://animefire.plus/animes/magic-kyun-renaissance-todos-os-episodios",
      "texto_original": "Magic-Kyun! Renaissance",
      "rating": 7.26,
      "classificacao_etaria": "A14",
      "imagem_original": "https://animefire.plus/img/animes/magic-kyun-renaissance.webp",
      "imagem_pasta": "https://animefire.plus/img/animes/magic-kyun-renaissance/",
      "secao": "legendados",
      "pagina": 146,
      "total_episodios": 7,
      "link_video": "https://animefire.plus/video/magic-kyun-renaissance"
    },
    {
      "id": 2320,
      "nome": "Mahoraba: Heartful days",
      "link": "https://animefire.plus/animes/mahoraba-heartful-days-todos-os-episodios",
      "texto_original": "Mahoraba: Heartful days",
      "rating": 7.38,
      "classificacao_etaria": "A14",
      "imagem_original": "https://animefire.plus/img/animes/mahoraba-heartful-days.webp",
      "imagem_pasta": "https://animefire.plus/img/animes/mahoraba-heartful-days/",
      "secao": "legendados",
      "pagina": 172,
      "total_episodios": 25,
      "link_video": "https://animefire.plus/video/mahoraba-heartful-days"
    }
  ],
  "pagination": {
    "current_page": 49,
    "per_page": 20,
    "total_items": 1905,
    "total_pages": 96,
    "has_next": true,
    "has_prev": true
  }
}
