{
  "message": "Animes com rating entre 7 e 8",
  "rating_range": {
    "min": 7,
    "max": 8
  },
  "data": [
    {
      "id": 615,
      "nome": "Chiyu Mahou no Machigatta Tsukaikata (Dublado)",
      "link": "https://animefire.plus/animes/chiyu-mahou-no-machigatta-tsukaikata-dublado-todos-os-episodios",
      "texto_original": "Chiyu Mahou no Machigatta Tsukaikata (Dublado)",
      "rating": 7.53,
      "classificacao_etaria": "A14",
      "imagem_original": "https://animefire.plus/img/animes/chiyu-mahou-no-machigatta-tsukaikata.webp",
      "imagem_pasta": "https://animefire.plus/img/animes/chiyu-mahou-no-machigatta-tsukaikata/",
      "secao": "dublados,legendados,lancamentos",
      "pagina": 3,
      "total_episodios": 13,
      "link_video": "https://animefire.plus/video/chiyu-mahou-no-machigatta-tsukaikata-dublado"
    },
    {
      "id": 616,
      "nome": "Chobits",
      "link": "https://animefire.plus/animes/chobits-todos-os-episodios",
      "texto_original": "Chobits",
      "rating": 7.5,
      "classificacao_etaria": "A14",
      "imagem_original": "https://animefire.plus/img/animes/chobits.webp",
      "imagem_pasta": "https://animefire.plus/img/animes/chobits/",
      "secao": "legendados",
      "pagina": 137,
      "total_episodios": 15,
      "link_video": "https://animefire.plus/video/chobits"
    },
    {
      "id": 625,
      "nome": "Choujigen Game Neptune The Animation",
      "link": "https://animefire.plus/animes/choujigen-game-neptune-the-animation-todos-os-episodios",
      "texto_original": "Choujigen Game Neptune The Animation",
      "rating": 7.11,
      "classificacao_etaria": "A14",
      "imagem_original": "https://animefire.plus/img/animes/choujigen-game-neptune-the-animation.webp",
      "imagem_pasta": "https://animefire.plus/img/animes/choujigen-game-neptune-the-animation/",
      "secao": "legendados",
      "pagina": 118,
      "total_episodios": 12,
      "link_video": "https://animefire.plus/video/choujigen-game-neptune-the-animation"
    },
    {
      "id": 626,
      "nome": "Choujigen Game Neptune The Animation: Nep no Natsuyasumi",
      "link": "https://animefire.plus/animes/choujigen-game-neptune-the-animation-nep-no-natsuyasumi-todos-os-episodios",
      "texto_original": "Choujigen Game Neptune The Animation: Nep no Natsuyasumi",
      "rating": 7.17,
      "classificacao_etaria": "A14",
      "imagem_original": "https://animefire.plus/img/animes/choujigen-game-neptune-the-animation-nep-no-natsuyasumi.webp",
      "imagem_pasta": "https://animefire.plus/img/animes/choujigen-game-neptune-the-animation-nep-no-natsuyasumi/",
      "secao": "legendados",
      "pagina": 83,
      "total_episodios": 1,
      "link_video": "https://animefire.plus/video/choujigen-game-neptune-the-animation-nep-no-natsuyasumi"
    },
    {
      "id": 627,
      "nome": "Choujigen Game Neptune The Animation: Yakusoku no Eien - True End",
      "link": "https://animefire.plus/animes/choujigen-game-neptune-the-animation-yakusoku-no-eien---true-end-todos-os-episodios",
      "texto_original": "Choujigen Game Neptune The Animation: Yakusoku no Eien - True End",
      "rating": 7.3,
      "classificacao_etaria": "A14",
      "imagem_original": "https://animefire.plus/img/animes/choujigen-game-neptune-the-animation-yakusoku-no-eien---true-end.webp",
      "imagem_pasta": "https://animefire.plus/img/animes/choujigen-game-neptune-the-animation-yakusoku-no-eien---true-end/",
      "secao": "legendados",
      "pagina": 53,
      "total_episodios": 1,
      "link_video": "https://animefire.plus/video/choujigen-game-neptune-the-animation-yakusoku-no-eien---true-end"
    },
    {
      "id": 634,
      "nome": "Chouyaku Hyakuninisshu: Uta Koi.",
      "link": "https://animefire.plus/animes/chouyaku-hyakuninisshu-uta-koi-todos-os-episodios",
      "texto_original": "Chouyaku Hyakuninisshu: Uta Koi.",
      "rating": 7.48,
      "classificacao_etaria": "A14",
      "imagem_original": "https://animefire.plus/img/animes/chouyaku-hyakuninisshu-uta-koi.webp",
      "imagem_pasta": "https://animefire.plus/img/animes/chouyaku-hyakuninisshu-uta-koi/",
      "secao": "legendados",
      "pagina": 42,
      "total_episodios": 13,
      "link_video": "https://animefire.plus/video/chouyaku-hyakuninisshu-uta-koi"
    },
    {
      "id": 635,
      "nome": "Chrno Crusade",
      "link": "https://animefire.plus/animes/chrno-crusade-todos-os-episodios",
      "texto_original": "Chrno Crusade",
      "rating": 7.74,
      "classificacao_etaria": "A16",
      "imagem_original": "https://animefire.plus/img/animes/chrno-crusade.webp",
      "imagem_pasta": "https://animefire.plus/img/animes/chrno-crusade/",
      "secao": "legendados",
      "pagina": 168,
      "total_episodios": 3,
      "link_video": "https://animefire.plus/video/chrno-crusade"
    },
    {
      "id": 637,
      "nome": "Chrome Shelled Regios",
      "link": "https://animefire.plus/animes/chrome-shelled-regios-todos-os-episodios",
      "texto_original": "Chrome Shelled Regios",
      "rating": 7.47,
      "classificacao_etaria": "A16",
      "imagem_original": "https://animefire.plus/img/animes/chrome-shelled-regios.webp",
      "imagem_pasta": "https://animefire.plus/img/animes/chrome-shelled-regios/",
      "secao": "legendados",
      "pagina": 130,
      "total_episodios": 24,
      "link_video": "https://animefire.plus/video/chrome-shelled-regios"
    },
    {
      "id": 642,
      "nome": "Chuukan Kanriroku Tonegawa",
      "link": "https://animefire.plus/animes/chuukan-kanriroku-tonegawa-todos-os-episodios",
      "texto_original": "Chuukan Kanriroku Tonegawa",
      "rating": 7.16,
      "classificacao_etaria": "A14",
      "imagem_original": "https://animefire.plus/img/animes/chuukan-kanriroku-tonegawa.webp",
      "imagem_pasta": "https://animefire.plus/img/animes/chuukan-kanriroku-tonegawa/",
      "secao": "legendados",
      "pagina": 134,
      "total_episodios": 18,
      "link_video": "https://animefire.plus/video/chuukan-kanriroku-tonegawa"
    },
    {
      "id": 643,
      "nome": "Chuunibyou demo Koi ga Shitai!",
      "link": "https://animefire.plus/animes/chuunibyou-demo-koi-ga-shitai-todos-os-episodios",
      "texto_original": "Chuunibyou demo Koi ga Shitai!",
      "rating": 7.86,
      "classificacao_etaria": "A14",
      "imagem_original": "https://animefire.plus/img/animes/chuunibyou-demo-koi-ga-shitai.webp",
      "imagem_pasta": "https://animefire.plus/img/animes/chuunibyou-demo-koi-ga-shitai/",
      "secao": "legendados",
      "pagina": 116,
      "total_episodios": 12,
      "link_video": "https://animefire.plus/video/chuunibyou-demo-koi-ga-shitai"
    },
    {
      "id": 644,
      "nome": "Chuunibyou demo Koi ga Shitai! Lite",
      "link": "https://animefire.plus/animes/chuunibyou-demo-koi-ga-shitai-lite-todos-os-episodios",
      "texto_original": "Chuunibyou demo Koi ga Shitai! Lite",
      "rating": 7.27,
      "classificacao_etaria": "A14",
      "imagem_original": "https://animefire.plus/img/animes/chuunibyou-demo-koi-ga-shitai-lite.webp",
      "imagem_pasta": "https://animefire.plus/img/animes/chuunibyou-demo-koi-ga-shitai-lite/",
      "secao": "legendados",
      "pagina": 54,
      "total_episodios": 1,
      "link_video": "https://animefire.plus/video/chuunibyou-demo-koi-ga-shitai-lite"
    },
    {
      "id": 645,
      "nome": "Chuunibyou demo Koi ga Shitai! Ren",
      "link": "https://animefire.plus/animes/chuunibyou-demo-koi-ga-shitai-ren-todos-os-episodios",
      "texto_original": "Chuunibyou demo Koi ga Shitai! Ren",
      "rating": 7.6,
      "classificacao_etaria": "A14",
      "imagem_original": "https://animefire.plus/img/animes/chuunibyou-demo-koi-ga-shitai-ren.webp",
      "imagem_pasta": "https://animefire.plus/img/animes/chuunibyou-demo-koi-ga-shitai-ren/",
      "secao": "legendados",
      "pagina": 114,
      "total_episodios": 12,
      "link_video": "https://animefire.plus/video/chuunibyou-demo-koi-ga-shitai-ren"
    },
    {
      "id": 646,
      "nome": "Chuunibyou demo Koi ga Shitai! Ren Specials",
      "link": "https://animefire.plus/animes/chuunibyou-demo-koi-ga-shitai-ren-specials-todos-os-episodios",
      "texto_original": "Chuunibyou demo Koi ga Shitai! Ren Specials",
      "rating": 7.11,
      "classificacao_etaria": "A14",
      "imagem_original": "https://animefire.plus/img/animes/chuunibyou-demo-koi-ga-shitai-ren-specials.webp",
      "imagem_pasta": "https://animefire.plus/img/animes/chuunibyou-demo-koi-ga-shitai-ren-specials/",
      "secao": "legendados",
      "pagina": 54,
      "total_episodios": 1,
      "link_video": "https://animefire.plus/video/chuunibyou-demo-koi-ga-shitai-ren-specials"
    },
    {
      "id": 648,
      "nome": "Chuunibyou demo Koi ga Shitai!: Kirameki no... Slapstick Noel",
      "link": "https://animefire.plus/animes/chuunibyou-demo-koi-ga-shitai-kirameki-no-slapstick-noel-todos-os-episodios",
      "texto_original": "Chuunibyou demo Koi ga Shitai!: Kirameki no... Slapstick Noel",
      "rating": 7.51,
      "classificacao_etaria": "A14",
      "imagem_original": "https://animefire.plus/img/animes/chuunibyou-demo-koi-ga-shitai-kirameki-no-slapstick-noel.webp",
      "imagem_pasta": "https://animefire.plus/img/animes/chuunibyou-demo-koi-ga-shitai-kirameki-no-slapstick-noel/",
      "secao": "legendados",
      "pagina": 44,
      "total_episodios": 1,
      "link_video": "https://animefire.plus/video/chuunibyou-demo-koi-ga-shitai-kirameki-no-slapstick-noel"
    },
    {
      "id": 653,
      "nome": "Cinderella Monogatari (Dublado)",
      "link": "https://animefire.plus/animes/cinderella-monogatari-dublado-todos-os-episodios",
      "texto_original": "Cinderella Monogatari (Dublado)",
      "rating": 7.43,
      "classificacao_etaria": null,
      "imagem_original": "https://animefire.plus/img/animes/cinderella-monogatari.webp",
      "imagem_pasta": "https://animefire.plus/img/animes/cinderella-monogatari/",
      "secao": "dublados",
      "pagina": 27,
      "total_episodios": 0,
      "link_video": "https://animefire.plus/video/cinderella-monogatari-dublado"
    },
    {
      "id": 656,
      "nome": "City Hunter",
      "link": "https://animefire.plus/animes/city-hunter-todos-os-episodios",
      "texto_original": "City Hunter",
      "rating": 7.93,
      "classificacao_etaria": "A14",
      "imagem_original": "https://animefire.plus/img/animes/city-hunter.webp",
      "imagem_pasta": "https://animefire.plus/img/animes/city-hunter/",
      "secao": "legendados",
      "pagina": 42,
      "total_episodios": 51,
      "link_video": "https://animefire.plus/video/city-hunter"
    },
    {
      "id": 657,
      "nome": "City Hunter 3",
      "link": "https://animefire.plus/animes/city-hunter-3-todos-os-episodios",
      "texto_original": "City Hunter 3",
      "rating": 7.9,
      "classificacao_etaria": "A14",
      "imagem_original": "https://animefire.plus/img/animes/city-hunter-3.webp",
      "imagem_pasta": "https://animefire.plus/img/animes/city-hunter-3/",
      "secao": "legendados",
      "pagina": 104,
      "total_episodios": 13,
      "link_video": "https://animefire.plus/video/city-hunter-3"
    },
    {
      "id": 658,
      "nome": "City the Animation (Dublado)",
      "link": "https://animefire.plus/animes/city-the-animation-dublado-todos-os-episodios",
      "texto_original": "City the Animation (Dublado)",
      "rating": 7.84,
      "classificacao_etaria": "A14",
      "imagem_original": "https://animefire.plus/img/animes/city-the-animation.webp",
      "imagem_pasta": "https://animefire.plus/img/animes/city-the-animation/",
      "secao": "dublados,legendados,lancamentos",
      "pagina": 1,
      "total_episodios": 5,
      "link_video": "https://animefire.plus/video/city-the-animation-dublado"
    },
    {
      "id": 664,
      "nome": "Classroom☆Crisis",
      "link": "https://animefire.plus/animes/classroom-crisis-todos-os-episodios",
      "texto_original": "Classroom☆Crisis",
      "rating": 7.1,
      "classificacao_etaria": "A14",
      "imagem_original": "https://animefire.plus/img/animes/classroom-crisis.webp",
      "imagem_pasta": "https://animefire.plus/img/animes/classroom-crisis/",
      "secao": "legendados",
      "pagina": 94,
      "total_episodios": 13,
      "link_video": "https://animefire.plus/video/classroom-crisis"
    },
    {
      "id": 665,
      "nome": "Claymore (Dublado)",
      "link": "https://animefire.plus/animes/claymore-dublado-todos-os-episodios",
      "texto_original": "Claymore (Dublado)",
      "rating": 7.78,
      "classificacao_etaria": "A18",
      "imagem_original": "https://animefire.plus/img/animes/claymore.webp",
      "imagem_pasta": "https://animefire.plus/img/animes/claymore/",
      "secao": "dublados,legendados",
      "pagina": 18,
      "total_episodios": 26,
      "link_video": "https://animefire.plus/video/claymore-dublado"
    }
  ],
  "pagination": {
    "current_page": 13,
    "per_page": 20,
    "total_items": 1905,
    "total_pages": 96,
    "has_next": true,
    "has_prev": true
  }
}
