{
  "message": "Animes com rating entre 7 e 8",
  "rating_range": {
    "min": 7,
    "max": 8
  },
  "data": [
    {
      "id": 251,
      "nome": "Aru Tabibito no Nikki",
      "link": "https://animefire.plus/animes/aru-tabibito-no-nikki-todos-os-episodios",
      "texto_original": "Aru Tabibito no Nikki",
      "rating": 7.16,
      "classificacao_etaria": null,
      "imagem_original": "https://animefire.plus/img/animes/aru-tabibito-no-nikki.webp",
      "imagem_pasta": "https://animefire.plus/img/animes/aru-tabibito-no-nikki/",
      "secao": "legendados",
      "pagina": 69,
      "total_episodios": 6,
      "link_video": "https://animefire.plus/video/aru-tabibito-no-nikki"
    },
    {
      "id": 253,
      "nome": "Asagao to Kase-san.",
      "link": "https://animefire.plus/animes/asagao-to-kase-san-todos-os-episodios",
      "texto_original": "Asagao to Kase-san.",
      "rating": 7.89,
      "classificacao_etaria": "A14",
      "imagem_original": "https://animefire.plus/img/animes/asagao-to-kase-san.webp",
      "imagem_pasta": "https://animefire.plus/img/animes/asagao-to-kase-san/",
      "secao": "legendados",
      "pagina": 109,
      "total_episodios": 0,
      "link_video": "https://animefire.plus/video/asagao-to-kase-san"
    },
    {
      "id": 261,
      "nome": "Ashita no Nadja (Dublado)",
      "link": "https://animefire.plus/animes/ashita-no-nadja-dublado-todos-os-episodios",
      "texto_original": "Ashita no Nadja (Dublado)",
      "rating": 7.6,
      "classificacao_etaria": null,
      "imagem_original": "https://animefire.plus/img/animes/ashita-no-nadja.webp",
      "imagem_pasta": "https://animefire.plus/img/animes/ashita-no-nadja/",
      "secao": "dublados,legendados",
      "pagina": 22,
      "total_episodios": 50,
      "link_video": "https://animefire.plus/video/ashita-no-nadja-dublado"
    },
    {
      "id": 263,
      "nome": "Asobi Asobase OVA",
      "link": "https://animefire.plus/animes/asobi-asobase-ova-todos-os-episodios",
      "texto_original": "Asobi Asobase OVA",
      "rating": 7.51,
      "classificacao_etaria": "A14",
      "imagem_original": "https://animefire.plus/img/animes/asobi-asobase-ova.webp",
      "imagem_pasta": "https://animefire.plus/img/animes/asobi-asobase-ova/",
      "secao": "legendados",
      "pagina": 85,
      "total_episodios": 1,
      "link_video": "https://animefire.plus/video/asobi-asobase-ova"
    },
    {
      "id": 264,
      "nome": "Asobi Asobase Specials",
      "link": "https://animefire.plus/animes/asobi-asobase-specials-todos-os-episodios",
      "texto_original": "Asobi Asobase Specials",
      "rating": 7.59,
      "classificacao_etaria": "A14",
      "imagem_original": "https://animefire.plus/img/animes/asobi-asobase-specials.webp",
      "imagem_pasta": "https://animefire.plus/img/animes/asobi-asobase-specials/",
      "secao": "legendados",
      "pagina": 85,
      "total_episodios": 2,
      "link_video": "https://animefire.plus/video/asobi-asobase-specials"
    },
    {
      "id": 271,
      "nome": "Asura Cryin'",
      "link": "https://animefire.plus/animes/asura-cryin-todos-os-episodios",
      "texto_original": "Asura Cryin'",
      "rating": 7.02,
      "classificacao_etaria": "A14",
      "imagem_original": "https://animefire.plus/img/animes/asura-cryin.webp",
      "imagem_pasta": "https://animefire.plus/img/animes/asura-cryin/",
      "secao": "legendados",
      "pagina": 172,
      "total_episodios": 13,
      "link_video": "https://animefire.plus/video/asura-cryin"
    },
    {
      "id": 272,
      "nome": "Atarashii Joushi wa Do Tennen",
      "link": "https://animefire.plus/animes/atarashii-joushi-wa-do-tennen-todos-os-episodios",
      "texto_original": "Atarashii Joushi wa Do Tennen",
      "rating": 7.92,
      "classificacao_etaria": "A14",
      "imagem_original": "https://animefire.plus/img/animes/atarashii-joushi-wa-do-tennen.webp",
      "imagem_pasta": "https://animefire.plus/img/animes/atarashii-joushi-wa-do-tennen/",
      "secao": "legendados",
      "pagina": 20,
      "total_episodios": 12,
      "link_video": "https://animefire.plus/video/atarashii-joushi-wa-do-tennen"
    },
    {
      "id": 275,
      "nome": "Atri: My Dear Moments",
      "link": "https://animefire.plus/animes/atri-my-dear-moments-todos-os-episodios",
      "texto_original": "Atri: My Dear Moments",
      "rating": 7.19,
      "classificacao_etaria": "A14",
      "imagem_original": "https://animefire.plus/img/animes/atri-my-dear-moments.webp",
      "imagem_pasta": "https://animefire.plus/img/animes/atri-my-dear-moments/",
      "secao": "legendados",
      "pagina": 13,
      "total_episodios": 13,
      "link_video": "https://animefire.plus/video/atri-my-dear-moments"
    },
    {
      "id": 284,
      "nome": "Ayakashi: Japanese Classic Horror",
      "link": "https://animefire.plus/animes/ayakashi-japanese-classic-horror-todos-os-episodios",
      "texto_original": "Ayakashi: Japanese Classic Horror",
      "rating": 7.52,
      "classificacao_etaria": "A16",
      "imagem_original": "https://animefire.plus/img/animes/ayakashi-japanese-classic-horror.webp",
      "imagem_pasta": "https://animefire.plus/img/animes/ayakashi-japanese-classic-horror/",
      "secao": "legendados",
      "pagina": 154,
      "total_episodios": 11,
      "link_video": "https://animefire.plus/video/ayakashi-japanese-classic-horror"
    },
    {
      "id": 285,
      "nome": "Ayashi no Ceres",
      "link": "https://animefire.plus/animes/ayashi-no-ceres-todos-os-episodios",
      "texto_original": "Ayashi no Ceres",
      "rating": 7.32,
      "classificacao_etaria": "A16",
      "imagem_original": "https://animefire.plus/img/animes/ayashi-no-ceres.webp",
      "imagem_pasta": "https://animefire.plus/img/animes/ayashi-no-ceres/",
      "secao": "legendados",
      "pagina": 144,
      "total_episodios": 24,
      "link_video": "https://animefire.plus/video/ayashi-no-ceres"
    },
    {
      "id": 288,
      "nome": "Azur Lane: Bisoku Zenshin!",
      "link": "https://animefire.plus/animes/azur-lane-bisoku-zenshin-todos-os-episodios",
      "texto_original": "Azur Lane: Bisoku Zenshin!",
      "rating": 7,
      "classificacao_etaria": "A14",
      "imagem_original": "https://animefire.plus/img/animes/azur-lane-bisoku-zenshin.webp",
      "imagem_pasta": "https://animefire.plus/img/animes/azur-lane-bisoku-zenshin/",
      "secao": "legendados",
      "pagina": 48,
      "total_episodios": 12,
      "link_video": "https://animefire.plus/video/azur-lane-bisoku-zenshin"
    },
    {
      "id": 290,
      "nome": "B-gata H-kei",
      "link": "https://animefire.plus/animes/b-gata-h-kei-todos-os-episodios",
      "texto_original": "B-gata H-kei",
      "rating": 7.06,
      "classificacao_etaria": "A18",
      "imagem_original": "https://animefire.plus/img/animes/b-gata-h-kei.webp",
      "imagem_pasta": "https://animefire.plus/img/animes/b-gata-h-kei/",
      "secao": "legendados",
      "pagina": 150,
      "total_episodios": 11,
      "link_video": "https://animefire.plus/video/b-gata-h-kei"
    },
    {
      "id": 294,
      "nome": "B: The Beginning (Dublado)",
      "link": "https://animefire.plus/animes/b-the-beginning-dublado-todos-os-episodios",
      "texto_original": "B: The Beginning (Dublado)",
      "rating": 7.49,
      "classificacao_etaria": "A16",
      "imagem_original": "https://animefire.plus/img/animes/b-the-beginning.webp",
      "imagem_pasta": "https://animefire.plus/img/animes/b-the-beginning/",
      "secao": "dublados,legendados",
      "pagina": 24,
      "total_episodios": 12,
      "link_video": "https://animefire.plus/video/b-the-beginning-dublado"
    },
    {
      "id": 298,
      "nome": "Baby Steps",
      "link": "https://animefire.plus/animes/baby-steps-todos-os-episodios",
      "texto_original": "Baby Steps",
      "rating": 7.92,
      "classificacao_etaria": "A14",
      "imagem_original": "https://animefire.plus/img/animes/baby-steps.webp",
      "imagem_pasta": "https://animefire.plus/img/animes/baby-steps/",
      "secao": "legendados",
      "pagina": 145,
      "total_episodios": 25,
      "link_video": "https://animefire.plus/video/baby-steps"
    },
    {
      "id": 305,
      "nome": "Baka to Test to Shoukanjuu",
      "link": "https://animefire.plus/animes/baka-to-test-to-shoukanjuu-todos-os-episodios",
      "texto_original": "Baka to Test to Shoukanjuu",
      "rating": 7.72,
      "classificacao_etaria": "A14",
      "imagem_original": "https://animefire.plus/img/animes/baka-to-test-to-shoukanjuu.webp",
      "imagem_pasta": "https://animefire.plus/img/animes/baka-to-test-to-shoukanjuu/",
      "secao": "legendados",
      "pagina": 167,
      "total_episodios": 13,
      "link_video": "https://animefire.plus/video/baka-to-test-to-shoukanjuu"
    },
    {
      "id": 307,
      "nome": "Baka to Test to Shoukanjuu Ni!",
      "link": "https://animefire.plus/animes/baka-to-test-to-shoukanjuu-ni-todos-os-episodios",
      "texto_original": "Baka to Test to Shoukanjuu Ni!",
      "rating": 7.87,
      "classificacao_etaria": "A14",
      "imagem_original": "https://animefire.plus/img/animes/baka-to-test-to-shoukanjuu-ni.webp",
      "imagem_pasta": "https://animefire.plus/img/animes/baka-to-test-to-shoukanjuu-ni/",
      "secao": "legendados",
      "pagina": 142,
      "total_episodios": 12,
      "link_video": "https://animefire.plus/video/baka-to-test-to-shoukanjuu-ni"
    },
    {
      "id": 309,
      "nome": "Baki (Dublado)",
      "link": "https://animefire.plus/animes/baki-dublado-todos-os-episodios",
      "texto_original": "Baki (Dublado)",
      "rating": 7.33,
      "classificacao_etaria": "A16",
      "imagem_original": "https://animefire.plus/img/animes/baki.webp",
      "imagem_pasta": "https://animefire.plus/img/animes/baki/",
      "secao": "dublados,legendados",
      "pagina": 25,
      "total_episodios": 26,
      "link_video": "https://animefire.plus/video/baki-dublado"
    },
    {
      "id": 310,
      "nome": "Baki 2nd Season",
      "link": "https://animefire.plus/animes/baki-2nd-season-todos-os-episodios",
      "texto_original": "Baki 2nd Season",
      "rating": 7.47,
      "classificacao_etaria": "A16",
      "imagem_original": "https://animefire.plus/img/animes/baki-2nd-season.webp",
      "imagem_pasta": "https://animefire.plus/img/animes/baki-2nd-season/",
      "secao": "legendados",
      "pagina": 61,
      "total_episodios": 13,
      "link_video": "https://animefire.plus/video/baki-2nd-season"
    },
    {
      "id": 317,
      "nome": "Bakumatsu Kikansetsu Irohanihoheto",
      "link": "https://animefire.plus/animes/bakumatsu-kikansetsu-irohanihoheto-todos-os-episodios",
      "texto_original": "Bakumatsu Kikansetsu Irohanihoheto",
      "rating": 7.17,
      "classificacao_etaria": "A14",
      "imagem_original": "https://animefire.plus/img/animes/bakumatsu-kikansetsu-irohanihoheto.webp",
      "imagem_pasta": "https://animefire.plus/img/animes/bakumatsu-kikansetsu-irohanihoheto/",
      "secao": "legendados",
      "pagina": 149,
      "total_episodios": 26,
      "link_video": "https://animefire.plus/video/bakumatsu-kikansetsu-irohanihoheto"
    },
    {
      "id": 325,
      "nome": "Bakuten Shoot Beyblade G Revolution (Dublado)",
      "link": "https://animefire.plus/animes/bakuten-shoot-beyblade-g-revolution-dublado-todos-os-episodios",
      "texto_original": "Bakuten Shoot Beyblade G Revolution (Dublado)",
      "rating": 7.01,
      "classificacao_etaria": "A10",
      "imagem_original": "https://animefire.plus/img/animes/bakuten-shoot-beyblade-g-revolution.webp",
      "imagem_pasta": "https://animefire.plus/img/animes/bakuten-shoot-beyblade-g-revolution/",
      "secao": "dublados",
      "pagina": 27,
      "total_episodios": 11,
      "link_video": "https://animefire.plus/video/bakuten-shoot-beyblade-g-revolution-dublado"
    }
  ],
  "pagination": {
    "current_page": 7,
    "per_page": 20,
    "total_items": 1905,
    "total_pages": 96,
    "has_next": true,
    "has_prev": true
  }
}
