{
  "message": "Animes com rating entre 7 e 8",
  "rating_range": {
    "min": 7,
    "max": 8
  },
  "data": [
    {
      "id": 555,
      "nome": "Capeta",
      "link": "https://animefire.plus/animes/capeta-todos-os-episodios",
      "texto_original": "Capeta",
      "rating": 7.84,
      "classificacao_etaria": "A10",
      "imagem_original": "https://animefire.plus/img/animes/capeta.webp",
      "imagem_pasta": "https://animefire.plus/img/animes/capeta/",
      "secao": "legendados",
      "pagina": 55,
      "total_episodios": 52,
      "link_video": "https://animefire.plus/video/capeta"
    },
    {
      "id": 557,
      "nome": "Captain Tsubasa",
      "link": "https://animefire.plus/animes/captain-tsubasa-todos-os-episodios",
      "texto_original": "Captain Tsubasa",
      "rating": 7.31,
      "classificacao_etaria": null,
      "imagem_original": "https://animefire.plus/img/animes/captain-tsubasa.webp",
      "imagem_pasta": "https://animefire.plus/img/animes/captain-tsubasa/",
      "secao": "legendados",
      "pagina": 59,
      "total_episodios": 46,
      "link_video": "https://animefire.plus/video/captain-tsubasa"
    },
    {
      "id": 558,
      "nome": "Captain Tsubasa (2018) (Dublado)",
      "link": "https://animefire.plus/animes/captain-tsubasa-2018-dublado-todos-os-episodios",
      "texto_original": "Captain Tsubasa (2018) (Dublado)",
      "rating": 7.46,
      "classificacao_etaria": null,
      "imagem_original": "https://animefire.plus/img/animes/captain-tsubasa-2018.webp",
      "imagem_pasta": "https://animefire.plus/img/animes/captain-tsubasa-2018/",
      "secao": "dublados,legendados",
      "pagina": 21,
      "total_episodios": 52,
      "link_video": "https://animefire.plus/video/captain-tsubasa-2018-dublado"
    },
    {
      "id": 559,
      "nome": "Captain Tsubasa Season 2: Junior Youth-hen (Dublado)",
      "link": "https://animefire.plus/animes/captain-tsubasa-season-2-junior-youth-hen-dublado-todos-os-episodios",
      "texto_original": "Captain Tsubasa Season 2: Junior Youth-hen (Dublado)",
      "rating": 7.43,
      "classificacao_etaria": null,
      "imagem_original": "https://animefire.plus/img/animes/captain-tsubasa-season-2-junior-youth-hen.webp",
      "imagem_pasta": "https://animefire.plus/img/animes/captain-tsubasa-season-2-junior-youth-hen/",
      "secao": "dublados,legendados",
      "pagina": 4,
      "total_episodios": 39,
      "link_video": "https://animefire.plus/video/captain-tsubasa-season-2-junior-youth-hen-dublado"
    },
    {
      "id": 562,
      "nome": "Cardcaptor Sakura: Clear Card-hen",
      "link": "https://animefire.plus/animes/cardcaptor-sakura-clear-card-hen-todos-os-episodios",
      "texto_original": "Cardcaptor Sakura: Clear Card-hen",
      "rating": 7.87,
      "classificacao_etaria": "A10",
      "imagem_original": "https://animefire.plus/img/animes/cardcaptor-sakura-clear-card-hen.webp",
      "imagem_pasta": "https://animefire.plus/img/animes/cardcaptor-sakura-clear-card-hen/",
      "secao": "legendados",
      "pagina": 106,
      "total_episodios": 22,
      "link_video": "https://animefire.plus/video/cardcaptor-sakura-clear-card-hen"
    },
    {
      "id": 563,
      "nome": "Cardfight!! Vanguard (2018)",
      "link": "https://animefire.plus/animes/cardfight-vanguard-2018-todos-os-episodios",
      "texto_original": "Cardfight!! Vanguard (2018)",
      "rating": 7.1,
      "classificacao_etaria": "A14",
      "imagem_original": "https://animefire.plus/img/animes/cardfight-vanguard-2018.webp",
      "imagem_pasta": "https://animefire.plus/img/animes/cardfight-vanguard-2018/",
      "secao": "legendados",
      "pagina": 143,
      "total_episodios": 52,
      "link_video": "https://animefire.plus/video/cardfight-vanguard-2018"
    },
    {
      "id": 571,
      "nome": "Cardfight!! Vanguard: Divinez",
      "link": "https://animefire.plus/animes/cardfight-vanguard-divinez-todos-os-episodios",
      "texto_original": "Cardfight!! Vanguard: Divinez",
      "rating": 7.07,
      "classificacao_etaria": "A14",
      "imagem_original": "https://animefire.plus/img/animes/cardfight-vanguard-divinez.webp",
      "imagem_pasta": "https://animefire.plus/img/animes/cardfight-vanguard-divinez/",
      "secao": "legendados",
      "pagina": 16,
      "total_episodios": 13,
      "link_video": "https://animefire.plus/video/cardfight-vanguard-divinez"
    },
    {
      "id": 574,
      "nome": "Cardfight!! Vanguard: Divinez Season 2",
      "link": "https://animefire.plus/animes/cardfight-vanguard-divinez-season-2-todos-os-episodios",
      "texto_original": "Cardfight!! Vanguard: Divinez Season 2",
      "rating": 7.11,
      "classificacao_etaria": "A14",
      "imagem_original": "https://animefire.plus/img/animes/cardfight-vanguard-divinez-season-2.webp",
      "imagem_pasta": "https://animefire.plus/img/animes/cardfight-vanguard-divinez-season-2/",
      "secao": "legendados",
      "pagina": 12,
      "total_episodios": 13,
      "link_video": "https://animefire.plus/video/cardfight-vanguard-divinez-season-2"
    },
    {
      "id": 576,
      "nome": "Cardfight!! Vanguard: Link Joker-hen",
      "link": "https://animefire.plus/animes/cardfight-vanguard-link-joker-hen-todos-os-episodios",
      "texto_original": "Cardfight!! Vanguard: Link Joker-hen",
      "rating": 7.32,
      "classificacao_etaria": "A14",
      "imagem_original": "https://animefire.plus/img/animes/cardfight-vanguard-link-joker-hen.webp",
      "imagem_pasta": "https://animefire.plus/img/animes/cardfight-vanguard-link-joker-hen/",
      "secao": "legendados",
      "pagina": 178,
      "total_episodios": 0,
      "link_video": "https://animefire.plus/video/cardfight-vanguard-link-joker-hen"
    },
    {
      "id": 582,
      "nome": "Carnival Phantasm",
      "link": "https://animefire.plus/animes/carnival-phantasm-todos-os-episodios",
      "texto_original": "Carnival Phantasm",
      "rating": 7.95,
      "classificacao_etaria": "A14",
      "imagem_original": "https://animefire.plus/img/animes/carnival-phantasm.webp",
      "imagem_pasta": "https://animefire.plus/img/animes/carnival-phantasm/",
      "secao": "legendados",
      "pagina": 131,
      "total_episodios": 12,
      "link_video": "https://animefire.plus/video/carnival-phantasm"
    },
    {
      "id": 583,
      "nome": "Carole & Tuesday (Dublado)",
      "link": "https://animefire.plus/animes/carole-tuesday-dublado-todos-os-episodios",
      "texto_original": "Carole & Tuesday (Dublado)",
      "rating": 7.98,
      "classificacao_etaria": "A14",
      "imagem_original": "https://animefire.plus/img/animes/carole-tuesday.webp",
      "imagem_pasta": "https://animefire.plus/img/animes/carole-tuesday/",
      "secao": "dublados,legendados",
      "pagina": 25,
      "total_episodios": 24,
      "link_video": "https://animefire.plus/video/carole-tuesday-dublado"
    },
    {
      "id": 584,
      "nome": "Casshern Sins",
      "link": "https://animefire.plus/animes/casshern-sins-todos-os-episodios",
      "texto_original": "Casshern Sins",
      "rating": 7.58,
      "classificacao_etaria": "A16",
      "imagem_original": "https://animefire.plus/img/animes/casshern-sins.webp",
      "imagem_pasta": "https://animefire.plus/img/animes/casshern-sins/",
      "secao": "legendados",
      "pagina": 120,
      "total_episodios": 24,
      "link_video": "https://animefire.plus/video/casshern-sins"
    },
    {
      "id": 586,
      "nome": "Cencoroll",
      "link": "https://animefire.plus/animes/cencoroll-todos-os-episodios",
      "texto_original": "Cencoroll",
      "rating": 7.24,
      "classificacao_etaria": "A14",
      "imagem_original": "https://animefire.plus/img/animes/cencoroll.webp",
      "imagem_pasta": "https://animefire.plus/img/animes/cencoroll/",
      "secao": "legendados",
      "pagina": 83,
      "total_episodios": 0,
      "link_video": "https://animefire.plus/video/cencoroll"
    },
    {
      "id": 591,
      "nome": "Chao Neng Lifang: Chaofan Pian",
      "link": "https://animefire.plus/animes/chao-neng-lifang-chaofan-pian-todos-os-episodios",
      "texto_original": "Chao Neng Lifang: Chaofan Pian",
      "rating": 7.23,
      "classificacao_etaria": "A14",
      "imagem_original": "https://animefire.plus/img/animes/chao-neng-lifang-chaofan-pian.webp",
      "imagem_pasta": "https://animefire.plus/img/animes/chao-neng-lifang-chaofan-pian/",
      "secao": "legendados",
      "pagina": 3,
      "total_episodios": 12,
      "link_video": "https://animefire.plus/video/chao-neng-lifang-chaofan-pian"
    },
    {
      "id": 595,
      "nome": "Charlotte",
      "link": "https://animefire.plus/animes/charlotte-todos-os-episodios",
      "texto_original": "Charlotte",
      "rating": 7.9,
      "classificacao_etaria": "A14",
      "imagem_original": "https://animefire.plus/img/animes/charlotte.webp",
      "imagem_pasta": "https://animefire.plus/img/animes/charlotte/",
      "secao": "legendados",
      "pagina": 98,
      "total_episodios": 13,
      "link_video": "https://animefire.plus/video/charlotte"
    },
    {
      "id": 596,
      "nome": "Charlotte: Tsuyoimono-tachi",
      "link": "https://animefire.plus/animes/charlotte-tsuyoimono-tachi-todos-os-episodios",
      "texto_original": "Charlotte: Tsuyoimono-tachi",
      "rating": 7.51,
      "classificacao_etaria": "A14",
      "imagem_original": "https://animefire.plus/img/animes/charlotte-tsuyoimono-tachi.webp",
      "imagem_pasta": "https://animefire.plus/img/animes/charlotte-tsuyoimono-tachi/",
      "secao": "legendados",
      "pagina": 71,
      "total_episodios": 1,
      "link_video": "https://animefire.plus/video/charlotte-tsuyoimono-tachi"
    },
    {
      "id": 602,
      "nome": "Chicchana Yukitsukai Sugar",
      "link": "https://animefire.plus/animes/chicchana-yukitsukai-sugar-todos-os-episodios",
      "texto_original": "Chicchana Yukitsukai Sugar",
      "rating": 7.15,
      "classificacao_etaria": "A10",
      "imagem_original": "https://animefire.plus/img/animes/chicchana-yukitsukai-sugar.webp",
      "imagem_pasta": "https://animefire.plus/img/animes/chicchana-yukitsukai-sugar/",
      "secao": "legendados",
      "pagina": 152,
      "total_episodios": 24,
      "link_video": "https://animefire.plus/video/chicchana-yukitsukai-sugar"
    },
    {
      "id": 606,
      "nome": "Chiikawa",
      "link": "https://animefire.plus/animes/chiikawa-todos-os-episodios",
      "texto_original": "Chiikawa",
      "rating": 7.03,
      "classificacao_etaria": null,
      "imagem_original": "https://animefire.plus/img/animes/chiikawa.webp",
      "imagem_pasta": "https://animefire.plus/img/animes/chiikawa/",
      "secao": "legendados,lancamentos",
      "pagina": 30,
      "total_episodios": 0,
      "link_video": "https://animefire.plus/video/chiikawa"
    },
    {
      "id": 607,
      "nome": "Chiisana Eiyuu: Kani to Tamago to Toumei Ningen (Dublado)",
      "link": "https://animefire.plus/animes/chiisana-eiyuu-kani-to-tamago-to-toumei-ningen-dublado-todos-os-episodios",
      "texto_original": "Chiisana Eiyuu: Kani to Tamago to Toumei Ningen (Dublado)",
      "rating": 7.06,
      "classificacao_etaria": null,
      "imagem_original": "https://animefire.plus/img/animes/chiisana-eiyuu-kani-to-tamago-to-toumei-ningen.webp",
      "imagem_pasta": "https://animefire.plus/img/animes/chiisana-eiyuu-kani-to-tamago-to-toumei-ningen/",
      "secao": "dublados,legendados",
      "pagina": 23,
      "total_episodios": 3,
      "link_video": "https://animefire.plus/video/chiisana-eiyuu-kani-to-tamago-to-toumei-ningen-dublado"
    },
    {
      "id": 611,
      "nome": "Chio-chan no Tsuugakuro",
      "link": "https://animefire.plus/animes/chio-chan-no-tsuugakuro-todos-os-episodios",
      "texto_original": "Chio-chan no Tsuugakuro",
      "rating": 7.5,
      "classificacao_etaria": "A14",
      "imagem_original": "https://animefire.plus/img/animes/chio-chan-no-tsuugakuro.webp",
      "imagem_pasta": "https://animefire.plus/img/animes/chio-chan-no-tsuugakuro/",
      "secao": "legendados",
      "pagina": 146,
      "total_episodios": 12,
      "link_video": "https://animefire.plus/video/chio-chan-no-tsuugakuro"
    }
  ],
  "pagination": {
    "current_page": 12,
    "per_page": 20,
    "total_items": 1905,
    "total_pages": 96,
    "has_next": true,
    "has_prev": true
  }
}
