{
  "message": "Animes com rating entre 7 e 8",
  "rating_range": {
    "min": 7,
    "max": 8
  },
  "data": [
    {
      "id": 805,
      "nome": "Devilman: Crybaby (Dublado)",
      "link": "https://animefire.plus/animes/devilman-crybaby-dublado-todos-os-episodios",
      "texto_original": "Devilman: Crybaby (Dublado)",
      "rating": 7.9,
      "classificacao_etaria": "A18",
      "imagem_original": "https://animefire.plus/img/animes/devilman-crybaby.webp",
      "imagem_pasta": "https://animefire.plus/img/animes/devilman-crybaby/",
      "secao": "dublados,legendados",
      "pagina": 21,
      "total_episodios": 10,
      "link_video": "https://animefire.plus/video/devilman-crybaby-dublado"
    },
    {
      "id": 813,
      "nome": "Diamond no Ace: Second Season OVA",
      "link": "https://animefire.plus/animes/diamond-no-ace-second-season-ova-todos-os-episodios",
      "texto_original": "Diamond no Ace: Second Season OVA",
      "rating": 7.57,
      "classificacao_etaria": "A14",
      "imagem_original": "https://animefire.plus/img/animes/diamond-no-ace-second-season-ova.webp",
      "imagem_pasta": "https://animefire.plus/img/animes/diamond-no-ace-second-season-ova/",
      "secao": "legendados",
      "pagina": 83,
      "total_episodios": 2,
      "link_video": "https://animefire.plus/video/diamond-no-ace-second-season-ova"
    },
    {
      "id": 817,
      "nome": "Digimon Adventure (Dublado)",
      "link": "https://animefire.plus/animes/digimon-adventure-dublado-todos-os-episodios",
      "texto_original": "Digimon Adventure (Dublado)",
      "rating": 7.8,
      "classificacao_etaria": "A10",
      "imagem_original": "https://animefire.plus/img/animes/digimon-adventure.webp",
      "imagem_pasta": "https://animefire.plus/img/animes/digimon-adventure/",
      "secao": "dublados,legendados",
      "pagina": 20,
      "total_episodios": 54,
      "link_video": "https://animefire.plus/video/digimon-adventure-dublado"
    },
    {
      "id": 818,
      "nome": "Digimon Adventure 02 (Dublado)",
      "link": "https://animefire.plus/animes/digimon-adventure-02-dublado-todos-os-episodios",
      "texto_original": "Digimon Adventure 02 (Dublado)",
      "rating": 7.33,
      "classificacao_etaria": "A10",
      "imagem_original": "https://animefire.plus/img/animes/digimon-adventure-02.webp",
      "imagem_pasta": "https://animefire.plus/img/animes/digimon-adventure-02/",
      "secao": "dublados,legendados",
      "pagina": 27,
      "total_episodios": 50,
      "link_video": "https://animefire.plus/video/digimon-adventure-02-dublado"
    },
    {
      "id": 819,
      "nome": "Digimon Adventure tri. 6: Bokura no Mirai",
      "link": "https://animefire.plus/animes/digimon-adventure-tri-6-bokura-no-mirai-todos-os-episodios",
      "texto_original": "Digimon Adventure tri. 6: Bokura no Mirai",
      "rating": 7.3,
      "classificacao_etaria": "A14",
      "imagem_original": "https://animefire.plus/img/animes/digimon-adventure-tri-6-bokura-no-mirai.webp",
      "imagem_pasta": "https://animefire.plus/img/animes/digimon-adventure-tri-6-bokura-no-mirai/",
      "secao": "legendados",
      "pagina": 148,
      "total_episodios": 5,
      "link_video": "https://animefire.plus/video/digimon-adventure-tri-6-bokura-no-mirai"
    },
    {
      "id": 821,
      "nome": "Digimon Frontier (Dublado)",
      "link": "https://animefire.plus/animes/digimon-frontier-dublado-todos-os-episodios",
      "texto_original": "Digimon Frontier (Dublado)",
      "rating": 7.18,
      "classificacao_etaria": "A10",
      "imagem_original": "https://animefire.plus/img/animes/digimon-frontier.webp",
      "imagem_pasta": "https://animefire.plus/img/animes/digimon-frontier/",
      "secao": "dublados,legendados",
      "pagina": 21,
      "total_episodios": 50,
      "link_video": "https://animefire.plus/video/digimon-frontier-dublado"
    },
    {
      "id": 823,
      "nome": "Digimon Savers (Dublado)",
      "link": "https://animefire.plus/animes/digimon-savers-dublado-todos-os-episodios",
      "texto_original": "Digimon Savers (Dublado)",
      "rating": 7.06,
      "classificacao_etaria": "A10",
      "imagem_original": "https://animefire.plus/img/animes/digimon-savers.webp",
      "imagem_pasta": "https://animefire.plus/img/animes/digimon-savers/",
      "secao": "dublados",
      "pagina": 27,
      "total_episodios": 13,
      "link_video": "https://animefire.plus/video/digimon-savers-dublado"
    },
    {
      "id": 824,
      "nome": "Digimon Tamers",
      "link": "https://animefire.plus/animes/digimon-tamers-todos-os-episodios",
      "texto_original": "Digimon Tamers",
      "rating": 7.66,
      "classificacao_etaria": "A10",
      "imagem_original": "https://animefire.plus/img/animes/digimon-tamers.webp",
      "imagem_pasta": "https://animefire.plus/img/animes/digimon-tamers/",
      "secao": "legendados",
      "pagina": 134,
      "total_episodios": 0,
      "link_video": "https://animefire.plus/video/digimon-tamers"
    },
    {
      "id": 827,
      "nome": "Digimon Xros Wars: Aku no Death General to Nanatsu no Oukoku",
      "link": "https://animefire.plus/animes/digimon-xros-wars-aku-no-death-general-to-nanatsu-no-oukoku-todos-os-episodios",
      "texto_original": "Digimon Xros Wars: Aku no Death General to Nanatsu no Oukoku",
      "rating": 7.32,
      "classificacao_etaria": "A10",
      "imagem_original": "https://animefire.plus/img/animes/digimon-xros-wars-aku-no-death-general-to-nanatsu-no-oukoku.webp",
      "imagem_pasta": "https://animefire.plus/img/animes/digimon-xros-wars-aku-no-death-general-to-nanatsu-no-oukoku/",
      "secao": "legendados",
      "pagina": 148,
      "total_episodios": 0,
      "link_video": "https://animefire.plus/video/digimon-xros-wars-aku-no-death-general-to-nanatsu-no-oukoku"
    },
    {
      "id": 829,
      "nome": "Dimension W",
      "link": "https://animefire.plus/animes/dimension-w-todos-os-episodios",
      "texto_original": "Dimension W",
      "rating": 7.29,
      "classificacao_etaria": "A16",
      "imagem_original": "https://animefire.plus/img/animes/dimension-w.webp",
      "imagem_pasta": "https://animefire.plus/img/animes/dimension-w/",
      "secao": "legendados",
      "pagina": 162,
      "total_episodios": 3,
      "link_video": "https://animefire.plus/video/dimension-w"
    },
    {
      "id": 830,
      "nome": "Dirty Pair",
      "link": "https://animefire.plus/animes/dirty-pair-todos-os-episodios",
      "texto_original": "Dirty Pair",
      "rating": 7.18,
      "classificacao_etaria": "A18",
      "imagem_original": "https://animefire.plus/img/animes/dirty-pair.webp",
      "imagem_pasta": "https://animefire.plus/img/animes/dirty-pair/",
      "secao": "legendados",
      "pagina": 77,
      "total_episodios": 26,
      "link_video": "https://animefire.plus/video/dirty-pair"
    },
    {
      "id": 836,
      "nome": "Do It Yourself!!",
      "link": "https://animefire.plus/animes/do-it-yourself-todos-os-episodios",
      "texto_original": "Do It Yourself!!",
      "rating": 7.45,
      "classificacao_etaria": "A14",
      "imagem_original": "https://animefire.plus/img/animes/do-it-yourself.webp",
      "imagem_pasta": "https://animefire.plus/img/animes/do-it-yourself/",
      "secao": "legendados",
      "pagina": 29,
      "total_episodios": 12,
      "link_video": "https://animefire.plus/video/do-it-yourself"
    },
    {
      "id": 837,
      "nome": "Dog Days",
      "link": "https://animefire.plus/animes/dog-days-todos-os-episodios",
      "texto_original": "Dog Days",
      "rating": 7.02,
      "classificacao_etaria": "A14",
      "imagem_original": "https://animefire.plus/img/animes/dog-days.webp",
      "imagem_pasta": "https://animefire.plus/img/animes/dog-days/",
      "secao": "legendados",
      "pagina": 57,
      "total_episodios": 13,
      "link_video": "https://animefire.plus/video/dog-days"
    },
    {
      "id": 838,
      "nome": "Dog Days'",
      "link": "https://animefire.plus/animes/dog-days-2-todos-os-episodios",
      "texto_original": "Dog Days'",
      "rating": 7.14,
      "classificacao_etaria": "A14",
      "imagem_original": "https://animefire.plus/img/animes/dog-days-2.webp",
      "imagem_pasta": "https://animefire.plus/img/animes/dog-days-2/",
      "secao": "legendados",
      "pagina": 57,
      "total_episodios": 13,
      "link_video": "https://animefire.plus/video/dog-days-2"
    },
    {
      "id": 839,
      "nome": "Dog Days''",
      "link": "https://animefire.plus/animes/dog-days-3-todos-os-episodios",
      "texto_original": "Dog Days''",
      "rating": 7.03,
      "classificacao_etaria": "A14",
      "imagem_original": "https://animefire.plus/img/animes/dog-days-3.webp",
      "imagem_pasta": "https://animefire.plus/img/animes/dog-days-3/",
      "secao": "legendados",
      "pagina": 57,
      "total_episodios": 0,
      "link_video": "https://animefire.plus/video/dog-days-3"
    },
    {
      "id": 846,
      "nome": "Donten ni Warau",
      "link": "https://animefire.plus/animes/donten-ni-warau-todos-os-episodios",
      "texto_original": "Donten ni Warau",
      "rating": 7.59,
      "classificacao_etaria": "A14",
      "imagem_original": "https://animefire.plus/img/animes/donten-ni-warau.webp",
      "imagem_pasta": "https://animefire.plus/img/animes/donten-ni-warau/",
      "secao": "legendados",
      "pagina": 120,
      "total_episodios": 0,
      "link_video": "https://animefire.plus/video/donten-ni-warau"
    },
    {
      "id": 849,
      "nome": "Dorohedoro: Ma no Omake",
      "link": "https://animefire.plus/animes/dorohedoro-ma-no-omake-todos-os-episodios",
      "texto_original": "Dorohedoro: Ma no Omake",
      "rating": 7.11,
      "classificacao_etaria": "A18",
      "imagem_original": "https://animefire.plus/img/animes/dorohedoro-ma-no-omake.webp",
      "imagem_pasta": "https://animefire.plus/img/animes/dorohedoro-ma-no-omake/",
      "secao": "legendados",
      "pagina": 59,
      "total_episodios": 6,
      "link_video": "https://animefire.plus/video/dorohedoro-ma-no-omake"
    },
    {
      "id": 851,
      "nome": "Dororo to Hyakkimaru",
      "link": "https://animefire.plus/animes/dororo-to-hyakkimaru-todos-os-episodios",
      "texto_original": "Dororo to Hyakkimaru",
      "rating": 7.14,
      "classificacao_etaria": "A16",
      "imagem_original": "https://animefire.plus/img/animes/dororo-to-hyakkimaru.webp",
      "imagem_pasta": "https://animefire.plus/img/animes/dororo-to-hyakkimaru/",
      "secao": "legendados",
      "pagina": 77,
      "total_episodios": 2,
      "link_video": "https://animefire.plus/video/dororo-to-hyakkimaru"
    },
    {
      "id": 853,
      "nome": "Dosanko Gal wa Namara Menkoi (Dublado)",
      "link": "https://animefire.plus/animes/dosanko-gal-wa-namara-menkoi-dublado-todos-os-episodios",
      "texto_original": "Dosanko Gal wa Namara Menkoi (Dublado)",
      "rating": 7.04,
      "classificacao_etaria": "A14",
      "imagem_original": "https://animefire.plus/img/animes/dosanko-gal-wa-namara-menkoi.webp",
      "imagem_pasta": "https://animefire.plus/img/animes/dosanko-gal-wa-namara-menkoi/",
      "secao": "dublados,legendados,lancamentos",
      "pagina": 3,
      "total_episodios": 12,
      "link_video": "https://animefire.plus/video/dosanko-gal-wa-namara-menkoi-dublado"
    },
    {
      "id": 857,
      "nome": "Double Decker! Doug & Kirill: Extra",
      "link": "https://animefire.plus/animes/double-decker-doug-kirill-extra-todos-os-episodios",
      "texto_original": "Double Decker! Doug & Kirill: Extra",
      "rating": 7.2,
      "classificacao_etaria": "A16",
      "imagem_original": "https://animefire.plus/img/animes/double-decker-doug-kirill-extra.webp",
      "imagem_pasta": "https://animefire.plus/img/animes/double-decker-doug-kirill-extra/",
      "secao": "legendados",
      "pagina": 87,
      "total_episodios": 0,
      "link_video": "https://animefire.plus/video/double-decker-doug-kirill-extra"
    }
  ],
  "pagination": {
    "current_page": 17,
    "per_page": 20,
    "total_items": 1905,
    "total_pages": 96,
    "has_next": true,
    "has_prev": true
  }
}
