{
  "message": "Animes com rating entre 7 e 8",
  "rating_range": {
    "min": 7,
    "max": 8
  },
  "data": [
    {
      "id": 3471,
      "nome": "Shinreigari (Dublado)",
      "link": "https://animefire.plus/animes/shinreigari-dublado-todos-os-episodios",
      "texto_original": "Shinreigari (Dublado)",
      "rating": 7.47,
      "classificacao_etaria": "A14",
      "imagem_original": "https://animefire.plus/img/animes/shinreigari.webp",
      "imagem_pasta": "https://animefire.plus/img/animes/shinreigari/",
      "secao": "dublados,legendados",
      "pagina": 20,
      "total_episodios": 22,
      "link_video": "https://animefire.plus/video/shinreigari-dublado"
    },
    {
      "id": 3472,
      "nome": "Shinryaku! Ika Musume (Dublado)",
      "link": "https://animefire.plus/animes/shinryaku-ika-musume-dublado-todos-os-episodios",
      "texto_original": "Shinryaku! Ika Musume (Dublado)",
      "rating": 7.41,
      "classificacao_etaria": "A14",
      "imagem_original": "https://animefire.plus/img/animes/shinryaku-ika-musume.webp",
      "imagem_pasta": "https://animefire.plus/img/animes/shinryaku-ika-musume/",
      "secao": "dublados,legendados",
      "pagina": 5,
      "total_episodios": 12,
      "link_video": "https://animefire.plus/video/shinryaku-ika-musume-dublado"
    },
    {
      "id": 3473,
      "nome": "Shinryaku!? Ika Musume (Dublado)",
      "link": "https://animefire.plus/animes/the-invader-comes-from-the-bottom-of-the-sea-dublado-todos-os-episodios",
      "texto_original": "Shinryaku!? Ika Musume (Dublado)",
      "rating": 7.47,
      "classificacao_etaria": "A14",
      "imagem_original": "https://animefire.plus/img/animes/the-invader-comes-from-the-bottom-of-the-sea.webp",
      "imagem_pasta": "https://animefire.plus/img/animes/the-invader-comes-from-the-bottom-of-the-sea/",
      "secao": "dublados",
      "pagina": 4,
      "total_episodios": 12,
      "link_video": "https://animefire.plus/video/the-invader-comes-from-the-bottom-of-the-sea-dublado"
    },
    {
      "id": 3476,
      "nome": "Shion no Ou",
      "link": "https://animefire.plus/animes/shion-no-ou-todos-os-episodios",
      "texto_original": "Shion no Ou",
      "rating": 7.61,
      "classificacao_etaria": "A14",
      "imagem_original": "https://animefire.plus/img/animes/shion-no-ou.webp",
      "imagem_pasta": "https://animefire.plus/img/animes/shion-no-ou/",
      "secao": "legendados",
      "pagina": 128,
      "total_episodios": 22,
      "link_video": "https://animefire.plus/video/shion-no-ou"
    },
    {
      "id": 3477,
      "nome": "Shiro Seijo to Kuro Bokushi",
      "link": "https://animefire.plus/animes/shiro-seijo-to-kuro-bokushi-todos-os-episodios",
      "texto_original": "Shiro Seijo to Kuro Bokushi",
      "rating": 7.37,
      "classificacao_etaria": "A14",
      "imagem_original": "https://animefire.plus/img/animes/shiro-seijo-to-kuro-bokushi.webp",
      "imagem_pasta": "https://animefire.plus/img/animes/shiro-seijo-to-kuro-bokushi/",
      "secao": "legendados",
      "pagina": 22,
      "total_episodios": 12,
      "link_video": "https://animefire.plus/video/shiro-seijo-to-kuro-bokushi"
    },
    {
      "id": 3481,
      "nome": "Shiroi Suna no Aquatope",
      "link": "https://animefire.plus/animes/shiroi-suna-no-aquatope-todos-os-episodios",
      "texto_original": "Shiroi Suna no Aquatope",
      "rating": 7.51,
      "classificacao_etaria": "A14",
      "imagem_original": "https://animefire.plus/img/animes/shiroi-suna-no-aquatope.webp",
      "imagem_pasta": "https://animefire.plus/img/animes/shiroi-suna-no-aquatope/",
      "secao": "legendados",
      "pagina": 41,
      "total_episodios": 24,
      "link_video": "https://animefire.plus/video/shiroi-suna-no-aquatope"
    },
    {
      "id": 3484,
      "nome": "Shiunji-ke no Kodomotachi (Dublado)",
      "link": "https://animefire.plus/animes/shiunji-ke-no-kodomotachi-dublado-todos-os-episodios",
      "texto_original": "Shiunji-ke no Kodomotachi (Dublado)",
      "rating": 7.1,
      "classificacao_etaria": "A14",
      "imagem_original": "https://animefire.plus/img/animes/shiunji-ke-no-kodomotachi.webp",
      "imagem_pasta": "https://animefire.plus/img/animes/shiunji-ke-no-kodomotachi/",
      "secao": "dublados,legendados,lancamentos",
      "pagina": 1,
      "total_episodios": 12,
      "link_video": "https://animefire.plus/video/shiunji-ke-no-kodomotachi-dublado"
    },
    {
      "id": 3488,
      "nome": "Shokugeki no Souma OVA",
      "link": "https://animefire.plus/animes/shokugeki-no-souma-ova-todos-os-episodios",
      "texto_original": "Shokugeki no Souma OVA",
      "rating": 7.35,
      "classificacao_etaria": "A14",
      "imagem_original": "https://animefire.plus/img/animes/shokugeki-no-souma-ova.webp",
      "imagem_pasta": "https://animefire.plus/img/animes/shokugeki-no-souma-ova/",
      "secao": "legendados",
      "pagina": 37,
      "total_episodios": 2,
      "link_video": "https://animefire.plus/video/shokugeki-no-souma-ova"
    },
    {
      "id": 3489,
      "nome": "Shokugeki no Souma: Gou no Sara",
      "link": "https://animefire.plus/animes/shokugeki-no-souma-gou-no-sara-todos-os-episodios",
      "texto_original": "Shokugeki no Souma: Gou no Sara",
      "rating": 7.35,
      "classificacao_etaria": "A14",
      "imagem_original": "https://animefire.plus/img/animes/shokugeki-no-souma-gou-no-sara.webp",
      "imagem_pasta": "https://animefire.plus/img/animes/shokugeki-no-souma-gou-no-sara/",
      "secao": "legendados",
      "pagina": 80,
      "total_episodios": 0,
      "link_video": "https://animefire.plus/video/shokugeki-no-souma-gou-no-sara"
    },
    {
      "id": 3491,
      "nome": "Shokugeki no Souma: Ni no Sara OVA",
      "link": "https://animefire.plus/animes/shokugeki-no-souma-ni-no-sara-ova-todos-os-episodios",
      "texto_original": "Shokugeki no Souma: Ni no Sara OVA",
      "rating": 7.51,
      "classificacao_etaria": "A14",
      "imagem_original": "https://animefire.plus/img/animes/shokugeki-no-souma-ni-no-sara-ova.webp",
      "imagem_pasta": "https://animefire.plus/img/animes/shokugeki-no-souma-ni-no-sara-ova/",
      "secao": "legendados",
      "pagina": 43,
      "total_episodios": 2,
      "link_video": "https://animefire.plus/video/shokugeki-no-souma-ni-no-sara-ova"
    },
    {
      "id": 3493,
      "nome": "Shokugeki no Souma: San no Sara - Kyokuseiryou no Erina",
      "link": "https://animefire.plus/animes/shokugeki-no-souma-san-no-sara---kyokuseiryou-no-erina-todos-os-episodios",
      "texto_original": "Shokugeki no Souma: San no Sara - Kyokuseiryou no Erina",
      "rating": 7.46,
      "classificacao_etaria": "A14",
      "imagem_original": "https://animefire.plus/img/animes/shokugeki-no-souma-san-no-sara---kyokuseiryou-no-erina.webp",
      "imagem_pasta": "https://animefire.plus/img/animes/shokugeki-no-souma-san-no-sara---kyokuseiryou-no-erina/",
      "secao": "legendados",
      "pagina": 37,
      "total_episodios": 1,
      "link_video": "https://animefire.plus/video/shokugeki-no-souma-san-no-sara---kyokuseiryou-no-erina"
    },
    {
      "id": 3495,
      "nome": "Shokugeki no Souma: Shin no Sara",
      "link": "https://animefire.plus/animes/shokugeki-no-souma-shin-no-sara-todos-os-episodios",
      "texto_original": "Shokugeki no Souma: Shin no Sara",
      "rating": 7.76,
      "classificacao_etaria": "A14",
      "imagem_original": "https://animefire.plus/img/animes/shokugeki-no-souma-shin-no-sara.webp",
      "imagem_pasta": "https://animefire.plus/img/animes/shokugeki-no-souma-shin-no-sara/",
      "secao": "legendados",
      "pagina": 110,
      "total_episodios": 0,
      "link_video": "https://animefire.plus/video/shokugeki-no-souma-shin-no-sara"
    },
    {
      "id": 3496,
      "nome": "Shonan Junai Gumi!",
      "link": "https://animefire.plus/animes/shonan-junai-gumi-todos-os-episodios",
      "texto_original": "Shonan Junai Gumi!",
      "rating": 7.49,
      "classificacao_etaria": "A18",
      "imagem_original": "https://animefire.plus/img/animes/shonan-junai-gumi.webp",
      "imagem_pasta": "https://animefire.plus/img/animes/shonan-junai-gumi/",
      "secao": "legendados",
      "pagina": 54,
      "total_episodios": 5,
      "link_video": "https://animefire.plus/video/shonan-junai-gumi"
    },
    {
      "id": 3501,
      "nome": "Shoujo☆Kageki Revue Starlight",
      "link": "https://animefire.plus/animes/shoujo-kageki-revue-starlight-todos-os-episodios",
      "texto_original": "Shoujo☆Kageki Revue Starlight",
      "rating": 7.68,
      "classificacao_etaria": "A14",
      "imagem_original": "https://animefire.plus/img/animes/shoujo-kageki-revue-starlight.webp",
      "imagem_pasta": "https://animefire.plus/img/animes/shoujo-kageki-revue-starlight/",
      "secao": "legendados",
      "pagina": 169,
      "total_episodios": 12,
      "link_video": "https://animefire.plus/video/shoujo-kageki-revue-starlight"
    },
    {
      "id": 3502,
      "nome": "Shoukoku no Altair",
      "link": "https://animefire.plus/animes/shoukoku-no-altair-todos-os-episodios",
      "texto_original": "Shoukoku no Altair",
      "rating": 7.57,
      "classificacao_etaria": "A14",
      "imagem_original": "https://animefire.plus/img/animes/shoukoku-no-altair.webp",
      "imagem_pasta": "https://animefire.plus/img/animes/shoukoku-no-altair/",
      "secao": "legendados",
      "pagina": 149,
      "total_episodios": 21,
      "link_video": "https://animefire.plus/video/shoukoku-no-altair"
    },
    {
      "id": 3505,
      "nome": "Shounen Maid",
      "link": "https://animefire.plus/animes/shounen-maid-todos-os-episodios",
      "texto_original": "Shounen Maid",
      "rating": 7.39,
      "classificacao_etaria": "A14",
      "imagem_original": "https://animefire.plus/img/animes/shounen-maid.webp",
      "imagem_pasta": "https://animefire.plus/img/animes/shounen-maid/",
      "secao": "legendados",
      "pagina": 148,
      "total_episodios": 12,
      "link_video": "https://animefire.plus/video/shounen-maid"
    },
    {
      "id": 3506,
      "nome": "Shounen Onmyouji",
      "link": "https://animefire.plus/animes/shounen-onmyouji-todos-os-episodios",
      "texto_original": "Shounen Onmyouji",
      "rating": 7.65,
      "classificacao_etaria": "A14",
      "imagem_original": "https://animefire.plus/img/animes/shounen-onmyouji.webp",
      "imagem_pasta": "https://animefire.plus/img/animes/shounen-onmyouji/",
      "secao": "legendados",
      "pagina": 122,
      "total_episodios": 21,
      "link_video": "https://animefire.plus/video/shounen-onmyouji"
    },
    {
      "id": 3508,
      "nome": "Shoushimin Series",
      "link": "https://animefire.plus/animes/shoushimin-series-todos-os-episodios",
      "texto_original": "Shoushimin Series",
      "rating": 7.34,
      "classificacao_etaria": "A14",
      "imagem_original": "https://animefire.plus/img/animes/shoushimin-series.webp",
      "imagem_pasta": "https://animefire.plus/img/animes/shoushimin-series/",
      "secao": "legendados",
      "pagina": 13,
      "total_episodios": 10,
      "link_video": "https://animefire.plus/video/shoushimin-series"
    },
    {
      "id": 3513,
      "nome": "Show By Rock!!",
      "link": "https://animefire.plus/animes/show-by-rock-todos-os-episodios",
      "texto_original": "Show By Rock!!",
      "rating": 7.12,
      "classificacao_etaria": "A14",
      "imagem_original": "https://animefire.plus/img/animes/show-by-rock.webp",
      "imagem_pasta": "https://animefire.plus/img/animes/show-by-rock/",
      "secao": "legendados",
      "pagina": 120,
      "total_episodios": 0,
      "link_video": "https://animefire.plus/video/show-by-rock"
    },
    {
      "id": 3515,
      "nome": "Show by Rock!! Stars!!",
      "link": "https://animefire.plus/animes/show-by-rock-stars-todos-os-episodios",
      "texto_original": "Show by Rock!! Stars!!",
      "rating": 7.14,
      "classificacao_etaria": "A14",
      "imagem_original": "https://animefire.plus/img/animes/show-by-rock-stars.webp",
      "imagem_pasta": "https://animefire.plus/img/animes/show-by-rock-stars/",
      "secao": "legendados",
      "pagina": 49,
      "total_episodios": 12,
      "link_video": "https://animefire.plus/video/show-by-rock-stars"
    }
  ],
  "pagination": {
    "current_page": 75,
    "per_page": 20,
    "total_items": 1905,
    "total_pages": 96,
    "has_next": true,
    "has_prev": true
  }
}
