{
  "message": "Animes com rating entre 7 e 8",
  "rating_range": {
    "min": 7,
    "max": 8
  },
  "data": [
    {
      "id": 2255,
      "nome": "Love Live! Sunshine!! 2nd Season",
      "link": "https://animefire.plus/animes/love-live-sunshine-2nd-season-todos-os-episodios",
      "texto_original": "Love Live! Sunshine!! 2nd Season",
      "rating": 7.65,
      "classificacao_etaria": "A14",
      "imagem_original": "https://animefire.plus/img/animes/love-live-sunshine-2nd-season.webp",
      "imagem_pasta": "https://animefire.plus/img/animes/love-live-sunshine-2nd-season/",
      "secao": "legendados",
      "pagina": 90,
      "total_episodios": 0,
      "link_video": "https://animefire.plus/video/love-live-sunshine-2nd-season"
    },
    {
      "id": 2256,
      "nome": "Love Live! Superstar!!",
      "link": "https://animefire.plus/animes/love-live-superstar-todos-os-episodios",
      "texto_original": "Love Live! Superstar!!",
      "rating": 7.92,
      "classificacao_etaria": "A14",
      "imagem_original": "https://animefire.plus/img/animes/love-live-superstar.webp",
      "imagem_pasta": "https://animefire.plus/img/animes/love-live-superstar/",
      "secao": "legendados",
      "pagina": 40,
      "total_episodios": 12,
      "link_video": "https://animefire.plus/video/love-live-superstar"
    },
    {
      "id": 2257,
      "nome": "Love Live! Superstar!! 2nd Season",
      "link": "https://animefire.plus/animes/love-live-superstar-2nd-season-todos-os-episodios",
      "texto_original": "Love Live! Superstar!! 2nd Season",
      "rating": 7.67,
      "classificacao_etaria": "A14",
      "imagem_original": "https://animefire.plus/img/animes/love-live-superstar-2nd-season.webp",
      "imagem_pasta": "https://animefire.plus/img/animes/love-live-superstar-2nd-season/",
      "secao": "legendados",
      "pagina": 30,
      "total_episodios": 12,
      "link_video": "https://animefire.plus/video/love-live-superstar-2nd-season"
    },
    {
      "id": 2258,
      "nome": "Love Live! Superstar!! 3rd Season",
      "link": "https://animefire.plus/animes/love-live-superstar-3rd-season-todos-os-episodios",
      "texto_original": "Love Live! Superstar!! 3rd Season",
      "rating": 7.89,
      "classificacao_etaria": "A14",
      "imagem_original": "https://animefire.plus/img/animes/love-live-superstar-3rd-season.webp",
      "imagem_pasta": "https://animefire.plus/img/animes/love-live-superstar-3rd-season/",
      "secao": "legendados",
      "pagina": 9,
      "total_episodios": 12,
      "link_video": "https://animefire.plus/video/love-live-superstar-3rd-season"
    },
    {
      "id": 2259,
      "nome": "Love Stage!!",
      "link": "https://animefire.plus/animes/love-stage-todos-os-episodios",
      "texto_original": "Love Stage!!",
      "rating": 7.56,
      "classificacao_etaria": "A14",
      "imagem_original": "https://animefire.plus/img/animes/love-stage.webp",
      "imagem_pasta": "https://animefire.plus/img/animes/love-stage/",
      "secao": "legendados",
      "pagina": 165,
      "total_episodios": 4,
      "link_video": "https://animefire.plus/video/love-stage"
    },
    {
      "id": 2261,
      "nome": "Loveless",
      "link": "https://animefire.plus/animes/loveless-todos-os-episodios",
      "texto_original": "Loveless",
      "rating": 7.06,
      "classificacao_etaria": "A14",
      "imagem_original": "https://animefire.plus/img/animes/loveless.webp",
      "imagem_pasta": "https://animefire.plus/img/animes/loveless/",
      "secao": "legendados",
      "pagina": 136,
      "total_episodios": 12,
      "link_video": "https://animefire.plus/video/loveless"
    },
    {
      "id": 2265,
      "nome": "Lucky☆Star",
      "link": "https://animefire.plus/animes/lucky-star-todos-os-episodios",
      "texto_original": "Lucky☆Star",
      "rating": 7.82,
      "classificacao_etaria": "A14",
      "imagem_original": "https://animefire.plus/img/animes/lucky-star.webp",
      "imagem_pasta": "https://animefire.plus/img/animes/lucky-star/",
      "secao": "legendados",
      "pagina": 135,
      "total_episodios": 24,
      "link_video": "https://animefire.plus/video/lucky-star"
    },
    {
      "id": 2266,
      "nome": "Lucky☆Star: Original na Visual to Animation",
      "link": "https://animefire.plus/animes/lucky-star-original-na-visual-to-animation-todos-os-episodios",
      "texto_original": "Lucky☆Star: Original na Visual to Animation",
      "rating": 7.84,
      "classificacao_etaria": "A14",
      "imagem_original": "https://animefire.plus/img/animes/lucky-star-original-na-visual-to-animation.webp",
      "imagem_pasta": "https://animefire.plus/img/animes/lucky-star-original-na-visual-to-animation/",
      "secao": "legendados",
      "pagina": 78,
      "total_episodios": 1,
      "link_video": "https://animefire.plus/video/lucky-star-original-na-visual-to-animation"
    },
    {
      "id": 2268,
      "nome": "Lupin III",
      "link": "https://animefire.plus/animes/lupin-iii-todos-os-episodios",
      "texto_original": "Lupin III",
      "rating": 7.69,
      "classificacao_etaria": "A14",
      "imagem_original": "https://animefire.plus/img/animes/lupin-iii.webp",
      "imagem_pasta": "https://animefire.plus/img/animes/lupin-iii/",
      "secao": "legendados",
      "pagina": 83,
      "total_episodios": 23,
      "link_video": "https://animefire.plus/video/lupin-iii"
    },
    {
      "id": 2269,
      "nome": "Lupin III (2015)",
      "link": "https://animefire.plus/animes/lupin-iii-2015-todos-os-episodios",
      "texto_original": "Lupin III (2015)",
      "rating": 7.94,
      "classificacao_etaria": "A14",
      "imagem_original": "https://animefire.plus/img/animes/lupin-iii-2015.webp",
      "imagem_pasta": "https://animefire.plus/img/animes/lupin-iii-2015/",
      "secao": "legendados",
      "pagina": 76,
      "total_episodios": 26,
      "link_video": "https://animefire.plus/video/lupin-iii-2015"
    },
    {
      "id": 2271,
      "nome": "Lupin III vs. Detective Conan",
      "link": "https://animefire.plus/animes/lupin-iii-vs-detective-conan-todos-os-episodios",
      "texto_original": "Lupin III vs. Detective Conan",
      "rating": 7.81,
      "classificacao_etaria": "A14",
      "imagem_original": "https://animefire.plus/img/animes/lupin-iii-vs-detective-conan.webp",
      "imagem_pasta": "https://animefire.plus/img/animes/lupin-iii-vs-detective-conan/",
      "secao": "legendados",
      "pagina": 65,
      "total_episodios": 1,
      "link_video": "https://animefire.plus/video/lupin-iii-vs-detective-conan"
    },
    {
      "id": 2273,
      "nome": "Lupin III: Lupin wa Ima mo Moete Iru ka?",
      "link": "https://animefire.plus/animes/lupin-iii-lupin-wa-ima-mo-moete-iru-ka-todos-os-episodios",
      "texto_original": "Lupin III: Lupin wa Ima mo Moete Iru ka?",
      "rating": 7.02,
      "classificacao_etaria": "A14",
      "imagem_original": "https://animefire.plus/img/animes/lupin-iii-lupin-wa-ima-mo-moete-iru-ka.webp",
      "imagem_pasta": "https://animefire.plus/img/animes/lupin-iii-lupin-wa-ima-mo-moete-iru-ka/",
      "secao": "legendados",
      "pagina": 87,
      "total_episodios": 1,
      "link_video": "https://animefire.plus/video/lupin-iii-lupin-wa-ima-mo-moete-iru-ka"
    },
    {
      "id": 2275,
      "nome": "Lupin III: Part 6 - Jidai",
      "link": "https://animefire.plus/animes/lupin-iii-part-6---jidai-todos-os-episodios",
      "texto_original": "Lupin III: Part 6 - Jidai",
      "rating": 7.33,
      "classificacao_etaria": "A14",
      "imagem_original": "https://animefire.plus/img/animes/lupin-iii-part-6---jidai.webp",
      "imagem_pasta": "https://animefire.plus/img/animes/lupin-iii-part-6---jidai/",
      "secao": "legendados",
      "pagina": 37,
      "total_episodios": 1,
      "link_video": "https://animefire.plus/video/lupin-iii-part-6---jidai"
    },
    {
      "id": 2276,
      "nome": "Lupin III: Part 6 (Dublado)",
      "link": "https://animefire.plus/animes/lupin-iii-part-6-dublado-todos-os-episodios",
      "texto_original": "Lupin III: Part 6 (Dublado)",
      "rating": 7.2,
      "classificacao_etaria": "A14",
      "imagem_original": "https://animefire.plus/img/animes/lupin-iii-part-6.webp",
      "imagem_pasta": "https://animefire.plus/img/animes/lupin-iii-part-6/",
      "secao": "dublados,legendados",
      "pagina": 11,
      "total_episodios": 25,
      "link_video": "https://animefire.plus/video/lupin-iii-part-6-dublado"
    },
    {
      "id": 2277,
      "nome": "Lupin III: Part II",
      "link": "https://animefire.plus/animes/lupin-iii-part-ii-todos-os-episodios",
      "texto_original": "Lupin III: Part II",
      "rating": 7.79,
      "classificacao_etaria": "A14",
      "imagem_original": "https://animefire.plus/img/animes/lupin-iii-part-ii.webp",
      "imagem_pasta": "https://animefire.plus/img/animes/lupin-iii-part-ii/",
      "secao": "legendados",
      "pagina": 44,
      "total_episodios": 155,
      "link_video": "https://animefire.plus/video/lupin-iii-part-ii"
    },
    {
      "id": 2279,
      "nome": "Lupin the Third: Mine Fujiko to Iu Onna",
      "link": "https://animefire.plus/animes/lupin-the-third-mine-fujiko-to-iu-onna-todos-os-episodios",
      "texto_original": "Lupin the Third: Mine Fujiko to Iu Onna",
      "rating": 7.81,
      "classificacao_etaria": "A18",
      "imagem_original": "https://animefire.plus/img/animes/lupin-the-third-mine-fujiko-to-iu-onna.webp",
      "imagem_pasta": "https://animefire.plus/img/animes/lupin-the-third-mine-fujiko-to-iu-onna/",
      "secao": "legendados",
      "pagina": 142,
      "total_episodios": 0,
      "link_video": "https://animefire.plus/video/lupin-the-third-mine-fujiko-to-iu-onna"
    },
    {
      "id": 2281,
      "nome": "Lupin Zero",
      "link": "https://animefire.plus/animes/lupin-zero-todos-os-episodios",
      "texto_original": "Lupin Zero",
      "rating": 7.39,
      "classificacao_etaria": "A18",
      "imagem_original": "https://animefire.plus/img/animes/lupin-zero.webp",
      "imagem_pasta": "https://animefire.plus/img/animes/lupin-zero/",
      "secao": "legendados",
      "pagina": 27,
      "total_episodios": 6,
      "link_video": "https://animefire.plus/video/lupin-zero"
    },
    {
      "id": 2282,
      "nome": "Lv1 Maou to One Room Yuusha",
      "link": "https://animefire.plus/animes/lv1-maou-to-one-room-yuusha-todos-os-episodios",
      "texto_original": "Lv1 Maou to One Room Yuusha",
      "rating": 7.14,
      "classificacao_etaria": "A14",
      "imagem_original": "https://animefire.plus/img/animes/lv1-maou-to-one-room-yuusha.jpg",
      "imagem_pasta": "https://animefire.plus/img/animes/lv1-maou-to-one-room-yuusha/",
      "secao": "legendados",
      "pagina": 22,
      "total_episodios": 12,
      "link_video": "https://animefire.plus/video/lv1-maou-to-one-room-yuusha"
    },
    {
      "id": 2285,
      "nome": "Lycoris Recoil: Friends Are Thieves of Time.",
      "link": "https://animefire.plus/animes/lycoris-recoil-friends-are-thieves-of-time-todos-os-episodios",
      "texto_original": "Lycoris Recoil: Friends Are Thieves of Time.",
      "rating": 7.72,
      "classificacao_etaria": "A14",
      "imagem_original": "https://animefire.plus/img/animes/lycoris-recoil-friends-are-thieves-of-time.webp",
      "imagem_pasta": "https://animefire.plus/img/animes/lycoris-recoil-friends-are-thieves-of-time/",
      "secao": "legendados",
      "pagina": 4,
      "total_episodios": 6,
      "link_video": "https://animefire.plus/video/lycoris-recoil-friends-are-thieves-of-time"
    },
    {
      "id": 2288,
      "nome": "Macademi Wasshoi!",
      "link": "https://animefire.plus/animes/macademi-wasshoi-todos-os-episodios",
      "texto_original": "Macademi Wasshoi!",
      "rating": 7.02,
      "classificacao_etaria": "A18",
      "imagem_original": "https://animefire.plus/img/animes/macademi-wasshoi.webp",
      "imagem_pasta": "https://animefire.plus/img/animes/macademi-wasshoi/",
      "secao": "legendados",
      "pagina": 143,
      "total_episodios": 0,
      "link_video": "https://animefire.plus/video/macademi-wasshoi"
    }
  ],
  "pagination": {
    "current_page": 48,
    "per_page": 20,
    "total_items": 1905,
    "total_pages": 96,
    "has_next": true,
    "has_prev": true
  }
}
