{
  "message": "Animes com rating entre 7 e 8",
  "rating_range": {
    "min": 7,
    "max": 8
  },
  "data": [
    {
      "id": 1507,
      "nome": "Hitoribocchi no Marumaru Seikatsu",
      "link": "https://animefire.plus/animes/hitoribocchi-no-marumaru-seikatsu-todos-os-episodios",
      "texto_original": "Hitoribocchi no Marumaru Seikatsu",
      "rating": 7.51,
      "classificacao_etaria": "A14",
      "imagem_original": "https://animefire.plus/img/animes/hitoribocchi-no-marumaru-seikatsu.webp",
      "imagem_pasta": "https://animefire.plus/img/animes/hitoribocchi-no-marumaru-seikatsu/",
      "secao": "legendados",
      "pagina": 138,
      "total_episodios": 0,
      "link_video": "https://animefire.plus/video/hitoribocchi-no-marumaru-seikatsu"
    },
    {
      "id": 1508,
      "nome": "Hitorijime My Hero",
      "link": "https://animefire.plus/animes/hitorijime-my-hero-todos-os-episodios",
      "texto_original": "Hitorijime My Hero",
      "rating": 7.6,
      "classificacao_etaria": "A14",
      "imagem_original": "https://animefire.plus/img/animes/hitorijime-my-hero.webp",
      "imagem_pasta": "https://animefire.plus/img/animes/hitorijime-my-hero/",
      "secao": "legendados",
      "pagina": 120,
      "total_episodios": 12,
      "link_video": "https://animefire.plus/video/hitorijime-my-hero"
    },
    {
      "id": 1510,
      "nome": "Hitsugi no Chaika",
      "link": "https://animefire.plus/animes/hitsugi-no-chaika-todos-os-episodios",
      "texto_original": "Hitsugi no Chaika",
      "rating": 7.37,
      "classificacao_etaria": "A16",
      "imagem_original": "https://animefire.plus/img/animes/hitsugi-no-chaika.webp",
      "imagem_pasta": "https://animefire.plus/img/animes/hitsugi-no-chaika/",
      "secao": "legendados",
      "pagina": 163,
      "total_episodios": 12,
      "link_video": "https://animefire.plus/video/hitsugi-no-chaika"
    },
    {
      "id": 1511,
      "nome": "Hitsugi no Chaika: Avenging Battle",
      "link": "https://animefire.plus/animes/hitsugi-no-chaika-avenging-battle-todos-os-episodios",
      "texto_original": "Hitsugi no Chaika: Avenging Battle",
      "rating": 7.28,
      "classificacao_etaria": "A16",
      "imagem_original": "https://animefire.plus/img/animes/hitsugi-no-chaika-avenging-battle.webp",
      "imagem_pasta": "https://animefire.plus/img/animes/hitsugi-no-chaika-avenging-battle/",
      "secao": "legendados",
      "pagina": 160,
      "total_episodios": 2,
      "link_video": "https://animefire.plus/video/hitsugi-no-chaika-avenging-battle"
    },
    {
      "id": 1512,
      "nome": "Hiyokoi",
      "link": "https://animefire.plus/animes/hiyokoi-todos-os-episodios",
      "texto_original": "Hiyokoi",
      "rating": 7.36,
      "classificacao_etaria": "A14",
      "imagem_original": "https://animefire.plus/img/animes/hiyokoi.webp",
      "imagem_pasta": "https://animefire.plus/img/animes/hiyokoi/",
      "secao": "legendados",
      "pagina": 56,
      "total_episodios": 1,
      "link_video": "https://animefire.plus/video/hiyokoi"
    },
    {
      "id": 1514,
      "nome": "Hokuto no Ken 2",
      "link": "https://animefire.plus/animes/hokuto-no-ken-2-todos-os-episodios",
      "texto_original": "Hokuto no Ken 2",
      "rating": 7.58,
      "classificacao_etaria": "A16",
      "imagem_original": "https://animefire.plus/img/animes/hokuto-no-ken-2.webp",
      "imagem_pasta": "https://animefire.plus/img/animes/hokuto-no-ken-2/",
      "secao": "legendados",
      "pagina": 77,
      "total_episodios": 43,
      "link_video": "https://animefire.plus/video/hokuto-no-ken-2"
    },
    {
      "id": 1516,
      "nome": "Honey Lemon Soda",
      "link": "https://animefire.plus/animes/honey-lemon-soda-todos-os-episodios",
      "texto_original": "Honey Lemon Soda",
      "rating": 7.17,
      "classificacao_etaria": "A14",
      "imagem_original": "https://animefire.plus/img/animes/honey-lemon-soda.webp",
      "imagem_pasta": "https://animefire.plus/img/animes/honey-lemon-soda/",
      "secao": "legendados",
      "pagina": 7,
      "total_episodios": 12,
      "link_video": "https://animefire.plus/video/honey-lemon-soda"
    },
    {
      "id": 1517,
      "nome": "Honobono Log",
      "link": "https://animefire.plus/animes/honobono-log-todos-os-episodios",
      "texto_original": "Honobono Log",
      "rating": 7.47,
      "classificacao_etaria": null,
      "imagem_original": "https://animefire.plus/img/animes/honobono-log.webp",
      "imagem_pasta": "https://animefire.plus/img/animes/honobono-log/",
      "secao": "legendados",
      "pagina": 107,
      "total_episodios": 10,
      "link_video": "https://animefire.plus/video/honobono-log"
    },
    {
      "id": 1522,
      "nome": "Hoozuki no Reitetsu",
      "link": "https://animefire.plus/animes/hoozuki-no-reitetsu-todos-os-episodios",
      "texto_original": "Hoozuki no Reitetsu",
      "rating": 7.81,
      "classificacao_etaria": "A14",
      "imagem_original": "https://animefire.plus/img/animes/hoozuki-no-reitetsu.webp",
      "imagem_pasta": "https://animefire.plus/img/animes/hoozuki-no-reitetsu/",
      "secao": "legendados",
      "pagina": 63,
      "total_episodios": 13,
      "link_video": "https://animefire.plus/video/hoozuki-no-reitetsu"
    },
    {
      "id": 1523,
      "nome": "Hoozuki no Reitetsu 2nd Season",
      "link": "https://animefire.plus/animes/hoozuki-no-reitetsu-2nd-season-todos-os-episodios",
      "texto_original": "Hoozuki no Reitetsu 2nd Season",
      "rating": 7.88,
      "classificacao_etaria": "A14",
      "imagem_original": "https://animefire.plus/img/animes/hoozuki-no-reitetsu-2nd-season.webp",
      "imagem_pasta": "https://animefire.plus/img/animes/hoozuki-no-reitetsu-2nd-season/",
      "secao": "legendados",
      "pagina": 63,
      "total_episodios": 26,
      "link_video": "https://animefire.plus/video/hoozuki-no-reitetsu-2nd-season"
    },
    {
      "id": 1524,
      "nome": "Hoozuki no Reitetsu 2nd Season: Sono Ni",
      "link": "https://animefire.plus/animes/hoozuki-no-reitetsu-2nd-season-sono-ni-todos-os-episodios",
      "texto_original": "Hoozuki no Reitetsu 2nd Season: Sono Ni",
      "rating": 7.85,
      "classificacao_etaria": "A14",
      "imagem_original": "https://animefire.plus/img/animes/hoozuki-no-reitetsu-2nd-season-sono-ni.webp",
      "imagem_pasta": "https://animefire.plus/img/animes/hoozuki-no-reitetsu-2nd-season-sono-ni/",
      "secao": "legendados",
      "pagina": 120,
      "total_episodios": 13,
      "link_video": "https://animefire.plus/video/hoozuki-no-reitetsu-2nd-season-sono-ni"
    },
    {
      "id": 1525,
      "nome": "Hori-san to Miyamura-kun",
      "link": "https://animefire.plus/animes/hori-san-to-miyamura-kun-todos-os-episodios",
      "texto_original": "Hori-san to Miyamura-kun",
      "rating": 7.36,
      "classificacao_etaria": "A14",
      "imagem_original": "https://animefire.plus/img/animes/hori-san-to-miyamura-kun.webp",
      "imagem_pasta": "https://animefire.plus/img/animes/hori-san-to-miyamura-kun/",
      "secao": "legendados",
      "pagina": 61,
      "total_episodios": 3,
      "link_video": "https://animefire.plus/video/hori-san-to-miyamura-kun"
    },
    {
      "id": 1530,
      "nome": "Hoshiai no Sora",
      "link": "https://animefire.plus/animes/hoshiai-no-sora-todos-os-episodios",
      "texto_original": "Hoshiai no Sora",
      "rating": 7.52,
      "classificacao_etaria": "A14",
      "imagem_original": "https://animefire.plus/img/animes/hoshiai-no-sora.webp",
      "imagem_pasta": "https://animefire.plus/img/animes/hoshiai-no-sora/",
      "secao": "legendados",
      "pagina": 110,
      "total_episodios": 1,
      "link_video": "https://animefire.plus/video/hoshiai-no-sora"
    },
    {
      "id": 1531,
      "nome": "Hoshifuru Oukoku no Nina (Dublado)",
      "link": "https://animefire.plus/animes/hoshifuru-oukoku-no-nina-dublado-todos-os-episodios",
      "texto_original": "Hoshifuru Oukoku no Nina (Dublado)",
      "rating": 7.38,
      "classificacao_etaria": "A14",
      "imagem_original": "https://animefire.plus/img/animes/hoshifuru-oukoku-no-nina.webp",
      "imagem_pasta": "https://animefire.plus/img/animes/hoshifuru-oukoku-no-nina/",
      "secao": "dublados,legendados,lancamentos",
      "pagina": 2,
      "total_episodios": 12,
      "link_video": "https://animefire.plus/video/hoshifuru-oukoku-no-nina-dublado"
    },
    {
      "id": 1533,
      "nome": "Hoshikuzu Telepath",
      "link": "https://animefire.plus/animes/hoshikuzu-telepath-todos-os-episodios",
      "texto_original": "Hoshikuzu Telepath",
      "rating": 7.15,
      "classificacao_etaria": "A14",
      "imagem_original": "https://animefire.plus/img/animes/hoshikuzu-telepath.webp",
      "imagem_pasta": "https://animefire.plus/img/animes/hoshikuzu-telepath/",
      "secao": "legendados",
      "pagina": 19,
      "total_episodios": 12,
      "link_video": "https://animefire.plus/video/hoshikuzu-telepath"
    },
    {
      "id": 1540,
      "nome": "Houkago Shounen Hanako-kun",
      "link": "https://animefire.plus/animes/houkago-shounen-hanako-kun-todos-os-episodios",
      "texto_original": "Houkago Shounen Hanako-kun",
      "rating": 7.1,
      "classificacao_etaria": "A14",
      "imagem_original": "https://animefire.plus/img/animes/houkago-shounen-hanako-kun.webp",
      "imagem_pasta": "https://animefire.plus/img/animes/houkago-shounen-hanako-kun/",
      "secao": "legendados",
      "pagina": 19,
      "total_episodios": 4,
      "link_video": "https://animefire.plus/video/houkago-shounen-hanako-kun"
    },
    {
      "id": 1541,
      "nome": "Houkago Shounen Hanako-kun Part 2",
      "link": "https://animefire.plus/animes/houkago-shounen-hanako-kun-part-2-todos-os-episodios",
      "texto_original": "Houkago Shounen Hanako-kun Part 2",
      "rating": 7.09,
      "classificacao_etaria": "A14",
      "imagem_original": "https://animefire.plus/img/animes/houkago-shounen-hanako-kun-part-2.webp",
      "imagem_pasta": "https://animefire.plus/img/animes/houkago-shounen-hanako-kun-part-2/",
      "secao": "legendados",
      "pagina": 10,
      "total_episodios": 4,
      "link_video": "https://animefire.plus/video/houkago-shounen-hanako-kun-part-2"
    },
    {
      "id": 1542,
      "nome": "Houkago Teibou Nisshi",
      "link": "https://animefire.plus/animes/houkago-teibou-nisshi-todos-os-episodios",
      "texto_original": "Houkago Teibou Nisshi",
      "rating": 7.38,
      "classificacao_etaria": "A14",
      "imagem_original": "https://animefire.plus/img/animes/houkago-teibou-nisshi.webp",
      "imagem_pasta": "https://animefire.plus/img/animes/houkago-teibou-nisshi/",
      "secao": "legendados",
      "pagina": 81,
      "total_episodios": 0,
      "link_video": "https://animefire.plus/video/houkago-teibou-nisshi"
    },
    {
      "id": 1543,
      "nome": "Hourou Musuko",
      "link": "https://animefire.plus/animes/hourou-musuko-todos-os-episodios",
      "texto_original": "Hourou Musuko",
      "rating": 7.79,
      "classificacao_etaria": "A14",
      "imagem_original": "https://animefire.plus/img/animes/hourou-musuko.webp",
      "imagem_pasta": "https://animefire.plus/img/animes/hourou-musuko/",
      "secao": "legendados",
      "pagina": 102,
      "total_episodios": 11,
      "link_video": "https://animefire.plus/video/hourou-musuko"
    },
    {
      "id": 1545,
      "nome": "Housekishou Richard-shi no Nazo Kantei",
      "link": "https://animefire.plus/animes/housekishou-richard-shi-no-nazo-kantei-todos-os-episodios",
      "texto_original": "Housekishou Richard-shi no Nazo Kantei",
      "rating": 7.16,
      "classificacao_etaria": "A14",
      "imagem_original": "https://animefire.plus/img/animes/housekishou-richard-shi-no-nazo-kantei.webp",
      "imagem_pasta": "https://animefire.plus/img/animes/housekishou-richard-shi-no-nazo-kantei/",
      "secao": "legendados",
      "pagina": 92,
      "total_episodios": 1,
      "link_video": "https://animefire.plus/video/housekishou-richard-shi-no-nazo-kantei"
    }
  ],
  "pagination": {
    "current_page": 32,
    "per_page": 20,
    "total_items": 1905,
    "total_pages": 96,
    "has_next": true,
    "has_prev": true
  }
}
