{
  "message": "Animes com rating entre 7 e 8",
  "rating_range": {
    "min": 7,
    "max": 8
  },
  "data": [
    {
      "id": 3878,
      "nome": "Tokimeki Tonight",
      "link": "https://animefire.plus/animes/tokimeki-tonight-todos-os-episodios",
      "texto_original": "Tokimeki Tonight",
      "rating": 7.35,
      "classificacao_etaria": "A10",
      "imagem_original": "https://animefire.plus/img/animes/tokimeki-tonight.webp",
      "imagem_pasta": "https://animefire.plus/img/animes/tokimeki-tonight/",
      "secao": "legendados",
      "pagina": 149,
      "total_episodios": 34,
      "link_video": "https://animefire.plus/video/tokimeki-tonight"
    },
    {
      "id": 3881,
      "nome": "Tokyo Ghoul (Dublado)",
      "link": "https://animefire.plus/animes/tokyo-ghoul-dublado-todos-os-episodios",
      "texto_original": "Tokyo Ghoul (Dublado)",
      "rating": 7.82,
      "classificacao_etaria": "A16",
      "imagem_original": "https://animefire.plus/img/animes/tokyo-ghoul.webp",
      "imagem_pasta": "https://animefire.plus/img/animes/tokyo-ghoul/",
      "secao": "dublados,legendados",
      "pagina": 19,
      "total_episodios": 12,
      "link_video": "https://animefire.plus/video/tokyo-ghoul-dublado"
    },
    {
      "id": 3882,
      "nome": "Tokyo Ghoul √A (Dublado)",
      "link": "https://animefire.plus/animes/tokyo-ghoul-a-dublado-todos-os-episodios",
      "texto_original": "Tokyo Ghoul √A (Dublado)",
      "rating": 7.1,
      "classificacao_etaria": "A16",
      "imagem_original": "https://animefire.plus/img/animes/tokyo-ghoul-a.webp",
      "imagem_pasta": "https://animefire.plus/img/animes/tokyo-ghoul-a/",
      "secao": "dublados,legendados",
      "pagina": 19,
      "total_episodios": 12,
      "link_video": "https://animefire.plus/video/tokyo-ghoul-a-dublado"
    },
    {
      "id": 3883,
      "nome": "Tokyo Ghoul: \"Jack\" (Dublado)",
      "link": "https://animefire.plus/animes/tokyo-ghoul-jack-dublado-todos-os-episodios",
      "texto_original": "Tokyo Ghoul: \"Jack\" (Dublado)",
      "rating": 7.35,
      "classificacao_etaria": "A16",
      "imagem_original": "https://animefire.plus/img/animes/tokyo-ghoul-jack.webp",
      "imagem_pasta": "https://animefire.plus/img/animes/tokyo-ghoul-jack/",
      "secao": "dublados",
      "pagina": 17,
      "total_episodios": 1,
      "link_video": "https://animefire.plus/video/tokyo-ghoul-jack-dublado"
    },
    {
      "id": 3884,
      "nome": "Tokyo Ghoul: \"Pinto\" (Dublado)",
      "link": "https://animefire.plus/animes/tokyo-ghoul-pinto-dublado-todos-os-episodios",
      "texto_original": "Tokyo Ghoul: \"Pinto\" (Dublado)",
      "rating": 7.24,
      "classificacao_etaria": "A16",
      "imagem_original": "https://animefire.plus/img/animes/tokyo-ghoul-pinto.webp",
      "imagem_pasta": "https://animefire.plus/img/animes/tokyo-ghoul-pinto/",
      "secao": "dublados",
      "pagina": 17,
      "total_episodios": 1,
      "link_video": "https://animefire.plus/video/tokyo-ghoul-pinto-dublado"
    },
    {
      "id": 3888,
      "nome": "Tokyo Majin Gakuen Kenpucho: Tou",
      "link": "https://animefire.plus/animes/tokyo-majin-gakuen-kenpucho-tou-todos-os-episodios",
      "texto_original": "Tokyo Majin Gakuen Kenpucho: Tou",
      "rating": 7.23,
      "classificacao_etaria": "A16",
      "imagem_original": "https://animefire.plus/img/animes/tokyo-majin-gakuen-kenpucho-tou.webp",
      "imagem_pasta": "https://animefire.plus/img/animes/tokyo-majin-gakuen-kenpucho-tou/",
      "secao": "legendados",
      "pagina": 122,
      "total_episodios": 14,
      "link_video": "https://animefire.plus/video/tokyo-majin-gakuen-kenpucho-tou"
    },
    {
      "id": 3889,
      "nome": "Tokyo Majin Gakuen Kenpucho: Tou Dai Ni Maku",
      "link": "https://animefire.plus/animes/tokyo-majin-gakuen-kenpucho-tou-dai-ni-maku-todos-os-episodios",
      "texto_original": "Tokyo Majin Gakuen Kenpucho: Tou Dai Ni Maku",
      "rating": 7.34,
      "classificacao_etaria": "A16",
      "imagem_original": "https://animefire.plus/img/animes/tokyo-majin-gakuen-kenpucho-tou-dai-ni-maku.webp",
      "imagem_pasta": "https://animefire.plus/img/animes/tokyo-majin-gakuen-kenpucho-tou-dai-ni-maku/",
      "secao": "legendados",
      "pagina": 97,
      "total_episodios": 12,
      "link_video": "https://animefire.plus/video/tokyo-majin-gakuen-kenpucho-tou-dai-ni-maku"
    },
    {
      "id": 3890,
      "nome": "Tokyo Marble Chocolate",
      "link": "https://animefire.plus/animes/tokyo-marble-chocolate-todos-os-episodios",
      "texto_original": "Tokyo Marble Chocolate",
      "rating": 7.24,
      "classificacao_etaria": "A14",
      "imagem_original": "https://animefire.plus/img/animes/tokyo-marble-chocolate.webp",
      "imagem_pasta": "https://animefire.plus/img/animes/tokyo-marble-chocolate/",
      "secao": "legendados",
      "pagina": 63,
      "total_episodios": 2,
      "link_video": "https://animefire.plus/video/tokyo-marble-chocolate"
    },
    {
      "id": 3893,
      "nome": "Tokyo Ravens",
      "link": "https://animefire.plus/animes/tokyo-ravens-todos-os-episodios",
      "texto_original": "Tokyo Ravens",
      "rating": 7.68,
      "classificacao_etaria": "A14",
      "imagem_original": "https://animefire.plus/img/animes/tokyo-ravens.webp",
      "imagem_pasta": "https://animefire.plus/img/animes/tokyo-ravens/",
      "secao": "legendados",
      "pagina": 127,
      "total_episodios": 5,
      "link_video": "https://animefire.plus/video/tokyo-ravens"
    },
    {
      "id": 3894,
      "nome": "Tokyo Revengers (Dublado)",
      "link": "https://animefire.plus/animes/tokyo-revengers-dublado-todos-os-episodios",
      "texto_original": "Tokyo Revengers (Dublado)",
      "rating": 7.85,
      "classificacao_etaria": "A16",
      "imagem_original": "https://animefire.plus/img/animes/tokyo-revengers.webp",
      "imagem_pasta": "https://animefire.plus/img/animes/tokyo-revengers/",
      "secao": "dublados,legendados",
      "pagina": 17,
      "total_episodios": 24,
      "link_video": "https://animefire.plus/video/tokyo-revengers-dublado"
    },
    {
      "id": 3895,
      "nome": "Tokyo Revengers: Seiya Kessen-hen (Dublado)",
      "link": "https://animefire.plus/animes/tokyo-revengers-seiya-kessen-hen-dublado-todos-os-episodios",
      "texto_original": "Tokyo Revengers: Seiya Kessen-hen (Dublado)",
      "rating": 7.63,
      "classificacao_etaria": "A16",
      "imagem_original": "https://animefire.plus/img/animes/tokyo-revengers-seiya-kessen-hen.webp",
      "imagem_pasta": "https://animefire.plus/img/animes/tokyo-revengers-seiya-kessen-hen/",
      "secao": "dublados,legendados,lancamentos",
      "pagina": 7,
      "total_episodios": 12,
      "link_video": "https://animefire.plus/video/tokyo-revengers-seiya-kessen-hen-dublado"
    },
    {
      "id": 3896,
      "nome": "Tokyo Revengers: Tenjiku-hen",
      "link": "https://animefire.plus/animes/tokyo-revengers-tenjiku-hen-todos-os-episodios",
      "texto_original": "Tokyo Revengers: Tenjiku-hen",
      "rating": 7.82,
      "classificacao_etaria": "A16",
      "imagem_original": "https://animefire.plus/img/animes/tokyo-revengers-tenjiku-hen.webp",
      "imagem_pasta": "https://animefire.plus/img/animes/tokyo-revengers-tenjiku-hen/",
      "secao": "legendados",
      "pagina": 21,
      "total_episodios": 13,
      "link_video": "https://animefire.plus/video/tokyo-revengers-tenjiku-hen"
    },
    {
      "id": 3899,
      "nome": "Tomo-chan wa Onnanoko!",
      "link": "https://animefire.plus/animes/tomo-chan-wa-onnanoko-todos-os-episodios",
      "texto_original": "Tomo-chan wa Onnanoko!",
      "rating": 7.73,
      "classificacao_etaria": "A14",
      "imagem_original": "https://animefire.plus/img/animes/tomo-chan-wa-onnanoko.webp",
      "imagem_pasta": "https://animefire.plus/img/animes/tomo-chan-wa-onnanoko/",
      "secao": "legendados",
      "pagina": 27,
      "total_episodios": 13,
      "link_video": "https://animefire.plus/video/tomo-chan-wa-onnanoko"
    },
    {
      "id": 3900,
      "nome": "Tomodachi Game",
      "link": "https://animefire.plus/animes/tomodachi-game-todos-os-episodios",
      "texto_original": "Tomodachi Game",
      "rating": 7.71,
      "classificacao_etaria": "A16",
      "imagem_original": "https://animefire.plus/img/animes/tomodachi-game.webp",
      "imagem_pasta": "https://animefire.plus/img/animes/tomodachi-game/",
      "secao": "legendados",
      "pagina": 34,
      "total_episodios": 12,
      "link_video": "https://animefire.plus/video/tomodachi-game"
    },
    {
      "id": 3902,
      "nome": "Tonari no Kaibutsu-kun",
      "link": "https://animefire.plus/animes/tonari-no-kaibutsu-kun-todos-os-episodios",
      "texto_original": "Tonari no Kaibutsu-kun",
      "rating": 7.67,
      "classificacao_etaria": "A14",
      "imagem_original": "https://animefire.plus/img/animes/tonari-no-kaibutsu-kun.webp",
      "imagem_pasta": "https://animefire.plus/img/animes/tonari-no-kaibutsu-kun/",
      "secao": "legendados",
      "pagina": 132,
      "total_episodios": 0,
      "link_video": "https://animefire.plus/video/tonari-no-kaibutsu-kun"
    },
    {
      "id": 3903,
      "nome": "Tonari no Kyuuketsuki-san",
      "link": "https://animefire.plus/animes/tonari-no-kyuuketsuki-san-todos-os-episodios",
      "texto_original": "Tonari no Kyuuketsuki-san",
      "rating": 7.18,
      "classificacao_etaria": "A14",
      "imagem_original": "https://animefire.plus/img/animes/tonari-no-kyuuketsuki-san.webp",
      "imagem_pasta": "https://animefire.plus/img/animes/tonari-no-kyuuketsuki-san/",
      "secao": "legendados",
      "pagina": 136,
      "total_episodios": 12,
      "link_video": "https://animefire.plus/video/tonari-no-kyuuketsuki-san"
    },
    {
      "id": 3904,
      "nome": "Tonari no Seki-kun",
      "link": "https://animefire.plus/animes/tonari-no-seki-kun-todos-os-episodios",
      "texto_original": "Tonari no Seki-kun",
      "rating": 7.62,
      "classificacao_etaria": null,
      "imagem_original": "https://animefire.plus/img/animes/tonari-no-seki-kun.webp",
      "imagem_pasta": "https://animefire.plus/img/animes/tonari-no-seki-kun/",
      "secao": "legendados",
      "pagina": 67,
      "total_episodios": 21,
      "link_video": "https://animefire.plus/video/tonari-no-seki-kun"
    },
    {
      "id": 3905,
      "nome": "Tonari no Seki-kun OVA",
      "link": "https://animefire.plus/animes/tonari-no-seki-kun-ova-todos-os-episodios",
      "texto_original": "Tonari no Seki-kun OVA",
      "rating": 7.44,
      "classificacao_etaria": null,
      "imagem_original": "https://animefire.plus/img/animes/tonari-no-seki-kun-ova.webp",
      "imagem_pasta": "https://animefire.plus/img/animes/tonari-no-seki-kun-ova/",
      "secao": "legendados",
      "pagina": 67,
      "total_episodios": 1,
      "link_video": "https://animefire.plus/video/tonari-no-seki-kun-ova"
    },
    {
      "id": 3906,
      "nome": "Tonari no Seki-kun Specials",
      "link": "https://animefire.plus/animes/tonari-no-seki-kun-specials-todos-os-episodios",
      "texto_original": "Tonari no Seki-kun Specials",
      "rating": 7.49,
      "classificacao_etaria": null,
      "imagem_original": "https://animefire.plus/img/animes/tonari-no-seki-kun-specials.webp",
      "imagem_pasta": "https://animefire.plus/img/animes/tonari-no-seki-kun-specials/",
      "secao": "legendados",
      "pagina": 67,
      "total_episodios": 2,
      "link_video": "https://animefire.plus/video/tonari-no-seki-kun-specials"
    },
    {
      "id": 3907,
      "nome": "Tonari no Youkai-san",
      "link": "https://animefire.plus/animes/tonari-no-youkai-san-todos-os-episodios",
      "texto_original": "Tonari no Youkai-san",
      "rating": 7.28,
      "classificacao_etaria": "A14",
      "imagem_original": "https://animefire.plus/img/animes/tonari-no-youkai-san.webp",
      "imagem_pasta": "https://animefire.plus/img/animes/tonari-no-youkai-san/",
      "secao": "legendados",
      "pagina": 14,
      "total_episodios": 13,
      "link_video": "https://animefire.plus/video/tonari-no-youkai-san"
    }
  ],
  "pagination": {
    "current_page": 85,
    "per_page": 20,
    "total_items": 1905,
    "total_pages": 96,
    "has_next": true,
    "has_prev": true
  }
}
