{
  "message": "Animes com rating entre 7 e 8",
  "rating_range": {
    "min": 7,
    "max": 8
  },
  "data": [
    {
      "id": 326,
      "nome": "Bakuten!!",
      "link": "https://animefire.plus/animes/bakuten-todos-os-episodios",
      "texto_original": "Bakuten!!",
      "rating": 7.49,
      "classificacao_etaria": "A14",
      "imagem_original": "https://animefire.plus/img/animes/bakuten.webp",
      "imagem_pasta": "https://animefire.plus/img/animes/bakuten/",
      "secao": "legendados",
      "pagina": 46,
      "total_episodios": 12,
      "link_video": "https://animefire.plus/video/bakuten"
    },
    {
      "id": 328,
      "nome": "Ballpark de Tsukamaete!",
      "link": "https://animefire.plus/animes/ballpark-de-tsukamaete-todos-os-episodios",
      "texto_original": "Ballpark de Tsukamaete!",
      "rating": 7.16,
      "classificacao_etaria": "A14",
      "imagem_original": "https://animefire.plus/img/animes/ballpark-de-tsukamaete.webp",
      "imagem_pasta": "https://animefire.plus/img/animes/ballpark-de-tsukamaete/",
      "secao": "legendados",
      "pagina": 4,
      "total_episodios": 12,
      "link_video": "https://animefire.plus/video/ballpark-de-tsukamaete"
    },
    {
      "id": 330,
      "nome": "Bamboo Blade",
      "link": "https://animefire.plus/animes/bamboo-blade-todos-os-episodios",
      "texto_original": "Bamboo Blade",
      "rating": 7.38,
      "classificacao_etaria": "A14",
      "imagem_original": "https://animefire.plus/img/animes/bamboo-blade.webp",
      "imagem_pasta": "https://animefire.plus/img/animes/bamboo-blade/",
      "secao": "legendados",
      "pagina": 155,
      "total_episodios": 20,
      "link_video": "https://animefire.plus/video/bamboo-blade"
    },
    {
      "id": 333,
      "nome": "BanG Dream!",
      "link": "https://animefire.plus/animes/bang-dream-todos-os-episodios",
      "texto_original": "BanG Dream!",
      "rating": 7.02,
      "classificacao_etaria": "A14",
      "imagem_original": "https://animefire.plus/img/animes/bang-dream.webp",
      "imagem_pasta": "https://animefire.plus/img/animes/bang-dream/",
      "secao": "legendados",
      "pagina": 132,
      "total_episodios": 0,
      "link_video": "https://animefire.plus/video/bang-dream"
    },
    {
      "id": 334,
      "nome": "BanG Dream! 2nd Season",
      "link": "https://animefire.plus/animes/bang-dream-2nd-season-todos-os-episodios",
      "texto_original": "BanG Dream! 2nd Season",
      "rating": 7.6,
      "classificacao_etaria": "A14",
      "imagem_original": "https://animefire.plus/img/animes/bang-dream-2nd-season.webp",
      "imagem_pasta": "https://animefire.plus/img/animes/bang-dream-2nd-season/",
      "secao": "legendados",
      "pagina": 109,
      "total_episodios": 13,
      "link_video": "https://animefire.plus/video/bang-dream-2nd-season"
    },
    {
      "id": 337,
      "nome": "BanG Dream! Garupa☆Pico",
      "link": "https://animefire.plus/animes/bang-dream-garupa-pico-todos-os-episodios",
      "texto_original": "BanG Dream! Garupa☆Pico",
      "rating": 7.82,
      "classificacao_etaria": "A14",
      "imagem_original": "https://animefire.plus/img/animes/bang-dream-garupa-pico.webp",
      "imagem_pasta": "https://animefire.plus/img/animes/bang-dream-garupa-pico/",
      "secao": "legendados",
      "pagina": 59,
      "total_episodios": 12,
      "link_video": "https://animefire.plus/video/bang-dream-garupa-pico"
    },
    {
      "id": 338,
      "nome": "BanG Dream! Garupa☆Pico: Oomori",
      "link": "https://animefire.plus/animes/bang-dream-garupa-pico-oomori-todos-os-episodios",
      "texto_original": "BanG Dream! Garupa☆Pico: Oomori",
      "rating": 7.63,
      "classificacao_etaria": "A14",
      "imagem_original": "https://animefire.plus/img/animes/bang-dream-garupa-pico-oomori.webp",
      "imagem_pasta": "https://animefire.plus/img/animes/bang-dream-garupa-pico-oomori/",
      "secao": "legendados,lancamentos",
      "pagina": 79,
      "total_episodios": 1,
      "link_video": "https://animefire.plus/video/bang-dream-garupa-pico-oomori"
    },
    {
      "id": 339,
      "nome": "BanG Dream! Morfonication",
      "link": "https://animefire.plus/animes/bang-dream-morfonication-todos-os-episodios",
      "texto_original": "BanG Dream! Morfonication",
      "rating": 7.57,
      "classificacao_etaria": "A14",
      "imagem_original": "https://animefire.plus/img/animes/bang-dream-morfonication.webp",
      "imagem_pasta": "https://animefire.plus/img/animes/bang-dream-morfonication/",
      "secao": "legendados",
      "pagina": 30,
      "total_episodios": 1,
      "link_video": "https://animefire.plus/video/bang-dream-morfonication"
    },
    {
      "id": 345,
      "nome": "Bartender",
      "link": "https://animefire.plus/animes/bartender-todos-os-episodios",
      "texto_original": "Bartender",
      "rating": 7.4,
      "classificacao_etaria": "A14",
      "imagem_original": "https://animefire.plus/img/animes/bartender.webp",
      "imagem_pasta": "https://animefire.plus/img/animes/bartender/",
      "secao": "legendados",
      "pagina": 77,
      "total_episodios": 1,
      "link_video": "https://animefire.plus/video/bartender"
    },
    {
      "id": 346,
      "nome": "Bartender: Kami no Glass",
      "link": "https://animefire.plus/animes/bartender-kami-no-glass-todos-os-episodios",
      "texto_original": "Bartender: Kami no Glass",
      "rating": 7.38,
      "classificacao_etaria": "A14",
      "imagem_original": "https://animefire.plus/img/animes/bartender-kami-no-glass.webp",
      "imagem_pasta": "https://animefire.plus/img/animes/bartender-kami-no-glass/",
      "secao": "legendados",
      "pagina": 15,
      "total_episodios": 12,
      "link_video": "https://animefire.plus/video/bartender-kami-no-glass"
    },
    {
      "id": 347,
      "nome": "Basilisk: Kouga Ninpou Chou (Dublado)",
      "link": "https://animefire.plus/animes/basilisk-kouga-ninpou-chou-dublado-todos-os-episodios",
      "texto_original": "Basilisk: Kouga Ninpou Chou (Dublado)",
      "rating": 7.63,
      "classificacao_etaria": "A16",
      "imagem_original": "https://animefire.plus/img/animes/basilisk-kouga-ninpou-chou.webp",
      "imagem_pasta": "https://animefire.plus/img/animes/basilisk-kouga-ninpou-chou/",
      "secao": "dublados,legendados",
      "pagina": 27,
      "total_episodios": 25,
      "link_video": "https://animefire.plus/video/basilisk-kouga-ninpou-chou-dublado"
    },
    {
      "id": 349,
      "nome": "Basquash!",
      "link": "https://animefire.plus/animes/basquash-todos-os-episodios",
      "texto_original": "Basquash!",
      "rating": 7.31,
      "classificacao_etaria": "A14",
      "imagem_original": "https://animefire.plus/img/animes/basquash.webp",
      "imagem_pasta": "https://animefire.plus/img/animes/basquash/",
      "secao": "legendados",
      "pagina": 102,
      "total_episodios": 8,
      "link_video": "https://animefire.plus/video/basquash"
    },
    {
      "id": 353,
      "nome": "Bastard!! Ankoku no Hakaishin Season 2 (ONA) (Dublado)",
      "link": "https://animefire.plus/animes/bastard-ankoku-no-hakaishin-season-2-ona-dublado-todos-os-episodios",
      "texto_original": "Bastard!! Ankoku no Hakaishin Season 2 (ONA) (Dublado)",
      "rating": 7.07,
      "classificacao_etaria": "A18",
      "imagem_original": "https://animefire.plus/img/animes/bastard-ankoku-no-hakaishin-season-2-ona.webp",
      "imagem_pasta": "https://animefire.plus/img/animes/bastard-ankoku-no-hakaishin-season-2-ona/",
      "secao": "dublados,legendados",
      "pagina": 6,
      "total_episodios": 15,
      "link_video": "https://animefire.plus/video/bastard-ankoku-no-hakaishin-season-2-ona-dublado"
    },
    {
      "id": 358,
      "nome": "Battle Programmer Shirase",
      "link": "https://animefire.plus/animes/battle-programmer-shirase-todos-os-episodios",
      "texto_original": "Battle Programmer Shirase",
      "rating": 7,
      "classificacao_etaria": "A14",
      "imagem_original": "https://animefire.plus/img/animes/battle-programmer-shirase.webp",
      "imagem_pasta": "https://animefire.plus/img/animes/battle-programmer-shirase/",
      "secao": "legendados",
      "pagina": 165,
      "total_episodios": 5,
      "link_video": "https://animefire.plus/video/battle-programmer-shirase"
    },
    {
      "id": 364,
      "nome": "Beastars 2nd Season (Dublado)",
      "link": "https://animefire.plus/animes/beastars-2nd-season-dublado-todos-os-episodios",
      "texto_original": "Beastars 2nd Season (Dublado)",
      "rating": 7.78,
      "classificacao_etaria": "A16",
      "imagem_original": "https://animefire.plus/img/animes/beastars-2nd-season.webp",
      "imagem_pasta": "https://animefire.plus/img/animes/beastars-2nd-season/",
      "secao": "dublados,legendados",
      "pagina": 16,
      "total_episodios": 12,
      "link_video": "https://animefire.plus/video/beastars-2nd-season-dublado"
    },
    {
      "id": 371,
      "nome": "Beelzebub-jou no Okinimesu mama.",
      "link": "https://animefire.plus/animes/beelzebub-jou-no-okinimesu-mama-todos-os-episodios",
      "texto_original": "Beelzebub-jou no Okinimesu mama.",
      "rating": 7.35,
      "classificacao_etaria": "A14",
      "imagem_original": "https://animefire.plus/img/animes/beelzebub-jou-no-okinimesu-mama.webp",
      "imagem_pasta": "https://animefire.plus/img/animes/beelzebub-jou-no-okinimesu-mama/",
      "secao": "legendados",
      "pagina": 145,
      "total_episodios": 12,
      "link_video": "https://animefire.plus/video/beelzebub-jou-no-okinimesu-mama"
    },
    {
      "id": 372,
      "nome": "Ben-To",
      "link": "https://animefire.plus/animes/ben-to-todos-os-episodios",
      "texto_original": "Ben-To",
      "rating": 7.38,
      "classificacao_etaria": "A14",
      "imagem_original": "https://animefire.plus/img/animes/ben-to.webp",
      "imagem_pasta": "https://animefire.plus/img/animes/ben-to/",
      "secao": "legendados",
      "pagina": 165,
      "total_episodios": 0,
      "link_video": "https://animefire.plus/video/ben-to"
    },
    {
      "id": 373,
      "nome": "Benriya Saitou-san, Isekai ni Iku",
      "link": "https://animefire.plus/animes/benriya-saitou-san-isekai-ni-iku-todos-os-episodios",
      "texto_original": "Benriya Saitou-san, Isekai ni Iku",
      "rating": 7.38,
      "classificacao_etaria": "A16",
      "imagem_original": "https://animefire.plus/img/animes/benriya-saitou-san-isekai-ni-iku.webp",
      "imagem_pasta": "https://animefire.plus/img/animes/benriya-saitou-san-isekai-ni-iku/",
      "secao": "legendados",
      "pagina": 26,
      "total_episodios": 12,
      "link_video": "https://animefire.plus/video/benriya-saitou-san-isekai-ni-iku"
    },
    {
      "id": 378,
      "nome": "Berserk: Ougon Jidai-hen - Memorial Edition (Dublado)",
      "link": "https://animefire.plus/animes/berserk-ougon-jidai-hen---memorial-edition-dublado-todos-os-episodios",
      "texto_original": "Berserk: Ougon Jidai-hen - Memorial Edition (Dublado)",
      "rating": 7.9,
      "classificacao_etaria": "A18",
      "imagem_original": "https://animefire.plus/img/animes/berserk-ougon-jidai-hen---memorial-edition.webp",
      "imagem_pasta": "https://animefire.plus/img/animes/berserk-ougon-jidai-hen---memorial-edition/",
      "secao": "dublados,legendados",
      "pagina": 9,
      "total_episodios": 13,
      "link_video": "https://animefire.plus/video/berserk-ougon-jidai-hen---memorial-edition-dublado"
    },
    {
      "id": 382,
      "nome": "Biao Ren: Blades of the Guardians",
      "link": "https://animefire.plus/animes/biao-ren-blades-of-the-guardians-todos-os-episodios",
      "texto_original": "Biao Ren: Blades of the Guardians",
      "rating": 7.56,
      "classificacao_etaria": "A16",
      "imagem_original": "https://animefire.plus/img/animes/biao-ren-blades-of-the-guardians.webp",
      "imagem_pasta": "https://animefire.plus/img/animes/biao-ren-blades-of-the-guardians/",
      "secao": "legendados",
      "pagina": 18,
      "total_episodios": 15,
      "link_video": "https://animefire.plus/video/biao-ren-blades-of-the-guardians"
    }
  ],
  "pagination": {
    "current_page": 8,
    "per_page": 20,
    "total_items": 1905,
    "total_pages": 96,
    "has_next": true,
    "has_prev": true
  }
}
