{
  "message": "Animes com rating entre 7 e 8",
  "rating_range": {
    "min": 7,
    "max": 8
  },
  "data": [
    {
      "id": 2717,
      "nome": "Net-juu no Susume (Dublado)",
      "link": "https://animefire.plus/animes/net-juu-no-susume-dublado-todos-os-episodios",
      "texto_original": "Net-juu no Susume (Dublado)",
      "rating": 7.76,
      "classificacao_etaria": "A14",
      "imagem_original": "https://animefire.plus/img/animes/net-juu-no-susume.webp",
      "imagem_pasta": "https://animefire.plus/img/animes/net-juu-no-susume/",
      "secao": "dublados,legendados",
      "pagina": 26,
      "total_episodios": 11,
      "link_video": "https://animefire.plus/video/net-juu-no-susume-dublado"
    },
    {
      "id": 2718,
      "nome": "Net-juu no Susume Special (Dublado)",
      "link": "https://animefire.plus/animes/net-juu-no-susume-special-dublado-todos-os-episodios",
      "texto_original": "Net-juu no Susume Special (Dublado)",
      "rating": 7.46,
      "classificacao_etaria": "A14",
      "imagem_original": "https://animefire.plus/img/animes/net-juu-no-susume-special.webp",
      "imagem_pasta": "https://animefire.plus/img/animes/net-juu-no-susume-special/",
      "secao": "dublados,legendados",
      "pagina": 24,
      "total_episodios": 1,
      "link_video": "https://animefire.plus/video/net-juu-no-susume-special-dublado"
    },
    {
      "id": 2719,
      "nome": "Netoge no Yome wa Onnanoko ja Nai to Omotta?",
      "link": "https://animefire.plus/animes/netoge-no-yome-wa-onnanoko-ja-nai-to-omotta-todos-os-episodios",
      "texto_original": "Netoge no Yome wa Onnanoko ja Nai to Omotta?",
      "rating": 7.02,
      "classificacao_etaria": "A14",
      "imagem_original": "https://animefire.plus/img/animes/netoge-no-yome-wa-onnanoko-ja-nai-to-omotta.webp",
      "imagem_pasta": "https://animefire.plus/img/animes/netoge-no-yome-wa-onnanoko-ja-nai-to-omotta/",
      "secao": "legendados",
      "pagina": 147,
      "total_episodios": 5,
      "link_video": "https://animefire.plus/video/netoge-no-yome-wa-onnanoko-ja-nai-to-omotta"
    },
    {
      "id": 2721,
      "nome": "New Game!",
      "link": "https://animefire.plus/animes/new-game-todos-os-episodios",
      "texto_original": "New Game!",
      "rating": 7.66,
      "classificacao_etaria": "A14",
      "imagem_original": "https://animefire.plus/img/animes/new-game.webp",
      "imagem_pasta": "https://animefire.plus/img/animes/new-game/",
      "secao": "legendados",
      "pagina": 57,
      "total_episodios": 12,
      "link_video": "https://animefire.plus/video/new-game"
    },
    {
      "id": 2722,
      "nome": "New Panty & Stocking with Garterbelt",
      "link": "https://animefire.plus/animes/new-panty-stocking-with-garterbelt-todos-os-episodios",
      "texto_original": "New Panty & Stocking with Garterbelt",
      "rating": 7.35,
      "classificacao_etaria": "A16",
      "imagem_original": "https://animefire.plus/img/animes/new-panty-stocking-with-garterbelt.webp",
      "imagem_pasta": "https://animefire.plus/img/animes/new-panty-stocking-with-garterbelt/",
      "secao": "legendados,lancamentos",
      "pagina": 1,
      "total_episodios": 4,
      "link_video": "https://animefire.plus/video/new-panty-stocking-with-garterbelt"
    },
    {
      "id": 2726,
      "nome": "Niehime to Kemono no Ou",
      "link": "https://animefire.plus/animes/niehime-to-kemono-no-ou-todos-os-episodios",
      "texto_original": "Niehime to Kemono no Ou",
      "rating": 7.93,
      "classificacao_etaria": "A14",
      "imagem_original": "https://animefire.plus/img/animes/niehime-to-kemono-no-ou.jpg",
      "imagem_pasta": "https://animefire.plus/img/animes/niehime-to-kemono-no-ou/",
      "secao": "legendados",
      "pagina": 23,
      "total_episodios": 24,
      "link_video": "https://animefire.plus/video/niehime-to-kemono-no-ou"
    },
    {
      "id": 2727,
      "nome": "NieR:Automata Ver1.1a (Dublado)",
      "link": "https://animefire.plus/animes/nier-automata-ver1-1a-dublado-todos-os-episodios",
      "texto_original": "NieR:Automata Ver1.1a (Dublado)",
      "rating": 7.51,
      "classificacao_etaria": "A14",
      "imagem_original": "https://animefire.plus/img/animes/nier-automata-ver1-1a.webp",
      "imagem_pasta": "https://animefire.plus/img/animes/nier-automata-ver1-1a/",
      "secao": "dublados,legendados",
      "pagina": 7,
      "total_episodios": 12,
      "link_video": "https://animefire.plus/video/nier-automata-ver1-1a-dublado"
    },
    {
      "id": 2729,
      "nome": "Nige Jouzu no Wakagimi",
      "link": "https://animefire.plus/animes/nige-jouzu-no-wakagimi-todos-os-episodios",
      "texto_original": "Nige Jouzu no Wakagimi",
      "rating": 7.8,
      "classificacao_etaria": "A16",
      "imagem_original": "https://animefire.plus/img/animes/nige-jouzu-no-wakagimi.webp",
      "imagem_pasta": "https://animefire.plus/img/animes/nige-jouzu-no-wakagimi/",
      "secao": "legendados",
      "pagina": 13,
      "total_episodios": 12,
      "link_video": "https://animefire.plus/video/nige-jouzu-no-wakagimi"
    },
    {
      "id": 2732,
      "nome": "Night Walker: Mayonaka no Tantei",
      "link": "https://animefire.plus/animes/night-walker-mayonaka-no-tantei-todos-os-episodios",
      "texto_original": "Night Walker: Mayonaka no Tantei",
      "rating": 7.03,
      "classificacao_etaria": "A18",
      "imagem_original": "https://animefire.plus/img/animes/night-walker-mayonaka-no-tantei.webp",
      "imagem_pasta": "https://animefire.plus/img/animes/night-walker-mayonaka-no-tantei/",
      "secao": "legendados",
      "pagina": 138,
      "total_episodios": 12,
      "link_video": "https://animefire.plus/video/night-walker-mayonaka-no-tantei"
    },
    {
      "id": 2735,
      "nome": "Nihon e Youkoso Elf-san.",
      "link": "https://animefire.plus/animes/nihon-e-youkoso-elf-san-todos-os-episodios",
      "texto_original": "Nihon e Youkoso Elf-san.",
      "rating": 7.29,
      "classificacao_etaria": "A14",
      "imagem_original": "https://animefire.plus/img/animes/nihon-e-youkoso-elf-san.webp",
      "imagem_pasta": "https://animefire.plus/img/animes/nihon-e-youkoso-elf-san/",
      "secao": "legendados",
      "pagina": 7,
      "total_episodios": 12,
      "link_video": "https://animefire.plus/video/nihon-e-youkoso-elf-san"
    },
    {
      "id": 2736,
      "nome": "Nijiiro Days",
      "link": "https://animefire.plus/animes/nijiiro-days-todos-os-episodios",
      "texto_original": "Nijiiro Days",
      "rating": 7.47,
      "classificacao_etaria": "A14",
      "imagem_original": "https://animefire.plus/img/animes/nijiiro-days.webp",
      "imagem_pasta": "https://animefire.plus/img/animes/nijiiro-days/",
      "secao": "legendados",
      "pagina": 113,
      "total_episodios": 16,
      "link_video": "https://animefire.plus/video/nijiiro-days"
    },
    {
      "id": 2739,
      "nome": "Nijuu Mensou no Musume",
      "link": "https://animefire.plus/animes/nijuu-mensou-no-musume-todos-os-episodios",
      "texto_original": "Nijuu Mensou no Musume",
      "rating": 7.61,
      "classificacao_etaria": "A14",
      "imagem_original": "https://animefire.plus/img/animes/nijuu-mensou-no-musume.webp",
      "imagem_pasta": "https://animefire.plus/img/animes/nijuu-mensou-no-musume/",
      "secao": "legendados",
      "pagina": 173,
      "total_episodios": 22,
      "link_video": "https://animefire.plus/video/nijuu-mensou-no-musume"
    },
    {
      "id": 2746,
      "nome": "Ninja to Koroshiya no Futarigurashi",
      "link": "https://animefire.plus/animes/ninja-to-koroshiya-no-futarigurashi-todos-os-episodios",
      "texto_original": "Ninja to Koroshiya no Futarigurashi",
      "rating": 7.63,
      "classificacao_etaria": "A14",
      "imagem_original": "https://animefire.plus/img/animes/ninja-to-koroshiya-no-futarigurashi.webp",
      "imagem_pasta": "https://animefire.plus/img/animes/ninja-to-koroshiya-no-futarigurashi/",
      "secao": "legendados",
      "pagina": 4,
      "total_episodios": 12,
      "link_video": "https://animefire.plus/video/ninja-to-koroshiya-no-futarigurashi"
    },
    {
      "id": 2747,
      "nome": "Nisekoi",
      "link": "https://animefire.plus/animes/nisekoi-todos-os-episodios",
      "texto_original": "Nisekoi",
      "rating": 7.71,
      "classificacao_etaria": "A14",
      "imagem_original": "https://animefire.plus/img/animes/nisekoi.webp",
      "imagem_pasta": "https://animefire.plus/img/animes/nisekoi/",
      "secao": "legendados",
      "pagina": 79,
      "total_episodios": 20,
      "link_video": "https://animefire.plus/video/nisekoi"
    },
    {
      "id": 2748,
      "nome": "Nisekoi 2nd season",
      "link": "https://animefire.plus/animes/nisekoi-2nd-season-todos-os-episodios",
      "texto_original": "Nisekoi 2nd season",
      "rating": 7.43,
      "classificacao_etaria": "A14",
      "imagem_original": "https://animefire.plus/img/animes/nisekoi-2nd-season.webp",
      "imagem_pasta": "https://animefire.plus/img/animes/nisekoi-2nd-season/",
      "secao": "legendados",
      "pagina": 79,
      "total_episodios": 12,
      "link_video": "https://animefire.plus/video/nisekoi-2nd-season"
    },
    {
      "id": 2756,
      "nome": "No.6",
      "link": "https://animefire.plus/animes/no-6-todos-os-episodios",
      "texto_original": "No.6",
      "rating": 7.69,
      "classificacao_etaria": "A16",
      "imagem_original": "https://animefire.plus/img/animes/no-6.webp",
      "imagem_pasta": "https://animefire.plus/img/animes/no-6/",
      "secao": "legendados",
      "pagina": 161,
      "total_episodios": 11,
      "link_video": "https://animefire.plus/video/no-6"
    },
    {
      "id": 2758,
      "nome": "Noblesse: Awakening",
      "link": "https://animefire.plus/animes/noblesse-awakening-todos-os-episodios",
      "texto_original": "Noblesse: Awakening",
      "rating": 7.67,
      "classificacao_etaria": "A16",
      "imagem_original": "https://animefire.plus/img/animes/noblesse-awakening.webp",
      "imagem_pasta": "https://animefire.plus/img/animes/noblesse-awakening/",
      "secao": "legendados",
      "pagina": 153,
      "total_episodios": 1,
      "link_video": "https://animefire.plus/video/noblesse-awakening"
    },
    {
      "id": 2759,
      "nome": "Noblesse: Pamyeol-ui Sijak",
      "link": "https://animefire.plus/animes/noblesse-pamyeol-ui-sijak-todos-os-episodios",
      "texto_original": "Noblesse: Pamyeol-ui Sijak",
      "rating": 7.43,
      "classificacao_etaria": "A16",
      "imagem_original": "https://animefire.plus/img/animes/noblesse-pamyeol-ui-sijak.webp",
      "imagem_pasta": "https://animefire.plus/img/animes/noblesse-pamyeol-ui-sijak/",
      "secao": "legendados",
      "pagina": 51,
      "total_episodios": 1,
      "link_video": "https://animefire.plus/video/noblesse-pamyeol-ui-sijak"
    },
    {
      "id": 2760,
      "nome": "Nobunaga Concerto",
      "link": "https://animefire.plus/animes/nobunaga-concerto-todos-os-episodios",
      "texto_original": "Nobunaga Concerto",
      "rating": 7.69,
      "classificacao_etaria": "A14",
      "imagem_original": "https://animefire.plus/img/animes/nobunaga-concerto.webp",
      "imagem_pasta": "https://animefire.plus/img/animes/nobunaga-concerto/",
      "secao": "legendados",
      "pagina": 141,
      "total_episodios": 7,
      "link_video": "https://animefire.plus/video/nobunaga-concerto"
    },
    {
      "id": 2761,
      "nome": "Nobunaga No Shinobi",
      "link": "https://animefire.plus/animes/nobunaga-no-shinobi-todos-os-episodios",
      "texto_original": "Nobunaga No Shinobi",
      "rating": 7.09,
      "classificacao_etaria": "A14",
      "imagem_original": "https://animefire.plus/img/animes/nobunaga-no-shinobi.webp",
      "imagem_pasta": "https://animefire.plus/img/animes/nobunaga-no-shinobi/",
      "secao": "legendados",
      "pagina": 59,
      "total_episodios": 59,
      "link_video": "https://animefire.plus/video/nobunaga-no-shinobi"
    }
  ],
  "pagination": {
    "current_page": 58,
    "per_page": 20,
    "total_items": 1905,
    "total_pages": 96,
    "has_next": true,
    "has_prev": true
  }
}
