{
  "message": "Animes com rating entre 7 e 8",
  "rating_range": {
    "min": 7,
    "max": 8
  },
  "data": [
    {
      "id": 3794,
      "nome": "Tensei Kizoku, Kantei Skill de Nariagaru",
      "link": "https://animefire.plus/animes/tensei-kizoku-kantei-skill-de-nariagaru-todos-os-episodios",
      "texto_original": "Tensei Kizoku, Kantei Skill de Nariagaru",
      "rating": 7.17,
      "classificacao_etaria": "A14",
      "imagem_original": "https://animefire.plus/img/animes/tensei-kizoku-kantei-skill-de-nariagaru.webp",
      "imagem_pasta": "https://animefire.plus/img/animes/tensei-kizoku-kantei-skill-de-nariagaru/",
      "secao": "legendados",
      "pagina": 15,
      "total_episodios": 12,
      "link_video": "https://animefire.plus/video/tensei-kizoku-kantei-skill-de-nariagaru"
    },
    {
      "id": 3795,
      "nome": "Tensei Kizoku, Kantei Skill de Nariagaru 2nd Season",
      "link": "https://animefire.plus/animes/tensei-kizoku-kantei-skill-de-nariagaru-2nd-season-todos-os-episodios",
      "texto_original": "Tensei Kizoku, Kantei Skill de Nariagaru 2nd Season",
      "rating": 7.45,
      "classificacao_etaria": "A14",
      "imagem_original": "https://animefire.plus/img/animes/tensei-kizoku-kantei-skill-de-nariagaru-2nd-season.webp",
      "imagem_pasta": "https://animefire.plus/img/animes/tensei-kizoku-kantei-skill-de-nariagaru-2nd-season/",
      "secao": "legendados",
      "pagina": 10,
      "total_episodios": 12,
      "link_video": "https://animefire.plus/video/tensei-kizoku-kantei-skill-de-nariagaru-2nd-season"
    },
    {
      "id": 3796,
      "nome": "Tensei Oujo to Tensai Reijou no Mahou Kakumei",
      "link": "https://animefire.plus/animes/tensei-oujo-to-tensai-reijou-no-mahou-kakumei-todos-os-episodios",
      "texto_original": "Tensei Oujo to Tensai Reijou no Mahou Kakumei",
      "rating": 7.46,
      "classificacao_etaria": "A14",
      "imagem_original": "https://animefire.plus/img/animes/tensei-oujo-to-tensai-reijou-no-mahou-kakumei.webp",
      "imagem_pasta": "https://animefire.plus/img/animes/tensei-oujo-to-tensai-reijou-no-mahou-kakumei/",
      "secao": "legendados",
      "pagina": 27,
      "total_episodios": 12,
      "link_video": "https://animefire.plus/video/tensei-oujo-to-tensai-reijou-no-mahou-kakumei"
    },
    {
      "id": 3797,
      "nome": "Tensei shitara Dainana Ouji Datta node, Kimama ni Majutsu wo Kiwamemasu",
      "link": "https://animefire.plus/animes/tensei-shitara-dainana-ouji-datta-node-kimama-ni-majutsu-wo-kiwamemasu-todos-os-episodios",
      "texto_original": "Tensei shitara Dainana Ouji Datta node, Kimama ni Majutsu wo Kiwamemasu",
      "rating": 7.42,
      "classificacao_etaria": "A14",
      "imagem_original": "https://animefire.plus/img/animes/tensei-shitara-dainana-ouji-datta-node-kimama-ni-majutsu-wo-kiwamemasu.webp",
      "imagem_pasta": "https://animefire.plus/img/animes/tensei-shitara-dainana-ouji-datta-node-kimama-ni-majutsu-wo-kiwamemasu/",
      "secao": "legendados",
      "pagina": 15,
      "total_episodios": 12,
      "link_video": "https://animefire.plus/video/tensei-shitara-dainana-ouji-datta-node-kimama-ni-majutsu-wo-kiwamemasu"
    },
    {
      "id": 3798,
      "nome": "Tensei shitara Dainana Ouji Datta node, Kimama ni Majutsu wo Kiwamemasu 2nd Season",
      "link": "https://animefire.plus/animes/tensei-shitara-dainana-ouji-datta-node-kimama-ni-majutsu-wo-kiwamemasu-2nd-season-todos-os-episodios",
      "texto_original": "Tensei shitara Dainana Ouji Datta node, Kimama ni Majutsu wo Kiwamemasu 2nd Season",
      "rating": 7.63,
      "classificacao_etaria": "A14",
      "imagem_original": "https://animefire.plus/img/animes/tensei-shitara-dainana-ouji-datta-node-kimama-ni-majutsu-wo-kiwamemasu-2nd-season.webp",
      "imagem_pasta": "https://animefire.plus/img/animes/tensei-shitara-dainana-ouji-datta-node-kimama-ni-majutsu-wo-kiwamemasu-2nd-season/",
      "secao": "legendados,lancamentos",
      "pagina": 3,
      "total_episodios": 4,
      "link_video": "https://animefire.plus/video/tensei-shitara-dainana-ouji-datta-node-kimama-ni-majutsu-wo-kiwamemasu-2nd-season"
    },
    {
      "id": 3799,
      "nome": "Tensei shitara Ken Deshita",
      "link": "https://animefire.plus/animes/tensei-shitara-ken-deshita-todos-os-episodios",
      "texto_original": "Tensei shitara Ken Deshita",
      "rating": 7.5,
      "classificacao_etaria": "A14",
      "imagem_original": "https://animefire.plus/img/animes/tensei-shitara-ken-deshita.webp",
      "imagem_pasta": "https://animefire.plus/img/animes/tensei-shitara-ken-deshita/",
      "secao": "legendados",
      "pagina": 29,
      "total_episodios": 12,
      "link_video": "https://animefire.plus/video/tensei-shitara-ken-deshita"
    },
    {
      "id": 3803,
      "nome": "Tensei shitara Slime Datta Ken 3rd Season",
      "link": "https://animefire.plus/animes/tensei-shitara-slime-datta-ken-3rd-season-todos-os-episodios",
      "texto_original": "Tensei shitara Slime Datta Ken 3rd Season",
      "rating": 7.69,
      "classificacao_etaria": "A14",
      "imagem_original": "https://animefire.plus/img/animes/tensei-shitara-slime-datta-ken-3rd-season.webp",
      "imagem_pasta": "https://animefire.plus/img/animes/tensei-shitara-slime-datta-ken-3rd-season/",
      "secao": "legendados",
      "pagina": 19,
      "total_episodios": 24,
      "link_video": "https://animefire.plus/video/tensei-shitara-slime-datta-ken-3rd-season"
    },
    {
      "id": 3804,
      "nome": "Tensei shitara Slime Datta Ken OVA (Dublado)",
      "link": "https://animefire.plus/animes/tensei-shitara-slime-datta-ken-ova-dublado-todos-os-episodios",
      "texto_original": "Tensei shitara Slime Datta Ken OVA (Dublado)",
      "rating": 7.47,
      "classificacao_etaria": "A14",
      "imagem_original": "https://animefire.plus/img/animes/tensei-shitara-slime-datta-ken-ova.webp",
      "imagem_pasta": "https://animefire.plus/img/animes/tensei-shitara-slime-datta-ken-ova/",
      "secao": "dublados,legendados",
      "pagina": 16,
      "total_episodios": 5,
      "link_video": "https://animefire.plus/video/tensei-shitara-slime-datta-ken-ova-dublado"
    },
    {
      "id": 3805,
      "nome": "Tensei shitara Slime Datta Ken: Coleus no Yume (Dublado)",
      "link": "https://animefire.plus/animes/tensei-shitara-slime-datta-ken-coleus-no-yume-dublado-todos-os-episodios",
      "texto_original": "Tensei shitara Slime Datta Ken: Coleus no Yume (Dublado)",
      "rating": 7.58,
      "classificacao_etaria": "A14",
      "imagem_original": "https://animefire.plus/img/animes/tensei-shitara-slime-datta-ken-coleus-no-yume.webp",
      "imagem_pasta": "https://animefire.plus/img/animes/tensei-shitara-slime-datta-ken-coleus-no-yume/",
      "secao": "dublados,legendados,lancamentos",
      "pagina": 4,
      "total_episodios": 3,
      "link_video": "https://animefire.plus/video/tensei-shitara-slime-datta-ken-coleus-no-yume-dublado"
    },
    {
      "id": 3811,
      "nome": "Tensura Nikki: Tensei shitara Slime Datta Ken (Dublado)",
      "link": "https://animefire.plus/animes/tensura-nikki-tensei-shitara-slime-datta-ken-dublado-todos-os-episodios",
      "texto_original": "Tensura Nikki: Tensei shitara Slime Datta Ken (Dublado)",
      "rating": 7.59,
      "classificacao_etaria": "A14",
      "imagem_original": "https://animefire.plus/img/animes/tensura-nikki-tensei-shitara-slime-datta-ken.webp",
      "imagem_pasta": "https://animefire.plus/img/animes/tensura-nikki-tensei-shitara-slime-datta-ken/",
      "secao": "dublados,legendados",
      "pagina": 15,
      "total_episodios": 12,
      "link_video": "https://animefire.plus/video/tensura-nikki-tensei-shitara-slime-datta-ken-dublado"
    },
    {
      "id": 3812,
      "nome": "Tentai Senshi Sunred",
      "link": "https://animefire.plus/animes/tentai-senshi-sunred-todos-os-episodios",
      "texto_original": "Tentai Senshi Sunred",
      "rating": 7.88,
      "classificacao_etaria": "A14",
      "imagem_original": "https://animefire.plus/img/animes/tentai-senshi-sunred.webp",
      "imagem_pasta": "https://animefire.plus/img/animes/tentai-senshi-sunred/",
      "secao": "legendados",
      "pagina": 98,
      "total_episodios": 0,
      "link_video": "https://animefire.plus/video/tentai-senshi-sunred"
    },
    {
      "id": 3816,
      "nome": "Terminator 0",
      "link": "https://animefire.plus/animes/terminator-0-todos-os-episodios",
      "texto_original": "Terminator 0",
      "rating": 7.1,
      "classificacao_etaria": "A16",
      "imagem_original": "https://animefire.plus/img/animes/terminator-0.webp",
      "imagem_pasta": "https://animefire.plus/img/animes/terminator-0/",
      "secao": "legendados",
      "pagina": 10,
      "total_episodios": 8,
      "link_video": "https://animefire.plus/video/terminator-0"
    },
    {
      "id": 3817,
      "nome": "Terra Formars",
      "link": "https://animefire.plus/animes/terra-formars-todos-os-episodios",
      "texto_original": "Terra Formars",
      "rating": 7.11,
      "classificacao_etaria": "A16",
      "imagem_original": "https://animefire.plus/img/animes/terra-formars.webp",
      "imagem_pasta": "https://animefire.plus/img/animes/terra-formars/",
      "secao": "legendados",
      "pagina": 99,
      "total_episodios": 0,
      "link_video": "https://animefire.plus/video/terra-formars"
    },
    {
      "id": 3819,
      "nome": "Tesagure! Bukatsumono Spin-off Purupurun Sharumu To Asobou",
      "link": "https://animefire.plus/animes/tesagure-bukatsumono-spin-off-purupurun-sharumu-to-asobou-todos-os-episodios",
      "texto_original": "Tesagure! Bukatsumono Spin-off Purupurun Sharumu To Asobou",
      "rating": 7.04,
      "classificacao_etaria": "A14",
      "imagem_original": "https://animefire.plus/img/animes/tesagure-bukatsumono-spin-off-purupurun-sharumu-to-asobou.webp",
      "imagem_pasta": "https://animefire.plus/img/animes/tesagure-bukatsumono-spin-off-purupurun-sharumu-to-asobou/",
      "secao": "legendados",
      "pagina": 101,
      "total_episodios": 12,
      "link_video": "https://animefire.plus/video/tesagure-bukatsumono-spin-off-purupurun-sharumu-to-asobou"
    },
    {
      "id": 3821,
      "nome": "Tetsuwan Birdy Decode",
      "link": "https://animefire.plus/animes/tetsuwan-birdy-decode-todos-os-episodios",
      "texto_original": "Tetsuwan Birdy Decode",
      "rating": 7.5,
      "classificacao_etaria": "A14",
      "imagem_original": "https://animefire.plus/img/animes/tetsuwan-birdy-decode.webp",
      "imagem_pasta": "https://animefire.plus/img/animes/tetsuwan-birdy-decode/",
      "secao": "legendados",
      "pagina": 106,
      "total_episodios": 13,
      "link_video": "https://animefire.plus/video/tetsuwan-birdy-decode"
    },
    {
      "id": 3822,
      "nome": "Tetsuwan Birdy Decode:02",
      "link": "https://animefire.plus/animes/tetsuwan-birdy-decode-02-todos-os-episodios",
      "texto_original": "Tetsuwan Birdy Decode:02",
      "rating": 7.79,
      "classificacao_etaria": "A16",
      "imagem_original": "https://animefire.plus/img/animes/tetsuwan-birdy-decode-02.webp",
      "imagem_pasta": "https://animefire.plus/img/animes/tetsuwan-birdy-decode-02/",
      "secao": "legendados",
      "pagina": 166,
      "total_episodios": 2,
      "link_video": "https://animefire.plus/video/tetsuwan-birdy-decode-02"
    },
    {
      "id": 3823,
      "nome": "Texhnolyze",
      "link": "https://animefire.plus/animes/texhnolyze-todos-os-episodios",
      "texto_original": "Texhnolyze",
      "rating": 7.76,
      "classificacao_etaria": "A18",
      "imagem_original": "https://animefire.plus/img/animes/texhnolyze.webp",
      "imagem_pasta": "https://animefire.plus/img/animes/texhnolyze/",
      "secao": "legendados",
      "pagina": 144,
      "total_episodios": 22,
      "link_video": "https://animefire.plus/video/texhnolyze"
    },
    {
      "id": 3824,
      "nome": "The Animatrix (Dublado)",
      "link": "https://animefire.plus/animes/the-animatrix-dublado-todos-os-episodios",
      "texto_original": "The Animatrix (Dublado)",
      "rating": 7.32,
      "classificacao_etaria": "A16",
      "imagem_original": "https://animefire.plus/img/animes/the-animatrix.webp",
      "imagem_pasta": "https://animefire.plus/img/animes/the-animatrix/",
      "secao": "dublados,legendados",
      "pagina": 27,
      "total_episodios": 9,
      "link_video": "https://animefire.plus/video/the-animatrix-dublado"
    },
    {
      "id": 3825,
      "nome": "The Big O",
      "link": "https://animefire.plus/animes/the-big-o-todos-os-episodios",
      "texto_original": "The Big O",
      "rating": 7.54,
      "classificacao_etaria": "A14",
      "imagem_original": "https://animefire.plus/img/animes/the-big-o.webp",
      "imagem_pasta": "https://animefire.plus/img/animes/the-big-o/",
      "secao": "legendados",
      "pagina": 69,
      "total_episodios": 14,
      "link_video": "https://animefire.plus/video/the-big-o"
    },
    {
      "id": 3827,
      "nome": "The God of High School (Dublado)",
      "link": "https://animefire.plus/animes/the-god-of-high-school-dublado-todos-os-episodios",
      "texto_original": "The God of High School (Dublado)",
      "rating": 7.07,
      "classificacao_etaria": "A14",
      "imagem_original": "https://animefire.plus/img/animes/the-god-of-high-school.webp",
      "imagem_pasta": "https://animefire.plus/img/animes/the-god-of-high-school/",
      "secao": "dublados,legendados",
      "pagina": 8,
      "total_episodios": 13,
      "link_video": "https://animefire.plus/video/the-god-of-high-school-dublado"
    }
  ],
  "pagination": {
    "current_page": 83,
    "per_page": 20,
    "total_items": 1905,
    "total_pages": 96,
    "has_next": true,
    "has_prev": true
  }
}
