{
  "message": "Animes com rating entre 7 e 8",
  "rating_range": {
    "min": 7,
    "max": 8
  },
  "data": [
    {
      "id": 1893,
      "nome": "Karakai Jouzu no Takagi-san",
      "link": "https://animefire.plus/animes/karakai-jouzu-no-takagi-san-todos-os-episodios",
      "texto_original": "Karakai Jouzu no Takagi-san",
      "rating": 7.89,
      "classificacao_etaria": "A14",
      "imagem_original": "https://animefire.plus/img/animes/karakai-jouzu-no-takagi-san.webp",
      "imagem_pasta": "https://animefire.plus/img/animes/karakai-jouzu-no-takagi-san/",
      "secao": "legendados",
      "pagina": 144,
      "total_episodios": 12,
      "link_video": "https://animefire.plus/video/karakai-jouzu-no-takagi-san"
    },
    {
      "id": 1896,
      "nome": "Karakuri Circus (TV)",
      "link": "https://animefire.plus/animes/karakuri-circus-tv-todos-os-episodios",
      "texto_original": "Karakuri Circus (TV)",
      "rating": 7.09,
      "classificacao_etaria": "A14",
      "imagem_original": "https://animefire.plus/img/animes/karakuri-circus-tv.webp",
      "imagem_pasta": "https://animefire.plus/img/animes/karakuri-circus-tv/",
      "secao": "legendados",
      "pagina": 40,
      "total_episodios": 1,
      "link_video": "https://animefire.plus/video/karakuri-circus-tv"
    },
    {
      "id": 1897,
      "nome": "Karaoke Iko!",
      "link": "https://animefire.plus/animes/karaoke-iko-todos-os-episodios",
      "texto_original": "Karaoke Iko!",
      "rating": 7.28,
      "classificacao_etaria": "A14",
      "imagem_original": "https://animefire.plus/img/animes/karaoke-iko.webp",
      "imagem_pasta": "https://animefire.plus/img/animes/karaoke-iko/",
      "secao": "legendados,lancamentos",
      "pagina": 1,
      "total_episodios": 2,
      "link_video": "https://animefire.plus/video/karaoke-iko"
    },
    {
      "id": 1898,
      "nome": "Karas",
      "link": "https://animefire.plus/animes/karas-todos-os-episodios",
      "texto_original": "Karas",
      "rating": 7.44,
      "classificacao_etaria": "A16",
      "imagem_original": "https://animefire.plus/img/animes/karas.webp",
      "imagem_pasta": "https://animefire.plus/img/animes/karas/",
      "secao": "legendados",
      "pagina": 77,
      "total_episodios": 6,
      "link_video": "https://animefire.plus/video/karas"
    },
    {
      "id": 1901,
      "nome": "Kareshi Kanojo no Jijou",
      "link": "https://animefire.plus/animes/kareshi-kanojo-no-jijou-todos-os-episodios",
      "texto_original": "Kareshi Kanojo no Jijou",
      "rating": 7.64,
      "classificacao_etaria": "A14",
      "imagem_original": "https://animefire.plus/img/animes/kareshi-kanojo-no-jijou.webp",
      "imagem_pasta": "https://animefire.plus/img/animes/kareshi-kanojo-no-jijou/",
      "secao": "legendados",
      "pagina": 171,
      "total_episodios": 14,
      "link_video": "https://animefire.plus/video/kareshi-kanojo-no-jijou"
    },
    {
      "id": 1902,
      "nome": "Karin",
      "link": "https://animefire.plus/animes/karin-todos-os-episodios",
      "texto_original": "Karin",
      "rating": 7.25,
      "classificacao_etaria": "A14",
      "imagem_original": "https://animefire.plus/img/animes/karin.webp",
      "imagem_pasta": "https://animefire.plus/img/animes/karin/",
      "secao": "legendados",
      "pagina": 161,
      "total_episodios": 24,
      "link_video": "https://animefire.plus/video/karin"
    },
    {
      "id": 1903,
      "nome": "Karneval",
      "link": "https://animefire.plus/animes/karneval-todos-os-episodios",
      "texto_original": "Karneval",
      "rating": 7.27,
      "classificacao_etaria": "A14",
      "imagem_original": "https://animefire.plus/img/animes/karneval.webp",
      "imagem_pasta": "https://animefire.plus/img/animes/karneval/",
      "secao": "legendados",
      "pagina": 161,
      "total_episodios": 9,
      "link_video": "https://animefire.plus/video/karneval"
    },
    {
      "id": 1904,
      "nome": "Karneval (TV)",
      "link": "https://animefire.plus/animes/karneval-tv-todos-os-episodios",
      "texto_original": "Karneval (TV)",
      "rating": 7.19,
      "classificacao_etaria": "A14",
      "imagem_original": "https://animefire.plus/img/animes/karneval-tv.webp",
      "imagem_pasta": "https://animefire.plus/img/animes/karneval-tv/",
      "secao": "legendados",
      "pagina": 72,
      "total_episodios": 13,
      "link_video": "https://animefire.plus/video/karneval-tv"
    },
    {
      "id": 1906,
      "nome": "Katainaka no Ossan, Kensei ni Naru (Dublado)",
      "link": "https://animefire.plus/animes/katainaka-no-ossan-kensei-ni-naru-dublado-todos-os-episodios",
      "texto_original": "Katainaka no Ossan, Kensei ni Naru (Dublado)",
      "rating": 7.02,
      "classificacao_etaria": "A14",
      "imagem_original": "https://animefire.plus/img/animes/katainaka-no-ossan-kensei-ni-naru.webp",
      "imagem_pasta": "https://animefire.plus/img/animes/katainaka-no-ossan-kensei-ni-naru/",
      "secao": "dublados,legendados,lancamentos",
      "pagina": 1,
      "total_episodios": 12,
      "link_video": "https://animefire.plus/video/katainaka-no-ossan-kensei-ni-naru-dublado"
    },
    {
      "id": 1912,
      "nome": "Katsute Mahou Shoujo to Aku wa Tekitai shiteita.",
      "link": "https://animefire.plus/animes/katsute-mahou-shoujo-to-aku-wa-tekitai-shiteita-todos-os-episodios",
      "texto_original": "Katsute Mahou Shoujo to Aku wa Tekitai shiteita.",
      "rating": 7.56,
      "classificacao_etaria": "A14",
      "imagem_original": "https://animefire.plus/img/animes/katsute-mahou-shoujo-to-aku-wa-tekitai-shiteita.webp",
      "imagem_pasta": "https://animefire.plus/img/animes/katsute-mahou-shoujo-to-aku-wa-tekitai-shiteita/",
      "secao": "legendados",
      "pagina": 13,
      "total_episodios": 12,
      "link_video": "https://animefire.plus/video/katsute-mahou-shoujo-to-aku-wa-tekitai-shiteita"
    },
    {
      "id": 1920,
      "nome": "Kaze no Stigma",
      "link": "https://animefire.plus/animes/kaze-no-stigma-todos-os-episodios",
      "texto_original": "Kaze no Stigma",
      "rating": 7.4,
      "classificacao_etaria": "A14",
      "imagem_original": "https://animefire.plus/img/animes/kaze-no-stigma.webp",
      "imagem_pasta": "https://animefire.plus/img/animes/kaze-no-stigma/",
      "secao": "legendados",
      "pagina": 120,
      "total_episodios": 24,
      "link_video": "https://animefire.plus/video/kaze-no-stigma"
    },
    {
      "id": 1921,
      "nome": "Kazemakase Tsukikage Ran (Dublado)",
      "link": "https://animefire.plus/animes/kazemakase-tsukikage-ran-dublado-todos-os-episodios",
      "texto_original": "Kazemakase Tsukikage Ran (Dublado)",
      "rating": 7.16,
      "classificacao_etaria": "A14",
      "imagem_original": "https://animefire.plus/img/animes/kazemakase-tsukikage-ran.webp",
      "imagem_pasta": "https://animefire.plus/img/animes/kazemakase-tsukikage-ran/",
      "secao": "dublados",
      "pagina": 27,
      "total_episodios": 13,
      "link_video": "https://animefire.plus/video/kazemakase-tsukikage-ran-dublado"
    },
    {
      "id": 1923,
      "nome": "Keijo!!!!!!!!",
      "link": "https://animefire.plus/animes/keijo-todos-os-episodios",
      "texto_original": "Keijo!!!!!!!!",
      "rating": 7.24,
      "classificacao_etaria": "A14",
      "imagem_original": "https://animefire.plus/img/animes/keijo.webp",
      "imagem_pasta": "https://animefire.plus/img/animes/keijo/",
      "secao": "legendados",
      "pagina": 154,
      "total_episodios": 1,
      "link_video": "https://animefire.plus/video/keijo"
    },
    {
      "id": 1928,
      "nome": "Kekkai Sensen (Dublado)",
      "link": "https://animefire.plus/animes/kekkai-sensen-dublado-todos-os-episodios",
      "texto_original": "Kekkai Sensen (Dublado)",
      "rating": 7.66,
      "classificacao_etaria": "A16",
      "imagem_original": "https://animefire.plus/img/animes/kekkai-sensen.webp",
      "imagem_pasta": "https://animefire.plus/img/animes/kekkai-sensen/",
      "secao": "dublados,legendados",
      "pagina": 20,
      "total_episodios": 13,
      "link_video": "https://animefire.plus/video/kekkai-sensen-dublado"
    },
    {
      "id": 1929,
      "nome": "Kekkai Sensen & Beyond (Dublado)",
      "link": "https://animefire.plus/animes/kekkai-sensen-beyond-dublado-todos-os-episodios",
      "texto_original": "Kekkai Sensen & Beyond (Dublado)",
      "rating": 7.9,
      "classificacao_etaria": "A16",
      "imagem_original": "https://animefire.plus/img/animes/kekkai-sensen-beyond.webp",
      "imagem_pasta": "https://animefire.plus/img/animes/kekkai-sensen-beyond/",
      "secao": "dublados,legendados",
      "pagina": 19,
      "total_episodios": 12,
      "link_video": "https://animefire.plus/video/kekkai-sensen-beyond-dublado"
    },
    {
      "id": 1930,
      "nome": "Kekkai Sensen: Ousama no Restaurant no Ousama",
      "link": "https://animefire.plus/animes/kekkai-sensen-ousama-no-restaurant-no-ousama-todos-os-episodios",
      "texto_original": "Kekkai Sensen: Ousama no Restaurant no Ousama",
      "rating": 7.43,
      "classificacao_etaria": "A16",
      "imagem_original": "https://animefire.plus/img/animes/kekkai-sensen-ousama-no-restaurant-no-ousama.webp",
      "imagem_pasta": "https://animefire.plus/img/animes/kekkai-sensen-ousama-no-restaurant-no-ousama/",
      "secao": "legendados",
      "pagina": 86,
      "total_episodios": 1,
      "link_video": "https://animefire.plus/video/kekkai-sensen-ousama-no-restaurant-no-ousama"
    },
    {
      "id": 1931,
      "nome": "Kekkaishi",
      "link": "https://animefire.plus/animes/kekkaishi-todos-os-episodios",
      "texto_original": "Kekkaishi",
      "rating": 7.68,
      "classificacao_etaria": "A14",
      "imagem_original": "https://animefire.plus/img/animes/kekkaishi.webp",
      "imagem_pasta": "https://animefire.plus/img/animes/kekkaishi/",
      "secao": "legendados",
      "pagina": 175,
      "total_episodios": 34,
      "link_video": "https://animefire.plus/video/kekkaishi"
    },
    {
      "id": 1932,
      "nome": "Kekkon suru tte, Hontou desu ka (Dublado)",
      "link": "https://animefire.plus/animes/kekkon-suru-tte-hontou-desu-ka-dublado-todos-os-episodios",
      "texto_original": "Kekkon suru tte, Hontou desu ka (Dublado)",
      "rating": 7.12,
      "classificacao_etaria": "A14",
      "imagem_original": "https://animefire.plus/img/animes/kekkon-suru-tte-hontou-desu-ka.webp",
      "imagem_pasta": "https://animefire.plus/img/animes/kekkon-suru-tte-hontou-desu-ka/",
      "secao": "dublados,legendados,lancamentos",
      "pagina": 2,
      "total_episodios": 12,
      "link_video": "https://animefire.plus/video/kekkon-suru-tte-hontou-desu-ka-dublado"
    },
    {
      "id": 1935,
      "nome": "Kemono Friends",
      "link": "https://animefire.plus/animes/kemono-friends-todos-os-episodios",
      "texto_original": "Kemono Friends",
      "rating": 7.61,
      "classificacao_etaria": "A10",
      "imagem_original": "https://animefire.plus/img/animes/kemono-friends.webp",
      "imagem_pasta": "https://animefire.plus/img/animes/kemono-friends/",
      "secao": "legendados",
      "pagina": 63,
      "total_episodios": 12,
      "link_video": "https://animefire.plus/video/kemono-friends"
    },
    {
      "id": 1937,
      "nome": "Kemono Jihen (Dublado)",
      "link": "https://animefire.plus/animes/kemono-jihen-dublado-todos-os-episodios",
      "texto_original": "Kemono Jihen (Dublado)",
      "rating": 7.36,
      "classificacao_etaria": "A16",
      "imagem_original": "https://animefire.plus/img/animes/kemono-jihen.webp",
      "imagem_pasta": "https://animefire.plus/img/animes/kemono-jihen/",
      "secao": "dublados,legendados",
      "pagina": 10,
      "total_episodios": 12,
      "link_video": "https://animefire.plus/video/kemono-jihen-dublado"
    }
  ],
  "pagination": {
    "current_page": 40,
    "per_page": 20,
    "total_items": 1905,
    "total_pages": 96,
    "has_next": true,
    "has_prev": true
  }
}
