{
  "message": "Animes com rating entre 7 e 8",
  "rating_range": {
    "min": 7,
    "max": 8
  },
  "data": [
    {
      "id": 3003,
      "nome": "Pokemon Legends Arceus: Yuki Hodo Kishi Futaai",
      "link": "https://animefire.plus/animes/pokemon-legends-arceus-yuki-hodo-kishi-futaai-todos-os-episodios",
      "texto_original": "Pokemon Legends Arceus: Yuki Hodo Kishi Futaai",
      "rating": 7.41,
      "classificacao_etaria": "A10",
      "imagem_original": "https://animefire.plus/img/animes/pokemon-legends-arceus-yuki-hodo-kishi-futaai.webp",
      "imagem_pasta": "https://animefire.plus/img/animes/pokemon-legends-arceus-yuki-hodo-kishi-futaai/",
      "secao": "legendados",
      "pagina": 32,
      "total_episodios": 3,
      "link_video": "https://animefire.plus/video/pokemon-legends-arceus-yuki-hodo-kishi-futaai"
    },
    {
      "id": 3004,
      "nome": "Pokemon Movie 21: Minna no Monogatari",
      "link": "https://animefire.plus/animes/pokemon-movie-21-minna-no-monogatari-todos-os-episodios",
      "texto_original": "Pokemon Movie 21: Minna no Monogatari",
      "rating": 7.37,
      "classificacao_etaria": "A10",
      "imagem_original": "https://animefire.plus/img/animes/pokemon-movie-21-minna-no-monogatari.webp",
      "imagem_pasta": "https://animefire.plus/img/animes/pokemon-movie-21-minna-no-monogatari/",
      "secao": "legendados",
      "pagina": 104,
      "total_episodios": 3,
      "link_video": "https://animefire.plus/video/pokemon-movie-21-minna-no-monogatari"
    },
    {
      "id": 3006,
      "nome": "Pokemon XY (Dublado)",
      "link": "https://animefire.plus/animes/pokemon-xy-dublado-todos-os-episodios",
      "texto_original": "Pokemon XY (Dublado)",
      "rating": 7.4,
      "classificacao_etaria": "A10",
      "imagem_original": "https://animefire.plus/img/animes/pokemon-xy.webp",
      "imagem_pasta": "https://animefire.plus/img/animes/pokemon-xy/",
      "secao": "dublados,legendados",
      "pagina": 27,
      "total_episodios": 100,
      "link_video": "https://animefire.plus/video/pokemon-xy-dublado"
    },
    {
      "id": 3007,
      "nome": "Pokemon XY: Mega Evolution",
      "link": "https://animefire.plus/animes/pokemon-xy-mega-evolution-todos-os-episodios",
      "texto_original": "Pokemon XY: Mega Evolution",
      "rating": 7.5,
      "classificacao_etaria": "A10",
      "imagem_original": "https://animefire.plus/img/animes/pokemon-xy-mega-evolution.webp",
      "imagem_pasta": "https://animefire.plus/img/animes/pokemon-xy-mega-evolution/",
      "secao": "legendados",
      "pagina": 79,
      "total_episodios": 4,
      "link_video": "https://animefire.plus/video/pokemon-xy-mega-evolution"
    },
    {
      "id": 3008,
      "nome": "Pokemon XY&Z",
      "link": "https://animefire.plus/animes/pokemon-xy-z-todos-os-episodios",
      "texto_original": "Pokemon XY&Z",
      "rating": 7.7,
      "classificacao_etaria": "A10",
      "imagem_original": "https://animefire.plus/img/animes/pokemon-xy-z.webp",
      "imagem_pasta": "https://animefire.plus/img/animes/pokemon-xy-z/",
      "secao": "legendados",
      "pagina": 75,
      "total_episodios": 47,
      "link_video": "https://animefire.plus/video/pokemon-xy-z"
    },
    {
      "id": 3009,
      "nome": "Pokemon: Mezase Pokemon Master",
      "link": "https://animefire.plus/animes/pokemon-mezase-pokemon-master-todos-os-episodios",
      "texto_original": "Pokemon: Mezase Pokemon Master",
      "rating": 7.59,
      "classificacao_etaria": "A10",
      "imagem_original": "https://animefire.plus/img/animes/pokemon-mezase-pokemon-master.webp",
      "imagem_pasta": "https://animefire.plus/img/animes/pokemon-mezase-pokemon-master/",
      "secao": "legendados,lancamentos",
      "pagina": 25,
      "total_episodios": 2,
      "link_video": "https://animefire.plus/video/pokemon-mezase-pokemon-master"
    },
    {
      "id": 3010,
      "nome": "Pokemon: The Origin",
      "link": "https://animefire.plus/animes/pokemon-the-origin-todos-os-episodios",
      "texto_original": "Pokemon: The Origin",
      "rating": 7.86,
      "classificacao_etaria": "A10",
      "imagem_original": "https://animefire.plus/img/animes/pokemon-the-origin.webp",
      "imagem_pasta": "https://animefire.plus/img/animes/pokemon-the-origin/",
      "secao": "legendados",
      "pagina": 165,
      "total_episodios": 0,
      "link_video": "https://animefire.plus/video/pokemon-the-origin"
    },
    {
      "id": 3012,
      "nome": "PopoloCrois",
      "link": "https://animefire.plus/animes/popolocrois-todos-os-episodios",
      "texto_original": "PopoloCrois",
      "rating": 7.09,
      "classificacao_etaria": "A10",
      "imagem_original": "https://animefire.plus/img/animes/popolocrois.webp",
      "imagem_pasta": "https://animefire.plus/img/animes/popolocrois/",
      "secao": "legendados",
      "pagina": 164,
      "total_episodios": 26,
      "link_video": "https://animefire.plus/video/popolocrois"
    },
    {
      "id": 3013,
      "nome": "Popolocrois Monogatari",
      "link": "https://animefire.plus/animes/popolocrois-monogatari-todos-os-episodios",
      "texto_original": "Popolocrois Monogatari",
      "rating": 7.17,
      "classificacao_etaria": "A10",
      "imagem_original": "https://animefire.plus/img/animes/popolocrois-monogatari.webp",
      "imagem_pasta": "https://animefire.plus/img/animes/popolocrois-monogatari/",
      "secao": "legendados",
      "pagina": 149,
      "total_episodios": 25,
      "link_video": "https://animefire.plus/video/popolocrois-monogatari"
    },
    {
      "id": 3016,
      "nome": "Poputepipikku",
      "link": "https://animefire.plus/animes/poputepipikku-todos-os-episodios",
      "texto_original": "Poputepipikku",
      "rating": 7.33,
      "classificacao_etaria": "A14",
      "imagem_original": "https://animefire.plus/img/animes/poputepipikku.webp",
      "imagem_pasta": "https://animefire.plus/img/animes/poputepipikku/",
      "secao": "legendados",
      "pagina": 155,
      "total_episodios": 12,
      "link_video": "https://animefire.plus/video/poputepipikku"
    },
    {
      "id": 3017,
      "nome": "Poputepipikku 2nd Season",
      "link": "https://animefire.plus/animes/poputepipikku-2nd-season-todos-os-episodios",
      "texto_original": "Poputepipikku 2nd Season",
      "rating": 7.53,
      "classificacao_etaria": "A14",
      "imagem_original": "https://animefire.plus/img/animes/poputepipikku-2nd-season.webp",
      "imagem_pasta": "https://animefire.plus/img/animes/poputepipikku-2nd-season/",
      "secao": "legendados",
      "pagina": 28,
      "total_episodios": 12,
      "link_video": "https://animefire.plus/video/poputepipikku-2nd-season"
    },
    {
      "id": 3020,
      "nome": "Poyopoyo Kansatsu Nikki",
      "link": "https://animefire.plus/animes/poyopoyo-kansatsu-nikki-todos-os-episodios",
      "texto_original": "Poyopoyo Kansatsu Nikki",
      "rating": 7.71,
      "classificacao_etaria": "A10",
      "imagem_original": "https://animefire.plus/img/animes/poyopoyo-kansatsu-nikki.webp",
      "imagem_pasta": "https://animefire.plus/img/animes/poyopoyo-kansatsu-nikki/",
      "secao": "legendados",
      "pagina": 74,
      "total_episodios": 52,
      "link_video": "https://animefire.plus/video/poyopoyo-kansatsu-nikki"
    },
    {
      "id": 3023,
      "nome": "Prima Doll",
      "link": "https://animefire.plus/animes/prima-doll-todos-os-episodios",
      "texto_original": "Prima Doll",
      "rating": 7.08,
      "classificacao_etaria": "A14",
      "imagem_original": "https://animefire.plus/img/animes/prima-doll.webp",
      "imagem_pasta": "https://animefire.plus/img/animes/prima-doll/",
      "secao": "legendados",
      "pagina": 31,
      "total_episodios": 12,
      "link_video": "https://animefire.plus/video/prima-doll"
    },
    {
      "id": 3024,
      "nome": "Prince of Stride: Alternative",
      "link": "https://animefire.plus/animes/prince-of-stride-alternative-todos-os-episodios",
      "texto_original": "Prince of Stride: Alternative",
      "rating": 7.01,
      "classificacao_etaria": "A14",
      "imagem_original": "https://animefire.plus/img/animes/prince-of-stride-alternative.webp",
      "imagem_pasta": "https://animefire.plus/img/animes/prince-of-stride-alternative/",
      "secao": "legendados",
      "pagina": 149,
      "total_episodios": 12,
      "link_video": "https://animefire.plus/video/prince-of-stride-alternative"
    },
    {
      "id": 3025,
      "nome": "Princess Connect! Re:Dive",
      "link": "https://animefire.plus/animes/princess-connect-re-dive-todos-os-episodios",
      "texto_original": "Princess Connect! Re:Dive",
      "rating": 7.06,
      "classificacao_etaria": "A14",
      "imagem_original": "https://animefire.plus/img/animes/princess-connect-re-dive.webp",
      "imagem_pasta": "https://animefire.plus/img/animes/princess-connect-re-dive/",
      "secao": "legendados",
      "pagina": 81,
      "total_episodios": 1,
      "link_video": "https://animefire.plus/video/princess-connect-re-dive"
    },
    {
      "id": 3026,
      "nome": "Princess Connect! Re:Dive Season 2",
      "link": "https://animefire.plus/animes/princess-connect-re-dive-season-2-todos-os-episodios",
      "texto_original": "Princess Connect! Re:Dive Season 2",
      "rating": 7.77,
      "classificacao_etaria": "A14",
      "imagem_original": "https://animefire.plus/img/animes/princess-connect-re-dive-season-2.webp",
      "imagem_pasta": "https://animefire.plus/img/animes/princess-connect-re-dive-season-2/",
      "secao": "legendados",
      "pagina": 36,
      "total_episodios": 12,
      "link_video": "https://animefire.plus/video/princess-connect-re-dive-season-2"
    },
    {
      "id": 3029,
      "nome": "Princess Princess",
      "link": "https://animefire.plus/animes/princess-princess-todos-os-episodios",
      "texto_original": "Princess Princess",
      "rating": 7.11,
      "classificacao_etaria": "A14",
      "imagem_original": "https://animefire.plus/img/animes/princess-princess.webp",
      "imagem_pasta": "https://animefire.plus/img/animes/princess-princess/",
      "secao": "legendados",
      "pagina": 118,
      "total_episodios": 12,
      "link_video": "https://animefire.plus/video/princess-princess"
    },
    {
      "id": 3030,
      "nome": "Princess Principal",
      "link": "https://animefire.plus/animes/princess-principal-todos-os-episodios",
      "texto_original": "Princess Principal",
      "rating": 7.7,
      "classificacao_etaria": "A16",
      "imagem_original": "https://animefire.plus/img/animes/princess-principal.webp",
      "imagem_pasta": "https://animefire.plus/img/animes/princess-principal/",
      "secao": "legendados",
      "pagina": 123,
      "total_episodios": 12,
      "link_video": "https://animefire.plus/video/princess-principal"
    },
    {
      "id": 3033,
      "nome": "PriPara",
      "link": "https://animefire.plus/animes/pripara-todos-os-episodios",
      "texto_original": "PriPara",
      "rating": 7.62,
      "classificacao_etaria": "A10",
      "imagem_original": "https://animefire.plus/img/animes/pripara.webp",
      "imagem_pasta": "https://animefire.plus/img/animes/pripara/",
      "secao": "legendados",
      "pagina": 177,
      "total_episodios": 140,
      "link_video": "https://animefire.plus/video/pripara"
    },
    {
      "id": 3036,
      "nome": "Prison School",
      "link": "https://animefire.plus/animes/prison-school-todos-os-episodios",
      "texto_original": "Prison School",
      "rating": 7.85,
      "classificacao_etaria": "A18",
      "imagem_original": "https://animefire.plus/img/animes/prison-school.webp",
      "imagem_pasta": "https://animefire.plus/img/animes/prison-school/",
      "secao": "legendados",
      "pagina": 152,
      "total_episodios": 0,
      "link_video": "https://animefire.plus/video/prison-school"
    }
  ],
  "pagination": {
    "current_page": 64,
    "per_page": 20,
    "total_items": 1905,
    "total_pages": 96,
    "has_next": true,
    "has_prev": true
  }
}
