{
  "message": "Animes com rating entre 7 e 8",
  "rating_range": {
    "min": 7,
    "max": 8
  },
  "data": [
    {
      "id": 734,
      "nome": "Danball Senki W",
      "link": "https://animefire.plus/animes/danball-senki-w-todos-os-episodios",
      "texto_original": "Danball Senki W",
      "rating": 7.24,
      "classificacao_etaria": null,
      "imagem_original": "https://animefire.plus/img/animes/danball-senki-w.webp",
      "imagem_pasta": "https://animefire.plus/img/animes/danball-senki-w/",
      "secao": "legendados",
      "pagina": 127,
      "total_episodios": 1,
      "link_video": "https://animefire.plus/video/danball-senki-w"
    },
    {
      "id": 735,
      "nome": "Dance Dance Danseur (Dublado)",
      "link": "https://animefire.plus/animes/dance-dance-danseur-dublado-todos-os-episodios",
      "texto_original": "Dance Dance Danseur (Dublado)",
      "rating": 7.81,
      "classificacao_etaria": "A14",
      "imagem_original": "https://animefire.plus/img/animes/dance-dance-danseur.webp",
      "imagem_pasta": "https://animefire.plus/img/animes/dance-dance-danseur/",
      "secao": "dublados,legendados",
      "pagina": 11,
      "total_episodios": 11,
      "link_video": "https://animefire.plus/video/dance-dance-danseur-dublado"
    },
    {
      "id": 736,
      "nome": "Dance In The Vampire Bund",
      "link": "https://animefire.plus/animes/dance-in-the-vampire-bund-todos-os-episodios",
      "texto_original": "Dance In The Vampire Bund",
      "rating": 7.13,
      "classificacao_etaria": "A18",
      "imagem_original": "https://animefire.plus/img/animes/dance-in-the-vampire-bund.webp",
      "imagem_pasta": "https://animefire.plus/img/animes/dance-in-the-vampire-bund/",
      "secao": "legendados",
      "pagina": 101,
      "total_episodios": 12,
      "link_video": "https://animefire.plus/video/dance-in-the-vampire-bund"
    },
    {
      "id": 741,
      "nome": "Danganronpa 3: The End of Kibougamine Gakuen - Mirai-hen",
      "link": "https://animefire.plus/animes/danganronpa-3-the-end-of-kibougamine-gakuen---mirai-hen-todos-os-episodios",
      "texto_original": "Danganronpa 3: The End of Kibougamine Gakuen - Mirai-hen",
      "rating": 7.57,
      "classificacao_etaria": "A16",
      "imagem_original": "https://animefire.plus/img/animes/danganronpa-3-the-end-of-kibougamine-gakuen---mirai-hen.webp",
      "imagem_pasta": "https://animefire.plus/img/animes/danganronpa-3-the-end-of-kibougamine-gakuen---mirai-hen/",
      "secao": "legendados",
      "pagina": 155,
      "total_episodios": 0,
      "link_video": "https://animefire.plus/video/danganronpa-3-the-end-of-kibougamine-gakuen---mirai-hen"
    },
    {
      "id": 742,
      "nome": "Danganronpa 3: The End of Kibougamine Gakuen - Zetsubou-hen",
      "link": "https://animefire.plus/animes/danganronpa-3-the-end-of-kibougamine-gakuen---zetsubou-hen-todos-os-episodios",
      "texto_original": "Danganronpa 3: The End of Kibougamine Gakuen - Zetsubou-hen",
      "rating": 7.68,
      "classificacao_etaria": "A16",
      "imagem_original": "https://animefire.plus/img/animes/danganronpa-3-the-end-of-kibougamine-gakuen---zetsubou-hen.webp",
      "imagem_pasta": "https://animefire.plus/img/animes/danganronpa-3-the-end-of-kibougamine-gakuen---zetsubou-hen/",
      "secao": "legendados",
      "pagina": 172,
      "total_episodios": 1,
      "link_video": "https://animefire.plus/video/danganronpa-3-the-end-of-kibougamine-gakuen---zetsubou-hen"
    },
    {
      "id": 743,
      "nome": "Danganronpa: Kibou no Gakuen to Zetsubou no Koukousei The Animation",
      "link": "https://animefire.plus/animes/danganronpa-kibou-no-gakuen-to-zetsubou-no-koukousei-the-animation-todos-os-episodios",
      "texto_original": "Danganronpa: Kibou no Gakuen to Zetsubou no Koukousei The Animation",
      "rating": 7.44,
      "classificacao_etaria": "A16",
      "imagem_original": "https://animefire.plus/img/animes/danganronpa-kibou-no-gakuen-to-zetsubou-no-koukousei-the-animation.webp",
      "imagem_pasta": "https://animefire.plus/img/animes/danganronpa-kibou-no-gakuen-to-zetsubou-no-koukousei-the-animation/",
      "secao": "legendados",
      "pagina": 140,
      "total_episodios": 13,
      "link_video": "https://animefire.plus/video/danganronpa-kibou-no-gakuen-to-zetsubou-no-koukousei-the-animation"
    },
    {
      "id": 745,
      "nome": "Danna ga Nani wo Itteiru ka Wakaranai Ken",
      "link": "https://animefire.plus/animes/danna-ga-nani-wo-itteiru-ka-wakaranai-ken-todos-os-episodios",
      "texto_original": "Danna ga Nani wo Itteiru ka Wakaranai Ken",
      "rating": 7.48,
      "classificacao_etaria": "A14",
      "imagem_original": "https://animefire.plus/img/animes/danna-ga-nani-wo-itteiru-ka-wakaranai-ken.webp",
      "imagem_pasta": "https://animefire.plus/img/animes/danna-ga-nani-wo-itteiru-ka-wakaranai-ken/",
      "secao": "legendados",
      "pagina": 145,
      "total_episodios": 2,
      "link_video": "https://animefire.plus/video/danna-ga-nani-wo-itteiru-ka-wakaranai-ken"
    },
    {
      "id": 746,
      "nome": "Danna ga Nani wo Itteiru ka Wakaranai Ken 2 Sure-me",
      "link": "https://animefire.plus/animes/danna-ga-nani-wo-itteiru-ka-wakaranai-ken-2-sure-me-todos-os-episodios",
      "texto_original": "Danna ga Nani wo Itteiru ka Wakaranai Ken 2 Sure-me",
      "rating": 7.43,
      "classificacao_etaria": "A14",
      "imagem_original": "https://animefire.plus/img/animes/danna-ga-nani-wo-itteiru-ka-wakaranai-ken-2-sure-me.webp",
      "imagem_pasta": "https://animefire.plus/img/animes/danna-ga-nani-wo-itteiru-ka-wakaranai-ken-2-sure-me/",
      "secao": "legendados",
      "pagina": 66,
      "total_episodios": 13,
      "link_video": "https://animefire.plus/video/danna-ga-nani-wo-itteiru-ka-wakaranai-ken-2-sure-me"
    },
    {
      "id": 749,
      "nome": "Dantalian No Shoka",
      "link": "https://animefire.plus/animes/dantalian-no-shoka-todos-os-episodios",
      "texto_original": "Dantalian No Shoka",
      "rating": 7.3,
      "classificacao_etaria": "A16",
      "imagem_original": "https://animefire.plus/img/animes/dantalian-no-shoka.webp",
      "imagem_pasta": "https://animefire.plus/img/animes/dantalian-no-shoka/",
      "secao": "legendados",
      "pagina": 101,
      "total_episodios": 12,
      "link_video": "https://animefire.plus/video/dantalian-no-shoka"
    },
    {
      "id": 750,
      "nome": "Dareka No Manazashi",
      "link": "https://animefire.plus/animes/dareka-no-manazashi-todos-os-episodios",
      "texto_original": "Dareka No Manazashi",
      "rating": 7.45,
      "classificacao_etaria": null,
      "imagem_original": "https://animefire.plus/img/animes/dareka-no-manazashi.webp",
      "imagem_pasta": "https://animefire.plus/img/animes/dareka-no-manazashi/",
      "secao": "legendados",
      "pagina": 101,
      "total_episodios": 1,
      "link_video": "https://animefire.plus/video/dareka-no-manazashi"
    },
    {
      "id": 751,
      "nome": "Dark Gathering",
      "link": "https://animefire.plus/animes/dark-gathering-todos-os-episodios",
      "texto_original": "Dark Gathering",
      "rating": 7.84,
      "classificacao_etaria": "A16",
      "imagem_original": "https://animefire.plus/img/animes/dark-gathering.jpg",
      "imagem_pasta": "https://animefire.plus/img/animes/dark-gathering/",
      "secao": "legendados",
      "pagina": 22,
      "total_episodios": 25,
      "link_video": "https://animefire.plus/video/dark-gathering"
    },
    {
      "id": 753,
      "nome": "Darker than Black: Kuro no Keiyakusha Gaiden",
      "link": "https://animefire.plus/animes/darker-than-black-kuro-no-keiyakusha-gaiden-todos-os-episodios",
      "texto_original": "Darker than Black: Kuro no Keiyakusha Gaiden",
      "rating": 8,
      "classificacao_etaria": "A16",
      "imagem_original": "https://animefire.plus/img/animes/darker-than-black-kuro-no-keiyakusha-gaiden.webp",
      "imagem_pasta": "https://animefire.plus/img/animes/darker-than-black-kuro-no-keiyakusha-gaiden/",
      "secao": "legendados",
      "pagina": 69,
      "total_episodios": 1,
      "link_video": "https://animefire.plus/video/darker-than-black-kuro-no-keiyakusha-gaiden"
    },
    {
      "id": 754,
      "nome": "Darker than Black: Ryuusei no Gemini",
      "link": "https://animefire.plus/animes/darker-than-black-ryuusei-no-gemini-todos-os-episodios",
      "texto_original": "Darker than Black: Ryuusei no Gemini",
      "rating": 7.54,
      "classificacao_etaria": "A16",
      "imagem_original": "https://animefire.plus/img/animes/darker-than-black-ryuusei-no-gemini.webp",
      "imagem_pasta": "https://animefire.plus/img/animes/darker-than-black-ryuusei-no-gemini/",
      "secao": "legendados",
      "pagina": 152,
      "total_episodios": 12,
      "link_video": "https://animefire.plus/video/darker-than-black-ryuusei-no-gemini"
    },
    {
      "id": 755,
      "nome": "Darling in the FranXX (Dublado)",
      "link": "https://animefire.plus/animes/darling-in-the-franxx-dublado-todos-os-episodios",
      "texto_original": "Darling in the FranXX (Dublado)",
      "rating": 7.52,
      "classificacao_etaria": "A14",
      "imagem_original": "https://animefire.plus/img/animes/darling-in-the-franxx.webp",
      "imagem_pasta": "https://animefire.plus/img/animes/darling-in-the-franxx/",
      "secao": "dublados,legendados",
      "pagina": 26,
      "total_episodios": 0,
      "link_video": "https://animefire.plus/video/darling-in-the-franxx-dublado"
    },
    {
      "id": 756,
      "nome": "Darwin's Game",
      "link": "https://animefire.plus/animes/darwin-s-game-todos-os-episodios",
      "texto_original": "Darwin's Game",
      "rating": 7.3,
      "classificacao_etaria": "A16",
      "imagem_original": "https://animefire.plus/img/animes/darwin-s-game.webp",
      "imagem_pasta": "https://animefire.plus/img/animes/darwin-s-game/",
      "secao": "legendados",
      "pagina": 93,
      "total_episodios": 10,
      "link_video": "https://animefire.plus/video/darwin-s-game"
    },
    {
      "id": 757,
      "nome": "Date A Live",
      "link": "https://animefire.plus/animes/date-a-live-todos-os-episodios",
      "texto_original": "Date A Live",
      "rating": 7.41,
      "classificacao_etaria": "A16",
      "imagem_original": "https://animefire.plus/img/animes/date-a-live.webp",
      "imagem_pasta": "https://animefire.plus/img/animes/date-a-live/",
      "secao": "legendados",
      "pagina": 132,
      "total_episodios": 5,
      "link_video": "https://animefire.plus/video/date-a-live"
    },
    {
      "id": 758,
      "nome": "Date A Live II (Dublado)",
      "link": "https://animefire.plus/animes/date-a-live-ii-dublado-todos-os-episodios",
      "texto_original": "Date A Live II (Dublado)",
      "rating": 7.2,
      "classificacao_etaria": "A16",
      "imagem_original": "https://animefire.plus/img/animes/date-a-live-ii.webp",
      "imagem_pasta": "https://animefire.plus/img/animes/date-a-live-ii/",
      "secao": "dublados,legendados",
      "pagina": 9,
      "total_episodios": 7,
      "link_video": "https://animefire.plus/video/date-a-live-ii-dublado"
    },
    {
      "id": 759,
      "nome": "Date A Live III (Dublado)",
      "link": "https://animefire.plus/animes/date-a-live-iii-dublado-todos-os-episodios",
      "texto_original": "Date A Live III (Dublado)",
      "rating": 7.19,
      "classificacao_etaria": "A16",
      "imagem_original": "https://animefire.plus/img/animes/date-a-live-iii.webp",
      "imagem_pasta": "https://animefire.plus/img/animes/date-a-live-iii/",
      "secao": "dublados,legendados",
      "pagina": 8,
      "total_episodios": 12,
      "link_video": "https://animefire.plus/video/date-a-live-iii-dublado"
    },
    {
      "id": 760,
      "nome": "Date A Live IV",
      "link": "https://animefire.plus/animes/date-a-live-iv-todos-os-episodios",
      "texto_original": "Date A Live IV",
      "rating": 7.74,
      "classificacao_etaria": "A16",
      "imagem_original": "https://animefire.plus/img/animes/date-a-live-iv.webp",
      "imagem_pasta": "https://animefire.plus/img/animes/date-a-live-iv/",
      "secao": "legendados,lancamentos",
      "pagina": 39,
      "total_episodios": 5,
      "link_video": "https://animefire.plus/video/date-a-live-iv"
    },
    {
      "id": 761,
      "nome": "Date A Live V",
      "link": "https://animefire.plus/animes/date-a-live-v-todos-os-episodios",
      "texto_original": "Date A Live V",
      "rating": 7.69,
      "classificacao_etaria": "A16",
      "imagem_original": "https://animefire.plus/img/animes/date-a-live-v.webp",
      "imagem_pasta": "https://animefire.plus/img/animes/date-a-live-v/",
      "secao": "legendados",
      "pagina": 15,
      "total_episodios": 12,
      "link_video": "https://animefire.plus/video/date-a-live-v"
    }
  ],
  "pagination": {
    "current_page": 15,
    "per_page": 20,
    "total_items": 1905,
    "total_pages": 96,
    "has_next": true,
    "has_prev": true
  }
}
