{
  "message": "Animes com rating entre 7 e 8",
  "rating_range": {
    "min": 7,
    "max": 8
  },
  "data": [
    {
      "id": 58,
      "nome": "ACCA: 13-ku Kansatsu-ka - Regards",
      "link": "https://animefire.plus/animes/acca-13-ku-kansatsu-ka---regards-todos-os-episodios",
      "texto_original": "ACCA: 13-ku Kansatsu-ka - Regards",
      "rating": 7.14,
      "classificacao_etaria": "A14",
      "imagem_original": "https://animefire.plus/img/animes/acca-13-ku-kansatsu-ka---regards.webp",
      "imagem_pasta": "https://animefire.plus/img/animes/acca-13-ku-kansatsu-ka---regards/",
      "secao": "legendados",
      "pagina": 71,
      "total_episodios": 1,
      "link_video": "https://animefire.plus/video/acca-13-ku-kansatsu-ka---regards"
    },
    {
      "id": 59,
      "nome": "Accel World",
      "link": "https://animefire.plus/animes/accel-world-todos-os-episodios",
      "texto_original": "Accel World",
      "rating": 7.47,
      "classificacao_etaria": "A14",
      "imagem_original": "https://animefire.plus/img/animes/accel-world.webp",
      "imagem_pasta": "https://animefire.plus/img/animes/accel-world/",
      "secao": "legendados",
      "pagina": 164,
      "total_episodios": 0,
      "link_video": "https://animefire.plus/video/accel-world"
    },
    {
      "id": 60,
      "nome": "Acchi Kocchi (TV)",
      "link": "https://animefire.plus/animes/acchi-kocchi-tv-todos-os-episodios",
      "texto_original": "Acchi Kocchi (TV)",
      "rating": 7.59,
      "classificacao_etaria": "A14",
      "imagem_original": "https://animefire.plus/img/animes/acchi-kocchi-tv.webp",
      "imagem_pasta": "https://animefire.plus/img/animes/acchi-kocchi-tv/",
      "secao": "legendados",
      "pagina": 154,
      "total_episodios": 0,
      "link_video": "https://animefire.plus/video/acchi-kocchi-tv"
    },
    {
      "id": 61,
      "nome": "Ace wo Nerae!",
      "link": "https://animefire.plus/animes/ace-wo-nerae-todos-os-episodios",
      "texto_original": "Ace wo Nerae!",
      "rating": 7.01,
      "classificacao_etaria": "A14",
      "imagem_original": "https://animefire.plus/img/animes/ace-wo-nerae.webp",
      "imagem_pasta": "https://animefire.plus/img/animes/ace-wo-nerae/",
      "secao": "legendados",
      "pagina": 72,
      "total_episodios": 26,
      "link_video": "https://animefire.plus/video/ace-wo-nerae"
    },
    {
      "id": 66,
      "nome": "Adachi to Shimamura (Dublado)",
      "link": "https://animefire.plus/animes/adachi-to-shimamura-dublado-todos-os-episodios",
      "texto_original": "Adachi to Shimamura (Dublado)",
      "rating": 7.13,
      "classificacao_etaria": "A14",
      "imagem_original": "https://animefire.plus/img/animes/adachi-to-shimamura.webp",
      "imagem_pasta": "https://animefire.plus/img/animes/adachi-to-shimamura/",
      "secao": "dublados,legendados",
      "pagina": 15,
      "total_episodios": 12,
      "link_video": "https://animefire.plus/video/adachi-to-shimamura-dublado"
    },
    {
      "id": 69,
      "nome": "Afro Samurai (Dublado)",
      "link": "https://animefire.plus/animes/afro-samurai-dublado-todos-os-episodios",
      "texto_original": "Afro Samurai (Dublado)",
      "rating": 7.37,
      "classificacao_etaria": "A18",
      "imagem_original": "https://animefire.plus/img/animes/afro-samurai.webp",
      "imagem_pasta": "https://animefire.plus/img/animes/afro-samurai/",
      "secao": "dublados,legendados",
      "pagina": 23,
      "total_episodios": 5,
      "link_video": "https://animefire.plus/video/afro-samurai-dublado"
    },
    {
      "id": 70,
      "nome": "After War Gundam X",
      "link": "https://animefire.plus/animes/after-war-gundam-x-todos-os-episodios",
      "texto_original": "After War Gundam X",
      "rating": 7.37,
      "classificacao_etaria": "A14",
      "imagem_original": "https://animefire.plus/img/animes/after-war-gundam-x.webp",
      "imagem_pasta": "https://animefire.plus/img/animes/after-war-gundam-x/",
      "secao": "legendados",
      "pagina": 168,
      "total_episodios": 39,
      "link_video": "https://animefire.plus/video/after-war-gundam-x"
    },
    {
      "id": 72,
      "nome": "Aggressive Retsuko (ONA) (Dublado)",
      "link": "https://animefire.plus/animes/aggressive-retsuko-ona-dublado-todos-os-episodios",
      "texto_original": "Aggressive Retsuko (ONA) (Dublado)",
      "rating": 7.77,
      "classificacao_etaria": "A14",
      "imagem_original": "https://animefire.plus/img/animes/aggressive-retsuko-ona.webp",
      "imagem_pasta": "https://animefire.plus/img/animes/aggressive-retsuko-ona/",
      "secao": "dublados,legendados",
      "pagina": 24,
      "total_episodios": 10,
      "link_video": "https://animefire.plus/video/aggressive-retsuko-ona-dublado"
    },
    {
      "id": 73,
      "nome": "Aggressive Retsuko (ONA) 2nd Season (Dublado)",
      "link": "https://animefire.plus/animes/aggressive-retsuko-ona-2nd-season-dublado-todos-os-episodios",
      "texto_original": "Aggressive Retsuko (ONA) 2nd Season (Dublado)",
      "rating": 7.8,
      "classificacao_etaria": "A14",
      "imagem_original": "https://animefire.plus/img/animes/aggressive-retsuko-ona-2nd-season.webp",
      "imagem_pasta": "https://animefire.plus/img/animes/aggressive-retsuko-ona-2nd-season/",
      "secao": "dublados,legendados",
      "pagina": 20,
      "total_episodios": 10,
      "link_video": "https://animefire.plus/video/aggressive-retsuko-ona-2nd-season-dublado"
    },
    {
      "id": 74,
      "nome": "Aggressive Retsuko: We Wish You a Metal Christmas (Dublado)",
      "link": "https://animefire.plus/animes/aggressive-retsuko-we-wish-you-a-metal-christmas-dublado-todos-os-episodios",
      "texto_original": "Aggressive Retsuko: We Wish You a Metal Christmas (Dublado)",
      "rating": 7.33,
      "classificacao_etaria": "A14",
      "imagem_original": "https://animefire.plus/img/animes/aggressive-retsuko-we-wish-you-a-metal-christmas.webp",
      "imagem_pasta": "https://animefire.plus/img/animes/aggressive-retsuko-we-wish-you-a-metal-christmas/",
      "secao": "dublados,legendados",
      "pagina": 24,
      "total_episodios": 1,
      "link_video": "https://animefire.plus/video/aggressive-retsuko-we-wish-you-a-metal-christmas-dublado"
    },
    {
      "id": 76,
      "nome": "Aharen-san wa Hakarenai",
      "link": "https://animefire.plus/animes/aharen-san-wa-hakarenai-todos-os-episodios",
      "texto_original": "Aharen-san wa Hakarenai",
      "rating": 7.28,
      "classificacao_etaria": "A14",
      "imagem_original": "https://animefire.plus/img/animes/aharen-san-wa-hakarenai.webp",
      "imagem_pasta": "https://animefire.plus/img/animes/aharen-san-wa-hakarenai/",
      "secao": "legendados",
      "pagina": 34,
      "total_episodios": 12,
      "link_video": "https://animefire.plus/video/aharen-san-wa-hakarenai"
    },
    {
      "id": 77,
      "nome": "Aharen-san wa Hakarenai Season 2",
      "link": "https://animefire.plus/animes/aharen-san-wa-hakarenai-season-2-todos-os-episodios",
      "texto_original": "Aharen-san wa Hakarenai Season 2",
      "rating": 7.49,
      "classificacao_etaria": "A14",
      "imagem_original": "https://animefire.plus/img/animes/aharen-san-wa-hakarenai-season-2.webp",
      "imagem_pasta": "https://animefire.plus/img/animes/aharen-san-wa-hakarenai-season-2/",
      "secao": "legendados",
      "pagina": 6,
      "total_episodios": 12,
      "link_video": "https://animefire.plus/video/aharen-san-wa-hakarenai-season-2"
    },
    {
      "id": 78,
      "nome": "Ahiru no Sora",
      "link": "https://animefire.plus/animes/ahiru-no-sora-todos-os-episodios",
      "texto_original": "Ahiru no Sora",
      "rating": 7.36,
      "classificacao_etaria": "A14",
      "imagem_original": "https://animefire.plus/img/animes/ahiru-no-sora.webp",
      "imagem_pasta": "https://animefire.plus/img/animes/ahiru-no-sora/",
      "secao": "legendados",
      "pagina": 111,
      "total_episodios": 15,
      "link_video": "https://animefire.plus/video/ahiru-no-sora"
    },
    {
      "id": 79,
      "nome": "Aho Girl",
      "link": "https://animefire.plus/animes/aho-girl-todos-os-episodios",
      "texto_original": "Aho Girl",
      "rating": 7.14,
      "classificacao_etaria": "A14",
      "imagem_original": "https://animefire.plus/img/animes/aho-girl.webp",
      "imagem_pasta": "https://animefire.plus/img/animes/aho-girl/",
      "secao": "legendados",
      "pagina": 167,
      "total_episodios": 12,
      "link_video": "https://animefire.plus/video/aho-girl"
    },
    {
      "id": 87,
      "nome": "Ai Yori Aoshi",
      "link": "https://animefire.plus/animes/ai-yori-aoshi-todos-os-episodios",
      "texto_original": "Ai Yori Aoshi",
      "rating": 7.19,
      "classificacao_etaria": "A14",
      "imagem_original": "https://animefire.plus/img/animes/ai-yori-aoshi.webp",
      "imagem_pasta": "https://animefire.plus/img/animes/ai-yori-aoshi/",
      "secao": "legendados",
      "pagina": 166,
      "total_episodios": 24,
      "link_video": "https://animefire.plus/video/ai-yori-aoshi"
    },
    {
      "id": 88,
      "nome": "Ai Yori Aoshi: Enishi",
      "link": "https://animefire.plus/animes/ai-yori-aoshi-enishi-todos-os-episodios",
      "texto_original": "Ai Yori Aoshi: Enishi",
      "rating": 7.21,
      "classificacao_etaria": "A14",
      "imagem_original": "https://animefire.plus/img/animes/ai-yori-aoshi-enishi.webp",
      "imagem_pasta": "https://animefire.plus/img/animes/ai-yori-aoshi-enishi/",
      "secao": "legendados",
      "pagina": 118,
      "total_episodios": 12,
      "link_video": "https://animefire.plus/video/ai-yori-aoshi-enishi"
    },
    {
      "id": 93,
      "nome": "Aikatsu Friends!",
      "link": "https://animefire.plus/animes/aikatsu-friends-todos-os-episodios",
      "texto_original": "Aikatsu Friends!",
      "rating": 7.55,
      "classificacao_etaria": "A10",
      "imagem_original": "https://animefire.plus/img/animes/aikatsu-friends.webp",
      "imagem_pasta": "https://animefire.plus/img/animes/aikatsu-friends/",
      "secao": "legendados",
      "pagina": 168,
      "total_episodios": 22,
      "link_video": "https://animefire.plus/video/aikatsu-friends"
    },
    {
      "id": 95,
      "nome": "Aikatsu Stars!",
      "link": "https://animefire.plus/animes/aikatsu-stars-todos-os-episodios",
      "texto_original": "Aikatsu Stars!",
      "rating": 7.63,
      "classificacao_etaria": "A10",
      "imagem_original": "https://animefire.plus/img/animes/aikatsu-stars.webp",
      "imagem_pasta": "https://animefire.plus/img/animes/aikatsu-stars/",
      "secao": "legendados",
      "pagina": 88,
      "total_episodios": 100,
      "link_video": "https://animefire.plus/video/aikatsu-stars"
    },
    {
      "id": 96,
      "nome": "Aikatsu!",
      "link": "https://animefire.plus/animes/aikatsu-todos-os-episodios",
      "texto_original": "Aikatsu!",
      "rating": 7.45,
      "classificacao_etaria": "A10",
      "imagem_original": "https://animefire.plus/img/animes/aikatsu.webp",
      "imagem_pasta": "https://animefire.plus/img/animes/aikatsu/",
      "secao": "legendados",
      "pagina": 178,
      "total_episodios": 26,
      "link_video": "https://animefire.plus/video/aikatsu"
    },
    {
      "id": 97,
      "nome": "Aikatsu!: Nerawareta Mahou no Aikatsu! Card",
      "link": "https://animefire.plus/animes/aikatsu-nerawareta-mahou-no-aikatsu-card-todos-os-episodios",
      "texto_original": "Aikatsu!: Nerawareta Mahou no Aikatsu! Card",
      "rating": 7.29,
      "classificacao_etaria": "A10",
      "imagem_original": "https://animefire.plus/img/animes/aikatsu-nerawareta-mahou-no-aikatsu-card.webp",
      "imagem_pasta": "https://animefire.plus/img/animes/aikatsu-nerawareta-mahou-no-aikatsu-card/",
      "secao": "legendados",
      "pagina": 88,
      "total_episodios": 1,
      "link_video": "https://animefire.plus/video/aikatsu-nerawareta-mahou-no-aikatsu-card"
    }
  ],
  "pagination": {
    "current_page": 2,
    "per_page": 20,
    "total_items": 1905,
    "total_pages": 96,
    "has_next": true,
    "has_prev": true
  }
}
