{
  "message": "Animes com rating entre 7 e 8",
  "rating_range": {
    "min": 7,
    "max": 8
  },
  "data": [
    {
      "id": 3171,
      "nome": "Ryuu no Haisha",
      "link": "https://animefire.plus/animes/ryuu-no-haisha-todos-os-episodios",
      "texto_original": "Ryuu no Haisha",
      "rating": 7.46,
      "classificacao_etaria": "A14",
      "imagem_original": "https://animefire.plus/img/animes/ryuu-no-haisha.webp",
      "imagem_pasta": "https://animefire.plus/img/animes/ryuu-no-haisha/",
      "secao": "legendados",
      "pagina": 71,
      "total_episodios": 1,
      "link_video": "https://animefire.plus/video/ryuu-no-haisha"
    },
    {
      "id": 3172,
      "nome": "Ryuugajou Nanana no Maizoukin",
      "link": "https://animefire.plus/animes/ryuugajou-nanana-no-maizoukin-todos-os-episodios",
      "texto_original": "Ryuugajou Nanana no Maizoukin",
      "rating": 7.27,
      "classificacao_etaria": "A14",
      "imagem_original": "https://animefire.plus/img/animes/ryuugajou-nanana-no-maizoukin.webp",
      "imagem_pasta": "https://animefire.plus/img/animes/ryuugajou-nanana-no-maizoukin/",
      "secao": "legendados",
      "pagina": 163,
      "total_episodios": 11,
      "link_video": "https://animefire.plus/video/ryuugajou-nanana-no-maizoukin"
    },
    {
      "id": 3173,
      "nome": "Ryuuou no Oshigoto!",
      "link": "https://animefire.plus/animes/ryuuou-no-oshigoto-todos-os-episodios",
      "texto_original": "Ryuuou no Oshigoto!",
      "rating": 7.05,
      "classificacao_etaria": "A14",
      "imagem_original": "https://animefire.plus/img/animes/ryuuou-no-oshigoto.webp",
      "imagem_pasta": "https://animefire.plus/img/animes/ryuuou-no-oshigoto/",
      "secao": "legendados",
      "pagina": 102,
      "total_episodios": 12,
      "link_video": "https://animefire.plus/video/ryuuou-no-oshigoto"
    },
    {
      "id": 3174,
      "nome": "Ryuusei no Rockman",
      "link": "https://animefire.plus/animes/ryuusei-no-rockman-todos-os-episodios",
      "texto_original": "Ryuusei no Rockman",
      "rating": 7.21,
      "classificacao_etaria": "A10",
      "imagem_original": "https://animefire.plus/img/animes/ryuusei-no-rockman.webp",
      "imagem_pasta": "https://animefire.plus/img/animes/ryuusei-no-rockman/",
      "secao": "legendados",
      "pagina": 161,
      "total_episodios": 54,
      "link_video": "https://animefire.plus/video/ryuusei-no-rockman"
    },
    {
      "id": 3179,
      "nome": "s.CRY.ed",
      "link": "https://animefire.plus/animes/s-cry-ed-todos-os-episodios",
      "texto_original": "s.CRY.ed",
      "rating": 7.42,
      "classificacao_etaria": "A14",
      "imagem_original": "https://animefire.plus/img/animes/s-cry-ed.webp",
      "imagem_pasta": "https://animefire.plus/img/animes/s-cry-ed/",
      "secao": "legendados",
      "pagina": 175,
      "total_episodios": 25,
      "link_video": "https://animefire.plus/video/s-cry-ed"
    },
    {
      "id": 3180,
      "nome": "Sabage-bu!",
      "link": "https://animefire.plus/animes/sabage-bu-todos-os-episodios",
      "texto_original": "Sabage-bu!",
      "rating": 7.43,
      "classificacao_etaria": "A14",
      "imagem_original": "https://animefire.plus/img/animes/sabage-bu.webp",
      "imagem_pasta": "https://animefire.plus/img/animes/sabage-bu/",
      "secao": "legendados",
      "pagina": 111,
      "total_episodios": 12,
      "link_video": "https://animefire.plus/video/sabage-bu"
    },
    {
      "id": 3181,
      "nome": "Sabage-bu! Specials",
      "link": "https://animefire.plus/animes/sabage-bu-specials-todos-os-episodios",
      "texto_original": "Sabage-bu! Specials",
      "rating": 7.32,
      "classificacao_etaria": "A14",
      "imagem_original": "https://animefire.plus/img/animes/sabage-bu-specials.webp",
      "imagem_pasta": "https://animefire.plus/img/animes/sabage-bu-specials/",
      "secao": "legendados",
      "pagina": 85,
      "total_episodios": 6,
      "link_video": "https://animefire.plus/video/sabage-bu-specials"
    },
    {
      "id": 3182,
      "nome": "Saber Marionette J (Dublado)",
      "link": "https://animefire.plus/animes/saber-marionette-j-dublado-todos-os-episodios",
      "texto_original": "Saber Marionette J (Dublado)",
      "rating": 7.37,
      "classificacao_etaria": "A14",
      "imagem_original": "https://animefire.plus/img/animes/saber-marionette-j.webp",
      "imagem_pasta": "https://animefire.plus/img/animes/saber-marionette-j/",
      "secao": "dublados,legendados",
      "pagina": 21,
      "total_episodios": 24,
      "link_video": "https://animefire.plus/video/saber-marionette-j-dublado"
    },
    {
      "id": 3184,
      "nome": "Sabikui Bisco (Dublado)",
      "link": "https://animefire.plus/animes/sabikui-bisco-dublado-todos-os-episodios",
      "texto_original": "Sabikui Bisco (Dublado)",
      "rating": 7.14,
      "classificacao_etaria": "A14",
      "imagem_original": "https://animefire.plus/img/animes/sabikui-bisco.webp",
      "imagem_pasta": "https://animefire.plus/img/animes/sabikui-bisco/",
      "secao": "dublados,legendados",
      "pagina": 12,
      "total_episodios": 12,
      "link_video": "https://animefire.plus/video/sabikui-bisco-dublado"
    },
    {
      "id": 3186,
      "nome": "Saenai Heroine no Sodatekata",
      "link": "https://animefire.plus/animes/saekano-how-to-raise-a-boring-girlfriend-todos-os-episodios",
      "texto_original": "Saenai Heroine no Sodatekata",
      "rating": 7.58,
      "classificacao_etaria": "A14",
      "imagem_original": "https://animefire.plus/img/animes/saekano-how-to-raise-a-boring-girlfriend.webp",
      "imagem_pasta": "https://animefire.plus/img/animes/saekano-how-to-raise-a-boring-girlfriend/",
      "secao": "legendados",
      "pagina": 62,
      "total_episodios": 13,
      "link_video": "https://animefire.plus/video/saekano-how-to-raise-a-boring-girlfriend"
    },
    {
      "id": 3187,
      "nome": "Saenai Heroine no Sodatekata ♭",
      "link": "https://animefire.plus/animes/saenai-heroine-no-sodatekata-todos-os-episodios",
      "texto_original": "Saenai Heroine no Sodatekata ♭",
      "rating": 7.87,
      "classificacao_etaria": "A14",
      "imagem_original": "https://animefire.plus/img/animes/saenai-heroine-no-sodatekata.webp",
      "imagem_pasta": "https://animefire.plus/img/animes/saenai-heroine-no-sodatekata/",
      "secao": "legendados",
      "pagina": 145,
      "total_episodios": 11,
      "link_video": "https://animefire.plus/video/saenai-heroine-no-sodatekata"
    },
    {
      "id": 3189,
      "nome": "Saihate no Paladin: Tetsusabi no Yama no Ou (Dublado)",
      "link": "https://animefire.plus/animes/saihate-no-paladin-tetsusabi-no-yama-no-ou-dublado-todos-os-episodios",
      "texto_original": "Saihate no Paladin: Tetsusabi no Yama no Ou (Dublado)",
      "rating": 7.43,
      "classificacao_etaria": "A14",
      "imagem_original": "https://animefire.plus/img/animes/saihate-no-paladin-tetsusabi-no-yama-no-ou.webp",
      "imagem_pasta": "https://animefire.plus/img/animes/saihate-no-paladin-tetsusabi-no-yama-no-ou/",
      "secao": "dublados,legendados",
      "pagina": 5,
      "total_episodios": 12,
      "link_video": "https://animefire.plus/video/saihate-no-paladin-tetsusabi-no-yama-no-ou-dublado"
    },
    {
      "id": 3191,
      "nome": "Saijaku Tamer wa Gomi Hiroi no Tabi wo Hajimemashita. (Dublado)",
      "link": "https://animefire.plus/animes/saijaku-tamer-wa-gomi-hiroi-no-tabi-wo-hajimemashita-dublado-todos-os-episodios",
      "texto_original": "Saijaku Tamer wa Gomi Hiroi no Tabi wo Hajimemashita. (Dublado)",
      "rating": 7.56,
      "classificacao_etaria": "A14",
      "imagem_original": "https://animefire.plus/img/animes/saijaku-tamer-wa-gomi-hiroi-no-tabi-wo-hajimemashita.webp",
      "imagem_pasta": "https://animefire.plus/img/animes/saijaku-tamer-wa-gomi-hiroi-no-tabi-wo-hajimemashita/",
      "secao": "dublados,legendados",
      "pagina": 4,
      "total_episodios": 12,
      "link_video": "https://animefire.plus/video/saijaku-tamer-wa-gomi-hiroi-no-tabi-wo-hajimemashita-dublado"
    },
    {
      "id": 3199,
      "nome": "Saikyou no Shienshoku \"Wajutsushi\" de Aru Ore wa Sekai Saikyou Clan wo Shitagaeru",
      "link": "https://animefire.plus/animes/saikyou-no-shienshoku-wajutsushi-de-aru-ore-wa-sekai-saikyou-clan-wo-shitagaeru-todos-os-episodios",
      "texto_original": "Saikyou no Shienshoku \"Wajutsushi\" de Aru Ore wa Sekai Saikyou Clan wo Shitagaeru",
      "rating": 7.6,
      "classificacao_etaria": "A14",
      "imagem_original": "https://animefire.plus/img/animes/saikyou-no-shienshoku-wajutsushi-de-aru-ore-wa-sekai-saikyou-clan-wo-shitagaeru.webp",
      "imagem_pasta": "https://animefire.plus/img/animes/saikyou-no-shienshoku-wajutsushi-de-aru-ore-wa-sekai-saikyou-clan-wo-shitagaeru/",
      "secao": "legendados",
      "pagina": 11,
      "total_episodios": 12,
      "link_video": "https://animefire.plus/video/saikyou-no-shienshoku-wajutsushi-de-aru-ore-wa-sekai-saikyou-clan-wo-shitagaeru"
    },
    {
      "id": 3200,
      "nome": "Saikyou Onmyouji no Isekai Tenseiki",
      "link": "https://animefire.plus/animes/saikyou-onmyouji-no-isekai-tenseiki-todos-os-episodios",
      "texto_original": "Saikyou Onmyouji no Isekai Tenseiki",
      "rating": 7.11,
      "classificacao_etaria": "A14",
      "imagem_original": "https://animefire.plus/img/animes/saikyou-onmyouji-no-isekai-tenseiki.webp",
      "imagem_pasta": "https://animefire.plus/img/animes/saikyou-onmyouji-no-isekai-tenseiki/",
      "secao": "legendados",
      "pagina": 27,
      "total_episodios": 13,
      "link_video": "https://animefire.plus/video/saikyou-onmyouji-no-isekai-tenseiki"
    },
    {
      "id": 3205,
      "nome": "Saint Seiya (Dublado)",
      "link": "https://animefire.plus/animes/saint-seiya-dublado-todos-os-episodios",
      "texto_original": "Saint Seiya (Dublado)",
      "rating": 7.92,
      "classificacao_etaria": "A14",
      "imagem_original": "https://animefire.plus/img/animes/saint-seiya.webp",
      "imagem_pasta": "https://animefire.plus/img/animes/saint-seiya/",
      "secao": "dublados,legendados",
      "pagina": 28,
      "total_episodios": 145,
      "link_video": "https://animefire.plus/video/saint-seiya-dublado"
    },
    {
      "id": 3208,
      "nome": "Saint Seiya: Meiou Hades Elysion-hen",
      "link": "https://animefire.plus/animes/saint-seiya-meiou-hades-elysion-hen-todos-os-episodios",
      "texto_original": "Saint Seiya: Meiou Hades Elysion-hen",
      "rating": 7.62,
      "classificacao_etaria": "A14",
      "imagem_original": "https://animefire.plus/img/animes/saint-seiya-meiou-hades-elysion-hen.webp",
      "imagem_pasta": "https://animefire.plus/img/animes/saint-seiya-meiou-hades-elysion-hen/",
      "secao": "legendados",
      "pagina": 71,
      "total_episodios": 6,
      "link_video": "https://animefire.plus/video/saint-seiya-meiou-hades-elysion-hen"
    },
    {
      "id": 3209,
      "nome": "Saint Seiya: Meiou Hades Meikai-hen",
      "link": "https://animefire.plus/animes/saint-seiya-meiou-hades-meikai-hen-todos-os-episodios",
      "texto_original": "Saint Seiya: Meiou Hades Meikai-hen",
      "rating": 7.79,
      "classificacao_etaria": "A14",
      "imagem_original": "https://animefire.plus/img/animes/saint-seiya-meiou-hades-meikai-hen.webp",
      "imagem_pasta": "https://animefire.plus/img/animes/saint-seiya-meiou-hades-meikai-hen/",
      "secao": "legendados",
      "pagina": 64,
      "total_episodios": 12,
      "link_video": "https://animefire.plus/video/saint-seiya-meiou-hades-meikai-hen"
    },
    {
      "id": 3211,
      "nome": "Saint Seiya: Soul of Gold (Dublado)",
      "link": "https://animefire.plus/animes/saint-seiya-soul-of-gold-dublado-todos-os-episodios",
      "texto_original": "Saint Seiya: Soul of Gold (Dublado)",
      "rating": 7.07,
      "classificacao_etaria": "A14",
      "imagem_original": "https://animefire.plus/img/animes/saint-seiya-soul-of-gold.webp",
      "imagem_pasta": "https://animefire.plus/img/animes/saint-seiya-soul-of-gold/",
      "secao": "dublados",
      "pagina": 20,
      "total_episodios": 13,
      "link_video": "https://animefire.plus/video/saint-seiya-soul-of-gold-dublado"
    },
    {
      "id": 3212,
      "nome": "Saint Seiya: The Lost Canvas - Meiou Shinwa (Dublado)",
      "link": "https://animefire.plus/animes/saint-seiya-the-lost-canvas---meiou-shinwa-dublado-todos-os-episodios",
      "texto_original": "Saint Seiya: The Lost Canvas - Meiou Shinwa (Dublado)",
      "rating": 7.98,
      "classificacao_etaria": "A14",
      "imagem_original": "https://animefire.plus/img/animes/saint-seiya-the-lost-canvas---meiou-shinwa.webp",
      "imagem_pasta": "https://animefire.plus/img/animes/saint-seiya-the-lost-canvas---meiou-shinwa/",
      "secao": "dublados,legendados",
      "pagina": 17,
      "total_episodios": 13,
      "link_video": "https://animefire.plus/video/saint-seiya-the-lost-canvas---meiou-shinwa-dublado"
    }
  ],
  "pagination": {
    "current_page": 68,
    "per_page": 20,
    "total_items": 1905,
    "total_pages": 96,
    "has_next": true,
    "has_prev": true
  }
}
