{
  "message": "Animes com rating entre 7 e 8",
  "rating_range": {
    "min": 7,
    "max": 8
  },
  "data": [
    {
      "id": 3715,
      "nome": "Taishou Otome Otogibanashi",
      "link": "https://animefire.plus/animes/taishou-otome-otogibanashi-todos-os-episodios",
      "texto_original": "Taishou Otome Otogibanashi",
      "rating": 7.79,
      "classificacao_etaria": "A14",
      "imagem_original": "https://animefire.plus/img/animes/taishou-otome-otogibanashi.webp",
      "imagem_pasta": "https://animefire.plus/img/animes/taishou-otome-otogibanashi/",
      "secao": "legendados",
      "pagina": 38,
      "total_episodios": 12,
      "link_video": "https://animefire.plus/video/taishou-otome-otogibanashi"
    },
    {
      "id": 3716,
      "nome": "Taishou Yakyuu Musume.",
      "link": "https://animefire.plus/animes/taishou-yakyuu-musume-todos-os-episodios",
      "texto_original": "Taishou Yakyuu Musume.",
      "rating": 7.38,
      "classificacao_etaria": "A14",
      "imagem_original": "https://animefire.plus/img/animes/taishou-yakyuu-musume.webp",
      "imagem_pasta": "https://animefire.plus/img/animes/taishou-yakyuu-musume/",
      "secao": "legendados",
      "pagina": 146,
      "total_episodios": 12,
      "link_video": "https://animefire.plus/video/taishou-yakyuu-musume"
    },
    {
      "id": 3718,
      "nome": "Takarajima",
      "link": "https://animefire.plus/animes/takarajima-todos-os-episodios",
      "texto_original": "Takarajima",
      "rating": 7.95,
      "classificacao_etaria": "A14",
      "imagem_original": "https://animefire.plus/img/animes/takarajima.webp",
      "imagem_pasta": "https://animefire.plus/img/animes/takarajima/",
      "secao": "legendados",
      "pagina": 77,
      "total_episodios": 26,
      "link_video": "https://animefire.plus/video/takarajima"
    },
    {
      "id": 3721,
      "nome": "Takt Op. Destiny (Dublado)",
      "link": "https://animefire.plus/animes/takt-op-destiny-dublado-todos-os-episodios",
      "texto_original": "Takt Op. Destiny (Dublado)",
      "rating": 7.16,
      "classificacao_etaria": "A14",
      "imagem_original": "https://animefire.plus/img/animes/takt-op-destiny.webp",
      "imagem_pasta": "https://animefire.plus/img/animes/takt-op-destiny/",
      "secao": "dublados,legendados",
      "pagina": 10,
      "total_episodios": 12,
      "link_video": "https://animefire.plus/video/takt-op-destiny-dublado"
    },
    {
      "id": 3727,
      "nome": "Tales Of Symphonia The Animation: Tethe'alla-hen",
      "link": "https://animefire.plus/animes/tales-of-symphonia-the-animation-tethe-alla-hen-todos-os-episodios",
      "texto_original": "Tales Of Symphonia The Animation: Tethe'alla-hen",
      "rating": 7.56,
      "classificacao_etaria": "A14",
      "imagem_original": "https://animefire.plus/img/animes/tales-of-symphonia-the-animation-tethe-alla-hen.webp",
      "imagem_pasta": "https://animefire.plus/img/animes/tales-of-symphonia-the-animation-tethe-alla-hen/",
      "secao": "legendados",
      "pagina": 99,
      "total_episodios": 4,
      "link_video": "https://animefire.plus/video/tales-of-symphonia-the-animation-tethe-alla-hen"
    },
    {
      "id": 3728,
      "nome": "Tales of the Abyss",
      "link": "https://animefire.plus/animes/tales-of-the-abyss-todos-os-episodios",
      "texto_original": "Tales of the Abyss",
      "rating": 7.39,
      "classificacao_etaria": "A14",
      "imagem_original": "https://animefire.plus/img/animes/tales-of-the-abyss.webp",
      "imagem_pasta": "https://animefire.plus/img/animes/tales-of-the-abyss/",
      "secao": "legendados",
      "pagina": 131,
      "total_episodios": 26,
      "link_video": "https://animefire.plus/video/tales-of-the-abyss"
    },
    {
      "id": 3729,
      "nome": "Tales of Zestiria the Cross",
      "link": "https://animefire.plus/animes/tales-of-zestiria-the-cross-todos-os-episodios",
      "texto_original": "Tales of Zestiria the Cross",
      "rating": 7.39,
      "classificacao_etaria": "A14",
      "imagem_original": "https://animefire.plus/img/animes/tales-of-zestiria-the-cross.webp",
      "imagem_pasta": "https://animefire.plus/img/animes/tales-of-zestiria-the-cross/",
      "secao": "legendados",
      "pagina": 81,
      "total_episodios": 12,
      "link_video": "https://animefire.plus/video/tales-of-zestiria-the-cross"
    },
    {
      "id": 3730,
      "nome": "Tales of Zestiria the Cross 2nd Season",
      "link": "https://animefire.plus/animes/tales-of-zestiria-the-cross-2nd-season-todos-os-episodios",
      "texto_original": "Tales of Zestiria the Cross 2nd Season",
      "rating": 7.4,
      "classificacao_etaria": "A14",
      "imagem_original": "https://animefire.plus/img/animes/tales-of-zestiria-the-cross-2nd-season.webp",
      "imagem_pasta": "https://animefire.plus/img/animes/tales-of-zestiria-the-cross-2nd-season/",
      "secao": "legendados",
      "pagina": 81,
      "total_episodios": 13,
      "link_video": "https://animefire.plus/video/tales-of-zestiria-the-cross-2nd-season"
    },
    {
      "id": 3731,
      "nome": "Tamako Market",
      "link": "https://animefire.plus/animes/tamako-market-todos-os-episodios",
      "texto_original": "Tamako Market",
      "rating": 7.38,
      "classificacao_etaria": "A14",
      "imagem_original": "https://animefire.plus/img/animes/tamako-market.webp",
      "imagem_pasta": "https://animefire.plus/img/animes/tamako-market/",
      "secao": "legendados",
      "pagina": 79,
      "total_episodios": 12,
      "link_video": "https://animefire.plus/video/tamako-market"
    },
    {
      "id": 3734,
      "nome": "Tamayura",
      "link": "https://animefire.plus/animes/tamayura-todos-os-episodios",
      "texto_original": "Tamayura",
      "rating": 7.16,
      "classificacao_etaria": null,
      "imagem_original": "https://animefire.plus/img/animes/tamayura.webp",
      "imagem_pasta": "https://animefire.plus/img/animes/tamayura/",
      "secao": "legendados",
      "pagina": 56,
      "total_episodios": 2,
      "link_video": "https://animefire.plus/video/tamayura"
    },
    {
      "id": 3735,
      "nome": "Tamayura: Hitotose",
      "link": "https://animefire.plus/animes/tamayura-hitotose-todos-os-episodios",
      "texto_original": "Tamayura: Hitotose",
      "rating": 7.32,
      "classificacao_etaria": null,
      "imagem_original": "https://animefire.plus/img/animes/tamayura-hitotose.webp",
      "imagem_pasta": "https://animefire.plus/img/animes/tamayura-hitotose/",
      "secao": "legendados",
      "pagina": 119,
      "total_episodios": 12,
      "link_video": "https://animefire.plus/video/tamayura-hitotose"
    },
    {
      "id": 3736,
      "nome": "Tamayura: More Aggressive",
      "link": "https://animefire.plus/animes/tamayura-more-aggressive-todos-os-episodios",
      "texto_original": "Tamayura: More Aggressive",
      "rating": 7.58,
      "classificacao_etaria": null,
      "imagem_original": "https://animefire.plus/img/animes/tamayura-more-aggressive.webp",
      "imagem_pasta": "https://animefire.plus/img/animes/tamayura-more-aggressive/",
      "secao": "legendados",
      "pagina": 140,
      "total_episodios": 0,
      "link_video": "https://animefire.plus/video/tamayura-more-aggressive"
    },
    {
      "id": 3737,
      "nome": "Tanaka-kun Wa Itsumo Kedaruge",
      "link": "https://animefire.plus/animes/tanaka-kun-wa-itsumo-kedaruge-todos-os-episodios",
      "texto_original": "Tanaka-kun Wa Itsumo Kedaruge",
      "rating": 7.99,
      "classificacao_etaria": "A14",
      "imagem_original": "https://animefire.plus/img/animes/tanaka-kun-wa-itsumo-kedaruge.webp",
      "imagem_pasta": "https://animefire.plus/img/animes/tanaka-kun-wa-itsumo-kedaruge/",
      "secao": "legendados",
      "pagina": 96,
      "total_episodios": 12,
      "link_video": "https://animefire.plus/video/tanaka-kun-wa-itsumo-kedaruge"
    },
    {
      "id": 3738,
      "nome": "Tanaka-kun wa Itsumo Kedaruge Specials",
      "link": "https://animefire.plus/animes/tanaka-kun-wa-itsumo-kedaruge-specials-todos-os-episodios",
      "texto_original": "Tanaka-kun wa Itsumo Kedaruge Specials",
      "rating": 7.41,
      "classificacao_etaria": "A14",
      "imagem_original": "https://animefire.plus/img/animes/tanaka-kun-wa-itsumo-kedaruge-specials.webp",
      "imagem_pasta": "https://animefire.plus/img/animes/tanaka-kun-wa-itsumo-kedaruge-specials/",
      "secao": "legendados",
      "pagina": 42,
      "total_episodios": 7,
      "link_video": "https://animefire.plus/video/tanaka-kun-wa-itsumo-kedaruge-specials"
    },
    {
      "id": 3740,
      "nome": "Tantei Gakuen Q",
      "link": "https://animefire.plus/animes/tantei-gakuen-q-todos-os-episodios",
      "texto_original": "Tantei Gakuen Q",
      "rating": 7.83,
      "classificacao_etaria": "A14",
      "imagem_original": "https://animefire.plus/img/animes/tantei-gakuen-q.webp",
      "imagem_pasta": "https://animefire.plus/img/animes/tantei-gakuen-q/",
      "secao": "legendados",
      "pagina": 167,
      "total_episodios": 11,
      "link_video": "https://animefire.plus/video/tantei-gakuen-q"
    },
    {
      "id": 3743,
      "nome": "Tantei Opera Milky Holmes Dai 2 Maku",
      "link": "https://animefire.plus/animes/tantei-opera-milky-holmes-dai-2-maku-todos-os-episodios",
      "texto_original": "Tantei Opera Milky Holmes Dai 2 Maku",
      "rating": 7.27,
      "classificacao_etaria": "A14",
      "imagem_original": "https://animefire.plus/img/animes/tantei-opera-milky-holmes-dai-2-maku.webp",
      "imagem_pasta": "https://animefire.plus/img/animes/tantei-opera-milky-holmes-dai-2-maku/",
      "secao": "legendados",
      "pagina": 177,
      "total_episodios": 9,
      "link_video": "https://animefire.plus/video/tantei-opera-milky-holmes-dai-2-maku"
    },
    {
      "id": 3747,
      "nome": "Tantei Opera Milky Holmes: Summer Special",
      "link": "https://animefire.plus/animes/tantei-opera-milky-holmes-summer-special-todos-os-episodios",
      "texto_original": "Tantei Opera Milky Holmes: Summer Special",
      "rating": 7,
      "classificacao_etaria": "A14",
      "imagem_original": "https://animefire.plus/img/animes/tantei-opera-milky-holmes-summer-special.webp",
      "imagem_pasta": "https://animefire.plus/img/animes/tantei-opera-milky-holmes-summer-special/",
      "secao": "legendados",
      "pagina": 87,
      "total_episodios": 1,
      "link_video": "https://animefire.plus/video/tantei-opera-milky-holmes-summer-special"
    },
    {
      "id": 3750,
      "nome": "Tari Tari",
      "link": "https://animefire.plus/animes/tari-tari-todos-os-episodios",
      "texto_original": "Tari Tari",
      "rating": 7.38,
      "classificacao_etaria": "A14",
      "imagem_original": "https://animefire.plus/img/animes/tari-tari.webp",
      "imagem_pasta": "https://animefire.plus/img/animes/tari-tari/",
      "secao": "legendados",
      "pagina": 125,
      "total_episodios": 7,
      "link_video": "https://animefire.plus/video/tari-tari"
    },
    {
      "id": 3751,
      "nome": "Tasogare Otome x Amnesia",
      "link": "https://animefire.plus/animes/tasogare-otome-x-amnesia-todos-os-episodios",
      "texto_original": "Tasogare Otome x Amnesia",
      "rating": 7.92,
      "classificacao_etaria": "A16",
      "imagem_original": "https://animefire.plus/img/animes/tasogare-otome-x-amnesia.webp",
      "imagem_pasta": "https://animefire.plus/img/animes/tasogare-otome-x-amnesia/",
      "secao": "legendados",
      "pagina": 118,
      "total_episodios": 0,
      "link_video": "https://animefire.plus/video/tasogare-otome-x-amnesia"
    },
    {
      "id": 3752,
      "nome": "Tasogare Out Focus",
      "link": "https://animefire.plus/animes/tasogare-out-focus-todos-os-episodios",
      "texto_original": "Tasogare Out Focus",
      "rating": 7.47,
      "classificacao_etaria": "A14",
      "imagem_original": "https://animefire.plus/img/animes/tasogare-out-focus.webp",
      "imagem_pasta": "https://animefire.plus/img/animes/tasogare-out-focus/",
      "secao": "legendados",
      "pagina": 13,
      "total_episodios": 12,
      "link_video": "https://animefire.plus/video/tasogare-out-focus"
    }
  ],
  "pagination": {
    "current_page": 81,
    "per_page": 20,
    "total_items": 1905,
    "total_pages": 96,
    "has_next": true,
    "has_prev": true
  }
}
