{
  "message": "Animes com rating entre 7 e 8",
  "rating_range": {
    "min": 7,
    "max": 8
  },
  "data": [
    {
      "id": 1698,
      "nome": "Ixion Saga DT",
      "link": "https://animefire.plus/animes/ixion-saga-dt-todos-os-episodios",
      "texto_original": "Ixion Saga DT",
      "rating": 7.25,
      "classificacao_etaria": "A14",
      "imagem_original": "https://animefire.plus/img/animes/ixion-saga-dt.webp",
      "imagem_pasta": "https://animefire.plus/img/animes/ixion-saga-dt/",
      "secao": "legendados",
      "pagina": 74,
      "total_episodios": 25,
      "link_video": "https://animefire.plus/video/ixion-saga-dt"
    },
    {
      "id": 1703,
      "nome": "Jahy-sama wa Kujikenai! (Dublado)",
      "link": "https://animefire.plus/animes/jahy-sama-wa-kujikenai-dublado-todos-os-episodios",
      "texto_original": "Jahy-sama wa Kujikenai! (Dublado)",
      "rating": 7.01,
      "classificacao_etaria": "A14",
      "imagem_original": "https://animefire.plus/img/animes/jahy-sama-wa-kujikenai.webp",
      "imagem_pasta": "https://animefire.plus/img/animes/jahy-sama-wa-kujikenai/",
      "secao": "dublados,legendados",
      "pagina": 9,
      "total_episodios": 20,
      "link_video": "https://animefire.plus/video/jahy-sama-wa-kujikenai-dublado"
    },
    {
      "id": 1704,
      "nome": "Jaku-Chara Tomozaki-kun",
      "link": "https://animefire.plus/animes/jaku-chara-tomozaki-kun-todos-os-episodios",
      "texto_original": "Jaku-Chara Tomozaki-kun",
      "rating": 7.11,
      "classificacao_etaria": "A14",
      "imagem_original": "https://animefire.plus/img/animes/jaku-chara-tomozaki-kun.webp",
      "imagem_pasta": "https://animefire.plus/img/animes/jaku-chara-tomozaki-kun/",
      "secao": "legendados",
      "pagina": 49,
      "total_episodios": 14,
      "link_video": "https://animefire.plus/video/jaku-chara-tomozaki-kun"
    },
    {
      "id": 1705,
      "nome": "Jaku-Chara Tomozaki-kun 2nd Stage",
      "link": "https://animefire.plus/animes/jaku-chara-tomozaki-kun-2nd-stage-todos-os-episodios",
      "texto_original": "Jaku-Chara Tomozaki-kun 2nd Stage",
      "rating": 7.03,
      "classificacao_etaria": "A14",
      "imagem_original": "https://animefire.plus/img/animes/jaku-chara-tomozaki-kun-2nd-stage.webp",
      "imagem_pasta": "https://animefire.plus/img/animes/jaku-chara-tomozaki-kun-2nd-stage/",
      "secao": "legendados",
      "pagina": 18,
      "total_episodios": 13,
      "link_video": "https://animefire.plus/video/jaku-chara-tomozaki-kun-2nd-stage"
    },
    {
      "id": 1708,
      "nome": "Jashin-chan Dropkick 2nd Season",
      "link": "https://animefire.plus/animes/jashin-chan-dropkick-2nd-season-todos-os-episodios",
      "texto_original": "Jashin-chan Dropkick 2nd Season",
      "rating": 7.42,
      "classificacao_etaria": "A14",
      "imagem_original": "https://animefire.plus/img/animes/jashin-chan-dropkick-2nd-season.webp",
      "imagem_pasta": "https://animefire.plus/img/animes/jashin-chan-dropkick-2nd-season/",
      "secao": "legendados",
      "pagina": 81,
      "total_episodios": 12,
      "link_video": "https://animefire.plus/video/jashin-chan-dropkick-2nd-season"
    },
    {
      "id": 1709,
      "nome": "Jashin-chan Dropkick Episode 12",
      "link": "https://animefire.plus/animes/jashin-chan-dropkick-episode-12-todos-os-episodios",
      "texto_original": "Jashin-chan Dropkick Episode 12",
      "rating": 7.08,
      "classificacao_etaria": "A14",
      "imagem_original": "https://animefire.plus/img/animes/jashin-chan-dropkick-episode-12.webp",
      "imagem_pasta": "https://animefire.plus/img/animes/jashin-chan-dropkick-episode-12/",
      "secao": "legendados",
      "pagina": 86,
      "total_episodios": 1,
      "link_video": "https://animefire.plus/video/jashin-chan-dropkick-episode-12"
    },
    {
      "id": 1710,
      "nome": "Jashin-chan Dropkick X",
      "link": "https://animefire.plus/animes/jashin-chan-dropkick-x-todos-os-episodios",
      "texto_original": "Jashin-chan Dropkick X",
      "rating": 7.42,
      "classificacao_etaria": "A14",
      "imagem_original": "https://animefire.plus/img/animes/jashin-chan-dropkick-x.webp",
      "imagem_pasta": "https://animefire.plus/img/animes/jashin-chan-dropkick-x/",
      "secao": "legendados",
      "pagina": 31,
      "total_episodios": 12,
      "link_video": "https://animefire.plus/video/jashin-chan-dropkick-x"
    },
    {
      "id": 1713,
      "nome": "Jibaku Shounen Hanako-kun (Dublado)",
      "link": "https://animefire.plus/animes/jibaku-shounen-hanako-kun-dublado-todos-os-episodios",
      "texto_original": "Jibaku Shounen Hanako-kun (Dublado)",
      "rating": 7.83,
      "classificacao_etaria": "A14",
      "imagem_original": "https://animefire.plus/img/animes/jibaku-shounen-hanako-kun.webp",
      "imagem_pasta": "https://animefire.plus/img/animes/jibaku-shounen-hanako-kun/",
      "secao": "dublados,legendados",
      "pagina": 15,
      "total_episodios": 12,
      "link_video": "https://animefire.plus/video/jibaku-shounen-hanako-kun-dublado"
    },
    {
      "id": 1714,
      "nome": "Jibaku Shounen Hanako-kun 2",
      "link": "https://animefire.plus/animes/jibaku-shounen-hanako-kun-2-todos-os-episodios",
      "texto_original": "Jibaku Shounen Hanako-kun 2",
      "rating": 7.9,
      "classificacao_etaria": "A14",
      "imagem_original": "https://animefire.plus/img/animes/jibaku-shounen-hanako-kun-2.webp",
      "imagem_pasta": "https://animefire.plus/img/animes/jibaku-shounen-hanako-kun-2/",
      "secao": "legendados",
      "pagina": 8,
      "total_episodios": 12,
      "link_video": "https://animefire.plus/video/jibaku-shounen-hanako-kun-2"
    },
    {
      "id": 1715,
      "nome": "Jibaku Shounen Hanako-kun 2 Part 2",
      "link": "https://animefire.plus/animes/jibaku-shounen-hanako-kun-2-part-2-todos-os-episodios",
      "texto_original": "Jibaku Shounen Hanako-kun 2 Part 2",
      "rating": 7.92,
      "classificacao_etaria": "A14",
      "imagem_original": "https://animefire.plus/img/animes/jibaku-shounen-hanako-kun-2-part-2.webp",
      "imagem_pasta": "https://animefire.plus/img/animes/jibaku-shounen-hanako-kun-2-part-2/",
      "secao": "legendados,lancamentos",
      "pagina": 2,
      "total_episodios": 5,
      "link_video": "https://animefire.plus/video/jibaku-shounen-hanako-kun-2-part-2"
    },
    {
      "id": 1716,
      "nome": "Jibaku-kun",
      "link": "https://animefire.plus/animes/jibaku-kun-todos-os-episodios",
      "texto_original": "Jibaku-kun",
      "rating": 7.49,
      "classificacao_etaria": "A14",
      "imagem_original": "https://animefire.plus/img/animes/jibaku-kun.webp",
      "imagem_pasta": "https://animefire.plus/img/animes/jibaku-kun/",
      "secao": "legendados",
      "pagina": 179,
      "total_episodios": 26,
      "link_video": "https://animefire.plus/video/jibaku-kun"
    },
    {
      "id": 1720,
      "nome": "Jie Yao",
      "link": "https://animefire.plus/animes/jie-yao-todos-os-episodios",
      "texto_original": "Jie Yao",
      "rating": 7.01,
      "classificacao_etaria": "A14",
      "imagem_original": "https://animefire.plus/img/animes/jie-yao.webp",
      "imagem_pasta": "https://animefire.plus/img/animes/jie-yao/",
      "secao": "legendados",
      "pagina": 90,
      "total_episodios": 0,
      "link_video": "https://animefire.plus/video/jie-yao"
    },
    {
      "id": 1721,
      "nome": "Jigoku Sensei Nube",
      "link": "https://animefire.plus/animes/jigoku-sensei-nube-todos-os-episodios",
      "texto_original": "Jigoku Sensei Nube",
      "rating": 7.62,
      "classificacao_etaria": "A14",
      "imagem_original": "https://animefire.plus/img/animes/jigoku-sensei-nube.webp",
      "imagem_pasta": "https://animefire.plus/img/animes/jigoku-sensei-nube/",
      "secao": "legendados",
      "pagina": 122,
      "total_episodios": 49,
      "link_video": "https://animefire.plus/video/jigoku-sensei-nube"
    },
    {
      "id": 1723,
      "nome": "Jigoku Shoujo (Dublado)",
      "link": "https://animefire.plus/animes/jigoku-shoujo-dublado-todos-os-episodios",
      "texto_original": "Jigoku Shoujo (Dublado)",
      "rating": 7.68,
      "classificacao_etaria": "A16",
      "imagem_original": "https://animefire.plus/img/animes/jigoku-shoujo.webp",
      "imagem_pasta": "https://animefire.plus/img/animes/jigoku-shoujo/",
      "secao": "dublados,legendados",
      "pagina": 25,
      "total_episodios": 26,
      "link_video": "https://animefire.plus/video/jigoku-shoujo-dublado"
    },
    {
      "id": 1725,
      "nome": "Jigoku Shoujo Mitsuganae",
      "link": "https://animefire.plus/animes/jigoku-shoujo-mitsuganae-todos-os-episodios",
      "texto_original": "Jigoku Shoujo Mitsuganae",
      "rating": 7.72,
      "classificacao_etaria": "A16",
      "imagem_original": "https://animefire.plus/img/animes/jigoku-shoujo-mitsuganae.webp",
      "imagem_pasta": "https://animefire.plus/img/animes/jigoku-shoujo-mitsuganae/",
      "secao": "legendados",
      "pagina": 167,
      "total_episodios": 0,
      "link_video": "https://animefire.plus/video/jigoku-shoujo-mitsuganae"
    },
    {
      "id": 1728,
      "nome": "Jiisan Baasan Wakagaeru",
      "link": "https://animefire.plus/animes/jiisan-baasan-wakagaeru-todos-os-episodios",
      "texto_original": "Jiisan Baasan Wakagaeru",
      "rating": 7.46,
      "classificacao_etaria": "A14",
      "imagem_original": "https://animefire.plus/img/animes/jiisan-baasan-wakagaeru.webp",
      "imagem_pasta": "https://animefire.plus/img/animes/jiisan-baasan-wakagaeru/",
      "secao": "legendados",
      "pagina": 15,
      "total_episodios": 11,
      "link_video": "https://animefire.plus/video/jiisan-baasan-wakagaeru"
    },
    {
      "id": 1729,
      "nome": "Jijou o Shiranai Tenkousei ga Guigui Kuru",
      "link": "https://animefire.plus/animes/jijou-o-shiranai-tenkousei-ga-guigui-kuru-todos-os-episodios",
      "texto_original": "Jijou o Shiranai Tenkousei ga Guigui Kuru",
      "rating": 7.51,
      "classificacao_etaria": "A14",
      "imagem_original": "https://animefire.plus/img/animes/jijou-o-shiranai-tenkousei-ga-guigui-kuru.jpg",
      "imagem_pasta": "https://animefire.plus/img/animes/jijou-o-shiranai-tenkousei-ga-guigui-kuru/",
      "secao": "legendados",
      "pagina": 24,
      "total_episodios": 13,
      "link_video": "https://animefire.plus/video/jijou-o-shiranai-tenkousei-ga-guigui-kuru"
    },
    {
      "id": 1732,
      "nome": "Jin Tian Kai Shi Zuo Ming Xing",
      "link": "https://animefire.plus/animes/jin-tian-kai-shi-zuo-ming-xing-todos-os-episodios",
      "texto_original": "Jin Tian Kai Shi Zuo Ming Xing",
      "rating": 7.04,
      "classificacao_etaria": "A14",
      "imagem_original": "https://animefire.plus/img/animes/jin-tian-kai-shi-zuo-ming-xing.webp",
      "imagem_pasta": "https://animefire.plus/img/animes/jin-tian-kai-shi-zuo-ming-xing/",
      "secao": "legendados",
      "pagina": 80,
      "total_episodios": 13,
      "link_video": "https://animefire.plus/video/jin-tian-kai-shi-zuo-ming-xing"
    },
    {
      "id": 1735,
      "nome": "Jinrui wa Suitai Shimashita",
      "link": "https://animefire.plus/animes/jinrui-wa-suitai-shimashita-todos-os-episodios",
      "texto_original": "Jinrui wa Suitai Shimashita",
      "rating": 7.84,
      "classificacao_etaria": "A14",
      "imagem_original": "https://animefire.plus/img/animes/jinrui-wa-suitai-shimashita.webp",
      "imagem_pasta": "https://animefire.plus/img/animes/jinrui-wa-suitai-shimashita/",
      "secao": "legendados",
      "pagina": 175,
      "total_episodios": 8,
      "link_video": "https://animefire.plus/video/jinrui-wa-suitai-shimashita"
    },
    {
      "id": 1738,
      "nome": "Jitsu Wa Watashi Wa",
      "link": "https://animefire.plus/animes/jitsu-wa-watashi-wa-todos-os-episodios",
      "texto_original": "Jitsu Wa Watashi Wa",
      "rating": 7.03,
      "classificacao_etaria": "A14",
      "imagem_original": "https://animefire.plus/img/animes/jitsu-wa-watashi-wa.webp",
      "imagem_pasta": "https://animefire.plus/img/animes/jitsu-wa-watashi-wa/",
      "secao": "legendados",
      "pagina": 95,
      "total_episodios": 13,
      "link_video": "https://animefire.plus/video/jitsu-wa-watashi-wa"
    }
  ],
  "pagination": {
    "current_page": 36,
    "per_page": 20,
    "total_items": 1905,
    "total_pages": 96,
    "has_next": true,
    "has_prev": true
  }
}
