{
  "message": "Animes com rating entre 7 e 8",
  "rating_range": {
    "min": 7,
    "max": 8
  },
  "data": [
    {
      "id": 4132,
      "nome": "Wind Breaker (Dublado)",
      "link": "https://animefire.plus/animes/wind-breaker-dublado-todos-os-episodios",
      "texto_original": "Wind Breaker (Dublado)",
      "rating": 7.73,
      "classificacao_etaria": "A14",
      "imagem_original": "https://animefire.plus/img/animes/wind-breaker.webp",
      "imagem_pasta": "https://animefire.plus/img/animes/wind-breaker/",
      "secao": "dublados,legendados,lancamentos",
      "pagina": 2,
      "total_episodios": 13,
      "link_video": "https://animefire.plus/video/wind-breaker-dublado"
    },
    {
      "id": 4133,
      "nome": "Wind Breaker Season 2 (Dublado)",
      "link": "https://animefire.plus/animes/wind-breaker-season-2-dublado-todos-os-episodios",
      "texto_original": "Wind Breaker Season 2 (Dublado)",
      "rating": 7.65,
      "classificacao_etaria": "A14",
      "imagem_original": "https://animefire.plus/img/animes/wind-breaker-season-2.webp",
      "imagem_pasta": "https://animefire.plus/img/animes/wind-breaker-season-2/",
      "secao": "dublados,legendados,lancamentos",
      "pagina": 1,
      "total_episodios": 12,
      "link_video": "https://animefire.plus/video/wind-breaker-season-2-dublado"
    },
    {
      "id": 4135,
      "nome": "Witch Craft Works",
      "link": "https://animefire.plus/animes/witch-craft-works-todos-os-episodios",
      "texto_original": "Witch Craft Works",
      "rating": 7.18,
      "classificacao_etaria": "A14",
      "imagem_original": "https://animefire.plus/img/animes/witch-craft-works.webp",
      "imagem_pasta": "https://animefire.plus/img/animes/witch-craft-works/",
      "secao": "legendados",
      "pagina": 107,
      "total_episodios": 12,
      "link_video": "https://animefire.plus/video/witch-craft-works"
    },
    {
      "id": 4136,
      "nome": "Witch Hunter Robin",
      "link": "https://animefire.plus/animes/witch-hunter-robin-todos-os-episodios",
      "texto_original": "Witch Hunter Robin",
      "rating": 7.32,
      "classificacao_etaria": "A14",
      "imagem_original": "https://animefire.plus/img/animes/witch-hunter-robin.webp",
      "imagem_pasta": "https://animefire.plus/img/animes/witch-hunter-robin/",
      "secao": "legendados",
      "pagina": 156,
      "total_episodios": 26,
      "link_video": "https://animefire.plus/video/witch-hunter-robin"
    },
    {
      "id": 4137,
      "nome": "Witch Watch (Dublado)",
      "link": "https://animefire.plus/animes/witch-watch-dublado-todos-os-episodios",
      "texto_original": "Witch Watch (Dublado)",
      "rating": 7.4,
      "classificacao_etaria": "A14",
      "imagem_original": "https://animefire.plus/img/animes/witch-watch.webp",
      "imagem_pasta": "https://animefire.plus/img/animes/witch-watch/",
      "secao": "dublados,legendados,lancamentos",
      "pagina": 1,
      "total_episodios": 18,
      "link_video": "https://animefire.plus/video/witch-watch-dublado"
    },
    {
      "id": 4138,
      "nome": "Witchblade",
      "link": "https://animefire.plus/animes/witchblade-todos-os-episodios",
      "texto_original": "Witchblade",
      "rating": 7.34,
      "classificacao_etaria": "A16",
      "imagem_original": "https://animefire.plus/img/animes/witchblade.webp",
      "imagem_pasta": "https://animefire.plus/img/animes/witchblade/",
      "secao": "legendados",
      "pagina": 134,
      "total_episodios": 2,
      "link_video": "https://animefire.plus/video/witchblade"
    },
    {
      "id": 4145,
      "nome": "Wo Shi Jiang Xiaobai",
      "link": "https://animefire.plus/animes/wo-shi-jiang-xiaobai-todos-os-episodios",
      "texto_original": "Wo Shi Jiang Xiaobai",
      "rating": 7.34,
      "classificacao_etaria": "A14",
      "imagem_original": "https://animefire.plus/img/animes/wo-shi-jiang-xiaobai.webp",
      "imagem_pasta": "https://animefire.plus/img/animes/wo-shi-jiang-xiaobai/",
      "secao": "legendados",
      "pagina": 168,
      "total_episodios": 12,
      "link_video": "https://animefire.plus/video/wo-shi-jiang-xiaobai"
    },
    {
      "id": 4147,
      "nome": "Wolf's Rain (Dublado)",
      "link": "https://animefire.plus/animes/wolf-s-rain-dublado-todos-os-episodios",
      "texto_original": "Wolf's Rain (Dublado)",
      "rating": 7.88,
      "classificacao_etaria": "A14",
      "imagem_original": "https://animefire.plus/img/animes/wolf-s-rain.webp",
      "imagem_pasta": "https://animefire.plus/img/animes/wolf-s-rain/",
      "secao": "dublados,legendados",
      "pagina": 25,
      "total_episodios": 26,
      "link_video": "https://animefire.plus/video/wolf-s-rain-dublado"
    },
    {
      "id": 4150,
      "nome": "Wonder Egg Priority (Dublado)",
      "link": "https://animefire.plus/animes/wonder-egg-priority-dublado-todos-os-episodios",
      "texto_original": "Wonder Egg Priority (Dublado)",
      "rating": 7.55,
      "classificacao_etaria": "A16",
      "imagem_original": "https://animefire.plus/img/animes/wonder-egg-priority.webp",
      "imagem_pasta": "https://animefire.plus/img/animes/wonder-egg-priority/",
      "secao": "dublados,legendados",
      "pagina": 15,
      "total_episodios": 12,
      "link_video": "https://animefire.plus/video/wonder-egg-priority-dublado"
    },
    {
      "id": 4152,
      "nome": "Wonderful Precure!",
      "link": "https://animefire.plus/animes/wonderful-precure-todos-os-episodios",
      "texto_original": "Wonderful Precure!",
      "rating": 7.57,
      "classificacao_etaria": null,
      "imagem_original": "https://animefire.plus/img/animes/wonderful-precure.webp",
      "imagem_pasta": "https://animefire.plus/img/animes/wonderful-precure/",
      "secao": "legendados",
      "pagina": 16,
      "total_episodios": 50,
      "link_video": "https://animefire.plus/video/wonderful-precure"
    },
    {
      "id": 4153,
      "nome": "Working!!",
      "link": "https://animefire.plus/animes/working-todos-os-episodios",
      "texto_original": "Working!!",
      "rating": 7.77,
      "classificacao_etaria": "A14",
      "imagem_original": "https://animefire.plus/img/animes/working.webp",
      "imagem_pasta": "https://animefire.plus/img/animes/working/",
      "secao": "legendados",
      "pagina": 165,
      "total_episodios": 13,
      "link_video": "https://animefire.plus/video/working"
    },
    {
      "id": 4155,
      "nome": "World Destruction: Sekai Bokumetsu no Rokunin",
      "link": "https://animefire.plus/animes/world-destruction-sekai-bokumetsu-no-rokunin-todos-os-episodios",
      "texto_original": "World Destruction: Sekai Bokumetsu no Rokunin",
      "rating": 7.04,
      "classificacao_etaria": "A14",
      "imagem_original": "https://animefire.plus/img/animes/world-destruction-sekai-bokumetsu-no-rokunin.webp",
      "imagem_pasta": "https://animefire.plus/img/animes/world-destruction-sekai-bokumetsu-no-rokunin/",
      "secao": "legendados",
      "pagina": 124,
      "total_episodios": 13,
      "link_video": "https://animefire.plus/video/world-destruction-sekai-bokumetsu-no-rokunin"
    },
    {
      "id": 4156,
      "nome": "World Trigger",
      "link": "https://animefire.plus/animes/world-trigger-todos-os-episodios",
      "texto_original": "World Trigger",
      "rating": 7.59,
      "classificacao_etaria": "A14",
      "imagem_original": "https://animefire.plus/img/animes/world-trigger.webp",
      "imagem_pasta": "https://animefire.plus/img/animes/world-trigger/",
      "secao": "legendados",
      "pagina": 53,
      "total_episodios": 73,
      "link_video": "https://animefire.plus/video/world-trigger"
    },
    {
      "id": 4161,
      "nome": "Wotaku ni Koi wa Muzukashii: Youth",
      "link": "https://animefire.plus/animes/wotaku-ni-koi-wa-muzukashii-youth-todos-os-episodios",
      "texto_original": "Wotaku ni Koi wa Muzukashii: Youth",
      "rating": 7.86,
      "classificacao_etaria": "A14",
      "imagem_original": "https://animefire.plus/img/animes/wotaku-ni-koi-wa-muzukashii-youth.webp",
      "imagem_pasta": "https://animefire.plus/img/animes/wotaku-ni-koi-wa-muzukashii-youth/",
      "secao": "legendados",
      "pagina": 88,
      "total_episodios": 1,
      "link_video": "https://animefire.plus/video/wotaku-ni-koi-wa-muzukashii-youth"
    },
    {
      "id": 4162,
      "nome": "Wu Geng Ji",
      "link": "https://animefire.plus/animes/wu-geng-ji-todos-os-episodios",
      "texto_original": "Wu Geng Ji",
      "rating": 7.6,
      "classificacao_etaria": "A14",
      "imagem_original": "https://animefire.plus/img/animes/wu-geng-ji.webp",
      "imagem_pasta": "https://animefire.plus/img/animes/wu-geng-ji/",
      "secao": "legendados",
      "pagina": 144,
      "total_episodios": 30,
      "link_video": "https://animefire.plus/video/wu-geng-ji"
    },
    {
      "id": 4164,
      "nome": "Wu Shen Zhu Zai",
      "link": "https://animefire.plus/animes/wu-shen-zhu-zai-todos-os-episodios",
      "texto_original": "Wu Shen Zhu Zai",
      "rating": 7.07,
      "classificacao_etaria": "A14",
      "imagem_original": "https://animefire.plus/img/animes/wu-shen-zhu-zai.webp",
      "imagem_pasta": "https://animefire.plus/img/animes/wu-shen-zhu-zai/",
      "secao": "legendados",
      "pagina": 72,
      "total_episodios": 25,
      "link_video": "https://animefire.plus/video/wu-shen-zhu-zai"
    },
    {
      "id": 4165,
      "nome": "WWW.Working!!",
      "link": "https://animefire.plus/animes/www-working-todos-os-episodios",
      "texto_original": "WWW.Working!!",
      "rating": 7.52,
      "classificacao_etaria": "A14",
      "imagem_original": "https://animefire.plus/img/animes/www-working.webp",
      "imagem_pasta": "https://animefire.plus/img/animes/www-working/",
      "secao": "legendados",
      "pagina": 135,
      "total_episodios": 8,
      "link_video": "https://animefire.plus/video/www-working"
    },
    {
      "id": 4168,
      "nome": "Xia Gan Yi Dan Shen Jianxin",
      "link": "https://animefire.plus/animes/xia-gan-yi-dan-shen-jianxin-todos-os-episodios",
      "texto_original": "Xia Gan Yi Dan Shen Jianxin",
      "rating": 7.14,
      "classificacao_etaria": "A14",
      "imagem_original": "https://animefire.plus/img/animes/xia-gan-yi-dan-shen-jianxin.webp",
      "imagem_pasta": "https://animefire.plus/img/animes/xia-gan-yi-dan-shen-jianxin/",
      "secao": "legendados",
      "pagina": 81,
      "total_episodios": 12,
      "link_video": "https://animefire.plus/video/xia-gan-yi-dan-shen-jianxin"
    },
    {
      "id": 4170,
      "nome": "Xian Wang de Richang Shenghuo",
      "link": "https://animefire.plus/animes/xian-wang-de-richang-shenghuo-todos-os-episodios",
      "texto_original": "Xian Wang de Richang Shenghuo",
      "rating": 7.19,
      "classificacao_etaria": "A14",
      "imagem_original": "https://animefire.plus/img/animes/xian-wang-de-richang-shenghuo.webp",
      "imagem_pasta": "https://animefire.plus/img/animes/xian-wang-de-richang-shenghuo/",
      "secao": "legendados",
      "pagina": 91,
      "total_episodios": 15,
      "link_video": "https://animefire.plus/video/xian-wang-de-richang-shenghuo"
    },
    {
      "id": 4171,
      "nome": "Xian Wang de Richang Shenghuo 2nd Season",
      "link": "https://animefire.plus/animes/xian-wang-de-richang-shenghuo-2nd-season-todos-os-episodios",
      "texto_original": "Xian Wang de Richang Shenghuo 2nd Season",
      "rating": 7.38,
      "classificacao_etaria": "A14",
      "imagem_original": "https://animefire.plus/img/animes/xian-wang-de-richang-shenghuo-2nd-season.webp",
      "imagem_pasta": "https://animefire.plus/img/animes/xian-wang-de-richang-shenghuo-2nd-season/",
      "secao": "legendados,lancamentos",
      "pagina": 38,
      "total_episodios": 1,
      "link_video": "https://animefire.plus/video/xian-wang-de-richang-shenghuo-2nd-season"
    }
  ],
  "pagination": {
    "current_page": 91,
    "per_page": 20,
    "total_items": 1905,
    "total_pages": 96,
    "has_next": true,
    "has_prev": true
  }
}
