{
  "message": "Animes com rating entre 7 e 8",
  "rating_range": {
    "min": 7,
    "max": 8
  },
  "data": [
    {
      "id": 2223,
      "nome": "Ling Qi 2",
      "link": "https://animefire.plus/animes/ling-qi-2-todos-os-episodios",
      "texto_original": "Ling Qi 2",
      "rating": 7.62,
      "classificacao_etaria": "A14",
      "imagem_original": "https://animefire.plus/img/animes/ling-qi-2.webp",
      "imagem_pasta": "https://animefire.plus/img/animes/ling-qi-2/",
      "secao": "legendados",
      "pagina": 151,
      "total_episodios": 12,
      "link_video": "https://animefire.plus/video/ling-qi-2"
    },
    {
      "id": 2225,
      "nome": "Ling Yu 2nd Season",
      "link": "https://animefire.plus/animes/ling-yu-2nd-season-todos-os-episodios",
      "texto_original": "Ling Yu 2nd Season",
      "rating": 7,
      "classificacao_etaria": "A14",
      "imagem_original": "https://animefire.plus/img/animes/ling-yu-2nd-season.webp",
      "imagem_pasta": "https://animefire.plus/img/animes/ling-yu-2nd-season/",
      "secao": "legendados",
      "pagina": 140,
      "total_episodios": 10,
      "link_video": "https://animefire.plus/video/ling-yu-2nd-season"
    },
    {
      "id": 2229,
      "nome": "Little Busters!",
      "link": "https://animefire.plus/animes/little-busters-todos-os-episodios",
      "texto_original": "Little Busters!",
      "rating": 7.6,
      "classificacao_etaria": "A14",
      "imagem_original": "https://animefire.plus/img/animes/little-busters.webp",
      "imagem_pasta": "https://animefire.plus/img/animes/little-busters/",
      "secao": "legendados",
      "pagina": 116,
      "total_episodios": 0,
      "link_video": "https://animefire.plus/video/little-busters"
    },
    {
      "id": 2230,
      "nome": "Little Busters!: EX",
      "link": "https://animefire.plus/animes/little-busters-ex-todos-os-episodios",
      "texto_original": "Little Busters!: EX",
      "rating": 7.79,
      "classificacao_etaria": "A14",
      "imagem_original": "https://animefire.plus/img/animes/little-busters-ex.webp",
      "imagem_pasta": "https://animefire.plus/img/animes/little-busters-ex/",
      "secao": "legendados",
      "pagina": 75,
      "total_episodios": 9,
      "link_video": "https://animefire.plus/video/little-busters-ex"
    },
    {
      "id": 2233,
      "nome": "Lodoss-tou Senki: Eiyuu Kishi Den",
      "link": "https://animefire.plus/animes/lodoss-tou-senki-eiyuu-kishi-den-todos-os-episodios",
      "texto_original": "Lodoss-tou Senki: Eiyuu Kishi Den",
      "rating": 7.21,
      "classificacao_etaria": "A14",
      "imagem_original": "https://animefire.plus/img/animes/lodoss-tou-senki-eiyuu-kishi-den.webp",
      "imagem_pasta": "https://animefire.plus/img/animes/lodoss-tou-senki-eiyuu-kishi-den/",
      "secao": "legendados",
      "pagina": 128,
      "total_episodios": 27,
      "link_video": "https://animefire.plus/video/lodoss-tou-senki-eiyuu-kishi-den"
    },
    {
      "id": 2235,
      "nome": "Log Horizon 2nd Season",
      "link": "https://animefire.plus/animes/log-horizon-2nd-season-todos-os-episodios",
      "texto_original": "Log Horizon 2nd Season",
      "rating": 7.64,
      "classificacao_etaria": "A14",
      "imagem_original": "https://animefire.plus/img/animes/log-horizon-2nd-season.webp",
      "imagem_pasta": "https://animefire.plus/img/animes/log-horizon-2nd-season/",
      "secao": "legendados",
      "pagina": 81,
      "total_episodios": 25,
      "link_video": "https://animefire.plus/video/log-horizon-2nd-season"
    },
    {
      "id": 2236,
      "nome": "Log Horizon: Entaku Houkai (Dublado)",
      "link": "https://animefire.plus/animes/log-horizon-entaku-houkai-dublado-todos-os-episodios",
      "texto_original": "Log Horizon: Entaku Houkai (Dublado)",
      "rating": 7.07,
      "classificacao_etaria": "A14",
      "imagem_original": "https://animefire.plus/img/animes/log-horizon-entaku-houkai.webp",
      "imagem_pasta": "https://animefire.plus/img/animes/log-horizon-entaku-houkai/",
      "secao": "dublados,legendados",
      "pagina": 13,
      "total_episodios": 12,
      "link_video": "https://animefire.plus/video/log-horizon-entaku-houkai-dublado"
    },
    {
      "id": 2238,
      "nome": "Long Zu",
      "link": "https://animefire.plus/animes/long-zu-todos-os-episodios",
      "texto_original": "Long Zu",
      "rating": 7.27,
      "classificacao_etaria": "A14",
      "imagem_original": "https://animefire.plus/img/animes/long-zu.webp",
      "imagem_pasta": "https://animefire.plus/img/animes/long-zu/",
      "secao": "legendados",
      "pagina": 13,
      "total_episodios": 0,
      "link_video": "https://animefire.plus/video/long-zu"
    },
    {
      "id": 2239,
      "nome": "Loop 7-kaime no Akuyaku Reijou wa, Moto Tekikoku de Jiyuu Kimama na Hanayome Seikatsu wo Mankitsu suru",
      "link": "https://animefire.plus/animes/loop-7-kaime-no-akuyaku-reijou-wa-moto-tekikoku-de-jiyuu-kimama-na-hanayome-seikatsu-wo-mankitsu-suru-todos-os-episodios",
      "texto_original": "Loop 7-kaime no Akuyaku Reijou wa, Moto Tekikoku de Jiyuu Kimama na Hanayome Seikatsu wo Mankitsu suru",
      "rating": 7.52,
      "classificacao_etaria": "A14",
      "imagem_original": "https://animefire.plus/img/animes/loop-7-kaime-no-akuyaku-reijou-wa-moto-tekikoku-de-jiyuu-kimama-na-hanayome-seikatsu-wo-mankitsu-suru.webp",
      "imagem_pasta": "https://animefire.plus/img/animes/loop-7-kaime-no-akuyaku-reijou-wa-moto-tekikoku-de-jiyuu-kimama-na-hanayome-seikatsu-wo-mankitsu-suru/",
      "secao": "legendados",
      "pagina": 16,
      "total_episodios": 12,
      "link_video": "https://animefire.plus/video/loop-7-kaime-no-akuyaku-reijou-wa-moto-tekikoku-de-jiyuu-kimama-na-hanayome-seikatsu-wo-mankitsu-suru"
    },
    {
      "id": 2240,
      "nome": "Lord El-Melloi II Sei no Jikenbo: Rail Zeppelin Grace Note",
      "link": "https://animefire.plus/animes/lord-el-melloi-ii-sei-no-jikenbo-rail-zeppelin-grace-note-todos-os-episodios",
      "texto_original": "Lord El-Melloi II Sei no Jikenbo: Rail Zeppelin Grace Note",
      "rating": 7.36,
      "classificacao_etaria": "A16",
      "imagem_original": "https://animefire.plus/img/animes/lord-el-melloi-ii-sei-no-jikenbo-rail-zeppelin-grace-note.webp",
      "imagem_pasta": "https://animefire.plus/img/animes/lord-el-melloi-ii-sei-no-jikenbo-rail-zeppelin-grace-note/",
      "secao": "legendados",
      "pagina": 164,
      "total_episodios": 5,
      "link_video": "https://animefire.plus/video/lord-el-melloi-ii-sei-no-jikenbo-rail-zeppelin-grace-note"
    },
    {
      "id": 2242,
      "nome": "Lost Song (Dublado)",
      "link": "https://animefire.plus/animes/lost-song-dublado-todos-os-episodios",
      "texto_original": "Lost Song (Dublado)",
      "rating": 7.16,
      "classificacao_etaria": "A14",
      "imagem_original": "https://animefire.plus/img/animes/lost-song.webp",
      "imagem_pasta": "https://animefire.plus/img/animes/lost-song/",
      "secao": "dublados,legendados",
      "pagina": 24,
      "total_episodios": 12,
      "link_video": "https://animefire.plus/video/lost-song-dublado"
    },
    {
      "id": 2243,
      "nome": "Lost Universe",
      "link": "https://animefire.plus/animes/lost-universe-todos-os-episodios",
      "texto_original": "Lost Universe",
      "rating": 7.06,
      "classificacao_etaria": "A14",
      "imagem_original": "https://animefire.plus/img/animes/lost-universe.webp",
      "imagem_pasta": "https://animefire.plus/img/animes/lost-universe/",
      "secao": "legendados",
      "pagina": 167,
      "total_episodios": 26,
      "link_video": "https://animefire.plus/video/lost-universe"
    },
    {
      "id": 2244,
      "nome": "Lostorage Conflated WIXOSS",
      "link": "https://animefire.plus/animes/lostorage-conflated-wixoss-todos-os-episodios",
      "texto_original": "Lostorage Conflated WIXOSS",
      "rating": 7.19,
      "classificacao_etaria": "A16",
      "imagem_original": "https://animefire.plus/img/animes/lostorage-conflated-wixoss.webp",
      "imagem_pasta": "https://animefire.plus/img/animes/lostorage-conflated-wixoss/",
      "secao": "legendados",
      "pagina": 159,
      "total_episodios": 13,
      "link_video": "https://animefire.plus/video/lostorage-conflated-wixoss"
    },
    {
      "id": 2247,
      "nome": "Love Hina",
      "link": "https://animefire.plus/animes/love-hina-todos-os-episodios",
      "texto_original": "Love Hina",
      "rating": 7.22,
      "classificacao_etaria": "A14",
      "imagem_original": "https://animefire.plus/img/animes/love-hina.webp",
      "imagem_pasta": "https://animefire.plus/img/animes/love-hina/",
      "secao": "legendados",
      "pagina": 150,
      "total_episodios": 24,
      "link_video": "https://animefire.plus/video/love-hina"
    },
    {
      "id": 2248,
      "nome": "Love Lab",
      "link": "https://animefire.plus/animes/love-lab-todos-os-episodios",
      "texto_original": "Love Lab",
      "rating": 7.43,
      "classificacao_etaria": "A14",
      "imagem_original": "https://animefire.plus/img/animes/love-lab.webp",
      "imagem_pasta": "https://animefire.plus/img/animes/love-lab/",
      "secao": "legendados",
      "pagina": 140,
      "total_episodios": 6,
      "link_video": "https://animefire.plus/video/love-lab"
    },
    {
      "id": 2250,
      "nome": "Love Live! Nijigasaki Gakuen School Idol Doukoukai 2nd Season",
      "link": "https://animefire.plus/animes/love-live-nijigasaki-gakuen-school-idol-doukoukai-2-todos-os-episodios",
      "texto_original": "Love Live! Nijigasaki Gakuen School Idol Doukoukai 2nd Season",
      "rating": 7.66,
      "classificacao_etaria": "A14",
      "imagem_original": "https://animefire.plus/img/animes/love-live-nijigasaki-gakuen-school-idol-doukoukai-2.webp",
      "imagem_pasta": "https://animefire.plus/img/animes/love-live-nijigasaki-gakuen-school-idol-doukoukai-2/",
      "secao": "legendados",
      "pagina": 34,
      "total_episodios": 13,
      "link_video": "https://animefire.plus/video/love-live-nijigasaki-gakuen-school-idol-doukoukai-2"
    },
    {
      "id": 2251,
      "nome": "Love Live! Nijigasaki Gakuen School Idol Doukoukai: Next Sky",
      "link": "https://animefire.plus/animes/love-live-nijigasaki-gakuen-school-idol-doukoukai-next-sky-todos-os-episodios",
      "texto_original": "Love Live! Nijigasaki Gakuen School Idol Doukoukai: Next Sky",
      "rating": 7.29,
      "classificacao_etaria": "A14",
      "imagem_original": "https://animefire.plus/img/animes/love-live-nijigasaki-gakuen-school-idol-doukoukai-next-sky.webp",
      "imagem_pasta": "https://animefire.plus/img/animes/love-live-nijigasaki-gakuen-school-idol-doukoukai-next-sky/",
      "secao": "legendados",
      "pagina": 18,
      "total_episodios": 1,
      "link_video": "https://animefire.plus/video/love-live-nijigasaki-gakuen-school-idol-doukoukai-next-sky"
    },
    {
      "id": 2252,
      "nome": "Love Live! School Idol Project",
      "link": "https://animefire.plus/animes/love-live-school-idol-project-todos-os-episodios",
      "texto_original": "Love Live! School Idol Project",
      "rating": 7.57,
      "classificacao_etaria": "A14",
      "imagem_original": "https://animefire.plus/img/animes/love-live-school-idol-project.webp",
      "imagem_pasta": "https://animefire.plus/img/animes/love-live-school-idol-project/",
      "secao": "legendados",
      "pagina": 175,
      "total_episodios": 6,
      "link_video": "https://animefire.plus/video/love-live-school-idol-project"
    },
    {
      "id": 2253,
      "nome": "Love Live! School Idol Project 2nd Season",
      "link": "https://animefire.plus/animes/love-live-school-idol-project-2nd-season-todos-os-episodios",
      "texto_original": "Love Live! School Idol Project 2nd Season",
      "rating": 7.93,
      "classificacao_etaria": "A14",
      "imagem_original": "https://animefire.plus/img/animes/love-live-school-idol-project-2nd-season.webp",
      "imagem_pasta": "https://animefire.plus/img/animes/love-live-school-idol-project-2nd-season/",
      "secao": "legendados",
      "pagina": 137,
      "total_episodios": 13,
      "link_video": "https://animefire.plus/video/love-live-school-idol-project-2nd-season"
    },
    {
      "id": 2254,
      "nome": "Love Live! Sunshine!!",
      "link": "https://animefire.plus/animes/love-live-sunshine-todos-os-episodios",
      "texto_original": "Love Live! Sunshine!!",
      "rating": 7.5,
      "classificacao_etaria": "A14",
      "imagem_original": "https://animefire.plus/img/animes/love-live-sunshine.webp",
      "imagem_pasta": "https://animefire.plus/img/animes/love-live-sunshine/",
      "secao": "legendados",
      "pagina": 140,
      "total_episodios": 0,
      "link_video": "https://animefire.plus/video/love-live-sunshine"
    }
  ],
  "pagination": {
    "current_page": 47,
    "per_page": 20,
    "total_items": 1905,
    "total_pages": 96,
    "has_next": true,
    "has_prev": true
  }
}
