{
  "message": "Animes com rating entre 7 e 8",
  "rating_range": {
    "min": 7,
    "max": 8
  },
  "data": [
    {
      "id": 3296,
      "nome": "Seikimatsu Occult Gakuin",
      "link": "https://animefire.plus/animes/seikimatsu-occult-gakuin-todos-os-episodios",
      "texto_original": "Seikimatsu Occult Gakuin",
      "rating": 7.11,
      "classificacao_etaria": "A16",
      "imagem_original": "https://animefire.plus/img/animes/seikimatsu-occult-gakuin.webp",
      "imagem_pasta": "https://animefire.plus/img/animes/seikimatsu-occult-gakuin/",
      "secao": "legendados",
      "pagina": 175,
      "total_episodios": 13,
      "link_video": "https://animefire.plus/video/seikimatsu-occult-gakuin"
    },
    {
      "id": 3300,
      "nome": "Seirei Gensouki (Dublado)",
      "link": "https://animefire.plus/animes/seirei-gensouki-dublado-todos-os-episodios",
      "texto_original": "Seirei Gensouki (Dublado)",
      "rating": 7.07,
      "classificacao_etaria": "A14",
      "imagem_original": "https://animefire.plus/img/animes/seirei-gensouki.webp",
      "imagem_pasta": "https://animefire.plus/img/animes/seirei-gensouki/",
      "secao": "dublados,legendados",
      "pagina": 13,
      "total_episodios": 12,
      "link_video": "https://animefire.plus/video/seirei-gensouki-dublado"
    },
    {
      "id": 3303,
      "nome": "Seireitsukai no Blade Dance",
      "link": "https://animefire.plus/animes/seireitsukai-no-blade-dance-todos-os-episodios",
      "texto_original": "Seireitsukai no Blade Dance",
      "rating": 7.04,
      "classificacao_etaria": "A14",
      "imagem_original": "https://animefire.plus/img/animes/seireitsukai-no-blade-dance.webp",
      "imagem_pasta": "https://animefire.plus/img/animes/seireitsukai-no-blade-dance/",
      "secao": "legendados",
      "pagina": 118,
      "total_episodios": 3,
      "link_video": "https://animefire.plus/video/seireitsukai-no-blade-dance"
    },
    {
      "id": 3306,
      "nome": "Seisenshi Dunbine",
      "link": "https://animefire.plus/animes/seisenshi-dunbine-todos-os-episodios",
      "texto_original": "Seisenshi Dunbine",
      "rating": 7.16,
      "classificacao_etaria": "A14",
      "imagem_original": "https://animefire.plus/img/animes/seisenshi-dunbine.webp",
      "imagem_pasta": "https://animefire.plus/img/animes/seisenshi-dunbine/",
      "secao": "legendados",
      "pagina": 115,
      "total_episodios": 49,
      "link_video": "https://animefire.plus/video/seisenshi-dunbine"
    },
    {
      "id": 3310,
      "nome": "Seitokai No Ichizon",
      "link": "https://animefire.plus/animes/seitokai-no-ichizon-todos-os-episodios",
      "texto_original": "Seitokai No Ichizon",
      "rating": 7.42,
      "classificacao_etaria": "A14",
      "imagem_original": "https://animefire.plus/img/animes/seitokai-no-ichizon.webp",
      "imagem_pasta": "https://animefire.plus/img/animes/seitokai-no-ichizon/",
      "secao": "legendados",
      "pagina": 99,
      "total_episodios": 12,
      "link_video": "https://animefire.plus/video/seitokai-no-ichizon"
    },
    {
      "id": 3311,
      "nome": "Seitokai no Ichizon Lv.2",
      "link": "https://animefire.plus/animes/seitokai-no-ichizon-lv-2-todos-os-episodios",
      "texto_original": "Seitokai no Ichizon Lv.2",
      "rating": 7.43,
      "classificacao_etaria": "A14",
      "imagem_original": "https://animefire.plus/img/animes/seitokai-no-ichizon-lv-2.webp",
      "imagem_pasta": "https://animefire.plus/img/animes/seitokai-no-ichizon-lv-2/",
      "secao": "legendados",
      "pagina": 122,
      "total_episodios": 10,
      "link_video": "https://animefire.plus/video/seitokai-no-ichizon-lv-2"
    },
    {
      "id": 3312,
      "nome": "Seitokai no Ichizon Lv.2: Watasu Seitokai",
      "link": "https://animefire.plus/animes/seitokai-no-ichizon-lv-2-watasu-seitokai-todos-os-episodios",
      "texto_original": "Seitokai no Ichizon Lv.2: Watasu Seitokai",
      "rating": 7.35,
      "classificacao_etaria": "A14",
      "imagem_original": "https://animefire.plus/img/animes/seitokai-no-ichizon-lv-2-watasu-seitokai.webp",
      "imagem_pasta": "https://animefire.plus/img/animes/seitokai-no-ichizon-lv-2-watasu-seitokai/",
      "secao": "legendados",
      "pagina": 86,
      "total_episodios": 1,
      "link_video": "https://animefire.plus/video/seitokai-no-ichizon-lv-2-watasu-seitokai"
    },
    {
      "id": 3313,
      "nome": "Seitokai Yakuindomo",
      "link": "https://animefire.plus/animes/seitokai-yakuindomo-todos-os-episodios",
      "texto_original": "Seitokai Yakuindomo",
      "rating": 7.66,
      "classificacao_etaria": "A16",
      "imagem_original": "https://animefire.plus/img/animes/seitokai-yakuindomo.webp",
      "imagem_pasta": "https://animefire.plus/img/animes/seitokai-yakuindomo/",
      "secao": "legendados",
      "pagina": 162,
      "total_episodios": 13,
      "link_video": "https://animefire.plus/video/seitokai-yakuindomo"
    },
    {
      "id": 3314,
      "nome": "Seitokai Yakuindomo*",
      "link": "https://animefire.plus/animes/seitokai-yakuindomo-2-todos-os-episodios",
      "texto_original": "Seitokai Yakuindomo*",
      "rating": 7.78,
      "classificacao_etaria": "A16",
      "imagem_original": "https://animefire.plus/img/animes/seitokai-yakuindomo.webp",
      "imagem_pasta": "https://animefire.plus/img/animes/seitokai-yakuindomo/",
      "secao": "legendados",
      "pagina": 90,
      "total_episodios": 0,
      "link_video": "https://animefire.plus/video/seitokai-yakuindomo-2"
    },
    {
      "id": 3318,
      "nome": "Sekai Saikou no Ansatsusha, Isekai Kizoku ni Tensei suru (Dublado)",
      "link": "https://animefire.plus/animes/sekai-saikou-no-ansatsusha-isekai-kizoku-ni-tensei-suru-dublado-todos-os-episodios",
      "texto_original": "Sekai Saikou no Ansatsusha, Isekai Kizoku ni Tensei suru (Dublado)",
      "rating": 7.33,
      "classificacao_etaria": "A14",
      "imagem_original": "https://animefire.plus/img/animes/sekai-saikou-no-ansatsusha-isekai-kizoku-ni-tensei-suru.webp",
      "imagem_pasta": "https://animefire.plus/img/animes/sekai-saikou-no-ansatsusha-isekai-kizoku-ni-tensei-suru/",
      "secao": "dublados,legendados",
      "pagina": 14,
      "total_episodios": 12,
      "link_video": "https://animefire.plus/video/sekai-saikou-no-ansatsusha-isekai-kizoku-ni-tensei-suru-dublado"
    },
    {
      "id": 3319,
      "nome": "Sekai Seifuku: Bouryaku no Zvezda",
      "link": "https://animefire.plus/animes/sekai-seifuku-bouryaku-no-zvezda-todos-os-episodios",
      "texto_original": "Sekai Seifuku: Bouryaku no Zvezda",
      "rating": 7.14,
      "classificacao_etaria": "A14",
      "imagem_original": "https://animefire.plus/img/animes/sekai-seifuku-bouryaku-no-zvezda.webp",
      "imagem_pasta": "https://animefire.plus/img/animes/sekai-seifuku-bouryaku-no-zvezda/",
      "secao": "legendados",
      "pagina": 177,
      "total_episodios": 12,
      "link_video": "https://animefire.plus/video/sekai-seifuku-bouryaku-no-zvezda"
    },
    {
      "id": 3323,
      "nome": "Sekirei",
      "link": "https://animefire.plus/animes/sekirei-todos-os-episodios",
      "texto_original": "Sekirei",
      "rating": 7.27,
      "classificacao_etaria": "A18",
      "imagem_original": "https://animefire.plus/img/animes/sekirei.webp",
      "imagem_pasta": "https://animefire.plus/img/animes/sekirei/",
      "secao": "legendados",
      "pagina": 116,
      "total_episodios": 12,
      "link_video": "https://animefire.plus/video/sekirei"
    },
    {
      "id": 3324,
      "nome": "Sekirei: Pure Engagement",
      "link": "https://animefire.plus/animes/sekirei-pure-engagement-todos-os-episodios",
      "texto_original": "Sekirei: Pure Engagement",
      "rating": 7.49,
      "classificacao_etaria": "A18",
      "imagem_original": "https://animefire.plus/img/animes/sekirei-pure-engagement.webp",
      "imagem_pasta": "https://animefire.plus/img/animes/sekirei-pure-engagement/",
      "secao": "legendados",
      "pagina": 154,
      "total_episodios": 14,
      "link_video": "https://animefire.plus/video/sekirei-pure-engagement"
    },
    {
      "id": 3326,
      "nome": "Selection Project",
      "link": "https://animefire.plus/animes/selection-project-todos-os-episodios",
      "texto_original": "Selection Project",
      "rating": 7.26,
      "classificacao_etaria": "A14",
      "imagem_original": "https://animefire.plus/img/animes/selection-project.webp",
      "imagem_pasta": "https://animefire.plus/img/animes/selection-project/",
      "secao": "legendados",
      "pagina": 38,
      "total_episodios": 13,
      "link_video": "https://animefire.plus/video/selection-project"
    },
    {
      "id": 3327,
      "nome": "Selector Infected WIXOSS",
      "link": "https://animefire.plus/animes/selector-infected-wixoss-todos-os-episodios",
      "texto_original": "Selector Infected WIXOSS",
      "rating": 7.33,
      "classificacao_etaria": "A16",
      "imagem_original": "https://animefire.plus/img/animes/selector-infected-wixoss.webp",
      "imagem_pasta": "https://animefire.plus/img/animes/selector-infected-wixoss/",
      "secao": "legendados",
      "pagina": 100,
      "total_episodios": 12,
      "link_video": "https://animefire.plus/video/selector-infected-wixoss"
    },
    {
      "id": 3328,
      "nome": "Selector Spread WIXOSS",
      "link": "https://animefire.plus/animes/selector-spread-wixoss-todos-os-episodios",
      "texto_original": "Selector Spread WIXOSS",
      "rating": 7.46,
      "classificacao_etaria": "A16",
      "imagem_original": "https://animefire.plus/img/animes/selector-spread-wixoss.webp",
      "imagem_pasta": "https://animefire.plus/img/animes/selector-spread-wixoss/",
      "secao": "legendados",
      "pagina": 104,
      "total_episodios": 1,
      "link_video": "https://animefire.plus/video/selector-spread-wixoss"
    },
    {
      "id": 3329,
      "nome": "Sengoku Basara",
      "link": "https://animefire.plus/animes/sengoku-basara-todos-os-episodios",
      "texto_original": "Sengoku Basara",
      "rating": 7.47,
      "classificacao_etaria": "A14",
      "imagem_original": "https://animefire.plus/img/animes/sengoku-basara.webp",
      "imagem_pasta": "https://animefire.plus/img/animes/sengoku-basara/",
      "secao": "legendados",
      "pagina": 130,
      "total_episodios": 7,
      "link_video": "https://animefire.plus/video/sengoku-basara"
    },
    {
      "id": 3330,
      "nome": "Sengoku Basara Two",
      "link": "https://animefire.plus/animes/sengoku-basara-two-todos-os-episodios",
      "texto_original": "Sengoku Basara Two",
      "rating": 7.63,
      "classificacao_etaria": "A14",
      "imagem_original": "https://animefire.plus/img/animes/sengoku-basara-two.webp",
      "imagem_pasta": "https://animefire.plus/img/animes/sengoku-basara-two/",
      "secao": "legendados",
      "pagina": 105,
      "total_episodios": 12,
      "link_video": "https://animefire.plus/video/sengoku-basara-two"
    },
    {
      "id": 3331,
      "nome": "Sengoku Basara Two: Ryuko, Itadaki no Chikai! Atsuki Mirai e Kakeru Tamashii!!",
      "link": "https://animefire.plus/animes/sengoku-basara-two-ryuko-itadaki-no-chikai-atsuki-mirai-e-kakeru-tamashii-todos-os-episodios",
      "texto_original": "Sengoku Basara Two: Ryuko, Itadaki no Chikai! Atsuki Mirai e Kakeru Tamashii!!",
      "rating": 7.29,
      "classificacao_etaria": "A14",
      "imagem_original": "https://animefire.plus/img/animes/sengoku-basara-two-ryuko-itadaki-no-chikai-atsuki-mirai-e-kakeru-tamashii.webp",
      "imagem_pasta": "https://animefire.plus/img/animes/sengoku-basara-two-ryuko-itadaki-no-chikai-atsuki-mirai-e-kakeru-tamashii/",
      "secao": "legendados",
      "pagina": 70,
      "total_episodios": 1,
      "link_video": "https://animefire.plus/video/sengoku-basara-two-ryuko-itadaki-no-chikai-atsuki-mirai-e-kakeru-tamashii"
    },
    {
      "id": 3337,
      "nome": "Sengoku Youko: Senma Konton-hen",
      "link": "https://animefire.plus/animes/sengoku-youko-senma-konton-hen-todos-os-episodios",
      "texto_original": "Sengoku Youko: Senma Konton-hen",
      "rating": 7.58,
      "classificacao_etaria": "A14",
      "imagem_original": "https://animefire.plus/img/animes/sengoku-youko-senma-konton-hen.webp",
      "imagem_pasta": "https://animefire.plus/img/animes/sengoku-youko-senma-konton-hen/",
      "secao": "legendados",
      "pagina": 11,
      "total_episodios": 22,
      "link_video": "https://animefire.plus/video/sengoku-youko-senma-konton-hen"
    }
  ],
  "pagination": {
    "current_page": 71,
    "per_page": 20,
    "total_items": 1905,
    "total_pages": 96,
    "has_next": true,
    "has_prev": true
  }
}
