{
  "message": "Animes com rating entre 7 e 8",
  "rating_range": {
    "min": 7,
    "max": 8
  },
  "data": [
    {
      "id": 2959,
      "nome": "Patalliro!",
      "link": "https://animefire.plus/animes/patalliro-todos-os-episodios",
      "texto_original": "Patalliro!",
      "rating": 7.24,
      "classificacao_etaria": "A14",
      "imagem_original": "https://animefire.plus/img/animes/patalliro.webp",
      "imagem_pasta": "https://animefire.plus/img/animes/patalliro/",
      "secao": "legendados",
      "pagina": 43,
      "total_episodios": 35,
      "link_video": "https://animefire.plus/video/patalliro"
    },
    {
      "id": 2960,
      "nome": "Peace Maker Kurogane",
      "link": "https://animefire.plus/animes/peace-maker-kurogane-todos-os-episodios",
      "texto_original": "Peace Maker Kurogane",
      "rating": 7.39,
      "classificacao_etaria": "A16",
      "imagem_original": "https://animefire.plus/img/animes/peace-maker-kurogane.webp",
      "imagem_pasta": "https://animefire.plus/img/animes/peace-maker-kurogane/",
      "secao": "legendados",
      "pagina": 163,
      "total_episodios": 24,
      "link_video": "https://animefire.plus/video/peace-maker-kurogane"
    },
    {
      "id": 2962,
      "nome": "Peach Girl",
      "link": "https://animefire.plus/animes/peach-girl-todos-os-episodios",
      "texto_original": "Peach Girl",
      "rating": 7.11,
      "classificacao_etaria": "A14",
      "imagem_original": "https://animefire.plus/img/animes/peach-girl.webp",
      "imagem_pasta": "https://animefire.plus/img/animes/peach-girl/",
      "secao": "legendados",
      "pagina": 165,
      "total_episodios": 25,
      "link_video": "https://animefire.plus/video/peach-girl"
    },
    {
      "id": 2965,
      "nome": "Persona 4 the Animation",
      "link": "https://animefire.plus/animes/persona-4-the-animation-todos-os-episodios",
      "texto_original": "Persona 4 the Animation",
      "rating": 7.59,
      "classificacao_etaria": "A14",
      "imagem_original": "https://animefire.plus/img/animes/persona-4-the-animation.webp",
      "imagem_pasta": "https://animefire.plus/img/animes/persona-4-the-animation/",
      "secao": "legendados",
      "pagina": 165,
      "total_episodios": 15,
      "link_video": "https://animefire.plus/video/persona-4-the-animation"
    },
    {
      "id": 2971,
      "nome": "Petshop of Horrors",
      "link": "https://animefire.plus/animes/petshop-of-horrors-todos-os-episodios",
      "texto_original": "Petshop of Horrors",
      "rating": 7.33,
      "classificacao_etaria": "A18",
      "imagem_original": "https://animefire.plus/img/animes/petshop-of-horrors.webp",
      "imagem_pasta": "https://animefire.plus/img/animes/petshop-of-horrors/",
      "secao": "legendados",
      "pagina": 113,
      "total_episodios": 4,
      "link_video": "https://animefire.plus/video/petshop-of-horrors"
    },
    {
      "id": 2976,
      "nome": "Phi Brain: Kami no Puzzle",
      "link": "https://animefire.plus/animes/phi-brain-kami-no-puzzle-todos-os-episodios",
      "texto_original": "Phi Brain: Kami no Puzzle",
      "rating": 7.26,
      "classificacao_etaria": "A14",
      "imagem_original": "https://animefire.plus/img/animes/phi-brain-kami-no-puzzle.webp",
      "imagem_pasta": "https://animefire.plus/img/animes/phi-brain-kami-no-puzzle/",
      "secao": "legendados",
      "pagina": 124,
      "total_episodios": 0,
      "link_video": "https://animefire.plus/video/phi-brain-kami-no-puzzle"
    },
    {
      "id": 2977,
      "nome": "Phi Brain: Kami no Puzzle - Orpheus Order-hen",
      "link": "https://animefire.plus/animes/phi-brain-kami-no-puzzle---orpheus-order-hen-todos-os-episodios",
      "texto_original": "Phi Brain: Kami no Puzzle - Orpheus Order-hen",
      "rating": 7.36,
      "classificacao_etaria": "A14",
      "imagem_original": "https://animefire.plus/img/animes/phi-brain-kami-no-puzzle---orpheus-order-hen.webp",
      "imagem_pasta": "https://animefire.plus/img/animes/phi-brain-kami-no-puzzle---orpheus-order-hen/",
      "secao": "legendados",
      "pagina": 154,
      "total_episodios": 5,
      "link_video": "https://animefire.plus/video/phi-brain-kami-no-puzzle---orpheus-order-hen"
    },
    {
      "id": 2978,
      "nome": "Phi Brain: Kami no Puzzle - Shukuteki! Rätsel-hen",
      "link": "https://animefire.plus/animes/phi-brain-kami-no-puzzle---shukuteki-raetsel-hen-todos-os-episodios",
      "texto_original": "Phi Brain: Kami no Puzzle - Shukuteki! Rätsel-hen",
      "rating": 7.36,
      "classificacao_etaria": "A14",
      "imagem_original": "https://animefire.plus/img/animes/phi-brain-kami-no-puzzle---shukuteki-raetsel-hen.webp",
      "imagem_pasta": "https://animefire.plus/img/animes/phi-brain-kami-no-puzzle---shukuteki-raetsel-hen/",
      "secao": "legendados",
      "pagina": 148,
      "total_episodios": 5,
      "link_video": "https://animefire.plus/video/phi-brain-kami-no-puzzle---shukuteki-raetsel-hen"
    },
    {
      "id": 2982,
      "nome": "Piano no Mori (TV) (Dublado)",
      "link": "https://animefire.plus/animes/piano-no-mori-tv-dublado-todos-os-episodios",
      "texto_original": "Piano no Mori (TV) (Dublado)",
      "rating": 7.41,
      "classificacao_etaria": "A14",
      "imagem_original": "https://animefire.plus/img/animes/piano-no-mori-tv.webp",
      "imagem_pasta": "https://animefire.plus/img/animes/piano-no-mori-tv/",
      "secao": "dublados,legendados",
      "pagina": 24,
      "total_episodios": 12,
      "link_video": "https://animefire.plus/video/piano-no-mori-tv-dublado"
    },
    {
      "id": 2983,
      "nome": "Piano no Mori (TV) 2nd Season (Dublado)",
      "link": "https://animefire.plus/animes/piano-no-mori-tv-2nd-season-dublado-todos-os-episodios",
      "texto_original": "Piano no Mori (TV) 2nd Season (Dublado)",
      "rating": 7.4,
      "classificacao_etaria": "A14",
      "imagem_original": "https://animefire.plus/img/animes/piano-no-mori-tv-2nd-season.webp",
      "imagem_pasta": "https://animefire.plus/img/animes/piano-no-mori-tv-2nd-season/",
      "secao": "dublados,legendados",
      "pagina": 23,
      "total_episodios": 12,
      "link_video": "https://animefire.plus/video/piano-no-mori-tv-2nd-season-dublado"
    },
    {
      "id": 2986,
      "nome": "Pita Ten",
      "link": "https://animefire.plus/animes/pita-ten-todos-os-episodios",
      "texto_original": "Pita Ten",
      "rating": 7.02,
      "classificacao_etaria": null,
      "imagem_original": "https://animefire.plus/img/animes/pita-ten.webp",
      "imagem_pasta": "https://animefire.plus/img/animes/pita-ten/",
      "secao": "legendados",
      "pagina": 109,
      "total_episodios": 0,
      "link_video": "https://animefire.plus/video/pita-ten"
    },
    {
      "id": 2987,
      "nome": "Planet With",
      "link": "https://animefire.plus/animes/planet-with-todos-os-episodios",
      "texto_original": "Planet With",
      "rating": 7.37,
      "classificacao_etaria": "A14",
      "imagem_original": "https://animefire.plus/img/animes/planet-with.webp",
      "imagem_pasta": "https://animefire.plus/img/animes/planet-with/",
      "secao": "legendados",
      "pagina": 173,
      "total_episodios": 12,
      "link_video": "https://animefire.plus/video/planet-with"
    },
    {
      "id": 2988,
      "nome": "Planetarian: Chiisana Hoshi no Yume",
      "link": "https://animefire.plus/animes/planetarian-chiisana-hoshi-no-yume-todos-os-episodios",
      "texto_original": "Planetarian: Chiisana Hoshi no Yume",
      "rating": 7.59,
      "classificacao_etaria": "A14",
      "imagem_original": "https://animefire.plus/img/animes/planetarian-chiisana-hoshi-no-yume.webp",
      "imagem_pasta": "https://animefire.plus/img/animes/planetarian-chiisana-hoshi-no-yume/",
      "secao": "legendados",
      "pagina": 144,
      "total_episodios": 5,
      "link_video": "https://animefire.plus/video/planetarian-chiisana-hoshi-no-yume"
    },
    {
      "id": 2991,
      "nome": "Plastic Memories",
      "link": "https://animefire.plus/animes/plastic-memories-todos-os-episodios",
      "texto_original": "Plastic Memories",
      "rating": 7.97,
      "classificacao_etaria": "A14",
      "imagem_original": "https://animefire.plus/img/animes/plastic-memories.webp",
      "imagem_pasta": "https://animefire.plus/img/animes/plastic-memories/",
      "secao": "legendados",
      "pagina": 79,
      "total_episodios": 13,
      "link_video": "https://animefire.plus/video/plastic-memories"
    },
    {
      "id": 2992,
      "nome": "Plastic Neesan",
      "link": "https://animefire.plus/animes/plastic-neesan-todos-os-episodios",
      "texto_original": "Plastic Neesan",
      "rating": 7.29,
      "classificacao_etaria": "A14",
      "imagem_original": "https://animefire.plus/img/animes/plastic-neesan.webp",
      "imagem_pasta": "https://animefire.plus/img/animes/plastic-neesan/",
      "secao": "legendados",
      "pagina": 67,
      "total_episodios": 1,
      "link_video": "https://animefire.plus/video/plastic-neesan"
    },
    {
      "id": 2996,
      "nome": "Pokemon (2019) (Dublado)",
      "link": "https://animefire.plus/animes/pokemon-2019-dublado-todos-os-episodios",
      "texto_original": "Pokemon (2019) (Dublado)",
      "rating": 7.21,
      "classificacao_etaria": "A10",
      "imagem_original": "https://animefire.plus/img/animes/pokemon-2019.webp",
      "imagem_pasta": "https://animefire.plus/img/animes/pokemon-2019/",
      "secao": "dublados,legendados",
      "pagina": 17,
      "total_episodios": 76,
      "link_video": "https://animefire.plus/video/pokemon-2019-dublado"
    },
    {
      "id": 2997,
      "nome": "Pokemon (2019): Harukanaru Aoi Sora (Dublado)",
      "link": "https://animefire.plus/animes/pokemon-2019-harukanaru-aoi-sora-dublado-todos-os-episodios",
      "texto_original": "Pokemon (2019): Harukanaru Aoi Sora (Dublado)",
      "rating": 7.26,
      "classificacao_etaria": "A10",
      "imagem_original": "https://animefire.plus/img/animes/pokemon-2019-harukanaru-aoi-sora.webp",
      "imagem_pasta": "https://animefire.plus/img/animes/pokemon-2019-harukanaru-aoi-sora/",
      "secao": "dublados",
      "pagina": 3,
      "total_episodios": 1,
      "link_video": "https://animefire.plus/video/pokemon-2019-harukanaru-aoi-sora-dublado"
    },
    {
      "id": 2999,
      "nome": "Pokemon (Dublado)",
      "link": "https://animefire.plus/animes/pokemon-dublado-todos-os-episodios",
      "texto_original": "Pokemon (Dublado)",
      "rating": 7.42,
      "classificacao_etaria": "A10",
      "imagem_original": "https://animefire.plus/img/animes/pokemon.webp",
      "imagem_pasta": "https://animefire.plus/img/animes/pokemon/",
      "secao": "dublados",
      "pagina": 27,
      "total_episodios": 0,
      "link_video": "https://animefire.plus/video/pokemon-dublado"
    },
    {
      "id": 3000,
      "nome": "Pokemon Advanced Generation (Dublado)",
      "link": "https://animefire.plus/animes/pokemon-advanced-generation-dublado-todos-os-episodios",
      "texto_original": "Pokemon Advanced Generation (Dublado)",
      "rating": 7.18,
      "classificacao_etaria": "A10",
      "imagem_original": "https://animefire.plus/img/animes/pokemon-advanced-generation.webp",
      "imagem_pasta": "https://animefire.plus/img/animes/pokemon-advanced-generation/",
      "secao": "dublados,legendados",
      "pagina": 28,
      "total_episodios": 104,
      "link_video": "https://animefire.plus/video/pokemon-advanced-generation-dublado"
    },
    {
      "id": 3002,
      "nome": "Pokemon Diamond & Pearl",
      "link": "https://animefire.plus/animes/pokemon-diamond-pearl-todos-os-episodios",
      "texto_original": "Pokemon Diamond & Pearl",
      "rating": 7.24,
      "classificacao_etaria": "A10",
      "imagem_original": "https://animefire.plus/img/animes/pokemon-diamond-pearl.webp",
      "imagem_pasta": "https://animefire.plus/img/animes/pokemon-diamond-pearl/",
      "secao": "legendados",
      "pagina": 126,
      "total_episodios": 186,
      "link_video": "https://animefire.plus/video/pokemon-diamond-pearl"
    }
  ],
  "pagination": {
    "current_page": 63,
    "per_page": 20,
    "total_items": 1905,
    "total_pages": 96,
    "has_next": true,
    "has_prev": true
  }
}
