{
  "message": "Animes com rating entre 7 e 8",
  "rating_range": {
    "min": 7,
    "max": 8
  },
  "data": [
    {
      "id": 1259,
      "nome": "Grisaia No Rakuen",
      "link": "https://animefire.plus/animes/grisaia-no-rakuen-todos-os-episodios",
      "texto_original": "Grisaia No Rakuen",
      "rating": 7.98,
      "classificacao_etaria": "A16",
      "imagem_original": "https://animefire.plus/img/animes/grisaia-no-rakuen.webp",
      "imagem_pasta": "https://animefire.plus/img/animes/grisaia-no-rakuen/",
      "secao": "legendados",
      "pagina": 91,
      "total_episodios": 10,
      "link_video": "https://animefire.plus/video/grisaia-no-rakuen"
    },
    {
      "id": 1261,
      "nome": "Groove Adventure Rave",
      "link": "https://animefire.plus/animes/groove-adventure-rave-todos-os-episodios",
      "texto_original": "Groove Adventure Rave",
      "rating": 7.36,
      "classificacao_etaria": "A14",
      "imagem_original": "https://animefire.plus/img/animes/groove-adventure-rave.webp",
      "imagem_pasta": "https://animefire.plus/img/animes/groove-adventure-rave/",
      "secao": "legendados",
      "pagina": 128,
      "total_episodios": 0,
      "link_video": "https://animefire.plus/video/groove-adventure-rave"
    },
    {
      "id": 1264,
      "nome": "Gugure! Kokkuri-san",
      "link": "https://animefire.plus/animes/gugure-kokkuri-san-todos-os-episodios",
      "texto_original": "Gugure! Kokkuri-san",
      "rating": 7.64,
      "classificacao_etaria": "A14",
      "imagem_original": "https://animefire.plus/img/animes/gugure-kokkuri-san.webp",
      "imagem_pasta": "https://animefire.plus/img/animes/gugure-kokkuri-san/",
      "secao": "legendados",
      "pagina": 146,
      "total_episodios": 7,
      "link_video": "https://animefire.plus/video/gugure-kokkuri-san"
    },
    {
      "id": 1265,
      "nome": "Gugure! Kokkuri-san Specials",
      "link": "https://animefire.plus/animes/gugure-kokkuri-san-specials-todos-os-episodios",
      "texto_original": "Gugure! Kokkuri-san Specials",
      "rating": 7.23,
      "classificacao_etaria": "A14",
      "imagem_original": "https://animefire.plus/img/animes/gugure-kokkuri-san-specials.webp",
      "imagem_pasta": "https://animefire.plus/img/animes/gugure-kokkuri-san-specials/",
      "secao": "legendados",
      "pagina": 84,
      "total_episodios": 4,
      "link_video": "https://animefire.plus/video/gugure-kokkuri-san-specials"
    },
    {
      "id": 1267,
      "nome": "Guilty Crown",
      "link": "https://animefire.plus/animes/guilty-crown-todos-os-episodios",
      "texto_original": "Guilty Crown",
      "rating": 7.68,
      "classificacao_etaria": "A16",
      "imagem_original": "https://animefire.plus/img/animes/guilty-crown.webp",
      "imagem_pasta": "https://animefire.plus/img/animes/guilty-crown/",
      "secao": "legendados",
      "pagina": 127,
      "total_episodios": 22,
      "link_video": "https://animefire.plus/video/guilty-crown"
    },
    {
      "id": 1268,
      "nome": "Guilty Crown: 4-koma Gekijou",
      "link": "https://animefire.plus/animes/guilty-crown-4-koma-gekijou-todos-os-episodios",
      "texto_original": "Guilty Crown: 4-koma Gekijou",
      "rating": 7.07,
      "classificacao_etaria": "A16",
      "imagem_original": "https://animefire.plus/img/animes/guilty-crown-4-koma-gekijou.webp",
      "imagem_pasta": "https://animefire.plus/img/animes/guilty-crown-4-koma-gekijou/",
      "secao": "legendados",
      "pagina": 88,
      "total_episodios": 0,
      "link_video": "https://animefire.plus/video/guilty-crown-4-koma-gekijou"
    },
    {
      "id": 1271,
      "nome": "Guin Saga",
      "link": "https://animefire.plus/animes/guin-saga-todos-os-episodios",
      "texto_original": "Guin Saga",
      "rating": 7.22,
      "classificacao_etaria": "A14",
      "imagem_original": "https://animefire.plus/img/animes/guin-saga.webp",
      "imagem_pasta": "https://animefire.plus/img/animes/guin-saga/",
      "secao": "legendados",
      "pagina": 64,
      "total_episodios": 26,
      "link_video": "https://animefire.plus/video/guin-saga"
    },
    {
      "id": 1273,
      "nome": "Gun X Sword",
      "link": "https://animefire.plus/animes/gun-x-sword-todos-os-episodios",
      "texto_original": "Gun X Sword",
      "rating": 7.33,
      "classificacao_etaria": "A14",
      "imagem_original": "https://animefire.plus/img/animes/gun-x-sword.webp",
      "imagem_pasta": "https://animefire.plus/img/animes/gun-x-sword/",
      "secao": "legendados",
      "pagina": 105,
      "total_episodios": 26,
      "link_video": "https://animefire.plus/video/gun-x-sword"
    },
    {
      "id": 1276,
      "nome": "Gundam Build Divers Re:Rise",
      "link": "https://animefire.plus/animes/gundam-build-divers-re-rise-todos-os-episodios",
      "texto_original": "Gundam Build Divers Re:Rise",
      "rating": 7.03,
      "classificacao_etaria": "A14",
      "imagem_original": "https://animefire.plus/img/animes/gundam-build-divers-re-rise.webp",
      "imagem_pasta": "https://animefire.plus/img/animes/gundam-build-divers-re-rise/",
      "secao": "legendados",
      "pagina": 109,
      "total_episodios": 2,
      "link_video": "https://animefire.plus/video/gundam-build-divers-re-rise"
    },
    {
      "id": 1277,
      "nome": "Gundam Build Divers Re:Rise 2nd Season",
      "link": "https://animefire.plus/animes/gundam-build-divers-re-rise-2nd-season-todos-os-episodios",
      "texto_original": "Gundam Build Divers Re:Rise 2nd Season",
      "rating": 7.56,
      "classificacao_etaria": null,
      "imagem_original": "https://animefire.plus/img/animes/gundam-build-divers-re-rise-2nd-season.webp",
      "imagem_pasta": "https://animefire.plus/img/animes/gundam-build-divers-re-rise-2nd-season/",
      "secao": "legendados",
      "pagina": 80,
      "total_episodios": 6,
      "link_video": "https://animefire.plus/video/gundam-build-divers-re-rise-2nd-season"
    },
    {
      "id": 1278,
      "nome": "Gundam Build Fighters",
      "link": "https://animefire.plus/animes/gundam-build-fighters-todos-os-episodios",
      "texto_original": "Gundam Build Fighters",
      "rating": 7.89,
      "classificacao_etaria": null,
      "imagem_original": "https://animefire.plus/img/animes/gundam-build-fighters.webp",
      "imagem_pasta": "https://animefire.plus/img/animes/gundam-build-fighters/",
      "secao": "legendados",
      "pagina": 122,
      "total_episodios": 4,
      "link_video": "https://animefire.plus/video/gundam-build-fighters"
    },
    {
      "id": 1279,
      "nome": "Gundam Build Fighters Try",
      "link": "https://animefire.plus/animes/gundam-build-fighters-try-todos-os-episodios",
      "texto_original": "Gundam Build Fighters Try",
      "rating": 7.39,
      "classificacao_etaria": null,
      "imagem_original": "https://animefire.plus/img/animes/gundam-build-fighters-try.webp",
      "imagem_pasta": "https://animefire.plus/img/animes/gundam-build-fighters-try/",
      "secao": "legendados",
      "pagina": 142,
      "total_episodios": 0,
      "link_video": "https://animefire.plus/video/gundam-build-fighters-try"
    },
    {
      "id": 1281,
      "nome": "Gungrave",
      "link": "https://animefire.plus/animes/gungrave-todos-os-episodios",
      "texto_original": "Gungrave",
      "rating": 7.9,
      "classificacao_etaria": "A16",
      "imagem_original": "https://animefire.plus/img/animes/gungrave.webp",
      "imagem_pasta": "https://animefire.plus/img/animes/gungrave/",
      "secao": "legendados",
      "pagina": 101,
      "total_episodios": 26,
      "link_video": "https://animefire.plus/video/gungrave"
    },
    {
      "id": 1284,
      "nome": "Gunnm (Dublado)",
      "link": "https://animefire.plus/animes/gunnm-dublado-todos-os-episodios",
      "texto_original": "Gunnm (Dublado)",
      "rating": 7.1,
      "classificacao_etaria": "A18",
      "imagem_original": "https://animefire.plus/img/animes/gunnm.webp",
      "imagem_pasta": "https://animefire.plus/img/animes/gunnm/",
      "secao": "dublados,legendados",
      "pagina": 21,
      "total_episodios": 2,
      "link_video": "https://animefire.plus/video/gunnm-dublado"
    },
    {
      "id": 1285,
      "nome": "Gunslinger Girl",
      "link": "https://animefire.plus/animes/gunslinger-girl-todos-os-episodios",
      "texto_original": "Gunslinger Girl",
      "rating": 7.48,
      "classificacao_etaria": "A16",
      "imagem_original": "https://animefire.plus/img/animes/gunslinger-girl.webp",
      "imagem_pasta": "https://animefire.plus/img/animes/gunslinger-girl/",
      "secao": "legendados",
      "pagina": 101,
      "total_episodios": 13,
      "link_video": "https://animefire.plus/video/gunslinger-girl"
    },
    {
      "id": 1286,
      "nome": "Gunslinger Girl: Il Teatrino",
      "link": "https://animefire.plus/animes/gunslinger-girl-il-teatrino-todos-os-episodios",
      "texto_original": "Gunslinger Girl: Il Teatrino",
      "rating": 7.19,
      "classificacao_etaria": "A16",
      "imagem_original": "https://animefire.plus/img/animes/gunslinger-girl-il-teatrino.webp",
      "imagem_pasta": "https://animefire.plus/img/animes/gunslinger-girl-il-teatrino/",
      "secao": "legendados",
      "pagina": 71,
      "total_episodios": 13,
      "link_video": "https://animefire.plus/video/gunslinger-girl-il-teatrino"
    },
    {
      "id": 1287,
      "nome": "Gunslinger Girl: Il Teatrino OVA",
      "link": "https://animefire.plus/animes/gunslinger-girl-il-teatrino-ova-todos-os-episodios",
      "texto_original": "Gunslinger Girl: Il Teatrino OVA",
      "rating": 7.02,
      "classificacao_etaria": "A16",
      "imagem_original": "https://animefire.plus/img/animes/gunslinger-girl-il-teatrino-ova.webp",
      "imagem_pasta": "https://animefire.plus/img/animes/gunslinger-girl-il-teatrino-ova/",
      "secao": "legendados",
      "pagina": 71,
      "total_episodios": 1,
      "link_video": "https://animefire.plus/video/gunslinger-girl-il-teatrino-ova"
    },
    {
      "id": 1288,
      "nome": "Gunsmith Cats (Dublado)",
      "link": "https://animefire.plus/animes/gunsmith-cats-dublado-todos-os-episodios",
      "texto_original": "Gunsmith Cats (Dublado)",
      "rating": 7.27,
      "classificacao_etaria": "A14",
      "imagem_original": "https://animefire.plus/img/animes/gunsmith-cats.webp",
      "imagem_pasta": "https://animefire.plus/img/animes/gunsmith-cats/",
      "secao": "dublados",
      "pagina": 23,
      "total_episodios": 3,
      "link_video": "https://animefire.plus/video/gunsmith-cats-dublado"
    },
    {
      "id": 1299,
      "nome": "H2O: Footprints In The Sand",
      "link": "https://animefire.plus/animes/h2o-footprints-in-the-sand-todos-os-episodios",
      "texto_original": "H2O: Footprints In The Sand",
      "rating": 7.16,
      "classificacao_etaria": "A14",
      "imagem_original": "https://animefire.plus/img/animes/h2o-footprints-in-the-sand.webp",
      "imagem_pasta": "https://animefire.plus/img/animes/h2o-footprints-in-the-sand/",
      "secao": "legendados",
      "pagina": 108,
      "total_episodios": 0,
      "link_video": "https://animefire.plus/video/h2o-footprints-in-the-sand"
    },
    {
      "id": 1304,
      "nome": "Hagure Yuusha no Aesthetica",
      "link": "https://animefire.plus/animes/hagure-yuusha-no-aesthetica-todos-os-episodios",
      "texto_original": "Hagure Yuusha no Aesthetica",
      "rating": 7.1,
      "classificacao_etaria": "A18",
      "imagem_original": "https://animefire.plus/img/animes/hagure-yuusha-no-aesthetica.webp",
      "imagem_pasta": "https://animefire.plus/img/animes/hagure-yuusha-no-aesthetica/",
      "secao": "legendados",
      "pagina": 165,
      "total_episodios": 5,
      "link_video": "https://animefire.plus/video/hagure-yuusha-no-aesthetica"
    }
  ],
  "pagination": {
    "current_page": 26,
    "per_page": 20,
    "total_items": 1905,
    "total_pages": 96,
    "has_next": true,
    "has_prev": true
  }
}
