{
  "message": "Animes com rating entre 7 e 8",
  "rating_range": {
    "min": 7,
    "max": 8
  },
  "data": [
    {
      "id": 1305,
      "nome": "Hai To Gensou No Grimgar",
      "link": "https://animefire.plus/animes/hai-to-gensou-no-grimgar-todos-os-episodios",
      "texto_original": "Hai To Gensou No Grimgar",
      "rating": 7.8,
      "classificacao_etaria": "A16",
      "imagem_original": "https://animefire.plus/img/animes/hai-to-gensou-no-grimgar.webp",
      "imagem_pasta": "https://animefire.plus/img/animes/hai-to-gensou-no-grimgar/",
      "secao": "legendados",
      "pagina": 97,
      "total_episodios": 12,
      "link_video": "https://animefire.plus/video/hai-to-gensou-no-grimgar"
    },
    {
      "id": 1306,
      "nome": "Haibane Renmei",
      "link": "https://animefire.plus/animes/haibane-renmei-todos-os-episodios",
      "texto_original": "Haibane Renmei",
      "rating": 8,
      "classificacao_etaria": "A14",
      "imagem_original": "https://animefire.plus/img/animes/haibane-renmei.webp",
      "imagem_pasta": "https://animefire.plus/img/animes/haibane-renmei/",
      "secao": "legendados",
      "pagina": 94,
      "total_episodios": 13,
      "link_video": "https://animefire.plus/video/haibane-renmei"
    },
    {
      "id": 1312,
      "nome": "Haikyuu!!: Lev Genzan!",
      "link": "https://animefire.plus/animes/haikyuu-lev-genzan-todos-os-episodios",
      "texto_original": "Haikyuu!!: Lev Genzan!",
      "rating": 7.76,
      "classificacao_etaria": "A14",
      "imagem_original": "https://animefire.plus/img/animes/haikyuu-lev-genzan.webp",
      "imagem_pasta": "https://animefire.plus/img/animes/haikyuu-lev-genzan/",
      "secao": "legendados",
      "pagina": 68,
      "total_episodios": 1,
      "link_video": "https://animefire.plus/video/haikyuu-lev-genzan"
    },
    {
      "id": 1313,
      "nome": "Haikyuu!!: Riku vs. Kuu",
      "link": "https://animefire.plus/animes/haikyuu-riku-vs-kuu-todos-os-episodios",
      "texto_original": "Haikyuu!!: Riku vs. Kuu",
      "rating": 7.8,
      "classificacao_etaria": "A14",
      "imagem_original": "https://animefire.plus/img/animes/haikyuu-riku-vs-kuu.webp",
      "imagem_pasta": "https://animefire.plus/img/animes/haikyuu-riku-vs-kuu/",
      "secao": "legendados",
      "pagina": 92,
      "total_episodios": 0,
      "link_video": "https://animefire.plus/video/haikyuu-riku-vs-kuu"
    },
    {
      "id": 1319,
      "nome": "Haiyore! Nyaruko-san F",
      "link": "https://animefire.plus/animes/haiyore-nyaruko-san-f-todos-os-episodios",
      "texto_original": "Haiyore! Nyaruko-san F",
      "rating": 7.56,
      "classificacao_etaria": "A14",
      "imagem_original": "https://animefire.plus/img/animes/haiyore-nyaruko-san-f.webp",
      "imagem_pasta": "https://animefire.plus/img/animes/haiyore-nyaruko-san-f/",
      "secao": "legendados",
      "pagina": 79,
      "total_episodios": 1,
      "link_video": "https://animefire.plus/video/haiyore-nyaruko-san-f"
    },
    {
      "id": 1320,
      "nome": "Haiyore! Nyaruko-san W (Dublado)",
      "link": "https://animefire.plus/animes/haiyore-nyaruko-san-w-dublado-todos-os-episodios",
      "texto_original": "Haiyore! Nyaruko-san W (Dublado)",
      "rating": 7.22,
      "classificacao_etaria": "A14",
      "imagem_original": "https://animefire.plus/img/animes/haiyore-nyaruko-san-w.webp",
      "imagem_pasta": "https://animefire.plus/img/animes/haiyore-nyaruko-san-w/",
      "secao": "dublados,legendados",
      "pagina": 4,
      "total_episodios": 12,
      "link_video": "https://animefire.plus/video/haiyore-nyaruko-san-w-dublado"
    },
    {
      "id": 1327,
      "nome": "Hakata Tonkotsu Ramens",
      "link": "https://animefire.plus/animes/hakata-tonkotsu-ramens-todos-os-episodios",
      "texto_original": "Hakata Tonkotsu Ramens",
      "rating": 7.5,
      "classificacao_etaria": "A16",
      "imagem_original": "https://animefire.plus/img/animes/hakata-tonkotsu-ramens.webp",
      "imagem_pasta": "https://animefire.plus/img/animes/hakata-tonkotsu-ramens/",
      "secao": "legendados",
      "pagina": 102,
      "total_episodios": 0,
      "link_video": "https://animefire.plus/video/hakata-tonkotsu-ramens"
    },
    {
      "id": 1328,
      "nome": "Hakkenden: Touhou Hakken Ibun",
      "link": "https://animefire.plus/animes/hakkenden-touhou-hakken-ibun-todos-os-episodios",
      "texto_original": "Hakkenden: Touhou Hakken Ibun",
      "rating": 7.52,
      "classificacao_etaria": "A14",
      "imagem_original": "https://animefire.plus/img/animes/hakkenden-touhou-hakken-ibun.webp",
      "imagem_pasta": "https://animefire.plus/img/animes/hakkenden-touhou-hakken-ibun/",
      "secao": "legendados",
      "pagina": 124,
      "total_episodios": 13,
      "link_video": "https://animefire.plus/video/hakkenden-touhou-hakken-ibun"
    },
    {
      "id": 1329,
      "nome": "Hakkenden: Touhou Hakken Ibun 2nd Season",
      "link": "https://animefire.plus/animes/hakkenden-touhou-hakken-ibun-2nd-season-todos-os-episodios",
      "texto_original": "Hakkenden: Touhou Hakken Ibun 2nd Season",
      "rating": 7.75,
      "classificacao_etaria": "A14",
      "imagem_original": "https://animefire.plus/img/animes/hakkenden-touhou-hakken-ibun-2nd-season.webp",
      "imagem_pasta": "https://animefire.plus/img/animes/hakkenden-touhou-hakken-ibun-2nd-season/",
      "secao": "legendados",
      "pagina": 155,
      "total_episodios": 0,
      "link_video": "https://animefire.plus/video/hakkenden-touhou-hakken-ibun-2nd-season"
    },
    {
      "id": 1330,
      "nome": "Hakozume: Kouban Joshi no Gyakushuu",
      "link": "https://animefire.plus/animes/hakozume-kouban-joshi-no-gyakushuu-todos-os-episodios",
      "texto_original": "Hakozume: Kouban Joshi no Gyakushuu",
      "rating": 7.16,
      "classificacao_etaria": "A14",
      "imagem_original": "https://animefire.plus/img/animes/hakozume-kouban-joshi-no-gyakushuu.webp",
      "imagem_pasta": "https://animefire.plus/img/animes/hakozume-kouban-joshi-no-gyakushuu/",
      "secao": "legendados",
      "pagina": 36,
      "total_episodios": 13,
      "link_video": "https://animefire.plus/video/hakozume-kouban-joshi-no-gyakushuu"
    },
    {
      "id": 1331,
      "nome": "Hakumei no Tsubasa",
      "link": "https://animefire.plus/animes/hakumei-no-tsubasa-todos-os-episodios",
      "texto_original": "Hakumei no Tsubasa",
      "rating": 7.61,
      "classificacao_etaria": "A10",
      "imagem_original": "https://animefire.plus/img/animes/hakumei-no-tsubasa.webp",
      "imagem_pasta": "https://animefire.plus/img/animes/hakumei-no-tsubasa/",
      "secao": "legendados,lancamentos",
      "pagina": 82,
      "total_episodios": 5,
      "link_video": "https://animefire.plus/video/hakumei-no-tsubasa"
    },
    {
      "id": 1332,
      "nome": "Hakumei to Mikochi",
      "link": "https://animefire.plus/animes/hakumei-to-mikochi-todos-os-episodios",
      "texto_original": "Hakumei to Mikochi",
      "rating": 7.66,
      "classificacao_etaria": "A14",
      "imagem_original": "https://animefire.plus/img/animes/hakumei-to-mikochi.webp",
      "imagem_pasta": "https://animefire.plus/img/animes/hakumei-to-mikochi/",
      "secao": "legendados",
      "pagina": 156,
      "total_episodios": 12,
      "link_video": "https://animefire.plus/video/hakumei-to-mikochi"
    },
    {
      "id": 1333,
      "nome": "Hakuouki",
      "link": "https://animefire.plus/animes/hakuouki-todos-os-episodios",
      "texto_original": "Hakuouki",
      "rating": 7.51,
      "classificacao_etaria": "A16",
      "imagem_original": "https://animefire.plus/img/animes/hakuouki.webp",
      "imagem_pasta": "https://animefire.plus/img/animes/hakuouki/",
      "secao": "legendados",
      "pagina": 96,
      "total_episodios": 12,
      "link_video": "https://animefire.plus/video/hakuouki"
    },
    {
      "id": 1334,
      "nome": "Hakuouki Hekketsuroku",
      "link": "https://animefire.plus/animes/hakuouki-hekketsuroku-todos-os-episodios",
      "texto_original": "Hakuouki Hekketsuroku",
      "rating": 7.7,
      "classificacao_etaria": "A16",
      "imagem_original": "https://animefire.plus/img/animes/hakuouki-hekketsuroku.webp",
      "imagem_pasta": "https://animefire.plus/img/animes/hakuouki-hekketsuroku/",
      "secao": "legendados",
      "pagina": 111,
      "total_episodios": 10,
      "link_video": "https://animefire.plus/video/hakuouki-hekketsuroku"
    },
    {
      "id": 1335,
      "nome": "Hakuouki OVA",
      "link": "https://animefire.plus/animes/hakuouki-ova-todos-os-episodios",
      "texto_original": "Hakuouki OVA",
      "rating": 7.42,
      "classificacao_etaria": "A14",
      "imagem_original": "https://animefire.plus/img/animes/hakuouki-ova.webp",
      "imagem_pasta": "https://animefire.plus/img/animes/hakuouki-ova/",
      "secao": "legendados",
      "pagina": 36,
      "total_episodios": 0,
      "link_video": "https://animefire.plus/video/hakuouki-ova"
    },
    {
      "id": 1336,
      "nome": "Hakuouki OVA (2021)",
      "link": "https://animefire.plus/animes/hakuouki-ova-2021-todos-os-episodios",
      "texto_original": "Hakuouki OVA (2021)",
      "rating": 7.05,
      "classificacao_etaria": "A16",
      "imagem_original": "https://animefire.plus/img/animes/hakuouki-ova-2021.webp",
      "imagem_pasta": "https://animefire.plus/img/animes/hakuouki-ova-2021/",
      "secao": "legendados,lancamentos",
      "pagina": 36,
      "total_episodios": 2,
      "link_video": "https://animefire.plus/video/hakuouki-ova-2021"
    },
    {
      "id": 1337,
      "nome": "Hakuouki Reimeiroku",
      "link": "https://animefire.plus/animes/hakuouki-reimeiroku-todos-os-episodios",
      "texto_original": "Hakuouki Reimeiroku",
      "rating": 7.58,
      "classificacao_etaria": "A16",
      "imagem_original": "https://animefire.plus/img/animes/hakuouki-reimeiroku.webp",
      "imagem_pasta": "https://animefire.plus/img/animes/hakuouki-reimeiroku/",
      "secao": "legendados",
      "pagina": 111,
      "total_episodios": 5,
      "link_video": "https://animefire.plus/video/hakuouki-reimeiroku"
    },
    {
      "id": 1338,
      "nome": "Hakuouki Sekkaroku",
      "link": "https://animefire.plus/animes/hakuouki-sekkaroku-todos-os-episodios",
      "texto_original": "Hakuouki Sekkaroku",
      "rating": 7.68,
      "classificacao_etaria": "A14",
      "imagem_original": "https://animefire.plus/img/animes/hakuouki-sekkaroku.webp",
      "imagem_pasta": "https://animefire.plus/img/animes/hakuouki-sekkaroku/",
      "secao": "legendados",
      "pagina": 62,
      "total_episodios": 6,
      "link_video": "https://animefire.plus/video/hakuouki-sekkaroku"
    },
    {
      "id": 1339,
      "nome": "Hakushaku To Yousei",
      "link": "https://animefire.plus/animes/hakushaku-to-yousei-todos-os-episodios",
      "texto_original": "Hakushaku To Yousei",
      "rating": 7.38,
      "classificacao_etaria": "A14",
      "imagem_original": "https://animefire.plus/img/animes/hakushaku-to-yousei.webp",
      "imagem_pasta": "https://animefire.plus/img/animes/hakushaku-to-yousei/",
      "secao": "legendados",
      "pagina": 97,
      "total_episodios": 12,
      "link_video": "https://animefire.plus/video/hakushaku-to-yousei"
    },
    {
      "id": 1341,
      "nome": "Halo Legends",
      "link": "https://animefire.plus/animes/halo-legends-todos-os-episodios",
      "texto_original": "Halo Legends",
      "rating": 7.11,
      "classificacao_etaria": "A14",
      "imagem_original": "https://animefire.plus/img/animes/halo-legends.webp",
      "imagem_pasta": "https://animefire.plus/img/animes/halo-legends/",
      "secao": "legendados",
      "pagina": 107,
      "total_episodios": 8,
      "link_video": "https://animefire.plus/video/halo-legends"
    }
  ],
  "pagination": {
    "current_page": 27,
    "per_page": 20,
    "total_items": 1905,
    "total_pages": 96,
    "has_next": true,
    "has_prev": true
  }
}
