{
  "message": "Animes com rating entre 7 e 8",
  "rating_range": {
    "min": 7,
    "max": 8
  },
  "data": [
    {
      "id": 667,
      "nome": "Clevatess: Majuu no Ou to Akago to Shikabane no Yuusha (Dublado)",
      "link": "https://animefire.plus/animes/clevatess-majuu-no-ou-to-akago-to-shikabane-no-yuusha-dublado-todos-os-episodios",
      "texto_original": "Clevatess: Majuu no Ou to Akago to Shikabane no Yuusha (Dublado)",
      "rating": 7.92,
      "classificacao_etaria": "A16",
      "imagem_original": "https://animefire.plus/img/animes/clevatess-majuu-no-ou-to-akago-to-shikabane-no-yuusha.webp",
      "imagem_pasta": "https://animefire.plus/img/animes/clevatess-majuu-no-ou-to-akago-to-shikabane-no-yuusha/",
      "secao": "dublados,legendados,lancamentos",
      "pagina": 1,
      "total_episodios": 5,
      "link_video": "https://animefire.plus/video/clevatess-majuu-no-ou-to-akago-to-shikabane-no-yuusha-dublado"
    },
    {
      "id": 672,
      "nome": "Cobra The Animation",
      "link": "https://animefire.plus/animes/cobra-the-animation-todos-os-episodios",
      "texto_original": "Cobra The Animation",
      "rating": 7.17,
      "classificacao_etaria": "A18",
      "imagem_original": "https://animefire.plus/img/animes/cobra-the-animation.webp",
      "imagem_pasta": "https://animefire.plus/img/animes/cobra-the-animation/",
      "secao": "legendados",
      "pagina": 164,
      "total_episodios": 13,
      "link_video": "https://animefire.plus/video/cobra-the-animation"
    },
    {
      "id": 673,
      "nome": "Cobra The Animation: The Psycho-Gun",
      "link": "https://animefire.plus/animes/cobra-the-animation-the-psycho-gun-todos-os-episodios",
      "texto_original": "Cobra The Animation: The Psycho-Gun",
      "rating": 7.02,
      "classificacao_etaria": "A14",
      "imagem_original": "https://animefire.plus/img/animes/cobra-the-animation-the-psycho-gun.webp",
      "imagem_pasta": "https://animefire.plus/img/animes/cobra-the-animation-the-psycho-gun/",
      "secao": "legendados",
      "pagina": 108,
      "total_episodios": 4,
      "link_video": "https://animefire.plus/video/cobra-the-animation-the-psycho-gun"
    },
    {
      "id": 681,
      "nome": "Colorful (Movie)",
      "link": "https://animefire.plus/animes/colorful-movie-todos-os-episodios",
      "texto_original": "Colorful (Movie)",
      "rating": 7.93,
      "classificacao_etaria": "A14",
      "imagem_original": "https://animefire.plus/img/animes/colorful-movie.webp",
      "imagem_pasta": "https://animefire.plus/img/animes/colorful-movie/",
      "secao": "legendados",
      "pagina": 156,
      "total_episodios": 5,
      "link_video": "https://animefire.plus/video/colorful-movie"
    },
    {
      "id": 683,
      "nome": "Comic Girls",
      "link": "https://animefire.plus/animes/comic-girls-todos-os-episodios",
      "texto_original": "Comic Girls",
      "rating": 7.54,
      "classificacao_etaria": "A14",
      "imagem_original": "https://animefire.plus/img/animes/comic-girls.webp",
      "imagem_pasta": "https://animefire.plus/img/animes/comic-girls/",
      "secao": "legendados",
      "pagina": 133,
      "total_episodios": 12,
      "link_video": "https://animefire.plus/video/comic-girls"
    },
    {
      "id": 688,
      "nome": "Concrete Revolutio: Choujin Gensou - The Last Song",
      "link": "https://animefire.plus/animes/concrete-revolutio-choujin-gensou---the-last-song-todos-os-episodios",
      "texto_original": "Concrete Revolutio: Choujin Gensou - The Last Song",
      "rating": 7.12,
      "classificacao_etaria": "A18",
      "imagem_original": "https://animefire.plus/img/animes/concrete-revolutio-choujin-gensou---the-last-song.webp",
      "imagem_pasta": "https://animefire.plus/img/animes/concrete-revolutio-choujin-gensou---the-last-song/",
      "secao": "legendados",
      "pagina": 124,
      "total_episodios": 6,
      "link_video": "https://animefire.plus/video/concrete-revolutio-choujin-gensou---the-last-song"
    },
    {
      "id": 689,
      "nome": "Cool Doji Danshi",
      "link": "https://animefire.plus/animes/cool-doji-danshi-todos-os-episodios",
      "texto_original": "Cool Doji Danshi",
      "rating": 7.86,
      "classificacao_etaria": "A14",
      "imagem_original": "https://animefire.plus/img/animes/cool-doji-danshi.webp",
      "imagem_pasta": "https://animefire.plus/img/animes/cool-doji-danshi/",
      "secao": "legendados",
      "pagina": 29,
      "total_episodios": 24,
      "link_video": "https://animefire.plus/video/cool-doji-danshi"
    },
    {
      "id": 701,
      "nome": "Cross Ange: Tenshi to Ryuu no Rondo",
      "link": "https://animefire.plus/animes/cross-ange-tenshi-to-ryuu-no-rondo-todos-os-episodios",
      "texto_original": "Cross Ange: Tenshi to Ryuu no Rondo",
      "rating": 7.44,
      "classificacao_etaria": "A16",
      "imagem_original": "https://animefire.plus/img/animes/cross-ange-tenshi-to-ryuu-no-rondo.webp",
      "imagem_pasta": "https://animefire.plus/img/animes/cross-ange-tenshi-to-ryuu-no-rondo/",
      "secao": "legendados",
      "pagina": 76,
      "total_episodios": 25,
      "link_video": "https://animefire.plus/video/cross-ange-tenshi-to-ryuu-no-rondo"
    },
    {
      "id": 704,
      "nome": "Cross Road",
      "link": "https://animefire.plus/animes/cross-road-todos-os-episodios",
      "texto_original": "Cross Road",
      "rating": 7.46,
      "classificacao_etaria": null,
      "imagem_original": "https://animefire.plus/img/animes/cross-road.webp",
      "imagem_pasta": "https://animefire.plus/img/animes/cross-road/",
      "secao": "legendados",
      "pagina": 87,
      "total_episodios": 1,
      "link_video": "https://animefire.plus/video/cross-road"
    },
    {
      "id": 707,
      "nome": "Cuticle Tantei Inaba",
      "link": "https://animefire.plus/animes/cuticle-tantei-inaba-todos-os-episodios",
      "texto_original": "Cuticle Tantei Inaba",
      "rating": 7.38,
      "classificacao_etaria": "A14",
      "imagem_original": "https://animefire.plus/img/animes/cuticle-tantei-inaba.webp",
      "imagem_pasta": "https://animefire.plus/img/animes/cuticle-tantei-inaba/",
      "secao": "legendados",
      "pagina": 112,
      "total_episodios": 0,
      "link_video": "https://animefire.plus/video/cuticle-tantei-inaba"
    },
    {
      "id": 712,
      "nome": "D-Frag!",
      "link": "https://animefire.plus/animes/d-frag-todos-os-episodios",
      "texto_original": "D-Frag!",
      "rating": 7.67,
      "classificacao_etaria": "A14",
      "imagem_original": "https://animefire.plus/img/animes/d-frag.webp",
      "imagem_pasta": "https://animefire.plus/img/animes/d-frag/",
      "secao": "legendados",
      "pagina": 107,
      "total_episodios": 12,
      "link_video": "https://animefire.plus/video/d-frag"
    },
    {
      "id": 714,
      "nome": "D.C.II S.S.: Da Capo II Second Season",
      "link": "https://animefire.plus/animes/d-c-ii-s-s-da-capo-ii-second-season-todos-os-episodios",
      "texto_original": "D.C.II S.S.: Da Capo II Second Season",
      "rating": 7.3,
      "classificacao_etaria": "A14",
      "imagem_original": "https://animefire.plus/img/animes/d-c-ii-s-s-da-capo-ii-second-season.webp",
      "imagem_pasta": "https://animefire.plus/img/animes/d-c-ii-s-s-da-capo-ii-second-season/",
      "secao": "legendados",
      "pagina": 125,
      "total_episodios": 13,
      "link_video": "https://animefire.plus/video/d-c-ii-s-s-da-capo-ii-second-season"
    },
    {
      "id": 718,
      "nome": "D.Gray-man Hallow",
      "link": "https://animefire.plus/animes/d-gray-man-hallow-todos-os-episodios",
      "texto_original": "D.Gray-man Hallow",
      "rating": 7.82,
      "classificacao_etaria": "A16",
      "imagem_original": "https://animefire.plus/img/animes/d-gray-man-hallow.webp",
      "imagem_pasta": "https://animefire.plus/img/animes/d-gray-man-hallow/",
      "secao": "legendados",
      "pagina": 90,
      "total_episodios": 13,
      "link_video": "https://animefire.plus/video/d-gray-man-hallow"
    },
    {
      "id": 719,
      "nome": "D.N.Angel",
      "link": "https://animefire.plus/animes/d-n-angel-todos-os-episodios",
      "texto_original": "D.N.Angel",
      "rating": 7.29,
      "classificacao_etaria": "A14",
      "imagem_original": "https://animefire.plus/img/animes/d-n-angel.webp",
      "imagem_pasta": "https://animefire.plus/img/animes/d-n-angel/",
      "secao": "legendados",
      "pagina": 153,
      "total_episodios": 26,
      "link_video": "https://animefire.plus/video/d-n-angel"
    },
    {
      "id": 721,
      "nome": "D4DJ All Mix",
      "link": "https://animefire.plus/animes/d4dj-all-mix-todos-os-episodios",
      "texto_original": "D4DJ All Mix",
      "rating": 7.4,
      "classificacao_etaria": "A14",
      "imagem_original": "https://animefire.plus/img/animes/d4dj-all-mix.webp",
      "imagem_pasta": "https://animefire.plus/img/animes/d4dj-all-mix/",
      "secao": "legendados",
      "pagina": 25,
      "total_episodios": 12,
      "link_video": "https://animefire.plus/video/d4dj-all-mix"
    },
    {
      "id": 722,
      "nome": "D4DJ Double Mix",
      "link": "https://animefire.plus/animes/d4dj-double-mix-todos-os-episodios",
      "texto_original": "D4DJ Double Mix",
      "rating": 7.29,
      "classificacao_etaria": "A14",
      "imagem_original": "https://animefire.plus/img/animes/d4dj-double-mix.webp",
      "imagem_pasta": "https://animefire.plus/img/animes/d4dj-double-mix/",
      "secao": "legendados",
      "pagina": 26,
      "total_episodios": 1,
      "link_video": "https://animefire.plus/video/d4dj-double-mix"
    },
    {
      "id": 724,
      "nome": "Da Wang Rao Ming",
      "link": "https://animefire.plus/animes/da-wang-rao-ming-todos-os-episodios",
      "texto_original": "Da Wang Rao Ming",
      "rating": 7.52,
      "classificacao_etaria": "A14",
      "imagem_original": "https://animefire.plus/img/animes/da-wang-rao-ming.webp",
      "imagem_pasta": "https://animefire.plus/img/animes/da-wang-rao-ming/",
      "secao": "legendados",
      "pagina": 32,
      "total_episodios": 1,
      "link_video": "https://animefire.plus/video/da-wang-rao-ming"
    },
    {
      "id": 727,
      "nome": "Dai Mahou Touge",
      "link": "https://animefire.plus/animes/dai-mahou-touge-todos-os-episodios",
      "texto_original": "Dai Mahou Touge",
      "rating": 7.02,
      "classificacao_etaria": "A16",
      "imagem_original": "https://animefire.plus/img/animes/dai-mahou-touge.webp",
      "imagem_pasta": "https://animefire.plus/img/animes/dai-mahou-touge/",
      "secao": "legendados",
      "pagina": 99,
      "total_episodios": 4,
      "link_video": "https://animefire.plus/video/dai-mahou-touge"
    },
    {
      "id": 729,
      "nome": "Daitoshokan No Hitsujikai",
      "link": "https://animefire.plus/animes/daitoshokan-no-hitsujikai-todos-os-episodios",
      "texto_original": "Daitoshokan No Hitsujikai",
      "rating": 7.02,
      "classificacao_etaria": "A14",
      "imagem_original": "https://animefire.plus/img/animes/daitoshokan-no-hitsujikai.webp",
      "imagem_pasta": "https://animefire.plus/img/animes/daitoshokan-no-hitsujikai/",
      "secao": "legendados",
      "pagina": 96,
      "total_episodios": 2,
      "link_video": "https://animefire.plus/video/daitoshokan-no-hitsujikai"
    },
    {
      "id": 731,
      "nome": "Dakaretai Otoko 1-i ni Odosarete Imasu.",
      "link": "https://animefire.plus/animes/dakaretai-otoko-1-i-ni-odosarete-imasu-todos-os-episodios",
      "texto_original": "Dakaretai Otoko 1-i ni Odosarete Imasu.",
      "rating": 7.52,
      "classificacao_etaria": "A14",
      "imagem_original": "https://animefire.plus/img/animes/dakaretai-otoko-1-i-ni-odosarete-imasu.webp",
      "imagem_pasta": "https://animefire.plus/img/animes/dakaretai-otoko-1-i-ni-odosarete-imasu/",
      "secao": "legendados",
      "pagina": 139,
      "total_episodios": 13,
      "link_video": "https://animefire.plus/video/dakaretai-otoko-1-i-ni-odosarete-imasu"
    }
  ],
  "pagination": {
    "current_page": 14,
    "per_page": 20,
    "total_items": 1905,
    "total_pages": 96,
    "has_next": true,
    "has_prev": true
  }
}
