{
  "message": "Animes com rating entre 7 e 8",
  "rating_range": {
    "min": 7,
    "max": 8
  },
  "data": [
    {
      "id": 136,
      "nome": "Akuyaku Reijou Tensei Ojisan",
      "link": "https://animefire.plus/animes/akuyaku-reijou-tensei-ojisan-todos-os-episodios",
      "texto_original": "Akuyaku Reijou Tensei Ojisan",
      "rating": 7.38,
      "classificacao_etaria": "A14",
      "imagem_original": "https://animefire.plus/img/animes/akuyaku-reijou-tensei-ojisan.webp",
      "imagem_pasta": "https://animefire.plus/img/animes/akuyaku-reijou-tensei-ojisan/",
      "secao": "legendados",
      "pagina": 7,
      "total_episodios": 12,
      "link_video": "https://animefire.plus/video/akuyaku-reijou-tensei-ojisan"
    },
    {
      "id": 137,
      "nome": "Aldnoah.Zero",
      "link": "https://animefire.plus/animes/aldnoah-zero-todos-os-episodios",
      "texto_original": "Aldnoah.Zero",
      "rating": 7.53,
      "classificacao_etaria": "A16",
      "imagem_original": "https://animefire.plus/img/animes/aldnoah-zero.webp",
      "imagem_pasta": "https://animefire.plus/img/animes/aldnoah-zero/",
      "secao": "legendados",
      "pagina": 170,
      "total_episodios": 12,
      "link_video": "https://animefire.plus/video/aldnoah-zero"
    },
    {
      "id": 142,
      "nome": "Alice to Zouroku",
      "link": "https://animefire.plus/animes/alice-to-zouroku-todos-os-episodios",
      "texto_original": "Alice to Zouroku",
      "rating": 7.18,
      "classificacao_etaria": "A14",
      "imagem_original": "https://animefire.plus/img/animes/alice-to-zouroku.webp",
      "imagem_pasta": "https://animefire.plus/img/animes/alice-to-zouroku/",
      "secao": "legendados",
      "pagina": 139,
      "total_episodios": 12,
      "link_video": "https://animefire.plus/video/alice-to-zouroku"
    },
    {
      "id": 144,
      "nome": "All Out!!",
      "link": "https://animefire.plus/animes/all-out-todos-os-episodios",
      "texto_original": "All Out!!",
      "rating": 7.19,
      "classificacao_etaria": "A14",
      "imagem_original": "https://animefire.plus/img/animes/all-out.webp",
      "imagem_pasta": "https://animefire.plus/img/animes/all-out/",
      "secao": "legendados",
      "pagina": 111,
      "total_episodios": 25,
      "link_video": "https://animefire.plus/video/all-out"
    },
    {
      "id": 145,
      "nome": "Allison to Lillia",
      "link": "https://animefire.plus/animes/allison-to-lillia-todos-os-episodios",
      "texto_original": "Allison to Lillia",
      "rating": 7.38,
      "classificacao_etaria": "A14",
      "imagem_original": "https://animefire.plus/img/animes/allison-to-lillia.webp",
      "imagem_pasta": "https://animefire.plus/img/animes/allison-to-lillia/",
      "secao": "legendados",
      "pagina": 116,
      "total_episodios": 26,
      "link_video": "https://animefire.plus/video/allison-to-lillia"
    },
    {
      "id": 147,
      "nome": "Amaama to Inazuma",
      "link": "https://animefire.plus/animes/amaama-to-inazuma-todos-os-episodios",
      "texto_original": "Amaama to Inazuma",
      "rating": 7.57,
      "classificacao_etaria": "A14",
      "imagem_original": "https://animefire.plus/img/animes/amaama-to-inazuma.webp",
      "imagem_pasta": "https://animefire.plus/img/animes/amaama-to-inazuma/",
      "secao": "legendados",
      "pagina": 134,
      "total_episodios": 12,
      "link_video": "https://animefire.plus/video/amaama-to-inazuma"
    },
    {
      "id": 150,
      "nome": "Amagami SS",
      "link": "https://animefire.plus/animes/amagami-ss-todos-os-episodios",
      "texto_original": "Amagami SS",
      "rating": 7.47,
      "classificacao_etaria": "A14",
      "imagem_original": "https://animefire.plus/img/animes/amagami-ss.webp",
      "imagem_pasta": "https://animefire.plus/img/animes/amagami-ss/",
      "secao": "legendados",
      "pagina": 133,
      "total_episodios": 26,
      "link_video": "https://animefire.plus/video/amagami-ss"
    },
    {
      "id": 151,
      "nome": "Amagami SS+ Plus",
      "link": "https://animefire.plus/animes/amagami-ss-plus-todos-os-episodios",
      "texto_original": "Amagami SS+ Plus",
      "rating": 7.53,
      "classificacao_etaria": "A14",
      "imagem_original": "https://animefire.plus/img/animes/amagami-ss-plus.webp",
      "imagem_pasta": "https://animefire.plus/img/animes/amagami-ss-plus/",
      "secao": "legendados",
      "pagina": 158,
      "total_episodios": 3,
      "link_video": "https://animefire.plus/video/amagami-ss-plus"
    },
    {
      "id": 153,
      "nome": "Amagami SS+ Plus: Extra Episode+ Plus",
      "link": "https://animefire.plus/animes/amagami-ss-plus-extra-episode-plus-todos-os-episodios",
      "texto_original": "Amagami SS+ Plus: Extra Episode+ Plus",
      "rating": 7.25,
      "classificacao_etaria": "A14",
      "imagem_original": "https://animefire.plus/img/animes/amagami-ss-plus-extra-episode-plus.webp",
      "imagem_pasta": "https://animefire.plus/img/animes/amagami-ss-plus-extra-episode-plus/",
      "secao": "legendados",
      "pagina": 69,
      "total_episodios": 1,
      "link_video": "https://animefire.plus/video/amagami-ss-plus-extra-episode-plus"
    },
    {
      "id": 154,
      "nome": "Amagami-san Chi no Enmusubi (Dublado)",
      "link": "https://animefire.plus/animes/amagami-san-chi-no-enmusubi-dublado-todos-os-episodios",
      "texto_original": "Amagami-san Chi no Enmusubi (Dublado)",
      "rating": 7.55,
      "classificacao_etaria": "A14",
      "imagem_original": "https://animefire.plus/img/animes/amagami-san-chi-no-enmusubi.webp",
      "imagem_pasta": "https://animefire.plus/img/animes/amagami-san-chi-no-enmusubi/",
      "secao": "dublados,legendados,lancamentos",
      "pagina": 2,
      "total_episodios": 24,
      "link_video": "https://animefire.plus/video/amagami-san-chi-no-enmusubi-dublado"
    },
    {
      "id": 155,
      "nome": "Amagi Brilliant Park",
      "link": "https://animefire.plus/animes/amagi-brilliant-park-todos-os-episodios",
      "texto_original": "Amagi Brilliant Park",
      "rating": 7.6,
      "classificacao_etaria": "A14",
      "imagem_original": "https://animefire.plus/img/animes/amagi-brilliant-park.webp",
      "imagem_pasta": "https://animefire.plus/img/animes/amagi-brilliant-park/",
      "secao": "legendados",
      "pagina": 129,
      "total_episodios": 5,
      "link_video": "https://animefire.plus/video/amagi-brilliant-park"
    },
    {
      "id": 156,
      "nome": "Amanchu!",
      "link": "https://animefire.plus/animes/amanchu-todos-os-episodios",
      "texto_original": "Amanchu!",
      "rating": 7.3,
      "classificacao_etaria": "A14",
      "imagem_original": "https://animefire.plus/img/animes/amanchu.webp",
      "imagem_pasta": "https://animefire.plus/img/animes/amanchu/",
      "secao": "legendados",
      "pagina": 90,
      "total_episodios": 12,
      "link_video": "https://animefire.plus/video/amanchu"
    },
    {
      "id": 157,
      "nome": "Amanchu! Advance",
      "link": "https://animefire.plus/animes/amanchu-advance-todos-os-episodios",
      "texto_original": "Amanchu! Advance",
      "rating": 7.18,
      "classificacao_etaria": "A14",
      "imagem_original": "https://animefire.plus/img/animes/amanchu-advance.webp",
      "imagem_pasta": "https://animefire.plus/img/animes/amanchu-advance/",
      "secao": "legendados",
      "pagina": 117,
      "total_episodios": 11,
      "link_video": "https://animefire.plus/video/amanchu-advance"
    },
    {
      "id": 159,
      "nome": "Ame to Kimi to",
      "link": "https://animefire.plus/animes/ame-to-kimi-to-todos-os-episodios",
      "texto_original": "Ame to Kimi to",
      "rating": 7.45,
      "classificacao_etaria": "A14",
      "imagem_original": "https://animefire.plus/img/animes/ame-to-kimi-to.webp",
      "imagem_pasta": "https://animefire.plus/img/animes/ame-to-kimi-to/",
      "secao": "legendados,lancamentos",
      "pagina": 2,
      "total_episodios": 5,
      "link_video": "https://animefire.plus/video/ame-to-kimi-to"
    },
    {
      "id": 163,
      "nome": "Ameku Takao no Suiri Karte",
      "link": "https://animefire.plus/animes/ameku-takao-no-suiri-karte-todos-os-episodios",
      "texto_original": "Ameku Takao no Suiri Karte",
      "rating": 7.15,
      "classificacao_etaria": "A14",
      "imagem_original": "https://animefire.plus/img/animes/ameku-takao-no-suiri-karte.webp",
      "imagem_pasta": "https://animefire.plus/img/animes/ameku-takao-no-suiri-karte/",
      "secao": "legendados",
      "pagina": 7,
      "total_episodios": 12,
      "link_video": "https://animefire.plus/video/ameku-takao-no-suiri-karte"
    },
    {
      "id": 171,
      "nome": "Angolmois: Genkou Kassenki",
      "link": "https://animefire.plus/animes/angolmois-genkou-kassenki-todos-os-episodios",
      "texto_original": "Angolmois: Genkou Kassenki",
      "rating": 7.21,
      "classificacao_etaria": "A16",
      "imagem_original": "https://animefire.plus/img/animes/angolmois-genkou-kassenki.webp",
      "imagem_pasta": "https://animefire.plus/img/animes/angolmois-genkou-kassenki/",
      "secao": "legendados",
      "pagina": 117,
      "total_episodios": 12,
      "link_video": "https://animefire.plus/video/angolmois-genkou-kassenki"
    },
    {
      "id": 172,
      "nome": "Ani ni Tsukeru Kusuri wa Nai!",
      "link": "https://animefire.plus/animes/ani-ni-tsukeru-kusuri-wa-nai-todos-os-episodios",
      "texto_original": "Ani ni Tsukeru Kusuri wa Nai!",
      "rating": 7.46,
      "classificacao_etaria": "A14",
      "imagem_original": "https://animefire.plus/img/animes/ani-ni-tsukeru-kusuri-wa-nai.webp",
      "imagem_pasta": "https://animefire.plus/img/animes/ani-ni-tsukeru-kusuri-wa-nai/",
      "secao": "legendados",
      "pagina": 114,
      "total_episodios": 12,
      "link_video": "https://animefire.plus/video/ani-ni-tsukeru-kusuri-wa-nai"
    },
    {
      "id": 173,
      "nome": "Ani ni Tsukeru Kusuri wa Nai! 2",
      "link": "https://animefire.plus/animes/ani-ni-tsukeru-kusuri-wa-nai-2-todos-os-episodios",
      "texto_original": "Ani ni Tsukeru Kusuri wa Nai! 2",
      "rating": 7.71,
      "classificacao_etaria": "A14",
      "imagem_original": "https://animefire.plus/img/animes/ani-ni-tsukeru-kusuri-wa-nai-2.webp",
      "imagem_pasta": "https://animefire.plus/img/animes/ani-ni-tsukeru-kusuri-wa-nai-2/",
      "secao": "legendados",
      "pagina": 76,
      "total_episodios": 24,
      "link_video": "https://animefire.plus/video/ani-ni-tsukeru-kusuri-wa-nai-2"
    },
    {
      "id": 175,
      "nome": "Ani ni Tsukeru Kusuri wa Nai! 5",
      "link": "https://animefire.plus/animes/ani-ni-tsukeru-kusuri-wa-nai-5-todos-os-episodios",
      "texto_original": "Ani ni Tsukeru Kusuri wa Nai! 5",
      "rating": 7.34,
      "classificacao_etaria": "A14",
      "imagem_original": "https://animefire.plus/img/animes/ani-ni-tsukeru-kusuri-wa-nai-5.webp",
      "imagem_pasta": "https://animefire.plus/img/animes/ani-ni-tsukeru-kusuri-wa-nai-5/",
      "secao": "legendados,lancamentos",
      "pagina": 30,
      "total_episodios": 2,
      "link_video": "https://animefire.plus/video/ani-ni-tsukeru-kusuri-wa-nai-5"
    },
    {
      "id": 176,
      "nome": "Anima Yell!",
      "link": "https://animefire.plus/animes/anima-yell-todos-os-episodios",
      "texto_original": "Anima Yell!",
      "rating": 7.08,
      "classificacao_etaria": "A14",
      "imagem_original": "https://animefire.plus/img/animes/anima-yell.webp",
      "imagem_pasta": "https://animefire.plus/img/animes/anima-yell/",
      "secao": "legendados",
      "pagina": 161,
      "total_episodios": 12,
      "link_video": "https://animefire.plus/video/anima-yell"
    }
  ],
  "pagination": {
    "current_page": 4,
    "per_page": 20,
    "total_items": 1905,
    "total_pages": 96,
    "has_next": true,
    "has_prev": true
  }
}
