{
  "message": "Animes com rating entre 7 e 8",
  "rating_range": {
    "min": 7,
    "max": 8
  },
  "data": [
    {
      "id": 2603,
      "nome": "Mugen no Juunin: Immortal",
      "link": "https://animefire.plus/animes/mugen-no-juunin-immortal-todos-os-episodios",
      "texto_original": "Mugen no Juunin: Immortal",
      "rating": 7.36,
      "classificacao_etaria": "A16",
      "imagem_original": "https://animefire.plus/img/animes/mugen-no-juunin-immortal.webp",
      "imagem_pasta": "https://animefire.plus/img/animes/mugen-no-juunin-immortal/",
      "secao": "legendados",
      "pagina": 110,
      "total_episodios": 1,
      "link_video": "https://animefire.plus/video/mugen-no-juunin-immortal"
    },
    {
      "id": 2604,
      "nome": "Mugen No Ryvius",
      "link": "https://animefire.plus/animes/mugen-no-ryvius-todos-os-episodios",
      "texto_original": "Mugen No Ryvius",
      "rating": 7.53,
      "classificacao_etaria": "A14",
      "imagem_original": "https://animefire.plus/img/animes/mugen-no-ryvius.webp",
      "imagem_pasta": "https://animefire.plus/img/animes/mugen-no-ryvius/",
      "secao": "legendados",
      "pagina": 155,
      "total_episodios": 26,
      "link_video": "https://animefire.plus/video/mugen-no-ryvius"
    },
    {
      "id": 2609,
      "nome": "Mujin Wakusei Survive (Dublado)",
      "link": "https://animefire.plus/animes/mujin-wakusei-survive-dublado-todos-os-episodios",
      "texto_original": "Mujin Wakusei Survive (Dublado)",
      "rating": 7.74,
      "classificacao_etaria": null,
      "imagem_original": "https://animefire.plus/img/animes/mujin-wakusei-survive.webp",
      "imagem_pasta": "https://animefire.plus/img/animes/mujin-wakusei-survive/",
      "secao": "dublados,legendados",
      "pagina": 27,
      "total_episodios": 52,
      "link_video": "https://animefire.plus/video/mujin-wakusei-survive-dublado"
    },
    {
      "id": 2611,
      "nome": "Murai no Koi",
      "link": "https://animefire.plus/animes/murai-no-koi-todos-os-episodios",
      "texto_original": "Murai no Koi",
      "rating": 7.52,
      "classificacao_etaria": "A14",
      "imagem_original": "https://animefire.plus/img/animes/murai-no-koi.webp",
      "imagem_pasta": "https://animefire.plus/img/animes/murai-no-koi/",
      "secao": "legendados",
      "pagina": 9,
      "total_episodios": 12,
      "link_video": "https://animefire.plus/video/murai-no-koi"
    },
    {
      "id": 2613,
      "nome": "Murenase! Seton Gakuen",
      "link": "https://animefire.plus/animes/murenase-seton-gakuen-todos-os-episodios",
      "texto_original": "Murenase! Seton Gakuen",
      "rating": 7.08,
      "classificacao_etaria": "A14",
      "imagem_original": "https://animefire.plus/img/animes/murenase-seton-gakuen.webp",
      "imagem_pasta": "https://animefire.plus/img/animes/murenase-seton-gakuen/",
      "secao": "legendados",
      "pagina": 93,
      "total_episodios": 12,
      "link_video": "https://animefire.plus/video/murenase-seton-gakuen"
    },
    {
      "id": 2616,
      "nome": "Mushibugyou",
      "link": "https://animefire.plus/animes/mushibugyou-todos-os-episodios",
      "texto_original": "Mushibugyou",
      "rating": 7.42,
      "classificacao_etaria": "A14",
      "imagem_original": "https://animefire.plus/img/animes/mushibugyou.webp",
      "imagem_pasta": "https://animefire.plus/img/animes/mushibugyou/",
      "secao": "legendados",
      "pagina": 106,
      "total_episodios": 26,
      "link_video": "https://animefire.plus/video/mushibugyou"
    },
    {
      "id": 2617,
      "nome": "Mushibugyou OVA",
      "link": "https://animefire.plus/animes/mushibugyou-ova-todos-os-episodios",
      "texto_original": "Mushibugyou OVA",
      "rating": 7.14,
      "classificacao_etaria": "A14",
      "imagem_original": "https://animefire.plus/img/animes/mushibugyou-ova.webp",
      "imagem_pasta": "https://animefire.plus/img/animes/mushibugyou-ova/",
      "secao": "legendados",
      "pagina": 128,
      "total_episodios": 3,
      "link_video": "https://animefire.plus/video/mushibugyou-ova"
    },
    {
      "id": 2624,
      "nome": "Mushoku Tensei II: Isekai Ittara Honki Dasu - Shugo Jutsushi Fitz (Dublado)",
      "link": "https://animefire.plus/animes/mushoku-tensei-ii-isekai-ittara-honki-dasu---shugo-jutsushi-fitz-dublado-todos-os-episodios",
      "texto_original": "Mushoku Tensei II: Isekai Ittara Honki Dasu - Shugo Jutsushi Fitz (Dublado)",
      "rating": 7.54,
      "classificacao_etaria": "A16",
      "imagem_original": "https://animefire.plus/img/animes/mushoku-tensei-ii-isekai-ittara-honki-dasu---shugo-jutsushi-fitz.webp",
      "imagem_pasta": "https://animefire.plus/img/animes/mushoku-tensei-ii-isekai-ittara-honki-dasu---shugo-jutsushi-fitz/",
      "secao": "dublados",
      "pagina": 6,
      "total_episodios": 0,
      "link_video": "https://animefire.plus/video/mushoku-tensei-ii-isekai-ittara-honki-dasu---shugo-jutsushi-fitz-dublado"
    },
    {
      "id": 2629,
      "nome": "Mushoku Tensei: Isekai Ittara Honki Dasu Special (Dublado)",
      "link": "https://animefire.plus/animes/mushoku-tensei-isekai-ittara-honki-dasu-special-dublado-todos-os-episodios",
      "texto_original": "Mushoku Tensei: Isekai Ittara Honki Dasu Special (Dublado)",
      "rating": 7.79,
      "classificacao_etaria": "A16",
      "imagem_original": "https://animefire.plus/img/animes/mushoku-tensei-isekai-ittara-honki-dasu-special.webp",
      "imagem_pasta": "https://animefire.plus/img/animes/mushoku-tensei-isekai-ittara-honki-dasu-special/",
      "secao": "dublados,legendados",
      "pagina": 10,
      "total_episodios": 1,
      "link_video": "https://animefire.plus/video/mushoku-tensei-isekai-ittara-honki-dasu-special-dublado"
    },
    {
      "id": 2631,
      "nome": "Muteki Kanban Musume",
      "link": "https://animefire.plus/animes/muteki-kanban-musume-todos-os-episodios",
      "texto_original": "Muteki Kanban Musume",
      "rating": 7.17,
      "classificacao_etaria": "A14",
      "imagem_original": "https://animefire.plus/img/animes/muteki-kanban-musume.webp",
      "imagem_pasta": "https://animefire.plus/img/animes/muteki-kanban-musume/",
      "secao": "legendados",
      "pagina": 170,
      "total_episodios": 12,
      "link_video": "https://animefire.plus/video/muteki-kanban-musume"
    },
    {
      "id": 2633,
      "nome": "Mutsu Enmei Ryuu Gaiden: Shura no Toki",
      "link": "https://animefire.plus/animes/mutsu-enmei-ryuu-gaiden-shura-no-toki-todos-os-episodios",
      "texto_original": "Mutsu Enmei Ryuu Gaiden: Shura no Toki",
      "rating": 7.63,
      "classificacao_etaria": "A14",
      "imagem_original": "https://animefire.plus/img/animes/mutsu-enmei-ryuu-gaiden-shura-no-toki.webp",
      "imagem_pasta": "https://animefire.plus/img/animes/mutsu-enmei-ryuu-gaiden-shura-no-toki/",
      "secao": "legendados",
      "pagina": 148,
      "total_episodios": 26,
      "link_video": "https://animefire.plus/video/mutsu-enmei-ryuu-gaiden-shura-no-toki"
    },
    {
      "id": 2636,
      "nome": "Muv-Luv Alternative: Total Eclipse (Dublado)",
      "link": "https://animefire.plus/animes/muv-luv-alternative-total-eclipse-dublado-todos-os-episodios",
      "texto_original": "Muv-Luv Alternative: Total Eclipse (Dublado)",
      "rating": 7.09,
      "classificacao_etaria": "A18",
      "imagem_original": "https://animefire.plus/img/animes/muv-luv-alternative-total-eclipse.webp",
      "imagem_pasta": "https://animefire.plus/img/animes/muv-luv-alternative-total-eclipse/",
      "secao": "dublados,legendados",
      "pagina": 4,
      "total_episodios": 24,
      "link_video": "https://animefire.plus/video/muv-luv-alternative-total-eclipse-dublado"
    },
    {
      "id": 2638,
      "nome": "Myself; Yourself",
      "link": "https://animefire.plus/animes/myself-yourself-todos-os-episodios",
      "texto_original": "Myself; Yourself",
      "rating": 7.3,
      "classificacao_etaria": "A14",
      "imagem_original": "https://animefire.plus/img/animes/myself-yourself.webp",
      "imagem_pasta": "https://animefire.plus/img/animes/myself-yourself/",
      "secao": "legendados",
      "pagina": 127,
      "total_episodios": 13,
      "link_video": "https://animefire.plus/video/myself-yourself"
    },
    {
      "id": 2640,
      "nome": "Nabari no Ou",
      "link": "https://animefire.plus/animes/nabari-no-ou-todos-os-episodios",
      "texto_original": "Nabari no Ou",
      "rating": 7.37,
      "classificacao_etaria": "A14",
      "imagem_original": "https://animefire.plus/img/animes/nabari-no-ou.webp",
      "imagem_pasta": "https://animefire.plus/img/animes/nabari-no-ou/",
      "secao": "legendados",
      "pagina": 159,
      "total_episodios": 26,
      "link_video": "https://animefire.plus/video/nabari-no-ou"
    },
    {
      "id": 2642,
      "nome": "Nagasarete Airantou",
      "link": "https://animefire.plus/animes/nagasarete-airantou-todos-os-episodios",
      "texto_original": "Nagasarete Airantou",
      "rating": 7.36,
      "classificacao_etaria": "A14",
      "imagem_original": "https://animefire.plus/img/animes/nagasarete-airantou.webp",
      "imagem_pasta": "https://animefire.plus/img/animes/nagasarete-airantou/",
      "secao": "legendados",
      "pagina": 154,
      "total_episodios": 26,
      "link_video": "https://animefire.plus/video/nagasarete-airantou"
    },
    {
      "id": 2644,
      "nome": "Nageki no Bourei wa Intai shitai",
      "link": "https://animefire.plus/animes/nageki-no-bourei-wa-intai-shitai-todos-os-episodios",
      "texto_original": "Nageki no Bourei wa Intai shitai",
      "rating": 7.04,
      "classificacao_etaria": "A14",
      "imagem_original": "https://animefire.plus/img/animes/nageki-no-bourei-wa-intai-shitai.webp",
      "imagem_pasta": "https://animefire.plus/img/animes/nageki-no-bourei-wa-intai-shitai/",
      "secao": "legendados",
      "pagina": 11,
      "total_episodios": 13,
      "link_video": "https://animefire.plus/video/nageki-no-bourei-wa-intai-shitai"
    },
    {
      "id": 2649,
      "nome": "Nami Yo Kiitekure",
      "link": "https://animefire.plus/animes/nami-yo-kiitekure-todos-os-episodios",
      "texto_original": "Nami Yo Kiitekure",
      "rating": 7.37,
      "classificacao_etaria": "A16",
      "imagem_original": "https://animefire.plus/img/animes/nami-yo-kiitekure.webp",
      "imagem_pasta": "https://animefire.plus/img/animes/nami-yo-kiitekure/",
      "secao": "legendados",
      "pagina": 60,
      "total_episodios": 8,
      "link_video": "https://animefire.plus/video/nami-yo-kiitekure"
    },
    {
      "id": 2659,
      "nome": "Nanatsu no Taizai Movie: Tenkuu no Torawarebito",
      "link": "https://animefire.plus/animes/nanatsu-no-taizai-movie-tenkuu-no-torawarebito-todos-os-episodios",
      "texto_original": "Nanatsu no Taizai Movie: Tenkuu no Torawarebito",
      "rating": 7.66,
      "classificacao_etaria": "A14",
      "imagem_original": "https://animefire.plus/img/animes/nanatsu-no-taizai-movie-tenkuu-no-torawarebito.webp",
      "imagem_pasta": "https://animefire.plus/img/animes/nanatsu-no-taizai-movie-tenkuu-no-torawarebito/",
      "secao": "legendados",
      "pagina": 106,
      "total_episodios": 3,
      "link_video": "https://animefire.plus/video/nanatsu-no-taizai-movie-tenkuu-no-torawarebito"
    },
    {
      "id": 2660,
      "nome": "Nanatsu no Taizai OVA",
      "link": "https://animefire.plus/animes/nanatsu-no-taizai-ova-todos-os-episodios",
      "texto_original": "Nanatsu no Taizai OVA",
      "rating": 7.57,
      "classificacao_etaria": "A14",
      "imagem_original": "https://animefire.plus/img/animes/nanatsu-no-taizai-ova.webp",
      "imagem_pasta": "https://animefire.plus/img/animes/nanatsu-no-taizai-ova/",
      "secao": "legendados",
      "pagina": 43,
      "total_episodios": 2,
      "link_video": "https://animefire.plus/video/nanatsu-no-taizai-ova"
    },
    {
      "id": 2661,
      "nome": "Nanatsu no Taizai: Eiyuu-tachi wa Hashagu",
      "link": "https://animefire.plus/animes/nanatsu-no-taizai-eiyuu-tachi-wa-hashagu-todos-os-episodios",
      "texto_original": "Nanatsu no Taizai: Eiyuu-tachi wa Hashagu",
      "rating": 7.22,
      "classificacao_etaria": "A14",
      "imagem_original": "https://animefire.plus/img/animes/nanatsu-no-taizai-eiyuu-tachi-wa-hashagu.webp",
      "imagem_pasta": "https://animefire.plus/img/animes/nanatsu-no-taizai-eiyuu-tachi-wa-hashagu/",
      "secao": "legendados",
      "pagina": 84,
      "total_episodios": 1,
      "link_video": "https://animefire.plus/video/nanatsu-no-taizai-eiyuu-tachi-wa-hashagu"
    }
  ],
  "pagination": {
    "current_page": 56,
    "per_page": 20,
    "total_items": 1905,
    "total_pages": 96,
    "has_next": true,
    "has_prev": true
  }
}
