{
  "message": "Animes com rating entre 7 e 8",
  "rating_range": {
    "min": 7,
    "max": 8
  },
  "data": [
    {
      "id": 1389,
      "nome": "Hataraku Saibou: Kaze Shoukougun",
      "link": "https://animefire.plus/animes/hataraku-saibou-kaze-shoukougun-todos-os-episodios",
      "texto_original": "Hataraku Saibou: Kaze Shoukougun",
      "rating": 7.35,
      "classificacao_etaria": "A14",
      "imagem_original": "https://animefire.plus/img/animes/hataraku-saibou-kaze-shoukougun.webp",
      "imagem_pasta": "https://animefire.plus/img/animes/hataraku-saibou-kaze-shoukougun/",
      "secao": "legendados",
      "pagina": 82,
      "total_episodios": 1,
      "link_video": "https://animefire.plus/video/hataraku-saibou-kaze-shoukougun"
    },
    {
      "id": 1390,
      "nome": "Hataraku Saibou!!",
      "link": "https://animefire.plus/animes/cells-at-work-2nd-season-todos-os-episodios",
      "texto_original": "Hataraku Saibou!!",
      "rating": 7.38,
      "classificacao_etaria": "A14",
      "imagem_original": "https://animefire.plus/img/animes/cells-at-work-2nd-season.webp",
      "imagem_pasta": "https://animefire.plus/img/animes/cells-at-work-2nd-season/",
      "secao": "legendados",
      "pagina": 50,
      "total_episodios": 8,
      "link_video": "https://animefire.plus/video/cells-at-work-2nd-season"
    },
    {
      "id": 1392,
      "nome": "Hatenkou Yuugi",
      "link": "https://animefire.plus/animes/hatenkou-yuugi-todos-os-episodios",
      "texto_original": "Hatenkou Yuugi",
      "rating": 7.23,
      "classificacao_etaria": "A14",
      "imagem_original": "https://animefire.plus/img/animes/hatenkou-yuugi.webp",
      "imagem_pasta": "https://animefire.plus/img/animes/hatenkou-yuugi/",
      "secao": "legendados",
      "pagina": 101,
      "total_episodios": 0,
      "link_video": "https://animefire.plus/video/hatenkou-yuugi"
    },
    {
      "id": 1393,
      "nome": "Hatsukoi Limited.",
      "link": "https://animefire.plus/animes/hatsukoi-limited-todos-os-episodios",
      "texto_original": "Hatsukoi Limited.",
      "rating": 7.35,
      "classificacao_etaria": "A14",
      "imagem_original": "https://animefire.plus/img/animes/hatsukoi-limited.webp",
      "imagem_pasta": "https://animefire.plus/img/animes/hatsukoi-limited/",
      "secao": "legendados",
      "pagina": 71,
      "total_episodios": 12,
      "link_video": "https://animefire.plus/video/hatsukoi-limited"
    },
    {
      "id": 1397,
      "nome": "Hayate no Gotoku!",
      "link": "https://animefire.plus/animes/hayate-no-gotoku-todos-os-episodios",
      "texto_original": "Hayate no Gotoku!",
      "rating": 7.62,
      "classificacao_etaria": "A14",
      "imagem_original": "https://animefire.plus/img/animes/hayate-no-gotoku.webp",
      "imagem_pasta": "https://animefire.plus/img/animes/hayate-no-gotoku/",
      "secao": "legendados",
      "pagina": 66,
      "total_episodios": 46,
      "link_video": "https://animefire.plus/video/hayate-no-gotoku"
    },
    {
      "id": 1398,
      "nome": "Hayate no Gotoku! Can't Take My Eyes Off You",
      "link": "https://animefire.plus/animes/hayate-no-gotoku-can-t-take-my-eyes-off-you-todos-os-episodios",
      "texto_original": "Hayate no Gotoku! Can't Take My Eyes Off You",
      "rating": 7.06,
      "classificacao_etaria": "A14",
      "imagem_original": "https://animefire.plus/img/animes/hayate-no-gotoku-can-t-take-my-eyes-off-you.webp",
      "imagem_pasta": "https://animefire.plus/img/animes/hayate-no-gotoku-can-t-take-my-eyes-off-you/",
      "secao": "legendados",
      "pagina": 66,
      "total_episodios": 12,
      "link_video": "https://animefire.plus/video/hayate-no-gotoku-can-t-take-my-eyes-off-you"
    },
    {
      "id": 1399,
      "nome": "Hayate no Gotoku! Cuties",
      "link": "https://animefire.plus/animes/hayate-no-gotoku-cuties-todos-os-episodios",
      "texto_original": "Hayate no Gotoku! Cuties",
      "rating": 7.09,
      "classificacao_etaria": "A14",
      "imagem_original": "https://animefire.plus/img/animes/hayate-no-gotoku-cuties.webp",
      "imagem_pasta": "https://animefire.plus/img/animes/hayate-no-gotoku-cuties/",
      "secao": "legendados",
      "pagina": 82,
      "total_episodios": 12,
      "link_video": "https://animefire.plus/video/hayate-no-gotoku-cuties"
    },
    {
      "id": 1400,
      "nome": "Hayate no Gotoku! OVA",
      "link": "https://animefire.plus/animes/hayate-no-gotoku-ova-todos-os-episodios",
      "texto_original": "Hayate no Gotoku! OVA",
      "rating": 7.18,
      "classificacao_etaria": "A14",
      "imagem_original": "https://animefire.plus/img/animes/hayate-no-gotoku-ova.webp",
      "imagem_pasta": "https://animefire.plus/img/animes/hayate-no-gotoku-ova/",
      "secao": "legendados",
      "pagina": 85,
      "total_episodios": 3,
      "link_video": "https://animefire.plus/video/hayate-no-gotoku-ova"
    },
    {
      "id": 1403,
      "nome": "Healer Girl",
      "link": "https://animefire.plus/animes/healer-girl-todos-os-episodios",
      "texto_original": "Healer Girl",
      "rating": 7.3,
      "classificacao_etaria": "A14",
      "imagem_original": "https://animefire.plus/img/animes/healer-girl.webp",
      "imagem_pasta": "https://animefire.plus/img/animes/healer-girl/",
      "secao": "legendados",
      "pagina": 33,
      "total_episodios": 12,
      "link_video": "https://animefire.plus/video/healer-girl"
    },
    {
      "id": 1405,
      "nome": "Heartcatch Precure!",
      "link": "https://animefire.plus/animes/heartcatch-precure-todos-os-episodios",
      "texto_original": "Heartcatch Precure!",
      "rating": 7.82,
      "classificacao_etaria": "A16",
      "imagem_original": "https://animefire.plus/img/animes/heartcatch-precure.webp",
      "imagem_pasta": "https://animefire.plus/img/animes/heartcatch-precure/",
      "secao": "legendados",
      "pagina": 67,
      "total_episodios": 49,
      "link_video": "https://animefire.plus/video/heartcatch-precure"
    },
    {
      "id": 1406,
      "nome": "Heavy Object",
      "link": "https://animefire.plus/animes/heavy-object-todos-os-episodios",
      "texto_original": "Heavy Object",
      "rating": 7.35,
      "classificacao_etaria": "A14",
      "imagem_original": "https://animefire.plus/img/animes/heavy-object.webp",
      "imagem_pasta": "https://animefire.plus/img/animes/heavy-object/",
      "secao": "legendados",
      "pagina": 108,
      "total_episodios": 24,
      "link_video": "https://animefire.plus/video/heavy-object"
    },
    {
      "id": 1409,
      "nome": "Heike Monogatari",
      "link": "https://animefire.plus/animes/heike-monogatari-todos-os-episodios",
      "texto_original": "Heike Monogatari",
      "rating": 7.79,
      "classificacao_etaria": "A14",
      "imagem_original": "https://animefire.plus/img/animes/heike-monogatari.webp",
      "imagem_pasta": "https://animefire.plus/img/animes/heike-monogatari/",
      "secao": "legendados",
      "pagina": 38,
      "total_episodios": 11,
      "link_video": "https://animefire.plus/video/heike-monogatari"
    },
    {
      "id": 1410,
      "nome": "Heion Sedai no Idaten-tachi",
      "link": "https://animefire.plus/animes/heion-sedai-no-idaten-tachi-todos-os-episodios",
      "texto_original": "Heion Sedai no Idaten-tachi",
      "rating": 7.61,
      "classificacao_etaria": "A16",
      "imagem_original": "https://animefire.plus/img/animes/heion-sedai-no-idaten-tachi.webp",
      "imagem_pasta": "https://animefire.plus/img/animes/heion-sedai-no-idaten-tachi/",
      "secao": "legendados",
      "pagina": 45,
      "total_episodios": 11,
      "link_video": "https://animefire.plus/video/heion-sedai-no-idaten-tachi"
    },
    {
      "id": 1411,
      "nome": "Helck",
      "link": "https://animefire.plus/animes/helck-todos-os-episodios",
      "texto_original": "Helck",
      "rating": 7.28,
      "classificacao_etaria": "A14",
      "imagem_original": "https://animefire.plus/img/animes/helck.webp",
      "imagem_pasta": "https://animefire.plus/img/animes/helck/",
      "secao": "legendados",
      "pagina": 22,
      "total_episodios": 24,
      "link_video": "https://animefire.plus/video/helck"
    },
    {
      "id": 1413,
      "nome": "Hello!! Kiniro Mosaic",
      "link": "https://animefire.plus/animes/hello-kiniro-mosaic-todos-os-episodios",
      "texto_original": "Hello!! Kiniro Mosaic",
      "rating": 7.59,
      "classificacao_etaria": "A14",
      "imagem_original": "https://animefire.plus/img/animes/hello-kiniro-mosaic.webp",
      "imagem_pasta": "https://animefire.plus/img/animes/hello-kiniro-mosaic/",
      "secao": "legendados",
      "pagina": 95,
      "total_episodios": 12,
      "link_video": "https://animefire.plus/video/hello-kiniro-mosaic"
    },
    {
      "id": 1414,
      "nome": "Hellsing (Dublado)",
      "link": "https://animefire.plus/animes/hellsing-dublado-todos-os-episodios",
      "texto_original": "Hellsing (Dublado)",
      "rating": 7.58,
      "classificacao_etaria": "A16",
      "imagem_original": "https://animefire.plus/img/animes/hellsing.webp",
      "imagem_pasta": "https://animefire.plus/img/animes/hellsing/",
      "secao": "dublados,legendados",
      "pagina": 26,
      "total_episodios": 13,
      "link_video": "https://animefire.plus/video/hellsing-dublado"
    },
    {
      "id": 1416,
      "nome": "Hellsing: The Dawn",
      "link": "https://animefire.plus/animes/hellsing-the-dawn-todos-os-episodios",
      "texto_original": "Hellsing: The Dawn",
      "rating": 7.28,
      "classificacao_etaria": "A16",
      "imagem_original": "https://animefire.plus/img/animes/hellsing-the-dawn.webp",
      "imagem_pasta": "https://animefire.plus/img/animes/hellsing-the-dawn/",
      "secao": "legendados",
      "pagina": 96,
      "total_episodios": 3,
      "link_video": "https://animefire.plus/video/hellsing-the-dawn"
    },
    {
      "id": 1417,
      "nome": "Henjin no Salad Bowl",
      "link": "https://animefire.plus/animes/henjin-no-salad-bowl-todos-os-episodios",
      "texto_original": "Henjin no Salad Bowl",
      "rating": 7.27,
      "classificacao_etaria": "A14",
      "imagem_original": "https://animefire.plus/img/animes/henjin-no-salad-bowl.webp",
      "imagem_pasta": "https://animefire.plus/img/animes/henjin-no-salad-bowl/",
      "secao": "legendados",
      "pagina": 14,
      "total_episodios": 12,
      "link_video": "https://animefire.plus/video/henjin-no-salad-bowl"
    },
    {
      "id": 1419,
      "nome": "Hentai Ouji to Warawanai Neko.",
      "link": "https://animefire.plus/animes/hentai-ouji-to-warawanai-neko-todos-os-episodios",
      "texto_original": "Hentai Ouji to Warawanai Neko.",
      "rating": 7.35,
      "classificacao_etaria": "A14",
      "imagem_original": "https://animefire.plus/img/animes/hentai-ouji-to-warawanai-neko.webp",
      "imagem_pasta": "https://animefire.plus/img/animes/hentai-ouji-to-warawanai-neko/",
      "secao": "legendados",
      "pagina": 156,
      "total_episodios": 12,
      "link_video": "https://animefire.plus/video/hentai-ouji-to-warawanai-neko"
    },
    {
      "id": 1421,
      "nome": "Heppoko Jikken Animation Excel♥Saga (Dublado)",
      "link": "https://animefire.plus/animes/heppoko-jikken-animation-excel-saga-dublado-todos-os-episodios",
      "texto_original": "Heppoko Jikken Animation Excel♥Saga (Dublado)",
      "rating": 7.51,
      "classificacao_etaria": "A16",
      "imagem_original": "https://animefire.plus/img/animes/heppoko-jikken-animation-excel-saga.webp",
      "imagem_pasta": "https://animefire.plus/img/animes/heppoko-jikken-animation-excel-saga/",
      "secao": "dublados,legendados",
      "pagina": 22,
      "total_episodios": 26,
      "link_video": "https://animefire.plus/video/heppoko-jikken-animation-excel-saga-dublado"
    }
  ],
  "pagination": {
    "current_page": 29,
    "per_page": 20,
    "total_items": 1905,
    "total_pages": 96,
    "has_next": true,
    "has_prev": true
  }
}
