{
  "message": "Animes com rating entre 7 e 8",
  "rating_range": {
    "min": 7,
    "max": 8
  },
  "data": [
    {
      "id": 1546,
      "nome": "Hug tto! Precure",
      "link": "https://animefire.plus/animes/hug-tto-precure-todos-os-episodios",
      "texto_original": "Hug tto! Precure",
      "rating": 7.76,
      "classificacao_etaria": null,
      "imagem_original": "https://animefire.plus/img/animes/hug-tto-precure.webp",
      "imagem_pasta": "https://animefire.plus/img/animes/hug-tto-precure/",
      "secao": "legendados",
      "pagina": 67,
      "total_episodios": 49,
      "link_video": "https://animefire.plus/video/hug-tto-precure"
    },
    {
      "id": 1551,
      "nome": "Hunter x Hunter Pilot",
      "link": "https://animefire.plus/animes/hunter-x-hunter-pilot-todos-os-episodios",
      "texto_original": "Hunter x Hunter Pilot",
      "rating": 7.22,
      "classificacao_etaria": "A14",
      "imagem_original": "https://animefire.plus/img/animes/hunter-x-hunter-pilot.webp",
      "imagem_pasta": "https://animefire.plus/img/animes/hunter-x-hunter-pilot/",
      "secao": "legendados",
      "pagina": 69,
      "total_episodios": 1,
      "link_video": "https://animefire.plus/video/hunter-x-hunter-pilot"
    },
    {
      "id": 1554,
      "nome": "Huyao Xiao Hongniang",
      "link": "https://animefire.plus/animes/huyao-xiao-hongniang-todos-os-episodios",
      "texto_original": "Huyao Xiao Hongniang",
      "rating": 7.28,
      "classificacao_etaria": "A14",
      "imagem_original": "https://animefire.plus/img/animes/huyao-xiao-hongniang.webp",
      "imagem_pasta": "https://animefire.plus/img/animes/huyao-xiao-hongniang/",
      "secao": "legendados",
      "pagina": 85,
      "total_episodios": 13,
      "link_video": "https://animefire.plus/video/huyao-xiao-hongniang"
    },
    {
      "id": 1555,
      "nome": "Huyao Xiao Hongniang: Nan Guo",
      "link": "https://animefire.plus/animes/huyao-xiao-hongniang-nan-guo-todos-os-episodios",
      "texto_original": "Huyao Xiao Hongniang: Nan Guo",
      "rating": 7.61,
      "classificacao_etaria": "A14",
      "imagem_original": "https://animefire.plus/img/animes/huyao-xiao-hongniang-nan-guo.webp",
      "imagem_pasta": "https://animefire.plus/img/animes/huyao-xiao-hongniang-nan-guo/",
      "secao": "legendados",
      "pagina": 132,
      "total_episodios": 26,
      "link_video": "https://animefire.plus/video/huyao-xiao-hongniang-nan-guo"
    },
    {
      "id": 1556,
      "nome": "Huyao Xiao Hongniang: Qian Yan",
      "link": "https://animefire.plus/animes/huyao-xiao-hongniang-qian-yan-todos-os-episodios",
      "texto_original": "Huyao Xiao Hongniang: Qian Yan",
      "rating": 7.67,
      "classificacao_etaria": "A14",
      "imagem_original": "https://animefire.plus/img/animes/huyao-xiao-hongniang-qian-yan.webp",
      "imagem_pasta": "https://animefire.plus/img/animes/huyao-xiao-hongniang-qian-yan/",
      "secao": "legendados",
      "pagina": 123,
      "total_episodios": 15,
      "link_video": "https://animefire.plus/video/huyao-xiao-hongniang-qian-yan"
    },
    {
      "id": 1557,
      "nome": "Huyao Xiao Hongniang: Wangquan Fugui",
      "link": "https://animefire.plus/animes/huyao-xiao-hongniang-wangquan-fugui-todos-os-episodios",
      "texto_original": "Huyao Xiao Hongniang: Wangquan Fugui",
      "rating": 7.63,
      "classificacao_etaria": "A16",
      "imagem_original": "https://animefire.plus/img/animes/huyao-xiao-hongniang-wangquan-fugui.webp",
      "imagem_pasta": "https://animefire.plus/img/animes/huyao-xiao-hongniang-wangquan-fugui/",
      "secao": "legendados",
      "pagina": 85,
      "total_episodios": 14,
      "link_video": "https://animefire.plus/video/huyao-xiao-hongniang-wangquan-fugui"
    },
    {
      "id": 1558,
      "nome": "Huyao Xiao Hongniang: Yue Hong",
      "link": "https://animefire.plus/animes/huyao-xiao-hongniang-yue-hong-todos-os-episodios",
      "texto_original": "Huyao Xiao Hongniang: Yue Hong",
      "rating": 7.78,
      "classificacao_etaria": "A16",
      "imagem_original": "https://animefire.plus/img/animes/huyao-xiao-hongniang-yue-hong.webp",
      "imagem_pasta": "https://animefire.plus/img/animes/huyao-xiao-hongniang-yue-hong/",
      "secao": "legendados",
      "pagina": 172,
      "total_episodios": 13,
      "link_video": "https://animefire.plus/video/huyao-xiao-hongniang-yue-hong"
    },
    {
      "id": 1559,
      "nome": "Huyao Xiao Hongniang: Zhu Ye",
      "link": "https://animefire.plus/animes/huyao-xiao-hongniang-zhu-ye-todos-os-episodios",
      "texto_original": "Huyao Xiao Hongniang: Zhu Ye",
      "rating": 7.48,
      "classificacao_etaria": "A14",
      "imagem_original": "https://animefire.plus/img/animes/huyao-xiao-hongniang-zhu-ye.webp",
      "imagem_pasta": "https://animefire.plus/img/animes/huyao-xiao-hongniang-zhu-ye/",
      "secao": "legendados",
      "pagina": 112,
      "total_episodios": 12,
      "link_video": "https://animefire.plus/video/huyao-xiao-hongniang-zhu-ye"
    },
    {
      "id": 1563,
      "nome": "Hyakko",
      "link": "https://animefire.plus/animes/hyakko-todos-os-episodios",
      "texto_original": "Hyakko",
      "rating": 7.29,
      "classificacao_etaria": "A14",
      "imagem_original": "https://animefire.plus/img/animes/hyakko.webp",
      "imagem_pasta": "https://animefire.plus/img/animes/hyakko/",
      "secao": "legendados",
      "pagina": 109,
      "total_episodios": 13,
      "link_video": "https://animefire.plus/video/hyakko"
    },
    {
      "id": 1567,
      "nome": "Hybrid Child",
      "link": "https://animefire.plus/animes/hybrid-child-todos-os-episodios",
      "texto_original": "Hybrid Child",
      "rating": 7.84,
      "classificacao_etaria": "A14",
      "imagem_original": "https://animefire.plus/img/animes/hybrid-child.webp",
      "imagem_pasta": "https://animefire.plus/img/animes/hybrid-child/",
      "secao": "legendados",
      "pagina": 80,
      "total_episodios": 4,
      "link_video": "https://animefire.plus/video/hybrid-child"
    },
    {
      "id": 1577,
      "nome": "Ichiban Ushiro no Daimaou",
      "link": "https://animefire.plus/animes/ichiban-ushiro-no-daimaou-todos-os-episodios",
      "texto_original": "Ichiban Ushiro no Daimaou",
      "rating": 7.08,
      "classificacao_etaria": "A18",
      "imagem_original": "https://animefire.plus/img/animes/ichiban-ushiro-no-daimaou.webp",
      "imagem_pasta": "https://animefire.plus/img/animes/ichiban-ushiro-no-daimaou/",
      "secao": "legendados",
      "pagina": 124,
      "total_episodios": 12,
      "link_video": "https://animefire.plus/video/ichiban-ushiro-no-daimaou"
    },
    {
      "id": 1580,
      "nome": "Ichigo Mashimaro",
      "link": "https://animefire.plus/animes/ichigo-mashimaro-todos-os-episodios",
      "texto_original": "Ichigo Mashimaro",
      "rating": 7.71,
      "classificacao_etaria": "A14",
      "imagem_original": "https://animefire.plus/img/animes/ichigo-mashimaro.webp",
      "imagem_pasta": "https://animefire.plus/img/animes/ichigo-mashimaro/",
      "secao": "legendados",
      "pagina": 123,
      "total_episodios": 12,
      "link_video": "https://animefire.plus/video/ichigo-mashimaro"
    },
    {
      "id": 1581,
      "nome": "Ichigo Mashimaro Encore",
      "link": "https://animefire.plus/animes/ichigo-mashimaro-encore-todos-os-episodios",
      "texto_original": "Ichigo Mashimaro Encore",
      "rating": 7.72,
      "classificacao_etaria": "A14",
      "imagem_original": "https://animefire.plus/img/animes/ichigo-mashimaro-encore.webp",
      "imagem_pasta": "https://animefire.plus/img/animes/ichigo-mashimaro-encore/",
      "secao": "legendados",
      "pagina": 67,
      "total_episodios": 2,
      "link_video": "https://animefire.plus/video/ichigo-mashimaro-encore"
    },
    {
      "id": 1584,
      "nome": "ID:Invaded (Dublado)",
      "link": "https://animefire.plus/animes/id-invaded-dublado-todos-os-episodios",
      "texto_original": "ID:Invaded (Dublado)",
      "rating": 7.87,
      "classificacao_etaria": "A16",
      "imagem_original": "https://animefire.plus/img/animes/id-invaded.webp",
      "imagem_pasta": "https://animefire.plus/img/animes/id-invaded/",
      "secao": "dublados,legendados",
      "pagina": 15,
      "total_episodios": 13,
      "link_video": "https://animefire.plus/video/id-invaded-dublado"
    },
    {
      "id": 1586,
      "nome": "Idol Land PriPara",
      "link": "https://animefire.plus/animes/idol-land-pripara-todos-os-episodios",
      "texto_original": "Idol Land PriPara",
      "rating": 7.41,
      "classificacao_etaria": "A14",
      "imagem_original": "https://animefire.plus/img/animes/idol-land-pripara.webp",
      "imagem_pasta": "https://animefire.plus/img/animes/idol-land-pripara/",
      "secao": "legendados,lancamentos",
      "pagina": 35,
      "total_episodios": 0,
      "link_video": "https://animefire.plus/video/idol-land-pripara"
    },
    {
      "id": 1588,
      "nome": "Idol Time PriPara",
      "link": "https://animefire.plus/animes/idol-time-pripara-todos-os-episodios",
      "texto_original": "Idol Time PriPara",
      "rating": 7.3,
      "classificacao_etaria": "A10",
      "imagem_original": "https://animefire.plus/img/animes/idol-time-pripara.webp",
      "imagem_pasta": "https://animefire.plus/img/animes/idol-time-pripara/",
      "secao": "legendados",
      "pagina": 149,
      "total_episodios": 51,
      "link_video": "https://animefire.plus/video/idol-time-pripara"
    },
    {
      "id": 1595,
      "nome": "Idoly Pride",
      "link": "https://animefire.plus/animes/idoly-pride-todos-os-episodios",
      "texto_original": "Idoly Pride",
      "rating": 7.41,
      "classificacao_etaria": "A14",
      "imagem_original": "https://animefire.plus/img/animes/idoly-pride.webp",
      "imagem_pasta": "https://animefire.plus/img/animes/idoly-pride/",
      "secao": "legendados",
      "pagina": 48,
      "total_episodios": 12,
      "link_video": "https://animefire.plus/video/idoly-pride"
    },
    {
      "id": 1596,
      "nome": "Ie Naki Ko Remy",
      "link": "https://animefire.plus/animes/ie-naki-ko-remy-todos-os-episodios",
      "texto_original": "Ie Naki Ko Remy",
      "rating": 7.97,
      "classificacao_etaria": null,
      "imagem_original": "https://animefire.plus/img/animes/ie-naki-ko-remy.webp",
      "imagem_pasta": "https://animefire.plus/img/animes/ie-naki-ko-remy/",
      "secao": "legendados",
      "pagina": 71,
      "total_episodios": 26,
      "link_video": "https://animefire.plus/video/ie-naki-ko-remy"
    },
    {
      "id": 1598,
      "nome": "Ijiranaide, Nagatoro-san (Dublado)",
      "link": "https://animefire.plus/animes/ijiranaide-nagatoro-san-dublado-todos-os-episodios",
      "texto_original": "Ijiranaide, Nagatoro-san (Dublado)",
      "rating": 7.21,
      "classificacao_etaria": "A14",
      "imagem_original": "https://animefire.plus/img/animes/ijiranaide-nagatoro-san.webp",
      "imagem_pasta": "https://animefire.plus/img/animes/ijiranaide-nagatoro-san/",
      "secao": "dublados,legendados",
      "pagina": 13,
      "total_episodios": 12,
      "link_video": "https://animefire.plus/video/ijiranaide-nagatoro-san-dublado"
    },
    {
      "id": 1599,
      "nome": "Ijiranaide, Nagatoro-san 2nd Attack (Dublado)",
      "link": "https://animefire.plus/animes/ijiranaide-nagatoro-san-2nd-attack-dublado-todos-os-episodios",
      "texto_original": "Ijiranaide, Nagatoro-san 2nd Attack (Dublado)",
      "rating": 7.45,
      "classificacao_etaria": "A14",
      "imagem_original": "https://animefire.plus/img/animes/ijiranaide-nagatoro-san-2nd-attack.webp",
      "imagem_pasta": "https://animefire.plus/img/animes/ijiranaide-nagatoro-san-2nd-attack/",
      "secao": "dublados,legendados,lancamentos",
      "pagina": 8,
      "total_episodios": 12,
      "link_video": "https://animefire.plus/video/ijiranaide-nagatoro-san-2nd-attack-dublado"
    }
  ],
  "pagination": {
    "current_page": 33,
    "per_page": 20,
    "total_items": 1905,
    "total_pages": 96,
    "has_next": true,
    "has_prev": true
  }
}
