{
  "message": "Animes com rating entre 7 e 8",
  "rating_range": {
    "min": 7,
    "max": 8
  },
  "data": [
    {
      "id": 2,
      "nome": ".hack//Quantum",
      "link": "https://animefire.plus/animes/hack-quantum-todos-os-episodios",
      "texto_original": ".hack//Quantum",
      "rating": 7.25,
      "classificacao_etaria": "A14",
      "imagem_original": "https://animefire.plus/img/animes/hack-quantum.webp",
      "imagem_pasta": "https://animefire.plus/img/animes/hack-quantum/",
      "secao": "legendados",
      "pagina": 171,
      "total_episodios": 3,
      "link_video": "https://animefire.plus/video/hack-quantum"
    },
    {
      "id": 3,
      "nome": ".hack//Roots",
      "link": "https://animefire.plus/animes/hack-roots-todos-os-episodios",
      "texto_original": ".hack//Roots",
      "rating": 7,
      "classificacao_etaria": "A14",
      "imagem_original": "https://animefire.plus/img/animes/hack-roots.webp",
      "imagem_pasta": "https://animefire.plus/img/animes/hack-roots/",
      "secao": "legendados",
      "pagina": 152,
      "total_episodios": 26,
      "link_video": "https://animefire.plus/video/hack-roots"
    },
    {
      "id": 4,
      "nome": ".hack//Sign",
      "link": "https://animefire.plus/animes/hack-sign-todos-os-episodios",
      "texto_original": ".hack//Sign",
      "rating": 7.07,
      "classificacao_etaria": "A14",
      "imagem_original": "https://animefire.plus/img/animes/hack-sign.webp",
      "imagem_pasta": "https://animefire.plus/img/animes/hack-sign/",
      "secao": "legendados",
      "pagina": 142,
      "total_episodios": 26,
      "link_video": "https://animefire.plus/video/hack-sign"
    },
    {
      "id": 6,
      "nome": "\"Bungaku Shoujo\" Memoire",
      "link": "https://animefire.plus/animes/bungaku-shoujo-memoire-todos-os-episodios",
      "texto_original": "\"Bungaku Shoujo\" Memoire",
      "rating": 7.33,
      "classificacao_etaria": "A14",
      "imagem_original": "https://animefire.plus/img/animes/bungaku-shoujo-memoire.webp",
      "imagem_pasta": "https://animefire.plus/img/animes/bungaku-shoujo-memoire/",
      "secao": "legendados",
      "pagina": 42,
      "total_episodios": 3,
      "link_video": "https://animefire.plus/video/bungaku-shoujo-memoire"
    },
    {
      "id": 7,
      "nome": "\"Bungaku Shoujo\" Movie",
      "link": "https://animefire.plus/animes/bungaku-shoujo-movie-todos-os-episodios",
      "texto_original": "\"Bungaku Shoujo\" Movie",
      "rating": 7.49,
      "classificacao_etaria": "A14",
      "imagem_original": "https://animefire.plus/img/animes/bungaku-shoujo-movie.webp",
      "imagem_pasta": "https://animefire.plus/img/animes/bungaku-shoujo-movie/",
      "secao": "legendados",
      "pagina": 146,
      "total_episodios": 3,
      "link_video": "https://animefire.plus/video/bungaku-shoujo-movie"
    },
    {
      "id": 12,
      "nome": "07-Ghost",
      "link": "https://animefire.plus/animes/07-ghost-todos-os-episodios",
      "texto_original": "07-Ghost",
      "rating": 7.33,
      "classificacao_etaria": "A14",
      "imagem_original": "https://animefire.plus/img/animes/07-ghost.webp",
      "imagem_pasta": "https://animefire.plus/img/animes/07-ghost/",
      "secao": "legendados",
      "pagina": 145,
      "total_episodios": 25,
      "link_video": "https://animefire.plus/video/07-ghost"
    },
    {
      "id": 24,
      "nome": "2.5-jigen no Ririsa",
      "link": "https://animefire.plus/animes/2-5-jigen-no-ririsa-todos-os-episodios",
      "texto_original": "2.5-jigen no Ririsa",
      "rating": 7.42,
      "classificacao_etaria": "A14",
      "imagem_original": "https://animefire.plus/img/animes/2-5-jigen-no-ririsa.webp",
      "imagem_pasta": "https://animefire.plus/img/animes/2-5-jigen-no-ririsa/",
      "secao": "legendados",
      "pagina": 13,
      "total_episodios": 24,
      "link_video": "https://animefire.plus/video/2-5-jigen-no-ririsa"
    },
    {
      "id": 30,
      "nome": "30-sai made Doutei dato Mahoutsukai ni Nareru Rashii",
      "link": "https://animefire.plus/animes/30-sai-made-doutei-dato-mahoutsukai-ni-nareru-rashii-todos-os-episodios",
      "texto_original": "30-sai made Doutei dato Mahoutsukai ni Nareru Rashii",
      "rating": 7.64,
      "classificacao_etaria": "A14",
      "imagem_original": "https://animefire.plus/img/animes/30-sai-made-doutei-dato-mahoutsukai-ni-nareru-rashii.webp",
      "imagem_pasta": "https://animefire.plus/img/animes/30-sai-made-doutei-dato-mahoutsukai-ni-nareru-rashii/",
      "secao": "legendados",
      "pagina": 16,
      "total_episodios": 12,
      "link_video": "https://animefire.plus/video/30-sai-made-doutei-dato-mahoutsukai-ni-nareru-rashii"
    },
    {
      "id": 33,
      "nome": "3D Kanojo: Real Girl 2nd Season",
      "link": "https://animefire.plus/animes/3d-kanojo-real-girl-2nd-season-todos-os-episodios",
      "texto_original": "3D Kanojo: Real Girl 2nd Season",
      "rating": 7.66,
      "classificacao_etaria": "A14",
      "imagem_original": "https://animefire.plus/img/animes/3d-kanojo-real-girl-2nd-season.webp",
      "imagem_pasta": "https://animefire.plus/img/animes/3d-kanojo-real-girl-2nd-season/",
      "secao": "legendados",
      "pagina": 109,
      "total_episodios": 12,
      "link_video": "https://animefire.plus/video/3d-kanojo-real-girl-2nd-season"
    },
    {
      "id": 35,
      "nome": "4-nin wa Sorezore Uso wo Tsuku",
      "link": "https://animefire.plus/animes/4-nin-wa-sorezore-uso-wo-tsuku-todos-os-episodios",
      "texto_original": "4-nin wa Sorezore Uso wo Tsuku",
      "rating": 7.13,
      "classificacao_etaria": "A14",
      "imagem_original": "https://animefire.plus/img/animes/4-nin-wa-sorezore-uso-wo-tsuku.webp",
      "imagem_pasta": "https://animefire.plus/img/animes/4-nin-wa-sorezore-uso-wo-tsuku/",
      "secao": "legendados",
      "pagina": 28,
      "total_episodios": 11,
      "link_video": "https://animefire.plus/video/4-nin-wa-sorezore-uso-wo-tsuku"
    },
    {
      "id": 36,
      "nome": "5-toubun no Hanayome (Dublado)",
      "link": "https://animefire.plus/animes/5-toubun-no-hanayome-dublado-todos-os-episodios",
      "texto_original": "5-toubun no Hanayome (Dublado)",
      "rating": 7.67,
      "classificacao_etaria": "A14",
      "imagem_original": "https://animefire.plus/img/animes/5-toubun-no-hanayome.webp",
      "imagem_pasta": "https://animefire.plus/img/animes/5-toubun-no-hanayome/",
      "secao": "dublados,legendados",
      "pagina": 8,
      "total_episodios": 12,
      "link_video": "https://animefire.plus/video/5-toubun-no-hanayome-dublado"
    },
    {
      "id": 38,
      "nome": "5-toubun no Hanayome∽",
      "link": "https://animefire.plus/animes/the-quintessential-quintuplets-todos-os-episodios",
      "texto_original": "5-toubun no Hanayome∽",
      "rating": 7.95,
      "classificacao_etaria": "A14",
      "imagem_original": "https://animefire.plus/img/animes/the-quintessential-quintuplets.webp",
      "imagem_pasta": "https://animefire.plus/img/animes/the-quintessential-quintuplets/",
      "secao": "legendados",
      "pagina": 21,
      "total_episodios": 1,
      "link_video": "https://animefire.plus/video/the-quintessential-quintuplets"
    },
    {
      "id": 40,
      "nome": "7 Seeds 2nd Season (Dublado)",
      "link": "https://animefire.plus/animes/7-seeds-2nd-season-dublado-todos-os-episodios",
      "texto_original": "7 Seeds 2nd Season (Dublado)",
      "rating": 7.17,
      "classificacao_etaria": "A18",
      "imagem_original": "https://animefire.plus/img/animes/7-seeds-2nd-season.webp",
      "imagem_pasta": "https://animefire.plus/img/animes/7-seeds-2nd-season/",
      "secao": "dublados,legendados",
      "pagina": 23,
      "total_episodios": 12,
      "link_video": "https://animefire.plus/video/7-seeds-2nd-season-dublado"
    },
    {
      "id": 44,
      "nome": "91 Days",
      "link": "https://animefire.plus/animes/91-days-todos-os-episodios",
      "texto_original": "91 Days",
      "rating": 7.88,
      "classificacao_etaria": "A16",
      "imagem_original": "https://animefire.plus/img/animes/91-days.webp",
      "imagem_pasta": "https://animefire.plus/img/animes/91-days/",
      "secao": "legendados",
      "pagina": 171,
      "total_episodios": 0,
      "link_video": "https://animefire.plus/video/91-days"
    },
    {
      "id": 45,
      "nome": "A-Channel",
      "link": "https://animefire.plus/animes/a-channel-todos-os-episodios",
      "texto_original": "A-Channel",
      "rating": 7,
      "classificacao_etaria": "A14",
      "imagem_original": "https://animefire.plus/img/animes/a-channel.webp",
      "imagem_pasta": "https://animefire.plus/img/animes/a-channel/",
      "secao": "legendados",
      "pagina": 90,
      "total_episodios": 12,
      "link_video": "https://animefire.plus/video/a-channel"
    },
    {
      "id": 50,
      "nome": "A3! Season Spring & Summer",
      "link": "https://animefire.plus/animes/a3-season-spring-summer-todos-os-episodios",
      "texto_original": "A3! Season Spring & Summer",
      "rating": 7.14,
      "classificacao_etaria": "A14",
      "imagem_original": "https://animefire.plus/img/animes/a3-season-spring-summer.webp",
      "imagem_pasta": "https://animefire.plus/img/animes/a3-season-spring-summer/",
      "secao": "legendados",
      "pagina": 92,
      "total_episodios": 3,
      "link_video": "https://animefire.plus/video/a3-season-spring-summer"
    },
    {
      "id": 51,
      "nome": "Aa! Megami-sama!",
      "link": "https://animefire.plus/animes/aa-megami-sama-todos-os-episodios",
      "texto_original": "Aa! Megami-sama!",
      "rating": 7.31,
      "classificacao_etaria": "A14",
      "imagem_original": "https://animefire.plus/img/animes/aa-megami-sama.webp",
      "imagem_pasta": "https://animefire.plus/img/animes/aa-megami-sama/",
      "secao": "legendados",
      "pagina": 42,
      "total_episodios": 5,
      "link_video": "https://animefire.plus/video/aa-megami-sama"
    },
    {
      "id": 52,
      "nome": "Aa! Megami-sama! (TV)",
      "link": "https://animefire.plus/animes/aa-megami-sama-tv-todos-os-episodios",
      "texto_original": "Aa! Megami-sama! (TV)",
      "rating": 7.41,
      "classificacao_etaria": "A14",
      "imagem_original": "https://animefire.plus/img/animes/aa-megami-sama-tv.webp",
      "imagem_pasta": "https://animefire.plus/img/animes/aa-megami-sama-tv/",
      "secao": "legendados",
      "pagina": 123,
      "total_episodios": 26,
      "link_video": "https://animefire.plus/video/aa-megami-sama-tv"
    },
    {
      "id": 55,
      "nome": "Abenobashi Mahou☆Shoutengai",
      "link": "https://animefire.plus/animes/abenobashi-mahou-shoutengai-todos-os-episodios",
      "texto_original": "Abenobashi Mahou☆Shoutengai",
      "rating": 7.32,
      "classificacao_etaria": "A18",
      "imagem_original": "https://animefire.plus/img/animes/abenobashi-mahou-shoutengai.webp",
      "imagem_pasta": "https://animefire.plus/img/animes/abenobashi-mahou-shoutengai/",
      "secao": "legendados",
      "pagina": 159,
      "total_episodios": 13,
      "link_video": "https://animefire.plus/video/abenobashi-mahou-shoutengai"
    },
    {
      "id": 57,
      "nome": "ACCA: 13-ku Kansatsu-ka",
      "link": "https://animefire.plus/animes/acca-13-ku-kansatsu-ka-todos-os-episodios",
      "texto_original": "ACCA: 13-ku Kansatsu-ka",
      "rating": 7.71,
      "classificacao_etaria": "A14",
      "imagem_original": "https://animefire.plus/img/animes/acca-13-ku-kansatsu-ka.webp",
      "imagem_pasta": "https://animefire.plus/img/animes/acca-13-ku-kansatsu-ka/",
      "secao": "legendados",
      "pagina": 152,
      "total_episodios": 12,
      "link_video": "https://animefire.plus/video/acca-13-ku-kansatsu-ka"
    }
  ],
  "pagination": {
    "current_page": 1,
    "per_page": 20,
    "total_items": 1905,
    "total_pages": 96,
    "has_next": true,
    "has_prev": false
  }
}
