{
  "message": "Animes com rating entre 8 e 9",
  "rating_range": {
    "min": 8,
    "max": 9
  },
  "data": [
    {
      "id": 1760,
      "nome": "Junjou Romantica 3",
      "link": "https://animefire.plus/animes/junjou-romantica-3-todos-os-episodios",
      "texto_original": "Junjou Romantica 3",
      "rating": 8.03,
      "classificacao_etaria": "A14",
      "imagem_original": "https://animefire.plus/img/animes/junjou-romantica-3.webp",
      "imagem_pasta": "https://animefire.plus/img/animes/junjou-romantica-3/",
      "secao": "legendados",
      "pagina": 179,
      "total_episodios": 1,
      "link_video": "https://animefire.plus/video/junjou-romantica-3"
    },
    {
      "id": 1766,
      "nome": "Juuni Kokuki",
      "link": "https://animefire.plus/animes/juuni-kokuki-todos-os-episodios",
      "texto_original": "Juuni Kokuki",
      "rating": 8.08,
      "classificacao_etaria": "A14",
      "imagem_original": "https://animefire.plus/img/animes/juuni-kokuki.webp",
      "imagem_pasta": "https://animefire.plus/img/animes/juuni-kokuki/",
      "secao": "legendados",
      "pagina": 76,
      "total_episodios": 45,
      "link_video": "https://animefire.plus/video/juuni-kokuki"
    },
    {
      "id": 1774,
      "nome": "K-On!",
      "link": "https://animefire.plus/animes/k-on-todos-os-episodios",
      "texto_original": "K-On!",
      "rating": 8.15,
      "classificacao_etaria": "A14",
      "imagem_original": "https://animefire.plus/img/animes/k-on.webp",
      "imagem_pasta": "https://animefire.plus/img/animes/k-on/",
      "secao": "legendados",
      "pagina": 143,
      "total_episodios": 14,
      "link_video": "https://animefire.plus/video/k-on"
    },
    {
      "id": 1783,
      "nome": "Kage no Jitsuryokusha ni Naritakute! (Dublado)",
      "link": "https://animefire.plus/animes/kage-no-jitsuryokusha-ni-naritakute-dublado-todos-os-episodios",
      "texto_original": "Kage no Jitsuryokusha ni Naritakute! (Dublado)",
      "rating": 8.25,
      "classificacao_etaria": "A16",
      "imagem_original": "https://animefire.plus/img/animes/kage-no-jitsuryokusha-ni-naritakute.webp",
      "imagem_pasta": "https://animefire.plus/img/animes/kage-no-jitsuryokusha-ni-naritakute/",
      "secao": "dublados,legendados,lancamentos",
      "pagina": 8,
      "total_episodios": 20,
      "link_video": "https://animefire.plus/video/kage-no-jitsuryokusha-ni-naritakute-dublado"
    },
    {
      "id": 1784,
      "nome": "Kage no Jitsuryokusha ni Naritakute! 2nd Season (Dublado)",
      "link": "https://animefire.plus/animes/kage-no-jitsuryokusha-ni-naritakute-2nd-season-dublado-todos-os-episodios",
      "texto_original": "Kage no Jitsuryokusha ni Naritakute! 2nd Season (Dublado)",
      "rating": 8.28,
      "classificacao_etaria": "A16",
      "imagem_original": "https://animefire.plus/img/animes/kage-no-jitsuryokusha-ni-naritakute-2nd-season.webp",
      "imagem_pasta": "https://animefire.plus/img/animes/kage-no-jitsuryokusha-ni-naritakute-2nd-season/",
      "secao": "dublados,legendados,lancamentos",
      "pagina": 5,
      "total_episodios": 12,
      "link_video": "https://animefire.plus/video/kage-no-jitsuryokusha-ni-naritakute-2nd-season-dublado"
    },
    {
      "id": 1791,
      "nome": "Kaguya-sama wa Kokurasetai: First Kiss wa Owaranai",
      "link": "https://animefire.plus/animes/kaguya-sama-wa-kokurasetai-first-kiss-wa-owaranai-todos-os-episodios",
      "texto_original": "Kaguya-sama wa Kokurasetai: First Kiss wa Owaranai",
      "rating": 8.73,
      "classificacao_etaria": "A14",
      "imagem_original": "https://animefire.plus/img/animes/kaguya-sama-wa-kokurasetai-first-kiss-wa-owaranai.jpg",
      "imagem_pasta": "https://animefire.plus/img/animes/kaguya-sama-wa-kokurasetai-first-kiss-wa-owaranai/",
      "secao": "legendados,lancamentos",
      "pagina": 25,
      "total_episodios": 4,
      "link_video": "https://animefire.plus/video/kaguya-sama-wa-kokurasetai-first-kiss-wa-owaranai"
    },
    {
      "id": 1792,
      "nome": "Kaguya-sama wa Kokurasetai: Tensai-tachi no Renai Zunousen (Dublado)",
      "link": "https://animefire.plus/animes/kaguya-sama-love-is-war-dublado-todos-os-episodios",
      "texto_original": "Kaguya-sama wa Kokurasetai: Tensai-tachi no Renai Zunousen (Dublado)",
      "rating": 8.41,
      "classificacao_etaria": "A14",
      "imagem_original": "https://animefire.plus/img/animes/kaguya-sama-love-is-war.webp",
      "imagem_pasta": "https://animefire.plus/img/animes/kaguya-sama-love-is-war/",
      "secao": "dublados",
      "pagina": 16,
      "total_episodios": 12,
      "link_video": "https://animefire.plus/video/kaguya-sama-love-is-war-dublado"
    },
    {
      "id": 1794,
      "nome": "Kaguya-sama wa Kokurasetai: Ultra Romantic (Dublado)",
      "link": "https://animefire.plus/animes/kaguya-sama-wa-kokurasetai-ultra-romantic-dublado-todos-os-episodios",
      "texto_original": "Kaguya-sama wa Kokurasetai: Ultra Romantic (Dublado)",
      "rating": 8.97,
      "classificacao_etaria": "A14",
      "imagem_original": "https://animefire.plus/img/animes/kaguya-sama-wa-kokurasetai-ultra-romantic.webp",
      "imagem_pasta": "https://animefire.plus/img/animes/kaguya-sama-wa-kokurasetai-ultra-romantic/",
      "secao": "dublados,legendados",
      "pagina": 11,
      "total_episodios": 13,
      "link_video": "https://animefire.plus/video/kaguya-sama-wa-kokurasetai-ultra-romantic-dublado"
    },
    {
      "id": 1795,
      "nome": "Kaguya-sama wa Kokurasetai?: Tensai-tachi no Renai Zunousen",
      "link": "https://animefire.plus/animes/kaguya-sama-love-is-war-season-2-todos-os-episodios",
      "texto_original": "Kaguya-sama wa Kokurasetai?: Tensai-tachi no Renai Zunousen",
      "rating": 8.74,
      "classificacao_etaria": "A14",
      "imagem_original": "https://animefire.plus/img/animes/kaguya-sama-love-is-war-season-2.webp",
      "imagem_pasta": "https://animefire.plus/img/animes/kaguya-sama-love-is-war-season-2/",
      "secao": "legendados",
      "pagina": 61,
      "total_episodios": 6,
      "link_video": "https://animefire.plus/video/kaguya-sama-love-is-war-season-2"
    },
    {
      "id": 1796,
      "nome": "Kaguya-sama wa Kokurasetai?: Tensai-tachi no Renai Zunousen (Dublado)",
      "link": "https://animefire.plus/animes/kaguya-sama-wa-kokurasetai-tensai-tachi-no-renai-zunousen-dublado-todos-os-episodios",
      "texto_original": "Kaguya-sama wa Kokurasetai?: Tensai-tachi no Renai Zunousen (Dublado)",
      "rating": 8.68,
      "classificacao_etaria": "A14",
      "imagem_original": "https://animefire.plus/img/animes/kaguya-sama-love-is-war-season-2.webp",
      "imagem_pasta": "https://animefire.plus/img/animes/kaguya-sama-love-is-war-season-2/",
      "secao": "dublados,legendados",
      "pagina": 16,
      "total_episodios": 12,
      "link_video": "https://animefire.plus/video/kaguya-sama-wa-kokurasetai-tensai-tachi-no-renai-zunousen-dublado"
    },
    {
      "id": 1800,
      "nome": "Kaiba",
      "link": "https://animefire.plus/animes/kaiba-todos-os-episodios",
      "texto_original": "Kaiba",
      "rating": 8.16,
      "classificacao_etaria": "A18",
      "imagem_original": "https://animefire.plus/img/animes/kaiba.webp",
      "imagem_pasta": "https://animefire.plus/img/animes/kaiba/",
      "secao": "legendados",
      "pagina": 92,
      "total_episodios": 12,
      "link_video": "https://animefire.plus/video/kaiba"
    },
    {
      "id": 1803,
      "nome": "Kaichou wa Maid-sama!",
      "link": "https://animefire.plus/animes/kaichou-wa-maid-sama-todos-os-episodios",
      "texto_original": "Kaichou wa Maid-sama!",
      "rating": 8.18,
      "classificacao_etaria": "A14",
      "imagem_original": "https://animefire.plus/img/animes/kaichou-wa-maid-sama.webp",
      "imagem_pasta": "https://animefire.plus/img/animes/kaichou-wa-maid-sama/",
      "secao": "legendados",
      "pagina": 157,
      "total_episodios": 26,
      "link_video": "https://animefire.plus/video/kaichou-wa-maid-sama"
    },
    {
      "id": 1809,
      "nome": "Kaijuu 8-gou (Dublado)",
      "link": "https://animefire.plus/animes/kaijuu-8-gou-dublado-todos-os-episodios",
      "texto_original": "Kaijuu 8-gou (Dublado)",
      "rating": 8.27,
      "classificacao_etaria": "A14",
      "imagem_original": "https://animefire.plus/img/animes/kaijuu-8-gou.webp",
      "imagem_pasta": "https://animefire.plus/img/animes/kaijuu-8-gou/",
      "secao": "dublados,legendados,lancamentos",
      "pagina": 3,
      "total_episodios": 12,
      "link_video": "https://animefire.plus/video/kaijuu-8-gou-dublado"
    },
    {
      "id": 1827,
      "nome": "Kakushigoto (TV)",
      "link": "https://animefire.plus/animes/kakushigoto-tv-todos-os-episodios",
      "texto_original": "Kakushigoto (TV)",
      "rating": 8.02,
      "classificacao_etaria": "A14",
      "imagem_original": "https://animefire.plus/img/animes/kakushigoto-tv.webp",
      "imagem_pasta": "https://animefire.plus/img/animes/kakushigoto-tv/",
      "secao": "legendados",
      "pagina": 81,
      "total_episodios": 0,
      "link_video": "https://animefire.plus/video/kakushigoto-tv"
    },
    {
      "id": 1840,
      "nome": "Kami nomi zo Shiru Sekai: Megami-hen",
      "link": "https://animefire.plus/animes/kami-nomi-zo-shiru-sekai-megami-hen-todos-os-episodios",
      "texto_original": "Kami nomi zo Shiru Sekai: Megami-hen",
      "rating": 8.11,
      "classificacao_etaria": "A14",
      "imagem_original": "https://animefire.plus/img/animes/kami-nomi-zo-shiru-sekai-megami-hen.webp",
      "imagem_pasta": "https://animefire.plus/img/animes/kami-nomi-zo-shiru-sekai-megami-hen/",
      "secao": "legendados",
      "pagina": 57,
      "total_episodios": 12,
      "link_video": "https://animefire.plus/video/kami-nomi-zo-shiru-sekai-megami-hen"
    },
    {
      "id": 1854,
      "nome": "Kamisama Hajimemashita (Dublado)",
      "link": "https://animefire.plus/animes/kamisama-hajimemashita-dublado-todos-os-episodios",
      "texto_original": "Kamisama Hajimemashita (Dublado)",
      "rating": 8.1,
      "classificacao_etaria": "A14",
      "imagem_original": "https://animefire.plus/img/animes/kamisama-hajimemashita.webp",
      "imagem_pasta": "https://animefire.plus/img/animes/kamisama-hajimemashita/",
      "secao": "dublados,legendados",
      "pagina": 4,
      "total_episodios": 5,
      "link_video": "https://animefire.plus/video/kamisama-hajimemashita-dublado"
    },
    {
      "id": 1855,
      "nome": "Kamisama Hajimemashita: Kako-hen",
      "link": "https://animefire.plus/animes/kamisama-hajimemashita-kako-hen-todos-os-episodios",
      "texto_original": "Kamisama Hajimemashita: Kako-hen",
      "rating": 8.4,
      "classificacao_etaria": "A14",
      "imagem_original": "https://animefire.plus/img/animes/kamisama-hajimemashita-kako-hen.webp",
      "imagem_pasta": "https://animefire.plus/img/animes/kamisama-hajimemashita-kako-hen/",
      "secao": "legendados",
      "pagina": 56,
      "total_episodios": 1,
      "link_video": "https://animefire.plus/video/kamisama-hajimemashita-kako-hen"
    },
    {
      "id": 1856,
      "nome": "Kamisama Hajimemashita◎",
      "link": "https://animefire.plus/animes/kamisama-kiss-season-2-todos-os-episodios",
      "texto_original": "Kamisama Hajimemashita◎",
      "rating": 8.19,
      "classificacao_etaria": "A14",
      "imagem_original": "https://animefire.plus/img/animes/kamisama-kiss-season-2.webp",
      "imagem_pasta": "https://animefire.plus/img/animes/kamisama-kiss-season-2/",
      "secao": "legendados",
      "pagina": 72,
      "total_episodios": 12,
      "link_video": "https://animefire.plus/video/kamisama-kiss-season-2"
    },
    {
      "id": 1867,
      "nome": "Kanata no Astra",
      "link": "https://animefire.plus/animes/kanata-no-astra-todos-os-episodios",
      "texto_original": "Kanata no Astra",
      "rating": 8.17,
      "classificacao_etaria": "A14",
      "imagem_original": "https://animefire.plus/img/animes/kanata-no-astra.webp",
      "imagem_pasta": "https://animefire.plus/img/animes/kanata-no-astra/",
      "secao": "legendados",
      "pagina": 144,
      "total_episodios": 6,
      "link_video": "https://animefire.plus/video/kanata-no-astra"
    },
    {
      "id": 1887,
      "nome": "Kanon (2006)",
      "link": "https://animefire.plus/animes/kanon-2006-todos-os-episodios",
      "texto_original": "Kanon (2006)",
      "rating": 8.07,
      "classificacao_etaria": "A14",
      "imagem_original": "https://animefire.plus/img/animes/kanon-2006.webp",
      "imagem_pasta": "https://animefire.plus/img/animes/kanon-2006/",
      "secao": "legendados",
      "pagina": 128,
      "total_episodios": 24,
      "link_video": "https://animefire.plus/video/kanon-2006"
    }
  ],
  "pagination": {
    "current_page": 12,
    "per_page": 20,
    "total_items": 547,
    "total_pages": 28,
    "has_next": true,
    "has_prev": true
  }
}
