{
  "message": "Animes com rating entre 8 e 9",
  "rating_range": {
    "min": 8,
    "max": 9
  },
  "data": [
    {
      "id": 3240,
      "nome": "Sakurasou no Pet na Kanojo",
      "link": "https://animefire.plus/animes/sakurasou-no-pet-na-kanojo-todos-os-episodios",
      "texto_original": "Sakurasou no Pet na Kanojo",
      "rating": 8.29,
      "classificacao_etaria": "A14",
      "imagem_original": "https://animefire.plus/img/animes/sakurasou-no-pet-na-kanojo.webp",
      "imagem_pasta": "https://animefire.plus/img/animes/sakurasou-no-pet-na-kanojo/",
      "secao": "legendados",
      "pagina": 145,
      "total_episodios": 1,
      "link_video": "https://animefire.plus/video/sakurasou-no-pet-na-kanojo"
    },
    {
      "id": 3243,
      "nome": "Samurai Champloo (Dublado)",
      "link": "https://animefire.plus/animes/samurai-champloo-dublado-todos-os-episodios",
      "texto_original": "Samurai Champloo (Dublado)",
      "rating": 8.5,
      "classificacao_etaria": "A16",
      "imagem_original": "https://animefire.plus/img/animes/samurai-champloo.webp",
      "imagem_pasta": "https://animefire.plus/img/animes/samurai-champloo/",
      "secao": "dublados,legendados",
      "pagina": 25,
      "total_episodios": 26,
      "link_video": "https://animefire.plus/video/samurai-champloo-dublado"
    },
    {
      "id": 3259,
      "nome": "Sasaki to Miyano (Dublado)",
      "link": "https://animefire.plus/animes/sasaki-to-miyano-dublado-todos-os-episodios",
      "texto_original": "Sasaki to Miyano (Dublado)",
      "rating": 8.19,
      "classificacao_etaria": "A14",
      "imagem_original": "https://animefire.plus/img/animes/sasaki-to-miyano.webp",
      "imagem_pasta": "https://animefire.plus/img/animes/sasaki-to-miyano/",
      "secao": "dublados,legendados",
      "pagina": 9,
      "total_episodios": 13,
      "link_video": "https://animefire.plus/video/sasaki-to-miyano-dublado"
    },
    {
      "id": 3275,
      "nome": "School Rumble",
      "link": "https://animefire.plus/animes/school-rumble-todos-os-episodios",
      "texto_original": "School Rumble",
      "rating": 8,
      "classificacao_etaria": "A14",
      "imagem_original": "https://animefire.plus/img/animes/school-rumble.webp",
      "imagem_pasta": "https://animefire.plus/img/animes/school-rumble/",
      "secao": "legendados",
      "pagina": 127,
      "total_episodios": 26,
      "link_video": "https://animefire.plus/video/school-rumble"
    },
    {
      "id": 3276,
      "nome": "School Rumble Ni Gakki",
      "link": "https://animefire.plus/animes/school-rumble-ni-gakki-todos-os-episodios",
      "texto_original": "School Rumble Ni Gakki",
      "rating": 8.09,
      "classificacao_etaria": "A14",
      "imagem_original": "https://animefire.plus/img/animes/school-rumble-ni-gakki.webp",
      "imagem_pasta": "https://animefire.plus/img/animes/school-rumble-ni-gakki/",
      "secao": "legendados",
      "pagina": 125,
      "total_episodios": 26,
      "link_video": "https://animefire.plus/video/school-rumble-ni-gakki"
    },
    {
      "id": 3302,
      "nome": "Seirei no Moribito",
      "link": "https://animefire.plus/animes/seirei-no-moribito-todos-os-episodios",
      "texto_original": "Seirei no Moribito",
      "rating": 8.19,
      "classificacao_etaria": "A14",
      "imagem_original": "https://animefire.plus/img/animes/seirei-no-moribito.webp",
      "imagem_pasta": "https://animefire.plus/img/animes/seirei-no-moribito/",
      "secao": "legendados",
      "pagina": 157,
      "total_episodios": 26,
      "link_video": "https://animefire.plus/video/seirei-no-moribito"
    },
    {
      "id": 3308,
      "nome": "Seishun Buta Yarou wa Bunny Girl Senpai no Yume wo Minai",
      "link": "https://animefire.plus/animes/seishun-buta-yarou-wa-bunny-girl-senpai-no-yume-wo-minai-todos-os-episodios",
      "texto_original": "Seishun Buta Yarou wa Bunny Girl Senpai no Yume wo Minai",
      "rating": 8.47,
      "classificacao_etaria": "A14",
      "imagem_original": "https://animefire.plus/img/animes/seishun-buta-yarou-wa-bunny-girl-senpai-no-yume-wo-minai.webp",
      "imagem_pasta": "https://animefire.plus/img/animes/seishun-buta-yarou-wa-bunny-girl-senpai-no-yume-wo-minai/",
      "secao": "legendados",
      "pagina": 146,
      "total_episodios": 13,
      "link_video": "https://animefire.plus/video/seishun-buta-yarou-wa-bunny-girl-senpai-no-yume-wo-minai"
    },
    {
      "id": 3309,
      "nome": "Seishun Buta Yarou wa Santa Claus no Yume wo Minai",
      "link": "https://animefire.plus/animes/seishun-buta-yarou-wa-santa-claus-no-yume-wo-minai-todos-os-episodios",
      "texto_original": "Seishun Buta Yarou wa Santa Claus no Yume wo Minai",
      "rating": 8.34,
      "classificacao_etaria": "A14",
      "imagem_original": "https://animefire.plus/img/animes/seishun-buta-yarou-wa-santa-claus-no-yume-wo-minai.webp",
      "imagem_pasta": "https://animefire.plus/img/animes/seishun-buta-yarou-wa-santa-claus-no-yume-wo-minai/",
      "secao": "legendados,lancamentos",
      "pagina": 3,
      "total_episodios": 5,
      "link_video": "https://animefire.plus/video/seishun-buta-yarou-wa-santa-claus-no-yume-wo-minai"
    },
    {
      "id": 3321,
      "nome": "Sekaiichi Hatsukoi",
      "link": "https://animefire.plus/animes/sekaiichi-hatsukoi-todos-os-episodios",
      "texto_original": "Sekaiichi Hatsukoi",
      "rating": 8.01,
      "classificacao_etaria": "A14",
      "imagem_original": "https://animefire.plus/img/animes/sekaiichi-hatsukoi.webp",
      "imagem_pasta": "https://animefire.plus/img/animes/sekaiichi-hatsukoi/",
      "secao": "legendados",
      "pagina": 161,
      "total_episodios": 5,
      "link_video": "https://animefire.plus/video/sekaiichi-hatsukoi"
    },
    {
      "id": 3322,
      "nome": "Sekaiichi Hatsukoi 2",
      "link": "https://animefire.plus/animes/sekaiichi-hatsukoi-2-todos-os-episodios",
      "texto_original": "Sekaiichi Hatsukoi 2",
      "rating": 8.18,
      "classificacao_etaria": "A14",
      "imagem_original": "https://animefire.plus/img/animes/sekaiichi-hatsukoi-2.webp",
      "imagem_pasta": "https://animefire.plus/img/animes/sekaiichi-hatsukoi-2/",
      "secao": "legendados",
      "pagina": 161,
      "total_episodios": 3,
      "link_video": "https://animefire.plus/video/sekaiichi-hatsukoi-2"
    },
    {
      "id": 3346,
      "nome": "Senki Zesshou Symphogear XV",
      "link": "https://animefire.plus/animes/senki-zesshou-symphogear-xv-todos-os-episodios",
      "texto_original": "Senki Zesshou Symphogear XV",
      "rating": 8.21,
      "classificacao_etaria": "A14",
      "imagem_original": "https://animefire.plus/img/animes/senki-zesshou-symphogear-xv.webp",
      "imagem_pasta": "https://animefire.plus/img/animes/senki-zesshou-symphogear-xv/",
      "secao": "legendados",
      "pagina": 152,
      "total_episodios": 4,
      "link_video": "https://animefire.plus/video/senki-zesshou-symphogear-xv"
    },
    {
      "id": 3361,
      "nome": "Serial Experiments Lain (Dublado)",
      "link": "https://animefire.plus/animes/serial-experiments-lain-dublado-todos-os-episodios",
      "texto_original": "Serial Experiments Lain (Dublado)",
      "rating": 8.01,
      "classificacao_etaria": "A16",
      "imagem_original": "https://animefire.plus/img/animes/serial-experiments-lain.webp",
      "imagem_pasta": "https://animefire.plus/img/animes/serial-experiments-lain/",
      "secao": "dublados,legendados",
      "pagina": 25,
      "total_episodios": 13,
      "link_video": "https://animefire.plus/video/serial-experiments-lain-dublado"
    },
    {
      "id": 3372,
      "nome": "Shadows House 2nd Season (Dublado)",
      "link": "https://animefire.plus/animes/shadows-house-2nd-season-dublado-todos-os-episodios",
      "texto_original": "Shadows House 2nd Season (Dublado)",
      "rating": 8.01,
      "classificacao_etaria": "A14",
      "imagem_original": "https://animefire.plus/img/animes/shadows-house-2nd-season.webp",
      "imagem_pasta": "https://animefire.plus/img/animes/shadows-house-2nd-season/",
      "secao": "dublados,legendados",
      "pagina": 10,
      "total_episodios": 12,
      "link_video": "https://animefire.plus/video/shadows-house-2nd-season-dublado"
    },
    {
      "id": 3387,
      "nome": "Shangri-La Frontier: Kusoge Hunter, Kamige ni Idoman to su (Dublado)",
      "link": "https://animefire.plus/animes/shangri-la-frontier-kusoge-hunter-kamige-ni-idoman-to-su-dublado-todos-os-episodios",
      "texto_original": "Shangri-La Frontier: Kusoge Hunter, Kamige ni Idoman to su (Dublado)",
      "rating": 8.1,
      "classificacao_etaria": "A14",
      "imagem_original": "https://animefire.plus/img/animes/shangri-la-frontier-kusoge-hunter-kamige-ni-idoman-to-su.webp",
      "imagem_pasta": "https://animefire.plus/img/animes/shangri-la-frontier-kusoge-hunter-kamige-ni-idoman-to-su/",
      "secao": "dublados,legendados",
      "pagina": 3,
      "total_episodios": 25,
      "link_video": "https://animefire.plus/video/shangri-la-frontier-kusoge-hunter-kamige-ni-idoman-to-su-dublado"
    },
    {
      "id": 3388,
      "nome": "Shangri-La Frontier: Kusoge Hunter, Kamige ni Idoman to su 2nd Season (Dublado)",
      "link": "https://animefire.plus/animes/shangri-la-frontier-kusoge-hunter-kamige-ni-idoman-to-su-2nd-season-dublado-todos-os-episodios",
      "texto_original": "Shangri-La Frontier: Kusoge Hunter, Kamige ni Idoman to su 2nd Season (Dublado)",
      "rating": 8.27,
      "classificacao_etaria": "A14",
      "imagem_original": "https://animefire.plus/img/animes/shangri-la-frontier-kusoge-hunter-kamige-ni-idoman-to-su-2nd-season.webp",
      "imagem_pasta": "https://animefire.plus/img/animes/shangri-la-frontier-kusoge-hunter-kamige-ni-idoman-to-su-2nd-season/",
      "secao": "dublados,legendados,lancamentos",
      "pagina": 2,
      "total_episodios": 25,
      "link_video": "https://animefire.plus/video/shangri-la-frontier-kusoge-hunter-kamige-ni-idoman-to-su-2nd-season-dublado"
    },
    {
      "id": 3390,
      "nome": "Shelter",
      "link": "https://animefire.plus/animes/shelter-todos-os-episodios",
      "texto_original": "Shelter",
      "rating": 8.41,
      "classificacao_etaria": null,
      "imagem_original": "https://animefire.plus/img/animes/shelter.webp",
      "imagem_pasta": "https://animefire.plus/img/animes/shelter/",
      "secao": "legendados",
      "pagina": 119,
      "total_episodios": 1,
      "link_video": "https://animefire.plus/video/shelter"
    },
    {
      "id": 3398,
      "nome": "Shigatsu Wa Kimi No Uso",
      "link": "https://animefire.plus/animes/shigatsu-wa-kimi-no-uso-todos-os-episodios",
      "texto_original": "Shigatsu Wa Kimi No Uso",
      "rating": 8.84,
      "classificacao_etaria": "A14",
      "imagem_original": "https://animefire.plus/img/animes/shigatsu-wa-kimi-no-uso.webp",
      "imagem_pasta": "https://animefire.plus/img/animes/shigatsu-wa-kimi-no-uso/",
      "secao": "legendados",
      "pagina": 97,
      "total_episodios": 0,
      "link_video": "https://animefire.plus/video/shigatsu-wa-kimi-no-uso"
    },
    {
      "id": 3401,
      "nome": "Shiguang Dailiren: Yingdu Pian",
      "link": "https://animefire.plus/animes/shiguang-dailiren-yingdu-pian-todos-os-episodios",
      "texto_original": "Shiguang Dailiren: Yingdu Pian",
      "rating": 8.31,
      "classificacao_etaria": "A14",
      "imagem_original": "https://animefire.plus/img/animes/shiguang-dailiren-yingdu-pian.webp",
      "imagem_pasta": "https://animefire.plus/img/animes/shiguang-dailiren-yingdu-pian/",
      "secao": "legendados",
      "pagina": 7,
      "total_episodios": 6,
      "link_video": "https://animefire.plus/video/shiguang-dailiren-yingdu-pian"
    },
    {
      "id": 3405,
      "nome": "Shijou Saikyou no Deshi Kenichi (Dublado)",
      "link": "https://animefire.plus/animes/shijou-saikyou-no-deshi-kenichi-dublado-todos-os-episodios",
      "texto_original": "Shijou Saikyou no Deshi Kenichi (Dublado)",
      "rating": 8.05,
      "classificacao_etaria": "A14",
      "imagem_original": "https://animefire.plus/img/animes/shijou-saikyou-no-deshi-kenichi.webp",
      "imagem_pasta": "https://animefire.plus/img/animes/shijou-saikyou-no-deshi-kenichi/",
      "secao": "dublados,legendados",
      "pagina": 3,
      "total_episodios": 41,
      "link_video": "https://animefire.plus/video/shijou-saikyou-no-deshi-kenichi-dublado"
    },
    {
      "id": 3440,
      "nome": "Shingeki no Kyojin (Dublado)",
      "link": "https://animefire.plus/animes/shingeki-no-kyojin-dublado-todos-os-episodios",
      "texto_original": "Shingeki no Kyojin (Dublado)",
      "rating": 8.45,
      "classificacao_etaria": "A16",
      "imagem_original": "https://animefire.plus/img/animes/shingeki-no-kyojin.webp",
      "imagem_pasta": "https://animefire.plus/img/animes/shingeki-no-kyojin/",
      "secao": "dublados,legendados",
      "pagina": 19,
      "total_episodios": 25,
      "link_video": "https://animefire.plus/video/shingeki-no-kyojin-dublado"
    }
  ],
  "pagination": {
    "current_page": 22,
    "per_page": 20,
    "total_items": 547,
    "total_pages": 28,
    "has_next": true,
    "has_prev": true
  }
}
