{
  "message": "Animes com rating entre 8 e 9",
  "rating_range": {
    "min": 8,
    "max": 9
  },
  "data": [
    {
      "id": 2151,
      "nome": "Kuroko no Basket 2nd Season",
      "link": "https://animefire.plus/animes/kuroko-no-basket-2nd-season-todos-os-episodios",
      "texto_original": "Kuroko no Basket 2nd Season",
      "rating": 8.44,
      "classificacao_etaria": "A14",
      "imagem_original": "https://animefire.plus/img/animes/kuroko-no-basket-2nd-season.webp",
      "imagem_pasta": "https://animefire.plus/img/animes/kuroko-no-basket-2nd-season/",
      "secao": "legendados",
      "pagina": 132,
      "total_episodios": 0,
      "link_video": "https://animefire.plus/video/kuroko-no-basket-2nd-season"
    },
    {
      "id": 2152,
      "nome": "Kuroko no Basket 3rd Season",
      "link": "https://animefire.plus/animes/kuroko-no-basket-3rd-season-todos-os-episodios",
      "texto_original": "Kuroko no Basket 3rd Season",
      "rating": 8.49,
      "classificacao_etaria": "A14",
      "imagem_original": "https://animefire.plus/img/animes/kuroko-no-basket-3rd-season.webp",
      "imagem_pasta": "https://animefire.plus/img/animes/kuroko-no-basket-3rd-season/",
      "secao": "legendados",
      "pagina": 127,
      "total_episodios": 0,
      "link_video": "https://animefire.plus/video/kuroko-no-basket-3rd-season"
    },
    {
      "id": 2160,
      "nome": "Kuroshitsuji: Book of Circus",
      "link": "https://animefire.plus/animes/kuroshitsuji-book-of-circus-todos-os-episodios",
      "texto_original": "Kuroshitsuji: Book of Circus",
      "rating": 8.29,
      "classificacao_etaria": "A16",
      "imagem_original": "https://animefire.plus/img/animes/kuroshitsuji-book-of-circus.webp",
      "imagem_pasta": "https://animefire.plus/img/animes/kuroshitsuji-book-of-circus/",
      "secao": "legendados",
      "pagina": 113,
      "total_episodios": 10,
      "link_video": "https://animefire.plus/video/kuroshitsuji-book-of-circus"
    },
    {
      "id": 2161,
      "nome": "Kuroshitsuji: Book of Murder",
      "link": "https://animefire.plus/animes/kuroshitsuji-book-of-murder-todos-os-episodios",
      "texto_original": "Kuroshitsuji: Book of Murder",
      "rating": 8.29,
      "classificacao_etaria": "A16",
      "imagem_original": "https://animefire.plus/img/animes/kuroshitsuji-book-of-murder.webp",
      "imagem_pasta": "https://animefire.plus/img/animes/kuroshitsuji-book-of-murder/",
      "secao": "legendados",
      "pagina": 103,
      "total_episodios": 2,
      "link_video": "https://animefire.plus/video/kuroshitsuji-book-of-murder"
    },
    {
      "id": 2163,
      "nome": "Kuroshitsuji: Midori no Majo-hen",
      "link": "https://animefire.plus/animes/kuroshitsuji-midori-no-majo-hen-todos-os-episodios",
      "texto_original": "Kuroshitsuji: Midori no Majo-hen",
      "rating": 8.18,
      "classificacao_etaria": "A16",
      "imagem_original": "https://animefire.plus/img/animes/kuroshitsuji-midori-no-majo-hen.webp",
      "imagem_pasta": "https://animefire.plus/img/animes/kuroshitsuji-midori-no-majo-hen/",
      "secao": "legendados",
      "pagina": 6,
      "total_episodios": 13,
      "link_video": "https://animefire.plus/video/kuroshitsuji-midori-no-majo-hen"
    },
    {
      "id": 2165,
      "nome": "Kusuriya no Hitorigoto (Dublado)",
      "link": "https://animefire.plus/animes/kusuriya-no-hitorigoto-dublado-todos-os-episodios",
      "texto_original": "Kusuriya no Hitorigoto (Dublado)",
      "rating": 8.87,
      "classificacao_etaria": "A14",
      "imagem_original": "https://animefire.plus/img/animes/kusuriya-no-hitorigoto.webp",
      "imagem_pasta": "https://animefire.plus/img/animes/kusuriya-no-hitorigoto/",
      "secao": "dublados,legendados,lancamentos",
      "pagina": 3,
      "total_episodios": 24,
      "link_video": "https://animefire.plus/video/kusuriya-no-hitorigoto-dublado"
    },
    {
      "id": 2166,
      "nome": "Kusuriya no Hitorigoto 2nd Season",
      "link": "https://animefire.plus/animes/kusuriya-no-hitorigoto-2nd-season-todos-os-episodios",
      "texto_original": "Kusuriya no Hitorigoto 2nd Season",
      "rating": 8.92,
      "classificacao_etaria": "A14",
      "imagem_original": "https://animefire.plus/img/animes/kusuriya-no-hitorigoto-2nd-season.webp",
      "imagem_pasta": "https://animefire.plus/img/animes/kusuriya-no-hitorigoto-2nd-season/",
      "secao": "legendados",
      "pagina": 6,
      "total_episodios": 24,
      "link_video": "https://animefire.plus/video/kusuriya-no-hitorigoto-2nd-season"
    },
    {
      "id": 2168,
      "nome": "Kuuchuu Buranko",
      "link": "https://animefire.plus/animes/kuuchuu-buranko-todos-os-episodios",
      "texto_original": "Kuuchuu Buranko",
      "rating": 8.01,
      "classificacao_etaria": "A16",
      "imagem_original": "https://animefire.plus/img/animes/kuuchuu-buranko.webp",
      "imagem_pasta": "https://animefire.plus/img/animes/kuuchuu-buranko/",
      "secao": "legendados",
      "pagina": 129,
      "total_episodios": 11,
      "link_video": "https://animefire.plus/video/kuuchuu-buranko"
    },
    {
      "id": 2231,
      "nome": "Little Busters!: Refrain",
      "link": "https://animefire.plus/animes/little-busters-refrain-todos-os-episodios",
      "texto_original": "Little Busters!: Refrain",
      "rating": 8.3,
      "classificacao_etaria": "A14",
      "imagem_original": "https://animefire.plus/img/animes/little-busters-refrain.webp",
      "imagem_pasta": "https://animefire.plus/img/animes/little-busters-refrain/",
      "secao": "legendados",
      "pagina": 143,
      "total_episodios": 4,
      "link_video": "https://animefire.plus/video/little-busters-refrain"
    },
    {
      "id": 2232,
      "nome": "Little Witch Academia (TV) (Dublado)",
      "link": "https://animefire.plus/animes/little-witch-academia-tv-dublado-todos-os-episodios",
      "texto_original": "Little Witch Academia (TV) (Dublado)",
      "rating": 8.02,
      "classificacao_etaria": null,
      "imagem_original": "https://animefire.plus/img/animes/little-witch-academia-tv.webp",
      "imagem_pasta": "https://animefire.plus/img/animes/little-witch-academia-tv/",
      "secao": "dublados,legendados",
      "pagina": 24,
      "total_episodios": 25,
      "link_video": "https://animefire.plus/video/little-witch-academia-tv-dublado"
    },
    {
      "id": 2234,
      "nome": "Log Horizon",
      "link": "https://animefire.plus/animes/log-horizon-todos-os-episodios",
      "texto_original": "Log Horizon",
      "rating": 8.06,
      "classificacao_etaria": "A14",
      "imagem_original": "https://animefire.plus/img/animes/log-horizon.webp",
      "imagem_pasta": "https://animefire.plus/img/animes/log-horizon/",
      "secao": "legendados",
      "pagina": 121,
      "total_episodios": 4,
      "link_video": "https://animefire.plus/video/log-horizon"
    },
    {
      "id": 2262,
      "nome": "Lovely★Complex",
      "link": "https://animefire.plus/animes/lovely-complex-todos-os-episodios",
      "texto_original": "Lovely★Complex",
      "rating": 8.15,
      "classificacao_etaria": "A14",
      "imagem_original": "https://animefire.plus/img/animes/lovely-complex.webp",
      "imagem_pasta": "https://animefire.plus/img/animes/lovely-complex/",
      "secao": "legendados",
      "pagina": 154,
      "total_episodios": 24,
      "link_video": "https://animefire.plus/video/lovely-complex"
    },
    {
      "id": 2274,
      "nome": "Lupin III: Part 5 (Dublado)",
      "link": "https://animefire.plus/animes/lupin-iii-part-5-dublado-todos-os-episodios",
      "texto_original": "Lupin III: Part 5 (Dublado)",
      "rating": 8.13,
      "classificacao_etaria": "A14",
      "imagem_original": "https://animefire.plus/img/animes/lupin-iii-part-5.webp",
      "imagem_pasta": "https://animefire.plus/img/animes/lupin-iii-part-5/",
      "secao": "dublados,legendados",
      "pagina": 4,
      "total_episodios": 24,
      "link_video": "https://animefire.plus/video/lupin-iii-part-5-dublado"
    },
    {
      "id": 2284,
      "nome": "Lycoris Recoil (Dublado)",
      "link": "https://animefire.plus/animes/lycoris-recoil-dublado-todos-os-episodios",
      "texto_original": "Lycoris Recoil (Dublado)",
      "rating": 8.15,
      "classificacao_etaria": "A14",
      "imagem_original": "https://animefire.plus/img/animes/lycoris-recoil.webp",
      "imagem_pasta": "https://animefire.plus/img/animes/lycoris-recoil/",
      "secao": "dublados,legendados",
      "pagina": 10,
      "total_episodios": 13,
      "link_video": "https://animefire.plus/video/lycoris-recoil-dublado"
    },
    {
      "id": 2297,
      "nome": "Made in Abyss",
      "link": "https://animefire.plus/animes/made-in-abyss-todos-os-episodios",
      "texto_original": "Made in Abyss",
      "rating": 8.85,
      "classificacao_etaria": "A16",
      "imagem_original": "https://animefire.plus/img/animes/made-in-abyss.webp",
      "imagem_pasta": "https://animefire.plus/img/animes/made-in-abyss/",
      "secao": "legendados",
      "pagina": 168,
      "total_episodios": 14,
      "link_video": "https://animefire.plus/video/made-in-abyss"
    },
    {
      "id": 2298,
      "nome": "Made in Abyss: Retsujitsu no Ougonkyou",
      "link": "https://animefire.plus/animes/made-in-abyss-retsujitsu-no-ougonkyou-todos-os-episodios",
      "texto_original": "Made in Abyss: Retsujitsu no Ougonkyou",
      "rating": 8.61,
      "classificacao_etaria": "A16",
      "imagem_original": "https://animefire.plus/img/animes/made-in-abyss-retsujitsu-no-ougonkyou.webp",
      "imagem_pasta": "https://animefire.plus/img/animes/made-in-abyss-retsujitsu-no-ougonkyou/",
      "secao": "legendados",
      "pagina": 31,
      "total_episodios": 12,
      "link_video": "https://animefire.plus/video/made-in-abyss-retsujitsu-no-ougonkyou"
    },
    {
      "id": 2306,
      "nome": "Magi: The Kingdom of Magic",
      "link": "https://animefire.plus/animes/magi-the-kingdom-of-magic-todos-os-episodios",
      "texto_original": "Magi: The Kingdom of Magic",
      "rating": 8.4,
      "classificacao_etaria": "A14",
      "imagem_original": "https://animefire.plus/img/animes/magi-the-kingdom-of-magic.webp",
      "imagem_pasta": "https://animefire.plus/img/animes/magi-the-kingdom-of-magic/",
      "secao": "legendados",
      "pagina": 134,
      "total_episodios": 4,
      "link_video": "https://animefire.plus/video/magi-the-kingdom-of-magic"
    },
    {
      "id": 2307,
      "nome": "Magi: The Labyrinth of Magic",
      "link": "https://animefire.plus/animes/magi-the-labyrinth-of-magic-todos-os-episodios",
      "texto_original": "Magi: The Labyrinth of Magic",
      "rating": 8.18,
      "classificacao_etaria": "A14",
      "imagem_original": "https://animefire.plus/img/animes/magi-the-labyrinth-of-magic.webp",
      "imagem_pasta": "https://animefire.plus/img/animes/magi-the-labyrinth-of-magic/",
      "secao": "legendados",
      "pagina": 142,
      "total_episodios": 0,
      "link_video": "https://animefire.plus/video/magi-the-labyrinth-of-magic"
    },
    {
      "id": 2331,
      "nome": "Mahou Shoujo Lyrical Nanoha A's",
      "link": "https://animefire.plus/animes/mahou-shoujo-lyrical-nanoha-a-s-todos-os-episodios",
      "texto_original": "Mahou Shoujo Lyrical Nanoha A's",
      "rating": 8.04,
      "classificacao_etaria": "A14",
      "imagem_original": "https://animefire.plus/img/animes/mahou-shoujo-lyrical-nanoha-a-s.webp",
      "imagem_pasta": "https://animefire.plus/img/animes/mahou-shoujo-lyrical-nanoha-a-s/",
      "secao": "legendados",
      "pagina": 147,
      "total_episodios": 13,
      "link_video": "https://animefire.plus/video/mahou-shoujo-lyrical-nanoha-a-s"
    },
    {
      "id": 2334,
      "nome": "Mahou Shoujo Madoka★Magica",
      "link": "https://animefire.plus/animes/mahou-shoujo-madoka-magica-todos-os-episodios",
      "texto_original": "Mahou Shoujo Madoka★Magica",
      "rating": 8.43,
      "classificacao_etaria": "A14",
      "imagem_original": "https://animefire.plus/img/animes/mahou-shoujo-madoka-magica.webp",
      "imagem_pasta": "https://animefire.plus/img/animes/mahou-shoujo-madoka-magica/",
      "secao": "legendados",
      "pagina": 172,
      "total_episodios": 12,
      "link_video": "https://animefire.plus/video/mahou-shoujo-madoka-magica"
    }
  ],
  "pagination": {
    "current_page": 15,
    "per_page": 20,
    "total_items": 547,
    "total_pages": 28,
    "has_next": true,
    "has_prev": true
  }
}
