{
  "message": "Animes com rating entre 8 e 9",
  "rating_range": {
    "min": 8,
    "max": 9
  },
  "data": [
    {
      "id": 880,
      "nome": "Dragon Ball Z (Dublado)",
      "link": "https://animefire.plus/animes/dragon-ball-z-dublado-todos-os-episodios",
      "texto_original": "Dragon Ball Z (Dublado)",
      "rating": 8.15,
      "classificacao_etaria": "A14",
      "imagem_original": "https://animefire.plus/img/animes/dragon-ball-z.webp",
      "imagem_pasta": "https://animefire.plus/img/animes/dragon-ball-z/",
      "secao": "dublados",
      "pagina": 17,
      "total_episodios": 291,
      "link_video": "https://animefire.plus/video/dragon-ball-z-dublado"
    },
    {
      "id": 892,
      "nome": "Drifters",
      "link": "https://animefire.plus/animes/drifters-todos-os-episodios",
      "texto_original": "Drifters",
      "rating": 8.02,
      "classificacao_etaria": "A16",
      "imagem_original": "https://animefire.plus/img/animes/drifters.webp",
      "imagem_pasta": "https://animefire.plus/img/animes/drifters/",
      "secao": "legendados",
      "pagina": 136,
      "total_episodios": 3,
      "link_video": "https://animefire.plus/video/drifters"
    },
    {
      "id": 898,
      "nome": "Dungeon Meshi (Dublado)",
      "link": "https://animefire.plus/animes/dungeon-meshi-dublado-todos-os-episodios",
      "texto_original": "Dungeon Meshi (Dublado)",
      "rating": 8.6,
      "classificacao_etaria": "A14",
      "imagem_original": "https://animefire.plus/img/animes/dungeon-meshi.webp",
      "imagem_pasta": "https://animefire.plus/img/animes/dungeon-meshi/",
      "secao": "dublados,legendados,lancamentos",
      "pagina": 3,
      "total_episodios": 24,
      "link_video": "https://animefire.plus/video/dungeon-meshi-dublado"
    },
    {
      "id": 905,
      "nome": "Dungeon ni Deai wo Motomeru no wa Machigatteiru Darou ka IV: Fuka Shou - Yakusai-hen",
      "link": "https://animefire.plus/animes/dungeon-ni-deai-wo-motomeru-no-wa-machigatteiru-darou-ka-iv-fuka-shou---yakusai-hen-todos-os-episodios",
      "texto_original": "Dungeon ni Deai wo Motomeru no wa Machigatteiru Darou ka IV: Fuka Shou - Yakusai-hen",
      "rating": 8.25,
      "classificacao_etaria": "A16",
      "imagem_original": "https://animefire.plus/img/animes/dungeon-ni-deai-wo-motomeru-no-wa-machigatteiru-darou-ka-iv-fuka-shou---yakusai-hen.webp",
      "imagem_pasta": "https://animefire.plus/img/animes/dungeon-ni-deai-wo-motomeru-no-wa-machigatteiru-darou-ka-iv-fuka-shou---yakusai-hen/",
      "secao": "legendados",
      "pagina": 26,
      "total_episodios": 11,
      "link_video": "https://animefire.plus/video/dungeon-ni-deai-wo-motomeru-no-wa-machigatteiru-darou-ka-iv-fuka-shou---yakusai-hen"
    },
    {
      "id": 909,
      "nome": "Durarara!!",
      "link": "https://animefire.plus/animes/durarara-todos-os-episodios",
      "texto_original": "Durarara!!",
      "rating": 8.22,
      "classificacao_etaria": "A16",
      "imagem_original": "https://animefire.plus/img/animes/durarara.webp",
      "imagem_pasta": "https://animefire.plus/img/animes/durarara/",
      "secao": "legendados",
      "pagina": 61,
      "total_episodios": 26,
      "link_video": "https://animefire.plus/video/durarara"
    },
    {
      "id": 910,
      "nome": "Durarara!!x2 Ketsu",
      "link": "https://animefire.plus/animes/durarara-x2-ketsu-todos-os-episodios",
      "texto_original": "Durarara!!x2 Ketsu",
      "rating": 8.16,
      "classificacao_etaria": "A16",
      "imagem_original": "https://animefire.plus/img/animes/durarara-x2-ketsu.webp",
      "imagem_pasta": "https://animefire.plus/img/animes/durarara-x2-ketsu/",
      "secao": "legendados",
      "pagina": 128,
      "total_episodios": 12,
      "link_video": "https://animefire.plus/video/durarara-x2-ketsu"
    },
    {
      "id": 911,
      "nome": "Durarara!!x2 Shou",
      "link": "https://animefire.plus/animes/durarara-x2-shou-todos-os-episodios",
      "texto_original": "Durarara!!x2 Shou",
      "rating": 8.06,
      "classificacao_etaria": "A16",
      "imagem_original": "https://animefire.plus/img/animes/durarara-x2-shou.webp",
      "imagem_pasta": "https://animefire.plus/img/animes/durarara-x2-shou/",
      "secao": "legendados",
      "pagina": 61,
      "total_episodios": 12,
      "link_video": "https://animefire.plus/video/durarara-x2-shou"
    },
    {
      "id": 912,
      "nome": "Durarara!!x2 Ten",
      "link": "https://animefire.plus/animes/durarara-x2-ten-todos-os-episodios",
      "texto_original": "Durarara!!x2 Ten",
      "rating": 8.07,
      "classificacao_etaria": "A16",
      "imagem_original": "https://animefire.plus/img/animes/durarara-x2-ten.webp",
      "imagem_pasta": "https://animefire.plus/img/animes/durarara-x2-ten/",
      "secao": "legendados",
      "pagina": 103,
      "total_episodios": 12,
      "link_video": "https://animefire.plus/video/durarara-x2-ten"
    },
    {
      "id": 922,
      "nome": "ef: A Tale of Melodies.",
      "link": "https://animefire.plus/animes/ef-a-tale-of-melodies-todos-os-episodios",
      "texto_original": "ef: A Tale of Melodies.",
      "rating": 8.09,
      "classificacao_etaria": "A14",
      "imagem_original": "https://animefire.plus/img/animes/ef-a-tale-of-melodies.webp",
      "imagem_pasta": "https://animefire.plus/img/animes/ef-a-tale-of-melodies/",
      "secao": "legendados",
      "pagina": 168,
      "total_episodios": 12,
      "link_video": "https://animefire.plus/video/ef-a-tale-of-melodies"
    },
    {
      "id": 923,
      "nome": "ef: A Tale of Memories.",
      "link": "https://animefire.plus/animes/ef-a-tale-of-memories-todos-os-episodios",
      "texto_original": "ef: A Tale of Memories.",
      "rating": 8.02,
      "classificacao_etaria": "A14",
      "imagem_original": "https://animefire.plus/img/animes/ef-a-tale-of-memories.webp",
      "imagem_pasta": "https://animefire.plus/img/animes/ef-a-tale-of-memories/",
      "secao": "legendados",
      "pagina": 173,
      "total_episodios": 12,
      "link_video": "https://animefire.plus/video/ef-a-tale-of-memories"
    },
    {
      "id": 930,
      "nome": "Eizouken ni wa Te wo Dasu na! (Dublado)",
      "link": "https://animefire.plus/animes/eizouken-ni-wa-te-wo-dasu-na-dublado-todos-os-episodios",
      "texto_original": "Eizouken ni wa Te wo Dasu na! (Dublado)",
      "rating": 8.14,
      "classificacao_etaria": "A14",
      "imagem_original": "https://animefire.plus/img/animes/eizouken-ni-wa-te-wo-dasu-na.webp",
      "imagem_pasta": "https://animefire.plus/img/animes/eizouken-ni-wa-te-wo-dasu-na/",
      "secao": "dublados,legendados",
      "pagina": 12,
      "total_episodios": 12,
      "link_video": "https://animefire.plus/video/eizouken-ni-wa-te-wo-dasu-na-dublado"
    },
    {
      "id": 960,
      "nome": "Eve no Jikan",
      "link": "https://animefire.plus/animes/eve-no-jikan-todos-os-episodios",
      "texto_original": "Eve no Jikan",
      "rating": 8.1,
      "classificacao_etaria": "A14",
      "imagem_original": "https://animefire.plus/img/animes/eve-no-jikan.webp",
      "imagem_pasta": "https://animefire.plus/img/animes/eve-no-jikan/",
      "secao": "legendados",
      "pagina": 53,
      "total_episodios": 6,
      "link_video": "https://animefire.plus/video/eve-no-jikan"
    },
    {
      "id": 974,
      "nome": "Fairy Tail: Final Series",
      "link": "https://animefire.plus/animes/fairy-tail-final-series-todos-os-episodios",
      "texto_original": "Fairy Tail: Final Series",
      "rating": 8.07,
      "classificacao_etaria": "A14",
      "imagem_original": "https://animefire.plus/img/animes/fairy-tail-final-series.webp",
      "imagem_pasta": "https://animefire.plus/img/animes/fairy-tail-final-series/",
      "secao": "legendados",
      "pagina": 113,
      "total_episodios": 33,
      "link_video": "https://animefire.plus/video/fairy-tail-final-series"
    },
    {
      "id": 986,
      "nome": "Fate/Grand Carnival",
      "link": "https://animefire.plus/animes/fate-grand-carnival-todos-os-episodios",
      "texto_original": "Fate/Grand Carnival",
      "rating": 8.18,
      "classificacao_etaria": "A14",
      "imagem_original": "https://animefire.plus/img/animes/fate-grand-carnival.webp",
      "imagem_pasta": "https://animefire.plus/img/animes/fate-grand-carnival/",
      "secao": "legendados,lancamentos",
      "pagina": 48,
      "total_episodios": 2,
      "link_video": "https://animefire.plus/video/fate-grand-carnival"
    },
    {
      "id": 998,
      "nome": "Fate/stay night: Unlimited Blade Works",
      "link": "https://animefire.plus/animes/fate-stay-night-unlimited-blade-works-todos-os-episodios",
      "texto_original": "Fate/stay night: Unlimited Blade Works",
      "rating": 8.28,
      "classificacao_etaria": "A16",
      "imagem_original": "https://animefire.plus/img/animes/fate-stay-night-unlimited-blade-works.webp",
      "imagem_pasta": "https://animefire.plus/img/animes/fate-stay-night-unlimited-blade-works/",
      "secao": "legendados",
      "pagina": 90,
      "total_episodios": 12,
      "link_video": "https://animefire.plus/video/fate-stay-night-unlimited-blade-works"
    },
    {
      "id": 999,
      "nome": "Fate/stay night: Unlimited Blade Works 2nd Season",
      "link": "https://animefire.plus/animes/fate-stay-night-unlimited-blade-works-2nd-season-todos-os-episodios",
      "texto_original": "Fate/stay night: Unlimited Blade Works 2nd Season",
      "rating": 8.35,
      "classificacao_etaria": "A16",
      "imagem_original": "https://animefire.plus/img/animes/fate-stay-night-unlimited-blade-works-2nd-season.webp",
      "imagem_pasta": "https://animefire.plus/img/animes/fate-stay-night-unlimited-blade-works-2nd-season/",
      "secao": "legendados",
      "pagina": 73,
      "total_episodios": 14,
      "link_video": "https://animefire.plus/video/fate-stay-night-unlimited-blade-works-2nd-season"
    },
    {
      "id": 1001,
      "nome": "Fate/strange Fake: Whispers of Dawn",
      "link": "https://animefire.plus/animes/fate-strange-fake-whispers-of-dawn-todos-os-episodios",
      "texto_original": "Fate/strange Fake: Whispers of Dawn",
      "rating": 8.18,
      "classificacao_etaria": "A16",
      "imagem_original": "https://animefire.plus/img/animes/fate-strange-fake-whispers-of-dawn.webp",
      "imagem_pasta": "https://animefire.plus/img/animes/fate-strange-fake-whispers-of-dawn/",
      "secao": "legendados",
      "pagina": 21,
      "total_episodios": 1,
      "link_video": "https://animefire.plus/video/fate-strange-fake-whispers-of-dawn"
    },
    {
      "id": 1002,
      "nome": "Fate/Zero",
      "link": "https://animefire.plus/animes/fate-zero-todos-os-episodios",
      "texto_original": "Fate/Zero",
      "rating": 8.4,
      "classificacao_etaria": "A16",
      "imagem_original": "https://animefire.plus/img/animes/fate-zero.webp",
      "imagem_pasta": "https://animefire.plus/img/animes/fate-zero/",
      "secao": "legendados",
      "pagina": 89,
      "total_episodios": 13,
      "link_video": "https://animefire.plus/video/fate-zero"
    },
    {
      "id": 1003,
      "nome": "Fate/Zero 2nd Season",
      "link": "https://animefire.plus/animes/fate-zero-2nd-season-todos-os-episodios",
      "texto_original": "Fate/Zero 2nd Season",
      "rating": 8.55,
      "classificacao_etaria": "A16",
      "imagem_original": "https://animefire.plus/img/animes/fate-zero-2nd-season.webp",
      "imagem_pasta": "https://animefire.plus/img/animes/fate-zero-2nd-season/",
      "secao": "legendados",
      "pagina": 16,
      "total_episodios": 12,
      "link_video": "https://animefire.plus/video/fate-zero-2nd-season"
    },
    {
      "id": 1014,
      "nome": "FLCL",
      "link": "https://animefire.plus/animes/flcl-todos-os-episodios",
      "texto_original": "FLCL",
      "rating": 8.06,
      "classificacao_etaria": "A14",
      "imagem_original": "https://animefire.plus/img/animes/flcl.webp",
      "imagem_pasta": "https://animefire.plus/img/animes/flcl/",
      "secao": "legendados",
      "pagina": 108,
      "total_episodios": 6,
      "link_video": "https://animefire.plus/video/flcl"
    }
  ],
  "pagination": {
    "current_page": 6,
    "per_page": 20,
    "total_items": 547,
    "total_pages": 28,
    "has_next": true,
    "has_prev": true
  }
}
