{
  "message": "Animes com rating entre 8 e 9",
  "rating_range": {
    "min": 8,
    "max": 9
  },
  "data": [
    {
      "id": 1592,
      "nome": "IDOLiSH7: Third Beat! Part 2",
      "link": "https://animefire.plus/animes/idolish7-third-beat-part-2-todos-os-episodios",
      "texto_original": "IDOLiSH7: Third Beat! Part 2",
      "rating": 8.34,
      "classificacao_etaria": "A14",
      "imagem_original": "https://animefire.plus/img/animes/idolish7-third-beat-part-2.webp",
      "imagem_pasta": "https://animefire.plus/img/animes/idolish7-third-beat-part-2/",
      "secao": "legendados,lancamentos",
      "pagina": 28,
      "total_episodios": 6,
      "link_video": "https://animefire.plus/video/idolish7-third-beat-part-2"
    },
    {
      "id": 1627,
      "nome": "Initial D Fifth Stage",
      "link": "https://animefire.plus/animes/initial-d-fifth-stage-todos-os-episodios",
      "texto_original": "Initial D Fifth Stage",
      "rating": 8.14,
      "classificacao_etaria": "A14",
      "imagem_original": "https://animefire.plus/img/animes/initial-d-fifth-stage.webp",
      "imagem_pasta": "https://animefire.plus/img/animes/initial-d-fifth-stage/",
      "secao": "legendados",
      "pagina": 151,
      "total_episodios": 0,
      "link_video": "https://animefire.plus/video/initial-d-fifth-stage"
    },
    {
      "id": 1628,
      "nome": "Initial D Final Stage",
      "link": "https://animefire.plus/animes/initial-d-final-stage-todos-os-episodios",
      "texto_original": "Initial D Final Stage",
      "rating": 8.28,
      "classificacao_etaria": "A14",
      "imagem_original": "https://animefire.plus/img/animes/initial-d-final-stage.webp",
      "imagem_pasta": "https://animefire.plus/img/animes/initial-d-final-stage/",
      "secao": "legendados",
      "pagina": 102,
      "total_episodios": 4,
      "link_video": "https://animefire.plus/video/initial-d-final-stage"
    },
    {
      "id": 1629,
      "nome": "Initial D First Stage",
      "link": "https://animefire.plus/animes/initial-d-first-stage-todos-os-episodios",
      "texto_original": "Initial D First Stage",
      "rating": 8.31,
      "classificacao_etaria": "A14",
      "imagem_original": "https://animefire.plus/img/animes/initial-d-first-stage.webp",
      "imagem_pasta": "https://animefire.plus/img/animes/initial-d-first-stage/",
      "secao": "legendados",
      "pagina": 147,
      "total_episodios": 26,
      "link_video": "https://animefire.plus/video/initial-d-first-stage"
    },
    {
      "id": 1630,
      "nome": "Initial D Fourth Stage",
      "link": "https://animefire.plus/animes/initial-d-fourth-stage-todos-os-episodios",
      "texto_original": "Initial D Fourth Stage",
      "rating": 8.2,
      "classificacao_etaria": "A14",
      "imagem_original": "https://animefire.plus/img/animes/initial-d-fourth-stage.webp",
      "imagem_pasta": "https://animefire.plus/img/animes/initial-d-fourth-stage/",
      "secao": "legendados",
      "pagina": 133,
      "total_episodios": 24,
      "link_video": "https://animefire.plus/video/initial-d-fourth-stage"
    },
    {
      "id": 1631,
      "nome": "Initial D Second Stage",
      "link": "https://animefire.plus/animes/initial-d-second-stage-todos-os-episodios",
      "texto_original": "Initial D Second Stage",
      "rating": 8.17,
      "classificacao_etaria": "A14",
      "imagem_original": "https://animefire.plus/img/animes/initial-d-second-stage.webp",
      "imagem_pasta": "https://animefire.plus/img/animes/initial-d-second-stage/",
      "secao": "legendados",
      "pagina": 159,
      "total_episodios": 13,
      "link_video": "https://animefire.plus/video/initial-d-second-stage"
    },
    {
      "id": 1634,
      "nome": "Interstella5555: The 5tory of The 5ecret 5tar 5ystem",
      "link": "https://animefire.plus/animes/interstella5555-the-5tory-of-the-5ecret-5tar-5ystem-todos-os-episodios",
      "texto_original": "Interstella5555: The 5tory of The 5ecret 5tar 5ystem",
      "rating": 8.16,
      "classificacao_etaria": null,
      "imagem_original": "https://animefire.plus/img/animes/interstella5555-the-5tory-of-the-5ecret-5tar-5ystem.webp",
      "imagem_pasta": "https://animefire.plus/img/animes/interstella5555-the-5tory-of-the-5ecret-5tar-5ystem/",
      "secao": "legendados",
      "pagina": 171,
      "total_episodios": 14,
      "link_video": "https://animefire.plus/video/interstella5555-the-5tory-of-the-5ecret-5tar-5ystem"
    },
    {
      "id": 1643,
      "nome": "InuYasha: Kanketsu-hen",
      "link": "https://animefire.plus/animes/inuyasha-kanketsu-hen-todos-os-episodios",
      "texto_original": "InuYasha: Kanketsu-hen",
      "rating": 8.3,
      "classificacao_etaria": "A14",
      "imagem_original": "https://animefire.plus/img/animes/inuyasha-kanketsu-hen.webp",
      "imagem_pasta": "https://animefire.plus/img/animes/inuyasha-kanketsu-hen/",
      "secao": "legendados",
      "pagina": 116,
      "total_episodios": 26,
      "link_video": "https://animefire.plus/video/inuyasha-kanketsu-hen"
    },
    {
      "id": 1724,
      "nome": "Jigoku Shoujo Futakomori",
      "link": "https://animefire.plus/animes/jigoku-shoujo-futakomori-todos-os-episodios",
      "texto_original": "Jigoku Shoujo Futakomori",
      "rating": 8.01,
      "classificacao_etaria": "A16",
      "imagem_original": "https://animefire.plus/img/animes/jigoku-shoujo-futakomori.webp",
      "imagem_pasta": "https://animefire.plus/img/animes/jigoku-shoujo-futakomori/",
      "secao": "legendados",
      "pagina": 177,
      "total_episodios": 0,
      "link_video": "https://animefire.plus/video/jigoku-shoujo-futakomori"
    },
    {
      "id": 1727,
      "nome": "Jigokuraku (Dublado)",
      "link": "https://animefire.plus/animes/jigokuraku-dublado-todos-os-episodios",
      "texto_original": "Jigokuraku (Dublado)",
      "rating": 8.09,
      "classificacao_etaria": "A16",
      "imagem_original": "https://animefire.plus/img/animes/jigokuraku.webp",
      "imagem_pasta": "https://animefire.plus/img/animes/jigokuraku/",
      "secao": "dublados,legendados",
      "pagina": 7,
      "total_episodios": 13,
      "link_video": "https://animefire.plus/video/jigokuraku-dublado"
    },
    {
      "id": 1740,
      "nome": "JoJo no Kimyou na Bouken Part 3: Stardust Crusaders (Dublado)",
      "link": "https://animefire.plus/animes/jojo-no-kimyou-na-bouken-part-3-stardust-crusaders-dublado-todos-os-episodios",
      "texto_original": "JoJo no Kimyou na Bouken Part 3: Stardust Crusaders (Dublado)",
      "rating": 8.09,
      "classificacao_etaria": "A16",
      "imagem_original": "https://animefire.plus/img/animes/jojo-no-kimyou-na-bouken-part-3-stardust-crusaders.webp",
      "imagem_pasta": "https://animefire.plus/img/animes/jojo-no-kimyou-na-bouken-part-3-stardust-crusaders/",
      "secao": "dublados,legendados",
      "pagina": 15,
      "total_episodios": 24,
      "link_video": "https://animefire.plus/video/jojo-no-kimyou-na-bouken-part-3-stardust-crusaders-dublado"
    },
    {
      "id": 1741,
      "nome": "JoJo no Kimyou na Bouken Part 3: Stardust Crusaders 2nd Season (Dublado)",
      "link": "https://animefire.plus/animes/jojo-no-kimyou-na-bouken-part-3-stardust-crusaders-2nd-season-dublado-todos-os-episodios",
      "texto_original": "JoJo no Kimyou na Bouken Part 3: Stardust Crusaders 2nd Season (Dublado)",
      "rating": 8.43,
      "classificacao_etaria": "A16",
      "imagem_original": "https://animefire.plus/img/animes/jojo-no-kimyou-na-bouken-part-3-stardust-crusaders-2nd-season.webp",
      "imagem_pasta": "https://animefire.plus/img/animes/jojo-no-kimyou-na-bouken-part-3-stardust-crusaders-2nd-season/",
      "secao": "dublados,legendados",
      "pagina": 15,
      "total_episodios": 24,
      "link_video": "https://animefire.plus/video/jojo-no-kimyou-na-bouken-part-3-stardust-crusaders-2nd-season-dublado"
    },
    {
      "id": 1742,
      "nome": "JoJo no Kimyou na Bouken Part 4: Diamond wa Kudakenai",
      "link": "https://animefire.plus/animes/jojo-no-kimyou-na-bouken-part-4-diamond-wa-kudakenai-todos-os-episodios",
      "texto_original": "JoJo no Kimyou na Bouken Part 4: Diamond wa Kudakenai",
      "rating": 8.59,
      "classificacao_etaria": "A16",
      "imagem_original": "https://animefire.plus/img/animes/jojo-no-kimyou-na-bouken-part-4-diamond-wa-kudakenai.webp",
      "imagem_pasta": "https://animefire.plus/img/animes/jojo-no-kimyou-na-bouken-part-4-diamond-wa-kudakenai/",
      "secao": "legendados",
      "pagina": 90,
      "total_episodios": 39,
      "link_video": "https://animefire.plus/video/jojo-no-kimyou-na-bouken-part-4-diamond-wa-kudakenai"
    },
    {
      "id": 1743,
      "nome": "JoJo no Kimyou na Bouken Part 5: Ougon no Kaze (Dublado)",
      "link": "https://animefire.plus/animes/jojo-no-kimyou-na-bouken-part-5-ougon-no-kaze-dublado-todos-os-episodios",
      "texto_original": "JoJo no Kimyou na Bouken Part 5: Ougon no Kaze (Dublado)",
      "rating": 8.58,
      "classificacao_etaria": "A16",
      "imagem_original": "https://animefire.plus/img/animes/jojo-no-kimyou-na-bouken-part-5-ougon-no-kaze.webp",
      "imagem_pasta": "https://animefire.plus/img/animes/jojo-no-kimyou-na-bouken-part-5-ougon-no-kaze/",
      "secao": "dublados,legendados",
      "pagina": 5,
      "total_episodios": 41,
      "link_video": "https://animefire.plus/video/jojo-no-kimyou-na-bouken-part-5-ougon-no-kaze-dublado"
    },
    {
      "id": 1744,
      "nome": "JoJo no Kimyou na Bouken Part 6: Stone Ocean (Dublado)",
      "link": "https://animefire.plus/animes/jojo-no-kimyou-na-bouken-part-6-stone-ocean-dublado-todos-os-episodios",
      "texto_original": "JoJo no Kimyou na Bouken Part 6: Stone Ocean (Dublado)",
      "rating": 8.08,
      "classificacao_etaria": "A16",
      "imagem_original": "https://animefire.plus/img/animes/jojo-no-kimyou-na-bouken-part-6-stone-ocean.webp",
      "imagem_pasta": "https://animefire.plus/img/animes/jojo-no-kimyou-na-bouken-part-6-stone-ocean/",
      "secao": "dublados,legendados,lancamentos",
      "pagina": 13,
      "total_episodios": 38,
      "link_video": "https://animefire.plus/video/jojo-no-kimyou-na-bouken-part-6-stone-ocean-dublado"
    },
    {
      "id": 1748,
      "nome": "Jormungand: Perfect Order",
      "link": "https://animefire.plus/animes/jormungand-perfect-order-todos-os-episodios",
      "texto_original": "Jormungand: Perfect Order",
      "rating": 8,
      "classificacao_etaria": "A18",
      "imagem_original": "https://animefire.plus/img/animes/jormungand-perfect-order.webp",
      "imagem_pasta": "https://animefire.plus/img/animes/jormungand-perfect-order/",
      "secao": "legendados",
      "pagina": 147,
      "total_episodios": 0,
      "link_video": "https://animefire.plus/video/jormungand-perfect-order"
    },
    {
      "id": 1754,
      "nome": "Jujutsu Kaisen (Dublado)",
      "link": "https://animefire.plus/animes/jujutsu-kaisen-dublado-todos-os-episodios",
      "texto_original": "Jujutsu Kaisen (Dublado)",
      "rating": 8.66,
      "classificacao_etaria": "A16",
      "imagem_original": "https://animefire.plus/img/animes/jujutsu-kaisen.webp",
      "imagem_pasta": "https://animefire.plus/img/animes/jujutsu-kaisen/",
      "secao": "dublados",
      "pagina": 8,
      "total_episodios": 24,
      "link_video": "https://animefire.plus/video/jujutsu-kaisen-dublado"
    },
    {
      "id": 1755,
      "nome": "Jujutsu Kaisen (TV) (Dublado)",
      "link": "https://animefire.plus/animes/jujutsu-kaisen-tv-dublado-todos-os-episodios",
      "texto_original": "Jujutsu Kaisen (TV) (Dublado)",
      "rating": 8.39,
      "classificacao_etaria": "A16",
      "imagem_original": "https://animefire.plus/img/animes/jujutsu-kaisen-tv.webp",
      "imagem_pasta": "https://animefire.plus/img/animes/jujutsu-kaisen-tv/",
      "secao": "dublados,legendados",
      "pagina": 19,
      "total_episodios": 11,
      "link_video": "https://animefire.plus/video/jujutsu-kaisen-tv-dublado"
    },
    {
      "id": 1756,
      "nome": "Jujutsu Kaisen 2nd Season (Dublado)",
      "link": "https://animefire.plus/animes/jujutsu-kaisen-2nd-season-dublado-todos-os-episodios",
      "texto_original": "Jujutsu Kaisen 2nd Season (Dublado)",
      "rating": 8.74,
      "classificacao_etaria": "A16",
      "imagem_original": "https://animefire.plus/img/animes/jujutsu-kaisen-2nd-season.webp",
      "imagem_pasta": "https://animefire.plus/img/animes/jujutsu-kaisen-2nd-season/",
      "secao": "dublados,legendados",
      "pagina": 6,
      "total_episodios": 23,
      "link_video": "https://animefire.plus/video/jujutsu-kaisen-2nd-season-dublado"
    },
    {
      "id": 1759,
      "nome": "Junjou Romantica 2",
      "link": "https://animefire.plus/animes/junjou-romantica-2-todos-os-episodios",
      "texto_original": "Junjou Romantica 2",
      "rating": 8.09,
      "classificacao_etaria": "A14",
      "imagem_original": "https://animefire.plus/img/animes/junjou-romantica-2.webp",
      "imagem_pasta": "https://animefire.plus/img/animes/junjou-romantica-2/",
      "secao": "legendados",
      "pagina": 125,
      "total_episodios": 12,
      "link_video": "https://animefire.plus/video/junjou-romantica-2"
    }
  ],
  "pagination": {
    "current_page": 11,
    "per_page": 20,
    "total_items": 547,
    "total_pages": 28,
    "has_next": true,
    "has_prev": true
  }
}
