{
  "message": "Animes com rating entre 8 e 9",
  "rating_range": {
    "min": 8,
    "max": 9
  },
  "data": [
    {
      "id": 2658,
      "nome": "Nanatsu no Taizai (Dublado)",
      "link": "https://animefire.plus/animes/nanatsu-no-taizai-dublado-todos-os-episodios",
      "texto_original": "Nanatsu no Taizai (Dublado)",
      "rating": 8.18,
      "classificacao_etaria": "A14",
      "imagem_original": "https://animefire.plus/img/animes/nanatsu-no-taizai.webp",
      "imagem_pasta": "https://animefire.plus/img/animes/nanatsu-no-taizai/",
      "secao": "dublados,legendados",
      "pagina": 26,
      "total_episodios": 24,
      "link_video": "https://animefire.plus/video/nanatsu-no-taizai-dublado"
    },
    {
      "id": 2665,
      "nome": "Nanatsu no Taizai: Imashime no Fukkatsu (Dublado)",
      "link": "https://animefire.plus/animes/nanatsu-no-taizai-imashime-no-fukkatsu-dublado-todos-os-episodios",
      "texto_original": "Nanatsu no Taizai: Imashime no Fukkatsu (Dublado)",
      "rating": 8.22,
      "classificacao_etaria": "A14",
      "imagem_original": "https://animefire.plus/img/animes/nanatsu-no-taizai-imashime-no-fukkatsu.webp",
      "imagem_pasta": "https://animefire.plus/img/animes/nanatsu-no-taizai-imashime-no-fukkatsu/",
      "secao": "dublados,legendados",
      "pagina": 26,
      "total_episodios": 24,
      "link_video": "https://animefire.plus/video/nanatsu-no-taizai-imashime-no-fukkatsu-dublado"
    },
    {
      "id": 2680,
      "nome": "Naruto: Shippuuden (Dublado)",
      "link": "https://animefire.plus/animes/naruto-shippuuden-dublado-todos-os-episodios",
      "texto_original": "Naruto: Shippuuden (Dublado)",
      "rating": 8.2,
      "classificacao_etaria": "A14",
      "imagem_original": "https://animefire.plus/img/animes/naruto-shippuuden.webp",
      "imagem_pasta": "https://animefire.plus/img/animes/naruto-shippuuden/",
      "secao": "dublados,legendados",
      "pagina": 27,
      "total_episodios": 0,
      "link_video": "https://animefire.plus/video/naruto-shippuuden-dublado"
    },
    {
      "id": 2685,
      "nome": "Natsume Yuujinchou",
      "link": "https://animefire.plus/animes/natsume-yuujinchou-todos-os-episodios",
      "texto_original": "Natsume Yuujinchou",
      "rating": 8.38,
      "classificacao_etaria": "A14",
      "imagem_original": "https://animefire.plus/img/animes/natsume-yuujinchou.webp",
      "imagem_pasta": "https://animefire.plus/img/animes/natsume-yuujinchou/",
      "secao": "legendados",
      "pagina": 104,
      "total_episodios": 13,
      "link_video": "https://animefire.plus/video/natsume-yuujinchou"
    },
    {
      "id": 2686,
      "nome": "Natsume Yuujinchou Go",
      "link": "https://animefire.plus/animes/natsume-yuujinchou-go-todos-os-episodios",
      "texto_original": "Natsume Yuujinchou Go",
      "rating": 8.62,
      "classificacao_etaria": "A14",
      "imagem_original": "https://animefire.plus/img/animes/natsume-yuujinchou-go.webp",
      "imagem_pasta": "https://animefire.plus/img/animes/natsume-yuujinchou-go/",
      "secao": "legendados",
      "pagina": 148,
      "total_episodios": 11,
      "link_video": "https://animefire.plus/video/natsume-yuujinchou-go"
    },
    {
      "id": 2687,
      "nome": "Natsume Yuujinchou Go Specials",
      "link": "https://animefire.plus/animes/natsume-yuujinchou-go-specials-todos-os-episodios",
      "texto_original": "Natsume Yuujinchou Go Specials",
      "rating": 8.34,
      "classificacao_etaria": "A14",
      "imagem_original": "https://animefire.plus/img/animes/natsume-yuujinchou-go-specials.webp",
      "imagem_pasta": "https://animefire.plus/img/animes/natsume-yuujinchou-go-specials/",
      "secao": "legendados",
      "pagina": 84,
      "total_episodios": 2,
      "link_video": "https://animefire.plus/video/natsume-yuujinchou-go-specials"
    },
    {
      "id": 2688,
      "nome": "Natsume Yuujinchou Roku",
      "link": "https://animefire.plus/animes/natsume-yuujinchou-roku-todos-os-episodios",
      "texto_original": "Natsume Yuujinchou Roku",
      "rating": 8.7,
      "classificacao_etaria": "A14",
      "imagem_original": "https://animefire.plus/img/animes/natsume-yuujinchou-roku.webp",
      "imagem_pasta": "https://animefire.plus/img/animes/natsume-yuujinchou-roku/",
      "secao": "legendados",
      "pagina": 156,
      "total_episodios": 11,
      "link_video": "https://animefire.plus/video/natsume-yuujinchou-roku"
    },
    {
      "id": 2689,
      "nome": "Natsume Yuujinchou Roku Specials",
      "link": "https://animefire.plus/animes/natsume-yuujinchou-roku-specials-todos-os-episodios",
      "texto_original": "Natsume Yuujinchou Roku Specials",
      "rating": 8.42,
      "classificacao_etaria": "A14",
      "imagem_original": "https://animefire.plus/img/animes/natsume-yuujinchou-roku-specials.webp",
      "imagem_pasta": "https://animefire.plus/img/animes/natsume-yuujinchou-roku-specials/",
      "secao": "legendados",
      "pagina": 84,
      "total_episodios": 2,
      "link_video": "https://animefire.plus/video/natsume-yuujinchou-roku-specials"
    },
    {
      "id": 2690,
      "nome": "Natsume Yuujinchou San",
      "link": "https://animefire.plus/animes/natsume-yuujinchou-san-todos-os-episodios",
      "texto_original": "Natsume Yuujinchou San",
      "rating": 8.62,
      "classificacao_etaria": "A14",
      "imagem_original": "https://animefire.plus/img/animes/natsume-yuujinchou-san.webp",
      "imagem_pasta": "https://animefire.plus/img/animes/natsume-yuujinchou-san/",
      "secao": "legendados",
      "pagina": 74,
      "total_episodios": 13,
      "link_video": "https://animefire.plus/video/natsume-yuujinchou-san"
    },
    {
      "id": 2691,
      "nome": "Natsume Yuujinchou Shi",
      "link": "https://animefire.plus/animes/natsume-yuujinchou-shi-todos-os-episodios",
      "texto_original": "Natsume Yuujinchou Shi",
      "rating": 8.7,
      "classificacao_etaria": "A14",
      "imagem_original": "https://animefire.plus/img/animes/natsume-yuujinchou-shi.webp",
      "imagem_pasta": "https://animefire.plus/img/animes/natsume-yuujinchou-shi/",
      "secao": "legendados",
      "pagina": 90,
      "total_episodios": 13,
      "link_video": "https://animefire.plus/video/natsume-yuujinchou-shi"
    },
    {
      "id": 2692,
      "nome": "Natsume Yuujinchou Shichi",
      "link": "https://animefire.plus/animes/natsume-yuujinchou-shichi-todos-os-episodios",
      "texto_original": "Natsume Yuujinchou Shichi",
      "rating": 8.57,
      "classificacao_etaria": "A14",
      "imagem_original": "https://animefire.plus/img/animes/natsume-yuujinchou-shichi.webp",
      "imagem_pasta": "https://animefire.plus/img/animes/natsume-yuujinchou-shichi/",
      "secao": "legendados",
      "pagina": 10,
      "total_episodios": 12,
      "link_video": "https://animefire.plus/video/natsume-yuujinchou-shichi"
    },
    {
      "id": 2693,
      "nome": "Natsume Yuujinchou: Itsuka Yuki no Hi ni",
      "link": "https://animefire.plus/animes/natsume-yuujinchou-itsuka-yuki-no-hi-ni-todos-os-episodios",
      "texto_original": "Natsume Yuujinchou: Itsuka Yuki no Hi ni",
      "rating": 8.37,
      "classificacao_etaria": "A14",
      "imagem_original": "https://animefire.plus/img/animes/natsume-yuujinchou-itsuka-yuki-no-hi-ni.webp",
      "imagem_pasta": "https://animefire.plus/img/animes/natsume-yuujinchou-itsuka-yuki-no-hi-ni/",
      "secao": "legendados",
      "pagina": 64,
      "total_episodios": 1,
      "link_video": "https://animefire.plus/video/natsume-yuujinchou-itsuka-yuki-no-hi-ni"
    },
    {
      "id": 2711,
      "nome": "Nekomonogatari: Kuro",
      "link": "https://animefire.plus/animes/nekomonogatari-kuro-todos-os-episodios",
      "texto_original": "Nekomonogatari: Kuro",
      "rating": 8.03,
      "classificacao_etaria": "A16",
      "imagem_original": "https://animefire.plus/img/animes/nekomonogatari-kuro.webp",
      "imagem_pasta": "https://animefire.plus/img/animes/nekomonogatari-kuro/",
      "secao": "legendados",
      "pagina": 148,
      "total_episodios": 4,
      "link_video": "https://animefire.plus/video/nekomonogatari-kuro"
    },
    {
      "id": 2715,
      "nome": "Neon Genesis Evangelion (Dublado)",
      "link": "https://animefire.plus/animes/neon-genesis-evangelion-dublado-todos-os-episodios",
      "texto_original": "Neon Genesis Evangelion (Dublado)",
      "rating": 8.34,
      "classificacao_etaria": "A14",
      "imagem_original": "https://animefire.plus/img/animes/neon-genesis-evangelion.webp",
      "imagem_pasta": "https://animefire.plus/img/animes/neon-genesis-evangelion/",
      "secao": "dublados,legendados",
      "pagina": 26,
      "total_episodios": 26,
      "link_video": "https://animefire.plus/video/neon-genesis-evangelion-dublado"
    },
    {
      "id": 2723,
      "nome": "NHK ni Youkoso!",
      "link": "https://animefire.plus/animes/nhk-ni-youkoso-todos-os-episodios",
      "texto_original": "NHK ni Youkoso!",
      "rating": 8.36,
      "classificacao_etaria": "A18",
      "imagem_original": "https://animefire.plus/img/animes/nhk-ni-youkoso.webp",
      "imagem_pasta": "https://animefire.plus/img/animes/nhk-ni-youkoso/",
      "secao": "legendados",
      "pagina": 145,
      "total_episodios": 24,
      "link_video": "https://animefire.plus/video/nhk-ni-youkoso"
    },
    {
      "id": 2725,
      "nome": "Nichijou",
      "link": "https://animefire.plus/animes/nichijou-todos-os-episodios",
      "texto_original": "Nichijou",
      "rating": 8.51,
      "classificacao_etaria": "A14",
      "imagem_original": "https://animefire.plus/img/animes/nichijou.webp",
      "imagem_pasta": "https://animefire.plus/img/animes/nichijou/",
      "secao": "legendados",
      "pagina": 174,
      "total_episodios": 26,
      "link_video": "https://animefire.plus/video/nichijou"
    },
    {
      "id": 2728,
      "nome": "NieR:Automata Ver1.1a Part 2",
      "link": "https://animefire.plus/animes/nier-automata-ver1-1a-part-2-todos-os-episodios",
      "texto_original": "NieR:Automata Ver1.1a Part 2",
      "rating": 8.05,
      "classificacao_etaria": "A14",
      "imagem_original": "https://animefire.plus/img/animes/nier-automata-ver1-1a-part-2.webp",
      "imagem_pasta": "https://animefire.plus/img/animes/nier-automata-ver1-1a-part-2/",
      "secao": "legendados",
      "pagina": 12,
      "total_episodios": 12,
      "link_video": "https://animefire.plus/video/nier-automata-ver1-1a-part-2"
    },
    {
      "id": 2749,
      "nome": "Nisemonogatari",
      "link": "https://animefire.plus/animes/nisemonogatari-todos-os-episodios",
      "texto_original": "Nisemonogatari",
      "rating": 8.2,
      "classificacao_etaria": "A16",
      "imagem_original": "https://animefire.plus/img/animes/nisemonogatari.webp",
      "imagem_pasta": "https://animefire.plus/img/animes/nisemonogatari/",
      "secao": "legendados",
      "pagina": 148,
      "total_episodios": 1,
      "link_video": "https://animefire.plus/video/nisemonogatari"
    },
    {
      "id": 2751,
      "nome": "No Game No Life (Dublado)",
      "link": "https://animefire.plus/animes/no-game-no-life-dublado-todos-os-episodios",
      "texto_original": "No Game No Life (Dublado)",
      "rating": 8.29,
      "classificacao_etaria": "A14",
      "imagem_original": "https://animefire.plus/img/animes/no-game-no-life.webp",
      "imagem_pasta": "https://animefire.plus/img/animes/no-game-no-life/",
      "secao": "dublados,legendados",
      "pagina": 22,
      "total_episodios": 12,
      "link_video": "https://animefire.plus/video/no-game-no-life-dublado"
    },
    {
      "id": 2753,
      "nome": "No Game No Life: Zero",
      "link": "https://animefire.plus/animes/no-game-no-life-zero-todos-os-episodios",
      "texto_original": "No Game No Life: Zero",
      "rating": 8.56,
      "classificacao_etaria": "A14",
      "imagem_original": "https://animefire.plus/img/animes/no-game-no-life-zero.webp",
      "imagem_pasta": "https://animefire.plus/img/animes/no-game-no-life-zero/",
      "secao": "legendados",
      "pagina": 105,
      "total_episodios": 4,
      "link_video": "https://animefire.plus/video/no-game-no-life-zero"
    }
  ],
  "pagination": {
    "current_page": 18,
    "per_page": 20,
    "total_items": 547,
    "total_pages": 28,
    "has_next": true,
    "has_prev": true
  }
}
