{
  "message": "Animes com rating entre 8 e 9",
  "rating_range": {
    "min": 8,
    "max": 9
  },
  "data": [
    {
      "id": 1891,
      "nome": "Kaoru Hana wa Rin to Saku",
      "link": "https://animefire.plus/animes/kaoru-hana-wa-rin-to-saku-todos-os-episodios",
      "texto_original": "Kaoru Hana wa Rin to Saku",
      "rating": 8.75,
      "classificacao_etaria": "A14",
      "imagem_original": "https://animefire.plus/img/animes/kaoru-hana-wa-rin-to-saku.webp",
      "imagem_pasta": "https://animefire.plus/img/animes/kaoru-hana-wa-rin-to-saku/",
      "secao": "legendados,lancamentos",
      "pagina": 3,
      "total_episodios": 4,
      "link_video": "https://animefire.plus/video/kaoru-hana-wa-rin-to-saku"
    },
    {
      "id": 1894,
      "nome": "Karakai Jouzu no Takagi-san 2 (Dublado)",
      "link": "https://animefire.plus/animes/karakai-jouzu-no-takagi-san-2-dublado-todos-os-episodios",
      "texto_original": "Karakai Jouzu no Takagi-san 2 (Dublado)",
      "rating": 8.24,
      "classificacao_etaria": "A14",
      "imagem_original": "https://animefire.plus/img/animes/karakai-jouzu-no-takagi-san-2.webp",
      "imagem_pasta": "https://animefire.plus/img/animes/karakai-jouzu-no-takagi-san-2/",
      "secao": "dublados,legendados",
      "pagina": 22,
      "total_episodios": 12,
      "link_video": "https://animefire.plus/video/karakai-jouzu-no-takagi-san-2-dublado"
    },
    {
      "id": 1895,
      "nome": "Karakai Jouzu no Takagi-san 3",
      "link": "https://animefire.plus/animes/karakai-jouzu-no-takagi-san-3-todos-os-episodios",
      "texto_original": "Karakai Jouzu no Takagi-san 3",
      "rating": 8.38,
      "classificacao_etaria": "A14",
      "imagem_original": "https://animefire.plus/img/animes/karakai-jouzu-no-takagi-san-3.webp",
      "imagem_pasta": "https://animefire.plus/img/animes/karakai-jouzu-no-takagi-san-3/",
      "secao": "legendados",
      "pagina": 36,
      "total_episodios": 12,
      "link_video": "https://animefire.plus/video/karakai-jouzu-no-takagi-san-3"
    },
    {
      "id": 1899,
      "nome": "Karasu wa Aruji wo Erabanai",
      "link": "https://animefire.plus/animes/karasu-wa-aruji-wo-erabanai-todos-os-episodios",
      "texto_original": "Karasu wa Aruji wo Erabanai",
      "rating": 8.05,
      "classificacao_etaria": "A14",
      "imagem_original": "https://animefire.plus/img/animes/karasu-wa-aruji-wo-erabanai.webp",
      "imagem_pasta": "https://animefire.plus/img/animes/karasu-wa-aruji-wo-erabanai/",
      "secao": "legendados",
      "pagina": 13,
      "total_episodios": 20,
      "link_video": "https://animefire.plus/video/karasu-wa-aruji-wo-erabanai"
    },
    {
      "id": 1907,
      "nome": "Katanagatari",
      "link": "https://animefire.plus/animes/katanagatari-todos-os-episodios",
      "texto_original": "Katanagatari",
      "rating": 8.4,
      "classificacao_etaria": "A16",
      "imagem_original": "https://animefire.plus/img/animes/katanagatari.webp",
      "imagem_pasta": "https://animefire.plus/img/animes/katanagatari/",
      "secao": "legendados",
      "pagina": 108,
      "total_episodios": 0,
      "link_video": "https://animefire.plus/video/katanagatari"
    },
    {
      "id": 1908,
      "nome": "Katekyo Hitman Reborn!",
      "link": "https://animefire.plus/animes/katekyo-hitman-reborn-todos-os-episodios",
      "texto_original": "Katekyo Hitman Reborn!",
      "rating": 8.27,
      "classificacao_etaria": "A14",
      "imagem_original": "https://animefire.plus/img/animes/katekyo-hitman-reborn.webp",
      "imagem_pasta": "https://animefire.plus/img/animes/katekyo-hitman-reborn/",
      "secao": "legendados",
      "pagina": 152,
      "total_episodios": 104,
      "link_video": "https://animefire.plus/video/katekyo-hitman-reborn"
    },
    {
      "id": 1918,
      "nome": "Kaze ga Tsuyoku Fuiteiru",
      "link": "https://animefire.plus/animes/kaze-ga-tsuyoku-fuiteiru-todos-os-episodios",
      "texto_original": "Kaze ga Tsuyoku Fuiteiru",
      "rating": 8.52,
      "classificacao_etaria": "A14",
      "imagem_original": "https://animefire.plus/img/animes/kaze-ga-tsuyoku-fuiteiru.webp",
      "imagem_pasta": "https://animefire.plus/img/animes/kaze-ga-tsuyoku-fuiteiru/",
      "secao": "legendados",
      "pagina": 162,
      "total_episodios": 23,
      "link_video": "https://animefire.plus/video/kaze-ga-tsuyoku-fuiteiru"
    },
    {
      "id": 1938,
      "nome": "Kemono no Souja Erin",
      "link": "https://animefire.plus/animes/kemono-no-souja-erin-todos-os-episodios",
      "texto_original": "Kemono no Souja Erin",
      "rating": 8.37,
      "classificacao_etaria": "A14",
      "imagem_original": "https://animefire.plus/img/animes/kemono-no-souja-erin.webp",
      "imagem_pasta": "https://animefire.plus/img/animes/kemono-no-souja-erin/",
      "secao": "legendados",
      "pagina": 72,
      "total_episodios": 50,
      "link_video": "https://animefire.plus/video/kemono-no-souja-erin"
    },
    {
      "id": 1950,
      "nome": "Kenpuu Denki Berserk",
      "link": "https://animefire.plus/animes/kenpuu-denki-berserk-todos-os-episodios",
      "texto_original": "Kenpuu Denki Berserk",
      "rating": 8.47,
      "classificacao_etaria": "A18",
      "imagem_original": "https://animefire.plus/img/animes/kenpuu-denki-berserk.webp",
      "imagem_pasta": "https://animefire.plus/img/animes/kenpuu-denki-berserk/",
      "secao": "legendados",
      "pagina": 126,
      "total_episodios": 25,
      "link_video": "https://animefire.plus/video/kenpuu-denki-berserk"
    },
    {
      "id": 1971,
      "nome": "Kill la Kill",
      "link": "https://animefire.plus/animes/kill-la-kill-todos-os-episodios",
      "texto_original": "Kill la Kill",
      "rating": 8.17,
      "classificacao_etaria": "A14",
      "imagem_original": "https://animefire.plus/img/animes/kill-la-kill.webp",
      "imagem_pasta": "https://animefire.plus/img/animes/kill-la-kill/",
      "secao": "legendados",
      "pagina": 109,
      "total_episodios": 24,
      "link_video": "https://animefire.plus/video/kill-la-kill"
    },
    {
      "id": 1976,
      "nome": "Kimetsu no Yaiba (Dublado)",
      "link": "https://animefire.plus/animes/kimetsu-no-yaiba-dublado-todos-os-episodios",
      "texto_original": "Kimetsu no Yaiba (Dublado)",
      "rating": 8.64,
      "classificacao_etaria": "A16",
      "imagem_original": "https://animefire.plus/img/animes/kimetsu-no-yaiba.webp",
      "imagem_pasta": "https://animefire.plus/img/animes/kimetsu-no-yaiba/",
      "secao": "dublados,legendados",
      "pagina": 18,
      "total_episodios": 26,
      "link_video": "https://animefire.plus/video/kimetsu-no-yaiba-dublado"
    },
    {
      "id": 1978,
      "nome": "Kimetsu no Yaiba: Katanakaji no Sato-hen (Dublado)",
      "link": "https://animefire.plus/animes/kimetsu-no-yaiba-katanakaji-no-sato-hen-dublado-todos-os-episodios",
      "texto_original": "Kimetsu no Yaiba: Katanakaji no Sato-hen (Dublado)",
      "rating": 8.18,
      "classificacao_etaria": "A16",
      "imagem_original": "https://animefire.plus/img/animes/kimetsu-no-yaiba-katanakaji-no-sato-hen.webp",
      "imagem_pasta": "https://animefire.plus/img/animes/kimetsu-no-yaiba-katanakaji-no-sato-hen/",
      "secao": "dublados,legendados",
      "pagina": 5,
      "total_episodios": 11,
      "link_video": "https://animefire.plus/video/kimetsu-no-yaiba-katanakaji-no-sato-hen-dublado"
    },
    {
      "id": 1979,
      "nome": "Kimetsu no Yaiba: Mugen Ressha-hen (Dublado)",
      "link": "https://animefire.plus/animes/kimetsu-no-yaiba-mugen-ressha-hen-dublado-todos-os-episodios",
      "texto_original": "Kimetsu no Yaiba: Mugen Ressha-hen (Dublado)",
      "rating": 8.35,
      "classificacao_etaria": "A16",
      "imagem_original": "https://animefire.plus/img/animes/kimetsu-no-yaiba-mugen-ressha-hen.webp",
      "imagem_pasta": "https://animefire.plus/img/animes/kimetsu-no-yaiba-mugen-ressha-hen/",
      "secao": "dublados,legendados",
      "pagina": 10,
      "total_episodios": 7,
      "link_video": "https://animefire.plus/video/kimetsu-no-yaiba-mugen-ressha-hen-dublado"
    },
    {
      "id": 1980,
      "nome": "Kimetsu no Yaiba: Yuukaku-hen (Dublado)",
      "link": "https://animefire.plus/animes/kimetsu-no-yaiba-yuukaku-hen-dublado-todos-os-episodios",
      "texto_original": "Kimetsu no Yaiba: Yuukaku-hen (Dublado)",
      "rating": 8.71,
      "classificacao_etaria": "A16",
      "imagem_original": "https://animefire.plus/img/animes/kimetsu-no-yaiba-yuukaku-hen.webp",
      "imagem_pasta": "https://animefire.plus/img/animes/kimetsu-no-yaiba-yuukaku-hen/",
      "secao": "dublados,legendados",
      "pagina": 13,
      "total_episodios": 11,
      "link_video": "https://animefire.plus/video/kimetsu-no-yaiba-yuukaku-hen-dublado"
    },
    {
      "id": 1983,
      "nome": "Kimi ni Todoke",
      "link": "https://animefire.plus/animes/kimi-ni-todoke-todos-os-episodios",
      "texto_original": "Kimi ni Todoke",
      "rating": 8.1,
      "classificacao_etaria": "A14",
      "imagem_original": "https://animefire.plus/img/animes/kimi-ni-todoke.webp",
      "imagem_pasta": "https://animefire.plus/img/animes/kimi-ni-todoke/",
      "secao": "legendados",
      "pagina": 159,
      "total_episodios": 25,
      "link_video": "https://animefire.plus/video/kimi-ni-todoke"
    },
    {
      "id": 1984,
      "nome": "Kimi ni Todoke 2nd Season",
      "link": "https://animefire.plus/animes/kimi-ni-todoke-2nd-season-todos-os-episodios",
      "texto_original": "Kimi ni Todoke 2nd Season",
      "rating": 8.1,
      "classificacao_etaria": "A14",
      "imagem_original": "https://animefire.plus/img/animes/kimi-ni-todoke-2nd-season.webp",
      "imagem_pasta": "https://animefire.plus/img/animes/kimi-ni-todoke-2nd-season/",
      "secao": "legendados",
      "pagina": 114,
      "total_episodios": 1,
      "link_video": "https://animefire.plus/video/kimi-ni-todoke-2nd-season"
    },
    {
      "id": 1992,
      "nome": "Kimi to Boku. 2",
      "link": "https://animefire.plus/animes/kimi-to-boku-2-todos-os-episodios",
      "texto_original": "Kimi to Boku. 2",
      "rating": 8.01,
      "classificacao_etaria": "A14",
      "imagem_original": "https://animefire.plus/img/animes/kimi-to-boku-2.webp",
      "imagem_pasta": "https://animefire.plus/img/animes/kimi-to-boku-2/",
      "secao": "legendados",
      "pagina": 64,
      "total_episodios": 13,
      "link_video": "https://animefire.plus/video/kimi-to-boku-2"
    },
    {
      "id": 1994,
      "nome": "Kimi wa Houkago Insomnia",
      "link": "https://animefire.plus/animes/kimi-wa-houkago-insomnia-todos-os-episodios",
      "texto_original": "Kimi wa Houkago Insomnia",
      "rating": 8.08,
      "classificacao_etaria": "A14",
      "imagem_original": "https://animefire.plus/img/animes/kimi-wa-houkago-insomnia.jpg",
      "imagem_pasta": "https://animefire.plus/img/animes/kimi-wa-houkago-insomnia/",
      "secao": "legendados",
      "pagina": 24,
      "total_episodios": 13,
      "link_video": "https://animefire.plus/video/kimi-wa-houkago-insomnia"
    },
    {
      "id": 2002,
      "nome": "Kingdom",
      "link": "https://animefire.plus/animes/kingdom-todos-os-episodios",
      "texto_original": "Kingdom",
      "rating": 8.14,
      "classificacao_etaria": "A16",
      "imagem_original": "https://animefire.plus/img/animes/kingdom.webp",
      "imagem_pasta": "https://animefire.plus/img/animes/kingdom/",
      "secao": "legendados",
      "pagina": 141,
      "total_episodios": 5,
      "link_video": "https://animefire.plus/video/kingdom"
    },
    {
      "id": 2003,
      "nome": "Kingdom 2nd Season",
      "link": "https://animefire.plus/animes/kingdom-2nd-season-todos-os-episodios",
      "texto_original": "Kingdom 2nd Season",
      "rating": 8.43,
      "classificacao_etaria": "A16",
      "imagem_original": "https://animefire.plus/img/animes/kingdom-2nd-season.webp",
      "imagem_pasta": "https://animefire.plus/img/animes/kingdom-2nd-season/",
      "secao": "legendados",
      "pagina": 177,
      "total_episodios": 21,
      "link_video": "https://animefire.plus/video/kingdom-2nd-season"
    }
  ],
  "pagination": {
    "current_page": 13,
    "per_page": 20,
    "total_items": 547,
    "total_pages": 28,
    "has_next": true,
    "has_prev": true
  }
}
