{
  "message": "Animes com rating entre 8 e 9",
  "rating_range": {
    "min": 8,
    "max": 9
  },
  "data": [
    {
      "id": 369,
      "nome": "Beck",
      "link": "https://animefire.plus/animes/beck-todos-os-episodios",
      "texto_original": "Beck",
      "rating": 8.35,
      "classificacao_etaria": "A16",
      "imagem_original": "https://animefire.plus/img/animes/beck.webp",
      "imagem_pasta": "https://animefire.plus/img/animes/beck/",
      "secao": "legendados",
      "pagina": 153,
      "total_episodios": 26,
      "link_video": "https://animefire.plus/video/beck"
    },
    {
      "id": 370,
      "nome": "Beelzebub",
      "link": "https://animefire.plus/animes/beelzebub-todos-os-episodios",
      "texto_original": "Beelzebub",
      "rating": 8.01,
      "classificacao_etaria": "A14",
      "imagem_original": "https://animefire.plus/img/animes/beelzebub.webp",
      "imagem_pasta": "https://animefire.plus/img/animes/beelzebub/",
      "secao": "legendados",
      "pagina": 158,
      "total_episodios": 53,
      "link_video": "https://animefire.plus/video/beelzebub"
    },
    {
      "id": 412,
      "nome": "Black Lagoon",
      "link": "https://animefire.plus/animes/black-lagoon-todos-os-episodios",
      "texto_original": "Black Lagoon",
      "rating": 8.11,
      "classificacao_etaria": "A16",
      "imagem_original": "https://animefire.plus/img/animes/black-lagoon.webp",
      "imagem_pasta": "https://animefire.plus/img/animes/black-lagoon/",
      "secao": "legendados",
      "pagina": 112,
      "total_episodios": 12,
      "link_video": "https://animefire.plus/video/black-lagoon"
    },
    {
      "id": 414,
      "nome": "Black Lagoon: The Second Barrage",
      "link": "https://animefire.plus/animes/black-lagoon-the-second-barrage-todos-os-episodios",
      "texto_original": "Black Lagoon: The Second Barrage",
      "rating": 8.25,
      "classificacao_etaria": "A16",
      "imagem_original": "https://animefire.plus/img/animes/black-lagoon-the-second-barrage.webp",
      "imagem_pasta": "https://animefire.plus/img/animes/black-lagoon-the-second-barrage/",
      "secao": "legendados",
      "pagina": 162,
      "total_episodios": 12,
      "link_video": "https://animefire.plus/video/black-lagoon-the-second-barrage"
    },
    {
      "id": 425,
      "nome": "Bleach: Sennen Kessen-hen - Ketsubetsu-tan",
      "link": "https://animefire.plus/animes/bleach-sennen-kessen-hen-ketsubetsu-tan-todos-os-episodios",
      "texto_original": "Bleach: Sennen Kessen-hen - Ketsubetsu-tan",
      "rating": 8.7,
      "classificacao_etaria": "A16",
      "imagem_original": "https://animefire.plus/img/animes/bleach-sennen-kessen-hen-ketsubetsu-tan.jpg",
      "imagem_pasta": "https://animefire.plus/img/animes/bleach-sennen-kessen-hen-ketsubetsu-tan/",
      "secao": "legendados",
      "pagina": 23,
      "total_episodios": 7,
      "link_video": "https://animefire.plus/video/bleach-sennen-kessen-hen-ketsubetsu-tan"
    },
    {
      "id": 426,
      "nome": "Bleach: Sennen Kessen-hen - Ketsubetsu-tan (Dublado)",
      "link": "https://animefire.plus/animes/bleach-sennen-kessen-hen---ketsubetsu-tan-dublado-todos-os-episodios",
      "texto_original": "Bleach: Sennen Kessen-hen - Ketsubetsu-tan (Dublado)",
      "rating": 8.7,
      "classificacao_etaria": "A16",
      "imagem_original": "https://animefire.plus/img/animes/bleach-sennen-kessen-hen---ketsubetsu-tan.webp",
      "imagem_pasta": "https://animefire.plus/img/animes/bleach-sennen-kessen-hen---ketsubetsu-tan/",
      "secao": "dublados",
      "pagina": 6,
      "total_episodios": 13,
      "link_video": "https://animefire.plus/video/bleach-sennen-kessen-hen---ketsubetsu-tan-dublado"
    },
    {
      "id": 427,
      "nome": "Bleach: Sennen Kessen-hen - Soukoku-tan (Dublado)",
      "link": "https://animefire.plus/animes/bleach-sennen-kessen-hen---soukoku-tan-dublado-todos-os-episodios",
      "texto_original": "Bleach: Sennen Kessen-hen - Soukoku-tan (Dublado)",
      "rating": 8.67,
      "classificacao_etaria": "A16",
      "imagem_original": "https://animefire.plus/img/animes/bleach-sennen-kessen-hen---soukoku-tan.webp",
      "imagem_pasta": "https://animefire.plus/img/animes/bleach-sennen-kessen-hen---soukoku-tan/",
      "secao": "dublados,legendados",
      "pagina": 2,
      "total_episodios": 14,
      "link_video": "https://animefire.plus/video/bleach-sennen-kessen-hen---soukoku-tan-dublado"
    },
    {
      "id": 428,
      "nome": "Bleach: Sennen Kessen-hen (Dublado)",
      "link": "https://animefire.plus/animes/bleach-sennen-kessen-hen-dublado-todos-os-episodios",
      "texto_original": "Bleach: Sennen Kessen-hen (Dublado)",
      "rating": 8.99,
      "classificacao_etaria": "A16",
      "imagem_original": "https://animefire.plus/img/animes/bleach-sennen-kessen-hen.webp",
      "imagem_pasta": "https://animefire.plus/img/animes/bleach-sennen-kessen-hen/",
      "secao": "dublados,legendados",
      "pagina": 9,
      "total_episodios": 13,
      "link_video": "https://animefire.plus/video/bleach-sennen-kessen-hen-dublado"
    },
    {
      "id": 439,
      "nome": "Blue Lock (Dublado)",
      "link": "https://animefire.plus/animes/blue-lock-dublado-todos-os-episodios",
      "texto_original": "Blue Lock (Dublado)",
      "rating": 8.17,
      "classificacao_etaria": "A14",
      "imagem_original": "https://animefire.plus/img/animes/blue-lock.webp",
      "imagem_pasta": "https://animefire.plus/img/animes/blue-lock/",
      "secao": "dublados,legendados,lancamentos",
      "pagina": 8,
      "total_episodios": 24,
      "link_video": "https://animefire.plus/video/blue-lock-dublado"
    },
    {
      "id": 446,
      "nome": "Bocchi the Rock!",
      "link": "https://animefire.plus/animes/bocchi-the-rock-todos-os-episodios",
      "texto_original": "Bocchi the Rock!",
      "rating": 8.75,
      "classificacao_etaria": "A14",
      "imagem_original": "https://animefire.plus/img/animes/bocchi-the-rock.webp",
      "imagem_pasta": "https://animefire.plus/img/animes/bocchi-the-rock/",
      "secao": "legendados",
      "pagina": 29,
      "total_episodios": 12,
      "link_video": "https://animefire.plus/video/bocchi-the-rock"
    },
    {
      "id": 447,
      "nome": "Boku dake ga Inai Machi",
      "link": "https://animefire.plus/animes/boku-dake-ga-inai-machi-todos-os-episodios",
      "texto_original": "Boku dake ga Inai Machi",
      "rating": 8.53,
      "classificacao_etaria": "A16",
      "imagem_original": "https://animefire.plus/img/animes/boku-dake-ga-inai-machi.webp",
      "imagem_pasta": "https://animefire.plus/img/animes/boku-dake-ga-inai-machi/",
      "secao": "legendados",
      "pagina": 118,
      "total_episodios": 0,
      "link_video": "https://animefire.plus/video/boku-dake-ga-inai-machi"
    },
    {
      "id": 448,
      "nome": "Boku no Hero Academia (Dublado)",
      "link": "https://animefire.plus/animes/boku-no-hero-academia-dublado-todos-os-episodios",
      "texto_original": "Boku no Hero Academia (Dublado)",
      "rating": 8.16,
      "classificacao_etaria": "A14",
      "imagem_original": "https://animefire.plus/img/animes/boku-no-hero-academia.webp",
      "imagem_pasta": "https://animefire.plus/img/animes/boku-no-hero-academia/",
      "secao": "dublados,legendados",
      "pagina": 20,
      "total_episodios": 13,
      "link_video": "https://animefire.plus/video/boku-no-hero-academia-dublado"
    },
    {
      "id": 449,
      "nome": "Boku no Hero Academia 2nd Season",
      "link": "https://animefire.plus/animes/boku-no-hero-academia-2nd-season-todos-os-episodios",
      "texto_original": "Boku no Hero Academia 2nd Season",
      "rating": 8.65,
      "classificacao_etaria": "A14",
      "imagem_original": "https://animefire.plus/img/animes/boku-no-hero-academia-2nd-season.webp",
      "imagem_pasta": "https://animefire.plus/img/animes/boku-no-hero-academia-2nd-season/",
      "secao": "legendados",
      "pagina": 137,
      "total_episodios": 0,
      "link_video": "https://animefire.plus/video/boku-no-hero-academia-2nd-season"
    },
    {
      "id": 450,
      "nome": "Boku no Hero Academia 2nd Season (Dublado)",
      "link": "https://animefire.plus/animes/boku-no-hero-academia-2-dublado-todos-os-episodios",
      "texto_original": "Boku no Hero Academia 2nd Season (Dublado)",
      "rating": 8.39,
      "classificacao_etaria": "A14",
      "imagem_original": "https://animefire.plus/img/animes/boku-no-hero-academia-2.webp",
      "imagem_pasta": "https://animefire.plus/img/animes/boku-no-hero-academia-2/",
      "secao": "dublados",
      "pagina": 19,
      "total_episodios": 25,
      "link_video": "https://animefire.plus/video/boku-no-hero-academia-2-dublado"
    },
    {
      "id": 451,
      "nome": "Boku no Hero Academia 3rd Season",
      "link": "https://animefire.plus/animes/boku-no-hero-academia-3rd-season-todos-os-episodios",
      "texto_original": "Boku no Hero Academia 3rd Season",
      "rating": 8.62,
      "classificacao_etaria": "A14",
      "imagem_original": "https://animefire.plus/img/animes/boku-no-hero-academia-3rd-season.webp",
      "imagem_pasta": "https://animefire.plus/img/animes/boku-no-hero-academia-3rd-season/",
      "secao": "legendados",
      "pagina": 122,
      "total_episodios": 0,
      "link_video": "https://animefire.plus/video/boku-no-hero-academia-3rd-season"
    },
    {
      "id": 452,
      "nome": "Boku no Hero Academia 3rd Season (Dublado)",
      "link": "https://animefire.plus/animes/boku-no-hero-academia-3-dublado-todos-os-episodios",
      "texto_original": "Boku no Hero Academia 3rd Season (Dublado)",
      "rating": 8.31,
      "classificacao_etaria": "A14",
      "imagem_original": "https://animefire.plus/img/animes/boku-no-hero-academia-3.webp",
      "imagem_pasta": "https://animefire.plus/img/animes/boku-no-hero-academia-3/",
      "secao": "dublados",
      "pagina": 19,
      "total_episodios": 25,
      "link_video": "https://animefire.plus/video/boku-no-hero-academia-3-dublado"
    },
    {
      "id": 453,
      "nome": "Boku no Hero Academia 4th Season",
      "link": "https://animefire.plus/animes/boku-no-hero-academia-4th-season-todos-os-episodios",
      "texto_original": "Boku no Hero Academia 4th Season",
      "rating": 8.06,
      "classificacao_etaria": "A14",
      "imagem_original": "https://animefire.plus/img/animes/boku-no-hero-academia-4th-season.webp",
      "imagem_pasta": "https://animefire.plus/img/animes/boku-no-hero-academia-4th-season/",
      "secao": "legendados",
      "pagina": 109,
      "total_episodios": 0,
      "link_video": "https://animefire.plus/video/boku-no-hero-academia-4th-season"
    },
    {
      "id": 454,
      "nome": "Boku no Hero Academia 4th Season (Dublado)",
      "link": "https://animefire.plus/animes/boku-no-hero-academia-4-dublado-todos-os-episodios",
      "texto_original": "Boku no Hero Academia 4th Season (Dublado)",
      "rating": 8.11,
      "classificacao_etaria": "A14",
      "imagem_original": "https://animefire.plus/img/animes/boku-no-hero-academia-4.webp",
      "imagem_pasta": "https://animefire.plus/img/animes/boku-no-hero-academia-4/",
      "secao": "dublados",
      "pagina": 19,
      "total_episodios": 25,
      "link_video": "https://animefire.plus/video/boku-no-hero-academia-4-dublado"
    },
    {
      "id": 457,
      "nome": "Boku no Hero Academia 6th Season (Dublado)",
      "link": "https://animefire.plus/animes/boku-no-hero-academia-6th-season-dublado-todos-os-episodios",
      "texto_original": "Boku no Hero Academia 6th Season (Dublado)",
      "rating": 8.23,
      "classificacao_etaria": "A14",
      "imagem_original": "https://animefire.plus/img/animes/boku-no-hero-academia-6th-season.webp",
      "imagem_pasta": "https://animefire.plus/img/animes/boku-no-hero-academia-6th-season/",
      "secao": "dublados,legendados,lancamentos",
      "pagina": 9,
      "total_episodios": 25,
      "link_video": "https://animefire.plus/video/boku-no-hero-academia-6th-season-dublado"
    },
    {
      "id": 463,
      "nome": "Boku no Kokoro no Yabai Yatsu",
      "link": "https://animefire.plus/animes/boku-no-kokoro-no-yabai-yatsu-todos-os-episodios",
      "texto_original": "Boku no Kokoro no Yabai Yatsu",
      "rating": 8.22,
      "classificacao_etaria": "A14",
      "imagem_original": "https://animefire.plus/img/animes/boku-no-kokoro-no-yabai-yatsu.jpg",
      "imagem_pasta": "https://animefire.plus/img/animes/boku-no-kokoro-no-yabai-yatsu/",
      "secao": "legendados",
      "pagina": 25,
      "total_episodios": 12,
      "link_video": "https://animefire.plus/video/boku-no-kokoro-no-yabai-yatsu"
    }
  ],
  "pagination": {
    "current_page": 3,
    "per_page": 20,
    "total_items": 547,
    "total_pages": 28,
    "has_next": true,
    "has_prev": true
  }
}
