{
  "message": "Animes com rating entre 8 e 9",
  "rating_range": {
    "min": 8,
    "max": 9
  },
  "data": [
    {
      "id": 4180,
      "nome": "XxxHOLiC Shunmuki",
      "link": "https://animefire.plus/animes/xxxholic-shunmuki-todos-os-episodios",
      "texto_original": "XxxHOLiC Shunmuki",
      "rating": 8.13,
      "classificacao_etaria": "A14",
      "imagem_original": "https://animefire.plus/img/animes/xxxholic-shunmuki.webp",
      "imagem_pasta": "https://animefire.plus/img/animes/xxxholic-shunmuki/",
      "secao": "legendados",
      "pagina": 108,
      "total_episodios": 0,
      "link_video": "https://animefire.plus/video/xxxholic-shunmuki"
    },
    {
      "id": 4181,
      "nome": "Yagate Kimi ni Naru",
      "link": "https://animefire.plus/animes/yagate-kimi-ni-naru-todos-os-episodios",
      "texto_original": "Yagate Kimi ni Naru",
      "rating": 8.02,
      "classificacao_etaria": "A14",
      "imagem_original": "https://animefire.plus/img/animes/yagate-kimi-ni-naru.webp",
      "imagem_pasta": "https://animefire.plus/img/animes/yagate-kimi-ni-naru/",
      "secao": "legendados",
      "pagina": 135,
      "total_episodios": 13,
      "link_video": "https://animefire.plus/video/yagate-kimi-ni-naru"
    },
    {
      "id": 4182,
      "nome": "Yahari Ore no Seishun Love Comedy wa Machigatteiru.",
      "link": "https://animefire.plus/animes/yahari-ore-no-seishun-love-comedy-wa-machigatteiru-todos-os-episodios",
      "texto_original": "Yahari Ore no Seishun Love Comedy wa Machigatteiru.",
      "rating": 8.1,
      "classificacao_etaria": "A14",
      "imagem_original": "https://animefire.plus/img/animes/yahari-ore-no-seishun-love-comedy-wa-machigatteiru.webp",
      "imagem_pasta": "https://animefire.plus/img/animes/yahari-ore-no-seishun-love-comedy-wa-machigatteiru/",
      "secao": "legendados",
      "pagina": 122,
      "total_episodios": 13,
      "link_video": "https://animefire.plus/video/yahari-ore-no-seishun-love-comedy-wa-machigatteiru"
    },
    {
      "id": 4184,
      "nome": "Yahari Ore no Seishun Love Comedy wa Machigatteiru. Zoku",
      "link": "https://animefire.plus/animes/yahari-ore-no-seishun-love-comedy-wa-machigatteiru-zoku-todos-os-episodios",
      "texto_original": "Yahari Ore no Seishun Love Comedy wa Machigatteiru. Zoku",
      "rating": 8.29,
      "classificacao_etaria": "A14",
      "imagem_original": "https://animefire.plus/img/animes/yahari-ore-no-seishun-love-comedy-wa-machigatteiru-zoku.webp",
      "imagem_pasta": "https://animefire.plus/img/animes/yahari-ore-no-seishun-love-comedy-wa-machigatteiru-zoku/",
      "secao": "legendados",
      "pagina": 91,
      "total_episodios": 13,
      "link_video": "https://animefire.plus/video/yahari-ore-no-seishun-love-comedy-wa-machigatteiru-zoku"
    },
    {
      "id": 4186,
      "nome": "Yakitate!! Japan",
      "link": "https://animefire.plus/animes/yakitate-japan-todos-os-episodios",
      "texto_original": "Yakitate!! Japan",
      "rating": 8.01,
      "classificacao_etaria": "A14",
      "imagem_original": "https://animefire.plus/img/animes/yakitate-japan.webp",
      "imagem_pasta": "https://animefire.plus/img/animes/yakitate-japan/",
      "secao": "legendados",
      "pagina": 113,
      "total_episodios": 24,
      "link_video": "https://animefire.plus/video/yakitate-japan"
    },
    {
      "id": 4189,
      "nome": "Yakusoku no Neverland",
      "link": "https://animefire.plus/animes/yakusoku-no-neverland-todos-os-episodios",
      "texto_original": "Yakusoku no Neverland",
      "rating": 8.65,
      "classificacao_etaria": "A16",
      "imagem_original": "https://animefire.plus/img/animes/yakusoku-no-neverland.webp",
      "imagem_pasta": "https://animefire.plus/img/animes/yakusoku-no-neverland/",
      "secao": "legendados",
      "pagina": 165,
      "total_episodios": 6,
      "link_video": "https://animefire.plus/video/yakusoku-no-neverland"
    },
    {
      "id": 4240,
      "nome": "Yofukashi no Uta Season 2",
      "link": "https://animefire.plus/animes/yofukashi-no-uta-season-2-todos-os-episodios",
      "texto_original": "Yofukashi no Uta Season 2",
      "rating": 8.25,
      "classificacao_etaria": "A14",
      "imagem_original": "https://animefire.plus/img/animes/yofukashi-no-uta-season-2.webp",
      "imagem_pasta": "https://animefire.plus/img/animes/yofukashi-no-uta-season-2/",
      "secao": "legendados,lancamentos",
      "pagina": 1,
      "total_episodios": 5,
      "link_video": "https://animefire.plus/video/yofukashi-no-uta-season-2"
    },
    {
      "id": 4241,
      "nome": "Yojouhan Time Machine Blues",
      "link": "https://animefire.plus/animes/yojouhan-time-machine-blues-todos-os-episodios",
      "texto_original": "Yojouhan Time Machine Blues",
      "rating": 8.18,
      "classificacao_etaria": "A14",
      "imagem_original": "https://animefire.plus/img/animes/yojouhan-time-machine-blues.webp",
      "imagem_pasta": "https://animefire.plus/img/animes/yojouhan-time-machine-blues/",
      "secao": "legendados,lancamentos",
      "pagina": 28,
      "total_episodios": 4,
      "link_video": "https://animefire.plus/video/yojouhan-time-machine-blues"
    },
    {
      "id": 4252,
      "nome": "Youjo Senki (Dublado)",
      "link": "https://animefire.plus/animes/youjo-senki-dublado-todos-os-episodios",
      "texto_original": "Youjo Senki (Dublado)",
      "rating": 8.11,
      "classificacao_etaria": "A16",
      "imagem_original": "https://animefire.plus/img/animes/youjo-senki.webp",
      "imagem_pasta": "https://animefire.plus/img/animes/youjo-senki/",
      "secao": "dublados,legendados",
      "pagina": 26,
      "total_episodios": 12,
      "link_video": "https://animefire.plus/video/youjo-senki-dublado"
    },
    {
      "id": 4261,
      "nome": "Youkoso Jitsuryoku Shijou Shugi no Kyoushitsu e (TV) 2nd Season (Dublado)",
      "link": "https://animefire.plus/animes/youkoso-jitsuryoku-shijou-shugi-no-kyoushitsu-e-tv-2nd-season-dublado-todos-os-episodios",
      "texto_original": "Youkoso Jitsuryoku Shijou Shugi no Kyoushitsu e (TV) 2nd Season (Dublado)",
      "rating": 8.07,
      "classificacao_etaria": "A14",
      "imagem_original": "https://animefire.plus/img/animes/youkoso-jitsuryoku-shijou-shugi-no-kyoushitsu-e-tv-2nd-season.webp",
      "imagem_pasta": "https://animefire.plus/img/animes/youkoso-jitsuryoku-shijou-shugi-no-kyoushitsu-e-tv-2nd-season/",
      "secao": "dublados,legendados,lancamentos",
      "pagina": 10,
      "total_episodios": 13,
      "link_video": "https://animefire.plus/video/youkoso-jitsuryoku-shijou-shugi-no-kyoushitsu-e-tv-2nd-season-dublado"
    },
    {
      "id": 4262,
      "nome": "Youkoso Jitsuryoku Shijou Shugi no Kyoushitsu e 2nd Season (Dublado)",
      "link": "https://animefire.plus/animes/youkoso-jitsuryoku-shijou-shugi-no-kyoushitsu-e-2nd-season-dublado-todos-os-episodios",
      "texto_original": "Youkoso Jitsuryoku Shijou Shugi no Kyoushitsu e 2nd Season (Dublado)",
      "rating": 8.07,
      "classificacao_etaria": "A14",
      "imagem_original": "https://animefire.plus/img/animes/youkoso-jitsuryoku-shijou-shugi-no-kyoushitsu-e-2nd-season.webp",
      "imagem_pasta": "https://animefire.plus/img/animes/youkoso-jitsuryoku-shijou-shugi-no-kyoushitsu-e-2nd-season/",
      "secao": "dublados",
      "pagina": 8,
      "total_episodios": 13,
      "link_video": "https://animefire.plus/video/youkoso-jitsuryoku-shijou-shugi-no-kyoushitsu-e-2nd-season-dublado"
    },
    {
      "id": 4268,
      "nome": "Yowamushi Pedal",
      "link": "https://animefire.plus/animes/yowamushi-pedal-todos-os-episodios",
      "texto_original": "Yowamushi Pedal",
      "rating": 8.04,
      "classificacao_etaria": "A14",
      "imagem_original": "https://animefire.plus/img/animes/yowamushi-pedal.webp",
      "imagem_pasta": "https://animefire.plus/img/animes/yowamushi-pedal/",
      "secao": "legendados",
      "pagina": 63,
      "total_episodios": 38,
      "link_video": "https://animefire.plus/video/yowamushi-pedal"
    },
    {
      "id": 4269,
      "nome": "Yowamushi Pedal: Grande Road",
      "link": "https://animefire.plus/animes/yowamushi-pedal-grande-road-todos-os-episodios",
      "texto_original": "Yowamushi Pedal: Grande Road",
      "rating": 8.16,
      "classificacao_etaria": "A14",
      "imagem_original": "https://animefire.plus/img/animes/yowamushi-pedal-grande-road.webp",
      "imagem_pasta": "https://animefire.plus/img/animes/yowamushi-pedal-grande-road/",
      "secao": "legendados",
      "pagina": 76,
      "total_episodios": 24,
      "link_video": "https://animefire.plus/video/yowamushi-pedal-grande-road"
    },
    {
      "id": 4286,
      "nome": "Yubisaki to Renren",
      "link": "https://animefire.plus/animes/yubisaki-to-renren-todos-os-episodios",
      "texto_original": "Yubisaki to Renren",
      "rating": 8.2,
      "classificacao_etaria": "A14",
      "imagem_original": "https://animefire.plus/img/animes/yubisaki-to-renren.webp",
      "imagem_pasta": "https://animefire.plus/img/animes/yubisaki-to-renren/",
      "secao": "legendados",
      "pagina": 18,
      "total_episodios": 12,
      "link_video": "https://animefire.plus/video/yubisaki-to-renren"
    },
    {
      "id": 4289,
      "nome": "Yume-iro Pâtissière",
      "link": "https://animefire.plus/animes/yume-iro-patissiere-todos-os-episodios",
      "texto_original": "Yume-iro Pâtissière",
      "rating": 8.01,
      "classificacao_etaria": null,
      "imagem_original": "https://animefire.plus/img/animes/yume-iro-patissiere.webp",
      "imagem_pasta": "https://animefire.plus/img/animes/yume-iro-patissiere/",
      "secao": "legendados",
      "pagina": 144,
      "total_episodios": 50,
      "link_video": "https://animefire.plus/video/yume-iro-patissiere"
    },
    {
      "id": 4299,
      "nome": "Yuri!!! on Ice",
      "link": "https://animefire.plus/animes/yuri-on-ice-todos-os-episodios",
      "texto_original": "Yuri!!! on Ice",
      "rating": 8.11,
      "classificacao_etaria": "A14",
      "imagem_original": "https://animefire.plus/img/animes/yuri-on-ice.webp",
      "imagem_pasta": "https://animefire.plus/img/animes/yuri-on-ice/",
      "secao": "legendados",
      "pagina": 116,
      "total_episodios": 1,
      "link_video": "https://animefire.plus/video/yuri-on-ice"
    },
    {
      "id": 4300,
      "nome": "Yuru Camp△ (Dublado)",
      "link": "https://animefire.plus/animes/yuru-camp-dublado-todos-os-episodios",
      "texto_original": "Yuru Camp△ (Dublado)",
      "rating": 8.27,
      "classificacao_etaria": "A14",
      "imagem_original": "https://animefire.plus/img/animes/yuru-camp.webp",
      "imagem_pasta": "https://animefire.plus/img/animes/yuru-camp/",
      "secao": "dublados,legendados",
      "pagina": 11,
      "total_episodios": 12,
      "link_video": "https://animefire.plus/video/yuru-camp-dublado"
    },
    {
      "id": 4301,
      "nome": "Yuru Camp△ Season 2",
      "link": "https://animefire.plus/animes/yuru-camp-season-2-todos-os-episodios",
      "texto_original": "Yuru Camp△ Season 2",
      "rating": 8.5,
      "classificacao_etaria": "A14",
      "imagem_original": "https://animefire.plus/img/animes/yuru-camp-season-2.webp",
      "imagem_pasta": "https://animefire.plus/img/animes/yuru-camp-season-2/",
      "secao": "legendados",
      "pagina": 50,
      "total_episodios": 13,
      "link_video": "https://animefire.plus/video/yuru-camp-season-2"
    },
    {
      "id": 4302,
      "nome": "Yuru Camp△ Season 3 (Dublado)",
      "link": "https://animefire.plus/animes/yuru-camp-season-3-dublado-todos-os-episodios",
      "texto_original": "Yuru Camp△ Season 3 (Dublado)",
      "rating": 8.02,
      "classificacao_etaria": "A14",
      "imagem_original": "https://animefire.plus/img/animes/yuru-camp-season-3.webp",
      "imagem_pasta": "https://animefire.plus/img/animes/yuru-camp-season-3/",
      "secao": "dublados,legendados,lancamentos",
      "pagina": 2,
      "total_episodios": 12,
      "link_video": "https://animefire.plus/video/yuru-camp-season-3-dublado"
    },
    {
      "id": 4308,
      "nome": "Yuu☆Yuu☆Hakusho (Dublado)",
      "link": "https://animefire.plus/animes/yuu-yuu-hakusho-dublado-todos-os-episodios",
      "texto_original": "Yuu☆Yuu☆Hakusho (Dublado)",
      "rating": 8.45,
      "classificacao_etaria": "A14",
      "imagem_original": "https://animefire.plus/img/animes/yuu-yuu-hakusho.webp",
      "imagem_pasta": "https://animefire.plus/img/animes/yuu-yuu-hakusho/",
      "secao": "dublados,legendados",
      "pagina": 21,
      "total_episodios": 112,
      "link_video": "https://animefire.plus/video/yuu-yuu-hakusho-dublado"
    }
  ],
  "pagination": {
    "current_page": 27,
    "per_page": 20,
    "total_items": 547,
    "total_pages": 28,
    "has_next": true,
    "has_prev": true
  }
}
