{
  "message": "Animes com rating entre 8 e 9",
  "rating_range": {
    "min": 8,
    "max": 9
  },
  "data": [
    {
      "id": 3442,
      "nome": "Shingeki no Kyojin Season 2 (Dublado)",
      "link": "https://animefire.plus/animes/shingeki-no-kyojin-season-2-dublado-todos-os-episodios",
      "texto_original": "Shingeki no Kyojin Season 2 (Dublado)",
      "rating": 8.4,
      "classificacao_etaria": "A16",
      "imagem_original": "https://animefire.plus/img/animes/shingeki-no-kyojin-season-2.webp",
      "imagem_pasta": "https://animefire.plus/img/animes/shingeki-no-kyojin-season-2/",
      "secao": "dublados,legendados",
      "pagina": 19,
      "total_episodios": 12,
      "link_video": "https://animefire.plus/video/shingeki-no-kyojin-season-2-dublado"
    },
    {
      "id": 3443,
      "nome": "Shingeki no Kyojin Season 3 (Dublado)",
      "link": "https://animefire.plus/animes/shingeki-no-kyojin-season-3-dublado-todos-os-episodios",
      "texto_original": "Shingeki no Kyojin Season 3 (Dublado)",
      "rating": 8.54,
      "classificacao_etaria": "A16",
      "imagem_original": "https://animefire.plus/img/animes/shingeki-no-kyojin-season-3.webp",
      "imagem_pasta": "https://animefire.plus/img/animes/shingeki-no-kyojin-season-3/",
      "secao": "dublados,legendados",
      "pagina": 19,
      "total_episodios": 12,
      "link_video": "https://animefire.plus/video/shingeki-no-kyojin-season-3-dublado"
    },
    {
      "id": 3445,
      "nome": "Shingeki no Kyojin: Kuinaki Sentaku (Dublado)",
      "link": "https://animefire.plus/animes/shingeki-no-kyojin-kuinaki-sentaku-dublado-todos-os-episodios",
      "texto_original": "Shingeki no Kyojin: Kuinaki Sentaku (Dublado)",
      "rating": 8.41,
      "classificacao_etaria": "A16",
      "imagem_original": "https://animefire.plus/img/animes/shingeki-no-kyojin-kuinaki-sentaku.webp",
      "imagem_pasta": "https://animefire.plus/img/animes/shingeki-no-kyojin-kuinaki-sentaku/",
      "secao": "dublados,legendados",
      "pagina": 11,
      "total_episodios": 2,
      "link_video": "https://animefire.plus/video/shingeki-no-kyojin-kuinaki-sentaku-dublado"
    },
    {
      "id": 3447,
      "nome": "Shingeki no Kyojin: The Final Season - Kanketsu-hen",
      "link": "https://animefire.plus/animes/shingeki-no-kyojin-the-final-season-kanketsu-hen-todos-os-episodios",
      "texto_original": "Shingeki no Kyojin: The Final Season - Kanketsu-hen",
      "rating": 8.86,
      "classificacao_etaria": "A16",
      "imagem_original": "https://animefire.plus/img/animes/shingeki-no-kyojin-the-final-season-kanketsu-hen.jpg",
      "imagem_pasta": "https://animefire.plus/img/animes/shingeki-no-kyojin-the-final-season-kanketsu-hen/",
      "secao": "legendados",
      "pagina": 179,
      "total_episodios": 2,
      "link_video": "https://animefire.plus/video/shingeki-no-kyojin-the-final-season-kanketsu-hen"
    },
    {
      "id": 3448,
      "nome": "Shingeki no Kyojin: The Final Season - Kanketsu-hen (Dublado)",
      "link": "https://animefire.plus/animes/shingeki-no-kyojin-the-final-season---kanketsu-hen-dublado-todos-os-episodios",
      "texto_original": "Shingeki no Kyojin: The Final Season - Kanketsu-hen (Dublado)",
      "rating": 8.86,
      "classificacao_etaria": "A16",
      "imagem_original": "https://animefire.plus/img/animes/shingeki-no-kyojin-the-final-season---kanketsu-hen.webp",
      "imagem_pasta": "https://animefire.plus/img/animes/shingeki-no-kyojin-the-final-season---kanketsu-hen/",
      "secao": "dublados",
      "pagina": 28,
      "total_episodios": 1,
      "link_video": "https://animefire.plus/video/shingeki-no-kyojin-the-final-season---kanketsu-hen-dublado"
    },
    {
      "id": 3450,
      "nome": "Shingeki no Kyojin: The Final Season Part 2 (Dublado)",
      "link": "https://animefire.plus/animes/shingeki-no-kyojin-the-final-season-part-2-dublado-todos-os-episodios",
      "texto_original": "Shingeki no Kyojin: The Final Season Part 2 (Dublado)",
      "rating": 8.76,
      "classificacao_etaria": "A16",
      "imagem_original": "https://animefire.plus/img/animes/shingeki-no-kyojin-the-final-season-part-2.webp",
      "imagem_pasta": "https://animefire.plus/img/animes/shingeki-no-kyojin-the-final-season-part-2/",
      "secao": "dublados,legendados",
      "pagina": 12,
      "total_episodios": 12,
      "link_video": "https://animefire.plus/video/shingeki-no-kyojin-the-final-season-part-2-dublado"
    },
    {
      "id": 3455,
      "nome": "Shinigami Bocchan to Kuro Maid 3rd Season",
      "link": "https://animefire.plus/animes/shinigami-bocchan-to-kuro-maid-3rd-season-todos-os-episodios",
      "texto_original": "Shinigami Bocchan to Kuro Maid 3rd Season",
      "rating": 8.13,
      "classificacao_etaria": "A14",
      "imagem_original": "https://animefire.plus/img/animes/shinigami-bocchan-to-kuro-maid-3rd-season.webp",
      "imagem_pasta": "https://animefire.plus/img/animes/shinigami-bocchan-to-kuro-maid-3rd-season/",
      "secao": "legendados",
      "pagina": 15,
      "total_episodios": 12,
      "link_video": "https://animefire.plus/video/shinigami-bocchan-to-kuro-maid-3rd-season"
    },
    {
      "id": 3474,
      "nome": "Shinsekai Yori",
      "link": "https://animefire.plus/animes/shinsekai-yori-todos-os-episodios",
      "texto_original": "Shinsekai Yori",
      "rating": 8.42,
      "classificacao_etaria": "A16",
      "imagem_original": "https://animefire.plus/img/animes/shinsekai-yori.webp",
      "imagem_pasta": "https://animefire.plus/img/animes/shinsekai-yori/",
      "secao": "legendados",
      "pagina": 104,
      "total_episodios": 0,
      "link_video": "https://animefire.plus/video/shinsekai-yori"
    },
    {
      "id": 3478,
      "nome": "Shirobako",
      "link": "https://animefire.plus/animes/shirobako-todos-os-episodios",
      "texto_original": "Shirobako",
      "rating": 8.41,
      "classificacao_etaria": "A14",
      "imagem_original": "https://animefire.plus/img/animes/shirobako.webp",
      "imagem_pasta": "https://animefire.plus/img/animes/shirobako/",
      "secao": "legendados",
      "pagina": 97,
      "total_episodios": 21,
      "link_video": "https://animefire.plus/video/shirobako"
    },
    {
      "id": 3487,
      "nome": "Shokugeki no Souma (Dublado)",
      "link": "https://animefire.plus/animes/shokugeki-no-souma-dublado-todos-os-episodios",
      "texto_original": "Shokugeki no Souma (Dublado)",
      "rating": 8.33,
      "classificacao_etaria": "A14",
      "imagem_original": "https://animefire.plus/img/animes/shokugeki-no-souma.webp",
      "imagem_pasta": "https://animefire.plus/img/animes/shokugeki-no-souma/",
      "secao": "dublados,legendados",
      "pagina": 19,
      "total_episodios": 24,
      "link_video": "https://animefire.plus/video/shokugeki-no-souma-dublado"
    },
    {
      "id": 3490,
      "nome": "Shokugeki no Souma: Ni no Sara (Dublado)",
      "link": "https://animefire.plus/animes/shokugeki-no-souma-ni-no-sara-dublado-todos-os-episodios",
      "texto_original": "Shokugeki no Souma: Ni no Sara (Dublado)",
      "rating": 8.25,
      "classificacao_etaria": "A14",
      "imagem_original": "https://animefire.plus/img/animes/shokugeki-no-souma-ni-no-sara.webp",
      "imagem_pasta": "https://animefire.plus/img/animes/shokugeki-no-souma-ni-no-sara/",
      "secao": "dublados,legendados",
      "pagina": 19,
      "total_episodios": 13,
      "link_video": "https://animefire.plus/video/shokugeki-no-souma-ni-no-sara-dublado"
    },
    {
      "id": 3492,
      "nome": "Shokugeki no Souma: San no Sara",
      "link": "https://animefire.plus/animes/shokugeki-no-souma-san-no-sara-todos-os-episodios",
      "texto_original": "Shokugeki no Souma: San no Sara",
      "rating": 8.41,
      "classificacao_etaria": "A14",
      "imagem_original": "https://animefire.plus/img/animes/shokugeki-no-souma-san-no-sara.webp",
      "imagem_pasta": "https://animefire.plus/img/animes/shokugeki-no-souma-san-no-sara/",
      "secao": "legendados",
      "pagina": 166,
      "total_episodios": 2,
      "link_video": "https://animefire.plus/video/shokugeki-no-souma-san-no-sara"
    },
    {
      "id": 3494,
      "nome": "Shokugeki no Souma: San no Sara - Tootsuki Ressha-hen",
      "link": "https://animefire.plus/animes/shokugeki-no-souma-san-no-sara---tootsuki-ressha-hen-todos-os-episodios",
      "texto_original": "Shokugeki no Souma: San no Sara - Tootsuki Ressha-hen",
      "rating": 8.35,
      "classificacao_etaria": "A14",
      "imagem_original": "https://animefire.plus/img/animes/shokugeki-no-souma-san-no-sara---tootsuki-ressha-hen.webp",
      "imagem_pasta": "https://animefire.plus/img/animes/shokugeki-no-souma-san-no-sara---tootsuki-ressha-hen/",
      "secao": "legendados",
      "pagina": 122,
      "total_episodios": 0,
      "link_video": "https://animefire.plus/video/shokugeki-no-souma-san-no-sara---tootsuki-ressha-hen"
    },
    {
      "id": 3498,
      "nome": "Shoujo Kakumei Utena",
      "link": "https://animefire.plus/animes/shoujo-kakumei-utena-todos-os-episodios",
      "texto_original": "Shoujo Kakumei Utena",
      "rating": 8.19,
      "classificacao_etaria": "A14",
      "imagem_original": "https://animefire.plus/img/animes/shoujo-kakumei-utena.webp",
      "imagem_pasta": "https://animefire.plus/img/animes/shoujo-kakumei-utena/",
      "secao": "legendados",
      "pagina": 72,
      "total_episodios": 39,
      "link_video": "https://animefire.plus/video/shoujo-kakumei-utena"
    },
    {
      "id": 3499,
      "nome": "Shoujo Shuumatsu Ryokou",
      "link": "https://animefire.plus/animes/shoujo-shuumatsu-ryokou-todos-os-episodios",
      "texto_original": "Shoujo Shuumatsu Ryokou",
      "rating": 8.19,
      "classificacao_etaria": "A14",
      "imagem_original": "https://animefire.plus/img/animes/shoujo-shuumatsu-ryokou.webp",
      "imagem_pasta": "https://animefire.plus/img/animes/shoujo-shuumatsu-ryokou/",
      "secao": "legendados",
      "pagina": 145,
      "total_episodios": 12,
      "link_video": "https://animefire.plus/video/shoujo-shuumatsu-ryokou"
    },
    {
      "id": 3509,
      "nome": "Shoushimin Series 2nd Season",
      "link": "https://animefire.plus/animes/shoushimin-series-2nd-season-todos-os-episodios",
      "texto_original": "Shoushimin Series 2nd Season",
      "rating": 8.06,
      "classificacao_etaria": "A14",
      "imagem_original": "https://animefire.plus/img/animes/shoushimin-series-2nd-season.webp",
      "imagem_pasta": "https://animefire.plus/img/animes/shoushimin-series-2nd-season/",
      "secao": "legendados",
      "pagina": 5,
      "total_episodios": 12,
      "link_video": "https://animefire.plus/video/shoushimin-series-2nd-season"
    },
    {
      "id": 3510,
      "nome": "Shouwa Genroku Rakugo Shinjuu",
      "link": "https://animefire.plus/animes/shouwa-genroku-rakugo-shinjuu-todos-os-episodios",
      "texto_original": "Shouwa Genroku Rakugo Shinjuu",
      "rating": 8.6,
      "classificacao_etaria": "A14",
      "imagem_original": "https://animefire.plus/img/animes/shouwa-genroku-rakugo-shinjuu.webp",
      "imagem_pasta": "https://animefire.plus/img/animes/shouwa-genroku-rakugo-shinjuu/",
      "secao": "legendados",
      "pagina": 102,
      "total_episodios": 13,
      "link_video": "https://animefire.plus/video/shouwa-genroku-rakugo-shinjuu"
    },
    {
      "id": 3511,
      "nome": "Shouwa Genroku Rakugo Shinjuu: Sukeroku Futatabi-hen",
      "link": "https://animefire.plus/animes/shouwa-genroku-rakugo-shinjuu-sukeroku-futatabi-hen-todos-os-episodios",
      "texto_original": "Shouwa Genroku Rakugo Shinjuu: Sukeroku Futatabi-hen",
      "rating": 8.81,
      "classificacao_etaria": "A14",
      "imagem_original": "https://animefire.plus/img/animes/shouwa-genroku-rakugo-shinjuu-sukeroku-futatabi-hen.webp",
      "imagem_pasta": "https://animefire.plus/img/animes/shouwa-genroku-rakugo-shinjuu-sukeroku-futatabi-hen/",
      "secao": "legendados",
      "pagina": 65,
      "total_episodios": 12,
      "link_video": "https://animefire.plus/video/shouwa-genroku-rakugo-shinjuu-sukeroku-futatabi-hen"
    },
    {
      "id": 3540,
      "nome": "SK∞ (Dublado)",
      "link": "https://animefire.plus/animes/sk-dublado-todos-os-episodios",
      "texto_original": "SK∞ (Dublado)",
      "rating": 8,
      "classificacao_etaria": "A14",
      "imagem_original": "https://animefire.plus/img/animes/sk.webp",
      "imagem_pasta": "https://animefire.plus/img/animes/sk/",
      "secao": "dublados",
      "pagina": 15,
      "total_episodios": 12,
      "link_video": "https://animefire.plus/video/sk-dublado"
    },
    {
      "id": 3542,
      "nome": "SKET Dance",
      "link": "https://animefire.plus/animes/sket-dance-todos-os-episodios",
      "texto_original": "SKET Dance",
      "rating": 8.28,
      "classificacao_etaria": "A14",
      "imagem_original": "https://animefire.plus/img/animes/sket-dance.webp",
      "imagem_pasta": "https://animefire.plus/img/animes/sket-dance/",
      "secao": "legendados",
      "pagina": 75,
      "total_episodios": 77,
      "link_video": "https://animefire.plus/video/sket-dance"
    }
  ],
  "pagination": {
    "current_page": 23,
    "per_page": 20,
    "total_items": 547,
    "total_pages": 28,
    "has_next": true,
    "has_prev": true
  }
}
