{
  "message": "Animes com 1 a 1 episódios",
  "episode_range": {
    "min": 1,
    "max": 1
  },
  "data": [
    {
      "id": 2902,
      "nome": "Osake wa Fuufu ni Natte kara: Yuzu Atsukan",
      "link": "https://animefire.plus/animes/osake-wa-fuufu-ni-natte-kara-yuzu-atsukan-todos-os-episodios",
      "texto_original": "Osake wa Fuufu ni Natte kara: Yuzu Atsukan",
      "rating": 7.03,
      "classificacao_etaria": "A14",
      "imagem_original": "https://animefire.plus/img/animes/osake-wa-fuufu-ni-natte-kara-yuzu-atsukan.webp",
      "imagem_pasta": "https://animefire.plus/img/animes/osake-wa-fuufu-ni-natte-kara-yuzu-atsukan/",
      "secao": "legendados",
      "pagina": 89,
      "total_episodios": 1,
      "link_video": "https://animefire.plus/video/osake-wa-fuufu-ni-natte-kara-yuzu-atsukan"
    },
    {
      "id": 2911,
      "nome": "Osomatsu-san: Ouma de Kobanashi",
      "link": "https://animefire.plus/animes/osomatsu-san-ouma-de-kobanashi-todos-os-episodios",
      "texto_original": "Osomatsu-san: Ouma de Kobanashi",
      "rating": 7.31,
      "classificacao_etaria": "A16",
      "imagem_original": "https://animefire.plus/img/animes/osomatsu-san-ouma-de-kobanashi.webp",
      "imagem_pasta": "https://animefire.plus/img/animes/osomatsu-san-ouma-de-kobanashi/",
      "secao": "legendados",
      "pagina": 89,
      "total_episodios": 1,
      "link_video": "https://animefire.plus/video/osomatsu-san-ouma-de-kobanashi"
    },
    {
      "id": 2915,
      "nome": "Otome Game no Hametsu Flag shika Nai Akuyaku Reijou ni Tensei shiteshimatta... OVA",
      "link": "https://animefire.plus/animes/otome-game-no-hametsu-flag-shika-nai-akuyaku-reijou-ni-tensei-shiteshimatta-ova-todos-os-episodios",
      "texto_original": "Otome Game no Hametsu Flag shika Nai Akuyaku Reijou ni Tensei shiteshimatta... OVA",
      "rating": 6.87,
      "classificacao_etaria": "A14",
      "imagem_original": "https://animefire.plus/img/animes/otome-game-no-hametsu-flag-shika-nai-akuyaku-reijou-ni-tensei-shiteshimatta-ova.webp",
      "imagem_pasta": "https://animefire.plus/img/animes/otome-game-no-hametsu-flag-shika-nai-akuyaku-reijou-ni-tensei-shiteshimatta-ova/",
      "secao": "legendados",
      "pagina": 36,
      "total_episodios": 1,
      "link_video": "https://animefire.plus/video/otome-game-no-hametsu-flag-shika-nai-akuyaku-reijou-ni-tensei-shiteshimatta-ova"
    },
    {
      "id": 2927,
      "nome": "Ouritsu Uchuugun: Honneamise no Tsubasa Pilot",
      "link": "https://animefire.plus/animes/ouritsu-uchuugun-honneamise-no-tsubasa-pilot-todos-os-episodios",
      "texto_original": "Ouritsu Uchuugun: Honneamise no Tsubasa Pilot",
      "rating": 6.05,
      "classificacao_etaria": "A14",
      "imagem_original": "https://animefire.plus/img/animes/ouritsu-uchuugun-honneamise-no-tsubasa-pilot.webp",
      "imagem_pasta": "https://animefire.plus/img/animes/ouritsu-uchuugun-honneamise-no-tsubasa-pilot/",
      "secao": "legendados",
      "pagina": 85,
      "total_episodios": 1,
      "link_video": "https://animefire.plus/video/ouritsu-uchuugun-honneamise-no-tsubasa-pilot"
    },
    {
      "id": 2940,
      "nome": "Owari no Seraph: Kyuuketsuki Shahar",
      "link": "https://animefire.plus/animes/owari-no-seraph-kyuuketsuki-shahar-todos-os-episodios",
      "texto_original": "Owari no Seraph: Kyuuketsuki Shahar",
      "rating": 7.18,
      "classificacao_etaria": "A16",
      "imagem_original": "https://animefire.plus/img/animes/owari-no-seraph-kyuuketsuki-shahar.webp",
      "imagem_pasta": "https://animefire.plus/img/animes/owari-no-seraph-kyuuketsuki-shahar/",
      "secao": "legendados",
      "pagina": 67,
      "total_episodios": 1,
      "link_video": "https://animefire.plus/video/owari-no-seraph-kyuuketsuki-shahar"
    },
    {
      "id": 2972,
      "nome": "Phantasy Star Online 2 The Animation",
      "link": "https://animefire.plus/animes/phantasy-star-online-2-the-animation-todos-os-episodios",
      "texto_original": "Phantasy Star Online 2 The Animation",
      "rating": 6.43,
      "classificacao_etaria": "A14",
      "imagem_original": "https://animefire.plus/img/animes/phantasy-star-online-2-the-animation.webp",
      "imagem_pasta": "https://animefire.plus/img/animes/phantasy-star-online-2-the-animation/",
      "secao": "legendados",
      "pagina": 165,
      "total_episodios": 1,
      "link_video": "https://animefire.plus/video/phantasy-star-online-2-the-animation"
    },
    {
      "id": 2973,
      "nome": "Phantasy Star Online 2: Episode Oracle",
      "link": "https://animefire.plus/animes/phantasy-star-online-2-episode-oracle-todos-os-episodios",
      "texto_original": "Phantasy Star Online 2: Episode Oracle",
      "rating": 6.55,
      "classificacao_etaria": "A14",
      "imagem_original": "https://animefire.plus/img/animes/phantasy-star-online-2-episode-oracle.webp",
      "imagem_pasta": "https://animefire.plus/img/animes/phantasy-star-online-2-episode-oracle/",
      "secao": "legendados",
      "pagina": 110,
      "total_episodios": 1,
      "link_video": "https://animefire.plus/video/phantasy-star-online-2-episode-oracle"
    },
    {
      "id": 2990,
      "nome": "Plastic Little",
      "link": "https://animefire.plus/animes/plastic-little-todos-os-episodios",
      "texto_original": "Plastic Little",
      "rating": 6.17,
      "classificacao_etaria": "A18",
      "imagem_original": "https://animefire.plus/img/animes/plastic-little.webp",
      "imagem_pasta": "https://animefire.plus/img/animes/plastic-little/",
      "secao": "legendados",
      "pagina": 66,
      "total_episodios": 1,
      "link_video": "https://animefire.plus/video/plastic-little"
    },
    {
      "id": 2992,
      "nome": "Plastic Neesan",
      "link": "https://animefire.plus/animes/plastic-neesan-todos-os-episodios",
      "texto_original": "Plastic Neesan",
      "rating": 7.29,
      "classificacao_etaria": "A14",
      "imagem_original": "https://animefire.plus/img/animes/plastic-neesan.webp",
      "imagem_pasta": "https://animefire.plus/img/animes/plastic-neesan/",
      "secao": "legendados",
      "pagina": 67,
      "total_episodios": 1,
      "link_video": "https://animefire.plus/video/plastic-neesan"
    },
    {
      "id": 2997,
      "nome": "Pokemon (2019): Harukanaru Aoi Sora (Dublado)",
      "link": "https://animefire.plus/animes/pokemon-2019-harukanaru-aoi-sora-dublado-todos-os-episodios",
      "texto_original": "Pokemon (2019): Harukanaru Aoi Sora (Dublado)",
      "rating": 7.26,
      "classificacao_etaria": "A10",
      "imagem_original": "https://animefire.plus/img/animes/pokemon-2019-harukanaru-aoi-sora.webp",
      "imagem_pasta": "https://animefire.plus/img/animes/pokemon-2019-harukanaru-aoi-sora/",
      "secao": "dublados",
      "pagina": 3,
      "total_episodios": 1,
      "link_video": "https://animefire.plus/video/pokemon-2019-harukanaru-aoi-sora-dublado"
    },
    {
      "id": 2998,
      "nome": "Pokemon (2019): Kami to Yobareshi Arceus (Dublado)",
      "link": "https://animefire.plus/animes/pokemon-2019-kami-to-yobareshi-arceus-dublado-todos-os-episodios",
      "texto_original": "Pokemon (2019): Kami to Yobareshi Arceus (Dublado)",
      "rating": 6.67,
      "classificacao_etaria": "A10",
      "imagem_original": "https://animefire.plus/img/animes/pokemon-2019-kami-to-yobareshi-arceus.webp",
      "imagem_pasta": "https://animefire.plus/img/animes/pokemon-2019-kami-to-yobareshi-arceus/",
      "secao": "dublados,legendados",
      "pagina": 9,
      "total_episodios": 1,
      "link_video": "https://animefire.plus/video/pokemon-2019-kami-to-yobareshi-arceus-dublado"
    },
    {
      "id": 3015,
      "nome": "Pops",
      "link": "https://animefire.plus/animes/pops-todos-os-episodios",
      "texto_original": "Pops",
      "rating": 5.61,
      "classificacao_etaria": "A14",
      "imagem_original": "https://animefire.plus/img/animes/pops.webp",
      "imagem_pasta": "https://animefire.plus/img/animes/pops/",
      "secao": "legendados",
      "pagina": 85,
      "total_episodios": 1,
      "link_video": "https://animefire.plus/video/pops"
    },
    {
      "id": 3021,
      "nome": "Precure All Stars DX the Dance Live♥: Miracle Dance Stage e Youkoso",
      "link": "https://animefire.plus/animes/precure-all-stars-dx-the-dance-live-miracle-dance-stage-e-youkoso-todos-os-episodios",
      "texto_original": "Precure All Stars DX the Dance Live♥: Miracle Dance Stage e Youkoso",
      "rating": 6.96,
      "classificacao_etaria": null,
      "imagem_original": "https://animefire.plus/img/animes/precure-all-stars-dx-the-dance-live-miracle-dance-stage-e-youkoso.webp",
      "imagem_pasta": "https://animefire.plus/img/animes/precure-all-stars-dx-the-dance-live-miracle-dance-stage-e-youkoso/",
      "secao": "legendados",
      "pagina": 76,
      "total_episodios": 1,
      "link_video": "https://animefire.plus/video/precure-all-stars-dx-the-dance-live-miracle-dance-stage-e-youkoso"
    },
    {
      "id": 3022,
      "nome": "Precure All Stars GoGo Dream Live!",
      "link": "https://animefire.plus/animes/precure-all-stars-gogo-dream-live-todos-os-episodios",
      "texto_original": "Precure All Stars GoGo Dream Live!",
      "rating": 6.85,
      "classificacao_etaria": null,
      "imagem_original": "https://animefire.plus/img/animes/precure-all-stars-gogo-dream-live.webp",
      "imagem_pasta": "https://animefire.plus/img/animes/precure-all-stars-gogo-dream-live/",
      "secao": "legendados",
      "pagina": 76,
      "total_episodios": 1,
      "link_video": "https://animefire.plus/video/precure-all-stars-gogo-dream-live"
    },
    {
      "id": 3025,
      "nome": "Princess Connect! Re:Dive",
      "link": "https://animefire.plus/animes/princess-connect-re-dive-todos-os-episodios",
      "texto_original": "Princess Connect! Re:Dive",
      "rating": 7.06,
      "classificacao_etaria": "A14",
      "imagem_original": "https://animefire.plus/img/animes/princess-connect-re-dive.webp",
      "imagem_pasta": "https://animefire.plus/img/animes/princess-connect-re-dive/",
      "secao": "legendados",
      "pagina": 81,
      "total_episodios": 1,
      "link_video": "https://animefire.plus/video/princess-connect-re-dive"
    },
    {
      "id": 3028,
      "nome": "Princess Minerva",
      "link": "https://animefire.plus/animes/princess-minerva-todos-os-episodios",
      "texto_original": "Princess Minerva",
      "rating": 5.58,
      "classificacao_etaria": "A18",
      "imagem_original": "https://animefire.plus/img/animes/princess-minerva.webp",
      "imagem_pasta": "https://animefire.plus/img/animes/princess-minerva/",
      "secao": "legendados",
      "pagina": 69,
      "total_episodios": 1,
      "link_video": "https://animefire.plus/video/princess-minerva"
    },
    {
      "id": 3035,
      "nome": "Prism Magical: Prism Generations!",
      "link": "https://animefire.plus/animes/prism-magical-prism-generations-todos-os-episodios",
      "texto_original": "Prism Magical: Prism Generations!",
      "rating": 5.16,
      "classificacao_etaria": "A18",
      "imagem_original": "https://animefire.plus/img/animes/prism-magical-prism-generations.webp",
      "imagem_pasta": "https://animefire.plus/img/animes/prism-magical-prism-generations/",
      "secao": "legendados",
      "pagina": 82,
      "total_episodios": 1,
      "link_video": "https://animefire.plus/video/prism-magical-prism-generations"
    },
    {
      "id": 3040,
      "nome": "Psycho-Pass",
      "link": "https://animefire.plus/animes/psycho-pass-todos-os-episodios",
      "texto_original": "Psycho-Pass",
      "rating": 8.42,
      "classificacao_etaria": "A16",
      "imagem_original": "https://animefire.plus/img/animes/psycho-pass.webp",
      "imagem_pasta": "https://animefire.plus/img/animes/psycho-pass/",
      "secao": "legendados",
      "pagina": 113,
      "total_episodios": 1,
      "link_video": "https://animefire.plus/video/psycho-pass"
    },
    {
      "id": 3071,
      "nome": "Rain Town",
      "link": "https://animefire.plus/animes/rain-town-todos-os-episodios",
      "texto_original": "Rain Town",
      "rating": 7.22,
      "classificacao_etaria": null,
      "imagem_original": "https://animefire.plus/img/animes/rain-town.webp",
      "imagem_pasta": "https://animefire.plus/img/animes/rain-town/",
      "secao": "legendados",
      "pagina": 69,
      "total_episodios": 1,
      "link_video": "https://animefire.plus/video/rain-town"
    },
    {
      "id": 3091,
      "nome": "Re:Zero kara Hajimeru Isekai Seikatsu - Memory Snow",
      "link": "https://animefire.plus/animes/re-zero-kara-hajimeru-isekai-seikatsu---memory-snow-todos-os-episodios",
      "texto_original": "Re:Zero kara Hajimeru Isekai Seikatsu - Memory Snow",
      "rating": 7.65,
      "classificacao_etaria": "A14",
      "imagem_original": "https://animefire.plus/img/animes/re-zero-kara-hajimeru-isekai-seikatsu---memory-snow.webp",
      "imagem_pasta": "https://animefire.plus/img/animes/re-zero-kara-hajimeru-isekai-seikatsu---memory-snow/",
      "secao": "legendados",
      "pagina": 98,
      "total_episodios": 1,
      "link_video": "https://animefire.plus/video/re-zero-kara-hajimeru-isekai-seikatsu---memory-snow"
    }
  ],
  "pagination": {
    "current_page": 17,
    "per_page": 20,
    "total_items": 465,
    "total_pages": 24,
    "has_next": true,
    "has_prev": true
  }
}
