{
  "message": "Animes com 1 a 1 episódios",
  "episode_range": {
    "min": 1,
    "max": 1
  },
  "data": [
    {
      "id": 1858,
      "nome": "Kamisama Minarai: Himitsu no Cocotama",
      "link": "https://animefire.plus/animes/kamisama-minarai-himitsu-no-cocotama-todos-os-episodios",
      "texto_original": "Kamisama Minarai: Himitsu no Cocotama",
      "rating": 6.24,
      "classificacao_etaria": "A10",
      "imagem_original": "https://animefire.plus/img/animes/kamisama-minarai-himitsu-no-cocotama.webp",
      "imagem_pasta": "https://animefire.plus/img/animes/kamisama-minarai-himitsu-no-cocotama/",
      "secao": "legendados",
      "pagina": 133,
      "total_episodios": 1,
      "link_video": "https://animefire.plus/video/kamisama-minarai-himitsu-no-cocotama"
    },
    {
      "id": 1871,
      "nome": "Kandagawa Jet Girls OVA",
      "link": "https://animefire.plus/animes/kandagawa-jet-girls-ova-todos-os-episodios",
      "texto_original": "Kandagawa Jet Girls OVA",
      "rating": 5.6,
      "classificacao_etaria": "A14",
      "imagem_original": "https://animefire.plus/img/animes/kandagawa-jet-girls-ova.webp",
      "imagem_pasta": "https://animefire.plus/img/animes/kandagawa-jet-girls-ova/",
      "secao": "legendados",
      "pagina": 69,
      "total_episodios": 1,
      "link_video": "https://animefire.plus/video/kandagawa-jet-girls-ova"
    },
    {
      "id": 1872,
      "nome": "Kandagawa Jet Girls Recap",
      "link": "https://animefire.plus/animes/kandagawa-jet-girls-recap-todos-os-episodios",
      "texto_original": "Kandagawa Jet Girls Recap",
      "rating": 5.27,
      "classificacao_etaria": "A14",
      "imagem_original": "https://animefire.plus/img/animes/kandagawa-jet-girls-recap.webp",
      "imagem_pasta": "https://animefire.plus/img/animes/kandagawa-jet-girls-recap/",
      "secao": "legendados",
      "pagina": 86,
      "total_episodios": 1,
      "link_video": "https://animefire.plus/video/kandagawa-jet-girls-recap"
    },
    {
      "id": 1888,
      "nome": "Kanon Kazahana",
      "link": "https://animefire.plus/animes/kanon-kazahana-todos-os-episodios",
      "texto_original": "Kanon Kazahana",
      "rating": 6.77,
      "classificacao_etaria": null,
      "imagem_original": "https://animefire.plus/img/animes/kanon-kazahana.webp",
      "imagem_pasta": "https://animefire.plus/img/animes/kanon-kazahana/",
      "secao": "legendados",
      "pagina": 77,
      "total_episodios": 1,
      "link_video": "https://animefire.plus/video/kanon-kazahana"
    },
    {
      "id": 1892,
      "nome": "Kara no Kyoukai 8: Shuushou",
      "link": "https://animefire.plus/animes/kara-no-kyoukai-8-shuushou-todos-os-episodios",
      "texto_original": "Kara no Kyoukai 8: Shuushou",
      "rating": 7.22,
      "classificacao_etaria": "A14",
      "imagem_original": "https://animefire.plus/img/animes/kara-no-kyoukai-8-shuushou.webp",
      "imagem_pasta": "https://animefire.plus/img/animes/kara-no-kyoukai-8-shuushou/",
      "secao": "legendados",
      "pagina": 77,
      "total_episodios": 1,
      "link_video": "https://animefire.plus/video/kara-no-kyoukai-8-shuushou"
    },
    {
      "id": 1896,
      "nome": "Karakuri Circus (TV)",
      "link": "https://animefire.plus/animes/karakuri-circus-tv-todos-os-episodios",
      "texto_original": "Karakuri Circus (TV)",
      "rating": 7.09,
      "classificacao_etaria": "A14",
      "imagem_original": "https://animefire.plus/img/animes/karakuri-circus-tv.webp",
      "imagem_pasta": "https://animefire.plus/img/animes/karakuri-circus-tv/",
      "secao": "legendados",
      "pagina": 40,
      "total_episodios": 1,
      "link_video": "https://animefire.plus/video/karakuri-circus-tv"
    },
    {
      "id": 1909,
      "nome": "Katsugeki Shoujo Tanteidan",
      "link": "https://animefire.plus/animes/katsugeki-shoujo-tanteidan-todos-os-episodios",
      "texto_original": "Katsugeki Shoujo Tanteidan",
      "rating": 4.81,
      "classificacao_etaria": null,
      "imagem_original": "https://animefire.plus/img/animes/katsugeki-shoujo-tanteidan.webp",
      "imagem_pasta": "https://animefire.plus/img/animes/katsugeki-shoujo-tanteidan/",
      "secao": "legendados",
      "pagina": 72,
      "total_episodios": 1,
      "link_video": "https://animefire.plus/video/katsugeki-shoujo-tanteidan"
    },
    {
      "id": 1913,
      "nome": "Katte ni Shirokuma",
      "link": "https://animefire.plus/animes/katte-ni-shirokuma-todos-os-episodios",
      "texto_original": "Katte ni Shirokuma",
      "rating": 5.64,
      "classificacao_etaria": "A18",
      "imagem_original": "https://animefire.plus/img/animes/katte-ni-shirokuma.webp",
      "imagem_pasta": "https://animefire.plus/img/animes/katte-ni-shirokuma/",
      "secao": "legendados",
      "pagina": 86,
      "total_episodios": 1,
      "link_video": "https://animefire.plus/video/katte-ni-shirokuma"
    },
    {
      "id": 1919,
      "nome": "Kaze no Matasaburou (Movie)",
      "link": "https://animefire.plus/animes/kaze-no-matasaburou-movie-todos-os-episodios",
      "texto_original": "Kaze no Matasaburou (Movie)",
      "rating": 6.15,
      "classificacao_etaria": null,
      "imagem_original": "https://animefire.plus/img/animes/kaze-no-matasaburou-movie.webp",
      "imagem_pasta": "https://animefire.plus/img/animes/kaze-no-matasaburou-movie/",
      "secao": "legendados",
      "pagina": 86,
      "total_episodios": 1,
      "link_video": "https://animefire.plus/video/kaze-no-matasaburou-movie"
    },
    {
      "id": 1922,
      "nome": "Keifuku-san",
      "link": "https://animefire.plus/animes/keifuku-san-todos-os-episodios",
      "texto_original": "Keifuku-san",
      "rating": 5.98,
      "classificacao_etaria": null,
      "imagem_original": "https://animefire.plus/img/animes/keifuku-san.webp",
      "imagem_pasta": "https://animefire.plus/img/animes/keifuku-san/",
      "secao": "legendados",
      "pagina": 65,
      "total_episodios": 1,
      "link_video": "https://animefire.plus/video/keifuku-san"
    },
    {
      "id": 1923,
      "nome": "Keijo!!!!!!!!",
      "link": "https://animefire.plus/animes/keijo-todos-os-episodios",
      "texto_original": "Keijo!!!!!!!!",
      "rating": 7.24,
      "classificacao_etaria": "A14",
      "imagem_original": "https://animefire.plus/img/animes/keijo.webp",
      "imagem_pasta": "https://animefire.plus/img/animes/keijo/",
      "secao": "legendados",
      "pagina": 154,
      "total_episodios": 1,
      "link_video": "https://animefire.plus/video/keijo"
    },
    {
      "id": 1926,
      "nome": "Keishichou Tokumubu Tokushu Kyouakuhan Taisakushitsu Dainanaka: Tokunana OVA",
      "link": "https://animefire.plus/animes/keishichou-tokumubu-tokushu-kyouakuhan-taisakushitsu-dainanaka-tokunana-ova-todos-os-episodios",
      "texto_original": "Keishichou Tokumubu Tokushu Kyouakuhan Taisakushitsu Dainanaka: Tokunana OVA",
      "rating": 6.03,
      "classificacao_etaria": null,
      "imagem_original": "https://animefire.plus/img/animes/keishichou-tokumubu-tokushu-kyouakuhan-taisakushitsu-dainanaka-tokunana-ova.webp",
      "imagem_pasta": "https://animefire.plus/img/animes/keishichou-tokumubu-tokushu-kyouakuhan-taisakushitsu-dainanaka-tokunana-ova/",
      "secao": "legendados",
      "pagina": 57,
      "total_episodios": 1,
      "link_video": "https://animefire.plus/video/keishichou-tokumubu-tokushu-kyouakuhan-taisakushitsu-dainanaka-tokunana-ova"
    },
    {
      "id": 1930,
      "nome": "Kekkai Sensen: Ousama no Restaurant no Ousama",
      "link": "https://animefire.plus/animes/kekkai-sensen-ousama-no-restaurant-no-ousama-todos-os-episodios",
      "texto_original": "Kekkai Sensen: Ousama no Restaurant no Ousama",
      "rating": 7.43,
      "classificacao_etaria": "A16",
      "imagem_original": "https://animefire.plus/img/animes/kekkai-sensen-ousama-no-restaurant-no-ousama.webp",
      "imagem_pasta": "https://animefire.plus/img/animes/kekkai-sensen-ousama-no-restaurant-no-ousama/",
      "secao": "legendados",
      "pagina": 86,
      "total_episodios": 1,
      "link_video": "https://animefire.plus/video/kekkai-sensen-ousama-no-restaurant-no-ousama"
    },
    {
      "id": 1949,
      "nome": "Kennel Tokorozawa",
      "link": "https://animefire.plus/animes/kennel-tokorozawa-todos-os-episodios",
      "texto_original": "Kennel Tokorozawa",
      "rating": 4.44,
      "classificacao_etaria": "A18",
      "imagem_original": "https://animefire.plus/img/animes/kennel-tokorozawa.webp",
      "imagem_pasta": "https://animefire.plus/img/animes/kennel-tokorozawa/",
      "secao": "legendados",
      "pagina": 71,
      "total_episodios": 1,
      "link_video": "https://animefire.plus/video/kennel-tokorozawa"
    },
    {
      "id": 1984,
      "nome": "Kimi ni Todoke 2nd Season",
      "link": "https://animefire.plus/animes/kimi-ni-todoke-2nd-season-todos-os-episodios",
      "texto_original": "Kimi ni Todoke 2nd Season",
      "rating": 8.1,
      "classificacao_etaria": "A14",
      "imagem_original": "https://animefire.plus/img/animes/kimi-ni-todoke-2nd-season.webp",
      "imagem_pasta": "https://animefire.plus/img/animes/kimi-ni-todoke-2nd-season/",
      "secao": "legendados",
      "pagina": 114,
      "total_episodios": 1,
      "link_video": "https://animefire.plus/video/kimi-ni-todoke-2nd-season"
    },
    {
      "id": 2008,
      "nome": "Kinnikuman: Kanpeki Chоujin Shiso-hen Season 2",
      "link": "https://animefire.plus/animes/kinnikuman-kanpeki-choujin-shiso-hen-season-2-todos-os-episodios",
      "texto_original": "Kinnikuman: Kanpeki Chоujin Shiso-hen Season 2",
      "rating": 6.87,
      "classificacao_etaria": "A14",
      "imagem_original": "https://animefire.plus/img/animes/kinnikuman-kanpeki-choujin-shiso-hen-season-2.webp",
      "imagem_pasta": "https://animefire.plus/img/animes/kinnikuman-kanpeki-choujin-shiso-hen-season-2/",
      "secao": "legendados,lancamentos",
      "pagina": 6,
      "total_episodios": 1,
      "link_video": "https://animefire.plus/video/kinnikuman-kanpeki-choujin-shiso-hen-season-2"
    },
    {
      "id": 2014,
      "nome": "Kirara",
      "link": "https://animefire.plus/animes/kirara-todos-os-episodios",
      "texto_original": "Kirara",
      "rating": 6.21,
      "classificacao_etaria": "A18",
      "imagem_original": "https://animefire.plus/img/animes/kirara.webp",
      "imagem_pasta": "https://animefire.plus/img/animes/kirara/",
      "secao": "legendados",
      "pagina": 66,
      "total_episodios": 1,
      "link_video": "https://animefire.plus/video/kirara"
    },
    {
      "id": 2029,
      "nome": "Kitsutsuki Tanteidokoro",
      "link": "https://animefire.plus/animes/kitsutsuki-tanteidokoro-todos-os-episodios",
      "texto_original": "Kitsutsuki Tanteidokoro",
      "rating": 6.03,
      "classificacao_etaria": "A16",
      "imagem_original": "https://animefire.plus/img/animes/kitsutsuki-tanteidokoro.webp",
      "imagem_pasta": "https://animefire.plus/img/animes/kitsutsuki-tanteidokoro/",
      "secao": "legendados",
      "pagina": 80,
      "total_episodios": 1,
      "link_video": "https://animefire.plus/video/kitsutsuki-tanteidokoro"
    },
    {
      "id": 2040,
      "nome": "Kobayashi-san Chi no Maid Dragon S: Nippon no Omotenashi - Attend wa Dragon Desu (Dublado)",
      "link": "https://animefire.plus/animes/kobayashi-san-chi-no-maid-dragon-s-nippon-no-omotenashi---attend-wa-dragon-desu-dublado-todos-os-episodios",
      "texto_original": "Kobayashi-san Chi no Maid Dragon S: Nippon no Omotenashi - Attend wa Dragon Desu (Dublado)",
      "rating": 7.79,
      "classificacao_etaria": "A14",
      "imagem_original": "https://animefire.plus/img/animes/kobayashi-san-chi-no-maid-dragon-s-nippon-no-omotenashi---attend-wa-dragon-desu.webp",
      "imagem_pasta": "https://animefire.plus/img/animes/kobayashi-san-chi-no-maid-dragon-s-nippon-no-omotenashi---attend-wa-dragon-desu/",
      "secao": "dublados",
      "pagina": 10,
      "total_episodios": 1,
      "link_video": "https://animefire.plus/video/kobayashi-san-chi-no-maid-dragon-s-nippon-no-omotenashi---attend-wa-dragon-desu-dublado"
    },
    {
      "id": 2041,
      "nome": "Kobayashi-san Chi no OO Dragon",
      "link": "https://animefire.plus/animes/kobayashi-san-chi-no-oo-dragon-todos-os-episodios",
      "texto_original": "Kobayashi-san Chi no OO Dragon",
      "rating": 7.26,
      "classificacao_etaria": "A14",
      "imagem_original": "https://animefire.plus/img/animes/kobayashi-san-chi-no-oo-dragon.webp",
      "imagem_pasta": "https://animefire.plus/img/animes/kobayashi-san-chi-no-oo-dragon/",
      "secao": "legendados",
      "pagina": 54,
      "total_episodios": 1,
      "link_video": "https://animefire.plus/video/kobayashi-san-chi-no-oo-dragon"
    }
  ],
  "pagination": {
    "current_page": 11,
    "per_page": 20,
    "total_items": 465,
    "total_pages": 24,
    "has_next": true,
    "has_prev": true
  }
}
