{
  "message": "Animes com 1 a 1 episódios",
  "episode_range": {
    "min": 1,
    "max": 1
  },
  "data": [
    {
      "id": 1275,
      "nome": "Gundam Build Divers Prologue",
      "link": "https://animefire.plus/animes/gundam-build-divers-prologue-todos-os-episodios",
      "texto_original": "Gundam Build Divers Prologue",
      "rating": 6.54,
      "classificacao_etaria": null,
      "imagem_original": "https://animefire.plus/img/animes/gundam-build-divers-prologue.webp",
      "imagem_pasta": "https://animefire.plus/img/animes/gundam-build-divers-prologue/",
      "secao": "legendados",
      "pagina": 84,
      "total_episodios": 1,
      "link_video": "https://animefire.plus/video/gundam-build-divers-prologue"
    },
    {
      "id": 1287,
      "nome": "Gunslinger Girl: Il Teatrino OVA",
      "link": "https://animefire.plus/animes/gunslinger-girl-il-teatrino-ova-todos-os-episodios",
      "texto_original": "Gunslinger Girl: Il Teatrino OVA",
      "rating": 7.02,
      "classificacao_etaria": "A16",
      "imagem_original": "https://animefire.plus/img/animes/gunslinger-girl-il-teatrino-ova.webp",
      "imagem_pasta": "https://animefire.plus/img/animes/gunslinger-girl-il-teatrino-ova/",
      "secao": "legendados",
      "pagina": 71,
      "total_episodios": 1,
      "link_video": "https://animefire.plus/video/gunslinger-girl-il-teatrino-ova"
    },
    {
      "id": 1312,
      "nome": "Haikyuu!!: Lev Genzan!",
      "link": "https://animefire.plus/animes/haikyuu-lev-genzan-todos-os-episodios",
      "texto_original": "Haikyuu!!: Lev Genzan!",
      "rating": 7.76,
      "classificacao_etaria": "A14",
      "imagem_original": "https://animefire.plus/img/animes/haikyuu-lev-genzan.webp",
      "imagem_pasta": "https://animefire.plus/img/animes/haikyuu-lev-genzan/",
      "secao": "legendados",
      "pagina": 68,
      "total_episodios": 1,
      "link_video": "https://animefire.plus/video/haikyuu-lev-genzan"
    },
    {
      "id": 1319,
      "nome": "Haiyore! Nyaruko-san F",
      "link": "https://animefire.plus/animes/haiyore-nyaruko-san-f-todos-os-episodios",
      "texto_original": "Haiyore! Nyaruko-san F",
      "rating": 7.56,
      "classificacao_etaria": "A14",
      "imagem_original": "https://animefire.plus/img/animes/haiyore-nyaruko-san-f.webp",
      "imagem_pasta": "https://animefire.plus/img/animes/haiyore-nyaruko-san-f/",
      "secao": "legendados",
      "pagina": 79,
      "total_episodios": 1,
      "link_video": "https://animefire.plus/video/haiyore-nyaruko-san-f"
    },
    {
      "id": 1321,
      "nome": "Hajime no Ippo: Champion Road",
      "link": "https://animefire.plus/animes/hajime-no-ippo-champion-road-todos-os-episodios",
      "texto_original": "Hajime no Ippo: Champion Road",
      "rating": 8.31,
      "classificacao_etaria": "A14",
      "imagem_original": "https://animefire.plus/img/animes/hajime-no-ippo-champion-road.webp",
      "imagem_pasta": "https://animefire.plus/img/animes/hajime-no-ippo-champion-road/",
      "secao": "legendados",
      "pagina": 78,
      "total_episodios": 1,
      "link_video": "https://animefire.plus/video/hajime-no-ippo-champion-road"
    },
    {
      "id": 1322,
      "nome": "Hajime no Ippo: Mashiba vs. Kimura",
      "link": "https://animefire.plus/animes/hajime-no-ippo-mashiba-vs-kimura-todos-os-episodios",
      "texto_original": "Hajime no Ippo: Mashiba vs. Kimura",
      "rating": 8.24,
      "classificacao_etaria": "A14",
      "imagem_original": "https://animefire.plus/img/animes/hajime-no-ippo-mashiba-vs-kimura.webp",
      "imagem_pasta": "https://animefire.plus/img/animes/hajime-no-ippo-mashiba-vs-kimura/",
      "secao": "legendados",
      "pagina": 67,
      "total_episodios": 1,
      "link_video": "https://animefire.plus/video/hajime-no-ippo-mashiba-vs-kimura"
    },
    {
      "id": 1325,
      "nome": "Hajimete no Gal: Hajimete no Bunkasai",
      "link": "https://animefire.plus/animes/hajimete-no-gal-hajimete-no-bunkasai-todos-os-episodios",
      "texto_original": "Hajimete no Gal: Hajimete no Bunkasai",
      "rating": 6.5,
      "classificacao_etaria": "A14",
      "imagem_original": "https://animefire.plus/img/animes/hajimete-no-gal-hajimete-no-bunkasai.webp",
      "imagem_pasta": "https://animefire.plus/img/animes/hajimete-no-gal-hajimete-no-bunkasai/",
      "secao": "legendados",
      "pagina": 78,
      "total_episodios": 1,
      "link_video": "https://animefire.plus/video/hajimete-no-gal-hajimete-no-bunkasai"
    },
    {
      "id": 1343,
      "nome": "Hametsu no Mars",
      "link": "https://animefire.plus/animes/hametsu-no-mars-todos-os-episodios",
      "texto_original": "Hametsu no Mars",
      "rating": 2.31,
      "classificacao_etaria": "A16",
      "imagem_original": "https://animefire.plus/img/animes/hametsu-no-mars.webp",
      "imagem_pasta": "https://animefire.plus/img/animes/hametsu-no-mars/",
      "secao": "legendados",
      "pagina": 89,
      "total_episodios": 1,
      "link_video": "https://animefire.plus/video/hametsu-no-mars"
    },
    {
      "id": 1360,
      "nome": "Hand Shakers: Go ago Go",
      "link": "https://animefire.plus/animes/hand-shakers-go-ago-go-todos-os-episodios",
      "texto_original": "Hand Shakers: Go ago Go",
      "rating": 5.72,
      "classificacao_etaria": "A14",
      "imagem_original": "https://animefire.plus/img/animes/hand-shakers-go-ago-go.webp",
      "imagem_pasta": "https://animefire.plus/img/animes/hand-shakers-go-ago-go/",
      "secao": "legendados",
      "pagina": 89,
      "total_episodios": 1,
      "link_video": "https://animefire.plus/video/hand-shakers-go-ago-go"
    },
    {
      "id": 1362,
      "nome": "Handsome Girl",
      "link": "https://animefire.plus/animes/handsome-girl-todos-os-episodios",
      "texto_original": "Handsome Girl",
      "rating": 5.79,
      "classificacao_etaria": "A14",
      "imagem_original": "https://animefire.plus/img/animes/handsome-girl.webp",
      "imagem_pasta": "https://animefire.plus/img/animes/handsome-girl/",
      "secao": "legendados",
      "pagina": 70,
      "total_episodios": 1,
      "link_video": "https://animefire.plus/video/handsome-girl"
    },
    {
      "id": 1366,
      "nome": "Hangyakusei Million Arthur Special",
      "link": "https://animefire.plus/animes/hangyakusei-million-arthur-special-todos-os-episodios",
      "texto_original": "Hangyakusei Million Arthur Special",
      "rating": 6.37,
      "classificacao_etaria": "A14",
      "imagem_original": "https://animefire.plus/img/animes/hangyakusei-million-arthur-special.webp",
      "imagem_pasta": "https://animefire.plus/img/animes/hangyakusei-million-arthur-special/",
      "secao": "legendados",
      "pagina": 94,
      "total_episodios": 1,
      "link_video": "https://animefire.plus/video/hangyakusei-million-arthur-special"
    },
    {
      "id": 1379,
      "nome": "Hashi no Mukou",
      "link": "https://animefire.plus/animes/hashi-no-mukou-todos-os-episodios",
      "texto_original": "Hashi no Mukou",
      "rating": 5.94,
      "classificacao_etaria": "A16",
      "imagem_original": "https://animefire.plus/img/animes/hashi-no-mukou.webp",
      "imagem_pasta": "https://animefire.plus/img/animes/hashi-no-mukou/",
      "secao": "legendados",
      "pagina": 56,
      "total_episodios": 1,
      "link_video": "https://animefire.plus/video/hashi-no-mukou"
    },
    {
      "id": 1389,
      "nome": "Hataraku Saibou: Kaze Shoukougun",
      "link": "https://animefire.plus/animes/hataraku-saibou-kaze-shoukougun-todos-os-episodios",
      "texto_original": "Hataraku Saibou: Kaze Shoukougun",
      "rating": 7.35,
      "classificacao_etaria": "A14",
      "imagem_original": "https://animefire.plus/img/animes/hataraku-saibou-kaze-shoukougun.webp",
      "imagem_pasta": "https://animefire.plus/img/animes/hataraku-saibou-kaze-shoukougun/",
      "secao": "legendados",
      "pagina": 82,
      "total_episodios": 1,
      "link_video": "https://animefire.plus/video/hataraku-saibou-kaze-shoukougun"
    },
    {
      "id": 1394,
      "nome": "Hatsukoi Limited.: Gentei Shoujo",
      "link": "https://animefire.plus/animes/hatsukoi-limited-gentei-shoujo-todos-os-episodios",
      "texto_original": "Hatsukoi Limited.: Gentei Shoujo",
      "rating": 6.73,
      "classificacao_etaria": "A14",
      "imagem_original": "https://animefire.plus/img/animes/hatsukoi-limited-gentei-shoujo.webp",
      "imagem_pasta": "https://animefire.plus/img/animes/hatsukoi-limited-gentei-shoujo/",
      "secao": "legendados",
      "pagina": 78,
      "total_episodios": 1,
      "link_video": "https://animefire.plus/video/hatsukoi-limited-gentei-shoujo"
    },
    {
      "id": 1412,
      "nome": "Hello Harinezumi: Satsui no Ryoubun",
      "link": "https://animefire.plus/animes/hello-harinezumi-satsui-no-ryoubun-todos-os-episodios",
      "texto_original": "Hello Harinezumi: Satsui no Ryoubun",
      "rating": 6.45,
      "classificacao_etaria": "A18",
      "imagem_original": "https://animefire.plus/img/animes/hello-harinezumi-satsui-no-ryoubun.webp",
      "imagem_pasta": "https://animefire.plus/img/animes/hello-harinezumi-satsui-no-ryoubun/",
      "secao": "legendados",
      "pagina": 70,
      "total_episodios": 1,
      "link_video": "https://animefire.plus/video/hello-harinezumi-satsui-no-ryoubun"
    },
    {
      "id": 1434,
      "nome": "Hetalia: The World Twinkle Extra Disc",
      "link": "https://animefire.plus/animes/hetalia-the-world-twinkle-extra-disc-todos-os-episodios",
      "texto_original": "Hetalia: The World Twinkle Extra Disc",
      "rating": 7.44,
      "classificacao_etaria": "A14",
      "imagem_original": "https://animefire.plus/img/animes/hetalia-the-world-twinkle-extra-disc.webp",
      "imagem_pasta": "https://animefire.plus/img/animes/hetalia-the-world-twinkle-extra-disc/",
      "secao": "legendados",
      "pagina": 82,
      "total_episodios": 1,
      "link_video": "https://animefire.plus/video/hetalia-the-world-twinkle-extra-disc"
    },
    {
      "id": 1457,
      "nome": "High School DxD Hero: Taiikukan-ura no Holy",
      "link": "https://animefire.plus/animes/high-school-dxd-hero-taiikukan-ura-no-holy-todos-os-episodios",
      "texto_original": "High School DxD Hero: Taiikukan-ura no Holy",
      "rating": 6.91,
      "classificacao_etaria": "A18",
      "imagem_original": "https://animefire.plus/img/animes/high-school-dxd-hero-taiikukan-ura-no-holy.webp",
      "imagem_pasta": "https://animefire.plus/img/animes/high-school-dxd-hero-taiikukan-ura-no-holy/",
      "secao": "legendados",
      "pagina": 82,
      "total_episodios": 1,
      "link_video": "https://animefire.plus/video/high-school-dxd-hero-taiikukan-ura-no-holy"
    },
    {
      "id": 1469,
      "nome": "Higurashi no Naku Koro ni Kaku: Outbreak",
      "link": "https://animefire.plus/animes/higurashi-no-naku-koro-ni-kaku-outbreak-todos-os-episodios",
      "texto_original": "Higurashi no Naku Koro ni Kaku: Outbreak",
      "rating": 7.28,
      "classificacao_etaria": "A16",
      "imagem_original": "https://animefire.plus/img/animes/higurashi-no-naku-koro-ni-kaku-outbreak.webp",
      "imagem_pasta": "https://animefire.plus/img/animes/higurashi-no-naku-koro-ni-kaku-outbreak/",
      "secao": "legendados",
      "pagina": 62,
      "total_episodios": 1,
      "link_video": "https://animefire.plus/video/higurashi-no-naku-koro-ni-kaku-outbreak"
    },
    {
      "id": 1470,
      "nome": "Higurashi no Naku Koro ni Kira",
      "link": "https://animefire.plus/animes/higurashi-no-naku-koro-ni-kira-todos-os-episodios",
      "texto_original": "Higurashi no Naku Koro ni Kira",
      "rating": 6.55,
      "classificacao_etaria": "A16",
      "imagem_original": "https://animefire.plus/img/animes/higurashi-no-naku-koro-ni-kira.webp",
      "imagem_pasta": "https://animefire.plus/img/animes/higurashi-no-naku-koro-ni-kira/",
      "secao": "legendados",
      "pagina": 62,
      "total_episodios": 1,
      "link_video": "https://animefire.plus/video/higurashi-no-naku-koro-ni-kira"
    },
    {
      "id": 1494,
      "nome": "Hinata no Aoshigure",
      "link": "https://animefire.plus/animes/hinata-no-aoshigure-todos-os-episodios",
      "texto_original": "Hinata no Aoshigure",
      "rating": 7.04,
      "classificacao_etaria": "A10",
      "imagem_original": "https://animefire.plus/img/animes/hinata-no-aoshigure.webp",
      "imagem_pasta": "https://animefire.plus/img/animes/hinata-no-aoshigure/",
      "secao": "legendados",
      "pagina": 100,
      "total_episodios": 1,
      "link_video": "https://animefire.plus/video/hinata-no-aoshigure"
    }
  ],
  "pagination": {
    "current_page": 8,
    "per_page": 20,
    "total_items": 465,
    "total_pages": 24,
    "has_next": true,
    "has_prev": true
  }
}
