{
  "message": "Animes com 1 a 1 episódios",
  "episode_range": {
    "min": 1,
    "max": 1
  },
  "data": [
    {
      "id": 3923,
      "nome": "Totsukuni no Shoujo",
      "link": "https://animefire.plus/animes/totsukuni-no-shoujo-todos-os-episodios",
      "texto_original": "Totsukuni no Shoujo",
      "rating": 7.5,
      "classificacao_etaria": null,
      "imagem_original": "https://animefire.plus/img/animes/totsukuni-no-shoujo.webp",
      "imagem_pasta": "https://animefire.plus/img/animes/totsukuni-no-shoujo/",
      "secao": "legendados",
      "pagina": 87,
      "total_episodios": 1,
      "link_video": "https://animefire.plus/video/totsukuni-no-shoujo"
    },
    {
      "id": 3941,
      "nome": "Try Knights",
      "link": "https://animefire.plus/animes/try-knights-todos-os-episodios",
      "texto_original": "Try Knights",
      "rating": 4.7,
      "classificacao_etaria": "A14",
      "imagem_original": "https://animefire.plus/img/animes/try-knights.webp",
      "imagem_pasta": "https://animefire.plus/img/animes/try-knights/",
      "secao": "legendados",
      "pagina": 118,
      "total_episodios": 1,
      "link_video": "https://animefire.plus/video/try-knights"
    },
    {
      "id": 3943,
      "nome": "Tsubasa: Shunraiki",
      "link": "https://animefire.plus/animes/tsubasa-shunraiki-todos-os-episodios",
      "texto_original": "Tsubasa: Shunraiki",
      "rating": 8.15,
      "classificacao_etaria": "A16",
      "imagem_original": "https://animefire.plus/img/animes/tsubasa-shunraiki.webp",
      "imagem_pasta": "https://animefire.plus/img/animes/tsubasa-shunraiki/",
      "secao": "legendados",
      "pagina": 62,
      "total_episodios": 1,
      "link_video": "https://animefire.plus/video/tsubasa-shunraiki"
    },
    {
      "id": 3944,
      "nome": "Tsubasa: Tokyo Revelations",
      "link": "https://animefire.plus/animes/tsubasa-tokyo-revelations-todos-os-episodios",
      "texto_original": "Tsubasa: Tokyo Revelations",
      "rating": 8.34,
      "classificacao_etaria": "A16",
      "imagem_original": "https://animefire.plus/img/animes/tsubasa-tokyo-revelations.webp",
      "imagem_pasta": "https://animefire.plus/img/animes/tsubasa-tokyo-revelations/",
      "secao": "legendados",
      "pagina": 62,
      "total_episodios": 1,
      "link_video": "https://animefire.plus/video/tsubasa-tokyo-revelations"
    },
    {
      "id": 3946,
      "nome": "Tsugu Tsugumomo",
      "link": "https://animefire.plus/animes/tsugu-tsugumomo-todos-os-episodios",
      "texto_original": "Tsugu Tsugumomo",
      "rating": 7.51,
      "classificacao_etaria": "A18",
      "imagem_original": "https://animefire.plus/img/animes/tsugu-tsugumomo.webp",
      "imagem_pasta": "https://animefire.plus/img/animes/tsugu-tsugumomo/",
      "secao": "legendados",
      "pagina": 60,
      "total_episodios": 1,
      "link_video": "https://animefire.plus/video/tsugu-tsugumomo"
    },
    {
      "id": 3948,
      "nome": "Tsugumomo OVA",
      "link": "https://animefire.plus/animes/tsugumomo-ova-todos-os-episodios",
      "texto_original": "Tsugumomo OVA",
      "rating": 6.87,
      "classificacao_etaria": "A18",
      "imagem_original": "https://animefire.plus/img/animes/tsugumomo-ova.webp",
      "imagem_pasta": "https://animefire.plus/img/animes/tsugumomo-ova/",
      "secao": "legendados",
      "pagina": 87,
      "total_episodios": 1,
      "link_video": "https://animefire.plus/video/tsugumomo-ova"
    },
    {
      "id": 3967,
      "nome": "Tsuritama: Harikitte Contest",
      "link": "https://animefire.plus/animes/tsuritama-harikitte-contest-todos-os-episodios",
      "texto_original": "Tsuritama: Harikitte Contest",
      "rating": 6,
      "classificacao_etaria": "A14",
      "imagem_original": "https://animefire.plus/img/animes/tsuritama-harikitte-contest.webp",
      "imagem_pasta": "https://animefire.plus/img/animes/tsuritama-harikitte-contest/",
      "secao": "legendados",
      "pagina": 83,
      "total_episodios": 1,
      "link_video": "https://animefire.plus/video/tsuritama-harikitte-contest"
    },
    {
      "id": 3976,
      "nome": "Turnover",
      "link": "https://animefire.plus/animes/turnover-todos-os-episodios",
      "texto_original": "Turnover",
      "rating": 5.73,
      "classificacao_etaria": null,
      "imagem_original": "https://animefire.plus/img/animes/turnover.webp",
      "imagem_pasta": "https://animefire.plus/img/animes/turnover/",
      "secao": "legendados",
      "pagina": 83,
      "total_episodios": 1,
      "link_video": "https://animefire.plus/video/turnover"
    },
    {
      "id": 3979,
      "nome": "Twinkle Heart: Gingakei made Todokanai",
      "link": "https://animefire.plus/animes/twinkle-heart-gingakei-made-todokanai-todos-os-episodios",
      "texto_original": "Twinkle Heart: Gingakei made Todokanai",
      "rating": 5.35,
      "classificacao_etaria": "A14",
      "imagem_original": "https://animefire.plus/img/animes/twinkle-heart-gingakei-made-todokanai.webp",
      "imagem_pasta": "https://animefire.plus/img/animes/twinkle-heart-gingakei-made-todokanai/",
      "secao": "legendados",
      "pagina": 69,
      "total_episodios": 1,
      "link_video": "https://animefire.plus/video/twinkle-heart-gingakei-made-todokanai"
    },
    {
      "id": 3980,
      "nome": "Twinkle Nora Rock Me!",
      "link": "https://animefire.plus/animes/twinkle-nora-rock-me-todos-os-episodios",
      "texto_original": "Twinkle Nora Rock Me!",
      "rating": 3.46,
      "classificacao_etaria": "A14",
      "imagem_original": "https://animefire.plus/img/animes/twinkle-nora-rock-me.webp",
      "imagem_pasta": "https://animefire.plus/img/animes/twinkle-nora-rock-me/",
      "secao": "legendados",
      "pagina": 87,
      "total_episodios": 1,
      "link_video": "https://animefire.plus/video/twinkle-nora-rock-me"
    },
    {
      "id": 3989,
      "nome": "Uchi Tama?! Uchi no Tama Shirimasen ka?",
      "link": "https://animefire.plus/animes/uchi-tama-uchi-no-tama-shirimasen-ka-todos-os-episodios",
      "texto_original": "Uchi Tama?! Uchi no Tama Shirimasen ka?",
      "rating": 6.9,
      "classificacao_etaria": "A14",
      "imagem_original": "https://animefire.plus/img/animes/uchi-tama-uchi-no-tama-shirimasen-ka.webp",
      "imagem_pasta": "https://animefire.plus/img/animes/uchi-tama-uchi-no-tama-shirimasen-ka/",
      "secao": "legendados",
      "pagina": 92,
      "total_episodios": 1,
      "link_video": "https://animefire.plus/video/uchi-tama-uchi-no-tama-shirimasen-ka"
    },
    {
      "id": 3993,
      "nome": "Uchuu Kazoku Carlvinson",
      "link": "https://animefire.plus/animes/uchuu-kazoku-carlvinson-todos-os-episodios",
      "texto_original": "Uchuu Kazoku Carlvinson",
      "rating": 6.44,
      "classificacao_etaria": "A14",
      "imagem_original": "https://animefire.plus/img/animes/uchuu-kazoku-carlvinson.webp",
      "imagem_pasta": "https://animefire.plus/img/animes/uchuu-kazoku-carlvinson/",
      "secao": "legendados",
      "pagina": 54,
      "total_episodios": 1,
      "link_video": "https://animefire.plus/video/uchuu-kazoku-carlvinson"
    },
    {
      "id": 4018,
      "nome": "Umayon",
      "link": "https://animefire.plus/animes/umayon-todos-os-episodios",
      "texto_original": "Umayon",
      "rating": null,
      "classificacao_etaria": "A14",
      "imagem_original": "https://animefire.plus/img/animes/umayon.webp",
      "imagem_pasta": "https://animefire.plus/img/animes/umayon/",
      "secao": "legendados",
      "pagina": 58,
      "total_episodios": 1,
      "link_video": "https://animefire.plus/video/umayon"
    },
    {
      "id": 4034,
      "nome": "Urara Meirochou",
      "link": "https://animefire.plus/animes/urara-meirochou-todos-os-episodios",
      "texto_original": "Urara Meirochou",
      "rating": 7.2,
      "classificacao_etaria": "A14",
      "imagem_original": "https://animefire.plus/img/animes/urara-meirochou.webp",
      "imagem_pasta": "https://animefire.plus/img/animes/urara-meirochou/",
      "secao": "legendados",
      "pagina": 115,
      "total_episodios": 1,
      "link_video": "https://animefire.plus/video/urara-meirochou"
    },
    {
      "id": 4054,
      "nome": "Utawarerumono: Tusukuru-koujo no Karei Naru Hibi",
      "link": "https://animefire.plus/animes/utawarerumono-tusukuru-koujo-no-karei-naru-hibi-todos-os-episodios",
      "texto_original": "Utawarerumono: Tusukuru-koujo no Karei Naru Hibi",
      "rating": 6.74,
      "classificacao_etaria": "A14",
      "imagem_original": "https://animefire.plus/img/animes/utawarerumono-tusukuru-koujo-no-karei-naru-hibi.webp",
      "imagem_pasta": "https://animefire.plus/img/animes/utawarerumono-tusukuru-koujo-no-karei-naru-hibi/",
      "secao": "legendados",
      "pagina": 83,
      "total_episodios": 1,
      "link_video": "https://animefire.plus/video/utawarerumono-tusukuru-koujo-no-karei-naru-hibi"
    },
    {
      "id": 4087,
      "nome": "ViVid Strike! Specials",
      "link": "https://animefire.plus/animes/vivid-strike-specials-todos-os-episodios",
      "texto_original": "ViVid Strike! Specials",
      "rating": 6.71,
      "classificacao_etaria": "A14",
      "imagem_original": "https://animefire.plus/img/animes/vivid-strike-specials.webp",
      "imagem_pasta": "https://animefire.plus/img/animes/vivid-strike-specials/",
      "secao": "legendados",
      "pagina": 68,
      "total_episodios": 1,
      "link_video": "https://animefire.plus/video/vivid-strike-specials"
    },
    {
      "id": 4101,
      "nome": "Wan Sheng Jie",
      "link": "https://animefire.plus/animes/wan-sheng-jie-todos-os-episodios",
      "texto_original": "Wan Sheng Jie",
      "rating": 7.95,
      "classificacao_etaria": "A14",
      "imagem_original": "https://animefire.plus/img/animes/wan-sheng-jie.webp",
      "imagem_pasta": "https://animefire.plus/img/animes/wan-sheng-jie/",
      "secao": "legendados",
      "pagina": 27,
      "total_episodios": 1,
      "link_video": "https://animefire.plus/video/wan-sheng-jie"
    },
    {
      "id": 4102,
      "nome": "Wan Sheng Jie 2",
      "link": "https://animefire.plus/animes/wan-sheng-jie-2-todos-os-episodios",
      "texto_original": "Wan Sheng Jie 2",
      "rating": 7.95,
      "classificacao_etaria": "A14",
      "imagem_original": "https://animefire.plus/img/animes/wan-sheng-jie-2.webp",
      "imagem_pasta": "https://animefire.plus/img/animes/wan-sheng-jie-2/",
      "secao": "legendados",
      "pagina": 27,
      "total_episodios": 1,
      "link_video": "https://animefire.plus/video/wan-sheng-jie-2"
    },
    {
      "id": 4103,
      "nome": "Wan Sheng Jie 3",
      "link": "https://animefire.plus/animes/wan-sheng-jie-3-todos-os-episodios",
      "texto_original": "Wan Sheng Jie 3",
      "rating": 8.01,
      "classificacao_etaria": "A14",
      "imagem_original": "https://animefire.plus/img/animes/wan-sheng-jie-3.webp",
      "imagem_pasta": "https://animefire.plus/img/animes/wan-sheng-jie-3/",
      "secao": "legendados",
      "pagina": 27,
      "total_episodios": 1,
      "link_video": "https://animefire.plus/video/wan-sheng-jie-3"
    },
    {
      "id": 4106,
      "nome": "Wangpai Yushi Di 0 Ji",
      "link": "https://animefire.plus/animes/wangpai-yushi-di-0-ji-todos-os-episodios",
      "texto_original": "Wangpai Yushi Di 0 Ji",
      "rating": 6.06,
      "classificacao_etaria": "A10",
      "imagem_original": "https://animefire.plus/img/animes/wangpai-yushi-di-0-ji.webp",
      "imagem_pasta": "https://animefire.plus/img/animes/wangpai-yushi-di-0-ji/",
      "secao": "legendados",
      "pagina": 88,
      "total_episodios": 1,
      "link_video": "https://animefire.plus/video/wangpai-yushi-di-0-ji"
    }
  ],
  "pagination": {
    "current_page": 22,
    "per_page": 20,
    "total_items": 465,
    "total_pages": 24,
    "has_next": true,
    "has_prev": true
  }
}
