{
  "message": "Animes com 1 a 1 episódios",
  "episode_range": {
    "min": 1,
    "max": 1
  },
  "data": [
    {
      "id": 1103,
      "nome": "Ganbare Douki-chan Special",
      "link": "https://animefire.plus/animes/ganbare-douki-chan-special-todos-os-episodios",
      "texto_original": "Ganbare Douki-chan Special",
      "rating": 6.4,
      "classificacao_etaria": "A14",
      "imagem_original": "https://animefire.plus/img/animes/ganbare-douki-chan-special.webp",
      "imagem_pasta": "https://animefire.plus/img/animes/ganbare-douki-chan-special/",
      "secao": "legendados",
      "pagina": 31,
      "total_episodios": 1,
      "link_video": "https://animefire.plus/video/ganbare-douki-chan-special"
    },
    {
      "id": 1123,
      "nome": "Gekiganger 3: The Movie",
      "link": "https://animefire.plus/animes/gekiganger-3-the-movie-todos-os-episodios",
      "texto_original": "Gekiganger 3: The Movie",
      "rating": 6.51,
      "classificacao_etaria": "A14",
      "imagem_original": "https://animefire.plus/img/animes/gekiganger-3-the-movie.webp",
      "imagem_pasta": "https://animefire.plus/img/animes/gekiganger-3-the-movie/",
      "secao": "legendados",
      "pagina": 71,
      "total_episodios": 1,
      "link_video": "https://animefire.plus/video/gekiganger-3-the-movie"
    },
    {
      "id": 1139,
      "nome": "Genshiken Nidaime OVA",
      "link": "https://animefire.plus/animes/genshiken-nidaime-ova-todos-os-episodios",
      "texto_original": "Genshiken Nidaime OVA",
      "rating": 7.2,
      "classificacao_etaria": "A16",
      "imagem_original": "https://animefire.plus/img/animes/genshiken-nidaime-ova.webp",
      "imagem_pasta": "https://animefire.plus/img/animes/genshiken-nidaime-ova/",
      "secao": "legendados",
      "pagina": 84,
      "total_episodios": 1,
      "link_video": "https://animefire.plus/video/genshiken-nidaime-ova"
    },
    {
      "id": 1172,
      "nome": "Gintama: Dai Hanseikai",
      "link": "https://animefire.plus/animes/gintama-dai-hanseikai-todos-os-episodios",
      "texto_original": "Gintama: Dai Hanseikai",
      "rating": 8.07,
      "classificacao_etaria": "A14",
      "imagem_original": "https://animefire.plus/img/animes/gintama-dai-hanseikai.webp",
      "imagem_pasta": "https://animefire.plus/img/animes/gintama-dai-hanseikai/",
      "secao": "legendados",
      "pagina": 67,
      "total_episodios": 1,
      "link_video": "https://animefire.plus/video/gintama-dai-hanseikai"
    },
    {
      "id": 1173,
      "nome": "Gintama: Monster Strike-hen",
      "link": "https://animefire.plus/animes/gintama-monster-strike-hen-todos-os-episodios",
      "texto_original": "Gintama: Monster Strike-hen",
      "rating": 7.35,
      "classificacao_etaria": "A14",
      "imagem_original": "https://animefire.plus/img/animes/gintama-monster-strike-hen.webp",
      "imagem_pasta": "https://animefire.plus/img/animes/gintama-monster-strike-hen/",
      "secao": "legendados",
      "pagina": 94,
      "total_episodios": 1,
      "link_video": "https://animefire.plus/video/gintama-monster-strike-hen"
    },
    {
      "id": 1174,
      "nome": "Gintama: Nanigoto mo Saiyo ga Kanjin nano de Tasho Senobisuru Kurai ga Choudoyoi",
      "link": "https://animefire.plus/animes/gintama-nanigoto-mo-saiyo-ga-kanjin-nano-de-tasho-senobisuru-kurai-ga-choudoyoi-todos-os-episodios",
      "texto_original": "Gintama: Nanigoto mo Saiyo ga Kanjin nano de Tasho Senobisuru Kurai ga Choudoyoi",
      "rating": 8.09,
      "classificacao_etaria": "A14",
      "imagem_original": "https://animefire.plus/img/animes/gintama-nanigoto-mo-saiyo-ga-kanjin-nano-de-tasho-senobisuru-kurai-ga-choudoyoi.webp",
      "imagem_pasta": "https://animefire.plus/img/animes/gintama-nanigoto-mo-saiyo-ga-kanjin-nano-de-tasho-senobisuru-kurai-ga-choudoyoi/",
      "secao": "legendados",
      "pagina": 67,
      "total_episodios": 1,
      "link_video": "https://animefire.plus/video/gintama-nanigoto-mo-saiyo-ga-kanjin-nano-de-tasho-senobisuru-kurai-ga-choudoyoi"
    },
    {
      "id": 1175,
      "nome": "Gintama: Shinyaku Benizakura-hen",
      "link": "https://animefire.plus/animes/gintama-shinyaku-benizakura-hen-todos-os-episodios",
      "texto_original": "Gintama: Shinyaku Benizakura-hen",
      "rating": 8.27,
      "classificacao_etaria": "A14",
      "imagem_original": "https://animefire.plus/img/animes/gintama-shinyaku-benizakura-hen.webp",
      "imagem_pasta": "https://animefire.plus/img/animes/gintama-shinyaku-benizakura-hen/",
      "secao": "legendados",
      "pagina": 68,
      "total_episodios": 1,
      "link_video": "https://animefire.plus/video/gintama-shinyaku-benizakura-hen"
    },
    {
      "id": 1176,
      "nome": "Gintama: Shiroyasha Koutan",
      "link": "https://animefire.plus/animes/gintama-shiroyasha-koutan-todos-os-episodios",
      "texto_original": "Gintama: Shiroyasha Koutan",
      "rating": 8.34,
      "classificacao_etaria": "A14",
      "imagem_original": "https://animefire.plus/img/animes/gintama-shiroyasha-koutan.webp",
      "imagem_pasta": "https://animefire.plus/img/animes/gintama-shiroyasha-koutan/",
      "secao": "legendados",
      "pagina": 67,
      "total_episodios": 1,
      "link_video": "https://animefire.plus/video/gintama-shiroyasha-koutan"
    },
    {
      "id": 1184,
      "nome": "Gintama': Futon ni Haitte kara Buki Nokoshi ni Kizuite Neru ni Nerenai Toki mo Aru",
      "link": "https://animefire.plus/animes/gintama-futon-ni-haitte-kara-buki-nokoshi-ni-kizuite-neru-ni-nerenai-toki-mo-aru-todos-os-episodios",
      "texto_original": "Gintama': Futon ni Haitte kara Buki Nokoshi ni Kizuite Neru ni Nerenai Toki mo Aru",
      "rating": 8.11,
      "classificacao_etaria": "A14",
      "imagem_original": "https://animefire.plus/img/animes/gintama-futon-ni-haitte-kara-buki-nokoshi-ni-kizuite-neru-ni-nerenai-toki-mo-aru.webp",
      "imagem_pasta": "https://animefire.plus/img/animes/gintama-futon-ni-haitte-kara-buki-nokoshi-ni-kizuite-neru-ni-nerenai-toki-mo-aru/",
      "secao": "legendados",
      "pagina": 68,
      "total_episodios": 1,
      "link_video": "https://animefire.plus/video/gintama-futon-ni-haitte-kara-buki-nokoshi-ni-kizuite-neru-ni-nerenai-toki-mo-aru"
    },
    {
      "id": 1186,
      "nome": "Gintama°: Umai-mono wa Atomawashi ni Suru to Yokodorisareru kara Yappari Saki ni Kue",
      "link": "https://animefire.plus/animes/gintama-umai-mono-wa-atomawashi-ni-suru-to-yokodorisareru-kara-yappari-saki-ni-kue-todos-os-episodios",
      "texto_original": "Gintama°: Umai-mono wa Atomawashi ni Suru to Yokodorisareru kara Yappari Saki ni Kue",
      "rating": 8.1,
      "classificacao_etaria": "A14",
      "imagem_original": "https://animefire.plus/img/animes/gintama-umai-mono-wa-atomawashi-ni-suru-to-yokodorisareru-kara-yappari-saki-ni-kue.webp",
      "imagem_pasta": "https://animefire.plus/img/animes/gintama-umai-mono-wa-atomawashi-ni-suru-to-yokodorisareru-kara-yappari-saki-ni-kue/",
      "secao": "legendados",
      "pagina": 68,
      "total_episodios": 1,
      "link_video": "https://animefire.plus/video/gintama-umai-mono-wa-atomawashi-ni-suru-to-yokodorisareru-kara-yappari-saki-ni-kue"
    },
    {
      "id": 1195,
      "nome": "Given: Uragawa no Sonzai",
      "link": "https://animefire.plus/animes/given-uragawa-no-sonzai-todos-os-episodios",
      "texto_original": "Given: Uragawa no Sonzai",
      "rating": 8.13,
      "classificacao_etaria": "A14",
      "imagem_original": "https://animefire.plus/img/animes/given-uragawa-no-sonzai.webp",
      "imagem_pasta": "https://animefire.plus/img/animes/given-uragawa-no-sonzai/",
      "secao": "legendados",
      "pagina": 38,
      "total_episodios": 1,
      "link_video": "https://animefire.plus/video/given-uragawa-no-sonzai"
    },
    {
      "id": 1208,
      "nome": "Gochuumon wa Usagi Desu ka??: Sing for You",
      "link": "https://animefire.plus/animes/gochuumon-wa-usagi-desu-ka-sing-for-you-todos-os-episodios",
      "texto_original": "Gochuumon wa Usagi Desu ka??: Sing for You",
      "rating": 7.73,
      "classificacao_etaria": "A14",
      "imagem_original": "https://animefire.plus/img/animes/gochuumon-wa-usagi-desu-ka-sing-for-you.webp",
      "imagem_pasta": "https://animefire.plus/img/animes/gochuumon-wa-usagi-desu-ka-sing-for-you/",
      "secao": "legendados",
      "pagina": 88,
      "total_episodios": 1,
      "link_video": "https://animefire.plus/video/gochuumon-wa-usagi-desu-ka-sing-for-you"
    },
    {
      "id": 1225,
      "nome": "Golden Kamuy OVA",
      "link": "https://animefire.plus/animes/golden-kamuy-ova-todos-os-episodios",
      "texto_original": "Golden Kamuy OVA",
      "rating": 7.16,
      "classificacao_etaria": "A16",
      "imagem_original": "https://animefire.plus/img/animes/golden-kamuy-ova.webp",
      "imagem_pasta": "https://animefire.plus/img/animes/golden-kamuy-ova/",
      "secao": "legendados",
      "pagina": 88,
      "total_episodios": 1,
      "link_video": "https://animefire.plus/video/golden-kamuy-ova"
    },
    {
      "id": 1228,
      "nome": "Golgo 13: Queen Bee",
      "link": "https://animefire.plus/animes/golgo-13-queen-bee-todos-os-episodios",
      "texto_original": "Golgo 13: Queen Bee",
      "rating": 6.59,
      "classificacao_etaria": "A18",
      "imagem_original": "https://animefire.plus/img/animes/golgo-13-queen-bee.webp",
      "imagem_pasta": "https://animefire.plus/img/animes/golgo-13-queen-bee/",
      "secao": "legendados",
      "pagina": 45,
      "total_episodios": 1,
      "link_video": "https://animefire.plus/video/golgo-13-queen-bee"
    },
    {
      "id": 1238,
      "nome": "Granblue Fantasy The Animation: Kabocha no Lantern",
      "link": "https://animefire.plus/animes/granblue-fantasy-the-animation-kabocha-no-lantern-todos-os-episodios",
      "texto_original": "Granblue Fantasy The Animation: Kabocha no Lantern",
      "rating": 6.67,
      "classificacao_etaria": "A14",
      "imagem_original": "https://animefire.plus/img/animes/granblue-fantasy-the-animation-kabocha-no-lantern.webp",
      "imagem_pasta": "https://animefire.plus/img/animes/granblue-fantasy-the-animation-kabocha-no-lantern/",
      "secao": "legendados",
      "pagina": 88,
      "total_episodios": 1,
      "link_video": "https://animefire.plus/video/granblue-fantasy-the-animation-kabocha-no-lantern"
    },
    {
      "id": 1240,
      "nome": "Grancrest Senki Tsuisou",
      "link": "https://animefire.plus/animes/grancrest-senki-tsuisou-todos-os-episodios",
      "texto_original": "Grancrest Senki Tsuisou",
      "rating": 6.51,
      "classificacao_etaria": "A16",
      "imagem_original": "https://animefire.plus/img/animes/grancrest-senki-tsuisou.webp",
      "imagem_pasta": "https://animefire.plus/img/animes/grancrest-senki-tsuisou/",
      "secao": "legendados",
      "pagina": 84,
      "total_episodios": 1,
      "link_video": "https://animefire.plus/video/grancrest-senki-tsuisou"
    },
    {
      "id": 1243,
      "nome": "Grandeek",
      "link": "https://animefire.plus/animes/grandeek-todos-os-episodios",
      "texto_original": "Grandeek",
      "rating": 5.73,
      "classificacao_etaria": "A16",
      "imagem_original": "https://animefire.plus/img/animes/grandeek.webp",
      "imagem_pasta": "https://animefire.plus/img/animes/grandeek/",
      "secao": "legendados",
      "pagina": 66,
      "total_episodios": 1,
      "link_video": "https://animefire.plus/video/grandeek"
    },
    {
      "id": 1249,
      "nome": "Great Pretender: Razbliuto",
      "link": "https://animefire.plus/animes/great-pretender-razbliuto-todos-os-episodios",
      "texto_original": "Great Pretender: Razbliuto",
      "rating": 6.83,
      "classificacao_etaria": "A16",
      "imagem_original": "https://animefire.plus/img/animes/great-pretender-razbliuto.webp",
      "imagem_pasta": "https://animefire.plus/img/animes/great-pretender-razbliuto/",
      "secao": "legendados,lancamentos",
      "pagina": 16,
      "total_episodios": 1,
      "link_video": "https://animefire.plus/video/great-pretender-razbliuto"
    },
    {
      "id": 1252,
      "nome": "Green Green OVA",
      "link": "https://animefire.plus/animes/green-green-ova-todos-os-episodios",
      "texto_original": "Green Green OVA",
      "rating": 6.03,
      "classificacao_etaria": "A14",
      "imagem_original": "https://animefire.plus/img/animes/green-green-ova.webp",
      "imagem_pasta": "https://animefire.plus/img/animes/green-green-ova/",
      "secao": "legendados",
      "pagina": 70,
      "total_episodios": 1,
      "link_video": "https://animefire.plus/video/green-green-ova"
    },
    {
      "id": 1253,
      "nome": "Green Green Specials",
      "link": "https://animefire.plus/animes/green-green-specials-todos-os-episodios",
      "texto_original": "Green Green Specials",
      "rating": 6.27,
      "classificacao_etaria": "A18",
      "imagem_original": "https://animefire.plus/img/animes/green-green-specials.webp",
      "imagem_pasta": "https://animefire.plus/img/animes/green-green-specials/",
      "secao": "legendados",
      "pagina": 70,
      "total_episodios": 1,
      "link_video": "https://animefire.plus/video/green-green-specials"
    }
  ],
  "pagination": {
    "current_page": 7,
    "per_page": 20,
    "total_items": 465,
    "total_pages": 24,
    "has_next": true,
    "has_prev": true
  }
}
