{
  "message": "Animes com 1 a 1 episódios",
  "episode_range": {
    "min": 1,
    "max": 1
  },
  "data": [
    {
      "id": 2603,
      "nome": "Mugen no Juunin: Immortal",
      "link": "https://animefire.plus/animes/mugen-no-juunin-immortal-todos-os-episodios",
      "texto_original": "Mugen no Juunin: Immortal",
      "rating": 7.36,
      "classificacao_etaria": "A16",
      "imagem_original": "https://animefire.plus/img/animes/mugen-no-juunin-immortal.webp",
      "imagem_pasta": "https://animefire.plus/img/animes/mugen-no-juunin-immortal/",
      "secao": "legendados",
      "pagina": 110,
      "total_episodios": 1,
      "link_video": "https://animefire.plus/video/mugen-no-juunin-immortal"
    },
    {
      "id": 2622,
      "nome": "Mushishi: Hihamukage",
      "link": "https://animefire.plus/animes/mushishi-hihamukage-todos-os-episodios",
      "texto_original": "Mushishi: Hihamukage",
      "rating": 8.6,
      "classificacao_etaria": "A14",
      "imagem_original": "https://animefire.plus/img/animes/mushishi-hihamukage.webp",
      "imagem_pasta": "https://animefire.plus/img/animes/mushishi-hihamukage/",
      "secao": "legendados",
      "pagina": 65,
      "total_episodios": 1,
      "link_video": "https://animefire.plus/video/mushishi-hihamukage"
    },
    {
      "id": 2629,
      "nome": "Mushoku Tensei: Isekai Ittara Honki Dasu Special (Dublado)",
      "link": "https://animefire.plus/animes/mushoku-tensei-isekai-ittara-honki-dasu-special-dublado-todos-os-episodios",
      "texto_original": "Mushoku Tensei: Isekai Ittara Honki Dasu Special (Dublado)",
      "rating": 7.79,
      "classificacao_etaria": "A16",
      "imagem_original": "https://animefire.plus/img/animes/mushoku-tensei-isekai-ittara-honki-dasu-special.webp",
      "imagem_pasta": "https://animefire.plus/img/animes/mushoku-tensei-isekai-ittara-honki-dasu-special/",
      "secao": "dublados,legendados",
      "pagina": 10,
      "total_episodios": 1,
      "link_video": "https://animefire.plus/video/mushoku-tensei-isekai-ittara-honki-dasu-special-dublado"
    },
    {
      "id": 2641,
      "nome": "Nagareboshi Lens",
      "link": "https://animefire.plus/animes/nagareboshi-lens-todos-os-episodios",
      "texto_original": "Nagareboshi Lens",
      "rating": 6.72,
      "classificacao_etaria": null,
      "imagem_original": "https://animefire.plus/img/animes/nagareboshi-lens.webp",
      "imagem_pasta": "https://animefire.plus/img/animes/nagareboshi-lens/",
      "secao": "legendados",
      "pagina": 106,
      "total_episodios": 1,
      "link_video": "https://animefire.plus/video/nagareboshi-lens"
    },
    {
      "id": 2648,
      "nome": "Nakanohito Genome [Jikkyouchuu]: Knots of Memories",
      "link": "https://animefire.plus/animes/nakanohito-genome-jikkyouchuu-knots-of-memories-todos-os-episodios",
      "texto_original": "Nakanohito Genome [Jikkyouchuu]: Knots of Memories",
      "rating": 6.79,
      "classificacao_etaria": "A14",
      "imagem_original": "https://animefire.plus/img/animes/nakanohito-genome-jikkyouchuu-knots-of-memories.webp",
      "imagem_pasta": "https://animefire.plus/img/animes/nakanohito-genome-jikkyouchuu-knots-of-memories/",
      "secao": "legendados",
      "pagina": 42,
      "total_episodios": 1,
      "link_video": "https://animefire.plus/video/nakanohito-genome-jikkyouchuu-knots-of-memories"
    },
    {
      "id": 2661,
      "nome": "Nanatsu no Taizai: Eiyuu-tachi wa Hashagu",
      "link": "https://animefire.plus/animes/nanatsu-no-taizai-eiyuu-tachi-wa-hashagu-todos-os-episodios",
      "texto_original": "Nanatsu no Taizai: Eiyuu-tachi wa Hashagu",
      "rating": 7.22,
      "classificacao_etaria": "A14",
      "imagem_original": "https://animefire.plus/img/animes/nanatsu-no-taizai-eiyuu-tachi-wa-hashagu.webp",
      "imagem_pasta": "https://animefire.plus/img/animes/nanatsu-no-taizai-eiyuu-tachi-wa-hashagu/",
      "secao": "legendados",
      "pagina": 84,
      "total_episodios": 1,
      "link_video": "https://animefire.plus/video/nanatsu-no-taizai-eiyuu-tachi-wa-hashagu"
    },
    {
      "id": 2662,
      "nome": "Nanatsu no Taizai: Ensa no Edinburgh (Dublado)",
      "link": "https://animefire.plus/animes/nanatsu-no-taizai-ensa-no-edinburgh-dublado-todos-os-episodios",
      "texto_original": "Nanatsu no Taizai: Ensa no Edinburgh (Dublado)",
      "rating": 6.21,
      "classificacao_etaria": "A14",
      "imagem_original": "https://animefire.plus/img/animes/nanatsu-no-taizai-ensa-no-edinburgh.webp",
      "imagem_pasta": "https://animefire.plus/img/animes/nanatsu-no-taizai-ensa-no-edinburgh/",
      "secao": "dublados,legendados",
      "pagina": 8,
      "total_episodios": 1,
      "link_video": "https://animefire.plus/video/nanatsu-no-taizai-ensa-no-edinburgh-dublado"
    },
    {
      "id": 2663,
      "nome": "Nanatsu no Taizai: Ensa no Edinburgh Part 2 (Dublado)",
      "link": "https://animefire.plus/animes/nanatsu-no-taizai-ensa-no-edinburgh-part-2-dublado-todos-os-episodios",
      "texto_original": "Nanatsu no Taizai: Ensa no Edinburgh Part 2 (Dublado)",
      "rating": 6.56,
      "classificacao_etaria": "A14",
      "imagem_original": "https://animefire.plus/img/animes/nanatsu-no-taizai-ensa-no-edinburgh-part-2.webp",
      "imagem_pasta": "https://animefire.plus/img/animes/nanatsu-no-taizai-ensa-no-edinburgh-part-2/",
      "secao": "dublados,legendados",
      "pagina": 6,
      "total_episodios": 1,
      "link_video": "https://animefire.plus/video/nanatsu-no-taizai-ensa-no-edinburgh-part-2-dublado"
    },
    {
      "id": 2673,
      "nome": "Nande Koko ni Sensei ga!? Special",
      "link": "https://animefire.plus/animes/nande-koko-ni-sensei-ga-special-todos-os-episodios",
      "texto_original": "Nande Koko ni Sensei ga!? Special",
      "rating": 6.85,
      "classificacao_etaria": "A18",
      "imagem_original": "https://animefire.plus/img/animes/nande-koko-ni-sensei-ga-special.webp",
      "imagem_pasta": "https://animefire.plus/img/animes/nande-koko-ni-sensei-ga-special/",
      "secao": "legendados",
      "pagina": 84,
      "total_episodios": 1,
      "link_video": "https://animefire.plus/video/nande-koko-ni-sensei-ga-special"
    },
    {
      "id": 2681,
      "nome": "Natsu e no Tobira",
      "link": "https://animefire.plus/animes/natsu-e-no-tobira-todos-os-episodios",
      "texto_original": "Natsu e no Tobira",
      "rating": 6.13,
      "classificacao_etaria": "A14",
      "imagem_original": "https://animefire.plus/img/animes/natsu-e-no-tobira.webp",
      "imagem_pasta": "https://animefire.plus/img/animes/natsu-e-no-tobira/",
      "secao": "legendados",
      "pagina": 88,
      "total_episodios": 1,
      "link_video": "https://animefire.plus/video/natsu-e-no-tobira"
    },
    {
      "id": 2693,
      "nome": "Natsume Yuujinchou: Itsuka Yuki no Hi ni",
      "link": "https://animefire.plus/animes/natsume-yuujinchou-itsuka-yuki-no-hi-ni-todos-os-episodios",
      "texto_original": "Natsume Yuujinchou: Itsuka Yuki no Hi ni",
      "rating": 8.37,
      "classificacao_etaria": "A14",
      "imagem_original": "https://animefire.plus/img/animes/natsume-yuujinchou-itsuka-yuki-no-hi-ni.webp",
      "imagem_pasta": "https://animefire.plus/img/animes/natsume-yuujinchou-itsuka-yuki-no-hi-ni/",
      "secao": "legendados",
      "pagina": 64,
      "total_episodios": 1,
      "link_video": "https://animefire.plus/video/natsume-yuujinchou-itsuka-yuki-no-hi-ni"
    },
    {
      "id": 2694,
      "nome": "Natsume Yuujinchou: Nyanko-sensei to Hajimete no Otsukai",
      "link": "https://animefire.plus/animes/natsume-yuujinchou-nyanko-sensei-to-hajimete-no-otsukai-todos-os-episodios",
      "texto_original": "Natsume Yuujinchou: Nyanko-sensei to Hajimete no Otsukai",
      "rating": 7.67,
      "classificacao_etaria": "A14",
      "imagem_original": "https://animefire.plus/img/animes/natsume-yuujinchou-nyanko-sensei-to-hajimete-no-otsukai.webp",
      "imagem_pasta": "https://animefire.plus/img/animes/natsume-yuujinchou-nyanko-sensei-to-hajimete-no-otsukai/",
      "secao": "legendados",
      "pagina": 88,
      "total_episodios": 1,
      "link_video": "https://animefire.plus/video/natsume-yuujinchou-nyanko-sensei-to-hajimete-no-otsukai"
    },
    {
      "id": 2697,
      "nome": "Nayuta",
      "link": "https://animefire.plus/animes/nayuta-todos-os-episodios",
      "texto_original": "Nayuta",
      "rating": 5.6,
      "classificacao_etaria": "A14",
      "imagem_original": "https://animefire.plus/img/animes/nayuta.webp",
      "imagem_pasta": "https://animefire.plus/img/animes/nayuta/",
      "secao": "legendados",
      "pagina": 69,
      "total_episodios": 1,
      "link_video": "https://animefire.plus/video/nayuta"
    },
    {
      "id": 2707,
      "nome": "Neko Hiki no Oruorane",
      "link": "https://animefire.plus/animes/neko-hiki-no-oruorane-todos-os-episodios",
      "texto_original": "Neko Hiki no Oruorane",
      "rating": 6.33,
      "classificacao_etaria": "A14",
      "imagem_original": "https://animefire.plus/img/animes/neko-hiki-no-oruorane.webp",
      "imagem_pasta": "https://animefire.plus/img/animes/neko-hiki-no-oruorane/",
      "secao": "legendados",
      "pagina": 85,
      "total_episodios": 1,
      "link_video": "https://animefire.plus/video/neko-hiki-no-oruorane"
    },
    {
      "id": 2708,
      "nome": "Neko Neko Fantasia",
      "link": "https://animefire.plus/animes/neko-neko-fantasia-todos-os-episodios",
      "texto_original": "Neko Neko Fantasia",
      "rating": 5.96,
      "classificacao_etaria": null,
      "imagem_original": "https://animefire.plus/img/animes/neko-neko-fantasia.webp",
      "imagem_pasta": "https://animefire.plus/img/animes/neko-neko-fantasia/",
      "secao": "legendados",
      "pagina": 85,
      "total_episodios": 1,
      "link_video": "https://animefire.plus/video/neko-neko-fantasia"
    },
    {
      "id": 2710,
      "nome": "Nekojiru-sou",
      "link": "https://animefire.plus/animes/nekojiru-sou-todos-os-episodios",
      "texto_original": "Nekojiru-sou",
      "rating": 7.34,
      "classificacao_etaria": "A14",
      "imagem_original": "https://animefire.plus/img/animes/nekojiru-sou.webp",
      "imagem_pasta": "https://animefire.plus/img/animes/nekojiru-sou/",
      "secao": "legendados",
      "pagina": 56,
      "total_episodios": 1,
      "link_video": "https://animefire.plus/video/nekojiru-sou"
    },
    {
      "id": 2713,
      "nome": "Nekopara: Koneko no Hi no Yakusoku",
      "link": "https://animefire.plus/animes/nekopara-koneko-no-hi-no-yakusoku-todos-os-episodios",
      "texto_original": "Nekopara: Koneko no Hi no Yakusoku",
      "rating": 7.13,
      "classificacao_etaria": "A14",
      "imagem_original": "https://animefire.plus/img/animes/nekopara-koneko-no-hi-no-yakusoku.webp",
      "imagem_pasta": "https://animefire.plus/img/animes/nekopara-koneko-no-hi-no-yakusoku/",
      "secao": "legendados",
      "pagina": 67,
      "total_episodios": 1,
      "link_video": "https://animefire.plus/video/nekopara-koneko-no-hi-no-yakusoku"
    },
    {
      "id": 2716,
      "nome": "Neppuu Kairiku Bushi Road",
      "link": "https://animefire.plus/animes/neppuu-kairiku-bushi-road-todos-os-episodios",
      "texto_original": "Neppuu Kairiku Bushi Road",
      "rating": 7.26,
      "classificacao_etaria": "A16",
      "imagem_original": "https://animefire.plus/img/animes/neppuu-kairiku-bushi-road.webp",
      "imagem_pasta": "https://animefire.plus/img/animes/neppuu-kairiku-bushi-road/",
      "secao": "legendados",
      "pagina": 82,
      "total_episodios": 1,
      "link_video": "https://animefire.plus/video/neppuu-kairiku-bushi-road"
    },
    {
      "id": 2718,
      "nome": "Net-juu no Susume Special (Dublado)",
      "link": "https://animefire.plus/animes/net-juu-no-susume-special-dublado-todos-os-episodios",
      "texto_original": "Net-juu no Susume Special (Dublado)",
      "rating": 7.46,
      "classificacao_etaria": "A14",
      "imagem_original": "https://animefire.plus/img/animes/net-juu-no-susume-special.webp",
      "imagem_pasta": "https://animefire.plus/img/animes/net-juu-no-susume-special/",
      "secao": "dublados,legendados",
      "pagina": 24,
      "total_episodios": 1,
      "link_video": "https://animefire.plus/video/net-juu-no-susume-special-dublado"
    },
    {
      "id": 2744,
      "nome": "Ninja Ryuukenden",
      "link": "https://animefire.plus/animes/ninja-ryuukenden-todos-os-episodios",
      "texto_original": "Ninja Ryuukenden",
      "rating": 5.68,
      "classificacao_etaria": "A16",
      "imagem_original": "https://animefire.plus/img/animes/ninja-ryuukenden.webp",
      "imagem_pasta": "https://animefire.plus/img/animes/ninja-ryuukenden/",
      "secao": "legendados",
      "pagina": 77,
      "total_episodios": 1,
      "link_video": "https://animefire.plus/video/ninja-ryuukenden"
    }
  ],
  "pagination": {
    "current_page": 15,
    "per_page": 20,
    "total_items": 465,
    "total_pages": 24,
    "has_next": true,
    "has_prev": true
  }
}
