{
  "message": "Animes com 1 a 1 episódios",
  "episode_range": {
    "min": 1,
    "max": 1
  },
  "data": [
    {
      "id": 2051,
      "nome": "Koi to Senkyo to Chocolate: Koi Imouto!",
      "link": "https://animefire.plus/animes/koi-to-senkyo-to-chocolate-koi-imouto-todos-os-episodios",
      "texto_original": "Koi to Senkyo to Chocolate: Koi Imouto!",
      "rating": 6.91,
      "classificacao_etaria": "A14",
      "imagem_original": "https://animefire.plus/img/animes/koi-to-senkyo-to-chocolate-koi-imouto.webp",
      "imagem_pasta": "https://animefire.plus/img/animes/koi-to-senkyo-to-chocolate-koi-imouto/",
      "secao": "legendados",
      "pagina": 54,
      "total_episodios": 1,
      "link_video": "https://animefire.plus/video/koi-to-senkyo-to-chocolate-koi-imouto"
    },
    {
      "id": 2053,
      "nome": "Koi to Uso OVA",
      "link": "https://animefire.plus/animes/koi-to-uso-ova-todos-os-episodios",
      "texto_original": "Koi to Uso OVA",
      "rating": 6.46,
      "classificacao_etaria": "A14",
      "imagem_original": "https://animefire.plus/img/animes/koi-to-uso-ova.webp",
      "imagem_pasta": "https://animefire.plus/img/animes/koi-to-uso-ova/",
      "secao": "legendados",
      "pagina": 78,
      "total_episodios": 1,
      "link_video": "https://animefire.plus/video/koi-to-uso-ova"
    },
    {
      "id": 2059,
      "nome": "Koihime†Musou OVA Omake",
      "link": "https://animefire.plus/animes/koihime-musou-ova-omake-todos-os-episodios",
      "texto_original": "Koihime†Musou OVA Omake",
      "rating": 6.24,
      "classificacao_etaria": "A18",
      "imagem_original": "https://animefire.plus/img/animes/koihime-musou-ova-omake.webp",
      "imagem_pasta": "https://animefire.plus/img/animes/koihime-musou-ova-omake/",
      "secao": "legendados",
      "pagina": 71,
      "total_episodios": 1,
      "link_video": "https://animefire.plus/video/koihime-musou-ova-omake"
    },
    {
      "id": 2063,
      "nome": "Koisuru Tenshi Angelique: Kagayaki no Ashita Special",
      "link": "https://animefire.plus/animes/koisuru-tenshi-angelique-kagayaki-no-ashita-special-todos-os-episodios",
      "texto_original": "Koisuru Tenshi Angelique: Kagayaki no Ashita Special",
      "rating": 6.74,
      "classificacao_etaria": "A14",
      "imagem_original": "https://animefire.plus/img/animes/koisuru-tenshi-angelique-kagayaki-no-ashita-special.webp",
      "imagem_pasta": "https://animefire.plus/img/animes/koisuru-tenshi-angelique-kagayaki-no-ashita-special/",
      "secao": "legendados",
      "pagina": 86,
      "total_episodios": 1,
      "link_video": "https://animefire.plus/video/koisuru-tenshi-angelique-kagayaki-no-ashita-special"
    },
    {
      "id": 2067,
      "nome": "Kokoro Connect: Michi Random",
      "link": "https://animefire.plus/animes/kokoro-connect-michi-random-todos-os-episodios",
      "texto_original": "Kokoro Connect: Michi Random",
      "rating": 8.05,
      "classificacao_etaria": "A14",
      "imagem_original": "https://animefire.plus/img/animes/kokoro-connect-michi-random.webp",
      "imagem_pasta": "https://animefire.plus/img/animes/kokoro-connect-michi-random/",
      "secao": "legendados",
      "pagina": 70,
      "total_episodios": 1,
      "link_video": "https://animefire.plus/video/kokoro-connect-michi-random"
    },
    {
      "id": 2078,
      "nome": "Kono Danshi, Ningyo Hiroimashita.",
      "link": "https://animefire.plus/animes/kono-danshi-ningyo-hiroimashita-todos-os-episodios",
      "texto_original": "Kono Danshi, Ningyo Hiroimashita.",
      "rating": 7.54,
      "classificacao_etaria": "A14",
      "imagem_original": "https://animefire.plus/img/animes/kono-danshi-ningyo-hiroimashita.webp",
      "imagem_pasta": "https://animefire.plus/img/animes/kono-danshi-ningyo-hiroimashita/",
      "secao": "legendados",
      "pagina": 86,
      "total_episodios": 1,
      "link_video": "https://animefire.plus/video/kono-danshi-ningyo-hiroimashita"
    },
    {
      "id": 2089,
      "nome": "Kono Subarashii Sekai ni Shukufuku wo! 2: Kono Subarashii Geijutsu ni Shukufuku wo! (Dublado)",
      "link": "https://animefire.plus/animes/kono-subarashii-sekai-ni-shukufuku-wo-2-kono-subarashii-geijutsu-ni-shukufuku-wo-dublado-todos-os-episodios",
      "texto_original": "Kono Subarashii Sekai ni Shukufuku wo! 2: Kono Subarashii Geijutsu ni Shukufuku wo! (Dublado)",
      "rating": 8.11,
      "classificacao_etaria": "A14",
      "imagem_original": "https://animefire.plus/img/animes/kono-subarashii-sekai-ni-shukufuku-wo-2-kono-subarashii-geijutsu-ni-shukufuku-wo.webp",
      "imagem_pasta": "https://animefire.plus/img/animes/kono-subarashii-sekai-ni-shukufuku-wo-2-kono-subarashii-geijutsu-ni-shukufuku-wo/",
      "secao": "dublados",
      "pagina": 24,
      "total_episodios": 1,
      "link_video": "https://animefire.plus/video/kono-subarashii-sekai-ni-shukufuku-wo-2-kono-subarashii-geijutsu-ni-shukufuku-wo-dublado"
    },
    {
      "id": 2093,
      "nome": "Kono Yo no Hate de Koi wo Utau Shoujo YU-NO Special",
      "link": "https://animefire.plus/animes/kono-yo-no-hate-de-koi-wo-utau-shoujo-yu-no-special-todos-os-episodios",
      "texto_original": "Kono Yo no Hate de Koi wo Utau Shoujo YU-NO Special",
      "rating": 6.33,
      "classificacao_etaria": "A18",
      "imagem_original": "https://animefire.plus/img/animes/kono-yo-no-hate-de-koi-wo-utau-shoujo-yu-no-special.webp",
      "imagem_pasta": "https://animefire.plus/img/animes/kono-yo-no-hate-de-koi-wo-utau-shoujo-yu-no-special/",
      "secao": "legendados",
      "pagina": 59,
      "total_episodios": 1,
      "link_video": "https://animefire.plus/video/kono-yo-no-hate-de-koi-wo-utau-shoujo-yu-no-special"
    },
    {
      "id": 2111,
      "nome": "Koukyoushihen Eureka Seven: New Order",
      "link": "https://animefire.plus/animes/koukyoushihen-eureka-seven-new-order-todos-os-episodios",
      "texto_original": "Koukyoushihen Eureka Seven: New Order",
      "rating": 6.64,
      "classificacao_etaria": "A14",
      "imagem_original": "https://animefire.plus/img/animes/koukyoushihen-eureka-seven-new-order.webp",
      "imagem_pasta": "https://animefire.plus/img/animes/koukyoushihen-eureka-seven-new-order/",
      "secao": "legendados",
      "pagina": 86,
      "total_episodios": 1,
      "link_video": "https://animefire.plus/video/koukyoushihen-eureka-seven-new-order"
    },
    {
      "id": 2126,
      "nome": "Kud Wafter",
      "link": "https://animefire.plus/animes/kud-wafter-todos-os-episodios",
      "texto_original": "Kud Wafter",
      "rating": 7.05,
      "classificacao_etaria": "A14",
      "imagem_original": "https://animefire.plus/img/animes/kud-wafter.webp",
      "imagem_pasta": "https://animefire.plus/img/animes/kud-wafter/",
      "secao": "legendados",
      "pagina": 35,
      "total_episodios": 1,
      "link_video": "https://animefire.plus/video/kud-wafter"
    },
    {
      "id": 2137,
      "nome": "Kurage no Shokudou",
      "link": "https://animefire.plus/animes/kurage-no-shokudou-todos-os-episodios",
      "texto_original": "Kurage no Shokudou",
      "rating": 6.27,
      "classificacao_etaria": "A14",
      "imagem_original": "https://animefire.plus/img/animes/kurage-no-shokudou.webp",
      "imagem_pasta": "https://animefire.plus/img/animes/kurage-no-shokudou/",
      "secao": "legendados",
      "pagina": 79,
      "total_episodios": 1,
      "link_video": "https://animefire.plus/video/kurage-no-shokudou"
    },
    {
      "id": 2141,
      "nome": "Kurayami Santa",
      "link": "https://animefire.plus/animes/kurayami-santa-todos-os-episodios",
      "texto_original": "Kurayami Santa",
      "rating": 5.22,
      "classificacao_etaria": "A14",
      "imagem_original": "https://animefire.plus/img/animes/kurayami-santa.webp",
      "imagem_pasta": "https://animefire.plus/img/animes/kurayami-santa/",
      "secao": "legendados",
      "pagina": 134,
      "total_episodios": 1,
      "link_video": "https://animefire.plus/video/kurayami-santa"
    },
    {
      "id": 2153,
      "nome": "Kuroko no Basket: Last Game NG-shuu",
      "link": "https://animefire.plus/animes/kuroko-no-basket-last-game-ng-shuu-todos-os-episodios",
      "texto_original": "Kuroko no Basket: Last Game NG-shuu",
      "rating": 7.78,
      "classificacao_etaria": "A14",
      "imagem_original": "https://animefire.plus/img/animes/kuroko-no-basket-last-game-ng-shuu.webp",
      "imagem_pasta": "https://animefire.plus/img/animes/kuroko-no-basket-last-game-ng-shuu/",
      "secao": "legendados",
      "pagina": 87,
      "total_episodios": 1,
      "link_video": "https://animefire.plus/video/kuroko-no-basket-last-game-ng-shuu"
    },
    {
      "id": 2154,
      "nome": "Kuroko no Basket: Oshaberi Shiyou ka",
      "link": "https://animefire.plus/animes/kuroko-no-basket-oshaberi-shiyou-ka-todos-os-episodios",
      "texto_original": "Kuroko no Basket: Oshaberi Shiyou ka",
      "rating": 7.12,
      "classificacao_etaria": "A14",
      "imagem_original": "https://animefire.plus/img/animes/kuroko-no-basket-oshaberi-shiyou-ka.webp",
      "imagem_pasta": "https://animefire.plus/img/animes/kuroko-no-basket-oshaberi-shiyou-ka/",
      "secao": "legendados",
      "pagina": 87,
      "total_episodios": 1,
      "link_video": "https://animefire.plus/video/kuroko-no-basket-oshaberi-shiyou-ka"
    },
    {
      "id": 2170,
      "nome": "Kuusen Madoushi Kouhosei no Kyoukan: Lecty no, Ikimonogatari",
      "link": "https://animefire.plus/animes/kuusen-madoushi-kouhosei-no-kyoukan-lecty-no-ikimonogatari-todos-os-episodios",
      "texto_original": "Kuusen Madoushi Kouhosei no Kyoukan: Lecty no, Ikimonogatari",
      "rating": 6.45,
      "classificacao_etaria": "A14",
      "imagem_original": "https://animefire.plus/img/animes/kuusen-madoushi-kouhosei-no-kyoukan-lecty-no-ikimonogatari.webp",
      "imagem_pasta": "https://animefire.plus/img/animes/kuusen-madoushi-kouhosei-no-kyoukan-lecty-no-ikimonogatari/",
      "secao": "legendados",
      "pagina": 71,
      "total_episodios": 1,
      "link_video": "https://animefire.plus/video/kuusen-madoushi-kouhosei-no-kyoukan-lecty-no-ikimonogatari"
    },
    {
      "id": 2173,
      "nome": "Kyochuu Rettou",
      "link": "https://animefire.plus/animes/kyochuu-rettou-todos-os-episodios",
      "texto_original": "Kyochuu Rettou",
      "rating": 4.53,
      "classificacao_etaria": "A18",
      "imagem_original": "https://animefire.plus/img/animes/kyochuu-rettou.webp",
      "imagem_pasta": "https://animefire.plus/img/animes/kyochuu-rettou/",
      "secao": "legendados",
      "pagina": 87,
      "total_episodios": 1,
      "link_video": "https://animefire.plus/video/kyochuu-rettou"
    },
    {
      "id": 2251,
      "nome": "Love Live! Nijigasaki Gakuen School Idol Doukoukai: Next Sky",
      "link": "https://animefire.plus/animes/love-live-nijigasaki-gakuen-school-idol-doukoukai-next-sky-todos-os-episodios",
      "texto_original": "Love Live! Nijigasaki Gakuen School Idol Doukoukai: Next Sky",
      "rating": 7.29,
      "classificacao_etaria": "A14",
      "imagem_original": "https://animefire.plus/img/animes/love-live-nijigasaki-gakuen-school-idol-doukoukai-next-sky.webp",
      "imagem_pasta": "https://animefire.plus/img/animes/love-live-nijigasaki-gakuen-school-idol-doukoukai-next-sky/",
      "secao": "legendados",
      "pagina": 18,
      "total_episodios": 1,
      "link_video": "https://animefire.plus/video/love-live-nijigasaki-gakuen-school-idol-doukoukai-next-sky"
    },
    {
      "id": 2264,
      "nome": "Luck & Logic",
      "link": "https://animefire.plus/animes/luck-logic-todos-os-episodios",
      "texto_original": "Luck & Logic",
      "rating": 6.2,
      "classificacao_etaria": "A14",
      "imagem_original": "https://animefire.plus/img/animes/luck-logic.webp",
      "imagem_pasta": "https://animefire.plus/img/animes/luck-logic/",
      "secao": "legendados",
      "pagina": 141,
      "total_episodios": 1,
      "link_video": "https://animefire.plus/video/luck-logic"
    },
    {
      "id": 2266,
      "nome": "Lucky☆Star: Original na Visual to Animation",
      "link": "https://animefire.plus/animes/lucky-star-original-na-visual-to-animation-todos-os-episodios",
      "texto_original": "Lucky☆Star: Original na Visual to Animation",
      "rating": 7.84,
      "classificacao_etaria": "A14",
      "imagem_original": "https://animefire.plus/img/animes/lucky-star-original-na-visual-to-animation.webp",
      "imagem_pasta": "https://animefire.plus/img/animes/lucky-star-original-na-visual-to-animation/",
      "secao": "legendados",
      "pagina": 78,
      "total_episodios": 1,
      "link_video": "https://animefire.plus/video/lucky-star-original-na-visual-to-animation"
    },
    {
      "id": 2267,
      "nome": "Luger Code 1951",
      "link": "https://animefire.plus/animes/luger-code-1951-todos-os-episodios",
      "texto_original": "Luger Code 1951",
      "rating": 6.49,
      "classificacao_etaria": "A16",
      "imagem_original": "https://animefire.plus/img/animes/luger-code-1951.webp",
      "imagem_pasta": "https://animefire.plus/img/animes/luger-code-1951/",
      "secao": "legendados",
      "pagina": 159,
      "total_episodios": 1,
      "link_video": "https://animefire.plus/video/luger-code-1951"
    }
  ],
  "pagination": {
    "current_page": 12,
    "per_page": 20,
    "total_items": 465,
    "total_pages": 24,
    "has_next": true,
    "has_prev": true
  }
}
