{
  "message": "Animes com 1 a 1 episódios",
  "episode_range": {
    "min": 1,
    "max": 1
  },
  "data": [
    {
      "id": 530,
      "nome": "Burn Up!",
      "link": "https://animefire.plus/animes/burn-up-todos-os-episodios",
      "texto_original": "Burn Up!",
      "rating": 6.09,
      "classificacao_etaria": "A18",
      "imagem_original": "https://animefire.plus/img/animes/burn-up.webp",
      "imagem_pasta": "https://animefire.plus/img/animes/burn-up/",
      "secao": "legendados",
      "pagina": 45,
      "total_episodios": 1,
      "link_video": "https://animefire.plus/video/burn-up"
    },
    {
      "id": 537,
      "nome": "Busu ni Hanataba wo.",
      "link": "https://animefire.plus/animes/busu-ni-hanataba-wo-todos-os-episodios",
      "texto_original": "Busu ni Hanataba wo.",
      "rating": 6.69,
      "classificacao_etaria": "A14",
      "imagem_original": "https://animefire.plus/img/animes/busu-ni-hanataba-wo.webp",
      "imagem_pasta": "https://animefire.plus/img/animes/busu-ni-hanataba-wo/",
      "secao": "legendados,lancamentos",
      "pagina": 2,
      "total_episodios": 1,
      "link_video": "https://animefire.plus/video/busu-ni-hanataba-wo"
    },
    {
      "id": 550,
      "nome": "Candy Boy Episode: EX01 - Mirai Yohouzu",
      "link": "https://animefire.plus/animes/candy-boy-episode-ex01---mirai-yohouzu-todos-os-episodios",
      "texto_original": "Candy Boy Episode: EX01 - Mirai Yohouzu",
      "rating": 6.89,
      "classificacao_etaria": "A14",
      "imagem_original": "https://animefire.plus/img/animes/candy-boy-episode-ex01---mirai-yohouzu.webp",
      "imagem_pasta": "https://animefire.plus/img/animes/candy-boy-episode-ex01---mirai-yohouzu/",
      "secao": "legendados",
      "pagina": 63,
      "total_episodios": 1,
      "link_video": "https://animefire.plus/video/candy-boy-episode-ex01---mirai-yohouzu"
    },
    {
      "id": 551,
      "nome": "Candy Boy Episode: EX02 - Shiawase Kyouyuu Riron",
      "link": "https://animefire.plus/animes/candy-boy-episode-ex02---shiawase-kyouyuu-riron-todos-os-episodios",
      "texto_original": "Candy Boy Episode: EX02 - Shiawase Kyouyuu Riron",
      "rating": 6.85,
      "classificacao_etaria": "A14",
      "imagem_original": "https://animefire.plus/img/animes/candy-boy-episode-ex02---shiawase-kyouyuu-riron.webp",
      "imagem_pasta": "https://animefire.plus/img/animes/candy-boy-episode-ex02---shiawase-kyouyuu-riron/",
      "secao": "legendados",
      "pagina": 63,
      "total_episodios": 1,
      "link_video": "https://animefire.plus/video/candy-boy-episode-ex02---shiawase-kyouyuu-riron"
    },
    {
      "id": 553,
      "nome": "Candy☆Boy: Side Story For Archive",
      "link": "https://animefire.plus/animes/candy-boy-side-story-for-archive-todos-os-episodios",
      "texto_original": "Candy☆Boy: Side Story For Archive",
      "rating": 6.88,
      "classificacao_etaria": "A14",
      "imagem_original": "https://animefire.plus/img/animes/candy-boy-side-story-for-archive.webp",
      "imagem_pasta": "https://animefire.plus/img/animes/candy-boy-side-story-for-archive/",
      "secao": "legendados",
      "pagina": 63,
      "total_episodios": 1,
      "link_video": "https://animefire.plus/video/candy-boy-side-story-for-archive"
    },
    {
      "id": 593,
      "nome": "Chaos Dragon: Sekiryuu Seneki",
      "link": "https://animefire.plus/animes/chaos-dragon-sekiryuu-seneki-todos-os-episodios",
      "texto_original": "Chaos Dragon: Sekiryuu Seneki",
      "rating": 5.76,
      "classificacao_etaria": "A16",
      "imagem_original": "https://animefire.plus/img/animes/chaos-dragon-sekiryuu-seneki.webp",
      "imagem_pasta": "https://animefire.plus/img/animes/chaos-dragon-sekiryuu-seneki/",
      "secao": "legendados",
      "pagina": 173,
      "total_episodios": 1,
      "link_video": "https://animefire.plus/video/chaos-dragon-sekiryuu-seneki"
    },
    {
      "id": 596,
      "nome": "Charlotte: Tsuyoimono-tachi",
      "link": "https://animefire.plus/animes/charlotte-tsuyoimono-tachi-todos-os-episodios",
      "texto_original": "Charlotte: Tsuyoimono-tachi",
      "rating": 7.51,
      "classificacao_etaria": "A14",
      "imagem_original": "https://animefire.plus/img/animes/charlotte-tsuyoimono-tachi.webp",
      "imagem_pasta": "https://animefire.plus/img/animes/charlotte-tsuyoimono-tachi/",
      "secao": "legendados",
      "pagina": 71,
      "total_episodios": 1,
      "link_video": "https://animefire.plus/video/charlotte-tsuyoimono-tachi"
    },
    {
      "id": 609,
      "nome": "Chikyuugai Shounen Shoujo",
      "link": "https://animefire.plus/animes/chikyuugai-shounen-shoujo-todos-os-episodios",
      "texto_original": "Chikyuugai Shounen Shoujo",
      "rating": 6.82,
      "classificacao_etaria": "A14",
      "imagem_original": "https://animefire.plus/img/animes/chikyuugai-shounen-shoujo.webp",
      "imagem_pasta": "https://animefire.plus/img/animes/chikyuugai-shounen-shoujo/",
      "secao": "legendados",
      "pagina": 35,
      "total_episodios": 1,
      "link_video": "https://animefire.plus/video/chikyuugai-shounen-shoujo"
    },
    {
      "id": 612,
      "nome": "Chiryokumaru",
      "link": "https://animefire.plus/animes/chiryokumaru-todos-os-episodios",
      "texto_original": "Chiryokumaru",
      "rating": 5.18,
      "classificacao_etaria": "A14",
      "imagem_original": "https://animefire.plus/img/animes/chiryokumaru.webp",
      "imagem_pasta": "https://animefire.plus/img/animes/chiryokumaru/",
      "secao": "legendados",
      "pagina": 70,
      "total_episodios": 1,
      "link_video": "https://animefire.plus/video/chiryokumaru"
    },
    {
      "id": 626,
      "nome": "Choujigen Game Neptune The Animation: Nep no Natsuyasumi",
      "link": "https://animefire.plus/animes/choujigen-game-neptune-the-animation-nep-no-natsuyasumi-todos-os-episodios",
      "texto_original": "Choujigen Game Neptune The Animation: Nep no Natsuyasumi",
      "rating": 7.17,
      "classificacao_etaria": "A14",
      "imagem_original": "https://animefire.plus/img/animes/choujigen-game-neptune-the-animation-nep-no-natsuyasumi.webp",
      "imagem_pasta": "https://animefire.plus/img/animes/choujigen-game-neptune-the-animation-nep-no-natsuyasumi/",
      "secao": "legendados",
      "pagina": 83,
      "total_episodios": 1,
      "link_video": "https://animefire.plus/video/choujigen-game-neptune-the-animation-nep-no-natsuyasumi"
    },
    {
      "id": 627,
      "nome": "Choujigen Game Neptune The Animation: Yakusoku no Eien - True End",
      "link": "https://animefire.plus/animes/choujigen-game-neptune-the-animation-yakusoku-no-eien---true-end-todos-os-episodios",
      "texto_original": "Choujigen Game Neptune The Animation: Yakusoku no Eien - True End",
      "rating": 7.3,
      "classificacao_etaria": "A14",
      "imagem_original": "https://animefire.plus/img/animes/choujigen-game-neptune-the-animation-yakusoku-no-eien---true-end.webp",
      "imagem_pasta": "https://animefire.plus/img/animes/choujigen-game-neptune-the-animation-yakusoku-no-eien---true-end/",
      "secao": "legendados",
      "pagina": 53,
      "total_episodios": 1,
      "link_video": "https://animefire.plus/video/choujigen-game-neptune-the-animation-yakusoku-no-eien---true-end"
    },
    {
      "id": 641,
      "nome": "Chuubyou Gekihatsu Boy Special",
      "link": "https://animefire.plus/animes/chuubyou-gekihatsu-boy-special-todos-os-episodios",
      "texto_original": "Chuubyou Gekihatsu Boy Special",
      "rating": 6.83,
      "classificacao_etaria": "A14",
      "imagem_original": "https://animefire.plus/img/animes/chuubyou-gekihatsu-boy-special.webp",
      "imagem_pasta": "https://animefire.plus/img/animes/chuubyou-gekihatsu-boy-special/",
      "secao": "legendados",
      "pagina": 51,
      "total_episodios": 1,
      "link_video": "https://animefire.plus/video/chuubyou-gekihatsu-boy-special"
    },
    {
      "id": 644,
      "nome": "Chuunibyou demo Koi ga Shitai! Lite",
      "link": "https://animefire.plus/animes/chuunibyou-demo-koi-ga-shitai-lite-todos-os-episodios",
      "texto_original": "Chuunibyou demo Koi ga Shitai! Lite",
      "rating": 7.27,
      "classificacao_etaria": "A14",
      "imagem_original": "https://animefire.plus/img/animes/chuunibyou-demo-koi-ga-shitai-lite.webp",
      "imagem_pasta": "https://animefire.plus/img/animes/chuunibyou-demo-koi-ga-shitai-lite/",
      "secao": "legendados",
      "pagina": 54,
      "total_episodios": 1,
      "link_video": "https://animefire.plus/video/chuunibyou-demo-koi-ga-shitai-lite"
    },
    {
      "id": 646,
      "nome": "Chuunibyou demo Koi ga Shitai! Ren Specials",
      "link": "https://animefire.plus/animes/chuunibyou-demo-koi-ga-shitai-ren-specials-todos-os-episodios",
      "texto_original": "Chuunibyou demo Koi ga Shitai! Ren Specials",
      "rating": 7.11,
      "classificacao_etaria": "A14",
      "imagem_original": "https://animefire.plus/img/animes/chuunibyou-demo-koi-ga-shitai-ren-specials.webp",
      "imagem_pasta": "https://animefire.plus/img/animes/chuunibyou-demo-koi-ga-shitai-ren-specials/",
      "secao": "legendados",
      "pagina": 54,
      "total_episodios": 1,
      "link_video": "https://animefire.plus/video/chuunibyou-demo-koi-ga-shitai-ren-specials"
    },
    {
      "id": 648,
      "nome": "Chuunibyou demo Koi ga Shitai!: Kirameki no... Slapstick Noel",
      "link": "https://animefire.plus/animes/chuunibyou-demo-koi-ga-shitai-kirameki-no-slapstick-noel-todos-os-episodios",
      "texto_original": "Chuunibyou demo Koi ga Shitai!: Kirameki no... Slapstick Noel",
      "rating": 7.51,
      "classificacao_etaria": "A14",
      "imagem_original": "https://animefire.plus/img/animes/chuunibyou-demo-koi-ga-shitai-kirameki-no-slapstick-noel.webp",
      "imagem_pasta": "https://animefire.plus/img/animes/chuunibyou-demo-koi-ga-shitai-kirameki-no-slapstick-noel/",
      "secao": "legendados",
      "pagina": 44,
      "total_episodios": 1,
      "link_video": "https://animefire.plus/video/chuunibyou-demo-koi-ga-shitai-kirameki-no-slapstick-noel"
    },
    {
      "id": 696,
      "nome": "Cosmo Police Justy",
      "link": "https://animefire.plus/animes/cosmo-police-justy-todos-os-episodios",
      "texto_original": "Cosmo Police Justy",
      "rating": 5.54,
      "classificacao_etaria": "A14",
      "imagem_original": "https://animefire.plus/img/animes/cosmo-police-justy.webp",
      "imagem_pasta": "https://animefire.plus/img/animes/cosmo-police-justy/",
      "secao": "legendados",
      "pagina": 65,
      "total_episodios": 1,
      "link_video": "https://animefire.plus/video/cosmo-police-justy"
    },
    {
      "id": 704,
      "nome": "Cross Road",
      "link": "https://animefire.plus/animes/cross-road-todos-os-episodios",
      "texto_original": "Cross Road",
      "rating": 7.46,
      "classificacao_etaria": null,
      "imagem_original": "https://animefire.plus/img/animes/cross-road.webp",
      "imagem_pasta": "https://animefire.plus/img/animes/cross-road/",
      "secao": "legendados",
      "pagina": 87,
      "total_episodios": 1,
      "link_video": "https://animefire.plus/video/cross-road"
    },
    {
      "id": 716,
      "nome": "D.C.III: Da Capo III",
      "link": "https://animefire.plus/animes/d-c-iii-da-capo-iii-todos-os-episodios",
      "texto_original": "D.C.III: Da Capo III",
      "rating": 6.67,
      "classificacao_etaria": "A14",
      "imagem_original": "https://animefire.plus/img/animes/d-c-iii-da-capo-iii.webp",
      "imagem_pasta": "https://animefire.plus/img/animes/d-c-iii-da-capo-iii/",
      "secao": "legendados",
      "pagina": 140,
      "total_episodios": 1,
      "link_video": "https://animefire.plus/video/d-c-iii-da-capo-iii"
    },
    {
      "id": 722,
      "nome": "D4DJ Double Mix",
      "link": "https://animefire.plus/animes/d4dj-double-mix-todos-os-episodios",
      "texto_original": "D4DJ Double Mix",
      "rating": 7.29,
      "classificacao_etaria": "A14",
      "imagem_original": "https://animefire.plus/img/animes/d4dj-double-mix.webp",
      "imagem_pasta": "https://animefire.plus/img/animes/d4dj-double-mix/",
      "secao": "legendados",
      "pagina": 26,
      "total_episodios": 1,
      "link_video": "https://animefire.plus/video/d4dj-double-mix"
    },
    {
      "id": 724,
      "nome": "Da Wang Rao Ming",
      "link": "https://animefire.plus/animes/da-wang-rao-ming-todos-os-episodios",
      "texto_original": "Da Wang Rao Ming",
      "rating": 7.52,
      "classificacao_etaria": "A14",
      "imagem_original": "https://animefire.plus/img/animes/da-wang-rao-ming.webp",
      "imagem_pasta": "https://animefire.plus/img/animes/da-wang-rao-ming/",
      "secao": "legendados",
      "pagina": 32,
      "total_episodios": 1,
      "link_video": "https://animefire.plus/video/da-wang-rao-ming"
    }
  ],
  "pagination": {
    "current_page": 4,
    "per_page": 20,
    "total_items": 465,
    "total_pages": 24,
    "has_next": true,
    "has_prev": true
  }
}
