{
  "message": "Animes com 1 a 1 episódios",
  "episode_range": {
    "min": 1,
    "max": 1
  },
  "data": [
    {
      "id": 2492,
      "nome": "Midnight Eye: Gokuu",
      "link": "https://animefire.plus/animes/midnight-eye-gokuu-todos-os-episodios",
      "texto_original": "Midnight Eye: Gokuu",
      "rating": 6.5,
      "classificacao_etaria": "A18",
      "imagem_original": "https://animefire.plus/img/animes/midnight-eye-gokuu.webp",
      "imagem_pasta": "https://animefire.plus/img/animes/midnight-eye-gokuu/",
      "secao": "legendados",
      "pagina": 84,
      "total_episodios": 1,
      "link_video": "https://animefire.plus/video/midnight-eye-gokuu"
    },
    {
      "id": 2493,
      "nome": "Midnight Eye: Gokuu II",
      "link": "https://animefire.plus/animes/midnight-eye-gokuu-ii-todos-os-episodios",
      "texto_original": "Midnight Eye: Gokuu II",
      "rating": 6.29,
      "classificacao_etaria": "A18",
      "imagem_original": "https://animefire.plus/img/animes/midnight-eye-gokuu-ii.webp",
      "imagem_pasta": "https://animefire.plus/img/animes/midnight-eye-gokuu-ii/",
      "secao": "legendados",
      "pagina": 84,
      "total_episodios": 1,
      "link_video": "https://animefire.plus/video/midnight-eye-gokuu-ii"
    },
    {
      "id": 2500,
      "nome": "Mikagura Gakuen Kumikyoku (TV)",
      "link": "https://animefire.plus/animes/mikagura-gakuen-kumikyoku-tv-todos-os-episodios",
      "texto_original": "Mikagura Gakuen Kumikyoku (TV)",
      "rating": 6.78,
      "classificacao_etaria": "A14",
      "imagem_original": "https://animefire.plus/img/animes/mikagura-gakuen-kumikyoku-tv.webp",
      "imagem_pasta": "https://animefire.plus/img/animes/mikagura-gakuen-kumikyoku-tv/",
      "secao": "legendados",
      "pagina": 126,
      "total_episodios": 1,
      "link_video": "https://animefire.plus/video/mikagura-gakuen-kumikyoku-tv"
    },
    {
      "id": 2502,
      "nome": "Mikeneko Holmes no Yuurei Joushu",
      "link": "https://animefire.plus/animes/mikeneko-holmes-no-yuurei-joushu-todos-os-episodios",
      "texto_original": "Mikeneko Holmes no Yuurei Joushu",
      "rating": 5.95,
      "classificacao_etaria": "A14",
      "imagem_original": "https://animefire.plus/img/animes/mikeneko-holmes-no-yuurei-joushu.webp",
      "imagem_pasta": "https://animefire.plus/img/animes/mikeneko-holmes-no-yuurei-joushu/",
      "secao": "legendados",
      "pagina": 56,
      "total_episodios": 1,
      "link_video": "https://animefire.plus/video/mikeneko-holmes-no-yuurei-joushu"
    },
    {
      "id": 2507,
      "nome": "Minami Kamakura Koukou Joshi Jitenshabu: Kita yo, Taiwan!",
      "link": "https://animefire.plus/animes/minami-kamakura-koukou-joshi-jitenshabu-kita-yo-taiwan-todos-os-episodios",
      "texto_original": "Minami Kamakura Koukou Joshi Jitenshabu: Kita yo, Taiwan!",
      "rating": 6.5,
      "classificacao_etaria": "A14",
      "imagem_original": "https://animefire.plus/img/animes/minami-kamakura-koukou-joshi-jitenshabu-kita-yo-taiwan.webp",
      "imagem_pasta": "https://animefire.plus/img/animes/minami-kamakura-koukou-joshi-jitenshabu-kita-yo-taiwan/",
      "secao": "legendados",
      "pagina": 44,
      "total_episodios": 1,
      "link_video": "https://animefire.plus/video/minami-kamakura-koukou-joshi-jitenshabu-kita-yo-taiwan"
    },
    {
      "id": 2509,
      "nome": "Minami-ke Natsuyasumi",
      "link": "https://animefire.plus/animes/minami-ke-natsuyasumi-todos-os-episodios",
      "texto_original": "Minami-ke Natsuyasumi",
      "rating": 7.4,
      "classificacao_etaria": "A14",
      "imagem_original": "https://animefire.plus/img/animes/minami-ke-natsuyasumi.webp",
      "imagem_pasta": "https://animefire.plus/img/animes/minami-ke-natsuyasumi/",
      "secao": "legendados",
      "pagina": 55,
      "total_episodios": 1,
      "link_video": "https://animefire.plus/video/minami-ke-natsuyasumi"
    },
    {
      "id": 2512,
      "nome": "Minami-ke Omatase",
      "link": "https://animefire.plus/animes/minami-ke-omatase-todos-os-episodios",
      "texto_original": "Minami-ke Omatase",
      "rating": 7.42,
      "classificacao_etaria": "A14",
      "imagem_original": "https://animefire.plus/img/animes/minami-ke-omatase.webp",
      "imagem_pasta": "https://animefire.plus/img/animes/minami-ke-omatase/",
      "secao": "legendados",
      "pagina": 55,
      "total_episodios": 1,
      "link_video": "https://animefire.plus/video/minami-ke-omatase"
    },
    {
      "id": 2520,
      "nome": "Mirai Nikki: Redial",
      "link": "https://animefire.plus/animes/mirai-nikki-redial-todos-os-episodios",
      "texto_original": "Mirai Nikki: Redial",
      "rating": 7.46,
      "classificacao_etaria": "A16",
      "imagem_original": "https://animefire.plus/img/animes/mirai-nikki-redial.webp",
      "imagem_pasta": "https://animefire.plus/img/animes/mirai-nikki-redial/",
      "secao": "legendados",
      "pagina": 60,
      "total_episodios": 1,
      "link_video": "https://animefire.plus/video/mirai-nikki-redial"
    },
    {
      "id": 2523,
      "nome": "Miru Tights: Cosplay Satsuei Tights",
      "link": "https://animefire.plus/animes/miru-tights-cosplay-satsuei-tights-todos-os-episodios",
      "texto_original": "Miru Tights: Cosplay Satsuei Tights",
      "rating": 6.59,
      "classificacao_etaria": "A14",
      "imagem_original": "https://animefire.plus/img/animes/miru-tights-cosplay-satsuei-tights.webp",
      "imagem_pasta": "https://animefire.plus/img/animes/miru-tights-cosplay-satsuei-tights/",
      "secao": "legendados",
      "pagina": 88,
      "total_episodios": 1,
      "link_video": "https://animefire.plus/video/miru-tights-cosplay-satsuei-tights"
    },
    {
      "id": 2526,
      "nome": "Mitsuami no Kamisama",
      "link": "https://animefire.plus/animes/mitsuami-no-kamisama-todos-os-episodios",
      "texto_original": "Mitsuami no Kamisama",
      "rating": 6.78,
      "classificacao_etaria": null,
      "imagem_original": "https://animefire.plus/img/animes/mitsuami-no-kamisama.webp",
      "imagem_pasta": "https://animefire.plus/img/animes/mitsuami-no-kamisama/",
      "secao": "legendados",
      "pagina": 84,
      "total_episodios": 1,
      "link_video": "https://animefire.plus/video/mitsuami-no-kamisama"
    },
    {
      "id": 2528,
      "nome": "Mitsudomoe",
      "link": "https://animefire.plus/animes/mitsudomoe-todos-os-episodios",
      "texto_original": "Mitsudomoe",
      "rating": 7.66,
      "classificacao_etaria": "A14",
      "imagem_original": "https://animefire.plus/img/animes/mitsudomoe.webp",
      "imagem_pasta": "https://animefire.plus/img/animes/mitsudomoe/",
      "secao": "legendados",
      "pagina": 103,
      "total_episodios": 1,
      "link_video": "https://animefire.plus/video/mitsudomoe"
    },
    {
      "id": 2531,
      "nome": "Miyakawa-ke no Kuufuku",
      "link": "https://animefire.plus/animes/miyakawa-ke-no-kuufuku-todos-os-episodios",
      "texto_original": "Miyakawa-ke no Kuufuku",
      "rating": 6.54,
      "classificacao_etaria": "A14",
      "imagem_original": "https://animefire.plus/img/animes/miyakawa-ke-no-kuufuku.webp",
      "imagem_pasta": "https://animefire.plus/img/animes/miyakawa-ke-no-kuufuku/",
      "secao": "legendados",
      "pagina": 88,
      "total_episodios": 1,
      "link_video": "https://animefire.plus/video/miyakawa-ke-no-kuufuku"
    },
    {
      "id": 2532,
      "nome": "Mizu no Kotoba",
      "link": "https://animefire.plus/animes/mizu-no-kotoba-todos-os-episodios",
      "texto_original": "Mizu no Kotoba",
      "rating": 6.85,
      "classificacao_etaria": "A14",
      "imagem_original": "https://animefire.plus/img/animes/mizu-no-kotoba.webp",
      "imagem_pasta": "https://animefire.plus/img/animes/mizu-no-kotoba/",
      "secao": "legendados",
      "pagina": 77,
      "total_episodios": 1,
      "link_video": "https://animefire.plus/video/mizu-no-kotoba"
    },
    {
      "id": 2546,
      "nome": "Mobile Suit Gundam AGE",
      "link": "https://animefire.plus/animes/mobile-suit-gundam-age-todos-os-episodios",
      "texto_original": "Mobile Suit Gundam AGE",
      "rating": 6.55,
      "classificacao_etaria": "A14",
      "imagem_original": "https://animefire.plus/img/animes/mobile-suit-gundam-age.webp",
      "imagem_pasta": "https://animefire.plus/img/animes/mobile-suit-gundam-age/",
      "secao": "legendados",
      "pagina": 151,
      "total_episodios": 1,
      "link_video": "https://animefire.plus/video/mobile-suit-gundam-age"
    },
    {
      "id": 2569,
      "nome": "Mon-Soni!: Senritsu no Lucifer, Tada Hitotsu no Hajimari no Uta",
      "link": "https://animefire.plus/animes/mon-soni-senritsu-no-lucifer-tada-hitotsu-no-hajimari-no-uta-todos-os-episodios",
      "texto_original": "Mon-Soni!: Senritsu no Lucifer, Tada Hitotsu no Hajimari no Uta",
      "rating": 6.31,
      "classificacao_etaria": "A14",
      "imagem_original": "https://animefire.plus/img/animes/mon-soni-senritsu-no-lucifer-tada-hitotsu-no-hajimari-no-uta.webp",
      "imagem_pasta": "https://animefire.plus/img/animes/mon-soni-senritsu-no-lucifer-tada-hitotsu-no-hajimari-no-uta/",
      "secao": "legendados",
      "pagina": 84,
      "total_episodios": 1,
      "link_video": "https://animefire.plus/video/mon-soni-senritsu-no-lucifer-tada-hitotsu-no-hajimari-no-uta"
    },
    {
      "id": 2570,
      "nome": "Mondaiji-tachi ga Isekai kara Kuru Sou Desu yo?",
      "link": "https://animefire.plus/animes/mondaiji-tachi-ga-isekai-kara-kuru-sou-desu-yo-todos-os-episodios",
      "texto_original": "Mondaiji-tachi ga Isekai kara Kuru Sou Desu yo?",
      "rating": 7.73,
      "classificacao_etaria": "A14",
      "imagem_original": "https://animefire.plus/img/animes/mondaiji-tachi-ga-isekai-kara-kuru-sou-desu-yo.webp",
      "imagem_pasta": "https://animefire.plus/img/animes/mondaiji-tachi-ga-isekai-kara-kuru-sou-desu-yo/",
      "secao": "legendados",
      "pagina": 126,
      "total_episodios": 1,
      "link_video": "https://animefire.plus/video/mondaiji-tachi-ga-isekai-kara-kuru-sou-desu-yo"
    },
    {
      "id": 2571,
      "nome": "Monkey Punch no Sekai: Alice",
      "link": "https://animefire.plus/animes/monkey-punch-no-sekai-alice-todos-os-episodios",
      "texto_original": "Monkey Punch no Sekai: Alice",
      "rating": 5.45,
      "classificacao_etaria": "A18",
      "imagem_original": "https://animefire.plus/img/animes/monkey-punch-no-sekai-alice.webp",
      "imagem_pasta": "https://animefire.plus/img/animes/monkey-punch-no-sekai-alice/",
      "secao": "legendados",
      "pagina": 56,
      "total_episodios": 1,
      "link_video": "https://animefire.plus/video/monkey-punch-no-sekai-alice"
    },
    {
      "id": 2584,
      "nome": "Monster Musume no Iru Nichijou: Hobo Mainichi ◯◯! Namappoi Douga",
      "link": "https://animefire.plus/animes/monster-musume-no-iru-nichijou-hobo-mainichi-namappoi-douga-todos-os-episodios",
      "texto_original": "Monster Musume no Iru Nichijou: Hobo Mainichi ◯◯! Namappoi Douga",
      "rating": 6.56,
      "classificacao_etaria": "A14",
      "imagem_original": "https://animefire.plus/img/animes/monster-musume-no-iru-nichijou-hobo-mainichi-namappoi-douga.webp",
      "imagem_pasta": "https://animefire.plus/img/animes/monster-musume-no-iru-nichijou-hobo-mainichi-namappoi-douga/",
      "secao": "legendados",
      "pagina": 78,
      "total_episodios": 1,
      "link_video": "https://animefire.plus/video/monster-musume-no-iru-nichijou-hobo-mainichi-namappoi-douga"
    },
    {
      "id": 2587,
      "nome": "Monster Strike: Mermaid Rhapsody",
      "link": "https://animefire.plus/animes/monster-strike-mermaid-rhapsody-todos-os-episodios",
      "texto_original": "Monster Strike: Mermaid Rhapsody",
      "rating": 6.73,
      "classificacao_etaria": "A14",
      "imagem_original": "https://animefire.plus/img/animes/monster-strike-mermaid-rhapsody.webp",
      "imagem_pasta": "https://animefire.plus/img/animes/monster-strike-mermaid-rhapsody/",
      "secao": "legendados",
      "pagina": 44,
      "total_episodios": 1,
      "link_video": "https://animefire.plus/video/monster-strike-mermaid-rhapsody"
    },
    {
      "id": 2588,
      "nome": "Monsters: Ippyaku Sanjou Hiryuu Jigoku (Dublado)",
      "link": "https://animefire.plus/animes/monsters-ippyaku-sanjou-hiryuu-jigoku-dublado-todos-os-episodios",
      "texto_original": "Monsters: Ippyaku Sanjou Hiryuu Jigoku (Dublado)",
      "rating": 7.7,
      "classificacao_etaria": "A14",
      "imagem_original": "https://animefire.plus/img/animes/monsters-ippyaku-sanjou-hiryuu-jigoku.webp",
      "imagem_pasta": "https://animefire.plus/img/animes/monsters-ippyaku-sanjou-hiryuu-jigoku/",
      "secao": "dublados,legendados",
      "pagina": 3,
      "total_episodios": 1,
      "link_video": "https://animefire.plus/video/monsters-ippyaku-sanjou-hiryuu-jigoku-dublado"
    }
  ],
  "pagination": {
    "current_page": 14,
    "per_page": 20,
    "total_items": 465,
    "total_pages": 24,
    "has_next": true,
    "has_prev": true
  }
}
