{
  "message": "Animes com 1 a 1 episódios",
  "episode_range": {
    "min": 1,
    "max": 1
  },
  "data": [
    {
      "id": 4327,
      "nome": "Yuyushiki: Komarasetari, Komarasaretari",
      "link": "https://animefire.plus/animes/yuyushiki-komarasetari-komarasaretari-todos-os-episodios",
      "texto_original": "Yuyushiki: Komarasetari, Komarasaretari",
      "rating": 7.36,
      "classificacao_etaria": "A14",
      "imagem_original": "https://animefire.plus/img/animes/yuyushiki-komarasetari-komarasaretari.webp",
      "imagem_pasta": "https://animefire.plus/img/animes/yuyushiki-komarasetari-komarasaretari/",
      "secao": "legendados",
      "pagina": 89,
      "total_episodios": 1,
      "link_video": "https://animefire.plus/video/yuyushiki-komarasetari-komarasaretari"
    },
    {
      "id": 4328,
      "nome": "Yuyushiki: Nyanyashiki",
      "link": "https://animefire.plus/animes/yuyushiki-nyanyashiki-todos-os-episodios",
      "texto_original": "Yuyushiki: Nyanyashiki",
      "rating": 6.3,
      "classificacao_etaria": "A14",
      "imagem_original": "https://animefire.plus/img/animes/yuyushiki-nyanyashiki.webp",
      "imagem_pasta": "https://animefire.plus/img/animes/yuyushiki-nyanyashiki/",
      "secao": "legendados",
      "pagina": 85,
      "total_episodios": 1,
      "link_video": "https://animefire.plus/video/yuyushiki-nyanyashiki"
    },
    {
      "id": 4331,
      "nome": "Zan Sayonara Zetsubou Sensei",
      "link": "https://animefire.plus/animes/zan-sayonara-zetsubou-sensei-todos-os-episodios",
      "texto_original": "Zan Sayonara Zetsubou Sensei",
      "rating": 7.95,
      "classificacao_etaria": "A16",
      "imagem_original": "https://animefire.plus/img/animes/zan-sayonara-zetsubou-sensei.webp",
      "imagem_pasta": "https://animefire.plus/img/animes/zan-sayonara-zetsubou-sensei/",
      "secao": "legendados",
      "pagina": 163,
      "total_episodios": 1,
      "link_video": "https://animefire.plus/video/zan-sayonara-zetsubou-sensei"
    },
    {
      "id": 4354,
      "nome": "Zettai Junpaku♡Mahou Shoujo",
      "link": "https://animefire.plus/animes/zettai-junpaku-mahou-shoujo-todos-os-episodios",
      "texto_original": "Zettai Junpaku♡Mahou Shoujo",
      "rating": 5.37,
      "classificacao_etaria": "A18",
      "imagem_original": "https://animefire.plus/img/animes/zettai-junpaku-mahou-shoujo.webp",
      "imagem_pasta": "https://animefire.plus/img/animes/zettai-junpaku-mahou-shoujo/",
      "secao": "legendados",
      "pagina": 85,
      "total_episodios": 1,
      "link_video": "https://animefire.plus/video/zettai-junpaku-mahou-shoujo"
    },
    {
      "id": 4357,
      "nome": "Zinba",
      "link": "https://animefire.plus/animes/zinba-todos-os-episodios",
      "texto_original": "Zinba",
      "rating": 6.66,
      "classificacao_etaria": "A10",
      "imagem_original": "https://animefire.plus/img/animes/zinba.webp",
      "imagem_pasta": "https://animefire.plus/img/animes/zinba/",
      "secao": "legendados",
      "pagina": 174,
      "total_episodios": 1,
      "link_video": "https://animefire.plus/video/zinba"
    }
  ],
  "pagination": {
    "current_page": 24,
    "per_page": 20,
    "total_items": 465,
    "total_pages": 24,
    "has_next": false,
    "has_prev": true
  }
}
