{
  "message": "Animes com 1 a 1 episódios",
  "episode_range": {
    "min": 1,
    "max": 1
  },
  "data": [
    {
      "id": 728,
      "nome": "Daimajuu Gekitou: Hagane no Oni",
      "link": "https://animefire.plus/animes/daimajuu-gekitou-hagane-no-oni-todos-os-episodios",
      "texto_original": "Daimajuu Gekitou: Hagane no Oni",
      "rating": 5.29,
      "classificacao_etaria": "A14",
      "imagem_original": "https://animefire.plus/img/animes/daimajuu-gekitou-hagane-no-oni.webp",
      "imagem_pasta": "https://animefire.plus/img/animes/daimajuu-gekitou-hagane-no-oni/",
      "secao": "legendados",
      "pagina": 77,
      "total_episodios": 1,
      "link_video": "https://animefire.plus/video/daimajuu-gekitou-hagane-no-oni"
    },
    {
      "id": 734,
      "nome": "Danball Senki W",
      "link": "https://animefire.plus/animes/danball-senki-w-todos-os-episodios",
      "texto_original": "Danball Senki W",
      "rating": 7.24,
      "classificacao_etaria": null,
      "imagem_original": "https://animefire.plus/img/animes/danball-senki-w.webp",
      "imagem_pasta": "https://animefire.plus/img/animes/danball-senki-w/",
      "secao": "legendados",
      "pagina": 127,
      "total_episodios": 1,
      "link_video": "https://animefire.plus/video/danball-senki-w"
    },
    {
      "id": 742,
      "nome": "Danganronpa 3: The End of Kibougamine Gakuen - Zetsubou-hen",
      "link": "https://animefire.plus/animes/danganronpa-3-the-end-of-kibougamine-gakuen---zetsubou-hen-todos-os-episodios",
      "texto_original": "Danganronpa 3: The End of Kibougamine Gakuen - Zetsubou-hen",
      "rating": 7.68,
      "classificacao_etaria": "A16",
      "imagem_original": "https://animefire.plus/img/animes/danganronpa-3-the-end-of-kibougamine-gakuen---zetsubou-hen.webp",
      "imagem_pasta": "https://animefire.plus/img/animes/danganronpa-3-the-end-of-kibougamine-gakuen---zetsubou-hen/",
      "secao": "legendados",
      "pagina": 172,
      "total_episodios": 1,
      "link_video": "https://animefire.plus/video/danganronpa-3-the-end-of-kibougamine-gakuen---zetsubou-hen"
    },
    {
      "id": 750,
      "nome": "Dareka No Manazashi",
      "link": "https://animefire.plus/animes/dareka-no-manazashi-todos-os-episodios",
      "texto_original": "Dareka No Manazashi",
      "rating": 7.45,
      "classificacao_etaria": null,
      "imagem_original": "https://animefire.plus/img/animes/dareka-no-manazashi.webp",
      "imagem_pasta": "https://animefire.plus/img/animes/dareka-no-manazashi/",
      "secao": "legendados",
      "pagina": 101,
      "total_episodios": 1,
      "link_video": "https://animefire.plus/video/dareka-no-manazashi"
    },
    {
      "id": 753,
      "nome": "Darker than Black: Kuro no Keiyakusha Gaiden",
      "link": "https://animefire.plus/animes/darker-than-black-kuro-no-keiyakusha-gaiden-todos-os-episodios",
      "texto_original": "Darker than Black: Kuro no Keiyakusha Gaiden",
      "rating": 8,
      "classificacao_etaria": "A16",
      "imagem_original": "https://animefire.plus/img/animes/darker-than-black-kuro-no-keiyakusha-gaiden.webp",
      "imagem_pasta": "https://animefire.plus/img/animes/darker-than-black-kuro-no-keiyakusha-gaiden/",
      "secao": "legendados",
      "pagina": 69,
      "total_episodios": 1,
      "link_video": "https://animefire.plus/video/darker-than-black-kuro-no-keiyakusha-gaiden"
    },
    {
      "id": 765,
      "nome": "Dead Heat",
      "link": "https://animefire.plus/animes/dead-heat-todos-os-episodios",
      "texto_original": "Dead Heat",
      "rating": 5.54,
      "classificacao_etaria": "A14",
      "imagem_original": "https://animefire.plus/img/animes/dead-heat.webp",
      "imagem_pasta": "https://animefire.plus/img/animes/dead-heat/",
      "secao": "legendados",
      "pagina": 70,
      "total_episodios": 1,
      "link_video": "https://animefire.plus/video/dead-heat"
    },
    {
      "id": 769,
      "nome": "Deadman Wonderland: Akai Knife Tsukai",
      "link": "https://animefire.plus/animes/deadman-wonderland-akai-knife-tsukai-todos-os-episodios",
      "texto_original": "Deadman Wonderland: Akai Knife Tsukai",
      "rating": 7.02,
      "classificacao_etaria": "A16",
      "imagem_original": "https://animefire.plus/img/animes/deadman-wonderland-akai-knife-tsukai.webp",
      "imagem_pasta": "https://animefire.plus/img/animes/deadman-wonderland-akai-knife-tsukai/",
      "secao": "legendados",
      "pagina": 62,
      "total_episodios": 1,
      "link_video": "https://animefire.plus/video/deadman-wonderland-akai-knife-tsukai"
    },
    {
      "id": 773,
      "nome": "DearS: Kin no Tama Desu no?",
      "link": "https://animefire.plus/animes/dears-kin-no-tama-desu-no-todos-os-episodios",
      "texto_original": "DearS: Kin no Tama Desu no?",
      "rating": 6.83,
      "classificacao_etaria": "A18",
      "imagem_original": "https://animefire.plus/img/animes/dears-kin-no-tama-desu-no.webp",
      "imagem_pasta": "https://animefire.plus/img/animes/dears-kin-no-tama-desu-no/",
      "secao": "legendados",
      "pagina": 43,
      "total_episodios": 1,
      "link_video": "https://animefire.plus/video/dears-kin-no-tama-desu-no"
    },
    {
      "id": 774,
      "nome": "Death Billiards",
      "link": "https://animefire.plus/animes/death-billiards-todos-os-episodios",
      "texto_original": "Death Billiards",
      "rating": 7.98,
      "classificacao_etaria": "A16",
      "imagem_original": "https://animefire.plus/img/animes/death-billiards.webp",
      "imagem_pasta": "https://animefire.plus/img/animes/death-billiards/",
      "secao": "legendados",
      "pagina": 106,
      "total_episodios": 1,
      "link_video": "https://animefire.plus/video/death-billiards"
    },
    {
      "id": 790,
      "nome": "Demi-chan wa Kataritai: Demi-chan no Natsuyasumi (Dublado)",
      "link": "https://animefire.plus/animes/demi-chan-wa-kataritai-demi-chan-no-natsuyasumi-dublado-todos-os-episodios",
      "texto_original": "Demi-chan wa Kataritai: Demi-chan no Natsuyasumi (Dublado)",
      "rating": 7.57,
      "classificacao_etaria": "A14",
      "imagem_original": "https://animefire.plus/img/animes/demi-chan-wa-kataritai-demi-chan-no-natsuyasumi.webp",
      "imagem_pasta": "https://animefire.plus/img/animes/demi-chan-wa-kataritai-demi-chan-no-natsuyasumi/",
      "secao": "dublados",
      "pagina": 24,
      "total_episodios": 1,
      "link_video": "https://animefire.plus/video/demi-chan-wa-kataritai-demi-chan-no-natsuyasumi-dublado"
    },
    {
      "id": 798,
      "nome": "Detective Conan: Black History",
      "link": "https://animefire.plus/animes/detective-conan-black-history-todos-os-episodios",
      "texto_original": "Detective Conan: Black History",
      "rating": 7.63,
      "classificacao_etaria": "A14",
      "imagem_original": "https://animefire.plus/img/animes/detective-conan-black-history.webp",
      "imagem_pasta": "https://animefire.plus/img/animes/detective-conan-black-history/",
      "secao": "legendados",
      "pagina": 87,
      "total_episodios": 1,
      "link_video": "https://animefire.plus/video/detective-conan-black-history"
    },
    {
      "id": 799,
      "nome": "Detective Conan: The Fugitive Kogorou Mouri",
      "link": "https://animefire.plus/animes/detective-conan-the-fugitive-kogorou-mouri-todos-os-episodios",
      "texto_original": "Detective Conan: The Fugitive Kogorou Mouri",
      "rating": 7,
      "classificacao_etaria": "A14",
      "imagem_original": "https://animefire.plus/img/animes/detective-conan-the-fugitive-kogorou-mouri.webp",
      "imagem_pasta": "https://animefire.plus/img/animes/detective-conan-the-fugitive-kogorou-mouri/",
      "secao": "legendados",
      "pagina": 83,
      "total_episodios": 1,
      "link_video": "https://animefire.plus/video/detective-conan-the-fugitive-kogorou-mouri"
    },
    {
      "id": 807,
      "nome": "Devils Line: Anytime Anywhere",
      "link": "https://animefire.plus/animes/devils-line-anytime-anywhere-todos-os-episodios",
      "texto_original": "Devils Line: Anytime Anywhere",
      "rating": 6.88,
      "classificacao_etaria": "A16",
      "imagem_original": "https://animefire.plus/img/animes/devils-line-anytime-anywhere.webp",
      "imagem_pasta": "https://animefire.plus/img/animes/devils-line-anytime-anywhere/",
      "secao": "legendados",
      "pagina": 42,
      "total_episodios": 1,
      "link_video": "https://animefire.plus/video/devils-line-anytime-anywhere"
    },
    {
      "id": 870,
      "nome": "Dr. Stone: Ryuusui (Dublado)",
      "link": "https://animefire.plus/animes/dr-stone-ryuusui-dublado-todos-os-episodios",
      "texto_original": "Dr. Stone: Ryuusui (Dublado)",
      "rating": 8.13,
      "classificacao_etaria": "A14",
      "imagem_original": "https://animefire.plus/img/animes/dr-stone-ryuusui.webp",
      "imagem_pasta": "https://animefire.plus/img/animes/dr-stone-ryuusui/",
      "secao": "dublados,legendados",
      "pagina": 9,
      "total_episodios": 1,
      "link_video": "https://animefire.plus/video/dr-stone-ryuusui-dublado"
    },
    {
      "id": 883,
      "nome": "Dragon Fist",
      "link": "https://animefire.plus/animes/dragon-fist-todos-os-episodios",
      "texto_original": "Dragon Fist",
      "rating": 4.76,
      "classificacao_etaria": "A14",
      "imagem_original": "https://animefire.plus/img/animes/dragon-fist.webp",
      "imagem_pasta": "https://animefire.plus/img/animes/dragon-fist/",
      "secao": "legendados",
      "pagina": 87,
      "total_episodios": 1,
      "link_video": "https://animefire.plus/video/dragon-fist"
    },
    {
      "id": 904,
      "nome": "Dungeon ni Deai wo Motomeru no wa Machigatteiru Darou ka III OVA",
      "link": "https://animefire.plus/animes/dungeon-ni-deai-wo-motomeru-no-wa-machigatteiru-darou-ka-iii-ova-todos-os-episodios",
      "texto_original": "Dungeon ni Deai wo Motomeru no wa Machigatteiru Darou ka III OVA",
      "rating": 6.91,
      "classificacao_etaria": "A14",
      "imagem_original": "https://animefire.plus/img/animes/dungeon-ni-deai-wo-motomeru-no-wa-machigatteiru-darou-ka-iii-ova.webp",
      "imagem_pasta": "https://animefire.plus/img/animes/dungeon-ni-deai-wo-motomeru-no-wa-machigatteiru-darou-ka-iii-ova/",
      "secao": "legendados",
      "pagina": 46,
      "total_episodios": 1,
      "link_video": "https://animefire.plus/video/dungeon-ni-deai-wo-motomeru-no-wa-machigatteiru-darou-ka-iii-ova"
    },
    {
      "id": 914,
      "nome": "Early Reins",
      "link": "https://animefire.plus/animes/early-reins-todos-os-episodios",
      "texto_original": "Early Reins",
      "rating": 5.93,
      "classificacao_etaria": "A16",
      "imagem_original": "https://animefire.plus/img/animes/early-reins.webp",
      "imagem_pasta": "https://animefire.plus/img/animes/early-reins/",
      "secao": "legendados",
      "pagina": 66,
      "total_episodios": 1,
      "link_video": "https://animefire.plus/video/early-reins"
    },
    {
      "id": 932,
      "nome": "El Hazard 2: The Magnificent World",
      "link": "https://animefire.plus/animes/el-hazard-2-the-magnificent-world-todos-os-episodios",
      "texto_original": "El Hazard 2: The Magnificent World",
      "rating": 6.86,
      "classificacao_etaria": "A14",
      "imagem_original": "https://animefire.plus/img/animes/el-hazard-2-the-magnificent-world.webp",
      "imagem_pasta": "https://animefire.plus/img/animes/el-hazard-2-the-magnificent-world/",
      "secao": "legendados",
      "pagina": 63,
      "total_episodios": 1,
      "link_video": "https://animefire.plus/video/el-hazard-2-the-magnificent-world"
    },
    {
      "id": 936,
      "nome": "ēlDLIVE",
      "link": "https://animefire.plus/animes/eldlive-todos-os-episodios",
      "texto_original": "ēlDLIVE",
      "rating": 6.25,
      "classificacao_etaria": "A14",
      "imagem_original": "https://animefire.plus/img/animes/eldlive.webp",
      "imagem_pasta": "https://animefire.plus/img/animes/eldlive/",
      "secao": "legendados",
      "pagina": 154,
      "total_episodios": 1,
      "link_video": "https://animefire.plus/video/eldlive"
    },
    {
      "id": 980,
      "nome": "FASTENING DAYS",
      "link": "https://animefire.plus/animes/fastening-days-todos-os-episodios",
      "texto_original": "FASTENING DAYS",
      "rating": 6.48,
      "classificacao_etaria": null,
      "imagem_original": "https://animefire.plus/img/animes/fastening-days.webp",
      "imagem_pasta": "https://animefire.plus/img/animes/fastening-days/",
      "secao": "legendados",
      "pagina": 87,
      "total_episodios": 1,
      "link_video": "https://animefire.plus/video/fastening-days"
    }
  ],
  "pagination": {
    "current_page": 5,
    "per_page": 20,
    "total_items": 465,
    "total_pages": 24,
    "has_next": true,
    "has_prev": true
  }
}
