{
  "message": "Animes com 1 a 1 episódios",
  "episode_range": {
    "min": 1,
    "max": 1
  },
  "data": [
    {
      "id": 981,
      "nome": "Fatal Fury 2: The New Battle (Dublado)",
      "link": "https://animefire.plus/animes/fatal-fury-2-the-new-battle-dublado-todos-os-episodios",
      "texto_original": "Fatal Fury 2: The New Battle (Dublado)",
      "rating": 6.76,
      "classificacao_etaria": "A16",
      "imagem_original": "https://animefire.plus/img/animes/fatal-fury-2-the-new-battle.webp",
      "imagem_pasta": "https://animefire.plus/img/animes/fatal-fury-2-the-new-battle/",
      "secao": "dublados",
      "pagina": 21,
      "total_episodios": 1,
      "link_video": "https://animefire.plus/video/fatal-fury-2-the-new-battle-dublado"
    },
    {
      "id": 982,
      "nome": "Fatal Fury: Legend of the Hungry Wolf (Dublado)",
      "link": "https://animefire.plus/animes/fatal-fury-legend-of-the-hungry-wolf-dublado-todos-os-episodios",
      "texto_original": "Fatal Fury: Legend of the Hungry Wolf (Dublado)",
      "rating": 6.47,
      "classificacao_etaria": "A14",
      "imagem_original": "https://animefire.plus/img/animes/fatal-fury-legend-of-the-hungry-wolf.webp",
      "imagem_pasta": "https://animefire.plus/img/animes/fatal-fury-legend-of-the-hungry-wolf/",
      "secao": "dublados",
      "pagina": 21,
      "total_episodios": 1,
      "link_video": "https://animefire.plus/video/fatal-fury-legend-of-the-hungry-wolf-dublado"
    },
    {
      "id": 987,
      "nome": "Fate/Grand Order: First Order",
      "link": "https://animefire.plus/animes/fate-grand-order-first-order-todos-os-episodios",
      "texto_original": "Fate/Grand Order: First Order",
      "rating": 6.85,
      "classificacao_etaria": "A14",
      "imagem_original": "https://animefire.plus/img/animes/fate-grand-order-first-order.webp",
      "imagem_pasta": "https://animefire.plus/img/animes/fate-grand-order-first-order/",
      "secao": "legendados",
      "pagina": 82,
      "total_episodios": 1,
      "link_video": "https://animefire.plus/video/fate-grand-order-first-order"
    },
    {
      "id": 988,
      "nome": "Fate/Grand Order: Himuro no Tenchi - 7-nin no Saikyou Ijin-hen",
      "link": "https://animefire.plus/animes/fate-grand-order-himuro-no-tenchi---7-nin-no-saikyou-ijin-hen-todos-os-episodios",
      "texto_original": "Fate/Grand Order: Himuro no Tenchi - 7-nin no Saikyou Ijin-hen",
      "rating": 6.37,
      "classificacao_etaria": "A14",
      "imagem_original": "https://animefire.plus/img/animes/fate-grand-order-himuro-no-tenchi---7-nin-no-saikyou-ijin-hen.webp",
      "imagem_pasta": "https://animefire.plus/img/animes/fate-grand-order-himuro-no-tenchi---7-nin-no-saikyou-ijin-hen/",
      "secao": "legendados",
      "pagina": 73,
      "total_episodios": 1,
      "link_video": "https://animefire.plus/video/fate-grand-order-himuro-no-tenchi---7-nin-no-saikyou-ijin-hen"
    },
    {
      "id": 989,
      "nome": "Fate/Grand Order: Moonlight/Lostroom",
      "link": "https://animefire.plus/animes/fate-grand-order-moonlight-lostroom-todos-os-episodios",
      "texto_original": "Fate/Grand Order: Moonlight/Lostroom",
      "rating": 6.27,
      "classificacao_etaria": "A14",
      "imagem_original": "https://animefire.plus/img/animes/fate-grand-order-moonlight-lostroom.webp",
      "imagem_pasta": "https://animefire.plus/img/animes/fate-grand-order-moonlight-lostroom/",
      "secao": "legendados",
      "pagina": 97,
      "total_episodios": 1,
      "link_video": "https://animefire.plus/video/fate-grand-order-moonlight-lostroom"
    },
    {
      "id": 990,
      "nome": "Fate/Grand Order: Zettai Majuu Sensen Babylonia",
      "link": "https://animefire.plus/animes/fate-grand-order-zettai-majuu-sensen-babylonia-todos-os-episodios",
      "texto_original": "Fate/Grand Order: Zettai Majuu Sensen Babylonia",
      "rating": 7.95,
      "classificacao_etaria": "A14",
      "imagem_original": "https://animefire.plus/img/animes/fate-grand-order-zettai-majuu-sensen-babylonia.webp",
      "imagem_pasta": "https://animefire.plus/img/animes/fate-grand-order-zettai-majuu-sensen-babylonia/",
      "secao": "legendados",
      "pagina": 110,
      "total_episodios": 1,
      "link_video": "https://animefire.plus/video/fate-grand-order-zettai-majuu-sensen-babylonia"
    },
    {
      "id": 991,
      "nome": "Fate/Grand Order: Zettai Majuu Sensen Babylonia - Initium Iter",
      "link": "https://animefire.plus/animes/fate-grand-order-zettai-majuu-sensen-babylonia---initium-iter-todos-os-episodios",
      "texto_original": "Fate/Grand Order: Zettai Majuu Sensen Babylonia - Initium Iter",
      "rating": 7.21,
      "classificacao_etaria": "A14",
      "imagem_original": "https://animefire.plus/img/animes/fate-grand-order-zettai-majuu-sensen-babylonia---initium-iter.webp",
      "imagem_pasta": "https://animefire.plus/img/animes/fate-grand-order-zettai-majuu-sensen-babylonia---initium-iter/",
      "secao": "legendados",
      "pagina": 105,
      "total_episodios": 1,
      "link_video": "https://animefire.plus/video/fate-grand-order-zettai-majuu-sensen-babylonia---initium-iter"
    },
    {
      "id": 996,
      "nome": "Fate/Prototype",
      "link": "https://animefire.plus/animes/fate-prototype-todos-os-episodios",
      "texto_original": "Fate/Prototype",
      "rating": 6.79,
      "classificacao_etaria": "A14",
      "imagem_original": "https://animefire.plus/img/animes/fate-prototype.webp",
      "imagem_pasta": "https://animefire.plus/img/animes/fate-prototype/",
      "secao": "legendados",
      "pagina": 73,
      "total_episodios": 1,
      "link_video": "https://animefire.plus/video/fate-prototype"
    },
    {
      "id": 1000,
      "nome": "Fate/strange Fake",
      "link": "https://animefire.plus/animes/fate-strange-fake-todos-os-episodios",
      "texto_original": "Fate/strange Fake",
      "rating": null,
      "classificacao_etaria": "A16",
      "imagem_original": "https://animefire.plus/img/animes/fate-strange-fake.webp",
      "imagem_pasta": "https://animefire.plus/img/animes/fate-strange-fake/",
      "secao": "legendados,lancamentos",
      "pagina": 8,
      "total_episodios": 1,
      "link_video": "https://animefire.plus/video/fate-strange-fake"
    },
    {
      "id": 1001,
      "nome": "Fate/strange Fake: Whispers of Dawn",
      "link": "https://animefire.plus/animes/fate-strange-fake-whispers-of-dawn-todos-os-episodios",
      "texto_original": "Fate/strange Fake: Whispers of Dawn",
      "rating": 8.18,
      "classificacao_etaria": "A16",
      "imagem_original": "https://animefire.plus/img/animes/fate-strange-fake-whispers-of-dawn.webp",
      "imagem_pasta": "https://animefire.plus/img/animes/fate-strange-fake-whispers-of-dawn/",
      "secao": "legendados",
      "pagina": 21,
      "total_episodios": 1,
      "link_video": "https://animefire.plus/video/fate-strange-fake-whispers-of-dawn"
    },
    {
      "id": 1006,
      "nome": "Fight Ippatsu! Juuden-Chan!!",
      "link": "https://animefire.plus/animes/fight-ippatsu-juuden-chan-todos-os-episodios",
      "texto_original": "Fight Ippatsu! Juuden-Chan!!",
      "rating": 6.73,
      "classificacao_etaria": "A18",
      "imagem_original": "https://animefire.plus/img/animes/fight-ippatsu-juuden-chan.webp",
      "imagem_pasta": "https://animefire.plus/img/animes/fight-ippatsu-juuden-chan/",
      "secao": "legendados",
      "pagina": 98,
      "total_episodios": 1,
      "link_video": "https://animefire.plus/video/fight-ippatsu-juuden-chan"
    },
    {
      "id": 1022,
      "nome": "Francesca",
      "link": "https://animefire.plus/animes/francesca-todos-os-episodios",
      "texto_original": "Francesca",
      "rating": 5.54,
      "classificacao_etaria": "A14",
      "imagem_original": "https://animefire.plus/img/animes/francesca.webp",
      "imagem_pasta": "https://animefire.plus/img/animes/francesca/",
      "secao": "legendados",
      "pagina": 129,
      "total_episodios": 1,
      "link_video": "https://animefire.plus/video/francesca"
    },
    {
      "id": 1036,
      "nome": "Fugou Keiji: Balance:Unlimited",
      "link": "https://animefire.plus/animes/fugou-keiji-balance-unlimited-todos-os-episodios",
      "texto_original": "Fugou Keiji: Balance:Unlimited",
      "rating": 7.56,
      "classificacao_etaria": "A14",
      "imagem_original": "https://animefire.plus/img/animes/fugou-keiji-balance-unlimited.webp",
      "imagem_pasta": "https://animefire.plus/img/animes/fugou-keiji-balance-unlimited/",
      "secao": "legendados",
      "pagina": 80,
      "total_episodios": 1,
      "link_video": "https://animefire.plus/video/fugou-keiji-balance-unlimited"
    },
    {
      "id": 1051,
      "nome": "Fumiko no Kokuhaku",
      "link": "https://animefire.plus/animes/fumiko-no-kokuhaku-todos-os-episodios",
      "texto_original": "Fumiko no Kokuhaku",
      "rating": 6.68,
      "classificacao_etaria": "A14",
      "imagem_original": "https://animefire.plus/img/animes/fumiko-no-kokuhaku.webp",
      "imagem_pasta": "https://animefire.plus/img/animes/fumiko-no-kokuhaku/",
      "secao": "legendados",
      "pagina": 54,
      "total_episodios": 1,
      "link_video": "https://animefire.plus/video/fumiko-no-kokuhaku"
    },
    {
      "id": 1058,
      "nome": "Futari Ecchi (2014)",
      "link": "https://animefire.plus/animes/futari-ecchi-2014-todos-os-episodios",
      "texto_original": "Futari Ecchi (2014)",
      "rating": 6.23,
      "classificacao_etaria": "A18",
      "imagem_original": "https://animefire.plus/img/animes/futari-ecchi-2014.webp",
      "imagem_pasta": "https://animefire.plus/img/animes/futari-ecchi-2014/",
      "secao": "legendados",
      "pagina": 70,
      "total_episodios": 1,
      "link_video": "https://animefire.plus/video/futari-ecchi-2014"
    },
    {
      "id": 1084,
      "nome": "Gakuen Babysitters Special",
      "link": "https://animefire.plus/animes/gakuen-babysitters-special-todos-os-episodios",
      "texto_original": "Gakuen Babysitters Special",
      "rating": 7.59,
      "classificacao_etaria": "A14",
      "imagem_original": "https://animefire.plus/img/animes/gakuen-babysitters-special.webp",
      "imagem_pasta": "https://animefire.plus/img/animes/gakuen-babysitters-special/",
      "secao": "legendados",
      "pagina": 88,
      "total_episodios": 1,
      "link_video": "https://animefire.plus/video/gakuen-babysitters-special"
    },
    {
      "id": 1088,
      "nome": "Gakuen Tokusou Hikaruon",
      "link": "https://animefire.plus/animes/gakuen-tokusou-hikaruon-todos-os-episodios",
      "texto_original": "Gakuen Tokusou Hikaruon",
      "rating": 5.56,
      "classificacao_etaria": "A18",
      "imagem_original": "https://animefire.plus/img/animes/gakuen-tokusou-hikaruon.webp",
      "imagem_pasta": "https://animefire.plus/img/animes/gakuen-tokusou-hikaruon/",
      "secao": "legendados",
      "pagina": 44,
      "total_episodios": 1,
      "link_video": "https://animefire.plus/video/gakuen-tokusou-hikaruon"
    },
    {
      "id": 1092,
      "nome": "Gal to Kyouryuu",
      "link": "https://animefire.plus/animes/gal-to-kyouryuu-todos-os-episodios",
      "texto_original": "Gal to Kyouryuu",
      "rating": 6.45,
      "classificacao_etaria": "A14",
      "imagem_original": "https://animefire.plus/img/animes/gal-to-kyouryuu.webp",
      "imagem_pasta": "https://animefire.plus/img/animes/gal-to-kyouryuu/",
      "secao": "legendados",
      "pagina": 81,
      "total_episodios": 1,
      "link_video": "https://animefire.plus/video/gal-to-kyouryuu"
    },
    {
      "id": 1095,
      "nome": "Galaxy Angel Music Collection: Shouen to Shien no Cassoulet",
      "link": "https://animefire.plus/animes/galaxy-angel-music-collection-shouen-to-shien-no-cassoulet-todos-os-episodios",
      "texto_original": "Galaxy Angel Music Collection: Shouen to Shien no Cassoulet",
      "rating": 6.99,
      "classificacao_etaria": "A14",
      "imagem_original": "https://animefire.plus/img/animes/galaxy-angel-music-collection-shouen-to-shien-no-cassoulet.webp",
      "imagem_pasta": "https://animefire.plus/img/animes/galaxy-angel-music-collection-shouen-to-shien-no-cassoulet/",
      "secao": "legendados",
      "pagina": 84,
      "total_episodios": 1,
      "link_video": "https://animefire.plus/video/galaxy-angel-music-collection-shouen-to-shien-no-cassoulet"
    },
    {
      "id": 1098,
      "nome": "Gall Force 3: Stardust War",
      "link": "https://animefire.plus/animes/gall-force-3-stardust-war-todos-os-episodios",
      "texto_original": "Gall Force 3: Stardust War",
      "rating": 6.36,
      "classificacao_etaria": "A18",
      "imagem_original": "https://animefire.plus/img/animes/gall-force-3-stardust-war.webp",
      "imagem_pasta": "https://animefire.plus/img/animes/gall-force-3-stardust-war/",
      "secao": "legendados",
      "pagina": 42,
      "total_episodios": 1,
      "link_video": "https://animefire.plus/video/gall-force-3-stardust-war"
    }
  ],
  "pagination": {
    "current_page": 6,
    "per_page": 20,
    "total_items": 465,
    "total_pages": 24,
    "has_next": true,
    "has_prev": true
  }
}
