{
  "message": "Animes com 1 a 1 episódios",
  "episode_range": {
    "min": 1,
    "max": 1
  },
  "data": [
    {
      "id": 2749,
      "nome": "Nisemonogatari",
      "link": "https://animefire.plus/animes/nisemonogatari-todos-os-episodios",
      "texto_original": "Nisemonogatari",
      "rating": 8.2,
      "classificacao_etaria": "A16",
      "imagem_original": "https://animefire.plus/img/animes/nisemonogatari.webp",
      "imagem_pasta": "https://animefire.plus/img/animes/nisemonogatari/",
      "secao": "legendados",
      "pagina": 148,
      "total_episodios": 1,
      "link_video": "https://animefire.plus/video/nisemonogatari"
    },
    {
      "id": 2758,
      "nome": "Noblesse: Awakening",
      "link": "https://animefire.plus/animes/noblesse-awakening-todos-os-episodios",
      "texto_original": "Noblesse: Awakening",
      "rating": 7.67,
      "classificacao_etaria": "A16",
      "imagem_original": "https://animefire.plus/img/animes/noblesse-awakening.webp",
      "imagem_pasta": "https://animefire.plus/img/animes/noblesse-awakening/",
      "secao": "legendados",
      "pagina": 153,
      "total_episodios": 1,
      "link_video": "https://animefire.plus/video/noblesse-awakening"
    },
    {
      "id": 2759,
      "nome": "Noblesse: Pamyeol-ui Sijak",
      "link": "https://animefire.plus/animes/noblesse-pamyeol-ui-sijak-todos-os-episodios",
      "texto_original": "Noblesse: Pamyeol-ui Sijak",
      "rating": 7.43,
      "classificacao_etaria": "A16",
      "imagem_original": "https://animefire.plus/img/animes/noblesse-pamyeol-ui-sijak.webp",
      "imagem_pasta": "https://animefire.plus/img/animes/noblesse-pamyeol-ui-sijak/",
      "secao": "legendados",
      "pagina": 51,
      "total_episodios": 1,
      "link_video": "https://animefire.plus/video/noblesse-pamyeol-ui-sijak"
    },
    {
      "id": 2782,
      "nome": "Noragami Aragoto OVA",
      "link": "https://animefire.plus/animes/noragami-aragoto-ova-todos-os-episodios",
      "texto_original": "Noragami Aragoto OVA",
      "rating": 7.98,
      "classificacao_etaria": "A14",
      "imagem_original": "https://animefire.plus/img/animes/noragami-aragoto-ova.webp",
      "imagem_pasta": "https://animefire.plus/img/animes/noragami-aragoto-ova/",
      "secao": "legendados",
      "pagina": 62,
      "total_episodios": 1,
      "link_video": "https://animefire.plus/video/noragami-aragoto-ova"
    },
    {
      "id": 2791,
      "nome": "Null Peta Special",
      "link": "https://animefire.plus/animes/null-peta-special-todos-os-episodios",
      "texto_original": "Null Peta Special",
      "rating": 5.62,
      "classificacao_etaria": "A14",
      "imagem_original": "https://animefire.plus/img/animes/null-peta-special.webp",
      "imagem_pasta": "https://animefire.plus/img/animes/null-peta-special/",
      "secao": "legendados",
      "pagina": 88,
      "total_episodios": 1,
      "link_video": "https://animefire.plus/video/null-peta-special"
    },
    {
      "id": 2799,
      "nome": "Nyanko Days",
      "link": "https://animefire.plus/animes/nyanko-days-todos-os-episodios",
      "texto_original": "Nyanko Days",
      "rating": 6.66,
      "classificacao_etaria": "A14",
      "imagem_original": "https://animefire.plus/img/animes/nyanko-days.webp",
      "imagem_pasta": "https://animefire.plus/img/animes/nyanko-days/",
      "secao": "legendados",
      "pagina": 118,
      "total_episodios": 1,
      "link_video": "https://animefire.plus/video/nyanko-days"
    },
    {
      "id": 2811,
      "nome": "Ojisan to Marshmallow",
      "link": "https://animefire.plus/animes/ojisan-to-marshmallow-todos-os-episodios",
      "texto_original": "Ojisan to Marshmallow",
      "rating": 6.63,
      "classificacao_etaria": "A14",
      "imagem_original": "https://animefire.plus/img/animes/ojisan-to-marshmallow.webp",
      "imagem_pasta": "https://animefire.plus/img/animes/ojisan-to-marshmallow/",
      "secao": "legendados",
      "pagina": 62,
      "total_episodios": 1,
      "link_video": "https://animefire.plus/video/ojisan-to-marshmallow"
    },
    {
      "id": 2816,
      "nome": "Okusama ga Seitokaichou!: Seitokaichou to Ofuro Asobi",
      "link": "https://animefire.plus/animes/okusama-ga-seitokaichou-seitokaichou-to-ofuro-asobi-todos-os-episodios",
      "texto_original": "Okusama ga Seitokaichou!: Seitokaichou to Ofuro Asobi",
      "rating": 6.82,
      "classificacao_etaria": "A18",
      "imagem_original": "https://animefire.plus/img/animes/okusama-ga-seitokaichou-seitokaichou-to-ofuro-asobi.webp",
      "imagem_pasta": "https://animefire.plus/img/animes/okusama-ga-seitokaichou-seitokaichou-to-ofuro-asobi/",
      "secao": "legendados",
      "pagina": 59,
      "total_episodios": 1,
      "link_video": "https://animefire.plus/video/okusama-ga-seitokaichou-seitokaichou-to-ofuro-asobi"
    },
    {
      "id": 2824,
      "nome": "Omoi No Kakera",
      "link": "https://animefire.plus/animes/omoi-no-kakera-todos-os-episodios",
      "texto_original": "Omoi No Kakera",
      "rating": 6.58,
      "classificacao_etaria": "A14",
      "imagem_original": "https://animefire.plus/img/animes/omoi-no-kakera.webp",
      "imagem_pasta": "https://animefire.plus/img/animes/omoi-no-kakera/",
      "secao": "legendados",
      "pagina": 101,
      "total_episodios": 1,
      "link_video": "https://animefire.plus/video/omoi-no-kakera"
    },
    {
      "id": 2827,
      "nome": "One Piece 3D2Y: Ace no shi wo Koete! Luffy Nakama Tono Chikai",
      "link": "https://animefire.plus/animes/one-piece-3d2y-ace-no-shi-wo-koete-luffy-nakama-tono-chikai-todos-os-episodios",
      "texto_original": "One Piece 3D2Y: Ace no shi wo Koete! Luffy Nakama Tono Chikai",
      "rating": 7.97,
      "classificacao_etaria": "A14",
      "imagem_original": "https://animefire.plus/img/animes/one-piece-3d2y-ace-no-shi-wo-koete-luffy-nakama-tono-chikai.webp",
      "imagem_pasta": "https://animefire.plus/img/animes/one-piece-3d2y-ace-no-shi-wo-koete-luffy-nakama-tono-chikai/",
      "secao": "legendados",
      "pagina": 77,
      "total_episodios": 1,
      "link_video": "https://animefire.plus/video/one-piece-3d2y-ace-no-shi-wo-koete-luffy-nakama-tono-chikai"
    },
    {
      "id": 2828,
      "nome": "One Piece Film: Strong World Episode 0",
      "link": "https://animefire.plus/animes/one-piece-film-strong-world-episode-0-todos-os-episodios",
      "texto_original": "One Piece Film: Strong World Episode 0",
      "rating": 8.04,
      "classificacao_etaria": "A14",
      "imagem_original": "https://animefire.plus/img/animes/one-piece-film-strong-world-episode-0.webp",
      "imagem_pasta": "https://animefire.plus/img/animes/one-piece-film-strong-world-episode-0/",
      "secao": "legendados",
      "pagina": 77,
      "total_episodios": 1,
      "link_video": "https://animefire.plus/video/one-piece-film-strong-world-episode-0"
    },
    {
      "id": 2835,
      "nome": "One Piece: Heart of Gold",
      "link": "https://animefire.plus/animes/one-piece-heart-of-gold-todos-os-episodios",
      "texto_original": "One Piece: Heart of Gold",
      "rating": 7.58,
      "classificacao_etaria": "A14",
      "imagem_original": "https://animefire.plus/img/animes/one-piece-heart-of-gold.webp",
      "imagem_pasta": "https://animefire.plus/img/animes/one-piece-heart-of-gold/",
      "secao": "legendados",
      "pagina": 78,
      "total_episodios": 1,
      "link_video": "https://animefire.plus/video/one-piece-heart-of-gold"
    },
    {
      "id": 2836,
      "nome": "One Piece: Taose! Kaizoku Ganzack",
      "link": "https://animefire.plus/animes/one-piece-taose-kaizoku-ganzack-todos-os-episodios",
      "texto_original": "One Piece: Taose! Kaizoku Ganzack",
      "rating": 6.76,
      "classificacao_etaria": "A10",
      "imagem_original": "https://animefire.plus/img/animes/one-piece-taose-kaizoku-ganzack.webp",
      "imagem_pasta": "https://animefire.plus/img/animes/one-piece-taose-kaizoku-ganzack/",
      "secao": "legendados",
      "pagina": 55,
      "total_episodios": 1,
      "link_video": "https://animefire.plus/video/one-piece-taose-kaizoku-ganzack"
    },
    {
      "id": 2837,
      "nome": "One Pound Gospel",
      "link": "https://animefire.plus/animes/one-pound-gospel-todos-os-episodios",
      "texto_original": "One Pound Gospel",
      "rating": 6.5,
      "classificacao_etaria": "A14",
      "imagem_original": "https://animefire.plus/img/animes/one-pound-gospel.webp",
      "imagem_pasta": "https://animefire.plus/img/animes/one-pound-gospel/",
      "secao": "legendados",
      "pagina": 66,
      "total_episodios": 1,
      "link_video": "https://animefire.plus/video/one-pound-gospel"
    },
    {
      "id": 2840,
      "nome": "One Punch Man 2nd Season Commemorative Special",
      "link": "https://animefire.plus/animes/one-punch-man-2nd-season-commemorative-special-todos-os-episodios",
      "texto_original": "One Punch Man 2nd Season Commemorative Special",
      "rating": 6.71,
      "classificacao_etaria": "A16",
      "imagem_original": "https://animefire.plus/img/animes/one-punch-man-2nd-season-commemorative-special.webp",
      "imagem_pasta": "https://animefire.plus/img/animes/one-punch-man-2nd-season-commemorative-special/",
      "secao": "legendados",
      "pagina": 89,
      "total_episodios": 1,
      "link_video": "https://animefire.plus/video/one-punch-man-2nd-season-commemorative-special"
    },
    {
      "id": 2865,
      "nome": "Ooi! Tonbo",
      "link": "https://animefire.plus/animes/ooi-tonbo-todos-os-episodios",
      "texto_original": "Ooi! Tonbo",
      "rating": 7.11,
      "classificacao_etaria": "A14",
      "imagem_original": "https://animefire.plus/img/animes/ooi-tonbo.webp",
      "imagem_pasta": "https://animefire.plus/img/animes/ooi-tonbo/",
      "secao": "legendados,lancamentos",
      "pagina": 14,
      "total_episodios": 1,
      "link_video": "https://animefire.plus/video/ooi-tonbo"
    },
    {
      "id": 2875,
      "nome": "Ookiku Furikabutte: Natsu no Taikai-hen – Mokuhyou",
      "link": "https://animefire.plus/animes/ookiku-furikabutte-natsu-no-taikai-hen-mokuhyou-todos-os-episodios",
      "texto_original": "Ookiku Furikabutte: Natsu no Taikai-hen – Mokuhyou",
      "rating": 7.44,
      "classificacao_etaria": null,
      "imagem_original": "https://animefire.plus/img/animes/ookiku-furikabutte-natsu-no-taikai-hen-mokuhyou.webp",
      "imagem_pasta": "https://animefire.plus/img/animes/ookiku-furikabutte-natsu-no-taikai-hen-mokuhyou/",
      "secao": "legendados",
      "pagina": 89,
      "total_episodios": 1,
      "link_video": "https://animefire.plus/video/ookiku-furikabutte-natsu-no-taikai-hen-mokuhyou"
    },
    {
      "id": 2889,
      "nome": "Ore no Nounai Sentakushi ga, Gakuen Love Comedy wo Zenryoku de Jama Shiteiru OVA",
      "link": "https://animefire.plus/animes/ore-no-nounai-sentakushi-ga-gakuen-love-comedy-wo-zenryoku-de-jama-shiteiru-ova-todos-os-episodios",
      "texto_original": "Ore no Nounai Sentakushi ga, Gakuen Love Comedy wo Zenryoku de Jama Shiteiru OVA",
      "rating": 7.27,
      "classificacao_etaria": "A14",
      "imagem_original": "https://animefire.plus/img/animes/ore-no-nounai-sentakushi-ga-gakuen-love-comedy-wo-zenryoku-de-jama-shiteiru-ova.webp",
      "imagem_pasta": "https://animefire.plus/img/animes/ore-no-nounai-sentakushi-ga-gakuen-love-comedy-wo-zenryoku-de-jama-shiteiru-ova/",
      "secao": "legendados",
      "pagina": 75,
      "total_episodios": 1,
      "link_video": "https://animefire.plus/video/ore-no-nounai-sentakushi-ga-gakuen-love-comedy-wo-zenryoku-de-jama-shiteiru-ova"
    },
    {
      "id": 2893,
      "nome": "Ore wo Suki nano wa Omae dake ka yo: Oretachi no Game Set",
      "link": "https://animefire.plus/animes/ore-wo-suki-nano-wa-omae-dake-ka-yo-oretachi-no-game-set-todos-os-episodios",
      "texto_original": "Ore wo Suki nano wa Omae dake ka yo: Oretachi no Game Set",
      "rating": null,
      "classificacao_etaria": "A14",
      "imagem_original": "https://animefire.plus/img/animes/ore-wo-suki-nano-wa-omae-dake-ka-yo-oretachi-no-game-set.webp",
      "imagem_pasta": "https://animefire.plus/img/animes/ore-wo-suki-nano-wa-omae-dake-ka-yo-oretachi-no-game-set/",
      "secao": "legendados",
      "pagina": 56,
      "total_episodios": 1,
      "link_video": "https://animefire.plus/video/ore-wo-suki-nano-wa-omae-dake-ka-yo-oretachi-no-game-set"
    },
    {
      "id": 2895,
      "nome": "Orenchi no Furo Jijou",
      "link": "https://animefire.plus/animes/orenchi-no-furo-jijou-todos-os-episodios",
      "texto_original": "Orenchi no Furo Jijou",
      "rating": 7.1,
      "classificacao_etaria": "A14",
      "imagem_original": "https://animefire.plus/img/animes/orenchi-no-furo-jijou.webp",
      "imagem_pasta": "https://animefire.plus/img/animes/orenchi-no-furo-jijou/",
      "secao": "legendados",
      "pagina": 170,
      "total_episodios": 1,
      "link_video": "https://animefire.plus/video/orenchi-no-furo-jijou"
    }
  ],
  "pagination": {
    "current_page": 16,
    "per_page": 20,
    "total_items": 465,
    "total_pages": 24,
    "has_next": true,
    "has_prev": true
  }
}
