{
  "message": "Animes com 1 a 1 episódios",
  "episode_range": {
    "min": 1,
    "max": 1
  },
  "data": [
    {
      "id": 5,
      "nome": ".hack//Tasogare no Udewa Densetsu",
      "link": "https://animefire.plus/animes/hack-tasogare-no-udewa-densetsu-todos-os-episodios",
      "texto_original": ".hack//Tasogare no Udewa Densetsu",
      "rating": 6.68,
      "classificacao_etaria": "A14",
      "imagem_original": "https://animefire.plus/img/animes/hack-tasogare-no-udewa-densetsu.webp",
      "imagem_pasta": "https://animefire.plus/img/animes/hack-tasogare-no-udewa-densetsu/",
      "secao": "legendados",
      "pagina": 169,
      "total_episodios": 1,
      "link_video": "https://animefire.plus/video/hack-tasogare-no-udewa-densetsu"
    },
    {
      "id": 13,
      "nome": "1-gatsu ni wa Christmas",
      "link": "https://animefire.plus/animes/1-gatsu-ni-wa-christmas-todos-os-episodios",
      "texto_original": "1-gatsu ni wa Christmas",
      "rating": 5.42,
      "classificacao_etaria": null,
      "imagem_original": "https://animefire.plus/img/animes/1-gatsu-ni-wa-christmas.webp",
      "imagem_pasta": "https://animefire.plus/img/animes/1-gatsu-ni-wa-christmas/",
      "secao": "legendados",
      "pagina": 42,
      "total_episodios": 1,
      "link_video": "https://animefire.plus/video/1-gatsu-ni-wa-christmas"
    },
    {
      "id": 26,
      "nome": "22/7: 8＋3=?",
      "link": "https://animefire.plus/animes/22-7-8-3-todos-os-episodios",
      "texto_original": "22/7: 8＋3=?",
      "rating": 6.6,
      "classificacao_etaria": "A14",
      "imagem_original": "https://animefire.plus/img/animes/22-7-8-3.webp",
      "imagem_pasta": "https://animefire.plus/img/animes/22-7-8-3/",
      "secao": "legendados",
      "pagina": 53,
      "total_episodios": 1,
      "link_video": "https://animefire.plus/video/22-7-8-3"
    },
    {
      "id": 38,
      "nome": "5-toubun no Hanayome∽",
      "link": "https://animefire.plus/animes/the-quintessential-quintuplets-todos-os-episodios",
      "texto_original": "5-toubun no Hanayome∽",
      "rating": 7.95,
      "classificacao_etaria": "A14",
      "imagem_original": "https://animefire.plus/img/animes/the-quintessential-quintuplets.webp",
      "imagem_pasta": "https://animefire.plus/img/animes/the-quintessential-quintuplets/",
      "secao": "legendados",
      "pagina": 21,
      "total_episodios": 1,
      "link_video": "https://animefire.plus/video/the-quintessential-quintuplets"
    },
    {
      "id": 43,
      "nome": "9: Ruler's Crown",
      "link": "https://animefire.plus/animes/9-ruler-s-crown-todos-os-episodios",
      "texto_original": "9: Ruler's Crown",
      "rating": 5.92,
      "classificacao_etaria": "A14",
      "imagem_original": "https://animefire.plus/img/animes/9-ruler-s-crown.webp",
      "imagem_pasta": "https://animefire.plus/img/animes/9-ruler-s-crown/",
      "secao": "legendados,lancamentos",
      "pagina": 1,
      "total_episodios": 1,
      "link_video": "https://animefire.plus/video/9-ruler-s-crown"
    },
    {
      "id": 46,
      "nome": "A-Channel: Nabe wo Tabeyou",
      "link": "https://animefire.plus/animes/a-channel-nabe-wo-tabeyou-todos-os-episodios",
      "texto_original": "A-Channel: Nabe wo Tabeyou",
      "rating": 6.92,
      "classificacao_etaria": "A14",
      "imagem_original": "https://animefire.plus/img/animes/a-channel-nabe-wo-tabeyou.webp",
      "imagem_pasta": "https://animefire.plus/img/animes/a-channel-nabe-wo-tabeyou/",
      "secao": "legendados",
      "pagina": 88,
      "total_episodios": 1,
      "link_video": "https://animefire.plus/video/a-channel-nabe-wo-tabeyou"
    },
    {
      "id": 58,
      "nome": "ACCA: 13-ku Kansatsu-ka - Regards",
      "link": "https://animefire.plus/animes/acca-13-ku-kansatsu-ka---regards-todos-os-episodios",
      "texto_original": "ACCA: 13-ku Kansatsu-ka - Regards",
      "rating": 7.14,
      "classificacao_etaria": "A14",
      "imagem_original": "https://animefire.plus/img/animes/acca-13-ku-kansatsu-ka---regards.webp",
      "imagem_pasta": "https://animefire.plus/img/animes/acca-13-ku-kansatsu-ka---regards/",
      "secao": "legendados",
      "pagina": 71,
      "total_episodios": 1,
      "link_video": "https://animefire.plus/video/acca-13-ku-kansatsu-ka---regards"
    },
    {
      "id": 67,
      "nome": "Adesugata Mahou no Sannin Musume",
      "link": "https://animefire.plus/animes/adesugata-mahou-no-sannin-musume-todos-os-episodios",
      "texto_original": "Adesugata Mahou no Sannin Musume",
      "rating": 5.43,
      "classificacao_etaria": "A14",
      "imagem_original": "https://animefire.plus/img/animes/adesugata-mahou-no-sannin-musume.webp",
      "imagem_pasta": "https://animefire.plus/img/animes/adesugata-mahou-no-sannin-musume/",
      "secao": "legendados",
      "pagina": 83,
      "total_episodios": 1,
      "link_video": "https://animefire.plus/video/adesugata-mahou-no-sannin-musume"
    },
    {
      "id": 74,
      "nome": "Aggressive Retsuko: We Wish You a Metal Christmas (Dublado)",
      "link": "https://animefire.plus/animes/aggressive-retsuko-we-wish-you-a-metal-christmas-dublado-todos-os-episodios",
      "texto_original": "Aggressive Retsuko: We Wish You a Metal Christmas (Dublado)",
      "rating": 7.33,
      "classificacao_etaria": "A14",
      "imagem_original": "https://animefire.plus/img/animes/aggressive-retsuko-we-wish-you-a-metal-christmas.webp",
      "imagem_pasta": "https://animefire.plus/img/animes/aggressive-retsuko-we-wish-you-a-metal-christmas/",
      "secao": "dublados,legendados",
      "pagina": 24,
      "total_episodios": 1,
      "link_video": "https://animefire.plus/video/aggressive-retsuko-we-wish-you-a-metal-christmas-dublado"
    },
    {
      "id": 80,
      "nome": "Ai Mai! Moe Can Change!",
      "link": "https://animefire.plus/animes/ai-mai-moe-can-change-todos-os-episodios",
      "texto_original": "Ai Mai! Moe Can Change!",
      "rating": 5.58,
      "classificacao_etaria": "A14",
      "imagem_original": "https://animefire.plus/img/animes/ai-mai-moe-can-change.webp",
      "imagem_pasta": "https://animefire.plus/img/animes/ai-mai-moe-can-change/",
      "secao": "legendados",
      "pagina": 65,
      "total_episodios": 1,
      "link_video": "https://animefire.plus/video/ai-mai-moe-can-change"
    },
    {
      "id": 81,
      "nome": "Ai Monogatari: 9 Love Stories",
      "link": "https://animefire.plus/animes/ai-monogatari-9-love-stories-todos-os-episodios",
      "texto_original": "Ai Monogatari: 9 Love Stories",
      "rating": 6.63,
      "classificacao_etaria": "A14",
      "imagem_original": "https://animefire.plus/img/animes/ai-monogatari-9-love-stories.webp",
      "imagem_pasta": "https://animefire.plus/img/animes/ai-monogatari-9-love-stories/",
      "secao": "legendados",
      "pagina": 78,
      "total_episodios": 1,
      "link_video": "https://animefire.plus/video/ai-monogatari-9-love-stories"
    },
    {
      "id": 86,
      "nome": "Ai Tenshi Densetsu Wedding Peach DX",
      "link": "https://animefire.plus/animes/ai-tenshi-densetsu-wedding-peach-dx-todos-os-episodios",
      "texto_original": "Ai Tenshi Densetsu Wedding Peach DX",
      "rating": 6.7,
      "classificacao_etaria": "A14",
      "imagem_original": "https://animefire.plus/img/animes/ai-tenshi-densetsu-wedding-peach-dx.webp",
      "imagem_pasta": "https://animefire.plus/img/animes/ai-tenshi-densetsu-wedding-peach-dx/",
      "secao": "legendados",
      "pagina": 84,
      "total_episodios": 1,
      "link_video": "https://animefire.plus/video/ai-tenshi-densetsu-wedding-peach-dx"
    },
    {
      "id": 97,
      "nome": "Aikatsu!: Nerawareta Mahou no Aikatsu! Card",
      "link": "https://animefire.plus/animes/aikatsu-nerawareta-mahou-no-aikatsu-card-todos-os-episodios",
      "texto_original": "Aikatsu!: Nerawareta Mahou no Aikatsu! Card",
      "rating": 7.29,
      "classificacao_etaria": "A10",
      "imagem_original": "https://animefire.plus/img/animes/aikatsu-nerawareta-mahou-no-aikatsu-card.webp",
      "imagem_pasta": "https://animefire.plus/img/animes/aikatsu-nerawareta-mahou-no-aikatsu-card/",
      "secao": "legendados",
      "pagina": 88,
      "total_episodios": 1,
      "link_video": "https://animefire.plus/video/aikatsu-nerawareta-mahou-no-aikatsu-card"
    },
    {
      "id": 109,
      "nome": "Akagami no Shirayuki-hime: Nandemonai Takaramono, Kono Page",
      "link": "https://animefire.plus/animes/akagami-no-shirayuki-hime-nandemonai-takaramono-kono-page-todos-os-episodios",
      "texto_original": "Akagami no Shirayuki-hime: Nandemonai Takaramono, Kono Page",
      "rating": 7.74,
      "classificacao_etaria": "A14",
      "imagem_original": "https://animefire.plus/img/animes/akagami-no-shirayuki-hime-nandemonai-takaramono-kono-page.webp",
      "imagem_pasta": "https://animefire.plus/img/animes/akagami-no-shirayuki-hime-nandemonai-takaramono-kono-page/",
      "secao": "legendados",
      "pagina": 78,
      "total_episodios": 1,
      "link_video": "https://animefire.plus/video/akagami-no-shirayuki-hime-nandemonai-takaramono-kono-page"
    },
    {
      "id": 131,
      "nome": "Akuemon",
      "link": "https://animefire.plus/animes/akuemon-todos-os-episodios",
      "texto_original": "Akuemon",
      "rating": 6.04,
      "classificacao_etaria": "A14",
      "imagem_original": "https://animefire.plus/img/animes/akuemon.webp",
      "imagem_pasta": "https://animefire.plus/img/animes/akuemon/",
      "secao": "legendados",
      "pagina": 77,
      "total_episodios": 1,
      "link_video": "https://animefire.plus/video/akuemon"
    },
    {
      "id": 146,
      "nome": "Altered Carbon: Resleeved",
      "link": "https://animefire.plus/animes/altered-carbon-resleeved-todos-os-episodios",
      "texto_original": "Altered Carbon: Resleeved",
      "rating": 6.56,
      "classificacao_etaria": "A16",
      "imagem_original": "https://animefire.plus/img/animes/altered-carbon-resleeved.webp",
      "imagem_pasta": "https://animefire.plus/img/animes/altered-carbon-resleeved/",
      "secao": "legendados",
      "pagina": 78,
      "total_episodios": 1,
      "link_video": "https://animefire.plus/video/altered-carbon-resleeved"
    },
    {
      "id": 152,
      "nome": "Amagami SS+ Plus Picture Drama",
      "link": "https://animefire.plus/animes/amagami-ss-plus-picture-drama-todos-os-episodios",
      "texto_original": "Amagami SS+ Plus Picture Drama",
      "rating": 6.56,
      "classificacao_etaria": "A14",
      "imagem_original": "https://animefire.plus/img/animes/amagami-ss-plus-picture-drama.webp",
      "imagem_pasta": "https://animefire.plus/img/animes/amagami-ss-plus-picture-drama/",
      "secao": "legendados",
      "pagina": 69,
      "total_episodios": 1,
      "link_video": "https://animefire.plus/video/amagami-ss-plus-picture-drama"
    },
    {
      "id": 153,
      "nome": "Amagami SS+ Plus: Extra Episode+ Plus",
      "link": "https://animefire.plus/animes/amagami-ss-plus-extra-episode-plus-todos-os-episodios",
      "texto_original": "Amagami SS+ Plus: Extra Episode+ Plus",
      "rating": 7.25,
      "classificacao_etaria": "A14",
      "imagem_original": "https://animefire.plus/img/animes/amagami-ss-plus-extra-episode-plus.webp",
      "imagem_pasta": "https://animefire.plus/img/animes/amagami-ss-plus-extra-episode-plus/",
      "secao": "legendados",
      "pagina": 69,
      "total_episodios": 1,
      "link_video": "https://animefire.plus/video/amagami-ss-plus-extra-episode-plus"
    },
    {
      "id": 161,
      "nome": "Ame-iro Cocoa in Hawaii",
      "link": "https://animefire.plus/animes/ame-iro-cocoa-in-hawaii-todos-os-episodios",
      "texto_original": "Ame-iro Cocoa in Hawaii",
      "rating": 4.83,
      "classificacao_etaria": "A14",
      "imagem_original": "https://animefire.plus/img/animes/ame-iro-cocoa-in-hawaii.webp",
      "imagem_pasta": "https://animefire.plus/img/animes/ame-iro-cocoa-in-hawaii/",
      "secao": "legendados",
      "pagina": 135,
      "total_episodios": 1,
      "link_video": "https://animefire.plus/video/ame-iro-cocoa-in-hawaii"
    },
    {
      "id": 165,
      "nome": "Amon Saga",
      "link": "https://animefire.plus/animes/amon-saga-todos-os-episodios",
      "texto_original": "Amon Saga",
      "rating": 5.47,
      "classificacao_etaria": "A16",
      "imagem_original": "https://animefire.plus/img/animes/amon-saga.webp",
      "imagem_pasta": "https://animefire.plus/img/animes/amon-saga/",
      "secao": "legendados",
      "pagina": 42,
      "total_episodios": 1,
      "link_video": "https://animefire.plus/video/amon-saga"
    }
  ],
  "pagination": {
    "current_page": 1,
    "per_page": 20,
    "total_items": 465,
    "total_pages": 24,
    "has_next": true,
    "has_prev": false
  }
}
