{
  "message": "Animes com 101 a 1000 episódios",
  "episode_range": {
    "min": 101,
    "max": 1000
  },
  "data": [
    {
      "id": 410,
      "nome": "Black Clover (Dublado)",
      "link": "https://animefire.plus/animes/black-clover-dublado-todos-os-episodios",
      "texto_original": "Black Clover (Dublado)",
      "rating": 7.27,
      "classificacao_etaria": "A14",
      "imagem_original": "https://animefire.plus/img/animes/black-clover.webp",
      "imagem_pasta": "https://animefire.plus/img/animes/black-clover/",
      "secao": "dublados,legendados",
      "pagina": 20,
      "total_episodios": 170,
      "link_video": "https://animefire.plus/video/black-clover-dublado"
    },
    {
      "id": 423,
      "nome": "Bleach (Dublado)",
      "link": "https://animefire.plus/animes/bleach-dublado-todos-os-episodios",
      "texto_original": "Bleach (Dublado)",
      "rating": 7.81,
      "classificacao_etaria": "A14",
      "imagem_original": "https://animefire.plus/img/animes/bleach.webp",
      "imagem_pasta": "https://animefire.plus/img/animes/bleach/",
      "secao": "dublados,legendados",
      "pagina": 21,
      "total_episodios": 366,
      "link_video": "https://animefire.plus/video/bleach-dublado"
    },
    {
      "id": 483,
      "nome": "Boruto: Naruto Next Generations (Dublado)",
      "link": "https://animefire.plus/animes/boruto-naruto-next-generations-dublado-todos-os-episodios",
      "texto_original": "Boruto: Naruto Next Generations (Dublado)",
      "rating": 5.9,
      "classificacao_etaria": "A14",
      "imagem_original": "https://animefire.plus/img/animes/boruto-naruto-next-generations.webp",
      "imagem_pasta": "https://animefire.plus/img/animes/boruto-naruto-next-generations/",
      "secao": "dublados,legendados,lancamentos",
      "pagina": 13,
      "total_episodios": 104,
      "link_video": "https://animefire.plus/video/boruto-naruto-next-generations-dublado"
    },
    {
      "id": 874,
      "nome": "Dragon Ball (Dublado)",
      "link": "https://animefire.plus/animes/dragon-ball-dublado-todos-os-episodios",
      "texto_original": "Dragon Ball (Dublado)",
      "rating": 7.98,
      "classificacao_etaria": "A14",
      "imagem_original": "https://animefire.plus/img/animes/dragon-ball.webp",
      "imagem_pasta": "https://animefire.plus/img/animes/dragon-ball/",
      "secao": "dublados",
      "pagina": 17,
      "total_episodios": 153,
      "link_video": "https://animefire.plus/video/dragon-ball-dublado"
    },
    {
      "id": 880,
      "nome": "Dragon Ball Z (Dublado)",
      "link": "https://animefire.plus/animes/dragon-ball-z-dublado-todos-os-episodios",
      "texto_original": "Dragon Ball Z (Dublado)",
      "rating": 8.15,
      "classificacao_etaria": "A14",
      "imagem_original": "https://animefire.plus/img/animes/dragon-ball-z.webp",
      "imagem_pasta": "https://animefire.plus/img/animes/dragon-ball-z/",
      "secao": "dublados",
      "pagina": 17,
      "total_episodios": 291,
      "link_video": "https://animefire.plus/video/dragon-ball-z-dublado"
    },
    {
      "id": 965,
      "nome": "Eyeshield 21 (Dublado)",
      "link": "https://animefire.plus/animes/eyeshield-21-dublado-todos-os-episodios",
      "texto_original": "Eyeshield 21 (Dublado)",
      "rating": 7.92,
      "classificacao_etaria": "A14",
      "imagem_original": "https://animefire.plus/img/animes/eyeshield-21.webp",
      "imagem_pasta": "https://animefire.plus/img/animes/eyeshield-21/",
      "secao": "dublados,legendados",
      "pagina": 4,
      "total_episodios": 142,
      "link_video": "https://animefire.plus/video/eyeshield-21-dublado"
    },
    {
      "id": 1164,
      "nome": "Ginga Eiyuu Densetsu",
      "link": "https://animefire.plus/animes/ginga-eiyuu-densetsu-todos-os-episodios",
      "texto_original": "Ginga Eiyuu Densetsu",
      "rating": 9.06,
      "classificacao_etaria": "A16",
      "imagem_original": "https://animefire.plus/img/animes/ginga-eiyuu-densetsu.webp",
      "imagem_pasta": "https://animefire.plus/img/animes/ginga-eiyuu-densetsu/",
      "secao": "legendados",
      "pagina": 42,
      "total_episodios": 110,
      "link_video": "https://animefire.plus/video/ginga-eiyuu-densetsu"
    },
    {
      "id": 1513,
      "nome": "Hokuto No Ken",
      "link": "https://animefire.plus/animes/hokuto-no-ken-todos-os-episodios",
      "texto_original": "Hokuto No Ken",
      "rating": 8.01,
      "classificacao_etaria": "A18",
      "imagem_original": "https://animefire.plus/img/animes/hokuto-no-ken.webp",
      "imagem_pasta": "https://animefire.plus/img/animes/hokuto-no-ken/",
      "secao": "legendados",
      "pagina": 60,
      "total_episodios": 107,
      "link_video": "https://animefire.plus/video/hokuto-no-ken"
    },
    {
      "id": 1549,
      "nome": "Hunter x Hunter (2011) (Dublado)",
      "link": "https://animefire.plus/animes/hunter-x-hunter-2011-dublado-todos-os-episodios",
      "texto_original": "Hunter x Hunter (2011) (Dublado)",
      "rating": 9.04,
      "classificacao_etaria": "A14",
      "imagem_original": "https://animefire.plus/img/animes/hunter-x-hunter-2011.webp",
      "imagem_pasta": "https://animefire.plus/img/animes/hunter-x-hunter-2011/",
      "secao": "dublados,legendados",
      "pagina": 6,
      "total_episodios": 148,
      "link_video": "https://animefire.plus/video/hunter-x-hunter-2011-dublado"
    },
    {
      "id": 1642,
      "nome": "InuYasha (Dublado)",
      "link": "https://animefire.plus/animes/inuyasha-dublado-todos-os-episodios",
      "texto_original": "InuYasha (Dublado)",
      "rating": 7.91,
      "classificacao_etaria": "A14",
      "imagem_original": "https://animefire.plus/img/animes/inuyasha.webp",
      "imagem_pasta": "https://animefire.plus/img/animes/inuyasha/",
      "secao": "dublados,legendados",
      "pagina": 27,
      "total_episodios": 167,
      "link_video": "https://animefire.plus/video/inuyasha-dublado"
    },
    {
      "id": 1908,
      "nome": "Katekyo Hitman Reborn!",
      "link": "https://animefire.plus/animes/katekyo-hitman-reborn-todos-os-episodios",
      "texto_original": "Katekyo Hitman Reborn!",
      "rating": 8.27,
      "classificacao_etaria": "A14",
      "imagem_original": "https://animefire.plus/img/animes/katekyo-hitman-reborn.webp",
      "imagem_pasta": "https://animefire.plus/img/animes/katekyo-hitman-reborn/",
      "secao": "legendados",
      "pagina": 152,
      "total_episodios": 104,
      "link_video": "https://animefire.plus/video/katekyo-hitman-reborn"
    },
    {
      "id": 2045,
      "nome": "Kodomo no Omocha (TV)",
      "link": "https://animefire.plus/animes/kodomo-no-omocha-tv-todos-os-episodios",
      "texto_original": "Kodomo no Omocha (TV)",
      "rating": 8.07,
      "classificacao_etaria": "A14",
      "imagem_original": "https://animefire.plus/img/animes/kodomo-no-omocha-tv.webp",
      "imagem_pasta": "https://animefire.plus/img/animes/kodomo-no-omocha-tv/",
      "secao": "legendados",
      "pagina": 68,
      "total_episodios": 102,
      "link_video": "https://animefire.plus/video/kodomo-no-omocha-tv"
    },
    {
      "id": 2075,
      "nome": "Konjiki no Gash Bell!! (Dublado)",
      "link": "https://animefire.plus/animes/konjiki-no-gash-bell-dublado-todos-os-episodios",
      "texto_original": "Konjiki no Gash Bell!! (Dublado)",
      "rating": 7.56,
      "classificacao_etaria": "A14",
      "imagem_original": "https://animefire.plus/img/animes/konjiki-no-gash-bell.webp",
      "imagem_pasta": "https://animefire.plus/img/animes/konjiki-no-gash-bell/",
      "secao": "dublados,legendados",
      "pagina": 20,
      "total_episodios": 150,
      "link_video": "https://animefire.plus/video/konjiki-no-gash-bell-dublado"
    },
    {
      "id": 2277,
      "nome": "Lupin III: Part II",
      "link": "https://animefire.plus/animes/lupin-iii-part-ii-todos-os-episodios",
      "texto_original": "Lupin III: Part II",
      "rating": 7.79,
      "classificacao_etaria": "A14",
      "imagem_original": "https://animefire.plus/img/animes/lupin-iii-part-ii.webp",
      "imagem_pasta": "https://animefire.plus/img/animes/lupin-iii-part-ii/",
      "secao": "legendados",
      "pagina": 44,
      "total_episodios": 155,
      "link_video": "https://animefire.plus/video/lupin-iii-part-ii"
    },
    {
      "id": 2678,
      "nome": "Naruto (Dublado)",
      "link": "https://animefire.plus/animes/naruto-dublado-todos-os-episodios",
      "texto_original": "Naruto (Dublado)",
      "rating": 7.88,
      "classificacao_etaria": "A14",
      "imagem_original": "https://animefire.plus/img/animes/naruto.webp",
      "imagem_pasta": "https://animefire.plus/img/animes/naruto/",
      "secao": "dublados,legendados",
      "pagina": 20,
      "total_episodios": 211,
      "link_video": "https://animefire.plus/video/naruto-dublado"
    },
    {
      "id": 2826,
      "nome": "One Piece (Dublado)",
      "link": "https://animefire.plus/animes/one-piece-dublado-todos-os-episodios",
      "texto_original": "One Piece (Dublado)",
      "rating": 8.49,
      "classificacao_etaria": "A14",
      "imagem_original": "https://animefire.plus/img/animes/one-piece.webp",
      "imagem_pasta": "https://animefire.plus/img/animes/one-piece/",
      "secao": "dublados,legendados,lancamentos",
      "pagina": 20,
      "total_episodios": 834,
      "link_video": "https://animefire.plus/video/one-piece-dublado"
    },
    {
      "id": 3000,
      "nome": "Pokemon Advanced Generation (Dublado)",
      "link": "https://animefire.plus/animes/pokemon-advanced-generation-dublado-todos-os-episodios",
      "texto_original": "Pokemon Advanced Generation (Dublado)",
      "rating": 7.18,
      "classificacao_etaria": "A10",
      "imagem_original": "https://animefire.plus/img/animes/pokemon-advanced-generation.webp",
      "imagem_pasta": "https://animefire.plus/img/animes/pokemon-advanced-generation/",
      "secao": "dublados,legendados",
      "pagina": 28,
      "total_episodios": 104,
      "link_video": "https://animefire.plus/video/pokemon-advanced-generation-dublado"
    },
    {
      "id": 3002,
      "nome": "Pokemon Diamond & Pearl",
      "link": "https://animefire.plus/animes/pokemon-diamond-pearl-todos-os-episodios",
      "texto_original": "Pokemon Diamond & Pearl",
      "rating": 7.24,
      "classificacao_etaria": "A10",
      "imagem_original": "https://animefire.plus/img/animes/pokemon-diamond-pearl.webp",
      "imagem_pasta": "https://animefire.plus/img/animes/pokemon-diamond-pearl/",
      "secao": "legendados",
      "pagina": 126,
      "total_episodios": 186,
      "link_video": "https://animefire.plus/video/pokemon-diamond-pearl"
    },
    {
      "id": 3005,
      "nome": "Pokemon Sun & Moon",
      "link": "https://animefire.plus/animes/pokemon-sun-moon-todos-os-episodios",
      "texto_original": "Pokemon Sun & Moon",
      "rating": 6.79,
      "classificacao_etaria": "A10",
      "imagem_original": "https://animefire.plus/img/animes/pokemon-sun-moon.webp",
      "imagem_pasta": "https://animefire.plus/img/animes/pokemon-sun-moon/",
      "secao": "legendados",
      "pagina": 178,
      "total_episodios": 108,
      "link_video": "https://animefire.plus/video/pokemon-sun-moon"
    },
    {
      "id": 3033,
      "nome": "PriPara",
      "link": "https://animefire.plus/animes/pripara-todos-os-episodios",
      "texto_original": "PriPara",
      "rating": 7.62,
      "classificacao_etaria": "A10",
      "imagem_original": "https://animefire.plus/img/animes/pripara.webp",
      "imagem_pasta": "https://animefire.plus/img/animes/pripara/",
      "secao": "legendados",
      "pagina": 177,
      "total_episodios": 140,
      "link_video": "https://animefire.plus/video/pripara"
    }
  ],
  "pagination": {
    "current_page": 1,
    "per_page": 20,
    "total_items": 27,
    "total_pages": 2,
    "has_next": true,
    "has_prev": false
  }
}
