{
  "message": "Animes com 13 a 24 episódios",
  "episode_range": {
    "min": 13,
    "max": 24
  },
  "data": [
    {
      "id": 233,
      "nome": "Aria The Origination",
      "link": "https://animefire.plus/animes/aria-the-origination-todos-os-episodios",
      "texto_original": "Aria The Origination",
      "rating": 8.53,
      "classificacao_etaria": null,
      "imagem_original": "https://animefire.plus/img/animes/aria-the-origination.webp",
      "imagem_pasta": "https://animefire.plus/img/animes/aria-the-origination/",
      "secao": "legendados",
      "pagina": 138,
      "total_episodios": 13,
      "link_video": "https://animefire.plus/video/aria-the-origination"
    },
    {
      "id": 234,
      "nome": "Arifureta Shokugyou de Sekai Saikyou (Dublado)",
      "link": "https://animefire.plus/animes/arifureta-shokugyou-de-sekai-saikyou-dublado-todos-os-episodios",
      "texto_original": "Arifureta Shokugyou de Sekai Saikyou (Dublado)",
      "rating": 6.64,
      "classificacao_etaria": "A14",
      "imagem_original": "https://animefire.plus/img/animes/arifureta-shokugyou-de-sekai-saikyou.webp",
      "imagem_pasta": "https://animefire.plus/img/animes/arifureta-shokugyou-de-sekai-saikyou/",
      "secao": "dublados,legendados",
      "pagina": 13,
      "total_episodios": 13,
      "link_video": "https://animefire.plus/video/arifureta-shokugyou-de-sekai-saikyou-dublado"
    },
    {
      "id": 237,
      "nome": "Arifureta Shokugyou de Sekai Saikyou Season 3 (Dublado)",
      "link": "https://animefire.plus/animes/arifureta-shokugyou-de-sekai-saikyou-season-3-dublado-todos-os-episodios",
      "texto_original": "Arifureta Shokugyou de Sekai Saikyou Season 3 (Dublado)",
      "rating": 7.02,
      "classificacao_etaria": "A16",
      "imagem_original": "https://animefire.plus/img/animes/arifureta-shokugyou-de-sekai-saikyou-season-3.webp",
      "imagem_pasta": "https://animefire.plus/img/animes/arifureta-shokugyou-de-sekai-saikyou-season-3/",
      "secao": "dublados,legendados,lancamentos",
      "pagina": 2,
      "total_episodios": 16,
      "link_video": "https://animefire.plus/video/arifureta-shokugyou-de-sekai-saikyou-season-3-dublado"
    },
    {
      "id": 243,
      "nome": "Around 40 Otoko no Isekai Tsuuhan",
      "link": "https://animefire.plus/animes/around-40-otoko-no-isekai-tsuuhan-todos-os-episodios",
      "texto_original": "Around 40 Otoko no Isekai Tsuuhan",
      "rating": 6.35,
      "classificacao_etaria": "A14",
      "imagem_original": "https://animefire.plus/img/animes/around-40-otoko-no-isekai-tsuuhan.webp",
      "imagem_pasta": "https://animefire.plus/img/animes/around-40-otoko-no-isekai-tsuuhan/",
      "secao": "legendados",
      "pagina": 7,
      "total_episodios": 13,
      "link_video": "https://animefire.plus/video/around-40-otoko-no-isekai-tsuuhan"
    },
    {
      "id": 254,
      "nome": "Asagiri no Miko",
      "link": "https://animefire.plus/animes/asagiri-no-miko-todos-os-episodios",
      "texto_original": "Asagiri no Miko",
      "rating": 6.24,
      "classificacao_etaria": "A10",
      "imagem_original": "https://animefire.plus/img/animes/asagiri-no-miko.webp",
      "imagem_pasta": "https://animefire.plus/img/animes/asagiri-no-miko/",
      "secao": "legendados",
      "pagina": 137,
      "total_episodios": 13,
      "link_video": "https://animefire.plus/video/asagiri-no-miko"
    },
    {
      "id": 256,
      "nome": "Asatir 2: Mirai no Mukashi Banashi",
      "link": "https://animefire.plus/animes/asatir-2-mirai-no-mukashi-banashi-todos-os-episodios",
      "texto_original": "Asatir 2: Mirai no Mukashi Banashi",
      "rating": 6.37,
      "classificacao_etaria": "A10",
      "imagem_original": "https://animefire.plus/img/animes/asatir-2-mirai-no-mukashi-banashi.webp",
      "imagem_pasta": "https://animefire.plus/img/animes/asatir-2-mirai-no-mukashi-banashi/",
      "secao": "legendados",
      "pagina": 8,
      "total_episodios": 13,
      "link_video": "https://animefire.plus/video/asatir-2-mirai-no-mukashi-banashi"
    },
    {
      "id": 271,
      "nome": "Asura Cryin'",
      "link": "https://animefire.plus/animes/asura-cryin-todos-os-episodios",
      "texto_original": "Asura Cryin'",
      "rating": 7.02,
      "classificacao_etaria": "A14",
      "imagem_original": "https://animefire.plus/img/animes/asura-cryin.webp",
      "imagem_pasta": "https://animefire.plus/img/animes/asura-cryin/",
      "secao": "legendados",
      "pagina": 172,
      "total_episodios": 13,
      "link_video": "https://animefire.plus/video/asura-cryin"
    },
    {
      "id": 275,
      "nome": "Atri: My Dear Moments",
      "link": "https://animefire.plus/animes/atri-my-dear-moments-todos-os-episodios",
      "texto_original": "Atri: My Dear Moments",
      "rating": 7.19,
      "classificacao_etaria": "A14",
      "imagem_original": "https://animefire.plus/img/animes/atri-my-dear-moments.webp",
      "imagem_pasta": "https://animefire.plus/img/animes/atri-my-dear-moments/",
      "secao": "legendados",
      "pagina": 13,
      "total_episodios": 13,
      "link_video": "https://animefire.plus/video/atri-my-dear-moments"
    },
    {
      "id": 280,
      "nome": "Avenger",
      "link": "https://animefire.plus/animes/avenger-todos-os-episodios",
      "texto_original": "Avenger",
      "rating": 5.96,
      "classificacao_etaria": "A16",
      "imagem_original": "https://animefire.plus/img/animes/avenger.webp",
      "imagem_pasta": "https://animefire.plus/img/animes/avenger/",
      "secao": "legendados",
      "pagina": 179,
      "total_episodios": 13,
      "link_video": "https://animefire.plus/video/avenger"
    },
    {
      "id": 285,
      "nome": "Ayashi no Ceres",
      "link": "https://animefire.plus/animes/ayashi-no-ceres-todos-os-episodios",
      "texto_original": "Ayashi no Ceres",
      "rating": 7.32,
      "classificacao_etaria": "A16",
      "imagem_original": "https://animefire.plus/img/animes/ayashi-no-ceres.webp",
      "imagem_pasta": "https://animefire.plus/img/animes/ayashi-no-ceres/",
      "secao": "legendados",
      "pagina": 144,
      "total_episodios": 24,
      "link_video": "https://animefire.plus/video/ayashi-no-ceres"
    },
    {
      "id": 301,
      "nome": "Baccano!",
      "link": "https://animefire.plus/animes/baccano-todos-os-episodios",
      "texto_original": "Baccano!",
      "rating": 8.42,
      "classificacao_etaria": "A16",
      "imagem_original": "https://animefire.plus/img/animes/baccano.webp",
      "imagem_pasta": "https://animefire.plus/img/animes/baccano/",
      "secao": "legendados",
      "pagina": 51,
      "total_episodios": 13,
      "link_video": "https://animefire.plus/video/baccano"
    },
    {
      "id": 302,
      "nome": "Back Arrow (Dublado)",
      "link": "https://animefire.plus/animes/back-arrow-dublado-todos-os-episodios",
      "texto_original": "Back Arrow (Dublado)",
      "rating": 6.33,
      "classificacao_etaria": "A18",
      "imagem_original": "https://animefire.plus/img/animes/back-arrow.webp",
      "imagem_pasta": "https://animefire.plus/img/animes/back-arrow/",
      "secao": "dublados,legendados",
      "pagina": 13,
      "total_episodios": 24,
      "link_video": "https://animefire.plus/video/back-arrow-dublado"
    },
    {
      "id": 305,
      "nome": "Baka to Test to Shoukanjuu",
      "link": "https://animefire.plus/animes/baka-to-test-to-shoukanjuu-todos-os-episodios",
      "texto_original": "Baka to Test to Shoukanjuu",
      "rating": 7.72,
      "classificacao_etaria": "A14",
      "imagem_original": "https://animefire.plus/img/animes/baka-to-test-to-shoukanjuu.webp",
      "imagem_pasta": "https://animefire.plus/img/animes/baka-to-test-to-shoukanjuu/",
      "secao": "legendados",
      "pagina": 167,
      "total_episodios": 13,
      "link_video": "https://animefire.plus/video/baka-to-test-to-shoukanjuu"
    },
    {
      "id": 308,
      "nome": "Bakemonogatari",
      "link": "https://animefire.plus/animes/bakemonogatari-todos-os-episodios",
      "texto_original": "Bakemonogatari",
      "rating": 8.35,
      "classificacao_etaria": "A16",
      "imagem_original": "https://animefire.plus/img/animes/bakemonogatari.webp",
      "imagem_pasta": "https://animefire.plus/img/animes/bakemonogatari/",
      "secao": "legendados",
      "pagina": 162,
      "total_episodios": 15,
      "link_video": "https://animefire.plus/video/bakemonogatari"
    },
    {
      "id": 310,
      "nome": "Baki 2nd Season",
      "link": "https://animefire.plus/animes/baki-2nd-season-todos-os-episodios",
      "texto_original": "Baki 2nd Season",
      "rating": 7.47,
      "classificacao_etaria": "A16",
      "imagem_original": "https://animefire.plus/img/animes/baki-2nd-season.webp",
      "imagem_pasta": "https://animefire.plus/img/animes/baki-2nd-season/",
      "secao": "legendados",
      "pagina": 61,
      "total_episodios": 13,
      "link_video": "https://animefire.plus/video/baki-2nd-season"
    },
    {
      "id": 322,
      "nome": "Bakuretsu Tenshi",
      "link": "https://animefire.plus/animes/bakuretsu-tenshi-todos-os-episodios",
      "texto_original": "Bakuretsu Tenshi",
      "rating": 6.88,
      "classificacao_etaria": "A14",
      "imagem_original": "https://animefire.plus/img/animes/bakuretsu-tenshi.webp",
      "imagem_pasta": "https://animefire.plus/img/animes/bakuretsu-tenshi/",
      "secao": "legendados",
      "pagina": 172,
      "total_episodios": 24,
      "link_video": "https://animefire.plus/video/bakuretsu-tenshi"
    },
    {
      "id": 330,
      "nome": "Bamboo Blade",
      "link": "https://animefire.plus/animes/bamboo-blade-todos-os-episodios",
      "texto_original": "Bamboo Blade",
      "rating": 7.38,
      "classificacao_etaria": "A14",
      "imagem_original": "https://animefire.plus/img/animes/bamboo-blade.webp",
      "imagem_pasta": "https://animefire.plus/img/animes/bamboo-blade/",
      "secao": "legendados",
      "pagina": 155,
      "total_episodios": 20,
      "link_video": "https://animefire.plus/video/bamboo-blade"
    },
    {
      "id": 331,
      "nome": "Banana Fish",
      "link": "https://animefire.plus/animes/banana-fish-todos-os-episodios",
      "texto_original": "Banana Fish",
      "rating": 8.32,
      "classificacao_etaria": "A16",
      "imagem_original": "https://animefire.plus/img/animes/banana-fish.webp",
      "imagem_pasta": "https://animefire.plus/img/animes/banana-fish/",
      "secao": "legendados",
      "pagina": 119,
      "total_episodios": 24,
      "link_video": "https://animefire.plus/video/banana-fish"
    },
    {
      "id": 332,
      "nome": "Bananya",
      "link": "https://animefire.plus/animes/bananya-todos-os-episodios",
      "texto_original": "Bananya",
      "rating": 6.8,
      "classificacao_etaria": null,
      "imagem_original": "https://animefire.plus/img/animes/bananya.webp",
      "imagem_pasta": "https://animefire.plus/img/animes/bananya/",
      "secao": "legendados",
      "pagina": 100,
      "total_episodios": 13,
      "link_video": "https://animefire.plus/video/bananya"
    },
    {
      "id": 334,
      "nome": "BanG Dream! 2nd Season",
      "link": "https://animefire.plus/animes/bang-dream-2nd-season-todos-os-episodios",
      "texto_original": "BanG Dream! 2nd Season",
      "rating": 7.6,
      "classificacao_etaria": "A14",
      "imagem_original": "https://animefire.plus/img/animes/bang-dream-2nd-season.webp",
      "imagem_pasta": "https://animefire.plus/img/animes/bang-dream-2nd-season/",
      "secao": "legendados",
      "pagina": 109,
      "total_episodios": 13,
      "link_video": "https://animefire.plus/video/bang-dream-2nd-season"
    }
  ],
  "pagination": {
    "current_page": 3,
    "per_page": 20,
    "total_items": 826,
    "total_pages": 42,
    "has_next": true,
    "has_prev": true
  }
}
