{
  "message": "Animes com 13 a 24 episódios",
  "episode_range": {
    "min": 13,
    "max": 24
  },
  "data": [
    {
      "id": 4064,
      "nome": "Vampire Knight",
      "link": "https://animefire.plus/animes/vampire-knight-todos-os-episodios",
      "texto_original": "Vampire Knight",
      "rating": 7.25,
      "classificacao_etaria": "A14",
      "imagem_original": "https://animefire.plus/img/animes/vampire-knight.webp",
      "imagem_pasta": "https://animefire.plus/img/animes/vampire-knight/",
      "secao": "legendados",
      "pagina": 169,
      "total_episodios": 13,
      "link_video": "https://animefire.plus/video/vampire-knight"
    },
    {
      "id": 4065,
      "nome": "Vampire Knight: Guilty",
      "link": "https://animefire.plus/animes/vampire-knight-guilty-todos-os-episodios",
      "texto_original": "Vampire Knight: Guilty",
      "rating": 7.41,
      "classificacao_etaria": "A14",
      "imagem_original": "https://animefire.plus/img/animes/vampire-knight-guilty.webp",
      "imagem_pasta": "https://animefire.plus/img/animes/vampire-knight-guilty/",
      "secao": "legendados",
      "pagina": 155,
      "total_episodios": 13,
      "link_video": "https://animefire.plus/video/vampire-knight-guilty"
    },
    {
      "id": 4066,
      "nome": "Vandread",
      "link": "https://animefire.plus/animes/vandread-todos-os-episodios",
      "texto_original": "Vandread",
      "rating": 7.27,
      "classificacao_etaria": "A14",
      "imagem_original": "https://animefire.plus/img/animes/vandread.webp",
      "imagem_pasta": "https://animefire.plus/img/animes/vandread/",
      "secao": "legendados",
      "pagina": 134,
      "total_episodios": 13,
      "link_video": "https://animefire.plus/video/vandread"
    },
    {
      "id": 4067,
      "nome": "Vandread: The Second Stage",
      "link": "https://animefire.plus/animes/vandread-the-second-stage-todos-os-episodios",
      "texto_original": "Vandread: The Second Stage",
      "rating": 7.48,
      "classificacao_etaria": "A14",
      "imagem_original": "https://animefire.plus/img/animes/vandread-the-second-stage.webp",
      "imagem_pasta": "https://animefire.plus/img/animes/vandread-the-second-stage/",
      "secao": "legendados",
      "pagina": 165,
      "total_episodios": 13,
      "link_video": "https://animefire.plus/video/vandread-the-second-stage"
    },
    {
      "id": 4070,
      "nome": "Vanitas no Karte Part 2 (Dublado)",
      "link": "https://animefire.plus/animes/vanitas-no-karte-part-2-dublado-todos-os-episodios",
      "texto_original": "Vanitas no Karte Part 2 (Dublado)",
      "rating": 8.19,
      "classificacao_etaria": "A16",
      "imagem_original": "https://animefire.plus/img/animes/vanitas-no-karte-part-2.webp",
      "imagem_pasta": "https://animefire.plus/img/animes/vanitas-no-karte-part-2/",
      "secao": "dublados",
      "pagina": 12,
      "total_episodios": 13,
      "link_video": "https://animefire.plus/video/vanitas-no-karte-part-2-dublado"
    },
    {
      "id": 4074,
      "nome": "Vazzrock the Animation",
      "link": "https://animefire.plus/animes/vazzrock-the-animation-todos-os-episodios",
      "texto_original": "Vazzrock the Animation",
      "rating": 5.45,
      "classificacao_etaria": "A14",
      "imagem_original": "https://animefire.plus/img/animes/vazzrock-the-animation.webp",
      "imagem_pasta": "https://animefire.plus/img/animes/vazzrock-the-animation/",
      "secao": "legendados",
      "pagina": 28,
      "total_episodios": 13,
      "link_video": "https://animefire.plus/video/vazzrock-the-animation"
    },
    {
      "id": 4079,
      "nome": "Vigilante: Boku no Hero Academia Illegals (Dublado)",
      "link": "https://animefire.plus/animes/vigilante-boku-no-hero-academia-illegals-dublado-todos-os-episodios",
      "texto_original": "Vigilante: Boku no Hero Academia Illegals (Dublado)",
      "rating": 7.62,
      "classificacao_etaria": "A14",
      "imagem_original": "https://animefire.plus/img/animes/vigilante-boku-no-hero-academia-illegals.webp",
      "imagem_pasta": "https://animefire.plus/img/animes/vigilante-boku-no-hero-academia-illegals/",
      "secao": "dublados,legendados,lancamentos",
      "pagina": 1,
      "total_episodios": 13,
      "link_video": "https://animefire.plus/video/vigilante-boku-no-hero-academia-illegals-dublado"
    },
    {
      "id": 4080,
      "nome": "Vinland Saga (Dublado)",
      "link": "https://animefire.plus/animes/vinland-saga-dublado-todos-os-episodios",
      "texto_original": "Vinland Saga (Dublado)",
      "rating": 8.72,
      "classificacao_etaria": "A16",
      "imagem_original": "https://animefire.plus/img/animes/vinland-saga.webp",
      "imagem_pasta": "https://animefire.plus/img/animes/vinland-saga/",
      "secao": "dublados,legendados",
      "pagina": 16,
      "total_episodios": 24,
      "link_video": "https://animefire.plus/video/vinland-saga-dublado"
    },
    {
      "id": 4081,
      "nome": "Vinland Saga Season 2 (Dublado)",
      "link": "https://animefire.plus/animes/vinland-saga-season-2-dublado-todos-os-episodios",
      "texto_original": "Vinland Saga Season 2 (Dublado)",
      "rating": 8.81,
      "classificacao_etaria": "A16",
      "imagem_original": "https://animefire.plus/img/animes/vinland-saga-season-2.webp",
      "imagem_pasta": "https://animefire.plus/img/animes/vinland-saga-season-2/",
      "secao": "dublados,legendados",
      "pagina": 7,
      "total_episodios": 24,
      "link_video": "https://animefire.plus/video/vinland-saga-season-2-dublado"
    },
    {
      "id": 4082,
      "nome": "Violet Evergarden (Dublado)",
      "link": "https://animefire.plus/animes/violet-evergarden-dublado-todos-os-episodios",
      "texto_original": "Violet Evergarden (Dublado)",
      "rating": 8.62,
      "classificacao_etaria": "A14",
      "imagem_original": "https://animefire.plus/img/animes/violet-evergarden.webp",
      "imagem_pasta": "https://animefire.plus/img/animes/violet-evergarden/",
      "secao": "dublados,legendados",
      "pagina": 25,
      "total_episodios": 13,
      "link_video": "https://animefire.plus/video/violet-evergarden-dublado"
    },
    {
      "id": 4088,
      "nome": "Vivy: Fluorite Eye's Song (Dublado)",
      "link": "https://animefire.plus/animes/vivy-fluorite-eye-s-song-dublado-todos-os-episodios",
      "texto_original": "Vivy: Fluorite Eye's Song (Dublado)",
      "rating": 8.38,
      "classificacao_etaria": "A16",
      "imagem_original": "https://animefire.plus/img/animes/vivy-fluorite-eye-s-song.webp",
      "imagem_pasta": "https://animefire.plus/img/animes/vivy-fluorite-eye-s-song/",
      "secao": "dublados,legendados",
      "pagina": 15,
      "total_episodios": 13,
      "link_video": "https://animefire.plus/video/vivy-fluorite-eye-s-song-dublado"
    },
    {
      "id": 4091,
      "nome": "W: Wish",
      "link": "https://animefire.plus/animes/w-wish-todos-os-episodios",
      "texto_original": "W: Wish",
      "rating": 6.24,
      "classificacao_etaria": "A14",
      "imagem_original": "https://animefire.plus/img/animes/w-wish.webp",
      "imagem_pasta": "https://animefire.plus/img/animes/w-wish/",
      "secao": "legendados",
      "pagina": 153,
      "total_episodios": 13,
      "link_video": "https://animefire.plus/video/w-wish"
    },
    {
      "id": 4094,
      "nome": "Wagaya no Oinari-sama.",
      "link": "https://animefire.plus/animes/wagaya-no-oinari-sama-todos-os-episodios",
      "texto_original": "Wagaya no Oinari-sama.",
      "rating": 7.26,
      "classificacao_etaria": "A14",
      "imagem_original": "https://animefire.plus/img/animes/wagaya-no-oinari-sama.webp",
      "imagem_pasta": "https://animefire.plus/img/animes/wagaya-no-oinari-sama/",
      "secao": "legendados",
      "pagina": 145,
      "total_episodios": 19,
      "link_video": "https://animefire.plus/video/wagaya-no-oinari-sama"
    },
    {
      "id": 4095,
      "nome": "Wakaba*Girl",
      "link": "https://animefire.plus/animes/wakaba-girl-todos-os-episodios",
      "texto_original": "Wakaba*Girl",
      "rating": 6.92,
      "classificacao_etaria": "A14",
      "imagem_original": "https://animefire.plus/img/animes/wakaba-girl.webp",
      "imagem_pasta": "https://animefire.plus/img/animes/wakaba-girl/",
      "secao": "legendados",
      "pagina": 62,
      "total_episodios": 13,
      "link_video": "https://animefire.plus/video/wakaba-girl"
    },
    {
      "id": 4105,
      "nome": "Wangpai Yushi",
      "link": "https://animefire.plus/animes/wangpai-yushi-todos-os-episodios",
      "texto_original": "Wangpai Yushi",
      "rating": 6.77,
      "classificacao_etaria": "A14",
      "imagem_original": "https://animefire.plus/img/animes/wangpai-yushi.webp",
      "imagem_pasta": "https://animefire.plus/img/animes/wangpai-yushi/",
      "secao": "legendados",
      "pagina": 134,
      "total_episodios": 17,
      "link_video": "https://animefire.plus/video/wangpai-yushi"
    },
    {
      "id": 4122,
      "nome": "Watashi no Shiawase na Kekkon 2nd Season (Dublado)",
      "link": "https://animefire.plus/animes/watashi-no-shiawase-na-kekkon-2nd-season-dublado-todos-os-episodios",
      "texto_original": "Watashi no Shiawase na Kekkon 2nd Season (Dublado)",
      "rating": 7.42,
      "classificacao_etaria": "A14",
      "imagem_original": "https://animefire.plus/img/animes/watashi-no-shiawase-na-kekkon-2nd-season.webp",
      "imagem_pasta": "https://animefire.plus/img/animes/watashi-no-shiawase-na-kekkon-2nd-season/",
      "secao": "dublados,legendados,lancamentos",
      "pagina": 2,
      "total_episodios": 13,
      "link_video": "https://animefire.plus/video/watashi-no-shiawase-na-kekkon-2nd-season-dublado"
    },
    {
      "id": 4126,
      "nome": "Weiß Kreuz",
      "link": "https://animefire.plus/animes/weiss-kreuz-todos-os-episodios",
      "texto_original": "Weiß Kreuz",
      "rating": 6.79,
      "classificacao_etaria": "A14",
      "imagem_original": "https://animefire.plus/img/animes/weiss-kreuz.webp",
      "imagem_pasta": "https://animefire.plus/img/animes/weiss-kreuz/",
      "secao": "legendados",
      "pagina": 150,
      "total_episodios": 22,
      "link_video": "https://animefire.plus/video/weiss-kreuz"
    },
    {
      "id": 4128,
      "nome": "White Album",
      "link": "https://animefire.plus/animes/white-album-todos-os-episodios",
      "texto_original": "White Album",
      "rating": 6.64,
      "classificacao_etaria": "A14",
      "imagem_original": "https://animefire.plus/img/animes/white-album.webp",
      "imagem_pasta": "https://animefire.plus/img/animes/white-album/",
      "secao": "legendados",
      "pagina": 138,
      "total_episodios": 13,
      "link_video": "https://animefire.plus/video/white-album"
    },
    {
      "id": 4130,
      "nome": "White Album 2nd Season",
      "link": "https://animefire.plus/animes/white-album-2nd-season-todos-os-episodios",
      "texto_original": "White Album 2nd Season",
      "rating": 6.93,
      "classificacao_etaria": "A14",
      "imagem_original": "https://animefire.plus/img/animes/white-album-2nd-season.webp",
      "imagem_pasta": "https://animefire.plus/img/animes/white-album-2nd-season/",
      "secao": "legendados",
      "pagina": 98,
      "total_episodios": 13,
      "link_video": "https://animefire.plus/video/white-album-2nd-season"
    },
    {
      "id": 4131,
      "nome": "Wild Arms: Twilight Venom",
      "link": "https://animefire.plus/animes/wild-arms-twilight-venom-todos-os-episodios",
      "texto_original": "Wild Arms: Twilight Venom",
      "rating": 6.7,
      "classificacao_etaria": "A14",
      "imagem_original": "https://animefire.plus/img/animes/wild-arms-twilight-venom.webp",
      "imagem_pasta": "https://animefire.plus/img/animes/wild-arms-twilight-venom/",
      "secao": "legendados",
      "pagina": 126,
      "total_episodios": 22,
      "link_video": "https://animefire.plus/video/wild-arms-twilight-venom"
    }
  ],
  "pagination": {
    "current_page": 38,
    "per_page": 20,
    "total_items": 826,
    "total_pages": 42,
    "has_next": true,
    "has_prev": true
  }
}
