{
  "message": "Animes com 13 a 24 episódios",
  "episode_range": {
    "min": 13,
    "max": 24
  },
  "data": [
    {
      "id": 3660,
      "nome": "Submarine Super 99",
      "link": "https://animefire.plus/animes/submarine-super-99-todos-os-episodios",
      "texto_original": "Submarine Super 99",
      "rating": 6.35,
      "classificacao_etaria": "A14",
      "imagem_original": "https://animefire.plus/img/animes/submarine-super-99.webp",
      "imagem_pasta": "https://animefire.plus/img/animes/submarine-super-99/",
      "secao": "legendados",
      "pagina": 98,
      "total_episodios": 13,
      "link_video": "https://animefire.plus/video/submarine-super-99"
    },
    {
      "id": 3661,
      "nome": "Sugar Apple Fairy Tale",
      "link": "https://animefire.plus/animes/sugar-apple-fairy-tale-todos-os-episodios",
      "texto_original": "Sugar Apple Fairy Tale",
      "rating": 7.46,
      "classificacao_etaria": "A14",
      "imagem_original": "https://animefire.plus/img/animes/sugar-apple-fairy-tale.webp",
      "imagem_pasta": "https://animefire.plus/img/animes/sugar-apple-fairy-tale/",
      "secao": "legendados",
      "pagina": 26,
      "total_episodios": 14,
      "link_video": "https://animefire.plus/video/sugar-apple-fairy-tale"
    },
    {
      "id": 3664,
      "nome": "Suisei no Gargantia",
      "link": "https://animefire.plus/animes/suisei-no-gargantia-todos-os-episodios",
      "texto_original": "Suisei no Gargantia",
      "rating": 7.57,
      "classificacao_etaria": "A14",
      "imagem_original": "https://animefire.plus/img/animes/suisei-no-gargantia.webp",
      "imagem_pasta": "https://animefire.plus/img/animes/suisei-no-gargantia/",
      "secao": "legendados",
      "pagina": 135,
      "total_episodios": 13,
      "link_video": "https://animefire.plus/video/suisei-no-gargantia"
    },
    {
      "id": 3668,
      "nome": "Suki na Ko ga Megane wo Wasureta",
      "link": "https://animefire.plus/animes/suki-na-ko-ga-megane-wo-wasureta-todos-os-episodios",
      "texto_original": "Suki na Ko ga Megane wo Wasureta",
      "rating": 7.14,
      "classificacao_etaria": "A14",
      "imagem_original": "https://animefire.plus/img/animes/suki-na-ko-ga-megane-wo-wasureta.jpg",
      "imagem_pasta": "https://animefire.plus/img/animes/suki-na-ko-ga-megane-wo-wasureta/",
      "secao": "legendados",
      "pagina": 23,
      "total_episodios": 13,
      "link_video": "https://animefire.plus/video/suki-na-ko-ga-megane-wo-wasureta"
    },
    {
      "id": 3671,
      "nome": "Summer Pockets",
      "link": "https://animefire.plus/animes/summer-pockets-todos-os-episodios",
      "texto_original": "Summer Pockets",
      "rating": 7.29,
      "classificacao_etaria": "A14",
      "imagem_original": "https://animefire.plus/img/animes/summer-pockets.webp",
      "imagem_pasta": "https://animefire.plus/img/animes/summer-pockets/",
      "secao": "legendados,lancamentos",
      "pagina": 5,
      "total_episodios": 17,
      "link_video": "https://animefire.plus/video/summer-pockets"
    },
    {
      "id": 3673,
      "nome": "Sumomomo Momomo: Chijou Saikyou no Yome",
      "link": "https://animefire.plus/animes/sumomomo-momomo-chijou-saikyou-no-yome-todos-os-episodios",
      "texto_original": "Sumomomo Momomo: Chijou Saikyou no Yome",
      "rating": 7,
      "classificacao_etaria": "A14",
      "imagem_original": "https://animefire.plus/img/animes/sumomomo-momomo-chijou-saikyou-no-yome.webp",
      "imagem_pasta": "https://animefire.plus/img/animes/sumomomo-momomo-chijou-saikyou-no-yome/",
      "secao": "legendados",
      "pagina": 157,
      "total_episodios": 24,
      "link_video": "https://animefire.plus/video/sumomomo-momomo-chijou-saikyou-no-yome"
    },
    {
      "id": 3683,
      "nome": "Supernatural The Animation",
      "link": "https://animefire.plus/animes/supernatural-the-animation-todos-os-episodios",
      "texto_original": "Supernatural The Animation",
      "rating": 7.1,
      "classificacao_etaria": "A16",
      "imagem_original": "https://animefire.plus/img/animes/supernatural-the-animation.webp",
      "imagem_pasta": "https://animefire.plus/img/animes/supernatural-the-animation/",
      "secao": "legendados",
      "pagina": 159,
      "total_episodios": 22,
      "link_video": "https://animefire.plus/video/supernatural-the-animation"
    },
    {
      "id": 3686,
      "nome": "Suzuka",
      "link": "https://animefire.plus/animes/suzuka-todos-os-episodios",
      "texto_original": "Suzuka",
      "rating": 7.3,
      "classificacao_etaria": "A14",
      "imagem_original": "https://animefire.plus/img/animes/suzuka.webp",
      "imagem_pasta": "https://animefire.plus/img/animes/suzuka/",
      "secao": "legendados",
      "pagina": 129,
      "total_episodios": 22,
      "link_video": "https://animefire.plus/video/suzuka"
    },
    {
      "id": 3687,
      "nome": "Suzumiya Haruhi No Yuuutsu",
      "link": "https://animefire.plus/animes/suzumiya-haruhi-no-yuuutsu-todos-os-episodios",
      "texto_original": "Suzumiya Haruhi No Yuuutsu",
      "rating": 7.95,
      "classificacao_etaria": "A14",
      "imagem_original": "https://animefire.plus/img/animes/suzumiya-haruhi-no-yuuutsu.webp",
      "imagem_pasta": "https://animefire.plus/img/animes/suzumiya-haruhi-no-yuuutsu/",
      "secao": "legendados",
      "pagina": 99,
      "total_episodios": 14,
      "link_video": "https://animefire.plus/video/suzumiya-haruhi-no-yuuutsu"
    },
    {
      "id": 3688,
      "nome": "Suzumiya Haruhi no Yuuutsu (2009)",
      "link": "https://animefire.plus/animes/suzumiya-haruhi-no-yuuutsu-2009-todos-os-episodios",
      "texto_original": "Suzumiya Haruhi no Yuuutsu (2009)",
      "rating": 7.26,
      "classificacao_etaria": "A14",
      "imagem_original": "https://animefire.plus/img/animes/suzumiya-haruhi-no-yuuutsu-2009.webp",
      "imagem_pasta": "https://animefire.plus/img/animes/suzumiya-haruhi-no-yuuutsu-2009/",
      "secao": "legendados",
      "pagina": 165,
      "total_episodios": 19,
      "link_video": "https://animefire.plus/video/suzumiya-haruhi-no-yuuutsu-2009"
    },
    {
      "id": 3693,
      "nome": "Sword Art Online II (Dublado)",
      "link": "https://animefire.plus/animes/sword-art-online-ii-dublado-todos-os-episodios",
      "texto_original": "Sword Art Online II (Dublado)",
      "rating": 6.72,
      "classificacao_etaria": "A14",
      "imagem_original": "https://animefire.plus/img/animes/sword-art-online-ii.webp",
      "imagem_pasta": "https://animefire.plus/img/animes/sword-art-online-ii/",
      "secao": "dublados,legendados",
      "pagina": 13,
      "total_episodios": 24,
      "link_video": "https://animefire.plus/video/sword-art-online-ii-dublado"
    },
    {
      "id": 3697,
      "nome": "Sword Art Online: Alicization (Dublado)",
      "link": "https://animefire.plus/animes/sword-art-online-alicization-dublado-todos-os-episodios",
      "texto_original": "Sword Art Online: Alicization (Dublado)",
      "rating": 7.56,
      "classificacao_etaria": "A16",
      "imagem_original": "https://animefire.plus/img/animes/sword-art-online-alicization.webp",
      "imagem_pasta": "https://animefire.plus/img/animes/sword-art-online-alicization/",
      "secao": "dublados,legendados",
      "pagina": 12,
      "total_episodios": 24,
      "link_video": "https://animefire.plus/video/sword-art-online-alicization-dublado"
    },
    {
      "id": 3706,
      "nome": "Tactical Roar",
      "link": "https://animefire.plus/animes/tactical-roar-todos-os-episodios",
      "texto_original": "Tactical Roar",
      "rating": 6.49,
      "classificacao_etaria": "A14",
      "imagem_original": "https://animefire.plus/img/animes/tactical-roar.webp",
      "imagem_pasta": "https://animefire.plus/img/animes/tactical-roar/",
      "secao": "legendados",
      "pagina": 158,
      "total_episodios": 13,
      "link_video": "https://animefire.plus/video/tactical-roar"
    },
    {
      "id": 3708,
      "nome": "Tada-kun wa Koi wo Shinai",
      "link": "https://animefire.plus/animes/tada-kun-wa-koi-wo-shinai-todos-os-episodios",
      "texto_original": "Tada-kun wa Koi wo Shinai",
      "rating": 7.6,
      "classificacao_etaria": "A14",
      "imagem_original": "https://animefire.plus/img/animes/tada-kun-wa-koi-wo-shinai.webp",
      "imagem_pasta": "https://animefire.plus/img/animes/tada-kun-wa-koi-wo-shinai/",
      "secao": "legendados",
      "pagina": 160,
      "total_episodios": 14,
      "link_video": "https://animefire.plus/video/tada-kun-wa-koi-wo-shinai"
    },
    {
      "id": 3723,
      "nome": "Tales of Eternia The Animation",
      "link": "https://animefire.plus/animes/tales-of-eternia-the-animation-todos-os-episodios",
      "texto_original": "Tales of Eternia The Animation",
      "rating": 6.27,
      "classificacao_etaria": "A14",
      "imagem_original": "https://animefire.plus/img/animes/tales-of-eternia-the-animation.webp",
      "imagem_pasta": "https://animefire.plus/img/animes/tales-of-eternia-the-animation/",
      "secao": "legendados",
      "pagina": 137,
      "total_episodios": 13,
      "link_video": "https://animefire.plus/video/tales-of-eternia-the-animation"
    },
    {
      "id": 3730,
      "nome": "Tales of Zestiria the Cross 2nd Season",
      "link": "https://animefire.plus/animes/tales-of-zestiria-the-cross-2nd-season-todos-os-episodios",
      "texto_original": "Tales of Zestiria the Cross 2nd Season",
      "rating": 7.4,
      "classificacao_etaria": "A14",
      "imagem_original": "https://animefire.plus/img/animes/tales-of-zestiria-the-cross-2nd-season.webp",
      "imagem_pasta": "https://animefire.plus/img/animes/tales-of-zestiria-the-cross-2nd-season/",
      "secao": "legendados",
      "pagina": 81,
      "total_episodios": 13,
      "link_video": "https://animefire.plus/video/tales-of-zestiria-the-cross-2nd-season"
    },
    {
      "id": 3748,
      "nome": "Tantei Team KZ Jiken Note",
      "link": "https://animefire.plus/animes/tantei-team-kz-jiken-note-todos-os-episodios",
      "texto_original": "Tantei Team KZ Jiken Note",
      "rating": 6.25,
      "classificacao_etaria": "A10",
      "imagem_original": "https://animefire.plus/img/animes/tantei-team-kz-jiken-note.webp",
      "imagem_pasta": "https://animefire.plus/img/animes/tantei-team-kz-jiken-note/",
      "secao": "legendados",
      "pagina": 102,
      "total_episodios": 16,
      "link_video": "https://animefire.plus/video/tantei-team-kz-jiken-note"
    },
    {
      "id": 3754,
      "nome": "Tasuuketsu",
      "link": "https://animefire.plus/animes/tasuuketsu-todos-os-episodios",
      "texto_original": "Tasuuketsu",
      "rating": 5.55,
      "classificacao_etaria": "A14",
      "imagem_original": "https://animefire.plus/img/animes/tasuuketsu.webp",
      "imagem_pasta": "https://animefire.plus/img/animes/tasuuketsu/",
      "secao": "legendados",
      "pagina": 12,
      "total_episodios": 24,
      "link_video": "https://animefire.plus/video/tasuuketsu"
    },
    {
      "id": 3758,
      "nome": "Tate no Yuusha no Nariagari Season 2 (Dublado)",
      "link": "https://animefire.plus/animes/tate-no-yuusha-no-nariagari-season-2-dublado-todos-os-episodios",
      "texto_original": "Tate no Yuusha no Nariagari Season 2 (Dublado)",
      "rating": 6.53,
      "classificacao_etaria": "A14",
      "imagem_original": "https://animefire.plus/img/animes/tate-no-yuusha-no-nariagari-season-2.webp",
      "imagem_pasta": "https://animefire.plus/img/animes/tate-no-yuusha-no-nariagari-season-2/",
      "secao": "dublados,legendados",
      "pagina": 11,
      "total_episodios": 13,
      "link_video": "https://animefire.plus/video/tate-no-yuusha-no-nariagari-season-2-dublado"
    },
    {
      "id": 3777,
      "nome": "Tenchi Souzou Design-bu",
      "link": "https://animefire.plus/animes/tenchi-souzou-design-bu-todos-os-episodios",
      "texto_original": "Tenchi Souzou Design-bu",
      "rating": 7.16,
      "classificacao_etaria": "A14",
      "imagem_original": "https://animefire.plus/img/animes/tenchi-souzou-design-bu.webp",
      "imagem_pasta": "https://animefire.plus/img/animes/tenchi-souzou-design-bu/",
      "secao": "legendados",
      "pagina": 49,
      "total_episodios": 13,
      "link_video": "https://animefire.plus/video/tenchi-souzou-design-bu"
    }
  ],
  "pagination": {
    "current_page": 34,
    "per_page": 20,
    "total_items": 826,
    "total_pages": 42,
    "has_next": true,
    "has_prev": true
  }
}
