{
  "message": "Animes com 13 a 24 episódios",
  "episode_range": {
    "min": 13,
    "max": 24
  },
  "data": [
    {
      "id": 2747,
      "nome": "Nisekoi",
      "link": "https://animefire.plus/animes/nisekoi-todos-os-episodios",
      "texto_original": "Nisekoi",
      "rating": 7.71,
      "classificacao_etaria": "A14",
      "imagem_original": "https://animefire.plus/img/animes/nisekoi.webp",
      "imagem_pasta": "https://animefire.plus/img/animes/nisekoi/",
      "secao": "legendados",
      "pagina": 79,
      "total_episodios": 20,
      "link_video": "https://animefire.plus/video/nisekoi"
    },
    {
      "id": 2757,
      "nome": "Noblesse (Dublado)",
      "link": "https://animefire.plus/animes/noblesse-dublado-todos-os-episodios",
      "texto_original": "Noblesse (Dublado)",
      "rating": 6.6,
      "classificacao_etaria": "A16",
      "imagem_original": "https://animefire.plus/img/animes/noblesse.webp",
      "imagem_pasta": "https://animefire.plus/img/animes/noblesse/",
      "secao": "dublados,legendados",
      "pagina": 20,
      "total_episodios": 13,
      "link_video": "https://animefire.plus/video/noblesse-dublado"
    },
    {
      "id": 2762,
      "nome": "Nobunaga no Shinobi: Anegawa Ishiyama-hen",
      "link": "https://animefire.plus/animes/nobunaga-no-shinobi-anegawa-ishiyama-hen-todos-os-episodios",
      "texto_original": "Nobunaga no Shinobi: Anegawa Ishiyama-hen",
      "rating": 7.05,
      "classificacao_etaria": "A14",
      "imagem_original": "https://animefire.plus/img/animes/nobunaga-no-shinobi-anegawa-ishiyama-hen.webp",
      "imagem_pasta": "https://animefire.plus/img/animes/nobunaga-no-shinobi-anegawa-ishiyama-hen/",
      "secao": "legendados",
      "pagina": 124,
      "total_episodios": 20,
      "link_video": "https://animefire.plus/video/nobunaga-no-shinobi-anegawa-ishiyama-hen"
    },
    {
      "id": 2763,
      "nome": "Nobunaga the Fool",
      "link": "https://animefire.plus/animes/nobunaga-the-fool-todos-os-episodios",
      "texto_original": "Nobunaga the Fool",
      "rating": 6.76,
      "classificacao_etaria": "A16",
      "imagem_original": "https://animefire.plus/img/animes/nobunaga-the-fool.webp",
      "imagem_pasta": "https://animefire.plus/img/animes/nobunaga-the-fool/",
      "secao": "legendados",
      "pagina": 142,
      "total_episodios": 24,
      "link_video": "https://animefire.plus/video/nobunaga-the-fool"
    },
    {
      "id": 2765,
      "nome": "Nobunagun",
      "link": "https://animefire.plus/animes/nobunagun-todos-os-episodios",
      "texto_original": "Nobunagun",
      "rating": 6.77,
      "classificacao_etaria": "A16",
      "imagem_original": "https://animefire.plus/img/animes/nobunagun.webp",
      "imagem_pasta": "https://animefire.plus/img/animes/nobunagun/",
      "secao": "legendados",
      "pagina": 171,
      "total_episodios": 13,
      "link_video": "https://animefire.plus/video/nobunagun"
    },
    {
      "id": 2766,
      "nome": "Nodame Cantabile (Dublado)",
      "link": "https://animefire.plus/animes/nodame-cantabile-dublado-todos-os-episodios",
      "texto_original": "Nodame Cantabile (Dublado)",
      "rating": 8.38,
      "classificacao_etaria": "A14",
      "imagem_original": "https://animefire.plus/img/animes/nodame-cantabile.webp",
      "imagem_pasta": "https://animefire.plus/img/animes/nodame-cantabile/",
      "secao": "dublados,legendados",
      "pagina": 27,
      "total_episodios": 22,
      "link_video": "https://animefire.plus/video/nodame-cantabile-dublado"
    },
    {
      "id": 2769,
      "nome": "Noein: Mou Hitori no Kimi e",
      "link": "https://animefire.plus/animes/noein-mou-hitori-no-kimi-e-todos-os-episodios",
      "texto_original": "Noein: Mou Hitori no Kimi e",
      "rating": 7.68,
      "classificacao_etaria": "A14",
      "imagem_original": "https://animefire.plus/img/animes/noein-mou-hitori-no-kimi-e.webp",
      "imagem_pasta": "https://animefire.plus/img/animes/noein-mou-hitori-no-kimi-e/",
      "secao": "legendados",
      "pagina": 173,
      "total_episodios": 24,
      "link_video": "https://animefire.plus/video/noein-mou-hitori-no-kimi-e"
    },
    {
      "id": 2773,
      "nome": "Nokemono-tachi no Yoru",
      "link": "https://animefire.plus/animes/nokemono-tachi-no-yoru-todos-os-episodios",
      "texto_original": "Nokemono-tachi no Yoru",
      "rating": 6.61,
      "classificacao_etaria": "A14",
      "imagem_original": "https://animefire.plus/img/animes/nokemono-tachi-no-yoru.webp",
      "imagem_pasta": "https://animefire.plus/img/animes/nokemono-tachi-no-yoru/",
      "secao": "legendados",
      "pagina": 26,
      "total_episodios": 13,
      "link_video": "https://animefire.plus/video/nokemono-tachi-no-yoru"
    },
    {
      "id": 2774,
      "nome": "Nomad: Megalo Box 2 (Dublado)",
      "link": "https://animefire.plus/animes/nomad-megalo-box-2-dublado-todos-os-episodios",
      "texto_original": "Nomad: Megalo Box 2 (Dublado)",
      "rating": 8.18,
      "classificacao_etaria": "A16",
      "imagem_original": "https://animefire.plus/img/animes/nomad-megalo-box-2.webp",
      "imagem_pasta": "https://animefire.plus/img/animes/nomad-megalo-box-2/",
      "secao": "dublados,legendados",
      "pagina": 17,
      "total_episodios": 13,
      "link_video": "https://animefire.plus/video/nomad-megalo-box-2-dublado"
    },
    {
      "id": 2778,
      "nome": "Non Non Biyori Repeat",
      "link": "https://animefire.plus/animes/non-non-biyori-repeat-todos-os-episodios",
      "texto_original": "Non Non Biyori Repeat",
      "rating": 8.2,
      "classificacao_etaria": "A14",
      "imagem_original": "https://animefire.plus/img/animes/non-non-biyori-repeat.webp",
      "imagem_pasta": "https://animefire.plus/img/animes/non-non-biyori-repeat/",
      "secao": "legendados",
      "pagina": 73,
      "total_episodios": 13,
      "link_video": "https://animefire.plus/video/non-non-biyori-repeat"
    },
    {
      "id": 2781,
      "nome": "Noragami Aragoto (Dublado)",
      "link": "https://animefire.plus/animes/noragami-aragoto-dublado-todos-os-episodios",
      "texto_original": "Noragami Aragoto (Dublado)",
      "rating": 8.18,
      "classificacao_etaria": "A14",
      "imagem_original": "https://animefire.plus/img/animes/noragami-aragoto.webp",
      "imagem_pasta": "https://animefire.plus/img/animes/noragami-aragoto/",
      "secao": "dublados,legendados",
      "pagina": 13,
      "total_episodios": 13,
      "link_video": "https://animefire.plus/video/noragami-aragoto-dublado"
    },
    {
      "id": 2807,
      "nome": "Odd Taxi (Dublado)",
      "link": "https://animefire.plus/animes/odd-taxi-dublado-todos-os-episodios",
      "texto_original": "Odd Taxi (Dublado)",
      "rating": 8.64,
      "classificacao_etaria": "A14",
      "imagem_original": "https://animefire.plus/img/animes/odd-taxi.webp",
      "imagem_pasta": "https://animefire.plus/img/animes/odd-taxi/",
      "secao": "dublados,legendados",
      "pagina": 4,
      "total_episodios": 13,
      "link_video": "https://animefire.plus/video/odd-taxi-dublado"
    },
    {
      "id": 2812,
      "nome": "Ojou to Banken-kun",
      "link": "https://animefire.plus/animes/ojou-to-banken-kun-todos-os-episodios",
      "texto_original": "Ojou to Banken-kun",
      "rating": 5.67,
      "classificacao_etaria": "A14",
      "imagem_original": "https://animefire.plus/img/animes/ojou-to-banken-kun.webp",
      "imagem_pasta": "https://animefire.plus/img/animes/ojou-to-banken-kun/",
      "secao": "legendados",
      "pagina": 21,
      "total_episodios": 13,
      "link_video": "https://animefire.plus/video/ojou-to-banken-kun"
    },
    {
      "id": 2818,
      "nome": "Okusama wa Joshikousei (TV)",
      "link": "https://animefire.plus/animes/okusama-wa-joshikousei-tv-todos-os-episodios",
      "texto_original": "Okusama wa Joshikousei (TV)",
      "rating": 6.41,
      "classificacao_etaria": "A14",
      "imagem_original": "https://animefire.plus/img/animes/okusama-wa-joshikousei-tv.webp",
      "imagem_pasta": "https://animefire.plus/img/animes/okusama-wa-joshikousei-tv/",
      "secao": "legendados",
      "pagina": 159,
      "total_episodios": 13,
      "link_video": "https://animefire.plus/video/okusama-wa-joshikousei-tv"
    },
    {
      "id": 2819,
      "nome": "Okusama wa Mahou Shoujo",
      "link": "https://animefire.plus/animes/okusama-wa-mahou-shoujo-todos-os-episodios",
      "texto_original": "Okusama wa Mahou Shoujo",
      "rating": 6.36,
      "classificacao_etaria": "A14",
      "imagem_original": "https://animefire.plus/img/animes/okusama-wa-mahou-shoujo.webp",
      "imagem_pasta": "https://animefire.plus/img/animes/okusama-wa-mahou-shoujo/",
      "secao": "legendados",
      "pagina": 146,
      "total_episodios": 13,
      "link_video": "https://animefire.plus/video/okusama-wa-mahou-shoujo"
    },
    {
      "id": 2823,
      "nome": "Omishi Mahou Gekijou: Risky★Safety",
      "link": "https://animefire.plus/animes/omishi-mahou-gekijou-risky-safety-todos-os-episodios",
      "texto_original": "Omishi Mahou Gekijou: Risky★Safety",
      "rating": 6.76,
      "classificacao_etaria": "A10",
      "imagem_original": "https://animefire.plus/img/animes/omishi-mahou-gekijou-risky-safety.webp",
      "imagem_pasta": "https://animefire.plus/img/animes/omishi-mahou-gekijou-risky-safety/",
      "secao": "legendados",
      "pagina": 144,
      "total_episodios": 24,
      "link_video": "https://animefire.plus/video/omishi-mahou-gekijou-risky-safety"
    },
    {
      "id": 2834,
      "nome": "One Piece: Gyojin Tou-hen",
      "link": "https://animefire.plus/animes/one-piece-gyojin-tou-hen-todos-os-episodios",
      "texto_original": "One Piece: Gyojin Tou-hen",
      "rating": 7.92,
      "classificacao_etaria": "A14",
      "imagem_original": "https://animefire.plus/img/animes/one-piece-gyojin-tou-hen.webp",
      "imagem_pasta": "https://animefire.plus/img/animes/one-piece-gyojin-tou-hen/",
      "secao": "legendados",
      "pagina": 8,
      "total_episodios": 21,
      "link_video": "https://animefire.plus/video/one-piece-gyojin-tou-hen"
    },
    {
      "id": 2854,
      "nome": "Oniichan no Koto nanka Zenzen Suki ja Nai n da kara ne!!",
      "link": "https://animefire.plus/animes/oniichan-no-koto-nanka-zenzen-suki-ja-nai-n-da-kara-ne-todos-os-episodios",
      "texto_original": "Oniichan no Koto nanka Zenzen Suki ja Nai n da kara ne!!",
      "rating": 6.24,
      "classificacao_etaria": "A14",
      "imagem_original": "https://animefire.plus/img/animes/oniichan-no-koto-nanka-zenzen-suki-ja-nai-n-da-kara-ne.webp",
      "imagem_pasta": "https://animefire.plus/img/animes/oniichan-no-koto-nanka-zenzen-suki-ja-nai-n-da-kara-ne/",
      "secao": "legendados",
      "pagina": 142,
      "total_episodios": 13,
      "link_video": "https://animefire.plus/video/oniichan-no-koto-nanka-zenzen-suki-ja-nai-n-da-kara-ne"
    },
    {
      "id": 2861,
      "nome": "Onmyouji (Dublado)",
      "link": "https://animefire.plus/animes/onmyouji-dublado-todos-os-episodios",
      "texto_original": "Onmyouji (Dublado)",
      "rating": 6.98,
      "classificacao_etaria": "A14",
      "imagem_original": "https://animefire.plus/img/animes/onmyouji.webp",
      "imagem_pasta": "https://animefire.plus/img/animes/onmyouji/",
      "secao": "dublados,legendados",
      "pagina": 4,
      "total_episodios": 13,
      "link_video": "https://animefire.plus/video/onmyouji-dublado"
    },
    {
      "id": 2862,
      "nome": "Onsen Yousei Hakone-chan",
      "link": "https://animefire.plus/animes/onsen-yousei-hakone-chan-todos-os-episodios",
      "texto_original": "Onsen Yousei Hakone-chan",
      "rating": 5.9,
      "classificacao_etaria": "A14",
      "imagem_original": "https://animefire.plus/img/animes/onsen-yousei-hakone-chan.webp",
      "imagem_pasta": "https://animefire.plus/img/animes/onsen-yousei-hakone-chan/",
      "secao": "legendados",
      "pagina": 107,
      "total_episodios": 13,
      "link_video": "https://animefire.plus/video/onsen-yousei-hakone-chan"
    }
  ],
  "pagination": {
    "current_page": 26,
    "per_page": 20,
    "total_items": 826,
    "total_pages": 42,
    "has_next": true,
    "has_prev": true
  }
}
