{
  "message": "Animes com 13 a 24 episódios",
  "episode_range": {
    "min": 13,
    "max": 24
  },
  "data": [
    {
      "id": 1282,
      "nome": "Gunjou no Fanfare",
      "link": "https://animefire.plus/animes/gunjou-no-fanfare-todos-os-episodios",
      "texto_original": "Gunjou no Fanfare",
      "rating": 6.15,
      "classificacao_etaria": "A14",
      "imagem_original": "https://animefire.plus/img/animes/gunjou-no-fanfare.webp",
      "imagem_pasta": "https://animefire.plus/img/animes/gunjou-no-fanfare/",
      "secao": "legendados",
      "pagina": 33,
      "total_episodios": 13,
      "link_video": "https://animefire.plus/video/gunjou-no-fanfare"
    },
    {
      "id": 1283,
      "nome": "Gunjou no Magmell (Dublado)",
      "link": "https://animefire.plus/animes/gunjou-no-magmell-dublado-todos-os-episodios",
      "texto_original": "Gunjou no Magmell (Dublado)",
      "rating": 6.04,
      "classificacao_etaria": "A14",
      "imagem_original": "https://animefire.plus/img/animes/gunjou-no-magmell.webp",
      "imagem_pasta": "https://animefire.plus/img/animes/gunjou-no-magmell/",
      "secao": "dublados,legendados",
      "pagina": 22,
      "total_episodios": 13,
      "link_video": "https://animefire.plus/video/gunjou-no-magmell-dublado"
    },
    {
      "id": 1285,
      "nome": "Gunslinger Girl",
      "link": "https://animefire.plus/animes/gunslinger-girl-todos-os-episodios",
      "texto_original": "Gunslinger Girl",
      "rating": 7.48,
      "classificacao_etaria": "A16",
      "imagem_original": "https://animefire.plus/img/animes/gunslinger-girl.webp",
      "imagem_pasta": "https://animefire.plus/img/animes/gunslinger-girl/",
      "secao": "legendados",
      "pagina": 101,
      "total_episodios": 13,
      "link_video": "https://animefire.plus/video/gunslinger-girl"
    },
    {
      "id": 1286,
      "nome": "Gunslinger Girl: Il Teatrino",
      "link": "https://animefire.plus/animes/gunslinger-girl-il-teatrino-todos-os-episodios",
      "texto_original": "Gunslinger Girl: Il Teatrino",
      "rating": 7.19,
      "classificacao_etaria": "A16",
      "imagem_original": "https://animefire.plus/img/animes/gunslinger-girl-il-teatrino.webp",
      "imagem_pasta": "https://animefire.plus/img/animes/gunslinger-girl-il-teatrino/",
      "secao": "legendados",
      "pagina": 71,
      "total_episodios": 13,
      "link_video": "https://animefire.plus/video/gunslinger-girl-il-teatrino"
    },
    {
      "id": 1303,
      "nome": "Hacka Doll The Animation",
      "link": "https://animefire.plus/animes/hacka-doll-the-animation-todos-os-episodios",
      "texto_original": "Hacka Doll The Animation",
      "rating": 6.45,
      "classificacao_etaria": "A14",
      "imagem_original": "https://animefire.plus/img/animes/hacka-doll-the-animation.webp",
      "imagem_pasta": "https://animefire.plus/img/animes/hacka-doll-the-animation/",
      "secao": "legendados",
      "pagina": 74,
      "total_episodios": 13,
      "link_video": "https://animefire.plus/video/hacka-doll-the-animation"
    },
    {
      "id": 1306,
      "nome": "Haibane Renmei",
      "link": "https://animefire.plus/animes/haibane-renmei-todos-os-episodios",
      "texto_original": "Haibane Renmei",
      "rating": 8,
      "classificacao_etaria": "A14",
      "imagem_original": "https://animefire.plus/img/animes/haibane-renmei.webp",
      "imagem_pasta": "https://animefire.plus/img/animes/haibane-renmei/",
      "secao": "legendados",
      "pagina": 94,
      "total_episodios": 13,
      "link_video": "https://animefire.plus/video/haibane-renmei"
    },
    {
      "id": 1316,
      "nome": "Haitai Nanafa",
      "link": "https://animefire.plus/animes/haitai-nanafa-todos-os-episodios",
      "texto_original": "Haitai Nanafa",
      "rating": 6.01,
      "classificacao_etaria": "A14",
      "imagem_original": "https://animefire.plus/img/animes/haitai-nanafa.webp",
      "imagem_pasta": "https://animefire.plus/img/animes/haitai-nanafa/",
      "secao": "legendados",
      "pagina": 71,
      "total_episodios": 13,
      "link_video": "https://animefire.plus/video/haitai-nanafa"
    },
    {
      "id": 1328,
      "nome": "Hakkenden: Touhou Hakken Ibun",
      "link": "https://animefire.plus/animes/hakkenden-touhou-hakken-ibun-todos-os-episodios",
      "texto_original": "Hakkenden: Touhou Hakken Ibun",
      "rating": 7.52,
      "classificacao_etaria": "A14",
      "imagem_original": "https://animefire.plus/img/animes/hakkenden-touhou-hakken-ibun.webp",
      "imagem_pasta": "https://animefire.plus/img/animes/hakkenden-touhou-hakken-ibun/",
      "secao": "legendados",
      "pagina": 124,
      "total_episodios": 13,
      "link_video": "https://animefire.plus/video/hakkenden-touhou-hakken-ibun"
    },
    {
      "id": 1330,
      "nome": "Hakozume: Kouban Joshi no Gyakushuu",
      "link": "https://animefire.plus/animes/hakozume-kouban-joshi-no-gyakushuu-todos-os-episodios",
      "texto_original": "Hakozume: Kouban Joshi no Gyakushuu",
      "rating": 7.16,
      "classificacao_etaria": "A14",
      "imagem_original": "https://animefire.plus/img/animes/hakozume-kouban-joshi-no-gyakushuu.webp",
      "imagem_pasta": "https://animefire.plus/img/animes/hakozume-kouban-joshi-no-gyakushuu/",
      "secao": "legendados",
      "pagina": 36,
      "total_episodios": 13,
      "link_video": "https://animefire.plus/video/hakozume-kouban-joshi-no-gyakushuu"
    },
    {
      "id": 1340,
      "nome": "Hakyuu Houshin Engi",
      "link": "https://animefire.plus/animes/hakyuu-houshin-engi-todos-os-episodios",
      "texto_original": "Hakyuu Houshin Engi",
      "rating": 5.67,
      "classificacao_etaria": "A14",
      "imagem_original": "https://animefire.plus/img/animes/hakyuu-houshin-engi.webp",
      "imagem_pasta": "https://animefire.plus/img/animes/hakyuu-houshin-engi/",
      "secao": "legendados",
      "pagina": 139,
      "total_episodios": 24,
      "link_video": "https://animefire.plus/video/hakyuu-houshin-engi"
    },
    {
      "id": 1363,
      "nome": "Hanebado!",
      "link": "https://animefire.plus/animes/hanebado-todos-os-episodios",
      "texto_original": "Hanebado!",
      "rating": 7.08,
      "classificacao_etaria": "A14",
      "imagem_original": "https://animefire.plus/img/animes/hanebado.webp",
      "imagem_pasta": "https://animefire.plus/img/animes/hanebado/",
      "secao": "legendados",
      "pagina": 146,
      "total_episodios": 13,
      "link_video": "https://animefire.plus/video/hanebado"
    },
    {
      "id": 1371,
      "nome": "Hanyou no Yashahime: Sengoku Otogizoushi - Ni no Shou (Dublado)",
      "link": "https://animefire.plus/animes/hanyou-no-yashahime-sengoku-otogizoushi---ni-no-shou-dublado-todos-os-episodios",
      "texto_original": "Hanyou no Yashahime: Sengoku Otogizoushi - Ni no Shou (Dublado)",
      "rating": 7.06,
      "classificacao_etaria": "A14",
      "imagem_original": "https://animefire.plus/img/animes/hanyou-no-yashahime-sengoku-otogizoushi---ni-no-shou.webp",
      "imagem_pasta": "https://animefire.plus/img/animes/hanyou-no-yashahime-sengoku-otogizoushi---ni-no-shou/",
      "secao": "dublados,legendados",
      "pagina": 14,
      "total_episodios": 24,
      "link_video": "https://animefire.plus/video/hanyou-no-yashahime-sengoku-otogizoushi---ni-no-shou-dublado"
    },
    {
      "id": 1372,
      "nome": "Hanyou no Yashahime: Sengoku Otogizoushi (Dublado)",
      "link": "https://animefire.plus/animes/hanyou-no-yashahime-sengoku-otogizoushi-dublado-todos-os-episodios",
      "texto_original": "Hanyou no Yashahime: Sengoku Otogizoushi (Dublado)",
      "rating": 7.36,
      "classificacao_etaria": "A14",
      "imagem_original": "https://animefire.plus/img/animes/hanyou-no-yashahime-sengoku-otogizoushi.webp",
      "imagem_pasta": "https://animefire.plus/img/animes/hanyou-no-yashahime-sengoku-otogizoushi/",
      "secao": "dublados,legendados,lancamentos",
      "pagina": 19,
      "total_episodios": 24,
      "link_video": "https://animefire.plus/video/hanyou-no-yashahime-sengoku-otogizoushi-dublado"
    },
    {
      "id": 1374,
      "nome": "Happy Seven: The TV Manga",
      "link": "https://animefire.plus/animes/happy-seven-the-tv-manga-todos-os-episodios",
      "texto_original": "Happy Seven: The TV Manga",
      "rating": 6.39,
      "classificacao_etaria": "A10",
      "imagem_original": "https://animefire.plus/img/animes/happy-seven-the-tv-manga.webp",
      "imagem_pasta": "https://animefire.plus/img/animes/happy-seven-the-tv-manga/",
      "secao": "legendados",
      "pagina": 107,
      "total_episodios": 13,
      "link_video": "https://animefire.plus/video/happy-seven-the-tv-manga"
    },
    {
      "id": 1386,
      "nome": "Hataraku Saibou",
      "link": "https://animefire.plus/animes/hataraku-saibou-todos-os-episodios",
      "texto_original": "Hataraku Saibou",
      "rating": 7.81,
      "classificacao_etaria": "A14",
      "imagem_original": "https://animefire.plus/img/animes/hataraku-saibou.webp",
      "imagem_pasta": "https://animefire.plus/img/animes/hataraku-saibou/",
      "secao": "legendados",
      "pagina": 147,
      "total_episodios": 13,
      "link_video": "https://animefire.plus/video/hataraku-saibou"
    },
    {
      "id": 1388,
      "nome": "Hataraku Saibou Black (TV)",
      "link": "https://animefire.plus/animes/hataraku-saibou-black-tv-todos-os-episodios",
      "texto_original": "Hataraku Saibou Black (TV)",
      "rating": 7.52,
      "classificacao_etaria": "A14",
      "imagem_original": "https://animefire.plus/img/animes/hataraku-saibou-black-tv.webp",
      "imagem_pasta": "https://animefire.plus/img/animes/hataraku-saibou-black-tv/",
      "secao": "legendados",
      "pagina": 50,
      "total_episodios": 13,
      "link_video": "https://animefire.plus/video/hataraku-saibou-black-tv"
    },
    {
      "id": 1406,
      "nome": "Heavy Object",
      "link": "https://animefire.plus/animes/heavy-object-todos-os-episodios",
      "texto_original": "Heavy Object",
      "rating": 7.35,
      "classificacao_etaria": "A14",
      "imagem_original": "https://animefire.plus/img/animes/heavy-object.webp",
      "imagem_pasta": "https://animefire.plus/img/animes/heavy-object/",
      "secao": "legendados",
      "pagina": 108,
      "total_episodios": 24,
      "link_video": "https://animefire.plus/video/heavy-object"
    },
    {
      "id": 1411,
      "nome": "Helck",
      "link": "https://animefire.plus/animes/helck-todos-os-episodios",
      "texto_original": "Helck",
      "rating": 7.28,
      "classificacao_etaria": "A14",
      "imagem_original": "https://animefire.plus/img/animes/helck.webp",
      "imagem_pasta": "https://animefire.plus/img/animes/helck/",
      "secao": "legendados",
      "pagina": 22,
      "total_episodios": 24,
      "link_video": "https://animefire.plus/video/helck"
    },
    {
      "id": 1414,
      "nome": "Hellsing (Dublado)",
      "link": "https://animefire.plus/animes/hellsing-dublado-todos-os-episodios",
      "texto_original": "Hellsing (Dublado)",
      "rating": 7.58,
      "classificacao_etaria": "A16",
      "imagem_original": "https://animefire.plus/img/animes/hellsing.webp",
      "imagem_pasta": "https://animefire.plus/img/animes/hellsing/",
      "secao": "dublados,legendados",
      "pagina": 26,
      "total_episodios": 13,
      "link_video": "https://animefire.plus/video/hellsing-dublado"
    },
    {
      "id": 1415,
      "nome": "Hellsing Ultimate",
      "link": "https://animefire.plus/animes/hellsing-ultimate-todos-os-episodios",
      "texto_original": "Hellsing Ultimate",
      "rating": 8.44,
      "classificacao_etaria": "A16",
      "imagem_original": "https://animefire.plus/img/animes/hellsing-ultimate.webp",
      "imagem_pasta": "https://animefire.plus/img/animes/hellsing-ultimate/",
      "secao": "legendados",
      "pagina": 72,
      "total_episodios": 13,
      "link_video": "https://animefire.plus/video/hellsing-ultimate"
    }
  ],
  "pagination": {
    "current_page": 13,
    "per_page": 20,
    "total_items": 826,
    "total_pages": 42,
    "has_next": true,
    "has_prev": true
  }
}
