{
  "message": "Animes com 13 a 24 episódios",
  "episode_range": {
    "min": 13,
    "max": 24
  },
  "data": [
    {
      "id": 3779,
      "nome": "Tengoku Daimakyou (Dublado)",
      "link": "https://animefire.plus/animes/tengoku-daimakyou-dublado-todos-os-episodios",
      "texto_original": "Tengoku Daimakyou (Dublado)",
      "rating": 8.21,
      "classificacao_etaria": "A16",
      "imagem_original": "https://animefire.plus/img/animes/tengoku-daimakyou.jpg",
      "imagem_pasta": "https://animefire.plus/img/animes/tengoku-daimakyou/",
      "secao": "dublados,legendados",
      "pagina": 7,
      "total_episodios": 13,
      "link_video": "https://animefire.plus/video/tengoku-daimakyou-dublado"
    },
    {
      "id": 3780,
      "nome": "Tenjou Tenge",
      "link": "https://animefire.plus/animes/tenjou-tenge-todos-os-episodios",
      "texto_original": "Tenjou Tenge",
      "rating": 7.03,
      "classificacao_etaria": "A16",
      "imagem_original": "https://animefire.plus/img/animes/tenjou-tenge.webp",
      "imagem_pasta": "https://animefire.plus/img/animes/tenjou-tenge/",
      "secao": "legendados",
      "pagina": 128,
      "total_episodios": 15,
      "link_video": "https://animefire.plus/video/tenjou-tenge"
    },
    {
      "id": 3788,
      "nome": "Tennis no Ouji-sama: Zenkoku Taikai-hen",
      "link": "https://animefire.plus/animes/tennis-no-ouji-sama-zenkoku-taikai-hen-todos-os-episodios",
      "texto_original": "Tennis no Ouji-sama: Zenkoku Taikai-hen",
      "rating": 7.94,
      "classificacao_etaria": "A14",
      "imagem_original": "https://animefire.plus/img/animes/tennis-no-ouji-sama-zenkoku-taikai-hen.webp",
      "imagem_pasta": "https://animefire.plus/img/animes/tennis-no-ouji-sama-zenkoku-taikai-hen/",
      "secao": "legendados",
      "pagina": 44,
      "total_episodios": 13,
      "link_video": "https://animefire.plus/video/tennis-no-ouji-sama-zenkoku-taikai-hen"
    },
    {
      "id": 3800,
      "nome": "Tensei shitara Slime Datta Ken (Dublado)",
      "link": "https://animefire.plus/animes/tensei-shitara-slime-datta-ken-dublado-todos-os-episodios",
      "texto_original": "Tensei shitara Slime Datta Ken (Dublado)",
      "rating": 8.1,
      "classificacao_etaria": "A14",
      "imagem_original": "https://animefire.plus/img/animes/tensei-shitara-slime-datta-ken.webp",
      "imagem_pasta": "https://animefire.plus/img/animes/tensei-shitara-slime-datta-ken/",
      "secao": "dublados,legendados",
      "pagina": 16,
      "total_episodios": 24,
      "link_video": "https://animefire.plus/video/tensei-shitara-slime-datta-ken-dublado"
    },
    {
      "id": 3803,
      "nome": "Tensei shitara Slime Datta Ken 3rd Season",
      "link": "https://animefire.plus/animes/tensei-shitara-slime-datta-ken-3rd-season-todos-os-episodios",
      "texto_original": "Tensei shitara Slime Datta Ken 3rd Season",
      "rating": 7.69,
      "classificacao_etaria": "A14",
      "imagem_original": "https://animefire.plus/img/animes/tensei-shitara-slime-datta-ken-3rd-season.webp",
      "imagem_pasta": "https://animefire.plus/img/animes/tensei-shitara-slime-datta-ken-3rd-season/",
      "secao": "legendados",
      "pagina": 19,
      "total_episodios": 24,
      "link_video": "https://animefire.plus/video/tensei-shitara-slime-datta-ken-3rd-season"
    },
    {
      "id": 3810,
      "nome": "Tensui no Sakuna-hime",
      "link": "https://animefire.plus/animes/tensui-no-sakuna-hime-todos-os-episodios",
      "texto_original": "Tensui no Sakuna-hime",
      "rating": 6.74,
      "classificacao_etaria": "A14",
      "imagem_original": "https://animefire.plus/img/animes/tensui-no-sakuna-hime.webp",
      "imagem_pasta": "https://animefire.plus/img/animes/tensui-no-sakuna-hime/",
      "secao": "legendados",
      "pagina": 12,
      "total_episodios": 13,
      "link_video": "https://animefire.plus/video/tensui-no-sakuna-hime"
    },
    {
      "id": 3820,
      "nome": "Tesla Note",
      "link": "https://animefire.plus/animes/tesla-note-todos-os-episodios",
      "texto_original": "Tesla Note",
      "rating": 4.66,
      "classificacao_etaria": "A14",
      "imagem_original": "https://animefire.plus/img/animes/tesla-note.webp",
      "imagem_pasta": "https://animefire.plus/img/animes/tesla-note/",
      "secao": "legendados",
      "pagina": 38,
      "total_episodios": 13,
      "link_video": "https://animefire.plus/video/tesla-note"
    },
    {
      "id": 3821,
      "nome": "Tetsuwan Birdy Decode",
      "link": "https://animefire.plus/animes/tetsuwan-birdy-decode-todos-os-episodios",
      "texto_original": "Tetsuwan Birdy Decode",
      "rating": 7.5,
      "classificacao_etaria": "A14",
      "imagem_original": "https://animefire.plus/img/animes/tetsuwan-birdy-decode.webp",
      "imagem_pasta": "https://animefire.plus/img/animes/tetsuwan-birdy-decode/",
      "secao": "legendados",
      "pagina": 106,
      "total_episodios": 13,
      "link_video": "https://animefire.plus/video/tetsuwan-birdy-decode"
    },
    {
      "id": 3823,
      "nome": "Texhnolyze",
      "link": "https://animefire.plus/animes/texhnolyze-todos-os-episodios",
      "texto_original": "Texhnolyze",
      "rating": 7.76,
      "classificacao_etaria": "A18",
      "imagem_original": "https://animefire.plus/img/animes/texhnolyze.webp",
      "imagem_pasta": "https://animefire.plus/img/animes/texhnolyze/",
      "secao": "legendados",
      "pagina": 144,
      "total_episodios": 22,
      "link_video": "https://animefire.plus/video/texhnolyze"
    },
    {
      "id": 3825,
      "nome": "The Big O",
      "link": "https://animefire.plus/animes/the-big-o-todos-os-episodios",
      "texto_original": "The Big O",
      "rating": 7.54,
      "classificacao_etaria": "A14",
      "imagem_original": "https://animefire.plus/img/animes/the-big-o.webp",
      "imagem_pasta": "https://animefire.plus/img/animes/the-big-o/",
      "secao": "legendados",
      "pagina": 69,
      "total_episodios": 14,
      "link_video": "https://animefire.plus/video/the-big-o"
    },
    {
      "id": 3827,
      "nome": "The God of High School (Dublado)",
      "link": "https://animefire.plus/animes/the-god-of-high-school-dublado-todos-os-episodios",
      "texto_original": "The God of High School (Dublado)",
      "rating": 7.07,
      "classificacao_etaria": "A14",
      "imagem_original": "https://animefire.plus/img/animes/the-god-of-high-school.webp",
      "imagem_pasta": "https://animefire.plus/img/animes/the-god-of-high-school/",
      "secao": "dublados,legendados",
      "pagina": 8,
      "total_episodios": 13,
      "link_video": "https://animefire.plus/video/the-god-of-high-school-dublado"
    },
    {
      "id": 3829,
      "nome": "The iDOLM@STER Cinderella Girls",
      "link": "https://animefire.plus/animes/the-idolmaster-cinderella-girls-todos-os-episodios",
      "texto_original": "The iDOLM@STER Cinderella Girls",
      "rating": 7.17,
      "classificacao_etaria": "A14",
      "imagem_original": "https://animefire.plus/img/animes/the-idolmaster-cinderella-girls.webp",
      "imagem_pasta": "https://animefire.plus/img/animes/the-idolmaster-cinderella-girls/",
      "secao": "legendados",
      "pagina": 76,
      "total_episodios": 13,
      "link_video": "https://animefire.plus/video/the-idolmaster-cinderella-girls"
    },
    {
      "id": 3834,
      "nome": "The iDOLM@STER SideM",
      "link": "https://animefire.plus/animes/the-idolmaster-sidem-todos-os-episodios",
      "texto_original": "The iDOLM@STER SideM",
      "rating": 7.25,
      "classificacao_etaria": "A14",
      "imagem_original": "https://animefire.plus/img/animes/the-idolmaster-sidem.webp",
      "imagem_pasta": "https://animefire.plus/img/animes/the-idolmaster-sidem/",
      "secao": "legendados",
      "pagina": 73,
      "total_episodios": 13,
      "link_video": "https://animefire.plus/video/the-idolmaster-sidem"
    },
    {
      "id": 3837,
      "nome": "The King of Fighters: Destiny",
      "link": "https://animefire.plus/animes/the-king-of-fighters-destiny-todos-os-episodios",
      "texto_original": "The King of Fighters: Destiny",
      "rating": 6.64,
      "classificacao_etaria": "A14",
      "imagem_original": "https://animefire.plus/img/animes/the-king-of-fighters-destiny.webp",
      "imagem_pasta": "https://animefire.plus/img/animes/the-king-of-fighters-destiny/",
      "secao": "legendados",
      "pagina": 59,
      "total_episodios": 24,
      "link_video": "https://animefire.plus/video/the-king-of-fighters-destiny"
    },
    {
      "id": 3842,
      "nome": "The SoulTaker: Tamashii-gari",
      "link": "https://animefire.plus/animes/the-soultaker-tamashii-gari-todos-os-episodios",
      "texto_original": "The SoulTaker: Tamashii-gari",
      "rating": 6.44,
      "classificacao_etaria": "A14",
      "imagem_original": "https://animefire.plus/img/animes/the-soultaker-tamashii-gari.webp",
      "imagem_pasta": "https://animefire.plus/img/animes/the-soultaker-tamashii-gari/",
      "secao": "legendados",
      "pagina": 129,
      "total_episodios": 13,
      "link_video": "https://animefire.plus/video/the-soultaker-tamashii-gari"
    },
    {
      "id": 3843,
      "nome": "The Third: Aoi Hitomi No Shoujo",
      "link": "https://animefire.plus/animes/the-third-aoi-hitomi-no-shoujo-todos-os-episodios",
      "texto_original": "The Third: Aoi Hitomi No Shoujo",
      "rating": 7.37,
      "classificacao_etaria": "A16",
      "imagem_original": "https://animefire.plus/img/animes/the-third-aoi-hitomi-no-shoujo.webp",
      "imagem_pasta": "https://animefire.plus/img/animes/the-third-aoi-hitomi-no-shoujo/",
      "secao": "legendados",
      "pagina": 108,
      "total_episodios": 15,
      "link_video": "https://animefire.plus/video/the-third-aoi-hitomi-no-shoujo"
    },
    {
      "id": 3845,
      "nome": "Tide-Line Blue",
      "link": "https://animefire.plus/animes/tide-line-blue-todos-os-episodios",
      "texto_original": "Tide-Line Blue",
      "rating": 6.71,
      "classificacao_etaria": "A14",
      "imagem_original": "https://animefire.plus/img/animes/tide-line-blue.webp",
      "imagem_pasta": "https://animefire.plus/img/animes/tide-line-blue/",
      "secao": "legendados",
      "pagina": 141,
      "total_episodios": 13,
      "link_video": "https://animefire.plus/video/tide-line-blue"
    },
    {
      "id": 3847,
      "nome": "Tiger & Bunny 2 (Dublado)",
      "link": "https://animefire.plus/animes/tiger-bunny-2-dublado-todos-os-episodios",
      "texto_original": "Tiger & Bunny 2 (Dublado)",
      "rating": 7.42,
      "classificacao_etaria": "A14",
      "imagem_original": "https://animefire.plus/img/animes/tiger-bunny-2.webp",
      "imagem_pasta": "https://animefire.plus/img/animes/tiger-bunny-2/",
      "secao": "dublados,legendados,lancamentos",
      "pagina": 11,
      "total_episodios": 13,
      "link_video": "https://animefire.plus/video/tiger-bunny-2-dublado"
    },
    {
      "id": 3848,
      "nome": "Time Bokan 24",
      "link": "https://animefire.plus/animes/time-bokan-24-todos-os-episodios",
      "texto_original": "Time Bokan 24",
      "rating": 5.89,
      "classificacao_etaria": "A14",
      "imagem_original": "https://animefire.plus/img/animes/time-bokan-24.webp",
      "imagem_pasta": "https://animefire.plus/img/animes/time-bokan-24/",
      "secao": "legendados",
      "pagina": 64,
      "total_episodios": 24,
      "link_video": "https://animefire.plus/video/time-bokan-24"
    },
    {
      "id": 3849,
      "nome": "Time Bokan: Gyakushuu no San Akunin",
      "link": "https://animefire.plus/animes/time-bokan-gyakushuu-no-san-akunin-todos-os-episodios",
      "texto_original": "Time Bokan: Gyakushuu no San Akunin",
      "rating": 5.77,
      "classificacao_etaria": "A14",
      "imagem_original": "https://animefire.plus/img/animes/time-bokan-gyakushuu-no-san-akunin.webp",
      "imagem_pasta": "https://animefire.plus/img/animes/time-bokan-gyakushuu-no-san-akunin/",
      "secao": "legendados",
      "pagina": 97,
      "total_episodios": 24,
      "link_video": "https://animefire.plus/video/time-bokan-gyakushuu-no-san-akunin"
    }
  ],
  "pagination": {
    "current_page": 35,
    "per_page": 20,
    "total_items": 826,
    "total_pages": 42,
    "has_next": true,
    "has_prev": true
  }
}
