{
  "message": "Animes com 13 a 24 episódios",
  "episode_range": {
    "min": 13,
    "max": 24
  },
  "data": [
    {
      "id": 1422,
      "nome": "Hero Bank",
      "link": "https://animefire.plus/animes/hero-bank-todos-os-episodios",
      "texto_original": "Hero Bank",
      "rating": 6.12,
      "classificacao_etaria": "A10",
      "imagem_original": "https://animefire.plus/img/animes/hero-bank.webp",
      "imagem_pasta": "https://animefire.plus/img/animes/hero-bank/",
      "secao": "legendados",
      "pagina": 158,
      "total_episodios": 17,
      "link_video": "https://animefire.plus/video/hero-bank"
    },
    {
      "id": 1424,
      "nome": "Hero Mask (Dublado)",
      "link": "https://animefire.plus/animes/hero-mask-dublado-todos-os-episodios",
      "texto_original": "Hero Mask (Dublado)",
      "rating": 6.39,
      "classificacao_etaria": "A16",
      "imagem_original": "https://animefire.plus/img/animes/hero-mask.webp",
      "imagem_pasta": "https://animefire.plus/img/animes/hero-mask/",
      "secao": "dublados,legendados",
      "pagina": 25,
      "total_episodios": 15,
      "link_video": "https://animefire.plus/video/hero-mask-dublado"
    },
    {
      "id": 1433,
      "nome": "Hetalia: The World Twinkle",
      "link": "https://animefire.plus/animes/hetalia-the-world-twinkle-todos-os-episodios",
      "texto_original": "Hetalia: The World Twinkle",
      "rating": 7.53,
      "classificacao_etaria": "A14",
      "imagem_original": "https://animefire.plus/img/animes/hetalia-the-world-twinkle.webp",
      "imagem_pasta": "https://animefire.plus/img/animes/hetalia-the-world-twinkle/",
      "secao": "legendados",
      "pagina": 174,
      "total_episodios": 15,
      "link_video": "https://animefire.plus/video/hetalia-the-world-twinkle"
    },
    {
      "id": 1437,
      "nome": "Hi☆sCoool! SeHa Girls",
      "link": "https://animefire.plus/animes/hi-scoool-seha-girls-todos-os-episodios",
      "texto_original": "Hi☆sCoool! SeHa Girls",
      "rating": 6.57,
      "classificacao_etaria": "A14",
      "imagem_original": "https://animefire.plus/img/animes/hi-scoool-seha-girls.webp",
      "imagem_pasta": "https://animefire.plus/img/animes/hi-scoool-seha-girls/",
      "secao": "legendados",
      "pagina": 98,
      "total_episodios": 13,
      "link_video": "https://animefire.plus/video/hi-scoool-seha-girls"
    },
    {
      "id": 1439,
      "nome": "Hibike! Euphonium",
      "link": "https://animefire.plus/animes/hibike-euphonium-todos-os-episodios",
      "texto_original": "Hibike! Euphonium",
      "rating": 8.02,
      "classificacao_etaria": "A14",
      "imagem_original": "https://animefire.plus/img/animes/hibike-euphonium.webp",
      "imagem_pasta": "https://animefire.plus/img/animes/hibike-euphonium/",
      "secao": "legendados",
      "pagina": 82,
      "total_episodios": 13,
      "link_video": "https://animefire.plus/video/hibike-euphonium"
    },
    {
      "id": 1440,
      "nome": "Hibike! Euphonium 2",
      "link": "https://animefire.plus/animes/hibike-euphonium-2-todos-os-episodios",
      "texto_original": "Hibike! Euphonium 2",
      "rating": 8.3,
      "classificacao_etaria": "A14",
      "imagem_original": "https://animefire.plus/img/animes/hibike-euphonium-2.webp",
      "imagem_pasta": "https://animefire.plus/img/animes/hibike-euphonium-2/",
      "secao": "legendados",
      "pagina": 104,
      "total_episodios": 14,
      "link_video": "https://animefire.plus/video/hibike-euphonium-2"
    },
    {
      "id": 1444,
      "nome": "Hidamari Sketch x 365",
      "link": "https://animefire.plus/animes/hidamari-sketch-x-365-todos-os-episodios",
      "texto_original": "Hidamari Sketch x 365",
      "rating": 7.84,
      "classificacao_etaria": "A14",
      "imagem_original": "https://animefire.plus/img/animes/hidamari-sketch-x-365.webp",
      "imagem_pasta": "https://animefire.plus/img/animes/hidamari-sketch-x-365/",
      "secao": "legendados",
      "pagina": 76,
      "total_episodios": 19,
      "link_video": "https://animefire.plus/video/hidamari-sketch-x-365"
    },
    {
      "id": 1449,
      "nome": "Hige wo Soru. Soshite Joshikousei wo Hirou.",
      "link": "https://animefire.plus/animes/hige-wo-soru-soshite-joshikousei-wo-hirou-todos-os-episodios",
      "texto_original": "Hige wo Soru. Soshite Joshikousei wo Hirou.",
      "rating": 7.27,
      "classificacao_etaria": "A14",
      "imagem_original": "https://animefire.plus/img/animes/hige-wo-soru-soshite-joshikousei-wo-hirou.webp",
      "imagem_pasta": "https://animefire.plus/img/animes/hige-wo-soru-soshite-joshikousei-wo-hirou/",
      "secao": "legendados",
      "pagina": 47,
      "total_episodios": 13,
      "link_video": "https://animefire.plus/video/hige-wo-soru-soshite-joshikousei-wo-hirou"
    },
    {
      "id": 1466,
      "nome": "Higurashi no Naku Koro ni (2020)",
      "link": "https://animefire.plus/animes/higurashi-no-naku-koro-ni-2020-todos-os-episodios",
      "texto_original": "Higurashi no Naku Koro ni (2020)",
      "rating": null,
      "classificacao_etaria": "A16",
      "imagem_original": "https://animefire.plus/img/animes/higurashi-no-naku-koro-ni-2020.webp",
      "imagem_pasta": "https://animefire.plus/img/animes/higurashi-no-naku-koro-ni-2020/",
      "secao": "legendados",
      "pagina": 52,
      "total_episodios": 24,
      "link_video": "https://animefire.plus/video/higurashi-no-naku-koro-ni-2020"
    },
    {
      "id": 1467,
      "nome": "Higurashi no Naku Koro ni Gou (Dublado)",
      "link": "https://animefire.plus/animes/higurashi-no-naku-koro-ni-gou-dublado-todos-os-episodios",
      "texto_original": "Higurashi no Naku Koro ni Gou (Dublado)",
      "rating": 7.22,
      "classificacao_etaria": "A16",
      "imagem_original": "https://animefire.plus/img/animes/higurashi-no-naku-koro-ni-gou.webp",
      "imagem_pasta": "https://animefire.plus/img/animes/higurashi-no-naku-koro-ni-gou/",
      "secao": "dublados",
      "pagina": 14,
      "total_episodios": 24,
      "link_video": "https://animefire.plus/video/higurashi-no-naku-koro-ni-gou-dublado"
    },
    {
      "id": 1468,
      "nome": "Higurashi no Naku Koro ni Kai",
      "link": "https://animefire.plus/animes/higurashi-no-naku-koro-ni-kai-todos-os-episodios",
      "texto_original": "Higurashi no Naku Koro ni Kai",
      "rating": 8.31,
      "classificacao_etaria": "A16",
      "imagem_original": "https://animefire.plus/img/animes/higurashi-no-naku-koro-ni-kai.webp",
      "imagem_pasta": "https://animefire.plus/img/animes/higurashi-no-naku-koro-ni-kai/",
      "secao": "legendados",
      "pagina": 126,
      "total_episodios": 24,
      "link_video": "https://animefire.plus/video/higurashi-no-naku-koro-ni-kai"
    },
    {
      "id": 1472,
      "nome": "Higurashi no Naku Koro ni Sotsu",
      "link": "https://animefire.plus/animes/higurashi-no-naku-koro-ni-sotsu-todos-os-episodios",
      "texto_original": "Higurashi no Naku Koro ni Sotsu",
      "rating": 6.73,
      "classificacao_etaria": "A16",
      "imagem_original": "https://animefire.plus/img/animes/higurashi-no-naku-koro-ni-sotsu.webp",
      "imagem_pasta": "https://animefire.plus/img/animes/higurashi-no-naku-koro-ni-sotsu/",
      "secao": "legendados",
      "pagina": 41,
      "total_episodios": 15,
      "link_video": "https://animefire.plus/video/higurashi-no-naku-koro-ni-sotsu"
    },
    {
      "id": 1473,
      "nome": "Hiiro no Kakera",
      "link": "https://animefire.plus/animes/hiiro-no-kakera-todos-os-episodios",
      "texto_original": "Hiiro no Kakera",
      "rating": 6.86,
      "classificacao_etaria": "A14",
      "imagem_original": "https://animefire.plus/img/animes/hiiro-no-kakera.webp",
      "imagem_pasta": "https://animefire.plus/img/animes/hiiro-no-kakera/",
      "secao": "legendados",
      "pagina": 159,
      "total_episodios": 13,
      "link_video": "https://animefire.plus/video/hiiro-no-kakera"
    },
    {
      "id": 1474,
      "nome": "Hiiro no Kakera Dai Ni Shou",
      "link": "https://animefire.plus/animes/hiiro-no-kakera-dai-ni-shou-todos-os-episodios",
      "texto_original": "Hiiro no Kakera Dai Ni Shou",
      "rating": 7.34,
      "classificacao_etaria": "A14",
      "imagem_original": "https://animefire.plus/img/animes/hiiro-no-kakera-dai-ni-shou.webp",
      "imagem_pasta": "https://animefire.plus/img/animes/hiiro-no-kakera-dai-ni-shou/",
      "secao": "legendados",
      "pagina": 143,
      "total_episodios": 13,
      "link_video": "https://animefire.plus/video/hiiro-no-kakera-dai-ni-shou"
    },
    {
      "id": 1475,
      "nome": "Hikari no Densetsu",
      "link": "https://animefire.plus/animes/hikari-no-densetsu-todos-os-episodios",
      "texto_original": "Hikari no Densetsu",
      "rating": 6.68,
      "classificacao_etaria": "A10",
      "imagem_original": "https://animefire.plus/img/animes/hikari-no-densetsu.webp",
      "imagem_pasta": "https://animefire.plus/img/animes/hikari-no-densetsu/",
      "secao": "legendados",
      "pagina": 151,
      "total_episodios": 19,
      "link_video": "https://animefire.plus/video/hikari-no-densetsu"
    },
    {
      "id": 1482,
      "nome": "Himawari!",
      "link": "https://animefire.plus/animes/himawari-todos-os-episodios",
      "texto_original": "Himawari!",
      "rating": 6.39,
      "classificacao_etaria": "A14",
      "imagem_original": "https://animefire.plus/img/animes/himawari.webp",
      "imagem_pasta": "https://animefire.plus/img/animes/himawari/",
      "secao": "legendados",
      "pagina": 108,
      "total_episodios": 13,
      "link_video": "https://animefire.plus/video/himawari"
    },
    {
      "id": 1493,
      "nome": "Hinamatsuri",
      "link": "https://animefire.plus/animes/hinamatsuri-todos-os-episodios",
      "texto_original": "Hinamatsuri",
      "rating": 8.31,
      "classificacao_etaria": "A14",
      "imagem_original": "https://animefire.plus/img/animes/hinamatsuri.webp",
      "imagem_pasta": "https://animefire.plus/img/animes/hinamatsuri/",
      "secao": "legendados",
      "pagina": 143,
      "total_episodios": 13,
      "link_video": "https://animefire.plus/video/hinamatsuri"
    },
    {
      "id": 1495,
      "nome": "Hinomaruzumou",
      "link": "https://animefire.plus/animes/hinomaruzumou-todos-os-episodios",
      "texto_original": "Hinomaruzumou",
      "rating": 7.73,
      "classificacao_etaria": "A14",
      "imagem_original": "https://animefire.plus/img/animes/hinomaruzumou.webp",
      "imagem_pasta": "https://animefire.plus/img/animes/hinomaruzumou/",
      "secao": "legendados",
      "pagina": 132,
      "total_episodios": 19,
      "link_video": "https://animefire.plus/video/hinomaruzumou"
    },
    {
      "id": 1502,
      "nome": "Hitori no Shita: The Outcast 2nd Season",
      "link": "https://animefire.plus/animes/hitori-no-shita-the-outcast-2nd-season-todos-os-episodios",
      "texto_original": "Hitori no Shita: The Outcast 2nd Season",
      "rating": 7.44,
      "classificacao_etaria": "A16",
      "imagem_original": "https://animefire.plus/img/animes/hitori-no-shita-the-outcast-2nd-season.webp",
      "imagem_pasta": "https://animefire.plus/img/animes/hitori-no-shita-the-outcast-2nd-season/",
      "secao": "legendados",
      "pagina": 119,
      "total_episodios": 22,
      "link_video": "https://animefire.plus/video/hitori-no-shita-the-outcast-2nd-season"
    },
    {
      "id": 1518,
      "nome": "Honoo no Mirage",
      "link": "https://animefire.plus/animes/honoo-no-mirage-todos-os-episodios",
      "texto_original": "Honoo no Mirage",
      "rating": 6.67,
      "classificacao_etaria": "A14",
      "imagem_original": "https://animefire.plus/img/animes/honoo-no-mirage.webp",
      "imagem_pasta": "https://animefire.plus/img/animes/honoo-no-mirage/",
      "secao": "legendados",
      "pagina": 119,
      "total_episodios": 13,
      "link_video": "https://animefire.plus/video/honoo-no-mirage"
    }
  ],
  "pagination": {
    "current_page": 14,
    "per_page": 20,
    "total_items": 826,
    "total_pages": 42,
    "has_next": true,
    "has_prev": true
  }
}
