{
  "message": "Animes com 13 a 24 episódios",
  "episode_range": {
    "min": 13,
    "max": 24
  },
  "data": [
    {
      "id": 628,
      "nome": "Choujikuu Kidan Southern Cross",
      "link": "https://animefire.plus/animes/choujikuu-kidan-southern-cross-todos-os-episodios",
      "texto_original": "Choujikuu Kidan Southern Cross",
      "rating": 6.67,
      "classificacao_etaria": "A18",
      "imagem_original": "https://animefire.plus/img/animes/choujikuu-kidan-southern-cross.webp",
      "imagem_pasta": "https://animefire.plus/img/animes/choujikuu-kidan-southern-cross/",
      "secao": "legendados",
      "pagina": 100,
      "total_episodios": 24,
      "link_video": "https://animefire.plus/video/choujikuu-kidan-southern-cross"
    },
    {
      "id": 630,
      "nome": "Choujuushin Gravion",
      "link": "https://animefire.plus/animes/choujuushin-gravion-todos-os-episodios",
      "texto_original": "Choujuushin Gravion",
      "rating": 6.45,
      "classificacao_etaria": "A14",
      "imagem_original": "https://animefire.plus/img/animes/choujuushin-gravion.webp",
      "imagem_pasta": "https://animefire.plus/img/animes/choujuushin-gravion/",
      "secao": "legendados",
      "pagina": 157,
      "total_episodios": 13,
      "link_video": "https://animefire.plus/video/choujuushin-gravion"
    },
    {
      "id": 634,
      "nome": "Chouyaku Hyakuninisshu: Uta Koi.",
      "link": "https://animefire.plus/animes/chouyaku-hyakuninisshu-uta-koi-todos-os-episodios",
      "texto_original": "Chouyaku Hyakuninisshu: Uta Koi.",
      "rating": 7.48,
      "classificacao_etaria": "A14",
      "imagem_original": "https://animefire.plus/img/animes/chouyaku-hyakuninisshu-uta-koi.webp",
      "imagem_pasta": "https://animefire.plus/img/animes/chouyaku-hyakuninisshu-uta-koi/",
      "secao": "legendados",
      "pagina": 42,
      "total_episodios": 13,
      "link_video": "https://animefire.plus/video/chouyaku-hyakuninisshu-uta-koi"
    },
    {
      "id": 637,
      "nome": "Chrome Shelled Regios",
      "link": "https://animefire.plus/animes/chrome-shelled-regios-todos-os-episodios",
      "texto_original": "Chrome Shelled Regios",
      "rating": 7.47,
      "classificacao_etaria": "A16",
      "imagem_original": "https://animefire.plus/img/animes/chrome-shelled-regios.webp",
      "imagem_pasta": "https://animefire.plus/img/animes/chrome-shelled-regios/",
      "secao": "legendados",
      "pagina": 130,
      "total_episodios": 24,
      "link_video": "https://animefire.plus/video/chrome-shelled-regios"
    },
    {
      "id": 642,
      "nome": "Chuukan Kanriroku Tonegawa",
      "link": "https://animefire.plus/animes/chuukan-kanriroku-tonegawa-todos-os-episodios",
      "texto_original": "Chuukan Kanriroku Tonegawa",
      "rating": 7.16,
      "classificacao_etaria": "A14",
      "imagem_original": "https://animefire.plus/img/animes/chuukan-kanriroku-tonegawa.webp",
      "imagem_pasta": "https://animefire.plus/img/animes/chuukan-kanriroku-tonegawa/",
      "secao": "legendados",
      "pagina": 134,
      "total_episodios": 18,
      "link_video": "https://animefire.plus/video/chuukan-kanriroku-tonegawa"
    },
    {
      "id": 652,
      "nome": "Cinderella Girls Gekijou 3rd Season",
      "link": "https://animefire.plus/animes/cinderella-girls-gekijou-3rd-season-todos-os-episodios",
      "texto_original": "Cinderella Girls Gekijou 3rd Season",
      "rating": 6.56,
      "classificacao_etaria": "A14",
      "imagem_original": "https://animefire.plus/img/animes/cinderella-girls-gekijou-3rd-season.webp",
      "imagem_pasta": "https://animefire.plus/img/animes/cinderella-girls-gekijou-3rd-season/",
      "secao": "legendados",
      "pagina": 177,
      "total_episodios": 13,
      "link_video": "https://animefire.plus/video/cinderella-girls-gekijou-3rd-season"
    },
    {
      "id": 657,
      "nome": "City Hunter 3",
      "link": "https://animefire.plus/animes/city-hunter-3-todos-os-episodios",
      "texto_original": "City Hunter 3",
      "rating": 7.9,
      "classificacao_etaria": "A14",
      "imagem_original": "https://animefire.plus/img/animes/city-hunter-3.webp",
      "imagem_pasta": "https://animefire.plus/img/animes/city-hunter-3/",
      "secao": "legendados",
      "pagina": 104,
      "total_episodios": 13,
      "link_video": "https://animefire.plus/video/city-hunter-3"
    },
    {
      "id": 660,
      "nome": "Clannad",
      "link": "https://animefire.plus/animes/clannad-todos-os-episodios",
      "texto_original": "Clannad",
      "rating": 8.18,
      "classificacao_etaria": "A14",
      "imagem_original": "https://animefire.plus/img/animes/clannad.webp",
      "imagem_pasta": "https://animefire.plus/img/animes/clannad/",
      "secao": "legendados",
      "pagina": 155,
      "total_episodios": 23,
      "link_video": "https://animefire.plus/video/clannad"
    },
    {
      "id": 661,
      "nome": "Clannad: After Story",
      "link": "https://animefire.plus/animes/clannad-after-story-todos-os-episodios",
      "texto_original": "Clannad: After Story",
      "rating": 8.98,
      "classificacao_etaria": "A14",
      "imagem_original": "https://animefire.plus/img/animes/clannad-after-story.webp",
      "imagem_pasta": "https://animefire.plus/img/animes/clannad-after-story/",
      "secao": "legendados",
      "pagina": 122,
      "total_episodios": 24,
      "link_video": "https://animefire.plus/video/clannad-after-story"
    },
    {
      "id": 663,
      "nome": "Classic★Stars",
      "link": "https://animefire.plus/animes/classic-stars-todos-os-episodios",
      "texto_original": "Classic★Stars",
      "rating": 5.66,
      "classificacao_etaria": "A14",
      "imagem_original": "https://animefire.plus/img/animes/classic-stars.webp",
      "imagem_pasta": "https://animefire.plus/img/animes/classic-stars/",
      "secao": "legendados",
      "pagina": 4,
      "total_episodios": 13,
      "link_video": "https://animefire.plus/video/classic-stars"
    },
    {
      "id": 664,
      "nome": "Classroom☆Crisis",
      "link": "https://animefire.plus/animes/classroom-crisis-todos-os-episodios",
      "texto_original": "Classroom☆Crisis",
      "rating": 7.1,
      "classificacao_etaria": "A14",
      "imagem_original": "https://animefire.plus/img/animes/classroom-crisis.webp",
      "imagem_pasta": "https://animefire.plus/img/animes/classroom-crisis/",
      "secao": "legendados",
      "pagina": 94,
      "total_episodios": 13,
      "link_video": "https://animefire.plus/video/classroom-crisis"
    },
    {
      "id": 671,
      "nome": "CMFU Xueyuan: Wangzi Peng Peng Qiu",
      "link": "https://animefire.plus/animes/cmfu-xueyuan-wangzi-peng-peng-qiu-todos-os-episodios",
      "texto_original": "CMFU Xueyuan: Wangzi Peng Peng Qiu",
      "rating": 6.32,
      "classificacao_etaria": "A14",
      "imagem_original": "https://animefire.plus/img/animes/cmfu-xueyuan-wangzi-peng-peng-qiu.webp",
      "imagem_pasta": "https://animefire.plus/img/animes/cmfu-xueyuan-wangzi-peng-peng-qiu/",
      "secao": "legendados",
      "pagina": 86,
      "total_episodios": 24,
      "link_video": "https://animefire.plus/video/cmfu-xueyuan-wangzi-peng-peng-qiu"
    },
    {
      "id": 672,
      "nome": "Cobra The Animation",
      "link": "https://animefire.plus/animes/cobra-the-animation-todos-os-episodios",
      "texto_original": "Cobra The Animation",
      "rating": 7.17,
      "classificacao_etaria": "A18",
      "imagem_original": "https://animefire.plus/img/animes/cobra-the-animation.webp",
      "imagem_pasta": "https://animefire.plus/img/animes/cobra-the-animation/",
      "secao": "legendados",
      "pagina": 164,
      "total_episodios": 13,
      "link_video": "https://animefire.plus/video/cobra-the-animation"
    },
    {
      "id": 678,
      "nome": "Code:Breaker",
      "link": "https://animefire.plus/animes/code-breaker-todos-os-episodios",
      "texto_original": "Code:Breaker",
      "rating": 6.93,
      "classificacao_etaria": "A16",
      "imagem_original": "https://animefire.plus/img/animes/code-breaker.webp",
      "imagem_pasta": "https://animefire.plus/img/animes/code-breaker/",
      "secao": "legendados",
      "pagina": 163,
      "total_episodios": 13,
      "link_video": "https://animefire.plus/video/code-breaker"
    },
    {
      "id": 680,
      "nome": "Colorful",
      "link": "https://animefire.plus/animes/colorful-todos-os-episodios",
      "texto_original": "Colorful",
      "rating": 6.1,
      "classificacao_etaria": "A18",
      "imagem_original": "https://animefire.plus/img/animes/colorful.webp",
      "imagem_pasta": "https://animefire.plus/img/animes/colorful/",
      "secao": "legendados",
      "pagina": 60,
      "total_episodios": 16,
      "link_video": "https://animefire.plus/video/colorful"
    },
    {
      "id": 684,
      "nome": "Comic Party",
      "link": "https://animefire.plus/animes/comic-party-todos-os-episodios",
      "texto_original": "Comic Party",
      "rating": 6.64,
      "classificacao_etaria": "A14",
      "imagem_original": "https://animefire.plus/img/animes/comic-party.webp",
      "imagem_pasta": "https://animefire.plus/img/animes/comic-party/",
      "secao": "legendados",
      "pagina": 99,
      "total_episodios": 13,
      "link_video": "https://animefire.plus/video/comic-party"
    },
    {
      "id": 687,
      "nome": "Concrete Revolutio: Choujin Gensou",
      "link": "https://animefire.plus/animes/concrete-revolutio-choujin-gensou-todos-os-episodios",
      "texto_original": "Concrete Revolutio: Choujin Gensou",
      "rating": 6.77,
      "classificacao_etaria": "A14",
      "imagem_original": "https://animefire.plus/img/animes/concrete-revolutio-choujin-gensou.webp",
      "imagem_pasta": "https://animefire.plus/img/animes/concrete-revolutio-choujin-gensou/",
      "secao": "legendados",
      "pagina": 107,
      "total_episodios": 13,
      "link_video": "https://animefire.plus/video/concrete-revolutio-choujin-gensou"
    },
    {
      "id": 689,
      "nome": "Cool Doji Danshi",
      "link": "https://animefire.plus/animes/cool-doji-danshi-todos-os-episodios",
      "texto_original": "Cool Doji Danshi",
      "rating": 7.86,
      "classificacao_etaria": "A14",
      "imagem_original": "https://animefire.plus/img/animes/cool-doji-danshi.webp",
      "imagem_pasta": "https://animefire.plus/img/animes/cool-doji-danshi/",
      "secao": "legendados",
      "pagina": 29,
      "total_episodios": 24,
      "link_video": "https://animefire.plus/video/cool-doji-danshi"
    },
    {
      "id": 697,
      "nome": "Cosmo Warrior Zero",
      "link": "https://animefire.plus/animes/cosmo-warrior-zero-todos-os-episodios",
      "texto_original": "Cosmo Warrior Zero",
      "rating": 6.63,
      "classificacao_etaria": "A14",
      "imagem_original": "https://animefire.plus/img/animes/cosmo-warrior-zero.webp",
      "imagem_pasta": "https://animefire.plus/img/animes/cosmo-warrior-zero/",
      "secao": "legendados",
      "pagina": 96,
      "total_episodios": 15,
      "link_video": "https://animefire.plus/video/cosmo-warrior-zero"
    },
    {
      "id": 706,
      "nome": "Cue!",
      "link": "https://animefire.plus/animes/cue-todos-os-episodios",
      "texto_original": "Cue!",
      "rating": 6.79,
      "classificacao_etaria": "A14",
      "imagem_original": "https://animefire.plus/img/animes/cue.webp",
      "imagem_pasta": "https://animefire.plus/img/animes/cue/",
      "secao": "legendados",
      "pagina": 35,
      "total_episodios": 24,
      "link_video": "https://animefire.plus/video/cue"
    }
  ],
  "pagination": {
    "current_page": 7,
    "per_page": 20,
    "total_items": 826,
    "total_pages": 42,
    "has_next": true,
    "has_prev": true
  }
}
