{
  "message": "Animes com 13 a 24 episódios",
  "episode_range": {
    "min": 13,
    "max": 24
  },
  "data": [
    {
      "id": 549,
      "nome": "Canaan",
      "link": "https://animefire.plus/animes/canaan-todos-os-episodios",
      "texto_original": "Canaan",
      "rating": 7.33,
      "classificacao_etaria": "A16",
      "imagem_original": "https://animefire.plus/img/animes/canaan.webp",
      "imagem_pasta": "https://animefire.plus/img/animes/canaan/",
      "secao": "legendados",
      "pagina": 137,
      "total_episodios": 13,
      "link_video": "https://animefire.plus/video/canaan"
    },
    {
      "id": 561,
      "nome": "Cardcaptor Sakura (Dublado)",
      "link": "https://animefire.plus/animes/cardcaptor-sakura-dublado-todos-os-episodios",
      "texto_original": "Cardcaptor Sakura (Dublado)",
      "rating": 8.2,
      "classificacao_etaria": "A10",
      "imagem_original": "https://animefire.plus/img/animes/cardcaptor-sakura.webp",
      "imagem_pasta": "https://animefire.plus/img/animes/cardcaptor-sakura/",
      "secao": "dublados",
      "pagina": 27,
      "total_episodios": 15,
      "link_video": "https://animefire.plus/video/cardcaptor-sakura-dublado"
    },
    {
      "id": 562,
      "nome": "Cardcaptor Sakura: Clear Card-hen",
      "link": "https://animefire.plus/animes/cardcaptor-sakura-clear-card-hen-todos-os-episodios",
      "texto_original": "Cardcaptor Sakura: Clear Card-hen",
      "rating": 7.87,
      "classificacao_etaria": "A10",
      "imagem_original": "https://animefire.plus/img/animes/cardcaptor-sakura-clear-card-hen.webp",
      "imagem_pasta": "https://animefire.plus/img/animes/cardcaptor-sakura-clear-card-hen/",
      "secao": "legendados",
      "pagina": 106,
      "total_episodios": 22,
      "link_video": "https://animefire.plus/video/cardcaptor-sakura-clear-card-hen"
    },
    {
      "id": 567,
      "nome": "Cardfight!! Vanguard G: Stride Gate-hen",
      "link": "https://animefire.plus/animes/cardfight-vanguard-g-stride-gate-hen-todos-os-episodios",
      "texto_original": "Cardfight!! Vanguard G: Stride Gate-hen",
      "rating": 6.85,
      "classificacao_etaria": "A14",
      "imagem_original": "https://animefire.plus/img/animes/cardfight-vanguard-g-stride-gate-hen.webp",
      "imagem_pasta": "https://animefire.plus/img/animes/cardfight-vanguard-g-stride-gate-hen/",
      "secao": "legendados",
      "pagina": 107,
      "total_episodios": 24,
      "link_video": "https://animefire.plus/video/cardfight-vanguard-g-stride-gate-hen"
    },
    {
      "id": 568,
      "nome": "Cardfight!! Vanguard G: Z",
      "link": "https://animefire.plus/animes/cardfight-vanguard-g-z-todos-os-episodios",
      "texto_original": "Cardfight!! Vanguard G: Z",
      "rating": 6.59,
      "classificacao_etaria": "A14",
      "imagem_original": "https://animefire.plus/img/animes/cardfight-vanguard-g-z.webp",
      "imagem_pasta": "https://animefire.plus/img/animes/cardfight-vanguard-g-z/",
      "secao": "legendados",
      "pagina": 175,
      "total_episodios": 16,
      "link_video": "https://animefire.plus/video/cardfight-vanguard-g-z"
    },
    {
      "id": 571,
      "nome": "Cardfight!! Vanguard: Divinez",
      "link": "https://animefire.plus/animes/cardfight-vanguard-divinez-todos-os-episodios",
      "texto_original": "Cardfight!! Vanguard: Divinez",
      "rating": 7.07,
      "classificacao_etaria": "A14",
      "imagem_original": "https://animefire.plus/img/animes/cardfight-vanguard-divinez.webp",
      "imagem_pasta": "https://animefire.plus/img/animes/cardfight-vanguard-divinez/",
      "secao": "legendados",
      "pagina": 16,
      "total_episodios": 13,
      "link_video": "https://animefire.plus/video/cardfight-vanguard-divinez"
    },
    {
      "id": 574,
      "nome": "Cardfight!! Vanguard: Divinez Season 2",
      "link": "https://animefire.plus/animes/cardfight-vanguard-divinez-season-2-todos-os-episodios",
      "texto_original": "Cardfight!! Vanguard: Divinez Season 2",
      "rating": 7.11,
      "classificacao_etaria": "A14",
      "imagem_original": "https://animefire.plus/img/animes/cardfight-vanguard-divinez-season-2.webp",
      "imagem_pasta": "https://animefire.plus/img/animes/cardfight-vanguard-divinez-season-2/",
      "secao": "legendados",
      "pagina": 12,
      "total_episodios": 13,
      "link_video": "https://animefire.plus/video/cardfight-vanguard-divinez-season-2"
    },
    {
      "id": 578,
      "nome": "Cardfight!! Vanguard: overDress Season 2",
      "link": "https://animefire.plus/animes/cardfight-vanguard-overdress-season-2-todos-os-episodios",
      "texto_original": "Cardfight!! Vanguard: overDress Season 2",
      "rating": 6.7,
      "classificacao_etaria": "A14",
      "imagem_original": "https://animefire.plus/img/animes/cardfight-vanguard-overdress-season-2.webp",
      "imagem_pasta": "https://animefire.plus/img/animes/cardfight-vanguard-overdress-season-2/",
      "secao": "legendados",
      "pagina": 38,
      "total_episodios": 13,
      "link_video": "https://animefire.plus/video/cardfight-vanguard-overdress-season-2"
    },
    {
      "id": 579,
      "nome": "Cardfight!! Vanguard: will+Dress",
      "link": "https://animefire.plus/animes/cardfight-vanguard-will-dress-todos-os-episodios",
      "texto_original": "Cardfight!! Vanguard: will+Dress",
      "rating": 6.85,
      "classificacao_etaria": "A14",
      "imagem_original": "https://animefire.plus/img/animes/cardfight-vanguard-will-dress.webp",
      "imagem_pasta": "https://animefire.plus/img/animes/cardfight-vanguard-will-dress/",
      "secao": "legendados",
      "pagina": 31,
      "total_episodios": 13,
      "link_video": "https://animefire.plus/video/cardfight-vanguard-will-dress"
    },
    {
      "id": 583,
      "nome": "Carole & Tuesday (Dublado)",
      "link": "https://animefire.plus/animes/carole-tuesday-dublado-todos-os-episodios",
      "texto_original": "Carole & Tuesday (Dublado)",
      "rating": 7.98,
      "classificacao_etaria": "A14",
      "imagem_original": "https://animefire.plus/img/animes/carole-tuesday.webp",
      "imagem_pasta": "https://animefire.plus/img/animes/carole-tuesday/",
      "secao": "dublados,legendados",
      "pagina": 25,
      "total_episodios": 24,
      "link_video": "https://animefire.plus/video/carole-tuesday-dublado"
    },
    {
      "id": 584,
      "nome": "Casshern Sins",
      "link": "https://animefire.plus/animes/casshern-sins-todos-os-episodios",
      "texto_original": "Casshern Sins",
      "rating": 7.58,
      "classificacao_etaria": "A16",
      "imagem_original": "https://animefire.plus/img/animes/casshern-sins.webp",
      "imagem_pasta": "https://animefire.plus/img/animes/casshern-sins/",
      "secao": "legendados",
      "pagina": 120,
      "total_episodios": 24,
      "link_video": "https://animefire.plus/video/casshern-sins"
    },
    {
      "id": 595,
      "nome": "Charlotte",
      "link": "https://animefire.plus/animes/charlotte-todos-os-episodios",
      "texto_original": "Charlotte",
      "rating": 7.9,
      "classificacao_etaria": "A14",
      "imagem_original": "https://animefire.plus/img/animes/charlotte.webp",
      "imagem_pasta": "https://animefire.plus/img/animes/charlotte/",
      "secao": "legendados",
      "pagina": 98,
      "total_episodios": 13,
      "link_video": "https://animefire.plus/video/charlotte"
    },
    {
      "id": 602,
      "nome": "Chicchana Yukitsukai Sugar",
      "link": "https://animefire.plus/animes/chicchana-yukitsukai-sugar-todos-os-episodios",
      "texto_original": "Chicchana Yukitsukai Sugar",
      "rating": 7.15,
      "classificacao_etaria": "A10",
      "imagem_original": "https://animefire.plus/img/animes/chicchana-yukitsukai-sugar.webp",
      "imagem_pasta": "https://animefire.plus/img/animes/chicchana-yukitsukai-sugar/",
      "secao": "legendados",
      "pagina": 152,
      "total_episodios": 24,
      "link_video": "https://animefire.plus/video/chicchana-yukitsukai-sugar"
    },
    {
      "id": 615,
      "nome": "Chiyu Mahou no Machigatta Tsukaikata (Dublado)",
      "link": "https://animefire.plus/animes/chiyu-mahou-no-machigatta-tsukaikata-dublado-todos-os-episodios",
      "texto_original": "Chiyu Mahou no Machigatta Tsukaikata (Dublado)",
      "rating": 7.53,
      "classificacao_etaria": "A14",
      "imagem_original": "https://animefire.plus/img/animes/chiyu-mahou-no-machigatta-tsukaikata.webp",
      "imagem_pasta": "https://animefire.plus/img/animes/chiyu-mahou-no-machigatta-tsukaikata/",
      "secao": "dublados,legendados,lancamentos",
      "pagina": 3,
      "total_episodios": 13,
      "link_video": "https://animefire.plus/video/chiyu-mahou-no-machigatta-tsukaikata-dublado"
    },
    {
      "id": 616,
      "nome": "Chobits",
      "link": "https://animefire.plus/animes/chobits-todos-os-episodios",
      "texto_original": "Chobits",
      "rating": 7.5,
      "classificacao_etaria": "A14",
      "imagem_original": "https://animefire.plus/img/animes/chobits.webp",
      "imagem_pasta": "https://animefire.plus/img/animes/chobits/",
      "secao": "legendados",
      "pagina": 137,
      "total_episodios": 15,
      "link_video": "https://animefire.plus/video/chobits"
    },
    {
      "id": 618,
      "nome": "Choboraunyopomi Gekijou Dai San Maku Ai Mai Mii: Surgical Friends",
      "link": "https://animefire.plus/animes/choboraunyopomi-gekijou-dai-san-maku-ai-mai-mii-surgical-friends-todos-os-episodios",
      "texto_original": "Choboraunyopomi Gekijou Dai San Maku Ai Mai Mii: Surgical Friends",
      "rating": 6.14,
      "classificacao_etaria": "A14",
      "imagem_original": "https://animefire.plus/img/animes/choboraunyopomi-gekijou-dai-san-maku-ai-mai-mii-surgical-friends.webp",
      "imagem_pasta": "https://animefire.plus/img/animes/choboraunyopomi-gekijou-dai-san-maku-ai-mai-mii-surgical-friends/",
      "secao": "legendados",
      "pagina": 173,
      "total_episodios": 13,
      "link_video": "https://animefire.plus/video/choboraunyopomi-gekijou-dai-san-maku-ai-mai-mii-surgical-friends"
    },
    {
      "id": 619,
      "nome": "Chocolate Underground",
      "link": "https://animefire.plus/animes/chocolate-underground-todos-os-episodios",
      "texto_original": "Chocolate Underground",
      "rating": 6.22,
      "classificacao_etaria": "A10",
      "imagem_original": "https://animefire.plus/img/animes/chocolate-underground.webp",
      "imagem_pasta": "https://animefire.plus/img/animes/chocolate-underground/",
      "secao": "legendados",
      "pagina": 122,
      "total_episodios": 13,
      "link_video": "https://animefire.plus/video/chocolate-underground"
    },
    {
      "id": 620,
      "nome": "Chocotto Sister",
      "link": "https://animefire.plus/animes/chocotto-sister-todos-os-episodios",
      "texto_original": "Chocotto Sister",
      "rating": 6.78,
      "classificacao_etaria": "A18",
      "imagem_original": "https://animefire.plus/img/animes/chocotto-sister.webp",
      "imagem_pasta": "https://animefire.plus/img/animes/chocotto-sister/",
      "secao": "legendados",
      "pagina": 42,
      "total_episodios": 24,
      "link_video": "https://animefire.plus/video/chocotto-sister"
    },
    {
      "id": 622,
      "nome": "Chou Henshin Cosprayers",
      "link": "https://animefire.plus/animes/chou-henshin-cosprayers-todos-os-episodios",
      "texto_original": "Chou Henshin Cosprayers",
      "rating": 4.93,
      "classificacao_etaria": "A14",
      "imagem_original": "https://animefire.plus/img/animes/chou-henshin-cosprayers.webp",
      "imagem_pasta": "https://animefire.plus/img/animes/chou-henshin-cosprayers/",
      "secao": "legendados",
      "pagina": 42,
      "total_episodios": 22,
      "link_video": "https://animefire.plus/video/chou-henshin-cosprayers"
    },
    {
      "id": 624,
      "nome": "Chou Yuu Sekai: Being the Reality",
      "link": "https://animefire.plus/animes/chou-yuu-sekai-being-the-reality-todos-os-episodios",
      "texto_original": "Chou Yuu Sekai: Being the Reality",
      "rating": 6.39,
      "classificacao_etaria": "A14",
      "imagem_original": "https://animefire.plus/img/animes/chou-yuu-sekai-being-the-reality.webp",
      "imagem_pasta": "https://animefire.plus/img/animes/chou-yuu-sekai-being-the-reality/",
      "secao": "legendados",
      "pagina": 176,
      "total_episodios": 13,
      "link_video": "https://animefire.plus/video/chou-yuu-sekai-being-the-reality"
    }
  ],
  "pagination": {
    "current_page": 6,
    "per_page": 20,
    "total_items": 826,
    "total_pages": 42,
    "has_next": true,
    "has_prev": true
  }
}
