{
  "message": "Animes com 13 a 24 episódios",
  "episode_range": {
    "min": 13,
    "max": 24
  },
  "data": [
    {
      "id": 2868,
      "nome": "Ookami to Koushinryou (Dublado)",
      "link": "https://animefire.plus/animes/ookami-to-koushinryou-dublado-todos-os-episodios",
      "texto_original": "Ookami to Koushinryou (Dublado)",
      "rating": 8.24,
      "classificacao_etaria": "A14",
      "imagem_original": "https://animefire.plus/img/animes/ookami-to-koushinryou.webp",
      "imagem_pasta": "https://animefire.plus/img/animes/ookami-to-koushinryou/",
      "secao": "dublados,legendados",
      "pagina": 13,
      "total_episodios": 13,
      "link_video": "https://animefire.plus/video/ookami-to-koushinryou-dublado"
    },
    {
      "id": 2870,
      "nome": "Ookami to Koushinryou: Merchant Meets the Wise Wolf",
      "link": "https://animefire.plus/animes/ookami-to-koushinryou-merchant-meets-the-wise-wolf-todos-os-episodios",
      "texto_original": "Ookami to Koushinryou: Merchant Meets the Wise Wolf",
      "rating": 8.11,
      "classificacao_etaria": "A14",
      "imagem_original": "https://animefire.plus/img/animes/ookami-to-koushinryou-merchant-meets-the-wise-wolf.webp",
      "imagem_pasta": "https://animefire.plus/img/animes/ookami-to-koushinryou-merchant-meets-the-wise-wolf/",
      "secao": "legendados",
      "pagina": 15,
      "total_episodios": 13,
      "link_video": "https://animefire.plus/video/ookami-to-koushinryou-merchant-meets-the-wise-wolf"
    },
    {
      "id": 2874,
      "nome": "Ookiku Furikabutte: Natsu no Taikai-hen",
      "link": "https://animefire.plus/animes/ookiku-furikabutte-natsu-no-taikai-hen-todos-os-episodios",
      "texto_original": "Ookiku Furikabutte: Natsu no Taikai-hen",
      "rating": 8.1,
      "classificacao_etaria": "A14",
      "imagem_original": "https://animefire.plus/img/animes/ookiku-furikabutte-natsu-no-taikai-hen.webp",
      "imagem_pasta": "https://animefire.plus/img/animes/ookiku-furikabutte-natsu-no-taikai-hen/",
      "secao": "legendados",
      "pagina": 157,
      "total_episodios": 13,
      "link_video": "https://animefire.plus/video/ookiku-furikabutte-natsu-no-taikai-hen"
    },
    {
      "id": 2878,
      "nome": "Orange (Dublado)",
      "link": "https://animefire.plus/animes/orange-dublado-todos-os-episodios",
      "texto_original": "Orange (Dublado)",
      "rating": 7.66,
      "classificacao_etaria": "A14",
      "imagem_original": "https://animefire.plus/img/animes/orange.webp",
      "imagem_pasta": "https://animefire.plus/img/animes/orange/",
      "secao": "dublados,legendados",
      "pagina": 25,
      "total_episodios": 13,
      "link_video": "https://animefire.plus/video/orange-dublado"
    },
    {
      "id": 2881,
      "nome": "Ore dake Level Up na Ken Season 2: Arise from the Shadow (Dublado)",
      "link": "https://animefire.plus/animes/ore-dake-level-up-na-ken-season-2-arise-from-the-shadow-dublado-todos-os-episodios",
      "texto_original": "Ore dake Level Up na Ken Season 2: Arise from the Shadow (Dublado)",
      "rating": 8.68,
      "classificacao_etaria": "A16",
      "imagem_original": "https://animefire.plus/img/animes/ore-dake-level-up-na-ken-season-2-arise-from-the-shadow.webp",
      "imagem_pasta": "https://animefire.plus/img/animes/ore-dake-level-up-na-ken-season-2-arise-from-the-shadow/",
      "secao": "dublados,legendados",
      "pagina": 1,
      "total_episodios": 13,
      "link_video": "https://animefire.plus/video/ore-dake-level-up-na-ken-season-2-arise-from-the-shadow-dublado"
    },
    {
      "id": 2884,
      "nome": "Ore Monogatari!!",
      "link": "https://animefire.plus/animes/ore-monogatari-todos-os-episodios",
      "texto_original": "Ore Monogatari!!",
      "rating": 8.04,
      "classificacao_etaria": "A14",
      "imagem_original": "https://animefire.plus/img/animes/ore-monogatari.webp",
      "imagem_pasta": "https://animefire.plus/img/animes/ore-monogatari/",
      "secao": "legendados",
      "pagina": 103,
      "total_episodios": 24,
      "link_video": "https://animefire.plus/video/ore-monogatari"
    },
    {
      "id": 2887,
      "nome": "Ore no Kanojo to Osananajimi ga Shuraba Sugiru",
      "link": "https://animefire.plus/animes/ore-no-kanojo-to-osananajimi-ga-shuraba-sugiru-todos-os-episodios",
      "texto_original": "Ore no Kanojo to Osananajimi ga Shuraba Sugiru",
      "rating": 7.23,
      "classificacao_etaria": "A14",
      "imagem_original": "https://animefire.plus/img/animes/ore-no-kanojo-to-osananajimi-ga-shuraba-sugiru.webp",
      "imagem_pasta": "https://animefire.plus/img/animes/ore-no-kanojo-to-osananajimi-ga-shuraba-sugiru/",
      "secao": "legendados",
      "pagina": 164,
      "total_episodios": 13,
      "link_video": "https://animefire.plus/video/ore-no-kanojo-to-osananajimi-ga-shuraba-sugiru"
    },
    {
      "id": 2901,
      "nome": "Osake wa Fuufu ni Natte kara",
      "link": "https://animefire.plus/animes/osake-wa-fuufu-ni-natte-kara-todos-os-episodios",
      "texto_original": "Osake wa Fuufu ni Natte kara",
      "rating": 6.98,
      "classificacao_etaria": "A14",
      "imagem_original": "https://animefire.plus/img/animes/osake-wa-fuufu-ni-natte-kara.webp",
      "imagem_pasta": "https://animefire.plus/img/animes/osake-wa-fuufu-ni-natte-kara/",
      "secao": "legendados",
      "pagina": 165,
      "total_episodios": 13,
      "link_video": "https://animefire.plus/video/osake-wa-fuufu-ni-natte-kara"
    },
    {
      "id": 2920,
      "nome": "Otome Youkai Zakuro",
      "link": "https://animefire.plus/animes/otome-youkai-zakuro-todos-os-episodios",
      "texto_original": "Otome Youkai Zakuro",
      "rating": 7.54,
      "classificacao_etaria": "A14",
      "imagem_original": "https://animefire.plus/img/animes/otome-youkai-zakuro.webp",
      "imagem_pasta": "https://animefire.plus/img/animes/otome-youkai-zakuro/",
      "secao": "legendados",
      "pagina": 150,
      "total_episodios": 13,
      "link_video": "https://animefire.plus/video/otome-youkai-zakuro"
    },
    {
      "id": 2925,
      "nome": "Ou Dorobou Jing",
      "link": "https://animefire.plus/animes/ou-dorobou-jing-todos-os-episodios",
      "texto_original": "Ou Dorobou Jing",
      "rating": 7.29,
      "classificacao_etaria": "A14",
      "imagem_original": "https://animefire.plus/img/animes/ou-dorobou-jing.webp",
      "imagem_pasta": "https://animefire.plus/img/animes/ou-dorobou-jing/",
      "secao": "legendados",
      "pagina": 134,
      "total_episodios": 13,
      "link_video": "https://animefire.plus/video/ou-dorobou-jing"
    },
    {
      "id": 2929,
      "nome": "Ousama Ranking (Dublado)",
      "link": "https://animefire.plus/animes/ousama-ranking-dublado-todos-os-episodios",
      "texto_original": "Ousama Ranking (Dublado)",
      "rating": 8.49,
      "classificacao_etaria": "A14",
      "imagem_original": "https://animefire.plus/img/animes/ousama-ranking.webp",
      "imagem_pasta": "https://animefire.plus/img/animes/ousama-ranking/",
      "secao": "dublados,legendados",
      "pagina": 14,
      "total_episodios": 23,
      "link_video": "https://animefire.plus/video/ousama-ranking-dublado"
    },
    {
      "id": 2933,
      "nome": "Overlord (Dublado)",
      "link": "https://animefire.plus/animes/overlord-dublado-todos-os-episodios",
      "texto_original": "Overlord (Dublado)",
      "rating": 7.98,
      "classificacao_etaria": "A16",
      "imagem_original": "https://animefire.plus/img/animes/overlord.webp",
      "imagem_pasta": "https://animefire.plus/img/animes/overlord/",
      "secao": "dublados,legendados",
      "pagina": 19,
      "total_episodios": 13,
      "link_video": "https://animefire.plus/video/overlord-dublado"
    },
    {
      "id": 2934,
      "nome": "Overlord II (Dublado)",
      "link": "https://animefire.plus/animes/overlord-ii-dublado-todos-os-episodios",
      "texto_original": "Overlord II (Dublado)",
      "rating": 7.8,
      "classificacao_etaria": "A16",
      "imagem_original": "https://animefire.plus/img/animes/overlord-ii.webp",
      "imagem_pasta": "https://animefire.plus/img/animes/overlord-ii/",
      "secao": "dublados,legendados",
      "pagina": 19,
      "total_episodios": 13,
      "link_video": "https://animefire.plus/video/overlord-ii-dublado"
    },
    {
      "id": 2935,
      "nome": "Overlord III (Dublado)",
      "link": "https://animefire.plus/animes/overlord-iii-dublado-todos-os-episodios",
      "texto_original": "Overlord III (Dublado)",
      "rating": 7.98,
      "classificacao_etaria": "A16",
      "imagem_original": "https://animefire.plus/img/animes/overlord-iii.webp",
      "imagem_pasta": "https://animefire.plus/img/animes/overlord-iii/",
      "secao": "dublados,legendados",
      "pagina": 19,
      "total_episodios": 13,
      "link_video": "https://animefire.plus/video/overlord-iii-dublado"
    },
    {
      "id": 2936,
      "nome": "Overlord IV (Dublado)",
      "link": "https://animefire.plus/animes/overlord-iv-dublado-todos-os-episodios",
      "texto_original": "Overlord IV (Dublado)",
      "rating": 8.07,
      "classificacao_etaria": "A16",
      "imagem_original": "https://animefire.plus/img/animes/overlord-iv.webp",
      "imagem_pasta": "https://animefire.plus/img/animes/overlord-iv/",
      "secao": "dublados,legendados",
      "pagina": 10,
      "total_episodios": 13,
      "link_video": "https://animefire.plus/video/overlord-iv-dublado"
    },
    {
      "id": 2946,
      "nome": "Pan de Peace!",
      "link": "https://animefire.plus/animes/pan-de-peace-todos-os-episodios",
      "texto_original": "Pan de Peace!",
      "rating": 5.61,
      "classificacao_etaria": "A14",
      "imagem_original": "https://animefire.plus/img/animes/pan-de-peace.webp",
      "imagem_pasta": "https://animefire.plus/img/animes/pan-de-peace/",
      "secao": "legendados",
      "pagina": 61,
      "total_episodios": 13,
      "link_video": "https://animefire.plus/video/pan-de-peace"
    },
    {
      "id": 2950,
      "nome": "Panty & Stocking with Garterbelt",
      "link": "https://animefire.plus/animes/panty-stocking-with-garterbelt-todos-os-episodios",
      "texto_original": "Panty & Stocking with Garterbelt",
      "rating": 7.77,
      "classificacao_etaria": "A16",
      "imagem_original": "https://animefire.plus/img/animes/panty-stocking-with-garterbelt.webp",
      "imagem_pasta": "https://animefire.plus/img/animes/panty-stocking-with-garterbelt/",
      "secao": "legendados",
      "pagina": 161,
      "total_episodios": 13,
      "link_video": "https://animefire.plus/video/panty-stocking-with-garterbelt"
    },
    {
      "id": 2960,
      "nome": "Peace Maker Kurogane",
      "link": "https://animefire.plus/animes/peace-maker-kurogane-todos-os-episodios",
      "texto_original": "Peace Maker Kurogane",
      "rating": 7.39,
      "classificacao_etaria": "A16",
      "imagem_original": "https://animefire.plus/img/animes/peace-maker-kurogane.webp",
      "imagem_pasta": "https://animefire.plus/img/animes/peace-maker-kurogane/",
      "secao": "legendados",
      "pagina": 163,
      "total_episodios": 24,
      "link_video": "https://animefire.plus/video/peace-maker-kurogane"
    },
    {
      "id": 2964,
      "nome": "Penguin Musume♥Heart",
      "link": "https://animefire.plus/animes/penguin-musume-heart-todos-os-episodios",
      "texto_original": "Penguin Musume♥Heart",
      "rating": 6.81,
      "classificacao_etaria": "A18",
      "imagem_original": "https://animefire.plus/img/animes/penguin-musume-heart.webp",
      "imagem_pasta": "https://animefire.plus/img/animes/penguin-musume-heart/",
      "secao": "legendados",
      "pagina": 133,
      "total_episodios": 22,
      "link_video": "https://animefire.plus/video/penguin-musume-heart"
    },
    {
      "id": 2965,
      "nome": "Persona 4 the Animation",
      "link": "https://animefire.plus/animes/persona-4-the-animation-todos-os-episodios",
      "texto_original": "Persona 4 the Animation",
      "rating": 7.59,
      "classificacao_etaria": "A14",
      "imagem_original": "https://animefire.plus/img/animes/persona-4-the-animation.webp",
      "imagem_pasta": "https://animefire.plus/img/animes/persona-4-the-animation/",
      "secao": "legendados",
      "pagina": 165,
      "total_episodios": 15,
      "link_video": "https://animefire.plus/video/persona-4-the-animation"
    }
  ],
  "pagination": {
    "current_page": 27,
    "per_page": 20,
    "total_items": 826,
    "total_pages": 42,
    "has_next": true,
    "has_prev": true
  }
}
