{
  "message": "Animes com 13 a 24 episódios",
  "episode_range": {
    "min": 13,
    "max": 24
  },
  "data": [
    {
      "id": 4132,
      "nome": "Wind Breaker (Dublado)",
      "link": "https://animefire.plus/animes/wind-breaker-dublado-todos-os-episodios",
      "texto_original": "Wind Breaker (Dublado)",
      "rating": 7.73,
      "classificacao_etaria": "A14",
      "imagem_original": "https://animefire.plus/img/animes/wind-breaker.webp",
      "imagem_pasta": "https://animefire.plus/img/animes/wind-breaker/",
      "secao": "dublados,legendados,lancamentos",
      "pagina": 2,
      "total_episodios": 13,
      "link_video": "https://animefire.plus/video/wind-breaker-dublado"
    },
    {
      "id": 4134,
      "nome": "Wind: A Breath of Heart (TV)",
      "link": "https://animefire.plus/animes/wind-a-breath-of-heart-tv-todos-os-episodios",
      "texto_original": "Wind: A Breath of Heart (TV)",
      "rating": 6.06,
      "classificacao_etaria": "A14",
      "imagem_original": "https://animefire.plus/img/animes/wind-a-breath-of-heart-tv.webp",
      "imagem_pasta": "https://animefire.plus/img/animes/wind-a-breath-of-heart-tv/",
      "secao": "legendados",
      "pagina": 155,
      "total_episodios": 13,
      "link_video": "https://animefire.plus/video/wind-a-breath-of-heart-tv"
    },
    {
      "id": 4137,
      "nome": "Witch Watch (Dublado)",
      "link": "https://animefire.plus/animes/witch-watch-dublado-todos-os-episodios",
      "texto_original": "Witch Watch (Dublado)",
      "rating": 7.4,
      "classificacao_etaria": "A14",
      "imagem_original": "https://animefire.plus/img/animes/witch-watch.webp",
      "imagem_pasta": "https://animefire.plus/img/animes/witch-watch/",
      "secao": "dublados,legendados,lancamentos",
      "pagina": 1,
      "total_episodios": 18,
      "link_video": "https://animefire.plus/video/witch-watch-dublado"
    },
    {
      "id": 4141,
      "nome": "Wo De Ni Tian Shen Qi",
      "link": "https://animefire.plus/animes/wo-de-ni-tian-shen-qi-todos-os-episodios",
      "texto_original": "Wo De Ni Tian Shen Qi",
      "rating": 6.62,
      "classificacao_etaria": "A14",
      "imagem_original": "https://animefire.plus/img/animes/wo-de-ni-tian-shen-qi.webp",
      "imagem_pasta": "https://animefire.plus/img/animes/wo-de-ni-tian-shen-qi/",
      "secao": "legendados",
      "pagina": 163,
      "total_episodios": 16,
      "link_video": "https://animefire.plus/video/wo-de-ni-tian-shen-qi"
    },
    {
      "id": 4142,
      "nome": "Wo De Tian Jie Nu You",
      "link": "https://animefire.plus/animes/wo-de-tian-jie-nu-you-todos-os-episodios",
      "texto_original": "Wo De Tian Jie Nu You",
      "rating": 6.64,
      "classificacao_etaria": "A16",
      "imagem_original": "https://animefire.plus/img/animes/wo-de-tian-jie-nu-you.webp",
      "imagem_pasta": "https://animefire.plus/img/animes/wo-de-tian-jie-nu-you/",
      "secao": "legendados",
      "pagina": 59,
      "total_episodios": 15,
      "link_video": "https://animefire.plus/video/wo-de-tian-jie-nu-you"
    },
    {
      "id": 4143,
      "nome": "Wo De Tian Jie Nv You",
      "link": "https://animefire.plus/animes/wo-de-tian-jie-nv-you-todos-os-episodios",
      "texto_original": "Wo De Tian Jie Nv You",
      "rating": 6.73,
      "classificacao_etaria": "A16",
      "imagem_original": "https://animefire.plus/img/animes/wo-de-tian-jie-nv-you.webp",
      "imagem_pasta": "https://animefire.plus/img/animes/wo-de-tian-jie-nv-you/",
      "secao": "legendados",
      "pagina": 126,
      "total_episodios": 15,
      "link_video": "https://animefire.plus/video/wo-de-tian-jie-nv-you"
    },
    {
      "id": 4153,
      "nome": "Working!!",
      "link": "https://animefire.plus/animes/working-todos-os-episodios",
      "texto_original": "Working!!",
      "rating": 7.77,
      "classificacao_etaria": "A14",
      "imagem_original": "https://animefire.plus/img/animes/working.webp",
      "imagem_pasta": "https://animefire.plus/img/animes/working/",
      "secao": "legendados",
      "pagina": 165,
      "total_episodios": 13,
      "link_video": "https://animefire.plus/video/working"
    },
    {
      "id": 4154,
      "nome": "Working!!!",
      "link": "https://animefire.plus/animes/wagnaria-3-todos-os-episodios",
      "texto_original": "Working!!!",
      "rating": 8.07,
      "classificacao_etaria": "A14",
      "imagem_original": "https://animefire.plus/img/animes/wagnaria-3.webp",
      "imagem_pasta": "https://animefire.plus/img/animes/wagnaria-3/",
      "secao": "legendados",
      "pagina": 72,
      "total_episodios": 13,
      "link_video": "https://animefire.plus/video/wagnaria-3"
    },
    {
      "id": 4155,
      "nome": "World Destruction: Sekai Bokumetsu no Rokunin",
      "link": "https://animefire.plus/animes/world-destruction-sekai-bokumetsu-no-rokunin-todos-os-episodios",
      "texto_original": "World Destruction: Sekai Bokumetsu no Rokunin",
      "rating": 7.04,
      "classificacao_etaria": "A14",
      "imagem_original": "https://animefire.plus/img/animes/world-destruction-sekai-bokumetsu-no-rokunin.webp",
      "imagem_pasta": "https://animefire.plus/img/animes/world-destruction-sekai-bokumetsu-no-rokunin/",
      "secao": "legendados",
      "pagina": 124,
      "total_episodios": 13,
      "link_video": "https://animefire.plus/video/world-destruction-sekai-bokumetsu-no-rokunin"
    },
    {
      "id": 4158,
      "nome": "World Trigger 3rd Season",
      "link": "https://animefire.plus/animes/world-trigger-3rd-season-todos-os-episodios",
      "texto_original": "World Trigger 3rd Season",
      "rating": 8.25,
      "classificacao_etaria": "A14",
      "imagem_original": "https://animefire.plus/img/animes/world-trigger-3rd-season.webp",
      "imagem_pasta": "https://animefire.plus/img/animes/world-trigger-3rd-season/",
      "secao": "legendados",
      "pagina": 37,
      "total_episodios": 14,
      "link_video": "https://animefire.plus/video/world-trigger-3rd-season"
    },
    {
      "id": 4170,
      "nome": "Xian Wang de Richang Shenghuo",
      "link": "https://animefire.plus/animes/xian-wang-de-richang-shenghuo-todos-os-episodios",
      "texto_original": "Xian Wang de Richang Shenghuo",
      "rating": 7.19,
      "classificacao_etaria": "A14",
      "imagem_original": "https://animefire.plus/img/animes/xian-wang-de-richang-shenghuo.webp",
      "imagem_pasta": "https://animefire.plus/img/animes/xian-wang-de-richang-shenghuo/",
      "secao": "legendados",
      "pagina": 91,
      "total_episodios": 15,
      "link_video": "https://animefire.plus/video/xian-wang-de-richang-shenghuo"
    },
    {
      "id": 4175,
      "nome": "Xie Wang Zhui Qi",
      "link": "https://animefire.plus/animes/xie-wang-zhui-qi-todos-os-episodios",
      "texto_original": "Xie Wang Zhui Qi",
      "rating": 6.7,
      "classificacao_etaria": "A14",
      "imagem_original": "https://animefire.plus/img/animes/xie-wang-zhui-qi.webp",
      "imagem_pasta": "https://animefire.plus/img/animes/xie-wang-zhui-qi/",
      "secao": "legendados",
      "pagina": 177,
      "total_episodios": 13,
      "link_video": "https://animefire.plus/video/xie-wang-zhui-qi"
    },
    {
      "id": 4177,
      "nome": "xxxHOLiC",
      "link": "https://animefire.plus/animes/xxxholic-todos-os-episodios",
      "texto_original": "xxxHOLiC",
      "rating": 8.07,
      "classificacao_etaria": "A14",
      "imagem_original": "https://animefire.plus/img/animes/xxxholic.webp",
      "imagem_pasta": "https://animefire.plus/img/animes/xxxholic/",
      "secao": "legendados",
      "pagina": 128,
      "total_episodios": 24,
      "link_video": "https://animefire.plus/video/xxxholic"
    },
    {
      "id": 4178,
      "nome": "xxxHOLiC Kei",
      "link": "https://animefire.plus/animes/xxxholic-kei-todos-os-episodios",
      "texto_original": "xxxHOLiC Kei",
      "rating": 8.29,
      "classificacao_etaria": "A14",
      "imagem_original": "https://animefire.plus/img/animes/xxxholic-kei.webp",
      "imagem_pasta": "https://animefire.plus/img/animes/xxxholic-kei/",
      "secao": "legendados",
      "pagina": 163,
      "total_episodios": 13,
      "link_video": "https://animefire.plus/video/xxxholic-kei"
    },
    {
      "id": 4181,
      "nome": "Yagate Kimi ni Naru",
      "link": "https://animefire.plus/animes/yagate-kimi-ni-naru-todos-os-episodios",
      "texto_original": "Yagate Kimi ni Naru",
      "rating": 8.02,
      "classificacao_etaria": "A14",
      "imagem_original": "https://animefire.plus/img/animes/yagate-kimi-ni-naru.webp",
      "imagem_pasta": "https://animefire.plus/img/animes/yagate-kimi-ni-naru/",
      "secao": "legendados",
      "pagina": 135,
      "total_episodios": 13,
      "link_video": "https://animefire.plus/video/yagate-kimi-ni-naru"
    },
    {
      "id": 4182,
      "nome": "Yahari Ore no Seishun Love Comedy wa Machigatteiru.",
      "link": "https://animefire.plus/animes/yahari-ore-no-seishun-love-comedy-wa-machigatteiru-todos-os-episodios",
      "texto_original": "Yahari Ore no Seishun Love Comedy wa Machigatteiru.",
      "rating": 8.1,
      "classificacao_etaria": "A14",
      "imagem_original": "https://animefire.plus/img/animes/yahari-ore-no-seishun-love-comedy-wa-machigatteiru.webp",
      "imagem_pasta": "https://animefire.plus/img/animes/yahari-ore-no-seishun-love-comedy-wa-machigatteiru/",
      "secao": "legendados",
      "pagina": 122,
      "total_episodios": 13,
      "link_video": "https://animefire.plus/video/yahari-ore-no-seishun-love-comedy-wa-machigatteiru"
    },
    {
      "id": 4184,
      "nome": "Yahari Ore no Seishun Love Comedy wa Machigatteiru. Zoku",
      "link": "https://animefire.plus/animes/yahari-ore-no-seishun-love-comedy-wa-machigatteiru-zoku-todos-os-episodios",
      "texto_original": "Yahari Ore no Seishun Love Comedy wa Machigatteiru. Zoku",
      "rating": 8.29,
      "classificacao_etaria": "A14",
      "imagem_original": "https://animefire.plus/img/animes/yahari-ore-no-seishun-love-comedy-wa-machigatteiru-zoku.webp",
      "imagem_pasta": "https://animefire.plus/img/animes/yahari-ore-no-seishun-love-comedy-wa-machigatteiru-zoku/",
      "secao": "legendados",
      "pagina": 91,
      "total_episodios": 13,
      "link_video": "https://animefire.plus/video/yahari-ore-no-seishun-love-comedy-wa-machigatteiru-zoku"
    },
    {
      "id": 4186,
      "nome": "Yakitate!! Japan",
      "link": "https://animefire.plus/animes/yakitate-japan-todos-os-episodios",
      "texto_original": "Yakitate!! Japan",
      "rating": 8.01,
      "classificacao_etaria": "A14",
      "imagem_original": "https://animefire.plus/img/animes/yakitate-japan.webp",
      "imagem_pasta": "https://animefire.plus/img/animes/yakitate-japan/",
      "secao": "legendados",
      "pagina": 113,
      "total_episodios": 24,
      "link_video": "https://animefire.plus/video/yakitate-japan"
    },
    {
      "id": 4194,
      "nome": "Yama no Susume: Second Season",
      "link": "https://animefire.plus/animes/yama-no-susume-second-season-todos-os-episodios",
      "texto_original": "Yama no Susume: Second Season",
      "rating": 7.58,
      "classificacao_etaria": "A14",
      "imagem_original": "https://animefire.plus/img/animes/yama-no-susume-second-season.webp",
      "imagem_pasta": "https://animefire.plus/img/animes/yama-no-susume-second-season/",
      "secao": "legendados",
      "pagina": 125,
      "total_episodios": 24,
      "link_video": "https://animefire.plus/video/yama-no-susume-second-season"
    },
    {
      "id": 4195,
      "nome": "Yama no Susume: Third Season",
      "link": "https://animefire.plus/animes/yama-no-susume-third-season-todos-os-episodios",
      "texto_original": "Yama no Susume: Third Season",
      "rating": 7.61,
      "classificacao_etaria": "A14",
      "imagem_original": "https://animefire.plus/img/animes/yama-no-susume-third-season.webp",
      "imagem_pasta": "https://animefire.plus/img/animes/yama-no-susume-third-season/",
      "secao": "legendados",
      "pagina": 148,
      "total_episodios": 13,
      "link_video": "https://animefire.plus/video/yama-no-susume-third-season"
    }
  ],
  "pagination": {
    "current_page": 39,
    "per_page": 20,
    "total_items": 826,
    "total_pages": 42,
    "has_next": true,
    "has_prev": true
  }
}
