{
  "message": "Animes com 13 a 24 episódios",
  "episode_range": {
    "min": 13,
    "max": 24
  },
  "data": [
    {
      "id": 2450,
      "nome": "Mawaru Penguindrum",
      "link": "https://animefire.plus/animes/mawaru-penguindrum-todos-os-episodios",
      "texto_original": "Mawaru Penguindrum",
      "rating": 8.01,
      "classificacao_etaria": "A16",
      "imagem_original": "https://animefire.plus/img/animes/mawaru-penguindrum.webp",
      "imagem_pasta": "https://animefire.plus/img/animes/mawaru-penguindrum/",
      "secao": "legendados",
      "pagina": 120,
      "total_episodios": 24,
      "link_video": "https://animefire.plus/video/mawaru-penguindrum"
    },
    {
      "id": 2451,
      "nome": "Mayo Chiki!",
      "link": "https://animefire.plus/animes/mayo-chiki-todos-os-episodios",
      "texto_original": "Mayo Chiki!",
      "rating": 7.44,
      "classificacao_etaria": "A18",
      "imagem_original": "https://animefire.plus/img/animes/mayo-chiki.webp",
      "imagem_pasta": "https://animefire.plus/img/animes/mayo-chiki/",
      "secao": "legendados",
      "pagina": 114,
      "total_episodios": 13,
      "link_video": "https://animefire.plus/video/mayo-chiki"
    },
    {
      "id": 2452,
      "nome": "Mayoi Neko Overrun!",
      "link": "https://animefire.plus/animes/mayoi-neko-overrun-todos-os-episodios",
      "texto_original": "Mayoi Neko Overrun!",
      "rating": 6.8,
      "classificacao_etaria": "A14",
      "imagem_original": "https://animefire.plus/img/animes/mayoi-neko-overrun.webp",
      "imagem_pasta": "https://animefire.plus/img/animes/mayoi-neko-overrun/",
      "secao": "legendados",
      "pagina": 118,
      "total_episodios": 13,
      "link_video": "https://animefire.plus/video/mayoi-neko-overrun"
    },
    {
      "id": 2464,
      "nome": "Megalo Box",
      "link": "https://animefire.plus/animes/megalo-box-todos-os-episodios",
      "texto_original": "Megalo Box",
      "rating": 8.02,
      "classificacao_etaria": "A16",
      "imagem_original": "https://animefire.plus/img/animes/megalo-box.webp",
      "imagem_pasta": "https://animefire.plus/img/animes/megalo-box/",
      "secao": "legendados",
      "pagina": 95,
      "total_episodios": 13,
      "link_video": "https://animefire.plus/video/megalo-box"
    },
    {
      "id": 2472,
      "nome": "Megumi no Daigo: Kyuukoku no Orange",
      "link": "https://animefire.plus/animes/megumi-no-daigo-kyuukoku-no-orange-todos-os-episodios",
      "texto_original": "Megumi no Daigo: Kyuukoku no Orange",
      "rating": 6.71,
      "classificacao_etaria": "A14",
      "imagem_original": "https://animefire.plus/img/animes/megumi-no-daigo-kyuukoku-no-orange.webp",
      "imagem_pasta": "https://animefire.plus/img/animes/megumi-no-daigo-kyuukoku-no-orange/",
      "secao": "legendados",
      "pagina": 21,
      "total_episodios": 23,
      "link_video": "https://animefire.plus/video/megumi-no-daigo-kyuukoku-no-orange"
    },
    {
      "id": 2483,
      "nome": "Metallic Rouge (Dublado)",
      "link": "https://animefire.plus/animes/metallic-rouge-dublado-todos-os-episodios",
      "texto_original": "Metallic Rouge (Dublado)",
      "rating": 6.2,
      "classificacao_etaria": "A14",
      "imagem_original": "https://animefire.plus/img/animes/metallic-rouge.webp",
      "imagem_pasta": "https://animefire.plus/img/animes/metallic-rouge/",
      "secao": "dublados,legendados",
      "pagina": 4,
      "total_episodios": 13,
      "link_video": "https://animefire.plus/video/metallic-rouge-dublado"
    },
    {
      "id": 2485,
      "nome": "Mezzo DSA",
      "link": "https://animefire.plus/animes/mezzo-dsa-todos-os-episodios",
      "texto_original": "Mezzo DSA",
      "rating": 6.74,
      "classificacao_etaria": "A18",
      "imagem_original": "https://animefire.plus/img/animes/mezzo-dsa.webp",
      "imagem_pasta": "https://animefire.plus/img/animes/mezzo-dsa/",
      "secao": "legendados",
      "pagina": 166,
      "total_episodios": 13,
      "link_video": "https://animefire.plus/video/mezzo-dsa"
    },
    {
      "id": 2489,
      "nome": "Miami Guns",
      "link": "https://animefire.plus/animes/miami-guns-todos-os-episodios",
      "texto_original": "Miami Guns",
      "rating": 6.56,
      "classificacao_etaria": "A16",
      "imagem_original": "https://animefire.plus/img/animes/miami-guns.webp",
      "imagem_pasta": "https://animefire.plus/img/animes/miami-guns/",
      "secao": "legendados",
      "pagina": 147,
      "total_episodios": 13,
      "link_video": "https://animefire.plus/video/miami-guns"
    },
    {
      "id": 2490,
      "nome": "Michiko to Hatchin",
      "link": "https://animefire.plus/animes/michiko-to-hatchin-todos-os-episodios",
      "texto_original": "Michiko to Hatchin",
      "rating": 7.87,
      "classificacao_etaria": "A16",
      "imagem_original": "https://animefire.plus/img/animes/michiko-to-hatchin.webp",
      "imagem_pasta": "https://animefire.plus/img/animes/michiko-to-hatchin/",
      "secao": "legendados",
      "pagina": 177,
      "total_episodios": 22,
      "link_video": "https://animefire.plus/video/michiko-to-hatchin"
    },
    {
      "id": 2494,
      "nome": "Midori no Hibi",
      "link": "https://animefire.plus/animes/midori-no-hibi-todos-os-episodios",
      "texto_original": "Midori no Hibi",
      "rating": 7.36,
      "classificacao_etaria": "A18",
      "imagem_original": "https://animefire.plus/img/animes/midori-no-hibi.webp",
      "imagem_pasta": "https://animefire.plus/img/animes/midori-no-hibi/",
      "secao": "legendados",
      "pagina": 163,
      "total_episodios": 13,
      "link_video": "https://animefire.plus/video/midori-no-hibi"
    },
    {
      "id": 2496,
      "nome": "Migi to Dali",
      "link": "https://animefire.plus/animes/migi-to-dali-todos-os-episodios",
      "texto_original": "Migi to Dali",
      "rating": 7.7,
      "classificacao_etaria": "A14",
      "imagem_original": "https://animefire.plus/img/animes/migi-to-dali.webp",
      "imagem_pasta": "https://animefire.plus/img/animes/migi-to-dali/",
      "secao": "legendados",
      "pagina": 20,
      "total_episodios": 13,
      "link_video": "https://animefire.plus/video/migi-to-dali"
    },
    {
      "id": 2508,
      "nome": "Minami-ke",
      "link": "https://animefire.plus/animes/minami-ke-todos-os-episodios",
      "texto_original": "Minami-ke",
      "rating": 7.74,
      "classificacao_etaria": "A14",
      "imagem_original": "https://animefire.plus/img/animes/minami-ke.webp",
      "imagem_pasta": "https://animefire.plus/img/animes/minami-ke/",
      "secao": "legendados",
      "pagina": 176,
      "total_episodios": 13,
      "link_video": "https://animefire.plus/video/minami-ke"
    },
    {
      "id": 2510,
      "nome": "Minami-ke Okaeri",
      "link": "https://animefire.plus/animes/minami-ke-okaeri-todos-os-episodios",
      "texto_original": "Minami-ke Okaeri",
      "rating": 7.62,
      "classificacao_etaria": "A14",
      "imagem_original": "https://animefire.plus/img/animes/minami-ke-okaeri.webp",
      "imagem_pasta": "https://animefire.plus/img/animes/minami-ke-okaeri/",
      "secao": "legendados",
      "pagina": 126,
      "total_episodios": 13,
      "link_video": "https://animefire.plus/video/minami-ke-okaeri"
    },
    {
      "id": 2511,
      "nome": "Minami-ke Okawari",
      "link": "https://animefire.plus/animes/minami-ke-okawari-todos-os-episodios",
      "texto_original": "Minami-ke Okawari",
      "rating": 7.39,
      "classificacao_etaria": "A14",
      "imagem_original": "https://animefire.plus/img/animes/minami-ke-okawari.webp",
      "imagem_pasta": "https://animefire.plus/img/animes/minami-ke-okawari/",
      "secao": "legendados",
      "pagina": 114,
      "total_episodios": 13,
      "link_video": "https://animefire.plus/video/minami-ke-okawari"
    },
    {
      "id": 2514,
      "nome": "Mini Dragon",
      "link": "https://animefire.plus/animes/mini-dragon-todos-os-episodios",
      "texto_original": "Mini Dragon",
      "rating": 7.34,
      "classificacao_etaria": "A14",
      "imagem_original": "https://animefire.plus/img/animes/mini-dragon.webp",
      "imagem_pasta": "https://animefire.plus/img/animes/mini-dragon/",
      "secao": "legendados",
      "pagina": 46,
      "total_episodios": 13,
      "link_video": "https://animefire.plus/video/mini-dragon"
    },
    {
      "id": 2518,
      "nome": "Minna Atsumare! Falcom Gakuen",
      "link": "https://animefire.plus/animes/minna-atsumare-falcom-gakuen-todos-os-episodios",
      "texto_original": "Minna Atsumare! Falcom Gakuen",
      "rating": 5.89,
      "classificacao_etaria": "A14",
      "imagem_original": "https://animefire.plus/img/animes/minna-atsumare-falcom-gakuen.webp",
      "imagem_pasta": "https://animefire.plus/img/animes/minna-atsumare-falcom-gakuen/",
      "secao": "legendados",
      "pagina": 108,
      "total_episodios": 13,
      "link_video": "https://animefire.plus/video/minna-atsumare-falcom-gakuen"
    },
    {
      "id": 2530,
      "nome": "Mix - Meisei Story 2nd Season",
      "link": "https://animefire.plus/animes/mix-meisei-story-2nd-season-todos-os-episodios",
      "texto_original": "Mix - Meisei Story 2nd Season",
      "rating": 6.98,
      "classificacao_etaria": "A14",
      "imagem_original": "https://animefire.plus/img/animes/mix-meisei-story-2nd-season.jpg",
      "imagem_pasta": "https://animefire.plus/img/animes/mix-meisei-story-2nd-season/",
      "secao": "legendados,lancamentos",
      "pagina": 25,
      "total_episodios": 18,
      "link_video": "https://animefire.plus/video/mix-meisei-story-2nd-season"
    },
    {
      "id": 2536,
      "nome": "Mo Dao Zu Shi",
      "link": "https://animefire.plus/animes/mo-dao-zu-shi-todos-os-episodios",
      "texto_original": "Mo Dao Zu Shi",
      "rating": 8.56,
      "classificacao_etaria": "A16",
      "imagem_original": "https://animefire.plus/img/animes/mo-dao-zu-shi.webp",
      "imagem_pasta": "https://animefire.plus/img/animes/mo-dao-zu-shi/",
      "secao": "legendados",
      "pagina": 95,
      "total_episodios": 15,
      "link_video": "https://animefire.plus/video/mo-dao-zu-shi"
    },
    {
      "id": 2540,
      "nome": "Mob Psycho 100 II (Dublado)",
      "link": "https://animefire.plus/animes/mob-psycho-100-ii-dublado-todos-os-episodios",
      "texto_original": "Mob Psycho 100 II (Dublado)",
      "rating": 8.88,
      "classificacao_etaria": "A14",
      "imagem_original": "https://animefire.plus/img/animes/mob-psycho-100-ii.webp",
      "imagem_pasta": "https://animefire.plus/img/animes/mob-psycho-100-ii/",
      "secao": "dublados,legendados",
      "pagina": 23,
      "total_episodios": 13,
      "link_video": "https://animefire.plus/video/mob-psycho-100-ii-dublado"
    },
    {
      "id": 2545,
      "nome": "Mobile Suit Gundam 0083: Stardust Memory",
      "link": "https://animefire.plus/animes/mobile-suit-gundam-0083-stardust-memory-todos-os-episodios",
      "texto_original": "Mobile Suit Gundam 0083: Stardust Memory",
      "rating": 7.29,
      "classificacao_etaria": "A14",
      "imagem_original": "https://animefire.plus/img/animes/mobile-suit-gundam-0083-stardust-memory.webp",
      "imagem_pasta": "https://animefire.plus/img/animes/mobile-suit-gundam-0083-stardust-memory/",
      "secao": "legendados",
      "pagina": 42,
      "total_episodios": 13,
      "link_video": "https://animefire.plus/video/mobile-suit-gundam-0083-stardust-memory"
    }
  ],
  "pagination": {
    "current_page": 23,
    "per_page": 20,
    "total_items": 826,
    "total_pages": 42,
    "has_next": true,
    "has_prev": true
  }
}
