{
  "message": "Animes com 13 a 24 episódios",
  "episode_range": {
    "min": 13,
    "max": 24
  },
  "data": [
    {
      "id": 3969,
      "nome": "Tsurune: Tsunagari no Issha",
      "link": "https://animefire.plus/animes/tsurune-tsunagari-no-issha-todos-os-episodios",
      "texto_original": "Tsurune: Tsunagari no Issha",
      "rating": 8.1,
      "classificacao_etaria": "A14",
      "imagem_original": "https://animefire.plus/img/animes/tsurune-tsunagari-no-issha.webp",
      "imagem_pasta": "https://animefire.plus/img/animes/tsurune-tsunagari-no-issha/",
      "secao": "legendados",
      "pagina": 26,
      "total_episodios": 13,
      "link_video": "https://animefire.plus/video/tsurune-tsunagari-no-issha"
    },
    {
      "id": 3974,
      "nome": "Tu Bian Yingxiong X (Dublado)",
      "link": "https://animefire.plus/animes/tu-bian-yingxiong-x-dublado-todos-os-episodios",
      "texto_original": "Tu Bian Yingxiong X (Dublado)",
      "rating": 8.44,
      "classificacao_etaria": "A14",
      "imagem_original": "https://animefire.plus/img/animes/tu-bian-yingxiong-x.webp",
      "imagem_pasta": "https://animefire.plus/img/animes/tu-bian-yingxiong-x/",
      "secao": "dublados,legendados,lancamentos",
      "pagina": 1,
      "total_episodios": 18,
      "link_video": "https://animefire.plus/video/tu-bian-yingxiong-x-dublado"
    },
    {
      "id": 3977,
      "nome": "TV Yarou Nanaana: Wakuwaku Doukutsu Land",
      "link": "https://animefire.plus/animes/tv-yarou-nanaana-wakuwaku-doukutsu-land-todos-os-episodios",
      "texto_original": "TV Yarou Nanaana: Wakuwaku Doukutsu Land",
      "rating": 6.06,
      "classificacao_etaria": "A14",
      "imagem_original": "https://animefire.plus/img/animes/tv-yarou-nanaana-wakuwaku-doukutsu-land.webp",
      "imagem_pasta": "https://animefire.plus/img/animes/tv-yarou-nanaana-wakuwaku-doukutsu-land/",
      "secao": "legendados",
      "pagina": 61,
      "total_episodios": 21,
      "link_video": "https://animefire.plus/video/tv-yarou-nanaana-wakuwaku-doukutsu-land"
    },
    {
      "id": 3988,
      "nome": "Uchi no Shishou wa Shippo ga Nai",
      "link": "https://animefire.plus/animes/uchi-no-shishou-wa-shippo-ga-nai-todos-os-episodios",
      "texto_original": "Uchi no Shishou wa Shippo ga Nai",
      "rating": 6.73,
      "classificacao_etaria": "A14",
      "imagem_original": "https://animefire.plus/img/animes/uchi-no-shishou-wa-shippo-ga-nai.webp",
      "imagem_pasta": "https://animefire.plus/img/animes/uchi-no-shishou-wa-shippo-ga-nai/",
      "secao": "legendados",
      "pagina": 28,
      "total_episodios": 13,
      "link_video": "https://animefire.plus/video/uchi-no-shishou-wa-shippo-ga-nai"
    },
    {
      "id": 3997,
      "nome": "Uchuu Patrol Luluco",
      "link": "https://animefire.plus/animes/uchuu-patrol-luluco-todos-os-episodios",
      "texto_original": "Uchuu Patrol Luluco",
      "rating": 7.66,
      "classificacao_etaria": "A14",
      "imagem_original": "https://animefire.plus/img/animes/uchuu-patrol-luluco.webp",
      "imagem_pasta": "https://animefire.plus/img/animes/uchuu-patrol-luluco/",
      "secao": "legendados",
      "pagina": 140,
      "total_episodios": 13,
      "link_video": "https://animefire.plus/video/uchuu-patrol-luluco"
    },
    {
      "id": 4010,
      "nome": "Ultraman (Dublado)",
      "link": "https://animefire.plus/animes/ultraman-dublado-todos-os-episodios",
      "texto_original": "Ultraman (Dublado)",
      "rating": 6.78,
      "classificacao_etaria": "A16",
      "imagem_original": "https://animefire.plus/img/animes/ultraman.webp",
      "imagem_pasta": "https://animefire.plus/img/animes/ultraman/",
      "secao": "dublados",
      "pagina": 23,
      "total_episodios": 13,
      "link_video": "https://animefire.plus/video/ultraman-dublado"
    },
    {
      "id": 4013,
      "nome": "Uma Musume: Cinderella Gray",
      "link": "https://animefire.plus/animes/uma-musume-cinderella-gray-todos-os-episodios",
      "texto_original": "Uma Musume: Cinderella Gray",
      "rating": 8.52,
      "classificacao_etaria": "A14",
      "imagem_original": "https://animefire.plus/img/animes/uma-musume-cinderella-gray.webp",
      "imagem_pasta": "https://animefire.plus/img/animes/uma-musume-cinderella-gray/",
      "secao": "legendados",
      "pagina": 5,
      "total_episodios": 13,
      "link_video": "https://animefire.plus/video/uma-musume-cinderella-gray"
    },
    {
      "id": 4016,
      "nome": "Uma Musume: Pretty Derby (TV)",
      "link": "https://animefire.plus/animes/uma-musume-pretty-derby-tv-todos-os-episodios",
      "texto_original": "Uma Musume: Pretty Derby (TV)",
      "rating": 7.37,
      "classificacao_etaria": "A14",
      "imagem_original": "https://animefire.plus/img/animes/uma-musume-pretty-derby-tv.webp",
      "imagem_pasta": "https://animefire.plus/img/animes/uma-musume-pretty-derby-tv/",
      "secao": "legendados",
      "pagina": 87,
      "total_episodios": 13,
      "link_video": "https://animefire.plus/video/uma-musume-pretty-derby-tv"
    },
    {
      "id": 4017,
      "nome": "Uma Musume: Pretty Derby Season 2",
      "link": "https://animefire.plus/animes/uma-musume-pretty-derby-season-2-todos-os-episodios",
      "texto_original": "Uma Musume: Pretty Derby Season 2",
      "rating": 8.06,
      "classificacao_etaria": "A14",
      "imagem_original": "https://animefire.plus/img/animes/uma-musume-pretty-derby-season-2.webp",
      "imagem_pasta": "https://animefire.plus/img/animes/uma-musume-pretty-derby-season-2/",
      "secao": "legendados",
      "pagina": 49,
      "total_episodios": 13,
      "link_video": "https://animefire.plus/video/uma-musume-pretty-derby-season-2"
    },
    {
      "id": 4022,
      "nome": "Undead Girl Murder Farce",
      "link": "https://animefire.plus/animes/undead-girl-murder-farce-todos-os-episodios",
      "texto_original": "Undead Girl Murder Farce",
      "rating": 7.85,
      "classificacao_etaria": "A16",
      "imagem_original": "https://animefire.plus/img/animes/undead-girl-murder-farce.jpg",
      "imagem_pasta": "https://animefire.plus/img/animes/undead-girl-murder-farce/",
      "secao": "legendados",
      "pagina": 22,
      "total_episodios": 13,
      "link_video": "https://animefire.plus/video/undead-girl-murder-farce"
    },
    {
      "id": 4023,
      "nome": "Undead Unluck (Dublado)",
      "link": "https://animefire.plus/animes/undead-unluck-dublado-todos-os-episodios",
      "texto_original": "Undead Unluck (Dublado)",
      "rating": 7.79,
      "classificacao_etaria": "A16",
      "imagem_original": "https://animefire.plus/img/animes/undead-unluck.webp",
      "imagem_pasta": "https://animefire.plus/img/animes/undead-unluck/",
      "secao": "dublados,legendados",
      "pagina": 4,
      "total_episodios": 24,
      "link_video": "https://animefire.plus/video/undead-unluck-dublado"
    },
    {
      "id": 4026,
      "nome": "UniteUp! Uni:Birth",
      "link": "https://animefire.plus/animes/uniteup-uni-birth-todos-os-episodios",
      "texto_original": "UniteUp! Uni:Birth",
      "rating": 6.75,
      "classificacao_etaria": "A14",
      "imagem_original": "https://animefire.plus/img/animes/uniteup-uni-birth.webp",
      "imagem_pasta": "https://animefire.plus/img/animes/uniteup-uni-birth/",
      "secao": "legendados,lancamentos",
      "pagina": 7,
      "total_episodios": 13,
      "link_video": "https://animefire.plus/video/uniteup-uni-birth"
    },
    {
      "id": 4031,
      "nome": "Uragiri wa Boku no Namae wo Shitteiru",
      "link": "https://animefire.plus/animes/uragiri-wa-boku-no-namae-wo-shitteiru-todos-os-episodios",
      "texto_original": "Uragiri wa Boku no Namae wo Shitteiru",
      "rating": 7.37,
      "classificacao_etaria": "A16",
      "imagem_original": "https://animefire.plus/img/animes/uragiri-wa-boku-no-namae-wo-shitteiru.webp",
      "imagem_pasta": "https://animefire.plus/img/animes/uragiri-wa-boku-no-namae-wo-shitteiru/",
      "secao": "legendados",
      "pagina": 164,
      "total_episodios": 24,
      "link_video": "https://animefire.plus/video/uragiri-wa-boku-no-namae-wo-shitteiru"
    },
    {
      "id": 4033,
      "nome": "Uramichi Oniisan (Dublado)",
      "link": "https://animefire.plus/animes/uramichi-oniisan-dublado-todos-os-episodios",
      "texto_original": "Uramichi Oniisan (Dublado)",
      "rating": 7.7,
      "classificacao_etaria": "A14",
      "imagem_original": "https://animefire.plus/img/animes/uramichi-oniisan.webp",
      "imagem_pasta": "https://animefire.plus/img/animes/uramichi-oniisan/",
      "secao": "dublados,legendados",
      "pagina": 12,
      "total_episodios": 13,
      "link_video": "https://animefire.plus/video/uramichi-oniisan-dublado"
    },
    {
      "id": 4039,
      "nome": "Urusei Yatsura (2022)",
      "link": "https://animefire.plus/animes/urusei-yatsura-2022-todos-os-episodios",
      "texto_original": "Urusei Yatsura (2022)",
      "rating": 7.4,
      "classificacao_etaria": "A14",
      "imagem_original": "https://animefire.plus/img/animes/urusei-yatsura-2022.webp",
      "imagem_pasta": "https://animefire.plus/img/animes/urusei-yatsura-2022/",
      "secao": "legendados",
      "pagina": 29,
      "total_episodios": 23,
      "link_video": "https://animefire.plus/video/urusei-yatsura-2022"
    },
    {
      "id": 4040,
      "nome": "Urusei Yatsura (2022) 2nd Season",
      "link": "https://animefire.plus/animes/urusei-yatsura-2022-2nd-season-todos-os-episodios",
      "texto_original": "Urusei Yatsura (2022) 2nd Season",
      "rating": 7.84,
      "classificacao_etaria": "A14",
      "imagem_original": "https://animefire.plus/img/animes/urusei-yatsura-2022-2nd-season.webp",
      "imagem_pasta": "https://animefire.plus/img/animes/urusei-yatsura-2022-2nd-season/",
      "secao": "legendados",
      "pagina": 17,
      "total_episodios": 23,
      "link_video": "https://animefire.plus/video/urusei-yatsura-2022-2nd-season"
    },
    {
      "id": 4046,
      "nome": "Ushio to Tora (TV) 2nd Season",
      "link": "https://animefire.plus/animes/ushio-to-tora-tv-2nd-season-todos-os-episodios",
      "texto_original": "Ushio to Tora (TV) 2nd Season",
      "rating": 8.03,
      "classificacao_etaria": "A14",
      "imagem_original": "https://animefire.plus/img/animes/ushio-to-tora-tv-2nd-season.webp",
      "imagem_pasta": "https://animefire.plus/img/animes/ushio-to-tora-tv-2nd-season/",
      "secao": "legendados",
      "pagina": 104,
      "total_episodios": 13,
      "link_video": "https://animefire.plus/video/ushio-to-tora-tv-2nd-season"
    },
    {
      "id": 4047,
      "nome": "Uta Kata",
      "link": "https://animefire.plus/animes/uta-kata-todos-os-episodios",
      "texto_original": "Uta Kata",
      "rating": 6.8,
      "classificacao_etaria": "A14",
      "imagem_original": "https://animefire.plus/img/animes/uta-kata.webp",
      "imagem_pasta": "https://animefire.plus/img/animes/uta-kata/",
      "secao": "legendados",
      "pagina": 120,
      "total_episodios": 13,
      "link_video": "https://animefire.plus/video/uta-kata"
    },
    {
      "id": 4048,
      "nome": "Uta no☆Prince-sama♪ Maji Love 1000%",
      "link": "https://animefire.plus/animes/uta-no-prince-sama-maji-love-1000-todos-os-episodios",
      "texto_original": "Uta no☆Prince-sama♪ Maji Love 1000%",
      "rating": 7.26,
      "classificacao_etaria": "A14",
      "imagem_original": "https://animefire.plus/img/animes/uta-no-prince-sama-maji-love-1000.webp",
      "imagem_pasta": "https://animefire.plus/img/animes/uta-no-prince-sama-maji-love-1000/",
      "secao": "legendados",
      "pagina": 131,
      "total_episodios": 13,
      "link_video": "https://animefire.plus/video/uta-no-prince-sama-maji-love-1000"
    },
    {
      "id": 4056,
      "nome": "Uzaki-chan wa Asobitai! Double (Dublado)",
      "link": "https://animefire.plus/animes/uzaki-chan-wa-asobitai-double-dublado-todos-os-episodios",
      "texto_original": "Uzaki-chan wa Asobitai! Double (Dublado)",
      "rating": 7.24,
      "classificacao_etaria": "A14",
      "imagem_original": "https://animefire.plus/img/animes/uzaki-chan-wa-asobitai-double.webp",
      "imagem_pasta": "https://animefire.plus/img/animes/uzaki-chan-wa-asobitai-double/",
      "secao": "dublados,legendados",
      "pagina": 9,
      "total_episodios": 13,
      "link_video": "https://animefire.plus/video/uzaki-chan-wa-asobitai-double-dublado"
    }
  ],
  "pagination": {
    "current_page": 37,
    "per_page": 20,
    "total_items": 826,
    "total_pages": 42,
    "has_next": true,
    "has_prev": true
  }
}
