{
  "message": "Animes com 13 a 24 episódios",
  "episode_range": {
    "min": 13,
    "max": 24
  },
  "data": [
    {
      "id": 3516,
      "nome": "Shuffle!",
      "link": "https://animefire.plus/animes/shuffle-todos-os-episodios",
      "texto_original": "Shuffle!",
      "rating": 7.19,
      "classificacao_etaria": "A18",
      "imagem_original": "https://animefire.plus/img/animes/shuffle.webp",
      "imagem_pasta": "https://animefire.plus/img/animes/shuffle/",
      "secao": "legendados",
      "pagina": 115,
      "total_episodios": 24,
      "link_video": "https://animefire.plus/video/shuffle"
    },
    {
      "id": 3525,
      "nome": "Shuumatsu no Walküre II (Dublado)",
      "link": "https://animefire.plus/animes/shuumatsu-no-walk-re-ii-dublado-todos-os-episodios",
      "texto_original": "Shuumatsu no Walküre II (Dublado)",
      "rating": 7.49,
      "classificacao_etaria": "A16",
      "imagem_original": "https://animefire.plus/img/animes/shuumatsu-no-walk-re-ii.webp",
      "imagem_pasta": "https://animefire.plus/img/animes/shuumatsu-no-walk-re-ii/",
      "secao": "dublados,legendados",
      "pagina": 8,
      "total_episodios": 15,
      "link_video": "https://animefire.plus/video/shuumatsu-no-walk-re-ii-dublado"
    },
    {
      "id": 3539,
      "nome": "Sister Princess: Re Pure",
      "link": "https://animefire.plus/animes/sister-princess-re-pure-todos-os-episodios",
      "texto_original": "Sister Princess: Re Pure",
      "rating": 6.31,
      "classificacao_etaria": "A14",
      "imagem_original": "https://animefire.plus/img/animes/sister-princess-re-pure.webp",
      "imagem_pasta": "https://animefire.plus/img/animes/sister-princess-re-pure/",
      "secao": "legendados",
      "pagina": 150,
      "total_episodios": 13,
      "link_video": "https://animefire.plus/video/sister-princess-re-pure"
    },
    {
      "id": 3545,
      "nome": "Skull Man",
      "link": "https://animefire.plus/animes/skull-man-todos-os-episodios",
      "texto_original": "Skull Man",
      "rating": 6.71,
      "classificacao_etaria": "A14",
      "imagem_original": "https://animefire.plus/img/animes/skull-man.webp",
      "imagem_pasta": "https://animefire.plus/img/animes/skull-man/",
      "secao": "legendados",
      "pagina": 138,
      "total_episodios": 13,
      "link_video": "https://animefire.plus/video/skull-man"
    },
    {
      "id": 3560,
      "nome": "Snack Basue",
      "link": "https://animefire.plus/animes/snack-basue-todos-os-episodios",
      "texto_original": "Snack Basue",
      "rating": 6.5,
      "classificacao_etaria": "A14",
      "imagem_original": "https://animefire.plus/img/animes/snack-basue.webp",
      "imagem_pasta": "https://animefire.plus/img/animes/snack-basue/",
      "secao": "legendados",
      "pagina": 16,
      "total_episodios": 13,
      "link_video": "https://animefire.plus/video/snack-basue"
    },
    {
      "id": 3565,
      "nome": "Sola",
      "link": "https://animefire.plus/animes/sola-todos-os-episodios",
      "texto_original": "Sola",
      "rating": 7.28,
      "classificacao_etaria": "A14",
      "imagem_original": "https://animefire.plus/img/animes/sola.webp",
      "imagem_pasta": "https://animefire.plus/img/animes/sola/",
      "secao": "legendados",
      "pagina": 174,
      "total_episodios": 13,
      "link_video": "https://animefire.plus/video/sola"
    },
    {
      "id": 3566,
      "nome": "Solty Rei",
      "link": "https://animefire.plus/animes/solty-rei-todos-os-episodios",
      "texto_original": "Solty Rei",
      "rating": 7.32,
      "classificacao_etaria": "A16",
      "imagem_original": "https://animefire.plus/img/animes/solty-rei.webp",
      "imagem_pasta": "https://animefire.plus/img/animes/solty-rei/",
      "secao": "legendados",
      "pagina": 158,
      "total_episodios": 24,
      "link_video": "https://animefire.plus/video/solty-rei"
    },
    {
      "id": 3574,
      "nome": "Sora no Method",
      "link": "https://animefire.plus/animes/sora-no-method-todos-os-episodios",
      "texto_original": "Sora no Method",
      "rating": 6.81,
      "classificacao_etaria": "A14",
      "imagem_original": "https://animefire.plus/img/animes/sora-no-method.webp",
      "imagem_pasta": "https://animefire.plus/img/animes/sora-no-method/",
      "secao": "legendados",
      "pagina": 127,
      "total_episodios": 13,
      "link_video": "https://animefire.plus/video/sora-no-method"
    },
    {
      "id": 3575,
      "nome": "Sora no Otoshimono",
      "link": "https://animefire.plus/animes/sora-no-otoshimono-todos-os-episodios",
      "texto_original": "Sora no Otoshimono",
      "rating": 7.52,
      "classificacao_etaria": "A14",
      "imagem_original": "https://animefire.plus/img/animes/sora-no-otoshimono.webp",
      "imagem_pasta": "https://animefire.plus/img/animes/sora-no-otoshimono/",
      "secao": "legendados",
      "pagina": 130,
      "total_episodios": 13,
      "link_video": "https://animefire.plus/video/sora-no-otoshimono"
    },
    {
      "id": 3582,
      "nome": "Sore Ga Seiyuu!",
      "link": "https://animefire.plus/animes/sore-ga-seiyuu-todos-os-episodios",
      "texto_original": "Sore Ga Seiyuu!",
      "rating": 7.09,
      "classificacao_etaria": "A14",
      "imagem_original": "https://animefire.plus/img/animes/sore-ga-seiyuu.webp",
      "imagem_pasta": "https://animefire.plus/img/animes/sore-ga-seiyuu/",
      "secao": "legendados",
      "pagina": 96,
      "total_episodios": 13,
      "link_video": "https://animefire.plus/video/sore-ga-seiyuu"
    },
    {
      "id": 3588,
      "nome": "Soukou no Strain",
      "link": "https://animefire.plus/animes/soukou-no-strain-todos-os-episodios",
      "texto_original": "Soukou no Strain",
      "rating": 7.1,
      "classificacao_etaria": "A18",
      "imagem_original": "https://animefire.plus/img/animes/soukou-no-strain.webp",
      "imagem_pasta": "https://animefire.plus/img/animes/soukou-no-strain/",
      "secao": "legendados",
      "pagina": 123,
      "total_episodios": 13,
      "link_video": "https://animefire.plus/video/soukou-no-strain"
    },
    {
      "id": 3594,
      "nome": "Soul Link",
      "link": "https://animefire.plus/animes/soul-link-todos-os-episodios",
      "texto_original": "Soul Link",
      "rating": 6.19,
      "classificacao_etaria": "A16",
      "imagem_original": "https://animefire.plus/img/animes/soul-link.webp",
      "imagem_pasta": "https://animefire.plus/img/animes/soul-link/",
      "secao": "legendados",
      "pagina": 145,
      "total_episodios": 13,
      "link_video": "https://animefire.plus/video/soul-link"
    },
    {
      "id": 3606,
      "nome": "Space☆Dandy",
      "link": "https://animefire.plus/animes/space-dandy-todos-os-episodios",
      "texto_original": "Space☆Dandy",
      "rating": 7.89,
      "classificacao_etaria": "A14",
      "imagem_original": "https://animefire.plus/img/animes/space-dandy.webp",
      "imagem_pasta": "https://animefire.plus/img/animes/space-dandy/",
      "secao": "legendados",
      "pagina": 135,
      "total_episodios": 13,
      "link_video": "https://animefire.plus/video/space-dandy"
    },
    {
      "id": 3608,
      "nome": "Special A",
      "link": "https://animefire.plus/animes/special-a-todos-os-episodios",
      "texto_original": "Special A",
      "rating": 7.68,
      "classificacao_etaria": "A14",
      "imagem_original": "https://animefire.plus/img/animes/special-a.webp",
      "imagem_pasta": "https://animefire.plus/img/animes/special-a/",
      "secao": "legendados",
      "pagina": 148,
      "total_episodios": 24,
      "link_video": "https://animefire.plus/video/special-a"
    },
    {
      "id": 3610,
      "nome": "Speed Grapher",
      "link": "https://animefire.plus/animes/speed-grapher-todos-os-episodios",
      "texto_original": "Speed Grapher",
      "rating": 7.41,
      "classificacao_etaria": "A18",
      "imagem_original": "https://animefire.plus/img/animes/speed-grapher.webp",
      "imagem_pasta": "https://animefire.plus/img/animes/speed-grapher/",
      "secao": "legendados",
      "pagina": 165,
      "total_episodios": 24,
      "link_video": "https://animefire.plus/video/speed-grapher"
    },
    {
      "id": 3616,
      "nome": "Spy x Family Part 2 (Dublado)",
      "link": "https://animefire.plus/animes/spy-x-family-part-2-dublado-todos-os-episodios",
      "texto_original": "Spy x Family Part 2 (Dublado)",
      "rating": 8.25,
      "classificacao_etaria": "A14",
      "imagem_original": "https://animefire.plus/img/animes/spy-x-family-part-2.webp",
      "imagem_pasta": "https://animefire.plus/img/animes/spy-x-family-part-2/",
      "secao": "dublados,legendados",
      "pagina": 9,
      "total_episodios": 13,
      "link_video": "https://animefire.plus/video/spy-x-family-part-2-dublado"
    },
    {
      "id": 3630,
      "nome": "Starship Operators",
      "link": "https://animefire.plus/animes/starship-operators-todos-os-episodios",
      "texto_original": "Starship Operators",
      "rating": 7.02,
      "classificacao_etaria": "A14",
      "imagem_original": "https://animefire.plus/img/animes/starship-operators.webp",
      "imagem_pasta": "https://animefire.plus/img/animes/starship-operators/",
      "secao": "legendados",
      "pagina": 75,
      "total_episodios": 13,
      "link_video": "https://animefire.plus/video/starship-operators"
    },
    {
      "id": 3632,
      "nome": "Steins;Gate 0 (Dublado)",
      "link": "https://animefire.plus/animes/steins-gate-0-dublado-todos-os-episodios",
      "texto_original": "Steins;Gate 0 (Dublado)",
      "rating": 8.52,
      "classificacao_etaria": "A14",
      "imagem_original": "https://animefire.plus/img/animes/steins-gate-0.webp",
      "imagem_pasta": "https://animefire.plus/img/animes/steins-gate-0/",
      "secao": "dublados,legendados",
      "pagina": 18,
      "total_episodios": 23,
      "link_video": "https://animefire.plus/video/steins-gate-0-dublado"
    },
    {
      "id": 3636,
      "nome": "Stella Jogakuin Koutou-ka C³-bu",
      "link": "https://animefire.plus/animes/stella-jogakuin-koutou-ka-c--bu-todos-os-episodios",
      "texto_original": "Stella Jogakuin Koutou-ka C³-bu",
      "rating": 6.57,
      "classificacao_etaria": "A14",
      "imagem_original": "https://animefire.plus/img/animes/stella-jogakuin-koutou-ka-c--bu.webp",
      "imagem_pasta": "https://animefire.plus/img/animes/stella-jogakuin-koutou-ka-c--bu/",
      "secao": "legendados",
      "pagina": 156,
      "total_episodios": 13,
      "link_video": "https://animefire.plus/video/stella-jogakuin-koutou-ka-c--bu"
    },
    {
      "id": 3640,
      "nome": "Stratos 4 (Dublado)",
      "link": "https://animefire.plus/animes/stratos-4-dublado-todos-os-episodios",
      "texto_original": "Stratos 4 (Dublado)",
      "rating": 6.68,
      "classificacao_etaria": "A14",
      "imagem_original": "https://animefire.plus/img/animes/stratos-4.webp",
      "imagem_pasta": "https://animefire.plus/img/animes/stratos-4/",
      "secao": "dublados,legendados",
      "pagina": 23,
      "total_episodios": 13,
      "link_video": "https://animefire.plus/video/stratos-4-dublado"
    }
  ],
  "pagination": {
    "current_page": 33,
    "per_page": 20,
    "total_items": 826,
    "total_pages": 42,
    "has_next": true,
    "has_prev": true
  }
}
