{
  "message": "Animes com 13 a 24 episódios",
  "episode_range": {
    "min": 13,
    "max": 24
  },
  "data": [
    {
      "id": 975,
      "nome": "Fanren Xiu Xian Chuan Zhi Fanren Feng Qi Tian Nan",
      "link": "https://animefire.plus/animes/fanren-xiu-xian-chuan-zhi-fanren-feng-qi-tian-nan-todos-os-episodios",
      "texto_original": "Fanren Xiu Xian Chuan Zhi Fanren Feng Qi Tian Nan",
      "rating": null,
      "classificacao_etaria": "A14",
      "imagem_original": "https://animefire.plus/img/animes/fanren-xiu-xian-chuan-zhi-fanren-feng-qi-tian-nan.webp",
      "imagem_pasta": "https://animefire.plus/img/animes/fanren-xiu-xian-chuan-zhi-fanren-feng-qi-tian-nan/",
      "secao": "legendados",
      "pagina": 57,
      "total_episodios": 17,
      "link_video": "https://animefire.plus/video/fanren-xiu-xian-chuan-zhi-fanren-feng-qi-tian-nan"
    },
    {
      "id": 997,
      "nome": "Fate/Stay Night (Dublado)",
      "link": "https://animefire.plus/animes/fate-stay-night-dublado-todos-os-episodios",
      "texto_original": "Fate/Stay Night (Dublado)",
      "rating": 7.46,
      "classificacao_etaria": "A16",
      "imagem_original": "https://animefire.plus/img/animes/fate-stay-night.webp",
      "imagem_pasta": "https://animefire.plus/img/animes/fate-stay-night/",
      "secao": "dublados,legendados",
      "pagina": 26,
      "total_episodios": 24,
      "link_video": "https://animefire.plus/video/fate-stay-night-dublado"
    },
    {
      "id": 999,
      "nome": "Fate/stay night: Unlimited Blade Works 2nd Season",
      "link": "https://animefire.plus/animes/fate-stay-night-unlimited-blade-works-2nd-season-todos-os-episodios",
      "texto_original": "Fate/stay night: Unlimited Blade Works 2nd Season",
      "rating": 8.35,
      "classificacao_etaria": "A16",
      "imagem_original": "https://animefire.plus/img/animes/fate-stay-night-unlimited-blade-works-2nd-season.webp",
      "imagem_pasta": "https://animefire.plus/img/animes/fate-stay-night-unlimited-blade-works-2nd-season/",
      "secao": "legendados",
      "pagina": 73,
      "total_episodios": 14,
      "link_video": "https://animefire.plus/video/fate-stay-night-unlimited-blade-works-2nd-season"
    },
    {
      "id": 1002,
      "nome": "Fate/Zero",
      "link": "https://animefire.plus/animes/fate-zero-todos-os-episodios",
      "texto_original": "Fate/Zero",
      "rating": 8.4,
      "classificacao_etaria": "A16",
      "imagem_original": "https://animefire.plus/img/animes/fate-zero.webp",
      "imagem_pasta": "https://animefire.plus/img/animes/fate-zero/",
      "secao": "legendados",
      "pagina": 89,
      "total_episodios": 13,
      "link_video": "https://animefire.plus/video/fate-zero"
    },
    {
      "id": 1008,
      "nome": "Figure 17: Tsubasa & Hikaru",
      "link": "https://animefire.plus/animes/figure-17-tsubasa-hikaru-todos-os-episodios",
      "texto_original": "Figure 17: Tsubasa & Hikaru",
      "rating": 7.25,
      "classificacao_etaria": "A14",
      "imagem_original": "https://animefire.plus/img/animes/figure-17-tsubasa-hikaru.webp",
      "imagem_pasta": "https://animefire.plus/img/animes/figure-17-tsubasa-hikaru/",
      "secao": "legendados",
      "pagina": 69,
      "total_episodios": 13,
      "link_video": "https://animefire.plus/video/figure-17-tsubasa-hikaru"
    },
    {
      "id": 1012,
      "nome": "Flag",
      "link": "https://animefire.plus/animes/flag-todos-os-episodios",
      "texto_original": "Flag",
      "rating": 7.27,
      "classificacao_etaria": "A14",
      "imagem_original": "https://animefire.plus/img/animes/flag.webp",
      "imagem_pasta": "https://animefire.plus/img/animes/flag/",
      "secao": "legendados",
      "pagina": 97,
      "total_episodios": 13,
      "link_video": "https://animefire.plus/video/flag"
    },
    {
      "id": 1015,
      "nome": "Flip Flappers",
      "link": "https://animefire.plus/animes/flip-flappers-todos-os-episodios",
      "texto_original": "Flip Flappers",
      "rating": 7.74,
      "classificacao_etaria": "A14",
      "imagem_original": "https://animefire.plus/img/animes/flip-flappers.webp",
      "imagem_pasta": "https://animefire.plus/img/animes/flip-flappers/",
      "secao": "legendados",
      "pagina": 168,
      "total_episodios": 13,
      "link_video": "https://animefire.plus/video/flip-flappers"
    },
    {
      "id": 1025,
      "nome": "Free!: Eternal Summer",
      "link": "https://animefire.plus/animes/free-eternal-summer-todos-os-episodios",
      "texto_original": "Free!: Eternal Summer",
      "rating": 7.74,
      "classificacao_etaria": "A14",
      "imagem_original": "https://animefire.plus/img/animes/free-eternal-summer.webp",
      "imagem_pasta": "https://animefire.plus/img/animes/free-eternal-summer/",
      "secao": "legendados",
      "pagina": 74,
      "total_episodios": 13,
      "link_video": "https://animefire.plus/video/free-eternal-summer"
    },
    {
      "id": 1031,
      "nome": "Fruits Basket (2019)",
      "link": "https://animefire.plus/animes/fruits-basket-2019-todos-os-episodios",
      "texto_original": "Fruits Basket (2019)",
      "rating": 8.2,
      "classificacao_etaria": "A14",
      "imagem_original": "https://animefire.plus/img/animes/fruits-basket-2019.webp",
      "imagem_pasta": "https://animefire.plus/img/animes/fruits-basket-2019/",
      "secao": "legendados",
      "pagina": 134,
      "total_episodios": 23,
      "link_video": "https://animefire.plus/video/fruits-basket-2019"
    },
    {
      "id": 1034,
      "nome": "Fruits Basket: The Final (Dublado)",
      "link": "https://animefire.plus/animes/fruits-basket-the-final-dublado-todos-os-episodios",
      "texto_original": "Fruits Basket: The Final (Dublado)",
      "rating": 8.95,
      "classificacao_etaria": "A14",
      "imagem_original": "https://animefire.plus/img/animes/fruits-basket-the-final.webp",
      "imagem_pasta": "https://animefire.plus/img/animes/fruits-basket-the-final/",
      "secao": "dublados,legendados",
      "pagina": 17,
      "total_episodios": 13,
      "link_video": "https://animefire.plus/video/fruits-basket-the-final-dublado"
    },
    {
      "id": 1039,
      "nome": "Fukigen na Mononokean Tsuzuki",
      "link": "https://animefire.plus/animes/fukigen-na-mononokean-tsuzuki-todos-os-episodios",
      "texto_original": "Fukigen na Mononokean Tsuzuki",
      "rating": 7.57,
      "classificacao_etaria": "A14",
      "imagem_original": "https://animefire.plus/img/animes/fukigen-na-mononokean-tsuzuki.webp",
      "imagem_pasta": "https://animefire.plus/img/animes/fukigen-na-mononokean-tsuzuki/",
      "secao": "legendados",
      "pagina": 101,
      "total_episodios": 13,
      "link_video": "https://animefire.plus/video/fukigen-na-mononokean-tsuzuki"
    },
    {
      "id": 1041,
      "nome": "Full Metal Panic!",
      "link": "https://animefire.plus/animes/full-metal-panic-todos-os-episodios",
      "texto_original": "Full Metal Panic!",
      "rating": 7.73,
      "classificacao_etaria": "A16",
      "imagem_original": "https://animefire.plus/img/animes/full-metal-panic.webp",
      "imagem_pasta": "https://animefire.plus/img/animes/full-metal-panic/",
      "secao": "legendados",
      "pagina": 167,
      "total_episodios": 24,
      "link_video": "https://animefire.plus/video/full-metal-panic"
    },
    {
      "id": 1048,
      "nome": "Fumetsu no Anata e (Dublado)",
      "link": "https://animefire.plus/animes/fumetsu-no-anata-e-dublado-todos-os-episodios",
      "texto_original": "Fumetsu no Anata e (Dublado)",
      "rating": 8.34,
      "classificacao_etaria": "A16",
      "imagem_original": "https://animefire.plus/img/animes/fumetsu-no-anata-e.webp",
      "imagem_pasta": "https://animefire.plus/img/animes/fumetsu-no-anata-e/",
      "secao": "dublados,legendados",
      "pagina": 17,
      "total_episodios": 20,
      "link_video": "https://animefire.plus/video/fumetsu-no-anata-e-dublado"
    },
    {
      "id": 1049,
      "nome": "Fumetsu no Anata e 2nd Season (Dublado)",
      "link": "https://animefire.plus/animes/fumetsu-no-anata-e-2nd-season-dublado-todos-os-episodios",
      "texto_original": "Fumetsu no Anata e 2nd Season (Dublado)",
      "rating": 8.1,
      "classificacao_etaria": "A16",
      "imagem_original": "https://animefire.plus/img/animes/fumetsu-no-anata-e-2nd-season.webp",
      "imagem_pasta": "https://animefire.plus/img/animes/fumetsu-no-anata-e-2nd-season/",
      "secao": "dublados,legendados",
      "pagina": 8,
      "total_episodios": 20,
      "link_video": "https://animefire.plus/video/fumetsu-no-anata-e-2nd-season-dublado"
    },
    {
      "id": 1056,
      "nome": "Futakoi",
      "link": "https://animefire.plus/animes/futakoi-todos-os-episodios",
      "texto_original": "Futakoi",
      "rating": 6.56,
      "classificacao_etaria": "A14",
      "imagem_original": "https://animefire.plus/img/animes/futakoi.webp",
      "imagem_pasta": "https://animefire.plus/img/animes/futakoi/",
      "secao": "legendados",
      "pagina": 174,
      "total_episodios": 13,
      "link_video": "https://animefire.plus/video/futakoi"
    },
    {
      "id": 1057,
      "nome": "Futakoi Alternative",
      "link": "https://animefire.plus/animes/futakoi-alternative-todos-os-episodios",
      "texto_original": "Futakoi Alternative",
      "rating": 6.97,
      "classificacao_etaria": "A14",
      "imagem_original": "https://animefire.plus/img/animes/futakoi-alternative.webp",
      "imagem_pasta": "https://animefire.plus/img/animes/futakoi-alternative/",
      "secao": "legendados",
      "pagina": 151,
      "total_episodios": 13,
      "link_video": "https://animefire.plus/video/futakoi-alternative"
    },
    {
      "id": 1062,
      "nome": "Futari Wa Precure: Splash☆Star",
      "link": "https://animefire.plus/animes/futari-wa-precure-splash-star-todos-os-episodios",
      "texto_original": "Futari Wa Precure: Splash☆Star",
      "rating": 7.21,
      "classificacao_etaria": null,
      "imagem_original": "https://animefire.plus/img/animes/futari-wa-precure-splash-star.webp",
      "imagem_pasta": "https://animefire.plus/img/animes/futari-wa-precure-splash-star/",
      "secao": "legendados",
      "pagina": 107,
      "total_episodios": 14,
      "link_video": "https://animefire.plus/video/futari-wa-precure-splash-star"
    },
    {
      "id": 1072,
      "nome": "G-On Riders",
      "link": "https://animefire.plus/animes/g-on-riders-todos-os-episodios",
      "texto_original": "G-On Riders",
      "rating": 5.87,
      "classificacao_etaria": "A16",
      "imagem_original": "https://animefire.plus/img/animes/g-on-riders.webp",
      "imagem_pasta": "https://animefire.plus/img/animes/g-on-riders/",
      "secao": "legendados",
      "pagina": 69,
      "total_episodios": 13,
      "link_video": "https://animefire.plus/video/g-on-riders"
    },
    {
      "id": 1080,
      "nome": "Gakkou no Kaidan (Dublado)",
      "link": "https://animefire.plus/animes/gakkou-no-kaidan-dublado-todos-os-episodios",
      "texto_original": "Gakkou no Kaidan (Dublado)",
      "rating": 7.7,
      "classificacao_etaria": "A14",
      "imagem_original": "https://animefire.plus/img/animes/gakkou-no-kaidan.webp",
      "imagem_pasta": "https://animefire.plus/img/animes/gakkou-no-kaidan/",
      "secao": "dublados",
      "pagina": 22,
      "total_episodios": 20,
      "link_video": "https://animefire.plus/video/gakkou-no-kaidan-dublado"
    },
    {
      "id": 1087,
      "nome": "Gakuen Heaven",
      "link": "https://animefire.plus/animes/gakuen-heaven-todos-os-episodios",
      "texto_original": "Gakuen Heaven",
      "rating": 6.69,
      "classificacao_etaria": "A14",
      "imagem_original": "https://animefire.plus/img/animes/gakuen-heaven.webp",
      "imagem_pasta": "https://animefire.plus/img/animes/gakuen-heaven/",
      "secao": "legendados",
      "pagina": 105,
      "total_episodios": 13,
      "link_video": "https://animefire.plus/video/gakuen-heaven"
    }
  ],
  "pagination": {
    "current_page": 10,
    "per_page": 20,
    "total_items": 826,
    "total_pages": 42,
    "has_next": true,
    "has_prev": true
  }
}
