{
  "message": "Animes com 13 a 24 episódios",
  "episode_range": {
    "min": 13,
    "max": 24
  },
  "data": [
    {
      "id": 850,
      "nome": "Dororo",
      "link": "https://animefire.plus/animes/dororo-todos-os-episodios",
      "texto_original": "Dororo",
      "rating": 8.21,
      "classificacao_etaria": "A16",
      "imagem_original": "https://animefire.plus/img/animes/dororo.webp",
      "imagem_pasta": "https://animefire.plus/img/animes/dororo/",
      "secao": "legendados",
      "pagina": 41,
      "total_episodios": 24,
      "link_video": "https://animefire.plus/video/dororo"
    },
    {
      "id": 856,
      "nome": "Double Decker! Doug & Kirill",
      "link": "https://animefire.plus/animes/double-decker-doug-kirill-todos-os-episodios",
      "texto_original": "Double Decker! Doug & Kirill",
      "rating": 6.97,
      "classificacao_etaria": "A16",
      "imagem_original": "https://animefire.plus/img/animes/double-decker-doug-kirill.webp",
      "imagem_pasta": "https://animefire.plus/img/animes/double-decker-doug-kirill/",
      "secao": "legendados",
      "pagina": 107,
      "total_episodios": 13,
      "link_video": "https://animefire.plus/video/double-decker-doug-kirill"
    },
    {
      "id": 863,
      "nome": "Doupo Cangqiong",
      "link": "https://animefire.plus/animes/doupo-cangqiong-todos-os-episodios",
      "texto_original": "Doupo Cangqiong",
      "rating": 7.36,
      "classificacao_etaria": "A14",
      "imagem_original": "https://animefire.plus/img/animes/doupo-cangqiong.webp",
      "imagem_pasta": "https://animefire.plus/img/animes/doupo-cangqiong/",
      "secao": "legendados",
      "pagina": 59,
      "total_episodios": 13,
      "link_video": "https://animefire.plus/video/doupo-cangqiong"
    },
    {
      "id": 867,
      "nome": "Dr. Stone (Dublado)",
      "link": "https://animefire.plus/animes/dr-stone-dublado-todos-os-episodios",
      "texto_original": "Dr. Stone (Dublado)",
      "rating": 8.35,
      "classificacao_etaria": "A14",
      "imagem_original": "https://animefire.plus/img/animes/dr-stone.webp",
      "imagem_pasta": "https://animefire.plus/img/animes/dr-stone/",
      "secao": "dublados,legendados",
      "pagina": 20,
      "total_episodios": 24,
      "link_video": "https://animefire.plus/video/dr-stone-dublado"
    },
    {
      "id": 875,
      "nome": "Dragon Ball Daima (Dublado)",
      "link": "https://animefire.plus/animes/dragon-ball-daima-dublado-todos-os-episodios",
      "texto_original": "Dragon Ball Daima (Dublado)",
      "rating": 7.63,
      "classificacao_etaria": "A14",
      "imagem_original": "https://animefire.plus/img/animes/dragon-ball-daima.webp",
      "imagem_pasta": "https://animefire.plus/img/animes/dragon-ball-daima/",
      "secao": "dublados,legendados",
      "pagina": 1,
      "total_episodios": 20,
      "link_video": "https://animefire.plus/video/dragon-ball-daima-dublado"
    },
    {
      "id": 877,
      "nome": "Dragon Ball Heroes (Dublado)",
      "link": "https://animefire.plus/animes/dragon-ball-heroes-dublado-todos-os-episodios",
      "texto_original": "Dragon Ball Heroes (Dublado)",
      "rating": 5.62,
      "classificacao_etaria": "A14",
      "imagem_original": "https://animefire.plus/img/animes/dragon-ball-heroes.webp",
      "imagem_pasta": "https://animefire.plus/img/animes/dragon-ball-heroes/",
      "secao": "dublados,legendados,lancamentos",
      "pagina": 26,
      "total_episodios": 16,
      "link_video": "https://animefire.plus/video/dragon-ball-heroes-dublado"
    },
    {
      "id": 896,
      "nome": "Duan Nao",
      "link": "https://animefire.plus/animes/duan-nao-todos-os-episodios",
      "texto_original": "Duan Nao",
      "rating": 6.56,
      "classificacao_etaria": "A16",
      "imagem_original": "https://animefire.plus/img/animes/duan-nao.webp",
      "imagem_pasta": "https://animefire.plus/img/animes/duan-nao/",
      "secao": "legendados",
      "pagina": 163,
      "total_episodios": 14,
      "link_video": "https://animefire.plus/video/duan-nao"
    },
    {
      "id": 898,
      "nome": "Dungeon Meshi (Dublado)",
      "link": "https://animefire.plus/animes/dungeon-meshi-dublado-todos-os-episodios",
      "texto_original": "Dungeon Meshi (Dublado)",
      "rating": 8.6,
      "classificacao_etaria": "A14",
      "imagem_original": "https://animefire.plus/img/animes/dungeon-meshi.webp",
      "imagem_pasta": "https://animefire.plus/img/animes/dungeon-meshi/",
      "secao": "dublados,legendados,lancamentos",
      "pagina": 3,
      "total_episodios": 24,
      "link_video": "https://animefire.plus/video/dungeon-meshi-dublado"
    },
    {
      "id": 899,
      "nome": "Dungeon ni Deai wo Motomeru no wa Machigatteiru Darou ka (Dublado)",
      "link": "https://animefire.plus/animes/dungeon-ni-deai-wo-motomeru-no-wa-machigatteiru-darou-ka-dublado-todos-os-episodios",
      "texto_original": "Dungeon ni Deai wo Motomeru no wa Machigatteiru Darou ka (Dublado)",
      "rating": 7.75,
      "classificacao_etaria": "A14",
      "imagem_original": "https://animefire.plus/img/animes/dungeon-ni-deai-wo-motomeru-no-wa-machigatteiru-darou-ka.webp",
      "imagem_pasta": "https://animefire.plus/img/animes/dungeon-ni-deai-wo-motomeru-no-wa-machigatteiru-darou-ka/",
      "secao": "dublados,legendados",
      "pagina": 25,
      "total_episodios": 13,
      "link_video": "https://animefire.plus/video/dungeon-ni-deai-wo-motomeru-no-wa-machigatteiru-darou-ka-dublado"
    },
    {
      "id": 907,
      "nome": "Dungeon ni Deai wo Motomeru no wa Machigatteiru Darou ka V: Houjou no Megami-hen",
      "link": "https://animefire.plus/animes/dungeon-ni-deai-wo-motomeru-no-wa-machigatteiru-darou-ka-v-houjou-no-megami-hen-todos-os-episodios",
      "texto_original": "Dungeon ni Deai wo Motomeru no wa Machigatteiru Darou ka V: Houjou no Megami-hen",
      "rating": 7.9,
      "classificacao_etaria": "A14",
      "imagem_original": "https://animefire.plus/img/animes/dungeon-ni-deai-wo-motomeru-no-wa-machigatteiru-darou-ka-v-houjou-no-megami-hen.webp",
      "imagem_pasta": "https://animefire.plus/img/animes/dungeon-ni-deai-wo-motomeru-no-wa-machigatteiru-darou-ka-v-houjou-no-megami-hen/",
      "secao": "legendados",
      "pagina": 10,
      "total_episodios": 15,
      "link_video": "https://animefire.plus/video/dungeon-ni-deai-wo-motomeru-no-wa-machigatteiru-darou-ka-v-houjou-no-megami-hen"
    },
    {
      "id": 927,
      "nome": "Eikoku Koi Monogatari Emma: Molders-hen",
      "link": "https://animefire.plus/animes/eikoku-koi-monogatari-emma-molders-hen-todos-os-episodios",
      "texto_original": "Eikoku Koi Monogatari Emma: Molders-hen",
      "rating": 7.89,
      "classificacao_etaria": null,
      "imagem_original": "https://animefire.plus/img/animes/eikoku-koi-monogatari-emma-molders-hen.webp",
      "imagem_pasta": "https://animefire.plus/img/animes/eikoku-koi-monogatari-emma-molders-hen/",
      "secao": "legendados",
      "pagina": 56,
      "total_episodios": 13,
      "link_video": "https://animefire.plus/video/eikoku-koi-monogatari-emma-molders-hen"
    },
    {
      "id": 933,
      "nome": "El Hazard: The Alternative World",
      "link": "https://animefire.plus/animes/el-hazard-the-alternative-world-todos-os-episodios",
      "texto_original": "El Hazard: The Alternative World",
      "rating": 6.89,
      "classificacao_etaria": "A14",
      "imagem_original": "https://animefire.plus/img/animes/el-hazard-the-alternative-world.webp",
      "imagem_pasta": "https://animefire.plus/img/animes/el-hazard-the-alternative-world/",
      "secao": "legendados",
      "pagina": 99,
      "total_episodios": 13,
      "link_video": "https://animefire.plus/video/el-hazard-the-alternative-world"
    },
    {
      "id": 937,
      "nome": "Element Hunters",
      "link": "https://animefire.plus/animes/element-hunters-todos-os-episodios",
      "texto_original": "Element Hunters",
      "rating": 6.69,
      "classificacao_etaria": null,
      "imagem_original": "https://animefire.plus/img/animes/element-hunters.webp",
      "imagem_pasta": "https://animefire.plus/img/animes/element-hunters/",
      "secao": "legendados",
      "pagina": 167,
      "total_episodios": 13,
      "link_video": "https://animefire.plus/video/element-hunters"
    },
    {
      "id": 941,
      "nome": "Elfen Lied",
      "link": "https://animefire.plus/animes/elfen-lied-todos-os-episodios",
      "texto_original": "Elfen Lied",
      "rating": 7.7,
      "classificacao_etaria": "A18",
      "imagem_original": "https://animefire.plus/img/animes/elfen-lied.webp",
      "imagem_pasta": "https://animefire.plus/img/animes/elfen-lied/",
      "secao": "legendados",
      "pagina": 130,
      "total_episodios": 13,
      "link_video": "https://animefire.plus/video/elfen-lied"
    },
    {
      "id": 946,
      "nome": "Enen no Shouboutai (Dublado)",
      "link": "https://animefire.plus/animes/enen-no-shouboutai-dublado-todos-os-episodios",
      "texto_original": "Enen no Shouboutai (Dublado)",
      "rating": 7.68,
      "classificacao_etaria": "A14",
      "imagem_original": "https://animefire.plus/img/animes/enen-no-shouboutai.webp",
      "imagem_pasta": "https://animefire.plus/img/animes/enen-no-shouboutai/",
      "secao": "dublados,legendados",
      "pagina": 14,
      "total_episodios": 24,
      "link_video": "https://animefire.plus/video/enen-no-shouboutai-dublado"
    },
    {
      "id": 947,
      "nome": "Enen no Shouboutai: Ni no Shou (Dublado)",
      "link": "https://animefire.plus/animes/enen-no-shouboutai-ni-no-shou-dublado-todos-os-episodios",
      "texto_original": "Enen no Shouboutai: Ni no Shou (Dublado)",
      "rating": 7.76,
      "classificacao_etaria": "A14",
      "imagem_original": "https://animefire.plus/img/animes/enen-no-shouboutai-ni-no-shou.webp",
      "imagem_pasta": "https://animefire.plus/img/animes/enen-no-shouboutai-ni-no-shou/",
      "secao": "dublados,legendados",
      "pagina": 14,
      "total_episodios": 24,
      "link_video": "https://animefire.plus/video/enen-no-shouboutai-ni-no-shou-dublado"
    },
    {
      "id": 949,
      "nome": "Engage Kiss",
      "link": "https://animefire.plus/animes/engage-kiss-todos-os-episodios",
      "texto_original": "Engage Kiss",
      "rating": 6.79,
      "classificacao_etaria": "A14",
      "imagem_original": "https://animefire.plus/img/animes/engage-kiss.webp",
      "imagem_pasta": "https://animefire.plus/img/animes/engage-kiss/",
      "secao": "legendados",
      "pagina": 32,
      "total_episodios": 13,
      "link_video": "https://animefire.plus/video/engage-kiss"
    },
    {
      "id": 952,
      "nome": "Ergo Proxy",
      "link": "https://animefire.plus/animes/ergo-proxy-todos-os-episodios",
      "texto_original": "Ergo Proxy",
      "rating": 7.97,
      "classificacao_etaria": "A16",
      "imagem_original": "https://animefire.plus/img/animes/ergo-proxy.webp",
      "imagem_pasta": "https://animefire.plus/img/animes/ergo-proxy/",
      "secao": "legendados",
      "pagina": 172,
      "total_episodios": 23,
      "link_video": "https://animefire.plus/video/ergo-proxy"
    },
    {
      "id": 959,
      "nome": "Eureka Seven AO",
      "link": "https://animefire.plus/animes/eureka-seven-ao-todos-os-episodios",
      "texto_original": "Eureka Seven AO",
      "rating": 6.78,
      "classificacao_etaria": "A14",
      "imagem_original": "https://animefire.plus/img/animes/eureka-seven-ao.webp",
      "imagem_pasta": "https://animefire.plus/img/animes/eureka-seven-ao/",
      "secao": "legendados",
      "pagina": 135,
      "total_episodios": 24,
      "link_video": "https://animefire.plus/video/eureka-seven-ao"
    },
    {
      "id": 973,
      "nome": "Fairy Tail: 100-nen Quest",
      "link": "https://animefire.plus/animes/fairy-tail-100-nen-quest-todos-os-episodios",
      "texto_original": "Fairy Tail: 100-nen Quest",
      "rating": 7.61,
      "classificacao_etaria": "A14",
      "imagem_original": "https://animefire.plus/img/animes/fairy-tail-100-nen-quest.webp",
      "imagem_pasta": "https://animefire.plus/img/animes/fairy-tail-100-nen-quest/",
      "secao": "legendados,lancamentos",
      "pagina": 11,
      "total_episodios": 14,
      "link_video": "https://animefire.plus/video/fairy-tail-100-nen-quest"
    }
  ],
  "pagination": {
    "current_page": 9,
    "per_page": 20,
    "total_items": 826,
    "total_pages": 42,
    "has_next": true,
    "has_prev": true
  }
}
