{
  "message": "Animes com 13 a 24 episódios",
  "episode_range": {
    "min": 13,
    "max": 24
  },
  "data": [
    {
      "id": 115,
      "nome": "Akame ga Kill!: AkaKill! Gekijou",
      "link": "https://animefire.plus/animes/akame-ga-kill-akakill-gekijou-todos-os-episodios",
      "texto_original": "Akame ga Kill!: AkaKill! Gekijou",
      "rating": 6.62,
      "classificacao_etaria": "A14",
      "imagem_original": "https://animefire.plus/img/animes/akame-ga-kill-akakill-gekijou.webp",
      "imagem_pasta": "https://animefire.plus/img/animes/akame-ga-kill-akakill-gekijou/",
      "secao": "legendados",
      "pagina": 89,
      "total_episodios": 24,
      "link_video": "https://animefire.plus/video/akame-ga-kill-akakill-gekijou"
    },
    {
      "id": 120,
      "nome": "AKB0048",
      "link": "https://animefire.plus/animes/akb0048-todos-os-episodios",
      "texto_original": "AKB0048",
      "rating": 7.48,
      "classificacao_etaria": "A14",
      "imagem_original": "https://animefire.plus/img/animes/akb0048.webp",
      "imagem_pasta": "https://animefire.plus/img/animes/akb0048/",
      "secao": "legendados",
      "pagina": 128,
      "total_episodios": 13,
      "link_video": "https://animefire.plus/video/akb0048"
    },
    {
      "id": 121,
      "nome": "AKB0048: Next Stage",
      "link": "https://animefire.plus/animes/akb0048-next-stage-todos-os-episodios",
      "texto_original": "AKB0048: Next Stage",
      "rating": 7.75,
      "classificacao_etaria": "A14",
      "imagem_original": "https://animefire.plus/img/animes/akb0048-next-stage.webp",
      "imagem_pasta": "https://animefire.plus/img/animes/akb0048-next-stage/",
      "secao": "legendados",
      "pagina": 159,
      "total_episodios": 13,
      "link_video": "https://animefire.plus/video/akb0048-next-stage"
    },
    {
      "id": 125,
      "nome": "Akiba's Trip The Animation",
      "link": "https://animefire.plus/animes/akiba-s-trip-the-animation-todos-os-episodios",
      "texto_original": "Akiba's Trip The Animation",
      "rating": 6.68,
      "classificacao_etaria": "A14",
      "imagem_original": "https://animefire.plus/img/animes/akiba-s-trip-the-animation.webp",
      "imagem_pasta": "https://animefire.plus/img/animes/akiba-s-trip-the-animation/",
      "secao": "legendados",
      "pagina": 156,
      "total_episodios": 13,
      "link_video": "https://animefire.plus/video/akiba-s-trip-the-animation"
    },
    {
      "id": 129,
      "nome": "Aku no Hana",
      "link": "https://animefire.plus/animes/aku-no-hana-todos-os-episodios",
      "texto_original": "Aku no Hana",
      "rating": 7.17,
      "classificacao_etaria": "A16",
      "imagem_original": "https://animefire.plus/img/animes/aku-no-hana.webp",
      "imagem_pasta": "https://animefire.plus/img/animes/aku-no-hana/",
      "secao": "legendados",
      "pagina": 154,
      "total_episodios": 13,
      "link_video": "https://animefire.plus/video/aku-no-hana"
    },
    {
      "id": 138,
      "nome": "Alexander Senki",
      "link": "https://animefire.plus/animes/alexander-senki-todos-os-episodios",
      "texto_original": "Alexander Senki",
      "rating": 5.79,
      "classificacao_etaria": "A18",
      "imagem_original": "https://animefire.plus/img/animes/alexander-senki.webp",
      "imagem_pasta": "https://animefire.plus/img/animes/alexander-senki/",
      "secao": "legendados",
      "pagina": 119,
      "total_episodios": 13,
      "link_video": "https://animefire.plus/video/alexander-senki"
    },
    {
      "id": 148,
      "nome": "Amaenaide yo!!",
      "link": "https://animefire.plus/animes/amaenaide-yo-todos-os-episodios",
      "texto_original": "Amaenaide yo!!",
      "rating": 6.58,
      "classificacao_etaria": "A18",
      "imagem_original": "https://animefire.plus/img/animes/amaenaide-yo.webp",
      "imagem_pasta": "https://animefire.plus/img/animes/amaenaide-yo/",
      "secao": "legendados",
      "pagina": 166,
      "total_episodios": 13,
      "link_video": "https://animefire.plus/video/amaenaide-yo"
    },
    {
      "id": 149,
      "nome": "Amaenaide yo!! Katsu!!",
      "link": "https://animefire.plus/animes/amaenaide-yo-katsu-todos-os-episodios",
      "texto_original": "Amaenaide yo!! Katsu!!",
      "rating": 6.8,
      "classificacao_etaria": "A18",
      "imagem_original": "https://animefire.plus/img/animes/amaenaide-yo-katsu.webp",
      "imagem_pasta": "https://animefire.plus/img/animes/amaenaide-yo-katsu/",
      "secao": "legendados",
      "pagina": 145,
      "total_episodios": 13,
      "link_video": "https://animefire.plus/video/amaenaide-yo-katsu"
    },
    {
      "id": 154,
      "nome": "Amagami-san Chi no Enmusubi (Dublado)",
      "link": "https://animefire.plus/animes/amagami-san-chi-no-enmusubi-dublado-todos-os-episodios",
      "texto_original": "Amagami-san Chi no Enmusubi (Dublado)",
      "rating": 7.55,
      "classificacao_etaria": "A14",
      "imagem_original": "https://animefire.plus/img/animes/amagami-san-chi-no-enmusubi.webp",
      "imagem_pasta": "https://animefire.plus/img/animes/amagami-san-chi-no-enmusubi/",
      "secao": "dublados,legendados,lancamentos",
      "pagina": 2,
      "total_episodios": 24,
      "link_video": "https://animefire.plus/video/amagami-san-chi-no-enmusubi-dublado"
    },
    {
      "id": 173,
      "nome": "Ani ni Tsukeru Kusuri wa Nai! 2",
      "link": "https://animefire.plus/animes/ani-ni-tsukeru-kusuri-wa-nai-2-todos-os-episodios",
      "texto_original": "Ani ni Tsukeru Kusuri wa Nai! 2",
      "rating": 7.71,
      "classificacao_etaria": "A14",
      "imagem_original": "https://animefire.plus/img/animes/ani-ni-tsukeru-kusuri-wa-nai-2.webp",
      "imagem_pasta": "https://animefire.plus/img/animes/ani-ni-tsukeru-kusuri-wa-nai-2/",
      "secao": "legendados",
      "pagina": 76,
      "total_episodios": 24,
      "link_video": "https://animefire.plus/video/ani-ni-tsukeru-kusuri-wa-nai-2"
    },
    {
      "id": 177,
      "nome": "Anime de Wakaru Shinryounaika",
      "link": "https://animefire.plus/animes/anime-de-wakaru-shinryounaika-todos-os-episodios",
      "texto_original": "Anime de Wakaru Shinryounaika",
      "rating": 6.63,
      "classificacao_etaria": "A14",
      "imagem_original": "https://animefire.plus/img/animes/anime-de-wakaru-shinryounaika.webp",
      "imagem_pasta": "https://animefire.plus/img/animes/anime-de-wakaru-shinryounaika/",
      "secao": "legendados",
      "pagina": 68,
      "total_episodios": 20,
      "link_video": "https://animefire.plus/video/anime-de-wakaru-shinryounaika"
    },
    {
      "id": 183,
      "nome": "Anne Shirley",
      "link": "https://animefire.plus/animes/anne-shirley-todos-os-episodios",
      "texto_original": "Anne Shirley",
      "rating": 7.78,
      "classificacao_etaria": "A14",
      "imagem_original": "https://animefire.plus/img/animes/anne-shirley.webp",
      "imagem_pasta": "https://animefire.plus/img/animes/anne-shirley/",
      "secao": "legendados,lancamentos",
      "pagina": 5,
      "total_episodios": 18,
      "link_video": "https://animefire.plus/video/anne-shirley"
    },
    {
      "id": 190,
      "nome": "Ansatsu Kyoushitsu (Dublado)",
      "link": "https://animefire.plus/animes/ansatsu-kyoushitsu-dublado-todos-os-episodios",
      "texto_original": "Ansatsu Kyoushitsu (Dublado)",
      "rating": 8.13,
      "classificacao_etaria": "A14",
      "imagem_original": "https://animefire.plus/img/animes/ansatsu-kyoushitsu.webp",
      "imagem_pasta": "https://animefire.plus/img/animes/ansatsu-kyoushitsu/",
      "secao": "dublados,legendados",
      "pagina": 19,
      "total_episodios": 22,
      "link_video": "https://animefire.plus/video/ansatsu-kyoushitsu-dublado"
    },
    {
      "id": 191,
      "nome": "Ansatsu Kyoushitsu 2nd Season (Dublado)",
      "link": "https://animefire.plus/animes/ansatsu-kyoushitsu-2nd-season-dublado-todos-os-episodios",
      "texto_original": "Ansatsu Kyoushitsu 2nd Season (Dublado)",
      "rating": 8.55,
      "classificacao_etaria": "A14",
      "imagem_original": "https://animefire.plus/img/animes/ansatsu-kyoushitsu-2nd-season.webp",
      "imagem_pasta": "https://animefire.plus/img/animes/ansatsu-kyoushitsu-2nd-season/",
      "secao": "dublados,legendados",
      "pagina": 19,
      "total_episodios": 23,
      "link_video": "https://animefire.plus/video/ansatsu-kyoushitsu-2nd-season-dublado"
    },
    {
      "id": 195,
      "nome": "Ao Ashi (Dublado)",
      "link": "https://animefire.plus/animes/ao-ashi-dublado-todos-os-episodios",
      "texto_original": "Ao Ashi (Dublado)",
      "rating": 8.16,
      "classificacao_etaria": "A14",
      "imagem_original": "https://animefire.plus/img/animes/ao-ashi.webp",
      "imagem_pasta": "https://animefire.plus/img/animes/ao-ashi/",
      "secao": "dublados,legendados",
      "pagina": 11,
      "total_episodios": 24,
      "link_video": "https://animefire.plus/video/ao-ashi-dublado"
    },
    {
      "id": 206,
      "nome": "Ao no Miburo",
      "link": "https://animefire.plus/animes/ao-no-miburo-todos-os-episodios",
      "texto_original": "Ao no Miburo",
      "rating": 6.67,
      "classificacao_etaria": "A14",
      "imagem_original": "https://animefire.plus/img/animes/ao-no-miburo.webp",
      "imagem_pasta": "https://animefire.plus/img/animes/ao-no-miburo/",
      "secao": "legendados",
      "pagina": 10,
      "total_episodios": 24,
      "link_video": "https://animefire.plus/video/ao-no-miburo"
    },
    {
      "id": 215,
      "nome": "Appare-Ranman! (Dublado)",
      "link": "https://animefire.plus/animes/appare-ranman-dublado-todos-os-episodios",
      "texto_original": "Appare-Ranman! (Dublado)",
      "rating": 7.29,
      "classificacao_etaria": "A14",
      "imagem_original": "https://animefire.plus/img/animes/appare-ranman.webp",
      "imagem_pasta": "https://animefire.plus/img/animes/appare-ranman/",
      "secao": "dublados,legendados",
      "pagina": 13,
      "total_episodios": 13,
      "link_video": "https://animefire.plus/video/appare-ranman-dublado"
    },
    {
      "id": 220,
      "nome": "Arakawa Under the Bridge",
      "link": "https://animefire.plus/animes/arakawa-under-the-bridge-todos-os-episodios",
      "texto_original": "Arakawa Under the Bridge",
      "rating": 7.65,
      "classificacao_etaria": "A14",
      "imagem_original": "https://animefire.plus/img/animes/arakawa-under-the-bridge.webp",
      "imagem_pasta": "https://animefire.plus/img/animes/arakawa-under-the-bridge/",
      "secao": "legendados",
      "pagina": 166,
      "total_episodios": 13,
      "link_video": "https://animefire.plus/video/arakawa-under-the-bridge"
    },
    {
      "id": 221,
      "nome": "Arakawa Under The Bridge X Bridge",
      "link": "https://animefire.plus/animes/arakawa-under-the-bridge-x-bridge-todos-os-episodios",
      "texto_original": "Arakawa Under The Bridge X Bridge",
      "rating": 7.79,
      "classificacao_etaria": "A14",
      "imagem_original": "https://animefire.plus/img/animes/arakawa-under-the-bridge-x-bridge.webp",
      "imagem_pasta": "https://animefire.plus/img/animes/arakawa-under-the-bridge-x-bridge/",
      "secao": "legendados",
      "pagina": 97,
      "total_episodios": 13,
      "link_video": "https://animefire.plus/video/arakawa-under-the-bridge-x-bridge"
    },
    {
      "id": 230,
      "nome": "Aria the Animation (Dublado)",
      "link": "https://animefire.plus/animes/aria-the-animation-dublado-todos-os-episodios",
      "texto_original": "Aria the Animation (Dublado)",
      "rating": 7.67,
      "classificacao_etaria": null,
      "imagem_original": "https://animefire.plus/img/animes/aria-the-animation.webp",
      "imagem_pasta": "https://animefire.plus/img/animes/aria-the-animation/",
      "secao": "dublados,legendados",
      "pagina": 3,
      "total_episodios": 13,
      "link_video": "https://animefire.plus/video/aria-the-animation-dublado"
    }
  ],
  "pagination": {
    "current_page": 2,
    "per_page": 20,
    "total_items": 826,
    "total_pages": 42,
    "has_next": true,
    "has_prev": true
  }
}
