{
  "message": "Animes com 13 a 24 episódios",
  "episode_range": {
    "min": 13,
    "max": 24
  },
  "data": [
    {
      "id": 8,
      "nome": "\"Oshi no Ko\" 2nd Season",
      "link": "https://animefire.plus/animes/oshi-no-ko-2nd-season-todos-os-episodios",
      "texto_original": "\"Oshi no Ko\" 2nd Season",
      "rating": 8.56,
      "classificacao_etaria": "A14",
      "imagem_original": "https://animefire.plus/img/animes/oshi-no-ko-2nd-season.webp",
      "imagem_pasta": "https://animefire.plus/img/animes/oshi-no-ko-2nd-season/",
      "secao": "legendados",
      "pagina": 12,
      "total_episodios": 13,
      "link_video": "https://animefire.plus/video/oshi-no-ko-2nd-season"
    },
    {
      "id": 11,
      "nome": "009-1 (Dublado)",
      "link": "https://animefire.plus/animes/009-1-dublado-todos-os-episodios",
      "texto_original": "009-1 (Dublado)",
      "rating": 6.29,
      "classificacao_etaria": "A16",
      "imagem_original": "https://animefire.plus/img/animes/009-1.webp",
      "imagem_pasta": "https://animefire.plus/img/animes/009-1/",
      "secao": "dublados,legendados",
      "pagina": 21,
      "total_episodios": 13,
      "link_video": "https://animefire.plus/video/009-1-dublado"
    },
    {
      "id": 20,
      "nome": "16bit Sensation: Another Layer",
      "link": "https://animefire.plus/animes/16bit-sensation-another-layer-todos-os-episodios",
      "texto_original": "16bit Sensation: Another Layer",
      "rating": 6.89,
      "classificacao_etaria": "A14",
      "imagem_original": "https://animefire.plus/img/animes/16bit-sensation-another-layer.webp",
      "imagem_pasta": "https://animefire.plus/img/animes/16bit-sensation-another-layer/",
      "secao": "legendados",
      "pagina": 20,
      "total_episodios": 13,
      "link_video": "https://animefire.plus/video/16bit-sensation-another-layer"
    },
    {
      "id": 24,
      "nome": "2.5-jigen no Ririsa",
      "link": "https://animefire.plus/animes/2-5-jigen-no-ririsa-todos-os-episodios",
      "texto_original": "2.5-jigen no Ririsa",
      "rating": 7.42,
      "classificacao_etaria": "A14",
      "imagem_original": "https://animefire.plus/img/animes/2-5-jigen-no-ririsa.webp",
      "imagem_pasta": "https://animefire.plus/img/animes/2-5-jigen-no-ririsa/",
      "secao": "legendados",
      "pagina": 13,
      "total_episodios": 24,
      "link_video": "https://animefire.plus/video/2-5-jigen-no-ririsa"
    },
    {
      "id": 28,
      "nome": "3-gatsu no Lion",
      "link": "https://animefire.plus/animes/3-gatsu-no-lion-todos-os-episodios",
      "texto_original": "3-gatsu no Lion",
      "rating": 8.44,
      "classificacao_etaria": "A14",
      "imagem_original": "https://animefire.plus/img/animes/3-gatsu-no-lion.webp",
      "imagem_pasta": "https://animefire.plus/img/animes/3-gatsu-no-lion/",
      "secao": "legendados",
      "pagina": 154,
      "total_episodios": 24,
      "link_video": "https://animefire.plus/video/3-gatsu-no-lion"
    },
    {
      "id": 29,
      "nome": "3-gatsu no Lion 2nd Season",
      "link": "https://animefire.plus/animes/3-gatsu-no-lion-2nd-season-todos-os-episodios",
      "texto_original": "3-gatsu no Lion 2nd Season",
      "rating": 8.92,
      "classificacao_etaria": "A14",
      "imagem_original": "https://animefire.plus/img/animes/3-gatsu-no-lion-2nd-season.webp",
      "imagem_pasta": "https://animefire.plus/img/animes/3-gatsu-no-lion-2nd-season/",
      "secao": "legendados",
      "pagina": 16,
      "total_episodios": 22,
      "link_video": "https://animefire.plus/video/3-gatsu-no-lion-2nd-season"
    },
    {
      "id": 47,
      "nome": "A-Rank Party wo Ridatsu shita Ore wa, Moto Oshiego-tachi to Meikyuu Shinbu wo Mezasu.",
      "link": "https://animefire.plus/animes/a-rank-party-wo-ridatsu-shita-ore-wa-moto-oshiego-tachi-to-meikyuu-shinbu-wo-mezasu-todos-os-episodios",
      "texto_original": "A-Rank Party wo Ridatsu shita Ore wa, Moto Oshiego-tachi to Meikyuu Shinbu wo Mezasu.",
      "rating": 6.58,
      "classificacao_etaria": "A14",
      "imagem_original": "https://animefire.plus/img/animes/a-rank-party-wo-ridatsu-shita-ore-wa-moto-oshiego-tachi-to-meikyuu-shinbu-wo-mezasu.webp",
      "imagem_pasta": "https://animefire.plus/img/animes/a-rank-party-wo-ridatsu-shita-ore-wa-moto-oshiego-tachi-to-meikyuu-shinbu-wo-mezasu/",
      "secao": "legendados",
      "pagina": 7,
      "total_episodios": 24,
      "link_video": "https://animefire.plus/video/a-rank-party-wo-ridatsu-shita-ore-wa-moto-oshiego-tachi-to-meikyuu-shinbu-wo-mezasu"
    },
    {
      "id": 53,
      "nome": "Abarenbou Rikishi!! Matsutarou",
      "link": "https://animefire.plus/animes/abarenbou-rikishi-matsutarou-todos-os-episodios",
      "texto_original": "Abarenbou Rikishi!! Matsutarou",
      "rating": 6.15,
      "classificacao_etaria": "A14",
      "imagem_original": "https://animefire.plus/img/animes/abarenbou-rikishi-matsutarou.webp",
      "imagem_pasta": "https://animefire.plus/img/animes/abarenbou-rikishi-matsutarou/",
      "secao": "legendados",
      "pagina": 164,
      "total_episodios": 13,
      "link_video": "https://animefire.plus/video/abarenbou-rikishi-matsutarou"
    },
    {
      "id": 55,
      "nome": "Abenobashi Mahou☆Shoutengai",
      "link": "https://animefire.plus/animes/abenobashi-mahou-shoutengai-todos-os-episodios",
      "texto_original": "Abenobashi Mahou☆Shoutengai",
      "rating": 7.32,
      "classificacao_etaria": "A18",
      "imagem_original": "https://animefire.plus/img/animes/abenobashi-mahou-shoutengai.webp",
      "imagem_pasta": "https://animefire.plus/img/animes/abenobashi-mahou-shoutengai/",
      "secao": "legendados",
      "pagina": 159,
      "total_episodios": 13,
      "link_video": "https://animefire.plus/video/abenobashi-mahou-shoutengai"
    },
    {
      "id": 62,
      "nome": "Ace wo Nerae! 2",
      "link": "https://animefire.plus/animes/ace-wo-nerae-2-todos-os-episodios",
      "texto_original": "Ace wo Nerae! 2",
      "rating": 6.82,
      "classificacao_etaria": "A14",
      "imagem_original": "https://animefire.plus/img/animes/ace-wo-nerae-2.webp",
      "imagem_pasta": "https://animefire.plus/img/animes/ace-wo-nerae-2/",
      "secao": "legendados",
      "pagina": 55,
      "total_episodios": 13,
      "link_video": "https://animefire.plus/video/ace-wo-nerae-2"
    },
    {
      "id": 78,
      "nome": "Ahiru no Sora",
      "link": "https://animefire.plus/animes/ahiru-no-sora-todos-os-episodios",
      "texto_original": "Ahiru no Sora",
      "rating": 7.36,
      "classificacao_etaria": "A14",
      "imagem_original": "https://animefire.plus/img/animes/ahiru-no-sora.webp",
      "imagem_pasta": "https://animefire.plus/img/animes/ahiru-no-sora/",
      "secao": "legendados",
      "pagina": 111,
      "total_episodios": 15,
      "link_video": "https://animefire.plus/video/ahiru-no-sora"
    },
    {
      "id": 87,
      "nome": "Ai Yori Aoshi",
      "link": "https://animefire.plus/animes/ai-yori-aoshi-todos-os-episodios",
      "texto_original": "Ai Yori Aoshi",
      "rating": 7.19,
      "classificacao_etaria": "A14",
      "imagem_original": "https://animefire.plus/img/animes/ai-yori-aoshi.webp",
      "imagem_pasta": "https://animefire.plus/img/animes/ai-yori-aoshi/",
      "secao": "legendados",
      "pagina": 166,
      "total_episodios": 24,
      "link_video": "https://animefire.plus/video/ai-yori-aoshi"
    },
    {
      "id": 93,
      "nome": "Aikatsu Friends!",
      "link": "https://animefire.plus/animes/aikatsu-friends-todos-os-episodios",
      "texto_original": "Aikatsu Friends!",
      "rating": 7.55,
      "classificacao_etaria": "A10",
      "imagem_original": "https://animefire.plus/img/animes/aikatsu-friends.webp",
      "imagem_pasta": "https://animefire.plus/img/animes/aikatsu-friends/",
      "secao": "legendados",
      "pagina": 168,
      "total_episodios": 22,
      "link_video": "https://animefire.plus/video/aikatsu-friends"
    },
    {
      "id": 101,
      "nome": "Aishen Qiaokeli-ing...",
      "link": "https://animefire.plus/animes/aishen-qiaokeli-ing-todos-os-episodios",
      "texto_original": "Aishen Qiaokeli-ing...",
      "rating": 7.06,
      "classificacao_etaria": "A14",
      "imagem_original": "https://animefire.plus/img/animes/aishen-qiaokeli-ing.webp",
      "imagem_pasta": "https://animefire.plus/img/animes/aishen-qiaokeli-ing/",
      "secao": "legendados",
      "pagina": 57,
      "total_episodios": 15,
      "link_video": "https://animefire.plus/video/aishen-qiaokeli-ing"
    },
    {
      "id": 102,
      "nome": "Aishen Qiaokeli-ing... 2nd Season",
      "link": "https://animefire.plus/animes/aishen-qiaokeli-ing-2nd-season-todos-os-episodios",
      "texto_original": "Aishen Qiaokeli-ing... 2nd Season",
      "rating": 7.43,
      "classificacao_etaria": "A14",
      "imagem_original": "https://animefire.plus/img/animes/aishen-qiaokeli-ing-2nd-season.webp",
      "imagem_pasta": "https://animefire.plus/img/animes/aishen-qiaokeli-ing-2nd-season/",
      "secao": "legendados",
      "pagina": 109,
      "total_episodios": 16,
      "link_video": "https://animefire.plus/video/aishen-qiaokeli-ing-2nd-season"
    },
    {
      "id": 105,
      "nome": "Ajin (Dublado)",
      "link": "https://animefire.plus/animes/ajin-dublado-todos-os-episodios",
      "texto_original": "Ajin (Dublado)",
      "rating": 7.6,
      "classificacao_etaria": "A16",
      "imagem_original": "https://animefire.plus/img/animes/ajin.webp",
      "imagem_pasta": "https://animefire.plus/img/animes/ajin/",
      "secao": "dublados,legendados",
      "pagina": 26,
      "total_episodios": 13,
      "link_video": "https://animefire.plus/video/ajin-dublado"
    },
    {
      "id": 106,
      "nome": "Ajin 2nd Season",
      "link": "https://animefire.plus/animes/ajin-2nd-season-todos-os-episodios",
      "texto_original": "Ajin 2nd Season",
      "rating": 7.82,
      "classificacao_etaria": "A16",
      "imagem_original": "https://animefire.plus/img/animes/ajin-2nd-season.webp",
      "imagem_pasta": "https://animefire.plus/img/animes/ajin-2nd-season/",
      "secao": "legendados",
      "pagina": 136,
      "total_episodios": 13,
      "link_video": "https://animefire.plus/video/ajin-2nd-season"
    },
    {
      "id": 111,
      "nome": "Akahori Gedou Hour Rabuge",
      "link": "https://animefire.plus/animes/akahori-gedou-hour-rabuge-todos-os-episodios",
      "texto_original": "Akahori Gedou Hour Rabuge",
      "rating": 6.25,
      "classificacao_etaria": "A14",
      "imagem_original": "https://animefire.plus/img/animes/akahori-gedou-hour-rabuge.webp",
      "imagem_pasta": "https://animefire.plus/img/animes/akahori-gedou-hour-rabuge/",
      "secao": "legendados",
      "pagina": 118,
      "total_episodios": 13,
      "link_video": "https://animefire.plus/video/akahori-gedou-hour-rabuge"
    },
    {
      "id": 113,
      "nome": "Akai Koudan Zillion (Dublado)",
      "link": "https://animefire.plus/animes/akai-koudan-zillion-dublado-todos-os-episodios",
      "texto_original": "Akai Koudan Zillion (Dublado)",
      "rating": 6.61,
      "classificacao_etaria": "A14",
      "imagem_original": "https://animefire.plus/img/animes/akai-koudan-zillion.webp",
      "imagem_pasta": "https://animefire.plus/img/animes/akai-koudan-zillion/",
      "secao": "dublados",
      "pagina": 23,
      "total_episodios": 20,
      "link_video": "https://animefire.plus/video/akai-koudan-zillion-dublado"
    },
    {
      "id": 114,
      "nome": "Akame ga Kill! (Dublado)",
      "link": "https://animefire.plus/animes/akame-ga-kill-dublado-todos-os-episodios",
      "texto_original": "Akame ga Kill! (Dublado)",
      "rating": 7.66,
      "classificacao_etaria": "A16",
      "imagem_original": "https://animefire.plus/img/animes/akame-ga-kill.webp",
      "imagem_pasta": "https://animefire.plus/img/animes/akame-ga-kill/",
      "secao": "dublados,legendados",
      "pagina": 25,
      "total_episodios": 24,
      "link_video": "https://animefire.plus/video/akame-ga-kill-dublado"
    }
  ],
  "pagination": {
    "current_page": 1,
    "per_page": 20,
    "total_items": 826,
    "total_pages": 42,
    "has_next": true,
    "has_prev": false
  }
}
