{
  "message": "Animes com 13 a 24 episódios",
  "episode_range": {
    "min": 13,
    "max": 24
  },
  "data": [
    {
      "id": 426,
      "nome": "Bleach: Sennen Kessen-hen - Ketsubetsu-tan (Dublado)",
      "link": "https://animefire.plus/animes/bleach-sennen-kessen-hen---ketsubetsu-tan-dublado-todos-os-episodios",
      "texto_original": "Bleach: Sennen Kessen-hen - Ketsubetsu-tan (Dublado)",
      "rating": 8.7,
      "classificacao_etaria": "A16",
      "imagem_original": "https://animefire.plus/img/animes/bleach-sennen-kessen-hen---ketsubetsu-tan.webp",
      "imagem_pasta": "https://animefire.plus/img/animes/bleach-sennen-kessen-hen---ketsubetsu-tan/",
      "secao": "dublados",
      "pagina": 6,
      "total_episodios": 13,
      "link_video": "https://animefire.plus/video/bleach-sennen-kessen-hen---ketsubetsu-tan-dublado"
    },
    {
      "id": 427,
      "nome": "Bleach: Sennen Kessen-hen - Soukoku-tan (Dublado)",
      "link": "https://animefire.plus/animes/bleach-sennen-kessen-hen---soukoku-tan-dublado-todos-os-episodios",
      "texto_original": "Bleach: Sennen Kessen-hen - Soukoku-tan (Dublado)",
      "rating": 8.67,
      "classificacao_etaria": "A16",
      "imagem_original": "https://animefire.plus/img/animes/bleach-sennen-kessen-hen---soukoku-tan.webp",
      "imagem_pasta": "https://animefire.plus/img/animes/bleach-sennen-kessen-hen---soukoku-tan/",
      "secao": "dublados,legendados",
      "pagina": 2,
      "total_episodios": 14,
      "link_video": "https://animefire.plus/video/bleach-sennen-kessen-hen---soukoku-tan-dublado"
    },
    {
      "id": 428,
      "nome": "Bleach: Sennen Kessen-hen (Dublado)",
      "link": "https://animefire.plus/animes/bleach-sennen-kessen-hen-dublado-todos-os-episodios",
      "texto_original": "Bleach: Sennen Kessen-hen (Dublado)",
      "rating": 8.99,
      "classificacao_etaria": "A16",
      "imagem_original": "https://animefire.plus/img/animes/bleach-sennen-kessen-hen.webp",
      "imagem_pasta": "https://animefire.plus/img/animes/bleach-sennen-kessen-hen/",
      "secao": "dublados,legendados",
      "pagina": 9,
      "total_episodios": 13,
      "link_video": "https://animefire.plus/video/bleach-sennen-kessen-hen-dublado"
    },
    {
      "id": 437,
      "nome": "Blue Drop: Tenshi-tachi no Gikyoku",
      "link": "https://animefire.plus/animes/blue-drop-tenshi-tachi-no-gikyoku-todos-os-episodios",
      "texto_original": "Blue Drop: Tenshi-tachi no Gikyoku",
      "rating": 6.75,
      "classificacao_etaria": "A14",
      "imagem_original": "https://animefire.plus/img/animes/blue-drop-tenshi-tachi-no-gikyoku.webp",
      "imagem_pasta": "https://animefire.plus/img/animes/blue-drop-tenshi-tachi-no-gikyoku/",
      "secao": "legendados",
      "pagina": 75,
      "total_episodios": 13,
      "link_video": "https://animefire.plus/video/blue-drop-tenshi-tachi-no-gikyoku"
    },
    {
      "id": 439,
      "nome": "Blue Lock (Dublado)",
      "link": "https://animefire.plus/animes/blue-lock-dublado-todos-os-episodios",
      "texto_original": "Blue Lock (Dublado)",
      "rating": 8.17,
      "classificacao_etaria": "A14",
      "imagem_original": "https://animefire.plus/img/animes/blue-lock.webp",
      "imagem_pasta": "https://animefire.plus/img/animes/blue-lock/",
      "secao": "dublados,legendados,lancamentos",
      "pagina": 8,
      "total_episodios": 24,
      "link_video": "https://animefire.plus/video/blue-lock-dublado"
    },
    {
      "id": 440,
      "nome": "Blue Lock vs. U-20 Japan (Dublado)",
      "link": "https://animefire.plus/animes/blue-lock-vs-u-20-japan-dublado-todos-os-episodios",
      "texto_original": "Blue Lock vs. U-20 Japan (Dublado)",
      "rating": 7.55,
      "classificacao_etaria": "A14",
      "imagem_original": "https://animefire.plus/img/animes/blue-lock-vs-u-20-japan.webp",
      "imagem_pasta": "https://animefire.plus/img/animes/blue-lock-vs-u-20-japan/",
      "secao": "dublados,legendados,lancamentos",
      "pagina": 2,
      "total_episodios": 14,
      "link_video": "https://animefire.plus/video/blue-lock-vs-u-20-japan-dublado"
    },
    {
      "id": 442,
      "nome": "Blue Reflection Ray (Dublado)",
      "link": "https://animefire.plus/animes/blue-reflection-ray-dublado-todos-os-episodios",
      "texto_original": "Blue Reflection Ray (Dublado)",
      "rating": 5.87,
      "classificacao_etaria": "A14",
      "imagem_original": "https://animefire.plus/img/animes/blue-reflection-ray.webp",
      "imagem_pasta": "https://animefire.plus/img/animes/blue-reflection-ray/",
      "secao": "dublados,legendados",
      "pagina": 10,
      "total_episodios": 24,
      "link_video": "https://animefire.plus/video/blue-reflection-ray-dublado"
    },
    {
      "id": 448,
      "nome": "Boku no Hero Academia (Dublado)",
      "link": "https://animefire.plus/animes/boku-no-hero-academia-dublado-todos-os-episodios",
      "texto_original": "Boku no Hero Academia (Dublado)",
      "rating": 8.16,
      "classificacao_etaria": "A14",
      "imagem_original": "https://animefire.plus/img/animes/boku-no-hero-academia.webp",
      "imagem_pasta": "https://animefire.plus/img/animes/boku-no-hero-academia/",
      "secao": "dublados,legendados",
      "pagina": 20,
      "total_episodios": 13,
      "link_video": "https://animefire.plus/video/boku-no-hero-academia-dublado"
    },
    {
      "id": 458,
      "nome": "Boku no Hero Academia 7th Season",
      "link": "https://animefire.plus/animes/boku-no-hero-academia-7th-season-todos-os-episodios",
      "texto_original": "Boku no Hero Academia 7th Season",
      "rating": null,
      "classificacao_etaria": "A14",
      "imagem_original": "https://animefire.plus/img/animes/boku-no-hero-academia-7th-season.webp",
      "imagem_pasta": "https://animefire.plus/img/animes/boku-no-hero-academia-7th-season/",
      "secao": "legendados",
      "pagina": 19,
      "total_episodios": 21,
      "link_video": "https://animefire.plus/video/boku-no-hero-academia-7th-season"
    },
    {
      "id": 464,
      "nome": "Boku no Kokoro no Yabai Yatsu Season 2",
      "link": "https://animefire.plus/animes/boku-no-kokoro-no-yabai-yatsu-season-2-todos-os-episodios",
      "texto_original": "Boku no Kokoro no Yabai Yatsu Season 2",
      "rating": 8.73,
      "classificacao_etaria": "A14",
      "imagem_original": "https://animefire.plus/img/animes/boku-no-kokoro-no-yabai-yatsu-season-2.webp",
      "imagem_pasta": "https://animefire.plus/img/animes/boku-no-kokoro-no-yabai-yatsu-season-2/",
      "secao": "legendados",
      "pagina": 17,
      "total_episodios": 13,
      "link_video": "https://animefire.plus/video/boku-no-kokoro-no-yabai-yatsu-season-2"
    },
    {
      "id": 474,
      "nome": "Bokurano",
      "link": "https://animefire.plus/animes/bokurano-todos-os-episodios",
      "texto_original": "Bokurano",
      "rating": 7.72,
      "classificacao_etaria": "A16",
      "imagem_original": "https://animefire.plus/img/animes/bokurano.webp",
      "imagem_pasta": "https://animefire.plus/img/animes/bokurano/",
      "secao": "legendados",
      "pagina": 142,
      "total_episodios": 24,
      "link_video": "https://animefire.plus/video/bokurano"
    },
    {
      "id": 482,
      "nome": "Boogiepop wa Warawanai (2019)",
      "link": "https://animefire.plus/animes/boogiepop-wa-warawanai-2019-todos-os-episodios",
      "texto_original": "Boogiepop wa Warawanai (2019)",
      "rating": 7.1,
      "classificacao_etaria": "A16",
      "imagem_original": "https://animefire.plus/img/animes/boogiepop-wa-warawanai-2019.webp",
      "imagem_pasta": "https://animefire.plus/img/animes/boogiepop-wa-warawanai-2019/",
      "secao": "legendados",
      "pagina": 96,
      "total_episodios": 18,
      "link_video": "https://animefire.plus/video/boogiepop-wa-warawanai-2019"
    },
    {
      "id": 486,
      "nome": "Bouken Ou Beet Excellion",
      "link": "https://animefire.plus/animes/bouken-ou-beet-excellion-todos-os-episodios",
      "texto_original": "Bouken Ou Beet Excellion",
      "rating": 6.78,
      "classificacao_etaria": "A10",
      "imagem_original": "https://animefire.plus/img/animes/bouken-ou-beet-excellion.webp",
      "imagem_pasta": "https://animefire.plus/img/animes/bouken-ou-beet-excellion/",
      "secao": "legendados",
      "pagina": 125,
      "total_episodios": 24,
      "link_video": "https://animefire.plus/video/bouken-ou-beet-excellion"
    },
    {
      "id": 487,
      "nome": "Boukensha ni Naritai to Miyako ni Deteitta Musume ga S-Rank ni Natteta",
      "link": "https://animefire.plus/animes/boukensha-ni-naritai-to-miyako-ni-deteitta-musume-ga-s-rank-ni-natteta-todos-os-episodios",
      "texto_original": "Boukensha ni Naritai to Miyako ni Deteitta Musume ga S-Rank ni Natteta",
      "rating": 6.76,
      "classificacao_etaria": "A14",
      "imagem_original": "https://animefire.plus/img/animes/boukensha-ni-naritai-to-miyako-ni-deteitta-musume-ga-s-rank-ni-natteta.webp",
      "imagem_pasta": "https://animefire.plus/img/animes/boukensha-ni-naritai-to-miyako-ni-deteitta-musume-ga-s-rank-ni-natteta/",
      "secao": "legendados",
      "pagina": 21,
      "total_episodios": 13,
      "link_video": "https://animefire.plus/video/boukensha-ni-naritai-to-miyako-ni-deteitta-musume-ga-s-rank-ni-natteta"
    },
    {
      "id": 492,
      "nome": "Boys Be...",
      "link": "https://animefire.plus/animes/boys-be-todos-os-episodios",
      "texto_original": "Boys Be...",
      "rating": 6.46,
      "classificacao_etaria": "A14",
      "imagem_original": "https://animefire.plus/img/animes/boys-be.webp",
      "imagem_pasta": "https://animefire.plus/img/animes/boys-be/",
      "secao": "legendados",
      "pagina": 54,
      "total_episodios": 13,
      "link_video": "https://animefire.plus/video/boys-be"
    },
    {
      "id": 512,
      "nome": "Buddy Complex",
      "link": "https://animefire.plus/animes/buddy-complex-todos-os-episodios",
      "texto_original": "Buddy Complex",
      "rating": 7.25,
      "classificacao_etaria": "A14",
      "imagem_original": "https://animefire.plus/img/animes/buddy-complex.webp",
      "imagem_pasta": "https://animefire.plus/img/animes/buddy-complex/",
      "secao": "legendados",
      "pagina": 144,
      "total_episodios": 13,
      "link_video": "https://animefire.plus/video/buddy-complex"
    },
    {
      "id": 521,
      "nome": "Bungou Stray Dogs 4th Season",
      "link": "https://animefire.plus/animes/bungou-stray-dogs-4th-season-todos-os-episodios",
      "texto_original": "Bungou Stray Dogs 4th Season",
      "rating": 8.43,
      "classificacao_etaria": "A16",
      "imagem_original": "https://animefire.plus/img/animes/bungou-stray-dogs-4th-season.webp",
      "imagem_pasta": "https://animefire.plus/img/animes/bungou-stray-dogs-4th-season/",
      "secao": "legendados,lancamentos",
      "pagina": 27,
      "total_episodios": 14,
      "link_video": "https://animefire.plus/video/bungou-stray-dogs-4th-season"
    },
    {
      "id": 528,
      "nome": "Burn Up Excess",
      "link": "https://animefire.plus/animes/burn-up-excess-todos-os-episodios",
      "texto_original": "Burn Up Excess",
      "rating": 6.64,
      "classificacao_etaria": "A14",
      "imagem_original": "https://animefire.plus/img/animes/burn-up-excess.webp",
      "imagem_pasta": "https://animefire.plus/img/animes/burn-up-excess/",
      "secao": "legendados",
      "pagina": 132,
      "total_episodios": 13,
      "link_video": "https://animefire.plus/video/burn-up-excess"
    },
    {
      "id": 541,
      "nome": "Buzzer Beater",
      "link": "https://animefire.plus/animes/buzzer-beater-todos-os-episodios",
      "texto_original": "Buzzer Beater",
      "rating": 6.63,
      "classificacao_etaria": "A14",
      "imagem_original": "https://animefire.plus/img/animes/buzzer-beater.webp",
      "imagem_pasta": "https://animefire.plus/img/animes/buzzer-beater/",
      "secao": "legendados",
      "pagina": 105,
      "total_episodios": 13,
      "link_video": "https://animefire.plus/video/buzzer-beater"
    },
    {
      "id": 542,
      "nome": "Buzzer Beater 2nd Season",
      "link": "https://animefire.plus/animes/buzzer-beater-2nd-season-todos-os-episodios",
      "texto_original": "Buzzer Beater 2nd Season",
      "rating": 6.86,
      "classificacao_etaria": "A14",
      "imagem_original": "https://animefire.plus/img/animes/buzzer-beater-2nd-season.webp",
      "imagem_pasta": "https://animefire.plus/img/animes/buzzer-beater-2nd-season/",
      "secao": "legendados",
      "pagina": 75,
      "total_episodios": 13,
      "link_video": "https://animefire.plus/video/buzzer-beater-2nd-season"
    }
  ],
  "pagination": {
    "current_page": 5,
    "per_page": 20,
    "total_items": 826,
    "total_pages": 42,
    "has_next": true,
    "has_prev": true
  }
}
