{
  "message": "Animes com 13 a 24 episódios",
  "episode_range": {
    "min": 13,
    "max": 24
  },
  "data": [
    {
      "id": 711,
      "nome": "D_Cide Traumerei the Animation",
      "link": "https://animefire.plus/animes/d-cide-traumerei-the-animation-todos-os-episodios",
      "texto_original": "D_Cide Traumerei the Animation",
      "rating": 5.8,
      "classificacao_etaria": "A14",
      "imagem_original": "https://animefire.plus/img/animes/d-cide-traumerei-the-animation.webp",
      "imagem_pasta": "https://animefire.plus/img/animes/d-cide-traumerei-the-animation/",
      "secao": "legendados",
      "pagina": 40,
      "total_episodios": 13,
      "link_video": "https://animefire.plus/video/d-cide-traumerei-the-animation"
    },
    {
      "id": 714,
      "nome": "D.C.II S.S.: Da Capo II Second Season",
      "link": "https://animefire.plus/animes/d-c-ii-s-s-da-capo-ii-second-season-todos-os-episodios",
      "texto_original": "D.C.II S.S.: Da Capo II Second Season",
      "rating": 7.3,
      "classificacao_etaria": "A14",
      "imagem_original": "https://animefire.plus/img/animes/d-c-ii-s-s-da-capo-ii-second-season.webp",
      "imagem_pasta": "https://animefire.plus/img/animes/d-c-ii-s-s-da-capo-ii-second-season/",
      "secao": "legendados",
      "pagina": 125,
      "total_episodios": 13,
      "link_video": "https://animefire.plus/video/d-c-ii-s-s-da-capo-ii-second-season"
    },
    {
      "id": 715,
      "nome": "D.C.II: Da Capo II",
      "link": "https://animefire.plus/animes/d-c-ii-da-capo-ii-todos-os-episodios",
      "texto_original": "D.C.II: Da Capo II",
      "rating": 6.99,
      "classificacao_etaria": "A14",
      "imagem_original": "https://animefire.plus/img/animes/d-c-ii-da-capo-ii.webp",
      "imagem_pasta": "https://animefire.plus/img/animes/d-c-ii-da-capo-ii/",
      "secao": "legendados",
      "pagina": 124,
      "total_episodios": 13,
      "link_video": "https://animefire.plus/video/d-c-ii-da-capo-ii"
    },
    {
      "id": 718,
      "nome": "D.Gray-man Hallow",
      "link": "https://animefire.plus/animes/d-gray-man-hallow-todos-os-episodios",
      "texto_original": "D.Gray-man Hallow",
      "rating": 7.82,
      "classificacao_etaria": "A16",
      "imagem_original": "https://animefire.plus/img/animes/d-gray-man-hallow.webp",
      "imagem_pasta": "https://animefire.plus/img/animes/d-gray-man-hallow/",
      "secao": "legendados",
      "pagina": 90,
      "total_episodios": 13,
      "link_video": "https://animefire.plus/video/d-gray-man-hallow"
    },
    {
      "id": 720,
      "nome": "D4 Princess",
      "link": "https://animefire.plus/animes/d4-princess-todos-os-episodios",
      "texto_original": "D4 Princess",
      "rating": 6.13,
      "classificacao_etaria": "A14",
      "imagem_original": "https://animefire.plus/img/animes/d4-princess.webp",
      "imagem_pasta": "https://animefire.plus/img/animes/d4-princess/",
      "secao": "legendados",
      "pagina": 72,
      "total_episodios": 24,
      "link_video": "https://animefire.plus/video/d4-princess"
    },
    {
      "id": 723,
      "nome": "D4DJ: First Mix",
      "link": "https://animefire.plus/animes/d4dj-first-mix-todos-os-episodios",
      "texto_original": "D4DJ: First Mix",
      "rating": null,
      "classificacao_etaria": "A14",
      "imagem_original": "https://animefire.plus/img/animes/d4dj-first-mix.webp",
      "imagem_pasta": "https://animefire.plus/img/animes/d4dj-first-mix/",
      "secao": "legendados",
      "pagina": 50,
      "total_episodios": 13,
      "link_video": "https://animefire.plus/video/d4dj-first-mix"
    },
    {
      "id": 731,
      "nome": "Dakaretai Otoko 1-i ni Odosarete Imasu.",
      "link": "https://animefire.plus/animes/dakaretai-otoko-1-i-ni-odosarete-imasu-todos-os-episodios",
      "texto_original": "Dakaretai Otoko 1-i ni Odosarete Imasu.",
      "rating": 7.52,
      "classificacao_etaria": "A14",
      "imagem_original": "https://animefire.plus/img/animes/dakaretai-otoko-1-i-ni-odosarete-imasu.webp",
      "imagem_pasta": "https://animefire.plus/img/animes/dakaretai-otoko-1-i-ni-odosarete-imasu/",
      "secao": "legendados",
      "pagina": 139,
      "total_episodios": 13,
      "link_video": "https://animefire.plus/video/dakaretai-otoko-1-i-ni-odosarete-imasu"
    },
    {
      "id": 743,
      "nome": "Danganronpa: Kibou no Gakuen to Zetsubou no Koukousei The Animation",
      "link": "https://animefire.plus/animes/danganronpa-kibou-no-gakuen-to-zetsubou-no-koukousei-the-animation-todos-os-episodios",
      "texto_original": "Danganronpa: Kibou no Gakuen to Zetsubou no Koukousei The Animation",
      "rating": 7.44,
      "classificacao_etaria": "A16",
      "imagem_original": "https://animefire.plus/img/animes/danganronpa-kibou-no-gakuen-to-zetsubou-no-koukousei-the-animation.webp",
      "imagem_pasta": "https://animefire.plus/img/animes/danganronpa-kibou-no-gakuen-to-zetsubou-no-koukousei-the-animation/",
      "secao": "legendados",
      "pagina": 140,
      "total_episodios": 13,
      "link_video": "https://animefire.plus/video/danganronpa-kibou-no-gakuen-to-zetsubou-no-koukousei-the-animation"
    },
    {
      "id": 746,
      "nome": "Danna ga Nani wo Itteiru ka Wakaranai Ken 2 Sure-me",
      "link": "https://animefire.plus/animes/danna-ga-nani-wo-itteiru-ka-wakaranai-ken-2-sure-me-todos-os-episodios",
      "texto_original": "Danna ga Nani wo Itteiru ka Wakaranai Ken 2 Sure-me",
      "rating": 7.43,
      "classificacao_etaria": "A14",
      "imagem_original": "https://animefire.plus/img/animes/danna-ga-nani-wo-itteiru-ka-wakaranai-ken-2-sure-me.webp",
      "imagem_pasta": "https://animefire.plus/img/animes/danna-ga-nani-wo-itteiru-ka-wakaranai-ken-2-sure-me/",
      "secao": "legendados",
      "pagina": 66,
      "total_episodios": 13,
      "link_video": "https://animefire.plus/video/danna-ga-nani-wo-itteiru-ka-wakaranai-ken-2-sure-me"
    },
    {
      "id": 747,
      "nome": "Dansai Bunri no Crime Edge",
      "link": "https://animefire.plus/animes/dansai-bunri-no-crime-edge-todos-os-episodios",
      "texto_original": "Dansai Bunri no Crime Edge",
      "rating": 6.79,
      "classificacao_etaria": "A16",
      "imagem_original": "https://animefire.plus/img/animes/dansai-bunri-no-crime-edge.webp",
      "imagem_pasta": "https://animefire.plus/img/animes/dansai-bunri-no-crime-edge/",
      "secao": "legendados",
      "pagina": 133,
      "total_episodios": 13,
      "link_video": "https://animefire.plus/video/dansai-bunri-no-crime-edge"
    },
    {
      "id": 764,
      "nome": "Dead Dead Demons Dededede Destruction (ONA)",
      "link": "https://animefire.plus/animes/dead-dead-demons-dededede-destruction-ona-todos-os-episodios",
      "texto_original": "Dead Dead Demons Dededede Destruction (ONA)",
      "rating": 7.92,
      "classificacao_etaria": "A14",
      "imagem_original": "https://animefire.plus/img/animes/dead-dead-demons-dededede-destruction-ona.webp",
      "imagem_pasta": "https://animefire.plus/img/animes/dead-dead-demons-dededede-destruction-ona/",
      "secao": "legendados",
      "pagina": 12,
      "total_episodios": 17,
      "link_video": "https://animefire.plus/video/dead-dead-demons-dededede-destruction-ona"
    },
    {
      "id": 787,
      "nome": "Delico's Nursery",
      "link": "https://animefire.plus/animes/delico-s-nursery-todos-os-episodios",
      "texto_original": "Delico's Nursery",
      "rating": 6.79,
      "classificacao_etaria": "A14",
      "imagem_original": "https://animefire.plus/img/animes/delico-s-nursery.webp",
      "imagem_pasta": "https://animefire.plus/img/animes/delico-s-nursery/",
      "secao": "legendados",
      "pagina": 11,
      "total_episodios": 13,
      "link_video": "https://animefire.plus/video/delico-s-nursery"
    },
    {
      "id": 797,
      "nome": "Densetsu no Yuusha no Densetsu",
      "link": "https://animefire.plus/animes/densetsu-no-yuusha-no-densetsu-todos-os-episodios",
      "texto_original": "Densetsu no Yuusha no Densetsu",
      "rating": 7.71,
      "classificacao_etaria": "A16",
      "imagem_original": "https://animefire.plus/img/animes/densetsu-no-yuusha-no-densetsu.webp",
      "imagem_pasta": "https://animefire.plus/img/animes/densetsu-no-yuusha-no-densetsu/",
      "secao": "legendados",
      "pagina": 144,
      "total_episodios": 24,
      "link_video": "https://animefire.plus/video/densetsu-no-yuusha-no-densetsu"
    },
    {
      "id": 803,
      "nome": "Devil Survivor 2 The Animation",
      "link": "https://animefire.plus/animes/devil-survivor-2-the-animation-todos-os-episodios",
      "texto_original": "Devil Survivor 2 The Animation",
      "rating": 6.99,
      "classificacao_etaria": "A16",
      "imagem_original": "https://animefire.plus/img/animes/devil-survivor-2-the-animation.webp",
      "imagem_pasta": "https://animefire.plus/img/animes/devil-survivor-2-the-animation/",
      "secao": "legendados",
      "pagina": 160,
      "total_episodios": 13,
      "link_video": "https://animefire.plus/video/devil-survivor-2-the-animation"
    },
    {
      "id": 809,
      "nome": "Di Wang Gong Lue",
      "link": "https://animefire.plus/animes/di-wang-gong-lue-todos-os-episodios",
      "texto_original": "Di Wang Gong Lue",
      "rating": 6.65,
      "classificacao_etaria": "A14",
      "imagem_original": "https://animefire.plus/img/animes/di-wang-gong-lue.webp",
      "imagem_pasta": "https://animefire.plus/img/animes/di-wang-gong-lue/",
      "secao": "legendados",
      "pagina": 155,
      "total_episodios": 20,
      "link_video": "https://animefire.plus/video/di-wang-gong-lue"
    },
    {
      "id": 814,
      "nome": "Dies Irae",
      "link": "https://animefire.plus/animes/dies-irae-todos-os-episodios",
      "texto_original": "Dies Irae",
      "rating": 5.49,
      "classificacao_etaria": "A16",
      "imagem_original": "https://animefire.plus/img/animes/dies-irae.webp",
      "imagem_pasta": "https://animefire.plus/img/animes/dies-irae/",
      "secao": "legendados",
      "pagina": 98,
      "total_episodios": 17,
      "link_video": "https://animefire.plus/video/dies-irae"
    },
    {
      "id": 823,
      "nome": "Digimon Savers (Dublado)",
      "link": "https://animefire.plus/animes/digimon-savers-dublado-todos-os-episodios",
      "texto_original": "Digimon Savers (Dublado)",
      "rating": 7.06,
      "classificacao_etaria": "A10",
      "imagem_original": "https://animefire.plus/img/animes/digimon-savers.webp",
      "imagem_pasta": "https://animefire.plus/img/animes/digimon-savers/",
      "secao": "dublados",
      "pagina": 27,
      "total_episodios": 13,
      "link_video": "https://animefire.plus/video/digimon-savers-dublado"
    },
    {
      "id": 833,
      "nome": "Divergence Eve 2: Misaki Chronicles",
      "link": "https://animefire.plus/animes/divergence-eve-2-misaki-chronicles-todos-os-episodios",
      "texto_original": "Divergence Eve 2: Misaki Chronicles",
      "rating": 6.35,
      "classificacao_etaria": "A14",
      "imagem_original": "https://animefire.plus/img/animes/divergence-eve-2-misaki-chronicles.webp",
      "imagem_pasta": "https://animefire.plus/img/animes/divergence-eve-2-misaki-chronicles/",
      "secao": "legendados",
      "pagina": 108,
      "total_episodios": 13,
      "link_video": "https://animefire.plus/video/divergence-eve-2-misaki-chronicles"
    },
    {
      "id": 837,
      "nome": "Dog Days",
      "link": "https://animefire.plus/animes/dog-days-todos-os-episodios",
      "texto_original": "Dog Days",
      "rating": 7.02,
      "classificacao_etaria": "A14",
      "imagem_original": "https://animefire.plus/img/animes/dog-days.webp",
      "imagem_pasta": "https://animefire.plus/img/animes/dog-days/",
      "secao": "legendados",
      "pagina": 57,
      "total_episodios": 13,
      "link_video": "https://animefire.plus/video/dog-days"
    },
    {
      "id": 838,
      "nome": "Dog Days'",
      "link": "https://animefire.plus/animes/dog-days-2-todos-os-episodios",
      "texto_original": "Dog Days'",
      "rating": 7.14,
      "classificacao_etaria": "A14",
      "imagem_original": "https://animefire.plus/img/animes/dog-days-2.webp",
      "imagem_pasta": "https://animefire.plus/img/animes/dog-days-2/",
      "secao": "legendados",
      "pagina": 57,
      "total_episodios": 13,
      "link_video": "https://animefire.plus/video/dog-days-2"
    }
  ],
  "pagination": {
    "current_page": 8,
    "per_page": 20,
    "total_items": 826,
    "total_pages": 42,
    "has_next": true,
    "has_prev": true
  }
}
