{
  "message": "Animes com 13 a 24 episódios",
  "episode_range": {
    "min": 13,
    "max": 24
  },
  "data": [
    {
      "id": 3425,
      "nome": "Shin Samurai-den Yaiba",
      "link": "https://animefire.plus/animes/shin-samurai-den-yaiba-todos-os-episodios",
      "texto_original": "Shin Samurai-den Yaiba",
      "rating": 7.28,
      "classificacao_etaria": "A14",
      "imagem_original": "https://animefire.plus/img/animes/shin-samurai-den-yaiba.webp",
      "imagem_pasta": "https://animefire.plus/img/animes/shin-samurai-den-yaiba/",
      "secao": "legendados,lancamentos",
      "pagina": 5,
      "total_episodios": 16,
      "link_video": "https://animefire.plus/video/shin-samurai-den-yaiba"
    },
    {
      "id": 3427,
      "nome": "Shin Shirayuki-hime Densetsu Prétear",
      "link": "https://animefire.plus/animes/shin-shirayuki-hime-densetsu-pretear-todos-os-episodios",
      "texto_original": "Shin Shirayuki-hime Densetsu Prétear",
      "rating": 7.28,
      "classificacao_etaria": "A14",
      "imagem_original": "https://animefire.plus/img/animes/shin-shirayuki-hime-densetsu-pretear.webp",
      "imagem_pasta": "https://animefire.plus/img/animes/shin-shirayuki-hime-densetsu-pretear/",
      "secao": "legendados",
      "pagina": 137,
      "total_episodios": 13,
      "link_video": "https://animefire.plus/video/shin-shirayuki-hime-densetsu-pretear"
    },
    {
      "id": 3429,
      "nome": "Shin Tennis no Ouji-sama (Dublado)",
      "link": "https://animefire.plus/animes/shin-tennis-no-ouji-sama-dublado-todos-os-episodios",
      "texto_original": "Shin Tennis no Ouji-sama (Dublado)",
      "rating": 7.55,
      "classificacao_etaria": "A14",
      "imagem_original": "https://animefire.plus/img/animes/shin-tennis-no-ouji-sama.webp",
      "imagem_pasta": "https://animefire.plus/img/animes/shin-tennis-no-ouji-sama/",
      "secao": "dublados,legendados",
      "pagina": 15,
      "total_episodios": 13,
      "link_video": "https://animefire.plus/video/shin-tennis-no-ouji-sama-dublado"
    },
    {
      "id": 3433,
      "nome": "Shin Tennis no Ouji-sama: U-17 World Cup",
      "link": "https://animefire.plus/animes/shin-tennis-no-ouji-sama-u-17-world-cup-todos-os-episodios",
      "texto_original": "Shin Tennis no Ouji-sama: U-17 World Cup",
      "rating": 6.79,
      "classificacao_etaria": "A14",
      "imagem_original": "https://animefire.plus/img/animes/shin-tennis-no-ouji-sama-u-17-world-cup.webp",
      "imagem_pasta": "https://animefire.plus/img/animes/shin-tennis-no-ouji-sama-u-17-world-cup/",
      "secao": "legendados",
      "pagina": 31,
      "total_episodios": 13,
      "link_video": "https://animefire.plus/video/shin-tennis-no-ouji-sama-u-17-world-cup"
    },
    {
      "id": 3439,
      "nome": "Shingeki no Bahamut: Virgin Soul",
      "link": "https://animefire.plus/animes/shingeki-no-bahamut-virgin-soul-todos-os-episodios",
      "texto_original": "Shingeki no Bahamut: Virgin Soul",
      "rating": 7.53,
      "classificacao_etaria": "A16",
      "imagem_original": "https://animefire.plus/img/animes/shingeki-no-bahamut-virgin-soul.webp",
      "imagem_pasta": "https://animefire.plus/img/animes/shingeki-no-bahamut-virgin-soul/",
      "secao": "legendados",
      "pagina": 148,
      "total_episodios": 24,
      "link_video": "https://animefire.plus/video/shingeki-no-bahamut-virgin-soul"
    },
    {
      "id": 3458,
      "nome": "Shining Tears X Wind",
      "link": "https://animefire.plus/animes/shining-tears-x-wind-todos-os-episodios",
      "texto_original": "Shining Tears X Wind",
      "rating": 6.59,
      "classificacao_etaria": "A14",
      "imagem_original": "https://animefire.plus/img/animes/shining-tears-x-wind.webp",
      "imagem_pasta": "https://animefire.plus/img/animes/shining-tears-x-wind/",
      "secao": "legendados",
      "pagina": 132,
      "total_episodios": 13,
      "link_video": "https://animefire.plus/video/shining-tears-x-wind"
    },
    {
      "id": 3460,
      "nome": "Shinkon Gattai Godannar!!",
      "link": "https://animefire.plus/animes/shinkon-gattai-godannar-todos-os-episodios",
      "texto_original": "Shinkon Gattai Godannar!!",
      "rating": 6.77,
      "classificacao_etaria": "A14",
      "imagem_original": "https://animefire.plus/img/animes/shinkon-gattai-godannar.webp",
      "imagem_pasta": "https://animefire.plus/img/animes/shinkon-gattai-godannar/",
      "secao": "legendados",
      "pagina": 132,
      "total_episodios": 13,
      "link_video": "https://animefire.plus/video/shinkon-gattai-godannar"
    },
    {
      "id": 3461,
      "nome": "Shinkon Gattai Godannar!! 2nd Season",
      "link": "https://animefire.plus/animes/shinkon-gattai-godannar-2nd-season-todos-os-episodios",
      "texto_original": "Shinkon Gattai Godannar!! 2nd Season",
      "rating": 7,
      "classificacao_etaria": "A14",
      "imagem_original": "https://animefire.plus/img/animes/shinkon-gattai-godannar-2nd-season.webp",
      "imagem_pasta": "https://animefire.plus/img/animes/shinkon-gattai-godannar-2nd-season/",
      "secao": "legendados",
      "pagina": 69,
      "total_episodios": 13,
      "link_video": "https://animefire.plus/video/shinkon-gattai-godannar-2nd-season"
    },
    {
      "id": 3470,
      "nome": "Shinrei Tantei Yakumo",
      "link": "https://animefire.plus/animes/shinrei-tantei-yakumo-todos-os-episodios",
      "texto_original": "Shinrei Tantei Yakumo",
      "rating": 7.41,
      "classificacao_etaria": "A14",
      "imagem_original": "https://animefire.plus/img/animes/shinrei-tantei-yakumo.webp",
      "imagem_pasta": "https://animefire.plus/img/animes/shinrei-tantei-yakumo/",
      "secao": "legendados",
      "pagina": 129,
      "total_episodios": 13,
      "link_video": "https://animefire.plus/video/shinrei-tantei-yakumo"
    },
    {
      "id": 3471,
      "nome": "Shinreigari (Dublado)",
      "link": "https://animefire.plus/animes/shinreigari-dublado-todos-os-episodios",
      "texto_original": "Shinreigari (Dublado)",
      "rating": 7.47,
      "classificacao_etaria": "A14",
      "imagem_original": "https://animefire.plus/img/animes/shinreigari.webp",
      "imagem_pasta": "https://animefire.plus/img/animes/shinreigari/",
      "secao": "dublados,legendados",
      "pagina": 20,
      "total_episodios": 22,
      "link_video": "https://animefire.plus/video/shinreigari-dublado"
    },
    {
      "id": 3476,
      "nome": "Shion no Ou",
      "link": "https://animefire.plus/animes/shion-no-ou-todos-os-episodios",
      "texto_original": "Shion no Ou",
      "rating": 7.61,
      "classificacao_etaria": "A14",
      "imagem_original": "https://animefire.plus/img/animes/shion-no-ou.webp",
      "imagem_pasta": "https://animefire.plus/img/animes/shion-no-ou/",
      "secao": "legendados",
      "pagina": 128,
      "total_episodios": 22,
      "link_video": "https://animefire.plus/video/shion-no-ou"
    },
    {
      "id": 3478,
      "nome": "Shirobako",
      "link": "https://animefire.plus/animes/shirobako-todos-os-episodios",
      "texto_original": "Shirobako",
      "rating": 8.41,
      "classificacao_etaria": "A14",
      "imagem_original": "https://animefire.plus/img/animes/shirobako.webp",
      "imagem_pasta": "https://animefire.plus/img/animes/shirobako/",
      "secao": "legendados",
      "pagina": 97,
      "total_episodios": 21,
      "link_video": "https://animefire.plus/video/shirobako"
    },
    {
      "id": 3481,
      "nome": "Shiroi Suna no Aquatope",
      "link": "https://animefire.plus/animes/shiroi-suna-no-aquatope-todos-os-episodios",
      "texto_original": "Shiroi Suna no Aquatope",
      "rating": 7.51,
      "classificacao_etaria": "A14",
      "imagem_original": "https://animefire.plus/img/animes/shiroi-suna-no-aquatope.webp",
      "imagem_pasta": "https://animefire.plus/img/animes/shiroi-suna-no-aquatope/",
      "secao": "legendados",
      "pagina": 41,
      "total_episodios": 24,
      "link_video": "https://animefire.plus/video/shiroi-suna-no-aquatope"
    },
    {
      "id": 3487,
      "nome": "Shokugeki no Souma (Dublado)",
      "link": "https://animefire.plus/animes/shokugeki-no-souma-dublado-todos-os-episodios",
      "texto_original": "Shokugeki no Souma (Dublado)",
      "rating": 8.33,
      "classificacao_etaria": "A14",
      "imagem_original": "https://animefire.plus/img/animes/shokugeki-no-souma.webp",
      "imagem_pasta": "https://animefire.plus/img/animes/shokugeki-no-souma/",
      "secao": "dublados,legendados",
      "pagina": 19,
      "total_episodios": 24,
      "link_video": "https://animefire.plus/video/shokugeki-no-souma-dublado"
    },
    {
      "id": 3490,
      "nome": "Shokugeki no Souma: Ni no Sara (Dublado)",
      "link": "https://animefire.plus/animes/shokugeki-no-souma-ni-no-sara-dublado-todos-os-episodios",
      "texto_original": "Shokugeki no Souma: Ni no Sara (Dublado)",
      "rating": 8.25,
      "classificacao_etaria": "A14",
      "imagem_original": "https://animefire.plus/img/animes/shokugeki-no-souma-ni-no-sara.webp",
      "imagem_pasta": "https://animefire.plus/img/animes/shokugeki-no-souma-ni-no-sara/",
      "secao": "dublados,legendados",
      "pagina": 19,
      "total_episodios": 13,
      "link_video": "https://animefire.plus/video/shokugeki-no-souma-ni-no-sara-dublado"
    },
    {
      "id": 3497,
      "nome": "Shoot! Goal to the Future",
      "link": "https://animefire.plus/animes/shoot-goal-to-the-future-todos-os-episodios",
      "texto_original": "Shoot! Goal to the Future",
      "rating": 5.29,
      "classificacao_etaria": "A14",
      "imagem_original": "https://animefire.plus/img/animes/shoot-goal-to-the-future.webp",
      "imagem_pasta": "https://animefire.plus/img/animes/shoot-goal-to-the-future/",
      "secao": "legendados",
      "pagina": 32,
      "total_episodios": 13,
      "link_video": "https://animefire.plus/video/shoot-goal-to-the-future"
    },
    {
      "id": 3502,
      "nome": "Shoukoku no Altair",
      "link": "https://animefire.plus/animes/shoukoku-no-altair-todos-os-episodios",
      "texto_original": "Shoukoku no Altair",
      "rating": 7.57,
      "classificacao_etaria": "A14",
      "imagem_original": "https://animefire.plus/img/animes/shoukoku-no-altair.webp",
      "imagem_pasta": "https://animefire.plus/img/animes/shoukoku-no-altair/",
      "secao": "legendados",
      "pagina": 149,
      "total_episodios": 21,
      "link_video": "https://animefire.plus/video/shoukoku-no-altair"
    },
    {
      "id": 3504,
      "nome": "Shounen Hollywood: Holly Stage for 49",
      "link": "https://animefire.plus/animes/shounen-hollywood-holly-stage-for-49-todos-os-episodios",
      "texto_original": "Shounen Hollywood: Holly Stage for 49",
      "rating": 6.14,
      "classificacao_etaria": "A14",
      "imagem_original": "https://animefire.plus/img/animes/shounen-hollywood-holly-stage-for-49.webp",
      "imagem_pasta": "https://animefire.plus/img/animes/shounen-hollywood-holly-stage-for-49/",
      "secao": "legendados",
      "pagina": 179,
      "total_episodios": 13,
      "link_video": "https://animefire.plus/video/shounen-hollywood-holly-stage-for-49"
    },
    {
      "id": 3506,
      "nome": "Shounen Onmyouji",
      "link": "https://animefire.plus/animes/shounen-onmyouji-todos-os-episodios",
      "texto_original": "Shounen Onmyouji",
      "rating": 7.65,
      "classificacao_etaria": "A14",
      "imagem_original": "https://animefire.plus/img/animes/shounen-onmyouji.webp",
      "imagem_pasta": "https://animefire.plus/img/animes/shounen-onmyouji/",
      "secao": "legendados",
      "pagina": 122,
      "total_episodios": 21,
      "link_video": "https://animefire.plus/video/shounen-onmyouji"
    },
    {
      "id": 3510,
      "nome": "Shouwa Genroku Rakugo Shinjuu",
      "link": "https://animefire.plus/animes/shouwa-genroku-rakugo-shinjuu-todos-os-episodios",
      "texto_original": "Shouwa Genroku Rakugo Shinjuu",
      "rating": 8.6,
      "classificacao_etaria": "A14",
      "imagem_original": "https://animefire.plus/img/animes/shouwa-genroku-rakugo-shinjuu.webp",
      "imagem_pasta": "https://animefire.plus/img/animes/shouwa-genroku-rakugo-shinjuu/",
      "secao": "legendados",
      "pagina": 102,
      "total_episodios": 13,
      "link_video": "https://animefire.plus/video/shouwa-genroku-rakugo-shinjuu"
    }
  ],
  "pagination": {
    "current_page": 32,
    "per_page": 20,
    "total_items": 826,
    "total_pages": 42,
    "has_next": true,
    "has_prev": true
  }
}
