{
  "message": "Animes com 13 a 24 episódios",
  "episode_range": {
    "min": 13,
    "max": 24
  },
  "data": [
    {
      "id": 3326,
      "nome": "Selection Project",
      "link": "https://animefire.plus/animes/selection-project-todos-os-episodios",
      "texto_original": "Selection Project",
      "rating": 7.26,
      "classificacao_etaria": "A14",
      "imagem_original": "https://animefire.plus/img/animes/selection-project.webp",
      "imagem_pasta": "https://animefire.plus/img/animes/selection-project/",
      "secao": "legendados",
      "pagina": 38,
      "total_episodios": 13,
      "link_video": "https://animefire.plus/video/selection-project"
    },
    {
      "id": 3336,
      "nome": "Sengoku Youko",
      "link": "https://animefire.plus/animes/sengoku-youko-todos-os-episodios",
      "texto_original": "Sengoku Youko",
      "rating": 6.99,
      "classificacao_etaria": "A14",
      "imagem_original": "https://animefire.plus/img/animes/sengoku-youko.webp",
      "imagem_pasta": "https://animefire.plus/img/animes/sengoku-youko/",
      "secao": "legendados",
      "pagina": 16,
      "total_episodios": 13,
      "link_video": "https://animefire.plus/video/sengoku-youko"
    },
    {
      "id": 3337,
      "nome": "Sengoku Youko: Senma Konton-hen",
      "link": "https://animefire.plus/animes/sengoku-youko-senma-konton-hen-todos-os-episodios",
      "texto_original": "Sengoku Youko: Senma Konton-hen",
      "rating": 7.58,
      "classificacao_etaria": "A14",
      "imagem_original": "https://animefire.plus/img/animes/sengoku-youko-senma-konton-hen.webp",
      "imagem_pasta": "https://animefire.plus/img/animes/sengoku-youko-senma-konton-hen/",
      "secao": "legendados",
      "pagina": 11,
      "total_episodios": 22,
      "link_video": "https://animefire.plus/video/sengoku-youko-senma-konton-hen"
    },
    {
      "id": 3342,
      "nome": "Senki Zesshou Symphogear",
      "link": "https://animefire.plus/animes/senki-zesshou-symphogear-todos-os-episodios",
      "texto_original": "Senki Zesshou Symphogear",
      "rating": 7.08,
      "classificacao_etaria": "A14",
      "imagem_original": "https://animefire.plus/img/animes/senki-zesshou-symphogear.webp",
      "imagem_pasta": "https://animefire.plus/img/animes/senki-zesshou-symphogear/",
      "secao": "legendados",
      "pagina": 106,
      "total_episodios": 13,
      "link_video": "https://animefire.plus/video/senki-zesshou-symphogear"
    },
    {
      "id": 3343,
      "nome": "Senki Zesshou Symphogear AXZ",
      "link": "https://animefire.plus/animes/senki-zesshou-symphogear-axz-todos-os-episodios",
      "texto_original": "Senki Zesshou Symphogear AXZ",
      "rating": 7.62,
      "classificacao_etaria": "A14",
      "imagem_original": "https://animefire.plus/img/animes/senki-zesshou-symphogear-axz.webp",
      "imagem_pasta": "https://animefire.plus/img/animes/senki-zesshou-symphogear-axz/",
      "secao": "legendados",
      "pagina": 77,
      "total_episodios": 13,
      "link_video": "https://animefire.plus/video/senki-zesshou-symphogear-axz"
    },
    {
      "id": 3344,
      "nome": "Senki Zesshou Symphogear G",
      "link": "https://animefire.plus/animes/senki-zesshou-symphogear-g-todos-os-episodios",
      "texto_original": "Senki Zesshou Symphogear G",
      "rating": 7.48,
      "classificacao_etaria": "A14",
      "imagem_original": "https://animefire.plus/img/animes/senki-zesshou-symphogear-g.webp",
      "imagem_pasta": "https://animefire.plus/img/animes/senki-zesshou-symphogear-g/",
      "secao": "legendados",
      "pagina": 62,
      "total_episodios": 13,
      "link_video": "https://animefire.plus/video/senki-zesshou-symphogear-g"
    },
    {
      "id": 3345,
      "nome": "Senki Zesshou Symphogear GX",
      "link": "https://animefire.plus/animes/senki-zesshou-symphogear-gx-todos-os-episodios",
      "texto_original": "Senki Zesshou Symphogear GX",
      "rating": 7.45,
      "classificacao_etaria": "A14",
      "imagem_original": "https://animefire.plus/img/animes/senki-zesshou-symphogear-gx.webp",
      "imagem_pasta": "https://animefire.plus/img/animes/senki-zesshou-symphogear-gx/",
      "secao": "legendados",
      "pagina": 62,
      "total_episodios": 13,
      "link_video": "https://animefire.plus/video/senki-zesshou-symphogear-gx"
    },
    {
      "id": 3347,
      "nome": "Senkou no Night Raid",
      "link": "https://animefire.plus/animes/senkou-no-night-raid-todos-os-episodios",
      "texto_original": "Senkou no Night Raid",
      "rating": 6.92,
      "classificacao_etaria": "A16",
      "imagem_original": "https://animefire.plus/img/animes/senkou-no-night-raid.webp",
      "imagem_pasta": "https://animefire.plus/img/animes/senkou-no-night-raid/",
      "secao": "legendados",
      "pagina": 127,
      "total_episodios": 13,
      "link_video": "https://animefire.plus/video/senkou-no-night-raid"
    },
    {
      "id": 3358,
      "nome": "Senyuu.",
      "link": "https://animefire.plus/animes/senyuu-todos-os-episodios",
      "texto_original": "Senyuu.",
      "rating": 7.4,
      "classificacao_etaria": "A14",
      "imagem_original": "https://animefire.plus/img/animes/senyuu.webp",
      "imagem_pasta": "https://animefire.plus/img/animes/senyuu/",
      "secao": "legendados",
      "pagina": 91,
      "total_episodios": 13,
      "link_video": "https://animefire.plus/video/senyuu"
    },
    {
      "id": 3359,
      "nome": "Senyuu. 2",
      "link": "https://animefire.plus/animes/senyuu-2-todos-os-episodios",
      "texto_original": "Senyuu. 2",
      "rating": 7.53,
      "classificacao_etaria": "A14",
      "imagem_original": "https://animefire.plus/img/animes/senyuu-2.webp",
      "imagem_pasta": "https://animefire.plus/img/animes/senyuu-2/",
      "secao": "legendados",
      "pagina": 91,
      "total_episodios": 13,
      "link_video": "https://animefire.plus/video/senyuu-2"
    },
    {
      "id": 3361,
      "nome": "Serial Experiments Lain (Dublado)",
      "link": "https://animefire.plus/animes/serial-experiments-lain-dublado-todos-os-episodios",
      "texto_original": "Serial Experiments Lain (Dublado)",
      "rating": 8.01,
      "classificacao_etaria": "A16",
      "imagem_original": "https://animefire.plus/img/animes/serial-experiments-lain.webp",
      "imagem_pasta": "https://animefire.plus/img/animes/serial-experiments-lain/",
      "secao": "dublados,legendados",
      "pagina": 25,
      "total_episodios": 13,
      "link_video": "https://animefire.plus/video/serial-experiments-lain-dublado"
    },
    {
      "id": 3364,
      "nome": "Servant x Service",
      "link": "https://animefire.plus/animes/servant-x-service-todos-os-episodios",
      "texto_original": "Servant x Service",
      "rating": 7.73,
      "classificacao_etaria": "A14",
      "imagem_original": "https://animefire.plus/img/animes/servant-x-service.webp",
      "imagem_pasta": "https://animefire.plus/img/animes/servant-x-service/",
      "secao": "legendados",
      "pagina": 82,
      "total_episodios": 13,
      "link_video": "https://animefire.plus/video/servant-x-service"
    },
    {
      "id": 3371,
      "nome": "Shadows House (Dublado)",
      "link": "https://animefire.plus/animes/shadows-house-dublado-todos-os-episodios",
      "texto_original": "Shadows House (Dublado)",
      "rating": 7.8,
      "classificacao_etaria": "A14",
      "imagem_original": "https://animefire.plus/img/animes/shadows-house.webp",
      "imagem_pasta": "https://animefire.plus/img/animes/shadows-house/",
      "secao": "dublados,legendados",
      "pagina": 13,
      "total_episodios": 13,
      "link_video": "https://animefire.plus/video/shadows-house-dublado"
    },
    {
      "id": 3376,
      "nome": "Shakugan no Shana",
      "link": "https://animefire.plus/animes/shakugan-no-shana-todos-os-episodios",
      "texto_original": "Shakugan no Shana",
      "rating": 7.62,
      "classificacao_etaria": "A14",
      "imagem_original": "https://animefire.plus/img/animes/shakugan-no-shana.webp",
      "imagem_pasta": "https://animefire.plus/img/animes/shakugan-no-shana/",
      "secao": "legendados",
      "pagina": 166,
      "total_episodios": 24,
      "link_video": "https://animefire.plus/video/shakugan-no-shana"
    },
    {
      "id": 3377,
      "nome": "Shakugan no Shana II (Second)",
      "link": "https://animefire.plus/animes/shakugan-no-shana-ii-second-todos-os-episodios",
      "texto_original": "Shakugan no Shana II (Second)",
      "rating": 7.69,
      "classificacao_etaria": "A14",
      "imagem_original": "https://animefire.plus/img/animes/shakugan-no-shana-ii-second.webp",
      "imagem_pasta": "https://animefire.plus/img/animes/shakugan-no-shana-ii-second/",
      "secao": "legendados",
      "pagina": 119,
      "total_episodios": 24,
      "link_video": "https://animefire.plus/video/shakugan-no-shana-ii-second"
    },
    {
      "id": 3378,
      "nome": "Shakugan no Shana III (Final)",
      "link": "https://animefire.plus/animes/shakugan-no-shana-iii-final-todos-os-episodios",
      "texto_original": "Shakugan no Shana III (Final)",
      "rating": 7.64,
      "classificacao_etaria": "A14",
      "imagem_original": "https://animefire.plus/img/animes/shakugan-no-shana-iii-final.webp",
      "imagem_pasta": "https://animefire.plus/img/animes/shakugan-no-shana-iii-final/",
      "secao": "legendados",
      "pagina": 112,
      "total_episodios": 24,
      "link_video": "https://animefire.plus/video/shakugan-no-shana-iii-final"
    },
    {
      "id": 3386,
      "nome": "Shangri-La",
      "link": "https://animefire.plus/animes/shangri-la-todos-os-episodios",
      "texto_original": "Shangri-La",
      "rating": 7.11,
      "classificacao_etaria": "A14",
      "imagem_original": "https://animefire.plus/img/animes/shangri-la.webp",
      "imagem_pasta": "https://animefire.plus/img/animes/shangri-la/",
      "secao": "legendados",
      "pagina": 151,
      "total_episodios": 24,
      "link_video": "https://animefire.plus/video/shangri-la"
    },
    {
      "id": 3392,
      "nome": "Shenmue the Animation",
      "link": "https://animefire.plus/animes/shenmue-the-animation-todos-os-episodios",
      "texto_original": "Shenmue the Animation",
      "rating": 6.67,
      "classificacao_etaria": "A16",
      "imagem_original": "https://animefire.plus/img/animes/shenmue-the-animation.webp",
      "imagem_pasta": "https://animefire.plus/img/animes/shenmue-the-animation/",
      "secao": "legendados",
      "pagina": 34,
      "total_episodios": 13,
      "link_video": "https://animefire.plus/video/shenmue-the-animation"
    },
    {
      "id": 3410,
      "nome": "Shiki",
      "link": "https://animefire.plus/animes/shiki-todos-os-episodios",
      "texto_original": "Shiki",
      "rating": 7.87,
      "classificacao_etaria": "A16",
      "imagem_original": "https://animefire.plus/img/animes/shiki.webp",
      "imagem_pasta": "https://animefire.plus/img/animes/shiki/",
      "secao": "legendados",
      "pagina": 154,
      "total_episodios": 22,
      "link_video": "https://animefire.plus/video/shiki"
    },
    {
      "id": 3421,
      "nome": "Shin no Nakama ja Nai to Yuusha no Party wo Oidasareta node, Henkyou de Slow Life suru Koto ni Shima",
      "link": "https://animefire.plus/animes/shin-no-nakama-ja-nai-to-yuusha-no-party-wo-oidasareta-node-henkyou-de-slow-life-suru-koto-ni-shima-todos-os-episodios",
      "texto_original": "Shin no Nakama ja Nai to Yuusha no Party wo Oidasareta node, Henkyou de Slow Life suru Koto ni Shima",
      "rating": 6.92,
      "classificacao_etaria": "A14",
      "imagem_original": "https://animefire.plus/img/animes/shin-no-nakama-ja-nai-to-yuusha-no-party-wo-oidasareta-node-henkyou-de-slow-life-suru-koto-ni-shima.webp",
      "imagem_pasta": "https://animefire.plus/img/animes/shin-no-nakama-ja-nai-to-yuusha-no-party-wo-oidasareta-node-henkyou-de-slow-life-suru-koto-ni-shima/",
      "secao": "legendados",
      "pagina": 39,
      "total_episodios": 13,
      "link_video": "https://animefire.plus/video/shin-no-nakama-ja-nai-to-yuusha-no-party-wo-oidasareta-node-henkyou-de-slow-life-suru-koto-ni-shima"
    }
  ],
  "pagination": {
    "current_page": 31,
    "per_page": 20,
    "total_items": 826,
    "total_pages": 42,
    "has_next": true,
    "has_prev": true
  }
}
