{
  "message": "Animes com 13 a 24 episódios",
  "episode_range": {
    "min": 13,
    "max": 24
  },
  "data": [
    {
      "id": 3230,
      "nome": "Saki Zenkoku-hen",
      "link": "https://animefire.plus/animes/saki-zenkoku-hen-todos-os-episodios",
      "texto_original": "Saki Zenkoku-hen",
      "rating": 7.45,
      "classificacao_etaria": "A14",
      "imagem_original": "https://animefire.plus/img/animes/saki-zenkoku-hen.webp",
      "imagem_pasta": "https://animefire.plus/img/animes/saki-zenkoku-hen/",
      "secao": "legendados",
      "pagina": 65,
      "total_episodios": 13,
      "link_video": "https://animefire.plus/video/saki-zenkoku-hen"
    },
    {
      "id": 3234,
      "nome": "Sakura Quest",
      "link": "https://animefire.plus/animes/sakura-quest-todos-os-episodios",
      "texto_original": "Sakura Quest",
      "rating": 7.46,
      "classificacao_etaria": "A14",
      "imagem_original": "https://animefire.plus/img/animes/sakura-quest.webp",
      "imagem_pasta": "https://animefire.plus/img/animes/sakura-quest/",
      "secao": "legendados",
      "pagina": 153,
      "total_episodios": 24,
      "link_video": "https://animefire.plus/video/sakura-quest"
    },
    {
      "id": 3238,
      "nome": "Sakurada Reset",
      "link": "https://animefire.plus/animes/sakurada-reset-todos-os-episodios",
      "texto_original": "Sakurada Reset",
      "rating": 7.42,
      "classificacao_etaria": "A14",
      "imagem_original": "https://animefire.plus/img/animes/sakurada-reset.webp",
      "imagem_pasta": "https://animefire.plus/img/animes/sakurada-reset/",
      "secao": "legendados",
      "pagina": 147,
      "total_episodios": 24,
      "link_video": "https://animefire.plus/video/sakurada-reset"
    },
    {
      "id": 3245,
      "nome": "Samurai Flamenco",
      "link": "https://animefire.plus/animes/samurai-flamenco-todos-os-episodios",
      "texto_original": "Samurai Flamenco",
      "rating": 6.92,
      "classificacao_etaria": "A16",
      "imagem_original": "https://animefire.plus/img/animes/samurai-flamenco.webp",
      "imagem_pasta": "https://animefire.plus/img/animes/samurai-flamenco/",
      "secao": "legendados",
      "pagina": 65,
      "total_episodios": 22,
      "link_video": "https://animefire.plus/video/samurai-flamenco"
    },
    {
      "id": 3246,
      "nome": "Samurai Girl Real Bout High School",
      "link": "https://animefire.plus/animes/samurai-girl-real-bout-high-school-todos-os-episodios",
      "texto_original": "Samurai Girl Real Bout High School",
      "rating": 6.01,
      "classificacao_etaria": "A14",
      "imagem_original": "https://animefire.plus/img/animes/samurai-girl-real-bout-high-school.webp",
      "imagem_pasta": "https://animefire.plus/img/animes/samurai-girl-real-bout-high-school/",
      "secao": "legendados",
      "pagina": 131,
      "total_episodios": 13,
      "link_video": "https://animefire.plus/video/samurai-girl-real-bout-high-school"
    },
    {
      "id": 3259,
      "nome": "Sasaki to Miyano (Dublado)",
      "link": "https://animefire.plus/animes/sasaki-to-miyano-dublado-todos-os-episodios",
      "texto_original": "Sasaki to Miyano (Dublado)",
      "rating": 8.19,
      "classificacao_etaria": "A14",
      "imagem_original": "https://animefire.plus/img/animes/sasaki-to-miyano.webp",
      "imagem_pasta": "https://animefire.plus/img/animes/sasaki-to-miyano/",
      "secao": "dublados,legendados",
      "pagina": 9,
      "total_episodios": 13,
      "link_video": "https://animefire.plus/video/sasaki-to-miyano-dublado"
    },
    {
      "id": 3264,
      "nome": "Sasami: Mahou Shoujo Club",
      "link": "https://animefire.plus/animes/sasami-mahou-shoujo-club-todos-os-episodios",
      "texto_original": "Sasami: Mahou Shoujo Club",
      "rating": 6.72,
      "classificacao_etaria": "A10",
      "imagem_original": "https://animefire.plus/img/animes/sasami-mahou-shoujo-club.webp",
      "imagem_pasta": "https://animefire.plus/img/animes/sasami-mahou-shoujo-club/",
      "secao": "legendados",
      "pagina": 121,
      "total_episodios": 13,
      "link_video": "https://animefire.plus/video/sasami-mahou-shoujo-club"
    },
    {
      "id": 3266,
      "nome": "Satsuriku no Tenshi",
      "link": "https://animefire.plus/animes/satsuriku-no-tenshi-todos-os-episodios",
      "texto_original": "Satsuriku no Tenshi",
      "rating": 6.9,
      "classificacao_etaria": "A16",
      "imagem_original": "https://animefire.plus/img/animes/satsuriku-no-tenshi.webp",
      "imagem_pasta": "https://animefire.plus/img/animes/satsuriku-no-tenshi/",
      "secao": "legendados",
      "pagina": 169,
      "total_episodios": 16,
      "link_video": "https://animefire.plus/video/satsuriku-no-tenshi"
    },
    {
      "id": 3268,
      "nome": "Sayonara Watashi no Cramer",
      "link": "https://animefire.plus/animes/sayonara-watashi-no-cramer-todos-os-episodios",
      "texto_original": "Sayonara Watashi no Cramer",
      "rating": 6.1,
      "classificacao_etaria": "A14",
      "imagem_original": "https://animefire.plus/img/animes/sayonara-watashi-no-cramer.webp",
      "imagem_pasta": "https://animefire.plus/img/animes/sayonara-watashi-no-cramer/",
      "secao": "legendados",
      "pagina": 46,
      "total_episodios": 13,
      "link_video": "https://animefire.plus/video/sayonara-watashi-no-cramer"
    },
    {
      "id": 3278,
      "nome": "Schoolgirl Strikers: Animation Channel",
      "link": "https://animefire.plus/animes/schoolgirl-strikers-animation-channel-todos-os-episodios",
      "texto_original": "Schoolgirl Strikers: Animation Channel",
      "rating": 5.72,
      "classificacao_etaria": "A14",
      "imagem_original": "https://animefire.plus/img/animes/schoolgirl-strikers-animation-channel.webp",
      "imagem_pasta": "https://animefire.plus/img/animes/schoolgirl-strikers-animation-channel/",
      "secao": "legendados",
      "pagina": 118,
      "total_episodios": 13,
      "link_video": "https://animefire.plus/video/schoolgirl-strikers-animation-channel"
    },
    {
      "id": 3280,
      "nome": "Scrapped Princess",
      "link": "https://animefire.plus/animes/scrapped-princess-todos-os-episodios",
      "texto_original": "Scrapped Princess",
      "rating": 7.46,
      "classificacao_etaria": "A14",
      "imagem_original": "https://animefire.plus/img/animes/scrapped-princess.webp",
      "imagem_pasta": "https://animefire.plus/img/animes/scrapped-princess/",
      "secao": "legendados",
      "pagina": 125,
      "total_episodios": 24,
      "link_video": "https://animefire.plus/video/scrapped-princess"
    },
    {
      "id": 3281,
      "nome": "SD Gundam World Heroes",
      "link": "https://animefire.plus/animes/sd-gundam-world-heroes-todos-os-episodios",
      "texto_original": "SD Gundam World Heroes",
      "rating": 5.69,
      "classificacao_etaria": "A10",
      "imagem_original": "https://animefire.plus/img/animes/sd-gundam-world-heroes.webp",
      "imagem_pasta": "https://animefire.plus/img/animes/sd-gundam-world-heroes/",
      "secao": "legendados",
      "pagina": 46,
      "total_episodios": 24,
      "link_video": "https://animefire.plus/video/sd-gundam-world-heroes"
    },
    {
      "id": 3283,
      "nome": "Seihou Tenshi Angel Links",
      "link": "https://animefire.plus/animes/seihou-tenshi-angel-links-todos-os-episodios",
      "texto_original": "Seihou Tenshi Angel Links",
      "rating": 6.01,
      "classificacao_etaria": "A14",
      "imagem_original": "https://animefire.plus/img/animes/seihou-tenshi-angel-links.webp",
      "imagem_pasta": "https://animefire.plus/img/animes/seihou-tenshi-angel-links/",
      "secao": "legendados",
      "pagina": 162,
      "total_episodios": 13,
      "link_video": "https://animefire.plus/video/seihou-tenshi-angel-links"
    },
    {
      "id": 3288,
      "nome": "Seikai no Senki",
      "link": "https://animefire.plus/animes/seikai-no-senki-todos-os-episodios",
      "texto_original": "Seikai no Senki",
      "rating": 7.73,
      "classificacao_etaria": "A14",
      "imagem_original": "https://animefire.plus/img/animes/seikai-no-senki.webp",
      "imagem_pasta": "https://animefire.plus/img/animes/seikai-no-senki/",
      "secao": "legendados",
      "pagina": 54,
      "total_episodios": 13,
      "link_video": "https://animefire.plus/video/seikai-no-senki"
    },
    {
      "id": 3296,
      "nome": "Seikimatsu Occult Gakuin",
      "link": "https://animefire.plus/animes/seikimatsu-occult-gakuin-todos-os-episodios",
      "texto_original": "Seikimatsu Occult Gakuin",
      "rating": 7.11,
      "classificacao_etaria": "A16",
      "imagem_original": "https://animefire.plus/img/animes/seikimatsu-occult-gakuin.webp",
      "imagem_pasta": "https://animefire.plus/img/animes/seikimatsu-occult-gakuin/",
      "secao": "legendados",
      "pagina": 175,
      "total_episodios": 13,
      "link_video": "https://animefire.plus/video/seikimatsu-occult-gakuin"
    },
    {
      "id": 3298,
      "nome": "Seikon no Qwaser",
      "link": "https://animefire.plus/animes/seikon-no-qwaser-todos-os-episodios",
      "texto_original": "Seikon no Qwaser",
      "rating": 6.34,
      "classificacao_etaria": "A18",
      "imagem_original": "https://animefire.plus/img/animes/seikon-no-qwaser.webp",
      "imagem_pasta": "https://animefire.plus/img/animes/seikon-no-qwaser/",
      "secao": "legendados",
      "pagina": 18,
      "total_episodios": 24,
      "link_video": "https://animefire.plus/video/seikon-no-qwaser"
    },
    {
      "id": 3305,
      "nome": "Seisen Cerberus: Ryuukoku no Fatalités",
      "link": "https://animefire.plus/animes/seisen-cerberus-ryuukoku-no-fatalites-todos-os-episodios",
      "texto_original": "Seisen Cerberus: Ryuukoku no Fatalités",
      "rating": 5.7,
      "classificacao_etaria": "A16",
      "imagem_original": "https://animefire.plus/img/animes/seisen-cerberus-ryuukoku-no-fatalites.webp",
      "imagem_pasta": "https://animefire.plus/img/animes/seisen-cerberus-ryuukoku-no-fatalites/",
      "secao": "legendados",
      "pagina": 89,
      "total_episodios": 13,
      "link_video": "https://animefire.plus/video/seisen-cerberus-ryuukoku-no-fatalites"
    },
    {
      "id": 3308,
      "nome": "Seishun Buta Yarou wa Bunny Girl Senpai no Yume wo Minai",
      "link": "https://animefire.plus/animes/seishun-buta-yarou-wa-bunny-girl-senpai-no-yume-wo-minai-todos-os-episodios",
      "texto_original": "Seishun Buta Yarou wa Bunny Girl Senpai no Yume wo Minai",
      "rating": 8.47,
      "classificacao_etaria": "A14",
      "imagem_original": "https://animefire.plus/img/animes/seishun-buta-yarou-wa-bunny-girl-senpai-no-yume-wo-minai.webp",
      "imagem_pasta": "https://animefire.plus/img/animes/seishun-buta-yarou-wa-bunny-girl-senpai-no-yume-wo-minai/",
      "secao": "legendados",
      "pagina": 146,
      "total_episodios": 13,
      "link_video": "https://animefire.plus/video/seishun-buta-yarou-wa-bunny-girl-senpai-no-yume-wo-minai"
    },
    {
      "id": 3313,
      "nome": "Seitokai Yakuindomo",
      "link": "https://animefire.plus/animes/seitokai-yakuindomo-todos-os-episodios",
      "texto_original": "Seitokai Yakuindomo",
      "rating": 7.66,
      "classificacao_etaria": "A16",
      "imagem_original": "https://animefire.plus/img/animes/seitokai-yakuindomo.webp",
      "imagem_pasta": "https://animefire.plus/img/animes/seitokai-yakuindomo/",
      "secao": "legendados",
      "pagina": 162,
      "total_episodios": 13,
      "link_video": "https://animefire.plus/video/seitokai-yakuindomo"
    },
    {
      "id": 3324,
      "nome": "Sekirei: Pure Engagement",
      "link": "https://animefire.plus/animes/sekirei-pure-engagement-todos-os-episodios",
      "texto_original": "Sekirei: Pure Engagement",
      "rating": 7.49,
      "classificacao_etaria": "A18",
      "imagem_original": "https://animefire.plus/img/animes/sekirei-pure-engagement.webp",
      "imagem_pasta": "https://animefire.plus/img/animes/sekirei-pure-engagement/",
      "secao": "legendados",
      "pagina": 154,
      "total_episodios": 14,
      "link_video": "https://animefire.plus/video/sekirei-pure-engagement"
    }
  ],
  "pagination": {
    "current_page": 30,
    "per_page": 20,
    "total_items": 826,
    "total_pages": 42,
    "has_next": true,
    "has_prev": true
  }
}
