{
  "message": "Animes com 13 a 24 episódios",
  "episode_range": {
    "min": 13,
    "max": 24
  },
  "data": [
    {
      "id": 3852,
      "nome": "To Heart",
      "link": "https://animefire.plus/animes/to-heart-todos-os-episodios",
      "texto_original": "To Heart",
      "rating": 6.65,
      "classificacao_etaria": "A14",
      "imagem_original": "https://animefire.plus/img/animes/to-heart.webp",
      "imagem_pasta": "https://animefire.plus/img/animes/to-heart/",
      "secao": "legendados",
      "pagina": 161,
      "total_episodios": 13,
      "link_video": "https://animefire.plus/video/to-heart"
    },
    {
      "id": 3854,
      "nome": "To Heart: Remember My Memories",
      "link": "https://animefire.plus/animes/to-heart-remember-my-memories-todos-os-episodios",
      "texto_original": "To Heart: Remember My Memories",
      "rating": 6.51,
      "classificacao_etaria": "A14",
      "imagem_original": "https://animefire.plus/img/animes/to-heart-remember-my-memories.webp",
      "imagem_pasta": "https://animefire.plus/img/animes/to-heart-remember-my-memories/",
      "secao": "legendados",
      "pagina": 137,
      "total_episodios": 13,
      "link_video": "https://animefire.plus/video/to-heart-remember-my-memories"
    },
    {
      "id": 3858,
      "nome": "Toaru Hikuushi E No Koiuta",
      "link": "https://animefire.plus/animes/toaru-hikuushi-e-no-koiuta-todos-os-episodios",
      "texto_original": "Toaru Hikuushi E No Koiuta",
      "rating": 7.24,
      "classificacao_etaria": "A14",
      "imagem_original": "https://animefire.plus/img/animes/toaru-hikuushi-e-no-koiuta.webp",
      "imagem_pasta": "https://animefire.plus/img/animes/toaru-hikuushi-e-no-koiuta/",
      "secao": "legendados",
      "pagina": 101,
      "total_episodios": 13,
      "link_video": "https://animefire.plus/video/toaru-hikuushi-e-no-koiuta"
    },
    {
      "id": 3860,
      "nome": "Toaru Kagaku no Railgun",
      "link": "https://animefire.plus/animes/toaru-kagaku-no-railgun-todos-os-episodios",
      "texto_original": "Toaru Kagaku no Railgun",
      "rating": 7.8,
      "classificacao_etaria": "A14",
      "imagem_original": "https://animefire.plus/img/animes/toaru-kagaku-no-railgun.webp",
      "imagem_pasta": "https://animefire.plus/img/animes/toaru-kagaku-no-railgun/",
      "secao": "legendados",
      "pagina": 138,
      "total_episodios": 24,
      "link_video": "https://animefire.plus/video/toaru-kagaku-no-railgun"
    },
    {
      "id": 3865,
      "nome": "Toaru Majutsu no Index (Dublado)",
      "link": "https://animefire.plus/animes/toaru-majutsu-no-index-dublado-todos-os-episodios",
      "texto_original": "Toaru Majutsu no Index (Dublado)",
      "rating": 7.49,
      "classificacao_etaria": "A16",
      "imagem_original": "https://animefire.plus/img/animes/toaru-majutsu-no-index.webp",
      "imagem_pasta": "https://animefire.plus/img/animes/toaru-majutsu-no-index/",
      "secao": "dublados,legendados",
      "pagina": 20,
      "total_episodios": 24,
      "link_video": "https://animefire.plus/video/toaru-majutsu-no-index-dublado"
    },
    {
      "id": 3866,
      "nome": "Toaru Majutsu no Index II",
      "link": "https://animefire.plus/animes/toaru-majutsu-no-index-ii-todos-os-episodios",
      "texto_original": "Toaru Majutsu no Index II",
      "rating": 7.74,
      "classificacao_etaria": "A16",
      "imagem_original": "https://animefire.plus/img/animes/toaru-majutsu-no-index-ii.webp",
      "imagem_pasta": "https://animefire.plus/img/animes/toaru-majutsu-no-index-ii/",
      "secao": "legendados",
      "pagina": 170,
      "total_episodios": 18,
      "link_video": "https://animefire.plus/video/toaru-majutsu-no-index-ii"
    },
    {
      "id": 3879,
      "nome": "Tokkou",
      "link": "https://animefire.plus/animes/tokkou-todos-os-episodios",
      "texto_original": "Tokkou",
      "rating": 6.65,
      "classificacao_etaria": "A16",
      "imagem_original": "https://animefire.plus/img/animes/tokkou.webp",
      "imagem_pasta": "https://animefire.plus/img/animes/tokkou/",
      "secao": "legendados",
      "pagina": 150,
      "total_episodios": 13,
      "link_video": "https://animefire.plus/video/tokkou"
    },
    {
      "id": 3888,
      "nome": "Tokyo Majin Gakuen Kenpucho: Tou",
      "link": "https://animefire.plus/animes/tokyo-majin-gakuen-kenpucho-tou-todos-os-episodios",
      "texto_original": "Tokyo Majin Gakuen Kenpucho: Tou",
      "rating": 7.23,
      "classificacao_etaria": "A16",
      "imagem_original": "https://animefire.plus/img/animes/tokyo-majin-gakuen-kenpucho-tou.webp",
      "imagem_pasta": "https://animefire.plus/img/animes/tokyo-majin-gakuen-kenpucho-tou/",
      "secao": "legendados",
      "pagina": 122,
      "total_episodios": 14,
      "link_video": "https://animefire.plus/video/tokyo-majin-gakuen-kenpucho-tou"
    },
    {
      "id": 3894,
      "nome": "Tokyo Revengers (Dublado)",
      "link": "https://animefire.plus/animes/tokyo-revengers-dublado-todos-os-episodios",
      "texto_original": "Tokyo Revengers (Dublado)",
      "rating": 7.85,
      "classificacao_etaria": "A16",
      "imagem_original": "https://animefire.plus/img/animes/tokyo-revengers.webp",
      "imagem_pasta": "https://animefire.plus/img/animes/tokyo-revengers/",
      "secao": "dublados,legendados",
      "pagina": 17,
      "total_episodios": 24,
      "link_video": "https://animefire.plus/video/tokyo-revengers-dublado"
    },
    {
      "id": 3896,
      "nome": "Tokyo Revengers: Tenjiku-hen",
      "link": "https://animefire.plus/animes/tokyo-revengers-tenjiku-hen-todos-os-episodios",
      "texto_original": "Tokyo Revengers: Tenjiku-hen",
      "rating": 7.82,
      "classificacao_etaria": "A16",
      "imagem_original": "https://animefire.plus/img/animes/tokyo-revengers-tenjiku-hen.webp",
      "imagem_pasta": "https://animefire.plus/img/animes/tokyo-revengers-tenjiku-hen/",
      "secao": "legendados",
      "pagina": 21,
      "total_episodios": 13,
      "link_video": "https://animefire.plus/video/tokyo-revengers-tenjiku-hen"
    },
    {
      "id": 3899,
      "nome": "Tomo-chan wa Onnanoko!",
      "link": "https://animefire.plus/animes/tomo-chan-wa-onnanoko-todos-os-episodios",
      "texto_original": "Tomo-chan wa Onnanoko!",
      "rating": 7.73,
      "classificacao_etaria": "A14",
      "imagem_original": "https://animefire.plus/img/animes/tomo-chan-wa-onnanoko.webp",
      "imagem_pasta": "https://animefire.plus/img/animes/tomo-chan-wa-onnanoko/",
      "secao": "legendados",
      "pagina": 27,
      "total_episodios": 13,
      "link_video": "https://animefire.plus/video/tomo-chan-wa-onnanoko"
    },
    {
      "id": 3904,
      "nome": "Tonari no Seki-kun",
      "link": "https://animefire.plus/animes/tonari-no-seki-kun-todos-os-episodios",
      "texto_original": "Tonari no Seki-kun",
      "rating": 7.62,
      "classificacao_etaria": null,
      "imagem_original": "https://animefire.plus/img/animes/tonari-no-seki-kun.webp",
      "imagem_pasta": "https://animefire.plus/img/animes/tonari-no-seki-kun/",
      "secao": "legendados",
      "pagina": 67,
      "total_episodios": 21,
      "link_video": "https://animefire.plus/video/tonari-no-seki-kun"
    },
    {
      "id": 3907,
      "nome": "Tonari no Youkai-san",
      "link": "https://animefire.plus/animes/tonari-no-youkai-san-todos-os-episodios",
      "texto_original": "Tonari no Youkai-san",
      "rating": 7.28,
      "classificacao_etaria": "A14",
      "imagem_original": "https://animefire.plus/img/animes/tonari-no-youkai-san.webp",
      "imagem_pasta": "https://animefire.plus/img/animes/tonari-no-youkai-san/",
      "secao": "legendados",
      "pagina": 14,
      "total_episodios": 13,
      "link_video": "https://animefire.plus/video/tonari-no-youkai-san"
    },
    {
      "id": 3909,
      "nome": "Tong Ling Fei",
      "link": "https://animefire.plus/animes/tong-ling-fei-todos-os-episodios",
      "texto_original": "Tong Ling Fei",
      "rating": 8.04,
      "classificacao_etaria": "A14",
      "imagem_original": "https://animefire.plus/img/animes/tong-ling-fei.webp",
      "imagem_pasta": "https://animefire.plus/img/animes/tong-ling-fei/",
      "secao": "legendados",
      "pagina": 128,
      "total_episodios": 16,
      "link_video": "https://animefire.plus/video/tong-ling-fei"
    },
    {
      "id": 3921,
      "nome": "Toriko",
      "link": "https://animefire.plus/animes/toriko-todos-os-episodios",
      "texto_original": "Toriko",
      "rating": 7.61,
      "classificacao_etaria": "A14",
      "imagem_original": "https://animefire.plus/img/animes/toriko.webp",
      "imagem_pasta": "https://animefire.plus/img/animes/toriko/",
      "secao": "legendados",
      "pagina": 74,
      "total_episodios": 18,
      "link_video": "https://animefire.plus/video/toriko"
    },
    {
      "id": 3939,
      "nome": "Tropical-Rouge! Precure",
      "link": "https://animefire.plus/animes/tropical-rouge-precure-todos-os-episodios",
      "texto_original": "Tropical-Rouge! Precure",
      "rating": 7.4,
      "classificacao_etaria": null,
      "imagem_original": "https://animefire.plus/img/animes/tropical-rouge-precure.webp",
      "imagem_pasta": "https://animefire.plus/img/animes/tropical-rouge-precure/",
      "secao": "legendados",
      "pagina": 48,
      "total_episodios": 18,
      "link_video": "https://animefire.plus/video/tropical-rouge-precure"
    },
    {
      "id": 3940,
      "nome": "True Tears",
      "link": "https://animefire.plus/animes/true-tears-todos-os-episodios",
      "texto_original": "True Tears",
      "rating": 7.45,
      "classificacao_etaria": "A14",
      "imagem_original": "https://animefire.plus/img/animes/true-tears.webp",
      "imagem_pasta": "https://animefire.plus/img/animes/true-tears/",
      "secao": "legendados",
      "pagina": 168,
      "total_episodios": 13,
      "link_video": "https://animefire.plus/video/true-tears"
    },
    {
      "id": 3957,
      "nome": "Tsukipro The Animation",
      "link": "https://animefire.plus/animes/tsukipro-the-animation-todos-os-episodios",
      "texto_original": "Tsukipro The Animation",
      "rating": 6.75,
      "classificacao_etaria": "A14",
      "imagem_original": "https://animefire.plus/img/animes/tsukipro-the-animation.webp",
      "imagem_pasta": "https://animefire.plus/img/animes/tsukipro-the-animation/",
      "secao": "legendados",
      "pagina": 74,
      "total_episodios": 13,
      "link_video": "https://animefire.plus/video/tsukipro-the-animation"
    },
    {
      "id": 3960,
      "nome": "Tsukiuta. The Animation 2",
      "link": "https://animefire.plus/animes/tsukiuta-the-animation-2-todos-os-episodios",
      "texto_original": "Tsukiuta. The Animation 2",
      "rating": null,
      "classificacao_etaria": "A14",
      "imagem_original": "https://animefire.plus/img/animes/tsukiuta-the-animation-2.webp",
      "imagem_pasta": "https://animefire.plus/img/animes/tsukiuta-the-animation-2/",
      "secao": "legendados",
      "pagina": 51,
      "total_episodios": 13,
      "link_video": "https://animefire.plus/video/tsukiuta-the-animation-2"
    },
    {
      "id": 3968,
      "nome": "Tsurune: Kazemai Koukou Kyuudoubu",
      "link": "https://animefire.plus/animes/tsurune-kazemai-koukou-kyuudoubu-todos-os-episodios",
      "texto_original": "Tsurune: Kazemai Koukou Kyuudoubu",
      "rating": 7.6,
      "classificacao_etaria": "A14",
      "imagem_original": "https://animefire.plus/img/animes/tsurune-kazemai-koukou-kyuudoubu.webp",
      "imagem_pasta": "https://animefire.plus/img/animes/tsurune-kazemai-koukou-kyuudoubu/",
      "secao": "legendados",
      "pagina": 107,
      "total_episodios": 13,
      "link_video": "https://animefire.plus/video/tsurune-kazemai-koukou-kyuudoubu"
    }
  ],
  "pagination": {
    "current_page": 36,
    "per_page": 20,
    "total_items": 826,
    "total_pages": 42,
    "has_next": true,
    "has_prev": true
  }
}
