{
  "message": "Animes com 13 a 24 episódios",
  "episode_range": {
    "min": 13,
    "max": 24
  },
  "data": [
    {
      "id": 2985,
      "nome": "Pingu in the City",
      "link": "https://animefire.plus/animes/pingu-in-the-city-todos-os-episodios",
      "texto_original": "Pingu in the City",
      "rating": 8.45,
      "classificacao_etaria": null,
      "imagem_original": "https://animefire.plus/img/animes/pingu-in-the-city.webp",
      "imagem_pasta": "https://animefire.plus/img/animes/pingu-in-the-city/",
      "secao": "legendados",
      "pagina": 126,
      "total_episodios": 15,
      "link_video": "https://animefire.plus/video/pingu-in-the-city"
    },
    {
      "id": 2991,
      "nome": "Plastic Memories",
      "link": "https://animefire.plus/animes/plastic-memories-todos-os-episodios",
      "texto_original": "Plastic Memories",
      "rating": 7.97,
      "classificacao_etaria": "A14",
      "imagem_original": "https://animefire.plus/img/animes/plastic-memories.webp",
      "imagem_pasta": "https://animefire.plus/img/animes/plastic-memories/",
      "secao": "legendados",
      "pagina": 79,
      "total_episodios": 13,
      "link_video": "https://animefire.plus/video/plastic-memories"
    },
    {
      "id": 2993,
      "nome": "Platinum End (Dublado)",
      "link": "https://animefire.plus/animes/platinum-end-dublado-todos-os-episodios",
      "texto_original": "Platinum End (Dublado)",
      "rating": 6.02,
      "classificacao_etaria": "A16",
      "imagem_original": "https://animefire.plus/img/animes/platinum-end.webp",
      "imagem_pasta": "https://animefire.plus/img/animes/platinum-end/",
      "secao": "dublados,legendados",
      "pagina": 14,
      "total_episodios": 24,
      "link_video": "https://animefire.plus/video/platinum-end-dublado"
    },
    {
      "id": 2994,
      "nome": "Plunderer (Dublado)",
      "link": "https://animefire.plus/animes/plunderer-dublado-todos-os-episodios",
      "texto_original": "Plunderer (Dublado)",
      "rating": 6.56,
      "classificacao_etaria": "A14",
      "imagem_original": "https://animefire.plus/img/animes/plunderer.webp",
      "imagem_pasta": "https://animefire.plus/img/animes/plunderer/",
      "secao": "dublados,legendados",
      "pagina": 14,
      "total_episodios": 24,
      "link_video": "https://animefire.plus/video/plunderer-dublado"
    },
    {
      "id": 3019,
      "nome": "Power Stone",
      "link": "https://animefire.plus/animes/power-stone-todos-os-episodios",
      "texto_original": "Power Stone",
      "rating": 6.54,
      "classificacao_etaria": "A10",
      "imagem_original": "https://animefire.plus/img/animes/power-stone.webp",
      "imagem_pasta": "https://animefire.plus/img/animes/power-stone/",
      "secao": "legendados",
      "pagina": 105,
      "total_episodios": 18,
      "link_video": "https://animefire.plus/video/power-stone"
    },
    {
      "id": 3044,
      "nome": "Pugyuru",
      "link": "https://animefire.plus/animes/pugyuru-todos-os-episodios",
      "texto_original": "Pugyuru",
      "rating": 5.79,
      "classificacao_etaria": "A14",
      "imagem_original": "https://animefire.plus/img/animes/pugyuru.webp",
      "imagem_pasta": "https://animefire.plus/img/animes/pugyuru/",
      "secao": "legendados",
      "pagina": 169,
      "total_episodios": 13,
      "link_video": "https://animefire.plus/video/pugyuru"
    },
    {
      "id": 3050,
      "nome": "Pupipo!",
      "link": "https://animefire.plus/animes/pupipo-todos-os-episodios",
      "texto_original": "Pupipo!",
      "rating": 6.83,
      "classificacao_etaria": "A10",
      "imagem_original": "https://animefire.plus/img/animes/pupipo.webp",
      "imagem_pasta": "https://animefire.plus/img/animes/pupipo/",
      "secao": "legendados",
      "pagina": 79,
      "total_episodios": 14,
      "link_video": "https://animefire.plus/video/pupipo"
    },
    {
      "id": 3063,
      "nome": "Radiant (Dublado)",
      "link": "https://animefire.plus/animes/radiant-dublado-todos-os-episodios",
      "texto_original": "Radiant (Dublado)",
      "rating": 6.88,
      "classificacao_etaria": "A14",
      "imagem_original": "https://animefire.plus/img/animes/radiant.webp",
      "imagem_pasta": "https://animefire.plus/img/animes/radiant/",
      "secao": "dublados,legendados",
      "pagina": 18,
      "total_episodios": 21,
      "link_video": "https://animefire.plus/video/radiant-dublado"
    },
    {
      "id": 3064,
      "nome": "Radiant 2nd Season",
      "link": "https://animefire.plus/animes/radiant-2nd-season-todos-os-episodios",
      "texto_original": "Radiant 2nd Season",
      "rating": 7.63,
      "classificacao_etaria": "A14",
      "imagem_original": "https://animefire.plus/img/animes/radiant-2nd-season.webp",
      "imagem_pasta": "https://animefire.plus/img/animes/radiant-2nd-season/",
      "secao": "legendados",
      "pagina": 111,
      "total_episodios": 21,
      "link_video": "https://animefire.plus/video/radiant-2nd-season"
    },
    {
      "id": 3065,
      "nome": "Radiant 2nd Season (Dublado)",
      "link": "https://animefire.plus/animes/radiant-2-dublado-todos-os-episodios",
      "texto_original": "Radiant 2nd Season (Dublado)",
      "rating": 7.62,
      "classificacao_etaria": "A14",
      "imagem_original": "https://animefire.plus/img/animes/radiant-2.webp",
      "imagem_pasta": "https://animefire.plus/img/animes/radiant-2/",
      "secao": "dublados",
      "pagina": 18,
      "total_episodios": 21,
      "link_video": "https://animefire.plus/video/radiant-2-dublado"
    },
    {
      "id": 3066,
      "nome": "Ragna Crimson (Dublado)",
      "link": "https://animefire.plus/animes/ragna-crimson-dublado-todos-os-episodios",
      "texto_original": "Ragna Crimson (Dublado)",
      "rating": 7.55,
      "classificacao_etaria": "A14",
      "imagem_original": "https://animefire.plus/img/animes/ragna-crimson.webp",
      "imagem_pasta": "https://animefire.plus/img/animes/ragna-crimson/",
      "secao": "dublados,legendados,lancamentos",
      "pagina": 5,
      "total_episodios": 24,
      "link_video": "https://animefire.plus/video/ragna-crimson-dublado"
    },
    {
      "id": 3082,
      "nome": "Ray The Animation",
      "link": "https://animefire.plus/animes/ray-the-animation-todos-os-episodios",
      "texto_original": "Ray The Animation",
      "rating": 6.72,
      "classificacao_etaria": "A14",
      "imagem_original": "https://animefire.plus/img/animes/ray-the-animation.webp",
      "imagem_pasta": "https://animefire.plus/img/animes/ray-the-animation/",
      "secao": "legendados",
      "pagina": 131,
      "total_episodios": 13,
      "link_video": "https://animefire.plus/video/ray-the-animation"
    },
    {
      "id": 3088,
      "nome": "Re:Creators",
      "link": "https://animefire.plus/animes/re-creators-todos-os-episodios",
      "texto_original": "Re:Creators",
      "rating": 7.64,
      "classificacao_etaria": "A16",
      "imagem_original": "https://animefire.plus/img/animes/re-creators.webp",
      "imagem_pasta": "https://animefire.plus/img/animes/re-creators/",
      "secao": "legendados",
      "pagina": 121,
      "total_episodios": 22,
      "link_video": "https://animefire.plus/video/re-creators"
    },
    {
      "id": 3093,
      "nome": "Re:Zero kara Hajimeru Isekai Seikatsu 2nd Season (Dublado)",
      "link": "https://animefire.plus/animes/re-zero-kara-hajimeru-isekai-seikatsu-2nd-season-dublado-todos-os-episodios",
      "texto_original": "Re:Zero kara Hajimeru Isekai Seikatsu 2nd Season (Dublado)",
      "rating": 8.43,
      "classificacao_etaria": "A16",
      "imagem_original": "https://animefire.plus/img/animes/re-zero-kara-hajimeru-isekai-seikatsu-2nd-season.webp",
      "imagem_pasta": "https://animefire.plus/img/animes/re-zero-kara-hajimeru-isekai-seikatsu-2nd-season/",
      "secao": "dublados,legendados",
      "pagina": 16,
      "total_episodios": 13,
      "link_video": "https://animefire.plus/video/re-zero-kara-hajimeru-isekai-seikatsu-2nd-season-dublado"
    },
    {
      "id": 3095,
      "nome": "Re:Zero kara Hajimeru Isekai Seikatsu 3rd Season",
      "link": "https://animefire.plus/animes/re-zero-kara-hajimeru-isekai-seikatsu-3rd-season-todos-os-episodios",
      "texto_original": "Re:Zero kara Hajimeru Isekai Seikatsu 3rd Season",
      "rating": 8.45,
      "classificacao_etaria": "A16",
      "imagem_original": "https://animefire.plus/img/animes/re-zero-kara-hajimeru-isekai-seikatsu-3rd-season.webp",
      "imagem_pasta": "https://animefire.plus/img/animes/re-zero-kara-hajimeru-isekai-seikatsu-3rd-season/",
      "secao": "legendados",
      "pagina": 11,
      "total_episodios": 16,
      "link_video": "https://animefire.plus/video/re-zero-kara-hajimeru-isekai-seikatsu-3rd-season"
    },
    {
      "id": 3096,
      "nome": "Re:Zero kara Hajimeru Isekai Seikatsu: Shin Henshuu-ban",
      "link": "https://animefire.plus/animes/re-zero-kara-hajimeru-isekai-seikatsu-shin-henshuu-ban-todos-os-episodios",
      "texto_original": "Re:Zero kara Hajimeru Isekai Seikatsu: Shin Henshuu-ban",
      "rating": null,
      "classificacao_etaria": null,
      "imagem_original": "https://animefire.plus/img/animes/re-zero-kara-hajimeru-isekai-seikatsu-shin-henshuu-ban.webp",
      "imagem_pasta": "https://animefire.plus/img/animes/re-zero-kara-hajimeru-isekai-seikatsu-shin-henshuu-ban/",
      "secao": "legendados,lancamentos",
      "pagina": 93,
      "total_episodios": 13,
      "link_video": "https://animefire.plus/video/re-zero-kara-hajimeru-isekai-seikatsu-shin-henshuu-ban"
    },
    {
      "id": 3101,
      "nome": "Red Garden",
      "link": "https://animefire.plus/animes/red-garden-todos-os-episodios",
      "texto_original": "Red Garden",
      "rating": 7.15,
      "classificacao_etaria": "A16",
      "imagem_original": "https://animefire.plus/img/animes/red-garden.webp",
      "imagem_pasta": "https://animefire.plus/img/animes/red-garden/",
      "secao": "legendados",
      "pagina": 131,
      "total_episodios": 22,
      "link_video": "https://animefire.plus/video/red-garden"
    },
    {
      "id": 3105,
      "nome": "Rekishi ni Nokoru Akujo ni Naru zo",
      "link": "https://animefire.plus/animes/rekishi-ni-nokoru-akujo-ni-naru-zo-todos-os-episodios",
      "texto_original": "Rekishi ni Nokoru Akujo ni Naru zo",
      "rating": 7.33,
      "classificacao_etaria": "A14",
      "imagem_original": "https://animefire.plus/img/animes/rekishi-ni-nokoru-akujo-ni-naru-zo.webp",
      "imagem_pasta": "https://animefire.plus/img/animes/rekishi-ni-nokoru-akujo-ni-naru-zo/",
      "secao": "legendados",
      "pagina": 11,
      "total_episodios": 13,
      "link_video": "https://animefire.plus/video/rekishi-ni-nokoru-akujo-ni-naru-zo"
    },
    {
      "id": 3109,
      "nome": "ReLIFE",
      "link": "https://animefire.plus/animes/relife-todos-os-episodios",
      "texto_original": "ReLIFE",
      "rating": 8.09,
      "classificacao_etaria": "A14",
      "imagem_original": "https://animefire.plus/img/animes/relife.webp",
      "imagem_pasta": "https://animefire.plus/img/animes/relife/",
      "secao": "legendados",
      "pagina": 79,
      "total_episodios": 13,
      "link_video": "https://animefire.plus/video/relife"
    },
    {
      "id": 3115,
      "nome": "Rental Magica",
      "link": "https://animefire.plus/animes/rental-magica-todos-os-episodios",
      "texto_original": "Rental Magica",
      "rating": 7.12,
      "classificacao_etaria": "A14",
      "imagem_original": "https://animefire.plus/img/animes/rental-magica.webp",
      "imagem_pasta": "https://animefire.plus/img/animes/rental-magica/",
      "secao": "legendados",
      "pagina": 141,
      "total_episodios": 24,
      "link_video": "https://animefire.plus/video/rental-magica"
    }
  ],
  "pagination": {
    "current_page": 28,
    "per_page": 20,
    "total_items": 826,
    "total_pages": 42,
    "has_next": true,
    "has_prev": true
  }
}
