{
  "message": "Animes com 2 a 12 episódios",
  "episode_range": {
    "min": 2,
    "max": 12
  },
  "data": [
    {
      "id": 281,
      "nome": "Ayaka",
      "link": "https://animefire.plus/animes/ayaka-todos-os-episodios",
      "texto_original": "Ayaka",
      "rating": 6.43,
      "classificacao_etaria": "A14",
      "imagem_original": "https://animefire.plus/img/animes/ayaka.jpg",
      "imagem_pasta": "https://animefire.plus/img/animes/ayaka/",
      "secao": "legendados",
      "pagina": 23,
      "total_episodios": 12,
      "link_video": "https://animefire.plus/video/ayaka"
    },
    {
      "id": 282,
      "nome": "Ayakashi",
      "link": "https://animefire.plus/animes/ayakashi-todos-os-episodios",
      "texto_original": "Ayakashi",
      "rating": 6.43,
      "classificacao_etaria": "A16",
      "imagem_original": "https://animefire.plus/img/animes/ayakashi.webp",
      "imagem_pasta": "https://animefire.plus/img/animes/ayakashi/",
      "secao": "legendados",
      "pagina": 145,
      "total_episodios": 12,
      "link_video": "https://animefire.plus/video/ayakashi"
    },
    {
      "id": 283,
      "nome": "Ayakashi Triangle",
      "link": "https://animefire.plus/animes/ayakashi-triangle-todos-os-episodios",
      "texto_original": "Ayakashi Triangle",
      "rating": 6.45,
      "classificacao_etaria": "A18",
      "imagem_original": "https://animefire.plus/img/animes/ayakashi-triangle.webp",
      "imagem_pasta": "https://animefire.plus/img/animes/ayakashi-triangle/",
      "secao": "legendados",
      "pagina": 26,
      "total_episodios": 12,
      "link_video": "https://animefire.plus/video/ayakashi-triangle"
    },
    {
      "id": 284,
      "nome": "Ayakashi: Japanese Classic Horror",
      "link": "https://animefire.plus/animes/ayakashi-japanese-classic-horror-todos-os-episodios",
      "texto_original": "Ayakashi: Japanese Classic Horror",
      "rating": 7.52,
      "classificacao_etaria": "A16",
      "imagem_original": "https://animefire.plus/img/animes/ayakashi-japanese-classic-horror.webp",
      "imagem_pasta": "https://animefire.plus/img/animes/ayakashi-japanese-classic-horror/",
      "secao": "legendados",
      "pagina": 154,
      "total_episodios": 11,
      "link_video": "https://animefire.plus/video/ayakashi-japanese-classic-horror"
    },
    {
      "id": 287,
      "nome": "Azur Lane (Dublado)",
      "link": "https://animefire.plus/animes/azur-lane-dublado-todos-os-episodios",
      "texto_original": "Azur Lane (Dublado)",
      "rating": 6.28,
      "classificacao_etaria": "A18",
      "imagem_original": "https://animefire.plus/img/animes/azur-lane.webp",
      "imagem_pasta": "https://animefire.plus/img/animes/azur-lane/",
      "secao": "dublados,legendados",
      "pagina": 18,
      "total_episodios": 12,
      "link_video": "https://animefire.plus/video/azur-lane-dublado"
    },
    {
      "id": 288,
      "nome": "Azur Lane: Bisoku Zenshin!",
      "link": "https://animefire.plus/animes/azur-lane-bisoku-zenshin-todos-os-episodios",
      "texto_original": "Azur Lane: Bisoku Zenshin!",
      "rating": 7,
      "classificacao_etaria": "A14",
      "imagem_original": "https://animefire.plus/img/animes/azur-lane-bisoku-zenshin.webp",
      "imagem_pasta": "https://animefire.plus/img/animes/azur-lane-bisoku-zenshin/",
      "secao": "legendados",
      "pagina": 48,
      "total_episodios": 12,
      "link_video": "https://animefire.plus/video/azur-lane-bisoku-zenshin"
    },
    {
      "id": 290,
      "nome": "B-gata H-kei",
      "link": "https://animefire.plus/animes/b-gata-h-kei-todos-os-episodios",
      "texto_original": "B-gata H-kei",
      "rating": 7.06,
      "classificacao_etaria": "A18",
      "imagem_original": "https://animefire.plus/img/animes/b-gata-h-kei.webp",
      "imagem_pasta": "https://animefire.plus/img/animes/b-gata-h-kei/",
      "secao": "legendados",
      "pagina": 150,
      "total_episodios": 11,
      "link_video": "https://animefire.plus/video/b-gata-h-kei"
    },
    {
      "id": 291,
      "nome": "B-Project: Kodou*Ambitious",
      "link": "https://animefire.plus/animes/b-project-kodou-ambitious-todos-os-episodios",
      "texto_original": "B-Project: Kodou*Ambitious",
      "rating": 6.75,
      "classificacao_etaria": "A14",
      "imagem_original": "https://animefire.plus/img/animes/b-project-kodou-ambitious.webp",
      "imagem_pasta": "https://animefire.plus/img/animes/b-project-kodou-ambitious/",
      "secao": "legendados",
      "pagina": 122,
      "total_episodios": 11,
      "link_video": "https://animefire.plus/video/b-project-kodou-ambitious"
    },
    {
      "id": 292,
      "nome": "B-Project: Netsuretsu*Love Call",
      "link": "https://animefire.plus/animes/b-project-netsuretsu-love-call-todos-os-episodios",
      "texto_original": "B-Project: Netsuretsu*Love Call",
      "rating": 6.3,
      "classificacao_etaria": "A14",
      "imagem_original": "https://animefire.plus/img/animes/b-project-netsuretsu-love-call.webp",
      "imagem_pasta": "https://animefire.plus/img/animes/b-project-netsuretsu-love-call/",
      "secao": "legendados",
      "pagina": 19,
      "total_episodios": 12,
      "link_video": "https://animefire.plus/video/b-project-netsuretsu-love-call"
    },
    {
      "id": 293,
      "nome": "B-Project: Zecchou*Emotion",
      "link": "https://animefire.plus/animes/b-project-zecchou-emotion-todos-os-episodios",
      "texto_original": "B-Project: Zecchou*Emotion",
      "rating": 6.71,
      "classificacao_etaria": "A14",
      "imagem_original": "https://animefire.plus/img/animes/b-project-zecchou-emotion.webp",
      "imagem_pasta": "https://animefire.plus/img/animes/b-project-zecchou-emotion/",
      "secao": "legendados",
      "pagina": 115,
      "total_episodios": 12,
      "link_video": "https://animefire.plus/video/b-project-zecchou-emotion"
    },
    {
      "id": 294,
      "nome": "B: The Beginning (Dublado)",
      "link": "https://animefire.plus/animes/b-the-beginning-dublado-todos-os-episodios",
      "texto_original": "B: The Beginning (Dublado)",
      "rating": 7.49,
      "classificacao_etaria": "A16",
      "imagem_original": "https://animefire.plus/img/animes/b-the-beginning.webp",
      "imagem_pasta": "https://animefire.plus/img/animes/b-the-beginning/",
      "secao": "dublados,legendados",
      "pagina": 24,
      "total_episodios": 12,
      "link_video": "https://animefire.plus/video/b-the-beginning-dublado"
    },
    {
      "id": 295,
      "nome": "B: The Beginning Succession (Dublado)",
      "link": "https://animefire.plus/animes/b-the-beginning-succession-dublado-todos-os-episodios",
      "texto_original": "B: The Beginning Succession (Dublado)",
      "rating": 6.2,
      "classificacao_etaria": "A18",
      "imagem_original": "https://animefire.plus/img/animes/b-the-beginning-succession.webp",
      "imagem_pasta": "https://animefire.plus/img/animes/b-the-beginning-succession/",
      "secao": "dublados,legendados",
      "pagina": 18,
      "total_episodios": 6,
      "link_video": "https://animefire.plus/video/b-the-beginning-succession-dublado"
    },
    {
      "id": 296,
      "nome": "Babanbabanban Vampire",
      "link": "https://animefire.plus/animes/babanbabanban-vampire-todos-os-episodios",
      "texto_original": "Babanbabanban Vampire",
      "rating": null,
      "classificacao_etaria": "A14",
      "imagem_original": "https://animefire.plus/img/animes/babanbabanban-vampire.webp",
      "imagem_pasta": "https://animefire.plus/img/animes/babanbabanban-vampire/",
      "secao": "legendados",
      "pagina": 7,
      "total_episodios": 12,
      "link_video": "https://animefire.plus/video/babanbabanban-vampire"
    },
    {
      "id": 299,
      "nome": "Baby Steps 2nd Season",
      "link": "https://animefire.plus/animes/baby-steps-2nd-season-todos-os-episodios",
      "texto_original": "Baby Steps 2nd Season",
      "rating": 8.12,
      "classificacao_etaria": "A14",
      "imagem_original": "https://animefire.plus/img/animes/baby-steps-2nd-season.webp",
      "imagem_pasta": "https://animefire.plus/img/animes/baby-steps-2nd-season/",
      "secao": "legendados",
      "pagina": 90,
      "total_episodios": 4,
      "link_video": "https://animefire.plus/video/baby-steps-2nd-season"
    },
    {
      "id": 300,
      "nome": "Babylon",
      "link": "https://animefire.plus/animes/babylon-todos-os-episodios",
      "texto_original": "Babylon",
      "rating": 6.82,
      "classificacao_etaria": "A16",
      "imagem_original": "https://animefire.plus/img/animes/babylon.webp",
      "imagem_pasta": "https://animefire.plus/img/animes/babylon/",
      "secao": "legendados",
      "pagina": 110,
      "total_episodios": 3,
      "link_video": "https://animefire.plus/video/babylon"
    },
    {
      "id": 303,
      "nome": "Back Street Girls: Gokudolls (Dublado)",
      "link": "https://animefire.plus/animes/back-street-girls-gokudolls-dublado-todos-os-episodios",
      "texto_original": "Back Street Girls: Gokudolls (Dublado)",
      "rating": 6.93,
      "classificacao_etaria": "A16",
      "imagem_original": "https://animefire.plus/img/animes/back-street-girls-gokudolls.webp",
      "imagem_pasta": "https://animefire.plus/img/animes/back-street-girls-gokudolls/",
      "secao": "dublados,legendados",
      "pagina": 24,
      "total_episodios": 10,
      "link_video": "https://animefire.plus/video/back-street-girls-gokudolls-dublado"
    },
    {
      "id": 304,
      "nome": "Bad Girl",
      "link": "https://animefire.plus/animes/bad-girl-todos-os-episodios",
      "texto_original": "Bad Girl",
      "rating": 6.8,
      "classificacao_etaria": null,
      "imagem_original": "https://animefire.plus/img/animes/bad-girl.webp",
      "imagem_pasta": "https://animefire.plus/img/animes/bad-girl/",
      "secao": "legendados,lancamentos",
      "pagina": 2,
      "total_episodios": 5,
      "link_video": "https://animefire.plus/video/bad-girl"
    },
    {
      "id": 307,
      "nome": "Baka to Test to Shoukanjuu Ni!",
      "link": "https://animefire.plus/animes/baka-to-test-to-shoukanjuu-ni-todos-os-episodios",
      "texto_original": "Baka to Test to Shoukanjuu Ni!",
      "rating": 7.87,
      "classificacao_etaria": "A14",
      "imagem_original": "https://animefire.plus/img/animes/baka-to-test-to-shoukanjuu-ni.webp",
      "imagem_pasta": "https://animefire.plus/img/animes/baka-to-test-to-shoukanjuu-ni/",
      "secao": "legendados",
      "pagina": 142,
      "total_episodios": 12,
      "link_video": "https://animefire.plus/video/baka-to-test-to-shoukanjuu-ni"
    },
    {
      "id": 311,
      "nome": "Bakugan Battle Brawlers: Gundalian Invaders",
      "link": "https://animefire.plus/animes/bakugan-battle-brawlers-gundalian-invaders-todos-os-episodios",
      "texto_original": "Bakugan Battle Brawlers: Gundalian Invaders",
      "rating": 6.32,
      "classificacao_etaria": null,
      "imagem_original": "https://animefire.plus/img/animes/bakugan-battle-brawlers-gundalian-invaders.webp",
      "imagem_pasta": "https://animefire.plus/img/animes/bakugan-battle-brawlers-gundalian-invaders/",
      "secao": "legendados",
      "pagina": 130,
      "total_episodios": 4,
      "link_video": "https://animefire.plus/video/bakugan-battle-brawlers-gundalian-invaders"
    },
    {
      "id": 315,
      "nome": "Bakumatsu",
      "link": "https://animefire.plus/animes/bakumatsu-todos-os-episodios",
      "texto_original": "Bakumatsu",
      "rating": 5.89,
      "classificacao_etaria": "A14",
      "imagem_original": "https://animefire.plus/img/animes/bakumatsu.webp",
      "imagem_pasta": "https://animefire.plus/img/animes/bakumatsu/",
      "secao": "legendados",
      "pagina": 152,
      "total_episodios": 12,
      "link_video": "https://animefire.plus/video/bakumatsu"
    }
  ],
  "pagination": {
    "current_page": 8,
    "per_page": 20,
    "total_items": 2189,
    "total_pages": 110,
    "has_next": true,
    "has_prev": true
  }
}
