{
  "message": "Animes com 2 a 12 episódios",
  "episode_range": {
    "min": 2,
    "max": 12
  },
  "data": [
    {
      "id": 3496,
      "nome": "Shonan Junai Gumi!",
      "link": "https://animefire.plus/animes/shonan-junai-gumi-todos-os-episodios",
      "texto_original": "Shonan Junai Gumi!",
      "rating": 7.49,
      "classificacao_etaria": "A18",
      "imagem_original": "https://animefire.plus/img/animes/shonan-junai-gumi.webp",
      "imagem_pasta": "https://animefire.plus/img/animes/shonan-junai-gumi/",
      "secao": "legendados",
      "pagina": 54,
      "total_episodios": 5,
      "link_video": "https://animefire.plus/video/shonan-junai-gumi"
    },
    {
      "id": 3499,
      "nome": "Shoujo Shuumatsu Ryokou",
      "link": "https://animefire.plus/animes/shoujo-shuumatsu-ryokou-todos-os-episodios",
      "texto_original": "Shoujo Shuumatsu Ryokou",
      "rating": 8.19,
      "classificacao_etaria": "A14",
      "imagem_original": "https://animefire.plus/img/animes/shoujo-shuumatsu-ryokou.webp",
      "imagem_pasta": "https://animefire.plus/img/animes/shoujo-shuumatsu-ryokou/",
      "secao": "legendados",
      "pagina": 145,
      "total_episodios": 12,
      "link_video": "https://animefire.plus/video/shoujo-shuumatsu-ryokou"
    },
    {
      "id": 3500,
      "nome": "Shoujo-tachi wa Kouya wo Mezasu",
      "link": "https://animefire.plus/animes/shoujo-tachi-wa-kouya-wo-mezasu-todos-os-episodios",
      "texto_original": "Shoujo-tachi wa Kouya wo Mezasu",
      "rating": 6.38,
      "classificacao_etaria": "A14",
      "imagem_original": "https://animefire.plus/img/animes/shoujo-tachi-wa-kouya-wo-mezasu.webp",
      "imagem_pasta": "https://animefire.plus/img/animes/shoujo-tachi-wa-kouya-wo-mezasu/",
      "secao": "legendados",
      "pagina": 173,
      "total_episodios": 3,
      "link_video": "https://animefire.plus/video/shoujo-tachi-wa-kouya-wo-mezasu"
    },
    {
      "id": 3501,
      "nome": "Shoujo☆Kageki Revue Starlight",
      "link": "https://animefire.plus/animes/shoujo-kageki-revue-starlight-todos-os-episodios",
      "texto_original": "Shoujo☆Kageki Revue Starlight",
      "rating": 7.68,
      "classificacao_etaria": "A14",
      "imagem_original": "https://animefire.plus/img/animes/shoujo-kageki-revue-starlight.webp",
      "imagem_pasta": "https://animefire.plus/img/animes/shoujo-kageki-revue-starlight/",
      "secao": "legendados",
      "pagina": 169,
      "total_episodios": 12,
      "link_video": "https://animefire.plus/video/shoujo-kageki-revue-starlight"
    },
    {
      "id": 3503,
      "nome": "Shoumetsu Toshi",
      "link": "https://animefire.plus/animes/shoumetsu-toshi-todos-os-episodios",
      "texto_original": "Shoumetsu Toshi",
      "rating": 5.46,
      "classificacao_etaria": "A14",
      "imagem_original": "https://animefire.plus/img/animes/shoumetsu-toshi.webp",
      "imagem_pasta": "https://animefire.plus/img/animes/shoumetsu-toshi/",
      "secao": "legendados",
      "pagina": 125,
      "total_episodios": 7,
      "link_video": "https://animefire.plus/video/shoumetsu-toshi"
    },
    {
      "id": 3505,
      "nome": "Shounen Maid",
      "link": "https://animefire.plus/animes/shounen-maid-todos-os-episodios",
      "texto_original": "Shounen Maid",
      "rating": 7.39,
      "classificacao_etaria": "A14",
      "imagem_original": "https://animefire.plus/img/animes/shounen-maid.webp",
      "imagem_pasta": "https://animefire.plus/img/animes/shounen-maid/",
      "secao": "legendados",
      "pagina": 148,
      "total_episodios": 12,
      "link_video": "https://animefire.plus/video/shounen-maid"
    },
    {
      "id": 3508,
      "nome": "Shoushimin Series",
      "link": "https://animefire.plus/animes/shoushimin-series-todos-os-episodios",
      "texto_original": "Shoushimin Series",
      "rating": 7.34,
      "classificacao_etaria": "A14",
      "imagem_original": "https://animefire.plus/img/animes/shoushimin-series.webp",
      "imagem_pasta": "https://animefire.plus/img/animes/shoushimin-series/",
      "secao": "legendados",
      "pagina": 13,
      "total_episodios": 10,
      "link_video": "https://animefire.plus/video/shoushimin-series"
    },
    {
      "id": 3509,
      "nome": "Shoushimin Series 2nd Season",
      "link": "https://animefire.plus/animes/shoushimin-series-2nd-season-todos-os-episodios",
      "texto_original": "Shoushimin Series 2nd Season",
      "rating": 8.06,
      "classificacao_etaria": "A14",
      "imagem_original": "https://animefire.plus/img/animes/shoushimin-series-2nd-season.webp",
      "imagem_pasta": "https://animefire.plus/img/animes/shoushimin-series-2nd-season/",
      "secao": "legendados",
      "pagina": 5,
      "total_episodios": 12,
      "link_video": "https://animefire.plus/video/shoushimin-series-2nd-season"
    },
    {
      "id": 3511,
      "nome": "Shouwa Genroku Rakugo Shinjuu: Sukeroku Futatabi-hen",
      "link": "https://animefire.plus/animes/shouwa-genroku-rakugo-shinjuu-sukeroku-futatabi-hen-todos-os-episodios",
      "texto_original": "Shouwa Genroku Rakugo Shinjuu: Sukeroku Futatabi-hen",
      "rating": 8.81,
      "classificacao_etaria": "A14",
      "imagem_original": "https://animefire.plus/img/animes/shouwa-genroku-rakugo-shinjuu-sukeroku-futatabi-hen.webp",
      "imagem_pasta": "https://animefire.plus/img/animes/shouwa-genroku-rakugo-shinjuu-sukeroku-futatabi-hen/",
      "secao": "legendados",
      "pagina": 65,
      "total_episodios": 12,
      "link_video": "https://animefire.plus/video/shouwa-genroku-rakugo-shinjuu-sukeroku-futatabi-hen"
    },
    {
      "id": 3512,
      "nome": "Shouxi Yu Ling Shi",
      "link": "https://animefire.plus/animes/shouxi-yu-ling-shi-todos-os-episodios",
      "texto_original": "Shouxi Yu Ling Shi",
      "rating": 6.52,
      "classificacao_etaria": "A14",
      "imagem_original": "https://animefire.plus/img/animes/shouxi-yu-ling-shi.webp",
      "imagem_pasta": "https://animefire.plus/img/animes/shouxi-yu-ling-shi/",
      "secao": "legendados,lancamentos",
      "pagina": 58,
      "total_episodios": 8,
      "link_video": "https://animefire.plus/video/shouxi-yu-ling-shi"
    },
    {
      "id": 3515,
      "nome": "Show by Rock!! Stars!!",
      "link": "https://animefire.plus/animes/show-by-rock-stars-todos-os-episodios",
      "texto_original": "Show by Rock!! Stars!!",
      "rating": 7.14,
      "classificacao_etaria": "A14",
      "imagem_original": "https://animefire.plus/img/animes/show-by-rock-stars.webp",
      "imagem_pasta": "https://animefire.plus/img/animes/show-by-rock-stars/",
      "secao": "legendados",
      "pagina": 49,
      "total_episodios": 12,
      "link_video": "https://animefire.plus/video/show-by-rock-stars"
    },
    {
      "id": 3517,
      "nome": "Shuffle! Memories",
      "link": "https://animefire.plus/animes/shuffle-memories-todos-os-episodios",
      "texto_original": "Shuffle! Memories",
      "rating": 6.61,
      "classificacao_etaria": "A14",
      "imagem_original": "https://animefire.plus/img/animes/shuffle-memories.webp",
      "imagem_pasta": "https://animefire.plus/img/animes/shuffle-memories/",
      "secao": "legendados",
      "pagina": 132,
      "total_episodios": 12,
      "link_video": "https://animefire.plus/video/shuffle-memories"
    },
    {
      "id": 3520,
      "nome": "Shukufuku No Campanella",
      "link": "https://animefire.plus/animes/shukufuku-no-campanella-todos-os-episodios",
      "texto_original": "Shukufuku No Campanella",
      "rating": 6.36,
      "classificacao_etaria": "A18",
      "imagem_original": "https://animefire.plus/img/animes/shukufuku-no-campanella.webp",
      "imagem_pasta": "https://animefire.plus/img/animes/shukufuku-no-campanella/",
      "secao": "legendados",
      "pagina": 108,
      "total_episodios": 12,
      "link_video": "https://animefire.plus/video/shukufuku-no-campanella"
    },
    {
      "id": 3521,
      "nome": "Shuumatsu Nani Shitemasu ka? Isogashii Desu ka? Sukutte Moratte Ii Desu ka?",
      "link": "https://animefire.plus/animes/shuumatsu-nani-shitemasu-ka-isogashii-desu-ka-sukutte-moratte-ii-desu-ka-todos-os-episodios",
      "texto_original": "Shuumatsu Nani Shitemasu ka? Isogashii Desu ka? Sukutte Moratte Ii Desu ka?",
      "rating": 7.83,
      "classificacao_etaria": "A14",
      "imagem_original": "https://animefire.plus/img/animes/shuumatsu-nani-shitemasu-ka-isogashii-desu-ka-sukutte-moratte-ii-desu-ka.webp",
      "imagem_pasta": "https://animefire.plus/img/animes/shuumatsu-nani-shitemasu-ka-isogashii-desu-ka-sukutte-moratte-ii-desu-ka/",
      "secao": "legendados",
      "pagina": 155,
      "total_episodios": 12,
      "link_video": "https://animefire.plus/video/shuumatsu-nani-shitemasu-ka-isogashii-desu-ka-sukutte-moratte-ii-desu-ka"
    },
    {
      "id": 3522,
      "nome": "Shuumatsu no Harem",
      "link": "https://animefire.plus/animes/shuumatsu-no-harem-todos-os-episodios",
      "texto_original": "Shuumatsu no Harem",
      "rating": 5.9,
      "classificacao_etaria": "A18",
      "imagem_original": "https://animefire.plus/img/animes/shuumatsu-no-harem.webp",
      "imagem_pasta": "https://animefire.plus/img/animes/shuumatsu-no-harem/",
      "secao": "legendados",
      "pagina": 39,
      "total_episodios": 11,
      "link_video": "https://animefire.plus/video/shuumatsu-no-harem"
    },
    {
      "id": 3523,
      "nome": "Shuumatsu no Izetta",
      "link": "https://animefire.plus/animes/shuumatsu-no-izetta-todos-os-episodios",
      "texto_original": "Shuumatsu no Izetta",
      "rating": 6.82,
      "classificacao_etaria": "A16",
      "imagem_original": "https://animefire.plus/img/animes/shuumatsu-no-izetta.webp",
      "imagem_pasta": "https://animefire.plus/img/animes/shuumatsu-no-izetta/",
      "secao": "legendados",
      "pagina": 116,
      "total_episodios": 12,
      "link_video": "https://animefire.plus/video/shuumatsu-no-izetta"
    },
    {
      "id": 3524,
      "nome": "Shuumatsu no Walküre (Dublado)",
      "link": "https://animefire.plus/animes/shuumatsu-no-walk-re-dublado-todos-os-episodios",
      "texto_original": "Shuumatsu no Walküre (Dublado)",
      "rating": 6.81,
      "classificacao_etaria": "A16",
      "imagem_original": "https://animefire.plus/img/animes/shuumatsu-no-walk-re.webp",
      "imagem_pasta": "https://animefire.plus/img/animes/shuumatsu-no-walk-re/",
      "secao": "dublados,legendados",
      "pagina": 17,
      "total_episodios": 12,
      "link_video": "https://animefire.plus/video/shuumatsu-no-walk-re-dublado"
    },
    {
      "id": 3526,
      "nome": "Shuumatsu Train Doko e Iku?",
      "link": "https://animefire.plus/animes/shuumatsu-train-doko-e-iku-todos-os-episodios",
      "texto_original": "Shuumatsu Train Doko e Iku?",
      "rating": 7.37,
      "classificacao_etaria": "A14",
      "imagem_original": "https://animefire.plus/img/animes/shuumatsu-train-doko-e-iku.webp",
      "imagem_pasta": "https://animefire.plus/img/animes/shuumatsu-train-doko-e-iku/",
      "secao": "legendados",
      "pagina": 14,
      "total_episodios": 12,
      "link_video": "https://animefire.plus/video/shuumatsu-train-doko-e-iku"
    },
    {
      "id": 3527,
      "nome": "Shy (Dublado)",
      "link": "https://animefire.plus/animes/shy-dublado-todos-os-episodios",
      "texto_original": "Shy (Dublado)",
      "rating": 6.71,
      "classificacao_etaria": "A14",
      "imagem_original": "https://animefire.plus/img/animes/shy.webp",
      "imagem_pasta": "https://animefire.plus/img/animes/shy/",
      "secao": "dublados",
      "pagina": 5,
      "total_episodios": 12,
      "link_video": "https://animefire.plus/video/shy-dublado"
    },
    {
      "id": 3528,
      "nome": "Shy 2nd Season",
      "link": "https://animefire.plus/animes/shy-2nd-season-todos-os-episodios",
      "texto_original": "Shy 2nd Season",
      "rating": 6.92,
      "classificacao_etaria": "A14",
      "imagem_original": "https://animefire.plus/img/animes/shy-2nd-season.webp",
      "imagem_pasta": "https://animefire.plus/img/animes/shy-2nd-season/",
      "secao": "legendados",
      "pagina": 12,
      "total_episodios": 12,
      "link_video": "https://animefire.plus/video/shy-2nd-season"
    }
  ],
  "pagination": {
    "current_page": 89,
    "per_page": 20,
    "total_items": 2189,
    "total_pages": 110,
    "has_next": true,
    "has_prev": true
  }
}
