{
  "message": "Animes com 2 a 12 episódios",
  "episode_range": {
    "min": 2,
    "max": 12
  },
  "data": [
    {
      "id": 1151,
      "nome": "Gi(a)rlish Number",
      "link": "https://animefire.plus/animes/gi-a-rlish-number-todos-os-episodios",
      "texto_original": "Gi(a)rlish Number",
      "rating": 6.95,
      "classificacao_etaria": "A14",
      "imagem_original": "https://animefire.plus/img/animes/gi-a-rlish-number.webp",
      "imagem_pasta": "https://animefire.plus/img/animes/gi-a-rlish-number/",
      "secao": "legendados",
      "pagina": 119,
      "total_episodios": 3,
      "link_video": "https://animefire.plus/video/gi-a-rlish-number"
    },
    {
      "id": 1153,
      "nome": "Gibiate",
      "link": "https://animefire.plus/animes/gibiate-todos-os-episodios",
      "texto_original": "Gibiate",
      "rating": null,
      "classificacao_etaria": "A16",
      "imagem_original": "https://animefire.plus/img/animes/gibiate.webp",
      "imagem_pasta": "https://animefire.plus/img/animes/gibiate/",
      "secao": "legendados",
      "pagina": 57,
      "total_episodios": 12,
      "link_video": "https://animefire.plus/video/gibiate"
    },
    {
      "id": 1154,
      "nome": "Gift: Eternal Rainbow",
      "link": "https://animefire.plus/animes/gift-eternal-rainbow-todos-os-episodios",
      "texto_original": "Gift: Eternal Rainbow",
      "rating": 6.7,
      "classificacao_etaria": "A14",
      "imagem_original": "https://animefire.plus/img/animes/gift-eternal-rainbow.webp",
      "imagem_pasta": "https://animefire.plus/img/animes/gift-eternal-rainbow/",
      "secao": "legendados",
      "pagina": 105,
      "total_episodios": 12,
      "link_video": "https://animefire.plus/video/gift-eternal-rainbow"
    },
    {
      "id": 1155,
      "nome": "Giji Harem",
      "link": "https://animefire.plus/animes/giji-harem-todos-os-episodios",
      "texto_original": "Giji Harem",
      "rating": 7.83,
      "classificacao_etaria": "A14",
      "imagem_original": "https://animefire.plus/img/animes/giji-harem.webp",
      "imagem_pasta": "https://animefire.plus/img/animes/giji-harem/",
      "secao": "legendados",
      "pagina": 13,
      "total_episodios": 12,
      "link_video": "https://animefire.plus/video/giji-harem"
    },
    {
      "id": 1157,
      "nome": "Gimai Seikatsu",
      "link": "https://animefire.plus/animes/gimai-seikatsu-todos-os-episodios",
      "texto_original": "Gimai Seikatsu",
      "rating": 7.33,
      "classificacao_etaria": "A14",
      "imagem_original": "https://animefire.plus/img/animes/gimai-seikatsu.webp",
      "imagem_pasta": "https://animefire.plus/img/animes/gimai-seikatsu/",
      "secao": "legendados",
      "pagina": 13,
      "total_episodios": 12,
      "link_video": "https://animefire.plus/video/gimai-seikatsu"
    },
    {
      "id": 1158,
      "nome": "Gin no Guardian",
      "link": "https://animefire.plus/animes/gin-no-guardian-todos-os-episodios",
      "texto_original": "Gin no Guardian",
      "rating": 6.35,
      "classificacao_etaria": "A14",
      "imagem_original": "https://animefire.plus/img/animes/gin-no-guardian.webp",
      "imagem_pasta": "https://animefire.plus/img/animes/gin-no-guardian/",
      "secao": "legendados",
      "pagina": 135,
      "total_episodios": 12,
      "link_video": "https://animefire.plus/video/gin-no-guardian"
    },
    {
      "id": 1159,
      "nome": "Gin no Guardian II",
      "link": "https://animefire.plus/animes/gin-no-guardian-ii-todos-os-episodios",
      "texto_original": "Gin no Guardian II",
      "rating": 6.71,
      "classificacao_etaria": "A14",
      "imagem_original": "https://animefire.plus/img/animes/gin-no-guardian-ii.webp",
      "imagem_pasta": "https://animefire.plus/img/animes/gin-no-guardian-ii/",
      "secao": "legendados",
      "pagina": 76,
      "total_episodios": 6,
      "link_video": "https://animefire.plus/video/gin-no-guardian-ii"
    },
    {
      "id": 1161,
      "nome": "Gin no Saji 2nd Season",
      "link": "https://animefire.plus/animes/gin-no-saji-2nd-season-todos-os-episodios",
      "texto_original": "Gin no Saji 2nd Season",
      "rating": 8.32,
      "classificacao_etaria": "A14",
      "imagem_original": "https://animefire.plus/img/animes/gin-no-saji-2nd-season.webp",
      "imagem_pasta": "https://animefire.plus/img/animes/gin-no-saji-2nd-season/",
      "secao": "legendados",
      "pagina": 117,
      "total_episodios": 11,
      "link_video": "https://animefire.plus/video/gin-no-saji-2nd-season"
    },
    {
      "id": 1162,
      "nome": "Ginban Kaleidoscope",
      "link": "https://animefire.plus/animes/ginban-kaleidoscope-todos-os-episodios",
      "texto_original": "Ginban Kaleidoscope",
      "rating": 7.41,
      "classificacao_etaria": "A14",
      "imagem_original": "https://animefire.plus/img/animes/ginban-kaleidoscope.webp",
      "imagem_pasta": "https://animefire.plus/img/animes/ginban-kaleidoscope/",
      "secao": "legendados",
      "pagina": 100,
      "total_episodios": 12,
      "link_video": "https://animefire.plus/video/ginban-kaleidoscope"
    },
    {
      "id": 1165,
      "nome": "Ginga Eiyuu Densetsu: Die Neue These - Kaikou",
      "link": "https://animefire.plus/animes/ginga-eiyuu-densetsu-die-neue-these---kaikou-todos-os-episodios",
      "texto_original": "Ginga Eiyuu Densetsu: Die Neue These - Kaikou",
      "rating": 7.64,
      "classificacao_etaria": "A16",
      "imagem_original": "https://animefire.plus/img/animes/ginga-eiyuu-densetsu-die-neue-these---kaikou.webp",
      "imagem_pasta": "https://animefire.plus/img/animes/ginga-eiyuu-densetsu-die-neue-these---kaikou/",
      "secao": "legendados",
      "pagina": 177,
      "total_episodios": 10,
      "link_video": "https://animefire.plus/video/ginga-eiyuu-densetsu-die-neue-these---kaikou"
    },
    {
      "id": 1170,
      "nome": "Gingitsune",
      "link": "https://animefire.plus/animes/gingitsune-todos-os-episodios",
      "texto_original": "Gingitsune",
      "rating": 7.21,
      "classificacao_etaria": "A14",
      "imagem_original": "https://animefire.plus/img/animes/gingitsune.webp",
      "imagem_pasta": "https://animefire.plus/img/animes/gingitsune/",
      "secao": "legendados",
      "pagina": 94,
      "total_episodios": 12,
      "link_video": "https://animefire.plus/video/gingitsune"
    },
    {
      "id": 1177,
      "nome": "Gintama: The Semi-Final",
      "link": "https://animefire.plus/animes/gintama-the-semi-final-todos-os-episodios",
      "texto_original": "Gintama: The Semi-Final",
      "rating": 8.46,
      "classificacao_etaria": "A14",
      "imagem_original": "https://animefire.plus/img/animes/gintama-the-semi-final.webp",
      "imagem_pasta": "https://animefire.plus/img/animes/gintama-the-semi-final/",
      "secao": "legendados",
      "pagina": 36,
      "total_episodios": 2,
      "link_video": "https://animefire.plus/video/gintama-the-semi-final"
    },
    {
      "id": 1178,
      "nome": "Gintama.",
      "link": "https://animefire.plus/animes/gintama-season-5-todos-os-episodios",
      "texto_original": "Gintama.",
      "rating": 8.98,
      "classificacao_etaria": "A14",
      "imagem_original": "https://animefire.plus/img/animes/gintama-season-5.webp",
      "imagem_pasta": "https://animefire.plus/img/animes/gintama-season-5/",
      "secao": "legendados",
      "pagina": 53,
      "total_episodios": 12,
      "link_video": "https://animefire.plus/video/gintama-season-5"
    },
    {
      "id": 1180,
      "nome": "Gintama.: Shirogane no Tamashii-hen",
      "link": "https://animefire.plus/animes/gintama-shirogane-no-tamashii-hen-todos-os-episodios",
      "texto_original": "Gintama.: Shirogane no Tamashii-hen",
      "rating": 8.79,
      "classificacao_etaria": "A14",
      "imagem_original": "https://animefire.plus/img/animes/gintama-shirogane-no-tamashii-hen.webp",
      "imagem_pasta": "https://animefire.plus/img/animes/gintama-shirogane-no-tamashii-hen/",
      "secao": "legendados",
      "pagina": 74,
      "total_episodios": 12,
      "link_video": "https://animefire.plus/video/gintama-shirogane-no-tamashii-hen"
    },
    {
      "id": 1189,
      "nome": "Girls & Panzer",
      "link": "https://animefire.plus/animes/girls-panzer-todos-os-episodios",
      "texto_original": "Girls & Panzer",
      "rating": 7.63,
      "classificacao_etaria": "A14",
      "imagem_original": "https://animefire.plus/img/animes/girls-panzer.webp",
      "imagem_pasta": "https://animefire.plus/img/animes/girls-panzer/",
      "secao": "legendados",
      "pagina": 115,
      "total_episodios": 12,
      "link_video": "https://animefire.plus/video/girls-panzer"
    },
    {
      "id": 1190,
      "nome": "Girls Band Cry",
      "link": "https://animefire.plus/animes/girls-band-cry-todos-os-episodios",
      "texto_original": "Girls Band Cry",
      "rating": 8.22,
      "classificacao_etaria": "A14",
      "imagem_original": "https://animefire.plus/img/animes/girls-band-cry.webp",
      "imagem_pasta": "https://animefire.plus/img/animes/girls-band-cry/",
      "secao": "legendados,lancamentos",
      "pagina": 13,
      "total_episodios": 3,
      "link_video": "https://animefire.plus/video/girls-band-cry"
    },
    {
      "id": 1191,
      "nome": "Girls Bravo: First Season",
      "link": "https://animefire.plus/animes/girls-bravo-first-season-todos-os-episodios",
      "texto_original": "Girls Bravo: First Season",
      "rating": 6.57,
      "classificacao_etaria": "A18",
      "imagem_original": "https://animefire.plus/img/animes/girls-bravo-first-season.webp",
      "imagem_pasta": "https://animefire.plus/img/animes/girls-bravo-first-season/",
      "secao": "legendados",
      "pagina": 141,
      "total_episodios": 11,
      "link_video": "https://animefire.plus/video/girls-bravo-first-season"
    },
    {
      "id": 1193,
      "nome": "Girly Air Force",
      "link": "https://animefire.plus/animes/girly-air-force-todos-os-episodios",
      "texto_original": "Girly Air Force",
      "rating": 6.18,
      "classificacao_etaria": "A14",
      "imagem_original": "https://animefire.plus/img/animes/girly-air-force.webp",
      "imagem_pasta": "https://animefire.plus/img/animes/girly-air-force/",
      "secao": "legendados",
      "pagina": 117,
      "total_episodios": 6,
      "link_video": "https://animefire.plus/video/girly-air-force"
    },
    {
      "id": 1194,
      "nome": "Given (Dublado)",
      "link": "https://animefire.plus/animes/given-dublado-todos-os-episodios",
      "texto_original": "Given (Dublado)",
      "rating": 8.34,
      "classificacao_etaria": "A14",
      "imagem_original": "https://animefire.plus/img/animes/given.webp",
      "imagem_pasta": "https://animefire.plus/img/animes/given/",
      "secao": "dublados,legendados",
      "pagina": 7,
      "total_episodios": 11,
      "link_video": "https://animefire.plus/video/given-dublado"
    },
    {
      "id": 1196,
      "nome": "GJ-bu",
      "link": "https://animefire.plus/animes/gj-bu-todos-os-episodios",
      "texto_original": "GJ-bu",
      "rating": 7.41,
      "classificacao_etaria": "A14",
      "imagem_original": "https://animefire.plus/img/animes/gj-bu.webp",
      "imagem_pasta": "https://animefire.plus/img/animes/gj-bu/",
      "secao": "legendados",
      "pagina": 176,
      "total_episodios": 12,
      "link_video": "https://animefire.plus/video/gj-bu"
    }
  ],
  "pagination": {
    "current_page": 29,
    "per_page": 20,
    "total_items": 2189,
    "total_pages": 110,
    "has_next": true,
    "has_prev": true
  }
}
