{
  "message": "Animes com 2 a 12 episódios",
  "episode_range": {
    "min": 2,
    "max": 12
  },
  "data": [
    {
      "id": 3016,
      "nome": "Poputepipikku",
      "link": "https://animefire.plus/animes/poputepipikku-todos-os-episodios",
      "texto_original": "Poputepipikku",
      "rating": 7.33,
      "classificacao_etaria": "A14",
      "imagem_original": "https://animefire.plus/img/animes/poputepipikku.webp",
      "imagem_pasta": "https://animefire.plus/img/animes/poputepipikku/",
      "secao": "legendados",
      "pagina": 155,
      "total_episodios": 12,
      "link_video": "https://animefire.plus/video/poputepipikku"
    },
    {
      "id": 3017,
      "nome": "Poputepipikku 2nd Season",
      "link": "https://animefire.plus/animes/poputepipikku-2nd-season-todos-os-episodios",
      "texto_original": "Poputepipikku 2nd Season",
      "rating": 7.53,
      "classificacao_etaria": "A14",
      "imagem_original": "https://animefire.plus/img/animes/poputepipikku-2nd-season.webp",
      "imagem_pasta": "https://animefire.plus/img/animes/poputepipikku-2nd-season/",
      "secao": "legendados",
      "pagina": 28,
      "total_episodios": 12,
      "link_video": "https://animefire.plus/video/poputepipikku-2nd-season"
    },
    {
      "id": 3018,
      "nome": "Potion-danomi de Ikinobimasu!",
      "link": "https://animefire.plus/animes/potion-danomi-de-ikinobimasu-todos-os-episodios",
      "texto_original": "Potion-danomi de Ikinobimasu!",
      "rating": 6.55,
      "classificacao_etaria": "A14",
      "imagem_original": "https://animefire.plus/img/animes/potion-danomi-de-ikinobimasu.webp",
      "imagem_pasta": "https://animefire.plus/img/animes/potion-danomi-de-ikinobimasu/",
      "secao": "legendados",
      "pagina": 20,
      "total_episodios": 12,
      "link_video": "https://animefire.plus/video/potion-danomi-de-ikinobimasu"
    },
    {
      "id": 3023,
      "nome": "Prima Doll",
      "link": "https://animefire.plus/animes/prima-doll-todos-os-episodios",
      "texto_original": "Prima Doll",
      "rating": 7.08,
      "classificacao_etaria": "A14",
      "imagem_original": "https://animefire.plus/img/animes/prima-doll.webp",
      "imagem_pasta": "https://animefire.plus/img/animes/prima-doll/",
      "secao": "legendados",
      "pagina": 31,
      "total_episodios": 12,
      "link_video": "https://animefire.plus/video/prima-doll"
    },
    {
      "id": 3024,
      "nome": "Prince of Stride: Alternative",
      "link": "https://animefire.plus/animes/prince-of-stride-alternative-todos-os-episodios",
      "texto_original": "Prince of Stride: Alternative",
      "rating": 7.01,
      "classificacao_etaria": "A14",
      "imagem_original": "https://animefire.plus/img/animes/prince-of-stride-alternative.webp",
      "imagem_pasta": "https://animefire.plus/img/animes/prince-of-stride-alternative/",
      "secao": "legendados",
      "pagina": 149,
      "total_episodios": 12,
      "link_video": "https://animefire.plus/video/prince-of-stride-alternative"
    },
    {
      "id": 3026,
      "nome": "Princess Connect! Re:Dive Season 2",
      "link": "https://animefire.plus/animes/princess-connect-re-dive-season-2-todos-os-episodios",
      "texto_original": "Princess Connect! Re:Dive Season 2",
      "rating": 7.77,
      "classificacao_etaria": "A14",
      "imagem_original": "https://animefire.plus/img/animes/princess-connect-re-dive-season-2.webp",
      "imagem_pasta": "https://animefire.plus/img/animes/princess-connect-re-dive-season-2/",
      "secao": "legendados",
      "pagina": 36,
      "total_episodios": 12,
      "link_video": "https://animefire.plus/video/princess-connect-re-dive-season-2"
    },
    {
      "id": 3027,
      "nome": "Princess Lover!",
      "link": "https://animefire.plus/animes/princess-lover-todos-os-episodios",
      "texto_original": "Princess Lover!",
      "rating": 6.92,
      "classificacao_etaria": "A18",
      "imagem_original": "https://animefire.plus/img/animes/princess-lover.webp",
      "imagem_pasta": "https://animefire.plus/img/animes/princess-lover/",
      "secao": "legendados",
      "pagina": 151,
      "total_episodios": 12,
      "link_video": "https://animefire.plus/video/princess-lover"
    },
    {
      "id": 3029,
      "nome": "Princess Princess",
      "link": "https://animefire.plus/animes/princess-princess-todos-os-episodios",
      "texto_original": "Princess Princess",
      "rating": 7.11,
      "classificacao_etaria": "A14",
      "imagem_original": "https://animefire.plus/img/animes/princess-princess.webp",
      "imagem_pasta": "https://animefire.plus/img/animes/princess-princess/",
      "secao": "legendados",
      "pagina": 118,
      "total_episodios": 12,
      "link_video": "https://animefire.plus/video/princess-princess"
    },
    {
      "id": 3030,
      "nome": "Princess Principal",
      "link": "https://animefire.plus/animes/princess-principal-todos-os-episodios",
      "texto_original": "Princess Principal",
      "rating": 7.7,
      "classificacao_etaria": "A16",
      "imagem_original": "https://animefire.plus/img/animes/princess-principal.webp",
      "imagem_pasta": "https://animefire.plus/img/animes/princess-principal/",
      "secao": "legendados",
      "pagina": 123,
      "total_episodios": 12,
      "link_video": "https://animefire.plus/video/princess-principal"
    },
    {
      "id": 3034,
      "nome": "Prism Ark",
      "link": "https://animefire.plus/animes/prism-ark-todos-os-episodios",
      "texto_original": "Prism Ark",
      "rating": 6.52,
      "classificacao_etaria": "A18",
      "imagem_original": "https://animefire.plus/img/animes/prism-ark.webp",
      "imagem_pasta": "https://animefire.plus/img/animes/prism-ark/",
      "secao": "legendados",
      "pagina": 179,
      "total_episodios": 12,
      "link_video": "https://animefire.plus/video/prism-ark"
    },
    {
      "id": 3037,
      "nome": "Project Scard: Praeter no Kizu",
      "link": "https://animefire.plus/animes/project-scard-praeter-no-kizu-todos-os-episodios",
      "texto_original": "Project Scard: Praeter no Kizu",
      "rating": 5.93,
      "classificacao_etaria": "A14",
      "imagem_original": "https://animefire.plus/img/animes/project-scard-praeter-no-kizu.webp",
      "imagem_pasta": "https://animefire.plus/img/animes/project-scard-praeter-no-kizu/",
      "secao": "legendados,lancamentos",
      "pagina": 48,
      "total_episodios": 3,
      "link_video": "https://animefire.plus/video/project-scard-praeter-no-kizu"
    },
    {
      "id": 3046,
      "nome": "Punch Line",
      "link": "https://animefire.plus/animes/punch-line-todos-os-episodios",
      "texto_original": "Punch Line",
      "rating": 7.05,
      "classificacao_etaria": "A14",
      "imagem_original": "https://animefire.plus/img/animes/punch-line.webp",
      "imagem_pasta": "https://animefire.plus/img/animes/punch-line/",
      "secao": "legendados",
      "pagina": 64,
      "total_episodios": 12,
      "link_video": "https://animefire.plus/video/punch-line"
    },
    {
      "id": 3047,
      "nome": "Puniru wa Kawaii Slime",
      "link": "https://animefire.plus/animes/puniru-wa-kawaii-slime-todos-os-episodios",
      "texto_original": "Puniru wa Kawaii Slime",
      "rating": 6.91,
      "classificacao_etaria": "A16",
      "imagem_original": "https://animefire.plus/img/animes/puniru-wa-kawaii-slime.webp",
      "imagem_pasta": "https://animefire.plus/img/animes/puniru-wa-kawaii-slime/",
      "secao": "legendados",
      "pagina": 9,
      "total_episodios": 12,
      "link_video": "https://animefire.plus/video/puniru-wa-kawaii-slime"
    },
    {
      "id": 3048,
      "nome": "Puniru wa Kawaii Slime 2nd Season",
      "link": "https://animefire.plus/animes/puniru-wa-kawaii-slime-2nd-season-todos-os-episodios",
      "texto_original": "Puniru wa Kawaii Slime 2nd Season",
      "rating": 7.03,
      "classificacao_etaria": "A14",
      "imagem_original": "https://animefire.plus/img/animes/puniru-wa-kawaii-slime-2nd-season.webp",
      "imagem_pasta": "https://animefire.plus/img/animes/puniru-wa-kawaii-slime-2nd-season/",
      "secao": "legendados,lancamentos",
      "pagina": 1,
      "total_episodios": 5,
      "link_video": "https://animefire.plus/video/puniru-wa-kawaii-slime-2nd-season"
    },
    {
      "id": 3049,
      "nome": "Pupa",
      "link": "https://animefire.plus/animes/pupa-todos-os-episodios",
      "texto_original": "Pupa",
      "rating": 3.63,
      "classificacao_etaria": "A16",
      "imagem_original": "https://animefire.plus/img/animes/pupa.webp",
      "imagem_pasta": "https://animefire.plus/img/animes/pupa/",
      "secao": "legendados",
      "pagina": 173,
      "total_episodios": 12,
      "link_video": "https://animefire.plus/video/pupa"
    },
    {
      "id": 3051,
      "nome": "Puraore! Pride of Orange",
      "link": "https://animefire.plus/animes/puraore-pride-of-orange-todos-os-episodios",
      "texto_original": "Puraore! Pride of Orange",
      "rating": 6.23,
      "classificacao_etaria": "A14",
      "imagem_original": "https://animefire.plus/img/animes/puraore-pride-of-orange.webp",
      "imagem_pasta": "https://animefire.plus/img/animes/puraore-pride-of-orange/",
      "secao": "legendados",
      "pagina": 38,
      "total_episodios": 12,
      "link_video": "https://animefire.plus/video/puraore-pride-of-orange"
    },
    {
      "id": 3052,
      "nome": "Qualidea Code",
      "link": "https://animefire.plus/animes/qualidea-code-todos-os-episodios",
      "texto_original": "Qualidea Code",
      "rating": 6.58,
      "classificacao_etaria": "A14",
      "imagem_original": "https://animefire.plus/img/animes/qualidea-code.webp",
      "imagem_pasta": "https://animefire.plus/img/animes/qualidea-code/",
      "secao": "legendados",
      "pagina": 80,
      "total_episodios": 12,
      "link_video": "https://animefire.plus/video/qualidea-code"
    },
    {
      "id": 3054,
      "nome": "Quanzhi Fashi 2nd Season",
      "link": "https://animefire.plus/animes/quanzhi-fashi-2nd-season-todos-os-episodios",
      "texto_original": "Quanzhi Fashi 2nd Season",
      "rating": 6.76,
      "classificacao_etaria": "A14",
      "imagem_original": "https://animefire.plus/img/animes/quanzhi-fashi-2nd-season.webp",
      "imagem_pasta": "https://animefire.plus/img/animes/quanzhi-fashi-2nd-season/",
      "secao": "legendados",
      "pagina": 177,
      "total_episodios": 12,
      "link_video": "https://animefire.plus/video/quanzhi-fashi-2nd-season"
    },
    {
      "id": 3055,
      "nome": "Quanzhi Fashi 3rd Season",
      "link": "https://animefire.plus/animes/quanzhi-fashi-3rd-season-todos-os-episodios",
      "texto_original": "Quanzhi Fashi 3rd Season",
      "rating": 7.56,
      "classificacao_etaria": "A14",
      "imagem_original": "https://animefire.plus/img/animes/quanzhi-fashi-3rd-season.webp",
      "imagem_pasta": "https://animefire.plus/img/animes/quanzhi-fashi-3rd-season/",
      "secao": "legendados",
      "pagina": 85,
      "total_episodios": 12,
      "link_video": "https://animefire.plus/video/quanzhi-fashi-3rd-season"
    },
    {
      "id": 3056,
      "nome": "Quanzhi Fashi 4th Season",
      "link": "https://animefire.plus/animes/quanzhi-fashi-4th-season-todos-os-episodios",
      "texto_original": "Quanzhi Fashi 4th Season",
      "rating": 7.34,
      "classificacao_etaria": "A14",
      "imagem_original": "https://animefire.plus/img/animes/quanzhi-fashi-4th-season.webp",
      "imagem_pasta": "https://animefire.plus/img/animes/quanzhi-fashi-4th-season/",
      "secao": "legendados",
      "pagina": 61,
      "total_episodios": 12,
      "link_video": "https://animefire.plus/video/quanzhi-fashi-4th-season"
    }
  ],
  "pagination": {
    "current_page": 76,
    "per_page": 20,
    "total_items": 2189,
    "total_pages": 110,
    "has_next": true,
    "has_prev": true
  }
}
