{
  "message": "Animes com 2 a 12 episódios",
  "episode_range": {
    "min": 2,
    "max": 12
  },
  "data": [
    {
      "id": 40,
      "nome": "7 Seeds 2nd Season (Dublado)",
      "link": "https://animefire.plus/animes/7-seeds-2nd-season-dublado-todos-os-episodios",
      "texto_original": "7 Seeds 2nd Season (Dublado)",
      "rating": 7.17,
      "classificacao_etaria": "A18",
      "imagem_original": "https://animefire.plus/img/animes/7-seeds-2nd-season.webp",
      "imagem_pasta": "https://animefire.plus/img/animes/7-seeds-2nd-season/",
      "secao": "dublados,legendados",
      "pagina": 23,
      "total_episodios": 12,
      "link_video": "https://animefire.plus/video/7-seeds-2nd-season-dublado"
    },
    {
      "id": 41,
      "nome": "86 (Dublado)",
      "link": "https://animefire.plus/animes/86-dublado-todos-os-episodios",
      "texto_original": "86 (Dublado)",
      "rating": 8.33,
      "classificacao_etaria": "A16",
      "imagem_original": "https://animefire.plus/img/animes/86.webp",
      "imagem_pasta": "https://animefire.plus/img/animes/86/",
      "secao": "dublados",
      "pagina": 17,
      "total_episodios": 11,
      "link_video": "https://animefire.plus/video/86-dublado"
    },
    {
      "id": 42,
      "nome": "86 2nd Season",
      "link": "https://animefire.plus/animes/86-2nd-season-todos-os-episodios",
      "texto_original": "86 2nd Season",
      "rating": 8.72,
      "classificacao_etaria": "A16",
      "imagem_original": "https://animefire.plus/img/animes/86-2nd-season.webp",
      "imagem_pasta": "https://animefire.plus/img/animes/86-2nd-season/",
      "secao": "legendados",
      "pagina": 38,
      "total_episodios": 12,
      "link_video": "https://animefire.plus/video/86-2nd-season"
    },
    {
      "id": 45,
      "nome": "A-Channel",
      "link": "https://animefire.plus/animes/a-channel-todos-os-episodios",
      "texto_original": "A-Channel",
      "rating": 7,
      "classificacao_etaria": "A14",
      "imagem_original": "https://animefire.plus/img/animes/a-channel.webp",
      "imagem_pasta": "https://animefire.plus/img/animes/a-channel/",
      "secao": "legendados",
      "pagina": 90,
      "total_episodios": 12,
      "link_video": "https://animefire.plus/video/a-channel"
    },
    {
      "id": 48,
      "nome": "A.I.C.O.: Incarnation (Dublado)",
      "link": "https://animefire.plus/animes/a-i-c-o-incarnation-dublado-todos-os-episodios",
      "texto_original": "A.I.C.O.: Incarnation (Dublado)",
      "rating": 6.76,
      "classificacao_etaria": "A16",
      "imagem_original": "https://animefire.plus/img/animes/a-i-c-o-incarnation.webp",
      "imagem_pasta": "https://animefire.plus/img/animes/a-i-c-o-incarnation/",
      "secao": "dublados,legendados",
      "pagina": 24,
      "total_episodios": 12,
      "link_video": "https://animefire.plus/video/a-i-c-o-incarnation-dublado"
    },
    {
      "id": 49,
      "nome": "A3! Season Autumn & Winter",
      "link": "https://animefire.plus/animes/a3-season-autumn-winter-todos-os-episodios",
      "texto_original": "A3! Season Autumn & Winter",
      "rating": null,
      "classificacao_etaria": "A14",
      "imagem_original": "https://animefire.plus/img/animes/a3-season-autumn-winter.webp",
      "imagem_pasta": "https://animefire.plus/img/animes/a3-season-autumn-winter/",
      "secao": "legendados",
      "pagina": 51,
      "total_episodios": 12,
      "link_video": "https://animefire.plus/video/a3-season-autumn-winter"
    },
    {
      "id": 50,
      "nome": "A3! Season Spring & Summer",
      "link": "https://animefire.plus/animes/a3-season-spring-summer-todos-os-episodios",
      "texto_original": "A3! Season Spring & Summer",
      "rating": 7.14,
      "classificacao_etaria": "A14",
      "imagem_original": "https://animefire.plus/img/animes/a3-season-spring-summer.webp",
      "imagem_pasta": "https://animefire.plus/img/animes/a3-season-spring-summer/",
      "secao": "legendados",
      "pagina": 92,
      "total_episodios": 3,
      "link_video": "https://animefire.plus/video/a3-season-spring-summer"
    },
    {
      "id": 51,
      "nome": "Aa! Megami-sama!",
      "link": "https://animefire.plus/animes/aa-megami-sama-todos-os-episodios",
      "texto_original": "Aa! Megami-sama!",
      "rating": 7.31,
      "classificacao_etaria": "A14",
      "imagem_original": "https://animefire.plus/img/animes/aa-megami-sama.webp",
      "imagem_pasta": "https://animefire.plus/img/animes/aa-megami-sama/",
      "secao": "legendados",
      "pagina": 42,
      "total_episodios": 5,
      "link_video": "https://animefire.plus/video/aa-megami-sama"
    },
    {
      "id": 54,
      "nome": "Abciee Shuugyou Nikki",
      "link": "https://animefire.plus/animes/abciee-shuugyou-nikki-todos-os-episodios",
      "texto_original": "Abciee Shuugyou Nikki",
      "rating": 5.43,
      "classificacao_etaria": "A10",
      "imagem_original": "https://animefire.plus/img/animes/abciee-shuugyou-nikki.webp",
      "imagem_pasta": "https://animefire.plus/img/animes/abciee-shuugyou-nikki/",
      "secao": "legendados",
      "pagina": 48,
      "total_episodios": 12,
      "link_video": "https://animefire.plus/video/abciee-shuugyou-nikki"
    },
    {
      "id": 56,
      "nome": "Absolute Duo",
      "link": "https://animefire.plus/animes/absolute-duo-todos-os-episodios",
      "texto_original": "Absolute Duo",
      "rating": 6.71,
      "classificacao_etaria": "A16",
      "imagem_original": "https://animefire.plus/img/animes/absolute-duo.webp",
      "imagem_pasta": "https://animefire.plus/img/animes/absolute-duo/",
      "secao": "legendados",
      "pagina": 120,
      "total_episodios": 4,
      "link_video": "https://animefire.plus/video/absolute-duo"
    },
    {
      "id": 57,
      "nome": "ACCA: 13-ku Kansatsu-ka",
      "link": "https://animefire.plus/animes/acca-13-ku-kansatsu-ka-todos-os-episodios",
      "texto_original": "ACCA: 13-ku Kansatsu-ka",
      "rating": 7.71,
      "classificacao_etaria": "A14",
      "imagem_original": "https://animefire.plus/img/animes/acca-13-ku-kansatsu-ka.webp",
      "imagem_pasta": "https://animefire.plus/img/animes/acca-13-ku-kansatsu-ka/",
      "secao": "legendados",
      "pagina": 152,
      "total_episodios": 12,
      "link_video": "https://animefire.plus/video/acca-13-ku-kansatsu-ka"
    },
    {
      "id": 63,
      "nome": "Acro Trip",
      "link": "https://animefire.plus/animes/acro-trip-todos-os-episodios",
      "texto_original": "Acro Trip",
      "rating": 6.72,
      "classificacao_etaria": "A14",
      "imagem_original": "https://animefire.plus/img/animes/acro-trip.webp",
      "imagem_pasta": "https://animefire.plus/img/animes/acro-trip/",
      "secao": "legendados",
      "pagina": 9,
      "total_episodios": 12,
      "link_video": "https://animefire.plus/video/acro-trip"
    },
    {
      "id": 64,
      "nome": "Action Heroine Cheer Fruits",
      "link": "https://animefire.plus/animes/action-heroine-cheer-fruits-todos-os-episodios",
      "texto_original": "Action Heroine Cheer Fruits",
      "rating": 6.57,
      "classificacao_etaria": "A14",
      "imagem_original": "https://animefire.plus/img/animes/action-heroine-cheer-fruits.webp",
      "imagem_pasta": "https://animefire.plus/img/animes/action-heroine-cheer-fruits/",
      "secao": "legendados",
      "pagina": 149,
      "total_episodios": 12,
      "link_video": "https://animefire.plus/video/action-heroine-cheer-fruits"
    },
    {
      "id": 65,
      "nome": "Actors: Songs Connection",
      "link": "https://animefire.plus/animes/actors-songs-connection-todos-os-episodios",
      "texto_original": "Actors: Songs Connection",
      "rating": 6.23,
      "classificacao_etaria": "A14",
      "imagem_original": "https://animefire.plus/img/animes/actors-songs-connection.webp",
      "imagem_pasta": "https://animefire.plus/img/animes/actors-songs-connection/",
      "secao": "legendados",
      "pagina": 109,
      "total_episodios": 6,
      "link_video": "https://animefire.plus/video/actors-songs-connection"
    },
    {
      "id": 66,
      "nome": "Adachi to Shimamura (Dublado)",
      "link": "https://animefire.plus/animes/adachi-to-shimamura-dublado-todos-os-episodios",
      "texto_original": "Adachi to Shimamura (Dublado)",
      "rating": 7.13,
      "classificacao_etaria": "A14",
      "imagem_original": "https://animefire.plus/img/animes/adachi-to-shimamura.webp",
      "imagem_pasta": "https://animefire.plus/img/animes/adachi-to-shimamura/",
      "secao": "dublados,legendados",
      "pagina": 15,
      "total_episodios": 12,
      "link_video": "https://animefire.plus/video/adachi-to-shimamura-dublado"
    },
    {
      "id": 68,
      "nome": "Africa no Salaryman (TV)",
      "link": "https://animefire.plus/animes/africa-no-salaryman-tv-todos-os-episodios",
      "texto_original": "Africa no Salaryman (TV)",
      "rating": 6.52,
      "classificacao_etaria": "A14",
      "imagem_original": "https://animefire.plus/img/animes/africa-no-salaryman-tv.webp",
      "imagem_pasta": "https://animefire.plus/img/animes/africa-no-salaryman-tv/",
      "secao": "legendados",
      "pagina": 109,
      "total_episodios": 12,
      "link_video": "https://animefire.plus/video/africa-no-salaryman-tv"
    },
    {
      "id": 69,
      "nome": "Afro Samurai (Dublado)",
      "link": "https://animefire.plus/animes/afro-samurai-dublado-todos-os-episodios",
      "texto_original": "Afro Samurai (Dublado)",
      "rating": 7.37,
      "classificacao_etaria": "A18",
      "imagem_original": "https://animefire.plus/img/animes/afro-samurai.webp",
      "imagem_pasta": "https://animefire.plus/img/animes/afro-samurai/",
      "secao": "dublados,legendados",
      "pagina": 23,
      "total_episodios": 5,
      "link_video": "https://animefire.plus/video/afro-samurai-dublado"
    },
    {
      "id": 72,
      "nome": "Aggressive Retsuko (ONA) (Dublado)",
      "link": "https://animefire.plus/animes/aggressive-retsuko-ona-dublado-todos-os-episodios",
      "texto_original": "Aggressive Retsuko (ONA) (Dublado)",
      "rating": 7.77,
      "classificacao_etaria": "A14",
      "imagem_original": "https://animefire.plus/img/animes/aggressive-retsuko-ona.webp",
      "imagem_pasta": "https://animefire.plus/img/animes/aggressive-retsuko-ona/",
      "secao": "dublados,legendados",
      "pagina": 24,
      "total_episodios": 10,
      "link_video": "https://animefire.plus/video/aggressive-retsuko-ona-dublado"
    },
    {
      "id": 73,
      "nome": "Aggressive Retsuko (ONA) 2nd Season (Dublado)",
      "link": "https://animefire.plus/animes/aggressive-retsuko-ona-2nd-season-dublado-todos-os-episodios",
      "texto_original": "Aggressive Retsuko (ONA) 2nd Season (Dublado)",
      "rating": 7.8,
      "classificacao_etaria": "A14",
      "imagem_original": "https://animefire.plus/img/animes/aggressive-retsuko-ona-2nd-season.webp",
      "imagem_pasta": "https://animefire.plus/img/animes/aggressive-retsuko-ona-2nd-season/",
      "secao": "dublados,legendados",
      "pagina": 20,
      "total_episodios": 10,
      "link_video": "https://animefire.plus/video/aggressive-retsuko-ona-2nd-season-dublado"
    },
    {
      "id": 75,
      "nome": "Aguu: Tensai Ningyou",
      "link": "https://animefire.plus/animes/aguu-tensai-ningyou-todos-os-episodios",
      "texto_original": "Aguu: Tensai Ningyou",
      "rating": 5.64,
      "classificacao_etaria": "A14",
      "imagem_original": "https://animefire.plus/img/animes/aguu-tensai-ningyou.webp",
      "imagem_pasta": "https://animefire.plus/img/animes/aguu-tensai-ningyou/",
      "secao": "legendados",
      "pagina": 155,
      "total_episodios": 8,
      "link_video": "https://animefire.plus/video/aguu-tensai-ningyou"
    }
  ],
  "pagination": {
    "current_page": 2,
    "per_page": 20,
    "total_items": 2189,
    "total_pages": 110,
    "has_next": true,
    "has_prev": true
  }
}
