{
  "message": "Animes com 2 a 12 episódios",
  "episode_range": {
    "min": 2,
    "max": 12
  },
  "data": [
    {
      "id": 2159,
      "nome": "Kuroshitsuji II Specials (Dublado)",
      "link": "https://animefire.plus/animes/kuroshitsuji-ii-specials-dublado-todos-os-episodios",
      "texto_original": "Kuroshitsuji II Specials (Dublado)",
      "rating": 7.44,
      "classificacao_etaria": "A14",
      "imagem_original": "https://animefire.plus/img/animes/kuroshitsuji-ii-specials.webp",
      "imagem_pasta": "https://animefire.plus/img/animes/kuroshitsuji-ii-specials/",
      "secao": "dublados,legendados",
      "pagina": 16,
      "total_episodios": 6,
      "link_video": "https://animefire.plus/video/kuroshitsuji-ii-specials-dublado"
    },
    {
      "id": 2160,
      "nome": "Kuroshitsuji: Book of Circus",
      "link": "https://animefire.plus/animes/kuroshitsuji-book-of-circus-todos-os-episodios",
      "texto_original": "Kuroshitsuji: Book of Circus",
      "rating": 8.29,
      "classificacao_etaria": "A16",
      "imagem_original": "https://animefire.plus/img/animes/kuroshitsuji-book-of-circus.webp",
      "imagem_pasta": "https://animefire.plus/img/animes/kuroshitsuji-book-of-circus/",
      "secao": "legendados",
      "pagina": 113,
      "total_episodios": 10,
      "link_video": "https://animefire.plus/video/kuroshitsuji-book-of-circus"
    },
    {
      "id": 2161,
      "nome": "Kuroshitsuji: Book of Murder",
      "link": "https://animefire.plus/animes/kuroshitsuji-book-of-murder-todos-os-episodios",
      "texto_original": "Kuroshitsuji: Book of Murder",
      "rating": 8.29,
      "classificacao_etaria": "A16",
      "imagem_original": "https://animefire.plus/img/animes/kuroshitsuji-book-of-murder.webp",
      "imagem_pasta": "https://animefire.plus/img/animes/kuroshitsuji-book-of-murder/",
      "secao": "legendados",
      "pagina": 103,
      "total_episodios": 2,
      "link_video": "https://animefire.plus/video/kuroshitsuji-book-of-murder"
    },
    {
      "id": 2162,
      "nome": "Kuroshitsuji: Kishuku Gakkou-hen",
      "link": "https://animefire.plus/animes/kuroshitsuji-kishuku-gakkou-hen-todos-os-episodios",
      "texto_original": "Kuroshitsuji: Kishuku Gakkou-hen",
      "rating": 7.86,
      "classificacao_etaria": "A16",
      "imagem_original": "https://animefire.plus/img/animes/kuroshitsuji-kishuku-gakkou-hen.webp",
      "imagem_pasta": "https://animefire.plus/img/animes/kuroshitsuji-kishuku-gakkou-hen/",
      "secao": "legendados",
      "pagina": 15,
      "total_episodios": 11,
      "link_video": "https://animefire.plus/video/kuroshitsuji-kishuku-gakkou-hen"
    },
    {
      "id": 2167,
      "nome": "Kuttsukiboshi",
      "link": "https://animefire.plus/animes/kuttsukiboshi-todos-os-episodios",
      "texto_original": "Kuttsukiboshi",
      "rating": 6.1,
      "classificacao_etaria": "A18",
      "imagem_original": "https://animefire.plus/img/animes/kuttsukiboshi.webp",
      "imagem_pasta": "https://animefire.plus/img/animes/kuttsukiboshi/",
      "secao": "legendados",
      "pagina": 44,
      "total_episodios": 2,
      "link_video": "https://animefire.plus/video/kuttsukiboshi"
    },
    {
      "id": 2168,
      "nome": "Kuuchuu Buranko",
      "link": "https://animefire.plus/animes/kuuchuu-buranko-todos-os-episodios",
      "texto_original": "Kuuchuu Buranko",
      "rating": 8.01,
      "classificacao_etaria": "A16",
      "imagem_original": "https://animefire.plus/img/animes/kuuchuu-buranko.webp",
      "imagem_pasta": "https://animefire.plus/img/animes/kuuchuu-buranko/",
      "secao": "legendados",
      "pagina": 129,
      "total_episodios": 11,
      "link_video": "https://animefire.plus/video/kuuchuu-buranko"
    },
    {
      "id": 2169,
      "nome": "Kuusen Madoushi Kouhosei No Kyoukan",
      "link": "https://animefire.plus/animes/kuusen-madoushi-kouhosei-no-kyoukan-todos-os-episodios",
      "texto_original": "Kuusen Madoushi Kouhosei No Kyoukan",
      "rating": 6.56,
      "classificacao_etaria": "A14",
      "imagem_original": "https://animefire.plus/img/animes/kuusen-madoushi-kouhosei-no-kyoukan.webp",
      "imagem_pasta": "https://animefire.plus/img/animes/kuusen-madoushi-kouhosei-no-kyoukan/",
      "secao": "legendados",
      "pagina": 107,
      "total_episodios": 12,
      "link_video": "https://animefire.plus/video/kuusen-madoushi-kouhosei-no-kyoukan"
    },
    {
      "id": 2171,
      "nome": "Kuutei Dragons (Dublado)",
      "link": "https://animefire.plus/animes/kuutei-dragons-dublado-todos-os-episodios",
      "texto_original": "Kuutei Dragons (Dublado)",
      "rating": 7.05,
      "classificacao_etaria": "A14",
      "imagem_original": "https://animefire.plus/img/animes/kuutei-dragons.webp",
      "imagem_pasta": "https://animefire.plus/img/animes/kuutei-dragons/",
      "secao": "dublados,legendados",
      "pagina": 23,
      "total_episodios": 12,
      "link_video": "https://animefire.plus/video/kuutei-dragons-dublado"
    },
    {
      "id": 2172,
      "nome": "Kuzu no Honkai",
      "link": "https://animefire.plus/animes/kuzu-no-honkai-todos-os-episodios",
      "texto_original": "Kuzu no Honkai",
      "rating": 7.48,
      "classificacao_etaria": "A18",
      "imagem_original": "https://animefire.plus/img/animes/kuzu-no-honkai.webp",
      "imagem_pasta": "https://animefire.plus/img/animes/kuzu-no-honkai/",
      "secao": "legendados",
      "pagina": 121,
      "total_episodios": 2,
      "link_video": "https://animefire.plus/video/kuzu-no-honkai"
    },
    {
      "id": 2175,
      "nome": "Kyokou Suiri Season 2",
      "link": "https://animefire.plus/animes/kyokou-suiri-season-2-todos-os-episodios",
      "texto_original": "Kyokou Suiri Season 2",
      "rating": 7.35,
      "classificacao_etaria": "A16",
      "imagem_original": "https://animefire.plus/img/animes/kyokou-suiri-season-2.webp",
      "imagem_pasta": "https://animefire.plus/img/animes/kyokou-suiri-season-2/",
      "secao": "legendados",
      "pagina": 27,
      "total_episodios": 12,
      "link_video": "https://animefire.plus/video/kyokou-suiri-season-2"
    },
    {
      "id": 2176,
      "nome": "Kyoto Teramachi Sanjou no Holmes",
      "link": "https://animefire.plus/animes/kyoto-teramachi-sanjou-no-holmes-todos-os-episodios",
      "texto_original": "Kyoto Teramachi Sanjou no Holmes",
      "rating": 6.81,
      "classificacao_etaria": "A14",
      "imagem_original": "https://animefire.plus/img/animes/kyoto-teramachi-sanjou-no-holmes.webp",
      "imagem_pasta": "https://animefire.plus/img/animes/kyoto-teramachi-sanjou-no-holmes/",
      "secao": "legendados",
      "pagina": 143,
      "total_episodios": 12,
      "link_video": "https://animefire.plus/video/kyoto-teramachi-sanjou-no-holmes"
    },
    {
      "id": 2179,
      "nome": "Kyou kara Maou! R",
      "link": "https://animefire.plus/animes/kyou-kara-maou-r-todos-os-episodios",
      "texto_original": "Kyou kara Maou! R",
      "rating": 7.49,
      "classificacao_etaria": "A14",
      "imagem_original": "https://animefire.plus/img/animes/kyou-kara-maou-r.webp",
      "imagem_pasta": "https://animefire.plus/img/animes/kyou-kara-maou-r/",
      "secao": "legendados",
      "pagina": 76,
      "total_episodios": 5,
      "link_video": "https://animefire.plus/video/kyou-kara-maou-r"
    },
    {
      "id": 2180,
      "nome": "Kyou no 5 no 2",
      "link": "https://animefire.plus/animes/kyou-no-5-no-2-todos-os-episodios",
      "texto_original": "Kyou no 5 no 2",
      "rating": 7.27,
      "classificacao_etaria": "A14",
      "imagem_original": "https://animefire.plus/img/animes/kyou-no-5-no-2.webp",
      "imagem_pasta": "https://animefire.plus/img/animes/kyou-no-5-no-2/",
      "secao": "legendados",
      "pagina": 118,
      "total_episodios": 11,
      "link_video": "https://animefire.plus/video/kyou-no-5-no-2"
    },
    {
      "id": 2183,
      "nome": "Kyoukai no Kanata",
      "link": "https://animefire.plus/animes/kyoukai-no-kanata-todos-os-episodios",
      "texto_original": "Kyoukai no Kanata",
      "rating": 7.86,
      "classificacao_etaria": "A14",
      "imagem_original": "https://animefire.plus/img/animes/kyoukai-no-kanata.webp",
      "imagem_pasta": "https://animefire.plus/img/animes/kyoukai-no-kanata/",
      "secao": "legendados",
      "pagina": 169,
      "total_episodios": 5,
      "link_video": "https://animefire.plus/video/kyoukai-no-kanata"
    },
    {
      "id": 2186,
      "nome": "Kyoukai Senki Part 2",
      "link": "https://animefire.plus/animes/kyoukai-senki-part-2-todos-os-episodios",
      "texto_original": "Kyoukai Senki Part 2",
      "rating": 6.53,
      "classificacao_etaria": "A14",
      "imagem_original": "https://animefire.plus/img/animes/kyoukai-senki-part-2.webp",
      "imagem_pasta": "https://animefire.plus/img/animes/kyoukai-senki-part-2/",
      "secao": "legendados",
      "pagina": 33,
      "total_episodios": 12,
      "link_video": "https://animefire.plus/video/kyoukai-senki-part-2"
    },
    {
      "id": 2187,
      "nome": "Kyoukai Senki: Kyokkou no Souki",
      "link": "https://animefire.plus/animes/kyoukai-senki-kyokkou-no-souki-todos-os-episodios",
      "texto_original": "Kyoukai Senki: Kyokkou no Souki",
      "rating": 5.72,
      "classificacao_etaria": "A14",
      "imagem_original": "https://animefire.plus/img/animes/kyoukai-senki-kyokkou-no-souki.webp",
      "imagem_pasta": "https://animefire.plus/img/animes/kyoukai-senki-kyokkou-no-souki/",
      "secao": "legendados,lancamentos",
      "pagina": 21,
      "total_episodios": 2,
      "link_video": "https://animefire.plus/video/kyoukai-senki-kyokkou-no-souki"
    },
    {
      "id": 2189,
      "nome": "Kyoukaisenjou no Horizon II",
      "link": "https://animefire.plus/animes/kyoukaisenjou-no-horizon-ii-todos-os-episodios",
      "texto_original": "Kyoukaisenjou no Horizon II",
      "rating": 7.63,
      "classificacao_etaria": "A18",
      "imagem_original": "https://animefire.plus/img/animes/kyoukaisenjou-no-horizon-ii.webp",
      "imagem_pasta": "https://animefire.plus/img/animes/kyoukaisenjou-no-horizon-ii/",
      "secao": "legendados",
      "pagina": 136,
      "total_episodios": 7,
      "link_video": "https://animefire.plus/video/kyoukaisenjou-no-horizon-ii"
    },
    {
      "id": 2190,
      "nome": "Kyoushirou to Towa no Sora",
      "link": "https://animefire.plus/animes/kyoushirou-to-towa-no-sora-todos-os-episodios",
      "texto_original": "Kyoushirou to Towa no Sora",
      "rating": 6.58,
      "classificacao_etaria": "A14",
      "imagem_original": "https://animefire.plus/img/animes/kyoushirou-to-towa-no-sora.webp",
      "imagem_pasta": "https://animefire.plus/img/animes/kyoushirou-to-towa-no-sora/",
      "secao": "legendados",
      "pagina": 177,
      "total_episodios": 12,
      "link_video": "https://animefire.plus/video/kyoushirou-to-towa-no-sora"
    },
    {
      "id": 2192,
      "nome": "Kyousou Giga (TV)",
      "link": "https://animefire.plus/animes/kyousou-giga-tv-todos-os-episodios",
      "texto_original": "Kyousou Giga (TV)",
      "rating": 7.84,
      "classificacao_etaria": "A14",
      "imagem_original": "https://animefire.plus/img/animes/kyousou-giga-tv.webp",
      "imagem_pasta": "https://animefire.plus/img/animes/kyousou-giga-tv/",
      "secao": "legendados",
      "pagina": 94,
      "total_episodios": 10,
      "link_video": "https://animefire.plus/video/kyousou-giga-tv"
    },
    {
      "id": 2193,
      "nome": "Kyuujitsu no Warumono-san",
      "link": "https://animefire.plus/animes/kyuujitsu-no-warumono-san-todos-os-episodios",
      "texto_original": "Kyuujitsu no Warumono-san",
      "rating": 7.25,
      "classificacao_etaria": "A14",
      "imagem_original": "https://animefire.plus/img/animes/kyuujitsu-no-warumono-san.webp",
      "imagem_pasta": "https://animefire.plus/img/animes/kyuujitsu-no-warumono-san/",
      "secao": "legendados",
      "pagina": 17,
      "total_episodios": 12,
      "link_video": "https://animefire.plus/video/kyuujitsu-no-warumono-san"
    }
  ],
  "pagination": {
    "current_page": 55,
    "per_page": 20,
    "total_items": 2189,
    "total_pages": 110,
    "has_next": true,
    "has_prev": true
  }
}
