{
  "message": "Animes com 2 a 12 episódios",
  "episode_range": {
    "min": 2,
    "max": 12
  },
  "data": [
    {
      "id": 2858,
      "nome": "Onipan!",
      "link": "https://animefire.plus/animes/onipan-todos-os-episodios",
      "texto_original": "Onipan!",
      "rating": 6.5,
      "classificacao_etaria": "A10",
      "imagem_original": "https://animefire.plus/img/animes/onipan.webp",
      "imagem_pasta": "https://animefire.plus/img/animes/onipan/",
      "secao": "legendados,lancamentos",
      "pagina": 33,
      "total_episodios": 6,
      "link_video": "https://animefire.plus/video/onipan"
    },
    {
      "id": 2859,
      "nome": "Onmyou Kaiten Re:Birth",
      "link": "https://animefire.plus/animes/onmyou-kaiten-re-birth-todos-os-episodios",
      "texto_original": "Onmyou Kaiten Re:Birth",
      "rating": 6.51,
      "classificacao_etaria": "A14",
      "imagem_original": "https://animefire.plus/img/animes/onmyou-kaiten-re-birth.webp",
      "imagem_pasta": "https://animefire.plus/img/animes/onmyou-kaiten-re-birth/",
      "secao": "legendados,lancamentos",
      "pagina": 1,
      "total_episodios": 5,
      "link_video": "https://animefire.plus/video/onmyou-kaiten-re-birth"
    },
    {
      "id": 2860,
      "nome": "Onmyou Taisenki",
      "link": "https://animefire.plus/animes/onmyou-taisenki-todos-os-episodios",
      "texto_original": "Onmyou Taisenki",
      "rating": 7.26,
      "classificacao_etaria": "A14",
      "imagem_original": "https://animefire.plus/img/animes/onmyou-taisenki.webp",
      "imagem_pasta": "https://animefire.plus/img/animes/onmyou-taisenki/",
      "secao": "legendados",
      "pagina": 178,
      "total_episodios": 4,
      "link_video": "https://animefire.plus/video/onmyou-taisenki"
    },
    {
      "id": 2863,
      "nome": "Ontama!",
      "link": "https://animefire.plus/animes/ontama-todos-os-episodios",
      "texto_original": "Ontama!",
      "rating": 6.74,
      "classificacao_etaria": null,
      "imagem_original": "https://animefire.plus/img/animes/ontama.webp",
      "imagem_pasta": "https://animefire.plus/img/animes/ontama/",
      "secao": "legendados",
      "pagina": 43,
      "total_episodios": 5,
      "link_video": "https://animefire.plus/video/ontama"
    },
    {
      "id": 2864,
      "nome": "Onyankopon",
      "link": "https://animefire.plus/animes/onyankopon-todos-os-episodios",
      "texto_original": "Onyankopon",
      "rating": 4.5,
      "classificacao_etaria": null,
      "imagem_original": "https://animefire.plus/img/animes/onyankopon.webp",
      "imagem_pasta": "https://animefire.plus/img/animes/onyankopon/",
      "secao": "legendados",
      "pagina": 147,
      "total_episodios": 11,
      "link_video": "https://animefire.plus/video/onyankopon"
    },
    {
      "id": 2866,
      "nome": "Ooi! Tonbo 2nd Season",
      "link": "https://animefire.plus/animes/ooi-tonbo-2nd-season-todos-os-episodios",
      "texto_original": "Ooi! Tonbo 2nd Season",
      "rating": 7.31,
      "classificacao_etaria": "A14",
      "imagem_original": "https://animefire.plus/img/animes/ooi-tonbo-2nd-season.webp",
      "imagem_pasta": "https://animefire.plus/img/animes/ooi-tonbo-2nd-season/",
      "secao": "legendados,lancamentos",
      "pagina": 9,
      "total_episodios": 2,
      "link_video": "https://animefire.plus/video/ooi-tonbo-2nd-season"
    },
    {
      "id": 2867,
      "nome": "Ookami Shoujo to Kuro Ouji",
      "link": "https://animefire.plus/animes/ookami-shoujo-to-kuro-ouji-todos-os-episodios",
      "texto_original": "Ookami Shoujo to Kuro Ouji",
      "rating": 7.37,
      "classificacao_etaria": "A14",
      "imagem_original": "https://animefire.plus/img/animes/ookami-shoujo-to-kuro-ouji.webp",
      "imagem_pasta": "https://animefire.plus/img/animes/ookami-shoujo-to-kuro-ouji/",
      "secao": "legendados",
      "pagina": 123,
      "total_episodios": 12,
      "link_video": "https://animefire.plus/video/ookami-shoujo-to-kuro-ouji"
    },
    {
      "id": 2869,
      "nome": "Ookami to Koushinryou II (Dublado)",
      "link": "https://animefire.plus/animes/ookami-to-koushinryou-ii-dublado-todos-os-episodios",
      "texto_original": "Ookami to Koushinryou II (Dublado)",
      "rating": 8.34,
      "classificacao_etaria": "A14",
      "imagem_original": "https://animefire.plus/img/animes/ookami-to-koushinryou-ii.webp",
      "imagem_pasta": "https://animefire.plus/img/animes/ookami-to-koushinryou-ii/",
      "secao": "dublados,legendados",
      "pagina": 13,
      "total_episodios": 12,
      "link_video": "https://animefire.plus/video/ookami-to-koushinryou-ii-dublado"
    },
    {
      "id": 2872,
      "nome": "Ookamikakushi",
      "link": "https://animefire.plus/animes/ookamikakushi-todos-os-episodios",
      "texto_original": "Ookamikakushi",
      "rating": 6.36,
      "classificacao_etaria": "A14",
      "imagem_original": "https://animefire.plus/img/animes/ookamikakushi.webp",
      "imagem_pasta": "https://animefire.plus/img/animes/ookamikakushi/",
      "secao": "legendados",
      "pagina": 57,
      "total_episodios": 12,
      "link_video": "https://animefire.plus/video/ookamikakushi"
    },
    {
      "id": 2876,
      "nome": "Ooyukiumi no Kaina",
      "link": "https://animefire.plus/animes/ooyukiumi-no-kaina-todos-os-episodios",
      "texto_original": "Ooyukiumi no Kaina",
      "rating": 6.68,
      "classificacao_etaria": "A14",
      "imagem_original": "https://animefire.plus/img/animes/ooyukiumi-no-kaina.webp",
      "imagem_pasta": "https://animefire.plus/img/animes/ooyukiumi-no-kaina/",
      "secao": "legendados",
      "pagina": 27,
      "total_episodios": 11,
      "link_video": "https://animefire.plus/video/ooyukiumi-no-kaina"
    },
    {
      "id": 2877,
      "nome": "Opus.COLORs",
      "link": "https://animefire.plus/animes/opus-colors-todos-os-episodios",
      "texto_original": "Opus.COLORs",
      "rating": 5.75,
      "classificacao_etaria": "A14",
      "imagem_original": "https://animefire.plus/img/animes/opus-colors.jpg",
      "imagem_pasta": "https://animefire.plus/img/animes/opus-colors/",
      "secao": "legendados",
      "pagina": 24,
      "total_episodios": 12,
      "link_video": "https://animefire.plus/video/opus-colors"
    },
    {
      "id": 2879,
      "nome": "Ore dake Haireru Kakushi Dungeon (Dublado)",
      "link": "https://animefire.plus/animes/ore-dake-haireru-kakushi-dungeon-dublado-todos-os-episodios",
      "texto_original": "Ore dake Haireru Kakushi Dungeon (Dublado)",
      "rating": 6.28,
      "classificacao_etaria": "A14",
      "imagem_original": "https://animefire.plus/img/animes/ore-dake-haireru-kakushi-dungeon.webp",
      "imagem_pasta": "https://animefire.plus/img/animes/ore-dake-haireru-kakushi-dungeon/",
      "secao": "dublados,legendados",
      "pagina": 18,
      "total_episodios": 12,
      "link_video": "https://animefire.plus/video/ore-dake-haireru-kakushi-dungeon-dublado"
    },
    {
      "id": 2880,
      "nome": "Ore dake Level Up na Ken (Dublado)",
      "link": "https://animefire.plus/animes/ore-dake-level-up-na-ken-dublado-todos-os-episodios",
      "texto_original": "Ore dake Level Up na Ken (Dublado)",
      "rating": 8.24,
      "classificacao_etaria": "A16",
      "imagem_original": "https://animefire.plus/img/animes/ore-dake-level-up-na-ken.webp",
      "imagem_pasta": "https://animefire.plus/img/animes/ore-dake-level-up-na-ken/",
      "secao": "dublados,legendados",
      "pagina": 4,
      "total_episodios": 12,
      "link_video": "https://animefire.plus/video/ore-dake-level-up-na-ken-dublado"
    },
    {
      "id": 2882,
      "nome": "Ore ga Ojousama Gakkou ni \"Shomin Sample\" Toshite Gets♥Sareta Ken",
      "link": "https://animefire.plus/animes/ore-ga-ojousama-gakkou-ni-shomin-sample-toshite-gets-sareta-ken-todos-os-episodios",
      "texto_original": "Ore ga Ojousama Gakkou ni \"Shomin Sample\" Toshite Gets♥Sareta Ken",
      "rating": 6.99,
      "classificacao_etaria": "A14",
      "imagem_original": "https://animefire.plus/img/animes/ore-ga-ojousama-gakkou-ni-shomin-sample-toshite-gets-sareta-ken.webp",
      "imagem_pasta": "https://animefire.plus/img/animes/ore-ga-ojousama-gakkou-ni-shomin-sample-toshite-gets-sareta-ken/",
      "secao": "legendados",
      "pagina": 135,
      "total_episodios": 12,
      "link_video": "https://animefire.plus/video/ore-ga-ojousama-gakkou-ni-shomin-sample-toshite-gets-sareta-ken"
    },
    {
      "id": 2883,
      "nome": "Ore ga Suki nano wa Imouto dakedo Imouto ja Nai",
      "link": "https://animefire.plus/animes/ore-ga-suki-nano-wa-imouto-dakedo-imouto-ja-nai-todos-os-episodios",
      "texto_original": "Ore ga Suki nano wa Imouto dakedo Imouto ja Nai",
      "rating": 5.11,
      "classificacao_etaria": "A18",
      "imagem_original": "https://animefire.plus/img/animes/ore-ga-suki-nano-wa-imouto-dakedo-imouto-ja-nai.webp",
      "imagem_pasta": "https://animefire.plus/img/animes/ore-ga-suki-nano-wa-imouto-dakedo-imouto-ja-nai/",
      "secao": "legendados",
      "pagina": 97,
      "total_episodios": 10,
      "link_video": "https://animefire.plus/video/ore-ga-suki-nano-wa-imouto-dakedo-imouto-ja-nai"
    },
    {
      "id": 2885,
      "nome": "Ore no Imouto ga Konnani Kawaii Wake ga Nai",
      "link": "https://animefire.plus/animes/ore-no-imouto-ga-konnani-kawaii-wake-ga-nai-todos-os-episodios",
      "texto_original": "Ore no Imouto ga Konnani Kawaii Wake ga Nai",
      "rating": 7.27,
      "classificacao_etaria": "A14",
      "imagem_original": "https://animefire.plus/img/animes/ore-no-imouto-ga-konnani-kawaii-wake-ga-nai.webp",
      "imagem_pasta": "https://animefire.plus/img/animes/ore-no-imouto-ga-konnani-kawaii-wake-ga-nai/",
      "secao": "legendados",
      "pagina": 154,
      "total_episodios": 12,
      "link_video": "https://animefire.plus/video/ore-no-imouto-ga-konnani-kawaii-wake-ga-nai"
    },
    {
      "id": 2888,
      "nome": "Ore no Nounai Sentakushi ga, Gakuen Love Comedy wo Zenryoku de Jama Shiteiru",
      "link": "https://animefire.plus/animes/ore-no-nounai-sentakushi-ga-gakuen-love-comedy-wo-zenryoku-de-jama-shiteiru-todos-os-episodios",
      "texto_original": "Ore no Nounai Sentakushi ga, Gakuen Love Comedy wo Zenryoku de Jama Shiteiru",
      "rating": 7.4,
      "classificacao_etaria": "A14",
      "imagem_original": "https://animefire.plus/img/animes/ore-no-nounai-sentakushi-ga-gakuen-love-comedy-wo-zenryoku-de-jama-shiteiru.webp",
      "imagem_pasta": "https://animefire.plus/img/animes/ore-no-nounai-sentakushi-ga-gakuen-love-comedy-wo-zenryoku-de-jama-shiteiru/",
      "secao": "legendados",
      "pagina": 135,
      "total_episodios": 4,
      "link_video": "https://animefire.plus/video/ore-no-nounai-sentakushi-ga-gakuen-love-comedy-wo-zenryoku-de-jama-shiteiru"
    },
    {
      "id": 2890,
      "nome": "Ore wa Seikan Kokka no Akutoku Ryoushu!",
      "link": "https://animefire.plus/animes/ore-wa-seikan-kokka-no-akutoku-ryoushu-todos-os-episodios",
      "texto_original": "Ore wa Seikan Kokka no Akutoku Ryoushu!",
      "rating": 7.02,
      "classificacao_etaria": "A14",
      "imagem_original": "https://animefire.plus/img/animes/ore-wa-seikan-kokka-no-akutoku-ryoushu.webp",
      "imagem_pasta": "https://animefire.plus/img/animes/ore-wa-seikan-kokka-no-akutoku-ryoushu/",
      "secao": "legendados",
      "pagina": 5,
      "total_episodios": 12,
      "link_video": "https://animefire.plus/video/ore-wa-seikan-kokka-no-akutoku-ryoushu"
    },
    {
      "id": 2891,
      "nome": "Ore wa Subete wo \"Parry\" suru: Gyaku Kanchigai no Sekai Saikyou wa Boukensha ni Naritai",
      "link": "https://animefire.plus/animes/ore-wa-subete-wo-parry-suru-gyaku-kanchigai-no-sekai-saikyou-wa-boukensha-ni-naritai-todos-os-episodios",
      "texto_original": "Ore wa Subete wo \"Parry\" suru: Gyaku Kanchigai no Sekai Saikyou wa Boukensha ni Naritai",
      "rating": 6.89,
      "classificacao_etaria": "A14",
      "imagem_original": "https://animefire.plus/img/animes/ore-wa-subete-wo-parry-suru-gyaku-kanchigai-no-sekai-saikyou-wa-boukensha-ni-naritai.webp",
      "imagem_pasta": "https://animefire.plus/img/animes/ore-wa-subete-wo-parry-suru-gyaku-kanchigai-no-sekai-saikyou-wa-boukensha-ni-naritai/",
      "secao": "legendados",
      "pagina": 13,
      "total_episodios": 12,
      "link_video": "https://animefire.plus/video/ore-wa-subete-wo-parry-suru-gyaku-kanchigai-no-sekai-saikyou-wa-boukensha-ni-naritai"
    },
    {
      "id": 2897,
      "nome": "Orient (Dublado)",
      "link": "https://animefire.plus/animes/orient-dublado-todos-os-episodios",
      "texto_original": "Orient (Dublado)",
      "rating": 6.61,
      "classificacao_etaria": "A14",
      "imagem_original": "https://animefire.plus/img/animes/orient.webp",
      "imagem_pasta": "https://animefire.plus/img/animes/orient/",
      "secao": "dublados,legendados",
      "pagina": 12,
      "total_episodios": 12,
      "link_video": "https://animefire.plus/video/orient-dublado"
    }
  ],
  "pagination": {
    "current_page": 72,
    "per_page": 20,
    "total_items": 2189,
    "total_pages": 110,
    "has_next": true,
    "has_prev": true
  }
}
