{
  "message": "Animes com 2 a 12 episódios",
  "episode_range": {
    "min": 2,
    "max": 12
  },
  "data": [
    {
      "id": 1201,
      "nome": "Go! Go! 575",
      "link": "https://animefire.plus/animes/go-go-575-todos-os-episodios",
      "texto_original": "Go! Go! 575",
      "rating": 5.69,
      "classificacao_etaria": "A14",
      "imagem_original": "https://animefire.plus/img/animes/go-go-575.webp",
      "imagem_pasta": "https://animefire.plus/img/animes/go-go-575/",
      "secao": "legendados",
      "pagina": 151,
      "total_episodios": 4,
      "link_video": "https://animefire.plus/video/go-go-575"
    },
    {
      "id": 1204,
      "nome": "Goblin Slayer II (Dublado)",
      "link": "https://animefire.plus/animes/goblin-slayer-ii-dublado-todos-os-episodios",
      "texto_original": "Goblin Slayer II (Dublado)",
      "rating": 7.21,
      "classificacao_etaria": "A16",
      "imagem_original": "https://animefire.plus/img/animes/goblin-slayer-ii.webp",
      "imagem_pasta": "https://animefire.plus/img/animes/goblin-slayer-ii/",
      "secao": "dublados,legendados",
      "pagina": 5,
      "total_episodios": 12,
      "link_video": "https://animefire.plus/video/goblin-slayer-ii-dublado"
    },
    {
      "id": 1206,
      "nome": "Gochuumon wa Usagi Desu ka? BLOOM",
      "link": "https://animefire.plus/animes/gochuumon-wa-usagi-desu-ka-bloom-todos-os-episodios",
      "texto_original": "Gochuumon wa Usagi Desu ka? BLOOM",
      "rating": null,
      "classificacao_etaria": "A14",
      "imagem_original": "https://animefire.plus/img/animes/gochuumon-wa-usagi-desu-ka-bloom.webp",
      "imagem_pasta": "https://animefire.plus/img/animes/gochuumon-wa-usagi-desu-ka-bloom/",
      "secao": "legendados",
      "pagina": 51,
      "total_episodios": 12,
      "link_video": "https://animefire.plus/video/gochuumon-wa-usagi-desu-ka-bloom"
    },
    {
      "id": 1207,
      "nome": "Gochuumon wa Usagi Desu ka??",
      "link": "https://animefire.plus/animes/is-the-order-a-rabbit-todos-os-episodios",
      "texto_original": "Gochuumon wa Usagi Desu ka??",
      "rating": 7.84,
      "classificacao_etaria": "A14",
      "imagem_original": "https://animefire.plus/img/animes/is-the-order-a-rabbit.webp",
      "imagem_pasta": "https://animefire.plus/img/animes/is-the-order-a-rabbit/",
      "secao": "legendados",
      "pagina": 51,
      "total_episodios": 12,
      "link_video": "https://animefire.plus/video/is-the-order-a-rabbit"
    },
    {
      "id": 1212,
      "nome": "Gokujo.: Gokurakuin Joshikou Ryou Monogatari",
      "link": "https://animefire.plus/animes/gokujo-gokurakuin-joshikou-ryou-monogatari-todos-os-episodios",
      "texto_original": "Gokujo.: Gokurakuin Joshikou Ryou Monogatari",
      "rating": 6.21,
      "classificacao_etaria": "A14",
      "imagem_original": "https://animefire.plus/img/animes/gokujo-gokurakuin-joshikou-ryou-monogatari.webp",
      "imagem_pasta": "https://animefire.plus/img/animes/gokujo-gokurakuin-joshikou-ryou-monogatari/",
      "secao": "legendados",
      "pagina": 76,
      "total_episodios": 12,
      "link_video": "https://animefire.plus/video/gokujo-gokurakuin-joshikou-ryou-monogatari"
    },
    {
      "id": 1216,
      "nome": "Gokushufudou (Dublado)",
      "link": "https://animefire.plus/animes/gokushufudou-dublado-todos-os-episodios",
      "texto_original": "Gokushufudou (Dublado)",
      "rating": 7.26,
      "classificacao_etaria": "A14",
      "imagem_original": "https://animefire.plus/img/animes/gokushufudou.webp",
      "imagem_pasta": "https://animefire.plus/img/animes/gokushufudou/",
      "secao": "dublados,legendados",
      "pagina": 18,
      "total_episodios": 6,
      "link_video": "https://animefire.plus/video/gokushufudou-dublado"
    },
    {
      "id": 1217,
      "nome": "Gokushufudou Part 2 (Dublado)",
      "link": "https://animefire.plus/animes/gokushufudou-part-2-dublado-todos-os-episodios",
      "texto_original": "Gokushufudou Part 2 (Dublado)",
      "rating": 7.54,
      "classificacao_etaria": "A14",
      "imagem_original": "https://animefire.plus/img/animes/gokushufudou-part-2.webp",
      "imagem_pasta": "https://animefire.plus/img/animes/gokushufudou-part-2/",
      "secao": "dublados,legendados",
      "pagina": 15,
      "total_episodios": 5,
      "link_video": "https://animefire.plus/video/gokushufudou-part-2-dublado"
    },
    {
      "id": 1218,
      "nome": "Gokushufudou Season 2 (Dublado)",
      "link": "https://animefire.plus/animes/gokushufudou-season-2-dublado-todos-os-episodios",
      "texto_original": "Gokushufudou Season 2 (Dublado)",
      "rating": 7.57,
      "classificacao_etaria": "A14",
      "imagem_original": "https://animefire.plus/img/animes/gokushufudou-season-2.webp",
      "imagem_pasta": "https://animefire.plus/img/animes/gokushufudou-season-2/",
      "secao": "dublados,legendados",
      "pagina": 8,
      "total_episodios": 5,
      "link_video": "https://animefire.plus/video/gokushufudou-season-2-dublado"
    },
    {
      "id": 1219,
      "nome": "Golden Boy",
      "link": "https://animefire.plus/animes/golden-boy-todos-os-episodios",
      "texto_original": "Golden Boy",
      "rating": 8.05,
      "classificacao_etaria": "A18",
      "imagem_original": "https://animefire.plus/img/animes/golden-boy.webp",
      "imagem_pasta": "https://animefire.plus/img/animes/golden-boy/",
      "secao": "legendados",
      "pagina": 101,
      "total_episodios": 6,
      "link_video": "https://animefire.plus/video/golden-boy"
    },
    {
      "id": 1220,
      "nome": "Golden Kamuy",
      "link": "https://animefire.plus/animes/golden-kamuy-todos-os-episodios",
      "texto_original": "Golden Kamuy",
      "rating": 7.8,
      "classificacao_etaria": "A16",
      "imagem_original": "https://animefire.plus/img/animes/golden-kamuy.webp",
      "imagem_pasta": "https://animefire.plus/img/animes/golden-kamuy/",
      "secao": "legendados",
      "pagina": 140,
      "total_episodios": 12,
      "link_video": "https://animefire.plus/video/golden-kamuy"
    },
    {
      "id": 1221,
      "nome": "Golden Kamuy 2nd Season",
      "link": "https://animefire.plus/animes/golden-kamuy-2nd-season-todos-os-episodios",
      "texto_original": "Golden Kamuy 2nd Season",
      "rating": 8.17,
      "classificacao_etaria": "A16",
      "imagem_original": "https://animefire.plus/img/animes/golden-kamuy-2nd-season.webp",
      "imagem_pasta": "https://animefire.plus/img/animes/golden-kamuy-2nd-season/",
      "secao": "legendados",
      "pagina": 179,
      "total_episodios": 12,
      "link_video": "https://animefire.plus/video/golden-kamuy-2nd-season"
    },
    {
      "id": 1222,
      "nome": "Golden Kamuy 2nd Season OVA",
      "link": "https://animefire.plus/animes/golden-kamuy-2nd-season-ova-todos-os-episodios",
      "texto_original": "Golden Kamuy 2nd Season OVA",
      "rating": 7.44,
      "classificacao_etaria": "A16",
      "imagem_original": "https://animefire.plus/img/animes/golden-kamuy-2nd-season-ova.webp",
      "imagem_pasta": "https://animefire.plus/img/animes/golden-kamuy-2nd-season-ova/",
      "secao": "legendados",
      "pagina": 84,
      "total_episodios": 2,
      "link_video": "https://animefire.plus/video/golden-kamuy-2nd-season-ova"
    },
    {
      "id": 1223,
      "nome": "Golden Kamuy 3rd Season",
      "link": "https://animefire.plus/animes/golden-kamuy-3rd-season-todos-os-episodios",
      "texto_original": "Golden Kamuy 3rd Season",
      "rating": null,
      "classificacao_etaria": "A16",
      "imagem_original": "https://animefire.plus/img/animes/golden-kamuy-3rd-season.webp",
      "imagem_pasta": "https://animefire.plus/img/animes/golden-kamuy-3rd-season/",
      "secao": "legendados",
      "pagina": 51,
      "total_episodios": 12,
      "link_video": "https://animefire.plus/video/golden-kamuy-3rd-season"
    },
    {
      "id": 1226,
      "nome": "Golden Time",
      "link": "https://animefire.plus/animes/golden-time-todos-os-episodios",
      "texto_original": "Golden Time",
      "rating": 7.87,
      "classificacao_etaria": "A14",
      "imagem_original": "https://animefire.plus/img/animes/golden-time.webp",
      "imagem_pasta": "https://animefire.plus/img/animes/golden-time/",
      "secao": "legendados",
      "pagina": 162,
      "total_episodios": 6,
      "link_video": "https://animefire.plus/video/golden-time"
    },
    {
      "id": 1229,
      "nome": "Good Night World (Dublado)",
      "link": "https://animefire.plus/animes/good-night-world-dublado-todos-os-episodios",
      "texto_original": "Good Night World (Dublado)",
      "rating": 7.06,
      "classificacao_etaria": "A16",
      "imagem_original": "https://animefire.plus/img/animes/good-night-world.webp",
      "imagem_pasta": "https://animefire.plus/img/animes/good-night-world/",
      "secao": "dublados,legendados",
      "pagina": 5,
      "total_episodios": 12,
      "link_video": "https://animefire.plus/video/good-night-world-dublado"
    },
    {
      "id": 1230,
      "nome": "Gorilla no Kami kara Kago sareta Reijou wa Ouritsu Kishidan de Kawaigarareru",
      "link": "https://animefire.plus/animes/gorilla-no-kami-kara-kago-sareta-reijou-wa-ouritsu-kishidan-de-kawaigarareru-todos-os-episodios",
      "texto_original": "Gorilla no Kami kara Kago sareta Reijou wa Ouritsu Kishidan de Kawaigarareru",
      "rating": 6.52,
      "classificacao_etaria": "A14",
      "imagem_original": "https://animefire.plus/img/animes/gorilla-no-kami-kara-kago-sareta-reijou-wa-ouritsu-kishidan-de-kawaigarareru.webp",
      "imagem_pasta": "https://animefire.plus/img/animes/gorilla-no-kami-kara-kago-sareta-reijou-wa-ouritsu-kishidan-de-kawaigarareru/",
      "secao": "legendados",
      "pagina": 5,
      "total_episodios": 12,
      "link_video": "https://animefire.plus/video/gorilla-no-kami-kara-kago-sareta-reijou-wa-ouritsu-kishidan-de-kawaigarareru"
    },
    {
      "id": 1231,
      "nome": "Gosenzo-sama Banbanzai!",
      "link": "https://animefire.plus/animes/gosenzo-sama-banbanzai-todos-os-episodios",
      "texto_original": "Gosenzo-sama Banbanzai!",
      "rating": 7.33,
      "classificacao_etaria": "A16",
      "imagem_original": "https://animefire.plus/img/animes/gosenzo-sama-banbanzai.webp",
      "imagem_pasta": "https://animefire.plus/img/animes/gosenzo-sama-banbanzai/",
      "secao": "legendados",
      "pagina": 173,
      "total_episodios": 6,
      "link_video": "https://animefire.plus/video/gosenzo-sama-banbanzai"
    },
    {
      "id": 1232,
      "nome": "Goshuushou-sama Ninomiya-kun",
      "link": "https://animefire.plus/animes/goshuushou-sama-ninomiya-kun-todos-os-episodios",
      "texto_original": "Goshuushou-sama Ninomiya-kun",
      "rating": 6.8,
      "classificacao_etaria": "A18",
      "imagem_original": "https://animefire.plus/img/animes/goshuushou-sama-ninomiya-kun.webp",
      "imagem_pasta": "https://animefire.plus/img/animes/goshuushou-sama-ninomiya-kun/",
      "secao": "legendados",
      "pagina": 104,
      "total_episodios": 12,
      "link_video": "https://animefire.plus/video/goshuushou-sama-ninomiya-kun"
    },
    {
      "id": 1234,
      "nome": "Goukon ni Ittara Onna ga Inakatta Hanashi",
      "link": "https://animefire.plus/animes/goukon-ni-ittara-onna-ga-inakatta-hanashi-todos-os-episodios",
      "texto_original": "Goukon ni Ittara Onna ga Inakatta Hanashi",
      "rating": 7.4,
      "classificacao_etaria": "A14",
      "imagem_original": "https://animefire.plus/img/animes/goukon-ni-ittara-onna-ga-inakatta-hanashi.webp",
      "imagem_pasta": "https://animefire.plus/img/animes/goukon-ni-ittara-onna-ga-inakatta-hanashi/",
      "secao": "legendados",
      "pagina": 9,
      "total_episodios": 12,
      "link_video": "https://animefire.plus/video/goukon-ni-ittara-onna-ga-inakatta-hanashi"
    },
    {
      "id": 1235,
      "nome": "Granbelm",
      "link": "https://animefire.plus/animes/granbelm-todos-os-episodios",
      "texto_original": "Granbelm",
      "rating": 6.75,
      "classificacao_etaria": "A14",
      "imagem_original": "https://animefire.plus/img/animes/granbelm.webp",
      "imagem_pasta": "https://animefire.plus/img/animes/granbelm/",
      "secao": "legendados",
      "pagina": 174,
      "total_episodios": 7,
      "link_video": "https://animefire.plus/video/granbelm"
    }
  ],
  "pagination": {
    "current_page": 30,
    "per_page": 20,
    "total_items": 2189,
    "total_pages": 110,
    "has_next": true,
    "has_prev": true
  }
}
