{
  "message": "Animes com 2 a 12 episódios",
  "episode_range": {
    "min": 2,
    "max": 12
  },
  "data": [
    {
      "id": 3456,
      "nome": "Shinigami no Ballad.",
      "link": "https://animefire.plus/animes/shinigami-no-ballad-todos-os-episodios",
      "texto_original": "Shinigami no Ballad.",
      "rating": 6.98,
      "classificacao_etaria": "A14",
      "imagem_original": "https://animefire.plus/img/animes/shinigami-no-ballad.webp",
      "imagem_pasta": "https://animefire.plus/img/animes/shinigami-no-ballad/",
      "secao": "legendados",
      "pagina": 171,
      "total_episodios": 6,
      "link_video": "https://animefire.plus/video/shinigami-no-ballad"
    },
    {
      "id": 3459,
      "nome": "Shinka no Mi: Shiranai Uchi ni Kachigumi Jinsei (Dublado)",
      "link": "https://animefire.plus/animes/shinka-no-mi-shiranai-uchi-ni-kachigumi-jinsei-dublado-todos-os-episodios",
      "texto_original": "Shinka no Mi: Shiranai Uchi ni Kachigumi Jinsei (Dublado)",
      "rating": 6.17,
      "classificacao_etaria": "A14",
      "imagem_original": "https://animefire.plus/img/animes/shinka-no-mi-shiranai-uchi-ni-kachigumi-jinsei.webp",
      "imagem_pasta": "https://animefire.plus/img/animes/shinka-no-mi-shiranai-uchi-ni-kachigumi-jinsei/",
      "secao": "dublados,legendados",
      "pagina": 14,
      "total_episodios": 12,
      "link_video": "https://animefire.plus/video/shinka-no-mi-shiranai-uchi-ni-kachigumi-jinsei-dublado"
    },
    {
      "id": 3462,
      "nome": "Shinkyoku Soukai Polyphonica",
      "link": "https://animefire.plus/animes/shinkyoku-soukai-polyphonica-todos-os-episodios",
      "texto_original": "Shinkyoku Soukai Polyphonica",
      "rating": 6.9,
      "classificacao_etaria": "A14",
      "imagem_original": "https://animefire.plus/img/animes/shinkyoku-soukai-polyphonica.webp",
      "imagem_pasta": "https://animefire.plus/img/animes/shinkyoku-soukai-polyphonica/",
      "secao": "legendados",
      "pagina": 150,
      "total_episodios": 12,
      "link_video": "https://animefire.plus/video/shinkyoku-soukai-polyphonica"
    },
    {
      "id": 3464,
      "nome": "Shinmai Maou No Testament",
      "link": "https://animefire.plus/animes/shinmai-maou-no-testament-todos-os-episodios",
      "texto_original": "Shinmai Maou No Testament",
      "rating": 7,
      "classificacao_etaria": "A18",
      "imagem_original": "https://animefire.plus/img/animes/shinmai-maou-no-testament.webp",
      "imagem_pasta": "https://animefire.plus/img/animes/shinmai-maou-no-testament/",
      "secao": "legendados",
      "pagina": 97,
      "total_episodios": 4,
      "link_video": "https://animefire.plus/video/shinmai-maou-no-testament"
    },
    {
      "id": 3467,
      "nome": "Shinmai Ossan Boukensha, Saikyou Party ni Shinu hodo Kitaerarete Muteki ni Naru.",
      "link": "https://animefire.plus/animes/shinmai-ossan-boukensha-saikyou-party-ni-shinu-hodo-kitaerarete-muteki-ni-naru-todos-os-episodios",
      "texto_original": "Shinmai Ossan Boukensha, Saikyou Party ni Shinu hodo Kitaerarete Muteki ni Naru.",
      "rating": 7.37,
      "classificacao_etaria": "A14",
      "imagem_original": "https://animefire.plus/img/animes/shinmai-ossan-boukensha-saikyou-party-ni-shinu-hodo-kitaerarete-muteki-ni-naru.webp",
      "imagem_pasta": "https://animefire.plus/img/animes/shinmai-ossan-boukensha-saikyou-party-ni-shinu-hodo-kitaerarete-muteki-ni-naru/",
      "secao": "legendados",
      "pagina": 12,
      "total_episodios": 12,
      "link_video": "https://animefire.plus/video/shinmai-ossan-boukensha-saikyou-party-ni-shinu-hodo-kitaerarete-muteki-ni-naru"
    },
    {
      "id": 3468,
      "nome": "Shinmai Renkinjutsushi no Tenpo Keiei",
      "link": "https://animefire.plus/animes/shinmai-renkinjutsushi-no-tenpo-keiei-todos-os-episodios",
      "texto_original": "Shinmai Renkinjutsushi no Tenpo Keiei",
      "rating": 6.62,
      "classificacao_etaria": "A14",
      "imagem_original": "https://animefire.plus/img/animes/shinmai-renkinjutsushi-no-tenpo-keiei.webp",
      "imagem_pasta": "https://animefire.plus/img/animes/shinmai-renkinjutsushi-no-tenpo-keiei/",
      "secao": "legendados",
      "pagina": 29,
      "total_episodios": 12,
      "link_video": "https://animefire.plus/video/shinmai-renkinjutsushi-no-tenpo-keiei"
    },
    {
      "id": 3469,
      "nome": "Shinobi no Ittoki (Dublado)",
      "link": "https://animefire.plus/animes/shinobi-no-ittoki-dublado-todos-os-episodios",
      "texto_original": "Shinobi no Ittoki (Dublado)",
      "rating": 6.06,
      "classificacao_etaria": "A14",
      "imagem_original": "https://animefire.plus/img/animes/shinobi-no-ittoki.webp",
      "imagem_pasta": "https://animefire.plus/img/animes/shinobi-no-ittoki/",
      "secao": "dublados,legendados",
      "pagina": 9,
      "total_episodios": 12,
      "link_video": "https://animefire.plus/video/shinobi-no-ittoki-dublado"
    },
    {
      "id": 3472,
      "nome": "Shinryaku! Ika Musume (Dublado)",
      "link": "https://animefire.plus/animes/shinryaku-ika-musume-dublado-todos-os-episodios",
      "texto_original": "Shinryaku! Ika Musume (Dublado)",
      "rating": 7.41,
      "classificacao_etaria": "A14",
      "imagem_original": "https://animefire.plus/img/animes/shinryaku-ika-musume.webp",
      "imagem_pasta": "https://animefire.plus/img/animes/shinryaku-ika-musume/",
      "secao": "dublados,legendados",
      "pagina": 5,
      "total_episodios": 12,
      "link_video": "https://animefire.plus/video/shinryaku-ika-musume-dublado"
    },
    {
      "id": 3473,
      "nome": "Shinryaku!? Ika Musume (Dublado)",
      "link": "https://animefire.plus/animes/the-invader-comes-from-the-bottom-of-the-sea-dublado-todos-os-episodios",
      "texto_original": "Shinryaku!? Ika Musume (Dublado)",
      "rating": 7.47,
      "classificacao_etaria": "A14",
      "imagem_original": "https://animefire.plus/img/animes/the-invader-comes-from-the-bottom-of-the-sea.webp",
      "imagem_pasta": "https://animefire.plus/img/animes/the-invader-comes-from-the-bottom-of-the-sea/",
      "secao": "dublados",
      "pagina": 4,
      "total_episodios": 12,
      "link_video": "https://animefire.plus/video/the-invader-comes-from-the-bottom-of-the-sea-dublado"
    },
    {
      "id": 3475,
      "nome": "Shinya! Tensai Bakabon",
      "link": "https://animefire.plus/animes/shinya-tensai-bakabon-todos-os-episodios",
      "texto_original": "Shinya! Tensai Bakabon",
      "rating": 6.12,
      "classificacao_etaria": null,
      "imagem_original": "https://animefire.plus/img/animes/shinya-tensai-bakabon.webp",
      "imagem_pasta": "https://animefire.plus/img/animes/shinya-tensai-bakabon/",
      "secao": "legendados",
      "pagina": 138,
      "total_episodios": 12,
      "link_video": "https://animefire.plus/video/shinya-tensai-bakabon"
    },
    {
      "id": 3477,
      "nome": "Shiro Seijo to Kuro Bokushi",
      "link": "https://animefire.plus/animes/shiro-seijo-to-kuro-bokushi-todos-os-episodios",
      "texto_original": "Shiro Seijo to Kuro Bokushi",
      "rating": 7.37,
      "classificacao_etaria": "A14",
      "imagem_original": "https://animefire.plus/img/animes/shiro-seijo-to-kuro-bokushi.webp",
      "imagem_pasta": "https://animefire.plus/img/animes/shiro-seijo-to-kuro-bokushi/",
      "secao": "legendados",
      "pagina": 22,
      "total_episodios": 12,
      "link_video": "https://animefire.plus/video/shiro-seijo-to-kuro-bokushi"
    },
    {
      "id": 3479,
      "nome": "Shirobuta Kizoku desu ga Zense no Kioku ga Haeta node Hiyoko na Otouto Sodatemasu",
      "link": "https://animefire.plus/animes/shirobuta-kizoku-desu-ga-zense-no-kioku-ga-haeta-node-hiyoko-na-otouto-sodatemasu-todos-os-episodios",
      "texto_original": "Shirobuta Kizoku desu ga Zense no Kioku ga Haeta node Hiyoko na Otouto Sodatemasu",
      "rating": 6.75,
      "classificacao_etaria": "A14",
      "imagem_original": "https://animefire.plus/img/animes/shirobuta-kizoku-desu-ga-zense-no-kioku-ga-haeta-node-hiyoko-na-otouto-sodatemasu.webp",
      "imagem_pasta": "https://animefire.plus/img/animes/shirobuta-kizoku-desu-ga-zense-no-kioku-ga-haeta-node-hiyoko-na-otouto-sodatemasu/",
      "secao": "legendados",
      "pagina": 3,
      "total_episodios": 12,
      "link_video": "https://animefire.plus/video/shirobuta-kizoku-desu-ga-zense-no-kioku-ga-haeta-node-hiyoko-na-otouto-sodatemasu"
    },
    {
      "id": 3480,
      "nome": "Shirogane no Ishi: Argevollen",
      "link": "https://animefire.plus/animes/shirogane-no-ishi-argevollen-todos-os-episodios",
      "texto_original": "Shirogane no Ishi: Argevollen",
      "rating": 6.53,
      "classificacao_etaria": "A16",
      "imagem_original": "https://animefire.plus/img/animes/shirogane-no-ishi-argevollen.webp",
      "imagem_pasta": "https://animefire.plus/img/animes/shirogane-no-ishi-argevollen/",
      "secao": "legendados",
      "pagina": 138,
      "total_episodios": 2,
      "link_video": "https://animefire.plus/video/shirogane-no-ishi-argevollen"
    },
    {
      "id": 3483,
      "nome": "Shishunki Bishoujo Gattai Robo Z-Mind",
      "link": "https://animefire.plus/animes/shishunki-bishoujo-gattai-robo-z-mind-todos-os-episodios",
      "texto_original": "Shishunki Bishoujo Gattai Robo Z-Mind",
      "rating": 5.9,
      "classificacao_etaria": "A14",
      "imagem_original": "https://animefire.plus/img/animes/shishunki-bishoujo-gattai-robo-z-mind.webp",
      "imagem_pasta": "https://animefire.plus/img/animes/shishunki-bishoujo-gattai-robo-z-mind/",
      "secao": "legendados",
      "pagina": 56,
      "total_episodios": 3,
      "link_video": "https://animefire.plus/video/shishunki-bishoujo-gattai-robo-z-mind"
    },
    {
      "id": 3484,
      "nome": "Shiunji-ke no Kodomotachi (Dublado)",
      "link": "https://animefire.plus/animes/shiunji-ke-no-kodomotachi-dublado-todos-os-episodios",
      "texto_original": "Shiunji-ke no Kodomotachi (Dublado)",
      "rating": 7.1,
      "classificacao_etaria": "A14",
      "imagem_original": "https://animefire.plus/img/animes/shiunji-ke-no-kodomotachi.webp",
      "imagem_pasta": "https://animefire.plus/img/animes/shiunji-ke-no-kodomotachi/",
      "secao": "dublados,legendados,lancamentos",
      "pagina": 1,
      "total_episodios": 12,
      "link_video": "https://animefire.plus/video/shiunji-ke-no-kodomotachi-dublado"
    },
    {
      "id": 3485,
      "nome": "Shiyan Pin Jiating",
      "link": "https://animefire.plus/animes/shiyan-pin-jiating-todos-os-episodios",
      "texto_original": "Shiyan Pin Jiating",
      "rating": 6.41,
      "classificacao_etaria": "A14",
      "imagem_original": "https://animefire.plus/img/animes/shiyan-pin-jiating.webp",
      "imagem_pasta": "https://animefire.plus/img/animes/shiyan-pin-jiating/",
      "secao": "legendados",
      "pagina": 114,
      "total_episodios": 12,
      "link_video": "https://animefire.plus/video/shiyan-pin-jiating"
    },
    {
      "id": 3486,
      "nome": "Shokei Shoujo no Virgin Road",
      "link": "https://animefire.plus/animes/shokei-shoujo-no-virgin-road-todos-os-episodios",
      "texto_original": "Shokei Shoujo no Virgin Road",
      "rating": 6.76,
      "classificacao_etaria": "A16",
      "imagem_original": "https://animefire.plus/img/animes/shokei-shoujo-no-virgin-road.webp",
      "imagem_pasta": "https://animefire.plus/img/animes/shokei-shoujo-no-virgin-road/",
      "secao": "legendados",
      "pagina": 34,
      "total_episodios": 12,
      "link_video": "https://animefire.plus/video/shokei-shoujo-no-virgin-road"
    },
    {
      "id": 3488,
      "nome": "Shokugeki no Souma OVA",
      "link": "https://animefire.plus/animes/shokugeki-no-souma-ova-todos-os-episodios",
      "texto_original": "Shokugeki no Souma OVA",
      "rating": 7.35,
      "classificacao_etaria": "A14",
      "imagem_original": "https://animefire.plus/img/animes/shokugeki-no-souma-ova.webp",
      "imagem_pasta": "https://animefire.plus/img/animes/shokugeki-no-souma-ova/",
      "secao": "legendados",
      "pagina": 37,
      "total_episodios": 2,
      "link_video": "https://animefire.plus/video/shokugeki-no-souma-ova"
    },
    {
      "id": 3491,
      "nome": "Shokugeki no Souma: Ni no Sara OVA",
      "link": "https://animefire.plus/animes/shokugeki-no-souma-ni-no-sara-ova-todos-os-episodios",
      "texto_original": "Shokugeki no Souma: Ni no Sara OVA",
      "rating": 7.51,
      "classificacao_etaria": "A14",
      "imagem_original": "https://animefire.plus/img/animes/shokugeki-no-souma-ni-no-sara-ova.webp",
      "imagem_pasta": "https://animefire.plus/img/animes/shokugeki-no-souma-ni-no-sara-ova/",
      "secao": "legendados",
      "pagina": 43,
      "total_episodios": 2,
      "link_video": "https://animefire.plus/video/shokugeki-no-souma-ni-no-sara-ova"
    },
    {
      "id": 3492,
      "nome": "Shokugeki no Souma: San no Sara",
      "link": "https://animefire.plus/animes/shokugeki-no-souma-san-no-sara-todos-os-episodios",
      "texto_original": "Shokugeki no Souma: San no Sara",
      "rating": 8.41,
      "classificacao_etaria": "A14",
      "imagem_original": "https://animefire.plus/img/animes/shokugeki-no-souma-san-no-sara.webp",
      "imagem_pasta": "https://animefire.plus/img/animes/shokugeki-no-souma-san-no-sara/",
      "secao": "legendados",
      "pagina": 166,
      "total_episodios": 2,
      "link_video": "https://animefire.plus/video/shokugeki-no-souma-san-no-sara"
    }
  ],
  "pagination": {
    "current_page": 88,
    "per_page": 20,
    "total_items": 2189,
    "total_pages": 110,
    "has_next": true,
    "has_prev": true
  }
}
