{
  "message": "Animes com 2 a 12 episódios",
  "episode_range": {
    "min": 2,
    "max": 12
  },
  "data": [
    {
      "id": 3322,
      "nome": "Sekaiichi Hatsukoi 2",
      "link": "https://animefire.plus/animes/sekaiichi-hatsukoi-2-todos-os-episodios",
      "texto_original": "Sekaiichi Hatsukoi 2",
      "rating": 8.18,
      "classificacao_etaria": "A14",
      "imagem_original": "https://animefire.plus/img/animes/sekaiichi-hatsukoi-2.webp",
      "imagem_pasta": "https://animefire.plus/img/animes/sekaiichi-hatsukoi-2/",
      "secao": "legendados",
      "pagina": 161,
      "total_episodios": 3,
      "link_video": "https://animefire.plus/video/sekaiichi-hatsukoi-2"
    },
    {
      "id": 3323,
      "nome": "Sekirei",
      "link": "https://animefire.plus/animes/sekirei-todos-os-episodios",
      "texto_original": "Sekirei",
      "rating": 7.27,
      "classificacao_etaria": "A18",
      "imagem_original": "https://animefire.plus/img/animes/sekirei.webp",
      "imagem_pasta": "https://animefire.plus/img/animes/sekirei/",
      "secao": "legendados",
      "pagina": 116,
      "total_episodios": 12,
      "link_video": "https://animefire.plus/video/sekirei"
    },
    {
      "id": 3325,
      "nome": "Sekkou Boys",
      "link": "https://animefire.plus/animes/sekkou-boys-todos-os-episodios",
      "texto_original": "Sekkou Boys",
      "rating": 6.33,
      "classificacao_etaria": "A14",
      "imagem_original": "https://animefire.plus/img/animes/sekkou-boys.webp",
      "imagem_pasta": "https://animefire.plus/img/animes/sekkou-boys/",
      "secao": "legendados",
      "pagina": 97,
      "total_episodios": 12,
      "link_video": "https://animefire.plus/video/sekkou-boys"
    },
    {
      "id": 3327,
      "nome": "Selector Infected WIXOSS",
      "link": "https://animefire.plus/animes/selector-infected-wixoss-todos-os-episodios",
      "texto_original": "Selector Infected WIXOSS",
      "rating": 7.33,
      "classificacao_etaria": "A16",
      "imagem_original": "https://animefire.plus/img/animes/selector-infected-wixoss.webp",
      "imagem_pasta": "https://animefire.plus/img/animes/selector-infected-wixoss/",
      "secao": "legendados",
      "pagina": 100,
      "total_episodios": 12,
      "link_video": "https://animefire.plus/video/selector-infected-wixoss"
    },
    {
      "id": 3329,
      "nome": "Sengoku Basara",
      "link": "https://animefire.plus/animes/sengoku-basara-todos-os-episodios",
      "texto_original": "Sengoku Basara",
      "rating": 7.47,
      "classificacao_etaria": "A14",
      "imagem_original": "https://animefire.plus/img/animes/sengoku-basara.webp",
      "imagem_pasta": "https://animefire.plus/img/animes/sengoku-basara/",
      "secao": "legendados",
      "pagina": 130,
      "total_episodios": 7,
      "link_video": "https://animefire.plus/video/sengoku-basara"
    },
    {
      "id": 3330,
      "nome": "Sengoku Basara Two",
      "link": "https://animefire.plus/animes/sengoku-basara-two-todos-os-episodios",
      "texto_original": "Sengoku Basara Two",
      "rating": 7.63,
      "classificacao_etaria": "A14",
      "imagem_original": "https://animefire.plus/img/animes/sengoku-basara-two.webp",
      "imagem_pasta": "https://animefire.plus/img/animes/sengoku-basara-two/",
      "secao": "legendados",
      "pagina": 105,
      "total_episodios": 12,
      "link_video": "https://animefire.plus/video/sengoku-basara-two"
    },
    {
      "id": 3332,
      "nome": "Sengoku Basara: Judge End",
      "link": "https://animefire.plus/animes/sengoku-basara-judge-end-todos-os-episodios",
      "texto_original": "Sengoku Basara: Judge End",
      "rating": 6.93,
      "classificacao_etaria": "A14",
      "imagem_original": "https://animefire.plus/img/animes/sengoku-basara-judge-end.webp",
      "imagem_pasta": "https://animefire.plus/img/animes/sengoku-basara-judge-end/",
      "secao": "legendados",
      "pagina": 176,
      "total_episodios": 6,
      "link_video": "https://animefire.plus/video/sengoku-basara-judge-end"
    },
    {
      "id": 3334,
      "nome": "Sengoku Night Blood",
      "link": "https://animefire.plus/animes/sengoku-night-blood-todos-os-episodios",
      "texto_original": "Sengoku Night Blood",
      "rating": 6.16,
      "classificacao_etaria": "A14",
      "imagem_original": "https://animefire.plus/img/animes/sengoku-night-blood.webp",
      "imagem_pasta": "https://animefire.plus/img/animes/sengoku-night-blood/",
      "secao": "legendados",
      "pagina": 102,
      "total_episodios": 9,
      "link_video": "https://animefire.plus/video/sengoku-night-blood"
    },
    {
      "id": 3335,
      "nome": "Sengoku Otome: Momoiro Paradox",
      "link": "https://animefire.plus/animes/sengoku-otome-momoiro-paradox-todos-os-episodios",
      "texto_original": "Sengoku Otome: Momoiro Paradox",
      "rating": 6.66,
      "classificacao_etaria": "A18",
      "imagem_original": "https://animefire.plus/img/animes/sengoku-otome-momoiro-paradox.webp",
      "imagem_pasta": "https://animefire.plus/img/animes/sengoku-otome-momoiro-paradox/",
      "secao": "legendados",
      "pagina": 115,
      "total_episodios": 12,
      "link_video": "https://animefire.plus/video/sengoku-otome-momoiro-paradox"
    },
    {
      "id": 3339,
      "nome": "Senjou no Valkyria 3: Tagatame no Juusou",
      "link": "https://animefire.plus/animes/senjou-no-valkyria-3-tagatame-no-juusou-todos-os-episodios",
      "texto_original": "Senjou no Valkyria 3: Tagatame no Juusou",
      "rating": 7.33,
      "classificacao_etaria": "A14",
      "imagem_original": "https://animefire.plus/img/animes/senjou-no-valkyria-3-tagatame-no-juusou.webp",
      "imagem_pasta": "https://animefire.plus/img/animes/senjou-no-valkyria-3-tagatame-no-juusou/",
      "secao": "legendados",
      "pagina": 86,
      "total_episodios": 2,
      "link_video": "https://animefire.plus/video/senjou-no-valkyria-3-tagatame-no-juusou"
    },
    {
      "id": 3340,
      "nome": "Senjou no Valkyria: SenVal Theater",
      "link": "https://animefire.plus/animes/senjou-no-valkyria-senval-theater-todos-os-episodios",
      "texto_original": "Senjou no Valkyria: SenVal Theater",
      "rating": 6.83,
      "classificacao_etaria": "A14",
      "imagem_original": "https://animefire.plus/img/animes/senjou-no-valkyria-senval-theater.webp",
      "imagem_pasta": "https://animefire.plus/img/animes/senjou-no-valkyria-senval-theater/",
      "secao": "legendados",
      "pagina": 140,
      "total_episodios": 9,
      "link_video": "https://animefire.plus/video/senjou-no-valkyria-senval-theater"
    },
    {
      "id": 3341,
      "nome": "Senjuushi",
      "link": "https://animefire.plus/animes/senjuushi-todos-os-episodios",
      "texto_original": "Senjuushi",
      "rating": 4.97,
      "classificacao_etaria": "A14",
      "imagem_original": "https://animefire.plus/img/animes/senjuushi.webp",
      "imagem_pasta": "https://animefire.plus/img/animes/senjuushi/",
      "secao": "legendados",
      "pagina": 173,
      "total_episodios": 11,
      "link_video": "https://animefire.plus/video/senjuushi"
    },
    {
      "id": 3346,
      "nome": "Senki Zesshou Symphogear XV",
      "link": "https://animefire.plus/animes/senki-zesshou-symphogear-xv-todos-os-episodios",
      "texto_original": "Senki Zesshou Symphogear XV",
      "rating": 8.21,
      "classificacao_etaria": "A14",
      "imagem_original": "https://animefire.plus/img/animes/senki-zesshou-symphogear-xv.webp",
      "imagem_pasta": "https://animefire.plus/img/animes/senki-zesshou-symphogear-xv/",
      "secao": "legendados",
      "pagina": 152,
      "total_episodios": 4,
      "link_video": "https://animefire.plus/video/senki-zesshou-symphogear-xv"
    },
    {
      "id": 3348,
      "nome": "Senpai ga Uzai Kouhai no Hanashi",
      "link": "https://animefire.plus/animes/senpai-ga-uzai-kouhai-no-hanashi-todos-os-episodios",
      "texto_original": "Senpai ga Uzai Kouhai no Hanashi",
      "rating": 7.55,
      "classificacao_etaria": "A14",
      "imagem_original": "https://animefire.plus/img/animes/senpai-ga-uzai-kouhai-no-hanashi.webp",
      "imagem_pasta": "https://animefire.plus/img/animes/senpai-ga-uzai-kouhai-no-hanashi/",
      "secao": "legendados",
      "pagina": 37,
      "total_episodios": 12,
      "link_video": "https://animefire.plus/video/senpai-ga-uzai-kouhai-no-hanashi"
    },
    {
      "id": 3349,
      "nome": "Senpai wa Otokonoko",
      "link": "https://animefire.plus/animes/senpai-wa-otokonoko-todos-os-episodios",
      "texto_original": "Senpai wa Otokonoko",
      "rating": 7.3,
      "classificacao_etaria": "A14",
      "imagem_original": "https://animefire.plus/img/animes/senpai-wa-otokonoko.webp",
      "imagem_pasta": "https://animefire.plus/img/animes/senpai-wa-otokonoko/",
      "secao": "legendados",
      "pagina": 12,
      "total_episodios": 12,
      "link_video": "https://animefire.plus/video/senpai-wa-otokonoko"
    },
    {
      "id": 3350,
      "nome": "Senran Kagura",
      "link": "https://animefire.plus/animes/senran-kagura-todos-os-episodios",
      "texto_original": "Senran Kagura",
      "rating": 6.43,
      "classificacao_etaria": "A14",
      "imagem_original": "https://animefire.plus/img/animes/senran-kagura.webp",
      "imagem_pasta": "https://animefire.plus/img/animes/senran-kagura/",
      "secao": "legendados",
      "pagina": 161,
      "total_episodios": 6,
      "link_video": "https://animefire.plus/video/senran-kagura"
    },
    {
      "id": 3351,
      "nome": "Senran Kagura Shinovi Master: Tokyo Youma-hen",
      "link": "https://animefire.plus/animes/senran-kagura-shinovi-master-tokyo-youma-hen-todos-os-episodios",
      "texto_original": "Senran Kagura Shinovi Master: Tokyo Youma-hen",
      "rating": 6.36,
      "classificacao_etaria": "A18",
      "imagem_original": "https://animefire.plus/img/animes/senran-kagura-shinovi-master-tokyo-youma-hen.webp",
      "imagem_pasta": "https://animefire.plus/img/animes/senran-kagura-shinovi-master-tokyo-youma-hen/",
      "secao": "legendados",
      "pagina": 157,
      "total_episodios": 12,
      "link_video": "https://animefire.plus/video/senran-kagura-shinovi-master-tokyo-youma-hen"
    },
    {
      "id": 3353,
      "nome": "Sentai Daishikkaku",
      "link": "https://animefire.plus/animes/sentai-daishikkaku-todos-os-episodios",
      "texto_original": "Sentai Daishikkaku",
      "rating": 7.32,
      "classificacao_etaria": "A14",
      "imagem_original": "https://animefire.plus/img/animes/sentai-daishikkaku.webp",
      "imagem_pasta": "https://animefire.plus/img/animes/sentai-daishikkaku/",
      "secao": "legendados",
      "pagina": 15,
      "total_episodios": 12,
      "link_video": "https://animefire.plus/video/sentai-daishikkaku"
    },
    {
      "id": 3354,
      "nome": "Sentai Daishikkaku 2nd Season",
      "link": "https://animefire.plus/animes/sentai-daishikkaku-2nd-season-todos-os-episodios",
      "texto_original": "Sentai Daishikkaku 2nd Season",
      "rating": 7.1,
      "classificacao_etaria": "A14",
      "imagem_original": "https://animefire.plus/img/animes/sentai-daishikkaku-2nd-season.webp",
      "imagem_pasta": "https://animefire.plus/img/animes/sentai-daishikkaku-2nd-season/",
      "secao": "legendados",
      "pagina": 6,
      "total_episodios": 12,
      "link_video": "https://animefire.plus/video/sentai-daishikkaku-2nd-season"
    },
    {
      "id": 3355,
      "nome": "Sentai Red Isekai de Boukensha ni Naru",
      "link": "https://animefire.plus/animes/sentai-red-isekai-de-boukensha-ni-naru-todos-os-episodios",
      "texto_original": "Sentai Red Isekai de Boukensha ni Naru",
      "rating": 6.8,
      "classificacao_etaria": "A14",
      "imagem_original": "https://animefire.plus/img/animes/sentai-red-isekai-de-boukensha-ni-naru.webp",
      "imagem_pasta": "https://animefire.plus/img/animes/sentai-red-isekai-de-boukensha-ni-naru/",
      "secao": "legendados",
      "pagina": 6,
      "total_episodios": 12,
      "link_video": "https://animefire.plus/video/sentai-red-isekai-de-boukensha-ni-naru"
    }
  ],
  "pagination": {
    "current_page": 84,
    "per_page": 20,
    "total_items": 2189,
    "total_pages": 110,
    "has_next": true,
    "has_prev": true
  }
}
