{
  "message": "Animes com 2 a 12 episódios",
  "episode_range": {
    "min": 2,
    "max": 12
  },
  "data": [
    {
      "id": 598,
      "nome": "Cheating Craft",
      "link": "https://animefire.plus/animes/cheating-craft-todos-os-episodios",
      "texto_original": "Cheating Craft",
      "rating": 5.54,
      "classificacao_etaria": "A14",
      "imagem_original": "https://animefire.plus/img/animes/cheating-craft.webp",
      "imagem_pasta": "https://animefire.plus/img/animes/cheating-craft/",
      "secao": "legendados",
      "pagina": 131,
      "total_episodios": 11,
      "link_video": "https://animefire.plus/video/cheating-craft"
    },
    {
      "id": 600,
      "nome": "Chi.: Chikyuu no Undou ni Tsuite",
      "link": "https://animefire.plus/animes/chi-chikyuu-no-undou-ni-tsuite-todos-os-episodios",
      "texto_original": "Chi.: Chikyuu no Undou ni Tsuite",
      "rating": 8.71,
      "classificacao_etaria": "A16",
      "imagem_original": "https://animefire.plus/img/animes/chi-chikyuu-no-undou-ni-tsuite.webp",
      "imagem_pasta": "https://animefire.plus/img/animes/chi-chikyuu-no-undou-ni-tsuite/",
      "secao": "legendados,lancamentos",
      "pagina": 9,
      "total_episodios": 6,
      "link_video": "https://animefire.plus/video/chi-chikyuu-no-undou-ni-tsuite"
    },
    {
      "id": 601,
      "nome": "Chiba Pedal: Yowamushi Pedal to Manabu Jitensha Koutsuu Anzen",
      "link": "https://animefire.plus/animes/chiba-pedal-yowamushi-pedal-to-manabu-jitensha-koutsuu-anzen-todos-os-episodios",
      "texto_original": "Chiba Pedal: Yowamushi Pedal to Manabu Jitensha Koutsuu Anzen",
      "rating": 6.31,
      "classificacao_etaria": "A14",
      "imagem_original": "https://animefire.plus/img/animes/chiba-pedal-yowamushi-pedal-to-manabu-jitensha-koutsuu-anzen.webp",
      "imagem_pasta": "https://animefire.plus/img/animes/chiba-pedal-yowamushi-pedal-to-manabu-jitensha-koutsuu-anzen/",
      "secao": "legendados",
      "pagina": 86,
      "total_episodios": 6,
      "link_video": "https://animefire.plus/video/chiba-pedal-yowamushi-pedal-to-manabu-jitensha-koutsuu-anzen"
    },
    {
      "id": 607,
      "nome": "Chiisana Eiyuu: Kani to Tamago to Toumei Ningen (Dublado)",
      "link": "https://animefire.plus/animes/chiisana-eiyuu-kani-to-tamago-to-toumei-ningen-dublado-todos-os-episodios",
      "texto_original": "Chiisana Eiyuu: Kani to Tamago to Toumei Ningen (Dublado)",
      "rating": 7.06,
      "classificacao_etaria": null,
      "imagem_original": "https://animefire.plus/img/animes/chiisana-eiyuu-kani-to-tamago-to-toumei-ningen.webp",
      "imagem_pasta": "https://animefire.plus/img/animes/chiisana-eiyuu-kani-to-tamago-to-toumei-ningen/",
      "secao": "dublados,legendados",
      "pagina": 23,
      "total_episodios": 3,
      "link_video": "https://animefire.plus/video/chiisana-eiyuu-kani-to-tamago-to-toumei-ningen-dublado"
    },
    {
      "id": 608,
      "nome": "Chikyuu Shoujo Arjuna (Dublado)",
      "link": "https://animefire.plus/animes/chikyuu-shoujo-arjuna-dublado-todos-os-episodios",
      "texto_original": "Chikyuu Shoujo Arjuna (Dublado)",
      "rating": 6.91,
      "classificacao_etaria": "A14",
      "imagem_original": "https://animefire.plus/img/animes/chikyuu-shoujo-arjuna.webp",
      "imagem_pasta": "https://animefire.plus/img/animes/chikyuu-shoujo-arjuna/",
      "secao": "dublados,legendados",
      "pagina": 27,
      "total_episodios": 9,
      "link_video": "https://animefire.plus/video/chikyuu-shoujo-arjuna-dublado"
    },
    {
      "id": 610,
      "nome": "Chimimo",
      "link": "https://animefire.plus/animes/chimimo-todos-os-episodios",
      "texto_original": "Chimimo",
      "rating": 6.9,
      "classificacao_etaria": null,
      "imagem_original": "https://animefire.plus/img/animes/chimimo.webp",
      "imagem_pasta": "https://animefire.plus/img/animes/chimimo/",
      "secao": "legendados",
      "pagina": 31,
      "total_episodios": 12,
      "link_video": "https://animefire.plus/video/chimimo"
    },
    {
      "id": 611,
      "nome": "Chio-chan no Tsuugakuro",
      "link": "https://animefire.plus/animes/chio-chan-no-tsuugakuro-todos-os-episodios",
      "texto_original": "Chio-chan no Tsuugakuro",
      "rating": 7.5,
      "classificacao_etaria": "A14",
      "imagem_original": "https://animefire.plus/img/animes/chio-chan-no-tsuugakuro.webp",
      "imagem_pasta": "https://animefire.plus/img/animes/chio-chan-no-tsuugakuro/",
      "secao": "legendados",
      "pagina": 146,
      "total_episodios": 12,
      "link_video": "https://animefire.plus/video/chio-chan-no-tsuugakuro"
    },
    {
      "id": 614,
      "nome": "Chivas 1-2-3",
      "link": "https://animefire.plus/animes/chivas-1-2-3-todos-os-episodios",
      "texto_original": "Chivas 1-2-3",
      "rating": 6.06,
      "classificacao_etaria": "A18",
      "imagem_original": "https://animefire.plus/img/animes/chivas-1-2-3.webp",
      "imagem_pasta": "https://animefire.plus/img/animes/chivas-1-2-3/",
      "secao": "legendados",
      "pagina": 68,
      "total_episodios": 2,
      "link_video": "https://animefire.plus/video/chivas-1-2-3"
    },
    {
      "id": 621,
      "nome": "Chotto dake Ai ga Omoi Dark Elf ga Isekai kara Oikaketekita",
      "link": "https://animefire.plus/animes/chotto-dake-ai-ga-omoi-dark-elf-ga-isekai-kara-oikaketekita-todos-os-episodios",
      "texto_original": "Chotto dake Ai ga Omoi Dark Elf ga Isekai kara Oikaketekita",
      "rating": 5.52,
      "classificacao_etaria": "A18",
      "imagem_original": "https://animefire.plus/img/animes/chotto-dake-ai-ga-omoi-dark-elf-ga-isekai-kara-oikaketekita.webp",
      "imagem_pasta": "https://animefire.plus/img/animes/chotto-dake-ai-ga-omoi-dark-elf-ga-isekai-kara-oikaketekita/",
      "secao": "legendados",
      "pagina": 3,
      "total_episodios": 12,
      "link_video": "https://animefire.plus/video/chotto-dake-ai-ga-omoi-dark-elf-ga-isekai-kara-oikaketekita"
    },
    {
      "id": 623,
      "nome": "Chou Kousoku Gran Doll",
      "link": "https://animefire.plus/animes/chou-kousoku-gran-doll-todos-os-episodios",
      "texto_original": "Chou Kousoku Gran Doll",
      "rating": 5.56,
      "classificacao_etaria": "A18",
      "imagem_original": "https://animefire.plus/img/animes/chou-kousoku-gran-doll.webp",
      "imagem_pasta": "https://animefire.plus/img/animes/chou-kousoku-gran-doll/",
      "secao": "legendados",
      "pagina": 72,
      "total_episodios": 3,
      "link_video": "https://animefire.plus/video/chou-kousoku-gran-doll"
    },
    {
      "id": 625,
      "nome": "Choujigen Game Neptune The Animation",
      "link": "https://animefire.plus/animes/choujigen-game-neptune-the-animation-todos-os-episodios",
      "texto_original": "Choujigen Game Neptune The Animation",
      "rating": 7.11,
      "classificacao_etaria": "A14",
      "imagem_original": "https://animefire.plus/img/animes/choujigen-game-neptune-the-animation.webp",
      "imagem_pasta": "https://animefire.plus/img/animes/choujigen-game-neptune-the-animation/",
      "secao": "legendados",
      "pagina": 118,
      "total_episodios": 12,
      "link_video": "https://animefire.plus/video/choujigen-game-neptune-the-animation"
    },
    {
      "id": 631,
      "nome": "Choujuushin Gravion Zwei",
      "link": "https://animefire.plus/animes/choujuushin-gravion-zwei-todos-os-episodios",
      "texto_original": "Choujuushin Gravion Zwei",
      "rating": 6.7,
      "classificacao_etaria": "A18",
      "imagem_original": "https://animefire.plus/img/animes/choujuushin-gravion-zwei.webp",
      "imagem_pasta": "https://animefire.plus/img/animes/choujuushin-gravion-zwei/",
      "secao": "legendados",
      "pagina": 119,
      "total_episodios": 12,
      "link_video": "https://animefire.plus/video/choujuushin-gravion-zwei"
    },
    {
      "id": 632,
      "nome": "Choukadou Girl ⅙",
      "link": "https://animefire.plus/animes/choukadou-girl-todos-os-episodios",
      "texto_original": "Choukadou Girl ⅙",
      "rating": 6,
      "classificacao_etaria": "A14",
      "imagem_original": "https://animefire.plus/img/animes/choukadou-girl.webp",
      "imagem_pasta": "https://animefire.plus/img/animes/choukadou-girl/",
      "secao": "legendados",
      "pagina": 167,
      "total_episodios": 12,
      "link_video": "https://animefire.plus/video/choukadou-girl"
    },
    {
      "id": 635,
      "nome": "Chrno Crusade",
      "link": "https://animefire.plus/animes/chrno-crusade-todos-os-episodios",
      "texto_original": "Chrno Crusade",
      "rating": 7.74,
      "classificacao_etaria": "A16",
      "imagem_original": "https://animefire.plus/img/animes/chrno-crusade.webp",
      "imagem_pasta": "https://animefire.plus/img/animes/chrno-crusade/",
      "secao": "legendados",
      "pagina": 168,
      "total_episodios": 3,
      "link_video": "https://animefire.plus/video/chrno-crusade"
    },
    {
      "id": 636,
      "nome": "Chrno Crusade: Az demo Wakaru Chrno Crusade Kouza",
      "link": "https://animefire.plus/animes/chrno-crusade-az-demo-wakaru-chrno-crusade-kouza-todos-os-episodios",
      "texto_original": "Chrno Crusade: Az demo Wakaru Chrno Crusade Kouza",
      "rating": 6.57,
      "classificacao_etaria": "A14",
      "imagem_original": "https://animefire.plus/img/animes/chrno-crusade-az-demo-wakaru-chrno-crusade-kouza.webp",
      "imagem_pasta": "https://animefire.plus/img/animes/chrno-crusade-az-demo-wakaru-chrno-crusade-kouza/",
      "secao": "legendados",
      "pagina": 70,
      "total_episodios": 11,
      "link_video": "https://animefire.plus/video/chrno-crusade-az-demo-wakaru-chrno-crusade-kouza"
    },
    {
      "id": 638,
      "nome": "Chu Feng: B.E.E",
      "link": "https://animefire.plus/animes/chu-feng-b-e-e-todos-os-episodios",
      "texto_original": "Chu Feng: B.E.E",
      "rating": 5.99,
      "classificacao_etaria": "A16",
      "imagem_original": "https://animefire.plus/img/animes/chu-feng-b-e-e.webp",
      "imagem_pasta": "https://animefire.plus/img/animes/chu-feng-b-e-e/",
      "secao": "legendados",
      "pagina": 154,
      "total_episodios": 6,
      "link_video": "https://animefire.plus/video/chu-feng-b-e-e"
    },
    {
      "id": 639,
      "nome": "Chu-Bra!!",
      "link": "https://animefire.plus/animes/chu-bra-todos-os-episodios",
      "texto_original": "Chu-Bra!!",
      "rating": 6.28,
      "classificacao_etaria": "A18",
      "imagem_original": "https://animefire.plus/img/animes/chu-bra.webp",
      "imagem_pasta": "https://animefire.plus/img/animes/chu-bra/",
      "secao": "legendados",
      "pagina": 131,
      "total_episodios": 12,
      "link_video": "https://animefire.plus/video/chu-bra"
    },
    {
      "id": 643,
      "nome": "Chuunibyou demo Koi ga Shitai!",
      "link": "https://animefire.plus/animes/chuunibyou-demo-koi-ga-shitai-todos-os-episodios",
      "texto_original": "Chuunibyou demo Koi ga Shitai!",
      "rating": 7.86,
      "classificacao_etaria": "A14",
      "imagem_original": "https://animefire.plus/img/animes/chuunibyou-demo-koi-ga-shitai.webp",
      "imagem_pasta": "https://animefire.plus/img/animes/chuunibyou-demo-koi-ga-shitai/",
      "secao": "legendados",
      "pagina": 116,
      "total_episodios": 12,
      "link_video": "https://animefire.plus/video/chuunibyou-demo-koi-ga-shitai"
    },
    {
      "id": 645,
      "nome": "Chuunibyou demo Koi ga Shitai! Ren",
      "link": "https://animefire.plus/animes/chuunibyou-demo-koi-ga-shitai-ren-todos-os-episodios",
      "texto_original": "Chuunibyou demo Koi ga Shitai! Ren",
      "rating": 7.6,
      "classificacao_etaria": "A14",
      "imagem_original": "https://animefire.plus/img/animes/chuunibyou-demo-koi-ga-shitai-ren.webp",
      "imagem_pasta": "https://animefire.plus/img/animes/chuunibyou-demo-koi-ga-shitai-ren/",
      "secao": "legendados",
      "pagina": 114,
      "total_episodios": 12,
      "link_video": "https://animefire.plus/video/chuunibyou-demo-koi-ga-shitai-ren"
    },
    {
      "id": 647,
      "nome": "Chuunibyou demo Koi ga Shitai!: Depth of Field - Ai to Nikushimi Gekijou",
      "link": "https://animefire.plus/animes/chuunibyou-demo-koi-ga-shitai-depth-of-field---ai-to-nikushimi-gekijou-todos-os-episodios",
      "texto_original": "Chuunibyou demo Koi ga Shitai!: Depth of Field - Ai to Nikushimi Gekijou",
      "rating": 6.72,
      "classificacao_etaria": "A14",
      "imagem_original": "https://animefire.plus/img/animes/chuunibyou-demo-koi-ga-shitai-depth-of-field---ai-to-nikushimi-gekijou.webp",
      "imagem_pasta": "https://animefire.plus/img/animes/chuunibyou-demo-koi-ga-shitai-depth-of-field---ai-to-nikushimi-gekijou/",
      "secao": "legendados",
      "pagina": 44,
      "total_episodios": 7,
      "link_video": "https://animefire.plus/video/chuunibyou-demo-koi-ga-shitai-depth-of-field---ai-to-nikushimi-gekijou"
    }
  ],
  "pagination": {
    "current_page": 15,
    "per_page": 20,
    "total_items": 2189,
    "total_pages": 110,
    "has_next": true,
    "has_prev": true
  }
}
