{
  "message": "Animes com 2 a 12 episódios",
  "episode_range": {
    "min": 2,
    "max": 12
  },
  "data": [
    {
      "id": 4148,
      "nome": "Wolf's Rain OVA",
      "link": "https://animefire.plus/animes/wolf-s-rain-ova-todos-os-episodios",
      "texto_original": "Wolf's Rain OVA",
      "rating": 8.02,
      "classificacao_etaria": "A14",
      "imagem_original": "https://animefire.plus/img/animes/wolf-s-rain-ova.webp",
      "imagem_pasta": "https://animefire.plus/img/animes/wolf-s-rain-ova/",
      "secao": "legendados",
      "pagina": 45,
      "total_episodios": 4,
      "link_video": "https://animefire.plus/video/wolf-s-rain-ova"
    },
    {
      "id": 4149,
      "nome": "Wolverine",
      "link": "https://animefire.plus/animes/wolverine-todos-os-episodios",
      "texto_original": "Wolverine",
      "rating": 6.18,
      "classificacao_etaria": "A14",
      "imagem_original": "https://animefire.plus/img/animes/wolverine.webp",
      "imagem_pasta": "https://animefire.plus/img/animes/wolverine/",
      "secao": "legendados",
      "pagina": 131,
      "total_episodios": 12,
      "link_video": "https://animefire.plus/video/wolverine"
    },
    {
      "id": 4150,
      "nome": "Wonder Egg Priority (Dublado)",
      "link": "https://animefire.plus/animes/wonder-egg-priority-dublado-todos-os-episodios",
      "texto_original": "Wonder Egg Priority (Dublado)",
      "rating": 7.55,
      "classificacao_etaria": "A16",
      "imagem_original": "https://animefire.plus/img/animes/wonder-egg-priority.webp",
      "imagem_pasta": "https://animefire.plus/img/animes/wonder-egg-priority/",
      "secao": "dublados,legendados",
      "pagina": 15,
      "total_episodios": 12,
      "link_video": "https://animefire.plus/video/wonder-egg-priority-dublado"
    },
    {
      "id": 4157,
      "nome": "World Trigger 2nd Season",
      "link": "https://animefire.plus/animes/world-trigger-2nd-season-todos-os-episodios",
      "texto_original": "World Trigger 2nd Season",
      "rating": 8.04,
      "classificacao_etaria": "A14",
      "imagem_original": "https://animefire.plus/img/animes/world-trigger-2nd-season.webp",
      "imagem_pasta": "https://animefire.plus/img/animes/world-trigger-2nd-season/",
      "secao": "legendados",
      "pagina": 49,
      "total_episodios": 12,
      "link_video": "https://animefire.plus/video/world-trigger-2nd-season"
    },
    {
      "id": 4159,
      "nome": "World Witches Hasshin Shimasu!",
      "link": "https://animefire.plus/animes/world-witches-hasshin-shimasu-todos-os-episodios",
      "texto_original": "World Witches Hasshin Shimasu!",
      "rating": 6.5,
      "classificacao_etaria": "A14",
      "imagem_original": "https://animefire.plus/img/animes/world-witches-hasshin-shimasu.webp",
      "imagem_pasta": "https://animefire.plus/img/animes/world-witches-hasshin-shimasu/",
      "secao": "legendados",
      "pagina": 48,
      "total_episodios": 12,
      "link_video": "https://animefire.plus/video/world-witches-hasshin-shimasu"
    },
    {
      "id": 4160,
      "nome": "Wotaku ni Koi wa Muzukashii",
      "link": "https://animefire.plus/animes/wotaku-ni-koi-wa-muzukashii-todos-os-episodios",
      "texto_original": "Wotaku ni Koi wa Muzukashii",
      "rating": 8.06,
      "classificacao_etaria": "A14",
      "imagem_original": "https://animefire.plus/img/animes/wotaku-ni-koi-wa-muzukashii.webp",
      "imagem_pasta": "https://animefire.plus/img/animes/wotaku-ni-koi-wa-muzukashii/",
      "secao": "legendados",
      "pagina": 174,
      "total_episodios": 11,
      "link_video": "https://animefire.plus/video/wotaku-ni-koi-wa-muzukashii"
    },
    {
      "id": 4163,
      "nome": "Wu Shan Wu Xing",
      "link": "https://animefire.plus/animes/wu-shan-wu-xing-todos-os-episodios",
      "texto_original": "Wu Shan Wu Xing",
      "rating": 8.02,
      "classificacao_etaria": "A16",
      "imagem_original": "https://animefire.plus/img/animes/wu-shan-wu-xing.webp",
      "imagem_pasta": "https://animefire.plus/img/animes/wu-shan-wu-xing/",
      "secao": "legendados",
      "pagina": 48,
      "total_episodios": 3,
      "link_video": "https://animefire.plus/video/wu-shan-wu-xing"
    },
    {
      "id": 4165,
      "nome": "WWW.Working!!",
      "link": "https://animefire.plus/animes/www-working-todos-os-episodios",
      "texto_original": "WWW.Working!!",
      "rating": 7.52,
      "classificacao_etaria": "A14",
      "imagem_original": "https://animefire.plus/img/animes/www-working.webp",
      "imagem_pasta": "https://animefire.plus/img/animes/www-working/",
      "secao": "legendados",
      "pagina": 135,
      "total_episodios": 8,
      "link_video": "https://animefire.plus/video/www-working"
    },
    {
      "id": 4167,
      "nome": "Xenosaga The Animation",
      "link": "https://animefire.plus/animes/xenosaga-the-animation-todos-os-episodios",
      "texto_original": "Xenosaga The Animation",
      "rating": 6.42,
      "classificacao_etaria": "A14",
      "imagem_original": "https://animefire.plus/img/animes/xenosaga-the-animation.webp",
      "imagem_pasta": "https://animefire.plus/img/animes/xenosaga-the-animation/",
      "secao": "legendados",
      "pagina": 135,
      "total_episodios": 12,
      "link_video": "https://animefire.plus/video/xenosaga-the-animation"
    },
    {
      "id": 4168,
      "nome": "Xia Gan Yi Dan Shen Jianxin",
      "link": "https://animefire.plus/animes/xia-gan-yi-dan-shen-jianxin-todos-os-episodios",
      "texto_original": "Xia Gan Yi Dan Shen Jianxin",
      "rating": 7.14,
      "classificacao_etaria": "A14",
      "imagem_original": "https://animefire.plus/img/animes/xia-gan-yi-dan-shen-jianxin.webp",
      "imagem_pasta": "https://animefire.plus/img/animes/xia-gan-yi-dan-shen-jianxin/",
      "secao": "legendados",
      "pagina": 81,
      "total_episodios": 12,
      "link_video": "https://animefire.plus/video/xia-gan-yi-dan-shen-jianxin"
    },
    {
      "id": 4172,
      "nome": "Xian Wang de Richang Shenghuo 3",
      "link": "https://animefire.plus/animes/xian-wang-de-richang-shenghuo-3-todos-os-episodios",
      "texto_original": "Xian Wang de Richang Shenghuo 3",
      "rating": 7.35,
      "classificacao_etaria": "A14",
      "imagem_original": "https://animefire.plus/img/animes/xian-wang-de-richang-shenghuo-3.webp",
      "imagem_pasta": "https://animefire.plus/img/animes/xian-wang-de-richang-shenghuo-3/",
      "secao": "legendados",
      "pagina": 28,
      "total_episodios": 12,
      "link_video": "https://animefire.plus/video/xian-wang-de-richang-shenghuo-3"
    },
    {
      "id": 4173,
      "nome": "Xian Wang de Richang Shenghuo 4",
      "link": "https://animefire.plus/animes/xian-wang-de-richang-shenghuo-4-todos-os-episodios",
      "texto_original": "Xian Wang de Richang Shenghuo 4",
      "rating": 7.48,
      "classificacao_etaria": "A14",
      "imagem_original": "https://animefire.plus/img/animes/xian-wang-de-richang-shenghuo-4.webp",
      "imagem_pasta": "https://animefire.plus/img/animes/xian-wang-de-richang-shenghuo-4/",
      "secao": "legendados",
      "pagina": 17,
      "total_episodios": 12,
      "link_video": "https://animefire.plus/video/xian-wang-de-richang-shenghuo-4"
    },
    {
      "id": 4176,
      "nome": "Xing Chen Bian",
      "link": "https://animefire.plus/animes/xing-chen-bian-todos-os-episodios",
      "texto_original": "Xing Chen Bian",
      "rating": 7.54,
      "classificacao_etaria": "A14",
      "imagem_original": "https://animefire.plus/img/animes/xing-chen-bian.webp",
      "imagem_pasta": "https://animefire.plus/img/animes/xing-chen-bian/",
      "secao": "legendados",
      "pagina": 60,
      "total_episodios": 10,
      "link_video": "https://animefire.plus/video/xing-chen-bian"
    },
    {
      "id": 4179,
      "nome": "XxxHOLiC Rou",
      "link": "https://animefire.plus/animes/xxxholic-rou-todos-os-episodios",
      "texto_original": "XxxHOLiC Rou",
      "rating": 8.23,
      "classificacao_etaria": "A14",
      "imagem_original": "https://animefire.plus/img/animes/xxxholic-rou.webp",
      "imagem_pasta": "https://animefire.plus/img/animes/xxxholic-rou/",
      "secao": "legendados",
      "pagina": 103,
      "total_episodios": 2,
      "link_video": "https://animefire.plus/video/xxxholic-rou"
    },
    {
      "id": 4183,
      "nome": "Yahari Ore no Seishun Love Comedy wa Machigatteiru. Kan",
      "link": "https://animefire.plus/animes/yahari-ore-no-seishun-love-comedy-wa-machigatteiru-kan-todos-os-episodios",
      "texto_original": "Yahari Ore no Seishun Love Comedy wa Machigatteiru. Kan",
      "rating": null,
      "classificacao_etaria": "A14",
      "imagem_original": "https://animefire.plus/img/animes/yahari-ore-no-seishun-love-comedy-wa-machigatteiru-kan.webp",
      "imagem_pasta": "https://animefire.plus/img/animes/yahari-ore-no-seishun-love-comedy-wa-machigatteiru-kan/",
      "secao": "legendados",
      "pagina": 58,
      "total_episodios": 2,
      "link_video": "https://animefire.plus/video/yahari-ore-no-seishun-love-comedy-wa-machigatteiru-kan"
    },
    {
      "id": 4185,
      "nome": "Yajikita Gakuen Douchuuki",
      "link": "https://animefire.plus/animes/yajikita-gakuen-douchuuki-todos-os-episodios",
      "texto_original": "Yajikita Gakuen Douchuuki",
      "rating": 5.79,
      "classificacao_etaria": "A14",
      "imagem_original": "https://animefire.plus/img/animes/yajikita-gakuen-douchuuki.webp",
      "imagem_pasta": "https://animefire.plus/img/animes/yajikita-gakuen-douchuuki/",
      "secao": "legendados",
      "pagina": 88,
      "total_episodios": 2,
      "link_video": "https://animefire.plus/video/yajikita-gakuen-douchuuki"
    },
    {
      "id": 4187,
      "nome": "Yakunara Mug Cup mo",
      "link": "https://animefire.plus/animes/yakunara-mug-cup-mo-todos-os-episodios",
      "texto_original": "Yakunara Mug Cup mo",
      "rating": 6.54,
      "classificacao_etaria": "A14",
      "imagem_original": "https://animefire.plus/img/animes/yakunara-mug-cup-mo.webp",
      "imagem_pasta": "https://animefire.plus/img/animes/yakunara-mug-cup-mo/",
      "secao": "legendados",
      "pagina": 46,
      "total_episodios": 12,
      "link_video": "https://animefire.plus/video/yakunara-mug-cup-mo"
    },
    {
      "id": 4188,
      "nome": "Yakunara Mug Cup mo: Niban Gama",
      "link": "https://animefire.plus/animes/yakunara-mug-cup-mo-niban-gama-todos-os-episodios",
      "texto_original": "Yakunara Mug Cup mo: Niban Gama",
      "rating": 6.83,
      "classificacao_etaria": "A14",
      "imagem_original": "https://animefire.plus/img/animes/yakunara-mug-cup-mo-niban-gama.webp",
      "imagem_pasta": "https://animefire.plus/img/animes/yakunara-mug-cup-mo-niban-gama/",
      "secao": "legendados",
      "pagina": 38,
      "total_episodios": 12,
      "link_video": "https://animefire.plus/video/yakunara-mug-cup-mo-niban-gama"
    },
    {
      "id": 4189,
      "nome": "Yakusoku no Neverland",
      "link": "https://animefire.plus/animes/yakusoku-no-neverland-todos-os-episodios",
      "texto_original": "Yakusoku no Neverland",
      "rating": 8.65,
      "classificacao_etaria": "A16",
      "imagem_original": "https://animefire.plus/img/animes/yakusoku-no-neverland.webp",
      "imagem_pasta": "https://animefire.plus/img/animes/yakusoku-no-neverland/",
      "secao": "legendados",
      "pagina": 165,
      "total_episodios": 6,
      "link_video": "https://animefire.plus/video/yakusoku-no-neverland"
    },
    {
      "id": 4190,
      "nome": "Yakusoku no Neverland 2nd Season",
      "link": "https://animefire.plus/animes/yakusoku-no-neverland-2nd-season-todos-os-episodios",
      "texto_original": "Yakusoku no Neverland 2nd Season",
      "rating": 5.25,
      "classificacao_etaria": "A16",
      "imagem_original": "https://animefire.plus/img/animes/yakusoku-no-neverland-2nd-season.webp",
      "imagem_pasta": "https://animefire.plus/img/animes/yakusoku-no-neverland-2nd-season/",
      "secao": "legendados",
      "pagina": 48,
      "total_episodios": 11,
      "link_video": "https://animefire.plus/video/yakusoku-no-neverland-2nd-season"
    }
  ],
  "pagination": {
    "current_page": 105,
    "per_page": 20,
    "total_items": 2189,
    "total_pages": 110,
    "has_next": true,
    "has_prev": true
  }
}
