{
  "message": "Animes com 2 a 12 episódios",
  "episode_range": {
    "min": 2,
    "max": 12
  },
  "data": [
    {
      "id": 3133,
      "nome": "Rinshi!! Ekoda-chan",
      "link": "https://animefire.plus/animes/rinshi-ekoda-chan-todos-os-episodios",
      "texto_original": "Rinshi!! Ekoda-chan",
      "rating": 5.53,
      "classificacao_etaria": "A14",
      "imagem_original": "https://animefire.plus/img/animes/rinshi-ekoda-chan.webp",
      "imagem_pasta": "https://animefire.plus/img/animes/rinshi-ekoda-chan/",
      "secao": "legendados",
      "pagina": 109,
      "total_episodios": 12,
      "link_video": "https://animefire.plus/video/rinshi-ekoda-chan"
    },
    {
      "id": 3134,
      "nome": "Rio: Rainbow Gate!",
      "link": "https://animefire.plus/animes/rio-rainbow-gate-todos-os-episodios",
      "texto_original": "Rio: Rainbow Gate!",
      "rating": 5.96,
      "classificacao_etaria": "A14",
      "imagem_original": "https://animefire.plus/img/animes/rio-rainbow-gate.webp",
      "imagem_pasta": "https://animefire.plus/img/animes/rio-rainbow-gate/",
      "secao": "legendados",
      "pagina": 132,
      "total_episodios": 12,
      "link_video": "https://animefire.plus/video/rio-rainbow-gate"
    },
    {
      "id": 3135,
      "nome": "Ristorante Paradiso",
      "link": "https://animefire.plus/animes/ristorante-paradiso-todos-os-episodios",
      "texto_original": "Ristorante Paradiso",
      "rating": 7.42,
      "classificacao_etaria": "A14",
      "imagem_original": "https://animefire.plus/img/animes/ristorante-paradiso.webp",
      "imagem_pasta": "https://animefire.plus/img/animes/ristorante-paradiso/",
      "secao": "legendados",
      "pagina": 150,
      "total_episodios": 11,
      "link_video": "https://animefire.plus/video/ristorante-paradiso"
    },
    {
      "id": 3141,
      "nome": "RoboMasters the Animated Series",
      "link": "https://animefire.plus/animes/robomasters-the-animated-series-todos-os-episodios",
      "texto_original": "RoboMasters the Animated Series",
      "rating": 6.57,
      "classificacao_etaria": "A14",
      "imagem_original": "https://animefire.plus/img/animes/robomasters-the-animated-series.webp",
      "imagem_pasta": "https://animefire.plus/img/animes/robomasters-the-animated-series/",
      "secao": "legendados",
      "pagina": 172,
      "total_episodios": 6,
      "link_video": "https://animefire.plus/video/robomasters-the-animated-series"
    },
    {
      "id": 3145,
      "nome": "Rokka no Yuusha (Dublado)",
      "link": "https://animefire.plus/animes/rokka-no-yuusha-dublado-todos-os-episodios",
      "texto_original": "Rokka no Yuusha (Dublado)",
      "rating": 7.43,
      "classificacao_etaria": "A14",
      "imagem_original": "https://animefire.plus/img/animes/rokka-no-yuusha.webp",
      "imagem_pasta": "https://animefire.plus/img/animes/rokka-no-yuusha/",
      "secao": "dublados,legendados",
      "pagina": 25,
      "total_episodios": 12,
      "link_video": "https://animefire.plus/video/rokka-no-yuusha-dublado"
    },
    {
      "id": 3146,
      "nome": "Rokudenashi Majutsu Koushi to Akashic Records (Dublado)",
      "link": "https://animefire.plus/animes/rokudenashi-majutsu-koushi-to-akashic-records-dublado-todos-os-episodios",
      "texto_original": "Rokudenashi Majutsu Koushi to Akashic Records (Dublado)",
      "rating": 7.29,
      "classificacao_etaria": "A16",
      "imagem_original": "https://animefire.plus/img/animes/rokudenashi-majutsu-koushi-to-akashic-records.webp",
      "imagem_pasta": "https://animefire.plus/img/animes/rokudenashi-majutsu-koushi-to-akashic-records/",
      "secao": "dublados,legendados",
      "pagina": 23,
      "total_episodios": 12,
      "link_video": "https://animefire.plus/video/rokudenashi-majutsu-koushi-to-akashic-records-dublado"
    },
    {
      "id": 3147,
      "nome": "Rokudou no Onna-tachi",
      "link": "https://animefire.plus/animes/rokudou-no-onna-tachi-todos-os-episodios",
      "texto_original": "Rokudou no Onna-tachi",
      "rating": 6.41,
      "classificacao_etaria": "A14",
      "imagem_original": "https://animefire.plus/img/animes/rokudou-no-onna-tachi.jpg",
      "imagem_pasta": "https://animefire.plus/img/animes/rokudou-no-onna-tachi/",
      "secao": "legendados",
      "pagina": 24,
      "total_episodios": 12,
      "link_video": "https://animefire.plus/video/rokudou-no-onna-tachi"
    },
    {
      "id": 3148,
      "nome": "Rokuhoudou Yotsuiro Biyori",
      "link": "https://animefire.plus/animes/rokuhoudou-yotsuiro-biyori-todos-os-episodios",
      "texto_original": "Rokuhoudou Yotsuiro Biyori",
      "rating": 7.64,
      "classificacao_etaria": "A14",
      "imagem_original": "https://animefire.plus/img/animes/rokuhoudou-yotsuiro-biyori.webp",
      "imagem_pasta": "https://animefire.plus/img/animes/rokuhoudou-yotsuiro-biyori/",
      "secao": "legendados",
      "pagina": 152,
      "total_episodios": 9,
      "link_video": "https://animefire.plus/video/rokuhoudou-yotsuiro-biyori"
    },
    {
      "id": 3149,
      "nome": "Rokujouma no Shinryakusha!?",
      "link": "https://animefire.plus/animes/rokujouma-no-shinryakusha-todos-os-episodios",
      "texto_original": "Rokujouma no Shinryakusha!?",
      "rating": 7.27,
      "classificacao_etaria": "A14",
      "imagem_original": "https://animefire.plus/img/animes/rokujouma-no-shinryakusha.webp",
      "imagem_pasta": "https://animefire.plus/img/animes/rokujouma-no-shinryakusha/",
      "secao": "legendados",
      "pagina": 161,
      "total_episodios": 2,
      "link_video": "https://animefire.plus/video/rokujouma-no-shinryakusha"
    },
    {
      "id": 3150,
      "nome": "Rolling☆Girls",
      "link": "https://animefire.plus/animes/rolling-girls-todos-os-episodios",
      "texto_original": "Rolling☆Girls",
      "rating": 6.6,
      "classificacao_etaria": "A14",
      "imagem_original": "https://animefire.plus/img/animes/rolling-girls.webp",
      "imagem_pasta": "https://animefire.plus/img/animes/rolling-girls/",
      "secao": "legendados",
      "pagina": 56,
      "total_episodios": 12,
      "link_video": "https://animefire.plus/video/rolling-girls"
    },
    {
      "id": 3151,
      "nome": "Romantic Killer (Dublado)",
      "link": "https://animefire.plus/animes/romantic-killer-dublado-todos-os-episodios",
      "texto_original": "Romantic Killer (Dublado)",
      "rating": 7.94,
      "classificacao_etaria": "A14",
      "imagem_original": "https://animefire.plus/img/animes/romantic-killer.webp",
      "imagem_pasta": "https://animefire.plus/img/animes/romantic-killer/",
      "secao": "dublados,legendados",
      "pagina": 9,
      "total_episodios": 12,
      "link_video": "https://animefire.plus/video/romantic-killer-dublado"
    },
    {
      "id": 3152,
      "nome": "Romantica Clock",
      "link": "https://animefire.plus/animes/romantica-clock-todos-os-episodios",
      "texto_original": "Romantica Clock",
      "rating": 5.72,
      "classificacao_etaria": null,
      "imagem_original": "https://animefire.plus/img/animes/romantica-clock.webp",
      "imagem_pasta": "https://animefire.plus/img/animes/romantica-clock/",
      "secao": "legendados",
      "pagina": 43,
      "total_episodios": 3,
      "link_video": "https://animefire.plus/video/romantica-clock"
    },
    {
      "id": 3155,
      "nome": "Room Mate",
      "link": "https://animefire.plus/animes/room-mate-todos-os-episodios",
      "texto_original": "Room Mate",
      "rating": 4.87,
      "classificacao_etaria": "A14",
      "imagem_original": "https://animefire.plus/img/animes/room-mate.webp",
      "imagem_pasta": "https://animefire.plus/img/animes/room-mate/",
      "secao": "legendados",
      "pagina": 114,
      "total_episodios": 12,
      "link_video": "https://animefire.plus/video/room-mate"
    },
    {
      "id": 3158,
      "nome": "Rougo ni Sonaete Isekai de 8-manmai no Kinka wo Tamemasu (Dublado)",
      "link": "https://animefire.plus/animes/rougo-ni-sonaete-isekai-de-8-manmai-no-kinka-wo-tamemasu-dublado-todos-os-episodios",
      "texto_original": "Rougo ni Sonaete Isekai de 8-manmai no Kinka wo Tamemasu (Dublado)",
      "rating": 6.94,
      "classificacao_etaria": "A14",
      "imagem_original": "https://animefire.plus/img/animes/rougo-ni-sonaete-isekai-de-8-manmai-no-kinka-wo-tamemasu.webp",
      "imagem_pasta": "https://animefire.plus/img/animes/rougo-ni-sonaete-isekai-de-8-manmai-no-kinka-wo-tamemasu/",
      "secao": "dublados,legendados",
      "pagina": 5,
      "total_episodios": 12,
      "link_video": "https://animefire.plus/video/rougo-ni-sonaete-isekai-de-8-manmai-no-kinka-wo-tamemasu-dublado"
    },
    {
      "id": 3160,
      "nome": "Rozen Maiden (2013)",
      "link": "https://animefire.plus/animes/rozen-maiden-2013-todos-os-episodios",
      "texto_original": "Rozen Maiden (2013)",
      "rating": 7.4,
      "classificacao_etaria": "A14",
      "imagem_original": "https://animefire.plus/img/animes/rozen-maiden-2013.webp",
      "imagem_pasta": "https://animefire.plus/img/animes/rozen-maiden-2013/",
      "secao": "legendados",
      "pagina": 111,
      "total_episodios": 4,
      "link_video": "https://animefire.plus/video/rozen-maiden-2013"
    },
    {
      "id": 3162,
      "nome": "RPG Fudousan",
      "link": "https://animefire.plus/animes/rpg-fudousan-todos-os-episodios",
      "texto_original": "RPG Fudousan",
      "rating": 6.69,
      "classificacao_etaria": "A14",
      "imagem_original": "https://animefire.plus/img/animes/rpg-fudousan.webp",
      "imagem_pasta": "https://animefire.plus/img/animes/rpg-fudousan/",
      "secao": "legendados",
      "pagina": 34,
      "total_episodios": 12,
      "link_video": "https://animefire.plus/video/rpg-fudousan"
    },
    {
      "id": 3165,
      "nome": "Ruri no Houseki",
      "link": "https://animefire.plus/animes/ruri-no-houseki-todos-os-episodios",
      "texto_original": "Ruri no Houseki",
      "rating": 7.68,
      "classificacao_etaria": "A14",
      "imagem_original": "https://animefire.plus/img/animes/ruri-no-houseki.webp",
      "imagem_pasta": "https://animefire.plus/img/animes/ruri-no-houseki/",
      "secao": "legendados,lancamentos",
      "pagina": 2,
      "total_episodios": 5,
      "link_video": "https://animefire.plus/video/ruri-no-houseki"
    },
    {
      "id": 3169,
      "nome": "RWBY: Hyousetsu Teikoku",
      "link": "https://animefire.plus/animes/rwby-hyousetsu-teikoku-todos-os-episodios",
      "texto_original": "RWBY: Hyousetsu Teikoku",
      "rating": 6.35,
      "classificacao_etaria": "A14",
      "imagem_original": "https://animefire.plus/img/animes/rwby-hyousetsu-teikoku.webp",
      "imagem_pasta": "https://animefire.plus/img/animes/rwby-hyousetsu-teikoku/",
      "secao": "legendados",
      "pagina": 32,
      "total_episodios": 12,
      "link_video": "https://animefire.plus/video/rwby-hyousetsu-teikoku"
    },
    {
      "id": 3170,
      "nome": "Ryman's Club",
      "link": "https://animefire.plus/animes/ryman-s-club-todos-os-episodios",
      "texto_original": "Ryman's Club",
      "rating": 7.34,
      "classificacao_etaria": "A14",
      "imagem_original": "https://animefire.plus/img/animes/ryman-s-club.webp",
      "imagem_pasta": "https://animefire.plus/img/animes/ryman-s-club/",
      "secao": "legendados",
      "pagina": 35,
      "total_episodios": 12,
      "link_video": "https://animefire.plus/video/ryman-s-club"
    },
    {
      "id": 3172,
      "nome": "Ryuugajou Nanana no Maizoukin",
      "link": "https://animefire.plus/animes/ryuugajou-nanana-no-maizoukin-todos-os-episodios",
      "texto_original": "Ryuugajou Nanana no Maizoukin",
      "rating": 7.27,
      "classificacao_etaria": "A14",
      "imagem_original": "https://animefire.plus/img/animes/ryuugajou-nanana-no-maizoukin.webp",
      "imagem_pasta": "https://animefire.plus/img/animes/ryuugajou-nanana-no-maizoukin/",
      "secao": "legendados",
      "pagina": 163,
      "total_episodios": 11,
      "link_video": "https://animefire.plus/video/ryuugajou-nanana-no-maizoukin"
    }
  ],
  "pagination": {
    "current_page": 79,
    "per_page": 20,
    "total_items": 2189,
    "total_pages": 110,
    "has_next": true,
    "has_prev": true
  }
}
