{
  "message": "Animes com 2 a 12 episódios",
  "episode_range": {
    "min": 2,
    "max": 12
  },
  "data": [
    {
      "id": 1035,
      "nome": "Fudanshi Koukou Seikatsu",
      "link": "https://animefire.plus/animes/fudanshi-koukou-seikatsu-todos-os-episodios",
      "texto_original": "Fudanshi Koukou Seikatsu",
      "rating": 6.64,
      "classificacao_etaria": "A14",
      "imagem_original": "https://animefire.plus/img/animes/fudanshi-koukou-seikatsu.webp",
      "imagem_pasta": "https://animefire.plus/img/animes/fudanshi-koukou-seikatsu/",
      "secao": "legendados",
      "pagina": 102,
      "total_episodios": 12,
      "link_video": "https://animefire.plus/video/fudanshi-koukou-seikatsu"
    },
    {
      "id": 1037,
      "nome": "Fuguushoku \"Kanteishi\" ga Jitsu wa Saikyou Datta",
      "link": "https://animefire.plus/animes/fuguushoku-kanteishi-ga-jitsu-wa-saikyou-datta-todos-os-episodios",
      "texto_original": "Fuguushoku \"Kanteishi\" ga Jitsu wa Saikyou Datta",
      "rating": 6.33,
      "classificacao_etaria": "A16",
      "imagem_original": "https://animefire.plus/img/animes/fuguushoku-kanteishi-ga-jitsu-wa-saikyou-datta.webp",
      "imagem_pasta": "https://animefire.plus/img/animes/fuguushoku-kanteishi-ga-jitsu-wa-saikyou-datta/",
      "secao": "legendados",
      "pagina": 8,
      "total_episodios": 12,
      "link_video": "https://animefire.plus/video/fuguushoku-kanteishi-ga-jitsu-wa-saikyou-datta"
    },
    {
      "id": 1040,
      "nome": "Fukumenkei Noise",
      "link": "https://animefire.plus/animes/fukumenkei-noise-todos-os-episodios",
      "texto_original": "Fukumenkei Noise",
      "rating": 7.14,
      "classificacao_etaria": "A14",
      "imagem_original": "https://animefire.plus/img/animes/fukumenkei-noise.webp",
      "imagem_pasta": "https://animefire.plus/img/animes/fukumenkei-noise/",
      "secao": "legendados",
      "pagina": 139,
      "total_episodios": 2,
      "link_video": "https://animefire.plus/video/fukumenkei-noise"
    },
    {
      "id": 1042,
      "nome": "Full Metal Panic! Invisible Victory",
      "link": "https://animefire.plus/animes/full-metal-panic-invisible-victory-todos-os-episodios",
      "texto_original": "Full Metal Panic! Invisible Victory",
      "rating": 7.66,
      "classificacao_etaria": "A16",
      "imagem_original": "https://animefire.plus/img/animes/full-metal-panic-invisible-victory.webp",
      "imagem_pasta": "https://animefire.plus/img/animes/full-metal-panic-invisible-victory/",
      "secao": "legendados",
      "pagina": 134,
      "total_episodios": 12,
      "link_video": "https://animefire.plus/video/full-metal-panic-invisible-victory"
    },
    {
      "id": 1043,
      "nome": "Full Metal Panic! The Second Raid",
      "link": "https://animefire.plus/animes/full-metal-panic-the-second-raid-todos-os-episodios",
      "texto_original": "Full Metal Panic! The Second Raid",
      "rating": 8.01,
      "classificacao_etaria": "A16",
      "imagem_original": "https://animefire.plus/img/animes/full-metal-panic-the-second-raid.webp",
      "imagem_pasta": "https://animefire.plus/img/animes/full-metal-panic-the-second-raid/",
      "secao": "legendados",
      "pagina": 120,
      "total_episodios": 12,
      "link_video": "https://animefire.plus/video/full-metal-panic-the-second-raid"
    },
    {
      "id": 1044,
      "nome": "Full Metal Panic? Fumoffu",
      "link": "https://animefire.plus/animes/full-metal-panic-fumoffu-todos-os-episodios",
      "texto_original": "Full Metal Panic? Fumoffu",
      "rating": 8.13,
      "classificacao_etaria": "A14",
      "imagem_original": "https://animefire.plus/img/animes/full-metal-panic-fumoffu.webp",
      "imagem_pasta": "https://animefire.plus/img/animes/full-metal-panic-fumoffu/",
      "secao": "legendados",
      "pagina": 137,
      "total_episodios": 12,
      "link_video": "https://animefire.plus/video/full-metal-panic-fumoffu"
    },
    {
      "id": 1050,
      "nome": "Fumikiri Jikan",
      "link": "https://animefire.plus/animes/fumikiri-jikan-todos-os-episodios",
      "texto_original": "Fumikiri Jikan",
      "rating": 6.45,
      "classificacao_etaria": "A14",
      "imagem_original": "https://animefire.plus/img/animes/fumikiri-jikan.webp",
      "imagem_pasta": "https://animefire.plus/img/animes/fumikiri-jikan/",
      "secao": "legendados",
      "pagina": 142,
      "total_episodios": 12,
      "link_video": "https://animefire.plus/video/fumikiri-jikan"
    },
    {
      "id": 1052,
      "nome": "Fune wo Amu",
      "link": "https://animefire.plus/animes/fune-wo-amu-todos-os-episodios",
      "texto_original": "Fune wo Amu",
      "rating": 7.68,
      "classificacao_etaria": "A14",
      "imagem_original": "https://animefire.plus/img/animes/fune-wo-amu.webp",
      "imagem_pasta": "https://animefire.plus/img/animes/fune-wo-amu/",
      "secao": "legendados",
      "pagina": 133,
      "total_episodios": 11,
      "link_video": "https://animefire.plus/video/fune-wo-amu"
    },
    {
      "id": 1053,
      "nome": "Fushigi Na Somera-chan",
      "link": "https://animefire.plus/animes/fushigi-na-somera-chan-todos-os-episodios",
      "texto_original": "Fushigi Na Somera-chan",
      "rating": 5.91,
      "classificacao_etaria": "A14",
      "imagem_original": "https://animefire.plus/img/animes/fushigi-na-somera-chan.webp",
      "imagem_pasta": "https://animefire.plus/img/animes/fushigi-na-somera-chan/",
      "secao": "legendados",
      "pagina": 97,
      "total_episodios": 12,
      "link_video": "https://animefire.plus/video/fushigi-na-somera-chan"
    },
    {
      "id": 1059,
      "nome": "Futari Solo Camp",
      "link": "https://animefire.plus/animes/futari-solo-camp-todos-os-episodios",
      "texto_original": "Futari Solo Camp",
      "rating": 6.52,
      "classificacao_etaria": "A14",
      "imagem_original": "https://animefire.plus/img/animes/futari-solo-camp.webp",
      "imagem_pasta": "https://animefire.plus/img/animes/futari-solo-camp/",
      "secao": "legendados,lancamentos",
      "pagina": 1,
      "total_episodios": 4,
      "link_video": "https://animefire.plus/video/futari-solo-camp"
    },
    {
      "id": 1060,
      "nome": "Futari wa Milky Holmes",
      "link": "https://animefire.plus/animes/futari-wa-milky-holmes-todos-os-episodios",
      "texto_original": "Futari wa Milky Holmes",
      "rating": 5.82,
      "classificacao_etaria": "A14",
      "imagem_original": "https://animefire.plus/img/animes/futari-wa-milky-holmes.webp",
      "imagem_pasta": "https://animefire.plus/img/animes/futari-wa-milky-holmes/",
      "secao": "legendados",
      "pagina": 83,
      "total_episodios": 12,
      "link_video": "https://animefire.plus/video/futari-wa-milky-holmes"
    },
    {
      "id": 1061,
      "nome": "Futari Wa Precure",
      "link": "https://animefire.plus/animes/futari-wa-precure-todos-os-episodios",
      "texto_original": "Futari Wa Precure",
      "rating": 7.01,
      "classificacao_etaria": null,
      "imagem_original": "https://animefire.plus/img/animes/futari-wa-precure.webp",
      "imagem_pasta": "https://animefire.plus/img/animes/futari-wa-precure/",
      "secao": "legendados",
      "pagina": 59,
      "total_episodios": 5,
      "link_video": "https://animefire.plus/video/futari-wa-precure"
    },
    {
      "id": 1063,
      "nome": "Futoku no Guild",
      "link": "https://animefire.plus/animes/futoku-no-guild-todos-os-episodios",
      "texto_original": "Futoku no Guild",
      "rating": 6.54,
      "classificacao_etaria": "A18",
      "imagem_original": "https://animefire.plus/img/animes/futoku-no-guild.webp",
      "imagem_pasta": "https://animefire.plus/img/animes/futoku-no-guild/",
      "secao": "legendados",
      "pagina": 29,
      "total_episodios": 12,
      "link_video": "https://animefire.plus/video/futoku-no-guild"
    },
    {
      "id": 1064,
      "nome": "Futsal Boys!!!!!",
      "link": "https://animefire.plus/animes/futsal-boys-todos-os-episodios",
      "texto_original": "Futsal Boys!!!!!",
      "rating": 5.46,
      "classificacao_etaria": "A14",
      "imagem_original": "https://animefire.plus/img/animes/futsal-boys.webp",
      "imagem_pasta": "https://animefire.plus/img/animes/futsal-boys/",
      "secao": "legendados",
      "pagina": 35,
      "total_episodios": 12,
      "link_video": "https://animefire.plus/video/futsal-boys"
    },
    {
      "id": 1066,
      "nome": "Future Card Buddyfight",
      "link": "https://animefire.plus/animes/future-card-buddyfight-todos-os-episodios",
      "texto_original": "Future Card Buddyfight",
      "rating": 7.05,
      "classificacao_etaria": "A10",
      "imagem_original": "https://animefire.plus/img/animes/future-card-buddyfight.webp",
      "imagem_pasta": "https://animefire.plus/img/animes/future-card-buddyfight/",
      "secao": "legendados",
      "pagina": 152,
      "total_episodios": 2,
      "link_video": "https://animefire.plus/video/future-card-buddyfight"
    },
    {
      "id": 1067,
      "nome": "Fuufu Ijou, Koibito Miman. (Dublado)",
      "link": "https://animefire.plus/animes/fuufu-ijou-koibito-miman-dublado-todos-os-episodios",
      "texto_original": "Fuufu Ijou, Koibito Miman. (Dublado)",
      "rating": 7.59,
      "classificacao_etaria": "A14",
      "imagem_original": "https://animefire.plus/img/animes/fuufu-ijou-koibito-miman.webp",
      "imagem_pasta": "https://animefire.plus/img/animes/fuufu-ijou-koibito-miman/",
      "secao": "dublados,legendados",
      "pagina": 9,
      "total_episodios": 12,
      "link_video": "https://animefire.plus/video/fuufu-ijou-koibito-miman-dublado"
    },
    {
      "id": 1068,
      "nome": "Fuuka",
      "link": "https://animefire.plus/animes/fuuka-todos-os-episodios",
      "texto_original": "Fuuka",
      "rating": 6.71,
      "classificacao_etaria": "A18",
      "imagem_original": "https://animefire.plus/img/animes/fuuka.webp",
      "imagem_pasta": "https://animefire.plus/img/animes/fuuka/",
      "secao": "legendados",
      "pagina": 111,
      "total_episodios": 12,
      "link_video": "https://animefire.plus/video/fuuka"
    },
    {
      "id": 1069,
      "nome": "Fuuma no Kojirou: Yasha-hen (Dublado)",
      "link": "https://animefire.plus/animes/fuuma-no-kojirou-yasha-hen-dublado-todos-os-episodios",
      "texto_original": "Fuuma no Kojirou: Yasha-hen (Dublado)",
      "rating": 6.71,
      "classificacao_etaria": "A16",
      "imagem_original": "https://animefire.plus/img/animes/fuuma-no-kojirou-yasha-hen.webp",
      "imagem_pasta": "https://animefire.plus/img/animes/fuuma-no-kojirou-yasha-hen/",
      "secao": "dublados",
      "pagina": 27,
      "total_episodios": 4,
      "link_video": "https://animefire.plus/video/fuuma-no-kojirou-yasha-hen-dublado"
    },
    {
      "id": 1070,
      "nome": "Fuuto Tantei (Dublado)",
      "link": "https://animefire.plus/animes/fuuto-tantei-dublado-todos-os-episodios",
      "texto_original": "Fuuto Tantei (Dublado)",
      "rating": 7.32,
      "classificacao_etaria": "A14",
      "imagem_original": "https://animefire.plus/img/animes/fuuto-tantei.webp",
      "imagem_pasta": "https://animefire.plus/img/animes/fuuto-tantei/",
      "secao": "dublados,legendados",
      "pagina": 10,
      "total_episodios": 12,
      "link_video": "https://animefire.plus/video/fuuto-tantei-dublado"
    },
    {
      "id": 1071,
      "nome": "Fuuun Ishin Dai☆Shogun",
      "link": "https://animefire.plus/animes/fuuun-ishin-dai-shogun-todos-os-episodios",
      "texto_original": "Fuuun Ishin Dai☆Shogun",
      "rating": 5.78,
      "classificacao_etaria": "A16",
      "imagem_original": "https://animefire.plus/img/animes/fuuun-ishin-dai-shogun.webp",
      "imagem_pasta": "https://animefire.plus/img/animes/fuuun-ishin-dai-shogun/",
      "secao": "legendados",
      "pagina": 123,
      "total_episodios": 12,
      "link_video": "https://animefire.plus/video/fuuun-ishin-dai-shogun"
    }
  ],
  "pagination": {
    "current_page": 26,
    "per_page": 20,
    "total_items": 2189,
    "total_pages": 110,
    "has_next": true,
    "has_prev": true
  }
}
