{
  "message": "Animes com 2 a 12 episódios",
  "episode_range": {
    "min": 2,
    "max": 12
  },
  "data": [
    {
      "id": 4191,
      "nome": "Yama no Susume",
      "link": "https://animefire.plus/animes/yama-no-susume-todos-os-episodios",
      "texto_original": "Yama no Susume",
      "rating": 6.84,
      "classificacao_etaria": "A14",
      "imagem_original": "https://animefire.plus/img/animes/yama-no-susume.webp",
      "imagem_pasta": "https://animefire.plus/img/animes/yama-no-susume/",
      "secao": "legendados",
      "pagina": 141,
      "total_episodios": 2,
      "link_video": "https://animefire.plus/video/yama-no-susume"
    },
    {
      "id": 4192,
      "nome": "Yama no Susume: Next Summit",
      "link": "https://animefire.plus/animes/yama-no-susume-next-summit-todos-os-episodios",
      "texto_original": "Yama no Susume: Next Summit",
      "rating": 7.64,
      "classificacao_etaria": "A14",
      "imagem_original": "https://animefire.plus/img/animes/yama-no-susume-next-summit.webp",
      "imagem_pasta": "https://animefire.plus/img/animes/yama-no-susume-next-summit/",
      "secao": "legendados",
      "pagina": 28,
      "total_episodios": 12,
      "link_video": "https://animefire.plus/video/yama-no-susume-next-summit"
    },
    {
      "id": 4197,
      "nome": "Yamada-kun to 7-nin no Majo (TV) (Dublado)",
      "link": "https://animefire.plus/animes/yamada-kun-to-7-nin-no-majo-tv-dublado-todos-os-episodios",
      "texto_original": "Yamada-kun to 7-nin no Majo (TV) (Dublado)",
      "rating": 7.74,
      "classificacao_etaria": "A14",
      "imagem_original": "https://animefire.plus/img/animes/yamada-kun-to-7-nin-no-majo-tv.webp",
      "imagem_pasta": "https://animefire.plus/img/animes/yamada-kun-to-7-nin-no-majo-tv/",
      "secao": "dublados",
      "pagina": 23,
      "total_episodios": 12,
      "link_video": "https://animefire.plus/video/yamada-kun-to-7-nin-no-majo-tv-dublado"
    },
    {
      "id": 4198,
      "nome": "Yamada-kun to 7-nin no Majo: Mou Hitotsu no Suzaku-sai",
      "link": "https://animefire.plus/animes/yamada-kun-to-7-nin-no-majo-mou-hitotsu-no-suzaku-sai-todos-os-episodios",
      "texto_original": "Yamada-kun to 7-nin no Majo: Mou Hitotsu no Suzaku-sai",
      "rating": 7.48,
      "classificacao_etaria": "A14",
      "imagem_original": "https://animefire.plus/img/animes/yamada-kun-to-7-nin-no-majo-mou-hitotsu-no-suzaku-sai.webp",
      "imagem_pasta": "https://animefire.plus/img/animes/yamada-kun-to-7-nin-no-majo-mou-hitotsu-no-suzaku-sai/",
      "secao": "legendados",
      "pagina": 54,
      "total_episodios": 2,
      "link_video": "https://animefire.plus/video/yamada-kun-to-7-nin-no-majo-mou-hitotsu-no-suzaku-sai"
    },
    {
      "id": 4200,
      "nome": "Yamato Nadeshiko Shichihenge♥",
      "link": "https://animefire.plus/animes/yamato-nadeshiko-shichihenge-todos-os-episodios",
      "texto_original": "Yamato Nadeshiko Shichihenge♥",
      "rating": 7.84,
      "classificacao_etaria": "A14",
      "imagem_original": "https://animefire.plus/img/animes/yamato-nadeshiko-shichihenge.webp",
      "imagem_pasta": "https://animefire.plus/img/animes/yamato-nadeshiko-shichihenge/",
      "secao": "legendados",
      "pagina": 146,
      "total_episodios": 11,
      "link_video": "https://animefire.plus/video/yamato-nadeshiko-shichihenge"
    },
    {
      "id": 4208,
      "nome": "Yami Shibai 15",
      "link": "https://animefire.plus/animes/yami-shibai-15-todos-os-episodios",
      "texto_original": "Yami Shibai 15",
      "rating": 5.99,
      "classificacao_etaria": "A14",
      "imagem_original": "https://animefire.plus/img/animes/yami-shibai-15.webp",
      "imagem_pasta": "https://animefire.plus/img/animes/yami-shibai-15/",
      "secao": "legendados,lancamentos",
      "pagina": 1,
      "total_episodios": 4,
      "link_video": "https://animefire.plus/video/yami-shibai-15"
    },
    {
      "id": 4222,
      "nome": "Yarichin☆Bitch-bu",
      "link": "https://animefire.plus/animes/yarichin-bitch-bu-todos-os-episodios",
      "texto_original": "Yarichin☆Bitch-bu",
      "rating": 7.11,
      "classificacao_etaria": "A18",
      "imagem_original": "https://animefire.plus/img/animes/yarichin-bitch-bu.webp",
      "imagem_pasta": "https://animefire.plus/img/animes/yarichin-bitch-bu/",
      "secao": "legendados",
      "pagina": 89,
      "total_episodios": 2,
      "link_video": "https://animefire.plus/video/yarichin-bitch-bu"
    },
    {
      "id": 4223,
      "nome": "Yarinaoshi Reijou wa Ryuutei Heika wo Kouryakuchuu",
      "link": "https://animefire.plus/animes/yarinaoshi-reijou-wa-ryuutei-heika-wo-kouryakuchuu-todos-os-episodios",
      "texto_original": "Yarinaoshi Reijou wa Ryuutei Heika wo Kouryakuchuu",
      "rating": 7.01,
      "classificacao_etaria": "A14",
      "imagem_original": "https://animefire.plus/img/animes/yarinaoshi-reijou-wa-ryuutei-heika-wo-kouryakuchuu.webp",
      "imagem_pasta": "https://animefire.plus/img/animes/yarinaoshi-reijou-wa-ryuutei-heika-wo-kouryakuchuu/",
      "secao": "legendados",
      "pagina": 11,
      "total_episodios": 12,
      "link_video": "https://animefire.plus/video/yarinaoshi-reijou-wa-ryuutei-heika-wo-kouryakuchuu"
    },
    {
      "id": 4224,
      "nome": "Yasuke (Dublado)",
      "link": "https://animefire.plus/animes/yasuke-dublado-todos-os-episodios",
      "texto_original": "Yasuke (Dublado)",
      "rating": 5.75,
      "classificacao_etaria": "A16",
      "imagem_original": "https://animefire.plus/img/animes/yasuke.webp",
      "imagem_pasta": "https://animefire.plus/img/animes/yasuke/",
      "secao": "dublados,legendados",
      "pagina": 18,
      "total_episodios": 6,
      "link_video": "https://animefire.plus/video/yasuke-dublado"
    },
    {
      "id": 4227,
      "nome": "Yatogame-chan Kansatsu Nikki Nisatsume",
      "link": "https://animefire.plus/animes/yatogame-chan-kansatsu-nikki-nisatsume-todos-os-episodios",
      "texto_original": "Yatogame-chan Kansatsu Nikki Nisatsume",
      "rating": 6.31,
      "classificacao_etaria": "A14",
      "imagem_original": "https://animefire.plus/img/animes/yatogame-chan-kansatsu-nikki-nisatsume.webp",
      "imagem_pasta": "https://animefire.plus/img/animes/yatogame-chan-kansatsu-nikki-nisatsume/",
      "secao": "legendados",
      "pagina": 93,
      "total_episodios": 12,
      "link_video": "https://animefire.plus/video/yatogame-chan-kansatsu-nikki-nisatsume"
    },
    {
      "id": 4228,
      "nome": "Yatogame-chan Kansatsu Nikki Sansatsume",
      "link": "https://animefire.plus/animes/yatogame-chan-kansatsu-nikki-sansatsume-todos-os-episodios",
      "texto_original": "Yatogame-chan Kansatsu Nikki Sansatsume",
      "rating": 6.38,
      "classificacao_etaria": "A14",
      "imagem_original": "https://animefire.plus/img/animes/yatogame-chan-kansatsu-nikki-sansatsume.webp",
      "imagem_pasta": "https://animefire.plus/img/animes/yatogame-chan-kansatsu-nikki-sansatsume/",
      "secao": "legendados",
      "pagina": 49,
      "total_episodios": 12,
      "link_video": "https://animefire.plus/video/yatogame-chan-kansatsu-nikki-sansatsume"
    },
    {
      "id": 4229,
      "nome": "Yatogame-chan Kansatsu Nikki Yonsatsume",
      "link": "https://animefire.plus/animes/yatogame-chan-kansatsu-nikki-yonsatsume-todos-os-episodios",
      "texto_original": "Yatogame-chan Kansatsu Nikki Yonsatsume",
      "rating": 6.3,
      "classificacao_etaria": "A14",
      "imagem_original": "https://animefire.plus/img/animes/yatogame-chan-kansatsu-nikki-yonsatsume.webp",
      "imagem_pasta": "https://animefire.plus/img/animes/yatogame-chan-kansatsu-nikki-yonsatsume/",
      "secao": "legendados",
      "pagina": 33,
      "total_episodios": 10,
      "link_video": "https://animefire.plus/video/yatogame-chan-kansatsu-nikki-yonsatsume"
    },
    {
      "id": 4234,
      "nome": "Yesterday wo Utatte Haishin-ban Episode",
      "link": "https://animefire.plus/animes/yesterday-wo-utatte-haishin-ban-episode-todos-os-episodios",
      "texto_original": "Yesterday wo Utatte Haishin-ban Episode",
      "rating": 6.66,
      "classificacao_etaria": "A14",
      "imagem_original": "https://animefire.plus/img/animes/yesterday-wo-utatte-haishin-ban-episode.webp",
      "imagem_pasta": "https://animefire.plus/img/animes/yesterday-wo-utatte-haishin-ban-episode/",
      "secao": "legendados",
      "pagina": 58,
      "total_episodios": 6,
      "link_video": "https://animefire.plus/video/yesterday-wo-utatte-haishin-ban-episode"
    },
    {
      "id": 4235,
      "nome": "Yi Nian Yong Heng",
      "link": "https://animefire.plus/animes/yi-nian-yong-heng-todos-os-episodios",
      "texto_original": "Yi Nian Yong Heng",
      "rating": 6.9,
      "classificacao_etaria": "A14",
      "imagem_original": "https://animefire.plus/img/animes/yi-nian-yong-heng.webp",
      "imagem_pasta": "https://animefire.plus/img/animes/yi-nian-yong-heng/",
      "secao": "legendados,lancamentos",
      "pagina": 51,
      "total_episodios": 11,
      "link_video": "https://animefire.plus/video/yi-nian-yong-heng"
    },
    {
      "id": 4237,
      "nome": "Yingxiong Zai Lin",
      "link": "https://animefire.plus/animes/yingxiong-zai-lin-todos-os-episodios",
      "texto_original": "Yingxiong Zai Lin",
      "rating": null,
      "classificacao_etaria": "A16",
      "imagem_original": "https://animefire.plus/img/animes/yingxiong-zai-lin.webp",
      "imagem_pasta": "https://animefire.plus/img/animes/yingxiong-zai-lin/",
      "secao": "legendados,lancamentos",
      "pagina": 50,
      "total_episodios": 9,
      "link_video": "https://animefire.plus/video/yingxiong-zai-lin"
    },
    {
      "id": 4238,
      "nome": "Yoake Mae yori Ruriiro na: Crescent Love",
      "link": "https://animefire.plus/animes/yoake-mae-yori-ruriiro-na-crescent-love-todos-os-episodios",
      "texto_original": "Yoake Mae yori Ruriiro na: Crescent Love",
      "rating": 7.19,
      "classificacao_etaria": "A14",
      "imagem_original": "https://animefire.plus/img/animes/yoake-mae-yori-ruriiro-na-crescent-love.webp",
      "imagem_pasta": "https://animefire.plus/img/animes/yoake-mae-yori-ruriiro-na-crescent-love/",
      "secao": "legendados",
      "pagina": 121,
      "total_episodios": 12,
      "link_video": "https://animefire.plus/video/yoake-mae-yori-ruriiro-na-crescent-love"
    },
    {
      "id": 4240,
      "nome": "Yofukashi no Uta Season 2",
      "link": "https://animefire.plus/animes/yofukashi-no-uta-season-2-todos-os-episodios",
      "texto_original": "Yofukashi no Uta Season 2",
      "rating": 8.25,
      "classificacao_etaria": "A14",
      "imagem_original": "https://animefire.plus/img/animes/yofukashi-no-uta-season-2.webp",
      "imagem_pasta": "https://animefire.plus/img/animes/yofukashi-no-uta-season-2/",
      "secao": "legendados,lancamentos",
      "pagina": 1,
      "total_episodios": 5,
      "link_video": "https://animefire.plus/video/yofukashi-no-uta-season-2"
    },
    {
      "id": 4241,
      "nome": "Yojouhan Time Machine Blues",
      "link": "https://animefire.plus/animes/yojouhan-time-machine-blues-todos-os-episodios",
      "texto_original": "Yojouhan Time Machine Blues",
      "rating": 8.18,
      "classificacao_etaria": "A14",
      "imagem_original": "https://animefire.plus/img/animes/yojouhan-time-machine-blues.webp",
      "imagem_pasta": "https://animefire.plus/img/animes/yojouhan-time-machine-blues/",
      "secao": "legendados,lancamentos",
      "pagina": 28,
      "total_episodios": 4,
      "link_video": "https://animefire.plus/video/yojouhan-time-machine-blues"
    },
    {
      "id": 4243,
      "nome": "Yomigaeru Sora: Rescue Wings",
      "link": "https://animefire.plus/animes/yomigaeru-sora-rescue-wings-todos-os-episodios",
      "texto_original": "Yomigaeru Sora: Rescue Wings",
      "rating": 7.48,
      "classificacao_etaria": "A14",
      "imagem_original": "https://animefire.plus/img/animes/yomigaeru-sora-rescue-wings.webp",
      "imagem_pasta": "https://animefire.plus/img/animes/yomigaeru-sora-rescue-wings/",
      "secao": "legendados",
      "pagina": 104,
      "total_episodios": 12,
      "link_video": "https://animefire.plus/video/yomigaeru-sora-rescue-wings"
    },
    {
      "id": 4244,
      "nome": "Yondemasu yo, Azazel-san. (TV)",
      "link": "https://animefire.plus/animes/yondemasu-yo-azazel-san-tv-todos-os-episodios",
      "texto_original": "Yondemasu yo, Azazel-san. (TV)",
      "rating": 7.6,
      "classificacao_etaria": "A16",
      "imagem_original": "https://animefire.plus/img/animes/yondemasu-yo-azazel-san-tv.webp",
      "imagem_pasta": "https://animefire.plus/img/animes/yondemasu-yo-azazel-san-tv/",
      "secao": "legendados",
      "pagina": 122,
      "total_episodios": 3,
      "link_video": "https://animefire.plus/video/yondemasu-yo-azazel-san-tv"
    }
  ],
  "pagination": {
    "current_page": 106,
    "per_page": 20,
    "total_items": 2189,
    "total_pages": 110,
    "has_next": true,
    "has_prev": true
  }
}
