{
  "message": "Animes com 2 a 12 episódios",
  "episode_range": {
    "min": 2,
    "max": 12
  },
  "data": [
    {
      "id": 2970,
      "nome": "Peter Grill to Kenja no Jikan: Super Extra",
      "link": "https://animefire.plus/animes/peter-grill-to-kenja-no-jikan-super-extra-todos-os-episodios",
      "texto_original": "Peter Grill to Kenja no Jikan: Super Extra",
      "rating": 5.94,
      "classificacao_etaria": "A18",
      "imagem_original": "https://animefire.plus/img/animes/peter-grill-to-kenja-no-jikan-super-extra.webp",
      "imagem_pasta": "https://animefire.plus/img/animes/peter-grill-to-kenja-no-jikan-super-extra/",
      "secao": "legendados",
      "pagina": 29,
      "total_episodios": 12,
      "link_video": "https://animefire.plus/video/peter-grill-to-kenja-no-jikan-super-extra"
    },
    {
      "id": 2971,
      "nome": "Petshop of Horrors",
      "link": "https://animefire.plus/animes/petshop-of-horrors-todos-os-episodios",
      "texto_original": "Petshop of Horrors",
      "rating": 7.33,
      "classificacao_etaria": "A18",
      "imagem_original": "https://animefire.plus/img/animes/petshop-of-horrors.webp",
      "imagem_pasta": "https://animefire.plus/img/animes/petshop-of-horrors/",
      "secao": "legendados",
      "pagina": 113,
      "total_episodios": 4,
      "link_video": "https://animefire.plus/video/petshop-of-horrors"
    },
    {
      "id": 2974,
      "nome": "Phantom in the Twilight",
      "link": "https://animefire.plus/animes/phantom-in-the-twilight-todos-os-episodios",
      "texto_original": "Phantom in the Twilight",
      "rating": 6.52,
      "classificacao_etaria": "A14",
      "imagem_original": "https://animefire.plus/img/animes/phantom-in-the-twilight.webp",
      "imagem_pasta": "https://animefire.plus/img/animes/phantom-in-the-twilight/",
      "secao": "legendados",
      "pagina": 121,
      "total_episodios": 12,
      "link_video": "https://animefire.plus/video/phantom-in-the-twilight"
    },
    {
      "id": 2977,
      "nome": "Phi Brain: Kami no Puzzle - Orpheus Order-hen",
      "link": "https://animefire.plus/animes/phi-brain-kami-no-puzzle---orpheus-order-hen-todos-os-episodios",
      "texto_original": "Phi Brain: Kami no Puzzle - Orpheus Order-hen",
      "rating": 7.36,
      "classificacao_etaria": "A14",
      "imagem_original": "https://animefire.plus/img/animes/phi-brain-kami-no-puzzle---orpheus-order-hen.webp",
      "imagem_pasta": "https://animefire.plus/img/animes/phi-brain-kami-no-puzzle---orpheus-order-hen/",
      "secao": "legendados",
      "pagina": 154,
      "total_episodios": 5,
      "link_video": "https://animefire.plus/video/phi-brain-kami-no-puzzle---orpheus-order-hen"
    },
    {
      "id": 2978,
      "nome": "Phi Brain: Kami no Puzzle - Shukuteki! Rätsel-hen",
      "link": "https://animefire.plus/animes/phi-brain-kami-no-puzzle---shukuteki-raetsel-hen-todos-os-episodios",
      "texto_original": "Phi Brain: Kami no Puzzle - Shukuteki! Rätsel-hen",
      "rating": 7.36,
      "classificacao_etaria": "A14",
      "imagem_original": "https://animefire.plus/img/animes/phi-brain-kami-no-puzzle---shukuteki-raetsel-hen.webp",
      "imagem_pasta": "https://animefire.plus/img/animes/phi-brain-kami-no-puzzle---shukuteki-raetsel-hen/",
      "secao": "legendados",
      "pagina": 148,
      "total_episodios": 5,
      "link_video": "https://animefire.plus/video/phi-brain-kami-no-puzzle---shukuteki-raetsel-hen"
    },
    {
      "id": 2979,
      "nome": "Photokano",
      "link": "https://animefire.plus/animes/photokano-todos-os-episodios",
      "texto_original": "Photokano",
      "rating": 6.31,
      "classificacao_etaria": "A14",
      "imagem_original": "https://animefire.plus/img/animes/photokano.webp",
      "imagem_pasta": "https://animefire.plus/img/animes/photokano/",
      "secao": "legendados",
      "pagina": 133,
      "total_episodios": 3,
      "link_video": "https://animefire.plus/video/photokano"
    },
    {
      "id": 2981,
      "nome": "Piano (TV)",
      "link": "https://animefire.plus/animes/piano-tv-todos-os-episodios",
      "texto_original": "Piano (TV)",
      "rating": 6.04,
      "classificacao_etaria": null,
      "imagem_original": "https://animefire.plus/img/animes/piano-tv.webp",
      "imagem_pasta": "https://animefire.plus/img/animes/piano-tv/",
      "secao": "legendados",
      "pagina": 136,
      "total_episodios": 10,
      "link_video": "https://animefire.plus/video/piano-tv"
    },
    {
      "id": 2982,
      "nome": "Piano no Mori (TV) (Dublado)",
      "link": "https://animefire.plus/animes/piano-no-mori-tv-dublado-todos-os-episodios",
      "texto_original": "Piano no Mori (TV) (Dublado)",
      "rating": 7.41,
      "classificacao_etaria": "A14",
      "imagem_original": "https://animefire.plus/img/animes/piano-no-mori-tv.webp",
      "imagem_pasta": "https://animefire.plus/img/animes/piano-no-mori-tv/",
      "secao": "dublados,legendados",
      "pagina": 24,
      "total_episodios": 12,
      "link_video": "https://animefire.plus/video/piano-no-mori-tv-dublado"
    },
    {
      "id": 2983,
      "nome": "Piano no Mori (TV) 2nd Season (Dublado)",
      "link": "https://animefire.plus/animes/piano-no-mori-tv-2nd-season-dublado-todos-os-episodios",
      "texto_original": "Piano no Mori (TV) 2nd Season (Dublado)",
      "rating": 7.4,
      "classificacao_etaria": "A14",
      "imagem_original": "https://animefire.plus/img/animes/piano-no-mori-tv-2nd-season.webp",
      "imagem_pasta": "https://animefire.plus/img/animes/piano-no-mori-tv-2nd-season/",
      "secao": "dublados,legendados",
      "pagina": 23,
      "total_episodios": 12,
      "link_video": "https://animefire.plus/video/piano-no-mori-tv-2nd-season-dublado"
    },
    {
      "id": 2984,
      "nome": "Ping Pong the Animation",
      "link": "https://animefire.plus/animes/ping-pong-the-animation-todos-os-episodios",
      "texto_original": "Ping Pong the Animation",
      "rating": 8.63,
      "classificacao_etaria": "A14",
      "imagem_original": "https://animefire.plus/img/animes/ping-pong-the-animation.webp",
      "imagem_pasta": "https://animefire.plus/img/animes/ping-pong-the-animation/",
      "secao": "legendados",
      "pagina": 147,
      "total_episodios": 10,
      "link_video": "https://animefire.plus/video/ping-pong-the-animation"
    },
    {
      "id": 2987,
      "nome": "Planet With",
      "link": "https://animefire.plus/animes/planet-with-todos-os-episodios",
      "texto_original": "Planet With",
      "rating": 7.37,
      "classificacao_etaria": "A14",
      "imagem_original": "https://animefire.plus/img/animes/planet-with.webp",
      "imagem_pasta": "https://animefire.plus/img/animes/planet-with/",
      "secao": "legendados",
      "pagina": 173,
      "total_episodios": 12,
      "link_video": "https://animefire.plus/video/planet-with"
    },
    {
      "id": 2988,
      "nome": "Planetarian: Chiisana Hoshi no Yume",
      "link": "https://animefire.plus/animes/planetarian-chiisana-hoshi-no-yume-todos-os-episodios",
      "texto_original": "Planetarian: Chiisana Hoshi no Yume",
      "rating": 7.59,
      "classificacao_etaria": "A14",
      "imagem_original": "https://animefire.plus/img/animes/planetarian-chiisana-hoshi-no-yume.webp",
      "imagem_pasta": "https://animefire.plus/img/animes/planetarian-chiisana-hoshi-no-yume/",
      "secao": "legendados",
      "pagina": 144,
      "total_episodios": 5,
      "link_video": "https://animefire.plus/video/planetarian-chiisana-hoshi-no-yume"
    },
    {
      "id": 2995,
      "nome": "Pluto (Dublado)",
      "link": "https://animefire.plus/animes/pluto-dublado-todos-os-episodios",
      "texto_original": "Pluto (Dublado)",
      "rating": 8.45,
      "classificacao_etaria": "A14",
      "imagem_original": "https://animefire.plus/img/animes/pluto.webp",
      "imagem_pasta": "https://animefire.plus/img/animes/pluto/",
      "secao": "dublados,legendados",
      "pagina": 5,
      "total_episodios": 8,
      "link_video": "https://animefire.plus/video/pluto-dublado"
    },
    {
      "id": 3001,
      "nome": "Pokemon Best Wishes! Season 2",
      "link": "https://animefire.plus/animes/pokemon-best-wishes-season-2-todos-os-episodios",
      "texto_original": "Pokemon Best Wishes! Season 2",
      "rating": 6.59,
      "classificacao_etaria": "A10",
      "imagem_original": "https://animefire.plus/img/animes/pokemon-best-wishes-season-2.webp",
      "imagem_pasta": "https://animefire.plus/img/animes/pokemon-best-wishes-season-2/",
      "secao": "legendados",
      "pagina": 129,
      "total_episodios": 3,
      "link_video": "https://animefire.plus/video/pokemon-best-wishes-season-2"
    },
    {
      "id": 3003,
      "nome": "Pokemon Legends Arceus: Yuki Hodo Kishi Futaai",
      "link": "https://animefire.plus/animes/pokemon-legends-arceus-yuki-hodo-kishi-futaai-todos-os-episodios",
      "texto_original": "Pokemon Legends Arceus: Yuki Hodo Kishi Futaai",
      "rating": 7.41,
      "classificacao_etaria": "A10",
      "imagem_original": "https://animefire.plus/img/animes/pokemon-legends-arceus-yuki-hodo-kishi-futaai.webp",
      "imagem_pasta": "https://animefire.plus/img/animes/pokemon-legends-arceus-yuki-hodo-kishi-futaai/",
      "secao": "legendados",
      "pagina": 32,
      "total_episodios": 3,
      "link_video": "https://animefire.plus/video/pokemon-legends-arceus-yuki-hodo-kishi-futaai"
    },
    {
      "id": 3004,
      "nome": "Pokemon Movie 21: Minna no Monogatari",
      "link": "https://animefire.plus/animes/pokemon-movie-21-minna-no-monogatari-todos-os-episodios",
      "texto_original": "Pokemon Movie 21: Minna no Monogatari",
      "rating": 7.37,
      "classificacao_etaria": "A10",
      "imagem_original": "https://animefire.plus/img/animes/pokemon-movie-21-minna-no-monogatari.webp",
      "imagem_pasta": "https://animefire.plus/img/animes/pokemon-movie-21-minna-no-monogatari/",
      "secao": "legendados",
      "pagina": 104,
      "total_episodios": 3,
      "link_video": "https://animefire.plus/video/pokemon-movie-21-minna-no-monogatari"
    },
    {
      "id": 3007,
      "nome": "Pokemon XY: Mega Evolution",
      "link": "https://animefire.plus/animes/pokemon-xy-mega-evolution-todos-os-episodios",
      "texto_original": "Pokemon XY: Mega Evolution",
      "rating": 7.5,
      "classificacao_etaria": "A10",
      "imagem_original": "https://animefire.plus/img/animes/pokemon-xy-mega-evolution.webp",
      "imagem_pasta": "https://animefire.plus/img/animes/pokemon-xy-mega-evolution/",
      "secao": "legendados",
      "pagina": 79,
      "total_episodios": 4,
      "link_video": "https://animefire.plus/video/pokemon-xy-mega-evolution"
    },
    {
      "id": 3009,
      "nome": "Pokemon: Mezase Pokemon Master",
      "link": "https://animefire.plus/animes/pokemon-mezase-pokemon-master-todos-os-episodios",
      "texto_original": "Pokemon: Mezase Pokemon Master",
      "rating": 7.59,
      "classificacao_etaria": "A10",
      "imagem_original": "https://animefire.plus/img/animes/pokemon-mezase-pokemon-master.webp",
      "imagem_pasta": "https://animefire.plus/img/animes/pokemon-mezase-pokemon-master/",
      "secao": "legendados,lancamentos",
      "pagina": 25,
      "total_episodios": 2,
      "link_video": "https://animefire.plus/video/pokemon-mezase-pokemon-master"
    },
    {
      "id": 3011,
      "nome": "Pon no Michi",
      "link": "https://animefire.plus/animes/pon-no-michi-todos-os-episodios",
      "texto_original": "Pon no Michi",
      "rating": 6.48,
      "classificacao_etaria": "A14",
      "imagem_original": "https://animefire.plus/img/animes/pon-no-michi.webp",
      "imagem_pasta": "https://animefire.plus/img/animes/pon-no-michi/",
      "secao": "legendados",
      "pagina": 17,
      "total_episodios": 12,
      "link_video": "https://animefire.plus/video/pon-no-michi"
    },
    {
      "id": 3014,
      "nome": "Popotan",
      "link": "https://animefire.plus/animes/popotan-todos-os-episodios",
      "texto_original": "Popotan",
      "rating": 6.36,
      "classificacao_etaria": "A18",
      "imagem_original": "https://animefire.plus/img/animes/popotan.webp",
      "imagem_pasta": "https://animefire.plus/img/animes/popotan/",
      "secao": "legendados",
      "pagina": 132,
      "total_episodios": 12,
      "link_video": "https://animefire.plus/video/popotan"
    }
  ],
  "pagination": {
    "current_page": 75,
    "per_page": 20,
    "total_items": 2189,
    "total_pages": 110,
    "has_next": true,
    "has_prev": true
  }
}
