{
  "message": "Animes com 2 a 12 episódios",
  "episode_range": {
    "min": 2,
    "max": 12
  },
  "data": [
    {
      "id": 3649,
      "nome": "Strike the Blood IV",
      "link": "https://animefire.plus/animes/strike-the-blood-iv-todos-os-episodios",
      "texto_original": "Strike the Blood IV",
      "rating": 7.06,
      "classificacao_etaria": "A18",
      "imagem_original": "https://animefire.plus/img/animes/strike-the-blood-iv.webp",
      "imagem_pasta": "https://animefire.plus/img/animes/strike-the-blood-iv/",
      "secao": "legendados",
      "pagina": 80,
      "total_episodios": 12,
      "link_video": "https://animefire.plus/video/strike-the-blood-iv"
    },
    {
      "id": 3651,
      "nome": "Strike the Blood: Valkyria no Oukoku-hen",
      "link": "https://animefire.plus/animes/strike-the-blood-valkyria-no-oukoku-hen-todos-os-episodios",
      "texto_original": "Strike the Blood: Valkyria no Oukoku-hen",
      "rating": 7.32,
      "classificacao_etaria": "A18",
      "imagem_original": "https://animefire.plus/img/animes/strike-the-blood-valkyria-no-oukoku-hen.webp",
      "imagem_pasta": "https://animefire.plus/img/animes/strike-the-blood-valkyria-no-oukoku-hen/",
      "secao": "legendados",
      "pagina": 56,
      "total_episodios": 2,
      "link_video": "https://animefire.plus/video/strike-the-blood-valkyria-no-oukoku-hen"
    },
    {
      "id": 3652,
      "nome": "Strike Witches",
      "link": "https://animefire.plus/animes/strike-witches-todos-os-episodios",
      "texto_original": "Strike Witches",
      "rating": 7.08,
      "classificacao_etaria": "A18",
      "imagem_original": "https://animefire.plus/img/animes/strike-witches.webp",
      "imagem_pasta": "https://animefire.plus/img/animes/strike-witches/",
      "secao": "legendados",
      "pagina": 134,
      "total_episodios": 12,
      "link_video": "https://animefire.plus/video/strike-witches"
    },
    {
      "id": 3653,
      "nome": "Strike Witches 2",
      "link": "https://animefire.plus/animes/strike-witches-2-todos-os-episodios",
      "texto_original": "Strike Witches 2",
      "rating": 7.38,
      "classificacao_etaria": "A18",
      "imagem_original": "https://animefire.plus/img/animes/strike-witches-2.webp",
      "imagem_pasta": "https://animefire.plus/img/animes/strike-witches-2/",
      "secao": "legendados",
      "pagina": 131,
      "total_episodios": 12,
      "link_video": "https://animefire.plus/video/strike-witches-2"
    },
    {
      "id": 3655,
      "nome": "Strike Witches: 501 Butai Hasshin Shimasu!",
      "link": "https://animefire.plus/animes/strike-witches-501-butai-hasshin-shimasu-todos-os-episodios",
      "texto_original": "Strike Witches: 501 Butai Hasshin Shimasu!",
      "rating": 6.48,
      "classificacao_etaria": "A14",
      "imagem_original": "https://animefire.plus/img/animes/strike-witches-501-butai-hasshin-shimasu.webp",
      "imagem_pasta": "https://animefire.plus/img/animes/strike-witches-501-butai-hasshin-shimasu/",
      "secao": "legendados",
      "pagina": 159,
      "total_episodios": 12,
      "link_video": "https://animefire.plus/video/strike-witches-501-butai-hasshin-shimasu"
    },
    {
      "id": 3656,
      "nome": "Strike Witches: Operation Victory Arrow",
      "link": "https://animefire.plus/animes/strike-witches-operation-victory-arrow-todos-os-episodios",
      "texto_original": "Strike Witches: Operation Victory Arrow",
      "rating": 7.36,
      "classificacao_etaria": "A18",
      "imagem_original": "https://animefire.plus/img/animes/strike-witches-operation-victory-arrow.webp",
      "imagem_pasta": "https://animefire.plus/img/animes/strike-witches-operation-victory-arrow/",
      "secao": "legendados",
      "pagina": 44,
      "total_episodios": 3,
      "link_video": "https://animefire.plus/video/strike-witches-operation-victory-arrow"
    },
    {
      "id": 3657,
      "nome": "Strike Witches: Road to Berlin",
      "link": "https://animefire.plus/animes/strike-witches-road-to-berlin-todos-os-episodios",
      "texto_original": "Strike Witches: Road to Berlin",
      "rating": null,
      "classificacao_etaria": "A14",
      "imagem_original": "https://animefire.plus/img/animes/strike-witches-road-to-berlin.webp",
      "imagem_pasta": "https://animefire.plus/img/animes/strike-witches-road-to-berlin/",
      "secao": "legendados",
      "pagina": 51,
      "total_episodios": 12,
      "link_video": "https://animefire.plus/video/strike-witches-road-to-berlin"
    },
    {
      "id": 3658,
      "nome": "Subarashiki Kono Sekai The Animation (Dublado)",
      "link": "https://animefire.plus/animes/subarashiki-kono-sekai-the-animation-dublado-todos-os-episodios",
      "texto_original": "Subarashiki Kono Sekai The Animation (Dublado)",
      "rating": 6.15,
      "classificacao_etaria": "A14",
      "imagem_original": "https://animefire.plus/img/animes/subarashiki-kono-sekai-the-animation.webp",
      "imagem_pasta": "https://animefire.plus/img/animes/subarashiki-kono-sekai-the-animation/",
      "secao": "dublados,legendados",
      "pagina": 17,
      "total_episodios": 12,
      "link_video": "https://animefire.plus/video/subarashiki-kono-sekai-the-animation-dublado"
    },
    {
      "id": 3659,
      "nome": "Subete ga F ni Naru",
      "link": "https://animefire.plus/animes/subete-ga-f-ni-naru-todos-os-episodios",
      "texto_original": "Subete ga F ni Naru",
      "rating": 7.29,
      "classificacao_etaria": "A16",
      "imagem_original": "https://animefire.plus/img/animes/subete-ga-f-ni-naru.webp",
      "imagem_pasta": "https://animefire.plus/img/animes/subete-ga-f-ni-naru/",
      "secao": "legendados",
      "pagina": 68,
      "total_episodios": 11,
      "link_video": "https://animefire.plus/video/subete-ga-f-ni-naru"
    },
    {
      "id": 3662,
      "nome": "Sugar Apple Fairy Tale Part 2",
      "link": "https://animefire.plus/animes/sugar-apple-fairy-tale-part-2-todos-os-episodios",
      "texto_original": "Sugar Apple Fairy Tale Part 2",
      "rating": 7.64,
      "classificacao_etaria": "A14",
      "imagem_original": "https://animefire.plus/img/animes/sugar-apple-fairy-tale-part-2.webp",
      "imagem_pasta": "https://animefire.plus/img/animes/sugar-apple-fairy-tale-part-2/",
      "secao": "legendados",
      "pagina": 22,
      "total_episodios": 12,
      "link_video": "https://animefire.plus/video/sugar-apple-fairy-tale-part-2"
    },
    {
      "id": 3665,
      "nome": "Suisei no Gargantia: Meguru Kouro, Haruka",
      "link": "https://animefire.plus/animes/suisei-no-gargantia-meguru-kouro-haruka-todos-os-episodios",
      "texto_original": "Suisei no Gargantia: Meguru Kouro, Haruka",
      "rating": 7.36,
      "classificacao_etaria": "A14",
      "imagem_original": "https://animefire.plus/img/animes/suisei-no-gargantia-meguru-kouro-haruka.webp",
      "imagem_pasta": "https://animefire.plus/img/animes/suisei-no-gargantia-meguru-kouro-haruka/",
      "secao": "legendados",
      "pagina": 40,
      "total_episodios": 2,
      "link_video": "https://animefire.plus/video/suisei-no-gargantia-meguru-kouro-haruka"
    },
    {
      "id": 3667,
      "nome": "Sukeban Deka (Dublado)",
      "link": "https://animefire.plus/animes/sukeban-deka-dublado-todos-os-episodios",
      "texto_original": "Sukeban Deka (Dublado)",
      "rating": 6.51,
      "classificacao_etaria": "A16",
      "imagem_original": "https://animefire.plus/img/animes/sukeban-deka.webp",
      "imagem_pasta": "https://animefire.plus/img/animes/sukeban-deka/",
      "secao": "dublados",
      "pagina": 22,
      "total_episodios": 2,
      "link_video": "https://animefire.plus/video/sukeban-deka-dublado"
    },
    {
      "id": 3674,
      "nome": "Sunohara-sou no Kanrinin-san",
      "link": "https://animefire.plus/animes/sunohara-sou-no-kanrinin-san-todos-os-episodios",
      "texto_original": "Sunohara-sou no Kanrinin-san",
      "rating": 7.05,
      "classificacao_etaria": "A14",
      "imagem_original": "https://animefire.plus/img/animes/sunohara-sou-no-kanrinin-san.webp",
      "imagem_pasta": "https://animefire.plus/img/animes/sunohara-sou-no-kanrinin-san/",
      "secao": "legendados",
      "pagina": 150,
      "total_episodios": 9,
      "link_video": "https://animefire.plus/video/sunohara-sou-no-kanrinin-san"
    },
    {
      "id": 3675,
      "nome": "Super Cub (Dublado)",
      "link": "https://animefire.plus/animes/super-cub-dublado-todos-os-episodios",
      "texto_original": "Super Cub (Dublado)",
      "rating": 7.45,
      "classificacao_etaria": "A14",
      "imagem_original": "https://animefire.plus/img/animes/super-cub.webp",
      "imagem_pasta": "https://animefire.plus/img/animes/super-cub/",
      "secao": "dublados,legendados",
      "pagina": 13,
      "total_episodios": 12,
      "link_video": "https://animefire.plus/video/super-cub-dublado"
    },
    {
      "id": 3677,
      "nome": "Super Lovers",
      "link": "https://animefire.plus/animes/super-lovers-todos-os-episodios",
      "texto_original": "Super Lovers",
      "rating": 7.44,
      "classificacao_etaria": "A14",
      "imagem_original": "https://animefire.plus/img/animes/super-lovers.webp",
      "imagem_pasta": "https://animefire.plus/img/animes/super-lovers/",
      "secao": "legendados",
      "pagina": 109,
      "total_episodios": 10,
      "link_video": "https://animefire.plus/video/super-lovers"
    },
    {
      "id": 3682,
      "nome": "Super Seisyun Brothers",
      "link": "https://animefire.plus/animes/super-seisyun-brothers-todos-os-episodios",
      "texto_original": "Super Seisyun Brothers",
      "rating": 6.88,
      "classificacao_etaria": "A14",
      "imagem_original": "https://animefire.plus/img/animes/super-seisyun-brothers.webp",
      "imagem_pasta": "https://animefire.plus/img/animes/super-seisyun-brothers/",
      "secao": "legendados",
      "pagina": 170,
      "total_episodios": 7,
      "link_video": "https://animefire.plus/video/super-seisyun-brothers"
    },
    {
      "id": 3692,
      "nome": "Sword Art Online Alternative: Gun Gale Online II",
      "link": "https://animefire.plus/animes/sword-art-online-alternative-gun-gale-online-ii-todos-os-episodios",
      "texto_original": "Sword Art Online Alternative: Gun Gale Online II",
      "rating": 7.14,
      "classificacao_etaria": "A14",
      "imagem_original": "https://animefire.plus/img/animes/sword-art-online-alternative-gun-gale-online-ii.webp",
      "imagem_pasta": "https://animefire.plus/img/animes/sword-art-online-alternative-gun-gale-online-ii/",
      "secao": "legendados",
      "pagina": 10,
      "total_episodios": 12,
      "link_video": "https://animefire.plus/video/sword-art-online-alternative-gun-gale-online-ii"
    },
    {
      "id": 3696,
      "nome": "Sword Art Online: Alicization - War of Underworld 2nd Season",
      "link": "https://animefire.plus/animes/sword-art-online-alicization---war-of-underworld-2nd-season-todos-os-episodios",
      "texto_original": "Sword Art Online: Alicization - War of Underworld 2nd Season",
      "rating": null,
      "classificacao_etaria": "A16",
      "imagem_original": "https://animefire.plus/img/animes/sword-art-online-alicization---war-of-underworld-2nd-season.webp",
      "imagem_pasta": "https://animefire.plus/img/animes/sword-art-online-alicization---war-of-underworld-2nd-season/",
      "secao": "legendados",
      "pagina": 57,
      "total_episodios": 11,
      "link_video": "https://animefire.plus/video/sword-art-online-alicization---war-of-underworld-2nd-season"
    },
    {
      "id": 3699,
      "nome": "Sword Art Online: Sword Art Offline",
      "link": "https://animefire.plus/animes/sword-art-online-sword-art-offline-todos-os-episodios",
      "texto_original": "Sword Art Online: Sword Art Offline",
      "rating": 6.25,
      "classificacao_etaria": "A14",
      "imagem_original": "https://animefire.plus/img/animes/sword-art-online-sword-art-offline.webp",
      "imagem_pasta": "https://animefire.plus/img/animes/sword-art-online-sword-art-offline/",
      "secao": "legendados",
      "pagina": 87,
      "total_episodios": 9,
      "link_video": "https://animefire.plus/video/sword-art-online-sword-art-offline"
    },
    {
      "id": 3700,
      "nome": "Sword Gai: The Animation",
      "link": "https://animefire.plus/animes/sword-gai-the-animation-todos-os-episodios",
      "texto_original": "Sword Gai: The Animation",
      "rating": 6.08,
      "classificacao_etaria": "A16",
      "imagem_original": "https://animefire.plus/img/animes/sword-gai-the-animation.webp",
      "imagem_pasta": "https://animefire.plus/img/animes/sword-gai-the-animation/",
      "secao": "legendados",
      "pagina": 176,
      "total_episodios": 12,
      "link_video": "https://animefire.plus/video/sword-gai-the-animation"
    }
  ],
  "pagination": {
    "current_page": 93,
    "per_page": 20,
    "total_items": 2189,
    "total_pages": 110,
    "has_next": true,
    "has_prev": true
  }
}
