{
  "message": "Animes com 2 a 12 episódios",
  "episode_range": {
    "min": 2,
    "max": 12
  },
  "data": [
    {
      "id": 3397,
      "nome": "Shichisei no Subaru",
      "link": "https://animefire.plus/animes/shichisei-no-subaru-todos-os-episodios",
      "texto_original": "Shichisei no Subaru",
      "rating": 6.26,
      "classificacao_etaria": "A14",
      "imagem_original": "https://animefire.plus/img/animes/shichisei-no-subaru.webp",
      "imagem_pasta": "https://animefire.plus/img/animes/shichisei-no-subaru/",
      "secao": "legendados",
      "pagina": 144,
      "total_episodios": 12,
      "link_video": "https://animefire.plus/video/shichisei-no-subaru"
    },
    {
      "id": 3400,
      "nome": "Shigofumi",
      "link": "https://animefire.plus/animes/shigofumi-todos-os-episodios",
      "texto_original": "Shigofumi",
      "rating": 7.54,
      "classificacao_etaria": "A16",
      "imagem_original": "https://animefire.plus/img/animes/shigofumi.webp",
      "imagem_pasta": "https://animefire.plus/img/animes/shigofumi/",
      "secao": "legendados",
      "pagina": 157,
      "total_episodios": 12,
      "link_video": "https://animefire.plus/video/shigofumi"
    },
    {
      "id": 3401,
      "nome": "Shiguang Dailiren: Yingdu Pian",
      "link": "https://animefire.plus/animes/shiguang-dailiren-yingdu-pian-todos-os-episodios",
      "texto_original": "Shiguang Dailiren: Yingdu Pian",
      "rating": 8.31,
      "classificacao_etaria": "A14",
      "imagem_original": "https://animefire.plus/img/animes/shiguang-dailiren-yingdu-pian.webp",
      "imagem_pasta": "https://animefire.plus/img/animes/shiguang-dailiren-yingdu-pian/",
      "secao": "legendados",
      "pagina": 7,
      "total_episodios": 6,
      "link_video": "https://animefire.plus/video/shiguang-dailiren-yingdu-pian"
    },
    {
      "id": 3402,
      "nome": "Shiguang Guiyu",
      "link": "https://animefire.plus/animes/shiguang-guiyu-todos-os-episodios",
      "texto_original": "Shiguang Guiyu",
      "rating": 5.49,
      "classificacao_etaria": "A16",
      "imagem_original": "https://animefire.plus/img/animes/shiguang-guiyu.webp",
      "imagem_pasta": "https://animefire.plus/img/animes/shiguang-guiyu/",
      "secao": "legendados",
      "pagina": 133,
      "total_episodios": 10,
      "link_video": "https://animefire.plus/video/shiguang-guiyu"
    },
    {
      "id": 3403,
      "nome": "Shigurui",
      "link": "https://animefire.plus/animes/shigurui-todos-os-episodios",
      "texto_original": "Shigurui",
      "rating": 7.47,
      "classificacao_etaria": "A18",
      "imagem_original": "https://animefire.plus/img/animes/shigurui.webp",
      "imagem_pasta": "https://animefire.plus/img/animes/shigurui/",
      "secao": "legendados",
      "pagina": 151,
      "total_episodios": 12,
      "link_video": "https://animefire.plus/video/shigurui"
    },
    {
      "id": 3404,
      "nome": "Shijou Saikyou no Daimaou, Murabito A ni Tensei suru (Dublado)",
      "link": "https://animefire.plus/animes/shijou-saikyou-no-daimaou-murabito-a-ni-tensei-suru-dublado-todos-os-episodios",
      "texto_original": "Shijou Saikyou no Daimaou, Murabito A ni Tensei suru (Dublado)",
      "rating": 6.29,
      "classificacao_etaria": "A14",
      "imagem_original": "https://animefire.plus/img/animes/shijou-saikyou-no-daimaou-murabito-a-ni-tensei-suru.webp",
      "imagem_pasta": "https://animefire.plus/img/animes/shijou-saikyou-no-daimaou-murabito-a-ni-tensei-suru/",
      "secao": "dublados,legendados",
      "pagina": 11,
      "total_episodios": 12,
      "link_video": "https://animefire.plus/video/shijou-saikyou-no-daimaou-murabito-a-ni-tensei-suru-dublado"
    },
    {
      "id": 3407,
      "nome": "Shikabane Hime: Aka",
      "link": "https://animefire.plus/animes/shikabane-hime-aka-todos-os-episodios",
      "texto_original": "Shikabane Hime: Aka",
      "rating": 7.31,
      "classificacao_etaria": "A16",
      "imagem_original": "https://animefire.plus/img/animes/shikabane-hime-aka.webp",
      "imagem_pasta": "https://animefire.plus/img/animes/shikabane-hime-aka/",
      "secao": "legendados",
      "pagina": 177,
      "total_episodios": 12,
      "link_video": "https://animefire.plus/video/shikabane-hime-aka"
    },
    {
      "id": 3408,
      "nome": "Shikabane Hime: Kuro",
      "link": "https://animefire.plus/animes/shikabane-hime-kuro-todos-os-episodios",
      "texto_original": "Shikabane Hime: Kuro",
      "rating": 7.38,
      "classificacao_etaria": "A16",
      "imagem_original": "https://animefire.plus/img/animes/shikabane-hime-kuro.webp",
      "imagem_pasta": "https://animefire.plus/img/animes/shikabane-hime-kuro/",
      "secao": "legendados",
      "pagina": 147,
      "total_episodios": 12,
      "link_video": "https://animefire.plus/video/shikabane-hime-kuro"
    },
    {
      "id": 3409,
      "nome": "Shikanoko Nokonoko Koshitantan (Dublado)",
      "link": "https://animefire.plus/animes/shikanoko-nokonoko-koshitantan-dublado-todos-os-episodios",
      "texto_original": "Shikanoko Nokonoko Koshitantan (Dublado)",
      "rating": 6.98,
      "classificacao_etaria": "A14",
      "imagem_original": "https://animefire.plus/img/animes/shikanoko-nokonoko-koshitantan.webp",
      "imagem_pasta": "https://animefire.plus/img/animes/shikanoko-nokonoko-koshitantan/",
      "secao": "dublados,legendados,lancamentos",
      "pagina": 2,
      "total_episodios": 12,
      "link_video": "https://animefire.plus/video/shikanoko-nokonoko-koshitantan-dublado"
    },
    {
      "id": 3411,
      "nome": "Shikizakura",
      "link": "https://animefire.plus/animes/shikizakura-todos-os-episodios",
      "texto_original": "Shikizakura",
      "rating": 5.83,
      "classificacao_etaria": "A14",
      "imagem_original": "https://animefire.plus/img/animes/shikizakura.webp",
      "imagem_pasta": "https://animefire.plus/img/animes/shikizakura/",
      "secao": "legendados",
      "pagina": 37,
      "total_episodios": 12,
      "link_video": "https://animefire.plus/video/shikizakura"
    },
    {
      "id": 3412,
      "nome": "Shikkakumon no Saikyou Kenja (Dublado)",
      "link": "https://animefire.plus/animes/shikkakumon-no-saikyou-kenja-dublado-todos-os-episodios",
      "texto_original": "Shikkakumon no Saikyou Kenja (Dublado)",
      "rating": 6.22,
      "classificacao_etaria": "A14",
      "imagem_original": "https://animefire.plus/img/animes/shikkakumon-no-saikyou-kenja.webp",
      "imagem_pasta": "https://animefire.plus/img/animes/shikkakumon-no-saikyou-kenja/",
      "secao": "dublados,legendados",
      "pagina": 12,
      "total_episodios": 12,
      "link_video": "https://animefire.plus/video/shikkakumon-no-saikyou-kenja-dublado"
    },
    {
      "id": 3415,
      "nome": "Shin Chuuka Ichiban! 2nd Season",
      "link": "https://animefire.plus/animes/shin-chuuka-ichiban-2nd-season-todos-os-episodios",
      "texto_original": "Shin Chuuka Ichiban! 2nd Season",
      "rating": 6.68,
      "classificacao_etaria": "A14",
      "imagem_original": "https://animefire.plus/img/animes/shin-chuuka-ichiban-2nd-season.webp",
      "imagem_pasta": "https://animefire.plus/img/animes/shin-chuuka-ichiban-2nd-season/",
      "secao": "legendados,lancamentos",
      "pagina": 48,
      "total_episodios": 6,
      "link_video": "https://animefire.plus/video/shin-chuuka-ichiban-2nd-season"
    },
    {
      "id": 3416,
      "nome": "Shin Cutey Honey",
      "link": "https://animefire.plus/animes/shin-cutey-honey-todos-os-episodios",
      "texto_original": "Shin Cutey Honey",
      "rating": 6.67,
      "classificacao_etaria": "A18",
      "imagem_original": "https://animefire.plus/img/animes/shin-cutey-honey.webp",
      "imagem_pasta": "https://animefire.plus/img/animes/shin-cutey-honey/",
      "secao": "legendados",
      "pagina": 83,
      "total_episodios": 8,
      "link_video": "https://animefire.plus/video/shin-cutey-honey"
    },
    {
      "id": 3417,
      "nome": "Shin Ikkitousen",
      "link": "https://animefire.plus/animes/shin-ikkitousen-todos-os-episodios",
      "texto_original": "Shin Ikkitousen",
      "rating": 5.83,
      "classificacao_etaria": "A18",
      "imagem_original": "https://animefire.plus/img/animes/shin-ikkitousen.webp",
      "imagem_pasta": "https://animefire.plus/img/animes/shin-ikkitousen/",
      "secao": "legendados",
      "pagina": 34,
      "total_episodios": 3,
      "link_video": "https://animefire.plus/video/shin-ikkitousen"
    },
    {
      "id": 3418,
      "nome": "Shin Koihime†Musou",
      "link": "https://animefire.plus/animes/shin-koihime-musou-todos-os-episodios",
      "texto_original": "Shin Koihime†Musou",
      "rating": 6.91,
      "classificacao_etaria": "A18",
      "imagem_original": "https://animefire.plus/img/animes/shin-koihime-musou.webp",
      "imagem_pasta": "https://animefire.plus/img/animes/shin-koihime-musou/",
      "secao": "legendados",
      "pagina": 175,
      "total_episodios": 12,
      "link_video": "https://animefire.plus/video/shin-koihime-musou"
    },
    {
      "id": 3420,
      "nome": "Shin Kujakuou",
      "link": "https://animefire.plus/animes/shin-kujakuou-todos-os-episodios",
      "texto_original": "Shin Kujakuou",
      "rating": 6.06,
      "classificacao_etaria": "A18",
      "imagem_original": "https://animefire.plus/img/animes/shin-kujakuou.webp",
      "imagem_pasta": "https://animefire.plus/img/animes/shin-kujakuou/",
      "secao": "legendados",
      "pagina": 83,
      "total_episodios": 2,
      "link_video": "https://animefire.plus/video/shin-kujakuou"
    },
    {
      "id": 3422,
      "nome": "Shin no Nakama ja Nai to Yuusha no Party wo Oidasareta node, Henkyou de Slow Life suru Koto ni Shimashita (Dublado)",
      "link": "https://animefire.plus/animes/shin-no-nakama-ja-nai-to-yuusha-no-party-wo-oidasareta-node-henkyou-de-slow-life-suru-koto-ni-shimashita-dublado-todos-os-episodios",
      "texto_original": "Shin no Nakama ja Nai to Yuusha no Party wo Oidasareta node, Henkyou de Slow Life suru Koto ni Shimashita (Dublado)",
      "rating": 6.92,
      "classificacao_etaria": "A14",
      "imagem_original": "https://animefire.plus/img/animes/shin-no-nakama-ja-nai-to-yuusha-no-party-wo-oidasareta-node-henkyou-de-slow-life-suru-koto-ni-shimashita.webp",
      "imagem_pasta": "https://animefire.plus/img/animes/shin-no-nakama-ja-nai-to-yuusha-no-party-wo-oidasareta-node-henkyou-de-slow-life-suru-koto-ni-shimashita/",
      "secao": "dublados,lancamentos",
      "pagina": 14,
      "total_episodios": 4,
      "link_video": "https://animefire.plus/video/shin-no-nakama-ja-nai-to-yuusha-no-party-wo-oidasareta-node-henkyou-de-slow-life-suru-koto-ni-shimashita-dublado"
    },
    {
      "id": 3423,
      "nome": "Shin no Nakama ja Nai to Yuusha no Party wo Oidasareta node, Henkyou de Slow Life suru Koto ni Shimashita 2nd",
      "link": "https://animefire.plus/animes/shin-no-nakama-ja-nai-to-yuusha-no-party-wo-oidasareta-node-henkyou-de-slow-life-suru-koto-ni-shimashita-2nd-todos-os-episodios",
      "texto_original": "Shin no Nakama ja Nai to Yuusha no Party wo Oidasareta node, Henkyou de Slow Life suru Koto ni Shimashita 2nd",
      "rating": 6.76,
      "classificacao_etaria": "A14",
      "imagem_original": "https://animefire.plus/img/animes/shin-no-nakama-ja-nai-to-yuusha-no-party-wo-oidasareta-node-henkyou-de-slow-life-suru-koto-ni-shimashita-2nd.webp",
      "imagem_pasta": "https://animefire.plus/img/animes/shin-no-nakama-ja-nai-to-yuusha-no-party-wo-oidasareta-node-henkyou-de-slow-life-suru-koto-ni-shimashita-2nd/",
      "secao": "legendados",
      "pagina": 16,
      "total_episodios": 12,
      "link_video": "https://animefire.plus/video/shin-no-nakama-ja-nai-to-yuusha-no-party-wo-oidasareta-node-henkyou-de-slow-life-suru-koto-ni-shimashita-2nd"
    },
    {
      "id": 3426,
      "nome": "Shin Shinka no Mi: Shiranai Uchi ni Kachigumi Jinsei (Dublado)",
      "link": "https://animefire.plus/animes/shin-shinka-no-mi-shiranai-uchi-ni-kachigumi-jinsei-dublado-todos-os-episodios",
      "texto_original": "Shin Shinka no Mi: Shiranai Uchi ni Kachigumi Jinsei (Dublado)",
      "rating": 5.47,
      "classificacao_etaria": "A14",
      "imagem_original": "https://animefire.plus/img/animes/shin-shinka-no-mi-shiranai-uchi-ni-kachigumi-jinsei.webp",
      "imagem_pasta": "https://animefire.plus/img/animes/shin-shinka-no-mi-shiranai-uchi-ni-kachigumi-jinsei/",
      "secao": "dublados,legendados",
      "pagina": 5,
      "total_episodios": 12,
      "link_video": "https://animefire.plus/video/shin-shinka-no-mi-shiranai-uchi-ni-kachigumi-jinsei-dublado"
    },
    {
      "id": 3428,
      "nome": "Shin Strange+",
      "link": "https://animefire.plus/animes/shin-strange-todos-os-episodios",
      "texto_original": "Shin Strange+",
      "rating": 6.3,
      "classificacao_etaria": "A14",
      "imagem_original": "https://animefire.plus/img/animes/shin-strange.webp",
      "imagem_pasta": "https://animefire.plus/img/animes/shin-strange/",
      "secao": "legendados",
      "pagina": 104,
      "total_episodios": 12,
      "link_video": "https://animefire.plus/video/shin-strange"
    }
  ],
  "pagination": {
    "current_page": 86,
    "per_page": 20,
    "total_items": 2189,
    "total_pages": 110,
    "has_next": true,
    "has_prev": true
  }
}
