{
  "message": "Animes com 2 a 12 episódios",
  "episode_range": {
    "min": 2,
    "max": 12
  },
  "data": [
    {
      "id": 1598,
      "nome": "Ijiranaide, Nagatoro-san (Dublado)",
      "link": "https://animefire.plus/animes/ijiranaide-nagatoro-san-dublado-todos-os-episodios",
      "texto_original": "Ijiranaide, Nagatoro-san (Dublado)",
      "rating": 7.21,
      "classificacao_etaria": "A14",
      "imagem_original": "https://animefire.plus/img/animes/ijiranaide-nagatoro-san.webp",
      "imagem_pasta": "https://animefire.plus/img/animes/ijiranaide-nagatoro-san/",
      "secao": "dublados,legendados",
      "pagina": 13,
      "total_episodios": 12,
      "link_video": "https://animefire.plus/video/ijiranaide-nagatoro-san-dublado"
    },
    {
      "id": 1599,
      "nome": "Ijiranaide, Nagatoro-san 2nd Attack (Dublado)",
      "link": "https://animefire.plus/animes/ijiranaide-nagatoro-san-2nd-attack-dublado-todos-os-episodios",
      "texto_original": "Ijiranaide, Nagatoro-san 2nd Attack (Dublado)",
      "rating": 7.45,
      "classificacao_etaria": "A14",
      "imagem_original": "https://animefire.plus/img/animes/ijiranaide-nagatoro-san-2nd-attack.webp",
      "imagem_pasta": "https://animefire.plus/img/animes/ijiranaide-nagatoro-san-2nd-attack/",
      "secao": "dublados,legendados,lancamentos",
      "pagina": 8,
      "total_episodios": 12,
      "link_video": "https://animefire.plus/video/ijiranaide-nagatoro-san-2nd-attack-dublado"
    },
    {
      "id": 1602,
      "nome": "Ikebukuro West Gate Park",
      "link": "https://animefire.plus/animes/ikebukuro-west-gate-park-todos-os-episodios",
      "texto_original": "Ikebukuro West Gate Park",
      "rating": null,
      "classificacao_etaria": "A14",
      "imagem_original": "https://animefire.plus/img/animes/ikebukuro-west-gate-park.webp",
      "imagem_pasta": "https://animefire.plus/img/animes/ikebukuro-west-gate-park/",
      "secao": "legendados",
      "pagina": 52,
      "total_episodios": 12,
      "link_video": "https://animefire.plus/video/ikebukuro-west-gate-park"
    },
    {
      "id": 1604,
      "nome": "Ikkitousen: Dragon Destiny",
      "link": "https://animefire.plus/animes/ikkitousen-dragon-destiny-todos-os-episodios",
      "texto_original": "Ikkitousen: Dragon Destiny",
      "rating": 6.89,
      "classificacao_etaria": "A18",
      "imagem_original": "https://animefire.plus/img/animes/ikkitousen-dragon-destiny.webp",
      "imagem_pasta": "https://animefire.plus/img/animes/ikkitousen-dragon-destiny/",
      "secao": "legendados",
      "pagina": 168,
      "total_episodios": 12,
      "link_video": "https://animefire.plus/video/ikkitousen-dragon-destiny"
    },
    {
      "id": 1605,
      "nome": "Ikkitousen: Extravaganza Epoch",
      "link": "https://animefire.plus/animes/ikkitousen-extravaganza-epoch-todos-os-episodios",
      "texto_original": "Ikkitousen: Extravaganza Epoch",
      "rating": 6.67,
      "classificacao_etaria": "A18",
      "imagem_original": "https://animefire.plus/img/animes/ikkitousen-extravaganza-epoch.webp",
      "imagem_pasta": "https://animefire.plus/img/animes/ikkitousen-extravaganza-epoch/",
      "secao": "legendados",
      "pagina": 86,
      "total_episodios": 2,
      "link_video": "https://animefire.plus/video/ikkitousen-extravaganza-epoch"
    },
    {
      "id": 1606,
      "nome": "Ikkitousen: Great Guardians",
      "link": "https://animefire.plus/animes/ikkitousen-great-guardians-todos-os-episodios",
      "texto_original": "Ikkitousen: Great Guardians",
      "rating": 6.88,
      "classificacao_etaria": "A18",
      "imagem_original": "https://animefire.plus/img/animes/ikkitousen-great-guardians.webp",
      "imagem_pasta": "https://animefire.plus/img/animes/ikkitousen-great-guardians/",
      "secao": "legendados",
      "pagina": 144,
      "total_episodios": 12,
      "link_video": "https://animefire.plus/video/ikkitousen-great-guardians"
    },
    {
      "id": 1607,
      "nome": "Ikkitousen: Western Wolves",
      "link": "https://animefire.plus/animes/ikkitousen-western-wolves-todos-os-episodios",
      "texto_original": "Ikkitousen: Western Wolves",
      "rating": 6.37,
      "classificacao_etaria": "A18",
      "imagem_original": "https://animefire.plus/img/animes/ikkitousen-western-wolves.webp",
      "imagem_pasta": "https://animefire.plus/img/animes/ikkitousen-western-wolves/",
      "secao": "legendados",
      "pagina": 86,
      "total_episodios": 3,
      "link_video": "https://animefire.plus/video/ikkitousen-western-wolves"
    },
    {
      "id": 1608,
      "nome": "Ikkitousen: Xtreme Xecutor",
      "link": "https://animefire.plus/animes/ikkitousen-xtreme-xecutor-todos-os-episodios",
      "texto_original": "Ikkitousen: Xtreme Xecutor",
      "rating": 6.87,
      "classificacao_etaria": "A18",
      "imagem_original": "https://animefire.plus/img/animes/ikkitousen-xtreme-xecutor.webp",
      "imagem_pasta": "https://animefire.plus/img/animes/ikkitousen-xtreme-xecutor/",
      "secao": "legendados",
      "pagina": 149,
      "total_episodios": 12,
      "link_video": "https://animefire.plus/video/ikkitousen-xtreme-xecutor"
    },
    {
      "id": 1609,
      "nome": "Ikoku Meiro no Croisée The Animation",
      "link": "https://animefire.plus/animes/ikoku-meiro-no-croisee-the-animation-todos-os-episodios",
      "texto_original": "Ikoku Meiro no Croisée The Animation",
      "rating": 7.46,
      "classificacao_etaria": null,
      "imagem_original": "https://animefire.plus/img/animes/ikoku-meiro-no-croisee-the-animation.webp",
      "imagem_pasta": "https://animefire.plus/img/animes/ikoku-meiro-no-croisee-the-animation/",
      "secao": "legendados",
      "pagina": 166,
      "total_episodios": 12,
      "link_video": "https://animefire.plus/video/ikoku-meiro-no-croisee-the-animation"
    },
    {
      "id": 1611,
      "nome": "Imouto Sae Ireba Ii.",
      "link": "https://animefire.plus/animes/imouto-sae-ireba-ii-todos-os-episodios",
      "texto_original": "Imouto Sae Ireba Ii.",
      "rating": 7.44,
      "classificacao_etaria": "A14",
      "imagem_original": "https://animefire.plus/img/animes/imouto-sae-ireba-ii.webp",
      "imagem_pasta": "https://animefire.plus/img/animes/imouto-sae-ireba-ii/",
      "secao": "legendados",
      "pagina": 60,
      "total_episodios": 12,
      "link_video": "https://animefire.plus/video/imouto-sae-ireba-ii"
    },
    {
      "id": 1612,
      "nome": "Inari, Konkon, Koi Iroha.",
      "link": "https://animefire.plus/animes/inari-konkon-koi-iroha-todos-os-episodios",
      "texto_original": "Inari, Konkon, Koi Iroha.",
      "rating": 7.27,
      "classificacao_etaria": "A14",
      "imagem_original": "https://animefire.plus/img/animes/inari-konkon-koi-iroha.webp",
      "imagem_pasta": "https://animefire.plus/img/animes/inari-konkon-koi-iroha/",
      "secao": "legendados",
      "pagina": 154,
      "total_episodios": 10,
      "link_video": "https://animefire.plus/video/inari-konkon-koi-iroha"
    },
    {
      "id": 1614,
      "nome": "Inazuma Eleven Go",
      "link": "https://animefire.plus/animes/inazuma-eleven-go-todos-os-episodios",
      "texto_original": "Inazuma Eleven Go",
      "rating": 7.04,
      "classificacao_etaria": null,
      "imagem_original": "https://animefire.plus/img/animes/inazuma-eleven-go.webp",
      "imagem_pasta": "https://animefire.plus/img/animes/inazuma-eleven-go/",
      "secao": "legendados",
      "pagina": 66,
      "total_episodios": 7,
      "link_video": "https://animefire.plus/video/inazuma-eleven-go"
    },
    {
      "id": 1620,
      "nome": "Infini-T Force",
      "link": "https://animefire.plus/animes/infini-t-force-todos-os-episodios",
      "texto_original": "Infini-T Force",
      "rating": 6.55,
      "classificacao_etaria": "A14",
      "imagem_original": "https://animefire.plus/img/animes/infini-t-force.webp",
      "imagem_pasta": "https://animefire.plus/img/animes/infini-t-force/",
      "secao": "legendados",
      "pagina": 86,
      "total_episodios": 12,
      "link_video": "https://animefire.plus/video/infini-t-force"
    },
    {
      "id": 1622,
      "nome": "Ingress the Animation (Dublado)",
      "link": "https://animefire.plus/animes/ingress-the-animation-dublado-todos-os-episodios",
      "texto_original": "Ingress the Animation (Dublado)",
      "rating": 6.45,
      "classificacao_etaria": "A16",
      "imagem_original": "https://animefire.plus/img/animes/ingress-the-animation.webp",
      "imagem_pasta": "https://animefire.plus/img/animes/ingress-the-animation/",
      "secao": "dublados,legendados",
      "pagina": 22,
      "total_episodios": 11,
      "link_video": "https://animefire.plus/video/ingress-the-animation-dublado"
    },
    {
      "id": 1628,
      "nome": "Initial D Final Stage",
      "link": "https://animefire.plus/animes/initial-d-final-stage-todos-os-episodios",
      "texto_original": "Initial D Final Stage",
      "rating": 8.28,
      "classificacao_etaria": "A14",
      "imagem_original": "https://animefire.plus/img/animes/initial-d-final-stage.webp",
      "imagem_pasta": "https://animefire.plus/img/animes/initial-d-final-stage/",
      "secao": "legendados",
      "pagina": 102,
      "total_episodios": 4,
      "link_video": "https://animefire.plus/video/initial-d-final-stage"
    },
    {
      "id": 1632,
      "nome": "Innocent Venus",
      "link": "https://animefire.plus/animes/innocent-venus-todos-os-episodios",
      "texto_original": "Innocent Venus",
      "rating": 6.89,
      "classificacao_etaria": "A14",
      "imagem_original": "https://animefire.plus/img/animes/innocent-venus.webp",
      "imagem_pasta": "https://animefire.plus/img/animes/innocent-venus/",
      "secao": "legendados",
      "pagina": 156,
      "total_episodios": 12,
      "link_video": "https://animefire.plus/video/innocent-venus"
    },
    {
      "id": 1633,
      "nome": "Inou-Battle wa Nichijou-kei no Naka de",
      "link": "https://animefire.plus/animes/inou-battle-wa-nichijou-kei-no-naka-de-todos-os-episodios",
      "texto_original": "Inou-Battle wa Nichijou-kei no Naka de",
      "rating": 7.21,
      "classificacao_etaria": "A14",
      "imagem_original": "https://animefire.plus/img/animes/inou-battle-wa-nichijou-kei-no-naka-de.webp",
      "imagem_pasta": "https://animefire.plus/img/animes/inou-battle-wa-nichijou-kei-no-naka-de/",
      "secao": "legendados",
      "pagina": 79,
      "total_episodios": 12,
      "link_video": "https://animefire.plus/video/inou-battle-wa-nichijou-kei-no-naka-de"
    },
    {
      "id": 1637,
      "nome": "Inu to Hasami wa Tsukaiyou",
      "link": "https://animefire.plus/animes/inu-to-hasami-wa-tsukaiyou-todos-os-episodios",
      "texto_original": "Inu to Hasami wa Tsukaiyou",
      "rating": 6.66,
      "classificacao_etaria": "A14",
      "imagem_original": "https://animefire.plus/img/animes/inu-to-hasami-wa-tsukaiyou.webp",
      "imagem_pasta": "https://animefire.plus/img/animes/inu-to-hasami-wa-tsukaiyou/",
      "secao": "legendados",
      "pagina": 171,
      "total_episodios": 5,
      "link_video": "https://animefire.plus/video/inu-to-hasami-wa-tsukaiyou"
    },
    {
      "id": 1638,
      "nome": "Inu to Neko Docchi mo Katteru to Mainichi Tanoshii",
      "link": "https://animefire.plus/animes/inu-to-neko-docchi-mo-katteru-to-mainichi-tanoshii-todos-os-episodios",
      "texto_original": "Inu to Neko Docchi mo Katteru to Mainichi Tanoshii",
      "rating": null,
      "classificacao_etaria": null,
      "imagem_original": "https://animefire.plus/img/animes/inu-to-neko-docchi-mo-katteru-to-mainichi-tanoshii.webp",
      "imagem_pasta": "https://animefire.plus/img/animes/inu-to-neko-docchi-mo-katteru-to-mainichi-tanoshii/",
      "secao": "legendados,lancamentos",
      "pagina": 52,
      "total_episodios": 12,
      "link_video": "https://animefire.plus/video/inu-to-neko-docchi-mo-katteru-to-mainichi-tanoshii"
    },
    {
      "id": 1639,
      "nome": "Inu x Boku SS",
      "link": "https://animefire.plus/animes/inu-x-boku-ss-todos-os-episodios",
      "texto_original": "Inu x Boku SS",
      "rating": 7.59,
      "classificacao_etaria": "A14",
      "imagem_original": "https://animefire.plus/img/animes/inu-x-boku-ss.webp",
      "imagem_pasta": "https://animefire.plus/img/animes/inu-x-boku-ss/",
      "secao": "legendados",
      "pagina": 170,
      "total_episodios": 8,
      "link_video": "https://animefire.plus/video/inu-x-boku-ss"
    }
  ],
  "pagination": {
    "current_page": 40,
    "per_page": 20,
    "total_items": 2189,
    "total_pages": 110,
    "has_next": true,
    "has_prev": true
  }
}
