{
  "message": "Animes com 2 a 12 episódios",
  "episode_range": {
    "min": 2,
    "max": 12
  },
  "data": [
    {
      "id": 3057,
      "nome": "Quanzhi Gaoshou",
      "link": "https://animefire.plus/animes/quanzhi-gaoshou-todos-os-episodios",
      "texto_original": "Quanzhi Gaoshou",
      "rating": 8.09,
      "classificacao_etaria": "A14",
      "imagem_original": "https://animefire.plus/img/animes/quanzhi-gaoshou.webp",
      "imagem_pasta": "https://animefire.plus/img/animes/quanzhi-gaoshou/",
      "secao": "legendados",
      "pagina": 162,
      "total_episodios": 12,
      "link_video": "https://animefire.plus/video/quanzhi-gaoshou"
    },
    {
      "id": 3058,
      "nome": "Quanzhi Gaoshou 2",
      "link": "https://animefire.plus/animes/quanzhi-gaoshou-2-todos-os-episodios",
      "texto_original": "Quanzhi Gaoshou 2",
      "rating": 8.04,
      "classificacao_etaria": "A14",
      "imagem_original": "https://animefire.plus/img/animes/quanzhi-gaoshou-2.webp",
      "imagem_pasta": "https://animefire.plus/img/animes/quanzhi-gaoshou-2/",
      "secao": "legendados",
      "pagina": 53,
      "total_episodios": 12,
      "link_video": "https://animefire.plus/video/quanzhi-gaoshou-2"
    },
    {
      "id": 3059,
      "nome": "Queen's Blade: Gyokuza wo Tsugu Mono",
      "link": "https://animefire.plus/animes/queen-s-blade-gyokuza-wo-tsugu-mono-todos-os-episodios",
      "texto_original": "Queen's Blade: Gyokuza wo Tsugu Mono",
      "rating": 6.66,
      "classificacao_etaria": "A18",
      "imagem_original": "https://animefire.plus/img/animes/queen-s-blade-gyokuza-wo-tsugu-mono.webp",
      "imagem_pasta": "https://animefire.plus/img/animes/queen-s-blade-gyokuza-wo-tsugu-mono/",
      "secao": "legendados",
      "pagina": 141,
      "total_episodios": 12,
      "link_video": "https://animefire.plus/video/queen-s-blade-gyokuza-wo-tsugu-mono"
    },
    {
      "id": 3061,
      "nome": "Queen's Blade: Rurou no Senshi",
      "link": "https://animefire.plus/animes/queen-s-blade-rurou-no-senshi-todos-os-episodios",
      "texto_original": "Queen's Blade: Rurou no Senshi",
      "rating": 6.25,
      "classificacao_etaria": "A18",
      "imagem_original": "https://animefire.plus/img/animes/queen-s-blade-rurou-no-senshi.webp",
      "imagem_pasta": "https://animefire.plus/img/animes/queen-s-blade-rurou-no-senshi/",
      "secao": "legendados",
      "pagina": 147,
      "total_episodios": 12,
      "link_video": "https://animefire.plus/video/queen-s-blade-rurou-no-senshi"
    },
    {
      "id": 3069,
      "nome": "Rail Romanesque",
      "link": "https://animefire.plus/animes/rail-romanesque-todos-os-episodios",
      "texto_original": "Rail Romanesque",
      "rating": null,
      "classificacao_etaria": "A14",
      "imagem_original": "https://animefire.plus/img/animes/rail-romanesque.webp",
      "imagem_pasta": "https://animefire.plus/img/animes/rail-romanesque/",
      "secao": "legendados",
      "pagina": 52,
      "total_episodios": 12,
      "link_video": "https://animefire.plus/video/rail-romanesque"
    },
    {
      "id": 3070,
      "nome": "Rail Wars!",
      "link": "https://animefire.plus/animes/rail-wars-todos-os-episodios",
      "texto_original": "Rail Wars!",
      "rating": 6.46,
      "classificacao_etaria": "A14",
      "imagem_original": "https://animefire.plus/img/animes/rail-wars.webp",
      "imagem_pasta": "https://animefire.plus/img/animes/rail-wars/",
      "secao": "legendados",
      "pagina": 151,
      "total_episodios": 8,
      "link_video": "https://animefire.plus/video/rail-wars"
    },
    {
      "id": 3073,
      "nome": "Raise wa Tanin ga Ii",
      "link": "https://animefire.plus/animes/raise-wa-tanin-ga-ii-todos-os-episodios",
      "texto_original": "Raise wa Tanin ga Ii",
      "rating": 7.18,
      "classificacao_etaria": "A14",
      "imagem_original": "https://animefire.plus/img/animes/raise-wa-tanin-ga-ii.webp",
      "imagem_pasta": "https://animefire.plus/img/animes/raise-wa-tanin-ga-ii/",
      "secao": "legendados",
      "pagina": 9,
      "total_episodios": 12,
      "link_video": "https://animefire.plus/video/raise-wa-tanin-ga-ii"
    },
    {
      "id": 3074,
      "nome": "Rakudai Kishi No Cavalry",
      "link": "https://animefire.plus/animes/rakudai-kishi-no-cavalry-todos-os-episodios",
      "texto_original": "Rakudai Kishi No Cavalry",
      "rating": 7.71,
      "classificacao_etaria": "A16",
      "imagem_original": "https://animefire.plus/img/animes/rakudai-kishi-no-cavalry.webp",
      "imagem_pasta": "https://animefire.plus/img/animes/rakudai-kishi-no-cavalry/",
      "secao": "legendados",
      "pagina": 99,
      "total_episodios": 12,
      "link_video": "https://animefire.plus/video/rakudai-kishi-no-cavalry"
    },
    {
      "id": 3075,
      "nome": "Rakugo Tennyo Oyui",
      "link": "https://animefire.plus/animes/rakugo-tennyo-oyui-todos-os-episodios",
      "texto_original": "Rakugo Tennyo Oyui",
      "rating": 6.09,
      "classificacao_etaria": "A14",
      "imagem_original": "https://animefire.plus/img/animes/rakugo-tennyo-oyui.webp",
      "imagem_pasta": "https://animefire.plus/img/animes/rakugo-tennyo-oyui/",
      "secao": "legendados",
      "pagina": 166,
      "total_episodios": 12,
      "link_video": "https://animefire.plus/video/rakugo-tennyo-oyui"
    },
    {
      "id": 3076,
      "nome": "Ramen Akaneko",
      "link": "https://animefire.plus/animes/ramen-akaneko-todos-os-episodios",
      "texto_original": "Ramen Akaneko",
      "rating": 7.38,
      "classificacao_etaria": "A14",
      "imagem_original": "https://animefire.plus/img/animes/ramen-akaneko.webp",
      "imagem_pasta": "https://animefire.plus/img/animes/ramen-akaneko/",
      "secao": "legendados",
      "pagina": 12,
      "total_episodios": 12,
      "link_video": "https://animefire.plus/video/ramen-akaneko"
    },
    {
      "id": 3077,
      "nome": "Ramen Daisuki Koizumi-san",
      "link": "https://animefire.plus/animes/ramen-daisuki-koizumi-san-todos-os-episodios",
      "texto_original": "Ramen Daisuki Koizumi-san",
      "rating": 6.54,
      "classificacao_etaria": "A14",
      "imagem_original": "https://animefire.plus/img/animes/ramen-daisuki-koizumi-san.webp",
      "imagem_pasta": "https://animefire.plus/img/animes/ramen-daisuki-koizumi-san/",
      "secao": "legendados",
      "pagina": 133,
      "total_episodios": 12,
      "link_video": "https://animefire.plus/video/ramen-daisuki-koizumi-san"
    },
    {
      "id": 3078,
      "nome": "Rang Wo Men Shao Ba",
      "link": "https://animefire.plus/animes/rang-wo-men-shao-ba-todos-os-episodios",
      "texto_original": "Rang Wo Men Shao Ba",
      "rating": 6.03,
      "classificacao_etaria": "A14",
      "imagem_original": "https://animefire.plus/img/animes/rang-wo-men-shao-ba.webp",
      "imagem_pasta": "https://animefire.plus/img/animes/rang-wo-men-shao-ba/",
      "secao": "legendados",
      "pagina": 82,
      "total_episodios": 2,
      "link_video": "https://animefire.plus/video/rang-wo-men-shao-ba"
    },
    {
      "id": 3079,
      "nome": "Ranma ½ (2024)",
      "link": "https://animefire.plus/animes/ranma-2024-todos-os-episodios",
      "texto_original": "Ranma ½ (2024)",
      "rating": 8.01,
      "classificacao_etaria": "A14",
      "imagem_original": "https://animefire.plus/img/animes/ranma-2024.webp",
      "imagem_pasta": "https://animefire.plus/img/animes/ranma-2024/",
      "secao": "legendados",
      "pagina": 11,
      "total_episodios": 12,
      "link_video": "https://animefire.plus/video/ranma-2024"
    },
    {
      "id": 3084,
      "nome": "RDG: Red Data Girl",
      "link": "https://animefire.plus/animes/rdg-red-data-girl-todos-os-episodios",
      "texto_original": "RDG: Red Data Girl",
      "rating": 6.65,
      "classificacao_etaria": "A14",
      "imagem_original": "https://animefire.plus/img/animes/rdg-red-data-girl.webp",
      "imagem_pasta": "https://animefire.plus/img/animes/rdg-red-data-girl/",
      "secao": "legendados",
      "pagina": 175,
      "total_episodios": 4,
      "link_video": "https://animefire.plus/video/rdg-red-data-girl"
    },
    {
      "id": 3085,
      "nome": "Re-Kan!",
      "link": "https://animefire.plus/animes/re-kan-todos-os-episodios",
      "texto_original": "Re-Kan!",
      "rating": 6.8,
      "classificacao_etaria": "A14",
      "imagem_original": "https://animefire.plus/img/animes/re-kan.webp",
      "imagem_pasta": "https://animefire.plus/img/animes/re-kan/",
      "secao": "legendados",
      "pagina": 91,
      "total_episodios": 4,
      "link_video": "https://animefire.plus/video/re-kan"
    },
    {
      "id": 3086,
      "nome": "Re-Main (Dublado)",
      "link": "https://animefire.plus/animes/re-main-dublado-todos-os-episodios",
      "texto_original": "Re-Main (Dublado)",
      "rating": 7.19,
      "classificacao_etaria": "A14",
      "imagem_original": "https://animefire.plus/img/animes/re-main.webp",
      "imagem_pasta": "https://animefire.plus/img/animes/re-main/",
      "secao": "dublados,legendados",
      "pagina": 11,
      "total_episodios": 12,
      "link_video": "https://animefire.plus/video/re-main-dublado"
    },
    {
      "id": 3087,
      "nome": "Re:␣Hamatora",
      "link": "https://animefire.plus/animes/re-hamatora-todos-os-episodios",
      "texto_original": "Re:␣Hamatora",
      "rating": 7.45,
      "classificacao_etaria": "A16",
      "imagem_original": "https://animefire.plus/img/animes/re-hamatora.webp",
      "imagem_pasta": "https://animefire.plus/img/animes/re-hamatora/",
      "secao": "legendados",
      "pagina": 91,
      "total_episodios": 12,
      "link_video": "https://animefire.plus/video/re-hamatora"
    },
    {
      "id": 3089,
      "nome": "Re:Monster (Dublado)",
      "link": "https://animefire.plus/animes/re-monster-dublado-todos-os-episodios",
      "texto_original": "Re:Monster (Dublado)",
      "rating": 6.55,
      "classificacao_etaria": "A14",
      "imagem_original": "https://animefire.plus/img/animes/re-monster.webp",
      "imagem_pasta": "https://animefire.plus/img/animes/re-monster/",
      "secao": "dublados,legendados,lancamentos",
      "pagina": 3,
      "total_episodios": 12,
      "link_video": "https://animefire.plus/video/re-monster-dublado"
    },
    {
      "id": 3090,
      "nome": "Re:Stage! Dream Days♪",
      "link": "https://animefire.plus/animes/re-stage-dream-days-todos-os-episodios",
      "texto_original": "Re:Stage! Dream Days♪",
      "rating": 6.69,
      "classificacao_etaria": "A14",
      "imagem_original": "https://animefire.plus/img/animes/re-stage-dream-days.webp",
      "imagem_pasta": "https://animefire.plus/img/animes/re-stage-dream-days/",
      "secao": "legendados",
      "pagina": 158,
      "total_episodios": 4,
      "link_video": "https://animefire.plus/video/re-stage-dream-days"
    },
    {
      "id": 3094,
      "nome": "Re:Zero kara Hajimeru Isekai Seikatsu 2nd Season Part 2",
      "link": "https://animefire.plus/animes/re-zero-kara-hajimeru-isekai-seikatsu-2nd-season-part-2-todos-os-episodios",
      "texto_original": "Re:Zero kara Hajimeru Isekai Seikatsu 2nd Season Part 2",
      "rating": 8.42,
      "classificacao_etaria": "A16",
      "imagem_original": "https://animefire.plus/img/animes/re-zero-kara-hajimeru-isekai-seikatsu-2nd-season-part-2.webp",
      "imagem_pasta": "https://animefire.plus/img/animes/re-zero-kara-hajimeru-isekai-seikatsu-2nd-season-part-2/",
      "secao": "legendados",
      "pagina": 50,
      "total_episodios": 8,
      "link_video": "https://animefire.plus/video/re-zero-kara-hajimeru-isekai-seikatsu-2nd-season-part-2"
    }
  ],
  "pagination": {
    "current_page": 77,
    "per_page": 20,
    "total_items": 2189,
    "total_pages": 110,
    "has_next": true,
    "has_prev": true
  }
}
