{
  "message": "Animes com 2 a 12 episódios",
  "episode_range": {
    "min": 2,
    "max": 12
  },
  "data": [
    {
      "id": 2432,
      "nome": "Masamune-kun no Revenge (Dublado)",
      "link": "https://animefire.plus/animes/masamune-kun-no-revenge-dublado-todos-os-episodios",
      "texto_original": "Masamune-kun no Revenge (Dublado)",
      "rating": 6.74,
      "classificacao_etaria": "A14",
      "imagem_original": "https://animefire.plus/img/animes/masamune-kun-no-revenge.webp",
      "imagem_pasta": "https://animefire.plus/img/animes/masamune-kun-no-revenge/",
      "secao": "dublados,legendados",
      "pagina": 7,
      "total_episodios": 12,
      "link_video": "https://animefire.plus/video/masamune-kun-no-revenge-dublado"
    },
    {
      "id": 2434,
      "nome": "Masamune-kun no Revenge R (Dublado)",
      "link": "https://animefire.plus/animes/masamune-kun-no-revenge-r-dublado-todos-os-episodios",
      "texto_original": "Masamune-kun no Revenge R (Dublado)",
      "rating": 7.23,
      "classificacao_etaria": "A14",
      "imagem_original": "https://animefire.plus/img/animes/masamune-kun-no-revenge-r.webp",
      "imagem_pasta": "https://animefire.plus/img/animes/masamune-kun-no-revenge-r/",
      "secao": "dublados,legendados",
      "pagina": 7,
      "total_episodios": 12,
      "link_video": "https://animefire.plus/video/masamune-kun-no-revenge-r-dublado"
    },
    {
      "id": 2436,
      "nome": "Mashiro no Oto",
      "link": "https://animefire.plus/animes/mashiro-no-oto-todos-os-episodios",
      "texto_original": "Mashiro no Oto",
      "rating": 7.53,
      "classificacao_etaria": "A14",
      "imagem_original": "https://animefire.plus/img/animes/mashiro-no-oto.webp",
      "imagem_pasta": "https://animefire.plus/img/animes/mashiro-no-oto/",
      "secao": "legendados",
      "pagina": 46,
      "total_episodios": 12,
      "link_video": "https://animefire.plus/video/mashiro-no-oto"
    },
    {
      "id": 2437,
      "nome": "Mashiro-iro Symphony: The Color of Lovers",
      "link": "https://animefire.plus/animes/mashiro-iro-symphony-the-color-of-lovers-todos-os-episodios",
      "texto_original": "Mashiro-iro Symphony: The Color of Lovers",
      "rating": 7.22,
      "classificacao_etaria": "A18",
      "imagem_original": "https://animefire.plus/img/animes/mashiro-iro-symphony-the-color-of-lovers.webp",
      "imagem_pasta": "https://animefire.plus/img/animes/mashiro-iro-symphony-the-color-of-lovers/",
      "secao": "legendados",
      "pagina": 126,
      "total_episodios": 12,
      "link_video": "https://animefire.plus/video/mashiro-iro-symphony-the-color-of-lovers"
    },
    {
      "id": 2438,
      "nome": "Mashle (Dublado)",
      "link": "https://animefire.plus/animes/mashle-dublado-todos-os-episodios",
      "texto_original": "Mashle (Dublado)",
      "rating": 7.62,
      "classificacao_etaria": "A14",
      "imagem_original": "https://animefire.plus/img/animes/mashle.jpg",
      "imagem_pasta": "https://animefire.plus/img/animes/mashle/",
      "secao": "dublados,legendados",
      "pagina": 7,
      "total_episodios": 12,
      "link_video": "https://animefire.plus/video/mashle-dublado"
    },
    {
      "id": 2439,
      "nome": "Mashle 2nd Season",
      "link": "https://animefire.plus/animes/mashle-2nd-season-todos-os-episodios",
      "texto_original": "Mashle 2nd Season",
      "rating": 7.79,
      "classificacao_etaria": "A14",
      "imagem_original": "https://animefire.plus/img/animes/mashle-2nd-season.webp",
      "imagem_pasta": "https://animefire.plus/img/animes/mashle-2nd-season/",
      "secao": "legendados",
      "pagina": 17,
      "total_episodios": 12,
      "link_video": "https://animefire.plus/video/mashle-2nd-season"
    },
    {
      "id": 2440,
      "nome": "Mashle: Shinkakusha Kouho Senbatsu Shiken-hen (Dublado)",
      "link": "https://animefire.plus/animes/mashle-shinkakusha-kouho-senbatsu-shiken-hen-dublado-todos-os-episodios",
      "texto_original": "Mashle: Shinkakusha Kouho Senbatsu Shiken-hen (Dublado)",
      "rating": 7.79,
      "classificacao_etaria": "A14",
      "imagem_original": "https://animefire.plus/img/animes/mashle-shinkakusha-kouho-senbatsu-shiken-hen.webp",
      "imagem_pasta": "https://animefire.plus/img/animes/mashle-shinkakusha-kouho-senbatsu-shiken-hen/",
      "secao": "dublados,lancamentos",
      "pagina": 3,
      "total_episodios": 8,
      "link_video": "https://animefire.plus/video/mashle-shinkakusha-kouho-senbatsu-shiken-hen-dublado"
    },
    {
      "id": 2445,
      "nome": "Master Mosquiton",
      "link": "https://animefire.plus/animes/master-mosquiton-todos-os-episodios",
      "texto_original": "Master Mosquiton",
      "rating": 6.73,
      "classificacao_etaria": "A14",
      "imagem_original": "https://animefire.plus/img/animes/master-mosquiton.webp",
      "imagem_pasta": "https://animefire.plus/img/animes/master-mosquiton/",
      "secao": "legendados",
      "pagina": 84,
      "total_episodios": 6,
      "link_video": "https://animefire.plus/video/master-mosquiton"
    },
    {
      "id": 2448,
      "nome": "Mato Seihei no Slave",
      "link": "https://animefire.plus/animes/mato-seihei-no-slave-todos-os-episodios",
      "texto_original": "Mato Seihei no Slave",
      "rating": 6.85,
      "classificacao_etaria": "A14",
      "imagem_original": "https://animefire.plus/img/animes/mato-seihei-no-slave.webp",
      "imagem_pasta": "https://animefire.plus/img/animes/mato-seihei-no-slave/",
      "secao": "legendados",
      "pagina": 18,
      "total_episodios": 12,
      "link_video": "https://animefire.plus/video/mato-seihei-no-slave"
    },
    {
      "id": 2449,
      "nome": "Mattaku Saikin no Tantei to Kitara",
      "link": "https://animefire.plus/animes/mattaku-saikin-no-tantei-to-kitara-todos-os-episodios",
      "texto_original": "Mattaku Saikin no Tantei to Kitara",
      "rating": 7.13,
      "classificacao_etaria": "A14",
      "imagem_original": "https://animefire.plus/img/animes/mattaku-saikin-no-tantei-to-kitara.webp",
      "imagem_pasta": "https://animefire.plus/img/animes/mattaku-saikin-no-tantei-to-kitara/",
      "secao": "legendados,lancamentos",
      "pagina": 2,
      "total_episodios": 5,
      "link_video": "https://animefire.plus/video/mattaku-saikin-no-tantei-to-kitara"
    },
    {
      "id": 2456,
      "nome": "Mayonaka no Occult Koumuin: Hitoribocchi no Kyuuketsuki",
      "link": "https://animefire.plus/animes/mayonaka-no-occult-koumuin-hitoribocchi-no-kyuuketsuki-todos-os-episodios",
      "texto_original": "Mayonaka no Occult Koumuin: Hitoribocchi no Kyuuketsuki",
      "rating": 7.15,
      "classificacao_etaria": "A14",
      "imagem_original": "https://animefire.plus/img/animes/mayonaka-no-occult-koumuin-hitoribocchi-no-kyuuketsuki.webp",
      "imagem_pasta": "https://animefire.plus/img/animes/mayonaka-no-occult-koumuin-hitoribocchi-no-kyuuketsuki/",
      "secao": "legendados",
      "pagina": 84,
      "total_episodios": 2,
      "link_video": "https://animefire.plus/video/mayonaka-no-occult-koumuin-hitoribocchi-no-kyuuketsuki"
    },
    {
      "id": 2457,
      "nome": "Mayonaka Punch",
      "link": "https://animefire.plus/animes/mayonaka-punch-todos-os-episodios",
      "texto_original": "Mayonaka Punch",
      "rating": 7.35,
      "classificacao_etaria": "A14",
      "imagem_original": "https://animefire.plus/img/animes/mayonaka-punch.webp",
      "imagem_pasta": "https://animefire.plus/img/animes/mayonaka-punch/",
      "secao": "legendados",
      "pagina": 11,
      "total_episodios": 12,
      "link_video": "https://animefire.plus/video/mayonaka-punch"
    },
    {
      "id": 2460,
      "nome": "Mecha-ude (TV)",
      "link": "https://animefire.plus/animes/mecha-ude-tv-todos-os-episodios",
      "texto_original": "Mecha-ude (TV)",
      "rating": 6.8,
      "classificacao_etaria": "A14",
      "imagem_original": "https://animefire.plus/img/animes/mecha-ude-tv.webp",
      "imagem_pasta": "https://animefire.plus/img/animes/mecha-ude-tv/",
      "secao": "legendados",
      "pagina": 10,
      "total_episodios": 12,
      "link_video": "https://animefire.plus/video/mecha-ude-tv"
    },
    {
      "id": 2465,
      "nome": "Megami Kouhosei (Dublado)",
      "link": "https://animefire.plus/animes/megami-kouhosei-dublado-todos-os-episodios",
      "texto_original": "Megami Kouhosei (Dublado)",
      "rating": 6.49,
      "classificacao_etaria": "A14",
      "imagem_original": "https://animefire.plus/img/animes/megami-kouhosei.webp",
      "imagem_pasta": "https://animefire.plus/img/animes/megami-kouhosei/",
      "secao": "dublados,legendados",
      "pagina": 26,
      "total_episodios": 12,
      "link_video": "https://animefire.plus/video/megami-kouhosei-dublado"
    },
    {
      "id": 2466,
      "nome": "Megami no Café Terrace",
      "link": "https://animefire.plus/animes/megami-no-cafe-terrace-todos-os-episodios",
      "texto_original": "Megami no Café Terrace",
      "rating": 7.31,
      "classificacao_etaria": "A14",
      "imagem_original": "https://animefire.plus/img/animes/megami-no-cafe-terrace.jpg",
      "imagem_pasta": "https://animefire.plus/img/animes/megami-no-cafe-terrace/",
      "secao": "legendados",
      "pagina": 23,
      "total_episodios": 12,
      "link_video": "https://animefire.plus/video/megami-no-cafe-terrace"
    },
    {
      "id": 2467,
      "nome": "Megami no Café Terrace 2nd Season",
      "link": "https://animefire.plus/animes/megami-no-cafe-terrace-2nd-season-todos-os-episodios",
      "texto_original": "Megami no Café Terrace 2nd Season",
      "rating": 7.39,
      "classificacao_etaria": "A14",
      "imagem_original": "https://animefire.plus/img/animes/megami-no-cafe-terrace-2nd-season.webp",
      "imagem_pasta": "https://animefire.plus/img/animes/megami-no-cafe-terrace-2nd-season/",
      "secao": "legendados",
      "pagina": 12,
      "total_episodios": 12,
      "link_video": "https://animefire.plus/video/megami-no-cafe-terrace-2nd-season"
    },
    {
      "id": 2468,
      "nome": "Megami Paradise",
      "link": "https://animefire.plus/animes/megami-paradise-todos-os-episodios",
      "texto_original": "Megami Paradise",
      "rating": 5.54,
      "classificacao_etaria": "A18",
      "imagem_original": "https://animefire.plus/img/animes/megami-paradise.webp",
      "imagem_pasta": "https://animefire.plus/img/animes/megami-paradise/",
      "secao": "legendados",
      "pagina": 68,
      "total_episodios": 2,
      "link_video": "https://animefire.plus/video/megami-paradise"
    },
    {
      "id": 2469,
      "nome": "Megami-ryou no Ryoubo-kun.",
      "link": "https://animefire.plus/animes/megami-ryou-no-ryoubo-kun-todos-os-episodios",
      "texto_original": "Megami-ryou no Ryoubo-kun.",
      "rating": 6.49,
      "classificacao_etaria": "A18",
      "imagem_original": "https://animefire.plus/img/animes/megami-ryou-no-ryoubo-kun.webp",
      "imagem_pasta": "https://animefire.plus/img/animes/megami-ryou-no-ryoubo-kun/",
      "secao": "legendados",
      "pagina": 41,
      "total_episodios": 10,
      "link_video": "https://animefire.plus/video/megami-ryou-no-ryoubo-kun"
    },
    {
      "id": 2470,
      "nome": "Meganebu!",
      "link": "https://animefire.plus/animes/meganebu-todos-os-episodios",
      "texto_original": "Meganebu!",
      "rating": 6.35,
      "classificacao_etaria": "A14",
      "imagem_original": "https://animefire.plus/img/animes/meganebu.webp",
      "imagem_pasta": "https://animefire.plus/img/animes/meganebu/",
      "secao": "legendados",
      "pagina": 172,
      "total_episodios": 2,
      "link_video": "https://animefire.plus/video/meganebu"
    },
    {
      "id": 2473,
      "nome": "Meiji Gekken: 1874",
      "link": "https://animefire.plus/animes/meiji-gekken-1874-todos-os-episodios",
      "texto_original": "Meiji Gekken: 1874",
      "rating": 6.32,
      "classificacao_etaria": "A16",
      "imagem_original": "https://animefire.plus/img/animes/meiji-gekken-1874.webp",
      "imagem_pasta": "https://animefire.plus/img/animes/meiji-gekken-1874/",
      "secao": "legendados",
      "pagina": 16,
      "total_episodios": 10,
      "link_video": "https://animefire.plus/video/meiji-gekken-1874"
    }
  ],
  "pagination": {
    "current_page": 62,
    "per_page": 20,
    "total_items": 2189,
    "total_pages": 110,
    "has_next": true,
    "has_prev": true
  }
}
