{
  "message": "Animes com 2 a 12 episódios",
  "episode_range": {
    "min": 2,
    "max": 12
  },
  "data": [
    {
      "id": 2646,
      "nome": "Najica Dengeki Sakusen",
      "link": "https://animefire.plus/animes/najica-dengeki-sakusen-todos-os-episodios",
      "texto_original": "Najica Dengeki Sakusen",
      "rating": 6.05,
      "classificacao_etaria": "A18",
      "imagem_original": "https://animefire.plus/img/animes/najica-dengeki-sakusen.webp",
      "imagem_pasta": "https://animefire.plus/img/animes/najica-dengeki-sakusen/",
      "secao": "legendados",
      "pagina": 154,
      "total_episodios": 12,
      "link_video": "https://animefire.plus/video/najica-dengeki-sakusen"
    },
    {
      "id": 2647,
      "nome": "Nakanohito Genome [Jikkyouchuu]",
      "link": "https://animefire.plus/animes/nakanohito-genome-jikkyouchuu-todos-os-episodios",
      "texto_original": "Nakanohito Genome [Jikkyouchuu]",
      "rating": 6.87,
      "classificacao_etaria": "A14",
      "imagem_original": "https://animefire.plus/img/animes/nakanohito-genome-jikkyouchuu.webp",
      "imagem_pasta": "https://animefire.plus/img/animes/nakanohito-genome-jikkyouchuu/",
      "secao": "legendados",
      "pagina": 157,
      "total_episodios": 2,
      "link_video": "https://animefire.plus/video/nakanohito-genome-jikkyouchuu"
    },
    {
      "id": 2649,
      "nome": "Nami Yo Kiitekure",
      "link": "https://animefire.plus/animes/nami-yo-kiitekure-todos-os-episodios",
      "texto_original": "Nami Yo Kiitekure",
      "rating": 7.37,
      "classificacao_etaria": "A16",
      "imagem_original": "https://animefire.plus/img/animes/nami-yo-kiitekure.webp",
      "imagem_pasta": "https://animefire.plus/img/animes/nami-yo-kiitekure/",
      "secao": "legendados",
      "pagina": 60,
      "total_episodios": 8,
      "link_video": "https://animefire.plus/video/nami-yo-kiitekure"
    },
    {
      "id": 2651,
      "nome": "Nana",
      "link": "https://animefire.plus/animes/nana-todos-os-episodios",
      "texto_original": "Nana",
      "rating": 8.48,
      "classificacao_etaria": "A18",
      "imagem_original": "https://animefire.plus/img/animes/nana.webp",
      "imagem_pasta": "https://animefire.plus/img/animes/nana/",
      "secao": "legendados",
      "pagina": 150,
      "total_episodios": 11,
      "link_video": "https://animefire.plus/video/nana"
    },
    {
      "id": 2652,
      "nome": "Nana Maru San Batsu",
      "link": "https://animefire.plus/animes/nana-maru-san-batsu-todos-os-episodios",
      "texto_original": "Nana Maru San Batsu",
      "rating": 6.79,
      "classificacao_etaria": "A14",
      "imagem_original": "https://animefire.plus/img/animes/nana-maru-san-batsu.webp",
      "imagem_pasta": "https://animefire.plus/img/animes/nana-maru-san-batsu/",
      "secao": "legendados",
      "pagina": 169,
      "total_episodios": 12,
      "link_video": "https://animefire.plus/video/nana-maru-san-batsu"
    },
    {
      "id": 2653,
      "nome": "Nana Toshi Monogatari: Hokkyokukai Sensen",
      "link": "https://animefire.plus/animes/nana-toshi-monogatari-hokkyokukai-sensen-todos-os-episodios",
      "texto_original": "Nana Toshi Monogatari: Hokkyokukai Sensen",
      "rating": 6.3,
      "classificacao_etaria": "A14",
      "imagem_original": "https://animefire.plus/img/animes/nana-toshi-monogatari-hokkyokukai-sensen.webp",
      "imagem_pasta": "https://animefire.plus/img/animes/nana-toshi-monogatari-hokkyokukai-sensen/",
      "secao": "legendados",
      "pagina": 72,
      "total_episodios": 2,
      "link_video": "https://animefire.plus/video/nana-toshi-monogatari-hokkyokukai-sensen"
    },
    {
      "id": 2654,
      "nome": "Nanaka 6/17",
      "link": "https://animefire.plus/animes/nanaka-6-17-todos-os-episodios",
      "texto_original": "Nanaka 6/17",
      "rating": 6.7,
      "classificacao_etaria": "A14",
      "imagem_original": "https://animefire.plus/img/animes/nanaka-6-17.webp",
      "imagem_pasta": "https://animefire.plus/img/animes/nanaka-6-17/",
      "secao": "legendados",
      "pagina": 141,
      "total_episodios": 12,
      "link_video": "https://animefire.plus/video/nanaka-6-17"
    },
    {
      "id": 2655,
      "nome": "Nanatsu no Bitoku",
      "link": "https://animefire.plus/animes/nanatsu-no-bitoku-todos-os-episodios",
      "texto_original": "Nanatsu no Bitoku",
      "rating": 5.27,
      "classificacao_etaria": "A18",
      "imagem_original": "https://animefire.plus/img/animes/nanatsu-no-bitoku.webp",
      "imagem_pasta": "https://animefire.plus/img/animes/nanatsu-no-bitoku/",
      "secao": "legendados",
      "pagina": 146,
      "total_episodios": 7,
      "link_video": "https://animefire.plus/video/nanatsu-no-bitoku"
    },
    {
      "id": 2656,
      "nome": "Nanatsu no Bitoku Specials",
      "link": "https://animefire.plus/animes/nanatsu-no-bitoku-specials-todos-os-episodios",
      "texto_original": "Nanatsu no Bitoku Specials",
      "rating": 5.52,
      "classificacao_etaria": "A18",
      "imagem_original": "https://animefire.plus/img/animes/nanatsu-no-bitoku-specials.webp",
      "imagem_pasta": "https://animefire.plus/img/animes/nanatsu-no-bitoku-specials/",
      "secao": "legendados",
      "pagina": 84,
      "total_episodios": 2,
      "link_video": "https://animefire.plus/video/nanatsu-no-bitoku-specials"
    },
    {
      "id": 2659,
      "nome": "Nanatsu no Taizai Movie: Tenkuu no Torawarebito",
      "link": "https://animefire.plus/animes/nanatsu-no-taizai-movie-tenkuu-no-torawarebito-todos-os-episodios",
      "texto_original": "Nanatsu no Taizai Movie: Tenkuu no Torawarebito",
      "rating": 7.66,
      "classificacao_etaria": "A14",
      "imagem_original": "https://animefire.plus/img/animes/nanatsu-no-taizai-movie-tenkuu-no-torawarebito.webp",
      "imagem_pasta": "https://animefire.plus/img/animes/nanatsu-no-taizai-movie-tenkuu-no-torawarebito/",
      "secao": "legendados",
      "pagina": 106,
      "total_episodios": 3,
      "link_video": "https://animefire.plus/video/nanatsu-no-taizai-movie-tenkuu-no-torawarebito"
    },
    {
      "id": 2660,
      "nome": "Nanatsu no Taizai OVA",
      "link": "https://animefire.plus/animes/nanatsu-no-taizai-ova-todos-os-episodios",
      "texto_original": "Nanatsu no Taizai OVA",
      "rating": 7.57,
      "classificacao_etaria": "A14",
      "imagem_original": "https://animefire.plus/img/animes/nanatsu-no-taizai-ova.webp",
      "imagem_pasta": "https://animefire.plus/img/animes/nanatsu-no-taizai-ova/",
      "secao": "legendados",
      "pagina": 43,
      "total_episodios": 2,
      "link_video": "https://animefire.plus/video/nanatsu-no-taizai-ova"
    },
    {
      "id": 2669,
      "nome": "Nanatsu no Taizai: Seisen no Shirushi",
      "link": "https://animefire.plus/animes/nanatsu-no-taizai-seisen-no-shirushi-todos-os-episodios",
      "texto_original": "Nanatsu no Taizai: Seisen no Shirushi",
      "rating": 7.39,
      "classificacao_etaria": "A14",
      "imagem_original": "https://animefire.plus/img/animes/nanatsu-no-taizai-seisen-no-shirushi.webp",
      "imagem_pasta": "https://animefire.plus/img/animes/nanatsu-no-taizai-seisen-no-shirushi/",
      "secao": "legendados",
      "pagina": 161,
      "total_episodios": 4,
      "link_video": "https://animefire.plus/video/nanatsu-no-taizai-seisen-no-shirushi"
    },
    {
      "id": 2671,
      "nome": "Nanbaka 2",
      "link": "https://animefire.plus/animes/nanbaka-2-todos-os-episodios",
      "texto_original": "Nanbaka 2",
      "rating": 7.61,
      "classificacao_etaria": "A14",
      "imagem_original": "https://animefire.plus/img/animes/nanbaka-2.webp",
      "imagem_pasta": "https://animefire.plus/img/animes/nanbaka-2/",
      "secao": "legendados",
      "pagina": 104,
      "total_episodios": 12,
      "link_video": "https://animefire.plus/video/nanbaka-2"
    },
    {
      "id": 2674,
      "nome": "Nanocore",
      "link": "https://animefire.plus/animes/nanocore-todos-os-episodios",
      "texto_original": "Nanocore",
      "rating": 6.31,
      "classificacao_etaria": "A14",
      "imagem_original": "https://animefire.plus/img/animes/nanocore.webp",
      "imagem_pasta": "https://animefire.plus/img/animes/nanocore/",
      "secao": "legendados",
      "pagina": 172,
      "total_episodios": 10,
      "link_video": "https://animefire.plus/video/nanocore"
    },
    {
      "id": 2675,
      "nome": "Nanocore 2nd Season",
      "link": "https://animefire.plus/animes/nanocore-2nd-season-todos-os-episodios",
      "texto_original": "Nanocore 2nd Season",
      "rating": 6.65,
      "classificacao_etaria": "A14",
      "imagem_original": "https://animefire.plus/img/animes/nanocore-2nd-season.webp",
      "imagem_pasta": "https://animefire.plus/img/animes/nanocore-2nd-season/",
      "secao": "legendados",
      "pagina": 175,
      "total_episodios": 10,
      "link_video": "https://animefire.plus/video/nanocore-2nd-season"
    },
    {
      "id": 2676,
      "nome": "Narue no Sekai",
      "link": "https://animefire.plus/animes/narue-no-sekai-todos-os-episodios",
      "texto_original": "Narue no Sekai",
      "rating": 6.64,
      "classificacao_etaria": "A14",
      "imagem_original": "https://animefire.plus/img/animes/narue-no-sekai.webp",
      "imagem_pasta": "https://animefire.plus/img/animes/narue-no-sekai/",
      "secao": "legendados",
      "pagina": 164,
      "total_episodios": 12,
      "link_video": "https://animefire.plus/video/narue-no-sekai"
    },
    {
      "id": 2686,
      "nome": "Natsume Yuujinchou Go",
      "link": "https://animefire.plus/animes/natsume-yuujinchou-go-todos-os-episodios",
      "texto_original": "Natsume Yuujinchou Go",
      "rating": 8.62,
      "classificacao_etaria": "A14",
      "imagem_original": "https://animefire.plus/img/animes/natsume-yuujinchou-go.webp",
      "imagem_pasta": "https://animefire.plus/img/animes/natsume-yuujinchou-go/",
      "secao": "legendados",
      "pagina": 148,
      "total_episodios": 11,
      "link_video": "https://animefire.plus/video/natsume-yuujinchou-go"
    },
    {
      "id": 2687,
      "nome": "Natsume Yuujinchou Go Specials",
      "link": "https://animefire.plus/animes/natsume-yuujinchou-go-specials-todos-os-episodios",
      "texto_original": "Natsume Yuujinchou Go Specials",
      "rating": 8.34,
      "classificacao_etaria": "A14",
      "imagem_original": "https://animefire.plus/img/animes/natsume-yuujinchou-go-specials.webp",
      "imagem_pasta": "https://animefire.plus/img/animes/natsume-yuujinchou-go-specials/",
      "secao": "legendados",
      "pagina": 84,
      "total_episodios": 2,
      "link_video": "https://animefire.plus/video/natsume-yuujinchou-go-specials"
    },
    {
      "id": 2688,
      "nome": "Natsume Yuujinchou Roku",
      "link": "https://animefire.plus/animes/natsume-yuujinchou-roku-todos-os-episodios",
      "texto_original": "Natsume Yuujinchou Roku",
      "rating": 8.7,
      "classificacao_etaria": "A14",
      "imagem_original": "https://animefire.plus/img/animes/natsume-yuujinchou-roku.webp",
      "imagem_pasta": "https://animefire.plus/img/animes/natsume-yuujinchou-roku/",
      "secao": "legendados",
      "pagina": 156,
      "total_episodios": 11,
      "link_video": "https://animefire.plus/video/natsume-yuujinchou-roku"
    },
    {
      "id": 2689,
      "nome": "Natsume Yuujinchou Roku Specials",
      "link": "https://animefire.plus/animes/natsume-yuujinchou-roku-specials-todos-os-episodios",
      "texto_original": "Natsume Yuujinchou Roku Specials",
      "rating": 8.42,
      "classificacao_etaria": "A14",
      "imagem_original": "https://animefire.plus/img/animes/natsume-yuujinchou-roku-specials.webp",
      "imagem_pasta": "https://animefire.plus/img/animes/natsume-yuujinchou-roku-specials/",
      "secao": "legendados",
      "pagina": 84,
      "total_episodios": 2,
      "link_video": "https://animefire.plus/video/natsume-yuujinchou-roku-specials"
    }
  ],
  "pagination": {
    "current_page": 67,
    "per_page": 20,
    "total_items": 2189,
    "total_pages": 110,
    "has_next": true,
    "has_prev": true
  }
}
