{
  "message": "Animes com 2 a 12 episódios",
  "episode_range": {
    "min": 2,
    "max": 12
  },
  "data": [
    {
      "id": 1735,
      "nome": "Jinrui wa Suitai Shimashita",
      "link": "https://animefire.plus/animes/jinrui-wa-suitai-shimashita-todos-os-episodios",
      "texto_original": "Jinrui wa Suitai Shimashita",
      "rating": 7.84,
      "classificacao_etaria": "A14",
      "imagem_original": "https://animefire.plus/img/animes/jinrui-wa-suitai-shimashita.webp",
      "imagem_pasta": "https://animefire.plus/img/animes/jinrui-wa-suitai-shimashita/",
      "secao": "legendados",
      "pagina": 175,
      "total_episodios": 8,
      "link_video": "https://animefire.plus/video/jinrui-wa-suitai-shimashita"
    },
    {
      "id": 1736,
      "nome": "Jinsei",
      "link": "https://animefire.plus/animes/jinsei-todos-os-episodios",
      "texto_original": "Jinsei",
      "rating": 6.54,
      "classificacao_etaria": "A14",
      "imagem_original": "https://animefire.plus/img/animes/jinsei.webp",
      "imagem_pasta": "https://animefire.plus/img/animes/jinsei/",
      "secao": "legendados",
      "pagina": 153,
      "total_episodios": 4,
      "link_video": "https://animefire.plus/video/jinsei"
    },
    {
      "id": 1737,
      "nome": "Jitsu wa Ore, Saikyou deshita?",
      "link": "https://animefire.plus/animes/jitsu-wa-ore-saikyou-deshita-todos-os-episodios",
      "texto_original": "Jitsu wa Ore, Saikyou deshita?",
      "rating": 6.48,
      "classificacao_etaria": "A14",
      "imagem_original": "https://animefire.plus/img/animes/jitsu-wa-ore-saikyou-deshita.jpg",
      "imagem_pasta": "https://animefire.plus/img/animes/jitsu-wa-ore-saikyou-deshita/",
      "secao": "legendados",
      "pagina": 23,
      "total_episodios": 12,
      "link_video": "https://animefire.plus/video/jitsu-wa-ore-saikyou-deshita"
    },
    {
      "id": 1746,
      "nome": "Joker Game (Dublado)",
      "link": "https://animefire.plus/animes/joker-game-dublado-todos-os-episodios",
      "texto_original": "Joker Game (Dublado)",
      "rating": 7.08,
      "classificacao_etaria": "A16",
      "imagem_original": "https://animefire.plus/img/animes/joker-game.webp",
      "imagem_pasta": "https://animefire.plus/img/animes/joker-game/",
      "secao": "dublados,legendados",
      "pagina": 24,
      "total_episodios": 12,
      "link_video": "https://animefire.plus/video/joker-game-dublado"
    },
    {
      "id": 1747,
      "nome": "Jormungand",
      "link": "https://animefire.plus/animes/jormungand-todos-os-episodios",
      "texto_original": "Jormungand",
      "rating": 7.91,
      "classificacao_etaria": "A18",
      "imagem_original": "https://animefire.plus/img/animes/jormungand.webp",
      "imagem_pasta": "https://animefire.plus/img/animes/jormungand/",
      "secao": "legendados",
      "pagina": 143,
      "total_episodios": 7,
      "link_video": "https://animefire.plus/video/jormungand"
    },
    {
      "id": 1750,
      "nome": "Joshikousei no Mudazukai",
      "link": "https://animefire.plus/animes/joshikousei-no-mudazukai-todos-os-episodios",
      "texto_original": "Joshikousei no Mudazukai",
      "rating": 7.71,
      "classificacao_etaria": "A14",
      "imagem_original": "https://animefire.plus/img/animes/joshikousei-no-mudazukai.webp",
      "imagem_pasta": "https://animefire.plus/img/animes/joshikousei-no-mudazukai/",
      "secao": "legendados",
      "pagina": 112,
      "total_episodios": 5,
      "link_video": "https://animefire.plus/video/joshikousei-no-mudazukai"
    },
    {
      "id": 1751,
      "nome": "Joshiraku",
      "link": "https://animefire.plus/animes/joshiraku-todos-os-episodios",
      "texto_original": "Joshiraku",
      "rating": 7.52,
      "classificacao_etaria": "A14",
      "imagem_original": "https://animefire.plus/img/animes/joshiraku.webp",
      "imagem_pasta": "https://animefire.plus/img/animes/joshiraku/",
      "secao": "legendados",
      "pagina": 149,
      "total_episodios": 4,
      "link_video": "https://animefire.plus/video/joshiraku"
    },
    {
      "id": 1753,
      "nome": "Jouran: The Princess of Snow and Blood",
      "link": "https://animefire.plus/animes/jouran-the-princess-of-snow-and-blood-todos-os-episodios",
      "texto_original": "Jouran: The Princess of Snow and Blood",
      "rating": 6.11,
      "classificacao_etaria": "A16",
      "imagem_original": "https://animefire.plus/img/animes/jouran-the-princess-of-snow-and-blood.webp",
      "imagem_pasta": "https://animefire.plus/img/animes/jouran-the-princess-of-snow-and-blood/",
      "secao": "legendados",
      "pagina": 47,
      "total_episodios": 12,
      "link_video": "https://animefire.plus/video/jouran-the-princess-of-snow-and-blood"
    },
    {
      "id": 1755,
      "nome": "Jujutsu Kaisen (TV) (Dublado)",
      "link": "https://animefire.plus/animes/jujutsu-kaisen-tv-dublado-todos-os-episodios",
      "texto_original": "Jujutsu Kaisen (TV) (Dublado)",
      "rating": 8.39,
      "classificacao_etaria": "A16",
      "imagem_original": "https://animefire.plus/img/animes/jujutsu-kaisen-tv.webp",
      "imagem_pasta": "https://animefire.plus/img/animes/jujutsu-kaisen-tv/",
      "secao": "dublados,legendados",
      "pagina": 19,
      "total_episodios": 11,
      "link_video": "https://animefire.plus/video/jujutsu-kaisen-tv-dublado"
    },
    {
      "id": 1757,
      "nome": "Jungle de Ikou!",
      "link": "https://animefire.plus/animes/jungle-de-ikou-todos-os-episodios",
      "texto_original": "Jungle de Ikou!",
      "rating": 5.51,
      "classificacao_etaria": "A14",
      "imagem_original": "https://animefire.plus/img/animes/jungle-de-ikou.webp",
      "imagem_pasta": "https://animefire.plus/img/animes/jungle-de-ikou/",
      "secao": "legendados",
      "pagina": 137,
      "total_episodios": 3,
      "link_video": "https://animefire.plus/video/jungle-de-ikou"
    },
    {
      "id": 1758,
      "nome": "Junjou Romantica",
      "link": "https://animefire.plus/animes/junjou-romantica-todos-os-episodios",
      "texto_original": "Junjou Romantica",
      "rating": 7.92,
      "classificacao_etaria": "A14",
      "imagem_original": "https://animefire.plus/img/animes/junjou-romantica.webp",
      "imagem_pasta": "https://animefire.plus/img/animes/junjou-romantica/",
      "secao": "legendados",
      "pagina": 139,
      "total_episodios": 12,
      "link_video": "https://animefire.plus/video/junjou-romantica"
    },
    {
      "id": 1759,
      "nome": "Junjou Romantica 2",
      "link": "https://animefire.plus/animes/junjou-romantica-2-todos-os-episodios",
      "texto_original": "Junjou Romantica 2",
      "rating": 8.09,
      "classificacao_etaria": "A14",
      "imagem_original": "https://animefire.plus/img/animes/junjou-romantica-2.webp",
      "imagem_pasta": "https://animefire.plus/img/animes/junjou-romantica-2/",
      "secao": "legendados",
      "pagina": 125,
      "total_episodios": 12,
      "link_video": "https://animefire.plus/video/junjou-romantica-2"
    },
    {
      "id": 1761,
      "nome": "Junketsu no Maria",
      "link": "https://animefire.plus/animes/junketsu-no-maria-todos-os-episodios",
      "texto_original": "Junketsu no Maria",
      "rating": 7.21,
      "classificacao_etaria": "A16",
      "imagem_original": "https://animefire.plus/img/animes/junketsu-no-maria.webp",
      "imagem_pasta": "https://animefire.plus/img/animes/junketsu-no-maria/",
      "secao": "legendados",
      "pagina": 138,
      "total_episodios": 2,
      "link_video": "https://animefire.plus/video/junketsu-no-maria"
    },
    {
      "id": 1762,
      "nome": "Just Because!",
      "link": "https://animefire.plus/animes/just-because-todos-os-episodios",
      "texto_original": "Just Because!",
      "rating": 7.37,
      "classificacao_etaria": "A14",
      "imagem_original": "https://animefire.plus/img/animes/just-because.webp",
      "imagem_pasta": "https://animefire.plus/img/animes/just-because/",
      "secao": "legendados",
      "pagina": 148,
      "total_episodios": 12,
      "link_video": "https://animefire.plus/video/just-because"
    },
    {
      "id": 1765,
      "nome": "Juubee-chan: Lovely Gantai no Himitsu",
      "link": "https://animefire.plus/animes/juubee-chan-lovely-gantai-no-himitsu-todos-os-episodios",
      "texto_original": "Juubee-chan: Lovely Gantai no Himitsu",
      "rating": 6.71,
      "classificacao_etaria": "A14",
      "imagem_original": "https://animefire.plus/img/animes/juubee-chan-lovely-gantai-no-himitsu.webp",
      "imagem_pasta": "https://animefire.plus/img/animes/juubee-chan-lovely-gantai-no-himitsu/",
      "secao": "legendados",
      "pagina": 143,
      "total_episodios": 12,
      "link_video": "https://animefire.plus/video/juubee-chan-lovely-gantai-no-himitsu"
    },
    {
      "id": 1767,
      "nome": "Juuni Taisen",
      "link": "https://animefire.plus/animes/juuni-taisen-todos-os-episodios",
      "texto_original": "Juuni Taisen",
      "rating": 6.64,
      "classificacao_etaria": "A16",
      "imagem_original": "https://animefire.plus/img/animes/juuni-taisen.webp",
      "imagem_pasta": "https://animefire.plus/img/animes/juuni-taisen/",
      "secao": "legendados",
      "pagina": 137,
      "total_episodios": 12,
      "link_video": "https://animefire.plus/video/juuni-taisen"
    },
    {
      "id": 1772,
      "nome": "Juusou Kikou Dancougar Nova",
      "link": "https://animefire.plus/animes/juusou-kikou-dancougar-nova-todos-os-episodios",
      "texto_original": "Juusou Kikou Dancougar Nova",
      "rating": 6,
      "classificacao_etaria": "A18",
      "imagem_original": "https://animefire.plus/img/animes/juusou-kikou-dancougar-nova.webp",
      "imagem_pasta": "https://animefire.plus/img/animes/juusou-kikou-dancougar-nova/",
      "secao": "legendados",
      "pagina": 78,
      "total_episodios": 12,
      "link_video": "https://animefire.plus/video/juusou-kikou-dancougar-nova"
    },
    {
      "id": 1773,
      "nome": "Jyu Oh Sei",
      "link": "https://animefire.plus/animes/jyu-oh-sei-todos-os-episodios",
      "texto_original": "Jyu Oh Sei",
      "rating": 7.32,
      "classificacao_etaria": "A16",
      "imagem_original": "https://animefire.plus/img/animes/jyu-oh-sei.webp",
      "imagem_pasta": "https://animefire.plus/img/animes/jyu-oh-sei/",
      "secao": "legendados",
      "pagina": 147,
      "total_episodios": 11,
      "link_video": "https://animefire.plus/video/jyu-oh-sei"
    },
    {
      "id": 1775,
      "nome": "K-On!: Ura-On!",
      "link": "https://animefire.plus/animes/k-on-ura-on-todos-os-episodios",
      "texto_original": "K-On!: Ura-On!",
      "rating": 6.34,
      "classificacao_etaria": "A14",
      "imagem_original": "https://animefire.plus/img/animes/k-on-ura-on.webp",
      "imagem_pasta": "https://animefire.plus/img/animes/k-on-ura-on/",
      "secao": "legendados",
      "pagina": 66,
      "total_episodios": 2,
      "link_video": "https://animefire.plus/video/k-on-ura-on"
    },
    {
      "id": 1779,
      "nome": "Kabushikigaisha Magi-Lumière",
      "link": "https://animefire.plus/animes/kabushikigaisha-magi-lumiere-todos-os-episodios",
      "texto_original": "Kabushikigaisha Magi-Lumière",
      "rating": 6.96,
      "classificacao_etaria": "A14",
      "imagem_original": "https://animefire.plus/img/animes/kabushikigaisha-magi-lumiere.webp",
      "imagem_pasta": "https://animefire.plus/img/animes/kabushikigaisha-magi-lumiere/",
      "secao": "legendados",
      "pagina": 10,
      "total_episodios": 12,
      "link_video": "https://animefire.plus/video/kabushikigaisha-magi-lumiere"
    }
  ],
  "pagination": {
    "current_page": 44,
    "per_page": 20,
    "total_items": 2189,
    "total_pages": 110,
    "has_next": true,
    "has_prev": true
  }
}
