{
  "message": "Animes com 2 a 12 episódios",
  "episode_range": {
    "min": 2,
    "max": 12
  },
  "data": [
    {
      "id": 4069,
      "nome": "Vanitas no Karte 2nd Season",
      "link": "https://animefire.plus/animes/vanitas-no-karte-2nd-season-todos-os-episodios",
      "texto_original": "Vanitas no Karte 2nd Season",
      "rating": 8.19,
      "classificacao_etaria": "A16",
      "imagem_original": "https://animefire.plus/img/animes/vanitas-no-karte-2nd-season.webp",
      "imagem_pasta": "https://animefire.plus/img/animes/vanitas-no-karte-2nd-season/",
      "secao": "legendados",
      "pagina": 36,
      "total_episodios": 12,
      "link_video": "https://animefire.plus/video/vanitas-no-karte-2nd-season"
    },
    {
      "id": 4071,
      "nome": "Vanquished Queens",
      "link": "https://animefire.plus/animes/vanquished-queens-todos-os-episodios",
      "texto_original": "Vanquished Queens",
      "rating": 6.1,
      "classificacao_etaria": "A18",
      "imagem_original": "https://animefire.plus/img/animes/vanquished-queens.webp",
      "imagem_pasta": "https://animefire.plus/img/animes/vanquished-queens/",
      "secao": "legendados",
      "pagina": 76,
      "total_episodios": 4,
      "link_video": "https://animefire.plus/video/vanquished-queens"
    },
    {
      "id": 4072,
      "nome": "Variable Geo",
      "link": "https://animefire.plus/animes/variable-geo-todos-os-episodios",
      "texto_original": "Variable Geo",
      "rating": 5.69,
      "classificacao_etaria": "A18",
      "imagem_original": "https://animefire.plus/img/animes/variable-geo.webp",
      "imagem_pasta": "https://animefire.plus/img/animes/variable-geo/",
      "secao": "legendados",
      "pagina": 138,
      "total_episodios": 3,
      "link_video": "https://animefire.plus/video/variable-geo"
    },
    {
      "id": 4073,
      "nome": "Vatican Kiseki Chousakan",
      "link": "https://animefire.plus/animes/vatican-kiseki-chousakan-todos-os-episodios",
      "texto_original": "Vatican Kiseki Chousakan",
      "rating": 6.43,
      "classificacao_etaria": "A16",
      "imagem_original": "https://animefire.plus/img/animes/vatican-kiseki-chousakan.webp",
      "imagem_pasta": "https://animefire.plus/img/animes/vatican-kiseki-chousakan/",
      "secao": "legendados",
      "pagina": 167,
      "total_episodios": 12,
      "link_video": "https://animefire.plus/video/vatican-kiseki-chousakan"
    },
    {
      "id": 4075,
      "nome": "Venus Project: Climax",
      "link": "https://animefire.plus/animes/venus-project-climax-todos-os-episodios",
      "texto_original": "Venus Project: Climax",
      "rating": 5.41,
      "classificacao_etaria": "A14",
      "imagem_original": "https://animefire.plus/img/animes/venus-project-climax.webp",
      "imagem_pasta": "https://animefire.plus/img/animes/venus-project-climax/",
      "secao": "legendados",
      "pagina": 98,
      "total_episodios": 6,
      "link_video": "https://animefire.plus/video/venus-project-climax"
    },
    {
      "id": 4076,
      "nome": "Venus Versus Virus",
      "link": "https://animefire.plus/animes/venus-versus-virus-todos-os-episodios",
      "texto_original": "Venus Versus Virus",
      "rating": 6.47,
      "classificacao_etaria": "A14",
      "imagem_original": "https://animefire.plus/img/animes/venus-versus-virus.webp",
      "imagem_pasta": "https://animefire.plus/img/animes/venus-versus-virus/",
      "secao": "legendados",
      "pagina": 164,
      "total_episodios": 12,
      "link_video": "https://animefire.plus/video/venus-versus-virus"
    },
    {
      "id": 4077,
      "nome": "Video Girl Ai",
      "link": "https://animefire.plus/animes/video-girl-ai-todos-os-episodios",
      "texto_original": "Video Girl Ai",
      "rating": 7.23,
      "classificacao_etaria": "A18",
      "imagem_original": "https://animefire.plus/img/animes/video-girl-ai.webp",
      "imagem_pasta": "https://animefire.plus/img/animes/video-girl-ai/",
      "secao": "legendados",
      "pagina": 77,
      "total_episodios": 6,
      "link_video": "https://animefire.plus/video/video-girl-ai"
    },
    {
      "id": 4083,
      "nome": "Viper's Creed",
      "link": "https://animefire.plus/animes/viper-s-creed-todos-os-episodios",
      "texto_original": "Viper's Creed",
      "rating": 6.8,
      "classificacao_etaria": "A14",
      "imagem_original": "https://animefire.plus/img/animes/viper-s-creed.webp",
      "imagem_pasta": "https://animefire.plus/img/animes/viper-s-creed/",
      "secao": "legendados",
      "pagina": 147,
      "total_episodios": 12,
      "link_video": "https://animefire.plus/video/viper-s-creed"
    },
    {
      "id": 4084,
      "nome": "Virtual-san wa Miteiru",
      "link": "https://animefire.plus/animes/virtual-san-wa-miteiru-todos-os-episodios",
      "texto_original": "Virtual-san wa Miteiru",
      "rating": 5.42,
      "classificacao_etaria": "A14",
      "imagem_original": "https://animefire.plus/img/animes/virtual-san-wa-miteiru.webp",
      "imagem_pasta": "https://animefire.plus/img/animes/virtual-san-wa-miteiru/",
      "secao": "legendados",
      "pagina": 97,
      "total_episodios": 12,
      "link_video": "https://animefire.plus/video/virtual-san-wa-miteiru"
    },
    {
      "id": 4085,
      "nome": "Visual Prison",
      "link": "https://animefire.plus/animes/visual-prison-todos-os-episodios",
      "texto_original": "Visual Prison",
      "rating": 6.72,
      "classificacao_etaria": "A14",
      "imagem_original": "https://animefire.plus/img/animes/visual-prison.webp",
      "imagem_pasta": "https://animefire.plus/img/animes/visual-prison/",
      "secao": "legendados",
      "pagina": 39,
      "total_episodios": 12,
      "link_video": "https://animefire.plus/video/visual-prison"
    },
    {
      "id": 4086,
      "nome": "ViVid Strike!",
      "link": "https://animefire.plus/animes/vivid-strike-todos-os-episodios",
      "texto_original": "ViVid Strike!",
      "rating": 7.22,
      "classificacao_etaria": "A14",
      "imagem_original": "https://animefire.plus/img/animes/vivid-strike.webp",
      "imagem_pasta": "https://animefire.plus/img/animes/vivid-strike/",
      "secao": "legendados",
      "pagina": 142,
      "total_episodios": 5,
      "link_video": "https://animefire.plus/video/vivid-strike"
    },
    {
      "id": 4089,
      "nome": "Vlad Love",
      "link": "https://animefire.plus/animes/vlad-love-todos-os-episodios",
      "texto_original": "Vlad Love",
      "rating": null,
      "classificacao_etaria": "A14",
      "imagem_original": "https://animefire.plus/img/animes/vlad-love.webp",
      "imagem_pasta": "https://animefire.plus/img/animes/vlad-love/",
      "secao": "legendados",
      "pagina": 49,
      "total_episodios": 12,
      "link_video": "https://animefire.plus/video/vlad-love"
    },
    {
      "id": 4090,
      "nome": "VTuber Nandaga Haishin Kiri Wasuretara Densetsu ni Natteta",
      "link": "https://animefire.plus/animes/vtuber-nandaga-haishin-kiri-wasuretara-densetsu-ni-natteta-todos-os-episodios",
      "texto_original": "VTuber Nandaga Haishin Kiri Wasuretara Densetsu ni Natteta",
      "rating": 7.03,
      "classificacao_etaria": "A14",
      "imagem_original": "https://animefire.plus/img/animes/vtuber-nandaga-haishin-kiri-wasuretara-densetsu-ni-natteta.webp",
      "imagem_pasta": "https://animefire.plus/img/animes/vtuber-nandaga-haishin-kiri-wasuretara-densetsu-ni-natteta/",
      "secao": "legendados",
      "pagina": 11,
      "total_episodios": 12,
      "link_video": "https://animefire.plus/video/vtuber-nandaga-haishin-kiri-wasuretara-densetsu-ni-natteta"
    },
    {
      "id": 4092,
      "nome": "Waccha PriMagi!",
      "link": "https://animefire.plus/animes/waccha-primagi-todos-os-episodios",
      "texto_original": "Waccha PriMagi!",
      "rating": 7.04,
      "classificacao_etaria": null,
      "imagem_original": "https://animefire.plus/img/animes/waccha-primagi.webp",
      "imagem_pasta": "https://animefire.plus/img/animes/waccha-primagi/",
      "secao": "legendados,lancamentos",
      "pagina": 38,
      "total_episodios": 12,
      "link_video": "https://animefire.plus/video/waccha-primagi"
    },
    {
      "id": 4093,
      "nome": "Wagamama High Spec",
      "link": "https://animefire.plus/animes/wagamama-high-spec-todos-os-episodios",
      "texto_original": "Wagamama High Spec",
      "rating": 5.45,
      "classificacao_etaria": "A14",
      "imagem_original": "https://animefire.plus/img/animes/wagamama-high-spec.webp",
      "imagem_pasta": "https://animefire.plus/img/animes/wagamama-high-spec/",
      "secao": "legendados",
      "pagina": 115,
      "total_episodios": 9,
      "link_video": "https://animefire.plus/video/wagamama-high-spec"
    },
    {
      "id": 4096,
      "nome": "Wakako-zake",
      "link": "https://animefire.plus/animes/wakako-zake-todos-os-episodios",
      "texto_original": "Wakako-zake",
      "rating": 6.69,
      "classificacao_etaria": "A14",
      "imagem_original": "https://animefire.plus/img/animes/wakako-zake.webp",
      "imagem_pasta": "https://animefire.plus/img/animes/wakako-zake/",
      "secao": "legendados",
      "pagina": 103,
      "total_episodios": 12,
      "link_video": "https://animefire.plus/video/wakako-zake"
    },
    {
      "id": 4097,
      "nome": "Wake Up, Girls!",
      "link": "https://animefire.plus/animes/wake-up-girls-todos-os-episodios",
      "texto_original": "Wake Up, Girls!",
      "rating": 7.01,
      "classificacao_etaria": "A14",
      "imagem_original": "https://animefire.plus/img/animes/wake-up-girls.webp",
      "imagem_pasta": "https://animefire.plus/img/animes/wake-up-girls/",
      "secao": "legendados",
      "pagina": 75,
      "total_episodios": 12,
      "link_video": "https://animefire.plus/video/wake-up-girls"
    },
    {
      "id": 4098,
      "nome": "Wake Up, Girls! Shin Shou",
      "link": "https://animefire.plus/animes/wake-up-girls-shin-shou-todos-os-episodios",
      "texto_original": "Wake Up, Girls! Shin Shou",
      "rating": 6.5,
      "classificacao_etaria": "A14",
      "imagem_original": "https://animefire.plus/img/animes/wake-up-girls-shin-shou.webp",
      "imagem_pasta": "https://animefire.plus/img/animes/wake-up-girls-shin-shou/",
      "secao": "legendados",
      "pagina": 75,
      "total_episodios": 12,
      "link_video": "https://animefire.plus/video/wake-up-girls-shin-shou"
    },
    {
      "id": 4099,
      "nome": "Walkure Romanze",
      "link": "https://animefire.plus/animes/walkure-romanze-todos-os-episodios",
      "texto_original": "Walkure Romanze",
      "rating": 6.49,
      "classificacao_etaria": "A18",
      "imagem_original": "https://animefire.plus/img/animes/walkure-romanze.webp",
      "imagem_pasta": "https://animefire.plus/img/animes/walkure-romanze/",
      "secao": "legendados",
      "pagina": 144,
      "total_episodios": 5,
      "link_video": "https://animefire.plus/video/walkure-romanze"
    },
    {
      "id": 4107,
      "nome": "Wangu Xian Qiong",
      "link": "https://animefire.plus/animes/wangu-xian-qiong-todos-os-episodios",
      "texto_original": "Wangu Xian Qiong",
      "rating": 7.04,
      "classificacao_etaria": "A14",
      "imagem_original": "https://animefire.plus/img/animes/wangu-xian-qiong.webp",
      "imagem_pasta": "https://animefire.plus/img/animes/wangu-xian-qiong/",
      "secao": "legendados",
      "pagina": 83,
      "total_episodios": 12,
      "link_video": "https://animefire.plus/video/wangu-xian-qiong"
    }
  ],
  "pagination": {
    "current_page": 103,
    "per_page": 20,
    "total_items": 2189,
    "total_pages": 110,
    "has_next": true,
    "has_prev": true
  }
}
