{
  "message": "Animes com 2 a 12 episódios",
  "episode_range": {
    "min": 2,
    "max": 12
  },
  "data": [
    {
      "id": 3607,
      "nome": "Space☆Dandy 2nd Season",
      "link": "https://animefire.plus/animes/space-dandy-2nd-season-todos-os-episodios",
      "texto_original": "Space☆Dandy 2nd Season",
      "rating": 8.26,
      "classificacao_etaria": "A14",
      "imagem_original": "https://animefire.plus/img/animes/space-dandy-2nd-season.webp",
      "imagem_pasta": "https://animefire.plus/img/animes/space-dandy-2nd-season/",
      "secao": "legendados",
      "pagina": 150,
      "total_episodios": 4,
      "link_video": "https://animefire.plus/video/space-dandy-2nd-season"
    },
    {
      "id": 3609,
      "nome": "Spectral Force",
      "link": "https://animefire.plus/animes/spectral-force-todos-os-episodios",
      "texto_original": "Spectral Force",
      "rating": 3.97,
      "classificacao_etaria": "A14",
      "imagem_original": "https://animefire.plus/img/animes/spectral-force.webp",
      "imagem_pasta": "https://animefire.plus/img/animes/spectral-force/",
      "secao": "legendados",
      "pagina": 69,
      "total_episodios": 2,
      "link_video": "https://animefire.plus/video/spectral-force"
    },
    {
      "id": 3612,
      "nome": "Spriggan (ONA) (Dublado)",
      "link": "https://animefire.plus/animes/spriggan-ona-dublado-todos-os-episodios",
      "texto_original": "Spriggan (ONA) (Dublado)",
      "rating": 6.86,
      "classificacao_etaria": "A16",
      "imagem_original": "https://animefire.plus/img/animes/spriggan-ona.webp",
      "imagem_pasta": "https://animefire.plus/img/animes/spriggan-ona/",
      "secao": "dublados,legendados",
      "pagina": 10,
      "total_episodios": 6,
      "link_video": "https://animefire.plus/video/spriggan-ona-dublado"
    },
    {
      "id": 3613,
      "nome": "Spy Kyoushitsu",
      "link": "https://animefire.plus/animes/spy-kyoushitsu-todos-os-episodios",
      "texto_original": "Spy Kyoushitsu",
      "rating": 6.4,
      "classificacao_etaria": "A14",
      "imagem_original": "https://animefire.plus/img/animes/spy-kyoushitsu.webp",
      "imagem_pasta": "https://animefire.plus/img/animes/spy-kyoushitsu/",
      "secao": "legendados",
      "pagina": 28,
      "total_episodios": 12,
      "link_video": "https://animefire.plus/video/spy-kyoushitsu"
    },
    {
      "id": 3614,
      "nome": "Spy Kyoushitsu 2nd Season",
      "link": "https://animefire.plus/animes/spy-kyoushitsu-2nd-season-todos-os-episodios",
      "texto_original": "Spy Kyoushitsu 2nd Season",
      "rating": 7.15,
      "classificacao_etaria": "A14",
      "imagem_original": "https://animefire.plus/img/animes/spy-kyoushitsu-2nd-season.webp",
      "imagem_pasta": "https://animefire.plus/img/animes/spy-kyoushitsu-2nd-season/",
      "secao": "legendados,lancamentos",
      "pagina": 22,
      "total_episodios": 11,
      "link_video": "https://animefire.plus/video/spy-kyoushitsu-2nd-season"
    },
    {
      "id": 3615,
      "nome": "Spy x Family (Dublado)",
      "link": "https://animefire.plus/animes/spy-x-family-dublado-todos-os-episodios",
      "texto_original": "Spy x Family (Dublado)",
      "rating": 8.52,
      "classificacao_etaria": "A14",
      "imagem_original": "https://animefire.plus/img/animes/spy-x-family.webp",
      "imagem_pasta": "https://animefire.plus/img/animes/spy-x-family/",
      "secao": "dublados,legendados",
      "pagina": 11,
      "total_episodios": 12,
      "link_video": "https://animefire.plus/video/spy-x-family-dublado"
    },
    {
      "id": 3617,
      "nome": "Spy x Family Season 2 (Dublado)",
      "link": "https://animefire.plus/animes/spy-x-family-season-2-dublado-todos-os-episodios",
      "texto_original": "Spy x Family Season 2 (Dublado)",
      "rating": 8.07,
      "classificacao_etaria": "A14",
      "imagem_original": "https://animefire.plus/img/animes/spy-x-family-season-2.webp",
      "imagem_pasta": "https://animefire.plus/img/animes/spy-x-family-season-2/",
      "secao": "dublados,legendados",
      "pagina": 5,
      "total_episodios": 12,
      "link_video": "https://animefire.plus/video/spy-x-family-season-2-dublado"
    },
    {
      "id": 3618,
      "nome": "SSSS.Dynazenon",
      "link": "https://animefire.plus/animes/ssss-dynazenon-todos-os-episodios",
      "texto_original": "SSSS.Dynazenon",
      "rating": 7.43,
      "classificacao_etaria": "A14",
      "imagem_original": "https://animefire.plus/img/animes/ssss-dynazenon.webp",
      "imagem_pasta": "https://animefire.plus/img/animes/ssss-dynazenon/",
      "secao": "legendados",
      "pagina": 47,
      "total_episodios": 12,
      "link_video": "https://animefire.plus/video/ssss-dynazenon"
    },
    {
      "id": 3619,
      "nome": "SSSS.Gridman",
      "link": "https://animefire.plus/animes/ssss-gridman-todos-os-episodios",
      "texto_original": "SSSS.Gridman",
      "rating": 7.35,
      "classificacao_etaria": "A14",
      "imagem_original": "https://animefire.plus/img/animes/ssss-gridman.webp",
      "imagem_pasta": "https://animefire.plus/img/animes/ssss-gridman/",
      "secao": "legendados",
      "pagina": 117,
      "total_episodios": 3,
      "link_video": "https://animefire.plus/video/ssss-gridman"
    },
    {
      "id": 3620,
      "nome": "Stand My Heroes: Piece of Truth (Dublado)",
      "link": "https://animefire.plus/animes/stand-my-heroes-piece-of-truth-dublado-todos-os-episodios",
      "texto_original": "Stand My Heroes: Piece of Truth (Dublado)",
      "rating": 5.7,
      "classificacao_etaria": "A14",
      "imagem_original": "https://animefire.plus/img/animes/stand-my-heroes-piece-of-truth.webp",
      "imagem_pasta": "https://animefire.plus/img/animes/stand-my-heroes-piece-of-truth/",
      "secao": "dublados,legendados",
      "pagina": 18,
      "total_episodios": 12,
      "link_video": "https://animefire.plus/video/stand-my-heroes-piece-of-truth-dublado"
    },
    {
      "id": 3623,
      "nome": "Star Wars: Visions (Dublado)",
      "link": "https://animefire.plus/animes/star-wars-visions-dublado-todos-os-episodios",
      "texto_original": "Star Wars: Visions (Dublado)",
      "rating": 7.09,
      "classificacao_etaria": "A14",
      "imagem_original": "https://animefire.plus/img/animes/star-wars-visions.webp",
      "imagem_pasta": "https://animefire.plus/img/animes/star-wars-visions/",
      "secao": "dublados,legendados",
      "pagina": 15,
      "total_episodios": 9,
      "link_video": "https://animefire.plus/video/star-wars-visions-dublado"
    },
    {
      "id": 3626,
      "nome": "Starmyu 2nd Season",
      "link": "https://animefire.plus/animes/starmyu-2nd-season-todos-os-episodios",
      "texto_original": "Starmyu 2nd Season",
      "rating": 7.46,
      "classificacao_etaria": "A14",
      "imagem_original": "https://animefire.plus/img/animes/starmyu-2nd-season.webp",
      "imagem_pasta": "https://animefire.plus/img/animes/starmyu-2nd-season/",
      "secao": "legendados",
      "pagina": 98,
      "total_episodios": 12,
      "link_video": "https://animefire.plus/video/starmyu-2nd-season"
    },
    {
      "id": 3627,
      "nome": "Starmyu 3rd Season",
      "link": "https://animefire.plus/animes/starmyu-3rd-season-todos-os-episodios",
      "texto_original": "Starmyu 3rd Season",
      "rating": 6.89,
      "classificacao_etaria": "A14",
      "imagem_original": "https://animefire.plus/img/animes/starmyu-3rd-season.webp",
      "imagem_pasta": "https://animefire.plus/img/animes/starmyu-3rd-season/",
      "secao": "legendados",
      "pagina": 95,
      "total_episodios": 12,
      "link_video": "https://animefire.plus/video/starmyu-3rd-season"
    },
    {
      "id": 3635,
      "nome": "Steins;Gate: Soumei Eichi no Cognitive Computing",
      "link": "https://animefire.plus/animes/steins-gate-soumei-eichi-no-cognitive-computing-todos-os-episodios",
      "texto_original": "Steins;Gate: Soumei Eichi no Cognitive Computing",
      "rating": 7.43,
      "classificacao_etaria": "A14",
      "imagem_original": "https://animefire.plus/img/animes/steins-gate-soumei-eichi-no-cognitive-computing.webp",
      "imagem_pasta": "https://animefire.plus/img/animes/steins-gate-soumei-eichi-no-cognitive-computing/",
      "secao": "legendados",
      "pagina": 68,
      "total_episodios": 4,
      "link_video": "https://animefire.plus/video/steins-gate-soumei-eichi-no-cognitive-computing"
    },
    {
      "id": 3637,
      "nome": "Stella no Mahou",
      "link": "https://animefire.plus/animes/stella-no-mahou-todos-os-episodios",
      "texto_original": "Stella no Mahou",
      "rating": 6.91,
      "classificacao_etaria": "A14",
      "imagem_original": "https://animefire.plus/img/animes/stella-no-mahou.webp",
      "imagem_pasta": "https://animefire.plus/img/animes/stella-no-mahou/",
      "secao": "legendados",
      "pagina": 165,
      "total_episodios": 12,
      "link_video": "https://animefire.plus/video/stella-no-mahou"
    },
    {
      "id": 3638,
      "nome": "Strait Jacket",
      "link": "https://animefire.plus/animes/strait-jacket-todos-os-episodios",
      "texto_original": "Strait Jacket",
      "rating": 6.86,
      "classificacao_etaria": "A16",
      "imagem_original": "https://animefire.plus/img/animes/strait-jacket.webp",
      "imagem_pasta": "https://animefire.plus/img/animes/strait-jacket/",
      "secao": "legendados",
      "pagina": 78,
      "total_episodios": 3,
      "link_video": "https://animefire.plus/video/strait-jacket"
    },
    {
      "id": 3639,
      "nome": "Strange+",
      "link": "https://animefire.plus/animes/strange-todos-os-episodios",
      "texto_original": "Strange+",
      "rating": 6.03,
      "classificacao_etaria": "A14",
      "imagem_original": "https://animefire.plus/img/animes/strange.webp",
      "imagem_pasta": "https://animefire.plus/img/animes/strange/",
      "secao": "legendados",
      "pagina": 100,
      "total_episodios": 12,
      "link_video": "https://animefire.plus/video/strange"
    },
    {
      "id": 3641,
      "nome": "Stratos 4 Advance",
      "link": "https://animefire.plus/animes/stratos-4-advance-todos-os-episodios",
      "texto_original": "Stratos 4 Advance",
      "rating": 6.87,
      "classificacao_etaria": "A14",
      "imagem_original": "https://animefire.plus/img/animes/stratos-4-advance.webp",
      "imagem_pasta": "https://animefire.plus/img/animes/stratos-4-advance/",
      "secao": "legendados",
      "pagina": 79,
      "total_episodios": 8,
      "link_video": "https://animefire.plus/video/stratos-4-advance"
    },
    {
      "id": 3645,
      "nome": "Strike the Blood",
      "link": "https://animefire.plus/animes/strike-the-blood-todos-os-episodios",
      "texto_original": "Strike the Blood",
      "rating": 7.3,
      "classificacao_etaria": "A18",
      "imagem_original": "https://animefire.plus/img/animes/strike-the-blood.webp",
      "imagem_pasta": "https://animefire.plus/img/animes/strike-the-blood/",
      "secao": "legendados",
      "pagina": 126,
      "total_episodios": 4,
      "link_video": "https://animefire.plus/video/strike-the-blood"
    },
    {
      "id": 3647,
      "nome": "Strike The Blood II",
      "link": "https://animefire.plus/animes/strike-the-blood-ii-todos-os-episodios",
      "texto_original": "Strike The Blood II",
      "rating": 7.25,
      "classificacao_etaria": "A18",
      "imagem_original": "https://animefire.plus/img/animes/strike-the-blood-ii.webp",
      "imagem_pasta": "https://animefire.plus/img/animes/strike-the-blood-ii/",
      "secao": "legendados",
      "pagina": 106,
      "total_episodios": 8,
      "link_video": "https://animefire.plus/video/strike-the-blood-ii"
    }
  ],
  "pagination": {
    "current_page": 92,
    "per_page": 20,
    "total_items": 2189,
    "total_pages": 110,
    "has_next": true,
    "has_prev": true
  }
}
