{
  "message": "Animes com 2 a 12 episódios",
  "episode_range": {
    "min": 2,
    "max": 12
  },
  "data": [
    {
      "id": 3947,
      "nome": "Tsugumomo",
      "link": "https://animefire.plus/animes/tsugumomo-todos-os-episodios",
      "texto_original": "Tsugumomo",
      "rating": 7.11,
      "classificacao_etaria": "A18",
      "imagem_original": "https://animefire.plus/img/animes/tsugumomo.webp",
      "imagem_pasta": "https://animefire.plus/img/animes/tsugumomo/",
      "secao": "legendados",
      "pagina": 106,
      "total_episodios": 12,
      "link_video": "https://animefire.plus/video/tsugumomo"
    },
    {
      "id": 3949,
      "nome": "Tsuihousha Shokudou e Youkoso!",
      "link": "https://animefire.plus/animes/tsuihousha-shokudou-e-youkoso-todos-os-episodios",
      "texto_original": "Tsuihousha Shokudou e Youkoso!",
      "rating": 7.19,
      "classificacao_etaria": "A14",
      "imagem_original": "https://animefire.plus/img/animes/tsuihousha-shokudou-e-youkoso.webp",
      "imagem_pasta": "https://animefire.plus/img/animes/tsuihousha-shokudou-e-youkoso/",
      "secao": "legendados,lancamentos",
      "pagina": 2,
      "total_episodios": 5,
      "link_video": "https://animefire.plus/video/tsuihousha-shokudou-e-youkoso"
    },
    {
      "id": 3950,
      "nome": "Tsuki ga Kirei",
      "link": "https://animefire.plus/animes/tsuki-ga-kirei-todos-os-episodios",
      "texto_original": "Tsuki ga Kirei",
      "rating": 8.28,
      "classificacao_etaria": "A14",
      "imagem_original": "https://animefire.plus/img/animes/tsuki-ga-kirei.webp",
      "imagem_pasta": "https://animefire.plus/img/animes/tsuki-ga-kirei/",
      "secao": "legendados",
      "pagina": 99,
      "total_episodios": 12,
      "link_video": "https://animefire.plus/video/tsuki-ga-kirei"
    },
    {
      "id": 3951,
      "nome": "Tsuki ga Michibiku Isekai Douchuu (Dublado)",
      "link": "https://animefire.plus/animes/tsuki-ga-michibiku-isekai-douchuu-dublado-todos-os-episodios",
      "texto_original": "Tsuki ga Michibiku Isekai Douchuu (Dublado)",
      "rating": 7.71,
      "classificacao_etaria": "A14",
      "imagem_original": "https://animefire.plus/img/animes/tsuki-ga-michibiku-isekai-douchuu.webp",
      "imagem_pasta": "https://animefire.plus/img/animes/tsuki-ga-michibiku-isekai-douchuu/",
      "secao": "dublados,legendados",
      "pagina": 10,
      "total_episodios": 12,
      "link_video": "https://animefire.plus/video/tsuki-ga-michibiku-isekai-douchuu-dublado"
    },
    {
      "id": 3952,
      "nome": "Tsuki ga Michibiku Isekai Douchuu 2nd Season",
      "link": "https://animefire.plus/animes/tsuki-ga-michibiku-isekai-douchuu-2nd-season-todos-os-episodios",
      "texto_original": "Tsuki ga Michibiku Isekai Douchuu 2nd Season",
      "rating": 7.84,
      "classificacao_etaria": "A14",
      "imagem_original": "https://animefire.plus/img/animes/tsuki-ga-michibiku-isekai-douchuu-2nd-season.webp",
      "imagem_pasta": "https://animefire.plus/img/animes/tsuki-ga-michibiku-isekai-douchuu-2nd-season/",
      "secao": "legendados",
      "pagina": 17,
      "total_episodios": 4,
      "link_video": "https://animefire.plus/video/tsuki-ga-michibiku-isekai-douchuu-2nd-season"
    },
    {
      "id": 3953,
      "nome": "Tsuki ga Michibiku Isekai Douchuu 2nd Season (Dublado)",
      "link": "https://animefire.plus/animes/tsuki-ga-michibiku-isekai-douchuu-2-dublado-todos-os-episodios",
      "texto_original": "Tsuki ga Michibiku Isekai Douchuu 2nd Season (Dublado)",
      "rating": 7.84,
      "classificacao_etaria": "A14",
      "imagem_original": "https://animefire.plus/img/animes/tsuki-ga-michibiku-isekai-douchuu-2.webp",
      "imagem_pasta": "https://animefire.plus/img/animes/tsuki-ga-michibiku-isekai-douchuu-2/",
      "secao": "dublados,lancamentos",
      "pagina": 3,
      "total_episodios": 11,
      "link_video": "https://animefire.plus/video/tsuki-ga-michibiku-isekai-douchuu-2-dublado"
    },
    {
      "id": 3954,
      "nome": "Tsuki to Laika to Nosferatu (Dublado)",
      "link": "https://animefire.plus/animes/tsuki-to-laika-to-nosferatu-dublado-todos-os-episodios",
      "texto_original": "Tsuki to Laika to Nosferatu (Dublado)",
      "rating": 7.32,
      "classificacao_etaria": "A14",
      "imagem_original": "https://animefire.plus/img/animes/tsuki-to-laika-to-nosferatu.webp",
      "imagem_pasta": "https://animefire.plus/img/animes/tsuki-to-laika-to-nosferatu/",
      "secao": "dublados,legendados",
      "pagina": 14,
      "total_episodios": 12,
      "link_video": "https://animefire.plus/video/tsuki-to-laika-to-nosferatu-dublado"
    },
    {
      "id": 3956,
      "nome": "Tsukimonogatari",
      "link": "https://animefire.plus/animes/tsukimonogatari-todos-os-episodios",
      "texto_original": "Tsukimonogatari",
      "rating": 8.18,
      "classificacao_etaria": "A16",
      "imagem_original": "https://animefire.plus/img/animes/tsukimonogatari.webp",
      "imagem_pasta": "https://animefire.plus/img/animes/tsukimonogatari/",
      "secao": "legendados",
      "pagina": 141,
      "total_episodios": 4,
      "link_video": "https://animefire.plus/video/tsukimonogatari"
    },
    {
      "id": 3958,
      "nome": "Tsukipro The Animation 2",
      "link": "https://animefire.plus/animes/tsukipro-the-animation-2-todos-os-episodios",
      "texto_original": "Tsukipro The Animation 2",
      "rating": 6.41,
      "classificacao_etaria": "A14",
      "imagem_original": "https://animefire.plus/img/animes/tsukipro-the-animation-2.webp",
      "imagem_pasta": "https://animefire.plus/img/animes/tsukipro-the-animation-2/",
      "secao": "legendados,lancamentos",
      "pagina": 40,
      "total_episodios": 8,
      "link_video": "https://animefire.plus/video/tsukipro-the-animation-2"
    },
    {
      "id": 3959,
      "nome": "Tsukiuta. The Animation",
      "link": "https://animefire.plus/animes/tsukiuta-the-animation-todos-os-episodios",
      "texto_original": "Tsukiuta. The Animation",
      "rating": 7.06,
      "classificacao_etaria": "A14",
      "imagem_original": "https://animefire.plus/img/animes/tsukiuta-the-animation.webp",
      "imagem_pasta": "https://animefire.plus/img/animes/tsukiuta-the-animation/",
      "secao": "legendados",
      "pagina": 171,
      "total_episodios": 10,
      "link_video": "https://animefire.plus/video/tsukiuta-the-animation"
    },
    {
      "id": 3961,
      "nome": "Tsukumogami Kashimasu",
      "link": "https://animefire.plus/animes/tsukumogami-kashimasu-todos-os-episodios",
      "texto_original": "Tsukumogami Kashimasu",
      "rating": 6.76,
      "classificacao_etaria": "A14",
      "imagem_original": "https://animefire.plus/img/animes/tsukumogami-kashimasu.webp",
      "imagem_pasta": "https://animefire.plus/img/animes/tsukumogami-kashimasu/",
      "secao": "legendados",
      "pagina": 169,
      "total_episodios": 12,
      "link_video": "https://animefire.plus/video/tsukumogami-kashimasu"
    },
    {
      "id": 3963,
      "nome": "Tsuma, Shougakusei ni Naru.",
      "link": "https://animefire.plus/animes/tsuma-shougakusei-ni-naru-todos-os-episodios",
      "texto_original": "Tsuma, Shougakusei ni Naru.",
      "rating": 7.54,
      "classificacao_etaria": "A14",
      "imagem_original": "https://animefire.plus/img/animes/tsuma-shougakusei-ni-naru.webp",
      "imagem_pasta": "https://animefire.plus/img/animes/tsuma-shougakusei-ni-naru/",
      "secao": "legendados",
      "pagina": 9,
      "total_episodios": 12,
      "link_video": "https://animefire.plus/video/tsuma-shougakusei-ni-naru"
    },
    {
      "id": 3964,
      "nome": "Tsundere Akuyaku Reijou Liselotte to Jikkyou no Endou-kun to Kaisetsu no Kobayashi-san",
      "link": "https://animefire.plus/animes/tsundere-akuyaku-reijou-liselotte-to-jikkyou-no-endou-kun-to-kaisetsu-no-kobayashi-san-todos-os-episodios",
      "texto_original": "Tsundere Akuyaku Reijou Liselotte to Jikkyou no Endou-kun to Kaisetsu no Kobayashi-san",
      "rating": 7.23,
      "classificacao_etaria": "A14",
      "imagem_original": "https://animefire.plus/img/animes/tsundere-akuyaku-reijou-liselotte-to-jikkyou-no-endou-kun-to-kaisetsu-no-kobayashi-san.webp",
      "imagem_pasta": "https://animefire.plus/img/animes/tsundere-akuyaku-reijou-liselotte-to-jikkyou-no-endou-kun-to-kaisetsu-no-kobayashi-san/",
      "secao": "legendados",
      "pagina": 27,
      "total_episodios": 12,
      "link_video": "https://animefire.plus/video/tsundere-akuyaku-reijou-liselotte-to-jikkyou-no-endou-kun-to-kaisetsu-no-kobayashi-san"
    },
    {
      "id": 3965,
      "nome": "Tsurezure Children",
      "link": "https://animefire.plus/animes/tsurezure-children-todos-os-episodios",
      "texto_original": "Tsurezure Children",
      "rating": 7.76,
      "classificacao_etaria": "A14",
      "imagem_original": "https://animefire.plus/img/animes/tsurezure-children.webp",
      "imagem_pasta": "https://animefire.plus/img/animes/tsurezure-children/",
      "secao": "legendados",
      "pagina": 76,
      "total_episodios": 12,
      "link_video": "https://animefire.plus/video/tsurezure-children"
    },
    {
      "id": 3966,
      "nome": "Tsuritama",
      "link": "https://animefire.plus/animes/tsuritama-todos-os-episodios",
      "texto_original": "Tsuritama",
      "rating": 7.72,
      "classificacao_etaria": "A14",
      "imagem_original": "https://animefire.plus/img/animes/tsuritama.webp",
      "imagem_pasta": "https://animefire.plus/img/animes/tsuritama/",
      "secao": "legendados",
      "pagina": 60,
      "total_episodios": 12,
      "link_video": "https://animefire.plus/video/tsuritama"
    },
    {
      "id": 3970,
      "nome": "Tsuujou Kougeki ga Zentai Kougeki de Ni-kai Kougeki no Okaasan wa Suki Desu ka?",
      "link": "https://animefire.plus/animes/tsuujou-kougeki-ga-zentai-kougeki-de-ni-kai-kougeki-no-okaasan-wa-suki-desu-ka-todos-os-episodios",
      "texto_original": "Tsuujou Kougeki ga Zentai Kougeki de Ni-kai Kougeki no Okaasan wa Suki Desu ka?",
      "rating": 5.54,
      "classificacao_etaria": "A18",
      "imagem_original": "https://animefire.plus/img/animes/tsuujou-kougeki-ga-zentai-kougeki-de-ni-kai-kougeki-no-okaasan-wa-suki-desu-ka.webp",
      "imagem_pasta": "https://animefire.plus/img/animes/tsuujou-kougeki-ga-zentai-kougeki-de-ni-kai-kougeki-no-okaasan-wa-suki-desu-ka/",
      "secao": "legendados",
      "pagina": 120,
      "total_episodios": 12,
      "link_video": "https://animefire.plus/video/tsuujou-kougeki-ga-zentai-kougeki-de-ni-kai-kougeki-no-okaasan-wa-suki-desu-ka"
    },
    {
      "id": 3971,
      "nome": "Tsuyokiss",
      "link": "https://animefire.plus/animes/tsuyokiss-todos-os-episodios",
      "texto_original": "Tsuyokiss",
      "rating": 6.66,
      "classificacao_etaria": "A14",
      "imagem_original": "https://animefire.plus/img/animes/tsuyokiss.webp",
      "imagem_pasta": "https://animefire.plus/img/animes/tsuyokiss/",
      "secao": "legendados",
      "pagina": 156,
      "total_episodios": 10,
      "link_video": "https://animefire.plus/video/tsuyokiss"
    },
    {
      "id": 3972,
      "nome": "Tsuyokute New Saga",
      "link": "https://animefire.plus/animes/tsuyokute-new-saga-todos-os-episodios",
      "texto_original": "Tsuyokute New Saga",
      "rating": 6.69,
      "classificacao_etaria": "A14",
      "imagem_original": "https://animefire.plus/img/animes/tsuyokute-new-saga.webp",
      "imagem_pasta": "https://animefire.plus/img/animes/tsuyokute-new-saga/",
      "secao": "legendados,lancamentos",
      "pagina": 3,
      "total_episodios": 5,
      "link_video": "https://animefire.plus/video/tsuyokute-new-saga"
    },
    {
      "id": 3973,
      "nome": "Tu Bian Ying Xiong Leaf",
      "link": "https://animefire.plus/animes/tu-bian-ying-xiong-leaf-todos-os-episodios",
      "texto_original": "Tu Bian Ying Xiong Leaf",
      "rating": 7.16,
      "classificacao_etaria": "A14",
      "imagem_original": "https://animefire.plus/img/animes/tu-bian-ying-xiong-leaf.webp",
      "imagem_pasta": "https://animefire.plus/img/animes/tu-bian-ying-xiong-leaf/",
      "secao": "legendados",
      "pagina": 95,
      "total_episodios": 8,
      "link_video": "https://animefire.plus/video/tu-bian-ying-xiong-leaf"
    },
    {
      "id": 3975,
      "nome": "Turkey!",
      "link": "https://animefire.plus/animes/turkey-todos-os-episodios",
      "texto_original": "Turkey!",
      "rating": 6.29,
      "classificacao_etaria": "A14",
      "imagem_original": "https://animefire.plus/img/animes/turkey.webp",
      "imagem_pasta": "https://animefire.plus/img/animes/turkey/",
      "secao": "legendados,lancamentos",
      "pagina": 2,
      "total_episodios": 4,
      "link_video": "https://animefire.plus/video/turkey"
    }
  ],
  "pagination": {
    "current_page": 100,
    "per_page": 20,
    "total_items": 2189,
    "total_pages": 110,
    "has_next": true,
    "has_prev": true
  }
}
