{
  "message": "Animes com 2 a 12 episódios",
  "episode_range": {
    "min": 2,
    "max": 12
  },
  "data": [
    {
      "id": 891,
      "nome": "Dream Festival! R",
      "link": "https://animefire.plus/animes/dream-festival-r-todos-os-episodios",
      "texto_original": "Dream Festival! R",
      "rating": 6.93,
      "classificacao_etaria": "A14",
      "imagem_original": "https://animefire.plus/img/animes/dream-festival-r.webp",
      "imagem_pasta": "https://animefire.plus/img/animes/dream-festival-r/",
      "secao": "legendados",
      "pagina": 63,
      "total_episodios": 12,
      "link_video": "https://animefire.plus/video/dream-festival-r"
    },
    {
      "id": 892,
      "nome": "Drifters",
      "link": "https://animefire.plus/animes/drifters-todos-os-episodios",
      "texto_original": "Drifters",
      "rating": 8.02,
      "classificacao_etaria": "A16",
      "imagem_original": "https://animefire.plus/img/animes/drifters.webp",
      "imagem_pasta": "https://animefire.plus/img/animes/drifters/",
      "secao": "legendados",
      "pagina": 136,
      "total_episodios": 3,
      "link_video": "https://animefire.plus/video/drifters"
    },
    {
      "id": 893,
      "nome": "Drifters: Special Edition",
      "link": "https://animefire.plus/animes/drifters-special-edition-todos-os-episodios",
      "texto_original": "Drifters: Special Edition",
      "rating": 7.75,
      "classificacao_etaria": "A16",
      "imagem_original": "https://animefire.plus/img/animes/drifters-special-edition.webp",
      "imagem_pasta": "https://animefire.plus/img/animes/drifters-special-edition/",
      "secao": "legendados",
      "pagina": 87,
      "total_episodios": 2,
      "link_video": "https://animefire.plus/video/drifters-special-edition"
    },
    {
      "id": 894,
      "nome": "Druaga No Tou: The Aegis Of Uruk",
      "link": "https://animefire.plus/animes/druaga-no-tou-the-aegis-of-uruk-todos-os-episodios",
      "texto_original": "Druaga No Tou: The Aegis Of Uruk",
      "rating": 7.25,
      "classificacao_etaria": "A14",
      "imagem_original": "https://animefire.plus/img/animes/druaga-no-tou-the-aegis-of-uruk.webp",
      "imagem_pasta": "https://animefire.plus/img/animes/druaga-no-tou-the-aegis-of-uruk/",
      "secao": "legendados",
      "pagina": 99,
      "total_episodios": 12,
      "link_video": "https://animefire.plus/video/druaga-no-tou-the-aegis-of-uruk"
    },
    {
      "id": 895,
      "nome": "Druaga no Tou: The Sword of Uruk",
      "link": "https://animefire.plus/animes/druaga-no-tou-the-sword-of-uruk-todos-os-episodios",
      "texto_original": "Druaga no Tou: The Sword of Uruk",
      "rating": 7.27,
      "classificacao_etaria": "A14",
      "imagem_original": "https://animefire.plus/img/animes/druaga-no-tou-the-sword-of-uruk.webp",
      "imagem_pasta": "https://animefire.plus/img/animes/druaga-no-tou-the-sword-of-uruk/",
      "secao": "legendados",
      "pagina": 71,
      "total_episodios": 12,
      "link_video": "https://animefire.plus/video/druaga-no-tou-the-sword-of-uruk"
    },
    {
      "id": 897,
      "nome": "Dumbbell Nan Kilo Moteru?",
      "link": "https://animefire.plus/animes/dumbbell-nan-kilo-moteru-todos-os-episodios",
      "texto_original": "Dumbbell Nan Kilo Moteru?",
      "rating": 7.36,
      "classificacao_etaria": "A14",
      "imagem_original": "https://animefire.plus/img/animes/dumbbell-nan-kilo-moteru.webp",
      "imagem_pasta": "https://animefire.plus/img/animes/dumbbell-nan-kilo-moteru/",
      "secao": "legendados",
      "pagina": 164,
      "total_episodios": 4,
      "link_video": "https://animefire.plus/video/dumbbell-nan-kilo-moteru"
    },
    {
      "id": 900,
      "nome": "Dungeon ni Deai wo Motomeru no wa Machigatteiru Darou ka Gaiden: Sword Oratoria",
      "link": "https://animefire.plus/animes/dungeon-ni-deai-wo-motomeru-no-wa-machigatteiru-darou-ka-gaiden-sword-oratoria-todos-os-episodios",
      "texto_original": "Dungeon ni Deai wo Motomeru no wa Machigatteiru Darou ka Gaiden: Sword Oratoria",
      "rating": 7.13,
      "classificacao_etaria": "A14",
      "imagem_original": "https://animefire.plus/img/animes/dungeon-ni-deai-wo-motomeru-no-wa-machigatteiru-darou-ka-gaiden-sword-oratoria.webp",
      "imagem_pasta": "https://animefire.plus/img/animes/dungeon-ni-deai-wo-motomeru-no-wa-machigatteiru-darou-ka-gaiden-sword-oratoria/",
      "secao": "legendados",
      "pagina": 115,
      "total_episodios": 12,
      "link_video": "https://animefire.plus/video/dungeon-ni-deai-wo-motomeru-no-wa-machigatteiru-darou-ka-gaiden-sword-oratoria"
    },
    {
      "id": 901,
      "nome": "Dungeon ni Deai wo Motomeru no wa Machigatteiru Darou ka II",
      "link": "https://animefire.plus/animes/dungeon-ni-deai-wo-motomeru-no-wa-machigatteiru-darou-ka-ii-todos-os-episodios",
      "texto_original": "Dungeon ni Deai wo Motomeru no wa Machigatteiru Darou ka II",
      "rating": 7.24,
      "classificacao_etaria": "A14",
      "imagem_original": "https://animefire.plus/img/animes/dungeon-ni-deai-wo-motomeru-no-wa-machigatteiru-darou-ka-ii.webp",
      "imagem_pasta": "https://animefire.plus/img/animes/dungeon-ni-deai-wo-motomeru-no-wa-machigatteiru-darou-ka-ii/",
      "secao": "legendados",
      "pagina": 167,
      "total_episodios": 12,
      "link_video": "https://animefire.plus/video/dungeon-ni-deai-wo-motomeru-no-wa-machigatteiru-darou-ka-ii"
    },
    {
      "id": 903,
      "nome": "Dungeon ni Deai wo Motomeru no wa Machigatteiru Darou ka III",
      "link": "https://animefire.plus/animes/dungeon-ni-deai-wo-motomeru-no-wa-machigatteiru-darou-ka-iii-todos-os-episodios",
      "texto_original": "Dungeon ni Deai wo Motomeru no wa Machigatteiru Darou ka III",
      "rating": null,
      "classificacao_etaria": "A14",
      "imagem_original": "https://animefire.plus/img/animes/dungeon-ni-deai-wo-motomeru-no-wa-machigatteiru-darou-ka-iii.webp",
      "imagem_pasta": "https://animefire.plus/img/animes/dungeon-ni-deai-wo-motomeru-no-wa-machigatteiru-darou-ka-iii/",
      "secao": "legendados",
      "pagina": 53,
      "total_episodios": 12,
      "link_video": "https://animefire.plus/video/dungeon-ni-deai-wo-motomeru-no-wa-machigatteiru-darou-ka-iii"
    },
    {
      "id": 905,
      "nome": "Dungeon ni Deai wo Motomeru no wa Machigatteiru Darou ka IV: Fuka Shou - Yakusai-hen",
      "link": "https://animefire.plus/animes/dungeon-ni-deai-wo-motomeru-no-wa-machigatteiru-darou-ka-iv-fuka-shou---yakusai-hen-todos-os-episodios",
      "texto_original": "Dungeon ni Deai wo Motomeru no wa Machigatteiru Darou ka IV: Fuka Shou - Yakusai-hen",
      "rating": 8.25,
      "classificacao_etaria": "A16",
      "imagem_original": "https://animefire.plus/img/animes/dungeon-ni-deai-wo-motomeru-no-wa-machigatteiru-darou-ka-iv-fuka-shou---yakusai-hen.webp",
      "imagem_pasta": "https://animefire.plus/img/animes/dungeon-ni-deai-wo-motomeru-no-wa-machigatteiru-darou-ka-iv-fuka-shou---yakusai-hen/",
      "secao": "legendados",
      "pagina": 26,
      "total_episodios": 11,
      "link_video": "https://animefire.plus/video/dungeon-ni-deai-wo-motomeru-no-wa-machigatteiru-darou-ka-iv-fuka-shou---yakusai-hen"
    },
    {
      "id": 906,
      "nome": "Dungeon ni Deai wo Motomeru no wa Machigatteiru Darou ka IV: Shin Shou - Meikyuu-hen",
      "link": "https://animefire.plus/animes/dungeon-ni-deai-wo-motomeru-no-wa-machigatteiru-darou-ka-iv-shin-shou---meikyuu-hen-todos-os-episodios",
      "texto_original": "Dungeon ni Deai wo Motomeru no wa Machigatteiru Darou ka IV: Shin Shou - Meikyuu-hen",
      "rating": 7.75,
      "classificacao_etaria": "A16",
      "imagem_original": "https://animefire.plus/img/animes/dungeon-ni-deai-wo-motomeru-no-wa-machigatteiru-darou-ka-iv-shin-shou---meikyuu-hen.webp",
      "imagem_pasta": "https://animefire.plus/img/animes/dungeon-ni-deai-wo-motomeru-no-wa-machigatteiru-darou-ka-iv-shin-shou---meikyuu-hen/",
      "secao": "legendados",
      "pagina": 30,
      "total_episodios": 11,
      "link_video": "https://animefire.plus/video/dungeon-ni-deai-wo-motomeru-no-wa-machigatteiru-darou-ka-iv-shin-shou---meikyuu-hen"
    },
    {
      "id": 908,
      "nome": "Dungeon no Naka no Hito",
      "link": "https://animefire.plus/animes/dungeon-no-naka-no-hito-todos-os-episodios",
      "texto_original": "Dungeon no Naka no Hito",
      "rating": 7.12,
      "classificacao_etaria": "A14",
      "imagem_original": "https://animefire.plus/img/animes/dungeon-no-naka-no-hito.webp",
      "imagem_pasta": "https://animefire.plus/img/animes/dungeon-no-naka-no-hito/",
      "secao": "legendados",
      "pagina": 12,
      "total_episodios": 12,
      "link_video": "https://animefire.plus/video/dungeon-no-naka-no-hito"
    },
    {
      "id": 910,
      "nome": "Durarara!!x2 Ketsu",
      "link": "https://animefire.plus/animes/durarara-x2-ketsu-todos-os-episodios",
      "texto_original": "Durarara!!x2 Ketsu",
      "rating": 8.16,
      "classificacao_etaria": "A16",
      "imagem_original": "https://animefire.plus/img/animes/durarara-x2-ketsu.webp",
      "imagem_pasta": "https://animefire.plus/img/animes/durarara-x2-ketsu/",
      "secao": "legendados",
      "pagina": 128,
      "total_episodios": 12,
      "link_video": "https://animefire.plus/video/durarara-x2-ketsu"
    },
    {
      "id": 911,
      "nome": "Durarara!!x2 Shou",
      "link": "https://animefire.plus/animes/durarara-x2-shou-todos-os-episodios",
      "texto_original": "Durarara!!x2 Shou",
      "rating": 8.06,
      "classificacao_etaria": "A16",
      "imagem_original": "https://animefire.plus/img/animes/durarara-x2-shou.webp",
      "imagem_pasta": "https://animefire.plus/img/animes/durarara-x2-shou/",
      "secao": "legendados",
      "pagina": 61,
      "total_episodios": 12,
      "link_video": "https://animefire.plus/video/durarara-x2-shou"
    },
    {
      "id": 912,
      "nome": "Durarara!!x2 Ten",
      "link": "https://animefire.plus/animes/durarara-x2-ten-todos-os-episodios",
      "texto_original": "Durarara!!x2 Ten",
      "rating": 8.07,
      "classificacao_etaria": "A16",
      "imagem_original": "https://animefire.plus/img/animes/durarara-x2-ten.webp",
      "imagem_pasta": "https://animefire.plus/img/animes/durarara-x2-ten/",
      "secao": "legendados",
      "pagina": 103,
      "total_episodios": 12,
      "link_video": "https://animefire.plus/video/durarara-x2-ten"
    },
    {
      "id": 913,
      "nome": "Dynamic Chord",
      "link": "https://animefire.plus/animes/dynamic-chord-todos-os-episodios",
      "texto_original": "Dynamic Chord",
      "rating": 4.68,
      "classificacao_etaria": "A14",
      "imagem_original": "https://animefire.plus/img/animes/dynamic-chord.webp",
      "imagem_pasta": "https://animefire.plus/img/animes/dynamic-chord/",
      "secao": "legendados",
      "pagina": 164,
      "total_episodios": 10,
      "link_video": "https://animefire.plus/video/dynamic-chord"
    },
    {
      "id": 915,
      "nome": "Eat-Man",
      "link": "https://animefire.plus/animes/eat-man-todos-os-episodios",
      "texto_original": "Eat-Man",
      "rating": 6.57,
      "classificacao_etaria": "A16",
      "imagem_original": "https://animefire.plus/img/animes/eat-man.webp",
      "imagem_pasta": "https://animefire.plus/img/animes/eat-man/",
      "secao": "legendados",
      "pagina": 105,
      "total_episodios": 12,
      "link_video": "https://animefire.plus/video/eat-man"
    },
    {
      "id": 916,
      "nome": "Eat-Man '98",
      "link": "https://animefire.plus/animes/eat-man-98-todos-os-episodios",
      "texto_original": "Eat-Man '98",
      "rating": 6.84,
      "classificacao_etaria": "A14",
      "imagem_original": "https://animefire.plus/img/animes/eat-man-98.webp",
      "imagem_pasta": "https://animefire.plus/img/animes/eat-man-98/",
      "secao": "legendados",
      "pagina": 97,
      "total_episodios": 12,
      "link_video": "https://animefire.plus/video/eat-man-98"
    },
    {
      "id": 917,
      "nome": "Ebiten: Kouritsu Ebisugawa Koukou Tenmonbu",
      "link": "https://animefire.plus/animes/ebiten-kouritsu-ebisugawa-koukou-tenmonbu-todos-os-episodios",
      "texto_original": "Ebiten: Kouritsu Ebisugawa Koukou Tenmonbu",
      "rating": 6.27,
      "classificacao_etaria": "A18",
      "imagem_original": "https://animefire.plus/img/animes/ebiten-kouritsu-ebisugawa-koukou-tenmonbu.webp",
      "imagem_pasta": "https://animefire.plus/img/animes/ebiten-kouritsu-ebisugawa-koukou-tenmonbu/",
      "secao": "legendados",
      "pagina": 99,
      "total_episodios": 10,
      "link_video": "https://animefire.plus/video/ebiten-kouritsu-ebisugawa-koukou-tenmonbu"
    },
    {
      "id": 918,
      "nome": "Eden (ONA) (Dublado)",
      "link": "https://animefire.plus/animes/eden-ona-dublado-todos-os-episodios",
      "texto_original": "Eden (ONA) (Dublado)",
      "rating": 6.39,
      "classificacao_etaria": "A14",
      "imagem_original": "https://animefire.plus/img/animes/eden-ona.webp",
      "imagem_pasta": "https://animefire.plus/img/animes/eden-ona/",
      "secao": "dublados,legendados",
      "pagina": 17,
      "total_episodios": 3,
      "link_video": "https://animefire.plus/video/eden-ona-dublado"
    }
  ],
  "pagination": {
    "current_page": 22,
    "per_page": 20,
    "total_items": 2189,
    "total_pages": 110,
    "has_next": true,
    "has_prev": true
  }
}
