{
  "message": "Animes com 2 a 12 episódios",
  "episode_range": {
    "min": 2,
    "max": 12
  },
  "data": [
    {
      "id": 2317,
      "nome": "Magic-Kyun! Renaissance",
      "link": "https://animefire.plus/animes/magic-kyun-renaissance-todos-os-episodios",
      "texto_original": "Magic-Kyun! Renaissance",
      "rating": 7.26,
      "classificacao_etaria": "A14",
      "imagem_original": "https://animefire.plus/img/animes/magic-kyun-renaissance.webp",
      "imagem_pasta": "https://animefire.plus/img/animes/magic-kyun-renaissance/",
      "secao": "legendados",
      "pagina": 146,
      "total_episodios": 7,
      "link_video": "https://animefire.plus/video/magic-kyun-renaissance"
    },
    {
      "id": 2324,
      "nome": "Mahoromatic: Tadaima Okaeri",
      "link": "https://animefire.plus/animes/mahoromatic-tadaima-okaeri-todos-os-episodios",
      "texto_original": "Mahoromatic: Tadaima Okaeri",
      "rating": 7.09,
      "classificacao_etaria": "A18",
      "imagem_original": "https://animefire.plus/img/animes/mahoromatic-tadaima-okaeri.webp",
      "imagem_pasta": "https://animefire.plus/img/animes/mahoromatic-tadaima-okaeri/",
      "secao": "legendados",
      "pagina": 70,
      "total_episodios": 2,
      "link_video": "https://animefire.plus/video/mahoromatic-tadaima-okaeri"
    },
    {
      "id": 2326,
      "nome": "Mahou Senshi Louie",
      "link": "https://animefire.plus/animes/mahou-senshi-louie-todos-os-episodios",
      "texto_original": "Mahou Senshi Louie",
      "rating": 7.22,
      "classificacao_etaria": "A14",
      "imagem_original": "https://animefire.plus/img/animes/mahou-senshi-louie.webp",
      "imagem_pasta": "https://animefire.plus/img/animes/mahou-senshi-louie/",
      "secao": "legendados",
      "pagina": 126,
      "total_episodios": 8,
      "link_video": "https://animefire.plus/video/mahou-senshi-louie"
    },
    {
      "id": 2327,
      "nome": "Mahou Sensou",
      "link": "https://animefire.plus/animes/mahou-sensou-todos-os-episodios",
      "texto_original": "Mahou Sensou",
      "rating": 6.14,
      "classificacao_etaria": "A14",
      "imagem_original": "https://animefire.plus/img/animes/mahou-sensou.webp",
      "imagem_pasta": "https://animefire.plus/img/animes/mahou-sensou/",
      "secao": "legendados",
      "pagina": 122,
      "total_episodios": 12,
      "link_video": "https://animefire.plus/video/mahou-sensou"
    },
    {
      "id": 2328,
      "nome": "Mahou Shoujo Ikusei Keikaku",
      "link": "https://animefire.plus/animes/mahou-shoujo-ikusei-keikaku-todos-os-episodios",
      "texto_original": "Mahou Shoujo Ikusei Keikaku",
      "rating": 7.09,
      "classificacao_etaria": "A16",
      "imagem_original": "https://animefire.plus/img/animes/mahou-shoujo-ikusei-keikaku.webp",
      "imagem_pasta": "https://animefire.plus/img/animes/mahou-shoujo-ikusei-keikaku/",
      "secao": "legendados",
      "pagina": 169,
      "total_episodios": 12,
      "link_video": "https://animefire.plus/video/mahou-shoujo-ikusei-keikaku"
    },
    {
      "id": 2332,
      "nome": "Mahou Shoujo Lyrical Nanoha StrikerS",
      "link": "https://animefire.plus/animes/mahou-shoujo-lyrical-nanoha-strikers-todos-os-episodios",
      "texto_original": "Mahou Shoujo Lyrical Nanoha StrikerS",
      "rating": 7.7,
      "classificacao_etaria": "A14",
      "imagem_original": "https://animefire.plus/img/animes/mahou-shoujo-lyrical-nanoha-strikers.webp",
      "imagem_pasta": "https://animefire.plus/img/animes/mahou-shoujo-lyrical-nanoha-strikers/",
      "secao": "legendados",
      "pagina": 121,
      "total_episodios": 12,
      "link_video": "https://animefire.plus/video/mahou-shoujo-lyrical-nanoha-strikers"
    },
    {
      "id": 2334,
      "nome": "Mahou Shoujo Madoka★Magica",
      "link": "https://animefire.plus/animes/mahou-shoujo-madoka-magica-todos-os-episodios",
      "texto_original": "Mahou Shoujo Madoka★Magica",
      "rating": 8.43,
      "classificacao_etaria": "A14",
      "imagem_original": "https://animefire.plus/img/animes/mahou-shoujo-madoka-magica.webp",
      "imagem_pasta": "https://animefire.plus/img/animes/mahou-shoujo-madoka-magica/",
      "secao": "legendados",
      "pagina": 172,
      "total_episodios": 12,
      "link_video": "https://animefire.plus/video/mahou-shoujo-madoka-magica"
    },
    {
      "id": 2335,
      "nome": "Mahou Shoujo Magical Destroyers",
      "link": "https://animefire.plus/animes/mahou-shoujo-magical-destroyers-todos-os-episodios",
      "texto_original": "Mahou Shoujo Magical Destroyers",
      "rating": 6.25,
      "classificacao_etaria": "A14",
      "imagem_original": "https://animefire.plus/img/animes/mahou-shoujo-magical-destroyers.jpg",
      "imagem_pasta": "https://animefire.plus/img/animes/mahou-shoujo-magical-destroyers/",
      "secao": "legendados",
      "pagina": 23,
      "total_episodios": 12,
      "link_video": "https://animefire.plus/video/mahou-shoujo-magical-destroyers"
    },
    {
      "id": 2337,
      "nome": "Mahou Shoujo Nante Mou Ii Desukara. Second Season",
      "link": "https://animefire.plus/animes/mahou-shoujo-nante-mou-ii-desukara-second-season-todos-os-episodios",
      "texto_original": "Mahou Shoujo Nante Mou Ii Desukara. Second Season",
      "rating": 6.08,
      "classificacao_etaria": "A14",
      "imagem_original": "https://animefire.plus/img/animes/mahou-shoujo-nante-mou-ii-desukara-second-season.webp",
      "imagem_pasta": "https://animefire.plus/img/animes/mahou-shoujo-nante-mou-ii-desukara-second-season/",
      "secao": "legendados",
      "pagina": 78,
      "total_episodios": 12,
      "link_video": "https://animefire.plus/video/mahou-shoujo-nante-mou-ii-desukara-second-season"
    },
    {
      "id": 2339,
      "nome": "Mahou Shoujo Ore",
      "link": "https://animefire.plus/animes/mahou-shoujo-ore-todos-os-episodios",
      "texto_original": "Mahou Shoujo Ore",
      "rating": 6.7,
      "classificacao_etaria": "A14",
      "imagem_original": "https://animefire.plus/img/animes/mahou-shoujo-ore.webp",
      "imagem_pasta": "https://animefire.plus/img/animes/mahou-shoujo-ore/",
      "secao": "legendados",
      "pagina": 121,
      "total_episodios": 12,
      "link_video": "https://animefire.plus/video/mahou-shoujo-ore"
    },
    {
      "id": 2340,
      "nome": "Mahou Shoujo Site",
      "link": "https://animefire.plus/animes/mahou-shoujo-site-todos-os-episodios",
      "texto_original": "Mahou Shoujo Site",
      "rating": 6.56,
      "classificacao_etaria": "A16",
      "imagem_original": "https://animefire.plus/img/animes/mahou-shoujo-site.webp",
      "imagem_pasta": "https://animefire.plus/img/animes/mahou-shoujo-site/",
      "secao": "legendados",
      "pagina": 177,
      "total_episodios": 12,
      "link_video": "https://animefire.plus/video/mahou-shoujo-site"
    },
    {
      "id": 2341,
      "nome": "Mahou Shoujo Taisen",
      "link": "https://animefire.plus/animes/mahou-shoujo-taisen-todos-os-episodios",
      "texto_original": "Mahou Shoujo Taisen",
      "rating": 5.79,
      "classificacao_etaria": "A14",
      "imagem_original": "https://animefire.plus/img/animes/mahou-shoujo-taisen.webp",
      "imagem_pasta": "https://animefire.plus/img/animes/mahou-shoujo-taisen/",
      "secao": "legendados",
      "pagina": 159,
      "total_episodios": 11,
      "link_video": "https://animefire.plus/video/mahou-shoujo-taisen"
    },
    {
      "id": 2342,
      "nome": "Mahou Shoujo Tokushusen Asuka",
      "link": "https://animefire.plus/animes/mahou-shoujo-tokushusen-asuka-todos-os-episodios",
      "texto_original": "Mahou Shoujo Tokushusen Asuka",
      "rating": 6.34,
      "classificacao_etaria": "A16",
      "imagem_original": "https://animefire.plus/img/animes/mahou-shoujo-tokushusen-asuka.webp",
      "imagem_pasta": "https://animefire.plus/img/animes/mahou-shoujo-tokushusen-asuka/",
      "secao": "legendados",
      "pagina": 157,
      "total_episodios": 12,
      "link_video": "https://animefire.plus/video/mahou-shoujo-tokushusen-asuka"
    },
    {
      "id": 2343,
      "nome": "Mahou Shoujo? Naria☆Girls",
      "link": "https://animefire.plus/animes/mahou-shoujo-naria-girls-todos-os-episodios",
      "texto_original": "Mahou Shoujo? Naria☆Girls",
      "rating": 3.84,
      "classificacao_etaria": "A14",
      "imagem_original": "https://animefire.plus/img/animes/mahou-shoujo-naria-girls.webp",
      "imagem_pasta": "https://animefire.plus/img/animes/mahou-shoujo-naria-girls/",
      "secao": "legendados",
      "pagina": 98,
      "total_episodios": 12,
      "link_video": "https://animefire.plus/video/mahou-shoujo-naria-girls"
    },
    {
      "id": 2350,
      "nome": "Mahoutsukai ni Narenakatta Onnanoko no Hanashi",
      "link": "https://animefire.plus/animes/mahoutsukai-ni-narenakatta-onnanoko-no-hanashi-todos-os-episodios",
      "texto_original": "Mahoutsukai ni Narenakatta Onnanoko no Hanashi",
      "rating": 6.16,
      "classificacao_etaria": "A14",
      "imagem_original": "https://animefire.plus/img/animes/mahoutsukai-ni-narenakatta-onnanoko-no-hanashi.webp",
      "imagem_pasta": "https://animefire.plus/img/animes/mahoutsukai-ni-narenakatta-onnanoko-no-hanashi/",
      "secao": "legendados",
      "pagina": 10,
      "total_episodios": 12,
      "link_video": "https://animefire.plus/video/mahoutsukai-ni-narenakatta-onnanoko-no-hanashi"
    },
    {
      "id": 2352,
      "nome": "Mahoutsukai no Yakusoku",
      "link": "https://animefire.plus/animes/mahoutsukai-no-yakusoku-todos-os-episodios",
      "texto_original": "Mahoutsukai no Yakusoku",
      "rating": 5.49,
      "classificacao_etaria": "A14",
      "imagem_original": "https://animefire.plus/img/animes/mahoutsukai-no-yakusoku.webp",
      "imagem_pasta": "https://animefire.plus/img/animes/mahoutsukai-no-yakusoku/",
      "secao": "legendados",
      "pagina": 7,
      "total_episodios": 12,
      "link_video": "https://animefire.plus/video/mahoutsukai-no-yakusoku"
    },
    {
      "id": 2354,
      "nome": "Mahoutsukai no Yome Season 2 (Dublado)",
      "link": "https://animefire.plus/animes/mahoutsukai-no-yome-season-2-dublado-todos-os-episodios",
      "texto_original": "Mahoutsukai no Yome Season 2 (Dublado)",
      "rating": 7.76,
      "classificacao_etaria": "A14",
      "imagem_original": "https://animefire.plus/img/animes/mahoutsukai-no-yome-season-2.webp",
      "imagem_pasta": "https://animefire.plus/img/animes/mahoutsukai-no-yome-season-2/",
      "secao": "dublados,legendados",
      "pagina": 6,
      "total_episodios": 12,
      "link_video": "https://animefire.plus/video/mahoutsukai-no-yome-season-2-dublado"
    },
    {
      "id": 2355,
      "nome": "Mahoutsukai no Yome Season 2 Part 2 (Dublado)",
      "link": "https://animefire.plus/animes/mahoutsukai-no-yome-season-2-part-2-dublado-todos-os-episodios",
      "texto_original": "Mahoutsukai no Yome Season 2 Part 2 (Dublado)",
      "rating": 7.9,
      "classificacao_etaria": "A14",
      "imagem_original": "https://animefire.plus/img/animes/mahoutsukai-no-yome-season-2-part-2.webp",
      "imagem_pasta": "https://animefire.plus/img/animes/mahoutsukai-no-yome-season-2-part-2/",
      "secao": "dublados,legendados",
      "pagina": 5,
      "total_episodios": 12,
      "link_video": "https://animefire.plus/video/mahoutsukai-no-yome-season-2-part-2-dublado"
    },
    {
      "id": 2356,
      "nome": "Mahoutsukai no Yome: Hoshi Matsu Hito (Dublado)",
      "link": "https://animefire.plus/animes/mahoutsukai-no-yome-hoshi-matsu-hito-dublado-todos-os-episodios",
      "texto_original": "Mahoutsukai no Yome: Hoshi Matsu Hito (Dublado)",
      "rating": 8.19,
      "classificacao_etaria": "A14",
      "imagem_original": "https://animefire.plus/img/animes/mahoutsukai-no-yome-hoshi-matsu-hito.webp",
      "imagem_pasta": "https://animefire.plus/img/animes/mahoutsukai-no-yome-hoshi-matsu-hito/",
      "secao": "dublados,legendados",
      "pagina": 24,
      "total_episodios": 3,
      "link_video": "https://animefire.plus/video/mahoutsukai-no-yome-hoshi-matsu-hito-dublado"
    },
    {
      "id": 2357,
      "nome": "Mahoutsukai no Yome: Nishi no Shounen to Seiran no Kishi (Dublado)",
      "link": "https://animefire.plus/animes/mahoutsukai-no-yome-nishi-no-shounen-to-seiran-no-kishi-dublado-todos-os-episodios",
      "texto_original": "Mahoutsukai no Yome: Nishi no Shounen to Seiran no Kishi (Dublado)",
      "rating": 7.56,
      "classificacao_etaria": "A14",
      "imagem_original": "https://animefire.plus/img/animes/mahoutsukai-no-yome-nishi-no-shounen-to-seiran-no-kishi.webp",
      "imagem_pasta": "https://animefire.plus/img/animes/mahoutsukai-no-yome-nishi-no-shounen-to-seiran-no-kishi/",
      "secao": "dublados,legendados",
      "pagina": 12,
      "total_episodios": 3,
      "link_video": "https://animefire.plus/video/mahoutsukai-no-yome-nishi-no-shounen-to-seiran-no-kishi-dublado"
    }
  ],
  "pagination": {
    "current_page": 59,
    "per_page": 20,
    "total_items": 2189,
    "total_pages": 110,
    "has_next": true,
    "has_prev": true
  }
}
