{
  "message": "Animes com 2 a 12 episódios",
  "episode_range": {
    "min": 2,
    "max": 12
  },
  "data": [
    {
      "id": 318,
      "nome": "Bakumatsu Rock",
      "link": "https://animefire.plus/animes/bakumatsu-rock-todos-os-episodios",
      "texto_original": "Bakumatsu Rock",
      "rating": 6.12,
      "classificacao_etaria": "A14",
      "imagem_original": "https://animefire.plus/img/animes/bakumatsu-rock.webp",
      "imagem_pasta": "https://animefire.plus/img/animes/bakumatsu-rock/",
      "secao": "legendados",
      "pagina": 156,
      "total_episodios": 3,
      "link_video": "https://animefire.plus/video/bakumatsu-rock"
    },
    {
      "id": 319,
      "nome": "Bakumatsu: Crisis",
      "link": "https://animefire.plus/animes/bakumatsu-crisis-todos-os-episodios",
      "texto_original": "Bakumatsu: Crisis",
      "rating": 5.69,
      "classificacao_etaria": "A14",
      "imagem_original": "https://animefire.plus/img/animes/bakumatsu-crisis.webp",
      "imagem_pasta": "https://animefire.plus/img/animes/bakumatsu-crisis/",
      "secao": "legendados",
      "pagina": 132,
      "total_episodios": 6,
      "link_video": "https://animefire.plus/video/bakumatsu-crisis"
    },
    {
      "id": 320,
      "nome": "Bakuon!!",
      "link": "https://animefire.plus/animes/bakuon-todos-os-episodios",
      "texto_original": "Bakuon!!",
      "rating": 6.51,
      "classificacao_etaria": "A14",
      "imagem_original": "https://animefire.plus/img/animes/bakuon.webp",
      "imagem_pasta": "https://animefire.plus/img/animes/bakuon/",
      "secao": "legendados",
      "pagina": 103,
      "total_episodios": 12,
      "link_video": "https://animefire.plus/video/bakuon"
    },
    {
      "id": 325,
      "nome": "Bakuten Shoot Beyblade G Revolution (Dublado)",
      "link": "https://animefire.plus/animes/bakuten-shoot-beyblade-g-revolution-dublado-todos-os-episodios",
      "texto_original": "Bakuten Shoot Beyblade G Revolution (Dublado)",
      "rating": 7.01,
      "classificacao_etaria": "A10",
      "imagem_original": "https://animefire.plus/img/animes/bakuten-shoot-beyblade-g-revolution.webp",
      "imagem_pasta": "https://animefire.plus/img/animes/bakuten-shoot-beyblade-g-revolution/",
      "secao": "dublados",
      "pagina": 27,
      "total_episodios": 11,
      "link_video": "https://animefire.plus/video/bakuten-shoot-beyblade-g-revolution-dublado"
    },
    {
      "id": 326,
      "nome": "Bakuten!!",
      "link": "https://animefire.plus/animes/bakuten-todos-os-episodios",
      "texto_original": "Bakuten!!",
      "rating": 7.49,
      "classificacao_etaria": "A14",
      "imagem_original": "https://animefire.plus/img/animes/bakuten.webp",
      "imagem_pasta": "https://animefire.plus/img/animes/bakuten/",
      "secao": "legendados",
      "pagina": 46,
      "total_episodios": 12,
      "link_video": "https://animefire.plus/video/bakuten"
    },
    {
      "id": 327,
      "nome": "Baldr Force Exe Resolution",
      "link": "https://animefire.plus/animes/baldr-force-exe-resolution-todos-os-episodios",
      "texto_original": "Baldr Force Exe Resolution",
      "rating": 6.5,
      "classificacao_etaria": "A18",
      "imagem_original": "https://animefire.plus/img/animes/baldr-force-exe-resolution.webp",
      "imagem_pasta": "https://animefire.plus/img/animes/baldr-force-exe-resolution/",
      "secao": "legendados",
      "pagina": 69,
      "total_episodios": 4,
      "link_video": "https://animefire.plus/video/baldr-force-exe-resolution"
    },
    {
      "id": 328,
      "nome": "Ballpark de Tsukamaete!",
      "link": "https://animefire.plus/animes/ballpark-de-tsukamaete-todos-os-episodios",
      "texto_original": "Ballpark de Tsukamaete!",
      "rating": 7.16,
      "classificacao_etaria": "A14",
      "imagem_original": "https://animefire.plus/img/animes/ballpark-de-tsukamaete.webp",
      "imagem_pasta": "https://animefire.plus/img/animes/ballpark-de-tsukamaete/",
      "secao": "legendados",
      "pagina": 4,
      "total_episodios": 12,
      "link_video": "https://animefire.plus/video/ballpark-de-tsukamaete"
    },
    {
      "id": 337,
      "nome": "BanG Dream! Garupa☆Pico",
      "link": "https://animefire.plus/animes/bang-dream-garupa-pico-todos-os-episodios",
      "texto_original": "BanG Dream! Garupa☆Pico",
      "rating": 7.82,
      "classificacao_etaria": "A14",
      "imagem_original": "https://animefire.plus/img/animes/bang-dream-garupa-pico.webp",
      "imagem_pasta": "https://animefire.plus/img/animes/bang-dream-garupa-pico/",
      "secao": "legendados",
      "pagina": 59,
      "total_episodios": 12,
      "link_video": "https://animefire.plus/video/bang-dream-garupa-pico"
    },
    {
      "id": 340,
      "nome": "Bannou Bunka Neko-Musume",
      "link": "https://animefire.plus/animes/bannou-bunka-neko-musume-todos-os-episodios",
      "texto_original": "Bannou Bunka Neko-Musume",
      "rating": 6.75,
      "classificacao_etaria": "A18",
      "imagem_original": "https://animefire.plus/img/animes/bannou-bunka-neko-musume.webp",
      "imagem_pasta": "https://animefire.plus/img/animes/bannou-bunka-neko-musume/",
      "secao": "legendados",
      "pagina": 106,
      "total_episodios": 12,
      "link_video": "https://animefire.plus/video/bannou-bunka-neko-musume"
    },
    {
      "id": 342,
      "nome": "Barakamon",
      "link": "https://animefire.plus/animes/barakamon-todos-os-episodios",
      "texto_original": "Barakamon",
      "rating": 8.45,
      "classificacao_etaria": "A14",
      "imagem_original": "https://animefire.plus/img/animes/barakamon.webp",
      "imagem_pasta": "https://animefire.plus/img/animes/barakamon/",
      "secao": "legendados",
      "pagina": 175,
      "total_episodios": 3,
      "link_video": "https://animefire.plus/video/barakamon"
    },
    {
      "id": 346,
      "nome": "Bartender: Kami no Glass",
      "link": "https://animefire.plus/animes/bartender-kami-no-glass-todos-os-episodios",
      "texto_original": "Bartender: Kami no Glass",
      "rating": 7.38,
      "classificacao_etaria": "A14",
      "imagem_original": "https://animefire.plus/img/animes/bartender-kami-no-glass.webp",
      "imagem_pasta": "https://animefire.plus/img/animes/bartender-kami-no-glass/",
      "secao": "legendados",
      "pagina": 15,
      "total_episodios": 12,
      "link_video": "https://animefire.plus/video/bartender-kami-no-glass"
    },
    {
      "id": 349,
      "nome": "Basquash!",
      "link": "https://animefire.plus/animes/basquash-todos-os-episodios",
      "texto_original": "Basquash!",
      "rating": 7.31,
      "classificacao_etaria": "A14",
      "imagem_original": "https://animefire.plus/img/animes/basquash.webp",
      "imagem_pasta": "https://animefire.plus/img/animes/basquash/",
      "secao": "legendados",
      "pagina": 102,
      "total_episodios": 8,
      "link_video": "https://animefire.plus/video/basquash"
    },
    {
      "id": 351,
      "nome": "Bastard!! Ankoku no Hakaishin (ONA) Part 2 (Dublado)",
      "link": "https://animefire.plus/animes/bastard-ankoku-no-hakaishin-ona-part-2-dublado-todos-os-episodios",
      "texto_original": "Bastard!! Ankoku no Hakaishin (ONA) Part 2 (Dublado)",
      "rating": 6.75,
      "classificacao_etaria": "A18",
      "imagem_original": "https://animefire.plus/img/animes/bastard-ankoku-no-hakaishin-ona-part-2.webp",
      "imagem_pasta": "https://animefire.plus/img/animes/bastard-ankoku-no-hakaishin-ona-part-2/",
      "secao": "dublados,legendados",
      "pagina": 9,
      "total_episodios": 11,
      "link_video": "https://animefire.plus/video/bastard-ankoku-no-hakaishin-ona-part-2-dublado"
    },
    {
      "id": 352,
      "nome": "Bastard!! Ankoku no Hakaishin Part 2 (ONA) (Dublado)",
      "link": "https://animefire.plus/animes/bastard-ankoku-no-hakaishin-part-2-ona-dublado-todos-os-episodios",
      "texto_original": "Bastard!! Ankoku no Hakaishin Part 2 (ONA) (Dublado)",
      "rating": 6.75,
      "classificacao_etaria": "A18",
      "imagem_original": "https://animefire.plus/img/animes/bastard-ankoku-no-hakaishin-part-2-ona.webp",
      "imagem_pasta": "https://animefire.plus/img/animes/bastard-ankoku-no-hakaishin-part-2-ona/",
      "secao": "dublados",
      "pagina": 8,
      "total_episodios": 11,
      "link_video": "https://animefire.plus/video/bastard-ankoku-no-hakaishin-part-2-ona-dublado"
    },
    {
      "id": 354,
      "nome": "Bastard!!: Ankoku no Hakaishin",
      "link": "https://animefire.plus/animes/bastard-ankoku-no-hakaishin-todos-os-episodios",
      "texto_original": "Bastard!!: Ankoku no Hakaishin",
      "rating": 6.84,
      "classificacao_etaria": "A18",
      "imagem_original": "https://animefire.plus/img/animes/bastard-ankoku-no-hakaishin.webp",
      "imagem_pasta": "https://animefire.plus/img/animes/bastard-ankoku-no-hakaishin/",
      "secao": "legendados",
      "pagina": 113,
      "total_episodios": 6,
      "link_video": "https://animefire.plus/video/bastard-ankoku-no-hakaishin"
    },
    {
      "id": 355,
      "nome": "Battery",
      "link": "https://animefire.plus/animes/battery-todos-os-episodios",
      "texto_original": "Battery",
      "rating": 5.76,
      "classificacao_etaria": "A14",
      "imagem_original": "https://animefire.plus/img/animes/battery.webp",
      "imagem_pasta": "https://animefire.plus/img/animes/battery/",
      "secao": "legendados",
      "pagina": 148,
      "total_episodios": 7,
      "link_video": "https://animefire.plus/video/battery"
    },
    {
      "id": 356,
      "nome": "Battle Athletess Daiundoukai ReSTART!",
      "link": "https://animefire.plus/animes/battle-athletess-daiundoukai-restart-todos-os-episodios",
      "texto_original": "Battle Athletess Daiundoukai ReSTART!",
      "rating": 5.11,
      "classificacao_etaria": "A14",
      "imagem_original": "https://animefire.plus/img/animes/battle-athletess-daiundoukai-restart.webp",
      "imagem_pasta": "https://animefire.plus/img/animes/battle-athletess-daiundoukai-restart/",
      "secao": "legendados",
      "pagina": 45,
      "total_episodios": 12,
      "link_video": "https://animefire.plus/video/battle-athletess-daiundoukai-restart"
    },
    {
      "id": 357,
      "nome": "Battle Girl High School",
      "link": "https://animefire.plus/animes/battle-girl-high-school-todos-os-episodios",
      "texto_original": "Battle Girl High School",
      "rating": 5.9,
      "classificacao_etaria": "A14",
      "imagem_original": "https://animefire.plus/img/animes/battle-girl-high-school.webp",
      "imagem_pasta": "https://animefire.plus/img/animes/battle-girl-high-school/",
      "secao": "legendados",
      "pagina": 173,
      "total_episodios": 12,
      "link_video": "https://animefire.plus/video/battle-girl-high-school"
    },
    {
      "id": 358,
      "nome": "Battle Programmer Shirase",
      "link": "https://animefire.plus/animes/battle-programmer-shirase-todos-os-episodios",
      "texto_original": "Battle Programmer Shirase",
      "rating": 7,
      "classificacao_etaria": "A14",
      "imagem_original": "https://animefire.plus/img/animes/battle-programmer-shirase.webp",
      "imagem_pasta": "https://animefire.plus/img/animes/battle-programmer-shirase/",
      "secao": "legendados",
      "pagina": 165,
      "total_episodios": 5,
      "link_video": "https://animefire.plus/video/battle-programmer-shirase"
    },
    {
      "id": 363,
      "nome": "Beastars (Dublado)",
      "link": "https://animefire.plus/animes/beastars-dublado-todos-os-episodios",
      "texto_original": "Beastars (Dublado)",
      "rating": 8.09,
      "classificacao_etaria": "A16",
      "imagem_original": "https://animefire.plus/img/animes/beastars.webp",
      "imagem_pasta": "https://animefire.plus/img/animes/beastars/",
      "secao": "dublados,legendados",
      "pagina": 25,
      "total_episodios": 12,
      "link_video": "https://animefire.plus/video/beastars-dublado"
    }
  ],
  "pagination": {
    "current_page": 9,
    "per_page": 20,
    "total_items": 2189,
    "total_pages": 110,
    "has_next": true,
    "has_prev": true
  }
}
