{
  "message": "Animes com 2 a 12 episódios",
  "episode_range": {
    "min": 2,
    "max": 12
  },
  "data": [
    {
      "id": 1932,
      "nome": "Kekkon suru tte, Hontou desu ka (Dublado)",
      "link": "https://animefire.plus/animes/kekkon-suru-tte-hontou-desu-ka-dublado-todos-os-episodios",
      "texto_original": "Kekkon suru tte, Hontou desu ka (Dublado)",
      "rating": 7.12,
      "classificacao_etaria": "A14",
      "imagem_original": "https://animefire.plus/img/animes/kekkon-suru-tte-hontou-desu-ka.webp",
      "imagem_pasta": "https://animefire.plus/img/animes/kekkon-suru-tte-hontou-desu-ka/",
      "secao": "dublados,legendados,lancamentos",
      "pagina": 2,
      "total_episodios": 12,
      "link_video": "https://animefire.plus/video/kekkon-suru-tte-hontou-desu-ka-dublado"
    },
    {
      "id": 1933,
      "nome": "Kekkon Yubiwa Monogatari (Dublado)",
      "link": "https://animefire.plus/animes/kekkon-yubiwa-monogatari-dublado-todos-os-episodios",
      "texto_original": "Kekkon Yubiwa Monogatari (Dublado)",
      "rating": 6.06,
      "classificacao_etaria": "A18",
      "imagem_original": "https://animefire.plus/img/animes/kekkon-yubiwa-monogatari.webp",
      "imagem_pasta": "https://animefire.plus/img/animes/kekkon-yubiwa-monogatari/",
      "secao": "dublados,legendados,lancamentos",
      "pagina": 3,
      "total_episodios": 12,
      "link_video": "https://animefire.plus/video/kekkon-yubiwa-monogatari-dublado"
    },
    {
      "id": 1934,
      "nome": "Kemeko Deluxe!",
      "link": "https://animefire.plus/animes/kemeko-deluxe-todos-os-episodios",
      "texto_original": "Kemeko Deluxe!",
      "rating": 6.67,
      "classificacao_etaria": "A14",
      "imagem_original": "https://animefire.plus/img/animes/kemeko-deluxe.webp",
      "imagem_pasta": "https://animefire.plus/img/animes/kemeko-deluxe/",
      "secao": "legendados",
      "pagina": 137,
      "total_episodios": 12,
      "link_video": "https://animefire.plus/video/kemeko-deluxe"
    },
    {
      "id": 1935,
      "nome": "Kemono Friends",
      "link": "https://animefire.plus/animes/kemono-friends-todos-os-episodios",
      "texto_original": "Kemono Friends",
      "rating": 7.61,
      "classificacao_etaria": "A10",
      "imagem_original": "https://animefire.plus/img/animes/kemono-friends.webp",
      "imagem_pasta": "https://animefire.plus/img/animes/kemono-friends/",
      "secao": "legendados",
      "pagina": 63,
      "total_episodios": 12,
      "link_video": "https://animefire.plus/video/kemono-friends"
    },
    {
      "id": 1936,
      "nome": "Kemono Friends 2",
      "link": "https://animefire.plus/animes/kemono-friends-2-todos-os-episodios",
      "texto_original": "Kemono Friends 2",
      "rating": 5.87,
      "classificacao_etaria": "A14",
      "imagem_original": "https://animefire.plus/img/animes/kemono-friends-2.webp",
      "imagem_pasta": "https://animefire.plus/img/animes/kemono-friends-2/",
      "secao": "legendados",
      "pagina": 112,
      "total_episodios": 2,
      "link_video": "https://animefire.plus/video/kemono-friends-2"
    },
    {
      "id": 1937,
      "nome": "Kemono Jihen (Dublado)",
      "link": "https://animefire.plus/animes/kemono-jihen-dublado-todos-os-episodios",
      "texto_original": "Kemono Jihen (Dublado)",
      "rating": 7.36,
      "classificacao_etaria": "A16",
      "imagem_original": "https://animefire.plus/img/animes/kemono-jihen.webp",
      "imagem_pasta": "https://animefire.plus/img/animes/kemono-jihen/",
      "secao": "dublados,legendados",
      "pagina": 10,
      "total_episodios": 12,
      "link_video": "https://animefire.plus/video/kemono-jihen-dublado"
    },
    {
      "id": 1940,
      "nome": "Kemurikusa (TV)",
      "link": "https://animefire.plus/animes/kemurikusa-tv-todos-os-episodios",
      "texto_original": "Kemurikusa (TV)",
      "rating": 7.1,
      "classificacao_etaria": "A14",
      "imagem_original": "https://animefire.plus/img/animes/kemurikusa-tv.webp",
      "imagem_pasta": "https://animefire.plus/img/animes/kemurikusa-tv/",
      "secao": "legendados",
      "pagina": 60,
      "total_episodios": 12,
      "link_video": "https://animefire.plus/video/kemurikusa-tv"
    },
    {
      "id": 1942,
      "nome": "Kengan Ashura (Dublado)",
      "link": "https://animefire.plus/animes/kengan-ashura-dublado-todos-os-episodios",
      "texto_original": "Kengan Ashura (Dublado)",
      "rating": 7.47,
      "classificacao_etaria": "A16",
      "imagem_original": "https://animefire.plus/img/animes/kengan-ashura.webp",
      "imagem_pasta": "https://animefire.plus/img/animes/kengan-ashura/",
      "secao": "dublados,legendados",
      "pagina": 25,
      "total_episodios": 12,
      "link_video": "https://animefire.plus/video/kengan-ashura-dublado"
    },
    {
      "id": 1943,
      "nome": "Kengan Ashura 2nd Season (Dublado)",
      "link": "https://animefire.plus/animes/kengan-ashura-2nd-season-dublado-todos-os-episodios",
      "texto_original": "Kengan Ashura 2nd Season (Dublado)",
      "rating": 7.75,
      "classificacao_etaria": "A16",
      "imagem_original": "https://animefire.plus/img/animes/kengan-ashura-2nd-season.webp",
      "imagem_pasta": "https://animefire.plus/img/animes/kengan-ashura-2nd-season/",
      "secao": "dublados",
      "pagina": 22,
      "total_episodios": 12,
      "link_video": "https://animefire.plus/video/kengan-ashura-2nd-season-dublado"
    },
    {
      "id": 1944,
      "nome": "Kenja no Deshi wo Nanoru Kenja",
      "link": "https://animefire.plus/animes/kenja-no-deshi-wo-nanoru-kenja-todos-os-episodios",
      "texto_original": "Kenja no Deshi wo Nanoru Kenja",
      "rating": 6.33,
      "classificacao_etaria": "A14",
      "imagem_original": "https://animefire.plus/img/animes/kenja-no-deshi-wo-nanoru-kenja.webp",
      "imagem_pasta": "https://animefire.plus/img/animes/kenja-no-deshi-wo-nanoru-kenja/",
      "secao": "legendados",
      "pagina": 37,
      "total_episodios": 12,
      "link_video": "https://animefire.plus/video/kenja-no-deshi-wo-nanoru-kenja"
    },
    {
      "id": 1945,
      "nome": "Kenja no Mago (Dublado)",
      "link": "https://animefire.plus/animes/kenja-no-mago-dublado-todos-os-episodios",
      "texto_original": "Kenja no Mago (Dublado)",
      "rating": 6.58,
      "classificacao_etaria": "A14",
      "imagem_original": "https://animefire.plus/img/animes/kenja-no-mago.webp",
      "imagem_pasta": "https://animefire.plus/img/animes/kenja-no-mago/",
      "secao": "dublados,legendados",
      "pagina": 15,
      "total_episodios": 12,
      "link_video": "https://animefire.plus/video/kenja-no-mago-dublado"
    },
    {
      "id": 1946,
      "nome": "Kenka Banchou Otome: Girl Beats Boys",
      "link": "https://animefire.plus/animes/kenka-banchou-otome-girl-beats-boys-todos-os-episodios",
      "texto_original": "Kenka Banchou Otome: Girl Beats Boys",
      "rating": 6.59,
      "classificacao_etaria": "A14",
      "imagem_original": "https://animefire.plus/img/animes/kenka-banchou-otome-girl-beats-boys.webp",
      "imagem_pasta": "https://animefire.plus/img/animes/kenka-banchou-otome-girl-beats-boys/",
      "secao": "legendados",
      "pagina": 155,
      "total_episodios": 12,
      "link_video": "https://animefire.plus/video/kenka-banchou-otome-girl-beats-boys"
    },
    {
      "id": 1947,
      "nome": "Kenka Dokugaku",
      "link": "https://animefire.plus/animes/kenka-dokugaku-todos-os-episodios",
      "texto_original": "Kenka Dokugaku",
      "rating": 7.33,
      "classificacao_etaria": "A14",
      "imagem_original": "https://animefire.plus/img/animes/kenka-dokugaku.webp",
      "imagem_pasta": "https://animefire.plus/img/animes/kenka-dokugaku/",
      "secao": "legendados",
      "pagina": 14,
      "total_episodios": 12,
      "link_video": "https://animefire.plus/video/kenka-dokugaku"
    },
    {
      "id": 1952,
      "nome": "Kenzen Robo Daimidaler",
      "link": "https://animefire.plus/animes/kenzen-robo-daimidaler-todos-os-episodios",
      "texto_original": "Kenzen Robo Daimidaler",
      "rating": 6.24,
      "classificacao_etaria": "A18",
      "imagem_original": "https://animefire.plus/img/animes/kenzen-robo-daimidaler.webp",
      "imagem_pasta": "https://animefire.plus/img/animes/kenzen-robo-daimidaler/",
      "secao": "legendados",
      "pagina": 114,
      "total_episodios": 12,
      "link_video": "https://animefire.plus/video/kenzen-robo-daimidaler"
    },
    {
      "id": 1956,
      "nome": "Kibou no Chikara: Otona Precure '23",
      "link": "https://animefire.plus/animes/kibou-no-chikara-otona-precure-23-todos-os-episodios",
      "texto_original": "Kibou no Chikara: Otona Precure '23",
      "rating": 6.56,
      "classificacao_etaria": "A14",
      "imagem_original": "https://animefire.plus/img/animes/kibou-no-chikara-otona-precure-23.webp",
      "imagem_pasta": "https://animefire.plus/img/animes/kibou-no-chikara-otona-precure-23/",
      "secao": "legendados",
      "pagina": 19,
      "total_episodios": 12,
      "link_video": "https://animefire.plus/video/kibou-no-chikara-otona-precure-23"
    },
    {
      "id": 1959,
      "nome": "Kidou Keisatsu Patlabor",
      "link": "https://animefire.plus/animes/kidou-keisatsu-patlabor-todos-os-episodios",
      "texto_original": "Kidou Keisatsu Patlabor",
      "rating": 7.29,
      "classificacao_etaria": "A14",
      "imagem_original": "https://animefire.plus/img/animes/kidou-keisatsu-patlabor.webp",
      "imagem_pasta": "https://animefire.plus/img/animes/kidou-keisatsu-patlabor/",
      "secao": "legendados",
      "pagina": 42,
      "total_episodios": 7,
      "link_video": "https://animefire.plus/video/kidou-keisatsu-patlabor"
    },
    {
      "id": 1963,
      "nome": "Kidou Senshi Gundam: GQuuuuuuX",
      "link": "https://animefire.plus/animes/kidou-senshi-gundam-gquuuuuux-todos-os-episodios",
      "texto_original": "Kidou Senshi Gundam: GQuuuuuuX",
      "rating": 7.05,
      "classificacao_etaria": "A14",
      "imagem_original": "https://animefire.plus/img/animes/kidou-senshi-gundam-gquuuuuux.webp",
      "imagem_pasta": "https://animefire.plus/img/animes/kidou-senshi-gundam-gquuuuuux/",
      "secao": "legendados",
      "pagina": 5,
      "total_episodios": 12,
      "link_video": "https://animefire.plus/video/kidou-senshi-gundam-gquuuuuux"
    },
    {
      "id": 1965,
      "nome": "Kiitarou Shounen no Youkai Enikki",
      "link": "https://animefire.plus/animes/kiitarou-shounen-no-youkai-enikki-todos-os-episodios",
      "texto_original": "Kiitarou Shounen no Youkai Enikki",
      "rating": 6.48,
      "classificacao_etaria": "A14",
      "imagem_original": "https://animefire.plus/img/animes/kiitarou-shounen-no-youkai-enikki.webp",
      "imagem_pasta": "https://animefire.plus/img/animes/kiitarou-shounen-no-youkai-enikki/",
      "secao": "legendados",
      "pagina": 155,
      "total_episodios": 2,
      "link_video": "https://animefire.plus/video/kiitarou-shounen-no-youkai-enikki"
    },
    {
      "id": 1967,
      "nome": "Kikaider 01 The Animation",
      "link": "https://animefire.plus/animes/kikaider-01-the-animation-todos-os-episodios",
      "texto_original": "Kikaider 01 The Animation",
      "rating": 6.84,
      "classificacao_etaria": "A14",
      "imagem_original": "https://animefire.plus/img/animes/kikaider-01-the-animation.webp",
      "imagem_pasta": "https://animefire.plus/img/animes/kikaider-01-the-animation/",
      "secao": "legendados",
      "pagina": 129,
      "total_episodios": 4,
      "link_video": "https://animefire.plus/video/kikaider-01-the-animation"
    },
    {
      "id": 1968,
      "nome": "Kikansha no Mahou wa Tokubetsu desu",
      "link": "https://animefire.plus/animes/kikansha-no-mahou-wa-tokubetsu-desu-todos-os-episodios",
      "texto_original": "Kikansha no Mahou wa Tokubetsu desu",
      "rating": 7.06,
      "classificacao_etaria": "A14",
      "imagem_original": "https://animefire.plus/img/animes/kikansha-no-mahou-wa-tokubetsu-desu.webp",
      "imagem_pasta": "https://animefire.plus/img/animes/kikansha-no-mahou-wa-tokubetsu-desu/",
      "secao": "legendados",
      "pagina": 20,
      "total_episodios": 12,
      "link_video": "https://animefire.plus/video/kikansha-no-mahou-wa-tokubetsu-desu"
    }
  ],
  "pagination": {
    "current_page": 49,
    "per_page": 20,
    "total_items": 2189,
    "total_pages": 110,
    "has_next": true,
    "has_prev": true
  }
}
