{
  "message": "Animes com 2 a 12 episódios",
  "episode_range": {
    "min": 2,
    "max": 12
  },
  "data": [
    {
      "id": 2088,
      "nome": "Kono Subarashii Sekai ni Shukufuku wo! 2 (Dublado)",
      "link": "https://animefire.plus/animes/kono-subarashii-sekai-ni-shukufuku-wo-2-dublado-todos-os-episodios",
      "texto_original": "Kono Subarashii Sekai ni Shukufuku wo! 2 (Dublado)",
      "rating": 8.36,
      "classificacao_etaria": "A14",
      "imagem_original": "https://animefire.plus/img/animes/kono-subarashii-sekai-ni-shukufuku-wo-2.webp",
      "imagem_pasta": "https://animefire.plus/img/animes/kono-subarashii-sekai-ni-shukufuku-wo-2/",
      "secao": "dublados,legendados",
      "pagina": 26,
      "total_episodios": 10,
      "link_video": "https://animefire.plus/video/kono-subarashii-sekai-ni-shukufuku-wo-2-dublado"
    },
    {
      "id": 2090,
      "nome": "Kono Subarashii Sekai ni Shukufuku wo! 3 (Dublado)",
      "link": "https://animefire.plus/animes/kono-subarashii-sekai-ni-shukufuku-wo-3-dublado-todos-os-episodios",
      "texto_original": "Kono Subarashii Sekai ni Shukufuku wo! 3 (Dublado)",
      "rating": 8.35,
      "classificacao_etaria": "A14",
      "imagem_original": "https://animefire.plus/img/animes/kono-subarashii-sekai-ni-shukufuku-wo-3.webp",
      "imagem_pasta": "https://animefire.plus/img/animes/kono-subarashii-sekai-ni-shukufuku-wo-3/",
      "secao": "dublados,legendados",
      "pagina": 2,
      "total_episodios": 11,
      "link_video": "https://animefire.plus/video/kono-subarashii-sekai-ni-shukufuku-wo-3-dublado"
    },
    {
      "id": 2094,
      "nome": "Konohana Kitan",
      "link": "https://animefire.plus/animes/konohana-kitan-todos-os-episodios",
      "texto_original": "Konohana Kitan",
      "rating": 7.66,
      "classificacao_etaria": "A14",
      "imagem_original": "https://animefire.plus/img/animes/konohana-kitan.webp",
      "imagem_pasta": "https://animefire.plus/img/animes/konohana-kitan/",
      "secao": "legendados",
      "pagina": 106,
      "total_episodios": 12,
      "link_video": "https://animefire.plus/video/konohana-kitan"
    },
    {
      "id": 2095,
      "nome": "Konyaku Haki sareta Reijou wo Hirotta Ore ga, Ikenai Koto wo Oshiekomu",
      "link": "https://animefire.plus/animes/konyaku-haki-sareta-reijou-wo-hirotta-ore-ga-ikenai-koto-wo-oshiekomu-todos-os-episodios",
      "texto_original": "Konyaku Haki sareta Reijou wo Hirotta Ore ga, Ikenai Koto wo Oshiekomu",
      "rating": 7.15,
      "classificacao_etaria": "A14",
      "imagem_original": "https://animefire.plus/img/animes/konyaku-haki-sareta-reijou-wo-hirotta-ore-ga-ikenai-koto-wo-oshiekomu.webp",
      "imagem_pasta": "https://animefire.plus/img/animes/konyaku-haki-sareta-reijou-wo-hirotta-ore-ga-ikenai-koto-wo-oshiekomu/",
      "secao": "legendados",
      "pagina": 20,
      "total_episodios": 12,
      "link_video": "https://animefire.plus/video/konyaku-haki-sareta-reijou-wo-hirotta-ore-ga-ikenai-koto-wo-oshiekomu"
    },
    {
      "id": 2096,
      "nome": "Koori Zokusei Danshi to Cool na Douryou Joshi",
      "link": "https://animefire.plus/animes/koori-zokusei-danshi-to-cool-na-douryou-joshi-todos-os-episodios",
      "texto_original": "Koori Zokusei Danshi to Cool na Douryou Joshi",
      "rating": 7.31,
      "classificacao_etaria": "A14",
      "imagem_original": "https://animefire.plus/img/animes/koori-zokusei-danshi-to-cool-na-douryou-joshi.webp",
      "imagem_pasta": "https://animefire.plus/img/animes/koori-zokusei-danshi-to-cool-na-douryou-joshi/",
      "secao": "legendados",
      "pagina": 26,
      "total_episodios": 12,
      "link_video": "https://animefire.plus/video/koori-zokusei-danshi-to-cool-na-douryou-joshi"
    },
    {
      "id": 2097,
      "nome": "Kore ga Watashi no Goshujinsama",
      "link": "https://animefire.plus/animes/kore-ga-watashi-no-goshujinsama-todos-os-episodios",
      "texto_original": "Kore ga Watashi no Goshujinsama",
      "rating": 6.58,
      "classificacao_etaria": "A18",
      "imagem_original": "https://animefire.plus/img/animes/kore-ga-watashi-no-goshujinsama.webp",
      "imagem_pasta": "https://animefire.plus/img/animes/kore-ga-watashi-no-goshujinsama/",
      "secao": "legendados",
      "pagina": 71,
      "total_episodios": 12,
      "link_video": "https://animefire.plus/video/kore-ga-watashi-no-goshujinsama"
    },
    {
      "id": 2098,
      "nome": "Kore wa Zombie Desu ka?",
      "link": "https://animefire.plus/animes/kore-wa-zombie-desu-ka-todos-os-episodios",
      "texto_original": "Kore wa Zombie Desu ka?",
      "rating": 7.54,
      "classificacao_etaria": "A16",
      "imagem_original": "https://animefire.plus/img/animes/kore-wa-zombie-desu-ka.webp",
      "imagem_pasta": "https://animefire.plus/img/animes/kore-wa-zombie-desu-ka/",
      "secao": "legendados",
      "pagina": 143,
      "total_episodios": 12,
      "link_video": "https://animefire.plus/video/kore-wa-zombie-desu-ka"
    },
    {
      "id": 2099,
      "nome": "Kore wa Zombie Desu ka? of the Dead",
      "link": "https://animefire.plus/animes/kore-wa-zombie-desu-ka-of-the-dead-todos-os-episodios",
      "texto_original": "Kore wa Zombie Desu ka? of the Dead",
      "rating": 7.67,
      "classificacao_etaria": "A16",
      "imagem_original": "https://animefire.plus/img/animes/kore-wa-zombie-desu-ka-of-the-dead.webp",
      "imagem_pasta": "https://animefire.plus/img/animes/kore-wa-zombie-desu-ka-of-the-dead/",
      "secao": "legendados",
      "pagina": 129,
      "total_episodios": 10,
      "link_video": "https://animefire.plus/video/kore-wa-zombie-desu-ka-of-the-dead"
    },
    {
      "id": 2100,
      "nome": "Koro-sensei Quest!",
      "link": "https://animefire.plus/animes/koro-sensei-quest-todos-os-episodios",
      "texto_original": "Koro-sensei Quest!",
      "rating": 7.25,
      "classificacao_etaria": "A14",
      "imagem_original": "https://animefire.plus/img/animes/koro-sensei-quest.webp",
      "imagem_pasta": "https://animefire.plus/img/animes/koro-sensei-quest/",
      "secao": "legendados",
      "pagina": 169,
      "total_episodios": 12,
      "link_video": "https://animefire.plus/video/koro-sensei-quest"
    },
    {
      "id": 2101,
      "nome": "Koroshi Ai (Dublado)",
      "link": "https://animefire.plus/animes/koroshi-ai-dublado-todos-os-episodios",
      "texto_original": "Koroshi Ai (Dublado)",
      "rating": 6.9,
      "classificacao_etaria": "A16",
      "imagem_original": "https://animefire.plus/img/animes/koroshi-ai.webp",
      "imagem_pasta": "https://animefire.plus/img/animes/koroshi-ai/",
      "secao": "dublados,legendados",
      "pagina": 12,
      "total_episodios": 12,
      "link_video": "https://animefire.plus/video/koroshi-ai-dublado"
    },
    {
      "id": 2102,
      "nome": "Kotarou wa Hitorigurashi (Dublado)",
      "link": "https://animefire.plus/animes/kotarou-wa-hitorigurashi-dublado-todos-os-episodios",
      "texto_original": "Kotarou wa Hitorigurashi (Dublado)",
      "rating": 8.16,
      "classificacao_etaria": "A14",
      "imagem_original": "https://animefire.plus/img/animes/kotarou-wa-hitorigurashi.webp",
      "imagem_pasta": "https://animefire.plus/img/animes/kotarou-wa-hitorigurashi/",
      "secao": "dublados,legendados",
      "pagina": 12,
      "total_episodios": 10,
      "link_video": "https://animefire.plus/video/kotarou-wa-hitorigurashi-dublado"
    },
    {
      "id": 2103,
      "nome": "Kotoura-san",
      "link": "https://animefire.plus/animes/kotoura-san-todos-os-episodios",
      "texto_original": "Kotoura-san",
      "rating": 7.33,
      "classificacao_etaria": "A14",
      "imagem_original": "https://animefire.plus/img/animes/kotoura-san.webp",
      "imagem_pasta": "https://animefire.plus/img/animes/kotoura-san/",
      "secao": "legendados",
      "pagina": 121,
      "total_episodios": 12,
      "link_video": "https://animefire.plus/video/kotoura-san"
    },
    {
      "id": 2104,
      "nome": "Koufuku Graffiti",
      "link": "https://animefire.plus/animes/koufuku-graffiti-todos-os-episodios",
      "texto_original": "Koufuku Graffiti",
      "rating": 6.83,
      "classificacao_etaria": "A14",
      "imagem_original": "https://animefire.plus/img/animes/koufuku-graffiti.webp",
      "imagem_pasta": "https://animefire.plus/img/animes/koufuku-graffiti/",
      "secao": "legendados",
      "pagina": 112,
      "total_episodios": 3,
      "link_video": "https://animefire.plus/video/koufuku-graffiti"
    },
    {
      "id": 2105,
      "nome": "Koujo Denka no Kateikyoushi",
      "link": "https://animefire.plus/animes/koujo-denka-no-kateikyoushi-todos-os-episodios",
      "texto_original": "Koujo Denka no Kateikyoushi",
      "rating": 6.67,
      "classificacao_etaria": "A14",
      "imagem_original": "https://animefire.plus/img/animes/koujo-denka-no-kateikyoushi.webp",
      "imagem_pasta": "https://animefire.plus/img/animes/koujo-denka-no-kateikyoushi/",
      "secao": "legendados,lancamentos",
      "pagina": 2,
      "total_episodios": 5,
      "link_video": "https://animefire.plus/video/koujo-denka-no-kateikyoushi"
    },
    {
      "id": 2106,
      "nome": "Koukaku Kidoutai Arise: Alternative Architecture",
      "link": "https://animefire.plus/animes/koukaku-kidoutai-arise-alternative-architecture-todos-os-episodios",
      "texto_original": "Koukaku Kidoutai Arise: Alternative Architecture",
      "rating": 7.27,
      "classificacao_etaria": "A16",
      "imagem_original": "https://animefire.plus/img/animes/koukaku-kidoutai-arise-alternative-architecture.webp",
      "imagem_pasta": "https://animefire.plus/img/animes/koukaku-kidoutai-arise-alternative-architecture/",
      "secao": "legendados",
      "pagina": 75,
      "total_episodios": 10,
      "link_video": "https://animefire.plus/video/koukaku-kidoutai-arise-alternative-architecture"
    },
    {
      "id": 2107,
      "nome": "Koukaku Kidoutai: SAC_2045 (Dublado)",
      "link": "https://animefire.plus/animes/koukaku-kidoutai-sac-2045-dublado-todos-os-episodios",
      "texto_original": "Koukaku Kidoutai: SAC_2045 (Dublado)",
      "rating": 6.74,
      "classificacao_etaria": "A16",
      "imagem_original": "https://animefire.plus/img/animes/koukaku-kidoutai-sac-2045.webp",
      "imagem_pasta": "https://animefire.plus/img/animes/koukaku-kidoutai-sac-2045/",
      "secao": "dublados,legendados",
      "pagina": 20,
      "total_episodios": 12,
      "link_video": "https://animefire.plus/video/koukaku-kidoutai-sac-2045-dublado"
    },
    {
      "id": 2108,
      "nome": "Koukaku Kidoutai: SAC_2045 Season 2 (Dublado)",
      "link": "https://animefire.plus/animes/koukaku-kidoutai-sac-2045-season-2-dublado-todos-os-episodios",
      "texto_original": "Koukaku Kidoutai: SAC_2045 Season 2 (Dublado)",
      "rating": 6.84,
      "classificacao_etaria": "A16",
      "imagem_original": "https://animefire.plus/img/animes/koukaku-kidoutai-sac-2045-season-2.webp",
      "imagem_pasta": "https://animefire.plus/img/animes/koukaku-kidoutai-sac-2045-season-2/",
      "secao": "dublados,legendados",
      "pagina": 10,
      "total_episodios": 12,
      "link_video": "https://animefire.plus/video/koukaku-kidoutai-sac-2045-season-2-dublado"
    },
    {
      "id": 2109,
      "nome": "Koukaku no Pandora",
      "link": "https://animefire.plus/animes/koukaku-no-pandora-todos-os-episodios",
      "texto_original": "Koukaku no Pandora",
      "rating": 6.59,
      "classificacao_etaria": "A14",
      "imagem_original": "https://animefire.plus/img/animes/koukaku-no-pandora.webp",
      "imagem_pasta": "https://animefire.plus/img/animes/koukaku-no-pandora/",
      "secao": "legendados",
      "pagina": 169,
      "total_episodios": 12,
      "link_video": "https://animefire.plus/video/koukaku-no-pandora"
    },
    {
      "id": 2110,
      "nome": "Koukyoushihen Eureka Seven",
      "link": "https://animefire.plus/animes/koukyoushihen-eureka-seven-todos-os-episodios",
      "texto_original": "Koukyoushihen Eureka Seven",
      "rating": 8.13,
      "classificacao_etaria": "A14",
      "imagem_original": "https://animefire.plus/img/animes/koukyoushihen-eureka-seven.webp",
      "imagem_pasta": "https://animefire.plus/img/animes/koukyoushihen-eureka-seven/",
      "secao": "legendados",
      "pagina": 119,
      "total_episodios": 5,
      "link_video": "https://animefire.plus/video/koukyoushihen-eureka-seven"
    },
    {
      "id": 2113,
      "nome": "Koume-chan ga Iku!",
      "link": "https://animefire.plus/animes/koume-chan-ga-iku-todos-os-episodios",
      "texto_original": "Koume-chan ga Iku!",
      "rating": 5.95,
      "classificacao_etaria": "A14",
      "imagem_original": "https://animefire.plus/img/animes/koume-chan-ga-iku.webp",
      "imagem_pasta": "https://animefire.plus/img/animes/koume-chan-ga-iku/",
      "secao": "legendados",
      "pagina": 44,
      "total_episodios": 12,
      "link_video": "https://animefire.plus/video/koume-chan-ga-iku"
    }
  ],
  "pagination": {
    "current_page": 53,
    "per_page": 20,
    "total_items": 2189,
    "total_pages": 110,
    "has_next": true,
    "has_prev": true
  }
}
