{
  "message": "Animes com 2 a 12 episódios",
  "episode_range": {
    "min": 2,
    "max": 12
  },
  "data": [
    {
      "id": 3173,
      "nome": "Ryuuou no Oshigoto!",
      "link": "https://animefire.plus/animes/ryuuou-no-oshigoto-todos-os-episodios",
      "texto_original": "Ryuuou no Oshigoto!",
      "rating": 7.05,
      "classificacao_etaria": "A14",
      "imagem_original": "https://animefire.plus/img/animes/ryuuou-no-oshigoto.webp",
      "imagem_pasta": "https://animefire.plus/img/animes/ryuuou-no-oshigoto/",
      "secao": "legendados",
      "pagina": 102,
      "total_episodios": 12,
      "link_video": "https://animefire.plus/video/ryuuou-no-oshigoto"
    },
    {
      "id": 3176,
      "nome": "Ryuuseiki Gakusaver",
      "link": "https://animefire.plus/animes/ryuuseiki-gakusaver-todos-os-episodios",
      "texto_original": "Ryuuseiki Gakusaver",
      "rating": 6.49,
      "classificacao_etaria": "A14",
      "imagem_original": "https://animefire.plus/img/animes/ryuuseiki-gakusaver.webp",
      "imagem_pasta": "https://animefire.plus/img/animes/ryuuseiki-gakusaver/",
      "secao": "legendados",
      "pagina": 56,
      "total_episodios": 6,
      "link_video": "https://animefire.plus/video/ryuuseiki-gakusaver"
    },
    {
      "id": 3177,
      "nome": "Ryza no Atelier: Tokoyami no Joou to Himitsu no Kakurega",
      "link": "https://animefire.plus/animes/ryza-no-atelier-tokoyami-no-joou-to-himitsu-no-kakurega-todos-os-episodios",
      "texto_original": "Ryza no Atelier: Tokoyami no Joou to Himitsu no Kakurega",
      "rating": 6.41,
      "classificacao_etaria": "A14",
      "imagem_original": "https://animefire.plus/img/animes/ryza-no-atelier-tokoyami-no-joou-to-himitsu-no-kakurega.jpg",
      "imagem_pasta": "https://animefire.plus/img/animes/ryza-no-atelier-tokoyami-no-joou-to-himitsu-no-kakurega/",
      "secao": "legendados",
      "pagina": 23,
      "total_episodios": 12,
      "link_video": "https://animefire.plus/video/ryza-no-atelier-tokoyami-no-joou-to-himitsu-no-kakurega"
    },
    {
      "id": 3178,
      "nome": "S-Rank Monster no \"Behemoth\" dakedo, Neko to Machigawarete Elf Musume no Pet toshite Kurashitemasu",
      "link": "https://animefire.plus/animes/s-rank-monster-no-behemoth-dakedo-neko-to-machigawarete-elf-musume-no-pet-toshite-kurashitemasu-todos-os-episodios",
      "texto_original": "S-Rank Monster no \"Behemoth\" dakedo, Neko to Machigawarete Elf Musume no Pet toshite Kurashitemasu",
      "rating": 5.79,
      "classificacao_etaria": "A18",
      "imagem_original": "https://animefire.plus/img/animes/s-rank-monster-no-behemoth-dakedo-neko-to-machigawarete-elf-musume-no-pet-toshite-kurashitemasu.webp",
      "imagem_pasta": "https://animefire.plus/img/animes/s-rank-monster-no-behemoth-dakedo-neko-to-machigawarete-elf-musume-no-pet-toshite-kurashitemasu/",
      "secao": "legendados",
      "pagina": 8,
      "total_episodios": 12,
      "link_video": "https://animefire.plus/video/s-rank-monster-no-behemoth-dakedo-neko-to-machigawarete-elf-musume-no-pet-toshite-kurashitemasu"
    },
    {
      "id": 3180,
      "nome": "Sabage-bu!",
      "link": "https://animefire.plus/animes/sabage-bu-todos-os-episodios",
      "texto_original": "Sabage-bu!",
      "rating": 7.43,
      "classificacao_etaria": "A14",
      "imagem_original": "https://animefire.plus/img/animes/sabage-bu.webp",
      "imagem_pasta": "https://animefire.plus/img/animes/sabage-bu/",
      "secao": "legendados",
      "pagina": 111,
      "total_episodios": 12,
      "link_video": "https://animefire.plus/video/sabage-bu"
    },
    {
      "id": 3181,
      "nome": "Sabage-bu! Specials",
      "link": "https://animefire.plus/animes/sabage-bu-specials-todos-os-episodios",
      "texto_original": "Sabage-bu! Specials",
      "rating": 7.32,
      "classificacao_etaria": "A14",
      "imagem_original": "https://animefire.plus/img/animes/sabage-bu-specials.webp",
      "imagem_pasta": "https://animefire.plus/img/animes/sabage-bu-specials/",
      "secao": "legendados",
      "pagina": 85,
      "total_episodios": 6,
      "link_video": "https://animefire.plus/video/sabage-bu-specials"
    },
    {
      "id": 3183,
      "nome": "Sabiiro no Armor: Reimei",
      "link": "https://animefire.plus/animes/sabiiro-no-armor-reimei-todos-os-episodios",
      "texto_original": "Sabiiro no Armor: Reimei",
      "rating": 3.8,
      "classificacao_etaria": "A14",
      "imagem_original": "https://animefire.plus/img/animes/sabiiro-no-armor-reimei.webp",
      "imagem_pasta": "https://animefire.plus/img/animes/sabiiro-no-armor-reimei/",
      "secao": "legendados",
      "pagina": 35,
      "total_episodios": 12,
      "link_video": "https://animefire.plus/video/sabiiro-no-armor-reimei"
    },
    {
      "id": 3184,
      "nome": "Sabikui Bisco (Dublado)",
      "link": "https://animefire.plus/animes/sabikui-bisco-dublado-todos-os-episodios",
      "texto_original": "Sabikui Bisco (Dublado)",
      "rating": 7.14,
      "classificacao_etaria": "A14",
      "imagem_original": "https://animefire.plus/img/animes/sabikui-bisco.webp",
      "imagem_pasta": "https://animefire.plus/img/animes/sabikui-bisco/",
      "secao": "dublados,legendados",
      "pagina": 12,
      "total_episodios": 12,
      "link_video": "https://animefire.plus/video/sabikui-bisco-dublado"
    },
    {
      "id": 3185,
      "nome": "Sacred Seven",
      "link": "https://animefire.plus/animes/sacred-seven-todos-os-episodios",
      "texto_original": "Sacred Seven",
      "rating": 6.7,
      "classificacao_etaria": "A14",
      "imagem_original": "https://animefire.plus/img/animes/sacred-seven.webp",
      "imagem_pasta": "https://animefire.plus/img/animes/sacred-seven/",
      "secao": "legendados",
      "pagina": 149,
      "total_episodios": 12,
      "link_video": "https://animefire.plus/video/sacred-seven"
    },
    {
      "id": 3187,
      "nome": "Saenai Heroine no Sodatekata ♭",
      "link": "https://animefire.plus/animes/saenai-heroine-no-sodatekata-todos-os-episodios",
      "texto_original": "Saenai Heroine no Sodatekata ♭",
      "rating": 7.87,
      "classificacao_etaria": "A14",
      "imagem_original": "https://animefire.plus/img/animes/saenai-heroine-no-sodatekata.webp",
      "imagem_pasta": "https://animefire.plus/img/animes/saenai-heroine-no-sodatekata/",
      "secao": "legendados",
      "pagina": 145,
      "total_episodios": 11,
      "link_video": "https://animefire.plus/video/saenai-heroine-no-sodatekata"
    },
    {
      "id": 3188,
      "nome": "Saihate no Paladin (Dublado)",
      "link": "https://animefire.plus/animes/saihate-no-paladin-dublado-todos-os-episodios",
      "texto_original": "Saihate no Paladin (Dublado)",
      "rating": 6.88,
      "classificacao_etaria": "A14",
      "imagem_original": "https://animefire.plus/img/animes/saihate-no-paladin.webp",
      "imagem_pasta": "https://animefire.plus/img/animes/saihate-no-paladin/",
      "secao": "dublados,legendados",
      "pagina": 14,
      "total_episodios": 12,
      "link_video": "https://animefire.plus/video/saihate-no-paladin-dublado"
    },
    {
      "id": 3189,
      "nome": "Saihate no Paladin: Tetsusabi no Yama no Ou (Dublado)",
      "link": "https://animefire.plus/animes/saihate-no-paladin-tetsusabi-no-yama-no-ou-dublado-todos-os-episodios",
      "texto_original": "Saihate no Paladin: Tetsusabi no Yama no Ou (Dublado)",
      "rating": 7.43,
      "classificacao_etaria": "A14",
      "imagem_original": "https://animefire.plus/img/animes/saihate-no-paladin-tetsusabi-no-yama-no-ou.webp",
      "imagem_pasta": "https://animefire.plus/img/animes/saihate-no-paladin-tetsusabi-no-yama-no-ou/",
      "secao": "dublados,legendados",
      "pagina": 5,
      "total_episodios": 12,
      "link_video": "https://animefire.plus/video/saihate-no-paladin-tetsusabi-no-yama-no-ou-dublado"
    },
    {
      "id": 3191,
      "nome": "Saijaku Tamer wa Gomi Hiroi no Tabi wo Hajimemashita. (Dublado)",
      "link": "https://animefire.plus/animes/saijaku-tamer-wa-gomi-hiroi-no-tabi-wo-hajimemashita-dublado-todos-os-episodios",
      "texto_original": "Saijaku Tamer wa Gomi Hiroi no Tabi wo Hajimemashita. (Dublado)",
      "rating": 7.56,
      "classificacao_etaria": "A14",
      "imagem_original": "https://animefire.plus/img/animes/saijaku-tamer-wa-gomi-hiroi-no-tabi-wo-hajimemashita.webp",
      "imagem_pasta": "https://animefire.plus/img/animes/saijaku-tamer-wa-gomi-hiroi-no-tabi-wo-hajimemashita/",
      "secao": "dublados,legendados",
      "pagina": 4,
      "total_episodios": 12,
      "link_video": "https://animefire.plus/video/saijaku-tamer-wa-gomi-hiroi-no-tabi-wo-hajimemashita-dublado"
    },
    {
      "id": 3192,
      "nome": "Saiki Kusuo no Ψ-nan",
      "link": "https://animefire.plus/animes/saiki-kusuo-no--nan-todos-os-episodios",
      "texto_original": "Saiki Kusuo no Ψ-nan",
      "rating": 8.49,
      "classificacao_etaria": "A14",
      "imagem_original": "https://animefire.plus/img/animes/saiki-kusuo-no--nan.webp",
      "imagem_pasta": "https://animefire.plus/img/animes/saiki-kusuo-no--nan/",
      "secao": "legendados",
      "pagina": 58,
      "total_episodios": 4,
      "link_video": "https://animefire.plus/video/saiki-kusuo-no--nan"
    },
    {
      "id": 3194,
      "nome": "Saiki Kusuo no Ψ-nan: Kanketsu-hen",
      "link": "https://animefire.plus/animes/saiki-kusuo-no--nan-kanketsu-hen-todos-os-episodios",
      "texto_original": "Saiki Kusuo no Ψ-nan: Kanketsu-hen",
      "rating": 8.29,
      "classificacao_etaria": "A14",
      "imagem_original": "https://animefire.plus/img/animes/saiki-kusuo-no--nan-kanketsu-hen.webp",
      "imagem_pasta": "https://animefire.plus/img/animes/saiki-kusuo-no--nan-kanketsu-hen/",
      "secao": "legendados",
      "pagina": 116,
      "total_episodios": 2,
      "link_video": "https://animefire.plus/video/saiki-kusuo-no--nan-kanketsu-hen"
    },
    {
      "id": 3195,
      "nome": "Saiki Kusuo no Ψ-nan: Ψ-shidou-hen (Dublado)",
      "link": "https://animefire.plus/animes/saiki-kusuo-no--nan--shidou-hen-dublado-todos-os-episodios",
      "texto_original": "Saiki Kusuo no Ψ-nan: Ψ-shidou-hen (Dublado)",
      "rating": 8.18,
      "classificacao_etaria": "A14",
      "imagem_original": "https://animefire.plus/img/animes/saiki-kusuo-no--nan--shidou-hen.webp",
      "imagem_pasta": "https://animefire.plus/img/animes/saiki-kusuo-no--nan--shidou-hen/",
      "secao": "dublados",
      "pagina": 20,
      "total_episodios": 6,
      "link_video": "https://animefire.plus/video/saiki-kusuo-no--nan--shidou-hen-dublado"
    },
    {
      "id": 3196,
      "nome": "Saikin Yatotta Maid ga Ayashii",
      "link": "https://animefire.plus/animes/saikin-yatotta-maid-ga-ayashii-todos-os-episodios",
      "texto_original": "Saikin Yatotta Maid ga Ayashii",
      "rating": 6.57,
      "classificacao_etaria": "A14",
      "imagem_original": "https://animefire.plus/img/animes/saikin-yatotta-maid-ga-ayashii.webp",
      "imagem_pasta": "https://animefire.plus/img/animes/saikin-yatotta-maid-ga-ayashii/",
      "secao": "legendados",
      "pagina": 30,
      "total_episodios": 11,
      "link_video": "https://animefire.plus/video/saikin-yatotta-maid-ga-ayashii"
    },
    {
      "id": 3197,
      "nome": "Saikin, Imouto no Yousu ga Chotto Okashiinda ga.",
      "link": "https://animefire.plus/animes/saikin-imouto-no-yousu-ga-chotto-okashiinda-ga-todos-os-episodios",
      "texto_original": "Saikin, Imouto no Yousu ga Chotto Okashiinda ga.",
      "rating": 6.38,
      "classificacao_etaria": "A14",
      "imagem_original": "https://animefire.plus/img/animes/saikin-imouto-no-yousu-ga-chotto-okashiinda-ga.webp",
      "imagem_pasta": "https://animefire.plus/img/animes/saikin-imouto-no-yousu-ga-chotto-okashiinda-ga/",
      "secao": "legendados",
      "pagina": 112,
      "total_episodios": 12,
      "link_video": "https://animefire.plus/video/saikin-imouto-no-yousu-ga-chotto-okashiinda-ga"
    },
    {
      "id": 3198,
      "nome": "Saikyou no Ousama, Nidome no Jinsei wa Nani wo Suru?",
      "link": "https://animefire.plus/animes/saikyou-no-ousama-nidome-no-jinsei-wa-nani-wo-suru-todos-os-episodios",
      "texto_original": "Saikyou no Ousama, Nidome no Jinsei wa Nani wo Suru?",
      "rating": 6.14,
      "classificacao_etaria": "A14",
      "imagem_original": "https://animefire.plus/img/animes/saikyou-no-ousama-nidome-no-jinsei-wa-nani-wo-suru.webp",
      "imagem_pasta": "https://animefire.plus/img/animes/saikyou-no-ousama-nidome-no-jinsei-wa-nani-wo-suru/",
      "secao": "legendados",
      "pagina": 6,
      "total_episodios": 12,
      "link_video": "https://animefire.plus/video/saikyou-no-ousama-nidome-no-jinsei-wa-nani-wo-suru"
    },
    {
      "id": 3199,
      "nome": "Saikyou no Shienshoku \"Wajutsushi\" de Aru Ore wa Sekai Saikyou Clan wo Shitagaeru",
      "link": "https://animefire.plus/animes/saikyou-no-shienshoku-wajutsushi-de-aru-ore-wa-sekai-saikyou-clan-wo-shitagaeru-todos-os-episodios",
      "texto_original": "Saikyou no Shienshoku \"Wajutsushi\" de Aru Ore wa Sekai Saikyou Clan wo Shitagaeru",
      "rating": 7.6,
      "classificacao_etaria": "A14",
      "imagem_original": "https://animefire.plus/img/animes/saikyou-no-shienshoku-wajutsushi-de-aru-ore-wa-sekai-saikyou-clan-wo-shitagaeru.webp",
      "imagem_pasta": "https://animefire.plus/img/animes/saikyou-no-shienshoku-wajutsushi-de-aru-ore-wa-sekai-saikyou-clan-wo-shitagaeru/",
      "secao": "legendados",
      "pagina": 11,
      "total_episodios": 12,
      "link_video": "https://animefire.plus/video/saikyou-no-shienshoku-wajutsushi-de-aru-ore-wa-sekai-saikyou-clan-wo-shitagaeru"
    }
  ],
  "pagination": {
    "current_page": 80,
    "per_page": 20,
    "total_items": 2189,
    "total_pages": 110,
    "has_next": true,
    "has_prev": true
  }
}
