{
  "message": "Animes com 2 a 12 episódios",
  "episode_range": {
    "min": 2,
    "max": 12
  },
  "data": [
    {
      "id": 921,
      "nome": "Edomae Elf",
      "link": "https://animefire.plus/animes/edomae-elf-todos-os-episodios",
      "texto_original": "Edomae Elf",
      "rating": 7.25,
      "classificacao_etaria": "A14",
      "imagem_original": "https://animefire.plus/img/animes/edomae-elf.jpg",
      "imagem_pasta": "https://animefire.plus/img/animes/edomae-elf/",
      "secao": "legendados",
      "pagina": 23,
      "total_episodios": 12,
      "link_video": "https://animefire.plus/video/edomae-elf"
    },
    {
      "id": 922,
      "nome": "ef: A Tale of Melodies.",
      "link": "https://animefire.plus/animes/ef-a-tale-of-melodies-todos-os-episodios",
      "texto_original": "ef: A Tale of Melodies.",
      "rating": 8.09,
      "classificacao_etaria": "A14",
      "imagem_original": "https://animefire.plus/img/animes/ef-a-tale-of-melodies.webp",
      "imagem_pasta": "https://animefire.plus/img/animes/ef-a-tale-of-melodies/",
      "secao": "legendados",
      "pagina": 168,
      "total_episodios": 12,
      "link_video": "https://animefire.plus/video/ef-a-tale-of-melodies"
    },
    {
      "id": 923,
      "nome": "ef: A Tale of Memories.",
      "link": "https://animefire.plus/animes/ef-a-tale-of-memories-todos-os-episodios",
      "texto_original": "ef: A Tale of Memories.",
      "rating": 8.02,
      "classificacao_etaria": "A14",
      "imagem_original": "https://animefire.plus/img/animes/ef-a-tale-of-memories.webp",
      "imagem_pasta": "https://animefire.plus/img/animes/ef-a-tale-of-memories/",
      "secao": "legendados",
      "pagina": 173,
      "total_episodios": 12,
      "link_video": "https://animefire.plus/video/ef-a-tale-of-memories"
    },
    {
      "id": 924,
      "nome": "Egao no Daika",
      "link": "https://animefire.plus/animes/egao-no-daika-todos-os-episodios",
      "texto_original": "Egao no Daika",
      "rating": 6.06,
      "classificacao_etaria": "A14",
      "imagem_original": "https://animefire.plus/img/animes/egao-no-daika.webp",
      "imagem_pasta": "https://animefire.plus/img/animes/egao-no-daika/",
      "secao": "legendados",
      "pagina": 98,
      "total_episodios": 12,
      "link_video": "https://animefire.plus/video/egao-no-daika"
    },
    {
      "id": 925,
      "nome": "Eightman After (Dublado)",
      "link": "https://animefire.plus/animes/eightman-after-dublado-todos-os-episodios",
      "texto_original": "Eightman After (Dublado)",
      "rating": 6.3,
      "classificacao_etaria": "A16",
      "imagem_original": "https://animefire.plus/img/animes/eightman-after.webp",
      "imagem_pasta": "https://animefire.plus/img/animes/eightman-after/",
      "secao": "dublados",
      "pagina": 27,
      "total_episodios": 4,
      "link_video": "https://animefire.plus/video/eightman-after-dublado"
    },
    {
      "id": 926,
      "nome": "Eikoku Koi Monogatari Emma",
      "link": "https://animefire.plus/animes/eikoku-koi-monogatari-emma-todos-os-episodios",
      "texto_original": "Eikoku Koi Monogatari Emma",
      "rating": 7.68,
      "classificacao_etaria": null,
      "imagem_original": "https://animefire.plus/img/animes/eikoku-koi-monogatari-emma.webp",
      "imagem_pasta": "https://animefire.plus/img/animes/eikoku-koi-monogatari-emma/",
      "secao": "legendados",
      "pagina": 55,
      "total_episodios": 12,
      "link_video": "https://animefire.plus/video/eikoku-koi-monogatari-emma"
    },
    {
      "id": 928,
      "nome": "Eiyuu Kyoushitsu (Dublado)",
      "link": "https://animefire.plus/animes/eiyuu-kyoushitsu-dublado-todos-os-episodios",
      "texto_original": "Eiyuu Kyoushitsu (Dublado)",
      "rating": 6.05,
      "classificacao_etaria": "A14",
      "imagem_original": "https://animefire.plus/img/animes/eiyuu-kyoushitsu.webp",
      "imagem_pasta": "https://animefire.plus/img/animes/eiyuu-kyoushitsu/",
      "secao": "dublados,legendados,lancamentos",
      "pagina": 6,
      "total_episodios": 12,
      "link_video": "https://animefire.plus/video/eiyuu-kyoushitsu-dublado"
    },
    {
      "id": 929,
      "nome": "Eiyuuou, Bu wo Kiwameru Tame Tenseisu: Soshite, Sekai Saikyou no Minarai Kishi♀",
      "link": "https://animefire.plus/animes/eiyuuou-bu-wo-kiwameru-tame-tenseisu-soshite-sekai-saikyou-no-minarai-kishi-todos-os-episodios",
      "texto_original": "Eiyuuou, Bu wo Kiwameru Tame Tenseisu: Soshite, Sekai Saikyou no Minarai Kishi♀",
      "rating": 6.56,
      "classificacao_etaria": "A14",
      "imagem_original": "https://animefire.plus/img/animes/eiyuuou-bu-wo-kiwameru-tame-tenseisu-soshite-sekai-saikyou-no-minarai-kishi.webp",
      "imagem_pasta": "https://animefire.plus/img/animes/eiyuuou-bu-wo-kiwameru-tame-tenseisu-soshite-sekai-saikyou-no-minarai-kishi/",
      "secao": "legendados",
      "pagina": 27,
      "total_episodios": 12,
      "link_video": "https://animefire.plus/video/eiyuuou-bu-wo-kiwameru-tame-tenseisu-soshite-sekai-saikyou-no-minarai-kishi"
    },
    {
      "id": 930,
      "nome": "Eizouken ni wa Te wo Dasu na! (Dublado)",
      "link": "https://animefire.plus/animes/eizouken-ni-wa-te-wo-dasu-na-dublado-todos-os-episodios",
      "texto_original": "Eizouken ni wa Te wo Dasu na! (Dublado)",
      "rating": 8.14,
      "classificacao_etaria": "A14",
      "imagem_original": "https://animefire.plus/img/animes/eizouken-ni-wa-te-wo-dasu-na.webp",
      "imagem_pasta": "https://animefire.plus/img/animes/eizouken-ni-wa-te-wo-dasu-na/",
      "secao": "dublados,legendados",
      "pagina": 12,
      "total_episodios": 12,
      "link_video": "https://animefire.plus/video/eizouken-ni-wa-te-wo-dasu-na-dublado"
    },
    {
      "id": 934,
      "nome": "El Hazard: The Magnificent World",
      "link": "https://animefire.plus/animes/el-hazard-the-magnificent-world-todos-os-episodios",
      "texto_original": "El Hazard: The Magnificent World",
      "rating": 7.34,
      "classificacao_etaria": "A14",
      "imagem_original": "https://animefire.plus/img/animes/el-hazard-the-magnificent-world.webp",
      "imagem_pasta": "https://animefire.plus/img/animes/el-hazard-the-magnificent-world/",
      "secao": "legendados",
      "pagina": 63,
      "total_episodios": 7,
      "link_video": "https://animefire.plus/video/el-hazard-the-magnificent-world"
    },
    {
      "id": 940,
      "nome": "Elf-san wa Yaserarenai.",
      "link": "https://animefire.plus/animes/elf-san-wa-yaserarenai-todos-os-episodios",
      "texto_original": "Elf-san wa Yaserarenai.",
      "rating": 5.6,
      "classificacao_etaria": "A18",
      "imagem_original": "https://animefire.plus/img/animes/elf-san-wa-yaserarenai.webp",
      "imagem_pasta": "https://animefire.plus/img/animes/elf-san-wa-yaserarenai/",
      "secao": "legendados",
      "pagina": 12,
      "total_episodios": 12,
      "link_video": "https://animefire.plus/video/elf-san-wa-yaserarenai"
    },
    {
      "id": 942,
      "nome": "Elsword: El-ui Yeoin",
      "link": "https://animefire.plus/animes/elsword-el-ui-yeoin-todos-os-episodios",
      "texto_original": "Elsword: El-ui Yeoin",
      "rating": 6.26,
      "classificacao_etaria": "A14",
      "imagem_original": "https://animefire.plus/img/animes/elsword-el-ui-yeoin.webp",
      "imagem_pasta": "https://animefire.plus/img/animes/elsword-el-ui-yeoin/",
      "secao": "legendados",
      "pagina": 168,
      "total_episodios": 2,
      "link_video": "https://animefire.plus/video/elsword-el-ui-yeoin"
    },
    {
      "id": 943,
      "nome": "Emiya-san Chi no Kyou no Gohan",
      "link": "https://animefire.plus/animes/emiya-san-chi-no-kyou-no-gohan-todos-os-episodios",
      "texto_original": "Emiya-san Chi no Kyou no Gohan",
      "rating": 7.91,
      "classificacao_etaria": "A14",
      "imagem_original": "https://animefire.plus/img/animes/emiya-san-chi-no-kyou-no-gohan.webp",
      "imagem_pasta": "https://animefire.plus/img/animes/emiya-san-chi-no-kyou-no-gohan/",
      "secao": "legendados",
      "pagina": 162,
      "total_episodios": 5,
      "link_video": "https://animefire.plus/video/emiya-san-chi-no-kyou-no-gohan"
    },
    {
      "id": 944,
      "nome": "Endride",
      "link": "https://animefire.plus/animes/endride-todos-os-episodios",
      "texto_original": "Endride",
      "rating": 5.76,
      "classificacao_etaria": "A14",
      "imagem_original": "https://animefire.plus/img/animes/endride.webp",
      "imagem_pasta": "https://animefire.plus/img/animes/endride/",
      "secao": "legendados",
      "pagina": 159,
      "total_episodios": 5,
      "link_video": "https://animefire.plus/video/endride"
    },
    {
      "id": 945,
      "nome": "Endro~!",
      "link": "https://animefire.plus/animes/endro-todos-os-episodios",
      "texto_original": "Endro~!",
      "rating": 6.95,
      "classificacao_etaria": "A14",
      "imagem_original": "https://animefire.plus/img/animes/endro.webp",
      "imagem_pasta": "https://animefire.plus/img/animes/endro/",
      "secao": "legendados",
      "pagina": 90,
      "total_episodios": 12,
      "link_video": "https://animefire.plus/video/endro"
    },
    {
      "id": 948,
      "nome": "Enen no Shouboutai: San no Shou (Dublado)",
      "link": "https://animefire.plus/animes/enen-no-shouboutai-san-no-shou-dublado-todos-os-episodios",
      "texto_original": "Enen no Shouboutai: San no Shou (Dublado)",
      "rating": 7.71,
      "classificacao_etaria": "A14",
      "imagem_original": "https://animefire.plus/img/animes/enen-no-shouboutai-san-no-shou.webp",
      "imagem_pasta": "https://animefire.plus/img/animes/enen-no-shouboutai-san-no-shou/",
      "secao": "dublados,legendados,lancamentos",
      "pagina": 1,
      "total_episodios": 12,
      "link_video": "https://animefire.plus/video/enen-no-shouboutai-san-no-shou-dublado"
    },
    {
      "id": 950,
      "nome": "Ensemble Stars!",
      "link": "https://animefire.plus/animes/ensemble-stars-todos-os-episodios",
      "texto_original": "Ensemble Stars!",
      "rating": 6.83,
      "classificacao_etaria": "A14",
      "imagem_original": "https://animefire.plus/img/animes/ensemble-stars.webp",
      "imagem_pasta": "https://animefire.plus/img/animes/ensemble-stars/",
      "secao": "legendados",
      "pagina": 159,
      "total_episodios": 8,
      "link_video": "https://animefire.plus/video/ensemble-stars"
    },
    {
      "id": 953,
      "nome": "Eromanga-sensei",
      "link": "https://animefire.plus/animes/eromanga-sensei-todos-os-episodios",
      "texto_original": "Eromanga-sensei",
      "rating": 6.79,
      "classificacao_etaria": "A14",
      "imagem_original": "https://animefire.plus/img/animes/eromanga-sensei.webp",
      "imagem_pasta": "https://animefire.plus/img/animes/eromanga-sensei/",
      "secao": "legendados",
      "pagina": 108,
      "total_episodios": 12,
      "link_video": "https://animefire.plus/video/eromanga-sensei"
    },
    {
      "id": 954,
      "nome": "Escha & Logy no Atelier: Tasogare no Sora no Renkinjutsushi",
      "link": "https://animefire.plus/animes/escha-logy-no-atelier-tasogare-no-sora-no-renkinjutsushi-todos-os-episodios",
      "texto_original": "Escha & Logy no Atelier: Tasogare no Sora no Renkinjutsushi",
      "rating": 6.5,
      "classificacao_etaria": "A14",
      "imagem_original": "https://animefire.plus/img/animes/escha-logy-no-atelier-tasogare-no-sora-no-renkinjutsushi.webp",
      "imagem_pasta": "https://animefire.plus/img/animes/escha-logy-no-atelier-tasogare-no-sora-no-renkinjutsushi/",
      "secao": "legendados",
      "pagina": 171,
      "total_episodios": 12,
      "link_video": "https://animefire.plus/video/escha-logy-no-atelier-tasogare-no-sora-no-renkinjutsushi"
    },
    {
      "id": 955,
      "nome": "Escha Chron",
      "link": "https://animefire.plus/animes/escha-chron-todos-os-episodios",
      "texto_original": "Escha Chron",
      "rating": 6.54,
      "classificacao_etaria": "A14",
      "imagem_original": "https://animefire.plus/img/animes/escha-chron.webp",
      "imagem_pasta": "https://animefire.plus/img/animes/escha-chron/",
      "secao": "legendados",
      "pagina": 65,
      "total_episodios": 2,
      "link_video": "https://animefire.plus/video/escha-chron"
    }
  ],
  "pagination": {
    "current_page": 23,
    "per_page": 20,
    "total_items": 2189,
    "total_pages": 110,
    "has_next": true,
    "has_prev": true
  }
}
