{
  "message": "Animes com 2 a 12 episódios",
  "episode_range": {
    "min": 2,
    "max": 12
  },
  "data": [
    {
      "id": 544,
      "nome": "Bye Bye, Earth 2nd Season",
      "link": "https://animefire.plus/animes/bye-bye-earth-2nd-season-todos-os-episodios",
      "texto_original": "Bye Bye, Earth 2nd Season",
      "rating": 6.2,
      "classificacao_etaria": "A14",
      "imagem_original": "https://animefire.plus/img/animes/bye-bye-earth-2nd-season.webp",
      "imagem_pasta": "https://animefire.plus/img/animes/bye-bye-earth-2nd-season/",
      "secao": "legendados",
      "pagina": 5,
      "total_episodios": 10,
      "link_video": "https://animefire.plus/video/bye-bye-earth-2nd-season"
    },
    {
      "id": 545,
      "nome": "C Danchi (Dublado)",
      "link": "https://animefire.plus/animes/c-danchi-dublado-todos-os-episodios",
      "texto_original": "C Danchi (Dublado)",
      "rating": 5.44,
      "classificacao_etaria": "A16",
      "imagem_original": "https://animefire.plus/img/animes/c-danchi.webp",
      "imagem_pasta": "https://animefire.plus/img/animes/c-danchi/",
      "secao": "dublados,legendados",
      "pagina": 9,
      "total_episodios": 4,
      "link_video": "https://animefire.plus/video/c-danchi-dublado"
    },
    {
      "id": 546,
      "nome": "C: The Money Of Soul And Possibility Control",
      "link": "https://animefire.plus/animes/c-the-money-of-soul-and-possibility-control-todos-os-episodios",
      "texto_original": "C: The Money Of Soul And Possibility Control",
      "rating": 7.33,
      "classificacao_etaria": "A14",
      "imagem_original": "https://animefire.plus/img/animes/c-the-money-of-soul-and-possibility-control.webp",
      "imagem_pasta": "https://animefire.plus/img/animes/c-the-money-of-soul-and-possibility-control/",
      "secao": "legendados",
      "pagina": 96,
      "total_episodios": 11,
      "link_video": "https://animefire.plus/video/c-the-money-of-soul-and-possibility-control"
    },
    {
      "id": 547,
      "nome": "Caligula",
      "link": "https://animefire.plus/animes/caligula-todos-os-episodios",
      "texto_original": "Caligula",
      "rating": 6.17,
      "classificacao_etaria": "A14",
      "imagem_original": "https://animefire.plus/img/animes/caligula.webp",
      "imagem_pasta": "https://animefire.plus/img/animes/caligula/",
      "secao": "legendados",
      "pagina": 117,
      "total_episodios": 12,
      "link_video": "https://animefire.plus/video/caligula"
    },
    {
      "id": 554,
      "nome": "Cannon Busters",
      "link": "https://animefire.plus/animes/cannon-busters-todos-os-episodios",
      "texto_original": "Cannon Busters",
      "rating": 6.47,
      "classificacao_etaria": "A16",
      "imagem_original": "https://animefire.plus/img/animes/cannon-busters.webp",
      "imagem_pasta": "https://animefire.plus/img/animes/cannon-busters/",
      "secao": "legendados",
      "pagina": 170,
      "total_episodios": 12,
      "link_video": "https://animefire.plus/video/cannon-busters"
    },
    {
      "id": 560,
      "nome": "Caramel Honey",
      "link": "https://animefire.plus/animes/caramel-honey-todos-os-episodios",
      "texto_original": "Caramel Honey",
      "rating": 6.86,
      "classificacao_etaria": "A14",
      "imagem_original": "https://animefire.plus/img/animes/caramel-honey.webp",
      "imagem_pasta": "https://animefire.plus/img/animes/caramel-honey/",
      "secao": "legendados",
      "pagina": 59,
      "total_episodios": 3,
      "link_video": "https://animefire.plus/video/caramel-honey"
    },
    {
      "id": 569,
      "nome": "Cardfight!! Vanguard Gaiden: If",
      "link": "https://animefire.plus/animes/cardfight-vanguard-gaiden-if-todos-os-episodios",
      "texto_original": "Cardfight!! Vanguard Gaiden: If",
      "rating": 6.41,
      "classificacao_etaria": "A14",
      "imagem_original": "https://animefire.plus/img/animes/cardfight-vanguard-gaiden-if.webp",
      "imagem_pasta": "https://animefire.plus/img/animes/cardfight-vanguard-gaiden-if/",
      "secao": "legendados,lancamentos",
      "pagina": 61,
      "total_episodios": 4,
      "link_video": "https://animefire.plus/video/cardfight-vanguard-gaiden-if"
    },
    {
      "id": 577,
      "nome": "Cardfight!! Vanguard: overDress",
      "link": "https://animefire.plus/animes/cardfight-vanguard-overdress-todos-os-episodios",
      "texto_original": "Cardfight!! Vanguard: overDress",
      "rating": 5.97,
      "classificacao_etaria": "A14",
      "imagem_original": "https://animefire.plus/img/animes/cardfight-vanguard-overdress.webp",
      "imagem_pasta": "https://animefire.plus/img/animes/cardfight-vanguard-overdress/",
      "secao": "legendados",
      "pagina": 46,
      "total_episodios": 12,
      "link_video": "https://animefire.plus/video/cardfight-vanguard-overdress"
    },
    {
      "id": 580,
      "nome": "Cardfight!! Vanguard: will+Dress Season 2",
      "link": "https://animefire.plus/animes/cardfight-vanguard-will-dress-season-2-todos-os-episodios",
      "texto_original": "Cardfight!! Vanguard: will+Dress Season 2",
      "rating": 6.73,
      "classificacao_etaria": "A14",
      "imagem_original": "https://animefire.plus/img/animes/cardfight-vanguard-will-dress-season-2.webp",
      "imagem_pasta": "https://animefire.plus/img/animes/cardfight-vanguard-will-dress-season-2/",
      "secao": "legendados,lancamentos",
      "pagina": 25,
      "total_episodios": 4,
      "link_video": "https://animefire.plus/video/cardfight-vanguard-will-dress-season-2"
    },
    {
      "id": 581,
      "nome": "Cardfight!! Vanguard: will+Dress Season 3",
      "link": "https://animefire.plus/animes/cardfight-vanguard-will-dress-season-3-todos-os-episodios",
      "texto_original": "Cardfight!! Vanguard: will+Dress Season 3",
      "rating": 6.57,
      "classificacao_etaria": "A14",
      "imagem_original": "https://animefire.plus/img/animes/cardfight-vanguard-will-dress-season-3.jpg",
      "imagem_pasta": "https://animefire.plus/img/animes/cardfight-vanguard-will-dress-season-3/",
      "secao": "legendados,lancamentos",
      "pagina": 22,
      "total_episodios": 9,
      "link_video": "https://animefire.plus/video/cardfight-vanguard-will-dress-season-3"
    },
    {
      "id": 582,
      "nome": "Carnival Phantasm",
      "link": "https://animefire.plus/animes/carnival-phantasm-todos-os-episodios",
      "texto_original": "Carnival Phantasm",
      "rating": 7.95,
      "classificacao_etaria": "A14",
      "imagem_original": "https://animefire.plus/img/animes/carnival-phantasm.webp",
      "imagem_pasta": "https://animefire.plus/img/animes/carnival-phantasm/",
      "secao": "legendados",
      "pagina": 131,
      "total_episodios": 12,
      "link_video": "https://animefire.plus/video/carnival-phantasm"
    },
    {
      "id": 585,
      "nome": "Casshern: Robot Hunter",
      "link": "https://animefire.plus/animes/casshern-robot-hunter-todos-os-episodios",
      "texto_original": "Casshern: Robot Hunter",
      "rating": 6.36,
      "classificacao_etaria": "A14",
      "imagem_original": "https://animefire.plus/img/animes/casshern-robot-hunter.webp",
      "imagem_pasta": "https://animefire.plus/img/animes/casshern-robot-hunter/",
      "secao": "legendados",
      "pagina": 55,
      "total_episodios": 4,
      "link_video": "https://animefire.plus/video/casshern-robot-hunter"
    },
    {
      "id": 587,
      "nome": "Centaur no Nayami",
      "link": "https://animefire.plus/animes/centaur-no-nayami-todos-os-episodios",
      "texto_original": "Centaur no Nayami",
      "rating": 6.54,
      "classificacao_etaria": "A18",
      "imagem_original": "https://animefire.plus/img/animes/centaur-no-nayami.webp",
      "imagem_pasta": "https://animefire.plus/img/animes/centaur-no-nayami/",
      "secao": "legendados",
      "pagina": 94,
      "total_episodios": 12,
      "link_video": "https://animefire.plus/video/centaur-no-nayami"
    },
    {
      "id": 588,
      "nome": "Cestvs: The Roman Fighter",
      "link": "https://animefire.plus/animes/cestvs-the-roman-fighter-todos-os-episodios",
      "texto_original": "Cestvs: The Roman Fighter",
      "rating": 5.96,
      "classificacao_etaria": "A14",
      "imagem_original": "https://animefire.plus/img/animes/cestvs-the-roman-fighter.webp",
      "imagem_pasta": "https://animefire.plus/img/animes/cestvs-the-roman-fighter/",
      "secao": "legendados",
      "pagina": 45,
      "total_episodios": 11,
      "link_video": "https://animefire.plus/video/cestvs-the-roman-fighter"
    },
    {
      "id": 589,
      "nome": "Chain Chronicle: Haecceitas no Hikari",
      "link": "https://animefire.plus/animes/chain-chronicle-haecceitas-no-hikari-todos-os-episodios",
      "texto_original": "Chain Chronicle: Haecceitas no Hikari",
      "rating": 6.79,
      "classificacao_etaria": "A14",
      "imagem_original": "https://animefire.plus/img/animes/chain-chronicle-haecceitas-no-hikari.webp",
      "imagem_pasta": "https://animefire.plus/img/animes/chain-chronicle-haecceitas-no-hikari/",
      "secao": "legendados",
      "pagina": 95,
      "total_episodios": 12,
      "link_video": "https://animefire.plus/video/chain-chronicle-haecceitas-no-hikari"
    },
    {
      "id": 590,
      "nome": "Chainsaw Man (Dublado)",
      "link": "https://animefire.plus/animes/chainsaw-man-dublado-todos-os-episodios",
      "texto_original": "Chainsaw Man (Dublado)",
      "rating": 8.44,
      "classificacao_etaria": "A16",
      "imagem_original": "https://animefire.plus/img/animes/chainsaw-man.webp",
      "imagem_pasta": "https://animefire.plus/img/animes/chainsaw-man/",
      "secao": "dublados,legendados",
      "pagina": 9,
      "total_episodios": 12,
      "link_video": "https://animefire.plus/video/chainsaw-man-dublado"
    },
    {
      "id": 591,
      "nome": "Chao Neng Lifang: Chaofan Pian",
      "link": "https://animefire.plus/animes/chao-neng-lifang-chaofan-pian-todos-os-episodios",
      "texto_original": "Chao Neng Lifang: Chaofan Pian",
      "rating": 7.23,
      "classificacao_etaria": "A14",
      "imagem_original": "https://animefire.plus/img/animes/chao-neng-lifang-chaofan-pian.webp",
      "imagem_pasta": "https://animefire.plus/img/animes/chao-neng-lifang-chaofan-pian/",
      "secao": "legendados",
      "pagina": 3,
      "total_episodios": 12,
      "link_video": "https://animefire.plus/video/chao-neng-lifang-chaofan-pian"
    },
    {
      "id": 592,
      "nome": "Chao You Bing",
      "link": "https://animefire.plus/animes/chao-you-bing-todos-os-episodios",
      "texto_original": "Chao You Bing",
      "rating": 5.86,
      "classificacao_etaria": "A16",
      "imagem_original": "https://animefire.plus/img/animes/chao-you-bing.webp",
      "imagem_pasta": "https://animefire.plus/img/animes/chao-you-bing/",
      "secao": "legendados",
      "pagina": 163,
      "total_episodios": 4,
      "link_video": "https://animefire.plus/video/chao-you-bing"
    },
    {
      "id": 594,
      "nome": "ChäoS;HEAd",
      "link": "https://animefire.plus/animes/chaeos-head-todos-os-episodios",
      "texto_original": "ChäoS;HEAd",
      "rating": 6.47,
      "classificacao_etaria": "A16",
      "imagem_original": "https://animefire.plus/img/animes/chaeos-head.webp",
      "imagem_pasta": "https://animefire.plus/img/animes/chaeos-head/",
      "secao": "legendados",
      "pagina": 155,
      "total_episodios": 12,
      "link_video": "https://animefire.plus/video/chaeos-head"
    },
    {
      "id": 597,
      "nome": "Cheat Kusushi no Slow Life: Isekai ni Tsukurou Drugstore",
      "link": "https://animefire.plus/animes/cheat-kusushi-no-slow-life-isekai-ni-tsukurou-drugstore-todos-os-episodios",
      "texto_original": "Cheat Kusushi no Slow Life: Isekai ni Tsukurou Drugstore",
      "rating": 6.45,
      "classificacao_etaria": "A14",
      "imagem_original": "https://animefire.plus/img/animes/cheat-kusushi-no-slow-life-isekai-ni-tsukurou-drugstore.webp",
      "imagem_pasta": "https://animefire.plus/img/animes/cheat-kusushi-no-slow-life-isekai-ni-tsukurou-drugstore/",
      "secao": "legendados",
      "pagina": 41,
      "total_episodios": 12,
      "link_video": "https://animefire.plus/video/cheat-kusushi-no-slow-life-isekai-ni-tsukurou-drugstore"
    }
  ],
  "pagination": {
    "current_page": 14,
    "per_page": 20,
    "total_items": 2189,
    "total_pages": 110,
    "has_next": true,
    "has_prev": true
  }
}
