{
  "message": "Animes com 2 a 12 episódios",
  "episode_range": {
    "min": 2,
    "max": 12
  },
  "data": [
    {
      "id": 649,
      "nome": "Chuuzenji-sensei Mononoke Kougiroku: Sensei ga Nazo wo Hodoite Shimau kara.",
      "link": "https://animefire.plus/animes/chuuzenji-sensei-mononoke-kougiroku-sensei-ga-nazo-wo-hodoite-shimau-kara-todos-os-episodios",
      "texto_original": "Chuuzenji-sensei Mononoke Kougiroku: Sensei ga Nazo wo Hodoite Shimau kara.",
      "rating": 6.52,
      "classificacao_etaria": "A14",
      "imagem_original": "https://animefire.plus/img/animes/chuuzenji-sensei-mononoke-kougiroku-sensei-ga-nazo-wo-hodoite-shimau-kara.webp",
      "imagem_pasta": "https://animefire.plus/img/animes/chuuzenji-sensei-mononoke-kougiroku-sensei-ga-nazo-wo-hodoite-shimau-kara/",
      "secao": "legendados",
      "pagina": 4,
      "total_episodios": 12,
      "link_video": "https://animefire.plus/video/chuuzenji-sensei-mononoke-kougiroku-sensei-ga-nazo-wo-hodoite-shimau-kara"
    },
    {
      "id": 654,
      "nome": "Circlet Princess",
      "link": "https://animefire.plus/animes/circlet-princess-todos-os-episodios",
      "texto_original": "Circlet Princess",
      "rating": 6,
      "classificacao_etaria": "A14",
      "imagem_original": "https://animefire.plus/img/animes/circlet-princess.webp",
      "imagem_pasta": "https://animefire.plus/img/animes/circlet-princess/",
      "secao": "legendados",
      "pagina": 111,
      "total_episodios": 12,
      "link_video": "https://animefire.plus/video/circlet-princess"
    },
    {
      "id": 655,
      "nome": "Citrus",
      "link": "https://animefire.plus/animes/citrus-todos-os-episodios",
      "texto_original": "Citrus",
      "rating": 6.77,
      "classificacao_etaria": "A14",
      "imagem_original": "https://animefire.plus/img/animes/citrus.webp",
      "imagem_pasta": "https://animefire.plus/img/animes/citrus/",
      "secao": "legendados",
      "pagina": 100,
      "total_episodios": 12,
      "link_video": "https://animefire.plus/video/citrus"
    },
    {
      "id": 658,
      "nome": "City the Animation (Dublado)",
      "link": "https://animefire.plus/animes/city-the-animation-dublado-todos-os-episodios",
      "texto_original": "City the Animation (Dublado)",
      "rating": 7.84,
      "classificacao_etaria": "A14",
      "imagem_original": "https://animefire.plus/img/animes/city-the-animation.webp",
      "imagem_pasta": "https://animefire.plus/img/animes/city-the-animation/",
      "secao": "dublados,legendados,lancamentos",
      "pagina": 1,
      "total_episodios": 5,
      "link_video": "https://animefire.plus/video/city-the-animation-dublado"
    },
    {
      "id": 662,
      "nome": "Class no Daikirai na Joshi to Kekkon suru Koto ni Natta.",
      "link": "https://animefire.plus/animes/class-no-daikirai-na-joshi-to-kekkon-suru-koto-ni-natta-todos-os-episodios",
      "texto_original": "Class no Daikirai na Joshi to Kekkon suru Koto ni Natta.",
      "rating": 6.77,
      "classificacao_etaria": "A14",
      "imagem_original": "https://animefire.plus/img/animes/class-no-daikirai-na-joshi-to-kekkon-suru-koto-ni-natta.webp",
      "imagem_pasta": "https://animefire.plus/img/animes/class-no-daikirai-na-joshi-to-kekkon-suru-koto-ni-natta/",
      "secao": "legendados",
      "pagina": 8,
      "total_episodios": 12,
      "link_video": "https://animefire.plus/video/class-no-daikirai-na-joshi-to-kekkon-suru-koto-ni-natta"
    },
    {
      "id": 666,
      "nome": "Cleopatra D.C.",
      "link": "https://animefire.plus/animes/cleopatra-d-c-todos-os-episodios",
      "texto_original": "Cleopatra D.C.",
      "rating": 5.95,
      "classificacao_etaria": "A18",
      "imagem_original": "https://animefire.plus/img/animes/cleopatra-d-c.webp",
      "imagem_pasta": "https://animefire.plus/img/animes/cleopatra-d-c/",
      "secao": "legendados",
      "pagina": 117,
      "total_episodios": 3,
      "link_video": "https://animefire.plus/video/cleopatra-d-c"
    },
    {
      "id": 667,
      "nome": "Clevatess: Majuu no Ou to Akago to Shikabane no Yuusha (Dublado)",
      "link": "https://animefire.plus/animes/clevatess-majuu-no-ou-to-akago-to-shikabane-no-yuusha-dublado-todos-os-episodios",
      "texto_original": "Clevatess: Majuu no Ou to Akago to Shikabane no Yuusha (Dublado)",
      "rating": 7.92,
      "classificacao_etaria": "A16",
      "imagem_original": "https://animefire.plus/img/animes/clevatess-majuu-no-ou-to-akago-to-shikabane-no-yuusha.webp",
      "imagem_pasta": "https://animefire.plus/img/animes/clevatess-majuu-no-ou-to-akago-to-shikabane-no-yuusha/",
      "secao": "dublados,legendados,lancamentos",
      "pagina": 1,
      "total_episodios": 5,
      "link_video": "https://animefire.plus/video/clevatess-majuu-no-ou-to-akago-to-shikabane-no-yuusha-dublado"
    },
    {
      "id": 668,
      "nome": "Clione no Akari",
      "link": "https://animefire.plus/animes/clione-no-akari-todos-os-episodios",
      "texto_original": "Clione no Akari",
      "rating": 5.43,
      "classificacao_etaria": "A14",
      "imagem_original": "https://animefire.plus/img/animes/clione-no-akari.webp",
      "imagem_pasta": "https://animefire.plus/img/animes/clione-no-akari/",
      "secao": "legendados",
      "pagina": 121,
      "total_episodios": 12,
      "link_video": "https://animefire.plus/video/clione-no-akari"
    },
    {
      "id": 669,
      "nome": "Clockwork Planet",
      "link": "https://animefire.plus/animes/clockwork-planet-todos-os-episodios",
      "texto_original": "Clockwork Planet",
      "rating": 6.51,
      "classificacao_etaria": "A14",
      "imagem_original": "https://animefire.plus/img/animes/clockwork-planet.webp",
      "imagem_pasta": "https://animefire.plus/img/animes/clockwork-planet/",
      "secao": "legendados",
      "pagina": 74,
      "total_episodios": 11,
      "link_video": "https://animefire.plus/video/clockwork-planet"
    },
    {
      "id": 673,
      "nome": "Cobra The Animation: The Psycho-Gun",
      "link": "https://animefire.plus/animes/cobra-the-animation-the-psycho-gun-todos-os-episodios",
      "texto_original": "Cobra The Animation: The Psycho-Gun",
      "rating": 7.02,
      "classificacao_etaria": "A14",
      "imagem_original": "https://animefire.plus/img/animes/cobra-the-animation-the-psycho-gun.webp",
      "imagem_pasta": "https://animefire.plus/img/animes/cobra-the-animation-the-psycho-gun/",
      "secao": "legendados",
      "pagina": 108,
      "total_episodios": 4,
      "link_video": "https://animefire.plus/video/cobra-the-animation-the-psycho-gun"
    },
    {
      "id": 674,
      "nome": "Code Geass: Dakkan no Rozé",
      "link": "https://animefire.plus/animes/code-geass-dakkan-no-roze-todos-os-episodios",
      "texto_original": "Code Geass: Dakkan no Rozé",
      "rating": 6.52,
      "classificacao_etaria": "A16",
      "imagem_original": "https://animefire.plus/img/animes/code-geass-dakkan-no-roze.webp",
      "imagem_pasta": "https://animefire.plus/img/animes/code-geass-dakkan-no-roze/",
      "secao": "legendados",
      "pagina": 12,
      "total_episodios": 12,
      "link_video": "https://animefire.plus/video/code-geass-dakkan-no-roze"
    },
    {
      "id": 677,
      "nome": "Code-E",
      "link": "https://animefire.plus/animes/code-e-todos-os-episodios",
      "texto_original": "Code-E",
      "rating": 6.48,
      "classificacao_etaria": null,
      "imagem_original": "https://animefire.plus/img/animes/code-e.webp",
      "imagem_pasta": "https://animefire.plus/img/animes/code-e/",
      "secao": "legendados",
      "pagina": 153,
      "total_episodios": 12,
      "link_video": "https://animefire.plus/video/code-e"
    },
    {
      "id": 679,
      "nome": "Code:Realize - Sousei no Himegimi",
      "link": "https://animefire.plus/animes/code-realize---sousei-no-himegimi-todos-os-episodios",
      "texto_original": "Code:Realize - Sousei no Himegimi",
      "rating": 6.7,
      "classificacao_etaria": "A14",
      "imagem_original": "https://animefire.plus/img/animes/code-realize---sousei-no-himegimi.webp",
      "imagem_pasta": "https://animefire.plus/img/animes/code-realize---sousei-no-himegimi/",
      "secao": "legendados",
      "pagina": 94,
      "total_episodios": 12,
      "link_video": "https://animefire.plus/video/code-realize---sousei-no-himegimi"
    },
    {
      "id": 681,
      "nome": "Colorful (Movie)",
      "link": "https://animefire.plus/animes/colorful-movie-todos-os-episodios",
      "texto_original": "Colorful (Movie)",
      "rating": 7.93,
      "classificacao_etaria": "A14",
      "imagem_original": "https://animefire.plus/img/animes/colorful-movie.webp",
      "imagem_pasta": "https://animefire.plus/img/animes/colorful-movie/",
      "secao": "legendados",
      "pagina": 156,
      "total_episodios": 5,
      "link_video": "https://animefire.plus/video/colorful-movie"
    },
    {
      "id": 682,
      "nome": "Comet Lucifer",
      "link": "https://animefire.plus/animes/comet-lucifer-todos-os-episodios",
      "texto_original": "Comet Lucifer",
      "rating": 5.93,
      "classificacao_etaria": "A14",
      "imagem_original": "https://animefire.plus/img/animes/comet-lucifer.webp",
      "imagem_pasta": "https://animefire.plus/img/animes/comet-lucifer/",
      "secao": "legendados",
      "pagina": 111,
      "total_episodios": 12,
      "link_video": "https://animefire.plus/video/comet-lucifer"
    },
    {
      "id": 683,
      "nome": "Comic Girls",
      "link": "https://animefire.plus/animes/comic-girls-todos-os-episodios",
      "texto_original": "Comic Girls",
      "rating": 7.54,
      "classificacao_etaria": "A14",
      "imagem_original": "https://animefire.plus/img/animes/comic-girls.webp",
      "imagem_pasta": "https://animefire.plus/img/animes/comic-girls/",
      "secao": "legendados",
      "pagina": 133,
      "total_episodios": 12,
      "link_video": "https://animefire.plus/video/comic-girls"
    },
    {
      "id": 685,
      "nome": "Comic Party Revolution",
      "link": "https://animefire.plus/animes/comic-party-revolution-todos-os-episodios",
      "texto_original": "Comic Party Revolution",
      "rating": 6.62,
      "classificacao_etaria": "A14",
      "imagem_original": "https://animefire.plus/img/animes/comic-party-revolution.webp",
      "imagem_pasta": "https://animefire.plus/img/animes/comic-party-revolution/",
      "secao": "legendados",
      "pagina": 146,
      "total_episodios": 7,
      "link_video": "https://animefire.plus/video/comic-party-revolution"
    },
    {
      "id": 686,
      "nome": "Conception",
      "link": "https://animefire.plus/animes/conception-todos-os-episodios",
      "texto_original": "Conception",
      "rating": 5.03,
      "classificacao_etaria": "A14",
      "imagem_original": "https://animefire.plus/img/animes/conception.webp",
      "imagem_pasta": "https://animefire.plus/img/animes/conception/",
      "secao": "legendados",
      "pagina": 138,
      "total_episodios": 12,
      "link_video": "https://animefire.plus/video/conception"
    },
    {
      "id": 688,
      "nome": "Concrete Revolutio: Choujin Gensou - The Last Song",
      "link": "https://animefire.plus/animes/concrete-revolutio-choujin-gensou---the-last-song-todos-os-episodios",
      "texto_original": "Concrete Revolutio: Choujin Gensou - The Last Song",
      "rating": 7.12,
      "classificacao_etaria": "A18",
      "imagem_original": "https://animefire.plus/img/animes/concrete-revolutio-choujin-gensou---the-last-song.webp",
      "imagem_pasta": "https://animefire.plus/img/animes/concrete-revolutio-choujin-gensou---the-last-song/",
      "secao": "legendados",
      "pagina": 124,
      "total_episodios": 6,
      "link_video": "https://animefire.plus/video/concrete-revolutio-choujin-gensou---the-last-song"
    },
    {
      "id": 690,
      "nome": "Cop Craft",
      "link": "https://animefire.plus/animes/cop-craft-todos-os-episodios",
      "texto_original": "Cop Craft",
      "rating": 6.74,
      "classificacao_etaria": "A16",
      "imagem_original": "https://animefire.plus/img/animes/cop-craft.webp",
      "imagem_pasta": "https://animefire.plus/img/animes/cop-craft/",
      "secao": "legendados",
      "pagina": 129,
      "total_episodios": 5,
      "link_video": "https://animefire.plus/video/cop-craft"
    }
  ],
  "pagination": {
    "current_page": 16,
    "per_page": 20,
    "total_items": 2189,
    "total_pages": 110,
    "has_next": true,
    "has_prev": true
  }
}
