{
  "message": "Animes com 2 a 12 episódios",
  "episode_range": {
    "min": 2,
    "max": 12
  },
  "data": [
    {
      "id": 768,
      "nome": "Deadman Wonderland",
      "link": "https://animefire.plus/animes/deadman-wonderland-todos-os-episodios",
      "texto_original": "Deadman Wonderland",
      "rating": 7.36,
      "classificacao_etaria": "A16",
      "imagem_original": "https://animefire.plus/img/animes/deadman-wonderland.webp",
      "imagem_pasta": "https://animefire.plus/img/animes/deadman-wonderland/",
      "secao": "legendados",
      "pagina": 171,
      "total_episodios": 12,
      "link_video": "https://animefire.plus/video/deadman-wonderland"
    },
    {
      "id": 770,
      "nome": "Deaimon",
      "link": "https://animefire.plus/animes/deaimon-todos-os-episodios",
      "texto_original": "Deaimon",
      "rating": 7.55,
      "classificacao_etaria": "A14",
      "imagem_original": "https://animefire.plus/img/animes/deaimon.webp",
      "imagem_pasta": "https://animefire.plus/img/animes/deaimon/",
      "secao": "legendados",
      "pagina": 34,
      "total_episodios": 12,
      "link_video": "https://animefire.plus/video/deaimon"
    },
    {
      "id": 772,
      "nome": "DearS",
      "link": "https://animefire.plus/animes/dears-todos-os-episodios",
      "texto_original": "DearS",
      "rating": 6.71,
      "classificacao_etaria": "A18",
      "imagem_original": "https://animefire.plus/img/animes/dears.webp",
      "imagem_pasta": "https://animefire.plus/img/animes/dears/",
      "secao": "legendados",
      "pagina": 162,
      "total_episodios": 12,
      "link_video": "https://animefire.plus/video/dears"
    },
    {
      "id": 775,
      "nome": "Death March kara Hajimaru Isekai Kyousoukyoku (Dublado)",
      "link": "https://animefire.plus/animes/death-march-kara-hajimaru-isekai-kyousoukyoku-dublado-todos-os-episodios",
      "texto_original": "Death March kara Hajimaru Isekai Kyousoukyoku (Dublado)",
      "rating": 6.84,
      "classificacao_etaria": "A14",
      "imagem_original": "https://animefire.plus/img/animes/death-march-kara-hajimaru-isekai-kyousoukyoku.webp",
      "imagem_pasta": "https://animefire.plus/img/animes/death-march-kara-hajimaru-isekai-kyousoukyoku/",
      "secao": "dublados,legendados",
      "pagina": 28,
      "total_episodios": 12,
      "link_video": "https://animefire.plus/video/death-march-kara-hajimaru-isekai-kyousoukyoku-dublado"
    },
    {
      "id": 777,
      "nome": "Death Parade",
      "link": "https://animefire.plus/animes/death-parade-todos-os-episodios",
      "texto_original": "Death Parade",
      "rating": 8.23,
      "classificacao_etaria": "A16",
      "imagem_original": "https://animefire.plus/img/animes/death-parade.webp",
      "imagem_pasta": "https://animefire.plus/img/animes/death-parade/",
      "secao": "legendados",
      "pagina": 166,
      "total_episodios": 3,
      "link_video": "https://animefire.plus/video/death-parade"
    },
    {
      "id": 778,
      "nome": "Deatte 5-byou de Battle (Dublado)",
      "link": "https://animefire.plus/animes/deatte-5-byou-de-battle-dublado-todos-os-episodios",
      "texto_original": "Deatte 5-byou de Battle (Dublado)",
      "rating": 6.75,
      "classificacao_etaria": "A16",
      "imagem_original": "https://animefire.plus/img/animes/deatte-5-byou-de-battle.webp",
      "imagem_pasta": "https://animefire.plus/img/animes/deatte-5-byou-de-battle/",
      "secao": "dublados,legendados",
      "pagina": 15,
      "total_episodios": 12,
      "link_video": "https://animefire.plus/video/deatte-5-byou-de-battle-dublado"
    },
    {
      "id": 779,
      "nome": "Deca-Dence (Dublado)",
      "link": "https://animefire.plus/animes/deca-dence-dublado-todos-os-episodios",
      "texto_original": "Deca-Dence (Dublado)",
      "rating": 7.42,
      "classificacao_etaria": "A14",
      "imagem_original": "https://animefire.plus/img/animes/deca-dence.webp",
      "imagem_pasta": "https://animefire.plus/img/animes/deca-dence/",
      "secao": "dublados,legendados",
      "pagina": 15,
      "total_episodios": 12,
      "link_video": "https://animefire.plus/video/deca-dence-dublado"
    },
    {
      "id": 780,
      "nome": "Deep Insanity: The Lost Child (Dublado)",
      "link": "https://animefire.plus/animes/deep-insanity-the-lost-child-dublado-todos-os-episodios",
      "texto_original": "Deep Insanity: The Lost Child (Dublado)",
      "rating": 5.6,
      "classificacao_etaria": "A14",
      "imagem_original": "https://animefire.plus/img/animes/deep-insanity-the-lost-child.webp",
      "imagem_pasta": "https://animefire.plus/img/animes/deep-insanity-the-lost-child/",
      "secao": "dublados,legendados",
      "pagina": 14,
      "total_episodios": 12,
      "link_video": "https://animefire.plus/video/deep-insanity-the-lost-child-dublado"
    },
    {
      "id": 782,
      "nome": "Dekin no Mogura",
      "link": "https://animefire.plus/animes/dekin-no-mogura-todos-os-episodios",
      "texto_original": "Dekin no Mogura",
      "rating": 6.16,
      "classificacao_etaria": "A14",
      "imagem_original": "https://animefire.plus/img/animes/dekin-no-mogura.webp",
      "imagem_pasta": "https://animefire.plus/img/animes/dekin-no-mogura/",
      "secao": "legendados,lancamentos",
      "pagina": 2,
      "total_episodios": 5,
      "link_video": "https://animefire.plus/video/dekin-no-mogura"
    },
    {
      "id": 783,
      "nome": "Dekiru Neko wa Kyou mo Yuuutsu",
      "link": "https://animefire.plus/animes/dekiru-neko-wa-kyou-mo-yuuutsu-todos-os-episodios",
      "texto_original": "Dekiru Neko wa Kyou mo Yuuutsu",
      "rating": 7.64,
      "classificacao_etaria": "A14",
      "imagem_original": "https://animefire.plus/img/animes/dekiru-neko-wa-kyou-mo-yuuutsu.jpg",
      "imagem_pasta": "https://animefire.plus/img/animes/dekiru-neko-wa-kyou-mo-yuuutsu/",
      "secao": "legendados,lancamentos",
      "pagina": 22,
      "total_episodios": 10,
      "link_video": "https://animefire.plus/video/dekiru-neko-wa-kyou-mo-yuuutsu"
    },
    {
      "id": 784,
      "nome": "Dekisokonai to Yobareta Motoeiyuu wa Jikka kara Tsuihou sareta node Sukikatte ni Ikiru Koto ni Shita",
      "link": "https://animefire.plus/animes/dekisokonai-to-yobareta-motoeiyuu-wa-jikka-kara-tsuihou-sareta-node-sukikatte-ni-ikiru-koto-ni-shita-todos-os-episodios",
      "texto_original": "Dekisokonai to Yobareta Motoeiyuu wa Jikka kara Tsuihou sareta node Sukikatte ni Ikiru Koto ni Shita",
      "rating": 5.22,
      "classificacao_etaria": "A14",
      "imagem_original": "https://animefire.plus/img/animes/dekisokonai-to-yobareta-motoeiyuu-wa-jikka-kara-tsuihou-sareta-node-sukikatte-ni-ikiru-koto-ni-shita.webp",
      "imagem_pasta": "https://animefire.plus/img/animes/dekisokonai-to-yobareta-motoeiyuu-wa-jikka-kara-tsuihou-sareta-node-sukikatte-ni-ikiru-koto-ni-shita/",
      "secao": "legendados",
      "pagina": 14,
      "total_episodios": 12,
      "link_video": "https://animefire.plus/video/dekisokonai-to-yobareta-motoeiyuu-wa-jikka-kara-tsuihou-sareta-node-sukikatte-ni-ikiru-koto-ni-shita"
    },
    {
      "id": 785,
      "nome": "Dekoboko Majo no Oyako Jijou (Dublado)",
      "link": "https://animefire.plus/animes/dekoboko-majo-no-oyako-jijou-dublado-todos-os-episodios",
      "texto_original": "Dekoboko Majo no Oyako Jijou (Dublado)",
      "rating": 6.76,
      "classificacao_etaria": "A14",
      "imagem_original": "https://animefire.plus/img/animes/dekoboko-majo-no-oyako-jijou.webp",
      "imagem_pasta": "https://animefire.plus/img/animes/dekoboko-majo-no-oyako-jijou/",
      "secao": "dublados,legendados,lancamentos",
      "pagina": 5,
      "total_episodios": 12,
      "link_video": "https://animefire.plus/video/dekoboko-majo-no-oyako-jijou-dublado"
    },
    {
      "id": 789,
      "nome": "Demi-chan wa Kataritai (Dublado)",
      "link": "https://animefire.plus/animes/demi-chan-wa-kataritai-dublado-todos-os-episodios",
      "texto_original": "Demi-chan wa Kataritai (Dublado)",
      "rating": 7.7,
      "classificacao_etaria": "A14",
      "imagem_original": "https://animefire.plus/img/animes/demi-chan-wa-kataritai.webp",
      "imagem_pasta": "https://animefire.plus/img/animes/demi-chan-wa-kataritai/",
      "secao": "dublados,legendados",
      "pagina": 24,
      "total_episodios": 12,
      "link_video": "https://animefire.plus/video/demi-chan-wa-kataritai-dublado"
    },
    {
      "id": 793,
      "nome": "Denpa Kyoushi",
      "link": "https://animefire.plus/animes/denpa-kyoushi-todos-os-episodios",
      "texto_original": "Denpa Kyoushi",
      "rating": 6.42,
      "classificacao_etaria": "A14",
      "imagem_original": "https://animefire.plus/img/animes/denpa-kyoushi.webp",
      "imagem_pasta": "https://animefire.plus/img/animes/denpa-kyoushi/",
      "secao": "legendados",
      "pagina": 72,
      "total_episodios": 6,
      "link_video": "https://animefire.plus/video/denpa-kyoushi"
    },
    {
      "id": 794,
      "nome": "Denpa Kyoushi (TV)",
      "link": "https://animefire.plus/animes/denpa-kyoushi-tv-todos-os-episodios",
      "texto_original": "Denpa Kyoushi (TV)",
      "rating": 6.96,
      "classificacao_etaria": "A14",
      "imagem_original": "https://animefire.plus/img/animes/denpa-kyoushi-tv.webp",
      "imagem_pasta": "https://animefire.plus/img/animes/denpa-kyoushi-tv/",
      "secao": "legendados",
      "pagina": 94,
      "total_episodios": 6,
      "link_video": "https://animefire.plus/video/denpa-kyoushi-tv"
    },
    {
      "id": 795,
      "nome": "Denpa Onna To Seishun Otoko",
      "link": "https://animefire.plus/animes/denpa-onna-to-seishun-otoko-todos-os-episodios",
      "texto_original": "Denpa Onna To Seishun Otoko",
      "rating": 7.24,
      "classificacao_etaria": "A14",
      "imagem_original": "https://animefire.plus/img/animes/denpa-onna-to-seishun-otoko.webp",
      "imagem_pasta": "https://animefire.plus/img/animes/denpa-onna-to-seishun-otoko/",
      "secao": "legendados",
      "pagina": 105,
      "total_episodios": 12,
      "link_video": "https://animefire.plus/video/denpa-onna-to-seishun-otoko"
    },
    {
      "id": 796,
      "nome": "Denpa-teki na Kanojo",
      "link": "https://animefire.plus/animes/denpa-teki-na-kanojo-todos-os-episodios",
      "texto_original": "Denpa-teki na Kanojo",
      "rating": 7.64,
      "classificacao_etaria": "A16",
      "imagem_original": "https://animefire.plus/img/animes/denpa-teki-na-kanojo.webp",
      "imagem_pasta": "https://animefire.plus/img/animes/denpa-teki-na-kanojo/",
      "secao": "legendados",
      "pagina": 104,
      "total_episodios": 2,
      "link_video": "https://animefire.plus/video/denpa-teki-na-kanojo"
    },
    {
      "id": 800,
      "nome": "Detonator Orgun",
      "link": "https://animefire.plus/animes/detonator-orgun-todos-os-episodios",
      "texto_original": "Detonator Orgun",
      "rating": 6.5,
      "classificacao_etaria": "A18",
      "imagem_original": "https://animefire.plus/img/animes/detonator-orgun.webp",
      "imagem_pasta": "https://animefire.plus/img/animes/detonator-orgun/",
      "secao": "legendados",
      "pagina": 77,
      "total_episodios": 3,
      "link_video": "https://animefire.plus/video/detonator-orgun"
    },
    {
      "id": 802,
      "nome": "Devil May Cry",
      "link": "https://animefire.plus/animes/devil-may-cry-todos-os-episodios",
      "texto_original": "Devil May Cry",
      "rating": 7.08,
      "classificacao_etaria": "A16",
      "imagem_original": "https://animefire.plus/img/animes/devil-may-cry.webp",
      "imagem_pasta": "https://animefire.plus/img/animes/devil-may-cry/",
      "secao": "legendados",
      "pagina": 178,
      "total_episodios": 12,
      "link_video": "https://animefire.plus/video/devil-may-cry"
    },
    {
      "id": 805,
      "nome": "Devilman: Crybaby (Dublado)",
      "link": "https://animefire.plus/animes/devilman-crybaby-dublado-todos-os-episodios",
      "texto_original": "Devilman: Crybaby (Dublado)",
      "rating": 7.9,
      "classificacao_etaria": "A18",
      "imagem_original": "https://animefire.plus/img/animes/devilman-crybaby.webp",
      "imagem_pasta": "https://animefire.plus/img/animes/devilman-crybaby/",
      "secao": "dublados,legendados",
      "pagina": 21,
      "total_episodios": 10,
      "link_video": "https://animefire.plus/video/devilman-crybaby-dublado"
    }
  ],
  "pagination": {
    "current_page": 19,
    "per_page": 20,
    "total_items": 2189,
    "total_pages": 110,
    "has_next": true,
    "has_prev": true
  }
}
