{
  "message": "Animes com 2 a 12 episódios",
  "episode_range": {
    "min": 2,
    "max": 12
  },
  "data": [
    {
      "id": 3570,
      "nome": "Sono Bisque Doll wa Koi wo Suru (Dublado)",
      "link": "https://animefire.plus/animes/sono-bisque-doll-wa-koi-wo-suru-dublado-todos-os-episodios",
      "texto_original": "Sono Bisque Doll wa Koi wo Suru (Dublado)",
      "rating": 8.15,
      "classificacao_etaria": "A14",
      "imagem_original": "https://animefire.plus/img/animes/sono-bisque-doll-wa-koi-wo-suru.webp",
      "imagem_pasta": "https://animefire.plus/img/animes/sono-bisque-doll-wa-koi-wo-suru/",
      "secao": "dublados,legendados",
      "pagina": 12,
      "total_episodios": 12,
      "link_video": "https://animefire.plus/video/sono-bisque-doll-wa-koi-wo-suru-dublado"
    },
    {
      "id": 3571,
      "nome": "Sono Bisque Doll wa Koi wo Suru Season 2",
      "link": "https://animefire.plus/animes/sono-bisque-doll-wa-koi-wo-suru-season-2-todos-os-episodios",
      "texto_original": "Sono Bisque Doll wa Koi wo Suru Season 2",
      "rating": 8.39,
      "classificacao_etaria": "A14",
      "imagem_original": "https://animefire.plus/img/animes/sono-bisque-doll-wa-koi-wo-suru-season-2.webp",
      "imagem_pasta": "https://animefire.plus/img/animes/sono-bisque-doll-wa-koi-wo-suru-season-2/",
      "secao": "legendados,lancamentos",
      "pagina": 3,
      "total_episodios": 5,
      "link_video": "https://animefire.plus/video/sono-bisque-doll-wa-koi-wo-suru-season-2"
    },
    {
      "id": 3572,
      "nome": "Sono Toki, Kanojo wa.",
      "link": "https://animefire.plus/animes/sono-toki-kanojo-wa-todos-os-episodios",
      "texto_original": "Sono Toki, Kanojo wa.",
      "rating": 5.71,
      "classificacao_etaria": "A14",
      "imagem_original": "https://animefire.plus/img/animes/sono-toki-kanojo-wa.webp",
      "imagem_pasta": "https://animefire.plus/img/animes/sono-toki-kanojo-wa/",
      "secao": "legendados",
      "pagina": 169,
      "total_episodios": 12,
      "link_video": "https://animefire.plus/video/sono-toki-kanojo-wa"
    },
    {
      "id": 3573,
      "nome": "Sora no Manimani",
      "link": "https://animefire.plus/animes/sora-no-manimani-todos-os-episodios",
      "texto_original": "Sora no Manimani",
      "rating": 7.13,
      "classificacao_etaria": "A14",
      "imagem_original": "https://animefire.plus/img/animes/sora-no-manimani.webp",
      "imagem_pasta": "https://animefire.plus/img/animes/sora-no-manimani/",
      "secao": "legendados",
      "pagina": 130,
      "total_episodios": 12,
      "link_video": "https://animefire.plus/video/sora-no-manimani"
    },
    {
      "id": 3576,
      "nome": "Sora no Otoshimono: Forte",
      "link": "https://animefire.plus/animes/sora-no-otoshimono-forte-todos-os-episodios",
      "texto_original": "Sora no Otoshimono: Forte",
      "rating": 7.69,
      "classificacao_etaria": "A14",
      "imagem_original": "https://animefire.plus/img/animes/sora-no-otoshimono-forte.webp",
      "imagem_pasta": "https://animefire.plus/img/animes/sora-no-otoshimono-forte/",
      "secao": "legendados",
      "pagina": 135,
      "total_episodios": 12,
      "link_video": "https://animefire.plus/video/sora-no-otoshimono-forte"
    },
    {
      "id": 3577,
      "nome": "Sora to Umi no Aida",
      "link": "https://animefire.plus/animes/sora-to-umi-no-aida-todos-os-episodios",
      "texto_original": "Sora to Umi no Aida",
      "rating": 5.74,
      "classificacao_etaria": "A14",
      "imagem_original": "https://animefire.plus/img/animes/sora-to-umi-no-aida.webp",
      "imagem_pasta": "https://animefire.plus/img/animes/sora-to-umi-no-aida/",
      "secao": "legendados",
      "pagina": 129,
      "total_episodios": 12,
      "link_video": "https://animefire.plus/video/sora-to-umi-no-aida"
    },
    {
      "id": 3578,
      "nome": "Sora yori mo Tooi Basho",
      "link": "https://animefire.plus/animes/sora-yori-mo-tooi-basho-todos-os-episodios",
      "texto_original": "Sora yori mo Tooi Basho",
      "rating": 8.64,
      "classificacao_etaria": "A14",
      "imagem_original": "https://animefire.plus/img/animes/sora-yori-mo-tooi-basho.webp",
      "imagem_pasta": "https://animefire.plus/img/animes/sora-yori-mo-tooi-basho/",
      "secao": "legendados",
      "pagina": 157,
      "total_episodios": 12,
      "link_video": "https://animefire.plus/video/sora-yori-mo-tooi-basho"
    },
    {
      "id": 3580,
      "nome": "Sorairo Utility (TV)",
      "link": "https://animefire.plus/animes/sorairo-utility-tv-todos-os-episodios",
      "texto_original": "Sorairo Utility (TV)",
      "rating": 7.13,
      "classificacao_etaria": "A14",
      "imagem_original": "https://animefire.plus/img/animes/sorairo-utility-tv.webp",
      "imagem_pasta": "https://animefire.plus/img/animes/sorairo-utility-tv/",
      "secao": "legendados",
      "pagina": 7,
      "total_episodios": 12,
      "link_video": "https://animefire.plus/video/sorairo-utility-tv"
    },
    {
      "id": 3581,
      "nome": "Sore dake ga Neck",
      "link": "https://animefire.plus/animes/sore-dake-ga-neck-todos-os-episodios",
      "texto_original": "Sore dake ga Neck",
      "rating": null,
      "classificacao_etaria": "A14",
      "imagem_original": "https://animefire.plus/img/animes/sore-dake-ga-neck.webp",
      "imagem_pasta": "https://animefire.plus/img/animes/sore-dake-ga-neck/",
      "secao": "legendados",
      "pagina": 51,
      "total_episodios": 2,
      "link_video": "https://animefire.plus/video/sore-dake-ga-neck"
    },
    {
      "id": 3583,
      "nome": "Soredemo Ayumu wa Yosetekuru",
      "link": "https://animefire.plus/animes/soredemo-ayumu-wa-yosetekuru-todos-os-episodios",
      "texto_original": "Soredemo Ayumu wa Yosetekuru",
      "rating": 7.01,
      "classificacao_etaria": "A14",
      "imagem_original": "https://animefire.plus/img/animes/soredemo-ayumu-wa-yosetekuru.webp",
      "imagem_pasta": "https://animefire.plus/img/animes/soredemo-ayumu-wa-yosetekuru/",
      "secao": "legendados",
      "pagina": 32,
      "total_episodios": 12,
      "link_video": "https://animefire.plus/video/soredemo-ayumu-wa-yosetekuru"
    },
    {
      "id": 3584,
      "nome": "Soredemo Machi wa Mawatteiru",
      "link": "https://animefire.plus/animes/soredemo-machi-wa-mawatteiru-todos-os-episodios",
      "texto_original": "Soredemo Machi wa Mawatteiru",
      "rating": 7.46,
      "classificacao_etaria": "A14",
      "imagem_original": "https://animefire.plus/img/animes/soredemo-machi-wa-mawatteiru.webp",
      "imagem_pasta": "https://animefire.plus/img/animes/soredemo-machi-wa-mawatteiru/",
      "secao": "legendados",
      "pagina": 159,
      "total_episodios": 12,
      "link_video": "https://animefire.plus/video/soredemo-machi-wa-mawatteiru"
    },
    {
      "id": 3585,
      "nome": "Soredemo Sekai Wa Utsukushii",
      "link": "https://animefire.plus/animes/soredemo-sekai-wa-utsukushii-todos-os-episodios",
      "texto_original": "Soredemo Sekai Wa Utsukushii",
      "rating": 7.78,
      "classificacao_etaria": "A14",
      "imagem_original": "https://animefire.plus/img/animes/soredemo-sekai-wa-utsukushii.webp",
      "imagem_pasta": "https://animefire.plus/img/animes/soredemo-sekai-wa-utsukushii/",
      "secao": "legendados",
      "pagina": 108,
      "total_episodios": 12,
      "link_video": "https://animefire.plus/video/soredemo-sekai-wa-utsukushii"
    },
    {
      "id": 3587,
      "nome": "Soukou Musume Senki",
      "link": "https://animefire.plus/animes/soukou-musume-senki-todos-os-episodios",
      "texto_original": "Soukou Musume Senki",
      "rating": 5.78,
      "classificacao_etaria": "A14",
      "imagem_original": "https://animefire.plus/img/animes/soukou-musume-senki.webp",
      "imagem_pasta": "https://animefire.plus/img/animes/soukou-musume-senki/",
      "secao": "legendados",
      "pagina": 48,
      "total_episodios": 12,
      "link_video": "https://animefire.plus/video/soukou-musume-senki"
    },
    {
      "id": 3591,
      "nome": "Soul Buster",
      "link": "https://animefire.plus/animes/soul-buster-todos-os-episodios",
      "texto_original": "Soul Buster",
      "rating": 5.84,
      "classificacao_etaria": "A14",
      "imagem_original": "https://animefire.plus/img/animes/soul-buster.webp",
      "imagem_pasta": "https://animefire.plus/img/animes/soul-buster/",
      "secao": "legendados",
      "pagina": 61,
      "total_episodios": 12,
      "link_video": "https://animefire.plus/video/soul-buster"
    },
    {
      "id": 3593,
      "nome": "Soul Eater NOT!",
      "link": "https://animefire.plus/animes/soul-eater-not-todos-os-episodios",
      "texto_original": "Soul Eater NOT!",
      "rating": 6.16,
      "classificacao_etaria": "A14",
      "imagem_original": "https://animefire.plus/img/animes/soul-eater-not.webp",
      "imagem_pasta": "https://animefire.plus/img/animes/soul-eater-not/",
      "secao": "legendados",
      "pagina": 170,
      "total_episodios": 11,
      "link_video": "https://animefire.plus/video/soul-eater-not"
    },
    {
      "id": 3596,
      "nome": "Souryo to Majiwaru Shikiyoku no Yoru ni...",
      "link": "https://animefire.plus/animes/souryo-to-majiwaru-shikiyoku-no-yoru-ni-todos-os-episodios",
      "texto_original": "Souryo to Majiwaru Shikiyoku no Yoru ni...",
      "rating": 4.64,
      "classificacao_etaria": "A18",
      "imagem_original": "https://animefire.plus/img/animes/souryo-to-majiwaru-shikiyoku-no-yoru-ni.webp",
      "imagem_pasta": "https://animefire.plus/img/animes/souryo-to-majiwaru-shikiyoku-no-yoru-ni/",
      "secao": "legendados",
      "pagina": 141,
      "total_episodios": 9,
      "link_video": "https://animefire.plus/video/souryo-to-majiwaru-shikiyoku-no-yoru-ni"
    },
    {
      "id": 3598,
      "nome": "Sousei no Aquarion: Myth of Emotions",
      "link": "https://animefire.plus/animes/sousei-no-aquarion-myth-of-emotions-todos-os-episodios",
      "texto_original": "Sousei no Aquarion: Myth of Emotions",
      "rating": 5.42,
      "classificacao_etaria": "A14",
      "imagem_original": "https://animefire.plus/img/animes/sousei-no-aquarion-myth-of-emotions.webp",
      "imagem_pasta": "https://animefire.plus/img/animes/sousei-no-aquarion-myth-of-emotions/",
      "secao": "legendados",
      "pagina": 6,
      "total_episodios": 12,
      "link_video": "https://animefire.plus/video/sousei-no-aquarion-myth-of-emotions"
    },
    {
      "id": 3600,
      "nome": "Soushin Shoujo Matoi",
      "link": "https://animefire.plus/animes/soushin-shoujo-matoi-todos-os-episodios",
      "texto_original": "Soushin Shoujo Matoi",
      "rating": 6.76,
      "classificacao_etaria": "A14",
      "imagem_original": "https://animefire.plus/img/animes/soushin-shoujo-matoi.webp",
      "imagem_pasta": "https://animefire.plus/img/animes/soushin-shoujo-matoi/",
      "secao": "legendados",
      "pagina": 156,
      "total_episodios": 10,
      "link_video": "https://animefire.plus/video/soushin-shoujo-matoi"
    },
    {
      "id": 3602,
      "nome": "Soutai Sekai",
      "link": "https://animefire.plus/animes/soutai-sekai-todos-os-episodios",
      "texto_original": "Soutai Sekai",
      "rating": 5.89,
      "classificacao_etaria": "A14",
      "imagem_original": "https://animefire.plus/img/animes/soutai-sekai.webp",
      "imagem_pasta": "https://animefire.plus/img/animes/soutai-sekai/",
      "secao": "legendados",
      "pagina": 86,
      "total_episodios": 2,
      "link_video": "https://animefire.plus/video/soutai-sekai"
    },
    {
      "id": 3605,
      "nome": "Souten no Ken: Regenesis",
      "link": "https://animefire.plus/animes/souten-no-ken-regenesis-todos-os-episodios",
      "texto_original": "Souten no Ken: Regenesis",
      "rating": 5.7,
      "classificacao_etaria": "A16",
      "imagem_original": "https://animefire.plus/img/animes/souten-no-ken-regenesis.webp",
      "imagem_pasta": "https://animefire.plus/img/animes/souten-no-ken-regenesis/",
      "secao": "legendados",
      "pagina": 62,
      "total_episodios": 12,
      "link_video": "https://animefire.plus/video/souten-no-ken-regenesis"
    }
  ],
  "pagination": {
    "current_page": 91,
    "per_page": 20,
    "total_items": 2189,
    "total_pages": 110,
    "has_next": true,
    "has_prev": true
  }
}
