{
  "message": "Animes com 2 a 12 episódios",
  "episode_range": {
    "min": 2,
    "max": 12
  },
  "data": [
    {
      "id": 2010,
      "nome": "Kino no Tabi: The Beautiful World - The Animated Series",
      "link": "https://animefire.plus/animes/kino-no-tabi-the-beautiful-world---the-animated-series-todos-os-episodios",
      "texto_original": "Kino no Tabi: The Beautiful World - The Animated Series",
      "rating": 7.62,
      "classificacao_etaria": "A16",
      "imagem_original": "https://animefire.plus/img/animes/kino-no-tabi-the-beautiful-world---the-animated-series.webp",
      "imagem_pasta": "https://animefire.plus/img/animes/kino-no-tabi-the-beautiful-world---the-animated-series/",
      "secao": "legendados",
      "pagina": 98,
      "total_episodios": 12,
      "link_video": "https://animefire.plus/video/kino-no-tabi-the-beautiful-world---the-animated-series"
    },
    {
      "id": 2011,
      "nome": "Kinoko Inu",
      "link": "https://animefire.plus/animes/kinoko-inu-todos-os-episodios",
      "texto_original": "Kinoko Inu",
      "rating": 6.89,
      "classificacao_etaria": "A14",
      "imagem_original": "https://animefire.plus/img/animes/kinoko-inu.webp",
      "imagem_pasta": "https://animefire.plus/img/animes/kinoko-inu/",
      "secao": "legendados",
      "pagina": 9,
      "total_episodios": 12,
      "link_video": "https://animefire.plus/video/kinoko-inu"
    },
    {
      "id": 2012,
      "nome": "Kinsou no Vermeil: Gakeppuchi Majutsushi wa Saikyou no Yakusai to Mahou Sekai wo Tsukisusumu",
      "link": "https://animefire.plus/animes/kinsou-no-vermeil-gakeppuchi-majutsushi-wa-saikyou-no-yakusai-to-mahou-sekai-wo-tsukisusumu-todos-os-episodios",
      "texto_original": "Kinsou no Vermeil: Gakeppuchi Majutsushi wa Saikyou no Yakusai to Mahou Sekai wo Tsukisusumu",
      "rating": 6.8,
      "classificacao_etaria": "A14",
      "imagem_original": "https://animefire.plus/img/animes/kinsou-no-vermeil-gakeppuchi-majutsushi-wa-saikyou-no-yakusai-to-mahou-sekai-wo-tsukisusumu.webp",
      "imagem_pasta": "https://animefire.plus/img/animes/kinsou-no-vermeil-gakeppuchi-majutsushi-wa-saikyou-no-yakusai-to-mahou-sekai-wo-tsukisusumu/",
      "secao": "legendados",
      "pagina": 31,
      "total_episodios": 12,
      "link_video": "https://animefire.plus/video/kinsou-no-vermeil-gakeppuchi-majutsushi-wa-saikyou-no-yakusai-to-mahou-sekai-wo-tsukisusumu"
    },
    {
      "id": 2015,
      "nome": "Kiratto Pri☆chan",
      "link": "https://animefire.plus/animes/kiratto-pri-chan-todos-os-episodios",
      "texto_original": "Kiratto Pri☆chan",
      "rating": 6.87,
      "classificacao_etaria": "A10",
      "imagem_original": "https://animefire.plus/img/animes/kiratto-pri-chan.webp",
      "imagem_pasta": "https://animefire.plus/img/animes/kiratto-pri-chan/",
      "secao": "legendados",
      "pagina": 124,
      "total_episodios": 10,
      "link_video": "https://animefire.plus/video/kiratto-pri-chan"
    },
    {
      "id": 2016,
      "nome": "Kisaki Kyouiku kara Nigetai Watashi",
      "link": "https://animefire.plus/animes/kisaki-kyouiku-kara-nigetai-watashi-todos-os-episodios",
      "texto_original": "Kisaki Kyouiku kara Nigetai Watashi",
      "rating": 5.65,
      "classificacao_etaria": "A14",
      "imagem_original": "https://animefire.plus/img/animes/kisaki-kyouiku-kara-nigetai-watashi.webp",
      "imagem_pasta": "https://animefire.plus/img/animes/kisaki-kyouiku-kara-nigetai-watashi/",
      "secao": "legendados",
      "pagina": 7,
      "total_episodios": 12,
      "link_video": "https://animefire.plus/video/kisaki-kyouiku-kara-nigetai-watashi"
    },
    {
      "id": 2018,
      "nome": "Kishibe Rohan wa Ugokanai (Dublado)",
      "link": "https://animefire.plus/animes/kishibe-rohan-wa-ugokanai-dublado-todos-os-episodios",
      "texto_original": "Kishibe Rohan wa Ugokanai (Dublado)",
      "rating": 7.61,
      "classificacao_etaria": "A16",
      "imagem_original": "https://animefire.plus/img/animes/kishibe-rohan-wa-ugokanai.webp",
      "imagem_pasta": "https://animefire.plus/img/animes/kishibe-rohan-wa-ugokanai/",
      "secao": "dublados,legendados",
      "pagina": 18,
      "total_episodios": 9,
      "link_video": "https://animefire.plus/video/kishibe-rohan-wa-ugokanai-dublado"
    },
    {
      "id": 2023,
      "nome": "Kishuku Gakkou no Juliet",
      "link": "https://animefire.plus/animes/kishuku-gakkou-no-juliet-todos-os-episodios",
      "texto_original": "Kishuku Gakkou no Juliet",
      "rating": 7.61,
      "classificacao_etaria": "A14",
      "imagem_original": "https://animefire.plus/img/animes/kishuku-gakkou-no-juliet.webp",
      "imagem_pasta": "https://animefire.plus/img/animes/kishuku-gakkou-no-juliet/",
      "secao": "legendados",
      "pagina": 167,
      "total_episodios": 12,
      "link_video": "https://animefire.plus/video/kishuku-gakkou-no-juliet"
    },
    {
      "id": 2025,
      "nome": "Kiss x Sis",
      "link": "https://animefire.plus/animes/kiss-x-sis-todos-os-episodios",
      "texto_original": "Kiss x Sis",
      "rating": 7.11,
      "classificacao_etaria": "A18",
      "imagem_original": "https://animefire.plus/img/animes/kiss-x-sis.webp",
      "imagem_pasta": "https://animefire.plus/img/animes/kiss-x-sis/",
      "secao": "legendados",
      "pagina": 154,
      "total_episodios": 12,
      "link_video": "https://animefire.plus/video/kiss-x-sis"
    },
    {
      "id": 2026,
      "nome": "Kiss x Sis (TV)",
      "link": "https://animefire.plus/animes/kiss-x-sis-tv-todos-os-episodios",
      "texto_original": "Kiss x Sis (TV)",
      "rating": 6.78,
      "classificacao_etaria": "A14",
      "imagem_original": "https://animefire.plus/img/animes/kiss-x-sis-tv.webp",
      "imagem_pasta": "https://animefire.plus/img/animes/kiss-x-sis-tv/",
      "secao": "legendados",
      "pagina": 73,
      "total_episodios": 12,
      "link_video": "https://animefire.plus/video/kiss-x-sis-tv"
    },
    {
      "id": 2027,
      "nome": "Kitakubu Katsudou Kiroku",
      "link": "https://animefire.plus/animes/kitakubu-katsudou-kiroku-todos-os-episodios",
      "texto_original": "Kitakubu Katsudou Kiroku",
      "rating": 6.82,
      "classificacao_etaria": "A14",
      "imagem_original": "https://animefire.plus/img/animes/kitakubu-katsudou-kiroku.webp",
      "imagem_pasta": "https://animefire.plus/img/animes/kitakubu-katsudou-kiroku/",
      "secao": "legendados",
      "pagina": 124,
      "total_episodios": 12,
      "link_video": "https://animefire.plus/video/kitakubu-katsudou-kiroku"
    },
    {
      "id": 2028,
      "nome": "Kitsune no Koe",
      "link": "https://animefire.plus/animes/kitsune-no-koe-todos-os-episodios",
      "texto_original": "Kitsune no Koe",
      "rating": 6.62,
      "classificacao_etaria": "A14",
      "imagem_original": "https://animefire.plus/img/animes/kitsune-no-koe.webp",
      "imagem_pasta": "https://animefire.plus/img/animes/kitsune-no-koe/",
      "secao": "legendados",
      "pagina": 158,
      "total_episodios": 12,
      "link_video": "https://animefire.plus/video/kitsune-no-koe"
    },
    {
      "id": 2030,
      "nome": "Kizetsu Yuusha to Ansatsu Hime",
      "link": "https://animefire.plus/animes/kizetsu-yuusha-to-ansatsu-hime-todos-os-episodios",
      "texto_original": "Kizetsu Yuusha to Ansatsu Hime",
      "rating": 6.38,
      "classificacao_etaria": "A14",
      "imagem_original": "https://animefire.plus/img/animes/kizetsu-yuusha-to-ansatsu-hime.webp",
      "imagem_pasta": "https://animefire.plus/img/animes/kizetsu-yuusha-to-ansatsu-hime/",
      "secao": "legendados,lancamentos",
      "pagina": 2,
      "total_episodios": 5,
      "link_video": "https://animefire.plus/video/kizetsu-yuusha-to-ansatsu-hime"
    },
    {
      "id": 2031,
      "nome": "Kiznaiver",
      "link": "https://animefire.plus/animes/kiznaiver-todos-os-episodios",
      "texto_original": "Kiznaiver",
      "rating": 7.54,
      "classificacao_etaria": "A14",
      "imagem_original": "https://animefire.plus/img/animes/kiznaiver.webp",
      "imagem_pasta": "https://animefire.plus/img/animes/kiznaiver/",
      "secao": "legendados",
      "pagina": 139,
      "total_episodios": 12,
      "link_video": "https://animefire.plus/video/kiznaiver"
    },
    {
      "id": 2035,
      "nome": "Knights of the Zodiac: Saint Seiya - Battle for Sanctuary (Dublado)",
      "link": "https://animefire.plus/animes/knights-of-the-zodiac-saint-seiya---battle-for-sanctuary-dublado-todos-os-episodios",
      "texto_original": "Knights of the Zodiac: Saint Seiya - Battle for Sanctuary (Dublado)",
      "rating": 6.22,
      "classificacao_etaria": "A14",
      "imagem_original": "https://animefire.plus/img/animes/knights-of-the-zodiac-saint-seiya---battle-for-sanctuary.webp",
      "imagem_pasta": "https://animefire.plus/img/animes/knights-of-the-zodiac-saint-seiya---battle-for-sanctuary/",
      "secao": "dublados,legendados,lancamentos",
      "pagina": 8,
      "total_episodios": 12,
      "link_video": "https://animefire.plus/video/knights-of-the-zodiac-saint-seiya---battle-for-sanctuary-dublado"
    },
    {
      "id": 2036,
      "nome": "Knights of the Zodiac: Saint Seiya (Dublado)",
      "link": "https://animefire.plus/animes/knights-of-the-zodiac-saint-seiya-dublado-todos-os-episodios",
      "texto_original": "Knights of the Zodiac: Saint Seiya (Dublado)",
      "rating": 5.15,
      "classificacao_etaria": "A14",
      "imagem_original": "https://animefire.plus/img/animes/knights-of-the-zodiac-saint-seiya.webp",
      "imagem_pasta": "https://animefire.plus/img/animes/knights-of-the-zodiac-saint-seiya/",
      "secao": "dublados",
      "pagina": 24,
      "total_episodios": 12,
      "link_video": "https://animefire.plus/video/knights-of-the-zodiac-saint-seiya-dublado"
    },
    {
      "id": 2039,
      "nome": "Kobayashi-san Chi no Maid Dragon S (Dublado)",
      "link": "https://animefire.plus/animes/kobayashi-san-chi-no-maid-dragon-s-dublado-todos-os-episodios",
      "texto_original": "Kobayashi-san Chi no Maid Dragon S (Dublado)",
      "rating": 8.22,
      "classificacao_etaria": "A14",
      "imagem_original": "https://animefire.plus/img/animes/kobayashi-san-chi-no-maid-dragon-s.webp",
      "imagem_pasta": "https://animefire.plus/img/animes/kobayashi-san-chi-no-maid-dragon-s/",
      "secao": "dublados,legendados",
      "pagina": 16,
      "total_episodios": 12,
      "link_video": "https://animefire.plus/video/kobayashi-san-chi-no-maid-dragon-s-dublado"
    },
    {
      "id": 2042,
      "nome": "Kochouki: Wakaki Nobunaga",
      "link": "https://animefire.plus/animes/kochouki-wakaki-nobunaga-todos-os-episodios",
      "texto_original": "Kochouki: Wakaki Nobunaga",
      "rating": 6.51,
      "classificacao_etaria": "A14",
      "imagem_original": "https://animefire.plus/img/animes/kochouki-wakaki-nobunaga.webp",
      "imagem_pasta": "https://animefire.plus/img/animes/kochouki-wakaki-nobunaga/",
      "secao": "legendados",
      "pagina": 155,
      "total_episodios": 6,
      "link_video": "https://animefire.plus/video/kochouki-wakaki-nobunaga"
    },
    {
      "id": 2044,
      "nome": "Kodomo no Jikan (TV)",
      "link": "https://animefire.plus/animes/kodomo-no-jikan-tv-todos-os-episodios",
      "texto_original": "Kodomo no Jikan (TV)",
      "rating": 6.97,
      "classificacao_etaria": "A16",
      "imagem_original": "https://animefire.plus/img/animes/kodomo-no-jikan-tv.webp",
      "imagem_pasta": "https://animefire.plus/img/animes/kodomo-no-jikan-tv/",
      "secao": "legendados",
      "pagina": 154,
      "total_episodios": 12,
      "link_video": "https://animefire.plus/video/kodomo-no-jikan-tv"
    },
    {
      "id": 2049,
      "nome": "Koi to Producer: EVOL×LOVE",
      "link": "https://animefire.plus/animes/koi-to-producer-evol-love-todos-os-episodios",
      "texto_original": "Koi to Producer: EVOL×LOVE",
      "rating": null,
      "classificacao_etaria": "A14",
      "imagem_original": "https://animefire.plus/img/animes/koi-to-producer-evol-love.webp",
      "imagem_pasta": "https://animefire.plus/img/animes/koi-to-producer-evol-love/",
      "secao": "legendados",
      "pagina": 57,
      "total_episodios": 12,
      "link_video": "https://animefire.plus/video/koi-to-producer-evol-love"
    },
    {
      "id": 2050,
      "nome": "Koi to Senkyo to Chocolate",
      "link": "https://animefire.plus/animes/koi-to-senkyo-to-chocolate-todos-os-episodios",
      "texto_original": "Koi to Senkyo to Chocolate",
      "rating": 7.21,
      "classificacao_etaria": "A14",
      "imagem_original": "https://animefire.plus/img/animes/koi-to-senkyo-to-chocolate.webp",
      "imagem_pasta": "https://animefire.plus/img/animes/koi-to-senkyo-to-chocolate/",
      "secao": "legendados",
      "pagina": 162,
      "total_episodios": 5,
      "link_video": "https://animefire.plus/video/koi-to-senkyo-to-chocolate"
    }
  ],
  "pagination": {
    "current_page": 51,
    "per_page": 20,
    "total_items": 2189,
    "total_pages": 110,
    "has_next": true,
    "has_prev": true
  }
}
