{
  "message": "Animes com 2 a 12 episódios",
  "episode_range": {
    "min": 2,
    "max": 12
  },
  "data": [
    {
      "id": 465,
      "nome": "Boku no Tonari ni Ankoku Hakaishin ga Imasu.",
      "link": "https://animefire.plus/animes/boku-no-tonari-ni-ankoku-hakaishin-ga-imasu-todos-os-episodios",
      "texto_original": "Boku no Tonari ni Ankoku Hakaishin ga Imasu.",
      "rating": 6.64,
      "classificacao_etaria": "A14",
      "imagem_original": "https://animefire.plus/img/animes/boku-no-tonari-ni-ankoku-hakaishin-ga-imasu.webp",
      "imagem_pasta": "https://animefire.plus/img/animes/boku-no-tonari-ni-ankoku-hakaishin-ga-imasu/",
      "secao": "legendados",
      "pagina": 92,
      "total_episodios": 5,
      "link_video": "https://animefire.plus/video/boku-no-tonari-ni-ankoku-hakaishin-ga-imasu"
    },
    {
      "id": 466,
      "nome": "Boku no Tsuma wa Kanjou ga Nai",
      "link": "https://animefire.plus/animes/boku-no-tsuma-wa-kanjou-ga-nai-todos-os-episodios",
      "texto_original": "Boku no Tsuma wa Kanjou ga Nai",
      "rating": 6.75,
      "classificacao_etaria": "A14",
      "imagem_original": "https://animefire.plus/img/animes/boku-no-tsuma-wa-kanjou-ga-nai.webp",
      "imagem_pasta": "https://animefire.plus/img/animes/boku-no-tsuma-wa-kanjou-ga-nai/",
      "secao": "legendados",
      "pagina": 12,
      "total_episodios": 12,
      "link_video": "https://animefire.plus/video/boku-no-tsuma-wa-kanjou-ga-nai"
    },
    {
      "id": 472,
      "nome": "Bokura no Ameiro Protocol",
      "link": "https://animefire.plus/animes/bokura-no-ameiro-protocol-todos-os-episodios",
      "texto_original": "Bokura no Ameiro Protocol",
      "rating": 6.09,
      "classificacao_etaria": "A14",
      "imagem_original": "https://animefire.plus/img/animes/bokura-no-ameiro-protocol.webp",
      "imagem_pasta": "https://animefire.plus/img/animes/bokura-no-ameiro-protocol/",
      "secao": "legendados",
      "pagina": 19,
      "total_episodios": 12,
      "link_video": "https://animefire.plus/video/bokura-no-ameiro-protocol"
    },
    {
      "id": 473,
      "nome": "Bokura wa Minna Kawai-sou",
      "link": "https://animefire.plus/animes/bokura-wa-minna-kawai-sou-todos-os-episodios",
      "texto_original": "Bokura wa Minna Kawai-sou",
      "rating": 7.8,
      "classificacao_etaria": "A14",
      "imagem_original": "https://animefire.plus/img/animes/bokura-wa-minna-kawai-sou.webp",
      "imagem_pasta": "https://animefire.plus/img/animes/bokura-wa-minna-kawai-sou/",
      "secao": "legendados",
      "pagina": 166,
      "total_episodios": 12,
      "link_video": "https://animefire.plus/video/bokura-wa-minna-kawai-sou"
    },
    {
      "id": 475,
      "nome": "Bokusatsu Tenshi Dokuro-chan",
      "link": "https://animefire.plus/animes/bokusatsu-tenshi-dokuro-chan-todos-os-episodios",
      "texto_original": "Bokusatsu Tenshi Dokuro-chan",
      "rating": 6.71,
      "classificacao_etaria": "A16",
      "imagem_original": "https://animefire.plus/img/animes/bokusatsu-tenshi-dokuro-chan.webp",
      "imagem_pasta": "https://animefire.plus/img/animes/bokusatsu-tenshi-dokuro-chan/",
      "secao": "legendados",
      "pagina": 160,
      "total_episodios": 4,
      "link_video": "https://animefire.plus/video/bokusatsu-tenshi-dokuro-chan"
    },
    {
      "id": 476,
      "nome": "Bokusatsu Tenshi Dokuro-chan 2",
      "link": "https://animefire.plus/animes/bokusatsu-tenshi-dokuro-chan-2-todos-os-episodios",
      "texto_original": "Bokusatsu Tenshi Dokuro-chan 2",
      "rating": 6.8,
      "classificacao_etaria": "A16",
      "imagem_original": "https://animefire.plus/img/animes/bokusatsu-tenshi-dokuro-chan-2.webp",
      "imagem_pasta": "https://animefire.plus/img/animes/bokusatsu-tenshi-dokuro-chan-2/",
      "secao": "legendados",
      "pagina": 104,
      "total_episodios": 2,
      "link_video": "https://animefire.plus/video/bokusatsu-tenshi-dokuro-chan-2"
    },
    {
      "id": 477,
      "nome": "Bokutachi no Remake",
      "link": "https://animefire.plus/animes/bokutachi-no-remake-todos-os-episodios",
      "texto_original": "Bokutachi no Remake",
      "rating": 7.39,
      "classificacao_etaria": "A14",
      "imagem_original": "https://animefire.plus/img/animes/bokutachi-no-remake.webp",
      "imagem_pasta": "https://animefire.plus/img/animes/bokutachi-no-remake/",
      "secao": "legendados",
      "pagina": 41,
      "total_episodios": 12,
      "link_video": "https://animefire.plus/video/bokutachi-no-remake"
    },
    {
      "id": 478,
      "nome": "Bokutachi wa Benkyou ga Dekinai",
      "link": "https://animefire.plus/animes/bokutachi-wa-benkyou-ga-dekinai-todos-os-episodios",
      "texto_original": "Bokutachi wa Benkyou ga Dekinai",
      "rating": 7.33,
      "classificacao_etaria": "A14",
      "imagem_original": "https://animefire.plus/img/animes/bokutachi-wa-benkyou-ga-dekinai.webp",
      "imagem_pasta": "https://animefire.plus/img/animes/bokutachi-wa-benkyou-ga-dekinai/",
      "secao": "legendados",
      "pagina": 173,
      "total_episodios": 8,
      "link_video": "https://animefire.plus/video/bokutachi-wa-benkyou-ga-dekinai"
    },
    {
      "id": 480,
      "nome": "Bokutachi wa Benkyou ga Dekinai OVA",
      "link": "https://animefire.plus/animes/bokutachi-wa-benkyou-ga-dekinai-ova-todos-os-episodios",
      "texto_original": "Bokutachi wa Benkyou ga Dekinai OVA",
      "rating": 7.36,
      "classificacao_etaria": "A14",
      "imagem_original": "https://animefire.plus/img/animes/bokutachi-wa-benkyou-ga-dekinai-ova.webp",
      "imagem_pasta": "https://animefire.plus/img/animes/bokutachi-wa-benkyou-ga-dekinai-ova/",
      "secao": "legendados",
      "pagina": 80,
      "total_episodios": 2,
      "link_video": "https://animefire.plus/video/bokutachi-wa-benkyou-ga-dekinai-ova"
    },
    {
      "id": 481,
      "nome": "Boogiepop wa Warawanai",
      "link": "https://animefire.plus/animes/boogiepop-wa-warawanai-todos-os-episodios",
      "texto_original": "Boogiepop wa Warawanai",
      "rating": 7.21,
      "classificacao_etaria": "A18",
      "imagem_original": "https://animefire.plus/img/animes/boogiepop-wa-warawanai.webp",
      "imagem_pasta": "https://animefire.plus/img/animes/boogiepop-wa-warawanai/",
      "secao": "legendados",
      "pagina": 163,
      "total_episodios": 8,
      "link_video": "https://animefire.plus/video/boogiepop-wa-warawanai"
    },
    {
      "id": 484,
      "nome": "Botsuraku Yotei no Kizoku dakedo, Hima Datta kara Mahou wo Kiwametemita",
      "link": "https://animefire.plus/animes/botsuraku-yotei-no-kizoku-dakedo-hima-datta-kara-mahou-wo-kiwametemita-todos-os-episodios",
      "texto_original": "Botsuraku Yotei no Kizoku dakedo, Hima Datta kara Mahou wo Kiwametemita",
      "rating": 6.08,
      "classificacao_etaria": "A14",
      "imagem_original": "https://animefire.plus/img/animes/botsuraku-yotei-no-kizoku-dakedo-hima-datta-kara-mahou-wo-kiwametemita.webp",
      "imagem_pasta": "https://animefire.plus/img/animes/botsuraku-yotei-no-kizoku-dakedo-hima-datta-kara-mahou-wo-kiwametemita/",
      "secao": "legendados",
      "pagina": 7,
      "total_episodios": 12,
      "link_video": "https://animefire.plus/video/botsuraku-yotei-no-kizoku-dakedo-hima-datta-kara-mahou-wo-kiwametemita"
    },
    {
      "id": 489,
      "nome": "Boukyaku Battery (TV)",
      "link": "https://animefire.plus/animes/boukyaku-battery-tv-todos-os-episodios",
      "texto_original": "Boukyaku Battery (TV)",
      "rating": 7.52,
      "classificacao_etaria": "A14",
      "imagem_original": "https://animefire.plus/img/animes/boukyaku-battery-tv.webp",
      "imagem_pasta": "https://animefire.plus/img/animes/boukyaku-battery-tv/",
      "secao": "legendados",
      "pagina": 14,
      "total_episodios": 12,
      "link_video": "https://animefire.plus/video/boukyaku-battery-tv"
    },
    {
      "id": 491,
      "nome": "Boushoku no Berserk",
      "link": "https://animefire.plus/animes/boushoku-no-berserk-todos-os-episodios",
      "texto_original": "Boushoku no Berserk",
      "rating": 6.73,
      "classificacao_etaria": "A14",
      "imagem_original": "https://animefire.plus/img/animes/boushoku-no-berserk.webp",
      "imagem_pasta": "https://animefire.plus/img/animes/boushoku-no-berserk/",
      "secao": "legendados",
      "pagina": 20,
      "total_episodios": 12,
      "link_video": "https://animefire.plus/video/boushoku-no-berserk"
    },
    {
      "id": 494,
      "nome": "Brave 10 (Dublado)",
      "link": "https://animefire.plus/animes/brave-10-dublado-todos-os-episodios",
      "texto_original": "Brave 10 (Dublado)",
      "rating": 6.74,
      "classificacao_etaria": "A16",
      "imagem_original": "https://animefire.plus/img/animes/brave-10.webp",
      "imagem_pasta": "https://animefire.plus/img/animes/brave-10/",
      "secao": "dublados,legendados",
      "pagina": 3,
      "total_episodios": 12,
      "link_video": "https://animefire.plus/video/brave-10-dublado"
    },
    {
      "id": 495,
      "nome": "Brave Beats",
      "link": "https://animefire.plus/animes/brave-beats-todos-os-episodios",
      "texto_original": "Brave Beats",
      "rating": 6.57,
      "classificacao_etaria": null,
      "imagem_original": "https://animefire.plus/img/animes/brave-beats.webp",
      "imagem_pasta": "https://animefire.plus/img/animes/brave-beats/",
      "secao": "legendados",
      "pagina": 116,
      "total_episodios": 2,
      "link_video": "https://animefire.plus/video/brave-beats"
    },
    {
      "id": 497,
      "nome": "Brave Witches",
      "link": "https://animefire.plus/animes/brave-witches-todos-os-episodios",
      "texto_original": "Brave Witches",
      "rating": 6.86,
      "classificacao_etaria": "A18",
      "imagem_original": "https://animefire.plus/img/animes/brave-witches.webp",
      "imagem_pasta": "https://animefire.plus/img/animes/brave-witches/",
      "secao": "legendados",
      "pagina": 90,
      "total_episodios": 12,
      "link_video": "https://animefire.plus/video/brave-witches"
    },
    {
      "id": 498,
      "nome": "Break Blade",
      "link": "https://animefire.plus/animes/break-blade-todos-os-episodios",
      "texto_original": "Break Blade",
      "rating": 7.35,
      "classificacao_etaria": "A16",
      "imagem_original": "https://animefire.plus/img/animes/break-blade.webp",
      "imagem_pasta": "https://animefire.plus/img/animes/break-blade/",
      "secao": "legendados",
      "pagina": 123,
      "total_episodios": 11,
      "link_video": "https://animefire.plus/video/break-blade"
    },
    {
      "id": 504,
      "nome": "Btooom!",
      "link": "https://animefire.plus/animes/btooom-todos-os-episodios",
      "texto_original": "Btooom!",
      "rating": 7.53,
      "classificacao_etaria": "A16",
      "imagem_original": "https://animefire.plus/img/animes/btooom.webp",
      "imagem_pasta": "https://animefire.plus/img/animes/btooom/",
      "secao": "legendados",
      "pagina": 155,
      "total_episodios": 12,
      "link_video": "https://animefire.plus/video/btooom"
    },
    {
      "id": 507,
      "nome": "Bubuki Buranki",
      "link": "https://animefire.plus/animes/bubuki-buranki-todos-os-episodios",
      "texto_original": "Bubuki Buranki",
      "rating": 6.37,
      "classificacao_etaria": "A14",
      "imagem_original": "https://animefire.plus/img/animes/bubuki-buranki.webp",
      "imagem_pasta": "https://animefire.plus/img/animes/bubuki-buranki/",
      "secao": "legendados",
      "pagina": 108,
      "total_episodios": 12,
      "link_video": "https://animefire.plus/video/bubuki-buranki"
    },
    {
      "id": 508,
      "nome": "Bubuki Buranki: Hoshi no Kyojin",
      "link": "https://animefire.plus/animes/bubuki-buranki-hoshi-no-kyojin-todos-os-episodios",
      "texto_original": "Bubuki Buranki: Hoshi no Kyojin",
      "rating": 6.93,
      "classificacao_etaria": "A14",
      "imagem_original": "https://animefire.plus/img/animes/bubuki-buranki-hoshi-no-kyojin.webp",
      "imagem_pasta": "https://animefire.plus/img/animes/bubuki-buranki-hoshi-no-kyojin/",
      "secao": "legendados",
      "pagina": 150,
      "total_episodios": 9,
      "link_video": "https://animefire.plus/video/bubuki-buranki-hoshi-no-kyojin"
    }
  ],
  "pagination": {
    "current_page": 12,
    "per_page": 20,
    "total_items": 2189,
    "total_pages": 110,
    "has_next": true,
    "has_prev": true
  }
}
