{
  "message": "Animes com 2 a 12 episódios",
  "episode_range": {
    "min": 2,
    "max": 12
  },
  "data": [
    {
      "id": 2281,
      "nome": "Lupin Zero",
      "link": "https://animefire.plus/animes/lupin-zero-todos-os-episodios",
      "texto_original": "Lupin Zero",
      "rating": 7.39,
      "classificacao_etaria": "A18",
      "imagem_original": "https://animefire.plus/img/animes/lupin-zero.webp",
      "imagem_pasta": "https://animefire.plus/img/animes/lupin-zero/",
      "secao": "legendados",
      "pagina": 27,
      "total_episodios": 6,
      "link_video": "https://animefire.plus/video/lupin-zero"
    },
    {
      "id": 2282,
      "nome": "Lv1 Maou to One Room Yuusha",
      "link": "https://animefire.plus/animes/lv1-maou-to-one-room-yuusha-todos-os-episodios",
      "texto_original": "Lv1 Maou to One Room Yuusha",
      "rating": 7.14,
      "classificacao_etaria": "A14",
      "imagem_original": "https://animefire.plus/img/animes/lv1-maou-to-one-room-yuusha.jpg",
      "imagem_pasta": "https://animefire.plus/img/animes/lv1-maou-to-one-room-yuusha/",
      "secao": "legendados",
      "pagina": 22,
      "total_episodios": 12,
      "link_video": "https://animefire.plus/video/lv1-maou-to-one-room-yuusha"
    },
    {
      "id": 2283,
      "nome": "Lv2 kara Cheat datta Motoyuusha Kouho no Mattari Isekai Life",
      "link": "https://animefire.plus/animes/lv2-kara-cheat-datta-motoyuusha-kouho-no-mattari-isekai-life-todos-os-episodios",
      "texto_original": "Lv2 kara Cheat datta Motoyuusha Kouho no Mattari Isekai Life",
      "rating": 6.82,
      "classificacao_etaria": "A14",
      "imagem_original": "https://animefire.plus/img/animes/lv2-kara-cheat-datta-motoyuusha-kouho-no-mattari-isekai-life.webp",
      "imagem_pasta": "https://animefire.plus/img/animes/lv2-kara-cheat-datta-motoyuusha-kouho-no-mattari-isekai-life/",
      "secao": "legendados",
      "pagina": 15,
      "total_episodios": 12,
      "link_video": "https://animefire.plus/video/lv2-kara-cheat-datta-motoyuusha-kouho-no-mattari-isekai-life"
    },
    {
      "id": 2285,
      "nome": "Lycoris Recoil: Friends Are Thieves of Time.",
      "link": "https://animefire.plus/animes/lycoris-recoil-friends-are-thieves-of-time-todos-os-episodios",
      "texto_original": "Lycoris Recoil: Friends Are Thieves of Time.",
      "rating": 7.72,
      "classificacao_etaria": "A14",
      "imagem_original": "https://animefire.plus/img/animes/lycoris-recoil-friends-are-thieves-of-time.webp",
      "imagem_pasta": "https://animefire.plus/img/animes/lycoris-recoil-friends-are-thieves-of-time/",
      "secao": "legendados",
      "pagina": 4,
      "total_episodios": 6,
      "link_video": "https://animefire.plus/video/lycoris-recoil-friends-are-thieves-of-time"
    },
    {
      "id": 2286,
      "nome": "M3: Sono Kuroki Hagane",
      "link": "https://animefire.plus/animes/m3-sono-kuroki-hagane-todos-os-episodios",
      "texto_original": "M3: Sono Kuroki Hagane",
      "rating": 6.66,
      "classificacao_etaria": "A16",
      "imagem_original": "https://animefire.plus/img/animes/m3-sono-kuroki-hagane.webp",
      "imagem_pasta": "https://animefire.plus/img/animes/m3-sono-kuroki-hagane/",
      "secao": "legendados",
      "pagina": 136,
      "total_episodios": 12,
      "link_video": "https://animefire.plus/video/m3-sono-kuroki-hagane"
    },
    {
      "id": 2289,
      "nome": "Machikado Mazoku",
      "link": "https://animefire.plus/animes/machikado-mazoku-todos-os-episodios",
      "texto_original": "Machikado Mazoku",
      "rating": 7.68,
      "classificacao_etaria": "A14",
      "imagem_original": "https://animefire.plus/img/animes/machikado-mazoku.webp",
      "imagem_pasta": "https://animefire.plus/img/animes/machikado-mazoku/",
      "secao": "legendados",
      "pagina": 119,
      "total_episodios": 2,
      "link_video": "https://animefire.plus/video/machikado-mazoku"
    },
    {
      "id": 2290,
      "nome": "Machikado Mazoku: 2-choume",
      "link": "https://animefire.plus/animes/machikado-mazoku-2-choume-todos-os-episodios",
      "texto_original": "Machikado Mazoku: 2-choume",
      "rating": 7.84,
      "classificacao_etaria": "A14",
      "imagem_original": "https://animefire.plus/img/animes/machikado-mazoku-2-choume.webp",
      "imagem_pasta": "https://animefire.plus/img/animes/machikado-mazoku-2-choume/",
      "secao": "legendados,lancamentos",
      "pagina": 34,
      "total_episodios": 4,
      "link_video": "https://animefire.plus/video/machikado-mazoku-2-choume"
    },
    {
      "id": 2291,
      "nome": "Machine-Doll wa Kizutsukanai",
      "link": "https://animefire.plus/animes/machine-doll-wa-kizutsukanai-todos-os-episodios",
      "texto_original": "Machine-Doll wa Kizutsukanai",
      "rating": 7.28,
      "classificacao_etaria": "A18",
      "imagem_original": "https://animefire.plus/img/animes/machine-doll-wa-kizutsukanai.webp",
      "imagem_pasta": "https://animefire.plus/img/animes/machine-doll-wa-kizutsukanai/",
      "secao": "legendados",
      "pagina": 154,
      "total_episodios": 4,
      "link_video": "https://animefire.plus/video/machine-doll-wa-kizutsukanai"
    },
    {
      "id": 2295,
      "nome": "Macross Zero",
      "link": "https://animefire.plus/animes/macross-zero-todos-os-episodios",
      "texto_original": "Macross Zero",
      "rating": 7.54,
      "classificacao_etaria": "A18",
      "imagem_original": "https://animefire.plus/img/animes/macross-zero.webp",
      "imagem_pasta": "https://animefire.plus/img/animes/macross-zero/",
      "secao": "legendados",
      "pagina": 45,
      "total_episodios": 3,
      "link_video": "https://animefire.plus/video/macross-zero"
    },
    {
      "id": 2298,
      "nome": "Made in Abyss: Retsujitsu no Ougonkyou",
      "link": "https://animefire.plus/animes/made-in-abyss-retsujitsu-no-ougonkyou-todos-os-episodios",
      "texto_original": "Made in Abyss: Retsujitsu no Ougonkyou",
      "rating": 8.61,
      "classificacao_etaria": "A16",
      "imagem_original": "https://animefire.plus/img/animes/made-in-abyss-retsujitsu-no-ougonkyou.webp",
      "imagem_pasta": "https://animefire.plus/img/animes/made-in-abyss-retsujitsu-no-ougonkyou/",
      "secao": "legendados",
      "pagina": 31,
      "total_episodios": 12,
      "link_video": "https://animefire.plus/video/made-in-abyss-retsujitsu-no-ougonkyou"
    },
    {
      "id": 2301,
      "nome": "Madougushi Dahliya wa Utsumukanai",
      "link": "https://animefire.plus/animes/madougushi-dahliya-wa-utsumukanai-todos-os-episodios",
      "texto_original": "Madougushi Dahliya wa Utsumukanai",
      "rating": 6.8,
      "classificacao_etaria": "A14",
      "imagem_original": "https://animefire.plus/img/animes/madougushi-dahliya-wa-utsumukanai.webp",
      "imagem_pasta": "https://animefire.plus/img/animes/madougushi-dahliya-wa-utsumukanai/",
      "secao": "legendados",
      "pagina": 12,
      "total_episodios": 12,
      "link_video": "https://animefire.plus/video/madougushi-dahliya-wa-utsumukanai"
    },
    {
      "id": 2302,
      "nome": "Maebashi Witches",
      "link": "https://animefire.plus/animes/maebashi-witches-todos-os-episodios",
      "texto_original": "Maebashi Witches",
      "rating": 7,
      "classificacao_etaria": "A14",
      "imagem_original": "https://animefire.plus/img/animes/maebashi-witches.webp",
      "imagem_pasta": "https://animefire.plus/img/animes/maebashi-witches/",
      "secao": "legendados",
      "pagina": 4,
      "total_episodios": 12,
      "link_video": "https://animefire.plus/video/maebashi-witches"
    },
    {
      "id": 2303,
      "nome": "Maesetsu!",
      "link": "https://animefire.plus/animes/maesetsu-todos-os-episodios",
      "texto_original": "Maesetsu!",
      "rating": null,
      "classificacao_etaria": "A14",
      "imagem_original": "https://animefire.plus/img/animes/maesetsu.webp",
      "imagem_pasta": "https://animefire.plus/img/animes/maesetsu/",
      "secao": "legendados",
      "pagina": 51,
      "total_episodios": 12,
      "link_video": "https://animefire.plus/video/maesetsu"
    },
    {
      "id": 2304,
      "nome": "Magatsu Wahrheit: Zuerst",
      "link": "https://animefire.plus/animes/magatsu-wahrheit-zuerst-todos-os-episodios",
      "texto_original": "Magatsu Wahrheit: Zuerst",
      "rating": null,
      "classificacao_etaria": "A16",
      "imagem_original": "https://animefire.plus/img/animes/magatsu-wahrheit-zuerst.webp",
      "imagem_pasta": "https://animefire.plus/img/animes/magatsu-wahrheit-zuerst/",
      "secao": "legendados",
      "pagina": 51,
      "total_episodios": 12,
      "link_video": "https://animefire.plus/video/magatsu-wahrheit-zuerst"
    },
    {
      "id": 2306,
      "nome": "Magi: The Kingdom of Magic",
      "link": "https://animefire.plus/animes/magi-the-kingdom-of-magic-todos-os-episodios",
      "texto_original": "Magi: The Kingdom of Magic",
      "rating": 8.4,
      "classificacao_etaria": "A14",
      "imagem_original": "https://animefire.plus/img/animes/magi-the-kingdom-of-magic.webp",
      "imagem_pasta": "https://animefire.plus/img/animes/magi-the-kingdom-of-magic/",
      "secao": "legendados",
      "pagina": 134,
      "total_episodios": 4,
      "link_video": "https://animefire.plus/video/magi-the-kingdom-of-magic"
    },
    {
      "id": 2308,
      "nome": "Magia Record: Mahou Shoujo Madoka☆Magica Gaiden (TV) (Dublado)",
      "link": "https://animefire.plus/animes/magia-record-mahou-shoujo-madoka-magica-gaiden-tv-dublado-todos-os-episodios",
      "texto_original": "Magia Record: Mahou Shoujo Madoka☆Magica Gaiden (TV) (Dublado)",
      "rating": 6.79,
      "classificacao_etaria": "A14",
      "imagem_original": "https://animefire.plus/img/animes/magia-record-mahou-shoujo-madoka-magica-gaiden-tv.webp",
      "imagem_pasta": "https://animefire.plus/img/animes/magia-record-mahou-shoujo-madoka-magica-gaiden-tv/",
      "secao": "dublados,legendados",
      "pagina": 11,
      "total_episodios": 10,
      "link_video": "https://animefire.plus/video/magia-record-mahou-shoujo-madoka-magica-gaiden-tv-dublado"
    },
    {
      "id": 2309,
      "nome": "Magia Record: Mahou Shoujo Madoka☆Magica Gaiden (TV) 2nd Season",
      "link": "https://animefire.plus/animes/magia-record-mahou-shoujo-madoka-magica-gaiden-tv-2nd-season-todos-os-episodios",
      "texto_original": "Magia Record: Mahou Shoujo Madoka☆Magica Gaiden (TV) 2nd Season",
      "rating": 7.01,
      "classificacao_etaria": "A14",
      "imagem_original": "https://animefire.plus/img/animes/magia-record-mahou-shoujo-madoka-magica-gaiden-tv-2nd-season.webp",
      "imagem_pasta": "https://animefire.plus/img/animes/magia-record-mahou-shoujo-madoka-magica-gaiden-tv-2nd-season/",
      "secao": "legendados",
      "pagina": 40,
      "total_episodios": 8,
      "link_video": "https://animefire.plus/video/magia-record-mahou-shoujo-madoka-magica-gaiden-tv-2nd-season"
    },
    {
      "id": 2310,
      "nome": "Magia Record: Mahou Shoujo Madoka☆Magica Gaiden (TV) 2nd Season - Kakusei Zenya (Dublado)",
      "link": "https://animefire.plus/animes/magia-record-mahou-shoujo-madoka-magica-gaiden-tv-2nd-season---kakusei-zenya-dublado-todos-os-episodios",
      "texto_original": "Magia Record: Mahou Shoujo Madoka☆Magica Gaiden (TV) 2nd Season - Kakusei Zenya (Dublado)",
      "rating": 7.01,
      "classificacao_etaria": "A14",
      "imagem_original": "https://animefire.plus/img/animes/magia-record-mahou-shoujo-madoka-magica-gaiden-tv-2nd-season---kakusei-zenya.webp",
      "imagem_pasta": "https://animefire.plus/img/animes/magia-record-mahou-shoujo-madoka-magica-gaiden-tv-2nd-season---kakusei-zenya/",
      "secao": "dublados",
      "pagina": 11,
      "total_episodios": 8,
      "link_video": "https://animefire.plus/video/magia-record-mahou-shoujo-madoka-magica-gaiden-tv-2nd-season---kakusei-zenya-dublado"
    },
    {
      "id": 2312,
      "nome": "Magic Kaito",
      "link": "https://animefire.plus/animes/magic-kaito-todos-os-episodios",
      "texto_original": "Magic Kaito",
      "rating": 7.94,
      "classificacao_etaria": "A14",
      "imagem_original": "https://animefire.plus/img/animes/magic-kaito.webp",
      "imagem_pasta": "https://animefire.plus/img/animes/magic-kaito/",
      "secao": "legendados",
      "pagina": 144,
      "total_episodios": 12,
      "link_video": "https://animefire.plus/video/magic-kaito"
    },
    {
      "id": 2316,
      "nome": "Magic Maker: Isekai Mahou no Tsukurikata (Dublado)",
      "link": "https://animefire.plus/animes/magic-maker-isekai-mahou-no-tsukurikata-dublado-todos-os-episodios",
      "texto_original": "Magic Maker: Isekai Mahou no Tsukurikata (Dublado)",
      "rating": 6.82,
      "classificacao_etaria": "A14",
      "imagem_original": "https://animefire.plus/img/animes/magic-maker-isekai-mahou-no-tsukurikata.webp",
      "imagem_pasta": "https://animefire.plus/img/animes/magic-maker-isekai-mahou-no-tsukurikata/",
      "secao": "dublados,legendados,lancamentos",
      "pagina": 2,
      "total_episodios": 12,
      "link_video": "https://animefire.plus/video/magic-maker-isekai-mahou-no-tsukurikata-dublado"
    }
  ],
  "pagination": {
    "current_page": 58,
    "per_page": 20,
    "total_items": 2189,
    "total_pages": 110,
    "has_next": true,
    "has_prev": true
  }
}
