{
  "message": "Animes com 2 a 12 episódios",
  "episode_range": {
    "min": 2,
    "max": 12
  },
  "data": [
    {
      "id": 1889,
      "nome": "Kanpekisugite Kawaige ga Nai to Konyaku Haki sareta Seijo wa Ringoku ni Urareru",
      "link": "https://animefire.plus/animes/kanpekisugite-kawaige-ga-nai-to-konyaku-haki-sareta-seijo-wa-ringoku-ni-urareru-todos-os-episodios",
      "texto_original": "Kanpekisugite Kawaige ga Nai to Konyaku Haki sareta Seijo wa Ringoku ni Urareru",
      "rating": 7.26,
      "classificacao_etaria": "A14",
      "imagem_original": "https://animefire.plus/img/animes/kanpekisugite-kawaige-ga-nai-to-konyaku-haki-sareta-seijo-wa-ringoku-ni-urareru.webp",
      "imagem_pasta": "https://animefire.plus/img/animes/kanpekisugite-kawaige-ga-nai-to-konyaku-haki-sareta-seijo-wa-ringoku-ni-urareru/",
      "secao": "legendados",
      "pagina": 5,
      "total_episodios": 12,
      "link_video": "https://animefire.plus/video/kanpekisugite-kawaige-ga-nai-to-konyaku-haki-sareta-seijo-wa-ringoku-ni-urareru"
    },
    {
      "id": 1890,
      "nome": "Kantai Collection: KanColle",
      "link": "https://animefire.plus/animes/kantai-collection-kancolle-todos-os-episodios",
      "texto_original": "Kantai Collection: KanColle",
      "rating": 6.93,
      "classificacao_etaria": "A14",
      "imagem_original": "https://animefire.plus/img/animes/kantai-collection-kancolle.webp",
      "imagem_pasta": "https://animefire.plus/img/animes/kantai-collection-kancolle/",
      "secao": "legendados",
      "pagina": 73,
      "total_episodios": 12,
      "link_video": "https://animefire.plus/video/kantai-collection-kancolle"
    },
    {
      "id": 1891,
      "nome": "Kaoru Hana wa Rin to Saku",
      "link": "https://animefire.plus/animes/kaoru-hana-wa-rin-to-saku-todos-os-episodios",
      "texto_original": "Kaoru Hana wa Rin to Saku",
      "rating": 8.75,
      "classificacao_etaria": "A14",
      "imagem_original": "https://animefire.plus/img/animes/kaoru-hana-wa-rin-to-saku.webp",
      "imagem_pasta": "https://animefire.plus/img/animes/kaoru-hana-wa-rin-to-saku/",
      "secao": "legendados,lancamentos",
      "pagina": 3,
      "total_episodios": 4,
      "link_video": "https://animefire.plus/video/kaoru-hana-wa-rin-to-saku"
    },
    {
      "id": 1893,
      "nome": "Karakai Jouzu no Takagi-san",
      "link": "https://animefire.plus/animes/karakai-jouzu-no-takagi-san-todos-os-episodios",
      "texto_original": "Karakai Jouzu no Takagi-san",
      "rating": 7.89,
      "classificacao_etaria": "A14",
      "imagem_original": "https://animefire.plus/img/animes/karakai-jouzu-no-takagi-san.webp",
      "imagem_pasta": "https://animefire.plus/img/animes/karakai-jouzu-no-takagi-san/",
      "secao": "legendados",
      "pagina": 144,
      "total_episodios": 12,
      "link_video": "https://animefire.plus/video/karakai-jouzu-no-takagi-san"
    },
    {
      "id": 1894,
      "nome": "Karakai Jouzu no Takagi-san 2 (Dublado)",
      "link": "https://animefire.plus/animes/karakai-jouzu-no-takagi-san-2-dublado-todos-os-episodios",
      "texto_original": "Karakai Jouzu no Takagi-san 2 (Dublado)",
      "rating": 8.24,
      "classificacao_etaria": "A14",
      "imagem_original": "https://animefire.plus/img/animes/karakai-jouzu-no-takagi-san-2.webp",
      "imagem_pasta": "https://animefire.plus/img/animes/karakai-jouzu-no-takagi-san-2/",
      "secao": "dublados,legendados",
      "pagina": 22,
      "total_episodios": 12,
      "link_video": "https://animefire.plus/video/karakai-jouzu-no-takagi-san-2-dublado"
    },
    {
      "id": 1895,
      "nome": "Karakai Jouzu no Takagi-san 3",
      "link": "https://animefire.plus/animes/karakai-jouzu-no-takagi-san-3-todos-os-episodios",
      "texto_original": "Karakai Jouzu no Takagi-san 3",
      "rating": 8.38,
      "classificacao_etaria": "A14",
      "imagem_original": "https://animefire.plus/img/animes/karakai-jouzu-no-takagi-san-3.webp",
      "imagem_pasta": "https://animefire.plus/img/animes/karakai-jouzu-no-takagi-san-3/",
      "secao": "legendados",
      "pagina": 36,
      "total_episodios": 12,
      "link_video": "https://animefire.plus/video/karakai-jouzu-no-takagi-san-3"
    },
    {
      "id": 1897,
      "nome": "Karaoke Iko!",
      "link": "https://animefire.plus/animes/karaoke-iko-todos-os-episodios",
      "texto_original": "Karaoke Iko!",
      "rating": 7.28,
      "classificacao_etaria": "A14",
      "imagem_original": "https://animefire.plus/img/animes/karaoke-iko.webp",
      "imagem_pasta": "https://animefire.plus/img/animes/karaoke-iko/",
      "secao": "legendados,lancamentos",
      "pagina": 1,
      "total_episodios": 2,
      "link_video": "https://animefire.plus/video/karaoke-iko"
    },
    {
      "id": 1898,
      "nome": "Karas",
      "link": "https://animefire.plus/animes/karas-todos-os-episodios",
      "texto_original": "Karas",
      "rating": 7.44,
      "classificacao_etaria": "A16",
      "imagem_original": "https://animefire.plus/img/animes/karas.webp",
      "imagem_pasta": "https://animefire.plus/img/animes/karas/",
      "secao": "legendados",
      "pagina": 77,
      "total_episodios": 6,
      "link_video": "https://animefire.plus/video/karas"
    },
    {
      "id": 1900,
      "nome": "Karen Senki",
      "link": "https://animefire.plus/animes/karen-senki-todos-os-episodios",
      "texto_original": "Karen Senki",
      "rating": 5.82,
      "classificacao_etaria": "A14",
      "imagem_original": "https://animefire.plus/img/animes/karen-senki.webp",
      "imagem_pasta": "https://animefire.plus/img/animes/karen-senki/",
      "secao": "legendados",
      "pagina": 178,
      "total_episodios": 4,
      "link_video": "https://animefire.plus/video/karen-senki"
    },
    {
      "id": 1903,
      "nome": "Karneval",
      "link": "https://animefire.plus/animes/karneval-todos-os-episodios",
      "texto_original": "Karneval",
      "rating": 7.27,
      "classificacao_etaria": "A14",
      "imagem_original": "https://animefire.plus/img/animes/karneval.webp",
      "imagem_pasta": "https://animefire.plus/img/animes/karneval/",
      "secao": "legendados",
      "pagina": 161,
      "total_episodios": 9,
      "link_video": "https://animefire.plus/video/karneval"
    },
    {
      "id": 1906,
      "nome": "Katainaka no Ossan, Kensei ni Naru (Dublado)",
      "link": "https://animefire.plus/animes/katainaka-no-ossan-kensei-ni-naru-dublado-todos-os-episodios",
      "texto_original": "Katainaka no Ossan, Kensei ni Naru (Dublado)",
      "rating": 7.02,
      "classificacao_etaria": "A14",
      "imagem_original": "https://animefire.plus/img/animes/katainaka-no-ossan-kensei-ni-naru.webp",
      "imagem_pasta": "https://animefire.plus/img/animes/katainaka-no-ossan-kensei-ni-naru/",
      "secao": "dublados,legendados,lancamentos",
      "pagina": 1,
      "total_episodios": 12,
      "link_video": "https://animefire.plus/video/katainaka-no-ossan-kensei-ni-naru-dublado"
    },
    {
      "id": 1912,
      "nome": "Katsute Mahou Shoujo to Aku wa Tekitai shiteita.",
      "link": "https://animefire.plus/animes/katsute-mahou-shoujo-to-aku-wa-tekitai-shiteita-todos-os-episodios",
      "texto_original": "Katsute Mahou Shoujo to Aku wa Tekitai shiteita.",
      "rating": 7.56,
      "classificacao_etaria": "A14",
      "imagem_original": "https://animefire.plus/img/animes/katsute-mahou-shoujo-to-aku-wa-tekitai-shiteita.webp",
      "imagem_pasta": "https://animefire.plus/img/animes/katsute-mahou-shoujo-to-aku-wa-tekitai-shiteita/",
      "secao": "legendados",
      "pagina": 13,
      "total_episodios": 12,
      "link_video": "https://animefire.plus/video/katsute-mahou-shoujo-to-aku-wa-tekitai-shiteita"
    },
    {
      "id": 1914,
      "nome": "Kawagoe Boys Sing",
      "link": "https://animefire.plus/animes/kawagoe-boys-sing-todos-os-episodios",
      "texto_original": "Kawagoe Boys Sing",
      "rating": 5.66,
      "classificacao_etaria": "A14",
      "imagem_original": "https://animefire.plus/img/animes/kawagoe-boys-sing.webp",
      "imagem_pasta": "https://animefire.plus/img/animes/kawagoe-boys-sing/",
      "secao": "legendados",
      "pagina": 19,
      "total_episodios": 12,
      "link_video": "https://animefire.plus/video/kawagoe-boys-sing"
    },
    {
      "id": 1915,
      "nome": "Kawaii dake ja Nai Shikimori-san (Dublado)",
      "link": "https://animefire.plus/animes/kawaii-dake-ja-nai-shikimori-san-dublado-todos-os-episodios",
      "texto_original": "Kawaii dake ja Nai Shikimori-san (Dublado)",
      "rating": 6.94,
      "classificacao_etaria": "A14",
      "imagem_original": "https://animefire.plus/img/animes/kawaii-dake-ja-nai-shikimori-san.webp",
      "imagem_pasta": "https://animefire.plus/img/animes/kawaii-dake-ja-nai-shikimori-san/",
      "secao": "dublados,legendados",
      "pagina": 11,
      "total_episodios": 12,
      "link_video": "https://animefire.plus/video/kawaii-dake-ja-nai-shikimori-san-dublado"
    },
    {
      "id": 1916,
      "nome": "Kawaikereba Hentai demo Suki ni Natte Kuremasu ka?",
      "link": "https://animefire.plus/animes/kawaikereba-hentai-demo-suki-ni-natte-kuremasu-ka-todos-os-episodios",
      "texto_original": "Kawaikereba Hentai demo Suki ni Natte Kuremasu ka?",
      "rating": 6.6,
      "classificacao_etaria": "A14",
      "imagem_original": "https://animefire.plus/img/animes/kawaikereba-hentai-demo-suki-ni-natte-kuremasu-ka.webp",
      "imagem_pasta": "https://animefire.plus/img/animes/kawaikereba-hentai-demo-suki-ni-natte-kuremasu-ka/",
      "secao": "legendados",
      "pagina": 162,
      "total_episodios": 5,
      "link_video": "https://animefire.plus/video/kawaikereba-hentai-demo-suki-ni-natte-kuremasu-ka"
    },
    {
      "id": 1917,
      "nome": "Kawaisugi Crisis",
      "link": "https://animefire.plus/animes/kawaisugi-crisis-todos-os-episodios",
      "texto_original": "Kawaisugi Crisis",
      "rating": 6.81,
      "classificacao_etaria": "A14",
      "imagem_original": "https://animefire.plus/img/animes/kawaisugi-crisis.jpg",
      "imagem_pasta": "https://animefire.plus/img/animes/kawaisugi-crisis/",
      "secao": "legendados",
      "pagina": 24,
      "total_episodios": 12,
      "link_video": "https://animefire.plus/video/kawaisugi-crisis"
    },
    {
      "id": 1924,
      "nome": "Keikenzumi na Kimi to, Keiken Zero na Ore ga, Otsukiai suru Hanashi.",
      "link": "https://animefire.plus/animes/keikenzumi-na-kimi-to-keiken-zero-na-ore-ga-otsukiai-suru-hanashi-todos-os-episodios",
      "texto_original": "Keikenzumi na Kimi to, Keiken Zero na Ore ga, Otsukiai suru Hanashi.",
      "rating": 6.76,
      "classificacao_etaria": "A14",
      "imagem_original": "https://animefire.plus/img/animes/keikenzumi-na-kimi-to-keiken-zero-na-ore-ga-otsukiai-suru-hanashi.webp",
      "imagem_pasta": "https://animefire.plus/img/animes/keikenzumi-na-kimi-to-keiken-zero-na-ore-ga-otsukiai-suru-hanashi/",
      "secao": "legendados",
      "pagina": 21,
      "total_episodios": 12,
      "link_video": "https://animefire.plus/video/keikenzumi-na-kimi-to-keiken-zero-na-ore-ga-otsukiai-suru-hanashi"
    },
    {
      "id": 1925,
      "nome": "Keishichou Tokumubu Tokushu Kyouakuhan Taisakushitsu Dainanaka: Tokunana",
      "link": "https://animefire.plus/animes/keishichou-tokumubu-tokushu-kyouakuhan-taisakushitsu-dainanaka-tokunana-todos-os-episodios",
      "texto_original": "Keishichou Tokumubu Tokushu Kyouakuhan Taisakushitsu Dainanaka: Tokunana",
      "rating": 6.02,
      "classificacao_etaria": "A14",
      "imagem_original": "https://animefire.plus/img/animes/keishichou-tokumubu-tokushu-kyouakuhan-taisakushitsu-dainanaka-tokunana.webp",
      "imagem_pasta": "https://animefire.plus/img/animes/keishichou-tokumubu-tokushu-kyouakuhan-taisakushitsu-dainanaka-tokunana/",
      "secao": "legendados",
      "pagina": 110,
      "total_episodios": 12,
      "link_video": "https://animefire.plus/video/keishichou-tokumubu-tokushu-kyouakuhan-taisakushitsu-dainanaka-tokunana"
    },
    {
      "id": 1927,
      "nome": "Keitai Shoujo",
      "link": "https://animefire.plus/animes/keitai-shoujo-todos-os-episodios",
      "texto_original": "Keitai Shoujo",
      "rating": 5.36,
      "classificacao_etaria": "A14",
      "imagem_original": "https://animefire.plus/img/animes/keitai-shoujo.webp",
      "imagem_pasta": "https://animefire.plus/img/animes/keitai-shoujo/",
      "secao": "legendados",
      "pagina": 131,
      "total_episodios": 5,
      "link_video": "https://animefire.plus/video/keitai-shoujo"
    },
    {
      "id": 1929,
      "nome": "Kekkai Sensen & Beyond (Dublado)",
      "link": "https://animefire.plus/animes/kekkai-sensen-beyond-dublado-todos-os-episodios",
      "texto_original": "Kekkai Sensen & Beyond (Dublado)",
      "rating": 7.9,
      "classificacao_etaria": "A16",
      "imagem_original": "https://animefire.plus/img/animes/kekkai-sensen-beyond.webp",
      "imagem_pasta": "https://animefire.plus/img/animes/kekkai-sensen-beyond/",
      "secao": "dublados,legendados",
      "pagina": 19,
      "total_episodios": 12,
      "link_video": "https://animefire.plus/video/kekkai-sensen-beyond-dublado"
    }
  ],
  "pagination": {
    "current_page": 48,
    "per_page": 20,
    "total_items": 2189,
    "total_pages": 110,
    "has_next": true,
    "has_prev": true
  }
}
