{
  "message": "Animes com 2 a 12 episódios",
  "episode_range": {
    "min": 2,
    "max": 12
  },
  "data": [
    {
      "id": 2114,
      "nome": "Koutetsu Sangokushi",
      "link": "https://animefire.plus/animes/koutetsu-sangokushi-todos-os-episodios",
      "texto_original": "Koutetsu Sangokushi",
      "rating": 6.37,
      "classificacao_etaria": "A14",
      "imagem_original": "https://animefire.plus/img/animes/koutetsu-sangokushi.webp",
      "imagem_pasta": "https://animefire.plus/img/animes/koutetsu-sangokushi/",
      "secao": "legendados",
      "pagina": 161,
      "total_episodios": 2,
      "link_video": "https://animefire.plus/video/koutetsu-sangokushi"
    },
    {
      "id": 2117,
      "nome": "Koutetsujou no Kabaneri",
      "link": "https://animefire.plus/animes/koutetsujou-no-kabaneri-todos-os-episodios",
      "texto_original": "Koutetsujou no Kabaneri",
      "rating": 7.3,
      "classificacao_etaria": "A16",
      "imagem_original": "https://animefire.plus/img/animes/koutetsujou-no-kabaneri.webp",
      "imagem_pasta": "https://animefire.plus/img/animes/koutetsujou-no-kabaneri/",
      "secao": "legendados",
      "pagina": 153,
      "total_episodios": 5,
      "link_video": "https://animefire.plus/video/koutetsujou-no-kabaneri"
    },
    {
      "id": 2119,
      "nome": "Kouya no Kotobuki Hikoutai",
      "link": "https://animefire.plus/animes/kouya-no-kotobuki-hikoutai-todos-os-episodios",
      "texto_original": "Kouya no Kotobuki Hikoutai",
      "rating": 6.86,
      "classificacao_etaria": "A14",
      "imagem_original": "https://animefire.plus/img/animes/kouya-no-kotobuki-hikoutai.webp",
      "imagem_pasta": "https://animefire.plus/img/animes/kouya-no-kotobuki-hikoutai/",
      "secao": "legendados",
      "pagina": 102,
      "total_episodios": 12,
      "link_video": "https://animefire.plus/video/kouya-no-kotobuki-hikoutai"
    },
    {
      "id": 2122,
      "nome": "Koyomimonogatari",
      "link": "https://animefire.plus/animes/koyomimonogatari-todos-os-episodios",
      "texto_original": "Koyomimonogatari",
      "rating": 7.75,
      "classificacao_etaria": "A16",
      "imagem_original": "https://animefire.plus/img/animes/koyomimonogatari.webp",
      "imagem_pasta": "https://animefire.plus/img/animes/koyomimonogatari/",
      "secao": "legendados",
      "pagina": 134,
      "total_episodios": 12,
      "link_video": "https://animefire.plus/video/koyomimonogatari"
    },
    {
      "id": 2124,
      "nome": "Kubikiri Cycle: Aoiro Savant to Zaregototsukai",
      "link": "https://animefire.plus/animes/kubikiri-cycle-aoiro-savant-to-zaregototsukai-todos-os-episodios",
      "texto_original": "Kubikiri Cycle: Aoiro Savant to Zaregototsukai",
      "rating": 7.89,
      "classificacao_etaria": "A16",
      "imagem_original": "https://animefire.plus/img/animes/kubikiri-cycle-aoiro-savant-to-zaregototsukai.webp",
      "imagem_pasta": "https://animefire.plus/img/animes/kubikiri-cycle-aoiro-savant-to-zaregototsukai/",
      "secao": "legendados",
      "pagina": 164,
      "total_episodios": 6,
      "link_video": "https://animefire.plus/video/kubikiri-cycle-aoiro-savant-to-zaregototsukai"
    },
    {
      "id": 2125,
      "nome": "Kubo-san wa Mob wo Yurusanai",
      "link": "https://animefire.plus/animes/kubo-san-wa-mob-wo-yurusanai-todos-os-episodios",
      "texto_original": "Kubo-san wa Mob wo Yurusanai",
      "rating": 7.55,
      "classificacao_etaria": "A14",
      "imagem_original": "https://animefire.plus/img/animes/kubo-san-wa-mob-wo-yurusanai.webp",
      "imagem_pasta": "https://animefire.plus/img/animes/kubo-san-wa-mob-wo-yurusanai/",
      "secao": "legendados",
      "pagina": 28,
      "total_episodios": 12,
      "link_video": "https://animefire.plus/video/kubo-san-wa-mob-wo-yurusanai"
    },
    {
      "id": 2127,
      "nome": "Kujakuou",
      "link": "https://animefire.plus/animes/kujakuou-todos-os-episodios",
      "texto_original": "Kujakuou",
      "rating": 6.04,
      "classificacao_etaria": "A18",
      "imagem_original": "https://animefire.plus/img/animes/kujakuou.webp",
      "imagem_pasta": "https://animefire.plus/img/animes/kujakuou/",
      "secao": "legendados",
      "pagina": 164,
      "total_episodios": 3,
      "link_video": "https://animefire.plus/video/kujakuou"
    },
    {
      "id": 2128,
      "nome": "Kujibiki Unbalance",
      "link": "https://animefire.plus/animes/kujibiki-unbalance-todos-os-episodios",
      "texto_original": "Kujibiki Unbalance",
      "rating": 6.13,
      "classificacao_etaria": "A14",
      "imagem_original": "https://animefire.plus/img/animes/kujibiki-unbalance.webp",
      "imagem_pasta": "https://animefire.plus/img/animes/kujibiki-unbalance/",
      "secao": "legendados",
      "pagina": 66,
      "total_episodios": 3,
      "link_video": "https://animefire.plus/video/kujibiki-unbalance"
    },
    {
      "id": 2129,
      "nome": "Kujira no Kora wa Sajou ni Utau (Dublado)",
      "link": "https://animefire.plus/animes/kujira-no-kora-wa-sajou-ni-utau-dublado-todos-os-episodios",
      "texto_original": "Kujira no Kora wa Sajou ni Utau (Dublado)",
      "rating": 7.26,
      "classificacao_etaria": "A14",
      "imagem_original": "https://animefire.plus/img/animes/kujira-no-kora-wa-sajou-ni-utau.webp",
      "imagem_pasta": "https://animefire.plus/img/animes/kujira-no-kora-wa-sajou-ni-utau/",
      "secao": "dublados,legendados",
      "pagina": 24,
      "total_episodios": 12,
      "link_video": "https://animefire.plus/video/kujira-no-kora-wa-sajou-ni-utau-dublado"
    },
    {
      "id": 2131,
      "nome": "Kuma Kuma Kuma Bear Punch!",
      "link": "https://animefire.plus/animes/kuma-kuma-kuma-bear-punch-todos-os-episodios",
      "texto_original": "Kuma Kuma Kuma Bear Punch!",
      "rating": 7.28,
      "classificacao_etaria": "A14",
      "imagem_original": "https://animefire.plus/img/animes/kuma-kuma-kuma-bear-punch.jpg",
      "imagem_pasta": "https://animefire.plus/img/animes/kuma-kuma-kuma-bear-punch/",
      "secao": "legendados",
      "pagina": 24,
      "total_episodios": 12,
      "link_video": "https://animefire.plus/video/kuma-kuma-kuma-bear-punch"
    },
    {
      "id": 2132,
      "nome": "Kuma Miko",
      "link": "https://animefire.plus/animes/kuma-miko-todos-os-episodios",
      "texto_original": "Kuma Miko",
      "rating": 6.33,
      "classificacao_etaria": "A14",
      "imagem_original": "https://animefire.plus/img/animes/kuma-miko.webp",
      "imagem_pasta": "https://animefire.plus/img/animes/kuma-miko/",
      "secao": "legendados",
      "pagina": 166,
      "total_episodios": 5,
      "link_video": "https://animefire.plus/video/kuma-miko"
    },
    {
      "id": 2133,
      "nome": "Kuma Miko Specials",
      "link": "https://animefire.plus/animes/kuma-miko-specials-todos-os-episodios",
      "texto_original": "Kuma Miko Specials",
      "rating": 6.53,
      "classificacao_etaria": "A14",
      "imagem_original": "https://animefire.plus/img/animes/kuma-miko-specials.webp",
      "imagem_pasta": "https://animefire.plus/img/animes/kuma-miko-specials/",
      "secao": "legendados",
      "pagina": 86,
      "total_episodios": 2,
      "link_video": "https://animefire.plus/video/kuma-miko-specials"
    },
    {
      "id": 2134,
      "nome": "Kumichou Musume to Sewagakari",
      "link": "https://animefire.plus/animes/kumichou-musume-to-sewagakari-todos-os-episodios",
      "texto_original": "Kumichou Musume to Sewagakari",
      "rating": 7.74,
      "classificacao_etaria": "A14",
      "imagem_original": "https://animefire.plus/img/animes/kumichou-musume-to-sewagakari.webp",
      "imagem_pasta": "https://animefire.plus/img/animes/kumichou-musume-to-sewagakari/",
      "secao": "legendados",
      "pagina": 31,
      "total_episodios": 12,
      "link_video": "https://animefire.plus/video/kumichou-musume-to-sewagakari"
    },
    {
      "id": 2138,
      "nome": "Kuragehime",
      "link": "https://animefire.plus/animes/kuragehime-todos-os-episodios",
      "texto_original": "Kuragehime",
      "rating": 8.19,
      "classificacao_etaria": "A14",
      "imagem_original": "https://animefire.plus/img/animes/kuragehime.webp",
      "imagem_pasta": "https://animefire.plus/img/animes/kuragehime/",
      "secao": "legendados",
      "pagina": 141,
      "total_episodios": 8,
      "link_video": "https://animefire.plus/video/kuragehime"
    },
    {
      "id": 2139,
      "nome": "Kuragehime: Eiyuu Retsuden☆",
      "link": "https://animefire.plus/animes/kuragehime-eiyuu-retsuden-todos-os-episodios",
      "texto_original": "Kuragehime: Eiyuu Retsuden☆",
      "rating": 6.6,
      "classificacao_etaria": "A14",
      "imagem_original": "https://animefire.plus/img/animes/kuragehime-eiyuu-retsuden.webp",
      "imagem_pasta": "https://animefire.plus/img/animes/kuragehime-eiyuu-retsuden/",
      "secao": "legendados",
      "pagina": 77,
      "total_episodios": 4,
      "link_video": "https://animefire.plus/video/kuragehime-eiyuu-retsuden"
    },
    {
      "id": 2142,
      "nome": "Kure-nai",
      "link": "https://animefire.plus/animes/kure-nai-todos-os-episodios",
      "texto_original": "Kure-nai",
      "rating": 7.43,
      "classificacao_etaria": "A14",
      "imagem_original": "https://animefire.plus/img/animes/kure-nai.webp",
      "imagem_pasta": "https://animefire.plus/img/animes/kure-nai/",
      "secao": "legendados",
      "pagina": 167,
      "total_episodios": 12,
      "link_video": "https://animefire.plus/video/kure-nai"
    },
    {
      "id": 2143,
      "nome": "Kure-nai OVA",
      "link": "https://animefire.plus/animes/kure-nai-ova-todos-os-episodios",
      "texto_original": "Kure-nai OVA",
      "rating": 6.85,
      "classificacao_etaria": "A14",
      "imagem_original": "https://animefire.plus/img/animes/kure-nai-ova.webp",
      "imagem_pasta": "https://animefire.plus/img/animes/kure-nai-ova/",
      "secao": "legendados",
      "pagina": 72,
      "total_episodios": 2,
      "link_video": "https://animefire.plus/video/kure-nai-ova"
    },
    {
      "id": 2146,
      "nome": "Kuro no Shoukanshi (Dublado)",
      "link": "https://animefire.plus/animes/kuro-no-shoukanshi-dublado-todos-os-episodios",
      "texto_original": "Kuro no Shoukanshi (Dublado)",
      "rating": 7.03,
      "classificacao_etaria": "A14",
      "imagem_original": "https://animefire.plus/img/animes/kuro-no-shoukanshi.webp",
      "imagem_pasta": "https://animefire.plus/img/animes/kuro-no-shoukanshi/",
      "secao": "dublados,legendados",
      "pagina": 10,
      "total_episodios": 12,
      "link_video": "https://animefire.plus/video/kuro-no-shoukanshi-dublado"
    },
    {
      "id": 2148,
      "nome": "Kuroiwa Medaka ni Watashi no Kawaii ga Tsuujinai",
      "link": "https://animefire.plus/animes/kuroiwa-medaka-ni-watashi-no-kawaii-ga-tsuujinai-todos-os-episodios",
      "texto_original": "Kuroiwa Medaka ni Watashi no Kawaii ga Tsuujinai",
      "rating": 6.57,
      "classificacao_etaria": "A14",
      "imagem_original": "https://animefire.plus/img/animes/kuroiwa-medaka-ni-watashi-no-kawaii-ga-tsuujinai.webp",
      "imagem_pasta": "https://animefire.plus/img/animes/kuroiwa-medaka-ni-watashi-no-kawaii-ga-tsuujinai/",
      "secao": "legendados",
      "pagina": 8,
      "total_episodios": 12,
      "link_video": "https://animefire.plus/video/kuroiwa-medaka-ni-watashi-no-kawaii-ga-tsuujinai"
    },
    {
      "id": 2158,
      "nome": "Kuroshitsuji II (Dublado)",
      "link": "https://animefire.plus/animes/kuroshitsuji-ii-dublado-todos-os-episodios",
      "texto_original": "Kuroshitsuji II (Dublado)",
      "rating": 7.19,
      "classificacao_etaria": "A16",
      "imagem_original": "https://animefire.plus/img/animes/kuroshitsuji-ii.webp",
      "imagem_pasta": "https://animefire.plus/img/animes/kuroshitsuji-ii/",
      "secao": "dublados,legendados",
      "pagina": 16,
      "total_episodios": 12,
      "link_video": "https://animefire.plus/video/kuroshitsuji-ii-dublado"
    }
  ],
  "pagination": {
    "current_page": 54,
    "per_page": 20,
    "total_items": 2189,
    "total_pages": 110,
    "has_next": true,
    "has_prev": true
  }
}
