{
  "message": "Animes com 2 a 12 episódios",
  "episode_range": {
    "min": 2,
    "max": 12
  },
  "data": [
    {
      "id": 1640,
      "nome": "Inugami-san to Nekoyama-san",
      "link": "https://animefire.plus/animes/inugami-san-to-nekoyama-san-todos-os-episodios",
      "texto_original": "Inugami-san to Nekoyama-san",
      "rating": 6.64,
      "classificacao_etaria": "A14",
      "imagem_original": "https://animefire.plus/img/animes/inugami-san-to-nekoyama-san.webp",
      "imagem_pasta": "https://animefire.plus/img/animes/inugami-san-to-nekoyama-san/",
      "secao": "legendados",
      "pagina": 166,
      "total_episodios": 12,
      "link_video": "https://animefire.plus/video/inugami-san-to-nekoyama-san"
    },
    {
      "id": 1644,
      "nome": "Inuyashiki",
      "link": "https://animefire.plus/animes/inuyashiki-todos-os-episodios",
      "texto_original": "Inuyashiki",
      "rating": 7.81,
      "classificacao_etaria": "A16",
      "imagem_original": "https://animefire.plus/img/animes/inuyashiki.webp",
      "imagem_pasta": "https://animefire.plus/img/animes/inuyashiki/",
      "secao": "legendados",
      "pagina": 168,
      "total_episodios": 11,
      "link_video": "https://animefire.plus/video/inuyashiki"
    },
    {
      "id": 1646,
      "nome": "Iria: Zeiram The Animation",
      "link": "https://animefire.plus/animes/iria-zeiram-the-animation-todos-os-episodios",
      "texto_original": "Iria: Zeiram The Animation",
      "rating": 7.15,
      "classificacao_etaria": "A16",
      "imagem_original": "https://animefire.plus/img/animes/iria-zeiram-the-animation.webp",
      "imagem_pasta": "https://animefire.plus/img/animes/iria-zeiram-the-animation/",
      "secao": "legendados",
      "pagina": 133,
      "total_episodios": 6,
      "link_video": "https://animefire.plus/video/iria-zeiram-the-animation"
    },
    {
      "id": 1647,
      "nome": "Iriya no Sora, UFO no Natsu",
      "link": "https://animefire.plus/animes/iriya-no-sora-ufo-no-natsu-todos-os-episodios",
      "texto_original": "Iriya no Sora, UFO no Natsu",
      "rating": 7.01,
      "classificacao_etaria": "A18",
      "imagem_original": "https://animefire.plus/img/animes/iriya-no-sora-ufo-no-natsu.webp",
      "imagem_pasta": "https://animefire.plus/img/animes/iriya-no-sora-ufo-no-natsu/",
      "secao": "legendados",
      "pagina": 65,
      "total_episodios": 6,
      "link_video": "https://animefire.plus/video/iriya-no-sora-ufo-no-natsu"
    },
    {
      "id": 1651,
      "nome": "IS: Infinite Stratos 2",
      "link": "https://animefire.plus/animes/is-infinite-stratos-2-todos-os-episodios",
      "texto_original": "IS: Infinite Stratos 2",
      "rating": 6.76,
      "classificacao_etaria": "A14",
      "imagem_original": "https://animefire.plus/img/animes/is-infinite-stratos-2.webp",
      "imagem_pasta": "https://animefire.plus/img/animes/is-infinite-stratos-2/",
      "secao": "legendados",
      "pagina": 150,
      "total_episodios": 12,
      "link_video": "https://animefire.plus/video/is-infinite-stratos-2"
    },
    {
      "id": 1652,
      "nome": "Isekai Cheat Magician",
      "link": "https://animefire.plus/animes/isekai-cheat-magician-todos-os-episodios",
      "texto_original": "Isekai Cheat Magician",
      "rating": 5.38,
      "classificacao_etaria": "A14",
      "imagem_original": "https://animefire.plus/img/animes/isekai-cheat-magician.webp",
      "imagem_pasta": "https://animefire.plus/img/animes/isekai-cheat-magician/",
      "secao": "legendados",
      "pagina": 154,
      "total_episodios": 3,
      "link_video": "https://animefire.plus/video/isekai-cheat-magician"
    },
    {
      "id": 1654,
      "nome": "Isekai de Mofumofu Nadenade suru Tame ni Ganbattemasu.",
      "link": "https://animefire.plus/animes/isekai-de-mofumofu-nadenade-suru-tame-ni-ganbattemasu-todos-os-episodios",
      "texto_original": "Isekai de Mofumofu Nadenade suru Tame ni Ganbattemasu.",
      "rating": 6.78,
      "classificacao_etaria": "A14",
      "imagem_original": "https://animefire.plus/img/animes/isekai-de-mofumofu-nadenade-suru-tame-ni-ganbattemasu.webp",
      "imagem_pasta": "https://animefire.plus/img/animes/isekai-de-mofumofu-nadenade-suru-tame-ni-ganbattemasu/",
      "secao": "legendados",
      "pagina": 17,
      "total_episodios": 12,
      "link_video": "https://animefire.plus/video/isekai-de-mofumofu-nadenade-suru-tame-ni-ganbattemasu"
    },
    {
      "id": 1656,
      "nome": "Isekai Maou to Shoukan Shoujo no Dorei Majutsu",
      "link": "https://animefire.plus/animes/isekai-maou-to-shoukan-shoujo-no-dorei-majutsu-todos-os-episodios",
      "texto_original": "Isekai Maou to Shoukan Shoujo no Dorei Majutsu",
      "rating": 7.27,
      "classificacao_etaria": "A14",
      "imagem_original": "https://animefire.plus/img/animes/isekai-maou-to-shoukan-shoujo-no-dorei-majutsu.webp",
      "imagem_pasta": "https://animefire.plus/img/animes/isekai-maou-to-shoukan-shoujo-no-dorei-majutsu/",
      "secao": "legendados",
      "pagina": 166,
      "total_episodios": 12,
      "link_video": "https://animefire.plus/video/isekai-maou-to-shoukan-shoujo-no-dorei-majutsu"
    },
    {
      "id": 1657,
      "nome": "Isekai Maou to Shoukan Shoujo no Dorei Majutsu Ω",
      "link": "https://animefire.plus/animes/how-not-to-summon-a-demon-lord-todos-os-episodios",
      "texto_original": "Isekai Maou to Shoukan Shoujo no Dorei Majutsu Ω",
      "rating": 6.69,
      "classificacao_etaria": "A14",
      "imagem_original": "https://animefire.plus/img/animes/how-not-to-summon-a-demon-lord.webp",
      "imagem_pasta": "https://animefire.plus/img/animes/how-not-to-summon-a-demon-lord/",
      "secao": "legendados",
      "pagina": 48,
      "total_episodios": 2,
      "link_video": "https://animefire.plus/video/how-not-to-summon-a-demon-lord"
    },
    {
      "id": 1658,
      "nome": "Isekai Meikyuu de Harem wo",
      "link": "https://animefire.plus/animes/isekai-meikyuu-de-harem-wo-todos-os-episodios",
      "texto_original": "Isekai Meikyuu de Harem wo",
      "rating": 6.54,
      "classificacao_etaria": "A18",
      "imagem_original": "https://animefire.plus/img/animes/isekai-meikyuu-de-harem-wo.webp",
      "imagem_pasta": "https://animefire.plus/img/animes/isekai-meikyuu-de-harem-wo/",
      "secao": "legendados",
      "pagina": 31,
      "total_episodios": 12,
      "link_video": "https://animefire.plus/video/isekai-meikyuu-de-harem-wo"
    },
    {
      "id": 1659,
      "nome": "Isekai Meikyuu de Harem wo Specials",
      "link": "https://animefire.plus/animes/isekai-meikyuu-de-harem-wo-specials-todos-os-episodios",
      "texto_original": "Isekai Meikyuu de Harem wo Specials",
      "rating": 6.65,
      "classificacao_etaria": "A18",
      "imagem_original": "https://animefire.plus/img/animes/isekai-meikyuu-de-harem-wo-specials.webp",
      "imagem_pasta": "https://animefire.plus/img/animes/isekai-meikyuu-de-harem-wo-specials/",
      "secao": "legendados",
      "pagina": 25,
      "total_episodios": 2,
      "link_video": "https://animefire.plus/video/isekai-meikyuu-de-harem-wo-specials"
    },
    {
      "id": 1660,
      "nome": "Isekai Mokushiroku Mynoghra: Hametsu no Bunmei de Hajimeru Sekai Seifuku",
      "link": "https://animefire.plus/animes/isekai-mokushiroku-mynoghra-hametsu-no-bunmei-de-hajimeru-sekai-seifuku-todos-os-episodios",
      "texto_original": "Isekai Mokushiroku Mynoghra: Hametsu no Bunmei de Hajimeru Sekai Seifuku",
      "rating": 7,
      "classificacao_etaria": "A14",
      "imagem_original": "https://animefire.plus/img/animes/isekai-mokushiroku-mynoghra-hametsu-no-bunmei-de-hajimeru-sekai-seifuku.webp",
      "imagem_pasta": "https://animefire.plus/img/animes/isekai-mokushiroku-mynoghra-hametsu-no-bunmei-de-hajimeru-sekai-seifuku/",
      "secao": "legendados,lancamentos",
      "pagina": 3,
      "total_episodios": 5,
      "link_video": "https://animefire.plus/video/isekai-mokushiroku-mynoghra-hametsu-no-bunmei-de-hajimeru-sekai-seifuku"
    },
    {
      "id": 1662,
      "nome": "Isekai Nonbiri Nouka",
      "link": "https://animefire.plus/animes/isekai-nonbiri-nouka-todos-os-episodios",
      "texto_original": "Isekai Nonbiri Nouka",
      "rating": 7.54,
      "classificacao_etaria": "A14",
      "imagem_original": "https://animefire.plus/img/animes/isekai-nonbiri-nouka.webp",
      "imagem_pasta": "https://animefire.plus/img/animes/isekai-nonbiri-nouka/",
      "secao": "legendados",
      "pagina": 27,
      "total_episodios": 12,
      "link_video": "https://animefire.plus/video/isekai-nonbiri-nouka"
    },
    {
      "id": 1663,
      "nome": "Isekai Ojisan",
      "link": "https://animefire.plus/animes/isekai-ojisan-todos-os-episodios",
      "texto_original": "Isekai Ojisan",
      "rating": 7.76,
      "classificacao_etaria": "A14",
      "imagem_original": "https://animefire.plus/img/animes/isekai-ojisan.webp",
      "imagem_pasta": "https://animefire.plus/img/animes/isekai-ojisan/",
      "secao": "legendados,lancamentos",
      "pagina": 31,
      "total_episodios": 12,
      "link_video": "https://animefire.plus/video/isekai-ojisan"
    },
    {
      "id": 1664,
      "nome": "Isekai One Turn Kill Neesan: Ane Douhan no Isekai Seikatsu Hajimemashita",
      "link": "https://animefire.plus/animes/isekai-one-turn-kill-neesan-ane-douhan-no-isekai-seikatsu-hajimemashita-todos-os-episodios",
      "texto_original": "Isekai One Turn Kill Neesan: Ane Douhan no Isekai Seikatsu Hajimemashita",
      "rating": 6.31,
      "classificacao_etaria": "A14",
      "imagem_original": "https://animefire.plus/img/animes/isekai-one-turn-kill-neesan-ane-douhan-no-isekai-seikatsu-hajimemashita.jpg",
      "imagem_pasta": "https://animefire.plus/img/animes/isekai-one-turn-kill-neesan-ane-douhan-no-isekai-seikatsu-hajimemashita/",
      "secao": "legendados",
      "pagina": 24,
      "total_episodios": 12,
      "link_video": "https://animefire.plus/video/isekai-one-turn-kill-neesan-ane-douhan-no-isekai-seikatsu-hajimemashita"
    },
    {
      "id": 1667,
      "nome": "Isekai Shikkaku",
      "link": "https://animefire.plus/animes/isekai-shikkaku-todos-os-episodios",
      "texto_original": "Isekai Shikkaku",
      "rating": 7.26,
      "classificacao_etaria": "A14",
      "imagem_original": "https://animefire.plus/img/animes/isekai-shikkaku.webp",
      "imagem_pasta": "https://animefire.plus/img/animes/isekai-shikkaku/",
      "secao": "legendados",
      "pagina": 13,
      "total_episodios": 12,
      "link_video": "https://animefire.plus/video/isekai-shikkaku"
    },
    {
      "id": 1668,
      "nome": "Isekai Shokudou",
      "link": "https://animefire.plus/animes/isekai-shokudou-todos-os-episodios",
      "texto_original": "Isekai Shokudou",
      "rating": 7.4,
      "classificacao_etaria": "A14",
      "imagem_original": "https://animefire.plus/img/animes/isekai-shokudou.webp",
      "imagem_pasta": "https://animefire.plus/img/animes/isekai-shokudou/",
      "secao": "legendados",
      "pagina": 131,
      "total_episodios": 12,
      "link_video": "https://animefire.plus/video/isekai-shokudou"
    },
    {
      "id": 1669,
      "nome": "Isekai Shokudou 2",
      "link": "https://animefire.plus/animes/isekai-shokudou-2-todos-os-episodios",
      "texto_original": "Isekai Shokudou 2",
      "rating": 7.69,
      "classificacao_etaria": "A14",
      "imagem_original": "https://animefire.plus/img/animes/isekai-shokudou-2.webp",
      "imagem_pasta": "https://animefire.plus/img/animes/isekai-shokudou-2/",
      "secao": "legendados",
      "pagina": 39,
      "total_episodios": 12,
      "link_video": "https://animefire.plus/video/isekai-shokudou-2"
    },
    {
      "id": 1670,
      "nome": "Isekai Shoukan wa Nidome desu",
      "link": "https://animefire.plus/animes/isekai-shoukan-wa-nidome-desu-todos-os-episodios",
      "texto_original": "Isekai Shoukan wa Nidome desu",
      "rating": 5.67,
      "classificacao_etaria": "A14",
      "imagem_original": "https://animefire.plus/img/animes/isekai-shoukan-wa-nidome-desu.jpg",
      "imagem_pasta": "https://animefire.plus/img/animes/isekai-shoukan-wa-nidome-desu/",
      "secao": "legendados",
      "pagina": 24,
      "total_episodios": 12,
      "link_video": "https://animefire.plus/video/isekai-shoukan-wa-nidome-desu"
    },
    {
      "id": 1671,
      "nome": "Isekai Suicide Squad",
      "link": "https://animefire.plus/animes/isekai-suicide-squad-todos-os-episodios",
      "texto_original": "Isekai Suicide Squad",
      "rating": 6.41,
      "classificacao_etaria": "A16",
      "imagem_original": "https://animefire.plus/img/animes/isekai-suicide-squad.webp",
      "imagem_pasta": "https://animefire.plus/img/animes/isekai-suicide-squad/",
      "secao": "legendados",
      "pagina": 12,
      "total_episodios": 10,
      "link_video": "https://animefire.plus/video/isekai-suicide-squad"
    }
  ],
  "pagination": {
    "current_page": 41,
    "per_page": 20,
    "total_items": 2189,
    "total_pages": 110,
    "has_next": true,
    "has_prev": true
  }
}
