{
  "message": "Animes com 2 a 12 episódios",
  "episode_range": {
    "min": 2,
    "max": 12
  },
  "data": [
    {
      "id": 364,
      "nome": "Beastars 2nd Season (Dublado)",
      "link": "https://animefire.plus/animes/beastars-2nd-season-dublado-todos-os-episodios",
      "texto_original": "Beastars 2nd Season (Dublado)",
      "rating": 7.78,
      "classificacao_etaria": "A16",
      "imagem_original": "https://animefire.plus/img/animes/beastars-2nd-season.webp",
      "imagem_pasta": "https://animefire.plus/img/animes/beastars-2nd-season/",
      "secao": "dublados,legendados",
      "pagina": 16,
      "total_episodios": 12,
      "link_video": "https://animefire.plus/video/beastars-2nd-season-dublado"
    },
    {
      "id": 367,
      "nome": "Beatless Final Stage",
      "link": "https://animefire.plus/animes/beatless-final-stage-todos-os-episodios",
      "texto_original": "Beatless Final Stage",
      "rating": 6.87,
      "classificacao_etaria": "A14",
      "imagem_original": "https://animefire.plus/img/animes/beatless-final-stage.webp",
      "imagem_pasta": "https://animefire.plus/img/animes/beatless-final-stage/",
      "secao": "legendados",
      "pagina": 159,
      "total_episodios": 4,
      "link_video": "https://animefire.plus/video/beatless-final-stage"
    },
    {
      "id": 368,
      "nome": "Beatless Intermission",
      "link": "https://animefire.plus/animes/beatless-intermission-todos-os-episodios",
      "texto_original": "Beatless Intermission",
      "rating": 5.35,
      "classificacao_etaria": "A14",
      "imagem_original": "https://animefire.plus/img/animes/beatless-intermission.webp",
      "imagem_pasta": "https://animefire.plus/img/animes/beatless-intermission/",
      "secao": "legendados",
      "pagina": 134,
      "total_episodios": 4,
      "link_video": "https://animefire.plus/video/beatless-intermission"
    },
    {
      "id": 371,
      "nome": "Beelzebub-jou no Okinimesu mama.",
      "link": "https://animefire.plus/animes/beelzebub-jou-no-okinimesu-mama-todos-os-episodios",
      "texto_original": "Beelzebub-jou no Okinimesu mama.",
      "rating": 7.35,
      "classificacao_etaria": "A14",
      "imagem_original": "https://animefire.plus/img/animes/beelzebub-jou-no-okinimesu-mama.webp",
      "imagem_pasta": "https://animefire.plus/img/animes/beelzebub-jou-no-okinimesu-mama/",
      "secao": "legendados",
      "pagina": 145,
      "total_episodios": 12,
      "link_video": "https://animefire.plus/video/beelzebub-jou-no-okinimesu-mama"
    },
    {
      "id": 373,
      "nome": "Benriya Saitou-san, Isekai ni Iku",
      "link": "https://animefire.plus/animes/benriya-saitou-san-isekai-ni-iku-todos-os-episodios",
      "texto_original": "Benriya Saitou-san, Isekai ni Iku",
      "rating": 7.38,
      "classificacao_etaria": "A16",
      "imagem_original": "https://animefire.plus/img/animes/benriya-saitou-san-isekai-ni-iku.webp",
      "imagem_pasta": "https://animefire.plus/img/animes/benriya-saitou-san-isekai-ni-iku/",
      "secao": "legendados",
      "pagina": 26,
      "total_episodios": 12,
      "link_video": "https://animefire.plus/video/benriya-saitou-san-isekai-ni-iku"
    },
    {
      "id": 374,
      "nome": "Bermuda Triangle: Colorful Pastrale",
      "link": "https://animefire.plus/animes/bermuda-triangle-colorful-pastrale-todos-os-episodios",
      "texto_original": "Bermuda Triangle: Colorful Pastrale",
      "rating": 5.46,
      "classificacao_etaria": "A14",
      "imagem_original": "https://animefire.plus/img/animes/bermuda-triangle-colorful-pastrale.webp",
      "imagem_pasta": "https://animefire.plus/img/animes/bermuda-triangle-colorful-pastrale/",
      "secao": "legendados",
      "pagina": 99,
      "total_episodios": 12,
      "link_video": "https://animefire.plus/video/bermuda-triangle-colorful-pastrale"
    },
    {
      "id": 375,
      "nome": "Bernard-jou Iwaku.",
      "link": "https://animefire.plus/animes/bernard-jou-iwaku-todos-os-episodios",
      "texto_original": "Bernard-jou Iwaku.",
      "rating": 6.01,
      "classificacao_etaria": "A14",
      "imagem_original": "https://animefire.plus/img/animes/bernard-jou-iwaku.webp",
      "imagem_pasta": "https://animefire.plus/img/animes/bernard-jou-iwaku/",
      "secao": "legendados",
      "pagina": 179,
      "total_episodios": 3,
      "link_video": "https://animefire.plus/video/bernard-jou-iwaku"
    },
    {
      "id": 376,
      "nome": "Berserk",
      "link": "https://animefire.plus/animes/berserk-todos-os-episodios",
      "texto_original": "Berserk",
      "rating": 6.51,
      "classificacao_etaria": "A18",
      "imagem_original": "https://animefire.plus/img/animes/berserk.webp",
      "imagem_pasta": "https://animefire.plus/img/animes/berserk/",
      "secao": "legendados",
      "pagina": 66,
      "total_episodios": 12,
      "link_video": "https://animefire.plus/video/berserk"
    },
    {
      "id": 379,
      "nome": "Beyblade Burst",
      "link": "https://animefire.plus/animes/beyblade-burst-todos-os-episodios",
      "texto_original": "Beyblade Burst",
      "rating": 6.58,
      "classificacao_etaria": "A10",
      "imagem_original": "https://animefire.plus/img/animes/beyblade-burst.webp",
      "imagem_pasta": "https://animefire.plus/img/animes/beyblade-burst/",
      "secao": "legendados",
      "pagina": 173,
      "total_episodios": 2,
      "link_video": "https://animefire.plus/video/beyblade-burst"
    },
    {
      "id": 383,
      "nome": "Big Order",
      "link": "https://animefire.plus/animes/big-order-todos-os-episodios",
      "texto_original": "Big Order",
      "rating": 5.85,
      "classificacao_etaria": "A18",
      "imagem_original": "https://animefire.plus/img/animes/big-order.webp",
      "imagem_pasta": "https://animefire.plus/img/animes/big-order/",
      "secao": "legendados",
      "pagina": 62,
      "total_episodios": 10,
      "link_video": "https://animefire.plus/video/big-order"
    },
    {
      "id": 384,
      "nome": "Big Order (TV)",
      "link": "https://animefire.plus/animes/big-order-tv-todos-os-episodios",
      "texto_original": "Big Order (TV)",
      "rating": 5.45,
      "classificacao_etaria": "A18",
      "imagem_original": "https://animefire.plus/img/animes/big-order-tv.webp",
      "imagem_pasta": "https://animefire.plus/img/animes/big-order-tv/",
      "secao": "legendados",
      "pagina": 79,
      "total_episodios": 10,
      "link_video": "https://animefire.plus/video/big-order-tv"
    },
    {
      "id": 385,
      "nome": "Bihada Ichizoku",
      "link": "https://animefire.plus/animes/bihada-ichizoku-todos-os-episodios",
      "texto_original": "Bihada Ichizoku",
      "rating": 5.8,
      "classificacao_etaria": "A14",
      "imagem_original": "https://animefire.plus/img/animes/bihada-ichizoku.webp",
      "imagem_pasta": "https://animefire.plus/img/animes/bihada-ichizoku/",
      "secao": "legendados",
      "pagina": 139,
      "total_episodios": 12,
      "link_video": "https://animefire.plus/video/bihada-ichizoku"
    },
    {
      "id": 388,
      "nome": "Binan Koukou Chikyuu Boueibu Happy Kiss!",
      "link": "https://animefire.plus/animes/binan-koukou-chikyuu-boueibu-happy-kiss-todos-os-episodios",
      "texto_original": "Binan Koukou Chikyuu Boueibu Happy Kiss!",
      "rating": 6.58,
      "classificacao_etaria": "A14",
      "imagem_original": "https://animefire.plus/img/animes/binan-koukou-chikyuu-boueibu-happy-kiss.webp",
      "imagem_pasta": "https://animefire.plus/img/animes/binan-koukou-chikyuu-boueibu-happy-kiss/",
      "secao": "legendados",
      "pagina": 160,
      "total_episodios": 11,
      "link_video": "https://animefire.plus/video/binan-koukou-chikyuu-boueibu-happy-kiss"
    },
    {
      "id": 389,
      "nome": "Binan Koukou Chikyuu Boueibu LOVE!",
      "link": "https://animefire.plus/animes/binan-koukou-chikyuu-boueibu-love-todos-os-episodios",
      "texto_original": "Binan Koukou Chikyuu Boueibu LOVE!",
      "rating": 7,
      "classificacao_etaria": "A14",
      "imagem_original": "https://animefire.plus/img/animes/binan-koukou-chikyuu-boueibu-love.webp",
      "imagem_pasta": "https://animefire.plus/img/animes/binan-koukou-chikyuu-boueibu-love/",
      "secao": "legendados",
      "pagina": 143,
      "total_episodios": 8,
      "link_video": "https://animefire.plus/video/binan-koukou-chikyuu-boueibu-love"
    },
    {
      "id": 390,
      "nome": "Binbou Shimai Monogatari",
      "link": "https://animefire.plus/animes/binbou-shimai-monogatari-todos-os-episodios",
      "texto_original": "Binbou Shimai Monogatari",
      "rating": 6.92,
      "classificacao_etaria": null,
      "imagem_original": "https://animefire.plus/img/animes/binbou-shimai-monogatari.webp",
      "imagem_pasta": "https://animefire.plus/img/animes/binbou-shimai-monogatari/",
      "secao": "legendados",
      "pagina": 117,
      "total_episodios": 10,
      "link_video": "https://animefire.plus/video/binbou-shimai-monogatari"
    },
    {
      "id": 391,
      "nome": "Binbougami ga!",
      "link": "https://animefire.plus/animes/binbougami-ga-todos-os-episodios",
      "texto_original": "Binbougami ga!",
      "rating": 7.8,
      "classificacao_etaria": "A14",
      "imagem_original": "https://animefire.plus/img/animes/binbougami-ga.webp",
      "imagem_pasta": "https://animefire.plus/img/animes/binbougami-ga/",
      "secao": "legendados",
      "pagina": 119,
      "total_episodios": 12,
      "link_video": "https://animefire.plus/video/binbougami-ga"
    },
    {
      "id": 392,
      "nome": "Binchou-tan",
      "link": "https://animefire.plus/animes/binchou-tan-todos-os-episodios",
      "texto_original": "Binchou-tan",
      "rating": 6.96,
      "classificacao_etaria": null,
      "imagem_original": "https://animefire.plus/img/animes/binchou-tan.webp",
      "imagem_pasta": "https://animefire.plus/img/animes/binchou-tan/",
      "secao": "legendados",
      "pagina": 155,
      "total_episodios": 6,
      "link_video": "https://animefire.plus/video/binchou-tan"
    },
    {
      "id": 397,
      "nome": "Bishoujo Senshi Sailor Moon Crystal",
      "link": "https://animefire.plus/animes/bishoujo-senshi-sailor-moon-crystal-todos-os-episodios",
      "texto_original": "Bishoujo Senshi Sailor Moon Crystal",
      "rating": 7.05,
      "classificacao_etaria": "A14",
      "imagem_original": "https://animefire.plus/img/animes/bishoujo-senshi-sailor-moon-crystal.webp",
      "imagem_pasta": "https://animefire.plus/img/animes/bishoujo-senshi-sailor-moon-crystal/",
      "secao": "legendados",
      "pagina": 96,
      "total_episodios": 3,
      "link_video": "https://animefire.plus/video/bishoujo-senshi-sailor-moon-crystal"
    },
    {
      "id": 402,
      "nome": "Bishoujo Senshi Sailor Moon: Sailor Stars - Hero Club",
      "link": "https://animefire.plus/animes/bishoujo-senshi-sailor-moon-sailor-stars---hero-club-todos-os-episodios",
      "texto_original": "Bishoujo Senshi Sailor Moon: Sailor Stars - Hero Club",
      "rating": 7.25,
      "classificacao_etaria": "A14",
      "imagem_original": "https://animefire.plus/img/animes/bishoujo-senshi-sailor-moon-sailor-stars---hero-club.webp",
      "imagem_pasta": "https://animefire.plus/img/animes/bishoujo-senshi-sailor-moon-sailor-stars---hero-club/",
      "secao": "legendados",
      "pagina": 72,
      "total_episodios": 3,
      "link_video": "https://animefire.plus/video/bishoujo-senshi-sailor-moon-sailor-stars---hero-club"
    },
    {
      "id": 403,
      "nome": "Bishoujo Yuugekitai Battle Skipper",
      "link": "https://animefire.plus/animes/bishoujo-yuugekitai-battle-skipper-todos-os-episodios",
      "texto_original": "Bishoujo Yuugekitai Battle Skipper",
      "rating": 5.23,
      "classificacao_etaria": "A14",
      "imagem_original": "https://animefire.plus/img/animes/bishoujo-yuugekitai-battle-skipper.webp",
      "imagem_pasta": "https://animefire.plus/img/animes/bishoujo-yuugekitai-battle-skipper/",
      "secao": "legendados",
      "pagina": 77,
      "total_episodios": 3,
      "link_video": "https://animefire.plus/video/bishoujo-yuugekitai-battle-skipper"
    }
  ],
  "pagination": {
    "current_page": 10,
    "per_page": 20,
    "total_items": 2189,
    "total_pages": 110,
    "has_next": true,
    "has_prev": true
  }
}
