{
  "message": "Animes com 2 a 12 episódios",
  "episode_range": {
    "min": 2,
    "max": 12
  },
  "data": [
    {
      "id": 1560,
      "nome": "Hyakka Ryouran: Samurai After",
      "link": "https://animefire.plus/animes/hyakka-ryouran-samurai-after-todos-os-episodios",
      "texto_original": "Hyakka Ryouran: Samurai After",
      "rating": 6.72,
      "classificacao_etaria": "A18",
      "imagem_original": "https://animefire.plus/img/animes/hyakka-ryouran-samurai-after.webp",
      "imagem_pasta": "https://animefire.plus/img/animes/hyakka-ryouran-samurai-after/",
      "secao": "legendados",
      "pagina": 74,
      "total_episodios": 4,
      "link_video": "https://animefire.plus/video/hyakka-ryouran-samurai-after"
    },
    {
      "id": 1561,
      "nome": "Hyakka Ryouran: Samurai Bride",
      "link": "https://animefire.plus/animes/hyakka-ryouran-samurai-bride-todos-os-episodios",
      "texto_original": "Hyakka Ryouran: Samurai Bride",
      "rating": 6.85,
      "classificacao_etaria": "A18",
      "imagem_original": "https://animefire.plus/img/animes/hyakka-ryouran-samurai-bride.webp",
      "imagem_pasta": "https://animefire.plus/img/animes/hyakka-ryouran-samurai-bride/",
      "secao": "legendados",
      "pagina": 156,
      "total_episodios": 12,
      "link_video": "https://animefire.plus/video/hyakka-ryouran-samurai-bride"
    },
    {
      "id": 1562,
      "nome": "Hyakka Ryouran: Samurai Girls",
      "link": "https://animefire.plus/animes/hyakka-ryouran-samurai-girls-todos-os-episodios",
      "texto_original": "Hyakka Ryouran: Samurai Girls",
      "rating": 6.91,
      "classificacao_etaria": "A18",
      "imagem_original": "https://animefire.plus/img/animes/hyakka-ryouran-samurai-girls.webp",
      "imagem_pasta": "https://animefire.plus/img/animes/hyakka-ryouran-samurai-girls/",
      "secao": "legendados",
      "pagina": 139,
      "total_episodios": 12,
      "link_video": "https://animefire.plus/video/hyakka-ryouran-samurai-girls"
    },
    {
      "id": 1566,
      "nome": "Hyakuren no Haou to Seiyaku no Valkyria",
      "link": "https://animefire.plus/animes/hyakuren-no-haou-to-seiyaku-no-valkyria-todos-os-episodios",
      "texto_original": "Hyakuren no Haou to Seiyaku no Valkyria",
      "rating": 6.07,
      "classificacao_etaria": "A14",
      "imagem_original": "https://animefire.plus/img/animes/hyakuren-no-haou-to-seiyaku-no-valkyria.webp",
      "imagem_pasta": "https://animefire.plus/img/animes/hyakuren-no-haou-to-seiyaku-no-valkyria/",
      "secao": "legendados",
      "pagina": 132,
      "total_episodios": 12,
      "link_video": "https://animefire.plus/video/hyakuren-no-haou-to-seiyaku-no-valkyria"
    },
    {
      "id": 1567,
      "nome": "Hybrid Child",
      "link": "https://animefire.plus/animes/hybrid-child-todos-os-episodios",
      "texto_original": "Hybrid Child",
      "rating": 7.84,
      "classificacao_etaria": "A14",
      "imagem_original": "https://animefire.plus/img/animes/hybrid-child.webp",
      "imagem_pasta": "https://animefire.plus/img/animes/hybrid-child/",
      "secao": "legendados",
      "pagina": 80,
      "total_episodios": 4,
      "link_video": "https://animefire.plus/video/hybrid-child"
    },
    {
      "id": 1569,
      "nome": "Hyouken no Majutsushi ga Sekai wo Suberu (Dublado)",
      "link": "https://animefire.plus/animes/hyouken-no-majutsushi-ga-sekai-wo-suberu-dublado-todos-os-episodios",
      "texto_original": "Hyouken no Majutsushi ga Sekai wo Suberu (Dublado)",
      "rating": 6.36,
      "classificacao_etaria": "A14",
      "imagem_original": "https://animefire.plus/img/animes/hyouken-no-majutsushi-ga-sekai-wo-suberu.webp",
      "imagem_pasta": "https://animefire.plus/img/animes/hyouken-no-majutsushi-ga-sekai-wo-suberu/",
      "secao": "dublados,legendados",
      "pagina": 4,
      "total_episodios": 12,
      "link_video": "https://animefire.plus/video/hyouken-no-majutsushi-ga-sekai-wo-suberu-dublado"
    },
    {
      "id": 1573,
      "nome": "I: Wish You Were Here",
      "link": "https://animefire.plus/animes/i-wish-you-were-here-todos-os-episodios",
      "texto_original": "I: Wish You Were Here",
      "rating": 6.13,
      "classificacao_etaria": "A16",
      "imagem_original": "https://animefire.plus/img/animes/i-wish-you-were-here.webp",
      "imagem_pasta": "https://animefire.plus/img/animes/i-wish-you-were-here/",
      "secao": "legendados",
      "pagina": 113,
      "total_episodios": 4,
      "link_video": "https://animefire.plus/video/i-wish-you-were-here"
    },
    {
      "id": 1574,
      "nome": "I''s Pure",
      "link": "https://animefire.plus/animes/i-s-pure-todos-os-episodios",
      "texto_original": "I''s Pure",
      "rating": 6.89,
      "classificacao_etaria": "A18",
      "imagem_original": "https://animefire.plus/img/animes/i-s-pure.webp",
      "imagem_pasta": "https://animefire.plus/img/animes/i-s-pure/",
      "secao": "legendados",
      "pagina": 43,
      "total_episodios": 6,
      "link_video": "https://animefire.plus/video/i-s-pure"
    },
    {
      "id": 1575,
      "nome": "I''s Pure Bonus",
      "link": "https://animefire.plus/animes/i-s-pure-bonus-todos-os-episodios",
      "texto_original": "I''s Pure Bonus",
      "rating": 6.45,
      "classificacao_etaria": "A18",
      "imagem_original": "https://animefire.plus/img/animes/i-s-pure-bonus.webp",
      "imagem_pasta": "https://animefire.plus/img/animes/i-s-pure-bonus/",
      "secao": "legendados",
      "pagina": 43,
      "total_episodios": 5,
      "link_video": "https://animefire.plus/video/i-s-pure-bonus"
    },
    {
      "id": 1576,
      "nome": "I★Chu: Halfway Through the Idol",
      "link": "https://animefire.plus/animes/i-chu-halfway-through-the-idol-todos-os-episodios",
      "texto_original": "I★Chu: Halfway Through the Idol",
      "rating": 6.57,
      "classificacao_etaria": "A14",
      "imagem_original": "https://animefire.plus/img/animes/i-chu-halfway-through-the-idol.webp",
      "imagem_pasta": "https://animefire.plus/img/animes/i-chu-halfway-through-the-idol/",
      "secao": "legendados",
      "pagina": 48,
      "total_episodios": 12,
      "link_video": "https://animefire.plus/video/i-chu-halfway-through-the-idol"
    },
    {
      "id": 1577,
      "nome": "Ichiban Ushiro no Daimaou",
      "link": "https://animefire.plus/animes/ichiban-ushiro-no-daimaou-todos-os-episodios",
      "texto_original": "Ichiban Ushiro no Daimaou",
      "rating": 7.08,
      "classificacao_etaria": "A18",
      "imagem_original": "https://animefire.plus/img/animes/ichiban-ushiro-no-daimaou.webp",
      "imagem_pasta": "https://animefire.plus/img/animes/ichiban-ushiro-no-daimaou/",
      "secao": "legendados",
      "pagina": 124,
      "total_episodios": 12,
      "link_video": "https://animefire.plus/video/ichiban-ushiro-no-daimaou"
    },
    {
      "id": 1578,
      "nome": "Ichigo 100%",
      "link": "https://animefire.plus/animes/ichigo-100-todos-os-episodios",
      "texto_original": "Ichigo 100%",
      "rating": 6.75,
      "classificacao_etaria": "A14",
      "imagem_original": "https://animefire.plus/img/animes/ichigo-100.webp",
      "imagem_pasta": "https://animefire.plus/img/animes/ichigo-100/",
      "secao": "legendados",
      "pagina": 156,
      "total_episodios": 12,
      "link_video": "https://animefire.plus/video/ichigo-100"
    },
    {
      "id": 1580,
      "nome": "Ichigo Mashimaro",
      "link": "https://animefire.plus/animes/ichigo-mashimaro-todos-os-episodios",
      "texto_original": "Ichigo Mashimaro",
      "rating": 7.71,
      "classificacao_etaria": "A14",
      "imagem_original": "https://animefire.plus/img/animes/ichigo-mashimaro.webp",
      "imagem_pasta": "https://animefire.plus/img/animes/ichigo-mashimaro/",
      "secao": "legendados",
      "pagina": 123,
      "total_episodios": 12,
      "link_video": "https://animefire.plus/video/ichigo-mashimaro"
    },
    {
      "id": 1581,
      "nome": "Ichigo Mashimaro Encore",
      "link": "https://animefire.plus/animes/ichigo-mashimaro-encore-todos-os-episodios",
      "texto_original": "Ichigo Mashimaro Encore",
      "rating": 7.72,
      "classificacao_etaria": "A14",
      "imagem_original": "https://animefire.plus/img/animes/ichigo-mashimaro-encore.webp",
      "imagem_pasta": "https://animefire.plus/img/animes/ichigo-mashimaro-encore/",
      "secao": "legendados",
      "pagina": 67,
      "total_episodios": 2,
      "link_video": "https://animefire.plus/video/ichigo-mashimaro-encore"
    },
    {
      "id": 1582,
      "nome": "Iczer-Girl Iczelion",
      "link": "https://animefire.plus/animes/iczer-girl-iczelion-todos-os-episodios",
      "texto_original": "Iczer-Girl Iczelion",
      "rating": 5.68,
      "classificacao_etaria": "A18",
      "imagem_original": "https://animefire.plus/img/animes/iczer-girl-iczelion.webp",
      "imagem_pasta": "https://animefire.plus/img/animes/iczer-girl-iczelion/",
      "secao": "legendados",
      "pagina": 67,
      "total_episodios": 2,
      "link_video": "https://animefire.plus/video/iczer-girl-iczelion"
    },
    {
      "id": 1583,
      "nome": "ID-0 (Dublado)",
      "link": "https://animefire.plus/animes/id-0-dublado-todos-os-episodios",
      "texto_original": "ID-0 (Dublado)",
      "rating": 6.64,
      "classificacao_etaria": "A14",
      "imagem_original": "https://animefire.plus/img/animes/id-0.webp",
      "imagem_pasta": "https://animefire.plus/img/animes/id-0/",
      "secao": "dublados,legendados",
      "pagina": 21,
      "total_episodios": 12,
      "link_video": "https://animefire.plus/video/id-0-dublado"
    },
    {
      "id": 1587,
      "nome": "Idol Memories",
      "link": "https://animefire.plus/animes/idol-memories-todos-os-episodios",
      "texto_original": "Idol Memories",
      "rating": 5.36,
      "classificacao_etaria": "A14",
      "imagem_original": "https://animefire.plus/img/animes/idol-memories.webp",
      "imagem_pasta": "https://animefire.plus/img/animes/idol-memories/",
      "secao": "legendados",
      "pagina": 142,
      "total_episodios": 3,
      "link_video": "https://animefire.plus/video/idol-memories"
    },
    {
      "id": 1592,
      "nome": "IDOLiSH7: Third Beat! Part 2",
      "link": "https://animefire.plus/animes/idolish7-third-beat-part-2-todos-os-episodios",
      "texto_original": "IDOLiSH7: Third Beat! Part 2",
      "rating": 8.34,
      "classificacao_etaria": "A14",
      "imagem_original": "https://animefire.plus/img/animes/idolish7-third-beat-part-2.webp",
      "imagem_pasta": "https://animefire.plus/img/animes/idolish7-third-beat-part-2/",
      "secao": "legendados,lancamentos",
      "pagina": 28,
      "total_episodios": 6,
      "link_video": "https://animefire.plus/video/idolish7-third-beat-part-2"
    },
    {
      "id": 1593,
      "nome": "Idolls!",
      "link": "https://animefire.plus/animes/idolls-todos-os-episodios",
      "texto_original": "Idolls!",
      "rating": 5.05,
      "classificacao_etaria": "A14",
      "imagem_original": "https://animefire.plus/img/animes/idolls.webp",
      "imagem_pasta": "https://animefire.plus/img/animes/idolls/",
      "secao": "legendados",
      "pagina": 48,
      "total_episodios": 10,
      "link_video": "https://animefire.plus/video/idolls"
    },
    {
      "id": 1595,
      "nome": "Idoly Pride",
      "link": "https://animefire.plus/animes/idoly-pride-todos-os-episodios",
      "texto_original": "Idoly Pride",
      "rating": 7.41,
      "classificacao_etaria": "A14",
      "imagem_original": "https://animefire.plus/img/animes/idoly-pride.webp",
      "imagem_pasta": "https://animefire.plus/img/animes/idoly-pride/",
      "secao": "legendados",
      "pagina": 48,
      "total_episodios": 12,
      "link_video": "https://animefire.plus/video/idoly-pride"
    }
  ],
  "pagination": {
    "current_page": 39,
    "per_page": 20,
    "total_items": 2189,
    "total_pages": 110,
    "has_next": true,
    "has_prev": true
  }
}
