{
  "message": "Animes com 2 a 12 episódios",
  "episode_range": {
    "min": 2,
    "max": 12
  },
  "data": [
    {
      "id": 1357,
      "nome": "Hanbun no Tsuki ga Noboru Sora",
      "link": "https://animefire.plus/animes/hanbun-no-tsuki-ga-noboru-sora-todos-os-episodios",
      "texto_original": "Hanbun no Tsuki ga Noboru Sora",
      "rating": 7.59,
      "classificacao_etaria": "A14",
      "imagem_original": "https://animefire.plus/img/animes/hanbun-no-tsuki-ga-noboru-sora.webp",
      "imagem_pasta": "https://animefire.plus/img/animes/hanbun-no-tsuki-ga-noboru-sora/",
      "secao": "legendados",
      "pagina": 146,
      "total_episodios": 6,
      "link_video": "https://animefire.plus/video/hanbun-no-tsuki-ga-noboru-sora"
    },
    {
      "id": 1359,
      "nome": "Hand Shakers",
      "link": "https://animefire.plus/animes/hand-shakers-todos-os-episodios",
      "texto_original": "Hand Shakers",
      "rating": 5.46,
      "classificacao_etaria": "A14",
      "imagem_original": "https://animefire.plus/img/animes/hand-shakers.webp",
      "imagem_pasta": "https://animefire.plus/img/animes/hand-shakers/",
      "secao": "legendados",
      "pagina": 74,
      "total_episodios": 12,
      "link_video": "https://animefire.plus/video/hand-shakers"
    },
    {
      "id": 1361,
      "nome": "Handa-kun",
      "link": "https://animefire.plus/animes/handa-kun-todos-os-episodios",
      "texto_original": "Handa-kun",
      "rating": 7.46,
      "classificacao_etaria": "A14",
      "imagem_original": "https://animefire.plus/img/animes/handa-kun.webp",
      "imagem_pasta": "https://animefire.plus/img/animes/handa-kun/",
      "secao": "legendados",
      "pagina": 174,
      "total_episodios": 12,
      "link_video": "https://animefire.plus/video/handa-kun"
    },
    {
      "id": 1364,
      "nome": "Hangyakusei Million Arthur",
      "link": "https://animefire.plus/animes/hangyakusei-million-arthur-todos-os-episodios",
      "texto_original": "Hangyakusei Million Arthur",
      "rating": 6.28,
      "classificacao_etaria": "A14",
      "imagem_original": "https://animefire.plus/img/animes/hangyakusei-million-arthur.webp",
      "imagem_pasta": "https://animefire.plus/img/animes/hangyakusei-million-arthur/",
      "secao": "legendados",
      "pagina": 116,
      "total_episodios": 10,
      "link_video": "https://animefire.plus/video/hangyakusei-million-arthur"
    },
    {
      "id": 1365,
      "nome": "Hangyakusei Million Arthur 2nd Season",
      "link": "https://animefire.plus/animes/hangyakusei-million-arthur-2nd-season-todos-os-episodios",
      "texto_original": "Hangyakusei Million Arthur 2nd Season",
      "rating": 6.35,
      "classificacao_etaria": "A14",
      "imagem_original": "https://animefire.plus/img/animes/hangyakusei-million-arthur-2nd-season.webp",
      "imagem_pasta": "https://animefire.plus/img/animes/hangyakusei-million-arthur-2nd-season/",
      "secao": "legendados",
      "pagina": 130,
      "total_episodios": 6,
      "link_video": "https://animefire.plus/video/hangyakusei-million-arthur-2nd-season"
    },
    {
      "id": 1367,
      "nome": "Hanma Baki: Son of Ogre (Dublado)",
      "link": "https://animefire.plus/animes/hanma-baki-son-of-ogre-dublado-todos-os-episodios",
      "texto_original": "Hanma Baki: Son of Ogre (Dublado)",
      "rating": 7.64,
      "classificacao_etaria": "A16",
      "imagem_original": "https://animefire.plus/img/animes/hanma-baki-son-of-ogre.webp",
      "imagem_pasta": "https://animefire.plus/img/animes/hanma-baki-son-of-ogre/",
      "secao": "dublados,legendados",
      "pagina": 15,
      "total_episodios": 12,
      "link_video": "https://animefire.plus/video/hanma-baki-son-of-ogre-dublado"
    },
    {
      "id": 1369,
      "nome": "Hanoka",
      "link": "https://animefire.plus/animes/hanoka-todos-os-episodios",
      "texto_original": "Hanoka",
      "rating": 3.82,
      "classificacao_etaria": "A14",
      "imagem_original": "https://animefire.plus/img/animes/hanoka.webp",
      "imagem_pasta": "https://animefire.plus/img/animes/hanoka/",
      "secao": "legendados",
      "pagina": 56,
      "total_episodios": 12,
      "link_video": "https://animefire.plus/video/hanoka"
    },
    {
      "id": 1370,
      "nome": "Hantsu x Trash",
      "link": "https://animefire.plus/animes/hantsu-x-trash-todos-os-episodios",
      "texto_original": "Hantsu x Trash",
      "rating": 5.26,
      "classificacao_etaria": "A18",
      "imagem_original": "https://animefire.plus/img/animes/hantsu-x-trash.webp",
      "imagem_pasta": "https://animefire.plus/img/animes/hantsu-x-trash/",
      "secao": "legendados",
      "pagina": 150,
      "total_episodios": 3,
      "link_video": "https://animefire.plus/video/hantsu-x-trash"
    },
    {
      "id": 1375,
      "nome": "Happy Sugar Life",
      "link": "https://animefire.plus/animes/happy-sugar-life-todos-os-episodios",
      "texto_original": "Happy Sugar Life",
      "rating": 7.04,
      "classificacao_etaria": "A16",
      "imagem_original": "https://animefire.plus/img/animes/happy-sugar-life.webp",
      "imagem_pasta": "https://animefire.plus/img/animes/happy-sugar-life/",
      "secao": "legendados",
      "pagina": 142,
      "total_episodios": 12,
      "link_video": "https://animefire.plus/video/happy-sugar-life"
    },
    {
      "id": 1376,
      "nome": "HaruChika: Haruta To Chika Wa Seishun Suru",
      "link": "https://animefire.plus/animes/haruchika-haruta-to-chika-wa-seishun-suru-todos-os-episodios",
      "texto_original": "HaruChika: Haruta To Chika Wa Seishun Suru",
      "rating": 6.41,
      "classificacao_etaria": "A14",
      "imagem_original": "https://animefire.plus/img/animes/haruchika-haruta-to-chika-wa-seishun-suru.webp",
      "imagem_pasta": "https://animefire.plus/img/animes/haruchika-haruta-to-chika-wa-seishun-suru/",
      "secao": "legendados",
      "pagina": 96,
      "total_episodios": 12,
      "link_video": "https://animefire.plus/video/haruchika-haruta-to-chika-wa-seishun-suru"
    },
    {
      "id": 1377,
      "nome": "Harukana Receive",
      "link": "https://animefire.plus/animes/harukana-receive-todos-os-episodios",
      "texto_original": "Harukana Receive",
      "rating": 6.84,
      "classificacao_etaria": "A14",
      "imagem_original": "https://animefire.plus/img/animes/harukana-receive.webp",
      "imagem_pasta": "https://animefire.plus/img/animes/harukana-receive/",
      "secao": "legendados",
      "pagina": 161,
      "total_episodios": 12,
      "link_video": "https://animefire.plus/video/harukana-receive"
    },
    {
      "id": 1380,
      "nome": "Hashiri Tsuzukete Yokattatte.",
      "link": "https://animefire.plus/animes/hashiri-tsuzukete-yokattatte-todos-os-episodios",
      "texto_original": "Hashiri Tsuzukete Yokattatte.",
      "rating": 6.49,
      "classificacao_etaria": "A14",
      "imagem_original": "https://animefire.plus/img/animes/hashiri-tsuzukete-yokattatte.webp",
      "imagem_pasta": "https://animefire.plus/img/animes/hashiri-tsuzukete-yokattatte/",
      "secao": "legendados",
      "pagina": 146,
      "total_episodios": 4,
      "link_video": "https://animefire.plus/video/hashiri-tsuzukete-yokattatte"
    },
    {
      "id": 1382,
      "nome": "Hataraki Man",
      "link": "https://animefire.plus/animes/hataraki-man-todos-os-episodios",
      "texto_original": "Hataraki Man",
      "rating": 7.08,
      "classificacao_etaria": "A14",
      "imagem_original": "https://animefire.plus/img/animes/hataraki-man.webp",
      "imagem_pasta": "https://animefire.plus/img/animes/hataraki-man/",
      "secao": "legendados",
      "pagina": 137,
      "total_episodios": 11,
      "link_video": "https://animefire.plus/video/hataraki-man"
    },
    {
      "id": 1384,
      "nome": "Hataraku Maou-sama!!",
      "link": "https://animefire.plus/animes/the-devil-is-a-part-timer-2nd-season-todos-os-episodios",
      "texto_original": "Hataraku Maou-sama!!",
      "rating": 6.65,
      "classificacao_etaria": "A14",
      "imagem_original": "https://animefire.plus/img/animes/the-devil-is-a-part-timer-2nd-season.webp",
      "imagem_pasta": "https://animefire.plus/img/animes/the-devil-is-a-part-timer-2nd-season/",
      "secao": "legendados",
      "pagina": 30,
      "total_episodios": 6,
      "link_video": "https://animefire.plus/video/the-devil-is-a-part-timer-2nd-season"
    },
    {
      "id": 1385,
      "nome": "Hataraku Maou-sama!! 2nd Season (Dublado)",
      "link": "https://animefire.plus/animes/hataraku-maou-sama-2nd-season-dublado-todos-os-episodios",
      "texto_original": "Hataraku Maou-sama!! 2nd Season (Dublado)",
      "rating": 6.67,
      "classificacao_etaria": "A14",
      "imagem_original": "https://animefire.plus/img/animes/hataraku-maou-sama-2nd-season.webp",
      "imagem_pasta": "https://animefire.plus/img/animes/hataraku-maou-sama-2nd-season/",
      "secao": "dublados,legendados",
      "pagina": 6,
      "total_episodios": 12,
      "link_video": "https://animefire.plus/video/hataraku-maou-sama-2nd-season-dublado"
    },
    {
      "id": 1387,
      "nome": "Hataraku Saibou (TV)",
      "link": "https://animefire.plus/animes/hataraku-saibou-tv-todos-os-episodios",
      "texto_original": "Hataraku Saibou (TV)",
      "rating": 7.75,
      "classificacao_etaria": "A14",
      "imagem_original": "https://animefire.plus/img/animes/hataraku-saibou-tv.webp",
      "imagem_pasta": "https://animefire.plus/img/animes/hataraku-saibou-tv/",
      "secao": "legendados",
      "pagina": 85,
      "total_episodios": 12,
      "link_video": "https://animefire.plus/video/hataraku-saibou-tv"
    },
    {
      "id": 1390,
      "nome": "Hataraku Saibou!!",
      "link": "https://animefire.plus/animes/cells-at-work-2nd-season-todos-os-episodios",
      "texto_original": "Hataraku Saibou!!",
      "rating": 7.38,
      "classificacao_etaria": "A14",
      "imagem_original": "https://animefire.plus/img/animes/cells-at-work-2nd-season.webp",
      "imagem_pasta": "https://animefire.plus/img/animes/cells-at-work-2nd-season/",
      "secao": "legendados",
      "pagina": 50,
      "total_episodios": 8,
      "link_video": "https://animefire.plus/video/cells-at-work-2nd-season"
    },
    {
      "id": 1391,
      "nome": "Hatena☆Illusion",
      "link": "https://animefire.plus/animes/hatena-illusion-todos-os-episodios",
      "texto_original": "Hatena☆Illusion",
      "rating": 5.37,
      "classificacao_etaria": "A14",
      "imagem_original": "https://animefire.plus/img/animes/hatena-illusion.webp",
      "imagem_pasta": "https://animefire.plus/img/animes/hatena-illusion/",
      "secao": "legendados",
      "pagina": 93,
      "total_episodios": 3,
      "link_video": "https://animefire.plus/video/hatena-illusion"
    },
    {
      "id": 1393,
      "nome": "Hatsukoi Limited.",
      "link": "https://animefire.plus/animes/hatsukoi-limited-todos-os-episodios",
      "texto_original": "Hatsukoi Limited.",
      "rating": 7.35,
      "classificacao_etaria": "A14",
      "imagem_original": "https://animefire.plus/img/animes/hatsukoi-limited.webp",
      "imagem_pasta": "https://animefire.plus/img/animes/hatsukoi-limited/",
      "secao": "legendados",
      "pagina": 71,
      "total_episodios": 12,
      "link_video": "https://animefire.plus/video/hatsukoi-limited"
    },
    {
      "id": 1395,
      "nome": "Hatsukoi Monster",
      "link": "https://animefire.plus/animes/hatsukoi-monster-todos-os-episodios",
      "texto_original": "Hatsukoi Monster",
      "rating": 5.83,
      "classificacao_etaria": "A14",
      "imagem_original": "https://animefire.plus/img/animes/hatsukoi-monster.webp",
      "imagem_pasta": "https://animefire.plus/img/animes/hatsukoi-monster/",
      "secao": "legendados",
      "pagina": 104,
      "total_episodios": 12,
      "link_video": "https://animefire.plus/video/hatsukoi-monster"
    }
  ],
  "pagination": {
    "current_page": 34,
    "per_page": 20,
    "total_items": 2189,
    "total_pages": 110,
    "has_next": true,
    "has_prev": true
  }
}
