{
  "message": "Animes com 2 a 12 episódios",
  "episode_range": {
    "min": 2,
    "max": 12
  },
  "data": [
    {
      "id": 405,
      "nome": "Bishoujo Yuugi Unit Crane Game Girls Galaxy",
      "link": "https://animefire.plus/animes/bishoujo-yuugi-unit-crane-game-girls-galaxy-todos-os-episodios",
      "texto_original": "Bishoujo Yuugi Unit Crane Game Girls Galaxy",
      "rating": 4.77,
      "classificacao_etaria": "A10",
      "imagem_original": "https://animefire.plus/img/animes/bishoujo-yuugi-unit-crane-game-girls-galaxy.webp",
      "imagem_pasta": "https://animefire.plus/img/animes/bishoujo-yuugi-unit-crane-game-girls-galaxy/",
      "secao": "legendados",
      "pagina": 146,
      "total_episodios": 3,
      "link_video": "https://animefire.plus/video/bishoujo-yuugi-unit-crane-game-girls-galaxy"
    },
    {
      "id": 406,
      "nome": "Bishounen Tanteidan",
      "link": "https://animefire.plus/animes/bishounen-tanteidan-todos-os-episodios",
      "texto_original": "Bishounen Tanteidan",
      "rating": 7.07,
      "classificacao_etaria": "A14",
      "imagem_original": "https://animefire.plus/img/animes/bishounen-tanteidan.webp",
      "imagem_pasta": "https://animefire.plus/img/animes/bishounen-tanteidan/",
      "secao": "legendados",
      "pagina": 46,
      "total_episodios": 12,
      "link_video": "https://animefire.plus/video/bishounen-tanteidan"
    },
    {
      "id": 407,
      "nome": "Black Blood Brothers",
      "link": "https://animefire.plus/animes/black-blood-brothers-todos-os-episodios",
      "texto_original": "Black Blood Brothers",
      "rating": 7.21,
      "classificacao_etaria": "A16",
      "imagem_original": "https://animefire.plus/img/animes/black-blood-brothers.webp",
      "imagem_pasta": "https://animefire.plus/img/animes/black-blood-brothers/",
      "secao": "legendados",
      "pagina": 151,
      "total_episodios": 6,
      "link_video": "https://animefire.plus/video/black-blood-brothers"
    },
    {
      "id": 412,
      "nome": "Black Lagoon",
      "link": "https://animefire.plus/animes/black-lagoon-todos-os-episodios",
      "texto_original": "Black Lagoon",
      "rating": 8.11,
      "classificacao_etaria": "A16",
      "imagem_original": "https://animefire.plus/img/animes/black-lagoon.webp",
      "imagem_pasta": "https://animefire.plus/img/animes/black-lagoon/",
      "secao": "legendados",
      "pagina": 112,
      "total_episodios": 12,
      "link_video": "https://animefire.plus/video/black-lagoon"
    },
    {
      "id": 413,
      "nome": "Black Lagoon Omake",
      "link": "https://animefire.plus/animes/black-lagoon-omake-todos-os-episodios",
      "texto_original": "Black Lagoon Omake",
      "rating": 6.81,
      "classificacao_etaria": "A14",
      "imagem_original": "https://animefire.plus/img/animes/black-lagoon-omake.webp",
      "imagem_pasta": "https://animefire.plus/img/animes/black-lagoon-omake/",
      "secao": "legendados",
      "pagina": 43,
      "total_episodios": 5,
      "link_video": "https://animefire.plus/video/black-lagoon-omake"
    },
    {
      "id": 414,
      "nome": "Black Lagoon: The Second Barrage",
      "link": "https://animefire.plus/animes/black-lagoon-the-second-barrage-todos-os-episodios",
      "texto_original": "Black Lagoon: The Second Barrage",
      "rating": 8.25,
      "classificacao_etaria": "A16",
      "imagem_original": "https://animefire.plus/img/animes/black-lagoon-the-second-barrage.webp",
      "imagem_pasta": "https://animefire.plus/img/animes/black-lagoon-the-second-barrage/",
      "secao": "legendados",
      "pagina": 162,
      "total_episodios": 12,
      "link_video": "https://animefire.plus/video/black-lagoon-the-second-barrage"
    },
    {
      "id": 416,
      "nome": "Black★Rock Shooter (TV)",
      "link": "https://animefire.plus/animes/black-rock-shooter-tv-todos-os-episodios",
      "texto_original": "Black★Rock Shooter (TV)",
      "rating": 6.95,
      "classificacao_etaria": "A14",
      "imagem_original": "https://animefire.plus/img/animes/black-rock-shooter-tv.webp",
      "imagem_pasta": "https://animefire.plus/img/animes/black-rock-shooter-tv/",
      "secao": "legendados",
      "pagina": 143,
      "total_episodios": 8,
      "link_video": "https://animefire.plus/video/black-rock-shooter-tv"
    },
    {
      "id": 417,
      "nome": "Blade",
      "link": "https://animefire.plus/animes/blade-todos-os-episodios",
      "texto_original": "Blade",
      "rating": 6.3,
      "classificacao_etaria": "A16",
      "imagem_original": "https://animefire.plus/img/animes/blade.webp",
      "imagem_pasta": "https://animefire.plus/img/animes/blade/",
      "secao": "legendados",
      "pagina": 135,
      "total_episodios": 12,
      "link_video": "https://animefire.plus/video/blade"
    },
    {
      "id": 422,
      "nome": "BlazBlue: Alter Memory",
      "link": "https://animefire.plus/animes/blazblue-alter-memory-todos-os-episodios",
      "texto_original": "BlazBlue: Alter Memory",
      "rating": 6.21,
      "classificacao_etaria": "A16",
      "imagem_original": "https://animefire.plus/img/animes/blazblue-alter-memory.webp",
      "imagem_pasta": "https://animefire.plus/img/animes/blazblue-alter-memory/",
      "secao": "legendados",
      "pagina": 122,
      "total_episodios": 4,
      "link_video": "https://animefire.plus/video/blazblue-alter-memory"
    },
    {
      "id": 425,
      "nome": "Bleach: Sennen Kessen-hen - Ketsubetsu-tan",
      "link": "https://animefire.plus/animes/bleach-sennen-kessen-hen-ketsubetsu-tan-todos-os-episodios",
      "texto_original": "Bleach: Sennen Kessen-hen - Ketsubetsu-tan",
      "rating": 8.7,
      "classificacao_etaria": "A16",
      "imagem_original": "https://animefire.plus/img/animes/bleach-sennen-kessen-hen-ketsubetsu-tan.jpg",
      "imagem_pasta": "https://animefire.plus/img/animes/bleach-sennen-kessen-hen-ketsubetsu-tan/",
      "secao": "legendados",
      "pagina": 23,
      "total_episodios": 7,
      "link_video": "https://animefire.plus/video/bleach-sennen-kessen-hen-ketsubetsu-tan"
    },
    {
      "id": 429,
      "nome": "Blend S",
      "link": "https://animefire.plus/animes/blend-s-todos-os-episodios",
      "texto_original": "Blend S",
      "rating": 7.52,
      "classificacao_etaria": "A14",
      "imagem_original": "https://animefire.plus/img/animes/blend-s.webp",
      "imagem_pasta": "https://animefire.plus/img/animes/blend-s/",
      "secao": "legendados",
      "pagina": 121,
      "total_episodios": 12,
      "link_video": "https://animefire.plus/video/blend-s"
    },
    {
      "id": 431,
      "nome": "Blood-C",
      "link": "https://animefire.plus/animes/blood-c-todos-os-episodios",
      "texto_original": "Blood-C",
      "rating": 6.67,
      "classificacao_etaria": "A16",
      "imagem_original": "https://animefire.plus/img/animes/blood-c.webp",
      "imagem_pasta": "https://animefire.plus/img/animes/blood-c/",
      "secao": "legendados",
      "pagina": 158,
      "total_episodios": 12,
      "link_video": "https://animefire.plus/video/blood-c"
    },
    {
      "id": 433,
      "nome": "Bloodivores",
      "link": "https://animefire.plus/animes/bloodivores-todos-os-episodios",
      "texto_original": "Bloodivores",
      "rating": 5.64,
      "classificacao_etaria": "A16",
      "imagem_original": "https://animefire.plus/img/animes/bloodivores.webp",
      "imagem_pasta": "https://animefire.plus/img/animes/bloodivores/",
      "secao": "legendados",
      "pagina": 130,
      "total_episodios": 12,
      "link_video": "https://animefire.plus/video/bloodivores"
    },
    {
      "id": 434,
      "nome": "Blue Archive the Animation",
      "link": "https://animefire.plus/animes/blue-archive-the-animation-todos-os-episodios",
      "texto_original": "Blue Archive the Animation",
      "rating": 7.36,
      "classificacao_etaria": "A14",
      "imagem_original": "https://animefire.plus/img/animes/blue-archive-the-animation.webp",
      "imagem_pasta": "https://animefire.plus/img/animes/blue-archive-the-animation/",
      "secao": "legendados",
      "pagina": 15,
      "total_episodios": 12,
      "link_video": "https://animefire.plus/video/blue-archive-the-animation"
    },
    {
      "id": 441,
      "nome": "Blue Period (Dublado)",
      "link": "https://animefire.plus/animes/blue-period-dublado-todos-os-episodios",
      "texto_original": "Blue Period (Dublado)",
      "rating": 7.79,
      "classificacao_etaria": "A14",
      "imagem_original": "https://animefire.plus/img/animes/blue-period.webp",
      "imagem_pasta": "https://animefire.plus/img/animes/blue-period/",
      "secao": "dublados,legendados",
      "pagina": 12,
      "total_episodios": 12,
      "link_video": "https://animefire.plus/video/blue-period-dublado"
    },
    {
      "id": 445,
      "nome": "BNA (Dublado)",
      "link": "https://animefire.plus/animes/bna-dublado-todos-os-episodios",
      "texto_original": "BNA (Dublado)",
      "rating": 7.45,
      "classificacao_etaria": "A14",
      "imagem_original": "https://animefire.plus/img/animes/bna.webp",
      "imagem_pasta": "https://animefire.plus/img/animes/bna/",
      "secao": "dublados",
      "pagina": 21,
      "total_episodios": 12,
      "link_video": "https://animefire.plus/video/bna-dublado"
    },
    {
      "id": 446,
      "nome": "Bocchi the Rock!",
      "link": "https://animefire.plus/animes/bocchi-the-rock-todos-os-episodios",
      "texto_original": "Bocchi the Rock!",
      "rating": 8.75,
      "classificacao_etaria": "A14",
      "imagem_original": "https://animefire.plus/img/animes/bocchi-the-rock.webp",
      "imagem_pasta": "https://animefire.plus/img/animes/bocchi-the-rock/",
      "secao": "legendados",
      "pagina": 29,
      "total_episodios": 12,
      "link_video": "https://animefire.plus/video/bocchi-the-rock"
    },
    {
      "id": 459,
      "nome": "Boku no Hero Academia: Ikinokore! Kesshi no Survival Kunren (Dublado)",
      "link": "https://animefire.plus/animes/boku-no-hero-academia-ikinokore-kesshi-no-survival-kunren-dublado-todos-os-episodios",
      "texto_original": "Boku no Hero Academia: Ikinokore! Kesshi no Survival Kunren (Dublado)",
      "rating": 7.1,
      "classificacao_etaria": "A14",
      "imagem_original": "https://animefire.plus/img/animes/boku-no-hero-academia-ikinokore-kesshi-no-survival-kunren.webp",
      "imagem_pasta": "https://animefire.plus/img/animes/boku-no-hero-academia-ikinokore-kesshi-no-survival-kunren/",
      "secao": "dublados,legendados",
      "pagina": 18,
      "total_episodios": 2,
      "link_video": "https://animefire.plus/video/boku-no-hero-academia-ikinokore-kesshi-no-survival-kunren-dublado"
    },
    {
      "id": 462,
      "nome": "Boku no Kanojo ga Majimesugiru Sho-bitch na Ken",
      "link": "https://animefire.plus/animes/boku-no-kanojo-ga-majimesugiru-sho-bitch-na-ken-todos-os-episodios",
      "texto_original": "Boku no Kanojo ga Majimesugiru Sho-bitch na Ken",
      "rating": 6.45,
      "classificacao_etaria": "A14",
      "imagem_original": "https://animefire.plus/img/animes/boku-no-kanojo-ga-majimesugiru-sho-bitch-na-ken.webp",
      "imagem_pasta": "https://animefire.plus/img/animes/boku-no-kanojo-ga-majimesugiru-sho-bitch-na-ken/",
      "secao": "legendados",
      "pagina": 141,
      "total_episodios": 10,
      "link_video": "https://animefire.plus/video/boku-no-kanojo-ga-majimesugiru-sho-bitch-na-ken"
    },
    {
      "id": 463,
      "nome": "Boku no Kokoro no Yabai Yatsu",
      "link": "https://animefire.plus/animes/boku-no-kokoro-no-yabai-yatsu-todos-os-episodios",
      "texto_original": "Boku no Kokoro no Yabai Yatsu",
      "rating": 8.22,
      "classificacao_etaria": "A14",
      "imagem_original": "https://animefire.plus/img/animes/boku-no-kokoro-no-yabai-yatsu.jpg",
      "imagem_pasta": "https://animefire.plus/img/animes/boku-no-kokoro-no-yabai-yatsu/",
      "secao": "legendados",
      "pagina": 25,
      "total_episodios": 12,
      "link_video": "https://animefire.plus/video/boku-no-kokoro-no-yabai-yatsu"
    }
  ],
  "pagination": {
    "current_page": 11,
    "per_page": 20,
    "total_items": 2189,
    "total_pages": 110,
    "has_next": true,
    "has_prev": true
  }
}
