{
  "message": "Animes com 2 a 12 episódios",
  "episode_range": {
    "min": 2,
    "max": 12
  },
  "data": [
    {
      "id": 3250,
      "nome": "Sanjougattai Transformers Go!",
      "link": "https://animefire.plus/animes/sanjougattai-transformers-go-todos-os-episodios",
      "texto_original": "Sanjougattai Transformers Go!",
      "rating": 5.25,
      "classificacao_etaria": "A10",
      "imagem_original": "https://animefire.plus/img/animes/sanjougattai-transformers-go.webp",
      "imagem_pasta": "https://animefire.plus/img/animes/sanjougattai-transformers-go/",
      "secao": "legendados",
      "pagina": 100,
      "total_episodios": 2,
      "link_video": "https://animefire.plus/video/sanjougattai-transformers-go"
    },
    {
      "id": 3251,
      "nome": "Sankaku Mado no Sotogawa wa Yoru",
      "link": "https://animefire.plus/animes/sankaku-mado-no-sotogawa-wa-yoru-todos-os-episodios",
      "texto_original": "Sankaku Mado no Sotogawa wa Yoru",
      "rating": 6.75,
      "classificacao_etaria": "A16",
      "imagem_original": "https://animefire.plus/img/animes/sankaku-mado-no-sotogawa-wa-yoru.webp",
      "imagem_pasta": "https://animefire.plus/img/animes/sankaku-mado-no-sotogawa-wa-yoru/",
      "secao": "legendados",
      "pagina": 39,
      "total_episodios": 12,
      "link_video": "https://animefire.plus/video/sankaku-mado-no-sotogawa-wa-yoru"
    },
    {
      "id": 3252,
      "nome": "Sankarea",
      "link": "https://animefire.plus/animes/sankarea-todos-os-episodios",
      "texto_original": "Sankarea",
      "rating": 7.46,
      "classificacao_etaria": "A18",
      "imagem_original": "https://animefire.plus/img/animes/sankarea.webp",
      "imagem_pasta": "https://animefire.plus/img/animes/sankarea/",
      "secao": "legendados",
      "pagina": 158,
      "total_episodios": 12,
      "link_video": "https://animefire.plus/video/sankarea"
    },
    {
      "id": 3253,
      "nome": "Sanrio Danshi",
      "link": "https://animefire.plus/animes/sanrio-danshi-todos-os-episodios",
      "texto_original": "Sanrio Danshi",
      "rating": 6.65,
      "classificacao_etaria": "A14",
      "imagem_original": "https://animefire.plus/img/animes/sanrio-danshi.webp",
      "imagem_pasta": "https://animefire.plus/img/animes/sanrio-danshi/",
      "secao": "legendados",
      "pagina": 98,
      "total_episodios": 12,
      "link_video": "https://animefire.plus/video/sanrio-danshi"
    },
    {
      "id": 3254,
      "nome": "Sansha Sanyou",
      "link": "https://animefire.plus/animes/sansha-sanyou-todos-os-episodios",
      "texto_original": "Sansha Sanyou",
      "rating": 7.16,
      "classificacao_etaria": "A14",
      "imagem_original": "https://animefire.plus/img/animes/sansha-sanyou.webp",
      "imagem_pasta": "https://animefire.plus/img/animes/sansha-sanyou/",
      "secao": "legendados",
      "pagina": 169,
      "total_episodios": 2,
      "link_video": "https://animefire.plus/video/sansha-sanyou"
    },
    {
      "id": 3256,
      "nome": "Saraiya Goyou",
      "link": "https://animefire.plus/animes/saraiya-goyou-todos-os-episodios",
      "texto_original": "Saraiya Goyou",
      "rating": 7.86,
      "classificacao_etaria": "A14",
      "imagem_original": "https://animefire.plus/img/animes/saraiya-goyou.webp",
      "imagem_pasta": "https://animefire.plus/img/animes/saraiya-goyou/",
      "secao": "legendados",
      "pagina": 179,
      "total_episodios": 12,
      "link_video": "https://animefire.plus/video/saraiya-goyou"
    },
    {
      "id": 3257,
      "nome": "Sarazanmai",
      "link": "https://animefire.plus/animes/sarazanmai-todos-os-episodios",
      "texto_original": "Sarazanmai",
      "rating": 7.54,
      "classificacao_etaria": "A14",
      "imagem_original": "https://animefire.plus/img/animes/sarazanmai.webp",
      "imagem_pasta": "https://animefire.plus/img/animes/sarazanmai/",
      "secao": "legendados",
      "pagina": 157,
      "total_episodios": 5,
      "link_video": "https://animefire.plus/video/sarazanmai"
    },
    {
      "id": 3258,
      "nome": "Saredo Tsumibito wa Ryuu to Odoru",
      "link": "https://animefire.plus/animes/saredo-tsumibito-wa-ryuu-to-odoru-todos-os-episodios",
      "texto_original": "Saredo Tsumibito wa Ryuu to Odoru",
      "rating": 5.91,
      "classificacao_etaria": "A16",
      "imagem_original": "https://animefire.plus/img/animes/saredo-tsumibito-wa-ryuu-to-odoru.webp",
      "imagem_pasta": "https://animefire.plus/img/animes/saredo-tsumibito-wa-ryuu-to-odoru/",
      "secao": "legendados",
      "pagina": 153,
      "total_episodios": 12,
      "link_video": "https://animefire.plus/video/saredo-tsumibito-wa-ryuu-to-odoru"
    },
    {
      "id": 3261,
      "nome": "Sasaki to Pii-chan",
      "link": "https://animefire.plus/animes/sasaki-to-pii-chan-todos-os-episodios",
      "texto_original": "Sasaki to Pii-chan",
      "rating": 6.84,
      "classificacao_etaria": "A16",
      "imagem_original": "https://animefire.plus/img/animes/sasaki-to-pii-chan.webp",
      "imagem_pasta": "https://animefire.plus/img/animes/sasaki-to-pii-chan/",
      "secao": "legendados",
      "pagina": 17,
      "total_episodios": 12,
      "link_video": "https://animefire.plus/video/sasaki-to-pii-chan"
    },
    {
      "id": 3262,
      "nome": "Sasameki Koto",
      "link": "https://animefire.plus/animes/sasameki-koto-todos-os-episodios",
      "texto_original": "Sasameki Koto",
      "rating": 7.15,
      "classificacao_etaria": "A14",
      "imagem_original": "https://animefire.plus/img/animes/sasameki-koto.webp",
      "imagem_pasta": "https://animefire.plus/img/animes/sasameki-koto/",
      "secao": "legendados",
      "pagina": 113,
      "total_episodios": 12,
      "link_video": "https://animefire.plus/video/sasameki-koto"
    },
    {
      "id": 3263,
      "nome": "Sasami-san@Ganbaranai",
      "link": "https://animefire.plus/animes/sasami-sanatganbaranai-todos-os-episodios",
      "texto_original": "Sasami-san@Ganbaranai",
      "rating": 6.7,
      "classificacao_etaria": "A14",
      "imagem_original": "https://animefire.plus/img/animes/sasami-sanatganbaranai.webp",
      "imagem_pasta": "https://animefire.plus/img/animes/sasami-sanatganbaranai/",
      "secao": "legendados",
      "pagina": 139,
      "total_episodios": 12,
      "link_video": "https://animefire.plus/video/sasami-sanatganbaranai"
    },
    {
      "id": 3265,
      "nome": "Sasayaku You ni Koi wo Utau",
      "link": "https://animefire.plus/animes/sasayaku-you-ni-koi-wo-utau-todos-os-episodios",
      "texto_original": "Sasayaku You ni Koi wo Utau",
      "rating": 6.66,
      "classificacao_etaria": "A14",
      "imagem_original": "https://animefire.plus/img/animes/sasayaku-you-ni-koi-wo-utau.webp",
      "imagem_pasta": "https://animefire.plus/img/animes/sasayaku-you-ni-koi-wo-utau/",
      "secao": "legendados",
      "pagina": 12,
      "total_episodios": 12,
      "link_video": "https://animefire.plus/video/sasayaku-you-ni-koi-wo-utau"
    },
    {
      "id": 3267,
      "nome": "Satsuriku no Tenshi ONA",
      "link": "https://animefire.plus/animes/satsuriku-no-tenshi-ona-todos-os-episodios",
      "texto_original": "Satsuriku no Tenshi ONA",
      "rating": 7.22,
      "classificacao_etaria": null,
      "imagem_original": "https://animefire.plus/img/animes/satsuriku-no-tenshi-ona.webp",
      "imagem_pasta": "https://animefire.plus/img/animes/satsuriku-no-tenshi-ona/",
      "secao": "legendados",
      "pagina": 174,
      "total_episodios": 4,
      "link_video": "https://animefire.plus/video/satsuriku-no-tenshi-ona"
    },
    {
      "id": 3269,
      "nome": "Sayonara Zetsubou Sensei",
      "link": "https://animefire.plus/animes/sayonara-zetsubou-sensei-todos-os-episodios",
      "texto_original": "Sayonara Zetsubou Sensei",
      "rating": 7.92,
      "classificacao_etaria": "A16",
      "imagem_original": "https://animefire.plus/img/animes/sayonara-zetsubou-sensei.webp",
      "imagem_pasta": "https://animefire.plus/img/animes/sayonara-zetsubou-sensei/",
      "secao": "legendados",
      "pagina": 60,
      "total_episodios": 12,
      "link_video": "https://animefire.plus/video/sayonara-zetsubou-sensei"
    },
    {
      "id": 3271,
      "nome": "Sayounara Ryuusei, Konnichiwa Jinsei",
      "link": "https://animefire.plus/animes/sayounara-ryuusei-konnichiwa-jinsei-todos-os-episodios",
      "texto_original": "Sayounara Ryuusei, Konnichiwa Jinsei",
      "rating": 6.34,
      "classificacao_etaria": "A14",
      "imagem_original": "https://animefire.plus/img/animes/sayounara-ryuusei-konnichiwa-jinsei.webp",
      "imagem_pasta": "https://animefire.plus/img/animes/sayounara-ryuusei-konnichiwa-jinsei/",
      "secao": "legendados",
      "pagina": 10,
      "total_episodios": 12,
      "link_video": "https://animefire.plus/video/sayounara-ryuusei-konnichiwa-jinsei"
    },
    {
      "id": 3274,
      "nome": "School Days",
      "link": "https://animefire.plus/animes/school-days-todos-os-episodios",
      "texto_original": "School Days",
      "rating": 5.93,
      "classificacao_etaria": "A18",
      "imagem_original": "https://animefire.plus/img/animes/school-days.webp",
      "imagem_pasta": "https://animefire.plus/img/animes/school-days/",
      "secao": "legendados",
      "pagina": 158,
      "total_episodios": 12,
      "link_video": "https://animefire.plus/video/school-days"
    },
    {
      "id": 3277,
      "nome": "School Rumble San Gakki",
      "link": "https://animefire.plus/animes/school-rumble-san-gakki-todos-os-episodios",
      "texto_original": "School Rumble San Gakki",
      "rating": 7.33,
      "classificacao_etaria": "A14",
      "imagem_original": "https://animefire.plus/img/animes/school-rumble-san-gakki.webp",
      "imagem_pasta": "https://animefire.plus/img/animes/school-rumble-san-gakki/",
      "secao": "legendados",
      "pagina": 74,
      "total_episodios": 2,
      "link_video": "https://animefire.plus/video/school-rumble-san-gakki"
    },
    {
      "id": 3279,
      "nome": "Schwarzesmarken (Dublado)",
      "link": "https://animefire.plus/animes/schwarzesmarken-dublado-todos-os-episodios",
      "texto_original": "Schwarzesmarken (Dublado)",
      "rating": 6.85,
      "classificacao_etaria": "A16",
      "imagem_original": "https://animefire.plus/img/animes/schwarzesmarken.webp",
      "imagem_pasta": "https://animefire.plus/img/animes/schwarzesmarken/",
      "secao": "dublados,legendados",
      "pagina": 23,
      "total_episodios": 12,
      "link_video": "https://animefire.plus/video/schwarzesmarken-dublado"
    },
    {
      "id": 3284,
      "nome": "Seija Musou: Salaryman, Isekai de Ikinokoru Tame ni Ayumu Mic",
      "link": "https://animefire.plus/animes/seija-musou-salaryman-isekai-de-ikinokoru-tame-ni-ayumu-michi-todos-os-episodios",
      "texto_original": "Seija Musou: Salaryman, Isekai de Ikinokoru Tame ni Ayumu Mic",
      "rating": 7.11,
      "classificacao_etaria": "A14",
      "imagem_original": "https://animefire.plus/img/animes/seija-musou-salaryman-isekai-de-ikinokoru-tame-ni-ayumu-michi.jpg",
      "imagem_pasta": "https://animefire.plus/img/animes/seija-musou-salaryman-isekai-de-ikinokoru-tame-ni-ayumu-michi/",
      "secao": "legendados",
      "pagina": 22,
      "total_episodios": 12,
      "link_video": "https://animefire.plus/video/seija-musou-salaryman-isekai-de-ikinokoru-tame-ni-ayumu-michi"
    },
    {
      "id": 3286,
      "nome": "Seijo no Maryoku wa Bannou Desu (Dublado)",
      "link": "https://animefire.plus/animes/seijo-no-maryoku-wa-bannou-desu-dublado-todos-os-episodios",
      "texto_original": "Seijo no Maryoku wa Bannou Desu (Dublado)",
      "rating": 7.31,
      "classificacao_etaria": "A14",
      "imagem_original": "https://animefire.plus/img/animes/seijo-no-maryoku-wa-bannou-desu.webp",
      "imagem_pasta": "https://animefire.plus/img/animes/seijo-no-maryoku-wa-bannou-desu/",
      "secao": "dublados,legendados",
      "pagina": 14,
      "total_episodios": 12,
      "link_video": "https://animefire.plus/video/seijo-no-maryoku-wa-bannou-desu-dublado"
    }
  ],
  "pagination": {
    "current_page": 82,
    "per_page": 20,
    "total_items": 2189,
    "total_pages": 110,
    "has_next": true,
    "has_prev": true
  }
}
