{
  "message": "Animes com 2 a 12 episódios",
  "episode_range": {
    "min": 2,
    "max": 12
  },
  "data": [
    {
      "id": 1398,
      "nome": "Hayate no Gotoku! Can't Take My Eyes Off You",
      "link": "https://animefire.plus/animes/hayate-no-gotoku-can-t-take-my-eyes-off-you-todos-os-episodios",
      "texto_original": "Hayate no Gotoku! Can't Take My Eyes Off You",
      "rating": 7.06,
      "classificacao_etaria": "A14",
      "imagem_original": "https://animefire.plus/img/animes/hayate-no-gotoku-can-t-take-my-eyes-off-you.webp",
      "imagem_pasta": "https://animefire.plus/img/animes/hayate-no-gotoku-can-t-take-my-eyes-off-you/",
      "secao": "legendados",
      "pagina": 66,
      "total_episodios": 12,
      "link_video": "https://animefire.plus/video/hayate-no-gotoku-can-t-take-my-eyes-off-you"
    },
    {
      "id": 1399,
      "nome": "Hayate no Gotoku! Cuties",
      "link": "https://animefire.plus/animes/hayate-no-gotoku-cuties-todos-os-episodios",
      "texto_original": "Hayate no Gotoku! Cuties",
      "rating": 7.09,
      "classificacao_etaria": "A14",
      "imagem_original": "https://animefire.plus/img/animes/hayate-no-gotoku-cuties.webp",
      "imagem_pasta": "https://animefire.plus/img/animes/hayate-no-gotoku-cuties/",
      "secao": "legendados",
      "pagina": 82,
      "total_episodios": 12,
      "link_video": "https://animefire.plus/video/hayate-no-gotoku-cuties"
    },
    {
      "id": 1400,
      "nome": "Hayate no Gotoku! OVA",
      "link": "https://animefire.plus/animes/hayate-no-gotoku-ova-todos-os-episodios",
      "texto_original": "Hayate no Gotoku! OVA",
      "rating": 7.18,
      "classificacao_etaria": "A14",
      "imagem_original": "https://animefire.plus/img/animes/hayate-no-gotoku-ova.webp",
      "imagem_pasta": "https://animefire.plus/img/animes/hayate-no-gotoku-ova/",
      "secao": "legendados",
      "pagina": 85,
      "total_episodios": 3,
      "link_video": "https://animefire.plus/video/hayate-no-gotoku-ova"
    },
    {
      "id": 1401,
      "nome": "Hazure Skill \"Kinomi Master\": Skill no Mi (Tabetara Shinu) wo Mugen ni Taberareru You ni Natta Ken ni Tsuite",
      "link": "https://animefire.plus/animes/hazure-skill-kinomi-master-skill-no-mi-tabetara-shinu-wo-mugen-ni-taberareru-you-ni-natta-ken-ni-tsuite-todos-os-episodios",
      "texto_original": "Hazure Skill \"Kinomi Master\": Skill no Mi (Tabetara Shinu) wo Mugen ni Taberareru You ni Natta Ken ni Tsuite",
      "rating": 5.76,
      "classificacao_etaria": "A14",
      "imagem_original": "https://animefire.plus/img/animes/hazure-skill-kinomi-master-skill-no-mi-tabetara-shinu-wo-mugen-ni-taberareru-you-ni-natta-ken-ni-tsuite.webp",
      "imagem_pasta": "https://animefire.plus/img/animes/hazure-skill-kinomi-master-skill-no-mi-tabetara-shinu-wo-mugen-ni-taberareru-you-ni-natta-ken-ni-tsuite/",
      "secao": "legendados",
      "pagina": 7,
      "total_episodios": 12,
      "link_video": "https://animefire.plus/video/hazure-skill-kinomi-master-skill-no-mi-tabetara-shinu-wo-mugen-ni-taberareru-you-ni-natta-ken-ni-tsuite"
    },
    {
      "id": 1402,
      "nome": "Hazurewaku no \"Joutai Ijou Skill\" de Saikyou ni Natta Ore ga Subete wo Juurin suru made",
      "link": "https://animefire.plus/animes/hazurewaku-no-joutai-ijou-skill-de-saikyou-ni-natta-ore-ga-subete-wo-juurin-suru-made-todos-os-episodios",
      "texto_original": "Hazurewaku no \"Joutai Ijou Skill\" de Saikyou ni Natta Ore ga Subete wo Juurin suru made",
      "rating": 6.48,
      "classificacao_etaria": "A14",
      "imagem_original": "https://animefire.plus/img/animes/hazurewaku-no-joutai-ijou-skill-de-saikyou-ni-natta-ore-ga-subete-wo-juurin-suru-made.webp",
      "imagem_pasta": "https://animefire.plus/img/animes/hazurewaku-no-joutai-ijou-skill-de-saikyou-ni-natta-ore-ga-subete-wo-juurin-suru-made/",
      "secao": "legendados",
      "pagina": 13,
      "total_episodios": 12,
      "link_video": "https://animefire.plus/video/hazurewaku-no-joutai-ijou-skill-de-saikyou-ni-natta-ore-ga-subete-wo-juurin-suru-made"
    },
    {
      "id": 1403,
      "nome": "Healer Girl",
      "link": "https://animefire.plus/animes/healer-girl-todos-os-episodios",
      "texto_original": "Healer Girl",
      "rating": 7.3,
      "classificacao_etaria": "A14",
      "imagem_original": "https://animefire.plus/img/animes/healer-girl.webp",
      "imagem_pasta": "https://animefire.plus/img/animes/healer-girl/",
      "secao": "legendados",
      "pagina": 33,
      "total_episodios": 12,
      "link_video": "https://animefire.plus/video/healer-girl"
    },
    {
      "id": 1407,
      "nome": "Heibai Wushang",
      "link": "https://animefire.plus/animes/heibai-wushang-todos-os-episodios",
      "texto_original": "Heibai Wushang",
      "rating": 6.39,
      "classificacao_etaria": "A14",
      "imagem_original": "https://animefire.plus/img/animes/heibai-wushang.webp",
      "imagem_pasta": "https://animefire.plus/img/animes/heibai-wushang/",
      "secao": "legendados",
      "pagina": 143,
      "total_episodios": 12,
      "link_video": "https://animefire.plus/video/heibai-wushang"
    },
    {
      "id": 1408,
      "nome": "Heibai Wushang 2nd Season",
      "link": "https://animefire.plus/animes/heibai-wushang-2nd-season-todos-os-episodios",
      "texto_original": "Heibai Wushang 2nd Season",
      "rating": 6.6,
      "classificacao_etaria": "A14",
      "imagem_original": "https://animefire.plus/img/animes/heibai-wushang-2nd-season.webp",
      "imagem_pasta": "https://animefire.plus/img/animes/heibai-wushang-2nd-season/",
      "secao": "legendados",
      "pagina": 136,
      "total_episodios": 12,
      "link_video": "https://animefire.plus/video/heibai-wushang-2nd-season"
    },
    {
      "id": 1409,
      "nome": "Heike Monogatari",
      "link": "https://animefire.plus/animes/heike-monogatari-todos-os-episodios",
      "texto_original": "Heike Monogatari",
      "rating": 7.79,
      "classificacao_etaria": "A14",
      "imagem_original": "https://animefire.plus/img/animes/heike-monogatari.webp",
      "imagem_pasta": "https://animefire.plus/img/animes/heike-monogatari/",
      "secao": "legendados",
      "pagina": 38,
      "total_episodios": 11,
      "link_video": "https://animefire.plus/video/heike-monogatari"
    },
    {
      "id": 1410,
      "nome": "Heion Sedai no Idaten-tachi",
      "link": "https://animefire.plus/animes/heion-sedai-no-idaten-tachi-todos-os-episodios",
      "texto_original": "Heion Sedai no Idaten-tachi",
      "rating": 7.61,
      "classificacao_etaria": "A16",
      "imagem_original": "https://animefire.plus/img/animes/heion-sedai-no-idaten-tachi.webp",
      "imagem_pasta": "https://animefire.plus/img/animes/heion-sedai-no-idaten-tachi/",
      "secao": "legendados",
      "pagina": 45,
      "total_episodios": 11,
      "link_video": "https://animefire.plus/video/heion-sedai-no-idaten-tachi"
    },
    {
      "id": 1413,
      "nome": "Hello!! Kiniro Mosaic",
      "link": "https://animefire.plus/animes/hello-kiniro-mosaic-todos-os-episodios",
      "texto_original": "Hello!! Kiniro Mosaic",
      "rating": 7.59,
      "classificacao_etaria": "A14",
      "imagem_original": "https://animefire.plus/img/animes/hello-kiniro-mosaic.webp",
      "imagem_pasta": "https://animefire.plus/img/animes/hello-kiniro-mosaic/",
      "secao": "legendados",
      "pagina": 95,
      "total_episodios": 12,
      "link_video": "https://animefire.plus/video/hello-kiniro-mosaic"
    },
    {
      "id": 1416,
      "nome": "Hellsing: The Dawn",
      "link": "https://animefire.plus/animes/hellsing-the-dawn-todos-os-episodios",
      "texto_original": "Hellsing: The Dawn",
      "rating": 7.28,
      "classificacao_etaria": "A16",
      "imagem_original": "https://animefire.plus/img/animes/hellsing-the-dawn.webp",
      "imagem_pasta": "https://animefire.plus/img/animes/hellsing-the-dawn/",
      "secao": "legendados",
      "pagina": 96,
      "total_episodios": 3,
      "link_video": "https://animefire.plus/video/hellsing-the-dawn"
    },
    {
      "id": 1417,
      "nome": "Henjin no Salad Bowl",
      "link": "https://animefire.plus/animes/henjin-no-salad-bowl-todos-os-episodios",
      "texto_original": "Henjin no Salad Bowl",
      "rating": 7.27,
      "classificacao_etaria": "A14",
      "imagem_original": "https://animefire.plus/img/animes/henjin-no-salad-bowl.webp",
      "imagem_pasta": "https://animefire.plus/img/animes/henjin-no-salad-bowl/",
      "secao": "legendados",
      "pagina": 14,
      "total_episodios": 12,
      "link_video": "https://animefire.plus/video/henjin-no-salad-bowl"
    },
    {
      "id": 1418,
      "nome": "Henkei Shoujo",
      "link": "https://animefire.plus/animes/henkei-shoujo-todos-os-episodios",
      "texto_original": "Henkei Shoujo",
      "rating": 5.73,
      "classificacao_etaria": "A14",
      "imagem_original": "https://animefire.plus/img/animes/henkei-shoujo.webp",
      "imagem_pasta": "https://animefire.plus/img/animes/henkei-shoujo/",
      "secao": "legendados",
      "pagina": 159,
      "total_episodios": 5,
      "link_video": "https://animefire.plus/video/henkei-shoujo"
    },
    {
      "id": 1419,
      "nome": "Hentai Ouji to Warawanai Neko.",
      "link": "https://animefire.plus/animes/hentai-ouji-to-warawanai-neko-todos-os-episodios",
      "texto_original": "Hentai Ouji to Warawanai Neko.",
      "rating": 7.35,
      "classificacao_etaria": "A14",
      "imagem_original": "https://animefire.plus/img/animes/hentai-ouji-to-warawanai-neko.webp",
      "imagem_pasta": "https://animefire.plus/img/animes/hentai-ouji-to-warawanai-neko/",
      "secao": "legendados",
      "pagina": 156,
      "total_episodios": 12,
      "link_video": "https://animefire.plus/video/hentai-ouji-to-warawanai-neko"
    },
    {
      "id": 1423,
      "nome": "Hero Mask (2019) (Dublado)",
      "link": "https://animefire.plus/animes/hero-mask-2019-dublado-todos-os-episodios",
      "texto_original": "Hero Mask (2019) (Dublado)",
      "rating": 6.61,
      "classificacao_etaria": "A16",
      "imagem_original": "https://animefire.plus/img/animes/hero-mask-2019.webp",
      "imagem_pasta": "https://animefire.plus/img/animes/hero-mask-2019/",
      "secao": "dublados,legendados",
      "pagina": 21,
      "total_episodios": 9,
      "link_video": "https://animefire.plus/video/hero-mask-2019-dublado"
    },
    {
      "id": 1426,
      "nome": "Heroine Tarumono! Kiraware Heroine to Naisho no Oshigoto",
      "link": "https://animefire.plus/animes/heroine-tarumono-kiraware-heroine-to-naisho-no-oshigoto-todos-os-episodios",
      "texto_original": "Heroine Tarumono! Kiraware Heroine to Naisho no Oshigoto",
      "rating": 7.27,
      "classificacao_etaria": "A14",
      "imagem_original": "https://animefire.plus/img/animes/heroine-tarumono-kiraware-heroine-to-naisho-no-oshigoto.webp",
      "imagem_pasta": "https://animefire.plus/img/animes/heroine-tarumono-kiraware-heroine-to-naisho-no-oshigoto/",
      "secao": "legendados",
      "pagina": 33,
      "total_episodios": 12,
      "link_video": "https://animefire.plus/video/heroine-tarumono-kiraware-heroine-to-naisho-no-oshigoto"
    },
    {
      "id": 1429,
      "nome": "Hetalia Axis Powers Fan Disc",
      "link": "https://animefire.plus/animes/hetalia-axis-powers-fan-disc-todos-os-episodios",
      "texto_original": "Hetalia Axis Powers Fan Disc",
      "rating": 7.43,
      "classificacao_etaria": "A14",
      "imagem_original": "https://animefire.plus/img/animes/hetalia-axis-powers-fan-disc.webp",
      "imagem_pasta": "https://animefire.plus/img/animes/hetalia-axis-powers-fan-disc/",
      "secao": "legendados",
      "pagina": 111,
      "total_episodios": 3,
      "link_video": "https://animefire.plus/video/hetalia-axis-powers-fan-disc"
    },
    {
      "id": 1430,
      "nome": "Hetalia World Series Specials",
      "link": "https://animefire.plus/animes/hetalia-world-series-specials-todos-os-episodios",
      "texto_original": "Hetalia World Series Specials",
      "rating": 7.73,
      "classificacao_etaria": "A14",
      "imagem_original": "https://animefire.plus/img/animes/hetalia-world-series-specials.webp",
      "imagem_pasta": "https://animefire.plus/img/animes/hetalia-world-series-specials/",
      "secao": "legendados",
      "pagina": 160,
      "total_episodios": 4,
      "link_video": "https://animefire.plus/video/hetalia-world-series-specials"
    },
    {
      "id": 1431,
      "nome": "Hetalia World★Stars",
      "link": "https://animefire.plus/animes/hetalia-world-stars-todos-os-episodios",
      "texto_original": "Hetalia World★Stars",
      "rating": 6.86,
      "classificacao_etaria": "A14",
      "imagem_original": "https://animefire.plus/img/animes/hetalia-world-stars.webp",
      "imagem_pasta": "https://animefire.plus/img/animes/hetalia-world-stars/",
      "secao": "legendados",
      "pagina": 46,
      "total_episodios": 12,
      "link_video": "https://animefire.plus/video/hetalia-world-stars"
    }
  ],
  "pagination": {
    "current_page": 35,
    "per_page": 20,
    "total_items": 2189,
    "total_pages": 110,
    "has_next": true,
    "has_prev": true
  }
}
