{
  "message": "Animes com 2 a 12 episódios",
  "episode_range": {
    "min": 2,
    "max": 12
  },
  "data": [
    {
      "id": 4245,
      "nome": "Yondemasu Yo, Azazel-san. Z",
      "link": "https://animefire.plus/animes/yondemasu-yo-azazel-san-z-todos-os-episodios",
      "texto_original": "Yondemasu Yo, Azazel-san. Z",
      "rating": 7.63,
      "classificacao_etaria": "A16",
      "imagem_original": "https://animefire.plus/img/animes/yondemasu-yo-azazel-san-z.webp",
      "imagem_pasta": "https://animefire.plus/img/animes/yondemasu-yo-azazel-san-z/",
      "secao": "legendados",
      "pagina": 107,
      "total_episodios": 3,
      "link_video": "https://animefire.plus/video/yondemasu-yo-azazel-san-z"
    },
    {
      "id": 4246,
      "nome": "Yoroiden Samurai Troopers Gaiden",
      "link": "https://animefire.plus/animes/yoroiden-samurai-troopers-gaiden-todos-os-episodios",
      "texto_original": "Yoroiden Samurai Troopers Gaiden",
      "rating": 6.63,
      "classificacao_etaria": "A14",
      "imagem_original": "https://animefire.plus/img/animes/yoroiden-samurai-troopers-gaiden.webp",
      "imagem_pasta": "https://animefire.plus/img/animes/yoroiden-samurai-troopers-gaiden/",
      "secao": "legendados",
      "pagina": 79,
      "total_episodios": 2,
      "link_video": "https://animefire.plus/video/yoroiden-samurai-troopers-gaiden"
    },
    {
      "id": 4247,
      "nome": "Yoroiden Samurai Troopers Kikoutei Densetsu",
      "link": "https://animefire.plus/animes/yoroiden-samurai-troopers-kikoutei-densetsu-todos-os-episodios",
      "texto_original": "Yoroiden Samurai Troopers Kikoutei Densetsu",
      "rating": 6.59,
      "classificacao_etaria": "A14",
      "imagem_original": "https://animefire.plus/img/animes/yoroiden-samurai-troopers-kikoutei-densetsu.webp",
      "imagem_pasta": "https://animefire.plus/img/animes/yoroiden-samurai-troopers-kikoutei-densetsu/",
      "secao": "legendados",
      "pagina": 79,
      "total_episodios": 4,
      "link_video": "https://animefire.plus/video/yoroiden-samurai-troopers-kikoutei-densetsu"
    },
    {
      "id": 4248,
      "nome": "Yoru no Kuni",
      "link": "https://animefire.plus/animes/yoru-no-kuni-todos-os-episodios",
      "texto_original": "Yoru no Kuni",
      "rating": 7.44,
      "classificacao_etaria": null,
      "imagem_original": "https://animefire.plus/img/animes/yoru-no-kuni.webp",
      "imagem_pasta": "https://animefire.plus/img/animes/yoru-no-kuni/",
      "secao": "legendados",
      "pagina": 45,
      "total_episodios": 3,
      "link_video": "https://animefire.plus/video/yoru-no-kuni"
    },
    {
      "id": 4249,
      "nome": "Yoru no Kurage wa Oyogenai",
      "link": "https://animefire.plus/animes/yoru-no-kurage-wa-oyogenai-todos-os-episodios",
      "texto_original": "Yoru no Kurage wa Oyogenai",
      "rating": 7.75,
      "classificacao_etaria": "A14",
      "imagem_original": "https://animefire.plus/img/animes/yoru-no-kurage-wa-oyogenai.webp",
      "imagem_pasta": "https://animefire.plus/img/animes/yoru-no-kurage-wa-oyogenai/",
      "secao": "legendados",
      "pagina": 15,
      "total_episodios": 12,
      "link_video": "https://animefire.plus/video/yoru-no-kurage-wa-oyogenai"
    },
    {
      "id": 4250,
      "nome": "Yoru no Yatterman",
      "link": "https://animefire.plus/animes/yoru-no-yatterman-todos-os-episodios",
      "texto_original": "Yoru no Yatterman",
      "rating": 6.54,
      "classificacao_etaria": "A14",
      "imagem_original": "https://animefire.plus/img/animes/yoru-no-yatterman.webp",
      "imagem_pasta": "https://animefire.plus/img/animes/yoru-no-yatterman/",
      "secao": "legendados",
      "pagina": 95,
      "total_episodios": 8,
      "link_video": "https://animefire.plus/video/yoru-no-yatterman"
    },
    {
      "id": 4251,
      "nome": "Yosuga no Sora: In Solitude, Where We Are Least Alone.",
      "link": "https://animefire.plus/animes/yosuga-no-sora-in-solitude-where-we-are-least-alone-todos-os-episodios",
      "texto_original": "Yosuga no Sora: In Solitude, Where We Are Least Alone.",
      "rating": 6.5,
      "classificacao_etaria": "A18",
      "imagem_original": "https://animefire.plus/img/animes/yosuga-no-sora-in-solitude-where-we-are-least-alone.webp",
      "imagem_pasta": "https://animefire.plus/img/animes/yosuga-no-sora-in-solitude-where-we-are-least-alone/",
      "secao": "legendados",
      "pagina": 172,
      "total_episodios": 12,
      "link_video": "https://animefire.plus/video/yosuga-no-sora-in-solitude-where-we-are-least-alone"
    },
    {
      "id": 4252,
      "nome": "Youjo Senki (Dublado)",
      "link": "https://animefire.plus/animes/youjo-senki-dublado-todos-os-episodios",
      "texto_original": "Youjo Senki (Dublado)",
      "rating": 8.11,
      "classificacao_etaria": "A16",
      "imagem_original": "https://animefire.plus/img/animes/youjo-senki.webp",
      "imagem_pasta": "https://animefire.plus/img/animes/youjo-senki/",
      "secao": "dublados,legendados",
      "pagina": 26,
      "total_episodios": 12,
      "link_video": "https://animefire.plus/video/youjo-senki-dublado"
    },
    {
      "id": 4259,
      "nome": "Youkoso Jitsuryoku Shijou Shugi no Kyoushitsu e (Dublado)",
      "link": "https://animefire.plus/animes/youkoso-jitsuryoku-shijou-shugi-no-kyoushitsu-e-dublado-todos-os-episodios",
      "texto_original": "Youkoso Jitsuryoku Shijou Shugi no Kyoushitsu e (Dublado)",
      "rating": 7.86,
      "classificacao_etaria": "A14",
      "imagem_original": "https://animefire.plus/img/animes/youkoso-jitsuryoku-shijou-shugi-no-kyoushitsu-e.webp",
      "imagem_pasta": "https://animefire.plus/img/animes/youkoso-jitsuryoku-shijou-shugi-no-kyoushitsu-e/",
      "secao": "dublados",
      "pagina": 10,
      "total_episodios": 12,
      "link_video": "https://animefire.plus/video/youkoso-jitsuryoku-shijou-shugi-no-kyoushitsu-e-dublado"
    },
    {
      "id": 4263,
      "nome": "Youkoso Jitsuryoku Shijou Shugi no Kyoushitsu e 3rd Season",
      "link": "https://animefire.plus/animes/youkoso-jitsuryoku-shijou-shugi-no-kyoushitsu-e-3rd-season-todos-os-episodios",
      "texto_original": "Youkoso Jitsuryoku Shijou Shugi no Kyoushitsu e 3rd Season",
      "rating": 7.95,
      "classificacao_etaria": null,
      "imagem_original": "https://animefire.plus/img/animes/youkoso-jitsuryoku-shijou-shugi-no-kyoushitsu-e-3rd-season.webp",
      "imagem_pasta": "https://animefire.plus/img/animes/youkoso-jitsuryoku-shijou-shugi-no-kyoushitsu-e-3rd-season/",
      "secao": "legendados",
      "pagina": 18,
      "total_episodios": 4,
      "link_video": "https://animefire.plus/video/youkoso-jitsuryoku-shijou-shugi-no-kyoushitsu-e-3rd-season"
    },
    {
      "id": 4264,
      "nome": "Youkoso Jitsuryoku Shijou Shugi no Kyoushitsu e 3rd Season (Dublado)",
      "link": "https://animefire.plus/animes/youkoso-jitsuryoku-shijou-shugi-no-kyoushitsu-e-3-dublado-todos-os-episodios",
      "texto_original": "Youkoso Jitsuryoku Shijou Shugi no Kyoushitsu e 3rd Season (Dublado)",
      "rating": 7.95,
      "classificacao_etaria": "A14",
      "imagem_original": "https://animefire.plus/img/animes/youkoso-jitsuryoku-shijou-shugi-no-kyoushitsu-e-3.webp",
      "imagem_pasta": "https://animefire.plus/img/animes/youkoso-jitsuryoku-shijou-shugi-no-kyoushitsu-e-3/",
      "secao": "dublados,lancamentos",
      "pagina": 3,
      "total_episodios": 10,
      "link_video": "https://animefire.plus/video/youkoso-jitsuryoku-shijou-shugi-no-kyoushitsu-e-3-dublado"
    },
    {
      "id": 4265,
      "nome": "Young Black Jack",
      "link": "https://animefire.plus/animes/young-black-jack-todos-os-episodios",
      "texto_original": "Young Black Jack",
      "rating": 7.29,
      "classificacao_etaria": "A14",
      "imagem_original": "https://animefire.plus/img/animes/young-black-jack.webp",
      "imagem_pasta": "https://animefire.plus/img/animes/young-black-jack/",
      "secao": "legendados",
      "pagina": 114,
      "total_episodios": 12,
      "link_video": "https://animefire.plus/video/young-black-jack"
    },
    {
      "id": 4267,
      "nome": "Yowai 5000-nen no Soushoku Dragon, Iwarenaki Jaryuu Nintei",
      "link": "https://animefire.plus/animes/yowai-5000-nen-no-soushoku-dragon-iwarenaki-jaryuu-nintei-todos-os-episodios",
      "texto_original": "Yowai 5000-nen no Soushoku Dragon, Iwarenaki Jaryuu Nintei",
      "rating": 6.74,
      "classificacao_etaria": "A14",
      "imagem_original": "https://animefire.plus/img/animes/yowai-5000-nen-no-soushoku-dragon-iwarenaki-jaryuu-nintei.webp",
      "imagem_pasta": "https://animefire.plus/img/animes/yowai-5000-nen-no-soushoku-dragon-iwarenaki-jaryuu-nintei/",
      "secao": "legendados",
      "pagina": 30,
      "total_episodios": 12,
      "link_video": "https://animefire.plus/video/yowai-5000-nen-no-soushoku-dragon-iwarenaki-jaryuu-nintei"
    },
    {
      "id": 4272,
      "nome": "Yozakura Quartet",
      "link": "https://animefire.plus/animes/yozakura-quartet-todos-os-episodios",
      "texto_original": "Yozakura Quartet",
      "rating": 6.89,
      "classificacao_etaria": "A14",
      "imagem_original": "https://animefire.plus/img/animes/yozakura-quartet.webp",
      "imagem_pasta": "https://animefire.plus/img/animes/yozakura-quartet/",
      "secao": "legendados",
      "pagina": 136,
      "total_episodios": 12,
      "link_video": "https://animefire.plus/video/yozakura-quartet"
    },
    {
      "id": 4273,
      "nome": "Yozakura Quartet: Hana no Uta",
      "link": "https://animefire.plus/animes/yozakura-quartet-hana-no-uta-todos-os-episodios",
      "texto_original": "Yozakura Quartet: Hana no Uta",
      "rating": 7.55,
      "classificacao_etaria": "A14",
      "imagem_original": "https://animefire.plus/img/animes/yozakura-quartet-hana-no-uta.webp",
      "imagem_pasta": "https://animefire.plus/img/animes/yozakura-quartet-hana-no-uta/",
      "secao": "legendados",
      "pagina": 169,
      "total_episodios": 4,
      "link_video": "https://animefire.plus/video/yozakura-quartet-hana-no-uta"
    },
    {
      "id": 4279,
      "nome": "Yu☆Gi☆Oh! VRAINS (Dublado)",
      "link": "https://animefire.plus/animes/yu-gi-oh-vrains-dublado-todos-os-episodios",
      "texto_original": "Yu☆Gi☆Oh! VRAINS (Dublado)",
      "rating": 6.64,
      "classificacao_etaria": "A14",
      "imagem_original": "https://animefire.plus/img/animes/yu-gi-oh-vrains.webp",
      "imagem_pasta": "https://animefire.plus/img/animes/yu-gi-oh-vrains/",
      "secao": "dublados",
      "pagina": 18,
      "total_episodios": 2,
      "link_video": "https://animefire.plus/video/yu-gi-oh-vrains-dublado"
    },
    {
      "id": 4283,
      "nome": "Yu☆Gi☆Oh!: Go Rush!!",
      "link": "https://animefire.plus/animes/yu-gi-oh-go-rush-todos-os-episodios",
      "texto_original": "Yu☆Gi☆Oh!: Go Rush!!",
      "rating": 6.17,
      "classificacao_etaria": "A14",
      "imagem_original": "https://animefire.plus/img/animes/yu-gi-oh-go-rush.webp",
      "imagem_pasta": "https://animefire.plus/img/animes/yu-gi-oh-go-rush/",
      "secao": "legendados,lancamentos",
      "pagina": 33,
      "total_episodios": 2,
      "link_video": "https://animefire.plus/video/yu-gi-oh-go-rush"
    },
    {
      "id": 4284,
      "nome": "Yu☆Gi☆Oh!: Sevens",
      "link": "https://animefire.plus/animes/yu-gi-oh-sevens-todos-os-episodios",
      "texto_original": "Yu☆Gi☆Oh!: Sevens",
      "rating": 5.4,
      "classificacao_etaria": "A14",
      "imagem_original": "https://animefire.plus/img/animes/yu-gi-oh-sevens.webp",
      "imagem_pasta": "https://animefire.plus/img/animes/yu-gi-oh-sevens/",
      "secao": "legendados,lancamentos",
      "pagina": 81,
      "total_episodios": 9,
      "link_video": "https://animefire.plus/video/yu-gi-oh-sevens"
    },
    {
      "id": 4286,
      "nome": "Yubisaki to Renren",
      "link": "https://animefire.plus/animes/yubisaki-to-renren-todos-os-episodios",
      "texto_original": "Yubisaki to Renren",
      "rating": 8.2,
      "classificacao_etaria": "A14",
      "imagem_original": "https://animefire.plus/img/animes/yubisaki-to-renren.webp",
      "imagem_pasta": "https://animefire.plus/img/animes/yubisaki-to-renren/",
      "secao": "legendados",
      "pagina": 18,
      "total_episodios": 12,
      "link_video": "https://animefire.plus/video/yubisaki-to-renren"
    },
    {
      "id": 4287,
      "nome": "Yume Oukoku to Nemureru 100-nin no Ouji-sama",
      "link": "https://animefire.plus/animes/yume-oukoku-to-nemureru-100-nin-no-ouji-sama-todos-os-episodios",
      "texto_original": "Yume Oukoku to Nemureru 100-nin no Ouji-sama",
      "rating": 5.99,
      "classificacao_etaria": "A14",
      "imagem_original": "https://animefire.plus/img/animes/yume-oukoku-to-nemureru-100-nin-no-ouji-sama.webp",
      "imagem_pasta": "https://animefire.plus/img/animes/yume-oukoku-to-nemureru-100-nin-no-ouji-sama/",
      "secao": "legendados",
      "pagina": 163,
      "total_episodios": 11,
      "link_video": "https://animefire.plus/video/yume-oukoku-to-nemureru-100-nin-no-ouji-sama"
    }
  ],
  "pagination": {
    "current_page": 107,
    "per_page": 20,
    "total_items": 2189,
    "total_pages": 110,
    "has_next": true,
    "has_prev": true
  }
}
