{
  "message": "Animes com 2 a 12 episódios",
  "episode_range": {
    "min": 2,
    "max": 12
  },
  "data": [
    {
      "id": 2565,
      "nome": "Momo Kyun Sword",
      "link": "https://animefire.plus/animes/momo-kyun-sword-todos-os-episodios",
      "texto_original": "Momo Kyun Sword",
      "rating": 5.65,
      "classificacao_etaria": "A14",
      "imagem_original": "https://animefire.plus/img/animes/momo-kyun-sword.webp",
      "imagem_pasta": "https://animefire.plus/img/animes/momo-kyun-sword/",
      "secao": "legendados",
      "pagina": 145,
      "total_episodios": 4,
      "link_video": "https://animefire.plus/video/momo-kyun-sword"
    },
    {
      "id": 2566,
      "nome": "Momochi-san Chi no Ayakashi Ouji",
      "link": "https://animefire.plus/animes/momochi-san-chi-no-ayakashi-ouji-todos-os-episodios",
      "texto_original": "Momochi-san Chi no Ayakashi Ouji",
      "rating": 6.53,
      "classificacao_etaria": "A14",
      "imagem_original": "https://animefire.plus/img/animes/momochi-san-chi-no-ayakashi-ouji.webp",
      "imagem_pasta": "https://animefire.plus/img/animes/momochi-san-chi-no-ayakashi-ouji/",
      "secao": "legendados",
      "pagina": 17,
      "total_episodios": 12,
      "link_video": "https://animefire.plus/video/momochi-san-chi-no-ayakashi-ouji"
    },
    {
      "id": 2568,
      "nome": "Mon-Soni! D'Artagnan no Idol Sengen",
      "link": "https://animefire.plus/animes/mon-soni-d-artagnan-no-idol-sengen-todos-os-episodios",
      "texto_original": "Mon-Soni! D'Artagnan no Idol Sengen",
      "rating": 5.91,
      "classificacao_etaria": "A14",
      "imagem_original": "https://animefire.plus/img/animes/mon-soni-d-artagnan-no-idol-sengen.webp",
      "imagem_pasta": "https://animefire.plus/img/animes/mon-soni-d-artagnan-no-idol-sengen/",
      "secao": "legendados",
      "pagina": 63,
      "total_episodios": 6,
      "link_video": "https://animefire.plus/video/mon-soni-d-artagnan-no-idol-sengen"
    },
    {
      "id": 2572,
      "nome": "Mono",
      "link": "https://animefire.plus/animes/mono-todos-os-episodios",
      "texto_original": "Mono",
      "rating": 7.74,
      "classificacao_etaria": "A14",
      "imagem_original": "https://animefire.plus/img/animes/mono.webp",
      "imagem_pasta": "https://animefire.plus/img/animes/mono/",
      "secao": "legendados",
      "pagina": 5,
      "total_episodios": 12,
      "link_video": "https://animefire.plus/video/mono"
    },
    {
      "id": 2575,
      "nome": "Monogatari Series: Second Season",
      "link": "https://animefire.plus/animes/monogatari-series-second-season-todos-os-episodios",
      "texto_original": "Monogatari Series: Second Season",
      "rating": 8.77,
      "classificacao_etaria": "A16",
      "imagem_original": "https://animefire.plus/img/animes/monogatari-series-second-season.webp",
      "imagem_pasta": "https://animefire.plus/img/animes/monogatari-series-second-season/",
      "secao": "legendados",
      "pagina": 143,
      "total_episodios": 5,
      "link_video": "https://animefire.plus/video/monogatari-series-second-season"
    },
    {
      "id": 2577,
      "nome": "Mononogatari 2nd Season",
      "link": "https://animefire.plus/animes/mononogatari-2nd-season-todos-os-episodios",
      "texto_original": "Mononogatari 2nd Season",
      "rating": 7.33,
      "classificacao_etaria": "A14",
      "imagem_original": "https://animefire.plus/img/animes/mononogatari-2nd-season.jpg",
      "imagem_pasta": "https://animefire.plus/img/animes/mononogatari-2nd-season/",
      "secao": "legendados",
      "pagina": 22,
      "total_episodios": 12,
      "link_video": "https://animefire.plus/video/mononogatari-2nd-season"
    },
    {
      "id": 2578,
      "nome": "Mononoke",
      "link": "https://animefire.plus/animes/mononoke-todos-os-episodios",
      "texto_original": "Mononoke",
      "rating": 8.42,
      "classificacao_etaria": "A16",
      "imagem_original": "https://animefire.plus/img/animes/mononoke.webp",
      "imagem_pasta": "https://animefire.plus/img/animes/mononoke/",
      "secao": "legendados",
      "pagina": 64,
      "total_episodios": 12,
      "link_video": "https://animefire.plus/video/mononoke"
    },
    {
      "id": 2581,
      "nome": "Monster Hunter Stories: Ride On",
      "link": "https://animefire.plus/animes/monster-hunter-stories-ride-on-todos-os-episodios",
      "texto_original": "Monster Hunter Stories: Ride On",
      "rating": 6.31,
      "classificacao_etaria": "A14",
      "imagem_original": "https://animefire.plus/img/animes/monster-hunter-stories-ride-on.webp",
      "imagem_pasta": "https://animefire.plus/img/animes/monster-hunter-stories-ride-on/",
      "secao": "legendados",
      "pagina": 127,
      "total_episodios": 4,
      "link_video": "https://animefire.plus/video/monster-hunter-stories-ride-on"
    },
    {
      "id": 2582,
      "nome": "Monster Musume no Iru Nichijou",
      "link": "https://animefire.plus/animes/monster-musume-no-iru-nichijou-todos-os-episodios",
      "texto_original": "Monster Musume no Iru Nichijou",
      "rating": 7.25,
      "classificacao_etaria": "A18",
      "imagem_original": "https://animefire.plus/img/animes/monster-musume-no-iru-nichijou.webp",
      "imagem_pasta": "https://animefire.plus/img/animes/monster-musume-no-iru-nichijou/",
      "secao": "legendados",
      "pagina": 176,
      "total_episodios": 3,
      "link_video": "https://animefire.plus/video/monster-musume-no-iru-nichijou"
    },
    {
      "id": 2583,
      "nome": "Monster Musume no Iru Nichijou OVA",
      "link": "https://animefire.plus/animes/monster-musume-no-iru-nichijou-ova-todos-os-episodios",
      "texto_original": "Monster Musume no Iru Nichijou OVA",
      "rating": 7.26,
      "classificacao_etaria": "A18",
      "imagem_original": "https://animefire.plus/img/animes/monster-musume-no-iru-nichijou-ova.webp",
      "imagem_pasta": "https://animefire.plus/img/animes/monster-musume-no-iru-nichijou-ova/",
      "secao": "legendados",
      "pagina": 88,
      "total_episodios": 2,
      "link_video": "https://animefire.plus/video/monster-musume-no-iru-nichijou-ova"
    },
    {
      "id": 2585,
      "nome": "Monster Musume no Oishasan",
      "link": "https://animefire.plus/animes/monster-musume-no-oishasan-todos-os-episodios",
      "texto_original": "Monster Musume no Oishasan",
      "rating": null,
      "classificacao_etaria": "A14",
      "imagem_original": "https://animefire.plus/img/animes/monster-musume-no-oishasan.webp",
      "imagem_pasta": "https://animefire.plus/img/animes/monster-musume-no-oishasan/",
      "secao": "legendados",
      "pagina": 58,
      "total_episodios": 12,
      "link_video": "https://animefire.plus/video/monster-musume-no-oishasan"
    },
    {
      "id": 2590,
      "nome": "Moonrise",
      "link": "https://animefire.plus/animes/moonrise-todos-os-episodios",
      "texto_original": "Moonrise",
      "rating": null,
      "classificacao_etaria": "A16",
      "imagem_original": "https://animefire.plus/img/animes/moonrise.webp",
      "imagem_pasta": "https://animefire.plus/img/animes/moonrise/",
      "secao": "legendados,lancamentos",
      "pagina": 4,
      "total_episodios": 3,
      "link_video": "https://animefire.plus/video/moonrise"
    },
    {
      "id": 2593,
      "nome": "Moshidora",
      "link": "https://animefire.plus/animes/moshidora-todos-os-episodios",
      "texto_original": "Moshidora",
      "rating": 6.95,
      "classificacao_etaria": "A14",
      "imagem_original": "https://animefire.plus/img/animes/moshidora.webp",
      "imagem_pasta": "https://animefire.plus/img/animes/moshidora/",
      "secao": "legendados",
      "pagina": 120,
      "total_episodios": 10,
      "link_video": "https://animefire.plus/video/moshidora"
    },
    {
      "id": 2594,
      "nome": "Motto To LOVE-Ru",
      "link": "https://animefire.plus/animes/motto-to-love-ru-todos-os-episodios",
      "texto_original": "Motto To LOVE-Ru",
      "rating": 7.47,
      "classificacao_etaria": "A18",
      "imagem_original": "https://animefire.plus/img/animes/motto-to-love-ru.webp",
      "imagem_pasta": "https://animefire.plus/img/animes/motto-to-love-ru/",
      "secao": "legendados",
      "pagina": 163,
      "total_episodios": 2,
      "link_video": "https://animefire.plus/video/motto-to-love-ru"
    },
    {
      "id": 2595,
      "nome": "Mou Hitotsu no Mirai wo.",
      "link": "https://animefire.plus/animes/mou-hitotsu-no-mirai-wo-todos-os-episodios",
      "texto_original": "Mou Hitotsu no Mirai wo.",
      "rating": 6.1,
      "classificacao_etaria": "A14",
      "imagem_original": "https://animefire.plus/img/animes/mou-hitotsu-no-mirai-wo.webp",
      "imagem_pasta": "https://animefire.plus/img/animes/mou-hitotsu-no-mirai-wo/",
      "secao": "legendados",
      "pagina": 169,
      "total_episodios": 3,
      "link_video": "https://animefire.plus/video/mou-hitotsu-no-mirai-wo"
    },
    {
      "id": 2599,
      "nome": "Mouse",
      "link": "https://animefire.plus/animes/mouse-todos-os-episodios",
      "texto_original": "Mouse",
      "rating": 6.11,
      "classificacao_etaria": "A18",
      "imagem_original": "https://animefire.plus/img/animes/mouse.webp",
      "imagem_pasta": "https://animefire.plus/img/animes/mouse/",
      "secao": "legendados",
      "pagina": 119,
      "total_episodios": 12,
      "link_video": "https://animefire.plus/video/mouse"
    },
    {
      "id": 2601,
      "nome": "Mousou Kagaku Series: Wandaba Style",
      "link": "https://animefire.plus/animes/mousou-kagaku-series-wandaba-style-todos-os-episodios",
      "texto_original": "Mousou Kagaku Series: Wandaba Style",
      "rating": 6.09,
      "classificacao_etaria": "A14",
      "imagem_original": "https://animefire.plus/img/animes/mousou-kagaku-series-wandaba-style.webp",
      "imagem_pasta": "https://animefire.plus/img/animes/mousou-kagaku-series-wandaba-style/",
      "secao": "legendados",
      "pagina": 128,
      "total_episodios": 12,
      "link_video": "https://animefire.plus/video/mousou-kagaku-series-wandaba-style"
    },
    {
      "id": 2605,
      "nome": "Mugyutto! Black Clover",
      "link": "https://animefire.plus/animes/mugyutto-black-clover-todos-os-episodios",
      "texto_original": "Mugyutto! Black Clover",
      "rating": 6.28,
      "classificacao_etaria": "A14",
      "imagem_original": "https://animefire.plus/img/animes/mugyutto-black-clover.webp",
      "imagem_pasta": "https://animefire.plus/img/animes/mugyutto-black-clover/",
      "secao": "legendados",
      "pagina": 80,
      "total_episodios": 8,
      "link_video": "https://animefire.plus/video/mugyutto-black-clover"
    },
    {
      "id": 2606,
      "nome": "Muhyo to Rouji no Mahouritsu Soudan Jimusho",
      "link": "https://animefire.plus/animes/muhyo-to-rouji-no-mahouritsu-soudan-jimusho-todos-os-episodios",
      "texto_original": "Muhyo to Rouji no Mahouritsu Soudan Jimusho",
      "rating": 6.72,
      "classificacao_etaria": "A14",
      "imagem_original": "https://animefire.plus/img/animes/muhyo-to-rouji-no-mahouritsu-soudan-jimusho.webp",
      "imagem_pasta": "https://animefire.plus/img/animes/muhyo-to-rouji-no-mahouritsu-soudan-jimusho/",
      "secao": "legendados",
      "pagina": 122,
      "total_episodios": 12,
      "link_video": "https://animefire.plus/video/muhyo-to-rouji-no-mahouritsu-soudan-jimusho"
    },
    {
      "id": 2607,
      "nome": "Muhyo to Rouji no Mahouritsu Soudan Jimusho 2nd Season",
      "link": "https://animefire.plus/animes/muhyo-to-rouji-no-mahouritsu-soudan-jimusho-2nd-season-todos-os-episodios",
      "texto_original": "Muhyo to Rouji no Mahouritsu Soudan Jimusho 2nd Season",
      "rating": 6.84,
      "classificacao_etaria": "A14",
      "imagem_original": "https://animefire.plus/img/animes/muhyo-to-rouji-no-mahouritsu-soudan-jimusho-2nd-season.webp",
      "imagem_pasta": "https://animefire.plus/img/animes/muhyo-to-rouji-no-mahouritsu-soudan-jimusho-2nd-season/",
      "secao": "legendados",
      "pagina": 58,
      "total_episodios": 5,
      "link_video": "https://animefire.plus/video/muhyo-to-rouji-no-mahouritsu-soudan-jimusho-2nd-season"
    }
  ],
  "pagination": {
    "current_page": 65,
    "per_page": 20,
    "total_items": 2189,
    "total_pages": 110,
    "has_next": true,
    "has_prev": true
  }
}
