{
  "message": "Animes com 2 a 12 episódios",
  "episode_range": {
    "min": 2,
    "max": 12
  },
  "data": [
    {
      "id": 1856,
      "nome": "Kamisama Hajimemashita◎",
      "link": "https://animefire.plus/animes/kamisama-kiss-season-2-todos-os-episodios",
      "texto_original": "Kamisama Hajimemashita◎",
      "rating": 8.19,
      "classificacao_etaria": "A14",
      "imagem_original": "https://animefire.plus/img/animes/kamisama-kiss-season-2.webp",
      "imagem_pasta": "https://animefire.plus/img/animes/kamisama-kiss-season-2/",
      "secao": "legendados",
      "pagina": 72,
      "total_episodios": 12,
      "link_video": "https://animefire.plus/video/kamisama-kiss-season-2"
    },
    {
      "id": 1859,
      "nome": "Kamisama ni Natta Hi",
      "link": "https://animefire.plus/animes/kamisama-ni-natta-hi-todos-os-episodios",
      "texto_original": "Kamisama ni Natta Hi",
      "rating": null,
      "classificacao_etaria": "A14",
      "imagem_original": "https://animefire.plus/img/animes/kamisama-ni-natta-hi.webp",
      "imagem_pasta": "https://animefire.plus/img/animes/kamisama-ni-natta-hi/",
      "secao": "legendados",
      "pagina": 52,
      "total_episodios": 12,
      "link_video": "https://animefire.plus/video/kamisama-ni-natta-hi"
    },
    {
      "id": 1860,
      "nome": "Kamisama No Inai Nichiyoubi",
      "link": "https://animefire.plus/animes/kamisama-no-inai-nichiyoubi-todos-os-episodios",
      "texto_original": "Kamisama No Inai Nichiyoubi",
      "rating": 7.43,
      "classificacao_etaria": "A16",
      "imagem_original": "https://animefire.plus/img/animes/kamisama-no-inai-nichiyoubi.webp",
      "imagem_pasta": "https://animefire.plus/img/animes/kamisama-no-inai-nichiyoubi/",
      "secao": "legendados",
      "pagina": 96,
      "total_episodios": 9,
      "link_video": "https://animefire.plus/video/kamisama-no-inai-nichiyoubi"
    },
    {
      "id": 1861,
      "nome": "Kamisama no Memochou",
      "link": "https://animefire.plus/animes/kamisama-no-memochou-todos-os-episodios",
      "texto_original": "Kamisama no Memochou",
      "rating": 7.61,
      "classificacao_etaria": "A16",
      "imagem_original": "https://animefire.plus/img/animes/kamisama-no-memochou.webp",
      "imagem_pasta": "https://animefire.plus/img/animes/kamisama-no-memochou/",
      "secao": "legendados",
      "pagina": 157,
      "total_episodios": 12,
      "link_video": "https://animefire.plus/video/kamisama-no-memochou"
    },
    {
      "id": 1862,
      "nome": "Kamitsubaki-shi Kensetsuchuu.",
      "link": "https://animefire.plus/animes/kamitsubaki-shi-kensetsuchuu-todos-os-episodios",
      "texto_original": "Kamitsubaki-shi Kensetsuchuu.",
      "rating": 5.5,
      "classificacao_etaria": "A14",
      "imagem_original": "https://animefire.plus/img/animes/kamitsubaki-shi-kensetsuchuu.webp",
      "imagem_pasta": "https://animefire.plus/img/animes/kamitsubaki-shi-kensetsuchuu/",
      "secao": "legendados,lancamentos",
      "pagina": 1,
      "total_episodios": 4,
      "link_video": "https://animefire.plus/video/kamitsubaki-shi-kensetsuchuu"
    },
    {
      "id": 1865,
      "nome": "Kämpfer",
      "link": "https://animefire.plus/animes/kaempfer-todos-os-episodios",
      "texto_original": "Kämpfer",
      "rating": 6.59,
      "classificacao_etaria": "A14",
      "imagem_original": "https://animefire.plus/img/animes/kaempfer.webp",
      "imagem_pasta": "https://animefire.plus/img/animes/kaempfer/",
      "secao": "legendados",
      "pagina": 116,
      "total_episodios": 12,
      "link_video": "https://animefire.plus/video/kaempfer"
    },
    {
      "id": 1867,
      "nome": "Kanata no Astra",
      "link": "https://animefire.plus/animes/kanata-no-astra-todos-os-episodios",
      "texto_original": "Kanata no Astra",
      "rating": 8.17,
      "classificacao_etaria": "A14",
      "imagem_original": "https://animefire.plus/img/animes/kanata-no-astra.webp",
      "imagem_pasta": "https://animefire.plus/img/animes/kanata-no-astra/",
      "secao": "legendados",
      "pagina": 144,
      "total_episodios": 6,
      "link_video": "https://animefire.plus/video/kanata-no-astra"
    },
    {
      "id": 1868,
      "nome": "Kanchigai no Atelier Meister: Eiyuu Party no Moto Zatsuyougakari ga, Jitsu wa Sentou Igai ga SSS Rank Datta to Iu Yoku Aru Hanashi (Dublado)",
      "link": "https://animefire.plus/animes/kanchigai-no-atelier-meister-eiyuu-party-no-moto-zatsuyougakari-ga-jitsu-wa-sentou-igai-ga-sss-rank-datta-to-iu-yoku-aru-hanashi-dublado-todos-os-episodios",
      "texto_original": "Kanchigai no Atelier Meister: Eiyuu Party no Moto Zatsuyougakari ga, Jitsu wa Sentou Igai ga SSS Rank Datta to Iu Yoku Aru Hanashi (Dublado)",
      "rating": 6.45,
      "classificacao_etaria": "A14",
      "imagem_original": "https://animefire.plus/img/animes/kanchigai-no-atelier-meister-eiyuu-party-no-moto-zatsuyougakari-ga-jitsu-wa-sentou-igai-ga-sss-rank-datta-to-iu-yoku-aru-hanashi.webp",
      "imagem_pasta": "https://animefire.plus/img/animes/kanchigai-no-atelier-meister-eiyuu-party-no-moto-zatsuyougakari-ga-jitsu-wa-sentou-igai-ga-sss-rank-datta-to-iu-yoku-aru-hanashi/",
      "secao": "dublados,legendados,lancamentos",
      "pagina": 1,
      "total_episodios": 12,
      "link_video": "https://animefire.plus/video/kanchigai-no-atelier-meister-eiyuu-party-no-moto-zatsuyougakari-ga-jitsu-wa-sentou-igai-ga-sss-rank-datta-to-iu-yoku-aru-hanashi-dublado"
    },
    {
      "id": 1869,
      "nome": "KanColle: Itsuka Ano Umi de",
      "link": "https://animefire.plus/animes/kancolle-itsuka-ano-umi-de-todos-os-episodios",
      "texto_original": "KanColle: Itsuka Ano Umi de",
      "rating": 6.26,
      "classificacao_etaria": "A14",
      "imagem_original": "https://animefire.plus/img/animes/kancolle-itsuka-ano-umi-de.webp",
      "imagem_pasta": "https://animefire.plus/img/animes/kancolle-itsuka-ano-umi-de/",
      "secao": "legendados,lancamentos",
      "pagina": 30,
      "total_episodios": 6,
      "link_video": "https://animefire.plus/video/kancolle-itsuka-ano-umi-de"
    },
    {
      "id": 1874,
      "nome": "Kannagi",
      "link": "https://animefire.plus/animes/kannagi-todos-os-episodios",
      "texto_original": "Kannagi",
      "rating": 7.37,
      "classificacao_etaria": "A14",
      "imagem_original": "https://animefire.plus/img/animes/kannagi.webp",
      "imagem_pasta": "https://animefire.plus/img/animes/kannagi/",
      "secao": "legendados",
      "pagina": 152,
      "total_episodios": 12,
      "link_video": "https://animefire.plus/video/kannagi"
    },
    {
      "id": 1876,
      "nome": "Kanojo ga Flag wo Oraretara",
      "link": "https://animefire.plus/animes/kanojo-ga-flag-wo-oraretara-todos-os-episodios",
      "texto_original": "Kanojo ga Flag wo Oraretara",
      "rating": 6.56,
      "classificacao_etaria": "A14",
      "imagem_original": "https://animefire.plus/img/animes/kanojo-ga-flag-wo-oraretara.webp",
      "imagem_pasta": "https://animefire.plus/img/animes/kanojo-ga-flag-wo-oraretara/",
      "secao": "legendados",
      "pagina": 117,
      "total_episodios": 9,
      "link_video": "https://animefire.plus/video/kanojo-ga-flag-wo-oraretara"
    },
    {
      "id": 1877,
      "nome": "Kanojo ga Koushaku-tei ni Itta Riyuu (Dublado)",
      "link": "https://animefire.plus/animes/kanojo-ga-koushaku-tei-ni-itta-riyuu-dublado-todos-os-episodios",
      "texto_original": "Kanojo ga Koushaku-tei ni Itta Riyuu (Dublado)",
      "rating": 7.53,
      "classificacao_etaria": "A14",
      "imagem_original": "https://animefire.plus/img/animes/kanojo-ga-koushaku-tei-ni-itta-riyuu.webp",
      "imagem_pasta": "https://animefire.plus/img/animes/kanojo-ga-koushaku-tei-ni-itta-riyuu/",
      "secao": "dublados,legendados",
      "pagina": 6,
      "total_episodios": 12,
      "link_video": "https://animefire.plus/video/kanojo-ga-koushaku-tei-ni-itta-riyuu-dublado"
    },
    {
      "id": 1878,
      "nome": "Kanojo mo Kanojo (Dublado)",
      "link": "https://animefire.plus/animes/kanojo-mo-kanojo-dublado-todos-os-episodios",
      "texto_original": "Kanojo mo Kanojo (Dublado)",
      "rating": 6.52,
      "classificacao_etaria": "A14",
      "imagem_original": "https://animefire.plus/img/animes/kanojo-mo-kanojo.webp",
      "imagem_pasta": "https://animefire.plus/img/animes/kanojo-mo-kanojo/",
      "secao": "dublados,legendados",
      "pagina": 4,
      "total_episodios": 12,
      "link_video": "https://animefire.plus/video/kanojo-mo-kanojo-dublado"
    },
    {
      "id": 1879,
      "nome": "Kanojo mo Kanojo Season 2 (Dublado)",
      "link": "https://animefire.plus/animes/kanojo-mo-kanojo-season-2-dublado-todos-os-episodios",
      "texto_original": "Kanojo mo Kanojo Season 2 (Dublado)",
      "rating": 7.01,
      "classificacao_etaria": "A14",
      "imagem_original": "https://animefire.plus/img/animes/kanojo-mo-kanojo-season-2.webp",
      "imagem_pasta": "https://animefire.plus/img/animes/kanojo-mo-kanojo-season-2/",
      "secao": "dublados,legendados",
      "pagina": 5,
      "total_episodios": 12,
      "link_video": "https://animefire.plus/video/kanojo-mo-kanojo-season-2-dublado"
    },
    {
      "id": 1880,
      "nome": "Kanojo To Kanojo No Neko: Everything Flows",
      "link": "https://animefire.plus/animes/kanojo-to-kanojo-no-neko-everything-flows-todos-os-episodios",
      "texto_original": "Kanojo To Kanojo No Neko: Everything Flows",
      "rating": 7.75,
      "classificacao_etaria": null,
      "imagem_original": "https://animefire.plus/img/animes/kanojo-to-kanojo-no-neko-everything-flows.webp",
      "imagem_pasta": "https://animefire.plus/img/animes/kanojo-to-kanojo-no-neko-everything-flows/",
      "secao": "legendados",
      "pagina": 98,
      "total_episodios": 4,
      "link_video": "https://animefire.plus/video/kanojo-to-kanojo-no-neko-everything-flows"
    },
    {
      "id": 1881,
      "nome": "Kanojo, Okarishimasu (Dublado)",
      "link": "https://animefire.plus/animes/kanojo-okarishimasu-dublado-todos-os-episodios",
      "texto_original": "Kanojo, Okarishimasu (Dublado)",
      "rating": 7.19,
      "classificacao_etaria": "A14",
      "imagem_original": "https://animefire.plus/img/animes/kanojo-okarishimasu.webp",
      "imagem_pasta": "https://animefire.plus/img/animes/kanojo-okarishimasu/",
      "secao": "dublados,legendados",
      "pagina": 10,
      "total_episodios": 12,
      "link_video": "https://animefire.plus/video/kanojo-okarishimasu-dublado"
    },
    {
      "id": 1882,
      "nome": "Kanojo, Okarishimasu 2nd Season (Dublado)",
      "link": "https://animefire.plus/animes/kanojo-okarishimasu-2nd-season-dublado-todos-os-episodios",
      "texto_original": "Kanojo, Okarishimasu 2nd Season (Dublado)",
      "rating": 6.75,
      "classificacao_etaria": "A14",
      "imagem_original": "https://animefire.plus/img/animes/kanojo-okarishimasu-2nd-season.webp",
      "imagem_pasta": "https://animefire.plus/img/animes/kanojo-okarishimasu-2nd-season/",
      "secao": "dublados,legendados",
      "pagina": 10,
      "total_episodios": 12,
      "link_video": "https://animefire.plus/video/kanojo-okarishimasu-2nd-season-dublado"
    },
    {
      "id": 1883,
      "nome": "Kanojo, Okarishimasu 3rd Season (Dublado)",
      "link": "https://animefire.plus/animes/kanojo-okarishimasu-3rd-season-dublado-todos-os-episodios",
      "texto_original": "Kanojo, Okarishimasu 3rd Season (Dublado)",
      "rating": 7.01,
      "classificacao_etaria": "A14",
      "imagem_original": "https://animefire.plus/img/animes/kanojo-okarishimasu-3rd-season.webp",
      "imagem_pasta": "https://animefire.plus/img/animes/kanojo-okarishimasu-3rd-season/",
      "secao": "dublados,legendados,lancamentos",
      "pagina": 6,
      "total_episodios": 12,
      "link_video": "https://animefire.plus/video/kanojo-okarishimasu-3rd-season-dublado"
    },
    {
      "id": 1884,
      "nome": "Kanojo, Okarishimasu 4th Season",
      "link": "https://animefire.plus/animes/kanojo-okarishimasu-4th-season-todos-os-episodios",
      "texto_original": "Kanojo, Okarishimasu 4th Season",
      "rating": 6.2,
      "classificacao_etaria": "A14",
      "imagem_original": "https://animefire.plus/img/animes/kanojo-okarishimasu-4th-season.webp",
      "imagem_pasta": "https://animefire.plus/img/animes/kanojo-okarishimasu-4th-season/",
      "secao": "legendados,lancamentos",
      "pagina": 3,
      "total_episodios": 5,
      "link_video": "https://animefire.plus/video/kanojo-okarishimasu-4th-season"
    },
    {
      "id": 1886,
      "nome": "Kanokon: Manatsu no Dai Shanikusai",
      "link": "https://animefire.plus/animes/kanokon-manatsu-no-dai-shanikusai-todos-os-episodios",
      "texto_original": "Kanokon: Manatsu no Dai Shanikusai",
      "rating": 6.66,
      "classificacao_etaria": "A18",
      "imagem_original": "https://animefire.plus/img/animes/kanokon-manatsu-no-dai-shanikusai.webp",
      "imagem_pasta": "https://animefire.plus/img/animes/kanokon-manatsu-no-dai-shanikusai/",
      "secao": "legendados",
      "pagina": 148,
      "total_episodios": 2,
      "link_video": "https://animefire.plus/video/kanokon-manatsu-no-dai-shanikusai"
    }
  ],
  "pagination": {
    "current_page": 47,
    "per_page": 20,
    "total_items": 2189,
    "total_pages": 110,
    "has_next": true,
    "has_prev": true
  }
}
