{
  "message": "Animes com 2 a 12 episódios",
  "episode_range": {
    "min": 2,
    "max": 12
  },
  "data": [
    {
      "id": 1289,
      "nome": "Guomin Laogong Dai Huijia",
      "link": "https://animefire.plus/animes/guomin-laogong-dai-huijia-todos-os-episodios",
      "texto_original": "Guomin Laogong Dai Huijia",
      "rating": 6.27,
      "classificacao_etaria": "A14",
      "imagem_original": "https://animefire.plus/img/animes/guomin-laogong-dai-huijia.webp",
      "imagem_pasta": "https://animefire.plus/img/animes/guomin-laogong-dai-huijia/",
      "secao": "legendados",
      "pagina": 153,
      "total_episodios": 12,
      "link_video": "https://animefire.plus/video/guomin-laogong-dai-huijia"
    },
    {
      "id": 1290,
      "nome": "Guomin Laogong Dai Huijia 2nd season",
      "link": "https://animefire.plus/animes/guomin-laogong-dai-huijia-2nd-season-todos-os-episodios",
      "texto_original": "Guomin Laogong Dai Huijia 2nd season",
      "rating": 6.66,
      "classificacao_etaria": "A14",
      "imagem_original": "https://animefire.plus/img/animes/guomin-laogong-dai-huijia-2nd-season.webp",
      "imagem_pasta": "https://animefire.plus/img/animes/guomin-laogong-dai-huijia-2nd-season/",
      "secao": "legendados",
      "pagina": 88,
      "total_episodios": 12,
      "link_video": "https://animefire.plus/video/guomin-laogong-dai-huijia-2nd-season"
    },
    {
      "id": 1291,
      "nome": "Guomin Laogong Dai Huijia 3rd Season",
      "link": "https://animefire.plus/animes/guomin-laogong-dai-huijia-3rd-season-todos-os-episodios",
      "texto_original": "Guomin Laogong Dai Huijia 3rd Season",
      "rating": 6.65,
      "classificacao_etaria": "A14",
      "imagem_original": "https://animefire.plus/img/animes/guomin-laogong-dai-huijia-3rd-season.webp",
      "imagem_pasta": "https://animefire.plus/img/animes/guomin-laogong-dai-huijia-3rd-season/",
      "secao": "legendados",
      "pagina": 132,
      "total_episodios": 12,
      "link_video": "https://animefire.plus/video/guomin-laogong-dai-huijia-3rd-season"
    },
    {
      "id": 1292,
      "nome": "Guomin Laogong Dai Huijia 4th Season",
      "link": "https://animefire.plus/animes/guomin-laogong-dai-huijia-4th-season-todos-os-episodios",
      "texto_original": "Guomin Laogong Dai Huijia 4th Season",
      "rating": 6.5,
      "classificacao_etaria": "A14",
      "imagem_original": "https://animefire.plus/img/animes/guomin-laogong-dai-huijia-4th-season.webp",
      "imagem_pasta": "https://animefire.plus/img/animes/guomin-laogong-dai-huijia-4th-season/",
      "secao": "legendados",
      "pagina": 88,
      "total_episodios": 12,
      "link_video": "https://animefire.plus/video/guomin-laogong-dai-huijia-4th-season"
    },
    {
      "id": 1293,
      "nome": "Guraburu!",
      "link": "https://animefire.plus/animes/guraburu-todos-os-episodios",
      "texto_original": "Guraburu!",
      "rating": null,
      "classificacao_etaria": "A14",
      "imagem_original": "https://animefire.plus/img/animes/guraburu.webp",
      "imagem_pasta": "https://animefire.plus/img/animes/guraburu/",
      "secao": "legendados",
      "pagina": 51,
      "total_episodios": 12,
      "link_video": "https://animefire.plus/video/guraburu"
    },
    {
      "id": 1297,
      "nome": "Gyakuten Saiban: Sono \"Shinjitsu\", Igi Ari!",
      "link": "https://animefire.plus/animes/gyakuten-saiban-sono-shinjitsu-igi-ari-todos-os-episodios",
      "texto_original": "Gyakuten Saiban: Sono \"Shinjitsu\", Igi Ari!",
      "rating": 6.47,
      "classificacao_etaria": "A14",
      "imagem_original": "https://animefire.plus/img/animes/gyakuten-saiban-sono-shinjitsu-igi-ari.webp",
      "imagem_pasta": "https://animefire.plus/img/animes/gyakuten-saiban-sono-shinjitsu-igi-ari/",
      "secao": "legendados",
      "pagina": 116,
      "total_episodios": 9,
      "link_video": "https://animefire.plus/video/gyakuten-saiban-sono-shinjitsu-igi-ari"
    },
    {
      "id": 1298,
      "nome": "Gyakuten Sekai no Denchi Shoujo (Dublado)",
      "link": "https://animefire.plus/animes/gyakuten-sekai-no-denchi-shoujo-dublado-todos-os-episodios",
      "texto_original": "Gyakuten Sekai no Denchi Shoujo (Dublado)",
      "rating": 6.3,
      "classificacao_etaria": "A14",
      "imagem_original": "https://animefire.plus/img/animes/gyakuten-sekai-no-denchi-shoujo.webp",
      "imagem_pasta": "https://animefire.plus/img/animes/gyakuten-sekai-no-denchi-shoujo/",
      "secao": "dublados,legendados",
      "pagina": 14,
      "total_episodios": 12,
      "link_video": "https://animefire.plus/video/gyakuten-sekai-no-denchi-shoujo-dublado"
    },
    {
      "id": 1300,
      "nome": "Hachi-nan tte, Sore wa Nai deshou!",
      "link": "https://animefire.plus/animes/hachi-nan-tte-sore-wa-nai-deshou-todos-os-episodios",
      "texto_original": "Hachi-nan tte, Sore wa Nai deshou!",
      "rating": 6.19,
      "classificacao_etaria": "A14",
      "imagem_original": "https://animefire.plus/img/animes/hachi-nan-tte-sore-wa-nai-deshou.webp",
      "imagem_pasta": "https://animefire.plus/img/animes/hachi-nan-tte-sore-wa-nai-deshou/",
      "secao": "legendados",
      "pagina": 81,
      "total_episodios": 2,
      "link_video": "https://animefire.plus/video/hachi-nan-tte-sore-wa-nai-deshou"
    },
    {
      "id": 1302,
      "nome": "Hachimitsu To Clover II",
      "link": "https://animefire.plus/animes/hachimitsu-to-clover-ii-todos-os-episodios",
      "texto_original": "Hachimitsu To Clover II",
      "rating": 8.3,
      "classificacao_etaria": "A14",
      "imagem_original": "https://animefire.plus/img/animes/hachimitsu-to-clover-ii.webp",
      "imagem_pasta": "https://animefire.plus/img/animes/hachimitsu-to-clover-ii/",
      "secao": "legendados",
      "pagina": 98,
      "total_episodios": 12,
      "link_video": "https://animefire.plus/video/hachimitsu-to-clover-ii"
    },
    {
      "id": 1304,
      "nome": "Hagure Yuusha no Aesthetica",
      "link": "https://animefire.plus/animes/hagure-yuusha-no-aesthetica-todos-os-episodios",
      "texto_original": "Hagure Yuusha no Aesthetica",
      "rating": 7.1,
      "classificacao_etaria": "A18",
      "imagem_original": "https://animefire.plus/img/animes/hagure-yuusha-no-aesthetica.webp",
      "imagem_pasta": "https://animefire.plus/img/animes/hagure-yuusha-no-aesthetica/",
      "secao": "legendados",
      "pagina": 165,
      "total_episodios": 5,
      "link_video": "https://animefire.plus/video/hagure-yuusha-no-aesthetica"
    },
    {
      "id": 1305,
      "nome": "Hai To Gensou No Grimgar",
      "link": "https://animefire.plus/animes/hai-to-gensou-no-grimgar-todos-os-episodios",
      "texto_original": "Hai To Gensou No Grimgar",
      "rating": 7.8,
      "classificacao_etaria": "A16",
      "imagem_original": "https://animefire.plus/img/animes/hai-to-gensou-no-grimgar.webp",
      "imagem_pasta": "https://animefire.plus/img/animes/hai-to-gensou-no-grimgar/",
      "secao": "legendados",
      "pagina": 97,
      "total_episodios": 12,
      "link_video": "https://animefire.plus/video/hai-to-gensou-no-grimgar"
    },
    {
      "id": 1307,
      "nome": "Haigakura",
      "link": "https://animefire.plus/animes/haigakura-todos-os-episodios",
      "texto_original": "Haigakura",
      "rating": null,
      "classificacao_etaria": "A14",
      "imagem_original": "https://animefire.plus/img/animes/haigakura.webp",
      "imagem_pasta": "https://animefire.plus/img/animes/haigakura/",
      "secao": "legendados,lancamentos",
      "pagina": 9,
      "total_episodios": 7,
      "link_video": "https://animefire.plus/video/haigakura"
    },
    {
      "id": 1309,
      "nome": "Haikyuu!! Quest Picture Drama",
      "link": "https://animefire.plus/animes/haikyuu-quest-picture-drama-todos-os-episodios",
      "texto_original": "Haikyuu!! Quest Picture Drama",
      "rating": 6.52,
      "classificacao_etaria": "A14",
      "imagem_original": "https://animefire.plus/img/animes/haikyuu-quest-picture-drama.webp",
      "imagem_pasta": "https://animefire.plus/img/animes/haikyuu-quest-picture-drama/",
      "secao": "legendados",
      "pagina": 157,
      "total_episodios": 3,
      "link_video": "https://animefire.plus/video/haikyuu-quest-picture-drama"
    },
    {
      "id": 1311,
      "nome": "Haikyuu!!: Karasuno Koukou vs. Shiratorizawa Gakuen Koukou",
      "link": "https://animefire.plus/animes/haikyuu-karasuno-koukou-vs-shiratorizawa-gakuen-koukou-todos-os-episodios",
      "texto_original": "Haikyuu!!: Karasuno Koukou vs. Shiratorizawa Gakuen Koukou",
      "rating": 8.93,
      "classificacao_etaria": "A14",
      "imagem_original": "https://animefire.plus/img/animes/haikyuu-karasuno-koukou-vs-shiratorizawa-gakuen-koukou.webp",
      "imagem_pasta": "https://animefire.plus/img/animes/haikyuu-karasuno-koukou-vs-shiratorizawa-gakuen-koukou/",
      "secao": "legendados",
      "pagina": 91,
      "total_episodios": 10,
      "link_video": "https://animefire.plus/video/haikyuu-karasuno-koukou-vs-shiratorizawa-gakuen-koukou"
    },
    {
      "id": 1315,
      "nome": "Haikyuu!!: To the Top 2nd Season",
      "link": "https://animefire.plus/animes/haikyuu-to-the-top-2nd-season-todos-os-episodios",
      "texto_original": "Haikyuu!!: To the Top 2nd Season",
      "rating": null,
      "classificacao_etaria": "A14",
      "imagem_original": "https://animefire.plus/img/animes/haikyuu-to-the-top-2nd-season.webp",
      "imagem_pasta": "https://animefire.plus/img/animes/haikyuu-to-the-top-2nd-season/",
      "secao": "legendados",
      "pagina": 53,
      "total_episodios": 12,
      "link_video": "https://animefire.plus/video/haikyuu-to-the-top-2nd-season"
    },
    {
      "id": 1317,
      "nome": "Haite Kudasai, Takamine-san",
      "link": "https://animefire.plus/animes/haite-kudasai-takamine-san-todos-os-episodios",
      "texto_original": "Haite Kudasai, Takamine-san",
      "rating": 6.23,
      "classificacao_etaria": "A18",
      "imagem_original": "https://animefire.plus/img/animes/haite-kudasai-takamine-san.webp",
      "imagem_pasta": "https://animefire.plus/img/animes/haite-kudasai-takamine-san/",
      "secao": "legendados",
      "pagina": 6,
      "total_episodios": 12,
      "link_video": "https://animefire.plus/video/haite-kudasai-takamine-san"
    },
    {
      "id": 1318,
      "nome": "Haiyore! Nyaruko-san (Dublado)",
      "link": "https://animefire.plus/animes/haiyore-nyaruko-san-dublado-todos-os-episodios",
      "texto_original": "Haiyore! Nyaruko-san (Dublado)",
      "rating": 6.99,
      "classificacao_etaria": "A14",
      "imagem_original": "https://animefire.plus/img/animes/haiyore-nyaruko-san.webp",
      "imagem_pasta": "https://animefire.plus/img/animes/haiyore-nyaruko-san/",
      "secao": "dublados,legendados",
      "pagina": 5,
      "total_episodios": 12,
      "link_video": "https://animefire.plus/video/haiyore-nyaruko-san-dublado"
    },
    {
      "id": 1320,
      "nome": "Haiyore! Nyaruko-san W (Dublado)",
      "link": "https://animefire.plus/animes/haiyore-nyaruko-san-w-dublado-todos-os-episodios",
      "texto_original": "Haiyore! Nyaruko-san W (Dublado)",
      "rating": 7.22,
      "classificacao_etaria": "A14",
      "imagem_original": "https://animefire.plus/img/animes/haiyore-nyaruko-san-w.webp",
      "imagem_pasta": "https://animefire.plus/img/animes/haiyore-nyaruko-san-w/",
      "secao": "dublados,legendados",
      "pagina": 4,
      "total_episodios": 12,
      "link_video": "https://animefire.plus/video/haiyore-nyaruko-san-w-dublado"
    },
    {
      "id": 1324,
      "nome": "Hajimete no Gal",
      "link": "https://animefire.plus/animes/hajimete-no-gal-todos-os-episodios",
      "texto_original": "Hajimete no Gal",
      "rating": 6.18,
      "classificacao_etaria": "A14",
      "imagem_original": "https://animefire.plus/img/animes/hajimete-no-gal.webp",
      "imagem_pasta": "https://animefire.plus/img/animes/hajimete-no-gal/",
      "secao": "legendados",
      "pagina": 80,
      "total_episodios": 11,
      "link_video": "https://animefire.plus/video/hajimete-no-gal"
    },
    {
      "id": 1326,
      "nome": "Hakata Mentai! Pirikarako-chan",
      "link": "https://animefire.plus/animes/hakata-mentai-pirikarako-chan-todos-os-episodios",
      "texto_original": "Hakata Mentai! Pirikarako-chan",
      "rating": 5.05,
      "classificacao_etaria": null,
      "imagem_original": "https://animefire.plus/img/animes/hakata-mentai-pirikarako-chan.webp",
      "imagem_pasta": "https://animefire.plus/img/animes/hakata-mentai-pirikarako-chan/",
      "secao": "legendados",
      "pagina": 75,
      "total_episodios": 12,
      "link_video": "https://animefire.plus/video/hakata-mentai-pirikarako-chan"
    }
  ],
  "pagination": {
    "current_page": 32,
    "per_page": 20,
    "total_items": 2189,
    "total_pages": 110,
    "has_next": true,
    "has_prev": true
  }
}
