{
  "message": "Animes com 2 a 12 episódios",
  "episode_range": {
    "min": 2,
    "max": 12
  },
  "data": [
    {
      "id": 198,
      "nome": "Ao no 6-gou (Dublado)",
      "link": "https://animefire.plus/animes/ao-no-6-gou-dublado-todos-os-episodios",
      "texto_original": "Ao no 6-gou (Dublado)",
      "rating": 7.06,
      "classificacao_etaria": "A14",
      "imagem_original": "https://animefire.plus/img/animes/ao-no-6-gou.webp",
      "imagem_pasta": "https://animefire.plus/img/animes/ao-no-6-gou/",
      "secao": "dublados,legendados",
      "pagina": 21,
      "total_episodios": 4,
      "link_video": "https://animefire.plus/video/ao-no-6-gou-dublado"
    },
    {
      "id": 201,
      "nome": "Ao no Exorcist: Shimane Illuminati-hen",
      "link": "https://animefire.plus/animes/ao-no-exorcist-shimane-illuminati-hen-todos-os-episodios",
      "texto_original": "Ao no Exorcist: Shimane Illuminati-hen",
      "rating": 7.09,
      "classificacao_etaria": "A14",
      "imagem_original": "https://animefire.plus/img/animes/ao-no-exorcist-shimane-illuminati-hen.webp",
      "imagem_pasta": "https://animefire.plus/img/animes/ao-no-exorcist-shimane-illuminati-hen/",
      "secao": "legendados",
      "pagina": 17,
      "total_episodios": 12,
      "link_video": "https://animefire.plus/video/ao-no-exorcist-shimane-illuminati-hen"
    },
    {
      "id": 202,
      "nome": "Ao no Exorcist: Yosuga-hen",
      "link": "https://animefire.plus/animes/ao-no-exorcist-yosuga-hen-todos-os-episodios",
      "texto_original": "Ao no Exorcist: Yosuga-hen",
      "rating": 8,
      "classificacao_etaria": "A14",
      "imagem_original": "https://animefire.plus/img/animes/ao-no-exorcist-yosuga-hen.webp",
      "imagem_pasta": "https://animefire.plus/img/animes/ao-no-exorcist-yosuga-hen/",
      "secao": "legendados",
      "pagina": 7,
      "total_episodios": 12,
      "link_video": "https://animefire.plus/video/ao-no-exorcist-yosuga-hen"
    },
    {
      "id": 203,
      "nome": "Ao no Exorcist: Yuki no Hate-hen",
      "link": "https://animefire.plus/animes/ao-no-exorcist-yuki-no-hate-hen-todos-os-episodios",
      "texto_original": "Ao no Exorcist: Yuki no Hate-hen",
      "rating": 7.47,
      "classificacao_etaria": "A14",
      "imagem_original": "https://animefire.plus/img/animes/ao-no-exorcist-yuki-no-hate-hen.webp",
      "imagem_pasta": "https://animefire.plus/img/animes/ao-no-exorcist-yuki-no-hate-hen/",
      "secao": "legendados",
      "pagina": 9,
      "total_episodios": 12,
      "link_video": "https://animefire.plus/video/ao-no-exorcist-yuki-no-hate-hen"
    },
    {
      "id": 205,
      "nome": "Ao no Kanata no Four Rhythm",
      "link": "https://animefire.plus/animes/ao-no-kanata-no-four-rhythm-todos-os-episodios",
      "texto_original": "Ao no Kanata no Four Rhythm",
      "rating": 6.83,
      "classificacao_etaria": "A14",
      "imagem_original": "https://animefire.plus/img/animes/ao-no-kanata-no-four-rhythm.webp",
      "imagem_pasta": "https://animefire.plus/img/animes/ao-no-kanata-no-four-rhythm/",
      "secao": "legendados",
      "pagina": 114,
      "total_episodios": 2,
      "link_video": "https://animefire.plus/video/ao-no-kanata-no-four-rhythm"
    },
    {
      "id": 208,
      "nome": "Aoi Bungaku Series",
      "link": "https://animefire.plus/animes/aoi-bungaku-series-todos-os-episodios",
      "texto_original": "Aoi Bungaku Series",
      "rating": 7.81,
      "classificacao_etaria": "A16",
      "imagem_original": "https://animefire.plus/img/animes/aoi-bungaku-series.webp",
      "imagem_pasta": "https://animefire.plus/img/animes/aoi-bungaku-series/",
      "secao": "legendados",
      "pagina": 117,
      "total_episodios": 12,
      "link_video": "https://animefire.plus/video/aoi-bungaku-series"
    },
    {
      "id": 209,
      "nome": "Aoi Hana",
      "link": "https://animefire.plus/animes/aoi-hana-todos-os-episodios",
      "texto_original": "Aoi Hana",
      "rating": 7.22,
      "classificacao_etaria": "A14",
      "imagem_original": "https://animefire.plus/img/animes/aoi-hana.webp",
      "imagem_pasta": "https://animefire.plus/img/animes/aoi-hana/",
      "secao": "legendados",
      "pagina": 101,
      "total_episodios": 11,
      "link_video": "https://animefire.plus/video/aoi-hana"
    },
    {
      "id": 211,
      "nome": "Aoi Umi no Tristia",
      "link": "https://animefire.plus/animes/aoi-umi-no-tristia-todos-os-episodios",
      "texto_original": "Aoi Umi no Tristia",
      "rating": 5.71,
      "classificacao_etaria": "A10",
      "imagem_original": "https://animefire.plus/img/animes/aoi-umi-no-tristia.webp",
      "imagem_pasta": "https://animefire.plus/img/animes/aoi-umi-no-tristia/",
      "secao": "legendados",
      "pagina": 56,
      "total_episodios": 2,
      "link_video": "https://animefire.plus/video/aoi-umi-no-tristia"
    },
    {
      "id": 212,
      "nome": "Aoki Hagane no Arpeggio: Ars Nova",
      "link": "https://animefire.plus/animes/aoki-hagane-no-arpeggio-ars-nova-todos-os-episodios",
      "texto_original": "Aoki Hagane no Arpeggio: Ars Nova",
      "rating": 7.47,
      "classificacao_etaria": "A14",
      "imagem_original": "https://animefire.plus/img/animes/aoki-hagane-no-arpeggio-ars-nova.webp",
      "imagem_pasta": "https://animefire.plus/img/animes/aoki-hagane-no-arpeggio-ars-nova/",
      "secao": "legendados",
      "pagina": 147,
      "total_episodios": 5,
      "link_video": "https://animefire.plus/video/aoki-hagane-no-arpeggio-ars-nova"
    },
    {
      "id": 214,
      "nome": "Apocalypse Hotel",
      "link": "https://animefire.plus/animes/apocalypse-hotel-todos-os-episodios",
      "texto_original": "Apocalypse Hotel",
      "rating": 8.04,
      "classificacao_etaria": "A14",
      "imagem_original": "https://animefire.plus/img/animes/apocalypse-hotel.webp",
      "imagem_pasta": "https://animefire.plus/img/animes/apocalypse-hotel/",
      "secao": "legendados",
      "pagina": 4,
      "total_episodios": 12,
      "link_video": "https://animefire.plus/video/apocalypse-hotel"
    },
    {
      "id": 217,
      "nome": "Aquarion Logos",
      "link": "https://animefire.plus/animes/aquarion-logos-todos-os-episodios",
      "texto_original": "Aquarion Logos",
      "rating": 5.82,
      "classificacao_etaria": "A14",
      "imagem_original": "https://animefire.plus/img/animes/aquarion-logos.webp",
      "imagem_pasta": "https://animefire.plus/img/animes/aquarion-logos/",
      "secao": "legendados",
      "pagina": 152,
      "total_episodios": 4,
      "link_video": "https://animefire.plus/video/aquarion-logos"
    },
    {
      "id": 218,
      "nome": "Araburu Kisetsu no Otome-domo yo.",
      "link": "https://animefire.plus/animes/araburu-kisetsu-no-otome-domo-yo-todos-os-episodios",
      "texto_original": "Araburu Kisetsu no Otome-domo yo.",
      "rating": 7.5,
      "classificacao_etaria": "A14",
      "imagem_original": "https://animefire.plus/img/animes/araburu-kisetsu-no-otome-domo-yo.webp",
      "imagem_pasta": "https://animefire.plus/img/animes/araburu-kisetsu-no-otome-domo-yo/",
      "secao": "legendados",
      "pagina": 161,
      "total_episodios": 12,
      "link_video": "https://animefire.plus/video/araburu-kisetsu-no-otome-domo-yo"
    },
    {
      "id": 224,
      "nome": "Arcana Famiglia",
      "link": "https://animefire.plus/animes/arcana-famiglia-todos-os-episodios",
      "texto_original": "Arcana Famiglia",
      "rating": 6.39,
      "classificacao_etaria": "A14",
      "imagem_original": "https://animefire.plus/img/animes/arcana-famiglia.webp",
      "imagem_pasta": "https://animefire.plus/img/animes/arcana-famiglia/",
      "secao": "legendados",
      "pagina": 127,
      "total_episodios": 7,
      "link_video": "https://animefire.plus/video/arcana-famiglia"
    },
    {
      "id": 225,
      "nome": "Area 88",
      "link": "https://animefire.plus/animes/area-88-todos-os-episodios",
      "texto_original": "Area 88",
      "rating": 7.6,
      "classificacao_etaria": "A18",
      "imagem_original": "https://animefire.plus/img/animes/area-88.webp",
      "imagem_pasta": "https://animefire.plus/img/animes/area-88/",
      "secao": "legendados",
      "pagina": 103,
      "total_episodios": 12,
      "link_video": "https://animefire.plus/video/area-88"
    },
    {
      "id": 226,
      "nome": "Area 88 (TV)",
      "link": "https://animefire.plus/animes/area-88-tv-todos-os-episodios",
      "texto_original": "Area 88 (TV)",
      "rating": 7.04,
      "classificacao_etaria": "A14",
      "imagem_original": "https://animefire.plus/img/animes/area-88-tv.webp",
      "imagem_pasta": "https://animefire.plus/img/animes/area-88-tv/",
      "secao": "legendados",
      "pagina": 74,
      "total_episodios": 12,
      "link_video": "https://animefire.plus/video/area-88-tv"
    },
    {
      "id": 231,
      "nome": "Aria The Avvenire",
      "link": "https://animefire.plus/animes/aria-the-avvenire-todos-os-episodios",
      "texto_original": "Aria The Avvenire",
      "rating": 8.04,
      "classificacao_etaria": null,
      "imagem_original": "https://animefire.plus/img/animes/aria-the-avvenire.webp",
      "imagem_pasta": "https://animefire.plus/img/animes/aria-the-avvenire/",
      "secao": "legendados",
      "pagina": 147,
      "total_episodios": 3,
      "link_video": "https://animefire.plus/video/aria-the-avvenire"
    },
    {
      "id": 235,
      "nome": "Arifureta Shokugyou de Sekai Saikyou 2nd Season (Dublado)",
      "link": "https://animefire.plus/animes/arifureta-shokugyou-de-sekai-saikyou-2nd-season-dublado-todos-os-episodios",
      "texto_original": "Arifureta Shokugyou de Sekai Saikyou 2nd Season (Dublado)",
      "rating": 7.15,
      "classificacao_etaria": "A14",
      "imagem_original": "https://animefire.plus/img/animes/arifureta-shokugyou-de-sekai-saikyou-2nd-season.webp",
      "imagem_pasta": "https://animefire.plus/img/animes/arifureta-shokugyou-de-sekai-saikyou-2nd-season/",
      "secao": "dublados,legendados",
      "pagina": 12,
      "total_episodios": 12,
      "link_video": "https://animefire.plus/video/arifureta-shokugyou-de-sekai-saikyou-2nd-season-dublado"
    },
    {
      "id": 238,
      "nome": "Arifureta Shokugyou de Sekai Saikyou Specials",
      "link": "https://animefire.plus/animes/arifureta-shokugyou-de-sekai-saikyou-specials-todos-os-episodios",
      "texto_original": "Arifureta Shokugyou de Sekai Saikyou Specials",
      "rating": 6.53,
      "classificacao_etaria": "A14",
      "imagem_original": "https://animefire.plus/img/animes/arifureta-shokugyou-de-sekai-saikyou-specials.webp",
      "imagem_pasta": "https://animefire.plus/img/animes/arifureta-shokugyou-de-sekai-saikyou-specials/",
      "secao": "legendados",
      "pagina": 93,
      "total_episodios": 2,
      "link_video": "https://animefire.plus/video/arifureta-shokugyou-de-sekai-saikyou-specials"
    },
    {
      "id": 239,
      "nome": "Arifureta Shokugyou de Sekai Saikyou: Maboroshi no Bouken to Kiseki no Kaigou (Dublado)",
      "link": "https://animefire.plus/animes/arifureta-shokugyou-de-sekai-saikyou-maboroshi-no-bouken-to-kiseki-no-kaigou-dublado-todos-os-episodios",
      "texto_original": "Arifureta Shokugyou de Sekai Saikyou: Maboroshi no Bouken to Kiseki no Kaigou (Dublado)",
      "rating": 7.16,
      "classificacao_etaria": "A14",
      "imagem_original": "https://animefire.plus/img/animes/arifureta-shokugyou-de-sekai-saikyou-maboroshi-no-bouken-to-kiseki-no-kaigou.webp",
      "imagem_pasta": "https://animefire.plus/img/animes/arifureta-shokugyou-de-sekai-saikyou-maboroshi-no-bouken-to-kiseki-no-kaigou/",
      "secao": "dublados,legendados",
      "pagina": 7,
      "total_episodios": 2,
      "link_video": "https://animefire.plus/video/arifureta-shokugyou-de-sekai-saikyou-maboroshi-no-bouken-to-kiseki-no-kaigou-dublado"
    },
    {
      "id": 240,
      "nome": "Arknights: Reimei Zensou",
      "link": "https://animefire.plus/animes/arknights-reimei-zensou-todos-os-episodios",
      "texto_original": "Arknights: Reimei Zensou",
      "rating": 7.07,
      "classificacao_etaria": "A14",
      "imagem_original": "https://animefire.plus/img/animes/arknights-reimei-zensou.webp",
      "imagem_pasta": "https://animefire.plus/img/animes/arknights-reimei-zensou/",
      "secao": "legendados",
      "pagina": 29,
      "total_episodios": 8,
      "link_video": "https://animefire.plus/video/arknights-reimei-zensou"
    }
  ],
  "pagination": {
    "current_page": 6,
    "per_page": 20,
    "total_items": 2189,
    "total_pages": 110,
    "has_next": true,
    "has_prev": true
  }
}
