{
  "message": "Animes com 2 a 12 episódios",
  "episode_range": {
    "min": 2,
    "max": 12
  },
  "data": [
    {
      "id": 3767,
      "nome": "Tegamibachi (Dublado)",
      "link": "https://animefire.plus/animes/tegamibachi-dublado-todos-os-episodios",
      "texto_original": "Tegamibachi (Dublado)",
      "rating": 7.61,
      "classificacao_etaria": "A14",
      "imagem_original": "https://animefire.plus/img/animes/tegamibachi.webp",
      "imagem_pasta": "https://animefire.plus/img/animes/tegamibachi/",
      "secao": "dublados,legendados",
      "pagina": 3,
      "total_episodios": 3,
      "link_video": "https://animefire.plus/video/tegamibachi-dublado"
    },
    {
      "id": 3769,
      "nome": "Teizokurei Daydream",
      "link": "https://animefire.plus/animes/teizokurei-daydream-todos-os-episodios",
      "texto_original": "Teizokurei Daydream",
      "rating": 6.27,
      "classificacao_etaria": "A18",
      "imagem_original": "https://animefire.plus/img/animes/teizokurei-daydream.webp",
      "imagem_pasta": "https://animefire.plus/img/animes/teizokurei-daydream/",
      "secao": "legendados",
      "pagina": 97,
      "total_episodios": 4,
      "link_video": "https://animefire.plus/video/teizokurei-daydream"
    },
    {
      "id": 3771,
      "nome": "Tekken: Bloodline (Dublado)",
      "link": "https://animefire.plus/animes/tekken-bloodline-dublado-todos-os-episodios",
      "texto_original": "Tekken: Bloodline (Dublado)",
      "rating": 6.44,
      "classificacao_etaria": "A16",
      "imagem_original": "https://animefire.plus/img/animes/tekken-bloodline.webp",
      "imagem_pasta": "https://animefire.plus/img/animes/tekken-bloodline/",
      "secao": "dublados,legendados",
      "pagina": 10,
      "total_episodios": 6,
      "link_video": "https://animefire.plus/video/tekken-bloodline-dublado"
    },
    {
      "id": 3772,
      "nome": "Temple",
      "link": "https://animefire.plus/animes/temple-todos-os-episodios",
      "texto_original": "Temple",
      "rating": 6.7,
      "classificacao_etaria": "A14",
      "imagem_original": "https://animefire.plus/img/animes/temple.jpg",
      "imagem_pasta": "https://animefire.plus/img/animes/temple/",
      "secao": "legendados,lancamentos",
      "pagina": 22,
      "total_episodios": 10,
      "link_video": "https://animefire.plus/video/temple"
    },
    {
      "id": 3781,
      "nome": "Tenka Hyakken: Meiji-kan e Youkoso!",
      "link": "https://animefire.plus/animes/tenka-hyakken-meiji-kan-e-youkoso-todos-os-episodios",
      "texto_original": "Tenka Hyakken: Meiji-kan e Youkoso!",
      "rating": 5.06,
      "classificacao_etaria": "A14",
      "imagem_original": "https://animefire.plus/img/animes/tenka-hyakken-meiji-kan-e-youkoso.webp",
      "imagem_pasta": "https://animefire.plus/img/animes/tenka-hyakken-meiji-kan-e-youkoso/",
      "secao": "legendados",
      "pagina": 109,
      "total_episodios": 2,
      "link_video": "https://animefire.plus/video/tenka-hyakken-meiji-kan-e-youkoso"
    },
    {
      "id": 3784,
      "nome": "Tenkuu Shinpan (Dublado)",
      "link": "https://animefire.plus/animes/tenkuu-shinpan-dublado-todos-os-episodios",
      "texto_original": "Tenkuu Shinpan (Dublado)",
      "rating": 6.68,
      "classificacao_etaria": "A16",
      "imagem_original": "https://animefire.plus/img/animes/tenkuu-shinpan.webp",
      "imagem_pasta": "https://animefire.plus/img/animes/tenkuu-shinpan/",
      "secao": "dublados,legendados",
      "pagina": 18,
      "total_episodios": 12,
      "link_video": "https://animefire.plus/video/tenkuu-shinpan-dublado"
    },
    {
      "id": 3786,
      "nome": "Tennis no Ouji-sama: Another Story - Kako to Mirai no Message",
      "link": "https://animefire.plus/animes/tennis-no-ouji-sama-another-story---kako-to-mirai-no-message-todos-os-episodios",
      "texto_original": "Tennis no Ouji-sama: Another Story - Kako to Mirai no Message",
      "rating": 7.66,
      "classificacao_etaria": "A14",
      "imagem_original": "https://animefire.plus/img/animes/tennis-no-ouji-sama-another-story---kako-to-mirai-no-message.webp",
      "imagem_pasta": "https://animefire.plus/img/animes/tennis-no-ouji-sama-another-story---kako-to-mirai-no-message/",
      "secao": "legendados",
      "pagina": 44,
      "total_episodios": 4,
      "link_video": "https://animefire.plus/video/tennis-no-ouji-sama-another-story---kako-to-mirai-no-message"
    },
    {
      "id": 3787,
      "nome": "Tennis no Ouji-sama: Another Story II - Ano Toki no Bokura",
      "link": "https://animefire.plus/animes/tennis-no-ouji-sama-another-story-ii---ano-toki-no-bokura-todos-os-episodios",
      "texto_original": "Tennis no Ouji-sama: Another Story II - Ano Toki no Bokura",
      "rating": 7.53,
      "classificacao_etaria": "A14",
      "imagem_original": "https://animefire.plus/img/animes/tennis-no-ouji-sama-another-story-ii---ano-toki-no-bokura.webp",
      "imagem_pasta": "https://animefire.plus/img/animes/tennis-no-ouji-sama-another-story-ii---ano-toki-no-bokura/",
      "secao": "legendados",
      "pagina": 44,
      "total_episodios": 4,
      "link_video": "https://animefire.plus/video/tennis-no-ouji-sama-another-story-ii---ano-toki-no-bokura"
    },
    {
      "id": 3789,
      "nome": "Tennis no Ouji-sama: Zenkoku Taikai-hen - Final",
      "link": "https://animefire.plus/animes/tennis-no-ouji-sama-zenkoku-taikai-hen---final-todos-os-episodios",
      "texto_original": "Tennis no Ouji-sama: Zenkoku Taikai-hen - Final",
      "rating": 8,
      "classificacao_etaria": "A14",
      "imagem_original": "https://animefire.plus/img/animes/tennis-no-ouji-sama-zenkoku-taikai-hen---final.webp",
      "imagem_pasta": "https://animefire.plus/img/animes/tennis-no-ouji-sama-zenkoku-taikai-hen---final/",
      "secao": "legendados",
      "pagina": 44,
      "total_episodios": 7,
      "link_video": "https://animefire.plus/video/tennis-no-ouji-sama-zenkoku-taikai-hen---final"
    },
    {
      "id": 3790,
      "nome": "Tennis no Ouji-sama: Zenkoku Taikai-hen - Semifinal",
      "link": "https://animefire.plus/animes/tennis-no-ouji-sama-zenkoku-taikai-hen---semifinal-todos-os-episodios",
      "texto_original": "Tennis no Ouji-sama: Zenkoku Taikai-hen - Semifinal",
      "rating": 7.93,
      "classificacao_etaria": "A14",
      "imagem_original": "https://animefire.plus/img/animes/tennis-no-ouji-sama-zenkoku-taikai-hen---semifinal.webp",
      "imagem_pasta": "https://animefire.plus/img/animes/tennis-no-ouji-sama-zenkoku-taikai-hen---semifinal/",
      "secao": "legendados",
      "pagina": 44,
      "total_episodios": 6,
      "link_video": "https://animefire.plus/video/tennis-no-ouji-sama-zenkoku-taikai-hen---semifinal"
    },
    {
      "id": 3791,
      "nome": "Tensai Ouji no Akaji Kokka Saisei Jutsu (Dublado)",
      "link": "https://animefire.plus/animes/tensai-ouji-no-akaji-kokka-saisei-jutsu-dublado-todos-os-episodios",
      "texto_original": "Tensai Ouji no Akaji Kokka Saisei Jutsu (Dublado)",
      "rating": 7.39,
      "classificacao_etaria": "A14",
      "imagem_original": "https://animefire.plus/img/animes/tensai-ouji-no-akaji-kokka-saisei-jutsu.webp",
      "imagem_pasta": "https://animefire.plus/img/animes/tensai-ouji-no-akaji-kokka-saisei-jutsu/",
      "secao": "dublados,legendados",
      "pagina": 12,
      "total_episodios": 12,
      "link_video": "https://animefire.plus/video/tensai-ouji-no-akaji-kokka-saisei-jutsu-dublado"
    },
    {
      "id": 3792,
      "nome": "Tensei Kenja no Isekai Life: Dai-2 no Shokugyou wo Ete, Sekai Saikyou ni Narimashita",
      "link": "https://animefire.plus/animes/tensei-kenja-no-isekai-life-dai-2-no-shokugyou-wo-ete-sekai-saikyou-ni-narimashita-todos-os-episodios",
      "texto_original": "Tensei Kenja no Isekai Life: Dai-2 no Shokugyou wo Ete, Sekai Saikyou ni Narimashita",
      "rating": 6.33,
      "classificacao_etaria": "A14",
      "imagem_original": "https://animefire.plus/img/animes/tensei-kenja-no-isekai-life-dai-2-no-shokugyou-wo-ete-sekai-saikyou-ni-narimashita.webp",
      "imagem_pasta": "https://animefire.plus/img/animes/tensei-kenja-no-isekai-life-dai-2-no-shokugyou-wo-ete-sekai-saikyou-ni-narimashita/",
      "secao": "legendados",
      "pagina": 31,
      "total_episodios": 12,
      "link_video": "https://animefire.plus/video/tensei-kenja-no-isekai-life-dai-2-no-shokugyou-wo-ete-sekai-saikyou-ni-narimashita"
    },
    {
      "id": 3793,
      "nome": "Tensei Kizoku no Isekai Boukenroku: Jichou wo Shiranai Kamigami no Shito (Dublado)",
      "link": "https://animefire.plus/animes/tensei-kizoku-no-isekai-boukenroku-jichou-wo-shiranai-kamigami-no-shito-dublado-todos-os-episodios",
      "texto_original": "Tensei Kizoku no Isekai Boukenroku: Jichou wo Shiranai Kamigami no Shito (Dublado)",
      "rating": 6.68,
      "classificacao_etaria": "A14",
      "imagem_original": "https://animefire.plus/img/animes/tensei-kizoku-no-isekai-boukenroku-jichou-wo-shiranai-kamigami-no-shito.webp",
      "imagem_pasta": "https://animefire.plus/img/animes/tensei-kizoku-no-isekai-boukenroku-jichou-wo-shiranai-kamigami-no-shito/",
      "secao": "dublados,legendados",
      "pagina": 7,
      "total_episodios": 12,
      "link_video": "https://animefire.plus/video/tensei-kizoku-no-isekai-boukenroku-jichou-wo-shiranai-kamigami-no-shito-dublado"
    },
    {
      "id": 3794,
      "nome": "Tensei Kizoku, Kantei Skill de Nariagaru",
      "link": "https://animefire.plus/animes/tensei-kizoku-kantei-skill-de-nariagaru-todos-os-episodios",
      "texto_original": "Tensei Kizoku, Kantei Skill de Nariagaru",
      "rating": 7.17,
      "classificacao_etaria": "A14",
      "imagem_original": "https://animefire.plus/img/animes/tensei-kizoku-kantei-skill-de-nariagaru.webp",
      "imagem_pasta": "https://animefire.plus/img/animes/tensei-kizoku-kantei-skill-de-nariagaru/",
      "secao": "legendados",
      "pagina": 15,
      "total_episodios": 12,
      "link_video": "https://animefire.plus/video/tensei-kizoku-kantei-skill-de-nariagaru"
    },
    {
      "id": 3795,
      "nome": "Tensei Kizoku, Kantei Skill de Nariagaru 2nd Season",
      "link": "https://animefire.plus/animes/tensei-kizoku-kantei-skill-de-nariagaru-2nd-season-todos-os-episodios",
      "texto_original": "Tensei Kizoku, Kantei Skill de Nariagaru 2nd Season",
      "rating": 7.45,
      "classificacao_etaria": "A14",
      "imagem_original": "https://animefire.plus/img/animes/tensei-kizoku-kantei-skill-de-nariagaru-2nd-season.webp",
      "imagem_pasta": "https://animefire.plus/img/animes/tensei-kizoku-kantei-skill-de-nariagaru-2nd-season/",
      "secao": "legendados",
      "pagina": 10,
      "total_episodios": 12,
      "link_video": "https://animefire.plus/video/tensei-kizoku-kantei-skill-de-nariagaru-2nd-season"
    },
    {
      "id": 3796,
      "nome": "Tensei Oujo to Tensai Reijou no Mahou Kakumei",
      "link": "https://animefire.plus/animes/tensei-oujo-to-tensai-reijou-no-mahou-kakumei-todos-os-episodios",
      "texto_original": "Tensei Oujo to Tensai Reijou no Mahou Kakumei",
      "rating": 7.46,
      "classificacao_etaria": "A14",
      "imagem_original": "https://animefire.plus/img/animes/tensei-oujo-to-tensai-reijou-no-mahou-kakumei.webp",
      "imagem_pasta": "https://animefire.plus/img/animes/tensei-oujo-to-tensai-reijou-no-mahou-kakumei/",
      "secao": "legendados",
      "pagina": 27,
      "total_episodios": 12,
      "link_video": "https://animefire.plus/video/tensei-oujo-to-tensai-reijou-no-mahou-kakumei"
    },
    {
      "id": 3797,
      "nome": "Tensei shitara Dainana Ouji Datta node, Kimama ni Majutsu wo Kiwamemasu",
      "link": "https://animefire.plus/animes/tensei-shitara-dainana-ouji-datta-node-kimama-ni-majutsu-wo-kiwamemasu-todos-os-episodios",
      "texto_original": "Tensei shitara Dainana Ouji Datta node, Kimama ni Majutsu wo Kiwamemasu",
      "rating": 7.42,
      "classificacao_etaria": "A14",
      "imagem_original": "https://animefire.plus/img/animes/tensei-shitara-dainana-ouji-datta-node-kimama-ni-majutsu-wo-kiwamemasu.webp",
      "imagem_pasta": "https://animefire.plus/img/animes/tensei-shitara-dainana-ouji-datta-node-kimama-ni-majutsu-wo-kiwamemasu/",
      "secao": "legendados",
      "pagina": 15,
      "total_episodios": 12,
      "link_video": "https://animefire.plus/video/tensei-shitara-dainana-ouji-datta-node-kimama-ni-majutsu-wo-kiwamemasu"
    },
    {
      "id": 3798,
      "nome": "Tensei shitara Dainana Ouji Datta node, Kimama ni Majutsu wo Kiwamemasu 2nd Season",
      "link": "https://animefire.plus/animes/tensei-shitara-dainana-ouji-datta-node-kimama-ni-majutsu-wo-kiwamemasu-2nd-season-todos-os-episodios",
      "texto_original": "Tensei shitara Dainana Ouji Datta node, Kimama ni Majutsu wo Kiwamemasu 2nd Season",
      "rating": 7.63,
      "classificacao_etaria": "A14",
      "imagem_original": "https://animefire.plus/img/animes/tensei-shitara-dainana-ouji-datta-node-kimama-ni-majutsu-wo-kiwamemasu-2nd-season.webp",
      "imagem_pasta": "https://animefire.plus/img/animes/tensei-shitara-dainana-ouji-datta-node-kimama-ni-majutsu-wo-kiwamemasu-2nd-season/",
      "secao": "legendados,lancamentos",
      "pagina": 3,
      "total_episodios": 4,
      "link_video": "https://animefire.plus/video/tensei-shitara-dainana-ouji-datta-node-kimama-ni-majutsu-wo-kiwamemasu-2nd-season"
    },
    {
      "id": 3799,
      "nome": "Tensei shitara Ken Deshita",
      "link": "https://animefire.plus/animes/tensei-shitara-ken-deshita-todos-os-episodios",
      "texto_original": "Tensei shitara Ken Deshita",
      "rating": 7.5,
      "classificacao_etaria": "A14",
      "imagem_original": "https://animefire.plus/img/animes/tensei-shitara-ken-deshita.webp",
      "imagem_pasta": "https://animefire.plus/img/animes/tensei-shitara-ken-deshita/",
      "secao": "legendados",
      "pagina": 29,
      "total_episodios": 12,
      "link_video": "https://animefire.plus/video/tensei-shitara-ken-deshita"
    },
    {
      "id": 3801,
      "nome": "Tensei shitara Slime Datta Ken 2nd Season (Dublado)",
      "link": "https://animefire.plus/animes/tensei-shitara-slime-datta-ken-2nd-season-dublado-todos-os-episodios",
      "texto_original": "Tensei shitara Slime Datta Ken 2nd Season (Dublado)",
      "rating": 8.35,
      "classificacao_etaria": "A14",
      "imagem_original": "https://animefire.plus/img/animes/tensei-shitara-slime-datta-ken-2nd-season.webp",
      "imagem_pasta": "https://animefire.plus/img/animes/tensei-shitara-slime-datta-ken-2nd-season/",
      "secao": "dublados,legendados,lancamentos",
      "pagina": 12,
      "total_episodios": 12,
      "link_video": "https://animefire.plus/video/tensei-shitara-slime-datta-ken-2nd-season-dublado"
    }
  ],
  "pagination": {
    "current_page": 96,
    "per_page": 20,
    "total_items": 2189,
    "total_pages": 110,
    "has_next": true,
    "has_prev": true
  }
}
