{
  "message": "Animes com 2 a 12 episódios",
  "episode_range": {
    "min": 2,
    "max": 12
  },
  "data": [
    {
      "id": 3356,
      "nome": "Sentouin, Hakenshimasu! (Dublado)",
      "link": "https://animefire.plus/animes/sentouin-hakenshimasu-dublado-todos-os-episodios",
      "texto_original": "Sentouin, Hakenshimasu! (Dublado)",
      "rating": 7.14,
      "classificacao_etaria": "A14",
      "imagem_original": "https://animefire.plus/img/animes/sentouin-hakenshimasu.webp",
      "imagem_pasta": "https://animefire.plus/img/animes/sentouin-hakenshimasu/",
      "secao": "dublados,legendados",
      "pagina": 17,
      "total_episodios": 12,
      "link_video": "https://animefire.plus/video/sentouin-hakenshimasu-dublado"
    },
    {
      "id": 3357,
      "nome": "Senyoku no Sigrdrifa",
      "link": "https://animefire.plus/animes/senyoku-no-sigrdrifa-todos-os-episodios",
      "texto_original": "Senyoku no Sigrdrifa",
      "rating": null,
      "classificacao_etaria": "A14",
      "imagem_original": "https://animefire.plus/img/animes/senyoku-no-sigrdrifa.webp",
      "imagem_pasta": "https://animefire.plus/img/animes/senyoku-no-sigrdrifa/",
      "secao": "legendados",
      "pagina": 52,
      "total_episodios": 12,
      "link_video": "https://animefire.plus/video/senyoku-no-sigrdrifa"
    },
    {
      "id": 3360,
      "nome": "Seraphim Call",
      "link": "https://animefire.plus/animes/seraphim-call-todos-os-episodios",
      "texto_original": "Seraphim Call",
      "rating": 6.09,
      "classificacao_etaria": "A14",
      "imagem_original": "https://animefire.plus/img/animes/seraphim-call.webp",
      "imagem_pasta": "https://animefire.plus/img/animes/seraphim-call/",
      "secao": "legendados",
      "pagina": 140,
      "total_episodios": 12,
      "link_video": "https://animefire.plus/video/seraphim-call"
    },
    {
      "id": 3362,
      "nome": "Servamp",
      "link": "https://animefire.plus/animes/servamp-todos-os-episodios",
      "texto_original": "Servamp",
      "rating": 7.09,
      "classificacao_etaria": "A16",
      "imagem_original": "https://animefire.plus/img/animes/servamp.webp",
      "imagem_pasta": "https://animefire.plus/img/animes/servamp/",
      "secao": "legendados",
      "pagina": 166,
      "total_episodios": 12,
      "link_video": "https://animefire.plus/video/servamp"
    },
    {
      "id": 3363,
      "nome": "Servamp Specials",
      "link": "https://animefire.plus/animes/servamp-specials-todos-os-episodios",
      "texto_original": "Servamp Specials",
      "rating": 7.1,
      "classificacao_etaria": "A14",
      "imagem_original": "https://animefire.plus/img/animes/servamp-specials.webp",
      "imagem_pasta": "https://animefire.plus/img/animes/servamp-specials/",
      "secao": "legendados",
      "pagina": 120,
      "total_episodios": 4,
      "link_video": "https://animefire.plus/video/servamp-specials"
    },
    {
      "id": 3366,
      "nome": "Seven Knights Revolution: Eiyuu no Keishousha",
      "link": "https://animefire.plus/animes/seven-knights-revolution-eiyuu-no-keishousha-todos-os-episodios",
      "texto_original": "Seven Knights Revolution: Eiyuu no Keishousha",
      "rating": 6.3,
      "classificacao_etaria": "A16",
      "imagem_original": "https://animefire.plus/img/animes/seven-knights-revolution-eiyuu-no-keishousha.webp",
      "imagem_pasta": "https://animefire.plus/img/animes/seven-knights-revolution-eiyuu-no-keishousha/",
      "secao": "legendados",
      "pagina": 46,
      "total_episodios": 12,
      "link_video": "https://animefire.plus/video/seven-knights-revolution-eiyuu-no-keishousha"
    },
    {
      "id": 3367,
      "nome": "Sewayaki Kitsune no Senko-san",
      "link": "https://animefire.plus/animes/sewayaki-kitsune-no-senko-san-todos-os-episodios",
      "texto_original": "Sewayaki Kitsune no Senko-san",
      "rating": 7.36,
      "classificacao_etaria": "A14",
      "imagem_original": "https://animefire.plus/img/animes/sewayaki-kitsune-no-senko-san.webp",
      "imagem_pasta": "https://animefire.plus/img/animes/sewayaki-kitsune-no-senko-san/",
      "secao": "legendados",
      "pagina": 140,
      "total_episodios": 5,
      "link_video": "https://animefire.plus/video/sewayaki-kitsune-no-senko-san"
    },
    {
      "id": 3368,
      "nome": "Sex Pistols",
      "link": "https://animefire.plus/animes/sex-pistols-todos-os-episodios",
      "texto_original": "Sex Pistols",
      "rating": 6.83,
      "classificacao_etaria": "A18",
      "imagem_original": "https://animefire.plus/img/animes/sex-pistols.webp",
      "imagem_pasta": "https://animefire.plus/img/animes/sex-pistols/",
      "secao": "legendados",
      "pagina": 96,
      "total_episodios": 2,
      "link_video": "https://animefire.plus/video/sex-pistols"
    },
    {
      "id": 3369,
      "nome": "Shachiku-san wa Youjo Yuurei ni Iyasaretai.",
      "link": "https://animefire.plus/animes/shachiku-san-wa-youjo-yuurei-ni-iyasaretai-todos-os-episodios",
      "texto_original": "Shachiku-san wa Youjo Yuurei ni Iyasaretai.",
      "rating": 7.11,
      "classificacao_etaria": "A14",
      "imagem_original": "https://animefire.plus/img/animes/shachiku-san-wa-youjo-yuurei-ni-iyasaretai.webp",
      "imagem_pasta": "https://animefire.plus/img/animes/shachiku-san-wa-youjo-yuurei-ni-iyasaretai/",
      "secao": "legendados",
      "pagina": 33,
      "total_episodios": 12,
      "link_video": "https://animefire.plus/video/shachiku-san-wa-youjo-yuurei-ni-iyasaretai"
    },
    {
      "id": 3372,
      "nome": "Shadows House 2nd Season (Dublado)",
      "link": "https://animefire.plus/animes/shadows-house-2nd-season-dublado-todos-os-episodios",
      "texto_original": "Shadows House 2nd Season (Dublado)",
      "rating": 8.01,
      "classificacao_etaria": "A14",
      "imagem_original": "https://animefire.plus/img/animes/shadows-house-2nd-season.webp",
      "imagem_pasta": "https://animefire.plus/img/animes/shadows-house-2nd-season/",
      "secao": "dublados,legendados",
      "pagina": 10,
      "total_episodios": 12,
      "link_video": "https://animefire.plus/video/shadows-house-2nd-season-dublado"
    },
    {
      "id": 3374,
      "nome": "Shadowverse (TV)",
      "link": "https://animefire.plus/animes/shadowverse-tv-todos-os-episodios",
      "texto_original": "Shadowverse (TV)",
      "rating": 5.1,
      "classificacao_etaria": "A14",
      "imagem_original": "https://animefire.plus/img/animes/shadowverse-tv.webp",
      "imagem_pasta": "https://animefire.plus/img/animes/shadowverse-tv/",
      "secao": "legendados,lancamentos",
      "pagina": 81,
      "total_episodios": 7,
      "link_video": "https://animefire.plus/video/shadowverse-tv"
    },
    {
      "id": 3379,
      "nome": "Shakugan no Shana-tan II (Second)",
      "link": "https://animefire.plus/animes/shakugan-no-shana-tan-ii-second-todos-os-episodios",
      "texto_original": "Shakugan no Shana-tan II (Second)",
      "rating": 7.22,
      "classificacao_etaria": "A14",
      "imagem_original": "https://animefire.plus/img/animes/shakugan-no-shana-tan-ii-second.webp",
      "imagem_pasta": "https://animefire.plus/img/animes/shakugan-no-shana-tan-ii-second/",
      "secao": "legendados",
      "pagina": 71,
      "total_episodios": 3,
      "link_video": "https://animefire.plus/video/shakugan-no-shana-tan-ii-second"
    },
    {
      "id": 3380,
      "nome": "Shakugan no Shana-tan III (Final): Final Destruction",
      "link": "https://animefire.plus/animes/shakugan-no-shana-tan-iii-final-final-destruction-todos-os-episodios",
      "texto_original": "Shakugan no Shana-tan III (Final): Final Destruction",
      "rating": 7.09,
      "classificacao_etaria": "A14",
      "imagem_original": "https://animefire.plus/img/animes/shakugan-no-shana-tan-iii-final-final-destruction.webp",
      "imagem_pasta": "https://animefire.plus/img/animes/shakugan-no-shana-tan-iii-final-final-destruction/",
      "secao": "legendados",
      "pagina": 78,
      "total_episodios": 2,
      "link_video": "https://animefire.plus/video/shakugan-no-shana-tan-iii-final-final-destruction"
    },
    {
      "id": 3381,
      "nome": "Shakunetsu Kabaddi",
      "link": "https://animefire.plus/animes/shakunetsu-kabaddi-todos-os-episodios",
      "texto_original": "Shakunetsu Kabaddi",
      "rating": 7.01,
      "classificacao_etaria": "A14",
      "imagem_original": "https://animefire.plus/img/animes/shakunetsu-kabaddi.webp",
      "imagem_pasta": "https://animefire.plus/img/animes/shakunetsu-kabaddi/",
      "secao": "legendados",
      "pagina": 47,
      "total_episodios": 12,
      "link_video": "https://animefire.plus/video/shakunetsu-kabaddi"
    },
    {
      "id": 3382,
      "nome": "Shakunetsu no Takkyuu Musume",
      "link": "https://animefire.plus/animes/shakunetsu-no-takkyuu-musume-todos-os-episodios",
      "texto_original": "Shakunetsu no Takkyuu Musume",
      "rating": 7.14,
      "classificacao_etaria": "A14",
      "imagem_original": "https://animefire.plus/img/animes/shakunetsu-no-takkyuu-musume.webp",
      "imagem_pasta": "https://animefire.plus/img/animes/shakunetsu-no-takkyuu-musume/",
      "secao": "legendados",
      "pagina": 143,
      "total_episodios": 10,
      "link_video": "https://animefire.plus/video/shakunetsu-no-takkyuu-musume"
    },
    {
      "id": 3385,
      "nome": "Shaman King: Flowers (Dublado)",
      "link": "https://animefire.plus/animes/shaman-king-flowers-dublado-todos-os-episodios",
      "texto_original": "Shaman King: Flowers (Dublado)",
      "rating": 6.57,
      "classificacao_etaria": "A14",
      "imagem_original": "https://animefire.plus/img/animes/shaman-king-flowers.webp",
      "imagem_pasta": "https://animefire.plus/img/animes/shaman-king-flowers/",
      "secao": "dublados,legendados,lancamentos",
      "pagina": 3,
      "total_episodios": 12,
      "link_video": "https://animefire.plus/video/shaman-king-flowers-dublado"
    },
    {
      "id": 3389,
      "nome": "Shao Nu Qian Xian Ren Xing Xiao Ju Chang",
      "link": "https://animefire.plus/animes/shao-nu-qian-xian-ren-xing-xiao-ju-chang-todos-os-episodios",
      "texto_original": "Shao Nu Qian Xian Ren Xing Xiao Ju Chang",
      "rating": 6.73,
      "classificacao_etaria": "A14",
      "imagem_original": "https://animefire.plus/img/animes/shao-nu-qian-xian-ren-xing-xiao-ju-chang.webp",
      "imagem_pasta": "https://animefire.plus/img/animes/shao-nu-qian-xian-ren-xing-xiao-ju-chang/",
      "secao": "legendados",
      "pagina": 80,
      "total_episodios": 12,
      "link_video": "https://animefire.plus/video/shao-nu-qian-xian-ren-xing-xiao-ju-chang"
    },
    {
      "id": 3391,
      "nome": "Shen Ming Zhi Zhou",
      "link": "https://animefire.plus/animes/shen-ming-zhi-zhou-todos-os-episodios",
      "texto_original": "Shen Ming Zhi Zhou",
      "rating": 6.51,
      "classificacao_etaria": "A14",
      "imagem_original": "https://animefire.plus/img/animes/shen-ming-zhi-zhou.webp",
      "imagem_pasta": "https://animefire.plus/img/animes/shen-ming-zhi-zhou/",
      "secao": "legendados",
      "pagina": 149,
      "total_episodios": 12,
      "link_video": "https://animefire.plus/video/shen-ming-zhi-zhou"
    },
    {
      "id": 3393,
      "nome": "Shi Cao Lao Long Bei Guan Yi E Long Zhi Ming 2nd Season",
      "link": "https://animefire.plus/animes/shi-cao-lao-long-bei-guan-yi-e-long-zhi-ming-2nd-season-todos-os-episodios",
      "texto_original": "Shi Cao Lao Long Bei Guan Yi E Long Zhi Ming 2nd Season",
      "rating": 6.79,
      "classificacao_etaria": "A14",
      "imagem_original": "https://animefire.plus/img/animes/shi-cao-lao-long-bei-guan-yi-e-long-zhi-ming-2nd-season.webp",
      "imagem_pasta": "https://animefire.plus/img/animes/shi-cao-lao-long-bei-guan-yi-e-long-zhi-ming-2nd-season/",
      "secao": "legendados,lancamentos",
      "pagina": 9,
      "total_episodios": 4,
      "link_video": "https://animefire.plus/video/shi-cao-lao-long-bei-guan-yi-e-long-zhi-ming-2nd-season"
    },
    {
      "id": 3395,
      "nome": "Shi Yi Chang An: Ming Yue Ji Shi You",
      "link": "https://animefire.plus/animes/shi-yi-chang-an-ming-yue-ji-shi-you-todos-os-episodios",
      "texto_original": "Shi Yi Chang An: Ming Yue Ji Shi You",
      "rating": null,
      "classificacao_etaria": "A14",
      "imagem_original": "https://animefire.plus/img/animes/shi-yi-chang-an-ming-yue-ji-shi-you.webp",
      "imagem_pasta": "https://animefire.plus/img/animes/shi-yi-chang-an-ming-yue-ji-shi-you/",
      "secao": "legendados,lancamentos",
      "pagina": 50,
      "total_episodios": 7,
      "link_video": "https://animefire.plus/video/shi-yi-chang-an-ming-yue-ji-shi-you"
    }
  ],
  "pagination": {
    "current_page": 85,
    "per_page": 20,
    "total_items": 2189,
    "total_pages": 110,
    "has_next": true,
    "has_prev": true
  }
}
