{
  "message": "Animes com 2 a 12 episódios",
  "episode_range": {
    "min": 2,
    "max": 12
  },
  "data": [
    {
      "id": 806,
      "nome": "Devils Line",
      "link": "https://animefire.plus/animes/devils-line-todos-os-episodios",
      "texto_original": "Devils Line",
      "rating": 6.89,
      "classificacao_etaria": "A16",
      "imagem_original": "https://animefire.plus/img/animes/devils-line.webp",
      "imagem_pasta": "https://animefire.plus/img/animes/devils-line/",
      "secao": "legendados",
      "pagina": 160,
      "total_episodios": 12,
      "link_video": "https://animefire.plus/video/devils-line"
    },
    {
      "id": 808,
      "nome": "Di Gi Charat",
      "link": "https://animefire.plus/animes/di-gi-charat-todos-os-episodios",
      "texto_original": "Di Gi Charat",
      "rating": 6.79,
      "classificacao_etaria": null,
      "imagem_original": "https://animefire.plus/img/animes/di-gi-charat.webp",
      "imagem_pasta": "https://animefire.plus/img/animes/di-gi-charat/",
      "secao": "legendados",
      "pagina": 129,
      "total_episodios": 12,
      "link_video": "https://animefire.plus/video/di-gi-charat"
    },
    {
      "id": 810,
      "nome": "Diabolik Lovers",
      "link": "https://animefire.plus/animes/diabolik-lovers-todos-os-episodios",
      "texto_original": "Diabolik Lovers",
      "rating": 5.65,
      "classificacao_etaria": "A16",
      "imagem_original": "https://animefire.plus/img/animes/diabolik-lovers.webp",
      "imagem_pasta": "https://animefire.plus/img/animes/diabolik-lovers/",
      "secao": "legendados",
      "pagina": 160,
      "total_episodios": 6,
      "link_video": "https://animefire.plus/video/diabolik-lovers"
    },
    {
      "id": 811,
      "nome": "Diabolik Lovers More,Blood",
      "link": "https://animefire.plus/animes/diabolik-lovers-more-blood-todos-os-episodios",
      "texto_original": "Diabolik Lovers More,Blood",
      "rating": 5.83,
      "classificacao_etaria": "A16",
      "imagem_original": "https://animefire.plus/img/animes/diabolik-lovers-more-blood.webp",
      "imagem_pasta": "https://animefire.plus/img/animes/diabolik-lovers-more-blood/",
      "secao": "legendados",
      "pagina": 63,
      "total_episodios": 12,
      "link_video": "https://animefire.plus/video/diabolik-lovers-more-blood"
    },
    {
      "id": 813,
      "nome": "Diamond no Ace: Second Season OVA",
      "link": "https://animefire.plus/animes/diamond-no-ace-second-season-ova-todos-os-episodios",
      "texto_original": "Diamond no Ace: Second Season OVA",
      "rating": 7.57,
      "classificacao_etaria": "A14",
      "imagem_original": "https://animefire.plus/img/animes/diamond-no-ace-second-season-ova.webp",
      "imagem_pasta": "https://animefire.plus/img/animes/diamond-no-ace-second-season-ova/",
      "secao": "legendados",
      "pagina": 83,
      "total_episodios": 2,
      "link_video": "https://animefire.plus/video/diamond-no-ace-second-season-ova"
    },
    {
      "id": 815,
      "nome": "Dies Irae: To the Ring Reincarnation",
      "link": "https://animefire.plus/animes/dies-irae-to-the-ring-reincarnation-todos-os-episodios",
      "texto_original": "Dies Irae: To the Ring Reincarnation",
      "rating": 6.15,
      "classificacao_etaria": "A16",
      "imagem_original": "https://animefire.plus/img/animes/dies-irae-to-the-ring-reincarnation.webp",
      "imagem_pasta": "https://animefire.plus/img/animes/dies-irae-to-the-ring-reincarnation/",
      "secao": "legendados",
      "pagina": 171,
      "total_episodios": 6,
      "link_video": "https://animefire.plus/video/dies-irae-to-the-ring-reincarnation"
    },
    {
      "id": 819,
      "nome": "Digimon Adventure tri. 6: Bokura no Mirai",
      "link": "https://animefire.plus/animes/digimon-adventure-tri-6-bokura-no-mirai-todos-os-episodios",
      "texto_original": "Digimon Adventure tri. 6: Bokura no Mirai",
      "rating": 7.3,
      "classificacao_etaria": "A14",
      "imagem_original": "https://animefire.plus/img/animes/digimon-adventure-tri-6-bokura-no-mirai.webp",
      "imagem_pasta": "https://animefire.plus/img/animes/digimon-adventure-tri-6-bokura-no-mirai/",
      "secao": "legendados",
      "pagina": 148,
      "total_episodios": 5,
      "link_video": "https://animefire.plus/video/digimon-adventure-tri-6-bokura-no-mirai"
    },
    {
      "id": 829,
      "nome": "Dimension W",
      "link": "https://animefire.plus/animes/dimension-w-todos-os-episodios",
      "texto_original": "Dimension W",
      "rating": 7.29,
      "classificacao_etaria": "A16",
      "imagem_original": "https://animefire.plus/img/animes/dimension-w.webp",
      "imagem_pasta": "https://animefire.plus/img/animes/dimension-w/",
      "secao": "legendados",
      "pagina": 162,
      "total_episodios": 3,
      "link_video": "https://animefire.plus/video/dimension-w"
    },
    {
      "id": 831,
      "nome": "Dive!!",
      "link": "https://animefire.plus/animes/dive-todos-os-episodios",
      "texto_original": "Dive!!",
      "rating": 6.15,
      "classificacao_etaria": "A14",
      "imagem_original": "https://animefire.plus/img/animes/dive.webp",
      "imagem_pasta": "https://animefire.plus/img/animes/dive/",
      "secao": "legendados",
      "pagina": 138,
      "total_episodios": 12,
      "link_video": "https://animefire.plus/video/dive"
    },
    {
      "id": 835,
      "nome": "DNA² (Dublado)",
      "link": "https://animefire.plus/animes/dna-dublado-todos-os-episodios",
      "texto_original": "DNA² (Dublado)",
      "rating": 6.73,
      "classificacao_etaria": "A14",
      "imagem_original": "https://animefire.plus/img/animes/dna.webp",
      "imagem_pasta": "https://animefire.plus/img/animes/dna/",
      "secao": "dublados,legendados",
      "pagina": 25,
      "total_episodios": 12,
      "link_video": "https://animefire.plus/video/dna-dublado"
    },
    {
      "id": 836,
      "nome": "Do It Yourself!!",
      "link": "https://animefire.plus/animes/do-it-yourself-todos-os-episodios",
      "texto_original": "Do It Yourself!!",
      "rating": 7.45,
      "classificacao_etaria": "A14",
      "imagem_original": "https://animefire.plus/img/animes/do-it-yourself.webp",
      "imagem_pasta": "https://animefire.plus/img/animes/do-it-yourself/",
      "secao": "legendados",
      "pagina": 29,
      "total_episodios": 12,
      "link_video": "https://animefire.plus/video/do-it-yourself"
    },
    {
      "id": 840,
      "nome": "Dogeza de Tanondemita",
      "link": "https://animefire.plus/animes/dogeza-de-tanondemita-todos-os-episodios",
      "texto_original": "Dogeza de Tanondemita",
      "rating": null,
      "classificacao_etaria": "A18",
      "imagem_original": "https://animefire.plus/img/animes/dogeza-de-tanondemita.webp",
      "imagem_pasta": "https://animefire.plus/img/animes/dogeza-de-tanondemita/",
      "secao": "legendados",
      "pagina": 51,
      "total_episodios": 12,
      "link_video": "https://animefire.plus/video/dogeza-de-tanondemita"
    },
    {
      "id": 842,
      "nome": "Dokyuu Hentai HxEros",
      "link": "https://animefire.plus/animes/dokyuu-hentai-hxeros-todos-os-episodios",
      "texto_original": "Dokyuu Hentai HxEros",
      "rating": 5.74,
      "classificacao_etaria": "A18",
      "imagem_original": "https://animefire.plus/img/animes/dokyuu-hentai-hxeros.webp",
      "imagem_pasta": "https://animefire.plus/img/animes/dokyuu-hentai-hxeros/",
      "secao": "legendados",
      "pagina": 58,
      "total_episodios": 12,
      "link_video": "https://animefire.plus/video/dokyuu-hentai-hxeros"
    },
    {
      "id": 843,
      "nome": "Dokyuu Hentai HxEros OVA",
      "link": "https://animefire.plus/animes/dokyuu-hentai-hxeros-ova-todos-os-episodios",
      "texto_original": "Dokyuu Hentai HxEros OVA",
      "rating": 6.2,
      "classificacao_etaria": "A18",
      "imagem_original": "https://animefire.plus/img/animes/dokyuu-hentai-hxeros-ova.webp",
      "imagem_pasta": "https://animefire.plus/img/animes/dokyuu-hentai-hxeros-ova/",
      "secao": "legendados",
      "pagina": 50,
      "total_episodios": 2,
      "link_video": "https://animefire.plus/video/dokyuu-hentai-hxeros-ova"
    },
    {
      "id": 844,
      "nome": "Dolls' Frontline",
      "link": "https://animefire.plus/animes/dolls-frontline-todos-os-episodios",
      "texto_original": "Dolls' Frontline",
      "rating": 5.86,
      "classificacao_etaria": "A14",
      "imagem_original": "https://animefire.plus/img/animes/dolls-frontline.webp",
      "imagem_pasta": "https://animefire.plus/img/animes/dolls-frontline/",
      "secao": "legendados",
      "pagina": 37,
      "total_episodios": 12,
      "link_video": "https://animefire.plus/video/dolls-frontline"
    },
    {
      "id": 845,
      "nome": "Domestic na Kanojo",
      "link": "https://animefire.plus/animes/domestic-na-kanojo-todos-os-episodios",
      "texto_original": "Domestic na Kanojo",
      "rating": 6.77,
      "classificacao_etaria": "A18",
      "imagem_original": "https://animefire.plus/img/animes/domestic-na-kanojo.webp",
      "imagem_pasta": "https://animefire.plus/img/animes/domestic-na-kanojo/",
      "secao": "legendados",
      "pagina": 98,
      "total_episodios": 12,
      "link_video": "https://animefire.plus/video/domestic-na-kanojo"
    },
    {
      "id": 847,
      "nome": "Dorei-ku The Animation",
      "link": "https://animefire.plus/animes/dorei-ku-the-animation-todos-os-episodios",
      "texto_original": "Dorei-ku The Animation",
      "rating": 6.12,
      "classificacao_etaria": "A16",
      "imagem_original": "https://animefire.plus/img/animes/dorei-ku-the-animation.webp",
      "imagem_pasta": "https://animefire.plus/img/animes/dorei-ku-the-animation/",
      "secao": "legendados",
      "pagina": 127,
      "total_episodios": 12,
      "link_video": "https://animefire.plus/video/dorei-ku-the-animation"
    },
    {
      "id": 848,
      "nome": "Dorohedoro (Dublado)",
      "link": "https://animefire.plus/animes/dorohedoro-dublado-todos-os-episodios",
      "texto_original": "Dorohedoro (Dublado)",
      "rating": 8.13,
      "classificacao_etaria": "A16",
      "imagem_original": "https://animefire.plus/img/animes/dorohedoro.webp",
      "imagem_pasta": "https://animefire.plus/img/animes/dorohedoro/",
      "secao": "dublados,legendados",
      "pagina": 20,
      "total_episodios": 12,
      "link_video": "https://animefire.plus/video/dorohedoro-dublado"
    },
    {
      "id": 849,
      "nome": "Dorohedoro: Ma no Omake",
      "link": "https://animefire.plus/animes/dorohedoro-ma-no-omake-todos-os-episodios",
      "texto_original": "Dorohedoro: Ma no Omake",
      "rating": 7.11,
      "classificacao_etaria": "A18",
      "imagem_original": "https://animefire.plus/img/animes/dorohedoro-ma-no-omake.webp",
      "imagem_pasta": "https://animefire.plus/img/animes/dorohedoro-ma-no-omake/",
      "secao": "legendados",
      "pagina": 59,
      "total_episodios": 6,
      "link_video": "https://animefire.plus/video/dorohedoro-ma-no-omake"
    },
    {
      "id": 851,
      "nome": "Dororo to Hyakkimaru",
      "link": "https://animefire.plus/animes/dororo-to-hyakkimaru-todos-os-episodios",
      "texto_original": "Dororo to Hyakkimaru",
      "rating": 7.14,
      "classificacao_etaria": "A16",
      "imagem_original": "https://animefire.plus/img/animes/dororo-to-hyakkimaru.webp",
      "imagem_pasta": "https://animefire.plus/img/animes/dororo-to-hyakkimaru/",
      "secao": "legendados",
      "pagina": 77,
      "total_episodios": 2,
      "link_video": "https://animefire.plus/video/dororo-to-hyakkimaru"
    }
  ],
  "pagination": {
    "current_page": 20,
    "per_page": 20,
    "total_items": 2189,
    "total_pages": 110,
    "has_next": true,
    "has_prev": true
  }
}
