{
  "message": "Animes com 2 a 12 episódios",
  "episode_range": {
    "min": 2,
    "max": 12
  },
  "data": [
    {
      "id": 1818,
      "nome": "Kakegurui Twin (Dublado)",
      "link": "https://animefire.plus/animes/kakegurui-twin-dublado-todos-os-episodios",
      "texto_original": "Kakegurui Twin (Dublado)",
      "rating": 7.18,
      "classificacao_etaria": "A14",
      "imagem_original": "https://animefire.plus/img/animes/kakegurui-twin.webp",
      "imagem_pasta": "https://animefire.plus/img/animes/kakegurui-twin/",
      "secao": "dublados,legendados,lancamentos",
      "pagina": 10,
      "total_episodios": 6,
      "link_video": "https://animefire.plus/video/kakegurui-twin-dublado"
    },
    {
      "id": 1819,
      "nome": "Kakegurui××",
      "link": "https://animefire.plus/animes/kakegurui-xx-todos-os-episodios",
      "texto_original": "Kakegurui××",
      "rating": 7.33,
      "classificacao_etaria": "A16",
      "imagem_original": "https://animefire.plus/img/animes/kakegurui-xx.webp",
      "imagem_pasta": "https://animefire.plus/img/animes/kakegurui-xx/",
      "secao": "legendados",
      "pagina": 167,
      "total_episodios": 6,
      "link_video": "https://animefire.plus/video/kakegurui-xx"
    },
    {
      "id": 1820,
      "nome": "Kakegurui×× (Dublado)",
      "link": "https://animefire.plus/animes/kakegurui-2nd-season-dublado-todos-os-episodios",
      "texto_original": "Kakegurui×× (Dublado)",
      "rating": 7.4,
      "classificacao_etaria": "A16",
      "imagem_original": "https://animefire.plus/img/animes/kakegurui-2nd-season.webp",
      "imagem_pasta": "https://animefire.plus/img/animes/kakegurui-2nd-season/",
      "secao": "dublados",
      "pagina": 21,
      "total_episodios": 12,
      "link_video": "https://animefire.plus/video/kakegurui-2nd-season-dublado"
    },
    {
      "id": 1822,
      "nome": "Kakkou no Iinazuke Season 2",
      "link": "https://animefire.plus/animes/kakkou-no-iinazuke-season-2-todos-os-episodios",
      "texto_original": "Kakkou no Iinazuke Season 2",
      "rating": 7.02,
      "classificacao_etaria": "A14",
      "imagem_original": "https://animefire.plus/img/animes/kakkou-no-iinazuke-season-2.webp",
      "imagem_pasta": "https://animefire.plus/img/animes/kakkou-no-iinazuke-season-2/",
      "secao": "legendados,lancamentos",
      "pagina": 3,
      "total_episodios": 4,
      "link_video": "https://animefire.plus/video/kakkou-no-iinazuke-season-2"
    },
    {
      "id": 1823,
      "nome": "Kakugo no Susume",
      "link": "https://animefire.plus/animes/kakugo-no-susume-todos-os-episodios",
      "texto_original": "Kakugo no Susume",
      "rating": 4.7,
      "classificacao_etaria": "A18",
      "imagem_original": "https://animefire.plus/img/animes/kakugo-no-susume.webp",
      "imagem_pasta": "https://animefire.plus/img/animes/kakugo-no-susume/",
      "secao": "legendados",
      "pagina": 76,
      "total_episodios": 2,
      "link_video": "https://animefire.plus/video/kakugo-no-susume"
    },
    {
      "id": 1824,
      "nome": "Kakumeiki Valvrave",
      "link": "https://animefire.plus/animes/kakumeiki-valvrave-todos-os-episodios",
      "texto_original": "Kakumeiki Valvrave",
      "rating": 7.24,
      "classificacao_etaria": "A16",
      "imagem_original": "https://animefire.plus/img/animes/kakumeiki-valvrave.webp",
      "imagem_pasta": "https://animefire.plus/img/animes/kakumeiki-valvrave/",
      "secao": "legendados",
      "pagina": 146,
      "total_episodios": 12,
      "link_video": "https://animefire.plus/video/kakumeiki-valvrave"
    },
    {
      "id": 1825,
      "nome": "Kakumeiki Valvrave 2nd Season",
      "link": "https://animefire.plus/animes/kakumeiki-valvrave-2nd-season-todos-os-episodios",
      "texto_original": "Kakumeiki Valvrave 2nd Season",
      "rating": 7.36,
      "classificacao_etaria": "A16",
      "imagem_original": "https://animefire.plus/img/animes/kakumeiki-valvrave-2nd-season.webp",
      "imagem_pasta": "https://animefire.plus/img/animes/kakumeiki-valvrave-2nd-season/",
      "secao": "legendados",
      "pagina": 141,
      "total_episodios": 5,
      "link_video": "https://animefire.plus/video/kakumeiki-valvrave-2nd-season"
    },
    {
      "id": 1828,
      "nome": "Kakushite! Makina-san!!",
      "link": "https://animefire.plus/animes/kakushite-makina-san-todos-os-episodios",
      "texto_original": "Kakushite! Makina-san!!",
      "rating": 5.52,
      "classificacao_etaria": "A18",
      "imagem_original": "https://animefire.plus/img/animes/kakushite-makina-san.webp",
      "imagem_pasta": "https://animefire.plus/img/animes/kakushite-makina-san/",
      "secao": "legendados,lancamentos",
      "pagina": 5,
      "total_episodios": 5,
      "link_video": "https://animefire.plus/video/kakushite-makina-san"
    },
    {
      "id": 1833,
      "nome": "Kamen no Maid Guy",
      "link": "https://animefire.plus/animes/kamen-no-maid-guy-todos-os-episodios",
      "texto_original": "Kamen no Maid Guy",
      "rating": 7.09,
      "classificacao_etaria": "A18",
      "imagem_original": "https://animefire.plus/img/animes/kamen-no-maid-guy.webp",
      "imagem_pasta": "https://animefire.plus/img/animes/kamen-no-maid-guy/",
      "secao": "legendados",
      "pagina": 156,
      "total_episodios": 12,
      "link_video": "https://animefire.plus/video/kamen-no-maid-guy"
    },
    {
      "id": 1834,
      "nome": "Kami Kuzu☆Idol",
      "link": "https://animefire.plus/animes/kami-kuzu-idol-todos-os-episodios",
      "texto_original": "Kami Kuzu☆Idol",
      "rating": 6.74,
      "classificacao_etaria": "A14",
      "imagem_original": "https://animefire.plus/img/animes/kami-kuzu-idol.webp",
      "imagem_pasta": "https://animefire.plus/img/animes/kami-kuzu-idol/",
      "secao": "legendados",
      "pagina": 32,
      "total_episodios": 10,
      "link_video": "https://animefire.plus/video/kami-kuzu-idol"
    },
    {
      "id": 1837,
      "nome": "Kami Nomi Zo Shiru Sekai",
      "link": "https://animefire.plus/animes/kami-nomi-zo-shiru-sekai-todos-os-episodios",
      "texto_original": "Kami Nomi Zo Shiru Sekai",
      "rating": 7.83,
      "classificacao_etaria": "A14",
      "imagem_original": "https://animefire.plus/img/animes/kami-nomi-zo-shiru-sekai.webp",
      "imagem_pasta": "https://animefire.plus/img/animes/kami-nomi-zo-shiru-sekai/",
      "secao": "legendados",
      "pagina": 96,
      "total_episodios": 12,
      "link_video": "https://animefire.plus/video/kami-nomi-zo-shiru-sekai"
    },
    {
      "id": 1838,
      "nome": "Kami nomi zo Shiru Sekai II",
      "link": "https://animefire.plus/animes/kami-nomi-zo-shiru-sekai-ii-todos-os-episodios",
      "texto_original": "Kami nomi zo Shiru Sekai II",
      "rating": 7.99,
      "classificacao_etaria": "A14",
      "imagem_original": "https://animefire.plus/img/animes/kami-nomi-zo-shiru-sekai-ii.webp",
      "imagem_pasta": "https://animefire.plus/img/animes/kami-nomi-zo-shiru-sekai-ii/",
      "secao": "legendados",
      "pagina": 74,
      "total_episodios": 12,
      "link_video": "https://animefire.plus/video/kami-nomi-zo-shiru-sekai-ii"
    },
    {
      "id": 1840,
      "nome": "Kami nomi zo Shiru Sekai: Megami-hen",
      "link": "https://animefire.plus/animes/kami-nomi-zo-shiru-sekai-megami-hen-todos-os-episodios",
      "texto_original": "Kami nomi zo Shiru Sekai: Megami-hen",
      "rating": 8.11,
      "classificacao_etaria": "A14",
      "imagem_original": "https://animefire.plus/img/animes/kami-nomi-zo-shiru-sekai-megami-hen.webp",
      "imagem_pasta": "https://animefire.plus/img/animes/kami-nomi-zo-shiru-sekai-megami-hen/",
      "secao": "legendados",
      "pagina": 57,
      "total_episodios": 12,
      "link_video": "https://animefire.plus/video/kami-nomi-zo-shiru-sekai-megami-hen"
    },
    {
      "id": 1843,
      "nome": "Kami-tachi ni Hirowareta Otoko (Dublado)",
      "link": "https://animefire.plus/animes/kami-tachi-ni-hirowareta-otoko-dublado-todos-os-episodios",
      "texto_original": "Kami-tachi ni Hirowareta Otoko (Dublado)",
      "rating": 6.98,
      "classificacao_etaria": "A14",
      "imagem_original": "https://animefire.plus/img/animes/kami-tachi-ni-hirowareta-otoko.webp",
      "imagem_pasta": "https://animefire.plus/img/animes/kami-tachi-ni-hirowareta-otoko/",
      "secao": "dublados,legendados",
      "pagina": 5,
      "total_episodios": 12,
      "link_video": "https://animefire.plus/video/kami-tachi-ni-hirowareta-otoko-dublado"
    },
    {
      "id": 1844,
      "nome": "Kami-tachi ni Hirowareta Otoko 2nd Season",
      "link": "https://animefire.plus/animes/kami-tachi-ni-hirowareta-otoko-2nd-season-todos-os-episodios",
      "texto_original": "Kami-tachi ni Hirowareta Otoko 2nd Season",
      "rating": 6.81,
      "classificacao_etaria": "A14",
      "imagem_original": "https://animefire.plus/img/animes/kami-tachi-ni-hirowareta-otoko-2nd-season.webp",
      "imagem_pasta": "https://animefire.plus/img/animes/kami-tachi-ni-hirowareta-otoko-2nd-season/",
      "secao": "legendados",
      "pagina": 28,
      "total_episodios": 12,
      "link_video": "https://animefire.plus/video/kami-tachi-ni-hirowareta-otoko-2nd-season"
    },
    {
      "id": 1845,
      "nome": "Kami-tachi ni Hirowareta Otoko 2nd Season (Dublado)",
      "link": "https://animefire.plus/animes/kami-tachi-ni-hirowareta-otoko-2-dublado-todos-os-episodios",
      "texto_original": "Kami-tachi ni Hirowareta Otoko 2nd Season (Dublado)",
      "rating": 6.81,
      "classificacao_etaria": "A14",
      "imagem_original": "https://animefire.plus/img/animes/kami-tachi-ni-hirowareta-otoko-2.webp",
      "imagem_pasta": "https://animefire.plus/img/animes/kami-tachi-ni-hirowareta-otoko-2/",
      "secao": "dublados",
      "pagina": 5,
      "total_episodios": 12,
      "link_video": "https://animefire.plus/video/kami-tachi-ni-hirowareta-otoko-2-dublado"
    },
    {
      "id": 1848,
      "nome": "Kamierabi",
      "link": "https://animefire.plus/animes/kamierabi-todos-os-episodios",
      "texto_original": "Kamierabi",
      "rating": 5.82,
      "classificacao_etaria": "A14",
      "imagem_original": "https://animefire.plus/img/animes/kamierabi.webp",
      "imagem_pasta": "https://animefire.plus/img/animes/kamierabi/",
      "secao": "legendados",
      "pagina": 20,
      "total_episodios": 12,
      "link_video": "https://animefire.plus/video/kamierabi"
    },
    {
      "id": 1849,
      "nome": "Kamierabi 2nd Season",
      "link": "https://animefire.plus/animes/kamierabi-2nd-season-todos-os-episodios",
      "texto_original": "Kamierabi 2nd Season",
      "rating": 6.19,
      "classificacao_etaria": "A14",
      "imagem_original": "https://animefire.plus/img/animes/kamierabi-2nd-season.webp",
      "imagem_pasta": "https://animefire.plus/img/animes/kamierabi-2nd-season/",
      "secao": "legendados",
      "pagina": 10,
      "total_episodios": 12,
      "link_video": "https://animefire.plus/video/kamierabi-2nd-season"
    },
    {
      "id": 1852,
      "nome": "Kaminaki Sekai no Kamisama Katsudou",
      "link": "https://animefire.plus/animes/kaminaki-sekai-no-kamisama-katsudou-todos-os-episodios",
      "texto_original": "Kaminaki Sekai no Kamisama Katsudou",
      "rating": 6.68,
      "classificacao_etaria": "A16",
      "imagem_original": "https://animefire.plus/img/animes/kaminaki-sekai-no-kamisama-katsudou.jpg",
      "imagem_pasta": "https://animefire.plus/img/animes/kaminaki-sekai-no-kamisama-katsudou/",
      "secao": "legendados",
      "pagina": 24,
      "total_episodios": 12,
      "link_video": "https://animefire.plus/video/kaminaki-sekai-no-kamisama-katsudou"
    },
    {
      "id": 1854,
      "nome": "Kamisama Hajimemashita (Dublado)",
      "link": "https://animefire.plus/animes/kamisama-hajimemashita-dublado-todos-os-episodios",
      "texto_original": "Kamisama Hajimemashita (Dublado)",
      "rating": 8.1,
      "classificacao_etaria": "A14",
      "imagem_original": "https://animefire.plus/img/animes/kamisama-hajimemashita.webp",
      "imagem_pasta": "https://animefire.plus/img/animes/kamisama-hajimemashita/",
      "secao": "dublados,legendados",
      "pagina": 4,
      "total_episodios": 5,
      "link_video": "https://animefire.plus/video/kamisama-hajimemashita-dublado"
    }
  ],
  "pagination": {
    "current_page": 46,
    "per_page": 20,
    "total_items": 2189,
    "total_pages": 110,
    "has_next": true,
    "has_prev": true
  }
}
