{
  "message": "Animes com 2 a 12 episódios",
  "episode_range": {
    "min": 2,
    "max": 12
  },
  "data": [
    {
      "id": 1432,
      "nome": "Hetalia: The Beautiful World Specials",
      "link": "https://animefire.plus/animes/hetalia-the-beautiful-world-specials-todos-os-episodios",
      "texto_original": "Hetalia: The Beautiful World Specials",
      "rating": 7.78,
      "classificacao_etaria": "A14",
      "imagem_original": "https://animefire.plus/img/animes/hetalia-the-beautiful-world-specials.webp",
      "imagem_pasta": "https://animefire.plus/img/animes/hetalia-the-beautiful-world-specials/",
      "secao": "legendados",
      "pagina": 153,
      "total_episodios": 4,
      "link_video": "https://animefire.plus/video/hetalia-the-beautiful-world-specials"
    },
    {
      "id": 1435,
      "nome": "Hetalia: The World Twinkle Specials",
      "link": "https://animefire.plus/animes/hetalia-the-world-twinkle-specials-todos-os-episodios",
      "texto_original": "Hetalia: The World Twinkle Specials",
      "rating": 7.48,
      "classificacao_etaria": "A14",
      "imagem_original": "https://animefire.plus/img/animes/hetalia-the-world-twinkle-specials.webp",
      "imagem_pasta": "https://animefire.plus/img/animes/hetalia-the-world-twinkle-specials/",
      "secao": "legendados",
      "pagina": 164,
      "total_episodios": 3,
      "link_video": "https://animefire.plus/video/hetalia-the-world-twinkle-specials"
    },
    {
      "id": 1436,
      "nome": "Heya Camp△",
      "link": "https://animefire.plus/animes/heya-camp-todos-os-episodios",
      "texto_original": "Heya Camp△",
      "rating": 7.19,
      "classificacao_etaria": "A14",
      "imagem_original": "https://animefire.plus/img/animes/heya-camp.webp",
      "imagem_pasta": "https://animefire.plus/img/animes/heya-camp/",
      "secao": "legendados",
      "pagina": 93,
      "total_episodios": 4,
      "link_video": "https://animefire.plus/video/heya-camp"
    },
    {
      "id": 1438,
      "nome": "Hibi wa Sugiredo Meshi Umashi",
      "link": "https://animefire.plus/animes/hibi-wa-sugiredo-meshi-umashi-todos-os-episodios",
      "texto_original": "Hibi wa Sugiredo Meshi Umashi",
      "rating": 7.77,
      "classificacao_etaria": "A14",
      "imagem_original": "https://animefire.plus/img/animes/hibi-wa-sugiredo-meshi-umashi.webp",
      "imagem_pasta": "https://animefire.plus/img/animes/hibi-wa-sugiredo-meshi-umashi/",
      "secao": "legendados",
      "pagina": 4,
      "total_episodios": 12,
      "link_video": "https://animefire.plus/video/hibi-wa-sugiredo-meshi-umashi"
    },
    {
      "id": 1441,
      "nome": "Hibike! Euphonium 3",
      "link": "https://animefire.plus/animes/hibike-euphonium-3-todos-os-episodios",
      "texto_original": "Hibike! Euphonium 3",
      "rating": 8.72,
      "classificacao_etaria": "A14",
      "imagem_original": "https://animefire.plus/img/animes/hibike-euphonium-3.webp",
      "imagem_pasta": "https://animefire.plus/img/animes/hibike-euphonium-3/",
      "secao": "legendados",
      "pagina": 15,
      "total_episodios": 12,
      "link_video": "https://animefire.plus/video/hibike-euphonium-3"
    },
    {
      "id": 1442,
      "nome": "Hibike! Euphonium: Suisougaku-bu no Nichijou",
      "link": "https://animefire.plus/animes/hibike-euphonium-suisougaku-bu-no-nichijou-todos-os-episodios",
      "texto_original": "Hibike! Euphonium: Suisougaku-bu no Nichijou",
      "rating": 6.76,
      "classificacao_etaria": "A14",
      "imagem_original": "https://animefire.plus/img/animes/hibike-euphonium-suisougaku-bu-no-nichijou.webp",
      "imagem_pasta": "https://animefire.plus/img/animes/hibike-euphonium-suisougaku-bu-no-nichijou/",
      "secao": "legendados",
      "pagina": 119,
      "total_episodios": 7,
      "link_video": "https://animefire.plus/video/hibike-euphonium-suisougaku-bu-no-nichijou"
    },
    {
      "id": 1446,
      "nome": "Hidan no Aria",
      "link": "https://animefire.plus/animes/hidan-no-aria-todos-os-episodios",
      "texto_original": "Hidan no Aria",
      "rating": 7.03,
      "classificacao_etaria": "A14",
      "imagem_original": "https://animefire.plus/img/animes/hidan-no-aria.webp",
      "imagem_pasta": "https://animefire.plus/img/animes/hidan-no-aria/",
      "secao": "legendados",
      "pagina": 120,
      "total_episodios": 12,
      "link_video": "https://animefire.plus/video/hidan-no-aria"
    },
    {
      "id": 1447,
      "nome": "Hidan no Aria AA",
      "link": "https://animefire.plus/animes/hidan-no-aria-aa-todos-os-episodios",
      "texto_original": "Hidan no Aria AA",
      "rating": 6.35,
      "classificacao_etaria": "A14",
      "imagem_original": "https://animefire.plus/img/animes/hidan-no-aria-aa.webp",
      "imagem_pasta": "https://animefire.plus/img/animes/hidan-no-aria-aa/",
      "secao": "legendados",
      "pagina": 157,
      "total_episodios": 12,
      "link_video": "https://animefire.plus/video/hidan-no-aria-aa"
    },
    {
      "id": 1448,
      "nome": "Higashi No Eden",
      "link": "https://animefire.plus/animes/higashi-no-eden-todos-os-episodios",
      "texto_original": "Higashi No Eden",
      "rating": 7.9,
      "classificacao_etaria": "A16",
      "imagem_original": "https://animefire.plus/img/animes/higashi-no-eden.webp",
      "imagem_pasta": "https://animefire.plus/img/animes/higashi-no-eden/",
      "secao": "legendados",
      "pagina": 104,
      "total_episodios": 11,
      "link_video": "https://animefire.plus/video/higashi-no-eden"
    },
    {
      "id": 1450,
      "nome": "Higeki no Genkyou to Naru Saikyou Gedou Last Boss Joou wa Tami no Tame ni Tsukushimasu.",
      "link": "https://animefire.plus/animes/higeki-no-genkyou-to-naru-saikyou-gedou-last-boss-joou-wa-tami-no-tame-ni-tsukushimasu-todos-os-episodios",
      "texto_original": "Higeki no Genkyou to Naru Saikyou Gedou Last Boss Joou wa Tami no Tame ni Tsukushimasu.",
      "rating": 7.12,
      "classificacao_etaria": "A14",
      "imagem_original": "https://animefire.plus/img/animes/higeki-no-genkyou-to-naru-saikyou-gedou-last-boss-joou-wa-tami-no-tame-ni-tsukushimasu.jpg",
      "imagem_pasta": "https://animefire.plus/img/animes/higeki-no-genkyou-to-naru-saikyou-gedou-last-boss-joou-wa-tami-no-tame-ni-tsukushimasu/",
      "secao": "legendados",
      "pagina": 22,
      "total_episodios": 12,
      "link_video": "https://animefire.plus/video/higeki-no-genkyou-to-naru-saikyou-gedou-last-boss-joou-wa-tami-no-tame-ni-tsukushimasu"
    },
    {
      "id": 1452,
      "nome": "High Card",
      "link": "https://animefire.plus/animes/high-card-todos-os-episodios",
      "texto_original": "High Card",
      "rating": 7.16,
      "classificacao_etaria": "A16",
      "imagem_original": "https://animefire.plus/img/animes/high-card.webp",
      "imagem_pasta": "https://animefire.plus/img/animes/high-card/",
      "secao": "legendados",
      "pagina": 27,
      "total_episodios": 12,
      "link_video": "https://animefire.plus/video/high-card"
    },
    {
      "id": 1453,
      "nome": "High Card Season 2",
      "link": "https://animefire.plus/animes/high-card-season-2-todos-os-episodios",
      "texto_original": "High Card Season 2",
      "rating": 7.03,
      "classificacao_etaria": "A16",
      "imagem_original": "https://animefire.plus/img/animes/high-card-season-2.webp",
      "imagem_pasta": "https://animefire.plus/img/animes/high-card-season-2/",
      "secao": "legendados",
      "pagina": 17,
      "total_episodios": 12,
      "link_video": "https://animefire.plus/video/high-card-season-2"
    },
    {
      "id": 1459,
      "nome": "High School Fleet",
      "link": "https://animefire.plus/animes/high-school-fleet-todos-os-episodios",
      "texto_original": "High School Fleet",
      "rating": 7.31,
      "classificacao_etaria": "A14",
      "imagem_original": "https://animefire.plus/img/animes/high-school-fleet.webp",
      "imagem_pasta": "https://animefire.plus/img/animes/high-school-fleet/",
      "secao": "legendados",
      "pagina": 64,
      "total_episodios": 12,
      "link_video": "https://animefire.plus/video/high-school-fleet"
    },
    {
      "id": 1460,
      "nome": "High Score Girl (Dublado)",
      "link": "https://animefire.plus/animes/high-score-girl-dublado-todos-os-episodios",
      "texto_original": "High Score Girl (Dublado)",
      "rating": 8.02,
      "classificacao_etaria": "A14",
      "imagem_original": "https://animefire.plus/img/animes/high-score-girl.webp",
      "imagem_pasta": "https://animefire.plus/img/animes/high-score-girl/",
      "secao": "dublados,legendados",
      "pagina": 24,
      "total_episodios": 12,
      "link_video": "https://animefire.plus/video/high-score-girl-dublado"
    },
    {
      "id": 1461,
      "nome": "High Score Girl II (Dublado)",
      "link": "https://animefire.plus/animes/high-score-girl-ii-dublado-todos-os-episodios",
      "texto_original": "High Score Girl II (Dublado)",
      "rating": 8.21,
      "classificacao_etaria": "A14",
      "imagem_original": "https://animefire.plus/img/animes/high-score-girl-ii.webp",
      "imagem_pasta": "https://animefire.plus/img/animes/high-score-girl-ii/",
      "secao": "dublados,legendados",
      "pagina": 23,
      "total_episodios": 9,
      "link_video": "https://animefire.plus/video/high-score-girl-ii-dublado"
    },
    {
      "id": 1462,
      "nome": "High Score Girl: Extra Stage (Dublado)",
      "link": "https://animefire.plus/animes/high-score-girl-extra-stage-dublado-todos-os-episodios",
      "texto_original": "High Score Girl: Extra Stage (Dublado)",
      "rating": 8.07,
      "classificacao_etaria": "A14",
      "imagem_original": "https://animefire.plus/img/animes/high-score-girl-extra-stage.webp",
      "imagem_pasta": "https://animefire.plus/img/animes/high-score-girl-extra-stage/",
      "secao": "dublados,legendados",
      "pagina": 24,
      "total_episodios": 3,
      "link_video": "https://animefire.plus/video/high-score-girl-extra-stage-dublado"
    },
    {
      "id": 1463,
      "nome": "Highschool of the Dead",
      "link": "https://animefire.plus/animes/highschool-of-the-dead-todos-os-episodios",
      "texto_original": "Highschool of the Dead",
      "rating": 7.3,
      "classificacao_etaria": "A18",
      "imagem_original": "https://animefire.plus/img/animes/highschool-of-the-dead.webp",
      "imagem_pasta": "https://animefire.plus/img/animes/highschool-of-the-dead/",
      "secao": "legendados",
      "pagina": 140,
      "total_episodios": 12,
      "link_video": "https://animefire.plus/video/highschool-of-the-dead"
    },
    {
      "id": 1464,
      "nome": "Highspeed Etoile",
      "link": "https://animefire.plus/animes/highspeed-etoile-todos-os-episodios",
      "texto_original": "Highspeed Etoile",
      "rating": 6.14,
      "classificacao_etaria": "A14",
      "imagem_original": "https://animefire.plus/img/animes/highspeed-etoile.webp",
      "imagem_pasta": "https://animefire.plus/img/animes/highspeed-etoile/",
      "secao": "legendados",
      "pagina": 14,
      "total_episodios": 12,
      "link_video": "https://animefire.plus/video/highspeed-etoile"
    },
    {
      "id": 1471,
      "nome": "Higurashi no Naku Koro ni Rei",
      "link": "https://animefire.plus/animes/higurashi-no-naku-koro-ni-rei-todos-os-episodios",
      "texto_original": "Higurashi no Naku Koro ni Rei",
      "rating": 7.51,
      "classificacao_etaria": "A14",
      "imagem_original": "https://animefire.plus/img/animes/higurashi-no-naku-koro-ni-rei.webp",
      "imagem_pasta": "https://animefire.plus/img/animes/higurashi-no-naku-koro-ni-rei/",
      "secao": "legendados",
      "pagina": 168,
      "total_episodios": 5,
      "link_video": "https://animefire.plus/video/higurashi-no-naku-koro-ni-rei"
    },
    {
      "id": 1476,
      "nome": "Hikari no Ou",
      "link": "https://animefire.plus/animes/hikari-no-ou-todos-os-episodios",
      "texto_original": "Hikari no Ou",
      "rating": 6.33,
      "classificacao_etaria": "A14",
      "imagem_original": "https://animefire.plus/img/animes/hikari-no-ou.webp",
      "imagem_pasta": "https://animefire.plus/img/animes/hikari-no-ou/",
      "secao": "legendados",
      "pagina": 26,
      "total_episodios": 10,
      "link_video": "https://animefire.plus/video/hikari-no-ou"
    }
  ],
  "pagination": {
    "current_page": 36,
    "per_page": 20,
    "total_items": 2189,
    "total_pages": 110,
    "has_next": true,
    "has_prev": true
  }
}
