{
  "message": "Animes com 2 a 12 episódios",
  "episode_range": {
    "min": 2,
    "max": 12
  },
  "data": [
    {
      "id": 3529,
      "nome": "Si Ling Bianma: Zhi Shijie Caozong Zhe",
      "link": "https://animefire.plus/animes/si-ling-bianma-zhi-shijie-caozong-zhe-todos-os-episodios",
      "texto_original": "Si Ling Bianma: Zhi Shijie Caozong Zhe",
      "rating": 5.53,
      "classificacao_etaria": "A16",
      "imagem_original": "https://animefire.plus/img/animes/si-ling-bianma-zhi-shijie-caozong-zhe.webp",
      "imagem_pasta": "https://animefire.plus/img/animes/si-ling-bianma-zhi-shijie-caozong-zhe/",
      "secao": "legendados",
      "pagina": 83,
      "total_episodios": 12,
      "link_video": "https://animefire.plus/video/si-ling-bianma-zhi-shijie-caozong-zhe"
    },
    {
      "id": 3531,
      "nome": "Sidonia no Kishi (Dublado)",
      "link": "https://animefire.plus/animes/sidonia-no-kishi-dublado-todos-os-episodios",
      "texto_original": "Sidonia no Kishi (Dublado)",
      "rating": 7.65,
      "classificacao_etaria": "A18",
      "imagem_original": "https://animefire.plus/img/animes/sidonia-no-kishi.webp",
      "imagem_pasta": "https://animefire.plus/img/animes/sidonia-no-kishi/",
      "secao": "dublados,legendados",
      "pagina": 8,
      "total_episodios": 12,
      "link_video": "https://animefire.plus/video/sidonia-no-kishi-dublado"
    },
    {
      "id": 3532,
      "nome": "Sidonia No Kishi: Daikyuu Wakusei Seneki",
      "link": "https://animefire.plus/animes/sidonia-no-kishi-daikyuu-wakusei-seneki-todos-os-episodios",
      "texto_original": "Sidonia No Kishi: Daikyuu Wakusei Seneki",
      "rating": 7.84,
      "classificacao_etaria": "A16",
      "imagem_original": "https://animefire.plus/img/animes/sidonia-no-kishi-daikyuu-wakusei-seneki.webp",
      "imagem_pasta": "https://animefire.plus/img/animes/sidonia-no-kishi-daikyuu-wakusei-seneki/",
      "secao": "legendados",
      "pagina": 103,
      "total_episodios": 5,
      "link_video": "https://animefire.plus/video/sidonia-no-kishi-daikyuu-wakusei-seneki"
    },
    {
      "id": 3534,
      "nome": "Silent Witch: Chinmoku no Majo no Kakushigoto",
      "link": "https://animefire.plus/animes/silent-witch-chinmoku-no-majo-no-kakushigoto-todos-os-episodios",
      "texto_original": "Silent Witch: Chinmoku no Majo no Kakushigoto",
      "rating": 7.98,
      "classificacao_etaria": "A14",
      "imagem_original": "https://animefire.plus/img/animes/silent-witch-chinmoku-no-majo-no-kakushigoto.webp",
      "imagem_pasta": "https://animefire.plus/img/animes/silent-witch-chinmoku-no-majo-no-kakushigoto/",
      "secao": "legendados,lancamentos",
      "pagina": 3,
      "total_episodios": 5,
      "link_video": "https://animefire.plus/video/silent-witch-chinmoku-no-majo-no-kakushigoto"
    },
    {
      "id": 3536,
      "nome": "Sin: Nanatsu no Taizai",
      "link": "https://animefire.plus/animes/sin-nanatsu-no-taizai-todos-os-episodios",
      "texto_original": "Sin: Nanatsu no Taizai",
      "rating": 5.75,
      "classificacao_etaria": "A18",
      "imagem_original": "https://animefire.plus/img/animes/sin-nanatsu-no-taizai.webp",
      "imagem_pasta": "https://animefire.plus/img/animes/sin-nanatsu-no-taizai/",
      "secao": "legendados",
      "pagina": 103,
      "total_episodios": 12,
      "link_video": "https://animefire.plus/video/sin-nanatsu-no-taizai"
    },
    {
      "id": 3537,
      "nome": "Sirius (Dublado)",
      "link": "https://animefire.plus/animes/sirius-dublado-todos-os-episodios",
      "texto_original": "Sirius (Dublado)",
      "rating": 7.18,
      "classificacao_etaria": "A16",
      "imagem_original": "https://animefire.plus/img/animes/sirius.webp",
      "imagem_pasta": "https://animefire.plus/img/animes/sirius/",
      "secao": "dublados,legendados",
      "pagina": 25,
      "total_episodios": 12,
      "link_video": "https://animefire.plus/video/sirius-dublado"
    },
    {
      "id": 3540,
      "nome": "SK∞ (Dublado)",
      "link": "https://animefire.plus/animes/sk-dublado-todos-os-episodios",
      "texto_original": "SK∞ (Dublado)",
      "rating": 8,
      "classificacao_etaria": "A14",
      "imagem_original": "https://animefire.plus/img/animes/sk.webp",
      "imagem_pasta": "https://animefire.plus/img/animes/sk/",
      "secao": "dublados",
      "pagina": 15,
      "total_episodios": 12,
      "link_video": "https://animefire.plus/video/sk-dublado"
    },
    {
      "id": 3541,
      "nome": "Skate-Leading☆Stars",
      "link": "https://animefire.plus/animes/skate-leading-stars-todos-os-episodios",
      "texto_original": "Skate-Leading☆Stars",
      "rating": 6.45,
      "classificacao_etaria": "A14",
      "imagem_original": "https://animefire.plus/img/animes/skate-leading-stars.webp",
      "imagem_pasta": "https://animefire.plus/img/animes/skate-leading-stars/",
      "secao": "legendados",
      "pagina": 49,
      "total_episodios": 12,
      "link_video": "https://animefire.plus/video/skate-leading-stars"
    },
    {
      "id": 3544,
      "nome": "Skip to Loafer (Dublado)",
      "link": "https://animefire.plus/animes/skip-to-loafer-dublado-todos-os-episodios",
      "texto_original": "Skip to Loafer (Dublado)",
      "rating": 8.11,
      "classificacao_etaria": "A14",
      "imagem_original": "https://animefire.plus/img/animes/skip-to-loafer.webp",
      "imagem_pasta": "https://animefire.plus/img/animes/skip-to-loafer/",
      "secao": "dublados,legendados",
      "pagina": 7,
      "total_episodios": 12,
      "link_video": "https://animefire.plus/video/skip-to-loafer-dublado"
    },
    {
      "id": 3550,
      "nome": "Slayers Excellent",
      "link": "https://animefire.plus/animes/slayers-excellent-todos-os-episodios",
      "texto_original": "Slayers Excellent",
      "rating": 7.33,
      "classificacao_etaria": "A14",
      "imagem_original": "https://animefire.plus/img/animes/slayers-excellent.webp",
      "imagem_pasta": "https://animefire.plus/img/animes/slayers-excellent/",
      "secao": "legendados",
      "pagina": 45,
      "total_episodios": 3,
      "link_video": "https://animefire.plus/video/slayers-excellent"
    },
    {
      "id": 3553,
      "nome": "Slayers Special",
      "link": "https://animefire.plus/animes/slayers-special-todos-os-episodios",
      "texto_original": "Slayers Special",
      "rating": 7.37,
      "classificacao_etaria": "A14",
      "imagem_original": "https://animefire.plus/img/animes/slayers-special.webp",
      "imagem_pasta": "https://animefire.plus/img/animes/slayers-special/",
      "secao": "legendados",
      "pagina": 45,
      "total_episodios": 3,
      "link_video": "https://animefire.plus/video/slayers-special"
    },
    {
      "id": 3555,
      "nome": "Slime Taoshite 300-nen, Shiranai Uchi ni Level Max ni Nattemashita (Dublado)",
      "link": "https://animefire.plus/animes/slime-taoshite-300-nen-shiranai-uchi-ni-level-max-ni-nattemashita-dublado-todos-os-episodios",
      "texto_original": "Slime Taoshite 300-nen, Shiranai Uchi ni Level Max ni Nattemashita (Dublado)",
      "rating": 6.9,
      "classificacao_etaria": "A14",
      "imagem_original": "https://animefire.plus/img/animes/slime-taoshite-300-nen-shiranai-uchi-ni-level-max-ni-nattemashita.webp",
      "imagem_pasta": "https://animefire.plus/img/animes/slime-taoshite-300-nen-shiranai-uchi-ni-level-max-ni-nattemashita/",
      "secao": "dublados,legendados",
      "pagina": 17,
      "total_episodios": 12,
      "link_video": "https://animefire.plus/video/slime-taoshite-300-nen-shiranai-uchi-ni-level-max-ni-nattemashita-dublado"
    },
    {
      "id": 3556,
      "nome": "Slime Taoshite 300-nen, Shiranai Uchi ni Level Max ni Nattemashita: Sono Ni",
      "link": "https://animefire.plus/animes/slime-taoshite-300-nen-shiranai-uchi-ni-level-max-ni-nattemashita-sono-ni-todos-os-episodios",
      "texto_original": "Slime Taoshite 300-nen, Shiranai Uchi ni Level Max ni Nattemashita: Sono Ni",
      "rating": 6.69,
      "classificacao_etaria": "A14",
      "imagem_original": "https://animefire.plus/img/animes/slime-taoshite-300-nen-shiranai-uchi-ni-level-max-ni-nattemashita-sono-ni.webp",
      "imagem_pasta": "https://animefire.plus/img/animes/slime-taoshite-300-nen-shiranai-uchi-ni-level-max-ni-nattemashita-sono-ni/",
      "secao": "legendados",
      "pagina": 6,
      "total_episodios": 12,
      "link_video": "https://animefire.plus/video/slime-taoshite-300-nen-shiranai-uchi-ni-level-max-ni-nattemashita-sono-ni"
    },
    {
      "id": 3557,
      "nome": "Slow Loop",
      "link": "https://animefire.plus/animes/slow-loop-todos-os-episodios",
      "texto_original": "Slow Loop",
      "rating": 7.25,
      "classificacao_etaria": "A14",
      "imagem_original": "https://animefire.plus/img/animes/slow-loop.webp",
      "imagem_pasta": "https://animefire.plus/img/animes/slow-loop/",
      "secao": "legendados",
      "pagina": 36,
      "total_episodios": 12,
      "link_video": "https://animefire.plus/video/slow-loop"
    },
    {
      "id": 3558,
      "nome": "Slow Start",
      "link": "https://animefire.plus/animes/slow-start-todos-os-episodios",
      "texto_original": "Slow Start",
      "rating": 7.11,
      "classificacao_etaria": "A14",
      "imagem_original": "https://animefire.plus/img/animes/slow-start.webp",
      "imagem_pasta": "https://animefire.plus/img/animes/slow-start/",
      "secao": "legendados",
      "pagina": 107,
      "total_episodios": 12,
      "link_video": "https://animefire.plus/video/slow-start"
    },
    {
      "id": 3561,
      "nome": "So Ra No Wo To",
      "link": "https://animefire.plus/animes/so-ra-no-wo-to-todos-os-episodios",
      "texto_original": "So Ra No Wo To",
      "rating": 7.58,
      "classificacao_etaria": "A14",
      "imagem_original": "https://animefire.plus/img/animes/so-ra-no-wo-to.webp",
      "imagem_pasta": "https://animefire.plus/img/animes/so-ra-no-wo-to/",
      "secao": "legendados",
      "pagina": 140,
      "total_episodios": 12,
      "link_video": "https://animefire.plus/video/so-ra-no-wo-to"
    },
    {
      "id": 3562,
      "nome": "Softenni",
      "link": "https://animefire.plus/animes/softenni-todos-os-episodios",
      "texto_original": "Softenni",
      "rating": 6.57,
      "classificacao_etaria": "A18",
      "imagem_original": "https://animefire.plus/img/animes/softenni.webp",
      "imagem_pasta": "https://animefire.plus/img/animes/softenni/",
      "secao": "legendados",
      "pagina": 179,
      "total_episodios": 12,
      "link_video": "https://animefire.plus/video/softenni"
    },
    {
      "id": 3563,
      "nome": "Sokushi Cheat ga Saikyou sugite, Isekai no Yatsura ga Marude Aite ni Naranai n desu ga.",
      "link": "https://animefire.plus/animes/sokushi-cheat-ga-saikyou-sugite-isekai-no-yatsura-ga-marude-aite-ni-naranai-n-desu-ga-todos-os-episodios",
      "texto_original": "Sokushi Cheat ga Saikyou sugite, Isekai no Yatsura ga Marude Aite ni Naranai n desu ga.",
      "rating": 6.37,
      "classificacao_etaria": null,
      "imagem_original": "https://animefire.plus/img/animes/sokushi-cheat-ga-saikyou-sugite-isekai-no-yatsura-ga-marude-aite-ni-naranai-n-desu-ga.webp",
      "imagem_pasta": "https://animefire.plus/img/animes/sokushi-cheat-ga-saikyou-sugite-isekai-no-yatsura-ga-marude-aite-ni-naranai-n-desu-ga/",
      "secao": "legendados",
      "pagina": 18,
      "total_episodios": 12,
      "link_video": "https://animefire.plus/video/sokushi-cheat-ga-saikyou-sugite-isekai-no-yatsura-ga-marude-aite-ni-naranai-n-desu-ga"
    },
    {
      "id": 3568,
      "nome": "SoniAni: Super Sonico The Animation",
      "link": "https://animefire.plus/animes/soniani-super-sonico-the-animation-todos-os-episodios",
      "texto_original": "SoniAni: Super Sonico The Animation",
      "rating": 6.18,
      "classificacao_etaria": "A14",
      "imagem_original": "https://animefire.plus/img/animes/soniani-super-sonico-the-animation.webp",
      "imagem_pasta": "https://animefire.plus/img/animes/soniani-super-sonico-the-animation/",
      "secao": "legendados",
      "pagina": 115,
      "total_episodios": 12,
      "link_video": "https://animefire.plus/video/soniani-super-sonico-the-animation"
    },
    {
      "id": 3569,
      "nome": "Sonny Boy (Dublado)",
      "link": "https://animefire.plus/animes/sonny-boy-dublado-todos-os-episodios",
      "texto_original": "Sonny Boy (Dublado)",
      "rating": 7.83,
      "classificacao_etaria": "A14",
      "imagem_original": "https://animefire.plus/img/animes/sonny-boy.webp",
      "imagem_pasta": "https://animefire.plus/img/animes/sonny-boy/",
      "secao": "dublados,legendados",
      "pagina": 16,
      "total_episodios": 12,
      "link_video": "https://animefire.plus/video/sonny-boy-dublado"
    }
  ],
  "pagination": {
    "current_page": 90,
    "per_page": 20,
    "total_items": 2189,
    "total_pages": 110,
    "has_next": true,
    "has_prev": true
  }
}
