{
  "message": "Animes com 2 a 12 episódios",
  "episode_range": {
    "min": 2,
    "max": 12
  },
  "data": [
    {
      "id": 2052,
      "nome": "Koi to Uso",
      "link": "https://animefire.plus/animes/koi-to-uso-todos-os-episodios",
      "texto_original": "Koi to Uso",
      "rating": 6.75,
      "classificacao_etaria": "A14",
      "imagem_original": "https://animefire.plus/img/animes/koi-to-uso.webp",
      "imagem_pasta": "https://animefire.plus/img/animes/koi-to-uso/",
      "secao": "legendados",
      "pagina": 118,
      "total_episodios": 12,
      "link_video": "https://animefire.plus/video/koi-to-uso"
    },
    {
      "id": 2054,
      "nome": "Koi to Yobu ni wa Kimochi Warui",
      "link": "https://animefire.plus/animes/koi-to-yobu-ni-wa-kimochi-warui-todos-os-episodios",
      "texto_original": "Koi to Yobu ni wa Kimochi Warui",
      "rating": 7.12,
      "classificacao_etaria": "A14",
      "imagem_original": "https://animefire.plus/img/animes/koi-to-yobu-ni-wa-kimochi-warui.webp",
      "imagem_pasta": "https://animefire.plus/img/animes/koi-to-yobu-ni-wa-kimochi-warui/",
      "secao": "legendados",
      "pagina": 47,
      "total_episodios": 12,
      "link_video": "https://animefire.plus/video/koi-to-yobu-ni-wa-kimochi-warui"
    },
    {
      "id": 2055,
      "nome": "Koi wa Ameagari no You ni",
      "link": "https://animefire.plus/animes/koi-wa-ameagari-no-you-ni-todos-os-episodios",
      "texto_original": "Koi wa Ameagari no You ni",
      "rating": 7.6,
      "classificacao_etaria": "A14",
      "imagem_original": "https://animefire.plus/img/animes/koi-wa-ameagari-no-you-ni.webp",
      "imagem_pasta": "https://animefire.plus/img/animes/koi-wa-ameagari-no-you-ni/",
      "secao": "legendados",
      "pagina": 120,
      "total_episodios": 12,
      "link_video": "https://animefire.plus/video/koi-wa-ameagari-no-you-ni"
    },
    {
      "id": 2056,
      "nome": "Koi wa Futago de Warikirenai",
      "link": "https://animefire.plus/animes/koi-wa-futago-de-warikirenai-todos-os-episodios",
      "texto_original": "Koi wa Futago de Warikirenai",
      "rating": 6.26,
      "classificacao_etaria": "A14",
      "imagem_original": "https://animefire.plus/img/animes/koi-wa-futago-de-warikirenai.webp",
      "imagem_pasta": "https://animefire.plus/img/animes/koi-wa-futago-de-warikirenai/",
      "secao": "legendados",
      "pagina": 13,
      "total_episodios": 12,
      "link_video": "https://animefire.plus/video/koi-wa-futago-de-warikirenai"
    },
    {
      "id": 2057,
      "nome": "Koi wa Sekai Seifuku no Ato de (Dublado)",
      "link": "https://animefire.plus/animes/koi-wa-sekai-seifuku-no-ato-de-dublado-todos-os-episodios",
      "texto_original": "Koi wa Sekai Seifuku no Ato de (Dublado)",
      "rating": 7.38,
      "classificacao_etaria": "A14",
      "imagem_original": "https://animefire.plus/img/animes/koi-wa-sekai-seifuku-no-ato-de.webp",
      "imagem_pasta": "https://animefire.plus/img/animes/koi-wa-sekai-seifuku-no-ato-de/",
      "secao": "dublados,legendados",
      "pagina": 11,
      "total_episodios": 12,
      "link_video": "https://animefire.plus/video/koi-wa-sekai-seifuku-no-ato-de-dublado"
    },
    {
      "id": 2058,
      "nome": "Koihime†Musou",
      "link": "https://animefire.plus/animes/koihime-musou-todos-os-episodios",
      "texto_original": "Koihime†Musou",
      "rating": 6.82,
      "classificacao_etaria": "A18",
      "imagem_original": "https://animefire.plus/img/animes/koihime-musou.webp",
      "imagem_pasta": "https://animefire.plus/img/animes/koihime-musou/",
      "secao": "legendados",
      "pagina": 127,
      "total_episodios": 12,
      "link_video": "https://animefire.plus/video/koihime-musou"
    },
    {
      "id": 2062,
      "nome": "Koisuru Tenshi Angelique: Kagayaki no Ashita",
      "link": "https://animefire.plus/animes/koisuru-tenshi-angelique-kagayaki-no-ashita-todos-os-episodios",
      "texto_original": "Koisuru Tenshi Angelique: Kagayaki no Ashita",
      "rating": 7.09,
      "classificacao_etaria": "A14",
      "imagem_original": "https://animefire.plus/img/animes/koisuru-tenshi-angelique-kagayaki-no-ashita.webp",
      "imagem_pasta": "https://animefire.plus/img/animes/koisuru-tenshi-angelique-kagayaki-no-ashita/",
      "secao": "legendados",
      "pagina": 149,
      "total_episodios": 12,
      "link_video": "https://animefire.plus/video/koisuru-tenshi-angelique-kagayaki-no-ashita"
    },
    {
      "id": 2065,
      "nome": "Kokkoku",
      "link": "https://animefire.plus/animes/kokkoku-todos-os-episodios",
      "texto_original": "Kokkoku",
      "rating": 7.14,
      "classificacao_etaria": "A16",
      "imagem_original": "https://animefire.plus/img/animes/kokkoku.webp",
      "imagem_pasta": "https://animefire.plus/img/animes/kokkoku/",
      "secao": "legendados",
      "pagina": 138,
      "total_episodios": 12,
      "link_video": "https://animefire.plus/video/kokkoku"
    },
    {
      "id": 2066,
      "nome": "Kokoro Connect",
      "link": "https://animefire.plus/animes/kokoro-connect-todos-os-episodios",
      "texto_original": "Kokoro Connect",
      "rating": 7.91,
      "classificacao_etaria": "A14",
      "imagem_original": "https://animefire.plus/img/animes/kokoro-connect.webp",
      "imagem_pasta": "https://animefire.plus/img/animes/kokoro-connect/",
      "secao": "legendados",
      "pagina": 170,
      "total_episodios": 5,
      "link_video": "https://animefire.plus/video/kokoro-connect"
    },
    {
      "id": 2070,
      "nome": "Komi-san wa, Comyushou desu.",
      "link": "https://animefire.plus/animes/komi-san-wa-comyushou-desu-todos-os-episodios",
      "texto_original": "Komi-san wa, Comyushou desu.",
      "rating": 7.82,
      "classificacao_etaria": "A14",
      "imagem_original": "https://animefire.plus/img/animes/komi-san-wa-comyushou-desu.webp",
      "imagem_pasta": "https://animefire.plus/img/animes/komi-san-wa-comyushou-desu/",
      "secao": "legendados",
      "pagina": 39,
      "total_episodios": 12,
      "link_video": "https://animefire.plus/video/komi-san-wa-comyushou-desu"
    },
    {
      "id": 2071,
      "nome": "Komi-san wa, Comyushou desu. 2nd Season",
      "link": "https://animefire.plus/animes/komi-san-wa-comyushou-desu-2-todos-os-episodios",
      "texto_original": "Komi-san wa, Comyushou desu. 2nd Season",
      "rating": 7.99,
      "classificacao_etaria": "A14",
      "imagem_original": "https://animefire.plus/img/animes/komi-san-wa-comyushou-desu-2.webp",
      "imagem_pasta": "https://animefire.plus/img/animes/komi-san-wa-comyushou-desu-2/",
      "secao": "legendados",
      "pagina": 33,
      "total_episodios": 12,
      "link_video": "https://animefire.plus/video/komi-san-wa-comyushou-desu-2"
    },
    {
      "id": 2072,
      "nome": "Komi-san wa, Comyushou desu. 2nd Season (Dublado)",
      "link": "https://animefire.plus/animes/komi-san-wa-comyushou-desu-2nd-season-dublado-todos-os-episodios",
      "texto_original": "Komi-san wa, Comyushou desu. 2nd Season (Dublado)",
      "rating": 7.99,
      "classificacao_etaria": "A14",
      "imagem_original": "https://animefire.plus/img/animes/komi-san-wa-comyushou-desu-2nd-season.webp",
      "imagem_pasta": "https://animefire.plus/img/animes/komi-san-wa-comyushou-desu-2nd-season/",
      "secao": "dublados",
      "pagina": 9,
      "total_episodios": 12,
      "link_video": "https://animefire.plus/video/komi-san-wa-comyushou-desu-2nd-season-dublado"
    },
    {
      "id": 2073,
      "nome": "Komori-san wa Kotowarenai!",
      "link": "https://animefire.plus/animes/komori-san-wa-kotowarenai-todos-os-episodios",
      "texto_original": "Komori-san wa Kotowarenai!",
      "rating": 6.3,
      "classificacao_etaria": "A14",
      "imagem_original": "https://animefire.plus/img/animes/komori-san-wa-kotowarenai.webp",
      "imagem_pasta": "https://animefire.plus/img/animes/komori-san-wa-kotowarenai/",
      "secao": "legendados",
      "pagina": 128,
      "total_episodios": 12,
      "link_video": "https://animefire.plus/video/komori-san-wa-kotowarenai"
    },
    {
      "id": 2074,
      "nome": "Konbini Kareshi",
      "link": "https://animefire.plus/animes/konbini-kareshi-todos-os-episodios",
      "texto_original": "Konbini Kareshi",
      "rating": 6.4,
      "classificacao_etaria": "A14",
      "imagem_original": "https://animefire.plus/img/animes/konbini-kareshi.webp",
      "imagem_pasta": "https://animefire.plus/img/animes/konbini-kareshi/",
      "secao": "legendados",
      "pagina": 142,
      "total_episodios": 12,
      "link_video": "https://animefire.plus/video/konbini-kareshi"
    },
    {
      "id": 2077,
      "nome": "Kono Bijutsubu Ni Wa Mondai Ga Aru!",
      "link": "https://animefire.plus/animes/kono-bijutsubu-ni-wa-mondai-ga-aru-todos-os-episodios",
      "texto_original": "Kono Bijutsubu Ni Wa Mondai Ga Aru!",
      "rating": 7.37,
      "classificacao_etaria": "A14",
      "imagem_original": "https://animefire.plus/img/animes/kono-bijutsubu-ni-wa-mondai-ga-aru.webp",
      "imagem_pasta": "https://animefire.plus/img/animes/kono-bijutsubu-ni-wa-mondai-ga-aru/",
      "secao": "legendados",
      "pagina": 108,
      "total_episodios": 12,
      "link_video": "https://animefire.plus/video/kono-bijutsubu-ni-wa-mondai-ga-aru"
    },
    {
      "id": 2079,
      "nome": "Kono Healer, Mendokusai",
      "link": "https://animefire.plus/animes/kono-healer-mendokusai-todos-os-episodios",
      "texto_original": "Kono Healer, Mendokusai",
      "rating": 6.34,
      "classificacao_etaria": "A14",
      "imagem_original": "https://animefire.plus/img/animes/kono-healer-mendokusai.webp",
      "imagem_pasta": "https://animefire.plus/img/animes/kono-healer-mendokusai/",
      "secao": "legendados",
      "pagina": 33,
      "total_episodios": 12,
      "link_video": "https://animefire.plus/video/kono-healer-mendokusai"
    },
    {
      "id": 2080,
      "nome": "Kono Kaisha ni Suki na Hito ga Imasu",
      "link": "https://animefire.plus/animes/kono-kaisha-ni-suki-na-hito-ga-imasu-todos-os-episodios",
      "texto_original": "Kono Kaisha ni Suki na Hito ga Imasu",
      "rating": 7.53,
      "classificacao_etaria": "A14",
      "imagem_original": "https://animefire.plus/img/animes/kono-kaisha-ni-suki-na-hito-ga-imasu.webp",
      "imagem_pasta": "https://animefire.plus/img/animes/kono-kaisha-ni-suki-na-hito-ga-imasu/",
      "secao": "legendados",
      "pagina": 8,
      "total_episodios": 12,
      "link_video": "https://animefire.plus/video/kono-kaisha-ni-suki-na-hito-ga-imasu"
    },
    {
      "id": 2082,
      "nome": "Kono Naka ni Hitori, Imouto ga Iru!",
      "link": "https://animefire.plus/animes/kono-naka-ni-hitori-imouto-ga-iru-todos-os-episodios",
      "texto_original": "Kono Naka ni Hitori, Imouto ga Iru!",
      "rating": 6.74,
      "classificacao_etaria": "A18",
      "imagem_original": "https://animefire.plus/img/animes/kono-naka-ni-hitori-imouto-ga-iru.webp",
      "imagem_pasta": "https://animefire.plus/img/animes/kono-naka-ni-hitori-imouto-ga-iru/",
      "secao": "legendados",
      "pagina": 140,
      "total_episodios": 4,
      "link_video": "https://animefire.plus/video/kono-naka-ni-hitori-imouto-ga-iru"
    },
    {
      "id": 2086,
      "nome": "Kono Subarashii Sekai ni Bakuen wo! (Dublado)",
      "link": "https://animefire.plus/animes/kono-subarashii-sekai-ni-bakuen-wo-dublado-todos-os-episodios",
      "texto_original": "Kono Subarashii Sekai ni Bakuen wo! (Dublado)",
      "rating": 7.51,
      "classificacao_etaria": "A14",
      "imagem_original": "https://animefire.plus/img/animes/kono-subarashii-sekai-ni-bakuen-wo.webp",
      "imagem_pasta": "https://animefire.plus/img/animes/kono-subarashii-sekai-ni-bakuen-wo/",
      "secao": "dublados,legendados",
      "pagina": 7,
      "total_episodios": 12,
      "link_video": "https://animefire.plus/video/kono-subarashii-sekai-ni-bakuen-wo-dublado"
    },
    {
      "id": 2087,
      "nome": "Kono Subarashii Sekai ni Shukufuku wo! (Dublado)",
      "link": "https://animefire.plus/animes/kono-subarashii-sekai-ni-shukufuku-wo-dublado-todos-os-episodios",
      "texto_original": "Kono Subarashii Sekai ni Shukufuku wo! (Dublado)",
      "rating": 8.18,
      "classificacao_etaria": "A14",
      "imagem_original": "https://animefire.plus/img/animes/kono-subarashii-sekai-ni-shukufuku-wo.webp",
      "imagem_pasta": "https://animefire.plus/img/animes/kono-subarashii-sekai-ni-shukufuku-wo/",
      "secao": "dublados,legendados",
      "pagina": 26,
      "total_episodios": 10,
      "link_video": "https://animefire.plus/video/kono-subarashii-sekai-ni-shukufuku-wo-dublado"
    }
  ],
  "pagination": {
    "current_page": 52,
    "per_page": 20,
    "total_items": 2189,
    "total_pages": 110,
    "has_next": true,
    "has_prev": true
  }
}
