{
  "message": "Animes com 2 a 12 episódios",
  "episode_range": {
    "min": 2,
    "max": 12
  },
  "data": [
    {
      "id": 2608,
      "nome": "Mujaki No Rakuen",
      "link": "https://animefire.plus/animes/mujaki-no-rakuen-todos-os-episodios",
      "texto_original": "Mujaki No Rakuen",
      "rating": 6.02,
      "classificacao_etaria": "A14",
      "imagem_original": "https://animefire.plus/img/animes/mujaki-no-rakuen.webp",
      "imagem_pasta": "https://animefire.plus/img/animes/mujaki-no-rakuen/",
      "secao": "legendados",
      "pagina": 109,
      "total_episodios": 3,
      "link_video": "https://animefire.plus/video/mujaki-no-rakuen"
    },
    {
      "id": 2611,
      "nome": "Murai no Koi",
      "link": "https://animefire.plus/animes/murai-no-koi-todos-os-episodios",
      "texto_original": "Murai no Koi",
      "rating": 7.52,
      "classificacao_etaria": "A14",
      "imagem_original": "https://animefire.plus/img/animes/murai-no-koi.webp",
      "imagem_pasta": "https://animefire.plus/img/animes/murai-no-koi/",
      "secao": "legendados",
      "pagina": 9,
      "total_episodios": 12,
      "link_video": "https://animefire.plus/video/murai-no-koi"
    },
    {
      "id": 2613,
      "nome": "Murenase! Seton Gakuen",
      "link": "https://animefire.plus/animes/murenase-seton-gakuen-todos-os-episodios",
      "texto_original": "Murenase! Seton Gakuen",
      "rating": 7.08,
      "classificacao_etaria": "A14",
      "imagem_original": "https://animefire.plus/img/animes/murenase-seton-gakuen.webp",
      "imagem_pasta": "https://animefire.plus/img/animes/murenase-seton-gakuen/",
      "secao": "legendados",
      "pagina": 93,
      "total_episodios": 12,
      "link_video": "https://animefire.plus/video/murenase-seton-gakuen"
    },
    {
      "id": 2614,
      "nome": "Musaigen no Phantom World",
      "link": "https://animefire.plus/animes/musaigen-no-phantom-world-todos-os-episodios",
      "texto_original": "Musaigen no Phantom World",
      "rating": 6.98,
      "classificacao_etaria": "A14",
      "imagem_original": "https://animefire.plus/img/animes/musaigen-no-phantom-world.webp",
      "imagem_pasta": "https://animefire.plus/img/animes/musaigen-no-phantom-world/",
      "secao": "legendados",
      "pagina": 159,
      "total_episodios": 3,
      "link_video": "https://animefire.plus/video/musaigen-no-phantom-world"
    },
    {
      "id": 2615,
      "nome": "Musashino!",
      "link": "https://animefire.plus/animes/musashino-todos-os-episodios",
      "texto_original": "Musashino!",
      "rating": 4.65,
      "classificacao_etaria": "A10",
      "imagem_original": "https://animefire.plus/img/animes/musashino.webp",
      "imagem_pasta": "https://animefire.plus/img/animes/musashino/",
      "secao": "legendados",
      "pagina": 32,
      "total_episodios": 12,
      "link_video": "https://animefire.plus/video/musashino"
    },
    {
      "id": 2617,
      "nome": "Mushibugyou OVA",
      "link": "https://animefire.plus/animes/mushibugyou-ova-todos-os-episodios",
      "texto_original": "Mushibugyou OVA",
      "rating": 7.14,
      "classificacao_etaria": "A14",
      "imagem_original": "https://animefire.plus/img/animes/mushibugyou-ova.webp",
      "imagem_pasta": "https://animefire.plus/img/animes/mushibugyou-ova/",
      "secao": "legendados",
      "pagina": 128,
      "total_episodios": 3,
      "link_video": "https://animefire.plus/video/mushibugyou-ova"
    },
    {
      "id": 2618,
      "nome": "Mushikaburi-hime",
      "link": "https://animefire.plus/animes/mushikaburi-hime-todos-os-episodios",
      "texto_original": "Mushikaburi-hime",
      "rating": 6.87,
      "classificacao_etaria": "A14",
      "imagem_original": "https://animefire.plus/img/animes/mushikaburi-hime.webp",
      "imagem_pasta": "https://animefire.plus/img/animes/mushikaburi-hime/",
      "secao": "legendados",
      "pagina": 29,
      "total_episodios": 12,
      "link_video": "https://animefire.plus/video/mushikaburi-hime"
    },
    {
      "id": 2619,
      "nome": "Mushikago no Cagaster (Dublado)",
      "link": "https://animefire.plus/animes/mushikago-no-cagaster-dublado-todos-os-episodios",
      "texto_original": "Mushikago no Cagaster (Dublado)",
      "rating": 6.57,
      "classificacao_etaria": "A16",
      "imagem_original": "https://animefire.plus/img/animes/mushikago-no-cagaster.webp",
      "imagem_pasta": "https://animefire.plus/img/animes/mushikago-no-cagaster/",
      "secao": "dublados,legendados",
      "pagina": 25,
      "total_episodios": 12,
      "link_video": "https://animefire.plus/video/mushikago-no-cagaster-dublado"
    },
    {
      "id": 2621,
      "nome": "Mushishi Zoku Shou",
      "link": "https://animefire.plus/animes/mushishi-zoku-shou-todos-os-episodios",
      "texto_original": "Mushishi Zoku Shou",
      "rating": 8.74,
      "classificacao_etaria": "A14",
      "imagem_original": "https://animefire.plus/img/animes/mushishi-zoku-shou.webp",
      "imagem_pasta": "https://animefire.plus/img/animes/mushishi-zoku-shou/",
      "secao": "legendados",
      "pagina": 135,
      "total_episodios": 10,
      "link_video": "https://animefire.plus/video/mushishi-zoku-shou"
    },
    {
      "id": 2623,
      "nome": "Mushoku Tensei II: Isekai Ittara Honki Dasu",
      "link": "https://animefire.plus/animes/mushoku-tensei-ii-sekai-ittara-honki-dasu-todos-os-episodios",
      "texto_original": "Mushoku Tensei II: Isekai Ittara Honki Dasu",
      "rating": 8.22,
      "classificacao_etaria": "A16",
      "imagem_original": "https://animefire.plus/img/animes/mushoku-tensei-II-sekai-ittara-honki-dasu.jpg",
      "imagem_pasta": "https://animefire.plus/img/animes/mushoku-tensei-II-sekai-ittara-honki-dasu/",
      "secao": "legendados",
      "pagina": 23,
      "total_episodios": 4,
      "link_video": "https://animefire.plus/video/mushoku-tensei-ii-sekai-ittara-honki-dasu"
    },
    {
      "id": 2625,
      "nome": "Mushoku Tensei II: Isekai Ittara Honki Dasu (Dublado)",
      "link": "https://animefire.plus/animes/mushoku-tensei-ii-isekai-ittara-honki-dasu-dublado-todos-os-episodios",
      "texto_original": "Mushoku Tensei II: Isekai Ittara Honki Dasu (Dublado)",
      "rating": 8.22,
      "classificacao_etaria": "A16",
      "imagem_original": "https://animefire.plus/img/animes/mushoku-tensei-ii-isekai-ittara-honki-dasu.webp",
      "imagem_pasta": "https://animefire.plus/img/animes/mushoku-tensei-ii-isekai-ittara-honki-dasu/",
      "secao": "dublados",
      "pagina": 6,
      "total_episodios": 12,
      "link_video": "https://animefire.plus/video/mushoku-tensei-ii-isekai-ittara-honki-dasu-dublado"
    },
    {
      "id": 2626,
      "nome": "Mushoku Tensei II: Isekai Ittara Honki Dasu Part 2",
      "link": "https://animefire.plus/animes/mushoku-tensei-ii-isekai-ittara-honki-dasu-part-2-todos-os-episodios",
      "texto_original": "Mushoku Tensei II: Isekai Ittara Honki Dasu Part 2",
      "rating": 8.41,
      "classificacao_etaria": "A16",
      "imagem_original": "https://animefire.plus/img/animes/mushoku-tensei-ii-isekai-ittara-honki-dasu-part-2.webp",
      "imagem_pasta": "https://animefire.plus/img/animes/mushoku-tensei-ii-isekai-ittara-honki-dasu-part-2/",
      "secao": "legendados",
      "pagina": 15,
      "total_episodios": 12,
      "link_video": "https://animefire.plus/video/mushoku-tensei-ii-isekai-ittara-honki-dasu-part-2"
    },
    {
      "id": 2627,
      "nome": "Mushoku Tensei: Isekai Ittara Honki Dasu (Dublado)",
      "link": "https://animefire.plus/animes/mushoku-tensei-isekai-ittara-honki-dasu-dublado-todos-os-episodios",
      "texto_original": "Mushoku Tensei: Isekai Ittara Honki Dasu (Dublado)",
      "rating": 8.35,
      "classificacao_etaria": "A16",
      "imagem_original": "https://animefire.plus/img/animes/mushoku-tensei-isekai-ittara-honki-dasu.webp",
      "imagem_pasta": "https://animefire.plus/img/animes/mushoku-tensei-isekai-ittara-honki-dasu/",
      "secao": "dublados,legendados",
      "pagina": 16,
      "total_episodios": 11,
      "link_video": "https://animefire.plus/video/mushoku-tensei-isekai-ittara-honki-dasu-dublado"
    },
    {
      "id": 2628,
      "nome": "Mushoku Tensei: Isekai Ittara Honki Dasu 2nd Season (Dublado)",
      "link": "https://animefire.plus/animes/mushoku-tensei-isekai-ittara-honki-dasu-2nd-season-dublado-todos-os-episodios",
      "texto_original": "Mushoku Tensei: Isekai Ittara Honki Dasu 2nd Season (Dublado)",
      "rating": 8.63,
      "classificacao_etaria": "A16",
      "imagem_original": "https://animefire.plus/img/animes/mushoku-tensei-isekai-ittara-honki-dasu-2nd-season.webp",
      "imagem_pasta": "https://animefire.plus/img/animes/mushoku-tensei-isekai-ittara-honki-dasu-2nd-season/",
      "secao": "dublados,legendados",
      "pagina": 14,
      "total_episodios": 12,
      "link_video": "https://animefire.plus/video/mushoku-tensei-isekai-ittara-honki-dasu-2nd-season-dublado"
    },
    {
      "id": 2631,
      "nome": "Muteki Kanban Musume",
      "link": "https://animefire.plus/animes/muteki-kanban-musume-todos-os-episodios",
      "texto_original": "Muteki Kanban Musume",
      "rating": 7.17,
      "classificacao_etaria": "A14",
      "imagem_original": "https://animefire.plus/img/animes/muteki-kanban-musume.webp",
      "imagem_pasta": "https://animefire.plus/img/animes/muteki-kanban-musume/",
      "secao": "legendados",
      "pagina": 170,
      "total_episodios": 12,
      "link_video": "https://animefire.plus/video/muteki-kanban-musume"
    },
    {
      "id": 2632,
      "nome": "Muteking the Dancing Hero",
      "link": "https://animefire.plus/animes/muteking-the-dancing-hero-todos-os-episodios",
      "texto_original": "Muteking the Dancing Hero",
      "rating": 5.84,
      "classificacao_etaria": "A14",
      "imagem_original": "https://animefire.plus/img/animes/muteking-the-dancing-hero.webp",
      "imagem_pasta": "https://animefire.plus/img/animes/muteking-the-dancing-hero/",
      "secao": "legendados",
      "pagina": 38,
      "total_episodios": 12,
      "link_video": "https://animefire.plus/video/muteking-the-dancing-hero"
    },
    {
      "id": 2634,
      "nome": "Muv-Luv Alternative",
      "link": "https://animefire.plus/animes/muv-luv-alternative-todos-os-episodios",
      "texto_original": "Muv-Luv Alternative",
      "rating": 5.83,
      "classificacao_etaria": "A18",
      "imagem_original": "https://animefire.plus/img/animes/muv-luv-alternative.webp",
      "imagem_pasta": "https://animefire.plus/img/animes/muv-luv-alternative/",
      "secao": "legendados",
      "pagina": 37,
      "total_episodios": 12,
      "link_video": "https://animefire.plus/video/muv-luv-alternative"
    },
    {
      "id": 2635,
      "nome": "Muv-Luv Alternative 2nd Season",
      "link": "https://animefire.plus/animes/muv-luv-alternative-2nd-season-todos-os-episodios",
      "texto_original": "Muv-Luv Alternative 2nd Season",
      "rating": 6.53,
      "classificacao_etaria": "A18",
      "imagem_original": "https://animefire.plus/img/animes/muv-luv-alternative-2nd-season.webp",
      "imagem_pasta": "https://animefire.plus/img/animes/muv-luv-alternative-2nd-season/",
      "secao": "legendados",
      "pagina": 28,
      "total_episodios": 12,
      "link_video": "https://animefire.plus/video/muv-luv-alternative-2nd-season"
    },
    {
      "id": 2639,
      "nome": "Na Nare Hana Nare",
      "link": "https://animefire.plus/animes/na-nare-hana-nare-todos-os-episodios",
      "texto_original": "Na Nare Hana Nare",
      "rating": 6.37,
      "classificacao_etaria": "A14",
      "imagem_original": "https://animefire.plus/img/animes/na-nare-hana-nare.webp",
      "imagem_pasta": "https://animefire.plus/img/animes/na-nare-hana-nare/",
      "secao": "legendados",
      "pagina": 11,
      "total_episodios": 12,
      "link_video": "https://animefire.plus/video/na-nare-hana-nare"
    },
    {
      "id": 2645,
      "nome": "Nagi no Asu kara",
      "link": "https://animefire.plus/animes/nagi-no-asu-kara-todos-os-episodios",
      "texto_original": "Nagi no Asu kara",
      "rating": 8.2,
      "classificacao_etaria": "A14",
      "imagem_original": "https://animefire.plus/img/animes/nagi-no-asu-kara.webp",
      "imagem_pasta": "https://animefire.plus/img/animes/nagi-no-asu-kara/",
      "secao": "legendados",
      "pagina": 136,
      "total_episodios": 5,
      "link_video": "https://animefire.plus/video/nagi-no-asu-kara"
    }
  ],
  "pagination": {
    "current_page": 66,
    "per_page": 20,
    "total_items": 2189,
    "total_pages": 110,
    "has_next": true,
    "has_prev": true
  }
}
