{
  "message": "Animes com 2 a 12 episódios",
  "episode_range": {
    "min": 2,
    "max": 12
  },
  "data": [
    {
      "id": 1697,
      "nome": "Iwa Kakeru!: Sport Climbing Girls",
      "link": "https://animefire.plus/animes/iwa-kakeru-sport-climbing-girls-todos-os-episodios",
      "texto_original": "Iwa Kakeru!: Sport Climbing Girls",
      "rating": null,
      "classificacao_etaria": "A14",
      "imagem_original": "https://animefire.plus/img/animes/iwa-kakeru-sport-climbing-girls.webp",
      "imagem_pasta": "https://animefire.plus/img/animes/iwa-kakeru-sport-climbing-girls/",
      "secao": "legendados",
      "pagina": 52,
      "total_episodios": 12,
      "link_video": "https://animefire.plus/video/iwa-kakeru-sport-climbing-girls"
    },
    {
      "id": 1699,
      "nome": "Iya na Kao sare nagara Opantsu Misete Moraitai",
      "link": "https://animefire.plus/animes/iya-na-kao-sare-nagara-opantsu-misete-moraitai-todos-os-episodios",
      "texto_original": "Iya na Kao sare nagara Opantsu Misete Moraitai",
      "rating": 5.79,
      "classificacao_etaria": "A14",
      "imagem_original": "https://animefire.plus/img/animes/iya-na-kao-sare-nagara-opantsu-misete-moraitai.webp",
      "imagem_pasta": "https://animefire.plus/img/animes/iya-na-kao-sare-nagara-opantsu-misete-moraitai/",
      "secao": "legendados",
      "pagina": 167,
      "total_episodios": 6,
      "link_video": "https://animefire.plus/video/iya-na-kao-sare-nagara-opantsu-misete-moraitai"
    },
    {
      "id": 1700,
      "nome": "Iya na Kao sare nagara Opantsu Misete Moraitai 2",
      "link": "https://animefire.plus/animes/iya-na-kao-sare-nagara-opantsu-misete-moraitai-2-todos-os-episodios",
      "texto_original": "Iya na Kao sare nagara Opantsu Misete Moraitai 2",
      "rating": 6.01,
      "classificacao_etaria": "A14",
      "imagem_original": "https://animefire.plus/img/animes/iya-na-kao-sare-nagara-opantsu-misete-moraitai-2.webp",
      "imagem_pasta": "https://animefire.plus/img/animes/iya-na-kao-sare-nagara-opantsu-misete-moraitai-2/",
      "secao": "legendados",
      "pagina": 89,
      "total_episodios": 6,
      "link_video": "https://animefire.plus/video/iya-na-kao-sare-nagara-opantsu-misete-moraitai-2"
    },
    {
      "id": 1701,
      "nome": "Izumo: Takeki Tsurugi no Senki",
      "link": "https://animefire.plus/animes/izumo-takeki-tsurugi-no-senki-todos-os-episodios",
      "texto_original": "Izumo: Takeki Tsurugi no Senki",
      "rating": 6.3,
      "classificacao_etaria": "A14",
      "imagem_original": "https://animefire.plus/img/animes/izumo-takeki-tsurugi-no-senki.webp",
      "imagem_pasta": "https://animefire.plus/img/animes/izumo-takeki-tsurugi-no-senki/",
      "secao": "legendados",
      "pagina": 160,
      "total_episodios": 12,
      "link_video": "https://animefire.plus/video/izumo-takeki-tsurugi-no-senki"
    },
    {
      "id": 1702,
      "nome": "Izure Saikyou no Renkinjutsushi? (Dublado)",
      "link": "https://animefire.plus/animes/izure-saikyou-no-renkinjutsushi-dublado-todos-os-episodios",
      "texto_original": "Izure Saikyou no Renkinjutsushi? (Dublado)",
      "rating": 6.61,
      "classificacao_etaria": "A14",
      "imagem_original": "https://animefire.plus/img/animes/izure-saikyou-no-renkinjutsushi.webp",
      "imagem_pasta": "https://animefire.plus/img/animes/izure-saikyou-no-renkinjutsushi/",
      "secao": "dublados,legendados,lancamentos",
      "pagina": 1,
      "total_episodios": 12,
      "link_video": "https://animefire.plus/video/izure-saikyou-no-renkinjutsushi-dublado"
    },
    {
      "id": 1707,
      "nome": "Jashin-chan Dropkick",
      "link": "https://animefire.plus/animes/jashin-chan-dropkick-todos-os-episodios",
      "texto_original": "Jashin-chan Dropkick",
      "rating": 6.91,
      "classificacao_etaria": "A14",
      "imagem_original": "https://animefire.plus/img/animes/jashin-chan-dropkick.webp",
      "imagem_pasta": "https://animefire.plus/img/animes/jashin-chan-dropkick/",
      "secao": "legendados",
      "pagina": 126,
      "total_episodios": 12,
      "link_video": "https://animefire.plus/video/jashin-chan-dropkick"
    },
    {
      "id": 1708,
      "nome": "Jashin-chan Dropkick 2nd Season",
      "link": "https://animefire.plus/animes/jashin-chan-dropkick-2nd-season-todos-os-episodios",
      "texto_original": "Jashin-chan Dropkick 2nd Season",
      "rating": 7.42,
      "classificacao_etaria": "A14",
      "imagem_original": "https://animefire.plus/img/animes/jashin-chan-dropkick-2nd-season.webp",
      "imagem_pasta": "https://animefire.plus/img/animes/jashin-chan-dropkick-2nd-season/",
      "secao": "legendados",
      "pagina": 81,
      "total_episodios": 12,
      "link_video": "https://animefire.plus/video/jashin-chan-dropkick-2nd-season"
    },
    {
      "id": 1710,
      "nome": "Jashin-chan Dropkick X",
      "link": "https://animefire.plus/animes/jashin-chan-dropkick-x-todos-os-episodios",
      "texto_original": "Jashin-chan Dropkick X",
      "rating": 7.42,
      "classificacao_etaria": "A14",
      "imagem_original": "https://animefire.plus/img/animes/jashin-chan-dropkick-x.webp",
      "imagem_pasta": "https://animefire.plus/img/animes/jashin-chan-dropkick-x/",
      "secao": "legendados",
      "pagina": 31,
      "total_episodios": 12,
      "link_video": "https://animefire.plus/video/jashin-chan-dropkick-x"
    },
    {
      "id": 1711,
      "nome": "Ji Yao Lu: Qicheng Pian",
      "link": "https://animefire.plus/animes/ji-yao-lu-qicheng-pian-todos-os-episodios",
      "texto_original": "Ji Yao Lu: Qicheng Pian",
      "rating": 6.41,
      "classificacao_etaria": "A14",
      "imagem_original": "https://animefire.plus/img/animes/ji-yao-lu-qicheng-pian.webp",
      "imagem_pasta": "https://animefire.plus/img/animes/ji-yao-lu-qicheng-pian/",
      "secao": "legendados",
      "pagina": 8,
      "total_episodios": 12,
      "link_video": "https://animefire.plus/video/ji-yao-lu-qicheng-pian"
    },
    {
      "id": 1712,
      "nome": "Jian Wangchao",
      "link": "https://animefire.plus/animes/jian-wangchao-todos-os-episodios",
      "texto_original": "Jian Wangchao",
      "rating": 6.01,
      "classificacao_etaria": "A14",
      "imagem_original": "https://animefire.plus/img/animes/jian-wangchao.webp",
      "imagem_pasta": "https://animefire.plus/img/animes/jian-wangchao/",
      "secao": "legendados",
      "pagina": 61,
      "total_episodios": 7,
      "link_video": "https://animefire.plus/video/jian-wangchao"
    },
    {
      "id": 1713,
      "nome": "Jibaku Shounen Hanako-kun (Dublado)",
      "link": "https://animefire.plus/animes/jibaku-shounen-hanako-kun-dublado-todos-os-episodios",
      "texto_original": "Jibaku Shounen Hanako-kun (Dublado)",
      "rating": 7.83,
      "classificacao_etaria": "A14",
      "imagem_original": "https://animefire.plus/img/animes/jibaku-shounen-hanako-kun.webp",
      "imagem_pasta": "https://animefire.plus/img/animes/jibaku-shounen-hanako-kun/",
      "secao": "dublados,legendados",
      "pagina": 15,
      "total_episodios": 12,
      "link_video": "https://animefire.plus/video/jibaku-shounen-hanako-kun-dublado"
    },
    {
      "id": 1714,
      "nome": "Jibaku Shounen Hanako-kun 2",
      "link": "https://animefire.plus/animes/jibaku-shounen-hanako-kun-2-todos-os-episodios",
      "texto_original": "Jibaku Shounen Hanako-kun 2",
      "rating": 7.9,
      "classificacao_etaria": "A14",
      "imagem_original": "https://animefire.plus/img/animes/jibaku-shounen-hanako-kun-2.webp",
      "imagem_pasta": "https://animefire.plus/img/animes/jibaku-shounen-hanako-kun-2/",
      "secao": "legendados",
      "pagina": 8,
      "total_episodios": 12,
      "link_video": "https://animefire.plus/video/jibaku-shounen-hanako-kun-2"
    },
    {
      "id": 1715,
      "nome": "Jibaku Shounen Hanako-kun 2 Part 2",
      "link": "https://animefire.plus/animes/jibaku-shounen-hanako-kun-2-part-2-todos-os-episodios",
      "texto_original": "Jibaku Shounen Hanako-kun 2 Part 2",
      "rating": 7.92,
      "classificacao_etaria": "A14",
      "imagem_original": "https://animefire.plus/img/animes/jibaku-shounen-hanako-kun-2-part-2.webp",
      "imagem_pasta": "https://animefire.plus/img/animes/jibaku-shounen-hanako-kun-2-part-2/",
      "secao": "legendados,lancamentos",
      "pagina": 2,
      "total_episodios": 5,
      "link_video": "https://animefire.plus/video/jibaku-shounen-hanako-kun-2-part-2"
    },
    {
      "id": 1717,
      "nome": "Jidou Hanbaiki ni Umarekawatta Ore wa Meikyuu wo Samayou (Dublado)",
      "link": "https://animefire.plus/animes/jidou-hanbaiki-ni-umarekawatta-ore-wa-meikyuu-wo-samayou-dublado-todos-os-episodios",
      "texto_original": "Jidou Hanbaiki ni Umarekawatta Ore wa Meikyuu wo Samayou (Dublado)",
      "rating": 6.45,
      "classificacao_etaria": "A14",
      "imagem_original": "https://animefire.plus/img/animes/jidou-hanbaiki-ni-umarekawatta-ore-wa-meikyuu-wo-samayou.webp",
      "imagem_pasta": "https://animefire.plus/img/animes/jidou-hanbaiki-ni-umarekawatta-ore-wa-meikyuu-wo-samayou/",
      "secao": "dublados,legendados",
      "pagina": 6,
      "total_episodios": 12,
      "link_video": "https://animefire.plus/video/jidou-hanbaiki-ni-umarekawatta-ore-wa-meikyuu-wo-samayou-dublado"
    },
    {
      "id": 1718,
      "nome": "Jidou Hanbaiki ni Umarekawatta Ore wa Meikyuu wo Samayou 2nd Season",
      "link": "https://animefire.plus/animes/jidou-hanbaiki-ni-umarekawatta-ore-wa-meikyuu-wo-samayou-2nd-season-todos-os-episodios",
      "texto_original": "Jidou Hanbaiki ni Umarekawatta Ore wa Meikyuu wo Samayou 2nd Season",
      "rating": 6.61,
      "classificacao_etaria": "A14",
      "imagem_original": "https://animefire.plus/img/animes/jidou-hanbaiki-ni-umarekawatta-ore-wa-meikyuu-wo-samayou-2nd-season.webp",
      "imagem_pasta": "https://animefire.plus/img/animes/jidou-hanbaiki-ni-umarekawatta-ore-wa-meikyuu-wo-samayou-2nd-season/",
      "secao": "legendados,lancamentos",
      "pagina": 1,
      "total_episodios": 5,
      "link_video": "https://animefire.plus/video/jidou-hanbaiki-ni-umarekawatta-ore-wa-meikyuu-wo-samayou-2nd-season"
    },
    {
      "id": 1722,
      "nome": "Jigoku Sensei Nube (2025)",
      "link": "https://animefire.plus/animes/jigoku-sensei-nube-2025-todos-os-episodios",
      "texto_original": "Jigoku Sensei Nube (2025)",
      "rating": 6.69,
      "classificacao_etaria": "A14",
      "imagem_original": "https://animefire.plus/img/animes/jigoku-sensei-nube-2025.webp",
      "imagem_pasta": "https://animefire.plus/img/animes/jigoku-sensei-nube-2025/",
      "secao": "legendados,lancamentos",
      "pagina": 2,
      "total_episodios": 2,
      "link_video": "https://animefire.plus/video/jigoku-sensei-nube-2025"
    },
    {
      "id": 1726,
      "nome": "Jigoku Shoujo: Yoi no Togi",
      "link": "https://animefire.plus/animes/jigoku-shoujo-yoi-no-togi-todos-os-episodios",
      "texto_original": "Jigoku Shoujo: Yoi no Togi",
      "rating": 6.61,
      "classificacao_etaria": "A16",
      "imagem_original": "https://animefire.plus/img/animes/jigoku-shoujo-yoi-no-togi.webp",
      "imagem_pasta": "https://animefire.plus/img/animes/jigoku-shoujo-yoi-no-togi/",
      "secao": "legendados",
      "pagina": 126,
      "total_episodios": 12,
      "link_video": "https://animefire.plus/video/jigoku-shoujo-yoi-no-togi"
    },
    {
      "id": 1728,
      "nome": "Jiisan Baasan Wakagaeru",
      "link": "https://animefire.plus/animes/jiisan-baasan-wakagaeru-todos-os-episodios",
      "texto_original": "Jiisan Baasan Wakagaeru",
      "rating": 7.46,
      "classificacao_etaria": "A14",
      "imagem_original": "https://animefire.plus/img/animes/jiisan-baasan-wakagaeru.webp",
      "imagem_pasta": "https://animefire.plus/img/animes/jiisan-baasan-wakagaeru/",
      "secao": "legendados",
      "pagina": 15,
      "total_episodios": 11,
      "link_video": "https://animefire.plus/video/jiisan-baasan-wakagaeru"
    },
    {
      "id": 1733,
      "nome": "Jingai-san no Yome",
      "link": "https://animefire.plus/animes/jingai-san-no-yome-todos-os-episodios",
      "texto_original": "Jingai-san no Yome",
      "rating": 5.64,
      "classificacao_etaria": "A14",
      "imagem_original": "https://animefire.plus/img/animes/jingai-san-no-yome.webp",
      "imagem_pasta": "https://animefire.plus/img/animes/jingai-san-no-yome/",
      "secao": "legendados",
      "pagina": 123,
      "total_episodios": 12,
      "link_video": "https://animefire.plus/video/jingai-san-no-yome"
    },
    {
      "id": 1734,
      "nome": "Jinki:Extend",
      "link": "https://animefire.plus/animes/jinki-extend-todos-os-episodios",
      "texto_original": "Jinki:Extend",
      "rating": 6.2,
      "classificacao_etaria": "A16",
      "imagem_original": "https://animefire.plus/img/animes/jinki-extend.webp",
      "imagem_pasta": "https://animefire.plus/img/animes/jinki-extend/",
      "secao": "legendados",
      "pagina": 125,
      "total_episodios": 12,
      "link_video": "https://animefire.plus/video/jinki-extend"
    }
  ],
  "pagination": {
    "current_page": 43,
    "per_page": 20,
    "total_items": 2189,
    "total_pages": 110,
    "has_next": true,
    "has_prev": true
  }
}
