{
  "message": "Animes com 2 a 12 episódios",
  "episode_range": {
    "min": 2,
    "max": 12
  },
  "data": [
    {
      "id": 3859,
      "nome": "Toaru Kagaku no Accelerator",
      "link": "https://animefire.plus/animes/toaru-kagaku-no-accelerator-todos-os-episodios",
      "texto_original": "Toaru Kagaku no Accelerator",
      "rating": 7.18,
      "classificacao_etaria": "A16",
      "imagem_original": "https://animefire.plus/img/animes/toaru-kagaku-no-accelerator.webp",
      "imagem_pasta": "https://animefire.plus/img/animes/toaru-kagaku-no-accelerator/",
      "secao": "legendados",
      "pagina": 176,
      "total_episodios": 2,
      "link_video": "https://animefire.plus/video/toaru-kagaku-no-accelerator"
    },
    {
      "id": 3863,
      "nome": "Toaru Kagaku no Railgun S: Motto Marutto Railgun",
      "link": "https://animefire.plus/animes/toaru-kagaku-no-railgun-s-motto-marutto-railgun-todos-os-episodios",
      "texto_original": "Toaru Kagaku no Railgun S: Motto Marutto Railgun",
      "rating": 7.07,
      "classificacao_etaria": "A14",
      "imagem_original": "https://animefire.plus/img/animes/toaru-kagaku-no-railgun-s-motto-marutto-railgun.webp",
      "imagem_pasta": "https://animefire.plus/img/animes/toaru-kagaku-no-railgun-s-motto-marutto-railgun/",
      "secao": "legendados",
      "pagina": 68,
      "total_episodios": 2,
      "link_video": "https://animefire.plus/video/toaru-kagaku-no-railgun-s-motto-marutto-railgun"
    },
    {
      "id": 3869,
      "nome": "Toaru Majutsu no Index-tan II",
      "link": "https://animefire.plus/animes/toaru-majutsu-no-index-tan-ii-todos-os-episodios",
      "texto_original": "Toaru Majutsu no Index-tan II",
      "rating": 6.99,
      "classificacao_etaria": "A14",
      "imagem_original": "https://animefire.plus/img/animes/toaru-majutsu-no-index-tan-ii.webp",
      "imagem_pasta": "https://animefire.plus/img/animes/toaru-majutsu-no-index-tan-ii/",
      "secao": "legendados",
      "pagina": 78,
      "total_episodios": 2,
      "link_video": "https://animefire.plus/video/toaru-majutsu-no-index-tan-ii"
    },
    {
      "id": 3871,
      "nome": "Toaru Ossan no VRMMO Katsudouki",
      "link": "https://animefire.plus/animes/toaru-ossan-no-vrmmo-katsudouki-todos-os-episodios",
      "texto_original": "Toaru Ossan no VRMMO Katsudouki",
      "rating": 6.39,
      "classificacao_etaria": "A14",
      "imagem_original": "https://animefire.plus/img/animes/toaru-ossan-no-vrmmo-katsudouki.webp",
      "imagem_pasta": "https://animefire.plus/img/animes/toaru-ossan-no-vrmmo-katsudouki/",
      "secao": "legendados",
      "pagina": 20,
      "total_episodios": 12,
      "link_video": "https://animefire.plus/video/toaru-ossan-no-vrmmo-katsudouki"
    },
    {
      "id": 3872,
      "nome": "Togainu no Chi",
      "link": "https://animefire.plus/animes/togainu-no-chi-todos-os-episodios",
      "texto_original": "Togainu no Chi",
      "rating": 6.38,
      "classificacao_etaria": "A16",
      "imagem_original": "https://animefire.plus/img/animes/togainu-no-chi.webp",
      "imagem_pasta": "https://animefire.plus/img/animes/togainu-no-chi/",
      "secao": "legendados",
      "pagina": 175,
      "total_episodios": 12,
      "link_video": "https://animefire.plus/video/togainu-no-chi"
    },
    {
      "id": 3874,
      "nome": "Toji no Miko: Kizamishi Issen no Tomoshibi OVA",
      "link": "https://animefire.plus/animes/toji-no-miko-kizamishi-issen-no-tomoshibi-ova-todos-os-episodios",
      "texto_original": "Toji no Miko: Kizamishi Issen no Tomoshibi OVA",
      "rating": 6.61,
      "classificacao_etaria": "A14",
      "imagem_original": "https://animefire.plus/img/animes/toji-no-miko-kizamishi-issen-no-tomoshibi-ova.webp",
      "imagem_pasta": "https://animefire.plus/img/animes/toji-no-miko-kizamishi-issen-no-tomoshibi-ova/",
      "secao": "legendados",
      "pagina": 50,
      "total_episodios": 2,
      "link_video": "https://animefire.plus/video/toji-no-miko-kizamishi-issen-no-tomoshibi-ova"
    },
    {
      "id": 3876,
      "nome": "Tokidoki Bosotto Russia-go de Dereru Tonari no Alya-san",
      "link": "https://animefire.plus/animes/tokidoki-bosotto-russia-go-de-dereru-tonari-no-alya-san-todos-os-episodios",
      "texto_original": "Tokidoki Bosotto Russia-go de Dereru Tonari no Alya-san",
      "rating": 7.57,
      "classificacao_etaria": "A14",
      "imagem_original": "https://animefire.plus/img/animes/tokidoki-bosotto-russia-go-de-dereru-tonari-no-alya-san.webp",
      "imagem_pasta": "https://animefire.plus/img/animes/tokidoki-bosotto-russia-go-de-dereru-tonari-no-alya-san/",
      "secao": "legendados",
      "pagina": 13,
      "total_episodios": 12,
      "link_video": "https://animefire.plus/video/tokidoki-bosotto-russia-go-de-dereru-tonari-no-alya-san"
    },
    {
      "id": 3880,
      "nome": "Tokyo 24-ku",
      "link": "https://animefire.plus/animes/tokyo-24-ku-todos-os-episodios",
      "texto_original": "Tokyo 24-ku",
      "rating": 6.34,
      "classificacao_etaria": "A14",
      "imagem_original": "https://animefire.plus/img/animes/tokyo-24-ku.webp",
      "imagem_pasta": "https://animefire.plus/img/animes/tokyo-24-ku/",
      "secao": "legendados",
      "pagina": 35,
      "total_episodios": 12,
      "link_video": "https://animefire.plus/video/tokyo-24-ku"
    },
    {
      "id": 3881,
      "nome": "Tokyo Ghoul (Dublado)",
      "link": "https://animefire.plus/animes/tokyo-ghoul-dublado-todos-os-episodios",
      "texto_original": "Tokyo Ghoul (Dublado)",
      "rating": 7.82,
      "classificacao_etaria": "A16",
      "imagem_original": "https://animefire.plus/img/animes/tokyo-ghoul.webp",
      "imagem_pasta": "https://animefire.plus/img/animes/tokyo-ghoul/",
      "secao": "dublados,legendados",
      "pagina": 19,
      "total_episodios": 12,
      "link_video": "https://animefire.plus/video/tokyo-ghoul-dublado"
    },
    {
      "id": 3882,
      "nome": "Tokyo Ghoul √A (Dublado)",
      "link": "https://animefire.plus/animes/tokyo-ghoul-a-dublado-todos-os-episodios",
      "texto_original": "Tokyo Ghoul √A (Dublado)",
      "rating": 7.1,
      "classificacao_etaria": "A16",
      "imagem_original": "https://animefire.plus/img/animes/tokyo-ghoul-a.webp",
      "imagem_pasta": "https://animefire.plus/img/animes/tokyo-ghoul-a/",
      "secao": "dublados,legendados",
      "pagina": 19,
      "total_episodios": 12,
      "link_video": "https://animefire.plus/video/tokyo-ghoul-a-dublado"
    },
    {
      "id": 3885,
      "nome": "Tokyo Ghoul:re (Dublado)",
      "link": "https://animefire.plus/animes/tokyo-ghoul-re-dublado-todos-os-episodios",
      "texto_original": "Tokyo Ghoul:re (Dublado)",
      "rating": 6.59,
      "classificacao_etaria": "A16",
      "imagem_original": "https://animefire.plus/img/animes/tokyo-ghoul-re.webp",
      "imagem_pasta": "https://animefire.plus/img/animes/tokyo-ghoul-re/",
      "secao": "dublados,legendados",
      "pagina": 19,
      "total_episodios": 12,
      "link_video": "https://animefire.plus/video/tokyo-ghoul-re-dublado"
    },
    {
      "id": 3886,
      "nome": "Tokyo Ghoul:re 2nd Season (Dublado)",
      "link": "https://animefire.plus/animes/tokyo-ghoul-re-2nd-season-dublado-todos-os-episodios",
      "texto_original": "Tokyo Ghoul:re 2nd Season (Dublado)",
      "rating": 6.33,
      "classificacao_etaria": "A16",
      "imagem_original": "https://animefire.plus/img/animes/tokyo-ghoul-re-2nd-season.webp",
      "imagem_pasta": "https://animefire.plus/img/animes/tokyo-ghoul-re-2nd-season/",
      "secao": "dublados,legendados",
      "pagina": 19,
      "total_episodios": 12,
      "link_video": "https://animefire.plus/video/tokyo-ghoul-re-2nd-season-dublado"
    },
    {
      "id": 3887,
      "nome": "Tokyo Magnitude 8.0",
      "link": "https://animefire.plus/animes/tokyo-magnitude-8-0-todos-os-episodios",
      "texto_original": "Tokyo Magnitude 8.0",
      "rating": 8.13,
      "classificacao_etaria": "A14",
      "imagem_original": "https://animefire.plus/img/animes/tokyo-magnitude-8-0.webp",
      "imagem_pasta": "https://animefire.plus/img/animes/tokyo-magnitude-8-0/",
      "secao": "legendados",
      "pagina": 172,
      "total_episodios": 11,
      "link_video": "https://animefire.plus/video/tokyo-magnitude-8-0"
    },
    {
      "id": 3889,
      "nome": "Tokyo Majin Gakuen Kenpucho: Tou Dai Ni Maku",
      "link": "https://animefire.plus/animes/tokyo-majin-gakuen-kenpucho-tou-dai-ni-maku-todos-os-episodios",
      "texto_original": "Tokyo Majin Gakuen Kenpucho: Tou Dai Ni Maku",
      "rating": 7.34,
      "classificacao_etaria": "A16",
      "imagem_original": "https://animefire.plus/img/animes/tokyo-majin-gakuen-kenpucho-tou-dai-ni-maku.webp",
      "imagem_pasta": "https://animefire.plus/img/animes/tokyo-majin-gakuen-kenpucho-tou-dai-ni-maku/",
      "secao": "legendados",
      "pagina": 97,
      "total_episodios": 12,
      "link_video": "https://animefire.plus/video/tokyo-majin-gakuen-kenpucho-tou-dai-ni-maku"
    },
    {
      "id": 3890,
      "nome": "Tokyo Marble Chocolate",
      "link": "https://animefire.plus/animes/tokyo-marble-chocolate-todos-os-episodios",
      "texto_original": "Tokyo Marble Chocolate",
      "rating": 7.24,
      "classificacao_etaria": "A14",
      "imagem_original": "https://animefire.plus/img/animes/tokyo-marble-chocolate.webp",
      "imagem_pasta": "https://animefire.plus/img/animes/tokyo-marble-chocolate/",
      "secao": "legendados",
      "pagina": 63,
      "total_episodios": 2,
      "link_video": "https://animefire.plus/video/tokyo-marble-chocolate"
    },
    {
      "id": 3892,
      "nome": "Tokyo Mew Mew New ♡",
      "link": "https://animefire.plus/animes/tokyo-mew-mew-new-todos-os-episodios",
      "texto_original": "Tokyo Mew Mew New ♡",
      "rating": 6.61,
      "classificacao_etaria": "A14",
      "imagem_original": "https://animefire.plus/img/animes/tokyo-mew-mew-new.webp",
      "imagem_pasta": "https://animefire.plus/img/animes/tokyo-mew-mew-new/",
      "secao": "legendados",
      "pagina": 31,
      "total_episodios": 12,
      "link_video": "https://animefire.plus/video/tokyo-mew-mew-new"
    },
    {
      "id": 3893,
      "nome": "Tokyo Ravens",
      "link": "https://animefire.plus/animes/tokyo-ravens-todos-os-episodios",
      "texto_original": "Tokyo Ravens",
      "rating": 7.68,
      "classificacao_etaria": "A14",
      "imagem_original": "https://animefire.plus/img/animes/tokyo-ravens.webp",
      "imagem_pasta": "https://animefire.plus/img/animes/tokyo-ravens/",
      "secao": "legendados",
      "pagina": 127,
      "total_episodios": 5,
      "link_video": "https://animefire.plus/video/tokyo-ravens"
    },
    {
      "id": 3895,
      "nome": "Tokyo Revengers: Seiya Kessen-hen (Dublado)",
      "link": "https://animefire.plus/animes/tokyo-revengers-seiya-kessen-hen-dublado-todos-os-episodios",
      "texto_original": "Tokyo Revengers: Seiya Kessen-hen (Dublado)",
      "rating": 7.63,
      "classificacao_etaria": "A16",
      "imagem_original": "https://animefire.plus/img/animes/tokyo-revengers-seiya-kessen-hen.webp",
      "imagem_pasta": "https://animefire.plus/img/animes/tokyo-revengers-seiya-kessen-hen/",
      "secao": "dublados,legendados,lancamentos",
      "pagina": 7,
      "total_episodios": 12,
      "link_video": "https://animefire.plus/video/tokyo-revengers-seiya-kessen-hen-dublado"
    },
    {
      "id": 3900,
      "nome": "Tomodachi Game",
      "link": "https://animefire.plus/animes/tomodachi-game-todos-os-episodios",
      "texto_original": "Tomodachi Game",
      "rating": 7.71,
      "classificacao_etaria": "A16",
      "imagem_original": "https://animefire.plus/img/animes/tomodachi-game.webp",
      "imagem_pasta": "https://animefire.plus/img/animes/tomodachi-game/",
      "secao": "legendados",
      "pagina": 34,
      "total_episodios": 12,
      "link_video": "https://animefire.plus/video/tomodachi-game"
    },
    {
      "id": 3903,
      "nome": "Tonari no Kyuuketsuki-san",
      "link": "https://animefire.plus/animes/tonari-no-kyuuketsuki-san-todos-os-episodios",
      "texto_original": "Tonari no Kyuuketsuki-san",
      "rating": 7.18,
      "classificacao_etaria": "A14",
      "imagem_original": "https://animefire.plus/img/animes/tonari-no-kyuuketsuki-san.webp",
      "imagem_pasta": "https://animefire.plus/img/animes/tonari-no-kyuuketsuki-san/",
      "secao": "legendados",
      "pagina": 136,
      "total_episodios": 12,
      "link_video": "https://animefire.plus/video/tonari-no-kyuuketsuki-san"
    }
  ],
  "pagination": {
    "current_page": 98,
    "per_page": 20,
    "total_items": 2189,
    "total_pages": 110,
    "has_next": true,
    "has_prev": true
  }
}
