{
  "message": "Animes com 2 a 12 episódios",
  "episode_range": {
    "min": 2,
    "max": 12
  },
  "data": [
    {
      "id": 1970,
      "nome": "Kikoushi Enma",
      "link": "https://animefire.plus/animes/kikoushi-enma-todos-os-episodios",
      "texto_original": "Kikoushi Enma",
      "rating": 7.16,
      "classificacao_etaria": "A18",
      "imagem_original": "https://animefire.plus/img/animes/kikoushi-enma.webp",
      "imagem_pasta": "https://animefire.plus/img/animes/kikoushi-enma/",
      "secao": "legendados",
      "pagina": 66,
      "total_episodios": 4,
      "link_video": "https://animefire.plus/video/kikoushi-enma"
    },
    {
      "id": 1973,
      "nome": "Killing Bites",
      "link": "https://animefire.plus/animes/killing-bites-todos-os-episodios",
      "texto_original": "Killing Bites",
      "rating": 6.79,
      "classificacao_etaria": "A18",
      "imagem_original": "https://animefire.plus/img/animes/killing-bites.webp",
      "imagem_pasta": "https://animefire.plus/img/animes/killing-bites/",
      "secao": "legendados",
      "pagina": 109,
      "total_episodios": 12,
      "link_video": "https://animefire.plus/video/killing-bites"
    },
    {
      "id": 1975,
      "nome": "Kimetsu Gakuen: Valentine-hen",
      "link": "https://animefire.plus/animes/kimetsu-gakuen-valentine-hen-todos-os-episodios",
      "texto_original": "Kimetsu Gakuen: Valentine-hen",
      "rating": 6.68,
      "classificacao_etaria": "A14",
      "imagem_original": "https://animefire.plus/img/animes/kimetsu-gakuen-valentine-hen.webp",
      "imagem_pasta": "https://animefire.plus/img/animes/kimetsu-gakuen-valentine-hen/",
      "secao": "legendados",
      "pagina": 46,
      "total_episodios": 4,
      "link_video": "https://animefire.plus/video/kimetsu-gakuen-valentine-hen"
    },
    {
      "id": 1977,
      "nome": "Kimetsu no Yaiba: Hashira Geiko-hen",
      "link": "https://animefire.plus/animes/kimetsu-no-yaiba-hashira-geiko-hen-todos-os-episodios",
      "texto_original": "Kimetsu no Yaiba: Hashira Geiko-hen",
      "rating": null,
      "classificacao_etaria": "A16",
      "imagem_original": "https://animefire.plus/img/animes/kimetsu-no-yaiba-hashira-geiko-hen.webp",
      "imagem_pasta": "https://animefire.plus/img/animes/kimetsu-no-yaiba-hashira-geiko-hen/",
      "secao": "legendados",
      "pagina": 19,
      "total_episodios": 8,
      "link_video": "https://animefire.plus/video/kimetsu-no-yaiba-hashira-geiko-hen"
    },
    {
      "id": 1978,
      "nome": "Kimetsu no Yaiba: Katanakaji no Sato-hen (Dublado)",
      "link": "https://animefire.plus/animes/kimetsu-no-yaiba-katanakaji-no-sato-hen-dublado-todos-os-episodios",
      "texto_original": "Kimetsu no Yaiba: Katanakaji no Sato-hen (Dublado)",
      "rating": 8.18,
      "classificacao_etaria": "A16",
      "imagem_original": "https://animefire.plus/img/animes/kimetsu-no-yaiba-katanakaji-no-sato-hen.webp",
      "imagem_pasta": "https://animefire.plus/img/animes/kimetsu-no-yaiba-katanakaji-no-sato-hen/",
      "secao": "dublados,legendados",
      "pagina": 5,
      "total_episodios": 11,
      "link_video": "https://animefire.plus/video/kimetsu-no-yaiba-katanakaji-no-sato-hen-dublado"
    },
    {
      "id": 1979,
      "nome": "Kimetsu no Yaiba: Mugen Ressha-hen (Dublado)",
      "link": "https://animefire.plus/animes/kimetsu-no-yaiba-mugen-ressha-hen-dublado-todos-os-episodios",
      "texto_original": "Kimetsu no Yaiba: Mugen Ressha-hen (Dublado)",
      "rating": 8.35,
      "classificacao_etaria": "A16",
      "imagem_original": "https://animefire.plus/img/animes/kimetsu-no-yaiba-mugen-ressha-hen.webp",
      "imagem_pasta": "https://animefire.plus/img/animes/kimetsu-no-yaiba-mugen-ressha-hen/",
      "secao": "dublados,legendados",
      "pagina": 10,
      "total_episodios": 7,
      "link_video": "https://animefire.plus/video/kimetsu-no-yaiba-mugen-ressha-hen-dublado"
    },
    {
      "id": 1980,
      "nome": "Kimetsu no Yaiba: Yuukaku-hen (Dublado)",
      "link": "https://animefire.plus/animes/kimetsu-no-yaiba-yuukaku-hen-dublado-todos-os-episodios",
      "texto_original": "Kimetsu no Yaiba: Yuukaku-hen (Dublado)",
      "rating": 8.71,
      "classificacao_etaria": "A16",
      "imagem_original": "https://animefire.plus/img/animes/kimetsu-no-yaiba-yuukaku-hen.webp",
      "imagem_pasta": "https://animefire.plus/img/animes/kimetsu-no-yaiba-yuukaku-hen/",
      "secao": "dublados,legendados",
      "pagina": 13,
      "total_episodios": 11,
      "link_video": "https://animefire.plus/video/kimetsu-no-yaiba-yuukaku-hen-dublado"
    },
    {
      "id": 1985,
      "nome": "Kimi ni Todoke 2nd Season: Minitodo Gekijou",
      "link": "https://animefire.plus/animes/kimi-ni-todoke-2nd-season-minitodo-gekijou-todos-os-episodios",
      "texto_original": "Kimi ni Todoke 2nd Season: Minitodo Gekijou",
      "rating": 7.34,
      "classificacao_etaria": "A14",
      "imagem_original": "https://animefire.plus/img/animes/kimi-ni-todoke-2nd-season-minitodo-gekijou.webp",
      "imagem_pasta": "https://animefire.plus/img/animes/kimi-ni-todoke-2nd-season-minitodo-gekijou/",
      "secao": "legendados",
      "pagina": 83,
      "total_episodios": 4,
      "link_video": "https://animefire.plus/video/kimi-ni-todoke-2nd-season-minitodo-gekijou"
    },
    {
      "id": 1986,
      "nome": "Kimi no Iru Machi",
      "link": "https://animefire.plus/animes/kimi-no-iru-machi-todos-os-episodios",
      "texto_original": "Kimi no Iru Machi",
      "rating": 7.08,
      "classificacao_etaria": "A18",
      "imagem_original": "https://animefire.plus/img/animes/kimi-no-iru-machi.webp",
      "imagem_pasta": "https://animefire.plus/img/animes/kimi-no-iru-machi/",
      "secao": "legendados",
      "pagina": 155,
      "total_episodios": 12,
      "link_video": "https://animefire.plus/video/kimi-no-iru-machi"
    },
    {
      "id": 1987,
      "nome": "Kimi no Koto ga Daidaidaidaidaisuki na 100-nin no Kanojo",
      "link": "https://animefire.plus/animes/kimi-no-koto-ga-daidaidaidaidaisuki-na-100-nin-no-kanojo-todos-os-episodios",
      "texto_original": "Kimi no Koto ga Daidaidaidaidaisuki na 100-nin no Kanojo",
      "rating": 7.7,
      "classificacao_etaria": "A14",
      "imagem_original": "https://animefire.plus/img/animes/kimi-no-koto-ga-daidaidaidaidaisuki-na-100-nin-no-kanojo.webp",
      "imagem_pasta": "https://animefire.plus/img/animes/kimi-no-koto-ga-daidaidaidaidaisuki-na-100-nin-no-kanojo/",
      "secao": "legendados",
      "pagina": 19,
      "total_episodios": 12,
      "link_video": "https://animefire.plus/video/kimi-no-koto-ga-daidaidaidaidaisuki-na-100-nin-no-kanojo"
    },
    {
      "id": 1988,
      "nome": "Kimi no Koto ga Daidaidaidaidaisuki na 100-nin no Kanojo 2nd Season",
      "link": "https://animefire.plus/animes/kimi-no-koto-ga-daidaidaidaidaisuki-na-100-nin-no-kanojo-2nd-season-todos-os-episodios",
      "texto_original": "Kimi no Koto ga Daidaidaidaidaisuki na 100-nin no Kanojo 2nd Season",
      "rating": 7.94,
      "classificacao_etaria": "A14",
      "imagem_original": "https://animefire.plus/img/animes/kimi-no-koto-ga-daidaidaidaidaisuki-na-100-nin-no-kanojo-2nd-season.webp",
      "imagem_pasta": "https://animefire.plus/img/animes/kimi-no-koto-ga-daidaidaidaidaisuki-na-100-nin-no-kanojo-2nd-season/",
      "secao": "legendados",
      "pagina": 8,
      "total_episodios": 12,
      "link_video": "https://animefire.plus/video/kimi-no-koto-ga-daidaidaidaidaisuki-na-100-nin-no-kanojo-2nd-season"
    },
    {
      "id": 1989,
      "nome": "Kimi to Boku no Saigo no Senjou, Aruiwa Sekai ga Hajimaru Seisen (Dublado)",
      "link": "https://animefire.plus/animes/kimi-to-boku-no-saigo-no-senjou-aruiwa-sekai-ga-hajimaru-seisen-dublado-todos-os-episodios",
      "texto_original": "Kimi to Boku no Saigo no Senjou, Aruiwa Sekai ga Hajimaru Seisen (Dublado)",
      "rating": 6.59,
      "classificacao_etaria": "A14",
      "imagem_original": "https://animefire.plus/img/animes/kimi-to-boku-no-saigo-no-senjou-aruiwa-sekai-ga-hajimaru-seisen.webp",
      "imagem_pasta": "https://animefire.plus/img/animes/kimi-to-boku-no-saigo-no-senjou-aruiwa-sekai-ga-hajimaru-seisen/",
      "secao": "dublados,legendados",
      "pagina": 14,
      "total_episodios": 12,
      "link_video": "https://animefire.plus/video/kimi-to-boku-no-saigo-no-senjou-aruiwa-sekai-ga-hajimaru-seisen-dublado"
    },
    {
      "id": 1990,
      "nome": "Kimi to Boku no Saigo no Senjou, Aruiwa Sekai ga Hajimaru Seisen Season II",
      "link": "https://animefire.plus/animes/kimi-to-boku-no-saigo-no-senjou-aruiwa-sekai-ga-hajimaru-seisen-season-ii-todos-os-episodios",
      "texto_original": "Kimi to Boku no Saigo no Senjou, Aruiwa Sekai ga Hajimaru Seisen Season II",
      "rating": 6.75,
      "classificacao_etaria": "A14",
      "imagem_original": "https://animefire.plus/img/animes/kimi-to-boku-no-saigo-no-senjou-aruiwa-sekai-ga-hajimaru-seisen-season-ii.webp",
      "imagem_pasta": "https://animefire.plus/img/animes/kimi-to-boku-no-saigo-no-senjou-aruiwa-sekai-ga-hajimaru-seisen-season-ii/",
      "secao": "legendados",
      "pagina": 13,
      "total_episodios": 12,
      "link_video": "https://animefire.plus/video/kimi-to-boku-no-saigo-no-senjou-aruiwa-sekai-ga-hajimaru-seisen-season-ii"
    },
    {
      "id": 1991,
      "nome": "Kimi to Boku.",
      "link": "https://animefire.plus/animes/kimi-to-boku-todos-os-episodios",
      "texto_original": "Kimi to Boku.",
      "rating": 7.78,
      "classificacao_etaria": "A14",
      "imagem_original": "https://animefire.plus/img/animes/kimi-to-boku.webp",
      "imagem_pasta": "https://animefire.plus/img/animes/kimi-to-boku/",
      "secao": "legendados",
      "pagina": 159,
      "total_episodios": 12,
      "link_video": "https://animefire.plus/video/kimi-to-boku"
    },
    {
      "id": 1995,
      "nome": "Kimi wa Meido-sama. (Dublado)",
      "link": "https://animefire.plus/animes/kimi-wa-meido-sama-dublado-todos-os-episodios",
      "texto_original": "Kimi wa Meido-sama. (Dublado)",
      "rating": 7.07,
      "classificacao_etaria": "A14",
      "imagem_original": "https://animefire.plus/img/animes/kimi-wa-meido-sama.webp",
      "imagem_pasta": "https://animefire.plus/img/animes/kimi-wa-meido-sama/",
      "secao": "dublados,legendados,lancamentos",
      "pagina": 2,
      "total_episodios": 12,
      "link_video": "https://animefire.plus/video/kimi-wa-meido-sama-dublado"
    },
    {
      "id": 1997,
      "nome": "Kindaichi Shounen No Jikenbo Returns",
      "link": "https://animefire.plus/animes/kindaichi-shounen-no-jikenbo-returns-todos-os-episodios",
      "texto_original": "Kindaichi Shounen No Jikenbo Returns",
      "rating": 7.59,
      "classificacao_etaria": "A16",
      "imagem_original": "https://animefire.plus/img/animes/kindaichi-shounen-no-jikenbo-returns.webp",
      "imagem_pasta": "https://animefire.plus/img/animes/kindaichi-shounen-no-jikenbo-returns/",
      "secao": "legendados",
      "pagina": 96,
      "total_episodios": 3,
      "link_video": "https://animefire.plus/video/kindaichi-shounen-no-jikenbo-returns"
    },
    {
      "id": 1999,
      "nome": "King of Fighters: Another Day (Dublado)",
      "link": "https://animefire.plus/animes/king-of-fighters-another-day-dublado-todos-os-episodios",
      "texto_original": "King of Fighters: Another Day (Dublado)",
      "rating": 6.33,
      "classificacao_etaria": "A14",
      "imagem_original": "https://animefire.plus/img/animes/king-of-fighters-another-day.webp",
      "imagem_pasta": "https://animefire.plus/img/animes/king-of-fighters-another-day/",
      "secao": "dublados",
      "pagina": 21,
      "total_episodios": 4,
      "link_video": "https://animefire.plus/video/king-of-fighters-another-day-dublado"
    },
    {
      "id": 2000,
      "nome": "King of Prism: Shiny Seven Stars",
      "link": "https://animefire.plus/animes/king-of-prism-shiny-seven-stars-todos-os-episodios",
      "texto_original": "King of Prism: Shiny Seven Stars",
      "rating": 6.4,
      "classificacao_etaria": "A14",
      "imagem_original": "https://animefire.plus/img/animes/king-of-prism-shiny-seven-stars.webp",
      "imagem_pasta": "https://animefire.plus/img/animes/king-of-prism-shiny-seven-stars/",
      "secao": "legendados",
      "pagina": 126,
      "total_episodios": 12,
      "link_video": "https://animefire.plus/video/king-of-prism-shiny-seven-stars"
    },
    {
      "id": 2002,
      "nome": "Kingdom",
      "link": "https://animefire.plus/animes/kingdom-todos-os-episodios",
      "texto_original": "Kingdom",
      "rating": 8.14,
      "classificacao_etaria": "A16",
      "imagem_original": "https://animefire.plus/img/animes/kingdom.webp",
      "imagem_pasta": "https://animefire.plus/img/animes/kingdom/",
      "secao": "legendados",
      "pagina": 141,
      "total_episodios": 5,
      "link_video": "https://animefire.plus/video/kingdom"
    },
    {
      "id": 2007,
      "nome": "Kiniro Mosaic",
      "link": "https://animefire.plus/animes/kiniro-mosaic-todos-os-episodios",
      "texto_original": "Kiniro Mosaic",
      "rating": 7.33,
      "classificacao_etaria": "A14",
      "imagem_original": "https://animefire.plus/img/animes/kiniro-mosaic.webp",
      "imagem_pasta": "https://animefire.plus/img/animes/kiniro-mosaic/",
      "secao": "legendados",
      "pagina": 158,
      "total_episodios": 6,
      "link_video": "https://animefire.plus/video/kiniro-mosaic"
    }
  ],
  "pagination": {
    "current_page": 50,
    "per_page": 20,
    "total_items": 2189,
    "total_pages": 110,
    "has_next": true,
    "has_prev": true
  }
}
