{
  "message": "Animes com 2 a 12 episódios",
  "episode_range": {
    "min": 2,
    "max": 12
  },
  "data": [
    {
      "id": 4323,
      "nome": "Yuusha Party wo Tsuihou sareta Shiromadoushi, S-Rank Boukensha ni Hirowareru: Kono Shiromadoushi ga Kikakugai Sugiru",
      "link": "https://animefire.plus/animes/yuusha-party-wo-tsuihou-sareta-shiromadoushi-s-rank-boukensha-ni-hirowareru-kono-shiromadoushi-ga-kikakugai-sugiru-todos-os-episodios",
      "texto_original": "Yuusha Party wo Tsuihou sareta Shiromadoushi, S-Rank Boukensha ni Hirowareru: Kono Shiromadoushi ga Kikakugai Sugiru",
      "rating": 6.47,
      "classificacao_etaria": "A14",
      "imagem_original": "https://animefire.plus/img/animes/yuusha-party-wo-tsuihou-sareta-shiromadoushi-s-rank-boukensha-ni-hirowareru-kono-shiromadoushi-ga-kikakugai-sugiru.webp",
      "imagem_pasta": "https://animefire.plus/img/animes/yuusha-party-wo-tsuihou-sareta-shiromadoushi-s-rank-boukensha-ni-hirowareru-kono-shiromadoushi-ga-kikakugai-sugiru/",
      "secao": "legendados,lancamentos",
      "pagina": 2,
      "total_episodios": 5,
      "link_video": "https://animefire.plus/video/yuusha-party-wo-tsuihou-sareta-shiromadoushi-s-rank-boukensha-ni-hirowareru-kono-shiromadoushi-ga-kikakugai-sugiru"
    },
    {
      "id": 4324,
      "nome": "Yuusha, Yamemasu",
      "link": "https://animefire.plus/animes/yuusha-yamemasu-todos-os-episodios",
      "texto_original": "Yuusha, Yamemasu",
      "rating": 7,
      "classificacao_etaria": "A14",
      "imagem_original": "https://animefire.plus/img/animes/yuusha-yamemasu.webp",
      "imagem_pasta": "https://animefire.plus/img/animes/yuusha-yamemasu/",
      "secao": "legendados",
      "pagina": 34,
      "total_episodios": 12,
      "link_video": "https://animefire.plus/video/yuusha-yamemasu"
    },
    {
      "id": 4325,
      "nome": "Yuusha, Yamemasu: Kenshuu Ryokou wa Mokuteki wo Miushinau na",
      "link": "https://animefire.plus/animes/yuusha-yamemasu-kenshuu-ryokou-wa-mokuteki-wo-miushinau-na-todos-os-episodios",
      "texto_original": "Yuusha, Yamemasu: Kenshuu Ryokou wa Mokuteki wo Miushinau na",
      "rating": 6.55,
      "classificacao_etaria": "A14",
      "imagem_original": "https://animefire.plus/img/animes/yuusha-yamemasu-kenshuu-ryokou-wa-mokuteki-wo-miushinau-na.webp",
      "imagem_pasta": "https://animefire.plus/img/animes/yuusha-yamemasu-kenshuu-ryokou-wa-mokuteki-wo-miushinau-na/",
      "secao": "legendados",
      "pagina": 32,
      "total_episodios": 2,
      "link_video": "https://animefire.plus/video/yuusha-yamemasu-kenshuu-ryokou-wa-mokuteki-wo-miushinau-na"
    },
    {
      "id": 4326,
      "nome": "Yuyushiki",
      "link": "https://animefire.plus/animes/yuyushiki-todos-os-episodios",
      "texto_original": "Yuyushiki",
      "rating": 7.43,
      "classificacao_etaria": "A14",
      "imagem_original": "https://animefire.plus/img/animes/yuyushiki.webp",
      "imagem_pasta": "https://animefire.plus/img/animes/yuyushiki/",
      "secao": "legendados",
      "pagina": 178,
      "total_episodios": 3,
      "link_video": "https://animefire.plus/video/yuyushiki"
    },
    {
      "id": 4329,
      "nome": "Yuzuki-san Chi no Yonkyoudai.",
      "link": "https://animefire.plus/animes/yuzuki-san-chi-no-yonkyoudai-todos-os-episodios",
      "texto_original": "Yuzuki-san Chi no Yonkyoudai.",
      "rating": 7.87,
      "classificacao_etaria": "A14",
      "imagem_original": "https://animefire.plus/img/animes/yuzuki-san-chi-no-yonkyoudai.webp",
      "imagem_pasta": "https://animefire.plus/img/animes/yuzuki-san-chi-no-yonkyoudai/",
      "secao": "legendados",
      "pagina": 20,
      "total_episodios": 12,
      "link_video": "https://animefire.plus/video/yuzuki-san-chi-no-yonkyoudai"
    },
    {
      "id": 4332,
      "nome": "Zan Sayonara Zetsubou Sensei Bangaichi",
      "link": "https://animefire.plus/animes/zan-sayonara-zetsubou-sensei-bangaichi-todos-os-episodios",
      "texto_original": "Zan Sayonara Zetsubou Sensei Bangaichi",
      "rating": 7.83,
      "classificacao_etaria": "A16",
      "imagem_original": "https://animefire.plus/img/animes/zan-sayonara-zetsubou-sensei-bangaichi.webp",
      "imagem_pasta": "https://animefire.plus/img/animes/zan-sayonara-zetsubou-sensei-bangaichi/",
      "secao": "legendados",
      "pagina": 85,
      "total_episodios": 2,
      "link_video": "https://animefire.plus/video/zan-sayonara-zetsubou-sensei-bangaichi"
    },
    {
      "id": 4333,
      "nome": "Zankyou no Terror",
      "link": "https://animefire.plus/animes/zankyou-no-terror-todos-os-episodios",
      "texto_original": "Zankyou no Terror",
      "rating": 8.18,
      "classificacao_etaria": "A16",
      "imagem_original": "https://animefire.plus/img/animes/zankyou-no-terror.webp",
      "imagem_pasta": "https://animefire.plus/img/animes/zankyou-no-terror/",
      "secao": "legendados",
      "pagina": 149,
      "total_episodios": 2,
      "link_video": "https://animefire.plus/video/zankyou-no-terror"
    },
    {
      "id": 4334,
      "nome": "Zanting! Rang Wo Cha Gonglue",
      "link": "https://animefire.plus/animes/zanting-rang-wo-cha-gonglue-todos-os-episodios",
      "texto_original": "Zanting! Rang Wo Cha Gonglue",
      "rating": 6.41,
      "classificacao_etaria": "A14",
      "imagem_original": "https://animefire.plus/img/animes/zanting-rang-wo-cha-gonglue.webp",
      "imagem_pasta": "https://animefire.plus/img/animes/zanting-rang-wo-cha-gonglue/",
      "secao": "legendados,lancamentos",
      "pagina": 19,
      "total_episodios": 6,
      "link_video": "https://animefire.plus/video/zanting-rang-wo-cha-gonglue"
    },
    {
      "id": 4336,
      "nome": "Zatsu Tabi: That's Journey",
      "link": "https://animefire.plus/animes/zatsu-tabi-that-s-journey-todos-os-episodios",
      "texto_original": "Zatsu Tabi: That's Journey",
      "rating": 6.93,
      "classificacao_etaria": "A14",
      "imagem_original": "https://animefire.plus/img/animes/zatsu-tabi-that-s-journey.webp",
      "imagem_pasta": "https://animefire.plus/img/animes/zatsu-tabi-that-s-journey/",
      "secao": "legendados",
      "pagina": 5,
      "total_episodios": 12,
      "link_video": "https://animefire.plus/video/zatsu-tabi-that-s-journey"
    },
    {
      "id": 4338,
      "nome": "Ze Tian Ji 2nd Season",
      "link": "https://animefire.plus/animes/ze-tian-ji-2nd-season-todos-os-episodios",
      "texto_original": "Ze Tian Ji 2nd Season",
      "rating": 7.09,
      "classificacao_etaria": "A14",
      "imagem_original": "https://animefire.plus/img/animes/ze-tian-ji-2nd-season.webp",
      "imagem_pasta": "https://animefire.plus/img/animes/ze-tian-ji-2nd-season/",
      "secao": "legendados",
      "pagina": 158,
      "total_episodios": 12,
      "link_video": "https://animefire.plus/video/ze-tian-ji-2nd-season"
    },
    {
      "id": 4339,
      "nome": "Ze Tian Ji 3rd Season",
      "link": "https://animefire.plus/animes/ze-tian-ji-3rd-season-todos-os-episodios",
      "texto_original": "Ze Tian Ji 3rd Season",
      "rating": 6.86,
      "classificacao_etaria": "A14",
      "imagem_original": "https://animefire.plus/img/animes/ze-tian-ji-3rd-season.webp",
      "imagem_pasta": "https://animefire.plus/img/animes/ze-tian-ji-3rd-season/",
      "secao": "legendados",
      "pagina": 118,
      "total_episodios": 12,
      "link_video": "https://animefire.plus/video/ze-tian-ji-3rd-season"
    },
    {
      "id": 4340,
      "nome": "Ze Tian Ji 4th Season",
      "link": "https://animefire.plus/animes/ze-tian-ji-4th-season-todos-os-episodios",
      "texto_original": "Ze Tian Ji 4th Season",
      "rating": 7.11,
      "classificacao_etaria": "A14",
      "imagem_original": "https://animefire.plus/img/animes/ze-tian-ji-4th-season.webp",
      "imagem_pasta": "https://animefire.plus/img/animes/ze-tian-ji-4th-season/",
      "secao": "legendados",
      "pagina": 135,
      "total_episodios": 12,
      "link_video": "https://animefire.plus/video/ze-tian-ji-4th-season"
    },
    {
      "id": 4342,
      "nome": "Zenonzard: The Animation",
      "link": "https://animefire.plus/animes/zenonzard-the-animation-todos-os-episodios",
      "texto_original": "Zenonzard: The Animation",
      "rating": 6.68,
      "classificacao_etaria": "A14",
      "imagem_original": "https://animefire.plus/img/animes/zenonzard-the-animation.webp",
      "imagem_pasta": "https://animefire.plus/img/animes/zenonzard-the-animation/",
      "secao": "legendados",
      "pagina": 91,
      "total_episodios": 8,
      "link_video": "https://animefire.plus/video/zenonzard-the-animation"
    },
    {
      "id": 4343,
      "nome": "Zenshuu. (Dublado)",
      "link": "https://animefire.plus/animes/zenshuu-dublado-todos-os-episodios",
      "texto_original": "Zenshuu. (Dublado)",
      "rating": 7.59,
      "classificacao_etaria": "A14",
      "imagem_original": "https://animefire.plus/img/animes/zenshuu.webp",
      "imagem_pasta": "https://animefire.plus/img/animes/zenshuu/",
      "secao": "dublados,legendados,lancamentos",
      "pagina": 2,
      "total_episodios": 12,
      "link_video": "https://animefire.plus/video/zenshuu-dublado"
    },
    {
      "id": 4344,
      "nome": "Zero kara Hajimeru Mahou no Sho",
      "link": "https://animefire.plus/animes/zero-kara-hajimeru-mahou-no-sho-todos-os-episodios",
      "texto_original": "Zero kara Hajimeru Mahou no Sho",
      "rating": 7.19,
      "classificacao_etaria": "A14",
      "imagem_original": "https://animefire.plus/img/animes/zero-kara-hajimeru-mahou-no-sho.webp",
      "imagem_pasta": "https://animefire.plus/img/animes/zero-kara-hajimeru-mahou-no-sho/",
      "secao": "legendados",
      "pagina": 116,
      "total_episodios": 12,
      "link_video": "https://animefire.plus/video/zero-kara-hajimeru-mahou-no-sho"
    },
    {
      "id": 4346,
      "nome": "Zero no Tsukaima F",
      "link": "https://animefire.plus/animes/zero-no-tsukaima-f-todos-os-episodios",
      "texto_original": "Zero no Tsukaima F",
      "rating": 7.67,
      "classificacao_etaria": "A14",
      "imagem_original": "https://animefire.plus/img/animes/zero-no-tsukaima-f.webp",
      "imagem_pasta": "https://animefire.plus/img/animes/zero-no-tsukaima-f/",
      "secao": "legendados",
      "pagina": 156,
      "total_episodios": 6,
      "link_video": "https://animefire.plus/video/zero-no-tsukaima-f"
    },
    {
      "id": 4347,
      "nome": "Zero no Tsukaima: Futatsuki no Kishi",
      "link": "https://animefire.plus/animes/zero-no-tsukaima-futatsuki-no-kishi-todos-os-episodios",
      "texto_original": "Zero no Tsukaima: Futatsuki no Kishi",
      "rating": 7.62,
      "classificacao_etaria": "A14",
      "imagem_original": "https://animefire.plus/img/animes/zero-no-tsukaima-futatsuki-no-kishi.webp",
      "imagem_pasta": "https://animefire.plus/img/animes/zero-no-tsukaima-futatsuki-no-kishi/",
      "secao": "legendados",
      "pagina": 169,
      "total_episodios": 12,
      "link_video": "https://animefire.plus/video/zero-no-tsukaima-futatsuki-no-kishi"
    },
    {
      "id": 4348,
      "nome": "Zero no Tsukaima: Princesses no Rondo",
      "link": "https://animefire.plus/animes/zero-no-tsukaima-princesses-no-rondo-todos-os-episodios",
      "texto_original": "Zero no Tsukaima: Princesses no Rondo",
      "rating": 7.52,
      "classificacao_etaria": "A14",
      "imagem_original": "https://animefire.plus/img/animes/zero-no-tsukaima-princesses-no-rondo.webp",
      "imagem_pasta": "https://animefire.plus/img/animes/zero-no-tsukaima-princesses-no-rondo/",
      "secao": "legendados",
      "pagina": 157,
      "total_episodios": 12,
      "link_video": "https://animefire.plus/video/zero-no-tsukaima-princesses-no-rondo"
    },
    {
      "id": 4349,
      "nome": "Zero no Tsukaima: Princesses no Rondo Picture Drama",
      "link": "https://animefire.plus/animes/zero-no-tsukaima-princesses-no-rondo-picture-drama-todos-os-episodios",
      "texto_original": "Zero no Tsukaima: Princesses no Rondo Picture Drama",
      "rating": 6.98,
      "classificacao_etaria": "A14",
      "imagem_original": "https://animefire.plus/img/animes/zero-no-tsukaima-princesses-no-rondo-picture-drama.webp",
      "imagem_pasta": "https://animefire.plus/img/animes/zero-no-tsukaima-princesses-no-rondo-picture-drama/",
      "secao": "legendados",
      "pagina": 85,
      "total_episodios": 7,
      "link_video": "https://animefire.plus/video/zero-no-tsukaima-princesses-no-rondo-picture-drama"
    },
    {
      "id": 4351,
      "nome": "Zetsuen no Tempest",
      "link": "https://animefire.plus/animes/zetsuen-no-tempest-todos-os-episodios",
      "texto_original": "Zetsuen no Tempest",
      "rating": 8.08,
      "classificacao_etaria": "A14",
      "imagem_original": "https://animefire.plus/img/animes/zetsuen-no-tempest.webp",
      "imagem_pasta": "https://animefire.plus/img/animes/zetsuen-no-tempest/",
      "secao": "legendados",
      "pagina": 144,
      "total_episodios": 2,
      "link_video": "https://animefire.plus/video/zetsuen-no-tempest"
    }
  ],
  "pagination": {
    "current_page": 109,
    "per_page": 20,
    "total_items": 2189,
    "total_pages": 110,
    "has_next": true,
    "has_prev": true
  }
}
