{
  "message": "Animes com 2 a 12 episódios",
  "episode_range": {
    "min": 2,
    "max": 12
  },
  "data": [
    {
      "id": 3978,
      "nome": "Twin Angel Break",
      "link": "https://animefire.plus/animes/twin-angel-break-todos-os-episodios",
      "texto_original": "Twin Angel Break",
      "rating": 5.94,
      "classificacao_etaria": "A14",
      "imagem_original": "https://animefire.plus/img/animes/twin-angel-break.webp",
      "imagem_pasta": "https://animefire.plus/img/animes/twin-angel-break/",
      "secao": "legendados",
      "pagina": 127,
      "total_episodios": 12,
      "link_video": "https://animefire.plus/video/twin-angel-break"
    },
    {
      "id": 3982,
      "nome": "Two Car",
      "link": "https://animefire.plus/animes/two-car-todos-os-episodios",
      "texto_original": "Two Car",
      "rating": 5.73,
      "classificacao_etaria": "A14",
      "imagem_original": "https://animefire.plus/img/animes/two-car.webp",
      "imagem_pasta": "https://animefire.plus/img/animes/two-car/",
      "secao": "legendados",
      "pagina": 108,
      "total_episodios": 12,
      "link_video": "https://animefire.plus/video/two-car"
    },
    {
      "id": 3984,
      "nome": "Übel Blatt",
      "link": "https://animefire.plus/animes/uebel-blatt-todos-os-episodios",
      "texto_original": "Übel Blatt",
      "rating": 6.3,
      "classificacao_etaria": "A16",
      "imagem_original": "https://animefire.plus/img/animes/uebel-blatt.webp",
      "imagem_pasta": "https://animefire.plus/img/animes/uebel-blatt/",
      "secao": "legendados",
      "pagina": 8,
      "total_episodios": 12,
      "link_video": "https://animefire.plus/video/uebel-blatt"
    },
    {
      "id": 3985,
      "nome": "Uchi no Kaisha no Chiisai Senpai no Hanashi (Dublado)",
      "link": "https://animefire.plus/animes/uchi-no-kaisha-no-chiisai-senpai-no-hanashi-dublado-todos-os-episodios",
      "texto_original": "Uchi no Kaisha no Chiisai Senpai no Hanashi (Dublado)",
      "rating": 6.9,
      "classificacao_etaria": "A14",
      "imagem_original": "https://animefire.plus/img/animes/uchi-no-kaisha-no-chiisai-senpai-no-hanashi.webp",
      "imagem_pasta": "https://animefire.plus/img/animes/uchi-no-kaisha-no-chiisai-senpai-no-hanashi/",
      "secao": "dublados,legendados",
      "pagina": 6,
      "total_episodios": 12,
      "link_video": "https://animefire.plus/video/uchi-no-kaisha-no-chiisai-senpai-no-hanashi-dublado"
    },
    {
      "id": 3986,
      "nome": "Uchi no Ko no Tame naraba, Ore wa Moshikashitara Maou mo Taoseru kamo Shirenai.",
      "link": "https://animefire.plus/animes/uchi-no-ko-no-tame-naraba-ore-wa-moshikashitara-maou-mo-taoseru-kamo-shirenai-todos-os-episodios",
      "texto_original": "Uchi no Ko no Tame naraba, Ore wa Moshikashitara Maou mo Taoseru kamo Shirenai.",
      "rating": 7.04,
      "classificacao_etaria": "A14",
      "imagem_original": "https://animefire.plus/img/animes/uchi-no-ko-no-tame-naraba-ore-wa-moshikashitara-maou-mo-taoseru-kamo-shirenai.webp",
      "imagem_pasta": "https://animefire.plus/img/animes/uchi-no-ko-no-tame-naraba-ore-wa-moshikashitara-maou-mo-taoseru-kamo-shirenai/",
      "secao": "legendados",
      "pagina": 103,
      "total_episodios": 12,
      "link_video": "https://animefire.plus/video/uchi-no-ko-no-tame-naraba-ore-wa-moshikashitara-maou-mo-taoseru-kamo-shirenai"
    },
    {
      "id": 3987,
      "nome": "Uchi no Maid ga Uzasugiru!",
      "link": "https://animefire.plus/animes/uchi-no-maid-ga-uzasugiru-todos-os-episodios",
      "texto_original": "Uchi no Maid ga Uzasugiru!",
      "rating": 7.14,
      "classificacao_etaria": "A14",
      "imagem_original": "https://animefire.plus/img/animes/uchi-no-maid-ga-uzasugiru.webp",
      "imagem_pasta": "https://animefire.plus/img/animes/uchi-no-maid-ga-uzasugiru/",
      "secao": "legendados",
      "pagina": 157,
      "total_episodios": 12,
      "link_video": "https://animefire.plus/video/uchi-no-maid-ga-uzasugiru"
    },
    {
      "id": 3991,
      "nome": "Uchouten Kazoku 2",
      "link": "https://animefire.plus/animes/uchouten-kazoku-2-todos-os-episodios",
      "texto_original": "Uchouten Kazoku 2",
      "rating": 8.2,
      "classificacao_etaria": "A14",
      "imagem_original": "https://animefire.plus/img/animes/uchouten-kazoku-2.webp",
      "imagem_pasta": "https://animefire.plus/img/animes/uchouten-kazoku-2/",
      "secao": "legendados",
      "pagina": 133,
      "total_episodios": 12,
      "link_video": "https://animefire.plus/video/uchouten-kazoku-2"
    },
    {
      "id": 3995,
      "nome": "Uchuu no Senshi",
      "link": "https://animefire.plus/animes/uchuu-no-senshi-todos-os-episodios",
      "texto_original": "Uchuu no Senshi",
      "rating": 6.21,
      "classificacao_etaria": "A16",
      "imagem_original": "https://animefire.plus/img/animes/uchuu-no-senshi.webp",
      "imagem_pasta": "https://animefire.plus/img/animes/uchuu-no-senshi/",
      "secao": "legendados",
      "pagina": 55,
      "total_episodios": 6,
      "link_video": "https://animefire.plus/video/uchuu-no-senshi"
    },
    {
      "id": 3998,
      "nome": "Uchuu Senkan Tiramisù",
      "link": "https://animefire.plus/animes/uchuu-senkan-tiramisu-todos-os-episodios",
      "texto_original": "Uchuu Senkan Tiramisù",
      "rating": 6.4,
      "classificacao_etaria": "A14",
      "imagem_original": "https://animefire.plus/img/animes/uchuu-senkan-tiramisu.webp",
      "imagem_pasta": "https://animefire.plus/img/animes/uchuu-senkan-tiramisu/",
      "secao": "legendados",
      "pagina": 150,
      "total_episodios": 4,
      "link_video": "https://animefire.plus/video/uchuu-senkan-tiramisu"
    },
    {
      "id": 3999,
      "nome": "Uchuu Senkan Tiramisù Specials",
      "link": "https://animefire.plus/animes/uchuu-senkan-tiramisu-specials-todos-os-episodios",
      "texto_original": "Uchuu Senkan Tiramisù Specials",
      "rating": 6.37,
      "classificacao_etaria": "A14",
      "imagem_original": "https://animefire.plus/img/animes/uchuu-senkan-tiramisu-specials.webp",
      "imagem_pasta": "https://animefire.plus/img/animes/uchuu-senkan-tiramisu-specials/",
      "secao": "legendados",
      "pagina": 118,
      "total_episodios": 3,
      "link_video": "https://animefire.plus/video/uchuu-senkan-tiramisu-specials"
    },
    {
      "id": 4003,
      "nome": "Udon no Kuni no Kiniro Kemari",
      "link": "https://animefire.plus/animes/udon-no-kuni-no-kiniro-kemari-todos-os-episodios",
      "texto_original": "Udon no Kuni no Kiniro Kemari",
      "rating": 7.81,
      "classificacao_etaria": "A14",
      "imagem_original": "https://animefire.plus/img/animes/udon-no-kuni-no-kiniro-kemari.webp",
      "imagem_pasta": "https://animefire.plus/img/animes/udon-no-kuni-no-kiniro-kemari/",
      "secao": "legendados",
      "pagina": 159,
      "total_episodios": 8,
      "link_video": "https://animefire.plus/video/udon-no-kuni-no-kiniro-kemari"
    },
    {
      "id": 4004,
      "nome": "Ueki no Housoku",
      "link": "https://animefire.plus/animes/ueki-no-housoku-todos-os-episodios",
      "texto_original": "Ueki no Housoku",
      "rating": 7.83,
      "classificacao_etaria": "A14",
      "imagem_original": "https://animefire.plus/img/animes/ueki-no-housoku.webp",
      "imagem_pasta": "https://animefire.plus/img/animes/ueki-no-housoku/",
      "secao": "legendados",
      "pagina": 175,
      "total_episodios": 4,
      "link_video": "https://animefire.plus/video/ueki-no-housoku"
    },
    {
      "id": 4005,
      "nome": "Ueno-san wa Bukiyou",
      "link": "https://animefire.plus/animes/ueno-san-wa-bukiyou-todos-os-episodios",
      "texto_original": "Ueno-san wa Bukiyou",
      "rating": 6.64,
      "classificacao_etaria": "A14",
      "imagem_original": "https://animefire.plus/img/animes/ueno-san-wa-bukiyou.webp",
      "imagem_pasta": "https://animefire.plus/img/animes/ueno-san-wa-bukiyou/",
      "secao": "legendados",
      "pagina": 101,
      "total_episodios": 12,
      "link_video": "https://animefire.plus/video/ueno-san-wa-bukiyou"
    },
    {
      "id": 4008,
      "nome": "UG☆Ultimate Girls",
      "link": "https://animefire.plus/animes/ug-ultimate-girls-todos-os-episodios",
      "texto_original": "UG☆Ultimate Girls",
      "rating": 5.68,
      "classificacao_etaria": "A14",
      "imagem_original": "https://animefire.plus/img/animes/ug-ultimate-girls.webp",
      "imagem_pasta": "https://animefire.plus/img/animes/ug-ultimate-girls/",
      "secao": "legendados",
      "pagina": 113,
      "total_episodios": 12,
      "link_video": "https://animefire.plus/video/ug-ultimate-girls"
    },
    {
      "id": 4009,
      "nome": "Ultra Maniac",
      "link": "https://animefire.plus/animes/ultra-maniac-todos-os-episodios",
      "texto_original": "Ultra Maniac",
      "rating": 7.25,
      "classificacao_etaria": null,
      "imagem_original": "https://animefire.plus/img/animes/ultra-maniac.webp",
      "imagem_pasta": "https://animefire.plus/img/animes/ultra-maniac/",
      "secao": "legendados",
      "pagina": 157,
      "total_episodios": 7,
      "link_video": "https://animefire.plus/video/ultra-maniac"
    },
    {
      "id": 4011,
      "nome": "Ultraviolet: Code 044",
      "link": "https://animefire.plus/animes/ultraviolet-code-044-todos-os-episodios",
      "texto_original": "Ultraviolet: Code 044",
      "rating": 5.98,
      "classificacao_etaria": "A16",
      "imagem_original": "https://animefire.plus/img/animes/ultraviolet-code-044.webp",
      "imagem_pasta": "https://animefire.plus/img/animes/ultraviolet-code-044/",
      "secao": "legendados",
      "pagina": 175,
      "total_episodios": 12,
      "link_video": "https://animefire.plus/video/ultraviolet-code-044"
    },
    {
      "id": 4012,
      "nome": "Ulysses: Jehanne Darc to Renkin no Kishi",
      "link": "https://animefire.plus/animes/ulysses-jehanne-darc-to-renkin-no-kishi-todos-os-episodios",
      "texto_original": "Ulysses: Jehanne Darc to Renkin no Kishi",
      "rating": 5.51,
      "classificacao_etaria": "A14",
      "imagem_original": "https://animefire.plus/img/animes/ulysses-jehanne-darc-to-renkin-no-kishi.webp",
      "imagem_pasta": "https://animefire.plus/img/animes/ulysses-jehanne-darc-to-renkin-no-kishi/",
      "secao": "legendados",
      "pagina": 143,
      "total_episodios": 12,
      "link_video": "https://animefire.plus/video/ulysses-jehanne-darc-to-renkin-no-kishi"
    },
    {
      "id": 4014,
      "nome": "Uma Musume: Pretty Derby",
      "link": "https://animefire.plus/animes/uma-musume-pretty-derby-todos-os-episodios",
      "texto_original": "Uma Musume: Pretty Derby",
      "rating": 7.44,
      "classificacao_etaria": "A14",
      "imagem_original": "https://animefire.plus/img/animes/uma-musume-pretty-derby.webp",
      "imagem_pasta": "https://animefire.plus/img/animes/uma-musume-pretty-derby/",
      "secao": "legendados",
      "pagina": 165,
      "total_episodios": 12,
      "link_video": "https://animefire.plus/video/uma-musume-pretty-derby"
    },
    {
      "id": 4015,
      "nome": "Uma Musume: Pretty Derby - BNW no Chikai",
      "link": "https://animefire.plus/animes/uma-musume-pretty-derby---bnw-no-chikai-todos-os-episodios",
      "texto_original": "Uma Musume: Pretty Derby - BNW no Chikai",
      "rating": 7.04,
      "classificacao_etaria": "A14",
      "imagem_original": "https://animefire.plus/img/animes/uma-musume-pretty-derby---bnw-no-chikai.webp",
      "imagem_pasta": "https://animefire.plus/img/animes/uma-musume-pretty-derby---bnw-no-chikai/",
      "secao": "legendados",
      "pagina": 45,
      "total_episodios": 3,
      "link_video": "https://animefire.plus/video/uma-musume-pretty-derby---bnw-no-chikai"
    },
    {
      "id": 4019,
      "nome": "Umi Monogatari: Anata ga Ite Kureta Koto",
      "link": "https://animefire.plus/animes/umi-monogatari-anata-ga-ite-kureta-koto-todos-os-episodios",
      "texto_original": "Umi Monogatari: Anata ga Ite Kureta Koto",
      "rating": 6.71,
      "classificacao_etaria": "A14",
      "imagem_original": "https://animefire.plus/img/animes/umi-monogatari-anata-ga-ite-kureta-koto.webp",
      "imagem_pasta": "https://animefire.plus/img/animes/umi-monogatari-anata-ga-ite-kureta-koto/",
      "secao": "legendados",
      "pagina": 149,
      "total_episodios": 12,
      "link_video": "https://animefire.plus/video/umi-monogatari-anata-ga-ite-kureta-koto"
    }
  ],
  "pagination": {
    "current_page": 101,
    "per_page": 20,
    "total_items": 2189,
    "total_pages": 110,
    "has_next": true,
    "has_prev": true
  }
}
