{
  "message": "Animes com 2 a 12 episódios",
  "episode_range": {
    "min": 2,
    "max": 12
  },
  "data": [
    {
      "id": 1073,
      "nome": "Ga-Rei: Zero",
      "link": "https://animefire.plus/animes/ga-rei-zero-todos-os-episodios",
      "texto_original": "Ga-Rei: Zero",
      "rating": 7.68,
      "classificacao_etaria": "A16",
      "imagem_original": "https://animefire.plus/img/animes/ga-rei-zero.webp",
      "imagem_pasta": "https://animefire.plus/img/animes/ga-rei-zero/",
      "secao": "legendados",
      "pagina": 174,
      "total_episodios": 12,
      "link_video": "https://animefire.plus/video/ga-rei-zero"
    },
    {
      "id": 1074,
      "nome": "Gabriel DropOut",
      "link": "https://animefire.plus/animes/gabriel-dropout-todos-os-episodios",
      "texto_original": "Gabriel DropOut",
      "rating": 7.57,
      "classificacao_etaria": "A14",
      "imagem_original": "https://animefire.plus/img/animes/gabriel-dropout.webp",
      "imagem_pasta": "https://animefire.plus/img/animes/gabriel-dropout/",
      "secao": "legendados",
      "pagina": 107,
      "total_episodios": 12,
      "link_video": "https://animefire.plus/video/gabriel-dropout"
    },
    {
      "id": 1075,
      "nome": "Gachiakuta (Dublado)",
      "link": "https://animefire.plus/animes/gachiakuta-dublado-todos-os-episodios",
      "texto_original": "Gachiakuta (Dublado)",
      "rating": 8.07,
      "classificacao_etaria": "A14",
      "imagem_original": "https://animefire.plus/img/animes/gachiakuta.webp",
      "imagem_pasta": "https://animefire.plus/img/animes/gachiakuta/",
      "secao": "dublados,legendados,lancamentos",
      "pagina": 1,
      "total_episodios": 4,
      "link_video": "https://animefire.plus/video/gachiakuta-dublado"
    },
    {
      "id": 1077,
      "nome": "Gaikotsu Kishi-sama, Tadaima Isekai e Odekakechuu",
      "link": "https://animefire.plus/animes/gaikotsu-kishi-sama-tadaima-isekai-e-odekakechuu-todos-os-episodios",
      "texto_original": "Gaikotsu Kishi-sama, Tadaima Isekai e Odekakechuu",
      "rating": 7.14,
      "classificacao_etaria": "A16",
      "imagem_original": "https://animefire.plus/img/animes/gaikotsu-kishi-sama-tadaima-isekai-e-odekakechuu.webp",
      "imagem_pasta": "https://animefire.plus/img/animes/gaikotsu-kishi-sama-tadaima-isekai-e-odekakechuu/",
      "secao": "legendados",
      "pagina": 35,
      "total_episodios": 12,
      "link_video": "https://animefire.plus/video/gaikotsu-kishi-sama-tadaima-isekai-e-odekakechuu"
    },
    {
      "id": 1078,
      "nome": "Gaikotsu Shotenin Honda-san",
      "link": "https://animefire.plus/animes/gaikotsu-shotenin-honda-san-todos-os-episodios",
      "texto_original": "Gaikotsu Shotenin Honda-san",
      "rating": 7.4,
      "classificacao_etaria": "A14",
      "imagem_original": "https://animefire.plus/img/animes/gaikotsu-shotenin-honda-san.webp",
      "imagem_pasta": "https://animefire.plus/img/animes/gaikotsu-shotenin-honda-san/",
      "secao": "legendados",
      "pagina": 126,
      "total_episodios": 12,
      "link_video": "https://animefire.plus/video/gaikotsu-shotenin-honda-san"
    },
    {
      "id": 1079,
      "nome": "Gaist Crusher",
      "link": "https://animefire.plus/animes/gaist-crusher-todos-os-episodios",
      "texto_original": "Gaist Crusher",
      "rating": 6.01,
      "classificacao_etaria": "A10",
      "imagem_original": "https://animefire.plus/img/animes/gaist-crusher.webp",
      "imagem_pasta": "https://animefire.plus/img/animes/gaist-crusher/",
      "secao": "legendados",
      "pagina": 179,
      "total_episodios": 3,
      "link_video": "https://animefire.plus/video/gaist-crusher"
    },
    {
      "id": 1081,
      "nome": "Gakkougurashi!",
      "link": "https://animefire.plus/animes/gakkougurashi-todos-os-episodios",
      "texto_original": "Gakkougurashi!",
      "rating": 7.64,
      "classificacao_etaria": "A16",
      "imagem_original": "https://animefire.plus/img/animes/gakkougurashi.webp",
      "imagem_pasta": "https://animefire.plus/img/animes/gakkougurashi/",
      "secao": "legendados",
      "pagina": 57,
      "total_episodios": 12,
      "link_video": "https://animefire.plus/video/gakkougurashi"
    },
    {
      "id": 1083,
      "nome": "Gakuen Babysitters",
      "link": "https://animefire.plus/animes/gakuen-babysitters-todos-os-episodios",
      "texto_original": "Gakuen Babysitters",
      "rating": 7.91,
      "classificacao_etaria": "A14",
      "imagem_original": "https://animefire.plus/img/animes/gakuen-babysitters.webp",
      "imagem_pasta": "https://animefire.plus/img/animes/gakuen-babysitters/",
      "secao": "legendados",
      "pagina": 102,
      "total_episodios": 12,
      "link_video": "https://animefire.plus/video/gakuen-babysitters"
    },
    {
      "id": 1085,
      "nome": "Gakuen Basara",
      "link": "https://animefire.plus/animes/gakuen-basara-todos-os-episodios",
      "texto_original": "Gakuen Basara",
      "rating": 6.22,
      "classificacao_etaria": "A14",
      "imagem_original": "https://animefire.plus/img/animes/gakuen-basara.webp",
      "imagem_pasta": "https://animefire.plus/img/animes/gakuen-basara/",
      "secao": "legendados",
      "pagina": 151,
      "total_episodios": 12,
      "link_video": "https://animefire.plus/video/gakuen-basara"
    },
    {
      "id": 1086,
      "nome": "Gakuen Handsome",
      "link": "https://animefire.plus/animes/gakuen-handsome-todos-os-episodios",
      "texto_original": "Gakuen Handsome",
      "rating": 6.52,
      "classificacao_etaria": "A14",
      "imagem_original": "https://animefire.plus/img/animes/gakuen-handsome.webp",
      "imagem_pasta": "https://animefire.plus/img/animes/gakuen-handsome/",
      "secao": "legendados",
      "pagina": 171,
      "total_episodios": 7,
      "link_video": "https://animefire.plus/video/gakuen-handsome"
    },
    {
      "id": 1089,
      "nome": "Gakuen Utopia Manabi Straight!",
      "link": "https://animefire.plus/animes/gakuen-utopia-manabi-straight-todos-os-episodios",
      "texto_original": "Gakuen Utopia Manabi Straight!",
      "rating": 7.32,
      "classificacao_etaria": null,
      "imagem_original": "https://animefire.plus/img/animes/gakuen-utopia-manabi-straight.webp",
      "imagem_pasta": "https://animefire.plus/img/animes/gakuen-utopia-manabi-straight/",
      "secao": "legendados",
      "pagina": 130,
      "total_episodios": 12,
      "link_video": "https://animefire.plus/video/gakuen-utopia-manabi-straight"
    },
    {
      "id": 1090,
      "nome": "Gakusen Toshi Asterisk",
      "link": "https://animefire.plus/animes/gakusen-toshi-asterisk-todos-os-episodios",
      "texto_original": "Gakusen Toshi Asterisk",
      "rating": 7.09,
      "classificacao_etaria": "A14",
      "imagem_original": "https://animefire.plus/img/animes/gakusen-toshi-asterisk.webp",
      "imagem_pasta": "https://animefire.plus/img/animes/gakusen-toshi-asterisk/",
      "secao": "legendados",
      "pagina": 105,
      "total_episodios": 12,
      "link_video": "https://animefire.plus/video/gakusen-toshi-asterisk"
    },
    {
      "id": 1091,
      "nome": "Gakusen Toshi Asterisk 2nd Season",
      "link": "https://animefire.plus/animes/gakusen-toshi-asterisk-2nd-season-todos-os-episodios",
      "texto_original": "Gakusen Toshi Asterisk 2nd Season",
      "rating": 7.28,
      "classificacao_etaria": "A14",
      "imagem_original": "https://animefire.plus/img/animes/gakusen-toshi-asterisk-2nd-season.webp",
      "imagem_pasta": "https://animefire.plus/img/animes/gakusen-toshi-asterisk-2nd-season/",
      "secao": "legendados",
      "pagina": 106,
      "total_episodios": 12,
      "link_video": "https://animefire.plus/video/gakusen-toshi-asterisk-2nd-season"
    },
    {
      "id": 1093,
      "nome": "Gal-gaku.: Hijiri Girls Square Gakuin",
      "link": "https://animefire.plus/animes/gal-gaku-hijiri-girls-square-gakuin-todos-os-episodios",
      "texto_original": "Gal-gaku.: Hijiri Girls Square Gakuin",
      "rating": 5.43,
      "classificacao_etaria": "A14",
      "imagem_original": "https://animefire.plus/img/animes/gal-gaku-hijiri-girls-square-gakuin.webp",
      "imagem_pasta": "https://animefire.plus/img/animes/gal-gaku-hijiri-girls-square-gakuin/",
      "secao": "legendados,lancamentos",
      "pagina": 58,
      "total_episodios": 5,
      "link_video": "https://animefire.plus/video/gal-gaku-hijiri-girls-square-gakuin"
    },
    {
      "id": 1096,
      "nome": "Galaxy Angel Z",
      "link": "https://animefire.plus/animes/galaxy-angel-z-todos-os-episodios",
      "texto_original": "Galaxy Angel Z",
      "rating": 7.24,
      "classificacao_etaria": "A10",
      "imagem_original": "https://animefire.plus/img/animes/galaxy-angel-z.webp",
      "imagem_pasta": "https://animefire.plus/img/animes/galaxy-angel-z/",
      "secao": "legendados",
      "pagina": 151,
      "total_episodios": 9,
      "link_video": "https://animefire.plus/video/galaxy-angel-z"
    },
    {
      "id": 1097,
      "nome": "Galilei Donna",
      "link": "https://animefire.plus/animes/galilei-donna-todos-os-episodios",
      "texto_original": "Galilei Donna",
      "rating": 6.46,
      "classificacao_etaria": "A16",
      "imagem_original": "https://animefire.plus/img/animes/galilei-donna.webp",
      "imagem_pasta": "https://animefire.plus/img/animes/galilei-donna/",
      "secao": "legendados",
      "pagina": 134,
      "total_episodios": 3,
      "link_video": "https://animefire.plus/video/galilei-donna"
    },
    {
      "id": 1099,
      "nome": "Gall Force: The Revolution",
      "link": "https://animefire.plus/animes/gall-force-the-revolution-todos-os-episodios",
      "texto_original": "Gall Force: The Revolution",
      "rating": 6.05,
      "classificacao_etaria": "A18",
      "imagem_original": "https://animefire.plus/img/animes/gall-force-the-revolution.webp",
      "imagem_pasta": "https://animefire.plus/img/animes/gall-force-the-revolution/",
      "secao": "legendados",
      "pagina": 158,
      "total_episodios": 4,
      "link_video": "https://animefire.plus/video/gall-force-the-revolution"
    },
    {
      "id": 1100,
      "nome": "Game Center Shoujo to Ibunka Kouryuu",
      "link": "https://animefire.plus/animes/game-center-shoujo-to-ibunka-kouryuu-todos-os-episodios",
      "texto_original": "Game Center Shoujo to Ibunka Kouryuu",
      "rating": 6.84,
      "classificacao_etaria": "A14",
      "imagem_original": "https://animefire.plus/img/animes/game-center-shoujo-to-ibunka-kouryuu.webp",
      "imagem_pasta": "https://animefire.plus/img/animes/game-center-shoujo-to-ibunka-kouryuu/",
      "secao": "legendados,lancamentos",
      "pagina": 2,
      "total_episodios": 5,
      "link_video": "https://animefire.plus/video/game-center-shoujo-to-ibunka-kouryuu"
    },
    {
      "id": 1101,
      "nome": "Gamers!",
      "link": "https://animefire.plus/animes/gamers-todos-os-episodios",
      "texto_original": "Gamers!",
      "rating": 7.15,
      "classificacao_etaria": "A14",
      "imagem_original": "https://animefire.plus/img/animes/gamers.webp",
      "imagem_pasta": "https://animefire.plus/img/animes/gamers/",
      "secao": "legendados",
      "pagina": 178,
      "total_episodios": 12,
      "link_video": "https://animefire.plus/video/gamers"
    },
    {
      "id": 1102,
      "nome": "Ganbare Douki-chan",
      "link": "https://animefire.plus/animes/ganbare-douki-chan-todos-os-episodios",
      "texto_original": "Ganbare Douki-chan",
      "rating": 6.52,
      "classificacao_etaria": "A14",
      "imagem_original": "https://animefire.plus/img/animes/ganbare-douki-chan.webp",
      "imagem_pasta": "https://animefire.plus/img/animes/ganbare-douki-chan/",
      "secao": "legendados",
      "pagina": 39,
      "total_episodios": 12,
      "link_video": "https://animefire.plus/video/ganbare-douki-chan"
    }
  ],
  "pagination": {
    "current_page": 27,
    "per_page": 20,
    "total_items": 2189,
    "total_pages": 110,
    "has_next": true,
    "has_prev": true
  }
}
