{
  "message": "Animes com 25 a 50 episódios",
  "episode_range": {
    "min": 25,
    "max": 50
  },
  "data": [
    {
      "id": 3275,
      "nome": "School Rumble",
      "link": "https://animefire.plus/animes/school-rumble-todos-os-episodios",
      "texto_original": "School Rumble",
      "rating": 8,
      "classificacao_etaria": "A14",
      "imagem_original": "https://animefire.plus/img/animes/school-rumble.webp",
      "imagem_pasta": "https://animefire.plus/img/animes/school-rumble/",
      "secao": "legendados",
      "pagina": 127,
      "total_episodios": 26,
      "link_video": "https://animefire.plus/video/school-rumble"
    },
    {
      "id": 3276,
      "nome": "School Rumble Ni Gakki",
      "link": "https://animefire.plus/animes/school-rumble-ni-gakki-todos-os-episodios",
      "texto_original": "School Rumble Ni Gakki",
      "rating": 8.09,
      "classificacao_etaria": "A14",
      "imagem_original": "https://animefire.plus/img/animes/school-rumble-ni-gakki.webp",
      "imagem_pasta": "https://animefire.plus/img/animes/school-rumble-ni-gakki/",
      "secao": "legendados",
      "pagina": 125,
      "total_episodios": 26,
      "link_video": "https://animefire.plus/video/school-rumble-ni-gakki"
    },
    {
      "id": 3302,
      "nome": "Seirei no Moribito",
      "link": "https://animefire.plus/animes/seirei-no-moribito-todos-os-episodios",
      "texto_original": "Seirei no Moribito",
      "rating": 8.19,
      "classificacao_etaria": "A14",
      "imagem_original": "https://animefire.plus/img/animes/seirei-no-moribito.webp",
      "imagem_pasta": "https://animefire.plus/img/animes/seirei-no-moribito/",
      "secao": "legendados",
      "pagina": 157,
      "total_episodios": 26,
      "link_video": "https://animefire.plus/video/seirei-no-moribito"
    },
    {
      "id": 3306,
      "nome": "Seisenshi Dunbine",
      "link": "https://animefire.plus/animes/seisenshi-dunbine-todos-os-episodios",
      "texto_original": "Seisenshi Dunbine",
      "rating": 7.16,
      "classificacao_etaria": "A14",
      "imagem_original": "https://animefire.plus/img/animes/seisenshi-dunbine.webp",
      "imagem_pasta": "https://animefire.plus/img/animes/seisenshi-dunbine/",
      "secao": "legendados",
      "pagina": 115,
      "total_episodios": 49,
      "link_video": "https://animefire.plus/video/seisenshi-dunbine"
    },
    {
      "id": 3333,
      "nome": "Sengoku Collection",
      "link": "https://animefire.plus/animes/sengoku-collection-todos-os-episodios",
      "texto_original": "Sengoku Collection",
      "rating": 6.45,
      "classificacao_etaria": "A14",
      "imagem_original": "https://animefire.plus/img/animes/sengoku-collection.webp",
      "imagem_pasta": "https://animefire.plus/img/animes/sengoku-collection/",
      "secao": "legendados",
      "pagina": 55,
      "total_episodios": 26,
      "link_video": "https://animefire.plus/video/sengoku-collection"
    },
    {
      "id": 3338,
      "nome": "Senjou no Valkyria",
      "link": "https://animefire.plus/animes/senjou-no-valkyria-todos-os-episodios",
      "texto_original": "Senjou no Valkyria",
      "rating": 7.68,
      "classificacao_etaria": "A14",
      "imagem_original": "https://animefire.plus/img/animes/senjou-no-valkyria.webp",
      "imagem_pasta": "https://animefire.plus/img/animes/senjou-no-valkyria/",
      "secao": "legendados",
      "pagina": 126,
      "total_episodios": 26,
      "link_video": "https://animefire.plus/video/senjou-no-valkyria"
    },
    {
      "id": 3365,
      "nome": "Seto no Hanayome",
      "link": "https://animefire.plus/animes/seto-no-hanayome-todos-os-episodios",
      "texto_original": "Seto no Hanayome",
      "rating": 7.81,
      "classificacao_etaria": "A14",
      "imagem_original": "https://animefire.plus/img/animes/seto-no-hanayome.webp",
      "imagem_pasta": "https://animefire.plus/img/animes/seto-no-hanayome/",
      "secao": "legendados",
      "pagina": 62,
      "total_episodios": 26,
      "link_video": "https://animefire.plus/video/seto-no-hanayome"
    },
    {
      "id": 3387,
      "nome": "Shangri-La Frontier: Kusoge Hunter, Kamige ni Idoman to su (Dublado)",
      "link": "https://animefire.plus/animes/shangri-la-frontier-kusoge-hunter-kamige-ni-idoman-to-su-dublado-todos-os-episodios",
      "texto_original": "Shangri-La Frontier: Kusoge Hunter, Kamige ni Idoman to su (Dublado)",
      "rating": 8.1,
      "classificacao_etaria": "A14",
      "imagem_original": "https://animefire.plus/img/animes/shangri-la-frontier-kusoge-hunter-kamige-ni-idoman-to-su.webp",
      "imagem_pasta": "https://animefire.plus/img/animes/shangri-la-frontier-kusoge-hunter-kamige-ni-idoman-to-su/",
      "secao": "dublados,legendados",
      "pagina": 3,
      "total_episodios": 25,
      "link_video": "https://animefire.plus/video/shangri-la-frontier-kusoge-hunter-kamige-ni-idoman-to-su-dublado"
    },
    {
      "id": 3388,
      "nome": "Shangri-La Frontier: Kusoge Hunter, Kamige ni Idoman to su 2nd Season (Dublado)",
      "link": "https://animefire.plus/animes/shangri-la-frontier-kusoge-hunter-kamige-ni-idoman-to-su-2nd-season-dublado-todos-os-episodios",
      "texto_original": "Shangri-La Frontier: Kusoge Hunter, Kamige ni Idoman to su 2nd Season (Dublado)",
      "rating": 8.27,
      "classificacao_etaria": "A14",
      "imagem_original": "https://animefire.plus/img/animes/shangri-la-frontier-kusoge-hunter-kamige-ni-idoman-to-su-2nd-season.webp",
      "imagem_pasta": "https://animefire.plus/img/animes/shangri-la-frontier-kusoge-hunter-kamige-ni-idoman-to-su-2nd-season/",
      "secao": "dublados,legendados,lancamentos",
      "pagina": 2,
      "total_episodios": 25,
      "link_video": "https://animefire.plus/video/shangri-la-frontier-kusoge-hunter-kamige-ni-idoman-to-su-2nd-season-dublado"
    },
    {
      "id": 3394,
      "nome": "Shi Xiong",
      "link": "https://animefire.plus/animes/shi-xiong-todos-os-episodios",
      "texto_original": "Shi Xiong",
      "rating": 6.79,
      "classificacao_etaria": "A16",
      "imagem_original": "https://animefire.plus/img/animes/shi-xiong.webp",
      "imagem_pasta": "https://animefire.plus/img/animes/shi-xiong/",
      "secao": "legendados",
      "pagina": 114,
      "total_episodios": 32,
      "link_video": "https://animefire.plus/video/shi-xiong"
    },
    {
      "id": 3405,
      "nome": "Shijou Saikyou no Deshi Kenichi (Dublado)",
      "link": "https://animefire.plus/animes/shijou-saikyou-no-deshi-kenichi-dublado-todos-os-episodios",
      "texto_original": "Shijou Saikyou no Deshi Kenichi (Dublado)",
      "rating": 8.05,
      "classificacao_etaria": "A14",
      "imagem_original": "https://animefire.plus/img/animes/shijou-saikyou-no-deshi-kenichi.webp",
      "imagem_pasta": "https://animefire.plus/img/animes/shijou-saikyou-no-deshi-kenichi/",
      "secao": "dublados,legendados",
      "pagina": 3,
      "total_episodios": 41,
      "link_video": "https://animefire.plus/video/shijou-saikyou-no-deshi-kenichi-dublado"
    },
    {
      "id": 3440,
      "nome": "Shingeki no Kyojin (Dublado)",
      "link": "https://animefire.plus/animes/shingeki-no-kyojin-dublado-todos-os-episodios",
      "texto_original": "Shingeki no Kyojin (Dublado)",
      "rating": 8.45,
      "classificacao_etaria": "A16",
      "imagem_original": "https://animefire.plus/img/animes/shingeki-no-kyojin.webp",
      "imagem_pasta": "https://animefire.plus/img/animes/shingeki-no-kyojin/",
      "secao": "dublados,legendados",
      "pagina": 19,
      "total_episodios": 25,
      "link_video": "https://animefire.plus/video/shingeki-no-kyojin-dublado"
    },
    {
      "id": 3498,
      "nome": "Shoujo Kakumei Utena",
      "link": "https://animefire.plus/animes/shoujo-kakumei-utena-todos-os-episodios",
      "texto_original": "Shoujo Kakumei Utena",
      "rating": 8.19,
      "classificacao_etaria": "A14",
      "imagem_original": "https://animefire.plus/img/animes/shoujo-kakumei-utena.webp",
      "imagem_pasta": "https://animefire.plus/img/animes/shoujo-kakumei-utena/",
      "secao": "legendados",
      "pagina": 72,
      "total_episodios": 39,
      "link_video": "https://animefire.plus/video/shoujo-kakumei-utena"
    },
    {
      "id": 3518,
      "nome": "Shugo Chara! Party!",
      "link": "https://animefire.plus/animes/shugo-chara-party-todos-os-episodios",
      "texto_original": "Shugo Chara! Party!",
      "rating": 6.63,
      "classificacao_etaria": "A10",
      "imagem_original": "https://animefire.plus/img/animes/shugo-chara-party.webp",
      "imagem_pasta": "https://animefire.plus/img/animes/shugo-chara-party/",
      "secao": "legendados",
      "pagina": 63,
      "total_episodios": 25,
      "link_video": "https://animefire.plus/video/shugo-chara-party"
    },
    {
      "id": 3533,
      "nome": "Silent Möbius",
      "link": "https://animefire.plus/animes/silent-moebius-todos-os-episodios",
      "texto_original": "Silent Möbius",
      "rating": 6.88,
      "classificacao_etaria": "A14",
      "imagem_original": "https://animefire.plus/img/animes/silent-moebius.webp",
      "imagem_pasta": "https://animefire.plus/img/animes/silent-moebius/",
      "secao": "legendados",
      "pagina": 136,
      "total_episodios": 26,
      "link_video": "https://animefire.plus/video/silent-moebius"
    },
    {
      "id": 3538,
      "nome": "Sister Princess",
      "link": "https://animefire.plus/animes/sister-princess-todos-os-episodios",
      "texto_original": "Sister Princess",
      "rating": 6.5,
      "classificacao_etaria": "A14",
      "imagem_original": "https://animefire.plus/img/animes/sister-princess.webp",
      "imagem_pasta": "https://animefire.plus/img/animes/sister-princess/",
      "secao": "legendados",
      "pagina": 140,
      "total_episodios": 26,
      "link_video": "https://animefire.plus/video/sister-princess"
    },
    {
      "id": 3543,
      "nome": "Skip Beat! (Dublado)",
      "link": "https://animefire.plus/animes/skip-beat-dublado-todos-os-episodios",
      "texto_original": "Skip Beat! (Dublado)",
      "rating": 8.08,
      "classificacao_etaria": "A14",
      "imagem_original": "https://animefire.plus/img/animes/skip-beat.webp",
      "imagem_pasta": "https://animefire.plus/img/animes/skip-beat/",
      "secao": "dublados,legendados",
      "pagina": 3,
      "total_episodios": 25,
      "link_video": "https://animefire.plus/video/skip-beat-dublado"
    },
    {
      "id": 3546,
      "nome": "Sky Girls",
      "link": "https://animefire.plus/animes/sky-girls-todos-os-episodios",
      "texto_original": "Sky Girls",
      "rating": 7.07,
      "classificacao_etaria": "A14",
      "imagem_original": "https://animefire.plus/img/animes/sky-girls.webp",
      "imagem_pasta": "https://animefire.plus/img/animes/sky-girls/",
      "secao": "legendados",
      "pagina": 178,
      "total_episodios": 26,
      "link_video": "https://animefire.plus/video/sky-girls"
    },
    {
      "id": 3548,
      "nome": "Slayers (Dublado)",
      "link": "https://animefire.plus/animes/slayers-dublado-todos-os-episodios",
      "texto_original": "Slayers (Dublado)",
      "rating": 7.75,
      "classificacao_etaria": "A14",
      "imagem_original": "https://animefire.plus/img/animes/slayers.webp",
      "imagem_pasta": "https://animefire.plus/img/animes/slayers/",
      "secao": "dublados,legendados",
      "pagina": 17,
      "total_episodios": 26,
      "link_video": "https://animefire.plus/video/slayers-dublado"
    },
    {
      "id": 3559,
      "nome": "Smile Precure! (Dublado)",
      "link": "https://animefire.plus/animes/smile-precure-dublado-todos-os-episodios",
      "texto_original": "Smile Precure! (Dublado)",
      "rating": 6.95,
      "classificacao_etaria": null,
      "imagem_original": "https://animefire.plus/img/animes/smile-precure.webp",
      "imagem_pasta": "https://animefire.plus/img/animes/smile-precure/",
      "secao": "dublados,legendados",
      "pagina": 22,
      "total_episodios": 40,
      "link_video": "https://animefire.plus/video/smile-precure-dublado"
    }
  ],
  "pagination": {
    "current_page": 15,
    "per_page": 20,
    "total_items": 370,
    "total_pages": 19,
    "has_next": true,
    "has_prev": true
  }
}
