{
  "message": "Animes com 25 a 50 episódios",
  "episode_range": {
    "min": 25,
    "max": 50
  },
  "data": [
    {
      "id": 2005,
      "nome": "Kingdom 4th Season",
      "link": "https://animefire.plus/animes/kingdom-4-todos-os-episodios",
      "texto_original": "Kingdom 4th Season",
      "rating": 8.73,
      "classificacao_etaria": "A16",
      "imagem_original": "https://animefire.plus/img/animes/kingdom-4.webp",
      "imagem_pasta": "https://animefire.plus/img/animes/kingdom-4/",
      "secao": "legendados",
      "pagina": 33,
      "total_episodios": 26,
      "link_video": "https://animefire.plus/video/kingdom-4"
    },
    {
      "id": 2013,
      "nome": "Kirakira☆Precure A La Mode",
      "link": "https://animefire.plus/animes/kirakira-precure-a-la-mode-todos-os-episodios",
      "texto_original": "Kirakira☆Precure A La Mode",
      "rating": 6.88,
      "classificacao_etaria": null,
      "imagem_original": "https://animefire.plus/img/animes/kirakira-precure-a-la-mode.webp",
      "imagem_pasta": "https://animefire.plus/img/animes/kirakira-precure-a-la-mode/",
      "secao": "legendados",
      "pagina": 67,
      "total_episodios": 49,
      "link_video": "https://animefire.plus/video/kirakira-precure-a-la-mode"
    },
    {
      "id": 2144,
      "nome": "Kurenai Sanshirou",
      "link": "https://animefire.plus/animes/kurenai-sanshirou-todos-os-episodios",
      "texto_original": "Kurenai Sanshirou",
      "rating": 6.6,
      "classificacao_etaria": "A14",
      "imagem_original": "https://animefire.plus/img/animes/kurenai-sanshirou.webp",
      "imagem_pasta": "https://animefire.plus/img/animes/kurenai-sanshirou/",
      "secao": "legendados",
      "pagina": 112,
      "total_episodios": 26,
      "link_video": "https://animefire.plus/video/kurenai-sanshirou"
    },
    {
      "id": 2156,
      "nome": "Kuromukuro",
      "link": "https://animefire.plus/animes/kuromukuro-todos-os-episodios",
      "texto_original": "Kuromukuro",
      "rating": 7.32,
      "classificacao_etaria": "A16",
      "imagem_original": "https://animefire.plus/img/animes/kuromukuro.webp",
      "imagem_pasta": "https://animefire.plus/img/animes/kuromukuro/",
      "secao": "legendados",
      "pagina": 106,
      "total_episodios": 25,
      "link_video": "https://animefire.plus/video/kuromukuro"
    },
    {
      "id": 2157,
      "nome": "Kuroshitsuji (Dublado)",
      "link": "https://animefire.plus/animes/kuroshitsuji-dublado-todos-os-episodios",
      "texto_original": "Kuroshitsuji (Dublado)",
      "rating": 7.71,
      "classificacao_etaria": "A16",
      "imagem_original": "https://animefire.plus/img/animes/kuroshitsuji.webp",
      "imagem_pasta": "https://animefire.plus/img/animes/kuroshitsuji/",
      "secao": "dublados,legendados",
      "pagina": 16,
      "total_episodios": 25,
      "link_video": "https://animefire.plus/video/kuroshitsuji-dublado"
    },
    {
      "id": 2178,
      "nome": "Kyou kara Maou! 3rd Series",
      "link": "https://animefire.plus/animes/kyou-kara-maou-3rd-series-todos-os-episodios",
      "texto_original": "Kyou kara Maou! 3rd Series",
      "rating": 7.85,
      "classificacao_etaria": "A14",
      "imagem_original": "https://animefire.plus/img/animes/kyou-kara-maou-3rd-series.webp",
      "imagem_pasta": "https://animefire.plus/img/animes/kyou-kara-maou-3rd-series/",
      "secao": "legendados",
      "pagina": 76,
      "total_episodios": 39,
      "link_video": "https://animefire.plus/video/kyou-kara-maou-3rd-series"
    },
    {
      "id": 2184,
      "nome": "Kyoukai no Rinne (TV)",
      "link": "https://animefire.plus/animes/kyoukai-no-rinne-tv-todos-os-episodios",
      "texto_original": "Kyoukai no Rinne (TV)",
      "rating": 6.93,
      "classificacao_etaria": "A14",
      "imagem_original": "https://animefire.plus/img/animes/kyoukai-no-rinne-tv.webp",
      "imagem_pasta": "https://animefire.plus/img/animes/kyoukai-no-rinne-tv/",
      "secao": "legendados",
      "pagina": 91,
      "total_episodios": 25,
      "link_video": "https://animefire.plus/video/kyoukai-no-rinne-tv"
    },
    {
      "id": 2195,
      "nome": "Kyuuketsuhime Miyu (TV)",
      "link": "https://animefire.plus/animes/kyuuketsuhime-miyu-tv-todos-os-episodios",
      "texto_original": "Kyuuketsuhime Miyu (TV)",
      "rating": 7.2,
      "classificacao_etaria": "A16",
      "imagem_original": "https://animefire.plus/img/animes/kyuuketsuhime-miyu-tv.webp",
      "imagem_pasta": "https://animefire.plus/img/animes/kyuuketsuhime-miyu-tv/",
      "secao": "legendados",
      "pagina": 158,
      "total_episodios": 26,
      "link_video": "https://animefire.plus/video/kyuuketsuhime-miyu-tv"
    },
    {
      "id": 2205,
      "nome": "Last Exile",
      "link": "https://animefire.plus/animes/last-exile-todos-os-episodios",
      "texto_original": "Last Exile",
      "rating": 7.88,
      "classificacao_etaria": "A14",
      "imagem_original": "https://animefire.plus/img/animes/last-exile.webp",
      "imagem_pasta": "https://animefire.plus/img/animes/last-exile/",
      "secao": "legendados",
      "pagina": 124,
      "total_episodios": 26,
      "link_video": "https://animefire.plus/video/last-exile"
    },
    {
      "id": 2208,
      "nome": "Layton Mystery Tanteisha: Katri no Nazotoki File",
      "link": "https://animefire.plus/animes/layton-mystery-tanteisha-katri-no-nazotoki-file-todos-os-episodios",
      "texto_original": "Layton Mystery Tanteisha: Katri no Nazotoki File",
      "rating": 7.33,
      "classificacao_etaria": "A10",
      "imagem_original": "https://animefire.plus/img/animes/layton-mystery-tanteisha-katri-no-nazotoki-file.webp",
      "imagem_pasta": "https://animefire.plus/img/animes/layton-mystery-tanteisha-katri-no-nazotoki-file/",
      "secao": "legendados",
      "pagina": 162,
      "total_episodios": 50,
      "link_video": "https://animefire.plus/video/layton-mystery-tanteisha-katri-no-nazotoki-file"
    },
    {
      "id": 2221,
      "nome": "Ling Jian Zun",
      "link": "https://animefire.plus/animes/ling-jian-zun-todos-os-episodios",
      "texto_original": "Ling Jian Zun",
      "rating": 6.89,
      "classificacao_etaria": "A14",
      "imagem_original": "https://animefire.plus/img/animes/ling-jian-zun.webp",
      "imagem_pasta": "https://animefire.plus/img/animes/ling-jian-zun/",
      "secao": "legendados",
      "pagina": 80,
      "total_episodios": 30,
      "link_video": "https://animefire.plus/video/ling-jian-zun"
    },
    {
      "id": 2232,
      "nome": "Little Witch Academia (TV) (Dublado)",
      "link": "https://animefire.plus/animes/little-witch-academia-tv-dublado-todos-os-episodios",
      "texto_original": "Little Witch Academia (TV) (Dublado)",
      "rating": 8.02,
      "classificacao_etaria": null,
      "imagem_original": "https://animefire.plus/img/animes/little-witch-academia-tv.webp",
      "imagem_pasta": "https://animefire.plus/img/animes/little-witch-academia-tv/",
      "secao": "dublados,legendados",
      "pagina": 24,
      "total_episodios": 25,
      "link_video": "https://animefire.plus/video/little-witch-academia-tv-dublado"
    },
    {
      "id": 2233,
      "nome": "Lodoss-tou Senki: Eiyuu Kishi Den",
      "link": "https://animefire.plus/animes/lodoss-tou-senki-eiyuu-kishi-den-todos-os-episodios",
      "texto_original": "Lodoss-tou Senki: Eiyuu Kishi Den",
      "rating": 7.21,
      "classificacao_etaria": "A14",
      "imagem_original": "https://animefire.plus/img/animes/lodoss-tou-senki-eiyuu-kishi-den.webp",
      "imagem_pasta": "https://animefire.plus/img/animes/lodoss-tou-senki-eiyuu-kishi-den/",
      "secao": "legendados",
      "pagina": 128,
      "total_episodios": 27,
      "link_video": "https://animefire.plus/video/lodoss-tou-senki-eiyuu-kishi-den"
    },
    {
      "id": 2235,
      "nome": "Log Horizon 2nd Season",
      "link": "https://animefire.plus/animes/log-horizon-2nd-season-todos-os-episodios",
      "texto_original": "Log Horizon 2nd Season",
      "rating": 7.64,
      "classificacao_etaria": "A14",
      "imagem_original": "https://animefire.plus/img/animes/log-horizon-2nd-season.webp",
      "imagem_pasta": "https://animefire.plus/img/animes/log-horizon-2nd-season/",
      "secao": "legendados",
      "pagina": 81,
      "total_episodios": 25,
      "link_video": "https://animefire.plus/video/log-horizon-2nd-season"
    },
    {
      "id": 2243,
      "nome": "Lost Universe",
      "link": "https://animefire.plus/animes/lost-universe-todos-os-episodios",
      "texto_original": "Lost Universe",
      "rating": 7.06,
      "classificacao_etaria": "A14",
      "imagem_original": "https://animefire.plus/img/animes/lost-universe.webp",
      "imagem_pasta": "https://animefire.plus/img/animes/lost-universe/",
      "secao": "legendados",
      "pagina": 167,
      "total_episodios": 26,
      "link_video": "https://animefire.plus/video/lost-universe"
    },
    {
      "id": 2263,
      "nome": "Lu Shidai",
      "link": "https://animefire.plus/animes/lu-shidai-todos-os-episodios",
      "texto_original": "Lu Shidai",
      "rating": 6.68,
      "classificacao_etaria": "A14",
      "imagem_original": "https://animefire.plus/img/animes/lu-shidai.webp",
      "imagem_pasta": "https://animefire.plus/img/animes/lu-shidai/",
      "secao": "legendados",
      "pagina": 167,
      "total_episodios": 27,
      "link_video": "https://animefire.plus/video/lu-shidai"
    },
    {
      "id": 2269,
      "nome": "Lupin III (2015)",
      "link": "https://animefire.plus/animes/lupin-iii-2015-todos-os-episodios",
      "texto_original": "Lupin III (2015)",
      "rating": 7.94,
      "classificacao_etaria": "A14",
      "imagem_original": "https://animefire.plus/img/animes/lupin-iii-2015.webp",
      "imagem_pasta": "https://animefire.plus/img/animes/lupin-iii-2015/",
      "secao": "legendados",
      "pagina": 76,
      "total_episodios": 26,
      "link_video": "https://animefire.plus/video/lupin-iii-2015"
    },
    {
      "id": 2276,
      "nome": "Lupin III: Part 6 (Dublado)",
      "link": "https://animefire.plus/animes/lupin-iii-part-6-dublado-todos-os-episodios",
      "texto_original": "Lupin III: Part 6 (Dublado)",
      "rating": 7.2,
      "classificacao_etaria": "A14",
      "imagem_original": "https://animefire.plus/img/animes/lupin-iii-part-6.webp",
      "imagem_pasta": "https://animefire.plus/img/animes/lupin-iii-part-6/",
      "secao": "dublados,legendados",
      "pagina": 11,
      "total_episodios": 25,
      "link_video": "https://animefire.plus/video/lupin-iii-part-6-dublado"
    },
    {
      "id": 2292,
      "nome": "Macross (Dublado)",
      "link": "https://animefire.plus/animes/macross-dublado-todos-os-episodios",
      "texto_original": "Macross (Dublado)",
      "rating": 7.96,
      "classificacao_etaria": "A14",
      "imagem_original": "https://animefire.plus/img/animes/macross.webp",
      "imagem_pasta": "https://animefire.plus/img/animes/macross/",
      "secao": "dublados,legendados",
      "pagina": 22,
      "total_episodios": 36,
      "link_video": "https://animefire.plus/video/macross-dublado"
    },
    {
      "id": 2293,
      "nome": "Macross 7",
      "link": "https://animefire.plus/animes/macross-7-todos-os-episodios",
      "texto_original": "Macross 7",
      "rating": 7.14,
      "classificacao_etaria": "A14",
      "imagem_original": "https://animefire.plus/img/animes/macross-7.webp",
      "imagem_pasta": "https://animefire.plus/img/animes/macross-7/",
      "secao": "legendados",
      "pagina": 60,
      "total_episodios": 49,
      "link_video": "https://animefire.plus/video/macross-7"
    }
  ],
  "pagination": {
    "current_page": 10,
    "per_page": 20,
    "total_items": 370,
    "total_pages": 19,
    "has_next": true,
    "has_prev": true
  }
}
