{
  "message": "Animes com 25 a 50 episódios",
  "episode_range": {
    "min": 25,
    "max": 50
  },
  "data": [
    {
      "id": 3068,
      "nome": "RahXephon",
      "link": "https://animefire.plus/animes/rahxephon-todos-os-episodios",
      "texto_original": "RahXephon",
      "rating": 7.48,
      "classificacao_etaria": "A14",
      "imagem_original": "https://animefire.plus/img/animes/rahxephon.webp",
      "imagem_pasta": "https://animefire.plus/img/animes/rahxephon/",
      "secao": "legendados",
      "pagina": 115,
      "total_episodios": 26,
      "link_video": "https://animefire.plus/video/rahxephon"
    },
    {
      "id": 3072,
      "nome": "Rainbow: Nisha Rokubou no Shichinin",
      "link": "https://animefire.plus/animes/rainbow-nisha-rokubou-no-shichinin-todos-os-episodios",
      "texto_original": "Rainbow: Nisha Rokubou no Shichinin",
      "rating": 8.56,
      "classificacao_etaria": "A16",
      "imagem_original": "https://animefire.plus/img/animes/rainbow-nisha-rokubou-no-shichinin.webp",
      "imagem_pasta": "https://animefire.plus/img/animes/rainbow-nisha-rokubou-no-shichinin/",
      "secao": "legendados",
      "pagina": 141,
      "total_episodios": 26,
      "link_video": "https://animefire.plus/video/rainbow-nisha-rokubou-no-shichinin"
    },
    {
      "id": 3083,
      "nome": "RD Sennou Chousashitsu",
      "link": "https://animefire.plus/animes/rd-sennou-chousashitsu-todos-os-episodios",
      "texto_original": "RD Sennou Chousashitsu",
      "rating": 7.17,
      "classificacao_etaria": "A16",
      "imagem_original": "https://animefire.plus/img/animes/rd-sennou-chousashitsu.webp",
      "imagem_pasta": "https://animefire.plus/img/animes/rd-sennou-chousashitsu/",
      "secao": "legendados",
      "pagina": 161,
      "total_episodios": 26,
      "link_video": "https://animefire.plus/video/rd-sennou-chousashitsu"
    },
    {
      "id": 3092,
      "nome": "Re:Zero kara Hajimeru Isekai Seikatsu (Dublado)",
      "link": "https://animefire.plus/animes/re-zero-kara-hajimeru-isekai-seikatsu-dublado-todos-os-episodios",
      "texto_original": "Re:Zero kara Hajimeru Isekai Seikatsu (Dublado)",
      "rating": 8.35,
      "classificacao_etaria": "A16",
      "imagem_original": "https://animefire.plus/img/animes/re-zero-kara-hajimeru-isekai-seikatsu.webp",
      "imagem_pasta": "https://animefire.plus/img/animes/re-zero-kara-hajimeru-isekai-seikatsu/",
      "secao": "dublados,legendados",
      "pagina": 26,
      "total_episodios": 26,
      "link_video": "https://animefire.plus/video/re-zero-kara-hajimeru-isekai-seikatsu-dublado"
    },
    {
      "id": 3106,
      "nome": "Rekka no Honoo",
      "link": "https://animefire.plus/animes/rekka-no-honoo-todos-os-episodios",
      "texto_original": "Rekka no Honoo",
      "rating": 7.41,
      "classificacao_etaria": "A14",
      "imagem_original": "https://animefire.plus/img/animes/rekka-no-honoo.webp",
      "imagem_pasta": "https://animefire.plus/img/animes/rekka-no-honoo/",
      "secao": "legendados",
      "pagina": 162,
      "total_episodios": 42,
      "link_video": "https://animefire.plus/video/rekka-no-honoo"
    },
    {
      "id": 3144,
      "nome": "Rockman.EXE Axess",
      "link": "https://animefire.plus/animes/rockman-exe-axess-todos-os-episodios",
      "texto_original": "Rockman.EXE Axess",
      "rating": 7.23,
      "classificacao_etaria": "A10",
      "imagem_original": "https://animefire.plus/img/animes/rockman-exe-axess.webp",
      "imagem_pasta": "https://animefire.plus/img/animes/rockman-exe-axess/",
      "secao": "legendados",
      "pagina": 146,
      "total_episodios": 36,
      "link_video": "https://animefire.plus/video/rockman-exe-axess"
    },
    {
      "id": 3153,
      "nome": "Romeo no Aoi Sora",
      "link": "https://animefire.plus/animes/romeo-no-aoi-sora-todos-os-episodios",
      "texto_original": "Romeo no Aoi Sora",
      "rating": 8.31,
      "classificacao_etaria": "A14",
      "imagem_original": "https://animefire.plus/img/animes/romeo-no-aoi-sora.webp",
      "imagem_pasta": "https://animefire.plus/img/animes/romeo-no-aoi-sora/",
      "secao": "legendados",
      "pagina": 121,
      "total_episodios": 33,
      "link_video": "https://animefire.plus/video/romeo-no-aoi-sora"
    },
    {
      "id": 3179,
      "nome": "s.CRY.ed",
      "link": "https://animefire.plus/animes/s-cry-ed-todos-os-episodios",
      "texto_original": "s.CRY.ed",
      "rating": 7.42,
      "classificacao_etaria": "A14",
      "imagem_original": "https://animefire.plus/img/animes/s-cry-ed.webp",
      "imagem_pasta": "https://animefire.plus/img/animes/s-cry-ed/",
      "secao": "legendados",
      "pagina": 175,
      "total_episodios": 25,
      "link_video": "https://animefire.plus/video/s-cry-ed"
    },
    {
      "id": 3215,
      "nome": "Saiunkoku Monogatari",
      "link": "https://animefire.plus/animes/saiunkoku-monogatari-todos-os-episodios",
      "texto_original": "Saiunkoku Monogatari",
      "rating": 8.02,
      "classificacao_etaria": "A14",
      "imagem_original": "https://animefire.plus/img/animes/saiunkoku-monogatari.webp",
      "imagem_pasta": "https://animefire.plus/img/animes/saiunkoku-monogatari/",
      "secao": "legendados",
      "pagina": 129,
      "total_episodios": 39,
      "link_video": "https://animefire.plus/video/saiunkoku-monogatari"
    },
    {
      "id": 3216,
      "nome": "Saiunkoku Monogatari 2nd Season",
      "link": "https://animefire.plus/animes/saiunkoku-monogatari-2nd-season-todos-os-episodios",
      "texto_original": "Saiunkoku Monogatari 2nd Season",
      "rating": 8.14,
      "classificacao_etaria": "A14",
      "imagem_original": "https://animefire.plus/img/animes/saiunkoku-monogatari-2nd-season.webp",
      "imagem_pasta": "https://animefire.plus/img/animes/saiunkoku-monogatari-2nd-season/",
      "secao": "legendados",
      "pagina": 174,
      "total_episodios": 39,
      "link_video": "https://animefire.plus/video/saiunkoku-monogatari-2nd-season"
    },
    {
      "id": 3218,
      "nome": "Saiyuuki Reload",
      "link": "https://animefire.plus/animes/saiyuuki-reload-todos-os-episodios",
      "texto_original": "Saiyuuki Reload",
      "rating": 7.49,
      "classificacao_etaria": "A14",
      "imagem_original": "https://animefire.plus/img/animes/saiyuuki-reload.webp",
      "imagem_pasta": "https://animefire.plus/img/animes/saiyuuki-reload/",
      "secao": "legendados",
      "pagina": 176,
      "total_episodios": 25,
      "link_video": "https://animefire.plus/video/saiyuuki-reload"
    },
    {
      "id": 3220,
      "nome": "Saiyuuki Reload Gunlock",
      "link": "https://animefire.plus/animes/saiyuuki-reload-gunlock-todos-os-episodios",
      "texto_original": "Saiyuuki Reload Gunlock",
      "rating": 7.5,
      "classificacao_etaria": "A14",
      "imagem_original": "https://animefire.plus/img/animes/saiyuuki-reload-gunlock.webp",
      "imagem_pasta": "https://animefire.plus/img/animes/saiyuuki-reload-gunlock/",
      "secao": "legendados",
      "pagina": 176,
      "total_episodios": 26,
      "link_video": "https://animefire.plus/video/saiyuuki-reload-gunlock"
    },
    {
      "id": 3227,
      "nome": "Saki",
      "link": "https://animefire.plus/animes/saki-todos-os-episodios",
      "texto_original": "Saki",
      "rating": 7.5,
      "classificacao_etaria": "A14",
      "imagem_original": "https://animefire.plus/img/animes/saki.webp",
      "imagem_pasta": "https://animefire.plus/img/animes/saki/",
      "secao": "legendados",
      "pagina": 65,
      "total_episodios": 25,
      "link_video": "https://animefire.plus/video/saki"
    },
    {
      "id": 3231,
      "nome": "Sakigake!! Cromartie Koukou",
      "link": "https://animefire.plus/animes/sakigake-cromartie-koukou-todos-os-episodios",
      "texto_original": "Sakigake!! Cromartie Koukou",
      "rating": 7.93,
      "classificacao_etaria": "A14",
      "imagem_original": "https://animefire.plus/img/animes/sakigake-cromartie-koukou.webp",
      "imagem_pasta": "https://animefire.plus/img/animes/sakigake-cromartie-koukou/",
      "secao": "legendados",
      "pagina": 45,
      "total_episodios": 25,
      "link_video": "https://animefire.plus/video/sakigake-cromartie-koukou"
    },
    {
      "id": 3235,
      "nome": "Sakura Taisen",
      "link": "https://animefire.plus/animes/sakura-taisen-todos-os-episodios",
      "texto_original": "Sakura Taisen",
      "rating": 6.95,
      "classificacao_etaria": "A14",
      "imagem_original": "https://animefire.plus/img/animes/sakura-taisen.webp",
      "imagem_pasta": "https://animefire.plus/img/animes/sakura-taisen/",
      "secao": "legendados",
      "pagina": 176,
      "total_episodios": 25,
      "link_video": "https://animefire.plus/video/sakura-taisen"
    },
    {
      "id": 3242,
      "nome": "Samurai 7",
      "link": "https://animefire.plus/animes/samurai-7-todos-os-episodios",
      "texto_original": "Samurai 7",
      "rating": 7.55,
      "classificacao_etaria": "A14",
      "imagem_original": "https://animefire.plus/img/animes/samurai-7.webp",
      "imagem_pasta": "https://animefire.plus/img/animes/samurai-7/",
      "secao": "legendados",
      "pagina": 112,
      "total_episodios": 25,
      "link_video": "https://animefire.plus/video/samurai-7"
    },
    {
      "id": 3243,
      "nome": "Samurai Champloo (Dublado)",
      "link": "https://animefire.plus/animes/samurai-champloo-dublado-todos-os-episodios",
      "texto_original": "Samurai Champloo (Dublado)",
      "rating": 8.5,
      "classificacao_etaria": "A16",
      "imagem_original": "https://animefire.plus/img/animes/samurai-champloo.webp",
      "imagem_pasta": "https://animefire.plus/img/animes/samurai-champloo/",
      "secao": "dublados,legendados",
      "pagina": 25,
      "total_episodios": 26,
      "link_video": "https://animefire.plus/video/samurai-champloo-dublado"
    },
    {
      "id": 3244,
      "nome": "Samurai Deeper Kyou",
      "link": "https://animefire.plus/animes/samurai-deeper-kyou-todos-os-episodios",
      "texto_original": "Samurai Deeper Kyou",
      "rating": 6.98,
      "classificacao_etaria": "A14",
      "imagem_original": "https://animefire.plus/img/animes/samurai-deeper-kyou.webp",
      "imagem_pasta": "https://animefire.plus/img/animes/samurai-deeper-kyou/",
      "secao": "legendados",
      "pagina": 120,
      "total_episodios": 26,
      "link_video": "https://animefire.plus/video/samurai-deeper-kyou"
    },
    {
      "id": 3255,
      "nome": "Sanzoku no Musume Ronja",
      "link": "https://animefire.plus/animes/sanzoku-no-musume-ronja-todos-os-episodios",
      "texto_original": "Sanzoku no Musume Ronja",
      "rating": 7.18,
      "classificacao_etaria": "A10",
      "imagem_original": "https://animefire.plus/img/animes/sanzoku-no-musume-ronja.webp",
      "imagem_pasta": "https://animefire.plus/img/animes/sanzoku-no-musume-ronja/",
      "secao": "legendados",
      "pagina": 75,
      "total_episodios": 25,
      "link_video": "https://animefire.plus/video/sanzoku-no-musume-ronja"
    },
    {
      "id": 3273,
      "nome": "Scarlet Nexus (Dublado)",
      "link": "https://animefire.plus/animes/scarlet-nexus-dublado-todos-os-episodios",
      "texto_original": "Scarlet Nexus (Dublado)",
      "rating": 5.72,
      "classificacao_etaria": "A14",
      "imagem_original": "https://animefire.plus/img/animes/scarlet-nexus.webp",
      "imagem_pasta": "https://animefire.plus/img/animes/scarlet-nexus/",
      "secao": "dublados,legendados",
      "pagina": 16,
      "total_episodios": 26,
      "link_video": "https://animefire.plus/video/scarlet-nexus-dublado"
    }
  ],
  "pagination": {
    "current_page": 14,
    "per_page": 20,
    "total_items": 370,
    "total_pages": 19,
    "has_next": true,
    "has_prev": true
  }
}
