{
  "message": "Animes com 25 a 50 episódios",
  "episode_range": {
    "min": 25,
    "max": 50
  },
  "data": [
    {
      "id": 2542,
      "nome": "Mobile Fighter G Gundam",
      "link": "https://animefire.plus/animes/mobile-fighter-g-gundam-todos-os-episodios",
      "texto_original": "Mobile Fighter G Gundam",
      "rating": 7.57,
      "classificacao_etaria": "A14",
      "imagem_original": "https://animefire.plus/img/animes/mobile-fighter-g-gundam.webp",
      "imagem_pasta": "https://animefire.plus/img/animes/mobile-fighter-g-gundam/",
      "secao": "legendados",
      "pagina": 74,
      "total_episodios": 49,
      "link_video": "https://animefire.plus/video/mobile-fighter-g-gundam"
    },
    {
      "id": 2543,
      "nome": "Mobile Suit Gundam 00 (Dublado)",
      "link": "https://animefire.plus/animes/mobile-suit-gundam-00-dublado-todos-os-episodios",
      "texto_original": "Mobile Suit Gundam 00 (Dublado)",
      "rating": 8.13,
      "classificacao_etaria": "A16",
      "imagem_original": "https://animefire.plus/img/animes/mobile-suit-gundam-00.webp",
      "imagem_pasta": "https://animefire.plus/img/animes/mobile-suit-gundam-00/",
      "secao": "dublados,legendados,lancamentos",
      "pagina": 18,
      "total_episodios": 25,
      "link_video": "https://animefire.plus/video/mobile-suit-gundam-00-dublado"
    },
    {
      "id": 2544,
      "nome": "Mobile Suit Gundam 00 Second Season",
      "link": "https://animefire.plus/animes/mobile-suit-gundam-00-second-season-todos-os-episodios",
      "texto_original": "Mobile Suit Gundam 00 Second Season",
      "rating": 8.16,
      "classificacao_etaria": "A16",
      "imagem_original": "https://animefire.plus/img/animes/mobile-suit-gundam-00-second-season.webp",
      "imagem_pasta": "https://animefire.plus/img/animes/mobile-suit-gundam-00-second-season/",
      "secao": "legendados",
      "pagina": 125,
      "total_episodios": 25,
      "link_video": "https://animefire.plus/video/mobile-suit-gundam-00-second-season"
    },
    {
      "id": 2547,
      "nome": "Mobile Suit Gundam SEED",
      "link": "https://animefire.plus/animes/mobile-suit-gundam-seed-todos-os-episodios",
      "texto_original": "Mobile Suit Gundam SEED",
      "rating": 7.86,
      "classificacao_etaria": "A16",
      "imagem_original": "https://animefire.plus/img/animes/mobile-suit-gundam-seed.webp",
      "imagem_pasta": "https://animefire.plus/img/animes/mobile-suit-gundam-seed/",
      "secao": "legendados",
      "pagina": 131,
      "total_episodios": 50,
      "link_video": "https://animefire.plus/video/mobile-suit-gundam-seed"
    },
    {
      "id": 2548,
      "nome": "Mobile Suit Gundam SEED Destiny",
      "link": "https://animefire.plus/animes/mobile-suit-gundam-seed-destiny-todos-os-episodios",
      "texto_original": "Mobile Suit Gundam SEED Destiny",
      "rating": 7.29,
      "classificacao_etaria": "A16",
      "imagem_original": "https://animefire.plus/img/animes/mobile-suit-gundam-seed-destiny.webp",
      "imagem_pasta": "https://animefire.plus/img/animes/mobile-suit-gundam-seed-destiny/",
      "secao": "legendados",
      "pagina": 131,
      "total_episodios": 50,
      "link_video": "https://animefire.plus/video/mobile-suit-gundam-seed-destiny"
    },
    {
      "id": 2555,
      "nome": "Mobile Suit Gundam: Iron-Blooded Orphans 2nd Season",
      "link": "https://animefire.plus/animes/mobile-suit-gundam-iron-blooded-orphans-2nd-season-todos-os-episodios",
      "texto_original": "Mobile Suit Gundam: Iron-Blooded Orphans 2nd Season",
      "rating": 8.26,
      "classificacao_etaria": "A16",
      "imagem_original": "https://animefire.plus/img/animes/mobile-suit-gundam-iron-blooded-orphans-2nd-season.webp",
      "imagem_pasta": "https://animefire.plus/img/animes/mobile-suit-gundam-iron-blooded-orphans-2nd-season/",
      "secao": "legendados",
      "pagina": 64,
      "total_episodios": 25,
      "link_video": "https://animefire.plus/video/mobile-suit-gundam-iron-blooded-orphans-2nd-season"
    },
    {
      "id": 2561,
      "nome": "Mobile Suit Zeta Gundam",
      "link": "https://animefire.plus/animes/mobile-suit-zeta-gundam-todos-os-episodios",
      "texto_original": "Mobile Suit Zeta Gundam",
      "rating": 7.93,
      "classificacao_etaria": "A14",
      "imagem_original": "https://animefire.plus/img/animes/mobile-suit-zeta-gundam.webp",
      "imagem_pasta": "https://animefire.plus/img/animes/mobile-suit-zeta-gundam/",
      "secao": "legendados",
      "pagina": 55,
      "total_episodios": 50,
      "link_video": "https://animefire.plus/video/mobile-suit-zeta-gundam"
    },
    {
      "id": 2604,
      "nome": "Mugen No Ryvius",
      "link": "https://animefire.plus/animes/mugen-no-ryvius-todos-os-episodios",
      "texto_original": "Mugen No Ryvius",
      "rating": 7.53,
      "classificacao_etaria": "A14",
      "imagem_original": "https://animefire.plus/img/animes/mugen-no-ryvius.webp",
      "imagem_pasta": "https://animefire.plus/img/animes/mugen-no-ryvius/",
      "secao": "legendados",
      "pagina": 155,
      "total_episodios": 26,
      "link_video": "https://animefire.plus/video/mugen-no-ryvius"
    },
    {
      "id": 2616,
      "nome": "Mushibugyou",
      "link": "https://animefire.plus/animes/mushibugyou-todos-os-episodios",
      "texto_original": "Mushibugyou",
      "rating": 7.42,
      "classificacao_etaria": "A14",
      "imagem_original": "https://animefire.plus/img/animes/mushibugyou.webp",
      "imagem_pasta": "https://animefire.plus/img/animes/mushibugyou/",
      "secao": "legendados",
      "pagina": 106,
      "total_episodios": 26,
      "link_video": "https://animefire.plus/video/mushibugyou"
    },
    {
      "id": 2620,
      "nome": "Mushishi (Dublado)",
      "link": "https://animefire.plus/animes/mushishi-dublado-todos-os-episodios",
      "texto_original": "Mushishi (Dublado)",
      "rating": 8.71,
      "classificacao_etaria": "A14",
      "imagem_original": "https://animefire.plus/img/animes/mushishi.webp",
      "imagem_pasta": "https://animefire.plus/img/animes/mushishi/",
      "secao": "dublados,legendados",
      "pagina": 25,
      "total_episodios": 26,
      "link_video": "https://animefire.plus/video/mushishi-dublado"
    },
    {
      "id": 2633,
      "nome": "Mutsu Enmei Ryuu Gaiden: Shura no Toki",
      "link": "https://animefire.plus/animes/mutsu-enmei-ryuu-gaiden-shura-no-toki-todos-os-episodios",
      "texto_original": "Mutsu Enmei Ryuu Gaiden: Shura no Toki",
      "rating": 7.63,
      "classificacao_etaria": "A14",
      "imagem_original": "https://animefire.plus/img/animes/mutsu-enmei-ryuu-gaiden-shura-no-toki.webp",
      "imagem_pasta": "https://animefire.plus/img/animes/mutsu-enmei-ryuu-gaiden-shura-no-toki/",
      "secao": "legendados",
      "pagina": 148,
      "total_episodios": 26,
      "link_video": "https://animefire.plus/video/mutsu-enmei-ryuu-gaiden-shura-no-toki"
    },
    {
      "id": 2640,
      "nome": "Nabari no Ou",
      "link": "https://animefire.plus/animes/nabari-no-ou-todos-os-episodios",
      "texto_original": "Nabari no Ou",
      "rating": 7.37,
      "classificacao_etaria": "A14",
      "imagem_original": "https://animefire.plus/img/animes/nabari-no-ou.webp",
      "imagem_pasta": "https://animefire.plus/img/animes/nabari-no-ou/",
      "secao": "legendados",
      "pagina": 159,
      "total_episodios": 26,
      "link_video": "https://animefire.plus/video/nabari-no-ou"
    },
    {
      "id": 2642,
      "nome": "Nagasarete Airantou",
      "link": "https://animefire.plus/animes/nagasarete-airantou-todos-os-episodios",
      "texto_original": "Nagasarete Airantou",
      "rating": 7.36,
      "classificacao_etaria": "A14",
      "imagem_original": "https://animefire.plus/img/animes/nagasarete-airantou.webp",
      "imagem_pasta": "https://animefire.plus/img/animes/nagasarete-airantou/",
      "secao": "legendados",
      "pagina": 154,
      "total_episodios": 26,
      "link_video": "https://animefire.plus/video/nagasarete-airantou"
    },
    {
      "id": 2715,
      "nome": "Neon Genesis Evangelion (Dublado)",
      "link": "https://animefire.plus/animes/neon-genesis-evangelion-dublado-todos-os-episodios",
      "texto_original": "Neon Genesis Evangelion (Dublado)",
      "rating": 8.34,
      "classificacao_etaria": "A14",
      "imagem_original": "https://animefire.plus/img/animes/neon-genesis-evangelion.webp",
      "imagem_pasta": "https://animefire.plus/img/animes/neon-genesis-evangelion/",
      "secao": "dublados,legendados",
      "pagina": 26,
      "total_episodios": 26,
      "link_video": "https://animefire.plus/video/neon-genesis-evangelion-dublado"
    },
    {
      "id": 2725,
      "nome": "Nichijou",
      "link": "https://animefire.plus/animes/nichijou-todos-os-episodios",
      "texto_original": "Nichijou",
      "rating": 8.51,
      "classificacao_etaria": "A14",
      "imagem_original": "https://animefire.plus/img/animes/nichijou.webp",
      "imagem_pasta": "https://animefire.plus/img/animes/nichijou/",
      "secao": "legendados",
      "pagina": 174,
      "total_episodios": 26,
      "link_video": "https://animefire.plus/video/nichijou"
    },
    {
      "id": 2772,
      "nome": "Noir (Dublado)",
      "link": "https://animefire.plus/animes/noir-dublado-todos-os-episodios",
      "texto_original": "Noir (Dublado)",
      "rating": 7.32,
      "classificacao_etaria": "A14",
      "imagem_original": "https://animefire.plus/img/animes/noir.webp",
      "imagem_pasta": "https://animefire.plus/img/animes/noir/",
      "secao": "dublados,legendados",
      "pagina": 22,
      "total_episodios": 26,
      "link_video": "https://animefire.plus/video/noir-dublado"
    },
    {
      "id": 2793,
      "nome": "Nurarihyon no Mago",
      "link": "https://animefire.plus/animes/nurarihyon-no-mago-todos-os-episodios",
      "texto_original": "Nurarihyon no Mago",
      "rating": 7.73,
      "classificacao_etaria": "A14",
      "imagem_original": "https://animefire.plus/img/animes/nurarihyon-no-mago.webp",
      "imagem_pasta": "https://animefire.plus/img/animes/nurarihyon-no-mago/",
      "secao": "legendados",
      "pagina": 143,
      "total_episodios": 26,
      "link_video": "https://animefire.plus/video/nurarihyon-no-mago"
    },
    {
      "id": 2795,
      "nome": "Nurarihyon no Mago: Sennen Makyou",
      "link": "https://animefire.plus/animes/nurarihyon-no-mago-sennen-makyou-todos-os-episodios",
      "texto_original": "Nurarihyon no Mago: Sennen Makyou",
      "rating": 8.08,
      "classificacao_etaria": "A14",
      "imagem_original": "https://animefire.plus/img/animes/nurarihyon-no-mago-sennen-makyou.webp",
      "imagem_pasta": "https://animefire.plus/img/animes/nurarihyon-no-mago-sennen-makyou/",
      "secao": "legendados",
      "pagina": 152,
      "total_episodios": 25,
      "link_video": "https://animefire.plus/video/nurarihyon-no-mago-sennen-makyou"
    },
    {
      "id": 2825,
      "nome": "One Outs",
      "link": "https://animefire.plus/animes/one-outs-todos-os-episodios",
      "texto_original": "One Outs",
      "rating": 8.39,
      "classificacao_etaria": "A14",
      "imagem_original": "https://animefire.plus/img/animes/one-outs.webp",
      "imagem_pasta": "https://animefire.plus/img/animes/one-outs/",
      "secao": "legendados",
      "pagina": 114,
      "total_episodios": 25,
      "link_video": "https://animefire.plus/video/one-outs"
    },
    {
      "id": 2856,
      "nome": "Oniisama e...",
      "link": "https://animefire.plus/animes/oniisama-e-todos-os-episodios",
      "texto_original": "Oniisama e...",
      "rating": 7.78,
      "classificacao_etaria": "A14",
      "imagem_original": "https://animefire.plus/img/animes/oniisama-e.webp",
      "imagem_pasta": "https://animefire.plus/img/animes/oniisama-e/",
      "secao": "legendados",
      "pagina": 55,
      "total_episodios": 39,
      "link_video": "https://animefire.plus/video/oniisama-e"
    }
  ],
  "pagination": {
    "current_page": 12,
    "per_page": 20,
    "total_items": 370,
    "total_pages": 19,
    "has_next": true,
    "has_prev": true
  }
}
