{
  "message": "Animes com 25 a 50 episódios",
  "episode_range": {
    "min": 25,
    "max": 50
  },
  "data": [
    {
      "id": 2873,
      "nome": "Ookiku Furikabutte",
      "link": "https://animefire.plus/animes/ookiku-furikabutte-todos-os-episodios",
      "texto_original": "Ookiku Furikabutte",
      "rating": 8.03,
      "classificacao_etaria": "A14",
      "imagem_original": "https://animefire.plus/img/animes/ookiku-furikabutte.webp",
      "imagem_pasta": "https://animefire.plus/img/animes/ookiku-furikabutte/",
      "secao": "legendados",
      "pagina": 117,
      "total_episodios": 25,
      "link_video": "https://animefire.plus/video/ookiku-furikabutte"
    },
    {
      "id": 2907,
      "nome": "Osomatsu-san",
      "link": "https://animefire.plus/animes/osomatsu-san-todos-os-episodios",
      "texto_original": "Osomatsu-san",
      "rating": 8.06,
      "classificacao_etaria": "A16",
      "imagem_original": "https://animefire.plus/img/animes/osomatsu-san.webp",
      "imagem_pasta": "https://animefire.plus/img/animes/osomatsu-san/",
      "secao": "legendados",
      "pagina": 75,
      "total_episodios": 26,
      "link_video": "https://animefire.plus/video/osomatsu-san"
    },
    {
      "id": 2908,
      "nome": "Osomatsu-san 2nd Season",
      "link": "https://animefire.plus/animes/osomatsu-san-2nd-season-todos-os-episodios",
      "texto_original": "Osomatsu-san 2nd Season",
      "rating": 7.61,
      "classificacao_etaria": "A16",
      "imagem_original": "https://animefire.plus/img/animes/osomatsu-san-2nd-season.webp",
      "imagem_pasta": "https://animefire.plus/img/animes/osomatsu-san-2nd-season/",
      "secao": "legendados",
      "pagina": 51,
      "total_episodios": 25,
      "link_video": "https://animefire.plus/video/osomatsu-san-2nd-season"
    },
    {
      "id": 2909,
      "nome": "Osomatsu-san 3rd Season",
      "link": "https://animefire.plus/animes/osomatsu-san-3rd-season-todos-os-episodios",
      "texto_original": "Osomatsu-san 3rd Season",
      "rating": null,
      "classificacao_etaria": "A16",
      "imagem_original": "https://animefire.plus/img/animes/osomatsu-san-3rd-season.webp",
      "imagem_pasta": "https://animefire.plus/img/animes/osomatsu-san-3rd-season/",
      "secao": "legendados",
      "pagina": 51,
      "total_episodios": 25,
      "link_video": "https://animefire.plus/video/osomatsu-san-3rd-season"
    },
    {
      "id": 2932,
      "nome": "Over Drive",
      "link": "https://animefire.plus/animes/over-drive-todos-os-episodios",
      "texto_original": "Over Drive",
      "rating": 7.66,
      "classificacao_etaria": "A14",
      "imagem_original": "https://animefire.plus/img/animes/over-drive.webp",
      "imagem_pasta": "https://animefire.plus/img/animes/over-drive/",
      "secao": "legendados",
      "pagina": 159,
      "total_episodios": 26,
      "link_video": "https://animefire.plus/video/over-drive"
    },
    {
      "id": 2947,
      "nome": "Pandora Hearts",
      "link": "https://animefire.plus/animes/pandora-hearts-todos-os-episodios",
      "texto_original": "Pandora Hearts",
      "rating": 7.81,
      "classificacao_etaria": "A14",
      "imagem_original": "https://animefire.plus/img/animes/pandora-hearts.webp",
      "imagem_pasta": "https://animefire.plus/img/animes/pandora-hearts/",
      "secao": "legendados",
      "pagina": 162,
      "total_episodios": 25,
      "link_video": "https://animefire.plus/video/pandora-hearts"
    },
    {
      "id": 2949,
      "nome": "Paniponi Dash!",
      "link": "https://animefire.plus/animes/paniponi-dash-todos-os-episodios",
      "texto_original": "Paniponi Dash!",
      "rating": 7.47,
      "classificacao_etaria": "A14",
      "imagem_original": "https://animefire.plus/img/animes/paniponi-dash.webp",
      "imagem_pasta": "https://animefire.plus/img/animes/paniponi-dash/",
      "secao": "legendados",
      "pagina": 56,
      "total_episodios": 26,
      "link_video": "https://animefire.plus/video/paniponi-dash"
    },
    {
      "id": 2959,
      "nome": "Patalliro!",
      "link": "https://animefire.plus/animes/patalliro-todos-os-episodios",
      "texto_original": "Patalliro!",
      "rating": 7.24,
      "classificacao_etaria": "A14",
      "imagem_original": "https://animefire.plus/img/animes/patalliro.webp",
      "imagem_pasta": "https://animefire.plus/img/animes/patalliro/",
      "secao": "legendados",
      "pagina": 43,
      "total_episodios": 35,
      "link_video": "https://animefire.plus/video/patalliro"
    },
    {
      "id": 2962,
      "nome": "Peach Girl",
      "link": "https://animefire.plus/animes/peach-girl-todos-os-episodios",
      "texto_original": "Peach Girl",
      "rating": 7.11,
      "classificacao_etaria": "A14",
      "imagem_original": "https://animefire.plus/img/animes/peach-girl.webp",
      "imagem_pasta": "https://animefire.plus/img/animes/peach-girl/",
      "secao": "legendados",
      "pagina": 165,
      "total_episodios": 25,
      "link_video": "https://animefire.plus/video/peach-girl"
    },
    {
      "id": 2967,
      "nome": "Persona 5 the Animation",
      "link": "https://animefire.plus/animes/persona-5-the-animation-todos-os-episodios",
      "texto_original": "Persona 5 the Animation",
      "rating": 6.71,
      "classificacao_etaria": "A16",
      "imagem_original": "https://animefire.plus/img/animes/persona-5-the-animation.webp",
      "imagem_pasta": "https://animefire.plus/img/animes/persona-5-the-animation/",
      "secao": "legendados",
      "pagina": 120,
      "total_episodios": 26,
      "link_video": "https://animefire.plus/video/persona-5-the-animation"
    },
    {
      "id": 2968,
      "nome": "Persona: Trinity Soul",
      "link": "https://animefire.plus/animes/persona-trinity-soul-todos-os-episodios",
      "texto_original": "Persona: Trinity Soul",
      "rating": 6.66,
      "classificacao_etaria": "A14",
      "imagem_original": "https://animefire.plus/img/animes/persona-trinity-soul.webp",
      "imagem_pasta": "https://animefire.plus/img/animes/persona-trinity-soul/",
      "secao": "legendados",
      "pagina": 136,
      "total_episodios": 26,
      "link_video": "https://animefire.plus/video/persona-trinity-soul"
    },
    {
      "id": 2975,
      "nome": "Phantom: Requiem for the Phantom",
      "link": "https://animefire.plus/animes/phantom-requiem-for-the-phantom-todos-os-episodios",
      "texto_original": "Phantom: Requiem for the Phantom",
      "rating": 8.08,
      "classificacao_etaria": "A18",
      "imagem_original": "https://animefire.plus/img/animes/phantom-requiem-for-the-phantom.webp",
      "imagem_pasta": "https://animefire.plus/img/animes/phantom-requiem-for-the-phantom/",
      "secao": "legendados",
      "pagina": 137,
      "total_episodios": 26,
      "link_video": "https://animefire.plus/video/phantom-requiem-for-the-phantom"
    },
    {
      "id": 2989,
      "nome": "Planetes",
      "link": "https://animefire.plus/animes/planetes-todos-os-episodios",
      "texto_original": "Planetes",
      "rating": 8.34,
      "classificacao_etaria": "A14",
      "imagem_original": "https://animefire.plus/img/animes/planetes.webp",
      "imagem_pasta": "https://animefire.plus/img/animes/planetes/",
      "secao": "legendados",
      "pagina": 154,
      "total_episodios": 26,
      "link_video": "https://animefire.plus/video/planetes"
    },
    {
      "id": 3008,
      "nome": "Pokemon XY&Z",
      "link": "https://animefire.plus/animes/pokemon-xy-z-todos-os-episodios",
      "texto_original": "Pokemon XY&Z",
      "rating": 7.7,
      "classificacao_etaria": "A10",
      "imagem_original": "https://animefire.plus/img/animes/pokemon-xy-z.webp",
      "imagem_pasta": "https://animefire.plus/img/animes/pokemon-xy-z/",
      "secao": "legendados",
      "pagina": 75,
      "total_episodios": 47,
      "link_video": "https://animefire.plus/video/pokemon-xy-z"
    },
    {
      "id": 3012,
      "nome": "PopoloCrois",
      "link": "https://animefire.plus/animes/popolocrois-todos-os-episodios",
      "texto_original": "PopoloCrois",
      "rating": 7.09,
      "classificacao_etaria": "A10",
      "imagem_original": "https://animefire.plus/img/animes/popolocrois.webp",
      "imagem_pasta": "https://animefire.plus/img/animes/popolocrois/",
      "secao": "legendados",
      "pagina": 164,
      "total_episodios": 26,
      "link_video": "https://animefire.plus/video/popolocrois"
    },
    {
      "id": 3013,
      "nome": "Popolocrois Monogatari",
      "link": "https://animefire.plus/animes/popolocrois-monogatari-todos-os-episodios",
      "texto_original": "Popolocrois Monogatari",
      "rating": 7.17,
      "classificacao_etaria": "A10",
      "imagem_original": "https://animefire.plus/img/animes/popolocrois-monogatari.webp",
      "imagem_pasta": "https://animefire.plus/img/animes/popolocrois-monogatari/",
      "secao": "legendados",
      "pagina": 149,
      "total_episodios": 25,
      "link_video": "https://animefire.plus/video/popolocrois-monogatari"
    },
    {
      "id": 3031,
      "nome": "Princess Tutu",
      "link": "https://animefire.plus/animes/princess-tutu-todos-os-episodios",
      "texto_original": "Princess Tutu",
      "rating": 8.17,
      "classificacao_etaria": "A14",
      "imagem_original": "https://animefire.plus/img/animes/princess-tutu.webp",
      "imagem_pasta": "https://animefire.plus/img/animes/princess-tutu/",
      "secao": "legendados",
      "pagina": 61,
      "total_episodios": 26,
      "link_video": "https://animefire.plus/video/princess-tutu"
    },
    {
      "id": 3043,
      "nome": "Puchi Pri*Yucie",
      "link": "https://animefire.plus/animes/puchi-pri-yucie-todos-os-episodios",
      "texto_original": "Puchi Pri*Yucie",
      "rating": 7.45,
      "classificacao_etaria": null,
      "imagem_original": "https://animefire.plus/img/animes/puchi-pri-yucie.webp",
      "imagem_pasta": "https://animefire.plus/img/animes/puchi-pri-yucie/",
      "secao": "legendados",
      "pagina": 85,
      "total_episodios": 26,
      "link_video": "https://animefire.plus/video/puchi-pri-yucie"
    },
    {
      "id": 3053,
      "nome": "Quanzhi Fashi",
      "link": "https://animefire.plus/animes/quanzhi-fashi-todos-os-episodios",
      "texto_original": "Quanzhi Fashi",
      "rating": 7.47,
      "classificacao_etaria": "A14",
      "imagem_original": "https://animefire.plus/img/animes/quanzhi-fashi.webp",
      "imagem_pasta": "https://animefire.plus/img/animes/quanzhi-fashi/",
      "secao": "legendados",
      "pagina": 104,
      "total_episodios": 42,
      "link_video": "https://animefire.plus/video/quanzhi-fashi"
    },
    {
      "id": 3067,
      "nome": "Ragnarök The Animation (Dublado)",
      "link": "https://animefire.plus/animes/ragnaroek-the-animation-dublado-todos-os-episodios",
      "texto_original": "Ragnarök The Animation (Dublado)",
      "rating": 6.49,
      "classificacao_etaria": "A14",
      "imagem_original": "https://animefire.plus/img/animes/ragnaroek-the-animation.webp",
      "imagem_pasta": "https://animefire.plus/img/animes/ragnaroek-the-animation/",
      "secao": "dublados,legendados",
      "pagina": 23,
      "total_episodios": 26,
      "link_video": "https://animefire.plus/video/ragnaroek-the-animation-dublado"
    }
  ],
  "pagination": {
    "current_page": 13,
    "per_page": 20,
    "total_items": 370,
    "total_pages": 19,
    "has_next": true,
    "has_prev": true
  }
}
