{
  "message": "Animes com 25 a 50 episódios",
  "episode_range": {
    "min": 25,
    "max": 50
  },
  "data": [
    {
      "id": 3712,
      "nome": "Taiho Shichau zo: Second Season",
      "link": "https://animefire.plus/animes/taiho-shichau-zo-second-season-todos-os-episodios",
      "texto_original": "Taiho Shichau zo: Second Season",
      "rating": 7.41,
      "classificacao_etaria": "A14",
      "imagem_original": "https://animefire.plus/img/animes/taiho-shichau-zo-second-season.webp",
      "imagem_pasta": "https://animefire.plus/img/animes/taiho-shichau-zo-second-season/",
      "secao": "legendados",
      "pagina": 44,
      "total_episodios": 26,
      "link_video": "https://animefire.plus/video/taiho-shichau-zo-second-season"
    },
    {
      "id": 3718,
      "nome": "Takarajima",
      "link": "https://animefire.plus/animes/takarajima-todos-os-episodios",
      "texto_original": "Takarajima",
      "rating": 7.95,
      "classificacao_etaria": "A14",
      "imagem_original": "https://animefire.plus/img/animes/takarajima.webp",
      "imagem_pasta": "https://animefire.plus/img/animes/takarajima/",
      "secao": "legendados",
      "pagina": 77,
      "total_episodios": 26,
      "link_video": "https://animefire.plus/video/takarajima"
    },
    {
      "id": 3728,
      "nome": "Tales of the Abyss",
      "link": "https://animefire.plus/animes/tales-of-the-abyss-todos-os-episodios",
      "texto_original": "Tales of the Abyss",
      "rating": 7.39,
      "classificacao_etaria": "A14",
      "imagem_original": "https://animefire.plus/img/animes/tales-of-the-abyss.webp",
      "imagem_pasta": "https://animefire.plus/img/animes/tales-of-the-abyss/",
      "secao": "legendados",
      "pagina": 131,
      "total_episodios": 26,
      "link_video": "https://animefire.plus/video/tales-of-the-abyss"
    },
    {
      "id": 3756,
      "nome": "Tatakau Shisho: The Book of Bantorra",
      "link": "https://animefire.plus/animes/tatakau-shisho-the-book-of-bantorra-todos-os-episodios",
      "texto_original": "Tatakau Shisho: The Book of Bantorra",
      "rating": 7.3,
      "classificacao_etaria": "A16",
      "imagem_original": "https://animefire.plus/img/animes/tatakau-shisho-the-book-of-bantorra.webp",
      "imagem_pasta": "https://animefire.plus/img/animes/tatakau-shisho-the-book-of-bantorra/",
      "secao": "legendados",
      "pagina": 111,
      "total_episodios": 27,
      "link_video": "https://animefire.plus/video/tatakau-shisho-the-book-of-bantorra"
    },
    {
      "id": 3757,
      "nome": "Tate no Yuusha no Nariagari (Dublado)",
      "link": "https://animefire.plus/animes/tate-no-yuusha-no-nariagari-dublado-todos-os-episodios",
      "texto_original": "Tate no Yuusha no Nariagari (Dublado)",
      "rating": 8.01,
      "classificacao_etaria": "A14",
      "imagem_original": "https://animefire.plus/img/animes/tate-no-yuusha-no-nariagari.webp",
      "imagem_pasta": "https://animefire.plus/img/animes/tate-no-yuusha-no-nariagari/",
      "secao": "dublados,legendados",
      "pagina": 16,
      "total_episodios": 25,
      "link_video": "https://animefire.plus/video/tate-no-yuusha-no-nariagari-dublado"
    },
    {
      "id": 3765,
      "nome": "Tears to Tiara",
      "link": "https://animefire.plus/animes/tears-to-tiara-todos-os-episodios",
      "texto_original": "Tears to Tiara",
      "rating": 7.25,
      "classificacao_etaria": "A14",
      "imagem_original": "https://animefire.plus/img/animes/tears-to-tiara.webp",
      "imagem_pasta": "https://animefire.plus/img/animes/tears-to-tiara/",
      "secao": "legendados",
      "pagina": 153,
      "total_episodios": 26,
      "link_video": "https://animefire.plus/video/tears-to-tiara"
    },
    {
      "id": 3774,
      "nome": "Tenchi Muyou! GXP",
      "link": "https://animefire.plus/animes/tenchi-muyou-gxp-todos-os-episodios",
      "texto_original": "Tenchi Muyou! GXP",
      "rating": 7.22,
      "classificacao_etaria": "A14",
      "imagem_original": "https://animefire.plus/img/animes/tenchi-muyou-gxp.webp",
      "imagem_pasta": "https://animefire.plus/img/animes/tenchi-muyou-gxp/",
      "secao": "legendados",
      "pagina": 164,
      "total_episodios": 26,
      "link_video": "https://animefire.plus/video/tenchi-muyou-gxp"
    },
    {
      "id": 3778,
      "nome": "Tengen Toppa Gurren Lagann",
      "link": "https://animefire.plus/animes/tengen-toppa-gurren-lagann-todos-os-episodios",
      "texto_original": "Tengen Toppa Gurren Lagann",
      "rating": 8.7,
      "classificacao_etaria": "A14",
      "imagem_original": "https://animefire.plus/img/animes/tengen-toppa-gurren-lagann.webp",
      "imagem_pasta": "https://animefire.plus/img/animes/tengen-toppa-gurren-lagann/",
      "secao": "legendados",
      "pagina": 79,
      "total_episodios": 27,
      "link_video": "https://animefire.plus/video/tengen-toppa-gurren-lagann"
    },
    {
      "id": 3782,
      "nome": "Tenkuu no Escaflowne",
      "link": "https://animefire.plus/animes/tenkuu-no-escaflowne-todos-os-episodios",
      "texto_original": "Tenkuu no Escaflowne",
      "rating": 7.76,
      "classificacao_etaria": "A14",
      "imagem_original": "https://animefire.plus/img/animes/tenkuu-no-escaflowne.webp",
      "imagem_pasta": "https://animefire.plus/img/animes/tenkuu-no-escaflowne/",
      "secao": "legendados",
      "pagina": 132,
      "total_episodios": 26,
      "link_video": "https://animefire.plus/video/tenkuu-no-escaflowne"
    },
    {
      "id": 3783,
      "nome": "Tenkuu Senki Shurato (Dublado)",
      "link": "https://animefire.plus/animes/tenkuu-senki-shurato-dublado-todos-os-episodios",
      "texto_original": "Tenkuu Senki Shurato (Dublado)",
      "rating": 7.26,
      "classificacao_etaria": "A14",
      "imagem_original": "https://animefire.plus/img/animes/tenkuu-senki-shurato.webp",
      "imagem_pasta": "https://animefire.plus/img/animes/tenkuu-senki-shurato/",
      "secao": "dublados,legendados",
      "pagina": 22,
      "total_episodios": 38,
      "link_video": "https://animefire.plus/video/tenkuu-senki-shurato-dublado"
    },
    {
      "id": 3808,
      "nome": "Tenshi Ni Narumon!",
      "link": "https://animefire.plus/animes/tenshi-ni-narumon-todos-os-episodios",
      "texto_original": "Tenshi Ni Narumon!",
      "rating": 6.79,
      "classificacao_etaria": "A14",
      "imagem_original": "https://animefire.plus/img/animes/tenshi-ni-narumon.webp",
      "imagem_pasta": "https://animefire.plus/img/animes/tenshi-ni-narumon/",
      "secao": "legendados",
      "pagina": 109,
      "total_episodios": 26,
      "link_video": "https://animefire.plus/video/tenshi-ni-narumon"
    },
    {
      "id": 3826,
      "nome": "The Fable",
      "link": "https://animefire.plus/animes/the-fable-todos-os-episodios",
      "texto_original": "The Fable",
      "rating": 8.13,
      "classificacao_etaria": "A14",
      "imagem_original": "https://animefire.plus/img/animes/the-fable.webp",
      "imagem_pasta": "https://animefire.plus/img/animes/the-fable/",
      "secao": "legendados",
      "pagina": 14,
      "total_episodios": 25,
      "link_video": "https://animefire.plus/video/the-fable"
    },
    {
      "id": 3828,
      "nome": "The iDOLM@STER",
      "link": "https://animefire.plus/animes/the-idolmaster-todos-os-episodios",
      "texto_original": "The iDOLM@STER",
      "rating": 7.65,
      "classificacao_etaria": "A14",
      "imagem_original": "https://animefire.plus/img/animes/the-idolmaster.webp",
      "imagem_pasta": "https://animefire.plus/img/animes/the-idolmaster/",
      "secao": "legendados",
      "pagina": 76,
      "total_episodios": 26,
      "link_video": "https://animefire.plus/video/the-idolmaster"
    },
    {
      "id": 3846,
      "nome": "Tiger & Bunny (Dublado)",
      "link": "https://animefire.plus/animes/tiger-bunny-dublado-todos-os-episodios",
      "texto_original": "Tiger & Bunny (Dublado)",
      "rating": 7.94,
      "classificacao_etaria": "A14",
      "imagem_original": "https://animefire.plus/img/animes/tiger-bunny.webp",
      "imagem_pasta": "https://animefire.plus/img/animes/tiger-bunny/",
      "secao": "dublados,legendados",
      "pagina": 18,
      "total_episodios": 25,
      "link_video": "https://animefire.plus/video/tiger-bunny-dublado"
    },
    {
      "id": 3873,
      "nome": "Toji no Miko",
      "link": "https://animefire.plus/animes/toji-no-miko-todos-os-episodios",
      "texto_original": "Toji no Miko",
      "rating": 6.94,
      "classificacao_etaria": "A14",
      "imagem_original": "https://animefire.plus/img/animes/toji-no-miko.webp",
      "imagem_pasta": "https://animefire.plus/img/animes/toji-no-miko/",
      "secao": "legendados",
      "pagina": 175,
      "total_episodios": 25,
      "link_video": "https://animefire.plus/video/toji-no-miko"
    },
    {
      "id": 3878,
      "nome": "Tokimeki Tonight",
      "link": "https://animefire.plus/animes/tokimeki-tonight-todos-os-episodios",
      "texto_original": "Tokimeki Tonight",
      "rating": 7.35,
      "classificacao_etaria": "A10",
      "imagem_original": "https://animefire.plus/img/animes/tokimeki-tonight.webp",
      "imagem_pasta": "https://animefire.plus/img/animes/tokimeki-tonight/",
      "secao": "legendados",
      "pagina": 149,
      "total_episodios": 34,
      "link_video": "https://animefire.plus/video/tokimeki-tonight"
    },
    {
      "id": 3898,
      "nome": "Tokyo Underground",
      "link": "https://animefire.plus/animes/tokyo-underground-todos-os-episodios",
      "texto_original": "Tokyo Underground",
      "rating": 6.68,
      "classificacao_etaria": "A14",
      "imagem_original": "https://animefire.plus/img/animes/tokyo-underground.webp",
      "imagem_pasta": "https://animefire.plus/img/animes/tokyo-underground/",
      "secao": "legendados",
      "pagina": 146,
      "total_episodios": 26,
      "link_video": "https://animefire.plus/video/tokyo-underground"
    },
    {
      "id": 3925,
      "nome": "Touhai Densetsu Akagi: Yami ni Maiorita Tensai",
      "link": "https://animefire.plus/animes/touhai-densetsu-akagi-yami-ni-maiorita-tensai-todos-os-episodios",
      "texto_original": "Touhai Densetsu Akagi: Yami ni Maiorita Tensai",
      "rating": 7.98,
      "classificacao_etaria": "A16",
      "imagem_original": "https://animefire.plus/img/animes/touhai-densetsu-akagi-yami-ni-maiorita-tensai.webp",
      "imagem_pasta": "https://animefire.plus/img/animes/touhai-densetsu-akagi-yami-ni-maiorita-tensai/",
      "secao": "legendados",
      "pagina": 169,
      "total_episodios": 26,
      "link_video": "https://animefire.plus/video/touhai-densetsu-akagi-yami-ni-maiorita-tensai"
    },
    {
      "id": 3927,
      "nome": "Touka Gettan",
      "link": "https://animefire.plus/animes/touka-gettan-todos-os-episodios",
      "texto_original": "Touka Gettan",
      "rating": 6.63,
      "classificacao_etaria": "A16",
      "imagem_original": "https://animefire.plus/img/animes/touka-gettan.webp",
      "imagem_pasta": "https://animefire.plus/img/animes/touka-gettan/",
      "secao": "legendados",
      "pagina": 121,
      "total_episodios": 26,
      "link_video": "https://animefire.plus/video/touka-gettan"
    },
    {
      "id": 3935,
      "nome": "Trigun (Dublado)",
      "link": "https://animefire.plus/animes/trigun-dublado-todos-os-episodios",
      "texto_original": "Trigun (Dublado)",
      "rating": 8.25,
      "classificacao_etaria": "A14",
      "imagem_original": "https://animefire.plus/img/animes/trigun.webp",
      "imagem_pasta": "https://animefire.plus/img/animes/trigun/",
      "secao": "dublados,legendados",
      "pagina": 22,
      "total_episodios": 26,
      "link_video": "https://animefire.plus/video/trigun-dublado"
    }
  ],
  "pagination": {
    "current_page": 17,
    "per_page": 20,
    "total_items": 370,
    "total_pages": 19,
    "has_next": true,
    "has_prev": true
  }
}
