{
  "message": "Animes com 25 a 50 episódios",
  "episode_range": {
    "min": 25,
    "max": 50
  },
  "data": [
    {
      "id": 1107,
      "nome": "Gantz (Dublado)",
      "link": "https://animefire.plus/animes/gantz-dublado-todos-os-episodios",
      "texto_original": "Gantz (Dublado)",
      "rating": 7.09,
      "classificacao_etaria": "A18",
      "imagem_original": "https://animefire.plus/img/animes/gantz.webp",
      "imagem_pasta": "https://animefire.plus/img/animes/gantz/",
      "secao": "dublados,legendados",
      "pagina": 21,
      "total_episodios": 26,
      "link_video": "https://animefire.plus/video/gantz-dublado"
    },
    {
      "id": 1113,
      "nome": "Gasaraki",
      "link": "https://animefire.plus/animes/gasaraki-todos-os-episodios",
      "texto_original": "Gasaraki",
      "rating": 6.69,
      "classificacao_etaria": "A14",
      "imagem_original": "https://animefire.plus/img/animes/gasaraki.webp",
      "imagem_pasta": "https://animefire.plus/img/animes/gasaraki/",
      "secao": "legendados",
      "pagina": 156,
      "total_episodios": 25,
      "link_video": "https://animefire.plus/video/gasaraki"
    },
    {
      "id": 1120,
      "nome": "Gegege no Kitarou (2018)",
      "link": "https://animefire.plus/animes/gegege-no-kitarou-2018-todos-os-episodios",
      "texto_original": "Gegege no Kitarou (2018)",
      "rating": 6.77,
      "classificacao_etaria": "A10",
      "imagem_original": "https://animefire.plus/img/animes/gegege-no-kitarou-2018.webp",
      "imagem_pasta": "https://animefire.plus/img/animes/gegege-no-kitarou-2018/",
      "secao": "legendados",
      "pagina": 161,
      "total_episodios": 46,
      "link_video": "https://animefire.plus/video/gegege-no-kitarou-2018"
    },
    {
      "id": 1143,
      "nome": "Gensoumaden Saiyuuki",
      "link": "https://animefire.plus/animes/gensoumaden-saiyuuki-todos-os-episodios",
      "texto_original": "Gensoumaden Saiyuuki",
      "rating": 7.58,
      "classificacao_etaria": "A16",
      "imagem_original": "https://animefire.plus/img/animes/gensoumaden-saiyuuki.webp",
      "imagem_pasta": "https://animefire.plus/img/animes/gensoumaden-saiyuuki/",
      "secao": "legendados",
      "pagina": 42,
      "total_episodios": 50,
      "link_video": "https://animefire.plus/video/gensoumaden-saiyuuki"
    },
    {
      "id": 1145,
      "nome": "GetBackers",
      "link": "https://animefire.plus/animes/getbackers-todos-os-episodios",
      "texto_original": "GetBackers",
      "rating": 7.67,
      "classificacao_etaria": "A14",
      "imagem_original": "https://animefire.plus/img/animes/getbackers.webp",
      "imagem_pasta": "https://animefire.plus/img/animes/getbackers/",
      "secao": "legendados",
      "pagina": 134,
      "total_episodios": 49,
      "link_video": "https://animefire.plus/video/getbackers"
    },
    {
      "id": 1152,
      "nome": "Giant Killing",
      "link": "https://animefire.plus/animes/giant-killing-todos-os-episodios",
      "texto_original": "Giant Killing",
      "rating": 7.6,
      "classificacao_etaria": "A14",
      "imagem_original": "https://animefire.plus/img/animes/giant-killing.webp",
      "imagem_pasta": "https://animefire.plus/img/animes/giant-killing/",
      "secao": "legendados",
      "pagina": 67,
      "total_episodios": 26,
      "link_video": "https://animefire.plus/video/giant-killing"
    },
    {
      "id": 1156,
      "nome": "Gilgamesh",
      "link": "https://animefire.plus/animes/gilgamesh-todos-os-episodios",
      "texto_original": "Gilgamesh",
      "rating": 6.72,
      "classificacao_etaria": "A16",
      "imagem_original": "https://animefire.plus/img/animes/gilgamesh.webp",
      "imagem_pasta": "https://animefire.plus/img/animes/gilgamesh/",
      "secao": "legendados",
      "pagina": 99,
      "total_episodios": 26,
      "link_video": "https://animefire.plus/video/gilgamesh"
    },
    {
      "id": 1166,
      "nome": "Ginga Hyouryuu Vifam",
      "link": "https://animefire.plus/animes/ginga-hyouryuu-vifam-todos-os-episodios",
      "texto_original": "Ginga Hyouryuu Vifam",
      "rating": 7.09,
      "classificacao_etaria": null,
      "imagem_original": "https://animefire.plus/img/animes/ginga-hyouryuu-vifam.webp",
      "imagem_pasta": "https://animefire.plus/img/animes/ginga-hyouryuu-vifam/",
      "secao": "legendados",
      "pagina": 65,
      "total_episodios": 46,
      "link_video": "https://animefire.plus/video/ginga-hyouryuu-vifam"
    },
    {
      "id": 1202,
      "nome": "Go! Princess Precure",
      "link": "https://animefire.plus/animes/go-princess-precure-todos-os-episodios",
      "texto_original": "Go! Princess Precure",
      "rating": 7.71,
      "classificacao_etaria": null,
      "imagem_original": "https://animefire.plus/img/animes/go-princess-precure.webp",
      "imagem_pasta": "https://animefire.plus/img/animes/go-princess-precure/",
      "secao": "legendados",
      "pagina": 67,
      "total_episodios": 50,
      "link_video": "https://animefire.plus/video/go-princess-precure"
    },
    {
      "id": 1211,
      "nome": "Gokinjo Monogatari",
      "link": "https://animefire.plus/animes/gokinjo-monogatari-todos-os-episodios",
      "texto_original": "Gokinjo Monogatari",
      "rating": 7.46,
      "classificacao_etaria": "A14",
      "imagem_original": "https://animefire.plus/img/animes/gokinjo-monogatari.webp",
      "imagem_pasta": "https://animefire.plus/img/animes/gokinjo-monogatari/",
      "secao": "legendados",
      "pagina": 77,
      "total_episodios": 50,
      "link_video": "https://animefire.plus/video/gokinjo-monogatari"
    },
    {
      "id": 1227,
      "nome": "Golgo 13 (TV)",
      "link": "https://animefire.plus/animes/golgo-13-tv-todos-os-episodios",
      "texto_original": "Golgo 13 (TV)",
      "rating": 7.53,
      "classificacao_etaria": "A18",
      "imagem_original": "https://animefire.plus/img/animes/golgo-13-tv.webp",
      "imagem_pasta": "https://animefire.plus/img/animes/golgo-13-tv/",
      "secao": "legendados",
      "pagina": 45,
      "total_episodios": 50,
      "link_video": "https://animefire.plus/video/golgo-13-tv"
    },
    {
      "id": 1239,
      "nome": "Grancrest Senki",
      "link": "https://animefire.plus/animes/grancrest-senki-todos-os-episodios",
      "texto_original": "Grancrest Senki",
      "rating": 7.34,
      "classificacao_etaria": "A16",
      "imagem_original": "https://animefire.plus/img/animes/grancrest-senki.webp",
      "imagem_pasta": "https://animefire.plus/img/animes/grancrest-senki/",
      "secao": "legendados",
      "pagina": 133,
      "total_episodios": 25,
      "link_video": "https://animefire.plus/video/grancrest-senki"
    },
    {
      "id": 1250,
      "nome": "Great Teacher Onizuka",
      "link": "https://animefire.plus/animes/great-teacher-onizuka-todos-os-episodios",
      "texto_original": "Great Teacher Onizuka",
      "rating": 8.7,
      "classificacao_etaria": "A16",
      "imagem_original": "https://animefire.plus/img/animes/great-teacher-onizuka.webp",
      "imagem_pasta": "https://animefire.plus/img/animes/great-teacher-onizuka/",
      "secao": "legendados",
      "pagina": 57,
      "total_episodios": 43,
      "link_video": "https://animefire.plus/video/great-teacher-onizuka"
    },
    {
      "id": 1271,
      "nome": "Guin Saga",
      "link": "https://animefire.plus/animes/guin-saga-todos-os-episodios",
      "texto_original": "Guin Saga",
      "rating": 7.22,
      "classificacao_etaria": "A14",
      "imagem_original": "https://animefire.plus/img/animes/guin-saga.webp",
      "imagem_pasta": "https://animefire.plus/img/animes/guin-saga/",
      "secao": "legendados",
      "pagina": 64,
      "total_episodios": 26,
      "link_video": "https://animefire.plus/video/guin-saga"
    },
    {
      "id": 1273,
      "nome": "Gun X Sword",
      "link": "https://animefire.plus/animes/gun-x-sword-todos-os-episodios",
      "texto_original": "Gun X Sword",
      "rating": 7.33,
      "classificacao_etaria": "A14",
      "imagem_original": "https://animefire.plus/img/animes/gun-x-sword.webp",
      "imagem_pasta": "https://animefire.plus/img/animes/gun-x-sword/",
      "secao": "legendados",
      "pagina": 105,
      "total_episodios": 26,
      "link_video": "https://animefire.plus/video/gun-x-sword"
    },
    {
      "id": 1274,
      "nome": "Gundam Build Divers",
      "link": "https://animefire.plus/animes/gundam-build-divers-todos-os-episodios",
      "texto_original": "Gundam Build Divers",
      "rating": 6.36,
      "classificacao_etaria": "A14",
      "imagem_original": "https://animefire.plus/img/animes/gundam-build-divers.webp",
      "imagem_pasta": "https://animefire.plus/img/animes/gundam-build-divers/",
      "secao": "legendados",
      "pagina": 73,
      "total_episodios": 25,
      "link_video": "https://animefire.plus/video/gundam-build-divers"
    },
    {
      "id": 1281,
      "nome": "Gungrave",
      "link": "https://animefire.plus/animes/gungrave-todos-os-episodios",
      "texto_original": "Gungrave",
      "rating": 7.9,
      "classificacao_etaria": "A16",
      "imagem_original": "https://animefire.plus/img/animes/gungrave.webp",
      "imagem_pasta": "https://animefire.plus/img/animes/gungrave/",
      "secao": "legendados",
      "pagina": 101,
      "total_episodios": 26,
      "link_video": "https://animefire.plus/video/gungrave"
    },
    {
      "id": 1295,
      "nome": "Gyakkyou Burai Kaiji: Hakairoku-hen",
      "link": "https://animefire.plus/animes/gyakkyou-burai-kaiji-hakairoku-hen-todos-os-episodios",
      "texto_original": "Gyakkyou Burai Kaiji: Hakairoku-hen",
      "rating": 8.27,
      "classificacao_etaria": "A16",
      "imagem_original": "https://animefire.plus/img/animes/gyakkyou-burai-kaiji-hakairoku-hen.webp",
      "imagem_pasta": "https://animefire.plus/img/animes/gyakkyou-burai-kaiji-hakairoku-hen/",
      "secao": "legendados",
      "pagina": 151,
      "total_episodios": 26,
      "link_video": "https://animefire.plus/video/gyakkyou-burai-kaiji-hakairoku-hen"
    },
    {
      "id": 1296,
      "nome": "Gyakkyou Burai Kaiji: Ultimate Survivor",
      "link": "https://animefire.plus/animes/gyakkyou-burai-kaiji-ultimate-survivor-todos-os-episodios",
      "texto_original": "Gyakkyou Burai Kaiji: Ultimate Survivor",
      "rating": 8.31,
      "classificacao_etaria": "A16",
      "imagem_original": "https://animefire.plus/img/animes/gyakkyou-burai-kaiji-ultimate-survivor.webp",
      "imagem_pasta": "https://animefire.plus/img/animes/gyakkyou-burai-kaiji-ultimate-survivor/",
      "secao": "legendados",
      "pagina": 121,
      "total_episodios": 26,
      "link_video": "https://animefire.plus/video/gyakkyou-burai-kaiji-ultimate-survivor"
    },
    {
      "id": 1308,
      "nome": "Haikyuu!! (Dublado)",
      "link": "https://animefire.plus/animes/haikyuu-dublado-todos-os-episodios",
      "texto_original": "Haikyuu!! (Dublado)",
      "rating": 8.45,
      "classificacao_etaria": "A14",
      "imagem_original": "https://animefire.plus/img/animes/haikyuu.webp",
      "imagem_pasta": "https://animefire.plus/img/animes/haikyuu/",
      "secao": "dublados,legendados",
      "pagina": 9,
      "total_episodios": 25,
      "link_video": "https://animefire.plus/video/haikyuu-dublado"
    }
  ],
  "pagination": {
    "current_page": 6,
    "per_page": 20,
    "total_items": 370,
    "total_pages": 19,
    "has_next": true,
    "has_prev": true
  }
}
