{
  "message": "Animes com 25 a 50 episódios",
  "episode_range": {
    "min": 25,
    "max": 50
  },
  "data": [
    {
      "id": 1596,
      "nome": "Ie Naki Ko Remy",
      "link": "https://animefire.plus/animes/ie-naki-ko-remy-todos-os-episodios",
      "texto_original": "Ie Naki Ko Remy",
      "rating": 7.97,
      "classificacao_etaria": null,
      "imagem_original": "https://animefire.plus/img/animes/ie-naki-ko-remy.webp",
      "imagem_pasta": "https://animefire.plus/img/animes/ie-naki-ko-remy/",
      "secao": "legendados",
      "pagina": 71,
      "total_episodios": 26,
      "link_video": "https://animefire.plus/video/ie-naki-ko-remy"
    },
    {
      "id": 1600,
      "nome": "Ike! Ina-chuu Takkyuubu",
      "link": "https://animefire.plus/animes/ike-ina-chuu-takkyuubu-todos-os-episodios",
      "texto_original": "Ike! Ina-chuu Takkyuubu",
      "rating": 7.58,
      "classificacao_etaria": "A18",
      "imagem_original": "https://animefire.plus/img/animes/ike-ina-chuu-takkyuubu.webp",
      "imagem_pasta": "https://animefire.plus/img/animes/ike-ina-chuu-takkyuubu/",
      "secao": "legendados",
      "pagina": 55,
      "total_episodios": 26,
      "link_video": "https://animefire.plus/video/ike-ina-chuu-takkyuubu"
    },
    {
      "id": 1613,
      "nome": "Inazuma Eleven",
      "link": "https://animefire.plus/animes/inazuma-eleven-todos-os-episodios",
      "texto_original": "Inazuma Eleven",
      "rating": 7.67,
      "classificacao_etaria": null,
      "imagem_original": "https://animefire.plus/img/animes/inazuma-eleven.webp",
      "imagem_pasta": "https://animefire.plus/img/animes/inazuma-eleven/",
      "secao": "legendados",
      "pagina": 152,
      "total_episodios": 40,
      "link_video": "https://animefire.plus/video/inazuma-eleven"
    },
    {
      "id": 1618,
      "nome": "Inazuma Eleven: Orion no Kokuin",
      "link": "https://animefire.plus/animes/inazuma-eleven-orion-no-kokuin-todos-os-episodios",
      "texto_original": "Inazuma Eleven: Orion no Kokuin",
      "rating": 7.23,
      "classificacao_etaria": null,
      "imagem_original": "https://animefire.plus/img/animes/inazuma-eleven-orion-no-kokuin.webp",
      "imagem_pasta": "https://animefire.plus/img/animes/inazuma-eleven-orion-no-kokuin/",
      "secao": "legendados",
      "pagina": 124,
      "total_episodios": 27,
      "link_video": "https://animefire.plus/video/inazuma-eleven-orion-no-kokuin"
    },
    {
      "id": 1629,
      "nome": "Initial D First Stage",
      "link": "https://animefire.plus/animes/initial-d-first-stage-todos-os-episodios",
      "texto_original": "Initial D First Stage",
      "rating": 8.31,
      "classificacao_etaria": "A14",
      "imagem_original": "https://animefire.plus/img/animes/initial-d-first-stage.webp",
      "imagem_pasta": "https://animefire.plus/img/animes/initial-d-first-stage/",
      "secao": "legendados",
      "pagina": 147,
      "total_episodios": 26,
      "link_video": "https://animefire.plus/video/initial-d-first-stage"
    },
    {
      "id": 1641,
      "nome": "Inukami!",
      "link": "https://animefire.plus/animes/inukami-todos-os-episodios",
      "texto_original": "Inukami!",
      "rating": 7.33,
      "classificacao_etaria": "A14",
      "imagem_original": "https://animefire.plus/img/animes/inukami.webp",
      "imagem_pasta": "https://animefire.plus/img/animes/inukami/",
      "secao": "legendados",
      "pagina": 117,
      "total_episodios": 26,
      "link_video": "https://animefire.plus/video/inukami"
    },
    {
      "id": 1643,
      "nome": "InuYasha: Kanketsu-hen",
      "link": "https://animefire.plus/animes/inuyasha-kanketsu-hen-todos-os-episodios",
      "texto_original": "InuYasha: Kanketsu-hen",
      "rating": 8.3,
      "classificacao_etaria": "A14",
      "imagem_original": "https://animefire.plus/img/animes/inuyasha-kanketsu-hen.webp",
      "imagem_pasta": "https://animefire.plus/img/animes/inuyasha-kanketsu-hen/",
      "secao": "legendados",
      "pagina": 116,
      "total_episodios": 26,
      "link_video": "https://animefire.plus/video/inuyasha-kanketsu-hen"
    },
    {
      "id": 1687,
      "nome": "Itazura na Kiss",
      "link": "https://animefire.plus/animes/itazura-na-kiss-todos-os-episodios",
      "texto_original": "Itazura na Kiss",
      "rating": 7.61,
      "classificacao_etaria": "A14",
      "imagem_original": "https://animefire.plus/img/animes/itazura-na-kiss.webp",
      "imagem_pasta": "https://animefire.plus/img/animes/itazura-na-kiss/",
      "secao": "legendados",
      "pagina": 80,
      "total_episodios": 25,
      "link_video": "https://animefire.plus/video/itazura-na-kiss"
    },
    {
      "id": 1689,
      "nome": "Itoshi no Muco",
      "link": "https://animefire.plus/animes/itoshi-no-muco-todos-os-episodios",
      "texto_original": "Itoshi no Muco",
      "rating": 6.83,
      "classificacao_etaria": "A10",
      "imagem_original": "https://animefire.plus/img/animes/itoshi-no-muco.webp",
      "imagem_pasta": "https://animefire.plus/img/animes/itoshi-no-muco/",
      "secao": "legendados",
      "pagina": 174,
      "total_episodios": 25,
      "link_video": "https://animefire.plus/video/itoshi-no-muco"
    },
    {
      "id": 1698,
      "nome": "Ixion Saga DT",
      "link": "https://animefire.plus/animes/ixion-saga-dt-todos-os-episodios",
      "texto_original": "Ixion Saga DT",
      "rating": 7.25,
      "classificacao_etaria": "A14",
      "imagem_original": "https://animefire.plus/img/animes/ixion-saga-dt.webp",
      "imagem_pasta": "https://animefire.plus/img/animes/ixion-saga-dt/",
      "secao": "legendados",
      "pagina": 74,
      "total_episodios": 25,
      "link_video": "https://animefire.plus/video/ixion-saga-dt"
    },
    {
      "id": 1716,
      "nome": "Jibaku-kun",
      "link": "https://animefire.plus/animes/jibaku-kun-todos-os-episodios",
      "texto_original": "Jibaku-kun",
      "rating": 7.49,
      "classificacao_etaria": "A14",
      "imagem_original": "https://animefire.plus/img/animes/jibaku-kun.webp",
      "imagem_pasta": "https://animefire.plus/img/animes/jibaku-kun/",
      "secao": "legendados",
      "pagina": 179,
      "total_episodios": 26,
      "link_video": "https://animefire.plus/video/jibaku-kun"
    },
    {
      "id": 1721,
      "nome": "Jigoku Sensei Nube",
      "link": "https://animefire.plus/animes/jigoku-sensei-nube-todos-os-episodios",
      "texto_original": "Jigoku Sensei Nube",
      "rating": 7.62,
      "classificacao_etaria": "A14",
      "imagem_original": "https://animefire.plus/img/animes/jigoku-sensei-nube.webp",
      "imagem_pasta": "https://animefire.plus/img/animes/jigoku-sensei-nube/",
      "secao": "legendados",
      "pagina": 122,
      "total_episodios": 49,
      "link_video": "https://animefire.plus/video/jigoku-sensei-nube"
    },
    {
      "id": 1723,
      "nome": "Jigoku Shoujo (Dublado)",
      "link": "https://animefire.plus/animes/jigoku-shoujo-dublado-todos-os-episodios",
      "texto_original": "Jigoku Shoujo (Dublado)",
      "rating": 7.68,
      "classificacao_etaria": "A16",
      "imagem_original": "https://animefire.plus/img/animes/jigoku-shoujo.webp",
      "imagem_pasta": "https://animefire.plus/img/animes/jigoku-shoujo/",
      "secao": "dublados,legendados",
      "pagina": 25,
      "total_episodios": 26,
      "link_video": "https://animefire.plus/video/jigoku-shoujo-dublado"
    },
    {
      "id": 1739,
      "nome": "JoJo no Kimyou na Bouken (TV) (Dublado)",
      "link": "https://animefire.plus/animes/jojo-no-kimyou-na-bouken-tv-dublado-todos-os-episodios",
      "texto_original": "JoJo no Kimyou na Bouken (TV) (Dublado)",
      "rating": 7.99,
      "classificacao_etaria": "A16",
      "imagem_original": "https://animefire.plus/img/animes/jojo-no-kimyou-na-bouken-tv.webp",
      "imagem_pasta": "https://animefire.plus/img/animes/jojo-no-kimyou-na-bouken-tv/",
      "secao": "dublados,legendados",
      "pagina": 17,
      "total_episodios": 26,
      "link_video": "https://animefire.plus/video/jojo-no-kimyou-na-bouken-tv-dublado"
    },
    {
      "id": 1742,
      "nome": "JoJo no Kimyou na Bouken Part 4: Diamond wa Kudakenai",
      "link": "https://animefire.plus/animes/jojo-no-kimyou-na-bouken-part-4-diamond-wa-kudakenai-todos-os-episodios",
      "texto_original": "JoJo no Kimyou na Bouken Part 4: Diamond wa Kudakenai",
      "rating": 8.59,
      "classificacao_etaria": "A16",
      "imagem_original": "https://animefire.plus/img/animes/jojo-no-kimyou-na-bouken-part-4-diamond-wa-kudakenai.webp",
      "imagem_pasta": "https://animefire.plus/img/animes/jojo-no-kimyou-na-bouken-part-4-diamond-wa-kudakenai/",
      "secao": "legendados",
      "pagina": 90,
      "total_episodios": 39,
      "link_video": "https://animefire.plus/video/jojo-no-kimyou-na-bouken-part-4-diamond-wa-kudakenai"
    },
    {
      "id": 1743,
      "nome": "JoJo no Kimyou na Bouken Part 5: Ougon no Kaze (Dublado)",
      "link": "https://animefire.plus/animes/jojo-no-kimyou-na-bouken-part-5-ougon-no-kaze-dublado-todos-os-episodios",
      "texto_original": "JoJo no Kimyou na Bouken Part 5: Ougon no Kaze (Dublado)",
      "rating": 8.58,
      "classificacao_etaria": "A16",
      "imagem_original": "https://animefire.plus/img/animes/jojo-no-kimyou-na-bouken-part-5-ougon-no-kaze.webp",
      "imagem_pasta": "https://animefire.plus/img/animes/jojo-no-kimyou-na-bouken-part-5-ougon-no-kaze/",
      "secao": "dublados,legendados",
      "pagina": 5,
      "total_episodios": 41,
      "link_video": "https://animefire.plus/video/jojo-no-kimyou-na-bouken-part-5-ougon-no-kaze-dublado"
    },
    {
      "id": 1744,
      "nome": "JoJo no Kimyou na Bouken Part 6: Stone Ocean (Dublado)",
      "link": "https://animefire.plus/animes/jojo-no-kimyou-na-bouken-part-6-stone-ocean-dublado-todos-os-episodios",
      "texto_original": "JoJo no Kimyou na Bouken Part 6: Stone Ocean (Dublado)",
      "rating": 8.08,
      "classificacao_etaria": "A16",
      "imagem_original": "https://animefire.plus/img/animes/jojo-no-kimyou-na-bouken-part-6-stone-ocean.webp",
      "imagem_pasta": "https://animefire.plus/img/animes/jojo-no-kimyou-na-bouken-part-6-stone-ocean/",
      "secao": "dublados,legendados,lancamentos",
      "pagina": 13,
      "total_episodios": 38,
      "link_video": "https://animefire.plus/video/jojo-no-kimyou-na-bouken-part-6-stone-ocean-dublado"
    },
    {
      "id": 1766,
      "nome": "Juuni Kokuki",
      "link": "https://animefire.plus/animes/juuni-kokuki-todos-os-episodios",
      "texto_original": "Juuni Kokuki",
      "rating": 8.08,
      "classificacao_etaria": "A14",
      "imagem_original": "https://animefire.plus/img/animes/juuni-kokuki.webp",
      "imagem_pasta": "https://animefire.plus/img/animes/juuni-kokuki/",
      "secao": "legendados",
      "pagina": 76,
      "total_episodios": 45,
      "link_video": "https://animefire.plus/video/juuni-kokuki"
    },
    {
      "id": 1769,
      "nome": "Juusenshi Gulkeeva",
      "link": "https://animefire.plus/animes/juusenshi-gulkeeva-todos-os-episodios",
      "texto_original": "Juusenshi Gulkeeva",
      "rating": 6.35,
      "classificacao_etaria": "A14",
      "imagem_original": "https://animefire.plus/img/animes/juusenshi-gulkeeva.webp",
      "imagem_pasta": "https://animefire.plus/img/animes/juusenshi-gulkeeva/",
      "secao": "legendados",
      "pagina": 68,
      "total_episodios": 26,
      "link_video": "https://animefire.plus/video/juusenshi-gulkeeva"
    },
    {
      "id": 1770,
      "nome": "Juushin Enbu: Hero Tales",
      "link": "https://animefire.plus/animes/juushin-enbu-hero-tales-todos-os-episodios",
      "texto_original": "Juushin Enbu: Hero Tales",
      "rating": 6.92,
      "classificacao_etaria": "A14",
      "imagem_original": "https://animefire.plus/img/animes/juushin-enbu-hero-tales.webp",
      "imagem_pasta": "https://animefire.plus/img/animes/juushin-enbu-hero-tales/",
      "secao": "legendados",
      "pagina": 148,
      "total_episodios": 26,
      "link_video": "https://animefire.plus/video/juushin-enbu-hero-tales"
    }
  ],
  "pagination": {
    "current_page": 8,
    "per_page": 20,
    "total_items": 370,
    "total_pages": 19,
    "has_next": true,
    "has_prev": true
  }
}
