{
  "message": "Animes com 25 a 50 episódios",
  "episode_range": {
    "min": 25,
    "max": 50
  },
  "data": [
    {
      "id": 223,
      "nome": "Arc The Lad",
      "link": "https://animefire.plus/animes/arc-the-lad-todos-os-episodios",
      "texto_original": "Arc The Lad",
      "rating": 6.58,
      "classificacao_etaria": "A16",
      "imagem_original": "https://animefire.plus/img/animes/arc-the-lad.webp",
      "imagem_pasta": "https://animefire.plus/img/animes/arc-the-lad/",
      "secao": "legendados",
      "pagina": 96,
      "total_episodios": 26,
      "link_video": "https://animefire.plus/video/arc-the-lad"
    },
    {
      "id": 227,
      "nome": "Area no Kishi",
      "link": "https://animefire.plus/animes/area-no-kishi-todos-os-episodios",
      "texto_original": "Area no Kishi",
      "rating": 7.31,
      "classificacao_etaria": "A14",
      "imagem_original": "https://animefire.plus/img/animes/area-no-kishi.webp",
      "imagem_pasta": "https://animefire.plus/img/animes/area-no-kishi/",
      "secao": "legendados",
      "pagina": 157,
      "total_episodios": 37,
      "link_video": "https://animefire.plus/video/area-no-kishi"
    },
    {
      "id": 228,
      "nome": "Argento Soma",
      "link": "https://animefire.plus/animes/argento-soma-todos-os-episodios",
      "texto_original": "Argento Soma",
      "rating": 6.86,
      "classificacao_etaria": "A14",
      "imagem_original": "https://animefire.plus/img/animes/argento-soma.webp",
      "imagem_pasta": "https://animefire.plus/img/animes/argento-soma/",
      "secao": "legendados",
      "pagina": 132,
      "total_episodios": 26,
      "link_video": "https://animefire.plus/video/argento-soma"
    },
    {
      "id": 232,
      "nome": "Aria The Natural",
      "link": "https://animefire.plus/animes/aria-the-natural-todos-os-episodios",
      "texto_original": "Aria The Natural",
      "rating": 8.2,
      "classificacao_etaria": null,
      "imagem_original": "https://animefire.plus/img/animes/aria-the-natural.webp",
      "imagem_pasta": "https://animefire.plus/img/animes/aria-the-natural/",
      "secao": "legendados",
      "pagina": 128,
      "total_episodios": 26,
      "link_video": "https://animefire.plus/video/aria-the-natural"
    },
    {
      "id": 260,
      "nome": "Ashita no Joe 2",
      "link": "https://animefire.plus/animes/ashita-no-joe-2-todos-os-episodios",
      "texto_original": "Ashita no Joe 2",
      "rating": 8.52,
      "classificacao_etaria": "A14",
      "imagem_original": "https://animefire.plus/img/animes/ashita-no-joe-2.webp",
      "imagem_pasta": "https://animefire.plus/img/animes/ashita-no-joe-2/",
      "secao": "legendados",
      "pagina": 161,
      "total_episodios": 47,
      "link_video": "https://animefire.plus/video/ashita-no-joe-2"
    },
    {
      "id": 261,
      "nome": "Ashita no Nadja (Dublado)",
      "link": "https://animefire.plus/animes/ashita-no-nadja-dublado-todos-os-episodios",
      "texto_original": "Ashita no Nadja (Dublado)",
      "rating": 7.6,
      "classificacao_etaria": null,
      "imagem_original": "https://animefire.plus/img/animes/ashita-no-nadja.webp",
      "imagem_pasta": "https://animefire.plus/img/animes/ashita-no-nadja/",
      "secao": "dublados,legendados",
      "pagina": 22,
      "total_episodios": 50,
      "link_video": "https://animefire.plus/video/ashita-no-nadja-dublado"
    },
    {
      "id": 286,
      "nome": "Azumanga Daioh",
      "link": "https://animefire.plus/animes/azumanga-daioh-todos-os-episodios",
      "texto_original": "Azumanga Daioh",
      "rating": 8.03,
      "classificacao_etaria": "A14",
      "imagem_original": "https://animefire.plus/img/animes/azumanga-daioh.webp",
      "imagem_pasta": "https://animefire.plus/img/animes/azumanga-daioh/",
      "secao": "legendados",
      "pagina": 152,
      "total_episodios": 26,
      "link_video": "https://animefire.plus/video/azumanga-daioh"
    },
    {
      "id": 298,
      "nome": "Baby Steps",
      "link": "https://animefire.plus/animes/baby-steps-todos-os-episodios",
      "texto_original": "Baby Steps",
      "rating": 7.92,
      "classificacao_etaria": "A14",
      "imagem_original": "https://animefire.plus/img/animes/baby-steps.webp",
      "imagem_pasta": "https://animefire.plus/img/animes/baby-steps/",
      "secao": "legendados",
      "pagina": 145,
      "total_episodios": 25,
      "link_video": "https://animefire.plus/video/baby-steps"
    },
    {
      "id": 309,
      "nome": "Baki (Dublado)",
      "link": "https://animefire.plus/animes/baki-dublado-todos-os-episodios",
      "texto_original": "Baki (Dublado)",
      "rating": 7.33,
      "classificacao_etaria": "A16",
      "imagem_original": "https://animefire.plus/img/animes/baki.webp",
      "imagem_pasta": "https://animefire.plus/img/animes/baki/",
      "secao": "dublados,legendados",
      "pagina": 25,
      "total_episodios": 26,
      "link_video": "https://animefire.plus/video/baki-dublado"
    },
    {
      "id": 312,
      "nome": "Bakuman.",
      "link": "https://animefire.plus/animes/bakuman-todos-os-episodios",
      "texto_original": "Bakuman.",
      "rating": 8.29,
      "classificacao_etaria": "A14",
      "imagem_original": "https://animefire.plus/img/animes/bakuman.webp",
      "imagem_pasta": "https://animefire.plus/img/animes/bakuman/",
      "secao": "legendados",
      "pagina": 160,
      "total_episodios": 25,
      "link_video": "https://animefire.plus/video/bakuman"
    },
    {
      "id": 313,
      "nome": "Bakuman. 2nd Season",
      "link": "https://animefire.plus/animes/bakuman-2nd-season-todos-os-episodios",
      "texto_original": "Bakuman. 2nd Season",
      "rating": 8.45,
      "classificacao_etaria": "A14",
      "imagem_original": "https://animefire.plus/img/animes/bakuman-2nd-season.webp",
      "imagem_pasta": "https://animefire.plus/img/animes/bakuman-2nd-season/",
      "secao": "legendados",
      "pagina": 161,
      "total_episodios": 25,
      "link_video": "https://animefire.plus/video/bakuman-2nd-season"
    },
    {
      "id": 314,
      "nome": "Bakuman. 3rd Season",
      "link": "https://animefire.plus/animes/bakuman-3rd-season-todos-os-episodios",
      "texto_original": "Bakuman. 3rd Season",
      "rating": 8.63,
      "classificacao_etaria": "A14",
      "imagem_original": "https://animefire.plus/img/animes/bakuman-3rd-season.webp",
      "imagem_pasta": "https://animefire.plus/img/animes/bakuman-3rd-season/",
      "secao": "legendados",
      "pagina": 123,
      "total_episodios": 25,
      "link_video": "https://animefire.plus/video/bakuman-3rd-season"
    },
    {
      "id": 317,
      "nome": "Bakumatsu Kikansetsu Irohanihoheto",
      "link": "https://animefire.plus/animes/bakumatsu-kikansetsu-irohanihoheto-todos-os-episodios",
      "texto_original": "Bakumatsu Kikansetsu Irohanihoheto",
      "rating": 7.17,
      "classificacao_etaria": "A14",
      "imagem_original": "https://animefire.plus/img/animes/bakumatsu-kikansetsu-irohanihoheto.webp",
      "imagem_pasta": "https://animefire.plus/img/animes/bakumatsu-kikansetsu-irohanihoheto/",
      "secao": "legendados",
      "pagina": 149,
      "total_episodios": 26,
      "link_video": "https://animefire.plus/video/bakumatsu-kikansetsu-irohanihoheto"
    },
    {
      "id": 321,
      "nome": "Bakuretsu Hunters",
      "link": "https://animefire.plus/animes/bakuretsu-hunters-todos-os-episodios",
      "texto_original": "Bakuretsu Hunters",
      "rating": 6.78,
      "classificacao_etaria": "A16",
      "imagem_original": "https://animefire.plus/img/animes/bakuretsu-hunters.webp",
      "imagem_pasta": "https://animefire.plus/img/animes/bakuretsu-hunters/",
      "secao": "legendados",
      "pagina": 122,
      "total_episodios": 26,
      "link_video": "https://animefire.plus/video/bakuretsu-hunters"
    },
    {
      "id": 347,
      "nome": "Basilisk: Kouga Ninpou Chou (Dublado)",
      "link": "https://animefire.plus/animes/basilisk-kouga-ninpou-chou-dublado-todos-os-episodios",
      "texto_original": "Basilisk: Kouga Ninpou Chou (Dublado)",
      "rating": 7.63,
      "classificacao_etaria": "A16",
      "imagem_original": "https://animefire.plus/img/animes/basilisk-kouga-ninpou-chou.webp",
      "imagem_pasta": "https://animefire.plus/img/animes/basilisk-kouga-ninpou-chou/",
      "secao": "dublados,legendados",
      "pagina": 27,
      "total_episodios": 25,
      "link_video": "https://animefire.plus/video/basilisk-kouga-ninpou-chou-dublado"
    },
    {
      "id": 369,
      "nome": "Beck",
      "link": "https://animefire.plus/animes/beck-todos-os-episodios",
      "texto_original": "Beck",
      "rating": 8.35,
      "classificacao_etaria": "A16",
      "imagem_original": "https://animefire.plus/img/animes/beck.webp",
      "imagem_pasta": "https://animefire.plus/img/animes/beck/",
      "secao": "legendados",
      "pagina": 153,
      "total_episodios": 26,
      "link_video": "https://animefire.plus/video/beck"
    },
    {
      "id": 398,
      "nome": "Bishoujo Senshi Sailor Moon R",
      "link": "https://animefire.plus/animes/bishoujo-senshi-sailor-moon-r-todos-os-episodios",
      "texto_original": "Bishoujo Senshi Sailor Moon R",
      "rating": 7.7,
      "classificacao_etaria": "A14",
      "imagem_original": "https://animefire.plus/img/animes/bishoujo-senshi-sailor-moon-r.webp",
      "imagem_pasta": "https://animefire.plus/img/animes/bishoujo-senshi-sailor-moon-r/",
      "secao": "legendados",
      "pagina": 72,
      "total_episodios": 43,
      "link_video": "https://animefire.plus/video/bishoujo-senshi-sailor-moon-r"
    },
    {
      "id": 399,
      "nome": "Bishoujo Senshi Sailor Moon S",
      "link": "https://animefire.plus/animes/bishoujo-senshi-sailor-moon-s-todos-os-episodios",
      "texto_original": "Bishoujo Senshi Sailor Moon S",
      "rating": 7.86,
      "classificacao_etaria": "A14",
      "imagem_original": "https://animefire.plus/img/animes/bishoujo-senshi-sailor-moon-s.webp",
      "imagem_pasta": "https://animefire.plus/img/animes/bishoujo-senshi-sailor-moon-s/",
      "secao": "legendados",
      "pagina": 72,
      "total_episodios": 38,
      "link_video": "https://animefire.plus/video/bishoujo-senshi-sailor-moon-s"
    },
    {
      "id": 400,
      "nome": "Bishoujo Senshi Sailor Moon SuperS",
      "link": "https://animefire.plus/animes/bishoujo-senshi-sailor-moon-supers-todos-os-episodios",
      "texto_original": "Bishoujo Senshi Sailor Moon SuperS",
      "rating": 7.65,
      "classificacao_etaria": "A14",
      "imagem_original": "https://animefire.plus/img/animes/bishoujo-senshi-sailor-moon-supers.webp",
      "imagem_pasta": "https://animefire.plus/img/animes/bishoujo-senshi-sailor-moon-supers/",
      "secao": "legendados",
      "pagina": 133,
      "total_episodios": 39,
      "link_video": "https://animefire.plus/video/bishoujo-senshi-sailor-moon-supers"
    },
    {
      "id": 432,
      "nome": "Blood+ (Dublado)",
      "link": "https://animefire.plus/animes/blood-dublado-todos-os-episodios",
      "texto_original": "Blood+ (Dublado)",
      "rating": 7.69,
      "classificacao_etaria": "A16",
      "imagem_original": "https://animefire.plus/img/animes/blood.webp",
      "imagem_pasta": "https://animefire.plus/img/animes/blood/",
      "secao": "dublados,legendados",
      "pagina": 22,
      "total_episodios": 50,
      "link_video": "https://animefire.plus/video/blood-dublado"
    }
  ],
  "pagination": {
    "current_page": 2,
    "per_page": 20,
    "total_items": 370,
    "total_pages": 19,
    "has_next": true,
    "has_prev": true
  }
}
