{
  "message": "Animes com 25 a 50 episódios",
  "episode_range": {
    "min": 25,
    "max": 50
  },
  "data": [
    {
      "id": 878,
      "nome": "Dragon Ball Kai (Dublado)",
      "link": "https://animefire.plus/animes/dragon-ball-kai-dublado-todos-os-episodios",
      "texto_original": "Dragon Ball Kai (Dublado)",
      "rating": 7.79,
      "classificacao_etaria": "A14",
      "imagem_original": "https://animefire.plus/img/animes/dragon-ball-kai.webp",
      "imagem_pasta": "https://animefire.plus/img/animes/dragon-ball-kai/",
      "secao": "dublados",
      "pagina": 21,
      "total_episodios": 26,
      "link_video": "https://animefire.plus/video/dragon-ball-kai-dublado"
    },
    {
      "id": 882,
      "nome": "Dragon Drive",
      "link": "https://animefire.plus/animes/dragon-drive-todos-os-episodios",
      "texto_original": "Dragon Drive",
      "rating": 6.81,
      "classificacao_etaria": "A10",
      "imagem_original": "https://animefire.plus/img/animes/dragon-drive.webp",
      "imagem_pasta": "https://animefire.plus/img/animes/dragon-drive/",
      "secao": "legendados",
      "pagina": 125,
      "total_episodios": 38,
      "link_video": "https://animefire.plus/video/dragon-drive"
    },
    {
      "id": 885,
      "nome": "Dragon Quest: Dai no Daibouken (TV) (Dublado)",
      "link": "https://animefire.plus/animes/dragon-quest-dai-no-daibouken-tv-dublado-todos-os-episodios",
      "texto_original": "Dragon Quest: Dai no Daibouken (TV) (Dublado)",
      "rating": 7.65,
      "classificacao_etaria": null,
      "imagem_original": "https://animefire.plus/img/animes/dragon-quest-dai-no-daibouken-tv.webp",
      "imagem_pasta": "https://animefire.plus/img/animes/dragon-quest-dai-no-daibouken-tv/",
      "secao": "dublados",
      "pagina": 20,
      "total_episodios": 46,
      "link_video": "https://animefire.plus/video/dragon-quest-dai-no-daibouken-tv-dublado"
    },
    {
      "id": 888,
      "nome": "Dragonaut: The Resonance",
      "link": "https://animefire.plus/animes/dragonaut-the-resonance-todos-os-episodios",
      "texto_original": "Dragonaut: The Resonance",
      "rating": 6.73,
      "classificacao_etaria": "A14",
      "imagem_original": "https://animefire.plus/img/animes/dragonaut-the-resonance.webp",
      "imagem_pasta": "https://animefire.plus/img/animes/dragonaut-the-resonance/",
      "secao": "legendados",
      "pagina": 145,
      "total_episodios": 25,
      "link_video": "https://animefire.plus/video/dragonaut-the-resonance"
    },
    {
      "id": 909,
      "nome": "Durarara!!",
      "link": "https://animefire.plus/animes/durarara-todos-os-episodios",
      "texto_original": "Durarara!!",
      "rating": 8.22,
      "classificacao_etaria": "A16",
      "imagem_original": "https://animefire.plus/img/animes/durarara.webp",
      "imagem_pasta": "https://animefire.plus/img/animes/durarara/",
      "secao": "legendados",
      "pagina": 61,
      "total_episodios": 26,
      "link_video": "https://animefire.plus/video/durarara"
    },
    {
      "id": 919,
      "nome": "Edens Zero (Dublado)",
      "link": "https://animefire.plus/animes/edens-zero-dublado-todos-os-episodios",
      "texto_original": "Edens Zero (Dublado)",
      "rating": 7.26,
      "classificacao_etaria": "A14",
      "imagem_original": "https://animefire.plus/img/animes/edens-zero.webp",
      "imagem_pasta": "https://animefire.plus/img/animes/edens-zero/",
      "secao": "dublados,legendados",
      "pagina": 16,
      "total_episodios": 25,
      "link_video": "https://animefire.plus/video/edens-zero-dublado"
    },
    {
      "id": 920,
      "nome": "Edens Zero 2nd Season",
      "link": "https://animefire.plus/animes/edens-zero-2nd-season-todos-os-episodios",
      "texto_original": "Edens Zero 2nd Season",
      "rating": 7.43,
      "classificacao_etaria": "A14",
      "imagem_original": "https://animefire.plus/img/animes/edens-zero-2nd-season.jpg",
      "imagem_pasta": "https://animefire.plus/img/animes/edens-zero-2nd-season/",
      "secao": "legendados",
      "pagina": 24,
      "total_episodios": 25,
      "link_video": "https://animefire.plus/video/edens-zero-2nd-season"
    },
    {
      "id": 931,
      "nome": "El Cazador de la Bruja",
      "link": "https://animefire.plus/animes/el-cazador-de-la-bruja-todos-os-episodios",
      "texto_original": "El Cazador de la Bruja",
      "rating": 7.28,
      "classificacao_etaria": "A14",
      "imagem_original": "https://animefire.plus/img/animes/el-cazador-de-la-bruja.webp",
      "imagem_pasta": "https://animefire.plus/img/animes/el-cazador-de-la-bruja/",
      "secao": "legendados",
      "pagina": 113,
      "total_episodios": 26,
      "link_video": "https://animefire.plus/video/el-cazador-de-la-bruja"
    },
    {
      "id": 974,
      "nome": "Fairy Tail: Final Series",
      "link": "https://animefire.plus/animes/fairy-tail-final-series-todos-os-episodios",
      "texto_original": "Fairy Tail: Final Series",
      "rating": 8.07,
      "classificacao_etaria": "A14",
      "imagem_original": "https://animefire.plus/img/animes/fairy-tail-final-series.webp",
      "imagem_pasta": "https://animefire.plus/img/animes/fairy-tail-final-series/",
      "secao": "legendados",
      "pagina": 113,
      "total_episodios": 33,
      "link_video": "https://animefire.plus/video/fairy-tail-final-series"
    },
    {
      "id": 977,
      "nome": "Fantastic Children",
      "link": "https://animefire.plus/animes/fantastic-children-todos-os-episodios",
      "texto_original": "Fantastic Children",
      "rating": 7.62,
      "classificacao_etaria": "A14",
      "imagem_original": "https://animefire.plus/img/animes/fantastic-children.webp",
      "imagem_pasta": "https://animefire.plus/img/animes/fantastic-children/",
      "secao": "legendados",
      "pagina": 98,
      "total_episodios": 26,
      "link_video": "https://animefire.plus/video/fantastic-children"
    },
    {
      "id": 983,
      "nome": "Fate/Apocrypha (Dublado)",
      "link": "https://animefire.plus/animes/fate-apocrypha-dublado-todos-os-episodios",
      "texto_original": "Fate/Apocrypha (Dublado)",
      "rating": 7.16,
      "classificacao_etaria": "A16",
      "imagem_original": "https://animefire.plus/img/animes/fate-apocrypha.webp",
      "imagem_pasta": "https://animefire.plus/img/animes/fate-apocrypha/",
      "secao": "dublados,legendados",
      "pagina": 17,
      "total_episodios": 25,
      "link_video": "https://animefire.plus/video/fate-apocrypha-dublado"
    },
    {
      "id": 1011,
      "nome": "Final Fantasy: Unlimited",
      "link": "https://animefire.plus/animes/final-fantasy-unlimited-todos-os-episodios",
      "texto_original": "Final Fantasy: Unlimited",
      "rating": 6.27,
      "classificacao_etaria": "A14",
      "imagem_original": "https://animefire.plus/img/animes/final-fantasy-unlimited.webp",
      "imagem_pasta": "https://animefire.plus/img/animes/final-fantasy-unlimited/",
      "secao": "legendados",
      "pagina": 162,
      "total_episodios": 25,
      "link_video": "https://animefire.plus/video/final-fantasy-unlimited"
    },
    {
      "id": 1029,
      "nome": "Fresh Precure!",
      "link": "https://animefire.plus/animes/fresh-precure-todos-os-episodios",
      "texto_original": "Fresh Precure!",
      "rating": 7.34,
      "classificacao_etaria": null,
      "imagem_original": "https://animefire.plus/img/animes/fresh-precure.webp",
      "imagem_pasta": "https://animefire.plus/img/animes/fresh-precure/",
      "secao": "legendados",
      "pagina": 66,
      "total_episodios": 50,
      "link_video": "https://animefire.plus/video/fresh-precure"
    },
    {
      "id": 1030,
      "nome": "Fruits Basket",
      "link": "https://animefire.plus/animes/fruits-basket-todos-os-episodios",
      "texto_original": "Fruits Basket",
      "rating": 7.71,
      "classificacao_etaria": "A14",
      "imagem_original": "https://animefire.plus/img/animes/fruits-basket.webp",
      "imagem_pasta": "https://animefire.plus/img/animes/fruits-basket/",
      "secao": "legendados",
      "pagina": 68,
      "total_episodios": 26,
      "link_video": "https://animefire.plus/video/fruits-basket"
    },
    {
      "id": 1032,
      "nome": "Fruits Basket 1st Season (Dublado)",
      "link": "https://animefire.plus/animes/fruits-basket-1st-season-dublado-todos-os-episodios",
      "texto_original": "Fruits Basket 1st Season (Dublado)",
      "rating": 8.2,
      "classificacao_etaria": "A14",
      "imagem_original": "https://animefire.plus/img/animes/fruits-basket-1st-season.webp",
      "imagem_pasta": "https://animefire.plus/img/animes/fruits-basket-1st-season/",
      "secao": "dublados",
      "pagina": 17,
      "total_episodios": 25,
      "link_video": "https://animefire.plus/video/fruits-basket-1st-season-dublado"
    },
    {
      "id": 1033,
      "nome": "Fruits Basket 2nd Season (Dublado)",
      "link": "https://animefire.plus/animes/fruits-basket-2nd-season-dublado-todos-os-episodios",
      "texto_original": "Fruits Basket 2nd Season (Dublado)",
      "rating": 8.55,
      "classificacao_etaria": "A14",
      "imagem_original": "https://animefire.plus/img/animes/fruits-basket-2nd-season.webp",
      "imagem_pasta": "https://animefire.plus/img/animes/fruits-basket-2nd-season/",
      "secao": "dublados,legendados",
      "pagina": 17,
      "total_episodios": 25,
      "link_video": "https://animefire.plus/video/fruits-basket-2nd-season-dublado"
    },
    {
      "id": 1054,
      "nome": "Fushigi no Umi no Nadia",
      "link": "https://animefire.plus/animes/fushigi-no-umi-no-nadia-todos-os-episodios",
      "texto_original": "Fushigi no Umi no Nadia",
      "rating": 7.56,
      "classificacao_etaria": "A14",
      "imagem_original": "https://animefire.plus/img/animes/fushigi-no-umi-no-nadia.webp",
      "imagem_pasta": "https://animefire.plus/img/animes/fushigi-no-umi-no-nadia/",
      "secao": "legendados",
      "pagina": 64,
      "total_episodios": 39,
      "link_video": "https://animefire.plus/video/fushigi-no-umi-no-nadia"
    },
    {
      "id": 1076,
      "nome": "Gad Guard",
      "link": "https://animefire.plus/animes/gad-guard-todos-os-episodios",
      "texto_original": "Gad Guard",
      "rating": 6.76,
      "classificacao_etaria": "A14",
      "imagem_original": "https://animefire.plus/img/animes/gad-guard.webp",
      "imagem_pasta": "https://animefire.plus/img/animes/gad-guard/",
      "secao": "legendados",
      "pagina": 170,
      "total_episodios": 26,
      "link_video": "https://animefire.plus/video/gad-guard"
    },
    {
      "id": 1082,
      "nome": "Gakuen Alice",
      "link": "https://animefire.plus/animes/gakuen-alice-todos-os-episodios",
      "texto_original": "Gakuen Alice",
      "rating": 7.75,
      "classificacao_etaria": null,
      "imagem_original": "https://animefire.plus/img/animes/gakuen-alice.webp",
      "imagem_pasta": "https://animefire.plus/img/animes/gakuen-alice/",
      "secao": "legendados",
      "pagina": 176,
      "total_episodios": 26,
      "link_video": "https://animefire.plus/video/gakuen-alice"
    },
    {
      "id": 1094,
      "nome": "Galaxy Angel (Dublado)",
      "link": "https://animefire.plus/animes/galaxy-angel-dublado-todos-os-episodios",
      "texto_original": "Galaxy Angel (Dublado)",
      "rating": 7.02,
      "classificacao_etaria": "A14",
      "imagem_original": "https://animefire.plus/img/animes/galaxy-angel.webp",
      "imagem_pasta": "https://animefire.plus/img/animes/galaxy-angel/",
      "secao": "dublados,legendados",
      "pagina": 17,
      "total_episodios": 26,
      "link_video": "https://animefire.plus/video/galaxy-angel-dublado"
    }
  ],
  "pagination": {
    "current_page": 5,
    "per_page": 20,
    "total_items": 370,
    "total_pages": 19,
    "has_next": true,
    "has_prev": true
  }
}
