{
  "message": "Animes com 25 a 50 episódios",
  "episode_range": {
    "min": 25,
    "max": 50
  },
  "data": [
    {
      "id": 1771,
      "nome": "Juushinki Pandora (Dublado)",
      "link": "https://animefire.plus/animes/juushinki-pandora-dublado-todos-os-episodios",
      "texto_original": "Juushinki Pandora (Dublado)",
      "rating": 6.4,
      "classificacao_etaria": "A14",
      "imagem_original": "https://animefire.plus/img/animes/juushinki-pandora.webp",
      "imagem_pasta": "https://animefire.plus/img/animes/juushinki-pandora/",
      "secao": "dublados,legendados",
      "pagina": 24,
      "total_episodios": 26,
      "link_video": "https://animefire.plus/video/juushinki-pandora-dublado"
    },
    {
      "id": 1801,
      "nome": "Kaibutsu Oujo",
      "link": "https://animefire.plus/animes/kaibutsu-oujo-todos-os-episodios",
      "texto_original": "Kaibutsu Oujo",
      "rating": 7.09,
      "classificacao_etaria": "A14",
      "imagem_original": "https://animefire.plus/img/animes/kaibutsu-oujo.webp",
      "imagem_pasta": "https://animefire.plus/img/animes/kaibutsu-oujo/",
      "secao": "legendados",
      "pagina": 165,
      "total_episodios": 25,
      "link_video": "https://animefire.plus/video/kaibutsu-oujo"
    },
    {
      "id": 1803,
      "nome": "Kaichou wa Maid-sama!",
      "link": "https://animefire.plus/animes/kaichou-wa-maid-sama-todos-os-episodios",
      "texto_original": "Kaichou wa Maid-sama!",
      "rating": 8.18,
      "classificacao_etaria": "A14",
      "imagem_original": "https://animefire.plus/img/animes/kaichou-wa-maid-sama.webp",
      "imagem_pasta": "https://animefire.plus/img/animes/kaichou-wa-maid-sama/",
      "secao": "legendados",
      "pagina": 157,
      "total_episodios": 26,
      "link_video": "https://animefire.plus/video/kaichou-wa-maid-sama"
    },
    {
      "id": 1813,
      "nome": "Kaiketsu Jouki Tanteidan",
      "link": "https://animefire.plus/animes/kaiketsu-jouki-tanteidan-todos-os-episodios",
      "texto_original": "Kaiketsu Jouki Tanteidan",
      "rating": 6.72,
      "classificacao_etaria": "A14",
      "imagem_original": "https://animefire.plus/img/animes/kaiketsu-jouki-tanteidan.webp",
      "imagem_pasta": "https://animefire.plus/img/animes/kaiketsu-jouki-tanteidan/",
      "secao": "legendados",
      "pagina": 112,
      "total_episodios": 26,
      "link_video": "https://animefire.plus/video/kaiketsu-jouki-tanteidan"
    },
    {
      "id": 1826,
      "nome": "Kakuriyo no Yadomeshi",
      "link": "https://animefire.plus/animes/kakuriyo-no-yadomeshi-todos-os-episodios",
      "texto_original": "Kakuriyo no Yadomeshi",
      "rating": 7.61,
      "classificacao_etaria": "A14",
      "imagem_original": "https://animefire.plus/img/animes/kakuriyo-no-yadomeshi.webp",
      "imagem_pasta": "https://animefire.plus/img/animes/kakuriyo-no-yadomeshi/",
      "secao": "legendados",
      "pagina": 162,
      "total_episodios": 26,
      "link_video": "https://animefire.plus/video/kakuriyo-no-yadomeshi"
    },
    {
      "id": 1829,
      "nome": "Kaleido Star (Dublado)",
      "link": "https://animefire.plus/animes/kaleido-star-dublado-todos-os-episodios",
      "texto_original": "Kaleido Star (Dublado)",
      "rating": 7.97,
      "classificacao_etaria": "A14",
      "imagem_original": "https://animefire.plus/img/animes/kaleido-star.webp",
      "imagem_pasta": "https://animefire.plus/img/animes/kaleido-star/",
      "secao": "dublados",
      "pagina": 23,
      "total_episodios": 26,
      "link_video": "https://animefire.plus/video/kaleido-star-dublado"
    },
    {
      "id": 1836,
      "nome": "Kami no Tou: Ouji no Kikan (Dublado)",
      "link": "https://animefire.plus/animes/kami-no-tou-ouji-no-kikan-dublado-todos-os-episodios",
      "texto_original": "Kami no Tou: Ouji no Kikan (Dublado)",
      "rating": 6.68,
      "classificacao_etaria": "A14",
      "imagem_original": "https://animefire.plus/img/animes/kami-no-tou-ouji-no-kikan.webp",
      "imagem_pasta": "https://animefire.plus/img/animes/kami-no-tou-ouji-no-kikan/",
      "secao": "dublados,legendados,lancamentos",
      "pagina": 1,
      "total_episodios": 26,
      "link_video": "https://animefire.plus/video/kami-no-tou-ouji-no-kikan-dublado"
    },
    {
      "id": 1846,
      "nome": "Kamichama Karin",
      "link": "https://animefire.plus/animes/kamichama-karin-todos-os-episodios",
      "texto_original": "Kamichama Karin",
      "rating": 7.42,
      "classificacao_etaria": "A14",
      "imagem_original": "https://animefire.plus/img/animes/kamichama-karin.webp",
      "imagem_pasta": "https://animefire.plus/img/animes/kamichama-karin/",
      "secao": "legendados",
      "pagina": 115,
      "total_episodios": 26,
      "link_video": "https://animefire.plus/video/kamichama-karin"
    },
    {
      "id": 1931,
      "nome": "Kekkaishi",
      "link": "https://animefire.plus/animes/kekkaishi-todos-os-episodios",
      "texto_original": "Kekkaishi",
      "rating": 7.68,
      "classificacao_etaria": "A14",
      "imagem_original": "https://animefire.plus/img/animes/kekkaishi.webp",
      "imagem_pasta": "https://animefire.plus/img/animes/kekkaishi/",
      "secao": "legendados",
      "pagina": 175,
      "total_episodios": 34,
      "link_video": "https://animefire.plus/video/kekkaishi"
    },
    {
      "id": 1938,
      "nome": "Kemono no Souja Erin",
      "link": "https://animefire.plus/animes/kemono-no-souja-erin-todos-os-episodios",
      "texto_original": "Kemono no Souja Erin",
      "rating": 8.37,
      "classificacao_etaria": "A14",
      "imagem_original": "https://animefire.plus/img/animes/kemono-no-souja-erin.webp",
      "imagem_pasta": "https://animefire.plus/img/animes/kemono-no-souja-erin/",
      "secao": "legendados",
      "pagina": 72,
      "total_episodios": 50,
      "link_video": "https://animefire.plus/video/kemono-no-souja-erin"
    },
    {
      "id": 1950,
      "nome": "Kenpuu Denki Berserk",
      "link": "https://animefire.plus/animes/kenpuu-denki-berserk-todos-os-episodios",
      "texto_original": "Kenpuu Denki Berserk",
      "rating": 8.47,
      "classificacao_etaria": "A18",
      "imagem_original": "https://animefire.plus/img/animes/kenpuu-denki-berserk.webp",
      "imagem_pasta": "https://animefire.plus/img/animes/kenpuu-denki-berserk/",
      "secao": "legendados",
      "pagina": 126,
      "total_episodios": 25,
      "link_video": "https://animefire.plus/video/kenpuu-denki-berserk"
    },
    {
      "id": 1951,
      "nome": "Kenran Butou Sai: The Mars Daybreak",
      "link": "https://animefire.plus/animes/kenran-butou-sai-the-mars-daybreak-todos-os-episodios",
      "texto_original": "Kenran Butou Sai: The Mars Daybreak",
      "rating": 7.23,
      "classificacao_etaria": "A14",
      "imagem_original": "https://animefire.plus/img/animes/kenran-butou-sai-the-mars-daybreak.webp",
      "imagem_pasta": "https://animefire.plus/img/animes/kenran-butou-sai-the-mars-daybreak/",
      "secao": "legendados",
      "pagina": 138,
      "total_episodios": 26,
      "link_video": "https://animefire.plus/video/kenran-butou-sai-the-mars-daybreak"
    },
    {
      "id": 1962,
      "nome": "Kidou Senkan Nadesico",
      "link": "https://animefire.plus/animes/kidou-senkan-nadesico-todos-os-episodios",
      "texto_original": "Kidou Senkan Nadesico",
      "rating": 7.56,
      "classificacao_etaria": "A14",
      "imagem_original": "https://animefire.plus/img/animes/kidou-senkan-nadesico.webp",
      "imagem_pasta": "https://animefire.plus/img/animes/kidou-senkan-nadesico/",
      "secao": "legendados",
      "pagina": 129,
      "total_episodios": 26,
      "link_video": "https://animefire.plus/video/kidou-senkan-nadesico"
    },
    {
      "id": 1969,
      "nome": "Kikou Kai Galient",
      "link": "https://animefire.plus/animes/kikou-kai-galient-todos-os-episodios",
      "texto_original": "Kikou Kai Galient",
      "rating": 6.6,
      "classificacao_etaria": "A14",
      "imagem_original": "https://animefire.plus/img/animes/kikou-kai-galient.webp",
      "imagem_pasta": "https://animefire.plus/img/animes/kikou-kai-galient/",
      "secao": "legendados",
      "pagina": 147,
      "total_episodios": 25,
      "link_video": "https://animefire.plus/video/kikou-kai-galient"
    },
    {
      "id": 1974,
      "nome": "Kimagure Orange☆Road",
      "link": "https://animefire.plus/animes/kimagure-orange-road-todos-os-episodios",
      "texto_original": "Kimagure Orange☆Road",
      "rating": 7.63,
      "classificacao_etaria": "A14",
      "imagem_original": "https://animefire.plus/img/animes/kimagure-orange-road.webp",
      "imagem_pasta": "https://animefire.plus/img/animes/kimagure-orange-road/",
      "secao": "legendados",
      "pagina": 120,
      "total_episodios": 48,
      "link_video": "https://animefire.plus/video/kimagure-orange-road"
    },
    {
      "id": 1976,
      "nome": "Kimetsu no Yaiba (Dublado)",
      "link": "https://animefire.plus/animes/kimetsu-no-yaiba-dublado-todos-os-episodios",
      "texto_original": "Kimetsu no Yaiba (Dublado)",
      "rating": 8.64,
      "classificacao_etaria": "A16",
      "imagem_original": "https://animefire.plus/img/animes/kimetsu-no-yaiba.webp",
      "imagem_pasta": "https://animefire.plus/img/animes/kimetsu-no-yaiba/",
      "secao": "dublados,legendados",
      "pagina": 18,
      "total_episodios": 26,
      "link_video": "https://animefire.plus/video/kimetsu-no-yaiba-dublado"
    },
    {
      "id": 1983,
      "nome": "Kimi ni Todoke",
      "link": "https://animefire.plus/animes/kimi-ni-todoke-todos-os-episodios",
      "texto_original": "Kimi ni Todoke",
      "rating": 8.1,
      "classificacao_etaria": "A14",
      "imagem_original": "https://animefire.plus/img/animes/kimi-ni-todoke.webp",
      "imagem_pasta": "https://animefire.plus/img/animes/kimi-ni-todoke/",
      "secao": "legendados",
      "pagina": 159,
      "total_episodios": 25,
      "link_video": "https://animefire.plus/video/kimi-ni-todoke"
    },
    {
      "id": 1993,
      "nome": "Kimi to Idol Precure♪",
      "link": "https://animefire.plus/animes/kimi-to-idol-precure-todos-os-episodios",
      "texto_original": "Kimi to Idol Precure♪",
      "rating": 7.43,
      "classificacao_etaria": null,
      "imagem_original": "https://animefire.plus/img/animes/kimi-to-idol-precure.webp",
      "imagem_pasta": "https://animefire.plus/img/animes/kimi-to-idol-precure/",
      "secao": "legendados,lancamentos",
      "pagina": 6,
      "total_episodios": 26,
      "link_video": "https://animefire.plus/video/kimi-to-idol-precure"
    },
    {
      "id": 2001,
      "nome": "King's Raid: Ishi wo Tsugumono-tachi",
      "link": "https://animefire.plus/animes/king-s-raid-ishi-wo-tsugumono-tachi-todos-os-episodios",
      "texto_original": "King's Raid: Ishi wo Tsugumono-tachi",
      "rating": null,
      "classificacao_etaria": "A14",
      "imagem_original": "https://animefire.plus/img/animes/king-s-raid-ishi-wo-tsugumono-tachi.webp",
      "imagem_pasta": "https://animefire.plus/img/animes/king-s-raid-ishi-wo-tsugumono-tachi/",
      "secao": "legendados",
      "pagina": 52,
      "total_episodios": 26,
      "link_video": "https://animefire.plus/video/king-s-raid-ishi-wo-tsugumono-tachi"
    },
    {
      "id": 2004,
      "nome": "Kingdom 3rd Season",
      "link": "https://animefire.plus/animes/kingdom-3rd-season-todos-os-episodios",
      "texto_original": "Kingdom 3rd Season",
      "rating": 8.41,
      "classificacao_etaria": null,
      "imagem_original": "https://animefire.plus/img/animes/kingdom-3rd-season.webp",
      "imagem_pasta": "https://animefire.plus/img/animes/kingdom-3rd-season/",
      "secao": "legendados,lancamentos",
      "pagina": 81,
      "total_episodios": 26,
      "link_video": "https://animefire.plus/video/kingdom-3rd-season"
    }
  ],
  "pagination": {
    "current_page": 9,
    "per_page": 20,
    "total_items": 370,
    "total_pages": 19,
    "has_next": true,
    "has_prev": true
  }
}
