{
  "message": "Animes com 25 a 50 episódios",
  "episode_range": {
    "min": 25,
    "max": 50
  },
  "data": [
    {
      "id": 2299,
      "nome": "Madlax",
      "link": "https://animefire.plus/animes/madlax-todos-os-episodios",
      "texto_original": "Madlax",
      "rating": 7.12,
      "classificacao_etaria": "A14",
      "imagem_original": "https://animefire.plus/img/animes/madlax.webp",
      "imagem_pasta": "https://animefire.plus/img/animes/madlax/",
      "secao": "legendados",
      "pagina": 142,
      "total_episodios": 26,
      "link_video": "https://animefire.plus/video/madlax"
    },
    {
      "id": 2300,
      "nome": "Madou King Granzort",
      "link": "https://animefire.plus/animes/madou-king-granzort-todos-os-episodios",
      "texto_original": "Madou King Granzort",
      "rating": 7.09,
      "classificacao_etaria": null,
      "imagem_original": "https://animefire.plus/img/animes/madou-king-granzort.webp",
      "imagem_pasta": "https://animefire.plus/img/animes/madou-king-granzort/",
      "secao": "legendados",
      "pagina": 65,
      "total_episodios": 41,
      "link_video": "https://animefire.plus/video/madou-king-granzort"
    },
    {
      "id": 2315,
      "nome": "Magic Knight Rayearth II",
      "link": "https://animefire.plus/animes/magic-knight-rayearth-ii-todos-os-episodios",
      "texto_original": "Magic Knight Rayearth II",
      "rating": 7.59,
      "classificacao_etaria": "A14",
      "imagem_original": "https://animefire.plus/img/animes/magic-knight-rayearth-ii.webp",
      "imagem_pasta": "https://animefire.plus/img/animes/magic-knight-rayearth-ii/",
      "secao": "legendados",
      "pagina": 107,
      "total_episodios": 29,
      "link_video": "https://animefire.plus/video/magic-knight-rayearth-ii"
    },
    {
      "id": 2320,
      "nome": "Mahoraba: Heartful days",
      "link": "https://animefire.plus/animes/mahoraba-heartful-days-todos-os-episodios",
      "texto_original": "Mahoraba: Heartful days",
      "rating": 7.38,
      "classificacao_etaria": "A14",
      "imagem_original": "https://animefire.plus/img/animes/mahoraba-heartful-days.webp",
      "imagem_pasta": "https://animefire.plus/img/animes/mahoraba-heartful-days/",
      "secao": "legendados",
      "pagina": 172,
      "total_episodios": 25,
      "link_video": "https://animefire.plus/video/mahoraba-heartful-days"
    },
    {
      "id": 2325,
      "nome": "Mahou Sensei Negima!",
      "link": "https://animefire.plus/animes/mahou-sensei-negima-todos-os-episodios",
      "texto_original": "Mahou Sensei Negima!",
      "rating": 7.06,
      "classificacao_etaria": "A14",
      "imagem_original": "https://animefire.plus/img/animes/mahou-sensei-negima.webp",
      "imagem_pasta": "https://animefire.plus/img/animes/mahou-sensei-negima/",
      "secao": "legendados",
      "pagina": 112,
      "total_episodios": 26,
      "link_video": "https://animefire.plus/video/mahou-sensei-negima"
    },
    {
      "id": 2345,
      "nome": "Mahouka Koukou No Rettousei",
      "link": "https://animefire.plus/animes/mahouka-koukou-no-rettousei-todos-os-episodios",
      "texto_original": "Mahouka Koukou No Rettousei",
      "rating": 7.69,
      "classificacao_etaria": "A14",
      "imagem_original": "https://animefire.plus/img/animes/mahouka-koukou-no-rettousei.webp",
      "imagem_pasta": "https://animefire.plus/img/animes/mahouka-koukou-no-rettousei/",
      "secao": "legendados",
      "pagina": 100,
      "total_episodios": 26,
      "link_video": "https://animefire.plus/video/mahouka-koukou-no-rettousei"
    },
    {
      "id": 2358,
      "nome": "Mahoutsukai Precure!",
      "link": "https://animefire.plus/animes/mahoutsukai-precure-todos-os-episodios",
      "texto_original": "Mahoutsukai Precure!",
      "rating": 7.08,
      "classificacao_etaria": null,
      "imagem_original": "https://animefire.plus/img/animes/mahoutsukai-precure.webp",
      "imagem_pasta": "https://animefire.plus/img/animes/mahoutsukai-precure/",
      "secao": "legendados",
      "pagina": 67,
      "total_episodios": 47,
      "link_video": "https://animefire.plus/video/mahoutsukai-precure"
    },
    {
      "id": 2364,
      "nome": "Mai-HiME",
      "link": "https://animefire.plus/animes/mai-hime-todos-os-episodios",
      "texto_original": "Mai-HiME",
      "rating": 7.52,
      "classificacao_etaria": "A14",
      "imagem_original": "https://animefire.plus/img/animes/mai-hime.webp",
      "imagem_pasta": "https://animefire.plus/img/animes/mai-hime/",
      "secao": "legendados",
      "pagina": 172,
      "total_episodios": 26,
      "link_video": "https://animefire.plus/video/mai-hime"
    },
    {
      "id": 2365,
      "nome": "Mai-Otome",
      "link": "https://animefire.plus/animes/mai-otome-todos-os-episodios",
      "texto_original": "Mai-Otome",
      "rating": 7.35,
      "classificacao_etaria": "A14",
      "imagem_original": "https://animefire.plus/img/animes/mai-otome.webp",
      "imagem_pasta": "https://animefire.plus/img/animes/mai-otome/",
      "secao": "legendados",
      "pagina": 120,
      "total_episodios": 26,
      "link_video": "https://animefire.plus/video/mai-otome"
    },
    {
      "id": 2376,
      "nome": "Majin Tantei Nougami Neuro",
      "link": "https://animefire.plus/animes/majin-tantei-nougami-neuro-todos-os-episodios",
      "texto_original": "Majin Tantei Nougami Neuro",
      "rating": 7.69,
      "classificacao_etaria": "A16",
      "imagem_original": "https://animefire.plus/img/animes/majin-tantei-nougami-neuro.webp",
      "imagem_pasta": "https://animefire.plus/img/animes/majin-tantei-nougami-neuro/",
      "secao": "legendados",
      "pagina": 127,
      "total_episodios": 25,
      "link_video": "https://animefire.plus/video/majin-tantei-nougami-neuro"
    },
    {
      "id": 2379,
      "nome": "Major 2nd",
      "link": "https://animefire.plus/animes/major-2nd-todos-os-episodios",
      "texto_original": "Major 2nd",
      "rating": 7.63,
      "classificacao_etaria": "A14",
      "imagem_original": "https://animefire.plus/img/animes/major-2nd.webp",
      "imagem_pasta": "https://animefire.plus/img/animes/major-2nd/",
      "secao": "legendados",
      "pagina": 157,
      "total_episodios": 25,
      "link_video": "https://animefire.plus/video/major-2nd"
    },
    {
      "id": 2381,
      "nome": "Major S1",
      "link": "https://animefire.plus/animes/major-s1-todos-os-episodios",
      "texto_original": "Major S1",
      "rating": 8.35,
      "classificacao_etaria": "A14",
      "imagem_original": "https://animefire.plus/img/animes/major-s1.webp",
      "imagem_pasta": "https://animefire.plus/img/animes/major-s1/",
      "secao": "legendados",
      "pagina": 144,
      "total_episodios": 26,
      "link_video": "https://animefire.plus/video/major-s1"
    },
    {
      "id": 2382,
      "nome": "Major S2",
      "link": "https://animefire.plus/animes/major-s2-todos-os-episodios",
      "texto_original": "Major S2",
      "rating": 8.33,
      "classificacao_etaria": "A14",
      "imagem_original": "https://animefire.plus/img/animes/major-s2.webp",
      "imagem_pasta": "https://animefire.plus/img/animes/major-s2/",
      "secao": "legendados",
      "pagina": 151,
      "total_episodios": 26,
      "link_video": "https://animefire.plus/video/major-s2"
    },
    {
      "id": 2383,
      "nome": "Major S3",
      "link": "https://animefire.plus/animes/major-s3-todos-os-episodios",
      "texto_original": "Major S3",
      "rating": 8.34,
      "classificacao_etaria": "A14",
      "imagem_original": "https://animefire.plus/img/animes/major-s3.webp",
      "imagem_pasta": "https://animefire.plus/img/animes/major-s3/",
      "secao": "legendados",
      "pagina": 155,
      "total_episodios": 26,
      "link_video": "https://animefire.plus/video/major-s3"
    },
    {
      "id": 2384,
      "nome": "Major S4",
      "link": "https://animefire.plus/animes/major-s4-todos-os-episodios",
      "texto_original": "Major S4",
      "rating": 8.3,
      "classificacao_etaria": "A14",
      "imagem_original": "https://animefire.plus/img/animes/major-s4.webp",
      "imagem_pasta": "https://animefire.plus/img/animes/major-s4/",
      "secao": "legendados",
      "pagina": 129,
      "total_episodios": 26,
      "link_video": "https://animefire.plus/video/major-s4"
    },
    {
      "id": 2385,
      "nome": "Major S5",
      "link": "https://animefire.plus/animes/major-s5-todos-os-episodios",
      "texto_original": "Major S5",
      "rating": 8.48,
      "classificacao_etaria": "A14",
      "imagem_original": "https://animefire.plus/img/animes/major-s5.webp",
      "imagem_pasta": "https://animefire.plus/img/animes/major-s5/",
      "secao": "legendados",
      "pagina": 125,
      "total_episodios": 25,
      "link_video": "https://animefire.plus/video/major-s5"
    },
    {
      "id": 2386,
      "nome": "Major S6",
      "link": "https://animefire.plus/animes/major-s6-todos-os-episodios",
      "texto_original": "Major S6",
      "rating": 8.4,
      "classificacao_etaria": "A14",
      "imagem_original": "https://animefire.plus/img/animes/major-s6.webp",
      "imagem_pasta": "https://animefire.plus/img/animes/major-s6/",
      "secao": "legendados",
      "pagina": 118,
      "total_episodios": 25,
      "link_video": "https://animefire.plus/video/major-s6"
    },
    {
      "id": 2442,
      "nome": "Masou Kishin Cybuster",
      "link": "https://animefire.plus/animes/masou-kishin-cybuster-todos-os-episodios",
      "texto_original": "Masou Kishin Cybuster",
      "rating": 6.2,
      "classificacao_etaria": "A14",
      "imagem_original": "https://animefire.plus/img/animes/masou-kishin-cybuster.webp",
      "imagem_pasta": "https://animefire.plus/img/animes/masou-kishin-cybuster/",
      "secao": "legendados",
      "pagina": 135,
      "total_episodios": 26,
      "link_video": "https://animefire.plus/video/masou-kishin-cybuster"
    },
    {
      "id": 2447,
      "nome": "Matantei Loki Ragnarok",
      "link": "https://animefire.plus/animes/matantei-loki-ragnarok-todos-os-episodios",
      "texto_original": "Matantei Loki Ragnarok",
      "rating": 7.37,
      "classificacao_etaria": "A14",
      "imagem_original": "https://animefire.plus/img/animes/matantei-loki-ragnarok.webp",
      "imagem_pasta": "https://animefire.plus/img/animes/matantei-loki-ragnarok/",
      "secao": "legendados",
      "pagina": 156,
      "total_episodios": 26,
      "link_video": "https://animefire.plus/video/matantei-loki-ragnarok"
    },
    {
      "id": 2519,
      "nome": "Mirai Nikki (Dublado)",
      "link": "https://animefire.plus/animes/mirai-nikki-dublado-todos-os-episodios",
      "texto_original": "Mirai Nikki (Dublado)",
      "rating": 7.22,
      "classificacao_etaria": "A16",
      "imagem_original": "https://animefire.plus/img/animes/mirai-nikki.webp",
      "imagem_pasta": "https://animefire.plus/img/animes/mirai-nikki/",
      "secao": "dublados,legendados",
      "pagina": 13,
      "total_episodios": 26,
      "link_video": "https://animefire.plus/video/mirai-nikki-dublado"
    }
  ],
  "pagination": {
    "current_page": 11,
    "per_page": 20,
    "total_items": 370,
    "total_pages": 19,
    "has_next": true,
    "has_prev": true
  }
}
