{
  "message": "Animes com 51 a 100 episódios",
  "episode_range": {
    "min": 51,
    "max": 100
  },
  "data": [
    {
      "id": 1047,
      "nome": "Fullmetal Alchemist: Brotherhood (Dublado)",
      "link": "https://animefire.plus/animes/fullmetal-alchemist-brotherhood-dublado-todos-os-episodios",
      "texto_original": "Fullmetal Alchemist: Brotherhood (Dublado)",
      "rating": 9.23,
      "classificacao_etaria": "A16",
      "imagem_original": "https://animefire.plus/img/animes/fullmetal-alchemist-brotherhood.webp",
      "imagem_pasta": "https://animefire.plus/img/animes/fullmetal-alchemist-brotherhood/",
      "secao": "dublados",
      "pagina": 25,
      "total_episodios": 64,
      "link_video": "https://animefire.plus/video/fullmetal-alchemist-brotherhood-dublado"
    },
    {
      "id": 1055,
      "nome": "Fushigi Yuugi",
      "link": "https://animefire.plus/animes/fushigi-yuugi-todos-os-episodios",
      "texto_original": "Fushigi Yuugi",
      "rating": 7.74,
      "classificacao_etaria": "A14",
      "imagem_original": "https://animefire.plus/img/animes/fushigi-yuugi.webp",
      "imagem_pasta": "https://animefire.plus/img/animes/fushigi-yuugi/",
      "secao": "legendados",
      "pagina": 150,
      "total_episodios": 52,
      "link_video": "https://animefire.plus/video/fushigi-yuugi"
    },
    {
      "id": 1182,
      "nome": "Gintama'",
      "link": "https://animefire.plus/animes/gintama-season-2-todos-os-episodios",
      "texto_original": "Gintama'",
      "rating": 9.09,
      "classificacao_etaria": "A14",
      "imagem_original": "https://animefire.plus/img/animes/gintama-season-2.webp",
      "imagem_pasta": "https://animefire.plus/img/animes/gintama-season-2/",
      "secao": "legendados",
      "pagina": 53,
      "total_episodios": 51,
      "link_video": "https://animefire.plus/video/gintama-season-2"
    },
    {
      "id": 1185,
      "nome": "Gintama°",
      "link": "https://animefire.plus/animes/gintama-season-4-todos-os-episodios",
      "texto_original": "Gintama°",
      "rating": 9.11,
      "classificacao_etaria": "A14",
      "imagem_original": "https://animefire.plus/img/animes/gintama-season-4.webp",
      "imagem_pasta": "https://animefire.plus/img/animes/gintama-season-4/",
      "secao": "legendados",
      "pagina": 53,
      "total_episodios": 51,
      "link_video": "https://animefire.plus/video/gintama-season-4"
    },
    {
      "id": 1197,
      "nome": "Glass no Kamen (2005)",
      "link": "https://animefire.plus/animes/glass-no-kamen-2005-todos-os-episodios",
      "texto_original": "Glass no Kamen (2005)",
      "rating": 8.12,
      "classificacao_etaria": null,
      "imagem_original": "https://animefire.plus/img/animes/glass-no-kamen-2005.webp",
      "imagem_pasta": "https://animefire.plus/img/animes/glass-no-kamen-2005/",
      "secao": "legendados",
      "pagina": 66,
      "total_episodios": 51,
      "link_video": "https://animefire.plus/video/glass-no-kamen-2005"
    },
    {
      "id": 1213,
      "nome": "Gokujou!! Mecha Mote Iinchou Second Collection",
      "link": "https://animefire.plus/animes/gokujou-mecha-mote-iinchou-second-collection-todos-os-episodios",
      "texto_original": "Gokujou!! Mecha Mote Iinchou Second Collection",
      "rating": 6.51,
      "classificacao_etaria": "A10",
      "imagem_original": "https://animefire.plus/img/animes/gokujou-mecha-mote-iinchou-second-collection.webp",
      "imagem_pasta": "https://animefire.plus/img/animes/gokujou-mecha-mote-iinchou-second-collection/",
      "secao": "legendados",
      "pagina": 113,
      "total_episodios": 51,
      "link_video": "https://animefire.plus/video/gokujou-mecha-mote-iinchou-second-collection"
    },
    {
      "id": 1347,
      "nome": "Hana yori Dango",
      "link": "https://animefire.plus/animes/hana-yori-dango-todos-os-episodios",
      "texto_original": "Hana yori Dango",
      "rating": 7.75,
      "classificacao_etaria": "A14",
      "imagem_original": "https://animefire.plus/img/animes/hana-yori-dango.webp",
      "imagem_pasta": "https://animefire.plus/img/animes/hana-yori-dango/",
      "secao": "legendados",
      "pagina": 71,
      "total_episodios": 51,
      "link_video": "https://animefire.plus/video/hana-yori-dango"
    },
    {
      "id": 1550,
      "nome": "Hunter x Hunter (Dublado)",
      "link": "https://animefire.plus/animes/hunter-x-hunter-dublado-todos-os-episodios",
      "texto_original": "Hunter x Hunter (Dublado)",
      "rating": 8.43,
      "classificacao_etaria": "A14",
      "imagem_original": "https://animefire.plus/img/animes/hunter-x-hunter.webp",
      "imagem_pasta": "https://animefire.plus/img/animes/hunter-x-hunter/",
      "secao": "dublados",
      "pagina": 22,
      "total_episodios": 92,
      "link_video": "https://animefire.plus/video/hunter-x-hunter-dublado"
    },
    {
      "id": 1588,
      "nome": "Idol Time PriPara",
      "link": "https://animefire.plus/animes/idol-time-pripara-todos-os-episodios",
      "texto_original": "Idol Time PriPara",
      "rating": 7.3,
      "classificacao_etaria": "A10",
      "imagem_original": "https://animefire.plus/img/animes/idol-time-pripara.webp",
      "imagem_pasta": "https://animefire.plus/img/animes/idol-time-pripara/",
      "secao": "legendados",
      "pagina": 149,
      "total_episodios": 51,
      "link_video": "https://animefire.plus/video/idol-time-pripara"
    },
    {
      "id": 1615,
      "nome": "Inazuma Eleven Go: Chrono Stone",
      "link": "https://animefire.plus/animes/inazuma-eleven-go-chrono-stone-todos-os-episodios",
      "texto_original": "Inazuma Eleven Go: Chrono Stone",
      "rating": 7.22,
      "classificacao_etaria": null,
      "imagem_original": "https://animefire.plus/img/animes/inazuma-eleven-go-chrono-stone.webp",
      "imagem_pasta": "https://animefire.plus/img/animes/inazuma-eleven-go-chrono-stone/",
      "secao": "legendados",
      "pagina": 60,
      "total_episodios": 51,
      "link_video": "https://animefire.plus/video/inazuma-eleven-go-chrono-stone"
    },
    {
      "id": 1955,
      "nome": "Kiba",
      "link": "https://animefire.plus/animes/kiba-todos-os-episodios",
      "texto_original": "Kiba",
      "rating": 7.38,
      "classificacao_etaria": "A14",
      "imagem_original": "https://animefire.plus/img/animes/kiba.webp",
      "imagem_pasta": "https://animefire.plus/img/animes/kiba/",
      "secao": "legendados",
      "pagina": 168,
      "total_episodios": 51,
      "link_video": "https://animefire.plus/video/kiba"
    },
    {
      "id": 2043,
      "nome": "Kodai Ouja Kyouryuu King (Dublado)",
      "link": "https://animefire.plus/animes/kodai-ouja-kyouryuu-king-dublado-todos-os-episodios",
      "texto_original": "Kodai Ouja Kyouryuu King (Dublado)",
      "rating": 6.13,
      "classificacao_etaria": "A10",
      "imagem_original": "https://animefire.plus/img/animes/kodai-ouja-kyouryuu-king.webp",
      "imagem_pasta": "https://animefire.plus/img/animes/kodai-ouja-kyouryuu-king/",
      "secao": "dublados",
      "pagina": 28,
      "total_episodios": 57,
      "link_video": "https://animefire.plus/video/kodai-ouja-kyouryuu-king-dublado"
    },
    {
      "id": 2155,
      "nome": "Kuromajo-san ga Tooru!!",
      "link": "https://animefire.plus/animes/kuromajo-san-ga-tooru-todos-os-episodios",
      "texto_original": "Kuromajo-san ga Tooru!!",
      "rating": 6.49,
      "classificacao_etaria": "A10",
      "imagem_original": "https://animefire.plus/img/animes/kuromajo-san-ga-tooru.webp",
      "imagem_pasta": "https://animefire.plus/img/animes/kuromajo-san-ga-tooru/",
      "secao": "legendados",
      "pagina": 78,
      "total_episodios": 60,
      "link_video": "https://animefire.plus/video/kuromajo-san-ga-tooru"
    },
    {
      "id": 2177,
      "nome": "Kyou kara Maou!",
      "link": "https://animefire.plus/animes/kyou-kara-maou-todos-os-episodios",
      "texto_original": "Kyou kara Maou!",
      "rating": 7.81,
      "classificacao_etaria": "A14",
      "imagem_original": "https://animefire.plus/img/animes/kyou-kara-maou.webp",
      "imagem_pasta": "https://animefire.plus/img/animes/kyou-kara-maou/",
      "secao": "legendados",
      "pagina": 135,
      "total_episodios": 76,
      "link_video": "https://animefire.plus/video/kyou-kara-maou"
    },
    {
      "id": 2200,
      "nome": "Lady Jewelpet",
      "link": "https://animefire.plus/animes/lady-jewelpet-todos-os-episodios",
      "texto_original": "Lady Jewelpet",
      "rating": 7.4,
      "classificacao_etaria": "A10",
      "imagem_original": "https://animefire.plus/img/animes/lady-jewelpet.webp",
      "imagem_pasta": "https://animefire.plus/img/animes/lady-jewelpet/",
      "secao": "legendados",
      "pagina": 56,
      "total_episodios": 52,
      "link_video": "https://animefire.plus/video/lady-jewelpet"
    },
    {
      "id": 2427,
      "nome": "Marmalade Boy",
      "link": "https://animefire.plus/animes/marmalade-boy-todos-os-episodios",
      "texto_original": "Marmalade Boy",
      "rating": 7.6,
      "classificacao_etaria": "A14",
      "imagem_original": "https://animefire.plus/img/animes/marmalade-boy.webp",
      "imagem_pasta": "https://animefire.plus/img/animes/marmalade-boy/",
      "secao": "legendados",
      "pagina": 121,
      "total_episodios": 65,
      "link_video": "https://animefire.plus/video/marmalade-boy"
    },
    {
      "id": 2463,
      "nome": "Medarot (Dublado)",
      "link": "https://animefire.plus/animes/medarot-dublado-todos-os-episodios",
      "texto_original": "Medarot (Dublado)",
      "rating": 7.12,
      "classificacao_etaria": "A10",
      "imagem_original": "https://animefire.plus/img/animes/medarot.webp",
      "imagem_pasta": "https://animefire.plus/img/animes/medarot/",
      "secao": "dublados",
      "pagina": 26,
      "total_episodios": 52,
      "link_video": "https://animefire.plus/video/medarot-dublado"
    },
    {
      "id": 2482,
      "nome": "Metal Fight Beyblade (Dublado)",
      "link": "https://animefire.plus/animes/metal-fight-beyblade-dublado-todos-os-episodios",
      "texto_original": "Metal Fight Beyblade (Dublado)",
      "rating": 6.71,
      "classificacao_etaria": "A10",
      "imagem_original": "https://animefire.plus/img/animes/metal-fight-beyblade.webp",
      "imagem_pasta": "https://animefire.plus/img/animes/metal-fight-beyblade/",
      "secao": "dublados",
      "pagina": 26,
      "total_episodios": 51,
      "link_video": "https://animefire.plus/video/metal-fight-beyblade-dublado"
    },
    {
      "id": 2560,
      "nome": "Mobile Suit Victory Gundam",
      "link": "https://animefire.plus/animes/mobile-suit-victory-gundam-todos-os-episodios",
      "texto_original": "Mobile Suit Victory Gundam",
      "rating": 6.76,
      "classificacao_etaria": "A14",
      "imagem_original": "https://animefire.plus/img/animes/mobile-suit-victory-gundam.webp",
      "imagem_pasta": "https://animefire.plus/img/animes/mobile-suit-victory-gundam/",
      "secao": "legendados",
      "pagina": 55,
      "total_episodios": 51,
      "link_video": "https://animefire.plus/video/mobile-suit-victory-gundam"
    },
    {
      "id": 2579,
      "nome": "Monster",
      "link": "https://animefire.plus/animes/monster-todos-os-episodios",
      "texto_original": "Monster",
      "rating": 8.72,
      "classificacao_etaria": "A18",
      "imagem_original": "https://animefire.plus/img/animes/monster.webp",
      "imagem_pasta": "https://animefire.plus/img/animes/monster/",
      "secao": "legendados",
      "pagina": 59,
      "total_episodios": 74,
      "link_video": "https://animefire.plus/video/monster"
    }
  ],
  "pagination": {
    "current_page": 2,
    "per_page": 20,
    "total_items": 65,
    "total_pages": 4,
    "has_next": true,
    "has_prev": true
  }
}
