{
  "message": "Animes com 51 a 100 episódios",
  "episode_range": {
    "min": 51,
    "max": 100
  },
  "data": [
    {
      "id": 2586,
      "nome": "Monster Strike",
      "link": "https://animefire.plus/animes/monster-strike-todos-os-episodios",
      "texto_original": "Monster Strike",
      "rating": 6.52,
      "classificacao_etaria": "A14",
      "imagem_original": "https://animefire.plus/img/animes/monster-strike.webp",
      "imagem_pasta": "https://animefire.plus/img/animes/monster-strike/",
      "secao": "legendados",
      "pagina": 64,
      "total_episodios": 51,
      "link_video": "https://animefire.plus/video/monster-strike"
    },
    {
      "id": 2609,
      "nome": "Mujin Wakusei Survive (Dublado)",
      "link": "https://animefire.plus/animes/mujin-wakusei-survive-dublado-todos-os-episodios",
      "texto_original": "Mujin Wakusei Survive (Dublado)",
      "rating": 7.74,
      "classificacao_etaria": null,
      "imagem_original": "https://animefire.plus/img/animes/mujin-wakusei-survive.webp",
      "imagem_pasta": "https://animefire.plus/img/animes/mujin-wakusei-survive/",
      "secao": "dublados,legendados",
      "pagina": 27,
      "total_episodios": 52,
      "link_video": "https://animefire.plus/video/mujin-wakusei-survive-dublado"
    },
    {
      "id": 2679,
      "nome": "Naruto SD: Rock Lee no Seishun Full-Power Ninden",
      "link": "https://animefire.plus/animes/naruto-sd-rock-lee-no-seishun-full-power-ninden-todos-os-episodios",
      "texto_original": "Naruto SD: Rock Lee no Seishun Full-Power Ninden",
      "rating": 7.15,
      "classificacao_etaria": "A14",
      "imagem_original": "https://animefire.plus/img/animes/naruto-sd-rock-lee-no-seishun-full-power-ninden.webp",
      "imagem_pasta": "https://animefire.plus/img/animes/naruto-sd-rock-lee-no-seishun-full-power-ninden/",
      "secao": "legendados",
      "pagina": 50,
      "total_episodios": 51,
      "link_video": "https://animefire.plus/video/naruto-sd-rock-lee-no-seishun-full-power-ninden"
    },
    {
      "id": 2761,
      "nome": "Nobunaga No Shinobi",
      "link": "https://animefire.plus/animes/nobunaga-no-shinobi-todos-os-episodios",
      "texto_original": "Nobunaga No Shinobi",
      "rating": 7.09,
      "classificacao_etaria": "A14",
      "imagem_original": "https://animefire.plus/img/animes/nobunaga-no-shinobi.webp",
      "imagem_pasta": "https://animefire.plus/img/animes/nobunaga-no-shinobi/",
      "secao": "legendados",
      "pagina": 59,
      "total_episodios": 59,
      "link_video": "https://animefire.plus/video/nobunaga-no-shinobi"
    },
    {
      "id": 2996,
      "nome": "Pokemon (2019) (Dublado)",
      "link": "https://animefire.plus/animes/pokemon-2019-dublado-todos-os-episodios",
      "texto_original": "Pokemon (2019) (Dublado)",
      "rating": 7.21,
      "classificacao_etaria": "A10",
      "imagem_original": "https://animefire.plus/img/animes/pokemon-2019.webp",
      "imagem_pasta": "https://animefire.plus/img/animes/pokemon-2019/",
      "secao": "dublados,legendados",
      "pagina": 17,
      "total_episodios": 76,
      "link_video": "https://animefire.plus/video/pokemon-2019-dublado"
    },
    {
      "id": 3006,
      "nome": "Pokemon XY (Dublado)",
      "link": "https://animefire.plus/animes/pokemon-xy-dublado-todos-os-episodios",
      "texto_original": "Pokemon XY (Dublado)",
      "rating": 7.4,
      "classificacao_etaria": "A10",
      "imagem_original": "https://animefire.plus/img/animes/pokemon-xy.webp",
      "imagem_pasta": "https://animefire.plus/img/animes/pokemon-xy/",
      "secao": "dublados,legendados",
      "pagina": 27,
      "total_episodios": 100,
      "link_video": "https://animefire.plus/video/pokemon-xy-dublado"
    },
    {
      "id": 3020,
      "nome": "Poyopoyo Kansatsu Nikki",
      "link": "https://animefire.plus/animes/poyopoyo-kansatsu-nikki-todos-os-episodios",
      "texto_original": "Poyopoyo Kansatsu Nikki",
      "rating": 7.71,
      "classificacao_etaria": "A10",
      "imagem_original": "https://animefire.plus/img/animes/poyopoyo-kansatsu-nikki.webp",
      "imagem_pasta": "https://animefire.plus/img/animes/poyopoyo-kansatsu-nikki/",
      "secao": "legendados",
      "pagina": 74,
      "total_episodios": 52,
      "link_video": "https://animefire.plus/video/poyopoyo-kansatsu-nikki"
    },
    {
      "id": 3168,
      "nome": "Rurouni Kenshin: Meiji Kenkaku Romantan (Dublado)",
      "link": "https://animefire.plus/animes/rurouni-kenshin-meiji-kenkaku-romantan-dublado-todos-os-episodios",
      "texto_original": "Rurouni Kenshin: Meiji Kenkaku Romantan (Dublado)",
      "rating": 8.32,
      "classificacao_etaria": "A14",
      "imagem_original": "https://animefire.plus/img/animes/rurouni-kenshin-meiji-kenkaku-romantan.webp",
      "imagem_pasta": "https://animefire.plus/img/animes/rurouni-kenshin-meiji-kenkaku-romantan/",
      "secao": "dublados",
      "pagina": 20,
      "total_episodios": 95,
      "link_video": "https://animefire.plus/video/rurouni-kenshin-meiji-kenkaku-romantan-dublado"
    },
    {
      "id": 3174,
      "nome": "Ryuusei no Rockman",
      "link": "https://animefire.plus/animes/ryuusei-no-rockman-todos-os-episodios",
      "texto_original": "Ryuusei no Rockman",
      "rating": 7.21,
      "classificacao_etaria": "A10",
      "imagem_original": "https://animefire.plus/img/animes/ryuusei-no-rockman.webp",
      "imagem_pasta": "https://animefire.plus/img/animes/ryuusei-no-rockman/",
      "secao": "legendados",
      "pagina": 161,
      "total_episodios": 54,
      "link_video": "https://animefire.plus/video/ryuusei-no-rockman"
    },
    {
      "id": 3206,
      "nome": "Saint Seiya Omega (Dublado)",
      "link": "https://animefire.plus/animes/saint-seiya-omega-dublado-todos-os-episodios",
      "texto_original": "Saint Seiya Omega (Dublado)",
      "rating": 6.3,
      "classificacao_etaria": "A14",
      "imagem_original": "https://animefire.plus/img/animes/saint-seiya-omega.webp",
      "imagem_pasta": "https://animefire.plus/img/animes/saint-seiya-omega/",
      "secao": "dublados",
      "pagina": 20,
      "total_episodios": 97,
      "link_video": "https://animefire.plus/video/saint-seiya-omega-dublado"
    },
    {
      "id": 3375,
      "nome": "Shadowverse Flame",
      "link": "https://animefire.plus/animes/shadowverse-flame-todos-os-episodios",
      "texto_original": "Shadowverse Flame",
      "rating": 6.73,
      "classificacao_etaria": "A14",
      "imagem_original": "https://animefire.plus/img/animes/shadowverse-flame.webp",
      "imagem_pasta": "https://animefire.plus/img/animes/shadowverse-flame/",
      "secao": "legendados,lancamentos",
      "pagina": 34,
      "total_episodios": 98,
      "link_video": "https://animefire.plus/video/shadowverse-flame"
    },
    {
      "id": 3383,
      "nome": "Shaman King (2021) (Dublado)",
      "link": "https://animefire.plus/animes/shaman-king-2021-dublado-todos-os-episodios",
      "texto_original": "Shaman King (2021) (Dublado)",
      "rating": 6.9,
      "classificacao_etaria": "A14",
      "imagem_original": "https://animefire.plus/img/animes/shaman-king-2021.webp",
      "imagem_pasta": "https://animefire.plus/img/animes/shaman-king-2021/",
      "secao": "dublados,legendados",
      "pagina": 16,
      "total_episodios": 52,
      "link_video": "https://animefire.plus/video/shaman-king-2021-dublado"
    },
    {
      "id": 3384,
      "nome": "Shaman King (Dublado)",
      "link": "https://animefire.plus/animes/shaman-king-dublado-todos-os-episodios",
      "texto_original": "Shaman King (Dublado)",
      "rating": 7.79,
      "classificacao_etaria": "A14",
      "imagem_original": "https://animefire.plus/img/animes/shaman-king.webp",
      "imagem_pasta": "https://animefire.plus/img/animes/shaman-king/",
      "secao": "dublados,legendados",
      "pagina": 22,
      "total_episodios": 64,
      "link_video": "https://animefire.plus/video/shaman-king-dublado"
    },
    {
      "id": 3519,
      "nome": "Shugo Chara!! Doki",
      "link": "https://animefire.plus/animes/shugo-chara-doki-todos-os-episodios",
      "texto_original": "Shugo Chara!! Doki",
      "rating": 7.47,
      "classificacao_etaria": "A10",
      "imagem_original": "https://animefire.plus/img/animes/shugo-chara-doki.webp",
      "imagem_pasta": "https://animefire.plus/img/animes/shugo-chara-doki/",
      "secao": "legendados",
      "pagina": 63,
      "total_episodios": 51,
      "link_video": "https://animefire.plus/video/shugo-chara-doki"
    },
    {
      "id": 3542,
      "nome": "SKET Dance",
      "link": "https://animefire.plus/animes/sket-dance-todos-os-episodios",
      "texto_original": "SKET Dance",
      "rating": 8.28,
      "classificacao_etaria": "A14",
      "imagem_original": "https://animefire.plus/img/animes/sket-dance.webp",
      "imagem_pasta": "https://animefire.plus/img/animes/sket-dance/",
      "secao": "legendados",
      "pagina": 75,
      "total_episodios": 77,
      "link_video": "https://animefire.plus/video/sket-dance"
    },
    {
      "id": 3592,
      "nome": "Soul Eater (Dublado)",
      "link": "https://animefire.plus/animes/soul-eater-dublado-todos-os-episodios",
      "texto_original": "Soul Eater (Dublado)",
      "rating": 7.85,
      "classificacao_etaria": "A14",
      "imagem_original": "https://animefire.plus/img/animes/soul-eater.webp",
      "imagem_pasta": "https://animefire.plus/img/animes/soul-eater/",
      "secao": "dublados,legendados",
      "pagina": 13,
      "total_episodios": 51,
      "link_video": "https://animefire.plus/video/soul-eater-dublado"
    },
    {
      "id": 3663,
      "nome": "Sugar Sugar Rune",
      "link": "https://animefire.plus/animes/sugar-sugar-rune-todos-os-episodios",
      "texto_original": "Sugar Sugar Rune",
      "rating": 7.45,
      "classificacao_etaria": "A10",
      "imagem_original": "https://animefire.plus/img/animes/sugar-sugar-rune.webp",
      "imagem_pasta": "https://animefire.plus/img/animes/sugar-sugar-rune/",
      "secao": "legendados",
      "pagina": 55,
      "total_episodios": 51,
      "link_video": "https://animefire.plus/video/sugar-sugar-rune"
    },
    {
      "id": 3891,
      "nome": "Tokyo Mew Mew",
      "link": "https://animefire.plus/animes/tokyo-mew-mew-todos-os-episodios",
      "texto_original": "Tokyo Mew Mew",
      "rating": 6.99,
      "classificacao_etaria": "A14",
      "imagem_original": "https://animefire.plus/img/animes/tokyo-mew-mew.webp",
      "imagem_pasta": "https://animefire.plus/img/animes/tokyo-mew-mew/",
      "secao": "legendados",
      "pagina": 54,
      "total_episodios": 52,
      "link_video": "https://animefire.plus/video/tokyo-mew-mew"
    },
    {
      "id": 3942,
      "nome": "Tsubasa Chronicle",
      "link": "https://animefire.plus/animes/tsubasa-chronicle-todos-os-episodios",
      "texto_original": "Tsubasa Chronicle",
      "rating": 7.62,
      "classificacao_etaria": "A14",
      "imagem_original": "https://animefire.plus/img/animes/tsubasa-chronicle.webp",
      "imagem_pasta": "https://animefire.plus/img/animes/tsubasa-chronicle/",
      "secao": "legendados",
      "pagina": 162,
      "total_episodios": 52,
      "link_video": "https://animefire.plus/video/tsubasa-chronicle"
    },
    {
      "id": 3994,
      "nome": "Uchuu Kyoudai",
      "link": "https://animefire.plus/animes/uchuu-kyoudai-todos-os-episodios",
      "texto_original": "Uchuu Kyoudai",
      "rating": 8.53,
      "classificacao_etaria": "A14",
      "imagem_original": "https://animefire.plus/img/animes/uchuu-kyoudai.webp",
      "imagem_pasta": "https://animefire.plus/img/animes/uchuu-kyoudai/",
      "secao": "legendados",
      "pagina": 68,
      "total_episodios": 99,
      "link_video": "https://animefire.plus/video/uchuu-kyoudai"
    }
  ],
  "pagination": {
    "current_page": 3,
    "per_page": 20,
    "total_items": 65,
    "total_pages": 4,
    "has_next": true,
    "has_prev": true
  }
}
