{
  "message": "Animes com classificação etária: A10",
  "age_rating": "A10",
  "data": [
    {
      "id": 882,
      "nome": "Dragon Drive",
      "link": "https://animefire.plus/animes/dragon-drive-todos-os-episodios",
      "texto_original": "Dragon Drive",
      "rating": 6.81,
      "classificacao_etaria": "A10",
      "imagem_original": "https://animefire.plus/img/animes/dragon-drive.webp",
      "imagem_pasta": "https://animefire.plus/img/animes/dragon-drive/",
      "secao": "legendados",
      "pagina": 125,
      "total_episodios": 38,
      "link_video": "https://animefire.plus/video/dragon-drive"
    },
    {
      "id": 1018,
      "nome": "Forest Fairy Five",
      "link": "https://animefire.plus/animes/forest-fairy-five-todos-os-episodios",
      "texto_original": "Forest Fairy Five",
      "rating": 3.26,
      "classificacao_etaria": "A10",
      "imagem_original": "https://animefire.plus/img/animes/forest-fairy-five.webp",
      "imagem_pasta": "https://animefire.plus/img/animes/forest-fairy-five/",
      "secao": "legendados",
      "pagina": 113,
      "total_episodios": 4,
      "link_video": "https://animefire.plus/video/forest-fairy-five"
    },
    {
      "id": 1066,
      "nome": "Future Card Buddyfight",
      "link": "https://animefire.plus/animes/future-card-buddyfight-todos-os-episodios",
      "texto_original": "Future Card Buddyfight",
      "rating": 7.05,
      "classificacao_etaria": "A10",
      "imagem_original": "https://animefire.plus/img/animes/future-card-buddyfight.webp",
      "imagem_pasta": "https://animefire.plus/img/animes/future-card-buddyfight/",
      "secao": "legendados",
      "pagina": 152,
      "total_episodios": 2,
      "link_video": "https://animefire.plus/video/future-card-buddyfight"
    },
    {
      "id": 1079,
      "nome": "Gaist Crusher",
      "link": "https://animefire.plus/animes/gaist-crusher-todos-os-episodios",
      "texto_original": "Gaist Crusher",
      "rating": 6.01,
      "classificacao_etaria": "A10",
      "imagem_original": "https://animefire.plus/img/animes/gaist-crusher.webp",
      "imagem_pasta": "https://animefire.plus/img/animes/gaist-crusher/",
      "secao": "legendados",
      "pagina": 179,
      "total_episodios": 3,
      "link_video": "https://animefire.plus/video/gaist-crusher"
    },
    {
      "id": 1096,
      "nome": "Galaxy Angel Z",
      "link": "https://animefire.plus/animes/galaxy-angel-z-todos-os-episodios",
      "texto_original": "Galaxy Angel Z",
      "rating": 7.24,
      "classificacao_etaria": "A10",
      "imagem_original": "https://animefire.plus/img/animes/galaxy-angel-z.webp",
      "imagem_pasta": "https://animefire.plus/img/animes/galaxy-angel-z/",
      "secao": "legendados",
      "pagina": 151,
      "total_episodios": 9,
      "link_video": "https://animefire.plus/video/galaxy-angel-z"
    },
    {
      "id": 1120,
      "nome": "Gegege no Kitarou (2018)",
      "link": "https://animefire.plus/animes/gegege-no-kitarou-2018-todos-os-episodios",
      "texto_original": "Gegege no Kitarou (2018)",
      "rating": 6.77,
      "classificacao_etaria": "A10",
      "imagem_original": "https://animefire.plus/img/animes/gegege-no-kitarou-2018.webp",
      "imagem_pasta": "https://animefire.plus/img/animes/gegege-no-kitarou-2018/",
      "secao": "legendados",
      "pagina": 161,
      "total_episodios": 46,
      "link_video": "https://animefire.plus/video/gegege-no-kitarou-2018"
    },
    {
      "id": 1163,
      "nome": "Ginga e Kickoff!!",
      "link": "https://animefire.plus/animes/ginga-e-kickoff-todos-os-episodios",
      "texto_original": "Ginga e Kickoff!!",
      "rating": 7.33,
      "classificacao_etaria": "A10",
      "imagem_original": "https://animefire.plus/img/animes/ginga-e-kickoff.webp",
      "imagem_pasta": "https://animefire.plus/img/animes/ginga-e-kickoff/",
      "secao": "legendados",
      "pagina": 135,
      "total_episodios": 22,
      "link_video": "https://animefire.plus/video/ginga-e-kickoff"
    },
    {
      "id": 1213,
      "nome": "Gokujou!! Mecha Mote Iinchou Second Collection",
      "link": "https://animefire.plus/animes/gokujou-mecha-mote-iinchou-second-collection-todos-os-episodios",
      "texto_original": "Gokujou!! Mecha Mote Iinchou Second Collection",
      "rating": 6.51,
      "classificacao_etaria": "A10",
      "imagem_original": "https://animefire.plus/img/animes/gokujou-mecha-mote-iinchou-second-collection.webp",
      "imagem_pasta": "https://animefire.plus/img/animes/gokujou-mecha-mote-iinchou-second-collection/",
      "secao": "legendados",
      "pagina": 113,
      "total_episodios": 51,
      "link_video": "https://animefire.plus/video/gokujou-mecha-mote-iinchou-second-collection"
    },
    {
      "id": 1331,
      "nome": "Hakumei no Tsubasa",
      "link": "https://animefire.plus/animes/hakumei-no-tsubasa-todos-os-episodios",
      "texto_original": "Hakumei no Tsubasa",
      "rating": 7.61,
      "classificacao_etaria": "A10",
      "imagem_original": "https://animefire.plus/img/animes/hakumei-no-tsubasa.webp",
      "imagem_pasta": "https://animefire.plus/img/animes/hakumei-no-tsubasa/",
      "secao": "legendados,lancamentos",
      "pagina": 82,
      "total_episodios": 5,
      "link_video": "https://animefire.plus/video/hakumei-no-tsubasa"
    },
    {
      "id": 1374,
      "nome": "Happy Seven: The TV Manga",
      "link": "https://animefire.plus/animes/happy-seven-the-tv-manga-todos-os-episodios",
      "texto_original": "Happy Seven: The TV Manga",
      "rating": 6.39,
      "classificacao_etaria": "A10",
      "imagem_original": "https://animefire.plus/img/animes/happy-seven-the-tv-manga.webp",
      "imagem_pasta": "https://animefire.plus/img/animes/happy-seven-the-tv-manga/",
      "secao": "legendados",
      "pagina": 107,
      "total_episodios": 13,
      "link_video": "https://animefire.plus/video/happy-seven-the-tv-manga"
    },
    {
      "id": 1422,
      "nome": "Hero Bank",
      "link": "https://animefire.plus/animes/hero-bank-todos-os-episodios",
      "texto_original": "Hero Bank",
      "rating": 6.12,
      "classificacao_etaria": "A10",
      "imagem_original": "https://animefire.plus/img/animes/hero-bank.webp",
      "imagem_pasta": "https://animefire.plus/img/animes/hero-bank/",
      "secao": "legendados",
      "pagina": 158,
      "total_episodios": 17,
      "link_video": "https://animefire.plus/video/hero-bank"
    },
    {
      "id": 1451,
      "nome": "Higepiyo",
      "link": "https://animefire.plus/animes/higepiyo-todos-os-episodios",
      "texto_original": "Higepiyo",
      "rating": 7.13,
      "classificacao_etaria": "A10",
      "imagem_original": "https://animefire.plus/img/animes/higepiyo.webp",
      "imagem_pasta": "https://animefire.plus/img/animes/higepiyo/",
      "secao": "legendados",
      "pagina": 78,
      "total_episodios": 30,
      "link_video": "https://animefire.plus/video/higepiyo"
    },
    {
      "id": 1475,
      "nome": "Hikari no Densetsu",
      "link": "https://animefire.plus/animes/hikari-no-densetsu-todos-os-episodios",
      "texto_original": "Hikari no Densetsu",
      "rating": 6.68,
      "classificacao_etaria": "A10",
      "imagem_original": "https://animefire.plus/img/animes/hikari-no-densetsu.webp",
      "imagem_pasta": "https://animefire.plus/img/animes/hikari-no-densetsu/",
      "secao": "legendados",
      "pagina": 151,
      "total_episodios": 19,
      "link_video": "https://animefire.plus/video/hikari-no-densetsu"
    },
    {
      "id": 1486,
      "nome": "Himitsu no AiPri: Ring-hen",
      "link": "https://animefire.plus/animes/himitsu-no-aipri-ring-hen-todos-os-episodios",
      "texto_original": "Himitsu no AiPri: Ring-hen",
      "rating": null,
      "classificacao_etaria": "A10",
      "imagem_original": "https://animefire.plus/img/animes/himitsu-no-aipri-ring-hen.webp",
      "imagem_pasta": "https://animefire.plus/img/animes/himitsu-no-aipri-ring-hen/",
      "secao": "legendados,lancamentos",
      "pagina": 4,
      "total_episodios": 0,
      "link_video": "https://animefire.plus/video/himitsu-no-aipri-ring-hen"
    },
    {
      "id": 1494,
      "nome": "Hinata no Aoshigure",
      "link": "https://animefire.plus/animes/hinata-no-aoshigure-todos-os-episodios",
      "texto_original": "Hinata no Aoshigure",
      "rating": 7.04,
      "classificacao_etaria": "A10",
      "imagem_original": "https://animefire.plus/img/animes/hinata-no-aoshigure.webp",
      "imagem_pasta": "https://animefire.plus/img/animes/hinata-no-aoshigure/",
      "secao": "legendados",
      "pagina": 100,
      "total_episodios": 1,
      "link_video": "https://animefire.plus/video/hinata-no-aoshigure"
    },
    {
      "id": 1496,
      "nome": "Hipira-kun",
      "link": "https://animefire.plus/animes/hipira-kun-todos-os-episodios",
      "texto_original": "Hipira-kun",
      "rating": 6.18,
      "classificacao_etaria": "A10",
      "imagem_original": "https://animefire.plus/img/animes/hipira-kun.webp",
      "imagem_pasta": "https://animefire.plus/img/animes/hipira-kun/",
      "secao": "legendados",
      "pagina": 141,
      "total_episodios": 10,
      "link_video": "https://animefire.plus/video/hipira-kun"
    },
    {
      "id": 1588,
      "nome": "Idol Time PriPara",
      "link": "https://animefire.plus/animes/idol-time-pripara-todos-os-episodios",
      "texto_original": "Idol Time PriPara",
      "rating": 7.3,
      "classificacao_etaria": "A10",
      "imagem_original": "https://animefire.plus/img/animes/idol-time-pripara.webp",
      "imagem_pasta": "https://animefire.plus/img/animes/idol-time-pripara/",
      "secao": "legendados",
      "pagina": 149,
      "total_episodios": 51,
      "link_video": "https://animefire.plus/video/idol-time-pripara"
    },
    {
      "id": 1689,
      "nome": "Itoshi no Muco",
      "link": "https://animefire.plus/animes/itoshi-no-muco-todos-os-episodios",
      "texto_original": "Itoshi no Muco",
      "rating": 6.83,
      "classificacao_etaria": "A10",
      "imagem_original": "https://animefire.plus/img/animes/itoshi-no-muco.webp",
      "imagem_pasta": "https://animefire.plus/img/animes/itoshi-no-muco/",
      "secao": "legendados",
      "pagina": 174,
      "total_episodios": 25,
      "link_video": "https://animefire.plus/video/itoshi-no-muco"
    },
    {
      "id": 1805,
      "nome": "Kaidan Restaurant",
      "link": "https://animefire.plus/animes/kaidan-restaurant-todos-os-episodios",
      "texto_original": "Kaidan Restaurant",
      "rating": 7.33,
      "classificacao_etaria": "A10",
      "imagem_original": "https://animefire.plus/img/animes/kaidan-restaurant.webp",
      "imagem_pasta": "https://animefire.plus/img/animes/kaidan-restaurant/",
      "secao": "legendados",
      "pagina": 134,
      "total_episodios": 19,
      "link_video": "https://animefire.plus/video/kaidan-restaurant"
    },
    {
      "id": 1830,
      "nome": "Kaleido Star: Aratanaru Tsubasa - Extra Stage (Dublado)",
      "link": "https://animefire.plus/animes/kaleido-star-aratanaru-tsubasa---extra-stage-dublado-todos-os-episodios",
      "texto_original": "Kaleido Star: Aratanaru Tsubasa - Extra Stage (Dublado)",
      "rating": 7.55,
      "classificacao_etaria": "A10",
      "imagem_original": "https://animefire.plus/img/animes/kaleido-star-aratanaru-tsubasa---extra-stage.webp",
      "imagem_pasta": "https://animefire.plus/img/animes/kaleido-star-aratanaru-tsubasa---extra-stage/",
      "secao": "dublados",
      "pagina": 23,
      "total_episodios": 1,
      "link_video": "https://animefire.plus/video/kaleido-star-aratanaru-tsubasa---extra-stage-dublado"
    }
  ],
  "pagination": {
    "current_page": 3,
    "per_page": 20,
    "total_items": 119,
    "total_pages": 6,
    "has_next": true,
    "has_prev": true
  }
}
