{
  "message": "Animes com classificação etária: A10",
  "age_rating": "A10",
  "data": [
    {
      "id": 1832,
      "nome": "Kaleido Star: Legend of Phoenix - Layla Hamilton Monogatari",
      "link": "https://animefire.plus/animes/kaleido-star-legend-of-phoenix---layla-hamilton-monogatari-todos-os-episodios",
      "texto_original": "Kaleido Star: Legend of Phoenix - Layla Hamilton Monogatari",
      "rating": 7.91,
      "classificacao_etaria": "A10",
      "imagem_original": "https://animefire.plus/img/animes/kaleido-star-legend-of-phoenix---layla-hamilton-monogatari.webp",
      "imagem_pasta": "https://animefire.plus/img/animes/kaleido-star-legend-of-phoenix---layla-hamilton-monogatari/",
      "secao": "legendados",
      "pagina": 79,
      "total_episodios": 0,
      "link_video": "https://animefire.plus/video/kaleido-star-legend-of-phoenix---layla-hamilton-monogatari"
    },
    {
      "id": 1858,
      "nome": "Kamisama Minarai: Himitsu no Cocotama",
      "link": "https://animefire.plus/animes/kamisama-minarai-himitsu-no-cocotama-todos-os-episodios",
      "texto_original": "Kamisama Minarai: Himitsu no Cocotama",
      "rating": 6.24,
      "classificacao_etaria": "A10",
      "imagem_original": "https://animefire.plus/img/animes/kamisama-minarai-himitsu-no-cocotama.webp",
      "imagem_pasta": "https://animefire.plus/img/animes/kamisama-minarai-himitsu-no-cocotama/",
      "secao": "legendados",
      "pagina": 133,
      "total_episodios": 1,
      "link_video": "https://animefire.plus/video/kamisama-minarai-himitsu-no-cocotama"
    },
    {
      "id": 1935,
      "nome": "Kemono Friends",
      "link": "https://animefire.plus/animes/kemono-friends-todos-os-episodios",
      "texto_original": "Kemono Friends",
      "rating": 7.61,
      "classificacao_etaria": "A10",
      "imagem_original": "https://animefire.plus/img/animes/kemono-friends.webp",
      "imagem_pasta": "https://animefire.plus/img/animes/kemono-friends/",
      "secao": "legendados",
      "pagina": 63,
      "total_episodios": 12,
      "link_video": "https://animefire.plus/video/kemono-friends"
    },
    {
      "id": 2015,
      "nome": "Kiratto Pri☆chan",
      "link": "https://animefire.plus/animes/kiratto-pri-chan-todos-os-episodios",
      "texto_original": "Kiratto Pri☆chan",
      "rating": 6.87,
      "classificacao_etaria": "A10",
      "imagem_original": "https://animefire.plus/img/animes/kiratto-pri-chan.webp",
      "imagem_pasta": "https://animefire.plus/img/animes/kiratto-pri-chan/",
      "secao": "legendados",
      "pagina": 124,
      "total_episodios": 10,
      "link_video": "https://animefire.plus/video/kiratto-pri-chan"
    },
    {
      "id": 2043,
      "nome": "Kodai Ouja Kyouryuu King (Dublado)",
      "link": "https://animefire.plus/animes/kodai-ouja-kyouryuu-king-dublado-todos-os-episodios",
      "texto_original": "Kodai Ouja Kyouryuu King (Dublado)",
      "rating": 6.13,
      "classificacao_etaria": "A10",
      "imagem_original": "https://animefire.plus/img/animes/kodai-ouja-kyouryuu-king.webp",
      "imagem_pasta": "https://animefire.plus/img/animes/kodai-ouja-kyouryuu-king/",
      "secao": "dublados",
      "pagina": 28,
      "total_episodios": 57,
      "link_video": "https://animefire.plus/video/kodai-ouja-kyouryuu-king-dublado"
    },
    {
      "id": 2068,
      "nome": "Kokoro Toshokan",
      "link": "https://animefire.plus/animes/kokoro-toshokan-todos-os-episodios",
      "texto_original": "Kokoro Toshokan",
      "rating": 6.53,
      "classificacao_etaria": "A10",
      "imagem_original": "https://animefire.plus/img/animes/kokoro-toshokan.webp",
      "imagem_pasta": "https://animefire.plus/img/animes/kokoro-toshokan/",
      "secao": "legendados",
      "pagina": 122,
      "total_episodios": 13,
      "link_video": "https://animefire.plus/video/kokoro-toshokan"
    },
    {
      "id": 2155,
      "nome": "Kuromajo-san ga Tooru!!",
      "link": "https://animefire.plus/animes/kuromajo-san-ga-tooru-todos-os-episodios",
      "texto_original": "Kuromajo-san ga Tooru!!",
      "rating": 6.49,
      "classificacao_etaria": "A10",
      "imagem_original": "https://animefire.plus/img/animes/kuromajo-san-ga-tooru.webp",
      "imagem_pasta": "https://animefire.plus/img/animes/kuromajo-san-ga-tooru/",
      "secao": "legendados",
      "pagina": 78,
      "total_episodios": 60,
      "link_video": "https://animefire.plus/video/kuromajo-san-ga-tooru"
    },
    {
      "id": 2200,
      "nome": "Lady Jewelpet",
      "link": "https://animefire.plus/animes/lady-jewelpet-todos-os-episodios",
      "texto_original": "Lady Jewelpet",
      "rating": 7.4,
      "classificacao_etaria": "A10",
      "imagem_original": "https://animefire.plus/img/animes/lady-jewelpet.webp",
      "imagem_pasta": "https://animefire.plus/img/animes/lady-jewelpet/",
      "secao": "legendados",
      "pagina": 56,
      "total_episodios": 52,
      "link_video": "https://animefire.plus/video/lady-jewelpet"
    },
    {
      "id": 2208,
      "nome": "Layton Mystery Tanteisha: Katri no Nazotoki File",
      "link": "https://animefire.plus/animes/layton-mystery-tanteisha-katri-no-nazotoki-file-todos-os-episodios",
      "texto_original": "Layton Mystery Tanteisha: Katri no Nazotoki File",
      "rating": 7.33,
      "classificacao_etaria": "A10",
      "imagem_original": "https://animefire.plus/img/animes/layton-mystery-tanteisha-katri-no-nazotoki-file.webp",
      "imagem_pasta": "https://animefire.plus/img/animes/layton-mystery-tanteisha-katri-no-nazotoki-file/",
      "secao": "legendados",
      "pagina": 162,
      "total_episodios": 50,
      "link_video": "https://animefire.plus/video/layton-mystery-tanteisha-katri-no-nazotoki-file"
    },
    {
      "id": 2213,
      "nome": "Lemon Angel Project",
      "link": "https://animefire.plus/animes/lemon-angel-project-todos-os-episodios",
      "texto_original": "Lemon Angel Project",
      "rating": 6.71,
      "classificacao_etaria": "A10",
      "imagem_original": "https://animefire.plus/img/animes/lemon-angel-project.webp",
      "imagem_pasta": "https://animefire.plus/img/animes/lemon-angel-project/",
      "secao": "legendados",
      "pagina": 169,
      "total_episodios": 13,
      "link_video": "https://animefire.plus/video/lemon-angel-project"
    },
    {
      "id": 2429,
      "nome": "Marvel Disk Wars: The Avengers",
      "link": "https://animefire.plus/animes/marvel-disk-wars-the-avengers-todos-os-episodios",
      "texto_original": "Marvel Disk Wars: The Avengers",
      "rating": 6.03,
      "classificacao_etaria": "A10",
      "imagem_original": "https://animefire.plus/img/animes/marvel-disk-wars-the-avengers.webp",
      "imagem_pasta": "https://animefire.plus/img/animes/marvel-disk-wars-the-avengers/",
      "secao": "legendados",
      "pagina": 135,
      "total_episodios": 9,
      "link_video": "https://animefire.plus/video/marvel-disk-wars-the-avengers"
    },
    {
      "id": 2463,
      "nome": "Medarot (Dublado)",
      "link": "https://animefire.plus/animes/medarot-dublado-todos-os-episodios",
      "texto_original": "Medarot (Dublado)",
      "rating": 7.12,
      "classificacao_etaria": "A10",
      "imagem_original": "https://animefire.plus/img/animes/medarot.webp",
      "imagem_pasta": "https://animefire.plus/img/animes/medarot/",
      "secao": "dublados",
      "pagina": 26,
      "total_episodios": 52,
      "link_video": "https://animefire.plus/video/medarot-dublado"
    },
    {
      "id": 2482,
      "nome": "Metal Fight Beyblade (Dublado)",
      "link": "https://animefire.plus/animes/metal-fight-beyblade-dublado-todos-os-episodios",
      "texto_original": "Metal Fight Beyblade (Dublado)",
      "rating": 6.71,
      "classificacao_etaria": "A10",
      "imagem_original": "https://animefire.plus/img/animes/metal-fight-beyblade.webp",
      "imagem_pasta": "https://animefire.plus/img/animes/metal-fight-beyblade/",
      "secao": "dublados",
      "pagina": 26,
      "total_episodios": 51,
      "link_video": "https://animefire.plus/video/metal-fight-beyblade-dublado"
    },
    {
      "id": 2525,
      "nome": "Mission-E",
      "link": "https://animefire.plus/animes/mission-e-todos-os-episodios",
      "texto_original": "Mission-E",
      "rating": 6.54,
      "classificacao_etaria": "A10",
      "imagem_original": "https://animefire.plus/img/animes/mission-e.webp",
      "imagem_pasta": "https://animefire.plus/img/animes/mission-e/",
      "secao": "legendados",
      "pagina": 118,
      "total_episodios": 12,
      "link_video": "https://animefire.plus/video/mission-e"
    },
    {
      "id": 2563,
      "nome": "Mokke",
      "link": "https://animefire.plus/animes/mokke-todos-os-episodios",
      "texto_original": "Mokke",
      "rating": 7.13,
      "classificacao_etaria": "A10",
      "imagem_original": "https://animefire.plus/img/animes/mokke.webp",
      "imagem_pasta": "https://animefire.plus/img/animes/mokke/",
      "secao": "legendados",
      "pagina": 139,
      "total_episodios": 24,
      "link_video": "https://animefire.plus/video/mokke"
    },
    {
      "id": 2615,
      "nome": "Musashino!",
      "link": "https://animefire.plus/animes/musashino-todos-os-episodios",
      "texto_original": "Musashino!",
      "rating": 4.65,
      "classificacao_etaria": "A10",
      "imagem_original": "https://animefire.plus/img/animes/musashino.webp",
      "imagem_pasta": "https://animefire.plus/img/animes/musashino/",
      "secao": "legendados",
      "pagina": 32,
      "total_episodios": 12,
      "link_video": "https://animefire.plus/video/musashino"
    },
    {
      "id": 2823,
      "nome": "Omishi Mahou Gekijou: Risky★Safety",
      "link": "https://animefire.plus/animes/omishi-mahou-gekijou-risky-safety-todos-os-episodios",
      "texto_original": "Omishi Mahou Gekijou: Risky★Safety",
      "rating": 6.76,
      "classificacao_etaria": "A10",
      "imagem_original": "https://animefire.plus/img/animes/omishi-mahou-gekijou-risky-safety.webp",
      "imagem_pasta": "https://animefire.plus/img/animes/omishi-mahou-gekijou-risky-safety/",
      "secao": "legendados",
      "pagina": 144,
      "total_episodios": 24,
      "link_video": "https://animefire.plus/video/omishi-mahou-gekijou-risky-safety"
    },
    {
      "id": 2836,
      "nome": "One Piece: Taose! Kaizoku Ganzack",
      "link": "https://animefire.plus/animes/one-piece-taose-kaizoku-ganzack-todos-os-episodios",
      "texto_original": "One Piece: Taose! Kaizoku Ganzack",
      "rating": 6.76,
      "classificacao_etaria": "A10",
      "imagem_original": "https://animefire.plus/img/animes/one-piece-taose-kaizoku-ganzack.webp",
      "imagem_pasta": "https://animefire.plus/img/animes/one-piece-taose-kaizoku-ganzack/",
      "secao": "legendados",
      "pagina": 55,
      "total_episodios": 1,
      "link_video": "https://animefire.plus/video/one-piece-taose-kaizoku-ganzack"
    },
    {
      "id": 2858,
      "nome": "Onipan!",
      "link": "https://animefire.plus/animes/onipan-todos-os-episodios",
      "texto_original": "Onipan!",
      "rating": 6.5,
      "classificacao_etaria": "A10",
      "imagem_original": "https://animefire.plus/img/animes/onipan.webp",
      "imagem_pasta": "https://animefire.plus/img/animes/onipan/",
      "secao": "legendados,lancamentos",
      "pagina": 33,
      "total_episodios": 6,
      "link_video": "https://animefire.plus/video/onipan"
    },
    {
      "id": 2996,
      "nome": "Pokemon (2019) (Dublado)",
      "link": "https://animefire.plus/animes/pokemon-2019-dublado-todos-os-episodios",
      "texto_original": "Pokemon (2019) (Dublado)",
      "rating": 7.21,
      "classificacao_etaria": "A10",
      "imagem_original": "https://animefire.plus/img/animes/pokemon-2019.webp",
      "imagem_pasta": "https://animefire.plus/img/animes/pokemon-2019/",
      "secao": "dublados,legendados",
      "pagina": 17,
      "total_episodios": 76,
      "link_video": "https://animefire.plus/video/pokemon-2019-dublado"
    }
  ],
  "pagination": {
    "current_page": 4,
    "per_page": 20,
    "total_items": 119,
    "total_pages": 6,
    "has_next": true,
    "has_prev": true
  }
}
