{
  "message": "Animes com classificação etária: A10",
  "age_rating": "A10",
  "data": [
    {
      "id": 3126,
      "nome": "Ring Ni Kakero 1",
      "link": "https://animefire.plus/animes/ring-ni-kakero-1-todos-os-episodios",
      "texto_original": "Ring Ni Kakero 1",
      "rating": 6.5,
      "classificacao_etaria": "A10",
      "imagem_original": "https://animefire.plus/img/animes/ring-ni-kakero-1.webp",
      "imagem_pasta": "https://animefire.plus/img/animes/ring-ni-kakero-1/",
      "secao": "legendados",
      "pagina": 101,
      "total_episodios": 0,
      "link_video": "https://animefire.plus/video/ring-ni-kakero-1"
    },
    {
      "id": 3144,
      "nome": "Rockman.EXE Axess",
      "link": "https://animefire.plus/animes/rockman-exe-axess-todos-os-episodios",
      "texto_original": "Rockman.EXE Axess",
      "rating": 7.23,
      "classificacao_etaria": "A10",
      "imagem_original": "https://animefire.plus/img/animes/rockman-exe-axess.webp",
      "imagem_pasta": "https://animefire.plus/img/animes/rockman-exe-axess/",
      "secao": "legendados",
      "pagina": 146,
      "total_episodios": 36,
      "link_video": "https://animefire.plus/video/rockman-exe-axess"
    },
    {
      "id": 3174,
      "nome": "Ryuusei no Rockman",
      "link": "https://animefire.plus/animes/ryuusei-no-rockman-todos-os-episodios",
      "texto_original": "Ryuusei no Rockman",
      "rating": 7.21,
      "classificacao_etaria": "A10",
      "imagem_original": "https://animefire.plus/img/animes/ryuusei-no-rockman.webp",
      "imagem_pasta": "https://animefire.plus/img/animes/ryuusei-no-rockman/",
      "secao": "legendados",
      "pagina": 161,
      "total_episodios": 54,
      "link_video": "https://animefire.plus/video/ryuusei-no-rockman"
    },
    {
      "id": 3250,
      "nome": "Sanjougattai Transformers Go!",
      "link": "https://animefire.plus/animes/sanjougattai-transformers-go-todos-os-episodios",
      "texto_original": "Sanjougattai Transformers Go!",
      "rating": 5.25,
      "classificacao_etaria": "A10",
      "imagem_original": "https://animefire.plus/img/animes/sanjougattai-transformers-go.webp",
      "imagem_pasta": "https://animefire.plus/img/animes/sanjougattai-transformers-go/",
      "secao": "legendados",
      "pagina": 100,
      "total_episodios": 2,
      "link_video": "https://animefire.plus/video/sanjougattai-transformers-go"
    },
    {
      "id": 3255,
      "nome": "Sanzoku no Musume Ronja",
      "link": "https://animefire.plus/animes/sanzoku-no-musume-ronja-todos-os-episodios",
      "texto_original": "Sanzoku no Musume Ronja",
      "rating": 7.18,
      "classificacao_etaria": "A10",
      "imagem_original": "https://animefire.plus/img/animes/sanzoku-no-musume-ronja.webp",
      "imagem_pasta": "https://animefire.plus/img/animes/sanzoku-no-musume-ronja/",
      "secao": "legendados",
      "pagina": 75,
      "total_episodios": 25,
      "link_video": "https://animefire.plus/video/sanzoku-no-musume-ronja"
    },
    {
      "id": 3264,
      "nome": "Sasami: Mahou Shoujo Club",
      "link": "https://animefire.plus/animes/sasami-mahou-shoujo-club-todos-os-episodios",
      "texto_original": "Sasami: Mahou Shoujo Club",
      "rating": 6.72,
      "classificacao_etaria": "A10",
      "imagem_original": "https://animefire.plus/img/animes/sasami-mahou-shoujo-club.webp",
      "imagem_pasta": "https://animefire.plus/img/animes/sasami-mahou-shoujo-club/",
      "secao": "legendados",
      "pagina": 121,
      "total_episodios": 13,
      "link_video": "https://animefire.plus/video/sasami-mahou-shoujo-club"
    },
    {
      "id": 3281,
      "nome": "SD Gundam World Heroes",
      "link": "https://animefire.plus/animes/sd-gundam-world-heroes-todos-os-episodios",
      "texto_original": "SD Gundam World Heroes",
      "rating": 5.69,
      "classificacao_etaria": "A10",
      "imagem_original": "https://animefire.plus/img/animes/sd-gundam-world-heroes.webp",
      "imagem_pasta": "https://animefire.plus/img/animes/sd-gundam-world-heroes/",
      "secao": "legendados",
      "pagina": 46,
      "total_episodios": 24,
      "link_video": "https://animefire.plus/video/sd-gundam-world-heroes"
    },
    {
      "id": 3282,
      "nome": "SD Gundam World: Sangoku Souketsuden",
      "link": "https://animefire.plus/animes/sd-gundam-world-sangoku-souketsuden-todos-os-episodios",
      "texto_original": "SD Gundam World: Sangoku Souketsuden",
      "rating": 5.9,
      "classificacao_etaria": "A10",
      "imagem_original": "https://animefire.plus/img/animes/sd-gundam-world-sangoku-souketsuden.webp",
      "imagem_pasta": "https://animefire.plus/img/animes/sd-gundam-world-sangoku-souketsuden/",
      "secao": "legendados",
      "pagina": 62,
      "total_episodios": 0,
      "link_video": "https://animefire.plus/video/sd-gundam-world-sangoku-souketsuden"
    },
    {
      "id": 3518,
      "nome": "Shugo Chara! Party!",
      "link": "https://animefire.plus/animes/shugo-chara-party-todos-os-episodios",
      "texto_original": "Shugo Chara! Party!",
      "rating": 6.63,
      "classificacao_etaria": "A10",
      "imagem_original": "https://animefire.plus/img/animes/shugo-chara-party.webp",
      "imagem_pasta": "https://animefire.plus/img/animes/shugo-chara-party/",
      "secao": "legendados",
      "pagina": 63,
      "total_episodios": 25,
      "link_video": "https://animefire.plus/video/shugo-chara-party"
    },
    {
      "id": 3519,
      "nome": "Shugo Chara!! Doki",
      "link": "https://animefire.plus/animes/shugo-chara-doki-todos-os-episodios",
      "texto_original": "Shugo Chara!! Doki",
      "rating": 7.47,
      "classificacao_etaria": "A10",
      "imagem_original": "https://animefire.plus/img/animes/shugo-chara-doki.webp",
      "imagem_pasta": "https://animefire.plus/img/animes/shugo-chara-doki/",
      "secao": "legendados",
      "pagina": 63,
      "total_episodios": 51,
      "link_video": "https://animefire.plus/video/shugo-chara-doki"
    },
    {
      "id": 3663,
      "nome": "Sugar Sugar Rune",
      "link": "https://animefire.plus/animes/sugar-sugar-rune-todos-os-episodios",
      "texto_original": "Sugar Sugar Rune",
      "rating": 7.45,
      "classificacao_etaria": "A10",
      "imagem_original": "https://animefire.plus/img/animes/sugar-sugar-rune.webp",
      "imagem_pasta": "https://animefire.plus/img/animes/sugar-sugar-rune/",
      "secao": "legendados",
      "pagina": 55,
      "total_episodios": 51,
      "link_video": "https://animefire.plus/video/sugar-sugar-rune"
    },
    {
      "id": 3748,
      "nome": "Tantei Team KZ Jiken Note",
      "link": "https://animefire.plus/animes/tantei-team-kz-jiken-note-todos-os-episodios",
      "texto_original": "Tantei Team KZ Jiken Note",
      "rating": 6.25,
      "classificacao_etaria": "A10",
      "imagem_original": "https://animefire.plus/img/animes/tantei-team-kz-jiken-note.webp",
      "imagem_pasta": "https://animefire.plus/img/animes/tantei-team-kz-jiken-note/",
      "secao": "legendados",
      "pagina": 102,
      "total_episodios": 16,
      "link_video": "https://animefire.plus/video/tantei-team-kz-jiken-note"
    },
    {
      "id": 3850,
      "nome": "Time Travel Shoujo: Mari Waka to 8-nin no Kagakusha-tachi",
      "link": "https://animefire.plus/animes/time-travel-shoujo-mari-waka-to-8-nin-no-kagakusha-tachi-todos-os-episodios",
      "texto_original": "Time Travel Shoujo: Mari Waka to 8-nin no Kagakusha-tachi",
      "rating": 6.57,
      "classificacao_etaria": "A10",
      "imagem_original": "https://animefire.plus/img/animes/time-travel-shoujo-mari-waka-to-8-nin-no-kagakusha-tachi.webp",
      "imagem_pasta": "https://animefire.plus/img/animes/time-travel-shoujo-mari-waka-to-8-nin-no-kagakusha-tachi/",
      "secao": "legendados",
      "pagina": 177,
      "total_episodios": 0,
      "link_video": "https://animefire.plus/video/time-travel-shoujo-mari-waka-to-8-nin-no-kagakusha-tachi"
    },
    {
      "id": 3878,
      "nome": "Tokimeki Tonight",
      "link": "https://animefire.plus/animes/tokimeki-tonight-todos-os-episodios",
      "texto_original": "Tokimeki Tonight",
      "rating": 7.35,
      "classificacao_etaria": "A10",
      "imagem_original": "https://animefire.plus/img/animes/tokimeki-tonight.webp",
      "imagem_pasta": "https://animefire.plus/img/animes/tokimeki-tonight/",
      "secao": "legendados",
      "pagina": 149,
      "total_episodios": 34,
      "link_video": "https://animefire.plus/video/tokimeki-tonight"
    },
    {
      "id": 4037,
      "nome": "Urawa no Usagi-chan",
      "link": "https://animefire.plus/animes/urawa-no-usagi-chan-todos-os-episodios",
      "texto_original": "Urawa no Usagi-chan",
      "rating": 5.4,
      "classificacao_etaria": "A10",
      "imagem_original": "https://animefire.plus/img/animes/urawa-no-usagi-chan.webp",
      "imagem_pasta": "https://animefire.plus/img/animes/urawa-no-usagi-chan/",
      "secao": "legendados",
      "pagina": 67,
      "total_episodios": 12,
      "link_video": "https://animefire.plus/video/urawa-no-usagi-chan"
    },
    {
      "id": 4106,
      "nome": "Wangpai Yushi Di 0 Ji",
      "link": "https://animefire.plus/animes/wangpai-yushi-di-0-ji-todos-os-episodios",
      "texto_original": "Wangpai Yushi Di 0 Ji",
      "rating": 6.06,
      "classificacao_etaria": "A10",
      "imagem_original": "https://animefire.plus/img/animes/wangpai-yushi-di-0-ji.webp",
      "imagem_pasta": "https://animefire.plus/img/animes/wangpai-yushi-di-0-ji/",
      "secao": "legendados",
      "pagina": 88,
      "total_episodios": 1,
      "link_video": "https://animefire.plus/video/wangpai-yushi-di-0-ji"
    },
    {
      "id": 4288,
      "nome": "Yume Tsukai",
      "link": "https://animefire.plus/animes/yume-tsukai-todos-os-episodios",
      "texto_original": "Yume Tsukai",
      "rating": 6.49,
      "classificacao_etaria": "A10",
      "imagem_original": "https://animefire.plus/img/animes/yume-tsukai.webp",
      "imagem_pasta": "https://animefire.plus/img/animes/yume-tsukai/",
      "secao": "legendados",
      "pagina": 164,
      "total_episodios": 12,
      "link_video": "https://animefire.plus/video/yume-tsukai"
    },
    {
      "id": 4291,
      "nome": "Yumedamaya Kidan",
      "link": "https://animefire.plus/animes/yumedamaya-kidan-todos-os-episodios",
      "texto_original": "Yumedamaya Kidan",
      "rating": 6.57,
      "classificacao_etaria": "A10",
      "imagem_original": "https://animefire.plus/img/animes/yumedamaya-kidan.webp",
      "imagem_pasta": "https://animefire.plus/img/animes/yumedamaya-kidan/",
      "secao": "legendados",
      "pagina": 70,
      "total_episodios": 1,
      "link_video": "https://animefire.plus/video/yumedamaya-kidan"
    },
    {
      "id": 4357,
      "nome": "Zinba",
      "link": "https://animefire.plus/animes/zinba-todos-os-episodios",
      "texto_original": "Zinba",
      "rating": 6.66,
      "classificacao_etaria": "A10",
      "imagem_original": "https://animefire.plus/img/animes/zinba.webp",
      "imagem_pasta": "https://animefire.plus/img/animes/zinba/",
      "secao": "legendados",
      "pagina": 174,
      "total_episodios": 1,
      "link_video": "https://animefire.plus/video/zinba"
    }
  ],
  "pagination": {
    "current_page": 6,
    "per_page": 20,
    "total_items": 119,
    "total_pages": 6,
    "has_next": false,
    "has_prev": true
  }
}
