{
  "message": "Animes com classificação etária: A10",
  "age_rating": "A10",
  "data": [
    {
      "id": 2997,
      "nome": "Pokemon (2019): Harukanaru Aoi Sora (Dublado)",
      "link": "https://animefire.plus/animes/pokemon-2019-harukanaru-aoi-sora-dublado-todos-os-episodios",
      "texto_original": "Pokemon (2019): Harukanaru Aoi Sora (Dublado)",
      "rating": 7.26,
      "classificacao_etaria": "A10",
      "imagem_original": "https://animefire.plus/img/animes/pokemon-2019-harukanaru-aoi-sora.webp",
      "imagem_pasta": "https://animefire.plus/img/animes/pokemon-2019-harukanaru-aoi-sora/",
      "secao": "dublados",
      "pagina": 3,
      "total_episodios": 1,
      "link_video": "https://animefire.plus/video/pokemon-2019-harukanaru-aoi-sora-dublado"
    },
    {
      "id": 2998,
      "nome": "Pokemon (2019): Kami to Yobareshi Arceus (Dublado)",
      "link": "https://animefire.plus/animes/pokemon-2019-kami-to-yobareshi-arceus-dublado-todos-os-episodios",
      "texto_original": "Pokemon (2019): Kami to Yobareshi Arceus (Dublado)",
      "rating": 6.67,
      "classificacao_etaria": "A10",
      "imagem_original": "https://animefire.plus/img/animes/pokemon-2019-kami-to-yobareshi-arceus.webp",
      "imagem_pasta": "https://animefire.plus/img/animes/pokemon-2019-kami-to-yobareshi-arceus/",
      "secao": "dublados,legendados",
      "pagina": 9,
      "total_episodios": 1,
      "link_video": "https://animefire.plus/video/pokemon-2019-kami-to-yobareshi-arceus-dublado"
    },
    {
      "id": 2999,
      "nome": "Pokemon (Dublado)",
      "link": "https://animefire.plus/animes/pokemon-dublado-todos-os-episodios",
      "texto_original": "Pokemon (Dublado)",
      "rating": 7.42,
      "classificacao_etaria": "A10",
      "imagem_original": "https://animefire.plus/img/animes/pokemon.webp",
      "imagem_pasta": "https://animefire.plus/img/animes/pokemon/",
      "secao": "dublados",
      "pagina": 27,
      "total_episodios": 0,
      "link_video": "https://animefire.plus/video/pokemon-dublado"
    },
    {
      "id": 3000,
      "nome": "Pokemon Advanced Generation (Dublado)",
      "link": "https://animefire.plus/animes/pokemon-advanced-generation-dublado-todos-os-episodios",
      "texto_original": "Pokemon Advanced Generation (Dublado)",
      "rating": 7.18,
      "classificacao_etaria": "A10",
      "imagem_original": "https://animefire.plus/img/animes/pokemon-advanced-generation.webp",
      "imagem_pasta": "https://animefire.plus/img/animes/pokemon-advanced-generation/",
      "secao": "dublados,legendados",
      "pagina": 28,
      "total_episodios": 104,
      "link_video": "https://animefire.plus/video/pokemon-advanced-generation-dublado"
    },
    {
      "id": 3001,
      "nome": "Pokemon Best Wishes! Season 2",
      "link": "https://animefire.plus/animes/pokemon-best-wishes-season-2-todos-os-episodios",
      "texto_original": "Pokemon Best Wishes! Season 2",
      "rating": 6.59,
      "classificacao_etaria": "A10",
      "imagem_original": "https://animefire.plus/img/animes/pokemon-best-wishes-season-2.webp",
      "imagem_pasta": "https://animefire.plus/img/animes/pokemon-best-wishes-season-2/",
      "secao": "legendados",
      "pagina": 129,
      "total_episodios": 3,
      "link_video": "https://animefire.plus/video/pokemon-best-wishes-season-2"
    },
    {
      "id": 3002,
      "nome": "Pokemon Diamond & Pearl",
      "link": "https://animefire.plus/animes/pokemon-diamond-pearl-todos-os-episodios",
      "texto_original": "Pokemon Diamond & Pearl",
      "rating": 7.24,
      "classificacao_etaria": "A10",
      "imagem_original": "https://animefire.plus/img/animes/pokemon-diamond-pearl.webp",
      "imagem_pasta": "https://animefire.plus/img/animes/pokemon-diamond-pearl/",
      "secao": "legendados",
      "pagina": 126,
      "total_episodios": 186,
      "link_video": "https://animefire.plus/video/pokemon-diamond-pearl"
    },
    {
      "id": 3003,
      "nome": "Pokemon Legends Arceus: Yuki Hodo Kishi Futaai",
      "link": "https://animefire.plus/animes/pokemon-legends-arceus-yuki-hodo-kishi-futaai-todos-os-episodios",
      "texto_original": "Pokemon Legends Arceus: Yuki Hodo Kishi Futaai",
      "rating": 7.41,
      "classificacao_etaria": "A10",
      "imagem_original": "https://animefire.plus/img/animes/pokemon-legends-arceus-yuki-hodo-kishi-futaai.webp",
      "imagem_pasta": "https://animefire.plus/img/animes/pokemon-legends-arceus-yuki-hodo-kishi-futaai/",
      "secao": "legendados",
      "pagina": 32,
      "total_episodios": 3,
      "link_video": "https://animefire.plus/video/pokemon-legends-arceus-yuki-hodo-kishi-futaai"
    },
    {
      "id": 3004,
      "nome": "Pokemon Movie 21: Minna no Monogatari",
      "link": "https://animefire.plus/animes/pokemon-movie-21-minna-no-monogatari-todos-os-episodios",
      "texto_original": "Pokemon Movie 21: Minna no Monogatari",
      "rating": 7.37,
      "classificacao_etaria": "A10",
      "imagem_original": "https://animefire.plus/img/animes/pokemon-movie-21-minna-no-monogatari.webp",
      "imagem_pasta": "https://animefire.plus/img/animes/pokemon-movie-21-minna-no-monogatari/",
      "secao": "legendados",
      "pagina": 104,
      "total_episodios": 3,
      "link_video": "https://animefire.plus/video/pokemon-movie-21-minna-no-monogatari"
    },
    {
      "id": 3005,
      "nome": "Pokemon Sun & Moon",
      "link": "https://animefire.plus/animes/pokemon-sun-moon-todos-os-episodios",
      "texto_original": "Pokemon Sun & Moon",
      "rating": 6.79,
      "classificacao_etaria": "A10",
      "imagem_original": "https://animefire.plus/img/animes/pokemon-sun-moon.webp",
      "imagem_pasta": "https://animefire.plus/img/animes/pokemon-sun-moon/",
      "secao": "legendados",
      "pagina": 178,
      "total_episodios": 108,
      "link_video": "https://animefire.plus/video/pokemon-sun-moon"
    },
    {
      "id": 3006,
      "nome": "Pokemon XY (Dublado)",
      "link": "https://animefire.plus/animes/pokemon-xy-dublado-todos-os-episodios",
      "texto_original": "Pokemon XY (Dublado)",
      "rating": 7.4,
      "classificacao_etaria": "A10",
      "imagem_original": "https://animefire.plus/img/animes/pokemon-xy.webp",
      "imagem_pasta": "https://animefire.plus/img/animes/pokemon-xy/",
      "secao": "dublados,legendados",
      "pagina": 27,
      "total_episodios": 100,
      "link_video": "https://animefire.plus/video/pokemon-xy-dublado"
    },
    {
      "id": 3007,
      "nome": "Pokemon XY: Mega Evolution",
      "link": "https://animefire.plus/animes/pokemon-xy-mega-evolution-todos-os-episodios",
      "texto_original": "Pokemon XY: Mega Evolution",
      "rating": 7.5,
      "classificacao_etaria": "A10",
      "imagem_original": "https://animefire.plus/img/animes/pokemon-xy-mega-evolution.webp",
      "imagem_pasta": "https://animefire.plus/img/animes/pokemon-xy-mega-evolution/",
      "secao": "legendados",
      "pagina": 79,
      "total_episodios": 4,
      "link_video": "https://animefire.plus/video/pokemon-xy-mega-evolution"
    },
    {
      "id": 3008,
      "nome": "Pokemon XY&Z",
      "link": "https://animefire.plus/animes/pokemon-xy-z-todos-os-episodios",
      "texto_original": "Pokemon XY&Z",
      "rating": 7.7,
      "classificacao_etaria": "A10",
      "imagem_original": "https://animefire.plus/img/animes/pokemon-xy-z.webp",
      "imagem_pasta": "https://animefire.plus/img/animes/pokemon-xy-z/",
      "secao": "legendados",
      "pagina": 75,
      "total_episodios": 47,
      "link_video": "https://animefire.plus/video/pokemon-xy-z"
    },
    {
      "id": 3009,
      "nome": "Pokemon: Mezase Pokemon Master",
      "link": "https://animefire.plus/animes/pokemon-mezase-pokemon-master-todos-os-episodios",
      "texto_original": "Pokemon: Mezase Pokemon Master",
      "rating": 7.59,
      "classificacao_etaria": "A10",
      "imagem_original": "https://animefire.plus/img/animes/pokemon-mezase-pokemon-master.webp",
      "imagem_pasta": "https://animefire.plus/img/animes/pokemon-mezase-pokemon-master/",
      "secao": "legendados,lancamentos",
      "pagina": 25,
      "total_episodios": 2,
      "link_video": "https://animefire.plus/video/pokemon-mezase-pokemon-master"
    },
    {
      "id": 3010,
      "nome": "Pokemon: The Origin",
      "link": "https://animefire.plus/animes/pokemon-the-origin-todos-os-episodios",
      "texto_original": "Pokemon: The Origin",
      "rating": 7.86,
      "classificacao_etaria": "A10",
      "imagem_original": "https://animefire.plus/img/animes/pokemon-the-origin.webp",
      "imagem_pasta": "https://animefire.plus/img/animes/pokemon-the-origin/",
      "secao": "legendados",
      "pagina": 165,
      "total_episodios": 0,
      "link_video": "https://animefire.plus/video/pokemon-the-origin"
    },
    {
      "id": 3012,
      "nome": "PopoloCrois",
      "link": "https://animefire.plus/animes/popolocrois-todos-os-episodios",
      "texto_original": "PopoloCrois",
      "rating": 7.09,
      "classificacao_etaria": "A10",
      "imagem_original": "https://animefire.plus/img/animes/popolocrois.webp",
      "imagem_pasta": "https://animefire.plus/img/animes/popolocrois/",
      "secao": "legendados",
      "pagina": 164,
      "total_episodios": 26,
      "link_video": "https://animefire.plus/video/popolocrois"
    },
    {
      "id": 3013,
      "nome": "Popolocrois Monogatari",
      "link": "https://animefire.plus/animes/popolocrois-monogatari-todos-os-episodios",
      "texto_original": "Popolocrois Monogatari",
      "rating": 7.17,
      "classificacao_etaria": "A10",
      "imagem_original": "https://animefire.plus/img/animes/popolocrois-monogatari.webp",
      "imagem_pasta": "https://animefire.plus/img/animes/popolocrois-monogatari/",
      "secao": "legendados",
      "pagina": 149,
      "total_episodios": 25,
      "link_video": "https://animefire.plus/video/popolocrois-monogatari"
    },
    {
      "id": 3019,
      "nome": "Power Stone",
      "link": "https://animefire.plus/animes/power-stone-todos-os-episodios",
      "texto_original": "Power Stone",
      "rating": 6.54,
      "classificacao_etaria": "A10",
      "imagem_original": "https://animefire.plus/img/animes/power-stone.webp",
      "imagem_pasta": "https://animefire.plus/img/animes/power-stone/",
      "secao": "legendados",
      "pagina": 105,
      "total_episodios": 18,
      "link_video": "https://animefire.plus/video/power-stone"
    },
    {
      "id": 3020,
      "nome": "Poyopoyo Kansatsu Nikki",
      "link": "https://animefire.plus/animes/poyopoyo-kansatsu-nikki-todos-os-episodios",
      "texto_original": "Poyopoyo Kansatsu Nikki",
      "rating": 7.71,
      "classificacao_etaria": "A10",
      "imagem_original": "https://animefire.plus/img/animes/poyopoyo-kansatsu-nikki.webp",
      "imagem_pasta": "https://animefire.plus/img/animes/poyopoyo-kansatsu-nikki/",
      "secao": "legendados",
      "pagina": 74,
      "total_episodios": 52,
      "link_video": "https://animefire.plus/video/poyopoyo-kansatsu-nikki"
    },
    {
      "id": 3033,
      "nome": "PriPara",
      "link": "https://animefire.plus/animes/pripara-todos-os-episodios",
      "texto_original": "PriPara",
      "rating": 7.62,
      "classificacao_etaria": "A10",
      "imagem_original": "https://animefire.plus/img/animes/pripara.webp",
      "imagem_pasta": "https://animefire.plus/img/animes/pripara/",
      "secao": "legendados",
      "pagina": 177,
      "total_episodios": 140,
      "link_video": "https://animefire.plus/video/pripara"
    },
    {
      "id": 3050,
      "nome": "Pupipo!",
      "link": "https://animefire.plus/animes/pupipo-todos-os-episodios",
      "texto_original": "Pupipo!",
      "rating": 6.83,
      "classificacao_etaria": "A10",
      "imagem_original": "https://animefire.plus/img/animes/pupipo.webp",
      "imagem_pasta": "https://animefire.plus/img/animes/pupipo/",
      "secao": "legendados",
      "pagina": 79,
      "total_episodios": 14,
      "link_video": "https://animefire.plus/video/pupipo"
    }
  ],
  "pagination": {
    "current_page": 5,
    "per_page": 20,
    "total_items": 119,
    "total_pages": 6,
    "has_next": true,
    "has_prev": true
  }
}
