{
  "message": "Animes com classificação etária: A14",
  "age_rating": "A14",
  "data": [
    {
      "id": 711,
      "nome": "D_Cide Traumerei the Animation",
      "link": "https://animefire.plus/animes/d-cide-traumerei-the-animation-todos-os-episodios",
      "texto_original": "D_Cide Traumerei the Animation",
      "rating": 5.8,
      "classificacao_etaria": "A14",
      "imagem_original": "https://animefire.plus/img/animes/d-cide-traumerei-the-animation.webp",
      "imagem_pasta": "https://animefire.plus/img/animes/d-cide-traumerei-the-animation/",
      "secao": "legendados",
      "pagina": 40,
      "total_episodios": 13,
      "link_video": "https://animefire.plus/video/d-cide-traumerei-the-animation"
    },
    {
      "id": 712,
      "nome": "D-Frag!",
      "link": "https://animefire.plus/animes/d-frag-todos-os-episodios",
      "texto_original": "D-Frag!",
      "rating": 7.67,
      "classificacao_etaria": "A14",
      "imagem_original": "https://animefire.plus/img/animes/d-frag.webp",
      "imagem_pasta": "https://animefire.plus/img/animes/d-frag/",
      "secao": "legendados",
      "pagina": 107,
      "total_episodios": 12,
      "link_video": "https://animefire.plus/video/d-frag"
    },
    {
      "id": 713,
      "nome": "D.C.: Da Capo",
      "link": "https://animefire.plus/animes/d-c-da-capo-todos-os-episodios",
      "texto_original": "D.C.: Da Capo",
      "rating": 6.84,
      "classificacao_etaria": "A14",
      "imagem_original": "https://animefire.plus/img/animes/d-c-da-capo.webp",
      "imagem_pasta": "https://animefire.plus/img/animes/d-c-da-capo/",
      "secao": "legendados",
      "pagina": 127,
      "total_episodios": 26,
      "link_video": "https://animefire.plus/video/d-c-da-capo"
    },
    {
      "id": 714,
      "nome": "D.C.II S.S.: Da Capo II Second Season",
      "link": "https://animefire.plus/animes/d-c-ii-s-s-da-capo-ii-second-season-todos-os-episodios",
      "texto_original": "D.C.II S.S.: Da Capo II Second Season",
      "rating": 7.3,
      "classificacao_etaria": "A14",
      "imagem_original": "https://animefire.plus/img/animes/d-c-ii-s-s-da-capo-ii-second-season.webp",
      "imagem_pasta": "https://animefire.plus/img/animes/d-c-ii-s-s-da-capo-ii-second-season/",
      "secao": "legendados",
      "pagina": 125,
      "total_episodios": 13,
      "link_video": "https://animefire.plus/video/d-c-ii-s-s-da-capo-ii-second-season"
    },
    {
      "id": 715,
      "nome": "D.C.II: Da Capo II",
      "link": "https://animefire.plus/animes/d-c-ii-da-capo-ii-todos-os-episodios",
      "texto_original": "D.C.II: Da Capo II",
      "rating": 6.99,
      "classificacao_etaria": "A14",
      "imagem_original": "https://animefire.plus/img/animes/d-c-ii-da-capo-ii.webp",
      "imagem_pasta": "https://animefire.plus/img/animes/d-c-ii-da-capo-ii/",
      "secao": "legendados",
      "pagina": 124,
      "total_episodios": 13,
      "link_video": "https://animefire.plus/video/d-c-ii-da-capo-ii"
    },
    {
      "id": 716,
      "nome": "D.C.III: Da Capo III",
      "link": "https://animefire.plus/animes/d-c-iii-da-capo-iii-todos-os-episodios",
      "texto_original": "D.C.III: Da Capo III",
      "rating": 6.67,
      "classificacao_etaria": "A14",
      "imagem_original": "https://animefire.plus/img/animes/d-c-iii-da-capo-iii.webp",
      "imagem_pasta": "https://animefire.plus/img/animes/d-c-iii-da-capo-iii/",
      "secao": "legendados",
      "pagina": 140,
      "total_episodios": 1,
      "link_video": "https://animefire.plus/video/d-c-iii-da-capo-iii"
    },
    {
      "id": 717,
      "nome": "D.Gray-Man",
      "link": "https://animefire.plus/animes/d-gray-man-todos-os-episodios",
      "texto_original": "D.Gray-Man",
      "rating": 8.08,
      "classificacao_etaria": "A14",
      "imagem_original": "https://animefire.plus/img/animes/d-gray-man.webp",
      "imagem_pasta": "https://animefire.plus/img/animes/d-gray-man/",
      "secao": "legendados",
      "pagina": 60,
      "total_episodios": 100,
      "link_video": "https://animefire.plus/video/d-gray-man"
    },
    {
      "id": 719,
      "nome": "D.N.Angel",
      "link": "https://animefire.plus/animes/d-n-angel-todos-os-episodios",
      "texto_original": "D.N.Angel",
      "rating": 7.29,
      "classificacao_etaria": "A14",
      "imagem_original": "https://animefire.plus/img/animes/d-n-angel.webp",
      "imagem_pasta": "https://animefire.plus/img/animes/d-n-angel/",
      "secao": "legendados",
      "pagina": 153,
      "total_episodios": 26,
      "link_video": "https://animefire.plus/video/d-n-angel"
    },
    {
      "id": 720,
      "nome": "D4 Princess",
      "link": "https://animefire.plus/animes/d4-princess-todos-os-episodios",
      "texto_original": "D4 Princess",
      "rating": 6.13,
      "classificacao_etaria": "A14",
      "imagem_original": "https://animefire.plus/img/animes/d4-princess.webp",
      "imagem_pasta": "https://animefire.plus/img/animes/d4-princess/",
      "secao": "legendados",
      "pagina": 72,
      "total_episodios": 24,
      "link_video": "https://animefire.plus/video/d4-princess"
    },
    {
      "id": 721,
      "nome": "D4DJ All Mix",
      "link": "https://animefire.plus/animes/d4dj-all-mix-todos-os-episodios",
      "texto_original": "D4DJ All Mix",
      "rating": 7.4,
      "classificacao_etaria": "A14",
      "imagem_original": "https://animefire.plus/img/animes/d4dj-all-mix.webp",
      "imagem_pasta": "https://animefire.plus/img/animes/d4dj-all-mix/",
      "secao": "legendados",
      "pagina": 25,
      "total_episodios": 12,
      "link_video": "https://animefire.plus/video/d4dj-all-mix"
    },
    {
      "id": 722,
      "nome": "D4DJ Double Mix",
      "link": "https://animefire.plus/animes/d4dj-double-mix-todos-os-episodios",
      "texto_original": "D4DJ Double Mix",
      "rating": 7.29,
      "classificacao_etaria": "A14",
      "imagem_original": "https://animefire.plus/img/animes/d4dj-double-mix.webp",
      "imagem_pasta": "https://animefire.plus/img/animes/d4dj-double-mix/",
      "secao": "legendados",
      "pagina": 26,
      "total_episodios": 1,
      "link_video": "https://animefire.plus/video/d4dj-double-mix"
    },
    {
      "id": 723,
      "nome": "D4DJ: First Mix",
      "link": "https://animefire.plus/animes/d4dj-first-mix-todos-os-episodios",
      "texto_original": "D4DJ: First Mix",
      "rating": null,
      "classificacao_etaria": "A14",
      "imagem_original": "https://animefire.plus/img/animes/d4dj-first-mix.webp",
      "imagem_pasta": "https://animefire.plus/img/animes/d4dj-first-mix/",
      "secao": "legendados",
      "pagina": 50,
      "total_episodios": 13,
      "link_video": "https://animefire.plus/video/d4dj-first-mix"
    },
    {
      "id": 724,
      "nome": "Da Wang Rao Ming",
      "link": "https://animefire.plus/animes/da-wang-rao-ming-todos-os-episodios",
      "texto_original": "Da Wang Rao Ming",
      "rating": 7.52,
      "classificacao_etaria": "A14",
      "imagem_original": "https://animefire.plus/img/animes/da-wang-rao-ming.webp",
      "imagem_pasta": "https://animefire.plus/img/animes/da-wang-rao-ming/",
      "secao": "legendados",
      "pagina": 32,
      "total_episodios": 1,
      "link_video": "https://animefire.plus/video/da-wang-rao-ming"
    },
    {
      "id": 725,
      "nome": "Dagashi Kashi",
      "link": "https://animefire.plus/animes/dagashi-kashi-todos-os-episodios",
      "texto_original": "Dagashi Kashi",
      "rating": 6.7,
      "classificacao_etaria": "A14",
      "imagem_original": "https://animefire.plus/img/animes/dagashi-kashi.webp",
      "imagem_pasta": "https://animefire.plus/img/animes/dagashi-kashi/",
      "secao": "legendados",
      "pagina": 171,
      "total_episodios": 0,
      "link_video": "https://animefire.plus/video/dagashi-kashi"
    },
    {
      "id": 726,
      "nome": "Dagashi Kashi 2",
      "link": "https://animefire.plus/animes/dagashi-kashi-2-todos-os-episodios",
      "texto_original": "Dagashi Kashi 2",
      "rating": 6.99,
      "classificacao_etaria": "A14",
      "imagem_original": "https://animefire.plus/img/animes/dagashi-kashi-2.webp",
      "imagem_pasta": "https://animefire.plus/img/animes/dagashi-kashi-2/",
      "secao": "legendados",
      "pagina": 127,
      "total_episodios": 7,
      "link_video": "https://animefire.plus/video/dagashi-kashi-2"
    },
    {
      "id": 728,
      "nome": "Daimajuu Gekitou: Hagane no Oni",
      "link": "https://animefire.plus/animes/daimajuu-gekitou-hagane-no-oni-todos-os-episodios",
      "texto_original": "Daimajuu Gekitou: Hagane no Oni",
      "rating": 5.29,
      "classificacao_etaria": "A14",
      "imagem_original": "https://animefire.plus/img/animes/daimajuu-gekitou-hagane-no-oni.webp",
      "imagem_pasta": "https://animefire.plus/img/animes/daimajuu-gekitou-hagane-no-oni/",
      "secao": "legendados",
      "pagina": 77,
      "total_episodios": 1,
      "link_video": "https://animefire.plus/video/daimajuu-gekitou-hagane-no-oni"
    },
    {
      "id": 729,
      "nome": "Daitoshokan No Hitsujikai",
      "link": "https://animefire.plus/animes/daitoshokan-no-hitsujikai-todos-os-episodios",
      "texto_original": "Daitoshokan No Hitsujikai",
      "rating": 7.02,
      "classificacao_etaria": "A14",
      "imagem_original": "https://animefire.plus/img/animes/daitoshokan-no-hitsujikai.webp",
      "imagem_pasta": "https://animefire.plus/img/animes/daitoshokan-no-hitsujikai/",
      "secao": "legendados",
      "pagina": 96,
      "total_episodios": 2,
      "link_video": "https://animefire.plus/video/daitoshokan-no-hitsujikai"
    },
    {
      "id": 731,
      "nome": "Dakaretai Otoko 1-i ni Odosarete Imasu.",
      "link": "https://animefire.plus/animes/dakaretai-otoko-1-i-ni-odosarete-imasu-todos-os-episodios",
      "texto_original": "Dakaretai Otoko 1-i ni Odosarete Imasu.",
      "rating": 7.52,
      "classificacao_etaria": "A14",
      "imagem_original": "https://animefire.plus/img/animes/dakaretai-otoko-1-i-ni-odosarete-imasu.webp",
      "imagem_pasta": "https://animefire.plus/img/animes/dakaretai-otoko-1-i-ni-odosarete-imasu/",
      "secao": "legendados",
      "pagina": 139,
      "total_episodios": 13,
      "link_video": "https://animefire.plus/video/dakaretai-otoko-1-i-ni-odosarete-imasu"
    },
    {
      "id": 732,
      "nome": "Dallos",
      "link": "https://animefire.plus/animes/dallos-todos-os-episodios",
      "texto_original": "Dallos",
      "rating": 5.99,
      "classificacao_etaria": "A14",
      "imagem_original": "https://animefire.plus/img/animes/dallos.webp",
      "imagem_pasta": "https://animefire.plus/img/animes/dallos/",
      "secao": "legendados",
      "pagina": 54,
      "total_episodios": 4,
      "link_video": "https://animefire.plus/video/dallos"
    },
    {
      "id": 733,
      "nome": "Dame x Prince Anime Caravan",
      "link": "https://animefire.plus/animes/dame-x-prince-anime-caravan-todos-os-episodios",
      "texto_original": "Dame x Prince Anime Caravan",
      "rating": 6.59,
      "classificacao_etaria": "A14",
      "imagem_original": "https://animefire.plus/img/animes/dame-x-prince-anime-caravan.webp",
      "imagem_pasta": "https://animefire.plus/img/animes/dame-x-prince-anime-caravan/",
      "secao": "legendados",
      "pagina": 72,
      "total_episodios": 12,
      "link_video": "https://animefire.plus/video/dame-x-prince-anime-caravan"
    }
  ],
  "pagination": {
    "current_page": 24,
    "per_page": 20,
    "total_items": 2988,
    "total_pages": 150,
    "has_next": true,
    "has_prev": true
  }
}
