{
  "message": "Animes com classificação etária: A14",
  "age_rating": "A14",
  "data": [
    {
      "id": 1814,
      "nome": "Kaiko sareta Ankoku Heishi (30-dai) no Slow na Second Life",
      "link": "https://animefire.plus/animes/kaiko-sareta-ankoku-heishi-30-dai-no-slow-na-second-life-todos-os-episodios",
      "texto_original": "Kaiko sareta Ankoku Heishi (30-dai) no Slow na Second Life",
      "rating": 7.01,
      "classificacao_etaria": "A14",
      "imagem_original": "https://animefire.plus/img/animes/kaiko-sareta-ankoku-heishi-30-dai-no-slow-na-second-life.webp",
      "imagem_pasta": "https://animefire.plus/img/animes/kaiko-sareta-ankoku-heishi-30-dai-no-slow-na-second-life/",
      "secao": "legendados",
      "pagina": 27,
      "total_episodios": 12,
      "link_video": "https://animefire.plus/video/kaiko-sareta-ankoku-heishi-30-dai-no-slow-na-second-life"
    },
    {
      "id": 1816,
      "nome": "Kaizoku Oujo",
      "link": "https://animefire.plus/animes/kaizoku-oujo-todos-os-episodios",
      "texto_original": "Kaizoku Oujo",
      "rating": 7.07,
      "classificacao_etaria": "A14",
      "imagem_original": "https://animefire.plus/img/animes/kaizoku-oujo.webp",
      "imagem_pasta": "https://animefire.plus/img/animes/kaizoku-oujo/",
      "secao": "legendados",
      "pagina": 39,
      "total_episodios": 12,
      "link_video": "https://animefire.plus/video/kaizoku-oujo"
    },
    {
      "id": 1818,
      "nome": "Kakegurui Twin (Dublado)",
      "link": "https://animefire.plus/animes/kakegurui-twin-dublado-todos-os-episodios",
      "texto_original": "Kakegurui Twin (Dublado)",
      "rating": 7.18,
      "classificacao_etaria": "A14",
      "imagem_original": "https://animefire.plus/img/animes/kakegurui-twin.webp",
      "imagem_pasta": "https://animefire.plus/img/animes/kakegurui-twin/",
      "secao": "dublados,legendados,lancamentos",
      "pagina": 10,
      "total_episodios": 6,
      "link_video": "https://animefire.plus/video/kakegurui-twin-dublado"
    },
    {
      "id": 1821,
      "nome": "Kakkou no Iinazuke (Dublado)",
      "link": "https://animefire.plus/animes/kakkou-no-iinazuke-dublado-todos-os-episodios",
      "texto_original": "Kakkou no Iinazuke (Dublado)",
      "rating": 6.87,
      "classificacao_etaria": "A14",
      "imagem_original": "https://animefire.plus/img/animes/kakkou-no-iinazuke.webp",
      "imagem_pasta": "https://animefire.plus/img/animes/kakkou-no-iinazuke/",
      "secao": "dublados,legendados",
      "pagina": 11,
      "total_episodios": 24,
      "link_video": "https://animefire.plus/video/kakkou-no-iinazuke-dublado"
    },
    {
      "id": 1822,
      "nome": "Kakkou no Iinazuke Season 2",
      "link": "https://animefire.plus/animes/kakkou-no-iinazuke-season-2-todos-os-episodios",
      "texto_original": "Kakkou no Iinazuke Season 2",
      "rating": 7.02,
      "classificacao_etaria": "A14",
      "imagem_original": "https://animefire.plus/img/animes/kakkou-no-iinazuke-season-2.webp",
      "imagem_pasta": "https://animefire.plus/img/animes/kakkou-no-iinazuke-season-2/",
      "secao": "legendados,lancamentos",
      "pagina": 3,
      "total_episodios": 4,
      "link_video": "https://animefire.plus/video/kakkou-no-iinazuke-season-2"
    },
    {
      "id": 1826,
      "nome": "Kakuriyo no Yadomeshi",
      "link": "https://animefire.plus/animes/kakuriyo-no-yadomeshi-todos-os-episodios",
      "texto_original": "Kakuriyo no Yadomeshi",
      "rating": 7.61,
      "classificacao_etaria": "A14",
      "imagem_original": "https://animefire.plus/img/animes/kakuriyo-no-yadomeshi.webp",
      "imagem_pasta": "https://animefire.plus/img/animes/kakuriyo-no-yadomeshi/",
      "secao": "legendados",
      "pagina": 162,
      "total_episodios": 26,
      "link_video": "https://animefire.plus/video/kakuriyo-no-yadomeshi"
    },
    {
      "id": 1827,
      "nome": "Kakushigoto (TV)",
      "link": "https://animefire.plus/animes/kakushigoto-tv-todos-os-episodios",
      "texto_original": "Kakushigoto (TV)",
      "rating": 8.02,
      "classificacao_etaria": "A14",
      "imagem_original": "https://animefire.plus/img/animes/kakushigoto-tv.webp",
      "imagem_pasta": "https://animefire.plus/img/animes/kakushigoto-tv/",
      "secao": "legendados",
      "pagina": 81,
      "total_episodios": 0,
      "link_video": "https://animefire.plus/video/kakushigoto-tv"
    },
    {
      "id": 1829,
      "nome": "Kaleido Star (Dublado)",
      "link": "https://animefire.plus/animes/kaleido-star-dublado-todos-os-episodios",
      "texto_original": "Kaleido Star (Dublado)",
      "rating": 7.97,
      "classificacao_etaria": "A14",
      "imagem_original": "https://animefire.plus/img/animes/kaleido-star.webp",
      "imagem_pasta": "https://animefire.plus/img/animes/kaleido-star/",
      "secao": "dublados",
      "pagina": 23,
      "total_episodios": 26,
      "link_video": "https://animefire.plus/video/kaleido-star-dublado"
    },
    {
      "id": 1834,
      "nome": "Kami Kuzu☆Idol",
      "link": "https://animefire.plus/animes/kami-kuzu-idol-todos-os-episodios",
      "texto_original": "Kami Kuzu☆Idol",
      "rating": 6.74,
      "classificacao_etaria": "A14",
      "imagem_original": "https://animefire.plus/img/animes/kami-kuzu-idol.webp",
      "imagem_pasta": "https://animefire.plus/img/animes/kami-kuzu-idol/",
      "secao": "legendados",
      "pagina": 32,
      "total_episodios": 10,
      "link_video": "https://animefire.plus/video/kami-kuzu-idol"
    },
    {
      "id": 1835,
      "nome": "Kami no Tou (Dublado)",
      "link": "https://animefire.plus/animes/kami-no-tou-dublado-todos-os-episodios",
      "texto_original": "Kami no Tou (Dublado)",
      "rating": 7.56,
      "classificacao_etaria": "A14",
      "imagem_original": "https://animefire.plus/img/animes/kami-no-tou.webp",
      "imagem_pasta": "https://animefire.plus/img/animes/kami-no-tou/",
      "secao": "dublados,legendados",
      "pagina": 9,
      "total_episodios": 13,
      "link_video": "https://animefire.plus/video/kami-no-tou-dublado"
    },
    {
      "id": 1836,
      "nome": "Kami no Tou: Ouji no Kikan (Dublado)",
      "link": "https://animefire.plus/animes/kami-no-tou-ouji-no-kikan-dublado-todos-os-episodios",
      "texto_original": "Kami no Tou: Ouji no Kikan (Dublado)",
      "rating": 6.68,
      "classificacao_etaria": "A14",
      "imagem_original": "https://animefire.plus/img/animes/kami-no-tou-ouji-no-kikan.webp",
      "imagem_pasta": "https://animefire.plus/img/animes/kami-no-tou-ouji-no-kikan/",
      "secao": "dublados,legendados,lancamentos",
      "pagina": 1,
      "total_episodios": 26,
      "link_video": "https://animefire.plus/video/kami-no-tou-ouji-no-kikan-dublado"
    },
    {
      "id": 1837,
      "nome": "Kami Nomi Zo Shiru Sekai",
      "link": "https://animefire.plus/animes/kami-nomi-zo-shiru-sekai-todos-os-episodios",
      "texto_original": "Kami Nomi Zo Shiru Sekai",
      "rating": 7.83,
      "classificacao_etaria": "A14",
      "imagem_original": "https://animefire.plus/img/animes/kami-nomi-zo-shiru-sekai.webp",
      "imagem_pasta": "https://animefire.plus/img/animes/kami-nomi-zo-shiru-sekai/",
      "secao": "legendados",
      "pagina": 96,
      "total_episodios": 12,
      "link_video": "https://animefire.plus/video/kami-nomi-zo-shiru-sekai"
    },
    {
      "id": 1838,
      "nome": "Kami nomi zo Shiru Sekai II",
      "link": "https://animefire.plus/animes/kami-nomi-zo-shiru-sekai-ii-todos-os-episodios",
      "texto_original": "Kami nomi zo Shiru Sekai II",
      "rating": 7.99,
      "classificacao_etaria": "A14",
      "imagem_original": "https://animefire.plus/img/animes/kami-nomi-zo-shiru-sekai-ii.webp",
      "imagem_pasta": "https://animefire.plus/img/animes/kami-nomi-zo-shiru-sekai-ii/",
      "secao": "legendados",
      "pagina": 74,
      "total_episodios": 12,
      "link_video": "https://animefire.plus/video/kami-nomi-zo-shiru-sekai-ii"
    },
    {
      "id": 1839,
      "nome": "Kami nomi zo Shiru Sekai: 4-nin to Idol",
      "link": "https://animefire.plus/animes/kami-nomi-zo-shiru-sekai-4-nin-to-idol-todos-os-episodios",
      "texto_original": "Kami nomi zo Shiru Sekai: 4-nin to Idol",
      "rating": 7.35,
      "classificacao_etaria": "A14",
      "imagem_original": "https://animefire.plus/img/animes/kami-nomi-zo-shiru-sekai-4-nin-to-idol.webp",
      "imagem_pasta": "https://animefire.plus/img/animes/kami-nomi-zo-shiru-sekai-4-nin-to-idol/",
      "secao": "legendados",
      "pagina": 64,
      "total_episodios": 1,
      "link_video": "https://animefire.plus/video/kami-nomi-zo-shiru-sekai-4-nin-to-idol"
    },
    {
      "id": 1840,
      "nome": "Kami nomi zo Shiru Sekai: Megami-hen",
      "link": "https://animefire.plus/animes/kami-nomi-zo-shiru-sekai-megami-hen-todos-os-episodios",
      "texto_original": "Kami nomi zo Shiru Sekai: Megami-hen",
      "rating": 8.11,
      "classificacao_etaria": "A14",
      "imagem_original": "https://animefire.plus/img/animes/kami-nomi-zo-shiru-sekai-megami-hen.webp",
      "imagem_pasta": "https://animefire.plus/img/animes/kami-nomi-zo-shiru-sekai-megami-hen/",
      "secao": "legendados",
      "pagina": 57,
      "total_episodios": 12,
      "link_video": "https://animefire.plus/video/kami-nomi-zo-shiru-sekai-megami-hen"
    },
    {
      "id": 1841,
      "nome": "Kami nomi zo Shiru Sekai: Tenri-hen",
      "link": "https://animefire.plus/animes/kami-nomi-zo-shiru-sekai-tenri-hen-todos-os-episodios",
      "texto_original": "Kami nomi zo Shiru Sekai: Tenri-hen",
      "rating": 7.75,
      "classificacao_etaria": "A14",
      "imagem_original": "https://animefire.plus/img/animes/kami-nomi-zo-shiru-sekai-tenri-hen.webp",
      "imagem_pasta": "https://animefire.plus/img/animes/kami-nomi-zo-shiru-sekai-tenri-hen/",
      "secao": "legendados",
      "pagina": 64,
      "total_episodios": 1,
      "link_video": "https://animefire.plus/video/kami-nomi-zo-shiru-sekai-tenri-hen"
    },
    {
      "id": 1842,
      "nome": "Kami wa Game ni Ueteiru. (Dublado)",
      "link": "https://animefire.plus/animes/kami-wa-game-ni-ueteiru-dublado-todos-os-episodios",
      "texto_original": "Kami wa Game ni Ueteiru. (Dublado)",
      "rating": 6.26,
      "classificacao_etaria": "A14",
      "imagem_original": "https://animefire.plus/img/animes/kami-wa-game-ni-ueteiru.webp",
      "imagem_pasta": "https://animefire.plus/img/animes/kami-wa-game-ni-ueteiru/",
      "secao": "dublados,legendados,lancamentos",
      "pagina": 3,
      "total_episodios": 13,
      "link_video": "https://animefire.plus/video/kami-wa-game-ni-ueteiru-dublado"
    },
    {
      "id": 1843,
      "nome": "Kami-tachi ni Hirowareta Otoko (Dublado)",
      "link": "https://animefire.plus/animes/kami-tachi-ni-hirowareta-otoko-dublado-todos-os-episodios",
      "texto_original": "Kami-tachi ni Hirowareta Otoko (Dublado)",
      "rating": 6.98,
      "classificacao_etaria": "A14",
      "imagem_original": "https://animefire.plus/img/animes/kami-tachi-ni-hirowareta-otoko.webp",
      "imagem_pasta": "https://animefire.plus/img/animes/kami-tachi-ni-hirowareta-otoko/",
      "secao": "dublados,legendados",
      "pagina": 5,
      "total_episodios": 12,
      "link_video": "https://animefire.plus/video/kami-tachi-ni-hirowareta-otoko-dublado"
    },
    {
      "id": 1844,
      "nome": "Kami-tachi ni Hirowareta Otoko 2nd Season",
      "link": "https://animefire.plus/animes/kami-tachi-ni-hirowareta-otoko-2nd-season-todos-os-episodios",
      "texto_original": "Kami-tachi ni Hirowareta Otoko 2nd Season",
      "rating": 6.81,
      "classificacao_etaria": "A14",
      "imagem_original": "https://animefire.plus/img/animes/kami-tachi-ni-hirowareta-otoko-2nd-season.webp",
      "imagem_pasta": "https://animefire.plus/img/animes/kami-tachi-ni-hirowareta-otoko-2nd-season/",
      "secao": "legendados",
      "pagina": 28,
      "total_episodios": 12,
      "link_video": "https://animefire.plus/video/kami-tachi-ni-hirowareta-otoko-2nd-season"
    },
    {
      "id": 1845,
      "nome": "Kami-tachi ni Hirowareta Otoko 2nd Season (Dublado)",
      "link": "https://animefire.plus/animes/kami-tachi-ni-hirowareta-otoko-2-dublado-todos-os-episodios",
      "texto_original": "Kami-tachi ni Hirowareta Otoko 2nd Season (Dublado)",
      "rating": 6.81,
      "classificacao_etaria": "A14",
      "imagem_original": "https://animefire.plus/img/animes/kami-tachi-ni-hirowareta-otoko-2.webp",
      "imagem_pasta": "https://animefire.plus/img/animes/kami-tachi-ni-hirowareta-otoko-2/",
      "secao": "dublados",
      "pagina": 5,
      "total_episodios": 12,
      "link_video": "https://animefire.plus/video/kami-tachi-ni-hirowareta-otoko-2-dublado"
    }
  ],
  "pagination": {
    "current_page": 59,
    "per_page": 20,
    "total_items": 2988,
    "total_pages": 150,
    "has_next": true,
    "has_prev": true
  }
}
