{
  "message": "Animes com classificação etária: A14",
  "age_rating": "A14",
  "data": [
    {
      "id": 293,
      "nome": "B-Project: Zecchou*Emotion",
      "link": "https://animefire.plus/animes/b-project-zecchou-emotion-todos-os-episodios",
      "texto_original": "B-Project: Zecchou*Emotion",
      "rating": 6.71,
      "classificacao_etaria": "A14",
      "imagem_original": "https://animefire.plus/img/animes/b-project-zecchou-emotion.webp",
      "imagem_pasta": "https://animefire.plus/img/animes/b-project-zecchou-emotion/",
      "secao": "legendados",
      "pagina": 115,
      "total_episodios": 12,
      "link_video": "https://animefire.plus/video/b-project-zecchou-emotion"
    },
    {
      "id": 296,
      "nome": "Babanbabanban Vampire",
      "link": "https://animefire.plus/animes/babanbabanban-vampire-todos-os-episodios",
      "texto_original": "Babanbabanban Vampire",
      "rating": null,
      "classificacao_etaria": "A14",
      "imagem_original": "https://animefire.plus/img/animes/babanbabanban-vampire.webp",
      "imagem_pasta": "https://animefire.plus/img/animes/babanbabanban-vampire/",
      "secao": "legendados",
      "pagina": 7,
      "total_episodios": 12,
      "link_video": "https://animefire.plus/video/babanbabanban-vampire"
    },
    {
      "id": 298,
      "nome": "Baby Steps",
      "link": "https://animefire.plus/animes/baby-steps-todos-os-episodios",
      "texto_original": "Baby Steps",
      "rating": 7.92,
      "classificacao_etaria": "A14",
      "imagem_original": "https://animefire.plus/img/animes/baby-steps.webp",
      "imagem_pasta": "https://animefire.plus/img/animes/baby-steps/",
      "secao": "legendados",
      "pagina": 145,
      "total_episodios": 25,
      "link_video": "https://animefire.plus/video/baby-steps"
    },
    {
      "id": 299,
      "nome": "Baby Steps 2nd Season",
      "link": "https://animefire.plus/animes/baby-steps-2nd-season-todos-os-episodios",
      "texto_original": "Baby Steps 2nd Season",
      "rating": 8.12,
      "classificacao_etaria": "A14",
      "imagem_original": "https://animefire.plus/img/animes/baby-steps-2nd-season.webp",
      "imagem_pasta": "https://animefire.plus/img/animes/baby-steps-2nd-season/",
      "secao": "legendados",
      "pagina": 90,
      "total_episodios": 4,
      "link_video": "https://animefire.plus/video/baby-steps-2nd-season"
    },
    {
      "id": 305,
      "nome": "Baka to Test to Shoukanjuu",
      "link": "https://animefire.plus/animes/baka-to-test-to-shoukanjuu-todos-os-episodios",
      "texto_original": "Baka to Test to Shoukanjuu",
      "rating": 7.72,
      "classificacao_etaria": "A14",
      "imagem_original": "https://animefire.plus/img/animes/baka-to-test-to-shoukanjuu.webp",
      "imagem_pasta": "https://animefire.plus/img/animes/baka-to-test-to-shoukanjuu/",
      "secao": "legendados",
      "pagina": 167,
      "total_episodios": 13,
      "link_video": "https://animefire.plus/video/baka-to-test-to-shoukanjuu"
    },
    {
      "id": 306,
      "nome": "Baka to Test to Shoukanjuu Mini Anime",
      "link": "https://animefire.plus/animes/baka-to-test-to-shoukanjuu-mini-anime-todos-os-episodios",
      "texto_original": "Baka to Test to Shoukanjuu Mini Anime",
      "rating": 6.75,
      "classificacao_etaria": "A14",
      "imagem_original": "https://animefire.plus/img/animes/baka-to-test-to-shoukanjuu-mini-anime.webp",
      "imagem_pasta": "https://animefire.plus/img/animes/baka-to-test-to-shoukanjuu-mini-anime/",
      "secao": "legendados",
      "pagina": 85,
      "total_episodios": 1,
      "link_video": "https://animefire.plus/video/baka-to-test-to-shoukanjuu-mini-anime"
    },
    {
      "id": 307,
      "nome": "Baka to Test to Shoukanjuu Ni!",
      "link": "https://animefire.plus/animes/baka-to-test-to-shoukanjuu-ni-todos-os-episodios",
      "texto_original": "Baka to Test to Shoukanjuu Ni!",
      "rating": 7.87,
      "classificacao_etaria": "A14",
      "imagem_original": "https://animefire.plus/img/animes/baka-to-test-to-shoukanjuu-ni.webp",
      "imagem_pasta": "https://animefire.plus/img/animes/baka-to-test-to-shoukanjuu-ni/",
      "secao": "legendados",
      "pagina": 142,
      "total_episodios": 12,
      "link_video": "https://animefire.plus/video/baka-to-test-to-shoukanjuu-ni"
    },
    {
      "id": 312,
      "nome": "Bakuman.",
      "link": "https://animefire.plus/animes/bakuman-todos-os-episodios",
      "texto_original": "Bakuman.",
      "rating": 8.29,
      "classificacao_etaria": "A14",
      "imagem_original": "https://animefire.plus/img/animes/bakuman.webp",
      "imagem_pasta": "https://animefire.plus/img/animes/bakuman/",
      "secao": "legendados",
      "pagina": 160,
      "total_episodios": 25,
      "link_video": "https://animefire.plus/video/bakuman"
    },
    {
      "id": 313,
      "nome": "Bakuman. 2nd Season",
      "link": "https://animefire.plus/animes/bakuman-2nd-season-todos-os-episodios",
      "texto_original": "Bakuman. 2nd Season",
      "rating": 8.45,
      "classificacao_etaria": "A14",
      "imagem_original": "https://animefire.plus/img/animes/bakuman-2nd-season.webp",
      "imagem_pasta": "https://animefire.plus/img/animes/bakuman-2nd-season/",
      "secao": "legendados",
      "pagina": 161,
      "total_episodios": 25,
      "link_video": "https://animefire.plus/video/bakuman-2nd-season"
    },
    {
      "id": 314,
      "nome": "Bakuman. 3rd Season",
      "link": "https://animefire.plus/animes/bakuman-3rd-season-todos-os-episodios",
      "texto_original": "Bakuman. 3rd Season",
      "rating": 8.63,
      "classificacao_etaria": "A14",
      "imagem_original": "https://animefire.plus/img/animes/bakuman-3rd-season.webp",
      "imagem_pasta": "https://animefire.plus/img/animes/bakuman-3rd-season/",
      "secao": "legendados",
      "pagina": 123,
      "total_episodios": 25,
      "link_video": "https://animefire.plus/video/bakuman-3rd-season"
    },
    {
      "id": 315,
      "nome": "Bakumatsu",
      "link": "https://animefire.plus/animes/bakumatsu-todos-os-episodios",
      "texto_original": "Bakumatsu",
      "rating": 5.89,
      "classificacao_etaria": "A14",
      "imagem_original": "https://animefire.plus/img/animes/bakumatsu.webp",
      "imagem_pasta": "https://animefire.plus/img/animes/bakumatsu/",
      "secao": "legendados",
      "pagina": 152,
      "total_episodios": 12,
      "link_video": "https://animefire.plus/video/bakumatsu"
    },
    {
      "id": 316,
      "nome": "Bakumatsu Gijinden Roman",
      "link": "https://animefire.plus/animes/bakumatsu-gijinden-roman-todos-os-episodios",
      "texto_original": "Bakumatsu Gijinden Roman",
      "rating": 6.18,
      "classificacao_etaria": "A14",
      "imagem_original": "https://animefire.plus/img/animes/bakumatsu-gijinden-roman.webp",
      "imagem_pasta": "https://animefire.plus/img/animes/bakumatsu-gijinden-roman/",
      "secao": "legendados",
      "pagina": 102,
      "total_episodios": 0,
      "link_video": "https://animefire.plus/video/bakumatsu-gijinden-roman"
    },
    {
      "id": 317,
      "nome": "Bakumatsu Kikansetsu Irohanihoheto",
      "link": "https://animefire.plus/animes/bakumatsu-kikansetsu-irohanihoheto-todos-os-episodios",
      "texto_original": "Bakumatsu Kikansetsu Irohanihoheto",
      "rating": 7.17,
      "classificacao_etaria": "A14",
      "imagem_original": "https://animefire.plus/img/animes/bakumatsu-kikansetsu-irohanihoheto.webp",
      "imagem_pasta": "https://animefire.plus/img/animes/bakumatsu-kikansetsu-irohanihoheto/",
      "secao": "legendados",
      "pagina": 149,
      "total_episodios": 26,
      "link_video": "https://animefire.plus/video/bakumatsu-kikansetsu-irohanihoheto"
    },
    {
      "id": 318,
      "nome": "Bakumatsu Rock",
      "link": "https://animefire.plus/animes/bakumatsu-rock-todos-os-episodios",
      "texto_original": "Bakumatsu Rock",
      "rating": 6.12,
      "classificacao_etaria": "A14",
      "imagem_original": "https://animefire.plus/img/animes/bakumatsu-rock.webp",
      "imagem_pasta": "https://animefire.plus/img/animes/bakumatsu-rock/",
      "secao": "legendados",
      "pagina": 156,
      "total_episodios": 3,
      "link_video": "https://animefire.plus/video/bakumatsu-rock"
    },
    {
      "id": 319,
      "nome": "Bakumatsu: Crisis",
      "link": "https://animefire.plus/animes/bakumatsu-crisis-todos-os-episodios",
      "texto_original": "Bakumatsu: Crisis",
      "rating": 5.69,
      "classificacao_etaria": "A14",
      "imagem_original": "https://animefire.plus/img/animes/bakumatsu-crisis.webp",
      "imagem_pasta": "https://animefire.plus/img/animes/bakumatsu-crisis/",
      "secao": "legendados",
      "pagina": 132,
      "total_episodios": 6,
      "link_video": "https://animefire.plus/video/bakumatsu-crisis"
    },
    {
      "id": 320,
      "nome": "Bakuon!!",
      "link": "https://animefire.plus/animes/bakuon-todos-os-episodios",
      "texto_original": "Bakuon!!",
      "rating": 6.51,
      "classificacao_etaria": "A14",
      "imagem_original": "https://animefire.plus/img/animes/bakuon.webp",
      "imagem_pasta": "https://animefire.plus/img/animes/bakuon/",
      "secao": "legendados",
      "pagina": 103,
      "total_episodios": 12,
      "link_video": "https://animefire.plus/video/bakuon"
    },
    {
      "id": 322,
      "nome": "Bakuretsu Tenshi",
      "link": "https://animefire.plus/animes/bakuretsu-tenshi-todos-os-episodios",
      "texto_original": "Bakuretsu Tenshi",
      "rating": 6.88,
      "classificacao_etaria": "A14",
      "imagem_original": "https://animefire.plus/img/animes/bakuretsu-tenshi.webp",
      "imagem_pasta": "https://animefire.plus/img/animes/bakuretsu-tenshi/",
      "secao": "legendados",
      "pagina": 172,
      "total_episodios": 24,
      "link_video": "https://animefire.plus/video/bakuretsu-tenshi"
    },
    {
      "id": 326,
      "nome": "Bakuten!!",
      "link": "https://animefire.plus/animes/bakuten-todos-os-episodios",
      "texto_original": "Bakuten!!",
      "rating": 7.49,
      "classificacao_etaria": "A14",
      "imagem_original": "https://animefire.plus/img/animes/bakuten.webp",
      "imagem_pasta": "https://animefire.plus/img/animes/bakuten/",
      "secao": "legendados",
      "pagina": 46,
      "total_episodios": 12,
      "link_video": "https://animefire.plus/video/bakuten"
    },
    {
      "id": 328,
      "nome": "Ballpark de Tsukamaete!",
      "link": "https://animefire.plus/animes/ballpark-de-tsukamaete-todos-os-episodios",
      "texto_original": "Ballpark de Tsukamaete!",
      "rating": 7.16,
      "classificacao_etaria": "A14",
      "imagem_original": "https://animefire.plus/img/animes/ballpark-de-tsukamaete.webp",
      "imagem_pasta": "https://animefire.plus/img/animes/ballpark-de-tsukamaete/",
      "secao": "legendados",
      "pagina": 4,
      "total_episodios": 12,
      "link_video": "https://animefire.plus/video/ballpark-de-tsukamaete"
    },
    {
      "id": 329,
      "nome": "Ballroom e Youkoso",
      "link": "https://animefire.plus/animes/ballroom-e-youkoso-todos-os-episodios",
      "texto_original": "Ballroom e Youkoso",
      "rating": 8.26,
      "classificacao_etaria": "A14",
      "imagem_original": "https://animefire.plus/img/animes/ballroom-e-youkoso.webp",
      "imagem_pasta": "https://animefire.plus/img/animes/ballroom-e-youkoso/",
      "secao": "legendados",
      "pagina": 80,
      "total_episodios": 0,
      "link_video": "https://animefire.plus/video/ballroom-e-youkoso"
    }
  ],
  "pagination": {
    "current_page": 11,
    "per_page": 20,
    "total_items": 2988,
    "total_pages": 150,
    "has_next": true,
    "has_prev": true
  }
}
