{
  "message": "Animes com classificação etária: A14",
  "age_rating": "A14",
  "data": [
    {
      "id": 3535,
      "nome": "Simoun",
      "link": "https://animefire.plus/animes/simoun-todos-os-episodios",
      "texto_original": "Simoun",
      "rating": 7.5,
      "classificacao_etaria": "A14",
      "imagem_original": "https://animefire.plus/img/animes/simoun.webp",
      "imagem_pasta": "https://animefire.plus/img/animes/simoun/",
      "secao": "legendados",
      "pagina": 97,
      "total_episodios": 0,
      "link_video": "https://animefire.plus/video/simoun"
    },
    {
      "id": 3538,
      "nome": "Sister Princess",
      "link": "https://animefire.plus/animes/sister-princess-todos-os-episodios",
      "texto_original": "Sister Princess",
      "rating": 6.5,
      "classificacao_etaria": "A14",
      "imagem_original": "https://animefire.plus/img/animes/sister-princess.webp",
      "imagem_pasta": "https://animefire.plus/img/animes/sister-princess/",
      "secao": "legendados",
      "pagina": 140,
      "total_episodios": 26,
      "link_video": "https://animefire.plus/video/sister-princess"
    },
    {
      "id": 3539,
      "nome": "Sister Princess: Re Pure",
      "link": "https://animefire.plus/animes/sister-princess-re-pure-todos-os-episodios",
      "texto_original": "Sister Princess: Re Pure",
      "rating": 6.31,
      "classificacao_etaria": "A14",
      "imagem_original": "https://animefire.plus/img/animes/sister-princess-re-pure.webp",
      "imagem_pasta": "https://animefire.plus/img/animes/sister-princess-re-pure/",
      "secao": "legendados",
      "pagina": 150,
      "total_episodios": 13,
      "link_video": "https://animefire.plus/video/sister-princess-re-pure"
    },
    {
      "id": 3540,
      "nome": "SK∞ (Dublado)",
      "link": "https://animefire.plus/animes/sk-dublado-todos-os-episodios",
      "texto_original": "SK∞ (Dublado)",
      "rating": 8,
      "classificacao_etaria": "A14",
      "imagem_original": "https://animefire.plus/img/animes/sk.webp",
      "imagem_pasta": "https://animefire.plus/img/animes/sk/",
      "secao": "dublados",
      "pagina": 15,
      "total_episodios": 12,
      "link_video": "https://animefire.plus/video/sk-dublado"
    },
    {
      "id": 3541,
      "nome": "Skate-Leading☆Stars",
      "link": "https://animefire.plus/animes/skate-leading-stars-todos-os-episodios",
      "texto_original": "Skate-Leading☆Stars",
      "rating": 6.45,
      "classificacao_etaria": "A14",
      "imagem_original": "https://animefire.plus/img/animes/skate-leading-stars.webp",
      "imagem_pasta": "https://animefire.plus/img/animes/skate-leading-stars/",
      "secao": "legendados",
      "pagina": 49,
      "total_episodios": 12,
      "link_video": "https://animefire.plus/video/skate-leading-stars"
    },
    {
      "id": 3542,
      "nome": "SKET Dance",
      "link": "https://animefire.plus/animes/sket-dance-todos-os-episodios",
      "texto_original": "SKET Dance",
      "rating": 8.28,
      "classificacao_etaria": "A14",
      "imagem_original": "https://animefire.plus/img/animes/sket-dance.webp",
      "imagem_pasta": "https://animefire.plus/img/animes/sket-dance/",
      "secao": "legendados",
      "pagina": 75,
      "total_episodios": 77,
      "link_video": "https://animefire.plus/video/sket-dance"
    },
    {
      "id": 3543,
      "nome": "Skip Beat! (Dublado)",
      "link": "https://animefire.plus/animes/skip-beat-dublado-todos-os-episodios",
      "texto_original": "Skip Beat! (Dublado)",
      "rating": 8.08,
      "classificacao_etaria": "A14",
      "imagem_original": "https://animefire.plus/img/animes/skip-beat.webp",
      "imagem_pasta": "https://animefire.plus/img/animes/skip-beat/",
      "secao": "dublados,legendados",
      "pagina": 3,
      "total_episodios": 25,
      "link_video": "https://animefire.plus/video/skip-beat-dublado"
    },
    {
      "id": 3544,
      "nome": "Skip to Loafer (Dublado)",
      "link": "https://animefire.plus/animes/skip-to-loafer-dublado-todos-os-episodios",
      "texto_original": "Skip to Loafer (Dublado)",
      "rating": 8.11,
      "classificacao_etaria": "A14",
      "imagem_original": "https://animefire.plus/img/animes/skip-to-loafer.webp",
      "imagem_pasta": "https://animefire.plus/img/animes/skip-to-loafer/",
      "secao": "dublados,legendados",
      "pagina": 7,
      "total_episodios": 12,
      "link_video": "https://animefire.plus/video/skip-to-loafer-dublado"
    },
    {
      "id": 3545,
      "nome": "Skull Man",
      "link": "https://animefire.plus/animes/skull-man-todos-os-episodios",
      "texto_original": "Skull Man",
      "rating": 6.71,
      "classificacao_etaria": "A14",
      "imagem_original": "https://animefire.plus/img/animes/skull-man.webp",
      "imagem_pasta": "https://animefire.plus/img/animes/skull-man/",
      "secao": "legendados",
      "pagina": 138,
      "total_episodios": 13,
      "link_video": "https://animefire.plus/video/skull-man"
    },
    {
      "id": 3546,
      "nome": "Sky Girls",
      "link": "https://animefire.plus/animes/sky-girls-todos-os-episodios",
      "texto_original": "Sky Girls",
      "rating": 7.07,
      "classificacao_etaria": "A14",
      "imagem_original": "https://animefire.plus/img/animes/sky-girls.webp",
      "imagem_pasta": "https://animefire.plus/img/animes/sky-girls/",
      "secao": "legendados",
      "pagina": 178,
      "total_episodios": 26,
      "link_video": "https://animefire.plus/video/sky-girls"
    },
    {
      "id": 3547,
      "nome": "Slam Dunk",
      "link": "https://animefire.plus/animes/slam-dunk-todos-os-episodios",
      "texto_original": "Slam Dunk",
      "rating": 8.53,
      "classificacao_etaria": "A14",
      "imagem_original": "https://animefire.plus/img/animes/slam-dunk.webp",
      "imagem_pasta": "https://animefire.plus/img/animes/slam-dunk/",
      "secao": "legendados",
      "pagina": 73,
      "total_episodios": 101,
      "link_video": "https://animefire.plus/video/slam-dunk"
    },
    {
      "id": 3548,
      "nome": "Slayers (Dublado)",
      "link": "https://animefire.plus/animes/slayers-dublado-todos-os-episodios",
      "texto_original": "Slayers (Dublado)",
      "rating": 7.75,
      "classificacao_etaria": "A14",
      "imagem_original": "https://animefire.plus/img/animes/slayers.webp",
      "imagem_pasta": "https://animefire.plus/img/animes/slayers/",
      "secao": "dublados,legendados",
      "pagina": 17,
      "total_episodios": 26,
      "link_video": "https://animefire.plus/video/slayers-dublado"
    },
    {
      "id": 3549,
      "nome": "Slayers Evolution-R",
      "link": "https://animefire.plus/animes/slayers-evolution-r-todos-os-episodios",
      "texto_original": "Slayers Evolution-R",
      "rating": 7.49,
      "classificacao_etaria": "A14",
      "imagem_original": "https://animefire.plus/img/animes/slayers-evolution-r.webp",
      "imagem_pasta": "https://animefire.plus/img/animes/slayers-evolution-r/",
      "secao": "legendados",
      "pagina": 173,
      "total_episodios": 0,
      "link_video": "https://animefire.plus/video/slayers-evolution-r"
    },
    {
      "id": 3550,
      "nome": "Slayers Excellent",
      "link": "https://animefire.plus/animes/slayers-excellent-todos-os-episodios",
      "texto_original": "Slayers Excellent",
      "rating": 7.33,
      "classificacao_etaria": "A14",
      "imagem_original": "https://animefire.plus/img/animes/slayers-excellent.webp",
      "imagem_pasta": "https://animefire.plus/img/animes/slayers-excellent/",
      "secao": "legendados",
      "pagina": 45,
      "total_episodios": 3,
      "link_video": "https://animefire.plus/video/slayers-excellent"
    },
    {
      "id": 3551,
      "nome": "Slayers Next",
      "link": "https://animefire.plus/animes/slayers-next-todos-os-episodios",
      "texto_original": "Slayers Next",
      "rating": 8.1,
      "classificacao_etaria": "A14",
      "imagem_original": "https://animefire.plus/img/animes/slayers-next.webp",
      "imagem_pasta": "https://animefire.plus/img/animes/slayers-next/",
      "secao": "legendados",
      "pagina": 171,
      "total_episodios": 0,
      "link_video": "https://animefire.plus/video/slayers-next"
    },
    {
      "id": 3552,
      "nome": "Slayers Revolution",
      "link": "https://animefire.plus/animes/slayers-revolution-todos-os-episodios",
      "texto_original": "Slayers Revolution",
      "rating": 7.34,
      "classificacao_etaria": "A14",
      "imagem_original": "https://animefire.plus/img/animes/slayers-revolution.webp",
      "imagem_pasta": "https://animefire.plus/img/animes/slayers-revolution/",
      "secao": "legendados",
      "pagina": 166,
      "total_episodios": 0,
      "link_video": "https://animefire.plus/video/slayers-revolution"
    },
    {
      "id": 3553,
      "nome": "Slayers Special",
      "link": "https://animefire.plus/animes/slayers-special-todos-os-episodios",
      "texto_original": "Slayers Special",
      "rating": 7.37,
      "classificacao_etaria": "A14",
      "imagem_original": "https://animefire.plus/img/animes/slayers-special.webp",
      "imagem_pasta": "https://animefire.plus/img/animes/slayers-special/",
      "secao": "legendados",
      "pagina": 45,
      "total_episodios": 3,
      "link_video": "https://animefire.plus/video/slayers-special"
    },
    {
      "id": 3554,
      "nome": "Slayers Try",
      "link": "https://animefire.plus/animes/slayers-try-todos-os-episodios",
      "texto_original": "Slayers Try",
      "rating": 7.89,
      "classificacao_etaria": "A14",
      "imagem_original": "https://animefire.plus/img/animes/slayers-try.webp",
      "imagem_pasta": "https://animefire.plus/img/animes/slayers-try/",
      "secao": "legendados",
      "pagina": 136,
      "total_episodios": 0,
      "link_video": "https://animefire.plus/video/slayers-try"
    },
    {
      "id": 3555,
      "nome": "Slime Taoshite 300-nen, Shiranai Uchi ni Level Max ni Nattemashita (Dublado)",
      "link": "https://animefire.plus/animes/slime-taoshite-300-nen-shiranai-uchi-ni-level-max-ni-nattemashita-dublado-todos-os-episodios",
      "texto_original": "Slime Taoshite 300-nen, Shiranai Uchi ni Level Max ni Nattemashita (Dublado)",
      "rating": 6.9,
      "classificacao_etaria": "A14",
      "imagem_original": "https://animefire.plus/img/animes/slime-taoshite-300-nen-shiranai-uchi-ni-level-max-ni-nattemashita.webp",
      "imagem_pasta": "https://animefire.plus/img/animes/slime-taoshite-300-nen-shiranai-uchi-ni-level-max-ni-nattemashita/",
      "secao": "dublados,legendados",
      "pagina": 17,
      "total_episodios": 12,
      "link_video": "https://animefire.plus/video/slime-taoshite-300-nen-shiranai-uchi-ni-level-max-ni-nattemashita-dublado"
    },
    {
      "id": 3556,
      "nome": "Slime Taoshite 300-nen, Shiranai Uchi ni Level Max ni Nattemashita: Sono Ni",
      "link": "https://animefire.plus/animes/slime-taoshite-300-nen-shiranai-uchi-ni-level-max-ni-nattemashita-sono-ni-todos-os-episodios",
      "texto_original": "Slime Taoshite 300-nen, Shiranai Uchi ni Level Max ni Nattemashita: Sono Ni",
      "rating": 6.69,
      "classificacao_etaria": "A14",
      "imagem_original": "https://animefire.plus/img/animes/slime-taoshite-300-nen-shiranai-uchi-ni-level-max-ni-nattemashita-sono-ni.webp",
      "imagem_pasta": "https://animefire.plus/img/animes/slime-taoshite-300-nen-shiranai-uchi-ni-level-max-ni-nattemashita-sono-ni/",
      "secao": "legendados",
      "pagina": 6,
      "total_episodios": 12,
      "link_video": "https://animefire.plus/video/slime-taoshite-300-nen-shiranai-uchi-ni-level-max-ni-nattemashita-sono-ni"
    }
  ],
  "pagination": {
    "current_page": 119,
    "per_page": 20,
    "total_items": 2988,
    "total_pages": 150,
    "has_next": true,
    "has_prev": true
  }
}
