{
  "message": "Animes com classificação etária: A14",
  "age_rating": "A14",
  "data": [
    {
      "id": 2559,
      "nome": "Mobile Suit Gundam: Twilight Axis",
      "link": "https://animefire.plus/animes/mobile-suit-gundam-twilight-axis-todos-os-episodios",
      "texto_original": "Mobile Suit Gundam: Twilight Axis",
      "rating": 5.02,
      "classificacao_etaria": "A14",
      "imagem_original": "https://animefire.plus/img/animes/mobile-suit-gundam-twilight-axis.webp",
      "imagem_pasta": "https://animefire.plus/img/animes/mobile-suit-gundam-twilight-axis/",
      "secao": "legendados",
      "pagina": 149,
      "total_episodios": 9,
      "link_video": "https://animefire.plus/video/mobile-suit-gundam-twilight-axis"
    },
    {
      "id": 2560,
      "nome": "Mobile Suit Victory Gundam",
      "link": "https://animefire.plus/animes/mobile-suit-victory-gundam-todos-os-episodios",
      "texto_original": "Mobile Suit Victory Gundam",
      "rating": 6.76,
      "classificacao_etaria": "A14",
      "imagem_original": "https://animefire.plus/img/animes/mobile-suit-victory-gundam.webp",
      "imagem_pasta": "https://animefire.plus/img/animes/mobile-suit-victory-gundam/",
      "secao": "legendados",
      "pagina": 55,
      "total_episodios": 51,
      "link_video": "https://animefire.plus/video/mobile-suit-victory-gundam"
    },
    {
      "id": 2561,
      "nome": "Mobile Suit Zeta Gundam",
      "link": "https://animefire.plus/animes/mobile-suit-zeta-gundam-todos-os-episodios",
      "texto_original": "Mobile Suit Zeta Gundam",
      "rating": 7.93,
      "classificacao_etaria": "A14",
      "imagem_original": "https://animefire.plus/img/animes/mobile-suit-zeta-gundam.webp",
      "imagem_pasta": "https://animefire.plus/img/animes/mobile-suit-zeta-gundam/",
      "secao": "legendados",
      "pagina": 55,
      "total_episodios": 50,
      "link_video": "https://animefire.plus/video/mobile-suit-zeta-gundam"
    },
    {
      "id": 2564,
      "nome": "Momentary Lily",
      "link": "https://animefire.plus/animes/momentary-lily-todos-os-episodios",
      "texto_original": "Momentary Lily",
      "rating": 5.92,
      "classificacao_etaria": "A14",
      "imagem_original": "https://animefire.plus/img/animes/momentary-lily.webp",
      "imagem_pasta": "https://animefire.plus/img/animes/momentary-lily/",
      "secao": "legendados",
      "pagina": 7,
      "total_episodios": 14,
      "link_video": "https://animefire.plus/video/momentary-lily"
    },
    {
      "id": 2565,
      "nome": "Momo Kyun Sword",
      "link": "https://animefire.plus/animes/momo-kyun-sword-todos-os-episodios",
      "texto_original": "Momo Kyun Sword",
      "rating": 5.65,
      "classificacao_etaria": "A14",
      "imagem_original": "https://animefire.plus/img/animes/momo-kyun-sword.webp",
      "imagem_pasta": "https://animefire.plus/img/animes/momo-kyun-sword/",
      "secao": "legendados",
      "pagina": 145,
      "total_episodios": 4,
      "link_video": "https://animefire.plus/video/momo-kyun-sword"
    },
    {
      "id": 2566,
      "nome": "Momochi-san Chi no Ayakashi Ouji",
      "link": "https://animefire.plus/animes/momochi-san-chi-no-ayakashi-ouji-todos-os-episodios",
      "texto_original": "Momochi-san Chi no Ayakashi Ouji",
      "rating": 6.53,
      "classificacao_etaria": "A14",
      "imagem_original": "https://animefire.plus/img/animes/momochi-san-chi-no-ayakashi-ouji.webp",
      "imagem_pasta": "https://animefire.plus/img/animes/momochi-san-chi-no-ayakashi-ouji/",
      "secao": "legendados",
      "pagina": 17,
      "total_episodios": 12,
      "link_video": "https://animefire.plus/video/momochi-san-chi-no-ayakashi-ouji"
    },
    {
      "id": 2567,
      "nome": "Momokuri",
      "link": "https://animefire.plus/animes/momokuri-todos-os-episodios",
      "texto_original": "Momokuri",
      "rating": 7.2,
      "classificacao_etaria": "A14",
      "imagem_original": "https://animefire.plus/img/animes/momokuri.webp",
      "imagem_pasta": "https://animefire.plus/img/animes/momokuri/",
      "secao": "legendados",
      "pagina": 96,
      "total_episodios": 0,
      "link_video": "https://animefire.plus/video/momokuri"
    },
    {
      "id": 2568,
      "nome": "Mon-Soni! D'Artagnan no Idol Sengen",
      "link": "https://animefire.plus/animes/mon-soni-d-artagnan-no-idol-sengen-todos-os-episodios",
      "texto_original": "Mon-Soni! D'Artagnan no Idol Sengen",
      "rating": 5.91,
      "classificacao_etaria": "A14",
      "imagem_original": "https://animefire.plus/img/animes/mon-soni-d-artagnan-no-idol-sengen.webp",
      "imagem_pasta": "https://animefire.plus/img/animes/mon-soni-d-artagnan-no-idol-sengen/",
      "secao": "legendados",
      "pagina": 63,
      "total_episodios": 6,
      "link_video": "https://animefire.plus/video/mon-soni-d-artagnan-no-idol-sengen"
    },
    {
      "id": 2569,
      "nome": "Mon-Soni!: Senritsu no Lucifer, Tada Hitotsu no Hajimari no Uta",
      "link": "https://animefire.plus/animes/mon-soni-senritsu-no-lucifer-tada-hitotsu-no-hajimari-no-uta-todos-os-episodios",
      "texto_original": "Mon-Soni!: Senritsu no Lucifer, Tada Hitotsu no Hajimari no Uta",
      "rating": 6.31,
      "classificacao_etaria": "A14",
      "imagem_original": "https://animefire.plus/img/animes/mon-soni-senritsu-no-lucifer-tada-hitotsu-no-hajimari-no-uta.webp",
      "imagem_pasta": "https://animefire.plus/img/animes/mon-soni-senritsu-no-lucifer-tada-hitotsu-no-hajimari-no-uta/",
      "secao": "legendados",
      "pagina": 84,
      "total_episodios": 1,
      "link_video": "https://animefire.plus/video/mon-soni-senritsu-no-lucifer-tada-hitotsu-no-hajimari-no-uta"
    },
    {
      "id": 2570,
      "nome": "Mondaiji-tachi ga Isekai kara Kuru Sou Desu yo?",
      "link": "https://animefire.plus/animes/mondaiji-tachi-ga-isekai-kara-kuru-sou-desu-yo-todos-os-episodios",
      "texto_original": "Mondaiji-tachi ga Isekai kara Kuru Sou Desu yo?",
      "rating": 7.73,
      "classificacao_etaria": "A14",
      "imagem_original": "https://animefire.plus/img/animes/mondaiji-tachi-ga-isekai-kara-kuru-sou-desu-yo.webp",
      "imagem_pasta": "https://animefire.plus/img/animes/mondaiji-tachi-ga-isekai-kara-kuru-sou-desu-yo/",
      "secao": "legendados",
      "pagina": 126,
      "total_episodios": 1,
      "link_video": "https://animefire.plus/video/mondaiji-tachi-ga-isekai-kara-kuru-sou-desu-yo"
    },
    {
      "id": 2572,
      "nome": "Mono",
      "link": "https://animefire.plus/animes/mono-todos-os-episodios",
      "texto_original": "Mono",
      "rating": 7.74,
      "classificacao_etaria": "A14",
      "imagem_original": "https://animefire.plus/img/animes/mono.webp",
      "imagem_pasta": "https://animefire.plus/img/animes/mono/",
      "secao": "legendados",
      "pagina": 5,
      "total_episodios": 12,
      "link_video": "https://animefire.plus/video/mono"
    },
    {
      "id": 2573,
      "nome": "Monochrome Factor",
      "link": "https://animefire.plus/animes/monochrome-factor-todos-os-episodios",
      "texto_original": "Monochrome Factor",
      "rating": 7.07,
      "classificacao_etaria": "A14",
      "imagem_original": "https://animefire.plus/img/animes/monochrome-factor.webp",
      "imagem_pasta": "https://animefire.plus/img/animes/monochrome-factor/",
      "secao": "legendados",
      "pagina": 176,
      "total_episodios": 24,
      "link_video": "https://animefire.plus/video/monochrome-factor"
    },
    {
      "id": 2576,
      "nome": "Mononogatari",
      "link": "https://animefire.plus/animes/mononogatari-todos-os-episodios",
      "texto_original": "Mononogatari",
      "rating": 7.25,
      "classificacao_etaria": "A14",
      "imagem_original": "https://animefire.plus/img/animes/mononogatari.webp",
      "imagem_pasta": "https://animefire.plus/img/animes/mononogatari/",
      "secao": "legendados,lancamentos",
      "pagina": 25,
      "total_episodios": 24,
      "link_video": "https://animefire.plus/video/mononogatari"
    },
    {
      "id": 2577,
      "nome": "Mononogatari 2nd Season",
      "link": "https://animefire.plus/animes/mononogatari-2nd-season-todos-os-episodios",
      "texto_original": "Mononogatari 2nd Season",
      "rating": 7.33,
      "classificacao_etaria": "A14",
      "imagem_original": "https://animefire.plus/img/animes/mononogatari-2nd-season.jpg",
      "imagem_pasta": "https://animefire.plus/img/animes/mononogatari-2nd-season/",
      "secao": "legendados",
      "pagina": 22,
      "total_episodios": 12,
      "link_video": "https://animefire.plus/video/mononogatari-2nd-season"
    },
    {
      "id": 2580,
      "nome": "Monster Farm: Enbanseki no Himitsu",
      "link": "https://animefire.plus/animes/monster-farm-enbanseki-no-himitsu-todos-os-episodios",
      "texto_original": "Monster Farm: Enbanseki no Himitsu",
      "rating": 6.88,
      "classificacao_etaria": "A14",
      "imagem_original": "https://animefire.plus/img/animes/monster-farm-enbanseki-no-himitsu.webp",
      "imagem_pasta": "https://animefire.plus/img/animes/monster-farm-enbanseki-no-himitsu/",
      "secao": "legendados",
      "pagina": 160,
      "total_episodios": 17,
      "link_video": "https://animefire.plus/video/monster-farm-enbanseki-no-himitsu"
    },
    {
      "id": 2581,
      "nome": "Monster Hunter Stories: Ride On",
      "link": "https://animefire.plus/animes/monster-hunter-stories-ride-on-todos-os-episodios",
      "texto_original": "Monster Hunter Stories: Ride On",
      "rating": 6.31,
      "classificacao_etaria": "A14",
      "imagem_original": "https://animefire.plus/img/animes/monster-hunter-stories-ride-on.webp",
      "imagem_pasta": "https://animefire.plus/img/animes/monster-hunter-stories-ride-on/",
      "secao": "legendados",
      "pagina": 127,
      "total_episodios": 4,
      "link_video": "https://animefire.plus/video/monster-hunter-stories-ride-on"
    },
    {
      "id": 2584,
      "nome": "Monster Musume no Iru Nichijou: Hobo Mainichi ◯◯! Namappoi Douga",
      "link": "https://animefire.plus/animes/monster-musume-no-iru-nichijou-hobo-mainichi-namappoi-douga-todos-os-episodios",
      "texto_original": "Monster Musume no Iru Nichijou: Hobo Mainichi ◯◯! Namappoi Douga",
      "rating": 6.56,
      "classificacao_etaria": "A14",
      "imagem_original": "https://animefire.plus/img/animes/monster-musume-no-iru-nichijou-hobo-mainichi-namappoi-douga.webp",
      "imagem_pasta": "https://animefire.plus/img/animes/monster-musume-no-iru-nichijou-hobo-mainichi-namappoi-douga/",
      "secao": "legendados",
      "pagina": 78,
      "total_episodios": 1,
      "link_video": "https://animefire.plus/video/monster-musume-no-iru-nichijou-hobo-mainichi-namappoi-douga"
    },
    {
      "id": 2585,
      "nome": "Monster Musume no Oishasan",
      "link": "https://animefire.plus/animes/monster-musume-no-oishasan-todos-os-episodios",
      "texto_original": "Monster Musume no Oishasan",
      "rating": null,
      "classificacao_etaria": "A14",
      "imagem_original": "https://animefire.plus/img/animes/monster-musume-no-oishasan.webp",
      "imagem_pasta": "https://animefire.plus/img/animes/monster-musume-no-oishasan/",
      "secao": "legendados",
      "pagina": 58,
      "total_episodios": 12,
      "link_video": "https://animefire.plus/video/monster-musume-no-oishasan"
    },
    {
      "id": 2586,
      "nome": "Monster Strike",
      "link": "https://animefire.plus/animes/monster-strike-todos-os-episodios",
      "texto_original": "Monster Strike",
      "rating": 6.52,
      "classificacao_etaria": "A14",
      "imagem_original": "https://animefire.plus/img/animes/monster-strike.webp",
      "imagem_pasta": "https://animefire.plus/img/animes/monster-strike/",
      "secao": "legendados",
      "pagina": 64,
      "total_episodios": 51,
      "link_video": "https://animefire.plus/video/monster-strike"
    },
    {
      "id": 2587,
      "nome": "Monster Strike: Mermaid Rhapsody",
      "link": "https://animefire.plus/animes/monster-strike-mermaid-rhapsody-todos-os-episodios",
      "texto_original": "Monster Strike: Mermaid Rhapsody",
      "rating": 6.73,
      "classificacao_etaria": "A14",
      "imagem_original": "https://animefire.plus/img/animes/monster-strike-mermaid-rhapsody.webp",
      "imagem_pasta": "https://animefire.plus/img/animes/monster-strike-mermaid-rhapsody/",
      "secao": "legendados",
      "pagina": 44,
      "total_episodios": 1,
      "link_video": "https://animefire.plus/video/monster-strike-mermaid-rhapsody"
    }
  ],
  "pagination": {
    "current_page": 85,
    "per_page": 20,
    "total_items": 2988,
    "total_pages": 150,
    "has_next": true,
    "has_prev": true
  }
}
