{
  "message": "Animes com classificação etária: A14",
  "age_rating": "A14",
  "data": [
    {
      "id": 1299,
      "nome": "H2O: Footprints In The Sand",
      "link": "https://animefire.plus/animes/h2o-footprints-in-the-sand-todos-os-episodios",
      "texto_original": "H2O: Footprints In The Sand",
      "rating": 7.16,
      "classificacao_etaria": "A14",
      "imagem_original": "https://animefire.plus/img/animes/h2o-footprints-in-the-sand.webp",
      "imagem_pasta": "https://animefire.plus/img/animes/h2o-footprints-in-the-sand/",
      "secao": "legendados",
      "pagina": 108,
      "total_episodios": 0,
      "link_video": "https://animefire.plus/video/h2o-footprints-in-the-sand"
    },
    {
      "id": 1300,
      "nome": "Hachi-nan tte, Sore wa Nai deshou!",
      "link": "https://animefire.plus/animes/hachi-nan-tte-sore-wa-nai-deshou-todos-os-episodios",
      "texto_original": "Hachi-nan tte, Sore wa Nai deshou!",
      "rating": 6.19,
      "classificacao_etaria": "A14",
      "imagem_original": "https://animefire.plus/img/animes/hachi-nan-tte-sore-wa-nai-deshou.webp",
      "imagem_pasta": "https://animefire.plus/img/animes/hachi-nan-tte-sore-wa-nai-deshou/",
      "secao": "legendados",
      "pagina": 81,
      "total_episodios": 2,
      "link_video": "https://animefire.plus/video/hachi-nan-tte-sore-wa-nai-deshou"
    },
    {
      "id": 1301,
      "nome": "Hachigatsu no Cinderella Nine",
      "link": "https://animefire.plus/animes/hachigatsu-no-cinderella-nine-todos-os-episodios",
      "texto_original": "Hachigatsu no Cinderella Nine",
      "rating": 6.08,
      "classificacao_etaria": "A14",
      "imagem_original": "https://animefire.plus/img/animes/hachigatsu-no-cinderella-nine.webp",
      "imagem_pasta": "https://animefire.plus/img/animes/hachigatsu-no-cinderella-nine/",
      "secao": "legendados",
      "pagina": 179,
      "total_episodios": 0,
      "link_video": "https://animefire.plus/video/hachigatsu-no-cinderella-nine"
    },
    {
      "id": 1302,
      "nome": "Hachimitsu To Clover II",
      "link": "https://animefire.plus/animes/hachimitsu-to-clover-ii-todos-os-episodios",
      "texto_original": "Hachimitsu To Clover II",
      "rating": 8.3,
      "classificacao_etaria": "A14",
      "imagem_original": "https://animefire.plus/img/animes/hachimitsu-to-clover-ii.webp",
      "imagem_pasta": "https://animefire.plus/img/animes/hachimitsu-to-clover-ii/",
      "secao": "legendados",
      "pagina": 98,
      "total_episodios": 12,
      "link_video": "https://animefire.plus/video/hachimitsu-to-clover-ii"
    },
    {
      "id": 1303,
      "nome": "Hacka Doll The Animation",
      "link": "https://animefire.plus/animes/hacka-doll-the-animation-todos-os-episodios",
      "texto_original": "Hacka Doll The Animation",
      "rating": 6.45,
      "classificacao_etaria": "A14",
      "imagem_original": "https://animefire.plus/img/animes/hacka-doll-the-animation.webp",
      "imagem_pasta": "https://animefire.plus/img/animes/hacka-doll-the-animation/",
      "secao": "legendados",
      "pagina": 74,
      "total_episodios": 13,
      "link_video": "https://animefire.plus/video/hacka-doll-the-animation"
    },
    {
      "id": 1306,
      "nome": "Haibane Renmei",
      "link": "https://animefire.plus/animes/haibane-renmei-todos-os-episodios",
      "texto_original": "Haibane Renmei",
      "rating": 8,
      "classificacao_etaria": "A14",
      "imagem_original": "https://animefire.plus/img/animes/haibane-renmei.webp",
      "imagem_pasta": "https://animefire.plus/img/animes/haibane-renmei/",
      "secao": "legendados",
      "pagina": 94,
      "total_episodios": 13,
      "link_video": "https://animefire.plus/video/haibane-renmei"
    },
    {
      "id": 1307,
      "nome": "Haigakura",
      "link": "https://animefire.plus/animes/haigakura-todos-os-episodios",
      "texto_original": "Haigakura",
      "rating": null,
      "classificacao_etaria": "A14",
      "imagem_original": "https://animefire.plus/img/animes/haigakura.webp",
      "imagem_pasta": "https://animefire.plus/img/animes/haigakura/",
      "secao": "legendados,lancamentos",
      "pagina": 9,
      "total_episodios": 7,
      "link_video": "https://animefire.plus/video/haigakura"
    },
    {
      "id": 1308,
      "nome": "Haikyuu!! (Dublado)",
      "link": "https://animefire.plus/animes/haikyuu-dublado-todos-os-episodios",
      "texto_original": "Haikyuu!! (Dublado)",
      "rating": 8.45,
      "classificacao_etaria": "A14",
      "imagem_original": "https://animefire.plus/img/animes/haikyuu.webp",
      "imagem_pasta": "https://animefire.plus/img/animes/haikyuu/",
      "secao": "dublados,legendados",
      "pagina": 9,
      "total_episodios": 25,
      "link_video": "https://animefire.plus/video/haikyuu-dublado"
    },
    {
      "id": 1309,
      "nome": "Haikyuu!! Quest Picture Drama",
      "link": "https://animefire.plus/animes/haikyuu-quest-picture-drama-todos-os-episodios",
      "texto_original": "Haikyuu!! Quest Picture Drama",
      "rating": 6.52,
      "classificacao_etaria": "A14",
      "imagem_original": "https://animefire.plus/img/animes/haikyuu-quest-picture-drama.webp",
      "imagem_pasta": "https://animefire.plus/img/animes/haikyuu-quest-picture-drama/",
      "secao": "legendados",
      "pagina": 157,
      "total_episodios": 3,
      "link_video": "https://animefire.plus/video/haikyuu-quest-picture-drama"
    },
    {
      "id": 1310,
      "nome": "Haikyuu!! Second Season (Dublado)",
      "link": "https://animefire.plus/animes/haikyuu-second-season-dublado-todos-os-episodios",
      "texto_original": "Haikyuu!! Second Season (Dublado)",
      "rating": 8.64,
      "classificacao_etaria": "A14",
      "imagem_original": "https://animefire.plus/img/animes/haikyuu-second-season.webp",
      "imagem_pasta": "https://animefire.plus/img/animes/haikyuu-second-season/",
      "secao": "dublados,legendados",
      "pagina": 8,
      "total_episodios": 25,
      "link_video": "https://animefire.plus/video/haikyuu-second-season-dublado"
    },
    {
      "id": 1311,
      "nome": "Haikyuu!!: Karasuno Koukou vs. Shiratorizawa Gakuen Koukou",
      "link": "https://animefire.plus/animes/haikyuu-karasuno-koukou-vs-shiratorizawa-gakuen-koukou-todos-os-episodios",
      "texto_original": "Haikyuu!!: Karasuno Koukou vs. Shiratorizawa Gakuen Koukou",
      "rating": 8.93,
      "classificacao_etaria": "A14",
      "imagem_original": "https://animefire.plus/img/animes/haikyuu-karasuno-koukou-vs-shiratorizawa-gakuen-koukou.webp",
      "imagem_pasta": "https://animefire.plus/img/animes/haikyuu-karasuno-koukou-vs-shiratorizawa-gakuen-koukou/",
      "secao": "legendados",
      "pagina": 91,
      "total_episodios": 10,
      "link_video": "https://animefire.plus/video/haikyuu-karasuno-koukou-vs-shiratorizawa-gakuen-koukou"
    },
    {
      "id": 1312,
      "nome": "Haikyuu!!: Lev Genzan!",
      "link": "https://animefire.plus/animes/haikyuu-lev-genzan-todos-os-episodios",
      "texto_original": "Haikyuu!!: Lev Genzan!",
      "rating": 7.76,
      "classificacao_etaria": "A14",
      "imagem_original": "https://animefire.plus/img/animes/haikyuu-lev-genzan.webp",
      "imagem_pasta": "https://animefire.plus/img/animes/haikyuu-lev-genzan/",
      "secao": "legendados",
      "pagina": 68,
      "total_episodios": 1,
      "link_video": "https://animefire.plus/video/haikyuu-lev-genzan"
    },
    {
      "id": 1313,
      "nome": "Haikyuu!!: Riku vs. Kuu",
      "link": "https://animefire.plus/animes/haikyuu-riku-vs-kuu-todos-os-episodios",
      "texto_original": "Haikyuu!!: Riku vs. Kuu",
      "rating": 7.8,
      "classificacao_etaria": "A14",
      "imagem_original": "https://animefire.plus/img/animes/haikyuu-riku-vs-kuu.webp",
      "imagem_pasta": "https://animefire.plus/img/animes/haikyuu-riku-vs-kuu/",
      "secao": "legendados",
      "pagina": 92,
      "total_episodios": 0,
      "link_video": "https://animefire.plus/video/haikyuu-riku-vs-kuu"
    },
    {
      "id": 1314,
      "nome": "Haikyuu!!: To the Top",
      "link": "https://animefire.plus/animes/haikyuu-to-the-top-todos-os-episodios",
      "texto_original": "Haikyuu!!: To the Top",
      "rating": 8.39,
      "classificacao_etaria": "A14",
      "imagem_original": "https://animefire.plus/img/animes/haikyuu-to-the-top.webp",
      "imagem_pasta": "https://animefire.plus/img/animes/haikyuu-to-the-top/",
      "secao": "legendados",
      "pagina": 92,
      "total_episodios": 0,
      "link_video": "https://animefire.plus/video/haikyuu-to-the-top"
    },
    {
      "id": 1315,
      "nome": "Haikyuu!!: To the Top 2nd Season",
      "link": "https://animefire.plus/animes/haikyuu-to-the-top-2nd-season-todos-os-episodios",
      "texto_original": "Haikyuu!!: To the Top 2nd Season",
      "rating": null,
      "classificacao_etaria": "A14",
      "imagem_original": "https://animefire.plus/img/animes/haikyuu-to-the-top-2nd-season.webp",
      "imagem_pasta": "https://animefire.plus/img/animes/haikyuu-to-the-top-2nd-season/",
      "secao": "legendados",
      "pagina": 53,
      "total_episodios": 12,
      "link_video": "https://animefire.plus/video/haikyuu-to-the-top-2nd-season"
    },
    {
      "id": 1316,
      "nome": "Haitai Nanafa",
      "link": "https://animefire.plus/animes/haitai-nanafa-todos-os-episodios",
      "texto_original": "Haitai Nanafa",
      "rating": 6.01,
      "classificacao_etaria": "A14",
      "imagem_original": "https://animefire.plus/img/animes/haitai-nanafa.webp",
      "imagem_pasta": "https://animefire.plus/img/animes/haitai-nanafa/",
      "secao": "legendados",
      "pagina": 71,
      "total_episodios": 13,
      "link_video": "https://animefire.plus/video/haitai-nanafa"
    },
    {
      "id": 1318,
      "nome": "Haiyore! Nyaruko-san (Dublado)",
      "link": "https://animefire.plus/animes/haiyore-nyaruko-san-dublado-todos-os-episodios",
      "texto_original": "Haiyore! Nyaruko-san (Dublado)",
      "rating": 6.99,
      "classificacao_etaria": "A14",
      "imagem_original": "https://animefire.plus/img/animes/haiyore-nyaruko-san.webp",
      "imagem_pasta": "https://animefire.plus/img/animes/haiyore-nyaruko-san/",
      "secao": "dublados,legendados",
      "pagina": 5,
      "total_episodios": 12,
      "link_video": "https://animefire.plus/video/haiyore-nyaruko-san-dublado"
    },
    {
      "id": 1319,
      "nome": "Haiyore! Nyaruko-san F",
      "link": "https://animefire.plus/animes/haiyore-nyaruko-san-f-todos-os-episodios",
      "texto_original": "Haiyore! Nyaruko-san F",
      "rating": 7.56,
      "classificacao_etaria": "A14",
      "imagem_original": "https://animefire.plus/img/animes/haiyore-nyaruko-san-f.webp",
      "imagem_pasta": "https://animefire.plus/img/animes/haiyore-nyaruko-san-f/",
      "secao": "legendados",
      "pagina": 79,
      "total_episodios": 1,
      "link_video": "https://animefire.plus/video/haiyore-nyaruko-san-f"
    },
    {
      "id": 1320,
      "nome": "Haiyore! Nyaruko-san W (Dublado)",
      "link": "https://animefire.plus/animes/haiyore-nyaruko-san-w-dublado-todos-os-episodios",
      "texto_original": "Haiyore! Nyaruko-san W (Dublado)",
      "rating": 7.22,
      "classificacao_etaria": "A14",
      "imagem_original": "https://animefire.plus/img/animes/haiyore-nyaruko-san-w.webp",
      "imagem_pasta": "https://animefire.plus/img/animes/haiyore-nyaruko-san-w/",
      "secao": "dublados,legendados",
      "pagina": 4,
      "total_episodios": 12,
      "link_video": "https://animefire.plus/video/haiyore-nyaruko-san-w-dublado"
    },
    {
      "id": 1321,
      "nome": "Hajime no Ippo: Champion Road",
      "link": "https://animefire.plus/animes/hajime-no-ippo-champion-road-todos-os-episodios",
      "texto_original": "Hajime no Ippo: Champion Road",
      "rating": 8.31,
      "classificacao_etaria": "A14",
      "imagem_original": "https://animefire.plus/img/animes/hajime-no-ippo-champion-road.webp",
      "imagem_pasta": "https://animefire.plus/img/animes/hajime-no-ippo-champion-road/",
      "secao": "legendados",
      "pagina": 78,
      "total_episodios": 1,
      "link_video": "https://animefire.plus/video/hajime-no-ippo-champion-road"
    }
  ],
  "pagination": {
    "current_page": 42,
    "per_page": 20,
    "total_items": 2988,
    "total_pages": 150,
    "has_next": true,
    "has_prev": true
  }
}
