{
  "message": "Animes com classificação etária: A14",
  "age_rating": "A14",
  "data": [
    {
      "id": 4328,
      "nome": "Yuyushiki: Nyanyashiki",
      "link": "https://animefire.plus/animes/yuyushiki-nyanyashiki-todos-os-episodios",
      "texto_original": "Yuyushiki: Nyanyashiki",
      "rating": 6.3,
      "classificacao_etaria": "A14",
      "imagem_original": "https://animefire.plus/img/animes/yuyushiki-nyanyashiki.webp",
      "imagem_pasta": "https://animefire.plus/img/animes/yuyushiki-nyanyashiki/",
      "secao": "legendados",
      "pagina": 85,
      "total_episodios": 1,
      "link_video": "https://animefire.plus/video/yuyushiki-nyanyashiki"
    },
    {
      "id": 4329,
      "nome": "Yuzuki-san Chi no Yonkyoudai.",
      "link": "https://animefire.plus/animes/yuzuki-san-chi-no-yonkyoudai-todos-os-episodios",
      "texto_original": "Yuzuki-san Chi no Yonkyoudai.",
      "rating": 7.87,
      "classificacao_etaria": "A14",
      "imagem_original": "https://animefire.plus/img/animes/yuzuki-san-chi-no-yonkyoudai.webp",
      "imagem_pasta": "https://animefire.plus/img/animes/yuzuki-san-chi-no-yonkyoudai/",
      "secao": "legendados",
      "pagina": 20,
      "total_episodios": 12,
      "link_video": "https://animefire.plus/video/yuzuki-san-chi-no-yonkyoudai"
    },
    {
      "id": 4330,
      "nome": "Z/X: Code Reunion",
      "link": "https://animefire.plus/animes/z-x-code-reunion-todos-os-episodios",
      "texto_original": "Z/X: Code Reunion",
      "rating": 5.68,
      "classificacao_etaria": "A14",
      "imagem_original": "https://animefire.plus/img/animes/z-x-code-reunion.webp",
      "imagem_pasta": "https://animefire.plus/img/animes/z-x-code-reunion/",
      "secao": "legendados",
      "pagina": 89,
      "total_episodios": 0,
      "link_video": "https://animefire.plus/video/z-x-code-reunion"
    },
    {
      "id": 4334,
      "nome": "Zanting! Rang Wo Cha Gonglue",
      "link": "https://animefire.plus/animes/zanting-rang-wo-cha-gonglue-todos-os-episodios",
      "texto_original": "Zanting! Rang Wo Cha Gonglue",
      "rating": 6.41,
      "classificacao_etaria": "A14",
      "imagem_original": "https://animefire.plus/img/animes/zanting-rang-wo-cha-gonglue.webp",
      "imagem_pasta": "https://animefire.plus/img/animes/zanting-rang-wo-cha-gonglue/",
      "secao": "legendados,lancamentos",
      "pagina": 19,
      "total_episodios": 6,
      "link_video": "https://animefire.plus/video/zanting-rang-wo-cha-gonglue"
    },
    {
      "id": 4335,
      "nome": "Zashiki Warashi no Tatami-chan",
      "link": "https://animefire.plus/animes/zashiki-warashi-no-tatami-chan-todos-os-episodios",
      "texto_original": "Zashiki Warashi no Tatami-chan",
      "rating": 5.23,
      "classificacao_etaria": "A14",
      "imagem_original": "https://animefire.plus/img/animes/zashiki-warashi-no-tatami-chan.webp",
      "imagem_pasta": "https://animefire.plus/img/animes/zashiki-warashi-no-tatami-chan/",
      "secao": "legendados",
      "pagina": 80,
      "total_episodios": 0,
      "link_video": "https://animefire.plus/video/zashiki-warashi-no-tatami-chan"
    },
    {
      "id": 4336,
      "nome": "Zatsu Tabi: That's Journey",
      "link": "https://animefire.plus/animes/zatsu-tabi-that-s-journey-todos-os-episodios",
      "texto_original": "Zatsu Tabi: That's Journey",
      "rating": 6.93,
      "classificacao_etaria": "A14",
      "imagem_original": "https://animefire.plus/img/animes/zatsu-tabi-that-s-journey.webp",
      "imagem_pasta": "https://animefire.plus/img/animes/zatsu-tabi-that-s-journey/",
      "secao": "legendados",
      "pagina": 5,
      "total_episodios": 12,
      "link_video": "https://animefire.plus/video/zatsu-tabi-that-s-journey"
    },
    {
      "id": 4337,
      "nome": "Ze Tian Ji",
      "link": "https://animefire.plus/animes/ze-tian-ji-todos-os-episodios",
      "texto_original": "Ze Tian Ji",
      "rating": 6.96,
      "classificacao_etaria": "A14",
      "imagem_original": "https://animefire.plus/img/animes/ze-tian-ji.webp",
      "imagem_pasta": "https://animefire.plus/img/animes/ze-tian-ji/",
      "secao": "legendados",
      "pagina": 142,
      "total_episodios": 13,
      "link_video": "https://animefire.plus/video/ze-tian-ji"
    },
    {
      "id": 4338,
      "nome": "Ze Tian Ji 2nd Season",
      "link": "https://animefire.plus/animes/ze-tian-ji-2nd-season-todos-os-episodios",
      "texto_original": "Ze Tian Ji 2nd Season",
      "rating": 7.09,
      "classificacao_etaria": "A14",
      "imagem_original": "https://animefire.plus/img/animes/ze-tian-ji-2nd-season.webp",
      "imagem_pasta": "https://animefire.plus/img/animes/ze-tian-ji-2nd-season/",
      "secao": "legendados",
      "pagina": 158,
      "total_episodios": 12,
      "link_video": "https://animefire.plus/video/ze-tian-ji-2nd-season"
    },
    {
      "id": 4339,
      "nome": "Ze Tian Ji 3rd Season",
      "link": "https://animefire.plus/animes/ze-tian-ji-3rd-season-todos-os-episodios",
      "texto_original": "Ze Tian Ji 3rd Season",
      "rating": 6.86,
      "classificacao_etaria": "A14",
      "imagem_original": "https://animefire.plus/img/animes/ze-tian-ji-3rd-season.webp",
      "imagem_pasta": "https://animefire.plus/img/animes/ze-tian-ji-3rd-season/",
      "secao": "legendados",
      "pagina": 118,
      "total_episodios": 12,
      "link_video": "https://animefire.plus/video/ze-tian-ji-3rd-season"
    },
    {
      "id": 4340,
      "nome": "Ze Tian Ji 4th Season",
      "link": "https://animefire.plus/animes/ze-tian-ji-4th-season-todos-os-episodios",
      "texto_original": "Ze Tian Ji 4th Season",
      "rating": 7.11,
      "classificacao_etaria": "A14",
      "imagem_original": "https://animefire.plus/img/animes/ze-tian-ji-4th-season.webp",
      "imagem_pasta": "https://animefire.plus/img/animes/ze-tian-ji-4th-season/",
      "secao": "legendados",
      "pagina": 135,
      "total_episodios": 12,
      "link_video": "https://animefire.plus/video/ze-tian-ji-4th-season"
    },
    {
      "id": 4341,
      "nome": "Zegapain",
      "link": "https://animefire.plus/animes/zegapain-todos-os-episodios",
      "texto_original": "Zegapain",
      "rating": 7.39,
      "classificacao_etaria": "A14",
      "imagem_original": "https://animefire.plus/img/animes/zegapain.webp",
      "imagem_pasta": "https://animefire.plus/img/animes/zegapain/",
      "secao": "legendados",
      "pagina": 97,
      "total_episodios": 26,
      "link_video": "https://animefire.plus/video/zegapain"
    },
    {
      "id": 4342,
      "nome": "Zenonzard: The Animation",
      "link": "https://animefire.plus/animes/zenonzard-the-animation-todos-os-episodios",
      "texto_original": "Zenonzard: The Animation",
      "rating": 6.68,
      "classificacao_etaria": "A14",
      "imagem_original": "https://animefire.plus/img/animes/zenonzard-the-animation.webp",
      "imagem_pasta": "https://animefire.plus/img/animes/zenonzard-the-animation/",
      "secao": "legendados",
      "pagina": 91,
      "total_episodios": 8,
      "link_video": "https://animefire.plus/video/zenonzard-the-animation"
    },
    {
      "id": 4343,
      "nome": "Zenshuu. (Dublado)",
      "link": "https://animefire.plus/animes/zenshuu-dublado-todos-os-episodios",
      "texto_original": "Zenshuu. (Dublado)",
      "rating": 7.59,
      "classificacao_etaria": "A14",
      "imagem_original": "https://animefire.plus/img/animes/zenshuu.webp",
      "imagem_pasta": "https://animefire.plus/img/animes/zenshuu/",
      "secao": "dublados,legendados,lancamentos",
      "pagina": 2,
      "total_episodios": 12,
      "link_video": "https://animefire.plus/video/zenshuu-dublado"
    },
    {
      "id": 4344,
      "nome": "Zero kara Hajimeru Mahou no Sho",
      "link": "https://animefire.plus/animes/zero-kara-hajimeru-mahou-no-sho-todos-os-episodios",
      "texto_original": "Zero kara Hajimeru Mahou no Sho",
      "rating": 7.19,
      "classificacao_etaria": "A14",
      "imagem_original": "https://animefire.plus/img/animes/zero-kara-hajimeru-mahou-no-sho.webp",
      "imagem_pasta": "https://animefire.plus/img/animes/zero-kara-hajimeru-mahou-no-sho/",
      "secao": "legendados",
      "pagina": 116,
      "total_episodios": 12,
      "link_video": "https://animefire.plus/video/zero-kara-hajimeru-mahou-no-sho"
    },
    {
      "id": 4345,
      "nome": "Zero no Tsukaima",
      "link": "https://animefire.plus/animes/zero-no-tsukaima-todos-os-episodios",
      "texto_original": "Zero no Tsukaima",
      "rating": 7.48,
      "classificacao_etaria": "A14",
      "imagem_original": "https://animefire.plus/img/animes/zero-no-tsukaima.webp",
      "imagem_pasta": "https://animefire.plus/img/animes/zero-no-tsukaima/",
      "secao": "legendados",
      "pagina": 169,
      "total_episodios": 13,
      "link_video": "https://animefire.plus/video/zero-no-tsukaima"
    },
    {
      "id": 4346,
      "nome": "Zero no Tsukaima F",
      "link": "https://animefire.plus/animes/zero-no-tsukaima-f-todos-os-episodios",
      "texto_original": "Zero no Tsukaima F",
      "rating": 7.67,
      "classificacao_etaria": "A14",
      "imagem_original": "https://animefire.plus/img/animes/zero-no-tsukaima-f.webp",
      "imagem_pasta": "https://animefire.plus/img/animes/zero-no-tsukaima-f/",
      "secao": "legendados",
      "pagina": 156,
      "total_episodios": 6,
      "link_video": "https://animefire.plus/video/zero-no-tsukaima-f"
    },
    {
      "id": 4347,
      "nome": "Zero no Tsukaima: Futatsuki no Kishi",
      "link": "https://animefire.plus/animes/zero-no-tsukaima-futatsuki-no-kishi-todos-os-episodios",
      "texto_original": "Zero no Tsukaima: Futatsuki no Kishi",
      "rating": 7.62,
      "classificacao_etaria": "A14",
      "imagem_original": "https://animefire.plus/img/animes/zero-no-tsukaima-futatsuki-no-kishi.webp",
      "imagem_pasta": "https://animefire.plus/img/animes/zero-no-tsukaima-futatsuki-no-kishi/",
      "secao": "legendados",
      "pagina": 169,
      "total_episodios": 12,
      "link_video": "https://animefire.plus/video/zero-no-tsukaima-futatsuki-no-kishi"
    },
    {
      "id": 4348,
      "nome": "Zero no Tsukaima: Princesses no Rondo",
      "link": "https://animefire.plus/animes/zero-no-tsukaima-princesses-no-rondo-todos-os-episodios",
      "texto_original": "Zero no Tsukaima: Princesses no Rondo",
      "rating": 7.52,
      "classificacao_etaria": "A14",
      "imagem_original": "https://animefire.plus/img/animes/zero-no-tsukaima-princesses-no-rondo.webp",
      "imagem_pasta": "https://animefire.plus/img/animes/zero-no-tsukaima-princesses-no-rondo/",
      "secao": "legendados",
      "pagina": 157,
      "total_episodios": 12,
      "link_video": "https://animefire.plus/video/zero-no-tsukaima-princesses-no-rondo"
    },
    {
      "id": 4349,
      "nome": "Zero no Tsukaima: Princesses no Rondo Picture Drama",
      "link": "https://animefire.plus/animes/zero-no-tsukaima-princesses-no-rondo-picture-drama-todos-os-episodios",
      "texto_original": "Zero no Tsukaima: Princesses no Rondo Picture Drama",
      "rating": 6.98,
      "classificacao_etaria": "A14",
      "imagem_original": "https://animefire.plus/img/animes/zero-no-tsukaima-princesses-no-rondo-picture-drama.webp",
      "imagem_pasta": "https://animefire.plus/img/animes/zero-no-tsukaima-princesses-no-rondo-picture-drama/",
      "secao": "legendados",
      "pagina": 85,
      "total_episodios": 7,
      "link_video": "https://animefire.plus/video/zero-no-tsukaima-princesses-no-rondo-picture-drama"
    },
    {
      "id": 4351,
      "nome": "Zetsuen no Tempest",
      "link": "https://animefire.plus/animes/zetsuen-no-tempest-todos-os-episodios",
      "texto_original": "Zetsuen no Tempest",
      "rating": 8.08,
      "classificacao_etaria": "A14",
      "imagem_original": "https://animefire.plus/img/animes/zetsuen-no-tempest.webp",
      "imagem_pasta": "https://animefire.plus/img/animes/zetsuen-no-tempest/",
      "secao": "legendados",
      "pagina": 144,
      "total_episodios": 2,
      "link_video": "https://animefire.plus/video/zetsuen-no-tempest"
    }
  ],
  "pagination": {
    "current_page": 149,
    "per_page": 20,
    "total_items": 2988,
    "total_pages": 150,
    "has_next": true,
    "has_prev": true
  }
}
