{
  "message": "Animes com classificação etária: A14",
  "age_rating": "A14",
  "data": [
    {
      "id": 4220,
      "nome": "Yaoguai Mingdan",
      "link": "https://animefire.plus/animes/yaoguai-mingdan-todos-os-episodios",
      "texto_original": "Yaoguai Mingdan",
      "rating": 7.12,
      "classificacao_etaria": "A14",
      "imagem_original": "https://animefire.plus/img/animes/yaoguai-mingdan.webp",
      "imagem_pasta": "https://animefire.plus/img/animes/yaoguai-mingdan/",
      "secao": "legendados",
      "pagina": 131,
      "total_episodios": 18,
      "link_video": "https://animefire.plus/video/yaoguai-mingdan"
    },
    {
      "id": 4223,
      "nome": "Yarinaoshi Reijou wa Ryuutei Heika wo Kouryakuchuu",
      "link": "https://animefire.plus/animes/yarinaoshi-reijou-wa-ryuutei-heika-wo-kouryakuchuu-todos-os-episodios",
      "texto_original": "Yarinaoshi Reijou wa Ryuutei Heika wo Kouryakuchuu",
      "rating": 7.01,
      "classificacao_etaria": "A14",
      "imagem_original": "https://animefire.plus/img/animes/yarinaoshi-reijou-wa-ryuutei-heika-wo-kouryakuchuu.webp",
      "imagem_pasta": "https://animefire.plus/img/animes/yarinaoshi-reijou-wa-ryuutei-heika-wo-kouryakuchuu/",
      "secao": "legendados",
      "pagina": 11,
      "total_episodios": 12,
      "link_video": "https://animefire.plus/video/yarinaoshi-reijou-wa-ryuutei-heika-wo-kouryakuchuu"
    },
    {
      "id": 4225,
      "nome": "Yatogame-chan Kansatsu Nikki",
      "link": "https://animefire.plus/animes/yatogame-chan-kansatsu-nikki-todos-os-episodios",
      "texto_original": "Yatogame-chan Kansatsu Nikki",
      "rating": 6.21,
      "classificacao_etaria": "A14",
      "imagem_original": "https://animefire.plus/img/animes/yatogame-chan-kansatsu-nikki.webp",
      "imagem_pasta": "https://animefire.plus/img/animes/yatogame-chan-kansatsu-nikki/",
      "secao": "legendados",
      "pagina": 166,
      "total_episodios": 0,
      "link_video": "https://animefire.plus/video/yatogame-chan-kansatsu-nikki"
    },
    {
      "id": 4226,
      "nome": "Yatogame-chan Kansatsu Nikki 4th Season",
      "link": "https://animefire.plus/animes/yatogame-chan-kansatsu-nikki-4-todos-os-episodios",
      "texto_original": "Yatogame-chan Kansatsu Nikki 4th Season",
      "rating": 6.3,
      "classificacao_etaria": "A14",
      "imagem_original": "https://animefire.plus/img/animes/yatogame-chan-kansatsu-nikki-4.webp",
      "imagem_pasta": "https://animefire.plus/img/animes/yatogame-chan-kansatsu-nikki-4/",
      "secao": "legendados",
      "pagina": 33,
      "total_episodios": 1,
      "link_video": "https://animefire.plus/video/yatogame-chan-kansatsu-nikki-4"
    },
    {
      "id": 4227,
      "nome": "Yatogame-chan Kansatsu Nikki Nisatsume",
      "link": "https://animefire.plus/animes/yatogame-chan-kansatsu-nikki-nisatsume-todos-os-episodios",
      "texto_original": "Yatogame-chan Kansatsu Nikki Nisatsume",
      "rating": 6.31,
      "classificacao_etaria": "A14",
      "imagem_original": "https://animefire.plus/img/animes/yatogame-chan-kansatsu-nikki-nisatsume.webp",
      "imagem_pasta": "https://animefire.plus/img/animes/yatogame-chan-kansatsu-nikki-nisatsume/",
      "secao": "legendados",
      "pagina": 93,
      "total_episodios": 12,
      "link_video": "https://animefire.plus/video/yatogame-chan-kansatsu-nikki-nisatsume"
    },
    {
      "id": 4228,
      "nome": "Yatogame-chan Kansatsu Nikki Sansatsume",
      "link": "https://animefire.plus/animes/yatogame-chan-kansatsu-nikki-sansatsume-todos-os-episodios",
      "texto_original": "Yatogame-chan Kansatsu Nikki Sansatsume",
      "rating": 6.38,
      "classificacao_etaria": "A14",
      "imagem_original": "https://animefire.plus/img/animes/yatogame-chan-kansatsu-nikki-sansatsume.webp",
      "imagem_pasta": "https://animefire.plus/img/animes/yatogame-chan-kansatsu-nikki-sansatsume/",
      "secao": "legendados",
      "pagina": 49,
      "total_episodios": 12,
      "link_video": "https://animefire.plus/video/yatogame-chan-kansatsu-nikki-sansatsume"
    },
    {
      "id": 4229,
      "nome": "Yatogame-chan Kansatsu Nikki Yonsatsume",
      "link": "https://animefire.plus/animes/yatogame-chan-kansatsu-nikki-yonsatsume-todos-os-episodios",
      "texto_original": "Yatogame-chan Kansatsu Nikki Yonsatsume",
      "rating": 6.3,
      "classificacao_etaria": "A14",
      "imagem_original": "https://animefire.plus/img/animes/yatogame-chan-kansatsu-nikki-yonsatsume.webp",
      "imagem_pasta": "https://animefire.plus/img/animes/yatogame-chan-kansatsu-nikki-yonsatsume/",
      "secao": "legendados",
      "pagina": 33,
      "total_episodios": 10,
      "link_video": "https://animefire.plus/video/yatogame-chan-kansatsu-nikki-yonsatsume"
    },
    {
      "id": 4230,
      "nome": "Yawara!",
      "link": "https://animefire.plus/animes/yawara-todos-os-episodios",
      "texto_original": "Yawara!",
      "rating": 7.47,
      "classificacao_etaria": "A14",
      "imagem_original": "https://animefire.plus/img/animes/yawara.webp",
      "imagem_pasta": "https://animefire.plus/img/animes/yawara/",
      "secao": "legendados",
      "pagina": 43,
      "total_episodios": 53,
      "link_video": "https://animefire.plus/video/yawara"
    },
    {
      "id": 4231,
      "nome": "Yeosin Gangnim",
      "link": "https://animefire.plus/animes/yeosin-gangnim-todos-os-episodios",
      "texto_original": "Yeosin Gangnim",
      "rating": 6.6,
      "classificacao_etaria": "A14",
      "imagem_original": "https://animefire.plus/img/animes/yeosin-gangnim.webp",
      "imagem_pasta": "https://animefire.plus/img/animes/yeosin-gangnim/",
      "secao": "legendados",
      "pagina": 10,
      "total_episodios": 13,
      "link_video": "https://animefire.plus/video/yeosin-gangnim"
    },
    {
      "id": 4233,
      "nome": "Yesterday Wo Utatte",
      "link": "https://animefire.plus/animes/yesterday-wo-utatte-todos-os-episodios",
      "texto_original": "Yesterday Wo Utatte",
      "rating": 7.01,
      "classificacao_etaria": "A14",
      "imagem_original": "https://animefire.plus/img/animes/yesterday-wo-utatte.webp",
      "imagem_pasta": "https://animefire.plus/img/animes/yesterday-wo-utatte/",
      "secao": "legendados",
      "pagina": 60,
      "total_episodios": 1,
      "link_video": "https://animefire.plus/video/yesterday-wo-utatte"
    },
    {
      "id": 4234,
      "nome": "Yesterday wo Utatte Haishin-ban Episode",
      "link": "https://animefire.plus/animes/yesterday-wo-utatte-haishin-ban-episode-todos-os-episodios",
      "texto_original": "Yesterday wo Utatte Haishin-ban Episode",
      "rating": 6.66,
      "classificacao_etaria": "A14",
      "imagem_original": "https://animefire.plus/img/animes/yesterday-wo-utatte-haishin-ban-episode.webp",
      "imagem_pasta": "https://animefire.plus/img/animes/yesterday-wo-utatte-haishin-ban-episode/",
      "secao": "legendados",
      "pagina": 58,
      "total_episodios": 6,
      "link_video": "https://animefire.plus/video/yesterday-wo-utatte-haishin-ban-episode"
    },
    {
      "id": 4235,
      "nome": "Yi Nian Yong Heng",
      "link": "https://animefire.plus/animes/yi-nian-yong-heng-todos-os-episodios",
      "texto_original": "Yi Nian Yong Heng",
      "rating": 6.9,
      "classificacao_etaria": "A14",
      "imagem_original": "https://animefire.plus/img/animes/yi-nian-yong-heng.webp",
      "imagem_pasta": "https://animefire.plus/img/animes/yi-nian-yong-heng/",
      "secao": "legendados,lancamentos",
      "pagina": 51,
      "total_episodios": 11,
      "link_video": "https://animefire.plus/video/yi-nian-yong-heng"
    },
    {
      "id": 4236,
      "nome": "Yichang Shengwu Jianwenlu",
      "link": "https://animefire.plus/animes/yichang-shengwu-jianwenlu-todos-os-episodios",
      "texto_original": "Yichang Shengwu Jianwenlu",
      "rating": 6.38,
      "classificacao_etaria": "A14",
      "imagem_original": "https://animefire.plus/img/animes/yichang-shengwu-jianwenlu.webp",
      "imagem_pasta": "https://animefire.plus/img/animes/yichang-shengwu-jianwenlu/",
      "secao": "legendados",
      "pagina": 68,
      "total_episodios": 0,
      "link_video": "https://animefire.plus/video/yichang-shengwu-jianwenlu"
    },
    {
      "id": 4238,
      "nome": "Yoake Mae yori Ruriiro na: Crescent Love",
      "link": "https://animefire.plus/animes/yoake-mae-yori-ruriiro-na-crescent-love-todos-os-episodios",
      "texto_original": "Yoake Mae yori Ruriiro na: Crescent Love",
      "rating": 7.19,
      "classificacao_etaria": "A14",
      "imagem_original": "https://animefire.plus/img/animes/yoake-mae-yori-ruriiro-na-crescent-love.webp",
      "imagem_pasta": "https://animefire.plus/img/animes/yoake-mae-yori-ruriiro-na-crescent-love/",
      "secao": "legendados",
      "pagina": 121,
      "total_episodios": 12,
      "link_video": "https://animefire.plus/video/yoake-mae-yori-ruriiro-na-crescent-love"
    },
    {
      "id": 4239,
      "nome": "Yofukashi no Uta",
      "link": "https://animefire.plus/animes/yofukashi-no-uta-todos-os-episodios",
      "texto_original": "Yofukashi no Uta",
      "rating": 7.95,
      "classificacao_etaria": "A14",
      "imagem_original": "https://animefire.plus/img/animes/yofukashi-no-uta.webp",
      "imagem_pasta": "https://animefire.plus/img/animes/yofukashi-no-uta/",
      "secao": "legendados",
      "pagina": 32,
      "total_episodios": 13,
      "link_video": "https://animefire.plus/video/yofukashi-no-uta"
    },
    {
      "id": 4240,
      "nome": "Yofukashi no Uta Season 2",
      "link": "https://animefire.plus/animes/yofukashi-no-uta-season-2-todos-os-episodios",
      "texto_original": "Yofukashi no Uta Season 2",
      "rating": 8.25,
      "classificacao_etaria": "A14",
      "imagem_original": "https://animefire.plus/img/animes/yofukashi-no-uta-season-2.webp",
      "imagem_pasta": "https://animefire.plus/img/animes/yofukashi-no-uta-season-2/",
      "secao": "legendados,lancamentos",
      "pagina": 1,
      "total_episodios": 5,
      "link_video": "https://animefire.plus/video/yofukashi-no-uta-season-2"
    },
    {
      "id": 4241,
      "nome": "Yojouhan Time Machine Blues",
      "link": "https://animefire.plus/animes/yojouhan-time-machine-blues-todos-os-episodios",
      "texto_original": "Yojouhan Time Machine Blues",
      "rating": 8.18,
      "classificacao_etaria": "A14",
      "imagem_original": "https://animefire.plus/img/animes/yojouhan-time-machine-blues.webp",
      "imagem_pasta": "https://animefire.plus/img/animes/yojouhan-time-machine-blues/",
      "secao": "legendados,lancamentos",
      "pagina": 28,
      "total_episodios": 4,
      "link_video": "https://animefire.plus/video/yojouhan-time-machine-blues"
    },
    {
      "id": 4242,
      "nome": "Yoku Wakaru Gendai Mahou",
      "link": "https://animefire.plus/animes/yoku-wakaru-gendai-mahou-todos-os-episodios",
      "texto_original": "Yoku Wakaru Gendai Mahou",
      "rating": 6.5,
      "classificacao_etaria": "A14",
      "imagem_original": "https://animefire.plus/img/animes/yoku-wakaru-gendai-mahou.webp",
      "imagem_pasta": "https://animefire.plus/img/animes/yoku-wakaru-gendai-mahou/",
      "secao": "legendados",
      "pagina": 103,
      "total_episodios": 0,
      "link_video": "https://animefire.plus/video/yoku-wakaru-gendai-mahou"
    },
    {
      "id": 4243,
      "nome": "Yomigaeru Sora: Rescue Wings",
      "link": "https://animefire.plus/animes/yomigaeru-sora-rescue-wings-todos-os-episodios",
      "texto_original": "Yomigaeru Sora: Rescue Wings",
      "rating": 7.48,
      "classificacao_etaria": "A14",
      "imagem_original": "https://animefire.plus/img/animes/yomigaeru-sora-rescue-wings.webp",
      "imagem_pasta": "https://animefire.plus/img/animes/yomigaeru-sora-rescue-wings/",
      "secao": "legendados",
      "pagina": 104,
      "total_episodios": 12,
      "link_video": "https://animefire.plus/video/yomigaeru-sora-rescue-wings"
    },
    {
      "id": 4246,
      "nome": "Yoroiden Samurai Troopers Gaiden",
      "link": "https://animefire.plus/animes/yoroiden-samurai-troopers-gaiden-todos-os-episodios",
      "texto_original": "Yoroiden Samurai Troopers Gaiden",
      "rating": 6.63,
      "classificacao_etaria": "A14",
      "imagem_original": "https://animefire.plus/img/animes/yoroiden-samurai-troopers-gaiden.webp",
      "imagem_pasta": "https://animefire.plus/img/animes/yoroiden-samurai-troopers-gaiden/",
      "secao": "legendados",
      "pagina": 79,
      "total_episodios": 2,
      "link_video": "https://animefire.plus/video/yoroiden-samurai-troopers-gaiden"
    }
  ],
  "pagination": {
    "current_page": 145,
    "per_page": 20,
    "total_items": 2988,
    "total_pages": 150,
    "has_next": true,
    "has_prev": true
  }
}
